(kicad_sch (version 20230121) (generator eeschema)

  (uuid d7a1bc40-e8e8-4c52-8ed8-326a32ac93b9)

  (paper "A4")

  (lib_symbols
    (symbol "KERISE-rescue:+3.3V-power-KERISE-rescue-KERISE-rescue" (power) (pin_names (offset 0)) (in_bom yes) (on_board yes)
      (property "Reference" "#PWR" (at 0 -3.81 0)
        (effects (font (size 1.27 1.27)) hide)
      )
      (property "Value" "+3.3V-power-KERISE-rescue-KERISE-rescue" (at 0 3.556 0)
        (effects (font (size 1.27 1.27)))
      )
      (property "Footprint" "" (at 0 0 0)
        (effects (font (size 1.27 1.27)) hide)
      )
      (property "Datasheet" "" (at 0 0 0)
        (effects (font (size 1.27 1.27)) hide)
      )
      (symbol "+3.3V-power-KERISE-rescue-KERISE-rescue_0_1"
        (polyline
          (pts
            (xy -0.762 1.27)
            (xy 0 2.54)
          )
          (stroke (width 0) (type solid))
          (fill (type none))
        )
        (polyline
          (pts
            (xy 0 0)
            (xy 0 2.54)
          )
          (stroke (width 0) (type solid))
          (fill (type none))
        )
        (polyline
          (pts
            (xy 0 2.54)
            (xy 0.762 1.27)
          )
          (stroke (width 0) (type solid))
          (fill (type none))
        )
      )
      (symbol "+3.3V-power-KERISE-rescue-KERISE-rescue_1_1"
        (pin power_in line (at 0 0 90) (length 0) hide
          (name "+3V3" (effects (font (size 1.27 1.27))))
          (number "1" (effects (font (size 1.27 1.27))))
        )
      )
    )
    (symbol "KERISE-rescue:C_Small-Device-KERISE-rescue-KERISE-rescue" (pin_numbers hide) (pin_names (offset 0.254) hide) (in_bom yes) (on_board yes)
      (property "Reference" "C" (at 0.254 1.778 0)
        (effects (font (size 1.27 1.27)) (justify left))
      )
      (property "Value" "C_Small-Device-KERISE-rescue-KERISE-rescue" (at 0.254 -2.032 0)
        (effects (font (size 1.27 1.27)) (justify left))
      )
      (property "Footprint" "" (at 0 0 0)
        (effects (font (size 1.27 1.27)) hide)
      )
      (property "Datasheet" "" (at 0 0 0)
        (effects (font (size 1.27 1.27)) hide)
      )
      (property "ki_fp_filters" "C_*" (at 0 0 0)
        (effects (font (size 1.27 1.27)) hide)
      )
      (symbol "C_Small-Device-KERISE-rescue-KERISE-rescue_0_1"
        (polyline
          (pts
            (xy -1.524 -0.508)
            (xy 1.524 -0.508)
          )
          (stroke (width 0.3302) (type solid))
          (fill (type none))
        )
        (polyline
          (pts
            (xy -1.524 0.508)
            (xy 1.524 0.508)
          )
          (stroke (width 0.3048) (type solid))
          (fill (type none))
        )
      )
      (symbol "C_Small-Device-KERISE-rescue-KERISE-rescue_1_1"
        (pin passive line (at 0 2.54 270) (length 2.032)
          (name "~" (effects (font (size 1.27 1.27))))
          (number "1" (effects (font (size 1.27 1.27))))
        )
        (pin passive line (at 0 -2.54 90) (length 2.032)
          (name "~" (effects (font (size 1.27 1.27))))
          (number "2" (effects (font (size 1.27 1.27))))
        )
      )
    )
    (symbol "KERISE-rescue:GND-power-KERISE-rescue-KERISE-rescue" (power) (pin_names (offset 0)) (in_bom yes) (on_board yes)
      (property "Reference" "#PWR" (at 0 -6.35 0)
        (effects (font (size 1.27 1.27)) hide)
      )
      (property "Value" "GND-power-KERISE-rescue-KERISE-rescue" (at 0 -3.81 0)
        (effects (font (size 1.27 1.27)))
      )
      (property "Footprint" "" (at 0 0 0)
        (effects (font (size 1.27 1.27)) hide)
      )
      (property "Datasheet" "" (at 0 0 0)
        (effects (font (size 1.27 1.27)) hide)
      )
      (symbol "GND-power-KERISE-rescue-KERISE-rescue_0_1"
        (polyline
          (pts
            (xy 0 0)
            (xy 0 -1.27)
            (xy 1.27 -1.27)
            (xy 0 -2.54)
            (xy -1.27 -1.27)
            (xy 0 -1.27)
          )
          (stroke (width 0) (type solid))
          (fill (type none))
        )
      )
      (symbol "GND-power-KERISE-rescue-KERISE-rescue_1_1"
        (pin power_in line (at 0 0 270) (length 0) hide
          (name "GND" (effects (font (size 1.27 1.27))))
          (number "1" (effects (font (size 1.27 1.27))))
        )
      )
    )
    (symbol "KERISE:ICM-20600" (pin_names (offset 1.016)) (in_bom yes) (on_board yes)
      (property "Reference" "U" (at 0 19.05 0)
        (effects (font (size 1.524 1.524)))
      )
      (property "Value" "ICM-20600" (at 0 15.24 0)
        (effects (font (size 1.524 1.524)))
      )
      (property "Footprint" "" (at 0 15.24 0)
        (effects (font (size 1.524 1.524)))
      )
      (property "Datasheet" "" (at 0 15.24 0)
        (effects (font (size 1.524 1.524)))
      )
      (symbol "ICM-20600_0_1"
        (rectangle (start -10.16 17.78) (end 10.16 -20.32)
          (stroke (width 0) (type solid))
          (fill (type background))
        )
      )
      (symbol "ICM-20600_1_1"
        (pin input line (at 12.7 7.62 180) (length 2.54)
          (name "SA0/SDO" (effects (font (size 1.27 1.27))))
          (number "1" (effects (font (size 1.27 1.27))))
        )
        (pin input line (at 12.7 -2.54 180) (length 2.54)
          (name "FSYNC/NC" (effects (font (size 1.27 1.27))))
          (number "10" (effects (font (size 1.27 1.27))))
        )
        (pin power_out line (at -12.7 5.08 0) (length 2.54)
          (name "REGOUT" (effects (font (size 1.27 1.27))))
          (number "11" (effects (font (size 1.27 1.27))))
        )
        (pin input line (at 12.7 5.08 180) (length 2.54)
          (name "~{CS}" (effects (font (size 1.27 1.27))))
          (number "12" (effects (font (size 1.27 1.27))))
        )
        (pin input line (at 12.7 12.7 180) (length 2.54)
          (name "SCL/SCLK" (effects (font (size 1.27 1.27))))
          (number "13" (effects (font (size 1.27 1.27))))
        )
        (pin input line (at 12.7 10.16 180) (length 2.54)
          (name "SDA/SDI" (effects (font (size 1.27 1.27))))
          (number "14" (effects (font (size 1.27 1.27))))
        )
        (pin no_connect line (at -12.7 0 0) (length 2.54)
          (name "NC" (effects (font (size 1.27 1.27))))
          (number "2" (effects (font (size 1.27 1.27))))
        )
        (pin no_connect line (at -12.7 -2.54 0) (length 2.54)
          (name "NC" (effects (font (size 1.27 1.27))))
          (number "3" (effects (font (size 1.27 1.27))))
        )
        (pin output line (at 12.7 2.54 180) (length 2.54)
          (name "INT1" (effects (font (size 1.27 1.27))))
          (number "4" (effects (font (size 1.27 1.27))))
        )
        (pin power_in line (at -12.7 12.7 0) (length 2.54)
          (name "VDDIO" (effects (font (size 1.27 1.27))))
          (number "5" (effects (font (size 1.27 1.27))))
        )
        (pin power_in line (at -12.7 -17.78 0) (length 2.54)
          (name "GND" (effects (font (size 1.27 1.27))))
          (number "6" (effects (font (size 1.27 1.27))))
        )
        (pin input line (at -12.7 -5.08 0) (length 2.54)
          (name "RESV" (effects (font (size 1.27 1.27))))
          (number "7" (effects (font (size 1.27 1.27))))
        )
        (pin power_in line (at -12.7 10.16 0) (length 2.54)
          (name "VDD" (effects (font (size 1.27 1.27))))
          (number "8" (effects (font (size 1.27 1.27))))
        )
        (pin input line (at 12.7 0 180) (length 2.54)
          (name "INT2" (effects (font (size 1.27 1.27))))
          (number "9" (effects (font (size 1.27 1.27))))
        )
      )
    )
  )

  (junction (at 127 73.66) (diameter 0) (color 0 0 0 0)
    (uuid b6747779-82f1-422d-89e2-084131617ed6)
  )
  (junction (at 127 76.2) (diameter 0) (color 0 0 0 0)
    (uuid bd9c6d21-d581-406d-9e0b-8a42af0034d7)
  )
  (junction (at 127 104.14) (diameter 0) (color 0 0 0 0)
    (uuid fd2a5f2c-bfc0-4755-9b5a-abca9e1611f5)
  )

  (no_connect (at 154.94 86.36) (uuid 3328aeff-1e30-4f79-a4d7-7496c23883e5))
  (no_connect (at 154.94 88.9) (uuid 35c1f4f1-819f-4297-bdf5-f0f98b4d0d39))
  (no_connect (at 154.94 83.82) (uuid da09d592-ad7f-4e05-bf28-6cfc63b1ab96))

  (wire (pts (xy 127 104.14) (xy 127 106.68))
    (stroke (width 0) (type default))
    (uuid 095cd5d9-234c-4634-9821-1202b4587bcf)
  )
  (wire (pts (xy 121.92 81.28) (xy 129.54 81.28))
    (stroke (width 0) (type default))
    (uuid 1ac45a8f-d72e-43e3-b431-4843aae40191)
  )
  (wire (pts (xy 116.84 106.68) (xy 116.84 96.52))
    (stroke (width 0) (type default))
    (uuid 1de44297-2f62-4e3b-b36d-b83e3468731d)
  )
  (wire (pts (xy 127 91.44) (xy 127 104.14))
    (stroke (width 0) (type default))
    (uuid 2b9beb35-9841-4635-99bd-c2e29d44725c)
  )
  (wire (pts (xy 116.84 76.2) (xy 127 76.2))
    (stroke (width 0) (type default))
    (uuid 354c06b1-57a0-4eb6-852b-d66a66d0b22f)
  )
  (wire (pts (xy 121.92 106.68) (xy 121.92 96.52))
    (stroke (width 0) (type default))
    (uuid 3ea1b99b-98aa-43f4-aeae-3999707ccf0b)
  )
  (wire (pts (xy 127 71.12) (xy 127 73.66))
    (stroke (width 0) (type default))
    (uuid 4714a273-bca6-4ef8-b53b-87004cb394bb)
  )
  (wire (pts (xy 116.84 76.2) (xy 116.84 91.44))
    (stroke (width 0) (type default))
    (uuid 612a747a-861b-4532-9d23-431fd95b524a)
  )
  (wire (pts (xy 127 73.66) (xy 127 76.2))
    (stroke (width 0) (type default))
    (uuid 8f0787ca-a4b4-40e8-916c-77677aab2d74)
  )
  (wire (pts (xy 127 104.14) (xy 129.54 104.14))
    (stroke (width 0) (type default))
    (uuid bc191e83-f0e8-462c-8472-32c9423cdea5)
  )
  (wire (pts (xy 121.92 91.44) (xy 121.92 81.28))
    (stroke (width 0) (type default))
    (uuid c77e80f9-cf27-4abc-ae01-b7e10f2f037c)
  )
  (wire (pts (xy 127 76.2) (xy 129.54 76.2))
    (stroke (width 0) (type default))
    (uuid e2dadf39-823f-4168-863c-51213b930750)
  )
  (wire (pts (xy 127 91.44) (xy 129.54 91.44))
    (stroke (width 0) (type default))
    (uuid e5d17844-e3f3-4c75-9b9a-96bdad1f2646)
  )
  (wire (pts (xy 127 73.66) (xy 129.54 73.66))
    (stroke (width 0) (type default))
    (uuid f84434af-750c-46ec-9acd-8c260e494ab1)
  )

  (text "IMU" (at 114.3 63.5 0)
    (effects (font (size 2.54 2.54)) (justify left bottom))
    (uuid 05bf2577-f30e-4cbe-ba2c-476b18dbee67)
  )

  (hierarchical_label "MOSI" (shape input) (at 154.94 76.2 0)
    (effects (font (size 1.524 1.524)) (justify left))
    (uuid 35901224-7cc3-4103-ae6a-194910f88bae)
  )
  (hierarchical_label "MISO" (shape input) (at 154.94 78.74 0)
    (effects (font (size 1.524 1.524)) (justify left))
    (uuid 703132f3-5252-4975-a5e5-db8bdcda15ae)
  )
  (hierarchical_label "CS" (shape input) (at 154.94 81.28 0)
    (effects (font (size 1.524 1.524)) (justify left))
    (uuid 9b8e58ef-6d50-40c9-9d1d-b7cd9151eac5)
  )
  (hierarchical_label "SCLK" (shape input) (at 154.94 73.66 0)
    (effects (font (size 1.524 1.524)) (justify left))
    (uuid a871dec8-51be-4882-961f-9ce9ef4de65b)
  )

  (symbol (lib_id "KERISE-rescue:C_Small-Device-KERISE-rescue-KERISE-rescue") (at 121.92 93.98 0) (unit 1)
    (in_bom yes) (on_board yes) (dnp no)
    (uuid 00000000-0000-0000-0000-0000592c613a)
    (property "Reference" "C7" (at 122.174 92.202 0)
      (effects (font (size 1.27 1.27)) (justify left))
    )
    (property "Value" "0.1u" (at 122.174 96.012 0)
      (effects (font (size 1.27 1.27)) (justify left))
    )
    (property "Footprint" "Capacitor_SMD:C_0201_0603Metric" (at 121.92 93.98 0)
      (effects (font (size 1.27 1.27)) hide)
    )
    (property "Datasheet" "" (at 121.92 93.98 0)
      (effects (font (size 1.27 1.27)))
    )
    (pin "1" (uuid 7a800f96-bfb9-4015-969d-6831b636aad4))
    (pin "2" (uuid 32af0ad9-df16-410d-83a5-129d24b43161))
    (instances
      (project "KERISE"
        (path "/62da32c5-a545-4f2b-b312-31632e09c566/00000000-0000-0000-0000-00005a18d4d6"
          (reference "C7") (unit 1)
        )
        (path "/62da32c5-a545-4f2b-b312-31632e09c566"
          (reference "C?") (unit 1)
        )
      )
    )
  )

  (symbol (lib_id "KERISE-rescue:C_Small-Device-KERISE-rescue-KERISE-rescue") (at 116.84 93.98 0) (unit 1)
    (in_bom yes) (on_board yes) (dnp no)
    (uuid 00000000-0000-0000-0000-0000592c6186)
    (property "Reference" "C6" (at 117.094 92.202 0)
      (effects (font (size 1.27 1.27)) (justify left))
    )
    (property "Value" "0.1u" (at 117.094 96.012 0)
      (effects (font (size 1.27 1.27)) (justify left))
    )
    (property "Footprint" "Capacitor_SMD:C_0201_0603Metric" (at 116.84 93.98 0)
      (effects (font (size 1.27 1.27)) hide)
    )
    (property "Datasheet" "" (at 116.84 93.98 0)
      (effects (font (size 1.27 1.27)))
    )
    (pin "1" (uuid 2edfe8b5-f383-4eed-9878-29733878f34f))
    (pin "2" (uuid 1bd78f7e-c292-4299-8008-525867a32741))
    (instances
      (project "KERISE"
        (path "/62da32c5-a545-4f2b-b312-31632e09c566/00000000-0000-0000-0000-00005a18d4d6"
          (reference "C6") (unit 1)
        )
        (path "/62da32c5-a545-4f2b-b312-31632e09c566"
          (reference "C?") (unit 1)
        )
      )
    )
  )

  (symbol (lib_id "KERISE-rescue:GND-power-KERISE-rescue-KERISE-rescue") (at 127 106.68 0) (unit 1)
    (in_bom yes) (on_board yes) (dnp no)
    (uuid 00000000-0000-0000-0000-0000592c63e1)
    (property "Reference" "#PWR023" (at 127 113.03 0)
      (effects (font (size 1.27 1.27)) hide)
    )
    (property "Value" "GND" (at 127 110.49 0)
      (effects (font (size 1.27 1.27)))
    )
    (property "Footprint" "" (at 127 106.68 0)
      (effects (font (size 1.27 1.27)))
    )
    (property "Datasheet" "" (at 127 106.68 0)
      (effects (font (size 1.27 1.27)))
    )
    (pin "1" (uuid 4ddb4c2c-bcca-45f9-9f95-fb0c2a72c6de))
    (instances
      (project "KERISE"
        (path "/62da32c5-a545-4f2b-b312-31632e09c566/00000000-0000-0000-0000-00005a18d4d6"
          (reference "#PWR023") (unit 1)
        )
        (path "/62da32c5-a545-4f2b-b312-31632e09c566"
          (reference "#PWR?") (unit 1)
        )
      )
    )
  )

  (symbol (lib_id "KERISE-rescue:GND-power-KERISE-rescue-KERISE-rescue") (at 121.92 106.68 0) (unit 1)
    (in_bom yes) (on_board yes) (dnp no)
    (uuid 00000000-0000-0000-0000-0000592c640d)
    (property "Reference" "#PWR021" (at 121.92 113.03 0)
      (effects (font (size 1.27 1.27)) hide)
    )
    (property "Value" "GND" (at 121.92 110.49 0)
      (effects (font (size 1.27 1.27)))
    )
    (property "Footprint" "" (at 121.92 106.68 0)
      (effects (font (size 1.27 1.27)))
    )
    (property "Datasheet" "" (at 121.92 106.68 0)
      (effects (font (size 1.27 1.27)))
    )
    (pin "1" (uuid 56546110-d36d-43f5-bbd3-a96124d430c9))
    (instances
      (project "KERISE"
        (path "/62da32c5-a545-4f2b-b312-31632e09c566/00000000-0000-0000-0000-00005a18d4d6"
          (reference "#PWR021") (unit 1)
        )
        (path "/62da32c5-a545-4f2b-b312-31632e09c566"
          (reference "#PWR?") (unit 1)
        )
      )
    )
  )

  (symbol (lib_id "KERISE-rescue:GND-power-KERISE-rescue-KERISE-rescue") (at 116.84 106.68 0) (unit 1)
    (in_bom yes) (on_board yes) (dnp no)
    (uuid 00000000-0000-0000-0000-0000592c6444)
    (property "Reference" "#PWR020" (at 116.84 113.03 0)
      (effects (font (size 1.27 1.27)) hide)
    )
    (property "Value" "GND" (at 116.84 110.49 0)
      (effects (font (size 1.27 1.27)))
    )
    (property "Footprint" "" (at 116.84 106.68 0)
      (effects (font (size 1.27 1.27)))
    )
    (property "Datasheet" "" (at 116.84 106.68 0)
      (effects (font (size 1.27 1.27)))
    )
    (pin "1" (uuid 402e6e67-c818-42c6-a36c-6f2f94c8f18c))
    (instances
      (project "KERISE"
        (path "/62da32c5-a545-4f2b-b312-31632e09c566/00000000-0000-0000-0000-00005a18d4d6"
          (reference "#PWR020") (unit 1)
        )
        (path "/62da32c5-a545-4f2b-b312-31632e09c566"
          (reference "#PWR?") (unit 1)
        )
      )
    )
  )

  (symbol (lib_id "KERISE-rescue:+3.3V-power-KERISE-rescue-KERISE-rescue") (at 127 71.12 0) (unit 1)
    (in_bom yes) (on_board yes) (dnp no)
    (uuid 00000000-0000-0000-0000-0000592c64fb)
    (property "Reference" "#PWR022" (at 127 74.93 0)
      (effects (font (size 1.27 1.27)) hide)
    )
    (property "Value" "+3.3V" (at 127 67.564 0)
      (effects (font (size 1.27 1.27)))
    )
    (property "Footprint" "" (at 127 71.12 0)
      (effects (font (size 1.27 1.27)))
    )
    (property "Datasheet" "" (at 127 71.12 0)
      (effects (font (size 1.27 1.27)))
    )
    (pin "1" (uuid afb3df24-f61f-4cf9-9b51-e891d369032c))
    (instances
      (project "KERISE"
        (path "/62da32c5-a545-4f2b-b312-31632e09c566/00000000-0000-0000-0000-00005a18d4d6"
          (reference "#PWR022") (unit 1)
        )
        (path "/62da32c5-a545-4f2b-b312-31632e09c566"
          (reference "#PWR?") (unit 1)
        )
      )
    )
  )

  (symbol (lib_id "KERISE:ICM-20600") (at 142.24 86.36 0) (unit 1)
    (in_bom yes) (on_board yes) (dnp no)
    (uuid 00000000-0000-0000-0000-000061998ecc)
    (property "Reference" "U4" (at 142.24 63.8302 0)
      (effects (font (size 1.524 1.524)))
    )
    (property "Value" "ICM-20600" (at 142.24 66.5226 0)
      (effects (font (size 1.524 1.524)))
    )
    (property "Footprint" "mouse:ICM-20600" (at 142.24 71.12 0)
      (effects (font (size 1.524 1.524)) hide)
    )
    (property "Datasheet" "" (at 142.24 71.12 0)
      (effects (font (size 1.524 1.524)))
    )
    (pin "1" (uuid 4eef37df-3543-44e0-98c0-2b1190a3b23a))
    (pin "10" (uuid f3aa42d1-8d0a-493f-b264-c3d38d5a06f8))
    (pin "11" (uuid 9d820ad7-bb1d-406e-973c-ca6520621a49))
    (pin "12" (uuid 5148b472-f272-4a62-aef4-0895dd152678))
    (pin "13" (uuid 00b0c797-64ed-44dd-9c70-7876e7410e45))
    (pin "14" (uuid 61d9f6e2-4e14-4e53-b164-d33321811650))
    (pin "2" (uuid 3a25089a-9724-4c82-9821-fa18dfd97500))
    (pin "3" (uuid db6de41c-90a7-4ff9-9986-995d04d03b93))
    (pin "4" (uuid 89d929eb-38e2-43a1-b5a3-d35e499b6180))
    (pin "5" (uuid b831cd93-cbbd-40b8-a8d4-6ac84fae9c3f))
    (pin "6" (uuid 01a61359-c2bb-4506-84d6-90636a57d561))
    (pin "7" (uuid c595c373-d4d8-4822-b61d-cdd9aa9997ea))
    (pin "8" (uuid 384126d3-7538-4015-a531-6f92a5e5e87d))
    (pin "9" (uuid 7412a4c7-8e76-4166-8518-2b701abd61d4))
    (instances
      (project "KERISE"
        (path "/62da32c5-a545-4f2b-b312-31632e09c566/00000000-0000-0000-0000-00005a18d4d6"
          (reference "U4") (unit 1)
        )
      )
    )
  )
)
