(kicad_sch (version 20230121) (generator eeschema)

  (uuid 0ef7118b-a840-4cee-ac0d-f49150ec2184)

  (paper "A4")

  (lib_symbols
    (symbol "KERISE-rescue:+3.3V-power-KERISE-rescue-KERISE-rescue" (power) (pin_names (offset 0)) (in_bom yes) (on_board yes)
      (property "Reference" "#PWR" (at 0 -3.81 0)
        (effects (font (size 1.27 1.27)) hide)
      )
      (property "Value" "+3.3V-power-KERISE-rescue-KERISE-rescue" (at 0 3.556 0)
        (effects (font (size 1.27 1.27)))
      )
      (property "Footprint" "" (at 0 0 0)
        (effects (font (size 1.27 1.27)) hide)
      )
      (property "Datasheet" "" (at 0 0 0)
        (effects (font (size 1.27 1.27)) hide)
      )
      (symbol "+3.3V-power-KERISE-rescue-KERISE-rescue_0_1"
        (polyline
          (pts
            (xy -0.762 1.27)
            (xy 0 2.54)
          )
          (stroke (width 0) (type solid))
          (fill (type none))
        )
        (polyline
          (pts
            (xy 0 0)
            (xy 0 2.54)
          )
          (stroke (width 0) (type solid))
          (fill (type none))
        )
        (polyline
          (pts
            (xy 0 2.54)
            (xy 0.762 1.27)
          )
          (stroke (width 0) (type solid))
          (fill (type none))
        )
      )
      (symbol "+3.3V-power-KERISE-rescue-KERISE-rescue_1_1"
        (pin power_in line (at 0 0 90) (length 0) hide
          (name "+3V3" (effects (font (size 1.27 1.27))))
          (number "1" (effects (font (size 1.27 1.27))))
        )
      )
    )
    (symbol "KERISE-rescue:C_Small-Device-KERISE-rescue-KERISE-rescue" (pin_numbers hide) (pin_names (offset 0.254) hide) (in_bom yes) (on_board yes)
      (property "Reference" "C" (at 0.254 1.778 0)
        (effects (font (size 1.27 1.27)) (justify left))
      )
      (property "Value" "C_Small-Device-KERISE-rescue-KERISE-rescue" (at 0.254 -2.032 0)
        (effects (font (size 1.27 1.27)) (justify left))
      )
      (property "Footprint" "" (at 0 0 0)
        (effects (font (size 1.27 1.27)) hide)
      )
      (property "Datasheet" "" (at 0 0 0)
        (effects (font (size 1.27 1.27)) hide)
      )
      (property "ki_fp_filters" "C_*" (at 0 0 0)
        (effects (font (size 1.27 1.27)) hide)
      )
      (symbol "C_Small-Device-KERISE-rescue-KERISE-rescue_0_1"
        (polyline
          (pts
            (xy -1.524 -0.508)
            (xy 1.524 -0.508)
          )
          (stroke (width 0.3302) (type solid))
          (fill (type none))
        )
        (polyline
          (pts
            (xy -1.524 0.508)
            (xy 1.524 0.508)
          )
          (stroke (width 0.3048) (type solid))
          (fill (type none))
        )
      )
      (symbol "C_Small-Device-KERISE-rescue-KERISE-rescue_1_1"
        (pin passive line (at 0 2.54 270) (length 2.032)
          (name "~" (effects (font (size 1.27 1.27))))
          (number "1" (effects (font (size 1.27 1.27))))
        )
        (pin passive line (at 0 -2.54 90) (length 2.032)
          (name "~" (effects (font (size 1.27 1.27))))
          (number "2" (effects (font (size 1.27 1.27))))
        )
      )
    )
    (symbol "KERISE-rescue:Conn_01x04_Female-Connector-KERISE-rescue-KERISE-rescue" (pin_names (offset 1.016) hide) (in_bom yes) (on_board yes)
      (property "Reference" "J" (at 0 5.08 0)
        (effects (font (size 1.27 1.27)))
      )
      (property "Value" "Conn_01x04_Female-Connector-KERISE-rescue-KERISE-rescue" (at 0 -7.62 0)
        (effects (font (size 1.27 1.27)))
      )
      (property "Footprint" "" (at 0 0 0)
        (effects (font (size 1.27 1.27)) hide)
      )
      (property "Datasheet" "" (at 0 0 0)
        (effects (font (size 1.27 1.27)) hide)
      )
      (property "ki_fp_filters" "Connector*:*_1x??_*" (at 0 0 0)
        (effects (font (size 1.27 1.27)) hide)
      )
      (symbol "Conn_01x04_Female-Connector-KERISE-rescue-KERISE-rescue_1_1"
        (arc (start 0 -4.572) (mid -0.5058 -5.08) (end 0 -5.588)
          (stroke (width 0.1524) (type solid))
          (fill (type none))
        )
        (arc (start 0 -2.032) (mid -0.5058 -2.54) (end 0 -3.048)
          (stroke (width 0.1524) (type solid))
          (fill (type none))
        )
        (polyline
          (pts
            (xy -1.27 -5.08)
            (xy -0.508 -5.08)
          )
          (stroke (width 0.1524) (type solid))
          (fill (type none))
        )
        (polyline
          (pts
            (xy -1.27 -2.54)
            (xy -0.508 -2.54)
          )
          (stroke (width 0.1524) (type solid))
          (fill (type none))
        )
        (polyline
          (pts
            (xy -1.27 0)
            (xy -0.508 0)
          )
          (stroke (width 0.1524) (type solid))
          (fill (type none))
        )
        (polyline
          (pts
            (xy -1.27 2.54)
            (xy -0.508 2.54)
          )
          (stroke (width 0.1524) (type solid))
          (fill (type none))
        )
        (arc (start 0 0.508) (mid -0.5058 0) (end 0 -0.508)
          (stroke (width 0.1524) (type solid))
          (fill (type none))
        )
        (arc (start 0 3.048) (mid -0.5058 2.54) (end 0 2.032)
          (stroke (width 0.1524) (type solid))
          (fill (type none))
        )
        (pin passive line (at -5.08 2.54 0) (length 3.81)
          (name "Pin_1" (effects (font (size 1.27 1.27))))
          (number "1" (effects (font (size 1.27 1.27))))
        )
        (pin passive line (at -5.08 0 0) (length 3.81)
          (name "Pin_2" (effects (font (size 1.27 1.27))))
          (number "2" (effects (font (size 1.27 1.27))))
        )
        (pin passive line (at -5.08 -2.54 0) (length 3.81)
          (name "Pin_3" (effects (font (size 1.27 1.27))))
          (number "3" (effects (font (size 1.27 1.27))))
        )
        (pin passive line (at -5.08 -5.08 0) (length 3.81)
          (name "Pin_4" (effects (font (size 1.27 1.27))))
          (number "4" (effects (font (size 1.27 1.27))))
        )
      )
    )
    (symbol "KERISE-rescue:Conn_01x04_Male-Connector-KERISE-rescue-KERISE-rescue" (pin_names (offset 1.016) hide) (in_bom yes) (on_board yes)
      (property "Reference" "J" (at 0 5.08 0)
        (effects (font (size 1.27 1.27)))
      )
      (property "Value" "Conn_01x04_Male-Connector-KERISE-rescue-KERISE-rescue" (at 0 -7.62 0)
        (effects (font (size 1.27 1.27)))
      )
      (property "Footprint" "" (at 0 0 0)
        (effects (font (size 1.27 1.27)) hide)
      )
      (property "Datasheet" "" (at 0 0 0)
        (effects (font (size 1.27 1.27)) hide)
      )
      (property "ki_fp_filters" "Connector*:*_1x??_*" (at 0 0 0)
        (effects (font (size 1.27 1.27)) hide)
      )
      (symbol "Conn_01x04_Male-Connector-KERISE-rescue-KERISE-rescue_1_1"
        (polyline
          (pts
            (xy 1.27 -5.08)
            (xy 0.8636 -5.08)
          )
          (stroke (width 0.1524) (type solid))
          (fill (type none))
        )
        (polyline
          (pts
            (xy 1.27 -2.54)
            (xy 0.8636 -2.54)
          )
          (stroke (width 0.1524) (type solid))
          (fill (type none))
        )
        (polyline
          (pts
            (xy 1.27 0)
            (xy 0.8636 0)
          )
          (stroke (width 0.1524) (type solid))
          (fill (type none))
        )
        (polyline
          (pts
            (xy 1.27 2.54)
            (xy 0.8636 2.54)
          )
          (stroke (width 0.1524) (type solid))
          (fill (type none))
        )
        (rectangle (start 0.8636 -4.953) (end 0 -5.207)
          (stroke (width 0.1524) (type solid))
          (fill (type outline))
        )
        (rectangle (start 0.8636 -2.413) (end 0 -2.667)
          (stroke (width 0.1524) (type solid))
          (fill (type outline))
        )
        (rectangle (start 0.8636 0.127) (end 0 -0.127)
          (stroke (width 0.1524) (type solid))
          (fill (type outline))
        )
        (rectangle (start 0.8636 2.667) (end 0 2.413)
          (stroke (width 0.1524) (type solid))
          (fill (type outline))
        )
        (pin passive line (at 5.08 2.54 180) (length 3.81)
          (name "Pin_1" (effects (font (size 1.27 1.27))))
          (number "1" (effects (font (size 1.27 1.27))))
        )
        (pin passive line (at 5.08 0 180) (length 3.81)
          (name "Pin_2" (effects (font (size 1.27 1.27))))
          (number "2" (effects (font (size 1.27 1.27))))
        )
        (pin passive line (at 5.08 -2.54 180) (length 3.81)
          (name "Pin_3" (effects (font (size 1.27 1.27))))
          (number "3" (effects (font (size 1.27 1.27))))
        )
        (pin passive line (at 5.08 -5.08 180) (length 3.81)
          (name "Pin_4" (effects (font (size 1.27 1.27))))
          (number "4" (effects (font (size 1.27 1.27))))
        )
      )
    )
    (symbol "KERISE-rescue:GND-power-KERISE-rescue-KERISE-rescue" (power) (pin_names (offset 0)) (in_bom yes) (on_board yes)
      (property "Reference" "#PWR" (at 0 -6.35 0)
        (effects (font (size 1.27 1.27)) hide)
      )
      (property "Value" "GND-power-KERISE-rescue-KERISE-rescue" (at 0 -3.81 0)
        (effects (font (size 1.27 1.27)))
      )
      (property "Footprint" "" (at 0 0 0)
        (effects (font (size 1.27 1.27)) hide)
      )
      (property "Datasheet" "" (at 0 0 0)
        (effects (font (size 1.27 1.27)) hide)
      )
      (symbol "GND-power-KERISE-rescue-KERISE-rescue_0_1"
        (polyline
          (pts
            (xy 0 0)
            (xy 0 -1.27)
            (xy 1.27 -1.27)
            (xy 0 -2.54)
            (xy -1.27 -1.27)
            (xy 0 -1.27)
          )
          (stroke (width 0) (type solid))
          (fill (type none))
        )
      )
      (symbol "GND-power-KERISE-rescue-KERISE-rescue_1_1"
        (pin power_in line (at 0 0 270) (length 0) hide
          (name "GND" (effects (font (size 1.27 1.27))))
          (number "1" (effects (font (size 1.27 1.27))))
        )
      )
    )
    (symbol "KERISE-rescue:PWR_FLAG-power-KERISE-rescue-KERISE-rescue" (power) (pin_numbers hide) (pin_names (offset 0) hide) (in_bom yes) (on_board yes)
      (property "Reference" "#FLG" (at 0 1.905 0)
        (effects (font (size 1.27 1.27)) hide)
      )
      (property "Value" "PWR_FLAG-power-KERISE-rescue-KERISE-rescue" (at 0 3.81 0)
        (effects (font (size 1.27 1.27)))
      )
      (property "Footprint" "" (at 0 0 0)
        (effects (font (size 1.27 1.27)) hide)
      )
      (property "Datasheet" "" (at 0 0 0)
        (effects (font (size 1.27 1.27)) hide)
      )
      (symbol "PWR_FLAG-power-KERISE-rescue-KERISE-rescue_0_0"
        (pin power_out line (at 0 0 90) (length 0)
          (name "pwr" (effects (font (size 1.27 1.27))))
          (number "1" (effects (font (size 1.27 1.27))))
        )
      )
      (symbol "PWR_FLAG-power-KERISE-rescue-KERISE-rescue_0_1"
        (polyline
          (pts
            (xy 0 0)
            (xy 0 1.27)
            (xy -1.016 1.905)
            (xy 0 2.54)
            (xy 1.016 1.905)
            (xy 0 1.27)
          )
          (stroke (width 0) (type solid))
          (fill (type none))
        )
      )
    )
    (symbol "KERISE-rescue:R-Device-KERISE-rescue-KERISE-rescue" (pin_numbers hide) (pin_names (offset 0)) (in_bom yes) (on_board yes)
      (property "Reference" "R" (at 2.032 0 90)
        (effects (font (size 1.27 1.27)))
      )
      (property "Value" "R-Device-KERISE-rescue-KERISE-rescue" (at 0 0 90)
        (effects (font (size 1.27 1.27)))
      )
      (property "Footprint" "" (at -1.778 0 90)
        (effects (font (size 1.27 1.27)) hide)
      )
      (property "Datasheet" "" (at 0 0 0)
        (effects (font (size 1.27 1.27)) hide)
      )
      (property "ki_fp_filters" "R_*" (at 0 0 0)
        (effects (font (size 1.27 1.27)) hide)
      )
      (symbol "R-Device-KERISE-rescue-KERISE-rescue_0_1"
        (rectangle (start -1.016 -2.54) (end 1.016 2.54)
          (stroke (width 0.254) (type solid))
          (fill (type none))
        )
      )
      (symbol "R-Device-KERISE-rescue-KERISE-rescue_1_1"
        (pin passive line (at 0 3.81 270) (length 1.27)
          (name "~" (effects (font (size 1.27 1.27))))
          (number "1" (effects (font (size 1.27 1.27))))
        )
        (pin passive line (at 0 -3.81 90) (length 1.27)
          (name "~" (effects (font (size 1.27 1.27))))
          (number "2" (effects (font (size 1.27 1.27))))
        )
      )
    )
    (symbol "KERISE:VL6180X" (pin_names (offset 1.016)) (in_bom yes) (on_board yes)
      (property "Reference" "U" (at 0 3.81 0)
        (effects (font (size 1.524 1.524)))
      )
      (property "Value" "VL6180X" (at 0 0 0)
        (effects (font (size 1.524 1.524)))
      )
      (property "Footprint" "" (at 0 0 0)
        (effects (font (size 1.524 1.524)))
      )
      (property "Datasheet" "" (at 0 0 0)
        (effects (font (size 1.524 1.524)))
      )
      (symbol "VL6180X_0_1"
        (rectangle (start -10.16 2.54) (end 10.16 -22.86)
          (stroke (width 0) (type solid))
          (fill (type background))
        )
      )
      (symbol "VL6180X_1_1"
        (pin bidirectional line (at 12.7 -5.08 180) (length 2.54)
          (name "GPIO1" (effects (font (size 1.27 1.27))))
          (number "1" (effects (font (size 1.27 1.27))))
        )
        (pin power_in line (at -12.7 -2.54 0) (length 2.54)
          (name "AVDD" (effects (font (size 1.27 1.27))))
          (number "10" (effects (font (size 1.27 1.27))))
        )
        (pin no_connect line (at -12.7 -15.24 0) (length 2.54)
          (name "NC" (effects (font (size 1.27 1.27))))
          (number "11" (effects (font (size 1.27 1.27))))
        )
        (pin power_in line (at -12.7 -20.32 0) (length 2.54)
          (name "AVSS" (effects (font (size 1.27 1.27))))
          (number "12" (effects (font (size 1.27 1.27))))
        )
        (pin no_connect line (at -12.7 -7.62 0) (length 2.54)
          (name "NC" (effects (font (size 1.27 1.27))))
          (number "2" (effects (font (size 1.27 1.27))))
        )
        (pin no_connect line (at -12.7 -10.16 0) (length 2.54)
          (name "NC" (effects (font (size 1.27 1.27))))
          (number "3" (effects (font (size 1.27 1.27))))
        )
        (pin input line (at 12.7 -2.54 180) (length 2.54)
          (name "GPIO0/CE" (effects (font (size 1.27 1.27))))
          (number "4" (effects (font (size 1.27 1.27))))
        )
        (pin open_collector line (at 12.7 -12.7 180) (length 2.54)
          (name "SCL" (effects (font (size 1.27 1.27))))
          (number "5" (effects (font (size 1.27 1.27))))
        )
        (pin open_collector line (at 12.7 -10.16 180) (length 2.54)
          (name "SDA" (effects (font (size 1.27 1.27))))
          (number "6" (effects (font (size 1.27 1.27))))
        )
        (pin no_connect line (at -12.7 -12.7 0) (length 2.54)
          (name "NC" (effects (font (size 1.27 1.27))))
          (number "7" (effects (font (size 1.27 1.27))))
        )
        (pin power_in line (at -12.7 -5.08 0) (length 2.54)
          (name "AVDD_VCSEL" (effects (font (size 1.27 1.27))))
          (number "8" (effects (font (size 1.27 1.27))))
        )
        (pin power_in line (at -12.7 -17.78 0) (length 2.54)
          (name "AVSS_VCSEL" (effects (font (size 1.27 1.27))))
          (number "9" (effects (font (size 1.27 1.27))))
        )
      )
    )
  )

  (junction (at 106.68 86.36) (diameter 0) (color 0 0 0 0)
    (uuid 572c7e61-76e2-48a7-8668-805b3e7a5d08)
  )
  (junction (at 106.68 104.14) (diameter 0) (color 0 0 0 0)
    (uuid fa4b337c-be98-4f47-bc67-9bb1ab123229)
  )

  (no_connect (at 134.62 88.9) (uuid 9ecf9551-759b-4e58-be71-be39a83c5110))

  (wire (pts (xy 132.08 66.04) (xy 134.62 66.04))
    (stroke (width 0) (type default))
    (uuid 0371bf4c-1f1a-42b2-b936-1ba04d5d6b0c)
  )
  (wire (pts (xy 106.68 101.6) (xy 106.68 104.14))
    (stroke (width 0) (type default))
    (uuid 04e2233e-4637-47f2-80ca-5a24c39506a6)
  )
  (wire (pts (xy 106.68 88.9) (xy 109.22 88.9))
    (stroke (width 0) (type default))
    (uuid 06099710-8cca-4eaf-8362-91436abf92b5)
  )
  (wire (pts (xy 111.76 60.96) (xy 109.22 60.96))
    (stroke (width 0) (type default))
    (uuid 0d8398a9-e73b-4545-9d38-28aadda5bda5)
  )
  (wire (pts (xy 106.68 86.36) (xy 109.22 86.36))
    (stroke (width 0) (type default))
    (uuid 171d5341-359b-4ffb-ad66-a2f68fe29a27)
  )
  (wire (pts (xy 149.86 96.52) (xy 134.62 96.52))
    (stroke (width 0) (type default))
    (uuid 2ef2ede6-97ca-4db2-bac4-b313c27d326f)
  )
  (wire (pts (xy 109.22 55.88) (xy 109.22 58.42))
    (stroke (width 0) (type default))
    (uuid 3bfb581e-6903-495b-aaca-89a9f9968fe2)
  )
  (wire (pts (xy 106.68 86.36) (xy 106.68 88.9))
    (stroke (width 0) (type default))
    (uuid 4a5cdb07-2c58-455d-a290-83648c99afa0)
  )
  (wire (pts (xy 91.44 83.82) (xy 91.44 93.98))
    (stroke (width 0) (type default))
    (uuid 56f4d40e-20fe-41fc-a240-7d34fdbaab9c)
  )
  (wire (pts (xy 144.78 93.98) (xy 144.78 91.44))
    (stroke (width 0) (type default))
    (uuid 5c431b72-7eff-47b6-9140-53a8882dc9ac)
  )
  (wire (pts (xy 106.68 104.14) (xy 106.68 106.68))
    (stroke (width 0) (type default))
    (uuid 5c6de328-5cb5-4f70-b061-ccb131585252)
  )
  (wire (pts (xy 149.86 91.44) (xy 149.86 96.52))
    (stroke (width 0) (type default))
    (uuid 68320e2e-af20-4aa1-a214-5922db90f15b)
  )
  (wire (pts (xy 137.16 83.82) (xy 137.16 86.36))
    (stroke (width 0) (type default))
    (uuid 783fdaad-7a7c-49d3-ba0a-009485ebdaf6)
  )
  (wire (pts (xy 106.68 104.14) (xy 109.22 104.14))
    (stroke (width 0) (type default))
    (uuid 8af53213-ebe6-457c-8901-da1eff531625)
  )
  (wire (pts (xy 106.68 83.82) (xy 106.68 86.36))
    (stroke (width 0) (type default))
    (uuid 8f0f46de-be9b-4e4a-b480-d84711c501a2)
  )
  (wire (pts (xy 91.44 106.68) (xy 91.44 99.06))
    (stroke (width 0) (type default))
    (uuid 98696b9b-1e14-48b9-87f6-65be230b41ed)
  )
  (wire (pts (xy 132.08 58.42) (xy 134.62 58.42))
    (stroke (width 0) (type default))
    (uuid 9b6299c3-a9b4-4a1a-99b8-c2b09e49d9ea)
  )
  (wire (pts (xy 134.62 63.5) (xy 132.08 63.5))
    (stroke (width 0) (type default))
    (uuid a3f89822-18ad-4f9f-86a9-d1ad7e4dee04)
  )
  (wire (pts (xy 109.22 68.58) (xy 109.22 66.04))
    (stroke (width 0) (type default))
    (uuid b113974d-e05b-488d-a665-2cc2a528a775)
  )
  (wire (pts (xy 137.16 86.36) (xy 134.62 86.36))
    (stroke (width 0) (type default))
    (uuid b2625baa-be6f-40a3-8713-7e23e205bf55)
  )
  (wire (pts (xy 99.06 99.06) (xy 99.06 106.68))
    (stroke (width 0) (type default))
    (uuid bb77374e-6bbc-4017-967e-169be0cb4079)
  )
  (wire (pts (xy 99.06 93.98) (xy 99.06 83.82))
    (stroke (width 0) (type default))
    (uuid c177004d-a2ba-4d1d-805a-37bd4c9ded6c)
  )
  (wire (pts (xy 134.62 60.96) (xy 132.08 60.96))
    (stroke (width 0) (type default))
    (uuid c400f01d-c843-4cf9-8ce1-9667e1942eb9)
  )
  (wire (pts (xy 109.22 58.42) (xy 111.76 58.42))
    (stroke (width 0) (type default))
    (uuid cd0ebbd9-3ca6-4ff1-b991-d74d443b8120)
  )
  (wire (pts (xy 106.68 101.6) (xy 109.22 101.6))
    (stroke (width 0) (type default))
    (uuid ec71a9fa-f7aa-4fe1-b236-98fc39dc557d)
  )
  (wire (pts (xy 134.62 93.98) (xy 144.78 93.98))
    (stroke (width 0) (type default))
    (uuid f9a43dc2-77d0-42a3-b6da-ece8046c7906)
  )
  (wire (pts (xy 109.22 63.5) (xy 111.76 63.5))
    (stroke (width 0) (type default))
    (uuid fae8e43e-6bbf-4c63-9a4d-d215d702f708)
  )
  (wire (pts (xy 109.22 66.04) (xy 111.76 66.04))
    (stroke (width 0) (type default))
    (uuid fedd301a-b5c3-45d5-a6a8-8ae26dcfc790)
  )

  (text "ToF" (at 87.63 49.53 0)
    (effects (font (size 2.54 2.54)) (justify left bottom))
    (uuid f00d932c-29aa-4423-b13e-918ac9690ca7)
  )

  (label "s_3.3V" (at 144.78 83.82 90)
    (effects (font (size 1.524 1.524)) (justify left bottom))
    (uuid 153ccfc8-29c0-4ccb-ad9a-ccd8fc194cd6)
  )
  (label "s_GND" (at 106.68 106.68 270)
    (effects (font (size 1.524 1.524)) (justify right bottom))
    (uuid 18afa7b8-2e5d-4756-ac89-dfede0f1e74b)
  )
  (label "s_3.3V" (at 149.86 83.82 90)
    (effects (font (size 1.524 1.524)) (justify left bottom))
    (uuid 1c0761bb-d041-49fe-84ed-a94d7305c03f)
  )
  (label "s_GND" (at 91.44 106.68 270)
    (effects (font (size 1.524 1.524)) (justify right bottom))
    (uuid 33dec6a8-a21c-4c86-900b-88456db98692)
  )
  (label "s_3.3V" (at 137.16 83.82 90)
    (effects (font (size 1.524 1.524)) (justify left bottom))
    (uuid 383ca7e6-b570-4b44-a864-73146ce564b2)
  )
  (label "s_3.3V" (at 91.44 83.82 90)
    (effects (font (size 1.524 1.524)) (justify left bottom))
    (uuid 5bc24a2a-c4e3-4bcf-9e3e-23dd3ecda797)
  )
  (label "s_GND" (at 134.62 66.04 0)
    (effects (font (size 1.524 1.524)) (justify left bottom))
    (uuid 7a273fa8-fd68-4144-8615-4d2734035712)
  )
  (label "s_SCL" (at 134.62 63.5 0)
    (effects (font (size 1.524 1.524)) (justify left bottom))
    (uuid 98bbe168-1b2d-4316-9751-a1ae98a2f6b3)
  )
  (label "s_3.3V" (at 106.68 83.82 90)
    (effects (font (size 1.524 1.524)) (justify left bottom))
    (uuid 9e3de647-af3b-41e6-b07d-5193cf1e0c89)
  )
  (label "s_SCL" (at 134.62 96.52 0)
    (effects (font (size 1.524 1.524)) (justify left bottom))
    (uuid b106fea0-d655-42a2-be53-38cafa9ad1a7)
  )
  (label "s_SDA" (at 134.62 93.98 0)
    (effects (font (size 1.524 1.524)) (justify left bottom))
    (uuid c2d50bfb-ed7d-488b-b167-c425d2c488a4)
  )
  (label "s_3.3V" (at 134.62 58.42 0)
    (effects (font (size 1.524 1.524)) (justify left bottom))
    (uuid ded9071d-57a5-4bbf-935e-17a604ff52c3)
  )
  (label "s_3.3V" (at 99.06 83.82 90)
    (effects (font (size 1.524 1.524)) (justify left bottom))
    (uuid e412f273-69e3-4f0f-b9a2-e1bb1b18a121)
  )
  (label "s_GND" (at 99.06 106.68 270)
    (effects (font (size 1.524 1.524)) (justify right bottom))
    (uuid fc3ae72e-61f4-4e08-a311-cb230d393a9c)
  )
  (label "s_SDA" (at 134.62 60.96 0)
    (effects (font (size 1.524 1.524)) (justify left bottom))
    (uuid fd876138-05f0-4c25-b1bb-e797b179d5f1)
  )

  (hierarchical_label "SCL" (shape input) (at 109.22 63.5 180)
    (effects (font (size 1.524 1.524)) (justify right))
    (uuid 0ea3b0c4-8a2c-4971-b6f5-0879ccd994fb)
  )
  (hierarchical_label "SDA" (shape input) (at 109.22 60.96 180)
    (effects (font (size 1.524 1.524)) (justify right))
    (uuid c6ce47cc-ab67-45ee-a2b3-e9981bb00bff)
  )

  (symbol (lib_id "KERISE-rescue:Conn_01x04_Female-Connector-KERISE-rescue-KERISE-rescue") (at 116.84 60.96 0) (unit 1)
    (in_bom yes) (on_board yes) (dnp no)
    (uuid 00000000-0000-0000-0000-0000592ab778)
    (property "Reference" "P1" (at 116.84 55.88 0)
      (effects (font (size 1.27 1.27)))
    )
    (property "Value" "ToF_Host" (at 118.11 62.23 90)
      (effects (font (size 1.27 1.27)))
    )
    (property "Footprint" "mouse:STAND_HOST_04" (at 116.84 60.96 0)
      (effects (font (size 1.27 1.27)) hide)
    )
    (property "Datasheet" "" (at 116.84 60.96 0)
      (effects (font (size 1.27 1.27)))
    )
    (pin "1" (uuid 55ae86c5-96c4-459e-8e1b-b5dcf642bd33))
    (pin "2" (uuid 4d05d8ae-04d4-4dc0-a1d6-76a1ac72628d))
    (pin "3" (uuid a08ba354-8ab7-496f-9ad1-b18e513268c8))
    (pin "4" (uuid 9941cc40-31db-4ac5-844e-a24475b31ac1))
    (instances
      (project "KERISE"
        (path "/62da32c5-a545-4f2b-b312-31632e09c566/00000000-0000-0000-0000-00005c29a0b1"
          (reference "P1") (unit 1)
        )
      )
    )
  )

  (symbol (lib_id "KERISE-rescue:Conn_01x04_Male-Connector-KERISE-rescue-KERISE-rescue") (at 127 60.96 0) (unit 1)
    (in_bom yes) (on_board yes) (dnp no)
    (uuid 00000000-0000-0000-0000-0000592ab803)
    (property "Reference" "P2" (at 128.27 55.88 0)
      (effects (font (size 1.27 1.27)))
    )
    (property "Value" "ToF_Slave" (at 125.73 62.23 90)
      (effects (font (size 1.27 1.27)))
    )
    (property "Footprint" "mouse:STAND_SLAVE_04" (at 127 60.96 0)
      (effects (font (size 1.27 1.27)) hide)
    )
    (property "Datasheet" "" (at 127 60.96 0)
      (effects (font (size 1.27 1.27)))
    )
    (pin "1" (uuid a44e1aba-7f3f-40c5-ba90-8aac56a9879c))
    (pin "2" (uuid fefebc89-7267-49c9-ac9e-a6a8c8ddfd8c))
    (pin "3" (uuid fec3d7a3-1c1c-485e-aa9f-a60d15db9f34))
    (pin "4" (uuid 7745506b-8743-4f17-96a7-650ae5fe776e))
    (instances
      (project "KERISE"
        (path "/62da32c5-a545-4f2b-b312-31632e09c566/00000000-0000-0000-0000-00005c29a0b1"
          (reference "P2") (unit 1)
        )
      )
    )
  )

  (symbol (lib_id "KERISE-rescue:C_Small-Device-KERISE-rescue-KERISE-rescue") (at 99.06 96.52 0) (unit 1)
    (in_bom yes) (on_board yes) (dnp no)
    (uuid 00000000-0000-0000-0000-0000592ba26f)
    (property "Reference" "C3" (at 99.314 94.742 0)
      (effects (font (size 1.27 1.27)) (justify left))
    )
    (property "Value" "0.1u" (at 99.314 98.552 0)
      (effects (font (size 1.27 1.27)) (justify left))
    )
    (property "Footprint" "Capacitor_SMD:C_0201_0603Metric" (at 99.06 96.52 0)
      (effects (font (size 1.27 1.27)) hide)
    )
    (property "Datasheet" "" (at 99.06 96.52 0)
      (effects (font (size 1.27 1.27)))
    )
    (pin "1" (uuid 8ba6743e-a7dd-4d51-ab9e-2d1f3a38fed6))
    (pin "2" (uuid 87dbe838-3d51-4cbc-bf04-d7a7ceb3730b))
    (instances
      (project "KERISE"
        (path "/62da32c5-a545-4f2b-b312-31632e09c566/00000000-0000-0000-0000-00005c29a0b1"
          (reference "C3") (unit 1)
        )
      )
    )
  )

  (symbol (lib_id "KERISE-rescue:C_Small-Device-KERISE-rescue-KERISE-rescue") (at 91.44 96.52 0) (unit 1)
    (in_bom yes) (on_board yes) (dnp no)
    (uuid 00000000-0000-0000-0000-0000592ba2bf)
    (property "Reference" "C2" (at 91.694 94.742 0)
      (effects (font (size 1.27 1.27)) (justify left))
    )
    (property "Value" "4.7u" (at 91.694 98.552 0)
      (effects (font (size 1.27 1.27)) (justify left))
    )
    (property "Footprint" "Capacitor_SMD:C_0402_1005Metric" (at 91.44 96.52 0)
      (effects (font (size 1.27 1.27)) hide)
    )
    (property "Datasheet" "" (at 91.44 96.52 0)
      (effects (font (size 1.27 1.27)))
    )
    (pin "1" (uuid d914719a-b537-4ed2-b95f-2b048e593bbe))
    (pin "2" (uuid 2ada2128-f57c-4a67-9a66-854b7dfb09ca))
    (instances
      (project "KERISE"
        (path "/62da32c5-a545-4f2b-b312-31632e09c566/00000000-0000-0000-0000-00005c29a0b1"
          (reference "C2") (unit 1)
        )
      )
    )
  )

  (symbol (lib_id "KERISE-rescue:R-Device-KERISE-rescue-KERISE-rescue") (at 144.78 87.63 0) (unit 1)
    (in_bom yes) (on_board yes) (dnp no)
    (uuid 00000000-0000-0000-0000-00005ab6394f)
    (property "Reference" "R2" (at 146.812 87.63 90)
      (effects (font (size 1.27 1.27)))
    )
    (property "Value" "4.7k" (at 144.78 87.63 90)
      (effects (font (size 1.27 1.27)))
    )
    (property "Footprint" "Resistor_SMD:R_0201_0603Metric" (at 143.002 87.63 90)
      (effects (font (size 1.27 1.27)) hide)
    )
    (property "Datasheet" "" (at 144.78 87.63 0)
      (effects (font (size 1.27 1.27)) hide)
    )
    (pin "1" (uuid f6ec994e-08cd-47c5-897b-441591357d1a))
    (pin "2" (uuid 941a3427-376a-4f69-b3d8-5edeef5f862d))
    (instances
      (project "KERISE"
        (path "/62da32c5-a545-4f2b-b312-31632e09c566/00000000-0000-0000-0000-00005c29a0b1"
          (reference "R2") (unit 1)
        )
      )
    )
  )

  (symbol (lib_id "KERISE-rescue:R-Device-KERISE-rescue-KERISE-rescue") (at 149.86 87.63 0) (unit 1)
    (in_bom yes) (on_board yes) (dnp no)
    (uuid 00000000-0000-0000-0000-00005ab639a9)
    (property "Reference" "R3" (at 151.892 87.63 90)
      (effects (font (size 1.27 1.27)))
    )
    (property "Value" "4.7k" (at 149.86 87.63 90)
      (effects (font (size 1.27 1.27)))
    )
    (property "Footprint" "Resistor_SMD:R_0201_0603Metric" (at 148.082 87.63 90)
      (effects (font (size 1.27 1.27)) hide)
    )
    (property "Datasheet" "" (at 149.86 87.63 0)
      (effects (font (size 1.27 1.27)) hide)
    )
    (pin "1" (uuid e1416c39-4619-4f01-8c1d-0a0c878337cf))
    (pin "2" (uuid d58731f0-eaa9-4bb8-8432-fd0d821dcd42))
    (instances
      (project "KERISE"
        (path "/62da32c5-a545-4f2b-b312-31632e09c566/00000000-0000-0000-0000-00005c29a0b1"
          (reference "R3") (unit 1)
        )
      )
    )
  )

  (symbol (lib_id "KERISE-rescue:GND-power-KERISE-rescue-KERISE-rescue") (at 109.22 68.58 0) (unit 1)
    (in_bom yes) (on_board yes) (dnp no)
    (uuid 00000000-0000-0000-0000-00005c29a844)
    (property "Reference" "#PWR07" (at 109.22 74.93 0)
      (effects (font (size 1.27 1.27)) hide)
    )
    (property "Value" "GND" (at 109.347 72.9742 0)
      (effects (font (size 1.27 1.27)))
    )
    (property "Footprint" "" (at 109.22 68.58 0)
      (effects (font (size 1.27 1.27)) hide)
    )
    (property "Datasheet" "" (at 109.22 68.58 0)
      (effects (font (size 1.27 1.27)) hide)
    )
    (pin "1" (uuid 6adac3cd-dad4-4f8a-8b76-ddef3b393fa7))
    (instances
      (project "KERISE"
        (path "/62da32c5-a545-4f2b-b312-31632e09c566/00000000-0000-0000-0000-00005c29a0b1"
          (reference "#PWR07") (unit 1)
        )
      )
    )
  )

  (symbol (lib_id "KERISE-rescue:+3.3V-power-KERISE-rescue-KERISE-rescue") (at 109.22 55.88 0) (unit 1)
    (in_bom yes) (on_board yes) (dnp no)
    (uuid 00000000-0000-0000-0000-00005c29a8b4)
    (property "Reference" "#PWR06" (at 109.22 59.69 0)
      (effects (font (size 1.27 1.27)) hide)
    )
    (property "Value" "+3.3V" (at 109.601 51.4858 0)
      (effects (font (size 1.27 1.27)))
    )
    (property "Footprint" "" (at 109.22 55.88 0)
      (effects (font (size 1.27 1.27)) hide)
    )
    (property "Datasheet" "" (at 109.22 55.88 0)
      (effects (font (size 1.27 1.27)) hide)
    )
    (pin "1" (uuid 695ca823-7dac-4ce5-9b23-d788a08f6df8))
    (instances
      (project "KERISE"
        (path "/62da32c5-a545-4f2b-b312-31632e09c566/00000000-0000-0000-0000-00005c29a0b1"
          (reference "#PWR06") (unit 1)
        )
        (path "/62da32c5-a545-4f2b-b312-31632e09c566"
          (reference "#PWR?") (unit 1)
        )
      )
    )
  )

  (symbol (lib_id "KERISE-rescue:PWR_FLAG-power-KERISE-rescue-KERISE-rescue") (at 134.62 58.42 0) (unit 1)
    (in_bom yes) (on_board yes) (dnp no)
    (uuid 00000000-0000-0000-0000-00005c29aa5d)
    (property "Reference" "#FLG01" (at 134.62 56.515 0)
      (effects (font (size 1.27 1.27)) hide)
    )
    (property "Value" "PWR_FLAG" (at 134.62 54.0004 0)
      (effects (font (size 1.27 1.27)))
    )
    (property "Footprint" "" (at 134.62 58.42 0)
      (effects (font (size 1.27 1.27)) hide)
    )
    (property "Datasheet" "~" (at 134.62 58.42 0)
      (effects (font (size 1.27 1.27)) hide)
    )
    (pin "1" (uuid 9fd135b5-34d8-48a6-aee9-51ca687d80fe))
    (instances
      (project "KERISE"
        (path "/62da32c5-a545-4f2b-b312-31632e09c566/00000000-0000-0000-0000-00005c29a0b1"
          (reference "#FLG01") (unit 1)
        )
      )
    )
  )

  (symbol (lib_id "KERISE-rescue:PWR_FLAG-power-KERISE-rescue-KERISE-rescue") (at 134.62 66.04 180) (unit 1)
    (in_bom yes) (on_board yes) (dnp no)
    (uuid 00000000-0000-0000-0000-00005c29b1ad)
    (property "Reference" "#FLG02" (at 134.62 67.945 0)
      (effects (font (size 1.27 1.27)) hide)
    )
    (property "Value" "PWR_FLAG" (at 134.62 70.4342 0)
      (effects (font (size 1.27 1.27)))
    )
    (property "Footprint" "" (at 134.62 66.04 0)
      (effects (font (size 1.27 1.27)) hide)
    )
    (property "Datasheet" "~" (at 134.62 66.04 0)
      (effects (font (size 1.27 1.27)) hide)
    )
    (pin "1" (uuid e631fdee-26cd-4571-a474-fd9fd6440108))
    (instances
      (project "KERISE"
        (path "/62da32c5-a545-4f2b-b312-31632e09c566/00000000-0000-0000-0000-00005c29a0b1"
          (reference "#FLG02") (unit 1)
        )
      )
    )
  )

  (symbol (lib_id "KERISE:VL6180X") (at 121.92 83.82 0) (unit 1)
    (in_bom yes) (on_board yes) (dnp no)
    (uuid 00000000-0000-0000-0000-00005c29b6b0)
    (property "Reference" "U2" (at 121.92 76.5302 0)
      (effects (font (size 1.524 1.524)))
    )
    (property "Value" "VL6180X" (at 121.92 79.2226 0)
      (effects (font (size 1.524 1.524)))
    )
    (property "Footprint" "mouse:VL6180X" (at 121.92 83.82 0)
      (effects (font (size 1.524 1.524)) hide)
    )
    (property "Datasheet" "" (at 121.92 83.82 0)
      (effects (font (size 1.524 1.524)))
    )
    (pin "1" (uuid 3c7e53e0-5e4f-42e3-97ab-9627c74211b7))
    (pin "10" (uuid befdeea2-213f-4bf3-9e87-0f4f86dfeac9))
    (pin "11" (uuid bca129e7-c18b-41ae-abfa-f84d50b8cd6b))
    (pin "12" (uuid 405c707e-7209-46d3-9efc-fd061beb7eb8))
    (pin "2" (uuid 36d028a1-2c35-488e-9c99-bbcfb79475ed))
    (pin "3" (uuid 66649409-833c-42d9-ae03-d65ce309a11b))
    (pin "4" (uuid af47a793-5718-459d-9846-45f62e12987b))
    (pin "5" (uuid 01c10bd9-c962-4be4-a58c-24f3642e3b13))
    (pin "6" (uuid de8604e3-9b0a-4bec-94dd-2c20287da76e))
    (pin "7" (uuid f5b61e2f-8f57-49b3-b583-da4d072a3581))
    (pin "8" (uuid ea6d0c63-e962-4732-8e4f-2ae0d69debc7))
    (pin "9" (uuid 4982f871-bddc-4f72-a9c4-edfea385c47c))
    (instances
      (project "KERISE"
        (path "/62da32c5-a545-4f2b-b312-31632e09c566/00000000-0000-0000-0000-00005c29a0b1"
          (reference "U2") (unit 1)
        )
      )
    )
  )
)
