(kicad_sch (version 20230121) (generator eeschema)

  (uuid 70e5a8fd-d79a-42f0-963c-2c04abcfaf88)

  (paper "A4")

  (lib_symbols
    (symbol "Connector:Conn_01x04_Pin" (pin_names (offset 1.016) hide) (in_bom yes) (on_board yes)
      (property "Reference" "J" (at 0 5.08 0)
        (effects (font (size 1.27 1.27)))
      )
      (property "Value" "Conn_01x04_Pin" (at 0 -7.62 0)
        (effects (font (size 1.27 1.27)))
      )
      (property "Footprint" "" (at 0 0 0)
        (effects (font (size 1.27 1.27)) hide)
      )
      (property "Datasheet" "~" (at 0 0 0)
        (effects (font (size 1.27 1.27)) hide)
      )
      (property "ki_locked" "" (at 0 0 0)
        (effects (font (size 1.27 1.27)))
      )
      (property "ki_keywords" "connector" (at 0 0 0)
        (effects (font (size 1.27 1.27)) hide)
      )
      (property "ki_description" "Generic connector, single row, 01x04, script generated" (at 0 0 0)
        (effects (font (size 1.27 1.27)) hide)
      )
      (property "ki_fp_filters" "Connector*:*_1x??_*" (at 0 0 0)
        (effects (font (size 1.27 1.27)) hide)
      )
      (symbol "Conn_01x04_Pin_1_1"
        (polyline
          (pts
            (xy 1.27 -5.08)
            (xy 0.8636 -5.08)
          )
          (stroke (width 0.1524) (type default))
          (fill (type none))
        )
        (polyline
          (pts
            (xy 1.27 -2.54)
            (xy 0.8636 -2.54)
          )
          (stroke (width 0.1524) (type default))
          (fill (type none))
        )
        (polyline
          (pts
            (xy 1.27 0)
            (xy 0.8636 0)
          )
          (stroke (width 0.1524) (type default))
          (fill (type none))
        )
        (polyline
          (pts
            (xy 1.27 2.54)
            (xy 0.8636 2.54)
          )
          (stroke (width 0.1524) (type default))
          (fill (type none))
        )
        (rectangle (start 0.8636 -4.953) (end 0 -5.207)
          (stroke (width 0.1524) (type default))
          (fill (type outline))
        )
        (rectangle (start 0.8636 -2.413) (end 0 -2.667)
          (stroke (width 0.1524) (type default))
          (fill (type outline))
        )
        (rectangle (start 0.8636 0.127) (end 0 -0.127)
          (stroke (width 0.1524) (type default))
          (fill (type outline))
        )
        (rectangle (start 0.8636 2.667) (end 0 2.413)
          (stroke (width 0.1524) (type default))
          (fill (type outline))
        )
        (pin passive line (at 5.08 2.54 180) (length 3.81)
          (name "Pin_1" (effects (font (size 1.27 1.27))))
          (number "1" (effects (font (size 1.27 1.27))))
        )
        (pin passive line (at 5.08 0 180) (length 3.81)
          (name "Pin_2" (effects (font (size 1.27 1.27))))
          (number "2" (effects (font (size 1.27 1.27))))
        )
        (pin passive line (at 5.08 -2.54 180) (length 3.81)
          (name "Pin_3" (effects (font (size 1.27 1.27))))
          (number "3" (effects (font (size 1.27 1.27))))
        )
        (pin passive line (at 5.08 -5.08 180) (length 3.81)
          (name "Pin_4" (effects (font (size 1.27 1.27))))
          (number "4" (effects (font (size 1.27 1.27))))
        )
      )
    )
    (symbol "Device:C" (pin_numbers hide) (pin_names (offset 0.254)) (in_bom yes) (on_board yes)
      (property "Reference" "C" (at 0.635 2.54 0)
        (effects (font (size 1.27 1.27)) (justify left))
      )
      (property "Value" "C" (at 0.635 -2.54 0)
        (effects (font (size 1.27 1.27)) (justify left))
      )
      (property "Footprint" "" (at 0.9652 -3.81 0)
        (effects (font (size 1.27 1.27)) hide)
      )
      (property "Datasheet" "~" (at 0 0 0)
        (effects (font (size 1.27 1.27)) hide)
      )
      (property "ki_keywords" "cap capacitor" (at 0 0 0)
        (effects (font (size 1.27 1.27)) hide)
      )
      (property "ki_description" "Unpolarized capacitor" (at 0 0 0)
        (effects (font (size 1.27 1.27)) hide)
      )
      (property "ki_fp_filters" "C_*" (at 0 0 0)
        (effects (font (size 1.27 1.27)) hide)
      )
      (symbol "C_0_1"
        (polyline
          (pts
            (xy -2.032 -0.762)
            (xy 2.032 -0.762)
          )
          (stroke (width 0.508) (type default))
          (fill (type none))
        )
        (polyline
          (pts
            (xy -2.032 0.762)
            (xy 2.032 0.762)
          )
          (stroke (width 0.508) (type default))
          (fill (type none))
        )
      )
      (symbol "C_1_1"
        (pin passive line (at 0 3.81 270) (length 2.794)
          (name "~" (effects (font (size 1.27 1.27))))
          (number "1" (effects (font (size 1.27 1.27))))
        )
        (pin passive line (at 0 -3.81 90) (length 2.794)
          (name "~" (effects (font (size 1.27 1.27))))
          (number "2" (effects (font (size 1.27 1.27))))
        )
      )
    )
    (symbol "Device:Crystal" (pin_numbers hide) (pin_names (offset 1.016) hide) (in_bom yes) (on_board yes)
      (property "Reference" "Y" (at 0 3.81 0)
        (effects (font (size 1.27 1.27)))
      )
      (property "Value" "Crystal" (at 0 -3.81 0)
        (effects (font (size 1.27 1.27)))
      )
      (property "Footprint" "" (at 0 0 0)
        (effects (font (size 1.27 1.27)) hide)
      )
      (property "Datasheet" "~" (at 0 0 0)
        (effects (font (size 1.27 1.27)) hide)
      )
      (property "ki_keywords" "quartz ceramic resonator oscillator" (at 0 0 0)
        (effects (font (size 1.27 1.27)) hide)
      )
      (property "ki_description" "Two pin crystal" (at 0 0 0)
        (effects (font (size 1.27 1.27)) hide)
      )
      (property "ki_fp_filters" "Crystal*" (at 0 0 0)
        (effects (font (size 1.27 1.27)) hide)
      )
      (symbol "Crystal_0_1"
        (rectangle (start -1.143 2.54) (end 1.143 -2.54)
          (stroke (width 0.3048) (type default))
          (fill (type none))
        )
        (polyline
          (pts
            (xy -2.54 0)
            (xy -1.905 0)
          )
          (stroke (width 0) (type default))
          (fill (type none))
        )
        (polyline
          (pts
            (xy -1.905 -1.27)
            (xy -1.905 1.27)
          )
          (stroke (width 0.508) (type default))
          (fill (type none))
        )
        (polyline
          (pts
            (xy 1.905 -1.27)
            (xy 1.905 1.27)
          )
          (stroke (width 0.508) (type default))
          (fill (type none))
        )
        (polyline
          (pts
            (xy 2.54 0)
            (xy 1.905 0)
          )
          (stroke (width 0) (type default))
          (fill (type none))
        )
      )
      (symbol "Crystal_1_1"
        (pin passive line (at -3.81 0 0) (length 1.27)
          (name "1" (effects (font (size 1.27 1.27))))
          (number "1" (effects (font (size 1.27 1.27))))
        )
        (pin passive line (at 3.81 0 180) (length 1.27)
          (name "2" (effects (font (size 1.27 1.27))))
          (number "2" (effects (font (size 1.27 1.27))))
        )
      )
    )
    (symbol "Device:R" (pin_numbers hide) (pin_names (offset 0)) (in_bom yes) (on_board yes)
      (property "Reference" "R" (at 2.032 0 90)
        (effects (font (size 1.27 1.27)))
      )
      (property "Value" "R" (at 0 0 90)
        (effects (font (size 1.27 1.27)))
      )
      (property "Footprint" "" (at -1.778 0 90)
        (effects (font (size 1.27 1.27)) hide)
      )
      (property "Datasheet" "~" (at 0 0 0)
        (effects (font (size 1.27 1.27)) hide)
      )
      (property "ki_keywords" "R res resistor" (at 0 0 0)
        (effects (font (size 1.27 1.27)) hide)
      )
      (property "ki_description" "Resistor" (at 0 0 0)
        (effects (font (size 1.27 1.27)) hide)
      )
      (property "ki_fp_filters" "R_*" (at 0 0 0)
        (effects (font (size 1.27 1.27)) hide)
      )
      (symbol "R_0_1"
        (rectangle (start -1.016 -2.54) (end 1.016 2.54)
          (stroke (width 0.254) (type default))
          (fill (type none))
        )
      )
      (symbol "R_1_1"
        (pin passive line (at 0 3.81 270) (length 1.27)
          (name "~" (effects (font (size 1.27 1.27))))
          (number "1" (effects (font (size 1.27 1.27))))
        )
        (pin passive line (at 0 -3.81 90) (length 1.27)
          (name "~" (effects (font (size 1.27 1.27))))
          (number "2" (effects (font (size 1.27 1.27))))
        )
      )
    )
    (symbol "IMUs:BNO085" (in_bom yes) (on_board yes)
      (property "Reference" "U" (at 0 27.94 0)
        (effects (font (size 1.27 1.27)))
      )
      (property "Value" "" (at 0 27.94 0)
        (effects (font (size 1.27 1.27)))
      )
      (property "Footprint" "Package_LGA:LGA-28_5.2x3.8mm_P0.5mm" (at 0 -30.48 0) (show_name)
        (effects (font (size 1.27 1.27)))
      )
      (property "Datasheet" "" (at 0 27.94 0)
        (effects (font (size 1.27 1.27)) hide)
      )
      (symbol "BNO085_1_1"
        (rectangle (start -17.78 26.67) (end 17.78 -29.21)
          (stroke (width 0) (type default))
          (fill (type background))
        )
        (text "BNO085" (at 12.7 27.94 0)
          (effects (font (size 1.27 1.27)))
        )
        (pin no_connect line (at 20.32 -6.35 180) (length 2.54)
          (name "PIN1/DNC" (effects (font (size 1.27 1.27))))
          (number "1" (effects (font (size 1.27 1.27))))
        )
        (pin input line (at -20.32 -19.05 0) (length 2.54)
          (name "CLKSEL0" (effects (font (size 1.27 1.27))))
          (number "10" (effects (font (size 1.27 1.27))))
        )
        (pin input line (at 20.32 6.35 180) (length 2.54)
          (name "NRST" (effects (font (size 1.27 1.27))))
          (number "11" (effects (font (size 1.27 1.27))))
        )
        (pin no_connect line (at 20.32 -13.97 180) (length 2.54)
          (name "PIN12/DNC" (effects (font (size 1.27 1.27))))
          (number "12" (effects (font (size 1.27 1.27))))
        )
        (pin no_connect line (at 20.32 -16.51 180) (length 2.54)
          (name "PIN13/DNC" (effects (font (size 1.27 1.27))))
          (number "13" (effects (font (size 1.27 1.27))))
        )
        (pin output line (at -20.32 8.89 0) (length 2.54)
          (name "H_INTN" (effects (font (size 1.27 1.27))))
          (number "14" (effects (font (size 1.27 1.27))))
        )
        (pin bidirectional line (at 20.32 1.27 180) (length 2.54)
          (name "ENV_SCL" (effects (font (size 1.27 1.27))))
          (number "15" (effects (font (size 1.27 1.27))))
        )
        (pin bidirectional line (at 20.32 -1.27 180) (length 2.54)
          (name "ENV_SDA" (effects (font (size 1.27 1.27))))
          (number "16" (effects (font (size 1.27 1.27))))
        )
        (pin input line (at -20.32 16.51 0) (length 2.54)
          (name "H_SA0/MOSI" (effects (font (size 1.27 1.27))))
          (number "17" (effects (font (size 1.27 1.27))))
        )
        (pin input line (at -20.32 -16.51 0) (length 2.54)
          (name "H_CSN" (effects (font (size 1.27 1.27))))
          (number "18" (effects (font (size 1.27 1.27))))
        )
        (pin bidirectional line (at -20.32 11.43 0) (length 2.54)
          (name "H_SCL/SCLK/RX" (effects (font (size 1.27 1.27))))
          (number "19" (effects (font (size 1.27 1.27))))
        )
        (pin power_in line (at -20.32 -24.13 0) (length 2.54)
          (name "GND" (effects (font (size 1.27 1.27))))
          (number "2" (effects (font (size 1.27 1.27))))
        )
        (pin bidirectional line (at -20.32 13.97 0) (length 2.54)
          (name "H_SDA/MISO/TX" (effects (font (size 1.27 1.27))))
          (number "20" (effects (font (size 1.27 1.27))))
        )
        (pin no_connect line (at 20.32 -19.05 180) (length 2.54)
          (name "PIN21/DNC" (effects (font (size 1.27 1.27))))
          (number "21" (effects (font (size 1.27 1.27))))
        )
        (pin no_connect line (at 20.32 -21.59 180) (length 2.54)
          (name "PIN22/DNC" (effects (font (size 1.27 1.27))))
          (number "22" (effects (font (size 1.27 1.27))))
        )
        (pin no_connect line (at 20.32 -24.13 180) (length 2.54)
          (name "PIN23/DNC" (effects (font (size 1.27 1.27))))
          (number "23" (effects (font (size 1.27 1.27))))
        )
        (pin no_connect line (at 20.32 -26.67 180) (length 2.54)
          (name "PIN24/DNC" (effects (font (size 1.27 1.27))))
          (number "24" (effects (font (size 1.27 1.27))))
        )
        (pin power_in line (at -20.32 -26.67 0) (length 2.54)
          (name "GND" (effects (font (size 1.27 1.27))))
          (number "25" (effects (font (size 1.27 1.27))))
        )
        (pin output line (at 20.32 16.51 180) (length 2.54)
          (name "CLKSEL1/XOUT32" (effects (font (size 1.27 1.27))))
          (number "26" (effects (font (size 1.27 1.27))))
        )
        (pin input line (at 20.32 19.05 180) (length 2.54)
          (name "XIN32" (effects (font (size 1.27 1.27))))
          (number "27" (effects (font (size 1.27 1.27))))
        )
        (pin power_in line (at -20.32 21.59 0) (length 2.54)
          (name "VDDIO" (effects (font (size 1.27 1.27))))
          (number "28" (effects (font (size 1.27 1.27))))
        )
        (pin power_in line (at -20.32 24.13 0) (length 2.54)
          (name "VDD" (effects (font (size 1.27 1.27))))
          (number "3" (effects (font (size 1.27 1.27))))
        )
        (pin input line (at -20.32 -1.27 0) (length 2.54)
          (name "BOOTN" (effects (font (size 1.27 1.27))))
          (number "4" (effects (font (size 1.27 1.27))))
        )
        (pin input line (at -20.32 -11.43 0) (length 2.54)
          (name "PS1" (effects (font (size 1.27 1.27))))
          (number "5" (effects (font (size 1.27 1.27))))
        )
        (pin input line (at -20.32 -13.97 0) (length 2.54)
          (name "PS0/WAKE" (effects (font (size 1.27 1.27))))
          (number "6" (effects (font (size 1.27 1.27))))
        )
        (pin no_connect line (at 20.32 -8.89 180) (length 2.54)
          (name "PIN7/DNC" (effects (font (size 1.27 1.27))))
          (number "7" (effects (font (size 1.27 1.27))))
        )
        (pin no_connect line (at 20.32 -11.43 180) (length 2.54)
          (name "PIN8/DNC" (effects (font (size 1.27 1.27))))
          (number "8" (effects (font (size 1.27 1.27))))
        )
        (pin input line (at 20.32 24.13 180) (length 2.54)
          (name "CAP" (effects (font (size 1.27 1.27))))
          (number "9" (effects (font (size 1.27 1.27))))
        )
      )
    )
    (symbol "Jumper:SolderJumper_2_Open" (pin_names (offset 0) hide) (in_bom yes) (on_board yes)
      (property "Reference" "JP" (at 0 2.032 0)
        (effects (font (size 1.27 1.27)))
      )
      (property "Value" "SolderJumper_2_Open" (at 0 -2.54 0)
        (effects (font (size 1.27 1.27)))
      )
      (property "Footprint" "" (at 0 0 0)
        (effects (font (size 1.27 1.27)) hide)
      )
      (property "Datasheet" "~" (at 0 0 0)
        (effects (font (size 1.27 1.27)) hide)
      )
      (property "ki_keywords" "solder jumper SPST" (at 0 0 0)
        (effects (font (size 1.27 1.27)) hide)
      )
      (property "ki_description" "Solder Jumper, 2-pole, open" (at 0 0 0)
        (effects (font (size 1.27 1.27)) hide)
      )
      (property "ki_fp_filters" "SolderJumper*Open*" (at 0 0 0)
        (effects (font (size 1.27 1.27)) hide)
      )
      (symbol "SolderJumper_2_Open_0_1"
        (arc (start -0.254 1.016) (mid -1.2656 0) (end -0.254 -1.016)
          (stroke (width 0) (type default))
          (fill (type none))
        )
        (arc (start -0.254 1.016) (mid -1.2656 0) (end -0.254 -1.016)
          (stroke (width 0) (type default))
          (fill (type outline))
        )
        (polyline
          (pts
            (xy -0.254 1.016)
            (xy -0.254 -1.016)
          )
          (stroke (width 0) (type default))
          (fill (type none))
        )
        (polyline
          (pts
            (xy 0.254 1.016)
            (xy 0.254 -1.016)
          )
          (stroke (width 0) (type default))
          (fill (type none))
        )
        (arc (start 0.254 -1.016) (mid 1.2656 0) (end 0.254 1.016)
          (stroke (width 0) (type default))
          (fill (type none))
        )
        (arc (start 0.254 -1.016) (mid 1.2656 0) (end 0.254 1.016)
          (stroke (width 0) (type default))
          (fill (type outline))
        )
      )
      (symbol "SolderJumper_2_Open_1_1"
        (pin passive line (at -3.81 0 0) (length 2.54)
          (name "A" (effects (font (size 1.27 1.27))))
          (number "1" (effects (font (size 1.27 1.27))))
        )
        (pin passive line (at 3.81 0 180) (length 2.54)
          (name "B" (effects (font (size 1.27 1.27))))
          (number "2" (effects (font (size 1.27 1.27))))
        )
      )
    )
    (symbol "power:+3V3" (power) (pin_names (offset 0)) (in_bom yes) (on_board yes)
      (property "Reference" "#PWR" (at 0 -3.81 0)
        (effects (font (size 1.27 1.27)) hide)
      )
      (property "Value" "+3V3" (at 0 3.556 0)
        (effects (font (size 1.27 1.27)))
      )
      (property "Footprint" "" (at 0 0 0)
        (effects (font (size 1.27 1.27)) hide)
      )
      (property "Datasheet" "" (at 0 0 0)
        (effects (font (size 1.27 1.27)) hide)
      )
      (property "ki_keywords" "global power" (at 0 0 0)
        (effects (font (size 1.27 1.27)) hide)
      )
      (property "ki_description" "Power symbol creates a global label with name \"+3V3\"" (at 0 0 0)
        (effects (font (size 1.27 1.27)) hide)
      )
      (symbol "+3V3_0_1"
        (polyline
          (pts
            (xy -0.762 1.27)
            (xy 0 2.54)
          )
          (stroke (width 0) (type default))
          (fill (type none))
        )
        (polyline
          (pts
            (xy 0 0)
            (xy 0 2.54)
          )
          (stroke (width 0) (type default))
          (fill (type none))
        )
        (polyline
          (pts
            (xy 0 2.54)
            (xy 0.762 1.27)
          )
          (stroke (width 0) (type default))
          (fill (type none))
        )
      )
      (symbol "+3V3_1_1"
        (pin power_in line (at 0 0 90) (length 0) hide
          (name "+3V3" (effects (font (size 1.27 1.27))))
          (number "1" (effects (font (size 1.27 1.27))))
        )
      )
    )
    (symbol "power:GND" (power) (pin_names (offset 0)) (in_bom yes) (on_board yes)
      (property "Reference" "#PWR" (at 0 -6.35 0)
        (effects (font (size 1.27 1.27)) hide)
      )
      (property "Value" "GND" (at 0 -3.81 0)
        (effects (font (size 1.27 1.27)))
      )
      (property "Footprint" "" (at 0 0 0)
        (effects (font (size 1.27 1.27)) hide)
      )
      (property "Datasheet" "" (at 0 0 0)
        (effects (font (size 1.27 1.27)) hide)
      )
      (property "ki_keywords" "global power" (at 0 0 0)
        (effects (font (size 1.27 1.27)) hide)
      )
      (property "ki_description" "Power symbol creates a global label with name \"GND\" , ground" (at 0 0 0)
        (effects (font (size 1.27 1.27)) hide)
      )
      (symbol "GND_0_1"
        (polyline
          (pts
            (xy 0 0)
            (xy 0 -1.27)
            (xy 1.27 -1.27)
            (xy 0 -2.54)
            (xy -1.27 -1.27)
            (xy 0 -1.27)
          )
          (stroke (width 0) (type default))
          (fill (type none))
        )
      )
      (symbol "GND_1_1"
        (pin power_in line (at 0 0 270) (length 0) hide
          (name "GND" (effects (font (size 1.27 1.27))))
          (number "1" (effects (font (size 1.27 1.27))))
        )
      )
    )
  )

  (junction (at 121.92 119.38) (diameter 0) (color 0 0 0 0)
    (uuid 09c14c83-0e4e-4887-8069-8bfb76b1744f)
  )
  (junction (at 72.39 81.28) (diameter 0) (color 0 0 0 0)
    (uuid 17fd8f67-6c5d-4322-84d0-1e3007abb032)
  )
  (junction (at 198.12 88.9) (diameter 0) (color 0 0 0 0)
    (uuid 1b71080c-d63f-4f39-9e5c-a815e363bc59)
  )
  (junction (at 121.92 114.3) (diameter 0) (color 0 0 0 0)
    (uuid 37adc2cf-9ecc-4b83-ba97-6e348282dd1e)
  )
  (junction (at 121.92 71.12) (diameter 0) (color 0 0 0 0)
    (uuid 49241c5b-262b-469b-a0f1-c1f36afa99a3)
  )
  (junction (at 58.42 83.82) (diameter 0) (color 0 0 0 0)
    (uuid 5317e5c5-c854-4f0f-b5a8-5a023ba9282d)
  )
  (junction (at 62.23 78.74) (diameter 0) (color 0 0 0 0)
    (uuid 6ed46e79-8f83-498b-a6cb-abe1aec02500)
  )
  (junction (at 121.92 109.22) (diameter 0) (color 0 0 0 0)
    (uuid 6fa03c26-7a92-4b38-a496-d432698d009d)
  )
  (junction (at 232.41 78.74) (diameter 0) (color 0 0 0 0)
    (uuid 7f88bf44-3c86-4bd0-9d7a-6aeadf3cfba2)
  )
  (junction (at 232.41 71.12) (diameter 0) (color 0 0 0 0)
    (uuid 94dde32e-3f3d-449b-abc7-0f6a216c6902)
  )
  (junction (at 88.9 110.49) (diameter 0) (color 0 0 0 0)
    (uuid 9633aa11-99a8-4ddb-a337-55fb606311d7)
  )
  (junction (at 205.74 78.74) (diameter 0) (color 0 0 0 0)
    (uuid 9eb4a843-484c-446a-84e9-9c943e66fe64)
  )
  (junction (at 58.42 64.77) (diameter 0) (color 0 0 0 0)
    (uuid bf5fe3a8-261b-4fcd-9e3e-fba77c177a93)
  )
  (junction (at 62.23 64.77) (diameter 0) (color 0 0 0 0)
    (uuid c51e42e4-375a-41da-8675-c4242803db2d)
  )
  (junction (at 58.42 76.2) (diameter 0) (color 0 0 0 0)
    (uuid c75f9e33-2872-4fd1-b4ab-a125e89859ca)
  )
  (junction (at 121.92 121.92) (diameter 0) (color 0 0 0 0)
    (uuid dbeecef6-d92f-45cd-ad1f-0143dbbc7a47)
  )
  (junction (at 121.92 111.76) (diameter 0) (color 0 0 0 0)
    (uuid e20d9c32-1edf-4ca1-ae9e-c5ce85b46431)
  )
  (junction (at 190.5 78.74) (diameter 0) (color 0 0 0 0)
    (uuid f034d2d8-93d4-435c-a54c-c6d8eab7ec58)
  )

  (wire (pts (xy 232.41 68.58) (xy 232.41 71.12))
    (stroke (width 0) (type default))
    (uuid 019afbfd-6518-40c7-b8cc-5e111a4a5eee)
  )
  (wire (pts (xy 121.92 111.76) (xy 125.73 111.76))
    (stroke (width 0) (type default))
    (uuid 0333d4ae-741a-4c5c-ab73-dd281adbc16c)
  )
  (wire (pts (xy 238.76 78.74) (xy 232.41 78.74))
    (stroke (width 0) (type default))
    (uuid 052c44f8-19f4-4101-9c08-de5bebdce410)
  )
  (wire (pts (xy 220.98 73.66) (xy 238.76 73.66))
    (stroke (width 0) (type default))
    (uuid 06c026db-af37-47dc-a3be-873a5286f1fd)
  )
  (wire (pts (xy 58.42 86.36) (xy 58.42 83.82))
    (stroke (width 0) (type default))
    (uuid 0734d3fd-c371-47a0-8967-5936addeb9c4)
  )
  (wire (pts (xy 58.42 76.2) (xy 58.42 64.77))
    (stroke (width 0) (type default))
    (uuid 0a4269bf-2e43-43b7-ae24-a1d40f323d9a)
  )
  (wire (pts (xy 190.5 78.74) (xy 190.5 80.01))
    (stroke (width 0) (type default))
    (uuid 0b80f0cb-1fc0-4dfd-935f-5ba5a8346ad4)
  )
  (wire (pts (xy 201.93 78.74) (xy 205.74 78.74))
    (stroke (width 0) (type default))
    (uuid 0c3a6349-7fd3-4e50-a21a-089863f8a62b)
  )
  (wire (pts (xy 205.74 68.58) (xy 205.74 78.74))
    (stroke (width 0) (type default))
    (uuid 0fa32ec6-6c01-4786-acd8-1600c6849c90)
  )
  (wire (pts (xy 121.92 81.28) (xy 125.73 81.28))
    (stroke (width 0) (type default))
    (uuid 11f6a10a-61f8-4ffa-8046-cb70cc909267)
  )
  (wire (pts (xy 58.42 64.77) (xy 58.42 62.23))
    (stroke (width 0) (type default))
    (uuid 1d854b56-cf2a-40aa-9162-68ac9af4288b)
  )
  (wire (pts (xy 72.39 81.28) (xy 52.07 81.28))
    (stroke (width 0) (type default))
    (uuid 221c1a08-6b20-47e3-8442-6760191afd56)
  )
  (wire (pts (xy 62.23 73.66) (xy 62.23 78.74))
    (stroke (width 0) (type default))
    (uuid 31903914-d0d2-4722-9c78-7887745dd165)
  )
  (wire (pts (xy 205.74 78.74) (xy 205.74 80.01))
    (stroke (width 0) (type default))
    (uuid 352779ad-f5c1-4e3c-bc38-59885a522777)
  )
  (wire (pts (xy 88.9 120.65) (xy 88.9 123.19))
    (stroke (width 0) (type default))
    (uuid 423ecb9f-8a60-40fe-81dc-08e2461eacd2)
  )
  (wire (pts (xy 198.12 88.9) (xy 205.74 88.9))
    (stroke (width 0) (type default))
    (uuid 4a9b555d-ff90-4eba-80e5-bfa5147d2a38)
  )
  (wire (pts (xy 88.9 97.79) (xy 88.9 100.33))
    (stroke (width 0) (type default))
    (uuid 4fbd1b8d-f4d4-4345-91ce-64b980954cc7)
  )
  (wire (pts (xy 205.74 88.9) (xy 205.74 87.63))
    (stroke (width 0) (type default))
    (uuid 52265735-3150-4801-bd38-ea03e54fd2ea)
  )
  (wire (pts (xy 62.23 64.77) (xy 72.39 64.77))
    (stroke (width 0) (type default))
    (uuid 5429a16e-5d21-4500-a99a-65826b60e41e)
  )
  (wire (pts (xy 121.92 121.92) (xy 125.73 121.92))
    (stroke (width 0) (type default))
    (uuid 5850d1ca-6840-447b-a782-3a7d8d30cdb7)
  )
  (wire (pts (xy 121.92 71.12) (xy 125.73 71.12))
    (stroke (width 0) (type default))
    (uuid 5e64b278-c088-440f-9df8-1af09aa8d632)
  )
  (wire (pts (xy 190.5 76.2) (xy 190.5 68.58))
    (stroke (width 0) (type default))
    (uuid 614dcb07-c37b-417f-8aec-5d7401b2a4f6)
  )
  (wire (pts (xy 88.9 110.49) (xy 88.9 113.03))
    (stroke (width 0) (type default))
    (uuid 62fc186d-19c4-423a-ada7-f36c156e3d9e)
  )
  (wire (pts (xy 72.39 81.28) (xy 77.47 81.28))
    (stroke (width 0) (type default))
    (uuid 6332c8e6-03ac-4556-9e7e-ef0823284d56)
  )
  (wire (pts (xy 121.92 119.38) (xy 121.92 121.92))
    (stroke (width 0) (type default))
    (uuid 691e52b3-1fcd-4fc8-8cb2-bc29f149f892)
  )
  (wire (pts (xy 58.42 83.82) (xy 52.07 83.82))
    (stroke (width 0) (type default))
    (uuid 69d24d1d-af1e-49aa-88ed-84b1fc93720b)
  )
  (wire (pts (xy 121.92 71.12) (xy 121.92 69.85))
    (stroke (width 0) (type default))
    (uuid 6af8f407-da07-4d7b-9c17-9312cc4f01bf)
  )
  (wire (pts (xy 113.03 96.52) (xy 115.57 96.52))
    (stroke (width 0) (type default))
    (uuid 6ba2820e-c9fa-4d15-98f9-7abb48a32fbe)
  )
  (wire (pts (xy 168.91 71.12) (xy 168.91 69.85))
    (stroke (width 0) (type default))
    (uuid 6d24fc0d-3a95-41aa-b6be-68284be42e0a)
  )
  (wire (pts (xy 166.37 71.12) (xy 168.91 71.12))
    (stroke (width 0) (type default))
    (uuid 7501cf2c-5ef2-426a-9e51-afbc18177cd5)
  )
  (wire (pts (xy 123.19 96.52) (xy 125.73 96.52))
    (stroke (width 0) (type default))
    (uuid 779c712c-c4c9-4048-b12a-a16967c7f730)
  )
  (wire (pts (xy 62.23 78.74) (xy 77.47 78.74))
    (stroke (width 0) (type default))
    (uuid 7b3ea51a-f3e8-4dea-9f85-fe89aa88fa52)
  )
  (wire (pts (xy 121.92 114.3) (xy 121.92 119.38))
    (stroke (width 0) (type default))
    (uuid 7c147e80-2c16-4898-9cad-eb0f4e646c37)
  )
  (wire (pts (xy 121.92 59.69) (xy 121.92 62.23))
    (stroke (width 0) (type default))
    (uuid 7c5224b3-0bba-4b87-932b-52139f6aa06f)
  )
  (wire (pts (xy 121.92 109.22) (xy 121.92 111.76))
    (stroke (width 0) (type default))
    (uuid 7f3c0467-55e9-4ef0-8bf8-73564448e2ab)
  )
  (wire (pts (xy 121.92 109.22) (xy 125.73 109.22))
    (stroke (width 0) (type default))
    (uuid 877a3c94-59cc-4450-a964-225a6104a2ec)
  )
  (wire (pts (xy 72.39 64.77) (xy 72.39 66.04))
    (stroke (width 0) (type default))
    (uuid 87f4c385-072c-43d7-b8de-1fcdd133b7ce)
  )
  (wire (pts (xy 125.73 119.38) (xy 121.92 119.38))
    (stroke (width 0) (type default))
    (uuid 909bd2f8-f6a4-4e64-bcc2-0701484fad20)
  )
  (wire (pts (xy 194.31 78.74) (xy 190.5 78.74))
    (stroke (width 0) (type default))
    (uuid 932a9fb5-20a0-40b4-b1c6-6f4fc620382a)
  )
  (wire (pts (xy 121.92 86.36) (xy 125.73 86.36))
    (stroke (width 0) (type default))
    (uuid 93704c56-5761-4543-9322-195cf4832fff)
  )
  (wire (pts (xy 232.41 78.74) (xy 232.41 81.28))
    (stroke (width 0) (type default))
    (uuid 95011038-9279-4098-93e0-11543bceffde)
  )
  (wire (pts (xy 121.92 73.66) (xy 125.73 73.66))
    (stroke (width 0) (type default))
    (uuid 9de25be0-3521-4e50-ba7b-278d211c9211)
  )
  (wire (pts (xy 58.42 64.77) (xy 62.23 64.77))
    (stroke (width 0) (type default))
    (uuid 9f7ef5a7-ab85-493b-ab1d-7ededfd79d98)
  )
  (wire (pts (xy 166.37 76.2) (xy 190.5 76.2))
    (stroke (width 0) (type default))
    (uuid a0a9ea33-b2b1-458b-9dc5-e7929918145d)
  )
  (wire (pts (xy 88.9 110.49) (xy 100.33 110.49))
    (stroke (width 0) (type default))
    (uuid a0fd7f4e-865c-4b02-8ca3-2aee73d4521e)
  )
  (wire (pts (xy 125.73 106.68) (xy 121.92 106.68))
    (stroke (width 0) (type default))
    (uuid a4e0750d-cdd9-40ac-adf8-94fde1fdc7c2)
  )
  (wire (pts (xy 62.23 64.77) (xy 62.23 66.04))
    (stroke (width 0) (type default))
    (uuid a514ccbe-c6d0-419b-992d-ed6a4dace873)
  )
  (wire (pts (xy 190.5 87.63) (xy 190.5 88.9))
    (stroke (width 0) (type default))
    (uuid a93db727-c3e1-4d49-8c67-2e91b2c642d2)
  )
  (wire (pts (xy 166.37 88.9) (xy 168.91 88.9))
    (stroke (width 0) (type default))
    (uuid ac289e25-f293-48e1-a10e-8718f603de72)
  )
  (wire (pts (xy 190.5 68.58) (xy 205.74 68.58))
    (stroke (width 0) (type default))
    (uuid b3d14abe-624d-4227-9c24-45a664fd1c80)
  )
  (wire (pts (xy 190.5 88.9) (xy 198.12 88.9))
    (stroke (width 0) (type default))
    (uuid b8cdd7f5-9553-4e83-8cd7-31f8c2b43a3d)
  )
  (wire (pts (xy 176.53 88.9) (xy 179.07 88.9))
    (stroke (width 0) (type default))
    (uuid b924809e-13be-4946-a409-e8128237f31f)
  )
  (wire (pts (xy 121.92 78.74) (xy 125.73 78.74))
    (stroke (width 0) (type default))
    (uuid bb7fb349-d338-4f26-b711-6913ee20d8e6)
  )
  (wire (pts (xy 121.92 83.82) (xy 125.73 83.82))
    (stroke (width 0) (type default))
    (uuid c17109b4-f296-41b5-a0d6-6fbfe9f32e8f)
  )
  (wire (pts (xy 62.23 78.74) (xy 52.07 78.74))
    (stroke (width 0) (type default))
    (uuid c82dcae1-0d20-437d-937f-e3753f2d03a8)
  )
  (wire (pts (xy 121.92 111.76) (xy 121.92 114.3))
    (stroke (width 0) (type default))
    (uuid d074771f-52b4-4683-aff5-2bc1fb8e097c)
  )
  (wire (pts (xy 121.92 121.92) (xy 121.92 123.19))
    (stroke (width 0) (type default))
    (uuid d5f8bf77-03f4-4660-bbe0-43131eeca6d4)
  )
  (wire (pts (xy 121.92 73.66) (xy 121.92 71.12))
    (stroke (width 0) (type default))
    (uuid d609533c-b892-427b-ae8c-de98ade2fffc)
  )
  (wire (pts (xy 121.92 114.3) (xy 125.73 114.3))
    (stroke (width 0) (type default))
    (uuid dbd8e3c4-e3b2-42db-bb93-5cf27c6498f2)
  )
  (wire (pts (xy 166.37 78.74) (xy 190.5 78.74))
    (stroke (width 0) (type default))
    (uuid dd07e818-067d-4b94-8058-ec11fd3672ce)
  )
  (wire (pts (xy 238.76 71.12) (xy 232.41 71.12))
    (stroke (width 0) (type default))
    (uuid e3da0bcd-0a1e-4007-918c-b2df87f782a8)
  )
  (wire (pts (xy 120.65 71.12) (xy 121.92 71.12))
    (stroke (width 0) (type default))
    (uuid ed7dc2f0-6d79-49d2-b31d-f20865a910db)
  )
  (wire (pts (xy 72.39 73.66) (xy 72.39 81.28))
    (stroke (width 0) (type default))
    (uuid edac4cb0-2b09-42cf-8dda-75913e8bb3e6)
  )
  (wire (pts (xy 168.91 59.69) (xy 168.91 62.23))
    (stroke (width 0) (type default))
    (uuid f0745bc5-3545-4096-8287-fc8fce6b389a)
  )
  (wire (pts (xy 88.9 107.95) (xy 88.9 110.49))
    (stroke (width 0) (type default))
    (uuid f2512e39-304e-456d-93db-b930b8546c8e)
  )
  (wire (pts (xy 121.92 106.68) (xy 121.92 109.22))
    (stroke (width 0) (type default))
    (uuid f61fd2ac-bb7b-4b81-84b9-dbd57b5c29c1)
  )
  (wire (pts (xy 52.07 76.2) (xy 58.42 76.2))
    (stroke (width 0) (type default))
    (uuid f8199ee9-9420-4db4-a980-e9801ac9de36)
  )
  (wire (pts (xy 220.98 76.2) (xy 238.76 76.2))
    (stroke (width 0) (type default))
    (uuid f94c7511-814b-4720-8d81-25d503cba59b)
  )

  (global_label "SDO" (shape input) (at 121.92 78.74 180) (fields_autoplaced)
    (effects (font (size 1.27 1.27)) (justify right))
    (uuid 14c64cf1-4ae2-4ed9-b561-a91fed10ca6d)
    (property "Intersheetrefs" "${INTERSHEET_REFS}" (at 115.1248 78.74 0)
      (effects (font (size 1.27 1.27)) (justify right) hide)
    )
  )
  (global_label "SCL" (shape input) (at 121.92 83.82 180) (fields_autoplaced)
    (effects (font (size 1.27 1.27)) (justify right))
    (uuid 3f40b9db-f6f3-4cd8-b36f-7957d390fe9e)
    (property "Intersheetrefs" "${INTERSHEET_REFS}" (at 115.4272 83.82 0)
      (effects (font (size 1.27 1.27)) (justify right) hide)
    )
  )
  (global_label "SDA" (shape input) (at 220.98 73.66 180) (fields_autoplaced)
    (effects (font (size 1.27 1.27)) (justify right))
    (uuid 5083e599-43f5-4440-aa15-1df1f6d71ea2)
    (property "Intersheetrefs" "${INTERSHEET_REFS}" (at 214.4267 73.66 0)
      (effects (font (size 1.27 1.27)) (justify right) hide)
    )
  )
  (global_label "SDA" (shape input) (at 121.92 81.28 180) (fields_autoplaced)
    (effects (font (size 1.27 1.27)) (justify right))
    (uuid 5b341678-e564-48bb-b790-d5c10cd3b8ab)
    (property "Intersheetrefs" "${INTERSHEET_REFS}" (at 115.3667 81.28 0)
      (effects (font (size 1.27 1.27)) (justify right) hide)
    )
  )
  (global_label "SCL" (shape input) (at 220.98 76.2 180) (fields_autoplaced)
    (effects (font (size 1.27 1.27)) (justify right))
    (uuid 5dc66afd-a740-46da-af90-7e2e95c7e38f)
    (property "Intersheetrefs" "${INTERSHEET_REFS}" (at 214.4872 76.2 0)
      (effects (font (size 1.27 1.27)) (justify right) hide)
    )
  )
  (global_label "SDA" (shape input) (at 77.47 78.74 0) (fields_autoplaced)
    (effects (font (size 1.27 1.27)) (justify left))
    (uuid 973e9d45-0223-4f8b-a20e-d26bc584f373)
    (property "Intersheetrefs" "${INTERSHEET_REFS}" (at 84.0233 78.74 0)
      (effects (font (size 1.27 1.27)) (justify left) hide)
    )
  )
  (global_label "SCL" (shape input) (at 77.47 81.28 0) (fields_autoplaced)
    (effects (font (size 1.27 1.27)) (justify left))
    (uuid b3940095-8bd6-48dc-b5cb-ac4181254413)
    (property "Intersheetrefs" "${INTERSHEET_REFS}" (at 83.9628 81.28 0)
      (effects (font (size 1.27 1.27)) (justify left) hide)
    )
  )
  (global_label "SDO" (shape input) (at 100.33 110.49 0) (fields_autoplaced)
    (effects (font (size 1.27 1.27)) (justify left))
    (uuid e624cd29-491c-4090-8b7e-b6814ebc0776)
    (property "Intersheetrefs" "${INTERSHEET_REFS}" (at 107.1252 110.49 0)
      (effects (font (size 1.27 1.27)) (justify left) hide)
    )
  )
  (global_label "INT" (shape input) (at 121.92 86.36 180) (fields_autoplaced)
    (effects (font (size 1.27 1.27)) (justify right))
    (uuid e98f2813-7575-4940-aba1-27f8a43b1d79)
    (property "Intersheetrefs" "${INTERSHEET_REFS}" (at 116.0319 86.36 0)
      (effects (font (size 1.27 1.27)) (justify right) hide)
    )
  )

  (symbol (lib_id "power:+3V3") (at 88.9 97.79 0) (unit 1)
    (in_bom yes) (on_board yes) (dnp no) (fields_autoplaced)
    (uuid 12663104-46f7-4f11-99b7-92dd88281b0b)
    (property "Reference" "#PWR04" (at 88.9 101.6 0)
      (effects (font (size 1.27 1.27)) hide)
    )
    (property "Value" "+3V3" (at 88.9 92.71 0)
      (effects (font (size 1.27 1.27)))
    )
    (property "Footprint" "" (at 88.9 97.79 0)
      (effects (font (size 1.27 1.27)) hide)
    )
    (property "Datasheet" "" (at 88.9 97.79 0)
      (effects (font (size 1.27 1.27)) hide)
    )
    (pin "1" (uuid a41bfebe-874c-4b6a-afcd-0d161b3af916))
    (instances
      (project "IMUBoard"
        (path "/70e5a8fd-d79a-42f0-963c-2c04abcfaf88"
          (reference "#PWR04") (unit 1)
        )
      )
    )
  )

  (symbol (lib_id "Jumper:SolderJumper_2_Open") (at 88.9 116.84 90) (unit 1)
    (in_bom yes) (on_board yes) (dnp no) (fields_autoplaced)
    (uuid 173a275b-e33f-4fe7-90e0-20ef23789ccc)
    (property "Reference" "JP1" (at 91.44 115.57 90)
      (effects (font (size 1.27 1.27)) (justify right))
    )
    (property "Value" "SolderJumper_2_Open" (at 91.44 118.11 90)
      (effects (font (size 1.27 1.27)) (justify right))
    )
    (property "Footprint" "Jumper:SolderJumper-2_P1.3mm_Open_Pad1.0x1.5mm" (at 88.9 116.84 0)
      (effects (font (size 1.27 1.27)) hide)
    )
    (property "Datasheet" "~" (at 88.9 116.84 0)
      (effects (font (size 1.27 1.27)) hide)
    )
    (pin "1" (uuid 30e5360e-1944-4a58-9143-aa6e368efe29))
    (pin "2" (uuid 49fd9b9b-3daa-4b4a-a023-f9ff744ddd63))
    (instances
      (project "IMUBoard"
        (path "/70e5a8fd-d79a-42f0-963c-2c04abcfaf88"
          (reference "JP1") (unit 1)
        )
      )
    )
  )

  (symbol (lib_id "Device:R") (at 172.72 88.9 270) (unit 1)
    (in_bom yes) (on_board yes) (dnp no) (fields_autoplaced)
    (uuid 192e4a97-d680-4733-89a2-cac4298005fd)
    (property "Reference" "R4" (at 172.72 82.55 90)
      (effects (font (size 1.27 1.27)))
    )
    (property "Value" "10k" (at 172.72 85.09 90)
      (effects (font (size 1.27 1.27)))
    )
    (property "Footprint" "Resistor_SMD:R_0603_1608Metric" (at 172.72 87.122 90)
      (effects (font (size 1.27 1.27)) hide)
    )
    (property "Datasheet" "~" (at 172.72 88.9 0)
      (effects (font (size 1.27 1.27)) hide)
    )
    (pin "1" (uuid fe20e2d3-8873-4da9-8bab-01b4004fbeec))
    (pin "2" (uuid e2ef6f34-6349-4854-9b80-b968dab7eeeb))
    (instances
      (project "IMUBoard"
        (path "/70e5a8fd-d79a-42f0-963c-2c04abcfaf88"
          (reference "R4") (unit 1)
        )
      )
    )
  )

  (symbol (lib_id "Device:R") (at 72.39 69.85 0) (unit 1)
    (in_bom yes) (on_board yes) (dnp no) (fields_autoplaced)
    (uuid 258624d1-b627-4785-ad01-8eb1c3656d1a)
    (property "Reference" "R1" (at 74.93 68.58 0)
      (effects (font (size 1.27 1.27)) (justify left))
    )
    (property "Value" "2k2" (at 74.93 71.12 0)
      (effects (font (size 1.27 1.27)) (justify left))
    )
    (property "Footprint" "Resistor_SMD:R_0603_1608Metric" (at 70.612 69.85 90)
      (effects (font (size 1.27 1.27)) hide)
    )
    (property "Datasheet" "~" (at 72.39 69.85 0)
      (effects (font (size 1.27 1.27)) hide)
    )
    (pin "1" (uuid 32e194d5-7ff6-4f0b-92a8-3f276c95e050))
    (pin "2" (uuid cdc657c8-054d-430d-b062-c184636e6daf))
    (instances
      (project "IMUBoard"
        (path "/70e5a8fd-d79a-42f0-963c-2c04abcfaf88"
          (reference "R1") (unit 1)
        )
      )
    )
  )

  (symbol (lib_id "power:+3V3") (at 232.41 68.58 0) (unit 1)
    (in_bom yes) (on_board yes) (dnp no) (fields_autoplaced)
    (uuid 28b85828-ea80-4680-87b5-d38653a130f9)
    (property "Reference" "#PWR015" (at 232.41 72.39 0)
      (effects (font (size 1.27 1.27)) hide)
    )
    (property "Value" "+3V3" (at 234.95 67.31 0)
      (effects (font (size 1.27 1.27)) (justify left))
    )
    (property "Footprint" "" (at 232.41 68.58 0)
      (effects (font (size 1.27 1.27)) hide)
    )
    (property "Datasheet" "" (at 232.41 68.58 0)
      (effects (font (size 1.27 1.27)) hide)
    )
    (pin "1" (uuid d167bb72-56b8-45d7-934f-3868f13a9d1b))
    (instances
      (project "IMUBoard"
        (path "/70e5a8fd-d79a-42f0-963c-2c04abcfaf88"
          (reference "#PWR015") (unit 1)
        )
      )
    )
  )

  (symbol (lib_id "Device:C") (at 58.42 80.01 0) (unit 1)
    (in_bom yes) (on_board yes) (dnp no) (fields_autoplaced)
    (uuid 2cd6308f-538d-4357-829e-7eff968abd50)
    (property "Reference" "C6" (at 62.23 78.74 0)
      (effects (font (size 1.27 1.27)) (justify left))
    )
    (property "Value" "100n" (at 62.23 81.28 0)
      (effects (font (size 1.27 1.27)) (justify left))
    )
    (property "Footprint" "Capacitor_SMD:C_0603_1608Metric" (at 59.3852 83.82 0)
      (effects (font (size 1.27 1.27)) hide)
    )
    (property "Datasheet" "~" (at 58.42 80.01 0)
      (effects (font (size 1.27 1.27)) hide)
    )
    (pin "1" (uuid bd16e9a7-1ad9-4a87-aa42-da67e87076ea))
    (pin "2" (uuid 8abacc72-d4a7-4bba-a6c6-bf07414a4674))
    (instances
      (project "IMUBoard"
        (path "/70e5a8fd-d79a-42f0-963c-2c04abcfaf88"
          (reference "C6") (unit 1)
        )
      )
    )
  )

  (symbol (lib_id "Device:C") (at 168.91 66.04 0) (unit 1)
    (in_bom yes) (on_board yes) (dnp no) (fields_autoplaced)
    (uuid 33ac9f46-52de-4902-adad-b258192c8f36)
    (property "Reference" "C1" (at 172.72 64.77 0)
      (effects (font (size 1.27 1.27)) (justify left))
    )
    (property "Value" "100n" (at 172.72 67.31 0)
      (effects (font (size 1.27 1.27)) (justify left))
    )
    (property "Footprint" "Capacitor_SMD:C_0603_1608Metric" (at 169.8752 69.85 0)
      (effects (font (size 1.27 1.27)) hide)
    )
    (property "Datasheet" "~" (at 168.91 66.04 0)
      (effects (font (size 1.27 1.27)) hide)
    )
    (pin "1" (uuid ca0a767d-63bf-401d-bf3e-8995ebfbf6f8))
    (pin "2" (uuid 216ba910-8245-4091-8902-8c68872d84ac))
    (instances
      (project "IMUBoard"
        (path "/70e5a8fd-d79a-42f0-963c-2c04abcfaf88"
          (reference "C1") (unit 1)
        )
      )
    )
  )

  (symbol (lib_id "power:+3V3") (at 120.65 71.12 90) (unit 1)
    (in_bom yes) (on_board yes) (dnp no) (fields_autoplaced)
    (uuid 44c33444-9f5e-4429-aa9f-44b781cdf1b5)
    (property "Reference" "#PWR02" (at 124.46 71.12 0)
      (effects (font (size 1.27 1.27)) hide)
    )
    (property "Value" "+3V3" (at 116.84 71.12 90)
      (effects (font (size 1.27 1.27)) (justify left))
    )
    (property "Footprint" "" (at 120.65 71.12 0)
      (effects (font (size 1.27 1.27)) hide)
    )
    (property "Datasheet" "" (at 120.65 71.12 0)
      (effects (font (size 1.27 1.27)) hide)
    )
    (pin "1" (uuid 5bc2986b-5dac-4fef-b1a0-8a08b4449b18))
    (instances
      (project "IMUBoard"
        (path "/70e5a8fd-d79a-42f0-963c-2c04abcfaf88"
          (reference "#PWR02") (unit 1)
        )
      )
    )
  )

  (symbol (lib_id "power:+3V3") (at 58.42 62.23 0) (unit 1)
    (in_bom yes) (on_board yes) (dnp no) (fields_autoplaced)
    (uuid 46ee3828-5b37-4e19-9120-e2e1b603b4aa)
    (property "Reference" "#PWR011" (at 58.42 66.04 0)
      (effects (font (size 1.27 1.27)) hide)
    )
    (property "Value" "+3V3" (at 58.42 57.15 0)
      (effects (font (size 1.27 1.27)))
    )
    (property "Footprint" "" (at 58.42 62.23 0)
      (effects (font (size 1.27 1.27)) hide)
    )
    (property "Datasheet" "" (at 58.42 62.23 0)
      (effects (font (size 1.27 1.27)) hide)
    )
    (pin "1" (uuid 3d6003be-5a01-4d38-b290-f1d57fc3d2e0))
    (instances
      (project "IMUBoard"
        (path "/70e5a8fd-d79a-42f0-963c-2c04abcfaf88"
          (reference "#PWR011") (unit 1)
        )
      )
    )
  )

  (symbol (lib_id "Device:C") (at 205.74 83.82 0) (unit 1)
    (in_bom yes) (on_board yes) (dnp no) (fields_autoplaced)
    (uuid 53c1b7cf-1256-4e80-b01a-aea3c8019c00)
    (property "Reference" "C5" (at 209.55 82.55 0)
      (effects (font (size 1.27 1.27)) (justify left))
    )
    (property "Value" "22p" (at 209.55 85.09 0)
      (effects (font (size 1.27 1.27)) (justify left))
    )
    (property "Footprint" "Capacitor_SMD:C_0603_1608Metric" (at 206.7052 87.63 0)
      (effects (font (size 1.27 1.27)) hide)
    )
    (property "Datasheet" "~" (at 205.74 83.82 0)
      (effects (font (size 1.27 1.27)) hide)
    )
    (pin "1" (uuid 17ffb21e-948b-4bfe-9c2d-9c7396ac1ff3))
    (pin "2" (uuid b869c9ce-3a74-417d-bc53-d9ba43d33b0e))
    (instances
      (project "IMUBoard"
        (path "/70e5a8fd-d79a-42f0-963c-2c04abcfaf88"
          (reference "C5") (unit 1)
        )
      )
    )
  )

  (symbol (lib_id "Connector:Conn_01x04_Pin") (at 46.99 78.74 0) (unit 1)
    (in_bom yes) (on_board yes) (dnp no) (fields_autoplaced)
    (uuid 56ac166d-7bc9-4f71-9cb0-79c2f3e72670)
    (property "Reference" "J1" (at 47.625 71.12 0)
      (effects (font (size 1.27 1.27)))
    )
    (property "Value" "Conn_01x04_Pin" (at 47.625 73.66 0)
      (effects (font (size 1.27 1.27)))
    )
    (property "Footprint" "Connector_JST:JST_SH_SM04B-SRSS-TB_1x04-1MP_P1.00mm_Horizontal" (at 46.99 78.74 0)
      (effects (font (size 1.27 1.27)) hide)
    )
    (property "Datasheet" "~" (at 46.99 78.74 0)
      (effects (font (size 1.27 1.27)) hide)
    )
    (pin "1" (uuid 8185739b-7acd-409d-b379-3e3db6787263))
    (pin "2" (uuid a346adcd-72ae-4dc0-9029-89583c752c75))
    (pin "3" (uuid 79e1b575-54cc-4152-a9a0-a79f476ce6dd))
    (pin "4" (uuid 3c4acc4f-9316-41eb-ab6c-97e10c00bc41))
    (instances
      (project "IMUBoard"
        (path "/70e5a8fd-d79a-42f0-963c-2c04abcfaf88"
          (reference "J1") (unit 1)
        )
      )
    )
  )

  (symbol (lib_id "power:GND") (at 88.9 123.19 0) (unit 1)
    (in_bom yes) (on_board yes) (dnp no) (fields_autoplaced)
    (uuid 64a07ad9-dc09-4e6c-8c5c-1d85cf98e23e)
    (property "Reference" "#PWR013" (at 88.9 129.54 0)
      (effects (font (size 1.27 1.27)) hide)
    )
    (property "Value" "GND" (at 88.9 128.27 0)
      (effects (font (size 1.27 1.27)))
    )
    (property "Footprint" "" (at 88.9 123.19 0)
      (effects (font (size 1.27 1.27)) hide)
    )
    (property "Datasheet" "" (at 88.9 123.19 0)
      (effects (font (size 1.27 1.27)) hide)
    )
    (pin "1" (uuid 097bc54f-ee88-4677-9136-acf1ed46ab20))
    (instances
      (project "IMUBoard"
        (path "/70e5a8fd-d79a-42f0-963c-2c04abcfaf88"
          (reference "#PWR013") (unit 1)
        )
      )
    )
  )

  (symbol (lib_id "IMUs:BNO085") (at 146.05 95.25 0) (unit 1)
    (in_bom yes) (on_board yes) (dnp no)
    (uuid 665763ba-846c-45ac-9015-4c0144b32cce)
    (property "Reference" "U1" (at 146.05 67.31 0)
      (effects (font (size 1.27 1.27)))
    )
    (property "Value" "~" (at 146.05 67.31 0)
      (effects (font (size 1.27 1.27)) hide)
    )
    (property "Footprint" "Package_LGA:LGA-28_5.2x3.8mm_P0.5mm" (at 146.05 63.5 0)
      (effects (font (size 1.27 1.27)) hide)
    )
    (property "Datasheet" "" (at 146.05 67.31 0)
      (effects (font (size 1.27 1.27)) hide)
    )
    (pin "1" (uuid 0a56a683-ce2e-43b8-81a4-833a5f65f426))
    (pin "10" (uuid 17af195e-c827-4b7f-919e-c7afdb5c2f4e))
    (pin "11" (uuid ccbb5ae5-c89d-477d-a5a4-3dffd8f86576))
    (pin "12" (uuid 752d10bf-002b-448f-899e-9737676e52f6))
    (pin "13" (uuid 42c991e7-d211-44fc-a2ed-bddcb3543051))
    (pin "14" (uuid 49c3c427-da4c-4e3a-acb0-88b99355f900))
    (pin "15" (uuid a77dce64-e2e7-440b-8260-c7ea22cb5c49))
    (pin "16" (uuid 2b3e206f-de7f-4c2c-a876-90e7c0a62b3a))
    (pin "17" (uuid 5a2f52bd-cfe8-4f6e-a9b4-af6a4204344c))
    (pin "18" (uuid 57749ee0-0fcd-410e-a966-88baaca09548))
    (pin "19" (uuid 2d3cabca-27a6-4737-be2f-aecee7a57d79))
    (pin "2" (uuid cdae1ca7-aa43-419d-8e74-f91ff327f4ba))
    (pin "20" (uuid d22d17c0-0222-4481-a520-94b959570eee))
    (pin "21" (uuid 106abd5c-7b9e-4279-8dea-7eac8752fe84))
    (pin "22" (uuid aee1cba1-9617-46b6-9347-7b7de39ad0d0))
    (pin "23" (uuid a0f8a10e-9195-43eb-bd16-1706f3e3f7c7))
    (pin "24" (uuid 7a00c711-4483-4204-bc60-84a0b402a773))
    (pin "25" (uuid 31886acb-c678-4fa8-9916-06b4c626fc15))
    (pin "26" (uuid fe27447a-0a3a-4285-b892-b20742a2233d))
    (pin "27" (uuid 465582fd-f3b8-4717-a0d0-a61c853a8830))
    (pin "28" (uuid 06245bb8-787b-47d3-bc4e-7f0b89b7508f))
    (pin "3" (uuid 3ec11400-0cbc-489d-9f91-9e71f60cee96))
    (pin "4" (uuid 3663781b-89fe-4cee-a1ba-43d073caa675))
    (pin "5" (uuid 37b50959-7e8a-4c80-9363-b9009ea61ee9))
    (pin "6" (uuid 5e761fd5-925f-42f4-bb8e-7a870f85214c))
    (pin "7" (uuid d5c203b7-3306-43f8-9ea0-b2f4de80a17d))
    (pin "8" (uuid 88e40bf7-8b6e-42c5-a914-2d3e9cd060da))
    (pin "9" (uuid 4878a32d-3584-4d76-9aab-1f1be414632b))
    (instances
      (project "IMUBoard"
        (path "/70e5a8fd-d79a-42f0-963c-2c04abcfaf88"
          (reference "U1") (unit 1)
        )
      )
    )
  )

  (symbol (lib_id "power:GND") (at 121.92 59.69 180) (unit 1)
    (in_bom yes) (on_board yes) (dnp no) (fields_autoplaced)
    (uuid 820c86b3-e8d5-4055-a711-952342095300)
    (property "Reference" "#PWR06" (at 121.92 53.34 0)
      (effects (font (size 1.27 1.27)) hide)
    )
    (property "Value" "GND" (at 121.92 54.61 0)
      (effects (font (size 1.27 1.27)))
    )
    (property "Footprint" "" (at 121.92 59.69 0)
      (effects (font (size 1.27 1.27)) hide)
    )
    (property "Datasheet" "" (at 121.92 59.69 0)
      (effects (font (size 1.27 1.27)) hide)
    )
    (pin "1" (uuid 4098a3c4-d2bf-43cd-8bc2-f36c2469479e))
    (instances
      (project "IMUBoard"
        (path "/70e5a8fd-d79a-42f0-963c-2c04abcfaf88"
          (reference "#PWR06") (unit 1)
        )
      )
    )
  )

  (symbol (lib_id "power:+3V3") (at 113.03 96.52 90) (unit 1)
    (in_bom yes) (on_board yes) (dnp no) (fields_autoplaced)
    (uuid 82566302-c8e8-4e9e-9e6f-27fc44c5adb1)
    (property "Reference" "#PWR08" (at 116.84 96.52 0)
      (effects (font (size 1.27 1.27)) hide)
    )
    (property "Value" "+3V3" (at 109.22 96.52 90)
      (effects (font (size 1.27 1.27)) (justify left))
    )
    (property "Footprint" "" (at 113.03 96.52 0)
      (effects (font (size 1.27 1.27)) hide)
    )
    (property "Datasheet" "" (at 113.03 96.52 0)
      (effects (font (size 1.27 1.27)) hide)
    )
    (pin "1" (uuid 267f8bf2-8bf9-4e3c-88bc-abf90a4acae2))
    (instances
      (project "IMUBoard"
        (path "/70e5a8fd-d79a-42f0-963c-2c04abcfaf88"
          (reference "#PWR08") (unit 1)
        )
      )
    )
  )

  (symbol (lib_id "Device:R") (at 88.9 104.14 0) (unit 1)
    (in_bom yes) (on_board yes) (dnp no) (fields_autoplaced)
    (uuid 8b477b6d-82ba-4cc9-a838-27d02e679424)
    (property "Reference" "R5" (at 91.44 102.87 0)
      (effects (font (size 1.27 1.27)) (justify left))
    )
    (property "Value" "10k" (at 91.44 105.41 0)
      (effects (font (size 1.27 1.27)) (justify left))
    )
    (property "Footprint" "Resistor_SMD:R_0603_1608Metric" (at 87.122 104.14 90)
      (effects (font (size 1.27 1.27)) hide)
    )
    (property "Datasheet" "~" (at 88.9 104.14 0)
      (effects (font (size 1.27 1.27)) hide)
    )
    (pin "1" (uuid 2bd43ce5-dd25-44f6-bc38-d645205f2be5))
    (pin "2" (uuid 13897ca3-1df4-48da-8142-eaaeee9d14b3))
    (instances
      (project "IMUBoard"
        (path "/70e5a8fd-d79a-42f0-963c-2c04abcfaf88"
          (reference "R5") (unit 1)
        )
      )
    )
  )

  (symbol (lib_id "Device:C") (at 190.5 83.82 0) (unit 1)
    (in_bom yes) (on_board yes) (dnp no) (fields_autoplaced)
    (uuid 8d9e7a4e-e512-4ccd-99d0-6a73e4f04d51)
    (property "Reference" "C4" (at 193.524 82.55 0)
      (effects (font (size 1.27 1.27)) (justify left))
    )
    (property "Value" "22p" (at 193.524 85.09 0)
      (effects (font (size 1.27 1.27)) (justify left))
    )
    (property "Footprint" "Capacitor_SMD:C_0603_1608Metric" (at 191.4652 87.63 0)
      (effects (font (size 1.27 1.27)) hide)
    )
    (property "Datasheet" "~" (at 190.5 83.82 0)
      (effects (font (size 1.27 1.27)) hide)
    )
    (pin "1" (uuid 4c68312e-8b50-471e-a33a-f38667898494))
    (pin "2" (uuid 0f96f7cf-c82f-4b84-92bd-c3c4222844c3))
    (instances
      (project "IMUBoard"
        (path "/70e5a8fd-d79a-42f0-963c-2c04abcfaf88"
          (reference "C4") (unit 1)
        )
      )
    )
  )

  (symbol (lib_id "Device:Crystal") (at 198.12 78.74 0) (unit 1)
    (in_bom yes) (on_board yes) (dnp no) (fields_autoplaced)
    (uuid a5115afe-c5bf-4b71-bd9d-ea601d76d69e)
    (property "Reference" "Y1" (at 198.12 71.12 0)
      (effects (font (size 1.27 1.27)))
    )
    (property "Value" "32.768kHz" (at 198.12 73.66 0)
      (effects (font (size 1.27 1.27)))
    )
    (property "Footprint" "Crystal:Crystal_SMD_3215-2Pin_3.2x1.5mm" (at 198.12 78.74 0)
      (effects (font (size 1.27 1.27)) hide)
    )
    (property "Datasheet" "~" (at 198.12 78.74 0)
      (effects (font (size 1.27 1.27)) hide)
    )
    (pin "1" (uuid 21ecbcca-cd58-4776-b7d7-99b3aa436190))
    (pin "2" (uuid c4d6902a-da47-44a5-8d10-ad46c1f72854))
    (instances
      (project "IMUBoard"
        (path "/70e5a8fd-d79a-42f0-963c-2c04abcfaf88"
          (reference "Y1") (unit 1)
        )
      )
    )
  )

  (symbol (lib_id "Connector:Conn_01x04_Pin") (at 243.84 76.2 180) (unit 1)
    (in_bom yes) (on_board yes) (dnp no)
    (uuid a9e80fc1-0230-40c0-a497-0a73a1c19cf5)
    (property "Reference" "J2" (at 243.205 83.82 0)
      (effects (font (size 1.27 1.27)))
    )
    (property "Value" "Conn_01x04_Pin" (at 243.84 86.36 0)
      (effects (font (size 1.27 1.27)))
    )
    (property "Footprint" "Connector_JST:JST_SH_SM04B-SRSS-TB_1x04-1MP_P1.00mm_Horizontal" (at 243.84 76.2 0)
      (effects (font (size 1.27 1.27)) hide)
    )
    (property "Datasheet" "~" (at 243.84 76.2 0)
      (effects (font (size 1.27 1.27)) hide)
    )
    (pin "1" (uuid e688c9bc-1fe4-40d9-ae14-27db9cfdc6b1))
    (pin "2" (uuid 79fc7221-2457-45de-9114-4949d10317ca))
    (pin "3" (uuid 22e48e87-5d12-407e-a252-6902761897a6))
    (pin "4" (uuid afb8ea1b-7014-4c90-b691-660d3a708b18))
    (instances
      (project "IMUBoard"
        (path "/70e5a8fd-d79a-42f0-963c-2c04abcfaf88"
          (reference "J2") (unit 1)
        )
      )
    )
  )

  (symbol (lib_id "power:GND") (at 121.92 123.19 0) (unit 1)
    (in_bom yes) (on_board yes) (dnp no) (fields_autoplaced)
    (uuid aa3da8dc-e061-42d4-bd21-fe96fc4c1922)
    (property "Reference" "#PWR03" (at 121.92 129.54 0)
      (effects (font (size 1.27 1.27)) hide)
    )
    (property "Value" "GND" (at 121.92 128.27 0)
      (effects (font (size 1.27 1.27)))
    )
    (property "Footprint" "" (at 121.92 123.19 0)
      (effects (font (size 1.27 1.27)) hide)
    )
    (property "Datasheet" "" (at 121.92 123.19 0)
      (effects (font (size 1.27 1.27)) hide)
    )
    (pin "1" (uuid 1a61071a-4d12-4052-8ea7-382037234b39))
    (instances
      (project "IMUBoard"
        (path "/70e5a8fd-d79a-42f0-963c-2c04abcfaf88"
          (reference "#PWR03") (unit 1)
        )
      )
    )
  )

  (symbol (lib_id "power:GND") (at 198.12 88.9 0) (unit 1)
    (in_bom yes) (on_board yes) (dnp no) (fields_autoplaced)
    (uuid c4c10f65-a9df-4a22-807d-b51420b95cfe)
    (property "Reference" "#PWR010" (at 198.12 95.25 0)
      (effects (font (size 1.27 1.27)) hide)
    )
    (property "Value" "GND" (at 198.12 93.98 0)
      (effects (font (size 1.27 1.27)))
    )
    (property "Footprint" "" (at 198.12 88.9 0)
      (effects (font (size 1.27 1.27)) hide)
    )
    (property "Datasheet" "" (at 198.12 88.9 0)
      (effects (font (size 1.27 1.27)) hide)
    )
    (pin "1" (uuid 8acfb899-103c-40b7-8d1f-602f219cdc6b))
    (instances
      (project "IMUBoard"
        (path "/70e5a8fd-d79a-42f0-963c-2c04abcfaf88"
          (reference "#PWR010") (unit 1)
        )
      )
    )
  )

  (symbol (lib_id "Device:C") (at 121.92 66.04 0) (unit 1)
    (in_bom yes) (on_board yes) (dnp no) (fields_autoplaced)
    (uuid ccb66b1c-94fc-4a0c-a932-979851b0b7a4)
    (property "Reference" "C2" (at 125.73 64.77 0)
      (effects (font (size 1.27 1.27)) (justify left))
    )
    (property "Value" "100n" (at 125.73 67.31 0)
      (effects (font (size 1.27 1.27)) (justify left))
    )
    (property "Footprint" "Capacitor_SMD:C_0603_1608Metric" (at 122.8852 69.85 0)
      (effects (font (size 1.27 1.27)) hide)
    )
    (property "Datasheet" "~" (at 121.92 66.04 0)
      (effects (font (size 1.27 1.27)) hide)
    )
    (pin "1" (uuid 5f7cb4da-04ea-4a53-9c6b-6a35db885209))
    (pin "2" (uuid 0035e3bf-8a57-47a6-8388-ba3ef2091659))
    (instances
      (project "IMUBoard"
        (path "/70e5a8fd-d79a-42f0-963c-2c04abcfaf88"
          (reference "C2") (unit 1)
        )
      )
    )
  )

  (symbol (lib_id "power:GND") (at 168.91 59.69 180) (unit 1)
    (in_bom yes) (on_board yes) (dnp no) (fields_autoplaced)
    (uuid d86aa139-375b-411f-9423-7f235b58fabf)
    (property "Reference" "#PWR01" (at 168.91 53.34 0)
      (effects (font (size 1.27 1.27)) hide)
    )
    (property "Value" "GND" (at 168.91 54.61 0)
      (effects (font (size 1.27 1.27)))
    )
    (property "Footprint" "" (at 168.91 59.69 0)
      (effects (font (size 1.27 1.27)) hide)
    )
    (property "Datasheet" "" (at 168.91 59.69 0)
      (effects (font (size 1.27 1.27)) hide)
    )
    (pin "1" (uuid 450f85dc-d80f-40bc-bfbb-49756d1adfcb))
    (instances
      (project "IMUBoard"
        (path "/70e5a8fd-d79a-42f0-963c-2c04abcfaf88"
          (reference "#PWR01") (unit 1)
        )
      )
    )
  )

  (symbol (lib_id "power:+3V3") (at 179.07 88.9 270) (unit 1)
    (in_bom yes) (on_board yes) (dnp no) (fields_autoplaced)
    (uuid db57d9d0-7ec1-4c33-800f-36437e289ae9)
    (property "Reference" "#PWR09" (at 175.26 88.9 0)
      (effects (font (size 1.27 1.27)) hide)
    )
    (property "Value" "+3V3" (at 182.88 88.9 90)
      (effects (font (size 1.27 1.27)) (justify left))
    )
    (property "Footprint" "" (at 179.07 88.9 0)
      (effects (font (size 1.27 1.27)) hide)
    )
    (property "Datasheet" "" (at 179.07 88.9 0)
      (effects (font (size 1.27 1.27)) hide)
    )
    (pin "1" (uuid c47ba113-b9c8-4b4c-be2b-6b349dedb711))
    (instances
      (project "IMUBoard"
        (path "/70e5a8fd-d79a-42f0-963c-2c04abcfaf88"
          (reference "#PWR09") (unit 1)
        )
      )
    )
  )

  (symbol (lib_id "Device:R") (at 119.38 96.52 270) (unit 1)
    (in_bom yes) (on_board yes) (dnp no) (fields_autoplaced)
    (uuid eedbb4cf-c3f5-4193-82af-6159fd68444c)
    (property "Reference" "R3" (at 119.38 90.17 90)
      (effects (font (size 1.27 1.27)))
    )
    (property "Value" "10k" (at 119.38 92.71 90)
      (effects (font (size 1.27 1.27)))
    )
    (property "Footprint" "Resistor_SMD:R_0603_1608Metric" (at 119.38 94.742 90)
      (effects (font (size 1.27 1.27)) hide)
    )
    (property "Datasheet" "~" (at 119.38 96.52 0)
      (effects (font (size 1.27 1.27)) hide)
    )
    (pin "1" (uuid 013377f5-a965-42ae-a1d8-20b324801687))
    (pin "2" (uuid e3a9b61e-fc1e-4471-8038-3841fe8569e5))
    (instances
      (project "IMUBoard"
        (path "/70e5a8fd-d79a-42f0-963c-2c04abcfaf88"
          (reference "R3") (unit 1)
        )
      )
    )
  )

  (symbol (lib_id "power:GND") (at 232.41 81.28 0) (unit 1)
    (in_bom yes) (on_board yes) (dnp no) (fields_autoplaced)
    (uuid ef41cb5c-52e9-46d3-9075-6035fb986512)
    (property "Reference" "#PWR014" (at 232.41 87.63 0)
      (effects (font (size 1.27 1.27)) hide)
    )
    (property "Value" "GND" (at 234.95 82.55 0)
      (effects (font (size 1.27 1.27)) (justify left))
    )
    (property "Footprint" "" (at 232.41 81.28 0)
      (effects (font (size 1.27 1.27)) hide)
    )
    (property "Datasheet" "" (at 232.41 81.28 0)
      (effects (font (size 1.27 1.27)) hide)
    )
    (pin "1" (uuid 0a07521c-ba1c-438a-b657-32640decea93))
    (instances
      (project "IMUBoard"
        (path "/70e5a8fd-d79a-42f0-963c-2c04abcfaf88"
          (reference "#PWR014") (unit 1)
        )
      )
    )
  )

  (symbol (lib_id "Device:R") (at 62.23 69.85 0) (unit 1)
    (in_bom yes) (on_board yes) (dnp no) (fields_autoplaced)
    (uuid f0bb2734-f913-4339-be67-6f48ab3e3dcd)
    (property "Reference" "R2" (at 64.77 68.58 0)
      (effects (font (size 1.27 1.27)) (justify left))
    )
    (property "Value" "2k2" (at 64.77 71.12 0)
      (effects (font (size 1.27 1.27)) (justify left))
    )
    (property "Footprint" "Resistor_SMD:R_0603_1608Metric" (at 60.452 69.85 90)
      (effects (font (size 1.27 1.27)) hide)
    )
    (property "Datasheet" "~" (at 62.23 69.85 0)
      (effects (font (size 1.27 1.27)) hide)
    )
    (pin "1" (uuid 4ae9953a-51be-45df-9d9e-d5207d4dba3d))
    (pin "2" (uuid feea7df5-ef14-41da-8aa5-ab1f923a6a46))
    (instances
      (project "IMUBoard"
        (path "/70e5a8fd-d79a-42f0-963c-2c04abcfaf88"
          (reference "R2") (unit 1)
        )
      )
    )
  )

  (symbol (lib_id "Device:C") (at 232.41 74.93 180) (unit 1)
    (in_bom yes) (on_board yes) (dnp no) (fields_autoplaced)
    (uuid f77b5b70-c3ac-4820-bbe8-dc21ccce50d2)
    (property "Reference" "C7" (at 228.6 76.2 0)
      (effects (font (size 1.27 1.27)) (justify left))
    )
    (property "Value" "100n" (at 228.6 73.66 0)
      (effects (font (size 1.27 1.27)) (justify left))
    )
    (property "Footprint" "Capacitor_SMD:C_0603_1608Metric" (at 231.4448 71.12 0)
      (effects (font (size 1.27 1.27)) hide)
    )
    (property "Datasheet" "~" (at 232.41 74.93 0)
      (effects (font (size 1.27 1.27)) hide)
    )
    (pin "1" (uuid 6b3f5672-0b4f-4724-ae9b-bc991f1c896d))
    (pin "2" (uuid b2e1e1ee-834f-4fe8-92e3-25b472cb0a76))
    (instances
      (project "IMUBoard"
        (path "/70e5a8fd-d79a-42f0-963c-2c04abcfaf88"
          (reference "C7") (unit 1)
        )
      )
    )
  )

  (symbol (lib_id "power:GND") (at 58.42 86.36 0) (unit 1)
    (in_bom yes) (on_board yes) (dnp no) (fields_autoplaced)
    (uuid ffa2ca53-321e-4a9e-a969-7194bdfe50f2)
    (property "Reference" "#PWR012" (at 58.42 92.71 0)
      (effects (font (size 1.27 1.27)) hide)
    )
    (property "Value" "GND" (at 58.42 91.44 0)
      (effects (font (size 1.27 1.27)))
    )
    (property "Footprint" "" (at 58.42 86.36 0)
      (effects (font (size 1.27 1.27)) hide)
    )
    (property "Datasheet" "" (at 58.42 86.36 0)
      (effects (font (size 1.27 1.27)) hide)
    )
    (pin "1" (uuid 362c1567-4393-441c-8e38-258494342030))
    (instances
      (project "IMUBoard"
        (path "/70e5a8fd-d79a-42f0-963c-2c04abcfaf88"
          (reference "#PWR012") (unit 1)
        )
      )
    )
  )

  (sheet_instances
    (path "/" (page "1"))
  )
)
