(kicad_sch (version 20230121) (generator eeschema)

  (uuid e63e39d7-6ac0-4ffd-8aa3-1841a4541b55)

  (paper "A4")

  (title_block
    (title "Bitcart")
    (date "2023-09-15")
    (rev "1")
  )

  (lib_symbols
  )

  (junction (at 132.842 85.09) (diameter 0) (color 0 0 0 0)
    (uuid 179df607-5206-465f-898a-ffb04a7d2174)
  )
  (junction (at 136.652 88.9) (diameter 0) (color 0 0 0 0)
    (uuid 2d798c57-cff7-4235-b2ff-6c1ff7936315)
  )

  (wire (pts (xy 76.962 36.322) (xy 68.072 36.322))
    (stroke (width 0) (type solid))
    (uuid 02165243-61a3-4857-84ba-71a77cb9a387)
  )
  (wire (pts (xy 176.022 107.442) (xy 182.372 107.442))
    (stroke (width 0) (type default))
    (uuid 04f310ec-e895-490d-a6cd-d77c7a6d6e7a)
  )
  (wire (pts (xy 164.592 40.132) (xy 186.182 40.132))
    (stroke (width 0) (type solid))
    (uuid 04f5865e-f449-4408-a0c8-771cccfcb129)
  )
  (wire (pts (xy 164.592 123.444) (xy 182.372 123.444))
    (stroke (width 0) (type default))
    (uuid 05b66415-e2a3-443f-80ba-04836f721500)
  )
  (wire (pts (xy 101.092 31.75) (xy 111.506 31.75))
    (stroke (width 0) (type solid))
    (uuid 0f3c9e3a-9c59-4881-b27a-d0e982b3ea8e)
  )
  (wire (pts (xy 117.348 128.016) (xy 127.762 128.016))
    (stroke (width 0) (type default))
    (uuid 0fe11906-54d0-4772-b479-eaa6b53b341c)
  )
  (wire (pts (xy 164.592 54.102) (xy 186.182 54.102))
    (stroke (width 0) (type solid))
    (uuid 213a2af1-412b-47f4-ab3b-c5f43b6be7a6)
  )
  (wire (pts (xy 136.652 88.9) (xy 136.652 91.44))
    (stroke (width 0) (type default))
    (uuid 21e4c049-416f-41a1-a02c-fb855f05f8c2)
  )
  (wire (pts (xy 176.022 104.902) (xy 182.372 104.902))
    (stroke (width 0) (type default))
    (uuid 23ad86fb-a475-4d26-82e5-bd3af740521b)
  )
  (wire (pts (xy 164.592 134.874) (xy 182.372 134.874))
    (stroke (width 0) (type default))
    (uuid 3e2391ea-a870-41e1-b630-d9971d25c75f)
  )
  (wire (pts (xy 117.348 141.986) (xy 127.762 141.986))
    (stroke (width 0) (type solid))
    (uuid 43891a3c-749f-498d-ba99-685a27689b0d)
  )
  (wire (pts (xy 101.092 40.132) (xy 127.762 40.132))
    (stroke (width 0) (type solid))
    (uuid 46cfd089-6873-4d8b-89af-02ff30e49472)
  )
  (wire (pts (xy 117.348 134.366) (xy 127.762 134.366))
    (stroke (width 0) (type default))
    (uuid 4d2ecb68-1d36-4bca-8ae6-56c76fc60675)
  )
  (wire (pts (xy 164.592 42.672) (xy 186.182 42.672))
    (stroke (width 0) (type solid))
    (uuid 6199bec7-e7eb-4ae0-b9ec-c563e157d635)
  )
  (wire (pts (xy 143.002 79.502) (xy 143.002 91.44))
    (stroke (width 0) (type default))
    (uuid 633b5a05-4434-4e26-93a1-f5e5006d38dc)
  )
  (wire (pts (xy 101.092 88.9) (xy 136.652 88.9))
    (stroke (width 0) (type solid))
    (uuid 68b52f01-fa04-4908-bf88-60c62ace1cfa)
  )
  (wire (pts (xy 164.592 131.064) (xy 182.372 131.064))
    (stroke (width 0) (type default))
    (uuid 6bbb6ceb-f709-4521-a917-fd5c50f98a4a)
  )
  (wire (pts (xy 136.652 79.502) (xy 136.652 88.9))
    (stroke (width 0) (type default))
    (uuid 6d9fd890-7589-4431-8730-a2e19dfa1445)
  )
  (wire (pts (xy 164.592 35.052) (xy 186.182 35.052))
    (stroke (width 0) (type solid))
    (uuid 71c77456-1405-42e3-95ed-69e629de0558)
  )
  (wire (pts (xy 115.062 61.722) (xy 127.762 61.722))
    (stroke (width 0) (type solid))
    (uuid 7e969d15-6cc0-4258-8b27-586608a21adb)
  )
  (wire (pts (xy 164.592 49.022) (xy 186.182 49.022))
    (stroke (width 0) (type solid))
    (uuid 7f3eb118-a20c-4239-b800-c9211c66847d)
  )
  (wire (pts (xy 76.962 42.672) (xy 68.072 42.672))
    (stroke (width 0) (type solid))
    (uuid 825c70b0-4860-42b7-97dc-86bfa46e06fd)
  )
  (wire (pts (xy 164.592 125.984) (xy 182.372 125.984))
    (stroke (width 0) (type default))
    (uuid 84296ad9-7d03-4485-bd7e-1130f341d781)
  )
  (wire (pts (xy 164.592 119.634) (xy 182.372 119.634))
    (stroke (width 0) (type default))
    (uuid 8901cb8c-219f-4690-8df6-e8c1eb3f881e)
  )
  (wire (pts (xy 214.122 46.482) (xy 221.742 46.482))
    (stroke (width 0) (type solid))
    (uuid 909b030b-fa1a-4fe8-b1ee-422b4d9e23cf)
  )
  (wire (pts (xy 176.022 102.362) (xy 182.372 102.362))
    (stroke (width 0) (type default))
    (uuid 90c784d0-cd32-4af9-908b-674612e6a769)
  )
  (wire (pts (xy 101.346 121.666) (xy 108.966 121.666))
    (stroke (width 0) (type solid))
    (uuid 936e2ca6-11ae-4f42-9128-52bb329f3d21)
  )
  (wire (pts (xy 164.592 142.494) (xy 182.372 142.494))
    (stroke (width 0) (type default))
    (uuid 96daab0f-8cca-4f06-a41e-f8ccf1092519)
  )
  (wire (pts (xy 164.592 114.554) (xy 182.372 114.554))
    (stroke (width 0) (type default))
    (uuid 98f82e60-68b4-4c3f-aacf-a9bd470afb73)
  )
  (wire (pts (xy 154.432 79.502) (xy 154.432 91.44))
    (stroke (width 0) (type default))
    (uuid 9a4d6539-f912-497d-94d1-c1742d604add)
  )
  (wire (pts (xy 101.092 85.09) (xy 132.842 85.09))
    (stroke (width 0) (type solid))
    (uuid 9d984d1b-8097-407f-92f3-3ef68867dcfa)
  )
  (wire (pts (xy 64.262 91.44) (xy 76.962 91.44))
    (stroke (width 0) (type solid))
    (uuid 9ff4672a-e1a4-4a1e-887d-1b9a3429d278)
  )
  (wire (pts (xy 164.592 137.414) (xy 182.372 137.414))
    (stroke (width 0) (type default))
    (uuid a2f2c639-0fda-4f36-9ece-6ebb2939b7c1)
  )
  (wire (pts (xy 164.592 128.524) (xy 182.372 128.524))
    (stroke (width 0) (type default))
    (uuid a55951b5-eac7-4b66-abe0-37fc89265df8)
  )
  (wire (pts (xy 164.592 139.954) (xy 182.372 139.954))
    (stroke (width 0) (type default))
    (uuid a79c385e-3743-46b8-8dba-d602763d329f)
  )
  (wire (pts (xy 132.842 79.502) (xy 132.842 85.09))
    (stroke (width 0) (type default))
    (uuid aa6e25cc-f02c-4ace-bdae-911daa32457a)
  )
  (wire (pts (xy 164.592 117.094) (xy 182.372 117.094))
    (stroke (width 0) (type default))
    (uuid b78a03ee-51bd-4c5d-9caa-48cd5f5bcef7)
  )
  (wire (pts (xy 101.092 95.25) (xy 117.348 95.25))
    (stroke (width 0) (type solid))
    (uuid b8c83ad1-b3c9-495c-bdc6-62dead00f5ad)
  )
  (wire (pts (xy 101.092 45.212) (xy 127.762 45.212))
    (stroke (width 0) (type solid))
    (uuid bb4f0314-c44c-4dda-b85c-537120eaae9a)
  )
  (wire (pts (xy 76.962 93.98) (xy 64.262 93.98))
    (stroke (width 0) (type solid))
    (uuid bbb15673-6d42-42b8-9d51-7515b3ad9ee9)
  )
  (wire (pts (xy 127.762 65.532) (xy 115.062 65.532))
    (stroke (width 0) (type solid))
    (uuid cb868d2e-5efb-4bfb-8796-88435b326918)
  )
  (wire (pts (xy 117.348 139.446) (xy 127.762 139.446))
    (stroke (width 0) (type solid))
    (uuid cbc539d2-6a10-4052-9b7a-f10326dcac67)
  )
  (wire (pts (xy 164.592 57.912) (xy 186.182 57.912))
    (stroke (width 0) (type solid))
    (uuid d2de4093-1fc2-4bc1-94b6-4d0fe3426c6f)
  )
  (wire (pts (xy 164.592 112.014) (xy 182.372 112.014))
    (stroke (width 0) (type default))
    (uuid d8304566-10ef-40c6-987f-48d1fbd3b1d9)
  )
  (wire (pts (xy 132.842 85.09) (xy 132.842 91.44))
    (stroke (width 0) (type default))
    (uuid dd507a71-6972-448f-a03d-0c40514e285c)
  )
  (wire (pts (xy 164.592 46.482) (xy 186.182 46.482))
    (stroke (width 0) (type solid))
    (uuid e47adf3d-9c24-4345-80c9-66679cad107e)
  )
  (wire (pts (xy 101.092 37.592) (xy 127.762 37.592))
    (stroke (width 0) (type solid))
    (uuid e83e0227-ac0f-4180-82bd-68d3a7b56476)
  )
  (wire (pts (xy 158.242 79.502) (xy 158.242 91.44))
    (stroke (width 0) (type default))
    (uuid e89eb51d-2e12-4f80-a320-e234ea841234)
  )
  (wire (pts (xy 101.346 125.476) (xy 108.966 125.476))
    (stroke (width 0) (type solid))
    (uuid ebadd2a5-21ab-4a7e-b5bc-6f737367e560)
  )
  (wire (pts (xy 64.262 88.9) (xy 76.962 88.9))
    (stroke (width 0) (type solid))
    (uuid edc9ab4f-487a-48dc-95f2-4d87f0e9cf9e)
  )
  (wire (pts (xy 164.592 32.512) (xy 186.182 32.512))
    (stroke (width 0) (type solid))
    (uuid f144a97d-c3f0-423f-b0a9-3f7dbc42478b)
  )
  (wire (pts (xy 117.348 128.016) (xy 117.348 95.25))
    (stroke (width 0) (type solid))
    (uuid f1dd8642-b405-490b-a449-d1cc5797fda8)
  )

  (text "Connector\n------\nPCIe x1" (at 200.025 29.845 0)
    (effects (font (size 1.27 1.27)) (justify left bottom))
    (uuid 2f3deced-880d-4075-a81b-95c62da5b94d)
  )
  (text "Connectors\n-------\nDual USB\nmicroUSB" (at 79.375 33.655 0)
    (effects (font (size 1.27 1.27)) (justify left bottom))
    (uuid 4dc6088c-89a5-4db7-b3ae-db4b6396ad49)
  )
  (text "Connectors\n-------\nDSI 0" (at 140.335 31.75 0)
    (effects (font (size 1.27 1.27)) (justify left bottom))
    (uuid db83d0af-e085-4050-8496-fa2ebdecbd62)
  )

  (label "+5v" (at 103.886 125.476 0) (fields_autoplaced)
    (effects (font (size 1.27 1.27)) (justify left bottom))
    (uuid 0d35483a-0b12-46cc-b9f2-896fd6831779)
  )
  (label "SDA" (at 110.49 85.09 0) (fields_autoplaced)
    (effects (font (size 1.27 1.27)) (justify left bottom))
    (uuid 2278f3bb-1e4c-45bb-92b3-5da325398131)
  )
  (label "+12v" (at 68.072 88.9 0) (fields_autoplaced)
    (effects (font (size 1.27 1.27)) (justify left bottom))
    (uuid 4d609e7c-74c9-4ae9-a26d-946ff00c167d)
  )
  (label "+5v" (at 118.618 139.446 0) (fields_autoplaced)
    (effects (font (size 1.27 1.27)) (justify left bottom))
    (uuid 55992e35-fe7b-468a-9b7a-1e4dc931b904)
  )
  (label "SCL" (at 110.49 88.9 0) (fields_autoplaced)
    (effects (font (size 1.27 1.27)) (justify left bottom))
    (uuid 55d99ef9-98f5-46b6-8aa4-405466040bcc)
  )
  (label "+5v" (at 118.872 61.722 0) (fields_autoplaced)
    (effects (font (size 1.27 1.27)) (justify left bottom))
    (uuid 5740c959-93d8-47fd-8f68-62f0109e753d)
  )
  (label "SCL" (at 176.022 104.902 0) (fields_autoplaced)
    (effects (font (size 1.27 1.27)) (justify left bottom))
    (uuid 6ad52470-aba2-4266-9cd3-be2bac079ba2)
  )
  (label "+5v" (at 68.072 91.44 0) (fields_autoplaced)
    (effects (font (size 1.27 1.27)) (justify left bottom))
    (uuid 786b6072-5772-4bc1-8eeb-6c4e19f2a91b)
  )
  (label "+3.3v" (at 69.342 42.672 0) (fields_autoplaced)
    (effects (font (size 1.27 1.27)) (justify left bottom))
    (uuid 7e08f2a4-63d6-468b-bd8b-ec607077e023)
  )
  (label "SDA" (at 176.022 102.362 0) (fields_autoplaced)
    (effects (font (size 1.27 1.27)) (justify left bottom))
    (uuid 813b5b0f-ee6e-4829-8a6c-17e6b73c6ee7)
  )
  (label "+12v" (at 103.886 121.666 0) (fields_autoplaced)
    (effects (font (size 1.27 1.27)) (justify left bottom))
    (uuid 9702d639-3b1f-4825-8985-b32b9008503d)
  )
  (label "+3.3v" (at 68.072 93.98 0) (fields_autoplaced)
    (effects (font (size 1.27 1.27)) (justify left bottom))
    (uuid 9a9f2d82-f64d-4264-8bec-c182528fc4de)
  )
  (label "+3.3v" (at 118.618 141.986 0) (fields_autoplaced)
    (effects (font (size 1.27 1.27)) (justify left bottom))
    (uuid a06e8e78-f567-42e6-b645-013b1073ca31)
  )
  (label "+5v" (at 69.342 36.322 0) (fields_autoplaced)
    (effects (font (size 1.27 1.27)) (justify left bottom))
    (uuid b60c50d1-225e-415c-8712-7acb5e3dc8ea)
  )
  (label "nEXTRST" (at 102.616 31.75 0) (fields_autoplaced)
    (effects (font (size 1.27 1.27)) (justify left bottom))
    (uuid b6bcc3cf-50de-4a33-bc41-678825c1ecf2)
  )
  (label "+3.3v" (at 118.872 65.532 0) (fields_autoplaced)
    (effects (font (size 1.27 1.27)) (justify left bottom))
    (uuid c3c93de0-69b1-4a04-8e0b-d78caf487c63)
  )
  (label "+12v" (at 215.392 46.482 0) (fields_autoplaced)
    (effects (font (size 1.27 1.27)) (justify left bottom))
    (uuid ec9e24d8-d1c5-40e2-9812-dc315d05f470)
  )
  (label "nEXTRST" (at 118.618 134.366 0) (fields_autoplaced)
    (effects (font (size 1.27 1.27)) (justify left bottom))
    (uuid f9865a9f-edb8-49c7-828f-4896e1f3047a)
  )

  (sheet (at 127.762 91.44) (size 36.83 54.356)
    (stroke (width 0.1524) (type solid))
    (fill (color 255 255 194 1.0000))
    (uuid 00000000-0000-0000-0000-00005cff706a)
    (property "Sheetname" "CM4_GPIO ( Ethernet, GPIO, SDCARD)" (at 127.762 148.082 0)
      (effects (font (size 1.27 1.27)) (justify left bottom))
    )
    (property "Sheetfile" "CM4_GPIO.kicad_sch" (at 127.762 149.352 0)
      (effects (font (size 1.27 1.27)) (justify left top))
    )
    (pin "ID_SC" output (at 158.242 91.44 90)
      (effects (font (size 1.27 1.27)) (justify right))
      (uuid 2e642b3e-a476-4c54-9a52-dcea955640cd)
    )
    (pin "ID_SD" output (at 154.432 91.44 90)
      (effects (font (size 1.27 1.27)) (justify right))
      (uuid 5038e144-5119-49db-b6cf-f7c345f1cf03)
    )
    (pin "SCL0" output (at 136.652 91.44 90)
      (effects (font (size 1.27 1.27)) (justify right))
      (uuid 54365317-1355-4216-bb75-829375abc4ec)
    )
    (pin "SDA0" output (at 132.842 91.44 90)
      (effects (font (size 1.27 1.27)) (justify right))
      (uuid a3e4f0ae-9f86-49e9-b386-ed8b42e012fb)
    )
    (pin "+5v" input (at 127.762 139.446 180)
      (effects (font (size 1.27 1.27)) (justify left))
      (uuid a690fc6c-55d9-47e6-b533-faa4b67e20f3)
    )
    (pin "+3.3v" output (at 127.762 141.986 180)
      (effects (font (size 1.27 1.27)) (justify left))
      (uuid c144caa5-b0d4-4cef-840a-d4ad178a2102)
    )
    (pin "nEXTRST" output (at 127.762 134.366 180)
      (effects (font (size 1.27 1.27)) (justify left))
      (uuid efeac2a2-7682-4dc7-83ee-f6f1b23da506)
    )
    (pin "GLOBAL_EN" input (at 127.762 128.016 180)
      (effects (font (size 1.27 1.27)) (justify left))
      (uuid 5fc27c35-3e1c-4f96-817c-93b5570858a6)
    )
    (pin "GPIO_VREF" output (at 143.002 91.44 90)
      (effects (font (size 1.27 1.27)) (justify right))
      (uuid 6c9b793c-e74d-4754-a2c0-901e73b26f1c)
    )
    (pin "TXD0" output (at 164.592 117.094 0)
      (effects (font (size 1.27 1.27)) (justify right))
      (uuid f12c6e50-41e4-46ac-9f7a-0e629ddb031d)
    )
    (pin "RXD0" input (at 164.592 114.554 0)
      (effects (font (size 1.27 1.27)) (justify right))
      (uuid b8296029-c5c8-4d0b-b9df-8d28f5000ced)
    )
    (pin "TXD3" output (at 164.592 128.524 0)
      (effects (font (size 1.27 1.27)) (justify right))
      (uuid f311a8dd-cc4b-4ad7-8dc5-6d4ae7f74ddb)
    )
    (pin "RXD3" input (at 164.592 125.984 0)
      (effects (font (size 1.27 1.27)) (justify right))
      (uuid f500bfe6-067c-416b-9379-94e7053c05e3)
    )
    (pin "TXD5" output (at 164.592 137.414 0)
      (effects (font (size 1.27 1.27)) (justify right))
      (uuid 204acd02-fc13-43e0-aa92-75dae3e63744)
    )
    (pin "TXD4" output (at 164.592 139.954 0)
      (effects (font (size 1.27 1.27)) (justify right))
      (uuid 39003d71-0769-4fe9-8136-3bcb9b166784)
    )
    (pin "RST0" input (at 164.592 119.634 0)
      (effects (font (size 1.27 1.27)) (justify right))
      (uuid 1574cca9-f336-418f-9e29-7a22ab29ce84)
    )
    (pin "PLUG3" input (at 164.592 123.444 0)
      (effects (font (size 1.27 1.27)) (justify right))
      (uuid 02fc8088-c2e2-4243-9bfc-0d8fda7e073c)
    )
    (pin "RST4" input (at 164.592 142.494 0)
      (effects (font (size 1.27 1.27)) (justify right))
      (uuid 4c25642e-41d4-47c5-b60b-a6a38e90348f)
    )
    (pin "PLUG4" input (at 164.592 134.874 0)
      (effects (font (size 1.27 1.27)) (justify right))
      (uuid c922fc22-1475-4bf0-8a5a-b27f6ac09cd4)
    )
    (pin "RST3" input (at 164.592 131.064 0)
      (effects (font (size 1.27 1.27)) (justify right))
      (uuid 7fd60e56-a0c6-47fd-bc72-399ab3d20bdd)
    )
    (pin "PLUG0" input (at 164.592 112.014 0)
      (effects (font (size 1.27 1.27)) (justify right))
      (uuid a51469a8-ca3e-4add-9feb-a389addacd03)
    )
    (instances
      (project "bitcart"
        (path "/e63e39d7-6ac0-4ffd-8aa3-1841a4541b55" (page "5"))
      )
    )
  )

  (sheet (at 127.762 23.622) (size 36.83 55.88)
    (stroke (width 0.1524) (type solid))
    (fill (color 255 255 194 1.0000))
    (uuid 00000000-0000-0000-0000-00005cff70b1)
    (property "Sheetname" "CM4_HighSpeed" (at 127.762 19.812 0)
      (effects (font (size 1.27 1.27)) (justify left bottom))
    )
    (property "Sheetfile" "CM4_HighSpeed.kicad_sch" (at 127.762 21.082 0)
      (effects (font (size 1.27 1.27)) (justify left top))
    )
    (pin "USB2_N" bidirectional (at 127.762 40.132 180)
      (effects (font (size 1.27 1.27)) (justify left))
      (uuid fd470e95-4861-44fe-b1e4-6d8a7c66e144)
    )
    (pin "USB2_P" bidirectional (at 127.762 37.592 180)
      (effects (font (size 1.27 1.27)) (justify left))
      (uuid 8174b4de-74b1-48db-ab8e-c8432251095b)
    )
    (pin "ID_SC" input (at 158.242 79.502 270)
      (effects (font (size 1.27 1.27)) (justify left))
      (uuid 704d6d51-bb34-4cbf-83d8-841e208048d8)
    )
    (pin "ID_SD" input (at 154.432 79.502 270)
      (effects (font (size 1.27 1.27)) (justify left))
      (uuid 0eaa98f0-9565-4637-ace3-42a5231b07f7)
    )
    (pin "SCL0" input (at 136.652 79.502 270)
      (effects (font (size 1.27 1.27)) (justify left))
      (uuid ce83728b-bebd-48c2-8734-b6a50d837931)
    )
    (pin "SDA0" input (at 132.842 79.502 270)
      (effects (font (size 1.27 1.27)) (justify left))
      (uuid c41b3c8b-634e-435a-b582-96b83bbd4032)
    )
    (pin "+5v" input (at 127.762 61.722 180)
      (effects (font (size 1.27 1.27)) (justify left))
      (uuid 9340c285-5767-42d5-8b6d-63fe2a40ddf3)
    )
    (pin "PCIE_CLK_P" output (at 164.592 46.482 0)
      (effects (font (size 1.27 1.27)) (justify right))
      (uuid 1831fb37-1c5d-42c4-b898-151be6fca9dc)
    )
    (pin "PCIE_CLK_N" output (at 164.592 49.022 0)
      (effects (font (size 1.27 1.27)) (justify right))
      (uuid 0f22151c-f260-4674-b486-4710a2c42a55)
    )
    (pin "PCIE_TX_P" output (at 164.592 32.512 0)
      (effects (font (size 1.27 1.27)) (justify right))
      (uuid fe8d9267-7834-48d6-a191-c8724b2ee78d)
    )
    (pin "PCIE_TX_N" output (at 164.592 35.052 0)
      (effects (font (size 1.27 1.27)) (justify right))
      (uuid 0b21a65d-d20b-411e-920a-75c343ac5136)
    )
    (pin "PCIE_nRST" output (at 164.592 54.102 0)
      (effects (font (size 1.27 1.27)) (justify right))
      (uuid 3cd1bda0-18db-417d-b581-a0c50623df68)
    )
    (pin "PCIE_RX_P" input (at 164.592 40.132 0)
      (effects (font (size 1.27 1.27)) (justify right))
      (uuid d57dcfee-5058-4fc2-a68b-05f9a48f685b)
    )
    (pin "PCIE_RX_N" input (at 164.592 42.672 0)
      (effects (font (size 1.27 1.27)) (justify right))
      (uuid 03c52831-5dc5-43c5-a442-8d23643b46fb)
    )
    (pin "PCIE_CLK_nREQ" input (at 164.592 57.912 0)
      (effects (font (size 1.27 1.27)) (justify right))
      (uuid a1823eb2-fb0d-4ed8-8b96-04184ac3a9d5)
    )
    (pin "+3.3v" input (at 127.762 65.532 180)
      (effects (font (size 1.27 1.27)) (justify left))
      (uuid 29e78086-2175-405e-9ba3-c48766d2f50c)
    )
    (pin "USBOTG_ID" input (at 127.762 45.212 180)
      (effects (font (size 1.27 1.27)) (justify left))
      (uuid 94a873dc-af67-4ef9-8159-1f7c93eeb3d7)
    )
    (pin "GPIO_VREF" input (at 143.002 79.502 270)
      (effects (font (size 1.27 1.27)) (justify left))
      (uuid 4c8eb964-bdf4-44de-90e9-e2ab82dd5313)
    )
    (instances
      (project "bitcart"
        (path "/e63e39d7-6ac0-4ffd-8aa3-1841a4541b55" (page "4"))
      )
    )
  )

  (sheet (at 76.962 114.046) (size 24.384 20.32)
    (stroke (width 0.1524) (type solid))
    (fill (color 255 255 194 1.0000))
    (uuid 00000000-0000-0000-0000-00005d31f999)
    (property "Sheetname" "PSUs" (at 76.962 113.4105 0)
      (effects (font (size 1.27 1.27)) (justify left bottom))
    )
    (property "Sheetfile" "PSUs.kicad_sch" (at 76.962 135.636 0)
      (effects (font (size 1.27 1.27)) (justify left top))
    )
    (pin "+5v" output (at 101.346 125.476 0)
      (effects (font (size 1.27 1.27)) (justify right))
      (uuid bfc0aadc-38cf-466e-a642-68fdc3138c78)
    )
    (pin "+12v" output (at 101.346 121.666 0)
      (effects (font (size 1.27 1.27)) (justify right))
      (uuid 6441b183-b8f2-458f-a23d-60e2b1f66dd6)
    )
    (instances
      (project "bitcart"
        (path "/e63e39d7-6ac0-4ffd-8aa3-1841a4541b55" (page "7"))
      )
    )
  )

  (sheet (at 76.962 24.13) (size 24.13 24.892)
    (stroke (width 0.1524) (type solid))
    (fill (color 255 255 194 1.0000))
    (uuid 00000000-0000-0000-0000-00005e072e02)
    (property "Sheetname" "USB2-HUB" (at 76.962 23.4945 0)
      (effects (font (size 1.27 1.27)) (justify left bottom))
    )
    (property "Sheetfile" "USB2-HUB.kicad_sch" (at 76.962 49.657 0)
      (effects (font (size 1.27 1.27)) (justify left top))
    )
    (pin "USB2_N" bidirectional (at 101.092 40.132 0)
      (effects (font (size 1.27 1.27)) (justify right))
      (uuid c01d25cd-f4bb-4ef3-b5ea-533a2a4ddb2b)
    )
    (pin "USB2_P" bidirectional (at 101.092 37.592 0)
      (effects (font (size 1.27 1.27)) (justify right))
      (uuid 9e1b837f-0d34-4a18-9644-9ee68f141f46)
    )
    (pin "+5v" input (at 76.962 36.322 180)
      (effects (font (size 1.27 1.27)) (justify left))
      (uuid 63ff1c93-3f96-4c33-b498-5dd8c33bccc0)
    )
    (pin "+3.3v" input (at 76.962 42.672 180)
      (effects (font (size 1.27 1.27)) (justify left))
      (uuid b88717bd-086f-46cd-9d3f-0396009d0996)
    )
    (pin "nEXTRST" input (at 101.092 31.75 0)
      (effects (font (size 1.27 1.27)) (justify right))
      (uuid 61fe293f-6808-4b7f-9340-9aaac7054a97)
    )
    (pin "USBOTG" output (at 101.092 45.212 0)
      (effects (font (size 1.27 1.27)) (justify right))
      (uuid 2f215f15-3d52-4c91-93e6-3ea03a95622f)
    )
    (instances
      (project "bitcart"
        (path "/e63e39d7-6ac0-4ffd-8aa3-1841a4541b55" (page "2"))
      )
    )
  )

  (sheet (at 76.962 82.55) (size 24.13 20.32)
    (stroke (width 0.1524) (type solid))
    (fill (color 255 255 194 1.0000))
    (uuid 00000000-0000-0000-0000-00005e328d89)
    (property "Sheetname" "Fan" (at 76.962 81.9145 0)
      (effects (font (size 1.27 1.27)) (justify left bottom))
    )
    (property "Sheetfile" "RTC.kicad_sch" (at 76.962 103.3785 0)
      (effects (font (size 1.27 1.27)) (justify left top))
    )
    (pin "SCL" input (at 101.092 88.9 0)
      (effects (font (size 1.27 1.27)) (justify right))
      (uuid 7bbf981c-a063-4e30-8911-e4228e1c0743)
    )
    (pin "SDA" input (at 101.092 85.09 0)
      (effects (font (size 1.27 1.27)) (justify right))
      (uuid 5528bcad-2950-4673-90eb-c37e6952c475)
    )
    (pin "+5v" input (at 76.962 91.44 180)
      (effects (font (size 1.27 1.27)) (justify left))
      (uuid 7edc9030-db7b-43ac-a1b3-b87eeacb4c2d)
    )
    (pin "+3.3v" input (at 76.962 93.98 180)
      (effects (font (size 1.27 1.27)) (justify left))
      (uuid 08a7c925-7fae-4530-b0c9-120e185cb318)
    )
    (pin "GLOBAL_EN" output (at 101.092 95.25 0)
      (effects (font (size 1.27 1.27)) (justify right))
      (uuid 4a4ec8d9-3d72-4952-83d4-808f65849a2b)
    )
    (pin "+12v" input (at 76.962 88.9 180)
      (effects (font (size 1.27 1.27)) (justify left))
      (uuid cbd8faed-e1f8-4406-87c8-58b2c504a5d4)
    )
    (instances
      (project "bitcart"
        (path "/e63e39d7-6ac0-4ffd-8aa3-1841a4541b55" (page "3"))
      )
    )
  )

  (sheet (at 186.182 23.622) (size 27.94 43.18)
    (stroke (width 0.152) (type solid))
    (fill (color 255 255 194 1.0000))
    (uuid 00000000-0000-0000-0000-00005ed4bb5b)
    (property "Sheetname" "PCIe-connector" (at 186.182 22.986 0)
      (effects (font (size 1.27 1.27)) (justify left bottom))
    )
    (property "Sheetfile" "PCIe.kicad_sch" (at 186.182 67.3105 0)
      (effects (font (size 1.27 1.27)) (justify left top))
    )
    (pin "PCIE_CLK_P" input (at 186.182 46.482 180)
      (effects (font (size 1.27 1.27)) (justify left))
      (uuid 7dc880bc-e7eb-4cce-8d8c-0b65a9dd788e)
    )
    (pin "PCIE_CLK_N" input (at 186.182 49.022 180)
      (effects (font (size 1.27 1.27)) (justify left))
      (uuid 9157f4ae-0244-4ff1-9f73-3cb4cbb5f280)
    )
    (pin "PCIE_TX_P" input (at 186.182 32.512 180)
      (effects (font (size 1.27 1.27)) (justify left))
      (uuid 7aed3a71-054b-4aaa-9c0a-030523c32827)
    )
    (pin "PCIE_TX_N" input (at 186.182 35.052 180)
      (effects (font (size 1.27 1.27)) (justify left))
      (uuid 1a1ab354-5f85-45f9-938c-9f6c4c8c3ea2)
    )
    (pin "PCIE_CLK_nREQ" output (at 186.182 57.912 180)
      (effects (font (size 1.27 1.27)) (justify left))
      (uuid 42713045-fffd-4b2d-ae1e-7232d705fb12)
    )
    (pin "PCIE_nRST" input (at 186.182 54.102 180)
      (effects (font (size 1.27 1.27)) (justify left))
      (uuid c0515cd2-cdaa-467e-8354-0f6eadfa35c9)
    )
    (pin "PCIE_RX_P" output (at 186.182 40.132 180)
      (effects (font (size 1.27 1.27)) (justify left))
      (uuid 1bf544e3-5940-4576-9291-2464e95c0ee2)
    )
    (pin "PCIE_RX_N" output (at 186.182 42.672 180)
      (effects (font (size 1.27 1.27)) (justify left))
      (uuid 3aaee4c4-dbf7-49a5-a620-9465d8cc3ae7)
    )
    (pin "+12v" input (at 214.122 46.482 0)
      (effects (font (size 1.27 1.27)) (justify right))
      (uuid bdc7face-9f7c-4701-80bb-4cc144448db1)
    )
    (instances
      (project "bitcart"
        (path "/e63e39d7-6ac0-4ffd-8aa3-1841a4541b55" (page "6"))
      )
    )
  )

  (sheet (at 182.372 99.822) (size 20.32 45.974) (fields_autoplaced)
    (stroke (width 0.1524) (type solid))
    (fill (color 255 255 194 1.0000))
    (uuid b61e4f2d-ce9e-412d-af58-c652a832eb5d)
    (property "Sheetname" "hashboards" (at 182.372 99.1104 0)
      (effects (font (size 1.27 1.27)) (justify left bottom))
    )
    (property "Sheetfile" "hashboards.kicad_sch" (at 182.372 146.3806 0)
      (effects (font (size 1.27 1.27)) (justify left top))
    )
    (pin "TXD0" input (at 182.372 117.094 180)
      (effects (font (size 1.27 1.27)) (justify left))
      (uuid e800ba3d-ccc3-4c21-b820-cc9ed43adf7f)
    )
    (pin "PLUG0" input (at 182.372 112.014 180)
      (effects (font (size 1.27 1.27)) (justify left))
      (uuid df210d81-a10c-4123-9d86-e98a649b01b2)
    )
    (pin "RST0" input (at 182.372 119.634 180)
      (effects (font (size 1.27 1.27)) (justify left))
      (uuid a84c66eb-29b0-467a-a979-f4111939900e)
    )
    (pin "RXD1" input (at 182.372 125.984 180)
      (effects (font (size 1.27 1.27)) (justify left))
      (uuid 2c51a1b5-c725-44ea-9437-b69ae7984bda)
    )
    (pin "TXD2" input (at 182.372 139.954 180)
      (effects (font (size 1.27 1.27)) (justify left))
      (uuid 4d943dc5-ae2f-463a-9b8d-34bb3c93e693)
    )
    (pin "RST2" input (at 182.372 142.494 180)
      (effects (font (size 1.27 1.27)) (justify left))
      (uuid 281c38b4-41bf-407e-9a44-3954e71399a2)
    )
    (pin "PLUG2" input (at 182.372 134.874 180)
      (effects (font (size 1.27 1.27)) (justify left))
      (uuid 13c70477-236a-4c80-ab9c-394fbf5a66eb)
    )
    (pin "RST1" input (at 182.372 131.064 180)
      (effects (font (size 1.27 1.27)) (justify left))
      (uuid bafb7fbe-9f31-4755-bf10-10019e30df1a)
    )
    (pin "TXD1" input (at 182.372 128.524 180)
      (effects (font (size 1.27 1.27)) (justify left))
      (uuid 10432d9e-f6bb-402c-9f99-d770e64e0fe3)
    )
    (pin "PLUG1" input (at 182.372 123.444 180)
      (effects (font (size 1.27 1.27)) (justify left))
      (uuid 8e84f7d7-ea2f-4680-aea1-1b2ff270a40f)
    )
    (pin "SDA" input (at 182.372 102.362 180)
      (effects (font (size 1.27 1.27)) (justify left))
      (uuid c7f4dc25-dd9f-4597-80aa-c7938f262cf8)
    )
    (pin "SCL" input (at 182.372 104.902 180)
      (effects (font (size 1.27 1.27)) (justify left))
      (uuid 5e584f64-9898-40a6-8698-57dffca22f02)
    )
    (pin "RESET" input (at 182.372 107.442 180)
      (effects (font (size 1.27 1.27)) (justify left))
      (uuid ed9db16e-c332-4352-b535-43e648f2cf73)
    )
    (pin "RXD2" input (at 182.372 137.414 180)
      (effects (font (size 1.27 1.27)) (justify left))
      (uuid be4cd62f-a7d3-4108-b690-8c9ea3ec7031)
    )
    (pin "RXD0" input (at 182.372 114.554 180)
      (effects (font (size 1.27 1.27)) (justify left))
      (uuid 9352b671-4cc6-4068-be5f-d1cd17bf3e2b)
    )
    (instances
      (project "bitcart"
        (path "/e63e39d7-6ac0-4ffd-8aa3-1841a4541b55" (page "8"))
      )
    )
  )

  (sheet_instances
    (path "/" (page "1"))
  )
)
