{
  "board": {
    "3dviewports": [],
    "design_settings": {
      "defaults": {
        "board_outline_line_width": 0.049999999999999996,
        "copper_line_width": 0.19999999999999998,
        "copper_text_italic": false,
        "copper_text_size_h": 1.5,
        "copper_text_size_v": 1.5,
        "copper_text_thickness": 0.3,
        "copper_text_upright": false,
        "courtyard_line_width": 0.049999999999999996,
        "dimension_precision": 1,
        "dimension_units": 0,
        "dimensions": {
          "arrow_length": 1270000,
          "extension_offset": 500000,
          "keep_text_aligned": true,
          "suppress_zeroes": false,
          "text_position": 0,
          "units_format": 1
        },
        "fab_line_width": 0.09999999999999999,
        "fab_text_italic": false,
        "fab_text_size_h": 1.0,
        "fab_text_size_v": 1.0,
        "fab_text_thickness": 0.15,
        "fab_text_upright": false,
        "other_line_width": 0.09999999999999999,
        "other_text_italic": false,
        "other_text_size_h": 1.0,
        "other_text_size_v": 1.0,
        "other_text_thickness": 0.15,
        "other_text_upright": false,
        "pads": {
          "drill": 0.762,
          "height": 1.524,
          "width": 1.524
        },
        "silk_line_width": 0.12,
        "silk_text_italic": false,
        "silk_text_size_h": 1.0,
        "silk_text_size_v": 1.0,
        "silk_text_thickness": 0.15,
        "silk_text_upright": false,
        "zones": {
          "45_degree_only": false,
          "min_clearance": 0.508
        }
      },
      "diff_pair_dimensions": [
        {
          "gap": 0.0,
          "via_gap": 0.0,
          "width": 0.0
        },
        {
          "gap": 0.0,
          "via_gap": 0.0,
          "width": 0.0
        },
        {
          "gap": 0.0,
          "via_gap": 0.0,
          "width": 0.0
        }
      ],
      "drc_exclusions": [],
      "meta": {
        "version": 2
      },
      "rule_severities": {
        "annular_width": "error",
        "clearance": "error",
        "connection_width": "warning",
        "copper_edge_clearance": "error",
        "copper_sliver": "warning",
        "courtyards_overlap": "error",
        "diff_pair_gap_out_of_range": "error",
        "diff_pair_uncoupled_length_too_long": "error",
        "drill_out_of_range": "error",
        "duplicate_footprints": "warning",
        "extra_footprint": "warning",
        "footprint": "error",
        "footprint_type_mismatch": "error",
        "hole_clearance": "error",
        "hole_near_hole": "error",
        "invalid_outline": "error",
        "isolated_copper": "warning",
        "item_on_disabled_layer": "error",
        "items_not_allowed": "error",
        "length_out_of_range": "error",
        "lib_footprint_issues": "warning",
        "lib_footprint_mismatch": "warning",
        "malformed_courtyard": "error",
        "microvia_drill_out_of_range": "error",
        "missing_courtyard": "ignore",
        "missing_footprint": "warning",
        "net_conflict": "warning",
        "npth_inside_courtyard": "ignore",
        "padstack": "error",
        "pth_inside_courtyard": "ignore",
        "shorting_items": "error",
        "silk_edge_clearance": "warning",
        "silk_over_copper": "ignore",
        "silk_overlap": "ignore",
        "skew_out_of_range": "error",
        "solder_mask_bridge": "error",
        "starved_thermal": "error",
        "text_height": "warning",
        "text_thickness": "warning",
        "through_hole_pad_without_hole": "error",
        "too_many_vias": "error",
        "track_dangling": "warning",
        "track_width": "error",
        "tracks_crossing": "error",
        "unconnected_items": "error",
        "unresolved_variable": "error",
        "via_dangling": "warning",
        "zones_intersect": "error"
      },
      "rules": {
        "allow_blind_buried_vias": false,
        "allow_microvias": false,
        "max_error": 0.005,
        "min_clearance": 0.0,
        "min_connection": 0.0,
        "min_copper_edge_clearance": 0.01,
        "min_hole_clearance": 0.0,
        "min_hole_to_hole": 0.24,
        "min_microvia_diameter": 0.19999999999999998,
        "min_microvia_drill": 0.09999999999999999,
        "min_resolved_spokes": 2,
        "min_silk_clearance": 0.0,
        "min_text_height": 0.7999999999999999,
        "min_text_thickness": 0.08,
        "min_through_hole_diameter": 0.25,
        "min_track_width": 0.09999999999999999,
        "min_via_annular_width": 0.049999999999999996,
        "min_via_annulus": 0.049999999999999996,
        "min_via_diameter": 0.44999999999999996,
        "solder_mask_to_copper_clearance": 0.0,
        "use_height_for_length_calcs": true
      },
      "teardrop_options": [
        {
          "td_allow_use_two_tracks": true,
          "td_curve_segcount": 5,
          "td_on_pad_in_zone": false,
          "td_onpadsmd": true,
          "td_onroundshapesonly": false,
          "td_ontrackend": false,
          "td_onviapad": true
        }
      ],
      "teardrop_parameters": [
        {
          "td_curve_segcount": 0,
          "td_height_ratio": 1.0,
          "td_length_ratio": 0.5,
          "td_maxheight": 2.0,
          "td_maxlen": 1.0,
          "td_target_name": "td_round_shape",
          "td_width_to_size_filter_ratio": 0.9
        },
        {
          "td_curve_segcount": 0,
          "td_height_ratio": 1.0,
          "td_length_ratio": 0.5,
          "td_maxheight": 2.0,
          "td_maxlen": 1.0,
          "td_target_name": "td_rect_shape",
          "td_width_to_size_filter_ratio": 0.9
        },
        {
          "td_curve_segcount": 0,
          "td_height_ratio": 1.0,
          "td_length_ratio": 0.5,
          "td_maxheight": 2.0,
          "td_maxlen": 1.0,
          "td_target_name": "td_track_end",
          "td_width_to_size_filter_ratio": 0.9
        }
      ],
      "track_widths": [
        0.0,
        0.127,
        0.13,
        0.147,
        0.2,
        0.23,
        0.5,
        1.0,
        2.0,
        3.0
      ],
      "via_dimensions": [
        {
          "diameter": 0.0,
          "drill": 0.0
        },
        {
          "diameter": 0.45,
          "drill": 0.25
        }
      ],
      "zones_allow_external_fillets": false,
      "zones_use_no_outline": false
    },
    "layer_presets": [],
    "viewports": []
  },
  "boards": [],
  "cvpcb": {
    "equivalence_files": []
  },
  "erc": {
    "erc_exclusions": [],
    "meta": {
      "version": 0
    },
    "pin_map": [
      [
        0,
        0,
        0,
        0,
        0,
        0,
        1,
        0,
        0,
        0,
        0,
        2
      ],
      [
        0,
        2,
        0,
        1,
        0,
        0,
        1,
        0,
        2,
        2,
        2,
        2
      ],
      [
        0,
        0,
        0,
        0,
        0,
        0,
        1,
        0,
        1,
        0,
        1,
        2
      ],
      [
        0,
        1,
        0,
        0,
        0,
        0,
        1,
        1,
        2,
        1,
        1,
        2
      ],
      [
        0,
        0,
        0,
        0,
        0,
        0,
        1,
        0,
        0,
        0,
        0,
        2
      ],
      [
        0,
        0,
        0,
        0,
        0,
        0,
        0,
        0,
        0,
        0,
        0,
        2
      ],
      [
        1,
        1,
        1,
        1,
        1,
        0,
        1,
        1,
        1,
        1,
        1,
        2
      ],
      [
        0,
        0,
        0,
        1,
        0,
        0,
        1,
        0,
        0,
        0,
        0,
        2
      ],
      [
        0,
        2,
        1,
        2,
        0,
        0,
        1,
        0,
        2,
        2,
        2,
        2
      ],
      [
        0,
        2,
        0,
        1,
        0,
        0,
        1,
        0,
        2,
        0,
        0,
        2
      ],
      [
        0,
        2,
        1,
        1,
        0,
        0,
        1,
        0,
        2,
        0,
        0,
        2
      ],
      [
        2,
        2,
        2,
        2,
        2,
        2,
        2,
        2,
        2,
        2,
        2,
        2
      ]
    ],
    "rule_severities": {
      "bus_definition_conflict": "error",
      "bus_entry_needed": "error",
      "bus_to_bus_conflict": "error",
      "bus_to_net_conflict": "error",
      "conflicting_netclasses": "error",
      "different_unit_footprint": "error",
      "different_unit_net": "error",
      "duplicate_reference": "error",
      "duplicate_sheet_names": "error",
      "endpoint_off_grid": "warning",
      "extra_units": "error",
      "global_label_dangling": "error",
      "hier_label_mismatch": "error",
      "label_dangling": "error",
      "lib_symbol_issues": "warning",
      "missing_bidi_pin": "warning",
      "missing_input_pin": "warning",
      "missing_power_pin": "error",
      "missing_unit": "warning",
      "multiple_net_names": "error",
      "net_not_bus_member": "error",
      "no_connect_connected": "error",
      "no_connect_dangling": "error",
      "pin_not_connected": "error",
      "pin_not_driven": "error",
      "pin_to_pin": "warning",
      "power_pin_not_driven": "error",
      "similar_labels": "error",
      "simulation_model_issue": "ignore",
      "unannotated": "error",
      "unit_value_mismatch": "error",
      "unresolved_variable": "error",
      "wire_dangling": "error"
    }
  },
  "libraries": {
    "pinned_footprint_libs": [],
    "pinned_symbol_libs": []
  },
  "meta": {
    "filename": "bitcart.kicad_pro",
    "version": 1
  },
  "net_settings": {
    "classes": [
      {
        "bus_width": 12,
        "clearance": 0.13,
        "diff_pair_gap": 0.25,
        "diff_pair_via_gap": 0.25,
        "diff_pair_width": 0.13,
        "line_style": 0,
        "microvia_diameter": 0.3,
        "microvia_drill": 0.1,
        "name": "Default",
        "pcb_color": "rgba(0, 0, 0, 0.000)",
        "schematic_color": "rgba(0, 0, 0, 0.000)",
        "track_width": 0.13,
        "via_diameter": 0.45,
        "via_drill": 0.25,
        "wire_width": 6
      },
      {
        "bus_width": 12,
        "clearance": 0.13,
        "diff_pair_gap": 0.25,
        "diff_pair_via_gap": 0.25,
        "diff_pair_width": 0.13,
        "line_style": 0,
        "microvia_diameter": 0.3,
        "microvia_drill": 0.1,
        "name": "100R",
        "pcb_color": "rgba(0, 0, 0, 0.000)",
        "schematic_color": "rgba(0, 0, 0, 0.000)",
        "track_width": 0.127,
        "via_diameter": 0.45,
        "via_drill": 0.25,
        "wire_width": 6
      },
      {
        "bus_width": 12,
        "clearance": 0.13,
        "diff_pair_gap": 0.25,
        "diff_pair_via_gap": 0.25,
        "diff_pair_width": 0.178,
        "line_style": 0,
        "microvia_diameter": 0.3,
        "microvia_drill": 0.1,
        "name": "50R",
        "pcb_color": "rgba(0, 0, 0, 0.000)",
        "schematic_color": "rgba(0, 0, 0, 0.000)",
        "track_width": 0.13,
        "via_diameter": 0.45,
        "via_drill": 0.25,
        "wire_width": 6
      },
      {
        "bus_width": 12,
        "clearance": 0.13,
        "diff_pair_gap": 0.25,
        "diff_pair_via_gap": 0.25,
        "diff_pair_width": 0.13,
        "line_style": 0,
        "microvia_diameter": 0.3,
        "microvia_drill": 0.1,
        "name": "75R",
        "pcb_color": "rgba(0, 0, 0, 0.000)",
        "schematic_color": "rgba(0, 0, 0, 0.000)",
        "track_width": 0.13,
        "via_diameter": 0.45,
        "via_drill": 0.25,
        "wire_width": 6
      },
      {
        "bus_width": 12,
        "clearance": 0.13,
        "diff_pair_gap": 0.25,
        "diff_pair_via_gap": 0.25,
        "diff_pair_width": 0.15,
        "line_style": 0,
        "microvia_diameter": 0.3,
        "microvia_drill": 0.1,
        "name": "90R",
        "pcb_color": "rgba(0, 0, 0, 0.000)",
        "schematic_color": "rgba(0, 0, 0, 0.000)",
        "track_width": 0.147,
        "via_diameter": 0.45,
        "via_drill": 0.25,
        "wire_width": 6
      },
      {
        "bus_width": 12,
        "clearance": 0.13,
        "diff_pair_gap": 0.25,
        "diff_pair_via_gap": 0.25,
        "diff_pair_width": 0.13,
        "line_style": 0,
        "microvia_diameter": 0.3,
        "microvia_drill": 0.1,
        "name": "HDMI",
        "pcb_color": "rgba(0, 0, 0, 0.000)",
        "schematic_color": "rgba(0, 0, 0, 0.000)",
        "track_width": 0.127,
        "via_diameter": 0.45,
        "via_drill": 0.25,
        "wire_width": 6
      },
      {
        "bus_width": 12,
        "clearance": 1.0,
        "diff_pair_gap": 0.25,
        "diff_pair_via_gap": 0.25,
        "diff_pair_width": 0.13,
        "line_style": 0,
        "microvia_diameter": 0.3,
        "microvia_drill": 0.1,
        "name": "POE TAPS",
        "pcb_color": "rgba(0, 0, 0, 0.000)",
        "schematic_color": "rgba(0, 0, 0, 0.000)",
        "track_width": 0.13,
        "via_diameter": 0.45,
        "via_drill": 0.25,
        "wire_width": 6
      }
    ],
    "meta": {
      "version": 3
    },
    "net_colors": null,
    "netclass_assignments": null,
    "netclass_patterns": [
      {
        "netclass": "100R",
        "pattern": "/CM4_GPIO ( Ethernet, GPIO, SDCARD)/TRD0_N"
      },
      {
        "netclass": "100R",
        "pattern": "/CM4_GPIO ( Ethernet, GPIO, SDCARD)/TRD0_P"
      },
      {
        "netclass": "100R",
        "pattern": "/CM4_GPIO ( Ethernet, GPIO, SDCARD)/TRD1_N"
      },
      {
        "netclass": "100R",
        "pattern": "/CM4_GPIO ( Ethernet, GPIO, SDCARD)/TRD1_P"
      },
      {
        "netclass": "100R",
        "pattern": "/CM4_GPIO ( Ethernet, GPIO, SDCARD)/TRD2_N"
      },
      {
        "netclass": "100R",
        "pattern": "/CM4_GPIO ( Ethernet, GPIO, SDCARD)/TRD2_P"
      },
      {
        "netclass": "100R",
        "pattern": "/CM4_GPIO ( Ethernet, GPIO, SDCARD)/TRD3_N"
      },
      {
        "netclass": "100R",
        "pattern": "/CM4_GPIO ( Ethernet, GPIO, SDCARD)/TRD3_P"
      },
      {
        "netclass": "100R",
        "pattern": "/CM4_HighSpeed/CAM0_C_N"
      },
      {
        "netclass": "100R",
        "pattern": "/CM4_HighSpeed/CAM0_C_P"
      },
      {
        "netclass": "100R",
        "pattern": "/CM4_HighSpeed/CAM0_D0_N"
      },
      {
        "netclass": "100R",
        "pattern": "/CM4_HighSpeed/CAM0_D0_P"
      },
      {
        "netclass": "100R",
        "pattern": "/CM4_HighSpeed/CAM0_D1_N"
      },
      {
        "netclass": "100R",
        "pattern": "/CM4_HighSpeed/CAM0_D1_P"
      },
      {
        "netclass": "100R",
        "pattern": "/CM4_HighSpeed/CAM1_C_N"
      },
      {
        "netclass": "100R",
        "pattern": "/CM4_HighSpeed/CAM1_C_P"
      },
      {
        "netclass": "100R",
        "pattern": "/CM4_HighSpeed/CAM1_D0_N"
      },
      {
        "netclass": "100R",
        "pattern": "/CM4_HighSpeed/CAM1_D0_P"
      },
      {
        "netclass": "100R",
        "pattern": "/CM4_HighSpeed/CAM1_D1_N"
      },
      {
        "netclass": "100R",
        "pattern": "/CM4_HighSpeed/CAM1_D1_P"
      },
      {
        "netclass": "100R",
        "pattern": "/CM4_HighSpeed/CAM1_D2_N"
      },
      {
        "netclass": "100R",
        "pattern": "/CM4_HighSpeed/CAM1_D2_P"
      },
      {
        "netclass": "100R",
        "pattern": "/CM4_HighSpeed/CAM1_D3_N"
      },
      {
        "netclass": "100R",
        "pattern": "/CM4_HighSpeed/CAM1_D3_P"
      },
      {
        "netclass": "100R",
        "pattern": "/CM4_HighSpeed/DSI0_C_N"
      },
      {
        "netclass": "100R",
        "pattern": "/CM4_HighSpeed/DSI0_C_P"
      },
      {
        "netclass": "100R",
        "pattern": "/CM4_HighSpeed/DSI0_D0_N"
      },
      {
        "netclass": "100R",
        "pattern": "/CM4_HighSpeed/DSI0_D0_P"
      },
      {
        "netclass": "100R",
        "pattern": "/CM4_HighSpeed/DSI0_D1_N"
      },
      {
        "netclass": "100R",
        "pattern": "/CM4_HighSpeed/DSI0_D1_P"
      },
      {
        "netclass": "100R",
        "pattern": "/CM4_HighSpeed/DSI1_C_N"
      },
      {
        "netclass": "100R",
        "pattern": "/CM4_HighSpeed/DSI1_C_P"
      },
      {
        "netclass": "100R",
        "pattern": "/CM4_HighSpeed/DSI1_D0_N"
      },
      {
        "netclass": "100R",
        "pattern": "/CM4_HighSpeed/DSI1_D0_P"
      },
      {
        "netclass": "100R",
        "pattern": "/CM4_HighSpeed/DSI1_D1_N"
      },
      {
        "netclass": "100R",
        "pattern": "/CM4_HighSpeed/DSI1_D1_P"
      },
      {
        "netclass": "100R",
        "pattern": "/CM4_HighSpeed/DSI1_D2_N"
      },
      {
        "netclass": "100R",
        "pattern": "/CM4_HighSpeed/DSI1_D2_P"
      },
      {
        "netclass": "100R",
        "pattern": "/CM4_HighSpeed/DSI1_D3_N"
      },
      {
        "netclass": "100R",
        "pattern": "/CM4_HighSpeed/DSI1_D3_P"
      },
      {
        "netclass": "90R",
        "pattern": "/USB2-HUB/HD1_N"
      },
      {
        "netclass": "90R",
        "pattern": "/USB2-HUB/HD1_P"
      },
      {
        "netclass": "90R",
        "pattern": "/USB2-HUB/HD2_N"
      },
      {
        "netclass": "90R",
        "pattern": "/USB2-HUB/HD2_P"
      },
      {
        "netclass": "90R",
        "pattern": "/USB2-HUB/HD3_N"
      },
      {
        "netclass": "90R",
        "pattern": "/USB2-HUB/HD3_P"
      },
      {
        "netclass": "90R",
        "pattern": "/USB2-HUB/HD4_N"
      },
      {
        "netclass": "90R",
        "pattern": "/USB2-HUB/HD4_P"
      },
      {
        "netclass": "90R",
        "pattern": "/USB2-HUB/USBD_N"
      },
      {
        "netclass": "90R",
        "pattern": "/USB2-HUB/USBD_P"
      },
      {
        "netclass": "90R",
        "pattern": "/USB2-HUB/USBH_N"
      },
      {
        "netclass": "90R",
        "pattern": "/USB2-HUB/USBH_P"
      },
      {
        "netclass": "HDMI",
        "pattern": "/CM4_HighSpeed/HDMI0_CK_N"
      },
      {
        "netclass": "HDMI",
        "pattern": "/CM4_HighSpeed/HDMI0_CK_P"
      },
      {
        "netclass": "HDMI",
        "pattern": "/CM4_HighSpeed/HDMI0_D0_N"
      },
      {
        "netclass": "HDMI",
        "pattern": "/CM4_HighSpeed/HDMI0_D0_P"
      },
      {
        "netclass": "HDMI",
        "pattern": "/CM4_HighSpeed/HDMI0_D1_N"
      },
      {
        "netclass": "HDMI",
        "pattern": "/CM4_HighSpeed/HDMI0_D1_P"
      },
      {
        "netclass": "HDMI",
        "pattern": "/CM4_HighSpeed/HDMI0_D2_N"
      },
      {
        "netclass": "HDMI",
        "pattern": "/CM4_HighSpeed/HDMI0_D2_P"
      },
      {
        "netclass": "HDMI",
        "pattern": "/CM4_HighSpeed/HDMI1_CK_N"
      },
      {
        "netclass": "HDMI",
        "pattern": "/CM4_HighSpeed/HDMI1_CK_P"
      },
      {
        "netclass": "HDMI",
        "pattern": "/CM4_HighSpeed/HDMI1_D0_N"
      },
      {
        "netclass": "HDMI",
        "pattern": "/CM4_HighSpeed/HDMI1_D0_P"
      },
      {
        "netclass": "HDMI",
        "pattern": "/CM4_HighSpeed/HDMI1_D1_N"
      },
      {
        "netclass": "HDMI",
        "pattern": "/CM4_HighSpeed/HDMI1_D1_P"
      },
      {
        "netclass": "HDMI",
        "pattern": "/CM4_HighSpeed/HDMI1_D2_N"
      },
      {
        "netclass": "HDMI",
        "pattern": "/CM4_HighSpeed/HDMI1_D2_P"
      },
      {
        "netclass": "POE TAPS",
        "pattern": "/CM4_GPIO ( Ethernet, GPIO, SDCARD)/TR0_TAP"
      },
      {
        "netclass": "POE TAPS",
        "pattern": "/CM4_GPIO ( Ethernet, GPIO, SDCARD)/TR1_TAP"
      },
      {
        "netclass": "POE TAPS",
        "pattern": "/CM4_GPIO ( Ethernet, GPIO, SDCARD)/TR2_TAP"
      },
      {
        "netclass": "POE TAPS",
        "pattern": "/CM4_GPIO ( Ethernet, GPIO, SDCARD)/TR3_TAP"
      }
    ]
  },
  "pcbnew": {
    "last_paths": {
      "gencad": "",
      "idf": "",
      "netlist": "CM4IO.net",
      "specctra_dsn": "",
      "step": "",
      "vmrl": "",
      "vrml": ""
    },
    "page_layout_descr_file": ""
  },
  "schematic": {
    "annotate_start_num": 0,
    "drawing": {
      "dashed_lines_dash_length_ratio": 12.0,
      "dashed_lines_gap_length_ratio": 3.0,
      "default_bus_thickness": 12.0,
      "default_junction_size": 40.0,
      "default_line_thickness": 6.0,
      "default_text_size": 50.0,
      "default_wire_thickness": 6.0,
      "field_names": [],
      "intersheets_ref_own_page": false,
      "intersheets_ref_prefix": "",
      "intersheets_ref_short": false,
      "intersheets_ref_show": false,
      "intersheets_ref_suffix": "",
      "junction_size_choice": 3,
      "label_size_ratio": 0.3,
      "pin_symbol_size": 25.0,
      "text_offset_ratio": 0.3
    },
    "legacy_lib_dir": "",
    "legacy_lib_list": [],
    "meta": {
      "version": 1
    },
    "net_format_name": "",
    "ngspice": {
      "fix_include_paths": true,
      "fix_passive_vals": false,
      "meta": {
        "version": 0
      },
      "model_mode": 0,
      "workbook_filename": ""
    },
    "page_layout_descr_file": "",
    "plot_directory": "Circuits",
    "spice_adjust_passive_values": false,
    "spice_current_sheet_as_root": false,
    "spice_external_command": "spice \"%I\"",
    "spice_model_current_sheet_as_root": true,
    "spice_save_all_currents": false,
    "spice_save_all_voltages": false,
    "subpart_first_id": 65,
    "subpart_id_separator": 0
  },
  "sheets": [
    [
      "e63e39d7-6ac0-4ffd-8aa3-1841a4541b55",
      ""
    ],
    [
      "00000000-0000-0000-0000-00005e072e02",
      "USB2-HUB"
    ],
    [
      "00000000-0000-0000-0000-00005e328d89",
      "Fan"
    ],
    [
      "00000000-0000-0000-0000-00005cff70b1",
      "CM4_HighSpeed"
    ],
    [
      "00000000-0000-0000-0000-00005cff706a",
      "CM4_GPIO ( Ethernet, GPIO, SDCARD)"
    ],
    [
      "00000000-0000-0000-0000-00005ed4bb5b",
      "PCIe-connector"
    ],
    [
      "00000000-0000-0000-0000-00005d31f999",
      "PSUs"
    ],
    [
      "b61e4f2d-ce9e-412d-af58-c652a832eb5d",
      "hashboards"
    ]
  ],
  "text_variables": {}
}
