(kicad_sch (version 20230121) (generator eeschema)

  (uuid 92d938cc-f8b1-437d-8914-3d97a0938f67)

  (paper "A4")

  (title_block
    (title "Bitcart")
    (date "2023-09-15")
    (rev "1")
  )

  (lib_symbols
    (symbol "Connector_Generic:Conn_01x04" (pin_names hide) (in_bom yes) (on_board yes)
      (property "Reference" "J" (at 0 5.08 0)
        (effects (font (size 1.27 1.27)))
      )
      (property "Value" "Conn_01x04" (at 0 -7.62 0)
        (effects (font (size 1.27 1.27)))
      )
      (property "Footprint" "" (at 0 0 0)
        (effects (font (size 1.27 1.27)) hide)
      )
      (property "Datasheet" "~" (at 0 0 0)
        (effects (font (size 1.27 1.27)) hide)
      )
      (property "ki_keywords" "connector" (at 0 0 0)
        (effects (font (size 1.27 1.27)) hide)
      )
      (property "ki_description" "Generic connector, single row, 01x04, script generated (kicad-library-utils/schlib/autogen/connector/)" (at 0 0 0)
        (effects (font (size 1.27 1.27)) hide)
      )
      (property "ki_fp_filters" "Connector*:*_1x??_*" (at 0 0 0)
        (effects (font (size 1.27 1.27)) hide)
      )
      (symbol "Conn_01x04_1_1"
        (rectangle (start -1.27 -4.953) (end 0 -5.207)
          (stroke (width 0) (type default))
          (fill (type none))
        )
        (rectangle (start -1.27 -2.413) (end 0 -2.667)
          (stroke (width 0) (type default))
          (fill (type none))
        )
        (rectangle (start -1.27 0.127) (end 0 -0.127)
          (stroke (width 0) (type default))
          (fill (type none))
        )
        (rectangle (start -1.27 2.667) (end 0 2.413)
          (stroke (width 0) (type default))
          (fill (type none))
        )
        (rectangle (start -1.27 3.81) (end 1.27 -6.35)
          (stroke (width 0.254) (type default))
          (fill (type background))
        )
        (pin passive line (at -5.08 2.54 0) (length 3.81)
          (name "Pin_1" (effects (font (size 1.27 1.27))))
          (number "1" (effects (font (size 1.27 1.27))))
        )
        (pin passive line (at -5.08 0 0) (length 3.81)
          (name "Pin_2" (effects (font (size 1.27 1.27))))
          (number "2" (effects (font (size 1.27 1.27))))
        )
        (pin passive line (at -5.08 -2.54 0) (length 3.81)
          (name "Pin_3" (effects (font (size 1.27 1.27))))
          (number "3" (effects (font (size 1.27 1.27))))
        )
        (pin passive line (at -5.08 -5.08 0) (length 3.81)
          (name "Pin_4" (effects (font (size 1.27 1.27))))
          (number "4" (effects (font (size 1.27 1.27))))
        )
      )
    )
    (symbol "Device:C" (pin_numbers hide) (pin_names (offset 0.254)) (in_bom yes) (on_board yes)
      (property "Reference" "C" (at 0.635 2.54 0)
        (effects (font (size 1.27 1.27)) (justify left))
      )
      (property "Value" "C" (at 0.635 -2.54 0)
        (effects (font (size 1.27 1.27)) (justify left))
      )
      (property "Footprint" "" (at 0.9652 -3.81 0)
        (effects (font (size 1.27 1.27)) hide)
      )
      (property "Datasheet" "~" (at 0 0 0)
        (effects (font (size 1.27 1.27)) hide)
      )
      (property "ki_keywords" "cap capacitor" (at 0 0 0)
        (effects (font (size 1.27 1.27)) hide)
      )
      (property "ki_description" "Unpolarized capacitor" (at 0 0 0)
        (effects (font (size 1.27 1.27)) hide)
      )
      (property "ki_fp_filters" "C_*" (at 0 0 0)
        (effects (font (size 1.27 1.27)) hide)
      )
      (symbol "C_0_1"
        (polyline
          (pts
            (xy -2.032 -0.762)
            (xy 2.032 -0.762)
          )
          (stroke (width 0.508) (type default))
          (fill (type none))
        )
        (polyline
          (pts
            (xy -2.032 0.762)
            (xy 2.032 0.762)
          )
          (stroke (width 0.508) (type default))
          (fill (type none))
        )
      )
      (symbol "C_1_1"
        (pin passive line (at 0 3.81 270) (length 2.794)
          (name "~" (effects (font (size 1.27 1.27))))
          (number "1" (effects (font (size 1.27 1.27))))
        )
        (pin passive line (at 0 -3.81 90) (length 2.794)
          (name "~" (effects (font (size 1.27 1.27))))
          (number "2" (effects (font (size 1.27 1.27))))
        )
      )
    )
    (symbol "Device:C_Polarized" (pin_numbers hide) (pin_names (offset 0.254)) (in_bom yes) (on_board yes)
      (property "Reference" "C" (at 0.635 2.54 0)
        (effects (font (size 1.27 1.27)) (justify left))
      )
      (property "Value" "C_Polarized" (at 0.635 -2.54 0)
        (effects (font (size 1.27 1.27)) (justify left))
      )
      (property "Footprint" "" (at 0.9652 -3.81 0)
        (effects (font (size 1.27 1.27)) hide)
      )
      (property "Datasheet" "~" (at 0 0 0)
        (effects (font (size 1.27 1.27)) hide)
      )
      (property "ki_keywords" "cap capacitor" (at 0 0 0)
        (effects (font (size 1.27 1.27)) hide)
      )
      (property "ki_description" "Polarized capacitor" (at 0 0 0)
        (effects (font (size 1.27 1.27)) hide)
      )
      (property "ki_fp_filters" "CP_*" (at 0 0 0)
        (effects (font (size 1.27 1.27)) hide)
      )
      (symbol "C_Polarized_0_1"
        (rectangle (start -2.286 0.508) (end 2.286 1.016)
          (stroke (width 0) (type default))
          (fill (type none))
        )
        (polyline
          (pts
            (xy -1.778 2.286)
            (xy -0.762 2.286)
          )
          (stroke (width 0) (type default))
          (fill (type none))
        )
        (polyline
          (pts
            (xy -1.27 2.794)
            (xy -1.27 1.778)
          )
          (stroke (width 0) (type default))
          (fill (type none))
        )
        (rectangle (start 2.286 -0.508) (end -2.286 -1.016)
          (stroke (width 0) (type default))
          (fill (type outline))
        )
      )
      (symbol "C_Polarized_1_1"
        (pin passive line (at 0 3.81 270) (length 2.794)
          (name "~" (effects (font (size 1.27 1.27))))
          (number "1" (effects (font (size 1.27 1.27))))
        )
        (pin passive line (at 0 -3.81 90) (length 2.794)
          (name "~" (effects (font (size 1.27 1.27))))
          (number "2" (effects (font (size 1.27 1.27))))
        )
      )
    )
    (symbol "Device:R_US" (pin_numbers hide) (pin_names (offset 0)) (in_bom yes) (on_board yes)
      (property "Reference" "R" (at 2.54 0 90)
        (effects (font (size 1.27 1.27)))
      )
      (property "Value" "R_US" (at -2.54 0 90)
        (effects (font (size 1.27 1.27)))
      )
      (property "Footprint" "" (at 1.016 -0.254 90)
        (effects (font (size 1.27 1.27)) hide)
      )
      (property "Datasheet" "~" (at 0 0 0)
        (effects (font (size 1.27 1.27)) hide)
      )
      (property "ki_keywords" "R res resistor" (at 0 0 0)
        (effects (font (size 1.27 1.27)) hide)
      )
      (property "ki_description" "Resistor, US symbol" (at 0 0 0)
        (effects (font (size 1.27 1.27)) hide)
      )
      (property "ki_fp_filters" "R_*" (at 0 0 0)
        (effects (font (size 1.27 1.27)) hide)
      )
      (symbol "R_US_0_1"
        (polyline
          (pts
            (xy 0 -2.286)
            (xy 0 -2.54)
          )
          (stroke (width 0) (type default))
          (fill (type none))
        )
        (polyline
          (pts
            (xy 0 2.286)
            (xy 0 2.54)
          )
          (stroke (width 0) (type default))
          (fill (type none))
        )
        (polyline
          (pts
            (xy 0 -0.762)
            (xy 1.016 -1.143)
            (xy 0 -1.524)
            (xy -1.016 -1.905)
            (xy 0 -2.286)
          )
          (stroke (width 0) (type default))
          (fill (type none))
        )
        (polyline
          (pts
            (xy 0 0.762)
            (xy 1.016 0.381)
            (xy 0 0)
            (xy -1.016 -0.381)
            (xy 0 -0.762)
          )
          (stroke (width 0) (type default))
          (fill (type none))
        )
        (polyline
          (pts
            (xy 0 2.286)
            (xy 1.016 1.905)
            (xy 0 1.524)
            (xy -1.016 1.143)
            (xy 0 0.762)
          )
          (stroke (width 0) (type default))
          (fill (type none))
        )
      )
      (symbol "R_US_1_1"
        (pin passive line (at 0 3.81 270) (length 1.27)
          (name "~" (effects (font (size 1.27 1.27))))
          (number "1" (effects (font (size 1.27 1.27))))
        )
        (pin passive line (at 0 -3.81 90) (length 1.27)
          (name "~" (effects (font (size 1.27 1.27))))
          (number "2" (effects (font (size 1.27 1.27))))
        )
      )
    )
    (symbol "EMC2305-1-AP-TR_1" (pin_names (offset 0.254)) (in_bom yes) (on_board yes)
      (property "Reference" "U" (at -7.62 13.97 0)
        (effects (font (size 1.27 1.27)))
      )
      (property "Value" "EMC2305-1-AP-TR" (at 11.43 -16.51 0)
        (effects (font (size 1.27 1.27)))
      )
      (property "Footprint" "bitcart:QFN16_4x4MC_MCH" (at 49.53 15.24 0)
        (effects (font (size 1.27 1.27) italic) hide)
      )
      (property "Datasheet" "EMC2305-1-AP-TR" (at 50.8 12.7 0)
        (effects (font (size 1.27 1.27) italic) hide)
      )
      (property "ki_keywords" "EMC2305-1-AP-TR" (at 0 0 0)
        (effects (font (size 1.27 1.27)) hide)
      )
      (property "ki_fp_filters" "QFN16_4x4MC_MCH QFN16_4x4MC_MCH-M QFN16_4x4MC_MCH-L" (at 0 0 0)
        (effects (font (size 1.27 1.27)) hide)
      )
      (symbol "EMC2305-1-AP-TR_1_0_1"
        (pin bidirectional line (at -11.43 8.89 0) (length 2.54)
          (name "SMDATA" (effects (font (size 1.27 1.27))))
          (number "1" (effects (font (size 1.27 1.27))))
        )
        (pin input line (at 12.7 -2.54 180) (length 2.54)
          (name "TACH3" (effects (font (size 1.27 1.27))))
          (number "10" (effects (font (size 1.27 1.27))))
        )
        (pin bidirectional line (at -11.43 3.81 0) (length 2.54)
          (name "CLK" (effects (font (size 1.27 1.27))))
          (number "11" (effects (font (size 1.27 1.27))))
        )
        (pin output line (at 12.7 -5.08 180) (length 2.54)
          (name "PWM4" (effects (font (size 1.27 1.27))))
          (number "13" (effects (font (size 1.27 1.27))))
        )
        (pin input line (at 12.7 -7.62 180) (length 2.54)
          (name "TACH4" (effects (font (size 1.27 1.27))))
          (number "14" (effects (font (size 1.27 1.27))))
        )
        (pin output line (at 12.7 -10.16 180) (length 2.54)
          (name "PWM5" (effects (font (size 1.27 1.27))))
          (number "15" (effects (font (size 1.27 1.27))))
        )
        (pin input line (at 12.7 -12.7 180) (length 2.54)
          (name "TACH5" (effects (font (size 1.27 1.27))))
          (number "16" (effects (font (size 1.27 1.27))))
        )
        (pin input line (at -11.43 6.35 0) (length 2.54)
          (name "SMCLK" (effects (font (size 1.27 1.27))))
          (number "2" (effects (font (size 1.27 1.27))))
        )
        (pin power_in line (at 1.27 15.24 270) (length 2.54)
          (name "VDD" (effects (font (size 1.27 1.27))))
          (number "3" (effects (font (size 1.27 1.27))))
        )
        (pin bidirectional line (at -11.43 1.27 0) (length 2.54)
          (name "ADDR_SEL" (effects (font (size 1.27 1.27))))
          (number "4" (effects (font (size 1.27 1.27))))
        )
        (pin output line (at 12.7 10.16 180) (length 2.54)
          (name "PWM1" (effects (font (size 1.27 1.27))))
          (number "5" (effects (font (size 1.27 1.27))))
        )
        (pin input line (at 12.7 7.62 180) (length 2.54)
          (name "TACH1" (effects (font (size 1.27 1.27))))
          (number "6" (effects (font (size 1.27 1.27))))
        )
        (pin output line (at 12.7 5.08 180) (length 2.54)
          (name "PWM2" (effects (font (size 1.27 1.27))))
          (number "7" (effects (font (size 1.27 1.27))))
        )
        (pin input line (at 12.7 2.54 180) (length 2.54)
          (name "TACH2" (effects (font (size 1.27 1.27))))
          (number "8" (effects (font (size 1.27 1.27))))
        )
        (pin output line (at 12.7 0 180) (length 2.54)
          (name "PWM3" (effects (font (size 1.27 1.27))))
          (number "9" (effects (font (size 1.27 1.27))))
        )
      )
      (symbol "EMC2305-1-AP-TR_1_1_1"
        (rectangle (start -8.89 12.7) (end 10.16 -15.24)
          (stroke (width 0) (type default))
          (fill (type background))
        )
        (pin output line (at -11.43 -5.08 0) (length 2.54)
          (name "~{ALERT}" (effects (font (size 1.27 1.27))))
          (number "12" (effects (font (size 1.27 1.27))))
        )
        (pin passive line (at -11.43 -12.7 0) (length 2.54)
          (name "GND" (effects (font (size 1.27 1.27))))
          (number "17" (effects (font (size 1.27 1.27))))
        )
      )
    )
    (symbol "power:GND" (power) (pin_names (offset 0)) (in_bom yes) (on_board yes)
      (property "Reference" "#PWR" (at 0 -6.35 0)
        (effects (font (size 1.27 1.27)) hide)
      )
      (property "Value" "GND" (at 0 -3.81 0)
        (effects (font (size 1.27 1.27)))
      )
      (property "Footprint" "" (at 0 0 0)
        (effects (font (size 1.27 1.27)) hide)
      )
      (property "Datasheet" "" (at 0 0 0)
        (effects (font (size 1.27 1.27)) hide)
      )
      (property "ki_keywords" "power-flag" (at 0 0 0)
        (effects (font (size 1.27 1.27)) hide)
      )
      (property "ki_description" "Power symbol creates a global label with name \"GND\" , ground" (at 0 0 0)
        (effects (font (size 1.27 1.27)) hide)
      )
      (symbol "GND_0_1"
        (polyline
          (pts
            (xy 0 0)
            (xy 0 -1.27)
            (xy 1.27 -1.27)
            (xy 0 -2.54)
            (xy -1.27 -1.27)
            (xy 0 -1.27)
          )
          (stroke (width 0) (type default))
          (fill (type none))
        )
      )
      (symbol "GND_1_1"
        (pin power_in line (at 0 0 270) (length 0) hide
          (name "GND" (effects (font (size 1.27 1.27))))
          (number "1" (effects (font (size 1.27 1.27))))
        )
      )
    )
  )

  (junction (at 158.75 42.545) (diameter 0) (color 0 0 0 0)
    (uuid 04a0e893-6a66-4d9f-a5dd-718d973f3f99)
  )
  (junction (at 200.406 56.388) (diameter 0) (color 0 0 0 0)
    (uuid 1190c6cc-76e8-4d63-a15c-c8e6410e6350)
  )
  (junction (at 200.152 106.172) (diameter 0) (color 0 0 0 0)
    (uuid 138f844a-dbd9-4bf2-a605-b4f9d65e85db)
  )
  (junction (at 128.905 43.18) (diameter 0) (color 0 0 0 0)
    (uuid 17cb1612-7d92-412a-a93c-7d7fc7f2f0bf)
  )
  (junction (at 173.99 82.55) (diameter 0) (color 0 0 0 0)
    (uuid 19525482-ad5e-4900-828f-34ddd474d1e7)
  )
  (junction (at 151.13 67.31) (diameter 0) (color 0 0 0 0)
    (uuid 2acb74bd-8930-4c1e-b712-5dd406218d98)
  )
  (junction (at 189.23 106.172) (diameter 0) (color 0 0 0 0)
    (uuid 3eab36fe-7cb0-4eae-9978-39b7d8f30e46)
  )
  (junction (at 200.406 68.834) (diameter 0) (color 0 0 0 0)
    (uuid 40734795-5ba6-4c80-9ae2-48b98a341372)
  )
  (junction (at 189.23 74.93) (diameter 0) (color 0 0 0 0)
    (uuid 54e6bb44-52d1-4438-85e4-c7f3d3f029df)
  )
  (junction (at 189.23 92.71) (diameter 0) (color 0 0 0 0)
    (uuid 592aa288-1ad6-4136-b36b-0d8f91bcb242)
  )
  (junction (at 189.23 56.388) (diameter 0) (color 0 0 0 0)
    (uuid 676f595c-5339-4bdd-9755-b5e42af8f42f)
  )
  (junction (at 187.452 68.834) (diameter 0) (color 0 0 0 0)
    (uuid 78b7fd14-1443-4834-a32b-93c5c79a4ab6)
  )
  (junction (at 189.23 43.688) (diameter 0) (color 0 0 0 0)
    (uuid 78da8812-697b-4b39-a101-dedf97bd4295)
  )
  (junction (at 200.152 117.856) (diameter 0) (color 0 0 0 0)
    (uuid bc9a2786-692e-4505-92d5-bd29540a66c4)
  )
  (junction (at 187.452 117.856) (diameter 0) (color 0 0 0 0)
    (uuid c6107525-5733-43c5-aba5-845f74a9c6c6)
  )
  (junction (at 166.37 77.47) (diameter 0) (color 0 0 0 0)
    (uuid c7ae7861-5774-4fea-93ac-b906928416e7)
  )
  (junction (at 158.75 72.39) (diameter 0) (color 0 0 0 0)
    (uuid d078cfa7-3073-44e1-ae5e-5cf81e42448f)
  )
  (junction (at 187.452 122.682) (diameter 0) (color 0 0 0 0)
    (uuid d27e1728-9bf8-40c5-87e6-bee4b23ca0fd)
  )
  (junction (at 166.37 42.545) (diameter 0) (color 0 0 0 0)
    (uuid e0b0f892-8d01-4548-9cb0-5b519e26e893)
  )

  (no_connect (at 125.73 71.12) (uuid 21a2835a-4b1f-4f1e-a6ae-4590f434b22f))
  (no_connect (at 149.86 87.63) (uuid 308009c8-674b-4d0a-9979-2ab76d263de7))
  (no_connect (at 125.73 73.66) (uuid 35f49f6d-0068-4303-a810-946614932ff4))
  (no_connect (at 149.86 85.09) (uuid c19e70b1-f7aa-49e2-8951-110deb7ce2ed))

  (wire (pts (xy 189.23 43.688) (xy 189.23 56.388))
    (stroke (width 0) (type default))
    (uuid 0052640b-5a4b-43c3-8d09-74fbdfe16549)
  )
  (wire (pts (xy 206.756 56.388) (xy 200.406 56.388))
    (stroke (width 0) (type default))
    (uuid 01862944-f16f-4a2d-8c6e-69b1b41781f3)
  )
  (wire (pts (xy 206.756 68.834) (xy 200.406 68.834))
    (stroke (width 0) (type default))
    (uuid 0424c4a1-4811-4a91-b22f-7aa100cc6fd5)
  )
  (wire (pts (xy 151.13 53.975) (xy 151.13 67.31))
    (stroke (width 0) (type default))
    (uuid 082c28c6-fcc2-40db-a768-d495ebfb8953)
  )
  (wire (pts (xy 114.3 66.04) (xy 125.73 66.04))
    (stroke (width 0) (type default))
    (uuid 08649198-3e16-4548-acc3-03079bd77afe)
  )
  (wire (pts (xy 187.452 117.856) (xy 187.452 122.682))
    (stroke (width 0) (type default))
    (uuid 0974f6c2-6b8a-4df5-ab88-0c0aa4daf055)
  )
  (wire (pts (xy 182.245 23.368) (xy 189.23 23.368))
    (stroke (width 0) (type default))
    (uuid 0aa9059b-2653-4eac-a705-dd372c2a0904)
  )
  (wire (pts (xy 200.406 68.834) (xy 187.452 68.834))
    (stroke (width 0) (type default))
    (uuid 0b7d2ee0-8f79-46b5-845d-a3c12534d5a4)
  )
  (wire (pts (xy 166.37 42.545) (xy 166.37 46.355))
    (stroke (width 0) (type default))
    (uuid 0d33adf8-1055-43a0-a751-1cfd71f7f377)
  )
  (wire (pts (xy 187.452 41.148) (xy 191.77 41.148))
    (stroke (width 0) (type default))
    (uuid 0fb46e9d-38bf-4965-a240-2bfc54c8be51)
  )
  (wire (pts (xy 189.23 125.222) (xy 191.77 125.222))
    (stroke (width 0) (type default))
    (uuid 137df1ee-093e-43dd-a3b9-9c55972360c1)
  )
  (wire (pts (xy 182.245 74.93) (xy 149.86 74.93))
    (stroke (width 0) (type default))
    (uuid 1648de60-b006-4532-8d08-5e017ca0e9ea)
  )
  (wire (pts (xy 185.42 77.47) (xy 185.42 72.39))
    (stroke (width 0) (type default))
    (uuid 179f4d37-8f97-4361-af4b-57fa3134e05a)
  )
  (wire (pts (xy 189.23 43.688) (xy 191.77 43.688))
    (stroke (width 0) (type default))
    (uuid 1cb6150c-53a1-4cdb-a83f-71ea1451746e)
  )
  (wire (pts (xy 189.23 56.388) (xy 189.23 74.93))
    (stroke (width 0) (type default))
    (uuid 1dacb44c-dbae-4bae-9cbd-d6bfa0cec60f)
  )
  (wire (pts (xy 191.77 130.302) (xy 176.53 130.302))
    (stroke (width 0) (type default))
    (uuid 1e35e1d1-c822-4965-be81-c4c511ccb694)
  )
  (wire (pts (xy 191.77 46.228) (xy 182.88 46.228))
    (stroke (width 0) (type default))
    (uuid 22ef73c4-a979-4fd1-979b-fdd5a02c4eef)
  )
  (wire (pts (xy 120.396 87.63) (xy 125.73 87.63))
    (stroke (width 0) (type default))
    (uuid 240d4e87-9a05-4b7c-a296-ce8e42140fcd)
  )
  (wire (pts (xy 187.452 122.682) (xy 187.452 134.62))
    (stroke (width 0) (type default))
    (uuid 27a5f231-46cd-4359-9eda-52a358fe02db)
  )
  (wire (pts (xy 151.13 67.31) (xy 182.88 67.31))
    (stroke (width 0) (type default))
    (uuid 29c085c5-9c44-46de-972f-a0dd1a065536)
  )
  (wire (pts (xy 176.403 80.01) (xy 149.86 80.01))
    (stroke (width 0) (type default))
    (uuid 2e59f021-b04d-4742-b8f3-f0e9e618d0dc)
  )
  (wire (pts (xy 200.406 56.388) (xy 189.23 56.388))
    (stroke (width 0) (type default))
    (uuid 31c40d6a-b10e-4c60-9455-f3d9ed52e614)
  )
  (wire (pts (xy 114.3 68.58) (xy 125.73 68.58))
    (stroke (width 0) (type default))
    (uuid 344685c4-5509-4e55-a149-d6163529fea0)
  )
  (wire (pts (xy 176.403 80.01) (xy 176.53 130.302))
    (stroke (width 0) (type default))
    (uuid 3b93e98f-b2cb-479c-a16d-ea03a9cf790f)
  )
  (wire (pts (xy 158.75 53.975) (xy 158.75 72.39))
    (stroke (width 0) (type default))
    (uuid 42da1600-3814-46df-94cc-c76290bdf28f)
  )
  (wire (pts (xy 189.23 92.71) (xy 189.23 106.172))
    (stroke (width 0) (type default))
    (uuid 44607de4-4aa8-4688-81ac-91e51d53ef25)
  )
  (wire (pts (xy 187.452 68.834) (xy 187.452 117.856))
    (stroke (width 0) (type default))
    (uuid 45104414-1fd5-43e9-92e0-281174f02368)
  )
  (wire (pts (xy 178.308 127.762) (xy 178.308 82.55))
    (stroke (width 0) (type default))
    (uuid 453d22b1-10ed-4cb6-bfa2-fe9336d40e69)
  )
  (wire (pts (xy 178.308 82.55) (xy 173.99 82.55))
    (stroke (width 0) (type default))
    (uuid 4811e0a5-46ab-4607-912e-647d0acad603)
  )
  (wire (pts (xy 158.75 72.39) (xy 149.86 72.39))
    (stroke (width 0) (type default))
    (uuid 4ee53dc0-4617-4fbc-95d1-468a6e8085ae)
  )
  (wire (pts (xy 191.77 122.682) (xy 187.452 122.682))
    (stroke (width 0) (type default))
    (uuid 55ba965d-b48c-4033-b228-bdeba1197898)
  )
  (wire (pts (xy 183.515 80.01) (xy 183.515 69.85))
    (stroke (width 0) (type default))
    (uuid 561eaa57-90a0-4cfb-89c0-fe0b446380aa)
  )
  (wire (pts (xy 206.756 66.802) (xy 206.756 68.834))
    (stroke (width 0) (type default))
    (uuid 5a8e65b4-dcab-40ab-b668-210db637b5e4)
  )
  (wire (pts (xy 200.152 106.172) (xy 200.152 108.204))
    (stroke (width 0) (type default))
    (uuid 5f8400ee-f035-4954-bff0-f966a58ea800)
  )
  (wire (pts (xy 200.406 66.802) (xy 200.406 68.834))
    (stroke (width 0) (type default))
    (uuid 6263d065-7dae-4c17-9f46-c8643833c95b)
  )
  (wire (pts (xy 187.452 41.148) (xy 187.452 68.834))
    (stroke (width 0) (type default))
    (uuid 64f5df7e-f42f-4baf-9b81-8b658eb3b7c2)
  )
  (wire (pts (xy 206.502 106.172) (xy 200.152 106.172))
    (stroke (width 0) (type default))
    (uuid 67c0ab7e-82d8-4b43-8ff4-72b9614d75fb)
  )
  (wire (pts (xy 173.99 82.55) (xy 149.86 82.55))
    (stroke (width 0) (type default))
    (uuid 68ed0890-ab7d-4ecb-891d-bb0e8f904e1b)
  )
  (wire (pts (xy 206.502 115.824) (xy 206.502 117.856))
    (stroke (width 0) (type default))
    (uuid 69c5ff2f-6707-41cb-af27-e0e8c9932c03)
  )
  (wire (pts (xy 182.245 97.79) (xy 182.245 74.93))
    (stroke (width 0) (type default))
    (uuid 76dcffbd-a7e4-467c-ae83-87642ec26055)
  )
  (wire (pts (xy 138.43 43.18) (xy 138.43 59.69))
    (stroke (width 0) (type default))
    (uuid 785841c6-c513-4d6a-84b4-01eec3b7fc19)
  )
  (wire (pts (xy 180.34 77.47) (xy 166.37 77.47))
    (stroke (width 0) (type default))
    (uuid 7acdf4e9-f9ee-47b8-a61a-57d6affdfb5a)
  )
  (wire (pts (xy 200.406 56.388) (xy 200.406 59.182))
    (stroke (width 0) (type default))
    (uuid 7b4eb716-e217-406a-9041-9da76f40677e)
  )
  (wire (pts (xy 114.808 80.01) (xy 125.73 80.01))
    (stroke (width 0) (type default))
    (uuid 7be4407d-6de3-4633-85e7-9b682ccb9b73)
  )
  (wire (pts (xy 183.515 69.85) (xy 149.86 69.85))
    (stroke (width 0) (type default))
    (uuid 7cb3bbda-637b-4d8a-b96c-a4e1d54190f1)
  )
  (wire (pts (xy 128.905 43.18) (xy 138.43 43.18))
    (stroke (width 0) (type default))
    (uuid 7de60fe1-a88f-4b0c-a75a-0651284254ae)
  )
  (wire (pts (xy 191.77 127.762) (xy 178.308 127.762))
    (stroke (width 0) (type default))
    (uuid 7df19714-811f-436c-9ef8-b1a46fdc1f3e)
  )
  (wire (pts (xy 206.502 108.204) (xy 206.502 106.172))
    (stroke (width 0) (type default))
    (uuid 7fc615e6-dcb5-47db-b43a-d134d2128ce3)
  )
  (wire (pts (xy 122.555 43.18) (xy 128.905 43.18))
    (stroke (width 0) (type default))
    (uuid 8512eca2-19d7-4783-af93-4de6866a333c)
  )
  (wire (pts (xy 200.152 115.824) (xy 200.152 117.856))
    (stroke (width 0) (type default))
    (uuid 87542616-56f2-42cf-bab4-5fd63056daf6)
  )
  (wire (pts (xy 151.13 42.545) (xy 151.13 46.355))
    (stroke (width 0) (type default))
    (uuid 8797244e-cfe2-4c0a-97ce-4310481535c9)
  )
  (wire (pts (xy 189.23 23.368) (xy 189.23 43.688))
    (stroke (width 0) (type default))
    (uuid 8d297397-18f1-431a-acb2-86960086974a)
  )
  (wire (pts (xy 180.34 95.25) (xy 180.34 77.47))
    (stroke (width 0) (type default))
    (uuid 8f03f9fa-f7d6-42cb-bca8-172bb6a659cc)
  )
  (wire (pts (xy 200.152 117.856) (xy 187.452 117.856))
    (stroke (width 0) (type default))
    (uuid 8f929466-45d5-4fea-a5a7-d47312262ad5)
  )
  (wire (pts (xy 206.756 59.182) (xy 206.756 56.388))
    (stroke (width 0) (type default))
    (uuid 93f92ae6-d43a-4afe-82a4-f17c2d44d601)
  )
  (wire (pts (xy 182.88 46.228) (xy 182.88 67.31))
    (stroke (width 0) (type default))
    (uuid 96c6cba5-5da5-4437-8cc6-e9c6377bfc9e)
  )
  (wire (pts (xy 173.99 53.975) (xy 173.99 82.55))
    (stroke (width 0) (type default))
    (uuid 98a3b9e4-2d04-414f-93cc-5a9c70021700)
  )
  (wire (pts (xy 191.77 95.25) (xy 180.34 95.25))
    (stroke (width 0) (type default))
    (uuid a701ce3b-bc98-4bf5-b9a3-0e0509136ff0)
  )
  (wire (pts (xy 173.99 42.545) (xy 166.37 42.545))
    (stroke (width 0) (type default))
    (uuid ab3fd626-eb8e-4da9-bce6-888fcd411de0)
  )
  (wire (pts (xy 185.42 72.39) (xy 158.75 72.39))
    (stroke (width 0) (type default))
    (uuid af07eb11-fc07-41ef-95d8-0ba34128cd05)
  )
  (wire (pts (xy 191.77 80.01) (xy 183.515 80.01))
    (stroke (width 0) (type default))
    (uuid affd881c-167d-425b-b0e9-3fbf3ebe8453)
  )
  (wire (pts (xy 166.37 53.975) (xy 166.37 77.47))
    (stroke (width 0) (type default))
    (uuid b7170320-de7e-420c-a471-02b7dd5bb7bd)
  )
  (wire (pts (xy 189.23 106.172) (xy 189.23 125.222))
    (stroke (width 0) (type default))
    (uuid b9d85670-09e5-4641-9c6a-528d82c4b570)
  )
  (wire (pts (xy 189.23 92.71) (xy 191.77 92.71))
    (stroke (width 0) (type default))
    (uuid c36fa37a-6476-4dfe-aae2-e97c3473757e)
  )
  (wire (pts (xy 166.37 77.47) (xy 149.86 77.47))
    (stroke (width 0) (type default))
    (uuid c6fb1322-4cb2-406c-8f43-a0bfd7efbad7)
  )
  (wire (pts (xy 166.37 42.545) (xy 158.75 42.545))
    (stroke (width 0) (type default))
    (uuid cf3c947c-2227-4b6b-a27b-87a75056f707)
  )
  (wire (pts (xy 185.42 48.768) (xy 185.42 64.77))
    (stroke (width 0) (type default))
    (uuid d5324271-c7e0-4ebf-9c18-08ed82987882)
  )
  (wire (pts (xy 191.77 97.79) (xy 182.245 97.79))
    (stroke (width 0) (type default))
    (uuid d77f75af-174b-428a-813d-7457ad08c4b4)
  )
  (wire (pts (xy 189.23 74.93) (xy 191.77 74.93))
    (stroke (width 0) (type default))
    (uuid db4170d0-8b98-4ea2-b7fa-3029ac41b709)
  )
  (wire (pts (xy 151.13 67.31) (xy 149.86 67.31))
    (stroke (width 0) (type default))
    (uuid ddc316c4-266d-475e-8914-e6d479d5eb7c)
  )
  (wire (pts (xy 189.23 106.172) (xy 200.152 106.172))
    (stroke (width 0) (type default))
    (uuid e0603f8e-6b13-46c2-bdb5-99967d6bfcfe)
  )
  (wire (pts (xy 191.77 77.47) (xy 185.42 77.47))
    (stroke (width 0) (type default))
    (uuid e3227d80-8893-4ccc-bca9-cb0026e2a89b)
  )
  (wire (pts (xy 158.75 42.545) (xy 151.13 42.545))
    (stroke (width 0) (type default))
    (uuid e537068d-76df-44fb-9c25-8305c984453f)
  )
  (wire (pts (xy 173.99 46.355) (xy 173.99 42.545))
    (stroke (width 0) (type default))
    (uuid e7d4fb8b-e5f4-4d26-891d-1465c72289fc)
  )
  (wire (pts (xy 206.502 117.856) (xy 200.152 117.856))
    (stroke (width 0) (type default))
    (uuid eb55ea39-771f-4b7a-9f17-37bcc3efe73e)
  )
  (wire (pts (xy 158.75 42.545) (xy 158.75 46.355))
    (stroke (width 0) (type default))
    (uuid ec84aac5-1576-41a1-a1cc-0ab66c259ff1)
  )
  (wire (pts (xy 128.905 44.45) (xy 128.905 43.18))
    (stroke (width 0) (type default))
    (uuid ee5e61c8-afc7-4fd4-b037-babecd46ed3e)
  )
  (wire (pts (xy 185.42 48.768) (xy 191.77 48.768))
    (stroke (width 0) (type default))
    (uuid ef519b77-eb45-4fbb-8257-db88501c5a13)
  )
  (wire (pts (xy 185.42 64.77) (xy 149.86 64.77))
    (stroke (width 0) (type default))
    (uuid fa3f881d-3b25-4a76-bb71-31987681203e)
  )
  (wire (pts (xy 189.23 74.93) (xy 189.23 92.71))
    (stroke (width 0) (type default))
    (uuid ffe65f17-3bfe-45bb-a218-7ba6a80d2ac0)
  )

  (text "FAN controller" (at 118.872 40.64 0)
    (effects (font (size 2.0066 2.0066)) (justify left bottom))
    (uuid 71079b24-2e2e-494b-a607-86ccdae75c6e)
  )
  (text "FAN connectors" (at 190.373 36.957 0)
    (effects (font (size 1.27 1.27)) (justify left bottom))
    (uuid 927b1eb6-e6f4-412f-9a58-8dc81a4889a0)
  )

  (label "GND" (at 120.396 87.63 0) (fields_autoplaced)
    (effects (font (size 1.27 1.27)) (justify left bottom))
    (uuid 1d0f716b-f57b-4a4c-8e40-635429d2dc1d)
  )
  (label "SDA" (at 120.396 66.04 0) (fields_autoplaced)
    (effects (font (size 1.27 1.27)) (justify left bottom))
    (uuid 67447d07-e091-41a7-8243-b79646d4e3cd)
  )
  (label "SCL" (at 120.396 68.58 0) (fields_autoplaced)
    (effects (font (size 1.27 1.27)) (justify left bottom))
    (uuid 71022454-f308-4556-9b6b-c67f21c71a62)
  )
  (label "+3.3v" (at 160.655 42.545 0) (fields_autoplaced)
    (effects (font (size 1.27 1.27)) (justify left bottom))
    (uuid 72ca2627-023f-409f-bffe-90e43852865e)
  )
  (label "FAN_ALERT" (at 114.808 80.01 0) (fields_autoplaced)
    (effects (font (size 1.27 1.27)) (justify left bottom))
    (uuid a861ceaa-0176-4572-ba33-6724e2e0716b)
  )
  (label "+3.3v" (at 138.43 55.245 0) (fields_autoplaced)
    (effects (font (size 1.27 1.27)) (justify left bottom))
    (uuid f1128c56-7c01-4d79-834b-ceab4dc35180)
  )

  (hierarchical_label "+3.3v" (shape input) (at 122.555 43.18 180) (fields_autoplaced)
    (effects (font (size 1.27 1.27)) (justify right))
    (uuid 57121f1d-c971-4830-b974-00f7d706f0c9)
  )
  (hierarchical_label "+12v" (shape input) (at 182.245 23.368 180) (fields_autoplaced)
    (effects (font (size 1.27 1.27)) (justify right))
    (uuid ea8efd53-9e19-4e37-86f5-e6c0c681f735)
  )
  (hierarchical_label "SDA" (shape input) (at 114.3 66.04 180) (fields_autoplaced)
    (effects (font (size 1.27 1.27)) (justify right))
    (uuid ee34fb41-c3bd-4949-98cb-bb3414151cda)
  )
  (hierarchical_label "SCL" (shape input) (at 114.3 68.58 180) (fields_autoplaced)
    (effects (font (size 1.27 1.27)) (justify right))
    (uuid f3bb71e6-7698-460d-93c4-f1bbd8d64139)
  )
  (hierarchical_label "FAN_ALERT" (shape input) (at 114.935 80.01 180) (fields_autoplaced)
    (effects (font (size 1.27 1.27)) (justify right))
    (uuid f848019b-ab5c-4701-a5d0-c58e6c025f17)
  )

  (symbol (lib_id "Device:C") (at 128.905 48.26 0) (unit 1)
    (in_bom yes) (on_board yes) (dnp no)
    (uuid 00000000-0000-0000-0000-00005d0dcf99)
    (property "Reference" "C17" (at 131.826 47.0916 0)
      (effects (font (size 1.27 1.27)) (justify left))
    )
    (property "Value" "0.1uF" (at 131.826 49.403 0)
      (effects (font (size 1.27 1.27)) (justify left))
    )
    (property "Footprint" "Capacitor_SMD:C_0402_1005Metric" (at 129.8702 52.07 0)
      (effects (font (size 1.27 1.27)) hide)
    )
    (property "Datasheet" "https://search.murata.co.jp/Ceramy/image/img/A01X/G101/ENG/GRM155R71C104KA88-01.pdf" (at 128.905 48.26 0)
      (effects (font (size 1.27 1.27)) hide)
    )
    (property "DK" "478-KGM05AR71C104KHCT-ND" (at 128.905 48.26 0)
      (effects (font (size 1.27 1.27)) hide)
    )
    (property "PARTNO" "KGM05AR71C104KH" (at 128.905 48.26 0)
      (effects (font (size 1.27 1.27)) hide)
    )
    (pin "1" (uuid 24d3ee68-60f0-4c8a-a72b-065f1026fd87))
    (pin "2" (uuid 0d1c133a-5b0b-4fe0-b915-2f72b13b37e9))
    (instances
      (project "bitcart"
        (path "/e63e39d7-6ac0-4ffd-8aa3-1841a4541b55/00000000-0000-0000-0000-00005e328d89"
          (reference "C17") (unit 1)
        )
      )
    )
  )

  (symbol (lib_id "power:GND") (at 128.905 52.07 0) (unit 1)
    (in_bom yes) (on_board yes) (dnp no)
    (uuid 00000000-0000-0000-0000-00005d0dd5c0)
    (property "Reference" "#PWR025" (at 128.905 58.42 0)
      (effects (font (size 1.27 1.27)) hide)
    )
    (property "Value" "GND" (at 129.032 56.4642 0)
      (effects (font (size 1.27 1.27)))
    )
    (property "Footprint" "" (at 128.905 52.07 0)
      (effects (font (size 1.27 1.27)) hide)
    )
    (property "Datasheet" "" (at 128.905 52.07 0)
      (effects (font (size 1.27 1.27)) hide)
    )
    (pin "1" (uuid 7308e13a-4809-4e8e-af65-9905819aa376))
    (instances
      (project "bitcart"
        (path "/e63e39d7-6ac0-4ffd-8aa3-1841a4541b55/00000000-0000-0000-0000-00005e328d89"
          (reference "#PWR025") (unit 1)
        )
      )
    )
  )

  (symbol (lib_id "Connector_Generic:Conn_01x04") (at 196.85 125.222 0) (unit 1)
    (in_bom yes) (on_board yes) (dnp no)
    (uuid 00000000-0000-0000-0000-00005d0e2a28)
    (property "Reference" "J6" (at 194.945 133.477 0)
      (effects (font (size 1.27 1.27)) (justify left))
    )
    (property "Value" "61900411021" (at 194.31 136.017 0)
      (effects (font (size 1.27 1.27)) (justify left))
    )
    (property "Footprint" "bitcart:CONN_61900411021_WRE" (at 196.85 125.222 0)
      (effects (font (size 1.27 1.27)) hide)
    )
    (property "Datasheet" "https://www.molex.com/pdm_docs/sd/470531000_sd.pdf" (at 196.85 125.222 0)
      (effects (font (size 1.27 1.27)) hide)
    )
    (property "DK" "732-2701-ND" (at 196.85 125.222 0)
      (effects (font (size 1.27 1.27)) hide)
    )
    (property "PARTNO" "61900411021" (at 196.85 125.222 0)
      (effects (font (size 1.27 1.27)) hide)
    )
    (pin "1" (uuid bc29a09d-ebbe-4bab-9edb-114e75ee17a4))
    (pin "2" (uuid 22fd57c4-481e-4417-b920-694451210da2))
    (pin "3" (uuid da151d0a-a1fa-4865-aa78-eb4b6082fbfd))
    (pin "4" (uuid 41ef6d8e-078c-46e5-a743-15f86f94b1c5))
    (instances
      (project "bitcart"
        (path "/e63e39d7-6ac0-4ffd-8aa3-1841a4541b55/00000000-0000-0000-0000-00005e328d89"
          (reference "J6") (unit 1)
        )
      )
    )
  )

  (symbol (lib_id "power:GND") (at 187.452 134.62 0) (unit 1)
    (in_bom yes) (on_board yes) (dnp no)
    (uuid 00000000-0000-0000-0000-00005d0e8ad5)
    (property "Reference" "#PWR026" (at 187.452 140.97 0)
      (effects (font (size 1.27 1.27)) hide)
    )
    (property "Value" "GND" (at 187.579 139.0142 0)
      (effects (font (size 1.27 1.27)))
    )
    (property "Footprint" "" (at 187.452 134.62 0)
      (effects (font (size 1.27 1.27)) hide)
    )
    (property "Datasheet" "" (at 187.452 134.62 0)
      (effects (font (size 1.27 1.27)) hide)
    )
    (pin "1" (uuid ec7073f7-f754-4ee6-a977-3d11d16480f8))
    (instances
      (project "bitcart"
        (path "/e63e39d7-6ac0-4ffd-8aa3-1841a4541b55/00000000-0000-0000-0000-00005e328d89"
          (reference "#PWR026") (unit 1)
        )
      )
    )
  )

  (symbol (lib_id "power:GND") (at 120.396 87.63 0) (unit 1)
    (in_bom yes) (on_board yes) (dnp no)
    (uuid 00000000-0000-0000-0000-00005e3727fe)
    (property "Reference" "#PWR024" (at 120.396 93.98 0)
      (effects (font (size 1.27 1.27)) hide)
    )
    (property "Value" "GND" (at 120.523 92.0242 0)
      (effects (font (size 1.27 1.27)))
    )
    (property "Footprint" "" (at 120.396 87.63 0)
      (effects (font (size 1.27 1.27)) hide)
    )
    (property "Datasheet" "" (at 120.396 87.63 0)
      (effects (font (size 1.27 1.27)) hide)
    )
    (pin "1" (uuid 419715bf-ffaa-4f14-ba39-b7cca3633324))
    (instances
      (project "bitcart"
        (path "/e63e39d7-6ac0-4ffd-8aa3-1841a4541b55/00000000-0000-0000-0000-00005e328d89"
          (reference "#PWR024") (unit 1)
        )
      )
    )
  )

  (symbol (lib_id "Device:C") (at 206.756 62.992 0) (mirror y) (unit 1)
    (in_bom yes) (on_board yes) (dnp no)
    (uuid 360ae05b-6668-4668-870e-98bc275730af)
    (property "Reference" "C29" (at 211.201 61.722 0)
      (effects (font (size 1.27 1.27)) (justify left bottom))
    )
    (property "Value" "0.1uF" (at 213.106 66.167 0)
      (effects (font (size 1.27 1.27)) (justify left bottom))
    )
    (property "Footprint" "Capacitor_SMD:C_0402_1005Metric" (at 206.756 62.992 0)
      (effects (font (size 1.27 1.27)) hide)
    )
    (property "Datasheet" "" (at 206.756 62.992 0)
      (effects (font (size 1.27 1.27)) hide)
    )
    (property "DK" "1292-1639-1-ND" (at 206.756 62.992 0)
      (effects (font (size 1.27 1.27)) hide)
    )
    (property "PARTNO" "0402X104K100CT" (at 206.756 62.992 0)
      (effects (font (size 1.27 1.27)) hide)
    )
    (pin "1" (uuid 31cd2780-6bce-4d70-a071-3779fed127f6))
    (pin "2" (uuid 44ebf3e1-4b16-4673-9ed6-592cd7219fd6))
    (instances
      (project "fan"
        (path "/e3011397-6e70-47ae-93ca-7e99c3d9ef05"
          (reference "C29") (unit 1)
        )
      )
      (project "bitcart"
        (path "/e63e39d7-6ac0-4ffd-8aa3-1841a4541b55/00000000-0000-0000-0000-00005e328d89"
          (reference "C21") (unit 1)
        )
      )
    )
  )

  (symbol (lib_id "Device:C_Polarized") (at 200.152 112.014 0) (unit 1)
    (in_bom yes) (on_board yes) (dnp no)
    (uuid 501d8c07-43a1-4aa4-a1d7-4f84c3821b42)
    (property "Reference" "C28" (at 193.167 110.744 0)
      (effects (font (size 1.27 1.27)) (justify left))
    )
    (property "Value" "220uF" (at 190.627 113.284 0)
      (effects (font (size 1.27 1.27)) (justify left))
    )
    (property "Footprint" "Capacitor_SMD:CP_Elec_6.3x7.7" (at 201.1172 115.824 0)
      (effects (font (size 1.27 1.27)) hide)
    )
    (property "Datasheet" "~" (at 200.152 112.014 0)
      (effects (font (size 1.27 1.27)) hide)
    )
    (property "DK" "732-8422-1-ND" (at 200.152 112.014 0)
      (effects (font (size 1.27 1.27)) hide)
    )
    (property "PARTNO" "865080345012" (at 200.152 112.014 0)
      (effects (font (size 1.27 1.27)) hide)
    )
    (pin "1" (uuid 6f2f3e1c-35bc-4948-9433-6923758d9036))
    (pin "2" (uuid 9f2b6f2c-2300-496f-aeff-99c49345e7d5))
    (instances
      (project "fan"
        (path "/e3011397-6e70-47ae-93ca-7e99c3d9ef05"
          (reference "C28") (unit 1)
        )
      )
      (project "bitcart"
        (path "/e63e39d7-6ac0-4ffd-8aa3-1841a4541b55/00000000-0000-0000-0000-00005e328d89"
          (reference "C18") (unit 1)
        )
      )
    )
  )

  (symbol (lib_name "EMC2305-1-AP-TR_1") (lib_id "bitcart:EMC2305-1-AP-TR") (at 137.16 74.93 0) (unit 1)
    (in_bom yes) (on_board yes) (dnp no)
    (uuid 58e117f7-240c-4aeb-a1c2-b3e9fc860c5e)
    (property "Reference" "U5" (at 129.286 60.96 0)
      (effects (font (size 1.27 1.27)))
    )
    (property "Value" "EMC2305-1-AP-TR" (at 146.05 91.694 0)
      (effects (font (size 1.27 1.27)))
    )
    (property "Footprint" "bitcart:QFN16_4x4MC_MCH" (at 186.69 59.69 0)
      (effects (font (size 1.27 1.27) italic) hide)
    )
    (property "Datasheet" "https://ww1.microchip.com/downloads/aemDocuments/documents/MSLD/ProductDocuments/DataSheets/EMC2301-2-3-5-Data-Sheet-DS20006532A.pdf" (at 187.96 62.23 0)
      (effects (font (size 1.27 1.27) italic) hide)
    )
    (property "DK" "EMC2305-1-AP-CT-ND" (at 137.16 74.93 0)
      (effects (font (size 1.27 1.27)) hide)
    )
    (property "PARYNO" "EMC2305-1-AP-TR" (at 137.16 74.93 0)
      (effects (font (size 1.27 1.27)) hide)
    )
    (pin "1" (uuid 4c00ef98-6580-45e1-914e-3bbda5fb8518))
    (pin "10" (uuid 071d70f9-ba4c-4a0f-b137-33eb718d56f6))
    (pin "11" (uuid 3aa0a7da-19d2-4ef0-ad95-6e7e336e1eac))
    (pin "13" (uuid 36c5a01b-a7dc-42c2-808f-76a4f68a6054))
    (pin "14" (uuid 5bae0a42-dc0d-4468-9f83-3c3a95971f5c))
    (pin "15" (uuid 803759b3-77d1-416d-90a2-cbfb87e5c1b7))
    (pin "16" (uuid 65c7a289-2767-4c34-95c4-3713d659d39d))
    (pin "2" (uuid af960c81-15b4-47a2-a0c5-3b70a5d7d347))
    (pin "3" (uuid bc6e5ae4-42a2-42fc-ae40-836c586d9768))
    (pin "4" (uuid 2515d74b-a268-4456-a952-7daf13360bb2))
    (pin "5" (uuid e3bce0da-fe87-432f-ac83-d3239eec37af))
    (pin "6" (uuid bc8eae9e-3c48-4a42-9122-a5bf12c12120))
    (pin "7" (uuid 5d5a6b5d-4dcc-4be3-b06a-8db0cbbed186))
    (pin "8" (uuid 73f94ad1-e0bc-4718-a3f6-365a6cbc2c11))
    (pin "9" (uuid acc19c56-cc5a-4d40-891c-e93642c972ef))
    (pin "12" (uuid 84e3436f-8e43-46c3-b84e-c7071a64abff))
    (pin "17" (uuid 8210ab9b-56d4-4df7-990a-b9ac1fa85468))
    (instances
      (project "bitcart"
        (path "/e63e39d7-6ac0-4ffd-8aa3-1841a4541b55/00000000-0000-0000-0000-00005e328d89"
          (reference "U5") (unit 1)
        )
      )
    )
  )

  (symbol (lib_id "Device:C_Polarized") (at 200.406 62.992 0) (unit 1)
    (in_bom yes) (on_board yes) (dnp no)
    (uuid 6120ff17-681b-4947-aca4-2b9b2a59bd73)
    (property "Reference" "C28" (at 193.421 61.722 0)
      (effects (font (size 1.27 1.27)) (justify left))
    )
    (property "Value" "220uF" (at 190.881 64.262 0)
      (effects (font (size 1.27 1.27)) (justify left))
    )
    (property "Footprint" "Capacitor_SMD:CP_Elec_6.3x7.7" (at 201.3712 66.802 0)
      (effects (font (size 1.27 1.27)) hide)
    )
    (property "Datasheet" "~" (at 200.406 62.992 0)
      (effects (font (size 1.27 1.27)) hide)
    )
    (property "DK" "732-8422-1-ND" (at 200.406 62.992 0)
      (effects (font (size 1.27 1.27)) hide)
    )
    (property "PARTNO" "865080345012" (at 200.406 62.992 0)
      (effects (font (size 1.27 1.27)) hide)
    )
    (pin "1" (uuid 4bb0f93a-ce56-49e9-9f0d-1821392f66ba))
    (pin "2" (uuid df326d21-dad7-4334-9d6a-4d8837693ccd))
    (instances
      (project "fan"
        (path "/e3011397-6e70-47ae-93ca-7e99c3d9ef05"
          (reference "C28") (unit 1)
        )
      )
      (project "bitcart"
        (path "/e63e39d7-6ac0-4ffd-8aa3-1841a4541b55/00000000-0000-0000-0000-00005e328d89"
          (reference "C19") (unit 1)
        )
      )
    )
  )

  (symbol (lib_id "Device:R_US") (at 151.13 50.165 0) (unit 1)
    (in_bom yes) (on_board yes) (dnp no)
    (uuid 86441e6c-db13-440c-8a9c-ac7914244162)
    (property "Reference" "R9" (at 145.415 48.895 0)
      (effects (font (size 1.27 1.27)) (justify left))
    )
    (property "Value" "36K" (at 145.415 51.435 0)
      (effects (font (size 1.27 1.27)) (justify left))
    )
    (property "Footprint" "Resistor_SMD:R_0402_1005Metric" (at 152.146 50.419 90)
      (effects (font (size 1.27 1.27)) hide)
    )
    (property "Datasheet" "~" (at 151.13 50.165 0)
      (effects (font (size 1.27 1.27)) hide)
    )
    (property "DK" "CR0402-FX-3602GLFCT-ND" (at 151.13 50.165 0)
      (effects (font (size 1.27 1.27)) hide)
    )
    (property "PARTNO" "CR0402-FX-3602GLF" (at 151.13 50.165 0)
      (effects (font (size 1.27 1.27)) hide)
    )
    (pin "1" (uuid 321e78ad-9283-417e-a3e2-faa2cfd6bc12))
    (pin "2" (uuid 6ba9cea1-0255-4715-9cf4-b0188633ccab))
    (instances
      (project "bitcart"
        (path "/e63e39d7-6ac0-4ffd-8aa3-1841a4541b55/00000000-0000-0000-0000-00005e328d89"
          (reference "R9") (unit 1)
        )
      )
    )
  )

  (symbol (lib_id "Connector_Generic:Conn_01x04") (at 196.85 43.688 0) (unit 1)
    (in_bom yes) (on_board yes) (dnp no)
    (uuid 96ddc2bc-2e7f-40c8-a8a9-9270e9041b27)
    (property "Reference" "J3" (at 194.945 51.943 0)
      (effects (font (size 1.27 1.27)) (justify left))
    )
    (property "Value" "61900411021" (at 194.31 54.483 0)
      (effects (font (size 1.27 1.27)) (justify left))
    )
    (property "Footprint" "bitcart:CONN_61900411021_WRE" (at 196.85 43.688 0)
      (effects (font (size 1.27 1.27)) hide)
    )
    (property "Datasheet" "https://www.molex.com/pdm_docs/sd/470531000_sd.pdf" (at 196.85 43.688 0)
      (effects (font (size 1.27 1.27)) hide)
    )
    (property "DK" "732-2701-ND" (at 196.85 43.688 0)
      (effects (font (size 1.27 1.27)) hide)
    )
    (property "PARTNO" "61900411021" (at 196.85 43.688 0)
      (effects (font (size 1.27 1.27)) hide)
    )
    (pin "1" (uuid 501434c9-8478-4785-b5dd-f6cf756f2483))
    (pin "2" (uuid b0fbd8e3-9c9b-4954-b1b2-2bc89ef3596b))
    (pin "3" (uuid 131df754-edbb-4cf5-ac7c-ea44b038dd93))
    (pin "4" (uuid 556dfcb8-c5cb-4b63-95d4-3d2e98783255))
    (instances
      (project "bitcart"
        (path "/e63e39d7-6ac0-4ffd-8aa3-1841a4541b55/00000000-0000-0000-0000-00005e328d89"
          (reference "J3") (unit 1)
        )
      )
    )
  )

  (symbol (lib_id "Device:R_US") (at 166.37 50.165 0) (unit 1)
    (in_bom yes) (on_board yes) (dnp no)
    (uuid 983f45ee-1f98-46b8-a84f-030c793401bf)
    (property "Reference" "R11" (at 160.655 48.895 0)
      (effects (font (size 1.27 1.27)) (justify left))
    )
    (property "Value" "36K" (at 160.655 51.435 0)
      (effects (font (size 1.27 1.27)) (justify left))
    )
    (property "Footprint" "Resistor_SMD:R_0402_1005Metric" (at 167.386 50.419 90)
      (effects (font (size 1.27 1.27)) hide)
    )
    (property "Datasheet" "~" (at 166.37 50.165 0)
      (effects (font (size 1.27 1.27)) hide)
    )
    (property "DK" "CR0402-FX-3602GLFCT-ND" (at 166.37 50.165 0)
      (effects (font (size 1.27 1.27)) hide)
    )
    (property "PARTNO" "CR0402-FX-3602GLF" (at 166.37 50.165 0)
      (effects (font (size 1.27 1.27)) hide)
    )
    (pin "1" (uuid 3cf79575-93ea-45b7-9ee3-dbcd5a868d93))
    (pin "2" (uuid 2f2ec34b-4865-41f8-821b-8bf4764d8ae6))
    (instances
      (project "bitcart"
        (path "/e63e39d7-6ac0-4ffd-8aa3-1841a4541b55/00000000-0000-0000-0000-00005e328d89"
          (reference "R11") (unit 1)
        )
      )
    )
  )

  (symbol (lib_id "Device:R_US") (at 158.75 50.165 0) (unit 1)
    (in_bom yes) (on_board yes) (dnp no)
    (uuid a4ea9f16-e8e2-4361-99ff-da285b7cf0cb)
    (property "Reference" "R10" (at 153.035 48.895 0)
      (effects (font (size 1.27 1.27)) (justify left))
    )
    (property "Value" "36K" (at 153.035 51.435 0)
      (effects (font (size 1.27 1.27)) (justify left))
    )
    (property "Footprint" "Resistor_SMD:R_0402_1005Metric" (at 159.766 50.419 90)
      (effects (font (size 1.27 1.27)) hide)
    )
    (property "Datasheet" "~" (at 158.75 50.165 0)
      (effects (font (size 1.27 1.27)) hide)
    )
    (property "DK" "CR0402-FX-3602GLFCT-ND" (at 158.75 50.165 0)
      (effects (font (size 1.27 1.27)) hide)
    )
    (property "PARTNO" "CR0402-FX-3602GLF" (at 158.75 50.165 0)
      (effects (font (size 1.27 1.27)) hide)
    )
    (pin "1" (uuid d05878ed-803b-4b0d-a3e7-77440da14f86))
    (pin "2" (uuid 24369ddc-f15c-42a3-b58b-66491800baf7))
    (instances
      (project "bitcart"
        (path "/e63e39d7-6ac0-4ffd-8aa3-1841a4541b55/00000000-0000-0000-0000-00005e328d89"
          (reference "R10") (unit 1)
        )
      )
    )
  )

  (symbol (lib_id "Device:R_US") (at 173.99 50.165 0) (unit 1)
    (in_bom yes) (on_board yes) (dnp no)
    (uuid b99e034c-8a9e-4bfa-8258-31810e918a1b)
    (property "Reference" "R12" (at 168.275 48.895 0)
      (effects (font (size 1.27 1.27)) (justify left))
    )
    (property "Value" "36K" (at 168.275 51.435 0)
      (effects (font (size 1.27 1.27)) (justify left))
    )
    (property "Footprint" "Resistor_SMD:R_0402_1005Metric" (at 175.006 50.419 90)
      (effects (font (size 1.27 1.27)) hide)
    )
    (property "Datasheet" "~" (at 173.99 50.165 0)
      (effects (font (size 1.27 1.27)) hide)
    )
    (property "DK" "CR0402-FX-3602GLFCT-ND" (at 173.99 50.165 0)
      (effects (font (size 1.27 1.27)) hide)
    )
    (property "PARTNO" "CR0402-FX-3602GLF" (at 173.99 50.165 0)
      (effects (font (size 1.27 1.27)) hide)
    )
    (pin "1" (uuid 3d4beebe-5a0b-4bf2-a206-f3d9213a6135))
    (pin "2" (uuid a8091008-cebb-4883-a3c9-82f021934992))
    (instances
      (project "bitcart"
        (path "/e63e39d7-6ac0-4ffd-8aa3-1841a4541b55/00000000-0000-0000-0000-00005e328d89"
          (reference "R12") (unit 1)
        )
      )
    )
  )

  (symbol (lib_id "Connector_Generic:Conn_01x04") (at 196.85 92.71 0) (unit 1)
    (in_bom yes) (on_board yes) (dnp no)
    (uuid bef7eeaa-acaa-454e-94f6-754ae2a15696)
    (property "Reference" "J5" (at 194.945 100.965 0)
      (effects (font (size 1.27 1.27)) (justify left))
    )
    (property "Value" "61900411021" (at 194.31 103.505 0)
      (effects (font (size 1.27 1.27)) (justify left))
    )
    (property "Footprint" "bitcart:CONN_61900411021_WRE" (at 196.85 92.71 0)
      (effects (font (size 1.27 1.27)) hide)
    )
    (property "Datasheet" "https://www.molex.com/pdm_docs/sd/470531000_sd.pdf" (at 196.85 92.71 0)
      (effects (font (size 1.27 1.27)) hide)
    )
    (property "DK" "732-2701-ND" (at 196.85 92.71 0)
      (effects (font (size 1.27 1.27)) hide)
    )
    (property "PARTNO" "61900411021" (at 196.85 92.71 0)
      (effects (font (size 1.27 1.27)) hide)
    )
    (pin "1" (uuid ac15478d-c278-42c3-907a-10383dbb9ba9))
    (pin "2" (uuid 2557edbb-c1dc-47aa-9f0f-7cb470c9d6f8))
    (pin "3" (uuid f21733e7-c7da-4461-980e-2bdceaf3ab55))
    (pin "4" (uuid f95ed111-c524-43e8-9534-f6ebed94b842))
    (instances
      (project "bitcart"
        (path "/e63e39d7-6ac0-4ffd-8aa3-1841a4541b55/00000000-0000-0000-0000-00005e328d89"
          (reference "J5") (unit 1)
        )
      )
    )
  )

  (symbol (lib_id "Device:C") (at 206.502 112.014 0) (mirror y) (unit 1)
    (in_bom yes) (on_board yes) (dnp no)
    (uuid d7c565ee-8efe-4b2f-b291-c387a0c31e67)
    (property "Reference" "C29" (at 210.947 110.744 0)
      (effects (font (size 1.27 1.27)) (justify left bottom))
    )
    (property "Value" "0.1uF" (at 212.852 115.189 0)
      (effects (font (size 1.27 1.27)) (justify left bottom))
    )
    (property "Footprint" "Capacitor_SMD:C_0402_1005Metric" (at 206.502 112.014 0)
      (effects (font (size 1.27 1.27)) hide)
    )
    (property "Datasheet" "" (at 206.502 112.014 0)
      (effects (font (size 1.27 1.27)) hide)
    )
    (property "DK" "1292-1639-1-ND" (at 206.502 112.014 0)
      (effects (font (size 1.27 1.27)) hide)
    )
    (property "PARTNO" "0402X104K100CT" (at 206.502 112.014 0)
      (effects (font (size 1.27 1.27)) hide)
    )
    (pin "1" (uuid d78a5309-4523-4caf-92d6-78c8177c0685))
    (pin "2" (uuid e19908d0-ba3e-4cc7-b5da-3431c2406f58))
    (instances
      (project "fan"
        (path "/e3011397-6e70-47ae-93ca-7e99c3d9ef05"
          (reference "C29") (unit 1)
        )
      )
      (project "bitcart"
        (path "/e63e39d7-6ac0-4ffd-8aa3-1841a4541b55/00000000-0000-0000-0000-00005e328d89"
          (reference "C20") (unit 1)
        )
      )
    )
  )

  (symbol (lib_id "Connector_Generic:Conn_01x04") (at 196.85 74.93 0) (unit 1)
    (in_bom yes) (on_board yes) (dnp no)
    (uuid e405ec0f-204d-4793-ad4c-230ce9cfa805)
    (property "Reference" "J4" (at 194.945 83.185 0)
      (effects (font (size 1.27 1.27)) (justify left))
    )
    (property "Value" "61900411021" (at 194.31 85.725 0)
      (effects (font (size 1.27 1.27)) (justify left))
    )
    (property "Footprint" "bitcart:CONN_61900411021_WRE" (at 196.85 74.93 0)
      (effects (font (size 1.27 1.27)) hide)
    )
    (property "Datasheet" "https://www.molex.com/pdm_docs/sd/470531000_sd.pdf" (at 196.85 74.93 0)
      (effects (font (size 1.27 1.27)) hide)
    )
    (property "DK" "732-2701-ND" (at 196.85 74.93 0)
      (effects (font (size 1.27 1.27)) hide)
    )
    (property "PARTNO" "61900411021" (at 196.85 74.93 0)
      (effects (font (size 1.27 1.27)) hide)
    )
    (pin "1" (uuid 0c6b38ac-0998-4d1c-a212-43ff909744c0))
    (pin "2" (uuid 53d0d43d-5eb6-4222-8be6-0523560fd319))
    (pin "3" (uuid 362a98cc-946d-4fdd-8c92-a146b186fbce))
    (pin "4" (uuid 16f4fc8b-cf05-46ca-b973-4489ddd41dcb))
    (instances
      (project "bitcart"
        (path "/e63e39d7-6ac0-4ffd-8aa3-1841a4541b55/00000000-0000-0000-0000-00005e328d89"
          (reference "J4") (unit 1)
        )
      )
    )
  )
)
