(kicad_pcb (version 20221018) (generator pcbnew)

  (general
    (thickness 1.6)
  )

  (paper "A4")
  (layers
    (0 "F.Cu" signal)
    (31 "B.Cu" signal)
    (32 "B.Adhes" user "B.Adhesive")
    (33 "F.Adhes" user "F.Adhesive")
    (34 "B.Paste" user)
    (35 "F.Paste" user)
    (36 "B.SilkS" user "B.Silkscreen")
    (37 "F.SilkS" user "F.Silkscreen")
    (38 "B.Mask" user)
    (39 "F.Mask" user)
    (40 "Dwgs.User" user "User.Drawings")
    (41 "Cmts.User" user "User.Comments")
    (42 "Eco1.User" user "User.Eco1")
    (43 "Eco2.User" user "User.Eco2")
    (44 "Edge.Cuts" user)
    (45 "Margin" user)
    (46 "B.CrtYd" user "B.Courtyard")
    (47 "F.CrtYd" user "F.Courtyard")
    (48 "B.Fab" user)
    (49 "F.Fab" user)
    (50 "User.1" user)
    (51 "User.2" user)
    (52 "User.3" user)
    (53 "User.4" user)
    (54 "User.5" user)
    (55 "User.6" user)
    (56 "User.7" user)
    (57 "User.8" user)
    (58 "User.9" user)
  )

  (setup
    (stackup
      (layer "F.SilkS" (type "Top Silk Screen"))
      (layer "F.Paste" (type "Top Solder Paste"))
      (layer "F.Mask" (type "Top Solder Mask") (thickness 0.01))
      (layer "F.Cu" (type "copper") (thickness 0.035))
      (layer "dielectric 1" (type "core") (thickness 1.51) (material "FR4") (epsilon_r 4.5) (loss_tangent 0.02))
      (layer "B.Cu" (type "copper") (thickness 0.035))
      (layer "B.Mask" (type "Bottom Solder Mask") (thickness 0.01))
      (layer "B.Paste" (type "Bottom Solder Paste"))
      (layer "B.SilkS" (type "Bottom Silk Screen"))
      (copper_finish "None")
      (dielectric_constraints no)
    )
    (pad_to_mask_clearance 0)
    (aux_axis_origin 147.75 98.25)
    (pcbplotparams
      (layerselection 0x00010fc_ffffffff)
      (plot_on_all_layers_selection 0x0000000_00000000)
      (disableapertmacros false)
      (usegerberextensions false)
      (usegerberattributes true)
      (usegerberadvancedattributes true)
      (creategerberjobfile true)
      (dashed_line_dash_ratio 12.000000)
      (dashed_line_gap_ratio 3.000000)
      (svgprecision 6)
      (plotframeref false)
      (viasonmask false)
      (mode 1)
      (useauxorigin false)
      (hpglpennumber 1)
      (hpglpenspeed 20)
      (hpglpendiameter 15.000000)
      (dxfpolygonmode true)
      (dxfimperialunits true)
      (dxfusepcbnewfont true)
      (psnegative false)
      (psa4output false)
      (plotreference true)
      (plotvalue true)
      (plotinvisibletext false)
      (sketchpadsonfab false)
      (subtractmaskfromsilk false)
      (outputformat 1)
      (mirror false)
      (drillshape 1)
      (scaleselection 1)
      (outputdirectory "")
    )
  )

  (net 0 "")
  (net 1 "/gnd")

  (footprint "TestPoint:TestPoint_Pad_1.0x1.0mm" (layer "F.Cu")
    (tstamp 842a4065-a7e0-4915-8206-25ef40a95d33)
    (at 147.75 98.25)
    (descr "SMD rectangular pad as test Point, square 1.0mm side length")
    (tags "test point SMD pad rectangle square")
    (property "Sheetfile" "blade.kicad_sch")
    (property "Sheetname" "")
    (path "/8fa1b62e-f977-408f-9490-318a4b754ed3")
    (attr smd exclude_from_pos_files)
    (fp_text reference "J1" (at 0 -10.45) (layer "B.SilkS")
        (effects (font (size 0.4 0.4) (thickness 0.1)) (justify mirror))
      (tstamp d28d1567-9107-40c6-9229-5da34fbdff9d)
    )
    (fp_text value "blade" (at 0 11.75) (layer "F.Fab")
        (effects (font (size 1 1) (thickness 0.15)))
      (tstamp 36cbe229-931d-4dde-bf38-f34ded386103)
    )
    (fp_circle (center 0 0) (end 2.8 0)
      (stroke (width 0.1) (type solid)) (fill none) (layer "B.SilkS") (tstamp 86933ee7-ab29-4ffb-9fec-9126335f09be))
    (fp_circle (center 0 0) (end 9.5 0)
      (stroke (width 0.1) (type solid)) (fill none) (layer "B.SilkS") (tstamp 4f31fe74-f749-4d51-9c6d-d5ad8cc5d222))
    (fp_circle (center 0 0) (end 2.8 0)
      (stroke (width 0.1) (type solid)) (fill none) (layer "F.SilkS") (tstamp 5555e64d-f84b-456e-af2f-a0519b4f07c7))
    (pad "" np_thru_hole circle (at 0 0) (size 2.8 2.8) (drill 2.8) (layers "F&B.Cu" "*.Mask")
      (net 1 "/gnd") (tstamp d31b1519-8fd1-408f-b1ef-80644f3e4445))
    (pad "1" smd custom (at 0 0) (size 0.001 0.001) (layers "F.Cu" "F.Mask")
      (net 1 "/gnd") (pinfunction "Pin_1") (pintype "passive") (thermal_bridge_angle 45)
      (options (clearance outline) (anchor circle))
      (primitives
        (gr_circle (center 0 0) (end 4 0) (width 2) (fill none))
      ) (tstamp 072df50b-587d-4693-bc61-b94a3e09a830))
    (pad "1" smd custom (at 0 7.75) (size 1.524 1.524) (layers "B.Cu" "B.Mask")
      (net 1 "/gnd") (pinfunction "Pin_1") (pintype "passive") (thermal_bridge_angle 45)
      (options (clearance outline) (anchor circle))
      (primitives
        (gr_poly
          (pts
            (arc (start -5.306355 -15.327055) (mid -0.000108 1.500612) (end 5.305222 -15.327344))
            (arc (start 3.584493 -12.869888) (mid -0.000963 -1.499388) (end -3.584225 -12.870579))
          )
          (width 0.01) (fill yes))
      ) (tstamp a6537d4f-2b41-459c-8fa5-db3ee9453945))
    (pad "2" smd custom (at 0 0) (size 0.001 0.001) (layers "F.Cu" "F.Mask")
      (net 1 "/gnd") (pinfunction "Pin_2") (pintype "passive") (thermal_bridge_angle 45)
      (options (clearance outline) (anchor circle))
      (primitives
        (gr_circle (center 0 0) (end 6.55 0) (width 2.6) (fill none))
      ) (tstamp d289c9ad-f718-4e07-99fc-ec22438553bd))
    (pad "2" smd custom (at 0 4.5) (size 1.524 1.524) (layers "B.Cu" "B.Mask")
      (net 1 "/gnd") (pinfunction "Pin_2") (pintype "passive") (thermal_bridge_angle 45)
      (options (clearance outline) (anchor circle))
      (primitives
        (gr_poly
          (pts
            (arc (start -1.720641 -6.957518) (mid -0.000054 -1.5) (end 1.720729 -6.957456))
            (arc (start 3.441099 -9.4151) (mid 0.000199 1.500612) (end -3.442734 -9.414458))
          )
          (width 0.01) (fill yes))
      ) (tstamp d6dcca49-b40f-4bff-bf21-a7241e1ce44f))
    (pad "3" smd custom (at 0 -4) (size 1.524 1.524) (layers "B.Cu" "B.Mask")
      (net 1 "/gnd") (pinfunction "Pin_3") (pintype "passive") (thermal_bridge_angle 45)
      (options (clearance outline) (anchor circle))
      (primitives
        (gr_poly
          (pts
            (arc (start 1.268065 1.281175) (mid 0.000116 1) (end -1.267855 1.281077))
            (arc (start -3.909219 -4.383347) (mid -0.001678 -5.25) (end 3.906178 -4.384765))
          )
          (width 0.01) (fill yes))
      ) (tstamp 99d29720-b496-4341-862c-aa5c6db4403a))
    (pad "3" smd custom (at 0 0) (size 0.001 0.001) (layers "F.Cu" "F.Mask")
      (net 1 "/gnd") (pinfunction "Pin_3") (pintype "passive") (thermal_bridge_angle 45)
      (options (clearance outline) (anchor circle))
      (primitives
        (gr_circle (center 0 0) (end 9.4 0) (width 2.6) (fill none))
      ) (tstamp 40c66ae1-2913-4d9a-89de-988b106e9c6f))
  )

  (gr_circle (center 147.75 98.25) (end 158.85 98.25)
    (stroke (width 0.1) (type solid)) (fill none) (layer "Edge.Cuts") (tstamp db7f994f-f43b-431e-8d74-eb7bea37af04))
  (gr_text "vbatt" (at 147.75 100.55) (layer "B.SilkS") (tstamp 27fb053e-0567-4ce4-a5b0-510bbcdb41fe)
    (effects (font (size 0.4 0.4) (thickness 0.1)) (justify mirror))
  )
  (gr_text "gnd" (at 147.75 108.15) (layer "B.SilkS") (tstamp 4384d439-33be-4d95-99e6-ebeb8f20ab86)
    (effects (font (size 0.4 0.4) (thickness 0.1)) (justify mirror))
  )
  (gr_text "data" (at 147.75 88.4) (layer "B.SilkS") (tstamp 4e530281-9a4c-49dc-8ef7-8f42fedada41)
    (effects (font (size 0.4 0.4) (thickness 0.1)) (justify mirror))
  )
  (gr_text "blade\nmatt tran" (at 147.75 96.25) (layer "F.SilkS") (tstamp def37f08-198f-4dfe-84d7-e6f6421771ed)
    (effects (font (size 0.4 0.4) (thickness 0.1)))
  )

  (via (at 152.643044 95.425) (size 0.508) (drill 0.254) (layers "F.Cu" "B.Cu") (net 1) (tstamp 00d73e70-639f-4257-ac0a-76b21fecfc8f))
  (via (at 142.185836 97.268888) (size 0.508) (drill 0.254) (layers "F.Cu" "B.Cu") (net 1) (tstamp 04d90603-5d40-40d5-bdd1-c5ebf030f264))
  (via (at 147.75 103.9) (size 0.508) (drill 0.254) (layers "F.Cu" "B.Cu") (net 1) (tstamp 07ce109e-568c-4536-8125-c9a08aec0b27))
  (via (at 153.213695 91.738622) (size 0.508) (drill 0.254) (layers "F.Cu" "B.Cu") (free) (net 1) (tstamp 0dd2acf3-f0cd-4c37-9ec9-130a7675a81e))
  (via (at 142.286305 91.738622) (size 0.508) (drill 0.254) (layers "F.Cu" "B.Cu") (free) (net 1) (tstamp 23127b20-2f02-452a-92b3-dab52baeaeea))
  (via (at 155.111216 94) (size 0.508) (drill 0.254) (layers "F.Cu" "B.Cu") (free) (net 1) (tstamp 2534a194-c98c-424e-a029-0e196c676f29))
  (via (at 152.643044 101.075) (size 0.508) (drill 0.254) (layers "F.Cu" "B.Cu") (net 1) (tstamp 29e65842-8534-4f11-b269-36833d69fb37))
  (via (at 153.314164 97.268888) (size 0.508) (drill 0.254) (layers "F.Cu" "B.Cu") (net 1) (tstamp 2b8da33a-0b5c-4097-87f9-7b062f5987f3))
  (via (at 156.120866 99.72601) (size 0.508) (drill 0.254) (layers "F.Cu" "B.Cu") (free) (net 1) (tstamp 2d6a41ad-ebc9-48b3-b38f-7f82a202b2bc))
  (via (at 140.388784 94) (size 0.508) (drill 0.254) (layers "F.Cu" "B.Cu") (free) (net 1) (tstamp 32a03d86-2189-47b6-81f0-e7b1d1873b76))
  (via (at 146.552929 94.961076) (size 0.508) (drill 0.254) (layers "F.Cu" "B.Cu") (net 1) (tstamp 3616192c-9515-4981-b4a0-6eb1ddd09607))
  (via (at 144.11825 102.578151) (size 0.508) (drill 0.254) (layers "F.Cu" "B.Cu") (net 1) (tstamp 458033db-4681-404b-8512-9e95c080fbde))
  (via (at 151.38175 93.921849) (size 0.508) (drill 0.254) (layers "F.Cu" "B.Cu") (net 1) (tstamp 4db40aa8-9049-4b37-b23a-7a6882dd2ee2))
  (via (at 149.682414 103.559263) (size 0.508) (drill 0.254) (layers "F.Cu" "B.Cu") (net 1) (tstamp 6dc09e19-5c84-4e74-b0a0-54f96d2e298a))
  (via (at 142.856956 101.075) (size 0.508) (drill 0.254) (layers "F.Cu" "B.Cu") (net 1) (tstamp 6e56ebfb-a4fb-4445-9574-a954f0e036bd))
  (via (at 144.842829 106.237387) (size 0.508) (drill 0.254) (layers "F.Cu" "B.Cu") (free) (net 1) (tstamp 7993534f-d400-443f-b05d-c0cf141b40af))
  (via (at 148.947071 94.961076) (size 0.508) (drill 0.254) (layers "F.Cu" "B.Cu") (net 1) (tstamp 7f3cdb5f-70be-4b8e-84c1-8610dc14d878))
  (via (at 140.388784 102.5) (size 0.508) (drill 0.254) (layers "F.Cu" "B.Cu") (free) (net 1) (tstamp 81cf26c7-f53d-4663-941c-276164434365))
  (via (at 142.856956 95.425) (size 0.508) (drill 0.254) (layers "F.Cu" "B.Cu") (net 1) (tstamp 8c798ba2-ad31-4771-90e7-0f26ab24d1a7))
  (via (at 139.379134 99.72601) (size 0.508) (drill 0.254) (layers "F.Cu" "B.Cu") (free) (net 1) (tstamp 8dc4e37f-8cc8-4742-86b1-59e04f47f473))
  (via (at 151.38175 102.578151) (size 0.508) (drill 0.254) (layers "F.Cu" "B.Cu") (net 1) (tstamp a02d9c8f-14c4-4a2b-ab54-784d57847752))
  (via (at 139.379134 96.77399) (size 0.508) (drill 0.254) (layers "F.Cu" "B.Cu") (free) (net 1) (tstamp a429bc67-24a7-4cc7-9672-57b4f873a785))
  (via (at 150.657171 106.237387) (size 0.508) (drill 0.254) (layers "F.Cu" "B.Cu") (free) (net 1) (tstamp a9c57cb5-327a-4660-80af-5d3214d7cb29))
  (via (at 142.286305 104.761378) (size 0.508) (drill 0.254) (layers "F.Cu" "B.Cu") (free) (net 1) (tstamp b16513c6-13fc-443d-89d0-e1b21c8921dc))
  (via (at 147.75 94.75) (size 0.508) (drill 0.254) (layers "F.Cu" "B.Cu") (net 1) (tstamp b7f2439f-428d-4fb9-bd9f-3e4c169dd4ed))
  (via (at 156.120866 96.77399) (size 0.508) (drill 0.254) (layers "F.Cu" "B.Cu") (free) (net 1) (tstamp c4586900-d2a6-450d-b511-11ce29160aa4))
  (via (at 147.75 106.75) (size 0.508) (drill 0.254) (layers "F.Cu" "B.Cu") (free) (net 1) (tstamp c45a57b7-8523-4385-abd5-bc8c08065499))
  (via (at 153.213695 104.761378) (size 0.508) (drill 0.254) (layers "F.Cu" "B.Cu") (free) (net 1) (tstamp c5474b98-5cc9-44a8-9b1d-7501e19c749d))
  (via (at 144.11825 93.921849) (size 0.508) (drill 0.254) (layers "F.Cu" "B.Cu") (net 1) (tstamp dda42bae-93b5-4a5b-ab34-0bc46ddb72d5))
  (via (at 153.314164 99.231112) (size 0.508) (drill 0.254) (layers "F.Cu" "B.Cu") (net 1) (tstamp e3c3053a-2507-425b-9c34-f00a2d67677d))
  (via (at 155.111216 102.5) (size 0.508) (drill 0.254) (layers "F.Cu" "B.Cu") (free) (net 1) (tstamp f3a8c77c-9ba3-4a06-baf8-dbdcae91b191))
  (via (at 142.185836 99.231112) (size 0.508) (drill 0.254) (layers "F.Cu" "B.Cu") (net 1) (tstamp fbf1f7c9-d72a-4235-9e24-80f1e5e4d10e))
  (via (at 145.817586 103.559263) (size 0.508) (drill 0.254) (layers "F.Cu" "B.Cu") (net 1) (tstamp fc5a87a4-bf34-4935-9095-80c529eea9d4))

)
