(kicad_sch (version 20230121) (generator eeschema)

  (uuid 3d79d0da-8f51-438a-bc9e-e7450f89b514)

  (paper "A4")

  (title_block
    (title "I2C_Module_SHT45_BME280_small_FUEL4EP")
    (date "2024-04-16")
    (rev "1.3")
    (company "FUEL4EP")
    (comment 1 "fitting to  HB_Stamp_ATMega1284P_FUEL4EP")
    (comment 2 "Creative Commons License, non-commercial")
  )

  (lib_symbols
    (symbol "Connector_Generic:Conn_01x04" (pin_names (offset 1.016) hide) (in_bom yes) (on_board yes)
      (property "Reference" "J" (at 0 5.08 0)
        (effects (font (size 1.27 1.27)))
      )
      (property "Value" "Conn_01x04" (at 0 -7.62 0)
        (effects (font (size 1.27 1.27)))
      )
      (property "Footprint" "" (at 0 0 0)
        (effects (font (size 1.27 1.27)) hide)
      )
      (property "Datasheet" "~" (at 0 0 0)
        (effects (font (size 1.27 1.27)) hide)
      )
      (property "ki_keywords" "connector" (at 0 0 0)
        (effects (font (size 1.27 1.27)) hide)
      )
      (property "ki_description" "Generic connector, single row, 01x04, script generated (kicad-library-utils/schlib/autogen/connector/)" (at 0 0 0)
        (effects (font (size 1.27 1.27)) hide)
      )
      (property "ki_fp_filters" "Connector*:*_1x??_*" (at 0 0 0)
        (effects (font (size 1.27 1.27)) hide)
      )
      (symbol "Conn_01x04_1_1"
        (rectangle (start -1.27 -4.953) (end 0 -5.207)
          (stroke (width 0.1524) (type default))
          (fill (type none))
        )
        (rectangle (start -1.27 -2.413) (end 0 -2.667)
          (stroke (width 0.1524) (type default))
          (fill (type none))
        )
        (rectangle (start -1.27 0.127) (end 0 -0.127)
          (stroke (width 0.1524) (type default))
          (fill (type none))
        )
        (rectangle (start -1.27 2.667) (end 0 2.413)
          (stroke (width 0.1524) (type default))
          (fill (type none))
        )
        (rectangle (start -1.27 3.81) (end 1.27 -6.35)
          (stroke (width 0.254) (type default))
          (fill (type background))
        )
        (pin passive line (at -5.08 2.54 0) (length 3.81)
          (name "Pin_1" (effects (font (size 1.27 1.27))))
          (number "1" (effects (font (size 1.27 1.27))))
        )
        (pin passive line (at -5.08 0 0) (length 3.81)
          (name "Pin_2" (effects (font (size 1.27 1.27))))
          (number "2" (effects (font (size 1.27 1.27))))
        )
        (pin passive line (at -5.08 -2.54 0) (length 3.81)
          (name "Pin_3" (effects (font (size 1.27 1.27))))
          (number "3" (effects (font (size 1.27 1.27))))
        )
        (pin passive line (at -5.08 -5.08 0) (length 3.81)
          (name "Pin_4" (effects (font (size 1.27 1.27))))
          (number "4" (effects (font (size 1.27 1.27))))
        )
      )
    )
    (symbol "Device:C" (pin_numbers hide) (pin_names (offset 0.254)) (in_bom yes) (on_board yes)
      (property "Reference" "C" (at 0.635 2.54 0)
        (effects (font (size 1.27 1.27)) (justify left))
      )
      (property "Value" "C" (at 0.635 -2.54 0)
        (effects (font (size 1.27 1.27)) (justify left))
      )
      (property "Footprint" "" (at 0.9652 -3.81 0)
        (effects (font (size 1.27 1.27)) hide)
      )
      (property "Datasheet" "~" (at 0 0 0)
        (effects (font (size 1.27 1.27)) hide)
      )
      (property "ki_keywords" "cap capacitor" (at 0 0 0)
        (effects (font (size 1.27 1.27)) hide)
      )
      (property "ki_description" "Unpolarized capacitor" (at 0 0 0)
        (effects (font (size 1.27 1.27)) hide)
      )
      (property "ki_fp_filters" "C_*" (at 0 0 0)
        (effects (font (size 1.27 1.27)) hide)
      )
      (symbol "C_0_1"
        (polyline
          (pts
            (xy -2.032 -0.762)
            (xy 2.032 -0.762)
          )
          (stroke (width 0.508) (type default))
          (fill (type none))
        )
        (polyline
          (pts
            (xy -2.032 0.762)
            (xy 2.032 0.762)
          )
          (stroke (width 0.508) (type default))
          (fill (type none))
        )
      )
      (symbol "C_1_1"
        (pin passive line (at 0 3.81 270) (length 2.794)
          (name "~" (effects (font (size 1.27 1.27))))
          (number "1" (effects (font (size 1.27 1.27))))
        )
        (pin passive line (at 0 -3.81 90) (length 2.794)
          (name "~" (effects (font (size 1.27 1.27))))
          (number "2" (effects (font (size 1.27 1.27))))
        )
      )
    )
    (symbol "Device:FerriteBead" (pin_numbers hide) (pin_names (offset 0)) (in_bom yes) (on_board yes)
      (property "Reference" "FB" (at -3.81 0.635 90)
        (effects (font (size 1.27 1.27)))
      )
      (property "Value" "FerriteBead" (at 3.81 0 90)
        (effects (font (size 1.27 1.27)))
      )
      (property "Footprint" "" (at -1.778 0 90)
        (effects (font (size 1.27 1.27)) hide)
      )
      (property "Datasheet" "~" (at 0 0 0)
        (effects (font (size 1.27 1.27)) hide)
      )
      (property "ki_keywords" "L ferrite bead inductor filter" (at 0 0 0)
        (effects (font (size 1.27 1.27)) hide)
      )
      (property "ki_description" "Ferrite bead" (at 0 0 0)
        (effects (font (size 1.27 1.27)) hide)
      )
      (property "ki_fp_filters" "Inductor_* L_* *Ferrite*" (at 0 0 0)
        (effects (font (size 1.27 1.27)) hide)
      )
      (symbol "FerriteBead_0_1"
        (polyline
          (pts
            (xy 0 -1.27)
            (xy 0 -1.2192)
          )
          (stroke (width 0) (type default))
          (fill (type none))
        )
        (polyline
          (pts
            (xy 0 1.27)
            (xy 0 1.2954)
          )
          (stroke (width 0) (type default))
          (fill (type none))
        )
        (polyline
          (pts
            (xy -2.7686 0.4064)
            (xy -1.7018 2.2606)
            (xy 2.7686 -0.3048)
            (xy 1.6764 -2.159)
            (xy -2.7686 0.4064)
          )
          (stroke (width 0) (type default))
          (fill (type none))
        )
      )
      (symbol "FerriteBead_1_1"
        (pin passive line (at 0 3.81 270) (length 2.54)
          (name "~" (effects (font (size 1.27 1.27))))
          (number "1" (effects (font (size 1.27 1.27))))
        )
        (pin passive line (at 0 -3.81 90) (length 2.54)
          (name "~" (effects (font (size 1.27 1.27))))
          (number "2" (effects (font (size 1.27 1.27))))
        )
      )
    )
    (symbol "Device:R" (pin_numbers hide) (pin_names (offset 0)) (in_bom yes) (on_board yes)
      (property "Reference" "R" (at 2.032 0 90)
        (effects (font (size 1.27 1.27)))
      )
      (property "Value" "R" (at 0 0 90)
        (effects (font (size 1.27 1.27)))
      )
      (property "Footprint" "" (at -1.778 0 90)
        (effects (font (size 1.27 1.27)) hide)
      )
      (property "Datasheet" "~" (at 0 0 0)
        (effects (font (size 1.27 1.27)) hide)
      )
      (property "ki_keywords" "R res resistor" (at 0 0 0)
        (effects (font (size 1.27 1.27)) hide)
      )
      (property "ki_description" "Resistor" (at 0 0 0)
        (effects (font (size 1.27 1.27)) hide)
      )
      (property "ki_fp_filters" "R_*" (at 0 0 0)
        (effects (font (size 1.27 1.27)) hide)
      )
      (symbol "R_0_1"
        (rectangle (start -1.016 -2.54) (end 1.016 2.54)
          (stroke (width 0.254) (type default))
          (fill (type none))
        )
      )
      (symbol "R_1_1"
        (pin passive line (at 0 3.81 270) (length 1.27)
          (name "~" (effects (font (size 1.27 1.27))))
          (number "1" (effects (font (size 1.27 1.27))))
        )
        (pin passive line (at 0 -3.81 90) (length 1.27)
          (name "~" (effects (font (size 1.27 1.27))))
          (number "2" (effects (font (size 1.27 1.27))))
        )
      )
    )
    (symbol "Graphic:Logo_Open_Hardware_Small" (in_bom no) (on_board no)
      (property "Reference" "#SYM" (at 0 6.985 0)
        (effects (font (size 1.27 1.27)) hide)
      )
      (property "Value" "Logo_Open_Hardware_Small" (at 0 -5.715 0)
        (effects (font (size 1.27 1.27)) hide)
      )
      (property "Footprint" "" (at 0 0 0)
        (effects (font (size 1.27 1.27)) hide)
      )
      (property "Datasheet" "~" (at 0 0 0)
        (effects (font (size 1.27 1.27)) hide)
      )
      (property "Sim.Enable" "0" (at 0 0 0)
        (effects (font (size 1.27 1.27)) hide)
      )
      (property "ki_keywords" "Logo" (at 0 0 0)
        (effects (font (size 1.27 1.27)) hide)
      )
      (property "ki_description" "Open Hardware logo, small" (at 0 0 0)
        (effects (font (size 1.27 1.27)) hide)
      )
      (symbol "Logo_Open_Hardware_Small_0_1"
        (polyline
          (pts
            (xy 3.3528 -4.3434)
            (xy 3.302 -4.318)
            (xy 3.175 -4.2418)
            (xy 2.9972 -4.1148)
            (xy 2.7686 -3.9624)
            (xy 2.54 -3.81)
            (xy 2.3622 -3.7084)
            (xy 2.2352 -3.6068)
            (xy 2.1844 -3.5814)
            (xy 2.159 -3.6068)
            (xy 2.0574 -3.6576)
            (xy 1.905 -3.7338)
            (xy 1.8034 -3.7846)
            (xy 1.6764 -3.8354)
            (xy 1.6002 -3.8354)
            (xy 1.6002 -3.8354)
            (xy 1.5494 -3.7338)
            (xy 1.4732 -3.5306)
            (xy 1.3462 -3.302)
            (xy 1.2446 -3.0226)
            (xy 1.1176 -2.7178)
            (xy 0.9652 -2.413)
            (xy 0.8636 -2.1082)
            (xy 0.7366 -1.8288)
            (xy 0.6604 -1.6256)
            (xy 0.6096 -1.4732)
            (xy 0.5842 -1.397)
            (xy 0.5842 -1.397)
            (xy 0.6604 -1.3208)
            (xy 0.7874 -1.2446)
            (xy 1.0414 -1.016)
            (xy 1.2954 -0.6858)
            (xy 1.4478 -0.3302)
            (xy 1.524 0.0762)
            (xy 1.4732 0.4572)
            (xy 1.3208 0.8128)
            (xy 1.0668 1.143)
            (xy 0.762 1.3716)
            (xy 0.4064 1.524)
            (xy 0 1.5748)
            (xy -0.381 1.5494)
            (xy -0.7366 1.397)
            (xy -1.0668 1.143)
            (xy -1.2192 0.9906)
            (xy -1.397 0.6604)
            (xy -1.524 0.3048)
            (xy -1.524 0.2286)
            (xy -1.4986 -0.1778)
            (xy -1.397 -0.5334)
            (xy -1.1938 -0.8636)
            (xy -0.9144 -1.143)
            (xy -0.8636 -1.1684)
            (xy -0.7366 -1.27)
            (xy -0.635 -1.3462)
            (xy -0.5842 -1.397)
            (xy -1.0668 -2.5908)
            (xy -1.143 -2.794)
            (xy -1.2954 -3.1242)
            (xy -1.397 -3.4036)
            (xy -1.4986 -3.6322)
            (xy -1.5748 -3.7846)
            (xy -1.6002 -3.8354)
            (xy -1.6002 -3.8354)
            (xy -1.651 -3.8354)
            (xy -1.7272 -3.81)
            (xy -1.905 -3.7338)
            (xy -2.0066 -3.683)
            (xy -2.1336 -3.6068)
            (xy -2.2098 -3.5814)
            (xy -2.2606 -3.6068)
            (xy -2.3622 -3.683)
            (xy -2.54 -3.81)
            (xy -2.7686 -3.9624)
            (xy -2.9718 -4.0894)
            (xy -3.1496 -4.2164)
            (xy -3.302 -4.318)
            (xy -3.3528 -4.3434)
            (xy -3.3782 -4.3434)
            (xy -3.429 -4.318)
            (xy -3.5306 -4.2164)
            (xy -3.7084 -4.064)
            (xy -3.937 -3.8354)
            (xy -3.9624 -3.81)
            (xy -4.1656 -3.6068)
            (xy -4.318 -3.4544)
            (xy -4.4196 -3.3274)
            (xy -4.445 -3.2766)
            (xy -4.445 -3.2766)
            (xy -4.4196 -3.2258)
            (xy -4.318 -3.0734)
            (xy -4.2164 -2.8956)
            (xy -4.064 -2.667)
            (xy -3.6576 -2.0828)
            (xy -3.8862 -1.5494)
            (xy -3.937 -1.3716)
            (xy -4.0386 -1.1684)
            (xy -4.0894 -1.0414)
            (xy -4.1148 -0.9652)
            (xy -4.191 -0.9398)
            (xy -4.318 -0.9144)
            (xy -4.5466 -0.8636)
            (xy -4.8006 -0.8128)
            (xy -5.0546 -0.7874)
            (xy -5.2578 -0.7366)
            (xy -5.4356 -0.7112)
            (xy -5.5118 -0.6858)
            (xy -5.5118 -0.6858)
            (xy -5.5372 -0.635)
            (xy -5.5372 -0.5588)
            (xy -5.5372 -0.4318)
            (xy -5.5626 -0.2286)
            (xy -5.5626 0.0762)
            (xy -5.5626 0.127)
            (xy -5.5372 0.4064)
            (xy -5.5372 0.635)
            (xy -5.5372 0.762)
            (xy -5.5372 0.8382)
            (xy -5.5372 0.8382)
            (xy -5.461 0.8382)
            (xy -5.3086 0.889)
            (xy -5.08 0.9144)
            (xy -4.826 0.9652)
            (xy -4.8006 0.9906)
            (xy -4.5466 1.0414)
            (xy -4.318 1.0668)
            (xy -4.1656 1.1176)
            (xy -4.0894 1.143)
            (xy -4.0894 1.143)
            (xy -4.0386 1.2446)
            (xy -3.9624 1.4224)
            (xy -3.8608 1.6256)
            (xy -3.7846 1.8288)
            (xy -3.7084 2.0066)
            (xy -3.6576 2.159)
            (xy -3.6322 2.2098)
            (xy -3.6322 2.2098)
            (xy -3.683 2.286)
            (xy -3.7592 2.413)
            (xy -3.8862 2.5908)
            (xy -4.064 2.8194)
            (xy -4.064 2.8448)
            (xy -4.2164 3.0734)
            (xy -4.3434 3.2512)
            (xy -4.4196 3.3782)
            (xy -4.445 3.4544)
            (xy -4.445 3.4544)
            (xy -4.3942 3.5052)
            (xy -4.2926 3.6322)
            (xy -4.1148 3.81)
            (xy -3.937 4.0132)
            (xy -3.8608 4.064)
            (xy -3.6576 4.2926)
            (xy -3.5052 4.4196)
            (xy -3.4036 4.4958)
            (xy -3.3528 4.5212)
            (xy -3.3528 4.5212)
            (xy -3.302 4.4704)
            (xy -3.1496 4.3688)
            (xy -2.9718 4.2418)
            (xy -2.7432 4.0894)
            (xy -2.7178 4.0894)
            (xy -2.4892 3.937)
            (xy -2.3114 3.81)
            (xy -2.1844 3.7084)
            (xy -2.1336 3.683)
            (xy -2.1082 3.683)
            (xy -2.032 3.7084)
            (xy -1.8542 3.7592)
            (xy -1.6764 3.8354)
            (xy -1.4732 3.937)
            (xy -1.27 4.0132)
            (xy -1.143 4.064)
            (xy -1.0668 4.1148)
            (xy -1.0668 4.1148)
            (xy -1.0414 4.191)
            (xy -1.016 4.3434)
            (xy -0.9652 4.572)
            (xy -0.9144 4.8514)
            (xy -0.889 4.9022)
            (xy -0.8382 5.1562)
            (xy -0.8128 5.3848)
            (xy -0.7874 5.5372)
            (xy -0.762 5.588)
            (xy -0.7112 5.6134)
            (xy -0.5842 5.6134)
            (xy -0.4064 5.6134)
            (xy -0.1524 5.6134)
            (xy 0.0762 5.6134)
            (xy 0.3302 5.6134)
            (xy 0.5334 5.6134)
            (xy 0.6858 5.588)
            (xy 0.7366 5.588)
            (xy 0.7366 5.588)
            (xy 0.762 5.5118)
            (xy 0.8128 5.334)
            (xy 0.8382 5.1054)
            (xy 0.9144 4.826)
            (xy 0.9144 4.7752)
            (xy 0.9652 4.5212)
            (xy 1.016 4.2926)
            (xy 1.0414 4.1402)
            (xy 1.0668 4.0894)
            (xy 1.0668 4.0894)
            (xy 1.1938 4.0386)
            (xy 1.3716 3.9624)
            (xy 1.5748 3.8608)
            (xy 2.0828 3.6576)
            (xy 2.7178 4.0894)
            (xy 2.7686 4.1402)
            (xy 2.9972 4.2926)
            (xy 3.175 4.4196)
            (xy 3.302 4.4958)
            (xy 3.3782 4.5212)
            (xy 3.3782 4.5212)
            (xy 3.429 4.4704)
            (xy 3.556 4.3434)
            (xy 3.7338 4.191)
            (xy 3.9116 3.9878)
            (xy 4.064 3.8354)
            (xy 4.2418 3.6576)
            (xy 4.3434 3.556)
            (xy 4.4196 3.4798)
            (xy 4.4196 3.429)
            (xy 4.4196 3.4036)
            (xy 4.3942 3.3274)
            (xy 4.2926 3.2004)
            (xy 4.1656 2.9972)
            (xy 4.0132 2.794)
            (xy 3.8862 2.5908)
            (xy 3.7592 2.3876)
            (xy 3.6576 2.2352)
            (xy 3.6322 2.159)
            (xy 3.6322 2.1336)
            (xy 3.683 2.0066)
            (xy 3.7592 1.8288)
            (xy 3.8608 1.6002)
            (xy 4.064 1.1176)
            (xy 4.3942 1.0414)
            (xy 4.5974 1.016)
            (xy 4.8768 0.9652)
            (xy 5.1308 0.9144)
            (xy 5.5372 0.8382)
            (xy 5.5626 -0.6604)
            (xy 5.4864 -0.6858)
            (xy 5.4356 -0.6858)
            (xy 5.2832 -0.7366)
            (xy 5.0546 -0.762)
            (xy 4.8006 -0.8128)
            (xy 4.5974 -0.8636)
            (xy 4.3688 -0.9144)
            (xy 4.2164 -0.9398)
            (xy 4.1402 -0.9398)
            (xy 4.1148 -0.9652)
            (xy 4.064 -1.0668)
            (xy 3.9878 -1.2446)
            (xy 3.9116 -1.4478)
            (xy 3.81 -1.651)
            (xy 3.7338 -1.8542)
            (xy 3.683 -2.0066)
            (xy 3.6576 -2.0828)
            (xy 3.683 -2.1336)
            (xy 3.7846 -2.2606)
            (xy 3.8862 -2.4638)
            (xy 4.0386 -2.667)
            (xy 4.191 -2.8956)
            (xy 4.318 -3.0734)
            (xy 4.3942 -3.2004)
            (xy 4.445 -3.2766)
            (xy 4.4196 -3.3274)
            (xy 4.3434 -3.429)
            (xy 4.1656 -3.5814)
            (xy 3.937 -3.8354)
            (xy 3.8862 -3.8608)
            (xy 3.683 -4.064)
            (xy 3.5306 -4.2164)
            (xy 3.4036 -4.318)
            (xy 3.3528 -4.3434)
          )
          (stroke (width 0) (type default))
          (fill (type outline))
        )
      )
    )
    (symbol "Jumper:SolderJumper_2_Bridged" (pin_names (offset 0) hide) (in_bom yes) (on_board yes)
      (property "Reference" "JP" (at 0 2.032 0)
        (effects (font (size 1.27 1.27)))
      )
      (property "Value" "SolderJumper_2_Bridged" (at 0 -2.54 0)
        (effects (font (size 1.27 1.27)))
      )
      (property "Footprint" "" (at 0 0 0)
        (effects (font (size 1.27 1.27)) hide)
      )
      (property "Datasheet" "~" (at 0 0 0)
        (effects (font (size 1.27 1.27)) hide)
      )
      (property "ki_keywords" "solder jumper SPST" (at 0 0 0)
        (effects (font (size 1.27 1.27)) hide)
      )
      (property "ki_description" "Solder Jumper, 2-pole, closed/bridged" (at 0 0 0)
        (effects (font (size 1.27 1.27)) hide)
      )
      (property "ki_fp_filters" "SolderJumper*Bridged*" (at 0 0 0)
        (effects (font (size 1.27 1.27)) hide)
      )
      (symbol "SolderJumper_2_Bridged_0_1"
        (rectangle (start -0.508 0.508) (end 0.508 -0.508)
          (stroke (width 0) (type default))
          (fill (type outline))
        )
        (arc (start -0.254 1.016) (mid -1.2656 0) (end -0.254 -1.016)
          (stroke (width 0) (type default))
          (fill (type none))
        )
        (arc (start -0.254 1.016) (mid -1.2656 0) (end -0.254 -1.016)
          (stroke (width 0) (type default))
          (fill (type outline))
        )
        (polyline
          (pts
            (xy -0.254 1.016)
            (xy -0.254 -1.016)
          )
          (stroke (width 0) (type default))
          (fill (type none))
        )
        (polyline
          (pts
            (xy 0.254 1.016)
            (xy 0.254 -1.016)
          )
          (stroke (width 0) (type default))
          (fill (type none))
        )
        (arc (start 0.254 -1.016) (mid 1.2656 0) (end 0.254 1.016)
          (stroke (width 0) (type default))
          (fill (type none))
        )
        (arc (start 0.254 -1.016) (mid 1.2656 0) (end 0.254 1.016)
          (stroke (width 0) (type default))
          (fill (type outline))
        )
      )
      (symbol "SolderJumper_2_Bridged_1_1"
        (pin passive line (at -3.81 0 0) (length 2.54)
          (name "A" (effects (font (size 1.27 1.27))))
          (number "1" (effects (font (size 1.27 1.27))))
        )
        (pin passive line (at 3.81 0 180) (length 2.54)
          (name "B" (effects (font (size 1.27 1.27))))
          (number "2" (effects (font (size 1.27 1.27))))
        )
      )
    )
    (symbol "Jumper:SolderJumper_2_Open" (pin_names (offset 0) hide) (in_bom yes) (on_board yes)
      (property "Reference" "JP" (at 0 2.032 0)
        (effects (font (size 1.27 1.27)))
      )
      (property "Value" "SolderJumper_2_Open" (at 0 -2.54 0)
        (effects (font (size 1.27 1.27)))
      )
      (property "Footprint" "" (at 0 0 0)
        (effects (font (size 1.27 1.27)) hide)
      )
      (property "Datasheet" "~" (at 0 0 0)
        (effects (font (size 1.27 1.27)) hide)
      )
      (property "ki_keywords" "solder jumper SPST" (at 0 0 0)
        (effects (font (size 1.27 1.27)) hide)
      )
      (property "ki_description" "Solder Jumper, 2-pole, open" (at 0 0 0)
        (effects (font (size 1.27 1.27)) hide)
      )
      (property "ki_fp_filters" "SolderJumper*Open*" (at 0 0 0)
        (effects (font (size 1.27 1.27)) hide)
      )
      (symbol "SolderJumper_2_Open_0_1"
        (arc (start -0.254 1.016) (mid -1.2656 0) (end -0.254 -1.016)
          (stroke (width 0) (type default))
          (fill (type none))
        )
        (arc (start -0.254 1.016) (mid -1.2656 0) (end -0.254 -1.016)
          (stroke (width 0) (type default))
          (fill (type outline))
        )
        (polyline
          (pts
            (xy -0.254 1.016)
            (xy -0.254 -1.016)
          )
          (stroke (width 0) (type default))
          (fill (type none))
        )
        (polyline
          (pts
            (xy 0.254 1.016)
            (xy 0.254 -1.016)
          )
          (stroke (width 0) (type default))
          (fill (type none))
        )
        (arc (start 0.254 -1.016) (mid 1.2656 0) (end 0.254 1.016)
          (stroke (width 0) (type default))
          (fill (type none))
        )
        (arc (start 0.254 -1.016) (mid 1.2656 0) (end 0.254 1.016)
          (stroke (width 0) (type default))
          (fill (type outline))
        )
      )
      (symbol "SolderJumper_2_Open_1_1"
        (pin passive line (at -3.81 0 0) (length 2.54)
          (name "A" (effects (font (size 1.27 1.27))))
          (number "1" (effects (font (size 1.27 1.27))))
        )
        (pin passive line (at 3.81 0 180) (length 2.54)
          (name "B" (effects (font (size 1.27 1.27))))
          (number "2" (effects (font (size 1.27 1.27))))
        )
      )
    )
    (symbol "Sensor:BME280" (in_bom yes) (on_board yes)
      (property "Reference" "U" (at -8.89 11.43 0)
        (effects (font (size 1.27 1.27)))
      )
      (property "Value" "BME280" (at 7.62 11.43 0)
        (effects (font (size 1.27 1.27)))
      )
      (property "Footprint" "Package_LGA:Bosch_LGA-8_2.5x2.5mm_P0.65mm_ClockwisePinNumbering" (at 38.1 -11.43 0)
        (effects (font (size 1.27 1.27)) hide)
      )
      (property "Datasheet" "https://www.bosch-sensortec.com/media/boschsensortec/downloads/datasheets/bst-bme280-ds002.pdf" (at 0 -5.08 0)
        (effects (font (size 1.27 1.27)) hide)
      )
      (property "ki_keywords" "Bosch pressure humidity temperature environment environmental measurement digital" (at 0 0 0)
        (effects (font (size 1.27 1.27)) hide)
      )
      (property "ki_description" "3-in-1 sensor, humidity, pressure, temperature, I2C and SPI interface, 1.71-3.6V, LGA-8" (at 0 0 0)
        (effects (font (size 1.27 1.27)) hide)
      )
      (property "ki_fp_filters" "*LGA*2.5x2.5mm*P0.65mm*Clockwise*" (at 0 0 0)
        (effects (font (size 1.27 1.27)) hide)
      )
      (symbol "BME280_0_1"
        (rectangle (start -10.16 10.16) (end 10.16 -10.16)
          (stroke (width 0.254) (type default))
          (fill (type background))
        )
      )
      (symbol "BME280_1_1"
        (pin power_in line (at -2.54 -15.24 90) (length 5.08)
          (name "GND" (effects (font (size 1.27 1.27))))
          (number "1" (effects (font (size 1.27 1.27))))
        )
        (pin input line (at 15.24 -7.62 180) (length 5.08)
          (name "CSB" (effects (font (size 1.27 1.27))))
          (number "2" (effects (font (size 1.27 1.27))))
        )
        (pin bidirectional line (at 15.24 -2.54 180) (length 5.08)
          (name "SDI" (effects (font (size 1.27 1.27))))
          (number "3" (effects (font (size 1.27 1.27))))
        )
        (pin input line (at 15.24 2.54 180) (length 5.08)
          (name "SCK" (effects (font (size 1.27 1.27))))
          (number "4" (effects (font (size 1.27 1.27))))
        )
        (pin bidirectional line (at 15.24 7.62 180) (length 5.08)
          (name "SDO" (effects (font (size 1.27 1.27))))
          (number "5" (effects (font (size 1.27 1.27))))
        )
        (pin power_in line (at -2.54 15.24 270) (length 5.08)
          (name "VDDIO" (effects (font (size 1.27 1.27))))
          (number "6" (effects (font (size 1.27 1.27))))
        )
        (pin power_in line (at 2.54 -15.24 90) (length 5.08)
          (name "GND" (effects (font (size 1.27 1.27))))
          (number "7" (effects (font (size 1.27 1.27))))
        )
        (pin power_in line (at 2.54 15.24 270) (length 5.08)
          (name "VDD" (effects (font (size 1.27 1.27))))
          (number "8" (effects (font (size 1.27 1.27))))
        )
      )
    )
    (symbol "Sensor_Humidity:SHT4x" (in_bom yes) (on_board yes)
      (property "Reference" "U" (at 0 8.89 0)
        (effects (font (size 1.27 1.27)) (justify right))
      )
      (property "Value" "SHT4x" (at 0 6.35 0)
        (effects (font (size 1.27 1.27)) (justify right))
      )
      (property "Footprint" "Sensor_Humidity:Sensirion_DFN-4_1.5x1.5mm_P0.8mm_SHT4x_NoCentralPad" (at 3.81 -6.35 0)
        (effects (font (size 1.27 1.27)) (justify left) hide)
      )
      (property "Datasheet" "https://sensirion.com/media/documents/33FD6951/624C4357/Datasheet_SHT4x.pdf" (at 3.81 -8.89 0)
        (effects (font (size 1.27 1.27)) (justify left) hide)
      )
      (property "ki_keywords" "Sensirion environment environmental measurement digital SHT40 SHT41 SHT45" (at 0 0 0)
        (effects (font (size 1.27 1.27)) hide)
      )
      (property "ki_description" "Digital Humidity and Temperature Sensor, +/-1%RH, +/-0.1degC, I2C, 1.08-3.6V, 16bit, DFN-4" (at 0 0 0)
        (effects (font (size 1.27 1.27)) hide)
      )
      (property "ki_fp_filters" "Sensirion?DFN*1.5x1.5mm*P0.8mm*SHT4x*" (at 0 0 0)
        (effects (font (size 1.27 1.27)) hide)
      )
      (symbol "SHT4x_1_1"
        (rectangle (start -5.08 5.08) (end 5.08 -5.08)
          (stroke (width 0.254) (type default))
          (fill (type background))
        )
        (pin bidirectional line (at -7.62 -2.54 0) (length 2.54)
          (name "SDA" (effects (font (size 1.27 1.27))))
          (number "1" (effects (font (size 1.27 1.27))))
        )
        (pin input line (at -7.62 2.54 0) (length 2.54)
          (name "SCL" (effects (font (size 1.27 1.27))))
          (number "2" (effects (font (size 1.27 1.27))))
        )
        (pin power_in line (at 2.54 7.62 270) (length 2.54)
          (name "VDD" (effects (font (size 1.27 1.27))))
          (number "3" (effects (font (size 1.27 1.27))))
        )
        (pin power_in line (at 2.54 -7.62 90) (length 2.54)
          (name "VSS" (effects (font (size 1.27 1.27))))
          (number "4" (effects (font (size 1.27 1.27))))
        )
      )
    )
    (symbol "power:GND" (power) (pin_names (offset 0)) (in_bom yes) (on_board yes)
      (property "Reference" "#PWR" (at 0 -6.35 0)
        (effects (font (size 1.27 1.27)) hide)
      )
      (property "Value" "GND" (at 0 -3.81 0)
        (effects (font (size 1.27 1.27)))
      )
      (property "Footprint" "" (at 0 0 0)
        (effects (font (size 1.27 1.27)) hide)
      )
      (property "Datasheet" "" (at 0 0 0)
        (effects (font (size 1.27 1.27)) hide)
      )
      (property "ki_keywords" "global power" (at 0 0 0)
        (effects (font (size 1.27 1.27)) hide)
      )
      (property "ki_description" "Power symbol creates a global label with name \"GND\" , ground" (at 0 0 0)
        (effects (font (size 1.27 1.27)) hide)
      )
      (symbol "GND_0_1"
        (polyline
          (pts
            (xy 0 0)
            (xy 0 -1.27)
            (xy 1.27 -1.27)
            (xy 0 -2.54)
            (xy -1.27 -1.27)
            (xy 0 -1.27)
          )
          (stroke (width 0) (type default))
          (fill (type none))
        )
      )
      (symbol "GND_1_1"
        (pin power_in line (at 0 0 270) (length 0) hide
          (name "GND" (effects (font (size 1.27 1.27))))
          (number "1" (effects (font (size 1.27 1.27))))
        )
      )
    )
    (symbol "power:PWR_FLAG" (power) (pin_numbers hide) (pin_names (offset 0) hide) (in_bom yes) (on_board yes)
      (property "Reference" "#FLG" (at 0 1.905 0)
        (effects (font (size 1.27 1.27)) hide)
      )
      (property "Value" "PWR_FLAG" (at 0 3.81 0)
        (effects (font (size 1.27 1.27)))
      )
      (property "Footprint" "" (at 0 0 0)
        (effects (font (size 1.27 1.27)) hide)
      )
      (property "Datasheet" "~" (at 0 0 0)
        (effects (font (size 1.27 1.27)) hide)
      )
      (property "ki_keywords" "flag power" (at 0 0 0)
        (effects (font (size 1.27 1.27)) hide)
      )
      (property "ki_description" "Special symbol for telling ERC where power comes from" (at 0 0 0)
        (effects (font (size 1.27 1.27)) hide)
      )
      (symbol "PWR_FLAG_0_0"
        (pin power_out line (at 0 0 90) (length 0)
          (name "pwr" (effects (font (size 1.27 1.27))))
          (number "1" (effects (font (size 1.27 1.27))))
        )
      )
      (symbol "PWR_FLAG_0_1"
        (polyline
          (pts
            (xy 0 0)
            (xy 0 1.27)
            (xy -1.016 1.905)
            (xy 0 2.54)
            (xy 1.016 1.905)
            (xy 0 1.27)
          )
          (stroke (width 0) (type default))
          (fill (type none))
        )
      )
    )
    (symbol "power:VCC" (power) (pin_names (offset 0)) (in_bom yes) (on_board yes)
      (property "Reference" "#PWR" (at 0 -3.81 0)
        (effects (font (size 1.27 1.27)) hide)
      )
      (property "Value" "VCC" (at 0 3.81 0)
        (effects (font (size 1.27 1.27)))
      )
      (property "Footprint" "" (at 0 0 0)
        (effects (font (size 1.27 1.27)) hide)
      )
      (property "Datasheet" "" (at 0 0 0)
        (effects (font (size 1.27 1.27)) hide)
      )
      (property "ki_keywords" "global power" (at 0 0 0)
        (effects (font (size 1.27 1.27)) hide)
      )
      (property "ki_description" "Power symbol creates a global label with name \"VCC\"" (at 0 0 0)
        (effects (font (size 1.27 1.27)) hide)
      )
      (symbol "VCC_0_1"
        (polyline
          (pts
            (xy -0.762 1.27)
            (xy 0 2.54)
          )
          (stroke (width 0) (type default))
          (fill (type none))
        )
        (polyline
          (pts
            (xy 0 0)
            (xy 0 2.54)
          )
          (stroke (width 0) (type default))
          (fill (type none))
        )
        (polyline
          (pts
            (xy 0 2.54)
            (xy 0.762 1.27)
          )
          (stroke (width 0) (type default))
          (fill (type none))
        )
      )
      (symbol "VCC_1_1"
        (pin power_in line (at 0 0 90) (length 0) hide
          (name "VCC" (effects (font (size 1.27 1.27))))
          (number "1" (effects (font (size 1.27 1.27))))
        )
      )
    )
    (symbol "power:VDDA" (power) (pin_names (offset 0)) (in_bom yes) (on_board yes)
      (property "Reference" "#PWR" (at 0 -3.81 0)
        (effects (font (size 1.27 1.27)) hide)
      )
      (property "Value" "VDDA" (at 0 3.81 0)
        (effects (font (size 1.27 1.27)))
      )
      (property "Footprint" "" (at 0 0 0)
        (effects (font (size 1.27 1.27)) hide)
      )
      (property "Datasheet" "" (at 0 0 0)
        (effects (font (size 1.27 1.27)) hide)
      )
      (property "ki_keywords" "global power" (at 0 0 0)
        (effects (font (size 1.27 1.27)) hide)
      )
      (property "ki_description" "Power symbol creates a global label with name \"VDDA\"" (at 0 0 0)
        (effects (font (size 1.27 1.27)) hide)
      )
      (symbol "VDDA_0_1"
        (polyline
          (pts
            (xy -0.762 1.27)
            (xy 0 2.54)
          )
          (stroke (width 0) (type default))
          (fill (type none))
        )
        (polyline
          (pts
            (xy 0 0)
            (xy 0 2.54)
          )
          (stroke (width 0) (type default))
          (fill (type none))
        )
        (polyline
          (pts
            (xy 0 2.54)
            (xy 0.762 1.27)
          )
          (stroke (width 0) (type default))
          (fill (type none))
        )
      )
      (symbol "VDDA_1_1"
        (pin power_in line (at 0 0 90) (length 0) hide
          (name "VDDA" (effects (font (size 1.27 1.27))))
          (number "1" (effects (font (size 1.27 1.27))))
        )
      )
    )
  )

  (junction (at 175.26 109.22) (diameter 0) (color 0 0 0 0)
    (uuid 01b21a24-4d78-4f03-8dfa-6ad373bdc721)
  )
  (junction (at 64.77 114.3) (diameter 0) (color 0 0 0 0)
    (uuid 02343898-13e0-47dc-a088-112415f4fccb)
  )
  (junction (at 162.56 114.3) (diameter 0) (color 0 0 0 0)
    (uuid 1b289848-cc5f-4748-b182-01759077c35b)
  )
  (junction (at 154.94 58.42) (diameter 0) (color 0 0 0 0)
    (uuid 3f4454d8-63d8-4cf2-b50c-fca79856776c)
  )
  (junction (at 168.91 127) (diameter 0) (color 0 0 0 0)
    (uuid 49a76323-f71c-47ef-b816-cfe8f5550b37)
  )
  (junction (at 80.01 124.46) (diameter 0) (color 0 0 0 0)
    (uuid 7b475d61-c059-4f70-9917-4ca189293a5a)
  )
  (junction (at 102.87 58.42) (diameter 0) (color 0 0 0 0)
    (uuid 8814cbb0-0934-4537-a353-10098c69fd27)
  )
  (junction (at 138.43 58.42) (diameter 0) (color 0 0 0 0)
    (uuid 888e2ba7-b092-4553-821d-0f3811b35264)
  )
  (junction (at 97.79 111.76) (diameter 0) (color 0 0 0 0)
    (uuid 89a0981c-e388-4744-87e9-e907734825c9)
  )
  (junction (at 80.01 106.68) (diameter 0) (color 0 0 0 0)
    (uuid 8fdc6e7f-7587-44c5-8124-3661831e7e38)
  )
  (junction (at 168.91 106.68) (diameter 0) (color 0 0 0 0)
    (uuid 9a3316e0-6556-49cd-b6a4-c8d0d4f95e52)
  )
  (junction (at 121.92 111.76) (diameter 0) (color 0 0 0 0)
    (uuid 9aefb8e0-6e1d-4742-922d-175e505bf596)
  )
  (junction (at 144.78 111.76) (diameter 0) (color 0 0 0 0)
    (uuid a3ae891a-3d21-4517-897c-fba9c1e5a192)
  )
  (junction (at 74.93 109.22) (diameter 0) (color 0 0 0 0)
    (uuid c2864149-c484-4dbe-862a-4f7558f115d5)
  )
  (junction (at 82.55 124.46) (diameter 0) (color 0 0 0 0)
    (uuid c58137f9-bb82-4b69-9e10-a5989678f8df)
  )
  (junction (at 110.49 114.3) (diameter 0) (color 0 0 0 0)
    (uuid df79a50b-d507-44aa-bdcd-c0255c9ee879)
  )
  (junction (at 102.87 111.76) (diameter 0) (color 0 0 0 0)
    (uuid ed271453-1d63-4d8f-9975-f11430afa0ba)
  )
  (junction (at 190.5 74.93) (diameter 0) (color 0 0 0 0)
    (uuid f6c67a72-dc40-46e3-b844-e48c44116410)
  )

  (wire (pts (xy 168.91 85.09) (xy 168.91 106.68))
    (stroke (width 0) (type default))
    (uuid 0049e060-dbb5-437c-85bb-dfb9b6bf317a)
  )
  (wire (pts (xy 162.56 85.09) (xy 168.91 85.09))
    (stroke (width 0) (type default))
    (uuid 02d0844f-7889-4801-869a-028b148524f1)
  )
  (wire (pts (xy 57.15 109.22) (xy 74.93 109.22))
    (stroke (width 0) (type default))
    (uuid 037c961f-4bba-438a-a7ab-edaa53811f3e)
  )
  (wire (pts (xy 97.79 111.76) (xy 102.87 111.76))
    (stroke (width 0) (type default))
    (uuid 0d78b432-9c1d-43df-bc34-4124c66ee2ce)
  )
  (wire (pts (xy 190.5 74.93) (xy 162.56 74.93))
    (stroke (width 0) (type default))
    (uuid 1350170a-1c67-488a-a727-9e2c5e0c454f)
  )
  (wire (pts (xy 162.56 80.01) (xy 175.26 80.01))
    (stroke (width 0) (type default))
    (uuid 13f65ec1-6526-4ba0-9a1b-18701dc3ed45)
  )
  (wire (pts (xy 175.26 80.01) (xy 175.26 109.22))
    (stroke (width 0) (type default))
    (uuid 1558a13d-e3d7-497a-95db-cab651e2000c)
  )
  (wire (pts (xy 162.56 127) (xy 162.56 114.3))
    (stroke (width 0) (type default))
    (uuid 17c5a626-e55f-4106-ac01-092f4df716d7)
  )
  (wire (pts (xy 80.01 106.68) (xy 168.91 106.68))
    (stroke (width 0) (type default))
    (uuid 195779d3-c2d4-48b4-a1f3-ad175a49d8e8)
  )
  (wire (pts (xy 144.78 67.31) (xy 144.78 58.42))
    (stroke (width 0) (type default))
    (uuid 1b153753-e0f9-4ef3-8383-ada36d864b8e)
  )
  (wire (pts (xy 190.5 48.26) (xy 190.5 52.07))
    (stroke (width 0) (type default))
    (uuid 1ccc8f0a-cb38-4217-bb97-d50f4173708a)
  )
  (wire (pts (xy 57.15 106.68) (xy 80.01 106.68))
    (stroke (width 0) (type default))
    (uuid 1facd43e-1d7c-406c-a62f-cb8400341c90)
  )
  (wire (pts (xy 138.43 48.26) (xy 138.43 50.8))
    (stroke (width 0) (type default))
    (uuid 2326397d-1c11-40c0-b5e5-f2eeacdd16d5)
  )
  (wire (pts (xy 149.86 58.42) (xy 154.94 58.42))
    (stroke (width 0) (type default))
    (uuid 26d24d57-0556-40ad-8515-ac9a9f357478)
  )
  (wire (pts (xy 86.36 124.46) (xy 82.55 124.46))
    (stroke (width 0) (type default))
    (uuid 28bcbda8-38e4-4d76-a760-e79916ab99a8)
  )
  (wire (pts (xy 97.79 111.76) (xy 97.79 116.84))
    (stroke (width 0) (type default))
    (uuid 2905cc87-316a-46de-a908-9f9530971272)
  )
  (wire (pts (xy 167.64 48.26) (xy 167.64 58.42))
    (stroke (width 0) (type default))
    (uuid 2b54909e-8dca-4e98-9dfb-02db27e421f1)
  )
  (wire (pts (xy 110.49 114.3) (xy 162.56 114.3))
    (stroke (width 0) (type default))
    (uuid 2dc48fd7-47c5-43da-8f6d-8e0aca79768a)
  )
  (wire (pts (xy 121.92 111.76) (xy 144.78 111.76))
    (stroke (width 0) (type default))
    (uuid 304577c8-0851-4bec-b87d-ef14ab77315f)
  )
  (wire (pts (xy 168.91 127) (xy 162.56 127))
    (stroke (width 0) (type default))
    (uuid 43bffe9b-9c51-4ff2-a3b3-84987a27a4a5)
  )
  (wire (pts (xy 175.26 124.46) (xy 175.26 127))
    (stroke (width 0) (type default))
    (uuid 4591318b-225b-43f8-9b17-3750753dc4c3)
  )
  (wire (pts (xy 138.43 58.42) (xy 144.78 58.42))
    (stroke (width 0) (type default))
    (uuid 483ec0e1-4802-4146-92c1-afe22d6e7800)
  )
  (wire (pts (xy 74.93 80.01) (xy 74.93 109.22))
    (stroke (width 0) (type default))
    (uuid 487f8422-2348-4350-ba9d-00b953f81b37)
  )
  (wire (pts (xy 110.49 116.84) (xy 110.49 114.3))
    (stroke (width 0) (type default))
    (uuid 4dfdb5a7-2d20-42bb-9520-2f3028cd7170)
  )
  (wire (pts (xy 80.01 134.62) (xy 80.01 135.89))
    (stroke (width 0) (type default))
    (uuid 52ef5e13-8a6f-4257-bc67-2941726d84e3)
  )
  (wire (pts (xy 190.5 59.69) (xy 190.5 74.93))
    (stroke (width 0) (type default))
    (uuid 567c396f-0623-4692-948a-c4485e56beb8)
  )
  (wire (pts (xy 190.5 85.09) (xy 190.5 87.63))
    (stroke (width 0) (type default))
    (uuid 5879cad4-d08b-4df6-afc4-32b4019fb90a)
  )
  (wire (pts (xy 82.55 124.46) (xy 80.01 124.46))
    (stroke (width 0) (type default))
    (uuid 5d7e75c0-6cfd-4735-84bf-e3b9402462c8)
  )
  (wire (pts (xy 149.86 97.79) (xy 149.86 111.76))
    (stroke (width 0) (type default))
    (uuid 61ac095a-86c0-4dcb-b179-7ef2515b0835)
  )
  (wire (pts (xy 154.94 58.42) (xy 167.64 58.42))
    (stroke (width 0) (type default))
    (uuid 6466b62b-473f-4344-b39a-18a67c913aa2)
  )
  (wire (pts (xy 102.87 90.17) (xy 102.87 111.76))
    (stroke (width 0) (type default))
    (uuid 6d52fc89-7acc-476e-8f8f-54d515f2c169)
  )
  (wire (pts (xy 74.93 109.22) (xy 175.26 109.22))
    (stroke (width 0) (type default))
    (uuid 6dc6d12e-9e72-4f0c-b8d0-0e22378586e5)
  )
  (wire (pts (xy 82.55 121.92) (xy 82.55 124.46))
    (stroke (width 0) (type default))
    (uuid 6e942f4a-8ffe-4e09-8c2d-9388aa8086e1)
  )
  (wire (pts (xy 190.5 74.93) (xy 190.5 77.47))
    (stroke (width 0) (type default))
    (uuid 70991ba8-c8a2-49d0-8e61-9f9a9d95f3ed)
  )
  (wire (pts (xy 162.56 90.17) (xy 162.56 114.3))
    (stroke (width 0) (type default))
    (uuid 70a64ee5-ed7d-4ab3-ad78-e3d86e10e6bc)
  )
  (wire (pts (xy 80.01 124.46) (xy 80.01 127))
    (stroke (width 0) (type default))
    (uuid 75c81af0-c88b-4f98-b5d9-e715b1e0fb34)
  )
  (wire (pts (xy 149.86 67.31) (xy 149.86 58.42))
    (stroke (width 0) (type default))
    (uuid 836dc23b-7104-4ffc-9708-dc563b7880ae)
  )
  (wire (pts (xy 168.91 106.68) (xy 168.91 116.84))
    (stroke (width 0) (type default))
    (uuid 8adef6c1-d6a9-4ad9-9204-5b11a01e02e5)
  )
  (wire (pts (xy 125.73 58.42) (xy 138.43 58.42))
    (stroke (width 0) (type default))
    (uuid 91169421-ae52-4732-903a-5e848762bdaa)
  )
  (wire (pts (xy 64.77 114.3) (xy 110.49 114.3))
    (stroke (width 0) (type default))
    (uuid 9132988b-0a1e-48e7-b3ad-9b276d06f469)
  )
  (wire (pts (xy 92.71 85.09) (xy 80.01 85.09))
    (stroke (width 0) (type default))
    (uuid 91f3fd8a-15b6-4a80-a761-bafc32e2652a)
  )
  (wire (pts (xy 154.94 48.26) (xy 154.94 50.8))
    (stroke (width 0) (type default))
    (uuid 938bcddf-9117-4b63-9ac9-2c98bcef6d22)
  )
  (wire (pts (xy 144.78 111.76) (xy 149.86 111.76))
    (stroke (width 0) (type default))
    (uuid 98626c1f-4b26-4561-99a6-aeb23b7a40f0)
  )
  (wire (pts (xy 57.15 114.3) (xy 64.77 114.3))
    (stroke (width 0) (type default))
    (uuid 9ce38db9-1496-4b11-9f77-de2b47e97bbb)
  )
  (wire (pts (xy 64.77 124.46) (xy 66.04 124.46))
    (stroke (width 0) (type default))
    (uuid 9f967b10-3461-487f-81aa-da8e724252d3)
  )
  (wire (pts (xy 125.73 48.26) (xy 125.73 58.42))
    (stroke (width 0) (type default))
    (uuid a423ae00-a54e-42ba-a549-99ab02630615)
  )
  (wire (pts (xy 175.26 109.22) (xy 175.26 116.84))
    (stroke (width 0) (type default))
    (uuid ae356c91-ebab-4466-8dea-6a340b82b952)
  )
  (wire (pts (xy 57.15 111.76) (xy 97.79 111.76))
    (stroke (width 0) (type default))
    (uuid af6fc2b3-a6f3-4295-90b2-b964c6051563)
  )
  (wire (pts (xy 175.26 127) (xy 168.91 127))
    (stroke (width 0) (type default))
    (uuid b495908e-96b1-47d7-8376-e1932bf8812f)
  )
  (wire (pts (xy 73.66 124.46) (xy 80.01 124.46))
    (stroke (width 0) (type default))
    (uuid bc3b1524-3ff1-4f19-982e-13efef8e8f9a)
  )
  (wire (pts (xy 93.98 58.42) (xy 102.87 58.42))
    (stroke (width 0) (type default))
    (uuid c0d2b847-729c-4dcc-98da-55d4cf0f15b2)
  )
  (wire (pts (xy 144.78 97.79) (xy 144.78 111.76))
    (stroke (width 0) (type default))
    (uuid c53477a3-49ff-4558-823b-a00d88fe67b3)
  )
  (wire (pts (xy 168.91 124.46) (xy 168.91 127))
    (stroke (width 0) (type default))
    (uuid c89da109-f595-42b2-a0b1-e4e9c4843350)
  )
  (wire (pts (xy 93.98 48.26) (xy 93.98 58.42))
    (stroke (width 0) (type default))
    (uuid c920b83b-7366-4aea-983a-cfe79d60fedf)
  )
  (wire (pts (xy 102.87 58.42) (xy 102.87 74.93))
    (stroke (width 0) (type default))
    (uuid c9e829cd-d677-407f-8c13-db190b20cad0)
  )
  (wire (pts (xy 121.92 111.76) (xy 121.92 116.84))
    (stroke (width 0) (type default))
    (uuid cd8fab62-fcc8-4b2c-893d-503129f1ebea)
  )
  (wire (pts (xy 74.93 80.01) (xy 92.71 80.01))
    (stroke (width 0) (type default))
    (uuid d09a8f26-afcc-4968-b975-c03598687b14)
  )
  (wire (pts (xy 64.77 114.3) (xy 64.77 124.46))
    (stroke (width 0) (type default))
    (uuid d136fc33-4d2d-4d02-8ead-5b46a33c2b78)
  )
  (wire (pts (xy 102.87 48.26) (xy 102.87 50.8))
    (stroke (width 0) (type default))
    (uuid dbd9c47e-c524-4f3c-bbea-7c26b9844b15)
  )
  (wire (pts (xy 80.01 85.09) (xy 80.01 106.68))
    (stroke (width 0) (type default))
    (uuid e7e526e6-ef74-40ca-b942-6d9506e73703)
  )
  (wire (pts (xy 102.87 111.76) (xy 121.92 111.76))
    (stroke (width 0) (type default))
    (uuid efe0f399-efc5-4954-a248-1981e9b81c88)
  )

  (text "cut JP1 for I2C address 0x77\n" (at 163.83 71.12 0)
    (effects (font (size 0.8 0.8)) (justify left bottom))
    (uuid 27e1c519-983f-4c6a-b018-43865223e4fb)
  )
  (text "I2C address is 0x44\n" (at 105.664 83.312 0)
    (effects (font (size 0.8 0.8)) (justify left bottom))
    (uuid 47a5929c-117a-4ad4-bee4-d626461f11c7)
  )
  (text "BLM15HG102SN1D\nGHz NOISE SUPPRESSION CHIP FERRITE BEAD"
    (at 49.276 131.318 0)
    (effects (font (size 0.7 0.7)) (justify left bottom))
    (uuid b3240ed7-1f1b-488e-8631-cc8b90c60e0d)
  )
  (text "solder JP2 for I2C address 0x77\n" (at 163.83 72.39 0)
    (effects (font (size 0.8 0.8)) (justify left bottom))
    (uuid bc64ecbb-354a-4a84-9939-c76c95e2e89c)
  )
  (text "default I2C address of the BME280 sensor is 0x76\n" (at 177.8 159.385 0)
    (effects (font (size 1.27 1.27)) (justify left bottom))
    (uuid d69088f2-4649-4532-aff6-a83ce64e0138)
  )
  (text "I2C address of the SHT45 sensor is 0x44\n" (at 177.8 162.306 0)
    (effects (font (size 1.27 1.27)) (justify left bottom))
    (uuid f716d3f8-3846-4170-b3eb-5229f0980415)
  )
  (text "default I2C address is 0x76\n" (at 163.83 69.85 0)
    (effects (font (size 0.8 0.8)) (justify left bottom))
    (uuid fb24275c-da70-4249-ae73-58ed8506c90f)
  )
  (text "IMPORTANT: max. VCC voltage is 3.3V" (at 177.8 155.575 0)
    (effects (font (size 1.524 1.524)) (justify left bottom))
    (uuid fcf2532d-0a81-4b4b-83f6-4c231ee43d57)
  )

  (label "VCC" (at 58.42 114.3 0) (fields_autoplaced)
    (effects (font (size 1.524 1.524)) (justify left bottom))
    (uuid 552af6d7-f515-415d-8207-0e18d189a43d)
  )
  (label "SCL" (at 58.42 109.22 0) (fields_autoplaced)
    (effects (font (size 1.524 1.524)) (justify left bottom))
    (uuid 6849b38d-b347-45a2-b0f4-bedda6e5e2af)
  )
  (label "GND" (at 58.42 111.76 0) (fields_autoplaced)
    (effects (font (size 1.524 1.524)) (justify left bottom))
    (uuid 786953ab-10e4-4dd7-bd2f-982cd16b671e)
  )
  (label "VDDA" (at 86.36 124.46 0) (fields_autoplaced)
    (effects (font (size 1.524 1.524)) (justify left bottom))
    (uuid 80224260-6c55-4615-8aad-2f24da5e32d2)
  )
  (label "SDA" (at 58.42 106.68 0) (fields_autoplaced)
    (effects (font (size 1.524 1.524)) (justify left bottom))
    (uuid f135c148-3c0d-42b8-86a7-89006303e457)
  )

  (symbol (lib_id "Connector_Generic:Conn_01x04") (at 52.07 111.76 180) (unit 1)
    (in_bom yes) (on_board yes) (dnp no)
    (uuid 00000000-0000-0000-0000-00006157aa50)
    (property "Reference" "J1" (at 53.34 117.602 0)
      (effects (font (size 1.27 1.27)) (justify left))
    )
    (property "Value" "Conn_01x04" (at 53.34 103.886 0)
      (effects (font (size 1.27 1.27)) (justify left))
    )
    (property "Footprint" "Connector_PinHeader_2.54mm:PinHeader_1x04_P2.54mm_Vertical" (at 52.07 111.76 0)
      (effects (font (size 1.27 1.27)) hide)
    )
    (property "Datasheet" "~" (at 52.07 111.76 0)
      (effects (font (size 1.27 1.27)) hide)
    )
    (pin "1" (uuid 17ac7111-32b6-4f5f-bcdd-759316fd1501))
    (pin "2" (uuid bc2a1bc3-373e-40ba-bfe6-8582e993897f))
    (pin "3" (uuid 65712270-e7ae-4d49-a53f-a120410c1161))
    (pin "4" (uuid 145a2b85-e4a9-4a33-9e19-70274313a8a3))
    (instances
      (project "I2C_Module_SHT45_BME280_small_FUEL4EP"
        (path "/3d79d0da-8f51-438a-bc9e-e7450f89b514"
          (reference "J1") (unit 1)
        )
      )
    )
  )

  (symbol (lib_id "Graphic:Logo_Open_Hardware_Small") (at 274.574 175.514 0) (unit 1)
    (in_bom yes) (on_board yes) (dnp no)
    (uuid 00000000-0000-0000-0000-0000615dee46)
    (property "Reference" "LOGO1" (at 274.574 168.529 0)
      (effects (font (size 1.27 1.27)) hide)
    )
    (property "Value" "Logo_Open_Hardware_Small" (at 274.574 181.229 0)
      (effects (font (size 1.27 1.27)) hide)
    )
    (property "Footprint" "FUEL4EP:CC-BY-ND-SA" (at 274.574 175.514 0)
      (effects (font (size 1.27 1.27)) hide)
    )
    (property "Datasheet" "~" (at 274.574 175.514 0)
      (effects (font (size 1.27 1.27)) hide)
    )
    (property "Sim.Enable" "0" (at 274.574 175.514 0)
      (effects (font (size 1.27 1.27)) hide)
    )
    (instances
      (project "I2C_Module_SHT45_BME280_small_FUEL4EP"
        (path "/3d79d0da-8f51-438a-bc9e-e7450f89b514"
          (reference "LOGO1") (unit 1)
        )
      )
    )
  )

  (symbol (lib_id "Device:R") (at 168.91 120.65 0) (unit 1)
    (in_bom yes) (on_board yes) (dnp no)
    (uuid 010452d5-e5f2-447e-a153-71da0dbec114)
    (property "Reference" "R1" (at 165.1 123.19 0)
      (effects (font (size 1.27 1.27)) (justify left))
    )
    (property "Value" "10k" (at 168.91 122.555 90)
      (effects (font (size 1.27 1.27)) (justify left))
    )
    (property "Footprint" "Resistor_SMD:R_0402_1005Metric" (at 167.132 120.65 90)
      (effects (font (size 1.27 1.27)) hide)
    )
    (property "Datasheet" "~" (at 168.91 120.65 0)
      (effects (font (size 1.27 1.27)) hide)
    )
    (property "LCSC" "C25744" (at 168.91 120.65 0)
      (effects (font (size 1.524 1.524)) hide)
    )
    (property "TYPE" "0402" (at 168.91 120.65 0)
      (effects (font (size 1.524 1.524)) hide)
    )
    (pin "1" (uuid 3ab79436-fb3f-4a00-9197-041ddc74750c))
    (pin "2" (uuid 79d19ffd-6a91-45ce-b54a-9da2658b6b9c))
    (instances
      (project "I2C_Module_SHT45_BME280_small_FUEL4EP"
        (path "/3d79d0da-8f51-438a-bc9e-e7450f89b514"
          (reference "R1") (unit 1)
        )
      )
    )
  )

  (symbol (lib_id "power:GND") (at 138.43 48.26 180) (unit 1)
    (in_bom yes) (on_board yes) (dnp no) (fields_autoplaced)
    (uuid 0615f61f-28da-456d-88bc-2f0fee1da7d4)
    (property "Reference" "#PWR04" (at 138.43 41.91 0)
      (effects (font (size 1.27 1.27)) hide)
    )
    (property "Value" "GND" (at 138.43 43.18 0)
      (effects (font (size 1.27 1.27)))
    )
    (property "Footprint" "" (at 138.43 48.26 0)
      (effects (font (size 1.27 1.27)) hide)
    )
    (property "Datasheet" "" (at 138.43 48.26 0)
      (effects (font (size 1.27 1.27)) hide)
    )
    (pin "1" (uuid 71654848-b22b-465d-9dc7-715b21c4854d))
    (instances
      (project "I2C_Module_SHT45_BME280_small_FUEL4EP"
        (path "/3d79d0da-8f51-438a-bc9e-e7450f89b514"
          (reference "#PWR04") (unit 1)
        )
      )
    )
  )

  (symbol (lib_id "power:VDDA") (at 93.98 48.26 0) (unit 1)
    (in_bom yes) (on_board yes) (dnp no) (fields_autoplaced)
    (uuid 127a85c3-c53d-49f1-968b-05afb6d6f2ef)
    (property "Reference" "#PWR06" (at 93.98 52.07 0)
      (effects (font (size 1.27 1.27)) hide)
    )
    (property "Value" "VDDA" (at 93.98 43.18 0)
      (effects (font (size 1.27 1.27)))
    )
    (property "Footprint" "" (at 93.98 48.26 0)
      (effects (font (size 1.27 1.27)) hide)
    )
    (property "Datasheet" "" (at 93.98 48.26 0)
      (effects (font (size 1.27 1.27)) hide)
    )
    (pin "1" (uuid c65978df-ecb4-4b44-af15-a9761038755d))
    (instances
      (project "I2C_Module_SHT45_BME280_small_FUEL4EP"
        (path "/3d79d0da-8f51-438a-bc9e-e7450f89b514"
          (reference "#PWR06") (unit 1)
        )
      )
    )
  )

  (symbol (lib_id "Device:FerriteBead") (at 69.85 124.46 90) (unit 1)
    (in_bom yes) (on_board yes) (dnp no) (fields_autoplaced)
    (uuid 185964e4-830f-402b-8571-b15d10c50c69)
    (property "Reference" "FB1" (at 69.7992 116.84 90)
      (effects (font (size 1.27 1.27)))
    )
    (property "Value" "FerriteBead" (at 69.7992 119.38 90)
      (effects (font (size 1.27 1.27)))
    )
    (property "Footprint" "Inductor_SMD:L_0402_1005Metric" (at 69.85 126.238 90)
      (effects (font (size 1.27 1.27)) hide)
    )
    (property "Datasheet" "~" (at 69.85 124.46 0)
      (effects (font (size 1.27 1.27)) hide)
    )
    (property "LCSC" "C76889" (at 69.85 124.46 90)
      (effects (font (size 1.524 1.524)) hide)
    )
    (property "TYPE" "0402" (at 69.85 124.46 90)
      (effects (font (size 1.524 1.524)) hide)
    )
    (pin "1" (uuid 20283c4b-6b11-42b4-a988-637a9ccc56a2))
    (pin "2" (uuid f005964e-139f-467f-b7e2-be3c8536796c))
    (instances
      (project "I2C_Module_SHT45_BME280_small_FUEL4EP"
        (path "/3d79d0da-8f51-438a-bc9e-e7450f89b514"
          (reference "FB1") (unit 1)
        )
      )
    )
  )

  (symbol (lib_id "Device:C") (at 154.94 54.61 0) (unit 1)
    (in_bom yes) (on_board yes) (dnp no)
    (uuid 1c8efafb-254e-45f1-ae5f-0b69a18d9bcb)
    (property "Reference" "C4" (at 149.86 56.515 0)
      (effects (font (size 1.27 1.27)) (justify left))
    )
    (property "Value" "100n" (at 155.575 52.705 0)
      (effects (font (size 1.27 1.27)) (justify left))
    )
    (property "Footprint" "Capacitor_SMD:C_0603_1608Metric" (at 155.9052 58.42 0)
      (effects (font (size 1.27 1.27)) hide)
    )
    (property "Datasheet" "~" (at 154.94 54.61 0)
      (effects (font (size 1.27 1.27)) hide)
    )
    (property "LCSC" "C14663" (at 154.94 54.61 0)
      (effects (font (size 1.524 1.524)) hide)
    )
    (property "TYPE" "0603" (at 154.94 54.61 0)
      (effects (font (size 1.524 1.524)) hide)
    )
    (pin "1" (uuid f391c221-51eb-43b7-88a7-a122317d1f27))
    (pin "2" (uuid 7ebb3814-d989-4c69-95f5-01413a2169a6))
    (instances
      (project "I2C_Module_SHT45_BME280_small_FUEL4EP"
        (path "/3d79d0da-8f51-438a-bc9e-e7450f89b514"
          (reference "C4") (unit 1)
        )
      )
    )
  )

  (symbol (lib_id "power:GND") (at 97.79 116.84 0) (unit 1)
    (in_bom yes) (on_board yes) (dnp no)
    (uuid 2fb280af-9352-43f7-93d8-89326fb5dc6f)
    (property "Reference" "#PWR02" (at 97.79 123.19 0)
      (effects (font (size 1.27 1.27)) hide)
    )
    (property "Value" "GND" (at 97.79 120.904 0)
      (effects (font (size 1.27 1.27)))
    )
    (property "Footprint" "" (at 97.79 116.84 0)
      (effects (font (size 1.27 1.27)) hide)
    )
    (property "Datasheet" "" (at 97.79 116.84 0)
      (effects (font (size 1.27 1.27)) hide)
    )
    (pin "1" (uuid 1008e998-9702-4d62-8ade-4b70e29aa411))
    (instances
      (project "I2C_Module_SHT45_BME280_small_FUEL4EP"
        (path "/3d79d0da-8f51-438a-bc9e-e7450f89b514"
          (reference "#PWR02") (unit 1)
        )
      )
    )
  )

  (symbol (lib_id "power:GND") (at 154.94 48.26 180) (unit 1)
    (in_bom yes) (on_board yes) (dnp no) (fields_autoplaced)
    (uuid 39c981d4-90c2-4351-9cc1-d14a1fc120d1)
    (property "Reference" "#PWR05" (at 154.94 41.91 0)
      (effects (font (size 1.27 1.27)) hide)
    )
    (property "Value" "GND" (at 154.94 43.18 0)
      (effects (font (size 1.27 1.27)))
    )
    (property "Footprint" "" (at 154.94 48.26 0)
      (effects (font (size 1.27 1.27)) hide)
    )
    (property "Datasheet" "" (at 154.94 48.26 0)
      (effects (font (size 1.27 1.27)) hide)
    )
    (pin "1" (uuid d9dfc441-3381-479c-9970-069437d25527))
    (instances
      (project "I2C_Module_SHT45_BME280_small_FUEL4EP"
        (path "/3d79d0da-8f51-438a-bc9e-e7450f89b514"
          (reference "#PWR05") (unit 1)
        )
      )
    )
  )

  (symbol (lib_id "power:GND") (at 190.5 87.63 0) (unit 1)
    (in_bom yes) (on_board yes) (dnp no) (fields_autoplaced)
    (uuid 3c4dcae3-942c-4516-aa17-b3223b1ea5e6)
    (property "Reference" "#PWR010" (at 190.5 93.98 0)
      (effects (font (size 1.27 1.27)) hide)
    )
    (property "Value" "GND" (at 190.5 92.71 0)
      (effects (font (size 1.27 1.27)))
    )
    (property "Footprint" "" (at 190.5 87.63 0)
      (effects (font (size 1.27 1.27)) hide)
    )
    (property "Datasheet" "" (at 190.5 87.63 0)
      (effects (font (size 1.27 1.27)) hide)
    )
    (pin "1" (uuid 9874818d-0895-43ca-929c-a02c9cf24a85))
    (instances
      (project "I2C_Module_SHT45_BME280_small_FUEL4EP"
        (path "/3d79d0da-8f51-438a-bc9e-e7450f89b514"
          (reference "#PWR010") (unit 1)
        )
      )
    )
  )

  (symbol (lib_id "Sensor_Humidity:SHT4x") (at 100.33 82.55 0) (unit 1)
    (in_bom yes) (on_board yes) (dnp no)
    (uuid 4286b13a-2c83-4a2b-871b-df5ad20905f3)
    (property "Reference" "U2" (at 93.472 89.154 0)
      (effects (font (size 1.27 1.27)) (justify left))
    )
    (property "Value" "SHT45-AD1B-R2" (at 105.918 81.026 0)
      (effects (font (size 1.27 1.27)) (justify left))
    )
    (property "Footprint" "FUEL4EP:SHT4X" (at 104.14 88.9 0)
      (effects (font (size 1.27 1.27)) (justify left) hide)
    )
    (property "Datasheet" "https://sensirion.com/media/documents/33FD6951/624C4357/Datasheet_SHT4x.pdf" (at 104.14 91.44 0)
      (effects (font (size 1.27 1.27)) (justify left) hide)
    )
    (property "LCSC" "C5221601" (at 100.33 82.55 0)
      (effects (font (size 1.524 1.524)) hide)
    )
    (property "TYPE" "DFN-4" (at 100.33 82.55 0)
      (effects (font (size 1.524 1.524)) hide)
    )
    (pin "1" (uuid cff73a41-ea70-4043-80bd-478cbd6b09b3))
    (pin "2" (uuid cb834777-0a58-4f7d-a77d-c5dee6bf7e4a))
    (pin "3" (uuid 8dd885d9-c0f3-4f03-9643-61c45aeebbe2))
    (pin "4" (uuid ee66093b-bda1-4ada-87d1-a6b4a0a31541))
    (instances
      (project "I2C_Module_SHT45_BME280_small_FUEL4EP"
        (path "/3d79d0da-8f51-438a-bc9e-e7450f89b514"
          (reference "U2") (unit 1)
        )
      )
    )
  )

  (symbol (lib_id "power:VCC") (at 125.73 48.26 0) (unit 1)
    (in_bom yes) (on_board yes) (dnp no) (fields_autoplaced)
    (uuid 44ce4df4-4308-4848-86f4-f06392f96ff2)
    (property "Reference" "#PWR03" (at 125.73 52.07 0)
      (effects (font (size 1.27 1.27)) hide)
    )
    (property "Value" "VCC" (at 125.73 43.18 0)
      (effects (font (size 1.27 1.27)))
    )
    (property "Footprint" "" (at 125.73 48.26 0)
      (effects (font (size 1.27 1.27)) hide)
    )
    (property "Datasheet" "" (at 125.73 48.26 0)
      (effects (font (size 1.27 1.27)) hide)
    )
    (pin "1" (uuid 16fcfe5b-490f-4f82-ae39-d17fb8f063ea))
    (instances
      (project "I2C_Module_SHT45_BME280_small_FUEL4EP"
        (path "/3d79d0da-8f51-438a-bc9e-e7450f89b514"
          (reference "#PWR03") (unit 1)
        )
      )
    )
  )

  (symbol (lib_id "power:PWR_FLAG") (at 82.55 121.92 0) (unit 1)
    (in_bom yes) (on_board yes) (dnp no) (fields_autoplaced)
    (uuid 474ed406-e6ae-4937-a2f1-706819b7a292)
    (property "Reference" "#FLG0101" (at 82.55 120.015 0)
      (effects (font (size 1.27 1.27)) hide)
    )
    (property "Value" "PWR_FLAG" (at 82.55 116.84 0)
      (effects (font (size 1.27 1.27)))
    )
    (property "Footprint" "" (at 82.55 121.92 0)
      (effects (font (size 1.27 1.27)) hide)
    )
    (property "Datasheet" "~" (at 82.55 121.92 0)
      (effects (font (size 1.27 1.27)) hide)
    )
    (pin "1" (uuid 82d1bdc2-6bbb-4785-a760-224cae33258b))
    (instances
      (project "I2C_Module_SHT45_BME280_small_FUEL4EP"
        (path "/3d79d0da-8f51-438a-bc9e-e7450f89b514"
          (reference "#FLG0101") (unit 1)
        )
      )
    )
  )

  (symbol (lib_id "Device:C") (at 102.87 54.61 0) (unit 1)
    (in_bom yes) (on_board yes) (dnp no)
    (uuid 62488e6b-8df2-4cae-9dee-c1f753cf9830)
    (property "Reference" "C2" (at 97.79 56.515 0)
      (effects (font (size 1.27 1.27)) (justify left))
    )
    (property "Value" "100n" (at 103.505 52.705 0)
      (effects (font (size 1.27 1.27)) (justify left))
    )
    (property "Footprint" "Capacitor_SMD:C_0603_1608Metric" (at 103.8352 58.42 0)
      (effects (font (size 1.27 1.27)) hide)
    )
    (property "Datasheet" "~" (at 102.87 54.61 0)
      (effects (font (size 1.27 1.27)) hide)
    )
    (property "LCSC" "C14663" (at 102.87 54.61 0)
      (effects (font (size 1.524 1.524)) hide)
    )
    (property "TYPE" "0603" (at 102.87 54.61 0)
      (effects (font (size 1.524 1.524)) hide)
    )
    (pin "1" (uuid 3ec53d22-fbe3-436f-b4fe-d8fe7e9382df))
    (pin "2" (uuid decbd54b-ec67-4e41-8b83-69ba8c3fc7bf))
    (instances
      (project "I2C_Module_SHT45_BME280_small_FUEL4EP"
        (path "/3d79d0da-8f51-438a-bc9e-e7450f89b514"
          (reference "C2") (unit 1)
        )
      )
    )
  )

  (symbol (lib_id "Sensor:BME280") (at 147.32 82.55 0) (unit 1)
    (in_bom yes) (on_board yes) (dnp no)
    (uuid 6c020e64-a15a-4a6f-ab04-2470855149f2)
    (property "Reference" "U1" (at 137.16 94.615 0)
      (effects (font (size 1.27 1.27)) (justify right))
    )
    (property "Value" "BME280" (at 149.225 83.185 0)
      (effects (font (size 1.27 1.27)) (justify right))
    )
    (property "Footprint" "Package_LGA:Bosch_LGA-8_2.5x2.5mm_P0.65mm_ClockwisePinNumbering" (at 185.42 93.98 0)
      (effects (font (size 1.27 1.27)) hide)
    )
    (property "Datasheet" "https://www.bosch-sensortec.com/media/boschsensortec/downloads/datasheets/bst-bme280-ds002.pdf" (at 147.32 87.63 0)
      (effects (font (size 1.27 1.27)) hide)
    )
    (property "LCSC" "C92489" (at 147.32 82.55 0)
      (effects (font (size 1.524 1.524)) hide)
    )
    (property "TYPE" "LGA-8" (at 147.32 82.55 0)
      (effects (font (size 1.524 1.524)) hide)
    )
    (pin "1" (uuid 9f9d2b0d-ecaa-4396-9d6a-e4cd8fe5f12b))
    (pin "2" (uuid a276ce02-b7d8-406e-84bf-fdb58f5070a5))
    (pin "3" (uuid cd374af1-7db7-4028-a4dc-53091bee46f4))
    (pin "4" (uuid ac53653c-3b3c-47ed-9f09-ada1c28e1dc6))
    (pin "5" (uuid 07a17593-5dec-4eaa-819e-5f2be7f53228))
    (pin "6" (uuid 7ccff060-8694-477c-bcab-e11194f2619f))
    (pin "7" (uuid f36fd2af-2afa-4a8c-add0-c862165f3786))
    (pin "8" (uuid 96bb908d-a804-4259-8ca6-21aae3128d33))
    (instances
      (project "I2C_Module_SHT45_BME280_small_FUEL4EP"
        (path "/3d79d0da-8f51-438a-bc9e-e7450f89b514"
          (reference "U1") (unit 1)
        )
      )
    )
  )

  (symbol (lib_id "power:PWR_FLAG") (at 110.49 116.84 180) (unit 1)
    (in_bom yes) (on_board yes) (dnp no)
    (uuid 7820c09a-77a5-4506-a798-0f22336e0c44)
    (property "Reference" "#FLG0102" (at 110.49 118.745 0)
      (effects (font (size 1.27 1.27)) hide)
    )
    (property "Value" "PWR_FLAG" (at 108.458 120.65 0)
      (effects (font (size 1.27 1.27)) (justify right))
    )
    (property "Footprint" "" (at 110.49 116.84 0)
      (effects (font (size 1.27 1.27)) hide)
    )
    (property "Datasheet" "~" (at 110.49 116.84 0)
      (effects (font (size 1.27 1.27)) hide)
    )
    (pin "1" (uuid 13d6824a-8a5f-497f-934e-d46c595fc049))
    (instances
      (project "I2C_Module_SHT45_BME280_small_FUEL4EP"
        (path "/3d79d0da-8f51-438a-bc9e-e7450f89b514"
          (reference "#FLG0102") (unit 1)
        )
      )
    )
  )

  (symbol (lib_id "Device:C") (at 80.01 130.81 0) (unit 1)
    (in_bom yes) (on_board yes) (dnp no)
    (uuid 9277bb0e-19d3-46da-98d4-733854d0b690)
    (property "Reference" "C1" (at 76.073 128.905 90)
      (effects (font (size 1.27 1.27)))
    )
    (property "Value" "4.7u" (at 83.693 132.715 90)
      (effects (font (size 1.27 1.27)))
    )
    (property "Footprint" "Capacitor_SMD:C_0603_1608Metric" (at 80.9752 134.62 0)
      (effects (font (size 1.27 1.27)) hide)
    )
    (property "Datasheet" "~" (at 80.01 130.81 0)
      (effects (font (size 1.27 1.27)) hide)
    )
    (property "LCSC" "C19666" (at 80.01 130.81 90)
      (effects (font (size 1.524 1.524)) hide)
    )
    (property "TYPE" "0603" (at 80.01 130.81 90)
      (effects (font (size 1.524 1.524)) hide)
    )
    (pin "1" (uuid de2657bd-1fcc-4fb6-8d8d-98b4f515c06e))
    (pin "2" (uuid fa48a320-d18d-494e-8963-10acedc05e36))
    (instances
      (project "I2C_Module_SHT45_BME280_small_FUEL4EP"
        (path "/3d79d0da-8f51-438a-bc9e-e7450f89b514"
          (reference "C1") (unit 1)
        )
      )
    )
  )

  (symbol (lib_id "Device:C") (at 138.43 54.61 0) (unit 1)
    (in_bom yes) (on_board yes) (dnp no)
    (uuid 970a920d-499e-47de-938b-2563766d170a)
    (property "Reference" "C3" (at 133.35 56.515 0)
      (effects (font (size 1.27 1.27)) (justify left))
    )
    (property "Value" "100n" (at 139.065 52.705 0)
      (effects (font (size 1.27 1.27)) (justify left))
    )
    (property "Footprint" "Capacitor_SMD:C_0603_1608Metric" (at 139.3952 58.42 0)
      (effects (font (size 1.27 1.27)) hide)
    )
    (property "Datasheet" "~" (at 138.43 54.61 0)
      (effects (font (size 1.27 1.27)) hide)
    )
    (property "LCSC" "C14663" (at 138.43 54.61 0)
      (effects (font (size 1.524 1.524)) hide)
    )
    (property "TYPE" "0603" (at 138.43 54.61 0)
      (effects (font (size 1.524 1.524)) hide)
    )
    (pin "1" (uuid 8a9d921d-dad0-42f6-ac6c-87ec93dafd4f))
    (pin "2" (uuid 655d7078-298e-4210-a77e-a82632f281a4))
    (instances
      (project "I2C_Module_SHT45_BME280_small_FUEL4EP"
        (path "/3d79d0da-8f51-438a-bc9e-e7450f89b514"
          (reference "C3") (unit 1)
        )
      )
    )
  )

  (symbol (lib_id "power:VDDA") (at 190.5 48.26 0) (unit 1)
    (in_bom yes) (on_board yes) (dnp no) (fields_autoplaced)
    (uuid a121b099-a473-4e92-8fb1-899509069d29)
    (property "Reference" "#PWR0101" (at 190.5 52.07 0)
      (effects (font (size 1.27 1.27)) hide)
    )
    (property "Value" "VDDA" (at 190.5 43.18 0)
      (effects (font (size 1.27 1.27)))
    )
    (property "Footprint" "" (at 190.5 48.26 0)
      (effects (font (size 1.27 1.27)) hide)
    )
    (property "Datasheet" "" (at 190.5 48.26 0)
      (effects (font (size 1.27 1.27)) hide)
    )
    (pin "1" (uuid 6f189a89-87bc-47be-9a24-879b15b448bf))
    (instances
      (project "I2C_Module_SHT45_BME280_small_FUEL4EP"
        (path "/3d79d0da-8f51-438a-bc9e-e7450f89b514"
          (reference "#PWR0101") (unit 1)
        )
      )
    )
  )

  (symbol (lib_id "Jumper:SolderJumper_2_Bridged") (at 190.5 81.28 90) (unit 1)
    (in_bom yes) (on_board yes) (dnp no) (fields_autoplaced)
    (uuid a7c038cf-e13a-4aac-9478-087fe9ad0674)
    (property "Reference" "JP1" (at 193.04 80.0099 90)
      (effects (font (size 1.27 1.27)) (justify right))
    )
    (property "Value" "SolderJumper_2_Bridged" (at 193.04 82.5499 90)
      (effects (font (size 1.27 1.27)) (justify right))
    )
    (property "Footprint" "Jumper:SolderJumper-2_P1.3mm_Bridged_Pad1.0x1.5mm" (at 190.5 81.28 0)
      (effects (font (size 1.27 1.27)) hide)
    )
    (property "Datasheet" "~" (at 190.5 81.28 0)
      (effects (font (size 1.27 1.27)) hide)
    )
    (pin "1" (uuid bb3975a3-9bb7-4260-a69b-24c99760136b))
    (pin "2" (uuid 12688bee-cca8-4887-9f85-b93db58b65ff))
    (instances
      (project "I2C_Module_SHT45_BME280_small_FUEL4EP"
        (path "/3d79d0da-8f51-438a-bc9e-e7450f89b514"
          (reference "JP1") (unit 1)
        )
      )
    )
  )

  (symbol (lib_id "power:GND") (at 80.01 135.89 0) (unit 1)
    (in_bom yes) (on_board yes) (dnp no)
    (uuid a983765c-8554-4fd1-ba5d-ed35ede7ef6a)
    (property "Reference" "#PWR0103" (at 80.01 142.24 0)
      (effects (font (size 1.27 1.27)) hide)
    )
    (property "Value" "GND" (at 80.01 139.954 0)
      (effects (font (size 1.27 1.27)))
    )
    (property "Footprint" "" (at 80.01 135.89 0)
      (effects (font (size 1.27 1.27)) hide)
    )
    (property "Datasheet" "" (at 80.01 135.89 0)
      (effects (font (size 1.27 1.27)) hide)
    )
    (pin "1" (uuid 7cef9d8b-c969-4eb1-860a-c35c52b541e8))
    (instances
      (project "I2C_Module_SHT45_BME280_small_FUEL4EP"
        (path "/3d79d0da-8f51-438a-bc9e-e7450f89b514"
          (reference "#PWR0103") (unit 1)
        )
      )
    )
  )

  (symbol (lib_id "Jumper:SolderJumper_2_Open") (at 190.5 55.88 90) (unit 1)
    (in_bom yes) (on_board yes) (dnp no) (fields_autoplaced)
    (uuid b889a1c3-a4da-464d-9533-bc6f3c66c6a7)
    (property "Reference" "JP2" (at 193.04 54.61 90)
      (effects (font (size 1.27 1.27)) (justify right))
    )
    (property "Value" "SolderJumper_2_Open" (at 193.04 57.15 90)
      (effects (font (size 1.27 1.27)) (justify right))
    )
    (property "Footprint" "Jumper:SolderJumper-2_P1.3mm_Open_Pad1.0x1.5mm" (at 190.5 55.88 0)
      (effects (font (size 1.27 1.27)) hide)
    )
    (property "Datasheet" "~" (at 190.5 55.88 0)
      (effects (font (size 1.27 1.27)) hide)
    )
    (pin "1" (uuid ecbbb074-b6f3-4fb0-a664-7bcf2ff51ed8))
    (pin "2" (uuid e68fba0b-724e-430a-b9ad-b6ebe08da6bd))
    (instances
      (project "I2C_Module_SHT45_BME280_small_FUEL4EP"
        (path "/3d79d0da-8f51-438a-bc9e-e7450f89b514"
          (reference "JP2") (unit 1)
        )
      )
    )
  )

  (symbol (lib_id "power:PWR_FLAG") (at 121.92 116.84 180) (unit 1)
    (in_bom yes) (on_board yes) (dnp no)
    (uuid b998681a-aa50-4b75-bf22-d9fbe42fce6f)
    (property "Reference" "#FLG02" (at 121.92 118.745 0)
      (effects (font (size 1.27 1.27)) hide)
    )
    (property "Value" "PWR_FLAG" (at 119.888 120.65 0)
      (effects (font (size 1.27 1.27)) (justify right))
    )
    (property "Footprint" "" (at 121.92 116.84 0)
      (effects (font (size 1.27 1.27)) hide)
    )
    (property "Datasheet" "~" (at 121.92 116.84 0)
      (effects (font (size 1.27 1.27)) hide)
    )
    (pin "1" (uuid ac94a68c-b703-4c42-bf93-3a16f639e9cf))
    (instances
      (project "I2C_Module_SHT45_BME280_small_FUEL4EP"
        (path "/3d79d0da-8f51-438a-bc9e-e7450f89b514"
          (reference "#FLG02") (unit 1)
        )
      )
    )
  )

  (symbol (lib_id "power:GND") (at 102.87 48.26 180) (unit 1)
    (in_bom yes) (on_board yes) (dnp no) (fields_autoplaced)
    (uuid b9ee5250-0210-4fd4-abf8-6419214a066d)
    (property "Reference" "#PWR09" (at 102.87 41.91 0)
      (effects (font (size 1.27 1.27)) hide)
    )
    (property "Value" "GND" (at 102.87 43.18 0)
      (effects (font (size 1.27 1.27)))
    )
    (property "Footprint" "" (at 102.87 48.26 0)
      (effects (font (size 1.27 1.27)) hide)
    )
    (property "Datasheet" "" (at 102.87 48.26 0)
      (effects (font (size 1.27 1.27)) hide)
    )
    (pin "1" (uuid 651b7bc3-5096-4a28-b389-76759e11660b))
    (instances
      (project "I2C_Module_SHT45_BME280_small_FUEL4EP"
        (path "/3d79d0da-8f51-438a-bc9e-e7450f89b514"
          (reference "#PWR09") (unit 1)
        )
      )
    )
  )

  (symbol (lib_id "power:VDDA") (at 167.64 48.26 0) (unit 1)
    (in_bom yes) (on_board yes) (dnp no) (fields_autoplaced)
    (uuid dbb388fc-d8a4-4d80-969d-65fb9a131965)
    (property "Reference" "#PWR0102" (at 167.64 52.07 0)
      (effects (font (size 1.27 1.27)) hide)
    )
    (property "Value" "VDDA" (at 167.64 43.18 0)
      (effects (font (size 1.27 1.27)))
    )
    (property "Footprint" "" (at 167.64 48.26 0)
      (effects (font (size 1.27 1.27)) hide)
    )
    (property "Datasheet" "" (at 167.64 48.26 0)
      (effects (font (size 1.27 1.27)) hide)
    )
    (pin "1" (uuid 1c833f25-4942-41e0-82be-5b1d024a7d49))
    (instances
      (project "I2C_Module_SHT45_BME280_small_FUEL4EP"
        (path "/3d79d0da-8f51-438a-bc9e-e7450f89b514"
          (reference "#PWR0102") (unit 1)
        )
      )
    )
  )

  (symbol (lib_id "Device:R") (at 175.26 120.65 0) (unit 1)
    (in_bom yes) (on_board yes) (dnp no)
    (uuid f75dc7be-70bf-4119-8c06-195e1a960dd2)
    (property "Reference" "R2" (at 171.45 123.19 0)
      (effects (font (size 1.27 1.27)) (justify left))
    )
    (property "Value" "10k" (at 175.26 122.555 90)
      (effects (font (size 1.27 1.27)) (justify left))
    )
    (property "Footprint" "Resistor_SMD:R_0402_1005Metric" (at 173.482 120.65 90)
      (effects (font (size 1.27 1.27)) hide)
    )
    (property "Datasheet" "~" (at 175.26 120.65 0)
      (effects (font (size 1.27 1.27)) hide)
    )
    (property "LCSC" "C25744" (at 175.26 120.65 0)
      (effects (font (size 1.524 1.524)) hide)
    )
    (property "TYPE" "0402" (at 175.26 120.65 0)
      (effects (font (size 1.524 1.524)) hide)
    )
    (pin "1" (uuid 1001186e-346f-4f84-9742-5a5fec898796))
    (pin "2" (uuid faf9bab8-1368-4251-9fa8-b7d76e945ecb))
    (instances
      (project "I2C_Module_SHT45_BME280_small_FUEL4EP"
        (path "/3d79d0da-8f51-438a-bc9e-e7450f89b514"
          (reference "R2") (unit 1)
        )
      )
    )
  )

  (sheet_instances
    (path "/" (page "1"))
  )
)
