(kicad_sch (version 20230121) (generator eeschema)

  (uuid 0afc8d49-404d-4a13-b287-59831174923e)

  (paper "A4")

  (lib_symbols
    (symbol "Connector:TestPoint" (pin_numbers hide) (pin_names (offset 0.762) hide) (in_bom yes) (on_board yes)
      (property "Reference" "TP" (at 0 6.858 0)
        (effects (font (size 1.27 1.27)))
      )
      (property "Value" "TestPoint" (at 0 5.08 0)
        (effects (font (size 1.27 1.27)))
      )
      (property "Footprint" "" (at 5.08 0 0)
        (effects (font (size 1.27 1.27)) hide)
      )
      (property "Datasheet" "~" (at 5.08 0 0)
        (effects (font (size 1.27 1.27)) hide)
      )
      (property "ki_keywords" "test point tp" (at 0 0 0)
        (effects (font (size 1.27 1.27)) hide)
      )
      (property "ki_description" "test point" (at 0 0 0)
        (effects (font (size 1.27 1.27)) hide)
      )
      (property "ki_fp_filters" "Pin* Test*" (at 0 0 0)
        (effects (font (size 1.27 1.27)) hide)
      )
      (symbol "TestPoint_0_1"
        (circle (center 0 3.302) (radius 0.762)
          (stroke (width 0) (type default))
          (fill (type none))
        )
      )
      (symbol "TestPoint_1_1"
        (pin passive line (at 0 0 90) (length 2.54)
          (name "1" (effects (font (size 1.27 1.27))))
          (number "1" (effects (font (size 1.27 1.27))))
        )
      )
    )
    (symbol "Device:C_Polarized_Small" (pin_numbers hide) (pin_names (offset 0.254) hide) (in_bom yes) (on_board yes)
      (property "Reference" "C" (at 0.254 1.778 0)
        (effects (font (size 1.27 1.27)) (justify left))
      )
      (property "Value" "C_Polarized_Small" (at 0.254 -2.032 0)
        (effects (font (size 1.27 1.27)) (justify left))
      )
      (property "Footprint" "" (at 0 0 0)
        (effects (font (size 1.27 1.27)) hide)
      )
      (property "Datasheet" "~" (at 0 0 0)
        (effects (font (size 1.27 1.27)) hide)
      )
      (property "ki_keywords" "cap capacitor" (at 0 0 0)
        (effects (font (size 1.27 1.27)) hide)
      )
      (property "ki_description" "Polarized capacitor, small symbol" (at 0 0 0)
        (effects (font (size 1.27 1.27)) hide)
      )
      (property "ki_fp_filters" "CP_*" (at 0 0 0)
        (effects (font (size 1.27 1.27)) hide)
      )
      (symbol "C_Polarized_Small_0_1"
        (rectangle (start -1.524 -0.3048) (end 1.524 -0.6858)
          (stroke (width 0) (type default))
          (fill (type outline))
        )
        (rectangle (start -1.524 0.6858) (end 1.524 0.3048)
          (stroke (width 0) (type default))
          (fill (type none))
        )
        (polyline
          (pts
            (xy -1.27 1.524)
            (xy -0.762 1.524)
          )
          (stroke (width 0) (type default))
          (fill (type none))
        )
        (polyline
          (pts
            (xy -1.016 1.27)
            (xy -1.016 1.778)
          )
          (stroke (width 0) (type default))
          (fill (type none))
        )
      )
      (symbol "C_Polarized_Small_1_1"
        (pin passive line (at 0 2.54 270) (length 1.8542)
          (name "~" (effects (font (size 1.27 1.27))))
          (number "1" (effects (font (size 1.27 1.27))))
        )
        (pin passive line (at 0 -2.54 90) (length 1.8542)
          (name "~" (effects (font (size 1.27 1.27))))
          (number "2" (effects (font (size 1.27 1.27))))
        )
      )
    )
    (symbol "Diode:1N4448W" (pin_numbers hide) (pin_names hide) (in_bom yes) (on_board yes)
      (property "Reference" "D" (at 0 2.54 0)
        (effects (font (size 1.27 1.27)))
      )
      (property "Value" "1N4448W" (at 0 -2.54 0)
        (effects (font (size 1.27 1.27)))
      )
      (property "Footprint" "Diode_SMD:D_SOD-123" (at 0 -4.445 0)
        (effects (font (size 1.27 1.27)) hide)
      )
      (property "Datasheet" "https://www.vishay.com/docs/85722/1n4448w.pdf" (at 0 0 0)
        (effects (font (size 1.27 1.27)) hide)
      )
      (property "Sim.Device" "D" (at 0 0 0)
        (effects (font (size 1.27 1.27)) hide)
      )
      (property "Sim.Pins" "1=K 2=A" (at 0 0 0)
        (effects (font (size 1.27 1.27)) hide)
      )
      (property "ki_keywords" "diode" (at 0 0 0)
        (effects (font (size 1.27 1.27)) hide)
      )
      (property "ki_description" "100V 0.15A High-speed standard diode, SOD-123" (at 0 0 0)
        (effects (font (size 1.27 1.27)) hide)
      )
      (property "ki_fp_filters" "D*SOD?123*" (at 0 0 0)
        (effects (font (size 1.27 1.27)) hide)
      )
      (symbol "1N4448W_0_1"
        (polyline
          (pts
            (xy -1.27 1.27)
            (xy -1.27 -1.27)
          )
          (stroke (width 0.254) (type default))
          (fill (type none))
        )
        (polyline
          (pts
            (xy 1.27 0)
            (xy -1.27 0)
          )
          (stroke (width 0) (type default))
          (fill (type none))
        )
        (polyline
          (pts
            (xy 1.27 1.27)
            (xy 1.27 -1.27)
            (xy -1.27 0)
            (xy 1.27 1.27)
          )
          (stroke (width 0.254) (type default))
          (fill (type none))
        )
      )
      (symbol "1N4448W_1_1"
        (pin passive line (at -3.81 0 0) (length 2.54)
          (name "K" (effects (font (size 1.27 1.27))))
          (number "1" (effects (font (size 1.27 1.27))))
        )
        (pin passive line (at 3.81 0 180) (length 2.54)
          (name "A" (effects (font (size 1.27 1.27))))
          (number "2" (effects (font (size 1.27 1.27))))
        )
      )
    )
    (symbol "VFD-Power-eagle-import:DR125" (in_bom yes) (on_board yes)
      (property "Reference" "L" (at -3.81 2.286 0)
        (effects (font (size 1.778 1.5113)) (justify left bottom))
      )
      (property "Value" "" (at -3.937 -3.048 0)
        (effects (font (size 1.778 1.5113)) (justify left bottom))
      )
      (property "Footprint" "VFD-Power:DR125" (at 0 0 0)
        (effects (font (size 1.27 1.27)) hide)
      )
      (property "Datasheet" "" (at 0 0 0)
        (effects (font (size 1.27 1.27)) hide)
      )
      (property "ki_locked" "" (at 0 0 0)
        (effects (font (size 1.27 1.27)))
      )
      (symbol "DR125_1_0"
        (rectangle (start -3.81 -0.889) (end 3.81 0.889)
          (stroke (width 0) (type default))
          (fill (type outline))
        )
        (polyline
          (pts
            (xy -3.81 1.651)
            (xy 3.81 1.651)
          )
          (stroke (width 0.254) (type solid))
          (fill (type none))
        )
        (pin passive line (at -7.62 0 0) (length 5.08)
          (name "1" (effects (font (size 0 0))))
          (number "1" (effects (font (size 1.27 1.27))))
        )
        (pin passive line (at 7.62 0 180) (length 5.08)
          (name "2" (effects (font (size 0 0))))
          (number "2" (effects (font (size 1.27 1.27))))
        )
      )
    )
    (symbol "VFD-Power-eagle-import:GND" (power) (in_bom yes) (on_board yes)
      (property "Reference" "#GND" (at 0 0 0)
        (effects (font (size 1.27 1.27)) hide)
      )
      (property "Value" "GND" (at -2.54 -2.54 0)
        (effects (font (size 1.778 1.5113)) (justify left bottom))
      )
      (property "Footprint" "" (at 0 0 0)
        (effects (font (size 1.27 1.27)) hide)
      )
      (property "Datasheet" "" (at 0 0 0)
        (effects (font (size 1.27 1.27)) hide)
      )
      (property "ki_locked" "" (at 0 0 0)
        (effects (font (size 1.27 1.27)))
      )
      (symbol "GND_1_0"
        (polyline
          (pts
            (xy -1.905 0)
            (xy 1.905 0)
          )
          (stroke (width 0.254) (type solid))
          (fill (type none))
        )
        (pin power_in line (at 0 2.54 270) (length 2.54)
          (name "GND" (effects (font (size 0 0))))
          (number "1" (effects (font (size 0 0))))
        )
      )
    )
    (symbol "VFD-Power-eagle-import:R-EU_R1206" (in_bom yes) (on_board yes)
      (property "Reference" "R" (at -3.81 1.4986 0)
        (effects (font (size 1.778 1.5113)) (justify left bottom))
      )
      (property "Value" "" (at -3.81 -3.302 0)
        (effects (font (size 1.778 1.5113)) (justify left bottom))
      )
      (property "Footprint" "VFD-Power:R1206" (at 0 0 0)
        (effects (font (size 1.27 1.27)) hide)
      )
      (property "Datasheet" "" (at 0 0 0)
        (effects (font (size 1.27 1.27)) hide)
      )
      (property "ki_locked" "" (at 0 0 0)
        (effects (font (size 1.27 1.27)))
      )
      (symbol "R-EU_R1206_1_0"
        (polyline
          (pts
            (xy -2.54 -0.889)
            (xy -2.54 0.889)
          )
          (stroke (width 0.254) (type solid))
          (fill (type none))
        )
        (polyline
          (pts
            (xy -2.54 -0.889)
            (xy 2.54 -0.889)
          )
          (stroke (width 0.254) (type solid))
          (fill (type none))
        )
        (polyline
          (pts
            (xy 2.54 -0.889)
            (xy 2.54 0.889)
          )
          (stroke (width 0.254) (type solid))
          (fill (type none))
        )
        (polyline
          (pts
            (xy 2.54 0.889)
            (xy -2.54 0.889)
          )
          (stroke (width 0.254) (type solid))
          (fill (type none))
        )
        (pin passive line (at -5.08 0 0) (length 2.54)
          (name "1" (effects (font (size 0 0))))
          (number "1" (effects (font (size 0 0))))
        )
        (pin passive line (at 5.08 0 180) (length 2.54)
          (name "2" (effects (font (size 0 0))))
          (number "2" (effects (font (size 0 0))))
        )
      )
    )
    (symbol "VFD-Power:C-EUC1206" (in_bom yes) (on_board yes)
      (property "Reference" "C" (at 1.524 0.381 0)
        (effects (font (size 1.778 1.5113)) (justify left bottom))
      )
      (property "Value" "" (at 1.524 -4.699 0)
        (effects (font (size 1.778 1.5113)) (justify left bottom))
      )
      (property "Footprint" "VFD-Power:C1206" (at 0 0 0)
        (effects (font (size 1.27 1.27)) hide)
      )
      (property "Datasheet" "" (at 0 0 0)
        (effects (font (size 1.27 1.27)) hide)
      )
      (property "ki_locked" "" (at 0 0 0)
        (effects (font (size 1.27 1.27)))
      )
      (symbol "C-EUC1206_1_0"
        (rectangle (start -2.032 -2.032) (end 2.032 -1.524)
          (stroke (width 0) (type default))
          (fill (type outline))
        )
        (rectangle (start -2.032 -1.016) (end 2.032 -0.508)
          (stroke (width 0) (type default))
          (fill (type outline))
        )
        (polyline
          (pts
            (xy 0 -2.54)
            (xy 0 -2.032)
          )
          (stroke (width 0.1524) (type solid))
          (fill (type none))
        )
        (polyline
          (pts
            (xy 0 0)
            (xy 0 -0.508)
          )
          (stroke (width 0.1524) (type solid))
          (fill (type none))
        )
        (pin passive line (at 0 2.54 270) (length 2.54)
          (name "1" (effects (font (size 0 0))))
          (number "1" (effects (font (size 0 0))))
        )
        (pin passive line (at 0 -5.08 90) (length 2.54)
          (name "2" (effects (font (size 0 0))))
          (number "2" (effects (font (size 0 0))))
        )
      )
    )
    (symbol "VFD-Power:XL6009" (in_bom yes) (on_board yes)
      (property "Reference" "IC" (at -7.62 6.35 0)
        (effects (font (size 1.778 1.5113)) (justify left bottom))
      )
      (property "Value" "" (at 2.54 6.35 0)
        (effects (font (size 1.778 1.5113)) (justify left bottom))
      )
      (property "Footprint" "VFD-Power:TO263-5" (at 0 0 0)
        (effects (font (size 1.27 1.27)) hide)
      )
      (property "Datasheet" "" (at 0 0 0)
        (effects (font (size 1.27 1.27)) hide)
      )
      (property "ki_locked" "" (at 0 0 0)
        (effects (font (size 1.27 1.27)))
      )
      (symbol "XL6009_1_0"
        (polyline
          (pts
            (xy -7.62 -7.62)
            (xy -7.62 5.08)
          )
          (stroke (width 0.254) (type solid))
          (fill (type none))
        )
        (polyline
          (pts
            (xy -7.62 5.08)
            (xy 7.62 5.08)
          )
          (stroke (width 0.254) (type solid))
          (fill (type none))
        )
        (polyline
          (pts
            (xy 7.62 -7.62)
            (xy -7.62 -7.62)
          )
          (stroke (width 0.254) (type solid))
          (fill (type none))
        )
        (polyline
          (pts
            (xy 7.62 5.08)
            (xy 7.62 -7.62)
          )
          (stroke (width 0.254) (type solid))
          (fill (type none))
        )
        (text "SW" (at 0 -6.35 0)
          (effects (font (size 1.4224 1.209)) (justify left bottom))
        )
        (pin input line (at -10.16 2.54 0) (length 2.54)
          (name "GND" (effects (font (size 1.27 1.27))))
          (number "1" (effects (font (size 1.27 1.27))))
        )
        (pin output line (at 10.16 2.54 180) (length 2.54)
          (name "EN" (effects (font (size 1.27 1.27))))
          (number "2" (effects (font (size 1.27 1.27))))
        )
        (pin power_in line (at 0 -10.16 90) (length 2.54)
          (name "SW" (effects (font (size 0 0))))
          (number "3" (effects (font (size 1.27 1.27))))
        )
        (pin input line (at 10.16 -2.54 180) (length 2.54)
          (name "VIN" (effects (font (size 1.27 1.27))))
          (number "4" (effects (font (size 1.27 1.27))))
        )
        (pin input line (at -10.16 -2.54 0) (length 2.54)
          (name "FB" (effects (font (size 1.27 1.27))))
          (number "5" (effects (font (size 1.27 1.27))))
        )
        (pin power_in line (at 2.54 -10.16 90) (length 2.54)
          (name "SW@1" (effects (font (size 0 0))))
          (number "6" (effects (font (size 1.27 1.27))))
        )
      )
    )
    (symbol "power:+24V" (power) (pin_names (offset 0)) (in_bom yes) (on_board yes)
      (property "Reference" "#PWR" (at 0 -3.81 0)
        (effects (font (size 1.27 1.27)) hide)
      )
      (property "Value" "+24V" (at 0 3.556 0)
        (effects (font (size 1.27 1.27)))
      )
      (property "Footprint" "" (at 0 0 0)
        (effects (font (size 1.27 1.27)) hide)
      )
      (property "Datasheet" "" (at 0 0 0)
        (effects (font (size 1.27 1.27)) hide)
      )
      (property "ki_keywords" "global power" (at 0 0 0)
        (effects (font (size 1.27 1.27)) hide)
      )
      (property "ki_description" "Power symbol creates a global label with name \"+24V\"" (at 0 0 0)
        (effects (font (size 1.27 1.27)) hide)
      )
      (symbol "+24V_0_1"
        (polyline
          (pts
            (xy -0.762 1.27)
            (xy 0 2.54)
          )
          (stroke (width 0) (type default))
          (fill (type none))
        )
        (polyline
          (pts
            (xy 0 0)
            (xy 0 2.54)
          )
          (stroke (width 0) (type default))
          (fill (type none))
        )
        (polyline
          (pts
            (xy 0 2.54)
            (xy 0.762 1.27)
          )
          (stroke (width 0) (type default))
          (fill (type none))
        )
      )
      (symbol "+24V_1_1"
        (pin power_in line (at 0 0 90) (length 0) hide
          (name "+24V" (effects (font (size 1.27 1.27))))
          (number "1" (effects (font (size 1.27 1.27))))
        )
      )
    )
  )

  (junction (at 189.23 71.12) (diameter 0) (color 0 0 0 0)
    (uuid 076e74dc-34d2-42cb-9ee6-edd4dece267d)
  )
  (junction (at 96.52 71.12) (diameter 0) (color 0 0 0 0)
    (uuid 40288731-95e1-4394-abba-a179cd4c16c3)
  )
  (junction (at 62.23 87.63) (diameter 0) (color 0 0 0 0)
    (uuid 54633e88-1411-4fb4-9eeb-a165ecc7ff40)
  )
  (junction (at 116.84 59.69) (diameter 0) (color 0 0 0 0)
    (uuid 795be241-ce35-420b-b372-7b7666773ab7)
  )
  (junction (at 149.86 71.12) (diameter 0) (color 0 0 0 0)
    (uuid 84897a1e-6301-4a08-a5b9-72cc1eeca9c3)
  )
  (junction (at 77.724 100.076) (diameter 0) (color 0 0 0 0)
    (uuid 9a4cf727-aaaf-48e9-934a-aa7c5edff0c3)
  )
  (junction (at 137.16 71.12) (diameter 0) (color 0 0 0 0)
    (uuid 9c69d8be-72f9-47a2-9fdb-f536f3a3ccc4)
  )
  (junction (at 128.27 71.12) (diameter 0) (color 0 0 0 0)
    (uuid a540ad4f-1b68-4f9e-9f57-f14cc9232133)
  )
  (junction (at 116.84 71.12) (diameter 0) (color 0 0 0 0)
    (uuid af8492c4-5891-443f-b3ae-e2a16c0fd658)
  )
  (junction (at 107.95 71.12) (diameter 0) (color 0 0 0 0)
    (uuid c15b21c6-af63-4035-aef8-8e329603a636)
  )
  (junction (at 167.386 71.12) (diameter 0) (color 0 0 0 0)
    (uuid c280d036-54f2-4005-8e67-0e07227ca8bd)
  )
  (junction (at 182.118 64.77) (diameter 0) (color 0 0 0 0)
    (uuid db14303b-7373-4498-bb24-6750642e0951)
  )
  (junction (at 171.45 96.52) (diameter 0) (color 0 0 0 0)
    (uuid e095d744-4aab-436d-80d6-ab2085a3254d)
  )
  (junction (at 171.45 71.12) (diameter 0) (color 0 0 0 0)
    (uuid ea60c613-d2c8-4f41-a737-96d0c31cec14)
  )
  (junction (at 164.084 64.77) (diameter 0) (color 0 0 0 0)
    (uuid f8a561e3-2f3e-4d7a-8995-437d147f931b)
  )

  (wire (pts (xy 118.618 96.52) (xy 171.45 96.52))
    (stroke (width 0) (type default))
    (uuid 0601c621-a8cf-48ef-aea5-3c221e0cd71f)
  )
  (wire (pts (xy 137.16 71.12) (xy 135.89 71.12))
    (stroke (width 0) (type default))
    (uuid 09b7ceef-1194-477d-9d64-2e27340b3295)
  )
  (wire (pts (xy 167.386 71.12) (xy 171.45 71.12))
    (stroke (width 0) (type default))
    (uuid 0a933bde-4858-454f-8198-934768d61b28)
  )
  (wire (pts (xy 96.52 71.12) (xy 96.52 100.076))
    (stroke (width 0) (type default))
    (uuid 0c1e261d-680f-4f7a-895f-91379b4f978c)
  )
  (wire (pts (xy 182.118 64.77) (xy 164.084 64.77))
    (stroke (width 0) (type default))
    (uuid 0d8ba22b-03ce-4110-8fdc-67143de16b36)
  )
  (wire (pts (xy 124.46 59.69) (xy 116.84 59.69))
    (stroke (width 0) (type default))
    (uuid 11d3a5ac-37ef-46b2-bfa2-4075b0a5f31a)
  )
  (wire (pts (xy 75.184 102.108) (xy 75.184 100.076))
    (stroke (width 0) (type default))
    (uuid 163e4aea-aa92-40ac-a0d9-a9f31cc7915a)
  )
  (wire (pts (xy 128.27 64.77) (xy 128.27 71.12))
    (stroke (width 0) (type default))
    (uuid 1dc0ce0e-2fc9-4e7d-8bf2-64a1158ae272)
  )
  (wire (pts (xy 62.23 87.63) (xy 41.91 87.63))
    (stroke (width 0) (type default))
    (uuid 212b41b4-71fe-4d9a-a8d1-0a9feba2c811)
  )
  (wire (pts (xy 149.86 71.12) (xy 167.386 71.12))
    (stroke (width 0) (type default))
    (uuid 23fa0d62-1425-4b30-af62-94387aaa8859)
  )
  (wire (pts (xy 119.38 71.12) (xy 116.84 71.12))
    (stroke (width 0) (type default))
    (uuid 2533a524-bfd9-4057-a9ae-97ef8c1e937c)
  )
  (wire (pts (xy 127 71.12) (xy 128.27 71.12))
    (stroke (width 0) (type default))
    (uuid 37f7ba9f-5a31-4b3f-bef2-72663a656ed9)
  )
  (wire (pts (xy 109.22 71.12) (xy 107.95 71.12))
    (stroke (width 0) (type default))
    (uuid 46dddf87-c92b-4742-95e5-8798feeb6229)
  )
  (wire (pts (xy 106.68 71.12) (xy 107.95 71.12))
    (stroke (width 0) (type default))
    (uuid 4bf1d62f-4346-4b12-a73b-b18ed2d76fe1)
  )
  (wire (pts (xy 182.118 64.77) (xy 182.118 81.28))
    (stroke (width 0) (type default))
    (uuid 4f93b290-2d2f-4fea-8c5a-89c45cececb1)
  )
  (wire (pts (xy 137.16 59.69) (xy 137.16 71.12))
    (stroke (width 0) (type default))
    (uuid 502f5003-8fa0-4179-8bca-08221e9148eb)
  )
  (wire (pts (xy 171.45 96.52) (xy 171.45 92.71))
    (stroke (width 0) (type default))
    (uuid 522bc248-1876-4164-ad9d-cd979b3668af)
  )
  (wire (pts (xy 62.23 71.12) (xy 62.23 87.63))
    (stroke (width 0) (type default))
    (uuid 53462104-dc07-43f5-abae-2bc40bd475bd)
  )
  (wire (pts (xy 96.52 59.69) (xy 96.52 71.12))
    (stroke (width 0) (type default))
    (uuid 55e91076-ade2-43b3-9669-6d862344072c)
  )
  (wire (pts (xy 118.618 109.728) (xy 118.618 96.52))
    (stroke (width 0) (type default))
    (uuid 612c4aa2-e266-45f9-8c7e-94a7189dc193)
  )
  (wire (pts (xy 104.14 59.69) (xy 96.52 59.69))
    (stroke (width 0) (type default))
    (uuid 6cd7d511-756c-4f7a-9127-187d629ae9d2)
  )
  (wire (pts (xy 128.27 71.12) (xy 128.27 76.2))
    (stroke (width 0) (type default))
    (uuid 6ffc8cc9-7751-46a6-8881-4ea70d2070ce)
  )
  (wire (pts (xy 144.78 71.12) (xy 149.86 71.12))
    (stroke (width 0) (type default))
    (uuid 7af6c2e2-9515-47b2-a366-f78ca5029249)
  )
  (wire (pts (xy 111.76 59.69) (xy 116.84 59.69))
    (stroke (width 0) (type default))
    (uuid 8848ff65-7a20-4ec6-9427-d5a6ca64aa7a)
  )
  (wire (pts (xy 164.084 64.77) (xy 128.27 64.77))
    (stroke (width 0) (type default))
    (uuid 88977898-9883-44d1-9047-603c73b0a4cc)
  )
  (wire (pts (xy 171.45 82.55) (xy 171.45 71.12))
    (stroke (width 0) (type default))
    (uuid 934493b4-5310-402e-b7a8-40b0b19c7ad7)
  )
  (wire (pts (xy 62.23 109.728) (xy 62.23 87.63))
    (stroke (width 0) (type default))
    (uuid 999d6640-ba44-4bc3-a2aa-00848777a167)
  )
  (wire (pts (xy 118.618 109.728) (xy 87.884 109.728))
    (stroke (width 0) (type default))
    (uuid 9db3f3c4-0df8-4de2-9c1c-4b6fd469b0a7)
  )
  (wire (pts (xy 75.184 100.076) (xy 77.724 100.076))
    (stroke (width 0) (type default))
    (uuid ab26ca06-9cc9-41bd-9d24-b40e919f86cc)
  )
  (wire (pts (xy 116.84 59.69) (xy 116.84 71.12))
    (stroke (width 0) (type default))
    (uuid ada353a0-bafe-4d22-b092-2bb41f2bb75e)
  )
  (wire (pts (xy 77.724 100.076) (xy 77.724 102.108))
    (stroke (width 0) (type default))
    (uuid bb00962c-4eb2-456f-87de-1f225a4f9597)
  )
  (wire (pts (xy 87.63 71.12) (xy 96.52 71.12))
    (stroke (width 0) (type default))
    (uuid bc4ee792-c8ba-4825-a11d-ccc1b5e0087a)
  )
  (wire (pts (xy 72.39 71.12) (xy 62.23 71.12))
    (stroke (width 0) (type default))
    (uuid be60492d-a74d-41fd-9330-dc163c9e4202)
  )
  (wire (pts (xy 132.08 59.69) (xy 137.16 59.69))
    (stroke (width 0) (type default))
    (uuid bfe00c6c-1394-4a13-b4a2-c6457d00b87f)
  )
  (wire (pts (xy 96.52 100.076) (xy 77.724 100.076))
    (stroke (width 0) (type default))
    (uuid c17d3513-ebf3-4f62-9a67-ff5ca7c6a715)
  )
  (wire (pts (xy 189.23 71.12) (xy 193.04 71.12))
    (stroke (width 0) (type default))
    (uuid c29e4237-ac13-4fa1-a60b-1dfb7dbc791c)
  )
  (wire (pts (xy 193.04 64.77) (xy 182.118 64.77))
    (stroke (width 0) (type default))
    (uuid cb28d894-3611-4e85-9db6-1715ddd34974)
  )
  (wire (pts (xy 189.23 71.12) (xy 189.23 81.28))
    (stroke (width 0) (type default))
    (uuid d1fbbb51-5476-4854-809f-335210cb6064)
  )
  (wire (pts (xy 171.45 71.12) (xy 189.23 71.12))
    (stroke (width 0) (type default))
    (uuid e31fe861-2c97-4429-a7cb-5e937526ad24)
  )
  (wire (pts (xy 107.95 76.2) (xy 107.95 71.12))
    (stroke (width 0) (type default))
    (uuid f0d8d980-5159-4986-92d9-4a284d4a90f9)
  )
  (wire (pts (xy 99.06 71.12) (xy 96.52 71.12))
    (stroke (width 0) (type default))
    (uuid fc97df81-4738-44bc-b83d-d5d6af3a029a)
  )
  (wire (pts (xy 62.23 109.728) (xy 67.564 109.728))
    (stroke (width 0) (type default))
    (uuid fd64b27e-e921-422d-8673-d6178838d85a)
  )
  (wire (pts (xy 149.86 76.2) (xy 149.86 71.12))
    (stroke (width 0) (type default))
    (uuid fd76c401-5570-4b5f-a04f-cdc80acabb3a)
  )
  (wire (pts (xy 53.34 114.808) (xy 67.564 114.808))
    (stroke (width 0) (type default))
    (uuid ff73573e-44dd-4b23-a896-321289055b6d)
  )

  (text "Grid/Anode High Voltage" (at 15.24 40.64 0)
    (effects (font (size 4 4)) (justify left bottom))
    (uuid 2048c650-fa14-47d6-a5fc-dd1395b791b7)
  )
  (text "50v\n75v" (at 187.96 69.85 0)
    (effects (font (size 1.27 1.27)) (justify left bottom))
    (uuid 40b7b2f2-0615-4698-892d-5413c633cf93)
  )
  (text "1mA\nDischarger\n> 91k" (at 191.262 82.55 0)
    (effects (font (size 1.27 1.27)) (justify left bottom))
    (uuid 814f5adf-a73e-4ef4-b00b-60b7bb75c082)
  )
  (text "Enable Pin. Drive EN pin low to turn off the device, drive it\nhigh to turn it on. Floating is default high.\n\nVout = 1.25*(1+R13/R14)\n"
    (at 43.18 59.69 0)
    (effects (font (size 1.27 1.27)) (justify left bottom))
    (uuid b8ba7d26-2e3d-4f4c-8bf6-048fa56d4d8a)
  )
  (text "The GP1294 need 2 high voltages...\n\nInspirec by:\nhttps://redhat.systems/GP1294AI%20256x48%20VFD%20Display%20Module%20%28UNL-200AP-C%29%20-%20Jiali%20Chuang%20EDA%20Open%20Source%20Hardware%20Platform.htm\n"
    (at 15.748 22.86 0)
    (effects (font (size 1.27 1.27)) (justify left bottom))
    (uuid e4ba316a-1c18-475b-a5ea-0266bd05eaa5)
  )

  (label "SW" (at 82.804 100.076 0) (fields_autoplaced)
    (effects (font (size 1.27 1.27)) (justify left bottom))
    (uuid b0b1c5d1-f81f-40e2-9571-d85ef7f5da41)
  )

  (global_label "VHP" (shape output) (at 193.04 71.12 0) (fields_autoplaced)
    (effects (font (size 1.27 1.27)) (justify left))
    (uuid 1ba3a1f2-82f0-4921-8cf6-925e3259d886)
    (property "Intersheetrefs" "${INTERSHEET_REFS}" (at 199.7143 71.12 0)
      (effects (font (size 1.27 1.27)) (justify left) hide)
    )
  )
  (global_label "VHG" (shape output) (at 193.04 64.77 0) (fields_autoplaced)
    (effects (font (size 1.27 1.27)) (justify left))
    (uuid b22d2f9a-215e-46b2-bcf4-cf6e72e45946)
    (property "Intersheetrefs" "${INTERSHEET_REFS}" (at 199.7143 64.77 0)
      (effects (font (size 1.27 1.27)) (justify left) hide)
    )
  )
  (global_label "VH_EN" (shape input) (at 53.34 114.808 180) (fields_autoplaced)
    (effects (font (size 1.27 1.27)) (justify right))
    (uuid e6f6bd12-8119-4dc9-b6d6-4b3b5aa800fa)
    (property "Intersheetrefs" "${INTERSHEET_REFS}" (at 44.4886 114.808 0)
      (effects (font (size 1.27 1.27)) (justify right) hide)
    )
  )

  (symbol (lib_id "Diode:1N4448W") (at 132.08 71.12 180) (unit 1)
    (in_bom yes) (on_board yes) (dnp no) (fields_autoplaced)
    (uuid 20486d0a-b215-42b2-8daa-de11db7af44b)
    (property "Reference" "D5" (at 132.08 64.77 0)
      (effects (font (size 1.27 1.27)))
    )
    (property "Value" "1N4448W" (at 132.08 67.31 0)
      (effects (font (size 1.27 1.27)))
    )
    (property "Footprint" "Diode_SMD:D_SOD-123" (at 132.08 66.675 0)
      (effects (font (size 1.27 1.27)) hide)
    )
    (property "Datasheet" "https://www.vishay.com/docs/85722/1n4448w.pdf" (at 132.08 71.12 0)
      (effects (font (size 1.27 1.27)) hide)
    )
    (property "Sim.Device" "D" (at 132.08 71.12 0)
      (effects (font (size 1.27 1.27)) hide)
    )
    (property "Sim.Pins" "1=K 2=A" (at 132.08 71.12 0)
      (effects (font (size 1.27 1.27)) hide)
    )
    (pin "1" (uuid 10ae4075-7456-430e-9a5c-7ee5ca0d69e6))
    (pin "2" (uuid 63e45430-b199-4a20-bcbe-75a8351502d9))
    (instances
      (project "GP1294-Teens4"
        (path "/3de011e3-f89b-42a8-8637-1f4c3f0867fa/ff3fb23b-9a88-4c38-8306-aefc5a8bdc1c"
          (reference "D5") (unit 1)
        )
      )
    )
  )

  (symbol (lib_id "Diode:1N4448W") (at 113.03 71.12 180) (unit 1)
    (in_bom yes) (on_board yes) (dnp no) (fields_autoplaced)
    (uuid 23398138-1373-49de-bdf0-c398edc0a85c)
    (property "Reference" "D3" (at 113.03 64.77 0)
      (effects (font (size 1.27 1.27)))
    )
    (property "Value" "1N4448W" (at 113.03 67.31 0)
      (effects (font (size 1.27 1.27)))
    )
    (property "Footprint" "Diode_SMD:D_SOD-123" (at 113.03 66.675 0)
      (effects (font (size 1.27 1.27)) hide)
    )
    (property "Datasheet" "https://www.vishay.com/docs/85722/1n4448w.pdf" (at 113.03 71.12 0)
      (effects (font (size 1.27 1.27)) hide)
    )
    (property "Sim.Device" "D" (at 113.03 71.12 0)
      (effects (font (size 1.27 1.27)) hide)
    )
    (property "Sim.Pins" "1=K 2=A" (at 113.03 71.12 0)
      (effects (font (size 1.27 1.27)) hide)
    )
    (pin "1" (uuid 72346083-536a-48b7-900c-e1f081127de3))
    (pin "2" (uuid f09fd448-922a-4301-b933-7d702fd710e5))
    (instances
      (project "GP1294-Teens4"
        (path "/3de011e3-f89b-42a8-8637-1f4c3f0867fa/ff3fb23b-9a88-4c38-8306-aefc5a8bdc1c"
          (reference "D3") (unit 1)
        )
      )
    )
  )

  (symbol (lib_id "VFD-Power-eagle-import:R-EU_R1206") (at 182.118 86.36 90) (unit 1)
    (in_bom yes) (on_board yes) (dnp no)
    (uuid 3a74f935-abbc-497b-a722-34230f07133b)
    (property "Reference" "R6" (at 180.6194 90.17 0)
      (effects (font (size 1.778 1.5113)) (justify left bottom))
    )
    (property "Value" "91k" (at 185.42 90.17 0)
      (effects (font (size 1.778 1.5113)) (justify left bottom))
    )
    (property "Footprint" "VFD-Power:R1206" (at 182.118 86.36 0)
      (effects (font (size 1.27 1.27)) hide)
    )
    (property "Datasheet" "" (at 182.118 86.36 0)
      (effects (font (size 1.27 1.27)) hide)
    )
    (pin "1" (uuid fa2b0847-5292-4da5-9969-4d2fea2d7bfe))
    (pin "2" (uuid 093e2178-a6ee-426b-9c65-78d51f7ee736))
    (instances
      (project "GP1294-Teens4"
        (path "/3de011e3-f89b-42a8-8637-1f4c3f0867fa/ff3fb23b-9a88-4c38-8306-aefc5a8bdc1c"
          (reference "R6") (unit 1)
        )
      )
    )
  )

  (symbol (lib_id "VFD-Power-eagle-import:GND") (at 171.45 109.22 0) (unit 1)
    (in_bom yes) (on_board yes) (dnp no)
    (uuid 3c1ec1e9-f47f-43e1-bdfc-8168f2278ea2)
    (property "Reference" "#GND015" (at 171.45 109.22 0)
      (effects (font (size 1.27 1.27)) hide)
    )
    (property "Value" "GND" (at 168.91 111.76 0)
      (effects (font (size 1.778 1.5113)) (justify left bottom))
    )
    (property "Footprint" "" (at 171.45 109.22 0)
      (effects (font (size 1.27 1.27)) hide)
    )
    (property "Datasheet" "" (at 171.45 109.22 0)
      (effects (font (size 1.27 1.27)) hide)
    )
    (pin "1" (uuid ad09e6e2-9730-44b6-8d96-472d448c8210))
    (instances
      (project "GP1294-Teens4"
        (path "/3de011e3-f89b-42a8-8637-1f4c3f0867fa/ff3fb23b-9a88-4c38-8306-aefc5a8bdc1c"
          (reference "#GND015") (unit 1)
        )
      )
    )
  )

  (symbol (lib_id "Connector:TestPoint") (at 164.084 64.77 0) (unit 1)
    (in_bom yes) (on_board yes) (dnp no)
    (uuid 3d76e95e-58a9-4b3c-b369-9257933325bc)
    (property "Reference" "TP1" (at 162.052 61.214 90)
      (effects (font (size 1.27 1.27)) hide)
    )
    (property "Value" "45-75V" (at 169.164 61.722 0)
      (effects (font (size 1.27 1.27)))
    )
    (property "Footprint" "TestPoint:TestPoint_Pad_2.0x2.0mm" (at 169.164 64.77 0)
      (effects (font (size 1.27 1.27)) hide)
    )
    (property "Datasheet" "~" (at 169.164 64.77 0)
      (effects (font (size 1.27 1.27)) hide)
    )
    (pin "1" (uuid d98a2a57-a894-499c-b62e-01c764568f73))
    (instances
      (project "GP1294-Teens4"
        (path "/3de011e3-f89b-42a8-8637-1f4c3f0867fa/ff3fb23b-9a88-4c38-8306-aefc5a8bdc1c"
          (reference "TP1") (unit 1)
        )
      )
    )
  )

  (symbol (lib_id "VFD-Power-eagle-import:R-EU_R1206") (at 171.45 101.6 90) (unit 1)
    (in_bom yes) (on_board yes) (dnp no)
    (uuid 45d9f490-4ac6-47b8-b57a-f40f3c025a04)
    (property "Reference" "R14" (at 169.9514 105.41 0)
      (effects (font (size 1.778 1.5113)) (justify left bottom))
    )
    (property "Value" "2k" (at 174.752 105.41 0)
      (effects (font (size 1.778 1.5113)) (justify left bottom))
    )
    (property "Footprint" "VFD-Power:R1206" (at 171.45 101.6 0)
      (effects (font (size 1.27 1.27)) hide)
    )
    (property "Datasheet" "" (at 171.45 101.6 0)
      (effects (font (size 1.27 1.27)) hide)
    )
    (pin "1" (uuid c6f90b9a-da65-4af3-b024-5009ab41d56b))
    (pin "2" (uuid e238db31-a4ba-4451-aea8-62154d7127d0))
    (instances
      (project "GP1294-Teens4"
        (path "/3de011e3-f89b-42a8-8637-1f4c3f0867fa/ff3fb23b-9a88-4c38-8306-aefc5a8bdc1c"
          (reference "R14") (unit 1)
        )
      )
    )
  )

  (symbol (lib_id "power:+24V") (at 41.91 87.63 0) (unit 1)
    (in_bom yes) (on_board yes) (dnp no) (fields_autoplaced)
    (uuid 4b50a956-a00c-464e-b94d-63efbdcd4374)
    (property "Reference" "#PWR037" (at 41.91 91.44 0)
      (effects (font (size 1.27 1.27)) hide)
    )
    (property "Value" "+24V" (at 41.91 82.55 0)
      (effects (font (size 1.27 1.27)))
    )
    (property "Footprint" "" (at 41.91 87.63 0)
      (effects (font (size 1.27 1.27)) hide)
    )
    (property "Datasheet" "" (at 41.91 87.63 0)
      (effects (font (size 1.27 1.27)) hide)
    )
    (pin "1" (uuid ae10e18d-2b3a-4749-9fe2-be71e46679ba))
    (instances
      (project "GP1294-Teens4"
        (path "/3de011e3-f89b-42a8-8637-1f4c3f0867fa/ff3fb23b-9a88-4c38-8306-aefc5a8bdc1c"
          (reference "#PWR037") (unit 1)
        )
      )
    )
  )

  (symbol (lib_id "VFD-Power-eagle-import:R-EU_R1206") (at 171.45 87.63 90) (unit 1)
    (in_bom yes) (on_board yes) (dnp no)
    (uuid 4dfad941-cee1-45ff-98f4-6c9fc8c0d745)
    (property "Reference" "R13" (at 169.9514 91.44 0)
      (effects (font (size 1.778 1.5113)) (justify left bottom))
    )
    (property "Value" "91k" (at 174.752 91.44 0)
      (effects (font (size 1.778 1.5113)) (justify left bottom))
    )
    (property "Footprint" "VFD-Power:R1206" (at 171.45 87.63 0)
      (effects (font (size 1.27 1.27)) hide)
    )
    (property "Datasheet" "" (at 171.45 87.63 0)
      (effects (font (size 1.27 1.27)) hide)
    )
    (pin "1" (uuid 8966c21a-07d8-486a-9132-84b0c3ec945e))
    (pin "2" (uuid 5784ba4d-6bc3-42e0-b73c-373c779c4774))
    (instances
      (project "GP1294-Teens4"
        (path "/3de011e3-f89b-42a8-8637-1f4c3f0867fa/ff3fb23b-9a88-4c38-8306-aefc5a8bdc1c"
          (reference "R13") (unit 1)
        )
      )
    )
  )

  (symbol (lib_id "Diode:1N4448W") (at 102.87 71.12 180) (unit 1)
    (in_bom yes) (on_board yes) (dnp no) (fields_autoplaced)
    (uuid 72b17d36-bbb7-4801-a545-4202a3246e67)
    (property "Reference" "D2" (at 102.87 64.77 0)
      (effects (font (size 1.27 1.27)))
    )
    (property "Value" "1N4448W" (at 102.87 67.31 0)
      (effects (font (size 1.27 1.27)))
    )
    (property "Footprint" "Diode_SMD:D_SOD-123" (at 102.87 66.675 0)
      (effects (font (size 1.27 1.27)) hide)
    )
    (property "Datasheet" "https://www.vishay.com/docs/85722/1n4448w.pdf" (at 102.87 71.12 0)
      (effects (font (size 1.27 1.27)) hide)
    )
    (property "Sim.Device" "D" (at 102.87 71.12 0)
      (effects (font (size 1.27 1.27)) hide)
    )
    (property "Sim.Pins" "1=K 2=A" (at 102.87 71.12 0)
      (effects (font (size 1.27 1.27)) hide)
    )
    (pin "1" (uuid cffb229c-49a1-403f-af35-daf8c068e0d3))
    (pin "2" (uuid be3beedf-ffa7-4c6c-bb3d-a31ecd224bc4))
    (instances
      (project "GP1294-Teens4"
        (path "/3de011e3-f89b-42a8-8637-1f4c3f0867fa/ff3fb23b-9a88-4c38-8306-aefc5a8bdc1c"
          (reference "D2") (unit 1)
        )
      )
    )
  )

  (symbol (lib_id "VFD-Power:XL6009") (at 77.724 112.268 180) (unit 1)
    (in_bom yes) (on_board yes) (dnp no) (fields_autoplaced)
    (uuid 75c680f7-f833-4e19-bf10-bfee60443deb)
    (property "Reference" "IC2" (at 77.724 119.888 0)
      (effects (font (size 1.778 1.5113)))
    )
    (property "Value" "~" (at 75.184 118.618 0)
      (effects (font (size 1.778 1.5113)) (justify left bottom))
    )
    (property "Footprint" "VFD-Power:TO263-5" (at 77.724 112.268 0)
      (effects (font (size 1.27 1.27)) hide)
    )
    (property "Datasheet" "" (at 77.724 112.268 0)
      (effects (font (size 1.27 1.27)) hide)
    )
    (pin "3" (uuid eb3dfd86-e329-4775-843a-f5f756bd0b4d))
    (pin "4" (uuid 40a26aad-f507-43ca-8a42-f50c6a0566bd))
    (pin "2" (uuid 6fe61929-e1ec-4815-9327-778ad636a144))
    (pin "5" (uuid a7085226-6324-4250-a7b1-3ec7d65a0239))
    (pin "6" (uuid 103b6497-3b99-4fde-9250-12940c3a186e))
    (pin "1" (uuid dc7c83d7-3305-4fc0-9f00-15ea794e48d2))
    (instances
      (project "GP1294-Teens4"
        (path "/3de011e3-f89b-42a8-8637-1f4c3f0867fa/ff3fb23b-9a88-4c38-8306-aefc5a8bdc1c"
          (reference "IC2") (unit 1)
        )
      )
    )
  )

  (symbol (lib_id "Device:C_Polarized_Small") (at 107.95 78.74 0) (unit 1)
    (in_bom yes) (on_board yes) (dnp no) (fields_autoplaced)
    (uuid 81be2271-d952-4ff8-bde6-24c1ff67e11f)
    (property "Reference" "C8" (at 110.744 76.9239 0)
      (effects (font (size 1.27 1.27)) (justify left))
    )
    (property "Value" "47u/35v" (at 110.744 79.4639 0)
      (effects (font (size 1.27 1.27)) (justify left))
    )
    (property "Footprint" "Capacitor_SMD:CP_Elec_6.3x5.8" (at 107.95 78.74 0)
      (effects (font (size 1.27 1.27)) hide)
    )
    (property "Datasheet" "~" (at 107.95 78.74 0)
      (effects (font (size 1.27 1.27)) hide)
    )
    (pin "1" (uuid 280af59e-8159-474d-8c39-4c1e138e7a8b))
    (pin "2" (uuid 1068193d-c08f-44d4-b767-471cdb29d5fc))
    (instances
      (project "GP1294-Teens4"
        (path "/3de011e3-f89b-42a8-8637-1f4c3f0867fa/ff3fb23b-9a88-4c38-8306-aefc5a8bdc1c"
          (reference "C8") (unit 1)
        )
      )
    )
  )

  (symbol (lib_id "VFD-Power-eagle-import:GND") (at 189.23 93.98 0) (unit 1)
    (in_bom yes) (on_board yes) (dnp no)
    (uuid 8d15ce07-2dbb-4a71-b828-d4a7267d3035)
    (property "Reference" "#GND07" (at 189.23 93.98 0)
      (effects (font (size 1.27 1.27)) hide)
    )
    (property "Value" "GND" (at 186.69 96.52 0)
      (effects (font (size 1.778 1.5113)) (justify left bottom))
    )
    (property "Footprint" "" (at 189.23 93.98 0)
      (effects (font (size 1.27 1.27)) hide)
    )
    (property "Datasheet" "" (at 189.23 93.98 0)
      (effects (font (size 1.27 1.27)) hide)
    )
    (pin "1" (uuid 92ed3050-3bc5-4220-86b1-62ee09d2189d))
    (instances
      (project "GP1294-Teens4"
        (path "/3de011e3-f89b-42a8-8637-1f4c3f0867fa/ff3fb23b-9a88-4c38-8306-aefc5a8bdc1c"
          (reference "#GND07") (unit 1)
        )
      )
    )
  )

  (symbol (lib_id "Diode:1N4448W") (at 123.19 71.12 180) (unit 1)
    (in_bom yes) (on_board yes) (dnp no) (fields_autoplaced)
    (uuid 9294f2ca-80e7-4517-831b-d66284e755c2)
    (property "Reference" "D4" (at 123.19 64.77 0)
      (effects (font (size 1.27 1.27)))
    )
    (property "Value" "1N4448W" (at 123.19 67.31 0)
      (effects (font (size 1.27 1.27)))
    )
    (property "Footprint" "Diode_SMD:D_SOD-123" (at 123.19 66.675 0)
      (effects (font (size 1.27 1.27)) hide)
    )
    (property "Datasheet" "https://www.vishay.com/docs/85722/1n4448w.pdf" (at 123.19 71.12 0)
      (effects (font (size 1.27 1.27)) hide)
    )
    (property "Sim.Device" "D" (at 123.19 71.12 0)
      (effects (font (size 1.27 1.27)) hide)
    )
    (property "Sim.Pins" "1=K 2=A" (at 123.19 71.12 0)
      (effects (font (size 1.27 1.27)) hide)
    )
    (pin "1" (uuid 7dab6ce0-8156-4775-9657-9b45b3319c4a))
    (pin "2" (uuid 9ef324c6-4ab5-48a9-b67c-485ccdf539f8))
    (instances
      (project "GP1294-Teens4"
        (path "/3de011e3-f89b-42a8-8637-1f4c3f0867fa/ff3fb23b-9a88-4c38-8306-aefc5a8bdc1c"
          (reference "D4") (unit 1)
        )
      )
    )
  )

  (symbol (lib_id "VFD-Power-eagle-import:DR125") (at 80.01 71.12 0) (unit 1)
    (in_bom yes) (on_board yes) (dnp no)
    (uuid 933c3fa0-05fd-44d4-9ba6-decdabed117d)
    (property "Reference" "L4" (at 76.2 68.834 0)
      (effects (font (size 1.778 1.5113)) (justify left bottom))
    )
    (property "Value" "22uH" (at 76.2 74.93 0)
      (effects (font (size 1.778 1.5113)) (justify left bottom))
    )
    (property "Footprint" "VFD-Power:DR125" (at 80.01 71.12 0)
      (effects (font (size 1.27 1.27)) hide)
    )
    (property "Datasheet" "" (at 80.01 71.12 0)
      (effects (font (size 1.27 1.27)) hide)
    )
    (pin "1" (uuid 5d8b9438-36a6-4973-bf0f-918536ce2270))
    (pin "2" (uuid 03d9ffaf-0938-4dae-af10-83ff5be73998))
    (instances
      (project "GP1294-Teens4"
        (path "/3de011e3-f89b-42a8-8637-1f4c3f0867fa/ff3fb23b-9a88-4c38-8306-aefc5a8bdc1c"
          (reference "L4") (unit 1)
        )
      )
    )
  )

  (symbol (lib_id "VFD-Power-eagle-import:GND") (at 149.86 83.82 0) (unit 1)
    (in_bom yes) (on_board yes) (dnp no)
    (uuid ac1effab-9fe3-4e31-89c5-8a24d8adb808)
    (property "Reference" "#GND014" (at 149.86 83.82 0)
      (effects (font (size 1.27 1.27)) hide)
    )
    (property "Value" "GND" (at 147.32 86.36 0)
      (effects (font (size 1.778 1.5113)) (justify left bottom))
    )
    (property "Footprint" "" (at 149.86 83.82 0)
      (effects (font (size 1.27 1.27)) hide)
    )
    (property "Datasheet" "" (at 149.86 83.82 0)
      (effects (font (size 1.27 1.27)) hide)
    )
    (pin "1" (uuid 9fe0653c-a0d0-4183-b869-37bb55f502fe))
    (instances
      (project "GP1294-Teens4"
        (path "/3de011e3-f89b-42a8-8637-1f4c3f0867fa/ff3fb23b-9a88-4c38-8306-aefc5a8bdc1c"
          (reference "#GND014") (unit 1)
        )
      )
    )
  )

  (symbol (lib_id "VFD-Power-eagle-import:GND") (at 128.27 83.82 0) (unit 1)
    (in_bom yes) (on_board yes) (dnp no)
    (uuid ad657fe9-1dc5-481a-a3ac-1abf0ab65da1)
    (property "Reference" "#GND013" (at 128.27 83.82 0)
      (effects (font (size 1.27 1.27)) hide)
    )
    (property "Value" "GND" (at 125.73 86.36 0)
      (effects (font (size 1.778 1.5113)) (justify left bottom))
    )
    (property "Footprint" "" (at 128.27 83.82 0)
      (effects (font (size 1.27 1.27)) hide)
    )
    (property "Datasheet" "" (at 128.27 83.82 0)
      (effects (font (size 1.27 1.27)) hide)
    )
    (pin "1" (uuid 2e0497d5-fd69-461a-86c8-461e2404ce86))
    (instances
      (project "GP1294-Teens4"
        (path "/3de011e3-f89b-42a8-8637-1f4c3f0867fa/ff3fb23b-9a88-4c38-8306-aefc5a8bdc1c"
          (reference "#GND013") (unit 1)
        )
      )
    )
  )

  (symbol (lib_id "VFD-Power:C-EUC1206") (at 127 59.69 90) (unit 1)
    (in_bom yes) (on_board yes) (dnp no)
    (uuid b144683b-5e01-45e4-851b-655ec082a06b)
    (property "Reference" "C14" (at 128.27 54.61 90)
      (effects (font (size 1.778 1.5113)))
    )
    (property "Value" "1u/100v" (at 133.35 50.8 90)
      (effects (font (size 1.778 1.5113)) (justify left bottom))
    )
    (property "Footprint" "VFD-Power:C1206" (at 127 59.69 0)
      (effects (font (size 1.27 1.27)) hide)
    )
    (property "Datasheet" "" (at 127 59.69 0)
      (effects (font (size 1.27 1.27)) hide)
    )
    (pin "2" (uuid d0f95530-7da8-490e-9905-2e6fe3b4d901))
    (pin "1" (uuid 1945455d-7f62-4be0-bba7-403076dd648e))
    (instances
      (project "GP1294-Teens4"
        (path "/3de011e3-f89b-42a8-8637-1f4c3f0867fa/ff3fb23b-9a88-4c38-8306-aefc5a8bdc1c"
          (reference "C14") (unit 1)
        )
      )
    )
  )

  (symbol (lib_id "VFD-Power-eagle-import:R-EU_R1206") (at 189.23 86.36 90) (unit 1)
    (in_bom yes) (on_board yes) (dnp no)
    (uuid b348f82a-999a-40f3-a434-2128be219f0e)
    (property "Reference" "R15" (at 187.7314 90.17 0)
      (effects (font (size 1.778 1.5113)) (justify left bottom))
    )
    (property "Value" "91k" (at 192.532 90.17 0)
      (effects (font (size 1.778 1.5113)) (justify left bottom))
    )
    (property "Footprint" "VFD-Power:R1206" (at 189.23 86.36 0)
      (effects (font (size 1.27 1.27)) hide)
    )
    (property "Datasheet" "" (at 189.23 86.36 0)
      (effects (font (size 1.27 1.27)) hide)
    )
    (pin "1" (uuid c45b1e89-226d-4d9f-8d30-ad5271ba98b1))
    (pin "2" (uuid d64e8fa5-0afd-4ecf-a38c-f7448e9e3e68))
    (instances
      (project "GP1294-Teens4"
        (path "/3de011e3-f89b-42a8-8637-1f4c3f0867fa/ff3fb23b-9a88-4c38-8306-aefc5a8bdc1c"
          (reference "R15") (unit 1)
        )
      )
    )
  )

  (symbol (lib_id "Connector:TestPoint") (at 107.95 71.12 0) (unit 1)
    (in_bom yes) (on_board yes) (dnp no)
    (uuid b85e2e73-42e3-4b97-ad70-ec82bc649a30)
    (property "Reference" "TP16" (at 108.204 64.516 90)
      (effects (font (size 1.27 1.27)) hide)
    )
    (property "Value" "25-33V" (at 108.204 65.532 0)
      (effects (font (size 1.27 1.27)))
    )
    (property "Footprint" "TestPoint:TestPoint_Pad_2.0x2.0mm" (at 113.03 71.12 0)
      (effects (font (size 1.27 1.27)) hide)
    )
    (property "Datasheet" "~" (at 113.03 71.12 0)
      (effects (font (size 1.27 1.27)) hide)
    )
    (pin "1" (uuid f174efff-846b-4875-b055-5b1f8a561865))
    (instances
      (project "GP1294-Teens4"
        (path "/3de011e3-f89b-42a8-8637-1f4c3f0867fa/ff3fb23b-9a88-4c38-8306-aefc5a8bdc1c"
          (reference "TP16") (unit 1)
        )
      )
    )
  )

  (symbol (lib_id "Diode:1N4448W") (at 140.97 71.12 180) (unit 1)
    (in_bom yes) (on_board yes) (dnp no) (fields_autoplaced)
    (uuid bd16e1f9-7766-4dd7-95fa-dd5ed8929826)
    (property "Reference" "D6" (at 140.97 64.77 0)
      (effects (font (size 1.27 1.27)))
    )
    (property "Value" "1N4448W" (at 140.97 67.31 0)
      (effects (font (size 1.27 1.27)))
    )
    (property "Footprint" "Diode_SMD:D_SOD-123" (at 140.97 66.675 0)
      (effects (font (size 1.27 1.27)) hide)
    )
    (property "Datasheet" "https://www.vishay.com/docs/85722/1n4448w.pdf" (at 140.97 71.12 0)
      (effects (font (size 1.27 1.27)) hide)
    )
    (property "Sim.Device" "D" (at 140.97 71.12 0)
      (effects (font (size 1.27 1.27)) hide)
    )
    (property "Sim.Pins" "1=K 2=A" (at 140.97 71.12 0)
      (effects (font (size 1.27 1.27)) hide)
    )
    (pin "1" (uuid 498da7d6-f85a-44b2-9fd7-78c332125404))
    (pin "2" (uuid ebc738a6-6ea5-49b5-bff0-8e2cb53f93c3))
    (instances
      (project "GP1294-Teens4"
        (path "/3de011e3-f89b-42a8-8637-1f4c3f0867fa/ff3fb23b-9a88-4c38-8306-aefc5a8bdc1c"
          (reference "D6") (unit 1)
        )
      )
    )
  )

  (symbol (lib_id "VFD-Power-eagle-import:GND") (at 87.884 117.348 0) (unit 1)
    (in_bom yes) (on_board yes) (dnp no)
    (uuid be6f49c5-e179-4a3f-90f8-9ccea9d50301)
    (property "Reference" "#GND011" (at 87.884 117.348 0)
      (effects (font (size 1.27 1.27)) hide)
    )
    (property "Value" "GND" (at 85.344 119.888 0)
      (effects (font (size 1.778 1.5113)) (justify left bottom))
    )
    (property "Footprint" "" (at 87.884 117.348 0)
      (effects (font (size 1.27 1.27)) hide)
    )
    (property "Datasheet" "" (at 87.884 117.348 0)
      (effects (font (size 1.27 1.27)) hide)
    )
    (pin "1" (uuid 001bfbea-99f9-4b30-a997-8e9b8de95069))
    (instances
      (project "GP1294-Teens4"
        (path "/3de011e3-f89b-42a8-8637-1f4c3f0867fa/ff3fb23b-9a88-4c38-8306-aefc5a8bdc1c"
          (reference "#GND011") (unit 1)
        )
      )
    )
  )

  (symbol (lib_id "Device:C_Polarized_Small") (at 128.27 78.74 0) (unit 1)
    (in_bom yes) (on_board yes) (dnp no) (fields_autoplaced)
    (uuid cc9959ef-2135-4523-9a79-d69434f53d85)
    (property "Reference" "C11" (at 131.064 76.9239 0)
      (effects (font (size 1.27 1.27)) (justify left))
    )
    (property "Value" "4.7u/100v" (at 131.064 79.4639 0)
      (effects (font (size 1.27 1.27)) (justify left))
    )
    (property "Footprint" "Capacitor_SMD:CP_Elec_6.3x5.8" (at 128.27 78.74 0)
      (effects (font (size 1.27 1.27)) hide)
    )
    (property "Datasheet" "~" (at 128.27 78.74 0)
      (effects (font (size 1.27 1.27)) hide)
    )
    (pin "1" (uuid e31278ff-9bf9-4073-9dd5-a657880cd329))
    (pin "2" (uuid a017c6e5-f630-438d-b907-1b6370b7e256))
    (instances
      (project "GP1294-Teens4"
        (path "/3de011e3-f89b-42a8-8637-1f4c3f0867fa/ff3fb23b-9a88-4c38-8306-aefc5a8bdc1c"
          (reference "C11") (unit 1)
        )
      )
    )
  )

  (symbol (lib_id "VFD-Power:C-EUC1206") (at 106.68 59.69 90) (unit 1)
    (in_bom yes) (on_board yes) (dnp no)
    (uuid d7ca48ed-b158-4f56-a5a0-2d9bb1e38496)
    (property "Reference" "C13" (at 107.95 54.61 90)
      (effects (font (size 1.778 1.5113)))
    )
    (property "Value" "1u/100v" (at 113.03 50.8 90)
      (effects (font (size 1.778 1.5113)) (justify left bottom))
    )
    (property "Footprint" "VFD-Power:C1206" (at 106.68 59.69 0)
      (effects (font (size 1.27 1.27)) hide)
    )
    (property "Datasheet" "" (at 106.68 59.69 0)
      (effects (font (size 1.27 1.27)) hide)
    )
    (pin "2" (uuid 669046c7-7bf6-43fc-acd9-4ccac51af6a6))
    (pin "1" (uuid 892930d2-f720-451f-94cf-64711dba9d20))
    (instances
      (project "GP1294-Teens4"
        (path "/3de011e3-f89b-42a8-8637-1f4c3f0867fa/ff3fb23b-9a88-4c38-8306-aefc5a8bdc1c"
          (reference "C13") (unit 1)
        )
      )
    )
  )

  (symbol (lib_id "Device:C_Polarized_Small") (at 149.86 78.74 0) (unit 1)
    (in_bom yes) (on_board yes) (dnp no) (fields_autoplaced)
    (uuid dce757c6-a0cc-4ffe-9dd0-41cacab36c7f)
    (property "Reference" "C12" (at 152.654 76.9239 0)
      (effects (font (size 1.27 1.27)) (justify left))
    )
    (property "Value" "4.7u/100v" (at 152.654 79.4639 0)
      (effects (font (size 1.27 1.27)) (justify left))
    )
    (property "Footprint" "Capacitor_SMD:CP_Elec_6.3x5.8" (at 149.86 78.74 0)
      (effects (font (size 1.27 1.27)) hide)
    )
    (property "Datasheet" "~" (at 149.86 78.74 0)
      (effects (font (size 1.27 1.27)) hide)
    )
    (pin "1" (uuid fe89ab1e-5afe-4b34-9250-5a9f5fa77d04))
    (pin "2" (uuid e8d80a99-96bb-4d13-b377-758fe22b8018))
    (instances
      (project "GP1294-Teens4"
        (path "/3de011e3-f89b-42a8-8637-1f4c3f0867fa/ff3fb23b-9a88-4c38-8306-aefc5a8bdc1c"
          (reference "C12") (unit 1)
        )
      )
    )
  )

  (symbol (lib_id "VFD-Power-eagle-import:GND") (at 107.95 83.82 0) (unit 1)
    (in_bom yes) (on_board yes) (dnp no)
    (uuid de27855c-83c6-41aa-aaa7-b643ccdfe3a0)
    (property "Reference" "#GND012" (at 107.95 83.82 0)
      (effects (font (size 1.27 1.27)) hide)
    )
    (property "Value" "GND" (at 105.41 86.36 0)
      (effects (font (size 1.778 1.5113)) (justify left bottom))
    )
    (property "Footprint" "" (at 107.95 83.82 0)
      (effects (font (size 1.27 1.27)) hide)
    )
    (property "Datasheet" "" (at 107.95 83.82 0)
      (effects (font (size 1.27 1.27)) hide)
    )
    (pin "1" (uuid f8a6b166-548f-4bf9-9afb-c70f0ebc1466))
    (instances
      (project "GP1294-Teens4"
        (path "/3de011e3-f89b-42a8-8637-1f4c3f0867fa/ff3fb23b-9a88-4c38-8306-aefc5a8bdc1c"
          (reference "#GND012") (unit 1)
        )
      )
    )
  )

  (symbol (lib_id "VFD-Power-eagle-import:GND") (at 182.118 93.98 0) (unit 1)
    (in_bom yes) (on_board yes) (dnp no)
    (uuid e21d0024-e2b5-414d-9b7b-88ab91918ad5)
    (property "Reference" "#GND06" (at 182.118 93.98 0)
      (effects (font (size 1.27 1.27)) hide)
    )
    (property "Value" "GND" (at 179.578 96.52 0)
      (effects (font (size 1.778 1.5113)) (justify left bottom))
    )
    (property "Footprint" "" (at 182.118 93.98 0)
      (effects (font (size 1.27 1.27)) hide)
    )
    (property "Datasheet" "" (at 182.118 93.98 0)
      (effects (font (size 1.27 1.27)) hide)
    )
    (pin "1" (uuid c6c1a3af-ba7e-477f-bec0-a87367afbd52))
    (instances
      (project "GP1294-Teens4"
        (path "/3de011e3-f89b-42a8-8637-1f4c3f0867fa/ff3fb23b-9a88-4c38-8306-aefc5a8bdc1c"
          (reference "#GND06") (unit 1)
        )
      )
    )
  )

  (symbol (lib_id "Connector:TestPoint") (at 167.386 71.12 0) (unit 1)
    (in_bom yes) (on_board yes) (dnp no)
    (uuid f598ca08-895d-4ec2-8209-026d6a83082f)
    (property "Reference" "TP9" (at 165.862 67.818 90)
      (effects (font (size 1.27 1.27)) hide)
    )
    (property "Value" "60-99V" (at 171.958 67.818 0)
      (effects (font (size 1.27 1.27)))
    )
    (property "Footprint" "TestPoint:TestPoint_Pad_2.0x2.0mm" (at 172.466 71.12 0)
      (effects (font (size 1.27 1.27)) hide)
    )
    (property "Datasheet" "~" (at 172.466 71.12 0)
      (effects (font (size 1.27 1.27)) hide)
    )
    (pin "1" (uuid 7baad0fb-ecea-4860-aa2d-7ed8491b54dd))
    (instances
      (project "GP1294-Teens4"
        (path "/3de011e3-f89b-42a8-8637-1f4c3f0867fa/ff3fb23b-9a88-4c38-8306-aefc5a8bdc1c"
          (reference "TP9") (unit 1)
        )
      )
    )
  )
)
