(kicad_sch (version 20230121) (generator eeschema)

  (uuid 6675ea75-8b36-4d1e-98ac-10ebac2b3170)

  (paper "USLetter")

  (title_block
    (title "Dingo_PDM")
    (date "2023-09-11")
    (rev "v7.2")
    (comment 3 "github.com/corygrant")
    (comment 4 "Cory Grant")
  )

  (lib_symbols
    (symbol "Device:C_Small" (pin_numbers hide) (pin_names (offset 0.254) hide) (in_bom yes) (on_board yes)
      (property "Reference" "C" (at 0.254 1.778 0)
        (effects (font (size 1.27 1.27)) (justify left))
      )
      (property "Value" "C_Small" (at 0.254 -2.032 0)
        (effects (font (size 1.27 1.27)) (justify left))
      )
      (property "Footprint" "" (at 0 0 0)
        (effects (font (size 1.27 1.27)) hide)
      )
      (property "Datasheet" "~" (at 0 0 0)
        (effects (font (size 1.27 1.27)) hide)
      )
      (property "ki_keywords" "capacitor cap" (at 0 0 0)
        (effects (font (size 1.27 1.27)) hide)
      )
      (property "ki_description" "Unpolarized capacitor, small symbol" (at 0 0 0)
        (effects (font (size 1.27 1.27)) hide)
      )
      (property "ki_fp_filters" "C_*" (at 0 0 0)
        (effects (font (size 1.27 1.27)) hide)
      )
      (symbol "C_Small_0_1"
        (polyline
          (pts
            (xy -1.524 -0.508)
            (xy 1.524 -0.508)
          )
          (stroke (width 0.3302) (type default))
          (fill (type none))
        )
        (polyline
          (pts
            (xy -1.524 0.508)
            (xy 1.524 0.508)
          )
          (stroke (width 0.3048) (type default))
          (fill (type none))
        )
      )
      (symbol "C_Small_1_1"
        (pin passive line (at 0 2.54 270) (length 2.032)
          (name "~" (effects (font (size 1.27 1.27))))
          (number "1" (effects (font (size 1.27 1.27))))
        )
        (pin passive line (at 0 -2.54 90) (length 2.032)
          (name "~" (effects (font (size 1.27 1.27))))
          (number "2" (effects (font (size 1.27 1.27))))
        )
      )
    )
    (symbol "Device:D_Zener_Small" (pin_numbers hide) (pin_names (offset 0.254) hide) (in_bom yes) (on_board yes)
      (property "Reference" "D" (at 0 2.286 0)
        (effects (font (size 1.27 1.27)))
      )
      (property "Value" "D_Zener_Small" (at 0 -2.286 0)
        (effects (font (size 1.27 1.27)))
      )
      (property "Footprint" "" (at 0 0 90)
        (effects (font (size 1.27 1.27)) hide)
      )
      (property "Datasheet" "~" (at 0 0 90)
        (effects (font (size 1.27 1.27)) hide)
      )
      (property "ki_keywords" "diode" (at 0 0 0)
        (effects (font (size 1.27 1.27)) hide)
      )
      (property "ki_description" "Zener diode, small symbol" (at 0 0 0)
        (effects (font (size 1.27 1.27)) hide)
      )
      (property "ki_fp_filters" "TO-???* *_Diode_* *SingleDiode* D_*" (at 0 0 0)
        (effects (font (size 1.27 1.27)) hide)
      )
      (symbol "D_Zener_Small_0_1"
        (polyline
          (pts
            (xy 0.762 0)
            (xy -0.762 0)
          )
          (stroke (width 0) (type default))
          (fill (type none))
        )
        (polyline
          (pts
            (xy -0.254 1.016)
            (xy -0.762 1.016)
            (xy -0.762 -1.016)
          )
          (stroke (width 0.254) (type default))
          (fill (type none))
        )
        (polyline
          (pts
            (xy 0.762 1.016)
            (xy -0.762 0)
            (xy 0.762 -1.016)
            (xy 0.762 1.016)
          )
          (stroke (width 0.254) (type default))
          (fill (type none))
        )
      )
      (symbol "D_Zener_Small_1_1"
        (pin passive line (at -2.54 0 0) (length 1.778)
          (name "K" (effects (font (size 1.27 1.27))))
          (number "1" (effects (font (size 1.27 1.27))))
        )
        (pin passive line (at 2.54 0 180) (length 1.778)
          (name "A" (effects (font (size 1.27 1.27))))
          (number "2" (effects (font (size 1.27 1.27))))
        )
      )
    )
    (symbol "Device:R_Small_US" (pin_numbers hide) (pin_names (offset 0.254) hide) (in_bom yes) (on_board yes)
      (property "Reference" "R" (at 0.762 0.508 0)
        (effects (font (size 1.27 1.27)) (justify left))
      )
      (property "Value" "R_Small_US" (at 0.762 -1.016 0)
        (effects (font (size 1.27 1.27)) (justify left))
      )
      (property "Footprint" "" (at 0 0 0)
        (effects (font (size 1.27 1.27)) hide)
      )
      (property "Datasheet" "~" (at 0 0 0)
        (effects (font (size 1.27 1.27)) hide)
      )
      (property "ki_keywords" "r resistor" (at 0 0 0)
        (effects (font (size 1.27 1.27)) hide)
      )
      (property "ki_description" "Resistor, small US symbol" (at 0 0 0)
        (effects (font (size 1.27 1.27)) hide)
      )
      (property "ki_fp_filters" "R_*" (at 0 0 0)
        (effects (font (size 1.27 1.27)) hide)
      )
      (symbol "R_Small_US_1_1"
        (polyline
          (pts
            (xy 0 0)
            (xy 1.016 -0.381)
            (xy 0 -0.762)
            (xy -1.016 -1.143)
            (xy 0 -1.524)
          )
          (stroke (width 0) (type default))
          (fill (type none))
        )
        (polyline
          (pts
            (xy 0 1.524)
            (xy 1.016 1.143)
            (xy 0 0.762)
            (xy -1.016 0.381)
            (xy 0 0)
          )
          (stroke (width 0) (type default))
          (fill (type none))
        )
        (pin passive line (at 0 2.54 270) (length 1.016)
          (name "~" (effects (font (size 1.27 1.27))))
          (number "1" (effects (font (size 1.27 1.27))))
        )
        (pin passive line (at 0 -2.54 90) (length 1.016)
          (name "~" (effects (font (size 1.27 1.27))))
          (number "2" (effects (font (size 1.27 1.27))))
        )
      )
    )
    (symbol "Profet:BTS700n-1EPP" (pin_names (offset 1.016)) (in_bom yes) (on_board yes)
      (property "Reference" "U?" (at 0 0 0)
        (effects (font (size 1.27 1.27)) (justify left bottom))
      )
      (property "Value" "Profet_BTS700n-1EPP" (at 0 -32.0294 0)
        (effects (font (size 1.27 1.27)) (justify left bottom))
      )
      (property "Footprint" "SOP65P600X115-15N-V" (at 0 0 0)
        (effects (font (size 1.27 1.27)) (justify left bottom) hide)
      )
      (property "Datasheet" "" (at 0 0 0)
        (effects (font (size 1.27 1.27)) hide)
      )
      (property "ki_locked" "" (at 0 0 0)
        (effects (font (size 1.27 1.27)))
      )
      (symbol "BTS700n-1EPP_0_0"
        (polyline
          (pts
            (xy 0 -27.94)
            (xy 0 0)
          )
          (stroke (width 0.254) (type default))
          (fill (type none))
        )
        (polyline
          (pts
            (xy 0 -27.94)
            (xy 20.32 -27.94)
          )
          (stroke (width 0.254) (type default))
          (fill (type none))
        )
        (polyline
          (pts
            (xy 0 0)
            (xy 20.32 0)
          )
          (stroke (width 0.254) (type default))
          (fill (type none))
        )
        (polyline
          (pts
            (xy 20.32 0)
            (xy 20.32 -27.94)
          )
          (stroke (width 0.254) (type default))
          (fill (type none))
        )
        (pin power_in line (at 25.4 -2.54 180) (length 5.08)
          (name "GND" (effects (font (size 1.016 1.016))))
          (number "1" (effects (font (size 1.016 1.016))))
        )
        (pin output line (at 25.4 -12.7 180) (length 5.08)
          (name "OUT3" (effects (font (size 1.016 1.016))))
          (number "10" (effects (font (size 1.016 1.016))))
        )
        (pin passive line (at -5.08 -22.86 0) (length 5.08)
          (name "NC4" (effects (font (size 1.016 1.016))))
          (number "11" (effects (font (size 1.016 1.016))))
        )
        (pin output line (at 25.4 -15.24 180) (length 5.08)
          (name "OUT4" (effects (font (size 1.016 1.016))))
          (number "12" (effects (font (size 1.016 1.016))))
        )
        (pin output line (at 25.4 -17.78 180) (length 5.08)
          (name "OUT5" (effects (font (size 1.016 1.016))))
          (number "13" (effects (font (size 1.016 1.016))))
        )
        (pin output line (at 25.4 -20.32 180) (length 5.08)
          (name "OUT6" (effects (font (size 1.016 1.016))))
          (number "14" (effects (font (size 1.016 1.016))))
        )
        (pin power_in line (at -5.08 -2.54 0) (length 5.08)
          (name "VS" (effects (font (size 1.016 1.016))))
          (number "15" (effects (font (size 1.016 1.016))))
        )
        (pin input line (at -5.08 -7.62 0) (length 5.08)
          (name "IN" (effects (font (size 1.016 1.016))))
          (number "2" (effects (font (size 1.016 1.016))))
        )
        (pin input line (at -5.08 -10.16 0) (length 5.08)
          (name "DEN" (effects (font (size 1.016 1.016))))
          (number "3" (effects (font (size 1.016 1.016))))
        )
        (pin output line (at 25.4 -25.4 180) (length 5.08)
          (name "IS" (effects (font (size 1.016 1.016))))
          (number "4" (effects (font (size 1.016 1.016))))
        )
        (pin passive line (at -5.08 -15.24 0) (length 5.08)
          (name "NC1" (effects (font (size 1.016 1.016))))
          (number "5" (effects (font (size 1.016 1.016))))
        )
        (pin passive line (at -5.08 -17.78 0) (length 5.08)
          (name "NC2" (effects (font (size 1.016 1.016))))
          (number "6" (effects (font (size 1.016 1.016))))
        )
        (pin passive line (at -5.08 -20.32 0) (length 5.08)
          (name "NC3" (effects (font (size 1.016 1.016))))
          (number "7" (effects (font (size 1.016 1.016))))
        )
        (pin output line (at 25.4 -7.62 180) (length 5.08)
          (name "OUT1" (effects (font (size 1.016 1.016))))
          (number "8" (effects (font (size 1.016 1.016))))
        )
        (pin output line (at 25.4 -10.16 180) (length 5.08)
          (name "OUT2" (effects (font (size 1.016 1.016))))
          (number "9" (effects (font (size 1.016 1.016))))
        )
      )
    )
    (symbol "dk_Diodes-Rectifiers-Single:SS14" (pin_names (offset 1.016)) (in_bom yes) (on_board yes)
      (property "Reference" "D" (at 1.27 2.54 0)
        (effects (font (size 1.27 1.27)))
      )
      (property "Value" "SS14" (at 1.27 -2.54 0)
        (effects (font (size 1.27 1.27)))
      )
      (property "Footprint" "digikey-footprints:DO-214AC" (at 5.08 5.08 0)
        (effects (font (size 1.524 1.524)) (justify left) hide)
      )
      (property "Datasheet" "https://www.onsemi.com/pub/Collateral/SS19-D.PDF" (at 5.08 7.62 0)
        (effects (font (size 1.524 1.524)) (justify left) hide)
      )
      (property "Digi-Key_PN" "SS14CT-ND" (at 5.08 10.16 0)
        (effects (font (size 1.524 1.524)) (justify left) hide)
      )
      (property "MPN" "SS14" (at 5.08 12.7 0)
        (effects (font (size 1.524 1.524)) (justify left) hide)
      )
      (property "Category" "Discrete Semiconductor Products" (at 5.08 15.24 0)
        (effects (font (size 1.524 1.524)) (justify left) hide)
      )
      (property "Family" "Diodes - Rectifiers - Single" (at 5.08 17.78 0)
        (effects (font (size 1.524 1.524)) (justify left) hide)
      )
      (property "DK_Datasheet_Link" "https://www.onsemi.com/pub/Collateral/SS19-D.PDF" (at 5.08 20.32 0)
        (effects (font (size 1.524 1.524)) (justify left) hide)
      )
      (property "DK_Detail_Page" "/product-detail/en/on-semiconductor/SS14/SS14CT-ND/965729" (at 5.08 22.86 0)
        (effects (font (size 1.524 1.524)) (justify left) hide)
      )
      (property "Description" "DIODE SCHOTTKY 40V 1A SMA" (at 5.08 25.4 0)
        (effects (font (size 1.524 1.524)) (justify left) hide)
      )
      (property "Manufacturer" "ON Semiconductor" (at 5.08 27.94 0)
        (effects (font (size 1.524 1.524)) (justify left) hide)
      )
      (property "Status" "Active" (at 5.08 30.48 0)
        (effects (font (size 1.524 1.524)) (justify left) hide)
      )
      (property "ki_keywords" "SS14CT-ND" (at 0 0 0)
        (effects (font (size 1.27 1.27)) hide)
      )
      (property "ki_description" "DIODE SCHOTTKY 40V 1A SMA" (at 0 0 0)
        (effects (font (size 1.27 1.27)) hide)
      )
      (symbol "SS14_0_1"
        (polyline
          (pts
            (xy 0 0)
            (xy 2.54 0)
          )
          (stroke (width 0) (type default))
          (fill (type none))
        )
        (polyline
          (pts
            (xy 0 1.27)
            (xy 0 -1.27)
          )
          (stroke (width 0) (type default))
          (fill (type none))
        )
        (polyline
          (pts
            (xy 2.54 1.27)
            (xy 2.54 -1.27)
            (xy 0 0)
            (xy 2.54 1.27)
          )
          (stroke (width 0) (type default))
          (fill (type outline))
        )
      )
      (symbol "SS14_1_1"
        (pin passive line (at 5.08 0 180) (length 2.54)
          (name "~" (effects (font (size 1.27 1.27))))
          (number "A" (effects (font (size 1.27 1.27))))
        )
        (pin passive line (at -2.54 0 0) (length 2.54)
          (name "~" (effects (font (size 1.27 1.27))))
          (number "K" (effects (font (size 1.27 1.27))))
        )
      )
    )
    (symbol "power:GND" (power) (pin_names (offset 0)) (in_bom yes) (on_board yes)
      (property "Reference" "#PWR" (at 0 -6.35 0)
        (effects (font (size 1.27 1.27)) hide)
      )
      (property "Value" "GND" (at 0 -3.81 0)
        (effects (font (size 1.27 1.27)))
      )
      (property "Footprint" "" (at 0 0 0)
        (effects (font (size 1.27 1.27)) hide)
      )
      (property "Datasheet" "" (at 0 0 0)
        (effects (font (size 1.27 1.27)) hide)
      )
      (property "ki_keywords" "power-flag" (at 0 0 0)
        (effects (font (size 1.27 1.27)) hide)
      )
      (property "ki_description" "Power symbol creates a global label with name \"GND\" , ground" (at 0 0 0)
        (effects (font (size 1.27 1.27)) hide)
      )
      (symbol "GND_0_1"
        (polyline
          (pts
            (xy 0 0)
            (xy 0 -1.27)
            (xy 1.27 -1.27)
            (xy 0 -2.54)
            (xy -1.27 -1.27)
            (xy 0 -1.27)
          )
          (stroke (width 0) (type default))
          (fill (type none))
        )
      )
      (symbol "GND_1_1"
        (pin power_in line (at 0 0 270) (length 0) hide
          (name "GND" (effects (font (size 1.27 1.27))))
          (number "1" (effects (font (size 1.27 1.27))))
        )
      )
    )
  )

  (junction (at 185.42 96.52) (diameter 0) (color 0 0 0 0)
    (uuid 0538228d-354c-4ce5-b766-c3693cd45754)
  )
  (junction (at 151.13 92.71) (diameter 0) (color 0 0 0 0)
    (uuid 144aa7f2-e81e-4f7e-b59f-afa38406976e)
  )
  (junction (at 165.1 96.52) (diameter 0) (color 0 0 0 0)
    (uuid 2c4a1a5b-6f8d-4da2-b5cc-2cd21b093bdc)
  )
  (junction (at 185.42 110.49) (diameter 0) (color 0 0 0 0)
    (uuid 4638c7ac-bc79-4b4f-a28d-be56233798ee)
  )
  (junction (at 151.13 110.49) (diameter 0) (color 0 0 0 0)
    (uuid 46cefdb8-e16b-4f96-920c-c3dacd39edb8)
  )
  (junction (at 151.13 96.52) (diameter 0) (color 0 0 0 0)
    (uuid 4f6a0000-cffa-4429-b12d-ad1e73c6a4c5)
  )
  (junction (at 151.13 95.25) (diameter 0) (color 0 0 0 0)
    (uuid 619b81b4-dd4f-4710-8764-9610f4893599)
  )
  (junction (at 151.13 97.79) (diameter 0) (color 0 0 0 0)
    (uuid 646c5de4-58c1-4496-8a18-c5ecddc341ad)
  )
  (junction (at 166.37 110.49) (diameter 0) (color 0 0 0 0)
    (uuid 6f18e246-6ae5-4e3f-bf63-ebecdf1b9f58)
  )
  (junction (at 149.86 63.5) (diameter 0) (color 0 0 0 0)
    (uuid a379c615-02d7-4318-9de1-99080a848aea)
  )
  (junction (at 149.86 77.47) (diameter 0) (color 0 0 0 0)
    (uuid bacc3109-4b53-4fc7-b3e8-452f86805a61)
  )
  (junction (at 162.56 77.47) (diameter 0) (color 0 0 0 0)
    (uuid bcdd67dc-1500-4250-a85c-55d2e46714c3)
  )
  (junction (at 151.13 102.87) (diameter 0) (color 0 0 0 0)
    (uuid ef159ba0-8c39-4838-9fc2-9fbf95648816)
  )
  (junction (at 151.13 100.33) (diameter 0) (color 0 0 0 0)
    (uuid efc54f94-8c3f-4f46-91c2-782b1ddfdaf4)
  )

  (no_connect (at 116.84 97.79) (uuid 724e5d4a-d404-42db-afe7-16b61b320543))
  (no_connect (at 116.84 100.33) (uuid e498c77a-d21d-426d-bbae-754aff253e40))
  (no_connect (at 116.84 102.87) (uuid e8b050c4-1e38-4fc7-ac9b-5fa2cd3e4cc3))

  (wire (pts (xy 165.1 96.52) (xy 185.42 96.52))
    (stroke (width 0) (type default))
    (uuid 06d4e2c8-051d-4a0d-bbee-fe0243c62825)
  )
  (wire (pts (xy 185.42 96.52) (xy 194.31 96.52))
    (stroke (width 0) (type default))
    (uuid 08af9724-b564-4d3e-9926-1b8a1af13f00)
  )
  (wire (pts (xy 147.32 92.71) (xy 151.13 92.71))
    (stroke (width 0) (type default))
    (uuid 161f2342-a4b2-4f8c-a64f-1478d208f582)
  )
  (wire (pts (xy 147.32 100.33) (xy 151.13 100.33))
    (stroke (width 0) (type default))
    (uuid 1feaf08d-7350-402d-a571-9886718c125e)
  )
  (wire (pts (xy 149.86 77.47) (xy 153.67 77.47))
    (stroke (width 0) (type default))
    (uuid 28a2b658-4cee-4061-aba5-b0d22ce0f4ba)
  )
  (wire (pts (xy 149.86 85.09) (xy 149.86 77.47))
    (stroke (width 0) (type default))
    (uuid 2c669df7-4c1f-4fa6-ba8a-120afa0e3b8b)
  )
  (wire (pts (xy 147.32 107.95) (xy 148.59 107.95))
    (stroke (width 0) (type default))
    (uuid 2e3c4ea9-bc43-4b66-9b25-edd98f008ef5)
  )
  (wire (pts (xy 90.17 92.71) (xy 93.98 92.71))
    (stroke (width 0) (type default))
    (uuid 3479e099-87cf-49ec-9980-f98c03816819)
  )
  (wire (pts (xy 151.13 92.71) (xy 151.13 95.25))
    (stroke (width 0) (type default))
    (uuid 37c49f23-43f7-4269-a6e0-c5b5df5a3600)
  )
  (wire (pts (xy 149.86 66.04) (xy 149.86 63.5))
    (stroke (width 0) (type default))
    (uuid 45140498-0cc4-4ec3-8770-5614ffc9794a)
  )
  (wire (pts (xy 151.13 96.52) (xy 151.13 97.79))
    (stroke (width 0) (type default))
    (uuid 4e3ee635-f05b-4817-a860-2cca99b30aee)
  )
  (wire (pts (xy 147.32 90.17) (xy 151.13 90.17))
    (stroke (width 0) (type default))
    (uuid 535eb554-64bf-4ec7-8a97-b8882072aa45)
  )
  (wire (pts (xy 114.3 63.5) (xy 114.3 85.09))
    (stroke (width 0) (type default))
    (uuid 57479763-c603-4b1a-a804-f85d820a886c)
  )
  (wire (pts (xy 114.3 106.68) (xy 114.3 105.41))
    (stroke (width 0) (type default))
    (uuid 618eb68c-9b35-4f70-b70c-d8317e06726a)
  )
  (wire (pts (xy 151.13 106.68) (xy 114.3 106.68))
    (stroke (width 0) (type default))
    (uuid 68ffee4b-3f1c-4d0e-bb70-4b9205e9f224)
  )
  (wire (pts (xy 166.37 110.49) (xy 176.53 110.49))
    (stroke (width 0) (type default))
    (uuid 6d2dbc7c-89be-4621-b952-f8e0a6ff0777)
  )
  (wire (pts (xy 151.13 102.87) (xy 151.13 106.68))
    (stroke (width 0) (type default))
    (uuid 703002d8-3892-4c21-bc3f-4e774184dccd)
  )
  (polyline (pts (xy 172.72 120.65) (xy 172.72 107.95))
    (stroke (width 0) (type default))
    (uuid 70cda445-92f6-4cbe-bddf-305d5f88191c)
  )

  (wire (pts (xy 185.42 110.49) (xy 194.31 110.49))
    (stroke (width 0) (type default))
    (uuid 75605f55-0212-4ee6-9007-427f845d6325)
  )
  (wire (pts (xy 116.84 90.17) (xy 99.06 90.17))
    (stroke (width 0) (type default))
    (uuid 7bc6daf3-e860-4021-83b3-16a5a993659e)
  )
  (wire (pts (xy 116.84 92.71) (xy 99.06 92.71))
    (stroke (width 0) (type default))
    (uuid 82e9d35d-66fd-4937-b443-a90c39522200)
  )
  (wire (pts (xy 147.32 95.25) (xy 151.13 95.25))
    (stroke (width 0) (type default))
    (uuid 888be87f-852f-4b34-903e-7339d6bc755d)
  )
  (polyline (pts (xy 172.72 107.95) (xy 193.04 107.95))
    (stroke (width 0) (type default))
    (uuid 8955f781-c901-4df8-bd0d-b0669ca20cc2)
  )

  (wire (pts (xy 114.3 105.41) (xy 116.84 105.41))
    (stroke (width 0) (type default))
    (uuid 8acf66a6-5981-43d9-8aca-ad75fab7eeee)
  )
  (wire (pts (xy 158.75 77.47) (xy 162.56 77.47))
    (stroke (width 0) (type default))
    (uuid 8cd1a58a-d5f5-4213-ade0-257dd48f2515)
  )
  (wire (pts (xy 147.32 85.09) (xy 149.86 85.09))
    (stroke (width 0) (type default))
    (uuid 964014e5-560a-4958-9d9f-31521a1082c8)
  )
  (wire (pts (xy 151.13 96.52) (xy 165.1 96.52))
    (stroke (width 0) (type default))
    (uuid 974273f1-3356-4b8b-8096-ebabcee880dd)
  )
  (wire (pts (xy 90.17 90.17) (xy 93.98 90.17))
    (stroke (width 0) (type default))
    (uuid 9e571260-8d3a-442a-86fb-033973211872)
  )
  (wire (pts (xy 114.3 85.09) (xy 116.84 85.09))
    (stroke (width 0) (type default))
    (uuid a160da07-1e7a-45eb-8837-ce9a6e602e70)
  )
  (polyline (pts (xy 193.04 107.95) (xy 193.04 120.65))
    (stroke (width 0) (type default))
    (uuid a5e72ea1-c4ea-4b1c-8962-3281c56f1209)
  )

  (wire (pts (xy 149.86 63.5) (xy 114.3 63.5))
    (stroke (width 0) (type default))
    (uuid bf6b7335-b810-4e9e-bced-aac1fe9fdd5d)
  )
  (wire (pts (xy 151.13 90.17) (xy 151.13 92.71))
    (stroke (width 0) (type default))
    (uuid c2b3837c-fbd8-4890-b4ce-3e9c751cb4c6)
  )
  (wire (pts (xy 147.32 97.79) (xy 151.13 97.79))
    (stroke (width 0) (type default))
    (uuid c5b2b744-437e-4459-9c1d-81c6017f6186)
  )
  (wire (pts (xy 151.13 97.79) (xy 151.13 100.33))
    (stroke (width 0) (type default))
    (uuid c8cb9801-b55c-4d5a-bcab-fcd31da73a67)
  )
  (wire (pts (xy 149.86 71.12) (xy 149.86 77.47))
    (stroke (width 0) (type default))
    (uuid ccc1cfa1-b587-4dfe-89e3-6da52b35fe59)
  )
  (wire (pts (xy 161.29 110.49) (xy 166.37 110.49))
    (stroke (width 0) (type default))
    (uuid de4e28a4-f0a0-4ef4-a0e6-d72af2d37a67)
  )
  (wire (pts (xy 148.59 110.49) (xy 151.13 110.49))
    (stroke (width 0) (type default))
    (uuid df060bba-d800-4c5c-8ecd-6d7448eac4c8)
  )
  (wire (pts (xy 162.56 63.5) (xy 162.56 66.04))
    (stroke (width 0) (type default))
    (uuid e4c5a161-181f-439d-a2da-3ccff99578a2)
  )
  (wire (pts (xy 181.61 110.49) (xy 185.42 110.49))
    (stroke (width 0) (type default))
    (uuid e552c121-76c4-471f-bf2a-6565e2d6dc9d)
  )
  (wire (pts (xy 149.86 63.5) (xy 162.56 63.5))
    (stroke (width 0) (type default))
    (uuid e9868a80-e3e6-4d33-bb83-984b697471c1)
  )
  (wire (pts (xy 148.59 107.95) (xy 148.59 110.49))
    (stroke (width 0) (type default))
    (uuid ef2117c3-f622-4a59-9d22-f6a294a78db1)
  )
  (wire (pts (xy 151.13 102.87) (xy 147.32 102.87))
    (stroke (width 0) (type default))
    (uuid f22ef2a1-c7de-4c3c-8f95-e7b8932e2265)
  )
  (wire (pts (xy 151.13 110.49) (xy 156.21 110.49))
    (stroke (width 0) (type default))
    (uuid f308f809-cca3-4f24-a7b6-a61f5733e63b)
  )
  (wire (pts (xy 151.13 95.25) (xy 151.13 96.52))
    (stroke (width 0) (type default))
    (uuid f668ad3e-e7bd-4a42-b602-315893d34cb8)
  )
  (polyline (pts (xy 193.04 120.65) (xy 172.72 120.65))
    (stroke (width 0) (type default))
    (uuid fbacf2f0-6ec1-4938-884b-85ce7e022a10)
  )

  (wire (pts (xy 162.56 77.47) (xy 162.56 71.12))
    (stroke (width 0) (type default))
    (uuid fdd7f9d9-6db4-44f0-99a8-2671ded6ac34)
  )
  (wire (pts (xy 151.13 100.33) (xy 151.13 102.87))
    (stroke (width 0) (type default))
    (uuid ff03ec92-19a3-486d-a7d5-23f5ff9cd32a)
  )

  (text "RC Filter" (at 177.8 123.19 0)
    (effects (font (size 1.27 1.27)) (justify left bottom))
    (uuid 093dec5e-3a07-4649-9531-55accb84722b)
  )
  (text "Flyback" (at 161.29 95.25 0)
    (effects (font (size 1.27 1.27)) (justify left bottom))
    (uuid 816fb222-1688-4ee4-b590-cc73258a580d)
  )

  (hierarchical_label "OUT" (shape output) (at 194.31 96.52 0) (fields_autoplaced)
    (effects (font (size 1.27 1.27)) (justify left))
    (uuid 0fddea59-1618-4e2a-bdab-70f73a893e5e)
  )
  (hierarchical_label "IN" (shape input) (at 90.17 90.17 180) (fields_autoplaced)
    (effects (font (size 1.27 1.27)) (justify right))
    (uuid 4c8d5052-f8ea-4891-8e47-23140ebaff50)
  )
  (hierarchical_label "BATT" (shape input) (at 114.3 63.5 90) (fields_autoplaced)
    (effects (font (size 1.27 1.27)) (justify left))
    (uuid 53187173-8abd-4c74-8ba2-a00767408fab)
  )
  (hierarchical_label "IS" (shape output) (at 194.31 110.49 0) (fields_autoplaced)
    (effects (font (size 1.27 1.27)) (justify left))
    (uuid a6a45d0f-60bf-4293-8c7e-8b89329f9f2c)
  )
  (hierarchical_label "DEN" (shape input) (at 90.17 92.71 180) (fields_autoplaced)
    (effects (font (size 1.27 1.27)) (justify right))
    (uuid ec722694-b331-42ca-afea-b4f877b0aee0)
  )

  (symbol (lib_id "Device:R_Small_US") (at 96.52 90.17 270) (unit 1)
    (in_bom yes) (on_board yes) (dnp no)
    (uuid 00000000-0000-0000-0000-00005ecb4c71)
    (property "Reference" "R13" (at 96.52 84.963 90)
      (effects (font (size 1.27 1.27)))
    )
    (property "Value" "4.7K" (at 96.52 87.2744 90)
      (effects (font (size 1.27 1.27)))
    )
    (property "Footprint" "Resistor_SMD:R_0805_2012Metric" (at 96.52 90.17 0)
      (effects (font (size 1.27 1.27)) hide)
    )
    (property "Datasheet" "" (at 96.52 90.17 0)
      (effects (font (size 1.27 1.27)) hide)
    )
    (property "Digi-Key_PN" "311-4.70KCRCT-ND" (at 96.52 90.17 0)
      (effects (font (size 1.27 1.27)) hide)
    )
    (property "LCSC" "C17673" (at 96.52 90.17 0)
      (effects (font (size 1.27 1.27)) hide)
    )
    (pin "1" (uuid 8b9c3315-3dd3-426f-ac70-f8bbd8b9c0c5))
    (pin "2" (uuid 5bfc7b3e-3f06-4739-9c8b-fd3da06edab8))
    (instances
      (project "DingoPDM"
        (path "/8948e307-9174-4227-9c28-3ff885e6e83d/00000000-0000-0000-0000-00005f54b02a/00000000-0000-0000-0000-00005f5a40c0"
          (reference "R13") (unit 1)
        )
        (path "/8948e307-9174-4227-9c28-3ff885e6e83d/00000000-0000-0000-0000-00005f54b02a/00000000-0000-0000-0000-00005f5a40c6"
          (reference "R19") (unit 1)
        )
      )
    )
  )

  (symbol (lib_id "Device:R_Small_US") (at 96.52 92.71 270) (unit 1)
    (in_bom yes) (on_board yes) (dnp no)
    (uuid 00000000-0000-0000-0000-00005ecb4c77)
    (property "Reference" "R14" (at 96.52 97.79 90)
      (effects (font (size 1.27 1.27)))
    )
    (property "Value" "4.7K" (at 96.52 95.25 90)
      (effects (font (size 1.27 1.27)))
    )
    (property "Footprint" "Resistor_SMD:R_0805_2012Metric" (at 96.52 92.71 0)
      (effects (font (size 1.27 1.27)) hide)
    )
    (property "Datasheet" "" (at 96.52 92.71 0)
      (effects (font (size 1.27 1.27)) hide)
    )
    (property "Digi-Key_PN" "311-4.70KCRCT-ND" (at 96.52 92.71 0)
      (effects (font (size 1.27 1.27)) hide)
    )
    (property "LCSC" "C17673" (at 96.52 92.71 0)
      (effects (font (size 1.27 1.27)) hide)
    )
    (pin "1" (uuid 968eb197-2ed5-4fc0-b676-ed73c94548cc))
    (pin "2" (uuid d23c3a37-a7de-4a79-8df6-873f4254451d))
    (instances
      (project "DingoPDM"
        (path "/8948e307-9174-4227-9c28-3ff885e6e83d/00000000-0000-0000-0000-00005f54b02a/00000000-0000-0000-0000-00005f5a40c0"
          (reference "R14") (unit 1)
        )
        (path "/8948e307-9174-4227-9c28-3ff885e6e83d/00000000-0000-0000-0000-00005f54b02a/00000000-0000-0000-0000-00005f5a40c6"
          (reference "R20") (unit 1)
        )
      )
    )
  )

  (symbol (lib_id "Device:C_Small") (at 162.56 68.58 180) (unit 1)
    (in_bom yes) (on_board yes) (dnp no)
    (uuid 00000000-0000-0000-0000-00005ecb4c92)
    (property "Reference" "C23" (at 164.8968 67.4116 0)
      (effects (font (size 1.27 1.27)) (justify right))
    )
    (property "Value" "100nF" (at 164.8968 69.723 0)
      (effects (font (size 1.27 1.27)) (justify right))
    )
    (property "Footprint" "Capacitor_SMD:C_0805_2012Metric" (at 162.56 68.58 0)
      (effects (font (size 1.27 1.27)) hide)
    )
    (property "Datasheet" "" (at 162.56 68.58 0)
      (effects (font (size 1.27 1.27)) hide)
    )
    (property "Digi-Key_PN" "478-1395-1-ND" (at 162.56 68.58 0)
      (effects (font (size 1.27 1.27)) hide)
    )
    (property "LCSC" "C49678" (at 162.56 68.58 0)
      (effects (font (size 1.27 1.27)) hide)
    )
    (pin "1" (uuid e4ab5b5e-337c-4a03-8939-e3ac1bb609a2))
    (pin "2" (uuid 62bd5213-cefa-4fe6-bfd1-28761f190e64))
    (instances
      (project "DingoPDM"
        (path "/8948e307-9174-4227-9c28-3ff885e6e83d/00000000-0000-0000-0000-00005f54b02a/00000000-0000-0000-0000-00005f5a40c0"
          (reference "C23") (unit 1)
        )
        (path "/8948e307-9174-4227-9c28-3ff885e6e83d/00000000-0000-0000-0000-00005f54b02a/00000000-0000-0000-0000-00005f5a40c6"
          (reference "C27") (unit 1)
        )
      )
    )
  )

  (symbol (lib_id "Device:C_Small") (at 149.86 68.58 180) (unit 1)
    (in_bom yes) (on_board yes) (dnp no)
    (uuid 00000000-0000-0000-0000-00005ecb4c98)
    (property "Reference" "C22" (at 152.1968 67.4116 0)
      (effects (font (size 1.27 1.27)) (justify right))
    )
    (property "Value" "47nF" (at 152.1968 69.723 0)
      (effects (font (size 1.27 1.27)) (justify right))
    )
    (property "Footprint" "Capacitor_SMD:C_0805_2012Metric" (at 149.86 68.58 0)
      (effects (font (size 1.27 1.27)) hide)
    )
    (property "Datasheet" "" (at 149.86 68.58 0)
      (effects (font (size 1.27 1.27)) hide)
    )
    (property "Digi-Key_PN" "399-1166-1-ND" (at 149.86 68.58 0)
      (effects (font (size 1.27 1.27)) hide)
    )
    (property "LCSC" "C520039" (at 149.86 68.58 0)
      (effects (font (size 1.27 1.27)) hide)
    )
    (pin "1" (uuid 14293667-bfc1-43dc-9591-d0b8907b6250))
    (pin "2" (uuid 365cd71d-4faf-4074-bdd5-54530a8bba06))
    (instances
      (project "DingoPDM"
        (path "/8948e307-9174-4227-9c28-3ff885e6e83d/00000000-0000-0000-0000-00005f54b02a/00000000-0000-0000-0000-00005f5a40c0"
          (reference "C22") (unit 1)
        )
        (path "/8948e307-9174-4227-9c28-3ff885e6e83d/00000000-0000-0000-0000-00005f54b02a/00000000-0000-0000-0000-00005f5a40c6"
          (reference "C26") (unit 1)
        )
      )
    )
  )

  (symbol (lib_id "Device:R_Small_US") (at 156.21 77.47 270) (unit 1)
    (in_bom yes) (on_board yes) (dnp no)
    (uuid 00000000-0000-0000-0000-00005ecb4c9e)
    (property "Reference" "R16" (at 156.21 80.01 90)
      (effects (font (size 1.27 1.27)))
    )
    (property "Value" "47R 1/4W" (at 156.21 82.55 90)
      (effects (font (size 1.27 1.27)))
    )
    (property "Footprint" "Resistor_SMD:R_1206_3216Metric" (at 156.21 77.47 0)
      (effects (font (size 1.27 1.27)) hide)
    )
    (property "Datasheet" "" (at 156.21 77.47 0)
      (effects (font (size 1.27 1.27)) hide)
    )
    (property "Digi-Key_PN" "311-47.0FRCT-ND" (at 156.21 77.47 0)
      (effects (font (size 1.27 1.27)) hide)
    )
    (property "LCSC" "C2907508" (at 156.21 77.47 0)
      (effects (font (size 1.27 1.27)) hide)
    )
    (pin "1" (uuid e04b7591-c33e-4318-939c-745c71072edd))
    (pin "2" (uuid 1f2d23e7-abb5-4f23-912c-4e1b486d2bbf))
    (instances
      (project "DingoPDM"
        (path "/8948e307-9174-4227-9c28-3ff885e6e83d/00000000-0000-0000-0000-00005f54b02a/00000000-0000-0000-0000-00005f5a40c0"
          (reference "R16") (unit 1)
        )
        (path "/8948e307-9174-4227-9c28-3ff885e6e83d/00000000-0000-0000-0000-00005f54b02a/00000000-0000-0000-0000-00005f5a40c6"
          (reference "R22") (unit 1)
        )
      )
    )
  )

  (symbol (lib_id "power:GND") (at 162.56 77.47 0) (unit 1)
    (in_bom yes) (on_board yes) (dnp no)
    (uuid 00000000-0000-0000-0000-00005ecb4ca4)
    (property "Reference" "#PWR056" (at 162.56 83.82 0)
      (effects (font (size 1.27 1.27)) hide)
    )
    (property "Value" "GND" (at 162.687 81.8642 0)
      (effects (font (size 1.27 1.27)))
    )
    (property "Footprint" "" (at 162.56 77.47 0)
      (effects (font (size 1.27 1.27)) hide)
    )
    (property "Datasheet" "" (at 162.56 77.47 0)
      (effects (font (size 1.27 1.27)) hide)
    )
    (pin "1" (uuid 1964dcde-47ba-4207-a372-9269b4257c42))
    (instances
      (project "DingoPDM"
        (path "/8948e307-9174-4227-9c28-3ff885e6e83d/00000000-0000-0000-0000-00005f54b02a/00000000-0000-0000-0000-00005f5a40c0"
          (reference "#PWR056") (unit 1)
        )
        (path "/8948e307-9174-4227-9c28-3ff885e6e83d/00000000-0000-0000-0000-00005f54b02a/00000000-0000-0000-0000-00005f5a40c6"
          (reference "#PWR062") (unit 1)
        )
      )
    )
  )

  (symbol (lib_id "Device:C_Small") (at 185.42 99.06 180) (unit 1)
    (in_bom yes) (on_board yes) (dnp no)
    (uuid 00000000-0000-0000-0000-00005ecb4cc2)
    (property "Reference" "C24" (at 187.7568 97.8916 0)
      (effects (font (size 1.27 1.27)) (justify right))
    )
    (property "Value" "10nF" (at 187.7568 100.203 0)
      (effects (font (size 1.27 1.27)) (justify right))
    )
    (property "Footprint" "Capacitor_SMD:C_0805_2012Metric" (at 185.42 99.06 0)
      (effects (font (size 1.27 1.27)) hide)
    )
    (property "Datasheet" "" (at 185.42 99.06 0)
      (effects (font (size 1.27 1.27)) hide)
    )
    (property "Digi-Key_PN" "311-1136-1-ND" (at 185.42 99.06 0)
      (effects (font (size 1.27 1.27)) hide)
    )
    (property "LCSC" "C1710" (at 185.42 99.06 0)
      (effects (font (size 1.27 1.27)) hide)
    )
    (pin "1" (uuid b1863c15-8e03-4da2-b27d-7ea4bdc4bb2e))
    (pin "2" (uuid 74671c34-ae22-4f65-960e-32b095afff2a))
    (instances
      (project "DingoPDM"
        (path "/8948e307-9174-4227-9c28-3ff885e6e83d/00000000-0000-0000-0000-00005f54b02a/00000000-0000-0000-0000-00005f5a40c0"
          (reference "C24") (unit 1)
        )
        (path "/8948e307-9174-4227-9c28-3ff885e6e83d/00000000-0000-0000-0000-00005f54b02a/00000000-0000-0000-0000-00005f5a40c6"
          (reference "C28") (unit 1)
        )
      )
    )
  )

  (symbol (lib_id "power:GND") (at 185.42 101.6 0) (unit 1)
    (in_bom yes) (on_board yes) (dnp no)
    (uuid 00000000-0000-0000-0000-00005ecb4cd8)
    (property "Reference" "#PWR059" (at 185.42 107.95 0)
      (effects (font (size 1.27 1.27)) hide)
    )
    (property "Value" "GND" (at 185.547 105.9942 0)
      (effects (font (size 1.27 1.27)))
    )
    (property "Footprint" "" (at 185.42 101.6 0)
      (effects (font (size 1.27 1.27)) hide)
    )
    (property "Datasheet" "" (at 185.42 101.6 0)
      (effects (font (size 1.27 1.27)) hide)
    )
    (pin "1" (uuid 1bd8f722-fdd0-45da-a1af-bbd99d5caa9a))
    (instances
      (project "DingoPDM"
        (path "/8948e307-9174-4227-9c28-3ff885e6e83d/00000000-0000-0000-0000-00005f54b02a/00000000-0000-0000-0000-00005f5a40c0"
          (reference "#PWR059") (unit 1)
        )
        (path "/8948e307-9174-4227-9c28-3ff885e6e83d/00000000-0000-0000-0000-00005f54b02a/00000000-0000-0000-0000-00005f5a40c6"
          (reference "#PWR065") (unit 1)
        )
      )
    )
  )

  (symbol (lib_id "Device:R_Small_US") (at 179.07 110.49 270) (unit 1)
    (in_bom yes) (on_board yes) (dnp no)
    (uuid 00000000-0000-0000-0000-00005ecb4ce4)
    (property "Reference" "R18" (at 179.07 113.03 90)
      (effects (font (size 1.27 1.27)))
    )
    (property "Value" "4.7K" (at 179.07 115.57 90)
      (effects (font (size 1.27 1.27)))
    )
    (property "Footprint" "Resistor_SMD:R_0805_2012Metric" (at 179.07 110.49 0)
      (effects (font (size 1.27 1.27)) hide)
    )
    (property "Datasheet" "" (at 179.07 110.49 0)
      (effects (font (size 1.27 1.27)) hide)
    )
    (property "Digi-Key_PN" "311-4.70KCRCT-ND" (at 179.07 110.49 0)
      (effects (font (size 1.27 1.27)) hide)
    )
    (property "LCSC" "C17673" (at 179.07 110.49 0)
      (effects (font (size 1.27 1.27)) hide)
    )
    (pin "1" (uuid 25bf7dfd-cdc3-4a23-8d7c-1952302e6bfb))
    (pin "2" (uuid 199f7856-3812-43cb-893f-fd260da50c02))
    (instances
      (project "DingoPDM"
        (path "/8948e307-9174-4227-9c28-3ff885e6e83d/00000000-0000-0000-0000-00005f54b02a/00000000-0000-0000-0000-00005f5a40c0"
          (reference "R18") (unit 1)
        )
        (path "/8948e307-9174-4227-9c28-3ff885e6e83d/00000000-0000-0000-0000-00005f54b02a/00000000-0000-0000-0000-00005f5a40c6"
          (reference "R24") (unit 1)
        )
      )
    )
  )

  (symbol (lib_id "Device:C_Small") (at 185.42 113.03 180) (unit 1)
    (in_bom yes) (on_board yes) (dnp no)
    (uuid 00000000-0000-0000-0000-00005ecb4cea)
    (property "Reference" "C25" (at 187.96 113.03 0)
      (effects (font (size 1.27 1.27)) (justify right))
    )
    (property "Value" "220pF" (at 186.69 115.57 0)
      (effects (font (size 1.27 1.27)) (justify right))
    )
    (property "Footprint" "Capacitor_SMD:C_0805_2012Metric" (at 185.42 113.03 0)
      (effects (font (size 1.27 1.27)) hide)
    )
    (property "Datasheet" "" (at 185.42 113.03 0)
      (effects (font (size 1.27 1.27)) hide)
    )
    (property "Digi-Key_PN" "399-1138-1-ND" (at 185.42 113.03 0)
      (effects (font (size 1.27 1.27)) hide)
    )
    (property "LCSC" "C576920" (at 185.42 113.03 0)
      (effects (font (size 1.27 1.27)) hide)
    )
    (pin "1" (uuid 25c338df-ef15-4c66-9822-98aefb744654))
    (pin "2" (uuid 2d822235-9b3e-40f4-8e30-eda43d3fe667))
    (instances
      (project "DingoPDM"
        (path "/8948e307-9174-4227-9c28-3ff885e6e83d/00000000-0000-0000-0000-00005f54b02a/00000000-0000-0000-0000-00005f5a40c0"
          (reference "C25") (unit 1)
        )
        (path "/8948e307-9174-4227-9c28-3ff885e6e83d/00000000-0000-0000-0000-00005f54b02a/00000000-0000-0000-0000-00005f5a40c6"
          (reference "C29") (unit 1)
        )
      )
    )
  )

  (symbol (lib_id "Device:R_Small_US") (at 151.13 113.03 0) (unit 1)
    (in_bom yes) (on_board yes) (dnp no)
    (uuid 00000000-0000-0000-0000-00005ecb4cf0)
    (property "Reference" "R15" (at 146.05 111.76 0)
      (effects (font (size 1.27 1.27)) (justify left))
    )
    (property "Value" "1.2K" (at 144.78 114.3 0)
      (effects (font (size 1.27 1.27)) (justify left))
    )
    (property "Footprint" "Resistor_SMD:R_0805_2012Metric" (at 151.13 113.03 0)
      (effects (font (size 1.27 1.27)) hide)
    )
    (property "Datasheet" "" (at 151.13 113.03 0)
      (effects (font (size 1.27 1.27)) hide)
    )
    (property "Digi-Key_PN" "311-1.20KCRCT-ND" (at 151.13 113.03 0)
      (effects (font (size 1.27 1.27)) hide)
    )
    (property "LCSC" "C727987" (at 151.13 113.03 0)
      (effects (font (size 1.27 1.27)) hide)
    )
    (pin "1" (uuid d263029e-5801-4159-a416-464a554001fe))
    (pin "2" (uuid 848f1936-c71f-482b-918a-517711dd5519))
    (instances
      (project "DingoPDM"
        (path "/8948e307-9174-4227-9c28-3ff885e6e83d/00000000-0000-0000-0000-00005f54b02a/00000000-0000-0000-0000-00005f5a40c0"
          (reference "R15") (unit 1)
        )
        (path "/8948e307-9174-4227-9c28-3ff885e6e83d/00000000-0000-0000-0000-00005f54b02a/00000000-0000-0000-0000-00005f5a40c6"
          (reference "R21") (unit 1)
        )
      )
    )
  )

  (symbol (lib_id "Device:R_Small_US") (at 158.75 110.49 270) (unit 1)
    (in_bom yes) (on_board yes) (dnp no)
    (uuid 00000000-0000-0000-0000-00005ecb4cf6)
    (property "Reference" "R17" (at 158.75 113.03 90)
      (effects (font (size 1.27 1.27)))
    )
    (property "Value" "4.7K" (at 158.75 115.57 90)
      (effects (font (size 1.27 1.27)))
    )
    (property "Footprint" "Resistor_SMD:R_0805_2012Metric" (at 158.75 110.49 0)
      (effects (font (size 1.27 1.27)) hide)
    )
    (property "Datasheet" "" (at 158.75 110.49 0)
      (effects (font (size 1.27 1.27)) hide)
    )
    (property "Digi-Key_PN" "311-4.70KCRCT-ND" (at 158.75 110.49 0)
      (effects (font (size 1.27 1.27)) hide)
    )
    (property "LCSC" "C17673" (at 158.75 110.49 0)
      (effects (font (size 1.27 1.27)) hide)
    )
    (pin "1" (uuid 6f380dfe-b31f-4054-8080-cbc9fa0f9dda))
    (pin "2" (uuid 93419e6f-87e5-4454-ac50-437e2ff4114c))
    (instances
      (project "DingoPDM"
        (path "/8948e307-9174-4227-9c28-3ff885e6e83d/00000000-0000-0000-0000-00005f54b02a/00000000-0000-0000-0000-00005f5a40c0"
          (reference "R17") (unit 1)
        )
        (path "/8948e307-9174-4227-9c28-3ff885e6e83d/00000000-0000-0000-0000-00005f54b02a/00000000-0000-0000-0000-00005f5a40c6"
          (reference "R23") (unit 1)
        )
      )
    )
  )

  (symbol (lib_id "Device:D_Zener_Small") (at 166.37 113.03 270) (unit 1)
    (in_bom yes) (on_board yes) (dnp no)
    (uuid 00000000-0000-0000-0000-00005ecb4cfc)
    (property "Reference" "D9" (at 168.0972 111.8616 90)
      (effects (font (size 1.27 1.27)) (justify left))
    )
    (property "Value" "3.3V" (at 168.0972 114.173 90)
      (effects (font (size 1.27 1.27)) (justify left))
    )
    (property "Footprint" "Diode_SMD:D_SOD-323_HandSoldering" (at 166.37 113.03 90)
      (effects (font (size 1.27 1.27)) hide)
    )
    (property "Datasheet" "" (at 166.37 113.03 90)
      (effects (font (size 1.27 1.27)) hide)
    )
    (property "Digi-Key_PN" "1727-5150-1-ND" (at 166.37 113.03 0)
      (effects (font (size 1.27 1.27)) hide)
    )
    (property "LCSC" "C177016" (at 166.37 113.03 0)
      (effects (font (size 1.27 1.27)) hide)
    )
    (pin "1" (uuid 1fa7ac2c-d87e-4cc5-bfd7-78d621b8635f))
    (pin "2" (uuid ad59e6c9-700f-4fe9-9cdf-fc61ff9bd946))
    (instances
      (project "DingoPDM"
        (path "/8948e307-9174-4227-9c28-3ff885e6e83d/00000000-0000-0000-0000-00005f54b02a/00000000-0000-0000-0000-00005f5a40c0"
          (reference "D9") (unit 1)
        )
        (path "/8948e307-9174-4227-9c28-3ff885e6e83d/00000000-0000-0000-0000-00005f54b02a/00000000-0000-0000-0000-00005f5a40c6"
          (reference "D11") (unit 1)
        )
      )
    )
  )

  (symbol (lib_id "power:GND") (at 151.13 115.57 0) (unit 1)
    (in_bom yes) (on_board yes) (dnp no)
    (uuid 00000000-0000-0000-0000-00005ecb4d0b)
    (property "Reference" "#PWR055" (at 151.13 121.92 0)
      (effects (font (size 1.27 1.27)) hide)
    )
    (property "Value" "GND" (at 151.257 119.9642 0)
      (effects (font (size 1.27 1.27)))
    )
    (property "Footprint" "" (at 151.13 115.57 0)
      (effects (font (size 1.27 1.27)) hide)
    )
    (property "Datasheet" "" (at 151.13 115.57 0)
      (effects (font (size 1.27 1.27)) hide)
    )
    (pin "1" (uuid ef921a00-18c0-4d0f-8c97-74516e24cf8b))
    (instances
      (project "DingoPDM"
        (path "/8948e307-9174-4227-9c28-3ff885e6e83d/00000000-0000-0000-0000-00005f54b02a/00000000-0000-0000-0000-00005f5a40c0"
          (reference "#PWR055") (unit 1)
        )
        (path "/8948e307-9174-4227-9c28-3ff885e6e83d/00000000-0000-0000-0000-00005f54b02a/00000000-0000-0000-0000-00005f5a40c6"
          (reference "#PWR061") (unit 1)
        )
      )
    )
  )

  (symbol (lib_id "power:GND") (at 166.37 115.57 0) (unit 1)
    (in_bom yes) (on_board yes) (dnp no)
    (uuid 00000000-0000-0000-0000-00005ecb4d11)
    (property "Reference" "#PWR058" (at 166.37 121.92 0)
      (effects (font (size 1.27 1.27)) hide)
    )
    (property "Value" "GND" (at 166.497 119.9642 0)
      (effects (font (size 1.27 1.27)))
    )
    (property "Footprint" "" (at 166.37 115.57 0)
      (effects (font (size 1.27 1.27)) hide)
    )
    (property "Datasheet" "" (at 166.37 115.57 0)
      (effects (font (size 1.27 1.27)) hide)
    )
    (pin "1" (uuid 1946197d-28fa-484b-8a6c-ffd616c3ffe8))
    (instances
      (project "DingoPDM"
        (path "/8948e307-9174-4227-9c28-3ff885e6e83d/00000000-0000-0000-0000-00005f54b02a/00000000-0000-0000-0000-00005f5a40c0"
          (reference "#PWR058") (unit 1)
        )
        (path "/8948e307-9174-4227-9c28-3ff885e6e83d/00000000-0000-0000-0000-00005f54b02a/00000000-0000-0000-0000-00005f5a40c6"
          (reference "#PWR064") (unit 1)
        )
      )
    )
  )

  (symbol (lib_id "power:GND") (at 185.42 115.57 0) (unit 1)
    (in_bom yes) (on_board yes) (dnp no)
    (uuid 00000000-0000-0000-0000-00005ecb4d17)
    (property "Reference" "#PWR060" (at 185.42 121.92 0)
      (effects (font (size 1.27 1.27)) hide)
    )
    (property "Value" "GND" (at 185.42 119.38 0)
      (effects (font (size 1.27 1.27)))
    )
    (property "Footprint" "" (at 185.42 115.57 0)
      (effects (font (size 1.27 1.27)) hide)
    )
    (property "Datasheet" "" (at 185.42 115.57 0)
      (effects (font (size 1.27 1.27)) hide)
    )
    (pin "1" (uuid 45d2e1ba-3aad-463e-9c27-e63c4ccab112))
    (instances
      (project "DingoPDM"
        (path "/8948e307-9174-4227-9c28-3ff885e6e83d/00000000-0000-0000-0000-00005f54b02a/00000000-0000-0000-0000-00005f5a40c0"
          (reference "#PWR060") (unit 1)
        )
        (path "/8948e307-9174-4227-9c28-3ff885e6e83d/00000000-0000-0000-0000-00005f54b02a/00000000-0000-0000-0000-00005f5a40c6"
          (reference "#PWR066") (unit 1)
        )
      )
    )
  )

  (symbol (lib_id "power:GND") (at 165.1 104.14 0) (unit 1)
    (in_bom yes) (on_board yes) (dnp no)
    (uuid 00000000-0000-0000-0000-00005ecb4d2d)
    (property "Reference" "#PWR057" (at 165.1 110.49 0)
      (effects (font (size 1.27 1.27)) hide)
    )
    (property "Value" "GND" (at 165.1 107.95 0)
      (effects (font (size 1.27 1.27)))
    )
    (property "Footprint" "" (at 165.1 104.14 0)
      (effects (font (size 1.27 1.27)) hide)
    )
    (property "Datasheet" "" (at 165.1 104.14 0)
      (effects (font (size 1.27 1.27)) hide)
    )
    (pin "1" (uuid ae72be24-6153-4e27-bebd-c9e7eb1b200a))
    (instances
      (project "DingoPDM"
        (path "/8948e307-9174-4227-9c28-3ff885e6e83d/00000000-0000-0000-0000-00005f54b02a/00000000-0000-0000-0000-00005f5a40c0"
          (reference "#PWR057") (unit 1)
        )
        (path "/8948e307-9174-4227-9c28-3ff885e6e83d/00000000-0000-0000-0000-00005f54b02a/00000000-0000-0000-0000-00005f5a40c6"
          (reference "#PWR063") (unit 1)
        )
      )
    )
  )

  (symbol (lib_id "Profet:BTS700n-1EPP") (at 121.92 82.55 0) (unit 1)
    (in_bom yes) (on_board yes) (dnp no)
    (uuid 00000000-0000-0000-0000-00005ed986e2)
    (property "Reference" "U8" (at 124.46 81.28 0)
      (effects (font (size 1.27 1.27)))
    )
    (property "Value" "BTS700n-1EPP" (at 129.54 111.76 0)
      (effects (font (size 1.27 1.27)))
    )
    (property "Footprint" "Profet:TDSO-14" (at 121.92 82.55 0)
      (effects (font (size 1.27 1.27)) (justify left bottom) hide)
    )
    (property "Datasheet" "" (at 121.92 82.55 0)
      (effects (font (size 1.27 1.27)) hide)
    )
    (property "Digi-Key_PN" "BTS70021EPPXUMA1CT-ND" (at 121.92 82.55 0)
      (effects (font (size 1.27 1.27)) hide)
    )
    (property "LCSC" "C534824" (at 121.92 82.55 0)
      (effects (font (size 1.27 1.27)) hide)
    )
    (pin "1" (uuid b430c2a1-a1a8-4839-b421-23a50689c053))
    (pin "10" (uuid 18be4487-da6c-4752-85b3-9dce8a831278))
    (pin "11" (uuid 40658873-01d2-47ed-a82a-7a11fdf50dc8))
    (pin "12" (uuid f5969618-1379-4738-852d-b88659d43535))
    (pin "13" (uuid e7f1cb31-42d2-412f-a477-679de66584e0))
    (pin "14" (uuid d009ba0a-e60e-4863-b811-1871ca09f373))
    (pin "15" (uuid d3962a92-d667-4f96-acb6-164b09cf9f47))
    (pin "2" (uuid c13b20ca-89e9-4f43-b1c1-6e659a8ad5a9))
    (pin "3" (uuid 4b4fd813-8f48-4bbd-b4a7-8fd571a671c9))
    (pin "4" (uuid 7d98dbb2-18c1-4d3e-9e90-130e20ef0f28))
    (pin "5" (uuid 922783cd-720f-4493-a595-8fafac9baaef))
    (pin "6" (uuid 7df08c12-5714-4cdc-a8ac-e8d996640c93))
    (pin "7" (uuid 55d444e3-b4d7-41c4-89b4-03caf4b2a602))
    (pin "8" (uuid 84525abd-9b93-4797-a02a-91a1df9e7b50))
    (pin "9" (uuid 9c8da1ff-afd0-4a2c-81e1-6bdc3770f8d3))
    (instances
      (project "DingoPDM"
        (path "/8948e307-9174-4227-9c28-3ff885e6e83d/00000000-0000-0000-0000-00005f54b02a/00000000-0000-0000-0000-00005f5a40c0"
          (reference "U8") (unit 1)
        )
        (path "/8948e307-9174-4227-9c28-3ff885e6e83d/00000000-0000-0000-0000-00005f54b02a/00000000-0000-0000-0000-00005f5a40c6"
          (reference "U9") (unit 1)
        )
      )
    )
  )

  (symbol (lib_id "dk_Diodes-Rectifiers-Single:SS14") (at 165.1 99.06 270) (unit 1)
    (in_bom yes) (on_board yes) (dnp no)
    (uuid 00000000-0000-0000-0000-00005eebbc4d)
    (property "Reference" "D8" (at 161.29 99.06 90)
      (effects (font (size 1.27 1.27)) (justify left))
    )
    (property "Value" "BYG23M" (at 156.21 101.6 90)
      (effects (font (size 1.27 1.27)) (justify left))
    )
    (property "Footprint" "digikey-footprints:DO-214AC" (at 170.18 104.14 0)
      (effects (font (size 1.524 1.524)) (justify left) hide)
    )
    (property "Datasheet" "" (at 172.72 104.14 0)
      (effects (font (size 1.524 1.524)) (justify left) hide)
    )
    (property "Digi-Key_PN" "BYG23M-E3/TR3GICT-ND" (at 175.26 104.14 0)
      (effects (font (size 1.524 1.524)) (justify left) hide)
    )
    (property "LCSC" "C141573" (at 165.1 99.06 0)
      (effects (font (size 1.27 1.27)) hide)
    )
    (pin "A" (uuid a6ad8931-9ebd-4e82-aa95-5f2f2ce40969))
    (pin "K" (uuid 8dd87dcc-6c79-4bff-9d3c-477f8fbcc430))
    (instances
      (project "DingoPDM"
        (path "/8948e307-9174-4227-9c28-3ff885e6e83d/00000000-0000-0000-0000-00005f54b02a/00000000-0000-0000-0000-00005f5a40c0"
          (reference "D8") (unit 1)
        )
        (path "/8948e307-9174-4227-9c28-3ff885e6e83d/00000000-0000-0000-0000-00005f54b02a/00000000-0000-0000-0000-00005f5a40c6"
          (reference "D10") (unit 1)
        )
      )
    )
  )
)
