{
  "board": {
    "3dviewports": [],
    "design_settings": {
      "defaults": {
        "board_outline_line_width": 0.09999999999999999,
        "copper_line_width": 0.19999999999999998,
        "copper_text_italic": false,
        "copper_text_size_h": 1.5,
        "copper_text_size_v": 1.5,
        "copper_text_thickness": 0.3,
        "copper_text_upright": false,
        "courtyard_line_width": 0.049999999999999996,
        "dimension_precision": 4,
        "dimension_units": 3,
        "dimensions": {
          "arrow_length": 1270000,
          "extension_offset": 500000,
          "keep_text_aligned": true,
          "suppress_zeroes": false,
          "text_position": 0,
          "units_format": 1
        },
        "fab_line_width": 0.09999999999999999,
        "fab_text_italic": false,
        "fab_text_size_h": 1.0,
        "fab_text_size_v": 1.0,
        "fab_text_thickness": 0.15,
        "fab_text_upright": false,
        "other_line_width": 0.15,
        "other_text_italic": false,
        "other_text_size_h": 1.0,
        "other_text_size_v": 1.0,
        "other_text_thickness": 0.15,
        "other_text_upright": false,
        "pads": {
          "drill": 0.762,
          "height": 1.524,
          "width": 1.524
        },
        "silk_line_width": 0.15,
        "silk_text_italic": false,
        "silk_text_size_h": 1.0,
        "silk_text_size_v": 1.0,
        "silk_text_thickness": 0.15,
        "silk_text_upright": false,
        "zones": {
          "min_clearance": 0.5
        }
      },
      "diff_pair_dimensions": [
        {
          "gap": 0.0,
          "via_gap": 0.0,
          "width": 0.0
        }
      ],
      "drc_exclusions": [
        "clearance|110728125|97472500|afc2eb62-cb79-47c4-a550-0567f200965c|983a83c7-0da8-4b64-82bb-09ff4dd81103",
        "clearance|179784375|97472500|e6d91a81-01d8-491c-b383-52e53f6eb4fe|df89fcd1-3ec0-4604-bb92-c9cd917e932a",
        "clearance|234363179|28568750|92c09fb5-de78-42d7-833d-8d717d32fe55|389afab9-dc06-41f5-87c1-4fad9a5b227d",
        "clearance|234363179|29918750|690551fe-ac2e-4bc8-897e-318935ad1c81|3251a106-6a50-457b-87c1-caea13fe450c",
        "clearance|234986250|39577000|f2fbc5ea-5f71-43e1-8503-21f22c99a45b|b648eace-aa9b-49d8-8041-4dacbe3b4993",
        "clearance|234986250|39577000|f2fbc5ea-5f71-43e1-8503-21f22c99a45b|f4817354-91bd-440b-a086-574f2477c612",
        "clearance|234986250|39577000|f4817354-91bd-440b-a086-574f2477c612|f2fbc5ea-5f71-43e1-8503-21f22c99a45b",
        "clearance|235213179|28568750|8ce4a3a5-f08a-4a6b-971d-27bbdf74c60d|92c09fb5-de78-42d7-833d-8d717d32fe55",
        "clearance|235213179|29918750|3251a106-6a50-457b-87c1-caea13fe450c|b8f1eac1-b8a0-48b1-a850-8770a4aca6c4",
        "clearance|235584992|38417500|4439f8f1-e010-4ff9-85fc-05dcb5219e32|f2fbc5ea-5f71-43e1-8503-21f22c99a45b",
        "clearance|235584992|38417500|f2fbc5ea-5f71-43e1-8503-21f22c99a45b|4439f8f1-e010-4ff9-85fc-05dcb5219e32",
        "clearance|236063179|28568750|120f3649-2f12-468d-b3d3-c38580058f26|8ce4a3a5-f08a-4a6b-971d-27bbdf74c60d",
        "clearance|236063179|29918750|b8f1eac1-b8a0-48b1-a850-8770a4aca6c4|31e7dbad-1f19-40d6-8472-705c348f5068",
        "clearance|236913179|28568750|e4ceea25-bc35-492c-8f72-777c59a68f2c|120f3649-2f12-468d-b3d3-c38580058f26",
        "clearance|236913179|29918750|31e7dbad-1f19-40d6-8472-705c348f5068|8ccb4001-7ade-4ace-b10f-9df9ddcf7f35",
        "clearance|237763179|28568750|c8f90451-68bf-4445-9a0b-2deb10a1851c|e4ceea25-bc35-492c-8f72-777c59a68f2c",
        "clearance|237763179|29918750|8ccb4001-7ade-4ace-b10f-9df9ddcf7f35|3ca4dac8-fcf2-4d11-b687-493d24cbb14b",
        "clearance|238613179|28568750|840b1d8b-b5be-461c-b5e6-dbd560959469|c8f90451-68bf-4445-9a0b-2deb10a1851c",
        "clearance|238613179|29918750|3ca4dac8-fcf2-4d11-b687-493d24cbb14b|9fb3513b-bf15-4ae8-ac75-a9c076401235",
        "clearance|239463179|28568750|0634014b-084b-4b39-9eda-1b0d2a723896|840b1d8b-b5be-461c-b5e6-dbd560959469",
        "clearance|239463179|29918750|9fb3513b-bf15-4ae8-ac75-a9c076401235|f4542fa1-1a72-4181-9c16-9cfcf1b005d1",
        "courtyards_overlap|102537501|83487501|ea54fb55-e777-4ac6-bf6f-b767a0d507a0|f8534960-4540-4168-b2ff-0de3a6188312",
        "courtyards_overlap|135325001|73959376|296fbe5a-0bd5-4492-9328-08541bc86817|b6d79015-30d5-435e-b7b8-f8aa60b5097a",
        "courtyards_overlap|140074999|58331251|279e31ba-e27a-49df-a51a-1263d42c47be|83dd413c-b8af-496a-af20-c852033f476a",
        "courtyards_overlap|155168751|73562501|9452c419-495c-4155-b5a5-d6f24a8e0244|e19393a8-0cbb-4860-aeb2-ce1f54bd668a",
        "courtyards_overlap|183500001|83487501|2d403320-f0cd-4595-9d96-42fe47e9704b|3be00768-a088-4d6c-81a2-c467c93569f6",
        "courtyards_overlap|193025001|83487501|3be00768-a088-4d6c-81a2-c467c93569f6|d448c7ed-f2bf-40df-a886-2ce13501bf87",
        "courtyards_overlap|233928416|38329897|2490bf84-9990-4f62-b68c-3c2b071ca57f|dcbc61dd-22e1-4c91-b8ea-28d217b3ab47",
        "courtyards_overlap|93012501|83487501|46c83fbd-4b72-4672-85cc-0bb685066e1c|ea54fb55-e777-4ac6-bf6f-b767a0d507a0",
        "hole_clearance|111918750|82232500|c2c7ca9d-7490-44af-9d47-63a135bd6160|e8dfbc8d-f853-415b-953d-2ce262e5d4aa",
        "hole_clearance|111918750|82232500|e8dfbc8d-f853-415b-953d-2ce262e5d4aa|1a67fa99-0a57-416e-8ec1-983009a4a639",
        "hole_clearance|111918750|82232500|e8dfbc8d-f853-415b-953d-2ce262e5d4aa|c2c7ca9d-7490-44af-9d47-63a135bd6160",
        "hole_clearance|111918750|97472500|afc2eb62-cb79-47c4-a550-0567f200965c|983a83c7-0da8-4b64-82bb-09ff4dd81103",
        "hole_clearance|112077508|85407500|d38e55fb-150b-4a54-beef-1ca9f08589be|e8dfbc8d-f853-415b-953d-2ce262e5d4aa",
        "hole_clearance|112077508|85407500|e8dfbc8d-f853-415b-953d-2ce262e5d4aa|d38e55fb-150b-4a54-beef-1ca9f08589be",
        "hole_clearance|180975000|97472500|e6d91a81-01d8-491c-b383-52e53f6eb4fe|df89fcd1-3ec0-4604-bb92-c9cd917e932a",
        "hole_clearance|200025000|95567500|af0681d2-ed90-4615-aee6-2ce813c6f22f|f472e3db-9102-4cfa-be42-548fa2329b02",
        "hole_clearance|200025000|95567500|f472e3db-9102-4cfa-be42-548fa2329b02|a8ff46ed-f269-467f-b8cc-f1ac2696b6e4",
        "hole_clearance|200025000|95567500|f472e3db-9102-4cfa-be42-548fa2329b02|af0681d2-ed90-4615-aee6-2ce813c6f22f",
        "hole_clearance|202406250|82232500|830865ea-6ac2-432e-9396-daa22e650cb6|bbf32250-81e0-4bcb-8ffc-a0585374f4da",
        "hole_clearance|205105000|90487500|2a4add94-d8aa-45dc-94d9-6d182e949f96|627adc3b-3c0a-4de6-9d2d-8748bc662e6c",
        "hole_near_hole|102512500|85987500|034fdc34-c511-4c69-a141-7f8a02176d33|ac716e45-7e9b-40f0-9619-faefe7226be2",
        "hole_near_hole|105092500|90487500|9b26219e-c008-4169-93c1-597c5e1827fa|635c2c40-6a3b-40ed-9f7a-cb7a1951819f",
        "hole_near_hole|105092500|90487500|e6d2172c-e85a-496b-9d68-bb76a997b983|ac72b0ce-80e2-4f61-adcd-78bf9f722c29",
        "hole_near_hole|109537500|82232500|5042ba48-47d1-4042-b9a2-e96b2e4faed6|e8dfbc8d-f853-415b-953d-2ce262e5d4aa",
        "hole_near_hole|109537500|97472500|afc2eb62-cb79-47c4-a550-0567f200965c|983a83c7-0da8-4b64-82bb-09ff4dd81103",
        "hole_near_hole|112037500|28837500|c00d4983-1500-4a60-8cca-b200eb3a58ae|aa9b85bf-a991-4aab-949a-1f852ac2ac08",
        "hole_near_hole|112037500|47887500|bbe53a8a-4875-4956-b493-4f3e013d245c|e38b3142-6425-477c-afd6-a4a0527d5484",
        "hole_near_hole|112037500|66937500|bb0feaec-39d8-42e0-a2c1-3da4ac987fec|5a8adb2b-86d7-4416-8bfc-165f2a9a6429",
        "hole_near_hole|112037500|85987500|d38e55fb-150b-4a54-beef-1ca9f08589be|c2c7ca9d-7490-44af-9d47-63a135bd6160",
        "hole_near_hole|178593750|82232500|e9e4a31f-507a-48bf-8e2c-ab8aa45b45e7|3e255a4b-349b-4f77-b4f6-d9b252d39bff",
        "hole_near_hole|178593750|97472500|e6d91a81-01d8-491c-b383-52e53f6eb4fe|df89fcd1-3ec0-4604-bb92-c9cd917e932a",
        "hole_near_hole|183475000|28837500|2bccaabe-1844-4a97-8395-63a36cfe0373|35b4cb24-abbc-4997-ba1c-d2e28cbdf161",
        "hole_near_hole|183475000|47887500|7e81af1a-3be5-4507-8950-daa50adc2fb1|50410138-2ba8-4356-a346-dabc47f4930b",
        "hole_near_hole|183475000|66937500|c24a9320-59b4-417e-9570-e0bc834b6256|90979998-3ebc-4378-8ed9-3e6248fd2100",
        "hole_near_hole|183475000|85987500|73e4fc6a-21f0-434b-a4e7-42808dc91ecf|bf3f163f-7891-4ed8-8e41-4a0fe8cf7e67",
        "hole_near_hole|185420000|90487500|2f00185f-ce32-4ca9-a46a-d55508d2189c|a3b13725-aa5c-4792-9967-60df83f018fc",
        "hole_near_hole|186055000|90487500|a3b13725-aa5c-4792-9967-60df83f018fc|2f00185f-ce32-4ca9-a46a-d55508d2189c",
        "hole_near_hole|186055000|90487500|d6a8b9ad-f54a-41b2-b5db-4c57a6aef1f3|917eb4ad-c926-410a-bdfb-3a96bf6c8bbd",
        "hole_near_hole|193000000|85987500|282fdad5-0407-4df7-8b64-a6b1aab9d0dd|46d1a8c3-2ec2-41a9-89e7-424c44f97af5",
        "hole_near_hole|195525000|87987500|e4c3711b-dab8-4dd6-beee-93a1056ecb2c|12b932ac-9067-4186-bcfd-a14efdf8d67f",
        "hole_near_hole|195580000|90487500|2aaa58fe-5923-4dfa-8eb6-f62165a34e5e|a8ff46ed-f269-467f-b8cc-f1ac2696b6e4",
        "hole_near_hole|202525000|28837500|f93b2518-f066-45ba-8609-0872176fe412|19875a18-49be-4bcf-8082-83b3100efd99",
        "hole_near_hole|202525000|47887500|4a95ed72-25a8-415e-ae4f-30b3d39de821|5c1c9d9b-b2f2-41c6-ac8f-36603e23d023",
        "hole_near_hole|202525000|66937500|69ca3569-86c9-4c51-9157-53dd108a1f86|ff48c6ed-16fb-40ae-ae5b-50f946950c11",
        "hole_near_hole|205105000|90487500|2a4add94-d8aa-45dc-94d9-6d182e949f96|627adc3b-3c0a-4de6-9d2d-8748bc662e6c",
        "hole_near_hole|221575000|28837500|c038d3a1-c6d1-403c-b12a-799ca7210557|83fe8b83-21bb-400c-bb40-590d01e4da9c",
        "hole_near_hole|221575000|47887500|204a7b84-1667-433d-a1d1-ad666caa78c6|0becaa00-b542-47fb-89d2-20d6da99a013",
        "hole_near_hole|221575000|66937500|72723ef0-39c8-436e-b012-28d6599e6e6d|8b645995-420a-46a8-a3ba-c33c303073d9",
        "hole_near_hole|221575000|85987500|7e772883-3bea-4dc7-b420-f9b6e478d899|cf2e3253-3146-4e61-aa9a-e94151ea00d0",
        "hole_near_hole|235625000|37837500|4439f8f1-e010-4ff9-85fc-05dcb5219e32|f4817354-91bd-440b-a086-574f2477c612",
        "hole_near_hole|240625000|47887500|e4a86881-3894-4c2b-ac67-57d00f78190a|60ff31f8-0aa7-4eb8-851d-c5d051207666",
        "hole_near_hole|240625000|66937500|1bc36a26-33f2-4472-9ce0-3cb92004f00e|70a308af-18f0-46d3-88ab-f5fd2f7afe67",
        "hole_near_hole|240625000|85987500|aee8dd2e-b0f6-43a8-a23d-c0b081de2fb0|829c0ee2-6040-4cfd-bc86-23856e5afbeb",
        "hole_near_hole|259675000|28837500|23f978f4-c924-4ddc-8fe5-c2a47bec8283|fe4e2934-6a46-4323-8406-fd54949e47f0",
        "hole_near_hole|259675000|47887500|dfa00918-ddfd-4d6d-a9c5-beda8bc30c2c|6f8a8b85-99cf-48e0-84f2-97cc3f95b2bf",
        "hole_near_hole|259675000|66937500|ef4e1c30-e9d7-4a21-9f96-cb5bfd70eea6|ddfeec8e-dfab-4bbd-a3e4-751d95901af3",
        "hole_near_hole|259675000|85987500|14757f7b-d32d-4490-9141-6a2a4a813834|7b187010-1ad6-4e29-a347-37e2b80c53f7",
        "hole_near_hole|35837500|28837500|63f83d2b-d397-432e-9334-78850851a906|681f3bcc-9ed7-4765-9aae-4fb00fd7cf09",
        "hole_near_hole|35837500|47887500|7d11ca96-659e-41d0-ac9b-bc964f998649|6274d6df-084b-4fe1-9db6-ec31e1a7721b",
        "hole_near_hole|35837500|66937500|2adaaa4f-6456-40e5-9a5c-c1cb2f59f4a0|1fbe143c-4d2a-4c89-a9de-e0ae428be408",
        "hole_near_hole|35837500|85987500|325702e5-17a0-4d82-bc1c-cf97df2ada42|097b83ff-a183-49b7-9eeb-d6f236c1e2a9",
        "hole_near_hole|54887500|28837500|471ca483-5ac5-41ac-9cec-f21076b35bac|11fb1bca-0688-4634-89ac-04c215598e19",
        "hole_near_hole|54887500|47887500|9e5c5fb4-824a-406f-8bdf-4c73bead1d38|7d4894d5-7c3e-48fd-9981-c231da831400",
        "hole_near_hole|54887500|66937500|3934b4db-d55a-4775-8021-52adc3ac3c2c|e27bc642-6077-47d0-9849-bd58e5504745",
        "hole_near_hole|54887500|85987500|a995d71c-3cab-4003-a9c9-37e863515a9b|907abafa-0cdb-4796-8533-0939ba1c1dfb",
        "hole_near_hole|73937500|28837500|00eafe18-9662-4e2b-b543-e0f8c22d25ad|4f8e0c5c-969f-44fd-83bf-5f6395221007",
        "hole_near_hole|73937500|47887500|0230c2b0-18f6-43bb-a848-f7f239e2b0d9|92a4ee04-d54e-4e10-a8c1-d5767861cf8a",
        "hole_near_hole|73937500|66937500|8425f65e-e07c-4238-b5c2-04c4986a04b4|803dff6a-482c-4afc-8d6c-547c922f08e6",
        "hole_near_hole|73937500|85987500|1722510b-c5eb-4a2c-9ae8-50692950841d|b79196b9-56f1-4a2e-abf4-9bfeffb6d38a",
        "hole_near_hole|92987500|28837500|75bf9973-066c-42fc-a0e7-1070670a2ea3|f38214a3-ac4c-480f-a4e3-287d9c70b364",
        "hole_near_hole|92987500|47887500|4178fcd6-be8b-4f9e-a327-f0f32d500136|fa05d033-38b7-4d51-9a34-3fd1e8d85860",
        "hole_near_hole|92987500|66937500|af90dbce-e432-46e5-a446-a6f2a029c374|6a4d6875-adde-462c-b824-7d7464012946",
        "hole_near_hole|92987500|85987500|a94d1052-0a35-4047-b6f0-9a91056493de|c3f41a20-1ff0-4023-84e9-0554016e8ad1",
        "hole_near_hole|94932500|90487500|0ebccdc5-4054-4be2-847a-eb7de9f4c568|f04708e9-781d-4b8e-9a8d-b49c8dcd61fc",
        "hole_near_hole|95567500|90487500|8dd8b7dd-3cad-4abe-ba56-a6f5126b1d13|9df905b1-9438-4f8f-9e6c-7472062e7bf5",
        "hole_near_hole|95567500|90487500|f04708e9-781d-4b8e-9a8d-b49c8dcd61fc|0ebccdc5-4054-4be2-847a-eb7de9f4c568",
        "solder_mask_bridge|110728125|97472500|afc2eb62-cb79-47c4-a550-0567f200965c|983a83c7-0da8-4b64-82bb-09ff4dd81103",
        "solder_mask_bridge|179784375|97472500|e6d91a81-01d8-491c-b383-52e53f6eb4fe|df89fcd1-3ec0-4604-bb92-c9cd917e932a",
        "solder_mask_bridge|205621250|89929500|2a4add94-d8aa-45dc-94d9-6d182e949f96|627adc3b-3c0a-4de6-9d2d-8748bc662e6c",
        "solder_mask_bridge|234986250|39577000|b648eace-aa9b-49d8-8041-4dacbe3b4993|f2fbc5ea-5f71-43e1-8503-21f22c99a45b",
        "solder_mask_bridge|234986250|39577000|f2fbc5ea-5f71-43e1-8503-21f22c99a45b|b648eace-aa9b-49d8-8041-4dacbe3b4993",
        "solder_mask_bridge|234986250|39577000|f2fbc5ea-5f71-43e1-8503-21f22c99a45b|f4817354-91bd-440b-a086-574f2477c612",
        "solder_mask_bridge|234986250|39577000|f4817354-91bd-440b-a086-574f2477c612|f2fbc5ea-5f71-43e1-8503-21f22c99a45b",
        "solder_mask_bridge|235584992|38417500|4439f8f1-e010-4ff9-85fc-05dcb5219e32|f2fbc5ea-5f71-43e1-8503-21f22c99a45b",
        "solder_mask_bridge|235584992|38417500|f2fbc5ea-5f71-43e1-8503-21f22c99a45b|4439f8f1-e010-4ff9-85fc-05dcb5219e32"
      ],
      "meta": {
        "version": 2
      },
      "rule_severities": {
        "annular_width": "error",
        "clearance": "error",
        "connection_width": "warning",
        "copper_edge_clearance": "error",
        "copper_sliver": "warning",
        "courtyards_overlap": "error",
        "diff_pair_gap_out_of_range": "error",
        "diff_pair_uncoupled_length_too_long": "error",
        "drill_out_of_range": "error",
        "duplicate_footprints": "warning",
        "extra_footprint": "warning",
        "footprint": "error",
        "footprint_type_mismatch": "ignore",
        "hole_clearance": "error",
        "hole_near_hole": "error",
        "invalid_outline": "error",
        "isolated_copper": "warning",
        "item_on_disabled_layer": "error",
        "items_not_allowed": "error",
        "length_out_of_range": "error",
        "lib_footprint_issues": "warning",
        "lib_footprint_mismatch": "warning",
        "malformed_courtyard": "error",
        "microvia_drill_out_of_range": "error",
        "missing_courtyard": "ignore",
        "missing_footprint": "warning",
        "net_conflict": "warning",
        "npth_inside_courtyard": "ignore",
        "padstack": "warning",
        "pth_inside_courtyard": "ignore",
        "shorting_items": "error",
        "silk_edge_clearance": "warning",
        "silk_over_copper": "warning",
        "silk_overlap": "warning",
        "skew_out_of_range": "error",
        "solder_mask_bridge": "error",
        "starved_thermal": "error",
        "text_height": "warning",
        "text_thickness": "warning",
        "through_hole_pad_without_hole": "error",
        "too_many_vias": "error",
        "track_dangling": "warning",
        "track_width": "error",
        "tracks_crossing": "error",
        "unconnected_items": "error",
        "unresolved_variable": "error",
        "via_dangling": "warning",
        "zones_intersect": "error"
      },
      "rules": {
        "max_error": 0.005,
        "min_clearance": 0.0,
        "min_connection": 0.0,
        "min_copper_edge_clearance": 0.0,
        "min_hole_clearance": 0.25,
        "min_hole_to_hole": 0.25,
        "min_microvia_diameter": 0.19999999999999998,
        "min_microvia_drill": 0.09999999999999999,
        "min_resolved_spokes": 2,
        "min_silk_clearance": 0.0,
        "min_text_height": 0.7999999999999999,
        "min_text_thickness": 0.08,
        "min_through_hole_diameter": 0.3,
        "min_track_width": 0.0,
        "min_via_annular_width": 0.09999999999999999,
        "min_via_diameter": 0.5,
        "solder_mask_clearance": 0.0,
        "solder_mask_min_width": 0.0,
        "solder_mask_to_copper_clearance": 0.0,
        "use_height_for_length_calcs": true
      },
      "teardrop_options": [
        {
          "td_allow_use_two_tracks": true,
          "td_curve_segcount": 5,
          "td_on_pad_in_zone": false,
          "td_onpadsmd": true,
          "td_onroundshapesonly": false,
          "td_ontrackend": false,
          "td_onviapad": true
        }
      ],
      "teardrop_parameters": [
        {
          "td_curve_segcount": 0,
          "td_height_ratio": 1.0,
          "td_length_ratio": 0.5,
          "td_maxheight": 2.0,
          "td_maxlen": 1.0,
          "td_target_name": "td_round_shape",
          "td_width_to_size_filter_ratio": 0.9
        },
        {
          "td_curve_segcount": 0,
          "td_height_ratio": 1.0,
          "td_length_ratio": 0.5,
          "td_maxheight": 2.0,
          "td_maxlen": 1.0,
          "td_target_name": "td_rect_shape",
          "td_width_to_size_filter_ratio": 0.9
        },
        {
          "td_curve_segcount": 0,
          "td_height_ratio": 1.0,
          "td_length_ratio": 0.5,
          "td_maxheight": 2.0,
          "td_maxlen": 1.0,
          "td_target_name": "td_track_end",
          "td_width_to_size_filter_ratio": 0.9
        }
      ],
      "track_widths": [
        0.0,
        0.2,
        0.25,
        0.38
      ],
      "via_dimensions": [
        {
          "diameter": 0.0,
          "drill": 0.0
        }
      ],
      "zones_allow_external_fillets": false
    },
    "layer_presets": [],
    "viewports": []
  },
  "boards": [],
  "cvpcb": {
    "equivalence_files": []
  },
  "erc": {
    "erc_exclusions": [],
    "meta": {
      "version": 0
    },
    "pin_map": [
      [
        0,
        0,
        0,
        0,
        0,
        0,
        1,
        0,
        0,
        0,
        0,
        2
      ],
      [
        0,
        2,
        0,
        1,
        0,
        0,
        1,
        0,
        2,
        2,
        2,
        2
      ],
      [
        0,
        0,
        0,
        0,
        0,
        0,
        1,
        0,
        1,
        0,
        1,
        2
      ],
      [
        0,
        1,
        0,
        0,
        0,
        0,
        1,
        1,
        2,
        1,
        1,
        2
      ],
      [
        0,
        0,
        0,
        0,
        0,
        0,
        1,
        0,
        0,
        0,
        0,
        2
      ],
      [
        0,
        0,
        0,
        0,
        0,
        0,
        0,
        0,
        0,
        0,
        0,
        2
      ],
      [
        1,
        1,
        1,
        1,
        1,
        0,
        1,
        1,
        1,
        1,
        1,
        2
      ],
      [
        0,
        0,
        0,
        1,
        0,
        0,
        1,
        0,
        0,
        0,
        0,
        2
      ],
      [
        0,
        2,
        1,
        2,
        0,
        0,
        1,
        0,
        2,
        2,
        2,
        2
      ],
      [
        0,
        2,
        0,
        1,
        0,
        0,
        1,
        0,
        2,
        0,
        0,
        2
      ],
      [
        0,
        2,
        1,
        1,
        0,
        0,
        1,
        0,
        2,
        0,
        0,
        2
      ],
      [
        2,
        2,
        2,
        2,
        2,
        2,
        2,
        2,
        2,
        2,
        2,
        2
      ]
    ],
    "rule_severities": {
      "bus_definition_conflict": "error",
      "bus_entry_needed": "error",
      "bus_to_bus_conflict": "error",
      "bus_to_net_conflict": "error",
      "conflicting_netclasses": "error",
      "different_unit_footprint": "error",
      "different_unit_net": "error",
      "duplicate_reference": "error",
      "duplicate_sheet_names": "error",
      "endpoint_off_grid": "warning",
      "extra_units": "error",
      "global_label_dangling": "warning",
      "hier_label_mismatch": "error",
      "label_dangling": "error",
      "lib_symbol_issues": "warning",
      "missing_bidi_pin": "warning",
      "missing_input_pin": "warning",
      "missing_power_pin": "error",
      "missing_unit": "warning",
      "multiple_net_names": "warning",
      "net_not_bus_member": "warning",
      "no_connect_connected": "warning",
      "no_connect_dangling": "warning",
      "pin_not_connected": "error",
      "pin_not_driven": "error",
      "pin_to_pin": "warning",
      "power_pin_not_driven": "error",
      "similar_labels": "warning",
      "simulation_model_issue": "error",
      "unannotated": "error",
      "unit_value_mismatch": "error",
      "unresolved_variable": "error",
      "wire_dangling": "error"
    }
  },
  "libraries": {
    "pinned_footprint_libs": [],
    "pinned_symbol_libs": []
  },
  "meta": {
    "filename": "LeSTMovoz revision 2.kicad_pro",
    "version": 1
  },
  "net_settings": {
    "classes": [
      {
        "bus_width": 12,
        "clearance": 0.2,
        "diff_pair_gap": 0.25,
        "diff_pair_via_gap": 0.25,
        "diff_pair_width": 0.2,
        "line_style": 0,
        "microvia_diameter": 0.3,
        "microvia_drill": 0.1,
        "name": "Default",
        "pcb_color": "rgba(0, 0, 0, 0.000)",
        "schematic_color": "rgba(0, 0, 0, 0.000)",
        "track_width": 0.25,
        "via_diameter": 0.8,
        "via_drill": 0.4,
        "wire_width": 6
      }
    ],
    "meta": {
      "version": 3
    },
    "net_colors": null,
    "netclass_assignments": null,
    "netclass_patterns": []
  },
  "pcbnew": {
    "last_paths": {
      "gencad": "",
      "idf": "",
      "netlist": "",
      "specctra_dsn": "",
      "step": "",
      "vrml": ""
    },
    "page_layout_descr_file": ""
  },
  "schematic": {
    "annotate_start_num": 0,
    "drawing": {
      "dashed_lines_dash_length_ratio": 12.0,
      "dashed_lines_gap_length_ratio": 3.0,
      "default_line_thickness": 6.0,
      "default_text_size": 50.0,
      "field_names": [],
      "intersheets_ref_own_page": false,
      "intersheets_ref_prefix": "",
      "intersheets_ref_short": false,
      "intersheets_ref_show": false,
      "intersheets_ref_suffix": "",
      "junction_size_choice": 3,
      "label_size_ratio": 0.375,
      "pin_symbol_size": 25.0,
      "text_offset_ratio": 0.15
    },
    "legacy_lib_dir": "",
    "legacy_lib_list": [],
    "meta": {
      "version": 1
    },
    "net_format_name": "",
    "page_layout_descr_file": "",
    "plot_directory": "",
    "spice_current_sheet_as_root": false,
    "spice_external_command": "spice \"%I\"",
    "spice_model_current_sheet_as_root": true,
    "spice_save_all_currents": false,
    "spice_save_all_voltages": false,
    "subpart_first_id": 65,
    "subpart_id_separator": 0
  },
  "sheets": [
    [
      "224b9503-d71c-4dda-b22e-ce41540eaab0",
      ""
    ]
  ],
  "text_variables": {}
}
