(kicad_pcb (version 20221018) (generator pcbnew)

  (general
    (thickness 1.6)
  )

  (paper "A4")
  (layers
    (0 "F.Cu" signal)
    (31 "B.Cu" signal)
    (32 "B.Adhes" user "B.Adhesive")
    (33 "F.Adhes" user "F.Adhesive")
    (34 "B.Paste" user)
    (35 "F.Paste" user)
    (36 "B.SilkS" user "B.Silkscreen")
    (37 "F.SilkS" user "F.Silkscreen")
    (38 "B.Mask" user)
    (39 "F.Mask" user)
    (40 "Dwgs.User" user "User.Drawings")
    (41 "Cmts.User" user "User.Comments")
    (42 "Eco1.User" user "User.Eco1")
    (43 "Eco2.User" user "User.Eco2")
    (44 "Edge.Cuts" user)
    (45 "Margin" user)
    (46 "B.CrtYd" user "B.Courtyard")
    (47 "F.CrtYd" user "F.Courtyard")
    (48 "B.Fab" user)
    (49 "F.Fab" user)
  )

  (setup
    (pad_to_mask_clearance 0.051)
    (solder_mask_min_width 0.25)
    (pcbplotparams
      (layerselection 0x0001040_fffffffe)
      (plot_on_all_layers_selection 0x0001000_00000000)
      (disableapertmacros false)
      (usegerberextensions false)
      (usegerberattributes false)
      (usegerberadvancedattributes false)
      (creategerberjobfile false)
      (dashed_line_dash_ratio 12.000000)
      (dashed_line_gap_ratio 3.000000)
      (svgprecision 6)
      (plotframeref false)
      (viasonmask false)
      (mode 1)
      (useauxorigin false)
      (hpglpennumber 1)
      (hpglpenspeed 20)
      (hpglpendiameter 15.000000)
      (dxfpolygonmode true)
      (dxfimperialunits true)
      (dxfusepcbnewfont true)
      (psnegative false)
      (psa4output false)
      (plotreference true)
      (plotvalue true)
      (plotinvisibletext false)
      (sketchpadsonfab false)
      (subtractmaskfromsilk false)
      (outputformat 4)
      (mirror false)
      (drillshape 2)
      (scaleselection 1)
      (outputdirectory "")
    )
  )

  (net 0 "")
  (net 1 "+5V")
  (net 2 "GND")
  (net 3 "Net-(C3-Pad2)")
  (net 4 "/OUTPUT")
  (net 5 "Net-(J2-Pad3)")
  (net 6 "Net-(R1-Pad2)")
  (net 7 "Net-(R2-Pad1)")
  (net 8 "Net-(RV2-Pad2)")
  (net 9 "Net-(RV2-Pad3)")

  (footprint "Connector_PinHeader_2.54mm:PinHeader_1x03_P2.54mm_Vertical" (layer "F.Cu")
    (tstamp 00000000-0000-0000-0000-00005d4ca65b)
    (at 162.56 108.204 180)
    (descr "Through hole straight pin header, 1x03, 2.54mm pitch, single row")
    (tags "Through hole pin header THT 1x03 2.54mm single row")
    (path "/00000000-0000-0000-0000-00005d4d107c")
    (attr through_hole)
    (fp_text reference "J1" (at 2.667 0) (layer "F.SilkS")
        (effects (font (size 1 1) (thickness 0.15)))
      (tstamp fd470e95-4861-44fe-b1e4-6d8a7c66e144)
    )
    (fp_text value "Conn_01x03" (at 0 7.41) (layer "F.Fab")
        (effects (font (size 1 1) (thickness 0.15)))
      (tstamp 8174b4de-74b1-48db-ab8e-c8432251095b)
    )
    (fp_text user "${REFERENCE}" (at 0 2.54 90) (layer "F.Fab")
        (effects (font (size 1 1) (thickness 0.15)))
      (tstamp 704d6d51-bb34-4cbf-83d8-841e208048d8)
    )
    (fp_line (start -1.33 -1.33) (end 0 -1.33)
      (stroke (width 0.12) (type solid)) (layer "F.SilkS") (tstamp 9340c285-5767-42d5-8b6d-63fe2a40ddf3))
    (fp_line (start -1.33 0) (end -1.33 -1.33)
      (stroke (width 0.12) (type solid)) (layer "F.SilkS") (tstamp 1831fb37-1c5d-42c4-b898-151be6fca9dc))
    (fp_line (start -1.33 1.27) (end -1.33 6.41)
      (stroke (width 0.12) (type solid)) (layer "F.SilkS") (tstamp 0b21a65d-d20b-411e-920a-75c343ac5136))
    (fp_line (start -1.33 1.27) (end 1.33 1.27)
      (stroke (width 0.12) (type solid)) (layer "F.SilkS") (tstamp 0f22151c-f260-4674-b486-4710a2c42a55))
    (fp_line (start -1.33 6.41) (end 1.33 6.41)
      (stroke (width 0.12) (type solid)) (layer "F.SilkS") (tstamp 3cd1bda0-18db-417d-b581-a0c50623df68))
    (fp_line (start 1.33 1.27) (end 1.33 6.41)
      (stroke (width 0.12) (type solid)) (layer "F.SilkS") (tstamp fe8d9267-7834-48d6-a191-c8724b2ee78d))
    (fp_line (start -1.8 -1.8) (end -1.8 6.85)
      (stroke (width 0.05) (type solid)) (layer "F.CrtYd") (tstamp c41b3c8b-634e-435a-b582-96b83bbd4032))
    (fp_line (start -1.8 6.85) (end 1.8 6.85)
      (stroke (width 0.05) (type solid)) (layer "F.CrtYd") (tstamp ce83728b-bebd-48c2-8734-b6a50d837931))
    (fp_line (start 1.8 -1.8) (end -1.8 -1.8)
      (stroke (width 0.05) (type solid)) (layer "F.CrtYd") (tstamp 0eaa98f0-9565-4637-ace3-42a5231b07f7))
    (fp_line (start 1.8 6.85) (end 1.8 -1.8)
      (stroke (width 0.05) (type solid)) (layer "F.CrtYd") (tstamp 181abe7a-f941-42b6-bd46-aaa3131f90fb))
    (fp_line (start -1.27 -0.635) (end -0.635 -1.27)
      (stroke (width 0.1) (type solid)) (layer "F.Fab") (tstamp d57dcfee-5058-4fc2-a68b-05f9a48f685b))
    (fp_line (start -1.27 6.35) (end -1.27 -0.635)
      (stroke (width 0.1) (type solid)) (layer "F.Fab") (tstamp 03c52831-5dc5-43c5-a442-8d23643b46fb))
    (fp_line (start -0.635 -1.27) (end 1.27 -1.27)
      (stroke (width 0.1) (type solid)) (layer "F.Fab") (tstamp 94a873dc-af67-4ef9-8159-1f7c93eeb3d7))
    (fp_line (start 1.27 -1.27) (end 1.27 6.35)
      (stroke (width 0.1) (type solid)) (layer "F.Fab") (tstamp 29e78086-2175-405e-9ba3-c48766d2f50c))
    (fp_line (start 1.27 6.35) (end -1.27 6.35)
      (stroke (width 0.1) (type solid)) (layer "F.Fab") (tstamp a1823eb2-fb0d-4ed8-8b96-04184ac3a9d5))
    (pad "1" thru_hole rect (at 0 0 180) (size 1.7 1.7) (drill 1) (layers "*.Cu" "*.Mask")
      (net 2 "GND") (tstamp 9bb20359-0f8b-45bc-9d38-6626ed3a939d))
    (pad "2" thru_hole oval (at 0 2.54 180) (size 1.7 1.7) (drill 1) (layers "*.Cu" "*.Mask")
      (net 1 "+5V") (tstamp aa14c3bd-4acc-4908-9d28-228585a22a9d))
    (pad "3" thru_hole oval (at 0 5.08 180) (size 1.7 1.7) (drill 1) (layers "*.Cu" "*.Mask")
      (net 4 "/OUTPUT") (tstamp 4c8eb964-bdf4-44de-90e9-e2ab82dd5313))
    (model "${KISYS3DMOD}/Connector_PinHeader_2.54mm.3dshapes/PinHeader_1x03_P2.54mm_Vertical.wrl"
      (offset (xyz 0 0 0))
      (scale (xyz 1 1 1))
      (rotate (xyz 0 0 0))
    )
  )

  (footprint "Package_DIP:DIP-8_W7.62mm" (layer "F.Cu")
    (tstamp 00000000-0000-0000-0000-00005d4ca704)
    (at 156.2481 105.918 180)
    (descr "8-lead though-hole mounted DIP package, row spacing 7.62 mm (300 mils)")
    (tags "THT DIP DIL PDIP 2.54mm 7.62mm 300mil")
    (path "/00000000-0000-0000-0000-00005d4c981b")
    (attr through_hole)
    (fp_text reference "U1" (at 3.81 -2.33) (layer "F.SilkS")
        (effects (font (size 1 1) (thickness 0.15)))
      (tstamp 7e969d15-6cc0-4258-8b27-586608a21adb)
    )
    (fp_text value "LMC6482" (at 3.81 9.95) (layer "F.Fab")
        (effects (font (size 1 1) (thickness 0.15)))
      (tstamp f1dd8642-b405-490b-a449-d1cc5797fda8)
    )
    (fp_text user "${REFERENCE}" (at 3.81 3.81) (layer "F.Fab")
        (effects (font (size 1 1) (thickness 0.15)))
      (tstamp f022716e-b121-4cbf-a833-20e924070c22)
    )
    (fp_line (start 1.16 -1.33) (end 1.16 8.95)
      (stroke (width 0.12) (type solid)) (layer "F.SilkS") (tstamp 29256b3d-9450-4c0a-a4d4-911f04b9c140))
    (fp_line (start 1.16 8.95) (end 6.46 8.95)
      (stroke (width 0.12) (type solid)) (layer "F.SilkS") (tstamp 37e4dc66-4492-4061-908d-7213940a2ec3))
    (fp_line (start 2.81 -1.33) (end 1.16 -1.33)
      (stroke (width 0.12) (type solid)) (layer "F.SilkS") (tstamp b994142f-02ac-4881-9587-6d3df53c96d2))
    (fp_line (start 6.46 -1.33) (end 4.81 -1.33)
      (stroke (width 0.12) (type solid)) (layer "F.SilkS") (tstamp 483f60da-14d7-4f88-8d01-3f9f30784c70))
    (fp_line (start 6.46 8.95) (end 6.46 -1.33)
      (stroke (width 0.12) (type solid)) (layer "F.SilkS") (tstamp fb03d859-dcc9-4533-b352-64830e0e5423))
    (fp_arc (start 4.81 -1.33) (mid 3.81 -0.33) (end 2.81 -1.33)
      (stroke (width 0.12) (type solid)) (layer "F.SilkS") (tstamp 6199bec7-e7eb-4ae0-b9ec-c563e157d635))
    (fp_line (start -1.1 -1.55) (end -1.1 9.15)
      (stroke (width 0.05) (type solid)) (layer "F.CrtYd") (tstamp 6ca3c38c-4e71-4202-b6c1-1b25f04a27ae))
    (fp_line (start -1.1 9.15) (end 8.7 9.15)
      (stroke (width 0.05) (type solid)) (layer "F.CrtYd") (tstamp 2bef89de-08c7-4a13-9d85-67948d429ca0))
    (fp_line (start 8.7 -1.55) (end -1.1 -1.55)
      (stroke (width 0.05) (type solid)) (layer "F.CrtYd") (tstamp cb868d2e-5efb-4bfb-8796-88435b326918))
    (fp_line (start 8.7 9.15) (end 8.7 -1.55)
      (stroke (width 0.05) (type solid)) (layer "F.CrtYd") (tstamp fc0a4225-db46-4d48-8163-d522602d57cd))
    (fp_line (start 0.635 -0.27) (end 1.635 -1.27)
      (stroke (width 0.1) (type solid)) (layer "F.Fab") (tstamp b603d26a-e034-42fb-8327-b60c5bf9cdd2))
    (fp_line (start 0.635 8.89) (end 0.635 -0.27)
      (stroke (width 0.1) (type solid)) (layer "F.Fab") (tstamp 2d6718e7-f18d-444d-9792-ddf1a113460c))
    (fp_line (start 1.635 -1.27) (end 6.985 -1.27)
      (stroke (width 0.1) (type solid)) (layer "F.Fab") (tstamp 04f5865e-f449-4408-a0c8-771cccfcb129))
    (fp_line (start 6.985 -1.27) (end 6.985 8.89)
      (stroke (width 0.1) (type solid)) (layer "F.Fab") (tstamp 71c77456-1405-42e3-95ed-69e629de0558))
    (fp_line (start 6.985 8.89) (end 0.635 8.89)
      (stroke (width 0.1) (type solid)) (layer "F.Fab") (tstamp f144a97d-c3f0-423f-b0a9-3f7dbc42478b))
    (pad "1" thru_hole rect (at 0 0 180) (size 1.6 1.6) (drill 0.8) (layers "*.Cu" "*.Mask")
      (net 4 "/OUTPUT") (tstamp 936e2ca6-11ae-4f42-9128-52bb329f3d21))
    (pad "2" thru_hole oval (at 0 2.54 180) (size 1.6 1.6) (drill 0.8) (layers "*.Cu" "*.Mask")
      (net 8 "Net-(RV2-Pad2)") (tstamp cbc539d2-6a10-4052-9b7a-f10326dcac67))
    (pad "3" thru_hole oval (at 0 5.08 180) (size 1.6 1.6) (drill 0.8) (layers "*.Cu" "*.Mask")
      (net 3 "Net-(C3-Pad2)") (tstamp d2de4093-1fc2-4bc1-94b6-4d0fe3426c6f))
    (pad "4" thru_hole oval (at 0 7.62 180) (size 1.6 1.6) (drill 0.8) (layers "*.Cu" "*.Mask")
      (net 2 "GND") (tstamp 7f3eb118-a20c-4239-b800-c9211c66847d))
    (pad "5" thru_hole oval (at 7.62 7.62 180) (size 1.6 1.6) (drill 0.8) (layers "*.Cu" "*.Mask")
      (net 5 "Net-(J2-Pad3)") (tstamp 909b030b-fa1a-4fe8-b1ee-422b4d9e23cf))
    (pad "6" thru_hole oval (at 7.62 5.08 180) (size 1.6 1.6) (drill 0.8) (layers "*.Cu" "*.Mask")
      (net 9 "Net-(RV2-Pad3)") (tstamp 43891a3c-749f-498d-ba99-685a27689b0d))
    (pad "7" thru_hole oval (at 7.62 2.54 180) (size 1.6 1.6) (drill 0.8) (layers "*.Cu" "*.Mask")
      (net 9 "Net-(RV2-Pad3)") (tstamp 213a2af1-412b-47f4-ab3b-c5f43b6be7a6))
    (pad "8" thru_hole oval (at 7.62 0 180) (size 1.6 1.6) (drill 0.8) (layers "*.Cu" "*.Mask")
      (net 1 "+5V") (tstamp e47adf3d-9c24-4345-80c9-66679cad107e))
    (model "${KISYS3DMOD}/Package_DIP.3dshapes/DIP-8_W7.62mm.wrl"
      (offset (xyz 0 0 0))
      (scale (xyz 1 1 1))
      (rotate (xyz 0 0 0))
    )
  )

  (footprint "Potentiometer_THT:Potentiometer_Runtron_RM-065_Vertical" (layer "F.Cu")
    (tstamp 00000000-0000-0000-0000-00005d4caeb4)
    (at 146.558 100.076 180)
    (descr "Potentiometer, vertical, Trimmer, RM-065 http://www.runtron.com/down/PDF%20Datasheet/Carbon%20Film%20Potentiometer/RM065%20RM063.pdf")
    (tags "Potentiometer Trimmer RM-065")
    (path "/00000000-0000-0000-0000-00005d4f2439")
    (attr through_hole)
    (fp_text reference "RV1" (at 2.54 2.159) (layer "F.SilkS")
        (effects (font (size 1 1) (thickness 0.15)))
      (tstamp c201e1b2-fc01-4110-bdaa-a33290468c83)
    )
    (fp_text value "2k" (at 2.6 7.4) (layer "F.Fab")
        (effects (font (size 1 1) (thickness 0.15)))
      (tstamp 0088d107-13d8-496c-8da6-7bbeb9d096b0)
    )
    (fp_text user "${REFERENCE}" (at 2.5 2.5) (layer "F.Fab")
        (effects (font (size 1 1) (thickness 0.15)))
      (tstamp e877bf4a-4210-4bd3-b7b0-806eb4affc5b)
    )
    (fp_line (start -0.81 -1.21) (end -0.81 -0.96)
      (stroke (width 0.12) (type solid)) (layer "F.SilkS") (tstamp 6a44418c-7bb4-4e99-8836-57f153c19721))
    (fp_line (start -0.81 4.5) (end -0.81 0.96)
      (stroke (width 0.12) (type solid)) (layer "F.SilkS") (tstamp 712d6a7d-2b62-464f-b745-fd2a6b0187f6))
    (fp_line (start -0.71 -1.41) (end -0.71 -1.21)
      (stroke (width 0.12) (type solid)) (layer "F.SilkS") (tstamp 4e3d7c0d-12e3-42f2-b944-e4bcdbbcac2a))
    (fp_line (start -0.71 -1.41) (end 0.71 -1.41)
      (stroke (width 0.12) (type solid)) (layer "F.SilkS") (tstamp 6a780180-586a-4241-a52d-dc7a5ffcc966))
    (fp_line (start -0.71 -1.21) (end -0.81 -1.21)
      (stroke (width 0.12) (type solid)) (layer "F.SilkS") (tstamp aa02e544-13f5-4cf8-a5f4-3e6cda006090))
    (fp_line (start 0.71 -1.21) (end 0.71 -1.41)
      (stroke (width 0.12) (type solid)) (layer "F.SilkS") (tstamp c70d9ef3-bfeb-47e0-a1e1-9aeba3da7864))
    (fp_line (start 0.71 -1.21) (end 4.29 -1.21)
      (stroke (width 0.12) (type solid)) (layer "F.SilkS") (tstamp 68e09be7-3bbc-4443-a838-209ce20b2bef))
    (fp_line (start 1.99 5.81) (end 0.5 5.81)
      (stroke (width 0.12) (type solid)) (layer "F.SilkS") (tstamp 3172f2e2-18d2-4a80-ae30-5707b3409798))
    (fp_line (start 4.29 -1.41) (end 5.71 -1.41)
      (stroke (width 0.12) (type solid)) (layer "F.SilkS") (tstamp 128e34ce-eee7-477d-b905-a493e98db783))
    (fp_line (start 4.29 -1.21) (end 4.29 -1.41)
      (stroke (width 0.12) (type solid)) (layer "F.SilkS") (tstamp 67621f9e-0a6a-4778-ad69-04dcf300659c))
    (fp_line (start 4.5 5.81) (end 3.01 5.81)
      (stroke (width 0.12) (type solid)) (layer "F.SilkS") (tstamp 98e81e80-1f85-4152-be3f-99785ea97751))
    (fp_line (start 5.71 -1.41) (end 5.71 -1.21)
      (stroke (width 0.12) (type solid)) (layer "F.SilkS") (tstamp c801d42e-dd94-493e-bd2f-6c3ddad43f55))
    (fp_line (start 5.71 -1.21) (end 5.81 -1.21)
      (stroke (width 0.12) (type solid)) (layer "F.SilkS") (tstamp 0147f16a-c952-4891-8f53-a9fb8cddeb8d))
    (fp_line (start 5.81 -1.21) (end 5.81 -0.52)
      (stroke (width 0.12) (type solid)) (layer "F.SilkS") (tstamp d1262c4d-2245-4c4f-8f35-7bb32cd9e21e))
    (fp_line (start 5.81 0.52) (end 5.81 4.5)
      (stroke (width 0.12) (type solid)) (layer "F.SilkS") (tstamp b3d08afa-f296-4e3b-8825-73b6331d35bf))
    (fp_arc (start 0.5 5.81) (mid -0.42631 5.42631) (end -0.81 4.5)
      (stroke (width 0.12) (type solid)) (layer "F.SilkS") (tstamp a03e565f-d8cd-4032-aae3-b7327d4143dd))
    (fp_arc (start 5.81 4.5) (mid 5.42631 5.42631) (end 4.5 5.81)
      (stroke (width 0.12) (type solid)) (layer "F.SilkS") (tstamp 5b2b5c7d-f943-4634-9f0a-e9561705c49d))
    (fp_line (start -1.03 -1.55) (end -1.03 6.05)
      (stroke (width 0.05) (type solid)) (layer "F.CrtYd") (tstamp 120a7b0f-ddfd-4447-85c1-35665465acdb))
    (fp_line (start -1.03 -1.55) (end 6.03 -1.55)
      (stroke (width 0.05) (type solid)) (layer "F.CrtYd") (tstamp 8d55e186-3e11-40e8-a65e-b36a8a00069e))
    (fp_line (start 6.03 6.05) (end 6.03 -1.55)
      (stroke (width 0.05) (type solid)) (layer "F.CrtYd") (tstamp 854dd5d4-5fd2-4730-bd49-a9cd8299a065))
    (fp_line (start 6.05 6.03) (end -1.05 6.03)
      (stroke (width 0.05) (type solid)) (layer "F.CrtYd") (tstamp 2732632c-4768-42b6-bf7f-14643424019e))
    (fp_line (start -0.7 4.5) (end -0.7 -1.1)
      (stroke (width 0.1) (type solid)) (layer "F.Fab") (tstamp 03d88a85-11fd-47aa-954c-c318bb15294a))
    (fp_line (start -0.6 -1.3) (end 0.6 -1.3)
      (stroke (width 0.1) (type solid)) (layer "F.Fab") (tstamp 0dcdf1b8-13c6-48b4-bd94-5d26038ff231))
    (fp_line (start -0.6 -1.1) (end -0.6 -1.3)
      (stroke (width 0.1) (type solid)) (layer "F.Fab") (tstamp 1a2f72d1-0b36-4610-afc4-4ad1660d5d3b))
    (fp_line (start 0.5 5.7) (end 4.5 5.7)
      (stroke (width 0.1) (type solid)) (layer "F.Fab") (tstamp 842e430f-0c35-45f3-a0b5-95ae7b7ae388))
    (fp_line (start 0.6 -1.3) (end 0.6 -1.1)
      (stroke (width 0.1) (type solid)) (layer "F.Fab") (tstamp dde3dba8-1b81-466c-93a3-c284ff4da1ef))
    (fp_line (start 4.4 -1.3) (end 4.4 -1.1)
      (stroke (width 0.1) (type solid)) (layer "F.Fab") (tstamp b635b16e-60bb-4b3e-9fc3-47d34eef8381))
    (fp_line (start 5.6 -1.3) (end 4.41 -1.3)
      (stroke (width 0.1) (type solid)) (layer "F.Fab") (tstamp f976e2cc-36f9-4479-a816-2c74d1d5da6f))
    (fp_line (start 5.6 -1.1) (end 5.6 -1.3)
      (stroke (width 0.1) (type solid)) (layer "F.Fab") (tstamp 58dc14f9-c158-4824-a84e-24a6a482a7a4))
    (fp_line (start 5.7 -1.1) (end -0.7 -1.1)
      (stroke (width 0.1) (type solid)) (layer "F.Fab") (tstamp 13475e15-f37c-4de8-857e-1722b0c39513))
    (fp_line (start 5.7 4.5) (end 5.7 -1.1)
      (stroke (width 0.1) (type solid)) (layer "F.Fab") (tstamp 51c4dc0a-5b9f-4edf-a83f-4a12881e42ef))
    (fp_arc (start 0.5 5.7) (mid -0.348528 5.348528) (end -0.7 4.5)
      (stroke (width 0.1) (type solid)) (layer "F.Fab") (tstamp 9c8ccb2a-b1e9-4f2c-94fe-301b5975277e))
    (fp_arc (start 5.7 4.5) (mid 5.348528 5.348528) (end 4.5 5.7)
      (stroke (width 0.1) (type solid)) (layer "F.Fab") (tstamp cef6f603-8a0b-4dd0-af99-ebfbef7d1b4b))
    (fp_circle (center 2.5 2.5) (end 5.5 2.5)
      (stroke (width 0.1) (type solid)) (fill none) (layer "F.Fab") (tstamp 48f827a8-6e22-4a2e-abdc-c2a03098d883))
    (pad "1" thru_hole rect (at 0 0 180) (size 1.55 1.55) (drill 1) (layers "*.Cu" "*.Mask")
      (net 6 "Net-(R1-Pad2)") (tstamp 0d0bb7b2-a6e5-46d2-9492-a1aa6e5a7b2f))
    (pad "2" thru_hole circle (at 2.5 5 180) (size 1.55 1.55) (drill 1) (layers "*.Cu" "*.Mask")
      (net 3 "Net-(C3-Pad2)") (tstamp d22e95aa-f3db-4fbc-a331-048a2523233e))
    (pad "3" thru_hole circle (at 5 0 180) (size 1.55 1.55) (drill 1) (layers "*.Cu" "*.Mask")
      (net 7 "Net-(R2-Pad1)") (tstamp b1169a2d-8998-4b50-a48d-c520bcc1b8e1))
    (model "${KISYS3DMOD}/Potentiometer_THT.3dshapes/Potentiometer_Runtron_RM-065_Vertical.wrl"
      (offset (xyz 0 0 0))
      (scale (xyz 1 1 1))
      (rotate (xyz 0 0 0))
    )
  )

  (footprint "Potentiometer_THT:Potentiometer_Runtron_RM-065_Vertical" (layer "F.Cu")
    (tstamp 00000000-0000-0000-0000-00005d4cb807)
    (at 163.322 100.076 180)
    (descr "Potentiometer, vertical, Trimmer, RM-065 http://www.runtron.com/down/PDF%20Datasheet/Carbon%20Film%20Potentiometer/RM065%20RM063.pdf")
    (tags "Potentiometer Trimmer RM-065")
    (path "/00000000-0000-0000-0000-00005d4e4b2a")
    (attr through_hole)
    (fp_text reference "RV2" (at 2.413 2.286) (layer "F.SilkS")
        (effects (font (size 1 1) (thickness 0.15)))
      (tstamp 3cfcbcc7-4f45-46ab-82a8-c414c7972161)
    )
    (fp_text value "300k" (at 2.6 7.4) (layer "F.Fab")
        (effects (font (size 1 1) (thickness 0.15)))
      (tstamp 2f3deced-880d-4075-a81b-95c62da5b94d)
    )
    (fp_text user "${REFERENCE}" (at 2.5 2.5) (layer "F.Fab")
        (effects (font (size 1 1) (thickness 0.15)))
      (tstamp a06e8e78-f567-42e6-b645-013b1073ca31)
    )
    (fp_line (start -0.81 -1.21) (end -0.81 -0.96)
      (stroke (width 0.12) (type solid)) (layer "F.SilkS") (tstamp 9a9f2d82-f64d-4264-8bec-c182528fc4de))
    (fp_line (start -0.81 4.5) (end -0.81 0.96)
      (stroke (width 0.12) (type solid)) (layer "F.SilkS") (tstamp c19dbe3c-ced0-48f7-a91d-777569cfb936))
    (fp_line (start -0.71 -1.41) (end -0.71 -1.21)
      (stroke (width 0.12) (type solid)) (layer "F.SilkS") (tstamp 7e08f2a4-63d6-468b-bd8b-ec607077e023))
    (fp_line (start -0.71 -1.41) (end 0.71 -1.41)
      (stroke (width 0.12) (type solid)) (layer "F.SilkS") (tstamp 0f41a909-27c4-4be2-9d5e-9ae2108c8ff5))
    (fp_line (start -0.71 -1.21) (end -0.81 -1.21)
      (stroke (width 0.12) (type solid)) (layer "F.SilkS") (tstamp b60c50d1-225e-415c-8712-7acb5e3dc8ea))
    (fp_line (start 0.71 -1.21) (end 0.71 -1.41)
      (stroke (width 0.12) (type solid)) (layer "F.SilkS") (tstamp b6bcc3cf-50de-4a33-bc41-678825c1ecf2))
    (fp_line (start 0.71 -1.21) (end 4.29 -1.21)
      (stroke (width 0.12) (type solid)) (layer "F.SilkS") (tstamp 1b54105e-6590-4d26-a763-ecfcf81eedc4))
    (fp_line (start 1.99 5.81) (end 0.5 5.81)
      (stroke (width 0.12) (type solid)) (layer "F.SilkS") (tstamp 78f88cf6-751c-4e9b-ae75-fb8b6d44ff39))
    (fp_line (start 4.29 -1.41) (end 5.71 -1.41)
      (stroke (width 0.12) (type solid)) (layer "F.SilkS") (tstamp 0867287d-2e6a-4d69-a366-c29f88198f2b))
    (fp_line (start 4.29 -1.21) (end 4.29 -1.41)
      (stroke (width 0.12) (type solid)) (layer "F.SilkS") (tstamp afd3dbad-e7a8-4e4c-b77c-4065a69aefa2))
    (fp_line (start 4.5 5.81) (end 3.01 5.81)
      (stroke (width 0.12) (type solid)) (layer "F.SilkS") (tstamp 9762c9ed-64d8-4f3e-baf6-f6ba6effc919))
    (fp_line (start 5.71 -1.41) (end 5.71 -1.21)
      (stroke (width 0.12) (type solid)) (layer "F.SilkS") (tstamp 75286985-9fa5-4d30-89c5-493b6e63cd66))
    (fp_line (start 5.71 -1.21) (end 5.81 -1.21)
      (stroke (width 0.12) (type solid)) (layer "F.SilkS") (tstamp 786b6072-5772-4bc1-8eeb-6c4e19f2a91b))
    (fp_line (start 5.81 -1.21) (end 5.81 -0.52)
      (stroke (width 0.12) (type solid)) (layer "F.SilkS") (tstamp 4d609e7c-74c9-4ae9-a26d-946ff00c167d))
    (fp_line (start 5.81 0.52) (end 5.81 4.5)
      (stroke (width 0.12) (type solid)) (layer "F.SilkS") (tstamp 587a157d-dedf-4558-a037-1a94bbba1848))
    (fp_arc (start 0.5 5.81) (mid -0.42631 5.42631) (end -0.81 4.5)
      (stroke (width 0.12) (type solid)) (layer "F.SilkS") (tstamp c3c93de0-69b1-4a04-8e0b-d78caf487c63))
    (fp_arc (start 5.81 4.5) (mid 5.42631 5.42631) (end 4.5 5.81)
      (stroke (width 0.12) (type solid)) (layer "F.SilkS") (tstamp 5740c959-93d8-47fd-8f68-62f0109e753d))
    (fp_line (start -1.03 -1.55) (end -1.03 6.05)
      (stroke (width 0.05) (type solid)) (layer "F.CrtYd") (tstamp 0d35483a-0b12-46cc-b9f2-896fd6831779))
    (fp_line (start -1.03 -1.55) (end 6.03 -1.55)
      (stroke (width 0.05) (type solid)) (layer "F.CrtYd") (tstamp 9702d639-3b1f-4825-8985-b32b9008503d))
    (fp_line (start 6.03 6.05) (end 6.03 -1.55)
      (stroke (width 0.05) (type solid)) (layer "F.CrtYd") (tstamp 4e66a44f-7fa6-4e16-bf9b-62ec864301a5))
    (fp_line (start 6.05 6.03) (end -1.05 6.03)
      (stroke (width 0.05) (type solid)) (layer "F.CrtYd") (tstamp 4412226e-d975-40a2-921f-502ff4129a95))
    (fp_line (start -0.7 4.5) (end -0.7 -1.1)
      (stroke (width 0.1) (type solid)) (layer "F.Fab") (tstamp 4831966c-bb32-4bc8-a400-0382a02ffa1c))
    (fp_line (start -0.6 -1.3) (end 0.6 -1.3)
      (stroke (width 0.1) (type solid)) (layer "F.Fab") (tstamp c264c438-a475-4ad4-9915-0f1e6ecf3053))
    (fp_line (start -0.6 -1.1) (end -0.6 -1.3)
      (stroke (width 0.1) (type solid)) (layer "F.Fab") (tstamp 2bf3f24b-fd30-41a7-a274-9b519491916b))
    (fp_line (start 0.5 5.7) (end 4.5 5.7)
      (stroke (width 0.1) (type solid)) (layer "F.Fab") (tstamp 4d4b0fcd-2c79-4fc3-b5fa-7a0741601344))
    (fp_line (start 0.6 -1.3) (end 0.6 -1.1)
      (stroke (width 0.1) (type solid)) (layer "F.Fab") (tstamp a9ec539a-d80d-40cc-803c-12b6adefe42a))
    (fp_line (start 4.4 -1.3) (end 4.4 -1.1)
      (stroke (width 0.1) (type solid)) (layer "F.Fab") (tstamp 53c85970-3e21-4fae-a84f-721cfc0513b5))
    (fp_line (start 5.6 -1.3) (end 4.41 -1.3)
      (stroke (width 0.1) (type solid)) (layer "F.Fab") (tstamp 34871042-9d5c-4e29-abdd-a168368c3c22))
    (fp_line (start 5.6 -1.1) (end 5.6 -1.3)
      (stroke (width 0.1) (type solid)) (layer "F.Fab") (tstamp ef1b4b98-541b-4673-a04f-2043250fc40a))
    (fp_line (start 5.7 -1.1) (end -0.7 -1.1)
      (stroke (width 0.1) (type solid)) (layer "F.Fab") (tstamp 7447a6e7-8205-46ba-afca-d0fa8f90c95a))
    (fp_line (start 5.7 4.5) (end 5.7 -1.1)
      (stroke (width 0.1) (type solid)) (layer "F.Fab") (tstamp e25ce415-914a-48fe-bf09-324317917b2e))
    (fp_arc (start 0.5 5.7) (mid -0.348528 5.348528) (end -0.7 4.5)
      (stroke (width 0.1) (type solid)) (layer "F.Fab") (tstamp f9865a9f-edb8-49c7-828f-4896e1f3047a))
    (fp_arc (start 5.7 4.5) (mid 5.348528 5.348528) (end 4.5 5.7)
      (stroke (width 0.1) (type solid)) (layer "F.Fab") (tstamp 55992e35-fe7b-468a-9b7a-1e4dc931b904))
    (fp_circle (center 2.5 2.5) (end 5.5 2.5)
      (stroke (width 0.1) (type solid)) (fill none) (layer "F.Fab") (tstamp ec9e24d8-d1c5-40e2-9812-dc315d05f470))
    (pad "1" thru_hole rect (at 0 0 180) (size 1.55 1.55) (drill 1) (layers "*.Cu" "*.Mask")
      (net 4 "/OUTPUT") (tstamp 35354519-a28c-40c4-befd-0943e98dea53))
    (pad "2" thru_hole circle (at 2.5 5 180) (size 1.55 1.55) (drill 1) (layers "*.Cu" "*.Mask")
      (net 8 "Net-(RV2-Pad2)") (tstamp 38f2d955-ea7a-4a21-aba6-02ae23f1bd4a))
    (pad "3" thru_hole circle (at 5 0 180) (size 1.55 1.55) (drill 1) (layers "*.Cu" "*.Mask")
      (net 9 "Net-(RV2-Pad3)") (tstamp 632acde9-b7fd-4f04-8cb4-d2cbb06b3595))
    (model "${KISYS3DMOD}/Potentiometer_THT.3dshapes/Potentiometer_Runtron_RM-065_Vertical.wrl"
      (offset (xyz 0 0 0))
      (scale (xyz 1 1 1))
      (rotate (xyz 0 0 0))
    )
  )

  (footprint "Connector_PinHeader_2.54mm:PinHeader_1x03_P2.54mm_Vertical" (layer "F.Cu")
    (tstamp 00000000-0000-0000-0000-00005d4cbbc8)
    (at 142.24 108.204 180)
    (descr "Through hole straight pin header, 1x03, 2.54mm pitch, single row")
    (tags "Through hole pin header THT 1x03 2.54mm single row")
    (path "/00000000-0000-0000-0000-00005d4da654")
    (attr through_hole)
    (fp_text reference "J2" (at -2.794 0) (layer "F.SilkS")
        (effects (font (size 1 1) (thickness 0.15)))
      (tstamp 44d8279a-9cd1-4db6-856f-0363131605fc)
    )
    (fp_text value "Hall" (at 0 7.41) (layer "F.Fab")
        (effects (font (size 1 1) (thickness 0.15)))
      (tstamp eb667eea-300e-4ca7-8a6f-4b00de80cd45)
    )
    (fp_text user "${REFERENCE}" (at 0 2.54 90) (layer "F.Fab")
        (effects (font (size 1 1) (thickness 0.15)))
      (tstamp 66116376-6967-4178-9f23-a26cdeafc400)
    )
    (fp_line (start -1.33 -1.33) (end 0 -1.33)
      (stroke (width 0.12) (type solid)) (layer "F.SilkS") (tstamp d8603679-3e7b-4337-8dbc-1827f5f54d8a))
    (fp_line (start -1.33 0) (end -1.33 -1.33)
      (stroke (width 0.12) (type solid)) (layer "F.SilkS") (tstamp 30f15357-ce1d-48b9-93dc-7d9b1b2aa048))
    (fp_line (start -1.33 1.27) (end -1.33 6.41)
      (stroke (width 0.12) (type solid)) (layer "F.SilkS") (tstamp 5038e144-5119-49db-b6cf-f7c345f1cf03))
    (fp_line (start -1.33 1.27) (end 1.33 1.27)
      (stroke (width 0.12) (type solid)) (layer "F.SilkS") (tstamp 87371631-aa02-498a-998a-09bdb74784c1))
    (fp_line (start -1.33 6.41) (end 1.33 6.41)
      (stroke (width 0.12) (type solid)) (layer "F.SilkS") (tstamp ac264c30-3e9a-4be2-b97a-9949b68bd497))
    (fp_line (start 1.33 1.27) (end 1.33 6.41)
      (stroke (width 0.12) (type solid)) (layer "F.SilkS") (tstamp 2e642b3e-a476-4c54-9a52-dcea955640cd))
    (fp_line (start -1.8 -1.8) (end -1.8 6.85)
      (stroke (width 0.05) (type solid)) (layer "F.CrtYd") (tstamp 1e1b062d-fad0-427c-a622-c5b8a80b5268))
    (fp_line (start -1.8 6.85) (end 1.8 6.85)
      (stroke (width 0.05) (type solid)) (layer "F.CrtYd") (tstamp cbdcaa78-3bbc-413f-91bf-2709119373ce))
    (fp_line (start 1.8 -1.8) (end -1.8 -1.8)
      (stroke (width 0.05) (type solid)) (layer "F.CrtYd") (tstamp 749dfe75-c0d6-4872-9330-29c5bbcb8ff8))
    (fp_line (start 1.8 6.85) (end 1.8 -1.8)
      (stroke (width 0.05) (type solid)) (layer "F.CrtYd") (tstamp 3b838d52-596d-4e4d-a6ac-e4c8e7621137))
    (fp_line (start -1.27 -0.635) (end -0.635 -1.27)
      (stroke (width 0.1) (type solid)) (layer "F.Fab") (tstamp 54365317-1355-4216-bb75-829375abc4ec))
    (fp_line (start -1.27 6.35) (end -1.27 -0.635)
      (stroke (width 0.1) (type solid)) (layer "F.Fab") (tstamp a3e4f0ae-9f86-49e9-b386-ed8b42e012fb))
    (fp_line (start -0.635 -1.27) (end 1.27 -1.27)
      (stroke (width 0.1) (type solid)) (layer "F.Fab") (tstamp efeac2a2-7682-4dc7-83ee-f6f1b23da506))
    (fp_line (start 1.27 -1.27) (end 1.27 6.35)
      (stroke (width 0.1) (type solid)) (layer "F.Fab") (tstamp c144caa5-b0d4-4cef-840a-d4ad178a2102))
    (fp_line (start 1.27 6.35) (end -1.27 6.35)
      (stroke (width 0.1) (type solid)) (layer "F.Fab") (tstamp a690fc6c-55d9-47e6-b533-faa4b67e20f3))
    (pad "1" thru_hole rect (at 0 0 180) (size 1.7 1.7) (drill 1) (layers "*.Cu" "*.Mask")
      (net 2 "GND") (tstamp 6a45789b-3855-401f-8139-3c734f7f52f9))
    (pad "2" thru_hole oval (at 0 2.54 180) (size 1.7 1.7) (drill 1) (layers "*.Cu" "*.Mask")
      (net 1 "+5V") (tstamp 6c9b793c-e74d-4754-a2c0-901e73b26f1c))
    (pad "3" thru_hole oval (at 0 5.08 180) (size 1.7 1.7) (drill 1) (layers "*.Cu" "*.Mask")
      (net 5 "Net-(J2-Pad3)") (tstamp 5fc27c35-3e1c-4f96-817c-93b5570858a6))
    (model "${KISYS3DMOD}/Connector_PinHeader_2.54mm.3dshapes/PinHeader_1x03_P2.54mm_Vertical.wrl"
      (offset (xyz 0 0 0))
      (scale (xyz 1 1 1))
      (rotate (xyz 0 0 0))
    )
  )

  (footprint "Capacitor_SMD:C_0805_2012Metric" (layer "B.Cu")
    (tstamp 00000000-0000-0000-0000-00005d4ca644)
    (at 144.018 98.044 180)
    (descr "Capacitor SMD 0805 (2012 Metric), square (rectangular) end terminal, IPC_7351 nominal, (Body size source: https://docs.google.com/spreadsheets/d/1BsfQQcO9C6DZCsRaXUlFlo91Tg2WpOkGARC1WS5S8t0/edit?usp=sharing), generated with kicad-footprint-generator")
    (tags "capacitor")
    (path "/00000000-0000-0000-0000-00005d4f72f6")
    (attr smd)
    (fp_text reference "C3" (at -2.667 0) (layer "B.SilkS")
        (effects (font (size 1 1) (thickness 0.15)) (justify mirror))
      (tstamp 9157f4ae-0244-4ff1-9f73-3cb4cbb5f280)
    )
    (fp_text value "100n" (at 0 -1.65) (layer "B.Fab")
        (effects (font (size 1 1) (thickness 0.15)) (justify mirror))
      (tstamp 7aed3a71-054b-4aaa-9c0a-030523c32827)
    )
    (fp_text user "${REFERENCE}" (at 0 0) (layer "B.Fab")
        (effects (font (size 0.5 0.5) (thickness 0.08)) (justify mirror))
      (tstamp 1a1ab354-5f85-45f9-938c-9f6c4c8c3ea2)
    )
    (fp_line (start -0.258578 -0.71) (end 0.258578 -0.71)
      (stroke (width 0.12) (type solid)) (layer "B.SilkS") (tstamp bdc7face-9f7c-4701-80bb-4cc144448db1))
    (fp_line (start -0.258578 0.71) (end 0.258578 0.71)
      (stroke (width 0.12) (type solid)) (layer "B.SilkS") (tstamp 97fe9c60-586f-4895-8504-4d3729f5f81a))
    (fp_line (start -1.68 -0.95) (end -1.68 0.95)
      (stroke (width 0.05) (type solid)) (layer "B.CrtYd") (tstamp 3aaee4c4-dbf7-49a5-a620-9465d8cc3ae7))
    (fp_line (start -1.68 0.95) (end 1.68 0.95)
      (stroke (width 0.05) (type solid)) (layer "B.CrtYd") (tstamp 1bf544e3-5940-4576-9291-2464e95c0ee2))
    (fp_line (start 1.68 -0.95) (end -1.68 -0.95)
      (stroke (width 0.05) (type solid)) (layer "B.CrtYd") (tstamp 42713045-fffd-4b2d-ae1e-7232d705fb12))
    (fp_line (start 1.68 0.95) (end 1.68 -0.95)
      (stroke (width 0.05) (type solid)) (layer "B.CrtYd") (tstamp c0515cd2-cdaa-467e-8354-0f6eadfa35c9))
    (fp_line (start -1 -0.6) (end -1 0.6)
      (stroke (width 0.1) (type solid)) (layer "B.Fab") (tstamp d4a1d3c4-b315-4bec-9220-d12a9eab51e0))
    (fp_line (start -1 0.6) (end 1 0.6)
      (stroke (width 0.1) (type solid)) (layer "B.Fab") (tstamp 80094b70-85ab-4ff6-934b-60d5ee65023a))
    (fp_line (start 1 -0.6) (end -1 -0.6)
      (stroke (width 0.1) (type solid)) (layer "B.Fab") (tstamp 922058ca-d09a-45fd-8394-05f3e2c1e03a))
    (fp_line (start 1 0.6) (end 1 -0.6)
      (stroke (width 0.1) (type solid)) (layer "B.Fab") (tstamp 0f54db53-a272-4955-88fb-d7ab00657bb0))
    (pad "1" smd roundrect (at -0.9375 0 180) (size 0.975 1.4) (layers "B.Cu" "B.Paste" "B.Mask") (roundrect_rratio 0.25)
      (net 2 "GND") (tstamp 6441b183-b8f2-458f-a23d-60e2b1f66dd6))
    (pad "2" smd roundrect (at 0.9375 0 180) (size 0.975 1.4) (layers "B.Cu" "B.Paste" "B.Mask") (roundrect_rratio 0.25)
      (net 3 "Net-(C3-Pad2)") (tstamp bfc0aadc-38cf-466e-a642-68fdc3138c78))
    (model "${KISYS3DMOD}/Capacitor_SMD.3dshapes/C_0805_2012Metric.wrl"
      (offset (xyz 0 0 0))
      (scale (xyz 1 1 1))
      (rotate (xyz 0 0 0))
    )
  )

  (footprint "Resistor_SMD:R_0603_1608Metric" (layer "B.Cu")
    (tstamp 00000000-0000-0000-0000-00005d4ca683)
    (at 146.558 103.378 90)
    (descr "Resistor SMD 0603 (1608 Metric), square (rectangular) end terminal, IPC_7351 nominal, (Body size source: http://www.tortai-tech.com/upload/download/2011102023233369053.pdf), generated with kicad-footprint-generator")
    (tags "resistor")
    (path "/00000000-0000-0000-0000-00005d4f2c88")
    (attr smd)
    (fp_text reference "R1" (at 0 -1.27 90) (layer "B.SilkS")
        (effects (font (size 1 1) (thickness 0.15)) (justify mirror))
      (tstamp da469d11-a8a4-414b-9449-d151eeaf4853)
    )
    (fp_text value "10k" (at 0 -1.43 90) (layer "B.Fab")
        (effects (font (size 1 1) (thickness 0.15)) (justify mirror))
      (tstamp afb8e687-4a13-41a1-b8c0-89a749e897fe)
    )
    (fp_text user "${REFERENCE}" (at 0 0 90) (layer "B.Fab")
        (effects (font (size 0.4 0.4) (thickness 0.06)) (justify mirror))
      (tstamp 5cbb5968-dbb5-4b84-864a-ead1cacf75b9)
    )
    (fp_line (start -0.162779 -0.51) (end 0.162779 -0.51)
      (stroke (width 0.12) (type solid)) (layer "B.SilkS") (tstamp e8314017-7be6-4011-9179-37449a29b311))
    (fp_line (start -0.162779 0.51) (end 0.162779 0.51)
      (stroke (width 0.12) (type solid)) (layer "B.SilkS") (tstamp e10b5627-3247-4c86-b9f6-ef474ca11543))
    (fp_line (start -1.48 -0.73) (end -1.48 0.73)
      (stroke (width 0.05) (type solid)) (layer "B.CrtYd") (tstamp 6a955fc7-39d9-4c75-9a69-676ca8c0b9b2))
    (fp_line (start -1.48 0.73) (end 1.48 0.73)
      (stroke (width 0.05) (type solid)) (layer "B.CrtYd") (tstamp f1830a1b-f0cc-47ae-a2c9-679c82032f14))
    (fp_line (start 1.48 -0.73) (end -1.48 -0.73)
      (stroke (width 0.05) (type solid)) (layer "B.CrtYd") (tstamp 3f5fe6b7-98fc-4d3e-9567-f9f7202d1455))
    (fp_line (start 1.48 0.73) (end 1.48 -0.73)
      (stroke (width 0.05) (type solid)) (layer "B.CrtYd") (tstamp bb7f0588-d4d8-44bf-9ebf-3c533fe4d6ae))
    (fp_line (start -0.8 -0.4) (end -0.8 0.4)
      (stroke (width 0.1) (type solid)) (layer "B.Fab") (tstamp 55e740a3-0735-4744-896e-2bf5437093b9))
    (fp_line (start -0.8 0.4) (end 0.8 0.4)
      (stroke (width 0.1) (type solid)) (layer "B.Fab") (tstamp 10109f84-4940-47f8-8640-91f185ac9bc1))
    (fp_line (start 0.8 -0.4) (end -0.8 -0.4)
      (stroke (width 0.1) (type solid)) (layer "B.Fab") (tstamp 746ba970-8279-4e7b-aed3-f28687777c21))
    (fp_line (start 0.8 0.4) (end 0.8 -0.4)
      (stroke (width 0.1) (type solid)) (layer "B.Fab") (tstamp 71c31975-2c45-4d18-a25a-18e07a55d11e))
    (pad "1" smd roundrect (at -0.7875 0 90) (size 0.875 0.95) (layers "B.Cu" "B.Paste" "B.Mask") (roundrect_rratio 0.25)
      (net 1 "+5V") (tstamp c022004a-c968-410e-b59e-fbab0e561e9d))
    (pad "2" smd roundrect (at 0.7875 0 90) (size 0.875 0.95) (layers "B.Cu" "B.Paste" "B.Mask") (roundrect_rratio 0.25)
      (net 6 "Net-(R1-Pad2)") (tstamp f4f99e3d-7269-4f6a-a759-16ad2a258779))
    (model "${KISYS3DMOD}/Resistor_SMD.3dshapes/R_0603_1608Metric.wrl"
      (offset (xyz 0 0 0))
      (scale (xyz 1 1 1))
      (rotate (xyz 0 0 0))
    )
  )

  (footprint "Resistor_SMD:R_0603_1608Metric" (layer "B.Cu")
    (tstamp 00000000-0000-0000-0000-00005d4ca694)
    (at 144.018 100.076)
    (descr "Resistor SMD 0603 (1608 Metric), square (rectangular) end terminal, IPC_7351 nominal, (Body size source: http://www.tortai-tech.com/upload/download/2011102023233369053.pdf), generated with kicad-footprint-generator")
    (tags "resistor")
    (path "/00000000-0000-0000-0000-00005d4f366c")
    (attr smd)
    (fp_text reference "R2" (at 0 1.43) (layer "B.SilkS")
        (effects (font (size 1 1) (thickness 0.15)) (justify mirror))
      (tstamp b6270a28-e0d9-4655-a18a-03dbf007b940)
    )
    (fp_text value "10k" (at 0 -1.43) (layer "B.Fab")
        (effects (font (size 1 1) (thickness 0.15)) (justify mirror))
      (tstamp f3490fa5-5a27-423b-af60-53609669542c)
    )
    (fp_text user "${REFERENCE}" (at 0 0) (layer "B.Fab")
        (effects (font (size 0.4 0.4) (thickness 0.06)) (justify mirror))
      (tstamp 1860e030-7a36-4298-b7fc-a16d48ab15ba)
    )
    (fp_line (start -0.162779 -0.51) (end 0.162779 -0.51)
      (stroke (width 0.12) (type solid)) (layer "B.SilkS") (tstamp 13abf99d-5265-4779-8973-e94370fd18ff))
    (fp_line (start -0.162779 0.51) (end 0.162779 0.51)
      (stroke (width 0.12) (type solid)) (layer "B.SilkS") (tstamp a7520ad3-0f8b-4788-92d4-8ffb277041e6))
    (fp_line (start -1.48 -0.73) (end -1.48 0.73)
      (stroke (width 0.05) (type solid)) (layer "B.CrtYd") (tstamp a05d7640-f2f6-4ba7-8c51-5a4af431fc13))
    (fp_line (start -1.48 0.73) (end 1.48 0.73)
      (stroke (width 0.05) (type solid)) (layer "B.CrtYd") (tstamp 32667662-ae86-4904-b198-3e95f11851bf))
    (fp_line (start 1.48 -0.73) (end -1.48 -0.73)
      (stroke (width 0.05) (type solid)) (layer "B.CrtYd") (tstamp 3dcc657b-55a1-48e0-9667-e01e7b6b08b5))
    (fp_line (start 1.48 0.73) (end 1.48 -0.73)
      (stroke (width 0.05) (type solid)) (layer "B.CrtYd") (tstamp 67f6e996-3c99-493c-8f6f-e739e2ed5d7a))
    (fp_line (start -0.8 -0.4) (end -0.8 0.4)
      (stroke (width 0.1) (type solid)) (layer "B.Fab") (tstamp 94c158d1-8503-4553-b511-bf42f506c2a8))
    (fp_line (start -0.8 0.4) (end 0.8 0.4)
      (stroke (width 0.1) (type solid)) (layer "B.Fab") (tstamp 9ccf03e8-755a-4cd9-96fc-30e1d08fa253))
    (fp_line (start 0.8 -0.4) (end -0.8 -0.4)
      (stroke (width 0.1) (type solid)) (layer "B.Fab") (tstamp a795f1ba-cdd5-4cc5-9a52-08586e982934))
    (fp_line (start 0.8 0.4) (end 0.8 -0.4)
      (stroke (width 0.1) (type solid)) (layer "B.Fab") (tstamp 46918595-4a45-48e8-84c0-961b4db7f35f))
    (pad "1" smd roundrect (at -0.7875 0) (size 0.875 0.95) (layers "B.Cu" "B.Paste" "B.Mask") (roundrect_rratio 0.25)
      (net 7 "Net-(R2-Pad1)") (tstamp 78cbdd6c-4878-4cc5-9a58-0e506478e37d))
    (pad "2" smd roundrect (at 0.7875 0) (size 0.875 0.95) (layers "B.Cu" "B.Paste" "B.Mask") (roundrect_rratio 0.25)
      (net 2 "GND") (tstamp 23bb2798-d93a-4696-a962-c305c4298a0c))
    (model "${KISYS3DMOD}/Resistor_SMD.3dshapes/R_0603_1608Metric.wrl"
      (offset (xyz 0 0 0))
      (scale (xyz 1 1 1))
      (rotate (xyz 0 0 0))
    )
  )

  (footprint "Capacitor_SMD:C_0805_2012Metric" (layer "B.Cu")
    (tstamp 00000000-0000-0000-0000-00005d4cbecb)
    (at 152.4 102.108 180)
    (descr "Capacitor SMD 0805 (2012 Metric), square (rectangular) end terminal, IPC_7351 nominal, (Body size source: https://docs.google.com/spreadsheets/d/1BsfQQcO9C6DZCsRaXUlFlo91Tg2WpOkGARC1WS5S8t0/edit?usp=sharing), generated with kicad-footprint-generator")
    (tags "capacitor")
    (path "/00000000-0000-0000-0000-00005d4d5b7e")
    (attr smd)
    (fp_text reference "C1" (at 0 1.65 180) (layer "B.SilkS")
        (effects (font (size 1 1) (thickness 0.15)) (justify mirror))
      (tstamp c0eca5ed-bc5e-4618-9bcd-80945bea41ed)
    )
    (fp_text value "10u" (at 0 -1.65 180) (layer "B.Fab")
        (effects (font (size 1 1) (thickness 0.15)) (justify mirror))
      (tstamp 6bfe5804-2ef9-4c65-b2a7-f01e4014370a)
    )
    (fp_text user "${REFERENCE}" (at 0 0 180) (layer "B.Fab")
        (effects (font (size 0.5 0.5) (thickness 0.08)) (justify mirror))
      (tstamp 1d9cdadc-9036-4a95-b6db-fa7b3b74c869)
    )
    (fp_line (start -0.258578 -0.71) (end 0.258578 -0.71)
      (stroke (width 0.12) (type solid)) (layer "B.SilkS") (tstamp 6475547d-3216-45a4-a15c-48314f1dd0f9))
    (fp_line (start -0.258578 0.71) (end 0.258578 0.71)
      (stroke (width 0.12) (type solid)) (layer "B.SilkS") (tstamp 8c6a821f-8e19-48f3-8f44-9b340f7689bc))
    (fp_line (start -1.68 -0.95) (end -1.68 0.95)
      (stroke (width 0.05) (type solid)) (layer "B.CrtYd") (tstamp 75ffc65c-7132-4411-9f2a-ae0c73d79338))
    (fp_line (start -1.68 0.95) (end 1.68 0.95)
      (stroke (width 0.05) (type solid)) (layer "B.CrtYd") (tstamp 3e903008-0276-4a73-8edb-5d9dfde6297c))
    (fp_line (start 1.68 -0.95) (end -1.68 -0.95)
      (stroke (width 0.05) (type solid)) (layer "B.CrtYd") (tstamp 3a7648d8-121a-4921-9b92-9b35b76ce39b))
    (fp_line (start 1.68 0.95) (end 1.68 -0.95)
      (stroke (width 0.05) (type solid)) (layer "B.CrtYd") (tstamp 24f7628d-681d-4f0e-8409-40a129e929d9))
    (fp_line (start -1 -0.6) (end -1 0.6)
      (stroke (width 0.1) (type solid)) (layer "B.Fab") (tstamp 7d34f6b1-ab31-49be-b011-c67fe67a8a56))
    (fp_line (start -1 0.6) (end 1 0.6)
      (stroke (width 0.1) (type solid)) (layer "B.Fab") (tstamp 1a6d2848-e78e-49fe-8978-e1890f07836f))
    (fp_line (start 1 -0.6) (end -1 -0.6)
      (stroke (width 0.1) (type solid)) (layer "B.Fab") (tstamp 45008225-f50f-4d6b-b508-6730a9408caf))
    (fp_line (start 1 0.6) (end 1 -0.6)
      (stroke (width 0.1) (type solid)) (layer "B.Fab") (tstamp a544eb0a-75db-4baf-bf54-9ca21744343b))
    (pad "1" smd roundrect (at -0.9375 0 180) (size 0.975 1.4) (layers "B.Cu" "B.Paste" "B.Mask") (roundrect_rratio 0.25)
      (net 2 "GND") (tstamp 8e06ba1f-e3ba-4eb9-a10e-887dffd566d6))
    (pad "2" smd roundrect (at 0.9375 0 180) (size 0.975 1.4) (layers "B.Cu" "B.Paste" "B.Mask") (roundrect_rratio 0.25)
      (net 1 "+5V") (tstamp 12422a89-3d0c-485c-9386-f77121fd68fd))
    (model "${KISYS3DMOD}/Capacitor_SMD.3dshapes/C_0805_2012Metric.wrl"
      (offset (xyz 0 0 0))
      (scale (xyz 1 1 1))
      (rotate (xyz 0 0 0))
    )
  )

  (footprint "Capacitor_SMD:C_0805_2012Metric" (layer "B.Cu")
    (tstamp 00000000-0000-0000-0000-00005d4cc090)
    (at 145.288 106.934 90)
    (descr "Capacitor SMD 0805 (2012 Metric), square (rectangular) end terminal, IPC_7351 nominal, (Body size source: https://docs.google.com/spreadsheets/d/1BsfQQcO9C6DZCsRaXUlFlo91Tg2WpOkGARC1WS5S8t0/edit?usp=sharing), generated with kicad-footprint-generator")
    (tags "capacitor")
    (path "/00000000-0000-0000-0000-00005d4dd2d1")
    (attr smd)
    (fp_text reference "C2" (at 0 1.65 90) (layer "B.SilkS")
        (effects (font (size 1 1) (thickness 0.15)) (justify mirror))
      (tstamp 7bbf981c-a063-4e30-8911-e4228e1c0743)
    )
    (fp_text value "100n" (at 0 -1.65 90) (layer "B.Fab")
        (effects (font (size 1 1) (thickness 0.15)) (justify mirror))
      (tstamp 5528bcad-2950-4673-90eb-c37e6952c475)
    )
    (fp_text user "${REFERENCE}" (at 0 0 90) (layer "B.Fab")
        (effects (font (size 0.5 0.5) (thickness 0.08)) (justify mirror))
      (tstamp 7edc9030-db7b-43ac-a1b3-b87eeacb4c2d)
    )
    (fp_line (start -0.258578 -0.71) (end 0.258578 -0.71)
      (stroke (width 0.12) (type solid)) (layer "B.SilkS") (tstamp 240e07e1-770b-4b27-894f-29fd601c924d))
    (fp_line (start -0.258578 0.71) (end 0.258578 0.71)
      (stroke (width 0.12) (type solid)) (layer "B.SilkS") (tstamp 003c2200-0632-4808-a662-8ddd5d30c768))
    (fp_line (start -1.68 -0.95) (end -1.68 0.95)
      (stroke (width 0.05) (type solid)) (layer "B.CrtYd") (tstamp f2c93195-af12-4d3e-acdf-bdd0ff675c24))
    (fp_line (start -1.68 0.95) (end 1.68 0.95)
      (stroke (width 0.05) (type solid)) (layer "B.CrtYd") (tstamp cbd8faed-e1f8-4406-87c8-58b2c504a5d4))
    (fp_line (start 1.68 -0.95) (end -1.68 -0.95)
      (stroke (width 0.05) (type solid)) (layer "B.CrtYd") (tstamp 08a7c925-7fae-4530-b0c9-120e185cb318))
    (fp_line (start 1.68 0.95) (end 1.68 -0.95)
      (stroke (width 0.05) (type solid)) (layer "B.CrtYd") (tstamp 4a4ec8d9-3d72-4952-83d4-808f65849a2b))
    (fp_line (start -1 -0.6) (end -1 0.6)
      (stroke (width 0.1) (type solid)) (layer "B.Fab") (tstamp 9e1b837f-0d34-4a18-9644-9ee68f141f46))
    (fp_line (start -1 0.6) (end 1 0.6)
      (stroke (width 0.1) (type solid)) (layer "B.Fab") (tstamp c01d25cd-f4bb-4ef3-b5ea-533a2a4ddb2b))
    (fp_line (start 1 -0.6) (end -1 -0.6)
      (stroke (width 0.1) (type solid)) (layer "B.Fab") (tstamp ee27d19c-8dca-4ac8-a760-6dfd54d28071))
    (fp_line (start 1 0.6) (end 1 -0.6)
      (stroke (width 0.1) (type solid)) (layer "B.Fab") (tstamp 9b0a1687-7e1b-4a04-a30b-c27a072a2949))
    (pad "1" smd roundrect (at -0.9375 0 90) (size 0.975 1.4) (layers "B.Cu" "B.Paste" "B.Mask") (roundrect_rratio 0.25)
      (net 2 "GND") (tstamp b88717bd-086f-46cd-9d3f-0396009d0996))
    (pad "2" smd roundrect (at 0.9375 0 90) (size 0.975 1.4) (layers "B.Cu" "B.Paste" "B.Mask") (roundrect_rratio 0.25)
      (net 1 "+5V") (tstamp 63ff1c93-3f96-4c33-b498-5dd8c33bccc0))
    (model "${KISYS3DMOD}/Capacitor_SMD.3dshapes/C_0805_2012Metric.wrl"
      (offset (xyz 0 0 0))
      (scale (xyz 1 1 1))
      (rotate (xyz 0 0 0))
    )
  )

  (footprint "Resistor_SMD:R_0805_2012Metric" (layer "B.Cu")
    (tstamp 00000000-0000-0000-0000-00005d4cca72)
    (at 152.4762 107.061 90)
    (descr "Resistor SMD 0805 (2012 Metric), square (rectangular) end terminal, IPC_7351 nominal, (Body size source: https://docs.google.com/spreadsheets/d/1BsfQQcO9C6DZCsRaXUlFlo91Tg2WpOkGARC1WS5S8t0/edit?usp=sharing), generated with kicad-footprint-generator")
    (tags "resistor")
    (attr smd)
    (fp_text reference "JMP1" (at 0 1.65 90) (layer "B.SilkS")
        (effects (font (size 1 1) (thickness 0.15)) (justify mirror))
      (tstamp d0dfd7c1-401d-4f64-8463-f4c0813ac28f)
    )
    (fp_text value "R_0805_2012Metric" (at 0 -1.65 90) (layer "B.Fab")
        (effects (font (size 1 1) (thickness 0.15)) (justify mirror))
      (tstamp 23e66461-bcf2-4335-93c2-5c91dfd00187)
    )
    (fp_text user "${REFERENCE}" (at 0 0 90) (layer "B.Fab")
        (effects (font (size 0.5 0.5) (thickness 0.08)) (justify mirror))
      (tstamp dd2f6b13-9e35-4a67-90ac-cf0d1ea34e5a)
    )
    (fp_line (start -0.258578 -0.71) (end 0.258578 -0.71)
      (stroke (width 0.12) (type solid)) (layer "B.SilkS") (tstamp 87c78429-be2b-40ed-8d3b-56cb9666a56f))
    (fp_line (start -0.258578 0.71) (end 0.258578 0.71)
      (stroke (width 0.12) (type solid)) (layer "B.SilkS") (tstamp edc9ab4f-487a-48dc-95f2-4d87f0e9cf9e))
    (fp_line (start -1.68 -0.95) (end -1.68 0.95)
      (stroke (width 0.05) (type solid)) (layer "B.CrtYd") (tstamp 99030c03-63b4-49ba-b5ab-4d56974f7963))
    (fp_line (start -1.68 0.95) (end 1.68 0.95)
      (stroke (width 0.05) (type solid)) (layer "B.CrtYd") (tstamp 646d9e91-59b4-4865-a2fc-29780ed32563))
    (fp_line (start 1.68 -0.95) (end -1.68 -0.95)
      (stroke (width 0.05) (type solid)) (layer "B.CrtYd") (tstamp 3559e287-424e-4397-b080-77c7ba6f395b))
    (fp_line (start 1.68 0.95) (end 1.68 -0.95)
      (stroke (width 0.05) (type solid)) (layer "B.CrtYd") (tstamp e6521bef-4109-48f7-8b88-4121b0468927))
    (fp_line (start -1 -0.6) (end -1 0.6)
      (stroke (width 0.1) (type solid)) (layer "B.Fab") (tstamp bbb15673-6d42-42b8-9d51-7515b3ad9ee9))
    (fp_line (start -1 0.6) (end 1 0.6)
      (stroke (width 0.1) (type solid)) (layer "B.Fab") (tstamp 825c70b0-4860-42b7-97dc-86bfa46e06fd))
    (fp_line (start 1 -0.6) (end -1 -0.6)
      (stroke (width 0.1) (type solid)) (layer "B.Fab") (tstamp 9ff4672a-e1a4-4a1e-887d-1b9a3429d278))
    (fp_line (start 1 0.6) (end 1 -0.6)
      (stroke (width 0.1) (type solid)) (layer "B.Fab") (tstamp 02165243-61a3-4857-84ba-71a77cb9a387))
    (pad "1" smd roundrect (at -0.9375 0 90) (size 0.975 1.4) (layers "B.Cu" "B.Paste" "B.Mask") (roundrect_rratio 0.25)
      (net 2 "GND") (tstamp e83e0227-ac0f-4180-82bd-68d3a7b56476))
    (pad "2" smd roundrect (at 0.9375 0 90) (size 0.975 1.4) (layers "B.Cu" "B.Paste" "B.Mask") (roundrect_rratio 0.25)
      (net 2 "GND") (tstamp 0f3c9e3a-9c59-4881-b27a-d0e982b3ea8e))
    (model "${KISYS3DMOD}/Resistor_SMD.3dshapes/R_0805_2012Metric.wrl"
      (offset (xyz 0 0 0))
      (scale (xyz 1 1 1))
      (rotate (xyz 0 0 0))
    )
  )

  (gr_line (start 164.338 93.98) (end 140.462 93.98)
    (stroke (width 0.05) (type solid)) (layer "Edge.Cuts") (tstamp 00000000-0000-0000-0000-00005d4cb5b1))
  (gr_line (start 164.338 109.982) (end 164.338 93.98)
    (stroke (width 0.05) (type solid)) (layer "Edge.Cuts") (tstamp 4780a290-d25c-4459-9579-eba3f7678762))
  (gr_line (start 140.462 93.98) (end 140.462 109.982)
    (stroke (width 0.05) (type solid)) (layer "Edge.Cuts") (tstamp babeabf2-f3b0-4ed5-8d9e-0215947e6cf3))
  (gr_line (start 140.462 109.982) (end 164.338 109.982)
    (stroke (width 0.05) (type solid)) (layer "Edge.Cuts") (tstamp df68c26a-03b5-4466-aecf-ba34b7dce6b7))

  (segment (start 146.8905 105.0355) (end 146.8905 105.9965) (width 0.25) (layer "B.Cu") (net 1) (tstamp 1e8701fc-ad24-40ea-846a-e3db538d6077))
  (segment (start 148.5496 105.9965) (end 148.6281 105.918) (width 0.25) (layer "B.Cu") (net 1) (tstamp 25d545dc-8f50-4573-922c-35ef5a2a3a19))
  (segment (start 146.8905 105.9965) (end 148.5496 105.9965) (width 0.25) (layer "B.Cu") (net 1) (tstamp 40976bf0-19de-460f-ad64-224d4f51e16b))
  (segment (start 145.288 105.9965) (end 146.8905 105.9965) (width 0.25) (layer "B.Cu") (net 1) (tstamp 8c514922-ffe1-4e37-a260-e807409f2e0d))
  (segment (start 151.4625 103.0836) (end 151.4625 102.108) (width 0.25) (layer "B.Cu") (net 1) (tstamp a15a7506-eae4-4933-84da-9ad754258706))
  (segment (start 148.6281 105.918) (end 149.753101 107.043001) (width 0.25) (layer "B.Cu") (net 1) (tstamp aca4de92-9c41-4c2b-9afa-540d02dafa1c))
  (segment (start 146.558 104.1655) (end 146.558 104.703) (width 0.25) (layer "B.Cu") (net 1) (tstamp c25a772d-af9c-4ebc-96f6-0966738c13a8))
  (segment (start 149.753101 107.043001) (end 151.493001 107.043001) (width 0.25) (layer "B.Cu") (net 1) (tstamp c43663ee-9a0d-4f27-a292-89ba89964065))
  (segment (start 151.493001 107.043001) (end 161.180999 107.043001) (width 0.25) (layer "B.Cu") (net 1) (tstamp c830e3bc-dc64-4f65-8f47-3b106bae2807))
  (segment (start 145.288 105.9965) (end 142.5725 105.9965) (width 0.25) (layer "B.Cu") (net 1) (tstamp c8c79177-94d4-43e2-a654-f0a5554fbb68))
  (segment (start 148.6281 105.918) (end 151.4625 103.0836) (width 0.25) (layer "B.Cu") (net 1) (tstamp d3c11c8f-a73d-4211-934b-a6da255728ad))
  (segment (start 146.558 104.703) (end 146.8905 105.0355) (width 0.25) (layer "B.Cu") (net 1) (tstamp d5641ac9-9be7-46bf-90b3-6c83d852b5ba))
  (segment (start 161.180999 107.043001) (end 161.710001 106.513999) (width 0.25) (layer "B.Cu") (net 1) (tstamp d7269d2a-b8c0-422d-8f25-f79ea31bf75e))
  (segment (start 142.5725 105.9965) (end 142.24 105.664) (width 0.25) (layer "B.Cu") (net 1) (tstamp e21aa84b-970e-47cf-b64f-3b55ee0e1b51))
  (segment (start 161.710001 106.513999) (end 162.56 105.664) (width 0.25) (layer "B.Cu") (net 1) (tstamp e8c50f1b-c316-4110-9cce-5c24c65a1eaa))
  (segment (start 143.0805 98.044) (end 143.0805 96.5985) (width 0.25) (layer "B.Cu") (net 3) (tstamp 03caada9-9e22-4e2d-9035-b15433dfbb17))
  (segment (start 155.327512 95.076) (end 145.154015 95.076) (width 0.25) (layer "B.Cu") (net 3) (tstamp 0ff508fd-18da-4ab7-9844-3c8a28c2587e))
  (segment (start 159.422001 99.170489) (end 155.327512 95.076) (width 0.25) (layer "B.Cu") (net 3) (tstamp 13c0ff76-ed71-4cd9-abb0-92c376825d5d))
  (segment (start 145.154015 95.076) (end 144.058 95.076) (width 0.25) (layer "B.Cu") (net 3) (tstamp 1f3003e6-dce5-420f-906b-3f1e92b67249))
  (segment (start 159.422001 100.604001) (end 159.422001 99.170489) (width 0.25) (layer "B.Cu") (net 3) (tstamp 378af8b4-af3d-46e7-89ae-deff12ca9067))
  (segment (start 143.0805 96.0535) (end 144.058 95.076) (width 0.25) (layer "B.Cu") (net 3) (tstamp 639c0e59-e95c-4114-bccd-2e7277505454))
  (segment (start 156.2481 100.838) (end 157.048099 101.637999) (width 0.25) (layer "B.Cu") (net 3) (tstamp 8412992d-8754-44de-9e08-115cec1a3eff))
  (segment (start 143.0805 96.5985) (end 143.0805 96.0535) (width 0.25) (layer "B.Cu") (net 3) (tstamp 8ca3e20d-bcc7-4c5e-9deb-562dfed9fecb))
  (segment (start 158.388003 101.637999) (end 159.422001 100.604001) (width 0.25) (layer "B.Cu") (net 3) (tstamp a27eb049-c992-4f11-a026-1e6a8d9d0160))
  (segment (start 157.048099 101.637999) (end 158.388003 101.637999) (width 0.25) (layer "B.Cu") (net 3) (tstamp ffd175d1-912a-4224-be1e-a8198680f46b))
  (segment (start 159.766 105.918) (end 162.56 103.124) (width 0.25) (layer "B.Cu") (net 4) (tstamp 68877d35-b796-44db-9124-b8e744e7412e))
  (segment (start 156.2481 105.918) (end 159.766 105.918) (width 0.25) (layer "B.Cu") (net 4) (tstamp b96fe6ac-3535-4455-ab88-ed77f5e46d6e))
  (segment (start 163.322 100.076) (end 163.322 102.362) (width 0.25) (layer "B.Cu") (net 4) (tstamp c332fa55-4168-4f55-88a5-f82c7c21040b))
  (segment (start 163.322 102.362) (end 162.56 103.124) (width 0.25) (layer "B.Cu") (net 4) (tstamp df32840e-2912-4088-b54c-9a85f64c0265))
  (segment (start 144.272 96.774) (end 147.1041 96.774) (width 0.25) (layer "B.Cu") (net 5) (tstamp 6d26d68f-1ca7-4ff3-b058-272f1c399047))
  (segment (start 144.018 101.346) (end 144.018 97.028) (width 0.25) (layer "B.Cu") (net 5) (tstamp 70e15522-1572-4451-9c0d-6d36ac70d8c6))
  (segment (start 147.1041 96.774) (end 147.828101 97.498001) (width 0.25) (layer "B.Cu") (net 5) (tstamp 911bdcbe-493f-4e21-a506-7cbc636e2c17))
  (segment (start 147.828101 97.498001) (end 148.6281 98.298) (width 0.25) (layer "B.Cu") (net 5) (tstamp 9f8381e9-3077-4453-a480-a01ad9c1a940))
  (segment (start 144.018 97.028) (end 144.272 96.774) (width 0.25) (layer "B.Cu") (net 5) (tstamp d3d7e298-1d39-4294-a3ab-c84cc0dc5e5a))
  (segment (start 142.24 103.124) (end 144.018 101.346) (width 0.25) (layer "B.Cu") (net 5) (tstamp dde51ae5-b215-445e-92bb-4a12ec410531))
  (segment (start 146.558 100.076) (end 146.558 102.5905) (width 0.25) (layer "B.Cu") (net 6) (tstamp 7599133e-c681-4202-85d9-c20dac196c64))
  (segment (start 141.558 100.076) (end 143.2305 100.076) (width 0.25) (layer "B.Cu") (net 7) (tstamp 4fb21471-41be-4be8-9687-66030f97befc))
  (segment (start 157.37947 103.378) (end 156.2481 103.378) (width 0.25) (layer "B.Cu") (net 8) (tstamp 0755aee5-bc01-4cb5-b830-583289df50a3))
  (segment (start 160.822 99.93547) (end 157.37947 103.378) (width 0.25) (layer "B.Cu") (net 8) (tstamp 4a21e717-d46d-4d9e-8b98-af4ecb02d3ec))
  (segment (start 160.822 95.076) (end 160.822 99.93547) (width 0.25) (layer "B.Cu") (net 8) (tstamp ec31c074-17b2-48e1-ab01-071acad3fa04))
  (segment (start 156.788101 97.172999) (end 152.293101 97.172999) (width 0.25) (layer "B.Cu") (net 9) (tstamp 16bd6381-8ac0-4bf2-9dce-ecc20c724b8d))
  (segment (start 158.322 100.076) (end 158.322 98.706898) (width 0.25) (layer "B.Cu") (net 9) (tstamp 4f66b314-0f62-4fb6-8c3c-f9c6a75cd3ec))
  (segment (start 148.6281 100.838) (end 148.6281 103.378) (width 0.25) (layer "B.Cu") (net 9) (tstamp 60dcd1fe-7079-4cb8-b509-04558ccf5097))
  (segment (start 152.293101 97.172999) (end 149.428099 100.038001) (width 0.25) (layer "B.Cu") (net 9) (tstamp 85b7594c-358f-454b-b2ad-dd0b1d67ed76))
  (segment (start 158.322 98.706898) (end 156.788101 97.172999) (width 0.25) (layer "B.Cu") (net 9) (tstamp a5cd8da1-8f7f-4f80-bb23-0317de562222))
  (segment (start 149.428099 100.038001) (end 148.6281 100.838) (width 0.25) (layer "B.Cu") (net 9) (tstamp c5eb1e4c-ce83-470e-8f32-e20ff1f886a3))

  (zone (net 2) (net_name "GND") (layer "B.Cu") (tstamp 00000000-0000-0000-0000-00005d4ccdd3) (hatch edge 0.508)
    (connect_pads (clearance 0.2032))
    (min_thickness 0.254) (filled_areas_thickness no)
    (fill yes (thermal_gap 0.2032) (thermal_bridge_width 0.508))
    (polygon
      (pts
        (xy 138.684 92.202)
        (xy 138.684 111.252)
        (xy 166.116 111.252)
        (xy 166.116 92.202)
      )
    )
    (filled_polygon
      (layer "B.Cu")
      (pts
        (xy 163.982801 98.969203)
        (xy 162.547 98.969203)
        (xy 162.48227 98.975578)
        (xy 162.420027 98.99446)
        (xy 162.362663 99.025121)
        (xy 162.312384 99.066384)
        (xy 162.271121 99.116663)
        (xy 162.24046 99.174027)
        (xy 162.221578 99.23627)
        (xy 162.215203 99.301)
        (xy 162.215203 100.851)
        (xy 162.221578 100.91573)
        (xy 162.24046 100.977973)
        (xy 162.271121 101.035337)
        (xy 162.312384 101.085616)
        (xy 162.362663 101.126879)
        (xy 162.420027 101.15754)
        (xy 162.48227 101.176422)
        (xy 162.547 101.182797)
        (xy 162.8668 101.182797)
        (xy 162.866801 101.983762)
        (xy 162.79136 101.960877)
        (xy 162.617975 101.9438)
        (xy 162.502025 101.9438)
        (xy 162.32864 101.960877)
        (xy 162.106172 102.028362)
        (xy 161.901144 102.137952)
        (xy 161.721435 102.285435)
        (xy 161.573952 102.465144)
        (xy 161.464362 102.670172)
        (xy 161.396877 102.89264)
        (xy 161.37409 103.124)
        (xy 161.396877 103.35536)
        (xy 161.46391 103.576339)
        (xy 159.577451 105.4628)
        (xy 157.379897 105.4628)
        (xy 157.379897 105.118)
        (xy 157.373522 105.05327)
        (xy 157.35464 104.991027)
        (xy 157.323979 104.933663)
        (xy 157.282716 104.883384)
        (xy 157.232437 104.842121)
        (xy 157.175073 104.81146)
        (xy 157.11283 104.792578)
        (xy 157.0481 104.786203)
        (xy 155.4481 104.786203)
        (xy 155.38337 104.792578)
        (xy 155.321127 104.81146)
        (xy 155.263763 104.842121)
        (xy 155.213484 104.883384)
        (xy 155.172221 104.933663)
        (xy 155.14156 104.991027)
        (xy 155.122678 105.05327)
        (xy 155.116303 105.118)
        (xy 155.116303 106.587801)
        (xy 153.507865 106.587801)
        (xy 153.5064 106.33305)
        (xy 153.42385 106.2505)
        (xy 152.6032 106.2505)
        (xy 152.6032 106.2705)
        (xy 152.3492 106.2705)
        (xy 152.3492 106.2505)
        (xy 151.52855 106.2505)
        (xy 151.446 106.33305)
        (xy 151.444535 106.587801)
        (xy 149.941651 106.587801)
        (xy 149.6841 106.33025)
        (xy 149.741946 106.139558)
        (xy 149.763768 105.918)
        (xy 149.741946 105.696442)
        (xy 149.723612 105.636)
        (xy 151.444402 105.636)
        (xy 151.446 105.91395)
        (xy 151.52855 105.9965)
        (xy 152.3492 105.9965)
        (xy 152.3492 105.38835)
        (xy 152.6032 105.38835)
        (xy 152.6032 105.9965)
        (xy 153.42385 105.9965)
        (xy 153.5064 105.91395)
        (xy 153.507998 105.636)
        (xy 153.501623 105.571269)
        (xy 153.482741 105.509026)
        (xy 153.45208 105.451663)
        (xy 153.410817 105.401383)
        (xy 153.360537 105.36012)
        (xy 153.303174 105.329459)
        (xy 153.240931 105.310577)
        (xy 153.1762 105.304202)
        (xy 152.68575 105.3058)
        (xy 152.6032 105.38835)
        (xy 152.3492 105.38835)
        (xy 152.26665 105.3058)
        (xy 151.7762 105.304202)
        (xy 151.711469 105.310577)
        (xy 151.649226 105.329459)
        (xy 151.591863 105.36012)
        (xy 151.541583 105.401383)
        (xy 151.50032 105.451663)
        (xy 151.469659 105.509026)
        (xy 151.450777 105.571269)
        (xy 151.444402 105.636)
        (xy 149.723612 105.636)
        (xy 149.6841 105.505749)
        (xy 151.768567 103.421283)
        (xy 151.785932 103.407032)
        (xy 151.842816 103.337719)
        (xy 151.885084 103.25864)
        (xy 151.911113 103.172835)
        (xy 151.9177 103.105957)
        (xy 151.9177 103.105949)
        (xy 151.91844 103.098431)
        (xy 151.926502 103.095986)
        (xy 152.026007 103.0428)
        (xy 152.113223 102.971223)
        (xy 152.1848 102.884007)
        (xy 152.225426 102.808)
        (xy 152.518202 102.808)
        (xy 152.524577 102.872731)
        (xy 152.543459 102.934974)
        (xy 152.57412 102.992337)
        (xy 152.615383 103.042617)
        (xy 152.665663 103.08388)
        (xy 152.723026 103.114541)
        (xy 152.785269 103.133423)
        (xy 152.85 103.139798)
        (xy 153.12795 103.1382)
        (xy 153.2105 103.05565)
        (xy 153.2105 102.235)
        (xy 153.4645 102.235)
        (xy 153.4645 103.05565)
        (xy 153.54705 103.1382)
        (xy 153.825 103.139798)
        (xy 153.889731 103.133423)
        (xy 153.951974 103.114541)
        (xy 154.009337 103.08388)
        (xy 154.059617 103.042617)
        (xy 154.10088 102.992337)
        (xy 154.131541 102.934974)
        (xy 154.150423 102.872731)
        (xy 154.156798 102.808)
        (xy 154.1552 102.31755)
        (xy 154.07265 102.235)
        (xy 153.4645 102.235)
        (xy 153.2105 102.235)
        (xy 152.60235 102.235)
        (xy 152.5198 102.31755)
        (xy 152.518202 102.808)
        (xy 152.225426 102.808)
        (xy 152.237986 102.784502)
        (xy 152.270738 102.676534)
        (xy 152.281797 102.56425)
        (xy 152.281797 101.65175)
        (xy 152.270738 101.539466)
        (xy 152.237986 101.431498)
        (xy 152.225427 101.408)
        (xy 152.518202 101.408)
        (xy 152.5198 101.89845)
        (xy 152.60235 101.981)
        (xy 153.2105 101.981)
        (xy 153.2105 101.16035)
        (xy 153.4645 101.16035)
        (xy 153.4645 101.981)
        (xy 154.07265 101.981)
        (xy 154.1552 101.89845)
        (xy 154.156798 101.408)
        (xy 154.150423 101.343269)
        (xy 154.131541 101.281026)
        (xy 154.10088 101.223663)
        (xy 154.059617 101.173383)
        (xy 154.009337 101.13212)
        (xy 153.951974 101.101459)
        (xy 153.889731 101.082577)
        (xy 153.825 101.076202)
        (xy 153.54705 101.0778)
        (xy 153.4645 101.16035)
        (xy 153.2105 101.16035)
        (xy 153.12795 101.0778)
        (xy 152.85 101.076202)
        (xy 152.785269 101.082577)
        (xy 152.723026 101.101459)
        (xy 152.665663 101.13212)
        (xy 152.615383 101.173383)
        (xy 152.57412 101.223663)
        (xy 152.543459 101.281026)
        (xy 152.524577 101.343269)
        (xy 152.518202 101.408)
        (xy 152.225427 101.408)
        (xy 152.1848 101.331993)
        (xy 152.113223 101.244777)
        (xy 152.026007 101.1732)
        (xy 151.926502 101.120014)
        (xy 151.818534 101.087262)
        (xy 151.70625 101.076203)
        (xy 151.21875 101.076203)
        (xy 151.106466 101.087262)
        (xy 150.998498 101.120014)
        (xy 150.898993 101.1732)
        (xy 150.811777 101.244777)
        (xy 150.7402 101.331993)
        (xy 150.687014 101.431498)
        (xy 150.654262 101.539466)
        (xy 150.643203 101.65175)
        (xy 150.643203 102.56425)
        (xy 150.654262 102.676534)
        (xy 150.687014 102.784502)
        (xy 150.7402 102.884007)
        (xy 150.811777 102.971223)
        (xy 150.877329 103.025021)
        (xy 149.040351 104.862)
        (xy 148.849658 104.804154)
        (xy 148.683616 104.7878)
        (xy 148.572584 104.7878)
        (xy 148.406542 104.804154)
        (xy 148.193499 104.86878)
        (xy 147.997157 104.973727)
        (xy 147.825061 105.114961)
        (xy 147.683827 105.287057)
        (xy 147.57888 105.483399)
        (xy 147.561316 105.5413)
        (xy 147.3457 105.5413)
        (xy 147.3457 105.057848)
        (xy 147.347901 105.035499)
        (xy 147.3457 105.01315)
        (xy 147.3457 105.013143)
        (xy 147.339113 104.946265)
        (xy 147.313084 104.86046)
        (xy 147.270816 104.781381)
        (xy 147.233966 104.736479)
        (xy 147.272013 104.690118)
        (xy 147.322889 104.594935)
        (xy 147.354218 104.491656)
        (xy 147.364797 104.38425)
        (xy 147.364797 103.94675)
        (xy 147.354218 103.839344)
        (xy 147.322889 103.736065)
        (xy 147.272013 103.640882)
        (xy 147.203546 103.557454)
        (xy 147.120118 103.488987)
        (xy 147.024935 103.438111)
        (xy 146.921656 103.406782)
        (xy 146.81425 103.396203)
        (xy 146.30175 103.396203)
        (xy 146.194344 103.406782)
        (xy 146.091065 103.438111)
        (xy 145.995882 103.488987)
        (xy 145.912454 103.557454)
        (xy 145.843987 103.640882)
        (xy 145.793111 103.736065)
        (xy 145.761782 103.839344)
        (xy 145.751203 103.94675)
        (xy 145.751203 104.38425)
        (xy 145.761782 104.491656)
        (xy 145.793111 104.594935)
        (xy 145.843987 104.690118)
        (xy 145.912454 104.773546)
        (xy 145.995882 104.842013)
        (xy 146.091065 104.892889)
        (xy 146.153472 104.91182)
        (xy 146.177685 104.957119)
        (xy 146.234569 105.026432)
        (xy 146.251934 105.040683)
        (xy 146.4353 105.22405)
        (xy 146.435301 105.5413)
        (xy 146.278656 105.5413)
        (xy 146.275986 105.532498)
        (xy 146.2228 105.432993)
        (xy 146.151223 105.345777)
        (xy 146.064007 105.2742)
        (xy 145.964502 105.221014)
        (xy 145.856534 105.188262)
        (xy 145.74425 105.177203)
        (xy 144.83175 105.177203)
        (xy 144.719466 105.188262)
        (xy 144.611498 105.221014)
        (xy 144.511993 105.2742)
        (xy 144.424777 105.345777)
        (xy 144.3532 105.432993)
        (xy 144.300014 105.532498)
        (xy 144.297344 105.5413)
        (xy 143.413825 105.5413)
        (xy 143.403123 105.43264)
        (xy 143.335638 105.210172)
        (xy 143.226048 105.005144)
        (xy 143.078565 104.825435)
        (xy 142.898856 104.677952)
        (xy 142.693828 104.568362)
        (xy 142.47136 104.500877)
        (xy 142.297975 104.4838)
        (xy 142.182025 104.4838)
        (xy 142.00864 104.500877)
        (xy 141.786172 104.568362)
        (xy 141.581144 104.677952)
        (xy 141.401435 104.825435)
        (xy 141.253952 105.005144)
        (xy 141.144362 105.210172)
        (xy 141.076877 105.43264)
        (xy 141.05409 105.664)
        (xy 141.076877 105.89536)
        (xy 141.144362 106.117828)
        (xy 141.253952 106.322856)
        (xy 141.401435 106.502565)
        (xy 141.581144 106.650048)
        (xy 141.786172 106.759638)
        (xy 142.00864 106.827123)
        (xy 142.182025 106.8442)
        (xy 142.297975 106.8442)
        (xy 142.47136 106.827123)
        (xy 142.693828 106.759638)
        (xy 142.898856 106.650048)
        (xy 143.078565 106.502565)
        (xy 143.120309 106.4517)
        (xy 144.297344 106.4517)
        (xy 144.300014 106.460502)
        (xy 144.3532 106.560007)
        (xy 144.424777 106.647223)
        (xy 144.511993 106.7188)
        (xy 144.611498 106.771986)
        (xy 144.719466 106.804738)
        (xy 144.83175 106.815797)
        (xy 145.74425 106.815797)
        (xy 145.856534 106.804738)
        (xy 145.964502 106.771986)
        (xy 146.064007 106.7188)
        (xy 146.151223 106.647223)
        (xy 146.2228 106.560007)
        (xy 146.275986 106.460502)
        (xy 146.278656 106.4517)
        (xy 146.868143 106.4517)
        (xy 146.8905 106.453902)
        (xy 146.912857 106.4517)
        (xy 147.63185 106.4517)
        (xy 147.683827 106.548943)
        (xy 147.825061 106.721039)
        (xy 147.997157 106.862273)
        (xy 148.193499 106.96722)
        (xy 148.406542 107.031846)
        (xy 148.572584 107.0482)
        (xy 148.683616 107.0482)
        (xy 148.849658 107.031846)
        (xy 149.04035 106.974)
        (xy 149.415417 107.349067)
        (xy 149.429669 107.366433)
        (xy 149.447034 107.380684)
        (xy 149.447035 107.380685)
        (xy 149.498982 107.423317)
        (xy 149.578061 107.465585)
        (xy 149.663866 107.491614)
        (xy 149.753101 107.500403)
        (xy 149.775458 107.498201)
        (xy 151.445663 107.498201)
        (xy 151.444402 107.511)
        (xy 151.446 107.78895)
        (xy 151.52855 107.8715)
        (xy 152.3492 107.8715)
        (xy 152.3492 107.8515)
        (xy 152.6032 107.8515)
        (xy 152.6032 107.8715)
        (xy 153.42385 107.8715)
        (xy 153.5064 107.78895)
        (xy 153.507998 107.511)
        (xy 153.506737 107.498201)
        (xy 161.15865 107.498201)
        (xy 161.180999 107.500402)
        (xy 161.203348 107.498201)
        (xy 161.203356 107.498201)
        (xy 161.270234 107.491614)
        (xy 161.356039 107.465585)
        (xy 161.378451 107.453606)
        (xy 161.3798 107.99445)
        (xy 161.46235 108.077)
        (xy 162.433 108.077)
        (xy 162.433 107.10635)
        (xy 162.687 107.10635)
        (xy 162.687 108.077)
        (xy 163.65765 108.077)
        (xy 163.7402 107.99445)
        (xy 163.741798 107.354)
        (xy 163.735423 107.289269)
        (xy 163.716541 107.227026)
        (xy 163.68588 107.169663)
        (xy 163.644617 107.119383)
        (xy 163.594337 107.07812)
        (xy 163.536974 107.047459)
        (xy 163.474731 107.028577)
        (xy 163.41 107.022202)
        (xy 162.76955 107.0238)
        (xy 162.687 107.10635)
        (xy 162.433 107.10635)
        (xy 162.35045 107.0238)
        (xy 161.84521 107.022539)
        (xy 162.047684 106.820066)
        (xy 162.047688 106.820061)
        (xy 162.10766 106.760089)
        (xy 162.32864 106.827123)
        (xy 162.502025 106.8442)
        (xy 162.617975 106.8442)
        (xy 162.79136 106.827123)
        (xy 163.013828 106.759638)
        (xy 163.218856 106.650048)
        (xy 163.398565 106.502565)
        (xy 163.546048 106.322856)
        (xy 163.655638 106.117828)
        (xy 163.723123 105.89536)
        (xy 163.74591 105.664)
        (xy 163.723123 105.43264)
        (xy 163.655638 105.210172)
        (xy 163.546048 105.005144)
        (xy 163.398565 104.825435)
        (xy 163.218856 104.677952)
        (xy 163.013828 104.568362)
        (xy 162.79136 104.500877)
        (xy 162.617975 104.4838)
        (xy 162.502025 104.4838)
        (xy 162.32864 104.500877)
        (xy 162.106172 104.568362)
        (xy 161.901144 104.677952)
        (xy 161.721435 104.825435)
        (xy 161.573952 105.005144)
        (xy 161.464362 105.210172)
        (xy 161.396877 105.43264)
        (xy 161.37409 105.664)
        (xy 161.396877 105.89536)
        (xy 161.463911 106.11634)
        (xy 161.403939 106.176312)
        (xy 161.403934 106.176316)
        (xy 160.99245 106.587801)
        (xy 157.379897 106.587801)
        (xy 157.379897 106.3732)
        (xy 159.743651 106.3732)
        (xy 159.766 106.375401)
        (xy 159.788349 106.3732)
        (xy 159.788357 106.3732)
        (xy 159.855235 106.366613)
        (xy 159.94104 106.340584)
        (xy 160.020119 106.298316)
        (xy 160.089432 106.241432)
        (xy 160.103688 106.224061)
        (xy 162.107661 104.22009)
        (xy 162.32864 104.287123)
        (xy 162.502025 104.3042)
        (xy 162.617975 104.3042)
        (xy 162.79136 104.287123)
        (xy 163.013828 104.219638)
        (xy 163.218856 104.110048)
        (xy 163.398565 103.962565)
        (xy 163.546048 103.782856)
        (xy 163.655638 103.577828)
        (xy 163.723123 103.35536)
        (xy 163.74591 103.124)
        (xy 163.723123 102.89264)
        (xy 163.656263 102.672234)
        (xy 163.702316 102.616119)
        (xy 163.744584 102.53704)
        (xy 163.770613 102.451235)
        (xy 163.7772 102.384357)
        (xy 163.779402 102.362)
        (xy 163.7772 102.339643)
        (xy 163.7772 101.182797)
        (xy 163.982801 101.182797)
        (xy 163.9828 109.6268)
        (xy 140.8172 109.6268)
        (xy 140.8172 109.054)
        (xy 141.058202 109.054)
        (xy 141.064577 109.118731)
        (xy 141.083459 109.180974)
        (xy 141.11412 109.238337)
        (xy 141.155383 109.288617)
        (xy 141.205663 109.32988)
        (xy 141.263026 109.360541)
        (xy 141.325269 109.379423)
        (xy 141.39 109.385798)
        (xy 142.03045 109.3842)
        (xy 142.113 109.30165)
        (xy 142.113 108.331)
        (xy 142.367 108.331)
        (xy 142.367 109.30165)
        (xy 142.44955 109.3842)
        (xy 143.09 109.385798)
        (xy 143.154731 109.379423)
        (xy 143.216974 109.360541)
        (xy 143.274337 109.32988)
        (xy 143.324617 109.288617)
        (xy 143.36588 109.238337)
        (xy 143.396541 109.180974)
        (xy 143.415423 109.118731)
        (xy 143.421798 109.054)
        (xy 161.378202 109.054)
        (xy 161.384577 109.118731)
        (xy 161.403459 109.180974)
        (xy 161.43412 109.238337)
        (xy 161.475383 109.288617)
        (xy 161.525663 109.32988)
        (xy 161.583026 109.360541)
        (xy 161.645269 109.379423)
        (xy 161.71 109.385798)
        (xy 162.35045 109.3842)
        (xy 162.433 109.30165)
        (xy 162.433 108.331)
        (xy 162.687 108.331)
        (xy 162.687 109.30165)
        (xy 162.76955 109.3842)
        (xy 163.41 109.385798)
        (xy 163.474731 109.379423)
        (xy 163.536974 109.360541)
        (xy 163.594337 109.32988)
        (xy 163.644617 109.288617)
        (xy 163.68588 109.238337)
        (xy 163.716541 109.180974)
        (xy 163.735423 109.118731)
        (xy 163.741798 109.054)
        (xy 163.7402 108.41355)
        (xy 163.65765 108.331)
        (xy 162.687 108.331)
        (xy 162.433 108.331)
        (xy 161.46235 108.331)
        (xy 161.3798 108.41355)
        (xy 161.378202 109.054)
        (xy 143.421798 109.054)
        (xy 143.4202 108.41355)
        (xy 143.36565 108.359)
        (xy 144.256202 108.359)
        (xy 144.262577 108.423731)
        (xy 144.281459 108.485974)
        (xy 144.31212 108.543337)
        (xy 144.353383 108.593617)
        (xy 144.403663 108.63488)
        (xy 144.461026 108.665541)
        (xy 144.523269 108.684423)
        (xy 144.588 108.690798)
        (xy 145.07845 108.6892)
        (xy 145.161 108.60665)
        (xy 145.161 107.9985)
        (xy 145.415 107.9985)
        (xy 145.415 108.60665)
        (xy 145.49755 108.6892)
        (xy 145.988 108.690798)
        (xy 146.052731 108.684423)
        (xy 146.114974 108.665541)
        (xy 146.172337 108.63488)
        (xy 146.222617 108.593617)
        (xy 146.26388 108.543337)
        (xy 146.294527 108.486)
        (xy 151.444402 108.486)
        (xy 151.450777 108.550731)
        (xy 151.469659 108.612974)
        (xy 151.50032 108.670337)
        (xy 151.541583 108.720617)
        (xy 151.591863 108.76188)
        (xy 151.649226 108.792541)
        (xy 151.711469 108.811423)
        (xy 151.7762 108.817798)
        (xy 152.26665 108.8162)
        (xy 152.3492 108.73365)
        (xy 152.3492 108.1255)
        (xy 152.6032 108.1255)
        (xy 152.6032 108.73365)
        (xy 152.68575 108.8162)
        (xy 153.1762 108.817798)
        (xy 153.240931 108.811423)
        (xy 153.303174 108.792541)
        (xy 153.360537 108.76188)
        (xy 153.410817 108.720617)
        (xy 153.45208 108.670337)
        (xy 153.482741 108.612974)
        (xy 153.501623 108.550731)
        (xy 153.507998 108.486)
        (xy 153.5064 108.20805)
        (xy 153.42385 108.1255)
        (xy 152.6032 108.1255)
        (xy 152.3492 108.1255)
        (xy 151.52855 108.1255)
        (xy 151.446 108.20805)
        (xy 151.444402 108.486)
        (xy 146.294527 108.486)
        (xy 146.294541 108.485974)
        (xy 146.313423 108.423731)
        (xy 146.319798 108.359)
        (xy 146.3182 108.08105)
        (xy 146.23565 107.9985)
        (xy 145.415 107.9985)
        (xy 145.161 107.9985)
        (xy 144.34035 107.9985)
        (xy 144.2578 108.08105)
        (xy 144.256202 108.359)
        (xy 143.36565 108.359)
        (xy 143.33765 108.331)
        (xy 142.367 108.331)
        (xy 142.113 108.331)
        (xy 141.14235 108.331)
        (xy 141.0598 108.41355)
        (xy 141.058202 109.054)
        (xy 140.8172 109.054)
        (xy 140.8172 107.354)
        (xy 141.058202 107.354)
        (xy 141.0598 107.99445)
        (xy 141.14235 108.077)
        (xy 142.113 108.077)
        (xy 142.113 107.10635)
        (xy 142.367 107.10635)
        (xy 142.367 108.077)
        (xy 143.33765 108.077)
        (xy 143.4202 107.99445)
        (xy 143.421723 107.384)
        (xy 144.256202 107.384)
        (xy 144.2578 107.66195)
        (xy 144.34035 107.7445)
        (xy 145.161 107.7445)
        (xy 145.161 107.13635)
        (xy 145.415 107.13635)
        (xy 145.415 107.7445)
        (xy 146.23565 107.7445)
        (xy 146.3182 107.66195)
        (xy 146.319798 107.384)
        (xy 146.313423 107.319269)
        (xy 146.294541 107.257026)
        (xy 146.26388 107.199663)
        (xy 146.222617 107.149383)
        (xy 146.172337 107.10812)
        (xy 146.114974 107.077459)
        (xy 146.052731 107.058577)
        (xy 145.988 107.052202)
        (xy 145.49755 107.0538)
        (xy 145.415 107.13635)
        (xy 145.161 107.13635)
        (xy 145.07845 107.0538)
        (xy 144.588 107.052202)
        (xy 144.523269 107.058577)
        (xy 144.461026 107.077459)
        (xy 144.403663 107.10812)
        (xy 144.353383 107.149383)
        (xy 144.31212 107.199663)
        (xy 144.281459 107.257026)
        (xy 144.262577 107.319269)
        (xy 144.256202 107.384)
        (xy 143.421723 107.384)
        (xy 143.421798 107.354)
        (xy 143.415423 107.289269)
        (xy 143.396541 107.227026)
        (xy 143.36588 107.169663)
        (xy 143.324617 107.119383)
        (xy 143.274337 107.07812)
        (xy 143.216974 107.047459)
        (xy 143.154731 107.028577)
        (xy 143.09 107.022202)
        (xy 142.44955 107.0238)
        (xy 142.367 107.10635)
        (xy 142.113 107.10635)
        (xy 142.03045 107.0238)
        (xy 141.39 107.022202)
        (xy 141.325269 107.028577)
        (xy 141.263026 107.047459)
        (xy 141.205663 107.07812)
        (xy 141.155383 107.119383)
        (xy 141.11412 107.169663)
        (xy 141.083459 107.227026)
        (xy 141.064577 107.289269)
        (xy 141.058202 107.354)
        (xy 140.8172 107.354)
        (xy 140.8172 100.898189)
        (xy 140.853476 100.934465)
        (xy 141.034491 101.055416)
        (xy 141.235625 101.138728)
        (xy 141.449147 101.1812)
        (xy 141.666853 101.1812)
        (xy 141.880375 101.138728)
        (xy 142.081509 101.055416)
        (xy 142.262524 100.934465)
        (xy 142.416465 100.780524)
        (xy 142.535157 100.60289)
        (xy 142.553987 100.638118)
        (xy 142.622454 100.721546)
        (xy 142.705882 100.790013)
        (xy 142.801065 100.840889)
        (xy 142.904344 100.872218)
        (xy 143.01175 100.882797)
        (xy 143.44925 100.882797)
        (xy 143.556656 100.872218)
        (xy 143.5628 100.870354)
        (xy 143.5628 101.15745)
        (xy 142.69234 102.027911)
        (xy 142.47136 101.960877)
        (xy 142.297975 101.9438)
        (xy 142.182025 101.9438)
        (xy 142.00864 101.960877)
        (xy 141.786172 102.028362)
        (xy 141.581144 102.137952)
        (xy 141.401435 102.285435)
        (xy 141.253952 102.465144)
        (xy 141.144362 102.670172)
        (xy 141.076877 102.89264)
        (xy 141.05409 103.124)
        (xy 141.076877 103.35536)
        (xy 141.144362 103.577828)
        (xy 141.253952 103.782856)
        (xy 141.401435 103.962565)
        (xy 141.581144 104.110048)
        (xy 141.786172 104.219638)
        (xy 142.00864 104.287123)
        (xy 142.182025 104.3042)
        (xy 142.297975 104.3042)
        (xy 142.47136 104.287123)
        (xy 142.693828 104.219638)
        (xy 142.898856 104.110048)
        (xy 143.078565 103.962565)
        (xy 143.226048 103.782856)
        (xy 143.335638 103.577828)
        (xy 143.403123 103.35536)
        (xy 143.42591 103.124)
        (xy 143.403123 102.89264)
        (xy 143.336089 102.67166)
        (xy 144.324067 101.683683)
        (xy 144.341432 101.669432)
        (xy 144.398316 101.600119)
        (xy 144.440584 101.52104)
        (xy 144.466613 101.435235)
        (xy 144.4732 101.368357)
        (xy 144.4732 101.368356)
        (xy 144.475402 101.346)
        (xy 144.4732 101.323643)
        (xy 144.4732 100.882061)
        (xy 144.59595 100.8812)
        (xy 144.6785 100.79865)
        (xy 144.6785 100.203)
        (xy 144.6585 100.203)
        (xy 144.6585 99.949)
        (xy 144.6785 99.949)
        (xy 144.6785 99.35335)
        (xy 144.59595 99.2708)
        (xy 144.4732 99.269939)
        (xy 144.4732 99.075768)
        (xy 144.74595 99.0742)
        (xy 144.8285 98.99165)
        (xy 144.8285 98.171)
        (xy 144.8085 98.171)
        (xy 144.8085 97.917)
        (xy 144.8285 97.917)
        (xy 144.8285 97.897)
        (xy 145.0825 97.897)
        (xy 145.0825 97.917)
        (xy 145.69065 97.917)
        (xy 145.7732 97.83445)
        (xy 145.774798 97.344)
        (xy 145.768423 97.279269)
        (xy 145.753234 97.2292)
        (xy 146.915551 97.2292)
        (xy 147.522034 97.835684)
        (xy 147.522039 97.835688)
        (xy 147.5721 97.885749)
        (xy 147.514254 98.076442)
        (xy 147.492432 98.298)
        (xy 147.514254 98.519558)
        (xy 147.57888 98.732601)
        (xy 147.683827 98.928943)
        (xy 147.825061 99.101039)
        (xy 147.997157 99.242273)
        (xy 148.193499 99.34722)
        (xy 148.406542 99.411846)
        (xy 148.572584 99.4282)
        (xy 148.683616 99.4282)
        (xy 148.849658 99.411846)
        (xy 149.062701 99.34722)
        (xy 149.259043 99.242273)
        (xy 149.431139 99.101039)
        (xy 149.572373 98.928943)
        (xy 149.67732 98.732601)
        (xy 149.741946 98.519558)
        (xy 149.763768 98.298)
        (xy 149.741946 98.076442)
        (xy 149.67732 97.863399)
        (xy 149.572373 97.667057)
        (xy 149.431139 97.494961)
        (xy 149.259043 97.353727)
        (xy 149.062701 97.24878)
        (xy 148.849658 97.184154)
        (xy 148.683616 97.1678)
        (xy 148.572584 97.1678)
        (xy 148.406542 97.184154)
        (xy 148.215849 97.242)
        (xy 148.165788 97.191939)
        (xy 148.165784 97.191934)
        (xy 147.441788 96.467939)
        (xy 147.427532 96.450568)
        (xy 147.358219 96.393684)
        (xy 147.27914 96.351416)
        (xy 147.193335 96.325387)
        (xy 147.126457 96.3188)
        (xy 147.126449 96.3188)
        (xy 147.1041 96.316599)
        (xy 147.081751 96.3188)
        (xy 144.294348 96.3188)
        (xy 144.271999 96.316599)
        (xy 144.24965 96.3188)
        (xy 144.249643 96.3188)
        (xy 144.182765 96.325387)
        (xy 144.09696 96.351416)
        (xy 144.017881 96.393684)
        (xy 143.948568 96.450568)
        (xy 143.934312 96.467939)
        (xy 143.711935 96.690316)
        (xy 143.694569 96.704568)
        (xy 143.637685 96.773881)
        (xy 143.627635 96.792684)
        (xy 143.595417 96.85296)
        (xy 143.569387 96.938766)
        (xy 143.560599 97.028)
        (xy 143.562801 97.050359)
        (xy 143.562801 97.065795)
        (xy 143.544502 97.056014)
        (xy 143.5357 97.053344)
        (xy 143.5357 96.242049)
        (xy 143.667316 96.110434)
        (xy 143.735625 96.138728)
        (xy 143.949147 96.1812)
        (xy 144.166853 96.1812)
        (xy 144.380375 96.138728)
        (xy 144.581509 96.055416)
        (xy 144.762524 95.934465)
        (xy 144.916465 95.780524)
        (xy 145.037416 95.599509)
        (xy 145.06571 95.5312)
        (xy 155.138963 95.5312)
        (xy 156.325562 96.717799)
        (xy 152.315458 96.717799)
        (xy 152.293101 96.715597)
        (xy 152.270744 96.717799)
        (xy 152.203866 96.724386)
        (xy 152.118061 96.750415)
        (xy 152.038982 96.792683)
        (xy 151.969669 96.849567)
        (xy 151.955417 96.866933)
        (xy 149.122038 99.700313)
        (xy 149.122032 99.700318)
        (xy 149.04035 99.782)
        (xy 148.849658 99.724154)
        (xy 148.683616 99.7078)
        (xy 148.572584 99.7078)
        (xy 148.406542 99.724154)
        (xy 148.193499 99.78878)
        (xy 147.997157 99.893727)
        (xy 147.825061 100.034961)
        (xy 147.683827 100.207057)
        (xy 147.664797 100.24266)
        (xy 147.664797 99.301)
        (xy 147.658422 99.23627)
        (xy 147.63954 99.174027)
        (xy 147.608879 99.116663)
        (xy 147.567616 99.066384)
        (xy 147.517337 99.025121)
        (xy 147.459973 98.99446)
        (xy 147.39773 98.975578)
        (xy 147.333 98.969203)
        (xy 145.783 98.969203)
        (xy 145.71827 98.975578)
        (xy 145.659652 98.99336)
        (xy 145.677617 98.978617)
        (xy 145.71888 98.928337)
        (xy 145.749541 98.870974)
        (xy 145.768423 98.808731)
        (xy 145.774798 98.744)
        (xy 145.7732 98.25355)
        (xy 145.69065 98.171)
        (xy 145.0825 98.171)
        (xy 145.0825 98.99165)
        (xy 145.16505 99.0742)
        (xy 145.443 99.075798)
        (xy 145.507731 99.069423)
        (xy 145.566349 99.051641)
        (xy 145.548384 99.066384)
        (xy 145.507121 99.116663)
        (xy 145.47646 99.174027)
        (xy 145.457578 99.23627)
        (xy 145.451203 99.301)
        (xy 145.451203 99.344706)
        (xy 145.427337 99.32512)
        (xy 145.369974 99.294459)
        (xy 145.307731 99.275577)
        (xy 145.243 99.269202)
        (xy 145.01505 99.2708)
        (xy 144.9325 99.35335)
        (xy 144.9325 99.949)
        (xy 144.9525 99.949)
        (xy 144.9525 100.203)
        (xy 144.9325 100.203)
        (xy 144.9325 100.79865)
        (xy 145.01505 100.8812)
        (xy 145.243 100.882798)
        (xy 145.307731 100.876423)
        (xy 145.369974 100.857541)
        (xy 145.427337 100.82688)
        (xy 145.451203 100.807294)
        (xy 145.451203 100.851)
        (xy 145.457578 100.91573)
        (xy 145.47646 100.977973)
        (xy 145.507121 101.035337)
        (xy 145.548384 101.085616)
        (xy 145.598663 101.126879)
        (xy 145.656027 101.15754)
        (xy 145.71827 101.176422)
        (xy 145.783 101.182797)
        (xy 146.1028 101.182797)
        (xy 146.102801 101.859551)
        (xy 146.091065 101.863111)
        (xy 145.995882 101.913987)
        (xy 145.912454 101.982454)
        (xy 145.843987 102.065882)
        (xy 145.793111 102.161065)
        (xy 145.761782 102.264344)
        (xy 145.751203 102.37175)
        (xy 145.751203 102.80925)
        (xy 145.761782 102.916656)
        (xy 145.793111 103.019935)
        (xy 145.843987 103.115118)
        (xy 145.912454 103.198546)
        (xy 145.995882 103.267013)
        (xy 146.091065 103.317889)
        (xy 146.194344 103.349218)
        (xy 146.30175 103.359797)
        (xy 146.81425 103.359797)
        (xy 146.921656 103.349218)
        (xy 147.024935 103.317889)
        (xy 147.120118 103.267013)
        (xy 147.203546 103.198546)
        (xy 147.272013 103.115118)
        (xy 147.322889 103.019935)
        (xy 147.354218 102.916656)
        (xy 147.364797 102.80925)
        (xy 147.364797 102.37175)
        (xy 147.354218 102.264344)
        (xy 147.322889 102.161065)
        (xy 147.272013 102.065882)
        (xy 147.203546 101.982454)
        (xy 147.120118 101.913987)
        (xy 147.024935 101.863111)
        (xy 147.0132 101.859551)
        (xy 147.0132 101.182797)
        (xy 147.333 101.182797)
        (xy 147.39773 101.176422)
        (xy 147.459973 101.15754)
        (xy 147.517337 101.126879)
        (xy 147.53122 101.115486)
        (xy 147.57888 101.272601)
        (xy 147.683827 101.468943)
        (xy 147.825061 101.641039)
        (xy 147.997157 101.782273)
        (xy 148.1729 101.87621)
        (xy 148.172901 102.33979)
        (xy 147.997157 102.433727)
        (xy 147.825061 102.574961)
        (xy 147.683827 102.747057)
        (xy 147.57888 102.943399)
        (xy 147.514254 103.156442)
        (xy 147.492432 103.378)
        (xy 147.514254 103.599558)
        (xy 147.57888 103.812601)
        (xy 147.683827 104.008943)
        (xy 147.825061 104.181039)
        (xy 147.997157 104.322273)
        (xy 148.193499 104.42722)
        (xy 148.406542 104.491846)
        (xy 148.572584 104.5082)
        (xy 148.683616 104.5082)
        (xy 148.849658 104.491846)
        (xy 149.062701 104.42722)
        (xy 149.259043 104.322273)
        (xy 149.431139 104.181039)
        (xy 149.572373 104.008943)
        (xy 149.67732 103.812601)
        (xy 149.741946 103.599558)
        (xy 149.763768 103.378)
        (xy 149.741946 103.156442)
        (xy 149.67732 102.943399)
        (xy 149.572373 102.747057)
        (xy 149.431139 102.574961)
        (xy 149.259043 102.433727)
        (xy 149.0833 102.33979)
        (xy 149.0833 101.87621)
        (xy 149.259043 101.782273)
        (xy 149.431139 101.641039)
        (xy 149.572373 101.468943)
        (xy 149.67732 101.272601)
        (xy 149.741946 101.059558)
        (xy 149.763768 100.838)
        (xy 149.741946 100.616442)
        (xy 149.6841 100.42575)
        (xy 149.765782 100.344068)
        (xy 149.765787 100.344062)
        (xy 151.51073 98.599119)
        (xy 155.158752 98.599119)
        (xy 155.175041 98.652841)
        (xy 155.264886 98.855366)
        (xy 155.392515 99.036472)
        (xy 155.553024 99.189199)
        (xy 155.740244 99.307677)
        (xy 155.94698 99.387354)
        (xy 156.1211 99.338498)
        (xy 156.1211 98.425)
        (xy 155.208176 98.425)
        (xy 155.158752 98.599119)
        (xy 151.51073 98.599119)
        (xy 152.481651 97.628199)
        (xy 155.344121 97.628199)
        (xy 155.264886 97.740634)
        (xy 155.175041 97.943159)
        (xy 155.158752 97.996881)
        (xy 155.208176 98.171)
        (xy 156.1211 98.171)
        (xy 156.1211 98.151)
        (xy 156.3751 98.151)
        (xy 156.3751 98.171)
        (xy 156.3951 98.171)
        (xy 156.3951 98.425)
        (xy 156.3751 98.425)
        (xy 156.3751 99.338498)
        (xy 156.54922 99.387354)
        (xy 156.755956 99.307677)
        (xy 156.943176 99.189199)
        (xy 157.103685 99.036472)
        (xy 157.231314 98.855366)
        (xy 157.321159 98.652841)
        (xy 157.337448 98.599119)
        (xy 157.288025 98.425002)
        (xy 157.3783 98.425002)
        (xy 157.3783 98.406947)
        (xy 157.866801 98.895449)
        (xy 157.866801 99.068289)
        (xy 157.798491 99.096584)
        (xy 157.617476 99.217535)
        (xy 157.463535 99.371476)
        (xy 157.342584 99.552491)
        (xy 157.259272 99.753625)
        (xy 157.2168 99.967147)
        (xy 157.2168 100.184853)
        (xy 157.238312 100.293004)
        (xy 157.192373 100.207057)
        (xy 157.051139 100.034961)
        (xy 156.879043 99.893727)
        (xy 156.682701 99.78878)
        (xy 156.469658 99.724154)
        (xy 156.303616 99.7078)
        (xy 156.192584 99.7078)
        (xy 156.026542 99.724154)
        (xy 155.813499 99.78878)
        (xy 155.617157 99.893727)
        (xy 155.445061 100.034961)
        (xy 155.303827 100.207057)
        (xy 155.19888 100.403399)
        (xy 155.134254 100.616442)
        (xy 155.112432 100.838)
        (xy 155.134254 101.059558)
        (xy 155.19888 101.272601)
        (xy 155.303827 101.468943)
        (xy 155.445061 101.641039)
        (xy 155.617157 101.782273)
        (xy 155.813499 101.88722)
        (xy 156.026542 101.951846)
        (xy 156.192584 101.9682)
        (xy 156.303616 101.9682)
        (xy 156.469658 101.951846)
        (xy 156.66035 101.894)
        (xy 156.710415 101.944065)
        (xy 156.724667 101.961431)
        (xy 156.79398 102.018315)
        (xy 156.873059 102.060583)
        (xy 156.958864 102.086612)
        (xy 157.025742 102.093199)
        (xy 157.025751 102.093199)
        (xy 157.048098 102.0954)
        (xy 157.070445 102.093199)
        (xy 158.020522 102.093199)
        (xy 157.253083 102.860638)
        (xy 157.192373 102.747057)
        (xy 157.051139 102.574961)
        (xy 156.879043 102.433727)
        (xy 156.682701 102.32878)
        (xy 156.469658 102.264154)
        (xy 156.303616 102.2478)
        (xy 156.192584 102.2478)
        (xy 156.026542 102.264154)
        (xy 155.813499 102.32878)
        (xy 155.617157 102.433727)
        (xy 155.445061 102.574961)
        (xy 155.303827 102.747057)
        (xy 155.19888 102.943399)
        (xy 155.134254 103.156442)
        (xy 155.112432 103.378)
        (xy 155.134254 103.599558)
        (xy 155.19888 103.812601)
        (xy 155.303827 104.008943)
        (xy 155.445061 104.181039)
        (xy 155.617157 104.322273)
        (xy 155.813499 104.42722)
        (xy 156.026542 104.491846)
        (xy 156.192584 104.5082)
        (xy 156.303616 104.5082)
        (xy 156.469658 104.491846)
        (xy 156.682701 104.42722)
        (xy 156.879043 104.322273)
        (xy 157.051139 104.181039)
        (xy 157.192373 104.008943)
        (xy 157.28631 103.8332)
        (xy 157.357121 103.8332)
        (xy 157.37947 103.835401)
        (xy 157.401819 103.8332)
        (xy 157.401827 103.8332)
        (xy 157.468705 103.826613)
        (xy 157.55451 103.800584)
        (xy 157.633589 103.758316)
        (xy 157.702902 103.701432)
        (xy 157.717158 103.684061)
        (xy 161.128066 100.273154)
        (xy 161.145432 100.258902)
        (xy 161.202316 100.189589)
        (xy 161.244584 100.11051)
        (xy 161.270613 100.024705)
        (xy 161.2772 99.957827)
        (xy 161.279402 99.93547)
        (xy 161.2772 99.913113)
        (xy 161.2772 96.08371)
        (xy 161.345509 96.055416)
        (xy 161.526524 95.934465)
        (xy 161.680465 95.780524)
        (xy 161.801416 95.599509)
        (xy 161.884728 95.398375)
        (xy 161.9272 95.184853)
        (xy 161.9272 94.967147)
        (xy 161.884728 94.753625)
        (xy 161.801416 94.552491)
        (xy 161.680465 94.371476)
        (xy 161.644189 94.3352)
        (xy 163.982801 94.3352)
      )
    )
  )
)
