(kicad_sch (version 20230121) (generator eeschema)

  (uuid e63e39d7-6ac0-4ffd-8aa3-1841a4541b55)

  (paper "A4")

  (lib_symbols
    (symbol "Amplifier_Operational:LMC6482" (pin_names (offset 0.127)) (in_bom yes) (on_board yes)
      (property "Reference" "U" (at 0 5.08 0)
        (effects (font (size 1.27 1.27)) (justify left))
      )
      (property "Value" "LMC6482" (at 0 -5.08 0)
        (effects (font (size 1.27 1.27)) (justify left))
      )
      (property "Footprint" "" (at 0 0 0)
        (effects (font (size 1.27 1.27)) hide)
      )
      (property "Datasheet" "http://www.ti.com/lit/ds/symlink/lmc6482.pdf" (at 0 0 0)
        (effects (font (size 1.27 1.27)) hide)
      )
      (property "ki_locked" "" (at 0 0 0)
        (effects (font (size 1.27 1.27)))
      )
      (property "ki_keywords" "dual opamp" (at 0 0 0)
        (effects (font (size 1.27 1.27)) hide)
      )
      (property "ki_description" "Dual CMOS Rail-to-Rail Input and Output Operational Amplifier, DIP-8/SOIC-8, SSOP-8" (at 0 0 0)
        (effects (font (size 1.27 1.27)) hide)
      )
      (property "ki_fp_filters" "SOIC*3.9x4.9mm*P1.27mm* DIP*W7.62mm* TO*99* OnSemi*Micro8* TSSOP*3x3mm*P0.65mm* TSSOP*4.4x3mm*P0.65mm* MSOP*3x3mm*P0.65mm* SSOP*3.9x4.9mm*P0.635mm* LFCSP*2x2mm*P0.5mm* *SIP* SOIC*5.3x6.2mm*P1.27mm*" (at 0 0 0)
        (effects (font (size 1.27 1.27)) hide)
      )
      (symbol "LMC6482_1_1"
        (polyline
          (pts
            (xy -5.08 5.08)
            (xy 5.08 0)
            (xy -5.08 -5.08)
            (xy -5.08 5.08)
          )
          (stroke (width 0.254) (type default))
          (fill (type background))
        )
        (pin output line (at 7.62 0 180) (length 2.54)
          (name "~" (effects (font (size 1.27 1.27))))
          (number "1" (effects (font (size 1.27 1.27))))
        )
        (pin input line (at -7.62 -2.54 0) (length 2.54)
          (name "-" (effects (font (size 1.27 1.27))))
          (number "2" (effects (font (size 1.27 1.27))))
        )
        (pin input line (at -7.62 2.54 0) (length 2.54)
          (name "+" (effects (font (size 1.27 1.27))))
          (number "3" (effects (font (size 1.27 1.27))))
        )
      )
      (symbol "LMC6482_2_1"
        (polyline
          (pts
            (xy -5.08 5.08)
            (xy 5.08 0)
            (xy -5.08 -5.08)
            (xy -5.08 5.08)
          )
          (stroke (width 0.254) (type default))
          (fill (type background))
        )
        (pin input line (at -7.62 2.54 0) (length 2.54)
          (name "+" (effects (font (size 1.27 1.27))))
          (number "5" (effects (font (size 1.27 1.27))))
        )
        (pin input line (at -7.62 -2.54 0) (length 2.54)
          (name "-" (effects (font (size 1.27 1.27))))
          (number "6" (effects (font (size 1.27 1.27))))
        )
        (pin output line (at 7.62 0 180) (length 2.54)
          (name "~" (effects (font (size 1.27 1.27))))
          (number "7" (effects (font (size 1.27 1.27))))
        )
      )
      (symbol "LMC6482_3_1"
        (pin power_in line (at -2.54 -7.62 90) (length 3.81)
          (name "V-" (effects (font (size 1.27 1.27))))
          (number "4" (effects (font (size 1.27 1.27))))
        )
        (pin power_in line (at -2.54 7.62 270) (length 3.81)
          (name "V+" (effects (font (size 1.27 1.27))))
          (number "8" (effects (font (size 1.27 1.27))))
        )
      )
    )
    (symbol "Connector_Generic:Conn_01x03" (pin_names (offset 1.016) hide) (in_bom yes) (on_board yes)
      (property "Reference" "J" (at 0 5.08 0)
        (effects (font (size 1.27 1.27)))
      )
      (property "Value" "Conn_01x03" (at 0 -5.08 0)
        (effects (font (size 1.27 1.27)))
      )
      (property "Footprint" "" (at 0 0 0)
        (effects (font (size 1.27 1.27)) hide)
      )
      (property "Datasheet" "~" (at 0 0 0)
        (effects (font (size 1.27 1.27)) hide)
      )
      (property "ki_keywords" "connector" (at 0 0 0)
        (effects (font (size 1.27 1.27)) hide)
      )
      (property "ki_description" "Generic connector, single row, 01x03, script generated (kicad-library-utils/schlib/autogen/connector/)" (at 0 0 0)
        (effects (font (size 1.27 1.27)) hide)
      )
      (property "ki_fp_filters" "Connector*:*_1x??_*" (at 0 0 0)
        (effects (font (size 1.27 1.27)) hide)
      )
      (symbol "Conn_01x03_1_1"
        (rectangle (start -1.27 -2.413) (end 0 -2.667)
          (stroke (width 0.1524) (type default))
          (fill (type none))
        )
        (rectangle (start -1.27 0.127) (end 0 -0.127)
          (stroke (width 0.1524) (type default))
          (fill (type none))
        )
        (rectangle (start -1.27 2.667) (end 0 2.413)
          (stroke (width 0.1524) (type default))
          (fill (type none))
        )
        (rectangle (start -1.27 3.81) (end 1.27 -3.81)
          (stroke (width 0.254) (type default))
          (fill (type background))
        )
        (pin passive line (at -5.08 2.54 0) (length 3.81)
          (name "Pin_1" (effects (font (size 1.27 1.27))))
          (number "1" (effects (font (size 1.27 1.27))))
        )
        (pin passive line (at -5.08 0 0) (length 3.81)
          (name "Pin_2" (effects (font (size 1.27 1.27))))
          (number "2" (effects (font (size 1.27 1.27))))
        )
        (pin passive line (at -5.08 -2.54 0) (length 3.81)
          (name "Pin_3" (effects (font (size 1.27 1.27))))
          (number "3" (effects (font (size 1.27 1.27))))
        )
      )
    )
    (symbol "Device:C_Small" (pin_numbers hide) (pin_names (offset 0.254) hide) (in_bom yes) (on_board yes)
      (property "Reference" "C" (at 0.254 1.778 0)
        (effects (font (size 1.27 1.27)) (justify left))
      )
      (property "Value" "C_Small" (at 0.254 -2.032 0)
        (effects (font (size 1.27 1.27)) (justify left))
      )
      (property "Footprint" "" (at 0 0 0)
        (effects (font (size 1.27 1.27)) hide)
      )
      (property "Datasheet" "~" (at 0 0 0)
        (effects (font (size 1.27 1.27)) hide)
      )
      (property "ki_keywords" "capacitor cap" (at 0 0 0)
        (effects (font (size 1.27 1.27)) hide)
      )
      (property "ki_description" "Unpolarized capacitor, small symbol" (at 0 0 0)
        (effects (font (size 1.27 1.27)) hide)
      )
      (property "ki_fp_filters" "C_*" (at 0 0 0)
        (effects (font (size 1.27 1.27)) hide)
      )
      (symbol "C_Small_0_1"
        (polyline
          (pts
            (xy -1.524 -0.508)
            (xy 1.524 -0.508)
          )
          (stroke (width 0.3302) (type default))
          (fill (type none))
        )
        (polyline
          (pts
            (xy -1.524 0.508)
            (xy 1.524 0.508)
          )
          (stroke (width 0.3048) (type default))
          (fill (type none))
        )
      )
      (symbol "C_Small_1_1"
        (pin passive line (at 0 2.54 270) (length 2.032)
          (name "~" (effects (font (size 1.27 1.27))))
          (number "1" (effects (font (size 1.27 1.27))))
        )
        (pin passive line (at 0 -2.54 90) (length 2.032)
          (name "~" (effects (font (size 1.27 1.27))))
          (number "2" (effects (font (size 1.27 1.27))))
        )
      )
    )
    (symbol "Device:R_Potentiometer" (pin_names (offset 1.016) hide) (in_bom yes) (on_board yes)
      (property "Reference" "RV" (at -4.445 0 90)
        (effects (font (size 1.27 1.27)))
      )
      (property "Value" "R_Potentiometer" (at -2.54 0 90)
        (effects (font (size 1.27 1.27)))
      )
      (property "Footprint" "" (at 0 0 0)
        (effects (font (size 1.27 1.27)) hide)
      )
      (property "Datasheet" "~" (at 0 0 0)
        (effects (font (size 1.27 1.27)) hide)
      )
      (property "ki_keywords" "resistor variable" (at 0 0 0)
        (effects (font (size 1.27 1.27)) hide)
      )
      (property "ki_description" "Potentiometer" (at 0 0 0)
        (effects (font (size 1.27 1.27)) hide)
      )
      (property "ki_fp_filters" "Potentiometer*" (at 0 0 0)
        (effects (font (size 1.27 1.27)) hide)
      )
      (symbol "R_Potentiometer_0_1"
        (polyline
          (pts
            (xy 2.54 0)
            (xy 1.524 0)
          )
          (stroke (width 0) (type default))
          (fill (type none))
        )
        (polyline
          (pts
            (xy 1.143 0)
            (xy 2.286 0.508)
            (xy 2.286 -0.508)
            (xy 1.143 0)
          )
          (stroke (width 0) (type default))
          (fill (type outline))
        )
        (rectangle (start 1.016 2.54) (end -1.016 -2.54)
          (stroke (width 0.254) (type default))
          (fill (type none))
        )
      )
      (symbol "R_Potentiometer_1_1"
        (pin passive line (at 0 3.81 270) (length 1.27)
          (name "1" (effects (font (size 1.27 1.27))))
          (number "1" (effects (font (size 1.27 1.27))))
        )
        (pin passive line (at 3.81 0 180) (length 1.27)
          (name "2" (effects (font (size 1.27 1.27))))
          (number "2" (effects (font (size 1.27 1.27))))
        )
        (pin passive line (at 0 -3.81 90) (length 1.27)
          (name "3" (effects (font (size 1.27 1.27))))
          (number "3" (effects (font (size 1.27 1.27))))
        )
      )
    )
    (symbol "Device:R_Small" (pin_numbers hide) (pin_names (offset 0.254) hide) (in_bom yes) (on_board yes)
      (property "Reference" "R" (at 0.762 0.508 0)
        (effects (font (size 1.27 1.27)) (justify left))
      )
      (property "Value" "R_Small" (at 0.762 -1.016 0)
        (effects (font (size 1.27 1.27)) (justify left))
      )
      (property "Footprint" "" (at 0 0 0)
        (effects (font (size 1.27 1.27)) hide)
      )
      (property "Datasheet" "~" (at 0 0 0)
        (effects (font (size 1.27 1.27)) hide)
      )
      (property "ki_keywords" "R resistor" (at 0 0 0)
        (effects (font (size 1.27 1.27)) hide)
      )
      (property "ki_description" "Resistor, small symbol" (at 0 0 0)
        (effects (font (size 1.27 1.27)) hide)
      )
      (property "ki_fp_filters" "R_*" (at 0 0 0)
        (effects (font (size 1.27 1.27)) hide)
      )
      (symbol "R_Small_0_1"
        (rectangle (start -0.762 1.778) (end 0.762 -1.778)
          (stroke (width 0.2032) (type default))
          (fill (type none))
        )
      )
      (symbol "R_Small_1_1"
        (pin passive line (at 0 2.54 270) (length 0.762)
          (name "~" (effects (font (size 1.27 1.27))))
          (number "1" (effects (font (size 1.27 1.27))))
        )
        (pin passive line (at 0 -2.54 90) (length 0.762)
          (name "~" (effects (font (size 1.27 1.27))))
          (number "2" (effects (font (size 1.27 1.27))))
        )
      )
    )
    (symbol "power:+5V" (power) (pin_names (offset 0)) (in_bom yes) (on_board yes)
      (property "Reference" "#PWR" (at 0 -3.81 0)
        (effects (font (size 1.27 1.27)) hide)
      )
      (property "Value" "+5V" (at 0 3.556 0)
        (effects (font (size 1.27 1.27)))
      )
      (property "Footprint" "" (at 0 0 0)
        (effects (font (size 1.27 1.27)) hide)
      )
      (property "Datasheet" "" (at 0 0 0)
        (effects (font (size 1.27 1.27)) hide)
      )
      (property "ki_keywords" "power-flag" (at 0 0 0)
        (effects (font (size 1.27 1.27)) hide)
      )
      (property "ki_description" "Power symbol creates a global label with name \"+5V\"" (at 0 0 0)
        (effects (font (size 1.27 1.27)) hide)
      )
      (symbol "+5V_0_1"
        (polyline
          (pts
            (xy -0.762 1.27)
            (xy 0 2.54)
          )
          (stroke (width 0) (type default))
          (fill (type none))
        )
        (polyline
          (pts
            (xy 0 0)
            (xy 0 2.54)
          )
          (stroke (width 0) (type default))
          (fill (type none))
        )
        (polyline
          (pts
            (xy 0 2.54)
            (xy 0.762 1.27)
          )
          (stroke (width 0) (type default))
          (fill (type none))
        )
      )
      (symbol "+5V_1_1"
        (pin power_in line (at 0 0 90) (length 0) hide
          (name "+5V" (effects (font (size 1.27 1.27))))
          (number "1" (effects (font (size 1.27 1.27))))
        )
      )
    )
    (symbol "power:GND" (power) (pin_names (offset 0)) (in_bom yes) (on_board yes)
      (property "Reference" "#PWR" (at 0 -6.35 0)
        (effects (font (size 1.27 1.27)) hide)
      )
      (property "Value" "GND" (at 0 -3.81 0)
        (effects (font (size 1.27 1.27)))
      )
      (property "Footprint" "" (at 0 0 0)
        (effects (font (size 1.27 1.27)) hide)
      )
      (property "Datasheet" "" (at 0 0 0)
        (effects (font (size 1.27 1.27)) hide)
      )
      (property "ki_keywords" "power-flag" (at 0 0 0)
        (effects (font (size 1.27 1.27)) hide)
      )
      (property "ki_description" "Power symbol creates a global label with name \"GND\" , ground" (at 0 0 0)
        (effects (font (size 1.27 1.27)) hide)
      )
      (symbol "GND_0_1"
        (polyline
          (pts
            (xy 0 0)
            (xy 0 -1.27)
            (xy 1.27 -1.27)
            (xy 0 -2.54)
            (xy -1.27 -1.27)
            (xy 0 -1.27)
          )
          (stroke (width 0) (type default))
          (fill (type none))
        )
      )
      (symbol "GND_1_1"
        (pin power_in line (at 0 0 270) (length 0) hide
          (name "GND" (effects (font (size 1.27 1.27))))
          (number "1" (effects (font (size 1.27 1.27))))
        )
      )
    )
  )

  (junction (at 125.73 96.52) (diameter 0) (color 0 0 0 0)
    (uuid 0867287d-2e6a-4d69-a366-c29f88198f2b)
  )
  (junction (at 168.91 127) (diameter 0) (color 0 0 0 0)
    (uuid 13abf99d-5265-4779-8973-e94370fd18ff)
  )
  (junction (at 185.42 110.49) (diameter 0) (color 0 0 0 0)
    (uuid 23bb2798-d93a-4696-a962-c305c4298a0c)
  )
  (junction (at 125.73 101.6) (diameter 0) (color 0 0 0 0)
    (uuid 35354519-a28c-40c4-befd-0943e98dea53)
  )
  (junction (at 161.29 138.43) (diameter 0) (color 0 0 0 0)
    (uuid 46918595-4a45-48e8-84c0-961b4db7f35f)
  )
  (junction (at 153.67 97.79) (diameter 0) (color 0 0 0 0)
    (uuid 712d6a7d-2b62-464f-b745-fd2a6b0187f6)
  )
  (junction (at 85.09 62.23) (diameter 0) (color 0 0 0 0)
    (uuid 9a9f2d82-f64d-4264-8bec-c182528fc4de)
  )
  (junction (at 85.09 46.99) (diameter 0) (color 0 0 0 0)
    (uuid b6bcc3cf-50de-4a33-bc41-678825c1ecf2)
  )

  (wire (pts (xy 138.43 88.9) (xy 138.43 95.25))
    (stroke (width 0) (type default))
    (uuid 0088d107-13d8-496c-8da6-7bbeb9d096b0)
  )
  (wire (pts (xy 161.29 138.43) (xy 161.29 137.16))
    (stroke (width 0) (type default))
    (uuid 0a3cc030-c9dd-4d74-9d50-715ed2b361a2)
  )
  (wire (pts (xy 123.19 101.6) (xy 125.73 101.6))
    (stroke (width 0) (type default))
    (uuid 0f41a909-27c4-4be2-9d5e-9ae2108c8ff5)
  )
  (wire (pts (xy 123.19 100.33) (xy 123.19 101.6))
    (stroke (width 0) (type default))
    (uuid 1b54105e-6590-4d26-a763-ecfcf81eedc4)
  )
  (wire (pts (xy 82.55 52.07) (xy 82.55 46.99))
    (stroke (width 0) (type default))
    (uuid 213a2af1-412b-47f4-ab3b-c5f43b6be7a6)
  )
  (wire (pts (xy 57.15 55.88) (xy 59.69 55.88))
    (stroke (width 0) (type default))
    (uuid 2bef89de-08c7-4a13-9d85-67948d429ca0)
  )
  (wire (pts (xy 57.15 53.34) (xy 67.31 53.34))
    (stroke (width 0) (type default))
    (uuid 2d6718e7-f18d-444d-9792-ddf1a113460c)
  )
  (wire (pts (xy 160.02 97.79) (xy 153.67 97.79))
    (stroke (width 0) (type default))
    (uuid 3172f2e2-18d2-4a80-ae30-5707b3409798)
  )
  (wire (pts (xy 170.18 132.08) (xy 170.18 127))
    (stroke (width 0) (type default))
    (uuid 32667662-ae86-4904-b198-3e95f11851bf)
  )
  (wire (pts (xy 138.43 100.33) (xy 137.16 100.33))
    (stroke (width 0) (type default))
    (uuid 38f2d955-ea7a-4a21-aba6-02ae23f1bd4a)
  )
  (wire (pts (xy 121.92 95.25) (xy 121.92 88.9))
    (stroke (width 0) (type default))
    (uuid 417f13e4-c121-485a-a6b5-8b55e70350b8)
  )
  (wire (pts (xy 82.55 57.15) (xy 82.55 62.23))
    (stroke (width 0) (type default))
    (uuid 43891a3c-749f-498d-ba99-685a27689b0d)
  )
  (wire (pts (xy 168.91 113.03) (xy 170.18 113.03))
    (stroke (width 0) (type default))
    (uuid 4e3d7c0d-12e3-42f2-b944-e4bcdbbcac2a)
  )
  (wire (pts (xy 185.42 97.79) (xy 185.42 110.49))
    (stroke (width 0) (type default))
    (uuid 51c4dc0a-5b9f-4edf-a83f-4a12881e42ef)
  )
  (wire (pts (xy 85.09 46.99) (xy 87.63 46.99))
    (stroke (width 0) (type default))
    (uuid 5740c959-93d8-47fd-8f68-62f0109e753d)
  )
  (wire (pts (xy 120.65 97.79) (xy 123.19 97.79))
    (stroke (width 0) (type default))
    (uuid 587a157d-dedf-4558-a037-1a94bbba1848)
  )
  (wire (pts (xy 165.1 127) (xy 168.91 127))
    (stroke (width 0) (type default))
    (uuid 5b2b5c7d-f943-4634-9f0a-e9561705c49d)
  )
  (wire (pts (xy 125.73 101.6) (xy 125.73 102.87))
    (stroke (width 0) (type default))
    (uuid 632acde9-b7fd-4f04-8cb4-d2cbb06b3595)
  )
  (wire (pts (xy 137.16 100.33) (xy 137.16 104.14))
    (stroke (width 0) (type default))
    (uuid 6b25f522-8e2d-4cd8-9d5d-a2b80f60133b)
  )
  (wire (pts (xy 59.69 55.88) (xy 59.69 58.42))
    (stroke (width 0) (type default))
    (uuid 6ca3c38c-4e71-4202-b6c1-1b25f04a27ae)
  )
  (wire (pts (xy 125.73 95.25) (xy 125.73 96.52))
    (stroke (width 0) (type default))
    (uuid 75286985-9fa5-4d30-89c5-493b6e63cd66)
  )
  (wire (pts (xy 85.09 64.77) (xy 85.09 62.23))
    (stroke (width 0) (type default))
    (uuid 786b6072-5772-4bc1-8eeb-6c4e19f2a91b)
  )
  (wire (pts (xy 123.19 96.52) (xy 125.73 96.52))
    (stroke (width 0) (type default))
    (uuid 78f88cf6-751c-4e9b-ae75-fb8b6d44ff39)
  )
  (wire (pts (xy 85.09 44.45) (xy 85.09 46.99))
    (stroke (width 0) (type default))
    (uuid 7e08f2a4-63d6-468b-bd8b-ec607077e023)
  )
  (wire (pts (xy 161.29 115.57) (xy 161.29 116.84))
    (stroke (width 0) (type default))
    (uuid 8322f275-268c-4e87-a69f-4cfbf05e747f)
  )
  (wire (pts (xy 167.64 97.79) (xy 185.42 97.79))
    (stroke (width 0) (type default))
    (uuid 842e430f-0c35-45f3-a0b5-95ae7b7ae388)
  )
  (wire (pts (xy 185.42 110.49) (xy 189.23 110.49))
    (stroke (width 0) (type default))
    (uuid 94c158d1-8503-4553-b511-bf42f506c2a8)
  )
  (wire (pts (xy 163.83 107.95) (xy 170.18 107.95))
    (stroke (width 0) (type default))
    (uuid 98e81e80-1f85-4152-be3f-99785ea97751)
  )
  (wire (pts (xy 161.29 132.08) (xy 161.29 130.81))
    (stroke (width 0) (type default))
    (uuid 9c8ccb2a-b1e9-4f2c-94fe-301b5975277e)
  )
  (wire (pts (xy 161.29 140.97) (xy 161.29 138.43))
    (stroke (width 0) (type default))
    (uuid 9ccf03e8-755a-4cd9-96fc-30e1d08fa253)
  )
  (wire (pts (xy 120.65 95.25) (xy 121.92 95.25))
    (stroke (width 0) (type default))
    (uuid 9dab0cb7-2557-4419-963b-5ae736517f62)
  )
  (wire (pts (xy 161.29 121.92) (xy 161.29 123.19))
    (stroke (width 0) (type default))
    (uuid a03e565f-d8cd-4032-aae3-b7327d4143dd)
  )
  (wire (pts (xy 170.18 127) (xy 168.91 127))
    (stroke (width 0) (type default))
    (uuid a05d7640-f2f6-4ba7-8c51-5a4af431fc13)
  )
  (wire (pts (xy 170.18 137.16) (xy 170.18 138.43))
    (stroke (width 0) (type default))
    (uuid a7520ad3-0f8b-4788-92d4-8ffb277041e6)
  )
  (wire (pts (xy 170.18 138.43) (xy 161.29 138.43))
    (stroke (width 0) (type default))
    (uuid a795f1ba-cdd5-4cc5-9a52-08586e982934)
  )
  (wire (pts (xy 120.65 100.33) (xy 123.19 100.33))
    (stroke (width 0) (type default))
    (uuid afd3dbad-e7a8-4e4c-b77c-4065a69aefa2)
  )
  (wire (pts (xy 163.83 101.6) (xy 163.83 107.95))
    (stroke (width 0) (type default))
    (uuid b3d08afa-f296-4e3b-8825-73b6331d35bf)
  )
  (wire (pts (xy 85.09 62.23) (xy 87.63 62.23))
    (stroke (width 0) (type default))
    (uuid b60c50d1-225e-415c-8712-7acb5e3dc8ea)
  )
  (wire (pts (xy 123.19 97.79) (xy 123.19 96.52))
    (stroke (width 0) (type default))
    (uuid c19dbe3c-ced0-48f7-a91d-777569cfb936)
  )
  (wire (pts (xy 121.92 88.9) (xy 138.43 88.9))
    (stroke (width 0) (type default))
    (uuid c201e1b2-fc01-4110-bdaa-a33290468c83)
  )
  (wire (pts (xy 168.91 127) (xy 168.91 113.03))
    (stroke (width 0) (type default))
    (uuid c70d9ef3-bfeb-47e0-a1e1-9aeba3da7864)
  )
  (wire (pts (xy 82.55 62.23) (xy 85.09 62.23))
    (stroke (width 0) (type default))
    (uuid cbc539d2-6a10-4052-9b7a-f10326dcac67)
  )
  (wire (pts (xy 82.55 46.99) (xy 85.09 46.99))
    (stroke (width 0) (type default))
    (uuid d2de4093-1fc2-4bc1-94b6-4d0fe3426c6f)
  )
  (wire (pts (xy 137.16 104.14) (xy 153.67 104.14))
    (stroke (width 0) (type default))
    (uuid dabe541b-b164-4180-97a4-5ca761b86800)
  )
  (wire (pts (xy 153.67 104.14) (xy 153.67 97.79))
    (stroke (width 0) (type default))
    (uuid e12e827e-36be-4503-8eef-6fc7e8bc5d49)
  )
  (wire (pts (xy 67.31 53.34) (xy 67.31 50.8))
    (stroke (width 0) (type default))
    (uuid f144a97d-c3f0-423f-b0a9-3f7dbc42478b)
  )

  (label "OUTPUT" (at 57.15 50.8 0) (fields_autoplaced)
    (effects (font (size 1.27 1.27)) (justify left bottom))
    (uuid 483f60da-14d7-4f88-8d01-3f9f30784c70)
  )
  (label "OUTPUT" (at 189.23 110.49 0) (fields_autoplaced)
    (effects (font (size 1.27 1.27)) (justify left bottom))
    (uuid 78cbdd6c-4878-4cc5-9a58-0e506478e37d)
  )

  (symbol (lib_id "Amplifier_Operational:LMC6482") (at 177.8 110.49 0) (mirror x) (unit 1)
    (in_bom yes) (on_board yes) (dnp no)
    (uuid 00000000-0000-0000-0000-00005d4c981b)
    (property "Reference" "U1" (at 177.8 101.1682 0)
      (effects (font (size 1.27 1.27)))
    )
    (property "Value" "LMC6482" (at 177.8 103.4796 0)
      (effects (font (size 1.27 1.27)))
    )
    (property "Footprint" "Package_DIP:DIP-8_W7.62mm" (at 177.8 110.49 0)
      (effects (font (size 1.27 1.27)) hide)
    )
    (property "Datasheet" "http://www.ti.com/lit/ds/symlink/lmc6482.pdf" (at 177.8 110.49 0)
      (effects (font (size 1.27 1.27)) hide)
    )
    (pin "1" (uuid 6c61a509-a062-4dde-9342-bc7aff96d88e))
    (pin "2" (uuid 2295af9e-64ec-440b-840f-94c96345d387))
    (pin "3" (uuid fdb9bc3f-86d7-42a0-9213-a0ac1ada5eea))
    (pin "5" (uuid 6bfcaf14-3f8c-4d77-bd7b-4aff0bf08781))
    (pin "6" (uuid 9098e663-618b-4f4f-9b4b-1c2916443044))
    (pin "7" (uuid 34e5c5a9-ae06-465e-aa3c-f2916d76288b))
    (pin "4" (uuid 03ba65c2-a559-4c33-9e28-71db4377905e))
    (pin "8" (uuid d0cc1ac6-4b90-401f-bbcd-d3eb46b778b3))
    (instances
      (project "Current_Clamp"
        (path "/e63e39d7-6ac0-4ffd-8aa3-1841a4541b55"
          (reference "U1") (unit 1)
        )
      )
    )
  )

  (symbol (lib_id "Amplifier_Operational:LMC6482") (at 146.05 97.79 0) (unit 2)
    (in_bom yes) (on_board yes) (dnp no)
    (uuid 00000000-0000-0000-0000-00005d4cb317)
    (property "Reference" "U1" (at 146.05 88.4682 0)
      (effects (font (size 1.27 1.27)))
    )
    (property "Value" "LMC6482" (at 146.05 90.7796 0)
      (effects (font (size 1.27 1.27)))
    )
    (property "Footprint" "Package_DIP:DIP-8_W7.62mm" (at 146.05 97.79 0)
      (effects (font (size 1.27 1.27)) hide)
    )
    (property "Datasheet" "http://www.ti.com/lit/ds/symlink/lmc6482.pdf" (at 146.05 97.79 0)
      (effects (font (size 1.27 1.27)) hide)
    )
    (pin "1" (uuid 78c00d1a-566a-4ffa-9ad7-fbee838a9c0d))
    (pin "2" (uuid 74d20a6b-200e-437f-9b6e-4d8e56dd23dc))
    (pin "3" (uuid f2284911-3af8-459f-abce-0d21ffed94b2))
    (pin "5" (uuid 3e849834-3e6a-4eaf-ad7a-3df9ed8b2978))
    (pin "6" (uuid c0b06084-6d6e-4812-97c8-d8db398a291e))
    (pin "7" (uuid 998da11c-d062-4450-9749-4c8f6f3f2c2c))
    (pin "4" (uuid c8a1a380-0095-4f39-bc4e-bee701b2447e))
    (pin "8" (uuid 6cf79caa-ddf3-45b8-8914-cdf37082765a))
    (instances
      (project "Current_Clamp"
        (path "/e63e39d7-6ac0-4ffd-8aa3-1841a4541b55"
          (reference "U1") (unit 2)
        )
      )
    )
  )

  (symbol (lib_id "Amplifier_Operational:LMC6482") (at 90.17 54.61 0) (unit 3)
    (in_bom yes) (on_board yes) (dnp no)
    (uuid 00000000-0000-0000-0000-00005d4ccad8)
    (property "Reference" "U1" (at 89.1032 53.4416 0)
      (effects (font (size 1.27 1.27)) (justify left))
    )
    (property "Value" "LMC6482" (at 89.1032 55.753 0)
      (effects (font (size 1.27 1.27)) (justify left))
    )
    (property "Footprint" "Package_DIP:DIP-8_W7.62mm" (at 90.17 54.61 0)
      (effects (font (size 1.27 1.27)) hide)
    )
    (property "Datasheet" "http://www.ti.com/lit/ds/symlink/lmc6482.pdf" (at 90.17 54.61 0)
      (effects (font (size 1.27 1.27)) hide)
    )
    (pin "1" (uuid 4d3eefbd-83a9-49d5-b0f6-52cd42c34a9d))
    (pin "2" (uuid 582c593a-15c6-47ef-8dc9-7b88ca30fb76))
    (pin "3" (uuid 8765cf8a-f1eb-498b-8bc8-02449d04a25f))
    (pin "5" (uuid f3ffa59e-dfc0-4cd5-8643-25f4cde3e80d))
    (pin "6" (uuid 5bc6ead7-52a2-4510-a963-1fc58ded9629))
    (pin "7" (uuid 84c901b7-77d9-48d7-af57-7fb0c32f55a8))
    (pin "4" (uuid 91e7d8a4-683b-422a-a3df-ae5bf76c9435))
    (pin "8" (uuid 13eca25e-f5c0-41b2-8988-410cadcf49c5))
    (instances
      (project "Current_Clamp"
        (path "/e63e39d7-6ac0-4ffd-8aa3-1841a4541b55"
          (reference "U1") (unit 3)
        )
      )
    )
  )

  (symbol (lib_id "Connector_Generic:Conn_01x03") (at 52.07 53.34 180) (unit 1)
    (in_bom yes) (on_board yes) (dnp no)
    (uuid 00000000-0000-0000-0000-00005d4d107c)
    (property "Reference" "J1" (at 49.53 52.07 0)
      (effects (font (size 1.27 1.27)))
    )
    (property "Value" "Conn_01x03" (at 44.45 54.61 0)
      (effects (font (size 1.27 1.27)))
    )
    (property "Footprint" "Connector_PinHeader_2.54mm:PinHeader_1x03_P2.54mm_Vertical" (at 52.07 53.34 0)
      (effects (font (size 1.27 1.27)) hide)
    )
    (property "Datasheet" "~" (at 52.07 53.34 0)
      (effects (font (size 1.27 1.27)) hide)
    )
    (pin "1" (uuid bea485c4-3ce9-4a63-8340-c0f6eee824dd))
    (pin "2" (uuid 74495a3f-9f01-4441-977e-348554694c47))
    (pin "3" (uuid efbb1cf2-593e-4ceb-997a-83e340ed003c))
    (instances
      (project "Current_Clamp"
        (path "/e63e39d7-6ac0-4ffd-8aa3-1841a4541b55"
          (reference "J1") (unit 1)
        )
      )
    )
  )

  (symbol (lib_id "power:GND") (at 59.69 58.42 0) (unit 1)
    (in_bom yes) (on_board yes) (dnp no)
    (uuid 00000000-0000-0000-0000-00005d4d21ba)
    (property "Reference" "#PWR0101" (at 59.69 64.77 0)
      (effects (font (size 1.27 1.27)) hide)
    )
    (property "Value" "GND" (at 59.817 62.8142 0)
      (effects (font (size 1.27 1.27)))
    )
    (property "Footprint" "" (at 59.69 58.42 0)
      (effects (font (size 1.27 1.27)) hide)
    )
    (property "Datasheet" "" (at 59.69 58.42 0)
      (effects (font (size 1.27 1.27)) hide)
    )
    (pin "1" (uuid 0e687a90-40ac-49dc-b8f0-fe867b5f2d8d))
    (instances
      (project "Current_Clamp"
        (path "/e63e39d7-6ac0-4ffd-8aa3-1841a4541b55"
          (reference "#PWR0101") (unit 1)
        )
      )
    )
  )

  (symbol (lib_id "power:+5V") (at 67.31 50.8 0) (unit 1)
    (in_bom yes) (on_board yes) (dnp no)
    (uuid 00000000-0000-0000-0000-00005d4d2fab)
    (property "Reference" "#PWR0102" (at 67.31 54.61 0)
      (effects (font (size 1.27 1.27)) hide)
    )
    (property "Value" "+5V" (at 67.691 46.4058 0)
      (effects (font (size 1.27 1.27)))
    )
    (property "Footprint" "" (at 67.31 50.8 0)
      (effects (font (size 1.27 1.27)) hide)
    )
    (property "Datasheet" "" (at 67.31 50.8 0)
      (effects (font (size 1.27 1.27)) hide)
    )
    (pin "1" (uuid 5d0de0a5-ba86-476a-a7ef-11424019a5ab))
    (instances
      (project "Current_Clamp"
        (path "/e63e39d7-6ac0-4ffd-8aa3-1841a4541b55"
          (reference "#PWR0102") (unit 1)
        )
      )
    )
  )

  (symbol (lib_id "Device:C_Small") (at 82.55 54.61 180) (unit 1)
    (in_bom yes) (on_board yes) (dnp no)
    (uuid 00000000-0000-0000-0000-00005d4d5b7e)
    (property "Reference" "C1" (at 77.47 53.34 0)
      (effects (font (size 1.27 1.27)) (justify right))
    )
    (property "Value" "10u" (at 76.2 55.88 0)
      (effects (font (size 1.27 1.27)) (justify right))
    )
    (property "Footprint" "Capacitor_SMD:C_0805_2012Metric" (at 82.55 54.61 0)
      (effects (font (size 1.27 1.27)) hide)
    )
    (property "Datasheet" "~" (at 82.55 54.61 0)
      (effects (font (size 1.27 1.27)) hide)
    )
    (pin "1" (uuid 936e93f4-6042-4ebb-9dc0-00341034e86d))
    (pin "2" (uuid c9fca529-6fb9-4500-bb9e-e83f9cd45fbd))
    (instances
      (project "Current_Clamp"
        (path "/e63e39d7-6ac0-4ffd-8aa3-1841a4541b55"
          (reference "C1") (unit 1)
        )
      )
    )
  )

  (symbol (lib_id "power:+5V") (at 85.09 44.45 0) (unit 1)
    (in_bom yes) (on_board yes) (dnp no)
    (uuid 00000000-0000-0000-0000-00005d4d733a)
    (property "Reference" "#PWR0103" (at 85.09 48.26 0)
      (effects (font (size 1.27 1.27)) hide)
    )
    (property "Value" "+5V" (at 85.471 40.0558 0)
      (effects (font (size 1.27 1.27)))
    )
    (property "Footprint" "" (at 85.09 44.45 0)
      (effects (font (size 1.27 1.27)) hide)
    )
    (property "Datasheet" "" (at 85.09 44.45 0)
      (effects (font (size 1.27 1.27)) hide)
    )
    (pin "1" (uuid d5fdb68f-b709-4bfc-90f2-b991af0b6540))
    (instances
      (project "Current_Clamp"
        (path "/e63e39d7-6ac0-4ffd-8aa3-1841a4541b55"
          (reference "#PWR0103") (unit 1)
        )
      )
    )
  )

  (symbol (lib_id "power:GND") (at 85.09 64.77 0) (unit 1)
    (in_bom yes) (on_board yes) (dnp no)
    (uuid 00000000-0000-0000-0000-00005d4d77fd)
    (property "Reference" "#PWR0104" (at 85.09 71.12 0)
      (effects (font (size 1.27 1.27)) hide)
    )
    (property "Value" "GND" (at 85.217 69.1642 0)
      (effects (font (size 1.27 1.27)))
    )
    (property "Footprint" "" (at 85.09 64.77 0)
      (effects (font (size 1.27 1.27)) hide)
    )
    (property "Datasheet" "" (at 85.09 64.77 0)
      (effects (font (size 1.27 1.27)) hide)
    )
    (pin "1" (uuid 662203e4-8a06-4828-b199-73b838f6f757))
    (instances
      (project "Current_Clamp"
        (path "/e63e39d7-6ac0-4ffd-8aa3-1841a4541b55"
          (reference "#PWR0104") (unit 1)
        )
      )
    )
  )

  (symbol (lib_id "Connector_Generic:Conn_01x03") (at 115.57 97.79 180) (unit 1)
    (in_bom yes) (on_board yes) (dnp no)
    (uuid 00000000-0000-0000-0000-00005d4da654)
    (property "Reference" "J2" (at 111.76 96.52 0)
      (effects (font (size 1.27 1.27)))
    )
    (property "Value" "Hall" (at 110.49 99.06 0)
      (effects (font (size 1.27 1.27)))
    )
    (property "Footprint" "Connector_PinHeader_2.54mm:PinHeader_1x03_P2.54mm_Vertical" (at 115.57 97.79 0)
      (effects (font (size 1.27 1.27)) hide)
    )
    (property "Datasheet" "~" (at 115.57 97.79 0)
      (effects (font (size 1.27 1.27)) hide)
    )
    (pin "1" (uuid ee314538-a8f0-415f-87cc-017be6835541))
    (pin "2" (uuid 531cec06-301d-4728-b0ee-74cf772f6e03))
    (pin "3" (uuid f2f523bd-0051-4af4-9c3c-2a7bbcacef8f))
    (instances
      (project "Current_Clamp"
        (path "/e63e39d7-6ac0-4ffd-8aa3-1841a4541b55"
          (reference "J2") (unit 1)
        )
      )
    )
  )

  (symbol (lib_id "power:GND") (at 125.73 102.87 0) (unit 1)
    (in_bom yes) (on_board yes) (dnp no)
    (uuid 00000000-0000-0000-0000-00005d4db7c7)
    (property "Reference" "#PWR0105" (at 125.73 109.22 0)
      (effects (font (size 1.27 1.27)) hide)
    )
    (property "Value" "GND" (at 125.857 107.2642 0)
      (effects (font (size 1.27 1.27)))
    )
    (property "Footprint" "" (at 125.73 102.87 0)
      (effects (font (size 1.27 1.27)) hide)
    )
    (property "Datasheet" "" (at 125.73 102.87 0)
      (effects (font (size 1.27 1.27)) hide)
    )
    (pin "1" (uuid 3f453ad8-e331-42b0-8439-e92c97c13e5a))
    (instances
      (project "Current_Clamp"
        (path "/e63e39d7-6ac0-4ffd-8aa3-1841a4541b55"
          (reference "#PWR0105") (unit 1)
        )
      )
    )
  )

  (symbol (lib_id "Device:C_Small") (at 125.73 99.06 180) (unit 1)
    (in_bom yes) (on_board yes) (dnp no)
    (uuid 00000000-0000-0000-0000-00005d4dd2d1)
    (property "Reference" "C2" (at 128.27 97.79 0)
      (effects (font (size 1.27 1.27)) (justify right))
    )
    (property "Value" "100n" (at 128.27 100.33 0)
      (effects (font (size 1.27 1.27)) (justify right))
    )
    (property "Footprint" "Capacitor_SMD:C_0805_2012Metric" (at 125.73 99.06 0)
      (effects (font (size 1.27 1.27)) hide)
    )
    (property "Datasheet" "~" (at 125.73 99.06 0)
      (effects (font (size 1.27 1.27)) hide)
    )
    (pin "1" (uuid 918979dd-ddc7-4c83-87d3-bc795a00a232))
    (pin "2" (uuid 1b4136af-d3bb-44d2-817a-f1ad34c5e018))
    (instances
      (project "Current_Clamp"
        (path "/e63e39d7-6ac0-4ffd-8aa3-1841a4541b55"
          (reference "C2") (unit 1)
        )
      )
    )
  )

  (symbol (lib_id "power:+5V") (at 125.73 95.25 0) (unit 1)
    (in_bom yes) (on_board yes) (dnp no)
    (uuid 00000000-0000-0000-0000-00005d4de8cc)
    (property "Reference" "#PWR0106" (at 125.73 99.06 0)
      (effects (font (size 1.27 1.27)) hide)
    )
    (property "Value" "+5V" (at 126.111 90.8558 0)
      (effects (font (size 1.27 1.27)))
    )
    (property "Footprint" "" (at 125.73 95.25 0)
      (effects (font (size 1.27 1.27)) hide)
    )
    (property "Datasheet" "" (at 125.73 95.25 0)
      (effects (font (size 1.27 1.27)) hide)
    )
    (pin "1" (uuid e0270fae-0352-488f-a52f-f0544135488f))
    (instances
      (project "Current_Clamp"
        (path "/e63e39d7-6ac0-4ffd-8aa3-1841a4541b55"
          (reference "#PWR0106") (unit 1)
        )
      )
    )
  )

  (symbol (lib_id "Device:R_Potentiometer") (at 163.83 97.79 270) (unit 1)
    (in_bom yes) (on_board yes) (dnp no)
    (uuid 00000000-0000-0000-0000-00005d4e4b2a)
    (property "Reference" "RV2" (at 163.83 92.5322 90)
      (effects (font (size 1.27 1.27)))
    )
    (property "Value" "300k" (at 163.83 94.8436 90)
      (effects (font (size 1.27 1.27)))
    )
    (property "Footprint" "Potentiometer_THT:Potentiometer_Runtron_RM-065_Vertical" (at 163.83 97.79 0)
      (effects (font (size 1.27 1.27)) hide)
    )
    (property "Datasheet" "~" (at 163.83 97.79 0)
      (effects (font (size 1.27 1.27)) hide)
    )
    (pin "1" (uuid 38049b62-eae6-401b-82eb-0bb61c781cf9))
    (pin "2" (uuid dfd65124-2992-437a-b6c9-833a84a6ec32))
    (pin "3" (uuid bdc5f020-23b2-42fe-8121-4ccf54ca9c00))
    (instances
      (project "Current_Clamp"
        (path "/e63e39d7-6ac0-4ffd-8aa3-1841a4541b55"
          (reference "RV2") (unit 1)
        )
      )
    )
  )

  (symbol (lib_id "Device:R_Potentiometer") (at 161.29 127 0) (unit 1)
    (in_bom yes) (on_board yes) (dnp no)
    (uuid 00000000-0000-0000-0000-00005d4f2439)
    (property "Reference" "RV1" (at 159.512 125.8316 0)
      (effects (font (size 1.27 1.27)) (justify right))
    )
    (property "Value" "2k" (at 159.512 128.143 0)
      (effects (font (size 1.27 1.27)) (justify right))
    )
    (property "Footprint" "Potentiometer_THT:Potentiometer_Runtron_RM-065_Vertical" (at 161.29 127 0)
      (effects (font (size 1.27 1.27)) hide)
    )
    (property "Datasheet" "~" (at 161.29 127 0)
      (effects (font (size 1.27 1.27)) hide)
    )
    (pin "1" (uuid 702bf31d-e877-493d-8a34-a57eac89b062))
    (pin "2" (uuid 7ada98a9-13ee-4cf6-8aa3-1106dd6d47d3))
    (pin "3" (uuid 8b7861a6-ce2d-44f5-9762-edcacfc3b81d))
    (instances
      (project "Current_Clamp"
        (path "/e63e39d7-6ac0-4ffd-8aa3-1841a4541b55"
          (reference "RV1") (unit 1)
        )
      )
    )
  )

  (symbol (lib_id "Device:R_Small") (at 161.29 119.38 0) (unit 1)
    (in_bom yes) (on_board yes) (dnp no)
    (uuid 00000000-0000-0000-0000-00005d4f2c88)
    (property "Reference" "R1" (at 162.7886 118.2116 0)
      (effects (font (size 1.27 1.27)) (justify left))
    )
    (property "Value" "10k" (at 162.7886 120.523 0)
      (effects (font (size 1.27 1.27)) (justify left))
    )
    (property "Footprint" "Resistor_SMD:R_0603_1608Metric" (at 161.29 119.38 0)
      (effects (font (size 1.27 1.27)) hide)
    )
    (property "Datasheet" "~" (at 161.29 119.38 0)
      (effects (font (size 1.27 1.27)) hide)
    )
    (pin "1" (uuid 0db556a2-a7f0-4f54-a72f-dc73053ccda0))
    (pin "2" (uuid c099ce96-346d-4716-9a26-e245dad49641))
    (instances
      (project "Current_Clamp"
        (path "/e63e39d7-6ac0-4ffd-8aa3-1841a4541b55"
          (reference "R1") (unit 1)
        )
      )
    )
  )

  (symbol (lib_id "Device:R_Small") (at 161.29 134.62 0) (unit 1)
    (in_bom yes) (on_board yes) (dnp no)
    (uuid 00000000-0000-0000-0000-00005d4f366c)
    (property "Reference" "R2" (at 162.7886 133.4516 0)
      (effects (font (size 1.27 1.27)) (justify left))
    )
    (property "Value" "10k" (at 162.7886 135.763 0)
      (effects (font (size 1.27 1.27)) (justify left))
    )
    (property "Footprint" "Resistor_SMD:R_0603_1608Metric" (at 161.29 134.62 0)
      (effects (font (size 1.27 1.27)) hide)
    )
    (property "Datasheet" "~" (at 161.29 134.62 0)
      (effects (font (size 1.27 1.27)) hide)
    )
    (pin "1" (uuid 35ce2859-59a0-4eaf-88b8-cbb88c8844a0))
    (pin "2" (uuid 198736ae-3162-413b-87da-0972853fbbdf))
    (instances
      (project "Current_Clamp"
        (path "/e63e39d7-6ac0-4ffd-8aa3-1841a4541b55"
          (reference "R2") (unit 1)
        )
      )
    )
  )

  (symbol (lib_id "power:+5V") (at 161.29 115.57 0) (unit 1)
    (in_bom yes) (on_board yes) (dnp no)
    (uuid 00000000-0000-0000-0000-00005d4f5710)
    (property "Reference" "#PWR0107" (at 161.29 119.38 0)
      (effects (font (size 1.27 1.27)) hide)
    )
    (property "Value" "+5V" (at 161.671 111.1758 0)
      (effects (font (size 1.27 1.27)))
    )
    (property "Footprint" "" (at 161.29 115.57 0)
      (effects (font (size 1.27 1.27)) hide)
    )
    (property "Datasheet" "" (at 161.29 115.57 0)
      (effects (font (size 1.27 1.27)) hide)
    )
    (pin "1" (uuid fa819a6e-c42e-434c-8836-9986bfe2d2ee))
    (instances
      (project "Current_Clamp"
        (path "/e63e39d7-6ac0-4ffd-8aa3-1841a4541b55"
          (reference "#PWR0107") (unit 1)
        )
      )
    )
  )

  (symbol (lib_id "power:GND") (at 161.29 140.97 0) (unit 1)
    (in_bom yes) (on_board yes) (dnp no)
    (uuid 00000000-0000-0000-0000-00005d4f5ca9)
    (property "Reference" "#PWR0108" (at 161.29 147.32 0)
      (effects (font (size 1.27 1.27)) hide)
    )
    (property "Value" "GND" (at 161.417 145.3642 0)
      (effects (font (size 1.27 1.27)))
    )
    (property "Footprint" "" (at 161.29 140.97 0)
      (effects (font (size 1.27 1.27)) hide)
    )
    (property "Datasheet" "" (at 161.29 140.97 0)
      (effects (font (size 1.27 1.27)) hide)
    )
    (pin "1" (uuid 664c8a73-9b8c-4921-a987-9cd36e955b45))
    (instances
      (project "Current_Clamp"
        (path "/e63e39d7-6ac0-4ffd-8aa3-1841a4541b55"
          (reference "#PWR0108") (unit 1)
        )
      )
    )
  )

  (symbol (lib_id "Device:C_Small") (at 170.18 134.62 180) (unit 1)
    (in_bom yes) (on_board yes) (dnp no)
    (uuid 00000000-0000-0000-0000-00005d4f72f6)
    (property "Reference" "C3" (at 172.72 133.35 0)
      (effects (font (size 1.27 1.27)) (justify right))
    )
    (property "Value" "100n" (at 172.72 135.89 0)
      (effects (font (size 1.27 1.27)) (justify right))
    )
    (property "Footprint" "Capacitor_SMD:C_0805_2012Metric" (at 170.18 134.62 0)
      (effects (font (size 1.27 1.27)) hide)
    )
    (property "Datasheet" "~" (at 170.18 134.62 0)
      (effects (font (size 1.27 1.27)) hide)
    )
    (pin "1" (uuid c933ad65-bbc8-4355-8633-a7655f4a69a4))
    (pin "2" (uuid 57cb9f8e-995b-44d7-bb35-b4785acbdfdc))
    (instances
      (project "Current_Clamp"
        (path "/e63e39d7-6ac0-4ffd-8aa3-1841a4541b55"
          (reference "C3") (unit 1)
        )
      )
    )
  )

  (sheet_instances
    (path "/" (page "1"))
  )
)
