(kicad_sch (version 20230121) (generator eeschema)

  (uuid 57f392c2-3781-435e-992f-f1517bfbe606)

  (paper "A4")

  (lib_symbols
    (symbol "pow_sys:0.1 uF" (pin_names hide) (in_bom yes) (on_board yes)
      (property "Reference" "C" (at 8.89 6.35 0)
        (effects (font (size 1.27 1.27)) (justify left top))
      )
      (property "Value" "0.1 uF" (at 8.89 3.81 0)
        (effects (font (size 1.27 1.27)) (justify left top))
      )
      (property "Footprint" "CAPC1608X95N" (at 8.89 -96.19 0)
        (effects (font (size 1.27 1.27)) (justify left top) hide)
      )
      (property "Datasheet" "https://connect.kemet.com:7667/gateway/IntelliData-ComponentDocumentation/1.0/download/specsheet/C0603C104K1RACAUTO" (at 8.89 -196.19 0)
        (effects (font (size 1.27 1.27)) (justify left top) hide)
      )
      (property "Height" "0.95" (at 8.89 -396.19 0)
        (effects (font (size 1.27 1.27)) (justify left top) hide)
      )
      (property "Manufacturer_Name" "KEMET" (at 8.89 -496.19 0)
        (effects (font (size 1.27 1.27)) (justify left top) hide)
      )
      (property "Manufacturer_Part_Number" "C0603C104K1RACAUTO" (at 8.89 -596.19 0)
        (effects (font (size 1.27 1.27)) (justify left top) hide)
      )
      (property "Mouser Part Number" "80-C0603C104K1RAUTO" (at 8.89 -696.19 0)
        (effects (font (size 1.27 1.27)) (justify left top) hide)
      )
      (property "Mouser Price/Stock" "https://www.mouser.co.uk/ProductDetail/KEMET/C0603C104K1RACAUTO?qs=3Rah4i%252BhyCGTQ5uPNXtfZA%3D%3D" (at 8.89 -796.19 0)
        (effects (font (size 1.27 1.27)) (justify left top) hide)
      )
      (property "Arrow Part Number" "C0603C104K1RACAUTO" (at 8.89 -896.19 0)
        (effects (font (size 1.27 1.27)) (justify left top) hide)
      )
      (property "Arrow Price/Stock" "https://www.arrow.com/en/products/c0603c104k1racauto/kemet-corporation?region=europe" (at 8.89 -996.19 0)
        (effects (font (size 1.27 1.27)) (justify left top) hide)
      )
      (property "ki_description" "SMD Auto X7R, Ceramic, 0.1 uF, 10%, 100 VDC, X7R, SMD, MLCC, Temperature Stable, Automotive Grade, 0603" (at 0 0 0)
        (effects (font (size 1.27 1.27)) hide)
      )
      (symbol "0.1 uF_1_1"
        (polyline
          (pts
            (xy 5.08 0)
            (xy 5.588 0)
          )
          (stroke (width 0.254) (type default))
          (fill (type none))
        )
        (polyline
          (pts
            (xy 5.588 2.54)
            (xy 5.588 -2.54)
          )
          (stroke (width 0.254) (type default))
          (fill (type none))
        )
        (polyline
          (pts
            (xy 7.112 0)
            (xy 7.62 0)
          )
          (stroke (width 0.254) (type default))
          (fill (type none))
        )
        (polyline
          (pts
            (xy 7.112 2.54)
            (xy 7.112 -2.54)
          )
          (stroke (width 0.254) (type default))
          (fill (type none))
        )
        (pin passive line (at 0 0 0) (length 5.08)
          (name "1" (effects (font (size 1.27 1.27))))
          (number "1" (effects (font (size 1.27 1.27))))
        )
        (pin passive line (at 12.7 0 180) (length 5.08)
          (name "2" (effects (font (size 1.27 1.27))))
          (number "2" (effects (font (size 1.27 1.27))))
        )
      )
    )
    (symbol "pow_sys:100 kΩ" (pin_names hide) (in_bom yes) (on_board yes)
      (property "Reference" "R" (at 13.97 6.35 0)
        (effects (font (size 1.27 1.27)) (justify left top))
      )
      (property "Value" "100 kΩ" (at 13.97 3.81 0)
        (effects (font (size 1.27 1.27)) (justify left top))
      )
      (property "Footprint" "RESC1608X55N" (at 13.97 -96.19 0)
        (effects (font (size 1.27 1.27)) (justify left top) hide)
      )
      (property "Datasheet" "http://www.vishay.com/docs/28705/mcx0x0xpro.pdf" (at 13.97 -196.19 0)
        (effects (font (size 1.27 1.27)) (justify left top) hide)
      )
      (property "Height" "0.55" (at 13.97 -396.19 0)
        (effects (font (size 1.27 1.27)) (justify left top) hide)
      )
      (property "Manufacturer_Name" "Vishay" (at 13.97 -496.19 0)
        (effects (font (size 1.27 1.27)) (justify left top) hide)
      )
      (property "Manufacturer_Part_Number" "MCT0603MG1003BP500" (at 13.97 -596.19 0)
        (effects (font (size 1.27 1.27)) (justify left top) hide)
      )
      (property "Mouser Part Number" "594-MCT0603MG1003BP5" (at 13.97 -696.19 0)
        (effects (font (size 1.27 1.27)) (justify left top) hide)
      )
      (property "Mouser Price/Stock" "https://www.mouser.co.uk/ProductDetail/Vishay-Beyschlag/MCT0603MG1003BP500?qs=Y0Uzf4wQF3lHJ34mcJhrdQ%3D%3D" (at 13.97 -796.19 0)
        (effects (font (size 1.27 1.27)) (justify left top) hide)
      )
      (property "Arrow Part Number" "" (at 13.97 -896.19 0)
        (effects (font (size 1.27 1.27)) (justify left top) hide)
      )
      (property "Arrow Price/Stock" "" (at 13.97 -996.19 0)
        (effects (font (size 1.27 1.27)) (justify left top) hide)
      )
      (property "ki_description" "Thin Film Resistors - SMD MCT 0603-05 0.1% AT P5 100K" (at 0 0 0)
        (effects (font (size 1.27 1.27)) hide)
      )
      (symbol "100 kΩ_1_1"
        (rectangle (start 5.08 1.27) (end 12.7 -1.27)
          (stroke (width 0.254) (type default))
          (fill (type background))
        )
        (pin passive line (at 0 0 0) (length 5.08)
          (name "1" (effects (font (size 1.27 1.27))))
          (number "1" (effects (font (size 1.27 1.27))))
        )
        (pin passive line (at 17.78 0 180) (length 5.08)
          (name "2" (effects (font (size 1.27 1.27))))
          (number "2" (effects (font (size 1.27 1.27))))
        )
      )
    )
    (symbol "pow_sys:10uF" (pin_names hide) (in_bom yes) (on_board yes)
      (property "Reference" "C" (at 8.89 6.35 0)
        (effects (font (size 1.27 1.27)) (justify left top))
      )
      (property "Value" "10uF" (at 8.89 3.81 0)
        (effects (font (size 1.27 1.27)) (justify left top))
      )
      (property "Footprint" "CAPC1608X90N" (at 8.89 -96.19 0)
        (effects (font (size 1.27 1.27)) (justify left top) hide)
      )
      (property "Datasheet" "http://componentsearchengine.com/Datasheets/1/GRM188R61E106KA73D.pdf" (at 8.89 -196.19 0)
        (effects (font (size 1.27 1.27)) (justify left top) hide)
      )
      (property "Height" "0.9" (at 8.89 -396.19 0)
        (effects (font (size 1.27 1.27)) (justify left top) hide)
      )
      (property "Manufacturer_Name" "Murata Electronics" (at 8.89 -496.19 0)
        (effects (font (size 1.27 1.27)) (justify left top) hide)
      )
      (property "Manufacturer_Part_Number" "GRM188R61E106KA73D" (at 8.89 -596.19 0)
        (effects (font (size 1.27 1.27)) (justify left top) hide)
      )
      (property "Mouser Part Number" "81-GRM188R61E106KA3D" (at 8.89 -696.19 0)
        (effects (font (size 1.27 1.27)) (justify left top) hide)
      )
      (property "Mouser Price/Stock" "https://www.mouser.co.uk/ProductDetail/Murata-Electronics/GRM188R61E106KA73D?qs=5aG0NVq1C4z8ebxPkQZf9A%3D%3D" (at 8.89 -796.19 0)
        (effects (font (size 1.27 1.27)) (justify left top) hide)
      )
      (property "Arrow Part Number" "GRM188R61E106KA73D" (at 8.89 -896.19 0)
        (effects (font (size 1.27 1.27)) (justify left top) hide)
      )
      (property "Arrow Price/Stock" "https://www.arrow.com/en/products/grm188r61e106ka73d/murata-manufacturing?region=nac" (at 8.89 -996.19 0)
        (effects (font (size 1.27 1.27)) (justify left top) hide)
      )
      (property "ki_description" "Multilayer Ceramic Capacitors MLCC - SMD/SMT" (at 0 0 0)
        (effects (font (size 1.27 1.27)) hide)
      )
      (symbol "10uF_1_1"
        (polyline
          (pts
            (xy 5.08 0)
            (xy 5.588 0)
          )
          (stroke (width 0.254) (type default))
          (fill (type none))
        )
        (polyline
          (pts
            (xy 5.588 2.54)
            (xy 5.588 -2.54)
          )
          (stroke (width 0.254) (type default))
          (fill (type none))
        )
        (polyline
          (pts
            (xy 7.112 0)
            (xy 7.62 0)
          )
          (stroke (width 0.254) (type default))
          (fill (type none))
        )
        (polyline
          (pts
            (xy 7.112 2.54)
            (xy 7.112 -2.54)
          )
          (stroke (width 0.254) (type default))
          (fill (type none))
        )
        (pin passive line (at 0 0 0) (length 5.08)
          (name "1" (effects (font (size 1.27 1.27))))
          (number "1" (effects (font (size 1.27 1.27))))
        )
        (pin passive line (at 12.7 0 180) (length 5.08)
          (name "2" (effects (font (size 1.27 1.27))))
          (number "2" (effects (font (size 1.27 1.27))))
        )
      )
    )
    (symbol "pow_sys:61.9 kΩ" (pin_names hide) (in_bom yes) (on_board yes)
      (property "Reference" "R" (at 13.97 6.35 0)
        (effects (font (size 1.27 1.27)) (justify left top))
      )
      (property "Value" "61.9 kΩ" (at 13.97 3.81 0)
        (effects (font (size 1.27 1.27)) (justify left top))
      )
      (property "Footprint" "ERA3KV_(0603)" (at 13.97 -96.19 0)
        (effects (font (size 1.27 1.27)) (justify left top) hide)
      )
      (property "Datasheet" "http://industrial.panasonic.com/cdbs/www-data/pdf/RDM0000/RDM0000C331.pdf" (at 13.97 -196.19 0)
        (effects (font (size 1.27 1.27)) (justify left top) hide)
      )
      (property "Height" "0.4" (at 13.97 -396.19 0)
        (effects (font (size 1.27 1.27)) (justify left top) hide)
      )
      (property "Manufacturer_Name" "Panasonic" (at 13.97 -496.19 0)
        (effects (font (size 1.27 1.27)) (justify left top) hide)
      )
      (property "Manufacturer_Part_Number" "ERA-3VEB6192V" (at 13.97 -596.19 0)
        (effects (font (size 1.27 1.27)) (justify left top) hide)
      )
      (property "Mouser Part Number" "" (at 13.97 -696.19 0)
        (effects (font (size 1.27 1.27)) (justify left top) hide)
      )
      (property "Mouser Price/Stock" "" (at 13.97 -796.19 0)
        (effects (font (size 1.27 1.27)) (justify left top) hide)
      )
      (property "Arrow Part Number" "" (at 13.97 -896.19 0)
        (effects (font (size 1.27 1.27)) (justify left top) hide)
      )
      (property "Arrow Price/Stock" "" (at 13.97 -996.19 0)
        (effects (font (size 1.27 1.27)) (justify left top) hide)
      )
      (property "ki_description" "Chip Resistor 0603 (1608 Metric) Anti-Sulfur, Automotive AEC-Q200 Thin Film" (at 0 0 0)
        (effects (font (size 1.27 1.27)) hide)
      )
      (symbol "61.9 kΩ_1_1"
        (rectangle (start 5.08 1.27) (end 12.7 -1.27)
          (stroke (width 0.254) (type default))
          (fill (type background))
        )
        (pin passive line (at 0 0 0) (length 5.08)
          (name "1" (effects (font (size 1.27 1.27))))
          (number "1" (effects (font (size 1.27 1.27))))
        )
        (pin passive line (at 17.78 0 180) (length 5.08)
          (name "2" (effects (font (size 1.27 1.27))))
          (number "2" (effects (font (size 1.27 1.27))))
        )
      )
    )
    (symbol "pow_sys:680 pF" (pin_names hide) (in_bom yes) (on_board yes)
      (property "Reference" "C" (at 8.89 6.35 0)
        (effects (font (size 1.27 1.27)) (justify left top))
      )
      (property "Value" "680 pF" (at 8.89 3.81 0)
        (effects (font (size 1.27 1.27)) (justify left top))
      )
      (property "Footprint" "CAPC1005X55N" (at 8.89 -96.19 0)
        (effects (font (size 1.27 1.27)) (justify left top) hide)
      )
      (property "Datasheet" "https://datasheet.datasheetarchive.com/originals/distributors/DKDS-10/187494.pdf" (at 8.89 -196.19 0)
        (effects (font (size 1.27 1.27)) (justify left top) hide)
      )
      (property "Height" "0.55" (at 8.89 -396.19 0)
        (effects (font (size 1.27 1.27)) (justify left top) hide)
      )
      (property "Manufacturer_Name" "Murata Electronics" (at 8.89 -496.19 0)
        (effects (font (size 1.27 1.27)) (justify left top) hide)
      )
      (property "Manufacturer_Part_Number" "GCM1555C1H681FA16D" (at 8.89 -596.19 0)
        (effects (font (size 1.27 1.27)) (justify left top) hide)
      )
      (property "Mouser Part Number" "81-GCM1555C1H681FA6D" (at 8.89 -696.19 0)
        (effects (font (size 1.27 1.27)) (justify left top) hide)
      )
      (property "Mouser Price/Stock" "https://www.mouser.co.uk/ProductDetail/Murata-Electronics/GCM1555C1H681FA16D?qs=QzBtWTOodeVU2SBwKzAbxQ%3D%3D" (at 8.89 -796.19 0)
        (effects (font (size 1.27 1.27)) (justify left top) hide)
      )
      (property "Arrow Part Number" "GCM1555C1H681FA16D" (at 8.89 -896.19 0)
        (effects (font (size 1.27 1.27)) (justify left top) hide)
      )
      (property "Arrow Price/Stock" "https://www.arrow.com/en/products/gcm1555c1h681fa16d/murata-manufacturing" (at 8.89 -996.19 0)
        (effects (font (size 1.27 1.27)) (justify left top) hide)
      )
      (property "ki_description" "Cap Ceramic 680pF 50V C0G 1% Pad SMD 0402 125C Automotive T/R" (at 0 0 0)
        (effects (font (size 1.27 1.27)) hide)
      )
      (symbol "680 pF_1_1"
        (polyline
          (pts
            (xy 5.08 0)
            (xy 5.588 0)
          )
          (stroke (width 0.254) (type default))
          (fill (type none))
        )
        (polyline
          (pts
            (xy 5.588 2.54)
            (xy 5.588 -2.54)
          )
          (stroke (width 0.254) (type default))
          (fill (type none))
        )
        (polyline
          (pts
            (xy 7.112 0)
            (xy 7.62 0)
          )
          (stroke (width 0.254) (type default))
          (fill (type none))
        )
        (polyline
          (pts
            (xy 7.112 2.54)
            (xy 7.112 -2.54)
          )
          (stroke (width 0.254) (type default))
          (fill (type none))
        )
        (pin passive line (at 0 0 0) (length 5.08)
          (name "1" (effects (font (size 1.27 1.27))))
          (number "1" (effects (font (size 1.27 1.27))))
        )
        (pin passive line (at 12.7 0 180) (length 5.08)
          (name "2" (effects (font (size 1.27 1.27))))
          (number "2" (effects (font (size 1.27 1.27))))
        )
      )
    )
    (symbol "pow_sys:909 kΩ" (pin_names hide) (in_bom yes) (on_board yes)
      (property "Reference" "R" (at 13.97 6.35 0)
        (effects (font (size 1.27 1.27)) (justify left top))
      )
      (property "Value" "909 kΩ" (at 13.97 3.81 0)
        (effects (font (size 1.27 1.27)) (justify left top))
      )
      (property "Footprint" "RESC1005X40N" (at 13.97 -96.19 0)
        (effects (font (size 1.27 1.27)) (justify left top) hide)
      )
      (property "Datasheet" "http://www.yageo.com/documents/recent/PYu-RC0402_51_RoHS_L_6_r.pdf" (at 13.97 -196.19 0)
        (effects (font (size 1.27 1.27)) (justify left top) hide)
      )
      (property "Height" "0.4" (at 13.97 -396.19 0)
        (effects (font (size 1.27 1.27)) (justify left top) hide)
      )
      (property "Manufacturer_Name" "KEMET" (at 13.97 -496.19 0)
        (effects (font (size 1.27 1.27)) (justify left top) hide)
      )
      (property "Manufacturer_Part_Number" "RC0402FR-07909KL" (at 13.97 -596.19 0)
        (effects (font (size 1.27 1.27)) (justify left top) hide)
      )
      (property "Mouser Part Number" "603-RC0402FR-07909KL" (at 13.97 -696.19 0)
        (effects (font (size 1.27 1.27)) (justify left top) hide)
      )
      (property "Mouser Price/Stock" "https://www.mouser.com/Search/Refine.aspx?Keyword=603-RC0402FR-07909KL" (at 13.97 -796.19 0)
        (effects (font (size 1.27 1.27)) (justify left top) hide)
      )
      (property "Arrow Part Number" "" (at 13.97 -896.19 0)
        (effects (font (size 1.27 1.27)) (justify left top) hide)
      )
      (property "Arrow Price/Stock" "" (at 13.97 -996.19 0)
        (effects (font (size 1.27 1.27)) (justify left top) hide)
      )
      (property "ki_description" "Thick Film Resistors - SMD 909K OHM 1%" (at 0 0 0)
        (effects (font (size 1.27 1.27)) hide)
      )
      (symbol "909 kΩ_1_1"
        (rectangle (start 5.08 1.27) (end 12.7 -1.27)
          (stroke (width 0.254) (type default))
          (fill (type background))
        )
        (pin passive line (at 0 0 0) (length 5.08)
          (name "1" (effects (font (size 1.27 1.27))))
          (number "1" (effects (font (size 1.27 1.27))))
        )
        (pin passive line (at 17.78 0 180) (length 5.08)
          (name "2" (effects (font (size 1.27 1.27))))
          (number "2" (effects (font (size 1.27 1.27))))
        )
      )
    )
    (symbol "pow_sys:DFE2016CKA-2R2M=P2" (pin_names hide) (in_bom yes) (on_board yes)
      (property "Reference" "L" (at 16.51 6.35 0)
        (effects (font (size 1.27 1.27)) (justify left top))
      )
      (property "Value" "DFE2016CKA-2R2M=P2" (at 16.51 3.81 0)
        (effects (font (size 1.27 1.27)) (justify left top))
      )
      (property "Footprint" "DFE2016CKA1R0MP2" (at 16.51 -96.19 0)
        (effects (font (size 1.27 1.27)) (justify left top) hide)
      )
      (property "Datasheet" "https://psearch.en.murata.com/inductor/product/DFE2016CKA-2R2M%23.html" (at 16.51 -196.19 0)
        (effects (font (size 1.27 1.27)) (justify left top) hide)
      )
      (property "Height" "0.65" (at 16.51 -396.19 0)
        (effects (font (size 1.27 1.27)) (justify left top) hide)
      )
      (property "Manufacturer_Name" "Murata Electronics" (at 16.51 -496.19 0)
        (effects (font (size 1.27 1.27)) (justify left top) hide)
      )
      (property "Manufacturer_Part_Number" "DFE2016CKA-2R2M=P2" (at 16.51 -596.19 0)
        (effects (font (size 1.27 1.27)) (justify left top) hide)
      )
      (property "Mouser Part Number" "81-DFE2016CKA2R2M=P2" (at 16.51 -696.19 0)
        (effects (font (size 1.27 1.27)) (justify left top) hide)
      )
      (property "Mouser Price/Stock" "https://www.mouser.co.uk/ProductDetail/Murata-Electronics/DFE2016CKA-2R2M%3dP2?qs=rI7uf1IzohTgEoAgMClTBQ%3D%3D" (at 16.51 -796.19 0)
        (effects (font (size 1.27 1.27)) (justify left top) hide)
      )
      (property "Arrow Part Number" "" (at 16.51 -896.19 0)
        (effects (font (size 1.27 1.27)) (justify left top) hide)
      )
      (property "Arrow Price/Stock" "" (at 16.51 -996.19 0)
        (effects (font (size 1.27 1.27)) (justify left top) hide)
      )
      (property "ki_description" "DFE2016CKA Series Inductor 2.2uH +/-20% 0806 (2016)" (at 0 0 0)
        (effects (font (size 1.27 1.27)) hide)
      )
      (symbol "DFE2016CKA-2R2M=P2_1_1"
        (arc (start 7.62 0) (mid 6.35 1.219) (end 5.08 0)
          (stroke (width 0.254) (type default))
          (fill (type none))
        )
        (arc (start 10.16 0) (mid 8.89 1.219) (end 7.62 0)
          (stroke (width 0.254) (type default))
          (fill (type none))
        )
        (arc (start 12.7 0) (mid 11.43 1.219) (end 10.16 0)
          (stroke (width 0.254) (type default))
          (fill (type none))
        )
        (arc (start 15.24 0) (mid 13.97 1.219) (end 12.7 0)
          (stroke (width 0.254) (type default))
          (fill (type none))
        )
        (pin passive line (at 0 0 0) (length 5.08)
          (name "1" (effects (font (size 1.27 1.27))))
          (number "1" (effects (font (size 1.27 1.27))))
        )
        (pin passive line (at 20.32 0 180) (length 5.08)
          (name "2" (effects (font (size 1.27 1.27))))
          (number "2" (effects (font (size 1.27 1.27))))
        )
      )
    )
    (symbol "pow_sys:New_Boost" (in_bom yes) (on_board yes)
      (property "Reference" "IC" (at 29.21 7.62 0)
        (effects (font (size 1.27 1.27)) (justify left top))
      )
      (property "Value" "New_Boost" (at 29.21 5.08 0)
        (effects (font (size 1.27 1.27)) (justify left top))
      )
      (property "Footprint" "BGA16C35P4X4_150X155X50" (at 29.21 -94.92 0)
        (effects (font (size 1.27 1.27)) (justify left top) hide)
      )
      (property "Datasheet" "http://www.ti.com/lit/gpn/TPS61372" (at 29.21 -194.92 0)
        (effects (font (size 1.27 1.27)) (justify left top) hide)
      )
      (property "Height" "0.5" (at 29.21 -394.92 0)
        (effects (font (size 1.27 1.27)) (justify left top) hide)
      )
      (property "Manufacturer_Name" "Texas Instruments" (at 29.21 -494.92 0)
        (effects (font (size 1.27 1.27)) (justify left top) hide)
      )
      (property "Manufacturer_Part_Number" "TPS61372YKBT" (at 29.21 -594.92 0)
        (effects (font (size 1.27 1.27)) (justify left top) hide)
      )
      (property "Mouser Part Number" "595-TPS61372YKBT" (at 29.21 -694.92 0)
        (effects (font (size 1.27 1.27)) (justify left top) hide)
      )
      (property "Mouser Price/Stock" "https://www.mouser.co.uk/ProductDetail/Texas-Instruments/TPS61372YKBT?qs=l7cgNqFNU1hqS%252B1N9xjEQg%3D%3D" (at 29.21 -794.92 0)
        (effects (font (size 1.27 1.27)) (justify left top) hide)
      )
      (property "Arrow Part Number" "TPS61372YKBT" (at 29.21 -894.92 0)
        (effects (font (size 1.27 1.27)) (justify left top) hide)
      )
      (property "Arrow Price/Stock" "https://www.arrow.com/en/products/tps61372ykbt/texas-instruments" (at 29.21 -994.92 0)
        (effects (font (size 1.27 1.27)) (justify left top) hide)
      )
      (property "ki_description" "16V/3.6A sync boost with load disconnect" (at 0 0 0)
        (effects (font (size 1.27 1.27)) hide)
      )
      (symbol "New_Boost_1_1"
        (rectangle (start 5.08 2.54) (end 27.94 -20.32)
          (stroke (width 0.254) (type default))
          (fill (type background))
        )
        (pin passive line (at 0 0 0) (length 5.08)
          (name "FB" (effects (font (size 1.27 1.27))))
          (number "A1" (effects (font (size 1.27 1.27))))
        )
        (pin passive line (at 0 -2.54 0) (length 5.08)
          (name "COMP" (effects (font (size 1.27 1.27))))
          (number "A2" (effects (font (size 1.27 1.27))))
        )
        (pin no_connect line (at 0 -5.08 0) (length 5.08)
          (name "NC" (effects (font (size 1.27 1.27))))
          (number "A3" (effects (font (size 1.27 1.27))))
        )
        (pin passive line (at 0 -7.62 0) (length 5.08)
          (name "MODE" (effects (font (size 1.27 1.27))))
          (number "A4" (effects (font (size 1.27 1.27))))
        )
        (pin passive line (at 0 -10.16 0) (length 5.08)
          (name "GND_1" (effects (font (size 1.27 1.27))))
          (number "B1" (effects (font (size 1.27 1.27))))
        )
        (pin passive line (at 0 -12.7 0) (length 5.08)
          (name "GND_2" (effects (font (size 1.27 1.27))))
          (number "B2" (effects (font (size 1.27 1.27))))
        )
        (pin passive line (at 0 -15.24 0) (length 5.08)
          (name "GND_3" (effects (font (size 1.27 1.27))))
          (number "B3" (effects (font (size 1.27 1.27))))
        )
        (pin passive line (at 0 -17.78 0) (length 5.08)
          (name "EN" (effects (font (size 1.27 1.27))))
          (number "B4" (effects (font (size 1.27 1.27))))
        )
        (pin passive line (at 33.02 0 180) (length 5.08)
          (name "SW_1" (effects (font (size 1.27 1.27))))
          (number "C1" (effects (font (size 1.27 1.27))))
        )
        (pin passive line (at 33.02 -2.54 180) (length 5.08)
          (name "SW_2" (effects (font (size 1.27 1.27))))
          (number "C2" (effects (font (size 1.27 1.27))))
        )
        (pin passive line (at 33.02 -5.08 180) (length 5.08)
          (name "SW_3" (effects (font (size 1.27 1.27))))
          (number "C3" (effects (font (size 1.27 1.27))))
        )
        (pin passive line (at 33.02 -7.62 180) (length 5.08)
          (name "BST" (effects (font (size 1.27 1.27))))
          (number "C4" (effects (font (size 1.27 1.27))))
        )
        (pin passive line (at 33.02 -10.16 180) (length 5.08)
          (name "VOUT_1" (effects (font (size 1.27 1.27))))
          (number "D1" (effects (font (size 1.27 1.27))))
        )
        (pin passive line (at 33.02 -12.7 180) (length 5.08)
          (name "VOUT_2" (effects (font (size 1.27 1.27))))
          (number "D2" (effects (font (size 1.27 1.27))))
        )
        (pin passive line (at 33.02 -15.24 180) (length 5.08)
          (name "VOUT_3" (effects (font (size 1.27 1.27))))
          (number "D3" (effects (font (size 1.27 1.27))))
        )
        (pin passive line (at 33.02 -17.78 180) (length 5.08)
          (name "VIN" (effects (font (size 1.27 1.27))))
          (number "D4" (effects (font (size 1.27 1.27))))
        )
      )
    )
  )

  (junction (at 85.09 102.87) (diameter 0) (color 0 0 0 0)
    (uuid 0152849a-2472-4f81-9d09-1d622360aeae)
  )
  (junction (at 85.09 97.79) (diameter 0) (color 0 0 0 0)
    (uuid 03c74d24-dfe5-4cc0-8fed-9fbf4a7e1c0c)
  )
  (junction (at 214.63 111.76) (diameter 0) (color 0 0 0 0)
    (uuid 372c5b12-5b7a-4f43-aaf4-4d27f833e6ca)
  )
  (junction (at 123.19 100.33) (diameter 0) (color 0 0 0 0)
    (uuid 3a63c83e-b46b-4113-927b-172468e79963)
  )
  (junction (at 163.83 125.73) (diameter 0) (color 0 0 0 0)
    (uuid 42eeeebb-f4fa-4180-98c2-1b1aa98cec05)
  )
  (junction (at 85.09 120.65) (diameter 0) (color 0 0 0 0)
    (uuid 4f2d2582-1bd6-4e90-9336-f28f50150e16)
  )
  (junction (at 189.23 76.2) (diameter 0) (color 0 0 0 0)
    (uuid 5af51ecd-4234-414c-99df-a4c41e95ec6a)
  )
  (junction (at 91.44 102.87) (diameter 0) (color 0 0 0 0)
    (uuid 7765cef2-a093-4c0b-82ab-0c2f2cc8978a)
  )
  (junction (at 180.34 93.98) (diameter 0) (color 0 0 0 0)
    (uuid 7f0c0c9f-0082-408f-b1e5-c1444fd32220)
  )
  (junction (at 180.34 102.87) (diameter 0) (color 0 0 0 0)
    (uuid 8757d9af-36c3-4fb0-bd99-1aadc7b38fda)
  )
  (junction (at 205.74 93.98) (diameter 0) (color 0 0 0 0)
    (uuid a56fef1a-7e9a-4ce5-a7d7-d273c78931d0)
  )
  (junction (at 116.84 110.49) (diameter 0) (color 0 0 0 0)
    (uuid b8407888-b6c1-4105-901c-24f4c7fe948c)
  )
  (junction (at 205.74 102.87) (diameter 0) (color 0 0 0 0)
    (uuid c5f24c40-c199-4593-bb7c-493b8ca5fa1e)
  )
  (junction (at 208.28 111.76) (diameter 0) (color 0 0 0 0)
    (uuid c972ebf6-b826-4199-bf8b-faf992daa695)
  )
  (junction (at 180.34 85.09) (diameter 0) (color 0 0 0 0)
    (uuid d36e6efa-3ba7-4311-b59c-cf1be5dbfba3)
  )
  (junction (at 91.44 105.41) (diameter 0) (color 0 0 0 0)
    (uuid de2a926b-4fee-440e-b8e7-aeac650fe527)
  )
  (junction (at 128.27 92.71) (diameter 0) (color 0 0 0 0)
    (uuid e166dc19-ccc5-4c44-b0fb-33625d64b50a)
  )
  (junction (at 171.45 82.55) (diameter 0) (color 0 0 0 0)
    (uuid f460c233-a9fa-45a1-83e9-c7c9a124ebfe)
  )
  (junction (at 163.83 115.57) (diameter 0) (color 0 0 0 0)
    (uuid fe5fa2a7-84aa-4924-826f-4918e82c0570)
  )

  (wire (pts (xy 196.85 102.87) (xy 205.74 102.87))
    (stroke (width 0) (type default))
    (uuid 06d447f0-8b5e-402b-9308-8fcdd9f99076)
  )
  (wire (pts (xy 184.15 93.98) (xy 180.34 93.98))
    (stroke (width 0) (type default))
    (uuid 091576ce-002a-4b87-86f5-ec56cbbdf787)
  )
  (wire (pts (xy 171.45 82.55) (xy 163.83 82.55))
    (stroke (width 0) (type default))
    (uuid 0fa53a5e-63ac-4971-9c7d-c64c605edb01)
  )
  (wire (pts (xy 180.34 85.09) (xy 184.15 85.09))
    (stroke (width 0) (type default))
    (uuid 18bc9022-559e-4702-bcf0-8d306d576f3e)
  )
  (wire (pts (xy 128.27 92.71) (xy 102.87 92.71))
    (stroke (width 0) (type default))
    (uuid 1976cf8d-4858-4e51-b43e-97f7883f26d1)
  )
  (wire (pts (xy 130.81 100.33) (xy 123.19 100.33))
    (stroke (width 0) (type default))
    (uuid 1ba1e13e-8550-4313-8713-eee17a381a1b)
  )
  (wire (pts (xy 130.81 92.71) (xy 128.27 92.71))
    (stroke (width 0) (type default))
    (uuid 1e589726-7646-4c15-a797-1027e3083ceb)
  )
  (wire (pts (xy 130.81 107.95) (xy 91.44 107.95))
    (stroke (width 0) (type default))
    (uuid 1ea3bb4d-ee1d-43d8-87b8-0a173944c923)
  )
  (wire (pts (xy 91.44 100.33) (xy 123.19 100.33))
    (stroke (width 0) (type default))
    (uuid 22e0ab99-6254-42f3-b63d-e32817ce4092)
  )
  (wire (pts (xy 208.28 111.76) (xy 208.28 125.73))
    (stroke (width 0) (type default))
    (uuid 238fd30c-71e4-4984-978a-45c5bb0183c3)
  )
  (wire (pts (xy 196.85 93.98) (xy 205.74 93.98))
    (stroke (width 0) (type default))
    (uuid 24288656-ab3d-4e6a-a075-98c819e96a66)
  )
  (wire (pts (xy 85.09 129.54) (xy 85.09 120.65))
    (stroke (width 0) (type default))
    (uuid 247b5b10-683f-4782-839f-ddc019ff1b2b)
  )
  (wire (pts (xy 163.83 125.73) (xy 208.28 125.73))
    (stroke (width 0) (type default))
    (uuid 24bba1df-ab53-4e87-a55d-02615fba30da)
  )
  (wire (pts (xy 180.34 76.2) (xy 189.23 76.2))
    (stroke (width 0) (type default))
    (uuid 29054c63-bd4b-4ed9-860a-7e7350cf6524)
  )
  (wire (pts (xy 171.45 100.33) (xy 163.83 100.33))
    (stroke (width 0) (type default))
    (uuid 299d7796-70a5-4cbb-82d1-d26fc48c12d6)
  )
  (wire (pts (xy 163.83 125.73) (xy 163.83 115.57))
    (stroke (width 0) (type default))
    (uuid 3235a808-ed25-4228-818d-9b8591079728)
  )
  (wire (pts (xy 85.09 97.79) (xy 85.09 102.87))
    (stroke (width 0) (type default))
    (uuid 3593c075-a50a-4889-8f99-7d879966cca3)
  )
  (wire (pts (xy 85.09 120.65) (xy 85.09 102.87))
    (stroke (width 0) (type default))
    (uuid 35fd57bc-5448-4b16-a331-1fc22e3cf2ca)
  )
  (wire (pts (xy 125.73 95.25) (xy 125.73 97.79))
    (stroke (width 0) (type default))
    (uuid 395fcfcc-cd6c-4b0f-8517-ac12eba37caa)
  )
  (wire (pts (xy 163.83 110.49) (xy 163.83 115.57))
    (stroke (width 0) (type default))
    (uuid 397c8b0a-1f49-4017-8545-2310cbd52ef3)
  )
  (wire (pts (xy 116.84 110.49) (xy 130.81 110.49))
    (stroke (width 0) (type default))
    (uuid 3de33c60-da42-4a77-bcba-3ffd334d1e7b)
  )
  (wire (pts (xy 102.87 110.49) (xy 116.84 110.49))
    (stroke (width 0) (type default))
    (uuid 41ce02e4-2d95-437b-93a9-b11080ec70d3)
  )
  (wire (pts (xy 91.44 105.41) (xy 91.44 102.87))
    (stroke (width 0) (type default))
    (uuid 44a72830-e9a0-477f-b7bb-e29a243ff6b2)
  )
  (wire (pts (xy 205.74 93.98) (xy 205.74 102.87))
    (stroke (width 0) (type default))
    (uuid 48e09df3-e904-493f-a29e-2614c649ff0e)
  )
  (wire (pts (xy 91.44 100.33) (xy 91.44 102.87))
    (stroke (width 0) (type default))
    (uuid 4da2ec50-351b-485c-aa00-286ea0c4890a)
  )
  (wire (pts (xy 85.09 97.79) (xy 91.44 97.79))
    (stroke (width 0) (type default))
    (uuid 4e80ea93-bd91-44e2-8179-e0ce198d85b7)
  )
  (wire (pts (xy 128.27 92.71) (xy 128.27 58.42))
    (stroke (width 0) (type default))
    (uuid 57e5df58-a926-4cc7-bdf5-386cc1ca6e50)
  )
  (wire (pts (xy 180.34 93.98) (xy 180.34 102.87))
    (stroke (width 0) (type default))
    (uuid 57e70631-4b48-4588-9f56-8b6711ac30b6)
  )
  (wire (pts (xy 153.67 58.42) (xy 189.23 58.42))
    (stroke (width 0) (type default))
    (uuid 61885667-f26a-4edb-8450-1d3e2b2ebe78)
  )
  (wire (pts (xy 180.34 85.09) (xy 180.34 93.98))
    (stroke (width 0) (type default))
    (uuid 6287911f-14d3-4428-a16f-7b41ce85bf34)
  )
  (wire (pts (xy 180.34 76.2) (xy 180.34 85.09))
    (stroke (width 0) (type default))
    (uuid 65b25c2b-5f99-4f59-b44b-5c71bfba866f)
  )
  (wire (pts (xy 163.83 115.57) (xy 140.97 115.57))
    (stroke (width 0) (type default))
    (uuid 661ffd3a-ff8e-4648-9729-ab491f35557f)
  )
  (wire (pts (xy 163.83 82.55) (xy 163.83 92.71))
    (stroke (width 0) (type default))
    (uuid 680e9aa2-cfd2-4c19-9d6d-c69b6d81fde8)
  )
  (wire (pts (xy 175.26 82.55) (xy 175.26 111.76))
    (stroke (width 0) (type default))
    (uuid 7e1ae3ee-2a7c-4ce4-bfca-66cabc198942)
  )
  (wire (pts (xy 208.28 111.76) (xy 214.63 111.76))
    (stroke (width 0) (type default))
    (uuid 81591fb5-eab4-4c9d-8a25-c40d93ac1600)
  )
  (wire (pts (xy 82.55 102.87) (xy 85.09 102.87))
    (stroke (width 0) (type default))
    (uuid 8f940287-8715-4884-84b7-6eae4df77b6a)
  )
  (wire (pts (xy 180.34 102.87) (xy 184.15 102.87))
    (stroke (width 0) (type default))
    (uuid 93dba915-ef86-41bb-a17c-e4845b6b671c)
  )
  (wire (pts (xy 175.26 111.76) (xy 187.96 111.76))
    (stroke (width 0) (type default))
    (uuid 94a7c32f-f43b-43a2-9e8e-15778c0f3a09)
  )
  (wire (pts (xy 171.45 82.55) (xy 175.26 82.55))
    (stroke (width 0) (type default))
    (uuid 95344c7a-b8bc-4fd2-b0cb-f1941a68efd3)
  )
  (wire (pts (xy 163.83 102.87) (xy 180.34 102.87))
    (stroke (width 0) (type default))
    (uuid 97fc0738-8a0a-401a-a75d-84716d7aa453)
  )
  (wire (pts (xy 214.63 111.76) (xy 219.71 111.76))
    (stroke (width 0) (type default))
    (uuid 9a75a17a-6e5d-4dcc-a20c-3b30bc176958)
  )
  (wire (pts (xy 171.45 95.25) (xy 171.45 100.33))
    (stroke (width 0) (type default))
    (uuid 9be0a79c-35cc-42d5-aea2-5e47c22b1cab)
  )
  (wire (pts (xy 123.19 100.33) (xy 123.19 115.57))
    (stroke (width 0) (type default))
    (uuid 9e27d94e-a085-4b5c-9701-08e7c2446d17)
  )
  (wire (pts (xy 85.09 102.87) (xy 91.44 102.87))
    (stroke (width 0) (type default))
    (uuid a3ab93b0-8519-4f7e-b4f3-242b45f3a3d3)
  )
  (wire (pts (xy 189.23 76.2) (xy 214.63 76.2))
    (stroke (width 0) (type default))
    (uuid a424d628-8171-4c2c-802b-4d3335cee77d)
  )
  (wire (pts (xy 128.27 58.42) (xy 135.89 58.42))
    (stroke (width 0) (type default))
    (uuid a45882c4-1892-484a-aa36-10361b340dac)
  )
  (wire (pts (xy 109.22 97.79) (xy 113.03 97.79))
    (stroke (width 0) (type default))
    (uuid a8b08c7b-4f90-4730-aee8-9cfac173b745)
  )
  (wire (pts (xy 205.74 102.87) (xy 205.74 120.65))
    (stroke (width 0) (type default))
    (uuid ac229aaf-fec9-4a49-abb9-568b4a619402)
  )
  (wire (pts (xy 116.84 125.73) (xy 116.84 110.49))
    (stroke (width 0) (type default))
    (uuid ad9ff991-c44b-4815-b095-39ef666ef80a)
  )
  (wire (pts (xy 123.19 125.73) (xy 116.84 125.73))
    (stroke (width 0) (type default))
    (uuid b2db85f1-4b08-4af3-89a0-d9506c2b9b02)
  )
  (wire (pts (xy 140.97 125.73) (xy 163.83 125.73))
    (stroke (width 0) (type default))
    (uuid b727e898-153a-404b-9942-015a6666482f)
  )
  (wire (pts (xy 130.81 105.41) (xy 91.44 105.41))
    (stroke (width 0) (type default))
    (uuid b7fa5634-5b4b-4654-88fb-75f3c527c35e)
  )
  (wire (pts (xy 91.44 107.95) (xy 91.44 105.41))
    (stroke (width 0) (type default))
    (uuid bc8ed894-c815-4028-aa26-6c6abf241a0a)
  )
  (wire (pts (xy 130.81 95.25) (xy 125.73 95.25))
    (stroke (width 0) (type default))
    (uuid bd2b019b-49fc-4a2e-a492-2504da527fc3)
  )
  (wire (pts (xy 91.44 102.87) (xy 130.81 102.87))
    (stroke (width 0) (type default))
    (uuid cd89dfcd-84a7-4e27-894b-af3cb119bf17)
  )
  (wire (pts (xy 85.09 92.71) (xy 85.09 97.79))
    (stroke (width 0) (type default))
    (uuid d0cacfed-beb0-4283-a702-3d257b69c040)
  )
  (wire (pts (xy 205.74 120.65) (xy 85.09 120.65))
    (stroke (width 0) (type default))
    (uuid d7467418-b90c-4442-ba65-bd36dcd862ce)
  )
  (wire (pts (xy 205.74 85.09) (xy 205.74 93.98))
    (stroke (width 0) (type default))
    (uuid e417d1ff-b3c5-448d-8825-523868769c02)
  )
  (wire (pts (xy 196.85 85.09) (xy 205.74 85.09))
    (stroke (width 0) (type default))
    (uuid e9cdf1a3-e9d9-4f76-9043-b9ae7a393c49)
  )
  (wire (pts (xy 214.63 111.76) (xy 214.63 116.84))
    (stroke (width 0) (type default))
    (uuid eca973a4-efb6-411b-8727-10174fc7ce2b)
  )
  (wire (pts (xy 214.63 129.54) (xy 85.09 129.54))
    (stroke (width 0) (type default))
    (uuid fb038341-aed6-4945-b0b6-3217af3fe3af)
  )

  (hierarchical_label "V+ (PV)" (shape input) (at 219.71 111.76 0) (fields_autoplaced)
    (effects (font (size 1.27 1.27)) (justify left))
    (uuid 084fb7ea-1f09-4e5b-996e-2ae3359bf7e0)
  )
  (hierarchical_label "GND" (shape input) (at 82.55 102.87 180) (fields_autoplaced)
    (effects (font (size 1.27 1.27)) (justify right))
    (uuid 3397e9e0-578b-48df-8965-5fb3d545a1eb)
  )
  (hierarchical_label "Vout" (shape input) (at 214.63 76.2 0) (fields_autoplaced)
    (effects (font (size 1.27 1.27)) (justify left))
    (uuid 7d400f1d-e66a-423c-a0b9-a6ac709b7e3c)
  )
  (hierarchical_label "V- (PV)" (shape input) (at 85.09 129.54 270) (fields_autoplaced)
    (effects (font (size 1.27 1.27)) (justify right))
    (uuid 8a908473-3497-4b3b-8074-0a4e2e94c830)
  )
  (hierarchical_label "MPPT" (shape input) (at 102.87 110.49 180) (fields_autoplaced)
    (effects (font (size 1.27 1.27)) (justify right))
    (uuid b646f39d-5ff9-4540-a47d-21cf6852657d)
  )

  (symbol (lib_id "pow_sys:10uF") (at 184.15 102.87 0) (unit 1)
    (in_bom yes) (on_board yes) (dnp no) (fields_autoplaced)
    (uuid 113c4303-a489-48f2-905a-e642004ee279)
    (property "Reference" "C4" (at 190.5 95.25 0)
      (effects (font (size 1.27 1.27)))
    )
    (property "Value" "10uF" (at 190.5 97.79 0)
      (effects (font (size 1.27 1.27)))
    )
    (property "Footprint" "pow_sys_footprint:10uF" (at 193.04 199.06 0)
      (effects (font (size 1.27 1.27)) (justify left top) hide)
    )
    (property "Datasheet" "http://componentsearchengine.com/Datasheets/1/GRM188R61E106KA73D.pdf" (at 193.04 299.06 0)
      (effects (font (size 1.27 1.27)) (justify left top) hide)
    )
    (property "Height" "0.9" (at 193.04 499.06 0)
      (effects (font (size 1.27 1.27)) (justify left top) hide)
    )
    (property "Manufacturer_Name" "Murata Electronics" (at 193.04 599.06 0)
      (effects (font (size 1.27 1.27)) (justify left top) hide)
    )
    (property "Manufacturer_Part_Number" "GRM188R61E106KA73D" (at 193.04 699.06 0)
      (effects (font (size 1.27 1.27)) (justify left top) hide)
    )
    (property "Mouser Part Number" "81-GRM188R61E106KA3D" (at 193.04 799.06 0)
      (effects (font (size 1.27 1.27)) (justify left top) hide)
    )
    (property "Mouser Price/Stock" "https://www.mouser.co.uk/ProductDetail/Murata-Electronics/GRM188R61E106KA73D?qs=5aG0NVq1C4z8ebxPkQZf9A%3D%3D" (at 193.04 899.06 0)
      (effects (font (size 1.27 1.27)) (justify left top) hide)
    )
    (property "Arrow Part Number" "GRM188R61E106KA73D" (at 193.04 999.06 0)
      (effects (font (size 1.27 1.27)) (justify left top) hide)
    )
    (property "Arrow Price/Stock" "https://www.arrow.com/en/products/grm188r61e106ka73d/murata-manufacturing?region=nac" (at 193.04 1099.06 0)
      (effects (font (size 1.27 1.27)) (justify left top) hide)
    )
    (pin "1" (uuid 9e77222e-3918-4577-ad37-4de8264d6ffa))
    (pin "2" (uuid d97581be-a6bb-4c51-9e4a-5a46d6ec99c6))
    (instances
      (project "Power_System"
        (path "/3ea1082b-b0a4-45c4-addf-21d415406c47/06bfb62c-36e0-4122-ba3c-f364a328f0eb"
          (reference "C4") (unit 1)
        )
      )
    )
  )

  (symbol (lib_id "pow_sys:100 kΩ") (at 123.19 115.57 0) (unit 1)
    (in_bom yes) (on_board yes) (dnp no) (fields_autoplaced)
    (uuid 1eaf380f-f875-413d-afd7-541ff69a1208)
    (property "Reference" "R6" (at 132.08 109.22 0)
      (effects (font (size 1.27 1.27)))
    )
    (property "Value" "100 kΩ" (at 132.08 111.76 0)
      (effects (font (size 1.27 1.27)))
    )
    (property "Footprint" "RESC1608X55N" (at 137.16 211.76 0)
      (effects (font (size 1.27 1.27)) (justify left top) hide)
    )
    (property "Datasheet" "http://www.vishay.com/docs/28705/mcx0x0xpro.pdf" (at 137.16 311.76 0)
      (effects (font (size 1.27 1.27)) (justify left top) hide)
    )
    (property "Height" "0.55" (at 137.16 511.76 0)
      (effects (font (size 1.27 1.27)) (justify left top) hide)
    )
    (property "Manufacturer_Name" "Vishay" (at 137.16 611.76 0)
      (effects (font (size 1.27 1.27)) (justify left top) hide)
    )
    (property "Manufacturer_Part_Number" "MCT0603MG1003BP500" (at 137.16 711.76 0)
      (effects (font (size 1.27 1.27)) (justify left top) hide)
    )
    (property "Mouser Part Number" "594-MCT0603MG1003BP5" (at 137.16 811.76 0)
      (effects (font (size 1.27 1.27)) (justify left top) hide)
    )
    (property "Mouser Price/Stock" "https://www.mouser.co.uk/ProductDetail/Vishay-Beyschlag/MCT0603MG1003BP500?qs=Y0Uzf4wQF3lHJ34mcJhrdQ%3D%3D" (at 137.16 911.76 0)
      (effects (font (size 1.27 1.27)) (justify left top) hide)
    )
    (property "Arrow Part Number" "" (at 137.16 1011.76 0)
      (effects (font (size 1.27 1.27)) (justify left top) hide)
    )
    (property "Arrow Price/Stock" "" (at 137.16 1111.76 0)
      (effects (font (size 1.27 1.27)) (justify left top) hide)
    )
    (pin "1" (uuid 703b08f2-199c-4c1b-9a84-2567b866b056))
    (pin "2" (uuid 7c32de35-9631-409a-bb00-1a7ce9cd2622))
    (instances
      (project "Power_System"
        (path "/3ea1082b-b0a4-45c4-addf-21d415406c47/06bfb62c-36e0-4122-ba3c-f364a328f0eb"
          (reference "R6") (unit 1)
        )
      )
    )
  )

  (symbol (lib_id "pow_sys:909 kΩ") (at 189.23 76.2 90) (unit 1)
    (in_bom yes) (on_board yes) (dnp no) (fields_autoplaced)
    (uuid 4015ff17-b848-4ac3-9da3-e50973d7dc5c)
    (property "Reference" "R4" (at 191.77 66.04 90)
      (effects (font (size 1.27 1.27)) (justify right))
    )
    (property "Value" "909 kΩ" (at 191.77 68.58 90)
      (effects (font (size 1.27 1.27)) (justify right))
    )
    (property "Footprint" "pow_sys_footprint:909 kΩ" (at 285.42 62.23 0)
      (effects (font (size 1.27 1.27)) (justify left top) hide)
    )
    (property "Datasheet" "http://www.yageo.com/documents/recent/PYu-RC0402_51_RoHS_L_6_r.pdf" (at 385.42 62.23 0)
      (effects (font (size 1.27 1.27)) (justify left top) hide)
    )
    (property "Height" "0.4" (at 585.42 62.23 0)
      (effects (font (size 1.27 1.27)) (justify left top) hide)
    )
    (property "Manufacturer_Name" "KEMET" (at 685.42 62.23 0)
      (effects (font (size 1.27 1.27)) (justify left top) hide)
    )
    (property "Manufacturer_Part_Number" "RC0402FR-07909KL" (at 785.42 62.23 0)
      (effects (font (size 1.27 1.27)) (justify left top) hide)
    )
    (property "Mouser Part Number" "603-RC0402FR-07909KL" (at 885.42 62.23 0)
      (effects (font (size 1.27 1.27)) (justify left top) hide)
    )
    (property "Mouser Price/Stock" "https://www.mouser.com/Search/Refine.aspx?Keyword=603-RC0402FR-07909KL" (at 985.42 62.23 0)
      (effects (font (size 1.27 1.27)) (justify left top) hide)
    )
    (property "Arrow Part Number" "" (at 1085.42 62.23 0)
      (effects (font (size 1.27 1.27)) (justify left top) hide)
    )
    (property "Arrow Price/Stock" "" (at 1185.42 62.23 0)
      (effects (font (size 1.27 1.27)) (justify left top) hide)
    )
    (pin "1" (uuid dbfbe6aa-ca9c-4a3c-ba35-467664b3c84d))
    (pin "2" (uuid 6d51a5df-d275-4965-919f-c1a7ee1bab80))
    (instances
      (project "Power_System"
        (path "/3ea1082b-b0a4-45c4-addf-21d415406c47/06bfb62c-36e0-4122-ba3c-f364a328f0eb"
          (reference "R4") (unit 1)
        )
      )
    )
  )

  (symbol (lib_id "pow_sys:10uF") (at 184.15 93.98 0) (unit 1)
    (in_bom yes) (on_board yes) (dnp no) (fields_autoplaced)
    (uuid 6db011f1-1403-442f-ba0d-c23f74d2ac1f)
    (property "Reference" "C3" (at 190.5 86.36 0)
      (effects (font (size 1.27 1.27)))
    )
    (property "Value" "10uF" (at 190.5 88.9 0)
      (effects (font (size 1.27 1.27)))
    )
    (property "Footprint" "pow_sys_footprint:10uF" (at 193.04 190.17 0)
      (effects (font (size 1.27 1.27)) (justify left top) hide)
    )
    (property "Datasheet" "http://componentsearchengine.com/Datasheets/1/GRM188R61E106KA73D.pdf" (at 193.04 290.17 0)
      (effects (font (size 1.27 1.27)) (justify left top) hide)
    )
    (property "Height" "0.9" (at 193.04 490.17 0)
      (effects (font (size 1.27 1.27)) (justify left top) hide)
    )
    (property "Manufacturer_Name" "Murata Electronics" (at 193.04 590.17 0)
      (effects (font (size 1.27 1.27)) (justify left top) hide)
    )
    (property "Manufacturer_Part_Number" "GRM188R61E106KA73D" (at 193.04 690.17 0)
      (effects (font (size 1.27 1.27)) (justify left top) hide)
    )
    (property "Mouser Part Number" "81-GRM188R61E106KA3D" (at 193.04 790.17 0)
      (effects (font (size 1.27 1.27)) (justify left top) hide)
    )
    (property "Mouser Price/Stock" "https://www.mouser.co.uk/ProductDetail/Murata-Electronics/GRM188R61E106KA73D?qs=5aG0NVq1C4z8ebxPkQZf9A%3D%3D" (at 193.04 890.17 0)
      (effects (font (size 1.27 1.27)) (justify left top) hide)
    )
    (property "Arrow Part Number" "GRM188R61E106KA73D" (at 193.04 990.17 0)
      (effects (font (size 1.27 1.27)) (justify left top) hide)
    )
    (property "Arrow Price/Stock" "https://www.arrow.com/en/products/grm188r61e106ka73d/murata-manufacturing?region=nac" (at 193.04 1090.17 0)
      (effects (font (size 1.27 1.27)) (justify left top) hide)
    )
    (pin "1" (uuid d914e436-ed7e-4fdc-82e9-0ebb5e949c23))
    (pin "2" (uuid 173d6210-c2b3-47b9-b8de-f458f96fa9f8))
    (instances
      (project "Power_System"
        (path "/3ea1082b-b0a4-45c4-addf-21d415406c47/06bfb62c-36e0-4122-ba3c-f364a328f0eb"
          (reference "C3") (unit 1)
        )
      )
    )
  )

  (symbol (lib_id "pow_sys:61.9 kΩ") (at 91.44 97.79 0) (unit 1)
    (in_bom yes) (on_board yes) (dnp no) (fields_autoplaced)
    (uuid 6e3c65c9-23ee-4038-b4bb-dc228f4e96cd)
    (property "Reference" "R5" (at 100.33 91.44 0)
      (effects (font (size 1.27 1.27)))
    )
    (property "Value" "61.9 kΩ" (at 100.33 93.98 0)
      (effects (font (size 1.27 1.27)))
    )
    (property "Footprint" "pow_sys_footprint:61.9 kΩ" (at 105.41 193.98 0)
      (effects (font (size 1.27 1.27)) (justify left top) hide)
    )
    (property "Datasheet" "http://industrial.panasonic.com/cdbs/www-data/pdf/RDM0000/RDM0000C331.pdf" (at 105.41 293.98 0)
      (effects (font (size 1.27 1.27)) (justify left top) hide)
    )
    (property "Height" "0.4" (at 105.41 493.98 0)
      (effects (font (size 1.27 1.27)) (justify left top) hide)
    )
    (property "Manufacturer_Name" "Panasonic" (at 105.41 593.98 0)
      (effects (font (size 1.27 1.27)) (justify left top) hide)
    )
    (property "Manufacturer_Part_Number" "ERA-3VEB6192V" (at 105.41 693.98 0)
      (effects (font (size 1.27 1.27)) (justify left top) hide)
    )
    (property "Mouser Part Number" "" (at 105.41 793.98 0)
      (effects (font (size 1.27 1.27)) (justify left top) hide)
    )
    (property "Mouser Price/Stock" "" (at 105.41 893.98 0)
      (effects (font (size 1.27 1.27)) (justify left top) hide)
    )
    (property "Arrow Part Number" "" (at 105.41 993.98 0)
      (effects (font (size 1.27 1.27)) (justify left top) hide)
    )
    (property "Arrow Price/Stock" "" (at 105.41 1093.98 0)
      (effects (font (size 1.27 1.27)) (justify left top) hide)
    )
    (pin "1" (uuid 4c98bd00-6919-4ca2-8343-0df2086a4633))
    (pin "2" (uuid 1a0a53e1-ef2d-4c9b-9782-679331e30f80))
    (instances
      (project "Power_System"
        (path "/3ea1082b-b0a4-45c4-addf-21d415406c47/06bfb62c-36e0-4122-ba3c-f364a328f0eb"
          (reference "R5") (unit 1)
        )
      )
    )
  )

  (symbol (lib_id "pow_sys:New_Boost") (at 130.81 92.71 0) (unit 1)
    (in_bom yes) (on_board yes) (dnp no) (fields_autoplaced)
    (uuid 8f3ac2e4-f747-4e36-b2cf-2487a11b5023)
    (property "Reference" "IC1" (at 147.32 85.09 0)
      (effects (font (size 1.27 1.27)))
    )
    (property "Value" "New_Boost" (at 147.32 87.63 0)
      (effects (font (size 1.27 1.27)))
    )
    (property "Footprint" "pow_sys_footprint:New_Boost" (at 160.02 187.63 0)
      (effects (font (size 1.27 1.27)) (justify left top) hide)
    )
    (property "Datasheet" "http://www.ti.com/lit/gpn/TPS61372" (at 160.02 287.63 0)
      (effects (font (size 1.27 1.27)) (justify left top) hide)
    )
    (property "Height" "0.5" (at 160.02 487.63 0)
      (effects (font (size 1.27 1.27)) (justify left top) hide)
    )
    (property "Manufacturer_Name" "Texas Instruments" (at 160.02 587.63 0)
      (effects (font (size 1.27 1.27)) (justify left top) hide)
    )
    (property "Manufacturer_Part_Number" "TPS61372YKBT" (at 160.02 687.63 0)
      (effects (font (size 1.27 1.27)) (justify left top) hide)
    )
    (property "Mouser Part Number" "595-TPS61372YKBT" (at 160.02 787.63 0)
      (effects (font (size 1.27 1.27)) (justify left top) hide)
    )
    (property "Mouser Price/Stock" "https://www.mouser.co.uk/ProductDetail/Texas-Instruments/TPS61372YKBT?qs=l7cgNqFNU1hqS%252B1N9xjEQg%3D%3D" (at 160.02 887.63 0)
      (effects (font (size 1.27 1.27)) (justify left top) hide)
    )
    (property "Arrow Part Number" "TPS61372YKBT" (at 160.02 987.63 0)
      (effects (font (size 1.27 1.27)) (justify left top) hide)
    )
    (property "Arrow Price/Stock" "https://www.arrow.com/en/products/tps61372ykbt/texas-instruments" (at 160.02 1087.63 0)
      (effects (font (size 1.27 1.27)) (justify left top) hide)
    )
    (pin "A1" (uuid 2e9387fc-0566-4374-b24f-cc488a26582d))
    (pin "A2" (uuid 8a88dc7b-0283-4985-9475-f46a109138fd))
    (pin "A3" (uuid 4f23d1ac-3224-4bdb-901c-2b0776bdb7a3))
    (pin "A4" (uuid ba07482d-f123-448c-b704-bf96ad6085dc))
    (pin "B1" (uuid aae24e22-9c89-4506-9fb6-541ac3f8ced6))
    (pin "B2" (uuid 4ee8462f-9de3-42c1-b89e-09ad7beff3b4))
    (pin "B3" (uuid 6903e56a-281b-4dd0-ba9c-fb33b9e8fa0e))
    (pin "B4" (uuid 48f2feec-869f-4be4-a1d0-f7a834a5d8a2))
    (pin "C1" (uuid 86cc4588-831b-422a-b14c-850cd22b2a2a))
    (pin "C2" (uuid 6c400686-fb43-4caf-af39-5427eb14dec2))
    (pin "C3" (uuid 30ac8a17-5276-4d4c-a953-889af53a54ee))
    (pin "C4" (uuid e015943b-d872-47ca-a458-369dae2bad09))
    (pin "D1" (uuid ed51aa88-f85f-40d2-b3d8-da6a3752de81))
    (pin "D2" (uuid aef86eb0-bf3b-4a8f-a9d5-9e0595e4f3b4))
    (pin "D3" (uuid 23ee04ef-87d3-452d-b457-36b8abb3e512))
    (pin "D4" (uuid aad99a82-9977-44b4-8a31-85502ce70916))
    (instances
      (project "Power_System"
        (path "/3ea1082b-b0a4-45c4-addf-21d415406c47/06bfb62c-36e0-4122-ba3c-f364a328f0eb"
          (reference "IC1") (unit 1)
        )
      )
    )
  )

  (symbol (lib_id "pow_sys:10uF") (at 184.15 85.09 0) (unit 1)
    (in_bom yes) (on_board yes) (dnp no) (fields_autoplaced)
    (uuid 98473cf6-f30e-46cb-a6fb-3934eb4ea48f)
    (property "Reference" "C2" (at 190.5 77.47 0)
      (effects (font (size 1.27 1.27)))
    )
    (property "Value" "10uF" (at 190.5 80.01 0)
      (effects (font (size 1.27 1.27)))
    )
    (property "Footprint" "pow_sys_footprint:10uF" (at 193.04 181.28 0)
      (effects (font (size 1.27 1.27)) (justify left top) hide)
    )
    (property "Datasheet" "http://componentsearchengine.com/Datasheets/1/GRM188R61E106KA73D.pdf" (at 193.04 281.28 0)
      (effects (font (size 1.27 1.27)) (justify left top) hide)
    )
    (property "Height" "0.9" (at 193.04 481.28 0)
      (effects (font (size 1.27 1.27)) (justify left top) hide)
    )
    (property "Manufacturer_Name" "Murata Electronics" (at 193.04 581.28 0)
      (effects (font (size 1.27 1.27)) (justify left top) hide)
    )
    (property "Manufacturer_Part_Number" "GRM188R61E106KA73D" (at 193.04 681.28 0)
      (effects (font (size 1.27 1.27)) (justify left top) hide)
    )
    (property "Mouser Part Number" "81-GRM188R61E106KA3D" (at 193.04 781.28 0)
      (effects (font (size 1.27 1.27)) (justify left top) hide)
    )
    (property "Mouser Price/Stock" "https://www.mouser.co.uk/ProductDetail/Murata-Electronics/GRM188R61E106KA73D?qs=5aG0NVq1C4z8ebxPkQZf9A%3D%3D" (at 193.04 881.28 0)
      (effects (font (size 1.27 1.27)) (justify left top) hide)
    )
    (property "Arrow Part Number" "GRM188R61E106KA73D" (at 193.04 981.28 0)
      (effects (font (size 1.27 1.27)) (justify left top) hide)
    )
    (property "Arrow Price/Stock" "https://www.arrow.com/en/products/grm188r61e106ka73d/murata-manufacturing?region=nac" (at 193.04 1081.28 0)
      (effects (font (size 1.27 1.27)) (justify left top) hide)
    )
    (pin "1" (uuid 1e3e8bef-3845-4bb9-a76a-ad61a5d52582))
    (pin "2" (uuid 0b537f34-b297-451d-99ca-8762ccdf7096))
    (instances
      (project "Power_System"
        (path "/3ea1082b-b0a4-45c4-addf-21d415406c47/06bfb62c-36e0-4122-ba3c-f364a328f0eb"
          (reference "C2") (unit 1)
        )
      )
    )
  )

  (symbol (lib_id "pow_sys:10uF") (at 214.63 129.54 90) (unit 1)
    (in_bom yes) (on_board yes) (dnp no) (fields_autoplaced)
    (uuid a1821966-3af3-476c-a69e-5e779b7941a8)
    (property "Reference" "C7" (at 218.44 121.92 90)
      (effects (font (size 1.27 1.27)) (justify right))
    )
    (property "Value" "10uF" (at 218.44 124.46 90)
      (effects (font (size 1.27 1.27)) (justify right))
    )
    (property "Footprint" "pow_sys_footprint:10uF" (at 310.82 120.65 0)
      (effects (font (size 1.27 1.27)) (justify left top) hide)
    )
    (property "Datasheet" "http://componentsearchengine.com/Datasheets/1/GRM188R61E106KA73D.pdf" (at 410.82 120.65 0)
      (effects (font (size 1.27 1.27)) (justify left top) hide)
    )
    (property "Height" "0.9" (at 610.82 120.65 0)
      (effects (font (size 1.27 1.27)) (justify left top) hide)
    )
    (property "Manufacturer_Name" "Murata Electronics" (at 710.82 120.65 0)
      (effects (font (size 1.27 1.27)) (justify left top) hide)
    )
    (property "Manufacturer_Part_Number" "GRM188R61E106KA73D" (at 810.82 120.65 0)
      (effects (font (size 1.27 1.27)) (justify left top) hide)
    )
    (property "Mouser Part Number" "81-GRM188R61E106KA3D" (at 910.82 120.65 0)
      (effects (font (size 1.27 1.27)) (justify left top) hide)
    )
    (property "Mouser Price/Stock" "https://www.mouser.co.uk/ProductDetail/Murata-Electronics/GRM188R61E106KA73D?qs=5aG0NVq1C4z8ebxPkQZf9A%3D%3D" (at 1010.82 120.65 0)
      (effects (font (size 1.27 1.27)) (justify left top) hide)
    )
    (property "Arrow Part Number" "GRM188R61E106KA73D" (at 1110.82 120.65 0)
      (effects (font (size 1.27 1.27)) (justify left top) hide)
    )
    (property "Arrow Price/Stock" "https://www.arrow.com/en/products/grm188r61e106ka73d/murata-manufacturing?region=nac" (at 1210.82 120.65 0)
      (effects (font (size 1.27 1.27)) (justify left top) hide)
    )
    (pin "1" (uuid 09662703-89d3-4aae-b80e-69834d7b606d))
    (pin "2" (uuid ba5fcf3e-e909-45e8-8a07-bc4a7a56e4e6))
    (instances
      (project "Power_System"
        (path "/3ea1082b-b0a4-45c4-addf-21d415406c47/06bfb62c-36e0-4122-ba3c-f364a328f0eb"
          (reference "C7") (unit 1)
        )
      )
    )
  )

  (symbol (lib_id "pow_sys:100 kΩ") (at 135.89 58.42 0) (unit 1)
    (in_bom yes) (on_board yes) (dnp no) (fields_autoplaced)
    (uuid b6e4c912-16b7-424f-b252-6e9cc671376d)
    (property "Reference" "R3" (at 144.78 52.07 0)
      (effects (font (size 1.27 1.27)))
    )
    (property "Value" "100 kΩ" (at 144.78 54.61 0)
      (effects (font (size 1.27 1.27)))
    )
    (property "Footprint" "pow_sys_footprint:RESC1608X55N" (at 149.86 154.61 0)
      (effects (font (size 1.27 1.27)) (justify left top) hide)
    )
    (property "Datasheet" "http://www.vishay.com/docs/28705/mcx0x0xpro.pdf" (at 149.86 254.61 0)
      (effects (font (size 1.27 1.27)) (justify left top) hide)
    )
    (property "Height" "0.55" (at 149.86 454.61 0)
      (effects (font (size 1.27 1.27)) (justify left top) hide)
    )
    (property "Manufacturer_Name" "Vishay" (at 149.86 554.61 0)
      (effects (font (size 1.27 1.27)) (justify left top) hide)
    )
    (property "Manufacturer_Part_Number" "MCT0603MG1003BP500" (at 149.86 654.61 0)
      (effects (font (size 1.27 1.27)) (justify left top) hide)
    )
    (property "Mouser Part Number" "594-MCT0603MG1003BP5" (at 149.86 754.61 0)
      (effects (font (size 1.27 1.27)) (justify left top) hide)
    )
    (property "Mouser Price/Stock" "https://www.mouser.co.uk/ProductDetail/Vishay-Beyschlag/MCT0603MG1003BP500?qs=Y0Uzf4wQF3lHJ34mcJhrdQ%3D%3D" (at 149.86 854.61 0)
      (effects (font (size 1.27 1.27)) (justify left top) hide)
    )
    (property "Arrow Part Number" "" (at 149.86 954.61 0)
      (effects (font (size 1.27 1.27)) (justify left top) hide)
    )
    (property "Arrow Price/Stock" "" (at 149.86 1054.61 0)
      (effects (font (size 1.27 1.27)) (justify left top) hide)
    )
    (pin "1" (uuid ade37eea-c602-46e2-8e47-0ef8692fa1e3))
    (pin "2" (uuid 126b6784-d00a-4720-b19b-1e0503e28e57))
    (instances
      (project "Power_System"
        (path "/3ea1082b-b0a4-45c4-addf-21d415406c47/06bfb62c-36e0-4122-ba3c-f364a328f0eb"
          (reference "R3") (unit 1)
        )
      )
    )
  )

  (symbol (lib_id "pow_sys:DFE2016CKA-2R2M=P2") (at 187.96 111.76 0) (unit 1)
    (in_bom yes) (on_board yes) (dnp no) (fields_autoplaced)
    (uuid beb48fb0-487a-4778-b410-261d4dfcb55b)
    (property "Reference" "L1" (at 198.12 105.41 0)
      (effects (font (size 1.27 1.27)))
    )
    (property "Value" "DFE2016CKA-2R2M=P2" (at 198.12 107.95 0)
      (effects (font (size 1.27 1.27)))
    )
    (property "Footprint" "DFE2016CKA1R0MP2" (at 204.47 207.95 0)
      (effects (font (size 1.27 1.27)) (justify left top) hide)
    )
    (property "Datasheet" "https://psearch.en.murata.com/inductor/product/DFE2016CKA-2R2M%23.html" (at 204.47 307.95 0)
      (effects (font (size 1.27 1.27)) (justify left top) hide)
    )
    (property "Height" "0.65" (at 204.47 507.95 0)
      (effects (font (size 1.27 1.27)) (justify left top) hide)
    )
    (property "Manufacturer_Name" "Murata Electronics" (at 204.47 607.95 0)
      (effects (font (size 1.27 1.27)) (justify left top) hide)
    )
    (property "Manufacturer_Part_Number" "DFE2016CKA-2R2M=P2" (at 204.47 707.95 0)
      (effects (font (size 1.27 1.27)) (justify left top) hide)
    )
    (property "Mouser Part Number" "81-DFE2016CKA2R2M=P2" (at 204.47 807.95 0)
      (effects (font (size 1.27 1.27)) (justify left top) hide)
    )
    (property "Mouser Price/Stock" "https://www.mouser.co.uk/ProductDetail/Murata-Electronics/DFE2016CKA-2R2M%3dP2?qs=rI7uf1IzohTgEoAgMClTBQ%3D%3D" (at 204.47 907.95 0)
      (effects (font (size 1.27 1.27)) (justify left top) hide)
    )
    (property "Arrow Part Number" "" (at 204.47 1007.95 0)
      (effects (font (size 1.27 1.27)) (justify left top) hide)
    )
    (property "Arrow Price/Stock" "" (at 204.47 1107.95 0)
      (effects (font (size 1.27 1.27)) (justify left top) hide)
    )
    (pin "1" (uuid 9adc7de3-982f-4d68-b14b-083a51c63ea4))
    (pin "2" (uuid f035dc7f-fbba-4e43-8ebb-fd7b47ee3df7))
    (instances
      (project "Power_System"
        (path "/3ea1082b-b0a4-45c4-addf-21d415406c47/06bfb62c-36e0-4122-ba3c-f364a328f0eb"
          (reference "L1") (unit 1)
        )
      )
    )
  )

  (symbol (lib_id "pow_sys:100 kΩ") (at 123.19 125.73 0) (unit 1)
    (in_bom yes) (on_board yes) (dnp no) (fields_autoplaced)
    (uuid ccb7eb4c-e232-4af3-8ab1-504306492c98)
    (property "Reference" "R7" (at 132.08 119.38 0)
      (effects (font (size 1.27 1.27)))
    )
    (property "Value" "100 kΩ" (at 132.08 121.92 0)
      (effects (font (size 1.27 1.27)))
    )
    (property "Footprint" "RESC1608X55N" (at 137.16 221.92 0)
      (effects (font (size 1.27 1.27)) (justify left top) hide)
    )
    (property "Datasheet" "http://www.vishay.com/docs/28705/mcx0x0xpro.pdf" (at 137.16 321.92 0)
      (effects (font (size 1.27 1.27)) (justify left top) hide)
    )
    (property "Height" "0.55" (at 137.16 521.92 0)
      (effects (font (size 1.27 1.27)) (justify left top) hide)
    )
    (property "Manufacturer_Name" "Vishay" (at 137.16 621.92 0)
      (effects (font (size 1.27 1.27)) (justify left top) hide)
    )
    (property "Manufacturer_Part_Number" "MCT0603MG1003BP500" (at 137.16 721.92 0)
      (effects (font (size 1.27 1.27)) (justify left top) hide)
    )
    (property "Mouser Part Number" "594-MCT0603MG1003BP5" (at 137.16 821.92 0)
      (effects (font (size 1.27 1.27)) (justify left top) hide)
    )
    (property "Mouser Price/Stock" "https://www.mouser.co.uk/ProductDetail/Vishay-Beyschlag/MCT0603MG1003BP500?qs=Y0Uzf4wQF3lHJ34mcJhrdQ%3D%3D" (at 137.16 921.92 0)
      (effects (font (size 1.27 1.27)) (justify left top) hide)
    )
    (property "Arrow Part Number" "" (at 137.16 1021.92 0)
      (effects (font (size 1.27 1.27)) (justify left top) hide)
    )
    (property "Arrow Price/Stock" "" (at 137.16 1121.92 0)
      (effects (font (size 1.27 1.27)) (justify left top) hide)
    )
    (pin "1" (uuid 8ed2f261-75cd-4c2a-93db-477c4e1180be))
    (pin "2" (uuid cd8c37b7-26c1-447a-a7d8-c15f6a1c955c))
    (instances
      (project "Power_System"
        (path "/3ea1082b-b0a4-45c4-addf-21d415406c47/06bfb62c-36e0-4122-ba3c-f364a328f0eb"
          (reference "R7") (unit 1)
        )
      )
    )
  )

  (symbol (lib_id "pow_sys:0.1 uF") (at 171.45 95.25 90) (unit 1)
    (in_bom yes) (on_board yes) (dnp no) (fields_autoplaced)
    (uuid d1b07371-d6c8-4135-a206-a3cd6ac46bef)
    (property "Reference" "C6" (at 175.26 87.63 90)
      (effects (font (size 1.27 1.27)) (justify right))
    )
    (property "Value" "0.1 uF" (at 175.26 90.17 90)
      (effects (font (size 1.27 1.27)) (justify right))
    )
    (property "Footprint" "pow_sys_footprint:0.1 uF" (at 267.64 86.36 0)
      (effects (font (size 1.27 1.27)) (justify left top) hide)
    )
    (property "Datasheet" "https://connect.kemet.com:7667/gateway/IntelliData-ComponentDocumentation/1.0/download/specsheet/C0603C104K1RACAUTO" (at 367.64 86.36 0)
      (effects (font (size 1.27 1.27)) (justify left top) hide)
    )
    (property "Height" "0.95" (at 567.64 86.36 0)
      (effects (font (size 1.27 1.27)) (justify left top) hide)
    )
    (property "Manufacturer_Name" "KEMET" (at 667.64 86.36 0)
      (effects (font (size 1.27 1.27)) (justify left top) hide)
    )
    (property "Manufacturer_Part_Number" "C0603C104K1RACAUTO" (at 767.64 86.36 0)
      (effects (font (size 1.27 1.27)) (justify left top) hide)
    )
    (property "Mouser Part Number" "80-C0603C104K1RAUTO" (at 867.64 86.36 0)
      (effects (font (size 1.27 1.27)) (justify left top) hide)
    )
    (property "Mouser Price/Stock" "https://www.mouser.co.uk/ProductDetail/KEMET/C0603C104K1RACAUTO?qs=3Rah4i%252BhyCGTQ5uPNXtfZA%3D%3D" (at 967.64 86.36 0)
      (effects (font (size 1.27 1.27)) (justify left top) hide)
    )
    (property "Arrow Part Number" "C0603C104K1RACAUTO" (at 1067.64 86.36 0)
      (effects (font (size 1.27 1.27)) (justify left top) hide)
    )
    (property "Arrow Price/Stock" "https://www.arrow.com/en/products/c0603c104k1racauto/kemet-corporation?region=europe" (at 1167.64 86.36 0)
      (effects (font (size 1.27 1.27)) (justify left top) hide)
    )
    (pin "1" (uuid f0929242-3b45-4dc4-8da2-5a3bb6553d89))
    (pin "2" (uuid 896f892f-fda1-4fb8-971b-550c9d87cc97))
    (instances
      (project "Power_System"
        (path "/3ea1082b-b0a4-45c4-addf-21d415406c47/06bfb62c-36e0-4122-ba3c-f364a328f0eb"
          (reference "C6") (unit 1)
        )
      )
    )
  )

  (symbol (lib_id "pow_sys:680 pF") (at 113.03 97.79 0) (unit 1)
    (in_bom yes) (on_board yes) (dnp no) (fields_autoplaced)
    (uuid d4a1c871-00e3-4508-a334-6586e44b6aba)
    (property "Reference" "C5" (at 119.38 90.17 0)
      (effects (font (size 1.27 1.27)))
    )
    (property "Value" "680 pF" (at 119.38 92.71 0)
      (effects (font (size 1.27 1.27)))
    )
    (property "Footprint" "pow_sys_footprint:680 pF" (at 121.92 193.98 0)
      (effects (font (size 1.27 1.27)) (justify left top) hide)
    )
    (property "Datasheet" "https://datasheet.datasheetarchive.com/originals/distributors/DKDS-10/187494.pdf" (at 121.92 293.98 0)
      (effects (font (size 1.27 1.27)) (justify left top) hide)
    )
    (property "Height" "0.55" (at 121.92 493.98 0)
      (effects (font (size 1.27 1.27)) (justify left top) hide)
    )
    (property "Manufacturer_Name" "Murata Electronics" (at 121.92 593.98 0)
      (effects (font (size 1.27 1.27)) (justify left top) hide)
    )
    (property "Manufacturer_Part_Number" "GCM1555C1H681FA16D" (at 121.92 693.98 0)
      (effects (font (size 1.27 1.27)) (justify left top) hide)
    )
    (property "Mouser Part Number" "81-GCM1555C1H681FA6D" (at 121.92 793.98 0)
      (effects (font (size 1.27 1.27)) (justify left top) hide)
    )
    (property "Mouser Price/Stock" "https://www.mouser.co.uk/ProductDetail/Murata-Electronics/GCM1555C1H681FA16D?qs=QzBtWTOodeVU2SBwKzAbxQ%3D%3D" (at 121.92 893.98 0)
      (effects (font (size 1.27 1.27)) (justify left top) hide)
    )
    (property "Arrow Part Number" "GCM1555C1H681FA16D" (at 121.92 993.98 0)
      (effects (font (size 1.27 1.27)) (justify left top) hide)
    )
    (property "Arrow Price/Stock" "https://www.arrow.com/en/products/gcm1555c1h681fa16d/murata-manufacturing" (at 121.92 1093.98 0)
      (effects (font (size 1.27 1.27)) (justify left top) hide)
    )
    (pin "1" (uuid 6a28db68-d45f-435d-924e-153fae3567f3))
    (pin "2" (uuid 11ac4799-f20e-4690-b8de-cfbde7c639e9))
    (instances
      (project "Power_System"
        (path "/3ea1082b-b0a4-45c4-addf-21d415406c47/06bfb62c-36e0-4122-ba3c-f364a328f0eb"
          (reference "C5") (unit 1)
        )
      )
    )
  )

  (symbol (lib_id "pow_sys:100 kΩ") (at 85.09 92.71 0) (unit 1)
    (in_bom yes) (on_board yes) (dnp no) (fields_autoplaced)
    (uuid e24c377c-cc10-471f-97cb-c45c9782cd0f)
    (property "Reference" "R2" (at 93.98 86.36 0)
      (effects (font (size 1.27 1.27)))
    )
    (property "Value" "100 kΩ" (at 93.98 88.9 0)
      (effects (font (size 1.27 1.27)))
    )
    (property "Footprint" "pow_sys_footprint:RESC1608X55N" (at 99.06 188.9 0)
      (effects (font (size 1.27 1.27)) (justify left top) hide)
    )
    (property "Datasheet" "http://www.vishay.com/docs/28705/mcx0x0xpro.pdf" (at 99.06 288.9 0)
      (effects (font (size 1.27 1.27)) (justify left top) hide)
    )
    (property "Height" "0.55" (at 99.06 488.9 0)
      (effects (font (size 1.27 1.27)) (justify left top) hide)
    )
    (property "Manufacturer_Name" "Vishay" (at 99.06 588.9 0)
      (effects (font (size 1.27 1.27)) (justify left top) hide)
    )
    (property "Manufacturer_Part_Number" "MCT0603MG1003BP500" (at 99.06 688.9 0)
      (effects (font (size 1.27 1.27)) (justify left top) hide)
    )
    (property "Mouser Part Number" "594-MCT0603MG1003BP5" (at 99.06 788.9 0)
      (effects (font (size 1.27 1.27)) (justify left top) hide)
    )
    (property "Mouser Price/Stock" "https://www.mouser.co.uk/ProductDetail/Vishay-Beyschlag/MCT0603MG1003BP500?qs=Y0Uzf4wQF3lHJ34mcJhrdQ%3D%3D" (at 99.06 888.9 0)
      (effects (font (size 1.27 1.27)) (justify left top) hide)
    )
    (property "Arrow Part Number" "" (at 99.06 988.9 0)
      (effects (font (size 1.27 1.27)) (justify left top) hide)
    )
    (property "Arrow Price/Stock" "" (at 99.06 1088.9 0)
      (effects (font (size 1.27 1.27)) (justify left top) hide)
    )
    (pin "1" (uuid f0760c99-c084-489f-b39e-17c5e78dd211))
    (pin "2" (uuid 7e51f1f9-2175-4351-89f0-d353ba685d75))
    (instances
      (project "Power_System"
        (path "/3ea1082b-b0a4-45c4-addf-21d415406c47/06bfb62c-36e0-4122-ba3c-f364a328f0eb"
          (reference "R2") (unit 1)
        )
      )
    )
  )
)
