(kicad_sch (version 20230121) (generator eeschema)

  (uuid 3d79d0da-8f51-438a-bc9e-e7450f89b514)

  (paper "A4")

  (title_block
    (title "I2C_Module_BME680_FUEL4EP")
    (date "2024-04-16")
    (rev "1.3")
    (company "FUEL4EP")
    (comment 1 "fitting to  HB-UNI-SEN-BATT_ATMega1284P_E07-868MS10_FUEL4EP")
    (comment 2 "Creative Commons License, non-commercial")
  )

  (lib_symbols
    (symbol "Connector_Generic:Conn_01x04" (pin_names (offset 1.016) hide) (in_bom yes) (on_board yes)
      (property "Reference" "J" (at 0 5.08 0)
        (effects (font (size 1.27 1.27)))
      )
      (property "Value" "Conn_01x04" (at 0 -7.62 0)
        (effects (font (size 1.27 1.27)))
      )
      (property "Footprint" "" (at 0 0 0)
        (effects (font (size 1.27 1.27)) hide)
      )
      (property "Datasheet" "~" (at 0 0 0)
        (effects (font (size 1.27 1.27)) hide)
      )
      (property "ki_keywords" "connector" (at 0 0 0)
        (effects (font (size 1.27 1.27)) hide)
      )
      (property "ki_description" "Generic connector, single row, 01x04, script generated (kicad-library-utils/schlib/autogen/connector/)" (at 0 0 0)
        (effects (font (size 1.27 1.27)) hide)
      )
      (property "ki_fp_filters" "Connector*:*_1x??_*" (at 0 0 0)
        (effects (font (size 1.27 1.27)) hide)
      )
      (symbol "Conn_01x04_1_1"
        (rectangle (start -1.27 -4.953) (end 0 -5.207)
          (stroke (width 0.1524) (type default))
          (fill (type none))
        )
        (rectangle (start -1.27 -2.413) (end 0 -2.667)
          (stroke (width 0.1524) (type default))
          (fill (type none))
        )
        (rectangle (start -1.27 0.127) (end 0 -0.127)
          (stroke (width 0.1524) (type default))
          (fill (type none))
        )
        (rectangle (start -1.27 2.667) (end 0 2.413)
          (stroke (width 0.1524) (type default))
          (fill (type none))
        )
        (rectangle (start -1.27 3.81) (end 1.27 -6.35)
          (stroke (width 0.254) (type default))
          (fill (type background))
        )
        (pin passive line (at -5.08 2.54 0) (length 3.81)
          (name "Pin_1" (effects (font (size 1.27 1.27))))
          (number "1" (effects (font (size 1.27 1.27))))
        )
        (pin passive line (at -5.08 0 0) (length 3.81)
          (name "Pin_2" (effects (font (size 1.27 1.27))))
          (number "2" (effects (font (size 1.27 1.27))))
        )
        (pin passive line (at -5.08 -2.54 0) (length 3.81)
          (name "Pin_3" (effects (font (size 1.27 1.27))))
          (number "3" (effects (font (size 1.27 1.27))))
        )
        (pin passive line (at -5.08 -5.08 0) (length 3.81)
          (name "Pin_4" (effects (font (size 1.27 1.27))))
          (number "4" (effects (font (size 1.27 1.27))))
        )
      )
    )
    (symbol "Device:C" (pin_numbers hide) (pin_names (offset 0.254)) (in_bom yes) (on_board yes)
      (property "Reference" "C" (at 0.635 2.54 0)
        (effects (font (size 1.27 1.27)) (justify left))
      )
      (property "Value" "C" (at 0.635 -2.54 0)
        (effects (font (size 1.27 1.27)) (justify left))
      )
      (property "Footprint" "" (at 0.9652 -3.81 0)
        (effects (font (size 1.27 1.27)) hide)
      )
      (property "Datasheet" "~" (at 0 0 0)
        (effects (font (size 1.27 1.27)) hide)
      )
      (property "ki_keywords" "cap capacitor" (at 0 0 0)
        (effects (font (size 1.27 1.27)) hide)
      )
      (property "ki_description" "Unpolarized capacitor" (at 0 0 0)
        (effects (font (size 1.27 1.27)) hide)
      )
      (property "ki_fp_filters" "C_*" (at 0 0 0)
        (effects (font (size 1.27 1.27)) hide)
      )
      (symbol "C_0_1"
        (polyline
          (pts
            (xy -2.032 -0.762)
            (xy 2.032 -0.762)
          )
          (stroke (width 0.508) (type default))
          (fill (type none))
        )
        (polyline
          (pts
            (xy -2.032 0.762)
            (xy 2.032 0.762)
          )
          (stroke (width 0.508) (type default))
          (fill (type none))
        )
      )
      (symbol "C_1_1"
        (pin passive line (at 0 3.81 270) (length 2.794)
          (name "~" (effects (font (size 1.27 1.27))))
          (number "1" (effects (font (size 1.27 1.27))))
        )
        (pin passive line (at 0 -3.81 90) (length 2.794)
          (name "~" (effects (font (size 1.27 1.27))))
          (number "2" (effects (font (size 1.27 1.27))))
        )
      )
    )
    (symbol "Device:FerriteBead" (pin_numbers hide) (pin_names (offset 0)) (in_bom yes) (on_board yes)
      (property "Reference" "FB" (at -3.81 0.635 90)
        (effects (font (size 1.27 1.27)))
      )
      (property "Value" "FerriteBead" (at 3.81 0 90)
        (effects (font (size 1.27 1.27)))
      )
      (property "Footprint" "" (at -1.778 0 90)
        (effects (font (size 1.27 1.27)) hide)
      )
      (property "Datasheet" "~" (at 0 0 0)
        (effects (font (size 1.27 1.27)) hide)
      )
      (property "ki_keywords" "L ferrite bead inductor filter" (at 0 0 0)
        (effects (font (size 1.27 1.27)) hide)
      )
      (property "ki_description" "Ferrite bead" (at 0 0 0)
        (effects (font (size 1.27 1.27)) hide)
      )
      (property "ki_fp_filters" "Inductor_* L_* *Ferrite*" (at 0 0 0)
        (effects (font (size 1.27 1.27)) hide)
      )
      (symbol "FerriteBead_0_1"
        (polyline
          (pts
            (xy 0 -1.27)
            (xy 0 -1.2192)
          )
          (stroke (width 0) (type default))
          (fill (type none))
        )
        (polyline
          (pts
            (xy 0 1.27)
            (xy 0 1.2954)
          )
          (stroke (width 0) (type default))
          (fill (type none))
        )
        (polyline
          (pts
            (xy -2.7686 0.4064)
            (xy -1.7018 2.2606)
            (xy 2.7686 -0.3048)
            (xy 1.6764 -2.159)
            (xy -2.7686 0.4064)
          )
          (stroke (width 0) (type default))
          (fill (type none))
        )
      )
      (symbol "FerriteBead_1_1"
        (pin passive line (at 0 3.81 270) (length 2.54)
          (name "~" (effects (font (size 1.27 1.27))))
          (number "1" (effects (font (size 1.27 1.27))))
        )
        (pin passive line (at 0 -3.81 90) (length 2.54)
          (name "~" (effects (font (size 1.27 1.27))))
          (number "2" (effects (font (size 1.27 1.27))))
        )
      )
    )
    (symbol "Device:R" (pin_numbers hide) (pin_names (offset 0)) (in_bom yes) (on_board yes)
      (property "Reference" "R" (at 2.032 0 90)
        (effects (font (size 1.27 1.27)))
      )
      (property "Value" "R" (at 0 0 90)
        (effects (font (size 1.27 1.27)))
      )
      (property "Footprint" "" (at -1.778 0 90)
        (effects (font (size 1.27 1.27)) hide)
      )
      (property "Datasheet" "~" (at 0 0 0)
        (effects (font (size 1.27 1.27)) hide)
      )
      (property "ki_keywords" "R res resistor" (at 0 0 0)
        (effects (font (size 1.27 1.27)) hide)
      )
      (property "ki_description" "Resistor" (at 0 0 0)
        (effects (font (size 1.27 1.27)) hide)
      )
      (property "ki_fp_filters" "R_*" (at 0 0 0)
        (effects (font (size 1.27 1.27)) hide)
      )
      (symbol "R_0_1"
        (rectangle (start -1.016 -2.54) (end 1.016 2.54)
          (stroke (width 0.254) (type default))
          (fill (type none))
        )
      )
      (symbol "R_1_1"
        (pin passive line (at 0 3.81 270) (length 1.27)
          (name "~" (effects (font (size 1.27 1.27))))
          (number "1" (effects (font (size 1.27 1.27))))
        )
        (pin passive line (at 0 -3.81 90) (length 1.27)
          (name "~" (effects (font (size 1.27 1.27))))
          (number "2" (effects (font (size 1.27 1.27))))
        )
      )
    )
    (symbol "Graphic:Logo_Open_Hardware_Small" (in_bom no) (on_board no)
      (property "Reference" "#SYM" (at 0 6.985 0)
        (effects (font (size 1.27 1.27)) hide)
      )
      (property "Value" "Logo_Open_Hardware_Small" (at 0 -5.715 0)
        (effects (font (size 1.27 1.27)) hide)
      )
      (property "Footprint" "" (at 0 0 0)
        (effects (font (size 1.27 1.27)) hide)
      )
      (property "Datasheet" "~" (at 0 0 0)
        (effects (font (size 1.27 1.27)) hide)
      )
      (property "Sim.Enable" "0" (at 0 0 0)
        (effects (font (size 1.27 1.27)) hide)
      )
      (property "ki_keywords" "Logo" (at 0 0 0)
        (effects (font (size 1.27 1.27)) hide)
      )
      (property "ki_description" "Open Hardware logo, small" (at 0 0 0)
        (effects (font (size 1.27 1.27)) hide)
      )
      (symbol "Logo_Open_Hardware_Small_0_1"
        (polyline
          (pts
            (xy 3.3528 -4.3434)
            (xy 3.302 -4.318)
            (xy 3.175 -4.2418)
            (xy 2.9972 -4.1148)
            (xy 2.7686 -3.9624)
            (xy 2.54 -3.81)
            (xy 2.3622 -3.7084)
            (xy 2.2352 -3.6068)
            (xy 2.1844 -3.5814)
            (xy 2.159 -3.6068)
            (xy 2.0574 -3.6576)
            (xy 1.905 -3.7338)
            (xy 1.8034 -3.7846)
            (xy 1.6764 -3.8354)
            (xy 1.6002 -3.8354)
            (xy 1.6002 -3.8354)
            (xy 1.5494 -3.7338)
            (xy 1.4732 -3.5306)
            (xy 1.3462 -3.302)
            (xy 1.2446 -3.0226)
            (xy 1.1176 -2.7178)
            (xy 0.9652 -2.413)
            (xy 0.8636 -2.1082)
            (xy 0.7366 -1.8288)
            (xy 0.6604 -1.6256)
            (xy 0.6096 -1.4732)
            (xy 0.5842 -1.397)
            (xy 0.5842 -1.397)
            (xy 0.6604 -1.3208)
            (xy 0.7874 -1.2446)
            (xy 1.0414 -1.016)
            (xy 1.2954 -0.6858)
            (xy 1.4478 -0.3302)
            (xy 1.524 0.0762)
            (xy 1.4732 0.4572)
            (xy 1.3208 0.8128)
            (xy 1.0668 1.143)
            (xy 0.762 1.3716)
            (xy 0.4064 1.524)
            (xy 0 1.5748)
            (xy -0.381 1.5494)
            (xy -0.7366 1.397)
            (xy -1.0668 1.143)
            (xy -1.2192 0.9906)
            (xy -1.397 0.6604)
            (xy -1.524 0.3048)
            (xy -1.524 0.2286)
            (xy -1.4986 -0.1778)
            (xy -1.397 -0.5334)
            (xy -1.1938 -0.8636)
            (xy -0.9144 -1.143)
            (xy -0.8636 -1.1684)
            (xy -0.7366 -1.27)
            (xy -0.635 -1.3462)
            (xy -0.5842 -1.397)
            (xy -1.0668 -2.5908)
            (xy -1.143 -2.794)
            (xy -1.2954 -3.1242)
            (xy -1.397 -3.4036)
            (xy -1.4986 -3.6322)
            (xy -1.5748 -3.7846)
            (xy -1.6002 -3.8354)
            (xy -1.6002 -3.8354)
            (xy -1.651 -3.8354)
            (xy -1.7272 -3.81)
            (xy -1.905 -3.7338)
            (xy -2.0066 -3.683)
            (xy -2.1336 -3.6068)
            (xy -2.2098 -3.5814)
            (xy -2.2606 -3.6068)
            (xy -2.3622 -3.683)
            (xy -2.54 -3.81)
            (xy -2.7686 -3.9624)
            (xy -2.9718 -4.0894)
            (xy -3.1496 -4.2164)
            (xy -3.302 -4.318)
            (xy -3.3528 -4.3434)
            (xy -3.3782 -4.3434)
            (xy -3.429 -4.318)
            (xy -3.5306 -4.2164)
            (xy -3.7084 -4.064)
            (xy -3.937 -3.8354)
            (xy -3.9624 -3.81)
            (xy -4.1656 -3.6068)
            (xy -4.318 -3.4544)
            (xy -4.4196 -3.3274)
            (xy -4.445 -3.2766)
            (xy -4.445 -3.2766)
            (xy -4.4196 -3.2258)
            (xy -4.318 -3.0734)
            (xy -4.2164 -2.8956)
            (xy -4.064 -2.667)
            (xy -3.6576 -2.0828)
            (xy -3.8862 -1.5494)
            (xy -3.937 -1.3716)
            (xy -4.0386 -1.1684)
            (xy -4.0894 -1.0414)
            (xy -4.1148 -0.9652)
            (xy -4.191 -0.9398)
            (xy -4.318 -0.9144)
            (xy -4.5466 -0.8636)
            (xy -4.8006 -0.8128)
            (xy -5.0546 -0.7874)
            (xy -5.2578 -0.7366)
            (xy -5.4356 -0.7112)
            (xy -5.5118 -0.6858)
            (xy -5.5118 -0.6858)
            (xy -5.5372 -0.635)
            (xy -5.5372 -0.5588)
            (xy -5.5372 -0.4318)
            (xy -5.5626 -0.2286)
            (xy -5.5626 0.0762)
            (xy -5.5626 0.127)
            (xy -5.5372 0.4064)
            (xy -5.5372 0.635)
            (xy -5.5372 0.762)
            (xy -5.5372 0.8382)
            (xy -5.5372 0.8382)
            (xy -5.461 0.8382)
            (xy -5.3086 0.889)
            (xy -5.08 0.9144)
            (xy -4.826 0.9652)
            (xy -4.8006 0.9906)
            (xy -4.5466 1.0414)
            (xy -4.318 1.0668)
            (xy -4.1656 1.1176)
            (xy -4.0894 1.143)
            (xy -4.0894 1.143)
            (xy -4.0386 1.2446)
            (xy -3.9624 1.4224)
            (xy -3.8608 1.6256)
            (xy -3.7846 1.8288)
            (xy -3.7084 2.0066)
            (xy -3.6576 2.159)
            (xy -3.6322 2.2098)
            (xy -3.6322 2.2098)
            (xy -3.683 2.286)
            (xy -3.7592 2.413)
            (xy -3.8862 2.5908)
            (xy -4.064 2.8194)
            (xy -4.064 2.8448)
            (xy -4.2164 3.0734)
            (xy -4.3434 3.2512)
            (xy -4.4196 3.3782)
            (xy -4.445 3.4544)
            (xy -4.445 3.4544)
            (xy -4.3942 3.5052)
            (xy -4.2926 3.6322)
            (xy -4.1148 3.81)
            (xy -3.937 4.0132)
            (xy -3.8608 4.064)
            (xy -3.6576 4.2926)
            (xy -3.5052 4.4196)
            (xy -3.4036 4.4958)
            (xy -3.3528 4.5212)
            (xy -3.3528 4.5212)
            (xy -3.302 4.4704)
            (xy -3.1496 4.3688)
            (xy -2.9718 4.2418)
            (xy -2.7432 4.0894)
            (xy -2.7178 4.0894)
            (xy -2.4892 3.937)
            (xy -2.3114 3.81)
            (xy -2.1844 3.7084)
            (xy -2.1336 3.683)
            (xy -2.1082 3.683)
            (xy -2.032 3.7084)
            (xy -1.8542 3.7592)
            (xy -1.6764 3.8354)
            (xy -1.4732 3.937)
            (xy -1.27 4.0132)
            (xy -1.143 4.064)
            (xy -1.0668 4.1148)
            (xy -1.0668 4.1148)
            (xy -1.0414 4.191)
            (xy -1.016 4.3434)
            (xy -0.9652 4.572)
            (xy -0.9144 4.8514)
            (xy -0.889 4.9022)
            (xy -0.8382 5.1562)
            (xy -0.8128 5.3848)
            (xy -0.7874 5.5372)
            (xy -0.762 5.588)
            (xy -0.7112 5.6134)
            (xy -0.5842 5.6134)
            (xy -0.4064 5.6134)
            (xy -0.1524 5.6134)
            (xy 0.0762 5.6134)
            (xy 0.3302 5.6134)
            (xy 0.5334 5.6134)
            (xy 0.6858 5.588)
            (xy 0.7366 5.588)
            (xy 0.7366 5.588)
            (xy 0.762 5.5118)
            (xy 0.8128 5.334)
            (xy 0.8382 5.1054)
            (xy 0.9144 4.826)
            (xy 0.9144 4.7752)
            (xy 0.9652 4.5212)
            (xy 1.016 4.2926)
            (xy 1.0414 4.1402)
            (xy 1.0668 4.0894)
            (xy 1.0668 4.0894)
            (xy 1.1938 4.0386)
            (xy 1.3716 3.9624)
            (xy 1.5748 3.8608)
            (xy 2.0828 3.6576)
            (xy 2.7178 4.0894)
            (xy 2.7686 4.1402)
            (xy 2.9972 4.2926)
            (xy 3.175 4.4196)
            (xy 3.302 4.4958)
            (xy 3.3782 4.5212)
            (xy 3.3782 4.5212)
            (xy 3.429 4.4704)
            (xy 3.556 4.3434)
            (xy 3.7338 4.191)
            (xy 3.9116 3.9878)
            (xy 4.064 3.8354)
            (xy 4.2418 3.6576)
            (xy 4.3434 3.556)
            (xy 4.4196 3.4798)
            (xy 4.4196 3.429)
            (xy 4.4196 3.4036)
            (xy 4.3942 3.3274)
            (xy 4.2926 3.2004)
            (xy 4.1656 2.9972)
            (xy 4.0132 2.794)
            (xy 3.8862 2.5908)
            (xy 3.7592 2.3876)
            (xy 3.6576 2.2352)
            (xy 3.6322 2.159)
            (xy 3.6322 2.1336)
            (xy 3.683 2.0066)
            (xy 3.7592 1.8288)
            (xy 3.8608 1.6002)
            (xy 4.064 1.1176)
            (xy 4.3942 1.0414)
            (xy 4.5974 1.016)
            (xy 4.8768 0.9652)
            (xy 5.1308 0.9144)
            (xy 5.5372 0.8382)
            (xy 5.5626 -0.6604)
            (xy 5.4864 -0.6858)
            (xy 5.4356 -0.6858)
            (xy 5.2832 -0.7366)
            (xy 5.0546 -0.762)
            (xy 4.8006 -0.8128)
            (xy 4.5974 -0.8636)
            (xy 4.3688 -0.9144)
            (xy 4.2164 -0.9398)
            (xy 4.1402 -0.9398)
            (xy 4.1148 -0.9652)
            (xy 4.064 -1.0668)
            (xy 3.9878 -1.2446)
            (xy 3.9116 -1.4478)
            (xy 3.81 -1.651)
            (xy 3.7338 -1.8542)
            (xy 3.683 -2.0066)
            (xy 3.6576 -2.0828)
            (xy 3.683 -2.1336)
            (xy 3.7846 -2.2606)
            (xy 3.8862 -2.4638)
            (xy 4.0386 -2.667)
            (xy 4.191 -2.8956)
            (xy 4.318 -3.0734)
            (xy 4.3942 -3.2004)
            (xy 4.445 -3.2766)
            (xy 4.4196 -3.3274)
            (xy 4.3434 -3.429)
            (xy 4.1656 -3.5814)
            (xy 3.937 -3.8354)
            (xy 3.8862 -3.8608)
            (xy 3.683 -4.064)
            (xy 3.5306 -4.2164)
            (xy 3.4036 -4.318)
            (xy 3.3528 -4.3434)
          )
          (stroke (width 0) (type default))
          (fill (type outline))
        )
      )
    )
    (symbol "Jumper:SolderJumper_2_Bridged" (pin_names (offset 0) hide) (in_bom yes) (on_board yes)
      (property "Reference" "JP" (at 0 2.032 0)
        (effects (font (size 1.27 1.27)))
      )
      (property "Value" "SolderJumper_2_Bridged" (at 0 -2.54 0)
        (effects (font (size 1.27 1.27)))
      )
      (property "Footprint" "" (at 0 0 0)
        (effects (font (size 1.27 1.27)) hide)
      )
      (property "Datasheet" "~" (at 0 0 0)
        (effects (font (size 1.27 1.27)) hide)
      )
      (property "ki_keywords" "solder jumper SPST" (at 0 0 0)
        (effects (font (size 1.27 1.27)) hide)
      )
      (property "ki_description" "Solder Jumper, 2-pole, closed/bridged" (at 0 0 0)
        (effects (font (size 1.27 1.27)) hide)
      )
      (property "ki_fp_filters" "SolderJumper*Bridged*" (at 0 0 0)
        (effects (font (size 1.27 1.27)) hide)
      )
      (symbol "SolderJumper_2_Bridged_0_1"
        (rectangle (start -0.508 0.508) (end 0.508 -0.508)
          (stroke (width 0) (type default))
          (fill (type outline))
        )
        (arc (start -0.254 1.016) (mid -1.2656 0) (end -0.254 -1.016)
          (stroke (width 0) (type default))
          (fill (type none))
        )
        (arc (start -0.254 1.016) (mid -1.2656 0) (end -0.254 -1.016)
          (stroke (width 0) (type default))
          (fill (type outline))
        )
        (polyline
          (pts
            (xy -0.254 1.016)
            (xy -0.254 -1.016)
          )
          (stroke (width 0) (type default))
          (fill (type none))
        )
        (polyline
          (pts
            (xy 0.254 1.016)
            (xy 0.254 -1.016)
          )
          (stroke (width 0) (type default))
          (fill (type none))
        )
        (arc (start 0.254 -1.016) (mid 1.2656 0) (end 0.254 1.016)
          (stroke (width 0) (type default))
          (fill (type none))
        )
        (arc (start 0.254 -1.016) (mid 1.2656 0) (end 0.254 1.016)
          (stroke (width 0) (type default))
          (fill (type outline))
        )
      )
      (symbol "SolderJumper_2_Bridged_1_1"
        (pin passive line (at -3.81 0 0) (length 2.54)
          (name "A" (effects (font (size 1.27 1.27))))
          (number "1" (effects (font (size 1.27 1.27))))
        )
        (pin passive line (at 3.81 0 180) (length 2.54)
          (name "B" (effects (font (size 1.27 1.27))))
          (number "2" (effects (font (size 1.27 1.27))))
        )
      )
    )
    (symbol "Jumper:SolderJumper_2_Open" (pin_names (offset 0) hide) (in_bom yes) (on_board yes)
      (property "Reference" "JP" (at 0 2.032 0)
        (effects (font (size 1.27 1.27)))
      )
      (property "Value" "SolderJumper_2_Open" (at 0 -2.54 0)
        (effects (font (size 1.27 1.27)))
      )
      (property "Footprint" "" (at 0 0 0)
        (effects (font (size 1.27 1.27)) hide)
      )
      (property "Datasheet" "~" (at 0 0 0)
        (effects (font (size 1.27 1.27)) hide)
      )
      (property "ki_keywords" "solder jumper SPST" (at 0 0 0)
        (effects (font (size 1.27 1.27)) hide)
      )
      (property "ki_description" "Solder Jumper, 2-pole, open" (at 0 0 0)
        (effects (font (size 1.27 1.27)) hide)
      )
      (property "ki_fp_filters" "SolderJumper*Open*" (at 0 0 0)
        (effects (font (size 1.27 1.27)) hide)
      )
      (symbol "SolderJumper_2_Open_0_1"
        (arc (start -0.254 1.016) (mid -1.2656 0) (end -0.254 -1.016)
          (stroke (width 0) (type default))
          (fill (type none))
        )
        (arc (start -0.254 1.016) (mid -1.2656 0) (end -0.254 -1.016)
          (stroke (width 0) (type default))
          (fill (type outline))
        )
        (polyline
          (pts
            (xy -0.254 1.016)
            (xy -0.254 -1.016)
          )
          (stroke (width 0) (type default))
          (fill (type none))
        )
        (polyline
          (pts
            (xy 0.254 1.016)
            (xy 0.254 -1.016)
          )
          (stroke (width 0) (type default))
          (fill (type none))
        )
        (arc (start 0.254 -1.016) (mid 1.2656 0) (end 0.254 1.016)
          (stroke (width 0) (type default))
          (fill (type none))
        )
        (arc (start 0.254 -1.016) (mid 1.2656 0) (end 0.254 1.016)
          (stroke (width 0) (type default))
          (fill (type outline))
        )
      )
      (symbol "SolderJumper_2_Open_1_1"
        (pin passive line (at -3.81 0 0) (length 2.54)
          (name "A" (effects (font (size 1.27 1.27))))
          (number "1" (effects (font (size 1.27 1.27))))
        )
        (pin passive line (at 3.81 0 180) (length 2.54)
          (name "B" (effects (font (size 1.27 1.27))))
          (number "2" (effects (font (size 1.27 1.27))))
        )
      )
    )
    (symbol "Sensor:BME680" (in_bom yes) (on_board yes)
      (property "Reference" "U" (at -8.89 11.43 0)
        (effects (font (size 1.27 1.27)))
      )
      (property "Value" "BME680" (at 7.62 11.43 0)
        (effects (font (size 1.27 1.27)))
      )
      (property "Footprint" "Package_LGA:Bosch_LGA-8_3x3mm_P0.8mm_ClockwisePinNumbering" (at 36.83 -11.43 0)
        (effects (font (size 1.27 1.27)) hide)
      )
      (property "Datasheet" "https://ae-bst.resource.bosch.com/media/_tech/media/datasheets/BST-BME680-DS001.pdf" (at 0 -5.08 0)
        (effects (font (size 1.27 1.27)) hide)
      )
      (property "ki_keywords" "Bosch gas pressure humidity temperature environment environmental measurement digital" (at 0 0 0)
        (effects (font (size 1.27 1.27)) hide)
      )
      (property "ki_description" "4-in-1 sensor, gas, humidity, pressure, temperature, I2C and SPI interface, 1.71-3.6V, LGA-8" (at 0 0 0)
        (effects (font (size 1.27 1.27)) hide)
      )
      (property "ki_fp_filters" "*LGA*3x3mm*P0.8mm*Clockwise*" (at 0 0 0)
        (effects (font (size 1.27 1.27)) hide)
      )
      (symbol "BME680_0_1"
        (rectangle (start -10.16 10.16) (end 10.16 -10.16)
          (stroke (width 0.254) (type default))
          (fill (type background))
        )
      )
      (symbol "BME680_1_1"
        (pin power_in line (at -2.54 -15.24 90) (length 5.08)
          (name "GND" (effects (font (size 1.27 1.27))))
          (number "1" (effects (font (size 1.27 1.27))))
        )
        (pin input line (at 15.24 -7.62 180) (length 5.08)
          (name "CSB" (effects (font (size 1.27 1.27))))
          (number "2" (effects (font (size 1.27 1.27))))
        )
        (pin bidirectional line (at 15.24 -2.54 180) (length 5.08)
          (name "SDI" (effects (font (size 1.27 1.27))))
          (number "3" (effects (font (size 1.27 1.27))))
        )
        (pin input line (at 15.24 2.54 180) (length 5.08)
          (name "SCK" (effects (font (size 1.27 1.27))))
          (number "4" (effects (font (size 1.27 1.27))))
        )
        (pin bidirectional line (at 15.24 7.62 180) (length 5.08)
          (name "SDO" (effects (font (size 1.27 1.27))))
          (number "5" (effects (font (size 1.27 1.27))))
        )
        (pin power_in line (at -2.54 15.24 270) (length 5.08)
          (name "VDDIO" (effects (font (size 1.27 1.27))))
          (number "6" (effects (font (size 1.27 1.27))))
        )
        (pin power_in line (at 2.54 -15.24 90) (length 5.08)
          (name "GND" (effects (font (size 1.27 1.27))))
          (number "7" (effects (font (size 1.27 1.27))))
        )
        (pin power_in line (at 2.54 15.24 270) (length 5.08)
          (name "VDD" (effects (font (size 1.27 1.27))))
          (number "8" (effects (font (size 1.27 1.27))))
        )
      )
    )
    (symbol "power:GND" (power) (pin_names (offset 0)) (in_bom yes) (on_board yes)
      (property "Reference" "#PWR" (at 0 -6.35 0)
        (effects (font (size 1.27 1.27)) hide)
      )
      (property "Value" "GND" (at 0 -3.81 0)
        (effects (font (size 1.27 1.27)))
      )
      (property "Footprint" "" (at 0 0 0)
        (effects (font (size 1.27 1.27)) hide)
      )
      (property "Datasheet" "" (at 0 0 0)
        (effects (font (size 1.27 1.27)) hide)
      )
      (property "ki_keywords" "global power" (at 0 0 0)
        (effects (font (size 1.27 1.27)) hide)
      )
      (property "ki_description" "Power symbol creates a global label with name \"GND\" , ground" (at 0 0 0)
        (effects (font (size 1.27 1.27)) hide)
      )
      (symbol "GND_0_1"
        (polyline
          (pts
            (xy 0 0)
            (xy 0 -1.27)
            (xy 1.27 -1.27)
            (xy 0 -2.54)
            (xy -1.27 -1.27)
            (xy 0 -1.27)
          )
          (stroke (width 0) (type default))
          (fill (type none))
        )
      )
      (symbol "GND_1_1"
        (pin power_in line (at 0 0 270) (length 0) hide
          (name "GND" (effects (font (size 1.27 1.27))))
          (number "1" (effects (font (size 1.27 1.27))))
        )
      )
    )
    (symbol "power:PWR_FLAG" (power) (pin_numbers hide) (pin_names (offset 0) hide) (in_bom yes) (on_board yes)
      (property "Reference" "#FLG" (at 0 1.905 0)
        (effects (font (size 1.27 1.27)) hide)
      )
      (property "Value" "PWR_FLAG" (at 0 3.81 0)
        (effects (font (size 1.27 1.27)))
      )
      (property "Footprint" "" (at 0 0 0)
        (effects (font (size 1.27 1.27)) hide)
      )
      (property "Datasheet" "~" (at 0 0 0)
        (effects (font (size 1.27 1.27)) hide)
      )
      (property "ki_keywords" "flag power" (at 0 0 0)
        (effects (font (size 1.27 1.27)) hide)
      )
      (property "ki_description" "Special symbol for telling ERC where power comes from" (at 0 0 0)
        (effects (font (size 1.27 1.27)) hide)
      )
      (symbol "PWR_FLAG_0_0"
        (pin power_out line (at 0 0 90) (length 0)
          (name "pwr" (effects (font (size 1.27 1.27))))
          (number "1" (effects (font (size 1.27 1.27))))
        )
      )
      (symbol "PWR_FLAG_0_1"
        (polyline
          (pts
            (xy 0 0)
            (xy 0 1.27)
            (xy -1.016 1.905)
            (xy 0 2.54)
            (xy 1.016 1.905)
            (xy 0 1.27)
          )
          (stroke (width 0) (type default))
          (fill (type none))
        )
      )
    )
    (symbol "power:VCC" (power) (pin_names (offset 0)) (in_bom yes) (on_board yes)
      (property "Reference" "#PWR" (at 0 -3.81 0)
        (effects (font (size 1.27 1.27)) hide)
      )
      (property "Value" "VCC" (at 0 3.81 0)
        (effects (font (size 1.27 1.27)))
      )
      (property "Footprint" "" (at 0 0 0)
        (effects (font (size 1.27 1.27)) hide)
      )
      (property "Datasheet" "" (at 0 0 0)
        (effects (font (size 1.27 1.27)) hide)
      )
      (property "ki_keywords" "global power" (at 0 0 0)
        (effects (font (size 1.27 1.27)) hide)
      )
      (property "ki_description" "Power symbol creates a global label with name \"VCC\"" (at 0 0 0)
        (effects (font (size 1.27 1.27)) hide)
      )
      (symbol "VCC_0_1"
        (polyline
          (pts
            (xy -0.762 1.27)
            (xy 0 2.54)
          )
          (stroke (width 0) (type default))
          (fill (type none))
        )
        (polyline
          (pts
            (xy 0 0)
            (xy 0 2.54)
          )
          (stroke (width 0) (type default))
          (fill (type none))
        )
        (polyline
          (pts
            (xy 0 2.54)
            (xy 0.762 1.27)
          )
          (stroke (width 0) (type default))
          (fill (type none))
        )
      )
      (symbol "VCC_1_1"
        (pin power_in line (at 0 0 90) (length 0) hide
          (name "VCC" (effects (font (size 1.27 1.27))))
          (number "1" (effects (font (size 1.27 1.27))))
        )
      )
    )
    (symbol "power:VDDA" (power) (pin_names (offset 0)) (in_bom yes) (on_board yes)
      (property "Reference" "#PWR" (at 0 -3.81 0)
        (effects (font (size 1.27 1.27)) hide)
      )
      (property "Value" "VDDA" (at 0 3.81 0)
        (effects (font (size 1.27 1.27)))
      )
      (property "Footprint" "" (at 0 0 0)
        (effects (font (size 1.27 1.27)) hide)
      )
      (property "Datasheet" "" (at 0 0 0)
        (effects (font (size 1.27 1.27)) hide)
      )
      (property "ki_keywords" "global power" (at 0 0 0)
        (effects (font (size 1.27 1.27)) hide)
      )
      (property "ki_description" "Power symbol creates a global label with name \"VDDA\"" (at 0 0 0)
        (effects (font (size 1.27 1.27)) hide)
      )
      (symbol "VDDA_0_1"
        (polyline
          (pts
            (xy -0.762 1.27)
            (xy 0 2.54)
          )
          (stroke (width 0) (type default))
          (fill (type none))
        )
        (polyline
          (pts
            (xy 0 0)
            (xy 0 2.54)
          )
          (stroke (width 0) (type default))
          (fill (type none))
        )
        (polyline
          (pts
            (xy 0 2.54)
            (xy 0.762 1.27)
          )
          (stroke (width 0) (type default))
          (fill (type none))
        )
      )
      (symbol "VDDA_1_1"
        (pin power_in line (at 0 0 90) (length 0) hide
          (name "VDDA" (effects (font (size 1.27 1.27))))
          (number "1" (effects (font (size 1.27 1.27))))
        )
      )
    )
  )

  (junction (at 158.75 109.22) (diameter 0) (color 0 0 0 0)
    (uuid 01b21a24-4d78-4f03-8dfa-6ad373bdc721)
  )
  (junction (at 64.77 114.3) (diameter 0) (color 0 0 0 0)
    (uuid 02343898-13e0-47dc-a088-112415f4fccb)
  )
  (junction (at 128.27 111.76) (diameter 0) (color 0 0 0 0)
    (uuid 08b46752-d780-4f62-8b7e-f0bd14b78c01)
  )
  (junction (at 133.35 111.76) (diameter 0) (color 0 0 0 0)
    (uuid 0fedb3da-92bc-4c96-ac3e-9690a844ffbd)
  )
  (junction (at 138.43 58.42) (diameter 0) (color 0 0 0 0)
    (uuid 3f4454d8-63d8-4cf2-b50c-fca79856776c)
  )
  (junction (at 163.83 114.3) (diameter 0) (color 0 0 0 0)
    (uuid 548db594-1115-4504-8d3d-945bf6bee111)
  )
  (junction (at 80.01 124.46) (diameter 0) (color 0 0 0 0)
    (uuid 7b475d61-c059-4f70-9917-4ca189293a5a)
  )
  (junction (at 121.92 58.42) (diameter 0) (color 0 0 0 0)
    (uuid 888e2ba7-b092-4553-821d-0f3811b35264)
  )
  (junction (at 158.75 125.73) (diameter 0) (color 0 0 0 0)
    (uuid 88b5e0d1-2f2c-4d27-8863-5277fc55869e)
  )
  (junction (at 97.79 111.76) (diameter 0) (color 0 0 0 0)
    (uuid 89a0981c-e388-4744-87e9-e907734825c9)
  )
  (junction (at 152.4 106.68) (diameter 0) (color 0 0 0 0)
    (uuid 9a3316e0-6556-49cd-b6a4-c8d0d4f95e52)
  )
  (junction (at 104.14 111.76) (diameter 0) (color 0 0 0 0)
    (uuid 9aefb8e0-6e1d-4742-922d-175e505bf596)
  )
  (junction (at 146.05 114.3) (diameter 0) (color 0 0 0 0)
    (uuid ac26a929-3311-4cbd-b40b-02ccb5ffa067)
  )
  (junction (at 82.55 124.46) (diameter 0) (color 0 0 0 0)
    (uuid c58137f9-bb82-4b69-9e10-a5989678f8df)
  )
  (junction (at 115.57 114.3) (diameter 0) (color 0 0 0 0)
    (uuid d4619866-4c8c-4480-b29e-45836c3ea999)
  )
  (junction (at 173.99 74.93) (diameter 0) (color 0 0 0 0)
    (uuid f6c67a72-dc40-46e3-b844-e48c44116410)
  )

  (wire (pts (xy 152.4 85.09) (xy 152.4 106.68))
    (stroke (width 0) (type default))
    (uuid 0049e060-dbb5-437c-85bb-dfb9b6bf317a)
  )
  (wire (pts (xy 57.15 109.22) (xy 158.75 109.22))
    (stroke (width 0) (type default))
    (uuid 037c961f-4bba-438a-a7ab-edaa53811f3e)
  )
  (wire (pts (xy 97.79 111.76) (xy 104.14 111.76))
    (stroke (width 0) (type default))
    (uuid 0d78b432-9c1d-43df-bc34-4124c66ee2ce)
  )
  (wire (pts (xy 146.05 85.09) (xy 152.4 85.09))
    (stroke (width 0) (type default))
    (uuid 104cac14-4cd4-4bf9-8291-09f482e020a0)
  )
  (wire (pts (xy 158.75 80.01) (xy 158.75 109.22))
    (stroke (width 0) (type default))
    (uuid 1558a13d-e3d7-497a-95db-cab651e2000c)
  )
  (wire (pts (xy 158.75 109.22) (xy 226.06 109.22))
    (stroke (width 0) (type default))
    (uuid 17ba79c8-b7ff-41a9-b7bb-5c3298589f04)
  )
  (wire (pts (xy 128.27 67.31) (xy 128.27 58.42))
    (stroke (width 0) (type default))
    (uuid 1b153753-e0f9-4ef3-8383-ada36d864b8e)
  )
  (wire (pts (xy 173.99 48.26) (xy 173.99 52.07))
    (stroke (width 0) (type default))
    (uuid 1ccc8f0a-cb38-4217-bb97-d50f4173708a)
  )
  (wire (pts (xy 152.4 124.46) (xy 152.4 125.73))
    (stroke (width 0) (type default))
    (uuid 1e558af1-d1b6-42c8-be83-985afc563321)
  )
  (wire (pts (xy 57.15 106.68) (xy 152.4 106.68))
    (stroke (width 0) (type default))
    (uuid 1facd43e-1d7c-406c-a62f-cb8400341c90)
  )
  (wire (pts (xy 121.92 48.26) (xy 121.92 50.8))
    (stroke (width 0) (type default))
    (uuid 2326397d-1c11-40c0-b5e5-f2eeacdd16d5)
  )
  (wire (pts (xy 133.35 58.42) (xy 138.43 58.42))
    (stroke (width 0) (type default))
    (uuid 26d24d57-0556-40ad-8515-ac9a9f357478)
  )
  (wire (pts (xy 86.36 124.46) (xy 82.55 124.46))
    (stroke (width 0) (type default))
    (uuid 28bcbda8-38e4-4d76-a760-e79916ab99a8)
  )
  (wire (pts (xy 97.79 111.76) (xy 97.79 116.84))
    (stroke (width 0) (type default))
    (uuid 2905cc87-316a-46de-a908-9f9530971272)
  )
  (wire (pts (xy 151.13 48.26) (xy 151.13 58.42))
    (stroke (width 0) (type default))
    (uuid 2b54909e-8dca-4e98-9dfb-02db27e421f1)
  )
  (wire (pts (xy 152.4 106.68) (xy 226.06 106.68))
    (stroke (width 0) (type default))
    (uuid 2be6b723-570e-4cff-9c80-8a5eea11f070)
  )
  (wire (pts (xy 158.75 124.46) (xy 158.75 125.73))
    (stroke (width 0) (type default))
    (uuid 34de5388-b567-4bd7-918a-4ab6e8da13ca)
  )
  (wire (pts (xy 146.05 80.01) (xy 158.75 80.01))
    (stroke (width 0) (type default))
    (uuid 4161a9a4-15d6-4765-9030-5ec04c589bde)
  )
  (wire (pts (xy 121.92 58.42) (xy 128.27 58.42))
    (stroke (width 0) (type default))
    (uuid 483ec0e1-4802-4146-92c1-afe22d6e7800)
  )
  (wire (pts (xy 163.83 125.73) (xy 163.83 114.3))
    (stroke (width 0) (type default))
    (uuid 5187e992-37e4-4638-8def-7adc04e54bd9)
  )
  (wire (pts (xy 80.01 134.62) (xy 80.01 135.89))
    (stroke (width 0) (type default))
    (uuid 52ef5e13-8a6f-4257-bc67-2941726d84e3)
  )
  (wire (pts (xy 173.99 59.69) (xy 173.99 74.93))
    (stroke (width 0) (type default))
    (uuid 567c396f-0623-4692-948a-c4485e56beb8)
  )
  (wire (pts (xy 173.99 85.09) (xy 173.99 87.63))
    (stroke (width 0) (type default))
    (uuid 5879cad4-d08b-4df6-afc4-32b4019fb90a)
  )
  (wire (pts (xy 158.75 125.73) (xy 163.83 125.73))
    (stroke (width 0) (type default))
    (uuid 5ce110fe-457c-4758-9156-c1a4e15200c0)
  )
  (wire (pts (xy 82.55 124.46) (xy 80.01 124.46))
    (stroke (width 0) (type default))
    (uuid 5d7e75c0-6cfd-4735-84bf-e3b9402462c8)
  )
  (wire (pts (xy 133.35 97.79) (xy 133.35 111.76))
    (stroke (width 0) (type default))
    (uuid 61ac095a-86c0-4dcb-b179-7ef2515b0835)
  )
  (wire (pts (xy 138.43 58.42) (xy 151.13 58.42))
    (stroke (width 0) (type default))
    (uuid 6466b62b-473f-4344-b39a-18a67c913aa2)
  )
  (wire (pts (xy 152.4 125.73) (xy 158.75 125.73))
    (stroke (width 0) (type default))
    (uuid 671b060c-938e-4518-879d-ca9784bc5332)
  )
  (wire (pts (xy 82.55 121.92) (xy 82.55 124.46))
    (stroke (width 0) (type default))
    (uuid 6e942f4a-8ffe-4e09-8c2d-9388aa8086e1)
  )
  (wire (pts (xy 173.99 74.93) (xy 173.99 77.47))
    (stroke (width 0) (type default))
    (uuid 70991ba8-c8a2-49d0-8e61-9f9a9d95f3ed)
  )
  (wire (pts (xy 146.05 90.17) (xy 146.05 114.3))
    (stroke (width 0) (type default))
    (uuid 70a64ee5-ed7d-4ab3-ad78-e3d86e10e6bc)
  )
  (wire (pts (xy 115.57 114.3) (xy 115.57 116.84))
    (stroke (width 0) (type default))
    (uuid 71fdfe7a-bce7-48ab-aaf7-39c6682c50c4)
  )
  (wire (pts (xy 80.01 124.46) (xy 80.01 127))
    (stroke (width 0) (type default))
    (uuid 75c81af0-c88b-4f98-b5d9-e715b1e0fb34)
  )
  (wire (pts (xy 128.27 97.79) (xy 128.27 111.76))
    (stroke (width 0) (type default))
    (uuid 77f43c14-98a3-416e-93a1-4e22a65385bf)
  )
  (wire (pts (xy 133.35 67.31) (xy 133.35 58.42))
    (stroke (width 0) (type default))
    (uuid 836dc23b-7104-4ffc-9708-dc563b7880ae)
  )
  (wire (pts (xy 152.4 106.68) (xy 152.4 116.84))
    (stroke (width 0) (type default))
    (uuid 8adef6c1-d6a9-4ad9-9204-5b11a01e02e5)
  )
  (wire (pts (xy 109.22 58.42) (xy 121.92 58.42))
    (stroke (width 0) (type default))
    (uuid 91169421-ae52-4732-903a-5e848762bdaa)
  )
  (wire (pts (xy 64.77 114.3) (xy 115.57 114.3))
    (stroke (width 0) (type default))
    (uuid 9132988b-0a1e-48e7-b3ad-9b276d06f469)
  )
  (wire (pts (xy 138.43 48.26) (xy 138.43 50.8))
    (stroke (width 0) (type default))
    (uuid 938bcddf-9117-4b63-9ac9-2c98bcef6d22)
  )
  (wire (pts (xy 128.27 111.76) (xy 133.35 111.76))
    (stroke (width 0) (type default))
    (uuid 93e4fe28-4726-4ad9-99ef-71102cd7a005)
  )
  (wire (pts (xy 146.05 74.93) (xy 173.99 74.93))
    (stroke (width 0) (type default))
    (uuid 96d1ad72-7d02-458f-a30a-8c121d48b80c)
  )
  (wire (pts (xy 57.15 114.3) (xy 64.77 114.3))
    (stroke (width 0) (type default))
    (uuid 9ce38db9-1496-4b11-9f77-de2b47e97bbb)
  )
  (wire (pts (xy 64.77 124.46) (xy 66.04 124.46))
    (stroke (width 0) (type default))
    (uuid 9f967b10-3461-487f-81aa-da8e724252d3)
  )
  (wire (pts (xy 109.22 48.26) (xy 109.22 58.42))
    (stroke (width 0) (type default))
    (uuid a423ae00-a54e-42ba-a549-99ab02630615)
  )
  (wire (pts (xy 158.75 109.22) (xy 158.75 116.84))
    (stroke (width 0) (type default))
    (uuid ae356c91-ebab-4466-8dea-6a340b82b952)
  )
  (wire (pts (xy 57.15 111.76) (xy 97.79 111.76))
    (stroke (width 0) (type default))
    (uuid af6fc2b3-a6f3-4295-90b2-b964c6051563)
  )
  (wire (pts (xy 104.14 111.76) (xy 128.27 111.76))
    (stroke (width 0) (type default))
    (uuid b838bffb-2fe4-4779-bb4f-0400acc63be1)
  )
  (wire (pts (xy 115.57 114.3) (xy 146.05 114.3))
    (stroke (width 0) (type default))
    (uuid bc2dfbe5-0c54-48f8-b26c-7771beebc3b7)
  )
  (wire (pts (xy 73.66 124.46) (xy 80.01 124.46))
    (stroke (width 0) (type default))
    (uuid bc3b1524-3ff1-4f19-982e-13efef8e8f9a)
  )
  (wire (pts (xy 133.35 111.76) (xy 226.06 111.76))
    (stroke (width 0) (type default))
    (uuid c206c74a-c865-4c34-92bb-e12710382fa6)
  )
  (wire (pts (xy 104.14 111.76) (xy 104.14 116.84))
    (stroke (width 0) (type default))
    (uuid cd8fab62-fcc8-4b2c-893d-503129f1ebea)
  )
  (wire (pts (xy 163.83 114.3) (xy 226.06 114.3))
    (stroke (width 0) (type default))
    (uuid cf11e0e8-b570-4f6b-a817-bb12c18c264e)
  )
  (wire (pts (xy 64.77 114.3) (xy 64.77 124.46))
    (stroke (width 0) (type default))
    (uuid d136fc33-4d2d-4d02-8ead-5b46a33c2b78)
  )
  (wire (pts (xy 146.05 114.3) (xy 163.83 114.3))
    (stroke (width 0) (type default))
    (uuid d1d91142-2915-4bba-964b-da277a9aed86)
  )

  (text "cut JP1 for I2C address 0x77\n" (at 147.32 72.39 0)
    (effects (font (size 0.8 0.8)) (justify left bottom))
    (uuid 27e1c519-983f-4c6a-b018-43865223e4fb)
  )
  (text "BLM15HG102SN1D\nGHz NOISE SUPPRESSION CHIP FERRITE BEAD"
    (at 49.276 131.318 0)
    (effects (font (size 0.7 0.7)) (justify left bottom))
    (uuid b3240ed7-1f1b-488e-8631-cc8b90c60e0d)
  )
  (text "solder JP2 for I2C address 0x77\n" (at 147.32 73.66 0)
    (effects (font (size 0.8 0.8)) (justify left bottom))
    (uuid b4dc21c7-a816-42c7-9e81-843c89a52eb7)
  )
  (text "default I2C address is 0x76\n" (at 177.8 159.385 0)
    (effects (font (size 1.27 1.27)) (justify left bottom))
    (uuid d69088f2-4649-4532-aff6-a83ce64e0138)
  )
  (text "default I2C address is 0x76\n" (at 147.32 71.12 0)
    (effects (font (size 0.8 0.8)) (justify left bottom))
    (uuid fb24275c-da70-4249-ae73-58ed8506c90f)
  )
  (text "IMPORTANT: max. VCC voltage is 3.3V" (at 177.8 155.575 0)
    (effects (font (size 1.524 1.524)) (justify left bottom))
    (uuid fcf2532d-0a81-4b4b-83f6-4c231ee43d57)
  )

  (label "SCL" (at 219.71 109.22 0) (fields_autoplaced)
    (effects (font (size 1.524 1.524)) (justify left bottom))
    (uuid 2c773f41-f371-49b6-a81a-fd1587443a21)
  )
  (label "VCC" (at 219.71 114.3 0) (fields_autoplaced)
    (effects (font (size 1.524 1.524)) (justify left bottom))
    (uuid 499c2489-256f-412d-99c1-dda1b65027ff)
  )
  (label "VCC" (at 58.42 114.3 0) (fields_autoplaced)
    (effects (font (size 1.524 1.524)) (justify left bottom))
    (uuid 552af6d7-f515-415d-8207-0e18d189a43d)
  )
  (label "SDA" (at 219.71 106.68 0) (fields_autoplaced)
    (effects (font (size 1.524 1.524)) (justify left bottom))
    (uuid 55542400-8e0f-4c95-9a80-d6b4dbbb5347)
  )
  (label "SCL" (at 58.42 109.22 0) (fields_autoplaced)
    (effects (font (size 1.524 1.524)) (justify left bottom))
    (uuid 6849b38d-b347-45a2-b0f4-bedda6e5e2af)
  )
  (label "GND" (at 58.42 111.76 0) (fields_autoplaced)
    (effects (font (size 1.524 1.524)) (justify left bottom))
    (uuid 786953ab-10e4-4dd7-bd2f-982cd16b671e)
  )
  (label "VDDA" (at 86.36 124.46 0) (fields_autoplaced)
    (effects (font (size 1.524 1.524)) (justify left bottom))
    (uuid 80224260-6c55-4615-8aad-2f24da5e32d2)
  )
  (label "GND" (at 219.71 111.76 0) (fields_autoplaced)
    (effects (font (size 1.524 1.524)) (justify left bottom))
    (uuid b3681ceb-7da4-4bc5-aec4-9274a939e171)
  )
  (label "SDA" (at 58.42 106.68 0) (fields_autoplaced)
    (effects (font (size 1.524 1.524)) (justify left bottom))
    (uuid f135c148-3c0d-42b8-86a7-89006303e457)
  )

  (symbol (lib_id "Connector_Generic:Conn_01x04") (at 231.14 111.76 0) (mirror x) (unit 1)
    (in_bom yes) (on_board yes) (dnp no)
    (uuid 00000000-0000-0000-0000-000061579e50)
    (property "Reference" "J2" (at 229.87 117.094 0)
      (effects (font (size 1.27 1.27)) (justify left))
    )
    (property "Value" "Conn_01x04" (at 229.87 104.14 0)
      (effects (font (size 1.27 1.27)) (justify left))
    )
    (property "Footprint" "Connector_PinHeader_2.54mm:PinHeader_1x04_P2.54mm_Vertical" (at 231.14 111.76 0)
      (effects (font (size 1.27 1.27)) hide)
    )
    (property "Datasheet" "~" (at 231.14 111.76 0)
      (effects (font (size 1.27 1.27)) hide)
    )
    (pin "1" (uuid a670626c-6ac6-41ac-83bc-fbb2f2c0ec18))
    (pin "2" (uuid bbc2e352-fe99-489c-97a7-5e283aac6118))
    (pin "3" (uuid 5f1a947c-70ae-45ce-9d09-be31234809a6))
    (pin "4" (uuid bed0d7b6-1a29-41a6-b6a7-9f27522cc009))
    (instances
      (project "I2C_Module_BME680_FUEL4EP"
        (path "/3d79d0da-8f51-438a-bc9e-e7450f89b514"
          (reference "J2") (unit 1)
        )
      )
    )
  )

  (symbol (lib_id "Connector_Generic:Conn_01x04") (at 52.07 111.76 180) (unit 1)
    (in_bom yes) (on_board yes) (dnp no)
    (uuid 00000000-0000-0000-0000-00006157aa50)
    (property "Reference" "J1" (at 53.34 117.602 0)
      (effects (font (size 1.27 1.27)) (justify left))
    )
    (property "Value" "Conn_01x04" (at 53.34 103.886 0)
      (effects (font (size 1.27 1.27)) (justify left))
    )
    (property "Footprint" "Connector_PinHeader_2.54mm:PinHeader_1x04_P2.54mm_Vertical" (at 52.07 111.76 0)
      (effects (font (size 1.27 1.27)) hide)
    )
    (property "Datasheet" "~" (at 52.07 111.76 0)
      (effects (font (size 1.27 1.27)) hide)
    )
    (pin "1" (uuid 17ac7111-32b6-4f5f-bcdd-759316fd1501))
    (pin "2" (uuid bc2a1bc3-373e-40ba-bfe6-8582e993897f))
    (pin "3" (uuid 65712270-e7ae-4d49-a53f-a120410c1161))
    (pin "4" (uuid 145a2b85-e4a9-4a33-9e19-70274313a8a3))
    (instances
      (project "I2C_Module_BME680_FUEL4EP"
        (path "/3d79d0da-8f51-438a-bc9e-e7450f89b514"
          (reference "J1") (unit 1)
        )
      )
    )
  )

  (symbol (lib_id "Graphic:Logo_Open_Hardware_Small") (at 274.574 175.514 0) (unit 1)
    (in_bom yes) (on_board yes) (dnp no)
    (uuid 00000000-0000-0000-0000-0000615dee46)
    (property "Reference" "LOGO1" (at 274.574 168.529 0)
      (effects (font (size 1.27 1.27)) hide)
    )
    (property "Value" "Logo_Open_Hardware_Small" (at 274.574 181.229 0)
      (effects (font (size 1.27 1.27)) hide)
    )
    (property "Footprint" "FUEL4EP:CC-BY-ND-SA" (at 274.574 175.514 0)
      (effects (font (size 1.27 1.27)) hide)
    )
    (property "Datasheet" "~" (at 274.574 175.514 0)
      (effects (font (size 1.27 1.27)) hide)
    )
    (property "Sim.Enable" "0" (at 274.574 175.514 0)
      (effects (font (size 1.27 1.27)) hide)
    )
    (instances
      (project "I2C_Module_BME680_FUEL4EP"
        (path "/3d79d0da-8f51-438a-bc9e-e7450f89b514"
          (reference "LOGO1") (unit 1)
        )
      )
    )
  )

  (symbol (lib_id "Device:R") (at 152.4 120.65 0) (unit 1)
    (in_bom yes) (on_board yes) (dnp no)
    (uuid 010452d5-e5f2-447e-a153-71da0dbec114)
    (property "Reference" "R1" (at 148.59 123.19 0)
      (effects (font (size 1.27 1.27)) (justify left))
    )
    (property "Value" "10k" (at 152.4 122.555 90)
      (effects (font (size 1.27 1.27)) (justify left))
    )
    (property "Footprint" "Resistor_SMD:R_0402_1005Metric" (at 150.622 120.65 90)
      (effects (font (size 1.27 1.27)) hide)
    )
    (property "Datasheet" "~" (at 152.4 120.65 0)
      (effects (font (size 1.27 1.27)) hide)
    )
    (property "LCSC" "C25744" (at 148.59 123.19 0)
      (effects (font (size 1.27 1.27)) hide)
    )
    (property "TYPE" "0402" (at 152.4 120.65 0)
      (effects (font (size 1.524 1.524)) hide)
    )
    (pin "1" (uuid 3ab79436-fb3f-4a00-9197-041ddc74750c))
    (pin "2" (uuid 79d19ffd-6a91-45ce-b54a-9da2658b6b9c))
    (instances
      (project "I2C_Module_BME680_FUEL4EP"
        (path "/3d79d0da-8f51-438a-bc9e-e7450f89b514"
          (reference "R1") (unit 1)
        )
      )
    )
  )

  (symbol (lib_id "power:GND") (at 121.92 48.26 180) (unit 1)
    (in_bom yes) (on_board yes) (dnp no) (fields_autoplaced)
    (uuid 0615f61f-28da-456d-88bc-2f0fee1da7d4)
    (property "Reference" "#PWR04" (at 121.92 41.91 0)
      (effects (font (size 1.27 1.27)) hide)
    )
    (property "Value" "GND" (at 121.92 43.18 0)
      (effects (font (size 1.27 1.27)))
    )
    (property "Footprint" "" (at 121.92 48.26 0)
      (effects (font (size 1.27 1.27)) hide)
    )
    (property "Datasheet" "" (at 121.92 48.26 0)
      (effects (font (size 1.27 1.27)) hide)
    )
    (pin "1" (uuid 71654848-b22b-465d-9dc7-715b21c4854d))
    (instances
      (project "I2C_Module_BME680_FUEL4EP"
        (path "/3d79d0da-8f51-438a-bc9e-e7450f89b514"
          (reference "#PWR04") (unit 1)
        )
      )
    )
  )

  (symbol (lib_id "Device:FerriteBead") (at 69.85 124.46 90) (unit 1)
    (in_bom yes) (on_board yes) (dnp no) (fields_autoplaced)
    (uuid 185964e4-830f-402b-8571-b15d10c50c69)
    (property "Reference" "FB1" (at 69.7992 116.84 90)
      (effects (font (size 1.27 1.27)))
    )
    (property "Value" "FerriteBead" (at 69.7992 119.38 90)
      (effects (font (size 1.27 1.27)))
    )
    (property "Footprint" "Inductor_SMD:L_0402_1005Metric" (at 69.85 126.238 90)
      (effects (font (size 1.27 1.27)) hide)
    )
    (property "Datasheet" "~" (at 69.85 124.46 0)
      (effects (font (size 1.27 1.27)) hide)
    )
    (property "LCSC" "C76889" (at 69.85 124.46 90)
      (effects (font (size 1.524 1.524)) hide)
    )
    (property "TYPE" "0402" (at 69.85 124.46 90)
      (effects (font (size 1.524 1.524)) hide)
    )
    (pin "1" (uuid 20283c4b-6b11-42b4-a988-637a9ccc56a2))
    (pin "2" (uuid f005964e-139f-467f-b7e2-be3c8536796c))
    (instances
      (project "I2C_Module_BME680_FUEL4EP"
        (path "/3d79d0da-8f51-438a-bc9e-e7450f89b514"
          (reference "FB1") (unit 1)
        )
      )
    )
  )

  (symbol (lib_id "Device:C") (at 138.43 54.61 0) (unit 1)
    (in_bom yes) (on_board yes) (dnp no)
    (uuid 1c8efafb-254e-45f1-ae5f-0b69a18d9bcb)
    (property "Reference" "C4" (at 133.35 56.515 0)
      (effects (font (size 1.27 1.27)) (justify left))
    )
    (property "Value" "100n" (at 139.065 52.705 0)
      (effects (font (size 1.27 1.27)) (justify left))
    )
    (property "Footprint" "Capacitor_SMD:C_0603_1608Metric" (at 139.3952 58.42 0)
      (effects (font (size 1.27 1.27)) hide)
    )
    (property "Datasheet" "~" (at 138.43 54.61 0)
      (effects (font (size 1.27 1.27)) hide)
    )
    (property "LCSC" "C14663" (at 133.35 56.515 0)
      (effects (font (size 1.27 1.27)) hide)
    )
    (property "TYPE" "0603" (at 138.43 54.61 0)
      (effects (font (size 1.524 1.524)) hide)
    )
    (pin "1" (uuid f391c221-51eb-43b7-88a7-a122317d1f27))
    (pin "2" (uuid 7ebb3814-d989-4c69-95f5-01413a2169a6))
    (instances
      (project "I2C_Module_BME680_FUEL4EP"
        (path "/3d79d0da-8f51-438a-bc9e-e7450f89b514"
          (reference "C4") (unit 1)
        )
      )
    )
  )

  (symbol (lib_id "power:GND") (at 97.79 116.84 0) (unit 1)
    (in_bom yes) (on_board yes) (dnp no)
    (uuid 2fb280af-9352-43f7-93d8-89326fb5dc6f)
    (property "Reference" "#PWR02" (at 97.79 123.19 0)
      (effects (font (size 1.27 1.27)) hide)
    )
    (property "Value" "GND" (at 97.79 120.904 0)
      (effects (font (size 1.27 1.27)))
    )
    (property "Footprint" "" (at 97.79 116.84 0)
      (effects (font (size 1.27 1.27)) hide)
    )
    (property "Datasheet" "" (at 97.79 116.84 0)
      (effects (font (size 1.27 1.27)) hide)
    )
    (pin "1" (uuid 1008e998-9702-4d62-8ade-4b70e29aa411))
    (instances
      (project "I2C_Module_BME680_FUEL4EP"
        (path "/3d79d0da-8f51-438a-bc9e-e7450f89b514"
          (reference "#PWR02") (unit 1)
        )
      )
    )
  )

  (symbol (lib_id "power:GND") (at 138.43 48.26 180) (unit 1)
    (in_bom yes) (on_board yes) (dnp no) (fields_autoplaced)
    (uuid 39c981d4-90c2-4351-9cc1-d14a1fc120d1)
    (property "Reference" "#PWR05" (at 138.43 41.91 0)
      (effects (font (size 1.27 1.27)) hide)
    )
    (property "Value" "GND" (at 138.43 43.18 0)
      (effects (font (size 1.27 1.27)))
    )
    (property "Footprint" "" (at 138.43 48.26 0)
      (effects (font (size 1.27 1.27)) hide)
    )
    (property "Datasheet" "" (at 138.43 48.26 0)
      (effects (font (size 1.27 1.27)) hide)
    )
    (pin "1" (uuid d9dfc441-3381-479c-9970-069437d25527))
    (instances
      (project "I2C_Module_BME680_FUEL4EP"
        (path "/3d79d0da-8f51-438a-bc9e-e7450f89b514"
          (reference "#PWR05") (unit 1)
        )
      )
    )
  )

  (symbol (lib_id "power:GND") (at 173.99 87.63 0) (unit 1)
    (in_bom yes) (on_board yes) (dnp no) (fields_autoplaced)
    (uuid 3c4dcae3-942c-4516-aa17-b3223b1ea5e6)
    (property "Reference" "#PWR010" (at 173.99 93.98 0)
      (effects (font (size 1.27 1.27)) hide)
    )
    (property "Value" "GND" (at 173.99 92.71 0)
      (effects (font (size 1.27 1.27)))
    )
    (property "Footprint" "" (at 173.99 87.63 0)
      (effects (font (size 1.27 1.27)) hide)
    )
    (property "Datasheet" "" (at 173.99 87.63 0)
      (effects (font (size 1.27 1.27)) hide)
    )
    (pin "1" (uuid 9874818d-0895-43ca-929c-a02c9cf24a85))
    (instances
      (project "I2C_Module_BME680_FUEL4EP"
        (path "/3d79d0da-8f51-438a-bc9e-e7450f89b514"
          (reference "#PWR010") (unit 1)
        )
      )
    )
  )

  (symbol (lib_id "power:VCC") (at 109.22 48.26 0) (unit 1)
    (in_bom yes) (on_board yes) (dnp no) (fields_autoplaced)
    (uuid 44ce4df4-4308-4848-86f4-f06392f96ff2)
    (property "Reference" "#PWR03" (at 109.22 52.07 0)
      (effects (font (size 1.27 1.27)) hide)
    )
    (property "Value" "VCC" (at 109.22 43.18 0)
      (effects (font (size 1.27 1.27)))
    )
    (property "Footprint" "" (at 109.22 48.26 0)
      (effects (font (size 1.27 1.27)) hide)
    )
    (property "Datasheet" "" (at 109.22 48.26 0)
      (effects (font (size 1.27 1.27)) hide)
    )
    (pin "1" (uuid 16fcfe5b-490f-4f82-ae39-d17fb8f063ea))
    (instances
      (project "I2C_Module_BME680_FUEL4EP"
        (path "/3d79d0da-8f51-438a-bc9e-e7450f89b514"
          (reference "#PWR03") (unit 1)
        )
      )
    )
  )

  (symbol (lib_id "power:PWR_FLAG") (at 82.55 121.92 0) (unit 1)
    (in_bom yes) (on_board yes) (dnp no) (fields_autoplaced)
    (uuid 474ed406-e6ae-4937-a2f1-706819b7a292)
    (property "Reference" "#FLG0101" (at 82.55 120.015 0)
      (effects (font (size 1.27 1.27)) hide)
    )
    (property "Value" "PWR_FLAG" (at 82.55 116.84 0)
      (effects (font (size 1.27 1.27)))
    )
    (property "Footprint" "" (at 82.55 121.92 0)
      (effects (font (size 1.27 1.27)) hide)
    )
    (property "Datasheet" "~" (at 82.55 121.92 0)
      (effects (font (size 1.27 1.27)) hide)
    )
    (pin "1" (uuid 82d1bdc2-6bbb-4785-a760-224cae33258b))
    (instances
      (project "I2C_Module_BME680_FUEL4EP"
        (path "/3d79d0da-8f51-438a-bc9e-e7450f89b514"
          (reference "#FLG0101") (unit 1)
        )
      )
    )
  )

  (symbol (lib_id "power:PWR_FLAG") (at 115.57 116.84 180) (unit 1)
    (in_bom yes) (on_board yes) (dnp no)
    (uuid 538d4725-6508-47aa-bf0f-3fed7444df70)
    (property "Reference" "#FLG0102" (at 115.57 118.745 0)
      (effects (font (size 1.27 1.27)) hide)
    )
    (property "Value" "PWR_FLAG" (at 113.538 120.65 0)
      (effects (font (size 1.27 1.27)) (justify right))
    )
    (property "Footprint" "" (at 115.57 116.84 0)
      (effects (font (size 1.27 1.27)) hide)
    )
    (property "Datasheet" "~" (at 115.57 116.84 0)
      (effects (font (size 1.27 1.27)) hide)
    )
    (pin "1" (uuid dd02857a-a76f-4623-b6ee-95971da530d2))
    (instances
      (project "I2C_Module_BME680_FUEL4EP"
        (path "/3d79d0da-8f51-438a-bc9e-e7450f89b514"
          (reference "#FLG0102") (unit 1)
        )
      )
    )
  )

  (symbol (lib_id "Device:C") (at 80.01 130.81 0) (unit 1)
    (in_bom yes) (on_board yes) (dnp no)
    (uuid 9277bb0e-19d3-46da-98d4-733854d0b690)
    (property "Reference" "C1" (at 76.073 128.905 90)
      (effects (font (size 1.27 1.27)))
    )
    (property "Value" "4.7u" (at 83.693 132.715 90)
      (effects (font (size 1.27 1.27)))
    )
    (property "Footprint" "Capacitor_SMD:C_0603_1608Metric" (at 80.9752 134.62 0)
      (effects (font (size 1.27 1.27)) hide)
    )
    (property "Datasheet" "~" (at 80.01 130.81 0)
      (effects (font (size 1.27 1.27)) hide)
    )
    (property "LCSC" "C19666" (at 76.073 128.905 0)
      (effects (font (size 1.27 1.27)) hide)
    )
    (property "TYPE" "0603" (at 80.01 130.81 90)
      (effects (font (size 1.524 1.524)) hide)
    )
    (pin "1" (uuid de2657bd-1fcc-4fb6-8d8d-98b4f515c06e))
    (pin "2" (uuid fa48a320-d18d-494e-8963-10acedc05e36))
    (instances
      (project "I2C_Module_BME680_FUEL4EP"
        (path "/3d79d0da-8f51-438a-bc9e-e7450f89b514"
          (reference "C1") (unit 1)
        )
      )
    )
  )

  (symbol (lib_id "Device:C") (at 121.92 54.61 0) (unit 1)
    (in_bom yes) (on_board yes) (dnp no)
    (uuid 970a920d-499e-47de-938b-2563766d170a)
    (property "Reference" "C3" (at 116.84 56.515 0)
      (effects (font (size 1.27 1.27)) (justify left))
    )
    (property "Value" "100n" (at 122.555 52.705 0)
      (effects (font (size 1.27 1.27)) (justify left))
    )
    (property "Footprint" "Capacitor_SMD:C_0603_1608Metric" (at 122.8852 58.42 0)
      (effects (font (size 1.27 1.27)) hide)
    )
    (property "Datasheet" "~" (at 121.92 54.61 0)
      (effects (font (size 1.27 1.27)) hide)
    )
    (property "LCSC" "C14663" (at 116.84 56.515 0)
      (effects (font (size 1.27 1.27)) hide)
    )
    (property "TYPE" "0603" (at 121.92 54.61 0)
      (effects (font (size 1.524 1.524)) hide)
    )
    (pin "1" (uuid 8a9d921d-dad0-42f6-ac6c-87ec93dafd4f))
    (pin "2" (uuid 655d7078-298e-4210-a77e-a82632f281a4))
    (instances
      (project "I2C_Module_BME680_FUEL4EP"
        (path "/3d79d0da-8f51-438a-bc9e-e7450f89b514"
          (reference "C3") (unit 1)
        )
      )
    )
  )

  (symbol (lib_id "power:VDDA") (at 173.99 48.26 0) (unit 1)
    (in_bom yes) (on_board yes) (dnp no) (fields_autoplaced)
    (uuid a121b099-a473-4e92-8fb1-899509069d29)
    (property "Reference" "#PWR0101" (at 173.99 52.07 0)
      (effects (font (size 1.27 1.27)) hide)
    )
    (property "Value" "VDDA" (at 173.99 43.18 0)
      (effects (font (size 1.27 1.27)))
    )
    (property "Footprint" "" (at 173.99 48.26 0)
      (effects (font (size 1.27 1.27)) hide)
    )
    (property "Datasheet" "" (at 173.99 48.26 0)
      (effects (font (size 1.27 1.27)) hide)
    )
    (pin "1" (uuid 6f189a89-87bc-47be-9a24-879b15b448bf))
    (instances
      (project "I2C_Module_BME680_FUEL4EP"
        (path "/3d79d0da-8f51-438a-bc9e-e7450f89b514"
          (reference "#PWR0101") (unit 1)
        )
      )
    )
  )

  (symbol (lib_id "Jumper:SolderJumper_2_Bridged") (at 173.99 81.28 90) (unit 1)
    (in_bom yes) (on_board yes) (dnp no) (fields_autoplaced)
    (uuid a7c038cf-e13a-4aac-9478-087fe9ad0674)
    (property "Reference" "JP1" (at 176.53 80.0099 90)
      (effects (font (size 1.27 1.27)) (justify right))
    )
    (property "Value" "SolderJumper_2_Bridged" (at 176.53 82.5499 90)
      (effects (font (size 1.27 1.27)) (justify right))
    )
    (property "Footprint" "Jumper:SolderJumper-2_P1.3mm_Bridged_Pad1.0x1.5mm" (at 173.99 81.28 0)
      (effects (font (size 1.27 1.27)) hide)
    )
    (property "Datasheet" "~" (at 173.99 81.28 0)
      (effects (font (size 1.27 1.27)) hide)
    )
    (pin "1" (uuid bb3975a3-9bb7-4260-a69b-24c99760136b))
    (pin "2" (uuid 12688bee-cca8-4887-9f85-b93db58b65ff))
    (instances
      (project "I2C_Module_BME680_FUEL4EP"
        (path "/3d79d0da-8f51-438a-bc9e-e7450f89b514"
          (reference "JP1") (unit 1)
        )
      )
    )
  )

  (symbol (lib_id "power:GND") (at 80.01 135.89 0) (unit 1)
    (in_bom yes) (on_board yes) (dnp no)
    (uuid a983765c-8554-4fd1-ba5d-ed35ede7ef6a)
    (property "Reference" "#PWR0103" (at 80.01 142.24 0)
      (effects (font (size 1.27 1.27)) hide)
    )
    (property "Value" "GND" (at 80.01 139.954 0)
      (effects (font (size 1.27 1.27)))
    )
    (property "Footprint" "" (at 80.01 135.89 0)
      (effects (font (size 1.27 1.27)) hide)
    )
    (property "Datasheet" "" (at 80.01 135.89 0)
      (effects (font (size 1.27 1.27)) hide)
    )
    (pin "1" (uuid 7cef9d8b-c969-4eb1-860a-c35c52b541e8))
    (instances
      (project "I2C_Module_BME680_FUEL4EP"
        (path "/3d79d0da-8f51-438a-bc9e-e7450f89b514"
          (reference "#PWR0103") (unit 1)
        )
      )
    )
  )

  (symbol (lib_id "power:PWR_FLAG") (at 104.14 116.84 180) (unit 1)
    (in_bom yes) (on_board yes) (dnp no)
    (uuid b998681a-aa50-4b75-bf22-d9fbe42fce6f)
    (property "Reference" "#FLG02" (at 104.14 118.745 0)
      (effects (font (size 1.27 1.27)) hide)
    )
    (property "Value" "PWR_FLAG" (at 102.108 120.65 0)
      (effects (font (size 1.27 1.27)) (justify right))
    )
    (property "Footprint" "" (at 104.14 116.84 0)
      (effects (font (size 1.27 1.27)) hide)
    )
    (property "Datasheet" "~" (at 104.14 116.84 0)
      (effects (font (size 1.27 1.27)) hide)
    )
    (pin "1" (uuid ac94a68c-b703-4c42-bf93-3a16f639e9cf))
    (instances
      (project "I2C_Module_BME680_FUEL4EP"
        (path "/3d79d0da-8f51-438a-bc9e-e7450f89b514"
          (reference "#FLG02") (unit 1)
        )
      )
    )
  )

  (symbol (lib_id "Sensor:BME680") (at 130.81 82.55 0) (unit 1)
    (in_bom yes) (on_board yes) (dnp no)
    (uuid bf7c2309-9f03-4473-be84-7c231f720f33)
    (property "Reference" "U1" (at 120.904 94.234 0)
      (effects (font (size 1.27 1.27)) (justify right))
    )
    (property "Value" "BME680" (at 133.35 82.296 0)
      (effects (font (size 1.27 1.27)) (justify right))
    )
    (property "Footprint" "Package_LGA:Bosch_LGA-8_3x3mm_P0.8mm_ClockwisePinNumbering" (at 167.64 93.98 0)
      (effects (font (size 1.27 1.27)) hide)
    )
    (property "Datasheet" "https://ae-bst.resource.bosch.com/media/_tech/media/datasheets/BST-BME680-DS001.pdf" (at 130.81 87.63 0)
      (effects (font (size 1.27 1.27)) hide)
    )
    (property "LCSC" "C125972" (at 130.81 82.55 0)
      (effects (font (size 1.524 1.524)) hide)
    )
    (property "TYPE" "LGA-8" (at 130.81 82.55 0)
      (effects (font (size 1.524 1.524)) hide)
    )
    (pin "1" (uuid 6b7849d1-7110-4ff9-9b84-0a46acf6910d))
    (pin "2" (uuid f4195bec-64ef-4979-b6fa-26a5bb1c89ce))
    (pin "3" (uuid 5ea9aa60-5b35-4d52-aeeb-e72c64332eaf))
    (pin "4" (uuid 2889f1a1-6cb4-40e6-be26-95dbe096e33d))
    (pin "5" (uuid cea1134f-019f-4ed5-8c4f-c6dd9972ae28))
    (pin "6" (uuid bbf4be80-d173-46e5-8e84-c8ccc23ae393))
    (pin "7" (uuid 950180b9-a426-4dcd-a0ee-ac15d93d83f8))
    (pin "8" (uuid 3cb58245-4ea5-4e52-883c-432496ce607c))
    (instances
      (project "I2C_Module_BME680_FUEL4EP"
        (path "/3d79d0da-8f51-438a-bc9e-e7450f89b514"
          (reference "U1") (unit 1)
        )
      )
    )
  )

  (symbol (lib_id "power:VDDA") (at 151.13 48.26 0) (unit 1)
    (in_bom yes) (on_board yes) (dnp no) (fields_autoplaced)
    (uuid dbb388fc-d8a4-4d80-969d-65fb9a131965)
    (property "Reference" "#PWR0102" (at 151.13 52.07 0)
      (effects (font (size 1.27 1.27)) hide)
    )
    (property "Value" "VDDA" (at 151.13 43.18 0)
      (effects (font (size 1.27 1.27)))
    )
    (property "Footprint" "" (at 151.13 48.26 0)
      (effects (font (size 1.27 1.27)) hide)
    )
    (property "Datasheet" "" (at 151.13 48.26 0)
      (effects (font (size 1.27 1.27)) hide)
    )
    (pin "1" (uuid 1c833f25-4942-41e0-82be-5b1d024a7d49))
    (instances
      (project "I2C_Module_BME680_FUEL4EP"
        (path "/3d79d0da-8f51-438a-bc9e-e7450f89b514"
          (reference "#PWR0102") (unit 1)
        )
      )
    )
  )

  (symbol (lib_id "Device:R") (at 158.75 120.65 0) (unit 1)
    (in_bom yes) (on_board yes) (dnp no)
    (uuid f75dc7be-70bf-4119-8c06-195e1a960dd2)
    (property "Reference" "R2" (at 154.94 123.19 0)
      (effects (font (size 1.27 1.27)) (justify left))
    )
    (property "Value" "10k" (at 158.75 122.555 90)
      (effects (font (size 1.27 1.27)) (justify left))
    )
    (property "Footprint" "Resistor_SMD:R_0402_1005Metric" (at 156.972 120.65 90)
      (effects (font (size 1.27 1.27)) hide)
    )
    (property "Datasheet" "~" (at 158.75 120.65 0)
      (effects (font (size 1.27 1.27)) hide)
    )
    (property "LCSC" "C25744" (at 154.94 123.19 0)
      (effects (font (size 1.27 1.27)) hide)
    )
    (property "TYPE" "0402" (at 158.75 120.65 0)
      (effects (font (size 1.524 1.524)) hide)
    )
    (pin "1" (uuid 1001186e-346f-4f84-9742-5a5fec898796))
    (pin "2" (uuid faf9bab8-1368-4251-9fa8-b7d76e945ecb))
    (instances
      (project "I2C_Module_BME680_FUEL4EP"
        (path "/3d79d0da-8f51-438a-bc9e-e7450f89b514"
          (reference "R2") (unit 1)
        )
      )
    )
  )

  (symbol (lib_id "Jumper:SolderJumper_2_Open") (at 173.99 55.88 90) (unit 1)
    (in_bom yes) (on_board yes) (dnp no) (fields_autoplaced)
    (uuid ff90afc4-8ef2-4968-8008-5873a948f39c)
    (property "Reference" "JP2" (at 176.53 54.61 90)
      (effects (font (size 1.27 1.27)) (justify right))
    )
    (property "Value" "SolderJumper_2_Open" (at 176.53 57.15 90)
      (effects (font (size 1.27 1.27)) (justify right))
    )
    (property "Footprint" "Jumper:SolderJumper-2_P1.3mm_Open_Pad1.0x1.5mm" (at 173.99 55.88 0)
      (effects (font (size 1.27 1.27)) hide)
    )
    (property "Datasheet" "~" (at 173.99 55.88 0)
      (effects (font (size 1.27 1.27)) hide)
    )
    (pin "1" (uuid 68da22b2-b247-466b-adec-037e5b64a7ae))
    (pin "2" (uuid ef5f7893-88bd-4a35-ac13-f81644c81656))
    (instances
      (project "I2C_Module_BME680_FUEL4EP"
        (path "/3d79d0da-8f51-438a-bc9e-e7450f89b514"
          (reference "JP2") (unit 1)
        )
      )
    )
  )

  (sheet_instances
    (path "/" (page "1"))
  )
)
