(kicad_pcb (version 20221018) (generator pcbnew)

  (general
    (thickness 1.6)
  )

  (paper "A4")
  (layers
    (0 "F.Cu" signal)
    (31 "B.Cu" signal)
    (32 "B.Adhes" user "B.Adhesive")
    (33 "F.Adhes" user "F.Adhesive")
    (34 "B.Paste" user)
    (35 "F.Paste" user)
    (36 "B.SilkS" user "B.Silkscreen")
    (37 "F.SilkS" user "F.Silkscreen")
    (38 "B.Mask" user)
    (39 "F.Mask" user)
    (40 "Dwgs.User" user "User.Drawings")
    (41 "Cmts.User" user "User.Comments")
    (42 "Eco1.User" user "User.Eco1")
    (43 "Eco2.User" user "User.Eco2")
    (44 "Edge.Cuts" user)
    (45 "Margin" user)
    (46 "B.CrtYd" user "B.Courtyard")
    (47 "F.CrtYd" user "F.Courtyard")
    (48 "B.Fab" user)
    (49 "F.Fab" user)
    (50 "User.1" user)
    (51 "User.2" user)
    (52 "User.3" user)
    (53 "User.4" user)
    (54 "User.5" user)
    (55 "User.6" user)
    (56 "User.7" user)
    (57 "User.8" user)
    (58 "User.9" user)
  )

  (setup
    (pad_to_mask_clearance 0)
    (pcbplotparams
      (layerselection 0x00010fc_ffffffff)
      (plot_on_all_layers_selection 0x0000000_00000000)
      (disableapertmacros false)
      (usegerberextensions false)
      (usegerberattributes true)
      (usegerberadvancedattributes true)
      (creategerberjobfile true)
      (dashed_line_dash_ratio 12.000000)
      (dashed_line_gap_ratio 3.000000)
      (svgprecision 4)
      (plotframeref false)
      (viasonmask false)
      (mode 1)
      (useauxorigin false)
      (hpglpennumber 1)
      (hpglpenspeed 20)
      (hpglpendiameter 15.000000)
      (dxfpolygonmode true)
      (dxfimperialunits true)
      (dxfusepcbnewfont true)
      (psnegative false)
      (psa4output false)
      (plotreference true)
      (plotvalue true)
      (plotinvisibletext false)
      (sketchpadsonfab false)
      (subtractmaskfromsilk false)
      (outputformat 1)
      (mirror false)
      (drillshape 1)
      (scaleselection 1)
      (outputdirectory "")
    )
  )

  (net 0 "")

  (footprint "UL_Standoff:M2ThreadedStandoff" (layer "F.Cu")
    (tstamp 02a4bfd1-d3a5-4167-adfc-e9c32d631281)
    (at 61 83.5 90)
    (property "Sheetfile" "X_PCBnut.kicad_sch")
    (property "Sheetname" "")
    (property "ki_description" "Mounting Hole without connection")
    (property "ki_keywords" "mounting hole")
    (path "/ca2075cf-ee01-43b7-a9f7-87c19a3c91b9")
    (attr smd)
    (fp_text reference "H1" (at 0 -3.1 90 unlocked) (layer "F.SilkS")
        (effects (font (size 1 1) (thickness 0.15)))
      (tstamp 759977d0-181f-417b-ae0b-654584793d27)
    )
    (fp_text value "MountingHole" (at 0 3.1 90 unlocked) (layer "F.Fab")
        (effects (font (size 1 1) (thickness 0.15)))
      (tstamp 7d485e95-a987-47e9-b2ed-71a7e354397a)
    )
    (fp_arc (start -1.54 0.58) (mid -1.634852 -0.144137) (end -1.406327 -0.837786)
      (stroke (width 1.2) (type default)) (layer "F.Paste") (tstamp 6f885f52-6352-4e91-81f3-0fa6905ab060))
    (fp_arc (start 0.16 -1.642997) (mid 0.887708 -1.393557) (end 1.424942 -0.842958)
      (stroke (width 1.2) (type default)) (layer "F.Paste") (tstamp d43245bb-8994-4c88-a5bf-78b2a3ee0a7a))
    (fp_arc (start 1.361219 0.920815) (mid 0.700027 1.490696) (end -0.16 1.64)
      (stroke (width 1.2) (type default)) (layer "F.Paste") (tstamp f515d1ae-f742-4d15-8410-e1f3bdd53a92))
    (pad "1" thru_hole circle (at 0 0 90) (size 4.5 4.5) (drill 3) (layers "*.Cu" "*.Mask") (tstamp 5b2c6aae-593f-4dac-9e3a-6c90a061e006))
  )

  (footprint "UL_Standoff:M2ThreadedStandoff" (layer "F.Cu")
    (tstamp 0a9310bc-870c-486d-9abd-f91d40bfbc75)
    (at 201 83.5 90)
    (property "Sheetfile" "X_PCBnut.kicad_sch")
    (property "Sheetname" "")
    (property "ki_description" "Mounting Hole without connection")
    (property "ki_keywords" "mounting hole")
    (path "/056cae6b-2acd-4fbe-86b7-ef470606932d")
    (attr smd)
    (fp_text reference "H8" (at 0 -3.1 90 unlocked) (layer "F.SilkS")
        (effects (font (size 1 1) (thickness 0.15)))
      (tstamp da01b71e-948f-4af2-9cbc-c0fa266ca8b0)
    )
    (fp_text value "MountingHole" (at 0 3.1 90 unlocked) (layer "F.Fab")
        (effects (font (size 1 1) (thickness 0.15)))
      (tstamp bedcb965-ac37-43e5-9b78-fc16fae8b45b)
    )
    (fp_arc (start -1.54 0.58) (mid -1.634852 -0.144137) (end -1.406327 -0.837786)
      (stroke (width 1.2) (type default)) (layer "F.Paste") (tstamp f81f314b-56ef-4ee7-bab7-df3d56b239c2))
    (fp_arc (start 0.16 -1.642997) (mid 0.887708 -1.393557) (end 1.424942 -0.842958)
      (stroke (width 1.2) (type default)) (layer "F.Paste") (tstamp 3631eb9b-c289-43ce-aefb-605f9d78770f))
    (fp_arc (start 1.361219 0.920815) (mid 0.700027 1.490696) (end -0.16 1.64)
      (stroke (width 1.2) (type default)) (layer "F.Paste") (tstamp 86f24074-2882-451c-92ee-9f112f2287fe))
    (pad "1" thru_hole circle (at 0 0 90) (size 4.5 4.5) (drill 3) (layers "*.Cu" "*.Mask") (tstamp 8114c279-be5e-43e3-9ef0-1d479783c7a5))
  )

  (footprint "UL_Standoff:M2ThreadedStandoff" (layer "F.Cu")
    (tstamp 1842dfc4-d765-4065-8d2b-74a58c1a4441)
    (at 121 83.5 90)
    (property "Sheetfile" "X_PCBnut.kicad_sch")
    (property "Sheetname" "")
    (property "ki_description" "Mounting Hole without connection")
    (property "ki_keywords" "mounting hole")
    (path "/1658f681-8d3b-4060-b896-ba961df387d7")
    (attr smd)
    (fp_text reference "H4" (at 0 -3.1 90 unlocked) (layer "F.SilkS")
        (effects (font (size 1 1) (thickness 0.15)))
      (tstamp eb650d24-ad26-4d68-8c87-37cac43e7c03)
    )
    (fp_text value "MountingHole" (at 0 3.1 90 unlocked) (layer "F.Fab")
        (effects (font (size 1 1) (thickness 0.15)))
      (tstamp 21d5210f-6e52-4514-841f-4f4d0f1f70ae)
    )
    (fp_arc (start -1.54 0.58) (mid -1.634852 -0.144137) (end -1.406327 -0.837786)
      (stroke (width 1.2) (type default)) (layer "F.Paste") (tstamp 8bf46434-a24e-4419-bf21-fbb066f17527))
    (fp_arc (start 0.16 -1.642997) (mid 0.887708 -1.393557) (end 1.424942 -0.842958)
      (stroke (width 1.2) (type default)) (layer "F.Paste") (tstamp c1da0eaa-6c05-4018-85e8-88abcdf97d6c))
    (fp_arc (start 1.361219 0.920815) (mid 0.700027 1.490696) (end -0.16 1.64)
      (stroke (width 1.2) (type default)) (layer "F.Paste") (tstamp 1bdc71a9-56a9-4157-8a31-388399c8056f))
    (pad "1" thru_hole circle (at 0 0 90) (size 4.5 4.5) (drill 3) (layers "*.Cu" "*.Mask") (tstamp 1dd270f6-5154-4828-922f-a7c84b0df93d))
  )

  (footprint "UL_Standoff:M2ThreadedStandoff" (layer "F.Cu")
    (tstamp 3051e500-5269-49a0-a730-a50bb1828770)
    (at 161 83.5 90)
    (property "Sheetfile" "X_PCBnut.kicad_sch")
    (property "Sheetname" "")
    (property "ki_description" "Mounting Hole without connection")
    (property "ki_keywords" "mounting hole")
    (path "/3ee35e06-0d02-45c7-bfd6-66905a47e45b")
    (attr smd)
    (fp_text reference "H6" (at 0 -3.1 90 unlocked) (layer "F.SilkS")
        (effects (font (size 1 1) (thickness 0.15)))
      (tstamp e5d3eb18-0002-4bf3-8bba-b59fbba330c5)
    )
    (fp_text value "MountingHole" (at 0 3.1 90 unlocked) (layer "F.Fab")
        (effects (font (size 1 1) (thickness 0.15)))
      (tstamp fc8503a8-0e38-4c85-a405-fda3af796a09)
    )
    (fp_arc (start -1.54 0.58) (mid -1.634852 -0.144137) (end -1.406327 -0.837786)
      (stroke (width 1.2) (type default)) (layer "F.Paste") (tstamp ec7fa58c-2c7a-4935-81c9-f3f191dd4ad4))
    (fp_arc (start 0.16 -1.642997) (mid 0.887708 -1.393557) (end 1.424942 -0.842958)
      (stroke (width 1.2) (type default)) (layer "F.Paste") (tstamp 90c7ddfc-f194-48aa-9a31-d5c5b686c053))
    (fp_arc (start 1.361219 0.920815) (mid 0.700027 1.490696) (end -0.16 1.64)
      (stroke (width 1.2) (type default)) (layer "F.Paste") (tstamp ed3d4fef-1c88-4c0e-9bdb-20214c521f8b))
    (pad "1" thru_hole circle (at 0 0 90) (size 4.5 4.5) (drill 3) (layers "*.Cu" "*.Mask") (tstamp 9b461619-3bc3-45f0-a1f5-142b9ccfe94c))
  )

  (footprint "UL_Standoff:M2ThreadedStandoff" (layer "F.Cu")
    (tstamp 419af452-4476-4907-ba7f-83aab0897e8d)
    (at 141 83.5 90)
    (property "Sheetfile" "X_PCBnut.kicad_sch")
    (property "Sheetname" "")
    (property "ki_description" "Mounting Hole without connection")
    (property "ki_keywords" "mounting hole")
    (path "/92cbb7cd-8cae-423e-a901-184e36751eb4")
    (attr smd)
    (fp_text reference "H5" (at 0 -3.1 90 unlocked) (layer "F.SilkS")
        (effects (font (size 1 1) (thickness 0.15)))
      (tstamp badbfb8e-e9eb-425f-9f75-8d0705d6cbf3)
    )
    (fp_text value "MountingHole" (at 0 3.1 90 unlocked) (layer "F.Fab")
        (effects (font (size 1 1) (thickness 0.15)))
      (tstamp 8ef87f75-68fc-4cba-87b0-130a8916f0d6)
    )
    (fp_arc (start -1.54 0.58) (mid -1.634852 -0.144137) (end -1.406327 -0.837786)
      (stroke (width 1.2) (type default)) (layer "F.Paste") (tstamp 44387ef6-8812-477c-acbc-d8e95149064d))
    (fp_arc (start 0.16 -1.642997) (mid 0.887708 -1.393557) (end 1.424942 -0.842958)
      (stroke (width 1.2) (type default)) (layer "F.Paste") (tstamp 8fa29844-c80b-4e4b-ac4c-f06381071e1b))
    (fp_arc (start 1.361219 0.920815) (mid 0.700027 1.490696) (end -0.16 1.64)
      (stroke (width 1.2) (type default)) (layer "F.Paste") (tstamp e29754f4-fec7-496f-a5d4-fa0273850da1))
    (pad "1" thru_hole circle (at 0 0 90) (size 4.5 4.5) (drill 3) (layers "*.Cu" "*.Mask") (tstamp 3d07781e-9436-43cb-9a72-bdfb854dc119))
  )

  (footprint "UL_Standoff:M2ThreadedStandoff" (layer "F.Cu")
    (tstamp 50a47ebd-73c8-476c-82c6-5e74b8ddd95a)
    (at 221 83.5 90)
    (property "Sheetfile" "X_PCBnut.kicad_sch")
    (property "Sheetname" "")
    (property "ki_description" "Mounting Hole without connection")
    (property "ki_keywords" "mounting hole")
    (path "/54516a2b-74a4-4819-adad-ecb13897a53c")
    (attr smd)
    (fp_text reference "H9" (at 0 -3.1 90 unlocked) (layer "F.SilkS")
        (effects (font (size 1 1) (thickness 0.15)))
      (tstamp fdee774d-f6c5-49ff-9fd5-a5679665be91)
    )
    (fp_text value "MountingHole" (at 0 3.1 90 unlocked) (layer "F.Fab")
        (effects (font (size 1 1) (thickness 0.15)))
      (tstamp 1536a685-c98f-49d7-a614-f5ab0d08aa3c)
    )
    (fp_arc (start -1.54 0.58) (mid -1.634852 -0.144137) (end -1.406327 -0.837786)
      (stroke (width 1.2) (type default)) (layer "F.Paste") (tstamp 31c470dc-1210-4c94-9275-dc0091e17913))
    (fp_arc (start 0.16 -1.642997) (mid 0.887708 -1.393557) (end 1.424942 -0.842958)
      (stroke (width 1.2) (type default)) (layer "F.Paste") (tstamp 98463aea-7ffd-48c7-ab1d-9fb54a31c6f8))
    (fp_arc (start 1.361219 0.920815) (mid 0.700027 1.490696) (end -0.16 1.64)
      (stroke (width 1.2) (type default)) (layer "F.Paste") (tstamp 466140a5-dd27-4edc-93cf-33cc647d343c))
    (pad "1" thru_hole circle (at 0 0 90) (size 4.5 4.5) (drill 3) (layers "*.Cu" "*.Mask") (tstamp 1573cbd8-9b82-4c2a-ab25-5f4e9705af38))
  )

  (footprint "UL_Standoff:M2ThreadedStandoff" (layer "F.Cu")
    (tstamp 84f7ba48-390f-438d-8382-575c0654afc9)
    (at 181 83.5 90)
    (property "Sheetfile" "X_PCBnut.kicad_sch")
    (property "Sheetname" "")
    (property "ki_description" "Mounting Hole without connection")
    (property "ki_keywords" "mounting hole")
    (path "/38df960d-9ddc-4e04-82dd-fd251e511ebf")
    (attr smd)
    (fp_text reference "H7" (at 0 -3.1 90 unlocked) (layer "F.SilkS")
        (effects (font (size 1 1) (thickness 0.15)))
      (tstamp 8387a5e3-1d1d-4bb4-be29-53ad207bda19)
    )
    (fp_text value "MountingHole" (at 0 3.1 90 unlocked) (layer "F.Fab")
        (effects (font (size 1 1) (thickness 0.15)))
      (tstamp f034d5b0-2ee7-4131-9ac4-4823940281a2)
    )
    (fp_arc (start -1.54 0.58) (mid -1.634852 -0.144137) (end -1.406327 -0.837786)
      (stroke (width 1.2) (type default)) (layer "F.Paste") (tstamp 23c3d636-a995-4090-ad2a-18445a9ca6bf))
    (fp_arc (start 0.16 -1.642997) (mid 0.887708 -1.393557) (end 1.424942 -0.842958)
      (stroke (width 1.2) (type default)) (layer "F.Paste") (tstamp 7f9eedf2-78b2-40a9-bccb-3ccc6984b0ae))
    (fp_arc (start 1.361219 0.920815) (mid 0.700027 1.490696) (end -0.16 1.64)
      (stroke (width 1.2) (type default)) (layer "F.Paste") (tstamp d97e5f1b-976f-4db8-8fe8-bd710fdcf53c))
    (pad "1" thru_hole circle (at 0 0 90) (size 4.5 4.5) (drill 3) (layers "*.Cu" "*.Mask") (tstamp b4ef8354-0684-409a-a20b-2a910f6d9baa))
  )

  (footprint "UL_Standoff:M2ThreadedStandoff" (layer "F.Cu")
    (tstamp ba971ab4-709e-48b8-9c25-c80d74e137eb)
    (at 101 83.5 90)
    (property "Sheetfile" "X_PCBnut.kicad_sch")
    (property "Sheetname" "")
    (property "ki_description" "Mounting Hole without connection")
    (property "ki_keywords" "mounting hole")
    (path "/9a9d3469-be8c-4dc2-ab50-705b586384f4")
    (attr smd)
    (fp_text reference "H3" (at 0 -3.1 90 unlocked) (layer "F.SilkS")
        (effects (font (size 1 1) (thickness 0.15)))
      (tstamp ba51e683-90b9-4dde-b7af-b58b742b94ff)
    )
    (fp_text value "MountingHole" (at 0 3.1 90 unlocked) (layer "F.Fab")
        (effects (font (size 1 1) (thickness 0.15)))
      (tstamp b6db28ae-eed7-4a36-aaf2-55c986f864b1)
    )
    (fp_arc (start -1.54 0.58) (mid -1.634852 -0.144137) (end -1.406327 -0.837786)
      (stroke (width 1.2) (type default)) (layer "F.Paste") (tstamp 4d747666-7b5d-4419-8a08-9876fb5b60b4))
    (fp_arc (start 0.16 -1.642997) (mid 0.887708 -1.393557) (end 1.424942 -0.842958)
      (stroke (width 1.2) (type default)) (layer "F.Paste") (tstamp ea61b772-5059-407f-bf4b-4ba9b6e0c087))
    (fp_arc (start 1.361219 0.920815) (mid 0.700027 1.490696) (end -0.16 1.64)
      (stroke (width 1.2) (type default)) (layer "F.Paste") (tstamp 184a67c9-a3fb-4d6f-b30f-91163d0ca136))
    (pad "1" thru_hole circle (at 0 0 90) (size 4.5 4.5) (drill 3) (layers "*.Cu" "*.Mask") (tstamp e9636c10-cbc8-4c29-a6ca-5553047c29eb))
  )

  (footprint "UL_Standoff:M2ThreadedStandoff" (layer "F.Cu")
    (tstamp efdc1bf0-ab06-4924-a077-405eb56e2a54)
    (at 241 83.5 90)
    (property "Sheetfile" "X_PCBnut.kicad_sch")
    (property "Sheetname" "")
    (property "ki_description" "Mounting Hole without connection")
    (property "ki_keywords" "mounting hole")
    (path "/2516e0a3-9c3c-44bd-9ff8-bb7404e33790")
    (attr smd)
    (fp_text reference "H10" (at 0 -3.1 90 unlocked) (layer "F.SilkS")
        (effects (font (size 1 1) (thickness 0.15)))
      (tstamp e44f19a4-de6c-465d-9ac7-c588626dc37b)
    )
    (fp_text value "MountingHole" (at 0 3.1 90 unlocked) (layer "F.Fab")
        (effects (font (size 1 1) (thickness 0.15)))
      (tstamp 6ed75ac2-d7c1-47b9-9d63-afd309c0c8ae)
    )
    (fp_arc (start -1.54 0.58) (mid -1.634852 -0.144137) (end -1.406327 -0.837786)
      (stroke (width 1.2) (type default)) (layer "F.Paste") (tstamp c7407c06-37c8-4d38-975f-555ef9ab4e34))
    (fp_arc (start 0.16 -1.642997) (mid 0.887708 -1.393557) (end 1.424942 -0.842958)
      (stroke (width 1.2) (type default)) (layer "F.Paste") (tstamp 66906607-f7e7-4f42-bd15-573926cbc815))
    (fp_arc (start 1.361219 0.920815) (mid 0.700027 1.490696) (end -0.16 1.64)
      (stroke (width 1.2) (type default)) (layer "F.Paste") (tstamp a271fa32-cb9d-4f6b-ad11-daa935fe69f5))
    (pad "1" thru_hole circle (at 0 0 90) (size 4.5 4.5) (drill 3) (layers "*.Cu" "*.Mask") (tstamp 9302e9b0-4419-467d-8da7-8aaca56c1206))
  )

  (footprint "UL_Standoff:M2ThreadedStandoff" (layer "F.Cu")
    (tstamp fbaf64d3-27ca-4335-bd1a-c007e2520a47)
    (at 81 83.5 90)
    (property "Sheetfile" "X_PCBnut.kicad_sch")
    (property "Sheetname" "")
    (property "ki_description" "Mounting Hole without connection")
    (property "ki_keywords" "mounting hole")
    (path "/2d11314e-bfe5-4094-9b13-f50632f4f9cf")
    (attr smd)
    (fp_text reference "H2" (at 0 -3.1 90 unlocked) (layer "F.SilkS")
        (effects (font (size 1 1) (thickness 0.15)))
      (tstamp 26e65690-af78-446f-aeb8-86b3a3a22164)
    )
    (fp_text value "MountingHole" (at 0 3.1 90 unlocked) (layer "F.Fab")
        (effects (font (size 1 1) (thickness 0.15)))
      (tstamp 949c3f05-48a7-463f-bc8d-ab2bedd4edda)
    )
    (fp_arc (start -1.54 0.58) (mid -1.634852 -0.144137) (end -1.406327 -0.837786)
      (stroke (width 1.2) (type default)) (layer "F.Paste") (tstamp 36544b09-e15b-4fab-816d-010e106d2342))
    (fp_arc (start 0.16 -1.642997) (mid 0.887708 -1.393557) (end 1.424942 -0.842958)
      (stroke (width 1.2) (type default)) (layer "F.Paste") (tstamp 13a5839b-6e6c-49dd-9574-f539b485e934))
    (fp_arc (start 1.361219 0.920815) (mid 0.700027 1.490696) (end -0.16 1.64)
      (stroke (width 1.2) (type default)) (layer "F.Paste") (tstamp 17fc6a11-0885-4628-a364-cdece527d076))
    (pad "1" thru_hole circle (at 0 0 90) (size 4.5 4.5) (drill 3) (layers "*.Cu" "*.Mask") (tstamp b3d6c1cd-6d5e-4ae7-983a-5a24924d8e1b))
  )

  (gr_rect (start 56 80) (end 246 87)
    (stroke (width 0.1) (type default)) (fill none) (layer "Edge.Cuts") (tstamp b9d26389-fe0f-4b09-98ca-f923893f1f1e))

  (zone (net 0) (net_name "") (layer "F.Cu") (tstamp 04c98c37-2678-4096-a118-9748d8778371) (hatch edge 0.5)
    (connect_pads (clearance 0.5))
    (min_thickness 0.25) (filled_areas_thickness no)
    (fill yes (thermal_gap 0.5) (thermal_bridge_width 0.5) (island_removal_mode 1) (island_area_min 10))
    (polygon
      (pts
        (xy 52 76)
        (xy 249 76)
        (xy 249 91)
        (xy 52 91)
      )
    )
    (filled_polygon
      (layer "F.Cu")
      (island)
      (pts
        (xy 245.942539 80.020185)
        (xy 245.988294 80.072989)
        (xy 245.9995 80.1245)
        (xy 245.9995 86.8755)
        (xy 245.979815 86.942539)
        (xy 245.927011 86.988294)
        (xy 245.8755 86.9995)
        (xy 56.1245 86.9995)
        (xy 56.057461 86.979815)
        (xy 56.011706 86.927011)
        (xy 56.0005 86.8755)
        (xy 56.0005 83.5)
        (xy 58.244473 83.5)
        (xy 58.264563 83.832136)
        (xy 58.264563 83.832141)
        (xy 58.264564 83.832142)
        (xy 58.324544 84.159441)
        (xy 58.324545 84.159445)
        (xy 58.324546 84.159449)
        (xy 58.42353 84.477104)
        (xy 58.423534 84.477116)
        (xy 58.423537 84.477123)
        (xy 58.560102 84.780557)
        (xy 58.732246 85.065318)
        (xy 58.732251 85.065326)
        (xy 58.93746 85.327255)
        (xy 59.172744 85.562539)
        (xy 59.434673 85.767748)
        (xy 59.434678 85.767751)
        (xy 59.434682 85.767754)
        (xy 59.719443 85.939898)
        (xy 60.022877 86.076463)
        (xy 60.02289 86.076467)
        (xy 60.022895 86.076469)
        (xy 60.234665 86.142458)
        (xy 60.340559 86.175456)
        (xy 60.667858 86.235436)
        (xy 61 86.255527)
        (xy 61.332142 86.235436)
        (xy 61.659441 86.175456)
        (xy 61.977123 86.076463)
        (xy 62.280557 85.939898)
        (xy 62.565318 85.767754)
        (xy 62.827252 85.562542)
        (xy 63.062542 85.327252)
        (xy 63.267754 85.065318)
        (xy 63.439898 84.780557)
        (xy 63.576463 84.477123)
        (xy 63.675456 84.159441)
        (xy 63.735436 83.832142)
        (xy 63.755527 83.5)
        (xy 78.244473 83.5)
        (xy 78.264563 83.832136)
        (xy 78.264563 83.832141)
        (xy 78.264564 83.832142)
        (xy 78.324544 84.159441)
        (xy 78.324545 84.159445)
        (xy 78.324546 84.159449)
        (xy 78.42353 84.477104)
        (xy 78.423534 84.477116)
        (xy 78.423537 84.477123)
        (xy 78.560102 84.780557)
        (xy 78.732246 85.065318)
        (xy 78.732251 85.065326)
        (xy 78.93746 85.327255)
        (xy 79.172744 85.562539)
        (xy 79.434673 85.767748)
        (xy 79.434678 85.767751)
        (xy 79.434682 85.767754)
        (xy 79.719443 85.939898)
        (xy 80.022877 86.076463)
        (xy 80.02289 86.076467)
        (xy 80.022895 86.076469)
        (xy 80.234665 86.142458)
        (xy 80.340559 86.175456)
        (xy 80.667858 86.235436)
        (xy 81 86.255527)
        (xy 81.332142 86.235436)
        (xy 81.659441 86.175456)
        (xy 81.977123 86.076463)
        (xy 82.280557 85.939898)
        (xy 82.565318 85.767754)
        (xy 82.827252 85.562542)
        (xy 83.062542 85.327252)
        (xy 83.267754 85.065318)
        (xy 83.439898 84.780557)
        (xy 83.576463 84.477123)
        (xy 83.675456 84.159441)
        (xy 83.735436 83.832142)
        (xy 83.755527 83.5)
        (xy 98.244473 83.5)
        (xy 98.264563 83.832136)
        (xy 98.264563 83.832141)
        (xy 98.264564 83.832142)
        (xy 98.324544 84.159441)
        (xy 98.324545 84.159445)
        (xy 98.324546 84.159449)
        (xy 98.42353 84.477104)
        (xy 98.423534 84.477116)
        (xy 98.423537 84.477123)
        (xy 98.560102 84.780557)
        (xy 98.732246 85.065318)
        (xy 98.732251 85.065326)
        (xy 98.93746 85.327255)
        (xy 99.172744 85.562539)
        (xy 99.434673 85.767748)
        (xy 99.434678 85.767751)
        (xy 99.434682 85.767754)
        (xy 99.719443 85.939898)
        (xy 100.022877 86.076463)
        (xy 100.02289 86.076467)
        (xy 100.022895 86.076469)
        (xy 100.234665 86.142458)
        (xy 100.340559 86.175456)
        (xy 100.667858 86.235436)
        (xy 101 86.255527)
        (xy 101.332142 86.235436)
        (xy 101.659441 86.175456)
        (xy 101.977123 86.076463)
        (xy 102.280557 85.939898)
        (xy 102.565318 85.767754)
        (xy 102.827252 85.562542)
        (xy 103.062542 85.327252)
        (xy 103.267754 85.065318)
        (xy 103.439898 84.780557)
        (xy 103.576463 84.477123)
        (xy 103.675456 84.159441)
        (xy 103.735436 83.832142)
        (xy 103.755527 83.5)
        (xy 118.244473 83.5)
        (xy 118.264563 83.832136)
        (xy 118.264563 83.832141)
        (xy 118.264564 83.832142)
        (xy 118.324544 84.159441)
        (xy 118.324545 84.159445)
        (xy 118.324546 84.159449)
        (xy 118.42353 84.477104)
        (xy 118.423534 84.477116)
        (xy 118.423537 84.477123)
        (xy 118.560102 84.780557)
        (xy 118.732246 85.065318)
        (xy 118.732251 85.065326)
        (xy 118.93746 85.327255)
        (xy 119.172744 85.562539)
        (xy 119.434673 85.767748)
        (xy 119.434678 85.767751)
        (xy 119.434682 85.767754)
        (xy 119.719443 85.939898)
        (xy 120.022877 86.076463)
        (xy 120.02289 86.076467)
        (xy 120.022895 86.076469)
        (xy 120.234665 86.142458)
        (xy 120.340559 86.175456)
        (xy 120.667858 86.235436)
        (xy 121 86.255527)
        (xy 121.332142 86.235436)
        (xy 121.659441 86.175456)
        (xy 121.977123 86.076463)
        (xy 122.280557 85.939898)
        (xy 122.565318 85.767754)
        (xy 122.827252 85.562542)
        (xy 123.062542 85.327252)
        (xy 123.267754 85.065318)
        (xy 123.439898 84.780557)
        (xy 123.576463 84.477123)
        (xy 123.675456 84.159441)
        (xy 123.735436 83.832142)
        (xy 123.755527 83.5)
        (xy 138.244473 83.5)
        (xy 138.264563 83.832136)
        (xy 138.264563 83.832141)
        (xy 138.264564 83.832142)
        (xy 138.324544 84.159441)
        (xy 138.324545 84.159445)
        (xy 138.324546 84.159449)
        (xy 138.42353 84.477104)
        (xy 138.423534 84.477116)
        (xy 138.423537 84.477123)
        (xy 138.560102 84.780557)
        (xy 138.732246 85.065318)
        (xy 138.732251 85.065326)
        (xy 138.93746 85.327255)
        (xy 139.172744 85.562539)
        (xy 139.434673 85.767748)
        (xy 139.434678 85.767751)
        (xy 139.434682 85.767754)
        (xy 139.719443 85.939898)
        (xy 140.022877 86.076463)
        (xy 140.02289 86.076467)
        (xy 140.022895 86.076469)
        (xy 140.234665 86.142458)
        (xy 140.340559 86.175456)
        (xy 140.667858 86.235436)
        (xy 141 86.255527)
        (xy 141.332142 86.235436)
        (xy 141.659441 86.175456)
        (xy 141.977123 86.076463)
        (xy 142.280557 85.939898)
        (xy 142.565318 85.767754)
        (xy 142.827252 85.562542)
        (xy 143.062542 85.327252)
        (xy 143.267754 85.065318)
        (xy 143.439898 84.780557)
        (xy 143.576463 84.477123)
        (xy 143.675456 84.159441)
        (xy 143.735436 83.832142)
        (xy 143.755527 83.5)
        (xy 158.244473 83.5)
        (xy 158.264563 83.832136)
        (xy 158.264563 83.832141)
        (xy 158.264564 83.832142)
        (xy 158.324544 84.159441)
        (xy 158.324545 84.159445)
        (xy 158.324546 84.159449)
        (xy 158.42353 84.477104)
        (xy 158.423534 84.477116)
        (xy 158.423537 84.477123)
        (xy 158.560102 84.780557)
        (xy 158.732246 85.065318)
        (xy 158.732251 85.065326)
        (xy 158.93746 85.327255)
        (xy 159.172744 85.562539)
        (xy 159.434673 85.767748)
        (xy 159.434678 85.767751)
        (xy 159.434682 85.767754)
        (xy 159.719443 85.939898)
        (xy 160.022877 86.076463)
        (xy 160.02289 86.076467)
        (xy 160.022895 86.076469)
        (xy 160.234665 86.142458)
        (xy 160.340559 86.175456)
        (xy 160.667858 86.235436)
        (xy 161 86.255527)
        (xy 161.332142 86.235436)
        (xy 161.659441 86.175456)
        (xy 161.977123 86.076463)
        (xy 162.280557 85.939898)
        (xy 162.565318 85.767754)
        (xy 162.827252 85.562542)
        (xy 163.062542 85.327252)
        (xy 163.267754 85.065318)
        (xy 163.439898 84.780557)
        (xy 163.576463 84.477123)
        (xy 163.675456 84.159441)
        (xy 163.735436 83.832142)
        (xy 163.755527 83.5)
        (xy 178.244473 83.5)
        (xy 178.264563 83.832136)
        (xy 178.264563 83.832141)
        (xy 178.264564 83.832142)
        (xy 178.324544 84.159441)
        (xy 178.324545 84.159445)
        (xy 178.324546 84.159449)
        (xy 178.42353 84.477104)
        (xy 178.423534 84.477116)
        (xy 178.423537 84.477123)
        (xy 178.560102 84.780557)
        (xy 178.732246 85.065318)
        (xy 178.732251 85.065326)
        (xy 178.93746 85.327255)
        (xy 179.172744 85.562539)
        (xy 179.434673 85.767748)
        (xy 179.434678 85.767751)
        (xy 179.434682 85.767754)
        (xy 179.719443 85.939898)
        (xy 180.022877 86.076463)
        (xy 180.02289 86.076467)
        (xy 180.022895 86.076469)
        (xy 180.234665 86.142458)
        (xy 180.340559 86.175456)
        (xy 180.667858 86.235436)
        (xy 181 86.255527)
        (xy 181.332142 86.235436)
        (xy 181.659441 86.175456)
        (xy 181.977123 86.076463)
        (xy 182.280557 85.939898)
        (xy 182.565318 85.767754)
        (xy 182.827252 85.562542)
        (xy 183.062542 85.327252)
        (xy 183.267754 85.065318)
        (xy 183.439898 84.780557)
        (xy 183.576463 84.477123)
        (xy 183.675456 84.159441)
        (xy 183.735436 83.832142)
        (xy 183.755527 83.5)
        (xy 198.244473 83.5)
        (xy 198.264563 83.832136)
        (xy 198.264563 83.832141)
        (xy 198.264564 83.832142)
        (xy 198.324544 84.159441)
        (xy 198.324545 84.159445)
        (xy 198.324546 84.159449)
        (xy 198.42353 84.477104)
        (xy 198.423534 84.477116)
        (xy 198.423537 84.477123)
        (xy 198.560102 84.780557)
        (xy 198.732246 85.065318)
        (xy 198.732251 85.065326)
        (xy 198.93746 85.327255)
        (xy 199.172744 85.562539)
        (xy 199.434673 85.767748)
        (xy 199.434678 85.767751)
        (xy 199.434682 85.767754)
        (xy 199.719443 85.939898)
        (xy 200.022877 86.076463)
        (xy 200.02289 86.076467)
        (xy 200.022895 86.076469)
        (xy 200.234665 86.142458)
        (xy 200.340559 86.175456)
        (xy 200.667858 86.235436)
        (xy 201 86.255527)
        (xy 201.332142 86.235436)
        (xy 201.659441 86.175456)
        (xy 201.977123 86.076463)
        (xy 202.280557 85.939898)
        (xy 202.565318 85.767754)
        (xy 202.827252 85.562542)
        (xy 203.062542 85.327252)
        (xy 203.267754 85.065318)
        (xy 203.439898 84.780557)
        (xy 203.576463 84.477123)
        (xy 203.675456 84.159441)
        (xy 203.735436 83.832142)
        (xy 203.755527 83.5)
        (xy 218.244473 83.5)
        (xy 218.264563 83.832136)
        (xy 218.264563 83.832141)
        (xy 218.264564 83.832142)
        (xy 218.324544 84.159441)
        (xy 218.324545 84.159445)
        (xy 218.324546 84.159449)
        (xy 218.42353 84.477104)
        (xy 218.423534 84.477116)
        (xy 218.423537 84.477123)
        (xy 218.560102 84.780557)
        (xy 218.732246 85.065318)
        (xy 218.732251 85.065326)
        (xy 218.93746 85.327255)
        (xy 219.172744 85.562539)
        (xy 219.434673 85.767748)
        (xy 219.434678 85.767751)
        (xy 219.434682 85.767754)
        (xy 219.719443 85.939898)
        (xy 220.022877 86.076463)
        (xy 220.02289 86.076467)
        (xy 220.022895 86.076469)
        (xy 220.234665 86.142458)
        (xy 220.340559 86.175456)
        (xy 220.667858 86.235436)
        (xy 221 86.255527)
        (xy 221.332142 86.235436)
        (xy 221.659441 86.175456)
        (xy 221.977123 86.076463)
        (xy 222.280557 85.939898)
        (xy 222.565318 85.767754)
        (xy 222.827252 85.562542)
        (xy 223.062542 85.327252)
        (xy 223.267754 85.065318)
        (xy 223.439898 84.780557)
        (xy 223.576463 84.477123)
        (xy 223.675456 84.159441)
        (xy 223.735436 83.832142)
        (xy 223.755527 83.5)
        (xy 238.244473 83.5)
        (xy 238.264563 83.832136)
        (xy 238.264563 83.832141)
        (xy 238.264564 83.832142)
        (xy 238.324544 84.159441)
        (xy 238.324545 84.159445)
        (xy 238.324546 84.159449)
        (xy 238.42353 84.477104)
        (xy 238.423534 84.477116)
        (xy 238.423537 84.477123)
        (xy 238.560102 84.780557)
        (xy 238.732246 85.065318)
        (xy 238.732251 85.065326)
        (xy 238.93746 85.327255)
        (xy 239.172744 85.562539)
        (xy 239.434673 85.767748)
        (xy 239.434678 85.767751)
        (xy 239.434682 85.767754)
        (xy 239.719443 85.939898)
        (xy 240.022877 86.076463)
        (xy 240.02289 86.076467)
        (xy 240.022895 86.076469)
        (xy 240.234665 86.142458)
        (xy 240.340559 86.175456)
        (xy 240.667858 86.235436)
        (xy 241 86.255527)
        (xy 241.332142 86.235436)
        (xy 241.659441 86.175456)
        (xy 241.977123 86.076463)
        (xy 242.280557 85.939898)
        (xy 242.565318 85.767754)
        (xy 242.827252 85.562542)
        (xy 243.062542 85.327252)
        (xy 243.267754 85.065318)
        (xy 243.439898 84.780557)
        (xy 243.576463 84.477123)
        (xy 243.675456 84.159441)
        (xy 243.735436 83.832142)
        (xy 243.755527 83.5)
        (xy 243.735436 83.167858)
        (xy 243.675456 82.840559)
        (xy 243.576463 82.522877)
        (xy 243.439898 82.219443)
        (xy 243.267754 81.934682)
        (xy 243.267751 81.934678)
        (xy 243.267748 81.934673)
        (xy 243.062539 81.672744)
        (xy 242.827255 81.43746)
        (xy 242.565326 81.232251)
        (xy 242.565318 81.232246)
        (xy 242.280557 81.060102)
        (xy 241.977123 80.923537)
        (xy 241.977116 80.923534)
        (xy 241.977104 80.92353)
        (xy 241.659449 80.824546)
        (xy 241.659445 80.824545)
        (xy 241.659441 80.824544)
        (xy 241.332142 80.764564)
        (xy 241.332141 80.764563)
        (xy 241.332136 80.764563)
        (xy 241 80.744473)
        (xy 240.667863 80.764563)
        (xy 240.667858 80.764564)
        (xy 240.340559 80.824544)
        (xy 240.340556 80.824544)
        (xy 240.34055 80.824546)
        (xy 240.022895 80.92353)
        (xy 240.022879 80.923536)
        (xy 240.022877 80.923537)
        (xy 239.829656 81.010498)
        (xy 239.719447 81.0601)
        (xy 239.719445 81.060101)
        (xy 239.434673 81.232251)
        (xy 239.172744 81.43746)
        (xy 238.93746 81.672744)
        (xy 238.732251 81.934673)
        (xy 238.560101 82.219445)
        (xy 238.5601 82.219447)
        (xy 238.423536 82.52288)
        (xy 238.42353 82.522895)
        (xy 238.324546 82.84055)
        (xy 238.264563 83.167863)
        (xy 238.244473 83.5)
        (xy 223.755527 83.5)
        (xy 223.735436 83.167858)
        (xy 223.675456 82.840559)
        (xy 223.576463 82.522877)
        (xy 223.439898 82.219443)
        (xy 223.267754 81.934682)
        (xy 223.267751 81.934678)
        (xy 223.267748 81.934673)
        (xy 223.062539 81.672744)
        (xy 222.827255 81.43746)
        (xy 222.565326 81.232251)
        (xy 222.565318 81.232246)
        (xy 222.280557 81.060102)
        (xy 221.977123 80.923537)
        (xy 221.977116 80.923534)
        (xy 221.977104 80.92353)
        (xy 221.659449 80.824546)
        (xy 221.659445 80.824545)
        (xy 221.659441 80.824544)
        (xy 221.332142 80.764564)
        (xy 221.332141 80.764563)
        (xy 221.332136 80.764563)
        (xy 221 80.744473)
        (xy 220.667863 80.764563)
        (xy 220.667858 80.764564)
        (xy 220.340559 80.824544)
        (xy 220.340556 80.824544)
        (xy 220.34055 80.824546)
        (xy 220.022895 80.92353)
        (xy 220.022879 80.923536)
        (xy 220.022877 80.923537)
        (xy 219.829656 81.010498)
        (xy 219.719447 81.0601)
        (xy 219.719445 81.060101)
        (xy 219.434673 81.232251)
        (xy 219.172744 81.43746)
        (xy 218.93746 81.672744)
        (xy 218.732251 81.934673)
        (xy 218.560101 82.219445)
        (xy 218.5601 82.219447)
        (xy 218.423536 82.52288)
        (xy 218.42353 82.522895)
        (xy 218.324546 82.84055)
        (xy 218.264563 83.167863)
        (xy 218.244473 83.5)
        (xy 203.755527 83.5)
        (xy 203.735436 83.167858)
        (xy 203.675456 82.840559)
        (xy 203.576463 82.522877)
        (xy 203.439898 82.219443)
        (xy 203.267754 81.934682)
        (xy 203.267751 81.934678)
        (xy 203.267748 81.934673)
        (xy 203.062539 81.672744)
        (xy 202.827255 81.43746)
        (xy 202.565326 81.232251)
        (xy 202.565318 81.232246)
        (xy 202.280557 81.060102)
        (xy 201.977123 80.923537)
        (xy 201.977116 80.923534)
        (xy 201.977104 80.92353)
        (xy 201.659449 80.824546)
        (xy 201.659445 80.824545)
        (xy 201.659441 80.824544)
        (xy 201.332142 80.764564)
        (xy 201.332141 80.764563)
        (xy 201.332136 80.764563)
        (xy 201 80.744473)
        (xy 200.667863 80.764563)
        (xy 200.667858 80.764564)
        (xy 200.340559 80.824544)
        (xy 200.340556 80.824544)
        (xy 200.34055 80.824546)
        (xy 200.022895 80.92353)
        (xy 200.022879 80.923536)
        (xy 200.022877 80.923537)
        (xy 199.829656 81.010498)
        (xy 199.719447 81.0601)
        (xy 199.719445 81.060101)
        (xy 199.434673 81.232251)
        (xy 199.172744 81.43746)
        (xy 198.93746 81.672744)
        (xy 198.732251 81.934673)
        (xy 198.560101 82.219445)
        (xy 198.5601 82.219447)
        (xy 198.423536 82.52288)
        (xy 198.42353 82.522895)
        (xy 198.324546 82.84055)
        (xy 198.264563 83.167863)
        (xy 198.244473 83.5)
        (xy 183.755527 83.5)
        (xy 183.735436 83.167858)
        (xy 183.675456 82.840559)
        (xy 183.576463 82.522877)
        (xy 183.439898 82.219443)
        (xy 183.267754 81.934682)
        (xy 183.267751 81.934678)
        (xy 183.267748 81.934673)
        (xy 183.062539 81.672744)
        (xy 182.827255 81.43746)
        (xy 182.565326 81.232251)
        (xy 182.565318 81.232246)
        (xy 182.280557 81.060102)
        (xy 181.977123 80.923537)
        (xy 181.977116 80.923534)
        (xy 181.977104 80.92353)
        (xy 181.659449 80.824546)
        (xy 181.659445 80.824545)
        (xy 181.659441 80.824544)
        (xy 181.332142 80.764564)
        (xy 181.332141 80.764563)
        (xy 181.332136 80.764563)
        (xy 181 80.744473)
        (xy 180.667863 80.764563)
        (xy 180.667858 80.764564)
        (xy 180.340559 80.824544)
        (xy 180.340556 80.824544)
        (xy 180.34055 80.824546)
        (xy 180.022895 80.92353)
        (xy 180.022879 80.923536)
        (xy 180.022877 80.923537)
        (xy 179.829656 81.010498)
        (xy 179.719447 81.0601)
        (xy 179.719445 81.060101)
        (xy 179.434673 81.232251)
        (xy 179.172744 81.43746)
        (xy 178.93746 81.672744)
        (xy 178.732251 81.934673)
        (xy 178.560101 82.219445)
        (xy 178.5601 82.219447)
        (xy 178.423536 82.52288)
        (xy 178.42353 82.522895)
        (xy 178.324546 82.84055)
        (xy 178.264563 83.167863)
        (xy 178.244473 83.5)
        (xy 163.755527 83.5)
        (xy 163.735436 83.167858)
        (xy 163.675456 82.840559)
        (xy 163.576463 82.522877)
        (xy 163.439898 82.219443)
        (xy 163.267754 81.934682)
        (xy 163.267751 81.934678)
        (xy 163.267748 81.934673)
        (xy 163.062539 81.672744)
        (xy 162.827255 81.43746)
        (xy 162.565326 81.232251)
        (xy 162.565318 81.232246)
        (xy 162.280557 81.060102)
        (xy 161.977123 80.923537)
        (xy 161.977116 80.923534)
        (xy 161.977104 80.92353)
        (xy 161.659449 80.824546)
        (xy 161.659445 80.824545)
        (xy 161.659441 80.824544)
        (xy 161.332142 80.764564)
        (xy 161.332141 80.764563)
        (xy 161.332136 80.764563)
        (xy 161 80.744473)
        (xy 160.667863 80.764563)
        (xy 160.667858 80.764564)
        (xy 160.340559 80.824544)
        (xy 160.340556 80.824544)
        (xy 160.34055 80.824546)
        (xy 160.022895 80.92353)
        (xy 160.022879 80.923536)
        (xy 160.022877 80.923537)
        (xy 159.829656 81.010498)
        (xy 159.719447 81.0601)
        (xy 159.719445 81.060101)
        (xy 159.434673 81.232251)
        (xy 159.172744 81.43746)
        (xy 158.93746 81.672744)
        (xy 158.732251 81.934673)
        (xy 158.560101 82.219445)
        (xy 158.5601 82.219447)
        (xy 158.423536 82.52288)
        (xy 158.42353 82.522895)
        (xy 158.324546 82.84055)
        (xy 158.264563 83.167863)
        (xy 158.244473 83.5)
        (xy 143.755527 83.5)
        (xy 143.735436 83.167858)
        (xy 143.675456 82.840559)
        (xy 143.576463 82.522877)
        (xy 143.439898 82.219443)
        (xy 143.267754 81.934682)
        (xy 143.267751 81.934678)
        (xy 143.267748 81.934673)
        (xy 143.062539 81.672744)
        (xy 142.827255 81.43746)
        (xy 142.565326 81.232251)
        (xy 142.565318 81.232246)
        (xy 142.280557 81.060102)
        (xy 141.977123 80.923537)
        (xy 141.977116 80.923534)
        (xy 141.977104 80.92353)
        (xy 141.659449 80.824546)
        (xy 141.659445 80.824545)
        (xy 141.659441 80.824544)
        (xy 141.332142 80.764564)
        (xy 141.332141 80.764563)
        (xy 141.332136 80.764563)
        (xy 141 80.744473)
        (xy 140.667863 80.764563)
        (xy 140.667858 80.764564)
        (xy 140.340559 80.824544)
        (xy 140.340556 80.824544)
        (xy 140.34055 80.824546)
        (xy 140.022895 80.92353)
        (xy 140.022879 80.923536)
        (xy 140.022877 80.923537)
        (xy 139.829656 81.010498)
        (xy 139.719447 81.0601)
        (xy 139.719445 81.060101)
        (xy 139.434673 81.232251)
        (xy 139.172744 81.43746)
        (xy 138.93746 81.672744)
        (xy 138.732251 81.934673)
        (xy 138.560101 82.219445)
        (xy 138.5601 82.219447)
        (xy 138.423536 82.52288)
        (xy 138.42353 82.522895)
        (xy 138.324546 82.84055)
        (xy 138.264563 83.167863)
        (xy 138.244473 83.5)
        (xy 123.755527 83.5)
        (xy 123.735436 83.167858)
        (xy 123.675456 82.840559)
        (xy 123.576463 82.522877)
        (xy 123.439898 82.219443)
        (xy 123.267754 81.934682)
        (xy 123.267751 81.934678)
        (xy 123.267748 81.934673)
        (xy 123.062539 81.672744)
        (xy 122.827255 81.43746)
        (xy 122.565326 81.232251)
        (xy 122.565318 81.232246)
        (xy 122.280557 81.060102)
        (xy 121.977123 80.923537)
        (xy 121.977116 80.923534)
        (xy 121.977104 80.92353)
        (xy 121.659449 80.824546)
        (xy 121.659445 80.824545)
        (xy 121.659441 80.824544)
        (xy 121.332142 80.764564)
        (xy 121.332141 80.764563)
        (xy 121.332136 80.764563)
        (xy 121 80.744473)
        (xy 120.667863 80.764563)
        (xy 120.667858 80.764564)
        (xy 120.340559 80.824544)
        (xy 120.340556 80.824544)
        (xy 120.34055 80.824546)
        (xy 120.022895 80.92353)
        (xy 120.022879 80.923536)
        (xy 120.022877 80.923537)
        (xy 119.829656 81.010498)
        (xy 119.719447 81.0601)
        (xy 119.719445 81.060101)
        (xy 119.434673 81.232251)
        (xy 119.172744 81.43746)
        (xy 118.93746 81.672744)
        (xy 118.732251 81.934673)
        (xy 118.560101 82.219445)
        (xy 118.5601 82.219447)
        (xy 118.423536 82.52288)
        (xy 118.42353 82.522895)
        (xy 118.324546 82.84055)
        (xy 118.264563 83.167863)
        (xy 118.244473 83.5)
        (xy 103.755527 83.5)
        (xy 103.735436 83.167858)
        (xy 103.675456 82.840559)
        (xy 103.576463 82.522877)
        (xy 103.439898 82.219443)
        (xy 103.267754 81.934682)
        (xy 103.267751 81.934678)
        (xy 103.267748 81.934673)
        (xy 103.062539 81.672744)
        (xy 102.827255 81.43746)
        (xy 102.565326 81.232251)
        (xy 102.565318 81.232246)
        (xy 102.280557 81.060102)
        (xy 101.977123 80.923537)
        (xy 101.977116 80.923534)
        (xy 101.977104 80.92353)
        (xy 101.659449 80.824546)
        (xy 101.659445 80.824545)
        (xy 101.659441 80.824544)
        (xy 101.332142 80.764564)
        (xy 101.332141 80.764563)
        (xy 101.332136 80.764563)
        (xy 101 80.744473)
        (xy 100.667863 80.764563)
        (xy 100.667858 80.764564)
        (xy 100.340559 80.824544)
        (xy 100.340556 80.824544)
        (xy 100.34055 80.824546)
        (xy 100.022895 80.92353)
        (xy 100.022879 80.923536)
        (xy 100.022877 80.923537)
        (xy 99.829656 81.010498)
        (xy 99.719447 81.0601)
        (xy 99.719445 81.060101)
        (xy 99.434673 81.232251)
        (xy 99.172744 81.43746)
        (xy 98.93746 81.672744)
        (xy 98.732251 81.934673)
        (xy 98.560101 82.219445)
        (xy 98.5601 82.219447)
        (xy 98.423536 82.52288)
        (xy 98.42353 82.522895)
        (xy 98.324546 82.84055)
        (xy 98.264563 83.167863)
        (xy 98.244473 83.5)
        (xy 83.755527 83.5)
        (xy 83.735436 83.167858)
        (xy 83.675456 82.840559)
        (xy 83.576463 82.522877)
        (xy 83.439898 82.219443)
        (xy 83.267754 81.934682)
        (xy 83.267751 81.934678)
        (xy 83.267748 81.934673)
        (xy 83.062539 81.672744)
        (xy 82.827255 81.43746)
        (xy 82.565326 81.232251)
        (xy 82.565318 81.232246)
        (xy 82.280557 81.060102)
        (xy 81.977123 80.923537)
        (xy 81.977116 80.923534)
        (xy 81.977104 80.92353)
        (xy 81.659449 80.824546)
        (xy 81.659445 80.824545)
        (xy 81.659441 80.824544)
        (xy 81.332142 80.764564)
        (xy 81.332141 80.764563)
        (xy 81.332136 80.764563)
        (xy 81 80.744473)
        (xy 80.667863 80.764563)
        (xy 80.667858 80.764564)
        (xy 80.340559 80.824544)
        (xy 80.340556 80.824544)
        (xy 80.34055 80.824546)
        (xy 80.022895 80.92353)
        (xy 80.022879 80.923536)
        (xy 80.022877 80.923537)
        (xy 79.829656 81.010498)
        (xy 79.719447 81.0601)
        (xy 79.719445 81.060101)
        (xy 79.434673 81.232251)
        (xy 79.172744 81.43746)
        (xy 78.93746 81.672744)
        (xy 78.732251 81.934673)
        (xy 78.560101 82.219445)
        (xy 78.5601 82.219447)
        (xy 78.423536 82.52288)
        (xy 78.42353 82.522895)
        (xy 78.324546 82.84055)
        (xy 78.264563 83.167863)
        (xy 78.244473 83.5)
        (xy 63.755527 83.5)
        (xy 63.735436 83.167858)
        (xy 63.675456 82.840559)
        (xy 63.576463 82.522877)
        (xy 63.439898 82.219443)
        (xy 63.267754 81.934682)
        (xy 63.267751 81.934678)
        (xy 63.267748 81.934673)
        (xy 63.062539 81.672744)
        (xy 62.827255 81.43746)
        (xy 62.565326 81.232251)
        (xy 62.565318 81.232246)
        (xy 62.280557 81.060102)
        (xy 61.977123 80.923537)
        (xy 61.977116 80.923534)
        (xy 61.977104 80.92353)
        (xy 61.659449 80.824546)
        (xy 61.659445 80.824545)
        (xy 61.659441 80.824544)
        (xy 61.332142 80.764564)
        (xy 61.332141 80.764563)
        (xy 61.332136 80.764563)
        (xy 61 80.744473)
        (xy 60.667863 80.764563)
        (xy 60.667858 80.764564)
        (xy 60.340559 80.824544)
        (xy 60.340556 80.824544)
        (xy 60.34055 80.824546)
        (xy 60.022895 80.92353)
        (xy 60.022879 80.923536)
        (xy 60.022877 80.923537)
        (xy 59.829656 81.010498)
        (xy 59.719447 81.0601)
        (xy 59.719445 81.060101)
        (xy 59.434673 81.232251)
        (xy 59.172744 81.43746)
        (xy 58.93746 81.672744)
        (xy 58.732251 81.934673)
        (xy 58.560101 82.219445)
        (xy 58.5601 82.219447)
        (xy 58.423536 82.52288)
        (xy 58.42353 82.522895)
        (xy 58.324546 82.84055)
        (xy 58.264563 83.167863)
        (xy 58.244473 83.5)
        (xy 56.0005 83.5)
        (xy 56.0005 80.1245)
        (xy 56.020185 80.057461)
        (xy 56.072989 80.011706)
        (xy 56.1245 80.0005)
        (xy 245.8755 80.0005)
      )
    )
  )
)
