(kicad_sch (version 20230121) (generator eeschema)

  (uuid 1bb9d2e6-2d50-4efd-96a0-cb2851b1440d)

  (paper "A4")

  (lib_symbols
    (symbol "Device:Battery_Cell" (pin_numbers hide) (pin_names (offset 0) hide) (in_bom yes) (on_board yes)
      (property "Reference" "BT" (at 2.54 2.54 0)
        (effects (font (size 1.27 1.27)) (justify left))
      )
      (property "Value" "Device_Battery_Cell" (at 2.54 0 0)
        (effects (font (size 1.27 1.27)) (justify left))
      )
      (property "Footprint" "" (at 0 1.524 90)
        (effects (font (size 1.27 1.27)) hide)
      )
      (property "Datasheet" "" (at 0 1.524 90)
        (effects (font (size 1.27 1.27)) hide)
      )
      (symbol "Battery_Cell_0_1"
        (rectangle (start -2.286 1.778) (end 2.286 1.524)
          (stroke (width 0) (type default))
          (fill (type outline))
        )
        (rectangle (start -1.5748 1.1938) (end 1.4732 0.6858)
          (stroke (width 0) (type default))
          (fill (type outline))
        )
        (polyline
          (pts
            (xy 0 0.762)
            (xy 0 0)
          )
          (stroke (width 0) (type default))
          (fill (type none))
        )
        (polyline
          (pts
            (xy 0 1.778)
            (xy 0 2.54)
          )
          (stroke (width 0) (type default))
          (fill (type none))
        )
        (polyline
          (pts
            (xy 0.508 3.429)
            (xy 1.524 3.429)
          )
          (stroke (width 0.254) (type default))
          (fill (type none))
        )
        (polyline
          (pts
            (xy 1.016 3.937)
            (xy 1.016 2.921)
          )
          (stroke (width 0.254) (type default))
          (fill (type none))
        )
      )
      (symbol "Battery_Cell_1_1"
        (pin passive line (at 0 5.08 270) (length 2.54)
          (name "+" (effects (font (size 1.27 1.27))))
          (number "1" (effects (font (size 1.27 1.27))))
        )
        (pin passive line (at 0 -2.54 90) (length 2.54)
          (name "-" (effects (font (size 1.27 1.27))))
          (number "2" (effects (font (size 1.27 1.27))))
        )
      )
    )
    (symbol "Device:Buzzer" (pin_names (offset 0.0254) hide) (in_bom yes) (on_board yes)
      (property "Reference" "BZ" (at 3.81 1.27 0)
        (effects (font (size 1.27 1.27)) (justify left))
      )
      (property "Value" "Device_Buzzer" (at 3.81 -1.27 0)
        (effects (font (size 1.27 1.27)) (justify left))
      )
      (property "Footprint" "" (at -0.635 2.54 90)
        (effects (font (size 1.27 1.27)) hide)
      )
      (property "Datasheet" "" (at -0.635 2.54 90)
        (effects (font (size 1.27 1.27)) hide)
      )
      (property "ki_fp_filters" "*Buzzer*" (at 0 0 0)
        (effects (font (size 1.27 1.27)) hide)
      )
      (symbol "Buzzer_0_1"
        (arc (start 0 -3.175) (mid 3.1612 0) (end 0 3.175)
          (stroke (width 0) (type default))
          (fill (type none))
        )
        (polyline
          (pts
            (xy -1.651 1.905)
            (xy -1.143 1.905)
          )
          (stroke (width 0) (type default))
          (fill (type none))
        )
        (polyline
          (pts
            (xy -1.397 2.159)
            (xy -1.397 1.651)
          )
          (stroke (width 0) (type default))
          (fill (type none))
        )
        (polyline
          (pts
            (xy 0 3.175)
            (xy 0 -3.175)
          )
          (stroke (width 0) (type default))
          (fill (type none))
        )
      )
      (symbol "Buzzer_1_1"
        (pin passive line (at -2.54 2.54 0) (length 2.54)
          (name "-" (effects (font (size 1.27 1.27))))
          (number "1" (effects (font (size 1.27 1.27))))
        )
        (pin passive line (at -2.54 -2.54 0) (length 2.54)
          (name "+" (effects (font (size 1.27 1.27))))
          (number "2" (effects (font (size 1.27 1.27))))
        )
      )
    )
    (symbol "Device:C" (pin_numbers hide) (pin_names (offset 0.254)) (in_bom yes) (on_board yes)
      (property "Reference" "C" (at 0.635 2.54 0)
        (effects (font (size 1.27 1.27)) (justify left))
      )
      (property "Value" "Device_C" (at 0.635 -2.54 0)
        (effects (font (size 1.27 1.27)) (justify left))
      )
      (property "Footprint" "" (at 0.9652 -3.81 0)
        (effects (font (size 1.27 1.27)) hide)
      )
      (property "Datasheet" "" (at 0 0 0)
        (effects (font (size 1.27 1.27)) hide)
      )
      (property "ki_fp_filters" "C_*" (at 0 0 0)
        (effects (font (size 1.27 1.27)) hide)
      )
      (symbol "C_0_1"
        (polyline
          (pts
            (xy -2.032 -0.762)
            (xy 2.032 -0.762)
          )
          (stroke (width 0.508) (type default))
          (fill (type none))
        )
        (polyline
          (pts
            (xy -2.032 0.762)
            (xy 2.032 0.762)
          )
          (stroke (width 0.508) (type default))
          (fill (type none))
        )
      )
      (symbol "C_1_1"
        (pin passive line (at 0 3.81 270) (length 2.794)
          (name "~" (effects (font (size 1.27 1.27))))
          (number "1" (effects (font (size 1.27 1.27))))
        )
        (pin passive line (at 0 -3.81 90) (length 2.794)
          (name "~" (effects (font (size 1.27 1.27))))
          (number "2" (effects (font (size 1.27 1.27))))
        )
      )
    )
    (symbol "Device:D_Schottky" (pin_numbers hide) (pin_names (offset 1.016) hide) (in_bom yes) (on_board yes)
      (property "Reference" "D" (at 0 2.54 0)
        (effects (font (size 1.27 1.27)))
      )
      (property "Value" "Device_D_Schottky" (at 0 -2.54 0)
        (effects (font (size 1.27 1.27)))
      )
      (property "Footprint" "" (at 0 0 0)
        (effects (font (size 1.27 1.27)) hide)
      )
      (property "Datasheet" "" (at 0 0 0)
        (effects (font (size 1.27 1.27)) hide)
      )
      (property "ki_fp_filters" "TO-???* *_Diode_* *SingleDiode* D_*" (at 0 0 0)
        (effects (font (size 1.27 1.27)) hide)
      )
      (symbol "D_Schottky_0_1"
        (polyline
          (pts
            (xy 1.27 0)
            (xy -1.27 0)
          )
          (stroke (width 0) (type default))
          (fill (type none))
        )
        (polyline
          (pts
            (xy 1.27 1.27)
            (xy 1.27 -1.27)
            (xy -1.27 0)
            (xy 1.27 1.27)
          )
          (stroke (width 0.254) (type default))
          (fill (type none))
        )
        (polyline
          (pts
            (xy -1.905 0.635)
            (xy -1.905 1.27)
            (xy -1.27 1.27)
            (xy -1.27 -1.27)
            (xy -0.635 -1.27)
            (xy -0.635 -0.635)
          )
          (stroke (width 0.254) (type default))
          (fill (type none))
        )
      )
      (symbol "D_Schottky_1_1"
        (pin passive line (at -3.81 0 0) (length 2.54)
          (name "K" (effects (font (size 1.27 1.27))))
          (number "1" (effects (font (size 1.27 1.27))))
        )
        (pin passive line (at 3.81 0 180) (length 2.54)
          (name "A" (effects (font (size 1.27 1.27))))
          (number "2" (effects (font (size 1.27 1.27))))
        )
      )
    )
    (symbol "Device:L" (pin_numbers hide) (pin_names (offset 1.016) hide) (in_bom yes) (on_board yes)
      (property "Reference" "L" (at -1.27 0 90)
        (effects (font (size 1.27 1.27)))
      )
      (property "Value" "Device_L" (at 1.905 0 90)
        (effects (font (size 1.27 1.27)))
      )
      (property "Footprint" "" (at 0 0 0)
        (effects (font (size 1.27 1.27)) hide)
      )
      (property "Datasheet" "" (at 0 0 0)
        (effects (font (size 1.27 1.27)) hide)
      )
      (property "ki_fp_filters" "Choke_* *Coil* Inductor_* L_*" (at 0 0 0)
        (effects (font (size 1.27 1.27)) hide)
      )
      (symbol "L_0_1"
        (arc (start 0 -2.54) (mid 0.6323 -1.905) (end 0 -1.27)
          (stroke (width 0) (type default))
          (fill (type none))
        )
        (arc (start 0 -1.27) (mid 0.6323 -0.635) (end 0 0)
          (stroke (width 0) (type default))
          (fill (type none))
        )
        (arc (start 0 0) (mid 0.6323 0.635) (end 0 1.27)
          (stroke (width 0) (type default))
          (fill (type none))
        )
        (arc (start 0 1.27) (mid 0.6323 1.905) (end 0 2.54)
          (stroke (width 0) (type default))
          (fill (type none))
        )
      )
      (symbol "L_1_1"
        (pin passive line (at 0 3.81 270) (length 1.27)
          (name "1" (effects (font (size 1.27 1.27))))
          (number "1" (effects (font (size 1.27 1.27))))
        )
        (pin passive line (at 0 -3.81 90) (length 1.27)
          (name "2" (effects (font (size 1.27 1.27))))
          (number "2" (effects (font (size 1.27 1.27))))
        )
      )
    )
    (symbol "Device:LED" (pin_numbers hide) (pin_names (offset 1.016) hide) (in_bom yes) (on_board yes)
      (property "Reference" "D" (at 0 2.54 0)
        (effects (font (size 1.27 1.27)))
      )
      (property "Value" "Device_LED" (at 0 -2.54 0)
        (effects (font (size 1.27 1.27)))
      )
      (property "Footprint" "" (at 0 0 0)
        (effects (font (size 1.27 1.27)) hide)
      )
      (property "Datasheet" "" (at 0 0 0)
        (effects (font (size 1.27 1.27)) hide)
      )
      (property "ki_fp_filters" "LED* LED_SMD:* LED_THT:*" (at 0 0 0)
        (effects (font (size 1.27 1.27)) hide)
      )
      (symbol "LED_0_1"
        (polyline
          (pts
            (xy -1.27 -1.27)
            (xy -1.27 1.27)
          )
          (stroke (width 0.254) (type default))
          (fill (type none))
        )
        (polyline
          (pts
            (xy -1.27 0)
            (xy 1.27 0)
          )
          (stroke (width 0) (type default))
          (fill (type none))
        )
        (polyline
          (pts
            (xy 1.27 -1.27)
            (xy 1.27 1.27)
            (xy -1.27 0)
            (xy 1.27 -1.27)
          )
          (stroke (width 0.254) (type default))
          (fill (type none))
        )
        (polyline
          (pts
            (xy -3.048 -0.762)
            (xy -4.572 -2.286)
            (xy -3.81 -2.286)
            (xy -4.572 -2.286)
            (xy -4.572 -1.524)
          )
          (stroke (width 0) (type default))
          (fill (type none))
        )
        (polyline
          (pts
            (xy -1.778 -0.762)
            (xy -3.302 -2.286)
            (xy -2.54 -2.286)
            (xy -3.302 -2.286)
            (xy -3.302 -1.524)
          )
          (stroke (width 0) (type default))
          (fill (type none))
        )
      )
      (symbol "LED_1_1"
        (pin passive line (at -3.81 0 0) (length 2.54)
          (name "K" (effects (font (size 1.27 1.27))))
          (number "1" (effects (font (size 1.27 1.27))))
        )
        (pin passive line (at 3.81 0 180) (length 2.54)
          (name "A" (effects (font (size 1.27 1.27))))
          (number "2" (effects (font (size 1.27 1.27))))
        )
      )
    )
    (symbol "Device:Q_PMOS_SGD" (pin_names (offset 0) hide) (in_bom yes) (on_board yes)
      (property "Reference" "Q" (at 5.08 1.27 0)
        (effects (font (size 1.27 1.27)) (justify left))
      )
      (property "Value" "Device_Q_PMOS_SGD" (at 5.08 -1.27 0)
        (effects (font (size 1.27 1.27)) (justify left))
      )
      (property "Footprint" "" (at 5.08 2.54 0)
        (effects (font (size 1.27 1.27)) hide)
      )
      (property "Datasheet" "" (at 0 0 0)
        (effects (font (size 1.27 1.27)) hide)
      )
      (symbol "Q_PMOS_SGD_0_1"
        (polyline
          (pts
            (xy 0.254 0)
            (xy -2.54 0)
          )
          (stroke (width 0) (type default))
          (fill (type none))
        )
        (polyline
          (pts
            (xy 0.254 1.905)
            (xy 0.254 -1.905)
          )
          (stroke (width 0.254) (type default))
          (fill (type none))
        )
        (polyline
          (pts
            (xy 0.762 -1.27)
            (xy 0.762 -2.286)
          )
          (stroke (width 0.254) (type default))
          (fill (type none))
        )
        (polyline
          (pts
            (xy 0.762 0.508)
            (xy 0.762 -0.508)
          )
          (stroke (width 0.254) (type default))
          (fill (type none))
        )
        (polyline
          (pts
            (xy 0.762 2.286)
            (xy 0.762 1.27)
          )
          (stroke (width 0.254) (type default))
          (fill (type none))
        )
        (polyline
          (pts
            (xy 2.54 2.54)
            (xy 2.54 1.778)
          )
          (stroke (width 0) (type default))
          (fill (type none))
        )
        (polyline
          (pts
            (xy 2.54 -2.54)
            (xy 2.54 0)
            (xy 0.762 0)
          )
          (stroke (width 0) (type default))
          (fill (type none))
        )
        (polyline
          (pts
            (xy 0.762 1.778)
            (xy 3.302 1.778)
            (xy 3.302 -1.778)
            (xy 0.762 -1.778)
          )
          (stroke (width 0) (type default))
          (fill (type none))
        )
        (polyline
          (pts
            (xy 2.286 0)
            (xy 1.27 0.381)
            (xy 1.27 -0.381)
            (xy 2.286 0)
          )
          (stroke (width 0) (type default))
          (fill (type outline))
        )
        (polyline
          (pts
            (xy 2.794 -0.508)
            (xy 2.921 -0.381)
            (xy 3.683 -0.381)
            (xy 3.81 -0.254)
          )
          (stroke (width 0) (type default))
          (fill (type none))
        )
        (polyline
          (pts
            (xy 3.302 -0.381)
            (xy 2.921 0.254)
            (xy 3.683 0.254)
            (xy 3.302 -0.381)
          )
          (stroke (width 0) (type default))
          (fill (type none))
        )
        (circle (center 1.651 0) (radius 2.794)
          (stroke (width 0.254) (type default))
          (fill (type none))
        )
        (circle (center 2.54 -1.778) (radius 0.254)
          (stroke (width 0) (type default))
          (fill (type outline))
        )
        (circle (center 2.54 1.778) (radius 0.254)
          (stroke (width 0) (type default))
          (fill (type outline))
        )
      )
      (symbol "Q_PMOS_SGD_1_1"
        (pin passive line (at 2.54 -5.08 90) (length 2.54)
          (name "S" (effects (font (size 1.27 1.27))))
          (number "1" (effects (font (size 1.27 1.27))))
        )
        (pin input line (at -5.08 0 0) (length 2.54)
          (name "G" (effects (font (size 1.27 1.27))))
          (number "2" (effects (font (size 1.27 1.27))))
        )
        (pin passive line (at 2.54 5.08 270) (length 2.54)
          (name "D" (effects (font (size 1.27 1.27))))
          (number "3" (effects (font (size 1.27 1.27))))
        )
      )
    )
    (symbol "Device:R" (pin_numbers hide) (pin_names (offset 0)) (in_bom yes) (on_board yes)
      (property "Reference" "R" (at 2.032 0 90)
        (effects (font (size 1.27 1.27)))
      )
      (property "Value" "Device_R" (at 0 0 90)
        (effects (font (size 1.27 1.27)))
      )
      (property "Footprint" "" (at -1.778 0 90)
        (effects (font (size 1.27 1.27)) hide)
      )
      (property "Datasheet" "" (at 0 0 0)
        (effects (font (size 1.27 1.27)) hide)
      )
      (property "ki_fp_filters" "R_*" (at 0 0 0)
        (effects (font (size 1.27 1.27)) hide)
      )
      (symbol "R_0_1"
        (rectangle (start -1.016 -2.54) (end 1.016 2.54)
          (stroke (width 0.254) (type default))
          (fill (type none))
        )
      )
      (symbol "R_1_1"
        (pin passive line (at 0 3.81 270) (length 1.27)
          (name "~" (effects (font (size 1.27 1.27))))
          (number "1" (effects (font (size 1.27 1.27))))
        )
        (pin passive line (at 0 -3.81 90) (length 1.27)
          (name "~" (effects (font (size 1.27 1.27))))
          (number "2" (effects (font (size 1.27 1.27))))
        )
      )
    )
    (symbol "Transistor_FET:2N7002" (pin_names hide) (in_bom yes) (on_board yes)
      (property "Reference" "Q" (at 5.08 1.905 0)
        (effects (font (size 1.27 1.27)) (justify left))
      )
      (property "Value" "Transistor_FET_2N7002" (at 5.08 0 0)
        (effects (font (size 1.27 1.27)) (justify left))
      )
      (property "Footprint" "Package_TO_SOT_SMD:SOT-23" (at 5.08 -1.905 0)
        (effects (font (size 1.27 1.27) italic) (justify left) hide)
      )
      (property "Datasheet" "" (at 0 0 0)
        (effects (font (size 1.27 1.27)) (justify left) hide)
      )
      (property "ki_fp_filters" "SOT?23*" (at 0 0 0)
        (effects (font (size 1.27 1.27)) hide)
      )
      (symbol "2N7002_0_1"
        (polyline
          (pts
            (xy 0.254 0)
            (xy -2.54 0)
          )
          (stroke (width 0) (type default))
          (fill (type none))
        )
        (polyline
          (pts
            (xy 0.254 1.905)
            (xy 0.254 -1.905)
          )
          (stroke (width 0.254) (type default))
          (fill (type none))
        )
        (polyline
          (pts
            (xy 0.762 -1.27)
            (xy 0.762 -2.286)
          )
          (stroke (width 0.254) (type default))
          (fill (type none))
        )
        (polyline
          (pts
            (xy 0.762 0.508)
            (xy 0.762 -0.508)
          )
          (stroke (width 0.254) (type default))
          (fill (type none))
        )
        (polyline
          (pts
            (xy 0.762 2.286)
            (xy 0.762 1.27)
          )
          (stroke (width 0.254) (type default))
          (fill (type none))
        )
        (polyline
          (pts
            (xy 2.54 2.54)
            (xy 2.54 1.778)
          )
          (stroke (width 0) (type default))
          (fill (type none))
        )
        (polyline
          (pts
            (xy 2.54 -2.54)
            (xy 2.54 0)
            (xy 0.762 0)
          )
          (stroke (width 0) (type default))
          (fill (type none))
        )
        (polyline
          (pts
            (xy 0.762 -1.778)
            (xy 3.302 -1.778)
            (xy 3.302 1.778)
            (xy 0.762 1.778)
          )
          (stroke (width 0) (type default))
          (fill (type none))
        )
        (polyline
          (pts
            (xy 1.016 0)
            (xy 2.032 0.381)
            (xy 2.032 -0.381)
            (xy 1.016 0)
          )
          (stroke (width 0) (type default))
          (fill (type outline))
        )
        (polyline
          (pts
            (xy 2.794 0.508)
            (xy 2.921 0.381)
            (xy 3.683 0.381)
            (xy 3.81 0.254)
          )
          (stroke (width 0) (type default))
          (fill (type none))
        )
        (polyline
          (pts
            (xy 3.302 0.381)
            (xy 2.921 -0.254)
            (xy 3.683 -0.254)
            (xy 3.302 0.381)
          )
          (stroke (width 0) (type default))
          (fill (type none))
        )
        (circle (center 1.651 0) (radius 2.794)
          (stroke (width 0.254) (type default))
          (fill (type none))
        )
        (circle (center 2.54 -1.778) (radius 0.254)
          (stroke (width 0) (type default))
          (fill (type outline))
        )
        (circle (center 2.54 1.778) (radius 0.254)
          (stroke (width 0) (type default))
          (fill (type outline))
        )
      )
      (symbol "2N7002_1_1"
        (pin input line (at -5.08 0 0) (length 2.54)
          (name "G" (effects (font (size 1.27 1.27))))
          (number "1" (effects (font (size 1.27 1.27))))
        )
        (pin passive line (at 2.54 -5.08 90) (length 2.54)
          (name "S" (effects (font (size 1.27 1.27))))
          (number "2" (effects (font (size 1.27 1.27))))
        )
        (pin passive line (at 2.54 5.08 270) (length 2.54)
          (name "D" (effects (font (size 1.27 1.27))))
          (number "3" (effects (font (size 1.27 1.27))))
        )
      )
    )
    (symbol "power:PWR_FLAG" (power) (pin_numbers hide) (pin_names (offset 0) hide) (in_bom yes) (on_board yes)
      (property "Reference" "#FLG" (at 0 1.905 0)
        (effects (font (size 1.27 1.27)) hide)
      )
      (property "Value" "power_PWR_FLAG" (at 0 3.81 0)
        (effects (font (size 1.27 1.27)))
      )
      (property "Footprint" "" (at 0 0 0)
        (effects (font (size 1.27 1.27)) hide)
      )
      (property "Datasheet" "" (at 0 0 0)
        (effects (font (size 1.27 1.27)) hide)
      )
      (symbol "PWR_FLAG_0_0"
        (pin power_out line (at 0 0 90) (length 0)
          (name "pwr" (effects (font (size 1.27 1.27))))
          (number "1" (effects (font (size 1.27 1.27))))
        )
      )
      (symbol "PWR_FLAG_0_1"
        (polyline
          (pts
            (xy 0 0)
            (xy 0 1.27)
            (xy -1.016 1.905)
            (xy 0 2.54)
            (xy 1.016 1.905)
            (xy 0 1.27)
          )
          (stroke (width 0) (type default))
          (fill (type none))
        )
      )
    )
    (symbol "rofi:SD8942" (pin_names (offset 1.016)) (in_bom yes) (on_board yes)
      (property "Reference" "U" (at -5.08 6.35 0)
        (effects (font (size 1.27 1.27)))
      )
      (property "Value" "SD8942" (at 0 -3.81 0)
        (effects (font (size 1.27 1.27)))
      )
      (property "Footprint" "Package_TO_SOT_SMD:SOT-23-6" (at 0 -15.24 0)
        (effects (font (size 1.27 1.27)) hide)
      )
      (property "Datasheet" "" (at 0 0 0)
        (effects (font (size 1.27 1.27)) hide)
      )
      (symbol "SD8942_0_1"
        (rectangle (start -6.35 5.08) (end 6.35 -12.7)
          (stroke (width 0) (type default))
          (fill (type background))
        )
      )
      (symbol "SD8942_1_1"
        (pin passive line (at 0 7.62 270) (length 2.54)
          (name "BS" (effects (font (size 1.27 1.27))))
          (number "1" (effects (font (size 1.27 1.27))))
        )
        (pin power_in line (at 0 -15.24 90) (length 2.54)
          (name "GND" (effects (font (size 1.27 1.27))))
          (number "2" (effects (font (size 1.27 1.27))))
        )
        (pin input line (at 8.89 -10.16 180) (length 2.54)
          (name "FB" (effects (font (size 1.27 1.27))))
          (number "3" (effects (font (size 1.27 1.27))))
        )
        (pin input line (at -8.89 -10.16 0) (length 2.54)
          (name "EN" (effects (font (size 1.27 1.27))))
          (number "4" (effects (font (size 1.27 1.27))))
        )
        (pin power_in line (at -8.89 2.54 0) (length 2.54)
          (name "VIN" (effects (font (size 1.27 1.27))))
          (number "5" (effects (font (size 1.27 1.27))))
        )
        (pin passive line (at 8.89 2.54 180) (length 2.54)
          (name "SW" (effects (font (size 1.27 1.27))))
          (number "6" (effects (font (size 1.27 1.27))))
        )
      )
    )
    (symbol "rofi:TP5100" (pin_names (offset 1.016)) (in_bom yes) (on_board yes)
      (property "Reference" "U" (at 8.89 15.24 0)
        (effects (font (size 1.27 1.27)))
      )
      (property "Value" "TP5100" (at -7.62 15.24 0)
        (effects (font (size 1.27 1.27)))
      )
      (property "Footprint" "Package_DFN_QFN:QFN-16-1EP_4x4mm_P0.65mm_EP2.1x2.1mm" (at 6.35 -15.24 0)
        (effects (font (size 1.27 1.27)) hide)
      )
      (property "Datasheet" "" (at 6.35 -15.24 0)
        (effects (font (size 1.27 1.27)) hide)
      )
      (symbol "TP5100_0_1"
        (rectangle (start -11.43 13.97) (end 11.43 -13.97)
          (stroke (width 0) (type default))
          (fill (type background))
        )
      )
      (symbol "TP5100_1_1"
        (pin power_in line (at -13.97 12.7 0) (length 2.54)
          (name "VIN" (effects (font (size 1.27 1.27))))
          (number "1" (effects (font (size 1.27 1.27))))
        )
        (pin power_out line (at -13.97 -10.16 0) (length 2.54)
          (name "VREG" (effects (font (size 1.27 1.27))))
          (number "10" (effects (font (size 1.27 1.27))))
        )
        (pin input line (at 13.97 -6.35 180) (length 2.54)
          (name "TS" (effects (font (size 1.27 1.27))))
          (number "11" (effects (font (size 1.27 1.27))))
        )
        (pin input line (at -13.97 -12.7 0) (length 2.54)
          (name "RTRICK" (effects (font (size 1.27 1.27))))
          (number "12" (effects (font (size 1.27 1.27))))
        )
        (pin input line (at -13.97 -7.62 0) (length 2.54)
          (name "CELL_SELECT" (effects (font (size 1.27 1.27))))
          (number "13" (effects (font (size 1.27 1.27))))
        )
        (pin open_collector line (at -13.97 -5.08 0) (length 2.54)
          (name "~{STDBY}" (effects (font (size 1.27 1.27))))
          (number "14" (effects (font (size 1.27 1.27))))
        )
        (pin open_collector line (at -13.97 -2.54 0) (length 2.54)
          (name "~{CHRG}" (effects (font (size 1.27 1.27))))
          (number "15" (effects (font (size 1.27 1.27))))
        )
        (pin power_in line (at -13.97 5.08 0) (length 2.54)
          (name "VIN" (effects (font (size 1.27 1.27))))
          (number "16" (effects (font (size 1.27 1.27))))
        )
        (pin passive line (at 13.97 -10.16 180) (length 2.54)
          (name "PAD" (effects (font (size 1.27 1.27))))
          (number "17" (effects (font (size 1.27 1.27))))
        )
        (pin passive line (at 13.97 12.7 180) (length 2.54)
          (name "LX" (effects (font (size 1.27 1.27))))
          (number "2" (effects (font (size 1.27 1.27))))
        )
        (pin passive line (at 13.97 10.16 180) (length 2.54)
          (name "LX" (effects (font (size 1.27 1.27))))
          (number "3" (effects (font (size 1.27 1.27))))
        )
        (pin power_in line (at -13.97 10.16 0) (length 2.54)
          (name "VIN" (effects (font (size 1.27 1.27))))
          (number "4" (effects (font (size 1.27 1.27))))
        )
        (pin power_in line (at -13.97 7.62 0) (length 2.54)
          (name "VIN" (effects (font (size 1.27 1.27))))
          (number "5" (effects (font (size 1.27 1.27))))
        )
        (pin input line (at -13.97 0 0) (length 2.54)
          (name "PWR_ON" (effects (font (size 1.27 1.27))))
          (number "6" (effects (font (size 1.27 1.27))))
        )
        (pin power_in line (at 13.97 -12.7 180) (length 2.54)
          (name "VSS" (effects (font (size 1.27 1.27))))
          (number "7" (effects (font (size 1.27 1.27))))
        )
        (pin input line (at 13.97 6.35 180) (length 2.54)
          (name "VS" (effects (font (size 1.27 1.27))))
          (number "8" (effects (font (size 1.27 1.27))))
        )
        (pin power_out line (at 13.97 -1.27 180) (length 2.54)
          (name "BAT" (effects (font (size 1.27 1.27))))
          (number "9" (effects (font (size 1.27 1.27))))
        )
      )
    )
  )

  (junction (at 104.14 81.28) (diameter 0) (color 0 0 0 0)
    (uuid 0580ba4c-51c4-4298-ad74-e9c2ef4e04a2)
  )
  (junction (at 130.81 87.63) (diameter 0) (color 0 0 0 0)
    (uuid 0fd3f13d-0c3f-4c8e-b91e-1739efdf550b)
  )
  (junction (at 109.22 152.4) (diameter 0) (color 0 0 0 0)
    (uuid 2a093840-0bdf-41ea-a70e-7ac20376c639)
  )
  (junction (at 69.85 81.28) (diameter 0) (color 0 0 0 0)
    (uuid 2a3624de-1e65-44b5-8315-a1c35dfa4ff3)
  )
  (junction (at 80.01 152.4) (diameter 0) (color 0 0 0 0)
    (uuid 2f3a1eef-c0ff-4ac8-8219-88f2fd3d4333)
  )
  (junction (at 242.57 44.45) (diameter 0) (color 0 0 0 0)
    (uuid 32f7f993-844d-4647-82bc-7e4c69fc685b)
  )
  (junction (at 129.54 165.1) (diameter 0) (color 0 0 0 0)
    (uuid 3b960909-0ba4-465c-b3f3-fd447a704a1b)
  )
  (junction (at 226.06 68.58) (diameter 0) (color 0 0 0 0)
    (uuid 4d2bcc63-a2dd-418c-bd5f-ddaef4fca43f)
  )
  (junction (at 102.87 104.14) (diameter 0) (color 0 0 0 0)
    (uuid 5a10edf2-528f-4464-9121-d3df9cb8c8cc)
  )
  (junction (at 208.28 52.07) (diameter 0) (color 0 0 0 0)
    (uuid 5bcf876f-136c-4dac-ae61-fa226f0c392d)
  )
  (junction (at 69.85 86.36) (diameter 0) (color 0 0 0 0)
    (uuid 678b0808-6a49-4948-bc77-b41d6e5561d1)
  )
  (junction (at 49.53 96.52) (diameter 0) (color 0 0 0 0)
    (uuid 6c353f58-6a07-42df-b4f4-806225c5678c)
  )
  (junction (at 199.39 52.07) (diameter 0) (color 0 0 0 0)
    (uuid 73ec9bbc-dc9a-43b6-8948-b32c01d65371)
  )
  (junction (at 186.69 44.45) (diameter 0) (color 0 0 0 0)
    (uuid 7e03d2ab-f849-4512-9569-879b25ae0e0c)
  )
  (junction (at 107.95 106.68) (diameter 0) (color 0 0 0 0)
    (uuid 7ee86355-6575-4d7f-b27a-ccda75d5cc71)
  )
  (junction (at 69.85 83.82) (diameter 0) (color 0 0 0 0)
    (uuid 8269e9fd-85b6-4956-b9ff-6bc28fa3d59b)
  )
  (junction (at 172.72 95.25) (diameter 0) (color 0 0 0 0)
    (uuid 849ef7e5-8097-4aee-8015-323905546838)
  )
  (junction (at 199.39 64.77) (diameter 0) (color 0 0 0 0)
    (uuid 9326384b-4777-4c92-aa2f-2d08e6267257)
  )
  (junction (at 215.9 52.07) (diameter 0) (color 0 0 0 0)
    (uuid 9abd6d67-ba40-4dee-af1a-810a8242c86f)
  )
  (junction (at 130.81 114.3) (diameter 0) (color 0 0 0 0)
    (uuid af865e07-b961-449a-8717-ceb1273ebf79)
  )
  (junction (at 130.81 95.25) (diameter 0) (color 0 0 0 0)
    (uuid b31efc5a-7b21-4ce8-b439-1c9342fcef4e)
  )
  (junction (at 107.95 87.63) (diameter 0) (color 0 0 0 0)
    (uuid b8825d99-40ea-4358-a66a-e9f243080c3f)
  )
  (junction (at 118.11 87.63) (diameter 0) (color 0 0 0 0)
    (uuid ba0a6746-a0cb-4d84-a93c-280700fe503d)
  )
  (junction (at 102.87 106.68) (diameter 0) (color 0 0 0 0)
    (uuid bd6b504f-39ab-4c2b-a42f-5daebc471130)
  )
  (junction (at 48.26 81.28) (diameter 0) (color 0 0 0 0)
    (uuid cdf16225-865b-428c-89bd-8853cabfea19)
  )
  (junction (at 165.1 152.4) (diameter 0) (color 0 0 0 0)
    (uuid da65d86f-f94d-4db5-8413-9b29c5e2c0d0)
  )
  (junction (at 67.31 152.4) (diameter 0) (color 0 0 0 0)
    (uuid dce81c27-16c7-4397-b7d9-dfe2225cc620)
  )
  (junction (at 154.94 152.4) (diameter 0) (color 0 0 0 0)
    (uuid ddb850dd-54a7-4b63-bc5c-bb6ecd4a3633)
  )
  (junction (at 129.54 152.4) (diameter 0) (color 0 0 0 0)
    (uuid e93a39c0-ae2f-4d69-82ed-37fb069ff7a5)
  )
  (junction (at 39.37 88.9) (diameter 0) (color 0 0 0 0)
    (uuid eae6cb64-c798-40f3-b4c3-dcefb9e0714c)
  )
  (junction (at 130.81 105.41) (diameter 0) (color 0 0 0 0)
    (uuid eb154998-e619-45d3-80ac-fd884505378c)
  )
  (junction (at 120.65 81.28) (diameter 0) (color 0 0 0 0)
    (uuid ec9daae4-3acf-42d0-9bbb-16222adbc468)
  )
  (junction (at 130.81 118.11) (diameter 0) (color 0 0 0 0)
    (uuid f63e0144-2120-44f8-87b4-16ef8ae471f6)
  )
  (junction (at 184.15 95.25) (diameter 0) (color 0 0 0 0)
    (uuid f68e48ba-1983-4674-be66-79dbf442fe2e)
  )
  (junction (at 57.15 152.4) (diameter 0) (color 0 0 0 0)
    (uuid fa730bff-7ae7-4cfc-aa0b-6b723ed31b48)
  )
  (junction (at 234.95 68.58) (diameter 0) (color 0 0 0 0)
    (uuid fd545dac-856c-48de-9df2-9bd1e3b69ae7)
  )
  (junction (at 144.78 152.4) (diameter 0) (color 0 0 0 0)
    (uuid fe1771f5-b72c-4bc4-add4-a2ba0d9e31fd)
  )
  (junction (at 39.37 81.28) (diameter 0) (color 0 0 0 0)
    (uuid fe4cc217-32a1-4374-9d51-46234fb59001)
  )

  (no_connect (at 72.39 99.06) (uuid a72b1fda-e75e-400b-8ff6-3374f837cb2f))
  (no_connect (at 72.39 93.98) (uuid bbec5615-4e78-4475-9aca-787678e53e42))

  (wire (pts (xy 106.68 142.24) (xy 109.22 142.24))
    (stroke (width 0) (type default))
    (uuid 02319aba-5f3b-4152-b0e5-c78185d4ce0f)
  )
  (wire (pts (xy 186.69 44.45) (xy 186.69 52.07))
    (stroke (width 0) (type default))
    (uuid 07784c88-d383-4c60-ae4a-67151693e320)
  )
  (wire (pts (xy 199.39 64.77) (xy 208.28 64.77))
    (stroke (width 0) (type default))
    (uuid 0f020154-a462-4c13-9cf3-63c7cc8b9068)
  )
  (wire (pts (xy 109.22 142.24) (xy 109.22 152.4))
    (stroke (width 0) (type default))
    (uuid 1550182e-0bf6-4594-a656-e448fd943dc0)
  )
  (wire (pts (xy 69.85 86.36) (xy 69.85 83.82))
    (stroke (width 0) (type default))
    (uuid 159e3a36-230b-4908-8c33-cab6cc1501c6)
  )
  (wire (pts (xy 234.95 63.5) (xy 234.95 68.58))
    (stroke (width 0) (type default))
    (uuid 162ddcd6-afca-4d54-a9d9-d0ed6eaa16dd)
  )
  (wire (pts (xy 130.81 104.14) (xy 130.81 105.41))
    (stroke (width 0) (type default))
    (uuid 1aef6fee-a415-4ad4-8175-b3d110b2744f)
  )
  (wire (pts (xy 48.26 88.9) (xy 39.37 88.9))
    (stroke (width 0) (type default))
    (uuid 1d9f776e-5e3b-4986-975c-a3c56707f8ed)
  )
  (wire (pts (xy 69.85 88.9) (xy 69.85 86.36))
    (stroke (width 0) (type default))
    (uuid 1fe82da3-cc1c-4d56-8600-ee01c94f8d78)
  )
  (wire (pts (xy 35.56 81.28) (xy 39.37 81.28))
    (stroke (width 0) (type default))
    (uuid 23ed6146-d5d3-4cdb-957c-139b80d04352)
  )
  (wire (pts (xy 39.37 88.9) (xy 35.56 88.9))
    (stroke (width 0) (type default))
    (uuid 28295f75-0797-40de-aea2-e872950fff2e)
  )
  (wire (pts (xy 170.18 44.45) (xy 175.26 44.45))
    (stroke (width 0) (type default))
    (uuid 29d02dbd-d9c4-4186-979a-5629ebbcd420)
  )
  (wire (pts (xy 109.22 152.4) (xy 104.14 152.4))
    (stroke (width 0) (type default))
    (uuid 2bacead9-69ac-44f9-b598-2b4e98f4e11e)
  )
  (wire (pts (xy 72.39 88.9) (xy 69.85 88.9))
    (stroke (width 0) (type default))
    (uuid 313b624d-c29e-4874-b542-61267059e304)
  )
  (wire (pts (xy 242.57 44.45) (xy 247.65 44.45))
    (stroke (width 0) (type default))
    (uuid 36c49ff2-e85b-4235-bfe9-7895f92eb551)
  )
  (wire (pts (xy 199.39 59.69) (xy 199.39 64.77))
    (stroke (width 0) (type default))
    (uuid 376277f7-6850-4c7d-9ba1-66d532f51eff)
  )
  (wire (pts (xy 86.36 152.4) (xy 80.01 152.4))
    (stroke (width 0) (type default))
    (uuid 39851ea9-948d-4a50-a994-4624c653ad33)
  )
  (wire (pts (xy 184.15 64.77) (xy 199.39 64.77))
    (stroke (width 0) (type default))
    (uuid 3c1e0b30-289c-4cb4-a552-87e1f985a9f2)
  )
  (wire (pts (xy 149.86 73.66) (xy 149.86 83.82))
    (stroke (width 0) (type default))
    (uuid 47822526-e239-4ef5-b933-7dba2d6f97a6)
  )
  (wire (pts (xy 100.33 95.25) (xy 130.81 95.25))
    (stroke (width 0) (type default))
    (uuid 4b32f1cc-39c0-4ef3-983b-24661ce0f198)
  )
  (wire (pts (xy 186.69 44.45) (xy 210.82 44.45))
    (stroke (width 0) (type default))
    (uuid 4b6298af-0cbe-4c03-8456-3bb20f93b8e5)
  )
  (wire (pts (xy 72.39 96.52) (xy 49.53 96.52))
    (stroke (width 0) (type default))
    (uuid 4d2f6856-283f-4c1b-8c3e-7df8e83f5b42)
  )
  (wire (pts (xy 208.28 64.77) (xy 208.28 59.69))
    (stroke (width 0) (type default))
    (uuid 4dfa7567-ef05-44b7-8264-8036be7fc0f8)
  )
  (wire (pts (xy 149.86 114.3) (xy 130.81 114.3))
    (stroke (width 0) (type default))
    (uuid 532d4e02-244c-4f45-a450-7cf331b1a045)
  )
  (wire (pts (xy 199.39 52.07) (xy 208.28 52.07))
    (stroke (width 0) (type default))
    (uuid 56179fc9-7e74-4ace-b941-2d864beef176)
  )
  (wire (pts (xy 67.31 152.4) (xy 80.01 152.4))
    (stroke (width 0) (type default))
    (uuid 56779a96-83f4-4311-ba41-c7ff71896b4b)
  )
  (wire (pts (xy 220.98 44.45) (xy 242.57 44.45))
    (stroke (width 0) (type default))
    (uuid 612591ef-a8a4-4bfa-abdd-c080448137ab)
  )
  (wire (pts (xy 130.81 87.63) (xy 118.11 87.63))
    (stroke (width 0) (type default))
    (uuid 62783b43-b942-458d-aed6-f54593b66bb4)
  )
  (wire (pts (xy 196.85 52.07) (xy 199.39 52.07))
    (stroke (width 0) (type default))
    (uuid 65d788e5-b75a-4c9f-bc7d-f90a6110ff7a)
  )
  (wire (pts (xy 48.26 81.28) (xy 69.85 81.28))
    (stroke (width 0) (type default))
    (uuid 65e07c75-0ec2-4cd4-85fd-4c638dd14989)
  )
  (wire (pts (xy 130.81 96.52) (xy 130.81 95.25))
    (stroke (width 0) (type default))
    (uuid 66dd59eb-1b84-4ae9-a53f-96039da8d81b)
  )
  (wire (pts (xy 130.81 105.41) (xy 135.89 105.41))
    (stroke (width 0) (type default))
    (uuid 76068ad8-ed1d-40e9-a272-4590d5c888f4)
  )
  (wire (pts (xy 154.94 152.4) (xy 165.1 152.4))
    (stroke (width 0) (type default))
    (uuid 782d9525-ac26-4850-a97d-edbf93c5cfae)
  )
  (wire (pts (xy 184.15 95.25) (xy 189.23 95.25))
    (stroke (width 0) (type default))
    (uuid 79e3b208-a16d-4572-b737-f245071a50d5)
  )
  (wire (pts (xy 149.86 91.44) (xy 149.86 114.3))
    (stroke (width 0) (type default))
    (uuid 7dea9f93-b15f-4f9a-9ee8-e2ae962c9bbe)
  )
  (wire (pts (xy 104.14 81.28) (xy 104.14 83.82))
    (stroke (width 0) (type default))
    (uuid 81dbabcd-4f5c-4c46-bbfd-52edfff92352)
  )
  (wire (pts (xy 215.9 52.07) (xy 215.9 63.5))
    (stroke (width 0) (type default))
    (uuid 89767b40-f1cf-4416-aaf7-484b764d8442)
  )
  (wire (pts (xy 226.06 68.58) (xy 234.95 68.58))
    (stroke (width 0) (type default))
    (uuid 8cbeeb72-239a-4425-8cd2-8c6fa16ba588)
  )
  (wire (pts (xy 107.95 105.41) (xy 107.95 106.68))
    (stroke (width 0) (type default))
    (uuid 8cf3512e-2a65-4706-b03e-478550e201a7)
  )
  (wire (pts (xy 109.22 152.4) (xy 114.3 152.4))
    (stroke (width 0) (type default))
    (uuid 8f0adbf2-2e51-438d-a19b-639bf592cc15)
  )
  (wire (pts (xy 107.95 106.68) (xy 118.11 106.68))
    (stroke (width 0) (type default))
    (uuid 90960a59-bcb7-474d-9e50-74dd9583f210)
  )
  (wire (pts (xy 208.28 52.07) (xy 215.9 52.07))
    (stroke (width 0) (type default))
    (uuid 90c0a06f-db0d-4456-afa3-12ae2751f7bf)
  )
  (wire (pts (xy 95.25 142.24) (xy 99.06 142.24))
    (stroke (width 0) (type default))
    (uuid 913c8c51-530a-4632-987b-d325b956619a)
  )
  (wire (pts (xy 144.78 152.4) (xy 129.54 152.4))
    (stroke (width 0) (type default))
    (uuid 9f8c38d7-15bc-494e-b9ff-78f479e59804)
  )
  (wire (pts (xy 118.11 106.68) (xy 118.11 105.41))
    (stroke (width 0) (type default))
    (uuid a050aaf6-c3aa-46ed-a4bc-f9d494551970)
  )
  (wire (pts (xy 104.14 81.28) (xy 120.65 81.28))
    (stroke (width 0) (type default))
    (uuid a0644893-63e0-4376-9fd1-0bed6ea887ea)
  )
  (wire (pts (xy 100.33 104.14) (xy 102.87 104.14))
    (stroke (width 0) (type default))
    (uuid a088ec39-fd15-47bb-96d6-7573cfd357e3)
  )
  (wire (pts (xy 118.11 87.63) (xy 107.95 87.63))
    (stroke (width 0) (type default))
    (uuid a31977ca-0d47-4551-9f6f-974796d7ce33)
  )
  (wire (pts (xy 107.95 106.68) (xy 107.95 109.22))
    (stroke (width 0) (type default))
    (uuid a39edb4b-bade-4937-83c1-0ba4cc8fda16)
  )
  (wire (pts (xy 100.33 106.68) (xy 102.87 106.68))
    (stroke (width 0) (type default))
    (uuid a3e46a76-fc93-4eed-afd8-bd5569644091)
  )
  (wire (pts (xy 41.91 152.4) (xy 57.15 152.4))
    (stroke (width 0) (type default))
    (uuid a91a74fa-7647-4519-ad30-7d8309d351bb)
  )
  (wire (pts (xy 104.14 83.82) (xy 100.33 83.82))
    (stroke (width 0) (type default))
    (uuid a934cc26-aa80-4346-811d-820bcf2c232d)
  )
  (wire (pts (xy 185.42 44.45) (xy 186.69 44.45))
    (stroke (width 0) (type default))
    (uuid aba9ffe8-9d7d-4229-9244-40f615eb415e)
  )
  (wire (pts (xy 102.87 100.33) (xy 102.87 104.14))
    (stroke (width 0) (type default))
    (uuid ac824033-b3fe-45b6-a4c9-529bf31375a5)
  )
  (wire (pts (xy 234.95 68.58) (xy 251.46 68.58))
    (stroke (width 0) (type default))
    (uuid ae55ffa3-3eae-4090-846d-8fe43e89401b)
  )
  (wire (pts (xy 186.69 52.07) (xy 189.23 52.07))
    (stroke (width 0) (type default))
    (uuid b1421b34-c491-4cb8-bb9d-63132a4bd689)
  )
  (wire (pts (xy 100.33 100.33) (xy 102.87 100.33))
    (stroke (width 0) (type default))
    (uuid b25ce24a-eb8e-4165-ab66-549bd1433428)
  )
  (wire (pts (xy 130.81 118.11) (xy 130.81 119.38))
    (stroke (width 0) (type default))
    (uuid b2ace30b-2bf8-4ae8-8a5b-73d5157baef8)
  )
  (wire (pts (xy 48.26 81.28) (xy 39.37 81.28))
    (stroke (width 0) (type default))
    (uuid b683e5c4-aa79-4590-a6fd-851783767e08)
  )
  (wire (pts (xy 118.11 97.79) (xy 118.11 87.63))
    (stroke (width 0) (type default))
    (uuid b9af908b-5920-4f34-993a-59bfd83a1eb1)
  )
  (wire (pts (xy 144.78 152.4) (xy 154.94 152.4))
    (stroke (width 0) (type default))
    (uuid bcea9666-49f0-4fa5-bc55-508112595f4b)
  )
  (wire (pts (xy 49.53 101.6) (xy 49.53 96.52))
    (stroke (width 0) (type default))
    (uuid bd63fc84-c935-47c2-a269-cc404e03933f)
  )
  (wire (pts (xy 64.77 101.6) (xy 72.39 101.6))
    (stroke (width 0) (type default))
    (uuid c1cca4d8-2683-45f3-bab9-7ed60f492ff1)
  )
  (wire (pts (xy 72.39 81.28) (xy 69.85 81.28))
    (stroke (width 0) (type default))
    (uuid c21413b2-bcd7-4ed9-866d-1edd4b811786)
  )
  (wire (pts (xy 95.25 147.32) (xy 95.25 142.24))
    (stroke (width 0) (type default))
    (uuid c5f3cfca-3ab1-4984-abad-25c5a2942fb1)
  )
  (wire (pts (xy 100.33 81.28) (xy 104.14 81.28))
    (stroke (width 0) (type default))
    (uuid c6089b72-59e5-4bb7-a410-506c6ef10b69)
  )
  (wire (pts (xy 120.65 73.66) (xy 120.65 81.28))
    (stroke (width 0) (type default))
    (uuid c72a39df-b6c1-4ad2-9eb3-ab440fa3807d)
  )
  (wire (pts (xy 130.81 113.03) (xy 130.81 114.3))
    (stroke (width 0) (type default))
    (uuid c8207cb7-8e9a-4777-acbe-c8a4e7efa133)
  )
  (wire (pts (xy 149.86 73.66) (xy 120.65 73.66))
    (stroke (width 0) (type default))
    (uuid c94ace40-8544-41c7-abb4-6dd505f63ffa)
  )
  (wire (pts (xy 130.81 114.3) (xy 130.81 118.11))
    (stroke (width 0) (type default))
    (uuid cb7ed4a7-b5d7-4f8a-a9c6-83712d397278)
  )
  (wire (pts (xy 129.54 152.4) (xy 121.92 152.4))
    (stroke (width 0) (type default))
    (uuid cce92306-9d3e-420f-b3ec-0019cfee3d37)
  )
  (wire (pts (xy 102.87 106.68) (xy 107.95 106.68))
    (stroke (width 0) (type default))
    (uuid cdf8d011-748d-43e2-8b43-0700c0ff99f2)
  )
  (wire (pts (xy 107.95 97.79) (xy 107.95 87.63))
    (stroke (width 0) (type default))
    (uuid cf849345-991f-427a-9410-c3f3eaced9ca)
  )
  (wire (pts (xy 43.18 96.52) (xy 49.53 96.52))
    (stroke (width 0) (type default))
    (uuid cfac1d88-96aa-46fe-93ed-a9a247e3c8c3)
  )
  (wire (pts (xy 130.81 81.28) (xy 130.81 87.63))
    (stroke (width 0) (type default))
    (uuid cfad0ab6-d952-45f1-9e21-4f4664ca3903)
  )
  (wire (pts (xy 80.01 162.56) (xy 80.01 165.1))
    (stroke (width 0) (type default))
    (uuid cfe7a074-3974-4864-8708-05b6cea49109)
  )
  (wire (pts (xy 120.65 81.28) (xy 123.19 81.28))
    (stroke (width 0) (type default))
    (uuid d7c6f86c-2110-4636-99fe-cbe083852863)
  )
  (wire (pts (xy 80.01 165.1) (xy 86.36 165.1))
    (stroke (width 0) (type default))
    (uuid d9690465-37b7-464d-969b-c8751b95d9c4)
  )
  (wire (pts (xy 223.52 68.58) (xy 226.06 68.58))
    (stroke (width 0) (type default))
    (uuid dbeeee8e-e900-4f56-9fe0-04303810b02a)
  )
  (wire (pts (xy 172.72 95.25) (xy 184.15 95.25))
    (stroke (width 0) (type default))
    (uuid df04c717-281e-420e-a685-aa1a2245a619)
  )
  (wire (pts (xy 173.99 152.4) (xy 165.1 152.4))
    (stroke (width 0) (type default))
    (uuid e1c8c5c2-eeaa-41f7-b14d-c307df015a8a)
  )
  (wire (pts (xy 58.42 104.14) (xy 72.39 104.14))
    (stroke (width 0) (type default))
    (uuid e38bb6cf-2641-4af9-ac28-0954cca10f00)
  )
  (wire (pts (xy 72.39 86.36) (xy 69.85 86.36))
    (stroke (width 0) (type default))
    (uuid e5e711c0-b4e1-42a5-88a9-86f52c767048)
  )
  (wire (pts (xy 80.01 154.94) (xy 80.01 152.4))
    (stroke (width 0) (type default))
    (uuid e5f4b350-b9d4-4ce0-bbd1-ff21c55b09fd)
  )
  (wire (pts (xy 102.87 104.14) (xy 102.87 106.68))
    (stroke (width 0) (type default))
    (uuid e7d420fa-3bed-4773-b092-35a304381fd4)
  )
  (wire (pts (xy 69.85 83.82) (xy 69.85 81.28))
    (stroke (width 0) (type default))
    (uuid ec8de3a0-2c24-461a-af3b-62c0f29ff4fa)
  )
  (wire (pts (xy 107.95 87.63) (xy 100.33 87.63))
    (stroke (width 0) (type default))
    (uuid f17d554f-ea93-4fc5-a60a-526e4453984b)
  )
  (wire (pts (xy 72.39 110.49) (xy 72.39 106.68))
    (stroke (width 0) (type default))
    (uuid f18fdc16-8375-4df4-bc8c-36d899f9561b)
  )
  (wire (pts (xy 104.14 165.1) (xy 129.54 165.1))
    (stroke (width 0) (type default))
    (uuid f1f2395e-b4e5-4ca2-adfb-ec6d603813ab)
  )
  (wire (pts (xy 130.81 95.25) (xy 172.72 95.25))
    (stroke (width 0) (type default))
    (uuid f48cebb7-f03f-4385-9b21-5ce3eaa3aa55)
  )
  (wire (pts (xy 67.31 152.4) (xy 57.15 152.4))
    (stroke (width 0) (type default))
    (uuid fb2c1a59-55eb-4a2b-853f-aeffb8c70a76)
  )
  (wire (pts (xy 69.85 83.82) (xy 72.39 83.82))
    (stroke (width 0) (type default))
    (uuid fb424433-522a-4849-8310-67bb7f11ad7a)
  )
  (wire (pts (xy 129.54 165.1) (xy 129.54 160.02))
    (stroke (width 0) (type default))
    (uuid fda5e49e-cee8-4924-b8bb-e7095de86391)
  )

  (text "3V3 POWER SOURCE" (at 71.12 139.7 0)
    (effects (font (size 1.27 1.27)) (justify left bottom))
    (uuid 0358e159-f457-45e3-a018-07413e2341ec)
  )
  (text "Note  that cell select:\n- LOW: shutdown\n- HIGH: 2 cells\n- FLOATING: 1 cell"
    (at 80.01 119.38 0)
    (effects (font (size 1.27 1.27)) (justify left bottom))
    (uuid 193a3ca5-557f-43e0-bf1b-0b8b94f782d0)
  )
  (text "CHARGER FROM THE MAIN POWER BUS" (at 80.01 69.85 0)
    (effects (font (size 1.27 1.27)) (justify left bottom))
    (uuid c3c7dee3-ca84-4b42-9c9a-181f28aa9bbb)
  )
  (text "ON/OFF & REVERSE_POLARITY_PROTECTION" (at 181.61 36.83 0)
    (effects (font (size 1.27 1.27)) (justify left bottom))
    (uuid c689e4cc-fc12-4f6e-8691-c16a569a6e43)
  )

  (label "BATT_MID" (at 135.89 105.41 0) (fields_autoplaced)
    (effects (font (size 1.27 1.27)) (justify left bottom))
    (uuid 24d8dd52-99e0-4ed9-98ee-5f85af5452c4)
  )
  (label "BAT+" (at 189.23 95.25 0) (fields_autoplaced)
    (effects (font (size 1.27 1.27)) (justify left bottom))
    (uuid 3c20db0e-3763-4434-925c-1754b1c023e2)
  )
  (label "BAT+" (at 170.18 44.45 0) (fields_autoplaced)
    (effects (font (size 1.27 1.27)) (justify left bottom))
    (uuid 7919ade8-080e-424c-b841-2937b96358ea)
  )

  (hierarchical_label "GND" (shape passive) (at 215.9 73.66 270) (fields_autoplaced)
    (effects (font (size 1.27 1.27)) (justify right))
    (uuid 041c6e23-e146-4ec8-aad2-7ccf3e2259d9)
  )
  (hierarchical_label "PIEZO_N" (shape input) (at 231.14 127 180) (fields_autoplaced)
    (effects (font (size 1.27 1.27)) (justify right))
    (uuid 09a98184-564f-4877-94da-0bf8514fa5a4)
  )
  (hierarchical_label "GND" (shape passive) (at 107.95 109.22 270) (fields_autoplaced)
    (effects (font (size 1.27 1.27)) (justify right))
    (uuid 12172aa3-e84b-43df-a2b1-380cd0e3f5e4)
  )
  (hierarchical_label "GND" (shape passive) (at 184.15 102.87 270) (fields_autoplaced)
    (effects (font (size 1.27 1.27)) (justify right))
    (uuid 184aa52e-514e-4b52-b3e2-0239061968bf)
  )
  (hierarchical_label "CHG_EN" (shape input) (at 64.77 101.6 180) (fields_autoplaced)
    (effects (font (size 1.27 1.27)) (justify right))
    (uuid 1d5ee33e-ebc1-48f6-ba39-da57748dcd6d)
  )
  (hierarchical_label "CHG_OK" (shape output) (at 43.18 96.52 180) (fields_autoplaced)
    (effects (font (size 1.27 1.27)) (justify right))
    (uuid 1fe3b7fc-e6fd-47d0-893c-ba2fe1a0d457)
  )
  (hierarchical_label "GND" (shape passive) (at 58.42 111.76 270) (fields_autoplaced)
    (effects (font (size 1.27 1.27)) (justify right))
    (uuid 208c3b34-5946-472f-a4e0-e8b39fdc7267)
  )
  (hierarchical_label "PWR_START" (shape input) (at 184.15 64.77 180) (fields_autoplaced)
    (effects (font (size 1.27 1.27)) (justify right))
    (uuid 30ef906f-3fe6-4137-aa2e-1bb8b3cf4f25)
  )
  (hierarchical_label "PWR_SHUTDOWN" (shape input) (at 251.46 68.58 0) (fields_autoplaced)
    (effects (font (size 1.27 1.27)) (justify left))
    (uuid 3816ae6a-77d1-438c-9e85-e92bdf19e0ff)
  )
  (hierarchical_label "GND" (shape passive) (at 72.39 118.11 270) (fields_autoplaced)
    (effects (font (size 1.27 1.27)) (justify right))
    (uuid 4331bb50-e3c3-4bc4-b785-6b6694ba80c8)
  )
  (hierarchical_label "3V3" (shape input) (at 234.95 55.88 90) (fields_autoplaced)
    (effects (font (size 1.27 1.27)) (justify left))
    (uuid 493e37f8-0012-4f20-9902-e9093f495fc5)
  )
  (hierarchical_label "3V3" (shape output) (at 173.99 152.4 0) (fields_autoplaced)
    (effects (font (size 1.27 1.27)) (justify left))
    (uuid 4f4f24e9-fc1c-46ac-a585-9cfe77cdc312)
  )
  (hierarchical_label "GND" (shape passive) (at 144.78 160.02 270) (fields_autoplaced)
    (effects (font (size 1.27 1.27)) (justify right))
    (uuid 4fd29e35-eaa9-4d54-8a78-44a674ce9bed)
  )
  (hierarchical_label "GND" (shape passive) (at 180.34 52.07 270) (fields_autoplaced)
    (effects (font (size 1.27 1.27)) (justify right))
    (uuid 53aea0e5-ef08-44f5-ba0f-61cfb08588ca)
  )
  (hierarchical_label "GND" (shape passive) (at 234.95 76.2 270) (fields_autoplaced)
    (effects (font (size 1.27 1.27)) (justify right))
    (uuid 582b163a-9915-4cac-b7f9-988bda2205fc)
  )
  (hierarchical_label "GND" (shape passive) (at 130.81 119.38 270) (fields_autoplaced)
    (effects (font (size 1.27 1.27)) (justify right))
    (uuid 5fbffc83-82e0-4b5f-8336-b8beb3b0cff8)
  )
  (hierarchical_label "GND" (shape passive) (at 226.06 76.2 270) (fields_autoplaced)
    (effects (font (size 1.27 1.27)) (justify right))
    (uuid 7e8fe7b3-3514-4b01-b1f8-fa512d3ee139)
  )
  (hierarchical_label "BATT_VDD" (shape output) (at 247.65 44.45 0) (fields_autoplaced)
    (effects (font (size 1.27 1.27)) (justify left))
    (uuid af57dceb-5e61-4a74-9b6b-b41bc09703fa)
  )
  (hierarchical_label "3V3" (shape input) (at 49.53 116.84 270) (fields_autoplaced)
    (effects (font (size 1.27 1.27)) (justify right))
    (uuid bc64ec62-3791-445e-bd3b-0d04cd67ba86)
  )
  (hierarchical_label "GND" (shape passive) (at 129.54 172.72 270) (fields_autoplaced)
    (effects (font (size 1.27 1.27)) (justify right))
    (uuid bd26303d-e183-4863-88b2-cb885ee7e48d)
  )
  (hierarchical_label "PIEZO_P" (shape input) (at 231.14 121.92 180) (fields_autoplaced)
    (effects (font (size 1.27 1.27)) (justify right))
    (uuid c517ae61-0515-4318-99a6-a0e664d7d140)
  )
  (hierarchical_label "GND" (shape passive) (at 67.31 160.02 270) (fields_autoplaced)
    (effects (font (size 1.27 1.27)) (justify right))
    (uuid c6a52769-f9e5-4d17-a211-2ba1372f8389)
  )
  (hierarchical_label "GND" (shape passive) (at 57.15 160.02 270) (fields_autoplaced)
    (effects (font (size 1.27 1.27)) (justify right))
    (uuid ced565b4-f62d-4483-badb-c15faba9efa0)
  )
  (hierarchical_label "BATT_VDD" (shape input) (at 41.91 152.4 180) (fields_autoplaced)
    (effects (font (size 1.27 1.27)) (justify right))
    (uuid d60c9e65-9c6e-4b7d-b126-8f670ada6799)
  )
  (hierarchical_label "INT" (shape input) (at 35.56 81.28 180) (fields_autoplaced)
    (effects (font (size 1.27 1.27)) (justify right))
    (uuid e0867e78-2c4f-4713-b7c3-a7cb91fbcbb5)
  )
  (hierarchical_label "GND" (shape passive) (at 95.25 170.18 270) (fields_autoplaced)
    (effects (font (size 1.27 1.27)) (justify right))
    (uuid f99371a9-6e41-4b6d-8a7b-cdeec3fcafe9)
  )
  (hierarchical_label "GND" (shape passive) (at 35.56 88.9 180) (fields_autoplaced)
    (effects (font (size 1.27 1.27)) (justify right))
    (uuid fecf0a10-6379-4150-a019-f94e53fd0ab7)
  )
  (hierarchical_label "GND" (shape passive) (at 172.72 102.87 270) (fields_autoplaced)
    (effects (font (size 1.27 1.27)) (justify right))
    (uuid ff75eb72-f925-4432-a858-5656de3971ea)
  )
  (hierarchical_label "GND" (shape passive) (at 154.94 160.02 270) (fields_autoplaced)
    (effects (font (size 1.27 1.27)) (justify right))
    (uuid ffcf82eb-ea7d-44d6-b78d-4d9c8b8a3ac5)
  )

  (symbol (lib_id "Device:LED") (at 49.53 105.41 270) (unit 1)
    (in_bom yes) (on_board yes) (dnp no)
    (uuid 00000000-0000-0000-0000-00005def3530)
    (property "Reference" "D14" (at 43.053 105.2322 0)
      (effects (font (size 1.27 1.27)))
    )
    (property "Value" "RED" (at 45.3644 105.2322 0)
      (effects (font (size 1.27 1.27)))
    )
    (property "Footprint" "LED_SMD:LED_0603_1608Metric" (at 49.53 105.41 0)
      (effects (font (size 1.27 1.27)) hide)
    )
    (property "Datasheet" "~" (at 49.53 105.41 0)
      (effects (font (size 1.27 1.27)) hide)
    )
    (property "LCSC" "C2286" (at 49.53 105.41 0)
      (effects (font (size 1.27 1.27)) hide)
    )
    (pin "1" (uuid d86ac695-ca29-4d37-93d3-d1a370ffb015))
    (pin "2" (uuid a73da85b-cade-4d5a-8353-e16dbaff9f03))
    (instances
      (project "controlBoard"
        (path "/6b656370-4139-43b2-867e-1dccc97eccaa/00000000-0000-0000-0000-00005dfadf1e"
          (reference "D14") (unit 1)
        )
      )
    )
  )

  (symbol (lib_id "Device:Battery_Cell") (at 130.81 101.6 0) (unit 1)
    (in_bom yes) (on_board yes) (dnp no)
    (uuid 00000000-0000-0000-0000-00005dfae385)
    (property "Reference" "BT1" (at 133.8072 99.1616 0)
      (effects (font (size 1.27 1.27)) (justify left))
    )
    (property "Value" "Battery_Cell" (at 133.8072 101.473 0)
      (effects (font (size 1.27 1.27)) (justify left))
    )
    (property "Footprint" "rofi:BATTERY_18350" (at 130.81 100.076 90)
      (effects (font (size 1.27 1.27)) hide)
    )
    (property "Datasheet" "~" (at 130.81 100.076 90)
      (effects (font (size 1.27 1.27)) hide)
    )
    (property "#manf" "2x 1017-1" (at 130.81 101.6 0)
      (effects (font (size 1.27 1.27)) hide)
    )
    (property "JLCPCB_IGNORE" "YES" (at 130.81 101.6 0)
      (effects (font (size 1.27 1.27)) hide)
    )
    (pin "1" (uuid d13e9478-f78f-431c-8783-af85b56bbe51))
    (pin "2" (uuid 053e6885-4fec-4cfc-a3ab-f45c3202b035))
    (instances
      (project "controlBoard"
        (path "/6b656370-4139-43b2-867e-1dccc97eccaa/00000000-0000-0000-0000-00005dfadf1e"
          (reference "BT1") (unit 1)
        )
      )
    )
  )

  (symbol (lib_id "Device:Battery_Cell") (at 130.81 110.49 0) (unit 1)
    (in_bom yes) (on_board yes) (dnp no)
    (uuid 00000000-0000-0000-0000-00005dfae964)
    (property "Reference" "BT2" (at 133.8072 108.0516 0)
      (effects (font (size 1.27 1.27)) (justify left))
    )
    (property "Value" "Battery_Cell" (at 133.8072 110.363 0)
      (effects (font (size 1.27 1.27)) (justify left))
    )
    (property "Footprint" "rofi:BATTERY_18350" (at 130.81 108.966 90)
      (effects (font (size 1.27 1.27)) hide)
    )
    (property "Datasheet" "~" (at 130.81 108.966 90)
      (effects (font (size 1.27 1.27)) hide)
    )
    (property "#manf" "2x 1017-1" (at 130.81 110.49 0)
      (effects (font (size 1.27 1.27)) hide)
    )
    (property "JLCPCB_IGNORE" "YES" (at 130.81 110.49 0)
      (effects (font (size 1.27 1.27)) hide)
    )
    (pin "1" (uuid 285fe233-1189-4c05-a78f-846121d8e712))
    (pin "2" (uuid 1fb2a8d5-e06b-4694-b4b4-b8d74f61b84a))
    (instances
      (project "controlBoard"
        (path "/6b656370-4139-43b2-867e-1dccc97eccaa/00000000-0000-0000-0000-00005dfadf1e"
          (reference "BT2") (unit 1)
        )
      )
    )
  )

  (symbol (lib_id "Device:R") (at 193.04 52.07 270) (unit 1)
    (in_bom yes) (on_board yes) (dnp no)
    (uuid 00000000-0000-0000-0000-00005e020d56)
    (property "Reference" "R24" (at 193.04 46.8122 90)
      (effects (font (size 1.27 1.27)))
    )
    (property "Value" "100k" (at 193.04 49.1236 90)
      (effects (font (size 1.27 1.27)))
    )
    (property "Footprint" "Resistor_SMD:R_0402_1005Metric" (at 193.04 50.292 90)
      (effects (font (size 1.27 1.27)) hide)
    )
    (property "Datasheet" "~" (at 193.04 52.07 0)
      (effects (font (size 1.27 1.27)) hide)
    )
    (property "#manf" "RT0402FRE07100KL" (at 193.04 52.07 0)
      (effects (font (size 1.27 1.27)) hide)
    )
    (property "LCSC" "C25741" (at 193.04 52.07 90)
      (effects (font (size 1.27 1.27)) hide)
    )
    (pin "1" (uuid 8a4a9df3-bde6-4cda-b478-4d8e866ab71b))
    (pin "2" (uuid f6a2d514-a9c9-4a55-898c-1dbc78ad29e4))
    (instances
      (project "controlBoard"
        (path "/6b656370-4139-43b2-867e-1dccc97eccaa/00000000-0000-0000-0000-00005dfadf1e"
          (reference "R24") (unit 1)
        )
      )
    )
  )

  (symbol (lib_id "Device:C") (at 199.39 55.88 0) (unit 1)
    (in_bom yes) (on_board yes) (dnp no)
    (uuid 00000000-0000-0000-0000-00005e028842)
    (property "Reference" "C37" (at 202.311 54.7116 0)
      (effects (font (size 1.27 1.27)) (justify left))
    )
    (property "Value" "22u" (at 202.311 57.023 0)
      (effects (font (size 1.27 1.27)) (justify left))
    )
    (property "Footprint" "Capacitor_SMD:C_0805_2012Metric" (at 200.3552 59.69 0)
      (effects (font (size 1.27 1.27)) hide)
    )
    (property "Datasheet" "~" (at 199.39 55.88 0)
      (effects (font (size 1.27 1.27)) hide)
    )
    (property "#manf" "GRM21BR61C226ME44L" (at 199.39 55.88 0)
      (effects (font (size 1.27 1.27)) hide)
    )
    (property "LCSC" "C45783" (at 199.39 55.88 0)
      (effects (font (size 1.27 1.27)) hide)
    )
    (pin "1" (uuid e398eabf-e133-4e6b-8c53-48d798039ed0))
    (pin "2" (uuid 8527c679-700d-486b-bed2-4263333f4736))
    (instances
      (project "controlBoard"
        (path "/6b656370-4139-43b2-867e-1dccc97eccaa/00000000-0000-0000-0000-00005dfadf1e"
          (reference "C37") (unit 1)
        )
      )
    )
  )

  (symbol (lib_id "Device:R") (at 208.28 55.88 0) (unit 1)
    (in_bom yes) (on_board yes) (dnp no)
    (uuid 00000000-0000-0000-0000-00005e029125)
    (property "Reference" "R25" (at 210.058 54.7116 0)
      (effects (font (size 1.27 1.27)) (justify left))
    )
    (property "Value" "100k" (at 210.058 57.023 0)
      (effects (font (size 1.27 1.27)) (justify left))
    )
    (property "Footprint" "Resistor_SMD:R_0402_1005Metric" (at 206.502 55.88 90)
      (effects (font (size 1.27 1.27)) hide)
    )
    (property "Datasheet" "~" (at 208.28 55.88 0)
      (effects (font (size 1.27 1.27)) hide)
    )
    (property "#manf" "MCS04020C7503FE000" (at 208.28 55.88 0)
      (effects (font (size 1.27 1.27)) hide)
    )
    (property "LCSC" "C25741" (at 208.28 55.88 0)
      (effects (font (size 1.27 1.27)) hide)
    )
    (pin "1" (uuid 8adc73c0-ca7a-47b2-8780-8d604f9c0513))
    (pin "2" (uuid bf630e22-c8e9-4bbc-9263-447e9bdf4631))
    (instances
      (project "controlBoard"
        (path "/6b656370-4139-43b2-867e-1dccc97eccaa/00000000-0000-0000-0000-00005dfadf1e"
          (reference "R25") (unit 1)
        )
      )
    )
  )

  (symbol (lib_id "Device:R") (at 226.06 72.39 0) (unit 1)
    (in_bom yes) (on_board yes) (dnp no)
    (uuid 00000000-0000-0000-0000-00005e045d6f)
    (property "Reference" "R26" (at 227.838 71.2216 0)
      (effects (font (size 1.27 1.27)) (justify left))
    )
    (property "Value" "100k" (at 227.838 73.533 0)
      (effects (font (size 1.27 1.27)) (justify left))
    )
    (property "Footprint" "Resistor_SMD:R_0402_1005Metric" (at 224.282 72.39 90)
      (effects (font (size 1.27 1.27)) hide)
    )
    (property "Datasheet" "~" (at 226.06 72.39 0)
      (effects (font (size 1.27 1.27)) hide)
    )
    (property "#manf" "MCS04020C7503FE000" (at 226.06 72.39 0)
      (effects (font (size 1.27 1.27)) hide)
    )
    (property "LCSC" "C25741" (at 226.06 72.39 0)
      (effects (font (size 1.27 1.27)) hide)
    )
    (pin "1" (uuid 382f0d69-65cc-429c-bc81-14738408e988))
    (pin "2" (uuid 2ecd9437-dc9f-49de-bce3-ebb720ea7934))
    (instances
      (project "controlBoard"
        (path "/6b656370-4139-43b2-867e-1dccc97eccaa/00000000-0000-0000-0000-00005dfadf1e"
          (reference "R26") (unit 1)
        )
      )
    )
  )

  (symbol (lib_id "Device:C") (at 234.95 72.39 0) (unit 1)
    (in_bom yes) (on_board yes) (dnp no)
    (uuid 00000000-0000-0000-0000-00005e046279)
    (property "Reference" "C38" (at 237.871 71.2216 0)
      (effects (font (size 1.27 1.27)) (justify left))
    )
    (property "Value" "22u" (at 237.871 73.533 0)
      (effects (font (size 1.27 1.27)) (justify left))
    )
    (property "Footprint" "Capacitor_SMD:C_0805_2012Metric" (at 235.9152 76.2 0)
      (effects (font (size 1.27 1.27)) hide)
    )
    (property "Datasheet" "~" (at 234.95 72.39 0)
      (effects (font (size 1.27 1.27)) hide)
    )
    (property "#manf" "GRM21BR61C226ME44L" (at 234.95 72.39 0)
      (effects (font (size 1.27 1.27)) hide)
    )
    (property "LCSC" "C45783" (at 234.95 72.39 0)
      (effects (font (size 1.27 1.27)) hide)
    )
    (pin "1" (uuid b654d401-6bc6-471e-a6ba-03e0692491c1))
    (pin "2" (uuid 0b0b707a-2e0a-4603-a9b1-c7da14afcfe1))
    (instances
      (project "controlBoard"
        (path "/6b656370-4139-43b2-867e-1dccc97eccaa/00000000-0000-0000-0000-00005dfadf1e"
          (reference "C38") (unit 1)
        )
      )
    )
  )

  (symbol (lib_id "Device:R") (at 234.95 59.69 0) (unit 1)
    (in_bom yes) (on_board yes) (dnp no)
    (uuid 00000000-0000-0000-0000-00005e04ef17)
    (property "Reference" "R27" (at 236.728 58.5216 0)
      (effects (font (size 1.27 1.27)) (justify left))
    )
    (property "Value" "10k" (at 236.728 60.833 0)
      (effects (font (size 1.27 1.27)) (justify left))
    )
    (property "Footprint" "Resistor_SMD:R_0402_1005Metric" (at 233.172 59.69 90)
      (effects (font (size 1.27 1.27)) hide)
    )
    (property "Datasheet" "~" (at 234.95 59.69 0)
      (effects (font (size 1.27 1.27)) hide)
    )
    (property "#manf" "RT0402FRE0710KL" (at 234.95 59.69 0)
      (effects (font (size 1.27 1.27)) hide)
    )
    (property "LCSC" "C25744" (at 234.95 59.69 0)
      (effects (font (size 1.27 1.27)) hide)
    )
    (pin "1" (uuid e8e36222-9b9d-46bf-89cc-e7cf9c0af4dc))
    (pin "2" (uuid 88193fc1-f93f-406b-ac4d-a960a18ce044))
    (instances
      (project "controlBoard"
        (path "/6b656370-4139-43b2-867e-1dccc97eccaa/00000000-0000-0000-0000-00005dfadf1e"
          (reference "R27") (unit 1)
        )
      )
    )
  )

  (symbol (lib_id "power:PWR_FLAG") (at 242.57 44.45 0) (unit 1)
    (in_bom yes) (on_board yes) (dnp no)
    (uuid 00000000-0000-0000-0000-00005e95d2a6)
    (property "Reference" "#FLG0102" (at 242.57 42.545 0)
      (effects (font (size 1.27 1.27)) hide)
    )
    (property "Value" "PWR_FLAG" (at 242.57 40.0558 0)
      (effects (font (size 1.27 1.27)))
    )
    (property "Footprint" "" (at 242.57 44.45 0)
      (effects (font (size 1.27 1.27)) hide)
    )
    (property "Datasheet" "~" (at 242.57 44.45 0)
      (effects (font (size 1.27 1.27)) hide)
    )
    (pin "1" (uuid a2551913-6ae1-4fb1-a444-ea5a8dfbe90c))
    (instances
      (project "controlBoard"
        (path "/6b656370-4139-43b2-867e-1dccc97eccaa/00000000-0000-0000-0000-00005dfadf1e"
          (reference "#FLG0102") (unit 1)
        )
      )
    )
  )

  (symbol (lib_id "Device:Q_PMOS_SGD") (at 215.9 46.99 270) (mirror x) (unit 1)
    (in_bom yes) (on_board yes) (dnp no)
    (uuid 00000000-0000-0000-0000-00005fc760bf)
    (property "Reference" "Q2" (at 215.9 38.3032 90)
      (effects (font (size 1.27 1.27)))
    )
    (property "Value" "AONR21357" (at 215.9 40.6146 90)
      (effects (font (size 1.27 1.27)))
    )
    (property "Footprint" "rofi:DFN3.3X3.3-EP" (at 218.44 41.91 0)
      (effects (font (size 1.27 1.27)) hide)
    )
    (property "Datasheet" "~" (at 215.9 46.99 0)
      (effects (font (size 1.27 1.27)) hide)
    )
    (property "LCSC" "C431196" (at 215.9 46.99 0)
      (effects (font (size 1.27 1.27)) hide)
    )
    (property "JLCPCB_CORRECTION" "0;0;-90" (at 215.9 46.99 90)
      (effects (font (size 1.27 1.27)) hide)
    )
    (pin "1" (uuid dba48a3e-c8a7-43a5-8da3-5ed60c4135e9))
    (pin "2" (uuid f592183a-91f8-4868-b3a8-0fbf063ef053))
    (pin "3" (uuid 7a6da0e0-f1ba-4289-b0b7-b07f9da8b641))
    (instances
      (project "controlBoard"
        (path "/6b656370-4139-43b2-867e-1dccc97eccaa/00000000-0000-0000-0000-00005dfadf1e"
          (reference "Q2") (unit 1)
        )
      )
    )
  )

  (symbol (lib_id "Device:Q_PMOS_SGD") (at 180.34 46.99 90) (unit 1)
    (in_bom yes) (on_board yes) (dnp no)
    (uuid 00000000-0000-0000-0000-00005fc81675)
    (property "Reference" "Q1" (at 180.34 38.3032 90)
      (effects (font (size 1.27 1.27)))
    )
    (property "Value" "AONR21357" (at 180.34 40.6146 90)
      (effects (font (size 1.27 1.27)))
    )
    (property "Footprint" "rofi:DFN3.3X3.3-EP" (at 177.8 41.91 0)
      (effects (font (size 1.27 1.27)) hide)
    )
    (property "Datasheet" "~" (at 180.34 46.99 0)
      (effects (font (size 1.27 1.27)) hide)
    )
    (property "LCSC" "C431196" (at 180.34 46.99 0)
      (effects (font (size 1.27 1.27)) hide)
    )
    (property "JLCPCB_CORRECTION" "0;0;-90" (at 180.34 46.99 90)
      (effects (font (size 1.27 1.27)) hide)
    )
    (pin "1" (uuid 65b50015-3ab3-43c1-8127-c92f3c38f91c))
    (pin "2" (uuid 4be4373a-8061-4276-be2a-5ef80775a9af))
    (pin "3" (uuid 3e23cc16-3f09-4eab-b569-45873e680ccd))
    (instances
      (project "controlBoard"
        (path "/6b656370-4139-43b2-867e-1dccc97eccaa/00000000-0000-0000-0000-00005dfadf1e"
          (reference "Q1") (unit 1)
        )
      )
    )
  )

  (symbol (lib_id "Transistor_FET:2N7002") (at 218.44 68.58 0) (mirror y) (unit 1)
    (in_bom yes) (on_board yes) (dnp no)
    (uuid 00000000-0000-0000-0000-00005fc85edf)
    (property "Reference" "Q3" (at 213.233 67.4116 0)
      (effects (font (size 1.27 1.27)) (justify left))
    )
    (property "Value" "2N7002" (at 213.233 69.723 0)
      (effects (font (size 1.27 1.27)) (justify left))
    )
    (property "Footprint" "Package_TO_SOT_SMD:SOT-23" (at 213.36 70.485 0)
      (effects (font (size 1.27 1.27) italic) (justify left) hide)
    )
    (property "Datasheet" "https://www.fairchildsemi.com/datasheets/2N/2N7002.pdf" (at 218.44 68.58 0)
      (effects (font (size 1.27 1.27)) (justify left) hide)
    )
    (property "LCSC" "C8545" (at 218.44 68.58 0)
      (effects (font (size 1.27 1.27)) hide)
    )
    (property "JLCPCB_CORRECTION" "0;0;180" (at 218.44 68.58 0)
      (effects (font (size 1.27 1.27)) hide)
    )
    (pin "1" (uuid 5084f4c8-a5e6-4c13-a570-02e8da14ffd6))
    (pin "2" (uuid acaf6e4a-6622-40e1-a46d-b0ccf40de45d))
    (pin "3" (uuid a31ef43e-7029-408a-a6a7-60b7c892992e))
    (instances
      (project "controlBoard"
        (path "/6b656370-4139-43b2-867e-1dccc97eccaa/00000000-0000-0000-0000-00005dfadf1e"
          (reference "Q3") (unit 1)
        )
      )
    )
  )

  (symbol (lib_id "rofi:TP5100") (at 86.36 93.98 0) (unit 1)
    (in_bom yes) (on_board yes) (dnp no)
    (uuid 00000000-0000-0000-0000-00005fcd9b70)
    (property "Reference" "U10" (at 86.36 75.565 0)
      (effects (font (size 1.27 1.27)))
    )
    (property "Value" "TP5100" (at 86.36 77.8764 0)
      (effects (font (size 1.27 1.27)))
    )
    (property "Footprint" "Package_DFN_QFN:QFN-16-1EP_4x4mm_P0.65mm_EP2.1x2.1mm" (at 92.71 109.22 0)
      (effects (font (size 1.27 1.27)) hide)
    )
    (property "Datasheet" "" (at 92.71 109.22 0)
      (effects (font (size 1.27 1.27)) hide)
    )
    (property "LCSC" "C379389" (at 86.36 93.98 0)
      (effects (font (size 1.27 1.27)) hide)
    )
    (property "JLCPCB_CORRECTION" "0;0;-90" (at 86.36 93.98 0)
      (effects (font (size 1.27 1.27)) hide)
    )
    (pin "1" (uuid 247b0cf7-ae24-4493-9dab-1215801011f2))
    (pin "10" (uuid a7b2dcd4-3905-4c90-9ba6-c804cf98d279))
    (pin "11" (uuid 1c562a6e-5de7-4520-910f-ed9e6b2fc997))
    (pin "12" (uuid 0339bcf6-3b11-4834-96af-4082619fa2e2))
    (pin "13" (uuid 2b5eabef-8a1f-4504-b164-395fd6baec36))
    (pin "14" (uuid fb019e73-8d5c-4777-afc9-b0427f404433))
    (pin "15" (uuid 5b8c5eaf-0a2e-4257-a93f-489014397f21))
    (pin "16" (uuid 5100fab2-dcea-4a5e-90cc-9c424c4d7b4c))
    (pin "17" (uuid aa474fe3-b3b2-4f84-9827-04b31d911253))
    (pin "2" (uuid 536a0238-88cf-4f6d-85a8-40e65536c03f))
    (pin "3" (uuid d8c76ae0-6d62-4a5f-ad86-6c1d586c90ac))
    (pin "4" (uuid 1448a02e-4f00-40dc-97b0-c142c0dd1665))
    (pin "5" (uuid 0ccfea6c-162a-4b16-9677-fd16872508c8))
    (pin "6" (uuid 49825a2f-035b-4016-a0df-d4dc9abab52b))
    (pin "7" (uuid 2ebff723-05bd-47b2-a629-0de47b3e2b40))
    (pin "8" (uuid d03464b1-8a45-4019-af22-320d16115249))
    (pin "9" (uuid 85ae67af-92fe-4e21-9e2f-5361f0813209))
    (instances
      (project "controlBoard"
        (path "/6b656370-4139-43b2-867e-1dccc97eccaa/00000000-0000-0000-0000-00005dfadf1e"
          (reference "U10") (unit 1)
        )
      )
    )
  )

  (symbol (lib_id "Device:L") (at 127 81.28 90) (unit 1)
    (in_bom yes) (on_board yes) (dnp no)
    (uuid 00000000-0000-0000-0000-00005fcdae43)
    (property "Reference" "L4" (at 127 76.454 90)
      (effects (font (size 1.27 1.27)))
    )
    (property "Value" "22u" (at 127 78.7654 90)
      (effects (font (size 1.27 1.27)))
    )
    (property "Footprint" "rofi:SLO0630H" (at 127 81.28 0)
      (effects (font (size 1.27 1.27)) hide)
    )
    (property "Datasheet" "~" (at 127 81.28 0)
      (effects (font (size 1.27 1.27)) hide)
    )
    (property "LCSC" "C207843" (at 127 81.28 90)
      (effects (font (size 1.27 1.27)) hide)
    )
    (pin "1" (uuid aac09fac-d747-4858-9d24-1807d499388d))
    (pin "2" (uuid 87f72b45-a8ca-4984-a559-3a487ffe8208))
    (instances
      (project "controlBoard"
        (path "/6b656370-4139-43b2-867e-1dccc97eccaa/00000000-0000-0000-0000-00005dfadf1e"
          (reference "L4") (unit 1)
        )
      )
    )
  )

  (symbol (lib_id "Device:R") (at 130.81 91.44 180) (unit 1)
    (in_bom yes) (on_board yes) (dnp no)
    (uuid 00000000-0000-0000-0000-00005fcdb663)
    (property "Reference" "R20" (at 136.0678 91.44 90)
      (effects (font (size 1.27 1.27)))
    )
    (property "Value" "75m" (at 133.7564 91.44 90)
      (effects (font (size 1.27 1.27)))
    )
    (property "Footprint" "Resistor_SMD:R_1206_3216Metric" (at 132.588 91.44 90)
      (effects (font (size 1.27 1.27)) hide)
    )
    (property "Datasheet" "~" (at 130.81 91.44 0)
      (effects (font (size 1.27 1.27)) hide)
    )
    (property "LCSC" "C127704" (at 130.81 91.44 90)
      (effects (font (size 1.27 1.27)) hide)
    )
    (pin "1" (uuid 997a7d98-7c8c-46e3-96a2-9b42ed47217b))
    (pin "2" (uuid f193a5a1-f138-4f68-849e-27d32d00dd19))
    (instances
      (project "controlBoard"
        (path "/6b656370-4139-43b2-867e-1dccc97eccaa/00000000-0000-0000-0000-00005dfadf1e"
          (reference "R20") (unit 1)
        )
      )
    )
  )

  (symbol (lib_id "power:PWR_FLAG") (at 130.81 118.11 270) (unit 1)
    (in_bom yes) (on_board yes) (dnp no)
    (uuid 00000000-0000-0000-0000-00005fcead76)
    (property "Reference" "#FLG0103" (at 132.715 118.11 0)
      (effects (font (size 1.27 1.27)) hide)
    )
    (property "Value" "PWR_FLAG" (at 134.0358 118.11 90)
      (effects (font (size 1.27 1.27)) (justify left))
    )
    (property "Footprint" "" (at 130.81 118.11 0)
      (effects (font (size 1.27 1.27)) hide)
    )
    (property "Datasheet" "~" (at 130.81 118.11 0)
      (effects (font (size 1.27 1.27)) hide)
    )
    (pin "1" (uuid 9cff2491-d86d-4419-98cd-8419c88785f2))
    (instances
      (project "controlBoard"
        (path "/6b656370-4139-43b2-867e-1dccc97eccaa/00000000-0000-0000-0000-00005dfadf1e"
          (reference "#FLG0103") (unit 1)
        )
      )
    )
  )

  (symbol (lib_id "Device:D_Schottky") (at 149.86 87.63 270) (unit 1)
    (in_bom yes) (on_board yes) (dnp no)
    (uuid 00000000-0000-0000-0000-00005fcfd521)
    (property "Reference" "D4" (at 151.892 86.4616 90)
      (effects (font (size 1.27 1.27)) (justify left))
    )
    (property "Value" "SS54" (at 151.892 88.773 90)
      (effects (font (size 1.27 1.27)) (justify left))
    )
    (property "Footprint" "Diode_SMD:D_SMA" (at 149.86 87.63 0)
      (effects (font (size 1.27 1.27)) hide)
    )
    (property "Datasheet" "~" (at 149.86 87.63 0)
      (effects (font (size 1.27 1.27)) hide)
    )
    (property "LCSC" "C22452" (at 149.86 87.63 90)
      (effects (font (size 1.27 1.27)) hide)
    )
    (pin "1" (uuid 3db57ac0-5449-4624-af79-29d0546766fe))
    (pin "2" (uuid ac6eb594-4a0b-4442-b6f5-d745e31abeb6))
    (instances
      (project "controlBoard"
        (path "/6b656370-4139-43b2-867e-1dccc97eccaa/00000000-0000-0000-0000-00005dfadf1e"
          (reference "D4") (unit 1)
        )
      )
    )
  )

  (symbol (lib_id "Device:C") (at 107.95 101.6 0) (unit 1)
    (in_bom yes) (on_board yes) (dnp no)
    (uuid 00000000-0000-0000-0000-00005fd0be6c)
    (property "Reference" "C54" (at 110.871 100.4316 0)
      (effects (font (size 1.27 1.27)) (justify left))
    )
    (property "Value" "100n" (at 110.871 102.743 0)
      (effects (font (size 1.27 1.27)) (justify left))
    )
    (property "Footprint" "Capacitor_SMD:C_0402_1005Metric" (at 108.9152 105.41 0)
      (effects (font (size 1.27 1.27)) hide)
    )
    (property "Datasheet" "~" (at 107.95 101.6 0)
      (effects (font (size 1.27 1.27)) hide)
    )
    (property "LCSC" "C1525" (at 107.95 101.6 0)
      (effects (font (size 1.27 1.27)) hide)
    )
    (pin "1" (uuid d258a2ef-24e7-4aef-a6a2-5339a837f798))
    (pin "2" (uuid 2a4dbdeb-9d9d-4cbd-9503-9727b9cfe89a))
    (instances
      (project "controlBoard"
        (path "/6b656370-4139-43b2-867e-1dccc97eccaa/00000000-0000-0000-0000-00005dfadf1e"
          (reference "C54") (unit 1)
        )
      )
    )
  )

  (symbol (lib_id "Device:C") (at 118.11 101.6 0) (unit 1)
    (in_bom yes) (on_board yes) (dnp no)
    (uuid 00000000-0000-0000-0000-00005fd0ed74)
    (property "Reference" "C55" (at 121.031 100.4316 0)
      (effects (font (size 1.27 1.27)) (justify left))
    )
    (property "Value" "10u" (at 121.031 102.743 0)
      (effects (font (size 1.27 1.27)) (justify left))
    )
    (property "Footprint" "Capacitor_SMD:C_0805_2012Metric" (at 119.0752 105.41 0)
      (effects (font (size 1.27 1.27)) hide)
    )
    (property "Datasheet" "~" (at 118.11 101.6 0)
      (effects (font (size 1.27 1.27)) hide)
    )
    (property "LCSC" "C15850" (at 118.11 101.6 0)
      (effects (font (size 1.27 1.27)) hide)
    )
    (pin "1" (uuid 107d1ec4-bcac-46ff-b4c6-8cd90d7090c3))
    (pin "2" (uuid aa257409-ae5a-485a-abff-573bc7d65df2))
    (instances
      (project "controlBoard"
        (path "/6b656370-4139-43b2-867e-1dccc97eccaa/00000000-0000-0000-0000-00005dfadf1e"
          (reference "C55") (unit 1)
        )
      )
    )
  )

  (symbol (lib_id "Device:C") (at 172.72 99.06 0) (unit 1)
    (in_bom yes) (on_board yes) (dnp no)
    (uuid 00000000-0000-0000-0000-00005fd18c0d)
    (property "Reference" "C57" (at 175.641 97.8916 0)
      (effects (font (size 1.27 1.27)) (justify left))
    )
    (property "Value" "100n" (at 175.641 100.203 0)
      (effects (font (size 1.27 1.27)) (justify left))
    )
    (property "Footprint" "Capacitor_SMD:C_0402_1005Metric" (at 173.6852 102.87 0)
      (effects (font (size 1.27 1.27)) hide)
    )
    (property "Datasheet" "~" (at 172.72 99.06 0)
      (effects (font (size 1.27 1.27)) hide)
    )
    (property "LCSC" "C1525" (at 172.72 99.06 0)
      (effects (font (size 1.27 1.27)) hide)
    )
    (pin "1" (uuid 32f70f07-6f48-431f-9e5c-aadebef037e5))
    (pin "2" (uuid 18cdad0c-c36d-4dce-a502-36cbbb150dd4))
    (instances
      (project "controlBoard"
        (path "/6b656370-4139-43b2-867e-1dccc97eccaa/00000000-0000-0000-0000-00005dfadf1e"
          (reference "C57") (unit 1)
        )
      )
    )
  )

  (symbol (lib_id "Device:C") (at 58.42 107.95 0) (unit 1)
    (in_bom yes) (on_board yes) (dnp no)
    (uuid 00000000-0000-0000-0000-00005fd486e1)
    (property "Reference" "C53" (at 61.341 106.7816 0)
      (effects (font (size 1.27 1.27)) (justify left))
    )
    (property "Value" "100n" (at 61.341 109.093 0)
      (effects (font (size 1.27 1.27)) (justify left))
    )
    (property "Footprint" "Capacitor_SMD:C_0402_1005Metric" (at 59.3852 111.76 0)
      (effects (font (size 1.27 1.27)) hide)
    )
    (property "Datasheet" "~" (at 58.42 107.95 0)
      (effects (font (size 1.27 1.27)) hide)
    )
    (property "LCSC" "C1525" (at 58.42 107.95 0)
      (effects (font (size 1.27 1.27)) hide)
    )
    (pin "1" (uuid d63d1d0a-a896-4ce5-b490-c174e88a955f))
    (pin "2" (uuid caeb4209-3d1b-46b3-9607-fdfbb9e962a1))
    (instances
      (project "controlBoard"
        (path "/6b656370-4139-43b2-867e-1dccc97eccaa/00000000-0000-0000-0000-00005dfadf1e"
          (reference "C53") (unit 1)
        )
      )
    )
  )

  (symbol (lib_id "Device:C") (at 48.26 85.09 0) (unit 1)
    (in_bom yes) (on_board yes) (dnp no)
    (uuid 00000000-0000-0000-0000-00005fd4f8f1)
    (property "Reference" "C49" (at 51.181 83.9216 0)
      (effects (font (size 1.27 1.27)) (justify left))
    )
    (property "Value" "22u" (at 51.181 86.233 0)
      (effects (font (size 1.27 1.27)) (justify left))
    )
    (property "Footprint" "Capacitor_SMD:C_0805_2012Metric" (at 49.2252 88.9 0)
      (effects (font (size 1.27 1.27)) hide)
    )
    (property "Datasheet" "~" (at 48.26 85.09 0)
      (effects (font (size 1.27 1.27)) hide)
    )
    (property "#manf" "GRM21BR61C226ME44L" (at 48.26 85.09 0)
      (effects (font (size 1.27 1.27)) hide)
    )
    (property "LCSC" "C45783" (at 48.26 85.09 0)
      (effects (font (size 1.27 1.27)) hide)
    )
    (pin "1" (uuid f24fd80c-64cc-4e88-b6a7-088e45217a6b))
    (pin "2" (uuid bf828556-651f-4ec3-9a8c-2cc867d1b596))
    (instances
      (project "controlBoard"
        (path "/6b656370-4139-43b2-867e-1dccc97eccaa/00000000-0000-0000-0000-00005dfadf1e"
          (reference "C49") (unit 1)
        )
      )
    )
  )

  (symbol (lib_id "Device:C") (at 39.37 85.09 0) (unit 1)
    (in_bom yes) (on_board yes) (dnp no)
    (uuid 00000000-0000-0000-0000-00005fd4fe0d)
    (property "Reference" "C48" (at 42.291 83.9216 0)
      (effects (font (size 1.27 1.27)) (justify left))
    )
    (property "Value" "22u" (at 42.291 86.233 0)
      (effects (font (size 1.27 1.27)) (justify left))
    )
    (property "Footprint" "Capacitor_SMD:C_0805_2012Metric" (at 40.3352 88.9 0)
      (effects (font (size 1.27 1.27)) hide)
    )
    (property "Datasheet" "~" (at 39.37 85.09 0)
      (effects (font (size 1.27 1.27)) hide)
    )
    (property "#manf" "GRM21BR61C226ME44L" (at 39.37 85.09 0)
      (effects (font (size 1.27 1.27)) hide)
    )
    (property "LCSC" "C45783" (at 39.37 85.09 0)
      (effects (font (size 1.27 1.27)) hide)
    )
    (pin "1" (uuid 55cce366-d7a3-4626-a4cc-cdc6ee0d3d36))
    (pin "2" (uuid 956d6c3c-3c26-49bf-8855-d3634a5eb0db))
    (instances
      (project "controlBoard"
        (path "/6b656370-4139-43b2-867e-1dccc97eccaa/00000000-0000-0000-0000-00005dfadf1e"
          (reference "C48") (unit 1)
        )
      )
    )
  )

  (symbol (lib_id "Device:R") (at 72.39 114.3 0) (unit 1)
    (in_bom yes) (on_board yes) (dnp no)
    (uuid 00000000-0000-0000-0000-00005fd94a8b)
    (property "Reference" "R19" (at 74.168 113.1316 0)
      (effects (font (size 1.27 1.27)) (justify left))
    )
    (property "Value" "0R" (at 74.168 115.443 0)
      (effects (font (size 1.27 1.27)) (justify left))
    )
    (property "Footprint" "Resistor_SMD:R_0402_1005Metric" (at 70.612 114.3 90)
      (effects (font (size 1.27 1.27)) hide)
    )
    (property "Datasheet" "~" (at 72.39 114.3 0)
      (effects (font (size 1.27 1.27)) hide)
    )
    (property "LCSC" "C17168" (at 72.39 114.3 0)
      (effects (font (size 1.27 1.27)) hide)
    )
    (pin "1" (uuid 31b3d732-f148-47c7-a8e6-13da0c7e2e6d))
    (pin "2" (uuid b4276990-838b-4d57-a300-3dd0ed90162c))
    (instances
      (project "controlBoard"
        (path "/6b656370-4139-43b2-867e-1dccc97eccaa/00000000-0000-0000-0000-00005dfadf1e"
          (reference "R19") (unit 1)
        )
      )
    )
  )

  (symbol (lib_id "Device:C") (at 184.15 99.06 0) (unit 1)
    (in_bom yes) (on_board yes) (dnp no)
    (uuid 00000000-0000-0000-0000-00005fd9d3c1)
    (property "Reference" "C58" (at 187.071 97.8916 0)
      (effects (font (size 1.27 1.27)) (justify left))
    )
    (property "Value" "22u" (at 187.071 100.203 0)
      (effects (font (size 1.27 1.27)) (justify left))
    )
    (property "Footprint" "Capacitor_SMD:C_0805_2012Metric" (at 185.1152 102.87 0)
      (effects (font (size 1.27 1.27)) hide)
    )
    (property "Datasheet" "~" (at 184.15 99.06 0)
      (effects (font (size 1.27 1.27)) hide)
    )
    (property "#manf" "GRM21BR61C226ME44L" (at 184.15 99.06 0)
      (effects (font (size 1.27 1.27)) hide)
    )
    (property "LCSC" "C45783" (at 184.15 99.06 0)
      (effects (font (size 1.27 1.27)) hide)
    )
    (pin "1" (uuid 59240c2e-f538-4959-9726-ffe21664f1b5))
    (pin "2" (uuid 3fc4199e-0691-4f49-96f7-994010f7635c))
    (instances
      (project "controlBoard"
        (path "/6b656370-4139-43b2-867e-1dccc97eccaa/00000000-0000-0000-0000-00005dfadf1e"
          (reference "C58") (unit 1)
        )
      )
    )
  )

  (symbol (lib_id "Device:R") (at 49.53 113.03 0) (unit 1)
    (in_bom yes) (on_board yes) (dnp no)
    (uuid 00000000-0000-0000-0000-00005fe187e8)
    (property "Reference" "R18" (at 51.308 111.8616 0)
      (effects (font (size 1.27 1.27)) (justify left))
    )
    (property "Value" "470R" (at 51.308 114.173 0)
      (effects (font (size 1.27 1.27)) (justify left))
    )
    (property "Footprint" "Resistor_SMD:R_0402_1005Metric" (at 47.752 113.03 90)
      (effects (font (size 1.27 1.27)) hide)
    )
    (property "Datasheet" "~" (at 49.53 113.03 0)
      (effects (font (size 1.27 1.27)) hide)
    )
    (property "LCSC" "C25117" (at 49.53 113.03 0)
      (effects (font (size 1.27 1.27)) hide)
    )
    (pin "1" (uuid b6a84cf2-b636-4b92-8014-fcc7bc7c9b37))
    (pin "2" (uuid 3b2f6ea3-a83d-44c8-b4b3-130dc61d4f1b))
    (instances
      (project "controlBoard"
        (path "/6b656370-4139-43b2-867e-1dccc97eccaa/00000000-0000-0000-0000-00005dfadf1e"
          (reference "R18") (unit 1)
        )
      )
    )
  )

  (symbol (lib_id "Device:C") (at 102.87 142.24 90) (unit 1)
    (in_bom yes) (on_board yes) (dnp no)
    (uuid 00000000-0000-0000-0000-00006110b975)
    (property "Reference" "C18" (at 101.7016 139.319 0)
      (effects (font (size 1.27 1.27)) (justify left))
    )
    (property "Value" "1u" (at 104.013 139.319 0)
      (effects (font (size 1.27 1.27)) (justify left))
    )
    (property "Footprint" "Capacitor_SMD:C_0603_1608Metric" (at 106.68 141.2748 0)
      (effects (font (size 1.27 1.27)) hide)
    )
    (property "Datasheet" "~" (at 102.87 142.24 0)
      (effects (font (size 1.27 1.27)) hide)
    )
    (property "LCSC" "C15849" (at 102.87 142.24 0)
      (effects (font (size 1.27 1.27)) hide)
    )
    (pin "1" (uuid e7db1e7e-cb7b-41bd-af38-6dba92568540))
    (pin "2" (uuid 657ecae6-ecdb-4d7d-87f3-46598f8c5928))
    (instances
      (project "controlBoard"
        (path "/6b656370-4139-43b2-867e-1dccc97eccaa/00000000-0000-0000-0000-00005dfadf1e"
          (reference "C18") (unit 1)
        )
      )
    )
  )

  (symbol (lib_id "Device:L") (at 118.11 152.4 90) (unit 1)
    (in_bom yes) (on_board yes) (dnp no)
    (uuid 00000000-0000-0000-0000-00006110b97f)
    (property "Reference" "L3" (at 118.11 147.574 90)
      (effects (font (size 1.27 1.27)))
    )
    (property "Value" "4u7" (at 118.11 149.8854 90)
      (effects (font (size 1.27 1.27)))
    )
    (property "Footprint" "rofi:SMNR5020" (at 118.11 152.4 0)
      (effects (font (size 1.27 1.27)) hide)
    )
    (property "Datasheet" "~" (at 118.11 152.4 0)
      (effects (font (size 1.27 1.27)) hide)
    )
    (property "LCSC" "C135283" (at 118.11 152.4 90)
      (effects (font (size 1.27 1.27)) hide)
    )
    (pin "1" (uuid 697efe8f-f429-4e18-8f00-d33782c17a04))
    (pin "2" (uuid 74f7f9c7-4ddd-4d7d-86bd-b1692f076332))
    (instances
      (project "controlBoard"
        (path "/6b656370-4139-43b2-867e-1dccc97eccaa/00000000-0000-0000-0000-00005dfadf1e"
          (reference "L3") (unit 1)
        )
      )
    )
  )

  (symbol (lib_id "Device:R") (at 129.54 168.91 0) (unit 1)
    (in_bom yes) (on_board yes) (dnp no)
    (uuid 00000000-0000-0000-0000-00006110b98b)
    (property "Reference" "R8" (at 131.318 167.7416 0)
      (effects (font (size 1.27 1.27)) (justify left))
    )
    (property "Value" "22k" (at 131.318 170.053 0)
      (effects (font (size 1.27 1.27)) (justify left))
    )
    (property "Footprint" "Resistor_SMD:R_0402_1005Metric" (at 127.762 168.91 90)
      (effects (font (size 1.27 1.27)) hide)
    )
    (property "Datasheet" "~" (at 129.54 168.91 0)
      (effects (font (size 1.27 1.27)) hide)
    )
    (property "LCSC" "C25768" (at 129.54 168.91 0)
      (effects (font (size 1.27 1.27)) hide)
    )
    (pin "1" (uuid 8e7bfd56-3421-4404-8950-e3bf2af53708))
    (pin "2" (uuid 7ee61529-5361-4996-982c-54c68a34a169))
    (instances
      (project "controlBoard"
        (path "/6b656370-4139-43b2-867e-1dccc97eccaa/00000000-0000-0000-0000-00005dfadf1e"
          (reference "R8") (unit 1)
        )
      )
    )
  )

  (symbol (lib_id "Device:R") (at 80.01 158.75 0) (unit 1)
    (in_bom yes) (on_board yes) (dnp no)
    (uuid 00000000-0000-0000-0000-00006110b995)
    (property "Reference" "R1" (at 81.788 157.5816 0)
      (effects (font (size 1.27 1.27)) (justify left))
    )
    (property "Value" "200k" (at 81.788 159.893 0)
      (effects (font (size 1.27 1.27)) (justify left))
    )
    (property "Footprint" "Resistor_SMD:R_0402_1005Metric" (at 78.232 158.75 90)
      (effects (font (size 1.27 1.27)) hide)
    )
    (property "Datasheet" "~" (at 80.01 158.75 0)
      (effects (font (size 1.27 1.27)) hide)
    )
    (property "LCSC" "C25764" (at 80.01 158.75 0)
      (effects (font (size 1.27 1.27)) hide)
    )
    (pin "1" (uuid 316b8564-2be9-47af-a463-47ff645c591f))
    (pin "2" (uuid c264af40-efc7-4f4c-8fd7-a79ae5a0bbc3))
    (instances
      (project "controlBoard"
        (path "/6b656370-4139-43b2-867e-1dccc97eccaa/00000000-0000-0000-0000-00005dfadf1e"
          (reference "R1") (unit 1)
        )
      )
    )
  )

  (symbol (lib_id "Device:C") (at 67.31 156.21 0) (unit 1)
    (in_bom yes) (on_board yes) (dnp no)
    (uuid 00000000-0000-0000-0000-00006110b9a2)
    (property "Reference" "C7" (at 70.231 155.0416 0)
      (effects (font (size 1.27 1.27)) (justify left))
    )
    (property "Value" "22u" (at 70.231 157.353 0)
      (effects (font (size 1.27 1.27)) (justify left))
    )
    (property "Footprint" "Capacitor_SMD:C_0805_2012Metric" (at 68.2752 160.02 0)
      (effects (font (size 1.27 1.27)) hide)
    )
    (property "Datasheet" "~" (at 67.31 156.21 0)
      (effects (font (size 1.27 1.27)) hide)
    )
    (property "LCSC" "C45783" (at 67.31 156.21 0)
      (effects (font (size 1.27 1.27)) hide)
    )
    (pin "1" (uuid f2eeb6df-8d90-41cc-b5b0-8c90f68b8626))
    (pin "2" (uuid 9b192482-5567-457b-a235-fff38f3daaeb))
    (instances
      (project "controlBoard"
        (path "/6b656370-4139-43b2-867e-1dccc97eccaa/00000000-0000-0000-0000-00005dfadf1e"
          (reference "C7") (unit 1)
        )
      )
    )
  )

  (symbol (lib_id "Device:C") (at 57.15 156.21 0) (unit 1)
    (in_bom yes) (on_board yes) (dnp no)
    (uuid 00000000-0000-0000-0000-00006110b9a9)
    (property "Reference" "C4" (at 60.071 155.0416 0)
      (effects (font (size 1.27 1.27)) (justify left))
    )
    (property "Value" "22u" (at 60.071 157.353 0)
      (effects (font (size 1.27 1.27)) (justify left))
    )
    (property "Footprint" "Capacitor_SMD:C_0805_2012Metric" (at 58.1152 160.02 0)
      (effects (font (size 1.27 1.27)) hide)
    )
    (property "Datasheet" "~" (at 57.15 156.21 0)
      (effects (font (size 1.27 1.27)) hide)
    )
    (property "LCSC" "C45783" (at 57.15 156.21 0)
      (effects (font (size 1.27 1.27)) hide)
    )
    (pin "1" (uuid b4f48eb8-ca17-4c4a-84f9-b07690606a65))
    (pin "2" (uuid fb24cce8-708a-402a-a3a3-7cfc080750c1))
    (instances
      (project "controlBoard"
        (path "/6b656370-4139-43b2-867e-1dccc97eccaa/00000000-0000-0000-0000-00005dfadf1e"
          (reference "C4") (unit 1)
        )
      )
    )
  )

  (symbol (lib_id "Device:C") (at 144.78 156.21 0) (unit 1)
    (in_bom yes) (on_board yes) (dnp no)
    (uuid 00000000-0000-0000-0000-00006110b9b0)
    (property "Reference" "C19" (at 147.701 155.0416 0)
      (effects (font (size 1.27 1.27)) (justify left))
    )
    (property "Value" "22u" (at 147.701 157.353 0)
      (effects (font (size 1.27 1.27)) (justify left))
    )
    (property "Footprint" "Capacitor_SMD:C_0805_2012Metric" (at 145.7452 160.02 0)
      (effects (font (size 1.27 1.27)) hide)
    )
    (property "Datasheet" "~" (at 144.78 156.21 0)
      (effects (font (size 1.27 1.27)) hide)
    )
    (property "LCSC" "C45783" (at 144.78 156.21 0)
      (effects (font (size 1.27 1.27)) hide)
    )
    (pin "1" (uuid dee4be6b-1462-484e-90eb-597685410500))
    (pin "2" (uuid 6ff15189-dab0-4b95-93e9-046beaecc64f))
    (instances
      (project "controlBoard"
        (path "/6b656370-4139-43b2-867e-1dccc97eccaa/00000000-0000-0000-0000-00005dfadf1e"
          (reference "C19") (unit 1)
        )
      )
    )
  )

  (symbol (lib_id "Device:C") (at 154.94 156.21 0) (unit 1)
    (in_bom yes) (on_board yes) (dnp no)
    (uuid 00000000-0000-0000-0000-00006110b9b7)
    (property "Reference" "C20" (at 157.861 155.0416 0)
      (effects (font (size 1.27 1.27)) (justify left))
    )
    (property "Value" "22u" (at 157.861 157.353 0)
      (effects (font (size 1.27 1.27)) (justify left))
    )
    (property "Footprint" "Capacitor_SMD:C_0805_2012Metric" (at 155.9052 160.02 0)
      (effects (font (size 1.27 1.27)) hide)
    )
    (property "Datasheet" "~" (at 154.94 156.21 0)
      (effects (font (size 1.27 1.27)) hide)
    )
    (property "LCSC" "C45783" (at 154.94 156.21 0)
      (effects (font (size 1.27 1.27)) hide)
    )
    (pin "1" (uuid 39bf7be9-59ac-49d3-9a53-7fe99955f5c3))
    (pin "2" (uuid c9850c5d-9506-4c27-813c-90d2f3a1c23f))
    (instances
      (project "controlBoard"
        (path "/6b656370-4139-43b2-867e-1dccc97eccaa/00000000-0000-0000-0000-00005dfadf1e"
          (reference "C20") (unit 1)
        )
      )
    )
  )

  (symbol (lib_id "power:PWR_FLAG") (at 165.1 152.4 0) (unit 1)
    (in_bom yes) (on_board yes) (dnp no)
    (uuid 00000000-0000-0000-0000-00006110b9c3)
    (property "Reference" "#FLG0101" (at 165.1 150.495 0)
      (effects (font (size 1.27 1.27)) hide)
    )
    (property "Value" "PWR_FLAG" (at 165.1 148.0058 0)
      (effects (font (size 1.27 1.27)))
    )
    (property "Footprint" "" (at 165.1 152.4 0)
      (effects (font (size 1.27 1.27)) hide)
    )
    (property "Datasheet" "~" (at 165.1 152.4 0)
      (effects (font (size 1.27 1.27)) hide)
    )
    (pin "1" (uuid 39ee42c7-a7f2-40ad-8d24-b86da3e3b182))
    (instances
      (project "controlBoard"
        (path "/6b656370-4139-43b2-867e-1dccc97eccaa/00000000-0000-0000-0000-00005dfadf1e"
          (reference "#FLG0101") (unit 1)
        )
      )
    )
  )

  (symbol (lib_id "rofi:SD8942") (at 95.25 154.94 0) (unit 1)
    (in_bom yes) (on_board yes) (dnp no)
    (uuid 00000000-0000-0000-0000-00006110b9d4)
    (property "Reference" "U4" (at 90.17 148.59 0)
      (effects (font (size 1.27 1.27)))
    )
    (property "Value" "SD8942" (at 95.25 157.48 0)
      (effects (font (size 1.27 1.27)))
    )
    (property "Footprint" "Package_TO_SOT_SMD:SOT-23-6" (at 95.25 163.83 0)
      (effects (font (size 1.27 1.27)) hide)
    )
    (property "Datasheet" "" (at 95.25 154.94 0)
      (effects (font (size 1.27 1.27)) hide)
    )
    (property "LCSC" "C250795" (at 95.25 154.94 0)
      (effects (font (size 1.27 1.27)) hide)
    )
    (property "JLCPCB_CORRECTION" "0;0;-90" (at 95.25 154.94 0)
      (effects (font (size 1.27 1.27)) hide)
    )
    (pin "1" (uuid bd11cda2-d9a5-436f-82f1-adfd50917b86))
    (pin "2" (uuid 499670da-cbd2-42ee-a7ae-1171306a1d34))
    (pin "3" (uuid 765a33ea-0231-4ea6-9d4d-231e2d28e34d))
    (pin "4" (uuid df20ce90-bf63-4baf-8423-404f24c15135))
    (pin "5" (uuid 0c8bde60-691e-453a-b685-1fa6b0af348f))
    (pin "6" (uuid 0730e881-b4c4-4ddf-ae4d-d74735f1b280))
    (instances
      (project "controlBoard"
        (path "/6b656370-4139-43b2-867e-1dccc97eccaa/00000000-0000-0000-0000-00005dfadf1e"
          (reference "U4") (unit 1)
        )
      )
    )
  )

  (symbol (lib_id "Device:R") (at 129.54 156.21 0) (unit 1)
    (in_bom yes) (on_board yes) (dnp no)
    (uuid 00000000-0000-0000-0000-00006110b9df)
    (property "Reference" "R7" (at 131.318 155.0416 0)
      (effects (font (size 1.27 1.27)) (justify left))
    )
    (property "Value" "100k" (at 131.318 157.353 0)
      (effects (font (size 1.27 1.27)) (justify left))
    )
    (property "Footprint" "Resistor_SMD:R_0402_1005Metric" (at 127.762 156.21 90)
      (effects (font (size 1.27 1.27)) hide)
    )
    (property "Datasheet" "~" (at 129.54 156.21 0)
      (effects (font (size 1.27 1.27)) hide)
    )
    (property "LCSC" "C25741" (at 129.54 156.21 0)
      (effects (font (size 1.27 1.27)) hide)
    )
    (pin "1" (uuid f5822cfc-6cc9-4f74-82ec-1cec060bb43b))
    (pin "2" (uuid 1db39b50-e9a5-422d-b808-7752d7e5d1fd))
    (instances
      (project "controlBoard"
        (path "/6b656370-4139-43b2-867e-1dccc97eccaa/00000000-0000-0000-0000-00005dfadf1e"
          (reference "R7") (unit 1)
        )
      )
    )
  )

  (symbol (lib_id "Device:Buzzer") (at 233.68 124.46 0) (unit 1)
    (in_bom yes) (on_board yes) (dnp no)
    (uuid 00000000-0000-0000-0000-00006115a373)
    (property "Reference" "U9" (at 235.0262 128.9812 90)
      (effects (font (size 1.524 1.524)) (justify right))
    )
    (property "Value" "PIEZO" (at 232.3338 128.9812 90)
      (effects (font (size 1.524 1.524)) (justify right))
    )
    (property "Footprint" "rofi:CST-931AP" (at 233.68 124.46 0)
      (effects (font (size 1.524 1.524)) hide)
    )
    (property "Datasheet" "" (at 233.68 124.46 0)
      (effects (font (size 1.524 1.524)))
    )
    (property "MFR" "CST-931AP" (at 233.68 124.46 90)
      (effects (font (size 1.27 1.27)) hide)
    )
    (property "MFR_QTY" "1" (at 233.68 124.46 0)
      (effects (font (size 1.27 1.27)) hide)
    )
    (property "JLCPCB_IGNORE" "YES" (at 233.68 124.46 0)
      (effects (font (size 1.27 1.27)) hide)
    )
    (pin "1" (uuid 76bc701e-b590-4b6f-b939-d76e2ef87361))
    (pin "2" (uuid 88626a25-9f4c-4d6d-9f10-dc6deab683b6))
    (instances
      (project "controlBoard"
        (path "/6b656370-4139-43b2-867e-1dccc97eccaa/00000000-0000-0000-0000-00005dfadf1e"
          (reference "U9") (unit 1)
        )
      )
    )
  )

  (symbol (lib_id "power:PWR_FLAG") (at 39.37 81.28 0) (unit 1)
    (in_bom yes) (on_board yes) (dnp no)
    (uuid 00000000-0000-0000-0000-000061271bba)
    (property "Reference" "#FLG0107" (at 39.37 79.375 0)
      (effects (font (size 1.27 1.27)) hide)
    )
    (property "Value" "PWR_FLAG" (at 39.37 76.8858 0)
      (effects (font (size 1.27 1.27)))
    )
    (property "Footprint" "" (at 39.37 81.28 0)
      (effects (font (size 1.27 1.27)) hide)
    )
    (property "Datasheet" "~" (at 39.37 81.28 0)
      (effects (font (size 1.27 1.27)) hide)
    )
    (pin "1" (uuid 2412f560-12c7-4b8c-84ce-a1a8f1c37a4e))
    (instances
      (project "controlBoard"
        (path "/6b656370-4139-43b2-867e-1dccc97eccaa/00000000-0000-0000-0000-00005dfadf1e"
          (reference "#FLG0107") (unit 1)
        )
      )
    )
  )
)
