(kicad_sch (version 20230121) (generator eeschema)

  (uuid 784c817a-0acd-4cfb-ae54-ab41aa127b4e)

  (paper "A4")

  (lib_symbols
    (symbol "Connector_Generic:Conn_01x10" (pin_names (offset 1.016) hide) (in_bom yes) (on_board yes)
      (property "Reference" "J" (at 0 12.7 0)
        (effects (font (size 1.27 1.27)))
      )
      (property "Value" "Connector_Generic_Conn_01x10" (at 0 -15.24 0)
        (effects (font (size 1.27 1.27)))
      )
      (property "Footprint" "" (at 0 0 0)
        (effects (font (size 1.27 1.27)) hide)
      )
      (property "Datasheet" "" (at 0 0 0)
        (effects (font (size 1.27 1.27)) hide)
      )
      (property "ki_fp_filters" "Connector*:*_1x??_*" (at 0 0 0)
        (effects (font (size 1.27 1.27)) hide)
      )
      (symbol "Conn_01x10_1_1"
        (rectangle (start -1.27 -12.573) (end 0 -12.827)
          (stroke (width 0.1524) (type default))
          (fill (type none))
        )
        (rectangle (start -1.27 -10.033) (end 0 -10.287)
          (stroke (width 0.1524) (type default))
          (fill (type none))
        )
        (rectangle (start -1.27 -7.493) (end 0 -7.747)
          (stroke (width 0.1524) (type default))
          (fill (type none))
        )
        (rectangle (start -1.27 -4.953) (end 0 -5.207)
          (stroke (width 0.1524) (type default))
          (fill (type none))
        )
        (rectangle (start -1.27 -2.413) (end 0 -2.667)
          (stroke (width 0.1524) (type default))
          (fill (type none))
        )
        (rectangle (start -1.27 0.127) (end 0 -0.127)
          (stroke (width 0.1524) (type default))
          (fill (type none))
        )
        (rectangle (start -1.27 2.667) (end 0 2.413)
          (stroke (width 0.1524) (type default))
          (fill (type none))
        )
        (rectangle (start -1.27 5.207) (end 0 4.953)
          (stroke (width 0.1524) (type default))
          (fill (type none))
        )
        (rectangle (start -1.27 7.747) (end 0 7.493)
          (stroke (width 0.1524) (type default))
          (fill (type none))
        )
        (rectangle (start -1.27 10.287) (end 0 10.033)
          (stroke (width 0.1524) (type default))
          (fill (type none))
        )
        (rectangle (start -1.27 11.43) (end 1.27 -13.97)
          (stroke (width 0.254) (type default))
          (fill (type background))
        )
        (pin passive line (at -5.08 10.16 0) (length 3.81)
          (name "Pin_1" (effects (font (size 1.27 1.27))))
          (number "1" (effects (font (size 1.27 1.27))))
        )
        (pin passive line (at -5.08 -12.7 0) (length 3.81)
          (name "Pin_10" (effects (font (size 1.27 1.27))))
          (number "10" (effects (font (size 1.27 1.27))))
        )
        (pin passive line (at -5.08 7.62 0) (length 3.81)
          (name "Pin_2" (effects (font (size 1.27 1.27))))
          (number "2" (effects (font (size 1.27 1.27))))
        )
        (pin passive line (at -5.08 5.08 0) (length 3.81)
          (name "Pin_3" (effects (font (size 1.27 1.27))))
          (number "3" (effects (font (size 1.27 1.27))))
        )
        (pin passive line (at -5.08 2.54 0) (length 3.81)
          (name "Pin_4" (effects (font (size 1.27 1.27))))
          (number "4" (effects (font (size 1.27 1.27))))
        )
        (pin passive line (at -5.08 0 0) (length 3.81)
          (name "Pin_5" (effects (font (size 1.27 1.27))))
          (number "5" (effects (font (size 1.27 1.27))))
        )
        (pin passive line (at -5.08 -2.54 0) (length 3.81)
          (name "Pin_6" (effects (font (size 1.27 1.27))))
          (number "6" (effects (font (size 1.27 1.27))))
        )
        (pin passive line (at -5.08 -5.08 0) (length 3.81)
          (name "Pin_7" (effects (font (size 1.27 1.27))))
          (number "7" (effects (font (size 1.27 1.27))))
        )
        (pin passive line (at -5.08 -7.62 0) (length 3.81)
          (name "Pin_8" (effects (font (size 1.27 1.27))))
          (number "8" (effects (font (size 1.27 1.27))))
        )
        (pin passive line (at -5.08 -10.16 0) (length 3.81)
          (name "Pin_9" (effects (font (size 1.27 1.27))))
          (number "9" (effects (font (size 1.27 1.27))))
        )
      )
    )
  )


  (wire (pts (xy 127 92.71) (xy 154.94 92.71))
    (stroke (width 0) (type default))
    (uuid 171c6d6b-d8a3-45ee-813a-fc07f13bab6e)
  )
  (wire (pts (xy 127 87.63) (xy 154.94 87.63))
    (stroke (width 0) (type default))
    (uuid 458d7151-3368-4158-a78f-4d062a7daa1f)
  )
  (wire (pts (xy 154.94 97.79) (xy 127 97.79))
    (stroke (width 0) (type default))
    (uuid 8b69bc3e-63c9-45c1-a823-8774035eade6)
  )
  (wire (pts (xy 154.94 85.09) (xy 127 85.09))
    (stroke (width 0) (type default))
    (uuid a1a22d75-7ff8-47e4-bfd8-650b6d4c0e06)
  )
  (wire (pts (xy 127 95.25) (xy 154.94 95.25))
    (stroke (width 0) (type default))
    (uuid a20ff201-0dd4-4d7e-8676-e08cec4b3918)
  )
  (wire (pts (xy 154.94 102.87) (xy 127 102.87))
    (stroke (width 0) (type default))
    (uuid bc0d10d3-424f-4118-8b94-3c8b17d0aa6a)
  )
  (wire (pts (xy 127 100.33) (xy 154.94 100.33))
    (stroke (width 0) (type default))
    (uuid cc14d7cf-7bdd-4c37-908d-46b901f296eb)
  )
  (wire (pts (xy 127 82.55) (xy 154.94 82.55))
    (stroke (width 0) (type default))
    (uuid d089630a-f631-4af0-9c8c-3b824a02ab66)
  )
  (wire (pts (xy 154.94 80.01) (xy 127 80.01))
    (stroke (width 0) (type default))
    (uuid d7981f6f-3210-4e56-a918-15d8e26bbe4b)
  )
  (wire (pts (xy 154.94 90.17) (xy 127 90.17))
    (stroke (width 0) (type default))
    (uuid fc373694-b1fe-4190-9174-5fbab6e3a842)
  )

  (label "VCC" (at 154.94 87.63 180) (fields_autoplaced)
    (effects (font (size 1.27 1.27)) (justify right bottom))
    (uuid 4f3277a4-89ef-47ff-bf84-0eb7f04d934a)
  )
  (label "GND1" (at 154.94 80.01 180) (fields_autoplaced)
    (effects (font (size 1.27 1.27)) (justify right bottom))
    (uuid 75ca1889-52f8-4aa7-aeec-446403df8107)
  )
  (label "SS1" (at 151.13 90.17 0) (fields_autoplaced)
    (effects (font (size 1.27 1.27)) (justify left bottom))
    (uuid 9dc38975-a78c-41fb-9875-43f755dba22e)
  )
  (label "INT" (at 154.94 85.09 180) (fields_autoplaced)
    (effects (font (size 1.27 1.27)) (justify right bottom))
    (uuid ac5f224f-942d-4487-a57b-ed6279256992)
  )
  (label "EXT" (at 154.94 82.55 180) (fields_autoplaced)
    (effects (font (size 1.27 1.27)) (justify right bottom))
    (uuid b6ea5079-0d9f-4dd9-9043-25034246aef2)
  )
  (label "GND2" (at 154.94 102.87 180) (fields_autoplaced)
    (effects (font (size 1.27 1.27)) (justify right bottom))
    (uuid c5407964-786c-4c52-8a85-9e02e33ac502)
  )
  (label "SCK" (at 154.94 100.33 180) (fields_autoplaced)
    (effects (font (size 1.27 1.27)) (justify right bottom))
    (uuid c66748ce-633a-4c02-b9e4-e79fabd3d71b)
  )
  (label "SS2" (at 151.13 92.71 0) (fields_autoplaced)
    (effects (font (size 1.27 1.27)) (justify left bottom))
    (uuid ec850698-f53d-419c-a92e-32cda6a2f1e5)
  )
  (label "SS3" (at 151.13 95.25 0) (fields_autoplaced)
    (effects (font (size 1.27 1.27)) (justify left bottom))
    (uuid ecbd28d3-5afc-4be9-9425-181a14fad49d)
  )
  (label "MISO" (at 154.94 97.79 180) (fields_autoplaced)
    (effects (font (size 1.27 1.27)) (justify right bottom))
    (uuid f30fedb3-2855-48d3-bf28-72ecf72016fa)
  )

  (symbol (lib_id "Connector_Generic:Conn_01x10") (at 160.02 92.71 0) (mirror x) (unit 1)
    (in_bom yes) (on_board yes) (dnp no)
    (uuid 00000000-0000-0000-0000-000061b97407)
    (property "Reference" "J41" (at 157.48 109.22 0)
      (effects (font (size 1.27 1.27)) (justify left))
    )
    (property "Value" "B" (at 154.94 106.68 0)
      (effects (font (size 1.27 1.27)) (justify left))
    )
    (property "Footprint" "rofi:UM_SHOE_PADS_BOTH" (at 160.02 92.71 0)
      (effects (font (size 1.27 1.27)) hide)
    )
    (property "Datasheet" "~" (at 160.02 92.71 0)
      (effects (font (size 1.27 1.27)) hide)
    )
    (property "JLCPCB_IGNORE" "YES" (at 160.02 92.71 0)
      (effects (font (size 1.27 1.27)) hide)
    )
    (pin "1" (uuid b190db16-398a-4a28-b16b-3ce49fbf350e))
    (pin "10" (uuid 131ca2c0-c81b-4599-9025-75393103b45c))
    (pin "2" (uuid aea5036e-7806-4fe6-8766-557359bd243e))
    (pin "3" (uuid 79261677-4f92-4152-99f0-b20c5cfa7447))
    (pin "4" (uuid 7bc347ae-60f9-475d-b784-9e8a6365f681))
    (pin "5" (uuid 1e6ae6ad-1538-4c42-93d3-be75b3686711))
    (pin "6" (uuid 13660d3e-90ba-4bc5-bdc0-c0d3595812a8))
    (pin "7" (uuid 1453e2d9-508c-4b79-a2ad-c6f4337630f0))
    (pin "8" (uuid 945ff0a9-7f65-41c2-8e10-eda1691369c2))
    (pin "9" (uuid 768e03f9-75a1-46de-ab04-a81b4733b764))
    (instances
      (project "controlBoard"
        (path "/6b656370-4139-43b2-867e-1dccc97eccaa/00000000-0000-0000-0000-0000619e4ace/00000000-0000-0000-0000-000061b96469"
          (reference "J41") (unit 1)
        )
      )
    )
  )

  (symbol (lib_id "Connector_Generic:Conn_01x10") (at 121.92 92.71 180) (unit 1)
    (in_bom yes) (on_board yes) (dnp no)
    (uuid 00000000-0000-0000-0000-000061b97410)
    (property "Reference" "J40" (at 124.46 109.22 0)
      (effects (font (size 1.27 1.27)) (justify left))
    )
    (property "Value" "A" (at 127 106.68 0)
      (effects (font (size 1.27 1.27)) (justify left))
    )
    (property "Footprint" "rofi:UM_SHOE_PADS_BOTH" (at 121.92 92.71 0)
      (effects (font (size 1.27 1.27)) hide)
    )
    (property "Datasheet" "~" (at 121.92 92.71 0)
      (effects (font (size 1.27 1.27)) hide)
    )
    (property "JLCPCB_IGNORE" "YES" (at 121.92 92.71 0)
      (effects (font (size 1.27 1.27)) hide)
    )
    (pin "1" (uuid 956337aa-ff7b-4d10-b8a1-55c8e37ae353))
    (pin "10" (uuid 17b1edad-c7d2-4322-913e-f63a395b65e4))
    (pin "2" (uuid 8aa5b192-c21d-4bcf-b2f0-0fc9730f3fc5))
    (pin "3" (uuid 51e962b5-de20-4bfe-bd0e-f35db7c5e32a))
    (pin "4" (uuid 2f5363c4-bb0f-4445-b05d-4277721b7543))
    (pin "5" (uuid 86994718-4b1f-4607-abab-515f6973a22e))
    (pin "6" (uuid f82a0ec4-53ff-4f36-95c3-bef6973de7b2))
    (pin "7" (uuid 5719f97c-f161-42be-acb4-abf726e20be7))
    (pin "8" (uuid f85c5b90-0f0f-4dd5-8f3f-a7f9541f25b6))
    (pin "9" (uuid cc13b50b-2b73-418b-964b-990ef2bd6bc1))
    (instances
      (project "controlBoard"
        (path "/6b656370-4139-43b2-867e-1dccc97eccaa/00000000-0000-0000-0000-0000619e4ace/00000000-0000-0000-0000-000061b96469"
          (reference "J40") (unit 1)
        )
      )
    )
  )
)
