(kicad_sch (version 20230121) (generator eeschema)

  (uuid 5e0e9869-af81-4a3e-ad08-271d45318b88)

  (paper "A4")

  (title_block
    (title "TSAC Relay Controller")
    (date "2023-04-27")
    (rev "2.0.0")
    (company "SUFST - Southampton University Formula Student Team")
    (comment 1 "STAG 9")
    (comment 2 "Tim Brewis")
    (comment 3 "Max O'Brien, Marek Frodyma")
  )

  (lib_symbols
    (symbol "Connector_Generic:Conn_01x04" (pin_names (offset 1.016) hide) (in_bom yes) (on_board yes)
      (property "Reference" "J" (at 0 5.08 0)
        (effects (font (size 1.27 1.27)))
      )
      (property "Value" "Conn_01x04" (at 0 -7.62 0)
        (effects (font (size 1.27 1.27)))
      )
      (property "Footprint" "" (at 0 0 0)
        (effects (font (size 1.27 1.27)) hide)
      )
      (property "Datasheet" "~" (at 0 0 0)
        (effects (font (size 1.27 1.27)) hide)
      )
      (property "ki_keywords" "connector" (at 0 0 0)
        (effects (font (size 1.27 1.27)) hide)
      )
      (property "ki_description" "Generic connector, single row, 01x04, script generated (kicad-library-utils/schlib/autogen/connector/)" (at 0 0 0)
        (effects (font (size 1.27 1.27)) hide)
      )
      (property "ki_fp_filters" "Connector*:*_1x??_*" (at 0 0 0)
        (effects (font (size 1.27 1.27)) hide)
      )
      (symbol "Conn_01x04_1_1"
        (rectangle (start -1.27 -4.953) (end 0 -5.207)
          (stroke (width 0.1524) (type default))
          (fill (type none))
        )
        (rectangle (start -1.27 -2.413) (end 0 -2.667)
          (stroke (width 0.1524) (type default))
          (fill (type none))
        )
        (rectangle (start -1.27 0.127) (end 0 -0.127)
          (stroke (width 0.1524) (type default))
          (fill (type none))
        )
        (rectangle (start -1.27 2.667) (end 0 2.413)
          (stroke (width 0.1524) (type default))
          (fill (type none))
        )
        (rectangle (start -1.27 3.81) (end 1.27 -6.35)
          (stroke (width 0.254) (type default))
          (fill (type background))
        )
        (pin passive line (at -5.08 2.54 0) (length 3.81)
          (name "Pin_1" (effects (font (size 1.27 1.27))))
          (number "1" (effects (font (size 1.27 1.27))))
        )
        (pin passive line (at -5.08 0 0) (length 3.81)
          (name "Pin_2" (effects (font (size 1.27 1.27))))
          (number "2" (effects (font (size 1.27 1.27))))
        )
        (pin passive line (at -5.08 -2.54 0) (length 3.81)
          (name "Pin_3" (effects (font (size 1.27 1.27))))
          (number "3" (effects (font (size 1.27 1.27))))
        )
        (pin passive line (at -5.08 -5.08 0) (length 3.81)
          (name "Pin_4" (effects (font (size 1.27 1.27))))
          (number "4" (effects (font (size 1.27 1.27))))
        )
      )
    )
    (symbol "Device:C_Polarized" (pin_numbers hide) (pin_names (offset 0.254)) (in_bom yes) (on_board yes)
      (property "Reference" "C" (at 0.635 2.54 0)
        (effects (font (size 1.27 1.27)) (justify left))
      )
      (property "Value" "C_Polarized" (at 0.635 -2.54 0)
        (effects (font (size 1.27 1.27)) (justify left))
      )
      (property "Footprint" "" (at 0.9652 -3.81 0)
        (effects (font (size 1.27 1.27)) hide)
      )
      (property "Datasheet" "~" (at 0 0 0)
        (effects (font (size 1.27 1.27)) hide)
      )
      (property "ki_keywords" "cap capacitor" (at 0 0 0)
        (effects (font (size 1.27 1.27)) hide)
      )
      (property "ki_description" "Polarized capacitor" (at 0 0 0)
        (effects (font (size 1.27 1.27)) hide)
      )
      (property "ki_fp_filters" "CP_*" (at 0 0 0)
        (effects (font (size 1.27 1.27)) hide)
      )
      (symbol "C_Polarized_0_1"
        (rectangle (start -2.286 0.508) (end 2.286 1.016)
          (stroke (width 0) (type default))
          (fill (type none))
        )
        (polyline
          (pts
            (xy -1.778 2.286)
            (xy -0.762 2.286)
          )
          (stroke (width 0) (type default))
          (fill (type none))
        )
        (polyline
          (pts
            (xy -1.27 2.794)
            (xy -1.27 1.778)
          )
          (stroke (width 0) (type default))
          (fill (type none))
        )
        (rectangle (start 2.286 -0.508) (end -2.286 -1.016)
          (stroke (width 0) (type default))
          (fill (type outline))
        )
      )
      (symbol "C_Polarized_1_1"
        (pin passive line (at 0 3.81 270) (length 2.794)
          (name "~" (effects (font (size 1.27 1.27))))
          (number "1" (effects (font (size 1.27 1.27))))
        )
        (pin passive line (at 0 -3.81 90) (length 2.794)
          (name "~" (effects (font (size 1.27 1.27))))
          (number "2" (effects (font (size 1.27 1.27))))
        )
      )
    )
    (symbol "Device:D" (pin_numbers hide) (pin_names (offset 1.016) hide) (in_bom yes) (on_board yes)
      (property "Reference" "D" (at 0 2.54 0)
        (effects (font (size 1.27 1.27)))
      )
      (property "Value" "D" (at 0 -2.54 0)
        (effects (font (size 1.27 1.27)))
      )
      (property "Footprint" "" (at 0 0 0)
        (effects (font (size 1.27 1.27)) hide)
      )
      (property "Datasheet" "~" (at 0 0 0)
        (effects (font (size 1.27 1.27)) hide)
      )
      (property "Sim.Device" "D" (at 0 0 0)
        (effects (font (size 1.27 1.27)) hide)
      )
      (property "Sim.Pins" "1=K 2=A" (at 0 0 0)
        (effects (font (size 1.27 1.27)) hide)
      )
      (property "ki_keywords" "diode" (at 0 0 0)
        (effects (font (size 1.27 1.27)) hide)
      )
      (property "ki_description" "Diode" (at 0 0 0)
        (effects (font (size 1.27 1.27)) hide)
      )
      (property "ki_fp_filters" "TO-???* *_Diode_* *SingleDiode* D_*" (at 0 0 0)
        (effects (font (size 1.27 1.27)) hide)
      )
      (symbol "D_0_1"
        (polyline
          (pts
            (xy -1.27 1.27)
            (xy -1.27 -1.27)
          )
          (stroke (width 0.254) (type default))
          (fill (type none))
        )
        (polyline
          (pts
            (xy 1.27 0)
            (xy -1.27 0)
          )
          (stroke (width 0) (type default))
          (fill (type none))
        )
        (polyline
          (pts
            (xy 1.27 1.27)
            (xy 1.27 -1.27)
            (xy -1.27 0)
            (xy 1.27 1.27)
          )
          (stroke (width 0.254) (type default))
          (fill (type none))
        )
      )
      (symbol "D_1_1"
        (pin passive line (at -3.81 0 0) (length 2.54)
          (name "K" (effects (font (size 1.27 1.27))))
          (number "1" (effects (font (size 1.27 1.27))))
        )
        (pin passive line (at 3.81 0 180) (length 2.54)
          (name "A" (effects (font (size 1.27 1.27))))
          (number "2" (effects (font (size 1.27 1.27))))
        )
      )
    )
    (symbol "Device:Fuse" (pin_numbers hide) (pin_names (offset 0)) (in_bom yes) (on_board yes)
      (property "Reference" "F" (at 2.032 0 90)
        (effects (font (size 1.27 1.27)))
      )
      (property "Value" "Fuse" (at -1.905 0 90)
        (effects (font (size 1.27 1.27)))
      )
      (property "Footprint" "" (at -1.778 0 90)
        (effects (font (size 1.27 1.27)) hide)
      )
      (property "Datasheet" "~" (at 0 0 0)
        (effects (font (size 1.27 1.27)) hide)
      )
      (property "ki_keywords" "fuse" (at 0 0 0)
        (effects (font (size 1.27 1.27)) hide)
      )
      (property "ki_description" "Fuse" (at 0 0 0)
        (effects (font (size 1.27 1.27)) hide)
      )
      (property "ki_fp_filters" "*Fuse*" (at 0 0 0)
        (effects (font (size 1.27 1.27)) hide)
      )
      (symbol "Fuse_0_1"
        (rectangle (start -0.762 -2.54) (end 0.762 2.54)
          (stroke (width 0.254) (type default))
          (fill (type none))
        )
        (polyline
          (pts
            (xy 0 2.54)
            (xy 0 -2.54)
          )
          (stroke (width 0) (type default))
          (fill (type none))
        )
      )
      (symbol "Fuse_1_1"
        (pin passive line (at 0 3.81 270) (length 1.27)
          (name "~" (effects (font (size 1.27 1.27))))
          (number "1" (effects (font (size 1.27 1.27))))
        )
        (pin passive line (at 0 -3.81 90) (length 1.27)
          (name "~" (effects (font (size 1.27 1.27))))
          (number "2" (effects (font (size 1.27 1.27))))
        )
      )
    )
    (symbol "Device:LED" (pin_numbers hide) (pin_names (offset 1.016) hide) (in_bom yes) (on_board yes)
      (property "Reference" "D" (at 0 2.54 0)
        (effects (font (size 1.27 1.27)))
      )
      (property "Value" "LED" (at 0 -2.54 0)
        (effects (font (size 1.27 1.27)))
      )
      (property "Footprint" "" (at 0 0 0)
        (effects (font (size 1.27 1.27)) hide)
      )
      (property "Datasheet" "~" (at 0 0 0)
        (effects (font (size 1.27 1.27)) hide)
      )
      (property "ki_keywords" "LED diode" (at 0 0 0)
        (effects (font (size 1.27 1.27)) hide)
      )
      (property "ki_description" "Light emitting diode" (at 0 0 0)
        (effects (font (size 1.27 1.27)) hide)
      )
      (property "ki_fp_filters" "LED* LED_SMD:* LED_THT:*" (at 0 0 0)
        (effects (font (size 1.27 1.27)) hide)
      )
      (symbol "LED_0_1"
        (polyline
          (pts
            (xy -1.27 -1.27)
            (xy -1.27 1.27)
          )
          (stroke (width 0.254) (type default))
          (fill (type none))
        )
        (polyline
          (pts
            (xy -1.27 0)
            (xy 1.27 0)
          )
          (stroke (width 0) (type default))
          (fill (type none))
        )
        (polyline
          (pts
            (xy 1.27 -1.27)
            (xy 1.27 1.27)
            (xy -1.27 0)
            (xy 1.27 -1.27)
          )
          (stroke (width 0.254) (type default))
          (fill (type none))
        )
        (polyline
          (pts
            (xy -3.048 -0.762)
            (xy -4.572 -2.286)
            (xy -3.81 -2.286)
            (xy -4.572 -2.286)
            (xy -4.572 -1.524)
          )
          (stroke (width 0) (type default))
          (fill (type none))
        )
        (polyline
          (pts
            (xy -1.778 -0.762)
            (xy -3.302 -2.286)
            (xy -2.54 -2.286)
            (xy -3.302 -2.286)
            (xy -3.302 -1.524)
          )
          (stroke (width 0) (type default))
          (fill (type none))
        )
      )
      (symbol "LED_1_1"
        (pin passive line (at -3.81 0 0) (length 2.54)
          (name "K" (effects (font (size 1.27 1.27))))
          (number "1" (effects (font (size 1.27 1.27))))
        )
        (pin passive line (at 3.81 0 180) (length 2.54)
          (name "A" (effects (font (size 1.27 1.27))))
          (number "2" (effects (font (size 1.27 1.27))))
        )
      )
    )
    (symbol "Device:R_Small" (pin_numbers hide) (pin_names (offset 0.254) hide) (in_bom yes) (on_board yes)
      (property "Reference" "R" (at 0.762 0.508 0)
        (effects (font (size 1.27 1.27)) (justify left))
      )
      (property "Value" "R_Small" (at 0.762 -1.016 0)
        (effects (font (size 1.27 1.27)) (justify left))
      )
      (property "Footprint" "" (at 0 0 0)
        (effects (font (size 1.27 1.27)) hide)
      )
      (property "Datasheet" "~" (at 0 0 0)
        (effects (font (size 1.27 1.27)) hide)
      )
      (property "ki_keywords" "R resistor" (at 0 0 0)
        (effects (font (size 1.27 1.27)) hide)
      )
      (property "ki_description" "Resistor, small symbol" (at 0 0 0)
        (effects (font (size 1.27 1.27)) hide)
      )
      (property "ki_fp_filters" "R_*" (at 0 0 0)
        (effects (font (size 1.27 1.27)) hide)
      )
      (symbol "R_Small_0_1"
        (rectangle (start -0.762 1.778) (end 0.762 -1.778)
          (stroke (width 0.2032) (type default))
          (fill (type none))
        )
      )
      (symbol "R_Small_1_1"
        (pin passive line (at 0 2.54 270) (length 0.762)
          (name "~" (effects (font (size 1.27 1.27))))
          (number "1" (effects (font (size 1.27 1.27))))
        )
        (pin passive line (at 0 -2.54 90) (length 0.762)
          (name "~" (effects (font (size 1.27 1.27))))
          (number "2" (effects (font (size 1.27 1.27))))
        )
      )
    )
    (symbol "Mechanical:MountingHole" (pin_names (offset 1.016)) (in_bom yes) (on_board yes)
      (property "Reference" "H" (at 0 5.08 0)
        (effects (font (size 1.27 1.27)))
      )
      (property "Value" "MountingHole" (at 0 3.175 0)
        (effects (font (size 1.27 1.27)))
      )
      (property "Footprint" "" (at 0 0 0)
        (effects (font (size 1.27 1.27)) hide)
      )
      (property "Datasheet" "~" (at 0 0 0)
        (effects (font (size 1.27 1.27)) hide)
      )
      (property "ki_keywords" "mounting hole" (at 0 0 0)
        (effects (font (size 1.27 1.27)) hide)
      )
      (property "ki_description" "Mounting Hole without connection" (at 0 0 0)
        (effects (font (size 1.27 1.27)) hide)
      )
      (property "ki_fp_filters" "MountingHole*" (at 0 0 0)
        (effects (font (size 1.27 1.27)) hide)
      )
      (symbol "MountingHole_0_1"
        (circle (center 0 0) (radius 1.27)
          (stroke (width 1.27) (type default))
          (fill (type none))
        )
      )
    )
    (symbol "Switch:SW_SPDT" (pin_names (offset 0) hide) (in_bom yes) (on_board yes)
      (property "Reference" "SW" (at 0 4.318 0)
        (effects (font (size 1.27 1.27)))
      )
      (property "Value" "SW_SPDT" (at 0 -5.08 0)
        (effects (font (size 1.27 1.27)))
      )
      (property "Footprint" "" (at 0 0 0)
        (effects (font (size 1.27 1.27)) hide)
      )
      (property "Datasheet" "~" (at 0 0 0)
        (effects (font (size 1.27 1.27)) hide)
      )
      (property "ki_keywords" "switch single-pole double-throw spdt ON-ON" (at 0 0 0)
        (effects (font (size 1.27 1.27)) hide)
      )
      (property "ki_description" "Switch, single pole double throw" (at 0 0 0)
        (effects (font (size 1.27 1.27)) hide)
      )
      (symbol "SW_SPDT_0_0"
        (circle (center -2.032 0) (radius 0.508)
          (stroke (width 0) (type default))
          (fill (type none))
        )
        (circle (center 2.032 -2.54) (radius 0.508)
          (stroke (width 0) (type default))
          (fill (type none))
        )
      )
      (symbol "SW_SPDT_0_1"
        (polyline
          (pts
            (xy -1.524 0.254)
            (xy 1.651 2.286)
          )
          (stroke (width 0) (type default))
          (fill (type none))
        )
        (circle (center 2.032 2.54) (radius 0.508)
          (stroke (width 0) (type default))
          (fill (type none))
        )
      )
      (symbol "SW_SPDT_1_1"
        (pin passive line (at 5.08 2.54 180) (length 2.54)
          (name "A" (effects (font (size 1.27 1.27))))
          (number "1" (effects (font (size 1.27 1.27))))
        )
        (pin passive line (at -5.08 0 0) (length 2.54)
          (name "B" (effects (font (size 1.27 1.27))))
          (number "2" (effects (font (size 1.27 1.27))))
        )
        (pin passive line (at 5.08 -2.54 180) (length 2.54)
          (name "C" (effects (font (size 1.27 1.27))))
          (number "3" (effects (font (size 1.27 1.27))))
        )
      )
    )
    (symbol "power:+12V" (power) (pin_names (offset 0)) (in_bom yes) (on_board yes)
      (property "Reference" "#PWR" (at 0 -3.81 0)
        (effects (font (size 1.27 1.27)) hide)
      )
      (property "Value" "+12V" (at 0 3.556 0)
        (effects (font (size 1.27 1.27)))
      )
      (property "Footprint" "" (at 0 0 0)
        (effects (font (size 1.27 1.27)) hide)
      )
      (property "Datasheet" "" (at 0 0 0)
        (effects (font (size 1.27 1.27)) hide)
      )
      (property "ki_keywords" "global power" (at 0 0 0)
        (effects (font (size 1.27 1.27)) hide)
      )
      (property "ki_description" "Power symbol creates a global label with name \"+12V\"" (at 0 0 0)
        (effects (font (size 1.27 1.27)) hide)
      )
      (symbol "+12V_0_1"
        (polyline
          (pts
            (xy -0.762 1.27)
            (xy 0 2.54)
          )
          (stroke (width 0) (type default))
          (fill (type none))
        )
        (polyline
          (pts
            (xy 0 0)
            (xy 0 2.54)
          )
          (stroke (width 0) (type default))
          (fill (type none))
        )
        (polyline
          (pts
            (xy 0 2.54)
            (xy 0.762 1.27)
          )
          (stroke (width 0) (type default))
          (fill (type none))
        )
      )
      (symbol "+12V_1_1"
        (pin power_in line (at 0 0 90) (length 0) hide
          (name "+12V" (effects (font (size 1.27 1.27))))
          (number "1" (effects (font (size 1.27 1.27))))
        )
      )
    )
    (symbol "power:GND" (power) (pin_names (offset 0)) (in_bom yes) (on_board yes)
      (property "Reference" "#PWR" (at 0 -6.35 0)
        (effects (font (size 1.27 1.27)) hide)
      )
      (property "Value" "GND" (at 0 -3.81 0)
        (effects (font (size 1.27 1.27)))
      )
      (property "Footprint" "" (at 0 0 0)
        (effects (font (size 1.27 1.27)) hide)
      )
      (property "Datasheet" "" (at 0 0 0)
        (effects (font (size 1.27 1.27)) hide)
      )
      (property "ki_keywords" "global power" (at 0 0 0)
        (effects (font (size 1.27 1.27)) hide)
      )
      (property "ki_description" "Power symbol creates a global label with name \"GND\" , ground" (at 0 0 0)
        (effects (font (size 1.27 1.27)) hide)
      )
      (symbol "GND_0_1"
        (polyline
          (pts
            (xy 0 0)
            (xy 0 -1.27)
            (xy 1.27 -1.27)
            (xy 0 -2.54)
            (xy -1.27 -1.27)
            (xy 0 -1.27)
          )
          (stroke (width 0) (type default))
          (fill (type none))
        )
      )
      (symbol "GND_1_1"
        (pin power_in line (at 0 0 270) (length 0) hide
          (name "GND" (effects (font (size 1.27 1.27))))
          (number "1" (effects (font (size 1.27 1.27))))
        )
      )
    )
    (symbol "power:PWR_FLAG" (power) (pin_numbers hide) (pin_names (offset 0) hide) (in_bom yes) (on_board yes)
      (property "Reference" "#FLG" (at 0 1.905 0)
        (effects (font (size 1.27 1.27)) hide)
      )
      (property "Value" "PWR_FLAG" (at 0 3.81 0)
        (effects (font (size 1.27 1.27)))
      )
      (property "Footprint" "" (at 0 0 0)
        (effects (font (size 1.27 1.27)) hide)
      )
      (property "Datasheet" "~" (at 0 0 0)
        (effects (font (size 1.27 1.27)) hide)
      )
      (property "ki_keywords" "flag power" (at 0 0 0)
        (effects (font (size 1.27 1.27)) hide)
      )
      (property "ki_description" "Special symbol for telling ERC where power comes from" (at 0 0 0)
        (effects (font (size 1.27 1.27)) hide)
      )
      (symbol "PWR_FLAG_0_0"
        (pin power_out line (at 0 0 90) (length 0)
          (name "pwr" (effects (font (size 1.27 1.27))))
          (number "1" (effects (font (size 1.27 1.27))))
        )
      )
      (symbol "PWR_FLAG_0_1"
        (polyline
          (pts
            (xy 0 0)
            (xy 0 1.27)
            (xy -1.016 1.905)
            (xy 0 2.54)
            (xy 1.016 1.905)
            (xy 0 1.27)
          )
          (stroke (width 0) (type default))
          (fill (type none))
        )
      )
    )
  )

  (bus_alias "RELAY_STATES" (members "CLOSE_POS_AIR" "CLOSE_NEG_AIR" "CLOSE_PCHG_RLY" "CHG_EN"))
  (junction (at 50.8 156.21) (diameter 0) (color 0 0 0 0)
    (uuid 09ed8f5a-df2a-4bcd-9c8a-36bd9de10010)
  )
  (junction (at 60.96 148.59) (diameter 0) (color 0 0 0 0)
    (uuid 0bc48edc-62a7-4a21-9772-7274d9fcad16)
  )
  (junction (at 81.28 62.23) (diameter 0) (color 0 0 0 0)
    (uuid 13081384-b301-4be5-9654-ccefe75cfa60)
  )
  (junction (at 50.8 148.59) (diameter 0) (color 0 0 0 0)
    (uuid 200f78b3-578b-4966-b836-db6341f2ded6)
  )
  (junction (at 87.63 59.69) (diameter 0) (color 0 0 0 0)
    (uuid 4aec4bc0-eaba-4945-84da-f6a9037127e5)
  )
  (junction (at 85.09 29.21) (diameter 0) (color 0 0 0 0)
    (uuid 50d3f2f4-bba4-421d-88ee-94cbdb34998c)
  )
  (junction (at 84.455 113.03) (diameter 0) (color 0 0 0 0)
    (uuid 5c5565e1-a051-45d2-a0d7-d636853fc57e)
  )
  (junction (at 90.17 57.15) (diameter 0) (color 0 0 0 0)
    (uuid 61fbf6df-e51c-48b1-82ac-b5338c8d5c88)
  )
  (junction (at 50.8 173.99) (diameter 0) (color 0 0 0 0)
    (uuid 74426425-7bbc-4d39-8b55-38dcb191c35c)
  )
  (junction (at 88.9 45.72) (diameter 0) (color 0 0 0 0)
    (uuid 7ad88114-b38d-4c2b-8604-957e0bd22a02)
  )
  (junction (at 77.47 110.49) (diameter 0) (color 0 0 0 0)
    (uuid 892b1894-783e-4477-b5d6-23e5125c8fe6)
  )
  (junction (at 88.9 64.77) (diameter 0) (color 0 0 0 0)
    (uuid a5904df5-3dc4-4646-9fc3-41f03886ab26)
  )
  (junction (at 80.01 173.99) (diameter 0) (color 0 0 0 0)
    (uuid b24e62e3-ddb2-44a9-8a70-7a40e8fb7dd7)
  )
  (junction (at 57.15 67.31) (diameter 0) (color 0 0 0 0)
    (uuid b9471115-55ff-49fa-8e03-f80044d835de)
  )
  (junction (at 69.85 67.31) (diameter 0) (color 0 0 0 0)
    (uuid d3169ae8-ec5f-4e0f-b2de-3cdc6c7c54e3)
  )
  (junction (at 60.96 173.99) (diameter 0) (color 0 0 0 0)
    (uuid de67dddb-9d46-4539-9221-826c7633c943)
  )
  (junction (at 54.61 118.11) (diameter 0) (color 0 0 0 0)
    (uuid f4e7dc5c-7303-4022-ab7d-21b31eee1e83)
  )

  (bus_entry (at 168.91 59.69) (size 2.54 2.54)
    (stroke (width 0) (type default))
    (uuid 63a4e9c7-0877-4bb6-a1bb-82a70ef668d8)
  )
  (bus_entry (at 171.45 69.85) (size -2.54 -2.54)
    (stroke (width 0) (type default))
    (uuid 83755d2c-f34c-4811-b64a-0f8ce0cbaec8)
  )
  (bus_entry (at 168.91 62.23) (size 2.54 2.54)
    (stroke (width 0) (type default))
    (uuid 8d389d7a-2cd7-4243-b9da-9debeeb22e76)
  )
  (bus_entry (at 171.45 92.71) (size 2.54 -2.54)
    (stroke (width 0) (type default))
    (uuid 8d487483-80f3-4354-9891-beef13832bf3)
  )
  (bus_entry (at 171.45 116.84) (size 2.54 2.54)
    (stroke (width 0) (type default))
    (uuid 8db6db4a-b7f2-4158-9857-882244e8fdd1)
  )
  (bus_entry (at 171.45 85.09) (size 2.54 -2.54)
    (stroke (width 0) (type default))
    (uuid 9feb1d2c-92db-4788-8f3f-5313e4dc3389)
  )
  (bus_entry (at 171.45 119.38) (size 2.54 2.54)
    (stroke (width 0) (type default))
    (uuid b2781461-ffa2-45f1-b09b-342fa6c55629)
  )
  (bus_entry (at 173.99 85.09) (size -2.54 2.54)
    (stroke (width 0) (type default))
    (uuid c7710890-b855-4cc4-aca9-f0666f0dd376)
  )
  (bus_entry (at 173.99 87.63) (size -2.54 2.54)
    (stroke (width 0) (type default))
    (uuid d9ad6bad-a907-4a37-9e54-4aa6fb2bdac5)
  )
  (bus_entry (at 168.91 64.77) (size 2.54 2.54)
    (stroke (width 0) (type default))
    (uuid dd1cec72-3a23-425a-b15b-9afd6fc18c2e)
  )
  (bus_entry (at 171.45 114.3) (size 2.54 2.54)
    (stroke (width 0) (type default))
    (uuid dfcdbeff-e0d3-4a65-bb8d-47de15d3bb33)
  )

  (wire (pts (xy 84.455 102.235) (xy 84.455 103.505))
    (stroke (width 0) (type default))
    (uuid 00835dba-3b14-4313-a983-e38e0267be9a)
  )
  (wire (pts (xy 81.28 74.93) (xy 81.28 77.47))
    (stroke (width 0) (type default))
    (uuid 0146e5d0-a395-43fb-8386-040546590075)
  )
  (wire (pts (xy 82.55 29.21) (xy 85.09 29.21))
    (stroke (width 0) (type default))
    (uuid 08d5752d-ac33-49bc-9c59-628fe88fd81b)
  )
  (wire (pts (xy 87.63 45.72) (xy 87.63 48.26))
    (stroke (width 0) (type default))
    (uuid 0bd3eac1-8ae1-4588-bae2-7d3da58d55e8)
  )
  (wire (pts (xy 173.99 121.92) (xy 193.04 121.92))
    (stroke (width 0) (type default))
    (uuid 0d7ee2d7-f769-4a33-83dd-be219eeb2c91)
  )
  (wire (pts (xy 52.07 67.31) (xy 52.07 64.77))
    (stroke (width 0) (type default))
    (uuid 0e2952ff-66a8-4f42-b95e-2454bf2c7731)
  )
  (wire (pts (xy 69.85 26.67) (xy 69.85 67.31))
    (stroke (width 0) (type default))
    (uuid 0ea5cf38-40bf-43a2-9be0-21764510d6d4)
  )
  (wire (pts (xy 52.07 46.99) (xy 52.07 49.53))
    (stroke (width 0) (type default))
    (uuid 0f5c57a3-8146-4463-b2a5-a3035770d406)
  )
  (wire (pts (xy 84.455 108.585) (xy 84.455 113.03))
    (stroke (width 0) (type default))
    (uuid 0febb752-e64f-4f84-8c29-8ae849946e1b)
  )
  (polyline (pts (xy 31.75 144.78) (xy 31.75 194.31))
    (stroke (width 0) (type default))
    (uuid 11623610-72ce-4cff-944f-51bfc381d6e8)
  )

  (wire (pts (xy 48.26 156.21) (xy 50.8 156.21))
    (stroke (width 0) (type default))
    (uuid 11fee6f3-1192-4a07-9534-95373f43cb8e)
  )
  (wire (pts (xy 64.77 40.64) (xy 34.29 40.64))
    (stroke (width 0) (type default))
    (uuid 14784d02-e659-408c-a1f3-12105a745995)
  )
  (wire (pts (xy 171.45 130.81) (xy 149.86 130.81))
    (stroke (width 0) (type default))
    (uuid 14e431c4-9afa-45ab-8057-391ea1c63f9e)
  )
  (wire (pts (xy 60.96 184.15) (xy 60.96 186.69))
    (stroke (width 0) (type default))
    (uuid 174b4d68-5d73-4da1-9836-44b96ba4d61b)
  )
  (wire (pts (xy 77.47 110.49) (xy 77.47 115.57))
    (stroke (width 0) (type default))
    (uuid 1852638a-3697-4ac1-becf-93a3609702da)
  )
  (polyline (pts (xy 31.75 194.31) (xy 115.57 194.31))
    (stroke (width 0) (type default))
    (uuid 1a50af0d-bced-4339-9eac-47fc2e2630e0)
  )

  (wire (pts (xy 81.28 69.85) (xy 81.28 62.23))
    (stroke (width 0) (type default))
    (uuid 1d146e83-7070-4544-a996-345dfb9a3735)
  )
  (wire (pts (xy 88.9 43.18) (xy 88.9 45.72))
    (stroke (width 0) (type default))
    (uuid 1eab0fc3-3ab5-48a5-907e-2f13558a5a53)
  )
  (wire (pts (xy 82.55 26.67) (xy 82.55 29.21))
    (stroke (width 0) (type default))
    (uuid 1f25bbf6-b496-4e88-b16b-3fc116be2b26)
  )
  (wire (pts (xy 48.26 153.67) (xy 50.8 153.67))
    (stroke (width 0) (type default))
    (uuid 21d4e474-8c34-42c3-a77e-fb7cec321588)
  )
  (wire (pts (xy 52.07 110.49) (xy 77.47 110.49))
    (stroke (width 0) (type default))
    (uuid 21e04805-2272-440f-a9b9-9cdcd497ebad)
  )
  (wire (pts (xy 85.09 29.21) (xy 85.09 31.75))
    (stroke (width 0) (type default))
    (uuid 2266ca09-abbb-462d-94d6-28aa4da52dd6)
  )
  (wire (pts (xy 52.07 115.57) (xy 54.61 115.57))
    (stroke (width 0) (type default))
    (uuid 239673e3-5f5b-47aa-8d06-a20434887b60)
  )
  (wire (pts (xy 193.04 85.09) (xy 173.99 85.09))
    (stroke (width 0) (type default))
    (uuid 24483aa1-d776-42c4-848a-22f36a51b222)
  )
  (wire (pts (xy 48.26 151.13) (xy 50.8 151.13))
    (stroke (width 0) (type default))
    (uuid 24a15565-b5da-4291-9c86-37a08174de03)
  )
  (wire (pts (xy 52.07 113.03) (xy 84.455 113.03))
    (stroke (width 0) (type default))
    (uuid 262fd719-4771-48f8-a8a6-8779234758be)
  )
  (wire (pts (xy 87.63 59.69) (xy 93.98 59.69))
    (stroke (width 0) (type default))
    (uuid 2e5a2662-b337-4b64-90c7-d33c431b8d48)
  )
  (wire (pts (xy 81.28 62.23) (xy 72.39 62.23))
    (stroke (width 0) (type default))
    (uuid 2ef8d1ee-df71-4b83-b00d-ba1366759a61)
  )
  (wire (pts (xy 88.9 64.77) (xy 93.98 64.77))
    (stroke (width 0) (type default))
    (uuid 32f65a75-1de7-4311-96eb-0245122b7de0)
  )
  (bus (pts (xy 171.45 69.85) (xy 171.45 67.31))
    (stroke (width 0) (type default))
    (uuid 3393942c-81b5-44cb-a0b2-620075268cd1)
  )
  (bus (pts (xy 171.45 62.23) (xy 171.45 64.77))
    (stroke (width 0) (type default))
    (uuid 3718b0d1-8ce8-45b3-9dec-6c69bf46f85b)
  )
  (bus (pts (xy 171.45 92.71) (xy 171.45 114.3))
    (stroke (width 0) (type default))
    (uuid 39cb60a3-6b80-4e13-8852-233055598ddb)
  )

  (wire (pts (xy 50.8 148.59) (xy 60.96 148.59))
    (stroke (width 0) (type default))
    (uuid 3e375e10-6993-4698-80f5-98e997388181)
  )
  (wire (pts (xy 88.9 74.93) (xy 88.9 77.47))
    (stroke (width 0) (type default))
    (uuid 3e379b37-53c0-4630-a607-510bdc98f810)
  )
  (wire (pts (xy 60.96 148.59) (xy 60.96 151.13))
    (stroke (width 0) (type default))
    (uuid 3fea3818-f349-468b-9199-10fe5931a660)
  )
  (wire (pts (xy 173.99 90.17) (xy 193.04 90.17))
    (stroke (width 0) (type default))
    (uuid 4aa34845-e000-4b0e-9a14-285245b631e9)
  )
  (wire (pts (xy 77.47 26.67) (xy 77.47 59.69))
    (stroke (width 0) (type default))
    (uuid 4c958216-91e2-4237-a6d9-e454437f7a21)
  )
  (wire (pts (xy 149.86 59.69) (xy 168.91 59.69))
    (stroke (width 0) (type default))
    (uuid 5065f6c4-b885-4393-a45a-230d2fe2109d)
  )
  (wire (pts (xy 60.96 173.99) (xy 60.96 176.53))
    (stroke (width 0) (type default))
    (uuid 521b6e76-a0aa-4623-9af8-ace00ce8bf2f)
  )
  (wire (pts (xy 229.87 69.85) (xy 245.11 69.85))
    (stroke (width 0) (type default))
    (uuid 53485b84-1ad2-4953-addd-626f2ba71679)
  )
  (wire (pts (xy 80.01 57.15) (xy 90.17 57.15))
    (stroke (width 0) (type default))
    (uuid 538c722a-776e-442c-83f9-a9f3a394925a)
  )
  (wire (pts (xy 85.09 26.67) (xy 85.09 29.21))
    (stroke (width 0) (type default))
    (uuid 55bba743-cfc4-45b4-aff4-8a205ee58040)
  )
  (wire (pts (xy 60.96 158.75) (xy 60.96 161.29))
    (stroke (width 0) (type default))
    (uuid 56428595-2c19-4943-8be0-cfe227bb6a5f)
  )
  (wire (pts (xy 229.87 64.77) (xy 245.11 64.77))
    (stroke (width 0) (type default))
    (uuid 56538d26-8dcd-4072-8efa-d07bfb857a10)
  )
  (bus (pts (xy 171.45 119.38) (xy 171.45 116.84))
    (stroke (width 0) (type default))
    (uuid 580705cb-f467-4f76-8dd4-9f6bad7759dd)
  )

  (wire (pts (xy 54.61 120.65) (xy 54.61 118.11))
    (stroke (width 0) (type default))
    (uuid 591978d5-bcda-42ea-b3ec-faf117374bfb)
  )
  (wire (pts (xy 77.47 59.69) (xy 87.63 59.69))
    (stroke (width 0) (type default))
    (uuid 5a7991bf-c218-4766-b06a-c8c30c897ef6)
  )
  (wire (pts (xy 87.63 45.72) (xy 88.9 45.72))
    (stroke (width 0) (type default))
    (uuid 674fe6e7-7f5f-46b5-91bd-90d17ebfd03d)
  )
  (wire (pts (xy 67.31 64.77) (xy 67.31 26.67))
    (stroke (width 0) (type default))
    (uuid 6a505c23-a54c-4e79-86e6-4f076d7f4445)
  )
  (bus (pts (xy 171.45 69.85) (xy 171.45 85.09))
    (stroke (width 0) (type default))
    (uuid 6abeff9e-73cf-4150-81d7-ff7188bec056)
  )

  (wire (pts (xy 60.96 148.59) (xy 234.95 148.59))
    (stroke (width 0) (type default))
    (uuid 6b8acabb-0049-488e-8cb6-57ab8c13b1cc)
  )
  (bus (pts (xy 171.45 85.09) (xy 171.45 87.63))
    (stroke (width 0) (type default))
    (uuid 757d0aa0-89bc-44a0-a4e2-9a6a40fc1ec5)
  )

  (wire (pts (xy 81.915 89.535) (xy 81.915 92.075))
    (stroke (width 0) (type default))
    (uuid 75ad57c4-5ce4-4b2a-bcc8-9a3634926ae7)
  )
  (wire (pts (xy 72.39 26.67) (xy 72.39 62.23))
    (stroke (width 0) (type default))
    (uuid 788d5306-5381-461c-b39a-ca8994338cce)
  )
  (wire (pts (xy 193.04 87.63) (xy 173.99 87.63))
    (stroke (width 0) (type default))
    (uuid 791d06d8-8c1d-4ca3-8c3e-bb90c5120fe5)
  )
  (wire (pts (xy 193.04 124.46) (xy 171.45 124.46))
    (stroke (width 0) (type default))
    (uuid 7da9b77a-7758-403d-bc66-e89628253a8a)
  )
  (wire (pts (xy 88.9 64.77) (xy 67.31 64.77))
    (stroke (width 0) (type default))
    (uuid 81dd142c-6137-4681-8769-029792a7c82b)
  )
  (bus (pts (xy 171.45 67.31) (xy 171.45 64.77))
    (stroke (width 0) (type default))
    (uuid 83d76149-e1c1-4e8a-8780-df184c6b1f5c)
  )

  (polyline (pts (xy 115.57 194.31) (xy 115.57 144.78))
    (stroke (width 0) (type default))
    (uuid 8abbec3d-e029-4784-8263-cd392a4f57b7)
  )

  (wire (pts (xy 171.45 124.46) (xy 171.45 130.81))
    (stroke (width 0) (type default))
    (uuid 8d46ad79-2c91-4eb0-861d-ff440f4db744)
  )
  (wire (pts (xy 64.77 26.67) (xy 64.77 40.64))
    (stroke (width 0) (type default))
    (uuid 8fe2b726-ff7d-4bb5-a6ae-f61e59610cee)
  )
  (wire (pts (xy 77.47 110.49) (xy 93.98 110.49))
    (stroke (width 0) (type default))
    (uuid 91394612-48bf-427e-91a4-16b0df15f35d)
  )
  (bus (pts (xy 171.45 87.63) (xy 171.45 90.17))
    (stroke (width 0) (type default))
    (uuid 928ee05a-67a1-441a-b0a3-30c63a7a370f)
  )

  (wire (pts (xy 173.99 119.38) (xy 193.04 119.38))
    (stroke (width 0) (type default))
    (uuid 93ddc039-17d1-4040-97f2-f042d2392130)
  )
  (wire (pts (xy 90.17 45.72) (xy 90.17 48.26))
    (stroke (width 0) (type default))
    (uuid 96685045-1cd6-4d34-9123-552f8dbf0c0e)
  )
  (wire (pts (xy 69.85 67.31) (xy 93.98 67.31))
    (stroke (width 0) (type default))
    (uuid 9a1a1c25-e3e8-4405-82b1-230e39c0749b)
  )
  (wire (pts (xy 50.8 186.69) (xy 50.8 173.99))
    (stroke (width 0) (type default))
    (uuid 9c56bb50-a0ed-4268-9e6f-adbc7c92d501)
  )
  (wire (pts (xy 234.95 148.59) (xy 234.95 90.17))
    (stroke (width 0) (type default))
    (uuid a221228c-ce43-4dd6-98ea-2a59883bfd63)
  )
  (wire (pts (xy 52.07 118.11) (xy 54.61 118.11))
    (stroke (width 0) (type default))
    (uuid a3c10565-df48-4ba3-a9c0-cbc7aef7881d)
  )
  (wire (pts (xy 88.9 69.85) (xy 88.9 64.77))
    (stroke (width 0) (type default))
    (uuid a3fcdb18-e70a-4537-9b02-0ab6beffdef0)
  )
  (wire (pts (xy 77.47 120.65) (xy 77.47 123.19))
    (stroke (width 0) (type default))
    (uuid a4622c6c-1586-4576-bdb0-b40f2df8e047)
  )
  (wire (pts (xy 149.86 64.77) (xy 168.91 64.77))
    (stroke (width 0) (type default))
    (uuid a54a347e-b207-4c6f-9fac-2ee0874c5c91)
  )
  (wire (pts (xy 80.01 57.15) (xy 80.01 26.67))
    (stroke (width 0) (type default))
    (uuid a58b2431-ecf9-4120-aec0-cf1c7524f281)
  )
  (wire (pts (xy 84.455 113.03) (xy 93.98 113.03))
    (stroke (width 0) (type default))
    (uuid a70acf3e-8d62-4077-8d19-4795570f8cf0)
  )
  (bus (pts (xy 171.45 90.17) (xy 171.45 92.71))
    (stroke (width 0) (type default))
    (uuid a83f8654-0eca-415b-b7e3-3a7284046c97)
  )

  (wire (pts (xy 90.17 57.15) (xy 93.98 57.15))
    (stroke (width 0) (type default))
    (uuid aaaf18e5-2bcb-4058-84d4-cf9e266de1b2)
  )
  (bus (pts (xy 171.45 116.84) (xy 171.45 114.3))
    (stroke (width 0) (type default))
    (uuid ab10887c-f856-4a57-b7ca-92921827f3d0)
  )

  (wire (pts (xy 54.61 115.57) (xy 54.61 118.11))
    (stroke (width 0) (type default))
    (uuid ac120588-f04b-4626-817f-31f395e1507a)
  )
  (wire (pts (xy 173.99 116.84) (xy 193.04 116.84))
    (stroke (width 0) (type default))
    (uuid ae0c25be-54b2-4163-b26c-65f6c81b7d40)
  )
  (wire (pts (xy 86.995 89.535) (xy 86.995 92.075))
    (stroke (width 0) (type default))
    (uuid ae0ce5e8-3cfc-4302-b978-a42f8d16509a)
  )
  (wire (pts (xy 87.63 53.34) (xy 87.63 59.69))
    (stroke (width 0) (type default))
    (uuid af026b29-4949-4a5f-aa78-5d6c89e48446)
  )
  (wire (pts (xy 52.07 57.15) (xy 52.07 59.69))
    (stroke (width 0) (type default))
    (uuid af308d1d-d67f-4235-bb03-ba6249ebada3)
  )
  (wire (pts (xy 149.86 62.23) (xy 168.91 62.23))
    (stroke (width 0) (type default))
    (uuid b4138123-7670-4216-88f7-ae5942332fa3)
  )
  (wire (pts (xy 34.29 130.81) (xy 34.29 40.64))
    (stroke (width 0) (type default))
    (uuid b4c885ed-92e5-4a4b-8422-0e8c1bf36400)
  )
  (wire (pts (xy 168.91 67.31) (xy 149.86 67.31))
    (stroke (width 0) (type default))
    (uuid bafa3fa8-ab60-4041-a3b2-673c90ce139e)
  )
  (wire (pts (xy 93.98 130.81) (xy 34.29 130.81))
    (stroke (width 0) (type default))
    (uuid bc2b4cce-7cfd-4a46-90e0-dc7bfb83874c)
  )
  (wire (pts (xy 57.15 67.31) (xy 52.07 67.31))
    (stroke (width 0) (type default))
    (uuid c2084b58-3b6c-4ae4-b279-58097172e5fb)
  )
  (wire (pts (xy 50.8 153.67) (xy 50.8 156.21))
    (stroke (width 0) (type default))
    (uuid c437015b-9bf3-4a37-b212-ab6e93ef924f)
  )
  (wire (pts (xy 80.01 171.45) (xy 80.01 173.99))
    (stroke (width 0) (type default))
    (uuid c4ffb597-0864-44a7-b141-6210e4e75d7b)
  )
  (wire (pts (xy 50.8 151.13) (xy 50.8 148.59))
    (stroke (width 0) (type default))
    (uuid cd2d1742-d164-49d1-947a-d1d1383ed9ee)
  )
  (wire (pts (xy 50.8 156.21) (xy 50.8 173.99))
    (stroke (width 0) (type default))
    (uuid d230c88f-6e9c-470e-8d4b-428abd903eea)
  )
  (wire (pts (xy 88.9 45.72) (xy 90.17 45.72))
    (stroke (width 0) (type default))
    (uuid d5335507-6d71-4c07-873e-8f4e432e35e4)
  )
  (wire (pts (xy 57.15 67.31) (xy 69.85 67.31))
    (stroke (width 0) (type default))
    (uuid d5ef2941-21b4-48ab-b787-edd6f631f2c2)
  )
  (wire (pts (xy 57.15 64.77) (xy 57.15 67.31))
    (stroke (width 0) (type default))
    (uuid d7a6d918-9068-4862-afb4-a9126ffaa406)
  )
  (wire (pts (xy 57.15 57.15) (xy 57.15 59.69))
    (stroke (width 0) (type default))
    (uuid dfb41610-560f-4a62-a969-e23cbc8820dd)
  )
  (wire (pts (xy 173.99 82.55) (xy 193.04 82.55))
    (stroke (width 0) (type default))
    (uuid e2081191-4660-467b-bf4f-f3cb9bfafab7)
  )
  (wire (pts (xy 48.26 148.59) (xy 50.8 148.59))
    (stroke (width 0) (type default))
    (uuid e2985a3b-f471-4edb-9233-0a3c2b48c9d9)
  )
  (wire (pts (xy 229.87 67.31) (xy 245.11 67.31))
    (stroke (width 0) (type default))
    (uuid e7514f2c-b9b2-4b99-a0f4-7212de52cdd6)
  )
  (wire (pts (xy 80.01 173.99) (xy 82.55 173.99))
    (stroke (width 0) (type default))
    (uuid e79945a4-246c-4580-9b2b-20323d93d84c)
  )
  (polyline (pts (xy 31.75 144.78) (xy 115.57 144.78))
    (stroke (width 0) (type default))
    (uuid ec8bd4c5-947e-48d3-8db4-4f769da55e30)
  )

  (wire (pts (xy 90.17 53.34) (xy 90.17 57.15))
    (stroke (width 0) (type default))
    (uuid ed1973cc-519c-48cf-8c95-7add6c72b6a6)
  )
  (wire (pts (xy 60.96 168.91) (xy 60.96 173.99))
    (stroke (width 0) (type default))
    (uuid ef3eb8b4-a1e0-454c-9bf6-c359281dce06)
  )
  (wire (pts (xy 234.95 90.17) (xy 229.87 90.17))
    (stroke (width 0) (type default))
    (uuid f3d213a0-af4d-41e0-8a28-02d1b774d2df)
  )
  (wire (pts (xy 229.87 62.23) (xy 245.11 62.23))
    (stroke (width 0) (type default))
    (uuid f3f3858f-a5fd-4e88-832b-cca1713e8e6d)
  )
  (wire (pts (xy 60.96 173.99) (xy 80.01 173.99))
    (stroke (width 0) (type default))
    (uuid f9b98208-539f-4264-ae07-2b535776e63d)
  )
  (wire (pts (xy 81.28 62.23) (xy 93.98 62.23))
    (stroke (width 0) (type default))
    (uuid fe6b7c76-8af1-4cc6-8511-f2ee09ad5fd5)
  )

  (text "TS ready goes to VCU,\nwhen on the VCU can\nallow driver to press\n\"TS On\" button"
    (at 173.99 134.62 0)
    (effects (font (size 1.27 1.27)) (justify left bottom))
    (uuid 04d64c3d-b143-4944-98ab-bbc38c314988)
  )
  (text "These are to go to\nthe HV sense \"intended\nrelay states\" inputs"
    (at 175.26 111.76 0)
    (effects (font (size 1.27 1.27)) (justify left bottom))
    (uuid 1b33d300-e881-472c-b7a0-44c589b97015)
  )
  (text "Diode prevents capacitors\nfrom powering the shutdown \nloop when the shutdown loop\nopens, without it the capacitors\non the 12V supply of this board \nwould keep the AIRs on for a short\ntime after the loop opens"
    (at 77.47 163.83 0)
    (effects (font (size 1.27 1.27)) (justify left bottom))
    (uuid 35d073fd-615a-4935-a5ba-d6293c0a6c04)
  )
  (text "AIR outputs go to\none side of relay\ncoil, other side of\ncoil goes to GND\n"
    (at 232.41 57.15 0)
    (effects (font (size 1.27 1.27)) (justify left bottom))
    (uuid 377097bf-0bab-4ab4-b5c5-ff33754b26f6)
  )
  (text "Don't need 4 \npins, but less\nparts to stock" (at 34.29 165.1 0)
    (effects (font (size 1.27 1.27)) (justify left bottom))
    (uuid 603d45b1-1c72-4f73-9115-5726cdfb48f1)
  )
  (text "This board goes in the TSAC.\nJust about everything inside\nthe TSAC is standardised to\nM4, so use M4 mounting holes."
    (at 179.07 34.29 0)
    (effects (font (size 1.27 1.27)) (justify left bottom))
    (uuid 7ea56529-8100-4eb2-81c2-dc67b7d0e634)
  )
  (text "0.5A" (at 67.31 165.1 0)
    (effects (font (size 1.27 1.27)) (justify left bottom))
    (uuid 96050de2-86aa-4e75-8e6a-6c25f382d190)
  )
  (text "The fault indicator blinks \na fault code by providing \na ground connection\n\nThe signal is latched low\nby the control logic to\nhandle blinking, opening\nthe AIRs and pre-charge\nrelay\n\nThe inverter will also command\nthe +AIR and pre-charge relay\nopen in a fault condition, so \nthis is more a redundancy\n"
    (at 46.99 102.87 0)
    (effects (font (size 1.27 1.27)) (justify left bottom))
    (uuid a92e986f-bb01-40de-94b1-0ae1361c0694)
  )
  (text "The pre-charge and main contactor \nrelay drivers of the inverter\ncannot be used to drive the relays\ndirectly as the AIRs must be powered \nby the shutdown loop\n\nThe driver outputs are high-side \ndrivers where:\n- Active: 12V\n- Inactive: floating"
    (at 24.13 36.83 0)
    (effects (font (size 1.27 1.27)) (justify left bottom))
    (uuid aaffe780-d50e-48bf-9a2c-12e2dd8754ea)
  )
  (text "Power" (at 31.75 144.145 0)
    (effects (font (size 1.27 1.27)) (justify left bottom))
    (uuid e85d7a9b-b2d5-469d-8749-64528f0637d9)
  )
  (text "BMS outputs are all\nopen drain so must\nbe pulled up"
    (at 95.25 49.53 0)
    (effects (font (size 1.27 1.27)) (justify left bottom))
    (uuid e9b6582d-76db-4436-ba1a-b6dd3335bacd)
  )
  (text "The EXT fault input is an active\nhigh external fault source, in case\nwe ever need it. When used, the jumper\n(switch) should be set to pull up so \nthat if the input is disconnected, it \nfaults. When unused, the jumper should\nbe set to pull down (\"always OK\")."
    (at 97.79 106.68 0)
    (effects (font (size 1.27 1.27)) (justify left bottom))
    (uuid ebd89d5d-910c-478b-ad47-b222f9aa2f49)
  )
  (text "TRC TODO:\n- Filters\n- Test stability of 12V\n- Ground return path for whole shutdown loop?"
    (at 223.52 27.305 0)
    (effects (font (size 1.27 1.27) (color 255 0 0 1)) (justify left bottom))
    (uuid f85a339c-47a8-4e5e-8a78-939447c76dcc)
  )
  (text "Pins 2 connects to a \"charging interlock\" which \nmay only be installed when the TSAC is outside the car.\nThe goal here is to make it impossible for the\nAIRs to accidentally be closed by the charge enable\nsignal when the TSAC is inside the car. Under no\ncircumstances should ~{CHG_EN_INTERLOCKED} be connected\nat the same time as the inverter!"
    (at 90.17 34.29 0)
    (effects (font (size 1.27 1.27)) (justify left bottom))
    (uuid fabea2a0-4348-404e-bb22-b0bf95fe7755)
  )

  (label "TS_ON_INPUT" (at 52.07 110.49 0) (fields_autoplaced)
    (effects (font (size 1.27 1.27)) (justify left bottom))
    (uuid 0559bbf5-7b43-4303-8450-5f59aa5784b2)
  )
  (label "~{CHG_EN_INTERLOCKED}" (at 80.01 26.67 270) (fields_autoplaced)
    (effects (font (size 1.27 1.27)) (justify right bottom))
    (uuid 062b47a6-9651-4c34-863e-9ec21757eb9c)
  )
  (label "POS_AIR" (at 243.84 62.23 180) (fields_autoplaced)
    (effects (font (size 1.27 1.27)) (justify right bottom))
    (uuid 1df55f73-24c8-4719-af1d-0f677b343dcb)
  )
  (label "CLOSE_POS_AIR" (at 173.99 87.63 0) (fields_autoplaced)
    (effects (font (size 1.27 1.27)) (justify left bottom))
    (uuid 28504d8f-be17-4dfa-aa13-2291845d3e09)
  )
  (label "SHDN_IN" (at 49.53 148.59 0) (fields_autoplaced)
    (effects (font (size 1.27 1.27)) (justify left bottom))
    (uuid 39db2807-2b72-47a9-9eb4-bc7d2c06c81e)
  )
  (label "CLOSE_PCHG_RLY" (at 168.91 62.23 180) (fields_autoplaced)
    (effects (font (size 1.27 1.27)) (justify right bottom))
    (uuid 3e806b02-baa6-42c5-8cd2-703cb2ad8b40)
  )
  (label "CHG_EN" (at 173.99 82.55 0) (fields_autoplaced)
    (effects (font (size 1.27 1.27)) (justify left bottom))
    (uuid 47182f60-c820-4aec-bd15-3656f2a7bcf4)
  )
  (label "INV_FAULT_INDICATOR" (at 69.85 26.67 270) (fields_autoplaced)
    (effects (font (size 1.27 1.27)) (justify right bottom))
    (uuid 471e091a-354e-41a9-a568-dd0f973b5ba5)
  )
  (label "INV_CLOSE_MAIN_CONTACTOR" (at 72.39 26.67 270) (fields_autoplaced)
    (effects (font (size 1.27 1.27)) (justify right bottom))
    (uuid 4ca6a436-cbe4-4306-92b1-6ef604b2d35e)
  )
  (label "NEG_AIR" (at 243.84 64.77 180) (fields_autoplaced)
    (effects (font (size 1.27 1.27)) (justify right bottom))
    (uuid 5b103b0c-a052-4661-9579-93c04c3c7859)
  )
  (label "CLOSE_NEG_AIR" (at 168.91 67.31 180) (fields_autoplaced)
    (effects (font (size 1.27 1.27)) (justify right bottom))
    (uuid 5c4434ae-b7d7-40e3-83d8-b5de59dcf581)
  )
  (label "~{BMS_DISCHG_EN}" (at 77.47 26.67 270) (fields_autoplaced)
    (effects (font (size 1.27 1.27)) (justify right bottom))
    (uuid 610a2af4-5a30-45b6-a9cd-54bae7263fbf)
  )
  (label "PCHG_RLY-" (at 243.84 69.85 180) (fields_autoplaced)
    (effects (font (size 1.27 1.27)) (justify right bottom))
    (uuid 67d0ae68-bd41-4985-8b07-2a2bebb45fe0)
  )
  (label "TS_ENABLED" (at 64.77 26.67 270) (fields_autoplaced)
    (effects (font (size 1.27 1.27)) (justify right bottom))
    (uuid 7c3e2302-b8e1-4f07-80f9-27937179331a)
  )
  (label "CLOSE_NEG_AIR" (at 191.77 116.84 180) (fields_autoplaced)
    (effects (font (size 1.27 1.27)) (justify right bottom))
    (uuid 8ee1229c-80f8-403d-a098-95ea72f9d77d)
  )
  (label "{RELAY_STATES}" (at 171.45 85.09 270) (fields_autoplaced)
    (effects (font (size 1.27 1.27)) (justify right bottom))
    (uuid 91213b7e-8537-47a1-9594-73d9d695a556)
  )
  (label "CHG_EN" (at 168.91 59.69 180) (fields_autoplaced)
    (effects (font (size 1.27 1.27)) (justify right bottom))
    (uuid a1cf1b29-447d-4704-bf7e-d34b1bb2c3b9)
  )
  (label "CLOSE_POS_AIR" (at 168.91 64.77 180) (fields_autoplaced)
    (effects (font (size 1.27 1.27)) (justify right bottom))
    (uuid a5d9536c-1999-4b86-a523-38012ecd2d85)
  )
  (label "PCHG_RLY+" (at 243.84 67.31 180) (fields_autoplaced)
    (effects (font (size 1.27 1.27)) (justify right bottom))
    (uuid a917d8a4-11a8-42e5-97ab-91f9319549ee)
  )
  (label "INV_CLOSE_PCHG_RLY" (at 67.31 26.67 270) (fields_autoplaced)
    (effects (font (size 1.27 1.27)) (justify right bottom))
    (uuid ba46ac84-aa0c-40e6-9ca9-ec65dd166abf)
  )
  (label "CLOSE_NEG_AIR" (at 173.99 90.17 0) (fields_autoplaced)
    (effects (font (size 1.27 1.27)) (justify left bottom))
    (uuid d0b5ca8d-93f8-44f6-96ff-c9de97f340b6)
  )
  (label "EXT_FAULT_INPUT" (at 52.07 113.03 0) (fields_autoplaced)
    (effects (font (size 1.27 1.27)) (justify left bottom))
    (uuid d7738c77-f1bb-40eb-81ca-0ca9b7dd2508)
  )
  (label "CLOSE_PCHG_RLY" (at 191.77 121.92 180) (fields_autoplaced)
    (effects (font (size 1.27 1.27)) (justify right bottom))
    (uuid de4e8bee-100d-4b10-93ee-b1a37337acbb)
  )
  (label "CLOSE_POS_AIR" (at 191.77 119.38 180) (fields_autoplaced)
    (effects (font (size 1.27 1.27)) (justify right bottom))
    (uuid f1bc299e-c1aa-465d-8043-7916d35defdd)
  )
  (label "CLOSE_PCHG_RLY" (at 173.99 85.09 0) (fields_autoplaced)
    (effects (font (size 1.27 1.27)) (justify left bottom))
    (uuid f6ca0893-1668-4ffd-9073-a8223f5b1514)
  )

  (symbol (lib_id "power:+12V") (at 80.01 171.45 0) (unit 1)
    (in_bom yes) (on_board yes) (dnp no)
    (uuid 00f0fe44-fdda-48f2-ae1f-f4d9151717d7)
    (property "Reference" "#PWR06" (at 80.01 175.26 0)
      (effects (font (size 1.27 1.27)) hide)
    )
    (property "Value" "+12V" (at 80.01 167.64 0)
      (effects (font (size 1.27 1.27)))
    )
    (property "Footprint" "" (at 80.01 171.45 0)
      (effects (font (size 1.27 1.27)) hide)
    )
    (property "Datasheet" "" (at 80.01 171.45 0)
      (effects (font (size 1.27 1.27)) hide)
    )
    (pin "1" (uuid aff80ec2-3a5b-4297-9bce-bddb10dab115))
    (instances
      (project "trc"
        (path "/5e0e9869-af81-4a3e-ad08-271d45318b88"
          (reference "#PWR06") (unit 1)
        )
      )
    )
  )

  (symbol (lib_id "power:GND") (at 81.28 77.47 0) (unit 1)
    (in_bom yes) (on_board yes) (dnp no)
    (uuid 056bebf0-bfaf-488d-b15e-4f19fe92b775)
    (property "Reference" "#PWR08" (at 81.28 83.82 0)
      (effects (font (size 1.27 1.27)) hide)
    )
    (property "Value" "GND" (at 81.28 81.28 0)
      (effects (font (size 1.27 1.27)))
    )
    (property "Footprint" "" (at 81.28 77.47 0)
      (effects (font (size 1.27 1.27)) hide)
    )
    (property "Datasheet" "" (at 81.28 77.47 0)
      (effects (font (size 1.27 1.27)) hide)
    )
    (pin "1" (uuid b55beb3e-b567-431e-8218-378d60d5978d))
    (instances
      (project "trc"
        (path "/5e0e9869-af81-4a3e-ad08-271d45318b88"
          (reference "#PWR08") (unit 1)
        )
      )
    )
  )

  (symbol (lib_id "Mechanical:MountingHole") (at 158.75 33.02 0) (unit 1)
    (in_bom yes) (on_board yes) (dnp no) (fields_autoplaced)
    (uuid 16857509-93d9-4ad5-a722-f5973eec9d47)
    (property "Reference" "H3" (at 161.29 32.385 0)
      (effects (font (size 1.27 1.27)) (justify left))
    )
    (property "Value" "MountingHole" (at 161.29 34.925 0)
      (effects (font (size 1.27 1.27)) (justify left))
    )
    (property "Footprint" "MountingHole:MountingHole_4.3mm_M4" (at 158.75 33.02 0)
      (effects (font (size 1.27 1.27)) hide)
    )
    (property "Datasheet" "~" (at 158.75 33.02 0)
      (effects (font (size 1.27 1.27)) hide)
    )
    (instances
      (project "trc"
        (path "/5e0e9869-af81-4a3e-ad08-271d45318b88"
          (reference "H3") (unit 1)
        )
      )
    )
  )

  (symbol (lib_id "Device:R_Small") (at 88.9 72.39 0) (mirror y) (unit 1)
    (in_bom yes) (on_board yes) (dnp no)
    (uuid 327d4dd2-725e-416e-981e-83b6030ecd10)
    (property "Reference" "R6" (at 87.63 71.12 0)
      (effects (font (size 1.27 1.27)) (justify left))
    )
    (property "Value" "10k" (at 87.63 73.66 0)
      (effects (font (size 1.27 1.27)) (justify left))
    )
    (property "Footprint" "Resistor_SMD:R_0805_2012Metric_Pad1.20x1.40mm_HandSolder" (at 88.9 72.39 0)
      (effects (font (size 1.27 1.27)) hide)
    )
    (property "Datasheet" "~" (at 88.9 72.39 0)
      (effects (font (size 1.27 1.27)) hide)
    )
    (pin "1" (uuid 450d0a17-a662-45e9-a240-64e1815c1f24))
    (pin "2" (uuid d3734ac5-e191-4931-8284-63421b80f5e9))
    (instances
      (project "trc"
        (path "/5e0e9869-af81-4a3e-ad08-271d45318b88"
          (reference "R6") (unit 1)
        )
      )
    )
  )

  (symbol (lib_id "Device:R_Small") (at 77.47 118.11 0) (mirror y) (unit 1)
    (in_bom yes) (on_board yes) (dnp no)
    (uuid 394e4281-310b-47e7-8537-eb97bf3d1d06)
    (property "Reference" "R3" (at 76.2 116.84 0)
      (effects (font (size 1.27 1.27)) (justify left))
    )
    (property "Value" "10k" (at 76.2 119.38 0)
      (effects (font (size 1.27 1.27)) (justify left))
    )
    (property "Footprint" "Resistor_SMD:R_0805_2012Metric_Pad1.20x1.40mm_HandSolder" (at 77.47 118.11 0)
      (effects (font (size 1.27 1.27)) hide)
    )
    (property "Datasheet" "~" (at 77.47 118.11 0)
      (effects (font (size 1.27 1.27)) hide)
    )
    (pin "1" (uuid b3c6b25e-725a-4927-8d0e-0ab20be903fd))
    (pin "2" (uuid b18bdd48-6e05-49de-a2eb-d1c7bc4fda84))
    (instances
      (project "trc"
        (path "/5e0e9869-af81-4a3e-ad08-271d45318b88"
          (reference "R3") (unit 1)
        )
      )
    )
  )

  (symbol (lib_id "power:GND") (at 77.47 123.19 0) (unit 1)
    (in_bom yes) (on_board yes) (dnp no)
    (uuid 399dbf74-d2c3-4342-96a2-d4aeb8e72401)
    (property "Reference" "#PWR07" (at 77.47 129.54 0)
      (effects (font (size 1.27 1.27)) hide)
    )
    (property "Value" "GND" (at 77.47 127 0)
      (effects (font (size 1.27 1.27)))
    )
    (property "Footprint" "" (at 77.47 123.19 0)
      (effects (font (size 1.27 1.27)) hide)
    )
    (property "Datasheet" "" (at 77.47 123.19 0)
      (effects (font (size 1.27 1.27)) hide)
    )
    (pin "1" (uuid 9e4ada98-ac27-4b78-a36a-03e5cc819db7))
    (instances
      (project "trc"
        (path "/5e0e9869-af81-4a3e-ad08-271d45318b88"
          (reference "#PWR07") (unit 1)
        )
      )
    )
  )

  (symbol (lib_id "Device:R_Small") (at 81.28 72.39 0) (mirror y) (unit 1)
    (in_bom yes) (on_board yes) (dnp no)
    (uuid 3e63a629-dee2-4e83-bf6b-01ddd70771c7)
    (property "Reference" "R4" (at 80.01 71.12 0)
      (effects (font (size 1.27 1.27)) (justify left))
    )
    (property "Value" "10k" (at 80.01 73.66 0)
      (effects (font (size 1.27 1.27)) (justify left))
    )
    (property "Footprint" "Resistor_SMD:R_0805_2012Metric_Pad1.20x1.40mm_HandSolder" (at 81.28 72.39 0)
      (effects (font (size 1.27 1.27)) hide)
    )
    (property "Datasheet" "~" (at 81.28 72.39 0)
      (effects (font (size 1.27 1.27)) hide)
    )
    (pin "1" (uuid daf86d14-8854-4759-871a-c711a80bce69))
    (pin "2" (uuid be1384d0-7eed-4027-82b4-47f9c2bc5039))
    (instances
      (project "trc"
        (path "/5e0e9869-af81-4a3e-ad08-271d45318b88"
          (reference "R4") (unit 1)
        )
      )
    )
  )

  (symbol (lib_id "power:+12V") (at 52.07 46.99 0) (unit 1)
    (in_bom yes) (on_board yes) (dnp no)
    (uuid 484cf09e-0388-4ae9-9cb8-2ea0bf59d70c)
    (property "Reference" "#PWR02" (at 52.07 50.8 0)
      (effects (font (size 1.27 1.27)) hide)
    )
    (property "Value" "+12V" (at 52.07 43.18 0)
      (effects (font (size 1.27 1.27)))
    )
    (property "Footprint" "" (at 52.07 46.99 0)
      (effects (font (size 1.27 1.27)) hide)
    )
    (property "Datasheet" "" (at 52.07 46.99 0)
      (effects (font (size 1.27 1.27)) hide)
    )
    (pin "1" (uuid 66d6bf19-e664-4df7-9443-3ddb506f8f3b))
    (instances
      (project "trc"
        (path "/5e0e9869-af81-4a3e-ad08-271d45318b88"
          (reference "#PWR02") (unit 1)
        )
      )
    )
  )

  (symbol (lib_id "Switch:SW_SPDT") (at 84.455 97.155 90) (unit 1)
    (in_bom yes) (on_board yes) (dnp no) (fields_autoplaced)
    (uuid 48cb2c7f-bff2-46f5-b388-2bc7bec8cf8b)
    (property "Reference" "SW1" (at 88.265 97.1549 90)
      (effects (font (size 1.27 1.27)) (justify right))
    )
    (property "Value" "EXT_FAULT_JUMPER" (at 88.265 98.4249 90)
      (effects (font (size 1.27 1.27)) (justify right) hide)
    )
    (property "Footprint" "Connector_PinHeader_2.54mm:PinHeader_1x03_P2.54mm_Vertical" (at 84.455 97.155 0)
      (effects (font (size 1.27 1.27)) hide)
    )
    (property "Datasheet" "~" (at 84.455 97.155 0)
      (effects (font (size 1.27 1.27)) hide)
    )
    (pin "1" (uuid 898ada5e-3716-4c07-a9b2-a3c541866f60))
    (pin "2" (uuid 88c6bc3c-e63d-4d1e-81ad-d6fc60e35be7))
    (pin "3" (uuid 6e0c941e-8b1d-4bb2-bc8f-22c85bcb46c2))
    (instances
      (project "trc"
        (path "/5e0e9869-af81-4a3e-ad08-271d45318b88"
          (reference "SW1") (unit 1)
        )
      )
    )
  )

  (symbol (lib_id "power:GND") (at 60.96 186.69 0) (unit 1)
    (in_bom yes) (on_board yes) (dnp no)
    (uuid 52bdf6df-2ea1-49de-b9cb-710209f40b16)
    (property "Reference" "#PWR05" (at 60.96 193.04 0)
      (effects (font (size 1.27 1.27)) hide)
    )
    (property "Value" "GND" (at 60.96 190.5 0)
      (effects (font (size 1.27 1.27)))
    )
    (property "Footprint" "" (at 60.96 186.69 0)
      (effects (font (size 1.27 1.27)) hide)
    )
    (property "Datasheet" "" (at 60.96 186.69 0)
      (effects (font (size 1.27 1.27)) hide)
    )
    (pin "1" (uuid eb35e97e-d7c8-4cec-a168-ad12edaae372))
    (instances
      (project "trc"
        (path "/5e0e9869-af81-4a3e-ad08-271d45318b88"
          (reference "#PWR05") (unit 1)
        )
      )
    )
  )

  (symbol (lib_id "power:GND") (at 54.61 120.65 0) (unit 1)
    (in_bom yes) (on_board yes) (dnp no)
    (uuid 553b28c4-91e8-4e8a-90f1-9638dfa7d7a0)
    (property "Reference" "#PWR03" (at 54.61 127 0)
      (effects (font (size 1.27 1.27)) hide)
    )
    (property "Value" "GND" (at 54.61 124.46 0)
      (effects (font (size 1.27 1.27)))
    )
    (property "Footprint" "" (at 54.61 120.65 0)
      (effects (font (size 1.27 1.27)) hide)
    )
    (property "Datasheet" "" (at 54.61 120.65 0)
      (effects (font (size 1.27 1.27)) hide)
    )
    (pin "1" (uuid d87b8ade-e464-4edd-b1ce-c0b28e8fd58c))
    (instances
      (project "trc"
        (path "/5e0e9869-af81-4a3e-ad08-271d45318b88"
          (reference "#PWR03") (unit 1)
        )
      )
    )
  )

  (symbol (lib_id "Connector_Generic:Conn_01x04") (at 67.31 21.59 90) (unit 1)
    (in_bom yes) (on_board yes) (dnp no)
    (uuid 56130bcc-ab80-4377-a22e-88881d01f574)
    (property "Reference" "J3" (at 68.58 16.51 90)
      (effects (font (size 1.27 1.27)))
    )
    (property "Value" "Inverter" (at 68.58 19.05 90)
      (effects (font (size 1.27 1.27)))
    )
    (property "Footprint" "Connector_Molex:Molex_Micro-Fit_3.0_43045-0400_2x02_P3.00mm_Horizontal" (at 67.31 21.59 0)
      (effects (font (size 1.27 1.27)) hide)
    )
    (property "Datasheet" "~" (at 67.31 21.59 0)
      (effects (font (size 1.27 1.27)) hide)
    )
    (pin "1" (uuid fe26d212-5f7f-4b6b-9b03-7dd69498da1c))
    (pin "2" (uuid 1d4f0b85-c115-4720-8268-316bf60e7f46))
    (pin "3" (uuid f7b1db4a-ddfa-47f4-937c-5a50b13b9c3b))
    (pin "4" (uuid f336897f-bb3a-4696-8c03-bf6c290bfdd7))
    (instances
      (project "trc"
        (path "/5e0e9869-af81-4a3e-ad08-271d45318b88"
          (reference "J3") (unit 1)
        )
      )
    )
  )

  (symbol (lib_id "Device:LED") (at 52.07 53.34 270) (mirror x) (unit 1)
    (in_bom yes) (on_board yes) (dnp no)
    (uuid 634f2749-fc44-4f64-af53-792c7e118149)
    (property "Reference" "D1" (at 46.99 50.8 90)
      (effects (font (size 1.27 1.27)) (justify left))
    )
    (property "Value" "LED" (at 46.99 53.34 90)
      (effects (font (size 1.27 1.27)) (justify left))
    )
    (property "Footprint" "LED_SMD:LED_0603_1608Metric" (at 52.07 53.34 0)
      (effects (font (size 1.27 1.27)) hide)
    )
    (property "Datasheet" "~" (at 52.07 53.34 0)
      (effects (font (size 1.27 1.27)) hide)
    )
    (pin "1" (uuid 00ab9839-02de-422c-8677-d251f080bfc5))
    (pin "2" (uuid 1ceab76d-2103-4052-868b-312b36f11e90))
    (instances
      (project "trc"
        (path "/5e0e9869-af81-4a3e-ad08-271d45318b88"
          (reference "D1") (unit 1)
        )
      )
    )
  )

  (symbol (lib_id "Connector_Generic:Conn_01x04") (at 80.01 21.59 90) (unit 1)
    (in_bom yes) (on_board yes) (dnp no)
    (uuid 6f754b42-6de1-4a5a-93c1-aaaec3321354)
    (property "Reference" "J4" (at 81.28 16.51 90)
      (effects (font (size 1.27 1.27)))
    )
    (property "Value" "BMS" (at 81.28 19.05 90)
      (effects (font (size 1.27 1.27)))
    )
    (property "Footprint" "Connector_Molex:Molex_Micro-Fit_3.0_43045-0400_2x02_P3.00mm_Horizontal" (at 80.01 21.59 0)
      (effects (font (size 1.27 1.27)) hide)
    )
    (property "Datasheet" "~" (at 80.01 21.59 0)
      (effects (font (size 1.27 1.27)) hide)
    )
    (pin "1" (uuid fd511f81-7937-448c-9877-cd6ee6da5806))
    (pin "2" (uuid b5a7a89a-6a4b-4cd8-9d53-4e36d750ec7a))
    (pin "3" (uuid ae27d1f2-9e41-4232-a7a2-7ecc06f53fba))
    (pin "4" (uuid 7e18a455-e3d8-4c35-9254-4a7c015af19f))
    (instances
      (project "trc"
        (path "/5e0e9869-af81-4a3e-ad08-271d45318b88"
          (reference "J4") (unit 1)
        )
      )
    )
  )

  (symbol (lib_id "Connector_Generic:Conn_01x04") (at 46.99 113.03 0) (mirror y) (unit 1)
    (in_bom yes) (on_board yes) (dnp no)
    (uuid 6fe1fa86-4291-4611-9fab-dab32f95a6d4)
    (property "Reference" "J2" (at 43.18 113.03 0)
      (effects (font (size 1.27 1.27)))
    )
    (property "Value" "Control" (at 40.64 115.57 0)
      (effects (font (size 1.27 1.27)))
    )
    (property "Footprint" "Connector_Molex:Molex_Micro-Fit_3.0_43045-0400_2x02_P3.00mm_Horizontal" (at 46.99 113.03 0)
      (effects (font (size 1.27 1.27)) hide)
    )
    (property "Datasheet" "~" (at 46.99 113.03 0)
      (effects (font (size 1.27 1.27)) hide)
    )
    (pin "1" (uuid 25aab542-b853-4067-ab30-5c6db6e95f66))
    (pin "2" (uuid 14d98202-78ec-48bf-bb47-f6820d03f288))
    (pin "3" (uuid 31c8e061-d8de-439c-a47c-a93be0f70d38))
    (pin "4" (uuid 6b834e1f-b1f9-480a-a47f-b6330e1acc53))
    (instances
      (project "trc"
        (path "/5e0e9869-af81-4a3e-ad08-271d45318b88"
          (reference "J2") (unit 1)
        )
      )
    )
  )

  (symbol (lib_id "power:+12V") (at 57.15 57.15 0) (unit 1)
    (in_bom yes) (on_board yes) (dnp no)
    (uuid 81bc7fed-4235-4c92-861c-daae7a7a49d2)
    (property "Reference" "#PWR04" (at 57.15 60.96 0)
      (effects (font (size 1.27 1.27)) hide)
    )
    (property "Value" "+12V" (at 57.15 53.34 0)
      (effects (font (size 1.27 1.27)))
    )
    (property "Footprint" "" (at 57.15 57.15 0)
      (effects (font (size 1.27 1.27)) hide)
    )
    (property "Datasheet" "" (at 57.15 57.15 0)
      (effects (font (size 1.27 1.27)) hide)
    )
    (pin "1" (uuid 15b2d028-4c65-4b5b-8c09-ba58913cb469))
    (instances
      (project "trc"
        (path "/5e0e9869-af81-4a3e-ad08-271d45318b88"
          (reference "#PWR04") (unit 1)
        )
      )
    )
  )

  (symbol (lib_id "Device:R_Small") (at 57.15 62.23 0) (unit 1)
    (in_bom yes) (on_board yes) (dnp no)
    (uuid 8249a1cd-0081-49a5-8cf6-507e8b1de243)
    (property "Reference" "R2" (at 58.42 60.96 0)
      (effects (font (size 1.27 1.27)) (justify left))
    )
    (property "Value" "10k" (at 58.42 63.5 0)
      (effects (font (size 1.27 1.27)) (justify left))
    )
    (property "Footprint" "Resistor_SMD:R_0805_2012Metric_Pad1.20x1.40mm_HandSolder" (at 57.15 62.23 0)
      (effects (font (size 1.27 1.27)) hide)
    )
    (property "Datasheet" "~" (at 57.15 62.23 0)
      (effects (font (size 1.27 1.27)) hide)
    )
    (pin "1" (uuid 34d85096-ea9c-4874-9444-64667701fe81))
    (pin "2" (uuid de64cd5a-b6ab-40ff-aeb4-9c72d9a95f04))
    (instances
      (project "trc"
        (path "/5e0e9869-af81-4a3e-ad08-271d45318b88"
          (reference "R2") (unit 1)
        )
      )
    )
  )

  (symbol (lib_id "Connector_Generic:Conn_01x04") (at 43.18 153.67 180) (unit 1)
    (in_bom yes) (on_board yes) (dnp no)
    (uuid 8ac2ac55-9049-4526-bfdf-75118d257883)
    (property "Reference" "J1" (at 39.37 153.67 0)
      (effects (font (size 1.27 1.27)))
    )
    (property "Value" "PWR" (at 38.1 151.13 0)
      (effects (font (size 1.27 1.27)))
    )
    (property "Footprint" "Connector_Molex:Molex_Micro-Fit_3.0_43045-0400_2x02_P3.00mm_Horizontal" (at 43.18 153.67 0)
      (effects (font (size 1.27 1.27)) hide)
    )
    (property "Datasheet" "~" (at 43.18 153.67 0)
      (effects (font (size 1.27 1.27)) hide)
    )
    (pin "1" (uuid b0cba331-832d-4788-8cb7-30b0ffe61661))
    (pin "2" (uuid 06b31af0-94ca-4056-97e3-b96a49029b63))
    (pin "3" (uuid eae5bbc4-c0d5-4eb2-ba10-6f5b83f9efe3))
    (pin "4" (uuid 51c57e67-c28c-47b8-9def-65b88685bf2b))
    (instances
      (project "trc"
        (path "/5e0e9869-af81-4a3e-ad08-271d45318b88"
          (reference "J1") (unit 1)
        )
      )
    )
  )

  (symbol (lib_id "Device:R_Small") (at 87.63 50.8 0) (mirror y) (unit 1)
    (in_bom yes) (on_board yes) (dnp no)
    (uuid 9209304d-cc4a-415b-a5c2-453a92f4a7cb)
    (property "Reference" "R8" (at 86.36 49.53 0)
      (effects (font (size 1.27 1.27)) (justify left))
    )
    (property "Value" "10k" (at 86.36 52.07 0)
      (effects (font (size 1.27 1.27)) (justify left))
    )
    (property "Footprint" "Resistor_SMD:R_0805_2012Metric_Pad1.20x1.40mm_HandSolder" (at 87.63 50.8 0)
      (effects (font (size 1.27 1.27)) hide)
    )
    (property "Datasheet" "~" (at 87.63 50.8 0)
      (effects (font (size 1.27 1.27)) hide)
    )
    (pin "1" (uuid f7a781bb-a835-4e63-8112-322051e74feb))
    (pin "2" (uuid a41ea786-4f49-4956-b8e5-b4c9f6cf5816))
    (instances
      (project "trc"
        (path "/5e0e9869-af81-4a3e-ad08-271d45318b88"
          (reference "R8") (unit 1)
        )
      )
    )
  )

  (symbol (lib_id "Device:R_Small") (at 84.455 106.045 0) (mirror y) (unit 1)
    (in_bom yes) (on_board yes) (dnp no)
    (uuid 983f5364-9208-4e0d-b66c-640b3786a946)
    (property "Reference" "R5" (at 83.185 104.775 0)
      (effects (font (size 1.27 1.27)) (justify left))
    )
    (property "Value" "10k" (at 83.185 107.315 0)
      (effects (font (size 1.27 1.27)) (justify left))
    )
    (property "Footprint" "Resistor_SMD:R_0805_2012Metric_Pad1.20x1.40mm_HandSolder" (at 84.455 106.045 0)
      (effects (font (size 1.27 1.27)) hide)
    )
    (property "Datasheet" "~" (at 84.455 106.045 0)
      (effects (font (size 1.27 1.27)) hide)
    )
    (pin "1" (uuid dd2bed41-fa51-457d-9f29-ceb559948afc))
    (pin "2" (uuid ae845ed5-800f-48de-83f7-e02cd8689d5c))
    (instances
      (project "trc"
        (path "/5e0e9869-af81-4a3e-ad08-271d45318b88"
          (reference "R5") (unit 1)
        )
      )
    )
  )

  (symbol (lib_id "Device:C_Polarized") (at 60.96 180.34 0) (unit 1)
    (in_bom yes) (on_board yes) (dnp no) (fields_autoplaced)
    (uuid 9fe37797-fe26-4e25-a093-331318e621e2)
    (property "Reference" "C1" (at 64.77 178.1809 0)
      (effects (font (size 1.27 1.27)) (justify left))
    )
    (property "Value" "100u" (at 64.77 180.7209 0)
      (effects (font (size 1.27 1.27)) (justify left))
    )
    (property "Footprint" "Capacitor_THT:CP_Radial_D5.0mm_P2.00mm" (at 61.9252 184.15 0)
      (effects (font (size 1.27 1.27)) hide)
    )
    (property "Datasheet" "~" (at 60.96 180.34 0)
      (effects (font (size 1.27 1.27)) hide)
    )
    (pin "1" (uuid bca550f2-4832-479c-9baa-af9ed6b75de7))
    (pin "2" (uuid f89976ce-89d2-4c21-95cd-9d931e00d158))
    (instances
      (project "trc"
        (path "/5e0e9869-af81-4a3e-ad08-271d45318b88"
          (reference "C1") (unit 1)
        )
      )
    )
  )

  (symbol (lib_id "Mechanical:MountingHole") (at 158.75 20.32 0) (unit 1)
    (in_bom yes) (on_board yes) (dnp no) (fields_autoplaced)
    (uuid a099569b-4480-404a-92e2-dced82aa5084)
    (property "Reference" "H1" (at 161.29 19.685 0)
      (effects (font (size 1.27 1.27)) (justify left))
    )
    (property "Value" "MountingHole" (at 161.29 22.225 0)
      (effects (font (size 1.27 1.27)) (justify left))
    )
    (property "Footprint" "MountingHole:MountingHole_4.3mm_M4" (at 158.75 20.32 0)
      (effects (font (size 1.27 1.27)) hide)
    )
    (property "Datasheet" "~" (at 158.75 20.32 0)
      (effects (font (size 1.27 1.27)) hide)
    )
    (instances
      (project "trc"
        (path "/5e0e9869-af81-4a3e-ad08-271d45318b88"
          (reference "H1") (unit 1)
        )
      )
    )
  )

  (symbol (lib_id "power:GND") (at 88.9 77.47 0) (unit 1)
    (in_bom yes) (on_board yes) (dnp no)
    (uuid a36fec9e-46c0-4769-8407-c6b3d6831d99)
    (property "Reference" "#PWR012" (at 88.9 83.82 0)
      (effects (font (size 1.27 1.27)) hide)
    )
    (property "Value" "GND" (at 88.9 81.28 0)
      (effects (font (size 1.27 1.27)))
    )
    (property "Footprint" "" (at 88.9 77.47 0)
      (effects (font (size 1.27 1.27)) hide)
    )
    (property "Datasheet" "" (at 88.9 77.47 0)
      (effects (font (size 1.27 1.27)) hide)
    )
    (pin "1" (uuid 67114ec5-6560-49ed-ac0f-11ed5ebeaa42))
    (instances
      (project "trc"
        (path "/5e0e9869-af81-4a3e-ad08-271d45318b88"
          (reference "#PWR012") (unit 1)
        )
      )
    )
  )

  (symbol (lib_id "Connector_Generic:Conn_01x04") (at 198.12 121.92 0) (mirror x) (unit 1)
    (in_bom yes) (on_board yes) (dnp no)
    (uuid a38b4346-4904-4e11-9e8d-85e040d5e0cd)
    (property "Reference" "J5" (at 198.12 113.03 0)
      (effects (font (size 1.27 1.27)))
    )
    (property "Value" "States" (at 198.12 114.3 0)
      (effects (font (size 1.27 1.27)))
    )
    (property "Footprint" "Connector_Molex:Molex_Micro-Fit_3.0_43045-0412_2x02_P3.00mm_Vertical" (at 198.12 121.92 0)
      (effects (font (size 1.27 1.27)) hide)
    )
    (property "Datasheet" "~" (at 198.12 121.92 0)
      (effects (font (size 1.27 1.27)) hide)
    )
    (pin "1" (uuid 7b19400f-03c5-4a02-95f7-136b10131867))
    (pin "2" (uuid b2736774-f767-4ad7-816d-4991ed4831f8))
    (pin "3" (uuid 501b286a-85d6-4e6f-99a9-326b1f48b0b1))
    (pin "4" (uuid bba4b6b5-a388-44ac-a506-021142f00bc6))
    (instances
      (project "trc"
        (path "/5e0e9869-af81-4a3e-ad08-271d45318b88"
          (reference "J5") (unit 1)
        )
      )
    )
  )

  (symbol (lib_id "Device:R_Small") (at 90.17 50.8 0) (unit 1)
    (in_bom yes) (on_board yes) (dnp no)
    (uuid ad93ff50-4636-46ff-b9f2-a4f081a6f8d6)
    (property "Reference" "R7" (at 91.44 49.53 0)
      (effects (font (size 1.27 1.27)) (justify left))
    )
    (property "Value" "10k" (at 91.44 52.07 0)
      (effects (font (size 1.27 1.27)) (justify left))
    )
    (property "Footprint" "Resistor_SMD:R_0805_2012Metric_Pad1.20x1.40mm_HandSolder" (at 90.17 50.8 0)
      (effects (font (size 1.27 1.27)) hide)
    )
    (property "Datasheet" "~" (at 90.17 50.8 0)
      (effects (font (size 1.27 1.27)) hide)
    )
    (pin "1" (uuid 8dcffbbb-337d-4908-a136-227e7dbfd26f))
    (pin "2" (uuid 21dc8a17-3abb-47da-a11f-446a446fd0cf))
    (instances
      (project "trc"
        (path "/5e0e9869-af81-4a3e-ad08-271d45318b88"
          (reference "R7") (unit 1)
        )
      )
    )
  )

  (symbol (lib_id "power:+12V") (at 81.915 89.535 0) (unit 1)
    (in_bom yes) (on_board yes) (dnp no)
    (uuid b4b26fe6-3dae-4ea1-b81c-800e69a0b80d)
    (property "Reference" "#PWR09" (at 81.915 93.345 0)
      (effects (font (size 1.27 1.27)) hide)
    )
    (property "Value" "+12V" (at 81.915 85.725 0)
      (effects (font (size 1.27 1.27)))
    )
    (property "Footprint" "" (at 81.915 89.535 0)
      (effects (font (size 1.27 1.27)) hide)
    )
    (property "Datasheet" "" (at 81.915 89.535 0)
      (effects (font (size 1.27 1.27)) hide)
    )
    (pin "1" (uuid 97c8e0ba-3c96-45e7-95a9-55c542deed13))
    (instances
      (project "trc"
        (path "/5e0e9869-af81-4a3e-ad08-271d45318b88"
          (reference "#PWR09") (unit 1)
        )
      )
    )
  )

  (symbol (lib_id "power:GND") (at 50.8 186.69 0) (unit 1)
    (in_bom yes) (on_board yes) (dnp no)
    (uuid bafd561a-f5ac-498f-bc86-99ebd20ab33c)
    (property "Reference" "#PWR01" (at 50.8 193.04 0)
      (effects (font (size 1.27 1.27)) hide)
    )
    (property "Value" "GND" (at 50.8 190.5 0)
      (effects (font (size 1.27 1.27)))
    )
    (property "Footprint" "" (at 50.8 186.69 0)
      (effects (font (size 1.27 1.27)) hide)
    )
    (property "Datasheet" "" (at 50.8 186.69 0)
      (effects (font (size 1.27 1.27)) hide)
    )
    (pin "1" (uuid 06bc4bed-f39b-447d-9639-83343a5b485b))
    (instances
      (project "trc"
        (path "/5e0e9869-af81-4a3e-ad08-271d45318b88"
          (reference "#PWR01") (unit 1)
        )
      )
    )
  )

  (symbol (lib_id "Device:R_Small") (at 52.07 62.23 0) (mirror y) (unit 1)
    (in_bom yes) (on_board yes) (dnp no)
    (uuid bd6ec206-27a7-4f8e-a8d5-ef9e27f21ae5)
    (property "Reference" "R1" (at 50.8 60.96 0)
      (effects (font (size 1.27 1.27)) (justify left))
    )
    (property "Value" "3k3" (at 50.8 63.5 0)
      (effects (font (size 1.27 1.27)) (justify left))
    )
    (property "Footprint" "Resistor_SMD:R_0805_2012Metric_Pad1.20x1.40mm_HandSolder" (at 52.07 62.23 0)
      (effects (font (size 1.27 1.27)) hide)
    )
    (property "Datasheet" "~" (at 52.07 62.23 0)
      (effects (font (size 1.27 1.27)) hide)
    )
    (pin "1" (uuid d0beafe8-cbfd-4a47-ab2f-d51682dcc0da))
    (pin "2" (uuid d79666a9-70b2-458f-886e-2a7345f191e6))
    (instances
      (project "trc"
        (path "/5e0e9869-af81-4a3e-ad08-271d45318b88"
          (reference "R1") (unit 1)
        )
      )
    )
  )

  (symbol (lib_id "power:GND") (at 85.09 31.75 0) (mirror y) (unit 1)
    (in_bom yes) (on_board yes) (dnp no)
    (uuid beae16d6-0616-4b25-86c3-5d82657ad359)
    (property "Reference" "#PWR013" (at 85.09 38.1 0)
      (effects (font (size 1.27 1.27)) hide)
    )
    (property "Value" "GND" (at 85.09 35.56 0)
      (effects (font (size 1.27 1.27)))
    )
    (property "Footprint" "" (at 85.09 31.75 0)
      (effects (font (size 1.27 1.27)) hide)
    )
    (property "Datasheet" "" (at 85.09 31.75 0)
      (effects (font (size 1.27 1.27)) hide)
    )
    (pin "1" (uuid 2902c10f-1614-413b-985a-0611595dd29b))
    (instances
      (project "trc"
        (path "/5e0e9869-af81-4a3e-ad08-271d45318b88"
          (reference "#PWR013") (unit 1)
        )
      )
    )
  )

  (symbol (lib_id "Device:D") (at 60.96 154.94 270) (mirror x) (unit 1)
    (in_bom yes) (on_board yes) (dnp no)
    (uuid c051722b-fbbf-4a24-8c7c-ecfb351fcd2d)
    (property "Reference" "D2" (at 63.5 153.67 90)
      (effects (font (size 1.27 1.27)) (justify left))
    )
    (property "Value" "SS14+" (at 63.5 156.21 90)
      (effects (font (size 1.27 1.27)) (justify left))
    )
    (property "Footprint" "Diode_SMD:D_SMA" (at 60.96 154.94 0)
      (effects (font (size 1.27 1.27)) hide)
    )
    (property "Datasheet" "~" (at 60.96 154.94 0)
      (effects (font (size 1.27 1.27)) hide)
    )
    (property "Sim.Device" "D" (at 60.96 154.94 0)
      (effects (font (size 1.27 1.27)) hide)
    )
    (property "Sim.Pins" "1=K 2=A" (at 60.96 154.94 0)
      (effects (font (size 1.27 1.27)) hide)
    )
    (pin "1" (uuid fd74953e-248f-4492-9fd6-63c1fa0f6db7))
    (pin "2" (uuid 365b75ae-b7b2-4f48-a0d7-bb4362f5e81a))
    (instances
      (project "trc"
        (path "/5e0e9869-af81-4a3e-ad08-271d45318b88"
          (reference "D2") (unit 1)
        )
      )
    )
  )

  (symbol (lib_id "Device:Fuse") (at 60.96 165.1 0) (mirror y) (unit 1)
    (in_bom yes) (on_board yes) (dnp no) (fields_autoplaced)
    (uuid c5459f30-3033-47bc-bc86-2767eb8f9110)
    (property "Reference" "F1" (at 63.5 164.465 0)
      (effects (font (size 1.27 1.27)) (justify right))
    )
    (property "Value" "0448.500MR" (at 63.5 167.005 0)
      (effects (font (size 1.27 1.27)) (justify right))
    )
    (property "Footprint" "Fuse:Fuse_Littelfuse-NANO2-451_453" (at 62.738 165.1 90)
      (effects (font (size 1.27 1.27)) hide)
    )
    (property "Datasheet" "" (at 60.96 165.1 0)
      (effects (font (size 1.27 1.27)) hide)
    )
    (property "Supplier" "Mouser" (at 60.96 165.1 0)
      (effects (font (size 1.27 1.27)) hide)
    )
    (property "Order Code" "576-0448.500MR" (at 60.96 165.1 0)
      (effects (font (size 1.27 1.27)) hide)
    )
    (pin "1" (uuid c62d1ffc-4793-4ff1-9016-b6e5c20c989d))
    (pin "2" (uuid c6e8509c-045c-4e15-971a-8ae6ad9f9688))
    (instances
      (project "trc"
        (path "/5e0e9869-af81-4a3e-ad08-271d45318b88"
          (reference "F1") (unit 1)
        )
      )
      (project "hv_sense"
        (path "/e63e39d7-6ac0-4ffd-8aa3-1841a4541b55"
          (reference "F2") (unit 1)
        )
      )
    )
  )

  (symbol (lib_id "Mechanical:MountingHole") (at 158.75 39.37 0) (unit 1)
    (in_bom yes) (on_board yes) (dnp no) (fields_autoplaced)
    (uuid c64b728b-3a0f-4cd2-a87d-8ff37a0f518e)
    (property "Reference" "H4" (at 161.29 38.735 0)
      (effects (font (size 1.27 1.27)) (justify left))
    )
    (property "Value" "MountingHole" (at 161.29 41.275 0)
      (effects (font (size 1.27 1.27)) (justify left))
    )
    (property "Footprint" "MountingHole:MountingHole_4.3mm_M4" (at 158.75 39.37 0)
      (effects (font (size 1.27 1.27)) hide)
    )
    (property "Datasheet" "~" (at 158.75 39.37 0)
      (effects (font (size 1.27 1.27)) hide)
    )
    (instances
      (project "trc"
        (path "/5e0e9869-af81-4a3e-ad08-271d45318b88"
          (reference "H4") (unit 1)
        )
      )
    )
  )

  (symbol (lib_id "Connector_Generic:Conn_01x04") (at 250.19 64.77 0) (unit 1)
    (in_bom yes) (on_board yes) (dnp no)
    (uuid cb848aa1-e3ff-4cc0-9e57-e89bf7f03e8e)
    (property "Reference" "J6" (at 248.92 59.69 0)
      (effects (font (size 1.27 1.27)) (justify left))
    )
    (property "Value" "Relays" (at 247.015 73.025 0)
      (effects (font (size 1.27 1.27)) (justify left))
    )
    (property "Footprint" "Connector_Molex:Molex_Micro-Fit_3.0_43045-0400_2x02_P3.00mm_Horizontal" (at 250.19 64.77 0)
      (effects (font (size 1.27 1.27)) hide)
    )
    (property "Datasheet" "~" (at 250.19 64.77 0)
      (effects (font (size 1.27 1.27)) hide)
    )
    (pin "1" (uuid 7cdc8b78-b448-4a10-88be-f856feb822f7))
    (pin "2" (uuid dd990316-9c2f-4ff4-ae40-7dbef9b8d28c))
    (pin "3" (uuid 5dee77d3-cd74-44e6-aeeb-a45392ccf519))
    (pin "4" (uuid f67a2941-cbf2-48d1-b201-9a3773e3b1b4))
    (instances
      (project "trc"
        (path "/5e0e9869-af81-4a3e-ad08-271d45318b88"
          (reference "J6") (unit 1)
        )
      )
    )
  )

  (symbol (lib_id "Mechanical:MountingHole") (at 158.75 26.67 0) (unit 1)
    (in_bom yes) (on_board yes) (dnp no) (fields_autoplaced)
    (uuid e536f280-3ea8-4e41-96ae-83ca9905d25d)
    (property "Reference" "H2" (at 161.29 26.035 0)
      (effects (font (size 1.27 1.27)) (justify left))
    )
    (property "Value" "MountingHole" (at 161.29 28.575 0)
      (effects (font (size 1.27 1.27)) (justify left))
    )
    (property "Footprint" "MountingHole:MountingHole_4.3mm_M4" (at 158.75 26.67 0)
      (effects (font (size 1.27 1.27)) hide)
    )
    (property "Datasheet" "~" (at 158.75 26.67 0)
      (effects (font (size 1.27 1.27)) hide)
    )
    (instances
      (project "trc"
        (path "/5e0e9869-af81-4a3e-ad08-271d45318b88"
          (reference "H2") (unit 1)
        )
      )
    )
  )

  (symbol (lib_id "power:PWR_FLAG") (at 82.55 173.99 270) (unit 1)
    (in_bom yes) (on_board yes) (dnp no)
    (uuid e835c281-5b52-420d-979f-3ac50ca230e7)
    (property "Reference" "#FLG02" (at 84.455 173.99 0)
      (effects (font (size 1.27 1.27)) hide)
    )
    (property "Value" "PWR_FLAG" (at 91.44 173.99 90)
      (effects (font (size 1.27 1.27)))
    )
    (property "Footprint" "" (at 82.55 173.99 0)
      (effects (font (size 1.27 1.27)) hide)
    )
    (property "Datasheet" "~" (at 82.55 173.99 0)
      (effects (font (size 1.27 1.27)) hide)
    )
    (pin "1" (uuid 99ddadad-4422-4558-9fe5-430f31247ad4))
    (instances
      (project "trc"
        (path "/5e0e9869-af81-4a3e-ad08-271d45318b88"
          (reference "#FLG02") (unit 1)
        )
      )
    )
  )

  (symbol (lib_id "power:+12V") (at 88.9 43.18 0) (mirror y) (unit 1)
    (in_bom yes) (on_board yes) (dnp no)
    (uuid ea9952f2-f55b-4ea3-95ce-ef2eadce4938)
    (property "Reference" "#PWR014" (at 88.9 46.99 0)
      (effects (font (size 1.27 1.27)) hide)
    )
    (property "Value" "+12V" (at 88.9 39.37 0)
      (effects (font (size 1.27 1.27)) hide)
    )
    (property "Footprint" "" (at 88.9 43.18 0)
      (effects (font (size 1.27 1.27)) hide)
    )
    (property "Datasheet" "" (at 88.9 43.18 0)
      (effects (font (size 1.27 1.27)) hide)
    )
    (pin "1" (uuid 9f6ab1ca-441c-49e4-8c25-9f3b6aebe286))
    (instances
      (project "trc"
        (path "/5e0e9869-af81-4a3e-ad08-271d45318b88"
          (reference "#PWR014") (unit 1)
        )
      )
    )
  )

  (symbol (lib_id "power:GND") (at 86.995 89.535 180) (unit 1)
    (in_bom yes) (on_board yes) (dnp no)
    (uuid f28451f8-d849-46b0-b28d-f867a7b6c167)
    (property "Reference" "#PWR011" (at 86.995 83.185 0)
      (effects (font (size 1.27 1.27)) hide)
    )
    (property "Value" "GND" (at 86.995 85.725 0)
      (effects (font (size 1.27 1.27)))
    )
    (property "Footprint" "" (at 86.995 89.535 0)
      (effects (font (size 1.27 1.27)) hide)
    )
    (property "Datasheet" "" (at 86.995 89.535 0)
      (effects (font (size 1.27 1.27)) hide)
    )
    (pin "1" (uuid 6165a38a-e3d0-4989-be05-deeea8d3d7bf))
    (instances
      (project "trc"
        (path "/5e0e9869-af81-4a3e-ad08-271d45318b88"
          (reference "#PWR011") (unit 1)
        )
      )
    )
  )

  (symbol (lib_id "power:PWR_FLAG") (at 50.8 173.99 90) (unit 1)
    (in_bom yes) (on_board yes) (dnp no)
    (uuid fea089de-84ff-427a-bb60-837d906f3345)
    (property "Reference" "#FLG01" (at 48.895 173.99 0)
      (effects (font (size 1.27 1.27)) hide)
    )
    (property "Value" "PWR_FLAG" (at 41.91 173.99 90)
      (effects (font (size 1.27 1.27)))
    )
    (property "Footprint" "" (at 50.8 173.99 0)
      (effects (font (size 1.27 1.27)) hide)
    )
    (property "Datasheet" "~" (at 50.8 173.99 0)
      (effects (font (size 1.27 1.27)) hide)
    )
    (pin "1" (uuid 19d175be-2d11-498b-b868-a62471bbc131))
    (instances
      (project "trc"
        (path "/5e0e9869-af81-4a3e-ad08-271d45318b88"
          (reference "#FLG01") (unit 1)
        )
      )
    )
  )

  (sheet (at 93.98 54.61) (size 55.88 80.01)
    (stroke (width 0.1524) (type solid))
    (fill (color 0 0 0 0.0000))
    (uuid 2afcdf03-bf2d-4292-8a78-159923bfce9e)
    (property "Sheetname" "Control Logic" (at 136.525 53.975 0)
      (effects (font (size 1.27 1.27)) (justify left bottom))
    )
    (property "Sheetfile" "control.kicad_sch" (at 93.98 135.2046 0)
      (effects (font (size 1.27 1.27)) (justify left top))
    )
    (pin "EXT_FAULT" input (at 93.98 113.03 180)
      (effects (font (size 1.27 1.27)) (justify left))
      (uuid 00a5c813-4148-4154-a806-229e70a31fc6)
    )
    (pin "~{INV_FAULT}" input (at 93.98 67.31 180)
      (effects (font (size 1.27 1.27)) (justify left))
      (uuid c4a53eb8-1568-4c87-8d55-58c12b6fc61a)
    )
    (pin "TS_ON_INPUT" input (at 93.98 110.49 180)
      (effects (font (size 1.27 1.27)) (justify left))
      (uuid 880c1477-050f-40d7-8cf5-42c74973c32a)
    )
    (pin "CLOSE_PCHG_RLY" output (at 149.86 62.23 0)
      (effects (font (size 1.27 1.27)) (justify right))
      (uuid fdafe375-d4d3-452d-89fe-0de706a0c259)
    )
    (pin "CLOSE_POS_AIR" output (at 149.86 64.77 0)
      (effects (font (size 1.27 1.27)) (justify right))
      (uuid 3163f925-c5f2-486f-9c2e-ac2586595159)
    )
    (pin "CLOSE_NEG_AIR" output (at 149.86 67.31 0)
      (effects (font (size 1.27 1.27)) (justify right))
      (uuid 37b97309-45c2-4423-810e-0ebf2b659c5a)
    )
    (pin "INV_CLOSE_PCHG_RLY" input (at 93.98 64.77 180)
      (effects (font (size 1.27 1.27)) (justify left))
      (uuid 9309a9b4-1c4f-4a62-ae1f-30a3b8ed7177)
    )
    (pin "INV_CLOSE_MAIN_CONTACTOR" input (at 93.98 62.23 180)
      (effects (font (size 1.27 1.27)) (justify left))
      (uuid 5b0690e0-afda-4412-bd6d-599877006a67)
    )
    (pin "TS_ENABLED" output (at 93.98 130.81 180)
      (effects (font (size 1.27 1.27)) (justify left))
      (uuid f1107198-ffc7-4f34-ba66-5b04e44ac1e3)
    )
    (pin "~{DISCHG_EN}" input (at 93.98 59.69 180)
      (effects (font (size 1.27 1.27)) (justify left))
      (uuid 23fdabd8-20e0-483b-a553-6f9b0c9e3a0f)
    )
    (pin "TS_READY" output (at 149.86 130.81 0)
      (effects (font (size 1.27 1.27)) (justify right))
      (uuid b8e69521-17dc-4550-bbc6-f52353070810)
    )
    (pin "CHG_EN" output (at 149.86 59.69 0)
      (effects (font (size 1.27 1.27)) (justify right))
      (uuid e110825d-94e0-48a2-9c9e-af37f3656f68)
    )
    (pin "~{CHG_EN_INTERLOCKED}" input (at 93.98 57.15 180)
      (effects (font (size 1.27 1.27)) (justify left))
      (uuid dade93dc-43a7-447d-9410-e4afb41e3bf5)
    )
    (instances
      (project "trc"
        (path "/5e0e9869-af81-4a3e-ad08-271d45318b88" (page "2"))
      )
    )
  )

  (sheet (at 193.04 57.15) (size 36.83 36.83) (fields_autoplaced)
    (stroke (width 0.1524) (type solid))
    (fill (color 0 0 0 0.0000))
    (uuid 69e1a8e2-aecd-4790-9267-94ebdba414d7)
    (property "Sheetname" "Relays" (at 193.04 56.4384 0)
      (effects (font (size 1.27 1.27)) (justify left bottom))
    )
    (property "Sheetfile" "relays.kicad_sch" (at 193.04 94.5646 0)
      (effects (font (size 1.27 1.27)) (justify left top))
    )
    (pin "NEG_AIR" output (at 229.87 64.77 0)
      (effects (font (size 1.27 1.27)) (justify right))
      (uuid d1d7ace0-c52d-498c-be2a-e823ab292cc0)
    )
    (pin "POS_AIR" output (at 229.87 62.23 0)
      (effects (font (size 1.27 1.27)) (justify right))
      (uuid 066906fc-b11a-4efb-bae5-5e9fa1143f73)
    )
    (pin "SHDN_IN" input (at 229.87 90.17 0)
      (effects (font (size 1.27 1.27)) (justify right))
      (uuid e95e4735-1fb3-4dee-99e1-e804d98a42ad)
    )
    (pin "CLOSE_PCHG_RLY" input (at 193.04 85.09 180)
      (effects (font (size 1.27 1.27)) (justify left))
      (uuid 5bcc49e5-d41f-4301-8eee-831797d61b92)
    )
    (pin "CHG_EN" input (at 193.04 82.55 180)
      (effects (font (size 1.27 1.27)) (justify left))
      (uuid 494f9d4d-c806-4d4c-bc2d-5536556fb292)
    )
    (pin "CLOSE_NEG_AIR" input (at 193.04 90.17 180)
      (effects (font (size 1.27 1.27)) (justify left))
      (uuid ec6d1bf5-f52e-4756-adef-fb4376112bdb)
    )
    (pin "CLOSE_POS_AIR" input (at 193.04 87.63 180)
      (effects (font (size 1.27 1.27)) (justify left))
      (uuid fd7804de-99bd-456f-a0a9-9b706556b3ec)
    )
    (pin "PCHG_RLY-" output (at 229.87 69.85 0)
      (effects (font (size 1.27 1.27)) (justify right))
      (uuid 002b79b3-9710-465f-9e5b-221092b38879)
    )
    (pin "PCHG_RLY+" output (at 229.87 67.31 0)
      (effects (font (size 1.27 1.27)) (justify right))
      (uuid 38f0731d-a75b-4c98-baa6-16c23728b5a6)
    )
    (instances
      (project "trc"
        (path "/5e0e9869-af81-4a3e-ad08-271d45318b88" (page "3"))
      )
    )
  )

  (sheet_instances
    (path "/" (page "1"))
  )
)
