(kicad_sch (version 20230121) (generator eeschema)

  (uuid 88939632-0c0a-4005-848a-2120eb15f180)

  (paper "A4")

  (lib_symbols
    (symbol "Connector:DB15_Female_HighDensity_MountingHoles" (pin_names (offset 1.016) hide) (in_bom yes) (on_board yes)
      (property "Reference" "J" (at 0 21.59 0)
        (effects (font (size 1.27 1.27)))
      )
      (property "Value" "DB15_Female_HighDensity_MountingHoles" (at 0 19.05 0)
        (effects (font (size 1.27 1.27)))
      )
      (property "Footprint" "" (at -24.13 10.16 0)
        (effects (font (size 1.27 1.27)) hide)
      )
      (property "Datasheet" " ~" (at -24.13 10.16 0)
        (effects (font (size 1.27 1.27)) hide)
      )
      (property "ki_keywords" "connector db15 female D-SUB VGA" (at 0 0 0)
        (effects (font (size 1.27 1.27)) hide)
      )
      (property "ki_description" "15-pin female D-SUB connector, High density (3 columns), Triple Row, Generic, VGA-connector, Mounting Hole" (at 0 0 0)
        (effects (font (size 1.27 1.27)) hide)
      )
      (property "ki_fp_filters" "DSUB*Female*" (at 0 0 0)
        (effects (font (size 1.27 1.27)) hide)
      )
      (symbol "DB15_Female_HighDensity_MountingHoles_0_1"
        (circle (center -1.905 -10.16) (radius 0.635)
          (stroke (width 0) (type default))
          (fill (type none))
        )
        (circle (center -1.905 -5.08) (radius 0.635)
          (stroke (width 0) (type default))
          (fill (type none))
        )
        (circle (center -1.905 0) (radius 0.635)
          (stroke (width 0) (type default))
          (fill (type none))
        )
        (circle (center -1.905 5.08) (radius 0.635)
          (stroke (width 0) (type default))
          (fill (type none))
        )
        (circle (center -1.905 10.16) (radius 0.635)
          (stroke (width 0) (type default))
          (fill (type none))
        )
        (circle (center 0 -7.62) (radius 0.635)
          (stroke (width 0) (type default))
          (fill (type none))
        )
        (circle (center 0 -2.54) (radius 0.635)
          (stroke (width 0) (type default))
          (fill (type none))
        )
        (polyline
          (pts
            (xy -3.175 7.62)
            (xy -0.635 7.62)
          )
          (stroke (width 0) (type default))
          (fill (type none))
        )
        (polyline
          (pts
            (xy -0.635 -7.62)
            (xy -3.175 -7.62)
          )
          (stroke (width 0) (type default))
          (fill (type none))
        )
        (polyline
          (pts
            (xy -0.635 -2.54)
            (xy -3.175 -2.54)
          )
          (stroke (width 0) (type default))
          (fill (type none))
        )
        (polyline
          (pts
            (xy -0.635 2.54)
            (xy -3.175 2.54)
          )
          (stroke (width 0) (type default))
          (fill (type none))
        )
        (polyline
          (pts
            (xy -0.635 12.7)
            (xy -3.175 12.7)
          )
          (stroke (width 0) (type default))
          (fill (type none))
        )
        (polyline
          (pts
            (xy -3.81 17.78)
            (xy -3.81 -15.24)
            (xy 3.81 -12.7)
            (xy 3.81 15.24)
            (xy -3.81 17.78)
          )
          (stroke (width 0.254) (type default))
          (fill (type background))
        )
        (circle (center 0 2.54) (radius 0.635)
          (stroke (width 0) (type default))
          (fill (type none))
        )
        (circle (center 0 7.62) (radius 0.635)
          (stroke (width 0) (type default))
          (fill (type none))
        )
        (circle (center 0 12.7) (radius 0.635)
          (stroke (width 0) (type default))
          (fill (type none))
        )
        (circle (center 1.905 -10.16) (radius 0.635)
          (stroke (width 0) (type default))
          (fill (type none))
        )
        (circle (center 1.905 -5.08) (radius 0.635)
          (stroke (width 0) (type default))
          (fill (type none))
        )
        (circle (center 1.905 0) (radius 0.635)
          (stroke (width 0) (type default))
          (fill (type none))
        )
        (circle (center 1.905 5.08) (radius 0.635)
          (stroke (width 0) (type default))
          (fill (type none))
        )
        (circle (center 1.905 10.16) (radius 0.635)
          (stroke (width 0) (type default))
          (fill (type none))
        )
      )
      (symbol "DB15_Female_HighDensity_MountingHoles_1_1"
        (pin passive line (at 0 -17.78 90) (length 3.81)
          (name "~" (effects (font (size 1.27 1.27))))
          (number "0" (effects (font (size 1.27 1.27))))
        )
        (pin passive line (at -7.62 10.16 0) (length 5.08)
          (name "~" (effects (font (size 1.27 1.27))))
          (number "1" (effects (font (size 1.27 1.27))))
        )
        (pin passive line (at -7.62 -7.62 0) (length 5.08)
          (name "~" (effects (font (size 1.27 1.27))))
          (number "10" (effects (font (size 1.27 1.27))))
        )
        (pin passive line (at 7.62 10.16 180) (length 5.08)
          (name "~" (effects (font (size 1.27 1.27))))
          (number "11" (effects (font (size 1.27 1.27))))
        )
        (pin passive line (at 7.62 5.08 180) (length 5.08)
          (name "~" (effects (font (size 1.27 1.27))))
          (number "12" (effects (font (size 1.27 1.27))))
        )
        (pin passive line (at 7.62 0 180) (length 5.08)
          (name "~" (effects (font (size 1.27 1.27))))
          (number "13" (effects (font (size 1.27 1.27))))
        )
        (pin passive line (at 7.62 -5.08 180) (length 5.08)
          (name "~" (effects (font (size 1.27 1.27))))
          (number "14" (effects (font (size 1.27 1.27))))
        )
        (pin passive line (at 7.62 -10.16 180) (length 5.08)
          (name "~" (effects (font (size 1.27 1.27))))
          (number "15" (effects (font (size 1.27 1.27))))
        )
        (pin passive line (at -7.62 5.08 0) (length 5.08)
          (name "~" (effects (font (size 1.27 1.27))))
          (number "2" (effects (font (size 1.27 1.27))))
        )
        (pin passive line (at -7.62 0 0) (length 5.08)
          (name "~" (effects (font (size 1.27 1.27))))
          (number "3" (effects (font (size 1.27 1.27))))
        )
        (pin passive line (at -7.62 -5.08 0) (length 5.08)
          (name "~" (effects (font (size 1.27 1.27))))
          (number "4" (effects (font (size 1.27 1.27))))
        )
        (pin passive line (at -7.62 -10.16 0) (length 5.08)
          (name "~" (effects (font (size 1.27 1.27))))
          (number "5" (effects (font (size 1.27 1.27))))
        )
        (pin passive line (at -7.62 12.7 0) (length 5.08)
          (name "~" (effects (font (size 1.27 1.27))))
          (number "6" (effects (font (size 1.27 1.27))))
        )
        (pin passive line (at -7.62 7.62 0) (length 5.08)
          (name "~" (effects (font (size 1.27 1.27))))
          (number "7" (effects (font (size 1.27 1.27))))
        )
        (pin passive line (at -7.62 2.54 0) (length 5.08)
          (name "~" (effects (font (size 1.27 1.27))))
          (number "8" (effects (font (size 1.27 1.27))))
        )
        (pin passive line (at -7.62 -2.54 0) (length 5.08)
          (name "~" (effects (font (size 1.27 1.27))))
          (number "9" (effects (font (size 1.27 1.27))))
        )
      )
    )
    (symbol "Ddraig:ADV7123JSTZ240" (pin_names (offset 0.762)) (in_bom yes) (on_board yes)
      (property "Reference" "U" (at -11.43 41.91 0)
        (effects (font (size 1.27 1.27)) (justify left))
      )
      (property "Value" "ADV7123JSTZ240" (at 3.81 41.91 0)
        (effects (font (size 1.27 1.27)) (justify left))
      )
      (property "Footprint" "Ddraig:QFP50P900X900X160-48N" (at 26.67 35.56 0)
        (effects (font (size 1.27 1.27)) (justify left) hide)
      )
      (property "Datasheet" "http://www.analog.com/media/en/technical-documentation/data-sheets/ADV7123.pdf" (at 26.67 33.02 0)
        (effects (font (size 1.27 1.27)) (justify left) hide)
      )
      (property "Description" "DAC 3-CH Segment 10-Bit 48-Pin LQFP ADV7123JSTZ240, Video DAC Triple, 10 bit- 240Msps +/-5%FSR Parallel, 48-Pin LQFP" (at 26.67 30.48 0)
        (effects (font (size 1.27 1.27)) (justify left) hide)
      )
      (property "Height" "1.6" (at 26.67 20.32 0)
        (effects (font (size 1.27 1.27)) (justify left) hide)
      )
      (property "Manufacturer_Name" "Analog Devices" (at 26.67 27.94 0)
        (effects (font (size 1.27 1.27)) (justify left) hide)
      )
      (property "Manufacturer_Part_Number" "ADV7123JSTZ240" (at 26.67 25.4 0)
        (effects (font (size 1.27 1.27)) (justify left) hide)
      )
      (property "Mouser Part Number" "584-ADV7123JSTZ240" (at 26.67 22.86 0)
        (effects (font (size 1.27 1.27)) (justify left) hide)
      )
      (property "Mouser Price/Stock" "https://www.mouser.co.uk/ProductDetail/Analog-Devices/ADV7123JSTZ240?qs=WIvQP4zGanjDI%252B5uMjCvVw%3D%3D" (at 26.67 17.78 0)
        (effects (font (size 1.27 1.27)) (justify left) hide)
      )
      (property "Arrow Part Number" "ADV7123JSTZ240" (at 26.67 17.78 0)
        (effects (font (size 1.27 1.27)) (justify left) hide)
      )
      (property "Arrow Price/Stock" "https://www.arrow.com/en/products/adv7123jstz240/analog-devices" (at 26.67 12.7 0)
        (effects (font (size 1.27 1.27)) (justify left) hide)
      )
      (symbol "ADV7123JSTZ240_0_0"
        (pin input line (at -17.78 10.16 0) (length 5.08)
          (name "G0" (effects (font (size 1.27 1.27))))
          (number "1" (effects (font (size 1.27 1.27))))
        )
        (pin input line (at -17.78 -12.7 0) (length 5.08)
          (name "G9" (effects (font (size 1.27 1.27))))
          (number "10" (effects (font (size 1.27 1.27))))
        )
        (pin input inverted (at 17.78 -15.24 180) (length 5.08)
          (name "~{BLANK}" (effects (font (size 1.27 1.27))))
          (number "11" (effects (font (size 1.27 1.27))))
        )
        (pin input inverted (at 17.78 -12.7 180) (length 5.08)
          (name "~{SYNC}" (effects (font (size 1.27 1.27))))
          (number "12" (effects (font (size 1.27 1.27))))
        )
        (pin power_in line (at -2.54 45.72 270) (length 5.08)
          (name "VAA" (effects (font (size 1.27 1.27))))
          (number "13" (effects (font (size 1.27 1.27))))
        )
        (pin input line (at -17.78 -17.78 0) (length 5.08)
          (name "B0" (effects (font (size 1.27 1.27))))
          (number "14" (effects (font (size 1.27 1.27))))
        )
        (pin input line (at -17.78 -20.32 0) (length 5.08)
          (name "B1" (effects (font (size 1.27 1.27))))
          (number "15" (effects (font (size 1.27 1.27))))
        )
        (pin input line (at -17.78 -22.86 0) (length 5.08)
          (name "B2" (effects (font (size 1.27 1.27))))
          (number "16" (effects (font (size 1.27 1.27))))
        )
        (pin input line (at -17.78 -25.4 0) (length 5.08)
          (name "B3" (effects (font (size 1.27 1.27))))
          (number "17" (effects (font (size 1.27 1.27))))
        )
        (pin input line (at -17.78 -27.94 0) (length 5.08)
          (name "B4" (effects (font (size 1.27 1.27))))
          (number "18" (effects (font (size 1.27 1.27))))
        )
        (pin input line (at -17.78 -30.48 0) (length 5.08)
          (name "B5" (effects (font (size 1.27 1.27))))
          (number "19" (effects (font (size 1.27 1.27))))
        )
        (pin input line (at -17.78 7.62 0) (length 5.08)
          (name "G1" (effects (font (size 1.27 1.27))))
          (number "2" (effects (font (size 1.27 1.27))))
        )
        (pin input line (at -17.78 -33.02 0) (length 5.08)
          (name "B6" (effects (font (size 1.27 1.27))))
          (number "20" (effects (font (size 1.27 1.27))))
        )
        (pin input line (at -17.78 -35.56 0) (length 5.08)
          (name "B7" (effects (font (size 1.27 1.27))))
          (number "21" (effects (font (size 1.27 1.27))))
        )
        (pin input line (at -17.78 -38.1 0) (length 5.08)
          (name "B8" (effects (font (size 1.27 1.27))))
          (number "22" (effects (font (size 1.27 1.27))))
        )
        (pin input line (at -17.78 -40.64 0) (length 5.08)
          (name "B9" (effects (font (size 1.27 1.27))))
          (number "23" (effects (font (size 1.27 1.27))))
        )
        (pin input line (at 17.78 -10.16 180) (length 5.08)
          (name "CLOCK" (effects (font (size 1.27 1.27))))
          (number "24" (effects (font (size 1.27 1.27))))
        )
        (pin power_in line (at -1.27 -50.8 90) (length 5.08)
          (name "GND" (effects (font (size 1.27 1.27))))
          (number "25" (effects (font (size 1.27 1.27))))
        )
        (pin power_in line (at 1.27 -50.8 90) (length 5.08)
          (name "GND" (effects (font (size 1.27 1.27))))
          (number "26" (effects (font (size 1.27 1.27))))
        )
        (pin passive inverted (at 17.78 17.78 180) (length 5.08)
          (name "~{IOB}" (effects (font (size 1.27 1.27))))
          (number "27" (effects (font (size 1.27 1.27))))
        )
        (pin output line (at 17.78 20.32 180) (length 5.08)
          (name "IOB" (effects (font (size 1.27 1.27))))
          (number "28" (effects (font (size 1.27 1.27))))
        )
        (pin power_in line (at 0 45.72 270) (length 5.08)
          (name "VAA" (effects (font (size 1.27 1.27))))
          (number "29" (effects (font (size 1.27 1.27))))
        )
        (pin input line (at -17.78 5.08 0) (length 5.08)
          (name "G2" (effects (font (size 1.27 1.27))))
          (number "3" (effects (font (size 1.27 1.27))))
        )
        (pin power_in line (at 2.54 45.72 270) (length 5.08)
          (name "VAA" (effects (font (size 1.27 1.27))))
          (number "30" (effects (font (size 1.27 1.27))))
        )
        (pin passive inverted (at 17.78 25.4 180) (length 5.08)
          (name "~{IOG}" (effects (font (size 1.27 1.27))))
          (number "31" (effects (font (size 1.27 1.27))))
        )
        (pin output line (at 17.78 27.94 180) (length 5.08)
          (name "IOG" (effects (font (size 1.27 1.27))))
          (number "32" (effects (font (size 1.27 1.27))))
        )
        (pin passive inverted (at 17.78 33.02 180) (length 5.08)
          (name "~{IOR}" (effects (font (size 1.27 1.27))))
          (number "33" (effects (font (size 1.27 1.27))))
        )
        (pin output line (at 17.78 35.56 180) (length 5.08)
          (name "IOR" (effects (font (size 1.27 1.27))))
          (number "34" (effects (font (size 1.27 1.27))))
        )
        (pin input line (at 17.78 -33.02 180) (length 5.08)
          (name "COMP" (effects (font (size 1.27 1.27))))
          (number "35" (effects (font (size 1.27 1.27))))
        )
        (pin input line (at 17.78 -24.13 180) (length 5.08)
          (name "VREF" (effects (font (size 1.27 1.27))))
          (number "36" (effects (font (size 1.27 1.27))))
        )
        (pin input line (at 17.78 -27.94 180) (length 5.08)
          (name "RSET" (effects (font (size 1.27 1.27))))
          (number "37" (effects (font (size 1.27 1.27))))
        )
        (pin input inverted (at 17.78 -38.1 180) (length 5.08)
          (name "~{PSAVE}" (effects (font (size 1.27 1.27))))
          (number "38" (effects (font (size 1.27 1.27))))
        )
        (pin input line (at -17.78 36.83 0) (length 5.08)
          (name "R0" (effects (font (size 1.27 1.27))))
          (number "39" (effects (font (size 1.27 1.27))))
        )
        (pin input line (at -17.78 2.54 0) (length 5.08)
          (name "G3" (effects (font (size 1.27 1.27))))
          (number "4" (effects (font (size 1.27 1.27))))
        )
        (pin input line (at -17.78 34.29 0) (length 5.08)
          (name "R1" (effects (font (size 1.27 1.27))))
          (number "40" (effects (font (size 1.27 1.27))))
        )
        (pin input line (at -17.78 31.75 0) (length 5.08)
          (name "R2" (effects (font (size 1.27 1.27))))
          (number "41" (effects (font (size 1.27 1.27))))
        )
        (pin input line (at -17.78 29.21 0) (length 5.08)
          (name "R3" (effects (font (size 1.27 1.27))))
          (number "42" (effects (font (size 1.27 1.27))))
        )
        (pin input line (at -17.78 26.67 0) (length 5.08)
          (name "R4" (effects (font (size 1.27 1.27))))
          (number "43" (effects (font (size 1.27 1.27))))
        )
        (pin input line (at -17.78 24.13 0) (length 5.08)
          (name "R5" (effects (font (size 1.27 1.27))))
          (number "44" (effects (font (size 1.27 1.27))))
        )
        (pin input line (at -17.78 21.59 0) (length 5.08)
          (name "R6" (effects (font (size 1.27 1.27))))
          (number "45" (effects (font (size 1.27 1.27))))
        )
        (pin input line (at -17.78 19.05 0) (length 5.08)
          (name "R7" (effects (font (size 1.27 1.27))))
          (number "46" (effects (font (size 1.27 1.27))))
        )
        (pin input line (at -17.78 16.51 0) (length 5.08)
          (name "R8" (effects (font (size 1.27 1.27))))
          (number "47" (effects (font (size 1.27 1.27))))
        )
        (pin input line (at -17.78 13.97 0) (length 5.08)
          (name "R9" (effects (font (size 1.27 1.27))))
          (number "48" (effects (font (size 1.27 1.27))))
        )
        (pin input line (at -17.78 0 0) (length 5.08)
          (name "G4" (effects (font (size 1.27 1.27))))
          (number "5" (effects (font (size 1.27 1.27))))
        )
        (pin input line (at -17.78 -2.54 0) (length 5.08)
          (name "G5" (effects (font (size 1.27 1.27))))
          (number "6" (effects (font (size 1.27 1.27))))
        )
        (pin input line (at -17.78 -5.08 0) (length 5.08)
          (name "G6" (effects (font (size 1.27 1.27))))
          (number "7" (effects (font (size 1.27 1.27))))
        )
        (pin input line (at -17.78 -7.62 0) (length 5.08)
          (name "G7" (effects (font (size 1.27 1.27))))
          (number "8" (effects (font (size 1.27 1.27))))
        )
        (pin input line (at -17.78 -10.16 0) (length 5.08)
          (name "G8" (effects (font (size 1.27 1.27))))
          (number "9" (effects (font (size 1.27 1.27))))
        )
      )
      (symbol "ADV7123JSTZ240_0_1"
        (rectangle (start -12.7 -45.72) (end 12.7 40.64)
          (stroke (width 0) (type default))
          (fill (type background))
        )
      )
    )
    (symbol "Device:C" (pin_numbers hide) (pin_names (offset 0.254)) (in_bom yes) (on_board yes)
      (property "Reference" "C" (at 0.635 2.54 0)
        (effects (font (size 1.27 1.27)) (justify left))
      )
      (property "Value" "C" (at 0.635 -2.54 0)
        (effects (font (size 1.27 1.27)) (justify left))
      )
      (property "Footprint" "" (at 0.9652 -3.81 0)
        (effects (font (size 1.27 1.27)) hide)
      )
      (property "Datasheet" "~" (at 0 0 0)
        (effects (font (size 1.27 1.27)) hide)
      )
      (property "ki_keywords" "cap capacitor" (at 0 0 0)
        (effects (font (size 1.27 1.27)) hide)
      )
      (property "ki_description" "Unpolarized capacitor" (at 0 0 0)
        (effects (font (size 1.27 1.27)) hide)
      )
      (property "ki_fp_filters" "C_*" (at 0 0 0)
        (effects (font (size 1.27 1.27)) hide)
      )
      (symbol "C_0_1"
        (polyline
          (pts
            (xy -2.032 -0.762)
            (xy 2.032 -0.762)
          )
          (stroke (width 0.508) (type default))
          (fill (type none))
        )
        (polyline
          (pts
            (xy -2.032 0.762)
            (xy 2.032 0.762)
          )
          (stroke (width 0.508) (type default))
          (fill (type none))
        )
      )
      (symbol "C_1_1"
        (pin passive line (at 0 3.81 270) (length 2.794)
          (name "~" (effects (font (size 1.27 1.27))))
          (number "1" (effects (font (size 1.27 1.27))))
        )
        (pin passive line (at 0 -3.81 90) (length 2.794)
          (name "~" (effects (font (size 1.27 1.27))))
          (number "2" (effects (font (size 1.27 1.27))))
        )
      )
    )
    (symbol "Device:R" (pin_numbers hide) (pin_names (offset 0)) (in_bom yes) (on_board yes)
      (property "Reference" "R" (at 2.032 0 90)
        (effects (font (size 1.27 1.27)))
      )
      (property "Value" "R" (at 0 0 90)
        (effects (font (size 1.27 1.27)))
      )
      (property "Footprint" "" (at -1.778 0 90)
        (effects (font (size 1.27 1.27)) hide)
      )
      (property "Datasheet" "~" (at 0 0 0)
        (effects (font (size 1.27 1.27)) hide)
      )
      (property "ki_keywords" "R res resistor" (at 0 0 0)
        (effects (font (size 1.27 1.27)) hide)
      )
      (property "ki_description" "Resistor" (at 0 0 0)
        (effects (font (size 1.27 1.27)) hide)
      )
      (property "ki_fp_filters" "R_*" (at 0 0 0)
        (effects (font (size 1.27 1.27)) hide)
      )
      (symbol "R_0_1"
        (rectangle (start -1.016 -2.54) (end 1.016 2.54)
          (stroke (width 0.254) (type default))
          (fill (type none))
        )
      )
      (symbol "R_1_1"
        (pin passive line (at 0 3.81 270) (length 1.27)
          (name "~" (effects (font (size 1.27 1.27))))
          (number "1" (effects (font (size 1.27 1.27))))
        )
        (pin passive line (at 0 -3.81 90) (length 1.27)
          (name "~" (effects (font (size 1.27 1.27))))
          (number "2" (effects (font (size 1.27 1.27))))
        )
      )
    )
    (symbol "power:+3V3" (power) (pin_names (offset 0)) (in_bom yes) (on_board yes)
      (property "Reference" "#PWR" (at 0 -3.81 0)
        (effects (font (size 1.27 1.27)) hide)
      )
      (property "Value" "+3V3" (at 0 3.556 0)
        (effects (font (size 1.27 1.27)))
      )
      (property "Footprint" "" (at 0 0 0)
        (effects (font (size 1.27 1.27)) hide)
      )
      (property "Datasheet" "" (at 0 0 0)
        (effects (font (size 1.27 1.27)) hide)
      )
      (property "ki_keywords" "power-flag" (at 0 0 0)
        (effects (font (size 1.27 1.27)) hide)
      )
      (property "ki_description" "Power symbol creates a global label with name \"+3V3\"" (at 0 0 0)
        (effects (font (size 1.27 1.27)) hide)
      )
      (symbol "+3V3_0_1"
        (polyline
          (pts
            (xy -0.762 1.27)
            (xy 0 2.54)
          )
          (stroke (width 0) (type default))
          (fill (type none))
        )
        (polyline
          (pts
            (xy 0 0)
            (xy 0 2.54)
          )
          (stroke (width 0) (type default))
          (fill (type none))
        )
        (polyline
          (pts
            (xy 0 2.54)
            (xy 0.762 1.27)
          )
          (stroke (width 0) (type default))
          (fill (type none))
        )
      )
      (symbol "+3V3_1_1"
        (pin power_in line (at 0 0 90) (length 0) hide
          (name "+3V3" (effects (font (size 1.27 1.27))))
          (number "1" (effects (font (size 1.27 1.27))))
        )
      )
    )
    (symbol "power:GND" (power) (pin_names (offset 0)) (in_bom yes) (on_board yes)
      (property "Reference" "#PWR" (at 0 -6.35 0)
        (effects (font (size 1.27 1.27)) hide)
      )
      (property "Value" "GND" (at 0 -3.81 0)
        (effects (font (size 1.27 1.27)))
      )
      (property "Footprint" "" (at 0 0 0)
        (effects (font (size 1.27 1.27)) hide)
      )
      (property "Datasheet" "" (at 0 0 0)
        (effects (font (size 1.27 1.27)) hide)
      )
      (property "ki_keywords" "power-flag" (at 0 0 0)
        (effects (font (size 1.27 1.27)) hide)
      )
      (property "ki_description" "Power symbol creates a global label with name \"GND\" , ground" (at 0 0 0)
        (effects (font (size 1.27 1.27)) hide)
      )
      (symbol "GND_0_1"
        (polyline
          (pts
            (xy 0 0)
            (xy 0 -1.27)
            (xy 1.27 -1.27)
            (xy 0 -2.54)
            (xy -1.27 -1.27)
            (xy 0 -1.27)
          )
          (stroke (width 0) (type default))
          (fill (type none))
        )
      )
      (symbol "GND_1_1"
        (pin power_in line (at 0 0 270) (length 0) hide
          (name "GND" (effects (font (size 1.27 1.27))))
          (number "1" (effects (font (size 1.27 1.27))))
        )
      )
    )
  )

  (junction (at 104.14 88.9) (diameter 0) (color 0 0 0 0)
    (uuid 085dfda0-c1f2-46db-bd3c-29c41a324430)
  )
  (junction (at 204.47 91.44) (diameter 0) (color 0 0 0 0)
    (uuid 093b8508-25ae-4956-b7b1-194ff1331e2f)
  )
  (junction (at 124.46 49.53) (diameter 0) (color 0 0 0 0)
    (uuid 215a8e4b-4cfc-4d3e-b09b-d8735d77351d)
  )
  (junction (at 237.49 135.89) (diameter 0) (color 0 0 0 0)
    (uuid 22bc3129-1434-4ecf-bf75-731ad2009bdf)
  )
  (junction (at 204.47 76.2) (diameter 0) (color 0 0 0 0)
    (uuid 2526fbcf-c8b1-44a3-84df-b50404cae361)
  )
  (junction (at 104.14 62.23) (diameter 0) (color 0 0 0 0)
    (uuid 2a9c5f67-d22d-42c5-9ec7-5ed75b18a412)
  )
  (junction (at 144.78 78.74) (diameter 0) (color 0 0 0 0)
    (uuid 31bdf97a-2b9b-4b87-bf2a-35c9dfd12b3c)
  )
  (junction (at 124.46 148.59) (diameter 0) (color 0 0 0 0)
    (uuid 60899855-8ef4-42df-8a94-9258e992da19)
  )
  (junction (at 104.14 114.3) (diameter 0) (color 0 0 0 0)
    (uuid 7bbde47c-595f-4255-b063-8309142ccd77)
  )
  (junction (at 204.47 81.28) (diameter 0) (color 0 0 0 0)
    (uuid 89443864-52f7-427f-931b-b3377b37ce63)
  )
  (junction (at 182.88 106.68) (diameter 0) (color 0 0 0 0)
    (uuid 8db427b8-94db-4c5d-8f64-c650adc5f97d)
  )
  (junction (at 104.14 86.36) (diameter 0) (color 0 0 0 0)
    (uuid b4a39b1f-b32e-49d3-a5c2-1c87572b8bc1)
  )
  (junction (at 144.78 71.12) (diameter 0) (color 0 0 0 0)
    (uuid d07fe0dc-9f34-40fa-9809-d5ea7521ff37)
  )
  (junction (at 204.47 93.98) (diameter 0) (color 0 0 0 0)
    (uuid d6d14bcf-2212-47c5-b956-699dc483be8e)
  )
  (junction (at 104.14 116.84) (diameter 0) (color 0 0 0 0)
    (uuid d7f5f320-54b2-4cf5-932d-eebabf194225)
  )
  (junction (at 237.49 123.19) (diameter 0) (color 0 0 0 0)
    (uuid ff25cafc-5109-45ac-b3d6-201ef3ea7429)
  )

  (no_connect (at 222.25 93.98) (uuid 5ade3b6c-c187-4de2-ac99-0bdde1da709b))
  (no_connect (at 207.01 86.36) (uuid 5ade3b6c-c187-4de2-ac99-0bdde1da709c))
  (no_connect (at 207.01 88.9) (uuid 5ade3b6c-c187-4de2-ac99-0bdde1da709d))
  (no_connect (at 222.25 78.74) (uuid 5ade3b6c-c187-4de2-ac99-0bdde1da709e))
  (no_connect (at 222.25 73.66) (uuid 5ade3b6c-c187-4de2-ac99-0bdde1da709f))

  (bus_entry (at 91.44 124.46) (size 2.54 2.54)
    (stroke (width 0) (type default))
    (uuid 06e36cbb-3ab2-42d0-8c5c-648e35d94111)
  )
  (bus_entry (at 91.44 96.52) (size 2.54 2.54)
    (stroke (width 0) (type default))
    (uuid 1982bf88-1c55-43f2-b6ff-eb6d3fbabd3c)
  )
  (bus_entry (at 91.44 116.84) (size 2.54 2.54)
    (stroke (width 0) (type default))
    (uuid 1a7baf70-f1ac-4c9d-b90b-10ac082a0017)
  )
  (bus_entry (at 91.44 121.92) (size 2.54 2.54)
    (stroke (width 0) (type default))
    (uuid 1c45cb63-2a07-4060-9d59-28eb1b9e7f53)
  )
  (bus_entry (at 91.44 67.31) (size 2.54 2.54)
    (stroke (width 0) (type default))
    (uuid 25daaec2-2523-4d80-be47-c51adb112377)
  )
  (bus_entry (at 91.44 106.68) (size 2.54 2.54)
    (stroke (width 0) (type default))
    (uuid 2f13b798-0519-40fd-b318-e7b19215f6aa)
  )
  (bus_entry (at 91.44 72.39) (size 2.54 2.54)
    (stroke (width 0) (type default))
    (uuid 49de5505-4ae2-49d2-b4c9-212908d507b0)
  )
  (bus_entry (at 91.44 134.62) (size 2.54 2.54)
    (stroke (width 0) (type default))
    (uuid 4aedbd45-824b-416f-975c-78b1dfb2c1f4)
  )
  (bus_entry (at 91.44 74.93) (size 2.54 2.54)
    (stroke (width 0) (type default))
    (uuid 5e37fe68-1480-4bbb-9391-c39cf956cf27)
  )
  (bus_entry (at 91.44 127) (size 2.54 2.54)
    (stroke (width 0) (type default))
    (uuid 6aa3b383-802a-4437-b3a4-9c8d5a3abdd2)
  )
  (bus_entry (at 91.44 99.06) (size 2.54 2.54)
    (stroke (width 0) (type default))
    (uuid 6ae84ecc-afa5-43a0-abdf-8c6b569442f2)
  )
  (bus_entry (at 91.44 77.47) (size 2.54 2.54)
    (stroke (width 0) (type default))
    (uuid 6c266fad-1c57-47f6-9c15-3bf4ff42ae63)
  )
  (bus_entry (at 91.44 64.77) (size 2.54 2.54)
    (stroke (width 0) (type default))
    (uuid 71f7a82d-0ab9-438a-95a6-3bb36f061e12)
  )
  (bus_entry (at 91.44 91.44) (size 2.54 2.54)
    (stroke (width 0) (type default))
    (uuid 86d2603a-dfc4-4496-ab2b-7d697efdc6e0)
  )
  (bus_entry (at 91.44 119.38) (size 2.54 2.54)
    (stroke (width 0) (type default))
    (uuid 8e1f3e86-98ac-4a09-b8e2-f8c850017ae2)
  )
  (bus_entry (at 91.44 104.14) (size 2.54 2.54)
    (stroke (width 0) (type default))
    (uuid 8e3aaa56-6a4e-4b1a-a62c-a69e422d811b)
  )
  (bus_entry (at 91.44 132.08) (size 2.54 2.54)
    (stroke (width 0) (type default))
    (uuid a3113030-0d02-4fa8-88fa-1ab2b43a67d7)
  )
  (bus_entry (at 91.44 69.85) (size 2.54 2.54)
    (stroke (width 0) (type default))
    (uuid a9228925-fafb-48a5-911c-e6aa1208547f)
  )
  (bus_entry (at 91.44 80.01) (size 2.54 2.54)
    (stroke (width 0) (type default))
    (uuid aac78079-5f61-4c09-af8c-c2e0d9013ba8)
  )
  (bus_entry (at 91.44 93.98) (size 2.54 2.54)
    (stroke (width 0) (type default))
    (uuid cad81141-422a-432f-85c5-8215512103db)
  )
  (bus_entry (at 91.44 62.23) (size 2.54 2.54)
    (stroke (width 0) (type default))
    (uuid d8e505b0-6fe9-444b-ad07-0c944747237a)
  )
  (bus_entry (at 91.44 129.54) (size 2.54 2.54)
    (stroke (width 0) (type default))
    (uuid d95ff0ba-bf7d-4d7e-a9b7-878b6df690f7)
  )
  (bus_entry (at 91.44 88.9) (size 2.54 2.54)
    (stroke (width 0) (type default))
    (uuid e2c8e45f-130c-4770-8acf-afe240b844dd)
  )
  (bus_entry (at 91.44 101.6) (size 2.54 2.54)
    (stroke (width 0) (type default))
    (uuid e515e0fb-1205-426c-b289-7510bb6c13ac)
  )

  (wire (pts (xy 222.25 88.9) (xy 231.14 88.9))
    (stroke (width 0) (type default))
    (uuid 01b9f6e1-e5db-494f-9eaf-4a8582b82092)
  )
  (wire (pts (xy 231.14 83.82) (xy 222.25 83.82))
    (stroke (width 0) (type default))
    (uuid 01fb5fe6-bb8f-453e-a7b0-76b8f0dd1429)
  )
  (wire (pts (xy 121.92 49.53) (xy 124.46 49.53))
    (stroke (width 0) (type default))
    (uuid 03a355bf-bb4c-4813-b35d-aae4bc1c9c98)
  )
  (wire (pts (xy 104.14 140.97) (xy 104.14 116.84))
    (stroke (width 0) (type default))
    (uuid 04da271f-6bc6-4723-afac-84ca68b0535d)
  )
  (wire (pts (xy 207.01 83.82) (xy 161.29 83.82))
    (stroke (width 0) (type default))
    (uuid 05f565b3-2b86-48fb-a66b-b27d1964ed88)
  )
  (wire (pts (xy 207.01 76.2) (xy 204.47 76.2))
    (stroke (width 0) (type default))
    (uuid 0703c9e3-572a-4247-ba0b-d65733925d7e)
  )
  (wire (pts (xy 106.68 88.9) (xy 104.14 88.9))
    (stroke (width 0) (type default))
    (uuid 0729b1da-f9c7-4b6f-9f3b-ee7021b179cf)
  )
  (wire (pts (xy 106.68 86.36) (xy 104.14 86.36))
    (stroke (width 0) (type default))
    (uuid 095c2a5c-a338-437e-94f7-f3b4d7d9e888)
  )
  (wire (pts (xy 144.78 63.5) (xy 144.78 71.12))
    (stroke (width 0) (type default))
    (uuid 0afd5932-3ba3-4d59-ba0c-5a50cc4535d8)
  )
  (bus (pts (xy 91.44 93.98) (xy 91.44 96.52))
    (stroke (width 0) (type default))
    (uuid 0c454641-7591-4986-b971-64efb0be73a3)
  )

  (wire (pts (xy 165.1 78.74) (xy 165.1 68.58))
    (stroke (width 0) (type default))
    (uuid 0c8d793a-e1d1-4b6c-9de9-c0b173003f85)
  )
  (wire (pts (xy 144.78 71.12) (xy 144.78 78.74))
    (stroke (width 0) (type default))
    (uuid 0de0eecd-dd25-400e-93b7-f1db2d37a77f)
  )
  (wire (pts (xy 243.84 123.19) (xy 237.49 123.19))
    (stroke (width 0) (type default))
    (uuid 10e97540-b5ab-49c8-8ca8-822dd2b12c55)
  )
  (wire (pts (xy 124.46 48.26) (xy 124.46 49.53))
    (stroke (width 0) (type default))
    (uuid 1132ea11-48a7-4b25-9407-e1da831d5e43)
  )
  (wire (pts (xy 237.49 135.89) (xy 243.84 135.89))
    (stroke (width 0) (type default))
    (uuid 15bb0b6e-e8bf-4593-9a10-1c1ce942dfaf)
  )
  (wire (pts (xy 106.68 74.93) (xy 93.98 74.93))
    (stroke (width 0) (type default))
    (uuid 18831be5-1a73-4b7d-9318-fcb2476fd847)
  )
  (wire (pts (xy 237.49 138.43) (xy 237.49 135.89))
    (stroke (width 0) (type default))
    (uuid 1902e430-2d31-4d68-b9a7-f8b11e08b52c)
  )
  (wire (pts (xy 124.46 149.86) (xy 124.46 148.59))
    (stroke (width 0) (type default))
    (uuid 1ed8105d-42de-4201-aa5e-2581a69c963e)
  )
  (bus (pts (xy 91.44 104.14) (xy 91.44 106.68))
    (stroke (width 0) (type default))
    (uuid 1fc55ccc-efe1-45de-b4f8-498fb2fbbc42)
  )

  (wire (pts (xy 194.31 134.62) (xy 194.31 118.11))
    (stroke (width 0) (type default))
    (uuid 22a4de76-ef8b-4129-8db3-b8aeef848130)
  )
  (wire (pts (xy 231.14 135.89) (xy 237.49 135.89))
    (stroke (width 0) (type default))
    (uuid 231ed7b8-6415-4680-af21-132eed1290e2)
  )
  (wire (pts (xy 123.19 148.59) (xy 124.46 148.59))
    (stroke (width 0) (type default))
    (uuid 2578a643-1532-408d-8493-c47e983ef5f4)
  )
  (wire (pts (xy 106.68 104.14) (xy 93.98 104.14))
    (stroke (width 0) (type default))
    (uuid 27e62680-507e-4ba6-b430-8b6da3e5fdfe)
  )
  (bus (pts (xy 91.44 88.9) (xy 91.44 91.44))
    (stroke (width 0) (type default))
    (uuid 27ef9bda-aa60-468d-8f15-e6d4338150d4)
  )
  (bus (pts (xy 91.44 67.31) (xy 91.44 69.85))
    (stroke (width 0) (type default))
    (uuid 28b4e465-8460-41b0-838d-cb1aa46c9a94)
  )

  (wire (pts (xy 237.49 123.19) (xy 231.14 123.19))
    (stroke (width 0) (type default))
    (uuid 28ba4c01-8581-40a2-aeb0-12316de4a5da)
  )
  (wire (pts (xy 125.73 148.59) (xy 125.73 147.32))
    (stroke (width 0) (type default))
    (uuid 2d4b9dc5-7fed-41ae-96f3-ae876bf51a50)
  )
  (wire (pts (xy 149.86 146.05) (xy 149.86 148.59))
    (stroke (width 0) (type default))
    (uuid 325bae6b-923a-424f-ac99-886a6188a7f9)
  )
  (wire (pts (xy 207.01 81.28) (xy 204.47 81.28))
    (stroke (width 0) (type default))
    (uuid 328a1695-32a9-44bd-83f5-c4ebc84c2158)
  )
  (wire (pts (xy 149.86 138.43) (xy 149.86 124.46))
    (stroke (width 0) (type default))
    (uuid 33acbe85-a6a7-4cfd-947d-a5c57b69e537)
  )
  (bus (pts (xy 91.44 101.6) (xy 91.44 104.14))
    (stroke (width 0) (type default))
    (uuid 35ad3eb2-87e4-4c81-8a41-b305349c4594)
  )

  (wire (pts (xy 170.18 106.68) (xy 182.88 106.68))
    (stroke (width 0) (type default))
    (uuid 375b01bd-4592-4e32-98f8-07ee0bb9035d)
  )
  (wire (pts (xy 106.68 134.62) (xy 93.98 134.62))
    (stroke (width 0) (type default))
    (uuid 3b36f0b4-93b2-4531-9dc8-f5b2378e6e2e)
  )
  (bus (pts (xy 91.44 59.69) (xy 88.9 59.69))
    (stroke (width 0) (type default))
    (uuid 3b9dd511-d609-45d8-af9f-602ad77485b1)
  )

  (wire (pts (xy 142.24 78.74) (xy 144.78 78.74))
    (stroke (width 0) (type default))
    (uuid 3d1e2860-75ce-4891-a347-03d33d3a1374)
  )
  (wire (pts (xy 149.86 124.46) (xy 142.24 124.46))
    (stroke (width 0) (type default))
    (uuid 3d36fbe5-8819-4ee8-88d7-4b7e782a84f9)
  )
  (wire (pts (xy 123.19 147.32) (xy 123.19 148.59))
    (stroke (width 0) (type default))
    (uuid 3f1fa9f0-66c0-4ecf-8d4d-a879bde7c5db)
  )
  (wire (pts (xy 106.68 80.01) (xy 93.98 80.01))
    (stroke (width 0) (type default))
    (uuid 416e1ba5-15e0-43c9-9060-14d0d60e0290)
  )
  (wire (pts (xy 204.47 81.28) (xy 204.47 91.44))
    (stroke (width 0) (type default))
    (uuid 44b45288-d962-4ba8-9e7b-089bb16d92d0)
  )
  (wire (pts (xy 204.47 102.87) (xy 204.47 93.98))
    (stroke (width 0) (type default))
    (uuid 4599ae4b-ce8e-4d03-a8ce-a2ba90e8f6b2)
  )
  (wire (pts (xy 124.46 49.53) (xy 127 49.53))
    (stroke (width 0) (type default))
    (uuid 46653ac5-d7e9-4cd1-96a3-a06e45e51776)
  )
  (wire (pts (xy 106.68 114.3) (xy 104.14 114.3))
    (stroke (width 0) (type default))
    (uuid 4c5cc2eb-a1c9-4ea3-9c18-03b26f5a2234)
  )
  (wire (pts (xy 121.92 50.8) (xy 121.92 49.53))
    (stroke (width 0) (type default))
    (uuid 4f35525c-f88f-4a98-b1d5-d18994daf97b)
  )
  (bus (pts (xy 91.44 127) (xy 91.44 129.54))
    (stroke (width 0) (type default))
    (uuid 4f89a967-2e3f-4a0a-861a-6c7879453bf6)
  )

  (wire (pts (xy 161.29 76.2) (xy 142.24 76.2))
    (stroke (width 0) (type default))
    (uuid 5060220c-6d72-4dbb-bd9b-80d8dbdb7486)
  )
  (wire (pts (xy 204.47 76.2) (xy 204.47 81.28))
    (stroke (width 0) (type default))
    (uuid 51051703-85ee-4e58-bc7e-a0069ca0d6f5)
  )
  (wire (pts (xy 243.84 125.73) (xy 243.84 123.19))
    (stroke (width 0) (type default))
    (uuid 536e5566-6639-4fd0-857d-1095504f776f)
  )
  (bus (pts (xy 91.44 119.38) (xy 91.44 121.92))
    (stroke (width 0) (type default))
    (uuid 53c547a9-cc22-4839-b6e1-9d9c5f9238dc)
  )

  (wire (pts (xy 182.88 120.65) (xy 182.88 118.11))
    (stroke (width 0) (type default))
    (uuid 5421a35a-a9b0-432f-ba2e-61bfbf9272cf)
  )
  (wire (pts (xy 106.68 99.06) (xy 93.98 99.06))
    (stroke (width 0) (type default))
    (uuid 569f8ad8-e6f6-4528-ae70-803de35b713a)
  )
  (wire (pts (xy 124.46 50.8) (xy 124.46 49.53))
    (stroke (width 0) (type default))
    (uuid 56c7e2dc-1538-4f33-b01d-92b02f0a3ebb)
  )
  (wire (pts (xy 124.46 148.59) (xy 125.73 148.59))
    (stroke (width 0) (type default))
    (uuid 57a6a7ab-03e7-48e1-ac84-b79f0c58e986)
  )
  (wire (pts (xy 106.68 96.52) (xy 93.98 96.52))
    (stroke (width 0) (type default))
    (uuid 58488b16-961e-4f23-b328-a1a6b80dcb68)
  )
  (wire (pts (xy 106.68 119.38) (xy 93.98 119.38))
    (stroke (width 0) (type default))
    (uuid 58c0cad6-8a06-42fd-920d-f27bc0cd01b6)
  )
  (bus (pts (xy 91.44 121.92) (xy 91.44 124.46))
    (stroke (width 0) (type default))
    (uuid 58dfecab-0cd6-4f76-a310-a326c82a2175)
  )

  (wire (pts (xy 106.68 129.54) (xy 93.98 129.54))
    (stroke (width 0) (type default))
    (uuid 595e8d7f-6a44-4891-b816-36e806f01240)
  )
  (wire (pts (xy 238.76 83.82) (xy 245.11 83.82))
    (stroke (width 0) (type default))
    (uuid 5d8e65b1-130e-442f-9320-31f602a12336)
  )
  (wire (pts (xy 149.86 106.68) (xy 142.24 106.68))
    (stroke (width 0) (type default))
    (uuid 5e8227fe-46d6-4b75-8e6c-cf652ced41d0)
  )
  (wire (pts (xy 142.24 109.22) (xy 144.78 109.22))
    (stroke (width 0) (type default))
    (uuid 62442d0c-528b-4213-bc10-bb5f7251dde0)
  )
  (wire (pts (xy 106.68 69.85) (xy 93.98 69.85))
    (stroke (width 0) (type default))
    (uuid 628f4f7d-2392-4099-a6ed-be9b2a5bbfe4)
  )
  (wire (pts (xy 106.68 82.55) (xy 93.98 82.55))
    (stroke (width 0) (type default))
    (uuid 63ecfa0f-74a0-4f2b-8947-23d826f27961)
  )
  (wire (pts (xy 144.78 109.22) (xy 144.78 114.3))
    (stroke (width 0) (type default))
    (uuid 640e99c9-05c6-447e-b334-e767a85746ca)
  )
  (bus (pts (xy 91.44 116.84) (xy 91.44 119.38))
    (stroke (width 0) (type default))
    (uuid 64acea5e-64eb-4a4d-ad97-063fbd7f20cc)
  )

  (wire (pts (xy 142.24 134.62) (xy 194.31 134.62))
    (stroke (width 0) (type default))
    (uuid 6a3aa57b-2f13-4402-98f9-34efe57ad5a1)
  )
  (bus (pts (xy 91.44 59.69) (xy 91.44 62.23))
    (stroke (width 0) (type default))
    (uuid 6cfb571a-3f9f-4979-948f-251e54dd82e0)
  )

  (wire (pts (xy 104.14 59.69) (xy 106.68 59.69))
    (stroke (width 0) (type default))
    (uuid 6d721f52-c030-4326-81ba-14a5140b52a7)
  )
  (wire (pts (xy 204.47 91.44) (xy 207.01 91.44))
    (stroke (width 0) (type default))
    (uuid 6e8d4e5e-79fe-485a-b698-90da4b93f654)
  )
  (wire (pts (xy 106.68 72.39) (xy 93.98 72.39))
    (stroke (width 0) (type default))
    (uuid 70edaef8-b10a-4102-8e76-f7333a3bcbca)
  )
  (wire (pts (xy 106.68 91.44) (xy 93.98 91.44))
    (stroke (width 0) (type default))
    (uuid 732efd7d-e3e8-4a17-af78-21f7a471de73)
  )
  (wire (pts (xy 168.91 60.96) (xy 168.91 73.66))
    (stroke (width 0) (type default))
    (uuid 74cb77cf-0409-45b0-b336-746f05a35f3f)
  )
  (wire (pts (xy 106.68 132.08) (xy 93.98 132.08))
    (stroke (width 0) (type default))
    (uuid 7644324c-7679-4d38-91d5-ca052ce3cd2a)
  )
  (wire (pts (xy 231.14 125.73) (xy 231.14 123.19))
    (stroke (width 0) (type default))
    (uuid 7880efa2-6f7b-4da8-aad0-de1b5f46fdb2)
  )
  (bus (pts (xy 91.44 74.93) (xy 91.44 77.47))
    (stroke (width 0) (type default))
    (uuid 7987b7bf-9090-46f7-b0cb-9d5a649ca3f6)
  )

  (wire (pts (xy 194.31 106.68) (xy 194.31 110.49))
    (stroke (width 0) (type default))
    (uuid 7bf6b8ee-32b2-46e3-ad6b-1c20d2675738)
  )
  (wire (pts (xy 106.68 77.47) (xy 93.98 77.47))
    (stroke (width 0) (type default))
    (uuid 7e3c54b5-bcc0-4703-a739-260ecbdb5a18)
  )
  (wire (pts (xy 106.68 62.23) (xy 104.14 62.23))
    (stroke (width 0) (type default))
    (uuid 7e49b000-c411-4180-8032-b904c9f28dec)
  )
  (wire (pts (xy 207.01 71.12) (xy 204.47 71.12))
    (stroke (width 0) (type default))
    (uuid 82d8d44f-9caf-43af-8dd8-e00fece9d1cb)
  )
  (bus (pts (xy 91.44 124.46) (xy 91.44 127))
    (stroke (width 0) (type default))
    (uuid 82ebaf6f-e9db-40cf-9868-8b5c98814248)
  )

  (wire (pts (xy 142.24 71.12) (xy 144.78 71.12))
    (stroke (width 0) (type default))
    (uuid 84b79d25-ceed-426a-a24e-77d751f7eaf5)
  )
  (wire (pts (xy 104.14 88.9) (xy 104.14 86.36))
    (stroke (width 0) (type default))
    (uuid 89480e5d-0bf3-491a-8391-859205ca0a8f)
  )
  (bus (pts (xy 91.44 114.3) (xy 88.9 114.3))
    (stroke (width 0) (type default))
    (uuid 8df2a780-5018-4b53-a2af-94b0281832f6)
  )

  (wire (pts (xy 168.91 73.66) (xy 207.01 73.66))
    (stroke (width 0) (type default))
    (uuid 8fc5d184-4cdc-4481-b824-1acd2ee2b5e5)
  )
  (wire (pts (xy 104.14 114.3) (xy 104.14 88.9))
    (stroke (width 0) (type default))
    (uuid 8ffd35d5-554c-487c-9cbb-666fb63f167b)
  )
  (bus (pts (xy 91.44 129.54) (xy 91.44 132.08))
    (stroke (width 0) (type default))
    (uuid 9279ab91-5376-489a-a28b-7b0d83c2407b)
  )
  (bus (pts (xy 91.44 86.36) (xy 91.44 88.9))
    (stroke (width 0) (type default))
    (uuid 99d7493c-10a7-41b6-86ec-b91d56956ec2)
  )
  (bus (pts (xy 91.44 96.52) (xy 91.44 99.06))
    (stroke (width 0) (type default))
    (uuid 9b39cd1a-432b-483e-87e1-d1067dd3fb15)
  )
  (bus (pts (xy 91.44 86.36) (xy 88.9 86.36))
    (stroke (width 0) (type default))
    (uuid a052622e-11d7-4538-81c6-88b46570ea55)
  )
  (bus (pts (xy 91.44 132.08) (xy 91.44 134.62))
    (stroke (width 0) (type default))
    (uuid a20883eb-101e-438a-aec6-f562cac49882)
  )

  (wire (pts (xy 182.88 110.49) (xy 182.88 106.68))
    (stroke (width 0) (type default))
    (uuid a430060c-76ed-4d4b-8668-873762af6b41)
  )
  (wire (pts (xy 142.24 120.65) (xy 182.88 120.65))
    (stroke (width 0) (type default))
    (uuid a4403ea4-b71c-4bea-95c2-2e52e743c2da)
  )
  (wire (pts (xy 106.68 127) (xy 93.98 127))
    (stroke (width 0) (type default))
    (uuid a5369397-3449-4f8b-be6c-aa02d0fd00bf)
  )
  (wire (pts (xy 144.78 78.74) (xy 144.78 81.28))
    (stroke (width 0) (type default))
    (uuid a56ad969-d24d-4592-aede-86b378894410)
  )
  (wire (pts (xy 170.18 106.68) (xy 170.18 110.49))
    (stroke (width 0) (type default))
    (uuid a77e7da7-f5c3-4818-8c15-0227f072e451)
  )
  (wire (pts (xy 106.68 106.68) (xy 93.98 106.68))
    (stroke (width 0) (type default))
    (uuid abb43cf2-9af6-4773-971a-056256f3b1ac)
  )
  (wire (pts (xy 237.49 120.65) (xy 237.49 123.19))
    (stroke (width 0) (type default))
    (uuid afe735fe-f3cb-47f7-956c-be43db501348)
  )
  (wire (pts (xy 161.29 83.82) (xy 161.29 76.2))
    (stroke (width 0) (type default))
    (uuid bb09f3e3-1cc5-49f2-b46e-bdc9b4d269b3)
  )
  (wire (pts (xy 207.01 78.74) (xy 165.1 78.74))
    (stroke (width 0) (type default))
    (uuid bb40ec18-c2c7-4e92-9e72-881b9aaa4507)
  )
  (bus (pts (xy 91.44 114.3) (xy 91.44 116.84))
    (stroke (width 0) (type default))
    (uuid bf0117c2-0140-434b-bb15-e805d18b875b)
  )
  (bus (pts (xy 91.44 99.06) (xy 91.44 101.6))
    (stroke (width 0) (type default))
    (uuid bf9f4b2c-a762-4e70-ba56-1f987ba70307)
  )
  (bus (pts (xy 91.44 62.23) (xy 91.44 64.77))
    (stroke (width 0) (type default))
    (uuid bfbb9439-2f8b-48f8-9890-a751942c45c3)
  )

  (wire (pts (xy 142.24 60.96) (xy 168.91 60.96))
    (stroke (width 0) (type default))
    (uuid c39a691f-675f-4116-8b68-9155eaea1c0a)
  )
  (wire (pts (xy 182.88 106.68) (xy 194.31 106.68))
    (stroke (width 0) (type default))
    (uuid c7264f35-3b38-4527-9545-52b3cd1d093e)
  )
  (wire (pts (xy 106.68 64.77) (xy 93.98 64.77))
    (stroke (width 0) (type default))
    (uuid c7838a26-3b2e-476c-a4e1-9e707c7c44f3)
  )
  (wire (pts (xy 142.24 63.5) (xy 144.78 63.5))
    (stroke (width 0) (type default))
    (uuid c9504bcc-4697-4c82-a04b-04cdf0e1d0c4)
  )
  (wire (pts (xy 170.18 118.11) (xy 170.18 129.54))
    (stroke (width 0) (type default))
    (uuid cb395051-997b-4d26-9aec-c7810a510ede)
  )
  (wire (pts (xy 106.68 101.6) (xy 93.98 101.6))
    (stroke (width 0) (type default))
    (uuid cd41d937-be9d-40c4-87a9-c10e56433525)
  )
  (wire (pts (xy 106.68 67.31) (xy 93.98 67.31))
    (stroke (width 0) (type default))
    (uuid cf982943-c898-4622-a43e-fa347e63d5b6)
  )
  (wire (pts (xy 106.68 121.92) (xy 93.98 121.92))
    (stroke (width 0) (type default))
    (uuid d0267a84-e664-4114-96ec-be28e8e0339f)
  )
  (wire (pts (xy 207.01 93.98) (xy 204.47 93.98))
    (stroke (width 0) (type default))
    (uuid d07f1ad3-5911-4277-9947-c43d4dc18e0a)
  )
  (wire (pts (xy 245.11 88.9) (xy 238.76 88.9))
    (stroke (width 0) (type default))
    (uuid d281da56-b3cb-4b81-88c3-3ffd3f8d51f7)
  )
  (wire (pts (xy 231.14 133.35) (xy 231.14 135.89))
    (stroke (width 0) (type default))
    (uuid d2ec5e73-d4fd-416e-9eca-145bc8d9a401)
  )
  (wire (pts (xy 106.68 109.22) (xy 93.98 109.22))
    (stroke (width 0) (type default))
    (uuid d46f745a-de5c-40cb-8063-5b9ff4f4681f)
  )
  (wire (pts (xy 182.88 104.14) (xy 182.88 106.68))
    (stroke (width 0) (type default))
    (uuid d78336a6-a5ae-4493-aaf8-eae248d45294)
  )
  (bus (pts (xy 91.44 64.77) (xy 91.44 67.31))
    (stroke (width 0) (type default))
    (uuid de2f2339-9e4e-44b8-aac4-74632ca2dd1b)
  )

  (wire (pts (xy 104.14 116.84) (xy 104.14 114.3))
    (stroke (width 0) (type default))
    (uuid e1d5392e-219b-4697-aa08-e5606257c55b)
  )
  (bus (pts (xy 91.44 69.85) (xy 91.44 72.39))
    (stroke (width 0) (type default))
    (uuid e2ed62d0-8f5f-4bbd-ae54-d82da1e8fb24)
  )

  (wire (pts (xy 104.14 62.23) (xy 104.14 59.69))
    (stroke (width 0) (type default))
    (uuid e44a4c51-877b-4d02-b437-9f5938f646ef)
  )
  (bus (pts (xy 91.44 77.47) (xy 91.44 80.01))
    (stroke (width 0) (type default))
    (uuid e541c329-277f-4e27-8191-e05a1e36a788)
  )

  (wire (pts (xy 106.68 124.46) (xy 93.98 124.46))
    (stroke (width 0) (type default))
    (uuid e569bf74-0068-4d1f-b3a2-7adcaf5a3db9)
  )
  (wire (pts (xy 165.1 68.58) (xy 142.24 68.58))
    (stroke (width 0) (type default))
    (uuid e58ff826-32c5-4688-856c-8fd715415f5f)
  )
  (wire (pts (xy 142.24 111.76) (xy 149.86 111.76))
    (stroke (width 0) (type default))
    (uuid e5ee1646-c05a-495d-9e61-cf02af84b6b4)
  )
  (wire (pts (xy 127 49.53) (xy 127 50.8))
    (stroke (width 0) (type default))
    (uuid e604fce2-b809-4e4f-98ea-08b079a8158a)
  )
  (wire (pts (xy 106.68 137.16) (xy 93.98 137.16))
    (stroke (width 0) (type default))
    (uuid e6d1adc7-1b4d-44d5-9732-63e3f6b27ee1)
  )
  (bus (pts (xy 91.44 91.44) (xy 91.44 93.98))
    (stroke (width 0) (type default))
    (uuid eb136394-5afb-4d00-8bd6-fb0890ec7188)
  )

  (wire (pts (xy 243.84 133.35) (xy 243.84 135.89))
    (stroke (width 0) (type default))
    (uuid ec99b18b-3a57-49fa-afd9-460db727da69)
  )
  (wire (pts (xy 204.47 71.12) (xy 204.47 76.2))
    (stroke (width 0) (type default))
    (uuid ef2b9632-8585-4fd4-9c8b-21820a64e9f5)
  )
  (wire (pts (xy 170.18 129.54) (xy 142.24 129.54))
    (stroke (width 0) (type default))
    (uuid f0561724-ba20-4e4a-a916-52042058665a)
  )
  (wire (pts (xy 214.63 102.87) (xy 214.63 101.6))
    (stroke (width 0) (type default))
    (uuid f10dfa40-c39c-417f-a348-28b3f82c90e9)
  )
  (wire (pts (xy 106.68 116.84) (xy 104.14 116.84))
    (stroke (width 0) (type default))
    (uuid f12dbe80-7d9e-4cca-9382-f280627c058b)
  )
  (wire (pts (xy 204.47 93.98) (xy 204.47 91.44))
    (stroke (width 0) (type default))
    (uuid f2629896-77ea-4cfb-862d-1a59beedc904)
  )
  (wire (pts (xy 106.68 93.98) (xy 93.98 93.98))
    (stroke (width 0) (type default))
    (uuid f5274fe8-d46f-4eea-8543-4ca4982c7e4d)
  )
  (wire (pts (xy 104.14 86.36) (xy 104.14 62.23))
    (stroke (width 0) (type default))
    (uuid f7bb913a-60b9-4eda-ad44-6051285e7627)
  )
  (bus (pts (xy 91.44 72.39) (xy 91.44 74.93))
    (stroke (width 0) (type default))
    (uuid febb4e2e-d159-4e96-9176-3eb6c3925fb6)
  )

  (label "B4" (at 96.52 129.54 0) (fields_autoplaced)
    (effects (font (size 1.27 1.27)) (justify left bottom))
    (uuid 00b4e973-e9fa-44ee-ab4d-222a7394260c)
  )
  (label "G7" (at 96.52 109.22 0) (fields_autoplaced)
    (effects (font (size 1.27 1.27)) (justify left bottom))
    (uuid 0657b43a-3414-4f81-86ec-dadc22965f5a)
  )
  (label "G6" (at 96.52 106.68 0) (fields_autoplaced)
    (effects (font (size 1.27 1.27)) (justify left bottom))
    (uuid 0bb444ba-4639-4a71-a914-194e88eda14f)
  )
  (label "R5" (at 96.52 77.47 0) (fields_autoplaced)
    (effects (font (size 1.27 1.27)) (justify left bottom))
    (uuid 19b2e239-e797-4597-8744-2fdb55bec8f2)
  )
  (label "R6" (at 96.52 80.01 0) (fields_autoplaced)
    (effects (font (size 1.27 1.27)) (justify left bottom))
    (uuid 3b3a353b-5a0b-4bfe-bebb-dba5bc5cd6ca)
  )
  (label "G3" (at 96.52 99.06 0) (fields_autoplaced)
    (effects (font (size 1.27 1.27)) (justify left bottom))
    (uuid 40722561-5934-4531-a7ae-53ad5475d4bc)
  )
  (label "B0" (at 96.52 119.38 0) (fields_autoplaced)
    (effects (font (size 1.27 1.27)) (justify left bottom))
    (uuid 427c643c-630e-41de-8948-c8fb0bf59ffc)
  )
  (label "R1" (at 96.52 67.31 0) (fields_autoplaced)
    (effects (font (size 1.27 1.27)) (justify left bottom))
    (uuid 486364bf-80f3-4d5f-b6a3-de9fa74da484)
  )
  (label "R7" (at 96.52 82.55 0) (fields_autoplaced)
    (effects (font (size 1.27 1.27)) (justify left bottom))
    (uuid 51260bd1-add1-47bb-a91c-38d95a173865)
  )
  (label "R2" (at 96.52 69.85 0) (fields_autoplaced)
    (effects (font (size 1.27 1.27)) (justify left bottom))
    (uuid 5f885122-fd5e-42c8-9612-3d7f7845a17c)
  )
  (label "B7" (at 96.52 137.16 0) (fields_autoplaced)
    (effects (font (size 1.27 1.27)) (justify left bottom))
    (uuid 79e1ebcf-a240-45d3-b7b3-2bd39d4116ce)
  )
  (label "R4" (at 96.52 74.93 0) (fields_autoplaced)
    (effects (font (size 1.27 1.27)) (justify left bottom))
    (uuid 7bee6507-cd04-43e8-941a-7424872106a2)
  )
  (label "B1" (at 96.52 121.92 0) (fields_autoplaced)
    (effects (font (size 1.27 1.27)) (justify left bottom))
    (uuid 7c89e383-0d7b-4037-8749-c8d13a8a9e77)
  )
  (label "R3" (at 96.52 72.39 0) (fields_autoplaced)
    (effects (font (size 1.27 1.27)) (justify left bottom))
    (uuid 85f400d5-8946-4a80-96ca-151d8d93b779)
  )
  (label "B6" (at 96.52 134.62 0) (fields_autoplaced)
    (effects (font (size 1.27 1.27)) (justify left bottom))
    (uuid 895b77bf-0559-4fc0-b5b2-5d7a9823dd0a)
  )
  (label "G0" (at 96.52 91.44 0) (fields_autoplaced)
    (effects (font (size 1.27 1.27)) (justify left bottom))
    (uuid 9c9dd5cb-7961-4dd9-b1a0-673a6a4699b9)
  )
  (label "B3" (at 96.52 127 0) (fields_autoplaced)
    (effects (font (size 1.27 1.27)) (justify left bottom))
    (uuid 9cd1719b-1248-436e-b395-fa678d0d1c6a)
  )
  (label "G4" (at 96.52 101.6 0) (fields_autoplaced)
    (effects (font (size 1.27 1.27)) (justify left bottom))
    (uuid b4ba7c77-c3b3-4dfe-bde8-33a6dd20ac12)
  )
  (label "B5" (at 96.52 132.08 0) (fields_autoplaced)
    (effects (font (size 1.27 1.27)) (justify left bottom))
    (uuid b9f0e099-bbbd-4a66-99fb-614bd2ef906e)
  )
  (label "G1" (at 96.52 93.98 0) (fields_autoplaced)
    (effects (font (size 1.27 1.27)) (justify left bottom))
    (uuid cb46f23e-eb5d-4f77-b4dd-230d9c826eb0)
  )
  (label "B2" (at 96.52 124.46 0) (fields_autoplaced)
    (effects (font (size 1.27 1.27)) (justify left bottom))
    (uuid d157db47-a408-4ea5-adf9-de7a7f7dc261)
  )
  (label "G2" (at 96.52 96.52 0) (fields_autoplaced)
    (effects (font (size 1.27 1.27)) (justify left bottom))
    (uuid d9880e9a-7b25-41b1-a018-ebbf13aeb333)
  )
  (label "G5" (at 96.52 104.14 0) (fields_autoplaced)
    (effects (font (size 1.27 1.27)) (justify left bottom))
    (uuid e2e123b5-8474-4fc8-b38c-f5ba099dea54)
  )
  (label "R0" (at 96.52 64.77 0) (fields_autoplaced)
    (effects (font (size 1.27 1.27)) (justify left bottom))
    (uuid f1e05bf2-e2f9-4030-944b-d77ffeade408)
  )

  (hierarchical_label "HSYNC" (shape input) (at 245.11 83.82 0) (fields_autoplaced)
    (effects (font (size 1.27 1.27)) (justify left))
    (uuid 00d1da32-a407-4c68-90e5-c395c5442e0b)
  )
  (hierarchical_label "B[0..7]" (shape input) (at 88.9 114.3 180) (fields_autoplaced)
    (effects (font (size 1.27 1.27)) (justify right))
    (uuid 4484e53a-722a-4f14-b560-3044eaec48a8)
  )
  (hierarchical_label "~{BLANK}" (shape input) (at 149.86 111.76 0) (fields_autoplaced)
    (effects (font (size 1.27 1.27)) (justify left))
    (uuid 827305e4-ad30-41db-a1dc-b7fe94d6c15e)
  )
  (hierarchical_label "G[0..7]" (shape input) (at 88.9 86.36 180) (fields_autoplaced)
    (effects (font (size 1.27 1.27)) (justify right))
    (uuid a4249ba8-a2bd-44b3-8995-83ee84d5ab85)
  )
  (hierarchical_label "VSYNC" (shape input) (at 245.11 88.9 0) (fields_autoplaced)
    (effects (font (size 1.27 1.27)) (justify left))
    (uuid a5c1c14c-05bb-4887-b995-cd26a07474e8)
  )
  (hierarchical_label "R[0..7]" (shape input) (at 88.9 59.69 180) (fields_autoplaced)
    (effects (font (size 1.27 1.27)) (justify right))
    (uuid f1619e46-b675-4ad3-964c-f792fcadda74)
  )
  (hierarchical_label "PIXELCLOCK" (shape input) (at 149.86 106.68 0) (fields_autoplaced)
    (effects (font (size 1.27 1.27)) (justify left))
    (uuid f3a7cae7-c969-4faf-a9ef-67baa7c5dcb2)
  )

  (symbol (lib_id "Ddraig:ADV7123JSTZ240") (at 124.46 96.52 0) (unit 1)
    (in_bom yes) (on_board yes) (dnp no)
    (uuid 00000000-0000-0000-0000-00006127feac)
    (property "Reference" "U501" (at 113.03 54.61 0)
      (effects (font (size 1.27 1.27)))
    )
    (property "Value" "ADV7123JSTZ240" (at 137.16 54.61 0)
      (effects (font (size 1.27 1.27)))
    )
    (property "Footprint" "Ddraig:QFP50P900X900X160-48N" (at 151.13 60.96 0)
      (effects (font (size 1.27 1.27)) (justify left) hide)
    )
    (property "Datasheet" "http://www.analog.com/media/en/technical-documentation/data-sheets/ADV7123.pdf" (at 151.13 63.5 0)
      (effects (font (size 1.27 1.27)) (justify left) hide)
    )
    (property "Description" "DAC 3-CH Segment 10-Bit 48-Pin LQFP ADV7123JSTZ240, Video DAC Triple, 10 bit- 240Msps +/-5%FSR Parallel, 48-Pin LQFP" (at 151.13 66.04 0)
      (effects (font (size 1.27 1.27)) (justify left) hide)
    )
    (property "Height" "1.6" (at 151.13 76.2 0)
      (effects (font (size 1.27 1.27)) (justify left) hide)
    )
    (property "Manufacturer_Name" "Analog Devices" (at 151.13 68.58 0)
      (effects (font (size 1.27 1.27)) (justify left) hide)
    )
    (property "Manufacturer_Part_Number" "ADV7123JSTZ240" (at 151.13 71.12 0)
      (effects (font (size 1.27 1.27)) (justify left) hide)
    )
    (property "Mouser Part Number" "584-ADV7123JSTZ240" (at 151.13 73.66 0)
      (effects (font (size 1.27 1.27)) (justify left) hide)
    )
    (property "Mouser Price/Stock" "https://www.mouser.co.uk/ProductDetail/Analog-Devices/ADV7123JSTZ240?qs=WIvQP4zGanjDI%252B5uMjCvVw%3D%3D" (at 151.13 78.74 0)
      (effects (font (size 1.27 1.27)) (justify left) hide)
    )
    (property "Arrow Part Number" "ADV7123JSTZ240" (at 151.13 78.74 0)
      (effects (font (size 1.27 1.27)) (justify left) hide)
    )
    (property "Arrow Price/Stock" "https://www.arrow.com/en/products/adv7123jstz240/analog-devices" (at 151.13 83.82 0)
      (effects (font (size 1.27 1.27)) (justify left) hide)
    )
    (pin "1" (uuid c6cadcdf-a0b9-4a2b-b202-7932294f3d22))
    (pin "10" (uuid 49c0d2c5-1143-4ad4-9065-ceb4b9f15dc4))
    (pin "11" (uuid eeac34d8-8477-4c60-a2e0-c8c05b561f2f))
    (pin "12" (uuid ce2b9c5f-6b37-4d68-9de7-3b0d5c38e64e))
    (pin "13" (uuid 3540115e-2c66-4364-8c04-82fe75be9405))
    (pin "14" (uuid a9008519-4209-43b7-b41b-e17e2655ba59))
    (pin "15" (uuid a0ffaa66-bb0b-4587-84a1-555600db0bc6))
    (pin "16" (uuid 743ad39e-8969-43d6-a908-22aace93b058))
    (pin "17" (uuid 8fa9e8af-d901-460b-8bca-c941b4003a95))
    (pin "18" (uuid 79ade33b-dde4-4739-adb9-0bff2c257ff5))
    (pin "19" (uuid 31637659-c34e-44c7-ab5c-a32cb7dcea0a))
    (pin "2" (uuid fd3f2417-5cff-4d8b-a73d-18187aca472b))
    (pin "20" (uuid 3666c813-dc1e-4fca-a792-407627cee071))
    (pin "21" (uuid a6721659-10ab-485a-a2a9-f7d7556710f4))
    (pin "22" (uuid 733f472f-e6b4-4a7e-942a-c7a8585be4f6))
    (pin "23" (uuid 8764caf7-d487-4c3a-8c21-52be6c096a7c))
    (pin "24" (uuid cd7d0dea-523c-4340-b343-eb3d404fea4b))
    (pin "25" (uuid 5a61e397-b59f-4586-ab43-e53a459af004))
    (pin "26" (uuid 6cc9d6dc-bd16-452c-98bd-01d5a0d4bcc2))
    (pin "27" (uuid ab2f5ed6-ddd2-4f0d-8d23-1c25781433f9))
    (pin "28" (uuid 9b7ab53f-b55c-4b79-9c65-56bfa0ec6b50))
    (pin "29" (uuid fe60ec93-ef37-4e23-bd4c-31bdc897ed8e))
    (pin "3" (uuid 0b7ddff2-7dbd-4c05-96dd-2bb50f3930c9))
    (pin "30" (uuid 871456c1-3cc3-4ee6-9c9b-4604e7c903a3))
    (pin "31" (uuid a313f5af-ff65-4ef2-b244-b0cde23ad5f0))
    (pin "32" (uuid 67ded49d-ff5e-4b27-aacc-974137122a40))
    (pin "33" (uuid cff02424-ee27-4565-9d80-96ecdf982267))
    (pin "34" (uuid 60e1a71e-5d44-4ecd-9ebf-374934f3ecb1))
    (pin "35" (uuid 4c20a254-6530-44d9-8ed4-ca6acd662d45))
    (pin "36" (uuid 054b37dd-8ab5-45be-b8c3-352f20764aa8))
    (pin "37" (uuid 4ca88b07-5bb3-4b75-84a0-53111f03bdb6))
    (pin "38" (uuid b0c57146-31b5-4234-85df-381e9fbe0c2a))
    (pin "39" (uuid 054adc39-db73-4a68-b9f8-12ba992f8277))
    (pin "4" (uuid 03c1fe79-835c-4063-bb7f-8cfa12f9a188))
    (pin "40" (uuid e70a77ae-d53a-4e52-a53b-53a987f40ff1))
    (pin "41" (uuid d67325a8-2261-4f54-b55e-496e8f4ef976))
    (pin "42" (uuid 07619163-d688-455c-8540-2f86b2e4862d))
    (pin "43" (uuid 1ece0912-2655-4220-a31e-cf0e0d679213))
    (pin "44" (uuid 43caf458-63e2-4a32-bb28-6967c170b965))
    (pin "45" (uuid f5956eef-63c5-49c4-8415-2b4cb471163a))
    (pin "46" (uuid b56a81a3-b578-4c52-a27d-095b7a2ebb0c))
    (pin "47" (uuid 15f15e15-76d7-4f3d-b6e7-516efdfeda69))
    (pin "48" (uuid c1c03d8e-59de-4646-86d1-54a95117ca77))
    (pin "5" (uuid 1c62126e-a03d-40cc-a55b-be3afccac630))
    (pin "6" (uuid f8bca00d-bc16-43ee-947f-a6c3e039c6d7))
    (pin "7" (uuid 35157720-24db-45d9-b575-b42fca97ccdd))
    (pin "8" (uuid 1bfbd310-faf7-4bba-b258-0cf0519f8ff9))
    (pin "9" (uuid f4172fa2-95d5-43e5-99ef-0fb177651822))
    (instances
      (project "GfxFPGAS3"
        (path "/7f4dcd4b-5a0f-4286-be55-fb97a9d8d7a1/00000000-0000-0000-0000-00006125c862"
          (reference "U501") (unit 1)
        )
      )
    )
  )

  (symbol (lib_id "Connector:DB15_Female_HighDensity_MountingHoles") (at 214.63 83.82 0) (unit 1)
    (in_bom yes) (on_board yes) (dnp no)
    (uuid 00000000-0000-0000-0000-00006128537b)
    (property "Reference" "J501" (at 214.63 61.7982 0)
      (effects (font (size 1.27 1.27)))
    )
    (property "Value" "VGA Out" (at 214.63 64.1096 0)
      (effects (font (size 1.27 1.27)))
    )
    (property "Footprint" "Connector_Dsub:DSUB-15-HD_Female_Horizontal_P2.29x1.98mm_EdgePinOffset3.03mm_Housed_MountingHolesOffset4.94mm" (at 190.5 73.66 0)
      (effects (font (size 1.27 1.27)) hide)
    )
    (property "Datasheet" " ~" (at 190.5 73.66 0)
      (effects (font (size 1.27 1.27)) hide)
    )
    (pin "0" (uuid 4580712b-3017-4e14-b8b4-cb8ab69cf0e9))
    (pin "1" (uuid 3e53ac18-8cef-464a-b17f-74b22107d4e2))
    (pin "10" (uuid ff8ca0c6-78a9-49d5-a2d2-1554da093d6e))
    (pin "11" (uuid abaa51e4-7cb6-4561-95c9-3784c31dc96f))
    (pin "12" (uuid 111b6de7-71c8-4984-b6be-3fea939a86ac))
    (pin "13" (uuid bfbf6a00-4361-4dcc-9e36-7e07ab223322))
    (pin "14" (uuid daaef094-9817-407f-bf26-0ddd89fdf359))
    (pin "15" (uuid baf85684-1b40-47f9-963c-4f535b27af8b))
    (pin "2" (uuid 54b44226-1ddc-45f6-88e3-fae6bc37bcfc))
    (pin "3" (uuid 804ef74a-0c45-44a5-90b0-96413822f8c9))
    (pin "4" (uuid 1c89f497-5f6b-4a1e-8a8c-1ae41e0fe44f))
    (pin "5" (uuid d7409b40-a408-4583-a557-c77f93a58c5a))
    (pin "6" (uuid 5e149acc-88e6-4723-ae81-0d80fe183146))
    (pin "7" (uuid b919ce8f-e9f3-46c4-a18a-9276eda90fd2))
    (pin "8" (uuid 865f7f66-ddb0-4dbc-a68a-4faf6b66d449))
    (pin "9" (uuid 889339a2-73bd-409b-8ed3-55d20340c0b8))
    (instances
      (project "GfxFPGAS3"
        (path "/7f4dcd4b-5a0f-4286-be55-fb97a9d8d7a1/00000000-0000-0000-0000-00006125c862"
          (reference "J501") (unit 1)
        )
      )
    )
  )

  (symbol (lib_id "Device:C") (at 182.88 114.3 0) (unit 1)
    (in_bom yes) (on_board yes) (dnp no)
    (uuid 00000000-0000-0000-0000-00006128bbc4)
    (property "Reference" "C502" (at 185.801 113.1316 0)
      (effects (font (size 1.27 1.27)) (justify left))
    )
    (property "Value" "100nF" (at 185.801 115.443 0)
      (effects (font (size 1.27 1.27)) (justify left))
    )
    (property "Footprint" "Capacitor_SMD:C_0805_2012Metric" (at 183.8452 118.11 0)
      (effects (font (size 1.27 1.27)) hide)
    )
    (property "Datasheet" "~" (at 182.88 114.3 0)
      (effects (font (size 1.27 1.27)) hide)
    )
    (pin "1" (uuid aec6f3b3-6a3b-4d3b-b9aa-3d3136fc646e))
    (pin "2" (uuid b4f53cea-39ee-4ea0-986b-975e39528087))
    (instances
      (project "GfxFPGAS3"
        (path "/7f4dcd4b-5a0f-4286-be55-fb97a9d8d7a1/00000000-0000-0000-0000-00006125c862"
          (reference "C502") (unit 1)
        )
      )
    )
  )

  (symbol (lib_id "Device:R") (at 194.31 114.3 0) (unit 1)
    (in_bom yes) (on_board yes) (dnp no)
    (uuid 00000000-0000-0000-0000-00006128c1ad)
    (property "Reference" "R502" (at 196.088 113.1316 0)
      (effects (font (size 1.27 1.27)) (justify left))
    )
    (property "Value" "10K" (at 196.088 115.443 0)
      (effects (font (size 1.27 1.27)) (justify left))
    )
    (property "Footprint" "Resistor_SMD:R_0805_2012Metric" (at 192.532 114.3 90)
      (effects (font (size 1.27 1.27)) hide)
    )
    (property "Datasheet" "~" (at 194.31 114.3 0)
      (effects (font (size 1.27 1.27)) hide)
    )
    (pin "1" (uuid 6e3a8b7a-3e2a-419c-9e59-6457faec64db))
    (pin "2" (uuid 4e1a18bf-65f5-439f-ad26-784a8e2f9a44))
    (instances
      (project "GfxFPGAS3"
        (path "/7f4dcd4b-5a0f-4286-be55-fb97a9d8d7a1/00000000-0000-0000-0000-00006125c862"
          (reference "R502") (unit 1)
        )
      )
    )
  )

  (symbol (lib_id "power:+3V3") (at 124.46 48.26 0) (unit 1)
    (in_bom yes) (on_board yes) (dnp no)
    (uuid 00000000-0000-0000-0000-00006128ef65)
    (property "Reference" "#PWR0502" (at 124.46 52.07 0)
      (effects (font (size 1.27 1.27)) hide)
    )
    (property "Value" "+3V3" (at 124.841 43.8658 0)
      (effects (font (size 1.27 1.27)))
    )
    (property "Footprint" "" (at 124.46 48.26 0)
      (effects (font (size 1.27 1.27)) hide)
    )
    (property "Datasheet" "" (at 124.46 48.26 0)
      (effects (font (size 1.27 1.27)) hide)
    )
    (pin "1" (uuid 1072c6cd-176e-43e7-adc2-9853e0447a18))
    (instances
      (project "GfxFPGAS3"
        (path "/7f4dcd4b-5a0f-4286-be55-fb97a9d8d7a1/00000000-0000-0000-0000-00006125c862"
          (reference "#PWR0502") (unit 1)
        )
      )
    )
  )

  (symbol (lib_id "power:GND") (at 124.46 149.86 0) (unit 1)
    (in_bom yes) (on_board yes) (dnp no)
    (uuid 00000000-0000-0000-0000-00006128fbda)
    (property "Reference" "#PWR0503" (at 124.46 156.21 0)
      (effects (font (size 1.27 1.27)) hide)
    )
    (property "Value" "GND" (at 124.587 154.2542 0)
      (effects (font (size 1.27 1.27)))
    )
    (property "Footprint" "" (at 124.46 149.86 0)
      (effects (font (size 1.27 1.27)) hide)
    )
    (property "Datasheet" "" (at 124.46 149.86 0)
      (effects (font (size 1.27 1.27)) hide)
    )
    (pin "1" (uuid b8a51c2f-4a64-4d13-bc20-7456c1ccd0c6))
    (instances
      (project "GfxFPGAS3"
        (path "/7f4dcd4b-5a0f-4286-be55-fb97a9d8d7a1/00000000-0000-0000-0000-00006125c862"
          (reference "#PWR0503") (unit 1)
        )
      )
    )
  )

  (symbol (lib_id "power:GND") (at 144.78 81.28 0) (unit 1)
    (in_bom yes) (on_board yes) (dnp no)
    (uuid 00000000-0000-0000-0000-0000612904db)
    (property "Reference" "#PWR0504" (at 144.78 87.63 0)
      (effects (font (size 1.27 1.27)) hide)
    )
    (property "Value" "GND" (at 144.907 85.6742 0)
      (effects (font (size 1.27 1.27)))
    )
    (property "Footprint" "" (at 144.78 81.28 0)
      (effects (font (size 1.27 1.27)) hide)
    )
    (property "Datasheet" "" (at 144.78 81.28 0)
      (effects (font (size 1.27 1.27)) hide)
    )
    (pin "1" (uuid 02752f66-feac-4c9b-8012-ff9ae732b50b))
    (instances
      (project "GfxFPGAS3"
        (path "/7f4dcd4b-5a0f-4286-be55-fb97a9d8d7a1/00000000-0000-0000-0000-00006125c862"
          (reference "#PWR0504") (unit 1)
        )
      )
    )
  )

  (symbol (lib_id "Device:R") (at 234.95 83.82 270) (unit 1)
    (in_bom yes) (on_board yes) (dnp no)
    (uuid 00000000-0000-0000-0000-000061292209)
    (property "Reference" "R503" (at 232.41 81.28 90)
      (effects (font (size 1.27 1.27)))
    )
    (property "Value" "82.5R" (at 240.03 81.28 90)
      (effects (font (size 1.27 1.27)))
    )
    (property "Footprint" "Resistor_SMD:R_0805_2012Metric" (at 234.95 82.042 90)
      (effects (font (size 1.27 1.27)) hide)
    )
    (property "Datasheet" "~" (at 234.95 83.82 0)
      (effects (font (size 1.27 1.27)) hide)
    )
    (pin "1" (uuid c5b7c21b-3db8-480f-bfe4-bb4967bf4c6a))
    (pin "2" (uuid 365dff18-fce4-47de-b16d-637a5e3848d6))
    (instances
      (project "GfxFPGAS3"
        (path "/7f4dcd4b-5a0f-4286-be55-fb97a9d8d7a1/00000000-0000-0000-0000-00006125c862"
          (reference "R503") (unit 1)
        )
      )
    )
  )

  (symbol (lib_id "Device:R") (at 234.95 88.9 270) (unit 1)
    (in_bom yes) (on_board yes) (dnp no)
    (uuid 00000000-0000-0000-0000-000061292a3e)
    (property "Reference" "R504" (at 232.41 86.36 90)
      (effects (font (size 1.27 1.27)))
    )
    (property "Value" "82.5R" (at 240.03 86.36 90)
      (effects (font (size 1.27 1.27)))
    )
    (property "Footprint" "Resistor_SMD:R_0805_2012Metric" (at 234.95 87.122 90)
      (effects (font (size 1.27 1.27)) hide)
    )
    (property "Datasheet" "~" (at 234.95 88.9 0)
      (effects (font (size 1.27 1.27)) hide)
    )
    (pin "1" (uuid cace566a-a136-434c-b97f-59d2114f9308))
    (pin "2" (uuid 4164bdc7-a95c-47c2-9cc8-64a4d004881e))
    (instances
      (project "GfxFPGAS3"
        (path "/7f4dcd4b-5a0f-4286-be55-fb97a9d8d7a1/00000000-0000-0000-0000-00006125c862"
          (reference "R504") (unit 1)
        )
      )
    )
  )

  (symbol (lib_id "power:GND") (at 214.63 102.87 0) (unit 1)
    (in_bom yes) (on_board yes) (dnp no)
    (uuid 00000000-0000-0000-0000-00006129484f)
    (property "Reference" "#PWR0509" (at 214.63 109.22 0)
      (effects (font (size 1.27 1.27)) hide)
    )
    (property "Value" "GND" (at 214.757 107.2642 0)
      (effects (font (size 1.27 1.27)))
    )
    (property "Footprint" "" (at 214.63 102.87 0)
      (effects (font (size 1.27 1.27)) hide)
    )
    (property "Datasheet" "" (at 214.63 102.87 0)
      (effects (font (size 1.27 1.27)) hide)
    )
    (pin "1" (uuid 8c163fbb-68b8-4805-a4b4-c5c495a59535))
    (instances
      (project "GfxFPGAS3"
        (path "/7f4dcd4b-5a0f-4286-be55-fb97a9d8d7a1/00000000-0000-0000-0000-00006125c862"
          (reference "#PWR0509") (unit 1)
        )
      )
    )
  )

  (symbol (lib_id "power:GND") (at 204.47 102.87 0) (unit 1)
    (in_bom yes) (on_board yes) (dnp no)
    (uuid 00000000-0000-0000-0000-0000612951ab)
    (property "Reference" "#PWR0508" (at 204.47 109.22 0)
      (effects (font (size 1.27 1.27)) hide)
    )
    (property "Value" "GND" (at 204.597 107.2642 0)
      (effects (font (size 1.27 1.27)))
    )
    (property "Footprint" "" (at 204.47 102.87 0)
      (effects (font (size 1.27 1.27)) hide)
    )
    (property "Datasheet" "" (at 204.47 102.87 0)
      (effects (font (size 1.27 1.27)) hide)
    )
    (pin "1" (uuid 52a06e8b-d8c8-41b8-96db-f08fcf27c603))
    (instances
      (project "GfxFPGAS3"
        (path "/7f4dcd4b-5a0f-4286-be55-fb97a9d8d7a1/00000000-0000-0000-0000-00006125c862"
          (reference "#PWR0508") (unit 1)
        )
      )
    )
  )

  (symbol (lib_id "power:GND") (at 104.14 140.97 0) (unit 1)
    (in_bom yes) (on_board yes) (dnp no)
    (uuid 00000000-0000-0000-0000-0000612a761e)
    (property "Reference" "#PWR0501" (at 104.14 147.32 0)
      (effects (font (size 1.27 1.27)) hide)
    )
    (property "Value" "GND" (at 104.267 145.3642 0)
      (effects (font (size 1.27 1.27)))
    )
    (property "Footprint" "" (at 104.14 140.97 0)
      (effects (font (size 1.27 1.27)) hide)
    )
    (property "Datasheet" "" (at 104.14 140.97 0)
      (effects (font (size 1.27 1.27)) hide)
    )
    (pin "1" (uuid a3df4815-3b9a-418e-a2cf-b27fb1540a55))
    (instances
      (project "GfxFPGAS3"
        (path "/7f4dcd4b-5a0f-4286-be55-fb97a9d8d7a1/00000000-0000-0000-0000-00006125c862"
          (reference "#PWR0501") (unit 1)
        )
      )
    )
  )

  (symbol (lib_id "power:+3V3") (at 182.88 104.14 0) (unit 1)
    (in_bom yes) (on_board yes) (dnp no)
    (uuid 00000000-0000-0000-0000-0000612beb92)
    (property "Reference" "#PWR0507" (at 182.88 107.95 0)
      (effects (font (size 1.27 1.27)) hide)
    )
    (property "Value" "+3V3" (at 183.261 99.7458 0)
      (effects (font (size 1.27 1.27)))
    )
    (property "Footprint" "" (at 182.88 104.14 0)
      (effects (font (size 1.27 1.27)) hide)
    )
    (property "Datasheet" "" (at 182.88 104.14 0)
      (effects (font (size 1.27 1.27)) hide)
    )
    (pin "1" (uuid d5e179f3-cb42-4663-95f7-922972b52a72))
    (instances
      (project "GfxFPGAS3"
        (path "/7f4dcd4b-5a0f-4286-be55-fb97a9d8d7a1/00000000-0000-0000-0000-00006125c862"
          (reference "#PWR0507") (unit 1)
        )
      )
    )
  )

  (symbol (lib_id "Device:C") (at 170.18 114.3 0) (unit 1)
    (in_bom yes) (on_board yes) (dnp no)
    (uuid 00000000-0000-0000-0000-0000612e0049)
    (property "Reference" "C501" (at 173.101 113.1316 0)
      (effects (font (size 1.27 1.27)) (justify left))
    )
    (property "Value" "100nF" (at 173.101 115.443 0)
      (effects (font (size 1.27 1.27)) (justify left))
    )
    (property "Footprint" "Capacitor_SMD:C_0805_2012Metric" (at 171.1452 118.11 0)
      (effects (font (size 1.27 1.27)) hide)
    )
    (property "Datasheet" "~" (at 170.18 114.3 0)
      (effects (font (size 1.27 1.27)) hide)
    )
    (pin "1" (uuid 31ea4e48-2b7b-4db5-b645-d9dd0d6d89c4))
    (pin "2" (uuid 6106a686-935b-4388-8836-783f6a4f7eaf))
    (instances
      (project "GfxFPGAS3"
        (path "/7f4dcd4b-5a0f-4286-be55-fb97a9d8d7a1/00000000-0000-0000-0000-00006125c862"
          (reference "C501") (unit 1)
        )
      )
    )
  )

  (symbol (lib_id "Device:R") (at 149.86 142.24 180) (unit 1)
    (in_bom yes) (on_board yes) (dnp no)
    (uuid 00000000-0000-0000-0000-0000612ee8f3)
    (property "Reference" "R501" (at 148.082 143.4084 0)
      (effects (font (size 1.27 1.27)) (justify left))
    )
    (property "Value" "530R" (at 148.082 141.097 0)
      (effects (font (size 1.27 1.27)) (justify left))
    )
    (property "Footprint" "Resistor_SMD:R_0805_2012Metric" (at 151.638 142.24 90)
      (effects (font (size 1.27 1.27)) hide)
    )
    (property "Datasheet" "~" (at 149.86 142.24 0)
      (effects (font (size 1.27 1.27)) hide)
    )
    (pin "1" (uuid 1d7c282e-7101-4bc4-8f66-7e696f5986d1))
    (pin "2" (uuid a9dc333c-767b-4ae9-9d51-39a67fa0f6bb))
    (instances
      (project "GfxFPGAS3"
        (path "/7f4dcd4b-5a0f-4286-be55-fb97a9d8d7a1/00000000-0000-0000-0000-00006125c862"
          (reference "R501") (unit 1)
        )
      )
    )
  )

  (symbol (lib_id "power:GND") (at 149.86 148.59 0) (unit 1)
    (in_bom yes) (on_board yes) (dnp no)
    (uuid 00000000-0000-0000-0000-0000612eee06)
    (property "Reference" "#PWR0506" (at 149.86 154.94 0)
      (effects (font (size 1.27 1.27)) hide)
    )
    (property "Value" "GND" (at 149.987 152.9842 0)
      (effects (font (size 1.27 1.27)))
    )
    (property "Footprint" "" (at 149.86 148.59 0)
      (effects (font (size 1.27 1.27)) hide)
    )
    (property "Datasheet" "" (at 149.86 148.59 0)
      (effects (font (size 1.27 1.27)) hide)
    )
    (pin "1" (uuid 36ee20f9-f67a-4470-a35c-1e199e6c8910))
    (instances
      (project "GfxFPGAS3"
        (path "/7f4dcd4b-5a0f-4286-be55-fb97a9d8d7a1/00000000-0000-0000-0000-00006125c862"
          (reference "#PWR0506") (unit 1)
        )
      )
    )
  )

  (symbol (lib_id "power:GND") (at 144.78 114.3 0) (unit 1)
    (in_bom yes) (on_board yes) (dnp no)
    (uuid 00000000-0000-0000-0000-0000613120e7)
    (property "Reference" "#PWR0505" (at 144.78 120.65 0)
      (effects (font (size 1.27 1.27)) hide)
    )
    (property "Value" "GND" (at 144.907 118.6942 0)
      (effects (font (size 1.27 1.27)))
    )
    (property "Footprint" "" (at 144.78 114.3 0)
      (effects (font (size 1.27 1.27)) hide)
    )
    (property "Datasheet" "" (at 144.78 114.3 0)
      (effects (font (size 1.27 1.27)) hide)
    )
    (pin "1" (uuid b7d8a720-bbaa-4e1b-860e-f6000ed83659))
    (instances
      (project "GfxFPGAS3"
        (path "/7f4dcd4b-5a0f-4286-be55-fb97a9d8d7a1/00000000-0000-0000-0000-00006125c862"
          (reference "#PWR0505") (unit 1)
        )
      )
    )
  )

  (symbol (lib_id "Device:C") (at 243.84 129.54 0) (unit 1)
    (in_bom yes) (on_board yes) (dnp no)
    (uuid 00000000-0000-0000-0000-0000614d6704)
    (property "Reference" "C504" (at 246.761 128.3716 0)
      (effects (font (size 1.27 1.27)) (justify left))
    )
    (property "Value" "100nF" (at 246.761 130.683 0)
      (effects (font (size 1.27 1.27)) (justify left))
    )
    (property "Footprint" "Capacitor_SMD:C_0805_2012Metric" (at 244.8052 133.35 0)
      (effects (font (size 1.27 1.27)) hide)
    )
    (property "Datasheet" "~" (at 243.84 129.54 0)
      (effects (font (size 1.27 1.27)) hide)
    )
    (pin "1" (uuid 5d35eac4-c3ae-47ad-a793-e4c1ef820a04))
    (pin "2" (uuid 833bc3bf-a0e6-48ab-ab5b-954dd13d350a))
    (instances
      (project "GfxFPGAS3"
        (path "/7f4dcd4b-5a0f-4286-be55-fb97a9d8d7a1/00000000-0000-0000-0000-00006125c862"
          (reference "C504") (unit 1)
        )
      )
    )
  )

  (symbol (lib_id "power:GND") (at 237.49 138.43 0) (unit 1)
    (in_bom yes) (on_board yes) (dnp no)
    (uuid 00000000-0000-0000-0000-0000614d670a)
    (property "Reference" "#PWR0511" (at 237.49 144.78 0)
      (effects (font (size 1.27 1.27)) hide)
    )
    (property "Value" "GND" (at 237.617 142.8242 0)
      (effects (font (size 1.27 1.27)))
    )
    (property "Footprint" "" (at 237.49 138.43 0)
      (effects (font (size 1.27 1.27)) hide)
    )
    (property "Datasheet" "" (at 237.49 138.43 0)
      (effects (font (size 1.27 1.27)) hide)
    )
    (pin "1" (uuid 2087e1ed-6de1-4266-a86a-bc307a3680d9))
    (instances
      (project "GfxFPGAS3"
        (path "/7f4dcd4b-5a0f-4286-be55-fb97a9d8d7a1/00000000-0000-0000-0000-00006125c862"
          (reference "#PWR0511") (unit 1)
        )
      )
    )
  )

  (symbol (lib_id "Device:C") (at 231.14 129.54 0) (unit 1)
    (in_bom yes) (on_board yes) (dnp no)
    (uuid 00000000-0000-0000-0000-0000614d671a)
    (property "Reference" "C503" (at 234.061 128.3716 0)
      (effects (font (size 1.27 1.27)) (justify left))
    )
    (property "Value" "100nF" (at 234.061 130.683 0)
      (effects (font (size 1.27 1.27)) (justify left))
    )
    (property "Footprint" "Capacitor_SMD:C_0805_2012Metric" (at 232.1052 133.35 0)
      (effects (font (size 1.27 1.27)) hide)
    )
    (property "Datasheet" "~" (at 231.14 129.54 0)
      (effects (font (size 1.27 1.27)) hide)
    )
    (pin "1" (uuid 39d484d2-8d18-478b-862e-d165bebb97a2))
    (pin "2" (uuid 09a2472a-f9d8-422b-9767-7b5d4352f81c))
    (instances
      (project "GfxFPGAS3"
        (path "/7f4dcd4b-5a0f-4286-be55-fb97a9d8d7a1/00000000-0000-0000-0000-00006125c862"
          (reference "C503") (unit 1)
        )
      )
    )
  )

  (symbol (lib_id "power:+3V3") (at 237.49 120.65 0) (unit 1)
    (in_bom yes) (on_board yes) (dnp no)
    (uuid 00000000-0000-0000-0000-0000614d6730)
    (property "Reference" "#PWR0510" (at 237.49 124.46 0)
      (effects (font (size 1.27 1.27)) hide)
    )
    (property "Value" "+3V3" (at 237.871 116.2558 0)
      (effects (font (size 1.27 1.27)))
    )
    (property "Footprint" "" (at 237.49 120.65 0)
      (effects (font (size 1.27 1.27)) hide)
    )
    (property "Datasheet" "" (at 237.49 120.65 0)
      (effects (font (size 1.27 1.27)) hide)
    )
    (pin "1" (uuid 46781d51-c116-446f-b3d3-562c66901139))
    (instances
      (project "GfxFPGAS3"
        (path "/7f4dcd4b-5a0f-4286-be55-fb97a9d8d7a1/00000000-0000-0000-0000-00006125c862"
          (reference "#PWR0510") (unit 1)
        )
      )
    )
  )
)
