(kicad_pcb (version 20221018) (generator pcbnew)

  (general
    (thickness 1.6)
  )

  (paper "A4")
  (layers
    (0 "F.Cu" signal)
    (31 "B.Cu" signal)
    (32 "B.Adhes" user "B.Adhesive")
    (33 "F.Adhes" user "F.Adhesive")
    (34 "B.Paste" user)
    (35 "F.Paste" user)
    (36 "B.SilkS" user "B.Silkscreen")
    (37 "F.SilkS" user "F.Silkscreen")
    (38 "B.Mask" user)
    (39 "F.Mask" user)
    (40 "Dwgs.User" user "User.Drawings")
    (41 "Cmts.User" user "User.Comments")
    (42 "Eco1.User" user "User.Eco1")
    (43 "Eco2.User" user "User.Eco2")
    (44 "Edge.Cuts" user)
    (45 "Margin" user)
    (46 "B.CrtYd" user "B.Courtyard")
    (47 "F.CrtYd" user "F.Courtyard")
    (48 "B.Fab" user)
    (49 "F.Fab" user)
  )

  (setup
    (pad_to_mask_clearance 0.051)
    (solder_mask_min_width 0.25)
    (aux_axis_origin 140 113.25)
    (pcbplotparams
      (layerselection 0x0001080_fffffffe)
      (plot_on_all_layers_selection 0x0001000_00000000)
      (disableapertmacros false)
      (usegerberextensions false)
      (usegerberattributes false)
      (usegerberadvancedattributes false)
      (creategerberjobfile false)
      (dashed_line_dash_ratio 12.000000)
      (dashed_line_gap_ratio 3.000000)
      (svgprecision 6)
      (plotframeref false)
      (viasonmask true)
      (mode 1)
      (useauxorigin false)
      (hpglpennumber 1)
      (hpglpenspeed 20)
      (hpglpendiameter 15.000000)
      (dxfpolygonmode true)
      (dxfimperialunits true)
      (dxfusepcbnewfont true)
      (psnegative false)
      (psa4output false)
      (plotreference false)
      (plotvalue false)
      (plotinvisibletext false)
      (sketchpadsonfab false)
      (subtractmaskfromsilk false)
      (outputformat 4)
      (mirror false)
      (drillshape 1)
      (scaleselection 1)
      (outputdirectory "")
    )
  )

  (net 0 "")
  (net 1 "Net-(P1-PadA4)")
  (net 2 "Net-(P1-PadB5)")
  (net 3 "Net-(P1-PadA7)")
  (net 4 "Net-(P1-PadA6)")
  (net 5 "Net-(P1-PadA5)")
  (net 6 "GND")

  (footprint "Connector_USB:USB_C_Plug_JAE_DX07P024AJ1" (layer "F.Cu")
    (tstamp 00000000-0000-0000-0000-00005ec1629c)
    (at 150 109.9175)
    (descr "Universal Serial Bus (USB) Shielded I/O Plug, Type C, Right Angle, Surface Mount, https://www.jae.com/en/searchfilter/?topics_keyword=DX07P024AJ1&mainItemSelect=1")
    (tags "USB Type-C Plug Edge Mount")
    (path "/00000000-0000-0000-0000-00005ec10c5f")
    (attr smd)
    (fp_text reference "P1" (at 0 -1.9175) (layer "F.SilkS")
        (effects (font (size 1 1) (thickness 0.15)))
      (tstamp f9865a9f-edb8-49c7-828f-4896e1f3047a)
    )
    (fp_text value "USB_C_Plug_USB2.0" (at -0.1725 4.27) (layer "F.Fab")
        (effects (font (size 1 1) (thickness 0.15)))
      (tstamp 55992e35-fe7b-468a-9b7a-1e4dc931b904)
    )
    (fp_text user "PCB Edge" (at 0 3.0225) (layer "Dwgs.User")
        (effects (font (size 0.5 0.5) (thickness 0.1)))
      (tstamp ef1b4b98-541b-4673-a04f-2043250fc40a)
    )
    (fp_text user "${REFERENCE}" (at 0 0.5525) (layer "F.Fab")
        (effects (font (size 0.75 0.75) (thickness 0.1)))
      (tstamp 34871042-9d5c-4e29-abdd-a168368c3c22)
    )
    (fp_line (start -4.3 -1.93) (end -4.3 -0.2275)
      (stroke (width 0.1) (type solid)) (layer "Edge.Cuts") (tstamp 417f13e4-c121-485a-a6b5-8b55e70350b8))
    (fp_line (start -4.3 -0.2275) (end -3.9 -0.2275)
      (stroke (width 0.1) (type solid)) (layer "Edge.Cuts") (tstamp 9dab0cb7-2557-4419-963b-5ae736517f62))
    (fp_line (start -3.9 1.9225) (end -3.9 -0.2275)
      (stroke (width 0.1) (type solid)) (layer "Edge.Cuts") (tstamp 0f41a909-27c4-4be2-9d5e-9ae2108c8ff5))
    (fp_line (start -3.53 2.3725) (end -3.9 1.9225)
      (stroke (width 0.1) (type solid)) (layer "Edge.Cuts") (tstamp e12e827e-36be-4503-8eef-6fc7e8bc5d49))
    (fp_line (start -3.125 2.3725) (end -3.53 2.3725)
      (stroke (width 0.1) (type solid)) (layer "Edge.Cuts") (tstamp dabe541b-b164-4180-97a4-5ca761b86800))
    (fp_line (start -2.925 2.8225) (end -2.925 2.5725)
      (stroke (width 0.1) (type solid)) (layer "Edge.Cuts") (tstamp c264c438-a475-4ad4-9915-0f1e6ecf3053))
    (fp_line (start -0.5 3.0225) (end -2.725 3.0225)
      (stroke (width 0.1) (type solid)) (layer "Edge.Cuts") (tstamp 35354519-a28c-40c4-befd-0943e98dea53))
    (fp_line (start -0.3 2.6225) (end -0.3 2.8225)
      (stroke (width 0.1) (type solid)) (layer "Edge.Cuts") (tstamp e25ce415-914a-48fe-bf09-324317917b2e))
    (fp_line (start -0.1 2.4225) (end 0.9 2.4225)
      (stroke (width 0.1) (type solid)) (layer "Edge.Cuts") (tstamp 38f2d955-ea7a-4a21-aba6-02ae23f1bd4a))
    (fp_line (start 1.1 2.8225) (end 1.1 2.6225)
      (stroke (width 0.1) (type solid)) (layer "Edge.Cuts") (tstamp 4831966c-bb32-4bc8-a400-0382a02ffa1c))
    (fp_line (start 1.3 3.0225) (end 2.725 3.0225)
      (stroke (width 0.1) (type solid)) (layer "Edge.Cuts") (tstamp 632acde9-b7fd-4f04-8cb4-d2cbb06b3595))
    (fp_line (start 2.925 2.8225) (end 2.925 2.5725)
      (stroke (width 0.1) (type solid)) (layer "Edge.Cuts") (tstamp 2bf3f24b-fd30-41a7-a274-9b519491916b))
    (fp_line (start 3.125 2.3725) (end 3.575 2.3725)
      (stroke (width 0.1) (type solid)) (layer "Edge.Cuts") (tstamp 6b25f522-8e2d-4cd8-9d5d-a2b80f60133b))
    (fp_line (start 3.575 2.3725) (end 3.9 1.9225)
      (stroke (width 0.1) (type solid)) (layer "Edge.Cuts") (tstamp a9ec539a-d80d-40cc-803c-12b6adefe42a))
    (fp_line (start 3.9 1.9225) (end 3.9 -1.9175)
      (stroke (width 0.1) (type solid)) (layer "Edge.Cuts") (tstamp 1b54105e-6590-4d26-a763-ecfcf81eedc4))
    (fp_arc (start -3.125 2.3725) (mid -2.983579 2.431079) (end -2.925 2.5725)
      (stroke (width 0.1) (type solid)) (layer "Edge.Cuts") (tstamp 9762c9ed-64d8-4f3e-baf6-f6ba6effc919))
    (fp_arc (start -2.725 3.0225) (mid -2.866421 2.963921) (end -2.925 2.8225)
      (stroke (width 0.1) (type solid)) (layer "Edge.Cuts") (tstamp 587a157d-dedf-4558-a037-1a94bbba1848))
    (fp_arc (start -0.3 2.6225) (mid -0.241421 2.481079) (end -0.1 2.4225)
      (stroke (width 0.1) (type solid)) (layer "Edge.Cuts") (tstamp 0867287d-2e6a-4d69-a366-c29f88198f2b))
    (fp_arc (start -0.3 2.8225) (mid -0.358579 2.963921) (end -0.5 3.0225)
      (stroke (width 0.1) (type solid)) (layer "Edge.Cuts") (tstamp afd3dbad-e7a8-4e4c-b77c-4065a69aefa2))
    (fp_arc (start 0.9 2.4225) (mid 1.041421 2.481079) (end 1.1 2.6225)
      (stroke (width 0.1) (type solid)) (layer "Edge.Cuts") (tstamp 75286985-9fa5-4d30-89c5-493b6e63cd66))
    (fp_arc (start 1.3 3.0225) (mid 1.158579 2.963921) (end 1.1 2.8225)
      (stroke (width 0.1) (type solid)) (layer "Edge.Cuts") (tstamp 78f88cf6-751c-4e9b-ae75-fb8b6d44ff39))
    (fp_arc (start 2.925 2.5725) (mid 2.983579 2.431079) (end 3.125 2.3725)
      (stroke (width 0.1) (type solid)) (layer "Edge.Cuts") (tstamp 4d4b0fcd-2c79-4fc3-b5fa-7a0741601344))
    (fp_arc (start 2.925 2.8225) (mid 2.866421 2.963921) (end 2.725 3.0225)
      (stroke (width 0.1) (type solid)) (layer "Edge.Cuts") (tstamp c19dbe3c-ced0-48f7-a91d-777569cfb936))
    (fp_line (start -4.5525 -2.38) (end 4.1475 -2.38)
      (stroke (width 0.05) (type solid)) (layer "B.CrtYd") (tstamp 0d35483a-0b12-46cc-b9f2-896fd6831779))
    (fp_line (start -4.5525 3.27) (end -4.5525 -2.38)
      (stroke (width 0.05) (type solid)) (layer "B.CrtYd") (tstamp a06e8e78-f567-42e6-b645-013b1073ca31))
    (fp_line (start 4.1475 -2.38) (end 4.1475 3.27)
      (stroke (width 0.05) (type solid)) (layer "B.CrtYd") (tstamp 9702d639-3b1f-4825-8985-b32b9008503d))
    (fp_line (start 4.1475 3.27) (end -4.5525 3.27)
      (stroke (width 0.05) (type solid)) (layer "B.CrtYd") (tstamp ec9e24d8-d1c5-40e2-9812-dc315d05f470))
    (fp_line (start -4.5525 -2.38) (end 4.1475 -2.38)
      (stroke (width 0.05) (type solid)) (layer "F.CrtYd") (tstamp 53c85970-3e21-4fae-a84f-721cfc0513b5))
    (fp_line (start -4.5525 3.27) (end -4.5525 -2.38)
      (stroke (width 0.05) (type solid)) (layer "F.CrtYd") (tstamp 4e66a44f-7fa6-4e16-bf9b-62ec864301a5))
    (fp_line (start 4.1475 -2.38) (end 4.1475 3.27)
      (stroke (width 0.05) (type solid)) (layer "F.CrtYd") (tstamp 7447a6e7-8205-46ba-afca-d0fa8f90c95a))
    (fp_line (start 4.1475 3.27) (end -4.5525 3.27)
      (stroke (width 0.05) (type solid)) (layer "F.CrtYd") (tstamp 4412226e-d975-40a2-921f-502ff4129a95))
    (pad "" smd rect (at -3.405 1.0475) (size 0.36 1.75) (layers "F.Cu" "F.Mask") (tstamp c201e1b2-fc01-4110-bdaa-a33290468c83))
    (pad "" smd rect (at 3.405 1.0475) (size 0.36 1.75) (layers "F.Cu" "F.Mask") (tstamp 0088d107-13d8-496c-8da6-7bbeb9d096b0))
    (pad "A1" smd rect (at 2.825 1.1475) (size 0.41 1.55) (layers "F.Cu" "F.Paste" "F.Mask")
      (net 6 "GND") (tstamp f976e2cc-36f9-4479-a816-2c74d1d5da6f))
    (pad "A2" smd rect (at 2.25 1.1475) (size 0.26 1.55) (layers "F.Cu" "F.Paste" "F.Mask") (tstamp a03e565f-d8cd-4032-aae3-b7327d4143dd))
    (pad "A3" smd rect (at 1.75 1.1475) (size 0.26 1.55) (layers "F.Cu" "F.Paste" "F.Mask") (tstamp 9c8ccb2a-b1e9-4f2c-94fe-301b5975277e))
    (pad "A4" smd rect (at 1.25 1.1475) (size 0.26 1.55) (layers "F.Cu" "F.Paste" "F.Mask")
      (net 1 "Net-(P1-PadA4)") (tstamp cef6f603-8a0b-4dd0-af99-ebfbef7d1b4b))
    (pad "A5" smd rect (at 0.75 1.1475) (size 0.26 1.55) (layers "F.Cu" "F.Paste" "F.Mask")
      (net 5 "Net-(P1-PadA5)") (tstamp e877bf4a-4210-4bd3-b7b0-806eb4affc5b))
    (pad "A6" smd rect (at 0.25 1.1475 180) (size 0.26 1.55) (layers "F.Cu" "F.Paste" "F.Mask")
      (net 4 "Net-(P1-PadA6)") (tstamp 48f827a8-6e22-4a2e-abdc-c2a03098d883))
    (pad "A7" smd rect (at -0.25 1.1475 180) (size 0.26 1.55) (layers "F.Cu" "F.Paste" "F.Mask")
      (net 3 "Net-(P1-PadA7)") (tstamp 8d55e186-3e11-40e8-a65e-b36a8a00069e))
    (pad "A8" smd rect (at -0.75 1.1475) (size 0.26 1.55) (layers "F.Cu" "F.Paste" "F.Mask") (tstamp 120a7b0f-ddfd-4447-85c1-35665465acdb))
    (pad "A9" smd rect (at -1.25 1.1475) (size 0.26 1.55) (layers "F.Cu" "F.Paste" "F.Mask")
      (net 1 "Net-(P1-PadA4)") (tstamp 854dd5d4-5fd2-4730-bd49-a9cd8299a065))
    (pad "A10" smd rect (at -1.75 1.1475) (size 0.26 1.55) (layers "F.Cu" "F.Paste" "F.Mask") (tstamp 2732632c-4768-42b6-bf7f-14643424019e))
    (pad "A11" smd rect (at -2.25 1.1475) (size 0.26 1.55) (layers "F.Cu" "F.Paste" "F.Mask") (tstamp 13475e15-f37c-4de8-857e-1722b0c39513))
    (pad "A12" smd rect (at -2.825 1.1475) (size 0.41 1.55) (layers "F.Cu" "F.Paste" "F.Mask")
      (net 6 "GND") (tstamp b635b16e-60bb-4b3e-9fc3-47d34eef8381))
    (pad "B1" smd rect (at -2.825 1.1475) (size 0.41 1.55) (layers "B.Cu" "B.Paste" "B.Mask")
      (net 6 "GND") (tstamp 03d88a85-11fd-47aa-954c-c318bb15294a))
    (pad "B2" smd rect (at -2.25 1.1475) (size 0.26 1.55) (layers "B.Cu" "B.Paste" "B.Mask") (tstamp 3172f2e2-18d2-4a80-ae30-5707b3409798))
    (pad "B3" smd rect (at -1.75 1.1475) (size 0.26 1.55) (layers "B.Cu" "B.Paste" "B.Mask") (tstamp 128e34ce-eee7-477d-b905-a493e98db783))
    (pad "B4" smd rect (at -1.25 1.1475) (size 0.26 1.55) (layers "B.Cu" "B.Paste" "B.Mask")
      (net 1 "Net-(P1-PadA4)") (tstamp b3d08afa-f296-4e3b-8825-73b6331d35bf))
    (pad "B5" smd rect (at -0.75 1.1475) (size 0.26 1.55) (layers "B.Cu" "B.Paste" "B.Mask")
      (net 2 "Net-(P1-PadB5)") (tstamp 0dcdf1b8-13c6-48b4-bd94-5d26038ff231))
    (pad "B6" smd rect (at -0.25 1.1475 180) (size 0.26 1.55) (layers "B.Cu" "B.Paste" "B.Mask") (tstamp 1a2f72d1-0b36-4610-afc4-4ad1660d5d3b))
    (pad "B7" smd rect (at 0.25 1.1475) (size 0.26 1.55) (layers "B.Cu" "B.Paste" "B.Mask") (tstamp c801d42e-dd94-493e-bd2f-6c3ddad43f55))
    (pad "B8" smd rect (at 0.75 1.1475) (size 0.26 1.55) (layers "B.Cu" "B.Paste" "B.Mask") (tstamp 67621f9e-0a6a-4778-ad69-04dcf300659c))
    (pad "B9" smd rect (at 1.25 1.1475) (size 0.26 1.55) (layers "B.Cu" "B.Paste" "B.Mask")
      (net 1 "Net-(P1-PadA4)") (tstamp 712d6a7d-2b62-464f-b745-fd2a6b0187f6))
    (pad "B10" smd rect (at 1.75 1.1475) (size 0.26 1.55) (layers "B.Cu" "B.Paste" "B.Mask") (tstamp 98e81e80-1f85-4152-be3f-99785ea97751))
    (pad "B11" smd rect (at 2.25 1.1475) (size 0.26 1.55) (layers "B.Cu" "B.Paste" "B.Mask") (tstamp 842e430f-0c35-45f3-a0b5-95ae7b7ae388))
    (pad "B12" smd rect (at 2.825 1.1475) (size 0.41 1.55) (layers "B.Cu" "B.Paste" "B.Mask")
      (net 6 "GND") (tstamp 51c4dc0a-5b9f-4edf-a83f-4a12881e42ef))
    (pad "S1" smd rect (at -3.625 -1.1725) (size 0.8 1.5) (layers "B.Cu" "B.Paste" "B.Mask")
      (net 6 "GND") (tstamp 68e09be7-3bbc-4443-a838-209ce20b2bef))
    (pad "S1" smd rect (at -3.405 0.8975) (size 0.36 2.05) (layers "B.Cu" "B.Paste" "B.Mask")
      (net 6 "GND") (tstamp dde3dba8-1b81-466c-93a3-c284ff4da1ef))
    (pad "S1" smd rect (at 3.27 -1.1725 180) (size 0.7 1.5) (layers "B.Cu" "B.Paste" "B.Mask")
      (net 6 "GND") (tstamp 6a780180-586a-4241-a52d-dc7a5ffcc966))
    (pad "S1" smd rect (at 3.405 0.8975) (size 0.36 2.05) (layers "B.Cu" "B.Paste" "B.Mask")
      (net 6 "GND") (tstamp 58dc14f9-c158-4824-a84e-24a6a482a7a4))
    (model "${KISYS3DMOD}/Connector_USB.3dshapes/USB_C_Plug_JAE_DX07P024AJ1.wrl"
      (offset (xyz 0 0 0))
      (scale (xyz 1 1 1))
      (rotate (xyz 0 0 0))
    )
  )

  (footprint "TestPoint:TestPoint_THTPad_D1.5mm_Drill0.7mm" (layer "F.Cu")
    (tstamp 00000000-0000-0000-0000-00005ec162b4)
    (at 148.75 106.25)
    (descr "THT pad as test Point, diameter 1.5mm, hole diameter 0.7mm")
    (tags "test point THT pad")
    (path "/00000000-0000-0000-0000-00005ec130c8")
    (attr exclude_from_pos_files exclude_from_bom)
    (fp_text reference "TP3" (at -5 -0.5) (layer "F.SilkS")
        (effects (font (size 1 1) (thickness 0.15)))
      (tstamp fb03d859-dcc9-4533-b352-64830e0e5423)
    )
    (fp_text value "D-" (at 0 1.75) (layer "F.Fab")
        (effects (font (size 1 1) (thickness 0.15)))
      (tstamp 37e4dc66-4492-4061-908d-7213940a2ec3)
    )
    (fp_text user "${REFERENCE}" (at 0 -1.65) (layer "F.Fab")
        (effects (font (size 1 1) (thickness 0.15)))
      (tstamp b603d26a-e034-42fb-8327-b60c5bf9cdd2)
    )
    (fp_circle (center 0 0) (end 0 0.95)
      (stroke (width 0.12) (type solid)) (fill none) (layer "F.SilkS") (tstamp 29256b3d-9450-4c0a-a4d4-911f04b9c140))
    (fp_circle (center 0 0) (end 1.25 0)
      (stroke (width 0.05) (type solid)) (fill none) (layer "F.CrtYd") (tstamp b994142f-02ac-4881-9587-6d3df53c96d2))
    (pad "1" thru_hole circle (at 0 0) (size 1.5 1.5) (drill 0.5) (layers "*.Cu" "*.Mask")
      (net 3 "Net-(P1-PadA7)") (tstamp 2d6718e7-f18d-444d-9792-ddf1a113460c))
  )

  (footprint "TestPoint:TestPoint_THTPad_D1.5mm_Drill0.7mm" (layer "F.Cu")
    (tstamp 00000000-0000-0000-0000-00005ec16796)
    (at 151.25 106.25)
    (descr "THT pad as test Point, diameter 1.5mm, hole diameter 0.7mm")
    (tags "test point THT pad")
    (path "/00000000-0000-0000-0000-00005ec1371f")
    (attr exclude_from_pos_files exclude_from_bom)
    (fp_text reference "TP4" (at 1.25 1.75) (layer "F.SilkS")
        (effects (font (size 1 1) (thickness 0.15)))
      (tstamp 9d984d1b-8097-407f-92f3-3ef68867dcfa)
    )
    (fp_text value "D+" (at 0 1.75) (layer "F.Fab")
        (effects (font (size 1 1) (thickness 0.15)))
      (tstamp 68b52f01-fa04-4908-bf88-60c62ace1cfa)
    )
    (fp_text user "${REFERENCE}" (at 0 -1.65) (layer "F.Fab")
        (effects (font (size 1 1) (thickness 0.15)))
      (tstamp f1dd8642-b405-490b-a449-d1cc5797fda8)
    )
    (fp_circle (center 0 0) (end 0 0.95)
      (stroke (width 0.12) (type solid)) (fill none) (layer "F.SilkS") (tstamp b8c83ad1-b3c9-495c-bdc6-62dead00f5ad))
    (fp_circle (center 0 0) (end 1.25 0)
      (stroke (width 0.05) (type solid)) (fill none) (layer "F.CrtYd") (tstamp 7e969d15-6cc0-4258-8b27-586608a21adb))
    (pad "1" thru_hole circle (at 0 0) (size 1.5 1.5) (drill 0.5) (layers "*.Cu" "*.Mask")
      (net 4 "Net-(P1-PadA6)") (tstamp f022716e-b121-4cbf-a833-20e924070c22))
  )

  (footprint "Resistor_SMD:R_0603_1608Metric" (layer "F.Cu")
    (tstamp 00000000-0000-0000-0000-00005ec1701e)
    (at 156.5 106.25 180)
    (descr "Resistor SMD 0603 (1608 Metric), square (rectangular) end terminal, IPC_7351 nominal, (Body size source: http://www.tortai-tech.com/upload/download/2011102023233369053.pdf), generated with kicad-footprint-generator")
    (tags "resistor")
    (path "/00000000-0000-0000-0000-00005ec1a8a7")
    (attr smd)
    (fp_text reference "R1" (at 0 -1.25) (layer "F.SilkS")
        (effects (font (size 1 1) (thickness 0.15)))
      (tstamp 975b065a-4fee-4d11-9f2f-b1d40a3629cb)
    )
    (fp_text value "5.1k" (at 0 1.43) (layer "F.Fab")
        (effects (font (size 1 1) (thickness 0.15)))
      (tstamp 16ded395-a862-4198-b3af-ba8c7fb298bb)
    )
    (fp_text user "${REFERENCE}" (at 0 0) (layer "F.Fab")
        (effects (font (size 0.4 0.4) (thickness 0.06)))
      (tstamp 3934cdea-42c8-4ab1-b1be-2c4978ab08ae)
    )
    (fp_line (start -0.162779 -0.51) (end 0.162779 -0.51)
      (stroke (width 0.12) (type solid)) (layer "F.SilkS") (tstamp 646d9e91-59b4-4865-a2fc-29780ed32563))
    (fp_line (start -0.162779 0.51) (end 0.162779 0.51)
      (stroke (width 0.12) (type solid)) (layer "F.SilkS") (tstamp e6521bef-4109-48f7-8b88-4121b0468927))
    (fp_line (start -1.48 -0.73) (end 1.48 -0.73)
      (stroke (width 0.05) (type solid)) (layer "F.CrtYd") (tstamp dd2f6b13-9e35-4a67-90ac-cf0d1ea34e5a))
    (fp_line (start -1.48 0.73) (end -1.48 -0.73)
      (stroke (width 0.05) (type solid)) (layer "F.CrtYd") (tstamp 3559e287-424e-4397-b080-77c7ba6f395b))
    (fp_line (start 1.48 -0.73) (end 1.48 0.73)
      (stroke (width 0.05) (type solid)) (layer "F.CrtYd") (tstamp 23e66461-bcf2-4335-93c2-5c91dfd00187))
    (fp_line (start 1.48 0.73) (end -1.48 0.73)
      (stroke (width 0.05) (type solid)) (layer "F.CrtYd") (tstamp d0dfd7c1-401d-4f64-8463-f4c0813ac28f))
    (fp_line (start -0.8 -0.4) (end 0.8 -0.4)
      (stroke (width 0.1) (type solid)) (layer "F.Fab") (tstamp edc9ab4f-487a-48dc-95f2-4d87f0e9cf9e))
    (fp_line (start -0.8 0.4) (end -0.8 -0.4)
      (stroke (width 0.1) (type solid)) (layer "F.Fab") (tstamp 9ff4672a-e1a4-4a1e-887d-1b9a3429d278))
    (fp_line (start 0.8 -0.4) (end 0.8 0.4)
      (stroke (width 0.1) (type solid)) (layer "F.Fab") (tstamp 87c78429-be2b-40ed-8d3b-56cb9666a56f))
    (fp_line (start 0.8 0.4) (end -0.8 0.4)
      (stroke (width 0.1) (type solid)) (layer "F.Fab") (tstamp 99030c03-63b4-49ba-b5ab-4d56974f7963))
    (pad "1" smd roundrect (at -0.7875 0 180) (size 0.875 0.95) (layers "F.Cu" "F.Paste" "F.Mask") (roundrect_rratio 0.25)
      (net 6 "GND") (tstamp 825c70b0-4860-42b7-97dc-86bfa46e06fd))
    (pad "2" smd roundrect (at 0.7875 0 180) (size 0.875 0.95) (layers "F.Cu" "F.Paste" "F.Mask") (roundrect_rratio 0.25)
      (net 5 "Net-(P1-PadA5)") (tstamp 02165243-61a3-4857-84ba-71a77cb9a387))
    (model "${KISYS3DMOD}/Resistor_SMD.3dshapes/R_0603_1608Metric.wrl"
      (offset (xyz 0 0 0))
      (scale (xyz 1 1 1))
      (rotate (xyz 0 0 0))
    )
  )

  (footprint "TestPoint:TestPoint_THTPad_D1.5mm_Drill0.7mm" (layer "F.Cu")
    (tstamp 00000000-0000-0000-0000-00005ec17d3b)
    (at 153.75 106.5)
    (descr "THT pad as test Point, diameter 1.5mm, hole diameter 0.7mm")
    (tags "test point THT pad")
    (path "/00000000-0000-0000-0000-00005ec12a1d")
    (attr exclude_from_pos_files exclude_from_bom)
    (fp_text reference "TP2" (at -6.5 1.5) (layer "F.SilkS")
        (effects (font (size 1 1) (thickness 0.15)))
      (tstamp 7f3eb118-a20c-4239-b800-c9211c66847d)
    )
    (fp_text value "+5V" (at 0 1.75) (layer "F.Fab")
        (effects (font (size 1 1) (thickness 0.15)))
      (tstamp 213a2af1-412b-47f4-ab3b-c5f43b6be7a6)
    )
    (fp_text user "${REFERENCE}" (at 0 -1.65) (layer "F.Fab")
        (effects (font (size 1 1) (thickness 0.15)))
      (tstamp cbc539d2-6a10-4052-9b7a-f10326dcac67)
    )
    (fp_circle (center 0 0) (end 0 0.95)
      (stroke (width 0.12) (type solid)) (fill none) (layer "F.SilkS") (tstamp d2de4093-1fc2-4bc1-94b6-4d0fe3426c6f))
    (fp_circle (center 0 0) (end 1.25 0)
      (stroke (width 0.05) (type solid)) (fill none) (layer "F.CrtYd") (tstamp 43891a3c-749f-498d-ba99-685a27689b0d))
    (pad "1" thru_hole circle (at 0 0) (size 1.5 1.5) (drill 0.5) (layers "*.Cu" "*.Mask")
      (net 1 "Net-(P1-PadA4)") (tstamp 909b030b-fa1a-4fe8-b1ee-422b4d9e23cf))
  )

  (footprint "TestPoint:TestPoint_THTPad_D1.5mm_Drill0.7mm" (layer "F.Cu")
    (tstamp 00000000-0000-0000-0000-00005ec17d96)
    (at 146.25 106.25)
    (descr "THT pad as test Point, diameter 1.5mm, hole diameter 0.7mm")
    (tags "test point THT pad")
    (path "/00000000-0000-0000-0000-00005ec145b1")
    (attr exclude_from_pos_files exclude_from_bom)
    (fp_text reference "TP1" (at -2.5 1) (layer "F.SilkS")
        (effects (font (size 1 1) (thickness 0.15)))
      (tstamp a501555e-bbc7-4b58-ad89-28a0cd3dd6d0)
    )
    (fp_text value "GND" (at 0 1.75) (layer "F.Fab")
        (effects (font (size 1 1) (thickness 0.15)))
      (tstamp 3cfcbcc7-4f45-46ab-82a8-c414c7972161)
    )
    (fp_text user "${REFERENCE}" (at 0 -1.65) (layer "F.Fab")
        (effects (font (size 1 1) (thickness 0.15)))
      (tstamp 786b6072-5772-4bc1-8eeb-6c4e19f2a91b)
    )
    (fp_circle (center 0 0) (end 0 0.95)
      (stroke (width 0.12) (type solid)) (fill none) (layer "F.SilkS") (tstamp 2f3deced-880d-4075-a81b-95c62da5b94d))
    (fp_circle (center 0 0) (end 1.25 0)
      (stroke (width 0.05) (type solid)) (fill none) (layer "F.CrtYd") (tstamp 4d609e7c-74c9-4ae9-a26d-946ff00c167d))
    (pad "1" thru_hole circle (at 0 0) (size 1.5 1.5) (drill 0.5) (layers "*.Cu" "*.Mask")
      (net 6 "GND") (tstamp 9a9f2d82-f64d-4264-8bec-c182528fc4de))
  )

  (gr_line (start 140 107.9875) (end 145.7 107.9875)
    (stroke (width 0.1) (type solid)) (layer "Edge.Cuts") (tstamp 00000000-0000-0000-0000-00005ec1675b))
  (gr_line (start 153.9 108) (end 160 108)
    (stroke (width 0.1) (type solid)) (layer "Edge.Cuts") (tstamp 0147f16a-c952-4891-8f53-a9fb8cddeb8d))
  (gr_line (start 140 105) (end 140 107.9875)
    (stroke (width 0.1) (type solid)) (layer "Edge.Cuts") (tstamp 4e3d7c0d-12e3-42f2-b944-e4bcdbbcac2a))
  (gr_line (start 160 108) (end 160 105)
    (stroke (width 0.1) (type solid)) (layer "Edge.Cuts") (tstamp 6a44418c-7bb4-4e99-8836-57f153c19721))
  (gr_line (start 140 105) (end 160 105)
    (stroke (width 0.1) (type solid)) (layer "Edge.Cuts") (tstamp aa02e544-13f5-4cf8-a5f4-3e6cda006090))

  (segment (start 153.75 106.5) (end 151.75 108.5) (width 0.25) (layer "F.Cu") (net 1) (tstamp 0a3cc030-c9dd-4d74-9d50-715ed2b361a2))
  (segment (start 151.75 108.5) (end 151.75 109.249978) (width 0.25) (layer "F.Cu") (net 1) (tstamp 3dcc657b-55a1-48e0-9667-e01e7b6b08b5))
  (segment (start 151.250001 109.749977) (end 151.75 109.249978) (width 0.25) (layer "F.Cu") (net 1) (tstamp b6270a28-e0d9-4655-a18a-03dbf007b940))
  (segment (start 148.75 109.25) (end 148.75 111.065) (width 0.25) (layer "F.Cu") (net 1) (tstamp d22e95aa-f3db-4fbc-a331-048a2523233e))
  (segment (start 151.25 111.065) (end 151.250001 109.749977) (width 0.25) (layer "F.Cu") (net 1) (tstamp f3490fa5-5a27-423b-af60-53609669542c))
  (via (at 151.75 109.249978) (size 1) (drill 0.5) (layers "F.Cu" "B.Cu") (net 1) (tstamp 1860e030-7a36-4298-b7fc-a16d48ab15ba))
  (via (at 148.75 109.25) (size 1) (drill 0.5) (layers "F.Cu" "B.Cu") (net 1) (tstamp b1169a2d-8998-4b50-a48d-c520bcc1b8e1))
  (segment (start 148.75 109.25) (end 148.75 111.065) (width 0.25) (layer "B.Cu") (net 1) (tstamp 0d0bb7b2-a6e5-46d2-9492-a1aa6e5a7b2f))
  (segment (start 151.250022 109.249978) (end 148.750022 109.249978) (width 0.25) (layer "B.Cu") (net 1) (tstamp 15875808-74d5-4210-b8ca-aa8fbc04ae21))
  (segment (start 151.250022 109.249978) (end 151.25 109.25) (width 0.25) (layer "B.Cu") (net 1) (tstamp 81bbc3ff-3938-49ac-8297-ce2bcc9a42bd))
  (segment (start 151.250022 109.249978) (end 151.75 109.249978) (width 0.25) (layer "B.Cu") (net 1) (tstamp 8322f275-268c-4e87-a69f-4cfbf05e747f))
  (segment (start 148.750022 109.249978) (end 148.75 109.25) (width 0.25) (layer "B.Cu") (net 1) (tstamp d1262c4d-2245-4c4f-8f35-7bb32cd9e21e))
  (segment (start 151.25 109.25) (end 151.25 111.065) (width 0.25) (layer "B.Cu") (net 1) (tstamp dd00c2e1-6027-4717-b312-4fab3ee52002))
  (segment (start 148.75 106.25) (end 149.75 107.25) (width 0.25) (layer "F.Cu") (net 3) (tstamp 32667662-ae86-4904-b198-3e95f11851bf))
  (segment (start 149.75 107.25) (end 149.75 111.065) (width 0.25) (layer "F.Cu") (net 3) (tstamp 67f6e996-3c99-493c-8f6f-e739e2ed5d7a))
  (segment (start 151.25 106.25) (end 150.25 107.25) (width 0.25) (layer "F.Cu") (net 4) (tstamp 13abf99d-5265-4779-8973-e94370fd18ff))
  (segment (start 150.25 107.25) (end 150.25 111.065) (width 0.25) (layer "F.Cu") (net 4) (tstamp a05d7640-f2f6-4ba7-8c51-5a4af431fc13))
  (segment (start 152.5 106.158998) (end 153.233999 105.424999) (width 0.25) (layer "F.Cu") (net 5) (tstamp 23bb2798-d93a-4696-a962-c305c4298a0c))
  (segment (start 150.75 111.065) (end 150.75 108.670501) (width 0.25) (layer "F.Cu") (net 5) (tstamp 46918595-4a45-48e8-84c0-961b4db7f35f))
  (segment (start 154.887499 105.424999) (end 155.7125 106.25) (width 0.25) (layer "F.Cu") (net 5) (tstamp 94c158d1-8503-4553-b511-bf42f506c2a8))
  (segment (start 153.233999 105.424999) (end 154.887499 105.424999) (width 0.25) (layer "F.Cu") (net 5) (tstamp 9ccf03e8-755a-4cd9-96fc-30e1d08fa253))
  (segment (start 152.5 106.920501) (end 152.5 106.158998) (width 0.25) (layer "F.Cu") (net 5) (tstamp a7520ad3-0f8b-4788-92d4-8ffb277041e6))
  (segment (start 150.75 108.670501) (end 152.5 106.920501) (width 0.25) (layer "F.Cu") (net 5) (tstamp a795f1ba-cdd5-4cc5-9a52-08586e982934))
  (via (at 158.5 106.25) (size 1) (drill 0.5) (layers "F.Cu" "B.Cu") (net 6) (tstamp 6e105729-aba0-497c-a99e-c32d2b3ddb6d))
  (via (at 147.5 108.75) (size 1) (drill 0.5) (layers "F.Cu" "B.Cu") (net 6) (tstamp 78cbdd6c-4878-4cc5-9a58-0e506478e37d))
  (via (at 141.5 106.25) (size 1) (drill 0.5) (layers "F.Cu" "B.Cu") (net 6) (tstamp 983c426c-24e0-4c65-ab69-1f1824adc5c6))

  (zone (net 6) (net_name "GND") (layer "F.Cu") (tstamp 00000000-0000-0000-0000-00005ec188b0) (hatch edge 0.508)
    (connect_pads yes (clearance 0.2))
    (min_thickness 0.16) (filled_areas_thickness no)
    (fill yes (thermal_gap 0.16) (thermal_bridge_width 0.4))
    (polygon
      (pts
        (xy 160.5 114)
        (xy 139.5 114)
        (xy 139.5 104.5)
        (xy 160.5 104.5)
      )
    )
    (filled_polygon
      (layer "F.Cu")
      (pts
        (xy 159.67 107.67)
        (xy 153.916203 107.67)
        (xy 153.9 107.668404)
        (xy 153.883797 107.67)
        (xy 153.835309 107.674776)
        (xy 153.773104 107.693645)
        (xy 153.715775 107.724288)
        (xy 153.665526 107.765526)
        (xy 153.624288 107.815775)
        (xy 153.593645 107.873104)
        (xy 153.574776 107.935309)
        (xy 153.568404 108)
        (xy 153.570001 108.016213)
        (xy 153.570001 109.808646)
        (xy 153.225 109.808646)
        (xy 153.170111 109.814052)
        (xy 153.11733 109.830063)
        (xy 153.068688 109.856063)
        (xy 153.026053 109.891053)
        (xy 152.991063 109.933688)
        (xy 152.965063 109.98233)
        (xy 152.949052 110.035111)
        (xy 152.943646 110.09)
        (xy 152.943646 111.84)
        (xy 152.949052 111.894889)
        (xy 152.965063 111.94767)
        (xy 152.982503 111.980297)
        (xy 152.949915 111.990385)
        (xy 152.922363 112.001966)
        (xy 152.894613 112.013178)
        (xy 152.890544 112.015341)
        (xy 152.856208 112.033907)
        (xy 152.831457 112.050601)
        (xy 152.806378 112.067013)
        (xy 152.802807 112.069926)
        (xy 152.772732 112.094807)
        (xy 152.751662 112.116025)
        (xy 152.730289 112.136955)
        (xy 152.727352 112.140506)
        (xy 152.702682 112.170755)
        (xy 152.686143 112.195649)
        (xy 152.669235 112.220342)
        (xy 152.667044 112.224395)
        (xy 152.648719 112.258859)
        (xy 152.637328 112.286495)
        (xy 152.625539 112.314002)
        (xy 152.624176 112.318404)
        (xy 152.612894 112.355771)
        (xy 152.607087 112.385097)
        (xy 152.600865 112.414368)
        (xy 152.600384 112.418951)
        (xy 152.596575 112.457797)
        (xy 152.596575 112.457807)
        (xy 152.595 112.473797)
        (xy 152.595 112.61)
        (xy 151.43 112.61)
        (xy 151.43 112.523798)
        (xy 151.428629 112.509876)
        (xy 151.428637 112.508697)
        (xy 151.428187 112.504111)
        (xy 151.42618 112.485016)
        (xy 151.425224 112.475309)
        (xy 151.425126 112.474986)
        (xy 151.424107 112.465291)
        (xy 151.418102 112.436037)
        (xy 151.41249 112.406614)
        (xy 151.411158 112.402203)
        (xy 151.399615 112.364915)
        (xy 151.388034 112.337363)
        (xy 151.376822 112.309613)
        (xy 151.374659 112.305544)
        (xy 151.356093 112.271208)
        (xy 151.339399 112.246457)
        (xy 151.322987 112.221378)
        (xy 151.320074 112.217807)
        (xy 151.295193 112.187732)
        (xy 151.273951 112.166638)
        (xy 151.253045 112.145289)
        (xy 151.249494 112.142352)
        (xy 151.223747 112.121354)
        (xy 151.38 112.121354)
        (xy 151.434889 112.115948)
        (xy 151.48767 112.099937)
        (xy 151.5 112.093346)
        (xy 151.51233 112.099937)
        (xy 151.565111 112.115948)
        (xy 151.62 112.121354)
        (xy 151.88 112.121354)
        (xy 151.934889 112.115948)
        (xy 151.98767 112.099937)
        (xy 152 112.093346)
        (xy 152.01233 112.099937)
        (xy 152.065111 112.115948)
        (xy 152.12 112.121354)
        (xy 152.38 112.121354)
        (xy 152.434889 112.115948)
        (xy 152.48767 112.099937)
        (xy 152.536312 112.073937)
        (xy 152.578947 112.038947)
        (xy 152.613937 111.996312)
        (xy 152.639937 111.94767)
        (xy 152.655948 111.894889)
        (xy 152.661354 111.84)
        (xy 152.661354 110.29)
        (xy 152.655948 110.235111)
        (xy 152.639937 110.18233)
        (xy 152.613937 110.133688)
        (xy 152.578947 110.091053)
        (xy 152.536312 110.056063)
        (xy 152.48767 110.030063)
        (xy 152.434889 110.014052)
        (xy 152.38 110.008646)
        (xy 152.12 110.008646)
        (xy 152.065111 110.014052)
        (xy 152.01233 110.030063)
        (xy 152 110.036654)
        (xy 151.98767 110.030063)
        (xy 151.934889 110.014052)
        (xy 151.916161 110.012208)
        (xy 151.977518 110.000003)
        (xy 152.119469 109.941205)
        (xy 152.247221 109.855843)
        (xy 152.355865 109.747199)
        (xy 152.441227 109.619447)
        (xy 152.500025 109.477496)
        (xy 152.53 109.326801)
        (xy 152.53 109.173155)
        (xy 152.500025 109.02246)
        (xy 152.441227 108.880509)
        (xy 152.355865 108.752757)
        (xy 152.247221 108.644113)
        (xy 152.206111 108.616644)
        (xy 153.366671 107.456084)
        (xy 153.44956 107.490418)
        (xy 153.648554 107.53)
        (xy 153.851446 107.53)
        (xy 154.05044 107.490418)
        (xy 154.237888 107.412774)
        (xy 154.406587 107.300053)
        (xy 154.550053 107.156587)
        (xy 154.662774 106.987888)
        (xy 154.740418 106.80044)
        (xy 154.78 106.601446)
        (xy 154.78 106.398554)
        (xy 154.740418 106.19956)
        (xy 154.662774 106.012112)
        (xy 154.550053 105.843413)
        (xy 154.536639 105.829999)
        (xy 154.719744 105.829999)
        (xy 154.993646 106.103902)
        (xy 154.993646 106.50625)
        (xy 155.003255 106.603815)
        (xy 155.031714 106.697632)
        (xy 155.077929 106.784093)
        (xy 155.140123 106.859877)
        (xy 155.215907 106.922071)
        (xy 155.302368 106.968286)
        (xy 155.396185 106.996745)
        (xy 155.49375 107.006354)
        (xy 155.93125 107.006354)
        (xy 156.028815 106.996745)
        (xy 156.122632 106.968286)
        (xy 156.209093 106.922071)
        (xy 156.284877 106.859877)
        (xy 156.347071 106.784093)
        (xy 156.393286 106.697632)
        (xy 156.421745 106.603815)
        (xy 156.431354 106.50625)
        (xy 156.431354 105.99375)
        (xy 156.421745 105.896185)
        (xy 156.393286 105.802368)
        (xy 156.347071 105.715907)
        (xy 156.284877 105.640123)
        (xy 156.209093 105.577929)
        (xy 156.122632 105.531714)
        (xy 156.028815 105.503255)
        (xy 155.93125 105.493646)
        (xy 155.528902 105.493646)
        (xy 155.365255 105.33)
        (xy 159.670001 105.33)
      )
    )
    (filled_polygon
      (layer "F.Cu")
      (pts
        (xy 148.262112 105.337226)
        (xy 148.093413 105.449947)
        (xy 147.949947 105.593413)
        (xy 147.837226 105.762112)
        (xy 147.759582 105.94956)
        (xy 147.72 106.148554)
        (xy 147.72 106.351446)
        (xy 147.759582 106.55044)
        (xy 147.837226 106.737888)
        (xy 147.949947 106.906587)
        (xy 148.093413 107.050053)
        (xy 148.262112 107.162774)
        (xy 148.44956 107.240418)
        (xy 148.648554 107.28)
        (xy 148.851446 107.28)
        (xy 149.05044 107.240418)
        (xy 149.133328 107.206084)
        (xy 149.345 107.417757)
        (xy 149.345 108.741914)
        (xy 149.247221 108.644135)
        (xy 149.119469 108.558773)
        (xy 148.977518 108.499975)
        (xy 148.826823 108.47)
        (xy 148.673177 108.47)
        (xy 148.522482 108.499975)
        (xy 148.380531 108.558773)
        (xy 148.252779 108.644135)
        (xy 148.144135 108.752779)
        (xy 148.058773 108.880531)
        (xy 147.999975 109.022482)
        (xy 147.97 109.173177)
        (xy 147.97 109.326823)
        (xy 147.999975 109.477518)
        (xy 148.058773 109.619469)
        (xy 148.144135 109.747221)
        (xy 148.252779 109.855865)
        (xy 148.345 109.917486)
        (xy 148.345 110.008646)
        (xy 148.12 110.008646)
        (xy 148.065111 110.014052)
        (xy 148.01233 110.030063)
        (xy 148 110.036654)
        (xy 147.98767 110.030063)
        (xy 147.934889 110.014052)
        (xy 147.88 110.008646)
        (xy 147.62 110.008646)
        (xy 147.565111 110.014052)
        (xy 147.51233 110.030063)
        (xy 147.463688 110.056063)
        (xy 147.421053 110.091053)
        (xy 147.386063 110.133688)
        (xy 147.360063 110.18233)
        (xy 147.344052 110.235111)
        (xy 147.338646 110.29)
        (xy 147.338646 111.84)
        (xy 147.344052 111.894889)
        (xy 147.360063 111.94767)
        (xy 147.386063 111.996312)
        (xy 147.421053 112.038947)
        (xy 147.463688 112.073937)
        (xy 147.51233 112.099937)
        (xy 147.565111 112.115948)
        (xy 147.62 112.121354)
        (xy 147.88 112.121354)
        (xy 147.934889 112.115948)
        (xy 147.98767 112.099937)
        (xy 148 112.093346)
        (xy 148.01233 112.099937)
        (xy 148.065111 112.115948)
        (xy 148.12 112.121354)
        (xy 148.38 112.121354)
        (xy 148.434889 112.115948)
        (xy 148.48767 112.099937)
        (xy 148.5 112.093346)
        (xy 148.51233 112.099937)
        (xy 148.565111 112.115948)
        (xy 148.62 112.121354)
        (xy 148.88 112.121354)
        (xy 148.934889 112.115948)
        (xy 148.98767 112.099937)
        (xy 149 112.093346)
        (xy 149.01233 112.099937)
        (xy 149.065111 112.115948)
        (xy 149.12 112.121354)
        (xy 149.38 112.121354)
        (xy 149.434889 112.115948)
        (xy 149.48767 112.099937)
        (xy 149.5 112.093346)
        (xy 149.51233 112.099937)
        (xy 149.565111 112.115948)
        (xy 149.58079 112.117492)
        (xy 149.577807 112.119926)
        (xy 149.547732 112.144807)
        (xy 149.526662 112.166025)
        (xy 149.505289 112.186955)
        (xy 149.502352 112.190506)
        (xy 149.477682 112.220755)
        (xy 149.461143 112.245649)
        (xy 149.444235 112.270342)
        (xy 149.442044 112.274395)
        (xy 149.423719 112.308859)
        (xy 149.412328 112.336495)
        (xy 149.400539 112.364002)
        (xy 149.399176 112.368404)
        (xy 149.387894 112.405771)
        (xy 149.382087 112.435097)
        (xy 149.375865 112.464368)
        (xy 149.375384 112.468951)
        (xy 149.371575 112.507797)
        (xy 149.371575 112.507808)
        (xy 149.37 112.523798)
        (xy 149.37 112.61)
        (xy 147.405 112.61)
        (xy 147.405 112.473797)
        (xy 147.403629 112.459876)
        (xy 147.403637 112.458697)
        (xy 147.403187 112.454111)
        (xy 147.40118 112.435019)
        (xy 147.400224 112.425309)
        (xy 147.400126 112.424986)
        (xy 147.399107 112.415291)
        (xy 147.393102 112.386037)
        (xy 147.38749 112.356614)
        (xy 147.386158 112.352203)
        (xy 147.374615 112.314915)
        (xy 147.363034 112.287363)
        (xy 147.351822 112.259613)
        (xy 147.349659 112.255544)
        (xy 147.331093 112.221208)
        (xy 147.314399 112.196457)
        (xy 147.297987 112.171378)
        (xy 147.295074 112.167807)
        (xy 147.270193 112.137732)
        (xy 147.248951 112.116638)
        (xy 147.228045 112.095289)
        (xy 147.224494 112.092352)
        (xy 147.194245 112.067682)
        (xy 147.169332 112.05113)
        (xy 147.144658 112.034235)
        (xy 147.140605 112.032044)
        (xy 147.106141 112.013719)
        (xy 147.078505 112.002328)
        (xy 147.050998 111.990539)
        (xy 147.046596 111.989176)
        (xy 147.017454 111.980377)
        (xy 147.034937 111.94767)
        (xy 147.050948 111.894889)
        (xy 147.056354 111.84)
        (xy 147.056354 110.09)
        (xy 147.050948 110.035111)
        (xy 147.034937 109.98233)
        (xy 147.008937 109.933688)
        (xy 146.973947 109.891053)
        (xy 146.931312 109.856063)
        (xy 146.88267 109.830063)
        (xy 146.829889 109.814052)
        (xy 146.775 109.808646)
        (xy 146.43 109.808646)
        (xy 146.43 109.706203)
        (xy 146.431596 109.69)
        (xy 146.425224 109.625309)
        (xy 146.406355 109.563104)
        (xy 146.375712 109.505775)
        (xy 146.334474 109.455526)
        (xy 146.284225 109.414288)
        (xy 146.226896 109.383645)
        (xy 146.164691 109.364776)
        (xy 146.116203 109.36)
        (xy 146.1 109.358404)
        (xy 146.083797 109.36)
        (xy 146.03 109.36)
        (xy 146.03 108.003703)
        (xy 146.031596 107.9875)
        (xy 146.025224 107.922809)
        (xy 146.006355 107.860604)
        (xy 145.975712 107.803275)
        (xy 145.934474 107.753026)
        (xy 145.884225 107.711788)
        (xy 145.826896 107.681145)
        (xy 145.764691 107.662276)
        (xy 145.716203 107.6575)
        (xy 145.7 107.655904)
        (xy 145.683797 107.6575)
        (xy 140.33 107.6575)
        (xy 140.33 105.33)
        (xy 148.279557 105.33)
      )
    )
  )
  (zone (net 6) (net_name "GND") (layer "B.Cu") (tstamp 00000000-0000-0000-0000-00005ec188ad) (hatch edge 0.508)
    (connect_pads yes (clearance 0.2))
    (min_thickness 0.16) (filled_areas_thickness no)
    (fill yes (thermal_gap 0.16) (thermal_bridge_width 0.4))
    (polygon
      (pts
        (xy 160.5 114)
        (xy 139.5 114)
        (xy 139.5 104.5)
        (xy 160.5 104.5)
      )
    )
    (filled_polygon
      (layer "B.Cu")
      (pts
        (xy 148.262112 105.337226)
        (xy 148.093413 105.449947)
        (xy 147.949947 105.593413)
        (xy 147.837226 105.762112)
        (xy 147.759582 105.94956)
        (xy 147.72 106.148554)
        (xy 147.72 106.351446)
        (xy 147.759582 106.55044)
        (xy 147.837226 106.737888)
        (xy 147.949947 106.906587)
        (xy 148.093413 107.050053)
        (xy 148.262112 107.162774)
        (xy 148.44956 107.240418)
        (xy 148.648554 107.28)
        (xy 148.851446 107.28)
        (xy 149.05044 107.240418)
        (xy 149.237888 107.162774)
        (xy 149.406587 107.050053)
        (xy 149.550053 106.906587)
        (xy 149.662774 106.737888)
        (xy 149.740418 106.55044)
        (xy 149.78 106.351446)
        (xy 149.78 106.148554)
        (xy 149.740418 105.94956)
        (xy 149.662774 105.762112)
        (xy 149.550053 105.593413)
        (xy 149.406587 105.449947)
        (xy 149.237888 105.337226)
        (xy 149.220443 105.33)
        (xy 150.779557 105.33)
        (xy 150.762112 105.337226)
        (xy 150.593413 105.449947)
        (xy 150.449947 105.593413)
        (xy 150.337226 105.762112)
        (xy 150.259582 105.94956)
        (xy 150.22 106.148554)
        (xy 150.22 106.351446)
        (xy 150.259582 106.55044)
        (xy 150.337226 106.737888)
        (xy 150.449947 106.906587)
        (xy 150.593413 107.050053)
        (xy 150.762112 107.162774)
        (xy 150.94956 107.240418)
        (xy 151.148554 107.28)
        (xy 151.351446 107.28)
        (xy 151.55044 107.240418)
        (xy 151.737888 107.162774)
        (xy 151.906587 107.050053)
        (xy 152.050053 106.906587)
        (xy 152.162774 106.737888)
        (xy 152.240418 106.55044)
        (xy 152.270629 106.398554)
        (xy 152.72 106.398554)
        (xy 152.72 106.601446)
        (xy 152.759582 106.80044)
        (xy 152.837226 106.987888)
        (xy 152.949947 107.156587)
        (xy 153.093413 107.300053)
        (xy 153.262112 107.412774)
        (xy 153.44956 107.490418)
        (xy 153.648554 107.53)
        (xy 153.851446 107.53)
        (xy 154.05044 107.490418)
        (xy 154.237888 107.412774)
        (xy 154.406587 107.300053)
        (xy 154.550053 107.156587)
        (xy 154.662774 106.987888)
        (xy 154.740418 106.80044)
        (xy 154.78 106.601446)
        (xy 154.78 106.398554)
        (xy 154.740418 106.19956)
        (xy 154.662774 106.012112)
        (xy 154.550053 105.843413)
        (xy 154.406587 105.699947)
        (xy 154.237888 105.587226)
        (xy 154.05044 105.509582)
        (xy 153.851446 105.47)
        (xy 153.648554 105.47)
        (xy 153.44956 105.509582)
        (xy 153.262112 105.587226)
        (xy 153.093413 105.699947)
        (xy 152.949947 105.843413)
        (xy 152.837226 106.012112)
        (xy 152.759582 106.19956)
        (xy 152.72 106.398554)
        (xy 152.270629 106.398554)
        (xy 152.28 106.351446)
        (xy 152.28 106.148554)
        (xy 152.240418 105.94956)
        (xy 152.162774 105.762112)
        (xy 152.050053 105.593413)
        (xy 151.906587 105.449947)
        (xy 151.737888 105.337226)
        (xy 151.720443 105.33)
        (xy 159.670001 105.33)
        (xy 159.67 107.67)
        (xy 153.916203 107.67)
        (xy 153.9 107.668404)
        (xy 153.883797 107.67)
        (xy 153.835309 107.674776)
        (xy 153.773104 107.693645)
        (xy 153.715775 107.724288)
        (xy 153.665526 107.765526)
        (xy 153.624288 107.815775)
        (xy 153.593645 107.873104)
        (xy 153.574776 107.935309)
        (xy 153.568404 108)
        (xy 153.570001 108.016213)
        (xy 153.57 111.733293)
        (xy 153.406268 111.96)
        (xy 153.108797 111.96)
        (xy 153.094876 111.961371)
        (xy 153.093697 111.961363)
        (xy 153.089111 111.961813)
        (xy 153.070019 111.96382)
        (xy 153.060309 111.964776)
        (xy 153.059986 111.964874)
        (xy 153.050291 111.965893)
        (xy 153.021037 111.971898)
        (xy 152.991614 111.97751)
        (xy 152.987203 111.978842)
        (xy 152.949915 111.990385)
        (xy 152.922363 112.001966)
        (xy 152.894613 112.013178)
        (xy 152.890544 112.015341)
        (xy 152.856208 112.033907)
        (xy 152.831457 112.050601)
        (xy 152.806378 112.067013)
        (xy 152.802807 112.069926)
        (xy 152.772732 112.094807)
        (xy 152.751662 112.116025)
        (xy 152.730289 112.136955)
        (xy 152.727352 112.140506)
        (xy 152.702682 112.170755)
        (xy 152.686143 112.195649)
        (xy 152.669235 112.220342)
        (xy 152.667044 112.224395)
        (xy 152.648719 112.258859)
        (xy 152.637328 112.286495)
        (xy 152.625539 112.314002)
        (xy 152.624176 112.318404)
        (xy 152.612894 112.355771)
        (xy 152.607087 112.385097)
        (xy 152.600865 112.414368)
        (xy 152.600384 112.418951)
        (xy 152.596575 112.457797)
        (xy 152.596575 112.457807)
        (xy 152.595 112.473797)
        (xy 152.595 112.61)
        (xy 151.43 112.61)
        (xy 151.43 112.523798)
        (xy 151.428629 112.509876)
        (xy 151.428637 112.508697)
        (xy 151.428187 112.504111)
        (xy 151.42618 112.485016)
        (xy 151.425224 112.475309)
        (xy 151.425126 112.474986)
        (xy 151.424107 112.465291)
        (xy 151.418102 112.436037)
        (xy 151.41249 112.406614)
        (xy 151.411158 112.402203)
        (xy 151.399615 112.364915)
        (xy 151.388034 112.337363)
        (xy 151.376822 112.309613)
        (xy 151.374659 112.305544)
        (xy 151.356093 112.271208)
        (xy 151.339399 112.246457)
        (xy 151.322987 112.221378)
        (xy 151.320074 112.217807)
        (xy 151.295193 112.187732)
        (xy 151.273951 112.166638)
        (xy 151.253045 112.145289)
        (xy 151.249494 112.142352)
        (xy 151.223747 112.121354)
        (xy 151.38 112.121354)
        (xy 151.434889 112.115948)
        (xy 151.48767 112.099937)
        (xy 151.5 112.093346)
        (xy 151.51233 112.099937)
        (xy 151.565111 112.115948)
        (xy 151.62 112.121354)
        (xy 151.88 112.121354)
        (xy 151.934889 112.115948)
        (xy 151.98767 112.099937)
        (xy 152 112.093346)
        (xy 152.01233 112.099937)
        (xy 152.065111 112.115948)
        (xy 152.12 112.121354)
        (xy 152.38 112.121354)
        (xy 152.434889 112.115948)
        (xy 152.48767 112.099937)
        (xy 152.536312 112.073937)
        (xy 152.578947 112.038947)
        (xy 152.613937 111.996312)
        (xy 152.639937 111.94767)
        (xy 152.655948 111.894889)
        (xy 152.661354 111.84)
        (xy 152.661354 110.29)
        (xy 152.655948 110.235111)
        (xy 152.639937 110.18233)
        (xy 152.613937 110.133688)
        (xy 152.578947 110.091053)
        (xy 152.536312 110.056063)
        (xy 152.48767 110.030063)
        (xy 152.434889 110.014052)
        (xy 152.38 110.008646)
        (xy 152.12 110.008646)
        (xy 152.065111 110.014052)
        (xy 152.01233 110.030063)
        (xy 152 110.036654)
        (xy 151.98767 110.030063)
        (xy 151.934889 110.014052)
        (xy 151.916161 110.012208)
        (xy 151.977518 110.000003)
        (xy 152.119469 109.941205)
        (xy 152.247221 109.855843)
        (xy 152.355865 109.747199)
        (xy 152.441227 109.619447)
        (xy 152.500025 109.477496)
        (xy 152.53 109.326801)
        (xy 152.53 109.173155)
        (xy 152.500025 109.02246)
        (xy 152.441227 108.880509)
        (xy 152.355865 108.752757)
        (xy 152.247221 108.644113)
        (xy 152.119469 108.558751)
        (xy 151.977518 108.499953)
        (xy 151.826823 108.469978)
        (xy 151.673177 108.469978)
        (xy 151.522482 108.499953)
        (xy 151.380531 108.558751)
        (xy 151.252779 108.644113)
        (xy 151.144135 108.752757)
        (xy 151.082514 108.844978)
        (xy 149.417471 108.844978)
        (xy 149.355865 108.752779)
        (xy 149.247221 108.644135)
        (xy 149.119469 108.558773)
        (xy 148.977518 108.499975)
        (xy 148.826823 108.47)
        (xy 148.673177 108.47)
        (xy 148.522482 108.499975)
        (xy 148.380531 108.558773)
        (xy 148.252779 108.644135)
        (xy 148.144135 108.752779)
        (xy 148.058773 108.880531)
        (xy 147.999975 109.022482)
        (xy 147.97 109.173177)
        (xy 147.97 109.326823)
        (xy 147.999975 109.477518)
        (xy 148.058773 109.619469)
        (xy 148.144135 109.747221)
        (xy 148.252779 109.855865)
        (xy 148.345 109.917486)
        (xy 148.345 110.008646)
        (xy 148.12 110.008646)
        (xy 148.065111 110.014052)
        (xy 148.01233 110.030063)
        (xy 148 110.036654)
        (xy 147.98767 110.030063)
        (xy 147.934889 110.014052)
        (xy 147.88 110.008646)
        (xy 147.62 110.008646)
        (xy 147.565111 110.014052)
        (xy 147.51233 110.030063)
        (xy 147.463688 110.056063)
        (xy 147.421053 110.091053)
        (xy 147.386063 110.133688)
        (xy 147.360063 110.18233)
        (xy 147.344052 110.235111)
        (xy 147.338646 110.29)
        (xy 147.338646 111.84)
        (xy 147.344052 111.894889)
        (xy 147.360063 111.94767)
        (xy 147.386063 111.996312)
        (xy 147.421053 112.038947)
        (xy 147.463688 112.073937)
        (xy 147.51233 112.099937)
        (xy 147.565111 112.115948)
        (xy 147.62 112.121354)
        (xy 147.88 112.121354)
        (xy 147.934889 112.115948)
        (xy 147.98767 112.099937)
        (xy 148 112.093346)
        (xy 148.01233 112.099937)
        (xy 148.065111 112.115948)
        (xy 148.12 112.121354)
        (xy 148.38 112.121354)
        (xy 148.434889 112.115948)
        (xy 148.48767 112.099937)
        (xy 148.5 112.093346)
        (xy 148.51233 112.099937)
        (xy 148.565111 112.115948)
        (xy 148.62 112.121354)
        (xy 148.88 112.121354)
        (xy 148.934889 112.115948)
        (xy 148.98767 112.099937)
        (xy 149 112.093346)
        (xy 149.01233 112.099937)
        (xy 149.065111 112.115948)
        (xy 149.12 112.121354)
        (xy 149.38 112.121354)
        (xy 149.434889 112.115948)
        (xy 149.48767 112.099937)
        (xy 149.5 112.093346)
        (xy 149.51233 112.099937)
        (xy 149.565111 112.115948)
        (xy 149.58079 112.117492)
        (xy 149.577807 112.119926)
        (xy 149.547732 112.144807)
        (xy 149.526662 112.166025)
        (xy 149.505289 112.186955)
        (xy 149.502352 112.190506)
        (xy 149.477682 112.220755)
        (xy 149.461143 112.245649)
        (xy 149.444235 112.270342)
        (xy 149.442044 112.274395)
        (xy 149.423719 112.308859)
        (xy 149.412328 112.336495)
        (xy 149.400539 112.364002)
        (xy 149.399176 112.368404)
        (xy 149.387894 112.405771)
        (xy 149.382087 112.435097)
        (xy 149.375865 112.464368)
        (xy 149.375384 112.468951)
        (xy 149.371575 112.507797)
        (xy 149.371575 112.507808)
        (xy 149.37 112.523798)
        (xy 149.37 112.61)
        (xy 147.405 112.61)
        (xy 147.405 112.473797)
        (xy 147.403629 112.459876)
        (xy 147.403637 112.458697)
        (xy 147.403187 112.454111)
        (xy 147.40118 112.435019)
        (xy 147.400224 112.425309)
        (xy 147.400126 112.424986)
        (xy 147.399107 112.415291)
        (xy 147.393102 112.386037)
        (xy 147.38749 112.356614)
        (xy 147.386158 112.352203)
        (xy 147.374615 112.314915)
        (xy 147.363034 112.287363)
        (xy 147.351822 112.259613)
        (xy 147.349659 112.255544)
        (xy 147.331093 112.221208)
        (xy 147.314399 112.196457)
        (xy 147.297987 112.171378)
        (xy 147.295074 112.167807)
        (xy 147.270193 112.137732)
        (xy 147.248951 112.116638)
        (xy 147.228045 112.095289)
        (xy 147.224494 112.092352)
        (xy 147.194245 112.067682)
        (xy 147.169332 112.05113)
        (xy 147.144658 112.034235)
        (xy 147.140605 112.032044)
        (xy 147.106141 112.013719)
        (xy 147.078505 112.002328)
        (xy 147.050998 111.990539)
        (xy 147.046596 111.989176)
        (xy 147.009229 111.977894)
        (xy 146.979903 111.972087)
        (xy 146.950632 111.965865)
        (xy 146.946055 111.965385)
        (xy 146.946052 111.965384)
        (xy 146.946049 111.965384)
        (xy 146.907203 111.961575)
        (xy 146.907193 111.961575)
        (xy 146.891203 111.96)
        (xy 146.625892 111.96)
        (xy 146.43 111.721754)
        (xy 146.43 109.706203)
        (xy 146.431596 109.69)
        (xy 146.425224 109.625309)
        (xy 146.406355 109.563104)
        (xy 146.375712 109.505775)
        (xy 146.334474 109.455526)
        (xy 146.284225 109.414288)
        (xy 146.226896 109.383645)
        (xy 146.164691 109.364776)
        (xy 146.116203 109.36)
        (xy 146.1 109.358404)
        (xy 146.083797 109.36)
        (xy 146.03 109.36)
        (xy 146.03 108.003703)
        (xy 146.031596 107.9875)
        (xy 146.025224 107.922809)
        (xy 146.006355 107.860604)
        (xy 145.975712 107.803275)
        (xy 145.934474 107.753026)
        (xy 145.884225 107.711788)
        (xy 145.826896 107.681145)
        (xy 145.764691 107.662276)
        (xy 145.716203 107.6575)
        (xy 145.7 107.655904)
        (xy 145.683797 107.6575)
        (xy 140.33 107.6575)
        (xy 140.33 105.33)
        (xy 148.279557 105.33)
      )
    )
  )
)
