(kicad_sch (version 20230121) (generator eeschema)

  (uuid 5ecac6d8-0277-4350-80c1-88a8cf49a228)

  (paper "A4")

  (lib_symbols
    (symbol "Kleeb MCU:xiao" (pin_names (offset 1.016)) (in_bom yes) (on_board yes)
      (property "Reference" "U" (at -10.16 15.24 0)
        (effects (font (size 1.27 1.27)))
      )
      (property "Value" "xiao" (at -8.89 12.7 0)
        (effects (font (size 1.27 1.27)))
      )
      (property "Footprint" "" (at -8.89 5.08 0)
        (effects (font (size 1.27 1.27)) hide)
      )
      (property "Datasheet" "" (at -8.89 5.08 0)
        (effects (font (size 1.27 1.27)) hide)
      )
      (symbol "xiao_0_1"
        (rectangle (start -10.16 11.43) (end 10.16 -11.43)
          (stroke (width 0) (type default))
          (fill (type none))
        )
      )
      (symbol "xiao_1_1"
        (pin bidirectional line (at -12.7 7.62 0) (length 2.54)
          (name "A2" (effects (font (size 1.27 1.27))))
          (number "1" (effects (font (size 1.27 1.27))))
        )
        (pin bidirectional line (at 12.7 -2.54 180) (length 2.54)
          (name "A5_MISO" (effects (font (size 1.27 1.27))))
          (number "10" (effects (font (size 1.27 1.27))))
        )
        (pin bidirectional line (at 12.7 0 180) (length 2.54)
          (name "A6_MOSI" (effects (font (size 1.27 1.27))))
          (number "11" (effects (font (size 1.27 1.27))))
        )
        (pin power_out line (at 12.7 2.54 180) (length 2.54)
          (name "3V3" (effects (font (size 1.27 1.27))))
          (number "12" (effects (font (size 1.27 1.27))))
        )
        (pin power_out line (at 12.7 5.08 180) (length 2.54)
          (name "GND" (effects (font (size 1.27 1.27))))
          (number "13" (effects (font (size 1.27 1.27))))
        )
        (pin power_out line (at 12.7 7.62 180) (length 2.54)
          (name "5V" (effects (font (size 1.27 1.27))))
          (number "14" (effects (font (size 1.27 1.27))))
        )
        (pin input line (at -3.81 13.97 270) (length 2.54)
          (name "A31_SWDIO" (effects (font (size 1.27 1.27))))
          (number "15" (effects (font (size 1.27 1.27))))
        )
        (pin input line (at -1.27 13.97 270) (length 2.54)
          (name "A30_SWCLK" (effects (font (size 1.27 1.27))))
          (number "16" (effects (font (size 1.27 1.27))))
        )
        (pin input line (at 1.27 13.97 270) (length 2.54)
          (name "RESET" (effects (font (size 1.27 1.27))))
          (number "17" (effects (font (size 1.27 1.27))))
        )
        (pin power_out line (at 3.81 13.97 270) (length 2.54)
          (name "GND" (effects (font (size 1.27 1.27))))
          (number "18" (effects (font (size 1.27 1.27))))
        )
        (pin bidirectional line (at -12.7 5.08 0) (length 2.54)
          (name "A4" (effects (font (size 1.27 1.27))))
          (number "2" (effects (font (size 1.27 1.27))))
        )
        (pin bidirectional line (at -12.7 2.54 0) (length 2.54)
          (name "A10" (effects (font (size 1.27 1.27))))
          (number "3" (effects (font (size 1.27 1.27))))
        )
        (pin bidirectional line (at -12.7 0 0) (length 2.54)
          (name "A11" (effects (font (size 1.27 1.27))))
          (number "4" (effects (font (size 1.27 1.27))))
        )
        (pin bidirectional line (at -12.7 -2.54 0) (length 2.54)
          (name "A8_SDA" (effects (font (size 1.27 1.27))))
          (number "5" (effects (font (size 1.27 1.27))))
        )
        (pin bidirectional line (at -12.7 -5.08 0) (length 2.54)
          (name "A9_SCL" (effects (font (size 1.27 1.27))))
          (number "6" (effects (font (size 1.27 1.27))))
        )
        (pin bidirectional line (at -12.7 -7.62 0) (length 2.54)
          (name "B8_TX" (effects (font (size 1.27 1.27))))
          (number "7" (effects (font (size 1.27 1.27))))
        )
        (pin bidirectional line (at 12.7 -7.62 180) (length 2.54)
          (name "B9_RX" (effects (font (size 1.27 1.27))))
          (number "8" (effects (font (size 1.27 1.27))))
        )
        (pin bidirectional line (at 12.7 -5.08 180) (length 2.54)
          (name "A7_SCK" (effects (font (size 1.27 1.27))))
          (number "9" (effects (font (size 1.27 1.27))))
        )
      )
    )
    (symbol "MarBastLib-Various:BAV70_Small" (pin_names (offset 0.762) hide) (in_bom yes) (on_board yes)
      (property "Reference" "D" (at 0.635 -2.54 0)
        (effects (font (size 1.27 1.27)) (justify left))
      )
      (property "Value" "BAV70_Small" (at 0 2.54 0)
        (effects (font (size 1.27 1.27)))
      )
      (property "Footprint" "Package_TO_SOT_SMD:SOT-23" (at 2.54 0 0)
        (effects (font (size 1.27 1.27)) hide)
      )
      (property "Datasheet" "https://assets.nexperia.com/documents/data-sheet/BAV70_SER.pdf" (at 0 0 0)
        (effects (font (size 1.27 1.27)) hide)
      )
      (property "ki_keywords" "diode" (at 0 0 0)
        (effects (font (size 1.27 1.27)) hide)
      )
      (property "ki_description" "Dual 100V 215mA high-speed switching diodes, common cathode, SOT-23" (at 0 0 0)
        (effects (font (size 1.27 1.27)) hide)
      )
      (property "ki_fp_filters" "SOT?23*" (at 0 0 0)
        (effects (font (size 1.27 1.27)) hide)
      )
      (symbol "BAV70_Small_0_1"
        (polyline
          (pts
            (xy -1.27 1.27)
            (xy -1.27 -1.27)
          )
          (stroke (width 0) (type default))
          (fill (type none))
        )
        (polyline
          (pts
            (xy 1.27 0)
            (xy -1.27 0)
          )
          (stroke (width 0) (type default))
          (fill (type none))
        )
        (polyline
          (pts
            (xy 1.27 1.27)
            (xy 1.27 -1.27)
          )
          (stroke (width 0) (type default))
          (fill (type none))
        )
        (polyline
          (pts
            (xy -2.54 1.27)
            (xy -2.54 -1.27)
            (xy -1.27 0)
            (xy -2.54 1.27)
          )
          (stroke (width 0) (type default))
          (fill (type none))
        )
        (polyline
          (pts
            (xy 2.54 1.27)
            (xy 2.54 -1.27)
            (xy 1.27 0)
            (xy 2.54 1.27)
          )
          (stroke (width 0) (type default))
          (fill (type none))
        )
        (circle (center 0 0) (radius 0.254)
          (stroke (width 0) (type default))
          (fill (type outline))
        )
      )
      (symbol "BAV70_Small_1_1"
        (pin input line (at -5.08 0 0) (length 2.54)
          (name "A1" (effects (font (size 0.762 0.762))))
          (number "1" (effects (font (size 0.762 0.762))))
        )
        (pin input line (at 5.08 0 180) (length 2.54)
          (name "A2" (effects (font (size 0.762 0.762))))
          (number "2" (effects (font (size 0.762 0.762))))
        )
        (pin passive line (at 0 -2.54 90) (length 2.54)
          (name "K" (effects (font (size 0.508 0.508))))
          (number "3" (effects (font (size 0.762 0.762))))
        )
      )
    )
    (symbol "Switch:SW_Push" (pin_numbers hide) (pin_names (offset 1.016) hide) (in_bom yes) (on_board yes)
      (property "Reference" "SW" (at 1.27 2.54 0)
        (effects (font (size 1.27 1.27)) (justify left))
      )
      (property "Value" "SW_Push" (at 0 -1.524 0)
        (effects (font (size 1.27 1.27)))
      )
      (property "Footprint" "" (at 0 5.08 0)
        (effects (font (size 1.27 1.27)) hide)
      )
      (property "Datasheet" "~" (at 0 5.08 0)
        (effects (font (size 1.27 1.27)) hide)
      )
      (property "ki_keywords" "switch normally-open pushbutton push-button" (at 0 0 0)
        (effects (font (size 1.27 1.27)) hide)
      )
      (property "ki_description" "Push button switch, generic, two pins" (at 0 0 0)
        (effects (font (size 1.27 1.27)) hide)
      )
      (symbol "SW_Push_0_1"
        (circle (center -2.032 0) (radius 0.508)
          (stroke (width 0) (type default))
          (fill (type none))
        )
        (polyline
          (pts
            (xy 0 1.27)
            (xy 0 3.048)
          )
          (stroke (width 0) (type default))
          (fill (type none))
        )
        (polyline
          (pts
            (xy 2.54 1.27)
            (xy -2.54 1.27)
          )
          (stroke (width 0) (type default))
          (fill (type none))
        )
        (circle (center 2.032 0) (radius 0.508)
          (stroke (width 0) (type default))
          (fill (type none))
        )
        (pin passive line (at -5.08 0 0) (length 2.54)
          (name "1" (effects (font (size 1.27 1.27))))
          (number "1" (effects (font (size 1.27 1.27))))
        )
        (pin passive line (at 5.08 0 180) (length 2.54)
          (name "2" (effects (font (size 1.27 1.27))))
          (number "2" (effects (font (size 1.27 1.27))))
        )
      )
    )
  )

  (junction (at 102.87 25.4) (diameter 0) (color 0 0 0 0)
    (uuid 198e6717-401e-49cd-a75e-4d617dd8f9a6)
  )
  (junction (at 184.15 101.6) (diameter 0) (color 0 0 0 0)
    (uuid 1f19033f-e778-45f0-b1c9-4987b3810d19)
  )
  (junction (at 77.47 25.4) (diameter 0) (color 0 0 0 0)
    (uuid 2a03e41e-240b-46b6-9bd9-543b13f61e7d)
  )
  (junction (at 77.47 101.6) (diameter 0) (color 0 0 0 0)
    (uuid 3d034b00-8f7b-48e3-9dd7-8da247ce6ef7)
  )
  (junction (at 102.87 50.8) (diameter 0) (color 0 0 0 0)
    (uuid 40d17c95-094c-4fc9-a101-ab04b2917611)
  )
  (junction (at 95.25 83.82) (diameter 0) (color 0 0 0 0)
    (uuid 41e721a1-681e-43c0-9eb4-5ee4afd3c461)
  )
  (junction (at 52.07 50.8) (diameter 0) (color 0 0 0 0)
    (uuid 7262a0df-d7c7-4b5d-9873-411dd9138bf4)
  )
  (junction (at 201.93 58.42) (diameter 0) (color 0 0 0 0)
    (uuid 77b4c9e9-ea92-4114-8750-d33ed1e29b9e)
  )
  (junction (at 77.47 76.2) (diameter 0) (color 0 0 0 0)
    (uuid 7d7b33ba-55bd-4bf3-a0a0-1784bfb8aa5e)
  )
  (junction (at 95.25 58.42) (diameter 0) (color 0 0 0 0)
    (uuid 831297e8-51c5-4d54-ac25-ca7f4bde3f29)
  )
  (junction (at 184.15 50.8) (diameter 0) (color 0 0 0 0)
    (uuid 8365430f-b552-4f74-ba87-6544b73da635)
  )
  (junction (at 234.95 50.8) (diameter 0) (color 0 0 0 0)
    (uuid 87ea6d52-2a15-4a7b-aa99-2ba09e8ca957)
  )
  (junction (at 77.47 50.8) (diameter 0) (color 0 0 0 0)
    (uuid 8dc398f7-5b91-4dd6-93fd-2d5ba54a6c54)
  )
  (junction (at 52.07 76.2) (diameter 0) (color 0 0 0 0)
    (uuid 8ff3555c-76ba-4e48-88f7-8f8806151321)
  )
  (junction (at 26.67 76.2) (diameter 0) (color 0 0 0 0)
    (uuid 8ffec6ba-b29b-47d7-88d2-f1d91ca1ce93)
  )
  (junction (at 52.07 25.4) (diameter 0) (color 0 0 0 0)
    (uuid 9a7807c8-4d90-4e44-b6ef-c8cbbf9962ff)
  )
  (junction (at 234.95 76.2) (diameter 0) (color 0 0 0 0)
    (uuid a7f30b41-4857-4703-961b-5953fd7bb18f)
  )
  (junction (at 102.87 101.6) (diameter 0) (color 0 0 0 0)
    (uuid ab78436a-f5ef-456d-8667-0b92b57dcd42)
  )
  (junction (at 209.55 76.2) (diameter 0) (color 0 0 0 0)
    (uuid abc4a78f-e42d-4ef2-a20d-151353ab67a6)
  )
  (junction (at 260.35 50.8) (diameter 0) (color 0 0 0 0)
    (uuid af101393-9add-432a-9e05-ddd7392b03e2)
  )
  (junction (at 209.55 50.8) (diameter 0) (color 0 0 0 0)
    (uuid b1d9cfda-124f-4504-a643-539dbbf71fb3)
  )
  (junction (at 26.67 50.8) (diameter 0) (color 0 0 0 0)
    (uuid b5473d7d-1140-4c24-8766-ab1ac6a3fa88)
  )
  (junction (at 184.15 76.2) (diameter 0) (color 0 0 0 0)
    (uuid b5f5885a-2b50-4e86-a140-8d98d5290104)
  )
  (junction (at 95.25 33.02) (diameter 0) (color 0 0 0 0)
    (uuid bbd559e2-1b95-451b-8162-213e85e5ce0f)
  )
  (junction (at 148.59 109.22) (diameter 0) (color 0 0 0 0)
    (uuid c6cd1297-1595-4a63-9c83-567118a9f819)
  )
  (junction (at 201.93 33.02) (diameter 0) (color 0 0 0 0)
    (uuid ccab2260-44b5-4429-8924-77af2ec56e14)
  )
  (junction (at 201.93 83.82) (diameter 0) (color 0 0 0 0)
    (uuid cdd8ac2b-157d-4746-b41d-30fd09c64b31)
  )
  (junction (at 102.87 76.2) (diameter 0) (color 0 0 0 0)
    (uuid d45353e8-c3cb-45fd-a255-34a3f7db510b)
  )
  (junction (at 26.67 25.4) (diameter 0) (color 0 0 0 0)
    (uuid d670c728-c728-44d2-b84a-877935ec97cb)
  )
  (junction (at 209.55 101.6) (diameter 0) (color 0 0 0 0)
    (uuid e2e6caef-ce30-4f08-bc11-73aae16e481d)
  )
  (junction (at 260.35 76.2) (diameter 0) (color 0 0 0 0)
    (uuid fef33802-a609-489a-adc4-47038d3befdf)
  )

  (no_connect (at 161.29 40.64) (uuid 26daf7e9-8e88-4297-b9a5-d0d5f88dfaf3))
  (no_connect (at 147.32 29.21) (uuid 2aa68acb-205e-4776-a41f-b6c71bc3cfe5))
  (no_connect (at 149.86 29.21) (uuid 39272bd1-19c8-4694-a411-2f8dccb37941))
  (no_connect (at 152.4 29.21) (uuid 6757d0ac-3dcd-48b7-a140-9a6818e9818b))
  (no_connect (at 161.29 35.56) (uuid bd1f4b46-a785-4864-ad07-b5212ceb77b6))
  (no_connect (at 144.78 29.21) (uuid f284b0f4-d234-4779-9ccb-ed41624e6b50))

  (wire (pts (xy 201.93 58.42) (xy 201.93 57.15))
    (stroke (width 0) (type default))
    (uuid 009be0a4-51e5-44cb-8d7c-2554adcbc3d2)
  )
  (wire (pts (xy 184.15 88.9) (xy 209.55 88.9))
    (stroke (width 0) (type default))
    (uuid 053f7ebf-fa3e-4c4a-beae-22420d463286)
  )
  (wire (pts (xy 209.55 92.71) (xy 260.35 92.71))
    (stroke (width 0) (type default))
    (uuid 087392b7-09dc-4bb8-af03-1fa0e0472e63)
  )
  (wire (pts (xy 179.07 120.65) (xy 102.87 120.65))
    (stroke (width 0) (type default))
    (uuid 09a97195-5391-4e06-8555-e5f7448b7aea)
  )
  (wire (pts (xy 148.59 101.6) (xy 152.4 101.6))
    (stroke (width 0) (type default))
    (uuid 0dd773ce-0688-4418-8e18-134cf49af585)
  )
  (wire (pts (xy 52.07 76.2) (xy 52.07 50.8))
    (stroke (width 0) (type default))
    (uuid 0e8a22b4-e06d-4322-8d67-94629bb80965)
  )
  (wire (pts (xy 26.67 17.78) (xy 26.67 25.4))
    (stroke (width 0) (type default))
    (uuid 0e9c54c6-ea9d-43e5-a186-809b8d870ebc)
  )
  (wire (pts (xy 209.55 50.8) (xy 209.55 25.4))
    (stroke (width 0) (type default))
    (uuid 0ff1967c-eec6-4e91-a598-b7db8237399f)
  )
  (wire (pts (xy 219.71 29.21) (xy 207.01 29.21))
    (stroke (width 0) (type default))
    (uuid 10191176-11bb-41e3-87d3-13c84ef9adcd)
  )
  (wire (pts (xy 245.11 80.01) (xy 247.65 80.01))
    (stroke (width 0) (type default))
    (uuid 1056ffb2-e674-47df-93ef-96a51fab57e7)
  )
  (wire (pts (xy 62.23 76.2) (xy 62.23 80.01))
    (stroke (width 0) (type default))
    (uuid 117fc8e7-00aa-44d3-9694-4ac9f6b1c268)
  )
  (wire (pts (xy 219.71 76.2) (xy 219.71 80.01))
    (stroke (width 0) (type default))
    (uuid 122cc175-ab7b-482c-964b-24dc1e31fb34)
  )
  (wire (pts (xy 252.73 57.15) (xy 252.73 58.42))
    (stroke (width 0) (type default))
    (uuid 16bed379-3777-43a8-9588-f8376e8fa15a)
  )
  (wire (pts (xy 194.31 76.2) (xy 194.31 80.01))
    (stroke (width 0) (type default))
    (uuid 19932dd0-12c9-4476-b4fe-e5163e1bc4e8)
  )
  (wire (pts (xy 87.63 25.4) (xy 87.63 29.21))
    (stroke (width 0) (type default))
    (uuid 1bca66d7-39ae-4165-a955-c8cf3f42e6ee)
  )
  (wire (pts (xy 52.07 17.78) (xy 52.07 25.4))
    (stroke (width 0) (type default))
    (uuid 1d4379fe-2fea-4d2d-a741-6cbdb3e751f6)
  )
  (wire (pts (xy 52.07 92.71) (xy 52.07 76.2))
    (stroke (width 0) (type default))
    (uuid 1f991a48-07f6-454c-8fad-cbbcfb34faef)
  )
  (wire (pts (xy 209.55 139.7) (xy 209.55 101.6))
    (stroke (width 0) (type default))
    (uuid 20e45dac-6f51-47e3-b389-00605102bf64)
  )
  (wire (pts (xy 26.67 50.8) (xy 26.67 76.2))
    (stroke (width 0) (type default))
    (uuid 250da99f-4633-49e3-a185-73e022ebd3ad)
  )
  (wire (pts (xy 95.25 31.75) (xy 95.25 33.02))
    (stroke (width 0) (type default))
    (uuid 25423107-7ffd-4207-a855-ef7ddbd74fa7)
  )
  (wire (pts (xy 44.45 33.02) (xy 95.25 33.02))
    (stroke (width 0) (type default))
    (uuid 27091aac-0fc8-40f0-bdda-cac7e1f6a35f)
  )
  (wire (pts (xy 95.25 33.02) (xy 123.19 33.02))
    (stroke (width 0) (type default))
    (uuid 2852f19a-9f08-4385-9eb8-165ad21fc3f0)
  )
  (wire (pts (xy 44.45 58.42) (xy 95.25 58.42))
    (stroke (width 0) (type default))
    (uuid 2bec2014-f9d2-40bd-bfad-caa50f1f5b45)
  )
  (wire (pts (xy 179.07 80.01) (xy 179.07 120.65))
    (stroke (width 0) (type default))
    (uuid 2dd6304e-e0f2-4ff2-8d9c-8e3066831baa)
  )
  (wire (pts (xy 148.59 109.22) (xy 201.93 109.22))
    (stroke (width 0) (type default))
    (uuid 2fec93bc-4073-4406-87a4-a50d7b333f12)
  )
  (wire (pts (xy 252.73 82.55) (xy 252.73 83.82))
    (stroke (width 0) (type default))
    (uuid 31c3ef65-05ce-4d5e-9967-772461f10f99)
  )
  (wire (pts (xy 36.83 25.4) (xy 36.83 29.21))
    (stroke (width 0) (type default))
    (uuid 33e1f58f-9a2f-47d4-90bd-552e3b4ab959)
  )
  (wire (pts (xy 219.71 50.8) (xy 219.71 54.61))
    (stroke (width 0) (type default))
    (uuid 342373f7-75fd-4b1e-8f1a-348b3e24affc)
  )
  (wire (pts (xy 77.47 133.35) (xy 77.47 101.6))
    (stroke (width 0) (type default))
    (uuid 40aa2c26-fb9f-4348-9bf2-9983f15ffea2)
  )
  (wire (pts (xy 194.31 105.41) (xy 196.85 105.41))
    (stroke (width 0) (type default))
    (uuid 413cbcfb-55d5-4f24-be8f-c2d6fe86b1cb)
  )
  (wire (pts (xy 270.51 80.01) (xy 257.81 80.01))
    (stroke (width 0) (type default))
    (uuid 41c501f2-7b1f-4126-a3fb-f2e52c27984a)
  )
  (wire (pts (xy 260.35 50.8) (xy 260.35 76.2))
    (stroke (width 0) (type default))
    (uuid 425f626f-0398-4065-9c5c-e6d943347288)
  )
  (wire (pts (xy 194.31 50.8) (xy 194.31 54.61))
    (stroke (width 0) (type default))
    (uuid 460d249e-ab9d-40b7-92ba-b797f95f670b)
  )
  (wire (pts (xy 194.31 54.61) (xy 196.85 54.61))
    (stroke (width 0) (type default))
    (uuid 476ed60e-115f-4231-8f70-1ab6cff39fe4)
  )
  (wire (pts (xy 245.11 76.2) (xy 245.11 80.01))
    (stroke (width 0) (type default))
    (uuid 4a2b2eb0-58b0-4697-88ef-13d95d3f8f41)
  )
  (wire (pts (xy 245.11 25.4) (xy 245.11 29.21))
    (stroke (width 0) (type default))
    (uuid 4c05d4e7-d29d-4548-a6a0-3e315e9453a0)
  )
  (wire (pts (xy 184.15 127) (xy 184.15 101.6))
    (stroke (width 0) (type default))
    (uuid 4d883ce1-d2a3-4791-9646-581e085c2402)
  )
  (wire (pts (xy 95.25 57.15) (xy 95.25 58.42))
    (stroke (width 0) (type default))
    (uuid 4df2d125-5744-4283-bb3b-7d4580106718)
  )
  (wire (pts (xy 77.47 92.71) (xy 52.07 92.71))
    (stroke (width 0) (type default))
    (uuid 4e98b031-7453-4c7f-94b0-38a2e272d569)
  )
  (wire (pts (xy 62.23 29.21) (xy 49.53 29.21))
    (stroke (width 0) (type default))
    (uuid 4f117583-0e32-4cd6-af2e-46cbf296ec6b)
  )
  (wire (pts (xy 201.93 58.42) (xy 252.73 58.42))
    (stroke (width 0) (type default))
    (uuid 5450f01d-dd7d-4c05-a14a-d93764b37931)
  )
  (wire (pts (xy 270.51 50.8) (xy 270.51 54.61))
    (stroke (width 0) (type default))
    (uuid 57526013-3985-446f-89f2-aed7cd7b543c)
  )
  (wire (pts (xy 62.23 25.4) (xy 62.23 29.21))
    (stroke (width 0) (type default))
    (uuid 581608c6-491a-424b-998c-09126375404b)
  )
  (wire (pts (xy 219.71 80.01) (xy 207.01 80.01))
    (stroke (width 0) (type default))
    (uuid 59634540-bc31-49d2-b102-1af324eb506d)
  )
  (wire (pts (xy 87.63 50.8) (xy 87.63 54.61))
    (stroke (width 0) (type default))
    (uuid 59a802bc-8dfd-489e-b0da-2b65830669dc)
  )
  (wire (pts (xy 44.45 83.82) (xy 95.25 83.82))
    (stroke (width 0) (type default))
    (uuid 59f2708d-8036-40f2-8eaa-13b7c0d499a8)
  )
  (wire (pts (xy 77.47 50.8) (xy 77.47 76.2))
    (stroke (width 0) (type default))
    (uuid 5aa64d83-3170-4a0e-bd3b-68664d5f4142)
  )
  (wire (pts (xy 44.45 58.42) (xy 44.45 57.15))
    (stroke (width 0) (type default))
    (uuid 5ae28f1d-03c2-4417-b0c5-0417f0e4cd9a)
  )
  (wire (pts (xy 260.35 92.71) (xy 260.35 76.2))
    (stroke (width 0) (type default))
    (uuid 5c62b780-11c8-45db-9304-3881eb84511e)
  )
  (wire (pts (xy 252.73 31.75) (xy 252.73 33.02))
    (stroke (width 0) (type default))
    (uuid 5daf3503-c0bf-4f3b-8e2c-71e61dbc50d9)
  )
  (wire (pts (xy 194.31 101.6) (xy 194.31 105.41))
    (stroke (width 0) (type default))
    (uuid 5e8cff30-3929-49ed-87f3-75a83c2f0427)
  )
  (wire (pts (xy 113.03 80.01) (xy 100.33 80.01))
    (stroke (width 0) (type default))
    (uuid 5ee8d49e-6f9f-4c98-bd79-50101288de80)
  )
  (wire (pts (xy 95.25 83.82) (xy 123.19 83.82))
    (stroke (width 0) (type default))
    (uuid 61c2a720-f070-472a-a27b-4c7c2839bdc5)
  )
  (wire (pts (xy 270.51 25.4) (xy 270.51 29.21))
    (stroke (width 0) (type default))
    (uuid 61fc4d2f-d092-4d6b-a72a-7e718007671c)
  )
  (wire (pts (xy 36.83 50.8) (xy 36.83 54.61))
    (stroke (width 0) (type default))
    (uuid 648f930d-b775-467c-ae95-dcd2832c574c)
  )
  (wire (pts (xy 113.03 25.4) (xy 113.03 29.21))
    (stroke (width 0) (type default))
    (uuid 6520d463-cf60-43ed-9aab-b0ee93748d0d)
  )
  (wire (pts (xy 102.87 76.2) (xy 102.87 50.8))
    (stroke (width 0) (type default))
    (uuid 65a43b10-d0ce-4f6c-958b-82a2e957e591)
  )
  (wire (pts (xy 87.63 29.21) (xy 90.17 29.21))
    (stroke (width 0) (type default))
    (uuid 6600487f-67a7-4045-b09a-38165e24209b)
  )
  (wire (pts (xy 113.03 76.2) (xy 113.03 80.01))
    (stroke (width 0) (type default))
    (uuid 6691aa5a-920e-4add-bbe3-df7577b3ca95)
  )
  (wire (pts (xy 62.23 50.8) (xy 62.23 54.61))
    (stroke (width 0) (type default))
    (uuid 67002ba7-63cb-4651-a370-9cb7ff0cfebc)
  )
  (wire (pts (xy 184.15 80.01) (xy 184.15 76.2))
    (stroke (width 0) (type default))
    (uuid 672650a3-d8a9-4eea-a4d9-5dc2d25d3dbf)
  )
  (wire (pts (xy 44.45 83.82) (xy 44.45 82.55))
    (stroke (width 0) (type default))
    (uuid 680548a7-273d-4668-945d-7723458137f2)
  )
  (wire (pts (xy 95.25 107.95) (xy 95.25 109.22))
    (stroke (width 0) (type default))
    (uuid 68c96d3b-848c-4e89-9aba-2c284176e75b)
  )
  (wire (pts (xy 102.87 17.78) (xy 102.87 25.4))
    (stroke (width 0) (type default))
    (uuid 694d8b8f-7e03-40fb-9d46-692f3c32615b)
  )
  (wire (pts (xy 219.71 25.4) (xy 219.71 29.21))
    (stroke (width 0) (type default))
    (uuid 6ca5817f-9080-4c0a-a7f7-b89b0f56aa5c)
  )
  (wire (pts (xy 207.01 105.41) (xy 219.71 105.41))
    (stroke (width 0) (type default))
    (uuid 6d30813c-a095-4cf1-98b1-82c92047151a)
  )
  (wire (pts (xy 102.87 101.6) (xy 102.87 76.2))
    (stroke (width 0) (type default))
    (uuid 6e768171-2a94-465b-a079-b040b115ad61)
  )
  (wire (pts (xy 209.55 101.6) (xy 209.55 92.71))
    (stroke (width 0) (type default))
    (uuid 6f1d87c4-cd47-4fdb-bd8d-790920bcf514)
  )
  (wire (pts (xy 36.83 76.2) (xy 36.83 80.01))
    (stroke (width 0) (type default))
    (uuid 70357dac-3cf4-4cbc-9813-6b37fc157543)
  )
  (wire (pts (xy 270.51 29.21) (xy 257.81 29.21))
    (stroke (width 0) (type default))
    (uuid 77b0791f-a391-496a-8645-bdb2ed44fb18)
  )
  (wire (pts (xy 201.93 109.22) (xy 201.93 107.95))
    (stroke (width 0) (type default))
    (uuid 7a5b9fbb-57f7-41b5-8a29-4a1b1af818a3)
  )
  (wire (pts (xy 87.63 80.01) (xy 90.17 80.01))
    (stroke (width 0) (type default))
    (uuid 7a88b463-e557-4707-9c78-00e945903c6f)
  )
  (wire (pts (xy 101.6 88.9) (xy 101.6 127))
    (stroke (width 0) (type default))
    (uuid 8216def1-fc72-4d77-be27-c6acdd4d8ec3)
  )
  (wire (pts (xy 173.99 58.42) (xy 201.93 58.42))
    (stroke (width 0) (type default))
    (uuid 8520065c-22a7-4488-be86-136f92d20df9)
  )
  (wire (pts (xy 184.15 50.8) (xy 184.15 76.2))
    (stroke (width 0) (type default))
    (uuid 85d4bea9-daf2-41b1-9ed3-ee63c0a05aa9)
  )
  (wire (pts (xy 209.55 76.2) (xy 209.55 50.8))
    (stroke (width 0) (type default))
    (uuid 86d25bc3-4d9c-422f-aa35-2d92f84747a4)
  )
  (wire (pts (xy 87.63 105.41) (xy 90.17 105.41))
    (stroke (width 0) (type default))
    (uuid 896350a7-df71-4065-abf2-54975dbcdfea)
  )
  (wire (pts (xy 260.35 25.4) (xy 260.35 50.8))
    (stroke (width 0) (type default))
    (uuid 8a106e56-33ff-41b3-a83d-a5e0e49a6c1e)
  )
  (wire (pts (xy 201.93 33.02) (xy 201.93 31.75))
    (stroke (width 0) (type default))
    (uuid 907dc330-3b5e-44b4-9873-25b262059cc8)
  )
  (wire (pts (xy 102.87 120.65) (xy 102.87 101.6))
    (stroke (width 0) (type default))
    (uuid 92a1dc14-ef1b-494d-90d8-3336b926f18d)
  )
  (wire (pts (xy 234.95 133.35) (xy 234.95 76.2))
    (stroke (width 0) (type default))
    (uuid 92abed41-c5b1-4ae5-9503-88ef12e4229c)
  )
  (wire (pts (xy 62.23 54.61) (xy 49.53 54.61))
    (stroke (width 0) (type default))
    (uuid 933d1dce-a813-4fdf-b2c3-6431f481fb06)
  )
  (wire (pts (xy 26.67 76.2) (xy 26.67 139.7))
    (stroke (width 0) (type default))
    (uuid 969813f8-f1bf-47e0-8967-406e924b74c3)
  )
  (wire (pts (xy 62.23 80.01) (xy 49.53 80.01))
    (stroke (width 0) (type default))
    (uuid 96e0e423-3850-42ae-9401-3387050ef38e)
  )
  (wire (pts (xy 36.83 80.01) (xy 39.37 80.01))
    (stroke (width 0) (type default))
    (uuid 987ceae0-2eae-4c44-9247-6b0d08eb525f)
  )
  (wire (pts (xy 194.31 80.01) (xy 196.85 80.01))
    (stroke (width 0) (type default))
    (uuid 994ec603-737a-4322-8799-52473fc53b27)
  )
  (wire (pts (xy 95.25 58.42) (xy 123.19 58.42))
    (stroke (width 0) (type default))
    (uuid 9c022725-8420-4a45-8776-20d750218918)
  )
  (wire (pts (xy 219.71 101.6) (xy 219.71 105.41))
    (stroke (width 0) (type default))
    (uuid 9c60ddd2-2dea-40be-917b-b19910fb91e5)
  )
  (wire (pts (xy 194.31 25.4) (xy 194.31 29.21))
    (stroke (width 0) (type default))
    (uuid 9e7f392e-bf67-485b-b1bf-d4a166a5dad4)
  )
  (wire (pts (xy 102.87 50.8) (xy 102.87 25.4))
    (stroke (width 0) (type default))
    (uuid 9f858060-7d1a-4071-bc3c-239ac6ff5fd3)
  )
  (wire (pts (xy 270.51 54.61) (xy 257.81 54.61))
    (stroke (width 0) (type default))
    (uuid a1e8a09a-8805-48f7-b55c-c5d0d814b4ad)
  )
  (wire (pts (xy 77.47 25.4) (xy 77.47 50.8))
    (stroke (width 0) (type default))
    (uuid a301d2fd-ebb4-41e1-ab6a-c158a9a5aa31)
  )
  (wire (pts (xy 184.15 25.4) (xy 184.15 50.8))
    (stroke (width 0) (type default))
    (uuid a708013f-97fa-4f26-ba40-3cff05d60ff4)
  )
  (wire (pts (xy 101.6 127) (xy 184.15 127))
    (stroke (width 0) (type default))
    (uuid ac7639a6-692b-404f-97c8-600daf2da910)
  )
  (wire (pts (xy 270.51 76.2) (xy 270.51 80.01))
    (stroke (width 0) (type default))
    (uuid adc2eaa7-a514-424f-be87-9bf62d086d7c)
  )
  (wire (pts (xy 113.03 50.8) (xy 113.03 54.61))
    (stroke (width 0) (type default))
    (uuid b0891045-1aeb-473c-9354-639239b591e1)
  )
  (wire (pts (xy 36.83 54.61) (xy 39.37 54.61))
    (stroke (width 0) (type default))
    (uuid b0c82b7e-61b3-42ee-9822-98af97cfb9b3)
  )
  (wire (pts (xy 184.15 101.6) (xy 184.15 88.9))
    (stroke (width 0) (type default))
    (uuid b2da17a2-eedf-4c32-9b96-fac3e5601759)
  )
  (wire (pts (xy 201.93 83.82) (xy 201.93 82.55))
    (stroke (width 0) (type default))
    (uuid b5cf2d8b-21f2-4bb9-aa7e-9f27fd3e0706)
  )
  (wire (pts (xy 100.33 105.41) (xy 113.03 105.41))
    (stroke (width 0) (type default))
    (uuid b67979fe-01b3-4357-83b0-4f23829e086b)
  )
  (wire (pts (xy 77.47 101.6) (xy 77.47 92.71))
    (stroke (width 0) (type default))
    (uuid b693bcbd-ac3c-4a03-9a19-7cfece9d1be6)
  )
  (wire (pts (xy 245.11 50.8) (xy 245.11 54.61))
    (stroke (width 0) (type default))
    (uuid b6e3b8a0-351f-4065-9f2a-e6e7dc7a5cdd)
  )
  (wire (pts (xy 234.95 50.8) (xy 234.95 25.4))
    (stroke (width 0) (type default))
    (uuid bb97154d-f3af-4041-9def-9cc56f280053)
  )
  (wire (pts (xy 201.93 33.02) (xy 252.73 33.02))
    (stroke (width 0) (type default))
    (uuid bce91875-a41f-4337-aa04-488046c7a09c)
  )
  (wire (pts (xy 26.67 139.7) (xy 209.55 139.7))
    (stroke (width 0) (type default))
    (uuid c24eae54-8fcc-4920-8afa-775e4e656ede)
  )
  (wire (pts (xy 44.45 33.02) (xy 44.45 31.75))
    (stroke (width 0) (type default))
    (uuid c46e08f7-05ef-42d7-9f0c-4a6d122cb754)
  )
  (wire (pts (xy 113.03 54.61) (xy 100.33 54.61))
    (stroke (width 0) (type default))
    (uuid c4c67e2f-ba49-42a5-9448-41c4bc656ecf)
  )
  (wire (pts (xy 36.83 29.21) (xy 39.37 29.21))
    (stroke (width 0) (type default))
    (uuid c692fd83-bf35-4407-a162-211f2cb05068)
  )
  (wire (pts (xy 26.67 25.4) (xy 26.67 50.8))
    (stroke (width 0) (type default))
    (uuid c6b34bac-1e20-4ee7-ad96-5edc5d96d7c8)
  )
  (wire (pts (xy 148.59 109.22) (xy 148.59 101.6))
    (stroke (width 0) (type default))
    (uuid cc58d4af-5597-44be-916b-d9ce2bc5165c)
  )
  (wire (pts (xy 173.99 83.82) (xy 201.93 83.82))
    (stroke (width 0) (type default))
    (uuid cd9e8e7d-f87a-4488-8e13-c86c47ebfd63)
  )
  (wire (pts (xy 194.31 29.21) (xy 196.85 29.21))
    (stroke (width 0) (type default))
    (uuid ce39e88a-bf88-4813-bec5-937c46333e4d)
  )
  (wire (pts (xy 234.95 76.2) (xy 234.95 50.8))
    (stroke (width 0) (type default))
    (uuid cfc61326-9b7c-48bb-92c9-7b4302411e67)
  )
  (wire (pts (xy 52.07 50.8) (xy 52.07 25.4))
    (stroke (width 0) (type default))
    (uuid d2f48007-e505-4ab5-a1d7-61e5466dc780)
  )
  (wire (pts (xy 87.63 101.6) (xy 87.63 105.41))
    (stroke (width 0) (type default))
    (uuid d3ada917-0fcb-4aff-be26-bfb04c157199)
  )
  (wire (pts (xy 77.47 17.78) (xy 77.47 25.4))
    (stroke (width 0) (type default))
    (uuid d5366ff2-ec41-4463-8974-2ba160ddae4d)
  )
  (wire (pts (xy 113.03 29.21) (xy 100.33 29.21))
    (stroke (width 0) (type default))
    (uuid d6d0ba89-7b74-4c0e-99ac-567574aca2da)
  )
  (wire (pts (xy 77.47 88.9) (xy 101.6 88.9))
    (stroke (width 0) (type default))
    (uuid d7c34468-9654-435f-99e1-494abb4009e1)
  )
  (wire (pts (xy 209.55 88.9) (xy 209.55 76.2))
    (stroke (width 0) (type default))
    (uuid d9968faf-91e5-4a50-99bc-cd2c23490d95)
  )
  (wire (pts (xy 245.11 29.21) (xy 247.65 29.21))
    (stroke (width 0) (type default))
    (uuid daf34def-a2c8-4681-83c4-91f5ce8f4877)
  )
  (wire (pts (xy 95.25 82.55) (xy 95.25 83.82))
    (stroke (width 0) (type default))
    (uuid de1baa55-45f3-47a9-963c-c13fc85c893c)
  )
  (wire (pts (xy 77.47 133.35) (xy 234.95 133.35))
    (stroke (width 0) (type default))
    (uuid df14776e-e2d2-4b10-8c36-e69a6c61a262)
  )
  (wire (pts (xy 87.63 76.2) (xy 87.63 80.01))
    (stroke (width 0) (type default))
    (uuid e12057a3-abd4-44c4-aa33-c409d90a794b)
  )
  (wire (pts (xy 77.47 76.2) (xy 77.47 88.9))
    (stroke (width 0) (type default))
    (uuid e3d30076-8b9a-4f87-a1e2-28aea078dda7)
  )
  (wire (pts (xy 219.71 54.61) (xy 207.01 54.61))
    (stroke (width 0) (type default))
    (uuid e497fbf6-5d15-400c-84ae-add57e8de84f)
  )
  (wire (pts (xy 113.03 101.6) (xy 113.03 105.41))
    (stroke (width 0) (type default))
    (uuid e71a0555-b32f-42ac-8742-a92cb00fb1b6)
  )
  (wire (pts (xy 201.93 83.82) (xy 252.73 83.82))
    (stroke (width 0) (type default))
    (uuid e71bfb5c-5086-46b5-9e34-117f3193224d)
  )
  (wire (pts (xy 95.25 109.22) (xy 148.59 109.22))
    (stroke (width 0) (type default))
    (uuid ec74e97e-c789-45af-b7a7-d7608c2038b7)
  )
  (wire (pts (xy 87.63 54.61) (xy 90.17 54.61))
    (stroke (width 0) (type default))
    (uuid fb3c3152-ca8b-4f12-8fec-2df4ed111652)
  )
  (wire (pts (xy 179.07 80.01) (xy 184.15 80.01))
    (stroke (width 0) (type default))
    (uuid fec12a1b-51a9-4a3d-b227-8012a1eee44a)
  )
  (wire (pts (xy 245.11 54.61) (xy 247.65 54.61))
    (stroke (width 0) (type default))
    (uuid ff453398-a5f7-48ba-9160-ede8ed694882)
  )
  (wire (pts (xy 173.99 33.02) (xy 201.93 33.02))
    (stroke (width 0) (type default))
    (uuid ff79122f-f637-4c66-9245-94d6bbd8798f)
  )

  (global_label "r7" (shape input) (at 173.99 33.02 180) (fields_autoplaced)
    (effects (font (size 1.27 1.27)) (justify right))
    (uuid 0d357589-10fe-4823-a3da-87a05f6204e8)
    (property "Intersheetrefs" "${INTERSHEET_REFS}" (at 169.0885 33.02 0)
      (effects (font (size 1.27 1.27)) (justify right) hide)
    )
  )
  (global_label "r2" (shape input) (at 123.19 58.42 0) (fields_autoplaced)
    (effects (font (size 1.27 1.27)) (justify left))
    (uuid 0f2eda5d-f2ae-4bcc-98bc-6a9115053970)
    (property "Intersheetrefs" "${INTERSHEET_REFS}" (at 128.0915 58.42 0)
      (effects (font (size 1.27 1.27)) (justify left) hide)
    )
  )
  (global_label "c1" (shape input) (at 26.67 17.78 90) (fields_autoplaced)
    (effects (font (size 1.27 1.27)) (justify left))
    (uuid 181f7ae8-8967-4966-a899-18a0ab3cd5bf)
    (property "Intersheetrefs" "${INTERSHEET_REFS}" (at 26.67 12.5761 90)
      (effects (font (size 1.27 1.27)) (justify left) hide)
    )
  )
  (global_label "r3" (shape input) (at 135.89 50.8 180) (fields_autoplaced)
    (effects (font (size 1.27 1.27)) (justify right))
    (uuid 1a86277d-931f-42aa-85ad-36fe605aff08)
    (property "Intersheetrefs" "${INTERSHEET_REFS}" (at 130.9885 50.8 0)
      (effects (font (size 1.27 1.27)) (justify right) hide)
    )
  )
  (global_label "r2" (shape input) (at 135.89 48.26 180) (fields_autoplaced)
    (effects (font (size 1.27 1.27)) (justify right))
    (uuid 263be97d-064e-4841-bc97-13ed9fc9127d)
    (property "Intersheetrefs" "${INTERSHEET_REFS}" (at 130.9885 48.26 0)
      (effects (font (size 1.27 1.27)) (justify right) hide)
    )
  )
  (global_label "r4" (shape input) (at 161.29 50.8 0) (fields_autoplaced)
    (effects (font (size 1.27 1.27)) (justify left))
    (uuid 271b4365-8312-4984-aba8-334f1caa7703)
    (property "Intersheetrefs" "${INTERSHEET_REFS}" (at 166.1915 50.8 0)
      (effects (font (size 1.27 1.27)) (justify left) hide)
    )
  )
  (global_label "r5" (shape input) (at 173.99 83.82 180) (fields_autoplaced)
    (effects (font (size 1.27 1.27)) (justify right))
    (uuid 2bf022c5-e266-4fb6-9296-b66e094f3bb4)
    (property "Intersheetrefs" "${INTERSHEET_REFS}" (at 169.0885 83.82 0)
      (effects (font (size 1.27 1.27)) (justify right) hide)
    )
  )
  (global_label "c3" (shape input) (at 77.47 17.78 90) (fields_autoplaced)
    (effects (font (size 1.27 1.27)) (justify left))
    (uuid 30e5b095-cca7-427d-853b-c837b21347ee)
    (property "Intersheetrefs" "${INTERSHEET_REFS}" (at 77.47 12.5761 90)
      (effects (font (size 1.27 1.27)) (justify left) hide)
    )
  )
  (global_label "c3" (shape input) (at 135.89 40.64 180) (fields_autoplaced)
    (effects (font (size 1.27 1.27)) (justify right))
    (uuid 3557442e-9e0c-455d-823a-54ca710f9b30)
    (property "Intersheetrefs" "${INTERSHEET_REFS}" (at 130.6861 40.64 0)
      (effects (font (size 1.27 1.27)) (justify right) hide)
    )
  )
  (global_label "r7" (shape input) (at 161.29 43.18 0) (fields_autoplaced)
    (effects (font (size 1.27 1.27)) (justify left))
    (uuid 4735549e-43e2-4396-980f-0de190d9dab0)
    (property "Intersheetrefs" "${INTERSHEET_REFS}" (at 166.1915 43.18 0)
      (effects (font (size 1.27 1.27)) (justify left) hide)
    )
  )
  (global_label "c4" (shape input) (at 135.89 43.18 180) (fields_autoplaced)
    (effects (font (size 1.27 1.27)) (justify right))
    (uuid 5884f000-2924-417a-9d61-f6cb8bb473fd)
    (property "Intersheetrefs" "${INTERSHEET_REFS}" (at 130.6861 43.18 0)
      (effects (font (size 1.27 1.27)) (justify right) hide)
    )
  )
  (global_label "r6" (shape input) (at 173.99 58.42 180) (fields_autoplaced)
    (effects (font (size 1.27 1.27)) (justify right))
    (uuid 627ed25d-511d-4c66-9f13-f495b4a9b935)
    (property "Intersheetrefs" "${INTERSHEET_REFS}" (at 169.0885 58.42 0)
      (effects (font (size 1.27 1.27)) (justify right) hide)
    )
  )
  (global_label "r5" (shape input) (at 161.29 48.26 0) (fields_autoplaced)
    (effects (font (size 1.27 1.27)) (justify left))
    (uuid 84dad94e-274d-4d45-b14a-4314b0a0ae6d)
    (property "Intersheetrefs" "${INTERSHEET_REFS}" (at 166.1915 48.26 0)
      (effects (font (size 1.27 1.27)) (justify left) hide)
    )
  )
  (global_label "r1" (shape input) (at 123.19 33.02 0) (fields_autoplaced)
    (effects (font (size 1.27 1.27)) (justify left))
    (uuid 96647ad7-2dc1-4335-8203-9577acfa2c92)
    (property "Intersheetrefs" "${INTERSHEET_REFS}" (at 128.0915 33.02 0)
      (effects (font (size 1.27 1.27)) (justify left) hide)
    )
  )
  (global_label "c4" (shape input) (at 102.87 17.78 90) (fields_autoplaced)
    (effects (font (size 1.27 1.27)) (justify left))
    (uuid a5c9be59-2bbc-44b5-9411-02dfeef106d3)
    (property "Intersheetrefs" "${INTERSHEET_REFS}" (at 102.87 12.5761 90)
      (effects (font (size 1.27 1.27)) (justify left) hide)
    )
  )
  (global_label "c2" (shape input) (at 135.89 38.1 180) (fields_autoplaced)
    (effects (font (size 1.27 1.27)) (justify right))
    (uuid a7bc3348-cf96-4220-a6c3-2c7091aa6282)
    (property "Intersheetrefs" "${INTERSHEET_REFS}" (at 130.6861 38.1 0)
      (effects (font (size 1.27 1.27)) (justify right) hide)
    )
  )
  (global_label "c1" (shape input) (at 135.89 35.56 180) (fields_autoplaced)
    (effects (font (size 1.27 1.27)) (justify right))
    (uuid a82e304a-5670-4fec-935f-e576ba3d5d30)
    (property "Intersheetrefs" "${INTERSHEET_REFS}" (at 130.6861 35.56 0)
      (effects (font (size 1.27 1.27)) (justify right) hide)
    )
  )
  (global_label "gnd" (shape input) (at 161.29 38.1 0) (fields_autoplaced)
    (effects (font (size 1.27 1.27)) (justify left))
    (uuid b5a8b9ab-d4eb-4daa-b349-b7aa2cdd1819)
    (property "Intersheetrefs" "${INTERSHEET_REFS}" (at 167.6428 38.1 0)
      (effects (font (size 1.27 1.27)) (justify left) hide)
    )
  )
  (global_label "c2" (shape input) (at 52.07 17.78 90) (fields_autoplaced)
    (effects (font (size 1.27 1.27)) (justify left))
    (uuid c962bb90-809e-4185-83fa-5026b48d261f)
    (property "Intersheetrefs" "${INTERSHEET_REFS}" (at 52.07 12.5761 90)
      (effects (font (size 1.27 1.27)) (justify left) hide)
    )
  )
  (global_label "r6" (shape input) (at 161.29 45.72 0) (fields_autoplaced)
    (effects (font (size 1.27 1.27)) (justify left))
    (uuid d17c7a40-bce3-4845-937e-6a6b81027684)
    (property "Intersheetrefs" "${INTERSHEET_REFS}" (at 166.1915 45.72 0)
      (effects (font (size 1.27 1.27)) (justify left) hide)
    )
  )
  (global_label "r3" (shape input) (at 123.19 83.82 0) (fields_autoplaced)
    (effects (font (size 1.27 1.27)) (justify left))
    (uuid dada260f-ff32-453e-ab72-097398dc9e08)
    (property "Intersheetrefs" "${INTERSHEET_REFS}" (at 128.0915 83.82 0)
      (effects (font (size 1.27 1.27)) (justify left) hide)
    )
  )
  (global_label "r1" (shape input) (at 135.89 45.72 180) (fields_autoplaced)
    (effects (font (size 1.27 1.27)) (justify right))
    (uuid dc4cad8c-7630-41bb-b23c-0894dead2633)
    (property "Intersheetrefs" "${INTERSHEET_REFS}" (at 130.9885 45.72 0)
      (effects (font (size 1.27 1.27)) (justify right) hide)
    )
  )
  (global_label "r4" (shape input) (at 152.4 101.6 0) (fields_autoplaced)
    (effects (font (size 1.27 1.27)) (justify left))
    (uuid fb6e85ed-0c9f-4e38-bb0f-4e83f4d7caac)
    (property "Intersheetrefs" "${INTERSHEET_REFS}" (at 157.3015 101.6 0)
      (effects (font (size 1.27 1.27)) (justify left) hide)
    )
  )

  (symbol (lib_id "Switch:SW_Push") (at 82.55 50.8 0) (unit 1)
    (in_bom yes) (on_board yes) (dnp no) (fields_autoplaced)
    (uuid 01866c75-f07c-4ce8-8a38-5344f5c8c31e)
    (property "Reference" "SW7" (at 82.55 44.45 0)
      (effects (font (size 1.27 1.27)))
    )
    (property "Value" "SW_Push" (at 82.55 46.99 0)
      (effects (font (size 1.27 1.27)))
    )
    (property "Footprint" "BeiBob:SW_Kailh-PG1350-1u-NoLED" (at 82.55 45.72 0)
      (effects (font (size 1.27 1.27)) hide)
    )
    (property "Datasheet" "~" (at 82.55 45.72 0)
      (effects (font (size 1.27 1.27)) hide)
    )
    (pin "1" (uuid b81cc706-6a8f-4a18-8598-a98999ed3acb))
    (pin "2" (uuid df2e3444-4ffd-4ec5-a36a-e5cb5a6f9e78))
    (instances
      (project "zilpzalp_minimal_choc"
        (path "/5ecac6d8-0277-4350-80c1-88a8cf49a228"
          (reference "SW7") (unit 1)
        )
      )
    )
  )

  (symbol (lib_id "Switch:SW_Push") (at 240.03 50.8 0) (unit 1)
    (in_bom yes) (on_board yes) (dnp no) (fields_autoplaced)
    (uuid 090b5126-010b-4504-a054-9557c8e1da15)
    (property "Reference" "SW23" (at 240.03 44.45 0)
      (effects (font (size 1.27 1.27)))
    )
    (property "Value" "SW_Push" (at 240.03 46.99 0)
      (effects (font (size 1.27 1.27)))
    )
    (property "Footprint" "BeiBob:SW_Kailh-PG1350-1u-NoLED" (at 240.03 45.72 0)
      (effects (font (size 1.27 1.27)) hide)
    )
    (property "Datasheet" "~" (at 240.03 45.72 0)
      (effects (font (size 1.27 1.27)) hide)
    )
    (pin "1" (uuid beb3af6b-9bcd-4cd8-b35a-7629550d3c12))
    (pin "2" (uuid 2f9d01e3-172b-4fd5-ba62-3167fe403e8b))
    (instances
      (project "zilpzalp_minimal_choc"
        (path "/5ecac6d8-0277-4350-80c1-88a8cf49a228"
          (reference "SW23") (unit 1)
        )
      )
    )
  )

  (symbol (lib_id "Switch:SW_Push") (at 265.43 25.4 0) (unit 1)
    (in_bom yes) (on_board yes) (dnp no) (fields_autoplaced)
    (uuid 111463ea-9878-4869-9c97-63aec95b384c)
    (property "Reference" "SW28" (at 265.43 19.05 0)
      (effects (font (size 1.27 1.27)))
    )
    (property "Value" "SW_Push" (at 265.43 21.59 0)
      (effects (font (size 1.27 1.27)))
    )
    (property "Footprint" "BeiBob:SW_Kailh-PG1350-1u-NoLED" (at 265.43 20.32 0)
      (effects (font (size 1.27 1.27)) hide)
    )
    (property "Datasheet" "~" (at 265.43 20.32 0)
      (effects (font (size 1.27 1.27)) hide)
    )
    (pin "1" (uuid 785f4efd-2f83-4f2a-9c8c-fcd9bc63efc4))
    (pin "2" (uuid ffe7b067-4a67-4ff1-9e06-6f23d911003a))
    (instances
      (project "zilpzalp_minimal_choc"
        (path "/5ecac6d8-0277-4350-80c1-88a8cf49a228"
          (reference "SW28") (unit 1)
        )
      )
    )
  )

  (symbol (lib_id "Switch:SW_Push") (at 189.23 25.4 0) (unit 1)
    (in_bom yes) (on_board yes) (dnp no) (fields_autoplaced)
    (uuid 1fed45fd-68d3-4738-9369-4e6b27e865a8)
    (property "Reference" "SW25" (at 189.23 19.05 0)
      (effects (font (size 1.27 1.27)))
    )
    (property "Value" "SW_Push" (at 189.23 21.59 0)
      (effects (font (size 1.27 1.27)))
    )
    (property "Footprint" "BeiBob:SW_Kailh-PG1350-1u-NoLED" (at 189.23 20.32 0)
      (effects (font (size 1.27 1.27)) hide)
    )
    (property "Datasheet" "~" (at 189.23 20.32 0)
      (effects (font (size 1.27 1.27)) hide)
    )
    (pin "1" (uuid b6bbae84-6e10-4639-bc83-c73d6f49ace0))
    (pin "2" (uuid 5e48d3cd-a131-4385-8df2-1cace6fdee70))
    (instances
      (project "zilpzalp_minimal_choc"
        (path "/5ecac6d8-0277-4350-80c1-88a8cf49a228"
          (reference "SW25") (unit 1)
        )
      )
    )
  )

  (symbol (lib_id "Switch:SW_Push") (at 214.63 50.8 0) (unit 1)
    (in_bom yes) (on_board yes) (dnp no) (fields_autoplaced)
    (uuid 284ba115-bebc-4a88-8663-eba6a539a7bd)
    (property "Reference" "SW22" (at 214.63 44.45 0)
      (effects (font (size 1.27 1.27)))
    )
    (property "Value" "SW_Push" (at 214.63 46.99 0)
      (effects (font (size 1.27 1.27)))
    )
    (property "Footprint" "BeiBob:SW_Kailh-PG1350-1u-NoLED" (at 214.63 45.72 0)
      (effects (font (size 1.27 1.27)) hide)
    )
    (property "Datasheet" "~" (at 214.63 45.72 0)
      (effects (font (size 1.27 1.27)) hide)
    )
    (pin "1" (uuid a181127b-7eed-4a61-a9fe-cd345b3b3146))
    (pin "2" (uuid dddc3e9c-a9e5-4671-bdd3-d348f206cd10))
    (instances
      (project "zilpzalp_minimal_choc"
        (path "/5ecac6d8-0277-4350-80c1-88a8cf49a228"
          (reference "SW22") (unit 1)
        )
      )
    )
  )

  (symbol (lib_id "MarBastLib-Various:BAV70_Small") (at 44.45 29.21 0) (mirror y) (unit 1)
    (in_bom yes) (on_board yes) (dnp no)
    (uuid 2dbe6504-a025-4182-96bb-423cb7ec7d36)
    (property "Reference" "D01" (at 44.45 24.13 0)
      (effects (font (size 1.27 1.27)))
    )
    (property "Value" "BAV70_Small" (at 44.45 26.67 0)
      (effects (font (size 1.27 1.27)))
    )
    (property "Footprint" "BeiBob:SOT-23_Handsoldering" (at 41.91 29.21 0)
      (effects (font (size 1.27 1.27)) hide)
    )
    (property "Datasheet" "https://assets.nexperia.com/documents/data-sheet/BAV70_SER.pdf" (at 44.45 29.21 0)
      (effects (font (size 1.27 1.27)) hide)
    )
    (pin "1" (uuid dcdefd3a-f3e1-4c4b-830c-c0cd54c399df))
    (pin "2" (uuid 8f6dda1c-0497-4e26-a6ce-9cfe6e609cc9))
    (pin "3" (uuid 31f335e8-bca3-40c3-b4af-16178539c565))
    (instances
      (project "zilpzalp_minimal_choc"
        (path "/5ecac6d8-0277-4350-80c1-88a8cf49a228"
          (reference "D01") (unit 1)
        )
      )
    )
  )

  (symbol (lib_id "MarBastLib-Various:BAV70_Small") (at 95.25 105.41 0) (mirror y) (unit 1)
    (in_bom yes) (on_board yes) (dnp no)
    (uuid 30a7e99c-8790-4fc2-920c-2581827f2d13)
    (property "Reference" "D07" (at 95.25 100.33 0)
      (effects (font (size 1.27 1.27)))
    )
    (property "Value" "BAV70_Small" (at 95.25 102.87 0)
      (effects (font (size 1.27 1.27)))
    )
    (property "Footprint" "BeiBob:SOT-23_Handsoldering" (at 92.71 105.41 0)
      (effects (font (size 1.27 1.27)) hide)
    )
    (property "Datasheet" "https://assets.nexperia.com/documents/data-sheet/BAV70_SER.pdf" (at 95.25 105.41 0)
      (effects (font (size 1.27 1.27)) hide)
    )
    (pin "1" (uuid dc41f7c9-24c9-4dcc-a784-79eb853f0a09))
    (pin "2" (uuid c73529c5-4c86-4d63-96fc-834e9a7701a4))
    (pin "3" (uuid 277b3107-b35f-489d-8663-ccf33bc5eb56))
    (instances
      (project "zilpzalp_minimal_choc"
        (path "/5ecac6d8-0277-4350-80c1-88a8cf49a228"
          (reference "D07") (unit 1)
        )
      )
    )
  )

  (symbol (lib_id "Switch:SW_Push") (at 189.23 50.8 0) (unit 1)
    (in_bom yes) (on_board yes) (dnp no) (fields_autoplaced)
    (uuid 349590f5-6009-4677-b06a-8b1d4264f8e2)
    (property "Reference" "SW21" (at 189.23 44.45 0)
      (effects (font (size 1.27 1.27)))
    )
    (property "Value" "SW_Push" (at 189.23 46.99 0)
      (effects (font (size 1.27 1.27)))
    )
    (property "Footprint" "BeiBob:SW_Kailh-PG1350-1u-NoLED" (at 189.23 45.72 0)
      (effects (font (size 1.27 1.27)) hide)
    )
    (property "Datasheet" "~" (at 189.23 45.72 0)
      (effects (font (size 1.27 1.27)) hide)
    )
    (pin "1" (uuid 2ec6e495-a20a-4d39-9cbe-68781f45e586))
    (pin "2" (uuid dd2a3dba-5ccc-4277-a2d8-ad2443a43e11))
    (instances
      (project "zilpzalp_minimal_choc"
        (path "/5ecac6d8-0277-4350-80c1-88a8cf49a228"
          (reference "SW21") (unit 1)
        )
      )
    )
  )

  (symbol (lib_id "Kleeb MCU:xiao") (at 148.59 43.18 0) (unit 1)
    (in_bom yes) (on_board yes) (dnp no) (fields_autoplaced)
    (uuid 3899770c-3ed3-4e09-8a1d-d48f6260a6c8)
    (property "Reference" "U1" (at 148.59 57.15 0)
      (effects (font (size 1.27 1.27)))
    )
    (property "Value" "xiao" (at 148.59 59.69 0)
      (effects (font (size 1.27 1.27)))
    )
    (property "Footprint" "Kleeb MCU:xiao-tht" (at 139.7 38.1 0)
      (effects (font (size 1.27 1.27)) hide)
    )
    (property "Datasheet" "" (at 139.7 38.1 0)
      (effects (font (size 1.27 1.27)) hide)
    )
    (pin "1" (uuid c8a2fbe0-0c90-4359-abc5-60c9ec7053cc))
    (pin "10" (uuid a9c9d848-dba4-4718-8194-0b551eb60784))
    (pin "11" (uuid 9e71a4ae-3cfa-4f9d-bf5b-d13081accc67))
    (pin "12" (uuid 0833b7f5-0337-4acf-a92c-c0666f6d8657))
    (pin "13" (uuid 71f772ef-8e0e-46ae-8727-a10f7c8bbe16))
    (pin "14" (uuid cb5a584d-7c62-4bed-8d04-0f03e01ca2e1))
    (pin "15" (uuid 33980a61-9e2b-463f-89a2-a6eb62150d44))
    (pin "16" (uuid cebba144-4faf-45a2-9865-de85d2a7be8d))
    (pin "17" (uuid fb629b4f-1d15-4fb3-b606-a6ac63450d7c))
    (pin "18" (uuid a35953b3-b6c6-4acd-a33c-d2bf1b26e3c7))
    (pin "2" (uuid 8ece2eac-4ec6-4cd6-9a95-cac067fd8198))
    (pin "3" (uuid e1576146-4c0e-4caf-878f-dba5152f6f73))
    (pin "4" (uuid fec77e99-19f1-480d-8000-1531d12229e4))
    (pin "5" (uuid 6d2468d0-91da-412e-832c-7acba6f7096e))
    (pin "6" (uuid 45ce1d7c-f6cd-48b5-9cae-6eb7852f9be9))
    (pin "7" (uuid d437358d-e129-408a-9f9e-3cfb8ea96ae6))
    (pin "8" (uuid a13a7927-6792-44e8-a2ec-b376fee730d7))
    (pin "9" (uuid 39212d7a-db8f-4b07-9c74-6dd2e28e005d))
    (instances
      (project "zilpzalp_minimal_choc"
        (path "/5ecac6d8-0277-4350-80c1-88a8cf49a228"
          (reference "U1") (unit 1)
        )
      )
    )
  )

  (symbol (lib_id "Switch:SW_Push") (at 82.55 76.2 0) (unit 1)
    (in_bom yes) (on_board yes) (dnp no) (fields_autoplaced)
    (uuid 39851dcb-caeb-4ef7-a663-6865ef606b6c)
    (property "Reference" "SW11" (at 82.55 69.85 0)
      (effects (font (size 1.27 1.27)))
    )
    (property "Value" "SW_Push" (at 82.55 72.39 0)
      (effects (font (size 1.27 1.27)))
    )
    (property "Footprint" "BeiBob:SW_Kailh-PG1350-1u-NoLED" (at 82.55 71.12 0)
      (effects (font (size 1.27 1.27)) hide)
    )
    (property "Datasheet" "~" (at 82.55 71.12 0)
      (effects (font (size 1.27 1.27)) hide)
    )
    (pin "1" (uuid 3f7e0e52-cc25-496d-acc6-035e618953cb))
    (pin "2" (uuid c13c76b5-034b-4f77-b5b4-22619faf9ac7))
    (instances
      (project "zilpzalp_minimal_choc"
        (path "/5ecac6d8-0277-4350-80c1-88a8cf49a228"
          (reference "SW11") (unit 1)
        )
      )
    )
  )

  (symbol (lib_id "MarBastLib-Various:BAV70_Small") (at 95.25 54.61 0) (mirror y) (unit 1)
    (in_bom yes) (on_board yes) (dnp no)
    (uuid 3e3482a1-9444-412f-8144-4e3121f62397)
    (property "Reference" "D04" (at 95.25 49.53 0)
      (effects (font (size 1.27 1.27)))
    )
    (property "Value" "BAV70_Small" (at 95.25 52.07 0)
      (effects (font (size 1.27 1.27)))
    )
    (property "Footprint" "BeiBob:SOT-23_Handsoldering" (at 92.71 54.61 0)
      (effects (font (size 1.27 1.27)) hide)
    )
    (property "Datasheet" "https://assets.nexperia.com/documents/data-sheet/BAV70_SER.pdf" (at 95.25 54.61 0)
      (effects (font (size 1.27 1.27)) hide)
    )
    (pin "1" (uuid c0a9a149-9d8e-47de-80f7-64dd6c800380))
    (pin "2" (uuid 98d2d303-9763-4b22-9351-eaa7e7f3b869))
    (pin "3" (uuid 148b649c-d93e-4c59-9eeb-057fb0c5c079))
    (instances
      (project "zilpzalp_minimal_choc"
        (path "/5ecac6d8-0277-4350-80c1-88a8cf49a228"
          (reference "D04") (unit 1)
        )
      )
    )
  )

  (symbol (lib_id "MarBastLib-Various:BAV70_Small") (at 201.93 105.41 0) (mirror y) (unit 1)
    (in_bom yes) (on_board yes) (dnp no)
    (uuid 40e45b85-ed56-4d1c-85fa-bf679ce9eb96)
    (property "Reference" "D08" (at 201.93 100.33 0)
      (effects (font (size 1.27 1.27)))
    )
    (property "Value" "BAV70_Small" (at 201.93 102.87 0)
      (effects (font (size 1.27 1.27)))
    )
    (property "Footprint" "BeiBob:SOT-23_Handsoldering" (at 199.39 105.41 0)
      (effects (font (size 1.27 1.27)) hide)
    )
    (property "Datasheet" "https://assets.nexperia.com/documents/data-sheet/BAV70_SER.pdf" (at 201.93 105.41 0)
      (effects (font (size 1.27 1.27)) hide)
    )
    (pin "1" (uuid bf3cb51f-6f60-4d6a-a8f7-eaf8b83147c7))
    (pin "2" (uuid 4de33d25-fa4f-4f38-9a96-07a113a2737b))
    (pin "3" (uuid 3d99b434-deec-4bdb-87a8-102cd38a40b7))
    (instances
      (project "zilpzalp_minimal_choc"
        (path "/5ecac6d8-0277-4350-80c1-88a8cf49a228"
          (reference "D08") (unit 1)
        )
      )
    )
  )

  (symbol (lib_id "Switch:SW_Push") (at 240.03 76.2 0) (unit 1)
    (in_bom yes) (on_board yes) (dnp no) (fields_autoplaced)
    (uuid 4e38550a-c2e1-44d8-b916-15f8ba9da838)
    (property "Reference" "SW19" (at 240.03 69.85 0)
      (effects (font (size 1.27 1.27)))
    )
    (property "Value" "SW_Push" (at 240.03 72.39 0)
      (effects (font (size 1.27 1.27)))
    )
    (property "Footprint" "BeiBob:SW_Kailh-PG1350-1u-NoLED" (at 240.03 71.12 0)
      (effects (font (size 1.27 1.27)) hide)
    )
    (property "Datasheet" "~" (at 240.03 71.12 0)
      (effects (font (size 1.27 1.27)) hide)
    )
    (pin "1" (uuid 8a01b4c9-d7d1-4f51-b231-bc3fa35616be))
    (pin "2" (uuid 7f7e3315-acca-4f10-9143-cb2db7ff7770))
    (instances
      (project "zilpzalp_minimal_choc"
        (path "/5ecac6d8-0277-4350-80c1-88a8cf49a228"
          (reference "SW19") (unit 1)
        )
      )
    )
  )

  (symbol (lib_id "Switch:SW_Push") (at 31.75 50.8 0) (unit 1)
    (in_bom yes) (on_board yes) (dnp no) (fields_autoplaced)
    (uuid 545af2ce-b988-4987-b817-ff55600c0c4d)
    (property "Reference" "SW5" (at 31.75 44.45 0)
      (effects (font (size 1.27 1.27)))
    )
    (property "Value" "SW_Push" (at 31.75 46.99 0)
      (effects (font (size 1.27 1.27)))
    )
    (property "Footprint" "BeiBob:SW_Kailh-PG1350-1u-NoLED" (at 31.75 45.72 0)
      (effects (font (size 1.27 1.27)) hide)
    )
    (property "Datasheet" "~" (at 31.75 45.72 0)
      (effects (font (size 1.27 1.27)) hide)
    )
    (pin "1" (uuid d3ca83d9-4722-42fd-a756-51d246d2e9c6))
    (pin "2" (uuid 2883a6fd-68e8-406d-95e1-6d6b557afdfe))
    (instances
      (project "zilpzalp_minimal_choc"
        (path "/5ecac6d8-0277-4350-80c1-88a8cf49a228"
          (reference "SW5") (unit 1)
        )
      )
    )
  )

  (symbol (lib_id "Switch:SW_Push") (at 265.43 50.8 0) (unit 1)
    (in_bom yes) (on_board yes) (dnp no) (fields_autoplaced)
    (uuid 5b449b2f-d471-4f4e-9bad-8d8c50eb2972)
    (property "Reference" "SW24" (at 265.43 44.45 0)
      (effects (font (size 1.27 1.27)))
    )
    (property "Value" "SW_Push" (at 265.43 46.99 0)
      (effects (font (size 1.27 1.27)))
    )
    (property "Footprint" "BeiBob:SW_Kailh-PG1350-1u-NoLED" (at 265.43 45.72 0)
      (effects (font (size 1.27 1.27)) hide)
    )
    (property "Datasheet" "~" (at 265.43 45.72 0)
      (effects (font (size 1.27 1.27)) hide)
    )
    (pin "1" (uuid 3ba03f4a-4d8c-4de4-a9fa-94b055e750e7))
    (pin "2" (uuid 5675d186-3d18-4684-94e7-d6d7de5bdd9c))
    (instances
      (project "zilpzalp_minimal_choc"
        (path "/5ecac6d8-0277-4350-80c1-88a8cf49a228"
          (reference "SW24") (unit 1)
        )
      )
    )
  )

  (symbol (lib_id "MarBastLib-Various:BAV70_Small") (at 252.73 54.61 0) (mirror y) (unit 1)
    (in_bom yes) (on_board yes) (dnp no)
    (uuid 6bb3f7ae-5818-40c0-bfa2-9d82d6d5ad21)
    (property "Reference" "D12" (at 252.73 49.53 0)
      (effects (font (size 1.27 1.27)))
    )
    (property "Value" "BAV70_Small" (at 252.73 52.07 0)
      (effects (font (size 1.27 1.27)))
    )
    (property "Footprint" "BeiBob:SOT-23_Handsoldering" (at 250.19 54.61 0)
      (effects (font (size 1.27 1.27)) hide)
    )
    (property "Datasheet" "https://assets.nexperia.com/documents/data-sheet/BAV70_SER.pdf" (at 252.73 54.61 0)
      (effects (font (size 1.27 1.27)) hide)
    )
    (pin "1" (uuid 0e11f1b1-dac7-497b-9bfd-50cc9f24e46f))
    (pin "2" (uuid e64735f3-2cee-4ebf-9d0f-973168078501))
    (pin "3" (uuid 2f244f7f-f3e7-497c-b9a1-6fe9062e6b9c))
    (instances
      (project "zilpzalp_minimal_choc"
        (path "/5ecac6d8-0277-4350-80c1-88a8cf49a228"
          (reference "D12") (unit 1)
        )
      )
    )
  )

  (symbol (lib_id "Switch:SW_Push") (at 265.43 76.2 0) (unit 1)
    (in_bom yes) (on_board yes) (dnp no) (fields_autoplaced)
    (uuid 74b116d8-423c-4770-97d7-33c690c44df1)
    (property "Reference" "SW20" (at 265.43 69.85 0)
      (effects (font (size 1.27 1.27)))
    )
    (property "Value" "SW_Push" (at 265.43 72.39 0)
      (effects (font (size 1.27 1.27)))
    )
    (property "Footprint" "BeiBob:SW_Kailh-PG1350-1u-NoLED" (at 265.43 71.12 0)
      (effects (font (size 1.27 1.27)) hide)
    )
    (property "Datasheet" "~" (at 265.43 71.12 0)
      (effects (font (size 1.27 1.27)) hide)
    )
    (pin "1" (uuid c27b8083-a253-4c35-b929-836bfadc0fe4))
    (pin "2" (uuid bc9dd516-f80d-4ed6-8abe-11d0bc0a1fc3))
    (instances
      (project "zilpzalp_minimal_choc"
        (path "/5ecac6d8-0277-4350-80c1-88a8cf49a228"
          (reference "SW20") (unit 1)
        )
      )
    )
  )

  (symbol (lib_id "MarBastLib-Various:BAV70_Small") (at 201.93 54.61 0) (mirror y) (unit 1)
    (in_bom yes) (on_board yes) (dnp no)
    (uuid 76a5b5fe-9308-49dd-9035-4775febb6d87)
    (property "Reference" "D11" (at 201.93 49.53 0)
      (effects (font (size 1.27 1.27)))
    )
    (property "Value" "BAV70_Small" (at 201.93 52.07 0)
      (effects (font (size 1.27 1.27)))
    )
    (property "Footprint" "BeiBob:SOT-23_Handsoldering" (at 199.39 54.61 0)
      (effects (font (size 1.27 1.27)) hide)
    )
    (property "Datasheet" "https://assets.nexperia.com/documents/data-sheet/BAV70_SER.pdf" (at 201.93 54.61 0)
      (effects (font (size 1.27 1.27)) hide)
    )
    (pin "1" (uuid e92fd122-949f-42c9-8834-3840159581cd))
    (pin "2" (uuid d554f09e-239c-48e0-8b1b-9629d1b3ade4))
    (pin "3" (uuid b521583c-7218-4de1-838b-282045bbb5e1))
    (instances
      (project "zilpzalp_minimal_choc"
        (path "/5ecac6d8-0277-4350-80c1-88a8cf49a228"
          (reference "D11") (unit 1)
        )
      )
    )
  )

  (symbol (lib_id "Switch:SW_Push") (at 31.75 76.2 0) (unit 1)
    (in_bom yes) (on_board yes) (dnp no) (fields_autoplaced)
    (uuid 77b8c4d6-d336-40fd-ba42-fd351b256d24)
    (property "Reference" "SW9" (at 31.75 69.85 0)
      (effects (font (size 1.27 1.27)))
    )
    (property "Value" "SW_Push" (at 31.75 72.39 0)
      (effects (font (size 1.27 1.27)))
    )
    (property "Footprint" "BeiBob:SW_Kailh-PG1350-1u-NoLED" (at 31.75 71.12 0)
      (effects (font (size 1.27 1.27)) hide)
    )
    (property "Datasheet" "~" (at 31.75 71.12 0)
      (effects (font (size 1.27 1.27)) hide)
    )
    (pin "1" (uuid 3f4c3a84-5231-455d-a64d-02d2ae0ca421))
    (pin "2" (uuid a8579820-5883-42a8-983a-d953d76216f8))
    (instances
      (project "zilpzalp_minimal_choc"
        (path "/5ecac6d8-0277-4350-80c1-88a8cf49a228"
          (reference "SW9") (unit 1)
        )
      )
    )
  )

  (symbol (lib_id "Switch:SW_Push") (at 31.75 25.4 0) (unit 1)
    (in_bom yes) (on_board yes) (dnp no) (fields_autoplaced)
    (uuid 7a9f31e5-ab46-45fa-9808-5b022b7159fe)
    (property "Reference" "SW1" (at 31.75 19.05 0)
      (effects (font (size 1.27 1.27)))
    )
    (property "Value" "SW_Push" (at 31.75 21.59 0)
      (effects (font (size 1.27 1.27)))
    )
    (property "Footprint" "BeiBob:SW_Kailh-PG1350-1u-NoLED" (at 31.75 20.32 0)
      (effects (font (size 1.27 1.27)) hide)
    )
    (property "Datasheet" "~" (at 31.75 20.32 0)
      (effects (font (size 1.27 1.27)) hide)
    )
    (pin "1" (uuid b1c6e84b-e3b4-4902-bcfc-ef70d4f48b7c))
    (pin "2" (uuid 98f59c2a-8da2-4b50-9508-8d44645afe18))
    (instances
      (project "zilpzalp_minimal_choc"
        (path "/5ecac6d8-0277-4350-80c1-88a8cf49a228"
          (reference "SW1") (unit 1)
        )
      )
    )
  )

  (symbol (lib_id "Switch:SW_Push") (at 107.95 50.8 0) (unit 1)
    (in_bom yes) (on_board yes) (dnp no) (fields_autoplaced)
    (uuid 7c58ca64-17d0-4e5f-9ccd-cb4effd16da4)
    (property "Reference" "SW8" (at 107.95 44.45 0)
      (effects (font (size 1.27 1.27)))
    )
    (property "Value" "SW_Push" (at 107.95 46.99 0)
      (effects (font (size 1.27 1.27)))
    )
    (property "Footprint" "BeiBob:SW_Kailh-PG1350-1u-NoLED" (at 107.95 45.72 0)
      (effects (font (size 1.27 1.27)) hide)
    )
    (property "Datasheet" "~" (at 107.95 45.72 0)
      (effects (font (size 1.27 1.27)) hide)
    )
    (pin "1" (uuid d763746e-f3ee-49c0-91da-618717a65cc0))
    (pin "2" (uuid c18fe06c-47de-4c72-a384-d06cb056a3e3))
    (instances
      (project "zilpzalp_minimal_choc"
        (path "/5ecac6d8-0277-4350-80c1-88a8cf49a228"
          (reference "SW8") (unit 1)
        )
      )
    )
  )

  (symbol (lib_id "Switch:SW_Push") (at 57.15 50.8 0) (unit 1)
    (in_bom yes) (on_board yes) (dnp no) (fields_autoplaced)
    (uuid 87e190a3-f961-436f-9ac0-eaba9c63c662)
    (property "Reference" "SW6" (at 57.15 44.45 0)
      (effects (font (size 1.27 1.27)))
    )
    (property "Value" "SW_Push" (at 57.15 46.99 0)
      (effects (font (size 1.27 1.27)))
    )
    (property "Footprint" "BeiBob:SW_Kailh-PG1350-1u-NoLED" (at 57.15 45.72 0)
      (effects (font (size 1.27 1.27)) hide)
    )
    (property "Datasheet" "~" (at 57.15 45.72 0)
      (effects (font (size 1.27 1.27)) hide)
    )
    (pin "1" (uuid 4c99b25d-b40c-4748-b383-6f7b35014531))
    (pin "2" (uuid 21930222-8383-4076-be99-48260c4b493d))
    (instances
      (project "zilpzalp_minimal_choc"
        (path "/5ecac6d8-0277-4350-80c1-88a8cf49a228"
          (reference "SW6") (unit 1)
        )
      )
    )
  )

  (symbol (lib_id "Switch:SW_Push") (at 214.63 101.6 0) (unit 1)
    (in_bom yes) (on_board yes) (dnp no) (fields_autoplaced)
    (uuid 95d9129c-aa3b-41b4-a7c2-a15933d4317c)
    (property "Reference" "SW16" (at 214.63 95.25 0)
      (effects (font (size 1.27 1.27)))
    )
    (property "Value" "SW_Push" (at 214.63 97.79 0)
      (effects (font (size 1.27 1.27)))
    )
    (property "Footprint" "BeiBob:SW_Kailh-PG1350-1u-NoLED" (at 214.63 96.52 0)
      (effects (font (size 1.27 1.27)) hide)
    )
    (property "Datasheet" "~" (at 214.63 96.52 0)
      (effects (font (size 1.27 1.27)) hide)
    )
    (pin "1" (uuid 0ef0fbc0-e97b-46e6-ade0-47ae7623cb08))
    (pin "2" (uuid 6e50de3c-c689-40e0-b8cc-53a2fd69de32))
    (instances
      (project "zilpzalp_minimal_choc"
        (path "/5ecac6d8-0277-4350-80c1-88a8cf49a228"
          (reference "SW16") (unit 1)
        )
      )
    )
  )

  (symbol (lib_id "Switch:SW_Push") (at 107.95 25.4 0) (unit 1)
    (in_bom yes) (on_board yes) (dnp no) (fields_autoplaced)
    (uuid 96ab7061-c22b-42b6-89c9-c9093f604419)
    (property "Reference" "SW4" (at 107.95 19.05 0)
      (effects (font (size 1.27 1.27)))
    )
    (property "Value" "SW_Push" (at 107.95 21.59 0)
      (effects (font (size 1.27 1.27)))
    )
    (property "Footprint" "BeiBob:SW_Kailh-PG1350-1u-NoLED" (at 107.95 20.32 0)
      (effects (font (size 1.27 1.27)) hide)
    )
    (property "Datasheet" "~" (at 107.95 20.32 0)
      (effects (font (size 1.27 1.27)) hide)
    )
    (pin "1" (uuid 2030b93f-56bc-4045-aa24-948f1c6cf0d7))
    (pin "2" (uuid 58a1e439-a027-44e8-bebe-e12792a407ce))
    (instances
      (project "zilpzalp_minimal_choc"
        (path "/5ecac6d8-0277-4350-80c1-88a8cf49a228"
          (reference "SW4") (unit 1)
        )
      )
    )
  )

  (symbol (lib_id "Switch:SW_Push") (at 57.15 25.4 0) (unit 1)
    (in_bom yes) (on_board yes) (dnp no) (fields_autoplaced)
    (uuid 9a88bd3b-e618-4bdb-99e0-dd516096ad28)
    (property "Reference" "SW2" (at 57.15 19.05 0)
      (effects (font (size 1.27 1.27)))
    )
    (property "Value" "SW_Push" (at 57.15 21.59 0)
      (effects (font (size 1.27 1.27)))
    )
    (property "Footprint" "BeiBob:SW_Kailh-PG1350-1u-NoLED" (at 57.15 20.32 0)
      (effects (font (size 1.27 1.27)) hide)
    )
    (property "Datasheet" "~" (at 57.15 20.32 0)
      (effects (font (size 1.27 1.27)) hide)
    )
    (pin "1" (uuid 68b9c62e-4156-4028-9552-09458a143fd3))
    (pin "2" (uuid bec15cca-d5cd-4f74-a16d-bf2be9d73683))
    (instances
      (project "zilpzalp_minimal_choc"
        (path "/5ecac6d8-0277-4350-80c1-88a8cf49a228"
          (reference "SW2") (unit 1)
        )
      )
    )
  )

  (symbol (lib_id "Switch:SW_Push") (at 82.55 25.4 0) (unit 1)
    (in_bom yes) (on_board yes) (dnp no) (fields_autoplaced)
    (uuid 9b1c8985-c800-431c-8af7-8b359fa09166)
    (property "Reference" "SW3" (at 82.55 19.05 0)
      (effects (font (size 1.27 1.27)))
    )
    (property "Value" "SW_Push" (at 82.55 21.59 0)
      (effects (font (size 1.27 1.27)))
    )
    (property "Footprint" "BeiBob:SW_Kailh-PG1350-1u-NoLED" (at 82.55 20.32 0)
      (effects (font (size 1.27 1.27)) hide)
    )
    (property "Datasheet" "~" (at 82.55 20.32 0)
      (effects (font (size 1.27 1.27)) hide)
    )
    (pin "1" (uuid 55f09fca-fab8-458a-bbdf-a50596fd861c))
    (pin "2" (uuid ee16dc10-6358-4e76-b9f5-3494b87416ba))
    (instances
      (project "zilpzalp_minimal_choc"
        (path "/5ecac6d8-0277-4350-80c1-88a8cf49a228"
          (reference "SW3") (unit 1)
        )
      )
    )
  )

  (symbol (lib_id "MarBastLib-Various:BAV70_Small") (at 252.73 29.21 0) (mirror y) (unit 1)
    (in_bom yes) (on_board yes) (dnp no)
    (uuid a26d09b8-803e-43cc-8b30-5789919a2f04)
    (property "Reference" "D14" (at 252.73 24.13 0)
      (effects (font (size 1.27 1.27)))
    )
    (property "Value" "BAV70_Small" (at 252.73 26.67 0)
      (effects (font (size 1.27 1.27)))
    )
    (property "Footprint" "BeiBob:SOT-23_Handsoldering" (at 250.19 29.21 0)
      (effects (font (size 1.27 1.27)) hide)
    )
    (property "Datasheet" "https://assets.nexperia.com/documents/data-sheet/BAV70_SER.pdf" (at 252.73 29.21 0)
      (effects (font (size 1.27 1.27)) hide)
    )
    (pin "1" (uuid d981af36-ebcc-42b3-8dc1-1ce5bb82cb5a))
    (pin "2" (uuid 757cc0de-7014-46b2-9f89-7cabbc99430b))
    (pin "3" (uuid aa2eb359-2293-4b06-9d1b-5d68c9046199))
    (instances
      (project "zilpzalp_minimal_choc"
        (path "/5ecac6d8-0277-4350-80c1-88a8cf49a228"
          (reference "D14") (unit 1)
        )
      )
    )
  )

  (symbol (lib_id "Switch:SW_Push") (at 214.63 25.4 0) (unit 1)
    (in_bom yes) (on_board yes) (dnp no) (fields_autoplaced)
    (uuid a8e3c6cd-68e7-4eb4-9690-29efbcdc8f71)
    (property "Reference" "SW26" (at 214.63 19.05 0)
      (effects (font (size 1.27 1.27)))
    )
    (property "Value" "SW_Push" (at 214.63 21.59 0)
      (effects (font (size 1.27 1.27)))
    )
    (property "Footprint" "BeiBob:SW_Kailh-PG1350-1u-NoLED" (at 214.63 20.32 0)
      (effects (font (size 1.27 1.27)) hide)
    )
    (property "Datasheet" "~" (at 214.63 20.32 0)
      (effects (font (size 1.27 1.27)) hide)
    )
    (pin "1" (uuid bd53f559-07ba-41d1-9963-f0fe3c648d51))
    (pin "2" (uuid 89506bb3-05ef-46ea-9de6-b7d3257c5c2d))
    (instances
      (project "zilpzalp_minimal_choc"
        (path "/5ecac6d8-0277-4350-80c1-88a8cf49a228"
          (reference "SW26") (unit 1)
        )
      )
    )
  )

  (symbol (lib_id "Switch:SW_Push") (at 189.23 101.6 0) (unit 1)
    (in_bom yes) (on_board yes) (dnp no) (fields_autoplaced)
    (uuid b91e96d9-c88b-4f59-9cdf-cb0faed0e119)
    (property "Reference" "SW15" (at 189.23 95.25 0)
      (effects (font (size 1.27 1.27)))
    )
    (property "Value" "SW_Push" (at 189.23 97.79 0)
      (effects (font (size 1.27 1.27)))
    )
    (property "Footprint" "BeiBob:SW_Kailh-PG1350-1u-NoLED" (at 189.23 96.52 0)
      (effects (font (size 1.27 1.27)) hide)
    )
    (property "Datasheet" "~" (at 189.23 96.52 0)
      (effects (font (size 1.27 1.27)) hide)
    )
    (pin "1" (uuid 5b32b907-6ceb-41ce-8de7-d05b8983c15a))
    (pin "2" (uuid 7354de64-d0b0-4ebd-a043-c34681e1ca7d))
    (instances
      (project "zilpzalp_minimal_choc"
        (path "/5ecac6d8-0277-4350-80c1-88a8cf49a228"
          (reference "SW15") (unit 1)
        )
      )
    )
  )

  (symbol (lib_id "Switch:SW_Push") (at 107.95 76.2 0) (unit 1)
    (in_bom yes) (on_board yes) (dnp no) (fields_autoplaced)
    (uuid bca2d636-6d02-4830-bc4e-1904760e6c40)
    (property "Reference" "SW12" (at 107.95 69.85 0)
      (effects (font (size 1.27 1.27)))
    )
    (property "Value" "SW_Push" (at 107.95 72.39 0)
      (effects (font (size 1.27 1.27)))
    )
    (property "Footprint" "BeiBob:SW_Kailh-PG1350-1u-NoLED" (at 107.95 71.12 0)
      (effects (font (size 1.27 1.27)) hide)
    )
    (property "Datasheet" "~" (at 107.95 71.12 0)
      (effects (font (size 1.27 1.27)) hide)
    )
    (pin "1" (uuid 9487fbf4-2533-4de5-b28a-ba703897c792))
    (pin "2" (uuid 5cc3b708-ca97-473b-b07f-e04f5f0c5b0f))
    (instances
      (project "zilpzalp_minimal_choc"
        (path "/5ecac6d8-0277-4350-80c1-88a8cf49a228"
          (reference "SW12") (unit 1)
        )
      )
    )
  )

  (symbol (lib_id "MarBastLib-Various:BAV70_Small") (at 95.25 80.01 0) (mirror y) (unit 1)
    (in_bom yes) (on_board yes) (dnp no)
    (uuid bcaa79d9-b609-4765-b72e-6ac10e475272)
    (property "Reference" "D06" (at 95.25 74.93 0)
      (effects (font (size 1.27 1.27)))
    )
    (property "Value" "BAV70_Small" (at 95.25 77.47 0)
      (effects (font (size 1.27 1.27)))
    )
    (property "Footprint" "BeiBob:SOT-23_Handsoldering" (at 92.71 80.01 0)
      (effects (font (size 1.27 1.27)) hide)
    )
    (property "Datasheet" "https://assets.nexperia.com/documents/data-sheet/BAV70_SER.pdf" (at 95.25 80.01 0)
      (effects (font (size 1.27 1.27)) hide)
    )
    (pin "1" (uuid 171c8d2b-415d-43e4-ae59-4914552fea37))
    (pin "2" (uuid f355914e-07b5-42b9-b813-e9723b494844))
    (pin "3" (uuid e27eee7f-45cf-42f6-8b57-15dd23078567))
    (instances
      (project "zilpzalp_minimal_choc"
        (path "/5ecac6d8-0277-4350-80c1-88a8cf49a228"
          (reference "D06") (unit 1)
        )
      )
    )
  )

  (symbol (lib_id "Switch:SW_Push") (at 107.95 101.6 0) (unit 1)
    (in_bom yes) (on_board yes) (dnp no) (fields_autoplaced)
    (uuid bee831c1-13c3-4001-8681-1adf0bebf0b0)
    (property "Reference" "SW14" (at 107.95 95.25 0)
      (effects (font (size 1.27 1.27)))
    )
    (property "Value" "SW_Push" (at 107.95 97.79 0)
      (effects (font (size 1.27 1.27)))
    )
    (property "Footprint" "BeiBob:SW_Kailh-PG1350-1u-NoLED" (at 107.95 96.52 0)
      (effects (font (size 1.27 1.27)) hide)
    )
    (property "Datasheet" "~" (at 107.95 96.52 0)
      (effects (font (size 1.27 1.27)) hide)
    )
    (pin "1" (uuid 85d51b03-63b8-4741-af3b-ff00fe35e830))
    (pin "2" (uuid 15a6e28a-5373-4963-8dfb-20dc277c45e1))
    (instances
      (project "zilpzalp_minimal_choc"
        (path "/5ecac6d8-0277-4350-80c1-88a8cf49a228"
          (reference "SW14") (unit 1)
        )
      )
    )
  )

  (symbol (lib_id "Switch:SW_Push") (at 214.63 76.2 0) (unit 1)
    (in_bom yes) (on_board yes) (dnp no) (fields_autoplaced)
    (uuid c89c9a29-1644-4b0e-872b-a58089d26f4d)
    (property "Reference" "SW18" (at 214.63 69.85 0)
      (effects (font (size 1.27 1.27)))
    )
    (property "Value" "SW_Push" (at 214.63 72.39 0)
      (effects (font (size 1.27 1.27)))
    )
    (property "Footprint" "BeiBob:SW_Kailh-PG1350-1u-NoLED" (at 214.63 71.12 0)
      (effects (font (size 1.27 1.27)) hide)
    )
    (property "Datasheet" "~" (at 214.63 71.12 0)
      (effects (font (size 1.27 1.27)) hide)
    )
    (pin "1" (uuid 263aea3e-b502-49e5-8363-90ac3f2f709e))
    (pin "2" (uuid 749fbc8f-45c2-4ad3-8be4-95ecb16a3204))
    (instances
      (project "zilpzalp_minimal_choc"
        (path "/5ecac6d8-0277-4350-80c1-88a8cf49a228"
          (reference "SW18") (unit 1)
        )
      )
    )
  )

  (symbol (lib_id "MarBastLib-Various:BAV70_Small") (at 201.93 29.21 0) (mirror y) (unit 1)
    (in_bom yes) (on_board yes) (dnp no)
    (uuid c92ddd4f-c9e3-412d-a3d9-c29b43bf5a57)
    (property "Reference" "D13" (at 201.93 24.13 0)
      (effects (font (size 1.27 1.27)))
    )
    (property "Value" "BAV70_Small" (at 201.93 26.67 0)
      (effects (font (size 1.27 1.27)))
    )
    (property "Footprint" "BeiBob:SOT-23_Handsoldering" (at 199.39 29.21 0)
      (effects (font (size 1.27 1.27)) hide)
    )
    (property "Datasheet" "https://assets.nexperia.com/documents/data-sheet/BAV70_SER.pdf" (at 201.93 29.21 0)
      (effects (font (size 1.27 1.27)) hide)
    )
    (pin "1" (uuid bdce2e40-13f2-4d83-80bc-17631f89d365))
    (pin "2" (uuid db024ff9-79ae-4c44-b566-d9a8769b93b1))
    (pin "3" (uuid e4b5dcb0-f3d5-464c-8241-bd7d156c19d6))
    (instances
      (project "zilpzalp_minimal_choc"
        (path "/5ecac6d8-0277-4350-80c1-88a8cf49a228"
          (reference "D13") (unit 1)
        )
      )
    )
  )

  (symbol (lib_id "MarBastLib-Various:BAV70_Small") (at 95.25 29.21 0) (mirror y) (unit 1)
    (in_bom yes) (on_board yes) (dnp no)
    (uuid d3ab5dfc-0725-4680-b0d7-9df0a792e0bc)
    (property "Reference" "D02" (at 95.25 24.13 0)
      (effects (font (size 1.27 1.27)))
    )
    (property "Value" "BAV70_Small" (at 95.25 26.67 0)
      (effects (font (size 1.27 1.27)))
    )
    (property "Footprint" "BeiBob:SOT-23_Handsoldering" (at 92.71 29.21 0)
      (effects (font (size 1.27 1.27)) hide)
    )
    (property "Datasheet" "https://assets.nexperia.com/documents/data-sheet/BAV70_SER.pdf" (at 95.25 29.21 0)
      (effects (font (size 1.27 1.27)) hide)
    )
    (pin "1" (uuid dc1ad7b6-336b-4f46-89e7-a630a4aa1755))
    (pin "2" (uuid cfe75fc2-e6dd-4353-a2e5-612a6ef729ff))
    (pin "3" (uuid 9d711771-b4bd-48e4-a1c5-a943ddad8d54))
    (instances
      (project "zilpzalp_minimal_choc"
        (path "/5ecac6d8-0277-4350-80c1-88a8cf49a228"
          (reference "D02") (unit 1)
        )
      )
    )
  )

  (symbol (lib_id "MarBastLib-Various:BAV70_Small") (at 44.45 80.01 0) (mirror y) (unit 1)
    (in_bom yes) (on_board yes) (dnp no)
    (uuid e71855ec-ed70-4d9d-b9cc-ebd6860533b2)
    (property "Reference" "D05" (at 44.45 74.93 0)
      (effects (font (size 1.27 1.27)))
    )
    (property "Value" "BAV70_Small" (at 44.45 77.47 0)
      (effects (font (size 1.27 1.27)))
    )
    (property "Footprint" "BeiBob:SOT-23_Handsoldering" (at 41.91 80.01 0)
      (effects (font (size 1.27 1.27)) hide)
    )
    (property "Datasheet" "https://assets.nexperia.com/documents/data-sheet/BAV70_SER.pdf" (at 44.45 80.01 0)
      (effects (font (size 1.27 1.27)) hide)
    )
    (pin "1" (uuid addafc2a-9ae6-4599-827b-a8ac9d45b85f))
    (pin "2" (uuid a898edba-3435-4eb9-b86f-2247fbe085bd))
    (pin "3" (uuid 5695ede6-ce3b-4644-8857-0a24ea64c001))
    (instances
      (project "zilpzalp_minimal_choc"
        (path "/5ecac6d8-0277-4350-80c1-88a8cf49a228"
          (reference "D05") (unit 1)
        )
      )
    )
  )

  (symbol (lib_id "Switch:SW_Push") (at 82.55 101.6 0) (unit 1)
    (in_bom yes) (on_board yes) (dnp no) (fields_autoplaced)
    (uuid ec216167-efe5-484e-ae7f-4491ce77eb44)
    (property "Reference" "SW13" (at 82.55 95.25 0)
      (effects (font (size 1.27 1.27)))
    )
    (property "Value" "SW_Push" (at 82.55 97.79 0)
      (effects (font (size 1.27 1.27)))
    )
    (property "Footprint" "BeiBob:SW_Kailh-PG1350-1u-NoLED" (at 82.55 96.52 0)
      (effects (font (size 1.27 1.27)) hide)
    )
    (property "Datasheet" "~" (at 82.55 96.52 0)
      (effects (font (size 1.27 1.27)) hide)
    )
    (pin "1" (uuid 27110188-ff7e-420c-b691-c2b97dc178d9))
    (pin "2" (uuid c68a8d90-cb61-41bb-96a4-fc2c04b95019))
    (instances
      (project "zilpzalp_minimal_choc"
        (path "/5ecac6d8-0277-4350-80c1-88a8cf49a228"
          (reference "SW13") (unit 1)
        )
      )
    )
  )

  (symbol (lib_id "Switch:SW_Push") (at 240.03 25.4 0) (unit 1)
    (in_bom yes) (on_board yes) (dnp no) (fields_autoplaced)
    (uuid ef127510-fae2-40a1-a1af-21a74a6b01ad)
    (property "Reference" "SW27" (at 240.03 19.05 0)
      (effects (font (size 1.27 1.27)))
    )
    (property "Value" "SW_Push" (at 240.03 21.59 0)
      (effects (font (size 1.27 1.27)))
    )
    (property "Footprint" "BeiBob:SW_Kailh-PG1350-1u-NoLED" (at 240.03 20.32 0)
      (effects (font (size 1.27 1.27)) hide)
    )
    (property "Datasheet" "~" (at 240.03 20.32 0)
      (effects (font (size 1.27 1.27)) hide)
    )
    (pin "1" (uuid 4e863c10-5704-451f-b3f1-117c9958d711))
    (pin "2" (uuid bb5c395a-19bf-46b6-bc21-bc67532bc307))
    (instances
      (project "zilpzalp_minimal_choc"
        (path "/5ecac6d8-0277-4350-80c1-88a8cf49a228"
          (reference "SW27") (unit 1)
        )
      )
    )
  )

  (symbol (lib_id "Switch:SW_Push") (at 57.15 76.2 0) (unit 1)
    (in_bom yes) (on_board yes) (dnp no) (fields_autoplaced)
    (uuid f13d0a30-5e1e-47d8-8801-6c79489015b9)
    (property "Reference" "SW10" (at 57.15 69.85 0)
      (effects (font (size 1.27 1.27)))
    )
    (property "Value" "SW_Push" (at 57.15 72.39 0)
      (effects (font (size 1.27 1.27)))
    )
    (property "Footprint" "BeiBob:SW_Kailh-PG1350-1u-NoLED" (at 57.15 71.12 0)
      (effects (font (size 1.27 1.27)) hide)
    )
    (property "Datasheet" "~" (at 57.15 71.12 0)
      (effects (font (size 1.27 1.27)) hide)
    )
    (pin "1" (uuid b70976c9-7670-4515-aa13-439c5c2cdc8f))
    (pin "2" (uuid e57c43f7-f46b-45ec-bcea-51c261d58647))
    (instances
      (project "zilpzalp_minimal_choc"
        (path "/5ecac6d8-0277-4350-80c1-88a8cf49a228"
          (reference "SW10") (unit 1)
        )
      )
    )
  )

  (symbol (lib_id "MarBastLib-Various:BAV70_Small") (at 44.45 54.61 0) (mirror y) (unit 1)
    (in_bom yes) (on_board yes) (dnp no)
    (uuid f5d4314a-7916-4744-beb6-484870a716b3)
    (property "Reference" "D03" (at 44.45 49.53 0)
      (effects (font (size 1.27 1.27)))
    )
    (property "Value" "BAV70_Small" (at 44.45 52.07 0)
      (effects (font (size 1.27 1.27)))
    )
    (property "Footprint" "BeiBob:SOT-23_Handsoldering" (at 41.91 54.61 0)
      (effects (font (size 1.27 1.27)) hide)
    )
    (property "Datasheet" "https://assets.nexperia.com/documents/data-sheet/BAV70_SER.pdf" (at 44.45 54.61 0)
      (effects (font (size 1.27 1.27)) hide)
    )
    (pin "1" (uuid 05928601-1dcf-4eed-a98f-6eb516626f27))
    (pin "2" (uuid f715758c-2d15-4378-9985-1fa63ef2e776))
    (pin "3" (uuid 0709af9a-9bfe-4b97-bbab-17a3967e088c))
    (instances
      (project "zilpzalp_minimal_choc"
        (path "/5ecac6d8-0277-4350-80c1-88a8cf49a228"
          (reference "D03") (unit 1)
        )
      )
    )
  )

  (symbol (lib_id "MarBastLib-Various:BAV70_Small") (at 252.73 80.01 0) (mirror y) (unit 1)
    (in_bom yes) (on_board yes) (dnp no)
    (uuid f6ed74d9-b091-492a-aafc-7762d245b84e)
    (property "Reference" "D10" (at 252.73 74.93 0)
      (effects (font (size 1.27 1.27)))
    )
    (property "Value" "BAV70_Small" (at 252.73 77.47 0)
      (effects (font (size 1.27 1.27)))
    )
    (property "Footprint" "BeiBob:SOT-23_Handsoldering" (at 250.19 80.01 0)
      (effects (font (size 1.27 1.27)) hide)
    )
    (property "Datasheet" "https://assets.nexperia.com/documents/data-sheet/BAV70_SER.pdf" (at 252.73 80.01 0)
      (effects (font (size 1.27 1.27)) hide)
    )
    (pin "1" (uuid 911175cc-2b5e-49cd-af06-7360241d427c))
    (pin "2" (uuid dc5d9f24-b493-43d6-ab2a-fe245ab1515a))
    (pin "3" (uuid 22aa170a-501f-421d-86d3-63bcedfb30fa))
    (instances
      (project "zilpzalp_minimal_choc"
        (path "/5ecac6d8-0277-4350-80c1-88a8cf49a228"
          (reference "D10") (unit 1)
        )
      )
    )
  )

  (symbol (lib_id "MarBastLib-Various:BAV70_Small") (at 201.93 80.01 0) (mirror y) (unit 1)
    (in_bom yes) (on_board yes) (dnp no)
    (uuid f8eaf79d-27d0-44b3-8a82-90583d26451a)
    (property "Reference" "D09" (at 201.93 74.93 0)
      (effects (font (size 1.27 1.27)))
    )
    (property "Value" "BAV70_Small" (at 201.93 77.47 0)
      (effects (font (size 1.27 1.27)))
    )
    (property "Footprint" "BeiBob:SOT-23_Handsoldering" (at 199.39 80.01 0)
      (effects (font (size 1.27 1.27)) hide)
    )
    (property "Datasheet" "https://assets.nexperia.com/documents/data-sheet/BAV70_SER.pdf" (at 201.93 80.01 0)
      (effects (font (size 1.27 1.27)) hide)
    )
    (pin "1" (uuid 8dd782c1-e13f-4a19-bf8a-df8eb025c715))
    (pin "2" (uuid 4da3a446-484a-4288-bd5d-0db8b758e6e7))
    (pin "3" (uuid b9bce77d-a308-427a-a823-3a9502db020e))
    (instances
      (project "zilpzalp_minimal_choc"
        (path "/5ecac6d8-0277-4350-80c1-88a8cf49a228"
          (reference "D09") (unit 1)
        )
      )
    )
  )

  (symbol (lib_id "Switch:SW_Push") (at 189.23 76.2 0) (unit 1)
    (in_bom yes) (on_board yes) (dnp no) (fields_autoplaced)
    (uuid fc5114df-9ef3-4823-8441-6b8d6a8c6a30)
    (property "Reference" "SW17" (at 189.23 69.85 0)
      (effects (font (size 1.27 1.27)))
    )
    (property "Value" "SW_Push" (at 189.23 72.39 0)
      (effects (font (size 1.27 1.27)))
    )
    (property "Footprint" "BeiBob:SW_Kailh-PG1350-1u-NoLED" (at 189.23 71.12 0)
      (effects (font (size 1.27 1.27)) hide)
    )
    (property "Datasheet" "~" (at 189.23 71.12 0)
      (effects (font (size 1.27 1.27)) hide)
    )
    (pin "1" (uuid 7276366d-0d35-49b0-9401-dc1561183d37))
    (pin "2" (uuid e45d4674-b234-4d7b-a7bf-f9d95f4063fe))
    (instances
      (project "zilpzalp_minimal_choc"
        (path "/5ecac6d8-0277-4350-80c1-88a8cf49a228"
          (reference "SW17") (unit 1)
        )
      )
    )
  )

  (sheet_instances
    (path "/" (page "1"))
  )
)
