(kicad_sch (version 20230121) (generator eeschema)

  (uuid e63e39d7-6ac0-4ffd-8aa3-1841a4541b55)

  (paper "A4")

  (lib_symbols
    (symbol "Connector_Generic:Conn_01x02" (pin_names (offset 1.016) hide) (in_bom yes) (on_board yes)
      (property "Reference" "J" (at 0 2.54 0)
        (effects (font (size 1.27 1.27)))
      )
      (property "Value" "Conn_01x02" (at 0 -5.08 0)
        (effects (font (size 1.27 1.27)))
      )
      (property "Footprint" "" (at 0 0 0)
        (effects (font (size 1.27 1.27)) hide)
      )
      (property "Datasheet" "~" (at 0 0 0)
        (effects (font (size 1.27 1.27)) hide)
      )
      (property "ki_keywords" "connector" (at 0 0 0)
        (effects (font (size 1.27 1.27)) hide)
      )
      (property "ki_description" "Generic connector, single row, 01x02, script generated (kicad-library-utils/schlib/autogen/connector/)" (at 0 0 0)
        (effects (font (size 1.27 1.27)) hide)
      )
      (property "ki_fp_filters" "Connector*:*_1x??_*" (at 0 0 0)
        (effects (font (size 1.27 1.27)) hide)
      )
      (symbol "Conn_01x02_1_1"
        (rectangle (start -1.27 -2.413) (end 0 -2.667)
          (stroke (width 0.1524) (type default))
          (fill (type none))
        )
        (rectangle (start -1.27 0.127) (end 0 -0.127)
          (stroke (width 0.1524) (type default))
          (fill (type none))
        )
        (rectangle (start -1.27 1.27) (end 1.27 -3.81)
          (stroke (width 0.254) (type default))
          (fill (type background))
        )
        (pin passive line (at -5.08 0 0) (length 3.81)
          (name "Pin_1" (effects (font (size 1.27 1.27))))
          (number "1" (effects (font (size 1.27 1.27))))
        )
        (pin passive line (at -5.08 -2.54 0) (length 3.81)
          (name "Pin_2" (effects (font (size 1.27 1.27))))
          (number "2" (effects (font (size 1.27 1.27))))
        )
      )
    )
    (symbol "Connector_Generic:Conn_01x03" (pin_names (offset 1.016) hide) (in_bom yes) (on_board yes)
      (property "Reference" "J" (at 0 5.08 0)
        (effects (font (size 1.27 1.27)))
      )
      (property "Value" "Conn_01x03" (at 0 -5.08 0)
        (effects (font (size 1.27 1.27)))
      )
      (property "Footprint" "" (at 0 0 0)
        (effects (font (size 1.27 1.27)) hide)
      )
      (property "Datasheet" "~" (at 0 0 0)
        (effects (font (size 1.27 1.27)) hide)
      )
      (property "ki_keywords" "connector" (at 0 0 0)
        (effects (font (size 1.27 1.27)) hide)
      )
      (property "ki_description" "Generic connector, single row, 01x03, script generated (kicad-library-utils/schlib/autogen/connector/)" (at 0 0 0)
        (effects (font (size 1.27 1.27)) hide)
      )
      (property "ki_fp_filters" "Connector*:*_1x??_*" (at 0 0 0)
        (effects (font (size 1.27 1.27)) hide)
      )
      (symbol "Conn_01x03_1_1"
        (rectangle (start -1.27 -2.413) (end 0 -2.667)
          (stroke (width 0.1524) (type default))
          (fill (type none))
        )
        (rectangle (start -1.27 0.127) (end 0 -0.127)
          (stroke (width 0.1524) (type default))
          (fill (type none))
        )
        (rectangle (start -1.27 2.667) (end 0 2.413)
          (stroke (width 0.1524) (type default))
          (fill (type none))
        )
        (rectangle (start -1.27 3.81) (end 1.27 -3.81)
          (stroke (width 0.254) (type default))
          (fill (type background))
        )
        (pin passive line (at -5.08 2.54 0) (length 3.81)
          (name "Pin_1" (effects (font (size 1.27 1.27))))
          (number "1" (effects (font (size 1.27 1.27))))
        )
        (pin passive line (at -5.08 0 0) (length 3.81)
          (name "Pin_2" (effects (font (size 1.27 1.27))))
          (number "2" (effects (font (size 1.27 1.27))))
        )
        (pin passive line (at -5.08 -2.54 0) (length 3.81)
          (name "Pin_3" (effects (font (size 1.27 1.27))))
          (number "3" (effects (font (size 1.27 1.27))))
        )
      )
    )
    (symbol "Device:C_Small" (pin_numbers hide) (pin_names (offset 0.254) hide) (in_bom yes) (on_board yes)
      (property "Reference" "C" (at 0.254 1.778 0)
        (effects (font (size 1.27 1.27)) (justify left))
      )
      (property "Value" "C_Small" (at 0.254 -2.032 0)
        (effects (font (size 1.27 1.27)) (justify left))
      )
      (property "Footprint" "" (at 0 0 0)
        (effects (font (size 1.27 1.27)) hide)
      )
      (property "Datasheet" "~" (at 0 0 0)
        (effects (font (size 1.27 1.27)) hide)
      )
      (property "ki_keywords" "capacitor cap" (at 0 0 0)
        (effects (font (size 1.27 1.27)) hide)
      )
      (property "ki_description" "Unpolarized capacitor, small symbol" (at 0 0 0)
        (effects (font (size 1.27 1.27)) hide)
      )
      (property "ki_fp_filters" "C_*" (at 0 0 0)
        (effects (font (size 1.27 1.27)) hide)
      )
      (symbol "C_Small_0_1"
        (polyline
          (pts
            (xy -1.524 -0.508)
            (xy 1.524 -0.508)
          )
          (stroke (width 0.3302) (type default))
          (fill (type none))
        )
        (polyline
          (pts
            (xy -1.524 0.508)
            (xy 1.524 0.508)
          )
          (stroke (width 0.3048) (type default))
          (fill (type none))
        )
      )
      (symbol "C_Small_1_1"
        (pin passive line (at 0 2.54 270) (length 2.032)
          (name "~" (effects (font (size 1.27 1.27))))
          (number "1" (effects (font (size 1.27 1.27))))
        )
        (pin passive line (at 0 -2.54 90) (length 2.032)
          (name "~" (effects (font (size 1.27 1.27))))
          (number "2" (effects (font (size 1.27 1.27))))
        )
      )
    )
    (symbol "Device:LED_ARGB" (pin_names (offset 0) hide) (in_bom yes) (on_board yes)
      (property "Reference" "D" (at 0 9.398 0)
        (effects (font (size 1.27 1.27)))
      )
      (property "Value" "LED_ARGB" (at 0 -8.89 0)
        (effects (font (size 1.27 1.27)))
      )
      (property "Footprint" "" (at 0 -1.27 0)
        (effects (font (size 1.27 1.27)) hide)
      )
      (property "Datasheet" "~" (at 0 -1.27 0)
        (effects (font (size 1.27 1.27)) hide)
      )
      (property "ki_keywords" "LED RGB diode" (at 0 0 0)
        (effects (font (size 1.27 1.27)) hide)
      )
      (property "ki_description" "RGB LED, anode/red/green/blue" (at 0 0 0)
        (effects (font (size 1.27 1.27)) hide)
      )
      (property "ki_fp_filters" "LED* LED_SMD:* LED_THT:*" (at 0 0 0)
        (effects (font (size 1.27 1.27)) hide)
      )
      (symbol "LED_ARGB_0_0"
        (text "B" (at -1.905 -6.35 0)
          (effects (font (size 1.27 1.27)))
        )
        (text "G" (at -1.905 -1.27 0)
          (effects (font (size 1.27 1.27)))
        )
        (text "R" (at -1.905 3.81 0)
          (effects (font (size 1.27 1.27)))
        )
      )
      (symbol "LED_ARGB_0_1"
        (polyline
          (pts
            (xy -1.27 -5.08)
            (xy -2.54 -5.08)
          )
          (stroke (width 0) (type default))
          (fill (type none))
        )
        (polyline
          (pts
            (xy -1.27 -5.08)
            (xy 1.27 -5.08)
          )
          (stroke (width 0) (type default))
          (fill (type none))
        )
        (polyline
          (pts
            (xy -1.27 -3.81)
            (xy -1.27 -6.35)
          )
          (stroke (width 0.254) (type default))
          (fill (type none))
        )
        (polyline
          (pts
            (xy -1.27 0)
            (xy -2.54 0)
          )
          (stroke (width 0) (type default))
          (fill (type none))
        )
        (polyline
          (pts
            (xy -1.27 1.27)
            (xy -1.27 -1.27)
          )
          (stroke (width 0.254) (type default))
          (fill (type none))
        )
        (polyline
          (pts
            (xy -1.27 5.08)
            (xy -2.54 5.08)
          )
          (stroke (width 0) (type default))
          (fill (type none))
        )
        (polyline
          (pts
            (xy -1.27 5.08)
            (xy 1.27 5.08)
          )
          (stroke (width 0) (type default))
          (fill (type none))
        )
        (polyline
          (pts
            (xy -1.27 6.35)
            (xy -1.27 3.81)
          )
          (stroke (width 0.254) (type default))
          (fill (type none))
        )
        (polyline
          (pts
            (xy 1.27 0)
            (xy -1.27 0)
          )
          (stroke (width 0) (type default))
          (fill (type none))
        )
        (polyline
          (pts
            (xy 1.27 0)
            (xy 2.54 0)
          )
          (stroke (width 0) (type default))
          (fill (type none))
        )
        (polyline
          (pts
            (xy -1.27 1.27)
            (xy -1.27 -1.27)
            (xy -1.27 -1.27)
          )
          (stroke (width 0) (type default))
          (fill (type none))
        )
        (polyline
          (pts
            (xy -1.27 6.35)
            (xy -1.27 3.81)
            (xy -1.27 3.81)
          )
          (stroke (width 0) (type default))
          (fill (type none))
        )
        (polyline
          (pts
            (xy 1.27 -5.08)
            (xy 2.032 -5.08)
            (xy 2.032 5.08)
            (xy 1.27 5.08)
          )
          (stroke (width 0) (type default))
          (fill (type none))
        )
        (polyline
          (pts
            (xy 1.27 -3.81)
            (xy 1.27 -6.35)
            (xy -1.27 -5.08)
            (xy 1.27 -3.81)
          )
          (stroke (width 0.254) (type default))
          (fill (type none))
        )
        (polyline
          (pts
            (xy 1.27 1.27)
            (xy 1.27 -1.27)
            (xy -1.27 0)
            (xy 1.27 1.27)
          )
          (stroke (width 0.254) (type default))
          (fill (type none))
        )
        (polyline
          (pts
            (xy 1.27 6.35)
            (xy 1.27 3.81)
            (xy -1.27 5.08)
            (xy 1.27 6.35)
          )
          (stroke (width 0.254) (type default))
          (fill (type none))
        )
        (polyline
          (pts
            (xy -1.016 -3.81)
            (xy 0.508 -2.286)
            (xy -0.254 -2.286)
            (xy 0.508 -2.286)
            (xy 0.508 -3.048)
          )
          (stroke (width 0) (type default))
          (fill (type none))
        )
        (polyline
          (pts
            (xy -1.016 1.27)
            (xy 0.508 2.794)
            (xy -0.254 2.794)
            (xy 0.508 2.794)
            (xy 0.508 2.032)
          )
          (stroke (width 0) (type default))
          (fill (type none))
        )
        (polyline
          (pts
            (xy -1.016 6.35)
            (xy 0.508 7.874)
            (xy -0.254 7.874)
            (xy 0.508 7.874)
            (xy 0.508 7.112)
          )
          (stroke (width 0) (type default))
          (fill (type none))
        )
        (polyline
          (pts
            (xy 0 -3.81)
            (xy 1.524 -2.286)
            (xy 0.762 -2.286)
            (xy 1.524 -2.286)
            (xy 1.524 -3.048)
          )
          (stroke (width 0) (type default))
          (fill (type none))
        )
        (polyline
          (pts
            (xy 0 1.27)
            (xy 1.524 2.794)
            (xy 0.762 2.794)
            (xy 1.524 2.794)
            (xy 1.524 2.032)
          )
          (stroke (width 0) (type default))
          (fill (type none))
        )
        (polyline
          (pts
            (xy 0 6.35)
            (xy 1.524 7.874)
            (xy 0.762 7.874)
            (xy 1.524 7.874)
            (xy 1.524 7.112)
          )
          (stroke (width 0) (type default))
          (fill (type none))
        )
        (rectangle (start 1.27 -1.27) (end 1.27 1.27)
          (stroke (width 0) (type default))
          (fill (type none))
        )
        (rectangle (start 1.27 1.27) (end 1.27 1.27)
          (stroke (width 0) (type default))
          (fill (type none))
        )
        (rectangle (start 1.27 3.81) (end 1.27 6.35)
          (stroke (width 0) (type default))
          (fill (type none))
        )
        (rectangle (start 1.27 6.35) (end 1.27 6.35)
          (stroke (width 0) (type default))
          (fill (type none))
        )
        (circle (center 2.032 0) (radius 0.254)
          (stroke (width 0) (type default))
          (fill (type outline))
        )
        (rectangle (start 2.794 8.382) (end -2.794 -7.62)
          (stroke (width 0.254) (type default))
          (fill (type background))
        )
      )
      (symbol "LED_ARGB_1_1"
        (pin passive line (at 5.08 0 180) (length 2.54)
          (name "A" (effects (font (size 1.27 1.27))))
          (number "1" (effects (font (size 1.27 1.27))))
        )
        (pin passive line (at -5.08 5.08 0) (length 2.54)
          (name "RK" (effects (font (size 1.27 1.27))))
          (number "2" (effects (font (size 1.27 1.27))))
        )
        (pin passive line (at -5.08 0 0) (length 2.54)
          (name "GK" (effects (font (size 1.27 1.27))))
          (number "3" (effects (font (size 1.27 1.27))))
        )
        (pin passive line (at -5.08 -5.08 0) (length 2.54)
          (name "BK" (effects (font (size 1.27 1.27))))
          (number "4" (effects (font (size 1.27 1.27))))
        )
      )
    )
    (symbol "Device:R_Small" (pin_numbers hide) (pin_names (offset 0.254) hide) (in_bom yes) (on_board yes)
      (property "Reference" "R" (at 0.762 0.508 0)
        (effects (font (size 1.27 1.27)) (justify left))
      )
      (property "Value" "R_Small" (at 0.762 -1.016 0)
        (effects (font (size 1.27 1.27)) (justify left))
      )
      (property "Footprint" "" (at 0 0 0)
        (effects (font (size 1.27 1.27)) hide)
      )
      (property "Datasheet" "~" (at 0 0 0)
        (effects (font (size 1.27 1.27)) hide)
      )
      (property "ki_keywords" "R resistor" (at 0 0 0)
        (effects (font (size 1.27 1.27)) hide)
      )
      (property "ki_description" "Resistor, small symbol" (at 0 0 0)
        (effects (font (size 1.27 1.27)) hide)
      )
      (property "ki_fp_filters" "R_*" (at 0 0 0)
        (effects (font (size 1.27 1.27)) hide)
      )
      (symbol "R_Small_0_1"
        (rectangle (start -0.762 1.778) (end 0.762 -1.778)
          (stroke (width 0.2032) (type default))
          (fill (type none))
        )
      )
      (symbol "R_Small_1_1"
        (pin passive line (at 0 2.54 270) (length 0.762)
          (name "~" (effects (font (size 1.27 1.27))))
          (number "1" (effects (font (size 1.27 1.27))))
        )
        (pin passive line (at 0 -2.54 90) (length 0.762)
          (name "~" (effects (font (size 1.27 1.27))))
          (number "2" (effects (font (size 1.27 1.27))))
        )
      )
    )
    (symbol "MCU_Microchip_ATtiny:ATtiny817-M" (in_bom yes) (on_board yes)
      (property "Reference" "U" (at -12.7 26.67 0)
        (effects (font (size 1.27 1.27)) (justify left bottom))
      )
      (property "Value" "ATtiny817-M" (at 2.54 -26.67 0)
        (effects (font (size 1.27 1.27)) (justify left top))
      )
      (property "Footprint" "Package_DFN_QFN:QFN-24-1EP_4x4mm_P0.5mm_EP2.6x2.6mm" (at 0 0 0)
        (effects (font (size 1.27 1.27) italic) hide)
      )
      (property "Datasheet" "http://ww1.microchip.com/downloads/en/DeviceDoc/40001901B.pdf" (at 0 0 0)
        (effects (font (size 1.27 1.27)) hide)
      )
      (property "ki_keywords" "AVR 8bit Microcontroller tinyAVR" (at 0 0 0)
        (effects (font (size 1.27 1.27)) hide)
      )
      (property "ki_description" "20MHz, 8kB Flash, 512B SRAM, 128B EEPROM, VQFN-24" (at 0 0 0)
        (effects (font (size 1.27 1.27)) hide)
      )
      (property "ki_fp_filters" "QFN*1EP*4x4mm*P0.5mm*" (at 0 0 0)
        (effects (font (size 1.27 1.27)) hide)
      )
      (symbol "ATtiny817-M_0_1"
        (rectangle (start -12.7 -25.4) (end 12.7 25.4)
          (stroke (width 0.254) (type default))
          (fill (type background))
        )
      )
      (symbol "ATtiny817-M_1_1"
        (pin bidirectional line (at 15.24 15.24 180) (length 2.54)
          (name "PA2" (effects (font (size 1.27 1.27))))
          (number "1" (effects (font (size 1.27 1.27))))
        )
        (pin bidirectional line (at 15.24 -17.78 180) (length 2.54)
          (name "PB6" (effects (font (size 1.27 1.27))))
          (number "10" (effects (font (size 1.27 1.27))))
        )
        (pin bidirectional line (at 15.24 -15.24 180) (length 2.54)
          (name "PB5" (effects (font (size 1.27 1.27))))
          (number "11" (effects (font (size 1.27 1.27))))
        )
        (pin bidirectional line (at 15.24 -12.7 180) (length 2.54)
          (name "PB4" (effects (font (size 1.27 1.27))))
          (number "12" (effects (font (size 1.27 1.27))))
        )
        (pin bidirectional line (at 15.24 -10.16 180) (length 2.54)
          (name "PB3" (effects (font (size 1.27 1.27))))
          (number "13" (effects (font (size 1.27 1.27))))
        )
        (pin bidirectional line (at 15.24 -7.62 180) (length 2.54)
          (name "PB2" (effects (font (size 1.27 1.27))))
          (number "14" (effects (font (size 1.27 1.27))))
        )
        (pin bidirectional line (at 15.24 -5.08 180) (length 2.54)
          (name "PB1" (effects (font (size 1.27 1.27))))
          (number "15" (effects (font (size 1.27 1.27))))
        )
        (pin bidirectional line (at 15.24 -2.54 180) (length 2.54)
          (name "PB0" (effects (font (size 1.27 1.27))))
          (number "16" (effects (font (size 1.27 1.27))))
        )
        (pin bidirectional line (at -15.24 -2.54 0) (length 2.54)
          (name "PC0" (effects (font (size 1.27 1.27))))
          (number "17" (effects (font (size 1.27 1.27))))
        )
        (pin bidirectional line (at -15.24 -5.08 0) (length 2.54)
          (name "PC1" (effects (font (size 1.27 1.27))))
          (number "18" (effects (font (size 1.27 1.27))))
        )
        (pin bidirectional line (at -15.24 -7.62 0) (length 2.54)
          (name "PC2" (effects (font (size 1.27 1.27))))
          (number "19" (effects (font (size 1.27 1.27))))
        )
        (pin bidirectional line (at 15.24 12.7 180) (length 2.54)
          (name "PA3" (effects (font (size 1.27 1.27))))
          (number "2" (effects (font (size 1.27 1.27))))
        )
        (pin bidirectional line (at -15.24 -10.16 0) (length 2.54)
          (name "PC3" (effects (font (size 1.27 1.27))))
          (number "20" (effects (font (size 1.27 1.27))))
        )
        (pin bidirectional line (at -15.24 -12.7 0) (length 2.54)
          (name "PC4" (effects (font (size 1.27 1.27))))
          (number "21" (effects (font (size 1.27 1.27))))
        )
        (pin bidirectional line (at -15.24 -15.24 0) (length 2.54)
          (name "PC5" (effects (font (size 1.27 1.27))))
          (number "22" (effects (font (size 1.27 1.27))))
        )
        (pin bidirectional line (at 15.24 20.32 180) (length 2.54)
          (name "~{RESET}/PA0" (effects (font (size 1.27 1.27))))
          (number "23" (effects (font (size 1.27 1.27))))
        )
        (pin bidirectional line (at 15.24 17.78 180) (length 2.54)
          (name "PA1" (effects (font (size 1.27 1.27))))
          (number "24" (effects (font (size 1.27 1.27))))
        )
        (pin passive line (at 0 -27.94 90) (length 2.54) hide
          (name "GND" (effects (font (size 1.27 1.27))))
          (number "25" (effects (font (size 1.27 1.27))))
        )
        (pin power_in line (at 0 -27.94 90) (length 2.54)
          (name "GND" (effects (font (size 1.27 1.27))))
          (number "3" (effects (font (size 1.27 1.27))))
        )
        (pin power_in line (at 0 27.94 270) (length 2.54)
          (name "VCC" (effects (font (size 1.27 1.27))))
          (number "4" (effects (font (size 1.27 1.27))))
        )
        (pin bidirectional line (at 15.24 10.16 180) (length 2.54)
          (name "PA4" (effects (font (size 1.27 1.27))))
          (number "5" (effects (font (size 1.27 1.27))))
        )
        (pin bidirectional line (at 15.24 7.62 180) (length 2.54)
          (name "PA5" (effects (font (size 1.27 1.27))))
          (number "6" (effects (font (size 1.27 1.27))))
        )
        (pin bidirectional line (at 15.24 5.08 180) (length 2.54)
          (name "PA6" (effects (font (size 1.27 1.27))))
          (number "7" (effects (font (size 1.27 1.27))))
        )
        (pin bidirectional line (at 15.24 2.54 180) (length 2.54)
          (name "PA7" (effects (font (size 1.27 1.27))))
          (number "8" (effects (font (size 1.27 1.27))))
        )
        (pin bidirectional line (at 15.24 -20.32 180) (length 2.54)
          (name "PB7" (effects (font (size 1.27 1.27))))
          (number "9" (effects (font (size 1.27 1.27))))
        )
      )
    )
    (symbol "RF:NRF24L01_Breakout" (pin_names (offset 1.016)) (in_bom yes) (on_board yes)
      (property "Reference" "U" (at -8.89 12.7 0)
        (effects (font (size 1.27 1.27)) (justify left))
      )
      (property "Value" "NRF24L01_Breakout" (at 3.81 12.7 0)
        (effects (font (size 1.27 1.27)) (justify left))
      )
      (property "Footprint" "RF_Module:nRF24L01_Breakout" (at 3.81 15.24 0)
        (effects (font (size 1.27 1.27) italic) (justify left) hide)
      )
      (property "Datasheet" "http://www.nordicsemi.com/eng/content/download/2730/34105/file/nRF24L01_Product_Specification_v2_0.pdf" (at 0 -2.54 0)
        (effects (font (size 1.27 1.27)) hide)
      )
      (property "ki_keywords" "Low Power RF Transciever breakout carrier" (at 0 0 0)
        (effects (font (size 1.27 1.27)) hide)
      )
      (property "ki_description" "Ultra low power 2.4GHz RF Transceiver, Carrier PCB" (at 0 0 0)
        (effects (font (size 1.27 1.27)) hide)
      )
      (property "ki_fp_filters" "nRF24L01*Breakout*" (at 0 0 0)
        (effects (font (size 1.27 1.27)) hide)
      )
      (symbol "NRF24L01_Breakout_0_1"
        (rectangle (start -8.89 11.43) (end 8.89 -11.43)
          (stroke (width 0.254) (type default))
          (fill (type background))
        )
        (polyline
          (pts
            (xy 4.445 1.905)
            (xy 4.445 -1.27)
          )
          (stroke (width 0.254) (type default))
          (fill (type none))
        )
        (circle (center 4.445 2.54) (radius 0.635)
          (stroke (width 0.254) (type default))
          (fill (type outline))
        )
        (arc (start 5.715 2.54) (mid 5.3559 3.4509) (end 4.445 3.81)
          (stroke (width 0.254) (type default))
          (fill (type none))
        )
        (arc (start 6.35 1.905) (mid 5.8833 3.9783) (end 3.81 4.445)
          (stroke (width 0.254) (type default))
          (fill (type none))
        )
        (arc (start 6.985 1.27) (mid 6.453 4.548) (end 3.175 5.08)
          (stroke (width 0.254) (type default))
          (fill (type none))
        )
      )
      (symbol "NRF24L01_Breakout_1_1"
        (pin power_in line (at 0 -15.24 90) (length 3.81)
          (name "GND" (effects (font (size 1.27 1.27))))
          (number "1" (effects (font (size 1.27 1.27))))
        )
        (pin power_in line (at 0 15.24 270) (length 3.81)
          (name "VCC" (effects (font (size 1.27 1.27))))
          (number "2" (effects (font (size 1.27 1.27))))
        )
        (pin input line (at -12.7 -5.08 0) (length 3.81)
          (name "CE" (effects (font (size 1.27 1.27))))
          (number "3" (effects (font (size 1.27 1.27))))
        )
        (pin input line (at -12.7 0 0) (length 3.81)
          (name "~{CSN}" (effects (font (size 1.27 1.27))))
          (number "4" (effects (font (size 1.27 1.27))))
        )
        (pin input clock (at -12.7 2.54 0) (length 3.81)
          (name "SCK" (effects (font (size 1.27 1.27))))
          (number "5" (effects (font (size 1.27 1.27))))
        )
        (pin input line (at -12.7 7.62 0) (length 3.81)
          (name "MOSI" (effects (font (size 1.27 1.27))))
          (number "6" (effects (font (size 1.27 1.27))))
        )
        (pin output line (at -12.7 5.08 0) (length 3.81)
          (name "MISO" (effects (font (size 1.27 1.27))))
          (number "7" (effects (font (size 1.27 1.27))))
        )
        (pin output line (at -12.7 -7.62 0) (length 3.81)
          (name "IRQ" (effects (font (size 1.27 1.27))))
          (number "8" (effects (font (size 1.27 1.27))))
        )
      )
    )
    (symbol "Regulator_Linear:MIC5365-3.3YC5" (in_bom yes) (on_board yes)
      (property "Reference" "U" (at -6.35 6.35 0)
        (effects (font (size 1.27 1.27)))
      )
      (property "Value" "MIC5365-3.3YC5" (at 0 6.35 0)
        (effects (font (size 1.27 1.27)) (justify left))
      )
      (property "Footprint" "Package_TO_SOT_SMD:SOT-353_SC-70-5" (at 0 8.89 0)
        (effects (font (size 1.27 1.27)) hide)
      )
      (property "Datasheet" "http://ww1.microchip.com/downloads/en/DeviceDoc/mic5365.pdf" (at -7.62 20.32 0)
        (effects (font (size 1.27 1.27)) hide)
      )
      (property "ki_keywords" "Micrel LDO voltage regulator" (at 0 0 0)
        (effects (font (size 1.27 1.27)) hide)
      )
      (property "ki_description" "150mA Low-dropout Voltage Regulator, Vout 3.3V, Vin up to 5.5V, SC-70-5" (at 0 0 0)
        (effects (font (size 1.27 1.27)) hide)
      )
      (property "ki_fp_filters" "SOT*353*SC*70*" (at 0 0 0)
        (effects (font (size 1.27 1.27)) hide)
      )
      (symbol "MIC5365-3.3YC5_0_1"
        (rectangle (start -7.62 -5.08) (end 7.62 5.08)
          (stroke (width 0.254) (type default))
          (fill (type background))
        )
      )
      (symbol "MIC5365-3.3YC5_1_1"
        (pin power_in line (at -10.16 2.54 0) (length 2.54)
          (name "VIN" (effects (font (size 1.27 1.27))))
          (number "1" (effects (font (size 1.27 1.27))))
        )
        (pin power_in line (at 0 -7.62 90) (length 2.54)
          (name "GND" (effects (font (size 1.27 1.27))))
          (number "2" (effects (font (size 1.27 1.27))))
        )
        (pin input line (at -10.16 -2.54 0) (length 2.54)
          (name "EN" (effects (font (size 1.27 1.27))))
          (number "3" (effects (font (size 1.27 1.27))))
        )
        (pin no_connect line (at 7.62 -2.54 180) (length 2.54) hide
          (name "NC" (effects (font (size 1.27 1.27))))
          (number "4" (effects (font (size 1.27 1.27))))
        )
        (pin power_out line (at 10.16 2.54 180) (length 2.54)
          (name "VOUT" (effects (font (size 1.27 1.27))))
          (number "5" (effects (font (size 1.27 1.27))))
        )
      )
    )
    (symbol "Switch:SW_SPDT" (pin_names (offset 0) hide) (in_bom yes) (on_board yes)
      (property "Reference" "SW" (at 0 4.318 0)
        (effects (font (size 1.27 1.27)))
      )
      (property "Value" "SW_SPDT" (at 0 -5.08 0)
        (effects (font (size 1.27 1.27)))
      )
      (property "Footprint" "" (at 0 0 0)
        (effects (font (size 1.27 1.27)) hide)
      )
      (property "Datasheet" "~" (at 0 0 0)
        (effects (font (size 1.27 1.27)) hide)
      )
      (property "ki_keywords" "switch single-pole double-throw spdt ON-ON" (at 0 0 0)
        (effects (font (size 1.27 1.27)) hide)
      )
      (property "ki_description" "Switch, single pole double throw" (at 0 0 0)
        (effects (font (size 1.27 1.27)) hide)
      )
      (symbol "SW_SPDT_0_0"
        (circle (center -2.032 0) (radius 0.508)
          (stroke (width 0) (type default))
          (fill (type none))
        )
        (circle (center 2.032 -2.54) (radius 0.508)
          (stroke (width 0) (type default))
          (fill (type none))
        )
      )
      (symbol "SW_SPDT_0_1"
        (polyline
          (pts
            (xy -1.524 0.254)
            (xy 1.651 2.286)
          )
          (stroke (width 0) (type default))
          (fill (type none))
        )
        (circle (center 2.032 2.54) (radius 0.508)
          (stroke (width 0) (type default))
          (fill (type none))
        )
      )
      (symbol "SW_SPDT_1_1"
        (pin passive line (at 5.08 2.54 180) (length 2.54)
          (name "A" (effects (font (size 1.27 1.27))))
          (number "1" (effects (font (size 1.27 1.27))))
        )
        (pin passive line (at -5.08 0 0) (length 2.54)
          (name "B" (effects (font (size 1.27 1.27))))
          (number "2" (effects (font (size 1.27 1.27))))
        )
        (pin passive line (at 5.08 -2.54 180) (length 2.54)
          (name "C" (effects (font (size 1.27 1.27))))
          (number "3" (effects (font (size 1.27 1.27))))
        )
      )
    )
    (symbol "power:+3.3V" (power) (pin_names (offset 0)) (in_bom yes) (on_board yes)
      (property "Reference" "#PWR" (at 0 -3.81 0)
        (effects (font (size 1.27 1.27)) hide)
      )
      (property "Value" "+3.3V" (at 0 3.556 0)
        (effects (font (size 1.27 1.27)))
      )
      (property "Footprint" "" (at 0 0 0)
        (effects (font (size 1.27 1.27)) hide)
      )
      (property "Datasheet" "" (at 0 0 0)
        (effects (font (size 1.27 1.27)) hide)
      )
      (property "ki_keywords" "power-flag" (at 0 0 0)
        (effects (font (size 1.27 1.27)) hide)
      )
      (property "ki_description" "Power symbol creates a global label with name \"+3.3V\"" (at 0 0 0)
        (effects (font (size 1.27 1.27)) hide)
      )
      (symbol "+3.3V_0_1"
        (polyline
          (pts
            (xy -0.762 1.27)
            (xy 0 2.54)
          )
          (stroke (width 0) (type default))
          (fill (type none))
        )
        (polyline
          (pts
            (xy 0 0)
            (xy 0 2.54)
          )
          (stroke (width 0) (type default))
          (fill (type none))
        )
        (polyline
          (pts
            (xy 0 2.54)
            (xy 0.762 1.27)
          )
          (stroke (width 0) (type default))
          (fill (type none))
        )
      )
      (symbol "+3.3V_1_1"
        (pin power_in line (at 0 0 90) (length 0) hide
          (name "+3V3" (effects (font (size 1.27 1.27))))
          (number "1" (effects (font (size 1.27 1.27))))
        )
      )
    )
    (symbol "power:GND" (power) (pin_names (offset 0)) (in_bom yes) (on_board yes)
      (property "Reference" "#PWR" (at 0 -6.35 0)
        (effects (font (size 1.27 1.27)) hide)
      )
      (property "Value" "GND" (at 0 -3.81 0)
        (effects (font (size 1.27 1.27)))
      )
      (property "Footprint" "" (at 0 0 0)
        (effects (font (size 1.27 1.27)) hide)
      )
      (property "Datasheet" "" (at 0 0 0)
        (effects (font (size 1.27 1.27)) hide)
      )
      (property "ki_keywords" "power-flag" (at 0 0 0)
        (effects (font (size 1.27 1.27)) hide)
      )
      (property "ki_description" "Power symbol creates a global label with name \"GND\" , ground" (at 0 0 0)
        (effects (font (size 1.27 1.27)) hide)
      )
      (symbol "GND_0_1"
        (polyline
          (pts
            (xy 0 0)
            (xy 0 -1.27)
            (xy 1.27 -1.27)
            (xy 0 -2.54)
            (xy -1.27 -1.27)
            (xy 0 -1.27)
          )
          (stroke (width 0) (type default))
          (fill (type none))
        )
      )
      (symbol "GND_1_1"
        (pin power_in line (at 0 0 270) (length 0) hide
          (name "GND" (effects (font (size 1.27 1.27))))
          (number "1" (effects (font (size 1.27 1.27))))
        )
      )
    )
    (symbol "someparts:MC3413" (pin_names (offset 1.016)) (in_bom yes) (on_board yes)
      (property "Reference" "U" (at -1.27 2.54 0)
        (effects (font (size 1.27 1.27)))
      )
      (property "Value" "MC3413" (at 0 0 0)
        (effects (font (size 1.27 1.27)))
      )
      (property "Footprint" "" (at 0 0 0)
        (effects (font (size 1.27 1.27)) hide)
      )
      (property "Datasheet" "" (at 0 0 0)
        (effects (font (size 1.27 1.27)) hide)
      )
      (symbol "MC3413_0_1"
        (rectangle (start -6.35 -1.27) (end 6.35 -13.97)
          (stroke (width 0) (type default))
          (fill (type background))
        )
      )
      (symbol "MC3413_1_1"
        (pin no_connect line (at -2.54 -16.51 90) (length 2.54) hide
          (name "NC" (effects (font (size 1.27 1.27))))
          (number "1" (effects (font (size 1.27 1.27))))
        )
        (pin no_connect line (at 2.54 -16.51 90) (length 2.54) hide
          (name "NC" (effects (font (size 1.27 1.27))))
          (number "10" (effects (font (size 1.27 1.27))))
        )
        (pin no_connect line (at 3.81 -16.51 90) (length 2.54) hide
          (name "NC" (effects (font (size 1.27 1.27))))
          (number "11" (effects (font (size 1.27 1.27))))
        )
        (pin bidirectional line (at -8.89 -6.35 0) (length 2.54)
          (name "SCL" (effects (font (size 1.27 1.27))))
          (number "12" (effects (font (size 1.27 1.27))))
        )
        (pin bidirectional line (at -8.89 -3.81 0) (length 2.54)
          (name "SDA" (effects (font (size 1.27 1.27))))
          (number "2" (effects (font (size 1.27 1.27))))
        )
        (pin power_in line (at 8.89 -6.35 180) (length 2.54)
          (name "VDD" (effects (font (size 1.27 1.27))))
          (number "3" (effects (font (size 1.27 1.27))))
        )
        (pin no_connect line (at -1.27 -16.51 90) (length 2.54) hide
          (name "NC" (effects (font (size 1.27 1.27))))
          (number "4" (effects (font (size 1.27 1.27))))
        )
        (pin output line (at -8.89 -8.89 0) (length 2.54)
          (name "INTN" (effects (font (size 1.27 1.27))))
          (number "5" (effects (font (size 1.27 1.27))))
        )
        (pin input line (at -8.89 -11.43 0) (length 2.54)
          (name "VPP" (effects (font (size 1.27 1.27))))
          (number "6" (effects (font (size 1.27 1.27))))
        )
        (pin no_connect line (at 0 -16.51 90) (length 2.54) hide
          (name "NC" (effects (font (size 1.27 1.27))))
          (number "7" (effects (font (size 1.27 1.27))))
        )
        (pin no_connect line (at 1.27 -16.51 90) (length 2.54) hide
          (name "NC" (effects (font (size 1.27 1.27))))
          (number "8" (effects (font (size 1.27 1.27))))
        )
        (pin power_in line (at 8.89 -8.89 180) (length 2.54)
          (name "GND" (effects (font (size 1.27 1.27))))
          (number "9" (effects (font (size 1.27 1.27))))
        )
      )
    )
  )

  (junction (at 144.78 54.61) (diameter 0) (color 0 0 0 0)
    (uuid 0088d107-13d8-496c-8da6-7bbeb9d096b0)
  )
  (junction (at 198.12 111.76) (diameter 0) (color 0 0 0 0)
    (uuid 2d6db888-4e40-41c8-b701-07170fc894bc)
  )
  (junction (at 149.86 54.61) (diameter 0) (color 0 0 0 0)
    (uuid 35354519-a28c-40c4-befd-0943e98dea53)
  )
  (junction (at 231.14 63.5) (diameter 0) (color 0 0 0 0)
    (uuid 3b838d52-596d-4e4d-a6ac-e4c8e7621137)
  )
  (junction (at 153.67 62.23) (diameter 0) (color 0 0 0 0)
    (uuid 75286985-9fa5-4d30-89c5-493b6e63cd66)
  )
  (junction (at 219.71 40.64) (diameter 0) (color 0 0 0 0)
    (uuid 78cbdd6c-4878-4cc5-9a58-0e506478e37d)
  )
  (junction (at 231.14 68.58) (diameter 0) (color 0 0 0 0)
    (uuid 87371631-aa02-498a-998a-09bdb74784c1)
  )
  (junction (at 91.44 55.88) (diameter 0) (color 0 0 0 0)
    (uuid 9340c285-5767-42d5-8b6d-63fe2a40ddf3)
  )
  (junction (at 78.74 44.45) (diameter 0) (color 0 0 0 0)
    (uuid ac264c30-3e9a-4be2-b97a-9949b68bd497)
  )
  (junction (at 102.87 44.45) (diameter 0) (color 0 0 0 0)
    (uuid e857610b-4434-4144-b04e-43c1ebdc5ceb)
  )
  (junction (at 72.39 44.45) (diameter 0) (color 0 0 0 0)
    (uuid f71da641-16e6-4257-80c3-0b9d804fee4f)
  )
  (junction (at 52.07 46.99) (diameter 0) (color 0 0 0 0)
    (uuid f9865a9f-edb8-49c7-828f-4896e1f3047a)
  )

  (no_connect (at 208.28 67.31) (uuid b1169a2d-8998-4b50-a48d-c520bcc1b8e1))

  (wire (pts (xy 91.44 57.15) (xy 91.44 55.88))
    (stroke (width 0) (type default))
    (uuid 03c52831-5dc5-43c5-a442-8d23643b46fb)
  )
  (wire (pts (xy 153.67 62.23) (xy 157.48 62.23))
    (stroke (width 0) (type default))
    (uuid 0867287d-2e6a-4d69-a366-c29f88198f2b)
  )
  (wire (pts (xy 72.39 50.8) (xy 72.39 55.88))
    (stroke (width 0) (type default))
    (uuid 0eaa98f0-9565-4637-ace3-42a5231b07f7)
  )
  (wire (pts (xy 157.48 54.61) (xy 157.48 55.88))
    (stroke (width 0) (type default))
    (uuid 0f41a909-27c4-4be2-9d5e-9ae2108c8ff5)
  )
  (wire (pts (xy 203.2 113.03) (xy 203.2 111.76))
    (stroke (width 0) (type default))
    (uuid 0f54db53-a272-4955-88fb-d7ab00657bb0)
  )
  (wire (pts (xy 177.8 43.18) (xy 177.8 40.64))
    (stroke (width 0) (type default))
    (uuid 120a7b0f-ddfd-4447-85c1-35665465acdb)
  )
  (wire (pts (xy 185.42 45.72) (xy 177.8 45.72))
    (stroke (width 0) (type default))
    (uuid 13475e15-f37c-4de8-857e-1722b0c39513)
  )
  (wire (pts (xy 72.39 55.88) (xy 91.44 55.88))
    (stroke (width 0) (type default))
    (uuid 181abe7a-f941-42b6-bd46-aaa3131f90fb)
  )
  (wire (pts (xy 91.44 55.88) (xy 102.87 55.88))
    (stroke (width 0) (type default))
    (uuid 1831fb37-1c5d-42c4-b898-151be6fca9dc)
  )
  (wire (pts (xy 180.34 87.63) (xy 180.34 93.98))
    (stroke (width 0) (type default))
    (uuid 1a1ab354-5f85-45f9-938c-9f6c4c8c3ea2)
  )
  (wire (pts (xy 144.78 54.61) (xy 149.86 54.61))
    (stroke (width 0) (type default))
    (uuid 1b54105e-6590-4d26-a763-ecfcf81eedc4)
  )
  (wire (pts (xy 227.33 67.31) (xy 227.33 68.58))
    (stroke (width 0) (type default))
    (uuid 1e1b062d-fad0-427c-a622-c5b8a80b5268)
  )
  (wire (pts (xy 201.93 88.9) (xy 196.85 88.9))
    (stroke (width 0) (type default))
    (uuid 1e8701fc-ad24-40ea-846a-e3db538d6077)
  )
  (wire (pts (xy 219.71 38.1) (xy 219.71 40.64))
    (stroke (width 0) (type default))
    (uuid 23bb2798-d93a-4696-a962-c305c4298a0c)
  )
  (wire (pts (xy 177.8 45.72) (xy 177.8 48.26))
    (stroke (width 0) (type default))
    (uuid 2732632c-4768-42b6-bf7f-14643424019e)
  )
  (wire (pts (xy 149.86 62.23) (xy 153.67 62.23))
    (stroke (width 0) (type default))
    (uuid 2bf3f24b-fd30-41a7-a274-9b519491916b)
  )
  (wire (pts (xy 109.22 44.45) (xy 109.22 39.37))
    (stroke (width 0) (type default))
    (uuid 2d210a96-f81f-42a9-8bf4-1b43c11086f3)
  )
  (wire (pts (xy 78.74 44.45) (xy 78.74 49.53))
    (stroke (width 0) (type default))
    (uuid 2e642b3e-a476-4c54-9a52-dcea955640cd)
  )
  (wire (pts (xy 231.14 71.12) (xy 231.14 68.58))
    (stroke (width 0) (type default))
    (uuid 30f15357-ce1d-48b9-93dc-7d9b1b2aa048)
  )
  (wire (pts (xy 144.78 124.46) (xy 144.78 123.19))
    (stroke (width 0) (type default))
    (uuid 3172f2e2-18d2-4a80-ae30-5707b3409798)
  )
  (wire (pts (xy 149.86 54.61) (xy 157.48 54.61))
    (stroke (width 0) (type default))
    (uuid 38f2d955-ea7a-4a21-aba6-02ae23f1bd4a)
  )
  (wire (pts (xy 208.28 69.85) (xy 207.01 69.85))
    (stroke (width 0) (type default))
    (uuid 3f5fe6b7-98fc-4d3e-9567-f9f7202d1455)
  )
  (wire (pts (xy 180.34 93.98) (xy 186.69 93.98))
    (stroke (width 0) (type default))
    (uuid 42713045-fffd-4b2d-ae1e-7232d705fb12)
  )
  (wire (pts (xy 226.06 64.77) (xy 227.33 64.77))
    (stroke (width 0) (type default))
    (uuid 44d8279a-9cd1-4db6-856f-0363131605fc)
  )
  (wire (pts (xy 215.9 41.91) (xy 215.9 40.64))
    (stroke (width 0) (type default))
    (uuid 46918595-4a45-48e8-84c0-961b4db7f35f)
  )
  (wire (pts (xy 157.48 62.23) (xy 157.48 60.96))
    (stroke (width 0) (type default))
    (uuid 4831966c-bb32-4bc8-a400-0382a02ffa1c)
  )
  (wire (pts (xy 72.39 45.72) (xy 72.39 44.45))
    (stroke (width 0) (type default))
    (uuid 48ab88d7-7084-4d02-b109-3ad55a30bb11)
  )
  (wire (pts (xy 78.74 49.53) (xy 81.28 49.53))
    (stroke (width 0) (type default))
    (uuid 5038e144-5119-49db-b6cf-f7c345f1cf03)
  )
  (wire (pts (xy 78.74 44.45) (xy 81.28 44.45))
    (stroke (width 0) (type default))
    (uuid 54365317-1355-4216-bb75-829375abc4ec)
  )
  (wire (pts (xy 52.07 46.99) (xy 53.34 46.99))
    (stroke (width 0) (type default))
    (uuid 55992e35-fe7b-468a-9b7a-1e4dc931b904)
  )
  (wire (pts (xy 64.77 52.07) (xy 64.77 49.53))
    (stroke (width 0) (type default))
    (uuid 5740c959-93d8-47fd-8f68-62f0109e753d)
  )
  (wire (pts (xy 182.88 62.23) (xy 185.42 62.23))
    (stroke (width 0) (type default))
    (uuid 5b2b5c7d-f943-4634-9f0a-e9561705c49d)
  )
  (wire (pts (xy 149.86 55.88) (xy 149.86 54.61))
    (stroke (width 0) (type default))
    (uuid 632acde9-b7fd-4f04-8cb4-d2cbb06b3595)
  )
  (wire (pts (xy 198.12 111.76) (xy 198.12 110.49))
    (stroke (width 0) (type default))
    (uuid 66043bca-a260-4915-9fce-8a51d324c687)
  )
  (wire (pts (xy 227.33 63.5) (xy 231.14 63.5))
    (stroke (width 0) (type default))
    (uuid 66116376-6967-4178-9f23-a26cdeafc400)
  )
  (wire (pts (xy 219.71 40.64) (xy 223.52 40.64))
    (stroke (width 0) (type default))
    (uuid 6e105729-aba0-497c-a99e-c32d2b3ddb6d)
  )
  (wire (pts (xy 102.87 44.45) (xy 102.87 45.72))
    (stroke (width 0) (type default))
    (uuid 704d6d51-bb34-4cbf-83d8-841e208048d8)
  )
  (wire (pts (xy 231.14 60.96) (xy 231.14 63.5))
    (stroke (width 0) (type default))
    (uuid 749dfe75-c0d6-4872-9330-29c5bbcb8ff8)
  )
  (wire (pts (xy 153.67 63.5) (xy 153.67 62.23))
    (stroke (width 0) (type default))
    (uuid 78f88cf6-751c-4e9b-ae75-fb8b6d44ff39)
  )
  (wire (pts (xy 52.07 46.99) (xy 52.07 52.07))
    (stroke (width 0) (type default))
    (uuid 7e08f2a4-63d6-468b-bd8b-ec607077e023)
  )
  (wire (pts (xy 203.2 111.76) (xy 198.12 111.76))
    (stroke (width 0) (type default))
    (uuid 80094b70-85ab-4ff6-934b-60d5ee65023a)
  )
  (wire (pts (xy 101.6 44.45) (xy 102.87 44.45))
    (stroke (width 0) (type default))
    (uuid 8174b4de-74b1-48db-ab8e-c8432251095b)
  )
  (wire (pts (xy 185.42 43.18) (xy 177.8 43.18))
    (stroke (width 0) (type default))
    (uuid 854dd5d4-5fd2-4730-bd49-a9cd8299a065)
  )
  (wire (pts (xy 203.2 119.38) (xy 203.2 118.11))
    (stroke (width 0) (type default))
    (uuid 922058ca-d09a-45fd-8394-05f3e2c1e03a)
  )
  (wire (pts (xy 223.52 40.64) (xy 223.52 41.91))
    (stroke (width 0) (type default))
    (uuid 94c158d1-8503-4553-b511-bf42f506c2a8)
  )
  (wire (pts (xy 48.26 46.99) (xy 52.07 46.99))
    (stroke (width 0) (type default))
    (uuid 9a9f2d82-f64d-4264-8bec-c182528fc4de)
  )
  (wire (pts (xy 102.87 44.45) (xy 109.22 44.45))
    (stroke (width 0) (type default))
    (uuid 9bb20359-0f8b-45bc-9d38-6626ed3a939d)
  )
  (wire (pts (xy 215.9 40.64) (xy 219.71 40.64))
    (stroke (width 0) (type default))
    (uuid 9ccf03e8-755a-4cd9-96fc-30e1d08fa253)
  )
  (wire (pts (xy 182.88 64.77) (xy 182.88 62.23))
    (stroke (width 0) (type default))
    (uuid a03e565f-d8cd-4032-aae3-b7327d4143dd)
  )
  (wire (pts (xy 63.5 44.45) (xy 72.39 44.45))
    (stroke (width 0) (type default))
    (uuid a06e8e78-f567-42e6-b645-013b1073ca31)
  )
  (wire (pts (xy 144.78 67.31) (xy 144.78 54.61))
    (stroke (width 0) (type default))
    (uuid afd3dbad-e7a8-4e4c-b77c-4065a69aefa2)
  )
  (wire (pts (xy 48.26 49.53) (xy 48.26 52.07))
    (stroke (width 0) (type default))
    (uuid b60c50d1-225e-415c-8712-7acb5e3dc8ea)
  )
  (wire (pts (xy 52.07 52.07) (xy 64.77 52.07))
    (stroke (width 0) (type default))
    (uuid b6bcc3cf-50de-4a33-bc41-678825c1ecf2)
  )
  (wire (pts (xy 207.01 69.85) (xy 207.01 71.12))
    (stroke (width 0) (type default))
    (uuid bb7f0588-d4d8-44bf-9ebf-3c533fe4d6ae)
  )
  (wire (pts (xy 144.78 52.07) (xy 144.78 54.61))
    (stroke (width 0) (type default))
    (uuid c201e1b2-fc01-4110-bdaa-a33290468c83)
  )
  (wire (pts (xy 201.93 99.06) (xy 196.85 99.06))
    (stroke (width 0) (type default))
    (uuid c25a772d-af9c-4ebc-96f6-0966738c13a8)
  )
  (wire (pts (xy 149.86 60.96) (xy 149.86 62.23))
    (stroke (width 0) (type default))
    (uuid c264c438-a475-4ad4-9915-0f1e6ecf3053)
  )
  (wire (pts (xy 64.77 49.53) (xy 63.5 49.53))
    (stroke (width 0) (type default))
    (uuid c3c93de0-69b1-4a04-8e0b-d78caf487c63)
  )
  (wire (pts (xy 91.44 54.61) (xy 91.44 55.88))
    (stroke (width 0) (type default))
    (uuid c41b3c8b-634e-435a-b582-96b83bbd4032)
  )
  (wire (pts (xy 198.12 152.4) (xy 198.12 153.67))
    (stroke (width 0) (type default))
    (uuid cbd8faed-e1f8-4406-87c8-58b2c504a5d4)
  )
  (wire (pts (xy 226.06 67.31) (xy 227.33 67.31))
    (stroke (width 0) (type default))
    (uuid cbdcaa78-3bbc-413f-91bf-2709119373ce)
  )
  (wire (pts (xy 102.87 55.88) (xy 102.87 50.8))
    (stroke (width 0) (type default))
    (uuid ce83728b-bebd-48c2-8734-b6a50d837931)
  )
  (wire (pts (xy 160.02 100.33) (xy 171.45 100.33))
    (stroke (width 0) (type default))
    (uuid d3c11c8f-a73d-4211-934b-a6da255728ad)
  )
  (wire (pts (xy 198.12 111.76) (xy 198.12 121.92))
    (stroke (width 0) (type default))
    (uuid d4a1d3c4-b315-4bec-9220-d12a9eab51e0)
  )
  (wire (pts (xy 196.85 93.98) (xy 201.93 93.98))
    (stroke (width 0) (type default))
    (uuid d5641ac9-9be7-46bf-90b3-6c83d852b5ba)
  )
  (wire (pts (xy 227.33 68.58) (xy 231.14 68.58))
    (stroke (width 0) (type default))
    (uuid d8603679-3e7b-4337-8dbc-1827f5f54d8a)
  )
  (wire (pts (xy 227.33 64.77) (xy 227.33 63.5))
    (stroke (width 0) (type default))
    (uuid eb667eea-300e-4ca7-8a6f-4b00de80cd45)
  )
  (wire (pts (xy 72.39 44.45) (xy 78.74 44.45))
    (stroke (width 0) (type default))
    (uuid fd470e95-4861-44fe-b1e4-6d8a7c66e144)
  )

  (label "MOSI" (at 185.42 129.54 180) (fields_autoplaced)
    (effects (font (size 1.27 1.27)) (justify right bottom))
    (uuid 003c2200-0632-4808-a662-8ddd5d30c768)
  )
  (label "SDA" (at 185.42 73.66 180) (fields_autoplaced)
    (effects (font (size 1.27 1.27)) (justify right bottom))
    (uuid 0147f16a-c952-4891-8f53-a9fb8cddeb8d)
  )
  (label "IRQ" (at 160.02 97.79 0) (fields_autoplaced)
    (effects (font (size 1.27 1.27)) (justify left bottom))
    (uuid 0217dfc4-fc13-4699-99ad-d9948522648e)
  )
  (label "SCL" (at 208.28 64.77 180) (fields_autoplaced)
    (effects (font (size 1.27 1.27)) (justify right bottom))
    (uuid 0d0bb7b2-a6e5-46d2-9492-a1aa6e5a7b2f)
  )
  (label "B" (at 207.01 88.9 0) (fields_autoplaced)
    (effects (font (size 1.27 1.27)) (justify left bottom))
    (uuid 1d9cdadc-9036-4a95-b6db-fa7b3b74c869)
  )
  (label "SDA" (at 160.02 77.47 0) (fields_autoplaced)
    (effects (font (size 1.27 1.27)) (justify left bottom))
    (uuid 240e07e1-770b-4b27-894f-29fd601c924d)
  )
  (label "G" (at 160.02 92.71 0) (fields_autoplaced)
    (effects (font (size 1.27 1.27)) (justify left bottom))
    (uuid 24f7628d-681d-4f0e-8409-40a129e929d9)
  )
  (label "MOSI" (at 129.54 102.87 180) (fields_autoplaced)
    (effects (font (size 1.27 1.27)) (justify right bottom))
    (uuid 2f215f15-3d52-4c91-93e6-3ea03a95622f)
  )
  (label "R" (at 160.02 90.17 0) (fields_autoplaced)
    (effects (font (size 1.27 1.27)) (justify left bottom))
    (uuid 3a7648d8-121a-4921-9b92-9b35b76ce39b)
  )
  (label "B" (at 160.02 115.57 0) (fields_autoplaced)
    (effects (font (size 1.27 1.27)) (justify left bottom))
    (uuid 3e903008-0276-4a73-8edb-5d9dfde6297c)
  )
  (label "UART_TX" (at 185.42 57.15 180) (fields_autoplaced)
    (effects (font (size 1.27 1.27)) (justify right bottom))
    (uuid 4e3d7c0d-12e3-42f2-b944-e4bcdbbcac2a)
  )
  (label "CE" (at 129.54 105.41 180) (fields_autoplaced)
    (effects (font (size 1.27 1.27)) (justify right bottom))
    (uuid 61fe293f-6808-4b7f-9340-9aaac7054a97)
  )
  (label "IRQ" (at 185.42 144.78 180) (fields_autoplaced)
    (effects (font (size 1.27 1.27)) (justify right bottom))
    (uuid 63ff1c93-3f96-4c33-b498-5dd8c33bccc0)
  )
  (label "UART_TX" (at 160.02 102.87 0) (fields_autoplaced)
    (effects (font (size 1.27 1.27)) (justify left bottom))
    (uuid 6a44418c-7bb4-4e99-8836-57f153c19721)
  )
  (label "G" (at 207.01 93.98 0) (fields_autoplaced)
    (effects (font (size 1.27 1.27)) (justify left bottom))
    (uuid 6bfe5804-2ef9-4c65-b2a7-f01e4014370a)
  )
  (label "UPDI" (at 160.02 74.93 0) (fields_autoplaced)
    (effects (font (size 1.27 1.27)) (justify left bottom))
    (uuid 712d6a7d-2b62-464f-b745-fd2a6b0187f6)
  )
  (label "MISO" (at 129.54 100.33 180) (fields_autoplaced)
    (effects (font (size 1.27 1.27)) (justify right bottom))
    (uuid 8da933a9-35f8-42e6-8504-d1bab7264306)
  )
  (label "SDA" (at 215.9 46.99 270) (fields_autoplaced)
    (effects (font (size 1.27 1.27)) (justify right bottom))
    (uuid 983c426c-24e0-4c65-ab69-1f1824adc5c6)
  )
  (label "SCK" (at 185.42 134.62 180) (fields_autoplaced)
    (effects (font (size 1.27 1.27)) (justify right bottom))
    (uuid 9b0a1687-7e1b-4a04-a30b-c27a072a2949)
  )
  (label "CE" (at 185.42 142.24 180) (fields_autoplaced)
    (effects (font (size 1.27 1.27)) (justify right bottom))
    (uuid 9e1b837f-0d34-4a18-9644-9ee68f141f46)
  )
  (label "UART_RX" (at 160.02 105.41 0) (fields_autoplaced)
    (effects (font (size 1.27 1.27)) (justify left bottom))
    (uuid aa02e544-13f5-4cf8-a5f4-3e6cda006090)
  )
  (label "UPDI" (at 185.42 40.64 180) (fields_autoplaced)
    (effects (font (size 1.27 1.27)) (justify right bottom))
    (uuid b3d08afa-f296-4e3b-8825-73b6331d35bf)
  )
  (label "CSN" (at 129.54 107.95 180) (fields_autoplaced)
    (effects (font (size 1.27 1.27)) (justify right bottom))
    (uuid b88717bd-086f-46cd-9d3f-0396009d0996)
  )
  (label "SCK" (at 129.54 97.79 180) (fields_autoplaced)
    (effects (font (size 1.27 1.27)) (justify right bottom))
    (uuid bd5408e4-362d-4e43-9d39-78fb99eb52c8)
  )
  (label "CSN" (at 185.42 137.16 180) (fields_autoplaced)
    (effects (font (size 1.27 1.27)) (justify right bottom))
    (uuid c01d25cd-f4bb-4ef3-b5ea-533a2a4ddb2b)
  )
  (label "R" (at 207.01 99.06 0) (fields_autoplaced)
    (effects (font (size 1.27 1.27)) (justify left bottom))
    (uuid c0eca5ed-bc5e-4618-9bcd-80945bea41ed)
  )
  (label "SCL" (at 223.52 46.99 270) (fields_autoplaced)
    (effects (font (size 1.27 1.27)) (justify right bottom))
    (uuid c1d83899-e380-49f9-a87d-8e78bc089ebf)
  )
  (label "UART_RX" (at 185.42 59.69 180) (fields_autoplaced)
    (effects (font (size 1.27 1.27)) (justify right bottom))
    (uuid c70d9ef3-bfeb-47e0-a1e1-9aeba3da7864)
  )
  (label "SCL" (at 185.42 76.2 180) (fields_autoplaced)
    (effects (font (size 1.27 1.27)) (justify right bottom))
    (uuid d1262c4d-2245-4c4f-8f35-7bb32cd9e21e)
  )
  (label "SDA" (at 208.28 62.23 180) (fields_autoplaced)
    (effects (font (size 1.27 1.27)) (justify right bottom))
    (uuid d22e95aa-f3db-4fbc-a331-048a2523233e)
  )
  (label "MISO" (at 185.42 132.08 180) (fields_autoplaced)
    (effects (font (size 1.27 1.27)) (justify right bottom))
    (uuid ee27d19c-8dca-4ac8-a760-6dfd54d28071)
  )
  (label "SCL" (at 160.02 80.01 0) (fields_autoplaced)
    (effects (font (size 1.27 1.27)) (justify left bottom))
    (uuid f2c93195-af12-4d3e-acdf-bdd0ff675c24)
  )

  (symbol (lib_id "MCU_Microchip_ATtiny:ATtiny817-M") (at 144.78 95.25 0) (unit 1)
    (in_bom yes) (on_board yes) (dnp no)
    (uuid 00000000-0000-0000-0000-00005d1e633d)
    (property "Reference" "U2" (at 129.54 66.04 0)
      (effects (font (size 1.27 1.27)))
    )
    (property "Value" "ATtiny817-M" (at 134.62 68.58 0)
      (effects (font (size 1.27 1.27)))
    )
    (property "Footprint" "Package_DFN_QFN:QFN-24-1EP_4x4mm_P0.5mm_EP2.6x2.6mm" (at 144.78 95.25 0)
      (effects (font (size 1.27 1.27) italic) hide)
    )
    (property "Datasheet" "http://ww1.microchip.com/downloads/en/DeviceDoc/40001901B.pdf" (at 144.78 95.25 0)
      (effects (font (size 1.27 1.27)) hide)
    )
    (pin "1" (uuid 240b6710-d6f8-44fe-98cf-2949ab4a9c11))
    (pin "10" (uuid a2a1bf4c-34eb-4313-bdff-023937f75c46))
    (pin "11" (uuid 3ff8a0b5-2f62-43c4-91fa-92e384d4acb9))
    (pin "12" (uuid 1f6c33fd-53d6-4b46-8c44-6e86103c343b))
    (pin "13" (uuid dee29706-d442-4ee4-95b9-3db6d1df4fb2))
    (pin "14" (uuid c4f0935d-2e39-4377-acd5-ce40dcae6269))
    (pin "15" (uuid d3fed4cc-a356-4096-837e-9718a38e7f9d))
    (pin "16" (uuid 2f817fcf-0536-4fec-b4a4-0b995265cae3))
    (pin "17" (uuid 47ef71dc-6c92-4e18-b798-f9d2062fdcba))
    (pin "18" (uuid 8860f633-76e6-48a4-acbe-09aac3a44bcf))
    (pin "19" (uuid 328cc34c-4f81-4992-9a8d-e7296e0e5ce4))
    (pin "2" (uuid 1ca49d57-c61e-4e6f-b2b4-6469a5bf07fd))
    (pin "20" (uuid 4940d8bf-82b4-41ad-9dd3-ed47e01daa47))
    (pin "21" (uuid 7c9ba3d6-95c3-4c2c-9ead-6739b490045e))
    (pin "22" (uuid 1af3783e-e102-490c-a8e7-60d5d6441913))
    (pin "23" (uuid 28bc7544-de38-440b-bcb9-9c5464212a88))
    (pin "24" (uuid 03fdbad5-3215-4e28-a41e-25abcf0c1d4d))
    (pin "25" (uuid f4af7cac-0297-411b-a037-c4c7f1bd858f))
    (pin "3" (uuid 9d0d6feb-48e3-4f5e-9be9-e92c030dfc9d))
    (pin "4" (uuid 3ee5e203-0a5e-4ba6-b209-3de0a6dc94f1))
    (pin "5" (uuid f6da9f85-7979-42da-8a43-09d39eb80f16))
    (pin "6" (uuid 98901507-a30f-46c5-82a1-b63397592c35))
    (pin "7" (uuid c3d6e08b-f0d2-496d-905f-deb56937883f))
    (pin "8" (uuid 6b317f00-b4e3-4395-a2e9-d4cc2399e67d))
    (pin "9" (uuid 88fe126b-6e9a-456a-8fbc-e70bd03c6c58))
    (instances
      (project "attiny817_accelboard"
        (path "/e63e39d7-6ac0-4ffd-8aa3-1841a4541b55"
          (reference "U2") (unit 1)
        )
      )
    )
  )

  (symbol (lib_id "Switch:SW_SPDT") (at 58.42 46.99 0) (unit 1)
    (in_bom yes) (on_board yes) (dnp no)
    (uuid 00000000-0000-0000-0000-00005d1e78fe)
    (property "Reference" "SW1" (at 58.42 39.751 0)
      (effects (font (size 1.27 1.27)))
    )
    (property "Value" "SW_SPDT" (at 58.42 42.0624 0)
      (effects (font (size 1.27 1.27)))
    )
    (property "Footprint" "Connector_PinHeader_2.54mm:PinHeader_1x03_P2.54mm_Vertical" (at 58.42 46.99 0)
      (effects (font (size 1.27 1.27)) hide)
    )
    (property "Datasheet" "~" (at 58.42 46.99 0)
      (effects (font (size 1.27 1.27)) hide)
    )
    (pin "1" (uuid 21d8ba26-183e-45df-b16d-1347de20a1de))
    (pin "2" (uuid 34e7aa40-8f76-4a6c-a98e-47309fe3c60a))
    (pin "3" (uuid b512af95-6e60-4278-acbd-bc70adc74917))
    (instances
      (project "attiny817_accelboard"
        (path "/e63e39d7-6ac0-4ffd-8aa3-1841a4541b55"
          (reference "SW1") (unit 1)
        )
      )
    )
  )

  (symbol (lib_id "Connector_Generic:Conn_01x02") (at 43.18 49.53 180) (unit 1)
    (in_bom yes) (on_board yes) (dnp no)
    (uuid 00000000-0000-0000-0000-00005d1e8670)
    (property "Reference" "J1" (at 45.2628 41.275 0)
      (effects (font (size 1.27 1.27)))
    )
    (property "Value" "BATT" (at 45.2628 43.5864 0)
      (effects (font (size 1.27 1.27)))
    )
    (property "Footprint" "Connector_PinHeader_2.54mm:PinHeader_1x02_P2.54mm_Vertical" (at 43.18 49.53 0)
      (effects (font (size 1.27 1.27)) hide)
    )
    (property "Datasheet" "~" (at 43.18 49.53 0)
      (effects (font (size 1.27 1.27)) hide)
    )
    (pin "1" (uuid b6211e8d-f430-4db2-8e0d-3f885c9ee9b9))
    (pin "2" (uuid 77303947-4576-4236-98c9-c6d93b8c864e))
    (instances
      (project "attiny817_accelboard"
        (path "/e63e39d7-6ac0-4ffd-8aa3-1841a4541b55"
          (reference "J1") (unit 1)
        )
      )
    )
  )

  (symbol (lib_id "Device:LED_ARGB") (at 191.77 93.98 180) (unit 1)
    (in_bom yes) (on_board yes) (dnp no)
    (uuid 00000000-0000-0000-0000-00005d1e9046)
    (property "Reference" "D1" (at 191.77 82.1182 0)
      (effects (font (size 1.27 1.27)))
    )
    (property "Value" "LED_ARGB" (at 191.77 84.4296 0)
      (effects (font (size 1.27 1.27)))
    )
    (property "Footprint" "LED_SMD:LED_Cree-PLCC4_2x2mm_CW" (at 191.77 92.71 0)
      (effects (font (size 1.27 1.27)) hide)
    )
    (property "Datasheet" "~" (at 191.77 92.71 0)
      (effects (font (size 1.27 1.27)) hide)
    )
    (pin "1" (uuid 447801ef-def9-428c-bdf2-c65bc975bdc4))
    (pin "2" (uuid 8efdfbe4-7006-4eec-8826-642e49cfcd15))
    (pin "3" (uuid 7eaafc97-d6c0-4a49-9c47-1ba62ebab6ed))
    (pin "4" (uuid f606f872-e420-4424-a04a-342b9bf2776b))
    (instances
      (project "attiny817_accelboard"
        (path "/e63e39d7-6ac0-4ffd-8aa3-1841a4541b55"
          (reference "D1") (unit 1)
        )
      )
    )
  )

  (symbol (lib_id "someparts:MC3413") (at 217.17 58.42 0) (unit 1)
    (in_bom yes) (on_board yes) (dnp no)
    (uuid 00000000-0000-0000-0000-00005d1eeeeb)
    (property "Reference" "U4" (at 216.535 55.499 0)
      (effects (font (size 1.27 1.27)))
    )
    (property "Value" "MC3413" (at 216.535 57.8104 0)
      (effects (font (size 1.27 1.27)))
    )
    (property "Footprint" "Package_LGA:LGA-12_2x2mm_P0.5mm" (at 217.17 58.42 0)
      (effects (font (size 1.27 1.27)) hide)
    )
    (property "Datasheet" "" (at 217.17 58.42 0)
      (effects (font (size 1.27 1.27)) hide)
    )
    (pin "1" (uuid d33e2429-7ac7-4d11-b324-1cd81eedefa8))
    (pin "10" (uuid 84cce8d0-f83b-4f08-af4b-1d62af837a54))
    (pin "11" (uuid 674806d0-adf4-4e26-8839-634224e885ac))
    (pin "12" (uuid da79c04c-a207-48dc-a5d7-8a078322a160))
    (pin "2" (uuid 311ec1bc-41ee-4a00-aa04-1b3f90e70b9a))
    (pin "3" (uuid 9db6e273-f7b0-4ab9-9b75-cb2195ede133))
    (pin "4" (uuid 3f0a7db3-4919-4577-a870-bdb03581b3c1))
    (pin "5" (uuid 36be125c-d820-40b1-81f5-37cb6c4c1027))
    (pin "6" (uuid 0a7edd6c-84ed-405a-9db2-128d680b63b0))
    (pin "7" (uuid 510cc5c4-e61c-4e17-93d1-bd10b62ad6fb))
    (pin "8" (uuid 31cb093a-c78d-4118-a7c2-a80d0cba094b))
    (pin "9" (uuid 33256a6e-b053-471b-ac8e-081487946d0e))
    (instances
      (project "attiny817_accelboard"
        (path "/e63e39d7-6ac0-4ffd-8aa3-1841a4541b55"
          (reference "U4") (unit 1)
        )
      )
    )
  )

  (symbol (lib_id "RF:NRF24L01_Breakout") (at 198.12 137.16 0) (unit 1)
    (in_bom yes) (on_board yes) (dnp no)
    (uuid 00000000-0000-0000-0000-00005d1f0596)
    (property "Reference" "U3" (at 207.772 135.9916 0)
      (effects (font (size 1.27 1.27)) (justify left))
    )
    (property "Value" "NRF24L01_Breakout" (at 207.772 138.303 0)
      (effects (font (size 1.27 1.27)) (justify left))
    )
    (property "Footprint" "RF_Module:nRF24L01_Breakout" (at 201.93 121.92 0)
      (effects (font (size 1.27 1.27) italic) (justify left) hide)
    )
    (property "Datasheet" "http://www.nordicsemi.com/eng/content/download/2730/34105/file/nRF24L01_Product_Specification_v2_0.pdf" (at 198.12 139.7 0)
      (effects (font (size 1.27 1.27)) hide)
    )
    (pin "1" (uuid 3c790920-6551-41bd-8128-bcb5539e8c7b))
    (pin "2" (uuid 9117df01-ce07-4964-bd52-15028b2e7842))
    (pin "3" (uuid e233b022-d671-46de-872f-abe9ed9915a7))
    (pin "4" (uuid f0639fa2-b347-4cc0-b78f-f09b54edb65a))
    (pin "5" (uuid 1d5bd0de-4b9d-466b-8ba4-122ea49476d9))
    (pin "6" (uuid ee3e7110-e6e1-4b91-9445-d09407d26c9b))
    (pin "7" (uuid ba5601ce-6c96-4cae-bf2b-d805b25e0ecf))
    (pin "8" (uuid c8c88595-90d0-4c32-94f6-a94148366dde))
    (instances
      (project "attiny817_accelboard"
        (path "/e63e39d7-6ac0-4ffd-8aa3-1841a4541b55"
          (reference "U3") (unit 1)
        )
      )
    )
  )

  (symbol (lib_id "Regulator_Linear:MIC5365-3.3YC5") (at 91.44 46.99 0) (unit 1)
    (in_bom yes) (on_board yes) (dnp no)
    (uuid 00000000-0000-0000-0000-00005d1f198d)
    (property "Reference" "U1" (at 91.44 37.6682 0)
      (effects (font (size 1.27 1.27)))
    )
    (property "Value" "MIC5365-3.3YC5" (at 91.44 39.9796 0)
      (effects (font (size 1.27 1.27)))
    )
    (property "Footprint" "Package_TO_SOT_SMD:SOT-353_SC-70-5" (at 91.44 38.1 0)
      (effects (font (size 1.27 1.27)) hide)
    )
    (property "Datasheet" "http://ww1.microchip.com/downloads/en/DeviceDoc/mic5365.pdf" (at 83.82 26.67 0)
      (effects (font (size 1.27 1.27)) hide)
    )
    (pin "1" (uuid 03117f4a-886a-42d6-aee5-be411f54d576))
    (pin "2" (uuid 2b4c337c-e381-425c-a127-71eef88ed016))
    (pin "3" (uuid 1953f108-5f37-4543-a471-8c1f965f6610))
    (pin "4" (uuid 617a295b-33e8-4933-aea0-2422d1059ab0))
    (pin "5" (uuid 8f78425c-ac3c-47dc-b959-24850d3cd97c))
    (instances
      (project "attiny817_accelboard"
        (path "/e63e39d7-6ac0-4ffd-8aa3-1841a4541b55"
          (reference "U1") (unit 1)
        )
      )
    )
  )

  (symbol (lib_id "Connector_Generic:Conn_01x02") (at 190.5 73.66 0) (unit 1)
    (in_bom yes) (on_board yes) (dnp no)
    (uuid 00000000-0000-0000-0000-00005d1f264c)
    (property "Reference" "J4" (at 192.532 73.8632 0)
      (effects (font (size 1.27 1.27)) (justify left))
    )
    (property "Value" "I2C" (at 192.532 76.1746 0)
      (effects (font (size 1.27 1.27)) (justify left))
    )
    (property "Footprint" "Connector_PinHeader_1.27mm:PinHeader_1x02_P1.27mm_Vertical" (at 190.5 73.66 0)
      (effects (font (size 1.27 1.27)) hide)
    )
    (property "Datasheet" "~" (at 190.5 73.66 0)
      (effects (font (size 1.27 1.27)) hide)
    )
    (pin "1" (uuid edc3db00-70bb-49a5-9c6e-aac586ff032f))
    (pin "2" (uuid da00d14f-98fb-46d3-93bd-9411ac9d8281))
    (instances
      (project "attiny817_accelboard"
        (path "/e63e39d7-6ac0-4ffd-8aa3-1841a4541b55"
          (reference "J4") (unit 1)
        )
      )
    )
  )

  (symbol (lib_id "Connector_Generic:Conn_01x03") (at 190.5 59.69 0) (mirror x) (unit 1)
    (in_bom yes) (on_board yes) (dnp no)
    (uuid 00000000-0000-0000-0000-00005d1f3d21)
    (property "Reference" "J3" (at 194.31 58.42 0)
      (effects (font (size 1.27 1.27)))
    )
    (property "Value" "UART" (at 195.58 60.96 0)
      (effects (font (size 1.27 1.27)))
    )
    (property "Footprint" "Connector_PinHeader_2.54mm:PinHeader_1x03_P2.54mm_Vertical" (at 190.5 59.69 0)
      (effects (font (size 1.27 1.27)) hide)
    )
    (property "Datasheet" "~" (at 190.5 59.69 0)
      (effects (font (size 1.27 1.27)) hide)
    )
    (pin "1" (uuid 156789ac-0299-4e4b-9bdc-aae415420eec))
    (pin "2" (uuid 2f16b421-b77d-48e1-81b3-24b7ee54c5bd))
    (pin "3" (uuid fda6fba3-26de-4533-ab37-f87bb8ca8965))
    (instances
      (project "attiny817_accelboard"
        (path "/e63e39d7-6ac0-4ffd-8aa3-1841a4541b55"
          (reference "J3") (unit 1)
        )
      )
    )
  )

  (symbol (lib_id "Connector_Generic:Conn_01x03") (at 190.5 43.18 0) (mirror x) (unit 1)
    (in_bom yes) (on_board yes) (dnp no)
    (uuid 00000000-0000-0000-0000-00005d1f5f1a)
    (property "Reference" "J2" (at 194.31 41.91 0)
      (effects (font (size 1.27 1.27)))
    )
    (property "Value" "UPDI" (at 195.58 44.45 0)
      (effects (font (size 1.27 1.27)))
    )
    (property "Footprint" "Connector_PinHeader_2.54mm:PinHeader_1x03_P2.54mm_Vertical" (at 190.5 43.18 0)
      (effects (font (size 1.27 1.27)) hide)
    )
    (property "Datasheet" "~" (at 190.5 43.18 0)
      (effects (font (size 1.27 1.27)) hide)
    )
    (pin "1" (uuid 64828568-6688-4d85-9b20-ec10527ca0b2))
    (pin "2" (uuid eb64b7d2-d623-452c-9703-2bb0265ee337))
    (pin "3" (uuid 05c902b1-35e4-4cf2-9033-054e1fbc51c3))
    (instances
      (project "attiny817_accelboard"
        (path "/e63e39d7-6ac0-4ffd-8aa3-1841a4541b55"
          (reference "J2") (unit 1)
        )
      )
    )
  )

  (symbol (lib_id "power:GND") (at 48.26 52.07 0) (unit 1)
    (in_bom yes) (on_board yes) (dnp no)
    (uuid 00000000-0000-0000-0000-00005d1fb041)
    (property "Reference" "#PWR0101" (at 48.26 58.42 0)
      (effects (font (size 1.27 1.27)) hide)
    )
    (property "Value" "GND" (at 48.387 56.4642 0)
      (effects (font (size 1.27 1.27)))
    )
    (property "Footprint" "" (at 48.26 52.07 0)
      (effects (font (size 1.27 1.27)) hide)
    )
    (property "Datasheet" "" (at 48.26 52.07 0)
      (effects (font (size 1.27 1.27)) hide)
    )
    (pin "1" (uuid 8517d222-d98b-4bea-ba28-d603618b338d))
    (instances
      (project "attiny817_accelboard"
        (path "/e63e39d7-6ac0-4ffd-8aa3-1841a4541b55"
          (reference "#PWR0101") (unit 1)
        )
      )
    )
  )

  (symbol (lib_id "Device:C_Small") (at 149.86 58.42 0) (unit 1)
    (in_bom yes) (on_board yes) (dnp no)
    (uuid 00000000-0000-0000-0000-00005d2003da)
    (property "Reference" "C3" (at 152.1968 57.2516 0)
      (effects (font (size 1.27 1.27)) (justify left))
    )
    (property "Value" "10u" (at 152.1968 59.563 0)
      (effects (font (size 1.27 1.27)) (justify left))
    )
    (property "Footprint" "Capacitor_SMD:C_0805_2012Metric_Pad1.15x1.40mm_HandSolder" (at 149.86 58.42 0)
      (effects (font (size 1.27 1.27)) hide)
    )
    (property "Datasheet" "~" (at 149.86 58.42 0)
      (effects (font (size 1.27 1.27)) hide)
    )
    (pin "1" (uuid bd0acae4-a9b4-47df-b2ac-e56f0915c546))
    (pin "2" (uuid 7f21a6e6-30fd-4c95-bccb-b1b235eab5b0))
    (instances
      (project "attiny817_accelboard"
        (path "/e63e39d7-6ac0-4ffd-8aa3-1841a4541b55"
          (reference "C3") (unit 1)
        )
      )
    )
  )

  (symbol (lib_id "Device:C_Small") (at 157.48 58.42 0) (unit 1)
    (in_bom yes) (on_board yes) (dnp no)
    (uuid 00000000-0000-0000-0000-00005d200b0e)
    (property "Reference" "C4" (at 159.8168 57.2516 0)
      (effects (font (size 1.27 1.27)) (justify left))
    )
    (property "Value" "0.1u" (at 159.8168 59.563 0)
      (effects (font (size 1.27 1.27)) (justify left))
    )
    (property "Footprint" "Capacitor_SMD:C_0805_2012Metric_Pad1.15x1.40mm_HandSolder" (at 157.48 58.42 0)
      (effects (font (size 1.27 1.27)) hide)
    )
    (property "Datasheet" "~" (at 157.48 58.42 0)
      (effects (font (size 1.27 1.27)) hide)
    )
    (pin "1" (uuid 2f9ae238-1fb9-4e15-8fa1-677f80c040a6))
    (pin "2" (uuid 4efa0593-3f72-4cc8-9012-dc618da5c7b1))
    (instances
      (project "attiny817_accelboard"
        (path "/e63e39d7-6ac0-4ffd-8aa3-1841a4541b55"
          (reference "C4") (unit 1)
        )
      )
    )
  )

  (symbol (lib_id "power:GND") (at 153.67 63.5 0) (unit 1)
    (in_bom yes) (on_board yes) (dnp no)
    (uuid 00000000-0000-0000-0000-00005d20565e)
    (property "Reference" "#PWR0102" (at 153.67 69.85 0)
      (effects (font (size 1.27 1.27)) hide)
    )
    (property "Value" "GND" (at 153.797 67.8942 0)
      (effects (font (size 1.27 1.27)))
    )
    (property "Footprint" "" (at 153.67 63.5 0)
      (effects (font (size 1.27 1.27)) hide)
    )
    (property "Datasheet" "" (at 153.67 63.5 0)
      (effects (font (size 1.27 1.27)) hide)
    )
    (pin "1" (uuid c2cd2136-b152-4c8d-8289-a7f02960a202))
    (instances
      (project "attiny817_accelboard"
        (path "/e63e39d7-6ac0-4ffd-8aa3-1841a4541b55"
          (reference "#PWR0102") (unit 1)
        )
      )
    )
  )

  (symbol (lib_id "power:+3.3V") (at 144.78 52.07 0) (unit 1)
    (in_bom yes) (on_board yes) (dnp no)
    (uuid 00000000-0000-0000-0000-00005d2097d2)
    (property "Reference" "#PWR0103" (at 144.78 55.88 0)
      (effects (font (size 1.27 1.27)) hide)
    )
    (property "Value" "+3.3V" (at 145.161 47.6758 0)
      (effects (font (size 1.27 1.27)))
    )
    (property "Footprint" "" (at 144.78 52.07 0)
      (effects (font (size 1.27 1.27)) hide)
    )
    (property "Datasheet" "" (at 144.78 52.07 0)
      (effects (font (size 1.27 1.27)) hide)
    )
    (pin "1" (uuid 3172cf42-0a34-4fa0-a48e-8858926a5bb0))
    (instances
      (project "attiny817_accelboard"
        (path "/e63e39d7-6ac0-4ffd-8aa3-1841a4541b55"
          (reference "#PWR0103") (unit 1)
        )
      )
    )
  )

  (symbol (lib_id "power:GND") (at 144.78 124.46 0) (unit 1)
    (in_bom yes) (on_board yes) (dnp no)
    (uuid 00000000-0000-0000-0000-00005d20a07e)
    (property "Reference" "#PWR0104" (at 144.78 130.81 0)
      (effects (font (size 1.27 1.27)) hide)
    )
    (property "Value" "GND" (at 144.907 128.8542 0)
      (effects (font (size 1.27 1.27)))
    )
    (property "Footprint" "" (at 144.78 124.46 0)
      (effects (font (size 1.27 1.27)) hide)
    )
    (property "Datasheet" "" (at 144.78 124.46 0)
      (effects (font (size 1.27 1.27)) hide)
    )
    (pin "1" (uuid ea52f425-21e3-4e13-85b2-3a691882f3b5))
    (instances
      (project "attiny817_accelboard"
        (path "/e63e39d7-6ac0-4ffd-8aa3-1841a4541b55"
          (reference "#PWR0104") (unit 1)
        )
      )
    )
  )

  (symbol (lib_id "power:+3.3V") (at 177.8 40.64 0) (unit 1)
    (in_bom yes) (on_board yes) (dnp no)
    (uuid 00000000-0000-0000-0000-00005d20cf9b)
    (property "Reference" "#PWR0105" (at 177.8 44.45 0)
      (effects (font (size 1.27 1.27)) hide)
    )
    (property "Value" "+3.3V" (at 178.181 36.2458 0)
      (effects (font (size 1.27 1.27)))
    )
    (property "Footprint" "" (at 177.8 40.64 0)
      (effects (font (size 1.27 1.27)) hide)
    )
    (property "Datasheet" "" (at 177.8 40.64 0)
      (effects (font (size 1.27 1.27)) hide)
    )
    (pin "1" (uuid 210013bf-6406-44cc-a685-766765aa871b))
    (instances
      (project "attiny817_accelboard"
        (path "/e63e39d7-6ac0-4ffd-8aa3-1841a4541b55"
          (reference "#PWR0105") (unit 1)
        )
      )
    )
  )

  (symbol (lib_id "power:GND") (at 177.8 48.26 0) (unit 1)
    (in_bom yes) (on_board yes) (dnp no)
    (uuid 00000000-0000-0000-0000-00005d20d537)
    (property "Reference" "#PWR0106" (at 177.8 54.61 0)
      (effects (font (size 1.27 1.27)) hide)
    )
    (property "Value" "GND" (at 177.927 52.6542 0)
      (effects (font (size 1.27 1.27)))
    )
    (property "Footprint" "" (at 177.8 48.26 0)
      (effects (font (size 1.27 1.27)) hide)
    )
    (property "Datasheet" "" (at 177.8 48.26 0)
      (effects (font (size 1.27 1.27)) hide)
    )
    (pin "1" (uuid 9ad3674e-fec8-442e-982a-b2ce0a8e9228))
    (instances
      (project "attiny817_accelboard"
        (path "/e63e39d7-6ac0-4ffd-8aa3-1841a4541b55"
          (reference "#PWR0106") (unit 1)
        )
      )
    )
  )

  (symbol (lib_id "power:GND") (at 182.88 64.77 0) (unit 1)
    (in_bom yes) (on_board yes) (dnp no)
    (uuid 00000000-0000-0000-0000-00005d213d92)
    (property "Reference" "#PWR0107" (at 182.88 71.12 0)
      (effects (font (size 1.27 1.27)) hide)
    )
    (property "Value" "GND" (at 183.007 69.1642 0)
      (effects (font (size 1.27 1.27)))
    )
    (property "Footprint" "" (at 182.88 64.77 0)
      (effects (font (size 1.27 1.27)) hide)
    )
    (property "Datasheet" "" (at 182.88 64.77 0)
      (effects (font (size 1.27 1.27)) hide)
    )
    (pin "1" (uuid 72b8bd2c-7322-4211-94c6-b8b57c1ae45f))
    (instances
      (project "attiny817_accelboard"
        (path "/e63e39d7-6ac0-4ffd-8aa3-1841a4541b55"
          (reference "#PWR0107") (unit 1)
        )
      )
    )
  )

  (symbol (lib_id "Device:R_Small") (at 215.9 44.45 0) (unit 1)
    (in_bom yes) (on_board yes) (dnp no)
    (uuid 00000000-0000-0000-0000-00005d219403)
    (property "Reference" "R1" (at 217.3986 43.2816 0)
      (effects (font (size 1.27 1.27)) (justify left))
    )
    (property "Value" "10k" (at 217.3986 45.593 0)
      (effects (font (size 1.27 1.27)) (justify left))
    )
    (property "Footprint" "Resistor_SMD:R_0603_1608Metric_Pad1.05x0.95mm_HandSolder" (at 215.9 44.45 0)
      (effects (font (size 1.27 1.27)) hide)
    )
    (property "Datasheet" "~" (at 215.9 44.45 0)
      (effects (font (size 1.27 1.27)) hide)
    )
    (pin "1" (uuid 4b6b7c47-5e11-4065-b26e-9c14c9c8ee50))
    (pin "2" (uuid ae47c2d7-b8fb-46e0-ae3b-9639ea5f3459))
    (instances
      (project "attiny817_accelboard"
        (path "/e63e39d7-6ac0-4ffd-8aa3-1841a4541b55"
          (reference "R1") (unit 1)
        )
      )
    )
  )

  (symbol (lib_id "Device:R_Small") (at 223.52 44.45 0) (unit 1)
    (in_bom yes) (on_board yes) (dnp no)
    (uuid 00000000-0000-0000-0000-00005d219aa7)
    (property "Reference" "R2" (at 225.0186 43.2816 0)
      (effects (font (size 1.27 1.27)) (justify left))
    )
    (property "Value" "10k" (at 225.0186 45.593 0)
      (effects (font (size 1.27 1.27)) (justify left))
    )
    (property "Footprint" "Resistor_SMD:R_0603_1608Metric_Pad1.05x0.95mm_HandSolder" (at 223.52 44.45 0)
      (effects (font (size 1.27 1.27)) hide)
    )
    (property "Datasheet" "~" (at 223.52 44.45 0)
      (effects (font (size 1.27 1.27)) hide)
    )
    (pin "1" (uuid 6fbe5d8d-e43a-4207-a531-c4dfe41759ce))
    (pin "2" (uuid 709e2cad-144c-4f3b-a5b3-594adebbf063))
    (instances
      (project "attiny817_accelboard"
        (path "/e63e39d7-6ac0-4ffd-8aa3-1841a4541b55"
          (reference "R2") (unit 1)
        )
      )
    )
  )

  (symbol (lib_id "power:+3.3V") (at 219.71 38.1 0) (unit 1)
    (in_bom yes) (on_board yes) (dnp no)
    (uuid 00000000-0000-0000-0000-00005d219de5)
    (property "Reference" "#PWR0108" (at 219.71 41.91 0)
      (effects (font (size 1.27 1.27)) hide)
    )
    (property "Value" "+3.3V" (at 220.091 33.7058 0)
      (effects (font (size 1.27 1.27)))
    )
    (property "Footprint" "" (at 219.71 38.1 0)
      (effects (font (size 1.27 1.27)) hide)
    )
    (property "Datasheet" "" (at 219.71 38.1 0)
      (effects (font (size 1.27 1.27)) hide)
    )
    (pin "1" (uuid 4aa34793-001c-422a-9a9e-f2fa24b7c918))
    (instances
      (project "attiny817_accelboard"
        (path "/e63e39d7-6ac0-4ffd-8aa3-1841a4541b55"
          (reference "#PWR0108") (unit 1)
        )
      )
    )
  )

  (symbol (lib_id "power:GND") (at 207.01 71.12 0) (unit 1)
    (in_bom yes) (on_board yes) (dnp no)
    (uuid 00000000-0000-0000-0000-00005d21e5ce)
    (property "Reference" "#PWR0109" (at 207.01 77.47 0)
      (effects (font (size 1.27 1.27)) hide)
    )
    (property "Value" "GND" (at 207.137 75.5142 0)
      (effects (font (size 1.27 1.27)))
    )
    (property "Footprint" "" (at 207.01 71.12 0)
      (effects (font (size 1.27 1.27)) hide)
    )
    (property "Datasheet" "" (at 207.01 71.12 0)
      (effects (font (size 1.27 1.27)) hide)
    )
    (pin "1" (uuid 00f867ca-6dbc-464d-935c-98c553b1ae35))
    (instances
      (project "attiny817_accelboard"
        (path "/e63e39d7-6ac0-4ffd-8aa3-1841a4541b55"
          (reference "#PWR0109") (unit 1)
        )
      )
    )
  )

  (symbol (lib_id "Device:C_Small") (at 231.14 66.04 0) (unit 1)
    (in_bom yes) (on_board yes) (dnp no)
    (uuid 00000000-0000-0000-0000-00005d21ff59)
    (property "Reference" "C6" (at 233.4768 64.8716 0)
      (effects (font (size 1.27 1.27)) (justify left))
    )
    (property "Value" "0.1u" (at 233.4768 67.183 0)
      (effects (font (size 1.27 1.27)) (justify left))
    )
    (property "Footprint" "Capacitor_SMD:C_0805_2012Metric_Pad1.15x1.40mm_HandSolder" (at 231.14 66.04 0)
      (effects (font (size 1.27 1.27)) hide)
    )
    (property "Datasheet" "~" (at 231.14 66.04 0)
      (effects (font (size 1.27 1.27)) hide)
    )
    (pin "1" (uuid 93f2d0f4-f915-4870-9631-0a126f1c8722))
    (pin "2" (uuid 63cd0c26-352d-4137-80c3-737093ac6b97))
    (instances
      (project "attiny817_accelboard"
        (path "/e63e39d7-6ac0-4ffd-8aa3-1841a4541b55"
          (reference "C6") (unit 1)
        )
      )
    )
  )

  (symbol (lib_id "power:GND") (at 231.14 71.12 0) (unit 1)
    (in_bom yes) (on_board yes) (dnp no)
    (uuid 00000000-0000-0000-0000-00005d22054d)
    (property "Reference" "#PWR0110" (at 231.14 77.47 0)
      (effects (font (size 1.27 1.27)) hide)
    )
    (property "Value" "GND" (at 231.267 75.5142 0)
      (effects (font (size 1.27 1.27)))
    )
    (property "Footprint" "" (at 231.14 71.12 0)
      (effects (font (size 1.27 1.27)) hide)
    )
    (property "Datasheet" "" (at 231.14 71.12 0)
      (effects (font (size 1.27 1.27)) hide)
    )
    (pin "1" (uuid 6b7621fe-1563-414a-8b61-fe85a98caf35))
    (instances
      (project "attiny817_accelboard"
        (path "/e63e39d7-6ac0-4ffd-8aa3-1841a4541b55"
          (reference "#PWR0110") (unit 1)
        )
      )
    )
  )

  (symbol (lib_id "power:+3.3V") (at 231.14 60.96 0) (unit 1)
    (in_bom yes) (on_board yes) (dnp no)
    (uuid 00000000-0000-0000-0000-00005d220815)
    (property "Reference" "#PWR0111" (at 231.14 64.77 0)
      (effects (font (size 1.27 1.27)) hide)
    )
    (property "Value" "+3.3V" (at 231.521 56.5658 0)
      (effects (font (size 1.27 1.27)))
    )
    (property "Footprint" "" (at 231.14 60.96 0)
      (effects (font (size 1.27 1.27)) hide)
    )
    (property "Datasheet" "" (at 231.14 60.96 0)
      (effects (font (size 1.27 1.27)) hide)
    )
    (pin "1" (uuid 6d2304ff-7a57-4d14-a62e-731c4a6eaab1))
    (instances
      (project "attiny817_accelboard"
        (path "/e63e39d7-6ac0-4ffd-8aa3-1841a4541b55"
          (reference "#PWR0111") (unit 1)
        )
      )
    )
  )

  (symbol (lib_id "Device:C_Small") (at 72.39 48.26 0) (unit 1)
    (in_bom yes) (on_board yes) (dnp no)
    (uuid 00000000-0000-0000-0000-00005d223a20)
    (property "Reference" "C1" (at 74.7268 47.0916 0)
      (effects (font (size 1.27 1.27)) (justify left))
    )
    (property "Value" "10u" (at 74.7268 49.403 0)
      (effects (font (size 1.27 1.27)) (justify left))
    )
    (property "Footprint" "Capacitor_SMD:C_0805_2012Metric_Pad1.15x1.40mm_HandSolder" (at 72.39 48.26 0)
      (effects (font (size 1.27 1.27)) hide)
    )
    (property "Datasheet" "~" (at 72.39 48.26 0)
      (effects (font (size 1.27 1.27)) hide)
    )
    (pin "1" (uuid 4d67735c-3208-4374-b6f3-eb7cbf2a4b39))
    (pin "2" (uuid 261789c0-418e-4ec0-8cdf-89abe1f96c5d))
    (instances
      (project "attiny817_accelboard"
        (path "/e63e39d7-6ac0-4ffd-8aa3-1841a4541b55"
          (reference "C1") (unit 1)
        )
      )
    )
  )

  (symbol (lib_id "Device:C_Small") (at 102.87 48.26 0) (unit 1)
    (in_bom yes) (on_board yes) (dnp no)
    (uuid 00000000-0000-0000-0000-00005d2247fc)
    (property "Reference" "C2" (at 105.2068 47.0916 0)
      (effects (font (size 1.27 1.27)) (justify left))
    )
    (property "Value" "10u" (at 105.2068 49.403 0)
      (effects (font (size 1.27 1.27)) (justify left))
    )
    (property "Footprint" "Capacitor_SMD:C_0805_2012Metric_Pad1.15x1.40mm_HandSolder" (at 102.87 48.26 0)
      (effects (font (size 1.27 1.27)) hide)
    )
    (property "Datasheet" "~" (at 102.87 48.26 0)
      (effects (font (size 1.27 1.27)) hide)
    )
    (pin "1" (uuid f8d1576f-fc85-4227-a9f4-84cf671342d4))
    (pin "2" (uuid 43cf5d99-3bf8-401d-8b25-7b30b91e22ed))
    (instances
      (project "attiny817_accelboard"
        (path "/e63e39d7-6ac0-4ffd-8aa3-1841a4541b55"
          (reference "C2") (unit 1)
        )
      )
    )
  )

  (symbol (lib_id "power:GND") (at 91.44 57.15 0) (unit 1)
    (in_bom yes) (on_board yes) (dnp no)
    (uuid 00000000-0000-0000-0000-00005d2287a6)
    (property "Reference" "#PWR0112" (at 91.44 63.5 0)
      (effects (font (size 1.27 1.27)) hide)
    )
    (property "Value" "GND" (at 91.567 61.5442 0)
      (effects (font (size 1.27 1.27)))
    )
    (property "Footprint" "" (at 91.44 57.15 0)
      (effects (font (size 1.27 1.27)) hide)
    )
    (property "Datasheet" "" (at 91.44 57.15 0)
      (effects (font (size 1.27 1.27)) hide)
    )
    (pin "1" (uuid 8c52c558-46b2-49fd-8bab-8181c7aa42f5))
    (instances
      (project "attiny817_accelboard"
        (path "/e63e39d7-6ac0-4ffd-8aa3-1841a4541b55"
          (reference "#PWR0112") (unit 1)
        )
      )
    )
  )

  (symbol (lib_id "power:+3.3V") (at 109.22 39.37 0) (unit 1)
    (in_bom yes) (on_board yes) (dnp no)
    (uuid 00000000-0000-0000-0000-00005d229ab4)
    (property "Reference" "#PWR0113" (at 109.22 43.18 0)
      (effects (font (size 1.27 1.27)) hide)
    )
    (property "Value" "+3.3V" (at 109.601 34.9758 0)
      (effects (font (size 1.27 1.27)))
    )
    (property "Footprint" "" (at 109.22 39.37 0)
      (effects (font (size 1.27 1.27)) hide)
    )
    (property "Datasheet" "" (at 109.22 39.37 0)
      (effects (font (size 1.27 1.27)) hide)
    )
    (pin "1" (uuid 7f091456-4b73-4380-b574-778d43125dd0))
    (instances
      (project "attiny817_accelboard"
        (path "/e63e39d7-6ac0-4ffd-8aa3-1841a4541b55"
          (reference "#PWR0113") (unit 1)
        )
      )
    )
  )

  (symbol (lib_id "power:+3.3V") (at 180.34 87.63 0) (unit 1)
    (in_bom yes) (on_board yes) (dnp no)
    (uuid 00000000-0000-0000-0000-00005d249de1)
    (property "Reference" "#PWR0114" (at 180.34 91.44 0)
      (effects (font (size 1.27 1.27)) hide)
    )
    (property "Value" "+3.3V" (at 180.721 83.2358 0)
      (effects (font (size 1.27 1.27)))
    )
    (property "Footprint" "" (at 180.34 87.63 0)
      (effects (font (size 1.27 1.27)) hide)
    )
    (property "Datasheet" "" (at 180.34 87.63 0)
      (effects (font (size 1.27 1.27)) hide)
    )
    (pin "1" (uuid ce399f7b-eeae-4438-a75b-458f469fdac0))
    (instances
      (project "attiny817_accelboard"
        (path "/e63e39d7-6ac0-4ffd-8aa3-1841a4541b55"
          (reference "#PWR0114") (unit 1)
        )
      )
    )
  )

  (symbol (lib_id "Device:C_Small") (at 203.2 115.57 0) (unit 1)
    (in_bom yes) (on_board yes) (dnp no)
    (uuid 00000000-0000-0000-0000-00005d24e440)
    (property "Reference" "C5" (at 205.5368 114.4016 0)
      (effects (font (size 1.27 1.27)) (justify left))
    )
    (property "Value" "10u" (at 205.5368 116.713 0)
      (effects (font (size 1.27 1.27)) (justify left))
    )
    (property "Footprint" "Capacitor_SMD:C_0805_2012Metric_Pad1.15x1.40mm_HandSolder" (at 203.2 115.57 0)
      (effects (font (size 1.27 1.27)) hide)
    )
    (property "Datasheet" "~" (at 203.2 115.57 0)
      (effects (font (size 1.27 1.27)) hide)
    )
    (pin "1" (uuid d6d585b8-399f-4079-b82d-ec7e073560f0))
    (pin "2" (uuid 80b92773-f7d8-429d-bdd9-f5b885042a36))
    (instances
      (project "attiny817_accelboard"
        (path "/e63e39d7-6ac0-4ffd-8aa3-1841a4541b55"
          (reference "C5") (unit 1)
        )
      )
    )
  )

  (symbol (lib_id "power:GND") (at 203.2 119.38 0) (unit 1)
    (in_bom yes) (on_board yes) (dnp no)
    (uuid 00000000-0000-0000-0000-00005d24f246)
    (property "Reference" "#PWR0115" (at 203.2 125.73 0)
      (effects (font (size 1.27 1.27)) hide)
    )
    (property "Value" "GND" (at 203.327 123.7742 0)
      (effects (font (size 1.27 1.27)))
    )
    (property "Footprint" "" (at 203.2 119.38 0)
      (effects (font (size 1.27 1.27)) hide)
    )
    (property "Datasheet" "" (at 203.2 119.38 0)
      (effects (font (size 1.27 1.27)) hide)
    )
    (pin "1" (uuid ecff4693-f57e-4137-949a-e0edeecc85ad))
    (instances
      (project "attiny817_accelboard"
        (path "/e63e39d7-6ac0-4ffd-8aa3-1841a4541b55"
          (reference "#PWR0115") (unit 1)
        )
      )
    )
  )

  (symbol (lib_id "power:+3.3V") (at 198.12 110.49 0) (unit 1)
    (in_bom yes) (on_board yes) (dnp no)
    (uuid 00000000-0000-0000-0000-00005d253658)
    (property "Reference" "#PWR0116" (at 198.12 114.3 0)
      (effects (font (size 1.27 1.27)) hide)
    )
    (property "Value" "+3.3V" (at 198.501 106.0958 0)
      (effects (font (size 1.27 1.27)))
    )
    (property "Footprint" "" (at 198.12 110.49 0)
      (effects (font (size 1.27 1.27)) hide)
    )
    (property "Datasheet" "" (at 198.12 110.49 0)
      (effects (font (size 1.27 1.27)) hide)
    )
    (pin "1" (uuid 47655006-2890-40b5-8e8d-f4f39d9ba565))
    (instances
      (project "attiny817_accelboard"
        (path "/e63e39d7-6ac0-4ffd-8aa3-1841a4541b55"
          (reference "#PWR0116") (unit 1)
        )
      )
    )
  )

  (symbol (lib_id "power:GND") (at 198.12 153.67 0) (unit 1)
    (in_bom yes) (on_board yes) (dnp no)
    (uuid 00000000-0000-0000-0000-00005d25a0bc)
    (property "Reference" "#PWR0117" (at 198.12 160.02 0)
      (effects (font (size 1.27 1.27)) hide)
    )
    (property "Value" "GND" (at 198.247 158.0642 0)
      (effects (font (size 1.27 1.27)))
    )
    (property "Footprint" "" (at 198.12 153.67 0)
      (effects (font (size 1.27 1.27)) hide)
    )
    (property "Datasheet" "" (at 198.12 153.67 0)
      (effects (font (size 1.27 1.27)) hide)
    )
    (pin "1" (uuid 940bdf7b-250d-4cc6-9d90-48b2de247063))
    (instances
      (project "attiny817_accelboard"
        (path "/e63e39d7-6ac0-4ffd-8aa3-1841a4541b55"
          (reference "#PWR0117") (unit 1)
        )
      )
    )
  )

  (symbol (lib_id "Device:R_Small") (at 204.47 88.9 270) (unit 1)
    (in_bom yes) (on_board yes) (dnp no)
    (uuid 00000000-0000-0000-0000-00005d267d1b)
    (property "Reference" "R3" (at 210.82 86.36 90)
      (effects (font (size 1.27 1.27)))
    )
    (property "Value" "150" (at 210.82 88.9 90)
      (effects (font (size 1.27 1.27)))
    )
    (property "Footprint" "Resistor_SMD:R_0603_1608Metric_Pad1.05x0.95mm_HandSolder" (at 204.47 88.9 0)
      (effects (font (size 1.27 1.27)) hide)
    )
    (property "Datasheet" "~" (at 204.47 88.9 0)
      (effects (font (size 1.27 1.27)) hide)
    )
    (pin "1" (uuid a2043fd9-86c0-4c63-be15-84aded65ab85))
    (pin "2" (uuid 6bbe5c19-6436-400b-bc60-2cbf7f0c55ff))
    (instances
      (project "attiny817_accelboard"
        (path "/e63e39d7-6ac0-4ffd-8aa3-1841a4541b55"
          (reference "R3") (unit 1)
        )
      )
    )
  )

  (symbol (lib_id "Device:R_Small") (at 204.47 93.98 270) (unit 1)
    (in_bom yes) (on_board yes) (dnp no)
    (uuid 00000000-0000-0000-0000-00005d268579)
    (property "Reference" "R4" (at 210.82 91.44 90)
      (effects (font (size 1.27 1.27)))
    )
    (property "Value" "150" (at 210.82 93.98 90)
      (effects (font (size 1.27 1.27)))
    )
    (property "Footprint" "Resistor_SMD:R_0603_1608Metric_Pad1.05x0.95mm_HandSolder" (at 204.47 93.98 0)
      (effects (font (size 1.27 1.27)) hide)
    )
    (property "Datasheet" "~" (at 204.47 93.98 0)
      (effects (font (size 1.27 1.27)) hide)
    )
    (pin "1" (uuid 4a9c2576-a073-4450-8fa3-2efb0bc4e7f4))
    (pin "2" (uuid dfcbdf41-3145-4037-8451-b962b199f47c))
    (instances
      (project "attiny817_accelboard"
        (path "/e63e39d7-6ac0-4ffd-8aa3-1841a4541b55"
          (reference "R4") (unit 1)
        )
      )
    )
  )

  (symbol (lib_id "Device:R_Small") (at 204.47 99.06 270) (unit 1)
    (in_bom yes) (on_board yes) (dnp no)
    (uuid 00000000-0000-0000-0000-00005d268a8b)
    (property "Reference" "R5" (at 210.82 96.52 90)
      (effects (font (size 1.27 1.27)))
    )
    (property "Value" "150" (at 210.82 99.06 90)
      (effects (font (size 1.27 1.27)))
    )
    (property "Footprint" "Resistor_SMD:R_0603_1608Metric_Pad1.05x0.95mm_HandSolder" (at 204.47 99.06 0)
      (effects (font (size 1.27 1.27)) hide)
    )
    (property "Datasheet" "~" (at 204.47 99.06 0)
      (effects (font (size 1.27 1.27)) hide)
    )
    (pin "1" (uuid dfcbd5c7-f0dc-46a6-abb0-3e12bf21780d))
    (pin "2" (uuid 0f18e064-18d9-4ae8-9c79-cf927883e97c))
    (instances
      (project "attiny817_accelboard"
        (path "/e63e39d7-6ac0-4ffd-8aa3-1841a4541b55"
          (reference "R5") (unit 1)
        )
      )
    )
  )

  (symbol (lib_id "power:GND") (at 171.45 100.33 0) (unit 1)
    (in_bom yes) (on_board yes) (dnp no)
    (uuid 00000000-0000-0000-0000-00005d2b3119)
    (property "Reference" "#PWR?" (at 171.45 106.68 0)
      (effects (font (size 1.27 1.27)) hide)
    )
    (property "Value" "GND" (at 171.577 104.7242 0)
      (effects (font (size 1.27 1.27)))
    )
    (property "Footprint" "" (at 171.45 100.33 0)
      (effects (font (size 1.27 1.27)) hide)
    )
    (property "Datasheet" "" (at 171.45 100.33 0)
      (effects (font (size 1.27 1.27)) hide)
    )
    (pin "1" (uuid d2cf8733-14a9-4c23-b276-1bc10c1a5f51))
    (instances
      (project "attiny817_accelboard"
        (path "/e63e39d7-6ac0-4ffd-8aa3-1841a4541b55"
          (reference "#PWR?") (unit 1)
        )
      )
    )
  )

  (sheet_instances
    (path "/" (page "1"))
  )
)
