(kicad_sch (version 20230121) (generator eeschema)

  (uuid 975ad921-d330-495d-a812-58638ba9e7c7)

  (paper "A3")

  (title_block
    (title "Open SVGA")
    (rev "0.14")
    (comment 1 "Copyright DoomN00b")
  )

  (lib_symbols
  )

)
