(kicad_sch (version 20230121) (generator eeschema)

  (uuid e63e39d7-6ac0-4ffd-8aa3-1841a4541b55)

  (paper "A4")

  (lib_symbols
    (symbol "Connector_Generic:Conn_01x02" (pin_names (offset 1.016) hide) (in_bom yes) (on_board yes)
      (property "Reference" "J" (at 0 2.54 0)
        (effects (font (size 1.27 1.27)))
      )
      (property "Value" "Conn_01x02" (at 0 -5.08 0)
        (effects (font (size 1.27 1.27)))
      )
      (property "Footprint" "" (at 0 0 0)
        (effects (font (size 1.27 1.27)) hide)
      )
      (property "Datasheet" "~" (at 0 0 0)
        (effects (font (size 1.27 1.27)) hide)
      )
      (property "ki_keywords" "connector" (at 0 0 0)
        (effects (font (size 1.27 1.27)) hide)
      )
      (property "ki_description" "Generic connector, single row, 01x02, script generated (kicad-library-utils/schlib/autogen/connector/)" (at 0 0 0)
        (effects (font (size 1.27 1.27)) hide)
      )
      (property "ki_fp_filters" "Connector*:*_1x??_*" (at 0 0 0)
        (effects (font (size 1.27 1.27)) hide)
      )
      (symbol "Conn_01x02_1_1"
        (rectangle (start -1.27 -2.413) (end 0 -2.667)
          (stroke (width 0.1524) (type default))
          (fill (type none))
        )
        (rectangle (start -1.27 0.127) (end 0 -0.127)
          (stroke (width 0.1524) (type default))
          (fill (type none))
        )
        (rectangle (start -1.27 1.27) (end 1.27 -3.81)
          (stroke (width 0.254) (type default))
          (fill (type background))
        )
        (pin passive line (at -5.08 0 0) (length 3.81)
          (name "Pin_1" (effects (font (size 1.27 1.27))))
          (number "1" (effects (font (size 1.27 1.27))))
        )
        (pin passive line (at -5.08 -2.54 0) (length 3.81)
          (name "Pin_2" (effects (font (size 1.27 1.27))))
          (number "2" (effects (font (size 1.27 1.27))))
        )
      )
    )
    (symbol "Connector_Generic:Conn_01x04" (pin_names (offset 1.016) hide) (in_bom yes) (on_board yes)
      (property "Reference" "J" (at 0 5.08 0)
        (effects (font (size 1.27 1.27)))
      )
      (property "Value" "Conn_01x04" (at 0 -7.62 0)
        (effects (font (size 1.27 1.27)))
      )
      (property "Footprint" "" (at 0 0 0)
        (effects (font (size 1.27 1.27)) hide)
      )
      (property "Datasheet" "~" (at 0 0 0)
        (effects (font (size 1.27 1.27)) hide)
      )
      (property "ki_keywords" "connector" (at 0 0 0)
        (effects (font (size 1.27 1.27)) hide)
      )
      (property "ki_description" "Generic connector, single row, 01x04, script generated (kicad-library-utils/schlib/autogen/connector/)" (at 0 0 0)
        (effects (font (size 1.27 1.27)) hide)
      )
      (property "ki_fp_filters" "Connector*:*_1x??_*" (at 0 0 0)
        (effects (font (size 1.27 1.27)) hide)
      )
      (symbol "Conn_01x04_1_1"
        (rectangle (start -1.27 -4.953) (end 0 -5.207)
          (stroke (width 0.1524) (type default))
          (fill (type none))
        )
        (rectangle (start -1.27 -2.413) (end 0 -2.667)
          (stroke (width 0.1524) (type default))
          (fill (type none))
        )
        (rectangle (start -1.27 0.127) (end 0 -0.127)
          (stroke (width 0.1524) (type default))
          (fill (type none))
        )
        (rectangle (start -1.27 2.667) (end 0 2.413)
          (stroke (width 0.1524) (type default))
          (fill (type none))
        )
        (rectangle (start -1.27 3.81) (end 1.27 -6.35)
          (stroke (width 0.254) (type default))
          (fill (type background))
        )
        (pin passive line (at -5.08 2.54 0) (length 3.81)
          (name "Pin_1" (effects (font (size 1.27 1.27))))
          (number "1" (effects (font (size 1.27 1.27))))
        )
        (pin passive line (at -5.08 0 0) (length 3.81)
          (name "Pin_2" (effects (font (size 1.27 1.27))))
          (number "2" (effects (font (size 1.27 1.27))))
        )
        (pin passive line (at -5.08 -2.54 0) (length 3.81)
          (name "Pin_3" (effects (font (size 1.27 1.27))))
          (number "3" (effects (font (size 1.27 1.27))))
        )
        (pin passive line (at -5.08 -5.08 0) (length 3.81)
          (name "Pin_4" (effects (font (size 1.27 1.27))))
          (number "4" (effects (font (size 1.27 1.27))))
        )
      )
    )
    (symbol "Connector_Generic:Conn_02x03_Odd_Even" (pin_names (offset 1.016) hide) (in_bom yes) (on_board yes)
      (property "Reference" "J" (at 1.27 5.08 0)
        (effects (font (size 1.27 1.27)))
      )
      (property "Value" "Conn_02x03_Odd_Even" (at 1.27 -5.08 0)
        (effects (font (size 1.27 1.27)))
      )
      (property "Footprint" "" (at 0 0 0)
        (effects (font (size 1.27 1.27)) hide)
      )
      (property "Datasheet" "~" (at 0 0 0)
        (effects (font (size 1.27 1.27)) hide)
      )
      (property "ki_keywords" "connector" (at 0 0 0)
        (effects (font (size 1.27 1.27)) hide)
      )
      (property "ki_description" "Generic connector, double row, 02x03, odd/even pin numbering scheme (row 1 odd numbers, row 2 even numbers), script generated (kicad-library-utils/schlib/autogen/connector/)" (at 0 0 0)
        (effects (font (size 1.27 1.27)) hide)
      )
      (property "ki_fp_filters" "Connector*:*_2x??_*" (at 0 0 0)
        (effects (font (size 1.27 1.27)) hide)
      )
      (symbol "Conn_02x03_Odd_Even_1_1"
        (rectangle (start -1.27 -2.413) (end 0 -2.667)
          (stroke (width 0.1524) (type default))
          (fill (type none))
        )
        (rectangle (start -1.27 0.127) (end 0 -0.127)
          (stroke (width 0.1524) (type default))
          (fill (type none))
        )
        (rectangle (start -1.27 2.667) (end 0 2.413)
          (stroke (width 0.1524) (type default))
          (fill (type none))
        )
        (rectangle (start -1.27 3.81) (end 3.81 -3.81)
          (stroke (width 0.254) (type default))
          (fill (type background))
        )
        (rectangle (start 3.81 -2.413) (end 2.54 -2.667)
          (stroke (width 0.1524) (type default))
          (fill (type none))
        )
        (rectangle (start 3.81 0.127) (end 2.54 -0.127)
          (stroke (width 0.1524) (type default))
          (fill (type none))
        )
        (rectangle (start 3.81 2.667) (end 2.54 2.413)
          (stroke (width 0.1524) (type default))
          (fill (type none))
        )
        (pin passive line (at -5.08 2.54 0) (length 3.81)
          (name "Pin_1" (effects (font (size 1.27 1.27))))
          (number "1" (effects (font (size 1.27 1.27))))
        )
        (pin passive line (at 7.62 2.54 180) (length 3.81)
          (name "Pin_2" (effects (font (size 1.27 1.27))))
          (number "2" (effects (font (size 1.27 1.27))))
        )
        (pin passive line (at -5.08 0 0) (length 3.81)
          (name "Pin_3" (effects (font (size 1.27 1.27))))
          (number "3" (effects (font (size 1.27 1.27))))
        )
        (pin passive line (at 7.62 0 180) (length 3.81)
          (name "Pin_4" (effects (font (size 1.27 1.27))))
          (number "4" (effects (font (size 1.27 1.27))))
        )
        (pin passive line (at -5.08 -2.54 0) (length 3.81)
          (name "Pin_5" (effects (font (size 1.27 1.27))))
          (number "5" (effects (font (size 1.27 1.27))))
        )
        (pin passive line (at 7.62 -2.54 180) (length 3.81)
          (name "Pin_6" (effects (font (size 1.27 1.27))))
          (number "6" (effects (font (size 1.27 1.27))))
        )
      )
    )
    (symbol "Device:C_Small" (pin_numbers hide) (pin_names (offset 0.254) hide) (in_bom yes) (on_board yes)
      (property "Reference" "C" (at 0.254 1.778 0)
        (effects (font (size 1.27 1.27)) (justify left))
      )
      (property "Value" "C_Small" (at 0.254 -2.032 0)
        (effects (font (size 1.27 1.27)) (justify left))
      )
      (property "Footprint" "" (at 0 0 0)
        (effects (font (size 1.27 1.27)) hide)
      )
      (property "Datasheet" "~" (at 0 0 0)
        (effects (font (size 1.27 1.27)) hide)
      )
      (property "ki_keywords" "capacitor cap" (at 0 0 0)
        (effects (font (size 1.27 1.27)) hide)
      )
      (property "ki_description" "Unpolarized capacitor, small symbol" (at 0 0 0)
        (effects (font (size 1.27 1.27)) hide)
      )
      (property "ki_fp_filters" "C_*" (at 0 0 0)
        (effects (font (size 1.27 1.27)) hide)
      )
      (symbol "C_Small_0_1"
        (polyline
          (pts
            (xy -1.524 -0.508)
            (xy 1.524 -0.508)
          )
          (stroke (width 0.3302) (type default))
          (fill (type none))
        )
        (polyline
          (pts
            (xy -1.524 0.508)
            (xy 1.524 0.508)
          )
          (stroke (width 0.3048) (type default))
          (fill (type none))
        )
      )
      (symbol "C_Small_1_1"
        (pin passive line (at 0 2.54 270) (length 2.032)
          (name "~" (effects (font (size 1.27 1.27))))
          (number "1" (effects (font (size 1.27 1.27))))
        )
        (pin passive line (at 0 -2.54 90) (length 2.032)
          (name "~" (effects (font (size 1.27 1.27))))
          (number "2" (effects (font (size 1.27 1.27))))
        )
      )
    )
    (symbol "Device:LED" (pin_numbers hide) (pin_names (offset 1.016) hide) (in_bom yes) (on_board yes)
      (property "Reference" "D" (at 0 2.54 0)
        (effects (font (size 1.27 1.27)))
      )
      (property "Value" "LED" (at 0 -2.54 0)
        (effects (font (size 1.27 1.27)))
      )
      (property "Footprint" "" (at 0 0 0)
        (effects (font (size 1.27 1.27)) hide)
      )
      (property "Datasheet" "~" (at 0 0 0)
        (effects (font (size 1.27 1.27)) hide)
      )
      (property "ki_keywords" "LED diode" (at 0 0 0)
        (effects (font (size 1.27 1.27)) hide)
      )
      (property "ki_description" "Light emitting diode" (at 0 0 0)
        (effects (font (size 1.27 1.27)) hide)
      )
      (property "ki_fp_filters" "LED* LED_SMD:* LED_THT:*" (at 0 0 0)
        (effects (font (size 1.27 1.27)) hide)
      )
      (symbol "LED_0_1"
        (polyline
          (pts
            (xy -1.27 -1.27)
            (xy -1.27 1.27)
          )
          (stroke (width 0.254) (type default))
          (fill (type none))
        )
        (polyline
          (pts
            (xy -1.27 0)
            (xy 1.27 0)
          )
          (stroke (width 0) (type default))
          (fill (type none))
        )
        (polyline
          (pts
            (xy 1.27 -1.27)
            (xy 1.27 1.27)
            (xy -1.27 0)
            (xy 1.27 -1.27)
          )
          (stroke (width 0.254) (type default))
          (fill (type none))
        )
        (polyline
          (pts
            (xy -3.048 -0.762)
            (xy -4.572 -2.286)
            (xy -3.81 -2.286)
            (xy -4.572 -2.286)
            (xy -4.572 -1.524)
          )
          (stroke (width 0) (type default))
          (fill (type none))
        )
        (polyline
          (pts
            (xy -1.778 -0.762)
            (xy -3.302 -2.286)
            (xy -2.54 -2.286)
            (xy -3.302 -2.286)
            (xy -3.302 -1.524)
          )
          (stroke (width 0) (type default))
          (fill (type none))
        )
      )
      (symbol "LED_1_1"
        (pin passive line (at -3.81 0 0) (length 2.54)
          (name "K" (effects (font (size 1.27 1.27))))
          (number "1" (effects (font (size 1.27 1.27))))
        )
        (pin passive line (at 3.81 0 180) (length 2.54)
          (name "A" (effects (font (size 1.27 1.27))))
          (number "2" (effects (font (size 1.27 1.27))))
        )
      )
    )
    (symbol "Device:R_Small" (pin_numbers hide) (pin_names (offset 0.254) hide) (in_bom yes) (on_board yes)
      (property "Reference" "R" (at 0.762 0.508 0)
        (effects (font (size 1.27 1.27)) (justify left))
      )
      (property "Value" "R_Small" (at 0.762 -1.016 0)
        (effects (font (size 1.27 1.27)) (justify left))
      )
      (property "Footprint" "" (at 0 0 0)
        (effects (font (size 1.27 1.27)) hide)
      )
      (property "Datasheet" "~" (at 0 0 0)
        (effects (font (size 1.27 1.27)) hide)
      )
      (property "ki_keywords" "R resistor" (at 0 0 0)
        (effects (font (size 1.27 1.27)) hide)
      )
      (property "ki_description" "Resistor, small symbol" (at 0 0 0)
        (effects (font (size 1.27 1.27)) hide)
      )
      (property "ki_fp_filters" "R_*" (at 0 0 0)
        (effects (font (size 1.27 1.27)) hide)
      )
      (symbol "R_Small_0_1"
        (rectangle (start -0.762 1.778) (end 0.762 -1.778)
          (stroke (width 0.2032) (type default))
          (fill (type none))
        )
      )
      (symbol "R_Small_1_1"
        (pin passive line (at 0 2.54 270) (length 0.762)
          (name "~" (effects (font (size 1.27 1.27))))
          (number "1" (effects (font (size 1.27 1.27))))
        )
        (pin passive line (at 0 -2.54 90) (length 0.762)
          (name "~" (effects (font (size 1.27 1.27))))
          (number "2" (effects (font (size 1.27 1.27))))
        )
      )
    )
    (symbol "Device:Resonator_Small" (pin_names (offset 1.016) hide) (in_bom yes) (on_board yes)
      (property "Reference" "Y" (at 3.175 1.905 0)
        (effects (font (size 1.27 1.27)) (justify left))
      )
      (property "Value" "Resonator_Small" (at 3.175 0 0)
        (effects (font (size 1.27 1.27)) (justify left))
      )
      (property "Footprint" "" (at -0.635 0 0)
        (effects (font (size 1.27 1.27)) hide)
      )
      (property "Datasheet" "~" (at -0.635 0 0)
        (effects (font (size 1.27 1.27)) hide)
      )
      (property "ki_keywords" "ceramic resonator" (at 0 0 0)
        (effects (font (size 1.27 1.27)) hide)
      )
      (property "ki_description" "Three pin ceramic resonator, small symbol" (at 0 0 0)
        (effects (font (size 1.27 1.27)) hide)
      )
      (property "ki_fp_filters" "Filter* Resonator*" (at 0 0 0)
        (effects (font (size 1.27 1.27)) hide)
      )
      (symbol "Resonator_Small_0_1"
        (rectangle (start -3.556 -2.54) (end -1.524 -2.794)
          (stroke (width 0) (type default))
          (fill (type outline))
        )
        (rectangle (start -3.556 -1.778) (end -1.524 -2.032)
          (stroke (width 0) (type default))
          (fill (type outline))
        )
        (circle (center -2.54 0) (radius 0.254)
          (stroke (width 0) (type default))
          (fill (type outline))
        )
        (rectangle (start -0.635 1.905) (end 0.635 -1.905)
          (stroke (width 0.3048) (type default))
          (fill (type none))
        )
        (circle (center 0 -3.81) (radius 0.254)
          (stroke (width 0) (type default))
          (fill (type outline))
        )
        (polyline
          (pts
            (xy -2.54 -1.778)
            (xy -2.54 0)
          )
          (stroke (width 0) (type default))
          (fill (type none))
        )
        (polyline
          (pts
            (xy -2.54 0)
            (xy -1.397 0)
          )
          (stroke (width 0) (type default))
          (fill (type none))
        )
        (polyline
          (pts
            (xy -2.54 1.27)
            (xy -2.54 0)
          )
          (stroke (width 0) (type default))
          (fill (type none))
        )
        (polyline
          (pts
            (xy -1.27 -1.27)
            (xy -1.27 1.27)
          )
          (stroke (width 0.381) (type default))
          (fill (type none))
        )
        (polyline
          (pts
            (xy 1.27 -1.27)
            (xy 1.27 1.27)
          )
          (stroke (width 0.381) (type default))
          (fill (type none))
        )
        (polyline
          (pts
            (xy 1.27 0)
            (xy 2.54 0)
          )
          (stroke (width 0) (type default))
          (fill (type none))
        )
        (polyline
          (pts
            (xy 2.54 0)
            (xy 2.54 -1.778)
          )
          (stroke (width 0) (type default))
          (fill (type none))
        )
        (polyline
          (pts
            (xy 2.54 1.27)
            (xy 2.54 0)
          )
          (stroke (width 0) (type default))
          (fill (type none))
        )
        (polyline
          (pts
            (xy 2.413 -2.794)
            (xy 2.413 -3.81)
            (xy -2.413 -3.81)
            (xy -2.413 -2.667)
          )
          (stroke (width 0) (type default))
          (fill (type none))
        )
        (rectangle (start 1.524 -2.54) (end 3.556 -2.794)
          (stroke (width 0) (type default))
          (fill (type outline))
        )
        (rectangle (start 1.524 -1.778) (end 3.556 -2.032)
          (stroke (width 0) (type default))
          (fill (type outline))
        )
        (circle (center 2.54 0) (radius 0.254)
          (stroke (width 0) (type default))
          (fill (type outline))
        )
      )
      (symbol "Resonator_Small_1_1"
        (pin passive line (at -2.54 2.54 270) (length 1.27)
          (name "1" (effects (font (size 1.27 1.27))))
          (number "1" (effects (font (size 1.27 1.27))))
        )
        (pin passive line (at 0 -5.08 90) (length 1.27)
          (name "2" (effects (font (size 1.27 1.27))))
          (number "2" (effects (font (size 1.27 1.27))))
        )
        (pin passive line (at 2.54 2.54 270) (length 1.27)
          (name "3" (effects (font (size 1.27 1.27))))
          (number "3" (effects (font (size 1.27 1.27))))
        )
      )
    )
    (symbol "Device:RotaryEncoder_Switch" (pin_names (offset 0.254) hide) (in_bom yes) (on_board yes)
      (property "Reference" "SW" (at 0 6.604 0)
        (effects (font (size 1.27 1.27)))
      )
      (property "Value" "RotaryEncoder_Switch" (at 0 -6.604 0)
        (effects (font (size 1.27 1.27)))
      )
      (property "Footprint" "" (at -3.81 4.064 0)
        (effects (font (size 1.27 1.27)) hide)
      )
      (property "Datasheet" "~" (at 0 6.604 0)
        (effects (font (size 1.27 1.27)) hide)
      )
      (property "ki_keywords" "rotary switch encoder switch push button" (at 0 0 0)
        (effects (font (size 1.27 1.27)) hide)
      )
      (property "ki_description" "Rotary encoder, dual channel, incremental quadrate outputs, with switch" (at 0 0 0)
        (effects (font (size 1.27 1.27)) hide)
      )
      (property "ki_fp_filters" "RotaryEncoder*Switch*" (at 0 0 0)
        (effects (font (size 1.27 1.27)) hide)
      )
      (symbol "RotaryEncoder_Switch_0_1"
        (rectangle (start -5.08 5.08) (end 5.08 -5.08)
          (stroke (width 0.254) (type default))
          (fill (type background))
        )
        (circle (center -3.81 0) (radius 0.254)
          (stroke (width 0) (type default))
          (fill (type outline))
        )
        (circle (center -0.381 0) (radius 1.905)
          (stroke (width 0.254) (type default))
          (fill (type none))
        )
        (arc (start -0.381 2.667) (mid -3.0988 -0.0635) (end -0.381 -2.794)
          (stroke (width 0.254) (type default))
          (fill (type none))
        )
        (polyline
          (pts
            (xy -0.635 -1.778)
            (xy -0.635 1.778)
          )
          (stroke (width 0.254) (type default))
          (fill (type none))
        )
        (polyline
          (pts
            (xy -0.381 -1.778)
            (xy -0.381 1.778)
          )
          (stroke (width 0.254) (type default))
          (fill (type none))
        )
        (polyline
          (pts
            (xy -0.127 1.778)
            (xy -0.127 -1.778)
          )
          (stroke (width 0.254) (type default))
          (fill (type none))
        )
        (polyline
          (pts
            (xy 3.81 0)
            (xy 3.429 0)
          )
          (stroke (width 0.254) (type default))
          (fill (type none))
        )
        (polyline
          (pts
            (xy 3.81 1.016)
            (xy 3.81 -1.016)
          )
          (stroke (width 0.254) (type default))
          (fill (type none))
        )
        (polyline
          (pts
            (xy -5.08 -2.54)
            (xy -3.81 -2.54)
            (xy -3.81 -2.032)
          )
          (stroke (width 0) (type default))
          (fill (type none))
        )
        (polyline
          (pts
            (xy -5.08 2.54)
            (xy -3.81 2.54)
            (xy -3.81 2.032)
          )
          (stroke (width 0) (type default))
          (fill (type none))
        )
        (polyline
          (pts
            (xy 0.254 -3.048)
            (xy -0.508 -2.794)
            (xy 0.127 -2.413)
          )
          (stroke (width 0.254) (type default))
          (fill (type none))
        )
        (polyline
          (pts
            (xy 0.254 2.921)
            (xy -0.508 2.667)
            (xy 0.127 2.286)
          )
          (stroke (width 0.254) (type default))
          (fill (type none))
        )
        (polyline
          (pts
            (xy 5.08 -2.54)
            (xy 4.318 -2.54)
            (xy 4.318 -1.016)
          )
          (stroke (width 0.254) (type default))
          (fill (type none))
        )
        (polyline
          (pts
            (xy 5.08 2.54)
            (xy 4.318 2.54)
            (xy 4.318 1.016)
          )
          (stroke (width 0.254) (type default))
          (fill (type none))
        )
        (polyline
          (pts
            (xy -5.08 0)
            (xy -3.81 0)
            (xy -3.81 -1.016)
            (xy -3.302 -2.032)
          )
          (stroke (width 0) (type default))
          (fill (type none))
        )
        (polyline
          (pts
            (xy -4.318 0)
            (xy -3.81 0)
            (xy -3.81 1.016)
            (xy -3.302 2.032)
          )
          (stroke (width 0) (type default))
          (fill (type none))
        )
        (circle (center 4.318 -1.016) (radius 0.127)
          (stroke (width 0.254) (type default))
          (fill (type none))
        )
        (circle (center 4.318 1.016) (radius 0.127)
          (stroke (width 0.254) (type default))
          (fill (type none))
        )
      )
      (symbol "RotaryEncoder_Switch_1_1"
        (pin passive line (at -7.62 2.54 0) (length 2.54)
          (name "A" (effects (font (size 1.27 1.27))))
          (number "A" (effects (font (size 1.27 1.27))))
        )
        (pin passive line (at -7.62 -2.54 0) (length 2.54)
          (name "B" (effects (font (size 1.27 1.27))))
          (number "B" (effects (font (size 1.27 1.27))))
        )
        (pin passive line (at -7.62 0 0) (length 2.54)
          (name "C" (effects (font (size 1.27 1.27))))
          (number "C" (effects (font (size 1.27 1.27))))
        )
        (pin passive line (at 7.62 2.54 180) (length 2.54)
          (name "S1" (effects (font (size 1.27 1.27))))
          (number "S1" (effects (font (size 1.27 1.27))))
        )
        (pin passive line (at 7.62 -2.54 180) (length 2.54)
          (name "S2" (effects (font (size 1.27 1.27))))
          (number "S2" (effects (font (size 1.27 1.27))))
        )
      )
    )
    (symbol "MCU_Microchip_ATmega:ATmega328P-A" (in_bom yes) (on_board yes)
      (property "Reference" "U" (at -12.7 36.83 0)
        (effects (font (size 1.27 1.27)) (justify left bottom))
      )
      (property "Value" "ATmega328P-A" (at 2.54 -36.83 0)
        (effects (font (size 1.27 1.27)) (justify left top))
      )
      (property "Footprint" "Package_QFP:TQFP-32_7x7mm_P0.8mm" (at 0 0 0)
        (effects (font (size 1.27 1.27) italic) hide)
      )
      (property "Datasheet" "http://ww1.microchip.com/downloads/en/DeviceDoc/ATmega328_P%20AVR%20MCU%20with%20picoPower%20Technology%20Data%20Sheet%2040001984A.pdf" (at 0 0 0)
        (effects (font (size 1.27 1.27)) hide)
      )
      (property "ki_keywords" "AVR 8bit Microcontroller MegaAVR PicoPower" (at 0 0 0)
        (effects (font (size 1.27 1.27)) hide)
      )
      (property "ki_description" "20MHz, 32kB Flash, 2kB SRAM, 1kB EEPROM, TQFP-32" (at 0 0 0)
        (effects (font (size 1.27 1.27)) hide)
      )
      (property "ki_fp_filters" "TQFP*7x7mm*P0.8mm*" (at 0 0 0)
        (effects (font (size 1.27 1.27)) hide)
      )
      (symbol "ATmega328P-A_0_1"
        (rectangle (start -12.7 -35.56) (end 12.7 35.56)
          (stroke (width 0.254) (type default))
          (fill (type background))
        )
      )
      (symbol "ATmega328P-A_1_1"
        (pin bidirectional line (at 15.24 -20.32 180) (length 2.54)
          (name "PD3" (effects (font (size 1.27 1.27))))
          (number "1" (effects (font (size 1.27 1.27))))
        )
        (pin bidirectional line (at 15.24 -27.94 180) (length 2.54)
          (name "PD6" (effects (font (size 1.27 1.27))))
          (number "10" (effects (font (size 1.27 1.27))))
        )
        (pin bidirectional line (at 15.24 -30.48 180) (length 2.54)
          (name "PD7" (effects (font (size 1.27 1.27))))
          (number "11" (effects (font (size 1.27 1.27))))
        )
        (pin bidirectional line (at 15.24 30.48 180) (length 2.54)
          (name "PB0" (effects (font (size 1.27 1.27))))
          (number "12" (effects (font (size 1.27 1.27))))
        )
        (pin bidirectional line (at 15.24 27.94 180) (length 2.54)
          (name "PB1" (effects (font (size 1.27 1.27))))
          (number "13" (effects (font (size 1.27 1.27))))
        )
        (pin bidirectional line (at 15.24 25.4 180) (length 2.54)
          (name "PB2" (effects (font (size 1.27 1.27))))
          (number "14" (effects (font (size 1.27 1.27))))
        )
        (pin bidirectional line (at 15.24 22.86 180) (length 2.54)
          (name "PB3" (effects (font (size 1.27 1.27))))
          (number "15" (effects (font (size 1.27 1.27))))
        )
        (pin bidirectional line (at 15.24 20.32 180) (length 2.54)
          (name "PB4" (effects (font (size 1.27 1.27))))
          (number "16" (effects (font (size 1.27 1.27))))
        )
        (pin bidirectional line (at 15.24 17.78 180) (length 2.54)
          (name "PB5" (effects (font (size 1.27 1.27))))
          (number "17" (effects (font (size 1.27 1.27))))
        )
        (pin power_in line (at 2.54 38.1 270) (length 2.54)
          (name "AVCC" (effects (font (size 1.27 1.27))))
          (number "18" (effects (font (size 1.27 1.27))))
        )
        (pin input line (at -15.24 25.4 0) (length 2.54)
          (name "ADC6" (effects (font (size 1.27 1.27))))
          (number "19" (effects (font (size 1.27 1.27))))
        )
        (pin bidirectional line (at 15.24 -22.86 180) (length 2.54)
          (name "PD4" (effects (font (size 1.27 1.27))))
          (number "2" (effects (font (size 1.27 1.27))))
        )
        (pin passive line (at -15.24 30.48 0) (length 2.54)
          (name "AREF" (effects (font (size 1.27 1.27))))
          (number "20" (effects (font (size 1.27 1.27))))
        )
        (pin passive line (at 0 -38.1 90) (length 2.54) hide
          (name "GND" (effects (font (size 1.27 1.27))))
          (number "21" (effects (font (size 1.27 1.27))))
        )
        (pin input line (at -15.24 22.86 0) (length 2.54)
          (name "ADC7" (effects (font (size 1.27 1.27))))
          (number "22" (effects (font (size 1.27 1.27))))
        )
        (pin bidirectional line (at 15.24 7.62 180) (length 2.54)
          (name "PC0" (effects (font (size 1.27 1.27))))
          (number "23" (effects (font (size 1.27 1.27))))
        )
        (pin bidirectional line (at 15.24 5.08 180) (length 2.54)
          (name "PC1" (effects (font (size 1.27 1.27))))
          (number "24" (effects (font (size 1.27 1.27))))
        )
        (pin bidirectional line (at 15.24 2.54 180) (length 2.54)
          (name "PC2" (effects (font (size 1.27 1.27))))
          (number "25" (effects (font (size 1.27 1.27))))
        )
        (pin bidirectional line (at 15.24 0 180) (length 2.54)
          (name "PC3" (effects (font (size 1.27 1.27))))
          (number "26" (effects (font (size 1.27 1.27))))
        )
        (pin bidirectional line (at 15.24 -2.54 180) (length 2.54)
          (name "PC4" (effects (font (size 1.27 1.27))))
          (number "27" (effects (font (size 1.27 1.27))))
        )
        (pin bidirectional line (at 15.24 -5.08 180) (length 2.54)
          (name "PC5" (effects (font (size 1.27 1.27))))
          (number "28" (effects (font (size 1.27 1.27))))
        )
        (pin bidirectional line (at 15.24 -7.62 180) (length 2.54)
          (name "~{RESET}/PC6" (effects (font (size 1.27 1.27))))
          (number "29" (effects (font (size 1.27 1.27))))
        )
        (pin power_in line (at 0 -38.1 90) (length 2.54)
          (name "GND" (effects (font (size 1.27 1.27))))
          (number "3" (effects (font (size 1.27 1.27))))
        )
        (pin bidirectional line (at 15.24 -12.7 180) (length 2.54)
          (name "PD0" (effects (font (size 1.27 1.27))))
          (number "30" (effects (font (size 1.27 1.27))))
        )
        (pin bidirectional line (at 15.24 -15.24 180) (length 2.54)
          (name "PD1" (effects (font (size 1.27 1.27))))
          (number "31" (effects (font (size 1.27 1.27))))
        )
        (pin bidirectional line (at 15.24 -17.78 180) (length 2.54)
          (name "PD2" (effects (font (size 1.27 1.27))))
          (number "32" (effects (font (size 1.27 1.27))))
        )
        (pin power_in line (at 0 38.1 270) (length 2.54)
          (name "VCC" (effects (font (size 1.27 1.27))))
          (number "4" (effects (font (size 1.27 1.27))))
        )
        (pin passive line (at 0 -38.1 90) (length 2.54) hide
          (name "GND" (effects (font (size 1.27 1.27))))
          (number "5" (effects (font (size 1.27 1.27))))
        )
        (pin passive line (at 0 38.1 270) (length 2.54) hide
          (name "VCC" (effects (font (size 1.27 1.27))))
          (number "6" (effects (font (size 1.27 1.27))))
        )
        (pin bidirectional line (at 15.24 15.24 180) (length 2.54)
          (name "XTAL1/PB6" (effects (font (size 1.27 1.27))))
          (number "7" (effects (font (size 1.27 1.27))))
        )
        (pin bidirectional line (at 15.24 12.7 180) (length 2.54)
          (name "XTAL2/PB7" (effects (font (size 1.27 1.27))))
          (number "8" (effects (font (size 1.27 1.27))))
        )
        (pin bidirectional line (at 15.24 -25.4 180) (length 2.54)
          (name "PD5" (effects (font (size 1.27 1.27))))
          (number "9" (effects (font (size 1.27 1.27))))
        )
      )
    )
    (symbol "Switch:SW_SPST" (pin_names (offset 0) hide) (in_bom yes) (on_board yes)
      (property "Reference" "SW" (at 0 3.175 0)
        (effects (font (size 1.27 1.27)))
      )
      (property "Value" "SW_SPST" (at 0 -2.54 0)
        (effects (font (size 1.27 1.27)))
      )
      (property "Footprint" "" (at 0 0 0)
        (effects (font (size 1.27 1.27)) hide)
      )
      (property "Datasheet" "~" (at 0 0 0)
        (effects (font (size 1.27 1.27)) hide)
      )
      (property "ki_keywords" "switch lever" (at 0 0 0)
        (effects (font (size 1.27 1.27)) hide)
      )
      (property "ki_description" "Single Pole Single Throw (SPST) switch" (at 0 0 0)
        (effects (font (size 1.27 1.27)) hide)
      )
      (symbol "SW_SPST_0_0"
        (circle (center -2.032 0) (radius 0.508)
          (stroke (width 0) (type default))
          (fill (type none))
        )
        (polyline
          (pts
            (xy -1.524 0.254)
            (xy 1.524 1.778)
          )
          (stroke (width 0) (type default))
          (fill (type none))
        )
        (circle (center 2.032 0) (radius 0.508)
          (stroke (width 0) (type default))
          (fill (type none))
        )
      )
      (symbol "SW_SPST_1_1"
        (pin passive line (at -5.08 0 0) (length 2.54)
          (name "A" (effects (font (size 1.27 1.27))))
          (number "1" (effects (font (size 1.27 1.27))))
        )
        (pin passive line (at 5.08 0 180) (length 2.54)
          (name "B" (effects (font (size 1.27 1.27))))
          (number "2" (effects (font (size 1.27 1.27))))
        )
      )
    )
    (symbol "power:+5V" (power) (pin_names (offset 0)) (in_bom yes) (on_board yes)
      (property "Reference" "#PWR" (at 0 -3.81 0)
        (effects (font (size 1.27 1.27)) hide)
      )
      (property "Value" "+5V" (at 0 3.556 0)
        (effects (font (size 1.27 1.27)))
      )
      (property "Footprint" "" (at 0 0 0)
        (effects (font (size 1.27 1.27)) hide)
      )
      (property "Datasheet" "" (at 0 0 0)
        (effects (font (size 1.27 1.27)) hide)
      )
      (property "ki_keywords" "power-flag" (at 0 0 0)
        (effects (font (size 1.27 1.27)) hide)
      )
      (property "ki_description" "Power symbol creates a global label with name \"+5V\"" (at 0 0 0)
        (effects (font (size 1.27 1.27)) hide)
      )
      (symbol "+5V_0_1"
        (polyline
          (pts
            (xy -0.762 1.27)
            (xy 0 2.54)
          )
          (stroke (width 0) (type default))
          (fill (type none))
        )
        (polyline
          (pts
            (xy 0 0)
            (xy 0 2.54)
          )
          (stroke (width 0) (type default))
          (fill (type none))
        )
        (polyline
          (pts
            (xy 0 2.54)
            (xy 0.762 1.27)
          )
          (stroke (width 0) (type default))
          (fill (type none))
        )
      )
      (symbol "+5V_1_1"
        (pin power_in line (at 0 0 90) (length 0) hide
          (name "+5V" (effects (font (size 1.27 1.27))))
          (number "1" (effects (font (size 1.27 1.27))))
        )
      )
    )
    (symbol "power:GND" (power) (pin_names (offset 0)) (in_bom yes) (on_board yes)
      (property "Reference" "#PWR" (at 0 -6.35 0)
        (effects (font (size 1.27 1.27)) hide)
      )
      (property "Value" "GND" (at 0 -3.81 0)
        (effects (font (size 1.27 1.27)))
      )
      (property "Footprint" "" (at 0 0 0)
        (effects (font (size 1.27 1.27)) hide)
      )
      (property "Datasheet" "" (at 0 0 0)
        (effects (font (size 1.27 1.27)) hide)
      )
      (property "ki_keywords" "power-flag" (at 0 0 0)
        (effects (font (size 1.27 1.27)) hide)
      )
      (property "ki_description" "Power symbol creates a global label with name \"GND\" , ground" (at 0 0 0)
        (effects (font (size 1.27 1.27)) hide)
      )
      (symbol "GND_0_1"
        (polyline
          (pts
            (xy 0 0)
            (xy 0 -1.27)
            (xy 1.27 -1.27)
            (xy 0 -2.54)
            (xy -1.27 -1.27)
            (xy 0 -1.27)
          )
          (stroke (width 0) (type default))
          (fill (type none))
        )
      )
      (symbol "GND_1_1"
        (pin power_in line (at 0 0 270) (length 0) hide
          (name "GND" (effects (font (size 1.27 1.27))))
          (number "1" (effects (font (size 1.27 1.27))))
        )
      )
    )
    (symbol "power:PWR_FLAG" (power) (pin_numbers hide) (pin_names (offset 0) hide) (in_bom yes) (on_board yes)
      (property "Reference" "#FLG" (at 0 1.905 0)
        (effects (font (size 1.27 1.27)) hide)
      )
      (property "Value" "PWR_FLAG" (at 0 3.81 0)
        (effects (font (size 1.27 1.27)))
      )
      (property "Footprint" "" (at 0 0 0)
        (effects (font (size 1.27 1.27)) hide)
      )
      (property "Datasheet" "~" (at 0 0 0)
        (effects (font (size 1.27 1.27)) hide)
      )
      (property "ki_keywords" "power-flag" (at 0 0 0)
        (effects (font (size 1.27 1.27)) hide)
      )
      (property "ki_description" "Special symbol for telling ERC where power comes from" (at 0 0 0)
        (effects (font (size 1.27 1.27)) hide)
      )
      (symbol "PWR_FLAG_0_0"
        (pin power_out line (at 0 0 90) (length 0)
          (name "pwr" (effects (font (size 1.27 1.27))))
          (number "1" (effects (font (size 1.27 1.27))))
        )
      )
      (symbol "PWR_FLAG_0_1"
        (polyline
          (pts
            (xy 0 0)
            (xy 0 1.27)
            (xy -1.016 1.905)
            (xy 0 2.54)
            (xy 1.016 1.905)
            (xy 0 1.27)
          )
          (stroke (width 0) (type default))
          (fill (type none))
        )
      )
    )
  )

  (junction (at 142.24 53.34) (diameter 0) (color 0 0 0 0)
    (uuid 587a157d-dedf-4558-a037-1a94bbba1848)
  )
  (junction (at 134.62 53.34) (diameter 0) (color 0 0 0 0)
    (uuid 78f88cf6-751c-4e9b-ae75-fb8b6d44ff39)
  )
  (junction (at 234.95 102.87) (diameter 0) (color 0 0 0 0)
    (uuid a05d7640-f2f6-4ba7-8c51-5a4af431fc13)
  )
  (junction (at 110.49 54.61) (diameter 0) (color 0 0 0 0)
    (uuid b603d26a-e034-42fb-8327-b60c5bf9cdd2)
  )
  (junction (at 247.65 68.58) (diameter 0) (color 0 0 0 0)
    (uuid c332fa55-4168-4f55-88a5-f82c7c21040b)
  )
  (junction (at 147.32 53.34) (diameter 0) (color 0 0 0 0)
    (uuid c801d42e-dd94-493e-bd2f-6c3ddad43f55)
  )
  (junction (at 245.11 81.28) (diameter 0) (color 0 0 0 0)
    (uuid d3c11c8f-a73d-4211-934b-a6da255728ad)
  )
  (junction (at 110.49 59.69) (diameter 0) (color 0 0 0 0)
    (uuid fb03d859-dcc9-4533-b352-64830e0e5423)
  )

  (no_connect (at 162.56 77.47) (uuid 0217dfc4-fc13-4699-99ad-d9948522648e))
  (no_connect (at 162.56 100.33) (uuid 1d9cdadc-9036-4a95-b6db-fa7b3b74c869))
  (no_connect (at 132.08 77.47) (uuid 24f7628d-681d-4f0e-8409-40a129e929d9))
  (no_connect (at 162.56 102.87) (uuid 3a7648d8-121a-4921-9b92-9b35b76ce39b))
  (no_connect (at 132.08 80.01) (uuid 3e903008-0276-4a73-8edb-5d9dfde6297c))
  (no_connect (at 162.56 97.79) (uuid 6bfe5804-2ef9-4c65-b2a7-f01e4014370a))
  (no_connect (at 162.56 72.39) (uuid 8da933a9-35f8-42e6-8504-d1bab7264306))
  (no_connect (at 162.56 74.93) (uuid bd5408e4-362d-4e43-9d39-78fb99eb52c8))
  (no_connect (at 162.56 95.25) (uuid c0eca5ed-bc5e-4618-9bcd-80945bea41ed))

  (wire (pts (xy 196.85 99.06) (xy 203.2 99.06))
    (stroke (width 0) (type default))
    (uuid 03c52831-5dc5-43c5-a442-8d23643b46fb)
  )
  (wire (pts (xy 196.85 115.57) (xy 196.85 116.84))
    (stroke (width 0) (type default))
    (uuid 08a7c925-7fae-4530-b0c9-120e185cb318)
  )
  (wire (pts (xy 142.24 53.34) (xy 142.24 54.61))
    (stroke (width 0) (type default))
    (uuid 0d35483a-0b12-46cc-b9f2-896fd6831779)
  )
  (wire (pts (xy 147.32 52.07) (xy 147.32 53.34))
    (stroke (width 0) (type default))
    (uuid 128e34ce-eee7-477d-b905-a493e98db783)
  )
  (wire (pts (xy 252.73 130.81) (xy 252.73 128.27))
    (stroke (width 0) (type default))
    (uuid 13475e15-f37c-4de8-857e-1722b0c39513)
  )
  (wire (pts (xy 234.95 102.87) (xy 234.95 101.6))
    (stroke (width 0) (type default))
    (uuid 13abf99d-5265-4779-8973-e94370fd18ff)
  )
  (wire (pts (xy 234.95 114.3) (xy 234.95 115.57))
    (stroke (width 0) (type default))
    (uuid 15875808-74d5-4210-b8ca-aa8fbc04ae21)
  )
  (wire (pts (xy 201.93 102.87) (xy 201.93 101.6))
    (stroke (width 0) (type default))
    (uuid 181abe7a-f941-42b6-bd46-aaa3131f90fb)
  )
  (wire (pts (xy 234.95 96.52) (xy 234.95 95.25))
    (stroke (width 0) (type default))
    (uuid 1860e030-7a36-4298-b7fc-a16d48ab15ba)
  )
  (wire (pts (xy 110.49 76.2) (xy 110.49 74.93))
    (stroke (width 0) (type default))
    (uuid 1a6d2848-e78e-49fe-8978-e1890f07836f)
  )
  (wire (pts (xy 201.93 78.74) (xy 203.2 78.74))
    (stroke (width 0) (type default))
    (uuid 1bf544e3-5940-4576-9291-2464e95c0ee2)
  )
  (wire (pts (xy 106.68 54.61) (xy 110.49 54.61))
    (stroke (width 0) (type default))
    (uuid 29256b3d-9450-4c0a-a4d4-911f04b9c140)
  )
  (wire (pts (xy 106.68 58.42) (xy 106.68 59.69))
    (stroke (width 0) (type default))
    (uuid 2bef89de-08c7-4a13-9d85-67948d429ca0)
  )
  (wire (pts (xy 196.85 134.62) (xy 194.31 134.62))
    (stroke (width 0) (type default))
    (uuid 2d6db888-4e40-41c8-b701-07170fc894bc)
  )
  (wire (pts (xy 233.68 102.87) (xy 234.95 102.87))
    (stroke (width 0) (type default))
    (uuid 32667662-ae86-4904-b198-3e95f11851bf)
  )
  (wire (pts (xy 134.62 59.69) (xy 134.62 60.96))
    (stroke (width 0) (type default))
    (uuid 35354519-a28c-40c4-befd-0943e98dea53)
  )
  (wire (pts (xy 106.68 55.88) (xy 106.68 54.61))
    (stroke (width 0) (type default))
    (uuid 37e4dc66-4492-4061-908d-7213940a2ec3)
  )
  (wire (pts (xy 234.95 104.14) (xy 234.95 102.87))
    (stroke (width 0) (type default))
    (uuid 3dcc657b-55a1-48e0-9667-e01e7b6b08b5)
  )
  (wire (pts (xy 125.73 59.69) (xy 125.73 60.96))
    (stroke (width 0) (type default))
    (uuid 417f13e4-c121-485a-a6b5-8b55e70350b8)
  )
  (wire (pts (xy 110.49 62.23) (xy 110.49 59.69))
    (stroke (width 0) (type default))
    (uuid 483f60da-14d7-4f88-8d01-3f9f30784c70)
  )
  (wire (pts (xy 125.73 54.61) (xy 125.73 53.34))
    (stroke (width 0) (type default))
    (uuid 4d4b0fcd-2c79-4fc3-b5fa-7a0741601344)
  )
  (wire (pts (xy 251.46 101.6) (xy 251.46 105.41))
    (stroke (width 0) (type default))
    (uuid 5038e144-5119-49db-b6cf-f7c345f1cf03)
  )
  (wire (pts (xy 201.93 116.84) (xy 201.93 115.57))
    (stroke (width 0) (type default))
    (uuid 5528bcad-2950-4673-90eb-c37e6952c475)
  )
  (wire (pts (xy 142.24 59.69) (xy 142.24 60.96))
    (stroke (width 0) (type default))
    (uuid 55992e35-fe7b-468a-9b7a-1e4dc931b904)
  )
  (wire (pts (xy 250.19 135.89) (xy 252.73 135.89))
    (stroke (width 0) (type default))
    (uuid 58dc14f9-c158-4824-a84e-24a6a482a7a4)
  )
  (wire (pts (xy 162.56 90.17) (xy 166.37 90.17))
    (stroke (width 0) (type default))
    (uuid 62c076a3-d618-44a2-9042-9a08b3576787)
  )
  (wire (pts (xy 245.11 81.28) (xy 247.65 81.28))
    (stroke (width 0) (type default))
    (uuid 639c0e59-e95c-4114-bccd-2e7277505454)
  )
  (wire (pts (xy 196.85 132.08) (xy 196.85 134.62))
    (stroke (width 0) (type default))
    (uuid 66043bca-a260-4915-9fce-8a51d324c687)
  )
  (wire (pts (xy 106.68 59.69) (xy 110.49 59.69))
    (stroke (width 0) (type default))
    (uuid 6ca3c38c-4e71-4202-b6c1-1b25f04a27ae)
  )
  (wire (pts (xy 134.62 53.34) (xy 142.24 53.34))
    (stroke (width 0) (type default))
    (uuid 75286985-9fa5-4d30-89c5-493b6e63cd66)
  )
  (wire (pts (xy 245.11 68.58) (xy 247.65 68.58))
    (stroke (width 0) (type default))
    (uuid 8412992d-8754-44de-9e08-115cec1a3eff)
  )
  (wire (pts (xy 245.11 82.55) (xy 245.11 81.28))
    (stroke (width 0) (type default))
    (uuid 8ca3e20d-bcc7-4c5e-9deb-562dfed9fecb)
  )
  (wire (pts (xy 128.27 74.93) (xy 128.27 72.39))
    (stroke (width 0) (type default))
    (uuid 909b030b-fa1a-4fe8-b1ee-422b4d9e23cf)
  )
  (wire (pts (xy 128.27 72.39) (xy 132.08 72.39))
    (stroke (width 0) (type default))
    (uuid 936e2ca6-11ae-4f42-9128-52bb329f3d21)
  )
  (wire (pts (xy 147.32 53.34) (xy 142.24 53.34))
    (stroke (width 0) (type default))
    (uuid 9702d639-3b1f-4825-8985-b32b9008503d)
  )
  (wire (pts (xy 125.73 53.34) (xy 134.62 53.34))
    (stroke (width 0) (type default))
    (uuid 9762c9ed-64d8-4f3e-baf6-f6ba6effc919)
  )
  (wire (pts (xy 165.1 118.11) (xy 162.56 118.11))
    (stroke (width 0) (type default))
    (uuid 97fe9c60-586f-4895-8504-4d3729f5f81a)
  )
  (wire (pts (xy 162.56 87.63) (xy 166.37 87.63))
    (stroke (width 0) (type default))
    (uuid 983c426c-24e0-4c65-ab69-1f1824adc5c6)
  )
  (wire (pts (xy 199.39 110.49) (xy 210.82 110.49))
    (stroke (width 0) (type default))
    (uuid 9b0a1687-7e1b-4a04-a30b-c27a072a2949)
  )
  (wire (pts (xy 149.86 64.77) (xy 147.32 64.77))
    (stroke (width 0) (type default))
    (uuid a06e8e78-f567-42e6-b645-013b1073ca31)
  )
  (wire (pts (xy 242.57 81.28) (xy 245.11 81.28))
    (stroke (width 0) (type default))
    (uuid a15a7506-eae4-4933-84da-9ad754258706)
  )
  (wire (pts (xy 110.49 87.63) (xy 110.49 88.9))
    (stroke (width 0) (type default))
    (uuid aca4de92-9c41-4c2b-9afa-540d02dafa1c)
  )
  (wire (pts (xy 166.37 91.44) (xy 168.91 91.44))
    (stroke (width 0) (type default))
    (uuid afb8e687-4a13-41a1-b8c0-89a749e897fe)
  )
  (wire (pts (xy 201.93 132.08) (xy 201.93 133.35))
    (stroke (width 0) (type default))
    (uuid b5352a33-563a-4ffe-a231-2e68fb54afa3)
  )
  (wire (pts (xy 128.27 80.01) (xy 128.27 81.28))
    (stroke (width 0) (type default))
    (uuid b60c50d1-225e-415c-8712-7acb5e3dc8ea)
  )
  (wire (pts (xy 250.19 130.81) (xy 252.73 130.81))
    (stroke (width 0) (type default))
    (uuid b635b16e-60bb-4b3e-9fc3-47d34eef8381)
  )
  (wire (pts (xy 110.49 52.07) (xy 110.49 54.61))
    (stroke (width 0) (type default))
    (uuid b994142f-02ac-4881-9587-6d3df53c96d2)
  )
  (wire (pts (xy 162.56 115.57) (xy 165.1 115.57))
    (stroke (width 0) (type default))
    (uuid bdc7face-9f7c-4701-80bb-4cc144448db1)
  )
  (wire (pts (xy 210.82 110.49) (xy 210.82 111.76))
    (stroke (width 0) (type default))
    (uuid c01d25cd-f4bb-4ef3-b5ea-533a2a4ddb2b)
  )
  (wire (pts (xy 201.93 80.01) (xy 201.93 78.74))
    (stroke (width 0) (type default))
    (uuid c0515cd2-cdaa-467e-8354-0f6eadfa35c9)
  )
  (wire (pts (xy 134.62 54.61) (xy 134.62 53.34))
    (stroke (width 0) (type default))
    (uuid c19dbe3c-ced0-48f7-a91d-777569cfb936)
  )
  (wire (pts (xy 166.37 87.63) (xy 166.37 86.36))
    (stroke (width 0) (type default))
    (uuid c1d83899-e380-49f9-a87d-8e78bc089ebf)
  )
  (wire (pts (xy 251.46 95.25) (xy 251.46 96.52))
    (stroke (width 0) (type default))
    (uuid cbdcaa78-3bbc-413f-91bf-2709119373ce)
  )
  (wire (pts (xy 201.93 101.6) (xy 203.2 101.6))
    (stroke (width 0) (type default))
    (uuid ce83728b-bebd-48c2-8734-b6a50d837931)
  )
  (wire (pts (xy 196.85 97.79) (xy 196.85 99.06))
    (stroke (width 0) (type default))
    (uuid d57dcfee-5058-4fc2-a68b-05f9a48f685b)
  )
  (wire (pts (xy 166.37 90.17) (xy 166.37 91.44))
    (stroke (width 0) (type default))
    (uuid da469d11-a8a4-414b-9449-d151eeaf4853)
  )
  (wire (pts (xy 247.65 67.31) (xy 247.65 68.58))
    (stroke (width 0) (type default))
    (uuid df32840e-2912-4088-b54c-9a85f64c0265)
  )
  (wire (pts (xy 179.07 88.9) (xy 179.07 91.44))
    (stroke (width 0) (type default))
    (uuid e10b5627-3247-4c86-b9f6-ef474ca11543)
  )
  (wire (pts (xy 147.32 140.97) (xy 147.32 142.24))
    (stroke (width 0) (type default))
    (uuid e47adf3d-9c24-4345-80c9-66679cad107e)
  )
  (wire (pts (xy 176.53 88.9) (xy 179.07 88.9))
    (stroke (width 0) (type default))
    (uuid e8314017-7be6-4011-9179-37449a29b311)
  )
  (wire (pts (xy 166.37 86.36) (xy 168.91 86.36))
    (stroke (width 0) (type default))
    (uuid e9bb29b2-2bb9-4ea2-acd9-2bb3ca677a12)
  )
  (wire (pts (xy 147.32 64.77) (xy 147.32 53.34))
    (stroke (width 0) (type default))
    (uuid ec9e24d8-d1c5-40e2-9812-dc315d05f470)
  )
  (wire (pts (xy 199.39 116.84) (xy 199.39 110.49))
    (stroke (width 0) (type default))
    (uuid ee27d19c-8dca-4ac8-a760-6dfd54d28071)
  )
  (wire (pts (xy 251.46 113.03) (xy 251.46 115.57))
    (stroke (width 0) (type default))
    (uuid efeac2a2-7682-4dc7-83ee-f6f1b23da506)
  )
  (wire (pts (xy 252.73 135.89) (xy 252.73 138.43))
    (stroke (width 0) (type default))
    (uuid f976e2cc-36f9-4479-a816-2c74d1d5da6f)
  )
  (wire (pts (xy 242.57 67.31) (xy 242.57 68.58))
    (stroke (width 0) (type default))
    (uuid ffd175d1-912a-4224-be1e-a8198680f46b)
  )

  (label "TRIG_LED" (at 242.57 67.31 180) (fields_autoplaced)
    (effects (font (size 1.27 1.27)) (justify right bottom))
    (uuid 03caada9-9e22-4e2d-9035-b15433dfbb17)
  )
  (label "ENC_SW" (at 162.56 125.73 0) (fields_autoplaced)
    (effects (font (size 1.27 1.27)) (justify left bottom))
    (uuid 0f54db53-a272-4955-88fb-d7ab00657bb0)
  )
  (label "SCK" (at 237.49 133.35 180) (fields_autoplaced)
    (effects (font (size 1.27 1.27)) (justify right bottom))
    (uuid 120a7b0f-ddfd-4447-85c1-35665465acdb)
  )
  (label "MOSI" (at 250.19 133.35 0) (fields_autoplaced)
    (effects (font (size 1.27 1.27)) (justify left bottom))
    (uuid 2732632c-4768-42b6-bf7f-14643424019e)
  )
  (label "TRIG_LED" (at 162.56 130.81 0) (fields_autoplaced)
    (effects (font (size 1.27 1.27)) (justify left bottom))
    (uuid 29e78086-2175-405e-9ba3-c48766d2f50c)
  )
  (label "ENC_A" (at 162.56 120.65 0) (fields_autoplaced)
    (effects (font (size 1.27 1.27)) (justify left bottom))
    (uuid 3aaee4c4-dbf7-49a5-a620-9465d8cc3ae7)
  )
  (label "SCK" (at 251.46 95.25 180) (fields_autoplaced)
    (effects (font (size 1.27 1.27)) (justify right bottom))
    (uuid 3b838d52-596d-4e4d-a6ac-e4c8e7621137)
  )
  (label "SCK" (at 162.56 85.09 0) (fields_autoplaced)
    (effects (font (size 1.27 1.27)) (justify left bottom))
    (uuid 46918595-4a45-48e8-84c0-961b4db7f35f)
  )
  (label "RST" (at 162.56 110.49 0) (fields_autoplaced)
    (effects (font (size 1.27 1.27)) (justify left bottom))
    (uuid 48f827a8-6e22-4a2e-abdc-c2a03098d883)
  )
  (label "TRIG_SW" (at 247.65 67.31 0) (fields_autoplaced)
    (effects (font (size 1.27 1.27)) (justify left bottom))
    (uuid 4c8eb964-bdf4-44de-90e9-e2ab82dd5313)
  )
  (label "SCL" (at 162.56 107.95 0) (fields_autoplaced)
    (effects (font (size 1.27 1.27)) (justify left bottom))
    (uuid 5fc27c35-3e1c-4f96-817c-93b5570858a6)
  )
  (label "SCR_PIN" (at 203.2 76.2 180) (fields_autoplaced)
    (effects (font (size 1.27 1.27)) (justify right bottom))
    (uuid 666713b0-70f4-42df-8761-f65bc212d03b)
  )
  (label "RST" (at 233.68 102.87 180) (fields_autoplaced)
    (effects (font (size 1.27 1.27)) (justify right bottom))
    (uuid 67f6e996-3c99-493c-8f6f-e739e2ed5d7a)
  )
  (label "SDA" (at 162.56 105.41 0) (fields_autoplaced)
    (effects (font (size 1.27 1.27)) (justify left bottom))
    (uuid 6c9b793c-e74d-4754-a2c0-901e73b26f1c)
  )
  (label "ENC_B" (at 201.93 115.57 0) (fields_autoplaced)
    (effects (font (size 1.27 1.27)) (justify left bottom))
    (uuid 7bbf981c-a063-4e30-8911-e4228e1c0743)
  )
  (label "ENC_A" (at 196.85 115.57 180) (fields_autoplaced)
    (effects (font (size 1.27 1.27)) (justify right bottom))
    (uuid 7edc9030-db7b-43ac-a1b3-b87eeacb4c2d)
  )
  (label "ENC_SW" (at 194.31 134.62 180) (fields_autoplaced)
    (effects (font (size 1.27 1.27)) (justify right bottom))
    (uuid 852dabbf-de45-4470-8176-59d37a754407)
  )
  (label "MISO" (at 237.49 130.81 180) (fields_autoplaced)
    (effects (font (size 1.27 1.27)) (justify right bottom))
    (uuid 854dd5d4-5fd2-4730-bd49-a9cd8299a065)
  )
  (label "RST" (at 237.49 135.89 180) (fields_autoplaced)
    (effects (font (size 1.27 1.27)) (justify right bottom))
    (uuid 8d55e186-3e11-40e8-a65e-b36a8a00069e)
  )
  (label "ENC_B" (at 162.56 123.19 0) (fields_autoplaced)
    (effects (font (size 1.27 1.27)) (justify left bottom))
    (uuid 922058ca-d09a-45fd-8394-05f3e2c1e03a)
  )
  (label "SDA" (at 203.2 93.98 180) (fields_autoplaced)
    (effects (font (size 1.27 1.27)) (justify right bottom))
    (uuid 9340c285-5767-42d5-8b6d-63fe2a40ddf3)
  )
  (label "SCR_PIN" (at 162.56 128.27 0) (fields_autoplaced)
    (effects (font (size 1.27 1.27)) (justify left bottom))
    (uuid 94a873dc-af67-4ef9-8159-1f7c93eeb3d7)
  )
  (label "TRIG_SW" (at 162.56 133.35 0) (fields_autoplaced)
    (effects (font (size 1.27 1.27)) (justify left bottom))
    (uuid a1823eb2-fb0d-4ed8-8b96-04184ac3a9d5)
  )
  (label "MOSI" (at 162.56 80.01 0) (fields_autoplaced)
    (effects (font (size 1.27 1.27)) (justify left bottom))
    (uuid a7520ad3-0f8b-4788-92d4-8ffb277041e6)
  )
  (label "MISO" (at 162.56 82.55 0) (fields_autoplaced)
    (effects (font (size 1.27 1.27)) (justify left bottom))
    (uuid a795f1ba-cdd5-4cc5-9a52-08586e982934)
  )
  (label "SCL" (at 203.2 96.52 180) (fields_autoplaced)
    (effects (font (size 1.27 1.27)) (justify right bottom))
    (uuid c41b3c8b-634e-435a-b582-96b83bbd4032)
  )

  (symbol (lib_id "MCU_Microchip_ATmega:ATmega328P-A") (at 147.32 102.87 0) (unit 1)
    (in_bom yes) (on_board yes) (dnp no)
    (uuid 00000000-0000-0000-0000-00005e09bc5d)
    (property "Reference" "U1" (at 152.4 143.51 0)
      (effects (font (size 1.27 1.27)))
    )
    (property "Value" "ATmega328P-AU" (at 158.75 146.05 0)
      (effects (font (size 1.27 1.27)))
    )
    (property "Footprint" "Package_QFP:TQFP-32_7x7mm_P0.8mm" (at 147.32 102.87 0)
      (effects (font (size 1.27 1.27) italic) hide)
    )
    (property "Datasheet" "http://ww1.microchip.com/downloads/en/DeviceDoc/ATmega328_P%20AVR%20MCU%20with%20picoPower%20Technology%20Data%20Sheet%2040001984A.pdf" (at 147.32 102.87 0)
      (effects (font (size 1.27 1.27)) hide)
    )
    (pin "1" (uuid 86c48a02-99cf-4bba-ac8b-b61a5e552195))
    (pin "10" (uuid b017db9a-60ef-464a-bea4-ca004744d62a))
    (pin "11" (uuid 4e5756a3-e81f-4e5b-a742-d51cd01ec2fb))
    (pin "12" (uuid aa48199a-9a6c-4d22-b8c5-f54cc2c871aa))
    (pin "13" (uuid 35f68b32-604a-499a-8e92-400f92b2e08f))
    (pin "14" (uuid 32015a24-eafb-4e50-a00a-f6fa6c192459))
    (pin "15" (uuid de878c17-055e-46db-8da6-7dfb9f022f38))
    (pin "16" (uuid 13a5d9be-a183-4e69-babb-8cbf7a77a145))
    (pin "17" (uuid fbd8d420-f19a-4bf5-8fdf-b2fd7b9713ba))
    (pin "18" (uuid 082977fe-bcf2-4fc9-8664-88445c5732c9))
    (pin "19" (uuid dfcef747-b9e1-4f8f-840a-a3b725b34356))
    (pin "2" (uuid c59f77fd-581a-411c-9bbc-fc241b155681))
    (pin "20" (uuid f1b0cd72-9e15-4d7d-8199-896754d837c1))
    (pin "21" (uuid e6101d47-4c17-47d7-a87d-3c081a41de98))
    (pin "22" (uuid 13a2a71b-cca6-4a33-aaee-ae426a1360fd))
    (pin "23" (uuid 5f97827f-c36d-47fb-b3b4-3d9bc5c240ba))
    (pin "24" (uuid 7d935433-23a4-4a5b-b4b9-283e3ee03f82))
    (pin "25" (uuid 6b27399d-223b-41fb-9007-53e3051952f2))
    (pin "26" (uuid 6ee7801d-5e88-4183-a12b-f744d6876270))
    (pin "27" (uuid 4de6fca9-f41d-41b5-95d4-51712492148d))
    (pin "28" (uuid 52d08b8a-4d4d-40e3-b818-60b6590ccd50))
    (pin "29" (uuid c813a16d-a104-49e7-a8c5-8491d84630a5))
    (pin "3" (uuid f08068ca-f3ac-4990-b679-9d2b1bceb1c9))
    (pin "30" (uuid 5648ff7d-ae4b-44b4-87e9-ebf76c9afa47))
    (pin "31" (uuid ecafcb72-b4f4-4d94-9a4e-4d4f7c29d70b))
    (pin "32" (uuid f0bc50ba-607a-43ae-a05f-e7c2af47f898))
    (pin "4" (uuid 8f87c894-21d7-4452-9ddd-90d05acf6c92))
    (pin "5" (uuid 4c3f968d-d3ac-4e32-8a52-c302c9eac869))
    (pin "6" (uuid 37f40774-3ed5-4d9e-995f-70fe7b0963e7))
    (pin "7" (uuid 21b41bb9-1e1a-4729-8006-028a33b1565b))
    (pin "8" (uuid 4583ba84-2e64-40e4-ace1-b5b09a5060e7))
    (pin "9" (uuid 4942c1a8-053a-4b0f-90b9-23dcf4f66939))
    (instances
      (project "BSWelder"
        (path "/e63e39d7-6ac0-4ffd-8aa3-1841a4541b55"
          (reference "U1") (unit 1)
        )
      )
    )
  )

  (symbol (lib_id "Connector_Generic:Conn_01x02") (at 101.6 58.42 180) (unit 1)
    (in_bom yes) (on_board yes) (dnp no)
    (uuid 00000000-0000-0000-0000-00005e09f03e)
    (property "Reference" "J1" (at 103.6828 50.165 0)
      (effects (font (size 1.27 1.27)))
    )
    (property "Value" "PWR_IN" (at 103.6828 52.4764 0)
      (effects (font (size 1.27 1.27)))
    )
    (property "Footprint" "Connector_PinHeader_2.54mm:PinHeader_1x02_P2.54mm_Vertical" (at 101.6 58.42 0)
      (effects (font (size 1.27 1.27)) hide)
    )
    (property "Datasheet" "~" (at 101.6 58.42 0)
      (effects (font (size 1.27 1.27)) hide)
    )
    (pin "1" (uuid a316c16c-3ef1-4aec-af42-25c7da3d5d62))
    (pin "2" (uuid 703c8307-74c8-4aea-b598-bc9ca6bb6b50))
    (instances
      (project "BSWelder"
        (path "/e63e39d7-6ac0-4ffd-8aa3-1841a4541b55"
          (reference "J1") (unit 1)
        )
      )
    )
  )

  (symbol (lib_id "Device:C_Small") (at 110.49 57.15 0) (unit 1)
    (in_bom yes) (on_board yes) (dnp no)
    (uuid 00000000-0000-0000-0000-00005e0a03b1)
    (property "Reference" "C1" (at 112.8268 55.9816 0)
      (effects (font (size 1.27 1.27)) (justify left))
    )
    (property "Value" "47u" (at 112.8268 58.293 0)
      (effects (font (size 1.27 1.27)) (justify left))
    )
    (property "Footprint" "Capacitor_SMD:CP_Elec_6.3x5.9" (at 110.49 57.15 0)
      (effects (font (size 1.27 1.27)) hide)
    )
    (property "Datasheet" "~" (at 110.49 57.15 0)
      (effects (font (size 1.27 1.27)) hide)
    )
    (pin "1" (uuid f7eb4a01-d86a-4f82-820c-de5e06f18a31))
    (pin "2" (uuid 9e005c4c-0cd7-493d-990d-64ec39d00219))
    (instances
      (project "BSWelder"
        (path "/e63e39d7-6ac0-4ffd-8aa3-1841a4541b55"
          (reference "C1") (unit 1)
        )
      )
    )
  )

  (symbol (lib_id "power:+5V") (at 110.49 52.07 0) (unit 1)
    (in_bom yes) (on_board yes) (dnp no)
    (uuid 00000000-0000-0000-0000-00005e0a0bbc)
    (property "Reference" "#PWR0101" (at 110.49 55.88 0)
      (effects (font (size 1.27 1.27)) hide)
    )
    (property "Value" "+5V" (at 110.871 47.6758 0)
      (effects (font (size 1.27 1.27)))
    )
    (property "Footprint" "" (at 110.49 52.07 0)
      (effects (font (size 1.27 1.27)) hide)
    )
    (property "Datasheet" "" (at 110.49 52.07 0)
      (effects (font (size 1.27 1.27)) hide)
    )
    (pin "1" (uuid ff7b739c-3ff5-431a-9072-c40bd3d1a203))
    (instances
      (project "BSWelder"
        (path "/e63e39d7-6ac0-4ffd-8aa3-1841a4541b55"
          (reference "#PWR0101") (unit 1)
        )
      )
    )
  )

  (symbol (lib_id "power:GND") (at 110.49 62.23 0) (unit 1)
    (in_bom yes) (on_board yes) (dnp no)
    (uuid 00000000-0000-0000-0000-00005e0a10da)
    (property "Reference" "#PWR0102" (at 110.49 68.58 0)
      (effects (font (size 1.27 1.27)) hide)
    )
    (property "Value" "GND" (at 110.617 66.6242 0)
      (effects (font (size 1.27 1.27)))
    )
    (property "Footprint" "" (at 110.49 62.23 0)
      (effects (font (size 1.27 1.27)) hide)
    )
    (property "Datasheet" "" (at 110.49 62.23 0)
      (effects (font (size 1.27 1.27)) hide)
    )
    (pin "1" (uuid feb9e115-786a-4ae7-973b-faac11abc298))
    (instances
      (project "BSWelder"
        (path "/e63e39d7-6ac0-4ffd-8aa3-1841a4541b55"
          (reference "#PWR0102") (unit 1)
        )
      )
    )
  )

  (symbol (lib_id "power:GND") (at 147.32 142.24 0) (unit 1)
    (in_bom yes) (on_board yes) (dnp no)
    (uuid 00000000-0000-0000-0000-00005e0a206f)
    (property "Reference" "#PWR0103" (at 147.32 148.59 0)
      (effects (font (size 1.27 1.27)) hide)
    )
    (property "Value" "GND" (at 147.447 146.6342 0)
      (effects (font (size 1.27 1.27)))
    )
    (property "Footprint" "" (at 147.32 142.24 0)
      (effects (font (size 1.27 1.27)) hide)
    )
    (property "Datasheet" "" (at 147.32 142.24 0)
      (effects (font (size 1.27 1.27)) hide)
    )
    (pin "1" (uuid c1a2b104-b142-45b8-b862-a8429affbf64))
    (instances
      (project "BSWelder"
        (path "/e63e39d7-6ac0-4ffd-8aa3-1841a4541b55"
          (reference "#PWR0103") (unit 1)
        )
      )
    )
  )

  (symbol (lib_id "Device:C_Small") (at 128.27 77.47 0) (unit 1)
    (in_bom yes) (on_board yes) (dnp no)
    (uuid 00000000-0000-0000-0000-00005e0a28da)
    (property "Reference" "C3" (at 123.19 76.2 0)
      (effects (font (size 1.27 1.27)) (justify left))
    )
    (property "Value" "100n" (at 121.92 78.74 0)
      (effects (font (size 1.27 1.27)) (justify left))
    )
    (property "Footprint" "Capacitor_SMD:C_0805_2012Metric" (at 128.27 77.47 0)
      (effects (font (size 1.27 1.27)) hide)
    )
    (property "Datasheet" "~" (at 128.27 77.47 0)
      (effects (font (size 1.27 1.27)) hide)
    )
    (pin "1" (uuid 2568c805-c7ba-4ce1-896c-cf85c5f7c725))
    (pin "2" (uuid 05deb774-e861-48e4-b7e5-0954011a4887))
    (instances
      (project "BSWelder"
        (path "/e63e39d7-6ac0-4ffd-8aa3-1841a4541b55"
          (reference "C3") (unit 1)
        )
      )
    )
  )

  (symbol (lib_id "Device:C_Small") (at 142.24 57.15 0) (unit 1)
    (in_bom yes) (on_board yes) (dnp no)
    (uuid 00000000-0000-0000-0000-00005e0a44e4)
    (property "Reference" "C5" (at 137.16 55.88 0)
      (effects (font (size 1.27 1.27)) (justify left))
    )
    (property "Value" "10u" (at 137.16 58.42 0)
      (effects (font (size 1.27 1.27)) (justify left))
    )
    (property "Footprint" "Capacitor_SMD:C_0805_2012Metric" (at 142.24 57.15 0)
      (effects (font (size 1.27 1.27)) hide)
    )
    (property "Datasheet" "~" (at 142.24 57.15 0)
      (effects (font (size 1.27 1.27)) hide)
    )
    (pin "1" (uuid 910b9dd4-d7a3-4d19-89d2-fca4c84a3835))
    (pin "2" (uuid e1f41289-b6ee-4dff-a1c9-32fbf0be1ec6))
    (instances
      (project "BSWelder"
        (path "/e63e39d7-6ac0-4ffd-8aa3-1841a4541b55"
          (reference "C5") (unit 1)
        )
      )
    )
  )

  (symbol (lib_id "power:GND") (at 128.27 81.28 0) (unit 1)
    (in_bom yes) (on_board yes) (dnp no)
    (uuid 00000000-0000-0000-0000-00005e0a4c52)
    (property "Reference" "#PWR0104" (at 128.27 87.63 0)
      (effects (font (size 1.27 1.27)) hide)
    )
    (property "Value" "GND" (at 128.397 85.6742 0)
      (effects (font (size 1.27 1.27)))
    )
    (property "Footprint" "" (at 128.27 81.28 0)
      (effects (font (size 1.27 1.27)) hide)
    )
    (property "Datasheet" "" (at 128.27 81.28 0)
      (effects (font (size 1.27 1.27)) hide)
    )
    (pin "1" (uuid 62bade1d-a0fa-4a00-83df-ec3825acbf80))
    (instances
      (project "BSWelder"
        (path "/e63e39d7-6ac0-4ffd-8aa3-1841a4541b55"
          (reference "#PWR0104") (unit 1)
        )
      )
    )
  )

  (symbol (lib_id "power:GND") (at 142.24 60.96 0) (unit 1)
    (in_bom yes) (on_board yes) (dnp no)
    (uuid 00000000-0000-0000-0000-00005e0a57c3)
    (property "Reference" "#PWR0105" (at 142.24 67.31 0)
      (effects (font (size 1.27 1.27)) hide)
    )
    (property "Value" "GND" (at 142.367 65.3542 0)
      (effects (font (size 1.27 1.27)))
    )
    (property "Footprint" "" (at 142.24 60.96 0)
      (effects (font (size 1.27 1.27)) hide)
    )
    (property "Datasheet" "" (at 142.24 60.96 0)
      (effects (font (size 1.27 1.27)) hide)
    )
    (pin "1" (uuid 6e23f156-8592-4ec8-a4f2-b3a5298fa2b4))
    (instances
      (project "BSWelder"
        (path "/e63e39d7-6ac0-4ffd-8aa3-1841a4541b55"
          (reference "#PWR0105") (unit 1)
        )
      )
    )
  )

  (symbol (lib_id "Device:C_Small") (at 134.62 57.15 0) (unit 1)
    (in_bom yes) (on_board yes) (dnp no)
    (uuid 00000000-0000-0000-0000-00005e0a660b)
    (property "Reference" "C4" (at 129.54 55.88 0)
      (effects (font (size 1.27 1.27)) (justify left))
    )
    (property "Value" "100n" (at 128.27 58.42 0)
      (effects (font (size 1.27 1.27)) (justify left))
    )
    (property "Footprint" "Capacitor_SMD:C_0805_2012Metric" (at 134.62 57.15 0)
      (effects (font (size 1.27 1.27)) hide)
    )
    (property "Datasheet" "~" (at 134.62 57.15 0)
      (effects (font (size 1.27 1.27)) hide)
    )
    (pin "1" (uuid 14b19f66-46e7-41af-9724-bc5ecadd8d0a))
    (pin "2" (uuid eadf4888-2232-4fa3-990f-ebc9b384de6c))
    (instances
      (project "BSWelder"
        (path "/e63e39d7-6ac0-4ffd-8aa3-1841a4541b55"
          (reference "C4") (unit 1)
        )
      )
    )
  )

  (symbol (lib_id "Device:C_Small") (at 125.73 57.15 0) (unit 1)
    (in_bom yes) (on_board yes) (dnp no)
    (uuid 00000000-0000-0000-0000-00005e0a6ca0)
    (property "Reference" "C2" (at 120.65 55.88 0)
      (effects (font (size 1.27 1.27)) (justify left))
    )
    (property "Value" "100n" (at 119.38 58.42 0)
      (effects (font (size 1.27 1.27)) (justify left))
    )
    (property "Footprint" "Capacitor_SMD:C_0805_2012Metric" (at 125.73 57.15 0)
      (effects (font (size 1.27 1.27)) hide)
    )
    (property "Datasheet" "~" (at 125.73 57.15 0)
      (effects (font (size 1.27 1.27)) hide)
    )
    (pin "1" (uuid d7c1117a-b071-4863-8d84-79bd01e155db))
    (pin "2" (uuid 169c08bf-ad71-4b16-aafe-db33fc4f92dd))
    (instances
      (project "BSWelder"
        (path "/e63e39d7-6ac0-4ffd-8aa3-1841a4541b55"
          (reference "C2") (unit 1)
        )
      )
    )
  )

  (symbol (lib_id "power:GND") (at 134.62 60.96 0) (unit 1)
    (in_bom yes) (on_board yes) (dnp no)
    (uuid 00000000-0000-0000-0000-00005e0a79a8)
    (property "Reference" "#PWR0106" (at 134.62 67.31 0)
      (effects (font (size 1.27 1.27)) hide)
    )
    (property "Value" "GND" (at 134.747 65.3542 0)
      (effects (font (size 1.27 1.27)))
    )
    (property "Footprint" "" (at 134.62 60.96 0)
      (effects (font (size 1.27 1.27)) hide)
    )
    (property "Datasheet" "" (at 134.62 60.96 0)
      (effects (font (size 1.27 1.27)) hide)
    )
    (pin "1" (uuid 4470eb6c-73b0-4472-96ef-f239ec38c82f))
    (instances
      (project "BSWelder"
        (path "/e63e39d7-6ac0-4ffd-8aa3-1841a4541b55"
          (reference "#PWR0106") (unit 1)
        )
      )
    )
  )

  (symbol (lib_id "power:GND") (at 125.73 60.96 0) (unit 1)
    (in_bom yes) (on_board yes) (dnp no)
    (uuid 00000000-0000-0000-0000-00005e0a7f90)
    (property "Reference" "#PWR0107" (at 125.73 67.31 0)
      (effects (font (size 1.27 1.27)) hide)
    )
    (property "Value" "GND" (at 125.857 65.3542 0)
      (effects (font (size 1.27 1.27)))
    )
    (property "Footprint" "" (at 125.73 60.96 0)
      (effects (font (size 1.27 1.27)) hide)
    )
    (property "Datasheet" "" (at 125.73 60.96 0)
      (effects (font (size 1.27 1.27)) hide)
    )
    (pin "1" (uuid 4204dc0d-9206-4a32-87d8-19df999486c3))
    (instances
      (project "BSWelder"
        (path "/e63e39d7-6ac0-4ffd-8aa3-1841a4541b55"
          (reference "#PWR0107") (unit 1)
        )
      )
    )
  )

  (symbol (lib_id "power:+5V") (at 147.32 52.07 0) (unit 1)
    (in_bom yes) (on_board yes) (dnp no)
    (uuid 00000000-0000-0000-0000-00005e0a8648)
    (property "Reference" "#PWR0108" (at 147.32 55.88 0)
      (effects (font (size 1.27 1.27)) hide)
    )
    (property "Value" "+5V" (at 147.701 47.6758 0)
      (effects (font (size 1.27 1.27)))
    )
    (property "Footprint" "" (at 147.32 52.07 0)
      (effects (font (size 1.27 1.27)) hide)
    )
    (property "Datasheet" "" (at 147.32 52.07 0)
      (effects (font (size 1.27 1.27)) hide)
    )
    (pin "1" (uuid c829c0a2-36ea-48e0-9456-016b319b7e4c))
    (instances
      (project "BSWelder"
        (path "/e63e39d7-6ac0-4ffd-8aa3-1841a4541b55"
          (reference "#PWR0108") (unit 1)
        )
      )
    )
  )

  (symbol (lib_id "power:+5V") (at 252.73 128.27 0) (unit 1)
    (in_bom yes) (on_board yes) (dnp no)
    (uuid 00000000-0000-0000-0000-00005e0ac56b)
    (property "Reference" "#PWR0109" (at 252.73 132.08 0)
      (effects (font (size 1.27 1.27)) hide)
    )
    (property "Value" "+5V" (at 253.111 123.8758 0)
      (effects (font (size 1.27 1.27)))
    )
    (property "Footprint" "" (at 252.73 128.27 0)
      (effects (font (size 1.27 1.27)) hide)
    )
    (property "Datasheet" "" (at 252.73 128.27 0)
      (effects (font (size 1.27 1.27)) hide)
    )
    (pin "1" (uuid a1c19031-85a7-4245-9e0a-eed346ebf312))
    (instances
      (project "BSWelder"
        (path "/e63e39d7-6ac0-4ffd-8aa3-1841a4541b55"
          (reference "#PWR0109") (unit 1)
        )
      )
    )
  )

  (symbol (lib_id "power:GND") (at 252.73 138.43 0) (unit 1)
    (in_bom yes) (on_board yes) (dnp no)
    (uuid 00000000-0000-0000-0000-00005e0accb6)
    (property "Reference" "#PWR0110" (at 252.73 144.78 0)
      (effects (font (size 1.27 1.27)) hide)
    )
    (property "Value" "GND" (at 252.857 142.8242 0)
      (effects (font (size 1.27 1.27)))
    )
    (property "Footprint" "" (at 252.73 138.43 0)
      (effects (font (size 1.27 1.27)) hide)
    )
    (property "Datasheet" "" (at 252.73 138.43 0)
      (effects (font (size 1.27 1.27)) hide)
    )
    (pin "1" (uuid e7e96fb0-ca5d-4a8c-bee9-6449ac742013))
    (instances
      (project "BSWelder"
        (path "/e63e39d7-6ac0-4ffd-8aa3-1841a4541b55"
          (reference "#PWR0110") (unit 1)
        )
      )
    )
  )

  (symbol (lib_id "Switch:SW_SPST") (at 234.95 109.22 270) (unit 1)
    (in_bom yes) (on_board yes) (dnp no)
    (uuid 00000000-0000-0000-0000-00005e0b2a4d)
    (property "Reference" "SW2" (at 237.4392 108.0516 90)
      (effects (font (size 1.27 1.27)) (justify left))
    )
    (property "Value" "SW_SPST" (at 237.4392 110.363 90)
      (effects (font (size 1.27 1.27)) (justify left))
    )
    (property "Footprint" "Button_Switch_THT:SW_PUSH_6mm" (at 234.95 109.22 0)
      (effects (font (size 1.27 1.27)) hide)
    )
    (property "Datasheet" "~" (at 234.95 109.22 0)
      (effects (font (size 1.27 1.27)) hide)
    )
    (pin "1" (uuid e26fc145-3378-4094-be8f-e86795141ae9))
    (pin "2" (uuid 08981952-0dd9-4604-80d9-1a4e5b4feba9))
    (instances
      (project "BSWelder"
        (path "/e63e39d7-6ac0-4ffd-8aa3-1841a4541b55"
          (reference "SW2") (unit 1)
        )
      )
    )
  )

  (symbol (lib_id "Device:R_Small") (at 234.95 99.06 0) (unit 1)
    (in_bom yes) (on_board yes) (dnp no)
    (uuid 00000000-0000-0000-0000-00005e0b3519)
    (property "Reference" "R1" (at 236.4486 97.8916 0)
      (effects (font (size 1.27 1.27)) (justify left))
    )
    (property "Value" "10k" (at 236.4486 100.203 0)
      (effects (font (size 1.27 1.27)) (justify left))
    )
    (property "Footprint" "Resistor_SMD:R_0603_1608Metric" (at 234.95 99.06 0)
      (effects (font (size 1.27 1.27)) hide)
    )
    (property "Datasheet" "~" (at 234.95 99.06 0)
      (effects (font (size 1.27 1.27)) hide)
    )
    (pin "1" (uuid 1207bf1b-c6a3-4fea-87af-a6c1857bb93d))
    (pin "2" (uuid 7f625fc3-65c6-4f2a-ba95-8469e1caadfc))
    (instances
      (project "BSWelder"
        (path "/e63e39d7-6ac0-4ffd-8aa3-1841a4541b55"
          (reference "R1") (unit 1)
        )
      )
    )
  )

  (symbol (lib_id "power:GND") (at 234.95 115.57 0) (unit 1)
    (in_bom yes) (on_board yes) (dnp no)
    (uuid 00000000-0000-0000-0000-00005e0b3b67)
    (property "Reference" "#PWR0111" (at 234.95 121.92 0)
      (effects (font (size 1.27 1.27)) hide)
    )
    (property "Value" "GND" (at 235.077 119.9642 0)
      (effects (font (size 1.27 1.27)))
    )
    (property "Footprint" "" (at 234.95 115.57 0)
      (effects (font (size 1.27 1.27)) hide)
    )
    (property "Datasheet" "" (at 234.95 115.57 0)
      (effects (font (size 1.27 1.27)) hide)
    )
    (pin "1" (uuid ba32eaec-fda2-4775-b347-9ae86e113cc8))
    (instances
      (project "BSWelder"
        (path "/e63e39d7-6ac0-4ffd-8aa3-1841a4541b55"
          (reference "#PWR0111") (unit 1)
        )
      )
    )
  )

  (symbol (lib_id "power:+5V") (at 234.95 95.25 0) (unit 1)
    (in_bom yes) (on_board yes) (dnp no)
    (uuid 00000000-0000-0000-0000-00005e0b44fd)
    (property "Reference" "#PWR0112" (at 234.95 99.06 0)
      (effects (font (size 1.27 1.27)) hide)
    )
    (property "Value" "+5V" (at 235.331 90.8558 0)
      (effects (font (size 1.27 1.27)))
    )
    (property "Footprint" "" (at 234.95 95.25 0)
      (effects (font (size 1.27 1.27)) hide)
    )
    (property "Datasheet" "" (at 234.95 95.25 0)
      (effects (font (size 1.27 1.27)) hide)
    )
    (pin "1" (uuid 158b4f77-2730-42bd-985e-ea6e9cc499b0))
    (instances
      (project "BSWelder"
        (path "/e63e39d7-6ac0-4ffd-8aa3-1841a4541b55"
          (reference "#PWR0112") (unit 1)
        )
      )
    )
  )

  (symbol (lib_id "Device:Resonator_Small") (at 171.45 88.9 90) (unit 1)
    (in_bom yes) (on_board yes) (dnp no)
    (uuid 00000000-0000-0000-0000-00005e0bba15)
    (property "Reference" "Y1" (at 172.72 80.645 90)
      (effects (font (size 1.27 1.27)))
    )
    (property "Value" "16MHz" (at 172.72 82.9564 90)
      (effects (font (size 1.27 1.27)))
    )
    (property "Footprint" "Crystal:Resonator_SMD_muRata_CSTxExxV-3Pin_3.0x1.1mm_HandSoldering" (at 171.45 89.535 0)
      (effects (font (size 1.27 1.27)) hide)
    )
    (property "Datasheet" "~" (at 171.45 89.535 0)
      (effects (font (size 1.27 1.27)) hide)
    )
    (pin "1" (uuid 0cdc726c-ebab-497a-9a6f-b53c357171e4))
    (pin "2" (uuid c7805169-6eac-4169-bc09-8c729fa9a999))
    (pin "3" (uuid 22c020e6-2e89-4445-9634-9e5d2a6aac9f))
    (instances
      (project "BSWelder"
        (path "/e63e39d7-6ac0-4ffd-8aa3-1841a4541b55"
          (reference "Y1") (unit 1)
        )
      )
    )
  )

  (symbol (lib_id "power:GND") (at 179.07 91.44 0) (unit 1)
    (in_bom yes) (on_board yes) (dnp no)
    (uuid 00000000-0000-0000-0000-00005e0bfa94)
    (property "Reference" "#PWR0113" (at 179.07 97.79 0)
      (effects (font (size 1.27 1.27)) hide)
    )
    (property "Value" "GND" (at 179.197 95.8342 0)
      (effects (font (size 1.27 1.27)))
    )
    (property "Footprint" "" (at 179.07 91.44 0)
      (effects (font (size 1.27 1.27)) hide)
    )
    (property "Datasheet" "" (at 179.07 91.44 0)
      (effects (font (size 1.27 1.27)) hide)
    )
    (pin "1" (uuid bb9daf65-ddac-4d02-9496-0db71a8ee1c5))
    (instances
      (project "BSWelder"
        (path "/e63e39d7-6ac0-4ffd-8aa3-1841a4541b55"
          (reference "#PWR0113") (unit 1)
        )
      )
    )
  )

  (symbol (lib_id "Connector_Generic:Conn_01x02") (at 170.18 115.57 0) (unit 1)
    (in_bom yes) (on_board yes) (dnp no)
    (uuid 00000000-0000-0000-0000-00005e0c0bca)
    (property "Reference" "J2" (at 172.212 115.7732 0)
      (effects (font (size 1.27 1.27)) (justify left))
    )
    (property "Value" "USART" (at 172.212 118.0846 0)
      (effects (font (size 1.27 1.27)) (justify left))
    )
    (property "Footprint" "Connector_PinHeader_2.54mm:PinHeader_1x02_P2.54mm_Vertical" (at 170.18 115.57 0)
      (effects (font (size 1.27 1.27)) hide)
    )
    (property "Datasheet" "~" (at 170.18 115.57 0)
      (effects (font (size 1.27 1.27)) hide)
    )
    (pin "1" (uuid 49b9aa4e-8a05-4303-ba5f-541cd010abea))
    (pin "2" (uuid b6682bf9-731b-4648-8b6f-bc313d022c2f))
    (instances
      (project "BSWelder"
        (path "/e63e39d7-6ac0-4ffd-8aa3-1841a4541b55"
          (reference "J2") (unit 1)
        )
      )
    )
  )

  (symbol (lib_id "Device:RotaryEncoder_Switch") (at 199.39 124.46 270) (unit 1)
    (in_bom yes) (on_board yes) (dnp no)
    (uuid 00000000-0000-0000-0000-00005e0c2866)
    (property "Reference" "SW1" (at 205.232 123.2916 90)
      (effects (font (size 1.27 1.27)) (justify left))
    )
    (property "Value" "Rotary_Encoder_Switch" (at 205.232 125.603 90)
      (effects (font (size 1.27 1.27)) (justify left))
    )
    (property "Footprint" "Rotary_Encoder:RotaryEncoder_Alps_EC11E-Switch_Vertical_H20mm_CircularMountingHoles" (at 203.454 120.65 0)
      (effects (font (size 1.27 1.27)) hide)
    )
    (property "Datasheet" "~" (at 205.994 124.46 0)
      (effects (font (size 1.27 1.27)) hide)
    )
    (pin "A" (uuid ca181156-c253-4e4a-8c06-61ddf84a9923))
    (pin "B" (uuid 3e18478d-54c9-494f-a339-dfc2e2786e85))
    (pin "C" (uuid d6048459-6b39-4f19-9d7e-b8d49ee0531f))
    (pin "S1" (uuid c8906cd0-629a-4af6-b97f-6174c604825d))
    (pin "S2" (uuid cae216ce-f58c-400b-af92-11607c7f31be))
    (instances
      (project "BSWelder"
        (path "/e63e39d7-6ac0-4ffd-8aa3-1841a4541b55"
          (reference "SW1") (unit 1)
        )
      )
    )
  )

  (symbol (lib_id "Device:R_Small") (at 251.46 99.06 0) (unit 1)
    (in_bom yes) (on_board yes) (dnp no)
    (uuid 00000000-0000-0000-0000-00005e0d0b94)
    (property "Reference" "R2" (at 252.9586 97.8916 0)
      (effects (font (size 1.27 1.27)) (justify left))
    )
    (property "Value" "1k" (at 252.9586 100.203 0)
      (effects (font (size 1.27 1.27)) (justify left))
    )
    (property "Footprint" "Resistor_SMD:R_0603_1608Metric" (at 251.46 99.06 0)
      (effects (font (size 1.27 1.27)) hide)
    )
    (property "Datasheet" "~" (at 251.46 99.06 0)
      (effects (font (size 1.27 1.27)) hide)
    )
    (pin "1" (uuid 45676493-f30b-43e9-be27-6fc73d4df73c))
    (pin "2" (uuid 013c83a2-f633-4742-94e2-f3f8e32a80ea))
    (instances
      (project "BSWelder"
        (path "/e63e39d7-6ac0-4ffd-8aa3-1841a4541b55"
          (reference "R2") (unit 1)
        )
      )
    )
  )

  (symbol (lib_id "Device:LED") (at 251.46 109.22 90) (unit 1)
    (in_bom yes) (on_board yes) (dnp no)
    (uuid 00000000-0000-0000-0000-00005e0d2ac3)
    (property "Reference" "D2" (at 254.4318 108.2294 90)
      (effects (font (size 1.27 1.27)) (justify right))
    )
    (property "Value" "LED" (at 254.4318 110.5408 90)
      (effects (font (size 1.27 1.27)) (justify right))
    )
    (property "Footprint" "LED_SMD:LED_0603_1608Metric" (at 251.46 109.22 0)
      (effects (font (size 1.27 1.27)) hide)
    )
    (property "Datasheet" "~" (at 251.46 109.22 0)
      (effects (font (size 1.27 1.27)) hide)
    )
    (pin "1" (uuid 90662c63-00a8-414d-b291-156d808a5167))
    (pin "2" (uuid 34a66dff-5e8e-44b4-accd-1d1a2a8e8c6d))
    (instances
      (project "BSWelder"
        (path "/e63e39d7-6ac0-4ffd-8aa3-1841a4541b55"
          (reference "D2") (unit 1)
        )
      )
    )
  )

  (symbol (lib_id "power:GND") (at 251.46 115.57 0) (unit 1)
    (in_bom yes) (on_board yes) (dnp no)
    (uuid 00000000-0000-0000-0000-00005e0d48a5)
    (property "Reference" "#PWR0114" (at 251.46 121.92 0)
      (effects (font (size 1.27 1.27)) hide)
    )
    (property "Value" "GND" (at 251.587 119.9642 0)
      (effects (font (size 1.27 1.27)))
    )
    (property "Footprint" "" (at 251.46 115.57 0)
      (effects (font (size 1.27 1.27)) hide)
    )
    (property "Datasheet" "" (at 251.46 115.57 0)
      (effects (font (size 1.27 1.27)) hide)
    )
    (pin "1" (uuid 0a5d8d9c-ca12-4ac1-a08b-a149bc4016ae))
    (instances
      (project "BSWelder"
        (path "/e63e39d7-6ac0-4ffd-8aa3-1841a4541b55"
          (reference "#PWR0114") (unit 1)
        )
      )
    )
  )

  (symbol (lib_id "Connector_Generic:Conn_01x04") (at 208.28 99.06 0) (mirror x) (unit 1)
    (in_bom yes) (on_board yes) (dnp no)
    (uuid 00000000-0000-0000-0000-00005e0d6869)
    (property "Reference" "J4" (at 206.1972 88.265 0)
      (effects (font (size 1.27 1.27)))
    )
    (property "Value" "OLED" (at 206.1972 90.5764 0)
      (effects (font (size 1.27 1.27)))
    )
    (property "Footprint" "Connector_PinSocket_2.54mm:PinSocket_1x04_P2.54mm_Vertical" (at 208.28 99.06 0)
      (effects (font (size 1.27 1.27)) hide)
    )
    (property "Datasheet" "~" (at 208.28 99.06 0)
      (effects (font (size 1.27 1.27)) hide)
    )
    (pin "1" (uuid 152788e3-3d71-4336-b2ba-010328d5706b))
    (pin "2" (uuid 1d819add-e678-455b-88b2-225db9bfed8c))
    (pin "3" (uuid 3f85c7eb-db8c-459f-9dfe-88948d0a3534))
    (pin "4" (uuid 2988c8bd-9fb3-4509-a0f4-5dfeb02e4567))
    (instances
      (project "BSWelder"
        (path "/e63e39d7-6ac0-4ffd-8aa3-1841a4541b55"
          (reference "J4") (unit 1)
        )
      )
    )
  )

  (symbol (lib_id "power:GND") (at 201.93 102.87 0) (unit 1)
    (in_bom yes) (on_board yes) (dnp no)
    (uuid 00000000-0000-0000-0000-00005e0d7ed0)
    (property "Reference" "#PWR0115" (at 201.93 109.22 0)
      (effects (font (size 1.27 1.27)) hide)
    )
    (property "Value" "GND" (at 202.057 107.2642 0)
      (effects (font (size 1.27 1.27)))
    )
    (property "Footprint" "" (at 201.93 102.87 0)
      (effects (font (size 1.27 1.27)) hide)
    )
    (property "Datasheet" "" (at 201.93 102.87 0)
      (effects (font (size 1.27 1.27)) hide)
    )
    (pin "1" (uuid 9023d575-ec6e-4dc4-a796-9e11f8b5fb6d))
    (instances
      (project "BSWelder"
        (path "/e63e39d7-6ac0-4ffd-8aa3-1841a4541b55"
          (reference "#PWR0115") (unit 1)
        )
      )
    )
  )

  (symbol (lib_id "power:+5V") (at 196.85 97.79 0) (unit 1)
    (in_bom yes) (on_board yes) (dnp no)
    (uuid 00000000-0000-0000-0000-00005e0d9b36)
    (property "Reference" "#PWR0116" (at 196.85 101.6 0)
      (effects (font (size 1.27 1.27)) hide)
    )
    (property "Value" "+5V" (at 197.231 93.3958 0)
      (effects (font (size 1.27 1.27)))
    )
    (property "Footprint" "" (at 196.85 97.79 0)
      (effects (font (size 1.27 1.27)) hide)
    )
    (property "Datasheet" "" (at 196.85 97.79 0)
      (effects (font (size 1.27 1.27)) hide)
    )
    (pin "1" (uuid b81d1dbf-7101-4872-b5c8-f1be9d876146))
    (instances
      (project "BSWelder"
        (path "/e63e39d7-6ac0-4ffd-8aa3-1841a4541b55"
          (reference "#PWR0116") (unit 1)
        )
      )
    )
  )

  (symbol (lib_id "Connector_Generic:Conn_01x02") (at 208.28 78.74 0) (mirror x) (unit 1)
    (in_bom yes) (on_board yes) (dnp no)
    (uuid 00000000-0000-0000-0000-00005e0f5de3)
    (property "Reference" "J3" (at 206.1972 70.485 0)
      (effects (font (size 1.27 1.27)))
    )
    (property "Value" "SCR" (at 206.1972 72.7964 0)
      (effects (font (size 1.27 1.27)))
    )
    (property "Footprint" "Connector_PinHeader_2.54mm:PinHeader_1x02_P2.54mm_Vertical" (at 208.28 78.74 0)
      (effects (font (size 1.27 1.27)) hide)
    )
    (property "Datasheet" "~" (at 208.28 78.74 0)
      (effects (font (size 1.27 1.27)) hide)
    )
    (pin "1" (uuid 4e2f3141-fc17-4e70-8cda-efe35db58ade))
    (pin "2" (uuid 7351572f-432e-4526-8ee8-5440f3991879))
    (instances
      (project "BSWelder"
        (path "/e63e39d7-6ac0-4ffd-8aa3-1841a4541b55"
          (reference "J3") (unit 1)
        )
      )
    )
  )

  (symbol (lib_id "power:GND") (at 201.93 80.01 0) (unit 1)
    (in_bom yes) (on_board yes) (dnp no)
    (uuid 00000000-0000-0000-0000-00005e0f851f)
    (property "Reference" "#PWR0120" (at 201.93 86.36 0)
      (effects (font (size 1.27 1.27)) hide)
    )
    (property "Value" "GND" (at 202.057 84.4042 0)
      (effects (font (size 1.27 1.27)))
    )
    (property "Footprint" "" (at 201.93 80.01 0)
      (effects (font (size 1.27 1.27)) hide)
    )
    (property "Datasheet" "" (at 201.93 80.01 0)
      (effects (font (size 1.27 1.27)) hide)
    )
    (pin "1" (uuid c8fcb735-5bce-440a-9a87-072097ba5fab))
    (instances
      (project "BSWelder"
        (path "/e63e39d7-6ac0-4ffd-8aa3-1841a4541b55"
          (reference "#PWR0120") (unit 1)
        )
      )
    )
  )

  (symbol (lib_id "power:GND") (at 201.93 133.35 0) (unit 1)
    (in_bom yes) (on_board yes) (dnp no)
    (uuid 00000000-0000-0000-0000-00005e1087b6)
    (property "Reference" "#PWR0121" (at 201.93 139.7 0)
      (effects (font (size 1.27 1.27)) hide)
    )
    (property "Value" "GND" (at 202.057 137.7442 0)
      (effects (font (size 1.27 1.27)))
    )
    (property "Footprint" "" (at 201.93 133.35 0)
      (effects (font (size 1.27 1.27)) hide)
    )
    (property "Datasheet" "" (at 201.93 133.35 0)
      (effects (font (size 1.27 1.27)) hide)
    )
    (pin "1" (uuid 0920a8df-ff60-46be-a4f6-e21af4c9ca47))
    (instances
      (project "BSWelder"
        (path "/e63e39d7-6ac0-4ffd-8aa3-1841a4541b55"
          (reference "#PWR0121") (unit 1)
        )
      )
    )
  )

  (symbol (lib_id "power:GND") (at 210.82 111.76 0) (unit 1)
    (in_bom yes) (on_board yes) (dnp no)
    (uuid 00000000-0000-0000-0000-00005e10d20a)
    (property "Reference" "#PWR0122" (at 210.82 118.11 0)
      (effects (font (size 1.27 1.27)) hide)
    )
    (property "Value" "GND" (at 210.947 116.1542 0)
      (effects (font (size 1.27 1.27)))
    )
    (property "Footprint" "" (at 210.82 111.76 0)
      (effects (font (size 1.27 1.27)) hide)
    )
    (property "Datasheet" "" (at 210.82 111.76 0)
      (effects (font (size 1.27 1.27)) hide)
    )
    (pin "1" (uuid c08dfba7-5e87-4e40-b568-a9f3aa6cde6d))
    (instances
      (project "BSWelder"
        (path "/e63e39d7-6ac0-4ffd-8aa3-1841a4541b55"
          (reference "#PWR0122") (unit 1)
        )
      )
    )
  )

  (symbol (lib_id "power:PWR_FLAG") (at 110.49 76.2 180) (unit 1)
    (in_bom yes) (on_board yes) (dnp no)
    (uuid 00000000-0000-0000-0000-00005e152860)
    (property "Reference" "#FLG0101" (at 110.49 78.105 0)
      (effects (font (size 1.27 1.27)) hide)
    )
    (property "Value" "PWR_FLAG" (at 110.49 80.5942 0)
      (effects (font (size 1.27 1.27)))
    )
    (property "Footprint" "" (at 110.49 76.2 0)
      (effects (font (size 1.27 1.27)) hide)
    )
    (property "Datasheet" "~" (at 110.49 76.2 0)
      (effects (font (size 1.27 1.27)) hide)
    )
    (pin "1" (uuid 906f9e27-6dc1-44d8-a7a1-a2c0b57d2fe3))
    (instances
      (project "BSWelder"
        (path "/e63e39d7-6ac0-4ffd-8aa3-1841a4541b55"
          (reference "#FLG0101") (unit 1)
        )
      )
    )
  )

  (symbol (lib_id "power:+5V") (at 110.49 74.93 0) (unit 1)
    (in_bom yes) (on_board yes) (dnp no)
    (uuid 00000000-0000-0000-0000-00005e162312)
    (property "Reference" "#PWR0123" (at 110.49 78.74 0)
      (effects (font (size 1.27 1.27)) hide)
    )
    (property "Value" "+5V" (at 110.871 70.5358 0)
      (effects (font (size 1.27 1.27)))
    )
    (property "Footprint" "" (at 110.49 74.93 0)
      (effects (font (size 1.27 1.27)) hide)
    )
    (property "Datasheet" "" (at 110.49 74.93 0)
      (effects (font (size 1.27 1.27)) hide)
    )
    (pin "1" (uuid c6787033-5966-44e5-8ae7-de6f11d613d3))
    (instances
      (project "BSWelder"
        (path "/e63e39d7-6ac0-4ffd-8aa3-1841a4541b55"
          (reference "#PWR0123") (unit 1)
        )
      )
    )
  )

  (symbol (lib_id "power:PWR_FLAG") (at 110.49 87.63 0) (unit 1)
    (in_bom yes) (on_board yes) (dnp no)
    (uuid 00000000-0000-0000-0000-00005e163e3f)
    (property "Reference" "#FLG0102" (at 110.49 85.725 0)
      (effects (font (size 1.27 1.27)) hide)
    )
    (property "Value" "PWR_FLAG" (at 110.49 83.2358 0)
      (effects (font (size 1.27 1.27)))
    )
    (property "Footprint" "" (at 110.49 87.63 0)
      (effects (font (size 1.27 1.27)) hide)
    )
    (property "Datasheet" "~" (at 110.49 87.63 0)
      (effects (font (size 1.27 1.27)) hide)
    )
    (pin "1" (uuid 3394b71b-2ad0-410b-8b8d-c82b87c95d46))
    (instances
      (project "BSWelder"
        (path "/e63e39d7-6ac0-4ffd-8aa3-1841a4541b55"
          (reference "#FLG0102") (unit 1)
        )
      )
    )
  )

  (symbol (lib_id "power:GND") (at 110.49 88.9 0) (unit 1)
    (in_bom yes) (on_board yes) (dnp no)
    (uuid 00000000-0000-0000-0000-00005e1647d8)
    (property "Reference" "#PWR0124" (at 110.49 95.25 0)
      (effects (font (size 1.27 1.27)) hide)
    )
    (property "Value" "GND" (at 110.617 93.2942 0)
      (effects (font (size 1.27 1.27)))
    )
    (property "Footprint" "" (at 110.49 88.9 0)
      (effects (font (size 1.27 1.27)) hide)
    )
    (property "Datasheet" "" (at 110.49 88.9 0)
      (effects (font (size 1.27 1.27)) hide)
    )
    (pin "1" (uuid 7256cf16-e650-4bb1-aed1-e6a10cd02c03))
    (instances
      (project "BSWelder"
        (path "/e63e39d7-6ac0-4ffd-8aa3-1841a4541b55"
          (reference "#PWR0124") (unit 1)
        )
      )
    )
  )

  (symbol (lib_id "Connector_Generic:Conn_02x03_Odd_Even") (at 245.11 76.2 90) (unit 1)
    (in_bom yes) (on_board yes) (dnp no)
    (uuid 00000000-0000-0000-0000-00005e1b0259)
    (property "Reference" "J5" (at 249.8852 73.7616 90)
      (effects (font (size 1.27 1.27)) (justify right))
    )
    (property "Value" "Trig" (at 249.8852 76.073 90)
      (effects (font (size 1.27 1.27)) (justify right))
    )
    (property "Footprint" "Connector_PinSocket_2.54mm:PinSocket_2x03_P2.54mm_Vertical" (at 245.11 76.2 0)
      (effects (font (size 1.27 1.27)) hide)
    )
    (property "Datasheet" "~" (at 245.11 76.2 0)
      (effects (font (size 1.27 1.27)) hide)
    )
    (pin "1" (uuid 5c9781b7-ad5a-42e7-9d23-83b4ce407673))
    (pin "2" (uuid 4bf0b401-7fb3-4c2b-a89c-1ac3ae37840f))
    (pin "3" (uuid 086ee5d1-d73d-452a-a189-f1877005b794))
    (pin "4" (uuid 3cf1be89-118d-4883-a862-f7df175f74fe))
    (pin "5" (uuid c2182f8f-b67f-47d2-8418-d70022a557f2))
    (pin "6" (uuid 7ad49797-57f4-4a79-878d-cc403f01262c))
    (instances
      (project "BSWelder"
        (path "/e63e39d7-6ac0-4ffd-8aa3-1841a4541b55"
          (reference "J5") (unit 1)
        )
      )
    )
  )

  (symbol (lib_id "power:GND") (at 245.11 82.55 0) (unit 1)
    (in_bom yes) (on_board yes) (dnp no)
    (uuid 00000000-0000-0000-0000-00005e1b1045)
    (property "Reference" "#PWR0117" (at 245.11 88.9 0)
      (effects (font (size 1.27 1.27)) hide)
    )
    (property "Value" "GND" (at 245.237 86.9442 0)
      (effects (font (size 1.27 1.27)))
    )
    (property "Footprint" "" (at 245.11 82.55 0)
      (effects (font (size 1.27 1.27)) hide)
    )
    (property "Datasheet" "" (at 245.11 82.55 0)
      (effects (font (size 1.27 1.27)) hide)
    )
    (pin "1" (uuid e581a296-4c4a-43b0-9ede-1baad4cc2eb0))
    (instances
      (project "BSWelder"
        (path "/e63e39d7-6ac0-4ffd-8aa3-1841a4541b55"
          (reference "#PWR0117") (unit 1)
        )
      )
    )
  )

  (symbol (lib_id "Connector_Generic:Conn_02x03_Odd_Even") (at 245.11 133.35 180) (unit 1)
    (in_bom yes) (on_board yes) (dnp no)
    (uuid 00000000-0000-0000-0000-00005e1bcd98)
    (property "Reference" "J6" (at 243.84 125.095 0)
      (effects (font (size 1.27 1.27)))
    )
    (property "Value" "ISP" (at 243.84 127.4064 0)
      (effects (font (size 1.27 1.27)))
    )
    (property "Footprint" "Connector_PinSocket_2.54mm:PinSocket_2x03_P2.54mm_Vertical" (at 245.11 133.35 0)
      (effects (font (size 1.27 1.27)) hide)
    )
    (property "Datasheet" "~" (at 245.11 133.35 0)
      (effects (font (size 1.27 1.27)) hide)
    )
    (pin "1" (uuid 108c204d-b12f-43eb-adc6-b46169116738))
    (pin "2" (uuid 75990a9c-a466-42ea-b704-a1b564052f8c))
    (pin "3" (uuid 68f7e376-0e30-4699-a761-295d29781a5f))
    (pin "4" (uuid 691fdcfe-a6e4-4b14-9767-675501b057aa))
    (pin "5" (uuid a92dab69-113e-43e5-832e-2584b32dd031))
    (pin "6" (uuid 1e4f7d4e-aecf-4032-a73e-20a3eac0ac93))
    (instances
      (project "BSWelder"
        (path "/e63e39d7-6ac0-4ffd-8aa3-1841a4541b55"
          (reference "J6") (unit 1)
        )
      )
    )
  )

  (sheet_instances
    (path "/" (page "1"))
  )
)
