(kicad_sch (version 20230121) (generator eeschema)

  (uuid cd9ff272-1d4f-4633-9697-16737ce8e2be)

  (paper "A4")

  (lib_symbols
    (symbol "power:+5V" (power) (pin_names (offset 0)) (in_bom yes) (on_board yes)
      (property "Reference" "#PWR" (at 0 -3.81 0)
        (effects (font (size 1.27 1.27)) hide)
      )
      (property "Value" "+5V" (at 0 3.556 0)
        (effects (font (size 1.27 1.27)))
      )
      (property "Footprint" "" (at 0 0 0)
        (effects (font (size 1.27 1.27)) hide)
      )
      (property "Datasheet" "" (at 0 0 0)
        (effects (font (size 1.27 1.27)) hide)
      )
      (property "ki_keywords" "global power" (at 0 0 0)
        (effects (font (size 1.27 1.27)) hide)
      )
      (property "ki_description" "Power symbol creates a global label with name \"+5V\"" (at 0 0 0)
        (effects (font (size 1.27 1.27)) hide)
      )
      (symbol "+5V_0_1"
        (polyline
          (pts
            (xy -0.762 1.27)
            (xy 0 2.54)
          )
          (stroke (width 0) (type default))
          (fill (type none))
        )
        (polyline
          (pts
            (xy 0 0)
            (xy 0 2.54)
          )
          (stroke (width 0) (type default))
          (fill (type none))
        )
        (polyline
          (pts
            (xy 0 2.54)
            (xy 0.762 1.27)
          )
          (stroke (width 0) (type default))
          (fill (type none))
        )
      )
      (symbol "+5V_1_1"
        (pin power_in line (at 0 0 90) (length 0) hide
          (name "+5V" (effects (font (size 1.27 1.27))))
          (number "1" (effects (font (size 1.27 1.27))))
        )
      )
    )
    (symbol "power:GND" (power) (pin_names (offset 0)) (in_bom yes) (on_board yes)
      (property "Reference" "#PWR" (at 0 -6.35 0)
        (effects (font (size 1.27 1.27)) hide)
      )
      (property "Value" "GND" (at 0 -3.81 0)
        (effects (font (size 1.27 1.27)))
      )
      (property "Footprint" "" (at 0 0 0)
        (effects (font (size 1.27 1.27)) hide)
      )
      (property "Datasheet" "" (at 0 0 0)
        (effects (font (size 1.27 1.27)) hide)
      )
      (property "ki_keywords" "global power" (at 0 0 0)
        (effects (font (size 1.27 1.27)) hide)
      )
      (property "ki_description" "Power symbol creates a global label with name \"GND\" , ground" (at 0 0 0)
        (effects (font (size 1.27 1.27)) hide)
      )
      (symbol "GND_0_1"
        (polyline
          (pts
            (xy 0 0)
            (xy 0 -1.27)
            (xy 1.27 -1.27)
            (xy 0 -2.54)
            (xy -1.27 -1.27)
            (xy 0 -1.27)
          )
          (stroke (width 0) (type default))
          (fill (type none))
        )
      )
      (symbol "GND_1_1"
        (pin power_in line (at 0 0 270) (length 0) hide
          (name "GND" (effects (font (size 1.27 1.27))))
          (number "1" (effects (font (size 1.27 1.27))))
        )
      )
    )
    (symbol "sk6812-mini-e:SK6812-MINI-E" (pin_names (offset 0.254)) (in_bom yes) (on_board yes)
      (property "Reference" "D" (at 5.08 5.715 0)
        (effects (font (size 1.27 1.27)) (justify right bottom))
      )
      (property "Value" "SK6812-MINI-E" (at 1.27 -5.715 0)
        (effects (font (size 1.27 1.27)) (justify left top))
      )
      (property "Footprint" "footprints:sk6812-mini-e" (at 1.27 -7.62 0)
        (effects (font (size 1.27 1.27)) (justify left top) hide)
      )
      (property "Datasheet" "" (at 2.54 -9.525 0)
        (effects (font (size 1.27 1.27)) (justify left top) hide)
      )
      (property "ki_keywords" "RGB LED NeoPixel Mini addressable" (at 0 0 0)
        (effects (font (size 1.27 1.27)) hide)
      )
      (property "ki_description" "RGB LED with integrated controller" (at 0 0 0)
        (effects (font (size 1.27 1.27)) hide)
      )
      (property "ki_fp_filters" "LED*SK6812MINI*PLCC*3.5x3.5mm*P1.75mm*" (at 0 0 0)
        (effects (font (size 1.27 1.27)) hide)
      )
      (symbol "SK6812-MINI-E_0_0"
        (text "RGB" (at 2.286 -4.191 0)
          (effects (font (size 0.762 0.762)))
        )
      )
      (symbol "SK6812-MINI-E_0_1"
        (polyline
          (pts
            (xy 1.27 -3.556)
            (xy 1.778 -3.556)
          )
          (stroke (width 0) (type default))
          (fill (type none))
        )
        (polyline
          (pts
            (xy 1.27 -2.54)
            (xy 1.778 -2.54)
          )
          (stroke (width 0) (type default))
          (fill (type none))
        )
        (polyline
          (pts
            (xy 4.699 -3.556)
            (xy 2.667 -3.556)
          )
          (stroke (width 0) (type default))
          (fill (type none))
        )
        (polyline
          (pts
            (xy 2.286 -2.54)
            (xy 1.27 -3.556)
            (xy 1.27 -3.048)
          )
          (stroke (width 0) (type default))
          (fill (type none))
        )
        (polyline
          (pts
            (xy 2.286 -1.524)
            (xy 1.27 -2.54)
            (xy 1.27 -2.032)
          )
          (stroke (width 0) (type default))
          (fill (type none))
        )
        (polyline
          (pts
            (xy 3.683 -1.016)
            (xy 3.683 -3.556)
            (xy 3.683 -4.064)
          )
          (stroke (width 0) (type default))
          (fill (type none))
        )
        (polyline
          (pts
            (xy 4.699 -1.524)
            (xy 2.667 -1.524)
            (xy 3.683 -3.556)
            (xy 4.699 -1.524)
          )
          (stroke (width 0) (type default))
          (fill (type none))
        )
        (rectangle (start 5.08 5.08) (end -5.08 -5.08)
          (stroke (width 0.254) (type default))
          (fill (type background))
        )
      )
      (symbol "SK6812-MINI-E_1_1"
        (pin power_in line (at 0 7.62 270) (length 2.54)
          (name "VDD" (effects (font (size 1.27 1.27))))
          (number "1" (effects (font (size 1.27 1.27))))
        )
        (pin output line (at 7.62 0 180) (length 2.54)
          (name "DOUT" (effects (font (size 1.27 1.27))))
          (number "2" (effects (font (size 1.27 1.27))))
        )
        (pin power_in line (at 0 -7.62 90) (length 2.54)
          (name "GND" (effects (font (size 1.27 1.27))))
          (number "3" (effects (font (size 1.27 1.27))))
        )
        (pin input line (at -7.62 0 0) (length 2.54)
          (name "DIN" (effects (font (size 1.27 1.27))))
          (number "4" (effects (font (size 1.27 1.27))))
        )
      )
    )
  )

  (junction (at 116.84 55.245) (diameter 0) (color 0 0 0 0)
    (uuid 07b199d2-50b3-4bdc-8e5c-a22c2ed5d198)
  )
  (junction (at 61.595 73.025) (diameter 0) (color 0 0 0 0)
    (uuid 0d572048-4e43-4a4c-bc4f-25a41c520e6b)
  )
  (junction (at 153.67 55.245) (diameter 0) (color 0 0 0 0)
    (uuid 1846beeb-66db-4789-8051-0b0aa1624873)
  )
  (junction (at 227.33 55.245) (diameter 0) (color 0 0 0 0)
    (uuid 24c11b43-ecfa-4b2a-acd0-97971addde05)
  )
  (junction (at 208.915 55.245) (diameter 0) (color 0 0 0 0)
    (uuid 25891d7e-bcc2-48bf-a40a-547655524748)
  )
  (junction (at 190.5 37.465) (diameter 0) (color 0 0 0 0)
    (uuid 25ad81c2-3654-4f44-97ee-bc9b046a9696)
  )
  (junction (at 80.01 37.465) (diameter 0) (color 0 0 0 0)
    (uuid 277daad2-3ac7-4cff-a1b1-6ed74f0a516d)
  )
  (junction (at 172.085 73.025) (diameter 0) (color 0 0 0 0)
    (uuid 2e68e828-e5e8-4bb3-b726-40d2ec0dc1c3)
  )
  (junction (at 153.67 90.805) (diameter 0) (color 0 0 0 0)
    (uuid 33765083-adfe-44a4-b100-8d727cab1f76)
  )
  (junction (at 172.085 55.245) (diameter 0) (color 0 0 0 0)
    (uuid 339bd37f-4494-4f6b-9aee-2ed5dd98d536)
  )
  (junction (at 61.595 55.245) (diameter 0) (color 0 0 0 0)
    (uuid 347fb025-09ae-4cc5-a0eb-ac311a9796ef)
  )
  (junction (at 190.5 108.585) (diameter 0) (color 0 0 0 0)
    (uuid 37b8b556-ed89-49b5-8368-efd897088a3f)
  )
  (junction (at 98.425 73.025) (diameter 0) (color 0 0 0 0)
    (uuid 381458bf-a6d1-41d5-9d10-75c73cebe499)
  )
  (junction (at 153.67 37.465) (diameter 0) (color 0 0 0 0)
    (uuid 44e10fe4-6942-4b6b-b78b-001ec8c33fac)
  )
  (junction (at 116.84 108.585) (diameter 0) (color 0 0 0 0)
    (uuid 4615dd23-6131-4162-acc5-ebe517444f6d)
  )
  (junction (at 45.085 37.465) (diameter 0) (color 0 0 0 0)
    (uuid 4b1f2120-059d-4628-b3ba-a5a021aa5809)
  )
  (junction (at 116.84 73.025) (diameter 0) (color 0 0 0 0)
    (uuid 5000e112-dd04-40d0-9fb2-577ed82928ff)
  )
  (junction (at 208.915 37.465) (diameter 0) (color 0 0 0 0)
    (uuid 500a445f-10df-42d3-874f-c701881148f9)
  )
  (junction (at 208.915 73.025) (diameter 0) (color 0 0 0 0)
    (uuid 5222347b-f137-48b0-82a4-a84cd3d11279)
  )
  (junction (at 80.01 73.025) (diameter 0) (color 0 0 0 0)
    (uuid 67fb3510-cce1-4e7e-8a77-9ea0de1cb180)
  )
  (junction (at 227.33 90.805) (diameter 0) (color 0 0 0 0)
    (uuid 6f1f6592-1fb2-4ed1-88e8-752f1ef60ee8)
  )
  (junction (at 98.425 90.805) (diameter 0) (color 0 0 0 0)
    (uuid 7956f1c7-73c5-4329-854f-3a3c2903ad65)
  )
  (junction (at 116.84 90.805) (diameter 0) (color 0 0 0 0)
    (uuid 81d09f24-71ea-4eb0-ac82-5fde54495ef9)
  )
  (junction (at 61.595 108.585) (diameter 0) (color 0 0 0 0)
    (uuid 89a40719-efb6-47a8-86ed-cc5980335084)
  )
  (junction (at 61.595 37.465) (diameter 0) (color 0 0 0 0)
    (uuid 8e6d76be-41f7-4733-9664-802108a295fc)
  )
  (junction (at 172.085 90.805) (diameter 0) (color 0 0 0 0)
    (uuid 93c4b71b-2cd9-4719-967f-57df197473e4)
  )
  (junction (at 208.915 108.585) (diameter 0) (color 0 0 0 0)
    (uuid 93cae827-b012-42c9-b241-60f3ad5c3a2c)
  )
  (junction (at 80.01 55.245) (diameter 0) (color 0 0 0 0)
    (uuid 9d9e31de-5561-4e90-9cf2-93caafb1e207)
  )
  (junction (at 135.255 90.805) (diameter 0) (color 0 0 0 0)
    (uuid 9ec1d9cc-4665-4c11-a1ba-5fe7e88c7280)
  )
  (junction (at 135.255 108.585) (diameter 0) (color 0 0 0 0)
    (uuid a96df460-5504-4036-b8be-7aba3472bd3d)
  )
  (junction (at 98.425 108.585) (diameter 0) (color 0 0 0 0)
    (uuid aa434bb2-58b4-4779-a2bb-1935b299e34d)
  )
  (junction (at 135.255 73.025) (diameter 0) (color 0 0 0 0)
    (uuid b07d0d77-fc26-4528-96e2-05d2403aa072)
  )
  (junction (at 172.085 108.585) (diameter 0) (color 0 0 0 0)
    (uuid b192893f-82c7-43ee-95b9-e38bc5ea0f65)
  )
  (junction (at 190.5 55.245) (diameter 0) (color 0 0 0 0)
    (uuid b40dba50-ede3-4d5f-923b-ebebb9898c65)
  )
  (junction (at 98.425 55.245) (diameter 0) (color 0 0 0 0)
    (uuid b630f9b2-32cc-4b40-b788-52a8a1677b87)
  )
  (junction (at 116.84 37.465) (diameter 0) (color 0 0 0 0)
    (uuid c290538b-4bde-4c5f-bf87-cb65dd62c819)
  )
  (junction (at 153.67 73.025) (diameter 0) (color 0 0 0 0)
    (uuid c2aae37d-becc-4160-9825-492327e13aed)
  )
  (junction (at 80.01 108.585) (diameter 0) (color 0 0 0 0)
    (uuid d4e833b1-a628-4ab6-a545-604dd8cfeddb)
  )
  (junction (at 172.085 37.465) (diameter 0) (color 0 0 0 0)
    (uuid d51ca3a6-0672-472e-979c-9f9c6da3176e)
  )
  (junction (at 190.5 73.025) (diameter 0) (color 0 0 0 0)
    (uuid dcb5e1fe-126c-4153-af09-7656c1315777)
  )
  (junction (at 153.67 108.585) (diameter 0) (color 0 0 0 0)
    (uuid dd32adde-a443-4046-9bd9-1d0ec85d2fe7)
  )
  (junction (at 46.355 90.805) (diameter 0) (color 0 0 0 0)
    (uuid e2a5f1b5-2aa9-4392-9011-67dc869e166d)
  )
  (junction (at 61.595 90.805) (diameter 0) (color 0 0 0 0)
    (uuid e2f41a25-88eb-43d3-9505-ad0a60512df6)
  )
  (junction (at 98.425 37.465) (diameter 0) (color 0 0 0 0)
    (uuid e3e661da-af2d-4b46-8dab-088d837a446c)
  )
  (junction (at 190.5 90.805) (diameter 0) (color 0 0 0 0)
    (uuid e4edbc8b-d087-4006-9d10-a0552f31587e)
  )
  (junction (at 45.085 73.025) (diameter 0) (color 0 0 0 0)
    (uuid eb9c9c6d-2df1-4eb7-8bd6-32da53385a7b)
  )
  (junction (at 135.255 37.465) (diameter 0) (color 0 0 0 0)
    (uuid ec7b8c09-4d06-4fc0-8b6b-4db8ee38bfee)
  )
  (junction (at 135.255 55.245) (diameter 0) (color 0 0 0 0)
    (uuid f26ba86e-007c-4b67-856e-273c02f8ae7b)
  )
  (junction (at 227.33 73.025) (diameter 0) (color 0 0 0 0)
    (uuid f45a5594-950a-4cdf-b240-e32276bba008)
  )
  (junction (at 80.01 90.805) (diameter 0) (color 0 0 0 0)
    (uuid f7ba7be3-eb30-49e9-be4c-7b849ce50daa)
  )
  (junction (at 208.915 90.805) (diameter 0) (color 0 0 0 0)
    (uuid ff456e5b-0804-4f9b-ab5b-0474e23d9cf9)
  )

  (no_connect (at 53.975 99.695) (uuid b0627539-47d3-454f-b101-2f42601be586))

  (wire (pts (xy 116.84 55.245) (xy 116.84 56.515))
    (stroke (width 0) (type default))
    (uuid 002d85fd-257e-49d3-9442-d14deca43192)
  )
  (wire (pts (xy 161.29 99.695) (xy 164.465 99.695))
    (stroke (width 0) (type default))
    (uuid 032683f2-cc52-4fde-b2af-abd73417cd74)
  )
  (wire (pts (xy 98.425 108.585) (xy 80.01 108.585))
    (stroke (width 0) (type default))
    (uuid 0349ca5b-a0a5-47b4-94ac-1c542dd25e88)
  )
  (wire (pts (xy 98.425 73.025) (xy 116.84 73.025))
    (stroke (width 0) (type default))
    (uuid 050b5d52-430a-4ac2-8cb2-8dbf54b2aad4)
  )
  (wire (pts (xy 116.84 108.585) (xy 116.84 107.315))
    (stroke (width 0) (type default))
    (uuid 0650917e-d6c6-4951-9a36-516ad9e9d5e3)
  )
  (wire (pts (xy 135.255 90.805) (xy 135.255 89.535))
    (stroke (width 0) (type default))
    (uuid 0668022d-e127-489b-868b-c5b5f2a4d18b)
  )
  (wire (pts (xy 135.255 73.025) (xy 135.255 74.295))
    (stroke (width 0) (type default))
    (uuid 0730800e-bcac-436b-a62b-b963681bd5db)
  )
  (wire (pts (xy 172.085 73.025) (xy 172.085 71.755))
    (stroke (width 0) (type default))
    (uuid 085382ed-8c97-4708-a9ed-c9a9e7976e66)
  )
  (wire (pts (xy 153.67 89.535) (xy 153.67 90.805))
    (stroke (width 0) (type default))
    (uuid 0d07497c-e79d-48b7-8052-77f56b3bae06)
  )
  (wire (pts (xy 153.67 73.025) (xy 153.67 74.295))
    (stroke (width 0) (type default))
    (uuid 11b5c49e-36d3-4099-b762-b6bc2075a529)
  )
  (wire (pts (xy 227.33 107.315) (xy 227.33 108.585))
    (stroke (width 0) (type default))
    (uuid 1203eaec-40dd-414f-9427-cb9db632c8ba)
  )
  (wire (pts (xy 87.63 64.135) (xy 90.805 64.135))
    (stroke (width 0) (type default))
    (uuid 13b51c5f-b1ee-4887-8b2a-7703a25f5c58)
  )
  (wire (pts (xy 98.425 55.245) (xy 98.425 56.515))
    (stroke (width 0) (type default))
    (uuid 145b00cb-db30-4286-8743-1cbc7673c2ed)
  )
  (wire (pts (xy 172.085 108.585) (xy 153.67 108.585))
    (stroke (width 0) (type default))
    (uuid 1477e8b6-32a7-4eb9-b185-08918c7d1514)
  )
  (wire (pts (xy 208.915 90.805) (xy 208.915 92.075))
    (stroke (width 0) (type default))
    (uuid 147d9cc6-7876-423b-9902-1b838ca11b30)
  )
  (wire (pts (xy 172.085 90.805) (xy 172.085 89.535))
    (stroke (width 0) (type default))
    (uuid 1576982b-661d-4414-a553-1cb54cbd9bc7)
  )
  (wire (pts (xy 208.915 108.585) (xy 208.915 107.315))
    (stroke (width 0) (type default))
    (uuid 159ea884-ac90-4fd7-bf57-913b3eeccf36)
  )
  (wire (pts (xy 61.595 55.245) (xy 46.355 55.245))
    (stroke (width 0) (type default))
    (uuid 15b9e8c4-794d-4cda-beec-76c57a7b83e9)
  )
  (wire (pts (xy 45.085 73.025) (xy 61.595 73.025))
    (stroke (width 0) (type default))
    (uuid 175585d3-e7d3-4d1f-b9fa-7bb82c178c62)
  )
  (wire (pts (xy 179.705 64.135) (xy 182.88 64.135))
    (stroke (width 0) (type default))
    (uuid 18526d92-2104-4d5a-ad0a-e5f3a9e43b41)
  )
  (wire (pts (xy 172.085 108.585) (xy 172.085 107.315))
    (stroke (width 0) (type default))
    (uuid 199afa86-5bb7-4469-be42-86fe5fabce62)
  )
  (wire (pts (xy 116.84 73.025) (xy 135.255 73.025))
    (stroke (width 0) (type default))
    (uuid 1a6a7087-c831-4d76-8eed-55ae4228ae9d)
  )
  (wire (pts (xy 135.255 73.025) (xy 135.255 71.755))
    (stroke (width 0) (type default))
    (uuid 1a956199-642f-410d-bd33-cdc890c10db6)
  )
  (wire (pts (xy 172.085 37.465) (xy 172.085 38.735))
    (stroke (width 0) (type default))
    (uuid 1ae4e291-4a52-4121-8fc9-2cfb2190402d)
  )
  (wire (pts (xy 45.085 73.025) (xy 45.085 37.465))
    (stroke (width 0) (type default))
    (uuid 1d16e545-aab6-44f6-94d7-9a181c8654f9)
  )
  (wire (pts (xy 142.875 81.915) (xy 146.05 81.915))
    (stroke (width 0) (type default))
    (uuid 1eb9e1b9-53bf-4204-9133-a204961317fd)
  )
  (wire (pts (xy 190.5 55.245) (xy 190.5 56.515))
    (stroke (width 0) (type default))
    (uuid 20f8dd2c-bfaa-414a-9546-a624c588446c)
  )
  (wire (pts (xy 172.085 90.805) (xy 172.085 92.075))
    (stroke (width 0) (type default))
    (uuid 2161d41c-f1ff-41c3-930d-2252d54e352f)
  )
  (wire (pts (xy 153.67 108.585) (xy 153.67 107.315))
    (stroke (width 0) (type default))
    (uuid 247d9762-2036-4f9d-aea5-fc7c55991f4f)
  )
  (wire (pts (xy 135.255 90.805) (xy 135.255 92.075))
    (stroke (width 0) (type default))
    (uuid 2567c0f9-5abc-4029-a250-d45defa0edbe)
  )
  (wire (pts (xy 190.5 108.585) (xy 190.5 107.315))
    (stroke (width 0) (type default))
    (uuid 26d955a5-8cdf-4ba8-980d-a556cf991e68)
  )
  (wire (pts (xy 87.63 46.355) (xy 90.805 46.355))
    (stroke (width 0) (type default))
    (uuid 28050581-6dc8-4d76-b4bf-d95d6a46babd)
  )
  (wire (pts (xy 227.33 73.025) (xy 227.33 74.295))
    (stroke (width 0) (type default))
    (uuid 29b0170a-b297-4657-9d42-a747963252a8)
  )
  (wire (pts (xy 190.5 90.805) (xy 190.5 92.075))
    (stroke (width 0) (type default))
    (uuid 2a40bd49-fb69-4453-9d5d-f002e4f1f7a3)
  )
  (wire (pts (xy 106.045 99.695) (xy 109.22 99.695))
    (stroke (width 0) (type default))
    (uuid 2b9d431b-fd76-4599-9a51-684e52b4f596)
  )
  (wire (pts (xy 198.12 46.355) (xy 201.295 46.355))
    (stroke (width 0) (type default))
    (uuid 30408a16-c17b-411f-a458-db0b13fedef2)
  )
  (wire (pts (xy 172.085 73.025) (xy 190.5 73.025))
    (stroke (width 0) (type default))
    (uuid 32018b4c-a364-433b-8c83-41af1f367cc9)
  )
  (wire (pts (xy 45.085 34.925) (xy 45.085 37.465))
    (stroke (width 0) (type default))
    (uuid 322870aa-95b7-4d0b-9973-1905ab4acb36)
  )
  (wire (pts (xy 172.085 73.025) (xy 172.085 74.295))
    (stroke (width 0) (type default))
    (uuid 335368ad-a2ba-403b-a98c-85870d4e93f5)
  )
  (wire (pts (xy 153.67 37.465) (xy 172.085 37.465))
    (stroke (width 0) (type default))
    (uuid 33cf97ae-30bc-4f30-8d8d-d9ef4d216b1d)
  )
  (wire (pts (xy 124.46 81.915) (xy 127.635 81.915))
    (stroke (width 0) (type default))
    (uuid 37803c96-03ed-4b3f-87ec-a606067c3c08)
  )
  (wire (pts (xy 80.01 90.805) (xy 80.01 92.075))
    (stroke (width 0) (type default))
    (uuid 3a53758e-b342-4fa5-89ff-226e5fd00d0e)
  )
  (wire (pts (xy 243.84 99.695) (xy 234.95 99.695))
    (stroke (width 0) (type default))
    (uuid 3a5c8577-93c7-4db3-aef0-833e81cdf2a7)
  )
  (wire (pts (xy 80.01 108.585) (xy 61.595 108.585))
    (stroke (width 0) (type default))
    (uuid 40b646da-d316-447b-8a4e-38d80439d86b)
  )
  (wire (pts (xy 61.595 73.025) (xy 80.01 73.025))
    (stroke (width 0) (type default))
    (uuid 40c3be19-b41b-4b91-b709-5f3ab323e960)
  )
  (wire (pts (xy 227.33 55.245) (xy 208.915 55.245))
    (stroke (width 0) (type default))
    (uuid 40d47573-866a-4b27-85f5-00c940e014fc)
  )
  (wire (pts (xy 227.33 73.025) (xy 227.33 71.755))
    (stroke (width 0) (type default))
    (uuid 419252a1-0be1-4d7b-8e29-55cf819e63e4)
  )
  (wire (pts (xy 234.95 46.355) (xy 243.84 46.355))
    (stroke (width 0) (type default))
    (uuid 4277ebea-d701-4131-8472-1677b9e65ecb)
  )
  (wire (pts (xy 116.84 73.025) (xy 116.84 71.755))
    (stroke (width 0) (type default))
    (uuid 437cb65d-d4e4-477d-bfbc-96d0f7b200f4)
  )
  (wire (pts (xy 227.33 90.805) (xy 208.915 90.805))
    (stroke (width 0) (type default))
    (uuid 45be0491-52f7-4bb2-ab9c-72a370ab64b9)
  )
  (wire (pts (xy 116.84 89.535) (xy 116.84 90.805))
    (stroke (width 0) (type default))
    (uuid 46291516-4e54-4404-a2f2-df7806d60c6c)
  )
  (wire (pts (xy 98.425 89.535) (xy 98.425 90.805))
    (stroke (width 0) (type default))
    (uuid 481b707d-b275-48c4-9854-9637bc151160)
  )
  (wire (pts (xy 198.12 99.695) (xy 201.295 99.695))
    (stroke (width 0) (type default))
    (uuid 48d52467-2834-49ff-9ebe-3b0f30efec74)
  )
  (wire (pts (xy 61.595 108.585) (xy 61.595 107.315))
    (stroke (width 0) (type default))
    (uuid 48e7915f-85da-4aac-82e0-537a035d8e5d)
  )
  (wire (pts (xy 190.5 55.245) (xy 190.5 53.975))
    (stroke (width 0) (type default))
    (uuid 4a31cedb-035b-44d3-b8a7-cdb1fc4ce669)
  )
  (wire (pts (xy 190.5 89.535) (xy 190.5 90.805))
    (stroke (width 0) (type default))
    (uuid 4b4b7d50-0148-4776-8324-76d1ca9fa8d4)
  )
  (wire (pts (xy 190.5 90.805) (xy 172.085 90.805))
    (stroke (width 0) (type default))
    (uuid 4c0ed5f0-0c03-428d-8010-8d4086dc778d)
  )
  (wire (pts (xy 208.915 73.025) (xy 208.915 71.755))
    (stroke (width 0) (type default))
    (uuid 4c6a100e-391a-45dd-9962-be7113c086db)
  )
  (wire (pts (xy 61.595 73.025) (xy 61.595 74.295))
    (stroke (width 0) (type default))
    (uuid 4ca7cca2-2aae-463e-b646-a47cc0b9e67f)
  )
  (wire (pts (xy 172.085 55.245) (xy 172.085 53.975))
    (stroke (width 0) (type default))
    (uuid 4d9e04d6-2a49-4e95-80c4-100c4608b513)
  )
  (wire (pts (xy 208.915 37.465) (xy 208.915 38.735))
    (stroke (width 0) (type default))
    (uuid 516ad81a-74bb-427e-b769-15f1f8148cef)
  )
  (wire (pts (xy 208.915 73.025) (xy 227.33 73.025))
    (stroke (width 0) (type default))
    (uuid 52840440-66dd-4715-a87c-846abd588256)
  )
  (wire (pts (xy 61.595 55.245) (xy 61.595 53.975))
    (stroke (width 0) (type default))
    (uuid 55173f63-c925-4397-995b-d7c80a6c40dd)
  )
  (wire (pts (xy 98.425 90.805) (xy 98.425 92.075))
    (stroke (width 0) (type default))
    (uuid 553df7ab-ddfb-4c45-ae1a-db94e84a6bcf)
  )
  (wire (pts (xy 190.5 73.025) (xy 190.5 71.755))
    (stroke (width 0) (type default))
    (uuid 5575feb3-bed6-4e71-b7cf-c803ffd8c4b5)
  )
  (wire (pts (xy 124.46 99.695) (xy 127.635 99.695))
    (stroke (width 0) (type default))
    (uuid 55e88906-4817-4d11-a03e-9c5eca599545)
  )
  (wire (pts (xy 208.915 55.245) (xy 208.915 53.975))
    (stroke (width 0) (type default))
    (uuid 560894e3-2ca4-43d0-81d9-228469cce48d)
  )
  (wire (pts (xy 172.085 55.245) (xy 172.085 56.515))
    (stroke (width 0) (type default))
    (uuid 57a8d4c9-2ffe-4212-918e-c3b0bd5e7dc2)
  )
  (wire (pts (xy 80.01 55.245) (xy 80.01 56.515))
    (stroke (width 0) (type default))
    (uuid 58670a92-132b-4ac5-83a4-73ac1a48a083)
  )
  (wire (pts (xy 80.01 90.805) (xy 98.425 90.805))
    (stroke (width 0) (type default))
    (uuid 58bb920b-6b2c-44c0-b1bb-78b55e555f4a)
  )
  (wire (pts (xy 153.67 55.245) (xy 153.67 53.975))
    (stroke (width 0) (type default))
    (uuid 5bdcddf4-0d8d-4c6f-8f04-2c455f0bdda7)
  )
  (wire (pts (xy 135.255 37.465) (xy 153.67 37.465))
    (stroke (width 0) (type default))
    (uuid 5e12188e-bcdc-4db9-874a-2b142ec6729a)
  )
  (wire (pts (xy 87.63 99.695) (xy 90.805 99.695))
    (stroke (width 0) (type default))
    (uuid 61e7dc49-3b7c-49a4-a28a-3929f62f40ad)
  )
  (wire (pts (xy 53.975 64.135) (xy 52.705 64.135))
    (stroke (width 0) (type default))
    (uuid 634258f6-68c2-4503-823d-4b722d022be9)
  )
  (wire (pts (xy 190.5 55.245) (xy 172.085 55.245))
    (stroke (width 0) (type default))
    (uuid 66714fef-c4d2-4108-bfab-89f1e83f4e2c)
  )
  (wire (pts (xy 227.33 55.245) (xy 227.33 56.515))
    (stroke (width 0) (type default))
    (uuid 68309090-cca6-493e-8155-b4ee36a55bd4)
  )
  (wire (pts (xy 98.425 108.585) (xy 98.425 107.315))
    (stroke (width 0) (type default))
    (uuid 69e3c0be-fe1c-42bf-a8a2-074cc3de073a)
  )
  (wire (pts (xy 98.425 55.245) (xy 98.425 53.975))
    (stroke (width 0) (type default))
    (uuid 69e99139-3f44-41a5-8ed8-2644036ab116)
  )
  (wire (pts (xy 227.33 37.465) (xy 227.33 38.735))
    (stroke (width 0) (type default))
    (uuid 6afc51ef-c732-447c-a455-4df2f6257f53)
  )
  (wire (pts (xy 98.425 55.245) (xy 80.01 55.245))
    (stroke (width 0) (type default))
    (uuid 6b456d97-b3ff-4866-a2f9-47aac25d4e62)
  )
  (wire (pts (xy 52.705 64.135) (xy 52.705 81.915))
    (stroke (width 0) (type default))
    (uuid 6eafa823-8699-43c9-ae80-310940a71dd8)
  )
  (wire (pts (xy 116.84 108.585) (xy 98.425 108.585))
    (stroke (width 0) (type default))
    (uuid 71850b40-357b-4c0c-ae6b-85568abea0d6)
  )
  (wire (pts (xy 80.01 37.465) (xy 98.425 37.465))
    (stroke (width 0) (type default))
    (uuid 7216554d-0e7f-4502-98d6-b4f8208d5272)
  )
  (wire (pts (xy 116.84 37.465) (xy 135.255 37.465))
    (stroke (width 0) (type default))
    (uuid 74feb9ea-1bab-416e-9367-aac3e382f485)
  )
  (wire (pts (xy 80.01 89.535) (xy 80.01 90.805))
    (stroke (width 0) (type default))
    (uuid 75590534-2c94-4950-8866-95c586df23b2)
  )
  (wire (pts (xy 46.355 55.245) (xy 46.355 90.805))
    (stroke (width 0) (type default))
    (uuid 75642742-3b94-450d-9277-c3d6ebfd6e17)
  )
  (wire (pts (xy 61.595 90.805) (xy 80.01 90.805))
    (stroke (width 0) (type default))
    (uuid 779bd58f-2154-4118-b16a-8c3efcb9f922)
  )
  (wire (pts (xy 172.085 55.245) (xy 153.67 55.245))
    (stroke (width 0) (type default))
    (uuid 786cb097-74a6-49a5-ba7b-a4c444fa29af)
  )
  (wire (pts (xy 135.255 55.245) (xy 153.67 55.245))
    (stroke (width 0) (type default))
    (uuid 7a252a78-9254-43e0-9b3b-f9fe19dbe860)
  )
  (wire (pts (xy 142.875 99.695) (xy 146.05 99.695))
    (stroke (width 0) (type default))
    (uuid 7bdeae97-17c7-4917-a298-501ebec0b2bf)
  )
  (wire (pts (xy 61.595 89.535) (xy 61.595 90.805))
    (stroke (width 0) (type default))
    (uuid 7d13af9e-e6ec-4661-a89a-d31923a3931d)
  )
  (wire (pts (xy 80.01 37.465) (xy 80.01 38.735))
    (stroke (width 0) (type default))
    (uuid 7f4ecfdf-7cf5-45c2-8884-15db82e91a3a)
  )
  (wire (pts (xy 190.5 37.465) (xy 190.5 38.735))
    (stroke (width 0) (type default))
    (uuid 7fcb2d39-cc7d-44a7-83b3-fab68bb5f437)
  )
  (wire (pts (xy 142.875 46.355) (xy 146.05 46.355))
    (stroke (width 0) (type default))
    (uuid 8268de93-20cd-459e-b99d-46db25ca89ef)
  )
  (wire (pts (xy 153.67 73.025) (xy 153.67 71.755))
    (stroke (width 0) (type default))
    (uuid 8371d5b3-becd-4314-97f4-4dbf9ad296d7)
  )
  (wire (pts (xy 190.5 73.025) (xy 190.5 74.295))
    (stroke (width 0) (type default))
    (uuid 85342e41-19f3-4d04-a677-83701d0a9630)
  )
  (wire (pts (xy 106.045 81.915) (xy 109.22 81.915))
    (stroke (width 0) (type default))
    (uuid 8634998c-21bc-4fa2-ac02-45793ebb924e)
  )
  (wire (pts (xy 98.425 73.025) (xy 98.425 71.755))
    (stroke (width 0) (type default))
    (uuid 897bb4e4-aec2-480c-9587-0d8695a9a6c4)
  )
  (wire (pts (xy 61.595 37.465) (xy 61.595 38.735))
    (stroke (width 0) (type default))
    (uuid 89d77707-8b8a-4763-a6e0-b672457bd494)
  )
  (wire (pts (xy 116.84 37.465) (xy 116.84 38.735))
    (stroke (width 0) (type default))
    (uuid 8a46b1c2-8c3c-4874-8b28-36649dca9161)
  )
  (wire (pts (xy 98.425 37.465) (xy 116.84 37.465))
    (stroke (width 0) (type default))
    (uuid 8a4b4df9-ecfa-4b78-a9a5-1ac42468c872)
  )
  (wire (pts (xy 216.535 99.695) (xy 219.71 99.695))
    (stroke (width 0) (type default))
    (uuid 8e40aaf5-d9d4-414e-9d28-ef8f2718d856)
  )
  (wire (pts (xy 135.255 55.245) (xy 135.255 56.515))
    (stroke (width 0) (type default))
    (uuid 8e5153a1-1df8-4ebb-9402-9f7f29e98639)
  )
  (wire (pts (xy 46.355 90.805) (xy 46.355 112.395))
    (stroke (width 0) (type default))
    (uuid 8ecfb658-233b-46fb-a750-32ff571447dd)
  )
  (wire (pts (xy 80.01 73.025) (xy 80.01 71.755))
    (stroke (width 0) (type default))
    (uuid 8f9b3b71-a499-4713-a2fd-0049a37ab42d)
  )
  (wire (pts (xy 161.29 81.915) (xy 164.465 81.915))
    (stroke (width 0) (type default))
    (uuid 91ccda9f-8ffb-46fe-8cc9-b0808ec2b23f)
  )
  (wire (pts (xy 124.46 46.355) (xy 127.635 46.355))
    (stroke (width 0) (type default))
    (uuid 94bc6712-180e-4952-9dfd-ead6b0f1f8d9)
  )
  (wire (pts (xy 52.705 81.915) (xy 53.975 81.915))
    (stroke (width 0) (type default))
    (uuid 95022299-4ab8-46c2-b2ab-ed7c30f78c6b)
  )
  (wire (pts (xy 80.01 108.585) (xy 80.01 107.315))
    (stroke (width 0) (type default))
    (uuid 9527a507-a4c2-4cab-91c7-29c003322077)
  )
  (wire (pts (xy 227.33 90.805) (xy 227.33 92.075))
    (stroke (width 0) (type default))
    (uuid 99536c0d-12c0-4442-a3d5-7fe8fb86107d)
  )
  (wire (pts (xy 190.5 73.025) (xy 208.915 73.025))
    (stroke (width 0) (type default))
    (uuid 9a60310b-7784-4049-ad85-5f3d65ebd2b4)
  )
  (wire (pts (xy 61.595 55.245) (xy 61.595 56.515))
    (stroke (width 0) (type default))
    (uuid 9aed3d8e-b78c-424c-acb3-c064807ac5f5)
  )
  (wire (pts (xy 208.915 55.245) (xy 208.915 56.515))
    (stroke (width 0) (type default))
    (uuid 9dafabfb-b2ce-4956-ba4e-5415da7d3a5a)
  )
  (wire (pts (xy 80.01 73.025) (xy 98.425 73.025))
    (stroke (width 0) (type default))
    (uuid 9ec2e049-cd0e-489e-8017-3afb4dab4531)
  )
  (wire (pts (xy 161.29 46.355) (xy 164.465 46.355))
    (stroke (width 0) (type default))
    (uuid a0d0fe0e-11d4-417b-897f-9a2096ac8de4)
  )
  (wire (pts (xy 116.84 55.245) (xy 98.425 55.245))
    (stroke (width 0) (type default))
    (uuid a30e991a-37e0-4fc5-8e69-a4e7a52118fa)
  )
  (wire (pts (xy 116.84 55.245) (xy 135.255 55.245))
    (stroke (width 0) (type default))
    (uuid a36b8e06-0456-4ab4-ab08-655f3af02c8a)
  )
  (wire (pts (xy 106.045 46.355) (xy 109.22 46.355))
    (stroke (width 0) (type default))
    (uuid a394cfa9-103f-4af1-8c79-47ee5c7d465d)
  )
  (wire (pts (xy 153.67 73.025) (xy 172.085 73.025))
    (stroke (width 0) (type default))
    (uuid a4789f0b-f644-4777-aca6-89d046db6a25)
  )
  (wire (pts (xy 227.33 108.585) (xy 208.915 108.585))
    (stroke (width 0) (type default))
    (uuid a67c19fb-c1af-4838-93a9-5bdb84a2dd6b)
  )
  (wire (pts (xy 179.705 46.355) (xy 182.88 46.355))
    (stroke (width 0) (type default))
    (uuid a6f7a5b0-d74c-4488-9c64-7296fa7d57c4)
  )
  (wire (pts (xy 61.595 108.585) (xy 45.085 108.585))
    (stroke (width 0) (type default))
    (uuid a7bbeb56-1ed1-47fb-8d77-bda64796d7c0)
  )
  (wire (pts (xy 216.535 81.915) (xy 219.71 81.915))
    (stroke (width 0) (type default))
    (uuid aa6ca25a-7cf5-4b12-913d-98515cf44a96)
  )
  (wire (pts (xy 116.84 53.975) (xy 116.84 55.245))
    (stroke (width 0) (type default))
    (uuid ab8a5645-b161-4cbc-ac71-8c2c763793d0)
  )
  (wire (pts (xy 135.255 37.465) (xy 135.255 38.735))
    (stroke (width 0) (type default))
    (uuid acf11e98-f0f1-4f14-a310-c1bff305d36c)
  )
  (wire (pts (xy 153.67 90.805) (xy 172.085 90.805))
    (stroke (width 0) (type default))
    (uuid ad845f6c-bb7d-44ea-9be3-c77921d463d1)
  )
  (wire (pts (xy 98.425 73.025) (xy 98.425 74.295))
    (stroke (width 0) (type default))
    (uuid adb81084-f5ef-4df8-bcbf-9ca78f1620ac)
  )
  (wire (pts (xy 61.595 37.465) (xy 80.01 37.465))
    (stroke (width 0) (type default))
    (uuid af78ba6c-3cd0-4a0a-8209-b4316e0449db)
  )
  (wire (pts (xy 69.215 64.135) (xy 72.39 64.135))
    (stroke (width 0) (type default))
    (uuid b0228814-9bc4-4456-9b1e-7e9b1b627986)
  )
  (wire (pts (xy 153.67 90.805) (xy 135.255 90.805))
    (stroke (width 0) (type default))
    (uuid b09e327c-4562-47b9-b17a-ac1fe414c68e)
  )
  (wire (pts (xy 124.46 64.135) (xy 127.635 64.135))
    (stroke (width 0) (type default))
    (uuid b34607c7-0fbf-4582-aeb9-642219c34820)
  )
  (wire (pts (xy 227.33 53.975) (xy 227.33 55.245))
    (stroke (width 0) (type default))
    (uuid b43956ed-8f58-4e72-b18c-5df5d093fb09)
  )
  (wire (pts (xy 135.255 73.025) (xy 153.67 73.025))
    (stroke (width 0) (type default))
    (uuid b5068f36-4945-4cfe-a3c8-6ad8ed49aec4)
  )
  (wire (pts (xy 216.535 64.135) (xy 219.71 64.135))
    (stroke (width 0) (type default))
    (uuid b50df3bf-68ac-4e37-ab47-0deeff6c5416)
  )
  (wire (pts (xy 45.085 37.465) (xy 61.595 37.465))
    (stroke (width 0) (type default))
    (uuid b591b787-ebbe-44fb-8dff-1e8018747e97)
  )
  (wire (pts (xy 153.67 55.245) (xy 153.67 56.515))
    (stroke (width 0) (type default))
    (uuid b620acfa-e6cb-4486-8bea-95a722157ec7)
  )
  (wire (pts (xy 42.545 46.355) (xy 53.975 46.355))
    (stroke (width 0) (type default))
    (uuid b675b7b3-e3a9-4552-9cda-744cf42de790)
  )
  (wire (pts (xy 69.215 81.915) (xy 72.39 81.915))
    (stroke (width 0) (type default))
    (uuid b71a45d8-0851-430d-abda-0cee1a5152a1)
  )
  (wire (pts (xy 179.705 81.915) (xy 182.88 81.915))
    (stroke (width 0) (type default))
    (uuid b81e472d-e166-4e08-9c18-83f87261ed72)
  )
  (wire (pts (xy 243.84 64.135) (xy 234.95 64.135))
    (stroke (width 0) (type default))
    (uuid b9dd8fd0-a8e7-417b-a83c-dc257afc326c)
  )
  (wire (pts (xy 116.84 90.805) (xy 135.255 90.805))
    (stroke (width 0) (type default))
    (uuid ba63d09c-a4fe-4f8d-b121-0f4158af58a7)
  )
  (wire (pts (xy 69.215 99.695) (xy 72.39 99.695))
    (stroke (width 0) (type default))
    (uuid bbbcb5a7-8a84-4459-b093-49524c1d2b52)
  )
  (wire (pts (xy 135.255 108.585) (xy 135.255 107.315))
    (stroke (width 0) (type default))
    (uuid bdeedba3-1061-4824-853b-a95a34ff937f)
  )
  (wire (pts (xy 161.29 64.135) (xy 164.465 64.135))
    (stroke (width 0) (type default))
    (uuid bea3943a-db73-4b22-8fa0-33a21ff85d0c)
  )
  (wire (pts (xy 142.875 64.135) (xy 146.05 64.135))
    (stroke (width 0) (type default))
    (uuid c0526653-8013-4a3a-81ef-ebe7a03775a6)
  )
  (wire (pts (xy 45.085 108.585) (xy 45.085 73.025))
    (stroke (width 0) (type default))
    (uuid c14d3f39-9659-4a52-99e3-a30db7be581a)
  )
  (wire (pts (xy 190.5 108.585) (xy 172.085 108.585))
    (stroke (width 0) (type default))
    (uuid c1d45c2e-6da2-4959-8fee-a005a2abc9b6)
  )
  (wire (pts (xy 190.5 37.465) (xy 208.915 37.465))
    (stroke (width 0) (type default))
    (uuid c4603bdd-b78a-4f4f-90a7-4e293bf5f54d)
  )
  (wire (pts (xy 98.425 90.805) (xy 116.84 90.805))
    (stroke (width 0) (type default))
    (uuid c527ef7d-a45c-45d6-9678-0badcaad4a2d)
  )
  (wire (pts (xy 208.915 37.465) (xy 227.33 37.465))
    (stroke (width 0) (type default))
    (uuid c5da3d90-af24-4f25-8e22-b4fc5f1593d8)
  )
  (wire (pts (xy 208.915 73.025) (xy 208.915 74.295))
    (stroke (width 0) (type default))
    (uuid c8779624-3ccc-4ba7-bba5-54246b43fa56)
  )
  (wire (pts (xy 153.67 108.585) (xy 135.255 108.585))
    (stroke (width 0) (type default))
    (uuid c8a27ff4-328d-46a7-b1c6-424060599b7b)
  )
  (wire (pts (xy 80.01 55.245) (xy 61.595 55.245))
    (stroke (width 0) (type default))
    (uuid c8cd74e8-aa71-46c5-a8b0-6b7b22189baa)
  )
  (wire (pts (xy 208.915 90.805) (xy 208.915 89.535))
    (stroke (width 0) (type default))
    (uuid cc33fbc2-d8f6-4411-910a-3e6d58c93e4b)
  )
  (wire (pts (xy 87.63 81.915) (xy 90.805 81.915))
    (stroke (width 0) (type default))
    (uuid ccf168e4-a817-4410-9825-fbb5dba59df6)
  )
  (wire (pts (xy 153.67 90.805) (xy 153.67 92.075))
    (stroke (width 0) (type default))
    (uuid cd317e62-f69f-4f89-8e99-6e0a3e7a9b5f)
  )
  (wire (pts (xy 116.84 90.805) (xy 116.84 92.075))
    (stroke (width 0) (type default))
    (uuid d0641c1b-4aa9-47d8-a699-292d1bca003b)
  )
  (wire (pts (xy 135.255 53.975) (xy 135.255 55.245))
    (stroke (width 0) (type default))
    (uuid d2a2b9e2-617d-4850-81d9-b0b8d6ed6966)
  )
  (wire (pts (xy 46.355 90.805) (xy 61.595 90.805))
    (stroke (width 0) (type default))
    (uuid daf350a5-feed-4411-92ae-a2f1b1f80498)
  )
  (wire (pts (xy 153.67 37.465) (xy 153.67 38.735))
    (stroke (width 0) (type default))
    (uuid db62a0df-018b-4f77-9b70-31ffd816dd5f)
  )
  (wire (pts (xy 208.915 55.245) (xy 190.5 55.245))
    (stroke (width 0) (type default))
    (uuid dc4a1e09-2210-46c8-aa2f-666249b5a346)
  )
  (wire (pts (xy 116.84 73.025) (xy 116.84 74.295))
    (stroke (width 0) (type default))
    (uuid deba438a-f914-4758-a750-2d7358f36c96)
  )
  (wire (pts (xy 135.255 108.585) (xy 116.84 108.585))
    (stroke (width 0) (type default))
    (uuid df8b00d9-6476-4eda-a534-b0067de84b5b)
  )
  (wire (pts (xy 61.595 71.755) (xy 61.595 73.025))
    (stroke (width 0) (type default))
    (uuid e1d7445a-a52b-4f01-8200-df914e38c274)
  )
  (wire (pts (xy 227.33 89.535) (xy 227.33 90.805))
    (stroke (width 0) (type default))
    (uuid e2c68485-531f-4bdc-8b6b-ef5e779ca1b0)
  )
  (wire (pts (xy 69.215 46.355) (xy 72.39 46.355))
    (stroke (width 0) (type default))
    (uuid e35e46d3-1424-4f4c-8b6e-5290444feb22)
  )
  (wire (pts (xy 234.95 81.915) (xy 243.84 81.915))
    (stroke (width 0) (type default))
    (uuid e465aa88-8ea4-4da5-9d21-d5f76b3e1583)
  )
  (wire (pts (xy 80.01 73.025) (xy 80.01 74.295))
    (stroke (width 0) (type default))
    (uuid e6275357-42b7-4fa7-ae91-07bcaa920d44)
  )
  (wire (pts (xy 243.84 46.355) (xy 243.84 64.135))
    (stroke (width 0) (type default))
    (uuid e8ffb431-7bf2-46ad-b1ef-c53d54dc176e)
  )
  (wire (pts (xy 190.5 90.805) (xy 208.915 90.805))
    (stroke (width 0) (type default))
    (uuid e9e7f39a-2151-41a4-975a-71745f5d2dbc)
  )
  (wire (pts (xy 179.705 99.695) (xy 182.88 99.695))
    (stroke (width 0) (type default))
    (uuid ec541c74-cefd-470b-888e-91320d9c774b)
  )
  (wire (pts (xy 80.01 55.245) (xy 80.01 53.975))
    (stroke (width 0) (type default))
    (uuid ec8e7bba-5abd-4c7d-ac48-6e528f787aa5)
  )
  (wire (pts (xy 198.12 64.135) (xy 201.295 64.135))
    (stroke (width 0) (type default))
    (uuid f27c1c8e-33c1-4fde-a93e-f07060543bad)
  )
  (wire (pts (xy 243.84 81.915) (xy 243.84 99.695))
    (stroke (width 0) (type default))
    (uuid f45cf85f-dc93-4c18-84d8-5d9d050fd527)
  )
  (wire (pts (xy 98.425 37.465) (xy 98.425 38.735))
    (stroke (width 0) (type default))
    (uuid f4f17e3a-9527-4310-8cd6-b9e2c19b8b91)
  )
  (wire (pts (xy 106.045 64.135) (xy 109.22 64.135))
    (stroke (width 0) (type default))
    (uuid f62345c9-f7c1-477e-8a89-bb77753f72d5)
  )
  (wire (pts (xy 198.12 81.915) (xy 201.295 81.915))
    (stroke (width 0) (type default))
    (uuid f9828e7a-26f3-4501-8ed8-d953b910bb17)
  )
  (wire (pts (xy 61.595 90.805) (xy 61.595 92.075))
    (stroke (width 0) (type default))
    (uuid fabfee6b-c54d-47a1-9882-aaf86a698d2b)
  )
  (wire (pts (xy 172.085 37.465) (xy 190.5 37.465))
    (stroke (width 0) (type default))
    (uuid fc5c81ee-fe83-4cbe-ac96-b537844a4a15)
  )
  (wire (pts (xy 208.915 108.585) (xy 190.5 108.585))
    (stroke (width 0) (type default))
    (uuid fd11801c-4c35-4301-b6d8-af9b7fd6639e)
  )
  (wire (pts (xy 216.535 46.355) (xy 219.71 46.355))
    (stroke (width 0) (type default))
    (uuid feb83949-3304-456c-a826-5bc58bc92ee2)
  )

  (hierarchical_label "leds_din" (shape input) (at 42.545 46.355 180) (fields_autoplaced)
    (effects (font (size 1.27 1.27)) (justify right))
    (uuid 79d82544-d84d-41ed-86f7-c643afc75cdb)
  )

  (symbol (lib_id "sk6812-mini-e:SK6812-MINI-E") (at 227.33 81.915 0) (unit 1)
    (in_bom yes) (on_board yes) (dnp no)
    (uuid 041a6b52-fe4f-4459-a130-bd8698a63c62)
    (property "Reference" "D64" (at 230.505 75.565 0)
      (effects (font (size 1.27 1.27)))
    )
    (property "Value" "SK6812-MINI-E" (at 235.585 88.265 0)
      (effects (font (size 1.27 1.27)))
    )
    (property "Footprint" "footprints:sk6812-mini-e" (at 228.6 89.535 0)
      (effects (font (size 1.27 1.27)) (justify left top) hide)
    )
    (property "Datasheet" "" (at 229.87 91.44 0)
      (effects (font (size 1.27 1.27)) (justify left top) hide)
    )
    (pin "1" (uuid 2e903f5a-2304-4543-861d-9b929df23832))
    (pin "2" (uuid 4a3f4bc6-c9d3-47eb-9493-1b089f533e2e))
    (pin "3" (uuid 044d474e-bf2a-42f7-93dc-20a66b103bab))
    (pin "4" (uuid b47bcf05-fcc8-41ab-a4fe-94ac2c46c4f4))
    (instances
      (project "fidrildi3"
        (path "/9480f66b-59eb-4525-b2c4-f8c17a0d538d/f4a85ffb-82a5-4758-ae77-2052ef18d546"
          (reference "D64") (unit 1)
        )
      )
    )
  )

  (symbol (lib_id "sk6812-mini-e:SK6812-MINI-E") (at 172.085 81.915 0) (unit 1)
    (in_bom yes) (on_board yes) (dnp no)
    (uuid 072e2be2-f63d-4fc6-a01d-c83993f63862)
    (property "Reference" "D61" (at 175.26 75.565 0)
      (effects (font (size 1.27 1.27)))
    )
    (property "Value" "SK6812-MINI-E" (at 180.34 88.265 0)
      (effects (font (size 1.27 1.27)))
    )
    (property "Footprint" "footprints:sk6812-mini-e" (at 173.355 89.535 0)
      (effects (font (size 1.27 1.27)) (justify left top) hide)
    )
    (property "Datasheet" "" (at 174.625 91.44 0)
      (effects (font (size 1.27 1.27)) (justify left top) hide)
    )
    (pin "1" (uuid a6a97604-0249-45fd-98bd-323fc0246c52))
    (pin "2" (uuid 290d3bf0-b193-4940-aea4-1d4786b196b4))
    (pin "3" (uuid d8b11468-0369-41b9-837a-db685140cc09))
    (pin "4" (uuid 4ef36598-d687-4fe5-83bc-d2b61e29c724))
    (instances
      (project "fidrildi3"
        (path "/9480f66b-59eb-4525-b2c4-f8c17a0d538d/f4a85ffb-82a5-4758-ae77-2052ef18d546"
          (reference "D61") (unit 1)
        )
      )
    )
  )

  (symbol (lib_id "sk6812-mini-e:SK6812-MINI-E") (at 190.5 64.135 180) (unit 1)
    (in_bom yes) (on_board yes) (dnp no)
    (uuid 0a4b59e6-a753-4b4c-a2f6-dd1d9dccec0e)
    (property "Reference" "D47" (at 193.675 57.785 0)
      (effects (font (size 1.27 1.27)))
    )
    (property "Value" "SK6812-MINI-E" (at 198.755 70.485 0)
      (effects (font (size 1.27 1.27)))
    )
    (property "Footprint" "footprints:sk6812-mini-e" (at 189.23 56.515 0)
      (effects (font (size 1.27 1.27)) (justify left top) hide)
    )
    (property "Datasheet" "" (at 187.96 54.61 0)
      (effects (font (size 1.27 1.27)) (justify left top) hide)
    )
    (pin "1" (uuid 4effb729-72fe-4d5f-abf7-faf3bfb27037))
    (pin "2" (uuid 34f7d99f-51c3-4c2a-bea8-16e9903c2ccc))
    (pin "3" (uuid ad9df3d0-9404-4738-a723-81905a9d8e64))
    (pin "4" (uuid 7906209a-01e2-46c9-b333-cc2fc26d7c09))
    (instances
      (project "fidrildi3"
        (path "/9480f66b-59eb-4525-b2c4-f8c17a0d538d/f4a85ffb-82a5-4758-ae77-2052ef18d546"
          (reference "D47") (unit 1)
        )
      )
    )
  )

  (symbol (lib_id "sk6812-mini-e:SK6812-MINI-E") (at 208.915 81.915 0) (unit 1)
    (in_bom yes) (on_board yes) (dnp no)
    (uuid 0ec2db15-907f-4ad3-bd8d-a9924e4f5288)
    (property "Reference" "D63" (at 212.09 75.565 0)
      (effects (font (size 1.27 1.27)))
    )
    (property "Value" "SK6812-MINI-E" (at 217.17 88.265 0)
      (effects (font (size 1.27 1.27)))
    )
    (property "Footprint" "footprints:sk6812-mini-e" (at 210.185 89.535 0)
      (effects (font (size 1.27 1.27)) (justify left top) hide)
    )
    (property "Datasheet" "" (at 211.455 91.44 0)
      (effects (font (size 1.27 1.27)) (justify left top) hide)
    )
    (pin "1" (uuid 89a75fa9-b26a-4b5a-9da0-14341f736748))
    (pin "2" (uuid c7f8f564-9e38-4e81-9a3e-1ad070ba1077))
    (pin "3" (uuid 0a3f2d00-365e-4524-899b-713ddf116f41))
    (pin "4" (uuid f1b57473-f3ed-42dd-b9c3-8c4c101397e8))
    (instances
      (project "fidrildi3"
        (path "/9480f66b-59eb-4525-b2c4-f8c17a0d538d/f4a85ffb-82a5-4758-ae77-2052ef18d546"
          (reference "D63") (unit 1)
        )
      )
    )
  )

  (symbol (lib_id "sk6812-mini-e:SK6812-MINI-E") (at 190.5 81.915 0) (unit 1)
    (in_bom yes) (on_board yes) (dnp no)
    (uuid 0f04e009-8510-4e72-a2b4-7c0b9cbc7f06)
    (property "Reference" "D62" (at 193.675 75.565 0)
      (effects (font (size 1.27 1.27)))
    )
    (property "Value" "SK6812-MINI-E" (at 198.755 88.265 0)
      (effects (font (size 1.27 1.27)))
    )
    (property "Footprint" "footprints:sk6812-mini-e" (at 191.77 89.535 0)
      (effects (font (size 1.27 1.27)) (justify left top) hide)
    )
    (property "Datasheet" "" (at 193.04 91.44 0)
      (effects (font (size 1.27 1.27)) (justify left top) hide)
    )
    (pin "1" (uuid c26c4010-8b99-4521-a53e-ab919904a26a))
    (pin "2" (uuid dd9e49f6-85b0-41fa-90bb-2fbc1b3c1f11))
    (pin "3" (uuid 18b3bc24-8868-43f3-a8fa-826711bc1c30))
    (pin "4" (uuid 7c35bb9b-0a2e-4e9f-abb3-7ad9364b9589))
    (instances
      (project "fidrildi3"
        (path "/9480f66b-59eb-4525-b2c4-f8c17a0d538d/f4a85ffb-82a5-4758-ae77-2052ef18d546"
          (reference "D62") (unit 1)
        )
      )
    )
  )

  (symbol (lib_id "sk6812-mini-e:SK6812-MINI-E") (at 80.01 99.695 180) (unit 1)
    (in_bom yes) (on_board yes) (dnp no)
    (uuid 1ae36160-4bb3-49e8-8094-3eef612ee055)
    (property "Reference" "D73" (at 83.185 93.345 0)
      (effects (font (size 1.27 1.27)))
    )
    (property "Value" "SK6812-MINI-E" (at 88.265 106.045 0)
      (effects (font (size 1.27 1.27)))
    )
    (property "Footprint" "footprints:sk6812-mini-e" (at 78.74 92.075 0)
      (effects (font (size 1.27 1.27)) (justify left top) hide)
    )
    (property "Datasheet" "" (at 77.47 90.17 0)
      (effects (font (size 1.27 1.27)) (justify left top) hide)
    )
    (pin "1" (uuid 6fd66134-cff0-4358-a48c-3c3d951b1b53))
    (pin "2" (uuid 48c0dfaa-45ef-4e8e-9962-13934acb7629))
    (pin "3" (uuid da1ed953-c9a8-4e78-8085-c0b37d868b84))
    (pin "4" (uuid f3a89fa5-f2d1-4585-98ca-dcd8bf23e2fb))
    (instances
      (project "fidrildi3"
        (path "/9480f66b-59eb-4525-b2c4-f8c17a0d538d/f4a85ffb-82a5-4758-ae77-2052ef18d546"
          (reference "D73") (unit 1)
        )
      )
    )
  )

  (symbol (lib_id "sk6812-mini-e:SK6812-MINI-E") (at 116.84 46.355 0) (unit 1)
    (in_bom yes) (on_board yes) (dnp no)
    (uuid 2c9b2dc7-f81c-4572-9c7b-2455c7b25a64)
    (property "Reference" "D38" (at 120.015 40.005 0)
      (effects (font (size 1.27 1.27)))
    )
    (property "Value" "SK6812-MINI-E" (at 125.095 52.705 0)
      (effects (font (size 1.27 1.27)))
    )
    (property "Footprint" "footprints:sk6812-mini-e" (at 118.11 53.975 0)
      (effects (font (size 1.27 1.27)) (justify left top) hide)
    )
    (property "Datasheet" "" (at 119.38 55.88 0)
      (effects (font (size 1.27 1.27)) (justify left top) hide)
    )
    (pin "1" (uuid c2050252-2e1f-417c-ba69-435ed6c21f2b))
    (pin "2" (uuid 4552e1b4-d02c-4880-b5aa-34994774034e))
    (pin "3" (uuid 532ee5c3-1655-4a5a-ba72-11e6d51a3cb1))
    (pin "4" (uuid 56b83abf-f72f-41e6-a297-b108325292a6))
    (instances
      (project "fidrildi3"
        (path "/9480f66b-59eb-4525-b2c4-f8c17a0d538d/f4a85ffb-82a5-4758-ae77-2052ef18d546"
          (reference "D38") (unit 1)
        )
      )
    )
  )

  (symbol (lib_id "sk6812-mini-e:SK6812-MINI-E") (at 98.425 64.135 180) (unit 1)
    (in_bom yes) (on_board yes) (dnp no)
    (uuid 2e68780c-75c3-4c1b-b3cb-a995e2c34079)
    (property "Reference" "D52" (at 101.6 57.785 0)
      (effects (font (size 1.27 1.27)))
    )
    (property "Value" "SK6812-MINI-E" (at 106.68 70.485 0)
      (effects (font (size 1.27 1.27)))
    )
    (property "Footprint" "footprints:sk6812-mini-e" (at 97.155 56.515 0)
      (effects (font (size 1.27 1.27)) (justify left top) hide)
    )
    (property "Datasheet" "" (at 95.885 54.61 0)
      (effects (font (size 1.27 1.27)) (justify left top) hide)
    )
    (pin "1" (uuid 61a3fabb-80f7-4a5f-b352-f09708c44d07))
    (pin "2" (uuid f78fe413-7be0-4cf6-b23b-f0d05a24e4e5))
    (pin "3" (uuid 7536fa69-c7e2-49f5-830a-16f650b02440))
    (pin "4" (uuid 814bc079-0d63-4d73-959b-133932bf6fbe))
    (instances
      (project "fidrildi3"
        (path "/9480f66b-59eb-4525-b2c4-f8c17a0d538d/f4a85ffb-82a5-4758-ae77-2052ef18d546"
          (reference "D52") (unit 1)
        )
      )
    )
  )

  (symbol (lib_id "sk6812-mini-e:SK6812-MINI-E") (at 98.425 46.355 0) (unit 1)
    (in_bom yes) (on_board yes) (dnp no)
    (uuid 33b921ea-8480-4f6f-b5b1-2a888d1b8b3a)
    (property "Reference" "D37" (at 101.6 40.005 0)
      (effects (font (size 1.27 1.27)))
    )
    (property "Value" "SK6812-MINI-E" (at 106.68 52.705 0)
      (effects (font (size 1.27 1.27)))
    )
    (property "Footprint" "footprints:sk6812-mini-e" (at 99.695 53.975 0)
      (effects (font (size 1.27 1.27)) (justify left top) hide)
    )
    (property "Datasheet" "" (at 100.965 55.88 0)
      (effects (font (size 1.27 1.27)) (justify left top) hide)
    )
    (pin "1" (uuid adac082f-f008-4a2b-bd29-4d2fde5d3275))
    (pin "2" (uuid b9d107a1-8b8a-4fb5-90a0-489b9c8c65c0))
    (pin "3" (uuid a4e07a9b-733e-4703-b5c0-46cf3ac1dbec))
    (pin "4" (uuid 75340298-6bc8-4e5f-8b4f-e95e9ce45a25))
    (instances
      (project "fidrildi3"
        (path "/9480f66b-59eb-4525-b2c4-f8c17a0d538d/f4a85ffb-82a5-4758-ae77-2052ef18d546"
          (reference "D37") (unit 1)
        )
      )
    )
  )

  (symbol (lib_id "power:GND") (at 46.355 112.395 0) (unit 1)
    (in_bom yes) (on_board yes) (dnp no) (fields_autoplaced)
    (uuid 3c05cd0f-ac38-4fc2-a3f4-912e4faafa84)
    (property "Reference" "#PWR011" (at 46.355 118.745 0)
      (effects (font (size 1.27 1.27)) hide)
    )
    (property "Value" "GND" (at 46.355 116.84 0)
      (effects (font (size 1.27 1.27)))
    )
    (property "Footprint" "" (at 46.355 112.395 0)
      (effects (font (size 1.27 1.27)) hide)
    )
    (property "Datasheet" "" (at 46.355 112.395 0)
      (effects (font (size 1.27 1.27)) hide)
    )
    (pin "1" (uuid 1fa1eb0d-131c-4791-b837-46c6dac1bcea))
    (instances
      (project "fidrildi3"
        (path "/9480f66b-59eb-4525-b2c4-f8c17a0d538d/f4a85ffb-82a5-4758-ae77-2052ef18d546"
          (reference "#PWR011") (unit 1)
        )
      )
    )
  )

  (symbol (lib_id "sk6812-mini-e:SK6812-MINI-E") (at 190.5 99.695 180) (unit 1)
    (in_bom yes) (on_board yes) (dnp no)
    (uuid 4b670b6c-56cf-46b9-87f7-57ba430398f6)
    (property "Reference" "D67" (at 193.675 93.345 0)
      (effects (font (size 1.27 1.27)))
    )
    (property "Value" "SK6812-MINI-E" (at 198.755 106.045 0)
      (effects (font (size 1.27 1.27)))
    )
    (property "Footprint" "footprints:sk6812-mini-e" (at 189.23 92.075 0)
      (effects (font (size 1.27 1.27)) (justify left top) hide)
    )
    (property "Datasheet" "" (at 187.96 90.17 0)
      (effects (font (size 1.27 1.27)) (justify left top) hide)
    )
    (pin "1" (uuid 28de9600-1739-4e3f-ab52-3098350d568e))
    (pin "2" (uuid 6096eb17-bebd-4d72-87ea-5fff2b5a56ef))
    (pin "3" (uuid ad749962-7db4-495d-9198-0b20c77a91ba))
    (pin "4" (uuid 98e39618-3fd4-46f7-8f19-ceb221dda5ab))
    (instances
      (project "fidrildi3"
        (path "/9480f66b-59eb-4525-b2c4-f8c17a0d538d/f4a85ffb-82a5-4758-ae77-2052ef18d546"
          (reference "D67") (unit 1)
        )
      )
    )
  )

  (symbol (lib_id "sk6812-mini-e:SK6812-MINI-E") (at 135.255 64.135 180) (unit 1)
    (in_bom yes) (on_board yes) (dnp no)
    (uuid 4cc6ba01-74f2-4d26-97b9-6ef26cdb6d1e)
    (property "Reference" "D50" (at 138.43 57.785 0)
      (effects (font (size 1.27 1.27)))
    )
    (property "Value" "SK6812-MINI-E" (at 143.51 70.485 0)
      (effects (font (size 1.27 1.27)))
    )
    (property "Footprint" "footprints:sk6812-mini-e" (at 133.985 56.515 0)
      (effects (font (size 1.27 1.27)) (justify left top) hide)
    )
    (property "Datasheet" "" (at 132.715 54.61 0)
      (effects (font (size 1.27 1.27)) (justify left top) hide)
    )
    (pin "1" (uuid f658eeef-ac1e-4ae5-8bbf-1ce1bef4a460))
    (pin "2" (uuid 0147f6be-dac9-4a32-99f3-70be6fdf4cfe))
    (pin "3" (uuid 35dfd427-a375-4e7c-83f2-ca96cec55ea0))
    (pin "4" (uuid 0c135d58-bd22-423d-9770-030304ee99d5))
    (instances
      (project "fidrildi3"
        (path "/9480f66b-59eb-4525-b2c4-f8c17a0d538d/f4a85ffb-82a5-4758-ae77-2052ef18d546"
          (reference "D50") (unit 1)
        )
      )
    )
  )

  (symbol (lib_id "sk6812-mini-e:SK6812-MINI-E") (at 172.085 99.695 180) (unit 1)
    (in_bom yes) (on_board yes) (dnp no)
    (uuid 5784f9d5-fc3b-4e51-b841-4849b4789165)
    (property "Reference" "D68" (at 175.26 93.345 0)
      (effects (font (size 1.27 1.27)))
    )
    (property "Value" "SK6812-MINI-E" (at 180.34 106.045 0)
      (effects (font (size 1.27 1.27)))
    )
    (property "Footprint" "footprints:sk6812-mini-e" (at 170.815 92.075 0)
      (effects (font (size 1.27 1.27)) (justify left top) hide)
    )
    (property "Datasheet" "" (at 169.545 90.17 0)
      (effects (font (size 1.27 1.27)) (justify left top) hide)
    )
    (pin "1" (uuid 5d9e3dee-3b65-4359-8363-b6cfd613cec5))
    (pin "2" (uuid 8913bb82-83fb-4b84-84b0-b4028acdd76e))
    (pin "3" (uuid b64bf0d2-2e16-48ec-8f8d-7484f66f78a4))
    (pin "4" (uuid 626aea4e-d549-402d-9aae-b323438f6cd3))
    (instances
      (project "fidrildi3"
        (path "/9480f66b-59eb-4525-b2c4-f8c17a0d538d/f4a85ffb-82a5-4758-ae77-2052ef18d546"
          (reference "D68") (unit 1)
        )
      )
    )
  )

  (symbol (lib_id "sk6812-mini-e:SK6812-MINI-E") (at 208.915 99.695 180) (unit 1)
    (in_bom yes) (on_board yes) (dnp no)
    (uuid 587a26d7-7a27-471a-9482-db8ba97ee0bc)
    (property "Reference" "D66" (at 212.09 93.345 0)
      (effects (font (size 1.27 1.27)))
    )
    (property "Value" "SK6812-MINI-E" (at 217.17 106.045 0)
      (effects (font (size 1.27 1.27)))
    )
    (property "Footprint" "footprints:sk6812-mini-e" (at 207.645 92.075 0)
      (effects (font (size 1.27 1.27)) (justify left top) hide)
    )
    (property "Datasheet" "" (at 206.375 90.17 0)
      (effects (font (size 1.27 1.27)) (justify left top) hide)
    )
    (pin "1" (uuid fd166a78-7434-49de-84e4-b19db7e477b7))
    (pin "2" (uuid 878a96d0-0318-4c08-ac6e-33228c232cb4))
    (pin "3" (uuid 39788a8c-7c74-431f-b997-4a4199b5e319))
    (pin "4" (uuid 61dbbbc3-e4c1-4063-afc5-4450e6e5bcfe))
    (instances
      (project "fidrildi3"
        (path "/9480f66b-59eb-4525-b2c4-f8c17a0d538d/f4a85ffb-82a5-4758-ae77-2052ef18d546"
          (reference "D66") (unit 1)
        )
      )
    )
  )

  (symbol (lib_id "sk6812-mini-e:SK6812-MINI-E") (at 98.425 99.695 180) (unit 1)
    (in_bom yes) (on_board yes) (dnp no)
    (uuid 61f414eb-3574-45c7-ab98-810be89fdca1)
    (property "Reference" "D72" (at 101.6 93.345 0)
      (effects (font (size 1.27 1.27)))
    )
    (property "Value" "SK6812-MINI-E" (at 106.68 106.045 0)
      (effects (font (size 1.27 1.27)))
    )
    (property "Footprint" "footprints:sk6812-mini-e" (at 97.155 92.075 0)
      (effects (font (size 1.27 1.27)) (justify left top) hide)
    )
    (property "Datasheet" "" (at 95.885 90.17 0)
      (effects (font (size 1.27 1.27)) (justify left top) hide)
    )
    (pin "1" (uuid 38da7863-b810-4141-9915-e05adcea2fcc))
    (pin "2" (uuid dd6c6ed8-a208-4c9a-bf57-846280e89c2e))
    (pin "3" (uuid 20a79365-177b-4947-b1d4-5213d49287d5))
    (pin "4" (uuid 4be310a2-f92c-4909-b972-6cfc8e80bbd6))
    (instances
      (project "fidrildi3"
        (path "/9480f66b-59eb-4525-b2c4-f8c17a0d538d/f4a85ffb-82a5-4758-ae77-2052ef18d546"
          (reference "D72") (unit 1)
        )
      )
    )
  )

  (symbol (lib_id "sk6812-mini-e:SK6812-MINI-E") (at 172.085 64.135 180) (unit 1)
    (in_bom yes) (on_board yes) (dnp no)
    (uuid 63b61f1e-e723-49e1-8f97-1d78cc07b2e2)
    (property "Reference" "D48" (at 175.26 57.785 0)
      (effects (font (size 1.27 1.27)))
    )
    (property "Value" "SK6812-MINI-E" (at 180.34 70.485 0)
      (effects (font (size 1.27 1.27)))
    )
    (property "Footprint" "footprints:sk6812-mini-e" (at 170.815 56.515 0)
      (effects (font (size 1.27 1.27)) (justify left top) hide)
    )
    (property "Datasheet" "" (at 169.545 54.61 0)
      (effects (font (size 1.27 1.27)) (justify left top) hide)
    )
    (pin "1" (uuid 826376b4-cd41-4672-8c08-deddb2e891b8))
    (pin "2" (uuid c167c3c3-33ff-41b0-8ad2-2128f4564c6a))
    (pin "3" (uuid 73e7bcda-db9c-4e52-9304-1c201c992f14))
    (pin "4" (uuid a3f38e42-d159-4915-92c7-117afa2ae52f))
    (instances
      (project "fidrildi3"
        (path "/9480f66b-59eb-4525-b2c4-f8c17a0d538d/f4a85ffb-82a5-4758-ae77-2052ef18d546"
          (reference "D48") (unit 1)
        )
      )
    )
  )

  (symbol (lib_id "sk6812-mini-e:SK6812-MINI-E") (at 135.255 99.695 180) (unit 1)
    (in_bom yes) (on_board yes) (dnp no)
    (uuid 7230df9d-e753-4dcc-a760-61fb125b6d7a)
    (property "Reference" "D70" (at 138.43 93.345 0)
      (effects (font (size 1.27 1.27)))
    )
    (property "Value" "SK6812-MINI-E" (at 143.51 106.045 0)
      (effects (font (size 1.27 1.27)))
    )
    (property "Footprint" "footprints:sk6812-mini-e" (at 133.985 92.075 0)
      (effects (font (size 1.27 1.27)) (justify left top) hide)
    )
    (property "Datasheet" "" (at 132.715 90.17 0)
      (effects (font (size 1.27 1.27)) (justify left top) hide)
    )
    (pin "1" (uuid 3f62f01a-03ae-4c86-93ed-f2e402aea934))
    (pin "2" (uuid 9e7987b1-6848-481a-8ead-e3a47b6bf60d))
    (pin "3" (uuid d0114c74-a9c7-417a-a931-dda52e1058af))
    (pin "4" (uuid 9fc85b5b-7a80-491f-b0af-99e6d99b1538))
    (instances
      (project "fidrildi3"
        (path "/9480f66b-59eb-4525-b2c4-f8c17a0d538d/f4a85ffb-82a5-4758-ae77-2052ef18d546"
          (reference "D70") (unit 1)
        )
      )
    )
  )

  (symbol (lib_id "sk6812-mini-e:SK6812-MINI-E") (at 61.595 46.355 0) (unit 1)
    (in_bom yes) (on_board yes) (dnp no)
    (uuid 790fcaed-ad8b-4d9e-9bfc-e3a4edfdea63)
    (property "Reference" "D35" (at 64.77 40.005 0)
      (effects (font (size 1.27 1.27)))
    )
    (property "Value" "SK6812-MINI-E" (at 69.85 52.705 0)
      (effects (font (size 1.27 1.27)))
    )
    (property "Footprint" "footprints:sk6812-mini-e" (at 62.865 53.975 0)
      (effects (font (size 1.27 1.27)) (justify left top) hide)
    )
    (property "Datasheet" "" (at 64.135 55.88 0)
      (effects (font (size 1.27 1.27)) (justify left top) hide)
    )
    (pin "1" (uuid 736ca8ec-97f6-4f9b-a23d-454ae38de0d0))
    (pin "2" (uuid c17ccec3-f025-43a2-9a1f-123cf7ce2236))
    (pin "3" (uuid 093baf87-edde-4e7a-bc43-2f0cc9576aaf))
    (pin "4" (uuid ec21decb-c678-4dfc-b82a-90c2398d4ad5))
    (instances
      (project "fidrildi3"
        (path "/9480f66b-59eb-4525-b2c4-f8c17a0d538d/f4a85ffb-82a5-4758-ae77-2052ef18d546"
          (reference "D35") (unit 1)
        )
      )
    )
  )

  (symbol (lib_id "sk6812-mini-e:SK6812-MINI-E") (at 227.33 99.695 180) (unit 1)
    (in_bom yes) (on_board yes) (dnp no)
    (uuid 7c795ba8-137e-455f-a311-919037356ba6)
    (property "Reference" "D65" (at 230.505 93.345 0)
      (effects (font (size 1.27 1.27)))
    )
    (property "Value" "SK6812-MINI-E" (at 235.585 106.045 0)
      (effects (font (size 1.27 1.27)))
    )
    (property "Footprint" "footprints:sk6812-mini-e" (at 226.06 92.075 0)
      (effects (font (size 1.27 1.27)) (justify left top) hide)
    )
    (property "Datasheet" "" (at 224.79 90.17 0)
      (effects (font (size 1.27 1.27)) (justify left top) hide)
    )
    (pin "1" (uuid 4fa235cf-86bf-47e9-a31b-a2ad15273737))
    (pin "2" (uuid 1f94a47b-9855-4551-8d12-95e8627a92fb))
    (pin "3" (uuid 0afeb58c-af2a-4182-8ca2-13272ac45ef1))
    (pin "4" (uuid 75d9349c-72c7-43d4-9c71-07a6257cf4a9))
    (instances
      (project "fidrildi3"
        (path "/9480f66b-59eb-4525-b2c4-f8c17a0d538d/f4a85ffb-82a5-4758-ae77-2052ef18d546"
          (reference "D65") (unit 1)
        )
      )
    )
  )

  (symbol (lib_id "sk6812-mini-e:SK6812-MINI-E") (at 80.01 46.355 0) (unit 1)
    (in_bom yes) (on_board yes) (dnp no)
    (uuid 7d021a57-8001-445a-a74d-a0fa0ff01c7d)
    (property "Reference" "D36" (at 83.185 40.005 0)
      (effects (font (size 1.27 1.27)))
    )
    (property "Value" "SK6812-MINI-E" (at 88.265 52.705 0)
      (effects (font (size 1.27 1.27)))
    )
    (property "Footprint" "footprints:sk6812-mini-e" (at 81.28 53.975 0)
      (effects (font (size 1.27 1.27)) (justify left top) hide)
    )
    (property "Datasheet" "" (at 82.55 55.88 0)
      (effects (font (size 1.27 1.27)) (justify left top) hide)
    )
    (pin "1" (uuid 1f066621-fb0b-43ba-8eda-b40a3f18be90))
    (pin "2" (uuid 3958a589-23e4-414a-94a0-e39f7c7efaf6))
    (pin "3" (uuid f1978621-2a20-4504-abc1-8b4d97104dca))
    (pin "4" (uuid 8f0f2707-b6b2-48b1-a284-770c4bc1be25))
    (instances
      (project "fidrildi3"
        (path "/9480f66b-59eb-4525-b2c4-f8c17a0d538d/f4a85ffb-82a5-4758-ae77-2052ef18d546"
          (reference "D36") (unit 1)
        )
      )
    )
  )

  (symbol (lib_id "sk6812-mini-e:SK6812-MINI-E") (at 153.67 81.915 0) (unit 1)
    (in_bom yes) (on_board yes) (dnp no)
    (uuid 8ec697ac-f7a2-44a3-8321-e705099fa5ce)
    (property "Reference" "D60" (at 156.845 75.565 0)
      (effects (font (size 1.27 1.27)))
    )
    (property "Value" "SK6812-MINI-E" (at 161.925 88.265 0)
      (effects (font (size 1.27 1.27)))
    )
    (property "Footprint" "footprints:sk6812-mini-e" (at 154.94 89.535 0)
      (effects (font (size 1.27 1.27)) (justify left top) hide)
    )
    (property "Datasheet" "" (at 156.21 91.44 0)
      (effects (font (size 1.27 1.27)) (justify left top) hide)
    )
    (pin "1" (uuid a55a0c97-c2e6-4867-a309-86fd66cf2b3d))
    (pin "2" (uuid 385690cf-b257-40de-b36c-409604cfbd85))
    (pin "3" (uuid 9c4ba6b7-671c-43fa-8df0-b369b1082a3e))
    (pin "4" (uuid 6077fb12-b560-451f-8b0e-6feb474a0265))
    (instances
      (project "fidrildi3"
        (path "/9480f66b-59eb-4525-b2c4-f8c17a0d538d/f4a85ffb-82a5-4758-ae77-2052ef18d546"
          (reference "D60") (unit 1)
        )
      )
    )
  )

  (symbol (lib_id "sk6812-mini-e:SK6812-MINI-E") (at 116.84 64.135 180) (unit 1)
    (in_bom yes) (on_board yes) (dnp no)
    (uuid 98d9f505-aaea-4b22-ad25-bb3a2e0e9794)
    (property "Reference" "D51" (at 120.015 57.785 0)
      (effects (font (size 1.27 1.27)))
    )
    (property "Value" "SK6812-MINI-E" (at 125.095 70.485 0)
      (effects (font (size 1.27 1.27)))
    )
    (property "Footprint" "footprints:sk6812-mini-e" (at 115.57 56.515 0)
      (effects (font (size 1.27 1.27)) (justify left top) hide)
    )
    (property "Datasheet" "" (at 114.3 54.61 0)
      (effects (font (size 1.27 1.27)) (justify left top) hide)
    )
    (pin "1" (uuid 94021611-b71b-4ac8-b76e-bfa88c0bee59))
    (pin "2" (uuid e0aa4cda-32cf-489f-9507-6bb4abfe846c))
    (pin "3" (uuid d8355f31-69fa-4438-bae1-f1dd6eb41931))
    (pin "4" (uuid 4358b7f5-e5f9-44d8-b9f6-222370f1a6cd))
    (instances
      (project "fidrildi3"
        (path "/9480f66b-59eb-4525-b2c4-f8c17a0d538d/f4a85ffb-82a5-4758-ae77-2052ef18d546"
          (reference "D51") (unit 1)
        )
      )
    )
  )

  (symbol (lib_id "sk6812-mini-e:SK6812-MINI-E") (at 153.67 99.695 180) (unit 1)
    (in_bom yes) (on_board yes) (dnp no)
    (uuid 9d6f86e8-0d9e-4483-90f0-5096e97752ba)
    (property "Reference" "D69" (at 156.845 93.345 0)
      (effects (font (size 1.27 1.27)))
    )
    (property "Value" "SK6812-MINI-E" (at 161.925 106.045 0)
      (effects (font (size 1.27 1.27)))
    )
    (property "Footprint" "footprints:sk6812-mini-e" (at 152.4 92.075 0)
      (effects (font (size 1.27 1.27)) (justify left top) hide)
    )
    (property "Datasheet" "" (at 151.13 90.17 0)
      (effects (font (size 1.27 1.27)) (justify left top) hide)
    )
    (pin "1" (uuid fe8d0533-af6b-4992-b23b-1a2b83eb631f))
    (pin "2" (uuid fef82a9e-cb2a-4b6a-9812-15e30b566b8f))
    (pin "3" (uuid 14c994c4-7e8d-41e4-8b4b-89b2b6ca8397))
    (pin "4" (uuid 3404722a-e3b0-436f-b8b2-6044894e2cdb))
    (instances
      (project "fidrildi3"
        (path "/9480f66b-59eb-4525-b2c4-f8c17a0d538d/f4a85ffb-82a5-4758-ae77-2052ef18d546"
          (reference "D69") (unit 1)
        )
      )
    )
  )

  (symbol (lib_id "sk6812-mini-e:SK6812-MINI-E") (at 208.915 64.135 180) (unit 1)
    (in_bom yes) (on_board yes) (dnp no)
    (uuid 9dd80021-ddbe-478a-9540-9e372a9051ce)
    (property "Reference" "D46" (at 212.09 57.785 0)
      (effects (font (size 1.27 1.27)))
    )
    (property "Value" "SK6812-MINI-E" (at 217.17 70.485 0)
      (effects (font (size 1.27 1.27)))
    )
    (property "Footprint" "footprints:sk6812-mini-e" (at 207.645 56.515 0)
      (effects (font (size 1.27 1.27)) (justify left top) hide)
    )
    (property "Datasheet" "" (at 206.375 54.61 0)
      (effects (font (size 1.27 1.27)) (justify left top) hide)
    )
    (pin "1" (uuid a1a09830-d16a-4b9c-8015-c7d0a2483f76))
    (pin "2" (uuid 0be962dd-0f88-48c3-9bbe-14e2c413c84d))
    (pin "3" (uuid 396344ed-dfcd-45a2-b3ec-658aded0edec))
    (pin "4" (uuid f0c6d926-84c2-41b9-ae60-a4526307397b))
    (instances
      (project "fidrildi3"
        (path "/9480f66b-59eb-4525-b2c4-f8c17a0d538d/f4a85ffb-82a5-4758-ae77-2052ef18d546"
          (reference "D46") (unit 1)
        )
      )
    )
  )

  (symbol (lib_id "sk6812-mini-e:SK6812-MINI-E") (at 116.84 81.915 0) (unit 1)
    (in_bom yes) (on_board yes) (dnp no)
    (uuid a06d132b-4d88-42db-add9-92d5d3a794d5)
    (property "Reference" "D58" (at 120.015 75.565 0)
      (effects (font (size 1.27 1.27)))
    )
    (property "Value" "SK6812-MINI-E" (at 125.095 88.265 0)
      (effects (font (size 1.27 1.27)))
    )
    (property "Footprint" "footprints:sk6812-mini-e" (at 118.11 89.535 0)
      (effects (font (size 1.27 1.27)) (justify left top) hide)
    )
    (property "Datasheet" "" (at 119.38 91.44 0)
      (effects (font (size 1.27 1.27)) (justify left top) hide)
    )
    (pin "1" (uuid 755afeae-c161-4ec5-ad35-0b14aaee577f))
    (pin "2" (uuid b8cc22ca-dcbc-4d90-a1b2-51733b110664))
    (pin "3" (uuid a6f3474c-4a89-4ec7-9c97-aa56414cfd5a))
    (pin "4" (uuid 09826dd8-8096-4b2a-9029-40a65bd29bbf))
    (instances
      (project "fidrildi3"
        (path "/9480f66b-59eb-4525-b2c4-f8c17a0d538d/f4a85ffb-82a5-4758-ae77-2052ef18d546"
          (reference "D58") (unit 1)
        )
      )
    )
  )

  (symbol (lib_id "sk6812-mini-e:SK6812-MINI-E") (at 61.595 64.135 180) (unit 1)
    (in_bom yes) (on_board yes) (dnp no)
    (uuid a2777414-882e-4514-a9c4-ee809bef17e8)
    (property "Reference" "D54" (at 64.77 57.785 0)
      (effects (font (size 1.27 1.27)))
    )
    (property "Value" "SK6812-MINI-E" (at 69.85 70.485 0)
      (effects (font (size 1.27 1.27)))
    )
    (property "Footprint" "footprints:sk6812-mini-e" (at 60.325 56.515 0)
      (effects (font (size 1.27 1.27)) (justify left top) hide)
    )
    (property "Datasheet" "" (at 59.055 54.61 0)
      (effects (font (size 1.27 1.27)) (justify left top) hide)
    )
    (pin "1" (uuid a6286744-a3cf-420d-992b-bb3f4ca93e2d))
    (pin "2" (uuid efe630b1-1e91-46c1-84af-33b852084a7e))
    (pin "3" (uuid 85f11ae8-e913-4fe0-a257-cf390c4e2f1b))
    (pin "4" (uuid d3c408b4-c8c3-4345-b1ef-6b2f7b260e86))
    (instances
      (project "fidrildi3"
        (path "/9480f66b-59eb-4525-b2c4-f8c17a0d538d/f4a85ffb-82a5-4758-ae77-2052ef18d546"
          (reference "D54") (unit 1)
        )
      )
    )
  )

  (symbol (lib_id "sk6812-mini-e:SK6812-MINI-E") (at 153.67 46.355 0) (unit 1)
    (in_bom yes) (on_board yes) (dnp no)
    (uuid a49f6c38-f897-4fff-8337-7d6fff535234)
    (property "Reference" "D40" (at 156.845 40.005 0)
      (effects (font (size 1.27 1.27)))
    )
    (property "Value" "SK6812-MINI-E" (at 161.925 52.705 0)
      (effects (font (size 1.27 1.27)))
    )
    (property "Footprint" "footprints:sk6812-mini-e" (at 154.94 53.975 0)
      (effects (font (size 1.27 1.27)) (justify left top) hide)
    )
    (property "Datasheet" "" (at 156.21 55.88 0)
      (effects (font (size 1.27 1.27)) (justify left top) hide)
    )
    (pin "1" (uuid 6aba4f6b-d189-4e38-8f72-11d7eb749ca9))
    (pin "2" (uuid 4a6292f3-05b1-4916-a135-14665b759530))
    (pin "3" (uuid 8ce3f123-d2a2-4de1-9385-5668be216317))
    (pin "4" (uuid 730e48c3-f224-4bce-904f-a348f1feecb4))
    (instances
      (project "fidrildi3"
        (path "/9480f66b-59eb-4525-b2c4-f8c17a0d538d/f4a85ffb-82a5-4758-ae77-2052ef18d546"
          (reference "D40") (unit 1)
        )
      )
    )
  )

  (symbol (lib_id "sk6812-mini-e:SK6812-MINI-E") (at 190.5 46.355 0) (unit 1)
    (in_bom yes) (on_board yes) (dnp no)
    (uuid a5062d5a-1625-4424-8889-cdabdad167d2)
    (property "Reference" "D42" (at 193.675 40.005 0)
      (effects (font (size 1.27 1.27)))
    )
    (property "Value" "SK6812-MINI-E" (at 198.755 52.705 0)
      (effects (font (size 1.27 1.27)))
    )
    (property "Footprint" "footprints:sk6812-mini-e" (at 191.77 53.975 0)
      (effects (font (size 1.27 1.27)) (justify left top) hide)
    )
    (property "Datasheet" "" (at 193.04 55.88 0)
      (effects (font (size 1.27 1.27)) (justify left top) hide)
    )
    (pin "1" (uuid bb7245fe-0107-4e3f-bfc6-39a236efb2a8))
    (pin "2" (uuid 99c2e866-fac1-4935-acab-370c5c062068))
    (pin "3" (uuid fa3156aa-9b7b-466b-b951-cfd368815024))
    (pin "4" (uuid 04fc3b8f-bb1f-4203-8bf1-ace740a9a0f6))
    (instances
      (project "fidrildi3"
        (path "/9480f66b-59eb-4525-b2c4-f8c17a0d538d/f4a85ffb-82a5-4758-ae77-2052ef18d546"
          (reference "D42") (unit 1)
        )
      )
    )
  )

  (symbol (lib_id "sk6812-mini-e:SK6812-MINI-E") (at 80.01 81.915 0) (unit 1)
    (in_bom yes) (on_board yes) (dnp no)
    (uuid a94704f2-c099-4f9a-9a92-4a73d550fe77)
    (property "Reference" "D56" (at 83.185 75.565 0)
      (effects (font (size 1.27 1.27)))
    )
    (property "Value" "SK6812-MINI-E" (at 88.265 88.265 0)
      (effects (font (size 1.27 1.27)))
    )
    (property "Footprint" "footprints:sk6812-mini-e" (at 81.28 89.535 0)
      (effects (font (size 1.27 1.27)) (justify left top) hide)
    )
    (property "Datasheet" "" (at 82.55 91.44 0)
      (effects (font (size 1.27 1.27)) (justify left top) hide)
    )
    (pin "1" (uuid 1b01ba63-b66a-48ca-b5df-4405e2d6132a))
    (pin "2" (uuid 61e822ac-647e-43c6-86ee-a53d3d2d3d85))
    (pin "3" (uuid 3956440d-c3e4-410c-a0ee-b3160555f949))
    (pin "4" (uuid edeb51fb-4e77-48d0-93fe-7648fb39351e))
    (instances
      (project "fidrildi3"
        (path "/9480f66b-59eb-4525-b2c4-f8c17a0d538d/f4a85ffb-82a5-4758-ae77-2052ef18d546"
          (reference "D56") (unit 1)
        )
      )
    )
  )

  (symbol (lib_id "sk6812-mini-e:SK6812-MINI-E") (at 135.255 81.915 0) (unit 1)
    (in_bom yes) (on_board yes) (dnp no)
    (uuid ae635d0e-97e1-449d-b939-1c5c9b3b2cee)
    (property "Reference" "D59" (at 138.43 75.565 0)
      (effects (font (size 1.27 1.27)))
    )
    (property "Value" "SK6812-MINI-E" (at 143.51 88.265 0)
      (effects (font (size 1.27 1.27)))
    )
    (property "Footprint" "footprints:sk6812-mini-e" (at 136.525 89.535 0)
      (effects (font (size 1.27 1.27)) (justify left top) hide)
    )
    (property "Datasheet" "" (at 137.795 91.44 0)
      (effects (font (size 1.27 1.27)) (justify left top) hide)
    )
    (pin "1" (uuid b62c5b81-0a0c-460c-9e88-6739d4399047))
    (pin "2" (uuid dc789bfe-72fb-44ad-af5b-f174b21fd4cc))
    (pin "3" (uuid d3bcc971-64b1-4afe-b7de-4e175ef8e45d))
    (pin "4" (uuid 507f831b-9d42-40e2-89dd-829d5776f544))
    (instances
      (project "fidrildi3"
        (path "/9480f66b-59eb-4525-b2c4-f8c17a0d538d/f4a85ffb-82a5-4758-ae77-2052ef18d546"
          (reference "D59") (unit 1)
        )
      )
    )
  )

  (symbol (lib_id "sk6812-mini-e:SK6812-MINI-E") (at 61.595 81.915 0) (unit 1)
    (in_bom yes) (on_board yes) (dnp no)
    (uuid b93a2690-3ce6-4a51-84d5-8bbbc58bf1cf)
    (property "Reference" "D55" (at 64.77 75.565 0)
      (effects (font (size 1.27 1.27)))
    )
    (property "Value" "SK6812-MINI-E" (at 69.85 88.265 0)
      (effects (font (size 1.27 1.27)))
    )
    (property "Footprint" "footprints:sk6812-mini-e" (at 62.865 89.535 0)
      (effects (font (size 1.27 1.27)) (justify left top) hide)
    )
    (property "Datasheet" "" (at 64.135 91.44 0)
      (effects (font (size 1.27 1.27)) (justify left top) hide)
    )
    (pin "1" (uuid 0dd24e3e-8d91-45e5-aa99-163f764cc397))
    (pin "2" (uuid ad0d9fa2-45e3-4672-84fc-1008858b4981))
    (pin "3" (uuid 5c9a4df4-71f8-4021-bc1c-3f223723321e))
    (pin "4" (uuid 610ed4e2-965e-4ce1-8a77-c8c1356ecff6))
    (instances
      (project "fidrildi3"
        (path "/9480f66b-59eb-4525-b2c4-f8c17a0d538d/f4a85ffb-82a5-4758-ae77-2052ef18d546"
          (reference "D55") (unit 1)
        )
      )
    )
  )

  (symbol (lib_id "sk6812-mini-e:SK6812-MINI-E") (at 208.915 46.355 0) (unit 1)
    (in_bom yes) (on_board yes) (dnp no)
    (uuid c07dcc50-a845-4f91-8285-5ec51e47fc51)
    (property "Reference" "D43" (at 212.09 40.005 0)
      (effects (font (size 1.27 1.27)))
    )
    (property "Value" "SK6812-MINI-E" (at 217.17 52.705 0)
      (effects (font (size 1.27 1.27)))
    )
    (property "Footprint" "footprints:sk6812-mini-e" (at 210.185 53.975 0)
      (effects (font (size 1.27 1.27)) (justify left top) hide)
    )
    (property "Datasheet" "" (at 211.455 55.88 0)
      (effects (font (size 1.27 1.27)) (justify left top) hide)
    )
    (pin "1" (uuid 60092ed1-da0a-4adf-9971-f756f3825783))
    (pin "2" (uuid d910f03e-24f7-4624-be75-216fc46ecfd9))
    (pin "3" (uuid 875b3725-652a-4f29-9943-827769158095))
    (pin "4" (uuid 1985f316-1703-4b3f-9cf4-ff03676e390d))
    (instances
      (project "fidrildi3"
        (path "/9480f66b-59eb-4525-b2c4-f8c17a0d538d/f4a85ffb-82a5-4758-ae77-2052ef18d546"
          (reference "D43") (unit 1)
        )
      )
    )
  )

  (symbol (lib_id "sk6812-mini-e:SK6812-MINI-E") (at 135.255 46.355 0) (unit 1)
    (in_bom yes) (on_board yes) (dnp no)
    (uuid c548edab-bab9-4734-9767-e7043abe016f)
    (property "Reference" "D39" (at 138.43 40.005 0)
      (effects (font (size 1.27 1.27)))
    )
    (property "Value" "SK6812-MINI-E" (at 143.51 52.705 0)
      (effects (font (size 1.27 1.27)))
    )
    (property "Footprint" "footprints:sk6812-mini-e" (at 136.525 53.975 0)
      (effects (font (size 1.27 1.27)) (justify left top) hide)
    )
    (property "Datasheet" "" (at 137.795 55.88 0)
      (effects (font (size 1.27 1.27)) (justify left top) hide)
    )
    (pin "1" (uuid 9e080d72-729a-4220-885d-3f8e2ae5cef5))
    (pin "2" (uuid 61310867-2e8e-4ccf-ac5c-6f5a06cbd290))
    (pin "3" (uuid 905bd667-1d27-4cfe-b629-d604629bbd7d))
    (pin "4" (uuid b7b701ca-8457-4296-81d2-e6d29b7511f5))
    (instances
      (project "fidrildi3"
        (path "/9480f66b-59eb-4525-b2c4-f8c17a0d538d/f4a85ffb-82a5-4758-ae77-2052ef18d546"
          (reference "D39") (unit 1)
        )
      )
    )
  )

  (symbol (lib_id "sk6812-mini-e:SK6812-MINI-E") (at 227.33 64.135 180) (unit 1)
    (in_bom yes) (on_board yes) (dnp no)
    (uuid ca867360-0ad5-4007-86c3-f19597e3c27d)
    (property "Reference" "D45" (at 230.505 57.785 0)
      (effects (font (size 1.27 1.27)))
    )
    (property "Value" "SK6812-MINI-E" (at 235.585 70.485 0)
      (effects (font (size 1.27 1.27)))
    )
    (property "Footprint" "footprints:sk6812-mini-e" (at 226.06 56.515 0)
      (effects (font (size 1.27 1.27)) (justify left top) hide)
    )
    (property "Datasheet" "" (at 224.79 54.61 0)
      (effects (font (size 1.27 1.27)) (justify left top) hide)
    )
    (pin "1" (uuid a9da7699-23b2-4751-9c92-750c041ca386))
    (pin "2" (uuid 84296ac9-bdf5-44d6-a8d5-dfe5a09bdbe8))
    (pin "3" (uuid b75cce86-cc03-4a13-b329-9abc803d319d))
    (pin "4" (uuid 83df91fd-9b77-4f98-9a84-1c6044dac945))
    (instances
      (project "fidrildi3"
        (path "/9480f66b-59eb-4525-b2c4-f8c17a0d538d/f4a85ffb-82a5-4758-ae77-2052ef18d546"
          (reference "D45") (unit 1)
        )
      )
    )
  )

  (symbol (lib_id "sk6812-mini-e:SK6812-MINI-E") (at 153.67 64.135 180) (unit 1)
    (in_bom yes) (on_board yes) (dnp no)
    (uuid cd0c2cc1-526b-4150-9a96-7eac3ed74c7f)
    (property "Reference" "D49" (at 156.845 57.785 0)
      (effects (font (size 1.27 1.27)))
    )
    (property "Value" "SK6812-MINI-E" (at 161.925 70.485 0)
      (effects (font (size 1.27 1.27)))
    )
    (property "Footprint" "footprints:sk6812-mini-e" (at 152.4 56.515 0)
      (effects (font (size 1.27 1.27)) (justify left top) hide)
    )
    (property "Datasheet" "" (at 151.13 54.61 0)
      (effects (font (size 1.27 1.27)) (justify left top) hide)
    )
    (pin "1" (uuid ee60c9ec-464e-4bdd-bd25-cb5deac23883))
    (pin "2" (uuid 8e87e22c-5dd0-4858-b705-4b249583078b))
    (pin "3" (uuid 2ff05a24-df01-4645-b1ba-6239e57afdb5))
    (pin "4" (uuid d307241c-d1ad-4307-bdbf-d33c0d10dbb2))
    (instances
      (project "fidrildi3"
        (path "/9480f66b-59eb-4525-b2c4-f8c17a0d538d/f4a85ffb-82a5-4758-ae77-2052ef18d546"
          (reference "D49") (unit 1)
        )
      )
    )
  )

  (symbol (lib_id "sk6812-mini-e:SK6812-MINI-E") (at 80.01 64.135 180) (unit 1)
    (in_bom yes) (on_board yes) (dnp no)
    (uuid d65a866f-94ef-4c14-b6fa-b06614faefe5)
    (property "Reference" "D53" (at 83.185 57.785 0)
      (effects (font (size 1.27 1.27)))
    )
    (property "Value" "SK6812-MINI-E" (at 88.265 70.485 0)
      (effects (font (size 1.27 1.27)))
    )
    (property "Footprint" "footprints:sk6812-mini-e" (at 78.74 56.515 0)
      (effects (font (size 1.27 1.27)) (justify left top) hide)
    )
    (property "Datasheet" "" (at 77.47 54.61 0)
      (effects (font (size 1.27 1.27)) (justify left top) hide)
    )
    (pin "1" (uuid 35a22f3e-f4db-4cf1-8c66-79372a35b141))
    (pin "2" (uuid ce548a4b-dc35-4e6c-ab7b-fd25139baecb))
    (pin "3" (uuid f80172fc-73f5-47c4-8266-1eb9a9a1c005))
    (pin "4" (uuid 69389e4b-5b75-4eca-9a7b-9ace49dd167a))
    (instances
      (project "fidrildi3"
        (path "/9480f66b-59eb-4525-b2c4-f8c17a0d538d/f4a85ffb-82a5-4758-ae77-2052ef18d546"
          (reference "D53") (unit 1)
        )
      )
    )
  )

  (symbol (lib_id "sk6812-mini-e:SK6812-MINI-E") (at 172.085 46.355 0) (unit 1)
    (in_bom yes) (on_board yes) (dnp no)
    (uuid e39370bc-a87e-456e-a87a-71b82c752879)
    (property "Reference" "D41" (at 175.26 40.005 0)
      (effects (font (size 1.27 1.27)))
    )
    (property "Value" "SK6812-MINI-E" (at 180.34 52.705 0)
      (effects (font (size 1.27 1.27)))
    )
    (property "Footprint" "footprints:sk6812-mini-e" (at 173.355 53.975 0)
      (effects (font (size 1.27 1.27)) (justify left top) hide)
    )
    (property "Datasheet" "" (at 174.625 55.88 0)
      (effects (font (size 1.27 1.27)) (justify left top) hide)
    )
    (pin "1" (uuid cf8a91fd-1c11-40cd-9ee4-f68aa2e80295))
    (pin "2" (uuid fe32bbaa-5da2-4003-8462-376bfeddf1f8))
    (pin "3" (uuid a5d0480f-4775-4017-af45-c091e16baf8b))
    (pin "4" (uuid 782cd48b-ffbd-4f26-8b09-2b362968a4b3))
    (instances
      (project "fidrildi3"
        (path "/9480f66b-59eb-4525-b2c4-f8c17a0d538d/f4a85ffb-82a5-4758-ae77-2052ef18d546"
          (reference "D41") (unit 1)
        )
      )
    )
  )

  (symbol (lib_id "sk6812-mini-e:SK6812-MINI-E") (at 61.595 99.695 180) (unit 1)
    (in_bom yes) (on_board yes) (dnp no)
    (uuid eb1ded61-0a5b-4c3f-b63d-35cf35570695)
    (property "Reference" "D74" (at 64.77 93.345 0)
      (effects (font (size 1.27 1.27)))
    )
    (property "Value" "SK6812-MINI-E" (at 69.85 106.045 0)
      (effects (font (size 1.27 1.27)))
    )
    (property "Footprint" "footprints:sk6812-mini-e" (at 60.325 92.075 0)
      (effects (font (size 1.27 1.27)) (justify left top) hide)
    )
    (property "Datasheet" "" (at 59.055 90.17 0)
      (effects (font (size 1.27 1.27)) (justify left top) hide)
    )
    (pin "1" (uuid b493a94e-acb1-4eb2-a50e-042882799234))
    (pin "2" (uuid 08a74ff3-5e05-4d90-b899-c99e40fcca94))
    (pin "3" (uuid f173d486-3323-42f0-9264-fbc7c39ab089))
    (pin "4" (uuid 2e5e9681-6bcc-4098-a8b3-11000bb16b6d))
    (instances
      (project "fidrildi3"
        (path "/9480f66b-59eb-4525-b2c4-f8c17a0d538d/f4a85ffb-82a5-4758-ae77-2052ef18d546"
          (reference "D74") (unit 1)
        )
      )
    )
  )

  (symbol (lib_id "power:+5V") (at 45.085 34.925 0) (unit 1)
    (in_bom yes) (on_board yes) (dnp no) (fields_autoplaced)
    (uuid ec122398-7846-4b15-9664-8ee8736b3520)
    (property "Reference" "#PWR010" (at 45.085 38.735 0)
      (effects (font (size 1.27 1.27)) hide)
    )
    (property "Value" "+5V" (at 45.085 31.75 0)
      (effects (font (size 1.27 1.27)))
    )
    (property "Footprint" "" (at 45.085 34.925 0)
      (effects (font (size 1.27 1.27)) hide)
    )
    (property "Datasheet" "" (at 45.085 34.925 0)
      (effects (font (size 1.27 1.27)) hide)
    )
    (pin "1" (uuid 346fa9ac-b038-4320-a5d6-4464e694593a))
    (instances
      (project "fidrildi3"
        (path "/9480f66b-59eb-4525-b2c4-f8c17a0d538d/f4a85ffb-82a5-4758-ae77-2052ef18d546"
          (reference "#PWR010") (unit 1)
        )
      )
    )
  )

  (symbol (lib_id "sk6812-mini-e:SK6812-MINI-E") (at 227.33 46.355 0) (unit 1)
    (in_bom yes) (on_board yes) (dnp no)
    (uuid f0b97d6a-9b69-473c-a467-74fb1779bf04)
    (property "Reference" "D44" (at 230.505 40.005 0)
      (effects (font (size 1.27 1.27)))
    )
    (property "Value" "SK6812-MINI-E" (at 235.585 52.705 0)
      (effects (font (size 1.27 1.27)))
    )
    (property "Footprint" "footprints:sk6812-mini-e" (at 228.6 53.975 0)
      (effects (font (size 1.27 1.27)) (justify left top) hide)
    )
    (property "Datasheet" "" (at 229.87 55.88 0)
      (effects (font (size 1.27 1.27)) (justify left top) hide)
    )
    (pin "1" (uuid e27c5b39-b9f2-44e3-bf9e-b88e31edb163))
    (pin "2" (uuid 3efd7152-8185-4058-8dd4-e837bb526771))
    (pin "3" (uuid da61778b-6457-4d33-ba03-62fce558c899))
    (pin "4" (uuid a7961af3-6122-48d2-a4bf-fd308bdee67a))
    (instances
      (project "fidrildi3"
        (path "/9480f66b-59eb-4525-b2c4-f8c17a0d538d/f4a85ffb-82a5-4758-ae77-2052ef18d546"
          (reference "D44") (unit 1)
        )
      )
    )
  )

  (symbol (lib_id "sk6812-mini-e:SK6812-MINI-E") (at 98.425 81.915 0) (unit 1)
    (in_bom yes) (on_board yes) (dnp no)
    (uuid f9e93690-5497-4e51-89f4-22fe75259614)
    (property "Reference" "D57" (at 101.6 75.565 0)
      (effects (font (size 1.27 1.27)))
    )
    (property "Value" "SK6812-MINI-E" (at 106.68 88.265 0)
      (effects (font (size 1.27 1.27)))
    )
    (property "Footprint" "footprints:sk6812-mini-e" (at 99.695 89.535 0)
      (effects (font (size 1.27 1.27)) (justify left top) hide)
    )
    (property "Datasheet" "" (at 100.965 91.44 0)
      (effects (font (size 1.27 1.27)) (justify left top) hide)
    )
    (pin "1" (uuid 78846db0-6215-4935-98b1-e649f19a71c8))
    (pin "2" (uuid a2b58409-3e0a-4d96-adf2-7f854ad7e8c7))
    (pin "3" (uuid ec556d6d-eb9f-4a7c-932a-9d3e2e56fa1b))
    (pin "4" (uuid 92a3b364-653c-4910-b953-9e40f380adbf))
    (instances
      (project "fidrildi3"
        (path "/9480f66b-59eb-4525-b2c4-f8c17a0d538d/f4a85ffb-82a5-4758-ae77-2052ef18d546"
          (reference "D57") (unit 1)
        )
      )
    )
  )

  (symbol (lib_id "sk6812-mini-e:SK6812-MINI-E") (at 116.84 99.695 180) (unit 1)
    (in_bom yes) (on_board yes) (dnp no)
    (uuid fb6fc705-e83e-444e-9020-0a21fcf56fa1)
    (property "Reference" "D71" (at 120.015 93.345 0)
      (effects (font (size 1.27 1.27)))
    )
    (property "Value" "SK6812-MINI-E" (at 125.095 106.045 0)
      (effects (font (size 1.27 1.27)))
    )
    (property "Footprint" "footprints:sk6812-mini-e" (at 115.57 92.075 0)
      (effects (font (size 1.27 1.27)) (justify left top) hide)
    )
    (property "Datasheet" "" (at 114.3 90.17 0)
      (effects (font (size 1.27 1.27)) (justify left top) hide)
    )
    (pin "1" (uuid 193971bd-8f26-4a75-b364-e1040e81ac6f))
    (pin "2" (uuid 4f1bb1dd-edd1-4d82-98fd-7968feae0919))
    (pin "3" (uuid 748a2ba8-1258-4351-8911-a9b42b4863cd))
    (pin "4" (uuid 6c761897-afe1-4042-a7b6-24ceb6eb4dcf))
    (instances
      (project "fidrildi3"
        (path "/9480f66b-59eb-4525-b2c4-f8c17a0d538d/f4a85ffb-82a5-4758-ae77-2052ef18d546"
          (reference "D71") (unit 1)
        )
      )
    )
  )
)
