(kicad_sch (version 20230121) (generator eeschema)

  (uuid 7fb6bf0b-92de-4f02-abec-fd680434cdaa)

  (paper "A4")

  (lib_symbols
    (symbol "Connector_Generic:Conn_02x03_Odd_Even" (pin_names (offset 1.016) hide) (in_bom yes) (on_board yes)
      (property "Reference" "J" (at 1.27 5.08 0)
        (effects (font (size 1.27 1.27)))
      )
      (property "Value" "Conn_02x03_Odd_Even" (at 1.27 -5.08 0)
        (effects (font (size 1.27 1.27)))
      )
      (property "Footprint" "" (at 0 0 0)
        (effects (font (size 1.27 1.27)) hide)
      )
      (property "Datasheet" "~" (at 0 0 0)
        (effects (font (size 1.27 1.27)) hide)
      )
      (property "ki_keywords" "connector" (at 0 0 0)
        (effects (font (size 1.27 1.27)) hide)
      )
      (property "ki_description" "Generic connector, double row, 02x03, odd/even pin numbering scheme (row 1 odd numbers, row 2 even numbers), script generated (kicad-library-utils/schlib/autogen/connector/)" (at 0 0 0)
        (effects (font (size 1.27 1.27)) hide)
      )
      (property "ki_fp_filters" "Connector*:*_2x??_*" (at 0 0 0)
        (effects (font (size 1.27 1.27)) hide)
      )
      (symbol "Conn_02x03_Odd_Even_1_1"
        (rectangle (start -1.27 -2.413) (end 0 -2.667)
          (stroke (width 0.1524) (type default))
          (fill (type none))
        )
        (rectangle (start -1.27 0.127) (end 0 -0.127)
          (stroke (width 0.1524) (type default))
          (fill (type none))
        )
        (rectangle (start -1.27 2.667) (end 0 2.413)
          (stroke (width 0.1524) (type default))
          (fill (type none))
        )
        (rectangle (start -1.27 3.81) (end 3.81 -3.81)
          (stroke (width 0.254) (type default))
          (fill (type background))
        )
        (rectangle (start 3.81 -2.413) (end 2.54 -2.667)
          (stroke (width 0.1524) (type default))
          (fill (type none))
        )
        (rectangle (start 3.81 0.127) (end 2.54 -0.127)
          (stroke (width 0.1524) (type default))
          (fill (type none))
        )
        (rectangle (start 3.81 2.667) (end 2.54 2.413)
          (stroke (width 0.1524) (type default))
          (fill (type none))
        )
        (pin passive line (at -5.08 2.54 0) (length 3.81)
          (name "Pin_1" (effects (font (size 1.27 1.27))))
          (number "1" (effects (font (size 1.27 1.27))))
        )
        (pin passive line (at 7.62 2.54 180) (length 3.81)
          (name "Pin_2" (effects (font (size 1.27 1.27))))
          (number "2" (effects (font (size 1.27 1.27))))
        )
        (pin passive line (at -5.08 0 0) (length 3.81)
          (name "Pin_3" (effects (font (size 1.27 1.27))))
          (number "3" (effects (font (size 1.27 1.27))))
        )
        (pin passive line (at 7.62 0 180) (length 3.81)
          (name "Pin_4" (effects (font (size 1.27 1.27))))
          (number "4" (effects (font (size 1.27 1.27))))
        )
        (pin passive line (at -5.08 -2.54 0) (length 3.81)
          (name "Pin_5" (effects (font (size 1.27 1.27))))
          (number "5" (effects (font (size 1.27 1.27))))
        )
        (pin passive line (at 7.62 -2.54 180) (length 3.81)
          (name "Pin_6" (effects (font (size 1.27 1.27))))
          (number "6" (effects (font (size 1.27 1.27))))
        )
      )
    )
    (symbol "Connector_Generic:Conn_02x05_Odd_Even" (pin_names (offset 1.016) hide) (in_bom yes) (on_board yes)
      (property "Reference" "J" (at 1.27 7.62 0)
        (effects (font (size 1.27 1.27)))
      )
      (property "Value" "Conn_02x05_Odd_Even" (at 1.27 -7.62 0)
        (effects (font (size 1.27 1.27)))
      )
      (property "Footprint" "" (at 0 0 0)
        (effects (font (size 1.27 1.27)) hide)
      )
      (property "Datasheet" "~" (at 0 0 0)
        (effects (font (size 1.27 1.27)) hide)
      )
      (property "ki_keywords" "connector" (at 0 0 0)
        (effects (font (size 1.27 1.27)) hide)
      )
      (property "ki_description" "Generic connector, double row, 02x05, odd/even pin numbering scheme (row 1 odd numbers, row 2 even numbers), script generated (kicad-library-utils/schlib/autogen/connector/)" (at 0 0 0)
        (effects (font (size 1.27 1.27)) hide)
      )
      (property "ki_fp_filters" "Connector*:*_2x??_*" (at 0 0 0)
        (effects (font (size 1.27 1.27)) hide)
      )
      (symbol "Conn_02x05_Odd_Even_1_1"
        (rectangle (start -1.27 -4.953) (end 0 -5.207)
          (stroke (width 0.1524) (type default))
          (fill (type none))
        )
        (rectangle (start -1.27 -2.413) (end 0 -2.667)
          (stroke (width 0.1524) (type default))
          (fill (type none))
        )
        (rectangle (start -1.27 0.127) (end 0 -0.127)
          (stroke (width 0.1524) (type default))
          (fill (type none))
        )
        (rectangle (start -1.27 2.667) (end 0 2.413)
          (stroke (width 0.1524) (type default))
          (fill (type none))
        )
        (rectangle (start -1.27 5.207) (end 0 4.953)
          (stroke (width 0.1524) (type default))
          (fill (type none))
        )
        (rectangle (start -1.27 6.35) (end 3.81 -6.35)
          (stroke (width 0.254) (type default))
          (fill (type background))
        )
        (rectangle (start 3.81 -4.953) (end 2.54 -5.207)
          (stroke (width 0.1524) (type default))
          (fill (type none))
        )
        (rectangle (start 3.81 -2.413) (end 2.54 -2.667)
          (stroke (width 0.1524) (type default))
          (fill (type none))
        )
        (rectangle (start 3.81 0.127) (end 2.54 -0.127)
          (stroke (width 0.1524) (type default))
          (fill (type none))
        )
        (rectangle (start 3.81 2.667) (end 2.54 2.413)
          (stroke (width 0.1524) (type default))
          (fill (type none))
        )
        (rectangle (start 3.81 5.207) (end 2.54 4.953)
          (stroke (width 0.1524) (type default))
          (fill (type none))
        )
        (pin passive line (at -5.08 5.08 0) (length 3.81)
          (name "Pin_1" (effects (font (size 1.27 1.27))))
          (number "1" (effects (font (size 1.27 1.27))))
        )
        (pin passive line (at 7.62 -5.08 180) (length 3.81)
          (name "Pin_10" (effects (font (size 1.27 1.27))))
          (number "10" (effects (font (size 1.27 1.27))))
        )
        (pin passive line (at 7.62 5.08 180) (length 3.81)
          (name "Pin_2" (effects (font (size 1.27 1.27))))
          (number "2" (effects (font (size 1.27 1.27))))
        )
        (pin passive line (at -5.08 2.54 0) (length 3.81)
          (name "Pin_3" (effects (font (size 1.27 1.27))))
          (number "3" (effects (font (size 1.27 1.27))))
        )
        (pin passive line (at 7.62 2.54 180) (length 3.81)
          (name "Pin_4" (effects (font (size 1.27 1.27))))
          (number "4" (effects (font (size 1.27 1.27))))
        )
        (pin passive line (at -5.08 0 0) (length 3.81)
          (name "Pin_5" (effects (font (size 1.27 1.27))))
          (number "5" (effects (font (size 1.27 1.27))))
        )
        (pin passive line (at 7.62 0 180) (length 3.81)
          (name "Pin_6" (effects (font (size 1.27 1.27))))
          (number "6" (effects (font (size 1.27 1.27))))
        )
        (pin passive line (at -5.08 -2.54 0) (length 3.81)
          (name "Pin_7" (effects (font (size 1.27 1.27))))
          (number "7" (effects (font (size 1.27 1.27))))
        )
        (pin passive line (at 7.62 -2.54 180) (length 3.81)
          (name "Pin_8" (effects (font (size 1.27 1.27))))
          (number "8" (effects (font (size 1.27 1.27))))
        )
        (pin passive line (at -5.08 -5.08 0) (length 3.81)
          (name "Pin_9" (effects (font (size 1.27 1.27))))
          (number "9" (effects (font (size 1.27 1.27))))
        )
      )
    )
    (symbol "Device:LED_Small" (pin_numbers hide) (pin_names (offset 0.254) hide) (in_bom yes) (on_board yes)
      (property "Reference" "D" (at -1.27 3.175 0)
        (effects (font (size 1.27 1.27)) (justify left))
      )
      (property "Value" "LED_Small" (at -4.445 -2.54 0)
        (effects (font (size 1.27 1.27)) (justify left))
      )
      (property "Footprint" "" (at 0 0 90)
        (effects (font (size 1.27 1.27)) hide)
      )
      (property "Datasheet" "~" (at 0 0 90)
        (effects (font (size 1.27 1.27)) hide)
      )
      (property "ki_keywords" "LED diode light-emitting-diode" (at 0 0 0)
        (effects (font (size 1.27 1.27)) hide)
      )
      (property "ki_description" "Light emitting diode, small symbol" (at 0 0 0)
        (effects (font (size 1.27 1.27)) hide)
      )
      (property "ki_fp_filters" "LED* LED_SMD:* LED_THT:*" (at 0 0 0)
        (effects (font (size 1.27 1.27)) hide)
      )
      (symbol "LED_Small_0_1"
        (polyline
          (pts
            (xy -0.762 -1.016)
            (xy -0.762 1.016)
          )
          (stroke (width 0.254) (type default))
          (fill (type none))
        )
        (polyline
          (pts
            (xy 1.016 0)
            (xy -0.762 0)
          )
          (stroke (width 0) (type default))
          (fill (type none))
        )
        (polyline
          (pts
            (xy 0.762 -1.016)
            (xy -0.762 0)
            (xy 0.762 1.016)
            (xy 0.762 -1.016)
          )
          (stroke (width 0.254) (type default))
          (fill (type none))
        )
        (polyline
          (pts
            (xy 0 0.762)
            (xy -0.508 1.27)
            (xy -0.254 1.27)
            (xy -0.508 1.27)
            (xy -0.508 1.016)
          )
          (stroke (width 0) (type default))
          (fill (type none))
        )
        (polyline
          (pts
            (xy 0.508 1.27)
            (xy 0 1.778)
            (xy 0.254 1.778)
            (xy 0 1.778)
            (xy 0 1.524)
          )
          (stroke (width 0) (type default))
          (fill (type none))
        )
      )
      (symbol "LED_Small_1_1"
        (pin passive line (at -2.54 0 0) (length 1.778)
          (name "K" (effects (font (size 1.27 1.27))))
          (number "1" (effects (font (size 1.27 1.27))))
        )
        (pin passive line (at 2.54 0 180) (length 1.778)
          (name "A" (effects (font (size 1.27 1.27))))
          (number "2" (effects (font (size 1.27 1.27))))
        )
      )
    )
    (symbol "Device:R_Small" (pin_numbers hide) (pin_names (offset 0.254) hide) (in_bom yes) (on_board yes)
      (property "Reference" "R" (at 0.762 0.508 0)
        (effects (font (size 1.27 1.27)) (justify left))
      )
      (property "Value" "R_Small" (at 0.762 -1.016 0)
        (effects (font (size 1.27 1.27)) (justify left))
      )
      (property "Footprint" "" (at 0 0 0)
        (effects (font (size 1.27 1.27)) hide)
      )
      (property "Datasheet" "~" (at 0 0 0)
        (effects (font (size 1.27 1.27)) hide)
      )
      (property "ki_keywords" "R resistor" (at 0 0 0)
        (effects (font (size 1.27 1.27)) hide)
      )
      (property "ki_description" "Resistor, small symbol" (at 0 0 0)
        (effects (font (size 1.27 1.27)) hide)
      )
      (property "ki_fp_filters" "R_*" (at 0 0 0)
        (effects (font (size 1.27 1.27)) hide)
      )
      (symbol "R_Small_0_1"
        (rectangle (start -0.762 1.778) (end 0.762 -1.778)
          (stroke (width 0.2032) (type default))
          (fill (type none))
        )
      )
      (symbol "R_Small_1_1"
        (pin passive line (at 0 2.54 270) (length 0.762)
          (name "~" (effects (font (size 1.27 1.27))))
          (number "1" (effects (font (size 1.27 1.27))))
        )
        (pin passive line (at 0 -2.54 90) (length 0.762)
          (name "~" (effects (font (size 1.27 1.27))))
          (number "2" (effects (font (size 1.27 1.27))))
        )
      )
    )
  )


  (wire (pts (xy 115.57 139.7) (xy 133.35 139.7))
    (stroke (width 0) (type default))
    (uuid 01152f94-5980-4d2f-a3ec-0c2642200c68)
  )
  (polyline (pts (xy 159.385 64.77) (xy 159.385 80.645))
    (stroke (width 0) (type default))
    (uuid 066920f4-a2a1-4601-9d75-2def761ba900)
  )
  (polyline (pts (xy 193.04 64.77) (xy 193.04 80.645))
    (stroke (width 0) (type default))
    (uuid 0ec86ded-bd37-4b49-b8e8-b2a1c4cfe962)
  )

  (wire (pts (xy 166.37 134.62) (xy 167.64 134.62))
    (stroke (width 0) (type default))
    (uuid 15e9c7c4-d840-49eb-94f7-92fc53d5bc6f)
  )
  (polyline (pts (xy 126.365 113.03) (xy 126.365 124.46))
    (stroke (width 0) (type default))
    (uuid 25f46826-bce3-495e-925e-78c08a1345ce)
  )

  (wire (pts (xy 108.585 104.14) (xy 109.22 104.14))
    (stroke (width 0) (type default))
    (uuid 342c0fbc-fc01-476c-9c7b-701ad7a6804a)
  )
  (wire (pts (xy 143.51 116.205) (xy 144.78 116.205))
    (stroke (width 0) (type default))
    (uuid 40de4180-7bf4-452d-8450-3c0588d4cdf2)
  )
  (polyline (pts (xy 153.67 113.03) (xy 153.67 124.46))
    (stroke (width 0) (type default))
    (uuid 514d719d-4572-474b-a6f6-5f7c8eb1eb1b)
  )

  (wire (pts (xy 149.86 139.7) (xy 187.325 139.7))
    (stroke (width 0) (type default))
    (uuid 54bc51a8-1054-40db-a47c-de4745e71c4e)
  )
  (wire (pts (xy 138.43 121.285) (xy 144.78 121.285))
    (stroke (width 0) (type default))
    (uuid 5c9d1aeb-b3bf-4f47-b7de-7f148afa6f89)
  )
  (wire (pts (xy 177.165 121.285) (xy 178.435 121.285))
    (stroke (width 0) (type default))
    (uuid 5e872c80-2ed7-4894-9798-7060db719739)
  )
  (wire (pts (xy 153.67 67.31) (xy 160.655 67.31))
    (stroke (width 0) (type default))
    (uuid 63ed9f2b-a826-47ee-816f-0ad721f82256)
  )
  (polyline (pts (xy 175.26 64.77) (xy 175.26 80.645))
    (stroke (width 0) (type default))
    (uuid 651a7601-0292-407f-aa81-98e931bd1ca5)
  )
  (polyline (pts (xy 174.625 113.03) (xy 174.625 124.46))
    (stroke (width 0) (type default))
    (uuid 6c13964e-53fa-4137-8b4e-b471f826bd75)
  )

  (wire (pts (xy 138.43 139.7) (xy 144.78 139.7))
    (stroke (width 0) (type default))
    (uuid 6db80556-f0b6-4d0d-8053-8a40f2c58f03)
  )
  (polyline (pts (xy 122.555 131.445) (xy 122.555 142.875))
    (stroke (width 0) (type default))
    (uuid 758f973a-b0f0-4a52-95ec-dc758d4d2c99)
  )

  (wire (pts (xy 114.3 104.14) (xy 114.935 104.14))
    (stroke (width 0) (type default))
    (uuid 8c7d6266-bd49-4f59-9c5e-399a1a8f6a06)
  )
  (polyline (pts (xy 116.84 131.445) (xy 116.84 142.875))
    (stroke (width 0) (type default))
    (uuid 8dbd18ca-921b-41f6-b763-cfa31884ec01)
  )

  (wire (pts (xy 149.86 134.62) (xy 151.13 134.62))
    (stroke (width 0) (type default))
    (uuid 8f80f589-b39c-467a-8bd4-69777d181da3)
  )
  (wire (pts (xy 149.86 118.745) (xy 164.465 118.745))
    (stroke (width 0) (type default))
    (uuid 93fe807d-c1ee-48c5-b888-d016d264d582)
  )
  (polyline (pts (xy 127.635 131.445) (xy 127.635 142.875))
    (stroke (width 0) (type default))
    (uuid 958ba27c-f8e6-493b-b1bc-88d17b34cc4e)
  )

  (wire (pts (xy 153.67 72.39) (xy 194.31 72.39))
    (stroke (width 0) (type default))
    (uuid 97f42283-f0ff-4476-a269-bb97b148e1f8)
  )
  (polyline (pts (xy 135.89 113.03) (xy 135.89 124.46))
    (stroke (width 0) (type default))
    (uuid 9ee806b8-7a7d-4fee-abf1-b939af15d646)
  )

  (wire (pts (xy 132.08 121.285) (xy 133.35 121.285))
    (stroke (width 0) (type default))
    (uuid 9ff4d175-9a28-429e-9db0-45b699c68ce8)
  )
  (polyline (pts (xy 179.07 131.445) (xy 179.07 142.875))
    (stroke (width 0) (type default))
    (uuid a3c7b188-8a6f-4f7a-ae22-41f62f0a540b)
  )

  (wire (pts (xy 143.51 137.16) (xy 144.78 137.16))
    (stroke (width 0) (type default))
    (uuid a3d39171-906a-4538-883c-2e19251d4203)
  )
  (polyline (pts (xy 168.275 64.77) (xy 168.275 80.645))
    (stroke (width 0) (type default))
    (uuid a64fefa9-d56b-4f32-8b0f-8130403534e1)
  )
  (polyline (pts (xy 153.67 131.445) (xy 153.67 142.875))
    (stroke (width 0) (type default))
    (uuid ae749663-92b7-44c3-84a5-e5e5a073fabb)
  )
  (polyline (pts (xy 163.195 113.03) (xy 163.195 124.46))
    (stroke (width 0) (type default))
    (uuid aeb364a9-2799-4272-b005-0961d3f71b9d)
  )

  (wire (pts (xy 102.87 104.14) (xy 103.505 104.14))
    (stroke (width 0) (type default))
    (uuid b33a9986-bb6d-439b-ae11-291f3ff280c6)
  )
  (wire (pts (xy 134.62 74.93) (xy 140.97 74.93))
    (stroke (width 0) (type default))
    (uuid b69c0955-4d99-4b3b-a651-2d3f17f38d2e)
  )
  (wire (pts (xy 153.67 69.85) (xy 194.31 69.85))
    (stroke (width 0) (type default))
    (uuid b7c69f0f-5c08-45a6-9f80-8485f8fc7716)
  )
  (polyline (pts (xy 135.89 131.445) (xy 135.89 142.875))
    (stroke (width 0) (type default))
    (uuid ba13b324-a3ec-4c9f-8414-a1349b017b91)
  )
  (polyline (pts (xy 186.055 131.445) (xy 186.055 142.875))
    (stroke (width 0) (type default))
    (uuid c68f0ca2-e243-44d7-9de1-136e025a869e)
  )

  (wire (pts (xy 134.62 72.39) (xy 140.97 72.39))
    (stroke (width 0) (type default))
    (uuid c77cce2f-b1f4-430e-a48e-c13787b40e51)
  )
  (wire (pts (xy 156.21 134.62) (xy 161.29 134.62))
    (stroke (width 0) (type default))
    (uuid cbc2dd44-a458-46a8-a1d9-d391a012bc78)
  )
  (wire (pts (xy 153.67 77.47) (xy 194.31 77.47))
    (stroke (width 0) (type default))
    (uuid cc1e8aa5-3066-4516-8403-477d2985159d)
  )
  (polyline (pts (xy 163.83 131.445) (xy 163.83 142.875))
    (stroke (width 0) (type default))
    (uuid d2d95529-508e-4bb2-95b8-0fa93f107049)
  )

  (wire (pts (xy 149.86 137.16) (xy 187.325 137.16))
    (stroke (width 0) (type default))
    (uuid d53a1e21-723d-43b6-b1e8-8a8d7a1fb95b)
  )
  (wire (pts (xy 143.51 118.745) (xy 144.78 118.745))
    (stroke (width 0) (type default))
    (uuid d790a87c-3b2f-450a-a57a-5fb263122018)
  )
  (wire (pts (xy 153.67 74.93) (xy 169.545 74.93))
    (stroke (width 0) (type default))
    (uuid da207faa-3f67-4f03-9d41-0f4dbd03e57d)
  )
  (polyline (pts (xy 135.89 64.77) (xy 135.89 80.645))
    (stroke (width 0) (type default))
    (uuid de51833f-a59e-496c-b175-faa7fce728e6)
  )

  (wire (pts (xy 149.86 116.205) (xy 151.13 116.205))
    (stroke (width 0) (type default))
    (uuid e14ce90b-1502-4b25-b471-445c4d747cc7)
  )
  (polyline (pts (xy 186.055 64.77) (xy 186.055 80.645))
    (stroke (width 0) (type default))
    (uuid e2d1d759-1712-41a4-9bd7-fbb47b504c71)
  )

  (wire (pts (xy 149.86 121.285) (xy 172.085 121.285))
    (stroke (width 0) (type default))
    (uuid e9dfce7b-d00f-4eeb-8c71-62187491cd7d)
  )
  (wire (pts (xy 156.21 116.205) (xy 164.465 116.205))
    (stroke (width 0) (type default))
    (uuid ed8bc2b4-5eb1-4522-a165-03d84105a083)
  )
  (wire (pts (xy 143.51 134.62) (xy 144.78 134.62))
    (stroke (width 0) (type default))
    (uuid f48c3371-ce9b-4ba8-bf5d-9866847a87cc)
  )
  (polyline (pts (xy 180.34 64.77) (xy 180.34 80.645))
    (stroke (width 0) (type default))
    (uuid fcbc3299-8d13-4fdd-933a-b0ab98e4c68f)
  )

  (text "PWR" (at 143.51 142.875 0)
    (effects (font (size 1.27 1.27)) (justify right bottom))
    (uuid 0569b991-627d-4df1-a27f-5fd97451e5d4)
  )
  (text "UPDI" (at 180.34 142.875 0)
    (effects (font (size 1.27 1.27)) (justify left bottom))
    (uuid 07b62653-ce1b-4145-8622-ef13189664b3)
  )
  (text "ISP" (at 132.08 142.875 0)
    (effects (font (size 1.27 1.27)) (justify right bottom))
    (uuid 099c2bee-a156-4660-a12a-6f996abb250e)
  )
  (text "TPI" (at 174.625 142.875 0)
    (effects (font (size 1.27 1.27)) (justify left bottom))
    (uuid 12a20495-cfe9-4c70-80a8-b8fca49c70a9)
  )
  (text "ICSP(PIC)" (at 187.325 142.875 0)
    (effects (font (size 1.27 1.27)) (justify left bottom))
    (uuid 24694cd9-bdc1-4d3c-ad18-6c4d676f7bc2)
  )
  (text "For JTAG/SWD, populate R1, R2, R3, R5.\nIf TDI and RST clash, depopulate R1 to\nuse SWD or depopulate R2 to use JTAG."
    (at 199.39 118.745 0)
    (effects (font (size 1.27 1.27)) (justify left bottom))
    (uuid 2b2dd63f-63d8-4b38-ae50-ca9fa38a6b0f)
  )
  (text "TPI" (at 181.61 80.645 0)
    (effects (font (size 1.27 1.27)) (justify left bottom))
    (uuid 2b79015c-8afe-4772-ad32-6a8c9484af87)
  )
  (text "UPDI" (at 187.325 80.645 0)
    (effects (font (size 1.27 1.27)) (justify left bottom))
    (uuid 383d81e8-d598-4683-a11c-2e07deb78983)
  )
  (text "ISP" (at 169.545 80.645 0)
    (effects (font (size 1.27 1.27)) (justify left bottom))
    (uuid 393862cb-a76b-47a8-a4b2-d17daa2210b0)
  )
  (text "PWR" (at 143.51 124.46 0)
    (effects (font (size 1.27 1.27)) (justify right bottom))
    (uuid 52d3592d-a754-4b96-aac0-a64adbb2ea89)
  )
  (text "TPI" (at 121.285 142.875 0)
    (effects (font (size 1.27 1.27)) (justify right bottom))
    (uuid 5e63093a-ade2-45e7-ab63-54c79b53f2a2)
  )
  (text "SWD" (at 164.465 124.46 0)
    (effects (font (size 1.27 1.27)) (justify left bottom))
    (uuid 616efc37-3f10-46fc-8664-cc6ae4f873c5)
  )
  (text "ISP" (at 167.64 142.875 0)
    (effects (font (size 1.27 1.27)) (justify left bottom))
    (uuid 716dee9b-9aa7-460e-8799-008f6e6ec9b2)
  )
  (text "dW" (at 126.365 142.875 0)
    (effects (font (size 1.27 1.27)) (justify right bottom))
    (uuid 7c0f47d8-1d78-4473-bd4c-c387248e8cc5)
  )
  (text "For ISP/dW/TPI/UPDI/ICSP(PIC),\npopulate R2, R4, R6. If MOSI and\nTX clash, depopulate R4 for not ISP.\n"
    (at 199.39 137.16 0)
    (effects (font (size 1.27 1.27)) (justify left bottom))
    (uuid 80e92e61-2592-446e-8cf3-3f66172f81a4)
  )
  (text "Standardized pinout for target devices!\n(Programmers should flip UART)"
    (at 120.015 58.42 0)
    (effects (font (size 1.27 1.27)) (justify left bottom))
    (uuid 8e476584-939a-405a-9a27-37b693cd303f)
  )
  (text "SWD" (at 125.095 124.46 0)
    (effects (font (size 1.27 1.27)) (justify right bottom))
    (uuid 924a35b1-7ffb-4eb4-97c3-944c66202d58)
  )
  (text "JTAG" (at 157.48 124.46 0)
    (effects (font (size 1.27 1.27)) (justify left bottom))
    (uuid 9d754318-9e0d-40be-962c-c686d214d32e)
  )
  (text "PWR" (at 140.97 80.645 0)
    (effects (font (size 1.27 1.27)) (justify right bottom))
    (uuid a090839a-4090-4153-b43a-f20736c80079)
  )
  (text "UART" (at 134.62 80.645 0)
    (effects (font (size 1.27 1.27)) (justify right bottom))
    (uuid b7ac0b74-432f-4ea9-bc2f-af5064a351a9)
  )
  (text "SWD" (at 160.655 80.645 0)
    (effects (font (size 1.27 1.27)) (justify left bottom))
    (uuid ba298fd7-53f7-4948-add2-997bb510b1c7)
  )
  (text "dW" (at 176.53 80.645 0)
    (effects (font (size 1.27 1.27)) (justify left bottom))
    (uuid c1b401d0-8cb3-433c-85ab-2b1b376f232b)
  )
  (text "Pinouts chosen so that normal, legacy, and standard\nprogrammers/targets are interoperable, except for UART.\n\nTo avoid excess current when connecting to normal/legacy\nboards, programmers should have a 220Ω series resistor on\ntheir TX line."
    (at 120.015 95.885 0)
    (effects (font (size 1.27 1.27)) (justify left bottom))
    (uuid c2b69090-732a-4009-b820-9f10681ca3c5)
  )
  (text "UART" (at 157.48 142.875 0)
    (effects (font (size 1.27 1.27)) (justify left bottom))
    (uuid c94f5c28-c563-4500-87ac-22f9222eba1c)
  )
  (text "JTAG" (at 132.08 124.46 0)
    (effects (font (size 1.27 1.27)) (justify right bottom))
    (uuid d0b9e3dc-eb81-48dd-9d59-0703dc89cfab)
  )
  (text "UART" (at 178.435 124.46 0)
    (effects (font (size 1.27 1.27)) (justify left bottom))
    (uuid dc1339bb-4feb-4188-aabe-f737b1fb2a31)
  )
  (text "ICSP(PIC)" (at 194.31 80.645 0)
    (effects (font (size 1.27 1.27)) (justify left bottom))
    (uuid e2ad0afb-2787-4677-b150-00e6420daa92)
  )
  (text "ICSP(PIC)" (at 115.57 142.875 0)
    (effects (font (size 1.27 1.27)) (justify right bottom))
    (uuid e57cec29-11c5-4aa6-910a-6e5380d40769)
  )
  (text "Note JTAG and ISP 6-pin pinouts can't use UART!" (at 123.825 149.86 0)
    (effects (font (size 1.27 1.27)) (justify left bottom))
    (uuid e81ffdb3-a789-4934-8a1e-c9d1b910442b)
  )
  (text "JTAG" (at 153.67 80.645 0)
    (effects (font (size 1.27 1.27)) (justify left bottom))
    (uuid ee6546c5-9582-451a-ad8e-bbd688b76145)
  )

  (label "CLK(PGC)" (at 187.325 137.16 0) (fields_autoplaced)
    (effects (font (size 1.27 1.27)) (justify left bottom))
    (uuid 114920ba-a0a5-4ed1-9323-de29e7da7f71)
  )
  (label "SWCLK" (at 160.655 69.85 0) (fields_autoplaced)
    (effects (font (size 1.27 1.27)) (justify left bottom))
    (uuid 1210a40f-0484-41d2-9c55-9d8af5aadca9)
  )
  (label "~{MCLR}{slash}AUX" (at 194.31 77.47 0) (fields_autoplaced)
    (effects (font (size 1.27 1.27)) (justify left bottom))
    (uuid 14e4ae3a-146d-4d8d-8bd3-4249e3ef053b)
  )
  (label "TCK" (at 153.67 69.85 0) (fields_autoplaced)
    (effects (font (size 1.27 1.27)) (justify left bottom))
    (uuid 15a43d04-237a-40ef-ab23-e7910305b223)
  )
  (label "4" (at 149.86 137.16 180) (fields_autoplaced)
    (effects (font (size 1.27 1.27)) (justify right bottom))
    (uuid 1896fb13-9de6-4c16-a7f8-9f39d472ec8a)
  )
  (label "TX" (at 178.435 121.285 0) (fields_autoplaced)
    (effects (font (size 1.27 1.27)) (justify left bottom))
    (uuid 1a049ce0-4360-4096-990b-2f4cd6edcd6c)
  )
  (label "VDD" (at 143.51 134.62 180) (fields_autoplaced)
    (effects (font (size 1.27 1.27)) (justify right bottom))
    (uuid 1b5e6d54-9247-41fc-af7b-160561b3eab0)
  )
  (label "SCK" (at 167.64 137.16 0) (fields_autoplaced)
    (effects (font (size 1.27 1.27)) (justify left bottom))
    (uuid 22727d75-4d31-4745-b733-f31c1808949c)
  )
  (label "VDD" (at 102.87 104.14 180) (fields_autoplaced)
    (effects (font (size 1.27 1.27)) (justify right bottom))
    (uuid 24df4b5b-969c-4cac-9126-a37633214690)
  )
  (label "2" (at 149.86 134.62 180) (fields_autoplaced)
    (effects (font (size 1.27 1.27)) (justify right bottom))
    (uuid 27ff633d-478d-4819-a49d-ed0b30d880f2)
  )
  (label "TDI" (at 153.67 74.93 0) (fields_autoplaced)
    (effects (font (size 1.27 1.27)) (justify left bottom))
    (uuid 28fe9683-bbee-4dd4-a6ad-32c7f78f9f1c)
  )
  (label "DAT" (at 187.325 72.39 0) (fields_autoplaced)
    (effects (font (size 1.27 1.27)) (justify left bottom))
    (uuid 292b857d-36a4-489f-8241-f01878d75765)
  )
  (label "DAT(PGD)" (at 187.325 139.7 0) (fields_autoplaced)
    (effects (font (size 1.27 1.27)) (justify left bottom))
    (uuid 2a24de85-a90b-49a5-9f90-460f7217fb2d)
  )
  (label "5" (at 144.78 139.7 0) (fields_autoplaced)
    (effects (font (size 1.27 1.27)) (justify left bottom))
    (uuid 2f2c8299-f4b4-4f29-80f1-21c951cbb044)
  )
  (label "TDI" (at 132.08 121.285 180) (fields_autoplaced)
    (effects (font (size 1.27 1.27)) (justify right bottom))
    (uuid 34f540c9-4245-47ea-9f9b-640290e544df)
  )
  (label "CLK" (at 174.625 137.16 0) (fields_autoplaced)
    (effects (font (size 1.27 1.27)) (justify left bottom))
    (uuid 412588b0-e9dd-40aa-b087-54be1a467fc7)
  )
  (label "RST" (at 132.08 139.7 180) (fields_autoplaced)
    (effects (font (size 1.27 1.27)) (justify right bottom))
    (uuid 4189b4f4-1097-45b7-b5a4-e1ad9ea5be01)
  )
  (label "VDD" (at 140.97 67.31 180) (fields_autoplaced)
    (effects (font (size 1.27 1.27)) (justify right bottom))
    (uuid 442bd340-573b-4f40-a625-57175d370a29)
  )
  (label "TX" (at 157.48 134.62 0) (fields_autoplaced)
    (effects (font (size 1.27 1.27)) (justify left bottom))
    (uuid 4b49cd7e-ef81-4877-80ca-20d06c39368f)
  )
  (label "4" (at 153.67 106.68 0) (fields_autoplaced)
    (effects (font (size 1.27 1.27)) (justify left bottom))
    (uuid 4d58f04a-d08a-4f3a-8c87-1f665b15be29)
  )
  (label "dW" (at 176.53 77.47 0) (fields_autoplaced)
    (effects (font (size 1.27 1.27)) (justify left bottom))
    (uuid 50de2c3e-7eda-432b-bd56-bafd1d535d91)
  )
  (label "GND" (at 143.51 137.16 180) (fields_autoplaced)
    (effects (font (size 1.27 1.27)) (justify right bottom))
    (uuid 519b4455-76e1-43b4-8249-052c3a8533db)
  )
  (label "1" (at 144.78 134.62 0) (fields_autoplaced)
    (effects (font (size 1.27 1.27)) (justify left bottom))
    (uuid 549477e3-cf97-4e11-9643-ad4eb0031e0d)
  )
  (label "TDO" (at 157.48 121.285 0) (fields_autoplaced)
    (effects (font (size 1.27 1.27)) (justify left bottom))
    (uuid 5c1a39c7-b08f-45ad-9ad9-b7a5ffb6e1cb)
  )
  (label "2" (at 149.86 116.205 180) (fields_autoplaced)
    (effects (font (size 1.27 1.27)) (justify right bottom))
    (uuid 5ed9c161-3dc5-4a5d-a1fd-8ee368da9d04)
  )
  (label "TMS" (at 153.67 67.31 0) (fields_autoplaced)
    (effects (font (size 1.27 1.27)) (justify left bottom))
    (uuid 60252552-c39f-4e4c-9868-3aae2c74b68d)
  )
  (label "dW" (at 126.365 139.7 180) (fields_autoplaced)
    (effects (font (size 1.27 1.27)) (justify right bottom))
    (uuid 66d1b8fd-51e9-43c2-8773-b3cdd6a8e0df)
  )
  (label "3" (at 140.97 106.68 180) (fields_autoplaced)
    (effects (font (size 1.27 1.27)) (justify right bottom))
    (uuid 68bf7773-7d79-42db-b257-fefa2a9c3a6b)
  )
  (label "SCK" (at 169.545 69.85 0) (fields_autoplaced)
    (effects (font (size 1.27 1.27)) (justify left bottom))
    (uuid 6a5c6cfa-5c0c-4a1e-aef7-d44c22b578b3)
  )
  (label "5" (at 140.97 109.22 180) (fields_autoplaced)
    (effects (font (size 1.27 1.27)) (justify right bottom))
    (uuid 6fef9e43-46c0-41a9-92ab-7aeb69578b66)
  )
  (label "3" (at 144.78 118.745 0) (fields_autoplaced)
    (effects (font (size 1.27 1.27)) (justify left bottom))
    (uuid 781993d9-e8c1-4a64-a5e7-19f178b22a2d)
  )
  (label "RST" (at 125.095 121.285 180) (fields_autoplaced)
    (effects (font (size 1.27 1.27)) (justify right bottom))
    (uuid 7a1492da-84c6-4710-8e2b-8cf29f8e9131)
  )
  (label "RST" (at 181.61 77.47 0) (fields_autoplaced)
    (effects (font (size 1.27 1.27)) (justify left bottom))
    (uuid 87aa704f-6c97-4b6d-929f-3850e9e3e1ef)
  )
  (label "5" (at 144.78 121.285 0) (fields_autoplaced)
    (effects (font (size 1.27 1.27)) (justify left bottom))
    (uuid 889d56ac-112d-4b66-adcf-62d4b92cc31a)
  )
  (label "~{MCLR}{slash}AUX" (at 115.57 139.7 180) (fields_autoplaced)
    (effects (font (size 1.27 1.27)) (justify right bottom))
    (uuid 92d46208-fa91-40d4-b811-67b92157d163)
  )
  (label "GND" (at 140.97 69.85 180) (fields_autoplaced)
    (effects (font (size 1.27 1.27)) (justify right bottom))
    (uuid 92f39d3c-670d-4b14-b098-96b7a08c1856)
  )
  (label "6" (at 153.67 109.22 0) (fields_autoplaced)
    (effects (font (size 1.27 1.27)) (justify left bottom))
    (uuid 9658652b-f01b-43f2-9dc3-1cc7e19fed7e)
  )
  (label "1" (at 144.78 116.205 0) (fields_autoplaced)
    (effects (font (size 1.27 1.27)) (justify left bottom))
    (uuid 969e1500-74bf-44f8-987d-f24c41a9ee9d)
  )
  (label "DAT" (at 174.625 139.7 0) (fields_autoplaced)
    (effects (font (size 1.27 1.27)) (justify left bottom))
    (uuid 9712b404-1bb1-4c60-9a39-9524a321f914)
  )
  (label "SWO" (at 160.655 72.39 0) (fields_autoplaced)
    (effects (font (size 1.27 1.27)) (justify left bottom))
    (uuid 97956a7d-5630-443d-b4f9-f0d5fc9c2769)
  )
  (label "SWDIO" (at 160.655 67.31 0) (fields_autoplaced)
    (effects (font (size 1.27 1.27)) (justify left bottom))
    (uuid 9adf29ea-4c8d-4893-a68a-63cad03bb15e)
  )
  (label "RST" (at 121.285 139.7 180) (fields_autoplaced)
    (effects (font (size 1.27 1.27)) (justify right bottom))
    (uuid a50d0130-90e2-451e-849d-9ed991bbdd3c)
  )
  (label "SWO" (at 164.465 121.285 0) (fields_autoplaced)
    (effects (font (size 1.27 1.27)) (justify left bottom))
    (uuid a54865bf-d7d8-4383-b541-2d7131dfb948)
  )
  (label "CLK" (at 181.61 69.85 0) (fields_autoplaced)
    (effects (font (size 1.27 1.27)) (justify left bottom))
    (uuid a5fd3f9d-9f8f-4727-b405-1fb8f09910c8)
  )
  (label "DAT" (at 181.61 72.39 0) (fields_autoplaced)
    (effects (font (size 1.27 1.27)) (justify left bottom))
    (uuid a623afcc-5c23-4ef5-b446-6e2f56e6959b)
  )
  (label "MISO" (at 167.64 139.7 0) (fields_autoplaced)
    (effects (font (size 1.27 1.27)) (justify left bottom))
    (uuid a7db687f-268a-4df7-a81d-a49b8ec3dd98)
  )
  (label "6" (at 149.86 121.285 180) (fields_autoplaced)
    (effects (font (size 1.27 1.27)) (justify right bottom))
    (uuid a9b58ba2-88f5-47b5-a589-fc69cfdff177)
  )
  (label "SWDIO" (at 164.465 116.205 0) (fields_autoplaced)
    (effects (font (size 1.27 1.27)) (justify left bottom))
    (uuid ab439a5d-1cee-4a81-a131-fb3260db8258)
  )
  (label "6" (at 149.86 139.7 180) (fields_autoplaced)
    (effects (font (size 1.27 1.27)) (justify right bottom))
    (uuid ada5279f-65ba-4f97-a94a-6b07f55cca2d)
  )
  (label "1" (at 140.97 104.14 180) (fields_autoplaced)
    (effects (font (size 1.27 1.27)) (justify right bottom))
    (uuid ae5ccbca-ce01-4a50-8b13-d86a05876f00)
  )
  (label "VDD" (at 143.51 116.205 180) (fields_autoplaced)
    (effects (font (size 1.27 1.27)) (justify right bottom))
    (uuid b2086739-3d82-4a63-9fca-98ee98c6eae6)
  )
  (label "GND" (at 143.51 118.745 180) (fields_autoplaced)
    (effects (font (size 1.27 1.27)) (justify right bottom))
    (uuid b58ae3c7-4061-4ca5-a19c-1a97f15b97ad)
  )
  (label "TRST" (at 153.67 77.47 0) (fields_autoplaced)
    (effects (font (size 1.27 1.27)) (justify left bottom))
    (uuid b6d83ef8-ca6d-4854-a6c8-6af193a2d042)
  )
  (label "DAT" (at 180.34 139.7 0) (fields_autoplaced)
    (effects (font (size 1.27 1.27)) (justify left bottom))
    (uuid b7a44646-6331-4a99-a0d7-ac5973c23bc0)
  )
  (label "RST" (at 169.545 77.47 0) (fields_autoplaced)
    (effects (font (size 1.27 1.27)) (justify left bottom))
    (uuid c04f9ce7-cd5f-4116-a57b-41eb04bf8fee)
  )
  (label "DAT(PGD)" (at 194.31 72.39 0) (fields_autoplaced)
    (effects (font (size 1.27 1.27)) (justify left bottom))
    (uuid c0e51635-65c0-4dca-86f5-7f8ad053bbfd)
  )
  (label "RST" (at 160.655 77.47 0) (fields_autoplaced)
    (effects (font (size 1.27 1.27)) (justify left bottom))
    (uuid c301851f-fd00-4f88-8491-5e7efd1ce275)
  )
  (label "MISO" (at 169.545 72.39 0) (fields_autoplaced)
    (effects (font (size 1.27 1.27)) (justify left bottom))
    (uuid c993fdbd-cef7-4b72-a77f-4aada62d5784)
  )
  (label "TX" (at 134.62 74.93 180) (fields_autoplaced)
    (effects (font (size 1.27 1.27)) (justify right bottom))
    (uuid cd687993-93a3-40ed-a344-2bb2b9db5b51)
  )
  (label "RX" (at 134.62 72.39 180) (fields_autoplaced)
    (effects (font (size 1.27 1.27)) (justify right bottom))
    (uuid ceb744e1-27f5-4bc2-9db0-5ccd5be2e294)
  )
  (label "SWCLK" (at 164.465 118.745 0) (fields_autoplaced)
    (effects (font (size 1.27 1.27)) (justify left bottom))
    (uuid cf3584d1-7dbd-42a8-a39e-b8d93501b549)
  )
  (label "MOSI" (at 169.545 74.93 0) (fields_autoplaced)
    (effects (font (size 1.27 1.27)) (justify left bottom))
    (uuid d154a7ce-ff31-4059-9811-9ce36f511b42)
  )
  (label "4" (at 149.86 118.745 180) (fields_autoplaced)
    (effects (font (size 1.27 1.27)) (justify right bottom))
    (uuid da7464c6-0d25-4fc3-a57d-a8b2e1863ab2)
  )
  (label "TMS" (at 157.48 116.205 0) (fields_autoplaced)
    (effects (font (size 1.27 1.27)) (justify left bottom))
    (uuid da7aa066-b3de-4897-8d76-4d9c4aad8c81)
  )
  (label "TCK" (at 157.48 118.745 0) (fields_autoplaced)
    (effects (font (size 1.27 1.27)) (justify left bottom))
    (uuid dbeacd1e-9d92-4462-bd09-552d2a50d178)
  )
  (label "GND" (at 114.935 104.14 0) (fields_autoplaced)
    (effects (font (size 1.27 1.27)) (justify left bottom))
    (uuid ddbe08a6-fdcf-41c0-ba7b-71c04e25cadb)
  )
  (label "MOSI" (at 167.64 134.62 0) (fields_autoplaced)
    (effects (font (size 1.27 1.27)) (justify left bottom))
    (uuid e0cf7b08-7083-42b4-aaef-50661930d931)
  )
  (label "CLK(PGC)" (at 194.31 69.85 0) (fields_autoplaced)
    (effects (font (size 1.27 1.27)) (justify left bottom))
    (uuid ea229cda-5549-48fd-8135-1367320ea917)
  )
  (label "3" (at 144.78 137.16 0) (fields_autoplaced)
    (effects (font (size 1.27 1.27)) (justify left bottom))
    (uuid ecb3d2cf-a3ff-4c69-a22d-e809b863ad0e)
  )
  (label "2" (at 153.67 104.14 0) (fields_autoplaced)
    (effects (font (size 1.27 1.27)) (justify left bottom))
    (uuid f370d09b-a762-4a35-a50c-fdafd50b18a1)
  )
  (label "TDO" (at 153.67 72.39 0) (fields_autoplaced)
    (effects (font (size 1.27 1.27)) (justify left bottom))
    (uuid fea59b76-7c35-4406-8998-99b7f8e790f4)
  )
  (label "GND" (at 140.97 77.47 180) (fields_autoplaced)
    (effects (font (size 1.27 1.27)) (justify right bottom))
    (uuid feaf15c3-a1f6-49de-86af-28ca1b5e7aa7)
  )

  (symbol (lib_id "Device:R_Small") (at 163.83 134.62 90) (unit 1)
    (in_bom yes) (on_board yes) (dnp no)
    (uuid 07eeb641-90f6-408e-86d4-a818942d358b)
    (property "Reference" "R4" (at 165.1 132.715 90)
      (effects (font (size 1.27 1.27)))
    )
    (property "Value" "220" (at 163.83 134.62 90)
      (effects (font (size 1.27 1.27)))
    )
    (property "Footprint" "Resistor_SMD:R_0603_1608Metric" (at 163.83 134.62 0)
      (effects (font (size 1.27 1.27)) hide)
    )
    (property "Datasheet" "~" (at 163.83 134.62 0)
      (effects (font (size 1.27 1.27)) hide)
    )
    (pin "1" (uuid 4c923bc8-ddae-478d-a4aa-a7dc9a023d23))
    (pin "2" (uuid ab38d654-39a1-4a5e-90bd-109590c829cf))
    (instances
      (project "6to10"
        (path "/7fb6bf0b-92de-4f02-abec-fd680434cdaa"
          (reference "R4") (unit 1)
        )
      )
    )
  )

  (symbol (lib_id "Connector_Generic:Conn_02x03_Odd_Even") (at 146.05 106.68 0) (unit 1)
    (in_bom yes) (on_board yes) (dnp no)
    (uuid 23833d88-bd91-40aa-a5f6-865b9b51bd23)
    (property "Reference" "J2" (at 147.32 99.06 0)
      (effects (font (size 1.27 1.27)))
    )
    (property "Value" "standard_6pin" (at 147.32 100.965 0)
      (effects (font (size 1.27 1.27)))
    )
    (property "Footprint" "Connector_PinHeader_1.27mm:PinHeader_2x03_P1.27mm_Vertical_SMD" (at 146.05 106.68 0)
      (effects (font (size 1.27 1.27)) hide)
    )
    (property "Datasheet" "~" (at 146.05 106.68 0)
      (effects (font (size 1.27 1.27)) hide)
    )
    (pin "1" (uuid f6f91137-59f8-4479-8216-ef2fb181ebd3))
    (pin "2" (uuid 1c25beb0-4179-4e25-a221-becc5876815c))
    (pin "3" (uuid 9a86ea30-f7f7-4156-adc4-7c1ff02ce071))
    (pin "4" (uuid d39cc281-0473-4c4d-aa1f-308f29e6879f))
    (pin "5" (uuid 7c5a5ff7-4125-4c76-9374-43ea3d86f810))
    (pin "6" (uuid 1af14f4b-b899-490a-a554-7c5589c8fb40))
    (instances
      (project "6to10"
        (path "/7fb6bf0b-92de-4f02-abec-fd680434cdaa"
          (reference "J2") (unit 1)
        )
      )
    )
  )

  (symbol (lib_id "Connector_Generic:Conn_02x05_Odd_Even") (at 146.05 72.39 0) (unit 1)
    (in_bom yes) (on_board yes) (dnp no)
    (uuid 3d1d05be-cd41-4c6f-bff4-22af0199d65d)
    (property "Reference" "J1" (at 147.32 62.23 0)
      (effects (font (size 1.27 1.27)))
    )
    (property "Value" "standard" (at 147.32 64.135 0)
      (effects (font (size 1.27 1.27)))
    )
    (property "Footprint" "Connector_PinSocket_1.27mm:PinSocket_2x05_P1.27mm_Vertical_SMD" (at 146.05 72.39 0)
      (effects (font (size 1.27 1.27)) hide)
    )
    (property "Datasheet" "~" (at 146.05 72.39 0)
      (effects (font (size 1.27 1.27)) hide)
    )
    (pin "1" (uuid bb60d209-1dd3-457d-8092-fdfa883541ad))
    (pin "10" (uuid a97e79d8-bf5d-4b44-b619-c9f27d98f8c9))
    (pin "2" (uuid 110a9a5a-133f-47fe-a59f-a96bffb902ff))
    (pin "3" (uuid 067f0a4b-c891-4967-9057-3fd9120c707d))
    (pin "4" (uuid fd62ffc7-5317-45bc-9d5c-92cc985dbddd))
    (pin "5" (uuid b97b3171-ae5e-49c4-aa99-02f360dbe5c9))
    (pin "6" (uuid 610c8ea9-16d8-4fc0-8b71-ad19439f0ed1))
    (pin "7" (uuid 9d8c744e-efcb-426b-9582-1edaeb27df94))
    (pin "8" (uuid 67c0fcf0-b27a-4c66-b98e-3eab528444f4))
    (pin "9" (uuid 7c5dcdad-f1ce-4774-8ea7-f872b73e6792))
    (instances
      (project "6to10"
        (path "/7fb6bf0b-92de-4f02-abec-fd680434cdaa"
          (reference "J1") (unit 1)
        )
      )
    )
  )

  (symbol (lib_id "Device:R_Small") (at 135.89 139.7 90) (unit 1)
    (in_bom yes) (on_board yes) (dnp no)
    (uuid 4ae2d8c5-2b9a-4ea2-b960-e6c30452b3b3)
    (property "Reference" "R2" (at 137.16 137.795 90)
      (effects (font (size 1.27 1.27)))
    )
    (property "Value" "0" (at 135.89 139.7 90)
      (effects (font (size 1.27 1.27)))
    )
    (property "Footprint" "Resistor_SMD:R_0603_1608Metric" (at 135.89 139.7 0)
      (effects (font (size 1.27 1.27)) hide)
    )
    (property "Datasheet" "~" (at 135.89 139.7 0)
      (effects (font (size 1.27 1.27)) hide)
    )
    (pin "1" (uuid 631fe475-cfb3-4020-9daf-8653292e2808))
    (pin "2" (uuid 44e74e2a-3670-4693-af2a-566695a7ab88))
    (instances
      (project "6to10"
        (path "/7fb6bf0b-92de-4f02-abec-fd680434cdaa"
          (reference "R2") (unit 1)
        )
      )
    )
  )

  (symbol (lib_id "Device:R_Small") (at 153.67 134.62 90) (unit 1)
    (in_bom yes) (on_board yes) (dnp no)
    (uuid 5b9cdebf-3faa-4cb9-9e17-1c644eb16d12)
    (property "Reference" "R6" (at 154.94 132.715 90)
      (effects (font (size 1.27 1.27)))
    )
    (property "Value" "0" (at 153.67 134.62 90)
      (effects (font (size 1.27 1.27)))
    )
    (property "Footprint" "Resistor_SMD:R_0603_1608Metric" (at 153.67 134.62 0)
      (effects (font (size 1.27 1.27)) hide)
    )
    (property "Datasheet" "~" (at 153.67 134.62 0)
      (effects (font (size 1.27 1.27)) hide)
    )
    (pin "1" (uuid d63f315d-9eb4-4c4f-8eeb-3927f0136432))
    (pin "2" (uuid 70221b38-5db8-4e35-a395-6c5517824e60))
    (instances
      (project "6to10"
        (path "/7fb6bf0b-92de-4f02-abec-fd680434cdaa"
          (reference "R6") (unit 1)
        )
      )
    )
  )

  (symbol (lib_id "Device:LED_Small") (at 111.76 104.14 180) (unit 1)
    (in_bom yes) (on_board yes) (dnp no)
    (uuid 5c3b66e3-bad7-4582-ab7d-1e60000403bd)
    (property "Reference" "D1" (at 111.76 100.33 0)
      (effects (font (size 1.27 1.27)))
    )
    (property "Value" "PWR" (at 111.76 102.235 0)
      (effects (font (size 1.27 1.27)))
    )
    (property "Footprint" "LED_SMD:LED_0603_1608Metric" (at 111.76 104.14 90)
      (effects (font (size 1.27 1.27)) hide)
    )
    (property "Datasheet" "~" (at 111.76 104.14 90)
      (effects (font (size 1.27 1.27)) hide)
    )
    (pin "1" (uuid 7ca74582-f701-4ff2-889c-4218918b5a38))
    (pin "2" (uuid dafd83b9-e3e7-4bf2-8511-e93d7e2b20b1))
    (instances
      (project "6to10"
        (path "/7fb6bf0b-92de-4f02-abec-fd680434cdaa"
          (reference "D1") (unit 1)
        )
      )
    )
  )

  (symbol (lib_id "Device:R_Small") (at 135.89 121.285 90) (unit 1)
    (in_bom yes) (on_board yes) (dnp no)
    (uuid 94fc3af8-c2c0-4dfd-9b61-385a339827f3)
    (property "Reference" "R1" (at 137.16 119.38 90)
      (effects (font (size 1.27 1.27)))
    )
    (property "Value" "220" (at 135.89 121.285 90)
      (effects (font (size 1.27 1.27)))
    )
    (property "Footprint" "Resistor_SMD:R_0603_1608Metric" (at 135.89 121.285 0)
      (effects (font (size 1.27 1.27)) hide)
    )
    (property "Datasheet" "~" (at 135.89 121.285 0)
      (effects (font (size 1.27 1.27)) hide)
    )
    (pin "1" (uuid dfb7cddc-dbd6-458d-9da8-0b04f0b55171))
    (pin "2" (uuid 174a9478-11c7-429a-9179-7cbf5f9dd1bc))
    (instances
      (project "6to10"
        (path "/7fb6bf0b-92de-4f02-abec-fd680434cdaa"
          (reference "R1") (unit 1)
        )
      )
    )
  )

  (symbol (lib_id "Device:R_Small") (at 174.625 121.285 90) (unit 1)
    (in_bom yes) (on_board yes) (dnp no)
    (uuid 96d8d706-df02-4e9f-8767-182576177caa)
    (property "Reference" "R5" (at 175.895 119.38 90)
      (effects (font (size 1.27 1.27)))
    )
    (property "Value" "0" (at 174.625 121.285 90)
      (effects (font (size 1.27 1.27)))
    )
    (property "Footprint" "Resistor_SMD:R_0603_1608Metric" (at 174.625 121.285 0)
      (effects (font (size 1.27 1.27)) hide)
    )
    (property "Datasheet" "~" (at 174.625 121.285 0)
      (effects (font (size 1.27 1.27)) hide)
    )
    (pin "1" (uuid c68dbc4d-27e0-4941-9f5d-523146560754))
    (pin "2" (uuid 4b56a869-224a-4749-a0cf-e807063234a4))
    (instances
      (project "6to10"
        (path "/7fb6bf0b-92de-4f02-abec-fd680434cdaa"
          (reference "R5") (unit 1)
        )
      )
    )
  )

  (symbol (lib_id "Device:R_Small") (at 106.045 104.14 90) (unit 1)
    (in_bom yes) (on_board yes) (dnp no)
    (uuid c35be137-3876-42d5-9b9d-84c20fef8285)
    (property "Reference" "R7" (at 106.045 100.33 90)
      (effects (font (size 1.27 1.27)))
    )
    (property "Value" "2k2" (at 106.045 102.235 90)
      (effects (font (size 1.27 1.27)))
    )
    (property "Footprint" "Resistor_SMD:R_0603_1608Metric" (at 106.045 104.14 0)
      (effects (font (size 1.27 1.27)) hide)
    )
    (property "Datasheet" "~" (at 106.045 104.14 0)
      (effects (font (size 1.27 1.27)) hide)
    )
    (pin "1" (uuid 858dfebf-c0b8-4fa6-a01a-79544cc60dac))
    (pin "2" (uuid e016e9d2-dbf1-41cd-a5c3-1c71f6026745))
    (instances
      (project "6to10"
        (path "/7fb6bf0b-92de-4f02-abec-fd680434cdaa"
          (reference "R7") (unit 1)
        )
      )
    )
  )

  (symbol (lib_id "Device:R_Small") (at 153.67 116.205 90) (unit 1)
    (in_bom yes) (on_board yes) (dnp no)
    (uuid ff5e039f-c752-41bc-ae93-d1bc4987387e)
    (property "Reference" "R3" (at 154.94 114.3 90)
      (effects (font (size 1.27 1.27)))
    )
    (property "Value" "0" (at 153.67 116.205 90)
      (effects (font (size 1.27 1.27)))
    )
    (property "Footprint" "Resistor_SMD:R_0603_1608Metric" (at 153.67 116.205 0)
      (effects (font (size 1.27 1.27)) hide)
    )
    (property "Datasheet" "~" (at 153.67 116.205 0)
      (effects (font (size 1.27 1.27)) hide)
    )
    (pin "1" (uuid a9b67ecb-3510-476b-afee-ea6011952e8f))
    (pin "2" (uuid a609b95c-698a-4be2-a88f-554ea48c0478))
    (instances
      (project "6to10"
        (path "/7fb6bf0b-92de-4f02-abec-fd680434cdaa"
          (reference "R3") (unit 1)
        )
      )
    )
  )

  (sheet_instances
    (path "/" (page "1"))
  )
)
