(kicad_sch
	(version 20231120)
	(generator "eeschema")
	(generator_version "8.0")
	(uuid "72453515-27fe-4336-91f3-e3c8054f7767")
	(paper "USLedger")
	(title_block
		(title "AMIGA PCI")
		(date "2024-05-28")
		(rev "3.0")
	)
	(lib_symbols)
	(text "100 = PCI BUS\n200 = CPU AND CHIPSET\n300 = VIDEO\n400 = FAST RAM\n500 = AUDIO\n600 = POWER\n700 = CHIPSET RAM\n800 = VOLTAGE SHIFTER\n900 = IDE"
		(exclude_from_sim no)
		(at 162.052 152.908 0)
		(effects
			(font
				(size 3 3)
				(bold yes)
			)
			(justify left bottom)
		)
		(uuid "03d6913e-0783-4f08-bd37-f7010da4e748")
	)
	(text "DESIGNED WITH KiCAD REV 8"
		(exclude_from_sim no)
		(at 21.336 260.858 0)
		(effects
			(font
				(size 2 2)
			)
			(justify left bottom)
		)
		(uuid "15edd3ae-2f36-4266-b83b-a51bfc978075")
	)
	(text "BUDDY"
		(exclude_from_sim no)
		(at 156.718 209.296 0)
		(effects
			(font
				(size 15 15)
				(thickness 1.6)
				(bold yes)
			)
			(justify left bottom)
		)
		(uuid "82c564f8-ce35-4e3e-8545-a15c252dc228")
	)
	(sheet
		(at 45.466 121.412)
		(size 32.258 17.272)
		(fields_autoplaced yes)
		(stroke
			(width 0.1524)
			(type solid)
		)
		(fill
			(color 0 0 0 0.0000)
		)
		(uuid "14024e2c-eaac-4547-8875-4a8ac58b1720")
		(property "Sheetname" "Chip RAM Controller"
			(at 45.466 120.7004 0)
			(effects
				(font
					(size 1.27 1.27)
				)
				(justify left bottom)
			)
		)
		(property "Sheetfile" "cpu.kicad_sch"
			(at 45.466 139.2686 0)
			(effects
				(font
					(size 1.27 1.27)
				)
				(justify left top)
			)
		)
		(instances
			(project "AmigaPCI Mainboard"
				(path "/72453515-27fe-4336-91f3-e3c8054f7767"
					(page "13")
				)
			)
		)
	)
	(sheet
		(at 46.355 93.218)
		(size 31.496 16.891)
		(fields_autoplaced yes)
		(stroke
			(width 0.1524)
			(type solid)
		)
		(fill
			(color 0 0 0 0.0000)
		)
		(uuid "2b6a6f7b-f16f-448f-a082-ded618631c29")
		(property "Sheetname" "Agnus Multiadapter"
			(at 46.355 92.5064 0)
			(effects
				(font
					(size 1.27 1.27)
				)
				(justify left bottom)
			)
		)
		(property "Sheetfile" "Agnus-Multi.kicad_sch"
			(at 46.355 110.6936 0)
			(effects
				(font
					(size 1.27 1.27)
				)
				(justify left top)
			)
		)
		(instances
			(project "AmigaPCI Mainboard"
				(path "/72453515-27fe-4336-91f3-e3c8054f7767"
					(page "6")
				)
			)
		)
	)
	(sheet
		(at 174.752 53.848)
		(size 25.4 20.066)
		(fields_autoplaced yes)
		(stroke
			(width 0.1524)
			(type solid)
		)
		(fill
			(color 0 0 0 0.0000)
		)
		(uuid "34f2eda3-97b6-4f91-ad2d-01637d6f5405")
		(property "Sheetname" "Video"
			(at 174.752 53.1364 0)
			(effects
				(font
					(size 1.27 1.27)
				)
				(justify left bottom)
			)
		)
		(property "Sheetfile" "video.kicad_sch"
			(at 174.752 74.4986 0)
			(effects
				(font
					(size 1.27 1.27)
				)
				(justify left top)
			)
		)
		(instances
			(project "AmigaPCI Mainboard"
				(path "/72453515-27fe-4336-91f3-e3c8054f7767"
					(page "8")
				)
			)
		)
	)
	(sheet
		(at 90.424 149.225)
		(size 33.528 15.113)
		(fields_autoplaced yes)
		(stroke
			(width 0.1524)
			(type solid)
		)
		(fill
			(color 0 0 0 0.0000)
		)
		(uuid "3746f476-970c-4acb-b19d-33c43fff35fb")
		(property "Sheetname" "MC68040 Level Shift"
			(at 90.424 148.5134 0)
			(effects
				(font
					(size 1.27 1.27)
				)
				(justify left bottom)
			)
		)
		(property "Sheetfile" "mc68040_level_shift.kicad_sch"
			(at 90.424 164.9226 0)
			(effects
				(font
					(size 1.27 1.27)
				)
				(justify left top)
			)
		)
		(instances
			(project "AmigaPCI Mainboard"
				(path "/72453515-27fe-4336-91f3-e3c8054f7767"
					(page "17")
				)
			)
		)
	)
	(sheet
		(at 45.72 64.135)
		(size 35.56 16.51)
		(fields_autoplaced yes)
		(stroke
			(width 0.1524)
			(type solid)
		)
		(fill
			(color 0 0 0 0.0000)
		)
		(uuid "4cb777ef-2899-49f4-b38f-a0c07d84fa7d")
		(property "Sheetname" "Power and Spares"
			(at 45.72 63.4234 0)
			(effects
				(font
					(size 1.27 1.27)
				)
				(justify left bottom)
			)
		)
		(property "Sheetfile" "power.kicad_sch"
			(at 45.72 81.2296 0)
			(effects
				(font
					(size 1.27 1.27)
				)
				(justify left top)
			)
		)
		(instances
			(project "AmigaPCI Mainboard"
				(path "/72453515-27fe-4336-91f3-e3c8054f7767"
					(page "3")
				)
			)
		)
	)
	(sheet
		(at 91.44 121.666)
		(size 33.02 16.764)
		(fields_autoplaced yes)
		(stroke
			(width 0.1524)
			(type solid)
		)
		(fill
			(color 0 0 0 0.0000)
		)
		(uuid "60b2ee65-4978-4bd8-934d-67b9c15d34cc")
		(property "Sheetname" "HID and User Ports"
			(at 91.44 120.9544 0)
			(effects
				(font
					(size 1.27 1.27)
				)
				(justify left bottom)
			)
		)
		(property "Sheetfile" "hid.kicad_sch"
			(at 91.44 139.0146 0)
			(effects
				(font
					(size 1.27 1.27)
				)
				(justify left top)
			)
		)
		(instances
			(project "AmigaPCI Mainboard"
				(path "/72453515-27fe-4336-91f3-e3c8054f7767"
					(page "15")
				)
			)
		)
	)
	(sheet
		(at 106.172 51.308)
		(size 33.655 17.272)
		(fields_autoplaced yes)
		(stroke
			(width 0.1524)
			(type solid)
		)
		(fill
			(color 0 0 0 0.0000)
		)
		(uuid "62a07d55-3759-49a3-8a3f-631cb4902a24")
		(property "Sheetname" "Master Control"
			(at 106.172 50.5964 0)
			(effects
				(font
					(size 1.27 1.27)
				)
				(justify left bottom)
			)
		)
		(property "Sheetfile" "bcontroller.kicad_sch"
			(at 106.172 69.1646 0)
			(effects
				(font
					(size 1.27 1.27)
				)
				(justify left top)
			)
		)
		(instances
			(project "AmigaPCI Mainboard"
				(path "/72453515-27fe-4336-91f3-e3c8054f7767"
					(page "5")
				)
			)
		)
	)
	(sheet
		(at 226.314 28.702)
		(size 21.336 11.303)
		(fields_autoplaced yes)
		(stroke
			(width 0.1524)
			(type solid)
		)
		(fill
			(color 0 0 0 0.0000)
		)
		(uuid "64185471-b9ae-4a50-a046-7157e86a04d0")
		(property "Sheetname" "Floppy and Parallel"
			(at 226.314 27.9904 0)
			(effects
				(font
					(size 1.27 1.27)
				)
				(justify left bottom)
			)
		)
		(property "Sheetfile" "floppy.kicad_sch"
			(at 226.314 40.5896 0)
			(effects
				(font
					(size 1.27 1.27)
				)
				(justify left top)
			)
		)
		(instances
			(project "AmigaPCI Mainboard"
				(path "/72453515-27fe-4336-91f3-e3c8054f7767"
					(page "10")
				)
			)
		)
	)
	(sheet
		(at 228.219 55.753)
		(size 26.67 13.462)
		(fields_autoplaced yes)
		(stroke
			(width 0.1524)
			(type solid)
		)
		(fill
			(color 0 0 0 0.0000)
		)
		(uuid "70231775-58c2-469a-996a-fc3c3a4a8de1")
		(property "Sheetname" "Serial"
			(at 228.219 55.0414 0)
			(effects
				(font
					(size 1.27 1.27)
				)
				(justify left bottom)
			)
		)
		(property "Sheetfile" "serial.kicad_sch"
			(at 228.219 69.7996 0)
			(effects
				(font
					(size 1.27 1.27)
				)
				(justify left top)
			)
		)
		(instances
			(project "AmigaPCI Mainboard"
				(path "/72453515-27fe-4336-91f3-e3c8054f7767"
					(page "11")
				)
			)
		)
	)
	(sheet
		(at 173.482 87.122)
		(size 32.385 18.034)
		(fields_autoplaced yes)
		(stroke
			(width 0.1524)
			(type solid)
		)
		(fill
			(color 0 0 0 0.0000)
		)
		(uuid "71ea5834-c2f1-44b0-9a09-0538600b01fd")
		(property "Sheetname" "Audio"
			(at 173.482 86.4104 0)
			(effects
				(font
					(size 1.27 1.27)
				)
				(justify left bottom)
			)
		)
		(property "Sheetfile" "audio.kicad_sch"
			(at 173.482 105.7406 0)
			(effects
				(font
					(size 1.27 1.27)
				)
				(justify left top)
			)
		)
		(instances
			(project "AmigaPCI Mainboard"
				(path "/72453515-27fe-4336-91f3-e3c8054f7767"
					(page "9")
				)
			)
		)
	)
	(sheet
		(at 101.092 84.074)
		(size 26.162 15.113)
		(fields_autoplaced yes)
		(stroke
			(width 0.1524)
			(type solid)
		)
		(fill
			(color 0 0 0 0.0000)
		)
		(uuid "7a35a97e-5686-44dd-976e-0306b0eb5ef2")
		(property "Sheetname" "IDE Interface"
			(at 101.092 83.3624 0)
			(effects
				(font
					(size 1.27 1.27)
				)
				(justify left bottom)
			)
		)
		(property "Sheetfile" "IDE.kicad_sch"
			(at 101.092 99.7716 0)
			(effects
				(font
					(size 1.27 1.27)
				)
				(justify left top)
			)
		)
		(instances
			(project "AmigaPCI Mainboard"
				(path "/72453515-27fe-4336-91f3-e3c8054f7767"
					(page "12")
				)
			)
		)
	)
	(sheet
		(at 40.64 28.575)
		(size 31.75 17.145)
		(fields_autoplaced yes)
		(stroke
			(width 0.1524)
			(type solid)
		)
		(fill
			(color 0 0 0 0.0000)
		)
		(uuid "c23015fc-f40a-4f75-aa79-1dfe37c2fc2e")
		(property "Sheetname" "PCI Bus"
			(at 40.64 27.8634 0)
			(effects
				(font
					(size 1.27 1.27)
				)
				(justify left bottom)
			)
		)
		(property "Sheetfile" "pcibus.kicad_sch"
			(at 40.64 46.3046 0)
			(effects
				(font
					(size 1.27 1.27)
				)
				(justify left top)
			)
		)
		(instances
			(project "AmigaPCI Mainboard"
				(path "/72453515-27fe-4336-91f3-e3c8054f7767"
					(page "2")
				)
			)
		)
	)
	(sheet
		(at 46.99 146.304)
		(size 28.702 15.748)
		(fields_autoplaced yes)
		(stroke
			(width 0.1524)
			(type solid)
		)
		(fill
			(color 0 0 0 0.0000)
		)
		(uuid "c71cba2c-aa10-44ea-a37d-abe4b67b6d89")
		(property "Sheetname" "PCI Bridge"
			(at 46.99 145.5924 0)
			(effects
				(font
					(size 1.27 1.27)
				)
				(justify left bottom)
			)
		)
		(property "Sheetfile" "pci-bridge.kicad_sch"
			(at 46.99 162.6366 0)
			(effects
				(font
					(size 1.27 1.27)
				)
				(justify left top)
			)
		)
		(instances
			(project "AmigaPCI Mainboard"
				(path "/72453515-27fe-4336-91f3-e3c8054f7767"
					(page "16")
				)
			)
		)
	)
	(sheet
		(at 172.847 26.162)
		(size 24.511 14.224)
		(fields_autoplaced yes)
		(stroke
			(width 0.1524)
			(type solid)
		)
		(fill
			(color 0 0 0 0.0000)
		)
		(uuid "d671396a-959f-409b-8612-87cb620c51cb")
		(property "Sheetname" "Clocks and PCI Buffers"
			(at 172.847 25.4504 0)
			(effects
				(font
					(size 1.27 1.27)
				)
				(justify left bottom)
			)
		)
		(property "Sheetfile" "clocks.kicad_sch"
			(at 172.847 40.9706 0)
			(effects
				(font
					(size 1.27 1.27)
				)
				(justify left top)
			)
		)
		(instances
			(project "AmigaPCI Mainboard"
				(path "/72453515-27fe-4336-91f3-e3c8054f7767"
					(page "7")
				)
			)
		)
	)
	(sheet
		(at 222.758 87.63)
		(size 28.448 16.002)
		(fields_autoplaced yes)
		(stroke
			(width 0.1524)
			(type solid)
		)
		(fill
			(color 0 0 0 0.0000)
		)
		(uuid "f63de3eb-8614-4bac-88f2-650f5bad2338")
		(property "Sheetname" "Chip Memory"
			(at 222.758 86.9184 0)
			(effects
				(font
					(size 1.27 1.27)
				)
				(justify left bottom)
			)
		)
		(property "Sheetfile" "chip_memory.kicad_sch"
			(at 222.758 104.2166 0)
			(effects
				(font
					(size 1.27 1.27)
				)
				(justify left top)
			)
		)
		(instances
			(project "AmigaPCI Mainboard"
				(path "/72453515-27fe-4336-91f3-e3c8054f7767"
					(page "14")
				)
			)
		)
	)
	(sheet_instances
		(path "/"
			(page "1")
		)
	)
)
