(kicad_sch (version 20230121) (generator eeschema)

  (uuid ff2f07b6-e56e-4d00-b780-bd949f5c5c6f)

  (paper "A4")

  (title_block
    (title "${TITLE}")
    (date "${DATE}")
    (rev "${VERSION}")
    (company "${COPYRIGHT}")
    (comment 1 "${LICENSE}")
  )

  (lib_symbols
    (symbol "Connector:TestPoint" (pin_numbers hide) (pin_names (offset 0.762) hide) (in_bom yes) (on_board yes)
      (property "Reference" "TP" (at 0 6.858 0)
        (effects (font (size 1.27 1.27)))
      )
      (property "Value" "TestPoint" (at 0 5.08 0)
        (effects (font (size 1.27 1.27)))
      )
      (property "Footprint" "" (at 5.08 0 0)
        (effects (font (size 1.27 1.27)) hide)
      )
      (property "Datasheet" "~" (at 5.08 0 0)
        (effects (font (size 1.27 1.27)) hide)
      )
      (property "ki_keywords" "test point tp" (at 0 0 0)
        (effects (font (size 1.27 1.27)) hide)
      )
      (property "ki_description" "test point" (at 0 0 0)
        (effects (font (size 1.27 1.27)) hide)
      )
      (property "ki_fp_filters" "Pin* Test*" (at 0 0 0)
        (effects (font (size 1.27 1.27)) hide)
      )
      (symbol "TestPoint_0_1"
        (circle (center 0 3.302) (radius 0.762)
          (stroke (width 0) (type default))
          (fill (type none))
        )
      )
      (symbol "TestPoint_1_1"
        (pin passive line (at 0 0 90) (length 2.54)
          (name "1" (effects (font (size 1.27 1.27))))
          (number "1" (effects (font (size 1.27 1.27))))
        )
      )
    )
    (symbol "Connector:USB_C_Receptacle_USB2.0" (pin_names (offset 1.016)) (in_bom yes) (on_board yes)
      (property "Reference" "J" (at -10.16 19.05 0)
        (effects (font (size 1.27 1.27)) (justify left))
      )
      (property "Value" "USB_C_Receptacle_USB2.0" (at 19.05 19.05 0)
        (effects (font (size 1.27 1.27)) (justify right))
      )
      (property "Footprint" "" (at 3.81 0 0)
        (effects (font (size 1.27 1.27)) hide)
      )
      (property "Datasheet" "https://www.usb.org/sites/default/files/documents/usb_type-c.zip" (at 3.81 0 0)
        (effects (font (size 1.27 1.27)) hide)
      )
      (property "ki_keywords" "usb universal serial bus type-C USB2.0" (at 0 0 0)
        (effects (font (size 1.27 1.27)) hide)
      )
      (property "ki_description" "USB 2.0-only Type-C Receptacle connector" (at 0 0 0)
        (effects (font (size 1.27 1.27)) hide)
      )
      (property "ki_fp_filters" "USB*C*Receptacle*" (at 0 0 0)
        (effects (font (size 1.27 1.27)) hide)
      )
      (symbol "USB_C_Receptacle_USB2.0_0_0"
        (rectangle (start -0.254 -17.78) (end 0.254 -16.764)
          (stroke (width 0) (type default))
          (fill (type none))
        )
        (rectangle (start 10.16 -14.986) (end 9.144 -15.494)
          (stroke (width 0) (type default))
          (fill (type none))
        )
        (rectangle (start 10.16 -12.446) (end 9.144 -12.954)
          (stroke (width 0) (type default))
          (fill (type none))
        )
        (rectangle (start 10.16 -4.826) (end 9.144 -5.334)
          (stroke (width 0) (type default))
          (fill (type none))
        )
        (rectangle (start 10.16 -2.286) (end 9.144 -2.794)
          (stroke (width 0) (type default))
          (fill (type none))
        )
        (rectangle (start 10.16 0.254) (end 9.144 -0.254)
          (stroke (width 0) (type default))
          (fill (type none))
        )
        (rectangle (start 10.16 2.794) (end 9.144 2.286)
          (stroke (width 0) (type default))
          (fill (type none))
        )
        (rectangle (start 10.16 7.874) (end 9.144 7.366)
          (stroke (width 0) (type default))
          (fill (type none))
        )
        (rectangle (start 10.16 10.414) (end 9.144 9.906)
          (stroke (width 0) (type default))
          (fill (type none))
        )
        (rectangle (start 10.16 15.494) (end 9.144 14.986)
          (stroke (width 0) (type default))
          (fill (type none))
        )
      )
      (symbol "USB_C_Receptacle_USB2.0_0_1"
        (rectangle (start -10.16 17.78) (end 10.16 -17.78)
          (stroke (width 0.254) (type default))
          (fill (type background))
        )
        (arc (start -8.89 -3.81) (mid -6.985 -5.7067) (end -5.08 -3.81)
          (stroke (width 0.508) (type default))
          (fill (type none))
        )
        (arc (start -7.62 -3.81) (mid -6.985 -4.4423) (end -6.35 -3.81)
          (stroke (width 0.254) (type default))
          (fill (type none))
        )
        (arc (start -7.62 -3.81) (mid -6.985 -4.4423) (end -6.35 -3.81)
          (stroke (width 0.254) (type default))
          (fill (type outline))
        )
        (rectangle (start -7.62 -3.81) (end -6.35 3.81)
          (stroke (width 0.254) (type default))
          (fill (type outline))
        )
        (arc (start -6.35 3.81) (mid -6.985 4.4423) (end -7.62 3.81)
          (stroke (width 0.254) (type default))
          (fill (type none))
        )
        (arc (start -6.35 3.81) (mid -6.985 4.4423) (end -7.62 3.81)
          (stroke (width 0.254) (type default))
          (fill (type outline))
        )
        (arc (start -5.08 3.81) (mid -6.985 5.7067) (end -8.89 3.81)
          (stroke (width 0.508) (type default))
          (fill (type none))
        )
        (circle (center -2.54 1.143) (radius 0.635)
          (stroke (width 0.254) (type default))
          (fill (type outline))
        )
        (circle (center 0 -5.842) (radius 1.27)
          (stroke (width 0) (type default))
          (fill (type outline))
        )
        (polyline
          (pts
            (xy -8.89 -3.81)
            (xy -8.89 3.81)
          )
          (stroke (width 0.508) (type default))
          (fill (type none))
        )
        (polyline
          (pts
            (xy -5.08 3.81)
            (xy -5.08 -3.81)
          )
          (stroke (width 0.508) (type default))
          (fill (type none))
        )
        (polyline
          (pts
            (xy 0 -5.842)
            (xy 0 4.318)
          )
          (stroke (width 0.508) (type default))
          (fill (type none))
        )
        (polyline
          (pts
            (xy 0 -3.302)
            (xy -2.54 -0.762)
            (xy -2.54 0.508)
          )
          (stroke (width 0.508) (type default))
          (fill (type none))
        )
        (polyline
          (pts
            (xy 0 -2.032)
            (xy 2.54 0.508)
            (xy 2.54 1.778)
          )
          (stroke (width 0.508) (type default))
          (fill (type none))
        )
        (polyline
          (pts
            (xy -1.27 4.318)
            (xy 0 6.858)
            (xy 1.27 4.318)
            (xy -1.27 4.318)
          )
          (stroke (width 0.254) (type default))
          (fill (type outline))
        )
        (rectangle (start 1.905 1.778) (end 3.175 3.048)
          (stroke (width 0.254) (type default))
          (fill (type outline))
        )
      )
      (symbol "USB_C_Receptacle_USB2.0_1_1"
        (pin passive line (at 0 -22.86 90) (length 5.08)
          (name "GND" (effects (font (size 1.27 1.27))))
          (number "A1" (effects (font (size 1.27 1.27))))
        )
        (pin passive line (at 0 -22.86 90) (length 5.08) hide
          (name "GND" (effects (font (size 1.27 1.27))))
          (number "A12" (effects (font (size 1.27 1.27))))
        )
        (pin passive line (at 15.24 15.24 180) (length 5.08)
          (name "VBUS" (effects (font (size 1.27 1.27))))
          (number "A4" (effects (font (size 1.27 1.27))))
        )
        (pin bidirectional line (at 15.24 10.16 180) (length 5.08)
          (name "CC1" (effects (font (size 1.27 1.27))))
          (number "A5" (effects (font (size 1.27 1.27))))
        )
        (pin bidirectional line (at 15.24 -2.54 180) (length 5.08)
          (name "D+" (effects (font (size 1.27 1.27))))
          (number "A6" (effects (font (size 1.27 1.27))))
        )
        (pin bidirectional line (at 15.24 2.54 180) (length 5.08)
          (name "D-" (effects (font (size 1.27 1.27))))
          (number "A7" (effects (font (size 1.27 1.27))))
        )
        (pin bidirectional line (at 15.24 -12.7 180) (length 5.08)
          (name "SBU1" (effects (font (size 1.27 1.27))))
          (number "A8" (effects (font (size 1.27 1.27))))
        )
        (pin passive line (at 15.24 15.24 180) (length 5.08) hide
          (name "VBUS" (effects (font (size 1.27 1.27))))
          (number "A9" (effects (font (size 1.27 1.27))))
        )
        (pin passive line (at 0 -22.86 90) (length 5.08) hide
          (name "GND" (effects (font (size 1.27 1.27))))
          (number "B1" (effects (font (size 1.27 1.27))))
        )
        (pin passive line (at 0 -22.86 90) (length 5.08) hide
          (name "GND" (effects (font (size 1.27 1.27))))
          (number "B12" (effects (font (size 1.27 1.27))))
        )
        (pin passive line (at 15.24 15.24 180) (length 5.08) hide
          (name "VBUS" (effects (font (size 1.27 1.27))))
          (number "B4" (effects (font (size 1.27 1.27))))
        )
        (pin bidirectional line (at 15.24 7.62 180) (length 5.08)
          (name "CC2" (effects (font (size 1.27 1.27))))
          (number "B5" (effects (font (size 1.27 1.27))))
        )
        (pin bidirectional line (at 15.24 -5.08 180) (length 5.08)
          (name "D+" (effects (font (size 1.27 1.27))))
          (number "B6" (effects (font (size 1.27 1.27))))
        )
        (pin bidirectional line (at 15.24 0 180) (length 5.08)
          (name "D-" (effects (font (size 1.27 1.27))))
          (number "B7" (effects (font (size 1.27 1.27))))
        )
        (pin bidirectional line (at 15.24 -15.24 180) (length 5.08)
          (name "SBU2" (effects (font (size 1.27 1.27))))
          (number "B8" (effects (font (size 1.27 1.27))))
        )
        (pin passive line (at 15.24 15.24 180) (length 5.08) hide
          (name "VBUS" (effects (font (size 1.27 1.27))))
          (number "B9" (effects (font (size 1.27 1.27))))
        )
        (pin passive line (at -7.62 -22.86 90) (length 5.08)
          (name "SHIELD" (effects (font (size 1.27 1.27))))
          (number "S1" (effects (font (size 1.27 1.27))))
        )
      )
    )
    (symbol "Device:C" (pin_numbers hide) (pin_names (offset 0.254)) (in_bom yes) (on_board yes)
      (property "Reference" "C" (at 0.635 2.54 0)
        (effects (font (size 1.27 1.27)) (justify left))
      )
      (property "Value" "C" (at 0.635 -2.54 0)
        (effects (font (size 1.27 1.27)) (justify left))
      )
      (property "Footprint" "" (at 0.9652 -3.81 0)
        (effects (font (size 1.27 1.27)) hide)
      )
      (property "Datasheet" "~" (at 0 0 0)
        (effects (font (size 1.27 1.27)) hide)
      )
      (property "ki_keywords" "cap capacitor" (at 0 0 0)
        (effects (font (size 1.27 1.27)) hide)
      )
      (property "ki_description" "Unpolarized capacitor" (at 0 0 0)
        (effects (font (size 1.27 1.27)) hide)
      )
      (property "ki_fp_filters" "C_*" (at 0 0 0)
        (effects (font (size 1.27 1.27)) hide)
      )
      (symbol "C_0_1"
        (polyline
          (pts
            (xy -2.032 -0.762)
            (xy 2.032 -0.762)
          )
          (stroke (width 0.508) (type default))
          (fill (type none))
        )
        (polyline
          (pts
            (xy -2.032 0.762)
            (xy 2.032 0.762)
          )
          (stroke (width 0.508) (type default))
          (fill (type none))
        )
      )
      (symbol "C_1_1"
        (pin passive line (at 0 3.81 270) (length 2.794)
          (name "~" (effects (font (size 1.27 1.27))))
          (number "1" (effects (font (size 1.27 1.27))))
        )
        (pin passive line (at 0 -3.81 90) (length 2.794)
          (name "~" (effects (font (size 1.27 1.27))))
          (number "2" (effects (font (size 1.27 1.27))))
        )
      )
    )
    (symbol "Device:D_Zener" (pin_numbers hide) (pin_names (offset 1.016) hide) (in_bom yes) (on_board yes)
      (property "Reference" "D" (at 0 2.54 0)
        (effects (font (size 1.27 1.27)))
      )
      (property "Value" "D_Zener" (at 0 -2.54 0)
        (effects (font (size 1.27 1.27)))
      )
      (property "Footprint" "" (at 0 0 0)
        (effects (font (size 1.27 1.27)) hide)
      )
      (property "Datasheet" "~" (at 0 0 0)
        (effects (font (size 1.27 1.27)) hide)
      )
      (property "ki_keywords" "diode" (at 0 0 0)
        (effects (font (size 1.27 1.27)) hide)
      )
      (property "ki_description" "Zener diode" (at 0 0 0)
        (effects (font (size 1.27 1.27)) hide)
      )
      (property "ki_fp_filters" "TO-???* *_Diode_* *SingleDiode* D_*" (at 0 0 0)
        (effects (font (size 1.27 1.27)) hide)
      )
      (symbol "D_Zener_0_1"
        (polyline
          (pts
            (xy 1.27 0)
            (xy -1.27 0)
          )
          (stroke (width 0) (type default))
          (fill (type none))
        )
        (polyline
          (pts
            (xy -1.27 -1.27)
            (xy -1.27 1.27)
            (xy -0.762 1.27)
          )
          (stroke (width 0.254) (type default))
          (fill (type none))
        )
        (polyline
          (pts
            (xy 1.27 -1.27)
            (xy 1.27 1.27)
            (xy -1.27 0)
            (xy 1.27 -1.27)
          )
          (stroke (width 0.254) (type default))
          (fill (type none))
        )
      )
      (symbol "D_Zener_1_1"
        (pin passive line (at -3.81 0 0) (length 2.54)
          (name "K" (effects (font (size 1.27 1.27))))
          (number "1" (effects (font (size 1.27 1.27))))
        )
        (pin passive line (at 3.81 0 180) (length 2.54)
          (name "A" (effects (font (size 1.27 1.27))))
          (number "2" (effects (font (size 1.27 1.27))))
        )
      )
    )
    (symbol "Device:Filter_EMI_CommonMode" (pin_names (offset 0.254) hide) (in_bom yes) (on_board yes)
      (property "Reference" "FL" (at 0 4.445 0)
        (effects (font (size 1.27 1.27)))
      )
      (property "Value" "Filter_EMI_CommonMode" (at 0 -4.445 0)
        (effects (font (size 1.27 1.27)))
      )
      (property "Footprint" "" (at 0 1.016 0)
        (effects (font (size 1.27 1.27)) hide)
      )
      (property "Datasheet" "~" (at 0 1.016 0)
        (effects (font (size 1.27 1.27)) hide)
      )
      (property "ki_keywords" "EMI common mode filter" (at 0 0 0)
        (effects (font (size 1.27 1.27)) hide)
      )
      (property "ki_description" "EMI 2-inductor common mode filter" (at 0 0 0)
        (effects (font (size 1.27 1.27)) hide)
      )
      (property "ki_fp_filters" "L_* L_CommonMode*" (at 0 0 0)
        (effects (font (size 1.27 1.27)) hide)
      )
      (symbol "Filter_EMI_CommonMode_0_1"
        (circle (center -3.048 -1.27) (radius 0.254)
          (stroke (width 0) (type default))
          (fill (type outline))
        )
        (circle (center -3.048 1.524) (radius 0.254)
          (stroke (width 0) (type default))
          (fill (type outline))
        )
        (arc (start -2.54 2.032) (mid -2.032 1.5262) (end -1.524 2.032)
          (stroke (width 0) (type default))
          (fill (type none))
        )
        (arc (start -1.524 -2.032) (mid -2.032 -1.5262) (end -2.54 -2.032)
          (stroke (width 0) (type default))
          (fill (type none))
        )
        (arc (start -1.524 2.032) (mid -1.016 1.5262) (end -0.508 2.032)
          (stroke (width 0) (type default))
          (fill (type none))
        )
        (arc (start -0.508 -2.032) (mid -1.016 -1.5262) (end -1.524 -2.032)
          (stroke (width 0) (type default))
          (fill (type none))
        )
        (arc (start -0.508 2.032) (mid 0 1.5262) (end 0.508 2.032)
          (stroke (width 0) (type default))
          (fill (type none))
        )
        (polyline
          (pts
            (xy -2.54 -2.032)
            (xy -2.54 -2.54)
          )
          (stroke (width 0) (type default))
          (fill (type none))
        )
        (polyline
          (pts
            (xy -2.54 0.508)
            (xy 2.54 0.508)
          )
          (stroke (width 0) (type default))
          (fill (type none))
        )
        (polyline
          (pts
            (xy -2.54 2.032)
            (xy -2.54 2.54)
          )
          (stroke (width 0) (type default))
          (fill (type none))
        )
        (polyline
          (pts
            (xy 2.54 -2.032)
            (xy 2.54 -2.54)
          )
          (stroke (width 0) (type default))
          (fill (type none))
        )
        (polyline
          (pts
            (xy 2.54 -0.508)
            (xy -2.54 -0.508)
          )
          (stroke (width 0) (type default))
          (fill (type none))
        )
        (polyline
          (pts
            (xy 2.54 2.54)
            (xy 2.54 2.032)
          )
          (stroke (width 0) (type default))
          (fill (type none))
        )
        (arc (start 0.508 -2.032) (mid 0 -1.5262) (end -0.508 -2.032)
          (stroke (width 0) (type default))
          (fill (type none))
        )
        (arc (start 0.508 2.032) (mid 1.016 1.5262) (end 1.524 2.032)
          (stroke (width 0) (type default))
          (fill (type none))
        )
        (arc (start 1.524 -2.032) (mid 1.016 -1.5262) (end 0.508 -2.032)
          (stroke (width 0) (type default))
          (fill (type none))
        )
        (arc (start 1.524 2.032) (mid 2.032 1.5262) (end 2.54 2.032)
          (stroke (width 0) (type default))
          (fill (type none))
        )
        (arc (start 2.54 -2.032) (mid 2.032 -1.5262) (end 1.524 -2.032)
          (stroke (width 0) (type default))
          (fill (type none))
        )
      )
      (symbol "Filter_EMI_CommonMode_1_1"
        (pin passive line (at -5.08 2.54 0) (length 2.54)
          (name "1" (effects (font (size 1.27 1.27))))
          (number "1" (effects (font (size 1.27 1.27))))
        )
        (pin passive line (at 5.08 2.54 180) (length 2.54)
          (name "2" (effects (font (size 1.27 1.27))))
          (number "2" (effects (font (size 1.27 1.27))))
        )
        (pin passive line (at -5.08 -2.54 0) (length 2.54)
          (name "3" (effects (font (size 1.27 1.27))))
          (number "3" (effects (font (size 1.27 1.27))))
        )
        (pin passive line (at 5.08 -2.54 180) (length 2.54)
          (name "4" (effects (font (size 1.27 1.27))))
          (number "4" (effects (font (size 1.27 1.27))))
        )
      )
    )
    (symbol "Device:R" (pin_numbers hide) (pin_names (offset 0)) (in_bom yes) (on_board yes)
      (property "Reference" "R" (at 2.032 0 90)
        (effects (font (size 1.27 1.27)))
      )
      (property "Value" "R" (at 0 0 90)
        (effects (font (size 1.27 1.27)))
      )
      (property "Footprint" "" (at -1.778 0 90)
        (effects (font (size 1.27 1.27)) hide)
      )
      (property "Datasheet" "~" (at 0 0 0)
        (effects (font (size 1.27 1.27)) hide)
      )
      (property "ki_keywords" "R res resistor" (at 0 0 0)
        (effects (font (size 1.27 1.27)) hide)
      )
      (property "ki_description" "Resistor" (at 0 0 0)
        (effects (font (size 1.27 1.27)) hide)
      )
      (property "ki_fp_filters" "R_*" (at 0 0 0)
        (effects (font (size 1.27 1.27)) hide)
      )
      (symbol "R_0_1"
        (rectangle (start -1.016 -2.54) (end 1.016 2.54)
          (stroke (width 0.254) (type default))
          (fill (type none))
        )
      )
      (symbol "R_1_1"
        (pin passive line (at 0 3.81 270) (length 1.27)
          (name "~" (effects (font (size 1.27 1.27))))
          (number "1" (effects (font (size 1.27 1.27))))
        )
        (pin passive line (at 0 -3.81 90) (length 1.27)
          (name "~" (effects (font (size 1.27 1.27))))
          (number "2" (effects (font (size 1.27 1.27))))
        )
      )
    )
    (symbol "TC7USB42MU_1" (in_bom yes) (on_board yes)
      (property "Reference" "U" (at 0 8.89 0)
        (effects (font (size 1.27 1.27)))
      )
      (property "Value" "TC7USB42MU_1" (at 0 -8.89 0)
        (effects (font (size 1.27 1.27)))
      )
      (property "Footprint" "" (at 0 0 0)
        (effects (font (size 1.27 1.27)) hide)
      )
      (property "Datasheet" "https://toshiba.semicon-storage.com/info/TC7USB42MU_datasheet_en_20200616.pdf?did=13905&prodName=TC7USB42MU" (at 0 0 0)
        (effects (font (size 1.27 1.27)) hide)
      )
      (property "ki_keywords" "USB switch high-speed two-port multiplex mux" (at 0 0 0)
        (effects (font (size 1.27 1.27)) hide)
      )
      (property "ki_description" "USB 2.0 SPDT switch" (at 0 0 0)
        (effects (font (size 1.27 1.27)) hide)
      )
      (symbol "TC7USB42MU_1_0_1"
        (rectangle (start -5.08 7.62) (end 5.08 -7.62)
          (stroke (width 0.1524) (type default))
          (fill (type background))
        )
      )
      (symbol "TC7USB42MU_1_1_1"
        (pin bidirectional line (at -7.62 5.08 0) (length 2.54)
          (name "D+" (effects (font (size 1.27 1.27))))
          (number "1" (effects (font (size 1.27 1.27))))
        )
        (pin input line (at 7.62 5.08 180) (length 2.54)
          (name "S" (effects (font (size 1.27 1.27))))
          (number "10" (effects (font (size 1.27 1.27))))
        )
        (pin bidirectional line (at -7.62 2.54 0) (length 2.54)
          (name "D-" (effects (font (size 1.27 1.27))))
          (number "2" (effects (font (size 1.27 1.27))))
        )
        (pin power_in line (at -7.62 0 0) (length 2.54)
          (name "GND" (effects (font (size 1.27 1.27))))
          (number "3" (effects (font (size 1.27 1.27))))
        )
        (pin bidirectional line (at -7.62 -2.54 0) (length 2.54)
          (name "1D-" (effects (font (size 1.27 1.27))))
          (number "4" (effects (font (size 1.27 1.27))))
        )
        (pin bidirectional line (at -7.62 -5.08 0) (length 2.54)
          (name "1D+" (effects (font (size 1.27 1.27))))
          (number "5" (effects (font (size 1.27 1.27))))
        )
        (pin bidirectional line (at 7.62 -5.08 180) (length 2.54)
          (name "2D-" (effects (font (size 1.27 1.27))))
          (number "6" (effects (font (size 1.27 1.27))))
        )
        (pin bidirectional line (at 7.62 -2.54 180) (length 2.54)
          (name "2D+" (effects (font (size 1.27 1.27))))
          (number "7" (effects (font (size 1.27 1.27))))
        )
        (pin input line (at 7.62 0 180) (length 2.54)
          (name "~{OE}" (effects (font (size 1.27 1.27))))
          (number "8" (effects (font (size 1.27 1.27))))
        )
        (pin power_in line (at 7.62 2.54 180) (length 2.54)
          (name "VCC" (effects (font (size 1.27 1.27))))
          (number "9" (effects (font (size 1.27 1.27))))
        )
      )
    )
    (symbol "power:+3V3" (power) (pin_names (offset 0)) (in_bom yes) (on_board yes)
      (property "Reference" "#PWR" (at 0 -3.81 0)
        (effects (font (size 1.27 1.27)) hide)
      )
      (property "Value" "+3V3" (at 0 3.556 0)
        (effects (font (size 1.27 1.27)))
      )
      (property "Footprint" "" (at 0 0 0)
        (effects (font (size 1.27 1.27)) hide)
      )
      (property "Datasheet" "" (at 0 0 0)
        (effects (font (size 1.27 1.27)) hide)
      )
      (property "ki_keywords" "global power" (at 0 0 0)
        (effects (font (size 1.27 1.27)) hide)
      )
      (property "ki_description" "Power symbol creates a global label with name \"+3V3\"" (at 0 0 0)
        (effects (font (size 1.27 1.27)) hide)
      )
      (symbol "+3V3_0_1"
        (polyline
          (pts
            (xy -0.762 1.27)
            (xy 0 2.54)
          )
          (stroke (width 0) (type default))
          (fill (type none))
        )
        (polyline
          (pts
            (xy 0 0)
            (xy 0 2.54)
          )
          (stroke (width 0) (type default))
          (fill (type none))
        )
        (polyline
          (pts
            (xy 0 2.54)
            (xy 0.762 1.27)
          )
          (stroke (width 0) (type default))
          (fill (type none))
        )
      )
      (symbol "+3V3_1_1"
        (pin power_in line (at 0 0 90) (length 0) hide
          (name "+3V3" (effects (font (size 1.27 1.27))))
          (number "1" (effects (font (size 1.27 1.27))))
        )
      )
    )
    (symbol "power:GND" (power) (pin_names (offset 0)) (in_bom yes) (on_board yes)
      (property "Reference" "#PWR" (at 0 -6.35 0)
        (effects (font (size 1.27 1.27)) hide)
      )
      (property "Value" "GND" (at 0 -3.81 0)
        (effects (font (size 1.27 1.27)))
      )
      (property "Footprint" "" (at 0 0 0)
        (effects (font (size 1.27 1.27)) hide)
      )
      (property "Datasheet" "" (at 0 0 0)
        (effects (font (size 1.27 1.27)) hide)
      )
      (property "ki_keywords" "global power" (at 0 0 0)
        (effects (font (size 1.27 1.27)) hide)
      )
      (property "ki_description" "Power symbol creates a global label with name \"GND\" , ground" (at 0 0 0)
        (effects (font (size 1.27 1.27)) hide)
      )
      (symbol "GND_0_1"
        (polyline
          (pts
            (xy 0 0)
            (xy 0 -1.27)
            (xy 1.27 -1.27)
            (xy 0 -2.54)
            (xy -1.27 -1.27)
            (xy 0 -1.27)
          )
          (stroke (width 0) (type default))
          (fill (type none))
        )
      )
      (symbol "GND_1_1"
        (pin power_in line (at 0 0 270) (length 0) hide
          (name "GND" (effects (font (size 1.27 1.27))))
          (number "1" (effects (font (size 1.27 1.27))))
        )
      )
    )
  )

  (junction (at 158.75 80.01) (diameter 0) (color 0 0 0 0)
    (uuid 1f239562-b994-47f3-865f-52a3aa869f60)
  )
  (junction (at 208.28 123.19) (diameter 0) (color 0 0 0 0)
    (uuid 20522930-4d3e-44f8-adb5-bdda24b6dc68)
  )
  (junction (at 92.71 92.71) (diameter 0) (color 0 0 0 0)
    (uuid 2873aab8-a316-4343-9758-0748f9bc0c6d)
  )
  (junction (at 77.47 85.09) (diameter 0) (color 0 0 0 0)
    (uuid 29ccf050-697c-43cc-96c7-a36cb05ce453)
  )
  (junction (at 97.79 105.41) (diameter 0) (color 0 0 0 0)
    (uuid 3edb83ea-d26a-4a5b-b92f-9bfc6156c6f9)
  )
  (junction (at 109.22 92.71) (diameter 0) (color 0 0 0 0)
    (uuid 8868ec05-54e6-456f-a35d-dd4af76b5f04)
  )
  (junction (at 77.47 87.63) (diameter 0) (color 0 0 0 0)
    (uuid 88c9972c-79dc-4df9-8f73-14af499a516a)
  )
  (junction (at 85.09 54.61) (diameter 0) (color 0 0 0 0)
    (uuid 8c5223fc-1679-4a47-8a23-069f570f2e50)
  )
  (junction (at 92.71 105.41) (diameter 0) (color 0 0 0 0)
    (uuid 96095184-8e7a-49e3-a8de-40535c44bdb7)
  )
  (junction (at 171.45 74.93) (diameter 0) (color 0 0 0 0)
    (uuid bfc12f39-9280-409e-8f30-72d57387f39d)
  )
  (junction (at 231.14 72.39) (diameter 0) (color 0 0 0 0)
    (uuid c3f208ae-4eae-4893-840e-75e5c16af9e3)
  )
  (junction (at 158.75 83.82) (diameter 0) (color 0 0 0 0)
    (uuid d98fae5b-0e11-4f0a-8748-5754926f8606)
  )
  (junction (at 146.05 72.39) (diameter 0) (color 0 0 0 0)
    (uuid e9f15ca6-b82e-426c-b34e-5638c2f69af7)
  )
  (junction (at 109.22 105.41) (diameter 0) (color 0 0 0 0)
    (uuid f8652f14-83f9-4b43-9dd9-c004c706ca63)
  )
  (junction (at 77.47 54.61) (diameter 0) (color 0 0 0 0)
    (uuid fa36d071-12ed-4368-b03f-75baf082fd43)
  )

  (no_connect (at 74.93 100.33) (uuid 1ccc34ff-b2e0-461e-9152-b6feb8dd89a2))
  (no_connect (at 74.93 97.79) (uuid a0e344f2-e011-4eb6-99dd-089e78fec5a2))

  (wire (pts (xy 121.92 85.09) (xy 121.92 72.39))
    (stroke (width 0) (type default))
    (uuid 01dcad7d-917c-4545-b140-75ba5bb2def3)
  )
  (wire (pts (xy 77.47 69.85) (xy 74.93 69.85))
    (stroke (width 0) (type default))
    (uuid 04063174-7fc3-42bd-9e6d-2540db55876d)
  )
  (wire (pts (xy 77.47 54.61) (xy 77.47 69.85))
    (stroke (width 0) (type default))
    (uuid 0566f7b4-ae17-4a6d-8ace-d57569e67fda)
  )
  (wire (pts (xy 52.07 107.95) (xy 52.07 109.22))
    (stroke (width 0) (type default))
    (uuid 06c6d2c0-740c-47c4-9b48-b94dadc2caf1)
  )
  (wire (pts (xy 179.07 113.03) (xy 186.69 113.03))
    (stroke (width 0) (type default))
    (uuid 189dfd86-a473-4aac-bf2e-462b4d9ad549)
  )
  (wire (pts (xy 231.14 62.23) (xy 231.14 63.5))
    (stroke (width 0) (type default))
    (uuid 20e1caf8-30bf-4a65-bfce-d01122877593)
  )
  (wire (pts (xy 231.14 72.39) (xy 214.63 72.39))
    (stroke (width 0) (type default))
    (uuid 2a5f7b47-47cb-43a5-9cd9-7a5219f577ba)
  )
  (wire (pts (xy 214.63 77.47) (xy 215.9 77.47))
    (stroke (width 0) (type default))
    (uuid 2b0e74f4-96d0-4987-91a4-52e220da05fc)
  )
  (wire (pts (xy 74.93 77.47) (xy 109.22 77.47))
    (stroke (width 0) (type default))
    (uuid 32ec11e9-1c37-4482-a28a-1d63f1aa68a0)
  )
  (wire (pts (xy 114.3 105.41) (xy 109.22 105.41))
    (stroke (width 0) (type default))
    (uuid 362785eb-a9b8-416f-9a6e-2ca8e30a8951)
  )
  (wire (pts (xy 189.23 82.55) (xy 189.23 118.11))
    (stroke (width 0) (type default))
    (uuid 36dba69e-3950-4df4-8452-874b60d812c4)
  )
  (wire (pts (xy 161.29 118.11) (xy 168.91 118.11))
    (stroke (width 0) (type default))
    (uuid 3dfd7c85-6894-4d33-91d3-98f089532565)
  )
  (wire (pts (xy 92.71 95.25) (xy 92.71 92.71))
    (stroke (width 0) (type default))
    (uuid 3fba567e-229f-4ad6-b189-5ea039e0f838)
  )
  (wire (pts (xy 158.75 80.01) (xy 161.29 80.01))
    (stroke (width 0) (type default))
    (uuid 43c773b2-b7b2-4fbc-9111-aaee7adb217d)
  )
  (wire (pts (xy 208.28 123.19) (xy 208.28 124.46))
    (stroke (width 0) (type default))
    (uuid 4d354520-e337-4e20-88ca-dce03ebbfe71)
  )
  (wire (pts (xy 121.92 72.39) (xy 146.05 72.39))
    (stroke (width 0) (type default))
    (uuid 4fa349ee-cb14-4b17-a028-4504965b3d80)
  )
  (wire (pts (xy 109.22 77.47) (xy 109.22 92.71))
    (stroke (width 0) (type default))
    (uuid 510faa4e-2e17-4583-89b5-4502c7d50387)
  )
  (wire (pts (xy 97.79 102.87) (xy 97.79 105.41))
    (stroke (width 0) (type default))
    (uuid 51e9868b-6896-44b7-b83c-4606a1a71c19)
  )
  (wire (pts (xy 114.3 95.25) (xy 114.3 92.71))
    (stroke (width 0) (type default))
    (uuid 52a1e6d9-ca53-418b-a05d-bfc8475b4bb0)
  )
  (wire (pts (xy 158.75 83.82) (xy 156.21 83.82))
    (stroke (width 0) (type default))
    (uuid 553d916c-a1f4-420a-9c7d-32c7fa0e090b)
  )
  (wire (pts (xy 74.93 85.09) (xy 77.47 85.09))
    (stroke (width 0) (type default))
    (uuid 56053f96-1c2b-4193-b1dd-e9e689c3894b)
  )
  (wire (pts (xy 199.39 74.93) (xy 171.45 74.93))
    (stroke (width 0) (type default))
    (uuid 5a2e6ab0-4138-4ad2-8e02-5ef63a71610c)
  )
  (wire (pts (xy 158.75 83.82) (xy 158.75 85.09))
    (stroke (width 0) (type default))
    (uuid 6049668e-c799-4718-92da-a2b5e996748d)
  )
  (wire (pts (xy 189.23 118.11) (xy 179.07 118.11))
    (stroke (width 0) (type default))
    (uuid 61d91155-0e87-4849-9a72-a8b58972c50c)
  )
  (wire (pts (xy 76.2 54.61) (xy 77.47 54.61))
    (stroke (width 0) (type default))
    (uuid 620a3ba8-45b6-4ba5-b327-1df814f1bded)
  )
  (wire (pts (xy 259.08 81.28) (xy 259.08 82.55))
    (stroke (width 0) (type default))
    (uuid 62f9e58c-e836-471d-814b-b92e5bada566)
  )
  (bus (pts (xy 133.35 113.03) (xy 135.89 113.03))
    (stroke (width 0) (type default))
    (uuid 6b55c7e0-ed22-4cb2-b712-d56eb29af5b3)
  )

  (wire (pts (xy 171.45 80.01) (xy 168.91 80.01))
    (stroke (width 0) (type default))
    (uuid 717ffe00-70c3-414b-825a-784dc0d9bd45)
  )
  (wire (pts (xy 92.71 105.41) (xy 92.71 107.95))
    (stroke (width 0) (type default))
    (uuid 73327512-21e9-43c4-80ed-f8a849c3d033)
  )
  (wire (pts (xy 146.05 72.39) (xy 199.39 72.39))
    (stroke (width 0) (type default))
    (uuid 75ff5031-e801-4a9f-b330-8e800007e08a)
  )
  (wire (pts (xy 186.69 80.01) (xy 199.39 80.01))
    (stroke (width 0) (type default))
    (uuid 78b6443b-8089-4551-8791-88d71e0c92e5)
  )
  (wire (pts (xy 171.45 74.93) (xy 171.45 80.01))
    (stroke (width 0) (type default))
    (uuid 7aae1622-bc07-4977-8025-954d47f2f112)
  )
  (wire (pts (xy 85.09 64.77) (xy 85.09 63.5))
    (stroke (width 0) (type default))
    (uuid 7f184165-dc80-4942-9071-4c7ec893ab3b)
  )
  (wire (pts (xy 198.12 77.47) (xy 199.39 77.47))
    (stroke (width 0) (type default))
    (uuid 866e1f77-01c3-4d4f-9fe4-3245cb7f6c7f)
  )
  (wire (pts (xy 77.47 54.61) (xy 85.09 54.61))
    (stroke (width 0) (type default))
    (uuid 869799bd-970d-4ce4-908e-8d2ae7f3b5f4)
  )
  (wire (pts (xy 92.71 74.93) (xy 92.71 92.71))
    (stroke (width 0) (type default))
    (uuid 8f7a136d-7c4a-4349-ae83-868044ab77cb)
  )
  (wire (pts (xy 74.93 82.55) (xy 77.47 82.55))
    (stroke (width 0) (type default))
    (uuid 902c04f2-a420-4b1e-9295-63884f6876c4)
  )
  (wire (pts (xy 74.93 87.63) (xy 77.47 87.63))
    (stroke (width 0) (type default))
    (uuid 94f8fbb6-ba52-4e69-8dfb-1109da43ac53)
  )
  (wire (pts (xy 214.63 82.55) (xy 217.17 82.55))
    (stroke (width 0) (type default))
    (uuid 98e1ecb5-5873-439c-afe1-6318b08181e1)
  )
  (wire (pts (xy 259.08 72.39) (xy 259.08 73.66))
    (stroke (width 0) (type default))
    (uuid 9fb1fd49-28ae-4611-8ecd-e6d8d5422ec5)
  )
  (wire (pts (xy 121.92 85.09) (xy 77.47 85.09))
    (stroke (width 0) (type default))
    (uuid a0739927-bcf1-45d5-be86-d6d4a797f4df)
  )
  (wire (pts (xy 77.47 82.55) (xy 77.47 85.09))
    (stroke (width 0) (type default))
    (uuid a2232439-ae61-4e90-af28-bd9a94659442)
  )
  (wire (pts (xy 208.28 114.3) (xy 208.28 113.03))
    (stroke (width 0) (type default))
    (uuid a584ba5d-5726-44d6-939c-a8a34ac34bec)
  )
  (wire (pts (xy 97.79 95.25) (xy 97.79 92.71))
    (stroke (width 0) (type default))
    (uuid a6c568f2-a25b-4bc2-b918-89e2999a439d)
  )
  (wire (pts (xy 74.93 74.93) (xy 92.71 74.93))
    (stroke (width 0) (type default))
    (uuid a724e25b-07f8-4292-b401-ae88218917dd)
  )
  (wire (pts (xy 208.28 123.19) (xy 161.29 123.19))
    (stroke (width 0) (type default))
    (uuid abd113de-df7b-40d9-bbbe-3be2d5eaf81d)
  )
  (wire (pts (xy 208.28 121.92) (xy 208.28 123.19))
    (stroke (width 0) (type default))
    (uuid ad0e54b0-207c-4793-8534-1ecf1121a548)
  )
  (wire (pts (xy 77.47 87.63) (xy 77.47 90.17))
    (stroke (width 0) (type default))
    (uuid af2c39d3-4a95-45d3-ac0e-fa1762ff1020)
  )
  (wire (pts (xy 124.46 87.63) (xy 77.47 87.63))
    (stroke (width 0) (type default))
    (uuid b41fe818-9bc4-4eb4-9f42-c417f9e0559f)
  )
  (wire (pts (xy 92.71 102.87) (xy 92.71 105.41))
    (stroke (width 0) (type default))
    (uuid b5f120c5-e054-4cfe-867f-4f03a10c66ed)
  )
  (wire (pts (xy 189.23 82.55) (xy 199.39 82.55))
    (stroke (width 0) (type default))
    (uuid bae25c6b-a689-4285-b2c3-77a4d0d733bf)
  )
  (wire (pts (xy 124.46 74.93) (xy 124.46 87.63))
    (stroke (width 0) (type default))
    (uuid bd979880-ecae-4c3a-b081-4ba3a1066461)
  )
  (wire (pts (xy 97.79 105.41) (xy 109.22 105.41))
    (stroke (width 0) (type default))
    (uuid c4c39b0d-9b73-411a-82d2-b5f916612fa5)
  )
  (wire (pts (xy 156.21 80.01) (xy 158.75 80.01))
    (stroke (width 0) (type default))
    (uuid c66e53d8-8a32-4dbe-b982-6fa33f496f21)
  )
  (wire (pts (xy 59.69 107.95) (xy 59.69 109.22))
    (stroke (width 0) (type default))
    (uuid c71bace8-f215-4acd-b370-9b6f2f3f8276)
  )
  (wire (pts (xy 92.71 105.41) (xy 97.79 105.41))
    (stroke (width 0) (type default))
    (uuid c9010476-06b7-4fdd-b859-21ebbf930be8)
  )
  (wire (pts (xy 161.29 113.03) (xy 168.91 113.03))
    (stroke (width 0) (type default))
    (uuid c947ab9e-a541-426c-93a9-cbafa388c0b9)
  )
  (wire (pts (xy 114.3 92.71) (xy 109.22 92.71))
    (stroke (width 0) (type default))
    (uuid d06504d4-863a-4a19-b19b-4559611ae761)
  )
  (wire (pts (xy 215.9 74.93) (xy 214.63 74.93))
    (stroke (width 0) (type default))
    (uuid d3f55cd6-d09d-4e22-af43-007172c7066b)
  )
  (wire (pts (xy 158.75 92.71) (xy 158.75 93.98))
    (stroke (width 0) (type default))
    (uuid d4ac20d0-b3f4-4608-8fef-47bee6b62c2f)
  )
  (wire (pts (xy 114.3 102.87) (xy 114.3 105.41))
    (stroke (width 0) (type default))
    (uuid d576c0ad-ee53-46e2-9d2e-fea3cde82502)
  )
  (wire (pts (xy 92.71 92.71) (xy 97.79 92.71))
    (stroke (width 0) (type default))
    (uuid d6f21d00-ec24-4b0e-b047-67e68a94ce44)
  )
  (wire (pts (xy 146.05 72.39) (xy 146.05 80.01))
    (stroke (width 0) (type default))
    (uuid d6f8369f-f72a-4eb2-8df2-34e2754a3a5f)
  )
  (wire (pts (xy 85.09 53.34) (xy 85.09 54.61))
    (stroke (width 0) (type default))
    (uuid da81207f-4b22-4783-ae4d-51b17956c92b)
  )
  (wire (pts (xy 208.28 132.08) (xy 208.28 133.35))
    (stroke (width 0) (type default))
    (uuid dacafd51-8038-41a6-8f21-0a1a1eb07891)
  )
  (wire (pts (xy 231.14 72.39) (xy 233.68 72.39))
    (stroke (width 0) (type default))
    (uuid dc5c484d-70da-4bc5-9114-86d51f9f9aab)
  )
  (wire (pts (xy 146.05 80.01) (xy 148.59 80.01))
    (stroke (width 0) (type default))
    (uuid e0784aae-6917-409c-a7ed-5ea61a80a734)
  )
  (wire (pts (xy 109.22 105.41) (xy 109.22 102.87))
    (stroke (width 0) (type default))
    (uuid e2719cb1-7a1f-45bc-af92-8537d74fc787)
  )
  (wire (pts (xy 231.14 71.12) (xy 231.14 72.39))
    (stroke (width 0) (type default))
    (uuid e7bc5e83-ec48-472d-a95f-85f2e5e20228)
  )
  (wire (pts (xy 171.45 74.93) (xy 124.46 74.93))
    (stroke (width 0) (type default))
    (uuid ec2b4220-19d5-4407-9c43-321237c68da8)
  )
  (wire (pts (xy 109.22 95.25) (xy 109.22 92.71))
    (stroke (width 0) (type default))
    (uuid eeab87bb-11b6-41ed-b3f3-19704a02f277)
  )
  (wire (pts (xy 208.28 113.03) (xy 209.55 113.03))
    (stroke (width 0) (type default))
    (uuid f113f429-e293-46f0-a8f0-f893c7736fc7)
  )
  (wire (pts (xy 158.75 80.01) (xy 158.75 83.82))
    (stroke (width 0) (type default))
    (uuid f1746b0e-6674-43ce-8e35-5f100eedfdc4)
  )
  (wire (pts (xy 77.47 90.17) (xy 74.93 90.17))
    (stroke (width 0) (type default))
    (uuid f1c76082-6f87-4ad9-9f7d-6339e1444b3e)
  )
  (wire (pts (xy 217.17 80.01) (xy 214.63 80.01))
    (stroke (width 0) (type default))
    (uuid f90682cd-61f4-42b6-947d-2c8d8c73ad57)
  )
  (wire (pts (xy 186.69 80.01) (xy 186.69 113.03))
    (stroke (width 0) (type default))
    (uuid fd1f066f-39d6-48ba-b446-6edecd125792)
  )
  (wire (pts (xy 85.09 54.61) (xy 85.09 55.88))
    (stroke (width 0) (type default))
    (uuid ff2a813c-e8e3-41f9-bc55-62ac7feaa51a)
  )

  (text "USB switch controlled by \nmicrocontroller connects\nCONTROL port to either\nFPGA/PHY or microcontroller."
    (at 196.85 63.5 0)
    (effects (font (size 1.27 1.27)) (justify left bottom))
    (uuid 709a0d87-5b7e-44c5-ac20-98b09c06c30d)
  )
  (text "USB switch D+/D- connections\nswapped for routing convenience"
    (at 190.5 90.805 0)
    (effects (font (size 1.27 1.27)) (justify left bottom))
    (uuid 74b3c0b1-b862-4af7-a091-aa5426c40d15)
  )

  (label "CONTROL_D-" (at 179.07 72.39 0) (fields_autoplaced)
    (effects (font (size 1.27 1.27)) (justify left bottom))
    (uuid 1168adbd-1b67-4385-a841-0870d539cc02)
  )
  (label "CONTROL_CC1" (at 77.47 74.93 0) (fields_autoplaced)
    (effects (font (size 1.27 1.27)) (justify left bottom))
    (uuid bc1e946b-e5d4-4426-92c3-97f34751c172)
  )
  (label "CONTROL_D+" (at 179.07 74.93 0) (fields_autoplaced)
    (effects (font (size 1.27 1.27)) (justify left bottom))
    (uuid bcfbc0e7-dcb9-4008-ada0-64f007e1ceb2)
  )
  (label "CONTROL_CC2" (at 77.47 77.47 0) (fields_autoplaced)
    (effects (font (size 1.27 1.27)) (justify left bottom))
    (uuid d91a277e-9f04-468f-8390-f8de57358087)
  )

  (global_label "CONTROL_VBUS" (shape bidirectional) (at 76.2 54.61 180) (fields_autoplaced)
    (effects (font (size 1.27 1.27)) (justify right))
    (uuid 992024a5-e8d7-4eff-9054-2e87055e3503)
    (property "Intersheetrefs" "${INTERSHEET_REFS}" (at 58.5231 54.61 0)
      (effects (font (size 1.27 1.27)) (justify right) hide)
    )
  )
  (global_label "CONTROL_VBUS_IN" (shape input) (at 209.55 113.03 0) (fields_autoplaced)
    (effects (font (size 1.27 1.27)) (justify left))
    (uuid ac1ea4a6-0e1a-4d67-8548-f747dc3770bc)
    (property "Intersheetrefs" "${INTERSHEET_REFS}" (at 229.1704 112.9506 0)
      (effects (font (size 1.27 1.27)) (justify left) hide)
    )
  )

  (hierarchical_label "CONTROL_MCU_D+" (shape bidirectional) (at 217.17 82.55 0) (fields_autoplaced)
    (effects (font (size 1.27 1.27)) (justify left))
    (uuid 5c476ff8-8666-4861-b460-f3ccb35962c4)
  )
  (hierarchical_label "CONTROL_MCU_D-" (shape bidirectional) (at 217.17 80.01 0) (fields_autoplaced)
    (effects (font (size 1.27 1.27)) (justify left))
    (uuid 8485b6d7-9b8b-4e45-b0d1-724dbb85ce01)
  )
  (hierarchical_label "CONTROL_RESET_DETECT" (shape output) (at 156.21 83.82 180) (fields_autoplaced)
    (effects (font (size 1.27 1.27)) (justify right))
    (uuid 86eddb83-58c0-42ae-b313-46ee312bcd1c)
  )
  (hierarchical_label "CONTROL_PHY{ULPI}" (shape bidirectional) (at 133.35 113.03 180) (fields_autoplaced)
    (effects (font (size 1.27 1.27)) (justify right))
    (uuid 98875bb6-0d88-4a7c-8c00-29afe28cf21d)
  )
  (hierarchical_label "CONTROL_SWITCH" (shape input) (at 233.68 72.39 0) (fields_autoplaced)
    (effects (font (size 1.27 1.27)) (justify left))
    (uuid aafeb1d3-4998-498f-b092-896fb736ecfb)
  )

  (symbol (lib_id "power:+3V3") (at 259.08 72.39 0) (unit 1)
    (in_bom yes) (on_board yes) (dnp no)
    (uuid 00000000-0000-0000-0000-00005dd40800)
    (property "Reference" "#PWR067" (at 259.08 76.2 0)
      (effects (font (size 1.27 1.27)) hide)
    )
    (property "Value" "+3V3" (at 259.4356 67.9958 0)
      (effects (font (size 1.27 1.27)))
    )
    (property "Footprint" "" (at 259.08 72.39 0)
      (effects (font (size 1.27 1.27)) hide)
    )
    (property "Datasheet" "" (at 259.08 72.39 0)
      (effects (font (size 1.27 1.27)) hide)
    )
    (pin "1" (uuid c3cea557-c773-4acf-a4f4-0d64a06cbfd1))
    (instances
      (project "cynthion"
        (path "/fb621148-8145-4217-9712-738e1b5a4823/00000000-0000-0000-0000-00005dcd9772"
          (reference "#PWR067") (unit 1)
        )
      )
    )
  )

  (symbol (lib_id "power:GND") (at 259.08 82.55 0) (unit 1)
    (in_bom yes) (on_board yes) (dnp no)
    (uuid 00000000-0000-0000-0000-00005dd40c56)
    (property "Reference" "#PWR066" (at 259.08 88.9 0)
      (effects (font (size 1.27 1.27)) hide)
    )
    (property "Value" "GND" (at 259.1816 86.9188 0)
      (effects (font (size 1.27 1.27)))
    )
    (property "Footprint" "" (at 259.08 82.55 0)
      (effects (font (size 1.27 1.27)) hide)
    )
    (property "Datasheet" "" (at 259.08 82.55 0)
      (effects (font (size 1.27 1.27)) hide)
    )
    (pin "1" (uuid 8a08f519-2179-4e83-8728-764ae3d65075))
    (instances
      (project "cynthion"
        (path "/fb621148-8145-4217-9712-738e1b5a4823/00000000-0000-0000-0000-00005dcd9772"
          (reference "#PWR066") (unit 1)
        )
      )
    )
  )

  (symbol (lib_id "power:GND") (at 92.71 107.95 0) (unit 1)
    (in_bom yes) (on_board yes) (dnp no)
    (uuid 00000000-0000-0000-0000-000060506c97)
    (property "Reference" "#PWR010" (at 92.71 114.3 0)
      (effects (font (size 1.27 1.27)) hide)
    )
    (property "Value" "GND" (at 92.8116 112.3188 0)
      (effects (font (size 1.27 1.27)))
    )
    (property "Footprint" "" (at 92.71 107.95 0)
      (effects (font (size 1.27 1.27)) hide)
    )
    (property "Datasheet" "" (at 92.71 107.95 0)
      (effects (font (size 1.27 1.27)) hide)
    )
    (pin "1" (uuid 68821a91-2132-4e74-bda3-0db5b5db13f7))
    (instances
      (project "cynthion"
        (path "/fb621148-8145-4217-9712-738e1b5a4823/00000000-0000-0000-0000-00005dcd9772"
          (reference "#PWR010") (unit 1)
        )
      )
    )
  )

  (symbol (lib_id "Device:C") (at 114.3 99.06 0) (unit 1)
    (in_bom yes) (on_board yes) (dnp no)
    (uuid 00000000-0000-0000-0000-00006056f7fb)
    (property "Reference" "C47" (at 115.57 96.52 0)
      (effects (font (size 1.27 1.27)) (justify left))
    )
    (property "Value" "330pF" (at 115.57 101.6 0)
      (effects (font (size 1.27 1.27)) (justify left))
    )
    (property "Footprint" "Capacitor_SMD:C_0402_1005Metric" (at 115.2652 102.87 0)
      (effects (font (size 1.27 1.27)) hide)
    )
    (property "Datasheet" "~" (at 114.3 99.06 0)
      (effects (font (size 1.27 1.27)) hide)
    )
    (property "Part Number" "CL05C331JB5NNNC" (at 114.3 99.06 0)
      (effects (font (size 1.27 1.27)) hide)
    )
    (property "Substitution" "any equivalent" (at 114.3 99.06 0)
      (effects (font (size 1.27 1.27)) hide)
    )
    (property "Description" "CAP CER 330PF 50V C0G/NP0 0402" (at 114.3 99.06 0)
      (effects (font (size 1.27 1.27)) hide)
    )
    (property "Manufacturer" "Samsung" (at 114.3 99.06 0)
      (effects (font (size 1.27 1.27)) hide)
    )
    (pin "1" (uuid 2b0febd2-fcbf-44c8-8c67-04ad22c004c5))
    (pin "2" (uuid dec119b6-8fc2-47a5-a632-289a47d1cf8a))
    (instances
      (project "cynthion"
        (path "/fb621148-8145-4217-9712-738e1b5a4823/00000000-0000-0000-0000-00005dcd9772"
          (reference "C47") (unit 1)
        )
      )
    )
  )

  (symbol (lib_id "Device:C") (at 97.79 99.06 0) (unit 1)
    (in_bom yes) (on_board yes) (dnp no)
    (uuid 00000000-0000-0000-0000-0000605e8dfe)
    (property "Reference" "C25" (at 99.06 96.52 0)
      (effects (font (size 1.27 1.27)) (justify left))
    )
    (property "Value" "330pF" (at 99.06 101.6 0)
      (effects (font (size 1.27 1.27)) (justify left))
    )
    (property "Footprint" "Capacitor_SMD:C_0402_1005Metric" (at 98.7552 102.87 0)
      (effects (font (size 1.27 1.27)) hide)
    )
    (property "Datasheet" "~" (at 97.79 99.06 0)
      (effects (font (size 1.27 1.27)) hide)
    )
    (property "Part Number" "CL05C331JB5NNNC" (at 97.79 99.06 0)
      (effects (font (size 1.27 1.27)) hide)
    )
    (property "Substitution" "any equivalent" (at 97.79 99.06 0)
      (effects (font (size 1.27 1.27)) hide)
    )
    (property "Description" "CAP CER 330PF 50V C0G/NP0 0402" (at 97.79 99.06 0)
      (effects (font (size 1.27 1.27)) hide)
    )
    (property "Manufacturer" "Samsung" (at 97.79 99.06 0)
      (effects (font (size 1.27 1.27)) hide)
    )
    (pin "1" (uuid f59c6045-bb13-4861-a02a-3402f00c795e))
    (pin "2" (uuid 967915a2-c16c-45a9-8ac4-f8bcedd7eae9))
    (instances
      (project "cynthion"
        (path "/fb621148-8145-4217-9712-738e1b5a4823/00000000-0000-0000-0000-00005dcd9772"
          (reference "C25") (unit 1)
        )
      )
    )
  )

  (symbol (lib_id "Device:R") (at 92.71 99.06 0) (mirror x) (unit 1)
    (in_bom yes) (on_board yes) (dnp no)
    (uuid 00000000-0000-0000-0000-000060996f81)
    (property "Reference" "R34" (at 92.71 99.06 90)
      (effects (font (size 1.27 1.27)))
    )
    (property "Value" "5.1k" (at 90.17 99.06 90)
      (effects (font (size 1.27 1.27)))
    )
    (property "Footprint" "Resistor_SMD:R_0402_1005Metric" (at 90.932 99.06 90)
      (effects (font (size 1.27 1.27)) hide)
    )
    (property "Datasheet" "~" (at 92.71 99.06 0)
      (effects (font (size 1.27 1.27)) hide)
    )
    (property "Part Number" "RC0402JR-075K1L" (at 92.71 99.06 0)
      (effects (font (size 1.27 1.27)) hide)
    )
    (property "Substitution" "any equivalent" (at 92.71 99.06 0)
      (effects (font (size 1.27 1.27)) hide)
    )
    (property "Description" "RES 5.1K OHM 5% 1/16W 0402" (at 92.71 99.06 0)
      (effects (font (size 1.27 1.27)) hide)
    )
    (property "Manufacturer" "Yageo" (at 92.71 99.06 0)
      (effects (font (size 1.27 1.27)) hide)
    )
    (pin "1" (uuid c8aab327-015a-4323-a5b5-2b9cd05c4549))
    (pin "2" (uuid db7e78f4-88b5-4e1c-bdb2-62889a73dcea))
    (instances
      (project "cynthion"
        (path "/fb621148-8145-4217-9712-738e1b5a4823/00000000-0000-0000-0000-00005dcd9772"
          (reference "R34") (unit 1)
        )
      )
    )
  )

  (symbol (lib_id "Device:R") (at 109.22 99.06 0) (mirror x) (unit 1)
    (in_bom yes) (on_board yes) (dnp no)
    (uuid 00000000-0000-0000-0000-000060996f8e)
    (property "Reference" "R35" (at 109.22 99.06 90)
      (effects (font (size 1.27 1.27)))
    )
    (property "Value" "5.1k" (at 106.68 99.06 90)
      (effects (font (size 1.27 1.27)))
    )
    (property "Footprint" "Resistor_SMD:R_0402_1005Metric" (at 107.442 99.06 90)
      (effects (font (size 1.27 1.27)) hide)
    )
    (property "Datasheet" "~" (at 109.22 99.06 0)
      (effects (font (size 1.27 1.27)) hide)
    )
    (property "Part Number" "RC0402JR-075K1L" (at 109.22 99.06 0)
      (effects (font (size 1.27 1.27)) hide)
    )
    (property "Substitution" "any equivalent" (at 109.22 99.06 0)
      (effects (font (size 1.27 1.27)) hide)
    )
    (property "Description" "RES 5.1K OHM 5% 1/16W 0402" (at 109.22 99.06 0)
      (effects (font (size 1.27 1.27)) hide)
    )
    (property "Manufacturer" "Yageo" (at 109.22 99.06 0)
      (effects (font (size 1.27 1.27)) hide)
    )
    (pin "1" (uuid 9634eff8-c57e-4fad-ab98-1732a4e89b7c))
    (pin "2" (uuid db565d92-7bab-4fc2-b85d-baf343c9eb2b))
    (instances
      (project "cynthion"
        (path "/fb621148-8145-4217-9712-738e1b5a4823/00000000-0000-0000-0000-00005dcd9772"
          (reference "R35") (unit 1)
        )
      )
    )
  )

  (symbol (lib_id "power:GND") (at 52.07 109.22 0) (unit 1)
    (in_bom yes) (on_board yes) (dnp no) (fields_autoplaced)
    (uuid 1b2c24f6-8ca1-4704-b05d-6866ffd81045)
    (property "Reference" "#PWR0104" (at 52.07 115.57 0)
      (effects (font (size 1.27 1.27)) hide)
    )
    (property "Value" "GND" (at 52.07 113.6634 0)
      (effects (font (size 1.27 1.27)))
    )
    (property "Footprint" "" (at 52.07 109.22 0)
      (effects (font (size 1.27 1.27)) hide)
    )
    (property "Datasheet" "" (at 52.07 109.22 0)
      (effects (font (size 1.27 1.27)) hide)
    )
    (pin "1" (uuid 7bdf6e6d-b30d-4cd4-a12a-2d4cf3f62e71))
    (instances
      (project "cynthion"
        (path "/fb621148-8145-4217-9712-738e1b5a4823/00000000-0000-0000-0000-00005dcd9772"
          (reference "#PWR0104") (unit 1)
        )
      )
    )
  )

  (symbol (lib_id "power:+3V3") (at 231.14 62.23 0) (unit 1)
    (in_bom yes) (on_board yes) (dnp no)
    (uuid 21a4bd80-9aec-4784-9458-55a4b4943a8c)
    (property "Reference" "#PWR0149" (at 231.14 66.04 0)
      (effects (font (size 1.27 1.27)) hide)
    )
    (property "Value" "+3V3" (at 231.4956 57.8358 0)
      (effects (font (size 1.27 1.27)))
    )
    (property "Footprint" "" (at 231.14 62.23 0)
      (effects (font (size 1.27 1.27)) hide)
    )
    (property "Datasheet" "" (at 231.14 62.23 0)
      (effects (font (size 1.27 1.27)) hide)
    )
    (pin "1" (uuid 4d49de4a-104e-4916-8c9f-1f27cb00e18c))
    (instances
      (project "cynthion"
        (path "/fb621148-8145-4217-9712-738e1b5a4823/00000000-0000-0000-0000-00005dcd9772"
          (reference "#PWR0149") (unit 1)
        )
      )
    )
  )

  (symbol (lib_id "power:GND") (at 158.75 93.98 0) (unit 1)
    (in_bom yes) (on_board yes) (dnp no)
    (uuid 251bbfc9-24f8-4091-b917-4e5522e9b66a)
    (property "Reference" "#PWR0150" (at 158.75 100.33 0)
      (effects (font (size 1.27 1.27)) hide)
    )
    (property "Value" "GND" (at 158.75 99.06 0)
      (effects (font (size 1.27 1.27)))
    )
    (property "Footprint" "" (at 158.75 93.98 0)
      (effects (font (size 1.27 1.27)) hide)
    )
    (property "Datasheet" "" (at 158.75 93.98 0)
      (effects (font (size 1.27 1.27)) hide)
    )
    (pin "1" (uuid 2e609541-fcab-4d7f-94f1-778368daff04))
    (instances
      (project "cynthion"
        (path "/fb621148-8145-4217-9712-738e1b5a4823/00000000-0000-0000-0000-00005dcd9772"
          (reference "#PWR0150") (unit 1)
        )
      )
    )
  )

  (symbol (lib_id "Device:C") (at 158.75 88.9 0) (unit 1)
    (in_bom yes) (on_board yes) (dnp no)
    (uuid 2541059f-6ecc-4d34-bcb0-d1076a97e014)
    (property "Reference" "C62" (at 161.671 87.757 0)
      (effects (font (size 1.27 1.27)) (justify left))
    )
    (property "Value" "1nF" (at 161.671 90.043 0)
      (effects (font (size 1.27 1.27)) (justify left))
    )
    (property "Footprint" "Capacitor_SMD:C_0402_1005Metric" (at 159.7152 92.71 0)
      (effects (font (size 1.27 1.27)) hide)
    )
    (property "Datasheet" "~" (at 158.75 88.9 0)
      (effects (font (size 1.27 1.27)) hide)
    )
    (property "Part Number" "CL05B102KB5NNNC" (at 158.75 88.9 0)
      (effects (font (size 1.27 1.27)) hide)
    )
    (property "Substitution" "any equivalent" (at 158.75 88.9 0)
      (effects (font (size 1.27 1.27)) hide)
    )
    (property "Description" "CAP CER 1000PF 50V X7R 0402" (at 158.75 88.9 0)
      (effects (font (size 1.27 1.27)) hide)
    )
    (property "Manufacturer" "Samsung" (at 158.75 88.9 0)
      (effects (font (size 1.27 1.27)) hide)
    )
    (pin "1" (uuid 6ea907ee-42f5-4866-86f9-c6e0b9573930))
    (pin "2" (uuid 11b6fb3a-ecaf-4ec8-b7b2-f9dfdef97740))
    (instances
      (project "cynthion"
        (path "/fb621148-8145-4217-9712-738e1b5a4823/00000000-0000-0000-0000-00005dcd9772"
          (reference "C62") (unit 1)
        )
      )
    )
  )

  (symbol (lib_id "Device:D_Zener") (at 85.09 59.69 90) (mirror x) (unit 1)
    (in_bom yes) (on_board yes) (dnp no) (fields_autoplaced)
    (uuid 3a61aedc-efb2-4ef0-91bc-a64a38e0010f)
    (property "Reference" "D23" (at 83.058 58.8553 90)
      (effects (font (size 1.27 1.27)) (justify left))
    )
    (property "Value" "TVS" (at 83.058 61.3922 90)
      (effects (font (size 1.27 1.27)) (justify left))
    )
    (property "Footprint" "cynthion:DFN1006-2" (at 85.09 59.69 0)
      (effects (font (size 1.27 1.27)) hide)
    )
    (property "Datasheet" "https://assets.nexperia.com/documents/data-sheet/PESDXS1UL_SER.pdf" (at 85.09 59.69 0)
      (effects (font (size 1.27 1.27)) hide)
    )
    (property "Manufacturer" "Nexperia" (at 85.09 59.69 90)
      (effects (font (size 1.27 1.27)) hide)
    )
    (property "Part Number" "PESD36VS1UL,315" (at 85.09 59.69 90)
      (effects (font (size 1.27 1.27)) hide)
    )
    (property "Description" "TVS DIODE 36VWM 80VC DFN1006-2" (at 85.09 59.69 0)
      (effects (font (size 1.27 1.27)) hide)
    )
    (pin "1" (uuid 475ee443-d439-4a2c-a800-d6e0d77266e8))
    (pin "2" (uuid faf1ace3-60d9-41c0-8ca3-f69ae7f4348e))
    (instances
      (project "cynthion"
        (path "/fb621148-8145-4217-9712-738e1b5a4823/00000000-0000-0000-0000-00005dcd9772"
          (reference "D23") (unit 1)
        )
      )
    )
  )

  (symbol (lib_name "TC7USB42MU_1") (lib_id "usb:TC7USB42MU") (at 207.01 77.47 0) (unit 1)
    (in_bom yes) (on_board yes) (dnp no) (fields_autoplaced)
    (uuid 6ae57af2-6a0c-4470-9ac8-636dffc640e5)
    (property "Reference" "U16" (at 207.01 66.201 0)
      (effects (font (size 1.27 1.27)))
    )
    (property "Value" "PI3USB102G" (at 207.01 68.7379 0)
      (effects (font (size 1.27 1.27)))
    )
    (property "Footprint" "cynthion:Diodes_10-TQFN_ZL" (at 207.01 77.47 0)
      (effects (font (size 1.27 1.27)) hide)
    )
    (property "Datasheet" "https://www.diodes.com/assets/Datasheets/PI3USB102G.pdf" (at 207.01 77.47 0)
      (effects (font (size 1.27 1.27)) hide)
    )
    (property "Manufacturer" "Diodes Inc." (at 207.01 77.47 0)
      (effects (font (size 1.27 1.27)) hide)
    )
    (property "Part Number" "PI3USB102GZLEX" (at 207.01 77.47 0)
      (effects (font (size 1.27 1.27)) hide)
    )
    (property "Description" "IC USB 2.0 SWITCH 2:1 10TQFN" (at 207.01 77.47 0)
      (effects (font (size 1.27 1.27)) hide)
    )
    (pin "1" (uuid 1800deb9-48ca-437d-8bd4-64e1022f4f43))
    (pin "10" (uuid 1aec67e1-ae01-40af-8855-c30b23ef0d72))
    (pin "2" (uuid 300de3d0-4054-425e-a2de-ca3bc621b59c))
    (pin "3" (uuid bb534f83-1e9c-4499-9e55-c434a95cb0d5))
    (pin "4" (uuid ae0d7b45-0268-4af5-a3bc-c2907a6e9ab1))
    (pin "5" (uuid 7b8718e5-f4e5-46aa-8653-4124f434df14))
    (pin "6" (uuid f420ed32-05c6-48c5-8e7b-215529f1a18c))
    (pin "7" (uuid 1e028d42-0191-4c29-9ab0-6bdcf2d09bac))
    (pin "8" (uuid 58697745-57a2-4081-8327-a8174e7c3530))
    (pin "9" (uuid 8c404bb7-38d5-43dc-85dd-09b7f1697fbd))
    (instances
      (project "cynthion"
        (path "/fb621148-8145-4217-9712-738e1b5a4823/00000000-0000-0000-0000-00005dcd9772"
          (reference "U16") (unit 1)
        )
      )
    )
  )

  (symbol (lib_id "power:+3V3") (at 215.9 74.93 270) (unit 1)
    (in_bom yes) (on_board yes) (dnp no)
    (uuid 7fd88754-b65b-49a1-ab56-68e8b842d2e9)
    (property "Reference" "#PWR0146" (at 212.09 74.93 0)
      (effects (font (size 1.27 1.27)) hide)
    )
    (property "Value" "+3V3" (at 219.075 74.93 90)
      (effects (font (size 1.27 1.27)) (justify left))
    )
    (property "Footprint" "" (at 215.9 74.93 0)
      (effects (font (size 1.27 1.27)) hide)
    )
    (property "Datasheet" "" (at 215.9 74.93 0)
      (effects (font (size 1.27 1.27)) hide)
    )
    (pin "1" (uuid 5e50837c-c211-4ba6-81df-16e5a04828e2))
    (instances
      (project "cynthion"
        (path "/fb621148-8145-4217-9712-738e1b5a4823/00000000-0000-0000-0000-00005dcd9772"
          (reference "#PWR0146") (unit 1)
        )
      )
    )
  )

  (symbol (lib_id "power:GND") (at 215.9 77.47 90) (unit 1)
    (in_bom yes) (on_board yes) (dnp no)
    (uuid 90521a20-f9b5-465e-9672-b1dda7cbb168)
    (property "Reference" "#PWR0148" (at 222.25 77.47 0)
      (effects (font (size 1.27 1.27)) hide)
    )
    (property "Value" "GND" (at 219.075 77.47 90)
      (effects (font (size 1.27 1.27)) (justify right))
    )
    (property "Footprint" "" (at 215.9 77.47 0)
      (effects (font (size 1.27 1.27)) hide)
    )
    (property "Datasheet" "" (at 215.9 77.47 0)
      (effects (font (size 1.27 1.27)) hide)
    )
    (pin "1" (uuid be26ba7a-7dc0-4387-a2a6-60307301e004))
    (instances
      (project "cynthion"
        (path "/fb621148-8145-4217-9712-738e1b5a4823/00000000-0000-0000-0000-00005dcd9772"
          (reference "#PWR0148") (unit 1)
        )
      )
    )
  )

  (symbol (lib_id "Device:R") (at 231.14 67.31 0) (unit 1)
    (in_bom yes) (on_board yes) (dnp no)
    (uuid 90909a96-d582-4691-a677-d02e10244107)
    (property "Reference" "R15" (at 232.918 66.167 0)
      (effects (font (size 1.27 1.27)) (justify left))
    )
    (property "Value" "10k" (at 231.14 68.58 90)
      (effects (font (size 1.27 1.27)) (justify left))
    )
    (property "Footprint" "Resistor_SMD:R_0402_1005Metric" (at 229.362 67.31 90)
      (effects (font (size 1.27 1.27)) hide)
    )
    (property "Datasheet" "~" (at 231.14 67.31 0)
      (effects (font (size 1.27 1.27)) hide)
    )
    (property "Part Number" "RC0402JR-0710KL" (at 231.14 67.31 0)
      (effects (font (size 1.27 1.27)) hide)
    )
    (property "Substitution" "any equivalent" (at 231.14 67.31 0)
      (effects (font (size 1.27 1.27)) hide)
    )
    (property "Description" "RES 10K OHM 5% 1/16W 0402" (at 231.14 67.31 0)
      (effects (font (size 1.27 1.27)) hide)
    )
    (property "Manufacturer" "Yageo" (at 231.14 67.31 0)
      (effects (font (size 1.27 1.27)) hide)
    )
    (pin "1" (uuid e9160e98-3c94-4bef-a1e8-edc43f7960c8))
    (pin "2" (uuid 1d33b12c-54f8-4e94-81a8-132bcff0ff7d))
    (instances
      (project "cynthion"
        (path "/fb621148-8145-4217-9712-738e1b5a4823/00000000-0000-0000-0000-00005dcd9772"
          (reference "R15") (unit 1)
        )
      )
    )
  )

  (symbol (lib_id "Device:R") (at 165.1 80.01 90) (unit 1)
    (in_bom yes) (on_board yes) (dnp no)
    (uuid 90d75b22-5169-46ee-8b92-d31d7ea1649f)
    (property "Reference" "R56" (at 165.1 77.47 90)
      (effects (font (size 1.27 1.27)))
    )
    (property "Value" "820k" (at 165.1 80.01 90)
      (effects (font (size 1.27 1.27)))
    )
    (property "Footprint" "Resistor_SMD:R_0402_1005Metric" (at 165.1 81.788 90)
      (effects (font (size 1.27 1.27)) hide)
    )
    (property "Datasheet" "~" (at 165.1 80.01 0)
      (effects (font (size 1.27 1.27)) hide)
    )
    (property "Part Number" "RC0402JR-07820KL" (at 165.1 80.01 0)
      (effects (font (size 1.27 1.27)) hide)
    )
    (property "Substitution" "any equivalent" (at 165.1 80.01 0)
      (effects (font (size 1.27 1.27)) hide)
    )
    (property "Description" "RES 820K OHM 5% 1/16W 0402" (at 165.1 80.01 0)
      (effects (font (size 1.27 1.27)) hide)
    )
    (property "Manufacturer" "Yageo" (at 165.1 80.01 0)
      (effects (font (size 1.27 1.27)) hide)
    )
    (pin "1" (uuid 00757bc2-cef6-4dd0-a047-011be4183b41))
    (pin "2" (uuid ba1678da-55d1-4ed5-b48b-7cf1784ecfde))
    (instances
      (project "cynthion"
        (path "/fb621148-8145-4217-9712-738e1b5a4823/00000000-0000-0000-0000-00005dcd9772"
          (reference "R56") (unit 1)
        )
      )
    )
  )

  (symbol (lib_id "power:GND") (at 59.69 109.22 0) (unit 1)
    (in_bom yes) (on_board yes) (dnp no) (fields_autoplaced)
    (uuid 922d98ea-fcab-40ad-a26b-25a60e05e84c)
    (property "Reference" "#PWR0230" (at 59.69 115.57 0)
      (effects (font (size 1.27 1.27)) hide)
    )
    (property "Value" "GND" (at 59.69 113.6634 0)
      (effects (font (size 1.27 1.27)))
    )
    (property "Footprint" "" (at 59.69 109.22 0)
      (effects (font (size 1.27 1.27)) hide)
    )
    (property "Datasheet" "" (at 59.69 109.22 0)
      (effects (font (size 1.27 1.27)) hide)
    )
    (pin "1" (uuid 42e17ef0-6cb1-416c-be14-24cf99481702))
    (instances
      (project "cynthion"
        (path "/fb621148-8145-4217-9712-738e1b5a4823/00000000-0000-0000-0000-00005dcd9772"
          (reference "#PWR0230") (unit 1)
        )
      )
    )
  )

  (symbol (lib_id "Device:R") (at 208.28 118.11 0) (mirror x) (unit 1)
    (in_bom yes) (on_board yes) (dnp no)
    (uuid 995f6c3c-0494-4b06-87ef-c61dbbf73b69)
    (property "Reference" "R46" (at 208.28 118.11 90)
      (effects (font (size 1.27 1.27)))
    )
    (property "Value" "5.1k" (at 205.74 118.11 90)
      (effects (font (size 1.27 1.27)))
    )
    (property "Footprint" "Resistor_SMD:R_0402_1005Metric" (at 206.502 118.11 90)
      (effects (font (size 1.27 1.27)) hide)
    )
    (property "Datasheet" "~" (at 208.28 118.11 0)
      (effects (font (size 1.27 1.27)) hide)
    )
    (property "Part Number" "RC0402JR-075K1L" (at 208.28 118.11 0)
      (effects (font (size 1.27 1.27)) hide)
    )
    (property "Substitution" "any equivalent" (at 208.28 118.11 0)
      (effects (font (size 1.27 1.27)) hide)
    )
    (property "Description" "RES 5.1K OHM 5% 1/16W 0402" (at 208.28 118.11 0)
      (effects (font (size 1.27 1.27)) hide)
    )
    (property "Manufacturer" "Yageo" (at 208.28 118.11 0)
      (effects (font (size 1.27 1.27)) hide)
    )
    (pin "1" (uuid bcf783ab-46a5-44c0-ae89-2887da0deb35))
    (pin "2" (uuid c1c9cc92-e614-4f51-81fe-e0c66282c80f))
    (instances
      (project "cynthion"
        (path "/fb621148-8145-4217-9712-738e1b5a4823/00000000-0000-0000-0000-00005dcd9772"
          (reference "R46") (unit 1)
        )
      )
    )
  )

  (symbol (lib_id "Connector:USB_C_Receptacle_USB2.0") (at 59.69 85.09 0) (unit 1)
    (in_bom yes) (on_board yes) (dnp no)
    (uuid a6d4f117-f48a-407a-b27a-5da640659b7e)
    (property "Reference" "J2" (at 60.96 62.23 0)
      (effects (font (size 1.27 1.27)))
    )
    (property "Value" "USB_C" (at 59.69 64.77 0)
      (effects (font (size 1.27 1.27)))
    )
    (property "Footprint" "cynthion:USB_C_Receptacle_HRO_TYPE-C-31-M-12" (at 63.5 85.09 0)
      (effects (font (size 1.27 1.27)) hide)
    )
    (property "Datasheet" "" (at 63.5 85.09 0)
      (effects (font (size 1.27 1.27)) hide)
    )
    (property "Description" "CONN RCPT USB2.0 TYPE-C 16POS" (at 59.69 85.09 0)
      (effects (font (size 1.27 1.27)) hide)
    )
    (property "Manufacturer" "DEALON" (at 59.69 85.09 0)
      (effects (font (size 1.27 1.27)) hide)
    )
    (property "Part Number" "USB-TYPE-C-019" (at 59.69 85.09 0)
      (effects (font (size 1.27 1.27)) hide)
    )
    (property "Substitution" "Yuandi TYPE-611A-T3" (at 59.69 85.09 0)
      (effects (font (size 1.27 1.27)) hide)
    )
    (pin "A1" (uuid 4fe8ab5b-9bf8-4afb-be58-adce1792fc24))
    (pin "A12" (uuid e3055b16-e70b-4806-a796-23869b9aa0e4))
    (pin "A4" (uuid 4d8cff60-1563-4aa7-bb18-b551a01c432e))
    (pin "A5" (uuid bb87d8de-b7d1-4fc7-9e49-e2bda8357d76))
    (pin "A6" (uuid 53f6102a-a3ee-4635-8cc8-62a0cfb61849))
    (pin "A7" (uuid 2fbb3e2c-be1a-4b0f-9cf1-a8adc126d915))
    (pin "A8" (uuid faf3f5de-5165-446c-9d00-0250527d8ddf))
    (pin "A9" (uuid 9e5397e9-0f8e-4dac-a0d2-e690bad0a6b1))
    (pin "B1" (uuid 8b27abec-32e3-4fa2-8228-a2a3de97d8b4))
    (pin "B12" (uuid d87ef0ba-0439-4838-b311-882830ea6b8c))
    (pin "B4" (uuid 038310c8-e88e-4b0e-a417-3df47d873ac9))
    (pin "B5" (uuid 767289f5-025e-4d3d-8da1-112b2bb5de45))
    (pin "B6" (uuid 70cb7269-97a5-4f17-9967-a73a946f9fa0))
    (pin "B7" (uuid 15471a6c-17b3-4c16-b8b1-fa5ed5dcc548))
    (pin "B8" (uuid 5d7cc401-9d58-492a-bed4-65ff7bca291e))
    (pin "B9" (uuid 19f900c6-12d8-413e-a59e-4c3b45b71b6c))
    (pin "S1" (uuid 5a2f54c1-a17c-47c9-ab18-50d032d6bfe0))
    (instances
      (project "cynthion"
        (path "/fb621148-8145-4217-9712-738e1b5a4823/00000000-0000-0000-0000-00005dcd9772"
          (reference "J2") (unit 1)
        )
      )
    )
  )

  (symbol (lib_id "power:GND") (at 198.12 77.47 270) (unit 1)
    (in_bom yes) (on_board yes) (dnp no)
    (uuid a8df9fbf-d613-4892-bc3a-4653e9e7edd1)
    (property "Reference" "#PWR0147" (at 191.77 77.47 0)
      (effects (font (size 1.27 1.27)) hide)
    )
    (property "Value" "GND" (at 193.04 77.47 90)
      (effects (font (size 1.27 1.27)))
    )
    (property "Footprint" "" (at 198.12 77.47 0)
      (effects (font (size 1.27 1.27)) hide)
    )
    (property "Datasheet" "" (at 198.12 77.47 0)
      (effects (font (size 1.27 1.27)) hide)
    )
    (pin "1" (uuid e1d6ce7c-6391-4cfe-ab95-d4b9cf3b5c66))
    (instances
      (project "cynthion"
        (path "/fb621148-8145-4217-9712-738e1b5a4823/00000000-0000-0000-0000-00005dcd9772"
          (reference "#PWR0147") (unit 1)
        )
      )
    )
  )

  (symbol (lib_id "Connector:TestPoint") (at 85.09 53.34 0) (unit 1)
    (in_bom no) (on_board yes) (dnp no)
    (uuid ba12d243-f641-4e5f-ad81-6d2c65a7da78)
    (property "Reference" "TP16" (at 83.947 48.5902 90)
      (effects (font (size 1.27 1.27)) (justify left))
    )
    (property "Value" "TestPoint" (at 86.233 48.5902 90)
      (effects (font (size 1.27 1.27)) (justify left))
    )
    (property "Footprint" "TestPoint:TestPoint_Pad_D1.0mm" (at 90.17 53.34 0)
      (effects (font (size 1.27 1.27)) hide)
    )
    (property "Datasheet" "~" (at 90.17 53.34 0)
      (effects (font (size 1.27 1.27)) hide)
    )
    (pin "1" (uuid af904f36-31e2-4ddb-9e66-986c0632714f))
    (instances
      (project "cynthion"
        (path "/fb621148-8145-4217-9712-738e1b5a4823/00000000-0000-0000-0000-00005dcd9772"
          (reference "TP16") (unit 1)
        )
      )
    )
  )

  (symbol (lib_id "Device:R") (at 152.4 80.01 90) (unit 1)
    (in_bom yes) (on_board yes) (dnp no)
    (uuid c0c860e6-ffdb-416f-817e-312c446bb64d)
    (property "Reference" "R55" (at 152.4 77.47 90)
      (effects (font (size 1.27 1.27)))
    )
    (property "Value" "820k" (at 152.4 80.01 90)
      (effects (font (size 1.27 1.27)))
    )
    (property "Footprint" "Resistor_SMD:R_0402_1005Metric" (at 152.4 81.788 90)
      (effects (font (size 1.27 1.27)) hide)
    )
    (property "Datasheet" "~" (at 152.4 80.01 0)
      (effects (font (size 1.27 1.27)) hide)
    )
    (property "Part Number" "RC0402JR-07820KL" (at 152.4 80.01 0)
      (effects (font (size 1.27 1.27)) hide)
    )
    (property "Substitution" "any equivalent" (at 152.4 80.01 0)
      (effects (font (size 1.27 1.27)) hide)
    )
    (property "Description" "RES 820K OHM 5% 1/16W 0402" (at 152.4 80.01 0)
      (effects (font (size 1.27 1.27)) hide)
    )
    (property "Manufacturer" "Yageo" (at 152.4 80.01 0)
      (effects (font (size 1.27 1.27)) hide)
    )
    (pin "1" (uuid 2070534b-c133-4e2d-9fda-1085e57ab7fb))
    (pin "2" (uuid dcf58929-e86b-4ee1-92a6-a76ddf8ecb92))
    (instances
      (project "cynthion"
        (path "/fb621148-8145-4217-9712-738e1b5a4823/00000000-0000-0000-0000-00005dcd9772"
          (reference "R55") (unit 1)
        )
      )
    )
  )

  (symbol (lib_id "Device:D_Zener") (at 208.28 128.27 90) (mirror x) (unit 1)
    (in_bom yes) (on_board yes) (dnp no) (fields_autoplaced)
    (uuid c1d8541f-409c-44c1-a2de-b83f432e030a)
    (property "Reference" "D22" (at 206.248 127.4353 90)
      (effects (font (size 1.27 1.27)) (justify left))
    )
    (property "Value" "24±2%" (at 206.248 129.9722 90)
      (effects (font (size 1.27 1.27)) (justify left))
    )
    (property "Footprint" "cynthion:DFN1006-2" (at 208.28 128.27 0)
      (effects (font (size 1.27 1.27)) hide)
    )
    (property "Datasheet" "https://assets.nexperia.com/documents/data-sheet/BZX884_BC_SER.pdf" (at 208.28 128.27 0)
      (effects (font (size 1.27 1.27)) hide)
    )
    (property "Manufacturer" "Nexperia" (at 208.28 128.27 90)
      (effects (font (size 1.27 1.27)) hide)
    )
    (property "Part Number" "BZX884-B24,315" (at 208.28 128.27 90)
      (effects (font (size 1.27 1.27)) hide)
    )
    (property "Description" "DIODE ZENER 24V 250MW DFN1006-2" (at 208.28 128.27 0)
      (effects (font (size 1.27 1.27)) hide)
    )
    (pin "1" (uuid 6a248e5b-b694-457d-a0bd-3d6c47648920))
    (pin "2" (uuid e52a7661-caec-489f-abbd-040c91ace001))
    (instances
      (project "cynthion"
        (path "/fb621148-8145-4217-9712-738e1b5a4823/00000000-0000-0000-0000-00005dcd9772"
          (reference "D22") (unit 1)
        )
      )
    )
  )

  (symbol (lib_id "power:GND") (at 85.09 64.77 0) (unit 1)
    (in_bom yes) (on_board yes) (dnp no) (fields_autoplaced)
    (uuid d3df510a-285b-47a6-856f-3d8b6cdcec73)
    (property "Reference" "#PWR025" (at 85.09 71.12 0)
      (effects (font (size 1.27 1.27)) hide)
    )
    (property "Value" "GND" (at 85.09 69.2134 0)
      (effects (font (size 1.27 1.27)))
    )
    (property "Footprint" "" (at 85.09 64.77 0)
      (effects (font (size 1.27 1.27)) hide)
    )
    (property "Datasheet" "" (at 85.09 64.77 0)
      (effects (font (size 1.27 1.27)) hide)
    )
    (pin "1" (uuid a86bc6cb-7e15-4250-8937-e50bf0f791ac))
    (instances
      (project "cynthion"
        (path "/fb621148-8145-4217-9712-738e1b5a4823/00000000-0000-0000-0000-00005dcd9772"
          (reference "#PWR025") (unit 1)
        )
      )
    )
  )

  (symbol (lib_id "Device:Filter_EMI_CommonMode") (at 173.99 115.57 0) (unit 1)
    (in_bom yes) (on_board yes) (dnp no)
    (uuid e40ece0a-ad17-4984-bf4f-9befb9072746)
    (property "Reference" "FL3" (at 173.99 107.95 0)
      (effects (font (size 1.27 1.27)))
    )
    (property "Value" "Filter_EMI_CommonMode" (at 173.99 110.4869 0)
      (effects (font (size 1.27 1.27)))
    )
    (property "Footprint" "cynthion:L_CommonModeChoke_Murata_DLM0NS" (at 173.99 114.554 0)
      (effects (font (size 1.27 1.27)) hide)
    )
    (property "Datasheet" "https://www.murata.com/en-global/products/productdata/8799424610334/EFLD0009.pdf" (at 173.99 114.554 0)
      (effects (font (size 1.27 1.27)) hide)
    )
    (property "Description" "CMC 130MA 2LN 28 OHM SMD" (at 173.99 115.57 0)
      (effects (font (size 1.27 1.27)) hide)
    )
    (property "Manufacturer" "Murata" (at 173.99 115.57 0)
      (effects (font (size 1.27 1.27)) hide)
    )
    (property "Part Number" "DLM0NSB280HY2D" (at 173.99 115.57 0)
      (effects (font (size 1.27 1.27)) hide)
    )
    (pin "1" (uuid 94879c72-5ded-4eab-81e4-51212755360e))
    (pin "2" (uuid bf25bb20-4285-49c7-a8d4-8a826d34c0c2))
    (pin "3" (uuid 88ee0fdb-7157-43c1-a028-f51716b84033))
    (pin "4" (uuid 3acc09b2-13c8-4e26-a186-baa641006395))
    (instances
      (project "cynthion"
        (path "/fb621148-8145-4217-9712-738e1b5a4823/00000000-0000-0000-0000-00005dcd9772"
          (reference "FL3") (unit 1)
        )
      )
    )
  )

  (symbol (lib_id "power:GND") (at 208.28 133.35 0) (mirror y) (unit 1)
    (in_bom yes) (on_board yes) (dnp no)
    (uuid f7b9e475-e3b7-4e0d-aa8a-64ceb6eef076)
    (property "Reference" "#PWR0156" (at 208.28 139.7 0)
      (effects (font (size 1.27 1.27)) hide)
    )
    (property "Value" "GND" (at 208.28 137.7934 0)
      (effects (font (size 1.27 1.27)))
    )
    (property "Footprint" "" (at 208.28 133.35 0)
      (effects (font (size 1.27 1.27)) hide)
    )
    (property "Datasheet" "" (at 208.28 133.35 0)
      (effects (font (size 1.27 1.27)) hide)
    )
    (pin "1" (uuid 56a4fa2f-b9cf-4723-bf41-6ff62d30b23e))
    (instances
      (project "cynthion"
        (path "/fb621148-8145-4217-9712-738e1b5a4823/00000000-0000-0000-0000-00005dcd9772"
          (reference "#PWR0156") (unit 1)
        )
      )
    )
  )

  (symbol (lib_id "Device:C") (at 259.08 77.47 0) (unit 1)
    (in_bom yes) (on_board yes) (dnp no)
    (uuid fbedf207-5da7-4ecf-ae11-22e8bfd7265b)
    (property "Reference" "C61" (at 262.001 76.327 0)
      (effects (font (size 1.27 1.27)) (justify left))
    )
    (property "Value" "0.1uF" (at 262.001 78.613 0)
      (effects (font (size 1.27 1.27)) (justify left))
    )
    (property "Footprint" "Capacitor_SMD:C_0402_1005Metric" (at 260.0452 81.28 0)
      (effects (font (size 1.27 1.27)) hide)
    )
    (property "Datasheet" "~" (at 259.08 77.47 0)
      (effects (font (size 1.27 1.27)) hide)
    )
    (property "Part Number" "CL05A104KA5NNNC" (at 259.08 77.47 0)
      (effects (font (size 1.27 1.27)) hide)
    )
    (property "Substitution" "any equivalent" (at 259.08 77.47 0)
      (effects (font (size 1.27 1.27)) hide)
    )
    (property "Description" "CAP CER 0.1UF 25V X5R 0402" (at 259.08 77.47 0)
      (effects (font (size 1.27 1.27)) hide)
    )
    (property "Manufacturer" "Samsung" (at 259.08 77.47 0)
      (effects (font (size 1.27 1.27)) hide)
    )
    (pin "1" (uuid d2d05ffb-785e-468f-b8b9-5dd8e7d3bb1d))
    (pin "2" (uuid f4c61d76-1982-4c8f-9739-c5e577c85d60))
    (instances
      (project "cynthion"
        (path "/fb621148-8145-4217-9712-738e1b5a4823/00000000-0000-0000-0000-00005dcd9772"
          (reference "C61") (unit 1)
        )
      )
    )
  )

  (sheet (at 135.89 110.49) (size 25.4 15.24) (fields_autoplaced)
    (stroke (width 0.1524) (type solid))
    (fill (color 0 0 0 0.0000))
    (uuid 86be2f0e-7bb1-42d8-87bc-4230c6dbd013)
    (property "Sheetname" "CONTROL PHY" (at 135.89 109.7784 0)
      (effects (font (size 1.27 1.27)) (justify left bottom))
    )
    (property "Sheetfile" "usb_phy.kicad_sch" (at 135.89 126.3146 0)
      (effects (font (size 1.27 1.27)) (justify left top))
    )
    (pin "PHY_D-" bidirectional (at 161.29 118.11 0)
      (effects (font (size 1.27 1.27)) (justify right))
      (uuid bb05901b-d9ef-44b4-a64d-81ef82e80dcc)
    )
    (pin "PHY_D+" bidirectional (at 161.29 113.03 0)
      (effects (font (size 1.27 1.27)) (justify right))
      (uuid 03d78212-a7d1-4b18-b5a8-9dc32f42d14f)
    )
    (pin "PHY{ULPI}" bidirectional (at 135.89 113.03 180)
      (effects (font (size 1.27 1.27)) (justify left))
      (uuid 95167e01-43ad-48dd-9581-d6aabe24561a)
    )
    (pin "VBUS_CLAMPED" input (at 161.29 123.19 0)
      (effects (font (size 1.27 1.27)) (justify right))
      (uuid f02ecb64-2ec0-469c-a596-ffe6cbe26524)
    )
    (instances
      (project "cynthion"
        (path "/fb621148-8145-4217-9712-738e1b5a4823/00000000-0000-0000-0000-00005dcd9772" (page "3"))
      )
    )
  )
)
