{
  "board": {
    "3dviewports": [],
    "design_settings": {
      "defaults": {
        "board_outline_line_width": 0.15,
        "copper_line_width": 0.15,
        "copper_text_italic": false,
        "copper_text_size_h": 1.5,
        "copper_text_size_v": 1.5,
        "copper_text_thickness": 0.3,
        "copper_text_upright": false,
        "courtyard_line_width": 0.049999999999999996,
        "dimension_precision": 4,
        "dimension_units": 3,
        "dimensions": {
          "arrow_length": 1270000,
          "extension_offset": 500000,
          "keep_text_aligned": true,
          "suppress_zeroes": false,
          "text_position": 0,
          "units_format": 1
        },
        "fab_line_width": 0.09999999999999999,
        "fab_text_italic": false,
        "fab_text_size_h": 1.0,
        "fab_text_size_v": 1.0,
        "fab_text_thickness": 0.15,
        "fab_text_upright": false,
        "other_line_width": 0.09999999999999999,
        "other_text_italic": false,
        "other_text_size_h": 1.0,
        "other_text_size_v": 1.0,
        "other_text_thickness": 0.15,
        "other_text_upright": false,
        "pads": {
          "drill": 0.6,
          "height": 2.1,
          "width": 1.0
        },
        "silk_line_width": 0.25,
        "silk_text_italic": false,
        "silk_text_size_h": 1.0,
        "silk_text_size_v": 1.0,
        "silk_text_thickness": 0.15,
        "silk_text_upright": false,
        "zones": {
          "45_degree_only": false,
          "min_clearance": 0.2032
        }
      },
      "diff_pair_dimensions": [
        {
          "gap": 0.0,
          "via_gap": 0.0,
          "width": 0.0
        }
      ],
      "drc_exclusions": [
        "copper_edge_clearance|104000000|72000000|35462b5a-2627-4f47-8ce0-6b90e3caabbf|c4b3632f-b9b7-4321-b759-44eacc9bfb9c",
        "copper_edge_clearance|104000000|96500000|35462b5a-2627-4f47-8ce0-6b90e3caabbf|855c3736-66fc-41d0-bc04-745bd76602aa",
        "copper_edge_clearance|160000000|72000000|a6976185-f6e5-4dfa-85f5-522785ca5147|16fb6297-a05e-46f7-9000-e63b532ea0bb",
        "courtyards_overlap|107972313|69250001|00000000-0000-0000-0000-00005ff50a4b|97020680-52fd-41ee-a656-0dc60c3ba581",
        "courtyards_overlap|115380001|85380001|00000000-0000-0000-0000-00005fed7822|7b2d556a-2043-41fe-8056-a8543e5d5cfd",
        "courtyards_overlap|149225001|83400001|00000000-0000-0000-0000-00005fe26531|fa7984aa-864b-40a5-ad67-90b400a2f166",
        "courtyards_overlap|149225001|84900001|00000000-0000-0000-0000-00005fe26531|3842de83-1318-4295-a95d-5d1baad380e8",
        "courtyards_overlap|157972313|69250001|00000000-0000-0000-0000-00005ff4fe57|ebc18994-eb08-4733-b42c-324e62b55257",
        "lib_footprint_mismatch|133700000|111100000|00000000-0000-0000-0000-00005fdfc759|00000000-0000-0000-0000-000000000000",
        "lib_footprint_mismatch|140000000|75500000|00000000-0000-0000-0000-00005fdfc3f1|00000000-0000-0000-0000-000000000000",
        "npth_inside_courtyard|109250000|106110000|4c36c167-aa4a-4886-bd3a-3240aa3ab0ce|00000000-0000-0000-0000-0000600407bd",
        "npth_inside_courtyard|109250000|86890000|9f7aa593-37dc-4559-ae0e-59730395e45d|00000000-0000-0000-0000-0000600411a1",
        "npth_inside_courtyard|154750000|106110000|2c2b6bad-f3d8-4963-8e74-3cca1d777cc2|2b4cfbb5-52c9-40ed-84d1-c2bc9e02cd69"
      ],
      "meta": {
        "filename": "board_design_settings.json",
        "version": 2
      },
      "rule_severities": {
        "annular_width": "error",
        "clearance": "error",
        "connection_width": "warning",
        "copper_edge_clearance": "error",
        "copper_sliver": "warning",
        "courtyards_overlap": "error",
        "diff_pair_gap_out_of_range": "error",
        "diff_pair_uncoupled_length_too_long": "error",
        "drill_out_of_range": "error",
        "duplicate_footprints": "warning",
        "extra_footprint": "warning",
        "footprint": "error",
        "footprint_type_mismatch": "error",
        "hole_clearance": "error",
        "hole_near_hole": "error",
        "invalid_outline": "error",
        "isolated_copper": "warning",
        "item_on_disabled_layer": "error",
        "items_not_allowed": "error",
        "length_out_of_range": "error",
        "lib_footprint_issues": "warning",
        "lib_footprint_mismatch": "warning",
        "malformed_courtyard": "error",
        "microvia_drill_out_of_range": "error",
        "missing_courtyard": "warning",
        "missing_footprint": "warning",
        "net_conflict": "warning",
        "npth_inside_courtyard": "warning",
        "padstack": "error",
        "pth_inside_courtyard": "warning",
        "shorting_items": "error",
        "silk_edge_clearance": "warning",
        "silk_over_copper": "warning",
        "silk_overlap": "warning",
        "skew_out_of_range": "error",
        "solder_mask_bridge": "ignore",
        "starved_thermal": "error",
        "text_height": "warning",
        "text_thickness": "warning",
        "through_hole_pad_without_hole": "error",
        "too_many_vias": "error",
        "track_dangling": "warning",
        "track_width": "error",
        "tracks_crossing": "error",
        "unconnected_items": "error",
        "unresolved_variable": "error",
        "via_dangling": "warning",
        "zones_intersect": "error"
      },
      "rule_severitieslegacy_courtyards_overlap": true,
      "rule_severitieslegacy_no_courtyard_defined": false,
      "rules": {
        "allow_blind_buried_vias": false,
        "allow_microvias": false,
        "max_error": 0.005,
        "min_clearance": 0.09999999999999999,
        "min_connection": 0.0,
        "min_copper_edge_clearance": 0.3,
        "min_hole_clearance": 0.24,
        "min_hole_to_hole": 0.254,
        "min_microvia_diameter": 0.19999999999999998,
        "min_microvia_drill": 0.09999999999999999,
        "min_resolved_spokes": 2,
        "min_silk_clearance": 0.049999999999999996,
        "min_text_height": 0.5,
        "min_text_thickness": 0.08,
        "min_through_hole_diameter": 0.15,
        "min_track_width": 0.09999999999999999,
        "min_via_annular_width": 0.125,
        "min_via_diameter": 0.41,
        "solder_mask_to_copper_clearance": 0.0,
        "use_height_for_length_calcs": true
      },
      "teardrop_options": [
        {
          "td_allow_use_two_tracks": true,
          "td_curve_segcount": 5,
          "td_on_pad_in_zone": false,
          "td_onpadsmd": true,
          "td_onroundshapesonly": false,
          "td_ontrackend": false,
          "td_onviapad": true
        }
      ],
      "teardrop_parameters": [
        {
          "td_curve_segcount": 0,
          "td_height_ratio": 1.0,
          "td_length_ratio": 0.5,
          "td_maxheight": 2.0,
          "td_maxlen": 1.0,
          "td_target_name": "td_round_shape",
          "td_width_to_size_filter_ratio": 0.9
        },
        {
          "td_curve_segcount": 0,
          "td_height_ratio": 1.0,
          "td_length_ratio": 0.5,
          "td_maxheight": 2.0,
          "td_maxlen": 1.0,
          "td_target_name": "td_rect_shape",
          "td_width_to_size_filter_ratio": 0.9
        },
        {
          "td_curve_segcount": 0,
          "td_height_ratio": 1.0,
          "td_length_ratio": 0.5,
          "td_maxheight": 2.0,
          "td_maxlen": 1.0,
          "td_target_name": "td_track_end",
          "td_width_to_size_filter_ratio": 0.9
        }
      ],
      "track_widths": [
        0.0,
        0.1,
        0.127,
        0.1524,
        0.2032,
        0.3048,
        0.508,
        1.0,
        1.27
      ],
      "via_dimensions": [
        {
          "diameter": 0.0,
          "drill": 0.0
        },
        {
          "diameter": 0.41,
          "drill": 0.15
        },
        {
          "diameter": 0.4572,
          "drill": 0.2032
        },
        {
          "diameter": 0.762,
          "drill": 0.381
        },
        {
          "diameter": 1.016,
          "drill": 0.508
        }
      ],
      "zones_allow_external_fillets": false,
      "zones_use_no_outline": true
    },
    "layer_presets": [],
    "viewports": []
  },
  "boards": [],
  "cvpcb": {
    "equivalence_files": []
  },
  "erc": {
    "erc_exclusions": [],
    "meta": {
      "version": 0
    },
    "pin_map": [
      [
        0,
        0,
        0,
        0,
        0,
        0,
        1,
        0,
        0,
        0,
        0,
        2
      ],
      [
        0,
        2,
        0,
        1,
        0,
        0,
        1,
        0,
        2,
        2,
        2,
        2
      ],
      [
        0,
        0,
        0,
        0,
        0,
        0,
        1,
        0,
        0,
        0,
        1,
        2
      ],
      [
        0,
        1,
        0,
        0,
        0,
        0,
        1,
        1,
        2,
        1,
        1,
        2
      ],
      [
        0,
        0,
        0,
        0,
        0,
        0,
        1,
        0,
        0,
        0,
        0,
        2
      ],
      [
        0,
        0,
        0,
        0,
        0,
        0,
        0,
        0,
        0,
        0,
        0,
        2
      ],
      [
        1,
        1,
        1,
        1,
        1,
        0,
        1,
        1,
        1,
        1,
        1,
        2
      ],
      [
        0,
        0,
        0,
        1,
        0,
        0,
        1,
        0,
        0,
        0,
        0,
        2
      ],
      [
        0,
        2,
        0,
        2,
        0,
        0,
        1,
        0,
        2,
        2,
        2,
        2
      ],
      [
        0,
        2,
        0,
        1,
        0,
        0,
        1,
        0,
        2,
        0,
        0,
        2
      ],
      [
        0,
        2,
        1,
        1,
        0,
        0,
        1,
        0,
        2,
        0,
        0,
        2
      ],
      [
        2,
        2,
        2,
        2,
        2,
        2,
        2,
        2,
        2,
        2,
        2,
        2
      ]
    ],
    "rule_severities": {
      "bus_definition_conflict": "error",
      "bus_entry_needed": "error",
      "bus_to_bus_conflict": "error",
      "bus_to_net_conflict": "error",
      "conflicting_netclasses": "error",
      "different_unit_footprint": "error",
      "different_unit_net": "error",
      "duplicate_reference": "error",
      "duplicate_sheet_names": "error",
      "endpoint_off_grid": "warning",
      "extra_units": "error",
      "global_label_dangling": "warning",
      "hier_label_mismatch": "error",
      "label_dangling": "error",
      "lib_symbol_issues": "warning",
      "missing_bidi_pin": "warning",
      "missing_input_pin": "warning",
      "missing_power_pin": "error",
      "missing_unit": "warning",
      "multiple_net_names": "warning",
      "net_not_bus_member": "warning",
      "no_connect_connected": "warning",
      "no_connect_dangling": "warning",
      "pin_not_connected": "error",
      "pin_not_driven": "error",
      "pin_to_pin": "error",
      "power_pin_not_driven": "error",
      "similar_labels": "warning",
      "simulation_model_issue": "ignore",
      "unannotated": "error",
      "unit_value_mismatch": "error",
      "unresolved_variable": "error",
      "wire_dangling": "error"
    }
  },
  "libraries": {
    "pinned_footprint_libs": [],
    "pinned_symbol_libs": []
  },
  "meta": {
    "filename": "cynthion.kicad_pro",
    "version": 1
  },
  "net_settings": {
    "classes": [
      {
        "bus_width": 12,
        "clearance": 0.127,
        "diff_pair_gap": 0.127,
        "diff_pair_via_gap": 0.25,
        "diff_pair_width": 0.127,
        "line_style": 0,
        "microvia_diameter": 0.3048,
        "microvia_drill": 0.1016,
        "name": "Default",
        "pcb_color": "rgba(0, 0, 0, 0.000)",
        "schematic_color": "rgba(0, 0, 0, 0.000)",
        "track_width": 0.127,
        "via_diameter": 0.4572,
        "via_drill": 0.2032,
        "wire_width": 6
      },
      {
        "bus_width": 12,
        "clearance": 0.1,
        "diff_pair_gap": 0.127,
        "diff_pair_via_gap": 0.25,
        "diff_pair_width": 0.127,
        "line_style": 0,
        "microvia_diameter": 0.3048,
        "microvia_drill": 0.1016,
        "name": "Thin",
        "pcb_color": "rgba(0, 0, 0, 0.000)",
        "schematic_color": "rgba(0, 0, 0, 0.000)",
        "track_width": 0.1,
        "via_diameter": 0.4572,
        "via_drill": 0.2032,
        "wire_width": 6
      }
    ],
    "meta": {
      "version": 3
    },
    "net_colors": null,
    "netclass_assignments": null,
    "netclass_patterns": [
      {
        "netclass": "Thin",
        "pattern": "*TARGET PHY/PHY_D*"
      },
      {
        "netclass": "Thin",
        "pattern": "*TARGET_A_D-"
      }
    ]
  },
  "pcbnew": {
    "last_paths": {
      "gencad": "",
      "idf": "",
      "netlist": "",
      "specctra_dsn": "",
      "step": "",
      "vrml": ""
    },
    "page_layout_descr_file": ""
  },
  "schematic": {
    "annotate_start_num": 0,
    "drawing": {
      "dashed_lines_dash_length_ratio": 12.0,
      "dashed_lines_gap_length_ratio": 3.0,
      "default_line_thickness": 6.0,
      "default_text_size": 50.0,
      "field_names": [],
      "intersheets_ref_own_page": false,
      "intersheets_ref_prefix": "",
      "intersheets_ref_short": false,
      "intersheets_ref_show": false,
      "intersheets_ref_suffix": "",
      "junction_size_choice": 3,
      "label_size_ratio": 0.25,
      "pin_symbol_size": 0.0,
      "text_offset_ratio": 0.08
    },
    "legacy_lib_dir": "",
    "legacy_lib_list": [],
    "meta": {
      "version": 1
    },
    "net_format_name": "KiCad",
    "ngspice": {
      "fix_include_paths": true,
      "fix_passive_vals": false,
      "meta": {
        "version": 0
      },
      "model_mode": 0,
      "workbook_filename": ""
    },
    "page_layout_descr_file": "",
    "plot_directory": "",
    "spice_adjust_passive_values": false,
    "spice_current_sheet_as_root": false,
    "spice_external_command": "spice \"%I\"",
    "spice_model_current_sheet_as_root": true,
    "spice_save_all_currents": false,
    "spice_save_all_voltages": false,
    "subpart_first_id": 65,
    "subpart_id_separator": 0
  },
  "sheets": [
    [
      "fb621148-8145-4217-9712-738e1b5a4823",
      ""
    ],
    [
      "00000000-0000-0000-0000-00005dcd9772",
      "CONTROL Port"
    ],
    [
      "86be2f0e-7bb1-42d8-87bc-4230c6dbd013",
      "CONTROL PHY"
    ],
    [
      "00000000-0000-0000-0000-00005dd754d4",
      "AUX Port"
    ],
    [
      "6ef06f1e-62a2-438c-8ab4-363586d03e74",
      "AUX PHY"
    ],
    [
      "821a7ccd-e154-4207-89e2-0af03a062d97",
      "AUX Type C Controller"
    ],
    [
      "00000000-0000-0000-0000-00005dddb747",
      "TARGET Port"
    ],
    [
      "6fe66c21-f87e-45b5-9c98-390633af1111",
      "TARGET PHY"
    ],
    [
      "92d64a9f-2dc8-401c-9690-4ead9b9ce144",
      "TARGET Type C Controller"
    ],
    [
      "d6473fd6-7fca-4f4e-a434-76243f5aa389",
      "FPGA Banks 0 and 1"
    ],
    [
      "88637316-1688-4ac4-b530-3f2433cec3c1",
      "FPGA Banks 2 and 3"
    ],
    [
      "398ed715-d319-4823-8f52-c02f43302105",
      "FPGA Banks 6 and 7"
    ],
    [
      "f93ff067-5e9f-4565-b018-6e1ef186681c",
      "FPGA Bank 8 and Configuration Flash"
    ],
    [
      "00000000-0000-0000-0000-00005de77fe3",
      "RAM"
    ],
    [
      "c0a1b8fd-bfd5-4925-b24e-24a40b8a6b17",
      "LEDs and Buttons"
    ],
    [
      "90959d77-de16-430a-a341-d55720164855",
      "Expansion Interfaces"
    ],
    [
      "00000000-0000-0000-0000-00005dcaa6d2",
      "Debugger"
    ],
    [
      "00000000-0000-0000-0000-00005da7baf4",
      "Power Supplies"
    ],
    [
      "490fda6e-4eae-4b35-a875-405b51914829",
      "Power Distribution and Monitoring"
    ],
    [
      "07741d92-cb3b-401f-9c7e-29f688af7269",
      "Clock and Miscellaneous"
    ]
  ],
  "text_variables": {
    "COPYRIGHT": "Copyright 2019-2024 Great Scott Gadgets",
    "DATE": "2024-08-27",
    "LICENSE": "Licensed under the CERN-OHL-P v2",
    "TITLE": "Cynthion",
    "VERSION": "1.4.0"
  }
}
