(kicad_sch (version 20230121) (generator eeschema)

  (uuid 21e80844-253a-4ee0-b7ab-3354902a49dc)

  (paper "A4")

  (title_block
    (date "07/06/1987")
    (rev "6.2-a")
    (company "Commodore")
    (comment 1 "Drawn by: Dave Haynie")
    (comment 2 "Used on: A2000-CR")
  )

  (lib_symbols
  )


  (text "review 1 : ok\nreview 2 :" (at 140.97 59.69 0)
    (effects (font (size 2.0066 2.0066)) (justify left bottom))
    (uuid 159abb6a-cc24-4de9-b7db-31fc11f5be4d)
  )
  (text "review 1 : ok\nreview 2 :" (at 26.67 34.29 0)
    (effects (font (size 2.0066 2.0066)) (justify left bottom))
    (uuid 194e614c-114b-4f12-90d9-b3044c9521e0)
  )
  (text "review 1 : ok\nreview 2 :" (at 217.17 59.69 0)
    (effects (font (size 2.0066 2.0066)) (justify left bottom))
    (uuid 1b5c9bf3-e313-4548-baff-ef1b824e7172)
  )
  (text "review 1 : ok\nreview 2 :" (at 179.07 34.29 0)
    (effects (font (size 2.0066 2.0066)) (justify left bottom))
    (uuid 36f8eefc-8a5f-43e8-86d6-38c624b24de7)
  )
  (text "review 1 : ok\nreview 2 :" (at 26.67 59.69 0)
    (effects (font (size 2.0066 2.0066)) (justify left bottom))
    (uuid 750eb60a-4f7b-477b-af7c-08b7e45b9ea6)
  )
  (text "review 1 : ok\nreview 2 :" (at 179.07 59.69 0)
    (effects (font (size 2.0066 2.0066)) (justify left bottom))
    (uuid 9be60155-9b8f-4f20-a049-7c5d0b3da532)
  )
  (text "review 1 : ok\nreview 2 :" (at 217.17 34.29 0)
    (effects (font (size 2.0066 2.0066)) (justify left bottom))
    (uuid a4cceede-6bf4-45d3-92cc-1d4f845560e9)
  )
  (text "review 1 : ok\nreview 2 :" (at 102.87 59.69 0)
    (effects (font (size 2.0066 2.0066)) (justify left bottom))
    (uuid b5c09a42-c770-4150-9f0e-e708a62c0079)
  )
  (text "review 1 : ok\nreview 2 :" (at 64.77 59.69 0)
    (effects (font (size 2.0066 2.0066)) (justify left bottom))
    (uuid b8d1d043-5f54-4ac5-be84-db1d87f4d863)
  )
  (text "review 1 : ok\nreview 2 :" (at 64.77 34.29 0)
    (effects (font (size 2.0066 2.0066)) (justify left bottom))
    (uuid bf4f4955-08be-4d7d-810e-546c15444d6b)
  )
  (text "review 1 : ok\nreview 2 :" (at 140.97 34.29 0)
    (effects (font (size 2.0066 2.0066)) (justify left bottom))
    (uuid bff3d317-c930-4fdf-b543-91108f347258)
  )
  (text "Notes: XX4256-15 pins 18 and 19 are swapped in the original scanned schematics\npin 18 of U501 is DRD2, and 19 is DRD3."
    (at 46.99 100.33 0)
    (effects (font (size 2.9972 2.9972)) (justify left bottom))
    (uuid c096cc3c-36b0-452f-bb39-177f12df98cc)
  )
  (text "Rev 6.3 fixes :\n - Kickstart 2.03 and Denise 8373\n\nRev 6.4 fixes :\n - Agnus 8375\n - Instead of R101, add a capacitor (100nF) from right side of R101 to ground"
    (at 22.86 161.29 0)
    (effects (font (size 3.9878 3.9878)) (justify left bottom))
    (uuid e6b3f94f-47c4-498c-8d29-a8137109a091)
  )
  (text "review 1 : ok\nreview 2 :" (at 102.87 34.29 0)
    (effects (font (size 2.0066 2.0066)) (justify left bottom))
    (uuid fdd9a312-8b7c-43d6-8d1a-5c175a3cbdee)
  )

  (sheet (at 25.4 25.4) (size 25.4 12.7) (fields_autoplaced)
    (stroke (width 0) (type solid))
    (fill (color 0 0 0 0.0000))
    (uuid 00000000-0000-0000-0000-00005cea6f7f)
    (property "Sheetname" "processor" (at 25.4 24.6884 0)
      (effects (font (size 1.27 1.27)) (justify left bottom))
    )
    (property "Sheetfile" "processor.kicad_sch" (at 25.4 38.6846 0)
      (effects (font (size 1.27 1.27)) (justify left top))
    )
    (instances
      (project "amiga2000"
        (path "/21e80844-253a-4ee0-b7ab-3354902a49dc" (page "2"))
      )
    )
  )

  (sheet (at 63.5 25.4) (size 25.4 12.7) (fields_autoplaced)
    (stroke (width 0) (type solid))
    (fill (color 0 0 0 0.0000))
    (uuid 00000000-0000-0000-0000-00005cea6fcb)
    (property "Sheetname" "paula" (at 63.5 24.6884 0)
      (effects (font (size 1.27 1.27)) (justify left bottom))
    )
    (property "Sheetfile" "paula.kicad_sch" (at 63.5 38.6846 0)
      (effects (font (size 1.27 1.27)) (justify left top))
    )
    (instances
      (project "amiga2000"
        (path "/21e80844-253a-4ee0-b7ab-3354902a49dc" (page "4"))
      )
    )
  )

  (sheet (at 101.6 25.4) (size 25.4 12.7) (fields_autoplaced)
    (stroke (width 0) (type solid))
    (fill (color 0 0 0 0.0000))
    (uuid 00000000-0000-0000-0000-00005cea702b)
    (property "Sheetname" "serial" (at 101.6 24.6884 0)
      (effects (font (size 1.27 1.27)) (justify left bottom))
    )
    (property "Sheetfile" "serial.kicad_sch" (at 101.6 38.6846 0)
      (effects (font (size 1.27 1.27)) (justify left top))
    )
    (instances
      (project "amiga2000"
        (path "/21e80844-253a-4ee0-b7ab-3354902a49dc" (page "6"))
      )
    )
  )

  (sheet (at 139.7 25.4) (size 25.4 12.7) (fields_autoplaced)
    (stroke (width 0) (type solid))
    (fill (color 0 0 0 0.0000))
    (uuid 00000000-0000-0000-0000-00005cea7058)
    (property "Sheetname" "power" (at 139.7 24.6884 0)
      (effects (font (size 1.27 1.27)) (justify left bottom))
    )
    (property "Sheetfile" "power.kicad_sch" (at 139.7 38.6846 0)
      (effects (font (size 1.27 1.27)) (justify left top))
    )
    (instances
      (project "amiga2000"
        (path "/21e80844-253a-4ee0-b7ab-3354902a49dc" (page "8"))
      )
    )
  )

  (sheet (at 177.8 25.4) (size 25.4 12.7) (fields_autoplaced)
    (stroke (width 0) (type solid))
    (fill (color 0 0 0 0.0000))
    (uuid 00000000-0000-0000-0000-00005cea708d)
    (property "Sheetname" "chipram" (at 177.8 24.6884 0)
      (effects (font (size 1.27 1.27)) (justify left bottom))
    )
    (property "Sheetfile" "chipram.kicad_sch" (at 177.8 38.6846 0)
      (effects (font (size 1.27 1.27)) (justify left top))
    )
    (instances
      (project "amiga2000"
        (path "/21e80844-253a-4ee0-b7ab-3354902a49dc" (page "10"))
      )
    )
  )

  (sheet (at 215.9 25.4) (size 25.4 12.7) (fields_autoplaced)
    (stroke (width 0) (type solid))
    (fill (color 0 0 0 0.0000))
    (uuid 00000000-0000-0000-0000-00005cea70d9)
    (property "Sheetname" "zorro" (at 215.9 24.6884 0)
      (effects (font (size 1.27 1.27)) (justify left bottom))
    )
    (property "Sheetfile" "zorro.kicad_sch" (at 215.9 38.6846 0)
      (effects (font (size 1.27 1.27)) (justify left top))
    )
    (instances
      (project "amiga2000"
        (path "/21e80844-253a-4ee0-b7ab-3354902a49dc" (page "12"))
      )
    )
  )

  (sheet (at 25.4 50.8) (size 25.4 12.7) (fields_autoplaced)
    (stroke (width 0) (type solid))
    (fill (color 0 0 0 0.0000))
    (uuid 00000000-0000-0000-0000-00005cea7188)
    (property "Sheetname" "pc slots" (at 25.4 50.0884 0)
      (effects (font (size 1.27 1.27)) (justify left bottom))
    )
    (property "Sheetfile" "pc slots.kicad_sch" (at 25.4 64.0846 0)
      (effects (font (size 1.27 1.27)) (justify left top))
    )
    (instances
      (project "amiga2000"
        (path "/21e80844-253a-4ee0-b7ab-3354902a49dc" (page "3"))
      )
    )
  )

  (sheet (at 63.5 50.8) (size 25.4 12.7) (fields_autoplaced)
    (stroke (width 0) (type solid))
    (fill (color 0 0 0 0.0000))
    (uuid 00000000-0000-0000-0000-00005cea71bc)
    (property "Sheetname" "expansion logic" (at 63.5 50.0884 0)
      (effects (font (size 1.27 1.27)) (justify left bottom))
    )
    (property "Sheetfile" "expansion logic.kicad_sch" (at 63.5 64.0846 0)
      (effects (font (size 1.27 1.27)) (justify left top))
    )
    (instances
      (project "amiga2000"
        (path "/21e80844-253a-4ee0-b7ab-3354902a49dc" (page "5"))
      )
    )
  )

  (sheet (at 101.6 50.8) (size 25.4 12.7) (fields_autoplaced)
    (stroke (width 0) (type solid))
    (fill (color 0 0 0 0.0000))
    (uuid 00000000-0000-0000-0000-00005cea71ec)
    (property "Sheetname" "agnus" (at 101.6 50.0884 0)
      (effects (font (size 1.27 1.27)) (justify left bottom))
    )
    (property "Sheetfile" "agnus.kicad_sch" (at 101.6 64.0846 0)
      (effects (font (size 1.27 1.27)) (justify left top))
    )
    (instances
      (project "amiga2000"
        (path "/21e80844-253a-4ee0-b7ab-3354902a49dc" (page "7"))
      )
    )
  )

  (sheet (at 139.7 50.8) (size 25.4 12.7) (fields_autoplaced)
    (stroke (width 0) (type solid))
    (fill (color 0 0 0 0.0000))
    (uuid 00000000-0000-0000-0000-00005cea721e)
    (property "Sheetname" "parallel" (at 139.7 50.0884 0)
      (effects (font (size 1.27 1.27)) (justify left bottom))
    )
    (property "Sheetfile" "parallel.kicad_sch" (at 139.7 64.0846 0)
      (effects (font (size 1.27 1.27)) (justify left top))
    )
    (instances
      (project "amiga2000"
        (path "/21e80844-253a-4ee0-b7ab-3354902a49dc" (page "9"))
      )
    )
  )

  (sheet (at 177.8 50.8) (size 25.4 12.7) (fields_autoplaced)
    (stroke (width 0) (type solid))
    (fill (color 0 0 0 0.0000))
    (uuid 00000000-0000-0000-0000-00005cea7254)
    (property "Sheetname" "denise" (at 177.8 50.0884 0)
      (effects (font (size 1.27 1.27)) (justify left bottom))
    )
    (property "Sheetfile" "denise.kicad_sch" (at 177.8 64.0846 0)
      (effects (font (size 1.27 1.27)) (justify left top))
    )
    (instances
      (project "amiga2000"
        (path "/21e80844-253a-4ee0-b7ab-3354902a49dc" (page "11"))
      )
    )
  )

  (sheet (at 215.9 50.8) (size 25.4 12.7) (fields_autoplaced)
    (stroke (width 0) (type solid))
    (fill (color 0 0 0 0.0000))
    (uuid 00000000-0000-0000-0000-00005cea727e)
    (property "Sheetname" "coprocessor slot" (at 215.9 50.0884 0)
      (effects (font (size 1.27 1.27)) (justify left bottom))
    )
    (property "Sheetfile" "coprocessor slot.kicad_sch" (at 215.9 64.0846 0)
      (effects (font (size 1.27 1.27)) (justify left top))
    )
    (instances
      (project "amiga2000"
        (path "/21e80844-253a-4ee0-b7ab-3354902a49dc" (page "13"))
      )
    )
  )

  (sheet_instances
    (path "/" (page "1"))
  )
)
