(kicad_sch (version 20230121) (generator eeschema)

  (uuid 67ad53b0-e724-4354-8add-ffbe056bca93)

  (paper "User" 150.012 114.3)

  (title_block
    (date "2023-07-08")
  )

  (lib_symbols
  )


  (sheet (at 60.96 30.48) (size 31.75 8.89) (fields_autoplaced)
    (stroke (width 0.1524) (type solid))
    (fill (color 0 0 0 0.0000))
    (uuid 03c1781e-297b-49e1-8cb8-7d532072eddb)
    (property "Sheetname" "Power" (at 60.96 29.7684 0) (show_name)
      (effects (font (size 1.27 1.27) bold italic) (justify left bottom))
    )
    (property "Sheetfile" "Power.kicad_sch" (at 60.96 39.9546 0)
      (effects (font (size 1.27 1.27) bold italic) (justify left top))
    )
    (instances
      (project "RPi_Pico_W_A4988_control_board"
        (path "/67ad53b0-e724-4354-8add-ffbe056bca93" (page "5"))
      )
    )
  )

  (sheet (at 26.67 30.48) (size 31.75 8.89) (fields_autoplaced)
    (stroke (width 0.1524) (type solid))
    (fill (color 0 0 0 0.0000))
    (uuid 07c0a6ff-eef2-4578-b5db-f7e0ea607e3d)
    (property "Sheetname" "PicoW RP2040" (at 26.67 29.7684 0) (show_name)
      (effects (font (size 1.27 1.27) bold italic) (justify left bottom))
    )
    (property "Sheetfile" "pico.kicad_sch" (at 26.67 39.9546 0)
      (effects (font (size 1.27 1.27) bold italic) (justify left top))
    )
    (instances
      (project "RPi_Pico_W_A4988_control_board"
        (path "/67ad53b0-e724-4354-8add-ffbe056bca93" (page "2"))
      )
    )
  )

  (sheet (at 95.25 30.48) (size 30.48 8.89) (fields_autoplaced)
    (stroke (width 0.1524) (type solid))
    (fill (color 0 0 0 0.0000))
    (uuid 9c4f98f1-bc47-4c4b-bbad-ba5566d013b5)
    (property "Sheetname" "Conn" (at 95.25 29.7684 0) (show_name)
      (effects (font (size 1.27 1.27) bold italic) (justify left bottom))
    )
    (property "Sheetfile" "conn.kicad_sch" (at 95.25 39.9546 0)
      (effects (font (size 1.27 1.27) bold italic) (justify left top))
    )
    (instances
      (project "RPi_Pico_W_A4988_control_board"
        (path "/67ad53b0-e724-4354-8add-ffbe056bca93" (page "4"))
      )
    )
  )

  (sheet (at 26.67 50.8) (size 31.75 8.89) (fields_autoplaced)
    (stroke (width 0.1524) (type solid))
    (fill (color 0 0 0 0.0000))
    (uuid f879121b-b8b1-4c0a-8f21-a8ce38d582ad)
    (property "Sheetname" "A4988_Module" (at 26.67 50.0884 0) (show_name)
      (effects (font (size 1.27 1.27) bold italic) (justify left bottom))
    )
    (property "Sheetfile" "A4988_Module.kicad_sch" (at 26.67 60.2746 0)
      (effects (font (size 1.27 1.27) bold italic) (justify left top))
    )
    (instances
      (project "RPi_Pico_W_A4988_control_board"
        (path "/67ad53b0-e724-4354-8add-ffbe056bca93" (page "3"))
      )
    )
  )

  (sheet_instances
    (path "/" (page "1"))
  )
)
