(kicad_sch (version 20230121) (generator eeschema)

  (uuid ea31f51c-3f0e-4e37-9fd4-9e1b1b7d7784)

  (paper "A4")

  (lib_symbols
    (symbol "Connector_Generic:Conn_01x08" (pin_names (offset 1.016) hide) (in_bom yes) (on_board yes)
      (property "Reference" "J" (at 0 10.16 0)
        (effects (font (size 1.27 1.27)))
      )
      (property "Value" "Conn_01x08" (at 0 -12.7 0)
        (effects (font (size 1.27 1.27)))
      )
      (property "Footprint" "" (at 0 0 0)
        (effects (font (size 1.27 1.27)) hide)
      )
      (property "Datasheet" "~" (at 0 0 0)
        (effects (font (size 1.27 1.27)) hide)
      )
      (property "ki_keywords" "connector" (at 0 0 0)
        (effects (font (size 1.27 1.27)) hide)
      )
      (property "ki_description" "Generic connector, single row, 01x08, script generated (kicad-library-utils/schlib/autogen/connector/)" (at 0 0 0)
        (effects (font (size 1.27 1.27)) hide)
      )
      (property "ki_fp_filters" "Connector*:*_1x??_*" (at 0 0 0)
        (effects (font (size 1.27 1.27)) hide)
      )
      (symbol "Conn_01x08_1_1"
        (rectangle (start -1.27 -10.033) (end 0 -10.287)
          (stroke (width 0.1524) (type default))
          (fill (type none))
        )
        (rectangle (start -1.27 -7.493) (end 0 -7.747)
          (stroke (width 0.1524) (type default))
          (fill (type none))
        )
        (rectangle (start -1.27 -4.953) (end 0 -5.207)
          (stroke (width 0.1524) (type default))
          (fill (type none))
        )
        (rectangle (start -1.27 -2.413) (end 0 -2.667)
          (stroke (width 0.1524) (type default))
          (fill (type none))
        )
        (rectangle (start -1.27 0.127) (end 0 -0.127)
          (stroke (width 0.1524) (type default))
          (fill (type none))
        )
        (rectangle (start -1.27 2.667) (end 0 2.413)
          (stroke (width 0.1524) (type default))
          (fill (type none))
        )
        (rectangle (start -1.27 5.207) (end 0 4.953)
          (stroke (width 0.1524) (type default))
          (fill (type none))
        )
        (rectangle (start -1.27 7.747) (end 0 7.493)
          (stroke (width 0.1524) (type default))
          (fill (type none))
        )
        (rectangle (start -1.27 8.89) (end 1.27 -11.43)
          (stroke (width 0.254) (type default))
          (fill (type background))
        )
        (pin passive line (at -5.08 7.62 0) (length 3.81)
          (name "Pin_1" (effects (font (size 1.27 1.27))))
          (number "1" (effects (font (size 1.27 1.27))))
        )
        (pin passive line (at -5.08 5.08 0) (length 3.81)
          (name "Pin_2" (effects (font (size 1.27 1.27))))
          (number "2" (effects (font (size 1.27 1.27))))
        )
        (pin passive line (at -5.08 2.54 0) (length 3.81)
          (name "Pin_3" (effects (font (size 1.27 1.27))))
          (number "3" (effects (font (size 1.27 1.27))))
        )
        (pin passive line (at -5.08 0 0) (length 3.81)
          (name "Pin_4" (effects (font (size 1.27 1.27))))
          (number "4" (effects (font (size 1.27 1.27))))
        )
        (pin passive line (at -5.08 -2.54 0) (length 3.81)
          (name "Pin_5" (effects (font (size 1.27 1.27))))
          (number "5" (effects (font (size 1.27 1.27))))
        )
        (pin passive line (at -5.08 -5.08 0) (length 3.81)
          (name "Pin_6" (effects (font (size 1.27 1.27))))
          (number "6" (effects (font (size 1.27 1.27))))
        )
        (pin passive line (at -5.08 -7.62 0) (length 3.81)
          (name "Pin_7" (effects (font (size 1.27 1.27))))
          (number "7" (effects (font (size 1.27 1.27))))
        )
        (pin passive line (at -5.08 -10.16 0) (length 3.81)
          (name "Pin_8" (effects (font (size 1.27 1.27))))
          (number "8" (effects (font (size 1.27 1.27))))
        )
      )
    )
    (symbol "Connector_Generic:Conn_02x08_Odd_Even" (pin_names (offset 1.016) hide) (in_bom yes) (on_board yes)
      (property "Reference" "J" (at 1.27 10.16 0)
        (effects (font (size 1.27 1.27)))
      )
      (property "Value" "Conn_02x08_Odd_Even" (at 1.27 -12.7 0)
        (effects (font (size 1.27 1.27)))
      )
      (property "Footprint" "" (at 0 0 0)
        (effects (font (size 1.27 1.27)) hide)
      )
      (property "Datasheet" "~" (at 0 0 0)
        (effects (font (size 1.27 1.27)) hide)
      )
      (property "ki_keywords" "connector" (at 0 0 0)
        (effects (font (size 1.27 1.27)) hide)
      )
      (property "ki_description" "Generic connector, double row, 02x08, odd/even pin numbering scheme (row 1 odd numbers, row 2 even numbers), script generated (kicad-library-utils/schlib/autogen/connector/)" (at 0 0 0)
        (effects (font (size 1.27 1.27)) hide)
      )
      (property "ki_fp_filters" "Connector*:*_2x??_*" (at 0 0 0)
        (effects (font (size 1.27 1.27)) hide)
      )
      (symbol "Conn_02x08_Odd_Even_1_1"
        (rectangle (start -1.27 -10.033) (end 0 -10.287)
          (stroke (width 0.1524) (type default))
          (fill (type none))
        )
        (rectangle (start -1.27 -7.493) (end 0 -7.747)
          (stroke (width 0.1524) (type default))
          (fill (type none))
        )
        (rectangle (start -1.27 -4.953) (end 0 -5.207)
          (stroke (width 0.1524) (type default))
          (fill (type none))
        )
        (rectangle (start -1.27 -2.413) (end 0 -2.667)
          (stroke (width 0.1524) (type default))
          (fill (type none))
        )
        (rectangle (start -1.27 0.127) (end 0 -0.127)
          (stroke (width 0.1524) (type default))
          (fill (type none))
        )
        (rectangle (start -1.27 2.667) (end 0 2.413)
          (stroke (width 0.1524) (type default))
          (fill (type none))
        )
        (rectangle (start -1.27 5.207) (end 0 4.953)
          (stroke (width 0.1524) (type default))
          (fill (type none))
        )
        (rectangle (start -1.27 7.747) (end 0 7.493)
          (stroke (width 0.1524) (type default))
          (fill (type none))
        )
        (rectangle (start -1.27 8.89) (end 3.81 -11.43)
          (stroke (width 0.254) (type default))
          (fill (type background))
        )
        (rectangle (start 3.81 -10.033) (end 2.54 -10.287)
          (stroke (width 0.1524) (type default))
          (fill (type none))
        )
        (rectangle (start 3.81 -7.493) (end 2.54 -7.747)
          (stroke (width 0.1524) (type default))
          (fill (type none))
        )
        (rectangle (start 3.81 -4.953) (end 2.54 -5.207)
          (stroke (width 0.1524) (type default))
          (fill (type none))
        )
        (rectangle (start 3.81 -2.413) (end 2.54 -2.667)
          (stroke (width 0.1524) (type default))
          (fill (type none))
        )
        (rectangle (start 3.81 0.127) (end 2.54 -0.127)
          (stroke (width 0.1524) (type default))
          (fill (type none))
        )
        (rectangle (start 3.81 2.667) (end 2.54 2.413)
          (stroke (width 0.1524) (type default))
          (fill (type none))
        )
        (rectangle (start 3.81 5.207) (end 2.54 4.953)
          (stroke (width 0.1524) (type default))
          (fill (type none))
        )
        (rectangle (start 3.81 7.747) (end 2.54 7.493)
          (stroke (width 0.1524) (type default))
          (fill (type none))
        )
        (pin passive line (at -5.08 7.62 0) (length 3.81)
          (name "Pin_1" (effects (font (size 1.27 1.27))))
          (number "1" (effects (font (size 1.27 1.27))))
        )
        (pin passive line (at 7.62 -2.54 180) (length 3.81)
          (name "Pin_10" (effects (font (size 1.27 1.27))))
          (number "10" (effects (font (size 1.27 1.27))))
        )
        (pin passive line (at -5.08 -5.08 0) (length 3.81)
          (name "Pin_11" (effects (font (size 1.27 1.27))))
          (number "11" (effects (font (size 1.27 1.27))))
        )
        (pin passive line (at 7.62 -5.08 180) (length 3.81)
          (name "Pin_12" (effects (font (size 1.27 1.27))))
          (number "12" (effects (font (size 1.27 1.27))))
        )
        (pin passive line (at -5.08 -7.62 0) (length 3.81)
          (name "Pin_13" (effects (font (size 1.27 1.27))))
          (number "13" (effects (font (size 1.27 1.27))))
        )
        (pin passive line (at 7.62 -7.62 180) (length 3.81)
          (name "Pin_14" (effects (font (size 1.27 1.27))))
          (number "14" (effects (font (size 1.27 1.27))))
        )
        (pin passive line (at -5.08 -10.16 0) (length 3.81)
          (name "Pin_15" (effects (font (size 1.27 1.27))))
          (number "15" (effects (font (size 1.27 1.27))))
        )
        (pin passive line (at 7.62 -10.16 180) (length 3.81)
          (name "Pin_16" (effects (font (size 1.27 1.27))))
          (number "16" (effects (font (size 1.27 1.27))))
        )
        (pin passive line (at 7.62 7.62 180) (length 3.81)
          (name "Pin_2" (effects (font (size 1.27 1.27))))
          (number "2" (effects (font (size 1.27 1.27))))
        )
        (pin passive line (at -5.08 5.08 0) (length 3.81)
          (name "Pin_3" (effects (font (size 1.27 1.27))))
          (number "3" (effects (font (size 1.27 1.27))))
        )
        (pin passive line (at 7.62 5.08 180) (length 3.81)
          (name "Pin_4" (effects (font (size 1.27 1.27))))
          (number "4" (effects (font (size 1.27 1.27))))
        )
        (pin passive line (at -5.08 2.54 0) (length 3.81)
          (name "Pin_5" (effects (font (size 1.27 1.27))))
          (number "5" (effects (font (size 1.27 1.27))))
        )
        (pin passive line (at 7.62 2.54 180) (length 3.81)
          (name "Pin_6" (effects (font (size 1.27 1.27))))
          (number "6" (effects (font (size 1.27 1.27))))
        )
        (pin passive line (at -5.08 0 0) (length 3.81)
          (name "Pin_7" (effects (font (size 1.27 1.27))))
          (number "7" (effects (font (size 1.27 1.27))))
        )
        (pin passive line (at 7.62 0 180) (length 3.81)
          (name "Pin_8" (effects (font (size 1.27 1.27))))
          (number "8" (effects (font (size 1.27 1.27))))
        )
        (pin passive line (at -5.08 -2.54 0) (length 3.81)
          (name "Pin_9" (effects (font (size 1.27 1.27))))
          (number "9" (effects (font (size 1.27 1.27))))
        )
      )
    )
  )


  (global_label "SoC_RX" (shape input) (at 43.18 50.8 180) (fields_autoplaced)
    (effects (font (size 1.27 1.27)) (justify right))
    (uuid 062c5eb7-6836-4bfa-ad81-bf90341d9ed5)
    (property "Intersheetrefs" "${INTERSHEET_REFS}" (at 33.6912 50.7206 0)
      (effects (font (size 1.27 1.27)) (justify right) hide)
    )
  )
  (global_label "SoC_RX" (shape input) (at 45.72 83.82 180) (fields_autoplaced)
    (effects (font (size 1.27 1.27)) (justify right))
    (uuid 077c7713-5f8a-46ad-9e1e-0a158b076dfa)
    (property "Intersheetrefs" "${INTERSHEET_REFS}" (at 36.2312 83.7406 0)
      (effects (font (size 1.27 1.27)) (justify right) hide)
    )
  )
  (global_label "MCU_SWDIO" (shape input) (at 71.12 45.72 0) (fields_autoplaced)
    (effects (font (size 1.27 1.27)) (justify left))
    (uuid 11162f78-a7ce-47ce-a9e9-7fa10830871d)
    (property "Intersheetrefs" "${INTERSHEET_REFS}" (at 84.4188 45.6406 0)
      (effects (font (size 1.27 1.27)) (justify left) hide)
    )
  )
  (global_label "MCU_SWCLK" (shape input) (at 58.42 76.2 0) (fields_autoplaced)
    (effects (font (size 1.27 1.27)) (justify left))
    (uuid 28d5f755-ae65-42a6-882e-df3c414cf483)
    (property "Intersheetrefs" "${INTERSHEET_REFS}" (at 72.0817 76.1206 0)
      (effects (font (size 1.27 1.27)) (justify left) hide)
    )
  )
  (global_label "SoC_TX" (shape input) (at 45.72 81.28 180) (fields_autoplaced)
    (effects (font (size 1.27 1.27)) (justify right))
    (uuid 2907f03e-6b26-4b62-93d5-6d22be7dc3a8)
    (property "Intersheetrefs" "${INTERSHEET_REFS}" (at 36.5336 81.2006 0)
      (effects (font (size 1.27 1.27)) (justify right) hide)
    )
  )
  (global_label "MCU_NC1" (shape input) (at 58.42 83.82 0) (fields_autoplaced)
    (effects (font (size 1.27 1.27)) (justify left))
    (uuid 316f7731-ca0e-4353-9d0a-b39b70f911ba)
    (property "Intersheetrefs" "${INTERSHEET_REFS}" (at 69.6626 83.7406 0)
      (effects (font (size 1.27 1.27)) (justify left) hide)
    )
  )
  (global_label "SoC_USB_OTG_ID" (shape input) (at 45.72 76.2 180) (fields_autoplaced)
    (effects (font (size 1.27 1.27)) (justify right))
    (uuid 357049db-c668-4a77-9a25-ce8b90dfd32b)
    (property "Intersheetrefs" "${INTERSHEET_REFS}" (at 27.5226 76.1206 0)
      (effects (font (size 1.27 1.27)) (justify right) hide)
    )
  )
  (global_label "VBUS" (shape input) (at 45.72 68.58 180) (fields_autoplaced)
    (effects (font (size 1.27 1.27)) (justify right))
    (uuid 35bc867a-9c04-4f91-a36d-12dfdd2da01e)
    (property "Intersheetrefs" "${INTERSHEET_REFS}" (at 38.4083 68.5006 0)
      (effects (font (size 1.27 1.27)) (justify right) hide)
    )
  )
  (global_label "D+" (shape input) (at 43.18 40.64 180) (fields_autoplaced)
    (effects (font (size 1.27 1.27)) (justify right))
    (uuid 35cdb7da-6207-458e-b9a0-57079b9acb1f)
    (property "Intersheetrefs" "${INTERSHEET_REFS}" (at 37.9245 40.5606 0)
      (effects (font (size 1.27 1.27)) (justify right) hide)
    )
  )
  (global_label "MCU_SWCLK" (shape input) (at 71.12 43.18 0) (fields_autoplaced)
    (effects (font (size 1.27 1.27)) (justify left))
    (uuid 38422d01-aa06-405c-a8fd-de1f908ffc70)
    (property "Intersheetrefs" "${INTERSHEET_REFS}" (at 84.7817 43.1006 0)
      (effects (font (size 1.27 1.27)) (justify left) hide)
    )
  )
  (global_label "VBUS" (shape input) (at 43.18 35.56 180) (fields_autoplaced)
    (effects (font (size 1.27 1.27)) (justify right))
    (uuid 42dfcfdc-f5fb-40d3-80dc-3b68897fd0c1)
    (property "Intersheetrefs" "${INTERSHEET_REFS}" (at 35.8683 35.4806 0)
      (effects (font (size 1.27 1.27)) (justify right) hide)
    )
  )
  (global_label "MCU_NC1" (shape input) (at 71.12 50.8 0) (fields_autoplaced)
    (effects (font (size 1.27 1.27)) (justify left))
    (uuid 58614528-ab9d-43da-87c8-9d12e0411967)
    (property "Intersheetrefs" "${INTERSHEET_REFS}" (at 82.3626 50.7206 0)
      (effects (font (size 1.27 1.27)) (justify left) hide)
    )
  )
  (global_label "SoC_TX" (shape input) (at 43.18 48.26 180) (fields_autoplaced)
    (effects (font (size 1.27 1.27)) (justify right))
    (uuid 5edf7739-53e3-4a4d-b7c7-a479e09b3119)
    (property "Intersheetrefs" "${INTERSHEET_REFS}" (at 33.9936 48.1806 0)
      (effects (font (size 1.27 1.27)) (justify right) hide)
    )
  )
  (global_label "MCU_RX" (shape input) (at 58.42 71.12 0) (fields_autoplaced)
    (effects (font (size 1.27 1.27)) (justify left))
    (uuid 7413b2cc-42f9-4b79-8935-d73b76c29038)
    (property "Intersheetrefs" "${INTERSHEET_REFS}" (at 68.3321 71.0406 0)
      (effects (font (size 1.27 1.27)) (justify left) hide)
    )
  )
  (global_label "D-" (shape input) (at 45.72 71.12 180) (fields_autoplaced)
    (effects (font (size 1.27 1.27)) (justify right))
    (uuid 813ef21e-74e3-4161-8789-36ea572d843c)
    (property "Intersheetrefs" "${INTERSHEET_REFS}" (at 40.4645 71.0406 0)
      (effects (font (size 1.27 1.27)) (justify right) hide)
    )
  )
  (global_label "MCU_GND" (shape input) (at 58.42 81.28 0) (fields_autoplaced)
    (effects (font (size 1.27 1.27)) (justify left))
    (uuid 8ae184b6-caa0-4b46-af6b-6d13661eb3b3)
    (property "Intersheetrefs" "${INTERSHEET_REFS}" (at 69.7231 81.2006 0)
      (effects (font (size 1.27 1.27)) (justify left) hide)
    )
  )
  (global_label "MCU_TX" (shape input) (at 58.42 73.66 0) (fields_autoplaced)
    (effects (font (size 1.27 1.27)) (justify left))
    (uuid 9971bc0e-c92e-4044-b7f4-be9ae3113372)
    (property "Intersheetrefs" "${INTERSHEET_REFS}" (at 68.0298 73.5806 0)
      (effects (font (size 1.27 1.27)) (justify left) hide)
    )
  )
  (global_label "D+" (shape input) (at 45.72 73.66 180) (fields_autoplaced)
    (effects (font (size 1.27 1.27)) (justify right))
    (uuid 9f9126b0-dd1e-49be-922e-fd09297e0548)
    (property "Intersheetrefs" "${INTERSHEET_REFS}" (at 40.4645 73.5806 0)
      (effects (font (size 1.27 1.27)) (justify right) hide)
    )
  )
  (global_label "SoC_GND" (shape input) (at 45.72 78.74 180) (fields_autoplaced)
    (effects (font (size 1.27 1.27)) (justify right))
    (uuid a05b7b41-d584-47db-9de6-426482000335)
    (property "Intersheetrefs" "${INTERSHEET_REFS}" (at 34.8402 78.6606 0)
      (effects (font (size 1.27 1.27)) (justify right) hide)
    )
  )
  (global_label "MCU_Vref" (shape input) (at 58.42 68.58 0) (fields_autoplaced)
    (effects (font (size 1.27 1.27)) (justify left))
    (uuid a5d2a7d4-11d3-4ff9-a61d-2d4964edff84)
    (property "Intersheetrefs" "${INTERSHEET_REFS}" (at 69.5417 68.5006 0)
      (effects (font (size 1.27 1.27)) (justify left) hide)
    )
  )
  (global_label "MCU_NC2" (shape input) (at 71.12 53.34 0) (fields_autoplaced)
    (effects (font (size 1.27 1.27)) (justify left))
    (uuid abef542b-996e-40d7-b943-1243a3cedd69)
    (property "Intersheetrefs" "${INTERSHEET_REFS}" (at 82.3626 53.2606 0)
      (effects (font (size 1.27 1.27)) (justify left) hide)
    )
  )
  (global_label "Boot_SEL" (shape input) (at 45.72 86.36 180) (fields_autoplaced)
    (effects (font (size 1.27 1.27)) (justify right))
    (uuid aff9b94a-3155-4d61-8287-3dc8c06c9c02)
    (property "Intersheetrefs" "${INTERSHEET_REFS}" (at 34.6588 86.2806 0)
      (effects (font (size 1.27 1.27)) (justify right) hide)
    )
  )
  (global_label "SoC_GND" (shape input) (at 43.18 45.72 180) (fields_autoplaced)
    (effects (font (size 1.27 1.27)) (justify right))
    (uuid b888230f-b107-43d2-b95a-b00f29678bfe)
    (property "Intersheetrefs" "${INTERSHEET_REFS}" (at 32.3002 45.6406 0)
      (effects (font (size 1.27 1.27)) (justify right) hide)
    )
  )
  (global_label "MCU_RX" (shape input) (at 71.12 38.1 0) (fields_autoplaced)
    (effects (font (size 1.27 1.27)) (justify left))
    (uuid c0d60a41-14b3-4461-b26b-d39dada05e5c)
    (property "Intersheetrefs" "${INTERSHEET_REFS}" (at 81.0321 38.0206 0)
      (effects (font (size 1.27 1.27)) (justify left) hide)
    )
  )
  (global_label "SoC_USB_OTG_ID" (shape input) (at 43.18 43.18 180) (fields_autoplaced)
    (effects (font (size 1.27 1.27)) (justify right))
    (uuid d1abbc94-e386-4939-a7a2-58c0e81666d6)
    (property "Intersheetrefs" "${INTERSHEET_REFS}" (at 24.9826 43.1006 0)
      (effects (font (size 1.27 1.27)) (justify right) hide)
    )
  )
  (global_label "MCU_GND" (shape input) (at 71.12 48.26 0) (fields_autoplaced)
    (effects (font (size 1.27 1.27)) (justify left))
    (uuid e65b24a2-10ed-406e-b013-63cfa4013327)
    (property "Intersheetrefs" "${INTERSHEET_REFS}" (at 82.4231 48.1806 0)
      (effects (font (size 1.27 1.27)) (justify left) hide)
    )
  )
  (global_label "MCU_TX" (shape input) (at 71.12 40.64 0) (fields_autoplaced)
    (effects (font (size 1.27 1.27)) (justify left))
    (uuid e9c8a1a0-b8ee-47a9-94b3-2ee829456805)
    (property "Intersheetrefs" "${INTERSHEET_REFS}" (at 80.7298 40.5606 0)
      (effects (font (size 1.27 1.27)) (justify left) hide)
    )
  )
  (global_label "MCU_Vref" (shape input) (at 71.12 35.56 0) (fields_autoplaced)
    (effects (font (size 1.27 1.27)) (justify left))
    (uuid ea39acf5-f29b-4dbb-908c-0c8af52fca9f)
    (property "Intersheetrefs" "${INTERSHEET_REFS}" (at 82.2417 35.4806 0)
      (effects (font (size 1.27 1.27)) (justify left) hide)
    )
  )
  (global_label "MCU_NC2" (shape input) (at 58.42 86.36 0) (fields_autoplaced)
    (effects (font (size 1.27 1.27)) (justify left))
    (uuid eacebde2-7377-4d73-b09e-26076daeabae)
    (property "Intersheetrefs" "${INTERSHEET_REFS}" (at 69.6626 86.2806 0)
      (effects (font (size 1.27 1.27)) (justify left) hide)
    )
  )
  (global_label "Boot_SEL" (shape input) (at 43.18 53.34 180) (fields_autoplaced)
    (effects (font (size 1.27 1.27)) (justify right))
    (uuid fa7729a0-e55f-4188-934c-75a6e2fff099)
    (property "Intersheetrefs" "${INTERSHEET_REFS}" (at 32.1188 53.2606 0)
      (effects (font (size 1.27 1.27)) (justify right) hide)
    )
  )
  (global_label "D-" (shape input) (at 43.18 38.1 180) (fields_autoplaced)
    (effects (font (size 1.27 1.27)) (justify right))
    (uuid fc2b0ef8-a367-4ea9-a602-bd171c23de7c)
    (property "Intersheetrefs" "${INTERSHEET_REFS}" (at 37.9245 38.0206 0)
      (effects (font (size 1.27 1.27)) (justify right) hide)
    )
  )
  (global_label "MCU_SWDIO" (shape input) (at 58.42 78.74 0) (fields_autoplaced)
    (effects (font (size 1.27 1.27)) (justify left))
    (uuid ffc4c81d-43da-4c7e-9e8a-6d97b9020ba5)
    (property "Intersheetrefs" "${INTERSHEET_REFS}" (at 71.7188 78.6606 0)
      (effects (font (size 1.27 1.27)) (justify left) hide)
    )
  )

  (symbol (lib_id "Connector_Generic:Conn_02x08_Odd_Even") (at 50.8 76.2 0) (unit 1)
    (in_bom yes) (on_board yes) (dnp no) (fields_autoplaced)
    (uuid 56bbedad-6259-4443-b321-0ffa1f89c336)
    (property "Reference" "J5" (at 52.07 62.23 0)
      (effects (font (size 1.27 1.27)))
    )
    (property "Value" "Conn_02x08_Odd_Even" (at 52.07 64.77 0)
      (effects (font (size 1.27 1.27)))
    )
    (property "Footprint" "Connector_PinSocket_2.00mm:PinSocket_2x08_P2.00mm_Vertical" (at 50.8 76.2 0)
      (effects (font (size 1.27 1.27)) hide)
    )
    (property "Datasheet" "~" (at 50.8 76.2 0)
      (effects (font (size 1.27 1.27)) hide)
    )
    (pin "1" (uuid 90337a8b-a8c5-48e1-ad0f-b0e67716fe3c))
    (pin "10" (uuid eb83440d-aa8b-4a1e-9e93-00cf0de78de9))
    (pin "11" (uuid 644ebc55-9b92-49bd-8dfa-8a3a0dd8d76d))
    (pin "12" (uuid cfec88d2-05ea-4320-9be6-2559d89ee700))
    (pin "13" (uuid f7475c2a-e91e-435c-bec2-3307ef3e1f94))
    (pin "14" (uuid fe1c93f4-4468-424b-a088-27aef08b62b4))
    (pin "15" (uuid 66cc4ddc-a52d-4ad7-986e-68f000539802))
    (pin "16" (uuid 0f3121ae-1081-4d81-b548-dceafa613e21))
    (pin "2" (uuid 8f8bb641-6f96-48dd-a2de-b7e2aaf6efe0))
    (pin "3" (uuid 85ec87eb-bb51-43f3-adf5-d04ca264762d))
    (pin "4" (uuid cebfc912-6282-4a1e-923e-74c4961c2aad))
    (pin "5" (uuid a16dbf15-8f5b-4766-b048-90ba89efcc02))
    (pin "6" (uuid 5de5a872-aa15-495b-b53b-b8a64bbfa4f0))
    (pin "7" (uuid 6579642b-a152-47f7-af0e-0d8866bdfcb8))
    (pin "8" (uuid eac540a2-0555-4530-b9cb-9b037a65c0a7))
    (pin "9" (uuid 6e416a78-df14-48ee-9842-e6e24081191e))
    (instances
      (project "dreamebreakoutbreakout"
        (path "/ea31f51c-3f0e-4e37-9fd4-9e1b1b7d7784"
          (reference "J5") (unit 1)
        )
      )
    )
  )

  (symbol (lib_id "Connector_Generic:Conn_01x08") (at 48.26 45.72 0) (mirror x) (unit 1)
    (in_bom yes) (on_board yes) (dnp no)
    (uuid 9a78ba4f-7ad6-434a-80d4-1cb7d8eb7b1e)
    (property "Reference" "J1.1" (at 45.72 30.48 0)
      (effects (font (size 1.27 1.27)) (justify left))
    )
    (property "Value" "To Robot SoC" (at 40.64 27.94 0)
      (effects (font (size 1.27 1.27)) (justify left))
    )
    (property "Footprint" "Custom:DGI_8_SMDPADS" (at 48.26 45.72 0)
      (effects (font (size 1.27 1.27)) hide)
    )
    (property "Datasheet" "~" (at 48.26 45.72 0)
      (effects (font (size 1.27 1.27)) hide)
    )
    (pin "1" (uuid e27c78a2-cebb-482a-800a-b65a56c98f27))
    (pin "2" (uuid ea9fa722-e327-45f6-9d6b-7b37bebbf94f))
    (pin "3" (uuid 88ea289b-ba92-49bf-93fc-9c7189f7ac27))
    (pin "4" (uuid e044fd7a-13ed-4916-9f2e-12e374f299f7))
    (pin "5" (uuid afb43903-35e9-4979-b900-1894511bea86))
    (pin "6" (uuid a72b0211-01ed-437e-8ed0-dd4a1c9ad8e3))
    (pin "7" (uuid 00acac7c-29b3-40c0-a0cf-1c2da39d9ba7))
    (pin "8" (uuid 1961fd7e-ea48-4fcd-9643-319fdbe0bda8))
    (instances
      (project "dreamebreakoutbreakout"
        (path "/ea31f51c-3f0e-4e37-9fd4-9e1b1b7d7784"
          (reference "J1.1") (unit 1)
        )
      )
    )
  )

  (symbol (lib_id "Connector_Generic:Conn_01x08") (at 66.04 43.18 0) (mirror y) (unit 1)
    (in_bom yes) (on_board yes) (dnp no) (fields_autoplaced)
    (uuid a196238e-b9ec-4604-992b-a953d9be554d)
    (property "Reference" "J1.2" (at 66.04 29.21 0)
      (effects (font (size 1.27 1.27)))
    )
    (property "Value" "To Robot MCU" (at 66.04 31.75 0)
      (effects (font (size 1.27 1.27)))
    )
    (property "Footprint" "Custom:DGI_8_SMDPADS" (at 66.04 43.18 0)
      (effects (font (size 1.27 1.27)) hide)
    )
    (property "Datasheet" "~" (at 66.04 43.18 0)
      (effects (font (size 1.27 1.27)) hide)
    )
    (pin "1" (uuid 0a8809ae-7336-4294-bc07-52974f256810))
    (pin "2" (uuid 296f5c12-e39a-42fe-8c23-75264dca3e4b))
    (pin "3" (uuid 8b474652-6fe3-4886-93ed-86dfe4e98b7d))
    (pin "4" (uuid 6cfd33ca-7547-4308-8bef-64ac88e86b9d))
    (pin "5" (uuid 2fa07366-3ff6-4968-9529-29f4f60962af))
    (pin "6" (uuid cc6237da-4455-4dac-b7c0-9663306cbd80))
    (pin "7" (uuid f23834ae-1bfd-46c0-8f89-9f77823ae89b))
    (pin "8" (uuid a9749d26-c91b-4ea4-9546-8b3dcfb86483))
    (instances
      (project "dreamebreakoutbreakout"
        (path "/ea31f51c-3f0e-4e37-9fd4-9e1b1b7d7784"
          (reference "J1.2") (unit 1)
        )
      )
    )
  )

  (sheet_instances
    (path "/" (page "1"))
  )
)
