(kicad_pcb (version 20221018) (generator pcbnew)

  (general
    (thickness 1.6)
  )

  (paper "A4")
  (layers
    (0 "F.Cu" signal)
    (31 "B.Cu" signal)
    (32 "B.Adhes" user "B.Adhesive")
    (33 "F.Adhes" user "F.Adhesive")
    (34 "B.Paste" user)
    (35 "F.Paste" user)
    (36 "B.SilkS" user "B.Silkscreen")
    (37 "F.SilkS" user "F.Silkscreen")
    (38 "B.Mask" user)
    (39 "F.Mask" user)
    (40 "Dwgs.User" user "User.Drawings")
    (41 "Cmts.User" user "User.Comments")
    (42 "Eco1.User" user "User.Eco1")
    (43 "Eco2.User" user "User.Eco2")
    (44 "Edge.Cuts" user)
    (45 "Margin" user)
    (46 "B.CrtYd" user "B.Courtyard")
    (47 "F.CrtYd" user "F.Courtyard")
    (48 "B.Fab" user)
    (49 "F.Fab" user)
    (50 "User.1" user)
    (51 "User.2" user)
    (52 "User.3" user)
    (53 "User.4" user)
    (54 "User.5" user)
    (55 "User.6" user)
    (56 "User.7" user)
    (57 "User.8" user)
    (58 "User.9" user)
  )

  (setup
    (stackup
      (layer "F.SilkS" (type "Top Silk Screen"))
      (layer "F.Paste" (type "Top Solder Paste"))
      (layer "F.Mask" (type "Top Solder Mask") (thickness 0.01))
      (layer "F.Cu" (type "copper") (thickness 0.035))
      (layer "dielectric 1" (type "core") (thickness 1.51) (material "FR4") (epsilon_r 4.5) (loss_tangent 0.02))
      (layer "B.Cu" (type "copper") (thickness 0.035))
      (layer "B.Mask" (type "Bottom Solder Mask") (thickness 0.01))
      (layer "B.Paste" (type "Bottom Solder Paste"))
      (layer "B.SilkS" (type "Bottom Silk Screen"))
      (copper_finish "None")
      (dielectric_constraints no)
    )
    (pad_to_mask_clearance 0)
    (pcbplotparams
      (layerselection 0x00010f0_ffffffff)
      (plot_on_all_layers_selection 0x0000000_00000000)
      (disableapertmacros false)
      (usegerberextensions false)
      (usegerberattributes true)
      (usegerberadvancedattributes true)
      (creategerberjobfile true)
      (dashed_line_dash_ratio 12.000000)
      (dashed_line_gap_ratio 3.000000)
      (svgprecision 6)
      (plotframeref false)
      (viasonmask false)
      (mode 1)
      (useauxorigin false)
      (hpglpennumber 1)
      (hpglpenspeed 20)
      (hpglpendiameter 15.000000)
      (dxfpolygonmode true)
      (dxfimperialunits true)
      (dxfusepcbnewfont true)
      (psnegative false)
      (psa4output false)
      (plotreference true)
      (plotvalue true)
      (plotinvisibletext false)
      (sketchpadsonfab false)
      (subtractmaskfromsilk false)
      (outputformat 1)
      (mirror false)
      (drillshape 0)
      (scaleselection 1)
      (outputdirectory "breakoutbreakout_gerbers")
    )
  )

  (net 0 "")
  (net 1 "MCU_Vref")
  (net 2 "VBUS")
  (net 3 "MCU_RX")
  (net 4 "D-")
  (net 5 "MCU_TX")
  (net 6 "D+")
  (net 7 "MCU_SWCLK")
  (net 8 "MCU_SWDIO")
  (net 9 "SoC_TX")
  (net 10 "SoC_RX")
  (net 11 "Boot_SEL")
  (net 12 "SoC_USB_OTG_ID")
  (net 13 "MCU_NC1")
  (net 14 "MCU_NC2")
  (net 15 "SoC_GND")
  (net 16 "MCU_GND")

  (footprint "Custom:DGI_8_SMDPADS" (layer "F.Cu")
    (tstamp cad44c02-7fd2-4e9a-b93a-e1b73d6a3ee6)
    (at 59 98)
    (property "Sheetfile" "angle_board.kicad_sch")
    (property "Sheetname" "")
    (path "/9a78ba4f-7ad6-434a-80d4-1cb7d8eb7b1e")
    (attr smd)
    (fp_text reference "J1.1" (at 0.000009 -1.999989 unlocked) (layer "F.SilkS") hide
        (effects (font (size 1 1) (thickness 0.15)))
      (tstamp 218a2487-4406-4830-b6ad-8a4182eda4f4)
    )
    (fp_text value "To Robot SoC" (at 0 4.5 unlocked) (layer "F.Fab") hide
        (effects (font (size 1 1) (thickness 0.15)))
      (tstamp da37a168-b259-4f98-9030-90f2f5ac962a)
    )
    (fp_text user "${REFERENCE}" (at 0 7.75 unlocked) (layer "F.Fab") hide
        (effects (font (size 1 1) (thickness 0.15)))
      (tstamp 9cdaf74c-bd9d-4293-9612-c30a4bca9a30)
    )
    (pad "1" smd rect (at -7 0) (size 1 2.5) (layers "F.Cu" "F.Paste" "F.Mask")
      (net 11 "Boot_SEL") (pinfunction "Pin_1") (pintype "passive") (tstamp 1a9f0d73-6986-450b-8da5-dca8d718cd0d))
    (pad "2" smd rect (at -5 0) (size 1 2.5) (layers "F.Cu" "F.Paste" "F.Mask")
      (net 10 "SoC_RX") (pinfunction "Pin_2") (pintype "passive") (tstamp 1843d2c0-629c-44e7-8460-03ced60a2111))
    (pad "3" smd rect (at -3 0) (size 1 2.5) (layers "F.Cu" "F.Paste" "F.Mask")
      (net 9 "SoC_TX") (pinfunction "Pin_3") (pintype "passive") (tstamp 79bd7607-8381-4bff-b61a-a2c7ffa05fe5))
    (pad "4" smd rect (at -1 0) (size 1 2.5) (layers "F.Cu" "F.Paste" "F.Mask")
      (net 15 "SoC_GND") (pinfunction "Pin_4") (pintype "passive") (tstamp c0e13d91-53b7-4de6-8d61-7c13732113b8))
    (pad "5" smd rect (at 1 0) (size 1 2.5) (layers "F.Cu" "F.Paste" "F.Mask")
      (net 12 "SoC_USB_OTG_ID") (pinfunction "Pin_5") (pintype "passive") (tstamp b7496a40-6116-4192-b413-2a22be4b5f9f))
    (pad "6" smd rect (at 3 0) (size 1 2.5) (layers "F.Cu" "F.Paste" "F.Mask")
      (net 6 "D+") (pinfunction "Pin_6") (pintype "passive") (tstamp f45c8190-2f27-434c-8fbf-7d8a911faaab))
    (pad "7" smd rect (at 5 0) (size 1 2.5) (layers "F.Cu" "F.Paste" "F.Mask")
      (net 4 "D-") (pinfunction "Pin_7") (pintype "passive") (tstamp 19d6a411-8997-491d-aace-09fdbc63404d))
    (pad "8" smd rect (at 7 0) (size 1 2.5) (layers "F.Cu" "F.Paste" "F.Mask")
      (net 2 "VBUS") (pinfunction "Pin_8") (pintype "passive") (tstamp 60ca4740-3009-4486-93d6-c2502818122b))
  )

  (footprint "Connector_PinSocket_2.00mm:PinSocket_2x08_P2.00mm_Vertical" (layer "B.Cu")
    (tstamp 8b32194b-b591-41d3-a4ed-8d1e87644c91)
    (at 66 84 90)
    (descr "Through hole straight socket strip, 2x08, 2.00mm pitch, double cols (from Kicad 4.0.7), script generated")
    (tags "Through hole socket strip THT 2x08 2.00mm double row")
    (property "Sheetfile" "angle_board.kicad_sch")
    (property "Sheetname" "")
    (path "/56bbedad-6259-4443-b321-0ffa1f89c336")
    (attr through_hole)
    (fp_text reference "J5" (at -1 2.5 90) (layer "B.SilkS") hide
        (effects (font (size 1 1) (thickness 0.15)) (justify mirror))
      (tstamp 4bccbd24-4903-4ab1-b103-73c4cb552b83)
    )
    (fp_text value "Conn_02x08_Odd_Even" (at -1 -16.5 90) (layer "B.Fab") hide
        (effects (font (size 1 1) (thickness 0.15)) (justify mirror))
      (tstamp 90dc18a7-d136-49c5-aca7-9f578dd2dde7)
    )
    (fp_text user "${REFERENCE}" (at -1 -7) (layer "B.Fab") hide
        (effects (font (size 1 1) (thickness 0.15)) (justify mirror))
      (tstamp f4c296cd-7bdd-4b60-9028-ba2456db2135)
    )
    (fp_line (start -3.06 -15.06) (end 1.06 -15.06)
      (stroke (width 0.12) (type solid)) (layer "B.SilkS") (tstamp 79c29df9-918f-4473-b11b-3fedd120bff2))
    (fp_line (start -3.06 1.06) (end -3.06 -15.06)
      (stroke (width 0.12) (type solid)) (layer "B.SilkS") (tstamp ef9e2014-f971-4117-ab40-0672621efad5))
    (fp_line (start -3.06 1.06) (end -1 1.06)
      (stroke (width 0.12) (type solid)) (layer "B.SilkS") (tstamp cc4add4e-41d8-4e86-bb36-d2dc878e8d00))
    (fp_line (start -1 -1) (end 1.06 -1)
      (stroke (width 0.12) (type solid)) (layer "B.SilkS") (tstamp 572bf966-40b4-4074-84f8-0470619143e0))
    (fp_line (start -1 1.06) (end -1 -1)
      (stroke (width 0.12) (type solid)) (layer "B.SilkS") (tstamp 74af2b77-c1c9-4eae-bff8-96bc046b8c06))
    (fp_line (start 0 1.06) (end 1.06 1.06)
      (stroke (width 0.12) (type solid)) (layer "B.SilkS") (tstamp 0c0e6b8f-cbf6-44d9-be38-4e8b1191ac1f))
    (fp_line (start 1.06 -1) (end 1.06 -15.06)
      (stroke (width 0.12) (type solid)) (layer "B.SilkS") (tstamp 2d1af4b2-022f-4455-819b-78883658e880))
    (fp_line (start 1.06 1.06) (end 1.06 0)
      (stroke (width 0.12) (type solid)) (layer "B.SilkS") (tstamp 9d98d134-0903-4480-ac01-2f2837a27307))
    (fp_line (start -3.5 -15.5) (end -3.5 1.5)
      (stroke (width 0.05) (type solid)) (layer "B.CrtYd") (tstamp 849f4f89-7de2-4aea-bdf4-77006099f5f6))
    (fp_line (start -3.5 1.5) (end 1.5 1.5)
      (stroke (width 0.05) (type solid)) (layer "B.CrtYd") (tstamp 278f19a2-5733-4692-9e34-9325919f9eaf))
    (fp_line (start 1.5 -15.5) (end -3.5 -15.5)
      (stroke (width 0.05) (type solid)) (layer "B.CrtYd") (tstamp e84fc25e-a81d-4015-bf9c-a56f90ec2647))
    (fp_line (start 1.5 1.5) (end 1.5 -15.5)
      (stroke (width 0.05) (type solid)) (layer "B.CrtYd") (tstamp d8a29fd7-0b89-410f-b975-b8c97fb9c5da))
    (fp_line (start -3 -15) (end -3 1)
      (stroke (width 0.1) (type solid)) (layer "B.Fab") (tstamp 53906e9b-fef0-4118-8258-7632423cbac6))
    (fp_line (start -3 1) (end 0 1)
      (stroke (width 0.1) (type solid)) (layer "B.Fab") (tstamp 951ff854-9b87-48ab-8827-7adbe6fee82c))
    (fp_line (start 0 1) (end 1 0)
      (stroke (width 0.1) (type solid)) (layer "B.Fab") (tstamp 6cc0d10d-dc8b-4db1-81e5-cf2206998221))
    (fp_line (start 1 -15) (end -3 -15)
      (stroke (width 0.1) (type solid)) (layer "B.Fab") (tstamp c970f863-2eeb-4363-945c-2275a112fd4c))
    (fp_line (start 1 0) (end 1 -15)
      (stroke (width 0.1) (type solid)) (layer "B.Fab") (tstamp d9e4bb90-e4df-4aae-93aa-3267aceb0fcc))
    (pad "1" thru_hole rect (at 0 0 90) (size 1.35 1.35) (drill 0.8) (layers "*.Cu" "*.Mask")
      (net 2 "VBUS") (pinfunction "Pin_1") (pintype "passive") (tstamp 3adffa25-31fb-4382-82fd-edd96b480895))
    (pad "2" thru_hole oval (at -2 0 90) (size 1.35 1.35) (drill 0.8) (layers "*.Cu" "*.Mask")
      (net 1 "MCU_Vref") (pinfunction "Pin_2") (pintype "passive") (tstamp 0ea184c9-73d1-4b8a-8896-3886b45cbf01))
    (pad "3" thru_hole oval (at 0 -2 90) (size 1.35 1.35) (drill 0.8) (layers "*.Cu" "*.Mask")
      (net 4 "D-") (pinfunction "Pin_3") (pintype "passive") (tstamp 52a1d204-b22e-4db5-8d92-714309c2afa6))
    (pad "4" thru_hole oval (at -2 -2 90) (size 1.35 1.35) (drill 0.8) (layers "*.Cu" "*.Mask")
      (net 3 "MCU_RX") (pinfunction "Pin_4") (pintype "passive") (tstamp 6793a3ff-08b6-42e1-b9fd-e5b5d7259e5d))
    (pad "5" thru_hole oval (at 0 -4 90) (size 1.35 1.35) (drill 0.8) (layers "*.Cu" "*.Mask")
      (net 6 "D+") (pinfunction "Pin_5") (pintype "passive") (tstamp a4c4d437-bfda-443b-b6ba-40a4fa35f626))
    (pad "6" thru_hole oval (at -2 -4 90) (size 1.35 1.35) (drill 0.8) (layers "*.Cu" "*.Mask")
      (net 5 "MCU_TX") (pinfunction "Pin_6") (pintype "passive") (tstamp 3154fe1e-b45f-4d3b-8bab-828e398110b6))
    (pad "7" thru_hole oval (at 0 -6 90) (size 1.35 1.35) (drill 0.8) (layers "*.Cu" "*.Mask")
      (net 12 "SoC_USB_OTG_ID") (pinfunction "Pin_7") (pintype "passive") (tstamp ca48b8c9-42a1-436b-92cc-1c6a5ab062ae))
    (pad "8" thru_hole oval (at -2 -6 90) (size 1.35 1.35) (drill 0.8) (layers "*.Cu" "*.Mask")
      (net 7 "MCU_SWCLK") (pinfunction "Pin_8") (pintype "passive") (tstamp db076b15-ed3c-497e-91a0-4c967b3f7f23))
    (pad "9" thru_hole oval (at 0 -8 90) (size 1.35 1.35) (drill 0.8) (layers "*.Cu" "*.Mask")
      (net 15 "SoC_GND") (pinfunction "Pin_9") (pintype "passive") (tstamp 98f7a6a3-ac69-4163-be23-0a2022dda0b0))
    (pad "10" thru_hole oval (at -2 -8 90) (size 1.35 1.35) (drill 0.8) (layers "*.Cu" "*.Mask")
      (net 8 "MCU_SWDIO") (pinfunction "Pin_10") (pintype "passive") (tstamp 18ca81dd-94c5-4d8f-956e-df7c87fd0b93))
    (pad "11" thru_hole oval (at 0 -10 90) (size 1.35 1.35) (drill 0.8) (layers "*.Cu" "*.Mask")
      (net 9 "SoC_TX") (pinfunction "Pin_11") (pintype "passive") (tstamp 911aa946-11a4-4082-a79a-bc4f1c265350))
    (pad "12" thru_hole oval (at -2 -10 90) (size 1.35 1.35) (drill 0.8) (layers "*.Cu" "*.Mask")
      (net 16 "MCU_GND") (pinfunction "Pin_12") (pintype "passive") (tstamp 971da4aa-7a1c-47f1-a56d-06807cbf9be9))
    (pad "13" thru_hole oval (at 0 -12 90) (size 1.35 1.35) (drill 0.8) (layers "*.Cu" "*.Mask")
      (net 10 "SoC_RX") (pinfunction "Pin_13") (pintype "passive") (tstamp e30fb371-7146-4845-9860-595357c2a1b2))
    (pad "14" thru_hole oval (at -2 -12 90) (size 1.35 1.35) (drill 0.8) (layers "*.Cu" "*.Mask")
      (net 13 "MCU_NC1") (pinfunction "Pin_14") (pintype "passive") (tstamp e45fe090-bc92-4bd8-84a2-e503098da63b))
    (pad "15" thru_hole oval (at 0 -14 90) (size 1.35 1.35) (drill 0.8) (layers "*.Cu" "*.Mask")
      (net 11 "Boot_SEL") (pinfunction "Pin_15") (pintype "passive") (tstamp d67f868d-53f9-4bb4-bd2c-92ef211808ff))
    (pad "16" thru_hole oval (at -2 -14 90) (size 1.35 1.35) (drill 0.8) (layers "*.Cu" "*.Mask")
      (net 14 "MCU_NC2") (pinfunction "Pin_16") (pintype "passive") (tstamp f36d557b-f4f0-40bb-affa-1654c552b6a6))
    (model "${KICAD6_3DMODEL_DIR}/Connector_PinSocket_2.00mm.3dshapes/PinSocket_2x08_P2.00mm_Vertical.wrl"
      (offset (xyz 0 0 0))
      (scale (xyz 1 1 1))
      (rotate (xyz 0 0 0))
    )
  )

  (footprint "Custom:DGI_8_SMDPADS" (layer "B.Cu")
    (tstamp b70f4be0-be81-40f1-b237-a16be3740211)
    (at 59 98 180)
    (property "Sheetfile" "angle_board.kicad_sch")
    (property "Sheetname" "")
    (path "/a196238e-b9ec-4604-992b-a953d9be554d")
    (attr smd)
    (fp_text reference "J1.2" (at -0.000009 1.999989 unlocked) (layer "B.SilkS") hide
        (effects (font (size 1 1) (thickness 0.15)) (justify mirror))
      (tstamp b2cac11a-5f3b-43d7-88e5-8d0241ac6453)
    )
    (fp_text value "To Robot MCU" (at 0 -4 unlocked) (layer "B.Fab") hide
        (effects (font (size 1 1) (thickness 0.15)) (justify mirror))
      (tstamp c9ab240f-b898-4113-9b58-995237cd751a)
    )
    (fp_text user "${REFERENCE}" (at 0 -6 unlocked) (layer "B.Fab") hide
        (effects (font (size 1 1) (thickness 0.15)) (justify mirror))
      (tstamp 557d128f-cf69-4c70-9959-d139ac95c63c)
    )
    (pad "1" smd rect (at -7 0 180) (size 1 2.5) (layers "B.Cu" "B.Paste" "B.Mask")
      (net 1 "MCU_Vref") (pinfunction "Pin_1") (pintype "passive") (tstamp b285d77c-3eef-4763-b6e4-d7759b529dfd))
    (pad "2" smd rect (at -5 0 180) (size 1 2.5) (layers "B.Cu" "B.Paste" "B.Mask")
      (net 3 "MCU_RX") (pinfunction "Pin_2") (pintype "passive") (tstamp 856c0384-2dfc-47d2-a66c-a145c3149f14))
    (pad "3" smd rect (at -3 0 180) (size 1 2.5) (layers "B.Cu" "B.Paste" "B.Mask")
      (net 5 "MCU_TX") (pinfunction "Pin_3") (pintype "passive") (tstamp e4d0483b-1c21-4fb6-87dd-47e636746c0e))
    (pad "4" smd rect (at -1 0 180) (size 1 2.5) (layers "B.Cu" "B.Paste" "B.Mask")
      (net 7 "MCU_SWCLK") (pinfunction "Pin_4") (pintype "passive") (tstamp 4263a0e8-33fc-439f-9b56-889a4f5d7b26))
    (pad "5" smd rect (at 1 0 180) (size 1 2.5) (layers "B.Cu" "B.Paste" "B.Mask")
      (net 8 "MCU_SWDIO") (pinfunction "Pin_5") (pintype "passive") (tstamp 4223805d-8db1-4df1-b73a-3d99f37f1701))
    (pad "6" smd rect (at 3 0 180) (size 1 2.5) (layers "B.Cu" "B.Paste" "B.Mask")
      (net 16 "MCU_GND") (pinfunction "Pin_6") (pintype "passive") (tstamp 28f921ab-5f55-47f8-b726-02e567145cd5))
    (pad "7" smd rect (at 5 0 180) (size 1 2.5) (layers "B.Cu" "B.Paste" "B.Mask")
      (net 13 "MCU_NC1") (pinfunction "Pin_7") (pintype "passive") (tstamp e89e5b16-554a-4d97-8f95-fc89c9b40d74))
    (pad "8" smd rect (at 7 0 180) (size 1 2.5) (layers "B.Cu" "B.Paste" "B.Mask")
      (net 14 "MCU_NC2") (pinfunction "Pin_8") (pintype "passive") (tstamp 10e5ae6d-e43e-4ff8-abc5-fd9df16782da))
  )

  (gr_poly
    (pts
      (xy 68 94.5)
      (xy 67 94.5)
      (xy 67 100.25)
      (xy 51 100.25)
      (xy 51 94.5)
      (xy 50 94.5)
      (xy 50 82)
      (xy 68 82)
    )

    (stroke (width 0.2) (type solid)) (fill none) (layer "Edge.Cuts") (tstamp f839c4ee-4586-471d-9028-63223e3801ac))
  (gr_text "Place Header on this side" (at 59 88.5) (layer "B.SilkS") (tstamp 574676e9-357f-4594-b7d0-0f2ee7cefacd)
    (effects (font (size 0.75 0.75) (thickness 0.15)) (justify mirror))
  )
  (gr_text "Revision\n2024.04.0" (at 59 92) (layer "B.SilkS") (tstamp 7d2fa4a7-70f8-45cd-9e75-acee80fa3879)
    (effects (font (size 1 1) (thickness 0.15)) (justify mirror))
  )
  (gr_text "Dreame Gen3\nDebug Breakout Breakout" (at 59 89.25) (layer "F.SilkS") (tstamp 71afb75c-6556-449c-9820-43471c1bccb0)
    (effects (font (size 0.75 0.75) (thickness 0.1875)))
  )
  (gr_text "This side towards\nLidar tower" (at 59 93) (layer "F.SilkS") (tstamp ce02d32c-aa3a-4dd4-b227-d738ed5bce90)
    (effects (font (size 1 1) (thickness 0.15)))
  )

  (segment (start 66 98) (end 66 86) (width 0.25) (layer "B.Cu") (net 1) (tstamp 19eac67e-ff51-4805-ba95-5b45aba73a10))
  (segment (start 66.999511 84.999511) (end 66 84) (width 0.25) (layer "F.Cu") (net 2) (tstamp 435ba23d-4dbe-491c-9880-d61d0204f625))
  (segment (start 66.999511 87.000489) (end 66.999511 84.999511) (width 0.25) (layer "F.Cu") (net 2) (tstamp 584be67f-39e1-4647-b3eb-b039c4cbfae3))
  (segment (start 66 88) (end 66.999511 87.000489) (width 0.25) (layer "F.Cu") (net 2) (tstamp b7ed21ec-b951-49b9-98b2-a5aa5bedb8a5))
  (segment (start 66 98) (end 66 88) (width 0.25) (layer "F.Cu") (net 2) (tstamp ff460493-d2cb-4c47-b5c7-a673db873351))
  (segment (start 64 98) (end 64 86) (width 0.25) (layer "B.Cu") (net 3) (tstamp 7bd5ac06-6992-4168-9fcb-4856b83a7329))
  (segment (start 64.974511 84.974511) (end 64.974511 87.025489) (width 0.2) (layer "F.Cu") (net 4) (tstamp 0637256b-9c79-490a-83f4-52f9b9d884f4))
  (segment (start 64.974511 87.025489) (end 64 88) (width 0.2) (layer "F.Cu") (net 4) (tstamp 6b963872-cfa9-4e9e-8243-6dcdd36a990b))
  (segment (start 64 84) (end 64.974511 84.974511) (width 0.2) (layer "F.Cu") (net 4) (tstamp 6c159fdc-9245-48ed-8b42-212e2de7737f))
  (segment (start 64 88) (end 64 98) (width 0.2) (layer "F.Cu") (net 4) (tstamp c2fc9b4e-7655-4be8-a1b2-e256fca6c166))
  (segment (start 62 98) (end 62 86) (width 0.25) (layer "B.Cu") (net 5) (tstamp 8cd30bcc-98cb-456e-b76e-a4d46426eca8))
  (segment (start 62.974511 84.974511) (end 62 84) (width 0.2) (layer "F.Cu") (net 6) (tstamp 2af4706e-284c-4c13-b491-1fff1a0775c6))
  (segment (start 62 88) (end 62.974511 87.025489) (width 0.2) (layer "F.Cu") (net 6) (tstamp 8e38a53c-2ff6-4dab-903e-8bf50ad8f048))
  (segment (start 62 88) (end 62 98) (width 0.2) (layer "F.Cu") (net 6) (tstamp b809c4f2-d3e8-4020-8a90-a2cde5fab0a5))
  (segment (start 62.974511 87.025489) (end 62.974511 84.974511) (width 0.2) (layer "F.Cu") (net 6) (tstamp c8b25504-bfce-4c63-8f8f-7dad906cd953))
  (segment (start 60 98) (end 60 86) (width 0.25) (layer "B.Cu") (net 7) (tstamp 8ef6f0f1-41ae-477e-b22a-d6486bbcfcb5))
  (segment (start 58 98) (end 58 86) (width 0.25) (layer "B.Cu") (net 8) (tstamp 12754790-ac7a-440e-adf2-5bc0ac9472df))
  (segment (start 55.000489 86.914501) (end 55.000489 84.999511) (width 0.25) (layer "F.Cu") (net 9) (tstamp 316d8a10-053e-468c-83cf-237d1c929f49))
  (segment (start 55.000489 84.999511) (end 56 84) (width 0.25) (layer "F.Cu") (net 9) (tstamp 6960d6eb-f6f1-4de9-87ff-576797f41c26))
  (segment (start 56 87.914012) (end 55.000489 86.914501) (width 0.25) (layer "F.Cu") (net 9) (tstamp 9ce21d97-c0f1-41ba-8839-5a3d0209dec8))
  (segment (start 56 87.914012) (end 56 98) (width 0.25) (layer "F.Cu") (net 9) (tstamp dfefed08-e4ed-4a75-a377-0fc2e1d5d6fa))
  (segment (start 54 87.956761) (end 53.000489 86.95725) (width 0.25) (layer "F.Cu") (net 10) (tstamp 1d710a7c-aec3-4eeb-b455-bb5fe6fbd798))
  (segment (start 54 87.956761) (end 54 98) (width 0.25) (layer "F.Cu") (net 10) (tstamp 3cdb46b5-b7a1-446b-a727-fdbae221247c))
  (segment (start 53.000489 84.999511) (end 54 84) (width 0.25) (layer "F.Cu") (net 10) (tstamp a65f4b08-ed17-4666-991e-102dbdbbb7ae))
  (segment (start 53.000489 86.95725) (end 53.000489 84.999511) (width 0.25) (layer "F.Cu") (net 10) (tstamp c3d93cd2-7c4e-47b7-8647-4da7977b6b0b))
  (segment (start 51.000489 84.999511) (end 52 84) (width 0.25) (layer "F.Cu") (net 11) (tstamp 963e6348-5e97-4a50-8d0e-37eb9c0ee339))
  (segment (start 51.000489 87.000489) (end 51.000489 84.999511) (width 0.25) (layer "F.Cu") (net 11) (tstamp a58ea684-150d-4d81-8b01-46442beef6b7))
  (segment (start 52 88) (end 52 98) (width 0.25) (layer "F.Cu") (net 11) (tstamp bdf8a7f0-8a93-4ce8-81b2-124852bf56de))
  (segment (start 52 88) (end 51.000489 87.000489) (width 0.25) (layer "F.Cu") (net 11) (tstamp ef46135e-dd66-4180-afce-3d864d8f1866))
  (segment (start 60.999511 84.999511) (end 60.999511 87.000489) (width 0.25) (layer "F.Cu") (net 12) (tstamp 26a3c42f-fd3c-4e73-b6c1-3cea07d07900))
  (segment (start 60 84) (end 60.999511 84.999511) (width 0.25) (layer "F.Cu") (net 12) (tstamp 5f8e0162-24f6-4f8f-ae1c-1fd0c74da6a5))
  (segment (start 60 88) (end 60 98) (width 0.25) (layer "F.Cu") (net 12) (tstamp f78d226c-8665-4a60-a0b4-6eb9954e30f0))
  (segment (start 60.999511 87.000489) (end 60 88) (width 0.25) (layer "F.Cu") (net 12) (tstamp fd94687d-6e08-414d-96ca-cf41ac51516b))
  (segment (start 54 98) (end 54 86) (width 0.25) (layer "B.Cu") (net 13) (tstamp ccd7fd00-7c7b-43fe-8136-4a68da27fb95))
  (segment (start 52 98) (end 52 86) (width 0.25) (layer "B.Cu") (net 14) (tstamp a2f4b1b9-0bb2-46b9-b213-bcde70073745))
  (segment (start 57.000489 87.000489) (end 57.000489 84.999511) (width 0.25) (layer "F.Cu") (net 15) (tstamp 0241efd6-9329-48ae-8fe4-c21ea77b31b9))
  (segment (start 58 88) (end 58 98) (width 0.25) (layer "F.Cu") (net 15) (tstamp 0dfb9c1e-a13d-4f4d-ba33-9174bfdfa23c))
  (segment (start 57.000489 84.999511) (end 58 84) (width 0.25) (layer "F.Cu") (net 15) (tstamp a0e5c0cb-7588-45ea-acb1-dd37d343d9d3))
  (segment (start 58 88) (end 57.000489 87.000489) (width 0.25) (layer "F.Cu") (net 15) (tstamp de259ffa-59cd-469e-b575-5591576e5458))
  (segment (start 56 98) (end 56 86) (width 0.25) (layer "B.Cu") (net 16) (tstamp 4f5a9d18-5d63-4fd4-8c3c-ddabfb17c0a1))

)
