(kicad_sch (version 20230121) (generator eeschema)

  (uuid 8fde9fd1-86fe-434a-a346-326fbef137d6)

  (paper "A4")

  (lib_symbols
    (symbol "Connector:Conn_01x06_Pin" (pin_names (offset 1.016) hide) (in_bom yes) (on_board yes)
      (property "Reference" "J" (at 0 7.62 0)
        (effects (font (size 1.27 1.27)))
      )
      (property "Value" "Conn_01x06_Pin" (at 0 -10.16 0)
        (effects (font (size 1.27 1.27)))
      )
      (property "Footprint" "" (at 0 0 0)
        (effects (font (size 1.27 1.27)) hide)
      )
      (property "Datasheet" "~" (at 0 0 0)
        (effects (font (size 1.27 1.27)) hide)
      )
      (property "ki_locked" "" (at 0 0 0)
        (effects (font (size 1.27 1.27)))
      )
      (property "ki_keywords" "connector" (at 0 0 0)
        (effects (font (size 1.27 1.27)) hide)
      )
      (property "ki_description" "Generic connector, single row, 01x06, script generated" (at 0 0 0)
        (effects (font (size 1.27 1.27)) hide)
      )
      (property "ki_fp_filters" "Connector*:*_1x??_*" (at 0 0 0)
        (effects (font (size 1.27 1.27)) hide)
      )
      (symbol "Conn_01x06_Pin_1_1"
        (polyline
          (pts
            (xy 1.27 -7.62)
            (xy 0.8636 -7.62)
          )
          (stroke (width 0.1524) (type default))
          (fill (type none))
        )
        (polyline
          (pts
            (xy 1.27 -5.08)
            (xy 0.8636 -5.08)
          )
          (stroke (width 0.1524) (type default))
          (fill (type none))
        )
        (polyline
          (pts
            (xy 1.27 -2.54)
            (xy 0.8636 -2.54)
          )
          (stroke (width 0.1524) (type default))
          (fill (type none))
        )
        (polyline
          (pts
            (xy 1.27 0)
            (xy 0.8636 0)
          )
          (stroke (width 0.1524) (type default))
          (fill (type none))
        )
        (polyline
          (pts
            (xy 1.27 2.54)
            (xy 0.8636 2.54)
          )
          (stroke (width 0.1524) (type default))
          (fill (type none))
        )
        (polyline
          (pts
            (xy 1.27 5.08)
            (xy 0.8636 5.08)
          )
          (stroke (width 0.1524) (type default))
          (fill (type none))
        )
        (rectangle (start 0.8636 -7.493) (end 0 -7.747)
          (stroke (width 0.1524) (type default))
          (fill (type outline))
        )
        (rectangle (start 0.8636 -4.953) (end 0 -5.207)
          (stroke (width 0.1524) (type default))
          (fill (type outline))
        )
        (rectangle (start 0.8636 -2.413) (end 0 -2.667)
          (stroke (width 0.1524) (type default))
          (fill (type outline))
        )
        (rectangle (start 0.8636 0.127) (end 0 -0.127)
          (stroke (width 0.1524) (type default))
          (fill (type outline))
        )
        (rectangle (start 0.8636 2.667) (end 0 2.413)
          (stroke (width 0.1524) (type default))
          (fill (type outline))
        )
        (rectangle (start 0.8636 5.207) (end 0 4.953)
          (stroke (width 0.1524) (type default))
          (fill (type outline))
        )
        (pin passive line (at 5.08 5.08 180) (length 3.81)
          (name "Pin_1" (effects (font (size 1.27 1.27))))
          (number "1" (effects (font (size 1.27 1.27))))
        )
        (pin passive line (at 5.08 2.54 180) (length 3.81)
          (name "Pin_2" (effects (font (size 1.27 1.27))))
          (number "2" (effects (font (size 1.27 1.27))))
        )
        (pin passive line (at 5.08 0 180) (length 3.81)
          (name "Pin_3" (effects (font (size 1.27 1.27))))
          (number "3" (effects (font (size 1.27 1.27))))
        )
        (pin passive line (at 5.08 -2.54 180) (length 3.81)
          (name "Pin_4" (effects (font (size 1.27 1.27))))
          (number "4" (effects (font (size 1.27 1.27))))
        )
        (pin passive line (at 5.08 -5.08 180) (length 3.81)
          (name "Pin_5" (effects (font (size 1.27 1.27))))
          (number "5" (effects (font (size 1.27 1.27))))
        )
        (pin passive line (at 5.08 -7.62 180) (length 3.81)
          (name "Pin_6" (effects (font (size 1.27 1.27))))
          (number "6" (effects (font (size 1.27 1.27))))
        )
      )
    )
    (symbol "Connector:Conn_01x06_Socket" (pin_names (offset 1.016) hide) (in_bom yes) (on_board yes)
      (property "Reference" "J" (at 0 7.62 0)
        (effects (font (size 1.27 1.27)))
      )
      (property "Value" "Conn_01x06_Socket" (at 0 -10.16 0)
        (effects (font (size 1.27 1.27)))
      )
      (property "Footprint" "" (at 0 0 0)
        (effects (font (size 1.27 1.27)) hide)
      )
      (property "Datasheet" "~" (at 0 0 0)
        (effects (font (size 1.27 1.27)) hide)
      )
      (property "ki_locked" "" (at 0 0 0)
        (effects (font (size 1.27 1.27)))
      )
      (property "ki_keywords" "connector" (at 0 0 0)
        (effects (font (size 1.27 1.27)) hide)
      )
      (property "ki_description" "Generic connector, single row, 01x06, script generated" (at 0 0 0)
        (effects (font (size 1.27 1.27)) hide)
      )
      (property "ki_fp_filters" "Connector*:*_1x??_*" (at 0 0 0)
        (effects (font (size 1.27 1.27)) hide)
      )
      (symbol "Conn_01x06_Socket_1_1"
        (arc (start 0 -7.112) (mid -0.5058 -7.62) (end 0 -8.128)
          (stroke (width 0.1524) (type default))
          (fill (type none))
        )
        (arc (start 0 -4.572) (mid -0.5058 -5.08) (end 0 -5.588)
          (stroke (width 0.1524) (type default))
          (fill (type none))
        )
        (arc (start 0 -2.032) (mid -0.5058 -2.54) (end 0 -3.048)
          (stroke (width 0.1524) (type default))
          (fill (type none))
        )
        (polyline
          (pts
            (xy -1.27 -7.62)
            (xy -0.508 -7.62)
          )
          (stroke (width 0.1524) (type default))
          (fill (type none))
        )
        (polyline
          (pts
            (xy -1.27 -5.08)
            (xy -0.508 -5.08)
          )
          (stroke (width 0.1524) (type default))
          (fill (type none))
        )
        (polyline
          (pts
            (xy -1.27 -2.54)
            (xy -0.508 -2.54)
          )
          (stroke (width 0.1524) (type default))
          (fill (type none))
        )
        (polyline
          (pts
            (xy -1.27 0)
            (xy -0.508 0)
          )
          (stroke (width 0.1524) (type default))
          (fill (type none))
        )
        (polyline
          (pts
            (xy -1.27 2.54)
            (xy -0.508 2.54)
          )
          (stroke (width 0.1524) (type default))
          (fill (type none))
        )
        (polyline
          (pts
            (xy -1.27 5.08)
            (xy -0.508 5.08)
          )
          (stroke (width 0.1524) (type default))
          (fill (type none))
        )
        (arc (start 0 0.508) (mid -0.5058 0) (end 0 -0.508)
          (stroke (width 0.1524) (type default))
          (fill (type none))
        )
        (arc (start 0 3.048) (mid -0.5058 2.54) (end 0 2.032)
          (stroke (width 0.1524) (type default))
          (fill (type none))
        )
        (arc (start 0 5.588) (mid -0.5058 5.08) (end 0 4.572)
          (stroke (width 0.1524) (type default))
          (fill (type none))
        )
        (pin passive line (at -5.08 5.08 0) (length 3.81)
          (name "Pin_1" (effects (font (size 1.27 1.27))))
          (number "1" (effects (font (size 1.27 1.27))))
        )
        (pin passive line (at -5.08 2.54 0) (length 3.81)
          (name "Pin_2" (effects (font (size 1.27 1.27))))
          (number "2" (effects (font (size 1.27 1.27))))
        )
        (pin passive line (at -5.08 0 0) (length 3.81)
          (name "Pin_3" (effects (font (size 1.27 1.27))))
          (number "3" (effects (font (size 1.27 1.27))))
        )
        (pin passive line (at -5.08 -2.54 0) (length 3.81)
          (name "Pin_4" (effects (font (size 1.27 1.27))))
          (number "4" (effects (font (size 1.27 1.27))))
        )
        (pin passive line (at -5.08 -5.08 0) (length 3.81)
          (name "Pin_5" (effects (font (size 1.27 1.27))))
          (number "5" (effects (font (size 1.27 1.27))))
        )
        (pin passive line (at -5.08 -7.62 0) (length 3.81)
          (name "Pin_6" (effects (font (size 1.27 1.27))))
          (number "6" (effects (font (size 1.27 1.27))))
        )
      )
    )
    (symbol "Connector:TestPoint" (pin_numbers hide) (pin_names (offset 0.762) hide) (in_bom yes) (on_board yes)
      (property "Reference" "TP" (at 0 6.858 0)
        (effects (font (size 1.27 1.27)))
      )
      (property "Value" "TestPoint" (at 0 5.08 0)
        (effects (font (size 1.27 1.27)))
      )
      (property "Footprint" "" (at 5.08 0 0)
        (effects (font (size 1.27 1.27)) hide)
      )
      (property "Datasheet" "~" (at 5.08 0 0)
        (effects (font (size 1.27 1.27)) hide)
      )
      (property "ki_keywords" "test point tp" (at 0 0 0)
        (effects (font (size 1.27 1.27)) hide)
      )
      (property "ki_description" "test point" (at 0 0 0)
        (effects (font (size 1.27 1.27)) hide)
      )
      (property "ki_fp_filters" "Pin* Test*" (at 0 0 0)
        (effects (font (size 1.27 1.27)) hide)
      )
      (symbol "TestPoint_0_1"
        (circle (center 0 3.302) (radius 0.762)
          (stroke (width 0) (type default))
          (fill (type none))
        )
      )
      (symbol "TestPoint_1_1"
        (pin passive line (at 0 0 90) (length 2.54)
          (name "1" (effects (font (size 1.27 1.27))))
          (number "1" (effects (font (size 1.27 1.27))))
        )
      )
    )
    (symbol "power:+3V3" (power) (pin_names (offset 0)) (in_bom yes) (on_board yes)
      (property "Reference" "#PWR" (at 0 -3.81 0)
        (effects (font (size 1.27 1.27)) hide)
      )
      (property "Value" "+3V3" (at 0 3.556 0)
        (effects (font (size 1.27 1.27)))
      )
      (property "Footprint" "" (at 0 0 0)
        (effects (font (size 1.27 1.27)) hide)
      )
      (property "Datasheet" "" (at 0 0 0)
        (effects (font (size 1.27 1.27)) hide)
      )
      (property "ki_keywords" "global power" (at 0 0 0)
        (effects (font (size 1.27 1.27)) hide)
      )
      (property "ki_description" "Power symbol creates a global label with name \"+3V3\"" (at 0 0 0)
        (effects (font (size 1.27 1.27)) hide)
      )
      (symbol "+3V3_0_1"
        (polyline
          (pts
            (xy -0.762 1.27)
            (xy 0 2.54)
          )
          (stroke (width 0) (type default))
          (fill (type none))
        )
        (polyline
          (pts
            (xy 0 0)
            (xy 0 2.54)
          )
          (stroke (width 0) (type default))
          (fill (type none))
        )
        (polyline
          (pts
            (xy 0 2.54)
            (xy 0.762 1.27)
          )
          (stroke (width 0) (type default))
          (fill (type none))
        )
      )
      (symbol "+3V3_1_1"
        (pin power_in line (at 0 0 90) (length 0) hide
          (name "+3V3" (effects (font (size 1.27 1.27))))
          (number "1" (effects (font (size 1.27 1.27))))
        )
      )
    )
    (symbol "power:GND" (power) (pin_names (offset 0)) (in_bom yes) (on_board yes)
      (property "Reference" "#PWR" (at 0 -6.35 0)
        (effects (font (size 1.27 1.27)) hide)
      )
      (property "Value" "GND" (at 0 -3.81 0)
        (effects (font (size 1.27 1.27)))
      )
      (property "Footprint" "" (at 0 0 0)
        (effects (font (size 1.27 1.27)) hide)
      )
      (property "Datasheet" "" (at 0 0 0)
        (effects (font (size 1.27 1.27)) hide)
      )
      (property "ki_keywords" "global power" (at 0 0 0)
        (effects (font (size 1.27 1.27)) hide)
      )
      (property "ki_description" "Power symbol creates a global label with name \"GND\" , ground" (at 0 0 0)
        (effects (font (size 1.27 1.27)) hide)
      )
      (symbol "GND_0_1"
        (polyline
          (pts
            (xy 0 0)
            (xy 0 -1.27)
            (xy 1.27 -1.27)
            (xy 0 -2.54)
            (xy -1.27 -1.27)
            (xy 0 -1.27)
          )
          (stroke (width 0) (type default))
          (fill (type none))
        )
      )
      (symbol "GND_1_1"
        (pin power_in line (at 0 0 270) (length 0) hide
          (name "GND" (effects (font (size 1.27 1.27))))
          (number "1" (effects (font (size 1.27 1.27))))
        )
      )
    )
  )

  (junction (at 54.61 87.63) (diameter 0) (color 0 0 0 0)
    (uuid 1b7612b9-ed67-4988-8ad7-061effc03084)
  )
  (junction (at 96.52 88.9) (diameter 0) (color 0 0 0 0)
    (uuid 326812ad-fd33-41fc-bdff-867b2efe22fd)
  )
  (junction (at 54.61 82.55) (diameter 0) (color 0 0 0 0)
    (uuid 34f562bc-7e11-4253-b8fb-39577b7857ae)
  )

  (wire (pts (xy 59.69 62.23) (xy 59.69 63.5))
    (stroke (width 0) (type default))
    (uuid 095a947d-fc8f-4c9b-8c05-1181672167bc)
  )
  (wire (pts (xy 106.68 62.23) (xy 118.11 62.23))
    (stroke (width 0) (type default))
    (uuid 0c319f7c-22b2-4f8b-ab0b-91a9342a50eb)
  )
  (wire (pts (xy 64.77 85.09) (xy 76.2 85.09))
    (stroke (width 0) (type default))
    (uuid 11a38c69-0f84-4b9d-8370-d517d8958344)
  )
  (wire (pts (xy 106.68 59.69) (xy 118.11 59.69))
    (stroke (width 0) (type default))
    (uuid 32882ee2-18ce-411c-ac67-dfd86f7900f7)
  )
  (wire (pts (xy 106.68 67.31) (xy 118.11 67.31))
    (stroke (width 0) (type default))
    (uuid 34a21bdc-98ba-41d6-abe5-21797e143984)
  )
  (wire (pts (xy 106.68 57.15) (xy 118.11 57.15))
    (stroke (width 0) (type default))
    (uuid 373d3af4-dfcc-4d1d-bffe-4a797c018201)
  )
  (wire (pts (xy 64.77 64.77) (xy 76.2 64.77))
    (stroke (width 0) (type default))
    (uuid 4906ab70-ec2a-45af-9a25-f8718d602279)
  )
  (wire (pts (xy 64.77 67.31) (xy 76.2 67.31))
    (stroke (width 0) (type default))
    (uuid 5a811959-a948-4b0d-869f-c6aea62ec748)
  )
  (wire (pts (xy 54.61 82.55) (xy 76.2 82.55))
    (stroke (width 0) (type default))
    (uuid 5ff00e50-f53f-49e3-aae8-01c60df200fd)
  )
  (wire (pts (xy 101.6 64.77) (xy 101.6 66.04))
    (stroke (width 0) (type default))
    (uuid 625f0482-8db3-4013-9c41-d4e610a30d95)
  )
  (wire (pts (xy 64.77 95.25) (xy 76.2 95.25))
    (stroke (width 0) (type default))
    (uuid 757abbaf-f779-49f5-8759-fa5625fe717d)
  )
  (wire (pts (xy 64.77 69.85) (xy 76.2 69.85))
    (stroke (width 0) (type default))
    (uuid 78109711-8143-48e7-82c2-164ab02b8b5d)
  )
  (wire (pts (xy 64.77 90.17) (xy 76.2 90.17))
    (stroke (width 0) (type default))
    (uuid 79eddded-979f-4d29-98db-2e042b822b36)
  )
  (wire (pts (xy 106.68 83.82) (xy 118.11 83.82))
    (stroke (width 0) (type default))
    (uuid 7be0fe10-5167-46ab-9edf-5c022a4a3b8c)
  )
  (wire (pts (xy 64.77 92.71) (xy 76.2 92.71))
    (stroke (width 0) (type default))
    (uuid 804a0933-83aa-4489-a1e8-e66f089c8cf7)
  )
  (wire (pts (xy 96.52 88.9) (xy 96.52 90.17))
    (stroke (width 0) (type default))
    (uuid 83464b2a-1818-4e27-b09a-67f9cf4dd040)
  )
  (wire (pts (xy 106.68 81.28) (xy 118.11 81.28))
    (stroke (width 0) (type default))
    (uuid 8a2e5789-5951-4354-bf53-7891468a3eb0)
  )
  (wire (pts (xy 106.68 86.36) (xy 118.11 86.36))
    (stroke (width 0) (type default))
    (uuid 9fe83929-1fb7-47a2-8e9b-13e1b2c16350)
  )
  (wire (pts (xy 106.68 91.44) (xy 118.11 91.44))
    (stroke (width 0) (type default))
    (uuid b2173ce2-a397-49b0-a5d8-fc2fad201862)
  )
  (wire (pts (xy 54.61 87.63) (xy 76.2 87.63))
    (stroke (width 0) (type default))
    (uuid ba7dbb44-2e0f-4d30-b088-62f76780e2bc)
  )
  (wire (pts (xy 76.2 62.23) (xy 59.69 62.23))
    (stroke (width 0) (type default))
    (uuid bebc7923-361e-4ea8-aaa1-87733f999021)
  )
  (wire (pts (xy 64.77 59.69) (xy 76.2 59.69))
    (stroke (width 0) (type default))
    (uuid c2a9f4de-1e62-4bfb-849a-c6e70edc3506)
  )
  (wire (pts (xy 54.61 87.63) (xy 54.61 88.9))
    (stroke (width 0) (type default))
    (uuid c5e72cab-bbe1-41cf-9218-cfe8b9914a72)
  )
  (wire (pts (xy 118.11 64.77) (xy 101.6 64.77))
    (stroke (width 0) (type default))
    (uuid cf4a0a57-eea0-41d2-95fb-31cc98621c64)
  )
  (wire (pts (xy 106.68 93.98) (xy 118.11 93.98))
    (stroke (width 0) (type default))
    (uuid e8769d66-780f-4217-88ef-d53135ead4c2)
  )
  (wire (pts (xy 59.69 54.61) (xy 59.69 57.15))
    (stroke (width 0) (type default))
    (uuid f1dbecd2-2e9f-41ca-b58c-a1d387fca97c)
  )
  (wire (pts (xy 59.69 57.15) (xy 76.2 57.15))
    (stroke (width 0) (type default))
    (uuid f3623c34-d549-4510-9cdd-9b100850ddc4)
  )
  (wire (pts (xy 106.68 69.85) (xy 118.11 69.85))
    (stroke (width 0) (type default))
    (uuid f4d86007-696d-4d08-a064-1e1205b4582e)
  )
  (wire (pts (xy 118.11 88.9) (xy 96.52 88.9))
    (stroke (width 0) (type default))
    (uuid f65ddfda-4303-459f-a25f-9f059f35dc46)
  )
  (wire (pts (xy 54.61 81.28) (xy 54.61 82.55))
    (stroke (width 0) (type default))
    (uuid fc09af91-fb41-435e-8743-4835407b73b6)
  )

  (label "IMU_INT" (at 64.77 95.25 0) (fields_autoplaced)
    (effects (font (size 1.27 1.27)) (justify left bottom))
    (uuid 04f64d49-4899-493f-9c12-794f6512be42)
  )
  (label "IMU_SDO" (at 106.68 91.44 0) (fields_autoplaced)
    (effects (font (size 1.27 1.27)) (justify left bottom))
    (uuid 06257fc5-8128-49f5-ac14-03580501025e)
  )
  (label "IMU_AD" (at 106.68 59.69 0) (fields_autoplaced)
    (effects (font (size 1.27 1.27)) (justify left bottom))
    (uuid 07059990-cfb5-45f8-93a0-66bb348186dc)
  )
  (label "IMU_AD" (at 106.68 83.82 0) (fields_autoplaced)
    (effects (font (size 1.27 1.27)) (justify left bottom))
    (uuid 15e7a05e-b17d-48df-a8a9-13981e1c8929)
  )
  (label "IMU_FS" (at 106.68 81.28 0) (fields_autoplaced)
    (effects (font (size 1.27 1.27)) (justify left bottom))
    (uuid 2207769f-e978-4fbd-b0f2-3ab054bb5d62)
  )
  (label "IMU_SDA" (at 64.77 67.31 0) (fields_autoplaced)
    (effects (font (size 1.27 1.27)) (justify left bottom))
    (uuid 2751bf21-75a5-4be0-9aff-db1ae3f0f6e3)
  )
  (label "IMU_CS" (at 106.68 69.85 0) (fields_autoplaced)
    (effects (font (size 1.27 1.27)) (justify left bottom))
    (uuid 3209cbd7-fea8-458d-803f-f0f8b4b79039)
  )
  (label "IMU_AC" (at 106.68 62.23 0) (fields_autoplaced)
    (effects (font (size 1.27 1.27)) (justify left bottom))
    (uuid 679d96e3-1ec8-4616-9cf4-8115bc64821a)
  )
  (label "IMU_AC" (at 106.68 86.36 0) (fields_autoplaced)
    (effects (font (size 1.27 1.27)) (justify left bottom))
    (uuid 6c2cea10-ec42-4b0b-b1c2-5a1b42aa7d25)
  )
  (label "IMU_1V8" (at 64.77 85.09 0) (fields_autoplaced)
    (effects (font (size 1.27 1.27)) (justify left bottom))
    (uuid 83619b8c-d631-407d-be25-2927ef1db596)
  )
  (label "IMU_SDO" (at 106.68 67.31 0) (fields_autoplaced)
    (effects (font (size 1.27 1.27)) (justify left bottom))
    (uuid 8408a732-0abe-4752-bd07-e1bed82910da)
  )
  (label "IMU_1V8" (at 64.77 59.69 0) (fields_autoplaced)
    (effects (font (size 1.27 1.27)) (justify left bottom))
    (uuid 91194e71-7702-43b4-87fd-5efa1f32d349)
  )
  (label "IMU_CS" (at 106.68 93.98 0) (fields_autoplaced)
    (effects (font (size 1.27 1.27)) (justify left bottom))
    (uuid 9cd463a3-a42f-4c14-8bd1-760d1cd608ce)
  )
  (label "IMU_SCL" (at 64.77 90.17 0) (fields_autoplaced)
    (effects (font (size 1.27 1.27)) (justify left bottom))
    (uuid 9f64a056-d526-47d1-b9a4-bf42e996dd97)
  )
  (label "IMU_INT" (at 64.77 69.85 0) (fields_autoplaced)
    (effects (font (size 1.27 1.27)) (justify left bottom))
    (uuid a8ddd4bb-853d-4b87-8783-2d31b832aae6)
  )
  (label "IMU_FS" (at 106.68 57.15 0) (fields_autoplaced)
    (effects (font (size 1.27 1.27)) (justify left bottom))
    (uuid ab9d7909-bf52-4055-a657-c1f57649b407)
  )
  (label "IMU_SCL" (at 64.77 64.77 0) (fields_autoplaced)
    (effects (font (size 1.27 1.27)) (justify left bottom))
    (uuid c5951a52-93d2-4f2f-bea9-71e23b5d24ea)
  )
  (label "IMU_SDA" (at 64.77 92.71 0) (fields_autoplaced)
    (effects (font (size 1.27 1.27)) (justify left bottom))
    (uuid ff8696eb-b382-489a-b597-8d8e8a7e1a73)
  )

  (symbol (lib_id "power:GND") (at 59.69 63.5 0) (unit 1)
    (in_bom yes) (on_board yes) (dnp no) (fields_autoplaced)
    (uuid 07afbedb-2de7-4280-bda4-6f7d1d346fa9)
    (property "Reference" "#PWR?" (at 59.69 69.85 0)
      (effects (font (size 1.27 1.27)) hide)
    )
    (property "Value" "GND" (at 59.69 68.58 0)
      (effects (font (size 1.27 1.27)))
    )
    (property "Footprint" "" (at 59.69 63.5 0)
      (effects (font (size 1.27 1.27)) hide)
    )
    (property "Datasheet" "" (at 59.69 63.5 0)
      (effects (font (size 1.27 1.27)) hide)
    )
    (pin "1" (uuid e98f13c7-91e9-4aaf-94ba-71aaf74962e6))
    (instances
      (project "POC-TB"
        (path "/4b0101fb-345d-4dc9-888f-9906c9e8d5c9/8021701e-b4c6-499a-9597-0d215989a0f0"
          (reference "#PWR?") (unit 1)
        )
      )
    )
  )

  (symbol (lib_id "power:GND") (at 54.61 88.9 0) (unit 1)
    (in_bom yes) (on_board yes) (dnp no)
    (uuid 0c109ea7-2d23-406c-9bee-3369ebce5acb)
    (property "Reference" "#PWR?" (at 54.61 95.25 0)
      (effects (font (size 1.27 1.27)) hide)
    )
    (property "Value" "GND" (at 50.8 91.44 0)
      (effects (font (size 1.27 1.27)))
    )
    (property "Footprint" "" (at 54.61 88.9 0)
      (effects (font (size 1.27 1.27)) hide)
    )
    (property "Datasheet" "" (at 54.61 88.9 0)
      (effects (font (size 1.27 1.27)) hide)
    )
    (pin "1" (uuid bc211748-97f9-4c87-8639-e489d24ef750))
    (instances
      (project "POC-TB"
        (path "/4b0101fb-345d-4dc9-888f-9906c9e8d5c9/8021701e-b4c6-499a-9597-0d215989a0f0"
          (reference "#PWR?") (unit 1)
        )
      )
    )
  )

  (symbol (lib_id "Connector:TestPoint") (at 106.68 91.44 90) (unit 1)
    (in_bom yes) (on_board yes) (dnp no)
    (uuid 0dad8fab-ecff-4fa7-9b55-a894c95ee4f4)
    (property "Reference" "TP?" (at 100.33 91.44 90)
      (effects (font (size 1.27 1.27)))
    )
    (property "Value" "TestPoint" (at 103.378 88.9 90)
      (effects (font (size 1.27 1.27)) hide)
    )
    (property "Footprint" "" (at 106.68 86.36 0)
      (effects (font (size 1.27 1.27)) hide)
    )
    (property "Datasheet" "~" (at 106.68 86.36 0)
      (effects (font (size 1.27 1.27)) hide)
    )
    (pin "1" (uuid 82fe6935-f425-46b2-bf75-39cda4b21e97))
    (instances
      (project "POC-TB"
        (path "/4b0101fb-345d-4dc9-888f-9906c9e8d5c9/8021701e-b4c6-499a-9597-0d215989a0f0"
          (reference "TP?") (unit 1)
        )
      )
    )
  )

  (symbol (lib_id "Connector:TestPoint") (at 54.61 87.63 90) (unit 1)
    (in_bom yes) (on_board yes) (dnp no)
    (uuid 138d77ee-8bb2-4d9d-9750-550bf148e535)
    (property "Reference" "TP?" (at 48.26 87.63 90)
      (effects (font (size 1.27 1.27)))
    )
    (property "Value" "TestPoint" (at 51.308 85.09 90)
      (effects (font (size 1.27 1.27)) hide)
    )
    (property "Footprint" "" (at 54.61 82.55 0)
      (effects (font (size 1.27 1.27)) hide)
    )
    (property "Datasheet" "~" (at 54.61 82.55 0)
      (effects (font (size 1.27 1.27)) hide)
    )
    (pin "1" (uuid 706bb840-f86c-47e8-8c21-f72888f91013))
    (instances
      (project "POC-TB"
        (path "/4b0101fb-345d-4dc9-888f-9906c9e8d5c9/8021701e-b4c6-499a-9597-0d215989a0f0"
          (reference "TP?") (unit 1)
        )
      )
    )
  )

  (symbol (lib_id "Connector:Conn_01x06_Pin") (at 123.19 86.36 0) (mirror y) (unit 1)
    (in_bom yes) (on_board yes) (dnp no)
    (uuid 2f68d217-b099-4dee-9e9e-4455c456b121)
    (property "Reference" "J?" (at 118.11 77.47 0)
      (effects (font (size 1.27 1.27)) (justify right))
    )
    (property "Value" "Conn_01x06_Pin" (at 118.11 96.52 0)
      (effects (font (size 1.27 1.27)) (justify right))
    )
    (property "Footprint" "" (at 123.19 86.36 0)
      (effects (font (size 1.27 1.27)) hide)
    )
    (property "Datasheet" "~" (at 123.19 86.36 0)
      (effects (font (size 1.27 1.27)) hide)
    )
    (pin "1" (uuid 3b77d1e8-d816-4ab2-9c7f-12bd0e7456b9))
    (pin "2" (uuid 692a963e-aa12-4d48-adf2-09d5cb3c60f4))
    (pin "3" (uuid e355ba5e-0aca-4866-9730-8996a49ae9b8))
    (pin "4" (uuid c875dc32-53fc-492a-a8bb-c2085f6253ad))
    (pin "5" (uuid 311ed6b6-6666-47e8-81c0-e3d15c6e397d))
    (pin "6" (uuid c14c4e8e-05c7-4a2a-ba00-d93c5d0bf123))
    (instances
      (project "POC-TB"
        (path "/4b0101fb-345d-4dc9-888f-9906c9e8d5c9/8021701e-b4c6-499a-9597-0d215989a0f0"
          (reference "J?") (unit 1)
        )
      )
    )
  )

  (symbol (lib_id "power:+3V3") (at 59.69 54.61 0) (unit 1)
    (in_bom yes) (on_board yes) (dnp no) (fields_autoplaced)
    (uuid 330ad7a3-a6b5-46c9-8ce3-85f26d0798bd)
    (property "Reference" "#PWR?" (at 59.69 58.42 0)
      (effects (font (size 1.27 1.27)) hide)
    )
    (property "Value" "+3V3" (at 59.69 49.53 0)
      (effects (font (size 1.27 1.27)))
    )
    (property "Footprint" "" (at 59.69 54.61 0)
      (effects (font (size 1.27 1.27)) hide)
    )
    (property "Datasheet" "" (at 59.69 54.61 0)
      (effects (font (size 1.27 1.27)) hide)
    )
    (pin "1" (uuid 347e7dda-1b0d-4601-835c-6bc5fd03b93d))
    (instances
      (project "POC-TB"
        (path "/4b0101fb-345d-4dc9-888f-9906c9e8d5c9/8021701e-b4c6-499a-9597-0d215989a0f0"
          (reference "#PWR?") (unit 1)
        )
      )
    )
  )

  (symbol (lib_id "Connector:TestPoint") (at 64.77 90.17 90) (unit 1)
    (in_bom yes) (on_board yes) (dnp no)
    (uuid 444b0262-4ede-450c-9535-b9ff0383cc63)
    (property "Reference" "TP?" (at 58.42 90.17 90)
      (effects (font (size 1.27 1.27)))
    )
    (property "Value" "TestPoint" (at 61.468 87.63 90)
      (effects (font (size 1.27 1.27)) hide)
    )
    (property "Footprint" "" (at 64.77 85.09 0)
      (effects (font (size 1.27 1.27)) hide)
    )
    (property "Datasheet" "~" (at 64.77 85.09 0)
      (effects (font (size 1.27 1.27)) hide)
    )
    (pin "1" (uuid 5d857add-f4d8-4eec-a7b0-a9ef2d5edf94))
    (instances
      (project "POC-TB"
        (path "/4b0101fb-345d-4dc9-888f-9906c9e8d5c9/8021701e-b4c6-499a-9597-0d215989a0f0"
          (reference "TP?") (unit 1)
        )
      )
    )
  )

  (symbol (lib_id "power:GND") (at 96.52 90.17 0) (unit 1)
    (in_bom yes) (on_board yes) (dnp no)
    (uuid 55b5bff4-275e-42a8-b00f-af7a748e376c)
    (property "Reference" "#PWR?" (at 96.52 96.52 0)
      (effects (font (size 1.27 1.27)) hide)
    )
    (property "Value" "GND" (at 92.71 92.71 0)
      (effects (font (size 1.27 1.27)))
    )
    (property "Footprint" "" (at 96.52 90.17 0)
      (effects (font (size 1.27 1.27)) hide)
    )
    (property "Datasheet" "" (at 96.52 90.17 0)
      (effects (font (size 1.27 1.27)) hide)
    )
    (pin "1" (uuid 38fd2dfb-2545-44f3-ab3a-30f405688a89))
    (instances
      (project "POC-TB"
        (path "/4b0101fb-345d-4dc9-888f-9906c9e8d5c9/8021701e-b4c6-499a-9597-0d215989a0f0"
          (reference "#PWR?") (unit 1)
        )
      )
    )
  )

  (symbol (lib_id "Connector:TestPoint") (at 54.61 82.55 90) (unit 1)
    (in_bom yes) (on_board yes) (dnp no)
    (uuid 5fc1ade9-00db-4611-9b88-86afd4ae7c83)
    (property "Reference" "TP?" (at 48.26 82.55 90)
      (effects (font (size 1.27 1.27)))
    )
    (property "Value" "TestPoint" (at 51.308 80.01 90)
      (effects (font (size 1.27 1.27)) hide)
    )
    (property "Footprint" "" (at 54.61 77.47 0)
      (effects (font (size 1.27 1.27)) hide)
    )
    (property "Datasheet" "~" (at 54.61 77.47 0)
      (effects (font (size 1.27 1.27)) hide)
    )
    (pin "1" (uuid 75e61b8c-1644-49f6-8b63-3befe0afc9d3))
    (instances
      (project "POC-TB"
        (path "/4b0101fb-345d-4dc9-888f-9906c9e8d5c9/8021701e-b4c6-499a-9597-0d215989a0f0"
          (reference "TP?") (unit 1)
        )
      )
    )
  )

  (symbol (lib_id "Connector:Conn_01x06_Pin") (at 81.28 87.63 0) (mirror y) (unit 1)
    (in_bom yes) (on_board yes) (dnp no)
    (uuid 5fd20ebd-5da7-4301-9f93-852ba2ad461c)
    (property "Reference" "J?" (at 76.2 78.74 0)
      (effects (font (size 1.27 1.27)) (justify right))
    )
    (property "Value" "Conn_01x06_Pin" (at 76.2 97.79 0)
      (effects (font (size 1.27 1.27)) (justify right))
    )
    (property "Footprint" "" (at 81.28 87.63 0)
      (effects (font (size 1.27 1.27)) hide)
    )
    (property "Datasheet" "~" (at 81.28 87.63 0)
      (effects (font (size 1.27 1.27)) hide)
    )
    (pin "1" (uuid 130dd314-f607-4492-be7a-6656c1a103eb))
    (pin "2" (uuid 48e44ae4-f2d3-427b-bd25-80dc58e00c94))
    (pin "3" (uuid 6b58927c-f742-4709-9a4d-59958e1705a0))
    (pin "4" (uuid 4bcccfa0-3782-415e-bf1c-b34e736fde2c))
    (pin "5" (uuid f848ed29-7123-487a-9f3e-22b639bf0f53))
    (pin "6" (uuid 21ba057c-a067-487c-bbda-fd5fa4f4edec))
    (instances
      (project "POC-TB"
        (path "/4b0101fb-345d-4dc9-888f-9906c9e8d5c9/8021701e-b4c6-499a-9597-0d215989a0f0"
          (reference "J?") (unit 1)
        )
      )
    )
  )

  (symbol (lib_id "power:+3V3") (at 54.61 81.28 0) (unit 1)
    (in_bom yes) (on_board yes) (dnp no) (fields_autoplaced)
    (uuid 62ff728a-679f-4b77-8f53-ce4ca0f3721e)
    (property "Reference" "#PWR?" (at 54.61 85.09 0)
      (effects (font (size 1.27 1.27)) hide)
    )
    (property "Value" "+3V3" (at 54.61 76.2 0)
      (effects (font (size 1.27 1.27)))
    )
    (property "Footprint" "" (at 54.61 81.28 0)
      (effects (font (size 1.27 1.27)) hide)
    )
    (property "Datasheet" "" (at 54.61 81.28 0)
      (effects (font (size 1.27 1.27)) hide)
    )
    (pin "1" (uuid ddc0ff84-e147-4a85-a140-ac2c04377e72))
    (instances
      (project "POC-TB"
        (path "/4b0101fb-345d-4dc9-888f-9906c9e8d5c9/8021701e-b4c6-499a-9597-0d215989a0f0"
          (reference "#PWR?") (unit 1)
        )
      )
    )
  )

  (symbol (lib_id "Connector:TestPoint") (at 64.77 92.71 90) (unit 1)
    (in_bom yes) (on_board yes) (dnp no)
    (uuid 6c3c4f40-ac87-4083-b72a-15698859c3ac)
    (property "Reference" "TP?" (at 58.42 92.71 90)
      (effects (font (size 1.27 1.27)))
    )
    (property "Value" "TestPoint" (at 61.468 90.17 90)
      (effects (font (size 1.27 1.27)) hide)
    )
    (property "Footprint" "" (at 64.77 87.63 0)
      (effects (font (size 1.27 1.27)) hide)
    )
    (property "Datasheet" "~" (at 64.77 87.63 0)
      (effects (font (size 1.27 1.27)) hide)
    )
    (pin "1" (uuid 900d1716-49c2-4f65-9bb0-2a6c41d55cb2))
    (instances
      (project "POC-TB"
        (path "/4b0101fb-345d-4dc9-888f-9906c9e8d5c9/8021701e-b4c6-499a-9597-0d215989a0f0"
          (reference "TP?") (unit 1)
        )
      )
    )
  )

  (symbol (lib_id "Connector:TestPoint") (at 96.52 88.9 90) (unit 1)
    (in_bom yes) (on_board yes) (dnp no)
    (uuid 898adbae-7542-4358-8e53-411e10872a4a)
    (property "Reference" "TP?" (at 90.17 88.9 90)
      (effects (font (size 1.27 1.27)))
    )
    (property "Value" "TestPoint" (at 93.218 86.36 90)
      (effects (font (size 1.27 1.27)) hide)
    )
    (property "Footprint" "" (at 96.52 83.82 0)
      (effects (font (size 1.27 1.27)) hide)
    )
    (property "Datasheet" "~" (at 96.52 83.82 0)
      (effects (font (size 1.27 1.27)) hide)
    )
    (pin "1" (uuid 3d9de650-b1bd-4159-b5bb-63abad2ad5f9))
    (instances
      (project "POC-TB"
        (path "/4b0101fb-345d-4dc9-888f-9906c9e8d5c9/8021701e-b4c6-499a-9597-0d215989a0f0"
          (reference "TP?") (unit 1)
        )
      )
    )
  )

  (symbol (lib_id "Connector:TestPoint") (at 106.68 81.28 90) (unit 1)
    (in_bom yes) (on_board yes) (dnp no)
    (uuid 98c33587-32c5-471e-a1ca-0eaf40cd22ae)
    (property "Reference" "TP?" (at 100.33 81.28 90)
      (effects (font (size 1.27 1.27)))
    )
    (property "Value" "TestPoint" (at 103.378 78.74 90)
      (effects (font (size 1.27 1.27)) hide)
    )
    (property "Footprint" "" (at 106.68 76.2 0)
      (effects (font (size 1.27 1.27)) hide)
    )
    (property "Datasheet" "~" (at 106.68 76.2 0)
      (effects (font (size 1.27 1.27)) hide)
    )
    (pin "1" (uuid d6c946c8-7ff7-48cf-abf9-4f86c563767d))
    (instances
      (project "POC-TB"
        (path "/4b0101fb-345d-4dc9-888f-9906c9e8d5c9/8021701e-b4c6-499a-9597-0d215989a0f0"
          (reference "TP?") (unit 1)
        )
      )
    )
  )

  (symbol (lib_id "Connector:TestPoint") (at 106.68 83.82 90) (unit 1)
    (in_bom yes) (on_board yes) (dnp no)
    (uuid b02b50bb-6f8c-4c62-9cb4-f98f0e8864d4)
    (property "Reference" "TP?" (at 100.33 83.82 90)
      (effects (font (size 1.27 1.27)))
    )
    (property "Value" "TestPoint" (at 103.378 81.28 90)
      (effects (font (size 1.27 1.27)) hide)
    )
    (property "Footprint" "" (at 106.68 78.74 0)
      (effects (font (size 1.27 1.27)) hide)
    )
    (property "Datasheet" "~" (at 106.68 78.74 0)
      (effects (font (size 1.27 1.27)) hide)
    )
    (pin "1" (uuid 04e3d938-4310-48b2-86bc-91d10f13b5c0))
    (instances
      (project "POC-TB"
        (path "/4b0101fb-345d-4dc9-888f-9906c9e8d5c9/8021701e-b4c6-499a-9597-0d215989a0f0"
          (reference "TP?") (unit 1)
        )
      )
    )
  )

  (symbol (lib_id "Connector:TestPoint") (at 64.77 85.09 90) (unit 1)
    (in_bom yes) (on_board yes) (dnp no)
    (uuid b17ef0f4-a9be-4ba6-8c10-5b63b788d147)
    (property "Reference" "TP?" (at 58.42 85.09 90)
      (effects (font (size 1.27 1.27)))
    )
    (property "Value" "TestPoint" (at 61.468 82.55 90)
      (effects (font (size 1.27 1.27)) hide)
    )
    (property "Footprint" "" (at 64.77 80.01 0)
      (effects (font (size 1.27 1.27)) hide)
    )
    (property "Datasheet" "~" (at 64.77 80.01 0)
      (effects (font (size 1.27 1.27)) hide)
    )
    (pin "1" (uuid 441b00d9-f191-4315-972a-84f63053577d))
    (instances
      (project "POC-TB"
        (path "/4b0101fb-345d-4dc9-888f-9906c9e8d5c9/8021701e-b4c6-499a-9597-0d215989a0f0"
          (reference "TP?") (unit 1)
        )
      )
    )
  )

  (symbol (lib_id "Connector:TestPoint") (at 106.68 86.36 90) (unit 1)
    (in_bom yes) (on_board yes) (dnp no)
    (uuid c2e95f11-3fbd-496c-aae5-594f0b1d1ad1)
    (property "Reference" "TP?" (at 100.33 86.36 90)
      (effects (font (size 1.27 1.27)))
    )
    (property "Value" "TestPoint" (at 103.378 83.82 90)
      (effects (font (size 1.27 1.27)) hide)
    )
    (property "Footprint" "" (at 106.68 81.28 0)
      (effects (font (size 1.27 1.27)) hide)
    )
    (property "Datasheet" "~" (at 106.68 81.28 0)
      (effects (font (size 1.27 1.27)) hide)
    )
    (pin "1" (uuid bccc08cd-4a20-4133-bba8-8a892bf40233))
    (instances
      (project "POC-TB"
        (path "/4b0101fb-345d-4dc9-888f-9906c9e8d5c9/8021701e-b4c6-499a-9597-0d215989a0f0"
          (reference "TP?") (unit 1)
        )
      )
    )
  )

  (symbol (lib_id "Connector:TestPoint") (at 64.77 95.25 90) (unit 1)
    (in_bom yes) (on_board yes) (dnp no)
    (uuid c6b01e18-8bd5-4195-b42e-e2cc2354726b)
    (property "Reference" "TP?" (at 58.42 95.25 90)
      (effects (font (size 1.27 1.27)))
    )
    (property "Value" "TestPoint" (at 61.468 92.71 90)
      (effects (font (size 1.27 1.27)) hide)
    )
    (property "Footprint" "" (at 64.77 90.17 0)
      (effects (font (size 1.27 1.27)) hide)
    )
    (property "Datasheet" "~" (at 64.77 90.17 0)
      (effects (font (size 1.27 1.27)) hide)
    )
    (pin "1" (uuid c2d08464-009d-49fc-b848-36cc79f1de7c))
    (instances
      (project "POC-TB"
        (path "/4b0101fb-345d-4dc9-888f-9906c9e8d5c9/8021701e-b4c6-499a-9597-0d215989a0f0"
          (reference "TP?") (unit 1)
        )
      )
    )
  )

  (symbol (lib_id "Connector:Conn_01x06_Socket") (at 81.28 62.23 0) (unit 1)
    (in_bom yes) (on_board yes) (dnp no)
    (uuid ee7b4e3f-2830-47ea-848a-543247c1688c)
    (property "Reference" "J?" (at 76.2 53.34 0)
      (effects (font (size 1.27 1.27)) (justify left))
    )
    (property "Value" "Conn_01x06_Socket" (at 76.2 73.66 0)
      (effects (font (size 1.27 1.27)) (justify left))
    )
    (property "Footprint" "" (at 81.28 62.23 0)
      (effects (font (size 1.27 1.27)) hide)
    )
    (property "Datasheet" "~" (at 81.28 62.23 0)
      (effects (font (size 1.27 1.27)) hide)
    )
    (pin "1" (uuid 4a9bcc85-eebc-45be-84e2-633386d034e7))
    (pin "2" (uuid 509204d0-0be9-4748-8fa2-710ceceea176))
    (pin "3" (uuid ffc58b08-311a-4613-9470-da16b6ee2641))
    (pin "4" (uuid 8b096829-4e00-44f3-b164-f713ba343d2b))
    (pin "5" (uuid 8c9f9a98-d0f4-43c2-95ca-bad1c6129a85))
    (pin "6" (uuid 2ed8eef4-199f-47b1-a2a7-6d885cd4d330))
    (instances
      (project "POC-TB"
        (path "/4b0101fb-345d-4dc9-888f-9906c9e8d5c9/8021701e-b4c6-499a-9597-0d215989a0f0"
          (reference "J?") (unit 1)
        )
      )
    )
  )

  (symbol (lib_id "Connector:TestPoint") (at 106.68 93.98 90) (unit 1)
    (in_bom yes) (on_board yes) (dnp no)
    (uuid eebb8a59-d87c-4bbc-a1ab-f5d46994b439)
    (property "Reference" "TP?" (at 100.33 93.98 90)
      (effects (font (size 1.27 1.27)))
    )
    (property "Value" "TestPoint" (at 103.378 91.44 90)
      (effects (font (size 1.27 1.27)) hide)
    )
    (property "Footprint" "" (at 106.68 88.9 0)
      (effects (font (size 1.27 1.27)) hide)
    )
    (property "Datasheet" "~" (at 106.68 88.9 0)
      (effects (font (size 1.27 1.27)) hide)
    )
    (pin "1" (uuid 388e4da9-a266-494a-aca8-2fd7d6c24abc))
    (instances
      (project "POC-TB"
        (path "/4b0101fb-345d-4dc9-888f-9906c9e8d5c9/8021701e-b4c6-499a-9597-0d215989a0f0"
          (reference "TP?") (unit 1)
        )
      )
    )
  )

  (symbol (lib_id "Connector:Conn_01x06_Socket") (at 123.19 62.23 0) (unit 1)
    (in_bom yes) (on_board yes) (dnp no)
    (uuid ef9488bc-c97a-47f7-b047-90aac186a9f6)
    (property "Reference" "J?" (at 118.11 53.34 0)
      (effects (font (size 1.27 1.27)) (justify left))
    )
    (property "Value" "Conn_01x06_Socket" (at 118.11 73.66 0)
      (effects (font (size 1.27 1.27)) (justify left))
    )
    (property "Footprint" "" (at 123.19 62.23 0)
      (effects (font (size 1.27 1.27)) hide)
    )
    (property "Datasheet" "~" (at 123.19 62.23 0)
      (effects (font (size 1.27 1.27)) hide)
    )
    (pin "1" (uuid 8b1a7967-5649-446a-916a-00b809454bbe))
    (pin "2" (uuid bc6616b7-5477-4336-8657-aa4e94257986))
    (pin "3" (uuid 7cbc32b4-faad-4f8d-b2bc-afe42d150bd7))
    (pin "4" (uuid 47467d21-b963-433a-9795-b4ad1941189f))
    (pin "5" (uuid abc46cf1-3ea3-43c3-add9-17c7dd36564d))
    (pin "6" (uuid 5ea7a268-d5f5-4772-9a0f-f75b59ae35de))
    (instances
      (project "POC-TB"
        (path "/4b0101fb-345d-4dc9-888f-9906c9e8d5c9/8021701e-b4c6-499a-9597-0d215989a0f0"
          (reference "J?") (unit 1)
        )
      )
    )
  )

  (symbol (lib_id "power:GND") (at 101.6 66.04 0) (unit 1)
    (in_bom yes) (on_board yes) (dnp no) (fields_autoplaced)
    (uuid f23e6c81-7b0b-4c8c-a7d6-cae4848c8772)
    (property "Reference" "#PWR?" (at 101.6 72.39 0)
      (effects (font (size 1.27 1.27)) hide)
    )
    (property "Value" "GND" (at 101.6 71.12 0)
      (effects (font (size 1.27 1.27)))
    )
    (property "Footprint" "" (at 101.6 66.04 0)
      (effects (font (size 1.27 1.27)) hide)
    )
    (property "Datasheet" "" (at 101.6 66.04 0)
      (effects (font (size 1.27 1.27)) hide)
    )
    (pin "1" (uuid 9d1dd5d9-cad5-4760-a988-20eedc5c8f2d))
    (instances
      (project "POC-TB"
        (path "/4b0101fb-345d-4dc9-888f-9906c9e8d5c9/8021701e-b4c6-499a-9597-0d215989a0f0"
          (reference "#PWR?") (unit 1)
        )
      )
    )
  )
)
