(kicad_sch
	(version 20231120)
	(generator "eeschema")
	(generator_version "8.0")
	(uuid "b1deb241-e387-4dc3-bdfd-03b6f66d7467")
	(paper "A4")
	(title_block
		(title "Audio")
		(date "2024-07-18")
		(rev "Final")
	)
	(lib_symbols
		(symbol "Connector:Conn_01x02_Pin"
			(pin_names
				(offset 1.016) hide)
			(exclude_from_sim no)
			(in_bom yes)
			(on_board yes)
			(property "Reference" "J"
				(at 0 2.54 0)
				(effects
					(font
						(size 1.27 1.27)
					)
				)
			)
			(property "Value" "Conn_01x02_Pin"
				(at 0 -5.08 0)
				(effects
					(font
						(size 1.27 1.27)
					)
				)
			)
			(property "Footprint" ""
				(at 0 0 0)
				(effects
					(font
						(size 1.27 1.27)
					)
					(hide yes)
				)
			)
			(property "Datasheet" "~"
				(at 0 0 0)
				(effects
					(font
						(size 1.27 1.27)
					)
					(hide yes)
				)
			)
			(property "Description" "Generic connector, single row, 01x02, script generated"
				(at 0 0 0)
				(effects
					(font
						(size 1.27 1.27)
					)
					(hide yes)
				)
			)
			(property "ki_locked" ""
				(at 0 0 0)
				(effects
					(font
						(size 1.27 1.27)
					)
				)
			)
			(property "ki_keywords" "connector"
				(at 0 0 0)
				(effects
					(font
						(size 1.27 1.27)
					)
					(hide yes)
				)
			)
			(property "ki_fp_filters" "Connector*:*_1x??_*"
				(at 0 0 0)
				(effects
					(font
						(size 1.27 1.27)
					)
					(hide yes)
				)
			)
			(symbol "Conn_01x02_Pin_1_1"
				(polyline
					(pts
						(xy 1.27 -2.54) (xy 0.8636 -2.54)
					)
					(stroke
						(width 0.1524)
						(type default)
					)
					(fill
						(type none)
					)
				)
				(polyline
					(pts
						(xy 1.27 0) (xy 0.8636 0)
					)
					(stroke
						(width 0.1524)
						(type default)
					)
					(fill
						(type none)
					)
				)
				(rectangle
					(start 0.8636 -2.413)
					(end 0 -2.667)
					(stroke
						(width 0.1524)
						(type default)
					)
					(fill
						(type outline)
					)
				)
				(rectangle
					(start 0.8636 0.127)
					(end 0 -0.127)
					(stroke
						(width 0.1524)
						(type default)
					)
					(fill
						(type outline)
					)
				)
				(pin passive line
					(at 5.08 0 180)
					(length 3.81)
					(name "Pin_1"
						(effects
							(font
								(size 1.27 1.27)
							)
						)
					)
					(number "1"
						(effects
							(font
								(size 1.27 1.27)
							)
						)
					)
				)
				(pin passive line
					(at 5.08 -2.54 180)
					(length 3.81)
					(name "Pin_2"
						(effects
							(font
								(size 1.27 1.27)
							)
						)
					)
					(number "2"
						(effects
							(font
								(size 1.27 1.27)
							)
						)
					)
				)
			)
		)
		(symbol "Connector:Conn_01x03_Pin"
			(pin_names
				(offset 1.016) hide)
			(exclude_from_sim no)
			(in_bom yes)
			(on_board yes)
			(property "Reference" "J"
				(at 0 5.08 0)
				(effects
					(font
						(size 1.27 1.27)
					)
				)
			)
			(property "Value" "Conn_01x03_Pin"
				(at 0 -5.08 0)
				(effects
					(font
						(size 1.27 1.27)
					)
				)
			)
			(property "Footprint" ""
				(at 0 0 0)
				(effects
					(font
						(size 1.27 1.27)
					)
					(hide yes)
				)
			)
			(property "Datasheet" "~"
				(at 0 0 0)
				(effects
					(font
						(size 1.27 1.27)
					)
					(hide yes)
				)
			)
			(property "Description" "Generic connector, single row, 01x03, script generated"
				(at 0 0 0)
				(effects
					(font
						(size 1.27 1.27)
					)
					(hide yes)
				)
			)
			(property "ki_locked" ""
				(at 0 0 0)
				(effects
					(font
						(size 1.27 1.27)
					)
				)
			)
			(property "ki_keywords" "connector"
				(at 0 0 0)
				(effects
					(font
						(size 1.27 1.27)
					)
					(hide yes)
				)
			)
			(property "ki_fp_filters" "Connector*:*_1x??_*"
				(at 0 0 0)
				(effects
					(font
						(size 1.27 1.27)
					)
					(hide yes)
				)
			)
			(symbol "Conn_01x03_Pin_1_1"
				(polyline
					(pts
						(xy 1.27 -2.54) (xy 0.8636 -2.54)
					)
					(stroke
						(width 0.1524)
						(type default)
					)
					(fill
						(type none)
					)
				)
				(polyline
					(pts
						(xy 1.27 0) (xy 0.8636 0)
					)
					(stroke
						(width 0.1524)
						(type default)
					)
					(fill
						(type none)
					)
				)
				(polyline
					(pts
						(xy 1.27 2.54) (xy 0.8636 2.54)
					)
					(stroke
						(width 0.1524)
						(type default)
					)
					(fill
						(type none)
					)
				)
				(rectangle
					(start 0.8636 -2.413)
					(end 0 -2.667)
					(stroke
						(width 0.1524)
						(type default)
					)
					(fill
						(type outline)
					)
				)
				(rectangle
					(start 0.8636 0.127)
					(end 0 -0.127)
					(stroke
						(width 0.1524)
						(type default)
					)
					(fill
						(type outline)
					)
				)
				(rectangle
					(start 0.8636 2.667)
					(end 0 2.413)
					(stroke
						(width 0.1524)
						(type default)
					)
					(fill
						(type outline)
					)
				)
				(pin passive line
					(at 5.08 2.54 180)
					(length 3.81)
					(name "Pin_1"
						(effects
							(font
								(size 1.27 1.27)
							)
						)
					)
					(number "1"
						(effects
							(font
								(size 1.27 1.27)
							)
						)
					)
				)
				(pin passive line
					(at 5.08 0 180)
					(length 3.81)
					(name "Pin_2"
						(effects
							(font
								(size 1.27 1.27)
							)
						)
					)
					(number "2"
						(effects
							(font
								(size 1.27 1.27)
							)
						)
					)
				)
				(pin passive line
					(at 5.08 -2.54 180)
					(length 3.81)
					(name "Pin_3"
						(effects
							(font
								(size 1.27 1.27)
							)
						)
					)
					(number "3"
						(effects
							(font
								(size 1.27 1.27)
							)
						)
					)
				)
			)
		)
		(symbol "Connector:Conn_01x07_Pin"
			(pin_names
				(offset 1.016) hide)
			(exclude_from_sim no)
			(in_bom yes)
			(on_board yes)
			(property "Reference" "J"
				(at 0 10.16 0)
				(effects
					(font
						(size 1.27 1.27)
					)
				)
			)
			(property "Value" "Conn_01x07_Pin"
				(at 0 -10.16 0)
				(effects
					(font
						(size 1.27 1.27)
					)
				)
			)
			(property "Footprint" ""
				(at 0 0 0)
				(effects
					(font
						(size 1.27 1.27)
					)
					(hide yes)
				)
			)
			(property "Datasheet" "~"
				(at 0 0 0)
				(effects
					(font
						(size 1.27 1.27)
					)
					(hide yes)
				)
			)
			(property "Description" "Generic connector, single row, 01x07, script generated"
				(at 0 0 0)
				(effects
					(font
						(size 1.27 1.27)
					)
					(hide yes)
				)
			)
			(property "ki_locked" ""
				(at 0 0 0)
				(effects
					(font
						(size 1.27 1.27)
					)
				)
			)
			(property "ki_keywords" "connector"
				(at 0 0 0)
				(effects
					(font
						(size 1.27 1.27)
					)
					(hide yes)
				)
			)
			(property "ki_fp_filters" "Connector*:*_1x??_*"
				(at 0 0 0)
				(effects
					(font
						(size 1.27 1.27)
					)
					(hide yes)
				)
			)
			(symbol "Conn_01x07_Pin_1_1"
				(polyline
					(pts
						(xy 1.27 -7.62) (xy 0.8636 -7.62)
					)
					(stroke
						(width 0.1524)
						(type default)
					)
					(fill
						(type none)
					)
				)
				(polyline
					(pts
						(xy 1.27 -5.08) (xy 0.8636 -5.08)
					)
					(stroke
						(width 0.1524)
						(type default)
					)
					(fill
						(type none)
					)
				)
				(polyline
					(pts
						(xy 1.27 -2.54) (xy 0.8636 -2.54)
					)
					(stroke
						(width 0.1524)
						(type default)
					)
					(fill
						(type none)
					)
				)
				(polyline
					(pts
						(xy 1.27 0) (xy 0.8636 0)
					)
					(stroke
						(width 0.1524)
						(type default)
					)
					(fill
						(type none)
					)
				)
				(polyline
					(pts
						(xy 1.27 2.54) (xy 0.8636 2.54)
					)
					(stroke
						(width 0.1524)
						(type default)
					)
					(fill
						(type none)
					)
				)
				(polyline
					(pts
						(xy 1.27 5.08) (xy 0.8636 5.08)
					)
					(stroke
						(width 0.1524)
						(type default)
					)
					(fill
						(type none)
					)
				)
				(polyline
					(pts
						(xy 1.27 7.62) (xy 0.8636 7.62)
					)
					(stroke
						(width 0.1524)
						(type default)
					)
					(fill
						(type none)
					)
				)
				(rectangle
					(start 0.8636 -7.493)
					(end 0 -7.747)
					(stroke
						(width 0.1524)
						(type default)
					)
					(fill
						(type outline)
					)
				)
				(rectangle
					(start 0.8636 -4.953)
					(end 0 -5.207)
					(stroke
						(width 0.1524)
						(type default)
					)
					(fill
						(type outline)
					)
				)
				(rectangle
					(start 0.8636 -2.413)
					(end 0 -2.667)
					(stroke
						(width 0.1524)
						(type default)
					)
					(fill
						(type outline)
					)
				)
				(rectangle
					(start 0.8636 0.127)
					(end 0 -0.127)
					(stroke
						(width 0.1524)
						(type default)
					)
					(fill
						(type outline)
					)
				)
				(rectangle
					(start 0.8636 2.667)
					(end 0 2.413)
					(stroke
						(width 0.1524)
						(type default)
					)
					(fill
						(type outline)
					)
				)
				(rectangle
					(start 0.8636 5.207)
					(end 0 4.953)
					(stroke
						(width 0.1524)
						(type default)
					)
					(fill
						(type outline)
					)
				)
				(rectangle
					(start 0.8636 7.747)
					(end 0 7.493)
					(stroke
						(width 0.1524)
						(type default)
					)
					(fill
						(type outline)
					)
				)
				(pin passive line
					(at 5.08 7.62 180)
					(length 3.81)
					(name "Pin_1"
						(effects
							(font
								(size 1.27 1.27)
							)
						)
					)
					(number "1"
						(effects
							(font
								(size 1.27 1.27)
							)
						)
					)
				)
				(pin passive line
					(at 5.08 5.08 180)
					(length 3.81)
					(name "Pin_2"
						(effects
							(font
								(size 1.27 1.27)
							)
						)
					)
					(number "2"
						(effects
							(font
								(size 1.27 1.27)
							)
						)
					)
				)
				(pin passive line
					(at 5.08 2.54 180)
					(length 3.81)
					(name "Pin_3"
						(effects
							(font
								(size 1.27 1.27)
							)
						)
					)
					(number "3"
						(effects
							(font
								(size 1.27 1.27)
							)
						)
					)
				)
				(pin passive line
					(at 5.08 0 180)
					(length 3.81)
					(name "Pin_4"
						(effects
							(font
								(size 1.27 1.27)
							)
						)
					)
					(number "4"
						(effects
							(font
								(size 1.27 1.27)
							)
						)
					)
				)
				(pin passive line
					(at 5.08 -2.54 180)
					(length 3.81)
					(name "Pin_5"
						(effects
							(font
								(size 1.27 1.27)
							)
						)
					)
					(number "5"
						(effects
							(font
								(size 1.27 1.27)
							)
						)
					)
				)
				(pin passive line
					(at 5.08 -5.08 180)
					(length 3.81)
					(name "Pin_6"
						(effects
							(font
								(size 1.27 1.27)
							)
						)
					)
					(number "6"
						(effects
							(font
								(size 1.27 1.27)
							)
						)
					)
				)
				(pin passive line
					(at 5.08 -7.62 180)
					(length 3.81)
					(name "Pin_7"
						(effects
							(font
								(size 1.27 1.27)
							)
						)
					)
					(number "7"
						(effects
							(font
								(size 1.27 1.27)
							)
						)
					)
				)
			)
		)
		(symbol "Connector:Conn_01x07_Socket"
			(pin_names
				(offset 1.016) hide)
			(exclude_from_sim no)
			(in_bom yes)
			(on_board yes)
			(property "Reference" "J"
				(at 0 10.16 0)
				(effects
					(font
						(size 1.27 1.27)
					)
				)
			)
			(property "Value" "Conn_01x07_Socket"
				(at 0 -10.16 0)
				(effects
					(font
						(size 1.27 1.27)
					)
				)
			)
			(property "Footprint" ""
				(at 0 0 0)
				(effects
					(font
						(size 1.27 1.27)
					)
					(hide yes)
				)
			)
			(property "Datasheet" "~"
				(at 0 0 0)
				(effects
					(font
						(size 1.27 1.27)
					)
					(hide yes)
				)
			)
			(property "Description" "Generic connector, single row, 01x07, script generated"
				(at 0 0 0)
				(effects
					(font
						(size 1.27 1.27)
					)
					(hide yes)
				)
			)
			(property "ki_locked" ""
				(at 0 0 0)
				(effects
					(font
						(size 1.27 1.27)
					)
				)
			)
			(property "ki_keywords" "connector"
				(at 0 0 0)
				(effects
					(font
						(size 1.27 1.27)
					)
					(hide yes)
				)
			)
			(property "ki_fp_filters" "Connector*:*_1x??_*"
				(at 0 0 0)
				(effects
					(font
						(size 1.27 1.27)
					)
					(hide yes)
				)
			)
			(symbol "Conn_01x07_Socket_1_1"
				(arc
					(start 0 -7.112)
					(mid -0.5058 -7.62)
					(end 0 -8.128)
					(stroke
						(width 0.1524)
						(type default)
					)
					(fill
						(type none)
					)
				)
				(arc
					(start 0 -4.572)
					(mid -0.5058 -5.08)
					(end 0 -5.588)
					(stroke
						(width 0.1524)
						(type default)
					)
					(fill
						(type none)
					)
				)
				(arc
					(start 0 -2.032)
					(mid -0.5058 -2.54)
					(end 0 -3.048)
					(stroke
						(width 0.1524)
						(type default)
					)
					(fill
						(type none)
					)
				)
				(polyline
					(pts
						(xy -1.27 -7.62) (xy -0.508 -7.62)
					)
					(stroke
						(width 0.1524)
						(type default)
					)
					(fill
						(type none)
					)
				)
				(polyline
					(pts
						(xy -1.27 -5.08) (xy -0.508 -5.08)
					)
					(stroke
						(width 0.1524)
						(type default)
					)
					(fill
						(type none)
					)
				)
				(polyline
					(pts
						(xy -1.27 -2.54) (xy -0.508 -2.54)
					)
					(stroke
						(width 0.1524)
						(type default)
					)
					(fill
						(type none)
					)
				)
				(polyline
					(pts
						(xy -1.27 0) (xy -0.508 0)
					)
					(stroke
						(width 0.1524)
						(type default)
					)
					(fill
						(type none)
					)
				)
				(polyline
					(pts
						(xy -1.27 2.54) (xy -0.508 2.54)
					)
					(stroke
						(width 0.1524)
						(type default)
					)
					(fill
						(type none)
					)
				)
				(polyline
					(pts
						(xy -1.27 5.08) (xy -0.508 5.08)
					)
					(stroke
						(width 0.1524)
						(type default)
					)
					(fill
						(type none)
					)
				)
				(polyline
					(pts
						(xy -1.27 7.62) (xy -0.508 7.62)
					)
					(stroke
						(width 0.1524)
						(type default)
					)
					(fill
						(type none)
					)
				)
				(arc
					(start 0 0.508)
					(mid -0.5058 0)
					(end 0 -0.508)
					(stroke
						(width 0.1524)
						(type default)
					)
					(fill
						(type none)
					)
				)
				(arc
					(start 0 3.048)
					(mid -0.5058 2.54)
					(end 0 2.032)
					(stroke
						(width 0.1524)
						(type default)
					)
					(fill
						(type none)
					)
				)
				(arc
					(start 0 5.588)
					(mid -0.5058 5.08)
					(end 0 4.572)
					(stroke
						(width 0.1524)
						(type default)
					)
					(fill
						(type none)
					)
				)
				(arc
					(start 0 8.128)
					(mid -0.5058 7.62)
					(end 0 7.112)
					(stroke
						(width 0.1524)
						(type default)
					)
					(fill
						(type none)
					)
				)
				(pin passive line
					(at -5.08 7.62 0)
					(length 3.81)
					(name "Pin_1"
						(effects
							(font
								(size 1.27 1.27)
							)
						)
					)
					(number "1"
						(effects
							(font
								(size 1.27 1.27)
							)
						)
					)
				)
				(pin passive line
					(at -5.08 5.08 0)
					(length 3.81)
					(name "Pin_2"
						(effects
							(font
								(size 1.27 1.27)
							)
						)
					)
					(number "2"
						(effects
							(font
								(size 1.27 1.27)
							)
						)
					)
				)
				(pin passive line
					(at -5.08 2.54 0)
					(length 3.81)
					(name "Pin_3"
						(effects
							(font
								(size 1.27 1.27)
							)
						)
					)
					(number "3"
						(effects
							(font
								(size 1.27 1.27)
							)
						)
					)
				)
				(pin passive line
					(at -5.08 0 0)
					(length 3.81)
					(name "Pin_4"
						(effects
							(font
								(size 1.27 1.27)
							)
						)
					)
					(number "4"
						(effects
							(font
								(size 1.27 1.27)
							)
						)
					)
				)
				(pin passive line
					(at -5.08 -2.54 0)
					(length 3.81)
					(name "Pin_5"
						(effects
							(font
								(size 1.27 1.27)
							)
						)
					)
					(number "5"
						(effects
							(font
								(size 1.27 1.27)
							)
						)
					)
				)
				(pin passive line
					(at -5.08 -5.08 0)
					(length 3.81)
					(name "Pin_6"
						(effects
							(font
								(size 1.27 1.27)
							)
						)
					)
					(number "6"
						(effects
							(font
								(size 1.27 1.27)
							)
						)
					)
				)
				(pin passive line
					(at -5.08 -7.62 0)
					(length 3.81)
					(name "Pin_7"
						(effects
							(font
								(size 1.27 1.27)
							)
						)
					)
					(number "7"
						(effects
							(font
								(size 1.27 1.27)
							)
						)
					)
				)
			)
		)
		(symbol "Connector:TestPoint"
			(pin_numbers hide)
			(pin_names
				(offset 0.762) hide)
			(exclude_from_sim no)
			(in_bom yes)
			(on_board yes)
			(property "Reference" "TP"
				(at 0 6.858 0)
				(effects
					(font
						(size 1.27 1.27)
					)
				)
			)
			(property "Value" "TestPoint"
				(at 0 5.08 0)
				(effects
					(font
						(size 1.27 1.27)
					)
				)
			)
			(property "Footprint" ""
				(at 5.08 0 0)
				(effects
					(font
						(size 1.27 1.27)
					)
					(hide yes)
				)
			)
			(property "Datasheet" "~"
				(at 5.08 0 0)
				(effects
					(font
						(size 1.27 1.27)
					)
					(hide yes)
				)
			)
			(property "Description" "test point"
				(at 0 0 0)
				(effects
					(font
						(size 1.27 1.27)
					)
					(hide yes)
				)
			)
			(property "ki_keywords" "test point tp"
				(at 0 0 0)
				(effects
					(font
						(size 1.27 1.27)
					)
					(hide yes)
				)
			)
			(property "ki_fp_filters" "Pin* Test*"
				(at 0 0 0)
				(effects
					(font
						(size 1.27 1.27)
					)
					(hide yes)
				)
			)
			(symbol "TestPoint_0_1"
				(circle
					(center 0 3.302)
					(radius 0.762)
					(stroke
						(width 0)
						(type default)
					)
					(fill
						(type none)
					)
				)
			)
			(symbol "TestPoint_1_1"
				(pin passive line
					(at 0 0 90)
					(length 2.54)
					(name "1"
						(effects
							(font
								(size 1.27 1.27)
							)
						)
					)
					(number "1"
						(effects
							(font
								(size 1.27 1.27)
							)
						)
					)
				)
			)
		)
		(symbol "Device:R"
			(pin_numbers hide)
			(pin_names
				(offset 0)
			)
			(exclude_from_sim no)
			(in_bom yes)
			(on_board yes)
			(property "Reference" "R"
				(at 2.032 0 90)
				(effects
					(font
						(size 1.27 1.27)
					)
				)
			)
			(property "Value" "R"
				(at 0 0 90)
				(effects
					(font
						(size 1.27 1.27)
					)
				)
			)
			(property "Footprint" ""
				(at -1.778 0 90)
				(effects
					(font
						(size 1.27 1.27)
					)
					(hide yes)
				)
			)
			(property "Datasheet" "~"
				(at 0 0 0)
				(effects
					(font
						(size 1.27 1.27)
					)
					(hide yes)
				)
			)
			(property "Description" "Resistor"
				(at 0 0 0)
				(effects
					(font
						(size 1.27 1.27)
					)
					(hide yes)
				)
			)
			(property "ki_keywords" "R res resistor"
				(at 0 0 0)
				(effects
					(font
						(size 1.27 1.27)
					)
					(hide yes)
				)
			)
			(property "ki_fp_filters" "R_*"
				(at 0 0 0)
				(effects
					(font
						(size 1.27 1.27)
					)
					(hide yes)
				)
			)
			(symbol "R_0_1"
				(rectangle
					(start -1.016 -2.54)
					(end 1.016 2.54)
					(stroke
						(width 0.254)
						(type default)
					)
					(fill
						(type none)
					)
				)
			)
			(symbol "R_1_1"
				(pin passive line
					(at 0 3.81 270)
					(length 1.27)
					(name "~"
						(effects
							(font
								(size 1.27 1.27)
							)
						)
					)
					(number "1"
						(effects
							(font
								(size 1.27 1.27)
							)
						)
					)
				)
				(pin passive line
					(at 0 -3.81 90)
					(length 1.27)
					(name "~"
						(effects
							(font
								(size 1.27 1.27)
							)
						)
					)
					(number "2"
						(effects
							(font
								(size 1.27 1.27)
							)
						)
					)
				)
			)
		)
		(symbol "Device:R_Potentiometer"
			(pin_names
				(offset 1.016) hide)
			(exclude_from_sim no)
			(in_bom yes)
			(on_board yes)
			(property "Reference" "RV"
				(at -4.445 0 90)
				(effects
					(font
						(size 1.27 1.27)
					)
				)
			)
			(property "Value" "R_Potentiometer"
				(at -2.54 0 90)
				(effects
					(font
						(size 1.27 1.27)
					)
				)
			)
			(property "Footprint" ""
				(at 0 0 0)
				(effects
					(font
						(size 1.27 1.27)
					)
					(hide yes)
				)
			)
			(property "Datasheet" "~"
				(at 0 0 0)
				(effects
					(font
						(size 1.27 1.27)
					)
					(hide yes)
				)
			)
			(property "Description" "Potentiometer"
				(at 0 0 0)
				(effects
					(font
						(size 1.27 1.27)
					)
					(hide yes)
				)
			)
			(property "ki_keywords" "resistor variable"
				(at 0 0 0)
				(effects
					(font
						(size 1.27 1.27)
					)
					(hide yes)
				)
			)
			(property "ki_fp_filters" "Potentiometer*"
				(at 0 0 0)
				(effects
					(font
						(size 1.27 1.27)
					)
					(hide yes)
				)
			)
			(symbol "R_Potentiometer_0_1"
				(polyline
					(pts
						(xy 2.54 0) (xy 1.524 0)
					)
					(stroke
						(width 0)
						(type default)
					)
					(fill
						(type none)
					)
				)
				(polyline
					(pts
						(xy 1.143 0) (xy 2.286 0.508) (xy 2.286 -0.508) (xy 1.143 0)
					)
					(stroke
						(width 0)
						(type default)
					)
					(fill
						(type outline)
					)
				)
				(rectangle
					(start 1.016 2.54)
					(end -1.016 -2.54)
					(stroke
						(width 0.254)
						(type default)
					)
					(fill
						(type none)
					)
				)
			)
			(symbol "R_Potentiometer_1_1"
				(pin passive line
					(at 0 3.81 270)
					(length 1.27)
					(name "1"
						(effects
							(font
								(size 1.27 1.27)
							)
						)
					)
					(number "1"
						(effects
							(font
								(size 1.27 1.27)
							)
						)
					)
				)
				(pin passive line
					(at 3.81 0 180)
					(length 1.27)
					(name "2"
						(effects
							(font
								(size 1.27 1.27)
							)
						)
					)
					(number "2"
						(effects
							(font
								(size 1.27 1.27)
							)
						)
					)
				)
				(pin passive line
					(at 0 -3.81 90)
					(length 1.27)
					(name "3"
						(effects
							(font
								(size 1.27 1.27)
							)
						)
					)
					(number "3"
						(effects
							(font
								(size 1.27 1.27)
							)
						)
					)
				)
			)
		)
		(symbol "power:+3V3"
			(power)
			(pin_names
				(offset 0)
			)
			(exclude_from_sim no)
			(in_bom yes)
			(on_board yes)
			(property "Reference" "#PWR"
				(at 0 -3.81 0)
				(effects
					(font
						(size 1.27 1.27)
					)
					(hide yes)
				)
			)
			(property "Value" "+3V3"
				(at 0 3.556 0)
				(effects
					(font
						(size 1.27 1.27)
					)
				)
			)
			(property "Footprint" ""
				(at 0 0 0)
				(effects
					(font
						(size 1.27 1.27)
					)
					(hide yes)
				)
			)
			(property "Datasheet" ""
				(at 0 0 0)
				(effects
					(font
						(size 1.27 1.27)
					)
					(hide yes)
				)
			)
			(property "Description" "Power symbol creates a global label with name \"+3V3\""
				(at 0 0 0)
				(effects
					(font
						(size 1.27 1.27)
					)
					(hide yes)
				)
			)
			(property "ki_keywords" "global power"
				(at 0 0 0)
				(effects
					(font
						(size 1.27 1.27)
					)
					(hide yes)
				)
			)
			(symbol "+3V3_0_1"
				(polyline
					(pts
						(xy -0.762 1.27) (xy 0 2.54)
					)
					(stroke
						(width 0)
						(type default)
					)
					(fill
						(type none)
					)
				)
				(polyline
					(pts
						(xy 0 0) (xy 0 2.54)
					)
					(stroke
						(width 0)
						(type default)
					)
					(fill
						(type none)
					)
				)
				(polyline
					(pts
						(xy 0 2.54) (xy 0.762 1.27)
					)
					(stroke
						(width 0)
						(type default)
					)
					(fill
						(type none)
					)
				)
			)
			(symbol "+3V3_1_1"
				(pin power_in line
					(at 0 0 90)
					(length 0) hide
					(name "+3V3"
						(effects
							(font
								(size 1.27 1.27)
							)
						)
					)
					(number "1"
						(effects
							(font
								(size 1.27 1.27)
							)
						)
					)
				)
			)
		)
		(symbol "power:GND"
			(power)
			(pin_names
				(offset 0)
			)
			(exclude_from_sim no)
			(in_bom yes)
			(on_board yes)
			(property "Reference" "#PWR"
				(at 0 -6.35 0)
				(effects
					(font
						(size 1.27 1.27)
					)
					(hide yes)
				)
			)
			(property "Value" "GND"
				(at 0 -3.81 0)
				(effects
					(font
						(size 1.27 1.27)
					)
				)
			)
			(property "Footprint" ""
				(at 0 0 0)
				(effects
					(font
						(size 1.27 1.27)
					)
					(hide yes)
				)
			)
			(property "Datasheet" ""
				(at 0 0 0)
				(effects
					(font
						(size 1.27 1.27)
					)
					(hide yes)
				)
			)
			(property "Description" "Power symbol creates a global label with name \"GND\" , ground"
				(at 0 0 0)
				(effects
					(font
						(size 1.27 1.27)
					)
					(hide yes)
				)
			)
			(property "ki_keywords" "global power"
				(at 0 0 0)
				(effects
					(font
						(size 1.27 1.27)
					)
					(hide yes)
				)
			)
			(symbol "GND_0_1"
				(polyline
					(pts
						(xy 0 0) (xy 0 -1.27) (xy 1.27 -1.27) (xy 0 -2.54) (xy -1.27 -1.27) (xy 0 -1.27)
					)
					(stroke
						(width 0)
						(type default)
					)
					(fill
						(type none)
					)
				)
			)
			(symbol "GND_1_1"
				(pin power_in line
					(at 0 0 270)
					(length 0) hide
					(name "GND"
						(effects
							(font
								(size 1.27 1.27)
							)
						)
					)
					(number "1"
						(effects
							(font
								(size 1.27 1.27)
							)
						)
					)
				)
			)
		)
	)
	(junction
		(at 116.84 114.3)
		(diameter 0)
		(color 0 0 0 0)
		(uuid "96105757-2760-4ea7-b454-7805d149adb4")
	)
	(junction
		(at 130.81 120.65)
		(diameter 0)
		(color 0 0 0 0)
		(uuid "bfc1e3d9-996b-4ebd-aa4f-29d17fb0b62b")
	)
	(wire
		(pts
			(xy 85.09 101.6) (xy 96.52 101.6)
		)
		(stroke
			(width 0)
			(type default)
		)
		(uuid "04a0b21d-6a21-4f1f-95ed-d17616e94c29")
	)
	(wire
		(pts
			(xy 123.19 111.76) (xy 134.62 111.76)
		)
		(stroke
			(width 0)
			(type default)
		)
		(uuid "0756500b-0920-40f6-b2c4-f52dcba2ef3e")
	)
	(wire
		(pts
			(xy 85.09 106.68) (xy 96.52 106.68)
		)
		(stroke
			(width 0)
			(type default)
		)
		(uuid "0967e998-7b6e-4b87-8164-0b598af163ff")
	)
	(wire
		(pts
			(xy 210.82 106.68) (xy 224.79 106.68)
		)
		(stroke
			(width 0)
			(type default)
		)
		(uuid "2338c172-e279-4c75-8547-4e89346df244")
	)
	(wire
		(pts
			(xy 166.37 121.92) (xy 166.37 124.46)
		)
		(stroke
			(width 0)
			(type default)
		)
		(uuid "24000bbd-1fb1-4bc2-abc8-d1abb4d35297")
	)
	(wire
		(pts
			(xy 87.63 120.65) (xy 92.71 120.65)
		)
		(stroke
			(width 0)
			(type default)
		)
		(uuid "29ef7d1e-c338-4989-99c3-20ee1f2c2ac5")
	)
	(wire
		(pts
			(xy 130.81 116.84) (xy 130.81 120.65)
		)
		(stroke
			(width 0)
			(type default)
		)
		(uuid "2b1ff4a0-6ce7-418a-a9d4-a7bf416328a0")
	)
	(wire
		(pts
			(xy 123.19 106.68) (xy 134.62 106.68)
		)
		(stroke
			(width 0)
			(type default)
		)
		(uuid "33c720d4-c279-41ce-bd81-ca42b9900e10")
	)
	(wire
		(pts
			(xy 78.74 114.3) (xy 96.52 114.3)
		)
		(stroke
			(width 0)
			(type default)
		)
		(uuid "35e5a0ad-2103-469a-b2da-028dc24078df")
	)
	(wire
		(pts
			(xy 198.12 102.87) (xy 198.12 100.33)
		)
		(stroke
			(width 0)
			(type default)
		)
		(uuid "36392a6b-9e13-49bc-b3fe-ac10cce037ed")
	)
	(wire
		(pts
			(xy 125.73 120.65) (xy 130.81 120.65)
		)
		(stroke
			(width 0)
			(type default)
		)
		(uuid "454856f6-8c4f-4daf-9cbe-60eee3b65e36")
	)
	(wire
		(pts
			(xy 166.37 105.41) (xy 166.37 101.6)
		)
		(stroke
			(width 0)
			(type default)
		)
		(uuid "480ddcfe-22f6-40d8-b56a-18f2bf5826d3")
	)
	(wire
		(pts
			(xy 87.63 119.38) (xy 87.63 120.65)
		)
		(stroke
			(width 0)
			(type default)
		)
		(uuid "51f7e124-8cfd-4c61-9528-4ddf23e866a7")
	)
	(wire
		(pts
			(xy 134.62 116.84) (xy 130.81 116.84)
		)
		(stroke
			(width 0)
			(type default)
		)
		(uuid "53b5ac58-f4f4-4079-832b-7acda96b3089")
	)
	(wire
		(pts
			(xy 116.84 114.3) (xy 134.62 114.3)
		)
		(stroke
			(width 0)
			(type default)
		)
		(uuid "9220dc60-a1ee-4dde-9b2d-9f5e549448c5")
	)
	(wire
		(pts
			(xy 85.09 109.22) (xy 96.52 109.22)
		)
		(stroke
			(width 0)
			(type default)
		)
		(uuid "a2c3e6e7-92fb-4b9c-a5db-e1d88d69180e")
	)
	(wire
		(pts
			(xy 166.37 93.98) (xy 166.37 91.44)
		)
		(stroke
			(width 0)
			(type default)
		)
		(uuid "a3dcaab5-2157-4e29-8e1b-3f3122658d1b")
	)
	(wire
		(pts
			(xy 116.84 114.3) (xy 116.84 115.57)
		)
		(stroke
			(width 0)
			(type default)
		)
		(uuid "a467614c-b438-47ef-8db7-577ca0a7ba42")
	)
	(wire
		(pts
			(xy 198.12 110.49) (xy 198.12 113.03)
		)
		(stroke
			(width 0)
			(type default)
		)
		(uuid "a60b19d1-d31f-48f9-b783-d793ba109735")
	)
	(wire
		(pts
			(xy 78.74 114.3) (xy 78.74 115.57)
		)
		(stroke
			(width 0)
			(type default)
		)
		(uuid "b383bb4a-7fac-4d9e-a33b-6a4bfd885b77")
	)
	(wire
		(pts
			(xy 161.29 107.95) (xy 176.53 107.95)
		)
		(stroke
			(width 0)
			(type default)
		)
		(uuid "b5e72e6e-7846-4cc6-ae3e-47baeb58f0e6")
	)
	(wire
		(pts
			(xy 85.09 104.14) (xy 96.52 104.14)
		)
		(stroke
			(width 0)
			(type default)
		)
		(uuid "b6f44b12-7e76-4ec1-a587-58c8fc886282")
	)
	(wire
		(pts
			(xy 92.71 116.84) (xy 96.52 116.84)
		)
		(stroke
			(width 0)
			(type default)
		)
		(uuid "b705460f-6cbb-4d47-97cc-63646db1ca9d")
	)
	(wire
		(pts
			(xy 166.37 110.49) (xy 166.37 114.3)
		)
		(stroke
			(width 0)
			(type default)
		)
		(uuid "bec18599-a13a-45b8-a1df-ed81a074c1cd")
	)
	(wire
		(pts
			(xy 201.93 106.68) (xy 208.28 106.68)
		)
		(stroke
			(width 0)
			(type default)
		)
		(uuid "c1514d40-f4ce-41ea-950f-1cf4ee9f5804")
	)
	(wire
		(pts
			(xy 161.29 105.41) (xy 166.37 105.41)
		)
		(stroke
			(width 0)
			(type default)
		)
		(uuid "cdd729e4-6171-4f2f-b5c1-87025c8ac8b2")
	)
	(wire
		(pts
			(xy 123.19 104.14) (xy 134.62 104.14)
		)
		(stroke
			(width 0)
			(type default)
		)
		(uuid "d26a639d-baf4-461d-b2da-fedf9dd839dd")
	)
	(wire
		(pts
			(xy 85.09 111.76) (xy 96.52 111.76)
		)
		(stroke
			(width 0)
			(type default)
		)
		(uuid "e296c941-25c4-4c12-a47b-ac8967bbb527")
	)
	(wire
		(pts
			(xy 161.29 110.49) (xy 166.37 110.49)
		)
		(stroke
			(width 0)
			(type default)
		)
		(uuid "e91f5e96-ab91-4763-9cf4-11531de641c5")
	)
	(wire
		(pts
			(xy 125.73 119.38) (xy 125.73 120.65)
		)
		(stroke
			(width 0)
			(type default)
		)
		(uuid "eccf4967-185e-4053-b1f0-b57d3f36b6d7")
	)
	(wire
		(pts
			(xy 123.19 109.22) (xy 134.62 109.22)
		)
		(stroke
			(width 0)
			(type default)
		)
		(uuid "f2a11a65-128d-4893-b1a3-34cd07165f8e")
	)
	(wire
		(pts
			(xy 92.71 120.65) (xy 92.71 116.84)
		)
		(stroke
			(width 0)
			(type default)
		)
		(uuid "f6d8e73f-e41c-4ab2-8744-d797a4ad30dd")
	)
	(wire
		(pts
			(xy 123.19 101.6) (xy 134.62 101.6)
		)
		(stroke
			(width 0)
			(type default)
		)
		(uuid "fa5a59df-1e82-4b22-bf38-4d1cd7f78fda")
	)
	(label "DAC_LRC"
		(at 123.19 101.6 0)
		(fields_autoplaced yes)
		(effects
			(font
				(size 1.27 1.27)
			)
			(justify left bottom)
		)
		(uuid "075bb80f-94fc-4822-83a3-238d72093a21")
	)
	(label "DAC_BCLK"
		(at 85.09 104.14 0)
		(fields_autoplaced yes)
		(effects
			(font
				(size 1.27 1.27)
			)
			(justify left bottom)
		)
		(uuid "28bbd448-4911-4cb2-b7dd-d035e49c677d")
	)
	(label "DAC_GAIN"
		(at 85.09 109.22 0)
		(fields_autoplaced yes)
		(effects
			(font
				(size 1.27 1.27)
			)
			(justify left bottom)
		)
		(uuid "3d5a6fe3-f0c6-41fb-a874-405454b95fe8")
	)
	(label "DAC_DIN"
		(at 85.09 106.68 0)
		(fields_autoplaced yes)
		(effects
			(font
				(size 1.27 1.27)
			)
			(justify left bottom)
		)
		(uuid "54ee4f57-38f9-4e82-844e-870c7fa87000")
	)
	(label "DAC_SD"
		(at 85.09 111.76 0)
		(fields_autoplaced yes)
		(effects
			(font
				(size 1.27 1.27)
			)
			(justify left bottom)
		)
		(uuid "5cf8702f-f872-4583-91d2-84253d566f1b")
	)
	(label "DAC_SD"
		(at 123.19 111.76 0)
		(fields_autoplaced yes)
		(effects
			(font
				(size 1.27 1.27)
			)
			(justify left bottom)
		)
		(uuid "91a6c5a2-66c9-4795-8acc-13d70f174c01")
	)
	(label "DAC_DIN"
		(at 123.19 106.68 0)
		(fields_autoplaced yes)
		(effects
			(font
				(size 1.27 1.27)
			)
			(justify left bottom)
		)
		(uuid "bfb0d7c4-6efb-47d5-947f-6b594c6ad5cd")
	)
	(label "DAC_LRC"
		(at 85.09 101.6 0)
		(fields_autoplaced yes)
		(effects
			(font
				(size 1.27 1.27)
			)
			(justify left bottom)
		)
		(uuid "c494808c-82c0-4db1-a294-dd1eeb416e03")
	)
	(label "DAC_BCLK"
		(at 123.19 104.14 0)
		(fields_autoplaced yes)
		(effects
			(font
				(size 1.27 1.27)
			)
			(justify left bottom)
		)
		(uuid "c705d99c-5d8d-434d-9668-bdb503b26bfe")
	)
	(label "DAC_GAIN"
		(at 123.19 109.22 0)
		(fields_autoplaced yes)
		(effects
			(font
				(size 1.27 1.27)
			)
			(justify left bottom)
		)
		(uuid "d3f4169d-375b-4469-8efb-482fa389734f")
	)
	(label "DAC_SD"
		(at 224.79 106.68 180)
		(fields_autoplaced yes)
		(effects
			(font
				(size 1.27 1.27)
			)
			(justify right bottom)
		)
		(uuid "d509bbce-f698-45ca-91b4-36a407661b30")
	)
	(label "DAC_GAIN"
		(at 176.53 107.95 180)
		(fields_autoplaced yes)
		(effects
			(font
				(size 1.27 1.27)
			)
			(justify right bottom)
		)
		(uuid "e9bd2e97-5992-4236-a096-2e913a0854aa")
	)
	(symbol
		(lib_id "Connector:TestPoint")
		(at 123.19 101.6 90)
		(unit 1)
		(exclude_from_sim no)
		(in_bom yes)
		(on_board yes)
		(dnp no)
		(uuid "1d3128f1-3360-42b6-84ff-a63b343255fb")
		(property "Reference" "TP72"
			(at 115.57 101.6 90)
			(effects
				(font
					(size 1.27 1.27)
				)
			)
		)
		(property "Value" "TestPoint"
			(at 119.888 99.06 90)
			(effects
				(font
					(size 1.27 1.27)
				)
				(hide yes)
			)
		)
		(property "Footprint" "TestPoint:TestPoint_Pad_D1.5mm"
			(at 123.19 96.52 0)
			(effects
				(font
					(size 1.27 1.27)
				)
				(hide yes)
			)
		)
		(property "Datasheet" "~"
			(at 123.19 96.52 0)
			(effects
				(font
					(size 1.27 1.27)
				)
				(hide yes)
			)
		)
		(property "Description" ""
			(at 123.19 101.6 0)
			(effects
				(font
					(size 1.27 1.27)
				)
				(hide yes)
			)
		)
		(pin "1"
			(uuid "166b118b-7ca8-4a11-aadb-984dd8a4d679")
		)
		(instances
			(project "POC-TB"
				(path "/4b0101fb-345d-4dc9-888f-9906c9e8d5c9/22067d9e-8848-4726-be26-f0aecefffbf1"
					(reference "TP72")
					(unit 1)
				)
			)
		)
	)
	(symbol
		(lib_id "Connector:TestPoint")
		(at 116.84 114.3 90)
		(unit 1)
		(exclude_from_sim no)
		(in_bom yes)
		(on_board yes)
		(dnp no)
		(uuid "1e80d981-93a7-4a90-a9c9-4f6ecf751942")
		(property "Reference" "TP77"
			(at 109.22 114.3 90)
			(effects
				(font
					(size 1.27 1.27)
				)
			)
		)
		(property "Value" "TestPoint"
			(at 113.538 111.76 90)
			(effects
				(font
					(size 1.27 1.27)
				)
				(hide yes)
			)
		)
		(property "Footprint" "TestPoint:TestPoint_Pad_D1.5mm"
			(at 116.84 109.22 0)
			(effects
				(font
					(size 1.27 1.27)
				)
				(hide yes)
			)
		)
		(property "Datasheet" "~"
			(at 116.84 109.22 0)
			(effects
				(font
					(size 1.27 1.27)
				)
				(hide yes)
			)
		)
		(property "Description" ""
			(at 116.84 114.3 0)
			(effects
				(font
					(size 1.27 1.27)
				)
				(hide yes)
			)
		)
		(pin "1"
			(uuid "9b6e4434-458d-40aa-95f3-11febb169146")
		)
		(instances
			(project "POC-TB"
				(path "/4b0101fb-345d-4dc9-888f-9906c9e8d5c9/22067d9e-8848-4726-be26-f0aecefffbf1"
					(reference "TP77")
					(unit 1)
				)
			)
		)
	)
	(symbol
		(lib_id "power:GND")
		(at 198.12 113.03 0)
		(unit 1)
		(exclude_from_sim no)
		(in_bom yes)
		(on_board yes)
		(dnp no)
		(fields_autoplaced yes)
		(uuid "28ccb84d-6e68-467e-94cf-dbb3777f1601")
		(property "Reference" "#PWR025"
			(at 198.12 119.38 0)
			(effects
				(font
					(size 1.27 1.27)
				)
				(hide yes)
			)
		)
		(property "Value" "GND"
			(at 198.12 118.11 0)
			(effects
				(font
					(size 1.27 1.27)
				)
			)
		)
		(property "Footprint" ""
			(at 198.12 113.03 0)
			(effects
				(font
					(size 1.27 1.27)
				)
				(hide yes)
			)
		)
		(property "Datasheet" ""
			(at 198.12 113.03 0)
			(effects
				(font
					(size 1.27 1.27)
				)
				(hide yes)
			)
		)
		(property "Description" ""
			(at 198.12 113.03 0)
			(effects
				(font
					(size 1.27 1.27)
				)
				(hide yes)
			)
		)
		(pin "1"
			(uuid "19721282-6a7a-49bb-a82e-c63b90f51152")
		)
		(instances
			(project "POC-TB"
				(path "/4b0101fb-345d-4dc9-888f-9906c9e8d5c9/22067d9e-8848-4726-be26-f0aecefffbf1"
					(reference "#PWR025")
					(unit 1)
				)
			)
		)
	)
	(symbol
		(lib_id "power:+3V3")
		(at 87.63 119.38 0)
		(unit 1)
		(exclude_from_sim no)
		(in_bom yes)
		(on_board yes)
		(dnp no)
		(uuid "2c6e2ed5-16e9-4b67-9338-751a07f26ced")
		(property "Reference" "#PWR024"
			(at 87.63 123.19 0)
			(effects
				(font
					(size 1.27 1.27)
				)
				(hide yes)
			)
		)
		(property "Value" "+3V3"
			(at 83.82 116.84 0)
			(effects
				(font
					(size 1.27 1.27)
				)
			)
		)
		(property "Footprint" ""
			(at 87.63 119.38 0)
			(effects
				(font
					(size 1.27 1.27)
				)
				(hide yes)
			)
		)
		(property "Datasheet" ""
			(at 87.63 119.38 0)
			(effects
				(font
					(size 1.27 1.27)
				)
				(hide yes)
			)
		)
		(property "Description" ""
			(at 87.63 119.38 0)
			(effects
				(font
					(size 1.27 1.27)
				)
				(hide yes)
			)
		)
		(pin "1"
			(uuid "66d349af-af34-47a2-ab6a-e862e810f208")
		)
		(instances
			(project "POC-TB"
				(path "/4b0101fb-345d-4dc9-888f-9906c9e8d5c9/22067d9e-8848-4726-be26-f0aecefffbf1"
					(reference "#PWR024")
					(unit 1)
				)
			)
		)
	)
	(symbol
		(lib_id "power:+3V3")
		(at 166.37 91.44 0)
		(unit 1)
		(exclude_from_sim no)
		(in_bom yes)
		(on_board yes)
		(dnp no)
		(uuid "2f44d476-f924-4a30-8476-3944c5c927b3")
		(property "Reference" "#PWR021"
			(at 166.37 95.25 0)
			(effects
				(font
					(size 1.27 1.27)
				)
				(hide yes)
			)
		)
		(property "Value" "+3V3"
			(at 162.56 88.9 0)
			(effects
				(font
					(size 1.27 1.27)
				)
			)
		)
		(property "Footprint" ""
			(at 166.37 91.44 0)
			(effects
				(font
					(size 1.27 1.27)
				)
				(hide yes)
			)
		)
		(property "Datasheet" ""
			(at 166.37 91.44 0)
			(effects
				(font
					(size 1.27 1.27)
				)
				(hide yes)
			)
		)
		(property "Description" ""
			(at 166.37 91.44 0)
			(effects
				(font
					(size 1.27 1.27)
				)
				(hide yes)
			)
		)
		(pin "1"
			(uuid "fb2847e0-40ec-4a30-976f-d8833e991011")
		)
		(instances
			(project "POC-TB"
				(path "/4b0101fb-345d-4dc9-888f-9906c9e8d5c9/22067d9e-8848-4726-be26-f0aecefffbf1"
					(reference "#PWR021")
					(unit 1)
				)
			)
		)
	)
	(symbol
		(lib_id "Connector:Conn_01x02_Pin")
		(at 210.82 101.6 270)
		(unit 1)
		(exclude_from_sim no)
		(in_bom yes)
		(on_board yes)
		(dnp no)
		(uuid "340c3037-1a67-407f-86d7-6b310d91e1d3")
		(property "Reference" "J9"
			(at 209.55 99.06 90)
			(effects
				(font
					(size 1.27 1.27)
				)
			)
		)
		(property "Value" "Conn_01x02_Pin"
			(at 209.55 109.22 90)
			(effects
				(font
					(size 1.27 1.27)
				)
			)
		)
		(property "Footprint" "Connector_PinHeader_2.54mm:PinHeader_1x02_P2.54mm_Vertical"
			(at 210.82 101.6 0)
			(effects
				(font
					(size 1.27 1.27)
				)
				(hide yes)
			)
		)
		(property "Datasheet" "~"
			(at 210.82 101.6 0)
			(effects
				(font
					(size 1.27 1.27)
				)
				(hide yes)
			)
		)
		(property "Description" ""
			(at 210.82 101.6 0)
			(effects
				(font
					(size 1.27 1.27)
				)
				(hide yes)
			)
		)
		(pin "1"
			(uuid "8458a2e1-de2c-4cdd-8899-d301d50e3589")
		)
		(pin "2"
			(uuid "69dac3a2-5bd2-4b9f-8756-595cdf95b486")
		)
		(instances
			(project "POC-TB"
				(path "/4b0101fb-345d-4dc9-888f-9906c9e8d5c9/22067d9e-8848-4726-be26-f0aecefffbf1"
					(reference "J9")
					(unit 1)
				)
			)
		)
	)
	(symbol
		(lib_id "Connector:TestPoint")
		(at 130.81 120.65 180)
		(unit 1)
		(exclude_from_sim no)
		(in_bom yes)
		(on_board yes)
		(dnp no)
		(uuid "45ee2186-dc8b-48b6-b26e-41d69d897998")
		(property "Reference" "TP78"
			(at 130.81 128.27 90)
			(effects
				(font
					(size 1.27 1.27)
				)
			)
		)
		(property "Value" "TestPoint"
			(at 128.27 123.952 90)
			(effects
				(font
					(size 1.27 1.27)
				)
				(hide yes)
			)
		)
		(property "Footprint" "TestPoint:TestPoint_Pad_D1.5mm"
			(at 125.73 120.65 0)
			(effects
				(font
					(size 1.27 1.27)
				)
				(hide yes)
			)
		)
		(property "Datasheet" "~"
			(at 125.73 120.65 0)
			(effects
				(font
					(size 1.27 1.27)
				)
				(hide yes)
			)
		)
		(property "Description" ""
			(at 130.81 120.65 0)
			(effects
				(font
					(size 1.27 1.27)
				)
				(hide yes)
			)
		)
		(pin "1"
			(uuid "68489855-9a77-415d-a497-31572c767959")
		)
		(instances
			(project "POC-TB"
				(path "/4b0101fb-345d-4dc9-888f-9906c9e8d5c9/22067d9e-8848-4726-be26-f0aecefffbf1"
					(reference "TP78")
					(unit 1)
				)
			)
		)
	)
	(symbol
		(lib_id "Device:R")
		(at 166.37 97.79 0)
		(mirror x)
		(unit 1)
		(exclude_from_sim no)
		(in_bom yes)
		(on_board yes)
		(dnp no)
		(fields_autoplaced yes)
		(uuid "45f3f1bc-23bd-4bf8-9257-8861e1327132")
		(property "Reference" "R3"
			(at 163.83 96.52 0)
			(effects
				(font
					(size 1.27 1.27)
				)
				(justify right)
			)
		)
		(property "Value" "100k"
			(at 163.83 99.06 0)
			(effects
				(font
					(size 1.27 1.27)
				)
				(justify right)
			)
		)
		(property "Footprint" "Resistor_SMD:R_0402_1005Metric"
			(at 164.592 97.79 90)
			(effects
				(font
					(size 1.27 1.27)
				)
				(hide yes)
			)
		)
		(property "Datasheet" "~"
			(at 166.37 97.79 0)
			(effects
				(font
					(size 1.27 1.27)
				)
				(hide yes)
			)
		)
		(property "Description" ""
			(at 166.37 97.79 0)
			(effects
				(font
					(size 1.27 1.27)
				)
				(hide yes)
			)
		)
		(pin "1"
			(uuid "056819b3-2a16-434e-a41d-2378d0312e10")
		)
		(pin "2"
			(uuid "1e097080-f986-4338-967a-11d71dd0e46c")
		)
		(instances
			(project "POC-TB"
				(path "/4b0101fb-345d-4dc9-888f-9906c9e8d5c9/22067d9e-8848-4726-be26-f0aecefffbf1"
					(reference "R3")
					(unit 1)
				)
			)
		)
	)
	(symbol
		(lib_id "power:GND")
		(at 116.84 115.57 0)
		(unit 1)
		(exclude_from_sim no)
		(in_bom yes)
		(on_board yes)
		(dnp no)
		(fields_autoplaced yes)
		(uuid "4fe3edfe-b860-45ba-ab50-63bc9a6ea4b3")
		(property "Reference" "#PWR027"
			(at 116.84 121.92 0)
			(effects
				(font
					(size 1.27 1.27)
				)
				(hide yes)
			)
		)
		(property "Value" "GND"
			(at 116.84 120.65 0)
			(effects
				(font
					(size 1.27 1.27)
				)
			)
		)
		(property "Footprint" ""
			(at 116.84 115.57 0)
			(effects
				(font
					(size 1.27 1.27)
				)
				(hide yes)
			)
		)
		(property "Datasheet" ""
			(at 116.84 115.57 0)
			(effects
				(font
					(size 1.27 1.27)
				)
				(hide yes)
			)
		)
		(property "Description" ""
			(at 116.84 115.57 0)
			(effects
				(font
					(size 1.27 1.27)
				)
				(hide yes)
			)
		)
		(pin "1"
			(uuid "d2cd01ad-b8b0-4782-8d10-aab12bc279c2")
		)
		(instances
			(project "POC-TB"
				(path "/4b0101fb-345d-4dc9-888f-9906c9e8d5c9/22067d9e-8848-4726-be26-f0aecefffbf1"
					(reference "#PWR027")
					(unit 1)
				)
			)
		)
	)
	(symbol
		(lib_id "Connector:Conn_01x07_Socket")
		(at 101.6 109.22 0)
		(unit 1)
		(exclude_from_sim no)
		(in_bom yes)
		(on_board yes)
		(dnp no)
		(uuid "5da02125-38a2-4b3c-8193-ccb8ca5c101e")
		(property "Reference" "J8"
			(at 101.6 99.06 0)
			(effects
				(font
					(size 1.27 1.27)
				)
			)
		)
		(property "Value" "Conn_01x07_Socket"
			(at 102.87 119.38 0)
			(effects
				(font
					(size 1.27 1.27)
				)
			)
		)
		(property "Footprint" "Connector_PinSocket_2.54mm:PinSocket_1x07_P2.54mm_Vertical"
			(at 101.6 109.22 0)
			(effects
				(font
					(size 1.27 1.27)
				)
				(hide yes)
			)
		)
		(property "Datasheet" "~"
			(at 101.6 109.22 0)
			(effects
				(font
					(size 1.27 1.27)
				)
				(hide yes)
			)
		)
		(property "Description" ""
			(at 101.6 109.22 0)
			(effects
				(font
					(size 1.27 1.27)
				)
				(hide yes)
			)
		)
		(pin "1"
			(uuid "80b66b1e-2094-4157-a129-23e6b61121d3")
		)
		(pin "2"
			(uuid "1d7ad9c7-0b45-4f93-8cc2-19be901ad205")
		)
		(pin "3"
			(uuid "a12c8ca7-799d-4d43-8330-0daee7b7bc7b")
		)
		(pin "4"
			(uuid "16c74332-ad34-491b-b5f2-a97db9e13b4a")
		)
		(pin "5"
			(uuid "bf0023c8-a06e-47ca-a7e0-1e804e043f91")
		)
		(pin "6"
			(uuid "96a55144-be57-4c0d-9886-e3f1a656a465")
		)
		(pin "7"
			(uuid "019f9d51-52e3-4e52-a1b8-2f219484c6f4")
		)
		(instances
			(project "POC-TB"
				(path "/4b0101fb-345d-4dc9-888f-9906c9e8d5c9/22067d9e-8848-4726-be26-f0aecefffbf1"
					(reference "J8")
					(unit 1)
				)
			)
		)
	)
	(symbol
		(lib_id "Connector:TestPoint")
		(at 123.19 106.68 90)
		(unit 1)
		(exclude_from_sim no)
		(in_bom yes)
		(on_board yes)
		(dnp no)
		(uuid "5fcbe8db-99d9-440f-b793-d7f9f4a02692")
		(property "Reference" "TP74"
			(at 115.57 106.68 90)
			(effects
				(font
					(size 1.27 1.27)
				)
			)
		)
		(property "Value" "TestPoint"
			(at 119.888 104.14 90)
			(effects
				(font
					(size 1.27 1.27)
				)
				(hide yes)
			)
		)
		(property "Footprint" "TestPoint:TestPoint_Pad_D1.5mm"
			(at 123.19 101.6 0)
			(effects
				(font
					(size 1.27 1.27)
				)
				(hide yes)
			)
		)
		(property "Datasheet" "~"
			(at 123.19 101.6 0)
			(effects
				(font
					(size 1.27 1.27)
				)
				(hide yes)
			)
		)
		(property "Description" ""
			(at 123.19 106.68 0)
			(effects
				(font
					(size 1.27 1.27)
				)
				(hide yes)
			)
		)
		(pin "1"
			(uuid "fbd9843c-d10e-4e2f-acc1-16bbe1afaf4b")
		)
		(instances
			(project "POC-TB"
				(path "/4b0101fb-345d-4dc9-888f-9906c9e8d5c9/22067d9e-8848-4726-be26-f0aecefffbf1"
					(reference "TP74")
					(unit 1)
				)
			)
		)
	)
	(symbol
		(lib_id "power:+3V3")
		(at 198.12 100.33 0)
		(unit 1)
		(exclude_from_sim no)
		(in_bom yes)
		(on_board yes)
		(dnp no)
		(uuid "6e421f6b-000e-4b1e-8383-3cb3f027ab89")
		(property "Reference" "#PWR023"
			(at 198.12 104.14 0)
			(effects
				(font
					(size 1.27 1.27)
				)
				(hide yes)
			)
		)
		(property "Value" "+3V3"
			(at 194.31 97.79 0)
			(effects
				(font
					(size 1.27 1.27)
				)
			)
		)
		(property "Footprint" ""
			(at 198.12 100.33 0)
			(effects
				(font
					(size 1.27 1.27)
				)
				(hide yes)
			)
		)
		(property "Datasheet" ""
			(at 198.12 100.33 0)
			(effects
				(font
					(size 1.27 1.27)
				)
				(hide yes)
			)
		)
		(property "Description" ""
			(at 198.12 100.33 0)
			(effects
				(font
					(size 1.27 1.27)
				)
				(hide yes)
			)
		)
		(pin "1"
			(uuid "3f8b01ec-d8ab-40f2-9ced-902176c841e9")
		)
		(instances
			(project "POC-TB"
				(path "/4b0101fb-345d-4dc9-888f-9906c9e8d5c9/22067d9e-8848-4726-be26-f0aecefffbf1"
					(reference "#PWR023")
					(unit 1)
				)
			)
		)
	)
	(symbol
		(lib_id "power:+3V3")
		(at 125.73 119.38 0)
		(unit 1)
		(exclude_from_sim no)
		(in_bom yes)
		(on_board yes)
		(dnp no)
		(uuid "6f66b938-f525-42a1-b875-22d43baeae13")
		(property "Reference" "#PWR028"
			(at 125.73 123.19 0)
			(effects
				(font
					(size 1.27 1.27)
				)
				(hide yes)
			)
		)
		(property "Value" "+3V3"
			(at 121.92 116.84 0)
			(effects
				(font
					(size 1.27 1.27)
				)
			)
		)
		(property "Footprint" ""
			(at 125.73 119.38 0)
			(effects
				(font
					(size 1.27 1.27)
				)
				(hide yes)
			)
		)
		(property "Datasheet" ""
			(at 125.73 119.38 0)
			(effects
				(font
					(size 1.27 1.27)
				)
				(hide yes)
			)
		)
		(property "Description" ""
			(at 125.73 119.38 0)
			(effects
				(font
					(size 1.27 1.27)
				)
				(hide yes)
			)
		)
		(pin "1"
			(uuid "9ee7351e-cfd4-49e3-a768-4cc4e3318601")
		)
		(instances
			(project "POC-TB"
				(path "/4b0101fb-345d-4dc9-888f-9906c9e8d5c9/22067d9e-8848-4726-be26-f0aecefffbf1"
					(reference "#PWR028")
					(unit 1)
				)
			)
		)
	)
	(symbol
		(lib_id "Connector:TestPoint")
		(at 123.19 109.22 90)
		(unit 1)
		(exclude_from_sim no)
		(in_bom yes)
		(on_board yes)
		(dnp no)
		(uuid "703582d3-1f51-4cd2-8823-1d0aea037a1a")
		(property "Reference" "TP75"
			(at 115.57 109.22 90)
			(effects
				(font
					(size 1.27 1.27)
				)
			)
		)
		(property "Value" "TestPoint"
			(at 119.888 106.68 90)
			(effects
				(font
					(size 1.27 1.27)
				)
				(hide yes)
			)
		)
		(property "Footprint" "TestPoint:TestPoint_Pad_D1.5mm"
			(at 123.19 104.14 0)
			(effects
				(font
					(size 1.27 1.27)
				)
				(hide yes)
			)
		)
		(property "Datasheet" "~"
			(at 123.19 104.14 0)
			(effects
				(font
					(size 1.27 1.27)
				)
				(hide yes)
			)
		)
		(property "Description" ""
			(at 123.19 109.22 0)
			(effects
				(font
					(size 1.27 1.27)
				)
				(hide yes)
			)
		)
		(pin "1"
			(uuid "2aa5c119-c96d-49df-9458-3edd11a69318")
		)
		(instances
			(project "POC-TB"
				(path "/4b0101fb-345d-4dc9-888f-9906c9e8d5c9/22067d9e-8848-4726-be26-f0aecefffbf1"
					(reference "TP75")
					(unit 1)
				)
			)
		)
	)
	(symbol
		(lib_id "power:GND")
		(at 166.37 124.46 0)
		(unit 1)
		(exclude_from_sim no)
		(in_bom yes)
		(on_board yes)
		(dnp no)
		(fields_autoplaced yes)
		(uuid "85b7f37f-884b-4a44-a3fc-3c63545b585f")
		(property "Reference" "#PWR026"
			(at 166.37 130.81 0)
			(effects
				(font
					(size 1.27 1.27)
				)
				(hide yes)
			)
		)
		(property "Value" "GND"
			(at 166.37 129.54 0)
			(effects
				(font
					(size 1.27 1.27)
				)
			)
		)
		(property "Footprint" ""
			(at 166.37 124.46 0)
			(effects
				(font
					(size 1.27 1.27)
				)
				(hide yes)
			)
		)
		(property "Datasheet" ""
			(at 166.37 124.46 0)
			(effects
				(font
					(size 1.27 1.27)
				)
				(hide yes)
			)
		)
		(property "Description" ""
			(at 166.37 124.46 0)
			(effects
				(font
					(size 1.27 1.27)
				)
				(hide yes)
			)
		)
		(pin "1"
			(uuid "0b09457a-f2b6-4a85-93eb-cd0fd2656114")
		)
		(instances
			(project "POC-TB"
				(path "/4b0101fb-345d-4dc9-888f-9906c9e8d5c9/22067d9e-8848-4726-be26-f0aecefffbf1"
					(reference "#PWR026")
					(unit 1)
				)
			)
		)
	)
	(symbol
		(lib_id "Connector:TestPoint")
		(at 123.19 104.14 90)
		(unit 1)
		(exclude_from_sim no)
		(in_bom yes)
		(on_board yes)
		(dnp no)
		(uuid "a4f6b46c-4f23-43df-ab56-5bf90241ed51")
		(property "Reference" "TP73"
			(at 115.57 104.14 90)
			(effects
				(font
					(size 1.27 1.27)
				)
			)
		)
		(property "Value" "TestPoint"
			(at 119.888 101.6 90)
			(effects
				(font
					(size 1.27 1.27)
				)
				(hide yes)
			)
		)
		(property "Footprint" "TestPoint:TestPoint_Pad_D1.5mm"
			(at 123.19 99.06 0)
			(effects
				(font
					(size 1.27 1.27)
				)
				(hide yes)
			)
		)
		(property "Datasheet" "~"
			(at 123.19 99.06 0)
			(effects
				(font
					(size 1.27 1.27)
				)
				(hide yes)
			)
		)
		(property "Description" ""
			(at 123.19 104.14 0)
			(effects
				(font
					(size 1.27 1.27)
				)
				(hide yes)
			)
		)
		(pin "1"
			(uuid "37f80f5e-4ac7-4bda-9698-c6800517cc4c")
		)
		(instances
			(project "POC-TB"
				(path "/4b0101fb-345d-4dc9-888f-9906c9e8d5c9/22067d9e-8848-4726-be26-f0aecefffbf1"
					(reference "TP73")
					(unit 1)
				)
			)
		)
	)
	(symbol
		(lib_id "Device:R_Potentiometer")
		(at 198.12 106.68 0)
		(unit 1)
		(exclude_from_sim no)
		(in_bom yes)
		(on_board yes)
		(dnp no)
		(fields_autoplaced yes)
		(uuid "af020c1e-d367-4f8b-bd6b-749f2a3b2bf5")
		(property "Reference" "RV1"
			(at 195.58 105.41 0)
			(effects
				(font
					(size 1.27 1.27)
				)
				(justify right)
			)
		)
		(property "Value" "R_Potentiometer"
			(at 195.58 107.95 0)
			(effects
				(font
					(size 1.27 1.27)
				)
				(justify right)
			)
		)
		(property "Footprint" "Potentiometer_THT:Potentiometer_Bourns_3296W_Vertical"
			(at 198.12 106.68 0)
			(effects
				(font
					(size 1.27 1.27)
				)
				(hide yes)
			)
		)
		(property "Datasheet" "~"
			(at 198.12 106.68 0)
			(effects
				(font
					(size 1.27 1.27)
				)
				(hide yes)
			)
		)
		(property "Description" ""
			(at 198.12 106.68 0)
			(effects
				(font
					(size 1.27 1.27)
				)
				(hide yes)
			)
		)
		(pin "1"
			(uuid "e2ec4aae-5910-4f8f-aef3-241d20c61e1d")
		)
		(pin "2"
			(uuid "934f78e9-5e92-458b-ac1c-34fcd13698fb")
		)
		(pin "3"
			(uuid "03562a26-37e4-446c-8511-793f2e114a6d")
		)
		(instances
			(project "POC-TB"
				(path "/4b0101fb-345d-4dc9-888f-9906c9e8d5c9/22067d9e-8848-4726-be26-f0aecefffbf1"
					(reference "RV1")
					(unit 1)
				)
			)
		)
	)
	(symbol
		(lib_id "Connector:TestPoint")
		(at 123.19 111.76 90)
		(unit 1)
		(exclude_from_sim no)
		(in_bom yes)
		(on_board yes)
		(dnp no)
		(uuid "b129ee2e-82cf-4b00-800a-ed2c294ee224")
		(property "Reference" "TP76"
			(at 115.57 111.76 90)
			(effects
				(font
					(size 1.27 1.27)
				)
			)
		)
		(property "Value" "TestPoint"
			(at 119.888 109.22 90)
			(effects
				(font
					(size 1.27 1.27)
				)
				(hide yes)
			)
		)
		(property "Footprint" "TestPoint:TestPoint_Pad_D1.5mm"
			(at 123.19 106.68 0)
			(effects
				(font
					(size 1.27 1.27)
				)
				(hide yes)
			)
		)
		(property "Datasheet" "~"
			(at 123.19 106.68 0)
			(effects
				(font
					(size 1.27 1.27)
				)
				(hide yes)
			)
		)
		(property "Description" ""
			(at 123.19 111.76 0)
			(effects
				(font
					(size 1.27 1.27)
				)
				(hide yes)
			)
		)
		(pin "1"
			(uuid "ae69752b-3715-467a-868a-93d987b137e9")
		)
		(instances
			(project "POC-TB"
				(path "/4b0101fb-345d-4dc9-888f-9906c9e8d5c9/22067d9e-8848-4726-be26-f0aecefffbf1"
					(reference "TP76")
					(unit 1)
				)
			)
		)
	)
	(symbol
		(lib_id "Connector:Conn_01x03_Pin")
		(at 156.21 107.95 0)
		(unit 1)
		(exclude_from_sim no)
		(in_bom yes)
		(on_board yes)
		(dnp no)
		(uuid "e2111b5c-721a-47e8-8169-86840c4ae6c0")
		(property "Reference" "J10"
			(at 156.21 102.87 0)
			(effects
				(font
					(size 1.27 1.27)
				)
			)
		)
		(property "Value" "Conn_01x03_Pin"
			(at 156.21 113.03 0)
			(effects
				(font
					(size 1.27 1.27)
				)
			)
		)
		(property "Footprint" "Connector_PinHeader_2.54mm:PinHeader_1x03_P2.54mm_Vertical"
			(at 156.21 107.95 0)
			(effects
				(font
					(size 1.27 1.27)
				)
				(hide yes)
			)
		)
		(property "Datasheet" "~"
			(at 156.21 107.95 0)
			(effects
				(font
					(size 1.27 1.27)
				)
				(hide yes)
			)
		)
		(property "Description" ""
			(at 156.21 107.95 0)
			(effects
				(font
					(size 1.27 1.27)
				)
				(hide yes)
			)
		)
		(pin "1"
			(uuid "6db4fa70-90a0-4299-b8d2-ec51ea6bcdb3")
		)
		(pin "2"
			(uuid "40266c82-abd8-4365-a86a-b7910143abda")
		)
		(pin "3"
			(uuid "04594c26-48da-4f5d-8dfb-2ce01c8faa3b")
		)
		(instances
			(project "POC-TB"
				(path "/4b0101fb-345d-4dc9-888f-9906c9e8d5c9/22067d9e-8848-4726-be26-f0aecefffbf1"
					(reference "J10")
					(unit 1)
				)
			)
		)
	)
	(symbol
		(lib_id "Device:R")
		(at 166.37 118.11 0)
		(unit 1)
		(exclude_from_sim no)
		(in_bom yes)
		(on_board yes)
		(dnp no)
		(fields_autoplaced yes)
		(uuid "e2e317ac-b378-42e6-b379-fbf62c62dffc")
		(property "Reference" "R4"
			(at 168.91 116.84 0)
			(effects
				(font
					(size 1.27 1.27)
				)
				(justify left)
			)
		)
		(property "Value" "100k"
			(at 168.91 119.38 0)
			(effects
				(font
					(size 1.27 1.27)
				)
				(justify left)
			)
		)
		(property "Footprint" "Resistor_SMD:R_0402_1005Metric"
			(at 164.592 118.11 90)
			(effects
				(font
					(size 1.27 1.27)
				)
				(hide yes)
			)
		)
		(property "Datasheet" "~"
			(at 166.37 118.11 0)
			(effects
				(font
					(size 1.27 1.27)
				)
				(hide yes)
			)
		)
		(property "Description" ""
			(at 166.37 118.11 0)
			(effects
				(font
					(size 1.27 1.27)
				)
				(hide yes)
			)
		)
		(pin "1"
			(uuid "90dd913c-9fe1-42b5-95dc-a08b8a0b2af6")
		)
		(pin "2"
			(uuid "587e95b1-1df0-4680-bb1a-d6648b314d4e")
		)
		(instances
			(project "POC-TB"
				(path "/4b0101fb-345d-4dc9-888f-9906c9e8d5c9/22067d9e-8848-4726-be26-f0aecefffbf1"
					(reference "R4")
					(unit 1)
				)
			)
		)
	)
	(symbol
		(lib_id "power:GND")
		(at 78.74 115.57 0)
		(unit 1)
		(exclude_from_sim no)
		(in_bom yes)
		(on_board yes)
		(dnp no)
		(fields_autoplaced yes)
		(uuid "f3c4ec10-f69a-4953-bbde-520b7b051623")
		(property "Reference" "#PWR022"
			(at 78.74 121.92 0)
			(effects
				(font
					(size 1.27 1.27)
				)
				(hide yes)
			)
		)
		(property "Value" "GND"
			(at 78.74 120.65 0)
			(effects
				(font
					(size 1.27 1.27)
				)
			)
		)
		(property "Footprint" ""
			(at 78.74 115.57 0)
			(effects
				(font
					(size 1.27 1.27)
				)
				(hide yes)
			)
		)
		(property "Datasheet" ""
			(at 78.74 115.57 0)
			(effects
				(font
					(size 1.27 1.27)
				)
				(hide yes)
			)
		)
		(property "Description" ""
			(at 78.74 115.57 0)
			(effects
				(font
					(size 1.27 1.27)
				)
				(hide yes)
			)
		)
		(pin "1"
			(uuid "fe9c7069-a318-408a-8eda-daca8a088450")
		)
		(instances
			(project "POC-TB"
				(path "/4b0101fb-345d-4dc9-888f-9906c9e8d5c9/22067d9e-8848-4726-be26-f0aecefffbf1"
					(reference "#PWR022")
					(unit 1)
				)
			)
		)
	)
	(symbol
		(lib_id "Connector:Conn_01x07_Pin")
		(at 139.7 109.22 0)
		(mirror y)
		(unit 1)
		(exclude_from_sim no)
		(in_bom yes)
		(on_board yes)
		(dnp no)
		(uuid "f64ec424-c383-40d0-8d3b-e4821852a8e9")
		(property "Reference" "J11"
			(at 139.7 99.06 0)
			(effects
				(font
					(size 1.27 1.27)
				)
			)
		)
		(property "Value" "Conn_01x07_Pin"
			(at 139.7 119.38 0)
			(effects
				(font
					(size 1.27 1.27)
				)
			)
		)
		(property "Footprint" "Connector_PinHeader_2.54mm:PinHeader_1x07_P2.54mm_Vertical"
			(at 139.7 109.22 0)
			(effects
				(font
					(size 1.27 1.27)
				)
				(hide yes)
			)
		)
		(property "Datasheet" "~"
			(at 139.7 109.22 0)
			(effects
				(font
					(size 1.27 1.27)
				)
				(hide yes)
			)
		)
		(property "Description" ""
			(at 139.7 109.22 0)
			(effects
				(font
					(size 1.27 1.27)
				)
				(hide yes)
			)
		)
		(pin "1"
			(uuid "4be506b7-8789-4b5a-aeec-016d9e984bd7")
		)
		(pin "2"
			(uuid "50e0cef1-c995-4e60-a3c2-4618b105e385")
		)
		(pin "3"
			(uuid "80aaafbe-7cd2-42f3-9ee4-a08753f13a85")
		)
		(pin "4"
			(uuid "73fca0fd-ab02-4da3-89b6-07e32c12f5c1")
		)
		(pin "5"
			(uuid "c4ce1652-1fd2-44db-93ac-f7d8327fcfb5")
		)
		(pin "6"
			(uuid "2245fce3-9d4c-4835-aa12-7367c9c21381")
		)
		(pin "7"
			(uuid "13eb9586-34f7-443f-adb0-4d6d6e9537d1")
		)
		(instances
			(project "POC-TB"
				(path "/4b0101fb-345d-4dc9-888f-9906c9e8d5c9/22067d9e-8848-4726-be26-f0aecefffbf1"
					(reference "J11")
					(unit 1)
				)
			)
		)
	)
)
