(kicad_sch
	(version 20231120)
	(generator "eeschema")
	(generator_version "8.0")
	(uuid "537fec65-bf9c-4a9a-88f8-4507833ef96c")
	(paper "A4")
	(title_block
		(title "GPS")
		(date "2024-07-18")
		(rev "Final")
	)
	(lib_symbols
		(symbol "Connector:Conn_01x04_Pin"
			(pin_names
				(offset 1.016) hide)
			(exclude_from_sim no)
			(in_bom yes)
			(on_board yes)
			(property "Reference" "J"
				(at 0 5.08 0)
				(effects
					(font
						(size 1.27 1.27)
					)
				)
			)
			(property "Value" "Conn_01x04_Pin"
				(at 0 -7.62 0)
				(effects
					(font
						(size 1.27 1.27)
					)
				)
			)
			(property "Footprint" ""
				(at 0 0 0)
				(effects
					(font
						(size 1.27 1.27)
					)
					(hide yes)
				)
			)
			(property "Datasheet" "~"
				(at 0 0 0)
				(effects
					(font
						(size 1.27 1.27)
					)
					(hide yes)
				)
			)
			(property "Description" "Generic connector, single row, 01x04, script generated"
				(at 0 0 0)
				(effects
					(font
						(size 1.27 1.27)
					)
					(hide yes)
				)
			)
			(property "ki_locked" ""
				(at 0 0 0)
				(effects
					(font
						(size 1.27 1.27)
					)
				)
			)
			(property "ki_keywords" "connector"
				(at 0 0 0)
				(effects
					(font
						(size 1.27 1.27)
					)
					(hide yes)
				)
			)
			(property "ki_fp_filters" "Connector*:*_1x??_*"
				(at 0 0 0)
				(effects
					(font
						(size 1.27 1.27)
					)
					(hide yes)
				)
			)
			(symbol "Conn_01x04_Pin_1_1"
				(polyline
					(pts
						(xy 1.27 -5.08) (xy 0.8636 -5.08)
					)
					(stroke
						(width 0.1524)
						(type default)
					)
					(fill
						(type none)
					)
				)
				(polyline
					(pts
						(xy 1.27 -2.54) (xy 0.8636 -2.54)
					)
					(stroke
						(width 0.1524)
						(type default)
					)
					(fill
						(type none)
					)
				)
				(polyline
					(pts
						(xy 1.27 0) (xy 0.8636 0)
					)
					(stroke
						(width 0.1524)
						(type default)
					)
					(fill
						(type none)
					)
				)
				(polyline
					(pts
						(xy 1.27 2.54) (xy 0.8636 2.54)
					)
					(stroke
						(width 0.1524)
						(type default)
					)
					(fill
						(type none)
					)
				)
				(rectangle
					(start 0.8636 -4.953)
					(end 0 -5.207)
					(stroke
						(width 0.1524)
						(type default)
					)
					(fill
						(type outline)
					)
				)
				(rectangle
					(start 0.8636 -2.413)
					(end 0 -2.667)
					(stroke
						(width 0.1524)
						(type default)
					)
					(fill
						(type outline)
					)
				)
				(rectangle
					(start 0.8636 0.127)
					(end 0 -0.127)
					(stroke
						(width 0.1524)
						(type default)
					)
					(fill
						(type outline)
					)
				)
				(rectangle
					(start 0.8636 2.667)
					(end 0 2.413)
					(stroke
						(width 0.1524)
						(type default)
					)
					(fill
						(type outline)
					)
				)
				(pin passive line
					(at 5.08 2.54 180)
					(length 3.81)
					(name "Pin_1"
						(effects
							(font
								(size 1.27 1.27)
							)
						)
					)
					(number "1"
						(effects
							(font
								(size 1.27 1.27)
							)
						)
					)
				)
				(pin passive line
					(at 5.08 0 180)
					(length 3.81)
					(name "Pin_2"
						(effects
							(font
								(size 1.27 1.27)
							)
						)
					)
					(number "2"
						(effects
							(font
								(size 1.27 1.27)
							)
						)
					)
				)
				(pin passive line
					(at 5.08 -2.54 180)
					(length 3.81)
					(name "Pin_3"
						(effects
							(font
								(size 1.27 1.27)
							)
						)
					)
					(number "3"
						(effects
							(font
								(size 1.27 1.27)
							)
						)
					)
				)
				(pin passive line
					(at 5.08 -5.08 180)
					(length 3.81)
					(name "Pin_4"
						(effects
							(font
								(size 1.27 1.27)
							)
						)
					)
					(number "4"
						(effects
							(font
								(size 1.27 1.27)
							)
						)
					)
				)
			)
		)
		(symbol "Connector:Conn_01x06_Socket"
			(pin_names
				(offset 1.016) hide)
			(exclude_from_sim no)
			(in_bom yes)
			(on_board yes)
			(property "Reference" "J"
				(at 0 7.62 0)
				(effects
					(font
						(size 1.27 1.27)
					)
				)
			)
			(property "Value" "Conn_01x06_Socket"
				(at 0 -10.16 0)
				(effects
					(font
						(size 1.27 1.27)
					)
				)
			)
			(property "Footprint" ""
				(at 0 0 0)
				(effects
					(font
						(size 1.27 1.27)
					)
					(hide yes)
				)
			)
			(property "Datasheet" "~"
				(at 0 0 0)
				(effects
					(font
						(size 1.27 1.27)
					)
					(hide yes)
				)
			)
			(property "Description" "Generic connector, single row, 01x06, script generated"
				(at 0 0 0)
				(effects
					(font
						(size 1.27 1.27)
					)
					(hide yes)
				)
			)
			(property "ki_locked" ""
				(at 0 0 0)
				(effects
					(font
						(size 1.27 1.27)
					)
				)
			)
			(property "ki_keywords" "connector"
				(at 0 0 0)
				(effects
					(font
						(size 1.27 1.27)
					)
					(hide yes)
				)
			)
			(property "ki_fp_filters" "Connector*:*_1x??_*"
				(at 0 0 0)
				(effects
					(font
						(size 1.27 1.27)
					)
					(hide yes)
				)
			)
			(symbol "Conn_01x06_Socket_1_1"
				(arc
					(start 0 -7.112)
					(mid -0.5058 -7.62)
					(end 0 -8.128)
					(stroke
						(width 0.1524)
						(type default)
					)
					(fill
						(type none)
					)
				)
				(arc
					(start 0 -4.572)
					(mid -0.5058 -5.08)
					(end 0 -5.588)
					(stroke
						(width 0.1524)
						(type default)
					)
					(fill
						(type none)
					)
				)
				(arc
					(start 0 -2.032)
					(mid -0.5058 -2.54)
					(end 0 -3.048)
					(stroke
						(width 0.1524)
						(type default)
					)
					(fill
						(type none)
					)
				)
				(polyline
					(pts
						(xy -1.27 -7.62) (xy -0.508 -7.62)
					)
					(stroke
						(width 0.1524)
						(type default)
					)
					(fill
						(type none)
					)
				)
				(polyline
					(pts
						(xy -1.27 -5.08) (xy -0.508 -5.08)
					)
					(stroke
						(width 0.1524)
						(type default)
					)
					(fill
						(type none)
					)
				)
				(polyline
					(pts
						(xy -1.27 -2.54) (xy -0.508 -2.54)
					)
					(stroke
						(width 0.1524)
						(type default)
					)
					(fill
						(type none)
					)
				)
				(polyline
					(pts
						(xy -1.27 0) (xy -0.508 0)
					)
					(stroke
						(width 0.1524)
						(type default)
					)
					(fill
						(type none)
					)
				)
				(polyline
					(pts
						(xy -1.27 2.54) (xy -0.508 2.54)
					)
					(stroke
						(width 0.1524)
						(type default)
					)
					(fill
						(type none)
					)
				)
				(polyline
					(pts
						(xy -1.27 5.08) (xy -0.508 5.08)
					)
					(stroke
						(width 0.1524)
						(type default)
					)
					(fill
						(type none)
					)
				)
				(arc
					(start 0 0.508)
					(mid -0.5058 0)
					(end 0 -0.508)
					(stroke
						(width 0.1524)
						(type default)
					)
					(fill
						(type none)
					)
				)
				(arc
					(start 0 3.048)
					(mid -0.5058 2.54)
					(end 0 2.032)
					(stroke
						(width 0.1524)
						(type default)
					)
					(fill
						(type none)
					)
				)
				(arc
					(start 0 5.588)
					(mid -0.5058 5.08)
					(end 0 4.572)
					(stroke
						(width 0.1524)
						(type default)
					)
					(fill
						(type none)
					)
				)
				(pin passive line
					(at -5.08 5.08 0)
					(length 3.81)
					(name "Pin_1"
						(effects
							(font
								(size 1.27 1.27)
							)
						)
					)
					(number "1"
						(effects
							(font
								(size 1.27 1.27)
							)
						)
					)
				)
				(pin passive line
					(at -5.08 2.54 0)
					(length 3.81)
					(name "Pin_2"
						(effects
							(font
								(size 1.27 1.27)
							)
						)
					)
					(number "2"
						(effects
							(font
								(size 1.27 1.27)
							)
						)
					)
				)
				(pin passive line
					(at -5.08 0 0)
					(length 3.81)
					(name "Pin_3"
						(effects
							(font
								(size 1.27 1.27)
							)
						)
					)
					(number "3"
						(effects
							(font
								(size 1.27 1.27)
							)
						)
					)
				)
				(pin passive line
					(at -5.08 -2.54 0)
					(length 3.81)
					(name "Pin_4"
						(effects
							(font
								(size 1.27 1.27)
							)
						)
					)
					(number "4"
						(effects
							(font
								(size 1.27 1.27)
							)
						)
					)
				)
				(pin passive line
					(at -5.08 -5.08 0)
					(length 3.81)
					(name "Pin_5"
						(effects
							(font
								(size 1.27 1.27)
							)
						)
					)
					(number "5"
						(effects
							(font
								(size 1.27 1.27)
							)
						)
					)
				)
				(pin passive line
					(at -5.08 -7.62 0)
					(length 3.81)
					(name "Pin_6"
						(effects
							(font
								(size 1.27 1.27)
							)
						)
					)
					(number "6"
						(effects
							(font
								(size 1.27 1.27)
							)
						)
					)
				)
			)
		)
		(symbol "power:+3V3"
			(power)
			(pin_names
				(offset 0)
			)
			(exclude_from_sim no)
			(in_bom yes)
			(on_board yes)
			(property "Reference" "#PWR"
				(at 0 -3.81 0)
				(effects
					(font
						(size 1.27 1.27)
					)
					(hide yes)
				)
			)
			(property "Value" "+3V3"
				(at 0 3.556 0)
				(effects
					(font
						(size 1.27 1.27)
					)
				)
			)
			(property "Footprint" ""
				(at 0 0 0)
				(effects
					(font
						(size 1.27 1.27)
					)
					(hide yes)
				)
			)
			(property "Datasheet" ""
				(at 0 0 0)
				(effects
					(font
						(size 1.27 1.27)
					)
					(hide yes)
				)
			)
			(property "Description" "Power symbol creates a global label with name \"+3V3\""
				(at 0 0 0)
				(effects
					(font
						(size 1.27 1.27)
					)
					(hide yes)
				)
			)
			(property "ki_keywords" "global power"
				(at 0 0 0)
				(effects
					(font
						(size 1.27 1.27)
					)
					(hide yes)
				)
			)
			(symbol "+3V3_0_1"
				(polyline
					(pts
						(xy -0.762 1.27) (xy 0 2.54)
					)
					(stroke
						(width 0)
						(type default)
					)
					(fill
						(type none)
					)
				)
				(polyline
					(pts
						(xy 0 0) (xy 0 2.54)
					)
					(stroke
						(width 0)
						(type default)
					)
					(fill
						(type none)
					)
				)
				(polyline
					(pts
						(xy 0 2.54) (xy 0.762 1.27)
					)
					(stroke
						(width 0)
						(type default)
					)
					(fill
						(type none)
					)
				)
			)
			(symbol "+3V3_1_1"
				(pin power_in line
					(at 0 0 90)
					(length 0) hide
					(name "+3V3"
						(effects
							(font
								(size 1.27 1.27)
							)
						)
					)
					(number "1"
						(effects
							(font
								(size 1.27 1.27)
							)
						)
					)
				)
			)
		)
		(symbol "power:GND"
			(power)
			(pin_names
				(offset 0)
			)
			(exclude_from_sim no)
			(in_bom yes)
			(on_board yes)
			(property "Reference" "#PWR"
				(at 0 -6.35 0)
				(effects
					(font
						(size 1.27 1.27)
					)
					(hide yes)
				)
			)
			(property "Value" "GND"
				(at 0 -3.81 0)
				(effects
					(font
						(size 1.27 1.27)
					)
				)
			)
			(property "Footprint" ""
				(at 0 0 0)
				(effects
					(font
						(size 1.27 1.27)
					)
					(hide yes)
				)
			)
			(property "Datasheet" ""
				(at 0 0 0)
				(effects
					(font
						(size 1.27 1.27)
					)
					(hide yes)
				)
			)
			(property "Description" "Power symbol creates a global label with name \"GND\" , ground"
				(at 0 0 0)
				(effects
					(font
						(size 1.27 1.27)
					)
					(hide yes)
				)
			)
			(property "ki_keywords" "global power"
				(at 0 0 0)
				(effects
					(font
						(size 1.27 1.27)
					)
					(hide yes)
				)
			)
			(symbol "GND_0_1"
				(polyline
					(pts
						(xy 0 0) (xy 0 -1.27) (xy 1.27 -1.27) (xy 0 -2.54) (xy -1.27 -1.27) (xy 0 -1.27)
					)
					(stroke
						(width 0)
						(type default)
					)
					(fill
						(type none)
					)
				)
			)
			(symbol "GND_1_1"
				(pin power_in line
					(at 0 0 270)
					(length 0) hide
					(name "GND"
						(effects
							(font
								(size 1.27 1.27)
							)
						)
					)
					(number "1"
						(effects
							(font
								(size 1.27 1.27)
							)
						)
					)
				)
			)
		)
	)
	(wire
		(pts
			(xy 185.42 106.68) (xy 198.12 106.68)
		)
		(stroke
			(width 0)
			(type default)
		)
		(uuid "097ab11a-171e-4880-8f78-658a29e7c096")
	)
	(wire
		(pts
			(xy 88.9 102.87) (xy 101.6 102.87)
		)
		(stroke
			(width 0)
			(type default)
		)
		(uuid "1061e3f0-0f87-4525-acce-399edd0f12ce")
	)
	(wire
		(pts
			(xy 81.28 105.41) (xy 101.6 105.41)
		)
		(stroke
			(width 0)
			(type default)
		)
		(uuid "10a0d181-84b4-4b0d-b6eb-9b182663c05a")
	)
	(wire
		(pts
			(xy 119.38 101.6) (xy 134.62 101.6)
		)
		(stroke
			(width 0)
			(type default)
		)
		(uuid "27db1db1-f573-4370-8984-d14beb499d6e")
	)
	(wire
		(pts
			(xy 160.02 106.68) (xy 172.72 106.68)
		)
		(stroke
			(width 0)
			(type default)
		)
		(uuid "3c83a654-23d3-474e-8ff5-34d5492ecbd3")
	)
	(wire
		(pts
			(xy 160.02 104.14) (xy 172.72 104.14)
		)
		(stroke
			(width 0)
			(type default)
		)
		(uuid "4244d233-d578-4616-8af1-80f2ec8fae00")
	)
	(wire
		(pts
			(xy 114.3 96.52) (xy 114.3 95.25)
		)
		(stroke
			(width 0)
			(type default)
		)
		(uuid "427a2680-ed91-494b-8470-e9682f3ac304")
	)
	(wire
		(pts
			(xy 88.9 100.33) (xy 101.6 100.33)
		)
		(stroke
			(width 0)
			(type default)
		)
		(uuid "549ce009-770e-4d4f-8806-33950a95dbdc")
	)
	(wire
		(pts
			(xy 160.02 101.6) (xy 172.72 101.6)
		)
		(stroke
			(width 0)
			(type default)
		)
		(uuid "57766aaa-f655-47d2-a0c8-a05a1db6fd1c")
	)
	(wire
		(pts
			(xy 114.3 95.25) (xy 119.38 95.25)
		)
		(stroke
			(width 0)
			(type default)
		)
		(uuid "5951d4e7-2e22-4b17-a988-15025e57062f")
	)
	(wire
		(pts
			(xy 160.02 109.22) (xy 172.72 109.22)
		)
		(stroke
			(width 0)
			(type default)
		)
		(uuid "5bf6c33b-691c-4f61-994e-7764be1394fb")
	)
	(wire
		(pts
			(xy 121.92 114.3) (xy 134.62 114.3)
		)
		(stroke
			(width 0)
			(type default)
		)
		(uuid "6b1d5059-31ef-446b-907d-2d4830d3913a")
	)
	(wire
		(pts
			(xy 185.42 101.6) (xy 198.12 101.6)
		)
		(stroke
			(width 0)
			(type default)
		)
		(uuid "75fc600f-d457-469b-8807-131dc970a2e3")
	)
	(wire
		(pts
			(xy 88.9 99.06) (xy 88.9 100.33)
		)
		(stroke
			(width 0)
			(type default)
		)
		(uuid "8023246e-d374-459b-8b04-85df6ceae24c")
	)
	(wire
		(pts
			(xy 119.38 95.25) (xy 119.38 101.6)
		)
		(stroke
			(width 0)
			(type default)
		)
		(uuid "843d4489-e949-4db5-96ad-c9e366e612fe")
	)
	(wire
		(pts
			(xy 121.92 104.14) (xy 134.62 104.14)
		)
		(stroke
			(width 0)
			(type default)
		)
		(uuid "878e5f26-bd29-431d-afe3-4ca74269d3f4")
	)
	(wire
		(pts
			(xy 118.11 105.41) (xy 118.11 106.68)
		)
		(stroke
			(width 0)
			(type default)
		)
		(uuid "98e557fb-1231-4a65-8df2-f904b03ed4bd")
	)
	(wire
		(pts
			(xy 118.11 106.68) (xy 134.62 106.68)
		)
		(stroke
			(width 0)
			(type default)
		)
		(uuid "bc3621b3-40ad-4708-8f77-5a84bb91f52b")
	)
	(wire
		(pts
			(xy 88.9 107.95) (xy 101.6 107.95)
		)
		(stroke
			(width 0)
			(type default)
		)
		(uuid "ca67e46e-0c8c-414e-b2bc-06cc0b78390d")
	)
	(wire
		(pts
			(xy 185.42 109.22) (xy 198.12 109.22)
		)
		(stroke
			(width 0)
			(type default)
		)
		(uuid "cd13d493-3095-44ee-971e-68a7928c973b")
	)
	(wire
		(pts
			(xy 88.9 110.49) (xy 101.6 110.49)
		)
		(stroke
			(width 0)
			(type default)
		)
		(uuid "d108eb13-8c41-40ec-906d-35814daa0418")
	)
	(wire
		(pts
			(xy 121.92 111.76) (xy 134.62 111.76)
		)
		(stroke
			(width 0)
			(type default)
		)
		(uuid "e4631b6c-1cd8-4b6b-9105-647b29ecafe8")
	)
	(wire
		(pts
			(xy 88.9 113.03) (xy 101.6 113.03)
		)
		(stroke
			(width 0)
			(type default)
		)
		(uuid "e940ae9b-e469-4e81-b98d-7f0f30708164")
	)
	(wire
		(pts
			(xy 185.42 104.14) (xy 198.12 104.14)
		)
		(stroke
			(width 0)
			(type default)
		)
		(uuid "ebdab69f-1876-483a-b383-3a584565ef80")
	)
	(wire
		(pts
			(xy 121.92 109.22) (xy 134.62 109.22)
		)
		(stroke
			(width 0)
			(type default)
		)
		(uuid "f1b0a568-c93d-4514-b02d-aa6fc69e7f53")
	)
	(wire
		(pts
			(xy 81.28 107.95) (xy 81.28 105.41)
		)
		(stroke
			(width 0)
			(type default)
		)
		(uuid "f877cd01-d68a-4f78-9a61-88555d23e60d")
	)
	(label "GPS_TX0"
		(at 121.92 111.76 0)
		(fields_autoplaced yes)
		(effects
			(font
				(size 1.27 1.27)
			)
			(justify left bottom)
		)
		(uuid "08cec5a0-11ca-4208-a46b-1a9a94de872b")
	)
	(label "GPS_SDA"
		(at 160.02 106.68 0)
		(fields_autoplaced yes)
		(effects
			(font
				(size 1.27 1.27)
			)
			(justify left bottom)
		)
		(uuid "0b249bee-a9fe-4acb-97e1-d7e56a46c62f")
	)
	(label "GPS_RST"
		(at 88.9 113.03 0)
		(fields_autoplaced yes)
		(effects
			(font
				(size 1.27 1.27)
			)
			(justify left bottom)
		)
		(uuid "17ee0873-2c81-43e5-964f-54c6d9ec672d")
	)
	(label "GPS_3V3"
		(at 160.02 101.6 0)
		(fields_autoplaced yes)
		(effects
			(font
				(size 1.27 1.27)
			)
			(justify left bottom)
		)
		(uuid "20ab807e-324a-4c6e-aad0-46005818445f")
	)
	(label "GPS_PPS"
		(at 185.42 101.6 0)
		(fields_autoplaced yes)
		(effects
			(font
				(size 1.27 1.27)
			)
			(justify left bottom)
		)
		(uuid "49a79395-b05d-4c54-8e32-fc61585a3986")
	)
	(label "GPS_PPS"
		(at 121.92 104.14 0)
		(fields_autoplaced yes)
		(effects
			(font
				(size 1.27 1.27)
			)
			(justify left bottom)
		)
		(uuid "4b1d176c-2dae-4044-ad53-f11a7620526a")
	)
	(label "GPS_TX0"
		(at 185.42 106.68 0)
		(fields_autoplaced yes)
		(effects
			(font
				(size 1.27 1.27)
			)
			(justify left bottom)
		)
		(uuid "50de9f2e-bcd9-4767-a87c-3d1d643d6c80")
	)
	(label "GPS_RXI"
		(at 121.92 109.22 0)
		(fields_autoplaced yes)
		(effects
			(font
				(size 1.27 1.27)
			)
			(justify left bottom)
		)
		(uuid "7e44694c-861f-466d-ac61-3e60f2d7d651")
	)
	(label "GPS_SCL"
		(at 160.02 104.14 0)
		(fields_autoplaced yes)
		(effects
			(font
				(size 1.27 1.27)
			)
			(justify left bottom)
		)
		(uuid "a2cac83d-ed31-4ebf-b1cf-7eb9b2162bf5")
	)
	(label "GPS_WAKE"
		(at 121.92 114.3 0)
		(fields_autoplaced yes)
		(effects
			(font
				(size 1.27 1.27)
			)
			(justify left bottom)
		)
		(uuid "aa52e04d-7790-45a9-bb77-8b91f010e7e8")
	)
	(label "GPS_SDA"
		(at 88.9 110.49 0)
		(fields_autoplaced yes)
		(effects
			(font
				(size 1.27 1.27)
			)
			(justify left bottom)
		)
		(uuid "b6838637-07e5-40dd-a0ff-b1a6969c8641")
	)
	(label "GPS_SCL"
		(at 88.9 107.95 0)
		(fields_autoplaced yes)
		(effects
			(font
				(size 1.27 1.27)
			)
			(justify left bottom)
		)
		(uuid "b8f4db20-6303-4871-9167-f9835bee6e90")
	)
	(label "GPS_WAKE"
		(at 185.42 109.22 0)
		(fields_autoplaced yes)
		(effects
			(font
				(size 1.27 1.27)
			)
			(justify left bottom)
		)
		(uuid "d2148feb-4d9f-44cb-a075-99104bc4e567")
	)
	(label "GPS_3V3"
		(at 88.9 102.87 0)
		(fields_autoplaced yes)
		(effects
			(font
				(size 1.27 1.27)
			)
			(justify left bottom)
		)
		(uuid "d7d86040-3057-4b74-a890-798ff630f004")
	)
	(label "GPS_RXI"
		(at 185.42 104.14 0)
		(fields_autoplaced yes)
		(effects
			(font
				(size 1.27 1.27)
			)
			(justify left bottom)
		)
		(uuid "e386df89-e62f-4440-a5f3-671dea40cfd9")
	)
	(label "GPS_RST"
		(at 160.02 109.22 0)
		(fields_autoplaced yes)
		(effects
			(font
				(size 1.27 1.27)
			)
			(justify left bottom)
		)
		(uuid "f3019000-1b03-44ad-8599-b08ac02ec737")
	)
	(symbol
		(lib_id "Connector:Conn_01x06_Socket")
		(at 139.7 106.68 0)
		(unit 1)
		(exclude_from_sim no)
		(in_bom yes)
		(on_board yes)
		(dnp no)
		(uuid "11606d6e-d0f4-4bd9-880d-66b30f5fe44a")
		(property "Reference" "J42"
			(at 139.7 99.06 0)
			(effects
				(font
					(size 1.27 1.27)
				)
			)
		)
		(property "Value" "Conn_01x06_Socket"
			(at 139.7 116.84 0)
			(effects
				(font
					(size 1.27 1.27)
				)
			)
		)
		(property "Footprint" "Connector_PinSocket_2.54mm:PinSocket_1x06_P2.54mm_Vertical"
			(at 139.7 106.68 0)
			(effects
				(font
					(size 1.27 1.27)
				)
				(hide yes)
			)
		)
		(property "Datasheet" "~"
			(at 139.7 106.68 0)
			(effects
				(font
					(size 1.27 1.27)
				)
				(hide yes)
			)
		)
		(property "Description" ""
			(at 139.7 106.68 0)
			(effects
				(font
					(size 1.27 1.27)
				)
				(hide yes)
			)
		)
		(pin "1"
			(uuid "28cb9676-5f34-4404-9679-3c1fcfe15f3e")
		)
		(pin "2"
			(uuid "adcd6cd0-db02-4f5f-8e6b-d6eafaef3777")
		)
		(pin "3"
			(uuid "41472f7d-4b00-4bd3-8642-ce31a3cd7e43")
		)
		(pin "4"
			(uuid "532b0f1f-76e3-4448-9631-26af5d7a0781")
		)
		(pin "5"
			(uuid "389d5c7c-d19c-46bc-b3e6-5036404aa723")
		)
		(pin "6"
			(uuid "cf77d363-283a-49f4-a62a-1df5790466c7")
		)
		(instances
			(project "POC-TB"
				(path "/4b0101fb-345d-4dc9-888f-9906c9e8d5c9/868ddd8b-c6cc-4bdb-b3ba-8298e8750084"
					(reference "J42")
					(unit 1)
				)
			)
		)
	)
	(symbol
		(lib_id "power:GND")
		(at 81.28 107.95 0)
		(unit 1)
		(exclude_from_sim no)
		(in_bom yes)
		(on_board yes)
		(dnp no)
		(uuid "37245a80-449c-426a-be36-fd7fb9f6b580")
		(property "Reference" "#PWR070"
			(at 81.28 114.3 0)
			(effects
				(font
					(size 1.27 1.27)
				)
				(hide yes)
			)
		)
		(property "Value" "GND"
			(at 78.74 107.95 0)
			(effects
				(font
					(size 1.27 1.27)
				)
			)
		)
		(property "Footprint" ""
			(at 81.28 107.95 0)
			(effects
				(font
					(size 1.27 1.27)
				)
				(hide yes)
			)
		)
		(property "Datasheet" ""
			(at 81.28 107.95 0)
			(effects
				(font
					(size 1.27 1.27)
				)
				(hide yes)
			)
		)
		(property "Description" ""
			(at 81.28 107.95 0)
			(effects
				(font
					(size 1.27 1.27)
				)
				(hide yes)
			)
		)
		(pin "1"
			(uuid "544bd55b-505f-4da3-a768-46eed26c75cf")
		)
		(instances
			(project "POC-TB"
				(path "/4b0101fb-345d-4dc9-888f-9906c9e8d5c9/868ddd8b-c6cc-4bdb-b3ba-8298e8750084"
					(reference "#PWR070")
					(unit 1)
				)
			)
		)
	)
	(symbol
		(lib_id "power:+3V3")
		(at 118.11 105.41 0)
		(unit 1)
		(exclude_from_sim no)
		(in_bom yes)
		(on_board yes)
		(dnp no)
		(uuid "4b8e6373-7785-47f1-b9a2-916d8aaba26d")
		(property "Reference" "#PWR097"
			(at 118.11 109.22 0)
			(effects
				(font
					(size 1.27 1.27)
				)
				(hide yes)
			)
		)
		(property "Value" "+3V3"
			(at 114.3 102.87 0)
			(effects
				(font
					(size 1.27 1.27)
				)
			)
		)
		(property "Footprint" ""
			(at 118.11 105.41 0)
			(effects
				(font
					(size 1.27 1.27)
				)
				(hide yes)
			)
		)
		(property "Datasheet" ""
			(at 118.11 105.41 0)
			(effects
				(font
					(size 1.27 1.27)
				)
				(hide yes)
			)
		)
		(property "Description" ""
			(at 118.11 105.41 0)
			(effects
				(font
					(size 1.27 1.27)
				)
				(hide yes)
			)
		)
		(pin "1"
			(uuid "16e6786b-7c3a-435b-a66b-7801c84cc240")
		)
		(instances
			(project "POC-TB"
				(path "/4b0101fb-345d-4dc9-888f-9906c9e8d5c9/868ddd8b-c6cc-4bdb-b3ba-8298e8750084"
					(reference "#PWR097")
					(unit 1)
				)
			)
		)
	)
	(symbol
		(lib_id "Connector:Conn_01x06_Socket")
		(at 106.68 105.41 0)
		(unit 1)
		(exclude_from_sim no)
		(in_bom yes)
		(on_board yes)
		(dnp no)
		(uuid "52acc754-4192-4b84-a8f5-d77858088571")
		(property "Reference" "J27"
			(at 106.68 97.79 0)
			(effects
				(font
					(size 1.27 1.27)
				)
			)
		)
		(property "Value" "Conn_01x06_Socket"
			(at 106.68 115.57 0)
			(effects
				(font
					(size 1.27 1.27)
				)
			)
		)
		(property "Footprint" "Connector_PinSocket_2.54mm:PinSocket_1x06_P2.54mm_Vertical"
			(at 106.68 105.41 0)
			(effects
				(font
					(size 1.27 1.27)
				)
				(hide yes)
			)
		)
		(property "Datasheet" "~"
			(at 106.68 105.41 0)
			(effects
				(font
					(size 1.27 1.27)
				)
				(hide yes)
			)
		)
		(property "Description" ""
			(at 106.68 105.41 0)
			(effects
				(font
					(size 1.27 1.27)
				)
				(hide yes)
			)
		)
		(pin "1"
			(uuid "628e32a1-d787-4a7f-8eb6-49ccfe59bedb")
		)
		(pin "2"
			(uuid "8cadef43-3c68-4e90-8986-f09a67a978c0")
		)
		(pin "3"
			(uuid "4849286b-7dda-4330-8646-d0bd5b661e9c")
		)
		(pin "4"
			(uuid "c198a2c7-53e1-43f9-b565-37626d605a64")
		)
		(pin "5"
			(uuid "a3d9937b-c382-4065-ac45-dfc948b90a6b")
		)
		(pin "6"
			(uuid "335abf3e-9d5e-429e-b656-83a40688d6e4")
		)
		(instances
			(project "POC-TB"
				(path "/4b0101fb-345d-4dc9-888f-9906c9e8d5c9/868ddd8b-c6cc-4bdb-b3ba-8298e8750084"
					(reference "J27")
					(unit 1)
				)
			)
		)
	)
	(symbol
		(lib_id "Connector:Conn_01x04_Pin")
		(at 203.2 104.14 0)
		(mirror y)
		(unit 1)
		(exclude_from_sim no)
		(in_bom yes)
		(on_board yes)
		(dnp no)
		(uuid "62f495d2-d42f-4418-ac1a-e1c6fc4c0715")
		(property "Reference" "J43"
			(at 203.2 99.06 0)
			(effects
				(font
					(size 1.27 1.27)
				)
			)
		)
		(property "Value" "Conn_01x04_Pin"
			(at 203.2 111.76 0)
			(effects
				(font
					(size 1.27 1.27)
				)
			)
		)
		(property "Footprint" "Connector_PinHeader_2.54mm:PinHeader_1x04_P2.54mm_Vertical"
			(at 203.2 104.14 0)
			(effects
				(font
					(size 1.27 1.27)
				)
				(hide yes)
			)
		)
		(property "Datasheet" "~"
			(at 203.2 104.14 0)
			(effects
				(font
					(size 1.27 1.27)
				)
				(hide yes)
			)
		)
		(property "Description" ""
			(at 203.2 104.14 0)
			(effects
				(font
					(size 1.27 1.27)
				)
				(hide yes)
			)
		)
		(pin "1"
			(uuid "b128afa8-a1ce-416f-9713-04ddf847bdf8")
		)
		(pin "2"
			(uuid "149ed19f-bf9f-4198-be5b-809be4da3609")
		)
		(pin "3"
			(uuid "7937b6c2-4750-42f2-9b95-4aaba61dba56")
		)
		(pin "4"
			(uuid "b658042c-17f1-4d40-adf1-fed145bcbbb2")
		)
		(instances
			(project "POC-TB"
				(path "/4b0101fb-345d-4dc9-888f-9906c9e8d5c9/868ddd8b-c6cc-4bdb-b3ba-8298e8750084"
					(reference "J43")
					(unit 1)
				)
			)
		)
	)
	(symbol
		(lib_id "power:+3V3")
		(at 88.9 99.06 0)
		(unit 1)
		(exclude_from_sim no)
		(in_bom yes)
		(on_board yes)
		(dnp no)
		(uuid "70f9aa98-56ec-49c4-8316-e92738bcd696")
		(property "Reference" "#PWR071"
			(at 88.9 102.87 0)
			(effects
				(font
					(size 1.27 1.27)
				)
				(hide yes)
			)
		)
		(property "Value" "+3V3"
			(at 92.71 96.52 0)
			(effects
				(font
					(size 1.27 1.27)
				)
			)
		)
		(property "Footprint" ""
			(at 88.9 99.06 0)
			(effects
				(font
					(size 1.27 1.27)
				)
				(hide yes)
			)
		)
		(property "Datasheet" ""
			(at 88.9 99.06 0)
			(effects
				(font
					(size 1.27 1.27)
				)
				(hide yes)
			)
		)
		(property "Description" ""
			(at 88.9 99.06 0)
			(effects
				(font
					(size 1.27 1.27)
				)
				(hide yes)
			)
		)
		(pin "1"
			(uuid "6bc93bb1-274b-4f82-9437-6e904c648b6f")
		)
		(instances
			(project "POC-TB"
				(path "/4b0101fb-345d-4dc9-888f-9906c9e8d5c9/868ddd8b-c6cc-4bdb-b3ba-8298e8750084"
					(reference "#PWR071")
					(unit 1)
				)
			)
		)
	)
	(symbol
		(lib_id "power:GND")
		(at 114.3 96.52 0)
		(unit 1)
		(exclude_from_sim no)
		(in_bom yes)
		(on_board yes)
		(dnp no)
		(uuid "91ada994-45b4-4a2e-bb81-4166d2209065")
		(property "Reference" "#PWR098"
			(at 114.3 102.87 0)
			(effects
				(font
					(size 1.27 1.27)
				)
				(hide yes)
			)
		)
		(property "Value" "GND"
			(at 111.76 96.52 0)
			(effects
				(font
					(size 1.27 1.27)
				)
			)
		)
		(property "Footprint" ""
			(at 114.3 96.52 0)
			(effects
				(font
					(size 1.27 1.27)
				)
				(hide yes)
			)
		)
		(property "Datasheet" ""
			(at 114.3 96.52 0)
			(effects
				(font
					(size 1.27 1.27)
				)
				(hide yes)
			)
		)
		(property "Description" ""
			(at 114.3 96.52 0)
			(effects
				(font
					(size 1.27 1.27)
				)
				(hide yes)
			)
		)
		(pin "1"
			(uuid "ee5b0385-acc1-4c63-92e3-411817ffa557")
		)
		(instances
			(project "POC-TB"
				(path "/4b0101fb-345d-4dc9-888f-9906c9e8d5c9/868ddd8b-c6cc-4bdb-b3ba-8298e8750084"
					(reference "#PWR098")
					(unit 1)
				)
			)
		)
	)
	(symbol
		(lib_id "Connector:Conn_01x04_Pin")
		(at 177.8 104.14 0)
		(mirror y)
		(unit 1)
		(exclude_from_sim no)
		(in_bom yes)
		(on_board yes)
		(dnp no)
		(uuid "b736c9fb-23a4-4b08-b51b-94fae90e3f1a")
		(property "Reference" "J28"
			(at 177.8 99.06 0)
			(effects
				(font
					(size 1.27 1.27)
				)
			)
		)
		(property "Value" "Conn_01x04_Pin"
			(at 177.8 111.76 0)
			(effects
				(font
					(size 1.27 1.27)
				)
			)
		)
		(property "Footprint" "Connector_PinHeader_2.54mm:PinHeader_1x04_P2.54mm_Vertical"
			(at 177.8 104.14 0)
			(effects
				(font
					(size 1.27 1.27)
				)
				(hide yes)
			)
		)
		(property "Datasheet" "~"
			(at 177.8 104.14 0)
			(effects
				(font
					(size 1.27 1.27)
				)
				(hide yes)
			)
		)
		(property "Description" ""
			(at 177.8 104.14 0)
			(effects
				(font
					(size 1.27 1.27)
				)
				(hide yes)
			)
		)
		(pin "1"
			(uuid "43daf034-48c4-4ca9-989e-2c53d93d0ef1")
		)
		(pin "2"
			(uuid "df0d132b-5df4-4878-a1e3-3098cb80c540")
		)
		(pin "3"
			(uuid "009627a0-5c15-4b64-bd8d-1cf994f84989")
		)
		(pin "4"
			(uuid "a9a389f6-529c-4d13-8387-1dbe858eca35")
		)
		(instances
			(project "POC-TB"
				(path "/4b0101fb-345d-4dc9-888f-9906c9e8d5c9/868ddd8b-c6cc-4bdb-b3ba-8298e8750084"
					(reference "J28")
					(unit 1)
				)
			)
		)
	)
)
