{
  "board": {
    "3dviewports": [],
    "design_settings": {
      "defaults": {
        "board_outline_line_width": 0.09999999999999999,
        "copper_line_width": 0.19999999999999998,
        "copper_text_italic": false,
        "copper_text_size_h": 1.5,
        "copper_text_size_v": 1.5,
        "copper_text_thickness": 0.3,
        "copper_text_upright": false,
        "courtyard_line_width": 0.049999999999999996,
        "dimension_precision": 4,
        "dimension_units": 3,
        "dimensions": {
          "arrow_length": 1270000,
          "extension_offset": 500000,
          "keep_text_aligned": true,
          "suppress_zeroes": false,
          "text_position": 0,
          "units_format": 1
        },
        "fab_line_width": 0.09999999999999999,
        "fab_text_italic": false,
        "fab_text_size_h": 1.0,
        "fab_text_size_v": 1.0,
        "fab_text_thickness": 0.15,
        "fab_text_upright": false,
        "other_line_width": 0.15,
        "other_text_italic": false,
        "other_text_size_h": 1.0,
        "other_text_size_v": 1.0,
        "other_text_thickness": 0.15,
        "other_text_upright": false,
        "pads": {
          "drill": 0.0,
          "height": 0.8,
          "width": 0.3
        },
        "silk_line_width": 0.15,
        "silk_text_italic": false,
        "silk_text_size_h": 1.0,
        "silk_text_size_v": 1.0,
        "silk_text_thickness": 0.15,
        "silk_text_upright": false,
        "zones": {
          "45_degree_only": false,
          "min_clearance": 0.19999999999999998
        }
      },
      "diff_pair_dimensions": [
        {
          "gap": 0.0,
          "via_gap": 0.0,
          "width": 0.0
        }
      ],
      "drc_exclusions": [
        "clearance|189835874|54699100|6fe531f5-9ab1-46ce-9f13-9f5ae6c18ea8|2556182e-cc2a-413f-8e7b-73ad2ab00af3",
        "clearance|189835874|55175641|18ea0139-2ea2-4679-9f99-7191ca1fe605|2556182e-cc2a-413f-8e7b-73ad2ab00af3",
        "clearance|189877234|52582441|c7353e9e-7bed-41c4-8f18-ac660ff69a74|2556182e-cc2a-413f-8e7b-73ad2ab00af3",
        "clearance|189877234|55132441|060a11d7-2d4a-46f4-a883-758667fbe6b4|2556182e-cc2a-413f-8e7b-73ad2ab00af3",
        "clearance|189879000|52582515|632ca528-4b7d-4d0f-876f-3c08591bd09d|2556182e-cc2a-413f-8e7b-73ad2ab00af3",
        "clearance|189879000|52582515|98f8cdd4-fdd7-40e2-bbf9-19618b1a6274|2556182e-cc2a-413f-8e7b-73ad2ab00af3",
        "clearance|189879000|53857515|1740e4f7-de31-40f5-9a5f-df45d7f1010b|2556182e-cc2a-413f-8e7b-73ad2ab00af3",
        "clearance|189879000|53857515|3653e9f9-fa6f-4658-8b77-64a378bc1e19|2556182e-cc2a-413f-8e7b-73ad2ab00af3",
        "clearance|189879000|54836266|389b9f1e-9c15-494e-a84f-84dbb7e76e51|2556182e-cc2a-413f-8e7b-73ad2ab00af3",
        "clearance|189879000|55132515|234d9698-d0ce-437a-acfb-2aaaaf811112|2556182e-cc2a-413f-8e7b-73ad2ab00af3",
        "clearance|189879000|55132515|687cf7f5-3788-4154-98c2-3c407775ca05|2556182e-cc2a-413f-8e7b-73ad2ab00af3",
        "clearance|190092400|41910100|05563fe1-635b-4381-821f-1c74344c45d4|f1c1c56c-31d8-4c98-8d7d-18d439e03944",
        "clearance|190212400|52540841|973ef540-48ca-4536-b30f-ab1429f595ff|2556182e-cc2a-413f-8e7b-73ad2ab00af3",
        "clearance|190242400|42680100|a3dc6080-21ad-47d3-acf4-d0f06af389a6|d97a6b92-1e35-4b25-ac95-c7751e1e3311",
        "clearance|190253926|52582515|f61addb9-3449-48fd-a8b0-00d364583940|2556182e-cc2a-413f-8e7b-73ad2ab00af3",
        "clearance|190254000|52582441|4f54c6d8-b3bc-4ca9-ad2b-0585bedd842f|2556182e-cc2a-413f-8e7b-73ad2ab00af3",
        "clearance|190642400|41910100|f1c1c56c-31d8-4c98-8d7d-18d439e03944|6de3397e-907b-455c-889c-b6145e12e920",
        "clearance|190792400|42680100|3cc38cc4-0905-448a-a1cd-bb5670198d44|a3dc6080-21ad-47d3-acf4-d0f06af389a6",
        "clearance|191152234|52582441|9c4996d3-5a74-4b4d-89a2-272afb6b40eb|2556182e-cc2a-413f-8e7b-73ad2ab00af3",
        "clearance|191152234|53857441|a33c9fe7-4a39-4f78-a596-6095efc39937|2556182e-cc2a-413f-8e7b-73ad2ab00af3",
        "clearance|191154000|52582515|13b4ed46-1126-48f1-b73f-a3c1462f150d|2556182e-cc2a-413f-8e7b-73ad2ab00af3",
        "clearance|191154000|53857515|1b291e74-4326-47f3-b395-75141906dddb|2556182e-cc2a-413f-8e7b-73ad2ab00af3",
        "clearance|191154000|55132515|0daf22c8-1bf2-4848-a372-0f687189210f|2556182e-cc2a-413f-8e7b-73ad2ab00af3",
        "clearance|191209289|55187804|4f245d1a-c421-4463-a171-8b8930f7de74|2556182e-cc2a-413f-8e7b-73ad2ab00af3",
        "clearance|191408800|55187804|31183fd6-9ab6-4ea4-a0ca-74fe0cd7ec0c|2556182e-cc2a-413f-8e7b-73ad2ab00af3",
        "clearance|192427234|52582441|abf87a5e-6167-44ea-af22-1fd4cfa7d8a2|2556182e-cc2a-413f-8e7b-73ad2ab00af3",
        "clearance|192427234|53857441|4e51359c-c5a1-405c-99cd-772f943f7d19|2556182e-cc2a-413f-8e7b-73ad2ab00af3",
        "clearance|192427234|55132441|95e21548-6c2f-4f21-a4f3-03abc1b9a0f5|2556182e-cc2a-413f-8e7b-73ad2ab00af3",
        "clearance|192429000|52582515|b7f1ebc5-7496-4216-99df-73546fc69f94|2556182e-cc2a-413f-8e7b-73ad2ab00af3",
        "clearance|192429000|53282734|a6342bed-dd69-49cf-bae8-ea01807a33d2|2556182e-cc2a-413f-8e7b-73ad2ab00af3",
        "clearance|192429000|53857515|41671811-c58b-42f7-9454-165b8639214c|2556182e-cc2a-413f-8e7b-73ad2ab00af3",
        "clearance|192429000|53857515|a761a8d0-197b-445b-91e7-93c23e575613|2556182e-cc2a-413f-8e7b-73ad2ab00af3",
        "clearance|192429000|55132515|2dc4d0f4-e747-4200-8320-6d888c0d69a4|2556182e-cc2a-413f-8e7b-73ad2ab00af3",
        "clearance|192445874|52527804|d39398a4-1911-411d-9cb3-185e286da74c|2556182e-cc2a-413f-8e7b-73ad2ab00af3",
        "clearance|192445874|52565641|c3ce5f23-1047-4b3e-a64c-e8677d972ec0|2556182e-cc2a-413f-8e7b-73ad2ab00af3",
        "clearance|192445874|53257515|a4476022-d531-4886-bf4b-c3b97a5de13e|2556182e-cc2a-413f-8e7b-73ad2ab00af3"
      ],
      "meta": {
        "version": 2
      },
      "rule_severities": {
        "annular_width": "error",
        "clearance": "error",
        "connection_width": "warning",
        "copper_edge_clearance": "error",
        "copper_sliver": "warning",
        "courtyards_overlap": "error",
        "diff_pair_gap_out_of_range": "error",
        "diff_pair_uncoupled_length_too_long": "error",
        "drill_out_of_range": "error",
        "duplicate_footprints": "warning",
        "extra_footprint": "warning",
        "footprint": "error",
        "footprint_type_mismatch": "ignore",
        "hole_clearance": "error",
        "hole_near_hole": "error",
        "invalid_outline": "ignore",
        "isolated_copper": "warning",
        "item_on_disabled_layer": "error",
        "items_not_allowed": "error",
        "length_out_of_range": "error",
        "lib_footprint_issues": "warning",
        "lib_footprint_mismatch": "warning",
        "malformed_courtyard": "ignore",
        "microvia_drill_out_of_range": "error",
        "missing_courtyard": "ignore",
        "missing_footprint": "warning",
        "net_conflict": "warning",
        "npth_inside_courtyard": "ignore",
        "padstack": "error",
        "pth_inside_courtyard": "ignore",
        "shorting_items": "error",
        "silk_edge_clearance": "warning",
        "silk_over_copper": "warning",
        "silk_overlap": "warning",
        "skew_out_of_range": "error",
        "solder_mask_bridge": "error",
        "starved_thermal": "warning",
        "text_height": "warning",
        "text_thickness": "warning",
        "through_hole_pad_without_hole": "error",
        "too_many_vias": "error",
        "track_dangling": "warning",
        "track_width": "error",
        "tracks_crossing": "error",
        "unconnected_items": "error",
        "unresolved_variable": "error",
        "via_dangling": "warning",
        "zones_intersect": "error"
      },
      "rules": {
        "allow_blind_buried_vias": false,
        "allow_microvias": false,
        "max_error": 0.005,
        "min_clearance": 0.15239999999999998,
        "min_connection": 0.0,
        "min_copper_edge_clearance": 0.15,
        "min_hole_clearance": 0.13,
        "min_hole_to_hole": 0.25,
        "min_microvia_diameter": 0.19999999999999998,
        "min_microvia_drill": 0.09999999999999999,
        "min_resolved_spokes": 2,
        "min_silk_clearance": 0.0,
        "min_text_height": 0.7999999999999999,
        "min_text_thickness": 0.08,
        "min_through_hole_diameter": 0.19999999999999998,
        "min_track_width": 0.19999999999999998,
        "min_via_annular_width": 0.049999999999999996,
        "min_via_diameter": 0.39999999999999997,
        "solder_mask_clearance": 0.0,
        "solder_mask_min_width": 0.0,
        "solder_mask_to_copper_clearance": 0.0,
        "use_height_for_length_calcs": true
      },
      "teardrop_options": [
        {
          "td_allow_use_two_tracks": true,
          "td_curve_segcount": 5,
          "td_on_pad_in_zone": false,
          "td_onpadsmd": true,
          "td_onroundshapesonly": false,
          "td_ontrackend": false,
          "td_onviapad": true
        }
      ],
      "teardrop_parameters": [
        {
          "td_curve_segcount": 0,
          "td_height_ratio": 1.0,
          "td_length_ratio": 0.5,
          "td_maxheight": 2.0,
          "td_maxlen": 1.0,
          "td_target_name": "td_round_shape",
          "td_width_to_size_filter_ratio": 0.9
        },
        {
          "td_curve_segcount": 0,
          "td_height_ratio": 1.0,
          "td_length_ratio": 0.5,
          "td_maxheight": 2.0,
          "td_maxlen": 1.0,
          "td_target_name": "td_rect_shape",
          "td_width_to_size_filter_ratio": 0.9
        },
        {
          "td_curve_segcount": 0,
          "td_height_ratio": 1.0,
          "td_length_ratio": 0.5,
          "td_maxheight": 2.0,
          "td_maxlen": 1.0,
          "td_target_name": "td_track_end",
          "td_width_to_size_filter_ratio": 0.9
        }
      ],
      "track_widths": [
        0.0,
        0.2032,
        0.2286,
        0.25,
        0.254,
        0.3,
        0.4,
        0.5,
        0.6,
        0.75,
        1.0
      ],
      "via_dimensions": [
        {
          "diameter": 0.0,
          "drill": 0.0
        },
        {
          "diameter": 0.45,
          "drill": 0.25
        },
        {
          "diameter": 0.6096,
          "drill": 0.3048
        },
        {
          "diameter": 0.8,
          "drill": 0.4
        },
        {
          "diameter": 1.0,
          "drill": 0.5
        }
      ],
      "zones_allow_external_fillets": false,
      "zones_use_no_outline": true
    },
    "layer_presets": [],
    "viewports": []
  },
  "boards": [],
  "cvpcb": {
    "equivalence_files": []
  },
  "erc": {
    "erc_exclusions": [],
    "meta": {
      "version": 0
    },
    "pin_map": [
      [
        0,
        0,
        0,
        0,
        0,
        0,
        1,
        0,
        0,
        0,
        0,
        2
      ],
      [
        0,
        2,
        0,
        1,
        0,
        0,
        1,
        0,
        2,
        2,
        2,
        2
      ],
      [
        0,
        0,
        0,
        0,
        0,
        0,
        1,
        0,
        1,
        0,
        1,
        2
      ],
      [
        0,
        1,
        0,
        0,
        0,
        0,
        1,
        1,
        2,
        1,
        1,
        2
      ],
      [
        0,
        0,
        0,
        0,
        0,
        0,
        1,
        0,
        0,
        0,
        0,
        2
      ],
      [
        0,
        0,
        0,
        0,
        0,
        0,
        0,
        0,
        0,
        0,
        0,
        2
      ],
      [
        1,
        1,
        1,
        1,
        1,
        0,
        1,
        1,
        1,
        1,
        1,
        2
      ],
      [
        0,
        0,
        0,
        1,
        0,
        0,
        1,
        0,
        0,
        0,
        0,
        2
      ],
      [
        0,
        2,
        1,
        2,
        0,
        0,
        1,
        0,
        2,
        2,
        2,
        2
      ],
      [
        0,
        2,
        0,
        1,
        0,
        0,
        1,
        0,
        2,
        0,
        0,
        2
      ],
      [
        0,
        2,
        1,
        1,
        0,
        0,
        1,
        0,
        2,
        0,
        0,
        2
      ],
      [
        2,
        2,
        2,
        2,
        2,
        2,
        2,
        2,
        2,
        2,
        2,
        2
      ]
    ],
    "rule_severities": {
      "bus_definition_conflict": "error",
      "bus_entry_needed": "error",
      "bus_to_bus_conflict": "error",
      "bus_to_net_conflict": "error",
      "conflicting_netclasses": "error",
      "different_unit_footprint": "error",
      "different_unit_net": "error",
      "duplicate_reference": "error",
      "duplicate_sheet_names": "error",
      "endpoint_off_grid": "warning",
      "extra_units": "error",
      "global_label_dangling": "warning",
      "hier_label_mismatch": "error",
      "label_dangling": "error",
      "lib_symbol_issues": "warning",
      "missing_bidi_pin": "warning",
      "missing_input_pin": "warning",
      "missing_power_pin": "error",
      "missing_unit": "warning",
      "multiple_net_names": "warning",
      "net_not_bus_member": "warning",
      "no_connect_connected": "warning",
      "no_connect_dangling": "warning",
      "pin_not_connected": "error",
      "pin_not_driven": "error",
      "pin_to_pin": "warning",
      "power_pin_not_driven": "error",
      "similar_labels": "warning",
      "simulation_model_issue": "error",
      "unannotated": "error",
      "unit_value_mismatch": "error",
      "unresolved_variable": "error",
      "wire_dangling": "error"
    }
  },
  "libraries": {
    "pinned_footprint_libs": [],
    "pinned_symbol_libs": []
  },
  "meta": {
    "filename": "poly_kb_wave_left2.kicad_pro",
    "version": 1
  },
  "net_settings": {
    "classes": [
      {
        "bus_width": 12,
        "clearance": 0.1524,
        "diff_pair_gap": 0.25,
        "diff_pair_via_gap": 0.25,
        "diff_pair_width": 0.2,
        "line_style": 0,
        "microvia_diameter": 0.3,
        "microvia_drill": 0.1,
        "name": "Default",
        "pcb_color": "rgba(0, 0, 0, 0.000)",
        "schematic_color": "rgba(0, 0, 0, 0.000)",
        "track_width": 0.254,
        "via_diameter": 0.6096,
        "via_drill": 0.3048,
        "wire_width": 6
      }
    ],
    "meta": {
      "version": 3
    },
    "net_colors": null,
    "netclass_assignments": null,
    "netclass_patterns": []
  },
  "pcbnew": {
    "last_paths": {
      "gencad": "",
      "idf": "",
      "netlist": "",
      "specctra_dsn": "",
      "step": "",
      "vrml": "poly_kb_wave_right2.wrl"
    },
    "page_layout_descr_file": ""
  },
  "schematic": {
    "annotate_start_num": 1,
    "drawing": {
      "dashed_lines_dash_length_ratio": 12.0,
      "dashed_lines_gap_length_ratio": 3.0,
      "default_line_thickness": 6.0,
      "default_text_size": 50.0,
      "field_names": [],
      "intersheets_ref_own_page": false,
      "intersheets_ref_prefix": "",
      "intersheets_ref_short": false,
      "intersheets_ref_show": false,
      "intersheets_ref_suffix": "",
      "junction_size_choice": 3,
      "label_size_ratio": 0.375,
      "pin_symbol_size": 25.0,
      "text_offset_ratio": 0.15
    },
    "legacy_lib_dir": "",
    "legacy_lib_list": [],
    "meta": {
      "version": 1
    },
    "net_format_name": "",
    "ngspice": {
      "fix_include_paths": true,
      "fix_passive_vals": false,
      "meta": {
        "version": 0
      },
      "model_mode": 0,
      "workbook_filename": ""
    },
    "page_layout_descr_file": "",
    "plot_directory": "",
    "spice_adjust_passive_values": false,
    "spice_current_sheet_as_root": false,
    "spice_external_command": "spice \"%I\"",
    "spice_model_current_sheet_as_root": true,
    "spice_save_all_currents": false,
    "spice_save_all_voltages": false,
    "subpart_first_id": 65,
    "subpart_id_separator": 0
  },
  "sheets": [
    [
      "e63e39d7-6ac0-4ffd-8aa3-1841a4541b55",
      ""
    ],
    [
      "c3b3d7f4-943f-4cff-b180-87ef3e1bcbff",
      "K_L1"
    ],
    [
      "90e1be42-ed73-4f49-b97f-9f466c246b24",
      "K_1"
    ],
    [
      "6294d60a-5a6d-4e91-bd35-79741339d7e4",
      "K_2"
    ],
    [
      "d97a2ced-313f-4e17-85e5-2b165e2bbab7",
      "K_3"
    ],
    [
      "55db205f-5212-4c47-84a4-01759d74ba74",
      "K_4"
    ],
    [
      "3d0f7ea5-586a-4631-84b5-c5143f12bf84",
      "K_5"
    ],
    [
      "c00665c7-238f-42f0-9cc8-e3a8fa63e130",
      "K_L6"
    ],
    [
      "4cb341a3-e9cf-45fc-a94c-c7fae6c71aea",
      "K_L2"
    ],
    [
      "28be84aa-b431-4431-8eeb-d676de337ffa",
      "K_Q"
    ],
    [
      "ae04c169-be9e-4462-8b1e-710c06cca2cb",
      "K_W"
    ],
    [
      "1c80c2f5-94fc-473a-9a09-744ec8dff0bf",
      "K_E"
    ],
    [
      "0285e431-014f-4bae-a004-629f3d561f34",
      "K_R"
    ],
    [
      "81428857-5563-4f54-bb0b-7627a0deeae3",
      "K_T"
    ],
    [
      "5b4142ac-8b2d-4e5d-87d4-0e69e7de30b9",
      "K_L7"
    ],
    [
      "0ee8b487-df95-43ef-b2ec-24ddab4f785b",
      "K_L3"
    ],
    [
      "3a7f46ca-92a8-4756-bfb8-cd4927ce9ae9",
      "K_A"
    ],
    [
      "a595b510-68ac-4164-8725-6d735a4e62b3",
      "K_S"
    ],
    [
      "acef75b8-c9c0-4a18-94df-f4c610973704",
      "K_D"
    ],
    [
      "0cbc095f-f702-46e5-b675-b40fb1f2870e",
      "K_F"
    ],
    [
      "8ba2259f-b66b-4569-ba01-3f776c0e09af",
      "K_G"
    ],
    [
      "1584ed85-ba55-4de7-bf87-42cb27c7a460",
      "K_L8"
    ],
    [
      "99d6bdd9-f3c7-4fe6-aae4-e577edd892a7",
      "K_L4"
    ],
    [
      "2169d46a-87d1-40eb-86ba-4a13a4180d64",
      "K_Z"
    ],
    [
      "70ef4595-7795-4d46-8de7-ecb9f4117cbd",
      "K_X"
    ],
    [
      "cff50f2c-d5fc-4dc7-8daa-b4ef91ebce06",
      "K_C"
    ],
    [
      "402f71b9-4e0a-4f9f-91bf-1f4ad758924d",
      "K_V"
    ],
    [
      "4f637138-78e8-4078-835b-92e3f188adc0",
      "NonInvertingBuffer1"
    ],
    [
      "91504d29-a738-459d-af7d-49aa9cec3947",
      "K_B"
    ],
    [
      "efd0db4a-0d4d-401a-8c34-6a12f828929f",
      "K_L9"
    ],
    [
      "8c9a36ab-d08a-4e02-b358-e60f56356438",
      "K_B1"
    ],
    [
      "d6494646-d0bc-40c9-a684-d51ce02dc04d",
      "K_B2"
    ],
    [
      "f482a64b-9552-4179-a4cb-afcf9c133e8e",
      "K_B3"
    ],
    [
      "4a0bdc7b-86f0-4524-b031-947af4670ce5",
      "K_B4"
    ],
    [
      "7e4dd5e7-f13a-4b6f-9821-c603ce0a1e84",
      "K_B5"
    ],
    [
      "ab12949c-ec3d-44b1-8c5c-48bfec281847",
      "K_B6"
    ],
    [
      "0d8fabb9-b71f-42d2-b887-cd1bcb6155bb",
      "K_B7"
    ],
    [
      "27260850-af3c-4b8b-9ab7-244ea24742d6",
      "K_B8"
    ],
    [
      "92e782d8-f8e0-4b6b-8c13-c5574675ce33",
      "ShiftRegisters"
    ],
    [
      "5b575f2a-a831-41f0-985e-3d214d07238c",
      "RpPico"
    ],
    [
      "34c8bd98-65a2-4c99-9e47-d8cb6b5c207e",
      "NonInvertingBuffer0"
    ],
    [
      "cc4e6829-8f50-4fc4-85c0-49f5930ba461",
      "NonInvertingBuffer2"
    ],
    [
      "db6da5fd-d12b-466d-8683-36501a927f91",
      "NonInvertingBuffer3"
    ],
    [
      "340f60e4-2ba5-4a69-be5b-84823556915d",
      "NonInvertingBuffer4"
    ],
    [
      "80ad75f2-7fa4-40bc-9096-74c93d88ca77",
      "NonInvertingBuffer5"
    ],
    [
      "b3eec1c7-cfcb-457c-8bc1-731941cd757b",
      "NonInvertingBuffer6"
    ]
  ],
  "text_variables": {}
}
