(kicad_sch (version 20230121) (generator eeschema)

  (uuid 1b09e8af-b104-4bf4-88b1-ae5d3b5fbb54)

  (paper "B")

  (lib_symbols
    (symbol "oresat-acs-card-eagle-import:3.3V" (power) (in_bom yes) (on_board yes)
      (property "Reference" "#SUPPLY" (at 0 0 0)
        (effects (font (size 1.27 1.27)) hide)
      )
      (property "Value" "3.3V" (at 0 2.794 0)
        (effects (font (size 1.778 1.5113)) (justify bottom))
      )
      (property "Footprint" "" (at 0 0 0)
        (effects (font (size 1.27 1.27)) hide)
      )
      (property "Datasheet" "" (at 0 0 0)
        (effects (font (size 1.27 1.27)) hide)
      )
      (property "ki_locked" "" (at 0 0 0)
        (effects (font (size 1.27 1.27)))
      )
      (symbol "3.3V_1_0"
        (polyline
          (pts
            (xy 0 2.54)
            (xy -0.762 1.27)
          )
          (stroke (width 0.254) (type default))
          (fill (type none))
        )
        (polyline
          (pts
            (xy 0.762 1.27)
            (xy 0 2.54)
          )
          (stroke (width 0.254) (type default))
          (fill (type none))
        )
        (pin power_in line (at 0 0 90) (length 2.54)
          (name "3.3V" (effects (font (size 0 0))))
          (number "1" (effects (font (size 0 0))))
        )
      )
    )
    (symbol "oresat-acs-card-eagle-import:BMI088" (in_bom yes) (on_board yes)
      (property "Reference" "U" (at -12.7 20.955 0)
        (effects (font (size 1.778 1.5113)) (justify left bottom))
      )
      (property "Value" "BMI088" (at -12.7 -22.86 0)
        (effects (font (size 1.778 1.5113)) (justify left bottom))
      )
      (property "Footprint" "" (at 0 0 0)
        (effects (font (size 1.27 1.27)) hide)
      )
      (property "Datasheet" "" (at 0 0 0)
        (effects (font (size 1.27 1.27)) hide)
      )
      (property "ki_locked" "" (at 0 0 0)
        (effects (font (size 1.27 1.27)))
      )
      (symbol "BMI088_1_0"
        (polyline
          (pts
            (xy -12.7 -20.32)
            (xy -12.7 20.32)
          )
          (stroke (width 0.254) (type default))
          (fill (type none))
        )
        (polyline
          (pts
            (xy -12.7 20.32)
            (xy 12.7 20.32)
          )
          (stroke (width 0.254) (type default))
          (fill (type none))
        )
        (polyline
          (pts
            (xy 12.7 -20.32)
            (xy -12.7 -20.32)
          )
          (stroke (width 0.254) (type default))
          (fill (type none))
        )
        (polyline
          (pts
            (xy 12.7 20.32)
            (xy 12.7 -20.32)
          )
          (stroke (width 0.254) (type default))
          (fill (type none))
        )
        (pin bidirectional line (at 17.78 -2.54 180) (length 5.08)
          (name "INT2" (effects (font (size 1.27 1.27))))
          (number "1" (effects (font (size 1.27 1.27))))
        )
        (pin bidirectional line (at -17.78 -7.62 0) (length 5.08)
          (name "SDO2" (effects (font (size 1.27 1.27))))
          (number "10" (effects (font (size 1.27 1.27))))
        )
        (pin power_in line (at 17.78 15.24 180) (length 5.08)
          (name "VDDIO" (effects (font (size 1.27 1.27))))
          (number "11" (effects (font (size 1.27 1.27))))
        )
        (pin bidirectional line (at 17.78 -5.08 180) (length 5.08)
          (name "INT3" (effects (font (size 1.27 1.27))))
          (number "12" (effects (font (size 1.27 1.27))))
        )
        (pin bidirectional line (at 17.78 -7.62 180) (length 5.08)
          (name "INT4" (effects (font (size 1.27 1.27))))
          (number "13" (effects (font (size 1.27 1.27))))
        )
        (pin input line (at -17.78 5.08 0) (length 5.08)
          (name "CSB1" (effects (font (size 1.27 1.27))))
          (number "14" (effects (font (size 1.27 1.27))))
        )
        (pin bidirectional line (at -17.78 -5.08 0) (length 5.08)
          (name "SDO1" (effects (font (size 1.27 1.27))))
          (number "15" (effects (font (size 1.27 1.27))))
        )
        (pin bidirectional line (at 17.78 0 180) (length 5.08)
          (name "INT1" (effects (font (size 1.27 1.27))))
          (number "16" (effects (font (size 1.27 1.27))))
        )
        (pin power_in line (at 17.78 17.78 180) (length 5.08)
          (name "VDD" (effects (font (size 1.27 1.27))))
          (number "3" (effects (font (size 1.27 1.27))))
        )
        (pin power_in line (at 17.78 -17.78 180) (length 5.08)
          (name "GNDA" (effects (font (size 1.27 1.27))))
          (number "4" (effects (font (size 1.27 1.27))))
        )
        (pin input line (at -17.78 2.54 0) (length 5.08)
          (name "CSB2" (effects (font (size 1.27 1.27))))
          (number "5" (effects (font (size 1.27 1.27))))
        )
        (pin power_in line (at 17.78 -15.24 180) (length 5.08)
          (name "GNDIO" (effects (font (size 1.27 1.27))))
          (number "6" (effects (font (size 1.27 1.27))))
        )
        (pin input line (at -17.78 10.16 0) (length 5.08)
          (name "PS" (effects (font (size 1.27 1.27))))
          (number "7" (effects (font (size 1.27 1.27))))
        )
        (pin input clock (at -17.78 0 0) (length 5.08)
          (name "SCL/SCK" (effects (font (size 1.27 1.27))))
          (number "8" (effects (font (size 1.27 1.27))))
        )
        (pin bidirectional line (at -17.78 -2.54 0) (length 5.08)
          (name "SDA/SDI" (effects (font (size 1.27 1.27))))
          (number "9" (effects (font (size 1.27 1.27))))
        )
      )
    )
    (symbol "oresat-acs-card-eagle-import:C-EU0603-C-NOSILK" (in_bom yes) (on_board yes)
      (property "Reference" "C" (at 1.524 0.381 0)
        (effects (font (size 1.778 1.5113)) (justify left bottom))
      )
      (property "Value" "C-EU0603-C-NOSILK" (at 1.524 -4.699 0)
        (effects (font (size 1.778 1.5113)) (justify left bottom))
      )
      (property "Footprint" "" (at 0 0 0)
        (effects (font (size 1.27 1.27)) hide)
      )
      (property "Datasheet" "" (at 0 0 0)
        (effects (font (size 1.27 1.27)) hide)
      )
      (property "ki_locked" "" (at 0 0 0)
        (effects (font (size 1.27 1.27)))
      )
      (symbol "C-EU0603-C-NOSILK_1_0"
        (rectangle (start -2.032 -2.032) (end 2.032 -1.524)
          (stroke (width 0) (type default))
          (fill (type outline))
        )
        (rectangle (start -2.032 -1.016) (end 2.032 -0.508)
          (stroke (width 0) (type default))
          (fill (type outline))
        )
        (polyline
          (pts
            (xy 0 -2.54)
            (xy 0 -2.032)
          )
          (stroke (width 0.1524) (type default))
          (fill (type none))
        )
        (polyline
          (pts
            (xy 0 0)
            (xy 0 -0.508)
          )
          (stroke (width 0.1524) (type default))
          (fill (type none))
        )
        (pin passive line (at 0 2.54 270) (length 2.54)
          (name "1" (effects (font (size 0 0))))
          (number "1" (effects (font (size 0 0))))
        )
        (pin passive line (at 0 -5.08 90) (length 2.54)
          (name "2" (effects (font (size 0 0))))
          (number "2" (effects (font (size 0 0))))
        )
      )
    )
    (symbol "oresat-acs-card-eagle-import:GND" (power) (in_bom yes) (on_board yes)
      (property "Reference" "#GND" (at 0 0 0)
        (effects (font (size 1.27 1.27)) hide)
      )
      (property "Value" "GND" (at -2.54 -2.54 0)
        (effects (font (size 1.778 1.5113)) (justify left bottom))
      )
      (property "Footprint" "" (at 0 0 0)
        (effects (font (size 1.27 1.27)) hide)
      )
      (property "Datasheet" "" (at 0 0 0)
        (effects (font (size 1.27 1.27)) hide)
      )
      (property "ki_locked" "" (at 0 0 0)
        (effects (font (size 1.27 1.27)))
      )
      (symbol "GND_1_0"
        (polyline
          (pts
            (xy -1.905 0)
            (xy 1.905 0)
          )
          (stroke (width 0.254) (type default))
          (fill (type none))
        )
        (pin power_in line (at 0 2.54 270) (length 2.54)
          (name "GND" (effects (font (size 0 0))))
          (number "1" (effects (font (size 0 0))))
        )
      )
    )
    (symbol "oresat-acs-card-eagle-import:LTC4300A-1" (in_bom yes) (on_board yes)
      (property "Reference" "" (at -10.16 15.24 0)
        (effects (font (size 2.0828 1.7703)) (justify left bottom))
      )
      (property "Value" "LTC4300A-1" (at 5.08 15.24 0)
        (effects (font (size 2.0828 1.7703)) (justify left bottom))
      )
      (property "Footprint" "" (at 0 0 0)
        (effects (font (size 1.27 1.27)) hide)
      )
      (property "Datasheet" "" (at 0 0 0)
        (effects (font (size 1.27 1.27)) hide)
      )
      (property "ki_locked" "" (at 0 0 0)
        (effects (font (size 1.27 1.27)))
      )
      (symbol "LTC4300A-1_1_0"
        (polyline
          (pts
            (xy -12.7 -12.7)
            (xy 12.7 -12.7)
          )
          (stroke (width 0.254) (type default))
          (fill (type none))
        )
        (polyline
          (pts
            (xy -12.7 12.7)
            (xy -12.7 -12.7)
          )
          (stroke (width 0.254) (type default))
          (fill (type none))
        )
        (polyline
          (pts
            (xy 12.7 -12.7)
            (xy 12.7 12.7)
          )
          (stroke (width 0.254) (type default))
          (fill (type none))
        )
        (polyline
          (pts
            (xy 12.7 12.7)
            (xy -12.7 12.7)
          )
          (stroke (width 0.254) (type default))
          (fill (type none))
        )
        (pin input line (at -15.24 7.62 0) (length 2.54)
          (name "ENABLE" (effects (font (size 1.27 1.27))))
          (number "1" (effects (font (size 1.27 1.27))))
        )
        (pin bidirectional line (at -15.24 -7.62 0) (length 2.54)
          (name "SCLOUT" (effects (font (size 1.27 1.27))))
          (number "2" (effects (font (size 1.27 1.27))))
        )
        (pin bidirectional line (at 15.24 -7.62 180) (length 2.54)
          (name "SCLIN" (effects (font (size 1.27 1.27))))
          (number "3" (effects (font (size 1.27 1.27))))
        )
        (pin power_in line (at 0 -15.24 90) (length 2.54)
          (name "GND" (effects (font (size 1.27 1.27))))
          (number "4" (effects (font (size 1.27 1.27))))
        )
        (pin output line (at 15.24 10.16 180) (length 2.54)
          (name "READY" (effects (font (size 1.27 1.27))))
          (number "5" (effects (font (size 1.27 1.27))))
        )
        (pin bidirectional line (at 15.24 -2.54 180) (length 2.54)
          (name "SDAIN" (effects (font (size 1.27 1.27))))
          (number "6" (effects (font (size 1.27 1.27))))
        )
        (pin bidirectional line (at -15.24 -2.54 0) (length 2.54)
          (name "SDAOUT" (effects (font (size 1.27 1.27))))
          (number "7" (effects (font (size 1.27 1.27))))
        )
        (pin power_in line (at -15.24 10.16 0) (length 2.54)
          (name "VCC" (effects (font (size 1.27 1.27))))
          (number "8" (effects (font (size 1.27 1.27))))
        )
      )
    )
    (symbol "oresat-acs-card-eagle-import:MAX892LEUA+T21-0036K-L" (in_bom yes) (on_board yes)
      (property "Reference" "U" (at -5.2324 14.1986 0)
        (effects (font (size 2.0828 1.7703)) (justify left bottom))
      )
      (property "Value" "MAX892LEUA+T21-0036K-L" (at -5.1054 11.6586 0)
        (effects (font (size 2.0828 1.7703)) (justify left bottom))
      )
      (property "Footprint" "" (at 0 0 0)
        (effects (font (size 1.27 1.27)) hide)
      )
      (property "Datasheet" "" (at 0 0 0)
        (effects (font (size 1.27 1.27)) hide)
      )
      (property "ki_locked" "" (at 0 0 0)
        (effects (font (size 1.27 1.27)))
      )
      (symbol "MAX892LEUA+T21-0036K-L_1_0"
        (polyline
          (pts
            (xy -10.16 -15.24)
            (xy 10.16 -15.24)
          )
          (stroke (width 0.1524) (type default))
          (fill (type none))
        )
        (polyline
          (pts
            (xy -10.16 10.16)
            (xy -10.16 -15.24)
          )
          (stroke (width 0.1524) (type default))
          (fill (type none))
        )
        (polyline
          (pts
            (xy 10.16 -15.24)
            (xy 10.16 10.16)
          )
          (stroke (width 0.1524) (type default))
          (fill (type none))
        )
        (polyline
          (pts
            (xy 10.16 10.16)
            (xy -10.16 10.16)
          )
          (stroke (width 0.1524) (type default))
          (fill (type none))
        )
        (pin power_in line (at -12.7 5.08 0) (length 2.54)
          (name "IN_2" (effects (font (size 1.27 1.27))))
          (number "1" (effects (font (size 1.27 1.27))))
        )
        (pin power_in line (at -12.7 7.62 0) (length 2.54)
          (name "IN" (effects (font (size 1.27 1.27))))
          (number "2" (effects (font (size 1.27 1.27))))
        )
        (pin input line (at -12.7 -12.7 0) (length 2.54)
          (name "~{ON}" (effects (font (size 1.27 1.27))))
          (number "3" (effects (font (size 1.27 1.27))))
        )
        (pin power_in line (at 0 -17.78 90) (length 2.54)
          (name "GND" (effects (font (size 1.27 1.27))))
          (number "4" (effects (font (size 1.27 1.27))))
        )
        (pin passive line (at 12.7 -10.16 180) (length 2.54)
          (name "SET" (effects (font (size 1.27 1.27))))
          (number "5" (effects (font (size 1.27 1.27))))
        )
        (pin output line (at -12.7 -5.08 0) (length 2.54)
          (name "~{FAULT}" (effects (font (size 1.27 1.27))))
          (number "6" (effects (font (size 1.27 1.27))))
        )
        (pin passive line (at 12.7 5.08 180) (length 2.54)
          (name "OUT_2" (effects (font (size 1.27 1.27))))
          (number "7" (effects (font (size 1.27 1.27))))
        )
        (pin power_out line (at 12.7 7.62 180) (length 2.54)
          (name "OUT" (effects (font (size 1.27 1.27))))
          (number "8" (effects (font (size 1.27 1.27))))
        )
      )
    )
    (symbol "oresat-acs-card-eagle-import:R-US_0603-C-NOSILK" (in_bom yes) (on_board yes)
      (property "Reference" "R" (at -3.81 1.4986 0)
        (effects (font (size 1.778 1.5113)) (justify left bottom))
      )
      (property "Value" "R-US_0603-C-NOSILK" (at -3.81 -3.302 0)
        (effects (font (size 1.778 1.5113)) (justify left bottom))
      )
      (property "Footprint" "" (at 0 0 0)
        (effects (font (size 1.27 1.27)) hide)
      )
      (property "Datasheet" "" (at 0 0 0)
        (effects (font (size 1.27 1.27)) hide)
      )
      (property "ki_locked" "" (at 0 0 0)
        (effects (font (size 1.27 1.27)))
      )
      (symbol "R-US_0603-C-NOSILK_1_0"
        (polyline
          (pts
            (xy -2.54 0)
            (xy -2.159 1.016)
          )
          (stroke (width 0.2032) (type default))
          (fill (type none))
        )
        (polyline
          (pts
            (xy -2.159 1.016)
            (xy -1.524 -1.016)
          )
          (stroke (width 0.2032) (type default))
          (fill (type none))
        )
        (polyline
          (pts
            (xy -1.524 -1.016)
            (xy -0.889 1.016)
          )
          (stroke (width 0.2032) (type default))
          (fill (type none))
        )
        (polyline
          (pts
            (xy -0.889 1.016)
            (xy -0.254 -1.016)
          )
          (stroke (width 0.2032) (type default))
          (fill (type none))
        )
        (polyline
          (pts
            (xy -0.254 -1.016)
            (xy 0.381 1.016)
          )
          (stroke (width 0.2032) (type default))
          (fill (type none))
        )
        (polyline
          (pts
            (xy 0.381 1.016)
            (xy 1.016 -1.016)
          )
          (stroke (width 0.2032) (type default))
          (fill (type none))
        )
        (polyline
          (pts
            (xy 1.016 -1.016)
            (xy 1.651 1.016)
          )
          (stroke (width 0.2032) (type default))
          (fill (type none))
        )
        (polyline
          (pts
            (xy 1.651 1.016)
            (xy 2.286 -1.016)
          )
          (stroke (width 0.2032) (type default))
          (fill (type none))
        )
        (polyline
          (pts
            (xy 2.286 -1.016)
            (xy 2.54 0)
          )
          (stroke (width 0.2032) (type default))
          (fill (type none))
        )
        (pin passive line (at -5.08 0 0) (length 2.54)
          (name "1" (effects (font (size 0 0))))
          (number "1" (effects (font (size 0 0))))
        )
        (pin passive line (at 5.08 0 180) (length 2.54)
          (name "2" (effects (font (size 0 0))))
          (number "2" (effects (font (size 0 0))))
        )
      )
    )
    (symbol "oresat-acs-card-eagle-import:TEST-POINT-LARGE-SQUARE" (in_bom yes) (on_board yes)
      (property "Reference" "TP" (at -2.54 2.54 0)
        (effects (font (size 1.27 1.0795)) (justify left bottom))
      )
      (property "Value" "TEST-POINT-LARGE-SQUARE" (at 0 0 0)
        (effects (font (size 1.27 1.27)) hide)
      )
      (property "Footprint" "" (at 0 0 0)
        (effects (font (size 1.27 1.27)) hide)
      )
      (property "Datasheet" "" (at 0 0 0)
        (effects (font (size 1.27 1.27)) hide)
      )
      (property "ki_locked" "" (at 0 0 0)
        (effects (font (size 1.27 1.27)))
      )
      (symbol "TEST-POINT-LARGE-SQUARE_1_0"
        (polyline
          (pts
            (xy -1.27 -1.27)
            (xy -1.27 1.27)
          )
          (stroke (width 0.254) (type default))
          (fill (type none))
        )
        (polyline
          (pts
            (xy -1.27 1.27)
            (xy 1.27 1.27)
          )
          (stroke (width 0.254) (type default))
          (fill (type none))
        )
        (polyline
          (pts
            (xy 1.27 -1.27)
            (xy -1.27 -1.27)
          )
          (stroke (width 0.254) (type default))
          (fill (type none))
        )
        (polyline
          (pts
            (xy 1.27 1.27)
            (xy 1.27 -1.27)
          )
          (stroke (width 0.254) (type default))
          (fill (type none))
        )
        (pin passive line (at 0 0 0) (length 0)
          (name "1" (effects (font (size 0 0))))
          (number "1" (effects (font (size 0 0))))
        )
      )
    )
  )

  (junction (at 269.24 193.04) (diameter 0) (color 0 0 0 0)
    (uuid 16820acd-f6b9-412f-9306-fac51641b591)
  )
  (junction (at 129.54 167.64) (diameter 0) (color 0 0 0 0)
    (uuid 1d324741-d194-41a3-a0ae-42c211141ec7)
  )
  (junction (at 217.17 165.1) (diameter 0) (color 0 0 0 0)
    (uuid 31f092cc-5d07-4b19-ad03-3f822a429c0d)
  )
  (junction (at 99.06 167.64) (diameter 0) (color 0 0 0 0)
    (uuid 352e8c6b-c067-4e2a-8604-eb340760d161)
  )
  (junction (at 279.4 83.82) (diameter 0) (color 0 0 0 0)
    (uuid 3a3263db-d127-4829-aabb-d829525c37bd)
  )
  (junction (at 215.9 86.36) (diameter 0) (color 0 0 0 0)
    (uuid 41567b7f-6bbc-4521-b9d7-395cbacbffbc)
  )
  (junction (at 273.05 165.1) (diameter 0) (color 0 0 0 0)
    (uuid 434cbbec-ccdd-4438-834f-929b02e23031)
  )
  (junction (at 261.62 68.58) (diameter 0) (color 0 0 0 0)
    (uuid 5dfde6b0-58e2-4528-a7e0-dffdbc1a442e)
  )
  (junction (at 261.62 101.6) (diameter 0) (color 0 0 0 0)
    (uuid 67c9132e-6f35-4555-98ea-4611288bc4a4)
  )
  (junction (at 91.44 153.67) (diameter 0) (color 0 0 0 0)
    (uuid 68beaf17-d9f5-4354-9cb0-81ea632fb1bc)
  )
  (junction (at 279.4 86.36) (diameter 0) (color 0 0 0 0)
    (uuid 6d46677c-ed08-4f62-9f2d-c323ceac55c9)
  )
  (junction (at 104.14 167.64) (diameter 0) (color 0 0 0 0)
    (uuid 70fc5a7d-0327-4ab7-87d1-f7f24f16ae19)
  )
  (junction (at 83.82 153.67) (diameter 0) (color 0 0 0 0)
    (uuid 9cfc291c-9396-4fc6-8949-2ac42e4d6f4c)
  )
  (junction (at 138.43 167.64) (diameter 0) (color 0 0 0 0)
    (uuid 9dd388ea-1cd2-4863-ae95-b94c6047298f)
  )
  (junction (at 83.82 187.96) (diameter 0) (color 0 0 0 0)
    (uuid 9faa7422-544b-4cb6-901e-4d852ff2a809)
  )
  (junction (at 217.17 175.26) (diameter 0) (color 0 0 0 0)
    (uuid ae067728-8d16-4b82-a6f3-653d5bbbcfdc)
  )
  (junction (at 276.86 187.96) (diameter 0) (color 0 0 0 0)
    (uuid b7a3bf8d-eef7-4a2e-a7b3-f4ff1c52b6dc)
  )
  (junction (at 215.9 83.82) (diameter 0) (color 0 0 0 0)
    (uuid b8a53b1a-939a-478e-9612-8219c91b552f)
  )
  (junction (at 279.4 91.44) (diameter 0) (color 0 0 0 0)
    (uuid c0239319-3ecc-4d32-ac31-21f4a112932c)
  )
  (junction (at 279.4 88.9) (diameter 0) (color 0 0 0 0)
    (uuid c568cc80-966e-4643-a9ed-0b870ba18c3e)
  )
  (junction (at 91.44 180.34) (diameter 0) (color 0 0 0 0)
    (uuid dcce3ec0-b85c-47ba-a1cb-aaa5b482d445)
  )
  (junction (at 261.62 66.04) (diameter 0) (color 0 0 0 0)
    (uuid e858e252-bcf4-4a83-bf08-1b636edf39ca)
  )
  (junction (at 226.06 59.69) (diameter 0) (color 0 0 0 0)
    (uuid f0d95fc5-cbe2-403d-a113-ef6fc16eb12b)
  )
  (junction (at 252.73 175.26) (diameter 0) (color 0 0 0 0)
    (uuid fdf452fb-f9ad-4f24-8f52-b64422f98a8b)
  )

  (no_connect (at 226.06 78.74) (uuid 497fe36a-2a15-4bc5-8e9c-4c3f211537e1))
  (no_connect (at 226.06 81.28) (uuid 497fe36a-2a15-4bc5-8e9c-4c3f211537e2))

  (polyline (pts (xy 170.18 146.05) (xy 170.18 205.74))
    (stroke (width 0) (type default))
    (uuid 00ab1d8c-160e-4da7-8fcd-048a9ee2ebac)
  )

  (wire (pts (xy 129.54 167.64) (xy 138.43 167.64))
    (stroke (width 0) (type default))
    (uuid 04887749-ccfb-4cae-aa67-99d42105b645)
  )
  (wire (pts (xy 218.44 88.9) (xy 226.06 88.9))
    (stroke (width 0) (type default))
    (uuid 048ba43d-d790-46b0-ad91-6e867645a619)
  )
  (wire (pts (xy 138.43 167.64) (xy 147.32 167.64))
    (stroke (width 0) (type default))
    (uuid 053c0223-a0f7-4923-8af6-64cb74672f79)
  )
  (wire (pts (xy 116.84 198.12) (xy 116.84 193.04))
    (stroke (width 0) (type default))
    (uuid 06308f8a-c54f-4cb9-866b-49d03930856d)
  )
  (wire (pts (xy 138.43 198.12) (xy 138.43 177.8))
    (stroke (width 0) (type default))
    (uuid 08b01e58-9aff-4dd3-bbb7-42e6141d3828)
  )
  (wire (pts (xy 226.06 83.82) (xy 215.9 83.82))
    (stroke (width 0) (type default))
    (uuid 09d9a1bf-a533-4cc1-ae6d-fac6a332e03c)
  )
  (wire (pts (xy 251.46 193.04) (xy 269.24 193.04))
    (stroke (width 0) (type default))
    (uuid 0aaf2da3-54d0-4a54-81dd-5bc58362e776)
  )
  (wire (pts (xy 261.62 86.36) (xy 279.4 86.36))
    (stroke (width 0) (type default))
    (uuid 0f97e3e5-69d9-4dae-9e75-babad5cdb08d)
  )
  (polyline (pts (xy 314.96 119.38) (xy 314.96 45.72))
    (stroke (width 0) (type default))
    (uuid 10f63496-10b7-4f5c-b3c3-1c3fdca014de)
  )

  (wire (pts (xy 226.06 86.36) (xy 215.9 86.36))
    (stroke (width 0) (type default))
    (uuid 139472ff-e28c-45db-bdfa-9845be37d113)
  )
  (wire (pts (xy 252.73 175.26) (xy 252.73 180.34))
    (stroke (width 0) (type default))
    (uuid 1930895e-8ab2-4b0e-a7cb-2b6724285087)
  )
  (wire (pts (xy 267.97 68.58) (xy 267.97 69.85))
    (stroke (width 0) (type default))
    (uuid 1daf39bf-aa76-44e9-afc2-ac5209275946)
  )
  (wire (pts (xy 279.4 86.36) (xy 297.18 86.36))
    (stroke (width 0) (type default))
    (uuid 21297a75-ed5a-4683-a17e-f73204ce1574)
  )
  (wire (pts (xy 217.17 201.93) (xy 217.17 186.69))
    (stroke (width 0) (type default))
    (uuid 21d795a5-e19b-49bd-bea5-cb0f9461150a)
  )
  (wire (pts (xy 217.17 175.26) (xy 217.17 165.1))
    (stroke (width 0) (type default))
    (uuid 257238a5-176e-4d1c-a636-2d9de783e6d5)
  )
  (wire (pts (xy 130.81 185.42) (xy 130.81 186.69))
    (stroke (width 0) (type default))
    (uuid 2639c862-4610-473e-ab57-5f5c49ca6641)
  )
  (wire (pts (xy 83.82 165.1) (xy 83.82 187.96))
    (stroke (width 0) (type default))
    (uuid 2bde1490-c4e2-4a2b-918f-d11f99db9d15)
  )
  (polyline (pts (xy 193.04 146.05) (xy 193.04 210.82))
    (stroke (width 0) (type default))
    (uuid 32df1c97-7ad7-45fb-8f5e-a3220e8c904d)
  )

  (wire (pts (xy 220.98 175.26) (xy 217.17 175.26))
    (stroke (width 0) (type default))
    (uuid 35f469b4-9993-4143-ac50-f73747253526)
  )
  (wire (pts (xy 130.81 196.85) (xy 130.81 198.12))
    (stroke (width 0) (type default))
    (uuid 3a0f4a45-031e-4b91-9303-e8b40718f8b4)
  )
  (wire (pts (xy 261.62 88.9) (xy 279.4 88.9))
    (stroke (width 0) (type default))
    (uuid 3af6d084-5f54-4f77-8a8f-1f378f2094e3)
  )
  (wire (pts (xy 218.44 95.25) (xy 218.44 88.9))
    (stroke (width 0) (type default))
    (uuid 3c441696-6408-444d-aff3-27c630a944eb)
  )
  (wire (pts (xy 276.86 175.26) (xy 276.86 187.96))
    (stroke (width 0) (type default))
    (uuid 476a5572-9e1d-4b1f-a5d2-c32ae61cc4db)
  )
  (wire (pts (xy 99.06 167.64) (xy 104.14 167.64))
    (stroke (width 0) (type default))
    (uuid 49004675-6931-4c99-902b-0f8018a0653f)
  )
  (wire (pts (xy 269.24 175.26) (xy 269.24 193.04))
    (stroke (width 0) (type default))
    (uuid 4dd5834d-b7c8-4f9c-9dbf-3ac9e0bad0fb)
  )
  (wire (pts (xy 236.22 201.93) (xy 236.22 200.66))
    (stroke (width 0) (type default))
    (uuid 4e56aeca-a47f-4e26-a11a-2e5a22211e5e)
  )
  (polyline (pts (xy 299.72 210.82) (xy 299.72 146.05))
    (stroke (width 0) (type default))
    (uuid 4eddcf8d-7689-4067-b5c2-7f56e0a7e2f0)
  )

  (wire (pts (xy 218.44 105.41) (xy 218.44 107.95))
    (stroke (width 0) (type default))
    (uuid 4f57ace9-d59d-4a1b-9379-0aa749d06f92)
  )
  (wire (pts (xy 99.06 198.12) (xy 99.06 177.8))
    (stroke (width 0) (type default))
    (uuid 4fc8027e-a22c-45de-9be7-e465c578a66e)
  )
  (wire (pts (xy 129.54 185.42) (xy 130.81 185.42))
    (stroke (width 0) (type default))
    (uuid 55ff0660-bc8c-4b10-a9f4-12c26f9e7c52)
  )
  (polyline (pts (xy 193.04 45.72) (xy 193.04 119.38))
    (stroke (width 0) (type default))
    (uuid 5b10a38b-0666-4cbd-a23e-b8d6f2763afe)
  )

  (wire (pts (xy 217.17 165.1) (xy 252.73 165.1))
    (stroke (width 0) (type default))
    (uuid 5c5732df-af75-497f-9809-9c471d5ab028)
  )
  (polyline (pts (xy 299.72 146.05) (xy 193.04 146.05))
    (stroke (width 0) (type default))
    (uuid 5d34b1e2-7c9b-4f76-9b09-2630da3d63d2)
  )

  (wire (pts (xy 281.94 187.96) (xy 276.86 187.96))
    (stroke (width 0) (type default))
    (uuid 60c53ed7-b57f-41d8-bb7f-9346196dff90)
  )
  (wire (pts (xy 261.62 91.44) (xy 279.4 91.44))
    (stroke (width 0) (type default))
    (uuid 62e86006-009e-4ef7-a856-298cc71ca05b)
  )
  (wire (pts (xy 91.44 154.94) (xy 91.44 153.67))
    (stroke (width 0) (type default))
    (uuid 62ea13a1-cf4a-4bb7-8a03-89e239df92ed)
  )
  (wire (pts (xy 251.46 175.26) (xy 252.73 175.26))
    (stroke (width 0) (type default))
    (uuid 6c1c0769-e9a0-4194-ae66-0b537cc2bf6b)
  )
  (polyline (pts (xy 314.96 45.72) (xy 193.04 45.72))
    (stroke (width 0) (type default))
    (uuid 6c5abcc0-7bfd-480f-9fcb-25c69e9bc011)
  )

  (wire (pts (xy 83.82 187.96) (xy 80.01 187.96))
    (stroke (width 0) (type default))
    (uuid 6d1f5a93-cafc-463b-9d0e-08b0b550a059)
  )
  (wire (pts (xy 261.62 66.04) (xy 261.62 68.58))
    (stroke (width 0) (type default))
    (uuid 6d47cd56-e996-4927-936c-2eae320bcf83)
  )
  (wire (pts (xy 279.4 83.82) (xy 284.48 83.82))
    (stroke (width 0) (type default))
    (uuid 71984f62-1eaf-4b18-8faf-964f9167dba5)
  )
  (wire (pts (xy 104.14 170.18) (xy 104.14 167.64))
    (stroke (width 0) (type default))
    (uuid 72b0b4c1-40a0-450b-aadd-564720c0d7a0)
  )
  (wire (pts (xy 83.82 153.67) (xy 83.82 152.4))
    (stroke (width 0) (type default))
    (uuid 737aea29-9a25-491c-b76d-3d8a0e828deb)
  )
  (wire (pts (xy 217.17 175.26) (xy 217.17 179.07))
    (stroke (width 0) (type default))
    (uuid 75dec930-8816-4d5e-bbdf-db4871164012)
  )
  (wire (pts (xy 273.05 165.1) (xy 276.86 165.1))
    (stroke (width 0) (type default))
    (uuid 77d3d837-e62d-47e4-aa22-fa3e46f61e18)
  )
  (wire (pts (xy 91.44 153.67) (xy 83.82 153.67))
    (stroke (width 0) (type default))
    (uuid 78ebbecf-d1a6-45a7-b614-fd11b4df068d)
  )
  (polyline (pts (xy 193.04 119.38) (xy 314.96 119.38))
    (stroke (width 0) (type default))
    (uuid 7ad24190-4a42-4b6f-b153-5488b6f76bcc)
  )
  (polyline (pts (xy 54.61 205.74) (xy 54.61 146.05))
    (stroke (width 0) (type default))
    (uuid 80bbeb52-afab-4a68-811a-040aa0839d8c)
  )

  (wire (pts (xy 226.06 105.41) (xy 226.06 107.95))
    (stroke (width 0) (type default))
    (uuid 81662c76-920e-4a8a-ba27-de9bf666595d)
  )
  (wire (pts (xy 261.62 83.82) (xy 279.4 83.82))
    (stroke (width 0) (type default))
    (uuid 83300808-d4b4-4149-ba3a-b68a1d3fc28b)
  )
  (wire (pts (xy 252.73 180.34) (xy 254 180.34))
    (stroke (width 0) (type default))
    (uuid 847a6b77-65b4-4cae-be55-35c9c7a89342)
  )
  (wire (pts (xy 279.4 91.44) (xy 297.18 91.44))
    (stroke (width 0) (type default))
    (uuid 8b4d9b26-6f40-489d-8dd6-0c7f0770e029)
  )
  (polyline (pts (xy 170.18 205.74) (xy 54.61 205.74))
    (stroke (width 0) (type default))
    (uuid 8cbd207e-3f39-4bf1-b69c-182694d3a756)
  )
  (polyline (pts (xy 193.04 210.82) (xy 299.72 210.82))
    (stroke (width 0) (type default))
    (uuid 9128a4ba-25f1-4f3d-8a6b-04429bbb2bb9)
  )

  (wire (pts (xy 208.28 83.82) (xy 215.9 83.82))
    (stroke (width 0) (type default))
    (uuid 92996829-89e1-46d5-87ea-1ffb67003a51)
  )
  (wire (pts (xy 220.98 187.96) (xy 210.82 187.96))
    (stroke (width 0) (type default))
    (uuid 9593aaa7-4167-4ea8-96cf-2dd116cb00b2)
  )
  (wire (pts (xy 273.05 160.02) (xy 273.05 165.1))
    (stroke (width 0) (type default))
    (uuid 95e37180-ff5e-44c7-a8d3-bb3983f66a51)
  )
  (wire (pts (xy 226.06 91.44) (xy 226.06 95.25))
    (stroke (width 0) (type default))
    (uuid 972a6028-050b-4e10-8908-c0945f40aa35)
  )
  (wire (pts (xy 99.06 170.18) (xy 99.06 167.64))
    (stroke (width 0) (type default))
    (uuid 978ba6d0-393f-40ef-930c-4bbf82ca9a8f)
  )
  (wire (pts (xy 251.46 187.96) (xy 276.86 187.96))
    (stroke (width 0) (type default))
    (uuid 9d8bc250-73e5-40fb-b149-5caf107bff59)
  )
  (wire (pts (xy 83.82 154.94) (xy 83.82 153.67))
    (stroke (width 0) (type default))
    (uuid 9ee7b1d5-1d4a-457a-868f-1c5ac3f6e002)
  )
  (wire (pts (xy 138.43 170.18) (xy 138.43 167.64))
    (stroke (width 0) (type default))
    (uuid a0164f29-5cad-4dde-9565-c308e73d6a7d)
  )
  (wire (pts (xy 91.44 165.1) (xy 91.44 180.34))
    (stroke (width 0) (type default))
    (uuid a6eee711-fb2b-43be-8a85-bc4aec4af262)
  )
  (wire (pts (xy 261.62 101.6) (xy 261.62 107.95))
    (stroke (width 0) (type default))
    (uuid a8c5d1ea-a47b-440a-a65e-f466835e37db)
  )
  (wire (pts (xy 210.82 177.8) (xy 220.98 177.8))
    (stroke (width 0) (type default))
    (uuid af248f39-563d-47e6-ac1f-1f93667fe45e)
  )
  (wire (pts (xy 275.59 77.47) (xy 275.59 107.95))
    (stroke (width 0) (type default))
    (uuid b505226d-8da8-4f83-bf64-5f6a8cab0689)
  )
  (polyline (pts (xy 54.61 146.05) (xy 170.18 146.05))
    (stroke (width 0) (type default))
    (uuid bdee661b-e406-4fb0-bd51-f6308f1f323b)
  )

  (wire (pts (xy 275.59 66.04) (xy 275.59 69.85))
    (stroke (width 0) (type default))
    (uuid c0a96866-c399-43c2-a3df-482c2bb401b0)
  )
  (wire (pts (xy 208.28 86.36) (xy 215.9 86.36))
    (stroke (width 0) (type default))
    (uuid c4a8d3dd-58f9-47d0-92fb-e59038c5be27)
  )
  (wire (pts (xy 129.54 170.18) (xy 129.54 167.64))
    (stroke (width 0) (type default))
    (uuid c7abff97-1868-47b6-9af5-30f0b35ef1d5)
  )
  (wire (pts (xy 99.06 153.67) (xy 99.06 167.64))
    (stroke (width 0) (type default))
    (uuid cc16a929-a9b8-4ef3-9a88-d9f7f87c55a4)
  )
  (wire (pts (xy 267.97 77.47) (xy 267.97 107.95))
    (stroke (width 0) (type default))
    (uuid cc62e911-5a16-417f-a72d-79e78a112087)
  )
  (wire (pts (xy 261.62 59.69) (xy 261.62 66.04))
    (stroke (width 0) (type default))
    (uuid cd470e75-4b54-4926-a711-fdfb8ab879da)
  )
  (wire (pts (xy 261.62 66.04) (xy 275.59 66.04))
    (stroke (width 0) (type default))
    (uuid d4b91c7d-e603-48a8-98ae-5015c68fce34)
  )
  (wire (pts (xy 99.06 153.67) (xy 91.44 153.67))
    (stroke (width 0) (type default))
    (uuid d8622e1b-c420-4e8e-bdd6-c07c7bd07a90)
  )
  (wire (pts (xy 261.62 99.06) (xy 261.62 101.6))
    (stroke (width 0) (type default))
    (uuid debff818-324e-41e4-8c61-d2af8aeb55bd)
  )
  (wire (pts (xy 226.06 59.69) (xy 226.06 73.66))
    (stroke (width 0) (type default))
    (uuid dfa19c7e-e204-4290-bbea-5c76a9484103)
  )
  (wire (pts (xy 279.4 88.9) (xy 284.48 88.9))
    (stroke (width 0) (type default))
    (uuid e15b1bc8-e52f-428e-a256-6174809e7f82)
  )
  (wire (pts (xy 226.06 58.42) (xy 226.06 59.69))
    (stroke (width 0) (type default))
    (uuid e3180954-93a9-436b-a521-e4fed8a1a13c)
  )
  (wire (pts (xy 269.24 193.04) (xy 281.94 193.04))
    (stroke (width 0) (type default))
    (uuid e527450c-98b5-4b40-80cb-99f80f7c8ac3)
  )
  (wire (pts (xy 269.24 165.1) (xy 273.05 165.1))
    (stroke (width 0) (type default))
    (uuid e6e53c47-39cb-436b-b9da-6a94f580662c)
  )
  (wire (pts (xy 104.14 187.96) (xy 83.82 187.96))
    (stroke (width 0) (type default))
    (uuid e9fa60fe-d296-4ce6-96ab-7c2e72d06254)
  )
  (wire (pts (xy 261.62 68.58) (xy 267.97 68.58))
    (stroke (width 0) (type default))
    (uuid ea06680d-b0b6-4605-a3be-631c5dc27578)
  )
  (wire (pts (xy 226.06 59.69) (xy 261.62 59.69))
    (stroke (width 0) (type default))
    (uuid ec80fd5e-4ef1-488a-bdc5-9ec9c3ab2eec)
  )
  (wire (pts (xy 210.82 193.04) (xy 220.98 193.04))
    (stroke (width 0) (type default))
    (uuid fb7b5bf4-6eb1-44ef-ba38-5aa166915ae4)
  )
  (wire (pts (xy 91.44 180.34) (xy 80.01 180.34))
    (stroke (width 0) (type default))
    (uuid ff59c2d8-7bbe-47fa-9f0d-2106af936612)
  )
  (wire (pts (xy 104.14 180.34) (xy 91.44 180.34))
    (stroke (width 0) (type default))
    (uuid ff7c55ca-34e9-49af-b082-5dc2c64f4d38)
  )

  (text "To Backplane" (at 281.94 185.42 0)
    (effects (font (size 1.27 1.27)) (justify left bottom))
    (uuid 1c7ca925-1afb-4229-aef0-21f479216eea)
  )
  (text "NC" (at 220.98 81.28 0)
    (effects (font (size 1.778 1.5113)) (justify left bottom))
    (uuid 3840e91e-0efb-47a3-bd0e-13b143df20fb)
  )
  (text "From MCU" (at 198.12 185.42 0)
    (effects (font (size 1.27 1.27)) (justify left bottom))
    (uuid 7d5be30e-e3d8-40a5-8ed8-d16c0ace372f)
  )
  (text "IMU + MAG Interface" (at 76.2 111.76 0)
    (effects (font (size 5.08 5.08)) (justify left bottom))
    (uuid 980ca971-c4ed-4e4a-b43e-a0fd11aac9bd)
  )
  (text "Magnetometer Breaker\nLimited to 50mA by R2" (at 110.49 153.67 0)
    (effects (font (size 2.54 2.159)) (justify left bottom))
    (uuid a110e411-94b8-4476-89a1-e50855fd7df4)
  )
  (text "Note:\nBMI088 is interchangeable with BMI090L" (at 198.12 116.84 0)
    (effects (font (size 1.27 1.27)) (justify left bottom))
    (uuid f7664436-2f37-4521-b8ff-d08d65632c79)
  )
  (text "Inertial Measurement Unit" (at 220.98 50.8 0)
    (effects (font (size 2.54 2.159)) (justify left bottom))
    (uuid f948ed35-26d8-4284-83d0-3f6d824bd560)
  )
  (text "Magnetometer\nI2C Buffer" (at 198.12 157.48 0)
    (effects (font (size 2.54 2.159)) (justify left bottom))
    (uuid f99c3f99-0276-4c82-be07-360c6db605dc)
  )
  (text "NC" (at 220.98 78.74 0)
    (effects (font (size 1.778 1.5113)) (justify left bottom))
    (uuid ff41cee3-3465-42cb-aa3b-6f2772a3f2d6)
  )

  (global_label "PB7/SDA" (shape bidirectional) (at 208.28 86.36 180) (fields_autoplaced)
    (effects (font (size 1.2446 1.2446)) (justify right))
    (uuid 0d410827-8720-4f10-ab85-88291f26fcf9)
    (property "Intersheetrefs" "${INTERSHEET_REFS}" (at 368.3 -411.48 0)
      (effects (font (size 1.27 1.27)) hide)
    )
  )
  (global_label "MAG_~{EN}" (shape bidirectional) (at 80.01 187.96 180) (fields_autoplaced)
    (effects (font (size 1.2446 1.2446)) (justify right))
    (uuid 108f0099-6bfe-4f64-8c37-0b25f516e75d)
    (property "Intersheetrefs" "${INTERSHEET_REFS}" (at 59.9837 187.8822 0)
      (effects (font (size 1.2446 1.2446)) (justify right) hide)
    )
  )
  (global_label "MAG_SDA" (shape bidirectional) (at 281.94 187.96 0) (fields_autoplaced)
    (effects (font (size 1.2446 1.2446)) (justify left))
    (uuid 10fcd67d-3f8c-4430-8de1-728b6d3c2ed4)
    (property "Intersheetrefs" "${INTERSHEET_REFS}" (at 303.0331 187.8822 0)
      (effects (font (size 1.2446 1.2446)) (justify left) hide)
    )
  )
  (global_label "MAG_PWR" (shape input) (at 273.05 160.02 90) (fields_autoplaced)
    (effects (font (size 1.27 1.27)) (justify left))
    (uuid 13066e46-db8f-461f-9f4b-17c6c6ba2fa4)
    (property "Intersheetrefs" "${INTERSHEET_REFS}" (at 272.9706 148.8379 90)
      (effects (font (size 1.27 1.27)) (justify left) hide)
    )
  )
  (global_label "PB6/SCL" (shape bidirectional) (at 210.82 193.04 180) (fields_autoplaced)
    (effects (font (size 1.2446 1.2446)) (justify right))
    (uuid 25e4ae06-6f31-42c4-8ef5-f6b368916289)
    (property "Intersheetrefs" "${INTERSHEET_REFS}" (at 370.84 -309.88 0)
      (effects (font (size 1.27 1.27)) hide)
    )
  )
  (global_label "MAG_PWR" (shape bidirectional) (at 147.32 167.64 0) (fields_autoplaced)
    (effects (font (size 1.2446 1.2446)) (justify left))
    (uuid 857b4805-baa6-4179-b499-8bafb8c962b2)
    (property "Intersheetrefs" "${INTERSHEET_REFS}" (at 168.8279 167.5622 0)
      (effects (font (size 1.2446 1.2446)) (justify left) hide)
    )
  )
  (global_label "MAG_SCL" (shape bidirectional) (at 281.94 193.04 0) (fields_autoplaced)
    (effects (font (size 1.2446 1.2446)) (justify left))
    (uuid a4439f6c-e19f-41ed-a625-14e4e2c03cd4)
    (property "Intersheetrefs" "${INTERSHEET_REFS}" (at 302.9738 192.9622 0)
      (effects (font (size 1.2446 1.2446)) (justify left) hide)
    )
  )
  (global_label "MAG_~{FAULT}" (shape bidirectional) (at 80.01 180.34 180) (fields_autoplaced)
    (effects (font (size 1.2446 1.2446)) (justify right))
    (uuid b905bca0-262d-4025-85e0-f834185bf87a)
    (property "Intersheetrefs" "${INTERSHEET_REFS}" (at 57.0204 180.2622 0)
      (effects (font (size 1.2446 1.2446)) (justify right) hide)
    )
  )
  (global_label "PB6/SCL" (shape bidirectional) (at 208.28 83.82 180) (fields_autoplaced)
    (effects (font (size 1.2446 1.2446)) (justify right))
    (uuid d14b5fb4-13c4-46ef-ad50-0b2c2cec440a)
    (property "Intersheetrefs" "${INTERSHEET_REFS}" (at 368.3 -419.1 0)
      (effects (font (size 1.27 1.27)) hide)
    )
  )
  (global_label "IMU_INT1" (shape bidirectional) (at 284.48 83.82 0) (fields_autoplaced)
    (effects (font (size 1.2446 1.2446)) (justify left))
    (uuid d759a081-0c0d-4200-b1a8-916416bbc194)
    (property "Intersheetrefs" "${INTERSHEET_REFS}" (at -5.08 -35.56 0)
      (effects (font (size 1.27 1.27)) hide)
    )
  )
  (global_label "IMU_INT3" (shape bidirectional) (at 284.48 88.9 0) (fields_autoplaced)
    (effects (font (size 1.2446 1.2446)) (justify left))
    (uuid deca76f3-af09-48af-ba64-7823476b04bb)
    (property "Intersheetrefs" "${INTERSHEET_REFS}" (at -5.08 -35.56 0)
      (effects (font (size 1.27 1.27)) hide)
    )
  )
  (global_label "MAG_PWR" (shape input) (at 210.82 177.8 180) (fields_autoplaced)
    (effects (font (size 1.27 1.27)) (justify right))
    (uuid e2e5eb2f-12c2-4f6c-a8cb-48c8b2bbe5d7)
    (property "Intersheetrefs" "${INTERSHEET_REFS}" (at 199.6379 177.8794 0)
      (effects (font (size 1.27 1.27)) (justify right) hide)
    )
  )
  (global_label "PB7/SDA" (shape bidirectional) (at 210.82 187.96 180) (fields_autoplaced)
    (effects (font (size 1.2446 1.2446)) (justify right))
    (uuid e48253c3-f14b-4ace-ba30-80dfe0ed2eaf)
    (property "Intersheetrefs" "${INTERSHEET_REFS}" (at 370.84 -309.88 0)
      (effects (font (size 1.27 1.27)) hide)
    )
  )
  (global_label "IMU_INT4" (shape bidirectional) (at 297.18 91.44 0) (fields_autoplaced)
    (effects (font (size 1.2446 1.2446)) (justify left))
    (uuid ef4e364a-4525-40d1-b91b-29f196d0293f)
    (property "Intersheetrefs" "${INTERSHEET_REFS}" (at -12.7 -35.56 0)
      (effects (font (size 1.27 1.27)) hide)
    )
  )
  (global_label "MAG_READY" (shape bidirectional) (at 254 180.34 0) (fields_autoplaced)
    (effects (font (size 1.2446 1.2446)) (justify left))
    (uuid f9d73f34-4780-4e0a-a149-3d7071d7b75f)
    (property "Intersheetrefs" "${INTERSHEET_REFS}" (at 277.3452 180.2622 0)
      (effects (font (size 1.2446 1.2446)) (justify left) hide)
    )
  )
  (global_label "IMU_INT2" (shape bidirectional) (at 297.18 86.36 0) (fields_autoplaced)
    (effects (font (size 1.2446 1.2446)) (justify left))
    (uuid fd9c436a-2020-4c93-895e-a10b1841284e)
    (property "Intersheetrefs" "${INTERSHEET_REFS}" (at -12.7 -35.56 0)
      (effects (font (size 1.27 1.27)) hide)
    )
  )

  (symbol (lib_id "oresat-acs-card-eagle-import:GND") (at 226.06 110.49 0) (mirror y) (unit 1)
    (in_bom yes) (on_board yes) (dnp no)
    (uuid 029f7d78-106e-4d1b-bd23-b89a4eb11af9)
    (property "Reference" "#GND097" (at 226.06 110.49 0)
      (effects (font (size 1.27 1.27)) hide)
    )
    (property "Value" "GND" (at 228.6 113.03 0)
      (effects (font (size 1.778 1.5113)) (justify left bottom))
    )
    (property "Footprint" "" (at 226.06 110.49 0)
      (effects (font (size 1.27 1.27)) hide)
    )
    (property "Datasheet" "" (at 226.06 110.49 0)
      (effects (font (size 1.27 1.27)) hide)
    )
    (pin "1" (uuid 8d69e054-0e52-4965-9159-13a4fa17085b))
    (instances
      (project "oresat-adcs-card"
        (path "/c58960d9-4cac-4036-ad2e-1aef26946dae/a4e22a47-8081-427b-a284-fdb057c6b905"
          (reference "#GND097") (unit 1)
        )
      )
    )
  )

  (symbol (lib_id "oresat-acs-card-eagle-import:TEST-POINT-LARGE-SQUARE") (at 83.82 187.96 0) (unit 1)
    (in_bom yes) (on_board yes) (dnp no)
    (uuid 04faa6f8-09d5-4a29-a760-46b6402b50f3)
    (property "Reference" "TP6" (at 85.09 190.5 0)
      (effects (font (size 1.27 1.0795)) (justify left bottom))
    )
    (property "Value" "TEST-POINT-LARGE-SQUARE" (at 83.82 187.96 0)
      (effects (font (size 1.27 1.27)) hide)
    )
    (property "Footprint" "oresat-acs-card:1X01" (at 83.82 187.96 0)
      (effects (font (size 1.27 1.27)) hide)
    )
    (property "Datasheet" "" (at 83.82 187.96 0)
      (effects (font (size 1.27 1.27)) hide)
    )
    (pin "1" (uuid f91aff25-ddb9-4ea1-872c-e6c68367806f))
    (instances
      (project "oresat-adcs-card"
        (path "/c58960d9-4cac-4036-ad2e-1aef26946dae/a4e22a47-8081-427b-a284-fdb057c6b905"
          (reference "TP6") (unit 1)
        )
      )
    )
  )

  (symbol (lib_id "oresat-acs-card-eagle-import:TEST-POINT-LARGE-SQUARE") (at 279.4 88.9 0) (unit 1)
    (in_bom yes) (on_board yes) (dnp no)
    (uuid 0912db83-df51-40a2-9f87-b767f28777b2)
    (property "Reference" "TP123" (at 280.67 88.9 0)
      (effects (font (size 1.27 1.0795)) (justify left bottom))
    )
    (property "Value" "TEST-POINT-LARGE-SQUARE" (at 279.4 88.9 0)
      (effects (font (size 1.27 1.27)) hide)
    )
    (property "Footprint" "oresat-acs-card:1X01" (at 279.4 88.9 0)
      (effects (font (size 1.27 1.27)) hide)
    )
    (property "Datasheet" "" (at 279.4 88.9 0)
      (effects (font (size 1.27 1.27)) hide)
    )
    (pin "1" (uuid d98552af-4f4a-4dd0-bb34-8818a922def9))
    (instances
      (project "oresat-adcs-card"
        (path "/c58960d9-4cac-4036-ad2e-1aef26946dae/a4e22a47-8081-427b-a284-fdb057c6b905"
          (reference "TP123") (unit 1)
        )
      )
    )
  )

  (symbol (lib_id "oresat-acs-card-eagle-import:GND") (at 130.81 200.66 0) (mirror y) (unit 1)
    (in_bom yes) (on_board yes) (dnp no)
    (uuid 0da06eb7-62ae-4edc-a19d-38c77a95d643)
    (property "Reference" "#GND094" (at 130.81 200.66 0)
      (effects (font (size 1.27 1.27)) hide)
    )
    (property "Value" "GND" (at 133.35 203.2 0)
      (effects (font (size 1.778 1.5113)) (justify left bottom))
    )
    (property "Footprint" "" (at 130.81 200.66 0)
      (effects (font (size 1.27 1.27)) hide)
    )
    (property "Datasheet" "" (at 130.81 200.66 0)
      (effects (font (size 1.27 1.27)) hide)
    )
    (pin "1" (uuid 6847c589-e257-46b3-a884-90bcbf2a3279))
    (instances
      (project "oresat-adcs-card"
        (path "/c58960d9-4cac-4036-ad2e-1aef26946dae/a4e22a47-8081-427b-a284-fdb057c6b905"
          (reference "#GND094") (unit 1)
        )
      )
    )
  )

  (symbol (lib_id "oresat-acs-card-eagle-import:GND") (at 267.97 110.49 0) (mirror y) (unit 1)
    (in_bom yes) (on_board yes) (dnp no)
    (uuid 0f868636-a9fe-43d0-9ab7-ed1184116232)
    (property "Reference" "#GND099" (at 267.97 110.49 0)
      (effects (font (size 1.27 1.27)) hide)
    )
    (property "Value" "GND" (at 270.51 113.03 0)
      (effects (font (size 1.778 1.5113)) (justify left bottom))
    )
    (property "Footprint" "" (at 267.97 110.49 0)
      (effects (font (size 1.27 1.27)) hide)
    )
    (property "Datasheet" "" (at 267.97 110.49 0)
      (effects (font (size 1.27 1.27)) hide)
    )
    (pin "1" (uuid 4524f9c6-1601-49c1-b2cc-4f03ce737154))
    (instances
      (project "oresat-adcs-card"
        (path "/c58960d9-4cac-4036-ad2e-1aef26946dae/a4e22a47-8081-427b-a284-fdb057c6b905"
          (reference "#GND099") (unit 1)
        )
      )
    )
  )

  (symbol (lib_id "oresat-acs-card-eagle-import:BMI088") (at 243.84 83.82 0) (unit 1)
    (in_bom yes) (on_board yes) (dnp no)
    (uuid 1c7197d9-1854-4b6e-bf52-c203226ad7cd)
    (property "Reference" "U13" (at 232.41 62.23 0)
      (effects (font (size 1.778 1.5113)) (justify left bottom))
    )
    (property "Value" "BMI088" (at 245.11 62.23 0)
      (effects (font (size 1.778 1.5113)) (justify left bottom))
    )
    (property "Footprint" "oresat-acs-card:PQFN50P450X300X100-16N" (at 243.84 83.82 0)
      (effects (font (size 1.27 1.27)) hide)
    )
    (property "Datasheet" "" (at 243.84 83.82 0)
      (effects (font (size 1.27 1.27)) hide)
    )
    (property "Value" "BMI088" (at 243.84 83.82 0)
      (effects (font (size 1.778 1.5113)) (justify left bottom) hide)
    )
    (pin "1" (uuid 3518ac00-2f60-497f-8308-410458bf3d8a))
    (pin "10" (uuid 8cc4f397-ab78-4e14-a97c-05b690408803))
    (pin "11" (uuid 8804ac3b-c636-4dd9-97bf-f0c4cc720a24))
    (pin "12" (uuid 0ec7133e-8c30-425e-8403-04abe0096bde))
    (pin "13" (uuid b963fd24-0780-4680-8614-fe86ef253063))
    (pin "14" (uuid 5515c735-5cb5-48e5-bfca-e781b067d2d6))
    (pin "15" (uuid 13e8e380-bb40-46bc-912c-5187318727c6))
    (pin "16" (uuid b1ad82d0-2183-4ca4-a24e-3ac758773af4))
    (pin "3" (uuid eff49e9a-1a9f-4054-8716-80eeef1f6959))
    (pin "4" (uuid 9b5a9ba7-93d6-4957-83e6-e516f0af4292))
    (pin "5" (uuid ba4eb812-e504-4734-ac61-1ccbd8b7fa97))
    (pin "6" (uuid 7cd9926c-e061-4860-a5b6-5f3c89b9f015))
    (pin "7" (uuid 9636dfc0-961e-46e2-88d9-69909470516c))
    (pin "8" (uuid 85c239a9-d0e8-48c4-b015-c124229fdc0c))
    (pin "9" (uuid 1d20179f-8a7f-4bfc-a08b-2e8b9bb89653))
    (instances
      (project "oresat-adcs-card"
        (path "/c58960d9-4cac-4036-ad2e-1aef26946dae/a4e22a47-8081-427b-a284-fdb057c6b905"
          (reference "U13") (unit 1)
        )
      )
    )
  )

  (symbol (lib_id "oresat-acs-card-eagle-import:GND") (at 116.84 200.66 0) (mirror y) (unit 1)
    (in_bom yes) (on_board yes) (dnp no)
    (uuid 305a9b1d-826b-4142-ac53-265056c843d8)
    (property "Reference" "#GND093" (at 116.84 200.66 0)
      (effects (font (size 1.27 1.27)) hide)
    )
    (property "Value" "GND" (at 119.38 203.2 0)
      (effects (font (size 1.778 1.5113)) (justify left bottom))
    )
    (property "Footprint" "" (at 116.84 200.66 0)
      (effects (font (size 1.27 1.27)) hide)
    )
    (property "Datasheet" "" (at 116.84 200.66 0)
      (effects (font (size 1.27 1.27)) hide)
    )
    (pin "1" (uuid 2a8a433f-9045-4d79-bcf9-6acfe3a62ee1))
    (instances
      (project "oresat-adcs-card"
        (path "/c58960d9-4cac-4036-ad2e-1aef26946dae/a4e22a47-8081-427b-a284-fdb057c6b905"
          (reference "#GND093") (unit 1)
        )
      )
    )
  )

  (symbol (lib_id "oresat-acs-card-eagle-import:TEST-POINT-LARGE-SQUARE") (at 269.24 193.04 0) (mirror y) (unit 1)
    (in_bom yes) (on_board yes) (dnp no)
    (uuid 3c434d94-5b06-4e35-bb53-49c744edcc3c)
    (property "Reference" "TP1" (at 270.51 196.85 0)
      (effects (font (size 1.27 1.0795)) (justify left bottom))
    )
    (property "Value" "TEST-POINT-LARGE-SQUARE" (at 269.24 193.04 0)
      (effects (font (size 1.27 1.27)) hide)
    )
    (property "Footprint" "oresat-acs-card:1X01" (at 269.24 193.04 0)
      (effects (font (size 1.27 1.27)) hide)
    )
    (property "Datasheet" "" (at 269.24 193.04 0)
      (effects (font (size 1.27 1.27)) hide)
    )
    (pin "1" (uuid 1d2c9525-4362-44d1-a8b8-179a4ce1b7ca))
    (instances
      (project "oresat-adcs-card"
        (path "/c58960d9-4cac-4036-ad2e-1aef26946dae/a4e22a47-8081-427b-a284-fdb057c6b905"
          (reference "TP1") (unit 1)
        )
      )
    )
  )

  (symbol (lib_id "oresat-acs-card-eagle-import:GND") (at 261.62 110.49 0) (mirror y) (unit 1)
    (in_bom yes) (on_board yes) (dnp no)
    (uuid 3d5231ed-2ebf-4883-90e5-f3a3895fdbe9)
    (property "Reference" "#GND098" (at 261.62 110.49 0)
      (effects (font (size 1.27 1.27)) hide)
    )
    (property "Value" "GND" (at 264.16 113.03 0)
      (effects (font (size 1.778 1.5113)) (justify left bottom))
    )
    (property "Footprint" "" (at 261.62 110.49 0)
      (effects (font (size 1.27 1.27)) hide)
    )
    (property "Datasheet" "" (at 261.62 110.49 0)
      (effects (font (size 1.27 1.27)) hide)
    )
    (pin "1" (uuid e45f63fe-97a1-472d-9b2c-5df8bbe9a56c))
    (instances
      (project "oresat-adcs-card"
        (path "/c58960d9-4cac-4036-ad2e-1aef26946dae/a4e22a47-8081-427b-a284-fdb057c6b905"
          (reference "#GND098") (unit 1)
        )
      )
    )
  )

  (symbol (lib_id "oresat-acs-card-eagle-import:GND") (at 99.06 200.66 0) (mirror y) (unit 1)
    (in_bom yes) (on_board yes) (dnp no)
    (uuid 5e15e811-18a6-4e9a-bae3-583b1634311b)
    (property "Reference" "#GND091" (at 99.06 200.66 0)
      (effects (font (size 1.27 1.27)) hide)
    )
    (property "Value" "GND" (at 101.6 203.2 0)
      (effects (font (size 1.778 1.5113)) (justify left bottom))
    )
    (property "Footprint" "" (at 99.06 200.66 0)
      (effects (font (size 1.27 1.27)) hide)
    )
    (property "Datasheet" "" (at 99.06 200.66 0)
      (effects (font (size 1.27 1.27)) hide)
    )
    (pin "1" (uuid 8ad0abdd-510b-4c4f-a57a-6c5afce9c440))
    (instances
      (project "oresat-adcs-card"
        (path "/c58960d9-4cac-4036-ad2e-1aef26946dae/a4e22a47-8081-427b-a284-fdb057c6b905"
          (reference "#GND091") (unit 1)
        )
      )
    )
  )

  (symbol (lib_id "oresat-acs-card-eagle-import:TEST-POINT-LARGE-SQUARE") (at 279.4 91.44 0) (unit 1)
    (in_bom yes) (on_board yes) (dnp no)
    (uuid 677e2c2b-e643-4e59-a207-596e44a231d7)
    (property "Reference" "TP124" (at 280.67 91.44 0)
      (effects (font (size 1.27 1.0795)) (justify left bottom))
    )
    (property "Value" "TEST-POINT-LARGE-SQUARE" (at 279.4 91.44 0)
      (effects (font (size 1.27 1.27)) hide)
    )
    (property "Footprint" "oresat-acs-card:1X01" (at 279.4 91.44 0)
      (effects (font (size 1.27 1.27)) hide)
    )
    (property "Datasheet" "" (at 279.4 91.44 0)
      (effects (font (size 1.27 1.27)) hide)
    )
    (pin "1" (uuid 7a4ec9a1-eea2-40ac-87c2-028649d6d663))
    (instances
      (project "oresat-adcs-card"
        (path "/c58960d9-4cac-4036-ad2e-1aef26946dae/a4e22a47-8081-427b-a284-fdb057c6b905"
          (reference "TP124") (unit 1)
        )
      )
    )
  )

  (symbol (lib_id "oresat-acs-card-eagle-import:GND") (at 275.59 110.49 0) (mirror y) (unit 1)
    (in_bom yes) (on_board yes) (dnp no)
    (uuid 683494ab-83e3-4e0e-9f47-9b1d32dcbe51)
    (property "Reference" "#GND0100" (at 275.59 110.49 0)
      (effects (font (size 1.27 1.27)) hide)
    )
    (property "Value" "GND" (at 278.13 113.03 0)
      (effects (font (size 1.778 1.5113)) (justify left bottom))
    )
    (property "Footprint" "" (at 275.59 110.49 0)
      (effects (font (size 1.27 1.27)) hide)
    )
    (property "Datasheet" "" (at 275.59 110.49 0)
      (effects (font (size 1.27 1.27)) hide)
    )
    (pin "1" (uuid 6aa748c2-fb81-4c6d-99e7-68e0b9e82bcd))
    (instances
      (project "oresat-adcs-card"
        (path "/c58960d9-4cac-4036-ad2e-1aef26946dae/a4e22a47-8081-427b-a284-fdb057c6b905"
          (reference "#GND0100") (unit 1)
        )
      )
    )
  )

  (symbol (lib_id "oresat-acs-card-eagle-import:R-US_0603-C-NOSILK") (at 130.81 191.77 90) (unit 1)
    (in_bom yes) (on_board yes) (dnp no)
    (uuid 688094b3-d7f2-4bf8-88e9-bab281f3da2d)
    (property "Reference" "R2" (at 129.3114 195.58 0)
      (effects (font (size 1.778 1.5113)) (justify left bottom))
    )
    (property "Value" "23.7k" (at 134.112 195.58 0)
      (effects (font (size 1.778 1.5113)) (justify left bottom))
    )
    (property "Footprint" "oresat-passives:0603-C-NOSILK" (at 130.81 191.77 0)
      (effects (font (size 1.27 1.27)) hide)
    )
    (property "Datasheet" "" (at 130.81 191.77 0)
      (effects (font (size 1.27 1.27)) hide)
    )
    (property "Value" "RC0603FR-0723K7L" (at 130.81 191.77 0)
      (effects (font (size 1.778 1.5113)) (justify left bottom) hide)
    )
    (pin "1" (uuid d7e1828a-ec0b-42f4-8ba6-675686e84c5d))
    (pin "2" (uuid b9433526-1308-4f81-8a1f-e5432dcb233f))
    (instances
      (project "oresat-adcs-card"
        (path "/c58960d9-4cac-4036-ad2e-1aef26946dae/a4e22a47-8081-427b-a284-fdb057c6b905"
          (reference "R2") (unit 1)
        )
      )
    )
  )

  (symbol (lib_id "oresat-acs-card-eagle-import:3.3V") (at 226.06 58.42 0) (mirror y) (unit 1)
    (in_bom yes) (on_board yes) (dnp no)
    (uuid 73020f4e-0646-42c6-9c58-c614b043f9c4)
    (property "Reference" "#SUPPLY012" (at 226.06 58.42 0)
      (effects (font (size 1.27 1.27)) hide)
    )
    (property "Value" "3.3V" (at 226.06 55.626 0)
      (effects (font (size 1.778 1.5113)) (justify bottom))
    )
    (property "Footprint" "" (at 226.06 58.42 0)
      (effects (font (size 1.27 1.27)) hide)
    )
    (property "Datasheet" "" (at 226.06 58.42 0)
      (effects (font (size 1.27 1.27)) hide)
    )
    (pin "1" (uuid e13fef1c-a0ec-4ca3-8ec6-dfc4d3787a36))
    (instances
      (project "oresat-adcs-card"
        (path "/c58960d9-4cac-4036-ad2e-1aef26946dae/a4e22a47-8081-427b-a284-fdb057c6b905"
          (reference "#SUPPLY012") (unit 1)
        )
      )
    )
  )

  (symbol (lib_id "oresat-acs-card-eagle-import:R-US_0603-C-NOSILK") (at 83.82 160.02 90) (unit 1)
    (in_bom yes) (on_board yes) (dnp no)
    (uuid 75b74eab-a22a-4a43-8186-3f8b1ecac9a0)
    (property "Reference" "R3" (at 82.3214 163.83 0)
      (effects (font (size 1.778 1.5113)) (justify left bottom))
    )
    (property "Value" "10k" (at 82.042 158.75 0)
      (effects (font (size 1.778 1.5113)) (justify left bottom))
    )
    (property "Footprint" "oresat-passives:0603-C-NOSILK" (at 83.82 160.02 0)
      (effects (font (size 1.27 1.27)) hide)
    )
    (property "Datasheet" "" (at 83.82 160.02 0)
      (effects (font (size 1.27 1.27)) hide)
    )
    (property "Value" "RC0603FR-0710KL" (at 83.82 160.02 0)
      (effects (font (size 1.778 1.5113)) (justify left bottom) hide)
    )
    (pin "1" (uuid 4d3a7e7e-93da-421c-83b5-209a560b4c07))
    (pin "2" (uuid 05bc9198-4484-4ca8-a84b-a24ddfaa6244))
    (instances
      (project "oresat-adcs-card"
        (path "/c58960d9-4cac-4036-ad2e-1aef26946dae/a4e22a47-8081-427b-a284-fdb057c6b905"
          (reference "R3") (unit 1)
        )
      )
    )
  )

  (symbol (lib_id "oresat-acs-card-eagle-import:TEST-POINT-LARGE-SQUARE") (at 91.44 180.34 0) (unit 1)
    (in_bom yes) (on_board yes) (dnp no)
    (uuid 824c7c80-57a9-4131-9b7b-17585966bbd5)
    (property "Reference" "TP5" (at 92.71 182.88 0)
      (effects (font (size 1.27 1.0795)) (justify left bottom))
    )
    (property "Value" "TEST-POINT-LARGE-SQUARE" (at 91.44 180.34 0)
      (effects (font (size 1.27 1.27)) hide)
    )
    (property "Footprint" "oresat-acs-card:1X01" (at 91.44 180.34 0)
      (effects (font (size 1.27 1.27)) hide)
    )
    (property "Datasheet" "" (at 91.44 180.34 0)
      (effects (font (size 1.27 1.27)) hide)
    )
    (pin "1" (uuid 5c99666c-7749-455f-b1a3-c7bcd644158c))
    (instances
      (project "oresat-adcs-card"
        (path "/c58960d9-4cac-4036-ad2e-1aef26946dae/a4e22a47-8081-427b-a284-fdb057c6b905"
          (reference "TP5") (unit 1)
        )
      )
    )
  )

  (symbol (lib_id "oresat-acs-card-eagle-import:TEST-POINT-LARGE-SQUARE") (at 279.4 83.82 0) (unit 1)
    (in_bom yes) (on_board yes) (dnp no)
    (uuid 826a0655-e1d5-478c-bff4-c8872e083e7c)
    (property "Reference" "TP88" (at 280.67 83.82 0)
      (effects (font (size 1.27 1.0795)) (justify left bottom))
    )
    (property "Value" "TEST-POINT-LARGE-SQUARE" (at 279.4 83.82 0)
      (effects (font (size 1.27 1.27)) hide)
    )
    (property "Footprint" "oresat-acs-card:1X01" (at 279.4 83.82 0)
      (effects (font (size 1.27 1.27)) hide)
    )
    (property "Datasheet" "" (at 279.4 83.82 0)
      (effects (font (size 1.27 1.27)) hide)
    )
    (pin "1" (uuid ed220253-8279-49b9-8296-2d68ac7bfc83))
    (instances
      (project "oresat-adcs-card"
        (path "/c58960d9-4cac-4036-ad2e-1aef26946dae/a4e22a47-8081-427b-a284-fdb057c6b905"
          (reference "TP88") (unit 1)
        )
      )
    )
  )

  (symbol (lib_id "oresat-acs-card-eagle-import:C-EU0603-C-NOSILK") (at 138.43 172.72 0) (unit 1)
    (in_bom yes) (on_board yes) (dnp no)
    (uuid 85830388-c34d-4f3f-a78d-9eed77152365)
    (property "Reference" "C2" (at 139.954 172.339 0)
      (effects (font (size 1.778 1.5113)) (justify left bottom))
    )
    (property "Value" "1u" (at 139.954 177.419 0)
      (effects (font (size 1.778 1.5113)) (justify left bottom))
    )
    (property "Footprint" "oresat-passives:0603-C-NOSILK" (at 138.43 172.72 0)
      (effects (font (size 1.27 1.27)) hide)
    )
    (property "Datasheet" "" (at 138.43 172.72 0)
      (effects (font (size 1.27 1.27)) hide)
    )
    (property "Value" "CC0603KRX7R7BB105" (at 138.43 172.72 0)
      (effects (font (size 1.778 1.5113)) (justify left bottom) hide)
    )
    (pin "1" (uuid 07d7745e-e18b-4eb6-92e0-2a9adc21a909))
    (pin "2" (uuid dd4b7ff6-8e1f-4972-872e-c0fdf79dbf59))
    (instances
      (project "oresat-adcs-card"
        (path "/c58960d9-4cac-4036-ad2e-1aef26946dae/a4e22a47-8081-427b-a284-fdb057c6b905"
          (reference "C2") (unit 1)
        )
      )
    )
  )

  (symbol (lib_id "oresat-acs-card-eagle-import:C-EU0603-C-NOSILK") (at 99.06 172.72 0) (unit 1)
    (in_bom yes) (on_board yes) (dnp no)
    (uuid 881cd0ed-7f38-43bc-ab09-842ba69140d9)
    (property "Reference" "C1" (at 100.584 172.339 0)
      (effects (font (size 1.778 1.5113)) (justify left bottom))
    )
    (property "Value" "1u" (at 100.584 177.419 0)
      (effects (font (size 1.778 1.5113)) (justify left bottom))
    )
    (property "Footprint" "oresat-passives:0603-C-NOSILK" (at 99.06 172.72 0)
      (effects (font (size 1.27 1.27)) hide)
    )
    (property "Datasheet" "" (at 99.06 172.72 0)
      (effects (font (size 1.27 1.27)) hide)
    )
    (property "Value" "CC0603KRX7R7BB105" (at 99.06 172.72 0)
      (effects (font (size 1.778 1.5113)) (justify left bottom) hide)
    )
    (pin "1" (uuid 635004f3-53db-4f3d-98a4-0d80c437ea3f))
    (pin "2" (uuid 896e4058-ef12-4821-8162-278198002d1d))
    (instances
      (project "oresat-adcs-card"
        (path "/c58960d9-4cac-4036-ad2e-1aef26946dae/a4e22a47-8081-427b-a284-fdb057c6b905"
          (reference "C1") (unit 1)
        )
      )
    )
  )

  (symbol (lib_id "oresat-acs-card-eagle-import:C-EU0603-C-NOSILK") (at 217.17 181.61 0) (unit 1)
    (in_bom yes) (on_board yes) (dnp no)
    (uuid 8d4b0a4f-7f7c-4f15-a454-4f4644af9ce8)
    (property "Reference" "C3" (at 218.694 181.229 0)
      (effects (font (size 1.778 1.5113)) (justify left bottom))
    )
    (property "Value" "1u" (at 217.424 186.309 0)
      (effects (font (size 1.778 1.5113)) (justify left bottom))
    )
    (property "Footprint" "oresat-passives:0603-C-NOSILK" (at 217.17 181.61 0)
      (effects (font (size 1.27 1.27)) hide)
    )
    (property "Datasheet" "" (at 217.17 181.61 0)
      (effects (font (size 1.27 1.27)) hide)
    )
    (property "Value" "CC0603KRX7R7BB105" (at 217.17 181.61 0)
      (effects (font (size 1.778 1.5113)) (justify left bottom) hide)
    )
    (pin "1" (uuid dad439de-33a4-447a-9b7b-f2bdb1ed7e9e))
    (pin "2" (uuid a11ea8f7-3b1d-466a-a03d-fdf0b7a8fceb))
    (instances
      (project "oresat-adcs-card"
        (path "/c58960d9-4cac-4036-ad2e-1aef26946dae/a4e22a47-8081-427b-a284-fdb057c6b905"
          (reference "C3") (unit 1)
        )
      )
    )
  )

  (symbol (lib_id "oresat-acs-card-eagle-import:C-EU0603-C-NOSILK") (at 275.59 72.39 0) (unit 1)
    (in_bom yes) (on_board yes) (dnp no)
    (uuid 8eb32840-909d-403f-a231-2ffacf5483df)
    (property "Reference" "C16" (at 277.114 72.009 0)
      (effects (font (size 1.778 1.5113)) (justify left bottom))
    )
    (property "Value" "1u" (at 277.114 77.089 0)
      (effects (font (size 1.778 1.5113)) (justify left bottom))
    )
    (property "Footprint" "oresat-passives:0603-C-NOSILK" (at 275.59 72.39 0)
      (effects (font (size 1.27 1.27)) hide)
    )
    (property "Datasheet" "" (at 275.59 72.39 0)
      (effects (font (size 1.27 1.27)) hide)
    )
    (property "Value" "CC0603KRX7R7BB105" (at 275.59 72.39 0)
      (effects (font (size 1.778 1.5113)) (justify left bottom) hide)
    )
    (pin "1" (uuid 109311f9-482a-44da-9bfd-3b160d0a5996))
    (pin "2" (uuid dae4bd12-ba86-4a9b-983d-8878b694f71e))
    (instances
      (project "oresat-adcs-card"
        (path "/c58960d9-4cac-4036-ad2e-1aef26946dae/a4e22a47-8081-427b-a284-fdb057c6b905"
          (reference "C16") (unit 1)
        )
      )
    )
  )

  (symbol (lib_id "oresat-acs-card-eagle-import:R-US_0603-C-NOSILK") (at 226.06 100.33 90) (unit 1)
    (in_bom yes) (on_board yes) (dnp no)
    (uuid 955e7d06-0262-4af9-8bb7-d8c4ea04846a)
    (property "Reference" "R4" (at 224.5614 104.14 0)
      (effects (font (size 1.778 1.5113)) (justify left bottom))
    )
    (property "Value" "10k" (at 224.282 99.06 0)
      (effects (font (size 1.778 1.5113)) (justify left bottom))
    )
    (property "Footprint" "oresat-passives:0603-C-NOSILK" (at 226.06 100.33 0)
      (effects (font (size 1.27 1.27)) hide)
    )
    (property "Datasheet" "" (at 226.06 100.33 0)
      (effects (font (size 1.27 1.27)) hide)
    )
    (property "Value" "RC0603FR-0710KL" (at 226.06 100.33 0)
      (effects (font (size 1.778 1.5113)) (justify left bottom) hide)
    )
    (pin "1" (uuid 57b7e1ca-3186-40e6-8356-fd308ea14aef))
    (pin "2" (uuid c9f8a667-56e5-4553-8ef3-121996891bce))
    (instances
      (project "oresat-adcs-card"
        (path "/c58960d9-4cac-4036-ad2e-1aef26946dae/a4e22a47-8081-427b-a284-fdb057c6b905"
          (reference "R4") (unit 1)
        )
      )
    )
  )

  (symbol (lib_id "oresat-acs-card-eagle-import:TEST-POINT-LARGE-SQUARE") (at 215.9 86.36 0) (unit 1)
    (in_bom yes) (on_board yes) (dnp no)
    (uuid 9598547f-ed24-41d9-965b-fb1cc34cd126)
    (property "Reference" "TP18" (at 213.36 90.17 0)
      (effects (font (size 1.27 1.0795)) (justify left bottom))
    )
    (property "Value" "TEST-POINT-LARGE-SQUARE" (at 215.9 86.36 0)
      (effects (font (size 1.27 1.27)) hide)
    )
    (property "Footprint" "oresat-acs-card:1X01" (at 215.9 86.36 0)
      (effects (font (size 1.27 1.27)) hide)
    )
    (property "Datasheet" "" (at 215.9 86.36 0)
      (effects (font (size 1.27 1.27)) hide)
    )
    (pin "1" (uuid 2351edc5-99d8-48c2-beb8-5ff40af26f5b))
    (instances
      (project "oresat-adcs-card"
        (path "/c58960d9-4cac-4036-ad2e-1aef26946dae/a4e22a47-8081-427b-a284-fdb057c6b905"
          (reference "TP18") (unit 1)
        )
      )
    )
  )

  (symbol (lib_id "oresat-acs-card-eagle-import:TEST-POINT-LARGE-SQUARE") (at 279.4 86.36 0) (unit 1)
    (in_bom yes) (on_board yes) (dnp no)
    (uuid 9f533725-ccd0-4515-865c-33a503b0e638)
    (property "Reference" "TP122" (at 280.67 86.36 0)
      (effects (font (size 1.27 1.0795)) (justify left bottom))
    )
    (property "Value" "TEST-POINT-LARGE-SQUARE" (at 279.4 86.36 0)
      (effects (font (size 1.27 1.27)) hide)
    )
    (property "Footprint" "oresat-acs-card:1X01" (at 279.4 86.36 0)
      (effects (font (size 1.27 1.27)) hide)
    )
    (property "Datasheet" "" (at 279.4 86.36 0)
      (effects (font (size 1.27 1.27)) hide)
    )
    (pin "1" (uuid 60b30ef9-d0b4-4032-8e47-1a8121d4b6a3))
    (instances
      (project "oresat-adcs-card"
        (path "/c58960d9-4cac-4036-ad2e-1aef26946dae/a4e22a47-8081-427b-a284-fdb057c6b905"
          (reference "TP122") (unit 1)
        )
      )
    )
  )

  (symbol (lib_id "oresat-acs-card-eagle-import:GND") (at 218.44 110.49 0) (mirror y) (unit 1)
    (in_bom yes) (on_board yes) (dnp no)
    (uuid a37f9c2b-d677-49b9-9d8c-d8cbc38ce02b)
    (property "Reference" "#GND096" (at 218.44 110.49 0)
      (effects (font (size 1.27 1.27)) hide)
    )
    (property "Value" "GND" (at 220.98 113.03 0)
      (effects (font (size 1.778 1.5113)) (justify left bottom))
    )
    (property "Footprint" "" (at 218.44 110.49 0)
      (effects (font (size 1.27 1.27)) hide)
    )
    (property "Datasheet" "" (at 218.44 110.49 0)
      (effects (font (size 1.27 1.27)) hide)
    )
    (pin "1" (uuid 95cd1283-9f1e-4c64-87d1-ace18ce700ed))
    (instances
      (project "oresat-adcs-card"
        (path "/c58960d9-4cac-4036-ad2e-1aef26946dae/a4e22a47-8081-427b-a284-fdb057c6b905"
          (reference "#GND096") (unit 1)
        )
      )
    )
  )

  (symbol (lib_id "oresat-acs-card-eagle-import:MAX892LEUA+T21-0036K-L") (at 116.84 175.26 0) (unit 1)
    (in_bom yes) (on_board yes) (dnp no)
    (uuid a48b13e3-97ac-413a-a692-fbf19b97c2c8)
    (property "Reference" "U1" (at 106.5276 158.5214 0)
      (effects (font (size 2.0828 1.7703)) (justify left bottom))
    )
    (property "Value" "MAX892LEUA+T21-0036K-L" (at 104.1146 163.6014 0)
      (effects (font (size 2.0828 1.7703)) (justify left bottom))
    )
    (property "Footprint" "oresat-acs-card:21-0036K-L" (at 116.84 175.26 0)
      (effects (font (size 1.27 1.27)) hide)
    )
    (property "Datasheet" "" (at 116.84 175.26 0)
      (effects (font (size 1.27 1.27)) hide)
    )
    (property "Value" "MAX892LEUA+T21-0036K-L" (at 116.84 175.26 0)
      (effects (font (size 2.0828 1.7703)) (justify left bottom) hide)
    )
    (pin "1" (uuid 6264c159-2657-485d-a086-602f545dfbf2))
    (pin "2" (uuid 21efc306-5791-4e90-8014-e2a9eb6d34d6))
    (pin "3" (uuid 65eaa07d-7b75-41f6-830e-9dd59a3287d0))
    (pin "4" (uuid fcb0980f-77fc-4d55-a5dd-8e5623c3fa0b))
    (pin "5" (uuid d867e268-3e45-45c1-9762-565002ef251c))
    (pin "6" (uuid b142b88f-5214-4eb4-bfeb-5c74e74881c7))
    (pin "7" (uuid 13f2d2c0-c4f2-4a1b-a0fe-0db1f65e7ad7))
    (pin "8" (uuid 904d92b7-82c2-4da2-b8bb-a37b3f4a93cc))
    (instances
      (project "oresat-adcs-card"
        (path "/c58960d9-4cac-4036-ad2e-1aef26946dae/a4e22a47-8081-427b-a284-fdb057c6b905"
          (reference "U1") (unit 1)
        )
      )
    )
  )

  (symbol (lib_id "oresat-acs-card-eagle-import:R-US_0603-C-NOSILK") (at 252.73 170.18 270) (unit 1)
    (in_bom yes) (on_board yes) (dnp no)
    (uuid a4e54b78-718f-48f9-ae48-cc95971386cd)
    (property "Reference" "R10" (at 254 173.99 0)
      (effects (font (size 1.778 1.5113)) (justify right bottom))
    )
    (property "Value" "10k" (at 254 167.64 0)
      (effects (font (size 1.778 1.5113)) (justify right bottom))
    )
    (property "Footprint" "oresat-passives:0603-C-NOSILK" (at 252.73 170.18 0)
      (effects (font (size 1.27 1.27)) hide)
    )
    (property "Datasheet" "" (at 252.73 170.18 0)
      (effects (font (size 1.27 1.27)) hide)
    )
    (property "Value" "RC0603FR-0710KL" (at 252.73 170.18 0)
      (effects (font (size 1.778 1.5113)) (justify left bottom) hide)
    )
    (pin "1" (uuid 3038ca17-9333-4585-a90a-dffc02ecdfc2))
    (pin "2" (uuid 594a88fb-37ee-480e-9300-4ce2c6a065ab))
    (instances
      (project "oresat-adcs-card"
        (path "/c58960d9-4cac-4036-ad2e-1aef26946dae/a4e22a47-8081-427b-a284-fdb057c6b905"
          (reference "R10") (unit 1)
        )
      )
    )
  )

  (symbol (lib_id "oresat-acs-card-eagle-import:R-US_0603-C-NOSILK") (at 218.44 100.33 90) (unit 1)
    (in_bom yes) (on_board yes) (dnp no)
    (uuid b2364ccc-d560-471e-96fb-ac59e9de768a)
    (property "Reference" "R5" (at 216.9414 104.14 0)
      (effects (font (size 1.778 1.5113)) (justify left bottom))
    )
    (property "Value" "10k" (at 216.662 99.06 0)
      (effects (font (size 1.778 1.5113)) (justify left bottom))
    )
    (property "Footprint" "oresat-passives:0603-C-NOSILK" (at 218.44 100.33 0)
      (effects (font (size 1.27 1.27)) hide)
    )
    (property "Datasheet" "" (at 218.44 100.33 0)
      (effects (font (size 1.27 1.27)) hide)
    )
    (property "Value" "RC0603FR-0710KL" (at 218.44 100.33 0)
      (effects (font (size 1.778 1.5113)) (justify left bottom) hide)
    )
    (pin "1" (uuid c87634eb-009f-4573-8cd1-cfa1dbddec01))
    (pin "2" (uuid 785bde1c-096a-4b6f-bc5e-b62b7f5f0620))
    (instances
      (project "oresat-adcs-card"
        (path "/c58960d9-4cac-4036-ad2e-1aef26946dae/a4e22a47-8081-427b-a284-fdb057c6b905"
          (reference "R5") (unit 1)
        )
      )
    )
  )

  (symbol (lib_id "oresat-acs-card-eagle-import:R-US_0603-C-NOSILK") (at 269.24 170.18 90) (mirror x) (unit 1)
    (in_bom yes) (on_board yes) (dnp no)
    (uuid c5dfbb7d-21d5-48a5-acf7-a52f8f58fd4a)
    (property "Reference" "R13" (at 267.97 176.53 0)
      (effects (font (size 1.778 1.5113)) (justify right bottom))
    )
    (property "Value" "10k" (at 267.97 170.18 0)
      (effects (font (size 1.778 1.5113)) (justify right bottom))
    )
    (property "Footprint" "oresat-passives:0603-C-NOSILK" (at 269.24 170.18 0)
      (effects (font (size 1.27 1.27)) hide)
    )
    (property "Datasheet" "" (at 269.24 170.18 0)
      (effects (font (size 1.27 1.27)) hide)
    )
    (property "Value" "RC0603FR-0710KL" (at 269.24 170.18 0)
      (effects (font (size 1.778 1.5113)) (justify left bottom) hide)
    )
    (pin "1" (uuid baecefa6-fc3b-4552-ad2a-37ff533a09fe))
    (pin "2" (uuid f08cdb14-8d74-45a4-a7b6-076959dbe7c9))
    (instances
      (project "oresat-adcs-card"
        (path "/c58960d9-4cac-4036-ad2e-1aef26946dae/a4e22a47-8081-427b-a284-fdb057c6b905"
          (reference "R13") (unit 1)
        )
      )
    )
  )

  (symbol (lib_id "oresat-acs-card-eagle-import:GND") (at 138.43 200.66 0) (mirror y) (unit 1)
    (in_bom yes) (on_board yes) (dnp no)
    (uuid cd9195dd-a68c-478b-8741-ec54579fc077)
    (property "Reference" "#GND095" (at 138.43 200.66 0)
      (effects (font (size 1.27 1.27)) hide)
    )
    (property "Value" "GND" (at 140.97 203.2 0)
      (effects (font (size 1.778 1.5113)) (justify left bottom))
    )
    (property "Footprint" "" (at 138.43 200.66 0)
      (effects (font (size 1.27 1.27)) hide)
    )
    (property "Datasheet" "" (at 138.43 200.66 0)
      (effects (font (size 1.27 1.27)) hide)
    )
    (pin "1" (uuid 0fa8f216-7976-445e-819d-2f4ec93065a6))
    (instances
      (project "oresat-adcs-card"
        (path "/c58960d9-4cac-4036-ad2e-1aef26946dae/a4e22a47-8081-427b-a284-fdb057c6b905"
          (reference "#GND095") (unit 1)
        )
      )
    )
  )

  (symbol (lib_id "oresat-acs-card-eagle-import:GND") (at 217.17 204.47 0) (mirror y) (unit 1)
    (in_bom yes) (on_board yes) (dnp no)
    (uuid d73de7a3-114c-46b3-b1db-7b936e068b53)
    (property "Reference" "#GND090" (at 217.17 204.47 0)
      (effects (font (size 1.27 1.27)) hide)
    )
    (property "Value" "GND" (at 219.71 207.01 0)
      (effects (font (size 1.778 1.5113)) (justify left bottom))
    )
    (property "Footprint" "" (at 217.17 204.47 0)
      (effects (font (size 1.27 1.27)) hide)
    )
    (property "Datasheet" "" (at 217.17 204.47 0)
      (effects (font (size 1.27 1.27)) hide)
    )
    (pin "1" (uuid c6e2f247-9f07-4f80-92a6-e59059de4803))
    (instances
      (project "oresat-adcs-card"
        (path "/c58960d9-4cac-4036-ad2e-1aef26946dae/a4e22a47-8081-427b-a284-fdb057c6b905"
          (reference "#GND090") (unit 1)
        )
      )
    )
  )

  (symbol (lib_id "oresat-acs-card-eagle-import:LTC4300A-1") (at 236.22 185.42 0) (unit 1)
    (in_bom yes) (on_board yes) (dnp no)
    (uuid daaa47fe-ebee-44b4-a9fc-7610998e5ed1)
    (property "Reference" "U2" (at 224.79 170.18 0)
      (effects (font (size 2.0828 1.7703)) (justify left bottom))
    )
    (property "Value" "LTC4300A-1" (at 232.41 170.18 0)
      (effects (font (size 2.0828 1.7703)) (justify left bottom))
    )
    (property "Footprint" "oresat-acs-card:MS8" (at 236.22 185.42 0)
      (effects (font (size 1.27 1.27)) hide)
    )
    (property "Datasheet" "" (at 236.22 185.42 0)
      (effects (font (size 1.27 1.27)) hide)
    )
    (property "Value" "LTC4300A-1" (at 236.22 185.42 0)
      (effects (font (size 2.0828 1.7703)) (justify left bottom) hide)
    )
    (pin "1" (uuid a28c9eb8-76be-4700-bcb7-29643278b7a1))
    (pin "2" (uuid feb0ffd2-6264-4806-aa14-859f8c65084e))
    (pin "3" (uuid fefde1d4-475d-4630-a58f-b7150f3343f3))
    (pin "4" (uuid ebc3a006-d82b-402f-8fde-bd02566fd911))
    (pin "5" (uuid 2eb154ce-1ef4-4e6e-9434-d718ad3bad91))
    (pin "6" (uuid e2f7ba55-1651-4c65-bbe8-376975555f56))
    (pin "7" (uuid d369dffd-0f0a-40e5-9c4c-51fb4f817415))
    (pin "8" (uuid 76a90338-d62d-4a27-b5f1-ba5e871c49e5))
    (instances
      (project "oresat-adcs-card"
        (path "/c58960d9-4cac-4036-ad2e-1aef26946dae/a4e22a47-8081-427b-a284-fdb057c6b905"
          (reference "U2") (unit 1)
        )
      )
    )
  )

  (symbol (lib_id "oresat-acs-card-eagle-import:3.3V") (at 217.17 165.1 0) (mirror y) (unit 1)
    (in_bom yes) (on_board yes) (dnp no)
    (uuid df914a73-3e24-469e-9949-34d8f15b09ab)
    (property "Reference" "#SUPPLY011" (at 217.17 165.1 0)
      (effects (font (size 1.27 1.27)) hide)
    )
    (property "Value" "3.3V" (at 217.17 162.306 0)
      (effects (font (size 1.778 1.5113)) (justify bottom))
    )
    (property "Footprint" "" (at 217.17 165.1 0)
      (effects (font (size 1.27 1.27)) hide)
    )
    (property "Datasheet" "" (at 217.17 165.1 0)
      (effects (font (size 1.27 1.27)) hide)
    )
    (pin "1" (uuid 23d355f0-16c4-4ed1-b833-d169c1285d45))
    (instances
      (project "oresat-adcs-card"
        (path "/c58960d9-4cac-4036-ad2e-1aef26946dae/a4e22a47-8081-427b-a284-fdb057c6b905"
          (reference "#SUPPLY011") (unit 1)
        )
      )
    )
  )

  (symbol (lib_id "oresat-acs-card-eagle-import:R-US_0603-C-NOSILK") (at 276.86 170.18 90) (mirror x) (unit 1)
    (in_bom yes) (on_board yes) (dnp no)
    (uuid e4ce9709-08d0-4406-855b-45dbb5f1bec7)
    (property "Reference" "R6" (at 275.59 176.53 0)
      (effects (font (size 1.778 1.5113)) (justify right bottom))
    )
    (property "Value" "10k" (at 275.59 170.18 0)
      (effects (font (size 1.778 1.5113)) (justify right bottom))
    )
    (property "Footprint" "oresat-passives:0603-C-NOSILK" (at 276.86 170.18 0)
      (effects (font (size 1.27 1.27)) hide)
    )
    (property "Datasheet" "" (at 276.86 170.18 0)
      (effects (font (size 1.27 1.27)) hide)
    )
    (property "Value" "RC0603FR-0710KL" (at 276.86 170.18 0)
      (effects (font (size 1.778 1.5113)) (justify left bottom) hide)
    )
    (pin "1" (uuid 97d54307-1292-40cc-bd36-193e41046d77))
    (pin "2" (uuid b9bdf6b6-1bff-4968-8194-a06f3ab8bb26))
    (instances
      (project "oresat-adcs-card"
        (path "/c58960d9-4cac-4036-ad2e-1aef26946dae/a4e22a47-8081-427b-a284-fdb057c6b905"
          (reference "R6") (unit 1)
        )
      )
    )
  )

  (symbol (lib_id "oresat-acs-card-eagle-import:GND") (at 236.22 204.47 0) (mirror y) (unit 1)
    (in_bom yes) (on_board yes) (dnp no)
    (uuid e56fb342-8e86-43b1-a6c4-bec8e7244baa)
    (property "Reference" "#GND092" (at 236.22 204.47 0)
      (effects (font (size 1.27 1.27)) hide)
    )
    (property "Value" "GND" (at 238.76 207.01 0)
      (effects (font (size 1.778 1.5113)) (justify left bottom))
    )
    (property "Footprint" "" (at 236.22 204.47 0)
      (effects (font (size 1.27 1.27)) hide)
    )
    (property "Datasheet" "" (at 236.22 204.47 0)
      (effects (font (size 1.27 1.27)) hide)
    )
    (pin "1" (uuid b524fcce-6249-4832-8c9c-5204020031c6))
    (instances
      (project "oresat-adcs-card"
        (path "/c58960d9-4cac-4036-ad2e-1aef26946dae/a4e22a47-8081-427b-a284-fdb057c6b905"
          (reference "#GND092") (unit 1)
        )
      )
    )
  )

  (symbol (lib_id "oresat-acs-card-eagle-import:TEST-POINT-LARGE-SQUARE") (at 138.43 167.64 0) (unit 1)
    (in_bom yes) (on_board yes) (dnp no)
    (uuid e84ed250-26ef-4d02-a697-f71b3157e93f)
    (property "Reference" "TP7" (at 140.97 166.37 0)
      (effects (font (size 1.27 1.0795)) (justify left bottom))
    )
    (property "Value" "TEST-POINT-LARGE-SQUARE" (at 138.43 167.64 0)
      (effects (font (size 1.27 1.27)) hide)
    )
    (property "Footprint" "oresat-acs-card:1X01" (at 138.43 167.64 0)
      (effects (font (size 1.27 1.27)) hide)
    )
    (property "Datasheet" "" (at 138.43 167.64 0)
      (effects (font (size 1.27 1.27)) hide)
    )
    (pin "1" (uuid ad9d2930-d7ea-4f11-b9de-84de76b2910e))
    (instances
      (project "oresat-adcs-card"
        (path "/c58960d9-4cac-4036-ad2e-1aef26946dae/a4e22a47-8081-427b-a284-fdb057c6b905"
          (reference "TP7") (unit 1)
        )
      )
    )
  )

  (symbol (lib_id "oresat-acs-card-eagle-import:TEST-POINT-LARGE-SQUARE") (at 215.9 83.82 0) (unit 1)
    (in_bom yes) (on_board yes) (dnp no)
    (uuid eb49e25a-ad89-4fad-a278-f8b913b5c291)
    (property "Reference" "TP8" (at 213.36 81.28 0)
      (effects (font (size 1.27 1.0795)) (justify left bottom))
    )
    (property "Value" "TEST-POINT-LARGE-SQUARE" (at 215.9 83.82 0)
      (effects (font (size 1.27 1.27)) hide)
    )
    (property "Footprint" "oresat-acs-card:1X01" (at 215.9 83.82 0)
      (effects (font (size 1.27 1.27)) hide)
    )
    (property "Datasheet" "" (at 215.9 83.82 0)
      (effects (font (size 1.27 1.27)) hide)
    )
    (pin "1" (uuid a27719df-2e3e-4aed-9fbb-da47c5d15aa1))
    (instances
      (project "oresat-adcs-card"
        (path "/c58960d9-4cac-4036-ad2e-1aef26946dae/a4e22a47-8081-427b-a284-fdb057c6b905"
          (reference "TP8") (unit 1)
        )
      )
    )
  )

  (symbol (lib_id "oresat-acs-card-eagle-import:3.3V") (at 83.82 152.4 0) (mirror y) (unit 1)
    (in_bom yes) (on_board yes) (dnp no)
    (uuid ec58a2eb-5bcb-40ee-8026-13e63dee9bb3)
    (property "Reference" "#SUPPLY010" (at 83.82 152.4 0)
      (effects (font (size 1.27 1.27)) hide)
    )
    (property "Value" "3.3V" (at 83.82 149.606 0)
      (effects (font (size 1.778 1.5113)) (justify bottom))
    )
    (property "Footprint" "" (at 83.82 152.4 0)
      (effects (font (size 1.27 1.27)) hide)
    )
    (property "Datasheet" "" (at 83.82 152.4 0)
      (effects (font (size 1.27 1.27)) hide)
    )
    (pin "1" (uuid 596a0134-78fe-4dbe-b5ad-ac5040289e55))
    (instances
      (project "oresat-adcs-card"
        (path "/c58960d9-4cac-4036-ad2e-1aef26946dae/a4e22a47-8081-427b-a284-fdb057c6b905"
          (reference "#SUPPLY010") (unit 1)
        )
      )
    )
  )

  (symbol (lib_id "oresat-acs-card-eagle-import:C-EU0603-C-NOSILK") (at 267.97 72.39 0) (unit 1)
    (in_bom yes) (on_board yes) (dnp no)
    (uuid ee911275-1ffb-4ba0-9308-8813a0ac077b)
    (property "Reference" "C4" (at 269.494 72.009 0)
      (effects (font (size 1.778 1.5113)) (justify left bottom))
    )
    (property "Value" "1u" (at 269.494 77.089 0)
      (effects (font (size 1.778 1.5113)) (justify left bottom))
    )
    (property "Footprint" "oresat-passives:0603-C-NOSILK" (at 267.97 72.39 0)
      (effects (font (size 1.27 1.27)) hide)
    )
    (property "Datasheet" "" (at 267.97 72.39 0)
      (effects (font (size 1.27 1.27)) hide)
    )
    (property "Value" "CC0603KRX7R7BB105" (at 267.97 72.39 0)
      (effects (font (size 1.778 1.5113)) (justify left bottom) hide)
    )
    (pin "1" (uuid 750a7e27-998e-47c3-8cb4-5a140d2d8a89))
    (pin "2" (uuid 9c425f96-c2ac-4da2-ad66-d65c0751c5c0))
    (instances
      (project "oresat-adcs-card"
        (path "/c58960d9-4cac-4036-ad2e-1aef26946dae/a4e22a47-8081-427b-a284-fdb057c6b905"
          (reference "C4") (unit 1)
        )
      )
    )
  )

  (symbol (lib_id "oresat-acs-card-eagle-import:TEST-POINT-LARGE-SQUARE") (at 276.86 187.96 0) (mirror y) (unit 1)
    (in_bom yes) (on_board yes) (dnp no)
    (uuid f2ef9832-cd91-4ae7-b753-a4bc69dff2eb)
    (property "Reference" "TP3" (at 278.13 191.77 0)
      (effects (font (size 1.27 1.0795)) (justify left bottom))
    )
    (property "Value" "TEST-POINT-LARGE-SQUARE" (at 276.86 187.96 0)
      (effects (font (size 1.27 1.27)) hide)
    )
    (property "Footprint" "oresat-acs-card:1X01" (at 276.86 187.96 0)
      (effects (font (size 1.27 1.27)) hide)
    )
    (property "Datasheet" "" (at 276.86 187.96 0)
      (effects (font (size 1.27 1.27)) hide)
    )
    (pin "1" (uuid 5340e359-ca14-4094-bc40-88d39e61d26f))
    (instances
      (project "oresat-adcs-card"
        (path "/c58960d9-4cac-4036-ad2e-1aef26946dae/a4e22a47-8081-427b-a284-fdb057c6b905"
          (reference "TP3") (unit 1)
        )
      )
    )
  )

  (symbol (lib_id "oresat-acs-card-eagle-import:R-US_0603-C-NOSILK") (at 91.44 160.02 90) (unit 1)
    (in_bom yes) (on_board yes) (dnp no)
    (uuid fa736c34-0fe1-40af-83b0-0803aa452a2b)
    (property "Reference" "R1" (at 89.9414 163.83 0)
      (effects (font (size 1.778 1.5113)) (justify left bottom))
    )
    (property "Value" "10k" (at 89.662 158.75 0)
      (effects (font (size 1.778 1.5113)) (justify left bottom))
    )
    (property "Footprint" "oresat-passives:0603-C-NOSILK" (at 91.44 160.02 0)
      (effects (font (size 1.27 1.27)) hide)
    )
    (property "Datasheet" "" (at 91.44 160.02 0)
      (effects (font (size 1.27 1.27)) hide)
    )
    (property "Value" "RC0603FR-0710KL" (at 91.44 160.02 0)
      (effects (font (size 1.778 1.5113)) (justify left bottom) hide)
    )
    (pin "1" (uuid 8c8730ef-8afc-440c-bb89-45bbd19f3ef4))
    (pin "2" (uuid b14339d2-ff3f-4bd1-b0ce-2a24ed551060))
    (instances
      (project "oresat-adcs-card"
        (path "/c58960d9-4cac-4036-ad2e-1aef26946dae/a4e22a47-8081-427b-a284-fdb057c6b905"
          (reference "R1") (unit 1)
        )
      )
    )
  )
)
