(kicad_sch (version 20230121) (generator eeschema)

  (uuid 05d9289c-afa8-4322-9ee2-7a0ecabed3b6)

  (paper "A4" portrait)

  (title_block
    (title "RasPi Zero NAV Hat")
    (date "2023-05-12")
    (rev "0.1")
    (company "chipiki.ru")
    (comment 1 "RasPi Zero NAV Hat")
    (comment 2 "Denis Tsekh")
  )

  (lib_symbols
    (symbol "BQ24315DSGR:BQ24315DSGR" (pin_names (offset 0.762)) (in_bom yes) (on_board yes)
      (property "Reference" "IC" (at 26.67 7.62 0)
        (effects (font (size 1.27 1.27)) (justify left))
      )
      (property "Value" "BQ24315DSGR" (at 26.67 5.08 0)
        (effects (font (size 1.27 1.27)) (justify left))
      )
      (property "Footprint" "SON50P200X200X80-9N" (at 26.67 2.54 0)
        (effects (font (size 1.27 1.27)) (justify left) hide)
      )
      (property "Datasheet" "http://www.ti.com/lit/ds/symlink/bq24315.pdf?HQS=TI-null-null-digikeymode-df-pf-null-wwe&ts=1590126014085" (at 26.67 0 0)
        (effects (font (size 1.27 1.27)) (justify left) hide)
      )
      (property "Description" "OVERVOLTAGE AND OVERCURRENT PROTECTION IC AND%D Li+ CHARGER FRONT-END PROTECTION IC" (at 26.67 -2.54 0)
        (effects (font (size 1.27 1.27)) (justify left) hide)
      )
      (property "Height" "0.8" (at 26.67 -5.08 0)
        (effects (font (size 1.27 1.27)) (justify left) hide)
      )
      (property "Manufacturer_Name" "Texas Instruments" (at 26.67 -7.62 0)
        (effects (font (size 1.27 1.27)) (justify left) hide)
      )
      (property "Manufacturer_Part_Number" "BQ24315DSGR" (at 26.67 -10.16 0)
        (effects (font (size 1.27 1.27)) (justify left) hide)
      )
      (property "Arrow Part Number" "BQ24315DSGR" (at 26.67 -12.7 0)
        (effects (font (size 1.27 1.27)) (justify left) hide)
      )
      (property "Arrow Price/Stock" "https://www.arrow.com/en/products/bq24315dsgr/texas-instruments" (at 26.67 -15.24 0)
        (effects (font (size 1.27 1.27)) (justify left) hide)
      )
      (property "Mouser Part Number" "595-BQ24315DSGR" (at 26.67 -17.78 0)
        (effects (font (size 1.27 1.27)) (justify left) hide)
      )
      (property "Mouser Price/Stock" "https://www.mouser.co.uk/ProductDetail/Texas-Instruments/BQ24315DSGR?qs=ZaMXuU%252B6JZZfiNL%2FrG%252BGIQ%3D%3D" (at 26.67 -20.32 0)
        (effects (font (size 1.27 1.27)) (justify left) hide)
      )
      (property "ki_description" "OVERVOLTAGE AND OVERCURRENT PROTECTION IC AND%D Li+ CHARGER FRONT-END PROTECTION IC" (at 0 0 0)
        (effects (font (size 1.27 1.27)) hide)
      )
      (symbol "BQ24315DSGR_0_0"
        (pin passive line (at 0 0 0) (length 5.08)
          (name "IN" (effects (font (size 1.27 1.27))))
          (number "1" (effects (font (size 1.27 1.27))))
        )
        (pin passive line (at 0 -2.54 0) (length 5.08)
          (name "VSS" (effects (font (size 1.27 1.27))))
          (number "2" (effects (font (size 1.27 1.27))))
        )
        (pin no_connect line (at 0 -5.08 0) (length 5.08)
          (name "NC" (effects (font (size 1.27 1.27))))
          (number "3" (effects (font (size 1.27 1.27))))
        )
        (pin passive line (at 0 -7.62 0) (length 5.08)
          (name "~{FAULT}" (effects (font (size 1.27 1.27))))
          (number "4" (effects (font (size 1.27 1.27))))
        )
        (pin passive line (at 30.48 -7.62 180) (length 5.08)
          (name "~{CE}" (effects (font (size 1.27 1.27))))
          (number "5" (effects (font (size 1.27 1.27))))
        )
        (pin passive line (at 30.48 -5.08 180) (length 5.08)
          (name "VBAT" (effects (font (size 1.27 1.27))))
          (number "6" (effects (font (size 1.27 1.27))))
        )
        (pin passive line (at 30.48 -2.54 180) (length 5.08)
          (name "ILIM" (effects (font (size 1.27 1.27))))
          (number "7" (effects (font (size 1.27 1.27))))
        )
        (pin passive line (at 30.48 0 180) (length 5.08)
          (name "OUT" (effects (font (size 1.27 1.27))))
          (number "8" (effects (font (size 1.27 1.27))))
        )
        (pin passive line (at 15.24 -20.32 90) (length 5.08)
          (name "EP" (effects (font (size 1.27 1.27))))
          (number "9" (effects (font (size 1.27 1.27))))
        )
      )
      (symbol "BQ24315DSGR_0_1"
        (polyline
          (pts
            (xy 5.08 2.54)
            (xy 25.4 2.54)
            (xy 25.4 -15.24)
            (xy 5.08 -15.24)
            (xy 5.08 2.54)
          )
          (stroke (width 0.1524) (type default))
          (fill (type none))
        )
      )
    )
    (symbol "Device:R" (pin_numbers hide) (pin_names (offset 0)) (in_bom yes) (on_board yes)
      (property "Reference" "R" (at 2.032 0 90)
        (effects (font (size 1.27 1.27)))
      )
      (property "Value" "R" (at 0 0 90)
        (effects (font (size 1.27 1.27)))
      )
      (property "Footprint" "" (at -1.778 0 90)
        (effects (font (size 1.27 1.27)) hide)
      )
      (property "Datasheet" "~" (at 0 0 0)
        (effects (font (size 1.27 1.27)) hide)
      )
      (property "ki_keywords" "R res resistor" (at 0 0 0)
        (effects (font (size 1.27 1.27)) hide)
      )
      (property "ki_description" "Resistor" (at 0 0 0)
        (effects (font (size 1.27 1.27)) hide)
      )
      (property "ki_fp_filters" "R_*" (at 0 0 0)
        (effects (font (size 1.27 1.27)) hide)
      )
      (symbol "R_0_1"
        (rectangle (start -1.016 -2.54) (end 1.016 2.54)
          (stroke (width 0.254) (type default))
          (fill (type none))
        )
      )
      (symbol "R_1_1"
        (pin passive line (at 0 3.81 270) (length 1.27)
          (name "~" (effects (font (size 1.27 1.27))))
          (number "1" (effects (font (size 1.27 1.27))))
        )
        (pin passive line (at 0 -3.81 90) (length 1.27)
          (name "~" (effects (font (size 1.27 1.27))))
          (number "2" (effects (font (size 1.27 1.27))))
        )
      )
    )
    (symbol "power:GNDD" (power) (pin_names (offset 0)) (in_bom yes) (on_board yes)
      (property "Reference" "#PWR" (at 0 -6.35 0)
        (effects (font (size 1.27 1.27)) hide)
      )
      (property "Value" "GNDD" (at 0 -3.175 0)
        (effects (font (size 1.27 1.27)))
      )
      (property "Footprint" "" (at 0 0 0)
        (effects (font (size 1.27 1.27)) hide)
      )
      (property "Datasheet" "" (at 0 0 0)
        (effects (font (size 1.27 1.27)) hide)
      )
      (property "ki_keywords" "power-flag" (at 0 0 0)
        (effects (font (size 1.27 1.27)) hide)
      )
      (property "ki_description" "Power symbol creates a global label with name \"GNDD\" , digital ground" (at 0 0 0)
        (effects (font (size 1.27 1.27)) hide)
      )
      (symbol "GNDD_0_1"
        (rectangle (start -1.27 -1.524) (end 1.27 -2.032)
          (stroke (width 0.254) (type default))
          (fill (type outline))
        )
        (polyline
          (pts
            (xy 0 0)
            (xy 0 -1.524)
          )
          (stroke (width 0) (type default))
          (fill (type none))
        )
      )
      (symbol "GNDD_1_1"
        (pin power_in line (at 0 0 270) (length 0) hide
          (name "GNDD" (effects (font (size 1.27 1.27))))
          (number "1" (effects (font (size 1.27 1.27))))
        )
      )
    )
  )

  (junction (at 96.52 140.97) (diameter 0) (color 0 0 0 0)
    (uuid 4429778f-8685-46f6-b49c-31558b337535)
  )
  (junction (at 114.3 161.29) (diameter 0) (color 0 0 0 0)
    (uuid f881d5f3-f352-4192-b107-2188ec7a7b68)
  )
  (junction (at 130.81 146.05) (diameter 0) (color 0 0 0 0)
    (uuid fd248764-541d-437e-8054-fb44f80d1743)
  )

  (wire (pts (xy 96.52 140.97) (xy 91.44 140.97))
    (stroke (width 0) (type default))
    (uuid 28463cb8-cd86-43f2-aee8-070d8099faf3)
  )
  (wire (pts (xy 144.78 140.97) (xy 144.78 149.86))
    (stroke (width 0) (type default))
    (uuid 39e8dbcf-b8fe-4320-a515-e466468e7949)
  )
  (wire (pts (xy 129.54 146.05) (xy 130.81 146.05))
    (stroke (width 0) (type default))
    (uuid 3b8e9b14-30b8-4e45-998d-79d71bda485b)
  )
  (wire (pts (xy 114.3 161.29) (xy 114.3 163.83))
    (stroke (width 0) (type default))
    (uuid 410da9eb-cce0-4230-be93-af1035f73971)
  )
  (wire (pts (xy 99.06 140.97) (xy 96.52 140.97))
    (stroke (width 0) (type default))
    (uuid 504d518e-37a1-4328-9a3c-b12870221a33)
  )
  (wire (pts (xy 130.81 146.05) (xy 149.86 146.05))
    (stroke (width 0) (type default))
    (uuid 5ac0c9e3-20ba-494d-bed4-4e616d19fcef)
  )
  (wire (pts (xy 99.06 146.05) (xy 91.44 146.05))
    (stroke (width 0) (type default))
    (uuid 69bb6a27-7242-4983-a872-49469e34e02a)
  )
  (wire (pts (xy 99.06 138.43) (xy 91.44 138.43))
    (stroke (width 0) (type default))
    (uuid 6e882d7f-a494-4a9e-9203-286b12000614)
  )
  (wire (pts (xy 96.52 140.97) (xy 96.52 161.29))
    (stroke (width 0) (type default))
    (uuid 6fc81d41-4727-4f94-a959-853b8619f2d3)
  )
  (wire (pts (xy 130.81 157.48) (xy 130.81 161.29))
    (stroke (width 0) (type default))
    (uuid a1a5dcd0-b625-41e5-9341-6fef336f8d1d)
  )
  (wire (pts (xy 129.54 138.43) (xy 149.86 138.43))
    (stroke (width 0) (type default))
    (uuid abbe30e5-0ef0-4fa2-b780-65238cf7836b)
  )
  (wire (pts (xy 96.52 161.29) (xy 114.3 161.29))
    (stroke (width 0) (type default))
    (uuid b318ce9c-5929-4a38-994e-792d97e6e385)
  )
  (wire (pts (xy 129.54 140.97) (xy 144.78 140.97))
    (stroke (width 0) (type default))
    (uuid b4918ee1-70fb-4fea-8807-f3cc9dcdb4a7)
  )
  (wire (pts (xy 114.3 158.75) (xy 114.3 161.29))
    (stroke (width 0) (type default))
    (uuid b88798cf-7d46-46e4-bd1f-239d5509075e)
  )
  (wire (pts (xy 130.81 146.05) (xy 130.81 149.86))
    (stroke (width 0) (type default))
    (uuid c30d3dad-3df8-41cb-a449-bab82d1605af)
  )
  (wire (pts (xy 129.54 143.51) (xy 138.43 143.51))
    (stroke (width 0) (type default))
    (uuid dde80ec3-5abb-47eb-9c5e-780558a75707)
  )
  (wire (pts (xy 144.78 157.48) (xy 144.78 161.29))
    (stroke (width 0) (type default))
    (uuid e395a4fa-427f-4d23-8c6e-0c840ef0fa5a)
  )
  (wire (pts (xy 138.43 143.51) (xy 138.43 161.29))
    (stroke (width 0) (type default))
    (uuid fdf6da61-07ab-4b8c-8df6-a9637e802289)
  )

  (hierarchical_label "BQ_nCE" (shape output) (at 149.86 146.05 0) (fields_autoplaced)
    (effects (font (size 1.27 1.27)) (justify left))
    (uuid 30da4f77-98f2-4a6c-8f88-7fe5347a3279)
  )
  (hierarchical_label "BQ_OUT" (shape output) (at 149.86 138.43 0) (fields_autoplaced)
    (effects (font (size 1.27 1.27)) (justify left))
    (uuid 8a6cd7e2-650d-4bdb-9b85-ebc04cd8d3ac)
  )
  (hierarchical_label "BQ_IN" (shape input) (at 91.44 138.43 180) (fields_autoplaced)
    (effects (font (size 1.27 1.27)) (justify right))
    (uuid e29c71bc-1acf-4be9-a36c-7cb7720fc85b)
  )
  (hierarchical_label "BQ_nFAULT" (shape output) (at 91.44 146.05 180) (fields_autoplaced)
    (effects (font (size 1.27 1.27)) (justify right))
    (uuid f26c0ba1-ad53-4905-8f4b-206726d6e503)
  )
  (hierarchical_label "BQ_VSS" (shape input) (at 91.44 140.97 180) (fields_autoplaced)
    (effects (font (size 1.27 1.27)) (justify right))
    (uuid fb2aa88c-d8d9-42ab-89e5-a813c861384d)
  )

  (symbol (lib_id "BQ24315DSGR:BQ24315DSGR") (at 99.06 138.43 0) (unit 1)
    (in_bom yes) (on_board yes) (dnp no)
    (uuid 00000000-0000-0000-0000-00005eddfb2b)
    (property "Reference" "IC1" (at 114.3 131.699 0)
      (effects (font (size 1.27 1.27)))
    )
    (property "Value" "BQ24315DSGR" (at 114.3 134.0104 0)
      (effects (font (size 1.27 1.27)))
    )
    (property "Footprint" "SON50P200X200X80-9N" (at 125.73 135.89 0)
      (effects (font (size 1.27 1.27)) (justify left) hide)
    )
    (property "Datasheet" "http://www.ti.com/lit/ds/symlink/bq24315.pdf?HQS=TI-null-null-digikeymode-df-pf-null-wwe&ts=1590126014085" (at 125.73 138.43 0)
      (effects (font (size 1.27 1.27)) (justify left) hide)
    )
    (property "Description" "OVERVOLTAGE AND OVERCURRENT PROTECTION IC AND%D Li+ CHARGER FRONT-END PROTECTION IC" (at 125.73 140.97 0)
      (effects (font (size 1.27 1.27)) (justify left) hide)
    )
    (property "Height" "0.8" (at 125.73 143.51 0)
      (effects (font (size 1.27 1.27)) (justify left) hide)
    )
    (property "Manufacturer_Name" "Texas Instruments" (at 125.73 146.05 0)
      (effects (font (size 1.27 1.27)) (justify left) hide)
    )
    (property "Manufacturer_Part_Number" "BQ24315DSGR" (at 125.73 148.59 0)
      (effects (font (size 1.27 1.27)) (justify left) hide)
    )
    (property "Arrow Part Number" "BQ24315DSGR" (at 125.73 151.13 0)
      (effects (font (size 1.27 1.27)) (justify left) hide)
    )
    (property "Arrow Price/Stock" "https://www.arrow.com/en/products/bq24315dsgr/texas-instruments" (at 125.73 153.67 0)
      (effects (font (size 1.27 1.27)) (justify left) hide)
    )
    (property "Mouser Part Number" "595-BQ24315DSGR" (at 125.73 156.21 0)
      (effects (font (size 1.27 1.27)) (justify left) hide)
    )
    (property "Mouser Price/Stock" "https://www.mouser.co.uk/ProductDetail/Texas-Instruments/BQ24315DSGR?qs=ZaMXuU%252B6JZZfiNL%2FrG%252BGIQ%3D%3D" (at 125.73 158.75 0)
      (effects (font (size 1.27 1.27)) (justify left) hide)
    )
    (pin "1" (uuid 9a0fd3e3-2987-4df4-b0b3-a9f764a12efa))
    (pin "2" (uuid fc2e290b-b2bc-42d2-a661-2b476fa7c390))
    (pin "3" (uuid 3b00835b-8948-489d-87e0-a03d79117de0))
    (pin "4" (uuid 553a549d-377e-4156-9d06-b0f4a8cb736e))
    (pin "5" (uuid b46aeaca-224c-4f5e-b480-bd4c0f8dd18c))
    (pin "6" (uuid aaa3049a-b2cc-4c59-97d8-e21f77852099))
    (pin "7" (uuid b02bdd5a-1b0f-4991-a505-150e7fad5978))
    (pin "8" (uuid 671ca2e6-2614-4cff-a8b8-c6f25435b008))
    (pin "9" (uuid 474b608f-14dc-4c33-9b32-9f443fbff3f7))
    (instances
      (project "rbpi-z-hat"
        (path "/d99b0340-d795-4b40-9cde-9851c6cee99d/00000000-0000-0000-0000-00005eddea36"
          (reference "IC1") (unit 1)
        )
      )
    )
  )

  (symbol (lib_id "power:GNDD") (at 114.3 163.83 0) (unit 1)
    (in_bom yes) (on_board yes) (dnp no)
    (uuid 00000000-0000-0000-0000-00005ede0c1d)
    (property "Reference" "#PWR0148" (at 114.3 170.18 0)
      (effects (font (size 1.27 1.27)) hide)
    )
    (property "Value" "GNDD" (at 114.4016 167.767 0)
      (effects (font (size 1.27 1.27)))
    )
    (property "Footprint" "" (at 114.3 163.83 0)
      (effects (font (size 1.27 1.27)) hide)
    )
    (property "Datasheet" "" (at 114.3 163.83 0)
      (effects (font (size 1.27 1.27)) hide)
    )
    (pin "1" (uuid ccce6bd8-6ec6-4faa-8ab4-4311b7c018b8))
    (instances
      (project "rbpi-z-hat"
        (path "/d99b0340-d795-4b40-9cde-9851c6cee99d/00000000-0000-0000-0000-00005eddea36"
          (reference "#PWR0148") (unit 1)
        )
      )
    )
  )

  (symbol (lib_id "power:GNDD") (at 138.43 161.29 0) (unit 1)
    (in_bom yes) (on_board yes) (dnp no)
    (uuid 00000000-0000-0000-0000-00005ede184c)
    (property "Reference" "#PWR0149" (at 138.43 167.64 0)
      (effects (font (size 1.27 1.27)) hide)
    )
    (property "Value" "GNDD" (at 138.43 165.1 0)
      (effects (font (size 1.27 1.27)))
    )
    (property "Footprint" "" (at 138.43 161.29 0)
      (effects (font (size 1.27 1.27)) hide)
    )
    (property "Datasheet" "" (at 138.43 161.29 0)
      (effects (font (size 1.27 1.27)) hide)
    )
    (pin "1" (uuid 7ae79512-428b-47e8-8e4f-b4cfe1e8bc30))
    (instances
      (project "rbpi-z-hat"
        (path "/d99b0340-d795-4b40-9cde-9851c6cee99d/00000000-0000-0000-0000-00005eddea36"
          (reference "#PWR0149") (unit 1)
        )
      )
    )
  )

  (symbol (lib_id "Device:R") (at 144.78 153.67 0) (unit 1)
    (in_bom yes) (on_board yes) (dnp no)
    (uuid 00000000-0000-0000-0000-00005ede259e)
    (property "Reference" "R10" (at 146.558 152.5016 0)
      (effects (font (size 1.27 1.27)) (justify left))
    )
    (property "Value" "25K" (at 146.558 154.813 0)
      (effects (font (size 1.27 1.27)) (justify left))
    )
    (property "Footprint" "Resistor_SMD:R_0603_1608Metric" (at 143.002 153.67 90)
      (effects (font (size 1.27 1.27)) hide)
    )
    (property "Datasheet" "~" (at 144.78 153.67 0)
      (effects (font (size 1.27 1.27)) hide)
    )
    (pin "1" (uuid 267f87c2-3786-486b-94ce-0b8fa03cfd8d))
    (pin "2" (uuid 7c464563-78ee-461e-ba03-5dd06a187769))
    (instances
      (project "rbpi-z-hat"
        (path "/d99b0340-d795-4b40-9cde-9851c6cee99d/00000000-0000-0000-0000-00005eddea36"
          (reference "R10") (unit 1)
        )
      )
    )
  )

  (symbol (lib_id "power:GNDD") (at 144.78 161.29 0) (unit 1)
    (in_bom yes) (on_board yes) (dnp no)
    (uuid 00000000-0000-0000-0000-00005ede3539)
    (property "Reference" "#PWR0150" (at 144.78 167.64 0)
      (effects (font (size 1.27 1.27)) hide)
    )
    (property "Value" "GNDD" (at 146.05 165.1 0)
      (effects (font (size 1.27 1.27)))
    )
    (property "Footprint" "" (at 144.78 161.29 0)
      (effects (font (size 1.27 1.27)) hide)
    )
    (property "Datasheet" "" (at 144.78 161.29 0)
      (effects (font (size 1.27 1.27)) hide)
    )
    (pin "1" (uuid d090d1ab-de9d-4eab-9f0d-9d3e2a0dfc2d))
    (instances
      (project "rbpi-z-hat"
        (path "/d99b0340-d795-4b40-9cde-9851c6cee99d/00000000-0000-0000-0000-00005eddea36"
          (reference "#PWR0150") (unit 1)
        )
      )
    )
  )

  (symbol (lib_id "Device:R") (at 130.81 153.67 0) (unit 1)
    (in_bom yes) (on_board yes) (dnp no)
    (uuid 00000000-0000-0000-0000-00005ede6b0a)
    (property "Reference" "R9" (at 132.588 152.5016 0)
      (effects (font (size 1.27 1.27)) (justify left))
    )
    (property "Value" "10K" (at 132.588 154.813 0)
      (effects (font (size 1.27 1.27)) (justify left))
    )
    (property "Footprint" "Resistor_SMD:R_0603_1608Metric" (at 129.032 153.67 90)
      (effects (font (size 1.27 1.27)) hide)
    )
    (property "Datasheet" "~" (at 130.81 153.67 0)
      (effects (font (size 1.27 1.27)) hide)
    )
    (pin "1" (uuid 03f1abaf-d25f-479b-8cde-47155bc9e646))
    (pin "2" (uuid 5b169415-17d3-47ff-a8a6-320d29d5959f))
    (instances
      (project "rbpi-z-hat"
        (path "/d99b0340-d795-4b40-9cde-9851c6cee99d/00000000-0000-0000-0000-00005eddea36"
          (reference "R9") (unit 1)
        )
      )
    )
  )

  (symbol (lib_id "power:GNDD") (at 130.81 161.29 0) (unit 1)
    (in_bom yes) (on_board yes) (dnp no)
    (uuid 00000000-0000-0000-0000-00005ede6b11)
    (property "Reference" "#PWR0151" (at 130.81 167.64 0)
      (effects (font (size 1.27 1.27)) hide)
    )
    (property "Value" "GNDD" (at 130.81 165.1 0)
      (effects (font (size 1.27 1.27)))
    )
    (property "Footprint" "" (at 130.81 161.29 0)
      (effects (font (size 1.27 1.27)) hide)
    )
    (property "Datasheet" "" (at 130.81 161.29 0)
      (effects (font (size 1.27 1.27)) hide)
    )
    (pin "1" (uuid 7dbecfb6-f12f-495e-9ca9-ccc366d7649d))
    (instances
      (project "rbpi-z-hat"
        (path "/d99b0340-d795-4b40-9cde-9851c6cee99d/00000000-0000-0000-0000-00005eddea36"
          (reference "#PWR0151") (unit 1)
        )
      )
    )
  )
)
