(kicad_sch (version 20230121) (generator eeschema)

  (uuid e2bcf51c-ba75-428e-9da0-7a8f0b060d48)

  (paper "A4" portrait)

  (title_block
    (title "RasPi Zero NAV Hat")
    (date "2023-05-12")
    (rev "0.1")
    (company "chipiki.ru")
    (comment 1 "RasPi Zero NAV Hat")
    (comment 2 "Denis Tsekh")
  )

  (lib_symbols
    (symbol "Device:FerriteBead" (pin_numbers hide) (pin_names (offset 0)) (in_bom yes) (on_board yes)
      (property "Reference" "FB" (at -3.81 0.635 90)
        (effects (font (size 1.27 1.27)))
      )
      (property "Value" "FerriteBead" (at 3.81 0 90)
        (effects (font (size 1.27 1.27)))
      )
      (property "Footprint" "" (at -1.778 0 90)
        (effects (font (size 1.27 1.27)) hide)
      )
      (property "Datasheet" "~" (at 0 0 0)
        (effects (font (size 1.27 1.27)) hide)
      )
      (property "ki_keywords" "L ferrite bead inductor filter" (at 0 0 0)
        (effects (font (size 1.27 1.27)) hide)
      )
      (property "ki_description" "Ferrite bead" (at 0 0 0)
        (effects (font (size 1.27 1.27)) hide)
      )
      (property "ki_fp_filters" "Inductor_* L_* *Ferrite*" (at 0 0 0)
        (effects (font (size 1.27 1.27)) hide)
      )
      (symbol "FerriteBead_0_1"
        (polyline
          (pts
            (xy 0 -1.27)
            (xy 0 -1.2192)
          )
          (stroke (width 0) (type default))
          (fill (type none))
        )
        (polyline
          (pts
            (xy 0 1.27)
            (xy 0 1.2954)
          )
          (stroke (width 0) (type default))
          (fill (type none))
        )
        (polyline
          (pts
            (xy -2.7686 0.4064)
            (xy -1.7018 2.2606)
            (xy 2.7686 -0.3048)
            (xy 1.6764 -2.159)
            (xy -2.7686 0.4064)
          )
          (stroke (width 0) (type default))
          (fill (type none))
        )
      )
      (symbol "FerriteBead_1_1"
        (pin passive line (at 0 3.81 270) (length 2.54)
          (name "~" (effects (font (size 1.27 1.27))))
          (number "1" (effects (font (size 1.27 1.27))))
        )
        (pin passive line (at 0 -3.81 90) (length 2.54)
          (name "~" (effects (font (size 1.27 1.27))))
          (number "2" (effects (font (size 1.27 1.27))))
        )
      )
    )
    (symbol "Device:Ferrite_Bead" (pin_numbers hide) (pin_names (offset 0)) (in_bom yes) (on_board yes)
      (property "Reference" "FB" (at -3.81 0.635 90)
        (effects (font (size 1.27 1.27)))
      )
      (property "Value" "Device_Ferrite_Bead" (at 3.81 0 90)
        (effects (font (size 1.27 1.27)))
      )
      (property "Footprint" "" (at -1.778 0 90)
        (effects (font (size 1.27 1.27)) hide)
      )
      (property "Datasheet" "" (at 0 0 0)
        (effects (font (size 1.27 1.27)) hide)
      )
      (property "ki_fp_filters" "Inductor_* L_* *Ferrite*" (at 0 0 0)
        (effects (font (size 1.27 1.27)) hide)
      )
      (symbol "Ferrite_Bead_0_1"
        (polyline
          (pts
            (xy 0 -1.27)
            (xy 0 -1.2192)
          )
          (stroke (width 0) (type default))
          (fill (type none))
        )
        (polyline
          (pts
            (xy 0 1.27)
            (xy 0 1.2954)
          )
          (stroke (width 0) (type default))
          (fill (type none))
        )
        (polyline
          (pts
            (xy -2.7686 0.4064)
            (xy -1.7018 2.2606)
            (xy 2.7686 -0.3048)
            (xy 1.6764 -2.159)
            (xy -2.7686 0.4064)
          )
          (stroke (width 0) (type default))
          (fill (type none))
        )
      )
      (symbol "Ferrite_Bead_1_1"
        (pin passive line (at 0 3.81 270) (length 2.54)
          (name "~" (effects (font (size 1.27 1.27))))
          (number "1" (effects (font (size 1.27 1.27))))
        )
        (pin passive line (at 0 -3.81 90) (length 2.54)
          (name "~" (effects (font (size 1.27 1.27))))
          (number "2" (effects (font (size 1.27 1.27))))
        )
      )
    )
  )


  (wire (pts (xy 104.14 146.05) (xy 100.33 146.05))
    (stroke (width 0) (type default))
    (uuid 4cc25ae6-745f-4847-ae1c-fe1ce5cf9e42)
  )
  (wire (pts (xy 115.57 153.67) (xy 111.76 153.67))
    (stroke (width 0) (type default))
    (uuid 5cc29f3a-a652-4a67-bbb3-19907f265fb3)
  )
  (wire (pts (xy 104.14 153.67) (xy 100.33 153.67))
    (stroke (width 0) (type default))
    (uuid 868db9b9-e955-43c0-9bfd-00d33486b57a)
  )
  (wire (pts (xy 104.14 138.43) (xy 100.33 138.43))
    (stroke (width 0) (type default))
    (uuid a499419a-f47f-4b1f-8265-7e8fe2b4895f)
  )
  (wire (pts (xy 115.57 138.43) (xy 111.76 138.43))
    (stroke (width 0) (type default))
    (uuid b28644fb-870d-4454-8ef4-d8564b7994d9)
  )
  (wire (pts (xy 104.14 130.81) (xy 100.33 130.81))
    (stroke (width 0) (type default))
    (uuid bbcee4d8-4c95-490e-9ac3-7aaf987596f4)
  )
  (wire (pts (xy 115.57 146.05) (xy 111.76 146.05))
    (stroke (width 0) (type default))
    (uuid e45fbbb7-a6ee-4dd9-bf05-dbd4bd6150f7)
  )
  (wire (pts (xy 115.57 130.81) (xy 111.76 130.81))
    (stroke (width 0) (type default))
    (uuid e5ab614d-2e1e-48b6-b733-f26bd84ab345)
  )

  (hierarchical_label "X3" (shape passive) (at 100.33 146.05 180) (fields_autoplaced)
    (effects (font (size 1.27 1.27)) (justify right))
    (uuid 030f164b-4ab9-4f27-9ed4-7b449d5404c9)
  )
  (hierarchical_label "X4" (shape passive) (at 100.33 153.67 180) (fields_autoplaced)
    (effects (font (size 1.27 1.27)) (justify right))
    (uuid 62305de5-63cf-400b-93ec-27a7c521e911)
  )
  (hierarchical_label "Y2" (shape passive) (at 115.57 138.43 0) (fields_autoplaced)
    (effects (font (size 1.27 1.27)) (justify left))
    (uuid 64f08a86-88fe-4e98-8ea5-4ec9197bcbb8)
  )
  (hierarchical_label "Y1" (shape passive) (at 115.57 130.81 0) (fields_autoplaced)
    (effects (font (size 1.27 1.27)) (justify left))
    (uuid 9699a3e5-c74a-4321-b08c-f2446e10a7e7)
  )
  (hierarchical_label "X2" (shape passive) (at 100.33 138.43 180) (fields_autoplaced)
    (effects (font (size 1.27 1.27)) (justify right))
    (uuid b331eedb-1ebd-40c1-ae03-d01767f08cfd)
  )
  (hierarchical_label "Y3" (shape passive) (at 115.57 146.05 0) (fields_autoplaced)
    (effects (font (size 1.27 1.27)) (justify left))
    (uuid d10dced7-8e46-41ec-bb83-d6e7c73fbc03)
  )
  (hierarchical_label "X1" (shape passive) (at 100.33 130.81 180) (fields_autoplaced)
    (effects (font (size 1.27 1.27)) (justify right))
    (uuid f68c93b8-3e57-47e0-b4e7-1dcc28359551)
  )
  (hierarchical_label "Y4" (shape passive) (at 115.57 153.67 0) (fields_autoplaced)
    (effects (font (size 1.27 1.27)) (justify left))
    (uuid f9876f57-704b-4048-9b8b-c1ef8708aacf)
  )

  (symbol (lib_id "Device:FerriteBead") (at 107.95 130.81 270) (mirror x) (unit 1)
    (in_bom yes) (on_board yes) (dnp no)
    (uuid 00000000-0000-0000-0000-00005f32c5b2)
    (property "Reference" "L5" (at 110.49 129.54 90)
      (effects (font (size 1.27 1.27)))
    )
    (property "Value" "Ferrite_Bead" (at 107.95 142.24 90)
      (effects (font (size 1.27 1.27)))
    )
    (property "Footprint" "Inductor_SMD:L_0402_1005Metric" (at 107.95 132.588 90)
      (effects (font (size 1.27 1.27)) hide)
    )
    (property "Datasheet" "~" (at 107.95 130.81 0)
      (effects (font (size 1.27 1.27)) hide)
    )
    (pin "1" (uuid 78ae19b3-7ca6-4eed-87fa-0b7c0c380e09))
    (pin "2" (uuid 20d3f84e-7803-4ff2-935f-daf2dd18b5d5))
    (instances
      (project "rbpi-z-hat"
        (path "/d99b0340-d795-4b40-9cde-9851c6cee99d/00000000-0000-0000-0000-00005f329359"
          (reference "L5") (unit 1)
        )
      )
    )
  )

  (symbol (lib_id "Device:Ferrite_Bead") (at 107.95 138.43 270) (mirror x) (unit 1)
    (in_bom yes) (on_board yes) (dnp no)
    (uuid 00000000-0000-0000-0000-00005f32c5b9)
    (property "Reference" "L6" (at 110.49 137.16 90)
      (effects (font (size 1.27 1.27)))
    )
    (property "Value" "Ferrite_Bead" (at 107.95 134.62 90)
      (effects (font (size 1.27 1.27)))
    )
    (property "Footprint" "Inductor_SMD:L_0402_1005Metric" (at 107.95 140.208 90)
      (effects (font (size 1.27 1.27)) hide)
    )
    (property "Datasheet" "~" (at 107.95 138.43 0)
      (effects (font (size 1.27 1.27)) hide)
    )
    (pin "1" (uuid 7e2acf06-6e9a-449a-8f79-d88be0371cfc))
    (pin "2" (uuid 1f5ecc67-4d6b-406a-ad0e-0f5ddc3f6080))
    (instances
      (project "rbpi-z-hat"
        (path "/d99b0340-d795-4b40-9cde-9851c6cee99d/00000000-0000-0000-0000-00005f329359"
          (reference "L6") (unit 1)
        )
      )
    )
  )

  (symbol (lib_id "Device:FerriteBead") (at 107.95 146.05 270) (mirror x) (unit 1)
    (in_bom yes) (on_board yes) (dnp no)
    (uuid 00000000-0000-0000-0000-00005f32c5c0)
    (property "Reference" "L7" (at 110.49 144.78 90)
      (effects (font (size 1.27 1.27)))
    )
    (property "Value" "Ferrite_Bead" (at 107.95 157.48 90)
      (effects (font (size 1.27 1.27)))
    )
    (property "Footprint" "Inductor_SMD:L_0402_1005Metric" (at 107.95 147.828 90)
      (effects (font (size 1.27 1.27)) hide)
    )
    (property "Datasheet" "~" (at 107.95 146.05 0)
      (effects (font (size 1.27 1.27)) hide)
    )
    (pin "1" (uuid 82df1daa-52bf-4e7b-8e2f-bd45dbde146e))
    (pin "2" (uuid 7a787d25-8b94-4028-af25-fea17d0c9f4f))
    (instances
      (project "rbpi-z-hat"
        (path "/d99b0340-d795-4b40-9cde-9851c6cee99d/00000000-0000-0000-0000-00005f329359"
          (reference "L7") (unit 1)
        )
      )
    )
  )

  (symbol (lib_id "Device:FerriteBead") (at 107.95 153.67 270) (mirror x) (unit 1)
    (in_bom yes) (on_board yes) (dnp no)
    (uuid 00000000-0000-0000-0000-00005f32c5c7)
    (property "Reference" "L8" (at 110.49 152.4 90)
      (effects (font (size 1.27 1.27)))
    )
    (property "Value" "Ferrite_Bead" (at 107.95 149.86 90)
      (effects (font (size 1.27 1.27)))
    )
    (property "Footprint" "Inductor_SMD:L_0402_1005Metric" (at 107.95 155.448 90)
      (effects (font (size 1.27 1.27)) hide)
    )
    (property "Datasheet" "~" (at 107.95 153.67 0)
      (effects (font (size 1.27 1.27)) hide)
    )
    (pin "1" (uuid f3d87741-0186-4460-ab55-e3de1249458e))
    (pin "2" (uuid 011aa59c-8549-4111-b5dc-689da168cc78))
    (instances
      (project "rbpi-z-hat"
        (path "/d99b0340-d795-4b40-9cde-9851c6cee99d/00000000-0000-0000-0000-00005f329359"
          (reference "L8") (unit 1)
        )
      )
    )
  )
)
