(kicad_sch (version 20230121) (generator eeschema)

  (uuid 13b2a24a-9fa4-4437-b470-8b41d01deb23)

  (paper "A4" portrait)

  (title_block
    (title "RasPi Zero NAV Hat")
    (date "2023-05-12")
    (rev "0.1")
    (company "chipiki.ru")
    (comment 1 "RasPi Zero NAV Hat")
    (comment 2 "Denis Tsekh")
  )

  (lib_symbols
    (symbol "Connector_Generic_MountingPin:Conn_01x04_MountingPin" (pin_names (offset 1.016) hide) (in_bom yes) (on_board yes)
      (property "Reference" "J" (at 0 5.08 0)
        (effects (font (size 1.27 1.27)))
      )
      (property "Value" "Conn_01x04_MountingPin" (at 1.27 -7.62 0)
        (effects (font (size 1.27 1.27)) (justify left))
      )
      (property "Footprint" "" (at 0 0 0)
        (effects (font (size 1.27 1.27)) hide)
      )
      (property "Datasheet" "~" (at 0 0 0)
        (effects (font (size 1.27 1.27)) hide)
      )
      (property "ki_keywords" "connector" (at 0 0 0)
        (effects (font (size 1.27 1.27)) hide)
      )
      (property "ki_description" "Generic connectable mounting pin connector, single row, 01x04, script generated (kicad-library-utils/schlib/autogen/connector/)" (at 0 0 0)
        (effects (font (size 1.27 1.27)) hide)
      )
      (property "ki_fp_filters" "Connector*:*_1x??-1MP*" (at 0 0 0)
        (effects (font (size 1.27 1.27)) hide)
      )
      (symbol "Conn_01x04_MountingPin_1_1"
        (rectangle (start -1.27 -4.953) (end 0 -5.207)
          (stroke (width 0.1524) (type default))
          (fill (type none))
        )
        (rectangle (start -1.27 -2.413) (end 0 -2.667)
          (stroke (width 0.1524) (type default))
          (fill (type none))
        )
        (rectangle (start -1.27 0.127) (end 0 -0.127)
          (stroke (width 0.1524) (type default))
          (fill (type none))
        )
        (rectangle (start -1.27 2.667) (end 0 2.413)
          (stroke (width 0.1524) (type default))
          (fill (type none))
        )
        (rectangle (start -1.27 3.81) (end 1.27 -6.35)
          (stroke (width 0.254) (type default))
          (fill (type background))
        )
        (polyline
          (pts
            (xy -1.016 -7.112)
            (xy 1.016 -7.112)
          )
          (stroke (width 0.1524) (type default))
          (fill (type none))
        )
        (text "Mounting" (at 0 -6.731 0)
          (effects (font (size 0.381 0.381)))
        )
        (pin passive line (at -5.08 2.54 0) (length 3.81)
          (name "Pin_1" (effects (font (size 1.27 1.27))))
          (number "1" (effects (font (size 1.27 1.27))))
        )
        (pin passive line (at -5.08 0 0) (length 3.81)
          (name "Pin_2" (effects (font (size 1.27 1.27))))
          (number "2" (effects (font (size 1.27 1.27))))
        )
        (pin passive line (at -5.08 -2.54 0) (length 3.81)
          (name "Pin_3" (effects (font (size 1.27 1.27))))
          (number "3" (effects (font (size 1.27 1.27))))
        )
        (pin passive line (at -5.08 -5.08 0) (length 3.81)
          (name "Pin_4" (effects (font (size 1.27 1.27))))
          (number "4" (effects (font (size 1.27 1.27))))
        )
        (pin passive line (at 0 -10.16 90) (length 3.048)
          (name "MountPin" (effects (font (size 1.27 1.27))))
          (number "MP" (effects (font (size 1.27 1.27))))
        )
      )
    )
    (symbol "Device:C_Feedthrough" (pin_names (offset 0.254) hide) (in_bom yes) (on_board yes)
      (property "Reference" "C" (at 0 7.62 0)
        (effects (font (size 1.27 1.27)))
      )
      (property "Value" "C_Feedthrough" (at 0 5.715 0)
        (effects (font (size 1.27 1.27)))
      )
      (property "Footprint" "" (at 0 0 90)
        (effects (font (size 1.27 1.27)) hide)
      )
      (property "Datasheet" "~" (at 0 0 90)
        (effects (font (size 1.27 1.27)) hide)
      )
      (property "ki_keywords" "EMI filter feedthrough capacitor" (at 0 0 0)
        (effects (font (size 1.27 1.27)) hide)
      )
      (property "ki_description" "Feedthrough capacitor" (at 0 0 0)
        (effects (font (size 1.27 1.27)) hide)
      )
      (symbol "C_Feedthrough_0_1"
        (rectangle (start -1.651 1.524) (end 1.524 2.032)
          (stroke (width 0) (type default))
          (fill (type outline))
        )
        (polyline
          (pts
            (xy -2.54 2.54)
            (xy 2.54 2.54)
          )
          (stroke (width 0) (type default))
          (fill (type none))
        )
        (polyline
          (pts
            (xy 0 0)
            (xy 0 1.778)
          )
          (stroke (width 0) (type default))
          (fill (type none))
        )
        (rectangle (start 1.524 3.048) (end -1.651 3.556)
          (stroke (width 0) (type default))
          (fill (type outline))
        )
      )
      (symbol "C_Feedthrough_1_1"
        (pin passive line (at -5.08 2.54 0) (length 2.54)
          (name "1" (effects (font (size 1.27 1.27))))
          (number "1" (effects (font (size 1.27 1.27))))
        )
        (pin passive line (at 0 -2.54 90) (length 2.54)
          (name "2" (effects (font (size 1.27 1.27))))
          (number "2" (effects (font (size 1.27 1.27))))
        )
        (pin passive line (at 5.08 2.54 180) (length 2.54)
          (name "3" (effects (font (size 1.27 1.27))))
          (number "3" (effects (font (size 1.27 1.27))))
        )
      )
    )
    (symbol "Device:D_TVS" (pin_numbers hide) (pin_names (offset 1.016) hide) (in_bom yes) (on_board yes)
      (property "Reference" "D" (at 0 2.54 0)
        (effects (font (size 1.27 1.27)))
      )
      (property "Value" "D_TVS" (at 0 -2.54 0)
        (effects (font (size 1.27 1.27)))
      )
      (property "Footprint" "" (at 0 0 0)
        (effects (font (size 1.27 1.27)) hide)
      )
      (property "Datasheet" "~" (at 0 0 0)
        (effects (font (size 1.27 1.27)) hide)
      )
      (property "ki_keywords" "diode TVS thyrector" (at 0 0 0)
        (effects (font (size 1.27 1.27)) hide)
      )
      (property "ki_description" "Bidirectional transient-voltage-suppression diode" (at 0 0 0)
        (effects (font (size 1.27 1.27)) hide)
      )
      (property "ki_fp_filters" "TO-???* *_Diode_* *SingleDiode* D_*" (at 0 0 0)
        (effects (font (size 1.27 1.27)) hide)
      )
      (symbol "D_TVS_0_1"
        (polyline
          (pts
            (xy 1.27 0)
            (xy -1.27 0)
          )
          (stroke (width 0) (type default))
          (fill (type none))
        )
        (polyline
          (pts
            (xy 0.508 1.27)
            (xy 0 1.27)
            (xy 0 -1.27)
            (xy -0.508 -1.27)
          )
          (stroke (width 0.254) (type default))
          (fill (type none))
        )
        (polyline
          (pts
            (xy -2.54 1.27)
            (xy -2.54 -1.27)
            (xy 2.54 1.27)
            (xy 2.54 -1.27)
            (xy -2.54 1.27)
          )
          (stroke (width 0.254) (type default))
          (fill (type none))
        )
      )
      (symbol "D_TVS_1_1"
        (pin passive line (at -3.81 0 0) (length 2.54)
          (name "A1" (effects (font (size 1.27 1.27))))
          (number "1" (effects (font (size 1.27 1.27))))
        )
        (pin passive line (at 3.81 0 180) (length 2.54)
          (name "A2" (effects (font (size 1.27 1.27))))
          (number "2" (effects (font (size 1.27 1.27))))
        )
      )
    )
    (symbol "Device:FerriteBead" (pin_numbers hide) (pin_names (offset 0)) (in_bom yes) (on_board yes)
      (property "Reference" "FB" (at -3.81 0.635 90)
        (effects (font (size 1.27 1.27)))
      )
      (property "Value" "FerriteBead" (at 3.81 0 90)
        (effects (font (size 1.27 1.27)))
      )
      (property "Footprint" "" (at -1.778 0 90)
        (effects (font (size 1.27 1.27)) hide)
      )
      (property "Datasheet" "~" (at 0 0 0)
        (effects (font (size 1.27 1.27)) hide)
      )
      (property "ki_keywords" "L ferrite bead inductor filter" (at 0 0 0)
        (effects (font (size 1.27 1.27)) hide)
      )
      (property "ki_description" "Ferrite bead" (at 0 0 0)
        (effects (font (size 1.27 1.27)) hide)
      )
      (property "ki_fp_filters" "Inductor_* L_* *Ferrite*" (at 0 0 0)
        (effects (font (size 1.27 1.27)) hide)
      )
      (symbol "FerriteBead_0_1"
        (polyline
          (pts
            (xy 0 -1.27)
            (xy 0 -1.2192)
          )
          (stroke (width 0) (type default))
          (fill (type none))
        )
        (polyline
          (pts
            (xy 0 1.27)
            (xy 0 1.2954)
          )
          (stroke (width 0) (type default))
          (fill (type none))
        )
        (polyline
          (pts
            (xy -2.7686 0.4064)
            (xy -1.7018 2.2606)
            (xy 2.7686 -0.3048)
            (xy 1.6764 -2.159)
            (xy -2.7686 0.4064)
          )
          (stroke (width 0) (type default))
          (fill (type none))
        )
      )
      (symbol "FerriteBead_1_1"
        (pin passive line (at 0 3.81 270) (length 2.54)
          (name "~" (effects (font (size 1.27 1.27))))
          (number "1" (effects (font (size 1.27 1.27))))
        )
        (pin passive line (at 0 -3.81 90) (length 2.54)
          (name "~" (effects (font (size 1.27 1.27))))
          (number "2" (effects (font (size 1.27 1.27))))
        )
      )
    )
    (symbol "Device:R" (pin_numbers hide) (pin_names (offset 0)) (in_bom yes) (on_board yes)
      (property "Reference" "R" (at 2.032 0 90)
        (effects (font (size 1.27 1.27)))
      )
      (property "Value" "R" (at 0 0 90)
        (effects (font (size 1.27 1.27)))
      )
      (property "Footprint" "" (at -1.778 0 90)
        (effects (font (size 1.27 1.27)) hide)
      )
      (property "Datasheet" "~" (at 0 0 0)
        (effects (font (size 1.27 1.27)) hide)
      )
      (property "ki_keywords" "R res resistor" (at 0 0 0)
        (effects (font (size 1.27 1.27)) hide)
      )
      (property "ki_description" "Resistor" (at 0 0 0)
        (effects (font (size 1.27 1.27)) hide)
      )
      (property "ki_fp_filters" "R_*" (at 0 0 0)
        (effects (font (size 1.27 1.27)) hide)
      )
      (symbol "R_0_1"
        (rectangle (start -1.016 -2.54) (end 1.016 2.54)
          (stroke (width 0.254) (type default))
          (fill (type none))
        )
      )
      (symbol "R_1_1"
        (pin passive line (at 0 3.81 270) (length 1.27)
          (name "~" (effects (font (size 1.27 1.27))))
          (number "1" (effects (font (size 1.27 1.27))))
        )
        (pin passive line (at 0 -3.81 90) (length 1.27)
          (name "~" (effects (font (size 1.27 1.27))))
          (number "2" (effects (font (size 1.27 1.27))))
        )
      )
    )
    (symbol "Power_Protection:SP0502BAHT" (pin_names hide) (in_bom yes) (on_board yes)
      (property "Reference" "D" (at 5.715 2.54 0)
        (effects (font (size 1.27 1.27)) (justify left))
      )
      (property "Value" "SP0502BAHT" (at 5.715 0.635 0)
        (effects (font (size 1.27 1.27)) (justify left))
      )
      (property "Footprint" "Package_TO_SOT_SMD:SOT-23" (at 5.715 -1.27 0)
        (effects (font (size 1.27 1.27)) (justify left) hide)
      )
      (property "Datasheet" "http://www.littelfuse.com/~/media/files/littelfuse/technical%20resources/documents/data%20sheets/sp05xxba.pdf" (at 3.175 3.175 0)
        (effects (font (size 1.27 1.27)) hide)
      )
      (property "ki_keywords" "usb esd protection suppression transient" (at 0 0 0)
        (effects (font (size 1.27 1.27)) hide)
      )
      (property "ki_description" "TVS Diode Array, 5.5V Standoff, 2 Channels, SOT-23 package" (at 0 0 0)
        (effects (font (size 1.27 1.27)) hide)
      )
      (property "ki_fp_filters" "SOT?23*" (at 0 0 0)
        (effects (font (size 1.27 1.27)) hide)
      )
      (symbol "SP0502BAHT_0_0"
        (pin passive line (at 0 -5.08 90) (length 2.54)
          (name "A" (effects (font (size 1.27 1.27))))
          (number "3" (effects (font (size 1.27 1.27))))
        )
      )
      (symbol "SP0502BAHT_0_1"
        (rectangle (start -4.445 2.54) (end 4.445 -2.54)
          (stroke (width 0.254) (type default))
          (fill (type background))
        )
        (circle (center 0 -1.27) (radius 0.254)
          (stroke (width 0) (type default))
          (fill (type outline))
        )
        (polyline
          (pts
            (xy -2.54 2.54)
            (xy -2.54 1.27)
          )
          (stroke (width 0) (type default))
          (fill (type none))
        )
        (polyline
          (pts
            (xy 0 -1.27)
            (xy 0 -2.54)
          )
          (stroke (width 0) (type default))
          (fill (type none))
        )
        (polyline
          (pts
            (xy 2.54 2.54)
            (xy 2.54 1.27)
          )
          (stroke (width 0) (type default))
          (fill (type none))
        )
        (polyline
          (pts
            (xy -3.302 1.016)
            (xy -3.302 1.27)
            (xy -1.905 1.27)
            (xy -1.778 1.27)
          )
          (stroke (width 0) (type default))
          (fill (type none))
        )
        (polyline
          (pts
            (xy -2.54 1.27)
            (xy -2.54 -1.27)
            (xy 2.54 -1.27)
            (xy 2.54 1.27)
          )
          (stroke (width 0) (type default))
          (fill (type none))
        )
        (polyline
          (pts
            (xy -2.54 1.27)
            (xy -1.905 0)
            (xy -3.175 0)
            (xy -2.54 1.27)
          )
          (stroke (width 0) (type default))
          (fill (type none))
        )
        (polyline
          (pts
            (xy 1.778 1.016)
            (xy 1.778 1.27)
            (xy 3.175 1.27)
            (xy 3.302 1.27)
          )
          (stroke (width 0) (type default))
          (fill (type none))
        )
        (polyline
          (pts
            (xy 2.54 1.27)
            (xy 1.905 0)
            (xy 3.175 0)
            (xy 2.54 1.27)
          )
          (stroke (width 0) (type default))
          (fill (type none))
        )
      )
      (symbol "SP0502BAHT_1_1"
        (pin passive line (at -2.54 5.08 270) (length 2.54)
          (name "K" (effects (font (size 1.27 1.27))))
          (number "1" (effects (font (size 1.27 1.27))))
        )
        (pin passive line (at 2.54 5.08 270) (length 2.54)
          (name "K" (effects (font (size 1.27 1.27))))
          (number "2" (effects (font (size 1.27 1.27))))
        )
      )
    )
    (symbol "power:+5V" (power) (pin_names (offset 0)) (in_bom yes) (on_board yes)
      (property "Reference" "#PWR" (at 0 -3.81 0)
        (effects (font (size 1.27 1.27)) hide)
      )
      (property "Value" "+5V" (at 0 3.556 0)
        (effects (font (size 1.27 1.27)))
      )
      (property "Footprint" "" (at 0 0 0)
        (effects (font (size 1.27 1.27)) hide)
      )
      (property "Datasheet" "" (at 0 0 0)
        (effects (font (size 1.27 1.27)) hide)
      )
      (property "ki_keywords" "power-flag" (at 0 0 0)
        (effects (font (size 1.27 1.27)) hide)
      )
      (property "ki_description" "Power symbol creates a global label with name \"+5V\"" (at 0 0 0)
        (effects (font (size 1.27 1.27)) hide)
      )
      (symbol "+5V_0_1"
        (polyline
          (pts
            (xy -0.762 1.27)
            (xy 0 2.54)
          )
          (stroke (width 0) (type default))
          (fill (type none))
        )
        (polyline
          (pts
            (xy 0 0)
            (xy 0 2.54)
          )
          (stroke (width 0) (type default))
          (fill (type none))
        )
        (polyline
          (pts
            (xy 0 2.54)
            (xy 0.762 1.27)
          )
          (stroke (width 0) (type default))
          (fill (type none))
        )
      )
      (symbol "+5V_1_1"
        (pin power_in line (at 0 0 90) (length 0) hide
          (name "+5V" (effects (font (size 1.27 1.27))))
          (number "1" (effects (font (size 1.27 1.27))))
        )
      )
    )
    (symbol "power:GNDD" (power) (pin_names (offset 0)) (in_bom yes) (on_board yes)
      (property "Reference" "#PWR" (at 0 -6.35 0)
        (effects (font (size 1.27 1.27)) hide)
      )
      (property "Value" "GNDD" (at 0 -3.175 0)
        (effects (font (size 1.27 1.27)))
      )
      (property "Footprint" "" (at 0 0 0)
        (effects (font (size 1.27 1.27)) hide)
      )
      (property "Datasheet" "" (at 0 0 0)
        (effects (font (size 1.27 1.27)) hide)
      )
      (property "ki_keywords" "power-flag" (at 0 0 0)
        (effects (font (size 1.27 1.27)) hide)
      )
      (property "ki_description" "Power symbol creates a global label with name \"GNDD\" , digital ground" (at 0 0 0)
        (effects (font (size 1.27 1.27)) hide)
      )
      (symbol "GNDD_0_1"
        (rectangle (start -1.27 -1.524) (end 1.27 -2.032)
          (stroke (width 0.254) (type default))
          (fill (type outline))
        )
        (polyline
          (pts
            (xy 0 0)
            (xy 0 -1.524)
          )
          (stroke (width 0) (type default))
          (fill (type none))
        )
      )
      (symbol "GNDD_1_1"
        (pin power_in line (at 0 0 270) (length 0) hide
          (name "GNDD" (effects (font (size 1.27 1.27))))
          (number "1" (effects (font (size 1.27 1.27))))
        )
      )
    )
    (symbol "rbpi-z-hat-rescue:+3.3V-power" (power) (pin_names (offset 0)) (in_bom yes) (on_board yes)
      (property "Reference" "#PWR" (at 0 -3.81 0)
        (effects (font (size 1.27 1.27)) hide)
      )
      (property "Value" "+3.3V-power" (at 0 3.556 0)
        (effects (font (size 1.27 1.27)))
      )
      (property "Footprint" "" (at 0 0 0)
        (effects (font (size 1.27 1.27)) hide)
      )
      (property "Datasheet" "" (at 0 0 0)
        (effects (font (size 1.27 1.27)) hide)
      )
      (symbol "+3.3V-power_0_1"
        (polyline
          (pts
            (xy -0.762 1.27)
            (xy 0 2.54)
          )
          (stroke (width 0) (type default))
          (fill (type none))
        )
        (polyline
          (pts
            (xy 0 0)
            (xy 0 2.54)
          )
          (stroke (width 0) (type default))
          (fill (type none))
        )
        (polyline
          (pts
            (xy 0 2.54)
            (xy 0.762 1.27)
          )
          (stroke (width 0) (type default))
          (fill (type none))
        )
      )
      (symbol "+3.3V-power_1_1"
        (pin power_in line (at 0 0 90) (length 0) hide
          (name "+3V3" (effects (font (size 1.27 1.27))))
          (number "1" (effects (font (size 1.27 1.27))))
        )
      )
    )
    (symbol "rbpi-z-hat-rescue:PCA9306DC-Interface" (in_bom yes) (on_board yes)
      (property "Reference" "U" (at -7.62 11.43 0)
        (effects (font (size 1.27 1.27)) (justify left))
      )
      (property "Value" "PCA9306DC-Interface" (at 3.81 11.43 0)
        (effects (font (size 1.27 1.27)) (justify left))
      )
      (property "Footprint" "Package_SO:VSSOP-8_2.3x2mm_P0.5mm" (at 0 -11.43 0)
        (effects (font (size 1.27 1.27)) hide)
      )
      (property "Datasheet" "" (at -7.62 11.43 0)
        (effects (font (size 1.27 1.27)) hide)
      )
      (property "ki_fp_filters" "VSSOP*2.3x2mm*P0.5mm*" (at 0 0 0)
        (effects (font (size 1.27 1.27)) hide)
      )
      (symbol "PCA9306DC-Interface_0_1"
        (rectangle (start -7.62 10.16) (end 7.62 -10.16)
          (stroke (width 0.254) (type default))
          (fill (type background))
        )
      )
      (symbol "PCA9306DC-Interface_1_1"
        (pin power_in line (at -2.54 12.7 270) (length 2.54)
          (name "VREF1" (effects (font (size 1.27 1.27))))
          (number "1" (effects (font (size 1.27 1.27))))
        )
        (pin bidirectional line (at -10.16 0 0) (length 2.54)
          (name "SCL1" (effects (font (size 1.27 1.27))))
          (number "2" (effects (font (size 1.27 1.27))))
        )
        (pin bidirectional line (at -10.16 -2.54 0) (length 2.54)
          (name "SDA1" (effects (font (size 1.27 1.27))))
          (number "3" (effects (font (size 1.27 1.27))))
        )
        (pin power_in line (at 0 -12.7 90) (length 2.54)
          (name "GND" (effects (font (size 1.27 1.27))))
          (number "4" (effects (font (size 1.27 1.27))))
        )
        (pin bidirectional line (at 10.16 -2.54 180) (length 2.54)
          (name "SDA2" (effects (font (size 1.27 1.27))))
          (number "5" (effects (font (size 1.27 1.27))))
        )
        (pin bidirectional line (at 10.16 0 180) (length 2.54)
          (name "SCL2" (effects (font (size 1.27 1.27))))
          (number "6" (effects (font (size 1.27 1.27))))
        )
        (pin power_in line (at 2.54 12.7 270) (length 2.54)
          (name "VREF2" (effects (font (size 1.27 1.27))))
          (number "7" (effects (font (size 1.27 1.27))))
        )
        (pin input line (at 10.16 2.54 180) (length 2.54)
          (name "EN" (effects (font (size 1.27 1.27))))
          (number "8" (effects (font (size 1.27 1.27))))
        )
      )
    )
  )

  (junction (at 132.08 96.52) (diameter 0) (color 0 0 0 0)
    (uuid 1ce3815e-f5ca-4ce0-9320-0a7e442a62bc)
  )
  (junction (at 91.44 187.96) (diameter 0) (color 0 0 0 0)
    (uuid 39c1c289-813b-4a30-9776-8548af6658c8)
  )
  (junction (at 130.81 144.78) (diameter 0) (color 0 0 0 0)
    (uuid 4a1e8a09-2709-451c-94c1-87ddc56cae56)
  )
  (junction (at 107.95 147.32) (diameter 0) (color 0 0 0 0)
    (uuid 578fb362-0ad9-438e-900d-15137efc2638)
  )
  (junction (at 96.52 187.96) (diameter 0) (color 0 0 0 0)
    (uuid 65aa1144-95ee-4922-b265-70cf245d942c)
  )
  (junction (at 80.01 144.78) (diameter 0) (color 0 0 0 0)
    (uuid 6e687dca-6488-4bfc-b17e-a25ff75539ea)
  )
  (junction (at 93.98 187.96) (diameter 0) (color 0 0 0 0)
    (uuid 9166ebc2-f62e-4cb1-b913-57820d05cc69)
  )
  (junction (at 110.49 144.78) (diameter 0) (color 0 0 0 0)
    (uuid 9dfd879f-f978-4fad-b37c-044ac29907bb)
  )
  (junction (at 104.14 130.81) (diameter 0) (color 0 0 0 0)
    (uuid be507f06-53c7-4683-810b-815fa7625484)
  )
  (junction (at 125.73 147.32) (diameter 0) (color 0 0 0 0)
    (uuid becf19db-c4cc-4e4c-8ee5-7eddec7ba733)
  )
  (junction (at 82.55 147.32) (diameter 0) (color 0 0 0 0)
    (uuid f7923fab-9809-4eb1-b569-1a2f275caf3a)
  )

  (wire (pts (xy 107.95 172.72) (xy 107.95 147.32))
    (stroke (width 0) (type default))
    (uuid 0009100a-8936-478c-80da-cdb47e85572b)
  )
  (wire (pts (xy 99.06 182.88) (xy 99.06 187.96))
    (stroke (width 0) (type default))
    (uuid 00d409c6-f518-4291-8033-261e3fb13379)
  )
  (wire (pts (xy 143.51 162.56) (xy 143.51 167.64))
    (stroke (width 0) (type default))
    (uuid 02c62273-9fcf-45e1-affd-17e044ffc6c4)
  )
  (wire (pts (xy 100.33 96.52) (xy 93.98 96.52))
    (stroke (width 0) (type default))
    (uuid 0fcd71b4-e081-4822-a107-7dcdb9682b57)
  )
  (wire (pts (xy 132.08 100.33) (xy 132.08 96.52))
    (stroke (width 0) (type default))
    (uuid 1133a2db-8838-463a-911f-ae9895bb37bf)
  )
  (wire (pts (xy 97.79 130.81) (xy 97.79 132.08))
    (stroke (width 0) (type default))
    (uuid 1b8f1218-8f5f-46d9-aa1a-33322dc4b6c6)
  )
  (wire (pts (xy 91.44 175.26) (xy 91.44 173.99))
    (stroke (width 0) (type default))
    (uuid 1dcd54ac-0794-40cc-ba00-9486eba924bf)
  )
  (wire (pts (xy 143.51 96.52) (xy 143.51 142.24))
    (stroke (width 0) (type default))
    (uuid 212bd8e4-4125-4985-8029-0db28b6ac63a)
  )
  (wire (pts (xy 120.65 101.6) (xy 120.65 104.14))
    (stroke (width 0) (type default))
    (uuid 26583b93-625a-49b8-876e-f83756e824e2)
  )
  (wire (pts (xy 125.73 96.52) (xy 132.08 96.52))
    (stroke (width 0) (type default))
    (uuid 2b9f5552-1f67-49a9-8fb7-731fb60da44c)
  )
  (wire (pts (xy 96.52 187.96) (xy 99.06 187.96))
    (stroke (width 0) (type default))
    (uuid 2db44b23-4495-4344-a5d2-a31a22a6b946)
  )
  (wire (pts (xy 107.95 96.52) (xy 115.57 96.52))
    (stroke (width 0) (type default))
    (uuid 360bcb61-bbf8-43cf-ad97-c67fc283f833)
  )
  (wire (pts (xy 107.95 147.32) (xy 125.73 147.32))
    (stroke (width 0) (type default))
    (uuid 3741add8-e320-42c1-9080-d35dfd7f4a46)
  )
  (wire (pts (xy 132.08 96.52) (xy 143.51 96.52))
    (stroke (width 0) (type default))
    (uuid 44784034-d731-4968-8066-587cdf93e33a)
  )
  (wire (pts (xy 96.52 182.88) (xy 96.52 187.96))
    (stroke (width 0) (type default))
    (uuid 45b32fbb-3dee-40e8-9bf2-556ea5772ef7)
  )
  (wire (pts (xy 99.06 173.99) (xy 110.49 173.99))
    (stroke (width 0) (type default))
    (uuid 4f4f877a-5d47-444f-8d3e-4888c85d9939)
  )
  (wire (pts (xy 95.25 157.48) (xy 95.25 162.56))
    (stroke (width 0) (type default))
    (uuid 53949b2f-02cc-487b-969f-18a1b7aaa232)
  )
  (wire (pts (xy 128.27 163.83) (xy 128.27 167.64))
    (stroke (width 0) (type default))
    (uuid 565bfecd-d037-4756-a514-c4583c136856)
  )
  (wire (pts (xy 105.41 144.78) (xy 110.49 144.78))
    (stroke (width 0) (type default))
    (uuid 5c6f58ba-97c2-4c3a-87a0-c0056bc8bcaf)
  )
  (wire (pts (xy 104.14 130.81) (xy 97.79 130.81))
    (stroke (width 0) (type default))
    (uuid 644460c8-9f17-474f-9482-4b86a079b728)
  )
  (wire (pts (xy 148.59 149.86) (xy 143.51 149.86))
    (stroke (width 0) (type default))
    (uuid 6816fcd6-034c-4973-b2f4-3b4aeb3ffb11)
  )
  (wire (pts (xy 82.55 147.32) (xy 85.09 147.32))
    (stroke (width 0) (type default))
    (uuid 6b648cf1-8d20-4749-a1af-8b29b7be4cd0)
  )
  (wire (pts (xy 93.98 175.26) (xy 93.98 172.72))
    (stroke (width 0) (type default))
    (uuid 6c5f268d-4101-44fa-af70-c03addd4cd4e)
  )
  (wire (pts (xy 125.73 147.32) (xy 148.59 147.32))
    (stroke (width 0) (type default))
    (uuid 6ef85e71-fa54-4c25-96e4-80c0782a94e1)
  )
  (wire (pts (xy 80.01 144.78) (xy 85.09 144.78))
    (stroke (width 0) (type default))
    (uuid 751fcd27-ed52-4453-96e2-fffd4fc783ff)
  )
  (wire (pts (xy 93.98 96.52) (xy 93.98 90.17))
    (stroke (width 0) (type default))
    (uuid 754b59d2-cdda-41be-8b7a-e86ea4f59724)
  )
  (wire (pts (xy 125.73 153.67) (xy 125.73 147.32))
    (stroke (width 0) (type default))
    (uuid 77b9a06d-4037-4493-a696-f78565769132)
  )
  (wire (pts (xy 91.44 182.88) (xy 91.44 187.96))
    (stroke (width 0) (type default))
    (uuid 77bb9a88-a316-4439-b44d-97e091fd7f7e)
  )
  (wire (pts (xy 105.41 147.32) (xy 107.95 147.32))
    (stroke (width 0) (type default))
    (uuid 7f2848f8-ead2-41df-bdd7-6af9e3cb23ee)
  )
  (wire (pts (xy 83.82 187.96) (xy 83.82 186.69))
    (stroke (width 0) (type default))
    (uuid 808357bb-01ff-4075-ab72-2bafc174dce7)
  )
  (wire (pts (xy 106.68 130.81) (xy 106.68 142.24))
    (stroke (width 0) (type default))
    (uuid 80e0d73e-9a36-4a03-ab7b-a6f913f47062)
  )
  (wire (pts (xy 91.44 187.96) (xy 93.98 187.96))
    (stroke (width 0) (type default))
    (uuid 829fb2c2-cca0-4ac3-9358-aac54c9f7b69)
  )
  (wire (pts (xy 143.51 149.86) (xy 143.51 154.94))
    (stroke (width 0) (type default))
    (uuid 82ae2979-ff50-4e30-822f-816b632d510d)
  )
  (wire (pts (xy 82.55 172.72) (xy 93.98 172.72))
    (stroke (width 0) (type default))
    (uuid 87d92255-7e61-4eca-bd31-a587fbaf8de6)
  )
  (wire (pts (xy 96.52 175.26) (xy 96.52 172.72))
    (stroke (width 0) (type default))
    (uuid 87f4dda2-5498-47f0-8869-880275fa9e56)
  )
  (wire (pts (xy 132.08 111.76) (xy 132.08 107.95))
    (stroke (width 0) (type default))
    (uuid 89afd239-076c-4951-b4c3-2fc2828819d4)
  )
  (wire (pts (xy 92.71 119.38) (xy 92.71 132.08))
    (stroke (width 0) (type default))
    (uuid 915036bc-514e-42ec-b38f-f3e2bddbd873)
  )
  (wire (pts (xy 80.01 173.99) (xy 91.44 173.99))
    (stroke (width 0) (type default))
    (uuid 98c9b38c-67e3-41ff-94d6-32153093c993)
  )
  (wire (pts (xy 72.39 144.78) (xy 80.01 144.78))
    (stroke (width 0) (type default))
    (uuid 997febdb-e48e-4743-bddd-81f6cc30f3a1)
  )
  (wire (pts (xy 130.81 153.67) (xy 130.81 144.78))
    (stroke (width 0) (type default))
    (uuid 99ccfb21-296c-4ed9-8485-91d8955056a0)
  )
  (wire (pts (xy 96.52 172.72) (xy 107.95 172.72))
    (stroke (width 0) (type default))
    (uuid 9aaf4dde-1170-4d36-ae0d-de9c9f00bbd9)
  )
  (wire (pts (xy 91.44 187.96) (xy 83.82 187.96))
    (stroke (width 0) (type default))
    (uuid 9e485e9a-9928-4330-9c69-9dfd41021d9b)
  )
  (wire (pts (xy 104.14 130.81) (xy 106.68 130.81))
    (stroke (width 0) (type default))
    (uuid 9e61ec40-840e-4f42-88cb-96bd64c66488)
  )
  (wire (pts (xy 130.81 144.78) (xy 148.59 144.78))
    (stroke (width 0) (type default))
    (uuid a697e74e-ef23-44b5-89e5-9a4c42121520)
  )
  (wire (pts (xy 110.49 144.78) (xy 130.81 144.78))
    (stroke (width 0) (type default))
    (uuid a871af58-7610-45d2-b46e-6bd48dec348d)
  )
  (wire (pts (xy 143.51 142.24) (xy 148.59 142.24))
    (stroke (width 0) (type default))
    (uuid ad541665-bde7-4e2b-9033-44736722d395)
  )
  (wire (pts (xy 72.39 147.32) (xy 82.55 147.32))
    (stroke (width 0) (type default))
    (uuid ae0ca56c-d0d4-4a5c-ad4b-0a420142583c)
  )
  (wire (pts (xy 80.01 173.99) (xy 80.01 144.78))
    (stroke (width 0) (type default))
    (uuid c8c0d01c-e267-4d35-b767-5090f2524f86)
  )
  (wire (pts (xy 104.14 129.54) (xy 104.14 130.81))
    (stroke (width 0) (type default))
    (uuid cb485ab9-8073-4e8d-94b7-00b2b22e7a38)
  )
  (polyline (pts (xy 120.65 92.71) (xy 120.65 87.63))
    (stroke (width 0) (type default))
    (uuid e3f6d837-3918-4da5-975c-47caccaed120)
  )

  (wire (pts (xy 93.98 182.88) (xy 93.98 187.96))
    (stroke (width 0) (type default))
    (uuid e893d1a4-232e-4f47-8767-9804cab69c6e)
  )
  (wire (pts (xy 93.98 187.96) (xy 96.52 187.96))
    (stroke (width 0) (type default))
    (uuid e8e94dbd-274a-4a0a-ad47-6b97c4544b8f)
  )
  (wire (pts (xy 99.06 175.26) (xy 99.06 173.99))
    (stroke (width 0) (type default))
    (uuid e9e8ad6a-c8e9-4263-9824-c89369f38c43)
  )
  (wire (pts (xy 82.55 172.72) (xy 82.55 147.32))
    (stroke (width 0) (type default))
    (uuid ec1e67d8-0f55-487c-b013-d89da6355e77)
  )
  (wire (pts (xy 106.68 142.24) (xy 105.41 142.24))
    (stroke (width 0) (type default))
    (uuid eca200c5-0f91-4622-9e55-2a306a4dcce7)
  )
  (wire (pts (xy 153.67 154.94) (xy 153.67 167.64))
    (stroke (width 0) (type default))
    (uuid f042798d-5aff-4209-a915-90a213dcc58f)
  )
  (wire (pts (xy 110.49 173.99) (xy 110.49 144.78))
    (stroke (width 0) (type default))
    (uuid f1f9d823-b78b-4e9d-88fb-bec3f05c1771)
  )
  (wire (pts (xy 104.14 119.38) (xy 104.14 121.92))
    (stroke (width 0) (type default))
    (uuid fb3d6096-5bf8-4f57-a0ed-992e76f2f03d)
  )

  (hierarchical_label "SCL" (shape input) (at 72.39 144.78 180) (fields_autoplaced)
    (effects (font (size 1.27 1.27)) (justify right))
    (uuid 6aa7c9a2-18a9-4ed8-81e4-51bd5a2bfdf2)
  )
  (hierarchical_label "SDA" (shape bidirectional) (at 72.39 147.32 180) (fields_autoplaced)
    (effects (font (size 1.27 1.27)) (justify right))
    (uuid e83b1096-96fc-4eb8-a93c-db43e4afd92b)
  )

  (symbol (lib_id "Device:C_Feedthrough") (at 120.65 99.06 0) (unit 1)
    (in_bom yes) (on_board yes) (dnp no)
    (uuid 00000000-0000-0000-0000-00005edd329b)
    (property "Reference" "C5" (at 120.65 93.98 0)
      (effects (font (size 1.27 1.27)))
    )
    (property "Value" "1uF/16V/0805/NFM21PC105B1C3D" (at 120.65 86.36 0)
      (effects (font (size 1.27 1.27)))
    )
    (property "Footprint" "NFM21PC105B1C3D:NFM21PC105B1C3D" (at 120.65 99.06 90)
      (effects (font (size 1.27 1.27)) hide)
    )
    (property "Datasheet" "~" (at 120.65 99.06 90)
      (effects (font (size 1.27 1.27)) hide)
    )
    (pin "1" (uuid f29cdc05-9c18-498e-ba4b-93133bc0d220))
    (pin "2" (uuid e526612e-7738-4a72-bb1d-2d1d37d3fdc8))
    (pin "3" (uuid 2a8f58c3-30c8-4d01-87e2-bef86a88eca7))
    (instances
      (project "rbpi-z-hat"
        (path "/d99b0340-d795-4b40-9cde-9851c6cee99d/00000000-0000-0000-0000-00005edd13ae"
          (reference "C5") (unit 1)
        )
      )
    )
  )

  (symbol (lib_id "Device:D_TVS") (at 132.08 104.14 270) (unit 1)
    (in_bom yes) (on_board yes) (dnp no)
    (uuid 00000000-0000-0000-0000-00005edd32a1)
    (property "Reference" "D3" (at 133.35 100.33 90)
      (effects (font (size 1.27 1.27)) (justify left))
    )
    (property "Value" "PESD0402-140" (at 129.54 104.14 0)
      (effects (font (size 1.27 1.27)))
    )
    (property "Footprint" "Diode_SMD:D_0402_1005Metric" (at 132.08 104.14 0)
      (effects (font (size 1.27 1.27)) hide)
    )
    (property "Datasheet" "~" (at 132.08 104.14 0)
      (effects (font (size 1.27 1.27)) hide)
    )
    (pin "1" (uuid 36157e76-65c1-4ede-8d03-771e85231236))
    (pin "2" (uuid 6638b2d3-2abf-47fc-8496-fa64d8f7ec8d))
    (instances
      (project "rbpi-z-hat"
        (path "/d99b0340-d795-4b40-9cde-9851c6cee99d/00000000-0000-0000-0000-00005edd13ae"
          (reference "D3") (unit 1)
        )
      )
    )
  )

  (symbol (lib_id "Device:FerriteBead") (at 104.14 96.52 270) (unit 1)
    (in_bom yes) (on_board yes) (dnp no)
    (uuid 00000000-0000-0000-0000-00005edd32a7)
    (property "Reference" "FB3" (at 104.14 89.5604 90)
      (effects (font (size 1.27 1.27)))
    )
    (property "Value" "Ferrite_Bead" (at 104.14 91.8718 90)
      (effects (font (size 1.27 1.27)))
    )
    (property "Footprint" "Inductor_SMD:L_0603_1608Metric" (at 104.14 94.742 90)
      (effects (font (size 1.27 1.27)) hide)
    )
    (property "Datasheet" "~" (at 104.14 96.52 0)
      (effects (font (size 1.27 1.27)) hide)
    )
    (pin "1" (uuid 7945d94d-8a4c-4704-b879-fa46455d6778))
    (pin "2" (uuid 3367961e-1d9e-4f81-83de-8905aaad1e45))
    (instances
      (project "rbpi-z-hat"
        (path "/d99b0340-d795-4b40-9cde-9851c6cee99d/00000000-0000-0000-0000-00005edd13ae"
          (reference "FB3") (unit 1)
        )
      )
    )
  )

  (symbol (lib_id "power:GNDD") (at 132.08 111.76 0) (unit 1)
    (in_bom yes) (on_board yes) (dnp no)
    (uuid 00000000-0000-0000-0000-00005edd32b2)
    (property "Reference" "#PWR0107" (at 132.08 118.11 0)
      (effects (font (size 1.27 1.27)) hide)
    )
    (property "Value" "GNDD" (at 132.1816 115.697 0)
      (effects (font (size 1.27 1.27)))
    )
    (property "Footprint" "" (at 132.08 111.76 0)
      (effects (font (size 1.27 1.27)) hide)
    )
    (property "Datasheet" "" (at 132.08 111.76 0)
      (effects (font (size 1.27 1.27)) hide)
    )
    (pin "1" (uuid 980e256b-31d6-4b7f-bc76-9de23dbbeebf))
    (instances
      (project "rbpi-z-hat"
        (path "/d99b0340-d795-4b40-9cde-9851c6cee99d/00000000-0000-0000-0000-00005edd13ae"
          (reference "#PWR0107") (unit 1)
        )
      )
    )
  )

  (symbol (lib_id "power:GNDD") (at 120.65 104.14 0) (unit 1)
    (in_bom yes) (on_board yes) (dnp no)
    (uuid 00000000-0000-0000-0000-00005edd32b8)
    (property "Reference" "#PWR0108" (at 120.65 110.49 0)
      (effects (font (size 1.27 1.27)) hide)
    )
    (property "Value" "GNDD" (at 120.7516 108.077 0)
      (effects (font (size 1.27 1.27)))
    )
    (property "Footprint" "" (at 120.65 104.14 0)
      (effects (font (size 1.27 1.27)) hide)
    )
    (property "Datasheet" "" (at 120.65 104.14 0)
      (effects (font (size 1.27 1.27)) hide)
    )
    (pin "1" (uuid cf92a816-699f-4778-8c07-83d073d97653))
    (instances
      (project "rbpi-z-hat"
        (path "/d99b0340-d795-4b40-9cde-9851c6cee99d/00000000-0000-0000-0000-00005edd13ae"
          (reference "#PWR0108") (unit 1)
        )
      )
    )
  )

  (symbol (lib_id "power:+5V") (at 93.98 90.17 0) (unit 1)
    (in_bom yes) (on_board yes) (dnp no)
    (uuid 00000000-0000-0000-0000-00005edd32c2)
    (property "Reference" "#PWR0109" (at 93.98 93.98 0)
      (effects (font (size 1.27 1.27)) hide)
    )
    (property "Value" "+5V" (at 94.361 85.7758 0)
      (effects (font (size 1.27 1.27)))
    )
    (property "Footprint" "" (at 93.98 90.17 0)
      (effects (font (size 1.27 1.27)) hide)
    )
    (property "Datasheet" "" (at 93.98 90.17 0)
      (effects (font (size 1.27 1.27)) hide)
    )
    (pin "1" (uuid 71a86a63-5964-407f-ae9e-74b1589cf0f1))
    (instances
      (project "rbpi-z-hat"
        (path "/d99b0340-d795-4b40-9cde-9851c6cee99d/00000000-0000-0000-0000-00005edd13ae"
          (reference "#PWR0109") (unit 1)
        )
      )
    )
  )

  (symbol (lib_id "Connector_Generic_MountingPin:Conn_01x04_MountingPin") (at 153.67 144.78 0) (unit 1)
    (in_bom yes) (on_board yes) (dnp no)
    (uuid 00000000-0000-0000-0000-00005edd38f4)
    (property "Reference" "J9" (at 153.67 139.7 0)
      (effects (font (size 1.27 1.27)))
    )
    (property "Value" "JST_GH" (at 156.21 144.78 90)
      (effects (font (size 1.27 1.27)))
    )
    (property "Footprint" "Connector_JST:JST_GH_BM04B-GHS-TBT_1x04-1MP_P1.25mm_Vertical" (at 153.67 144.78 0)
      (effects (font (size 1.27 1.27)) hide)
    )
    (property "Datasheet" "~" (at 153.67 144.78 0)
      (effects (font (size 1.27 1.27)) hide)
    )
    (pin "1" (uuid cb29bb2d-7b8c-46d2-be18-9f823be716a1))
    (pin "2" (uuid 9a7e8154-142b-4000-8d04-e4d1c1d86691))
    (pin "3" (uuid 56d8d676-d3d2-4e4d-aa2c-d1ac8f6045f2))
    (pin "4" (uuid 3407a054-b9e3-4936-8e32-b002a2033fa1))
    (pin "MP" (uuid 4749482d-f8ba-4670-80eb-730a6dc1aa29))
    (instances
      (project "rbpi-z-hat"
        (path "/d99b0340-d795-4b40-9cde-9851c6cee99d/00000000-0000-0000-0000-00005edd13ae"
          (reference "J9") (unit 1)
        )
      )
    )
  )

  (symbol (lib_id "power:GNDD") (at 143.51 167.64 0) (unit 1)
    (in_bom yes) (on_board yes) (dnp no)
    (uuid 00000000-0000-0000-0000-00005edd6463)
    (property "Reference" "#PWR0110" (at 143.51 173.99 0)
      (effects (font (size 1.27 1.27)) hide)
    )
    (property "Value" "GNDD" (at 143.6116 171.577 0)
      (effects (font (size 1.27 1.27)))
    )
    (property "Footprint" "" (at 143.51 167.64 0)
      (effects (font (size 1.27 1.27)) hide)
    )
    (property "Datasheet" "" (at 143.51 167.64 0)
      (effects (font (size 1.27 1.27)) hide)
    )
    (pin "1" (uuid f84cd44e-e39c-478f-873e-ef859f91ea16))
    (instances
      (project "rbpi-z-hat"
        (path "/d99b0340-d795-4b40-9cde-9851c6cee99d/00000000-0000-0000-0000-00005edd13ae"
          (reference "#PWR0110") (unit 1)
        )
      )
    )
  )

  (symbol (lib_id "Device:FerriteBead") (at 143.51 158.75 180) (unit 1)
    (in_bom yes) (on_board yes) (dnp no)
    (uuid 00000000-0000-0000-0000-00005edd6469)
    (property "Reference" "FB4" (at 147.32 157.48 0)
      (effects (font (size 1.27 1.27)))
    )
    (property "Value" "Ferrite_Bead" (at 151.13 162.56 0)
      (effects (font (size 1.27 1.27)))
    )
    (property "Footprint" "Inductor_SMD:L_0603_1608Metric" (at 145.288 158.75 90)
      (effects (font (size 1.27 1.27)) hide)
    )
    (property "Datasheet" "~" (at 143.51 158.75 0)
      (effects (font (size 1.27 1.27)) hide)
    )
    (pin "1" (uuid 404ea88d-5d47-4999-9815-99c71a3bc7cb))
    (pin "2" (uuid 307efc84-3526-4550-85ad-114a7832168e))
    (instances
      (project "rbpi-z-hat"
        (path "/d99b0340-d795-4b40-9cde-9851c6cee99d/00000000-0000-0000-0000-00005edd13ae"
          (reference "FB4") (unit 1)
        )
      )
    )
  )

  (symbol (lib_id "power:GNDD") (at 153.67 167.64 0) (unit 1)
    (in_bom yes) (on_board yes) (dnp no)
    (uuid 00000000-0000-0000-0000-00005edd6470)
    (property "Reference" "#PWR0111" (at 153.67 173.99 0)
      (effects (font (size 1.27 1.27)) hide)
    )
    (property "Value" "GNDD" (at 153.7716 171.577 0)
      (effects (font (size 1.27 1.27)))
    )
    (property "Footprint" "" (at 153.67 167.64 0)
      (effects (font (size 1.27 1.27)) hide)
    )
    (property "Datasheet" "" (at 153.67 167.64 0)
      (effects (font (size 1.27 1.27)) hide)
    )
    (pin "1" (uuid da3dd2b6-749a-4865-abf1-a570d515ffee))
    (instances
      (project "rbpi-z-hat"
        (path "/d99b0340-d795-4b40-9cde-9851c6cee99d/00000000-0000-0000-0000-00005edd13ae"
          (reference "#PWR0111") (unit 1)
        )
      )
    )
  )

  (symbol (lib_id "rbpi-z-hat-rescue:PCA9306DC-Interface") (at 95.25 144.78 0) (unit 1)
    (in_bom yes) (on_board yes) (dnp no)
    (uuid 00000000-0000-0000-0000-00005eddac68)
    (property "Reference" "U4" (at 100.33 133.35 0)
      (effects (font (size 1.27 1.27)))
    )
    (property "Value" "PCA9306DC" (at 101.6 156.21 0)
      (effects (font (size 1.27 1.27)))
    )
    (property "Footprint" "Package_SO:VSSOP-8_2.3x2mm_P0.5mm" (at 95.25 156.21 0)
      (effects (font (size 1.27 1.27)) hide)
    )
    (property "Datasheet" "https://www.nxp.com/docs/en/data-sheet/PCA9306.pdf" (at 87.63 133.35 0)
      (effects (font (size 1.27 1.27)) hide)
    )
    (pin "1" (uuid 1192e36d-04f1-474f-964d-369e89fa5be9))
    (pin "2" (uuid cf17c95d-de65-4ed2-b020-1fca4382fb3d))
    (pin "3" (uuid 7c031035-6f5c-492a-ace3-caf739c31cef))
    (pin "4" (uuid f3f14574-001b-4188-bbe8-5a42adfa1386))
    (pin "5" (uuid f2bdb857-df2f-4c7e-9390-8d81588827fc))
    (pin "6" (uuid 0682cbe4-9a29-4c2f-954a-9a45019f0067))
    (pin "7" (uuid 1f23503f-1738-4014-930a-dc4ceeb9d039))
    (pin "8" (uuid 7fdb8131-94d9-4ea2-9d99-5b91d8b109ed))
    (instances
      (project "rbpi-z-hat"
        (path "/d99b0340-d795-4b40-9cde-9851c6cee99d/00000000-0000-0000-0000-00005edd13ae"
          (reference "U4") (unit 1)
        )
      )
    )
  )

  (symbol (lib_id "power:GNDD") (at 95.25 162.56 0) (unit 1)
    (in_bom yes) (on_board yes) (dnp no)
    (uuid 00000000-0000-0000-0000-00005eddd16d)
    (property "Reference" "#PWR0130" (at 95.25 168.91 0)
      (effects (font (size 1.27 1.27)) hide)
    )
    (property "Value" "GNDD" (at 95.3516 166.497 0)
      (effects (font (size 1.27 1.27)))
    )
    (property "Footprint" "" (at 95.25 162.56 0)
      (effects (font (size 1.27 1.27)) hide)
    )
    (property "Datasheet" "" (at 95.25 162.56 0)
      (effects (font (size 1.27 1.27)) hide)
    )
    (pin "1" (uuid 2a0f3afd-f855-4943-95a3-99bdfe5b8fb7))
    (instances
      (project "rbpi-z-hat"
        (path "/d99b0340-d795-4b40-9cde-9851c6cee99d/00000000-0000-0000-0000-00005edd13ae"
          (reference "#PWR0130") (unit 1)
        )
      )
    )
  )

  (symbol (lib_id "Power_Protection:SP0502BAHT") (at 128.27 158.75 0) (unit 1)
    (in_bom yes) (on_board yes) (dnp no)
    (uuid 00000000-0000-0000-0000-00005ede2789)
    (property "Reference" "D4" (at 132.08 154.94 0)
      (effects (font (size 1.27 1.27)) (justify left))
    )
    (property "Value" "PESD3V3S2UT" (at 128.27 162.56 0)
      (effects (font (size 1.27 1.27)) (justify left))
    )
    (property "Footprint" "Package_TO_SOT_SMD:SOT-23" (at 133.985 160.02 0)
      (effects (font (size 1.27 1.27)) (justify left) hide)
    )
    (property "Datasheet" "http://www.littelfuse.com/~/media/files/littelfuse/technical%20resources/documents/data%20sheets/sp05xxba.pdf" (at 131.445 155.575 0)
      (effects (font (size 1.27 1.27)) hide)
    )
    (property "URL" "https://www.terraelectronica.ru/product/289331" (at 128.27 158.75 0)
      (effects (font (size 1.27 1.27)) hide)
    )
    (pin "3" (uuid 9d72d7ec-7a07-4e7c-afa2-1358b883896c))
    (pin "1" (uuid 7380277d-773f-47f1-b68e-72810c14426d))
    (pin "2" (uuid 85edbe2c-fdfb-4b9a-9793-166fd70391fe))
    (instances
      (project "rbpi-z-hat"
        (path "/d99b0340-d795-4b40-9cde-9851c6cee99d/00000000-0000-0000-0000-00005edd13ae"
          (reference "D4") (unit 1)
        )
      )
    )
  )

  (symbol (lib_id "power:GNDD") (at 128.27 167.64 0) (unit 1)
    (in_bom yes) (on_board yes) (dnp no)
    (uuid 00000000-0000-0000-0000-00005ede408b)
    (property "Reference" "#PWR0131" (at 128.27 173.99 0)
      (effects (font (size 1.27 1.27)) hide)
    )
    (property "Value" "GNDD" (at 128.3716 171.577 0)
      (effects (font (size 1.27 1.27)))
    )
    (property "Footprint" "" (at 128.27 167.64 0)
      (effects (font (size 1.27 1.27)) hide)
    )
    (property "Datasheet" "" (at 128.27 167.64 0)
      (effects (font (size 1.27 1.27)) hide)
    )
    (pin "1" (uuid c0d0248c-5603-4980-902b-7e1c5eed9a00))
    (instances
      (project "rbpi-z-hat"
        (path "/d99b0340-d795-4b40-9cde-9851c6cee99d/00000000-0000-0000-0000-00005edd13ae"
          (reference "#PWR0131") (unit 1)
        )
      )
    )
  )

  (symbol (lib_id "rbpi-z-hat-rescue:+3.3V-power") (at 92.71 119.38 0) (unit 1)
    (in_bom yes) (on_board yes) (dnp no)
    (uuid 00000000-0000-0000-0000-00005ee0bef6)
    (property "Reference" "#PWR0132" (at 92.71 123.19 0)
      (effects (font (size 1.27 1.27)) hide)
    )
    (property "Value" "+3.3V" (at 96.52 116.84 0)
      (effects (font (size 1.27 1.27)))
    )
    (property "Footprint" "" (at 92.71 119.38 0)
      (effects (font (size 1.27 1.27)) hide)
    )
    (property "Datasheet" "" (at 92.71 119.38 0)
      (effects (font (size 1.27 1.27)) hide)
    )
    (pin "1" (uuid e3c29192-d161-494e-a500-f31ba302b748))
    (instances
      (project "rbpi-z-hat"
        (path "/d99b0340-d795-4b40-9cde-9851c6cee99d/00000000-0000-0000-0000-00005edd13ae"
          (reference "#PWR0132") (unit 1)
        )
      )
    )
  )

  (symbol (lib_id "Device:R") (at 104.14 125.73 180) (unit 1)
    (in_bom yes) (on_board yes) (dnp no)
    (uuid 00000000-0000-0000-0000-00005ee0e2de)
    (property "Reference" "R1" (at 106.68 125.73 0)
      (effects (font (size 1.27 1.27)))
    )
    (property "Value" "200K" (at 104.14 125.73 90)
      (effects (font (size 1.27 1.27)))
    )
    (property "Footprint" "Resistor_SMD:R_0402_1005Metric" (at 105.918 125.73 90)
      (effects (font (size 1.27 1.27)) hide)
    )
    (property "Datasheet" "~" (at 104.14 125.73 0)
      (effects (font (size 1.27 1.27)) hide)
    )
    (pin "1" (uuid 4d272f85-3808-4d5d-98d9-02efc8bfcd2d))
    (pin "2" (uuid ec5c2cda-d0e9-4839-97b3-0239c0bfa33c))
    (instances
      (project "rbpi-z-hat"
        (path "/d99b0340-d795-4b40-9cde-9851c6cee99d/00000000-0000-0000-0000-00005edd13ae"
          (reference "R1") (unit 1)
        )
      )
    )
  )

  (symbol (lib_id "rbpi-z-hat-rescue:+3.3V-power") (at 104.14 119.38 0) (unit 1)
    (in_bom yes) (on_board yes) (dnp no)
    (uuid 00000000-0000-0000-0000-00005ee2063c)
    (property "Reference" "#PWR0133" (at 104.14 123.19 0)
      (effects (font (size 1.27 1.27)) hide)
    )
    (property "Value" "+3.3V" (at 107.95 116.84 0)
      (effects (font (size 1.27 1.27)))
    )
    (property "Footprint" "" (at 104.14 119.38 0)
      (effects (font (size 1.27 1.27)) hide)
    )
    (property "Datasheet" "" (at 104.14 119.38 0)
      (effects (font (size 1.27 1.27)) hide)
    )
    (pin "1" (uuid 22f8c5d2-a61a-4882-b914-037d94cfe06d))
    (instances
      (project "rbpi-z-hat"
        (path "/d99b0340-d795-4b40-9cde-9851c6cee99d/00000000-0000-0000-0000-00005edd13ae"
          (reference "#PWR0133") (unit 1)
        )
      )
    )
  )

  (symbol (lib_id "rbpi-z-hat-rescue:+3.3V-power") (at 83.82 186.69 0) (unit 1)
    (in_bom yes) (on_board yes) (dnp no)
    (uuid 00000000-0000-0000-0000-00005ee21a70)
    (property "Reference" "#PWR0134" (at 83.82 190.5 0)
      (effects (font (size 1.27 1.27)) hide)
    )
    (property "Value" "+3.3V" (at 83.82 182.88 0)
      (effects (font (size 1.27 1.27)))
    )
    (property "Footprint" "" (at 83.82 186.69 0)
      (effects (font (size 1.27 1.27)) hide)
    )
    (property "Datasheet" "" (at 83.82 186.69 0)
      (effects (font (size 1.27 1.27)) hide)
    )
    (pin "1" (uuid d6e89d8e-6c93-49c2-99bc-b0f124a0a08e))
    (instances
      (project "rbpi-z-hat"
        (path "/d99b0340-d795-4b40-9cde-9851c6cee99d/00000000-0000-0000-0000-00005edd13ae"
          (reference "#PWR0134") (unit 1)
        )
      )
    )
  )

  (symbol (lib_id "Device:R") (at 91.44 179.07 180) (unit 1)
    (in_bom yes) (on_board yes) (dnp no)
    (uuid 094024c6-242e-424a-9efa-7671f3d3fb08)
    (property "Reference" "R13" (at 90.17 184.15 90)
      (effects (font (size 1.27 1.27)))
    )
    (property "Value" "1K5" (at 91.44 179.07 90)
      (effects (font (size 1.27 1.27)))
    )
    (property "Footprint" "Resistor_SMD:R_0402_1005Metric" (at 93.218 179.07 90)
      (effects (font (size 1.27 1.27)) hide)
    )
    (property "Datasheet" "~" (at 91.44 179.07 0)
      (effects (font (size 1.27 1.27)) hide)
    )
    (pin "1" (uuid 30f303d0-f45c-48e8-bd3c-f09efb144ffe))
    (pin "2" (uuid 62446fb5-35b4-4131-8396-055b24d1a919))
    (instances
      (project "rbpi-z-hat"
        (path "/d99b0340-d795-4b40-9cde-9851c6cee99d/00000000-0000-0000-0000-00005edd13ae"
          (reference "R13") (unit 1)
        )
      )
    )
  )

  (symbol (lib_id "Device:R") (at 96.52 179.07 180) (unit 1)
    (in_bom yes) (on_board yes) (dnp no)
    (uuid 2001831a-5ab5-4e25-9c2a-2c4e3a6804ab)
    (property "Reference" "R15" (at 95.25 184.15 90)
      (effects (font (size 1.27 1.27)))
    )
    (property "Value" "1K5" (at 96.52 179.07 90)
      (effects (font (size 1.27 1.27)))
    )
    (property "Footprint" "Resistor_SMD:R_0402_1005Metric" (at 98.298 179.07 90)
      (effects (font (size 1.27 1.27)) hide)
    )
    (property "Datasheet" "~" (at 96.52 179.07 0)
      (effects (font (size 1.27 1.27)) hide)
    )
    (pin "1" (uuid 1c3fe394-77f8-4d29-a9ed-a017898f6a9e))
    (pin "2" (uuid 971ff52d-17f1-4e36-83bf-c056d91101df))
    (instances
      (project "rbpi-z-hat"
        (path "/d99b0340-d795-4b40-9cde-9851c6cee99d/00000000-0000-0000-0000-00005edd13ae"
          (reference "R15") (unit 1)
        )
      )
    )
  )

  (symbol (lib_id "Device:R") (at 93.98 179.07 180) (unit 1)
    (in_bom yes) (on_board yes) (dnp no)
    (uuid 2ebd5f5d-4bb2-41a0-b3ee-502eb0a0c881)
    (property "Reference" "R14" (at 92.71 184.15 90)
      (effects (font (size 1.27 1.27)))
    )
    (property "Value" "1K5" (at 93.98 179.07 90)
      (effects (font (size 1.27 1.27)))
    )
    (property "Footprint" "Resistor_SMD:R_0402_1005Metric" (at 95.758 179.07 90)
      (effects (font (size 1.27 1.27)) hide)
    )
    (property "Datasheet" "~" (at 93.98 179.07 0)
      (effects (font (size 1.27 1.27)) hide)
    )
    (pin "1" (uuid ae581775-6ddd-4101-817a-42c2d9523929))
    (pin "2" (uuid da9dba04-3905-4eff-86df-22bf8d7166b4))
    (instances
      (project "rbpi-z-hat"
        (path "/d99b0340-d795-4b40-9cde-9851c6cee99d/00000000-0000-0000-0000-00005edd13ae"
          (reference "R14") (unit 1)
        )
      )
    )
  )

  (symbol (lib_id "Device:R") (at 99.06 179.07 180) (unit 1)
    (in_bom yes) (on_board yes) (dnp no)
    (uuid 30ae64af-4a80-448d-91ea-191afc7f6460)
    (property "Reference" "R16" (at 97.79 184.15 90)
      (effects (font (size 1.27 1.27)))
    )
    (property "Value" "1K5" (at 99.06 179.07 90)
      (effects (font (size 1.27 1.27)))
    )
    (property "Footprint" "Resistor_SMD:R_0402_1005Metric" (at 100.838 179.07 90)
      (effects (font (size 1.27 1.27)) hide)
    )
    (property "Datasheet" "~" (at 99.06 179.07 0)
      (effects (font (size 1.27 1.27)) hide)
    )
    (pin "1" (uuid 0f6ab1e7-d8a2-4edb-874d-97ca49bd016c))
    (pin "2" (uuid 1de4656e-4c90-41a1-8e60-8264e329a264))
    (instances
      (project "rbpi-z-hat"
        (path "/d99b0340-d795-4b40-9cde-9851c6cee99d/00000000-0000-0000-0000-00005edd13ae"
          (reference "R16") (unit 1)
        )
      )
    )
  )
)
