(kicad_sch (version 20230121) (generator eeschema)

  (uuid 096537e1-4914-4d47-bf1a-af373e969c43)

  (paper "A4" portrait)

  (title_block
    (title "RasPi Zero NAV Hat")
    (date "2023-05-12")
    (rev "0.1")
    (company "chipiki.ru")
    (comment 1 "RasPi Zero NAV Hat")
    (comment 2 "Denis Tsekh")
  )

  (lib_symbols
    (symbol "Device:C" (pin_numbers hide) (pin_names (offset 0.254)) (in_bom yes) (on_board yes)
      (property "Reference" "C" (at 0.635 2.54 0)
        (effects (font (size 1.27 1.27)) (justify left))
      )
      (property "Value" "C" (at 0.635 -2.54 0)
        (effects (font (size 1.27 1.27)) (justify left))
      )
      (property "Footprint" "" (at 0.9652 -3.81 0)
        (effects (font (size 1.27 1.27)) hide)
      )
      (property "Datasheet" "~" (at 0 0 0)
        (effects (font (size 1.27 1.27)) hide)
      )
      (property "ki_keywords" "cap capacitor" (at 0 0 0)
        (effects (font (size 1.27 1.27)) hide)
      )
      (property "ki_description" "Unpolarized capacitor" (at 0 0 0)
        (effects (font (size 1.27 1.27)) hide)
      )
      (property "ki_fp_filters" "C_*" (at 0 0 0)
        (effects (font (size 1.27 1.27)) hide)
      )
      (symbol "C_0_1"
        (polyline
          (pts
            (xy -2.032 -0.762)
            (xy 2.032 -0.762)
          )
          (stroke (width 0.508) (type default))
          (fill (type none))
        )
        (polyline
          (pts
            (xy -2.032 0.762)
            (xy 2.032 0.762)
          )
          (stroke (width 0.508) (type default))
          (fill (type none))
        )
      )
      (symbol "C_1_1"
        (pin passive line (at 0 3.81 270) (length 2.794)
          (name "~" (effects (font (size 1.27 1.27))))
          (number "1" (effects (font (size 1.27 1.27))))
        )
        (pin passive line (at 0 -3.81 90) (length 2.794)
          (name "~" (effects (font (size 1.27 1.27))))
          (number "2" (effects (font (size 1.27 1.27))))
        )
      )
    )
  )

  (junction (at 91.44 162.56) (diameter 0) (color 0 0 0 0)
    (uuid 02017f25-d71a-4cf0-b1f9-b1849b6658d8)
  )
  (junction (at 93.98 86.36) (diameter 0) (color 0 0 0 0)
    (uuid 28385a05-24f8-43e8-9f36-04d15976f466)
  )
  (junction (at 90.17 88.9) (diameter 0) (color 0 0 0 0)
    (uuid 5fa8bc2d-c045-4ea4-8e9e-da998a4021b7)
  )
  (junction (at 97.79 83.82) (diameter 0) (color 0 0 0 0)
    (uuid 895f3989-130c-4c86-a751-e048c43fa8cd)
  )
  (junction (at 91.44 182.88) (diameter 0) (color 0 0 0 0)
    (uuid b1a86414-cafa-455b-a82d-f73f6cc1e4c3)
  )

  (wire (pts (xy 113.03 95.25) (xy 109.22 95.25))
    (stroke (width 0) (type default))
    (uuid 0a680f79-4dce-417d-af82-0b7ebde197fe)
  )
  (wire (pts (xy 113.03 121.92) (xy 97.79 121.92))
    (stroke (width 0) (type default))
    (uuid 17ec95b0-795b-4407-be43-b4d58c6efdb8)
  )
  (wire (pts (xy 101.6 104.14) (xy 113.03 104.14))
    (stroke (width 0) (type default))
    (uuid 288ee164-b383-41d1-b090-4d36ff62c4d0)
  )
  (wire (pts (xy 90.17 88.9) (xy 90.17 127))
    (stroke (width 0) (type default))
    (uuid 32e20827-2b59-426e-bfe9-249bd31c019d)
  )
  (wire (pts (xy 91.44 182.88) (xy 107.95 182.88))
    (stroke (width 0) (type default))
    (uuid 48e33ddb-58d0-4a1a-8a94-4915a8568d44)
  )
  (wire (pts (xy 91.44 182.88) (xy 91.44 176.53))
    (stroke (width 0) (type default))
    (uuid 4d9e00dc-a1a2-4c63-b16a-0c8e1b963cb4)
  )
  (wire (pts (xy 113.03 129.54) (xy 78.74 129.54))
    (stroke (width 0) (type default))
    (uuid 4eb0c64c-db54-4862-bdef-65dfbf0db4cd)
  )
  (wire (pts (xy 113.03 135.89) (xy 101.6 135.89))
    (stroke (width 0) (type default))
    (uuid 4eee1eb6-2b4c-4fa6-9b9d-0a063f1f4d97)
  )
  (wire (pts (xy 113.03 97.79) (xy 109.22 97.79))
    (stroke (width 0) (type default))
    (uuid 550ec766-84a8-457a-adb0-a1c273472e18)
  )
  (wire (pts (xy 113.03 86.36) (xy 93.98 86.36))
    (stroke (width 0) (type default))
    (uuid 55350f38-88ab-4c0c-ad9f-3a01fc4fe1af)
  )
  (wire (pts (xy 101.6 142.24) (xy 113.03 142.24))
    (stroke (width 0) (type default))
    (uuid 57f25e55-7062-4040-a464-71e5ea2b0a8c)
  )
  (wire (pts (xy 93.98 86.36) (xy 78.74 86.36))
    (stroke (width 0) (type default))
    (uuid 62b76d9f-e669-4fcd-83da-2d0875385f83)
  )
  (wire (pts (xy 113.03 91.44) (xy 78.74 91.44))
    (stroke (width 0) (type default))
    (uuid 66854e49-d405-4ba0-b005-e0d891413197)
  )
  (wire (pts (xy 113.03 88.9) (xy 90.17 88.9))
    (stroke (width 0) (type default))
    (uuid 68e948cc-4796-4440-8bfb-22fe27704a6b)
  )
  (wire (pts (xy 90.17 88.9) (xy 78.74 88.9))
    (stroke (width 0) (type default))
    (uuid 69c697d6-60c6-44ff-840d-6de27a3bb1c3)
  )
  (wire (pts (xy 113.03 124.46) (xy 93.98 124.46))
    (stroke (width 0) (type default))
    (uuid 6e0a38cb-6bb3-4760-9d24-00bf1fc190f9)
  )
  (wire (pts (xy 91.44 162.56) (xy 91.44 168.91))
    (stroke (width 0) (type default))
    (uuid 7b664754-fc32-434f-a481-c1b49ac9e421)
  )
  (wire (pts (xy 78.74 182.88) (xy 91.44 182.88))
    (stroke (width 0) (type default))
    (uuid 7f52d924-deb2-4203-80c2-ed5df2d5646d)
  )
  (wire (pts (xy 113.03 133.35) (xy 101.6 133.35))
    (stroke (width 0) (type default))
    (uuid 8b2b782d-2384-43df-afcb-ddf7162ba502)
  )
  (wire (pts (xy 91.44 162.56) (xy 107.95 162.56))
    (stroke (width 0) (type default))
    (uuid bd70a95d-d0cc-440d-af83-92f1ac26cacc)
  )
  (wire (pts (xy 97.79 83.82) (xy 97.79 121.92))
    (stroke (width 0) (type default))
    (uuid bf3e5752-6482-4550-ba09-f0f3e95bf1d8)
  )
  (wire (pts (xy 113.03 83.82) (xy 97.79 83.82))
    (stroke (width 0) (type default))
    (uuid cab3ed73-087b-4679-a758-2e79140a1d3b)
  )
  (wire (pts (xy 97.79 83.82) (xy 78.74 83.82))
    (stroke (width 0) (type default))
    (uuid cabb254c-5344-4e2c-af8d-fafc1f3014c9)
  )
  (wire (pts (xy 78.74 162.56) (xy 91.44 162.56))
    (stroke (width 0) (type default))
    (uuid e8ab89c1-5bb2-4468-b1fb-4a2aeb923bd2)
  )
  (wire (pts (xy 101.6 139.7) (xy 113.03 139.7))
    (stroke (width 0) (type default))
    (uuid f4fe0f70-a53c-43ac-8476-42ed85982bb9)
  )
  (wire (pts (xy 93.98 86.36) (xy 93.98 124.46))
    (stroke (width 0) (type default))
    (uuid f980e0f0-74e4-4a92-bd9f-eb5151d93029)
  )
  (wire (pts (xy 113.03 127) (xy 90.17 127))
    (stroke (width 0) (type default))
    (uuid fc57c51f-47d7-481b-aa80-97c167dcffac)
  )
  (wire (pts (xy 101.6 101.6) (xy 113.03 101.6))
    (stroke (width 0) (type default))
    (uuid fef03701-77de-4ae0-92fa-faf2d6226721)
  )

  (text "CL31B226KPHNNNE" (at 88.9 182.88 90)
    (effects (font (size 1.27 1.27)) (justify left bottom))
    (uuid 4f471e84-d9e5-46ad-9484-1bc242e511ae)
  )

  (label "IMU_VDD" (at 101.6 101.6 0) (fields_autoplaced)
    (effects (font (size 1.27 1.27)) (justify left bottom))
    (uuid 20b759fc-a536-4724-96a4-9e0e7522c003)
  )
  (label "IMU_FGND" (at 101.6 142.24 0) (fields_autoplaced)
    (effects (font (size 1.27 1.27)) (justify left bottom))
    (uuid 61e31415-b686-4b5b-8e9f-c2caeefae15f)
  )
  (label "IMU_FGND" (at 101.6 104.14 0) (fields_autoplaced)
    (effects (font (size 1.27 1.27)) (justify left bottom))
    (uuid 6a619261-0375-42d6-a9f2-d66d83644f46)
  )
  (label "IMU_VDD" (at 107.95 162.56 180) (fields_autoplaced)
    (effects (font (size 1.27 1.27)) (justify right bottom))
    (uuid 7d8ea935-7275-4526-8d93-fb99a6894724)
  )
  (label "IMU_FGND" (at 107.95 182.88 180) (fields_autoplaced)
    (effects (font (size 1.27 1.27)) (justify right bottom))
    (uuid b2aeb8b2-8a05-447d-bc62-65284ab9114f)
  )
  (label "IMU_VDD" (at 101.6 139.7 0) (fields_autoplaced)
    (effects (font (size 1.27 1.27)) (justify left bottom))
    (uuid cd879141-3d68-4a17-a167-e931a2dce61c)
  )

  (hierarchical_label "BMI_INT2" (shape output) (at 109.22 97.79 180) (fields_autoplaced)
    (effects (font (size 1.27 1.27)) (justify right))
    (uuid 4644c112-329b-47d9-8c9d-529291515315)
  )
  (hierarchical_label "BMI_INT1" (shape output) (at 109.22 95.25 180) (fields_autoplaced)
    (effects (font (size 1.27 1.27)) (justify right))
    (uuid 6754e239-77af-4d5d-b8bd-c079f720e407)
  )
  (hierarchical_label "IMU_SCK" (shape input) (at 78.74 88.9 180) (fields_autoplaced)
    (effects (font (size 1.27 1.27)) (justify right))
    (uuid 71afea8a-39ef-420a-92f7-dde54cd86dd5)
  )
  (hierarchical_label "IMU_MISO" (shape output) (at 78.74 86.36 180) (fields_autoplaced)
    (effects (font (size 1.27 1.27)) (justify right))
    (uuid 73b8e86d-3aff-46bb-8177-66414559f7be)
  )
  (hierarchical_label "ICM_nCS" (shape input) (at 78.74 129.54 180) (fields_autoplaced)
    (effects (font (size 1.27 1.27)) (justify right))
    (uuid 763a5e3e-6527-4523-bef0-ef79540eda04)
  )
  (hierarchical_label "IMU_VIN" (shape input) (at 78.74 162.56 180) (fields_autoplaced)
    (effects (font (size 1.27 1.27)) (justify right))
    (uuid 84e568f3-9cd4-4ea1-8ec7-391456f0773a)
  )
  (hierarchical_label "IMU_MOSI" (shape input) (at 78.74 83.82 180) (fields_autoplaced)
    (effects (font (size 1.27 1.27)) (justify right))
    (uuid 89fdc543-b108-4009-b803-756d2b6757a6)
  )
  (hierarchical_label "ICM_INT2" (shape output) (at 101.6 135.89 180) (fields_autoplaced)
    (effects (font (size 1.27 1.27)) (justify right))
    (uuid 8a3f2799-1ea8-42a1-96dd-ac57b27a782a)
  )
  (hierarchical_label "IMU_GND" (shape input) (at 78.74 182.88 180) (fields_autoplaced)
    (effects (font (size 1.27 1.27)) (justify right))
    (uuid aebb166b-d1fb-48e2-91f5-6782ac02cf79)
  )
  (hierarchical_label "ICM_INT1" (shape output) (at 101.6 133.35 180) (fields_autoplaced)
    (effects (font (size 1.27 1.27)) (justify right))
    (uuid d792bb40-caaa-47be-95d3-31b06be1caa9)
  )
  (hierarchical_label "BMI_nCS" (shape input) (at 78.74 91.44 180) (fields_autoplaced)
    (effects (font (size 1.27 1.27)) (justify right))
    (uuid e18d00f9-b994-4348-9742-c328b5904090)
  )

  (symbol (lib_id "Device:C") (at 91.44 172.72 0) (mirror y) (unit 1)
    (in_bom yes) (on_board yes) (dnp no)
    (uuid 00000000-0000-0000-0000-00005ee70328)
    (property "Reference" "C3" (at 95.25 170.18 0)
      (effects (font (size 1.27 1.27)) (justify left))
    )
    (property "Value" "22uF/10V" (at 101.6 175.26 0)
      (effects (font (size 1.27 1.27)) (justify left))
    )
    (property "Footprint" "Capacitor_SMD:C_0805_2012Metric" (at 90.4748 176.53 0)
      (effects (font (size 1.27 1.27)) hide)
    )
    (property "Datasheet" "" (at 91.44 172.72 0)
      (effects (font (size 1.27 1.27)) hide)
    )
    (property "URL" "https://www.terraelectronica.ru/product/1641498" (at 91.44 172.72 0)
      (effects (font (size 1.27 1.27)) hide)
    )
    (pin "1" (uuid 0544542f-ea7e-43eb-b4e8-d3728ba8e000))
    (pin "2" (uuid 6042a2d9-0348-4af2-8c06-ea44af0af0ab))
    (instances
      (project "rbpi-z-hat"
        (path "/d99b0340-d795-4b40-9cde-9851c6cee99d/00000000-0000-0000-0000-00005ee06f22"
          (reference "C3") (unit 1)
        )
      )
    )
  )

  (sheet (at 113.03 119.38) (size 22.86 25.4) (fields_autoplaced)
    (stroke (width 0) (type solid))
    (fill (color 0 0 0 0.0000))
    (uuid 00000000-0000-0000-0000-00005ee07e0a)
    (property "Sheetname" "ICM-42688-P" (at 113.03 118.6684 0)
      (effects (font (size 1.27 1.27)) (justify left bottom))
    )
    (property "Sheetfile" "ICM-42688-P.kicad_sch" (at 113.03 145.3646 0)
      (effects (font (size 1.27 1.27)) (justify left top))
    )
    (pin "ICM_GND" input (at 113.03 142.24 180)
      (effects (font (size 1.27 1.27)) (justify left))
      (uuid 6d94df5a-738a-4836-95a3-cd4e2887569b)
    )
    (pin "ICM_VDD" input (at 113.03 139.7 180)
      (effects (font (size 1.27 1.27)) (justify left))
      (uuid fb65e0f9-744b-4030-bf41-cded1769917b)
    )
    (pin "ICM_MOSI" input (at 113.03 121.92 180)
      (effects (font (size 1.27 1.27)) (justify left))
      (uuid b93f0944-27a0-4c5c-94f4-785bedcccf49)
    )
    (pin "ICM_MISO" output (at 113.03 124.46 180)
      (effects (font (size 1.27 1.27)) (justify left))
      (uuid fbc81b80-f83c-45ff-b39a-b933f7eaca59)
    )
    (pin "ICM_SCLK" input (at 113.03 127 180)
      (effects (font (size 1.27 1.27)) (justify left))
      (uuid c8c5e790-b4ed-47ee-ba44-24d342e2c678)
    )
    (pin "ICM_nCS" input (at 113.03 129.54 180)
      (effects (font (size 1.27 1.27)) (justify left))
      (uuid 86031190-8317-4a06-960e-52ccd570a631)
    )
    (pin "ICM_INT1" output (at 113.03 133.35 180)
      (effects (font (size 1.27 1.27)) (justify left))
      (uuid 346d64e3-0ea1-40ab-ab46-d385203f5334)
    )
    (pin "ICM_INT2" output (at 113.03 135.89 180)
      (effects (font (size 1.27 1.27)) (justify left))
      (uuid 27fef81a-25a5-40d9-8718-9ab8784cb540)
    )
    (instances
      (project "rbpi-z-hat"
        (path "/d99b0340-d795-4b40-9cde-9851c6cee99d/00000000-0000-0000-0000-00005ee06f22" (page "8"))
      )
    )
  )

  (sheet (at 113.03 81.28) (size 15.24 25.4) (fields_autoplaced)
    (stroke (width 0.1524) (type solid))
    (fill (color 0 0 0 0.0000))
    (uuid 417d0916-599d-41c8-855a-be994a7c55cc)
    (property "Sheetname" "BMI160_QMI8658C" (at 113.03 80.5684 0)
      (effects (font (size 1.27 1.27)) (justify left bottom))
    )
    (property "Sheetfile" "BMI160_QMI8658C.kicad_sch" (at 113.03 107.2646 0)
      (effects (font (size 1.27 1.27)) (justify left top))
    )
    (pin "BMI_VDD" input (at 113.03 101.6 180)
      (effects (font (size 1.27 1.27)) (justify left))
      (uuid c8c6735c-d8b3-4004-b7bf-4bdc9095ac2a)
    )
    (pin "BMI_GND" input (at 113.03 104.14 180)
      (effects (font (size 1.27 1.27)) (justify left))
      (uuid a4fe295b-5082-4237-af99-d3a8be3a7c63)
    )
    (pin "BMI_INT1" output (at 113.03 97.79 180)
      (effects (font (size 1.27 1.27)) (justify left))
      (uuid 20400943-f544-4a2c-b160-0133cb10b589)
    )
    (pin "BMI_INT2" output (at 113.03 95.25 180)
      (effects (font (size 1.27 1.27)) (justify left))
      (uuid 25016d10-872a-45f3-a27f-24ab6888e7d3)
    )
    (pin "BMI_SDO" output (at 113.03 86.36 180)
      (effects (font (size 1.27 1.27)) (justify left))
      (uuid c01f91aa-b99b-4e52-bd6b-c585edf9f977)
    )
    (pin "BMI_nCS" input (at 113.03 91.44 180)
      (effects (font (size 1.27 1.27)) (justify left))
      (uuid 8e408369-a6d8-4991-8958-716b61ebdc29)
    )
    (pin "BMI_SCL" input (at 113.03 88.9 180)
      (effects (font (size 1.27 1.27)) (justify left))
      (uuid 5acf5687-59eb-452d-a55f-3db218600434)
    )
    (pin "BMI_SDI" input (at 113.03 83.82 180)
      (effects (font (size 1.27 1.27)) (justify left))
      (uuid e206295b-4204-4ac0-9dac-ff8f4f8c4f7e)
    )
    (instances
      (project "rbpi-z-hat"
        (path "/d99b0340-d795-4b40-9cde-9851c6cee99d/00000000-0000-0000-0000-00005ee06f22" (page "20"))
      )
    )
  )
)
