(kicad_sch (version 20230121) (generator eeschema)

  (uuid 7e9721e4-152d-4cb0-905e-36d99cbf5761)

  (paper "A4" portrait)

  (title_block
    (title "RasPi Zero NAV Hat")
    (date "2023-05-12")
    (rev "0.1")
    (company "chipiki.ru")
    (comment 1 "RasPi Zero NAV Hat")
    (comment 2 "Denis Tsekh")
  )

  (lib_symbols
    (symbol "Device:C" (pin_numbers hide) (pin_names (offset 0.254)) (in_bom yes) (on_board yes)
      (property "Reference" "C" (at 0.635 2.54 0)
        (effects (font (size 1.27 1.27)) (justify left))
      )
      (property "Value" "C" (at 0.635 -2.54 0)
        (effects (font (size 1.27 1.27)) (justify left))
      )
      (property "Footprint" "" (at 0.9652 -3.81 0)
        (effects (font (size 1.27 1.27)) hide)
      )
      (property "Datasheet" "~" (at 0 0 0)
        (effects (font (size 1.27 1.27)) hide)
      )
      (property "ki_keywords" "cap capacitor" (at 0 0 0)
        (effects (font (size 1.27 1.27)) hide)
      )
      (property "ki_description" "Unpolarized capacitor" (at 0 0 0)
        (effects (font (size 1.27 1.27)) hide)
      )
      (property "ki_fp_filters" "C_*" (at 0 0 0)
        (effects (font (size 1.27 1.27)) hide)
      )
      (symbol "C_0_1"
        (polyline
          (pts
            (xy -2.032 -0.762)
            (xy 2.032 -0.762)
          )
          (stroke (width 0.508) (type default))
          (fill (type none))
        )
        (polyline
          (pts
            (xy -2.032 0.762)
            (xy 2.032 0.762)
          )
          (stroke (width 0.508) (type default))
          (fill (type none))
        )
      )
      (symbol "C_1_1"
        (pin passive line (at 0 3.81 270) (length 2.794)
          (name "~" (effects (font (size 1.27 1.27))))
          (number "1" (effects (font (size 1.27 1.27))))
        )
        (pin passive line (at 0 -3.81 90) (length 2.794)
          (name "~" (effects (font (size 1.27 1.27))))
          (number "2" (effects (font (size 1.27 1.27))))
        )
      )
    )
    (symbol "Jumper:SolderJumper_3_Open" (pin_names (offset 0) hide) (in_bom yes) (on_board yes)
      (property "Reference" "JP" (at -2.54 -2.54 0)
        (effects (font (size 1.27 1.27)))
      )
      (property "Value" "SolderJumper_3_Open" (at 0 2.794 0)
        (effects (font (size 1.27 1.27)))
      )
      (property "Footprint" "" (at 0 0 0)
        (effects (font (size 1.27 1.27)) hide)
      )
      (property "Datasheet" "~" (at 0 0 0)
        (effects (font (size 1.27 1.27)) hide)
      )
      (property "ki_keywords" "Solder Jumper SPDT" (at 0 0 0)
        (effects (font (size 1.27 1.27)) hide)
      )
      (property "ki_description" "Solder Jumper, 3-pole, open" (at 0 0 0)
        (effects (font (size 1.27 1.27)) hide)
      )
      (property "ki_fp_filters" "SolderJumper*Open*" (at 0 0 0)
        (effects (font (size 1.27 1.27)) hide)
      )
      (symbol "SolderJumper_3_Open_0_1"
        (arc (start -1.016 1.016) (mid -2.0276 0) (end -1.016 -1.016)
          (stroke (width 0) (type default))
          (fill (type none))
        )
        (arc (start -1.016 1.016) (mid -2.0276 0) (end -1.016 -1.016)
          (stroke (width 0) (type default))
          (fill (type outline))
        )
        (rectangle (start -0.508 1.016) (end 0.508 -1.016)
          (stroke (width 0) (type default))
          (fill (type outline))
        )
        (polyline
          (pts
            (xy -2.54 0)
            (xy -2.032 0)
          )
          (stroke (width 0) (type default))
          (fill (type none))
        )
        (polyline
          (pts
            (xy -1.016 1.016)
            (xy -1.016 -1.016)
          )
          (stroke (width 0) (type default))
          (fill (type none))
        )
        (polyline
          (pts
            (xy 0 -1.27)
            (xy 0 -1.016)
          )
          (stroke (width 0) (type default))
          (fill (type none))
        )
        (polyline
          (pts
            (xy 1.016 1.016)
            (xy 1.016 -1.016)
          )
          (stroke (width 0) (type default))
          (fill (type none))
        )
        (polyline
          (pts
            (xy 2.54 0)
            (xy 2.032 0)
          )
          (stroke (width 0) (type default))
          (fill (type none))
        )
        (arc (start 1.016 -1.016) (mid 2.0276 0) (end 1.016 1.016)
          (stroke (width 0) (type default))
          (fill (type none))
        )
        (arc (start 1.016 -1.016) (mid 2.0276 0) (end 1.016 1.016)
          (stroke (width 0) (type default))
          (fill (type outline))
        )
      )
      (symbol "SolderJumper_3_Open_1_1"
        (pin passive line (at -5.08 0 0) (length 2.54)
          (name "A" (effects (font (size 1.27 1.27))))
          (number "1" (effects (font (size 1.27 1.27))))
        )
        (pin passive line (at 0 -3.81 90) (length 2.54)
          (name "C" (effects (font (size 1.27 1.27))))
          (number "2" (effects (font (size 1.27 1.27))))
        )
        (pin passive line (at 5.08 0 180) (length 2.54)
          (name "B" (effects (font (size 1.27 1.27))))
          (number "3" (effects (font (size 1.27 1.27))))
        )
      )
    )
    (symbol "Sensor_Magnetic:IST8310" (in_bom yes) (on_board yes)
      (property "Reference" "U" (at -7.62 11.43 0)
        (effects (font (size 1.27 1.27)))
      )
      (property "Value" "IST8310" (at 10.16 11.43 0)
        (effects (font (size 1.27 1.27)))
      )
      (property "Footprint" "Package_LGA:LGA-16_3x3mm_P0.5mm" (at 0 0 0)
        (effects (font (size 1.27 1.27)) hide)
      )
      (property "Datasheet" "http://www.isentek.com/en/dlf.php?file=../ISENTEK/(201703-09)IST8310%20Datasheet%20v1.2_brief-105.09.20.pdf" (at 0 0 0)
        (effects (font (size 1.27 1.27)) hide)
      )
      (property "ki_keywords" "magnet field sensor compass" (at 0 0 0)
        (effects (font (size 1.27 1.27)) hide)
      )
      (property "ki_description" "3D Magnetometer, I2C Interface, LGA-16" (at 0 0 0)
        (effects (font (size 1.27 1.27)) hide)
      )
      (property "ki_fp_filters" "LGA*3x3mm*P0.5mm*" (at 0 0 0)
        (effects (font (size 1.27 1.27)) hide)
      )
      (symbol "IST8310_0_1"
        (rectangle (start -7.62 10.16) (end 7.62 -10.16)
          (stroke (width 0.254) (type default))
          (fill (type background))
        )
      )
      (symbol "IST8310_1_1"
        (pin input line (at -10.16 0 0) (length 2.54)
          (name "SCL" (effects (font (size 1.27 1.27))))
          (number "1" (effects (font (size 1.27 1.27))))
        )
        (pin passive line (at 10.16 2.54 180) (length 2.54)
          (name "C1" (effects (font (size 1.27 1.27))))
          (number "10" (effects (font (size 1.27 1.27))))
        )
        (pin passive line (at 0 -12.7 90) (length 2.54) hide
          (name "VSS" (effects (font (size 1.27 1.27))))
          (number "11" (effects (font (size 1.27 1.27))))
        )
        (pin no_connect line (at 7.62 7.62 180) (length 2.54) hide
          (name "NC" (effects (font (size 1.27 1.27))))
          (number "12" (effects (font (size 1.27 1.27))))
        )
        (pin power_in line (at 0 12.7 270) (length 2.54)
          (name "DVDD" (effects (font (size 1.27 1.27))))
          (number "13" (effects (font (size 1.27 1.27))))
        )
        (pin input line (at -10.16 -7.62 0) (length 2.54)
          (name "~{RST}" (effects (font (size 1.27 1.27))))
          (number "14" (effects (font (size 1.27 1.27))))
        )
        (pin output line (at -10.16 -2.54 0) (length 2.54)
          (name "DRDY" (effects (font (size 1.27 1.27))))
          (number "15" (effects (font (size 1.27 1.27))))
        )
        (pin bidirectional line (at -10.16 2.54 0) (length 2.54)
          (name "SDA" (effects (font (size 1.27 1.27))))
          (number "16" (effects (font (size 1.27 1.27))))
        )
        (pin power_in line (at -2.54 12.7 270) (length 2.54)
          (name "AVDD" (effects (font (size 1.27 1.27))))
          (number "2" (effects (font (size 1.27 1.27))))
        )
        (pin no_connect line (at -7.62 7.62 0) (length 2.54) hide
          (name "NC" (effects (font (size 1.27 1.27))))
          (number "3" (effects (font (size 1.27 1.27))))
        )
        (pin no_connect line (at -7.62 5.08 0) (length 2.54) hide
          (name "NC" (effects (font (size 1.27 1.27))))
          (number "4" (effects (font (size 1.27 1.27))))
        )
        (pin input line (at 10.16 -5.08 180) (length 2.54)
          (name "CAD0" (effects (font (size 1.27 1.27))))
          (number "5" (effects (font (size 1.27 1.27))))
        )
        (pin input line (at 10.16 -7.62 180) (length 2.54)
          (name "CAD1" (effects (font (size 1.27 1.27))))
          (number "6" (effects (font (size 1.27 1.27))))
        )
        (pin passive line (at 2.54 12.7 270) (length 2.54)
          (name "VPP" (effects (font (size 1.27 1.27))))
          (number "7" (effects (font (size 1.27 1.27))))
        )
        (pin no_connect line (at 7.62 5.08 180) (length 2.54) hide
          (name "NC" (effects (font (size 1.27 1.27))))
          (number "8" (effects (font (size 1.27 1.27))))
        )
        (pin power_in line (at 0 -12.7 90) (length 2.54)
          (name "VSS" (effects (font (size 1.27 1.27))))
          (number "9" (effects (font (size 1.27 1.27))))
        )
      )
    )
  )

  (junction (at 142.24 148.59) (diameter 0) (color 0 0 0 0)
    (uuid 12f2baf7-0259-41b1-94a4-0e00ca758145)
  )
  (junction (at 115.57 115.57) (diameter 0) (color 0 0 0 0)
    (uuid 35c539c2-e301-4703-afa8-d460e628e2e1)
  )
  (junction (at 128.27 125.73) (diameter 0) (color 0 0 0 0)
    (uuid 4761630d-9be9-4cff-a659-b36f332094f2)
  )
  (junction (at 113.03 158.75) (diameter 0) (color 0 0 0 0)
    (uuid 84476d94-1ee9-4ccc-b21c-3632e1647d18)
  )
  (junction (at 113.03 115.57) (diameter 0) (color 0 0 0 0)
    (uuid 852a97df-d06f-4403-824e-43440451afc7)
  )
  (junction (at 132.08 115.57) (diameter 0) (color 0 0 0 0)
    (uuid b2c11cf7-600d-4cad-ab32-7155e8ea102a)
  )
  (junction (at 142.24 177.8) (diameter 0) (color 0 0 0 0)
    (uuid ce3c86ee-04c6-478a-bd2c-d51cfe9bd480)
  )
  (junction (at 110.49 115.57) (diameter 0) (color 0 0 0 0)
    (uuid eb367f17-006b-4fa4-a423-711b6468abf3)
  )
  (junction (at 124.46 115.57) (diameter 0) (color 0 0 0 0)
    (uuid ef2c2efb-b722-4c51-95d5-d39dd20807b1)
  )

  (wire (pts (xy 82.55 115.57) (xy 110.49 115.57))
    (stroke (width 0) (type default))
    (uuid 02c5bc22-d6a5-420e-9467-c10ced6039f6)
  )
  (wire (pts (xy 124.46 168.91) (xy 144.78 168.91))
    (stroke (width 0) (type default))
    (uuid 075971d6-aef8-446b-9aae-0c0be58b3e1a)
  )
  (wire (pts (xy 132.08 124.46) (xy 132.08 125.73))
    (stroke (width 0) (type default))
    (uuid 15e8eb91-24e4-40eb-b9a6-254b92b71049)
  )
  (wire (pts (xy 128.27 125.73) (xy 132.08 125.73))
    (stroke (width 0) (type default))
    (uuid 1609c1ea-a990-4116-baa3-3bc88f87e64d)
  )
  (wire (pts (xy 132.08 115.57) (xy 124.46 115.57))
    (stroke (width 0) (type default))
    (uuid 16f6a019-3c28-4296-a811-70b3400c3675)
  )
  (wire (pts (xy 148.59 163.83) (xy 148.59 148.59))
    (stroke (width 0) (type default))
    (uuid 19b5f63e-ddba-4f56-948c-97283d9ad00a)
  )
  (wire (pts (xy 142.24 148.59) (xy 142.24 153.67))
    (stroke (width 0) (type default))
    (uuid 1e106946-d4fe-4e79-bb74-cf173814d508)
  )
  (wire (pts (xy 129.54 146.05) (xy 138.43 146.05))
    (stroke (width 0) (type default))
    (uuid 2f1802e5-ef14-4545-b0bc-acf0e3ef0d3c)
  )
  (wire (pts (xy 82.55 149.86) (xy 102.87 149.86))
    (stroke (width 0) (type default))
    (uuid 2fb1690a-101f-4cd0-9b65-f7d7d4af95d9)
  )
  (wire (pts (xy 123.19 147.32) (xy 127 147.32))
    (stroke (width 0) (type default))
    (uuid 3645ed04-2525-4279-9c83-0ae87dd34160)
  )
  (wire (pts (xy 124.46 124.46) (xy 124.46 125.73))
    (stroke (width 0) (type default))
    (uuid 364de71f-7d6b-4dff-a64d-57aa36beb258)
  )
  (wire (pts (xy 82.55 144.78) (xy 102.87 144.78))
    (stroke (width 0) (type default))
    (uuid 3d4866a9-c618-4c54-909c-55629c436b0e)
  )
  (wire (pts (xy 132.08 116.84) (xy 132.08 115.57))
    (stroke (width 0) (type default))
    (uuid 496b2137-cab5-4f77-af53-23a8bb44d90b)
  )
  (wire (pts (xy 128.27 125.73) (xy 128.27 128.27))
    (stroke (width 0) (type default))
    (uuid 4b243ef7-b21a-42cf-9580-ab5d5087516a)
  )
  (wire (pts (xy 125.73 134.62) (xy 129.54 134.62))
    (stroke (width 0) (type default))
    (uuid 4c9c2d08-65a6-4e08-8c6e-451cd574108b)
  )
  (wire (pts (xy 125.73 139.7) (xy 125.73 134.62))
    (stroke (width 0) (type default))
    (uuid 515eeb56-11f2-4469-944b-f883c1958a83)
  )
  (wire (pts (xy 132.08 115.57) (xy 142.24 115.57))
    (stroke (width 0) (type default))
    (uuid 59ea8ed6-7546-4039-9081-bf4a3437cc90)
  )
  (wire (pts (xy 142.24 163.83) (xy 142.24 177.8))
    (stroke (width 0) (type default))
    (uuid 5e9f801f-8bd6-4607-8e66-a50c209f6188)
  )
  (wire (pts (xy 148.59 177.8) (xy 148.59 173.99))
    (stroke (width 0) (type default))
    (uuid 5ebcc8ab-f5ae-47ce-a46b-deca7e019063)
  )
  (wire (pts (xy 113.03 177.8) (xy 142.24 177.8))
    (stroke (width 0) (type default))
    (uuid 63bc911d-f37b-4337-91ff-37469d8efb5d)
  )
  (wire (pts (xy 96.52 158.75) (xy 113.03 158.75))
    (stroke (width 0) (type default))
    (uuid 667a7b15-a971-44a2-8c7a-f76c885c7862)
  )
  (wire (pts (xy 82.55 142.24) (xy 102.87 142.24))
    (stroke (width 0) (type default))
    (uuid 6f2b9790-fe81-470d-aeb1-a2297a3ae757)
  )
  (wire (pts (xy 115.57 115.57) (xy 124.46 115.57))
    (stroke (width 0) (type default))
    (uuid 74176a08-c337-4a59-ae3d-bdd2eee8c0a3)
  )
  (wire (pts (xy 110.49 115.57) (xy 113.03 115.57))
    (stroke (width 0) (type default))
    (uuid 752c3bc9-f042-483c-896a-c0d78eb33550)
  )
  (wire (pts (xy 124.46 125.73) (xy 128.27 125.73))
    (stroke (width 0) (type default))
    (uuid 76013f40-77c3-412a-9338-ed7b096f1fb6)
  )
  (wire (pts (xy 124.46 149.86) (xy 124.46 168.91))
    (stroke (width 0) (type default))
    (uuid 7942e0cc-b22d-4f6e-9073-7a6e4805ff5a)
  )
  (wire (pts (xy 129.54 134.62) (xy 129.54 135.89))
    (stroke (width 0) (type default))
    (uuid 7b1aee7d-0e0f-4ce3-b734-610997df3e01)
  )
  (wire (pts (xy 142.24 115.57) (xy 142.24 148.59))
    (stroke (width 0) (type default))
    (uuid 831c36f1-7dba-4f9b-8cca-9bebd43960c8)
  )
  (wire (pts (xy 127 158.75) (xy 138.43 158.75))
    (stroke (width 0) (type default))
    (uuid 84f29654-b98f-41b1-a7a0-04975073c9ae)
  )
  (wire (pts (xy 128.27 128.27) (xy 137.16 128.27))
    (stroke (width 0) (type default))
    (uuid 8586723c-08bd-4872-bd9d-6f8f54b2ab4f)
  )
  (wire (pts (xy 124.46 115.57) (xy 124.46 116.84))
    (stroke (width 0) (type default))
    (uuid 89930bdc-c081-4bb7-af1c-b868d049a6b9)
  )
  (wire (pts (xy 115.57 115.57) (xy 115.57 129.54))
    (stroke (width 0) (type default))
    (uuid 8e0050d4-e298-476a-95ba-78ae3da844cb)
  )
  (wire (pts (xy 82.55 139.7) (xy 102.87 139.7))
    (stroke (width 0) (type default))
    (uuid 9848a5d9-7e3e-43e3-b48f-5afbdf5d65ce)
  )
  (wire (pts (xy 113.03 158.75) (xy 113.03 177.8))
    (stroke (width 0) (type default))
    (uuid a376e3bb-8ee9-4edb-96db-713e782e0968)
  )
  (wire (pts (xy 113.03 115.57) (xy 113.03 129.54))
    (stroke (width 0) (type default))
    (uuid a4e90256-1749-41b0-8f2e-f3b34aabbb98)
  )
  (wire (pts (xy 110.49 115.57) (xy 110.49 129.54))
    (stroke (width 0) (type default))
    (uuid b2c087bb-8691-4563-8626-aed002fbc451)
  )
  (wire (pts (xy 148.59 148.59) (xy 142.24 148.59))
    (stroke (width 0) (type default))
    (uuid b2e80f7d-ba75-4166-9572-9f8a75297630)
  )
  (wire (pts (xy 123.19 139.7) (xy 125.73 139.7))
    (stroke (width 0) (type default))
    (uuid b79149ab-0ea0-4cdf-a5a2-5089f4cd33f2)
  )
  (wire (pts (xy 142.24 177.8) (xy 148.59 177.8))
    (stroke (width 0) (type default))
    (uuid ce46e393-93e4-428f-aa0d-098b7170dff1)
  )
  (wire (pts (xy 113.03 115.57) (xy 115.57 115.57))
    (stroke (width 0) (type default))
    (uuid d0e16f01-c0d8-4dcd-b913-6791d9ef2f36)
  )
  (wire (pts (xy 123.19 149.86) (xy 124.46 149.86))
    (stroke (width 0) (type default))
    (uuid d86dc2f4-30fa-4445-a062-3ea316f1187e)
  )
  (wire (pts (xy 113.03 158.75) (xy 113.03 154.94))
    (stroke (width 0) (type default))
    (uuid dd2c4ad4-8bd9-406b-95bb-2fa5daab90ea)
  )
  (wire (pts (xy 129.54 143.51) (xy 129.54 146.05))
    (stroke (width 0) (type default))
    (uuid de735dee-7aee-49cb-96a4-ff7af87125b7)
  )
  (wire (pts (xy 127 147.32) (xy 127 158.75))
    (stroke (width 0) (type default))
    (uuid e57df308-1a42-4c5b-9e11-5ec4de4a58fa)
  )

  (label "IST_GND" (at 101.6 158.75 0) (fields_autoplaced)
    (effects (font (size 1.27 1.27)) (justify left bottom))
    (uuid 2596bd4e-5b0d-404d-8252-987f5294a3e3)
  )
  (label "IST_GND" (at 138.43 146.05 180) (fields_autoplaced)
    (effects (font (size 1.27 1.27)) (justify right bottom))
    (uuid 8fd68e45-9b5f-45cb-94f6-1dbbf11dfe39)
  )
  (label "IST_GND" (at 137.16 128.27 180) (fields_autoplaced)
    (effects (font (size 1.27 1.27)) (justify right bottom))
    (uuid ef29a65d-5860-46ac-b2eb-1cc1999c215c)
  )

  (hierarchical_label "IST_SDA" (shape bidirectional) (at 82.55 139.7 180) (fields_autoplaced)
    (effects (font (size 1.27 1.27)) (justify right))
    (uuid 42ff5e3b-41b6-443b-97fa-49b9b25c6c33)
  )
  (hierarchical_label "IST_VDD" (shape input) (at 82.55 115.57 180) (fields_autoplaced)
    (effects (font (size 1.27 1.27)) (justify right))
    (uuid 46e0326a-ddc7-4045-a847-d7f4763f6c39)
  )
  (hierarchical_label "IST_nRST" (shape input) (at 82.55 149.86 180) (fields_autoplaced)
    (effects (font (size 1.27 1.27)) (justify right))
    (uuid 68ce3876-70ec-4f52-98e7-50458c5fbf23)
  )
  (hierarchical_label "IST_DRDY" (shape output) (at 82.55 144.78 180) (fields_autoplaced)
    (effects (font (size 1.27 1.27)) (justify right))
    (uuid 8b828d41-22e9-4f13-810f-ab1598b75174)
  )
  (hierarchical_label "IST_GND" (shape input) (at 96.52 158.75 180) (fields_autoplaced)
    (effects (font (size 1.27 1.27)) (justify right))
    (uuid d34dd8b8-3af8-4519-88ce-8cf59e280b53)
  )
  (hierarchical_label "IST_SCL" (shape input) (at 82.55 142.24 180) (fields_autoplaced)
    (effects (font (size 1.27 1.27)) (justify right))
    (uuid f11e609b-ae19-4f4c-8036-185665b38551)
  )

  (symbol (lib_id "Jumper:SolderJumper_3_Open") (at 142.24 158.75 270) (unit 1)
    (in_bom yes) (on_board yes) (dnp no) (fields_autoplaced)
    (uuid 297c4c59-d5f9-4fa4-8816-94594991aea6)
    (property "Reference" "JP3" (at 144.78 157.48 90)
      (effects (font (size 1.27 1.27)) (justify left))
    )
    (property "Value" "SolderJumper_3_Open" (at 144.78 160.02 90)
      (effects (font (size 1.27 1.27)) (justify left))
    )
    (property "Footprint" "Jumper:SolderJumper-3_P1.3mm_Open_RoundedPad1.0x1.5mm_NumberLabels" (at 142.24 158.75 0)
      (effects (font (size 1.27 1.27)) hide)
    )
    (property "Datasheet" "~" (at 142.24 158.75 0)
      (effects (font (size 1.27 1.27)) hide)
    )
    (pin "1" (uuid 6c4c7d61-4bf7-42f6-a5bb-652210c9aa81))
    (pin "3" (uuid 4caa99bf-f17c-4028-92ff-cc1227cb32b5))
    (pin "2" (uuid be32791e-f3a7-4180-bf6f-6805f519f50e))
    (instances
      (project "rbpi-z-hat"
        (path "/d99b0340-d795-4b40-9cde-9851c6cee99d/740a9ed9-3c23-4e4f-8dd1-04f07ce4215e/6911857f-8b28-442d-83af-e9e9a964ef3c"
          (reference "JP3") (unit 1)
        )
      )
    )
  )

  (symbol (lib_id "Device:C") (at 124.46 120.65 0) (unit 1)
    (in_bom yes) (on_board yes) (dnp no)
    (uuid 4ebf4f0b-ff61-4af0-a253-c4d6b7153b3a)
    (property "Reference" "C6" (at 124.46 118.11 0)
      (effects (font (size 1.27 1.27)) (justify left))
    )
    (property "Value" "0.1uF" (at 124.46 123.19 0)
      (effects (font (size 1.27 1.27)) (justify left))
    )
    (property "Footprint" "Capacitor_SMD:C_0402_1005Metric" (at 125.4252 124.46 0)
      (effects (font (size 1.27 1.27)) hide)
    )
    (property "Datasheet" "~" (at 124.46 120.65 0)
      (effects (font (size 1.27 1.27)) hide)
    )
    (pin "1" (uuid 5fceddde-892a-435e-ba0b-5906cca241c2))
    (pin "2" (uuid a44f1fc3-9771-4f58-b1de-71a78f9d9c61))
    (instances
      (project "rbpi-z-hat"
        (path "/d99b0340-d795-4b40-9cde-9851c6cee99d/740a9ed9-3c23-4e4f-8dd1-04f07ce4215e/6911857f-8b28-442d-83af-e9e9a964ef3c"
          (reference "C6") (unit 1)
        )
      )
    )
  )

  (symbol (lib_id "Sensor_Magnetic:IST8310") (at 113.03 142.24 0) (unit 1)
    (in_bom yes) (on_board yes) (dnp no)
    (uuid a3e2f35a-0523-4779-95d5-57ae6c28e32e)
    (property "Reference" "U3" (at 116.84 130.81 0)
      (effects (font (size 1.27 1.27)) (justify left))
    )
    (property "Value" "IST8310" (at 113.03 142.24 90)
      (effects (font (size 1.27 1.27) bold))
    )
    (property "Footprint" "Package_LGA:LGA-16_3x3mm_P0.5mm" (at 113.03 142.24 0)
      (effects (font (size 1.27 1.27)) hide)
    )
    (property "Datasheet" "http://www.isentek.com/en/dlf.php?file=../ISENTEK/(201703-09)IST8310%20Datasheet%20v1.2_brief-105.09.20.pdf" (at 113.03 142.24 0)
      (effects (font (size 1.27 1.27)) hide)
    )
    (pin "1" (uuid 2b0ff45a-08e9-4d02-84f3-4be3be4fa6e4))
    (pin "14" (uuid b07f647f-e207-45a9-a1f9-3b32037aa61d))
    (pin "13" (uuid 3d9d005e-a20a-4c1a-a9e9-0b9e799e230f))
    (pin "4" (uuid e7b6b55b-bb76-451a-86fc-455a7ed16e11))
    (pin "2" (uuid 942a69ca-1302-43f0-a854-0cb687eae225))
    (pin "6" (uuid f8b08538-7d10-42d3-926f-098d8a56f5db))
    (pin "5" (uuid 0668aac0-6e6b-4f7e-9080-1e9514b56bf0))
    (pin "10" (uuid 1a3ea867-5055-4a7a-ac00-b2959f615647))
    (pin "7" (uuid ee12c943-15e7-43b2-9334-480bc8ab2899))
    (pin "12" (uuid 10d777b1-6412-4e91-837e-d03e1d63d1f0))
    (pin "15" (uuid 4bb063d5-22e4-40b1-b87b-327a5ae8d2ff))
    (pin "3" (uuid 5a398a41-5f8a-4768-bc4d-442691e5d31e))
    (pin "9" (uuid ff30180f-befc-4f18-9a0d-dc8184a2308b))
    (pin "16" (uuid 8efc04cf-d5d8-4037-9a99-59265d81a230))
    (pin "8" (uuid a211b1c5-a438-43c7-ba0d-5cc92a9fbc79))
    (pin "11" (uuid 2132056f-4403-4574-afdd-0abd73370fa0))
    (instances
      (project "rbpi-z-hat"
        (path "/d99b0340-d795-4b40-9cde-9851c6cee99d/740a9ed9-3c23-4e4f-8dd1-04f07ce4215e/6911857f-8b28-442d-83af-e9e9a964ef3c"
          (reference "U3") (unit 1)
        )
      )
    )
  )

  (symbol (lib_id "Device:C") (at 132.08 120.65 0) (unit 1)
    (in_bom yes) (on_board yes) (dnp no)
    (uuid b3b3bec0-d6fb-45fb-a43d-b6d4f0cbf866)
    (property "Reference" "C7" (at 132.08 118.11 0)
      (effects (font (size 1.27 1.27)) (justify left))
    )
    (property "Value" "0.1uF" (at 132.08 123.19 0)
      (effects (font (size 1.27 1.27)) (justify left))
    )
    (property "Footprint" "Capacitor_SMD:C_0402_1005Metric" (at 133.0452 124.46 0)
      (effects (font (size 1.27 1.27)) hide)
    )
    (property "Datasheet" "~" (at 132.08 120.65 0)
      (effects (font (size 1.27 1.27)) hide)
    )
    (pin "1" (uuid 54156c0c-1d69-480e-8a6b-fe1006f6b840))
    (pin "2" (uuid 838737c2-eb84-4880-9d1b-7e61967f8374))
    (instances
      (project "rbpi-z-hat"
        (path "/d99b0340-d795-4b40-9cde-9851c6cee99d/740a9ed9-3c23-4e4f-8dd1-04f07ce4215e/6911857f-8b28-442d-83af-e9e9a964ef3c"
          (reference "C7") (unit 1)
        )
      )
    )
  )

  (symbol (lib_id "Device:C") (at 129.54 139.7 0) (unit 1)
    (in_bom yes) (on_board yes) (dnp no)
    (uuid d1853da4-7ae9-4d89-8b7f-7d80370bcb9d)
    (property "Reference" "C10" (at 129.54 137.16 0)
      (effects (font (size 1.27 1.27)) (justify left))
    )
    (property "Value" "4.7uF" (at 129.54 142.24 0)
      (effects (font (size 1.27 1.27)) (justify left))
    )
    (property "Footprint" "Capacitor_SMD:C_0402_1005Metric" (at 130.5052 143.51 0)
      (effects (font (size 1.27 1.27)) hide)
    )
    (property "Datasheet" "~" (at 129.54 139.7 0)
      (effects (font (size 1.27 1.27)) hide)
    )
    (pin "1" (uuid b8329034-3af7-4a87-863c-1a93a7c3f7d5))
    (pin "2" (uuid fb840b76-904a-41c5-a1f0-c567eea27a23))
    (instances
      (project "rbpi-z-hat"
        (path "/d99b0340-d795-4b40-9cde-9851c6cee99d/740a9ed9-3c23-4e4f-8dd1-04f07ce4215e/6911857f-8b28-442d-83af-e9e9a964ef3c"
          (reference "C10") (unit 1)
        )
      )
    )
  )

  (symbol (lib_id "Jumper:SolderJumper_3_Open") (at 148.59 168.91 270) (unit 1)
    (in_bom yes) (on_board yes) (dnp no) (fields_autoplaced)
    (uuid debcb43a-1afe-4d87-bf5b-1e3bcebbe293)
    (property "Reference" "JP1" (at 151.13 167.64 90)
      (effects (font (size 1.27 1.27)) (justify left))
    )
    (property "Value" "SolderJumper_3_Open" (at 151.13 170.18 90)
      (effects (font (size 1.27 1.27)) (justify left))
    )
    (property "Footprint" "Jumper:SolderJumper-3_P1.3mm_Open_RoundedPad1.0x1.5mm_NumberLabels" (at 148.59 168.91 0)
      (effects (font (size 1.27 1.27)) hide)
    )
    (property "Datasheet" "~" (at 148.59 168.91 0)
      (effects (font (size 1.27 1.27)) hide)
    )
    (pin "1" (uuid 31ac16eb-eb37-46da-ab06-135b6aa89187))
    (pin "3" (uuid 11851fa4-f0a9-44d0-97e8-501e0d964442))
    (pin "2" (uuid 2e5531f8-b424-436d-8391-82210a1d3149))
    (instances
      (project "rbpi-z-hat"
        (path "/d99b0340-d795-4b40-9cde-9851c6cee99d/740a9ed9-3c23-4e4f-8dd1-04f07ce4215e/6911857f-8b28-442d-83af-e9e9a964ef3c"
          (reference "JP1") (unit 1)
        )
      )
    )
  )
)
