(kicad_sch (version 20230121) (generator eeschema)

  (uuid e8461c82-a615-4b22-98e7-722fd8eb04e2)

  (paper "A4" portrait)

  (title_block
    (title "RasPi Zero NAV Hat")
    (date "2023-05-12")
    (rev "0.1")
    (company "chipiki.ru")
    (comment 1 "RasPi Zero NAV Hat")
    (comment 2 "Denis Tsekh")
  )

  (lib_symbols
  )

  (junction (at 95.25 139.7) (diameter 0) (color 0 0 0 0)
    (uuid 48e77901-cd7a-4bc7-8534-11d5975bffc7)
  )
  (junction (at 104.14 128.27) (diameter 0) (color 0 0 0 0)
    (uuid a604f59a-ca87-4319-8cac-99260504020f)
  )
  (junction (at 97.79 142.24) (diameter 0) (color 0 0 0 0)
    (uuid b0ebf023-e6d5-41c7-8142-b7128ab03259)
  )
  (junction (at 101.6 125.73) (diameter 0) (color 0 0 0 0)
    (uuid eada26fe-7bcf-485e-bc90-d965ade3f3b4)
  )

  (wire (pts (xy 91.44 142.24) (xy 97.79 142.24))
    (stroke (width 0) (type default))
    (uuid 0f5d75fa-1b5c-4941-ad2d-cfed46623ac1)
  )
  (wire (pts (xy 91.44 125.73) (xy 101.6 125.73))
    (stroke (width 0) (type default))
    (uuid 32ef62e6-6291-4918-a662-445de89e9bef)
  )
  (wire (pts (xy 104.14 128.27) (xy 106.68 128.27))
    (stroke (width 0) (type default))
    (uuid 42b21252-f45b-4946-ad9f-3b61bfbbdcd1)
  )
  (wire (pts (xy 91.44 132.08) (xy 106.68 132.08))
    (stroke (width 0) (type default))
    (uuid 486820b0-8163-48a3-a968-1cbab8082a04)
  )
  (wire (pts (xy 104.14 128.27) (xy 104.14 161.29))
    (stroke (width 0) (type default))
    (uuid 609256cc-2dda-4b13-88e9-102d8fd1fc97)
  )
  (wire (pts (xy 91.44 128.27) (xy 104.14 128.27))
    (stroke (width 0) (type default))
    (uuid 80c2cfdd-29e7-42d3-a714-65ed5b10cae7)
  )
  (wire (pts (xy 104.14 161.29) (xy 106.68 161.29))
    (stroke (width 0) (type default))
    (uuid 90e6821f-3d32-44f3-a7eb-46bb8d819e00)
  )
  (wire (pts (xy 95.25 139.7) (xy 95.25 167.64))
    (stroke (width 0) (type default))
    (uuid 99053bb0-394a-4f56-ac5a-1b9eb7bc85ec)
  )
  (wire (pts (xy 97.79 170.18) (xy 106.68 170.18))
    (stroke (width 0) (type default))
    (uuid b87414bd-0164-40ea-851e-e544e3f0d0f1)
  )
  (wire (pts (xy 101.6 158.75) (xy 106.68 158.75))
    (stroke (width 0) (type default))
    (uuid c6925568-dc02-4f81-9a74-5c2c2476796a)
  )
  (wire (pts (xy 95.25 139.7) (xy 106.68 139.7))
    (stroke (width 0) (type default))
    (uuid c74af70d-b415-4dba-9c4a-61ed11551803)
  )
  (wire (pts (xy 91.44 134.62) (xy 106.68 134.62))
    (stroke (width 0) (type default))
    (uuid c784c0db-5f63-4a18-8e3b-e1762fbe71c4)
  )
  (wire (pts (xy 91.44 163.83) (xy 106.68 163.83))
    (stroke (width 0) (type default))
    (uuid ca3ed7e6-128e-4666-90c3-87ead62bc734)
  )
  (wire (pts (xy 97.79 142.24) (xy 106.68 142.24))
    (stroke (width 0) (type default))
    (uuid d8177454-d6d0-4060-95ee-bdf8b08fdd3f)
  )
  (wire (pts (xy 95.25 167.64) (xy 106.68 167.64))
    (stroke (width 0) (type default))
    (uuid e94a8850-d05e-46bc-b8f3-afad6cfaa1bc)
  )
  (wire (pts (xy 91.44 139.7) (xy 95.25 139.7))
    (stroke (width 0) (type default))
    (uuid ecbd1580-dd7f-4625-9278-ea6a8ecc5515)
  )
  (wire (pts (xy 101.6 125.73) (xy 101.6 158.75))
    (stroke (width 0) (type default))
    (uuid ed1678cc-7b16-47d1-96a5-a34c0e4fbf20)
  )
  (wire (pts (xy 97.79 142.24) (xy 97.79 170.18))
    (stroke (width 0) (type default))
    (uuid f2391a76-5fb6-409b-872f-1e63513bec4c)
  )
  (wire (pts (xy 101.6 125.73) (xy 106.68 125.73))
    (stroke (width 0) (type default))
    (uuid fa0c40bc-d5a6-415e-96f4-8a1bdb6a9ff2)
  )

  (hierarchical_label "MAG_SDA" (shape bidirectional) (at 91.44 125.73 180) (fields_autoplaced)
    (effects (font (size 1.27 1.27)) (justify right))
    (uuid 2f00ca3c-5fde-4f07-8623-3ac134ec9bc3)
  )
  (hierarchical_label "MAG_SCL" (shape input) (at 91.44 128.27 180) (fields_autoplaced)
    (effects (font (size 1.27 1.27)) (justify right))
    (uuid 355c5c15-a27d-4f1b-9330-c8b457cb457a)
  )
  (hierarchical_label "MAG_GND" (shape input) (at 91.44 142.24 180) (fields_autoplaced)
    (effects (font (size 1.27 1.27)) (justify right))
    (uuid 36f7efbc-b2e3-4845-bbb5-a78a362c9369)
  )
  (hierarchical_label "MAG_IST_nRST" (shape input) (at 91.44 132.08 180) (fields_autoplaced)
    (effects (font (size 1.27 1.27)) (justify right))
    (uuid 58a82168-c3f9-4b92-9816-32cd4426ebbf)
  )
  (hierarchical_label "MAG_VDD" (shape input) (at 91.44 139.7 180) (fields_autoplaced)
    (effects (font (size 1.27 1.27)) (justify right))
    (uuid 75c73cab-ccba-49fa-bd85-9bfd92b20122)
  )
  (hierarchical_label "MAG_QMC_INT" (shape output) (at 91.44 163.83 180) (fields_autoplaced)
    (effects (font (size 1.27 1.27)) (justify right))
    (uuid 9481ccff-c706-46f5-80db-a347b981030a)
  )
  (hierarchical_label "MAG_IST_DRDY" (shape output) (at 91.44 134.62 180) (fields_autoplaced)
    (effects (font (size 1.27 1.27)) (justify right))
    (uuid b589a55f-b8a1-41a8-b634-af1340c33efb)
  )

  (sheet (at 106.68 156.21) (size 26.67 16.51) (fields_autoplaced)
    (stroke (width 0.1524) (type solid))
    (fill (color 0 0 0 0.0000))
    (uuid 42557423-f939-4503-bf60-cce5255c597a)
    (property "Sheetname" "QMC5883L" (at 106.68 155.4984 0)
      (effects (font (size 1.27 1.27)) (justify left bottom))
    )
    (property "Sheetfile" "QMC5883L.kicad_sch" (at 106.68 173.3046 0)
      (effects (font (size 1.27 1.27)) (justify left top))
    )
    (pin "QMC_VDD" input (at 106.68 167.64 180)
      (effects (font (size 1.27 1.27)) (justify left))
      (uuid 4416c465-7a88-4051-9543-e25562022fab)
    )
    (pin "QMC_SCL" input (at 106.68 161.29 180)
      (effects (font (size 1.27 1.27)) (justify left))
      (uuid f7ef3f66-a3e2-438a-9edc-130bc13ced62)
    )
    (pin "QMC_SDA" bidirectional (at 106.68 158.75 180)
      (effects (font (size 1.27 1.27)) (justify left))
      (uuid 97d99b1e-e595-4e1c-82a1-48ed155f2188)
    )
    (pin "QMC_GND" input (at 106.68 170.18 180)
      (effects (font (size 1.27 1.27)) (justify left))
      (uuid fb1110ea-0d9e-453e-b6cb-3ab16a9f50a9)
    )
    (pin "QMC_INT" output (at 106.68 163.83 180)
      (effects (font (size 1.27 1.27)) (justify left))
      (uuid 6ffd86da-5b48-45ce-8612-15b688a1206f)
    )
    (instances
      (project "rbpi-z-hat"
        (path "/d99b0340-d795-4b40-9cde-9851c6cee99d/740a9ed9-3c23-4e4f-8dd1-04f07ce4215e" (page "19"))
      )
    )
  )

  (sheet (at 106.68 123.19) (size 24.13 21.59) (fields_autoplaced)
    (stroke (width 0.1524) (type solid))
    (fill (color 0 0 0 0.0000))
    (uuid 6911857f-8b28-442d-83af-e9e9a964ef3c)
    (property "Sheetname" "IST8310" (at 106.68 122.4784 0)
      (effects (font (size 1.27 1.27)) (justify left bottom))
    )
    (property "Sheetfile" "IST8310.kicad_sch" (at 106.68 145.3646 0)
      (effects (font (size 1.27 1.27)) (justify left top))
    )
    (pin "IST_GND" input (at 106.68 142.24 180)
      (effects (font (size 1.27 1.27)) (justify left))
      (uuid 324edb74-3ca5-4dbd-b22e-ae801b1f0a30)
    )
    (pin "IST_VDD" input (at 106.68 139.7 180)
      (effects (font (size 1.27 1.27)) (justify left))
      (uuid 7a9f9010-241c-4033-9fb0-d1353d534bb7)
    )
    (pin "IST_SDA" bidirectional (at 106.68 125.73 180)
      (effects (font (size 1.27 1.27)) (justify left))
      (uuid fb2185d9-1c78-4127-9626-07bfcfe0b385)
    )
    (pin "IST_SCL" input (at 106.68 128.27 180)
      (effects (font (size 1.27 1.27)) (justify left))
      (uuid 084b68e7-99c7-4139-855d-58ce54819397)
    )
    (pin "IST_nRST" input (at 106.68 132.08 180)
      (effects (font (size 1.27 1.27)) (justify left))
      (uuid 6c75d9b9-9d7f-48bb-8115-c7aee27b9239)
    )
    (pin "IST_DRDY" output (at 106.68 134.62 180)
      (effects (font (size 1.27 1.27)) (justify left))
      (uuid face4d20-0d16-45e1-9172-17db528b213e)
    )
    (instances
      (project "rbpi-z-hat"
        (path "/d99b0340-d795-4b40-9cde-9851c6cee99d/740a9ed9-3c23-4e4f-8dd1-04f07ce4215e" (page "18"))
      )
    )
  )
)
