(kicad_sch (version 20230121) (generator eeschema)

  (uuid 7d2c7dfe-8d4c-4700-b986-1e7144b3b7e7)

  (paper "A4" portrait)

  (title_block
    (title "RasPi Zero NAV Hat")
    (date "2023-05-12")
    (rev "0.1")
    (company "chipiki.ru")
    (comment 1 "RasPi Zero NAV Hat")
    (comment 2 "Denis Tsekh")
  )

  (lib_symbols
    (symbol "Device:C" (pin_numbers hide) (pin_names (offset 0.254)) (in_bom yes) (on_board yes)
      (property "Reference" "C" (at 0.635 2.54 0)
        (effects (font (size 1.27 1.27)) (justify left))
      )
      (property "Value" "C" (at 0.635 -2.54 0)
        (effects (font (size 1.27 1.27)) (justify left))
      )
      (property "Footprint" "" (at 0.9652 -3.81 0)
        (effects (font (size 1.27 1.27)) hide)
      )
      (property "Datasheet" "~" (at 0 0 0)
        (effects (font (size 1.27 1.27)) hide)
      )
      (property "ki_keywords" "cap capacitor" (at 0 0 0)
        (effects (font (size 1.27 1.27)) hide)
      )
      (property "ki_description" "Unpolarized capacitor" (at 0 0 0)
        (effects (font (size 1.27 1.27)) hide)
      )
      (property "ki_fp_filters" "C_*" (at 0 0 0)
        (effects (font (size 1.27 1.27)) hide)
      )
      (symbol "C_0_1"
        (polyline
          (pts
            (xy -2.032 -0.762)
            (xy 2.032 -0.762)
          )
          (stroke (width 0.508) (type default))
          (fill (type none))
        )
        (polyline
          (pts
            (xy -2.032 0.762)
            (xy 2.032 0.762)
          )
          (stroke (width 0.508) (type default))
          (fill (type none))
        )
      )
      (symbol "C_1_1"
        (pin passive line (at 0 3.81 270) (length 2.794)
          (name "~" (effects (font (size 1.27 1.27))))
          (number "1" (effects (font (size 1.27 1.27))))
        )
        (pin passive line (at 0 -3.81 90) (length 2.794)
          (name "~" (effects (font (size 1.27 1.27))))
          (number "2" (effects (font (size 1.27 1.27))))
        )
      )
    )
    (symbol "MS5611:MS5611" (pin_names (offset 1.016)) (in_bom yes) (on_board yes)
      (property "Reference" "U" (at -6.35 11.43 0)
        (effects (font (size 1.524 1.524)))
      )
      (property "Value" "MS5611" (at -6.35 -10.16 0)
        (effects (font (size 1.524 1.524)))
      )
      (property "Footprint" "" (at 0 0 0)
        (effects (font (size 1.524 1.524)))
      )
      (property "Datasheet" "" (at 0 0 0)
        (effects (font (size 1.524 1.524)))
      )
      (property "ki_keywords" "MS5611" (at 0 0 0)
        (effects (font (size 1.27 1.27)) hide)
      )
      (property "ki_description" "MS5611 - barometric sensor with high resolution" (at 0 0 0)
        (effects (font (size 1.27 1.27)) hide)
      )
      (property "ki_fp_filters" "MS5611" (at 0 0 0)
        (effects (font (size 1.27 1.27)) hide)
      )
      (symbol "MS5611_0_1"
        (rectangle (start -10.16 8.89) (end 2.54 -8.89)
          (stroke (width 0) (type default))
          (fill (type none))
        )
      )
      (symbol "MS5611_1_1"
        (pin passive line (at 0 12.7 270) (length 3.81)
          (name "VDD" (effects (font (size 1.27 1.27))))
          (number "1" (effects (font (size 1.27 1.27))))
        )
        (pin passive line (at -13.97 -6.35 0) (length 3.81)
          (name "PS" (effects (font (size 1.27 1.27))))
          (number "2" (effects (font (size 1.27 1.27))))
        )
        (pin passive line (at 0 -12.7 90) (length 3.81)
          (name "GND" (effects (font (size 1.27 1.27))))
          (number "3" (effects (font (size 1.27 1.27))))
        )
        (pin passive line (at -13.97 6.35 0) (length 3.81)
          (name "CSB" (effects (font (size 1.27 1.27))))
          (number "4" (effects (font (size 1.27 1.27))))
        )
        (pin passive line (at -13.97 3.81 0) (length 3.81)
          (name "CSB" (effects (font (size 1.27 1.27))))
          (number "5" (effects (font (size 1.27 1.27))))
        )
        (pin passive line (at -13.97 1.27 0) (length 3.81)
          (name "SDO" (effects (font (size 1.27 1.27))))
          (number "6" (effects (font (size 1.27 1.27))))
        )
        (pin passive line (at -13.97 -1.27 0) (length 3.81)
          (name "SDI/SDA" (effects (font (size 1.27 1.27))))
          (number "7" (effects (font (size 1.27 1.27))))
        )
        (pin passive line (at -13.97 -3.81 0) (length 3.81)
          (name "SCLK" (effects (font (size 1.27 1.27))))
          (number "8" (effects (font (size 1.27 1.27))))
        )
      )
    )
  )

  (junction (at 92.71 148.59) (diameter 0) (color 0 0 0 0)
    (uuid 697985fd-a29f-4192-9065-02fdca063b2b)
  )
  (junction (at 109.22 148.59) (diameter 0) (color 0 0 0 0)
    (uuid 6add0e18-c5f5-480f-8d96-9ba72ca22af2)
  )
  (junction (at 93.98 128.27) (diameter 0) (color 0 0 0 0)
    (uuid 8c8ae581-88a6-4d01-a436-2429825a5efd)
  )
  (junction (at 109.22 120.65) (diameter 0) (color 0 0 0 0)
    (uuid 9ad9109c-8430-409a-9075-641ce1dc479b)
  )

  (wire (pts (xy 109.22 120.65) (xy 86.36 120.65))
    (stroke (width 0) (type default))
    (uuid 035f958f-1deb-490d-b1db-ea705c509b17)
  )
  (wire (pts (xy 92.71 148.59) (xy 109.22 148.59))
    (stroke (width 0) (type default))
    (uuid 1a4725e5-a477-487b-a67b-416944dbf86a)
  )
  (wire (pts (xy 118.11 120.65) (xy 118.11 130.81))
    (stroke (width 0) (type default))
    (uuid 20b69f25-be48-4c21-9d82-f481b352bc0b)
  )
  (wire (pts (xy 95.25 140.97) (xy 92.71 140.97))
    (stroke (width 0) (type default))
    (uuid 26ecd694-784b-4a8c-8a81-041388c130f4)
  )
  (wire (pts (xy 109.22 148.59) (xy 118.11 148.59))
    (stroke (width 0) (type default))
    (uuid 2bcce2cd-c3dd-4b71-865b-13376bc8850f)
  )
  (wire (pts (xy 92.71 148.59) (xy 86.36 148.59))
    (stroke (width 0) (type default))
    (uuid 31e5144a-c5eb-47d2-9330-4bc95bf673fa)
  )
  (wire (pts (xy 118.11 148.59) (xy 118.11 138.43))
    (stroke (width 0) (type default))
    (uuid 39ce0e95-9a80-4333-b940-e575213965d1)
  )
  (wire (pts (xy 109.22 120.65) (xy 109.22 121.92))
    (stroke (width 0) (type default))
    (uuid 4abb0fe4-3903-455e-92f2-fc4194124d01)
  )
  (wire (pts (xy 109.22 147.32) (xy 109.22 148.59))
    (stroke (width 0) (type default))
    (uuid 54305df7-78b9-478d-9cb3-844c66bd9b0c)
  )
  (wire (pts (xy 93.98 130.81) (xy 93.98 128.27))
    (stroke (width 0) (type default))
    (uuid 60578563-0233-4ce5-a984-1a811ba80303)
  )
  (wire (pts (xy 86.36 128.27) (xy 93.98 128.27))
    (stroke (width 0) (type default))
    (uuid 65fb2783-5f98-4cf9-9f48-ae344ab2787b)
  )
  (wire (pts (xy 92.71 140.97) (xy 92.71 148.59))
    (stroke (width 0) (type default))
    (uuid 8126008a-b953-43f1-83d5-6b7f1a58d90b)
  )
  (wire (pts (xy 93.98 128.27) (xy 95.25 128.27))
    (stroke (width 0) (type default))
    (uuid 83a7b3bf-0572-47a1-8a99-06ca3128b3ad)
  )
  (wire (pts (xy 95.25 135.89) (xy 86.36 135.89))
    (stroke (width 0) (type default))
    (uuid 9203fb54-2478-4fd2-8151-799ac271dbc8)
  )
  (wire (pts (xy 95.25 130.81) (xy 93.98 130.81))
    (stroke (width 0) (type default))
    (uuid c833e70a-9584-40c6-81e5-67c4e3370256)
  )
  (wire (pts (xy 86.36 133.35) (xy 95.25 133.35))
    (stroke (width 0) (type default))
    (uuid d2ab1d37-fa9f-4c39-8d70-efd0e59b13f3)
  )
  (wire (pts (xy 109.22 120.65) (xy 118.11 120.65))
    (stroke (width 0) (type default))
    (uuid e1b6a249-8724-47d9-9d3f-65bf095c935a)
  )
  (wire (pts (xy 86.36 138.43) (xy 95.25 138.43))
    (stroke (width 0) (type default))
    (uuid e71a49d2-57ce-4a4b-8046-c7925781f7be)
  )

  (hierarchical_label "MS_VDD" (shape passive) (at 86.36 120.65 180) (fields_autoplaced)
    (effects (font (size 1.27 1.27)) (justify right))
    (uuid 26df4afd-cdc8-44f9-8fd8-ad6405e06d80)
  )
  (hierarchical_label "MS_MOSI" (shape input) (at 86.36 135.89 180) (fields_autoplaced)
    (effects (font (size 1.27 1.27)) (justify right))
    (uuid 287dcb46-44a6-41bd-a23a-187524241598)
  )
  (hierarchical_label "MS_nCS" (shape input) (at 86.36 128.27 180) (fields_autoplaced)
    (effects (font (size 1.27 1.27)) (justify right))
    (uuid 2d26f0a3-77db-4576-9e73-97828d56b2ba)
  )
  (hierarchical_label "MS_GND" (shape passive) (at 86.36 148.59 180) (fields_autoplaced)
    (effects (font (size 1.27 1.27)) (justify right))
    (uuid 98a77f5d-ffa5-44cb-b6a3-8ad3eb76ec77)
  )
  (hierarchical_label "MS_MISO" (shape output) (at 86.36 133.35 180) (fields_autoplaced)
    (effects (font (size 1.27 1.27)) (justify right))
    (uuid d4356e6a-f174-4b75-809f-33a0eb76e004)
  )
  (hierarchical_label "MS_SCK" (shape input) (at 86.36 138.43 180) (fields_autoplaced)
    (effects (font (size 1.27 1.27)) (justify right))
    (uuid e96c7b80-1d89-46bd-8446-4c2e25b7040a)
  )

  (symbol (lib_id "MS5611:MS5611") (at 109.22 134.62 0) (unit 1)
    (in_bom yes) (on_board yes) (dnp no)
    (uuid 00000000-0000-0000-0000-00005aff0d21)
    (property "Reference" "U2" (at 102.87 123.19 0)
      (effects (font (size 1.524 1.524)))
    )
    (property "Value" "MS5611" (at 102.87 144.78 0)
      (effects (font (size 1.524 1.524)))
    )
    (property "Footprint" "MS5611:MS5611" (at 109.22 157.48 0)
      (effects (font (size 1.524 1.524)) hide)
    )
    (property "Datasheet" "" (at 109.22 134.62 0)
      (effects (font (size 1.524 1.524)))
    )
    (pin "1" (uuid a984d71c-f113-4fff-bf33-8cd42efad7d5))
    (pin "2" (uuid 896e4323-a9e8-4cc1-a2b6-e72f61b10dbb))
    (pin "3" (uuid 25658ff7-bb15-43fe-a642-3d152ee160d9))
    (pin "4" (uuid c62d95bf-8c4d-489d-8fdb-3b0be5455c52))
    (pin "5" (uuid affca9ba-12c2-48d8-a551-bc87dd810dd9))
    (pin "6" (uuid ffef08e7-d06d-41e4-8176-c2dd87b94e41))
    (pin "7" (uuid 48891532-3aca-461b-82fe-76e9d4c10fac))
    (pin "8" (uuid 251de2b5-8cd3-4440-91fe-ddcbe1b1c095))
    (instances
      (project "rbpi-z-hat"
        (path "/d99b0340-d795-4b40-9cde-9851c6cee99d/00000000-0000-0000-0000-00005ef65a4d/00000000-0000-0000-0000-00005ef663fb"
          (reference "U2") (unit 1)
        )
      )
    )
  )

  (symbol (lib_id "Device:C") (at 118.11 134.62 0) (unit 1)
    (in_bom yes) (on_board yes) (dnp no)
    (uuid 00000000-0000-0000-0000-00005aff0d36)
    (property "Reference" "C9" (at 118.745 132.08 0)
      (effects (font (size 1.27 1.27)) (justify left))
    )
    (property "Value" "100nF" (at 118.745 137.16 0)
      (effects (font (size 1.27 1.27)) (justify left))
    )
    (property "Footprint" "Capacitor_SMD:C_0402_1005Metric" (at 119.0752 138.43 0)
      (effects (font (size 1.27 1.27)) hide)
    )
    (property "Datasheet" "" (at 118.11 134.62 0)
      (effects (font (size 1.27 1.27)) hide)
    )
    (pin "1" (uuid 4fd17281-da52-4e38-8bd7-c4aa0e9e6d7e))
    (pin "2" (uuid 4a75dd99-b614-492f-b3bd-2c437aec8e27))
    (instances
      (project "rbpi-z-hat"
        (path "/d99b0340-d795-4b40-9cde-9851c6cee99d/00000000-0000-0000-0000-00005ef65a4d/00000000-0000-0000-0000-00005ef663fb"
          (reference "C9") (unit 1)
        )
      )
    )
  )
)
