(kicad_sch (version 20230121) (generator eeschema)

  (uuid a07bde2f-466d-4fe0-9568-dd1b5860d97f)

  (paper "A4" portrait)

  (title_block
    (title "RasPi Zero NAV Hat")
    (date "2023-05-12")
    (rev "0.1")
    (company "chipiki.ru")
    (comment 1 "RasPi Zero NAV Hat")
    (comment 2 "Denis Tsekh")
  )

  (lib_symbols
    (symbol "Connector_Generic_MountingPin:Conn_01x06_MountingPin" (pin_names (offset 1.016) hide) (in_bom yes) (on_board yes)
      (property "Reference" "J" (at 0 7.62 0)
        (effects (font (size 1.27 1.27)))
      )
      (property "Value" "Conn_01x06_MountingPin" (at 1.27 -10.16 0)
        (effects (font (size 1.27 1.27)) (justify left))
      )
      (property "Footprint" "" (at 0 0 0)
        (effects (font (size 1.27 1.27)) hide)
      )
      (property "Datasheet" "~" (at 0 0 0)
        (effects (font (size 1.27 1.27)) hide)
      )
      (property "ki_keywords" "connector" (at 0 0 0)
        (effects (font (size 1.27 1.27)) hide)
      )
      (property "ki_description" "Generic connectable mounting pin connector, single row, 01x06, script generated (kicad-library-utils/schlib/autogen/connector/)" (at 0 0 0)
        (effects (font (size 1.27 1.27)) hide)
      )
      (property "ki_fp_filters" "Connector*:*_1x??-1MP*" (at 0 0 0)
        (effects (font (size 1.27 1.27)) hide)
      )
      (symbol "Conn_01x06_MountingPin_1_1"
        (rectangle (start -1.27 -7.493) (end 0 -7.747)
          (stroke (width 0.1524) (type default))
          (fill (type none))
        )
        (rectangle (start -1.27 -4.953) (end 0 -5.207)
          (stroke (width 0.1524) (type default))
          (fill (type none))
        )
        (rectangle (start -1.27 -2.413) (end 0 -2.667)
          (stroke (width 0.1524) (type default))
          (fill (type none))
        )
        (rectangle (start -1.27 0.127) (end 0 -0.127)
          (stroke (width 0.1524) (type default))
          (fill (type none))
        )
        (rectangle (start -1.27 2.667) (end 0 2.413)
          (stroke (width 0.1524) (type default))
          (fill (type none))
        )
        (rectangle (start -1.27 5.207) (end 0 4.953)
          (stroke (width 0.1524) (type default))
          (fill (type none))
        )
        (rectangle (start -1.27 6.35) (end 1.27 -8.89)
          (stroke (width 0.254) (type default))
          (fill (type background))
        )
        (polyline
          (pts
            (xy -1.016 -9.652)
            (xy 1.016 -9.652)
          )
          (stroke (width 0.1524) (type default))
          (fill (type none))
        )
        (text "Mounting" (at 0 -9.271 0)
          (effects (font (size 0.381 0.381)))
        )
        (pin passive line (at -5.08 5.08 0) (length 3.81)
          (name "Pin_1" (effects (font (size 1.27 1.27))))
          (number "1" (effects (font (size 1.27 1.27))))
        )
        (pin passive line (at -5.08 2.54 0) (length 3.81)
          (name "Pin_2" (effects (font (size 1.27 1.27))))
          (number "2" (effects (font (size 1.27 1.27))))
        )
        (pin passive line (at -5.08 0 0) (length 3.81)
          (name "Pin_3" (effects (font (size 1.27 1.27))))
          (number "3" (effects (font (size 1.27 1.27))))
        )
        (pin passive line (at -5.08 -2.54 0) (length 3.81)
          (name "Pin_4" (effects (font (size 1.27 1.27))))
          (number "4" (effects (font (size 1.27 1.27))))
        )
        (pin passive line (at -5.08 -5.08 0) (length 3.81)
          (name "Pin_5" (effects (font (size 1.27 1.27))))
          (number "5" (effects (font (size 1.27 1.27))))
        )
        (pin passive line (at -5.08 -7.62 0) (length 3.81)
          (name "Pin_6" (effects (font (size 1.27 1.27))))
          (number "6" (effects (font (size 1.27 1.27))))
        )
        (pin passive line (at 0 -12.7 90) (length 3.048)
          (name "MountPin" (effects (font (size 1.27 1.27))))
          (number "MP" (effects (font (size 1.27 1.27))))
        )
      )
    )
    (symbol "Device:C_Feedthrough" (pin_names (offset 0.254) hide) (in_bom yes) (on_board yes)
      (property "Reference" "C" (at 0 7.62 0)
        (effects (font (size 1.27 1.27)))
      )
      (property "Value" "C_Feedthrough" (at 0 5.715 0)
        (effects (font (size 1.27 1.27)))
      )
      (property "Footprint" "" (at 0 0 90)
        (effects (font (size 1.27 1.27)) hide)
      )
      (property "Datasheet" "~" (at 0 0 90)
        (effects (font (size 1.27 1.27)) hide)
      )
      (property "ki_keywords" "EMI filter feedthrough capacitor" (at 0 0 0)
        (effects (font (size 1.27 1.27)) hide)
      )
      (property "ki_description" "Feedthrough capacitor" (at 0 0 0)
        (effects (font (size 1.27 1.27)) hide)
      )
      (symbol "C_Feedthrough_0_1"
        (rectangle (start -1.651 1.524) (end 1.524 2.032)
          (stroke (width 0) (type default))
          (fill (type outline))
        )
        (polyline
          (pts
            (xy -2.54 2.54)
            (xy 2.54 2.54)
          )
          (stroke (width 0) (type default))
          (fill (type none))
        )
        (polyline
          (pts
            (xy 0 0)
            (xy 0 1.778)
          )
          (stroke (width 0) (type default))
          (fill (type none))
        )
        (rectangle (start 1.524 3.048) (end -1.651 3.556)
          (stroke (width 0) (type default))
          (fill (type outline))
        )
      )
      (symbol "C_Feedthrough_1_1"
        (pin passive line (at -5.08 2.54 0) (length 2.54)
          (name "1" (effects (font (size 1.27 1.27))))
          (number "1" (effects (font (size 1.27 1.27))))
        )
        (pin passive line (at 0 -2.54 90) (length 2.54)
          (name "2" (effects (font (size 1.27 1.27))))
          (number "2" (effects (font (size 1.27 1.27))))
        )
        (pin passive line (at 5.08 2.54 180) (length 2.54)
          (name "3" (effects (font (size 1.27 1.27))))
          (number "3" (effects (font (size 1.27 1.27))))
        )
      )
    )
    (symbol "Device:D_TVS" (pin_numbers hide) (pin_names (offset 1.016) hide) (in_bom yes) (on_board yes)
      (property "Reference" "D" (at 0 2.54 0)
        (effects (font (size 1.27 1.27)))
      )
      (property "Value" "D_TVS" (at 0 -2.54 0)
        (effects (font (size 1.27 1.27)))
      )
      (property "Footprint" "" (at 0 0 0)
        (effects (font (size 1.27 1.27)) hide)
      )
      (property "Datasheet" "~" (at 0 0 0)
        (effects (font (size 1.27 1.27)) hide)
      )
      (property "ki_keywords" "diode TVS thyrector" (at 0 0 0)
        (effects (font (size 1.27 1.27)) hide)
      )
      (property "ki_description" "Bidirectional transient-voltage-suppression diode" (at 0 0 0)
        (effects (font (size 1.27 1.27)) hide)
      )
      (property "ki_fp_filters" "TO-???* *_Diode_* *SingleDiode* D_*" (at 0 0 0)
        (effects (font (size 1.27 1.27)) hide)
      )
      (symbol "D_TVS_0_1"
        (polyline
          (pts
            (xy 1.27 0)
            (xy -1.27 0)
          )
          (stroke (width 0) (type default))
          (fill (type none))
        )
        (polyline
          (pts
            (xy 0.508 1.27)
            (xy 0 1.27)
            (xy 0 -1.27)
            (xy -0.508 -1.27)
          )
          (stroke (width 0.254) (type default))
          (fill (type none))
        )
        (polyline
          (pts
            (xy -2.54 1.27)
            (xy -2.54 -1.27)
            (xy 2.54 1.27)
            (xy 2.54 -1.27)
            (xy -2.54 1.27)
          )
          (stroke (width 0.254) (type default))
          (fill (type none))
        )
      )
      (symbol "D_TVS_1_1"
        (pin passive line (at -3.81 0 0) (length 2.54)
          (name "A1" (effects (font (size 1.27 1.27))))
          (number "1" (effects (font (size 1.27 1.27))))
        )
        (pin passive line (at 3.81 0 180) (length 2.54)
          (name "A2" (effects (font (size 1.27 1.27))))
          (number "2" (effects (font (size 1.27 1.27))))
        )
      )
    )
    (symbol "Device:FerriteBead" (pin_numbers hide) (pin_names (offset 0)) (in_bom yes) (on_board yes)
      (property "Reference" "FB" (at -3.81 0.635 90)
        (effects (font (size 1.27 1.27)))
      )
      (property "Value" "FerriteBead" (at 3.81 0 90)
        (effects (font (size 1.27 1.27)))
      )
      (property "Footprint" "" (at -1.778 0 90)
        (effects (font (size 1.27 1.27)) hide)
      )
      (property "Datasheet" "~" (at 0 0 0)
        (effects (font (size 1.27 1.27)) hide)
      )
      (property "ki_keywords" "L ferrite bead inductor filter" (at 0 0 0)
        (effects (font (size 1.27 1.27)) hide)
      )
      (property "ki_description" "Ferrite bead" (at 0 0 0)
        (effects (font (size 1.27 1.27)) hide)
      )
      (property "ki_fp_filters" "Inductor_* L_* *Ferrite*" (at 0 0 0)
        (effects (font (size 1.27 1.27)) hide)
      )
      (symbol "FerriteBead_0_1"
        (polyline
          (pts
            (xy 0 -1.27)
            (xy 0 -1.2192)
          )
          (stroke (width 0) (type default))
          (fill (type none))
        )
        (polyline
          (pts
            (xy 0 1.27)
            (xy 0 1.2954)
          )
          (stroke (width 0) (type default))
          (fill (type none))
        )
        (polyline
          (pts
            (xy -2.7686 0.4064)
            (xy -1.7018 2.2606)
            (xy 2.7686 -0.3048)
            (xy 1.6764 -2.159)
            (xy -2.7686 0.4064)
          )
          (stroke (width 0) (type default))
          (fill (type none))
        )
      )
      (symbol "FerriteBead_1_1"
        (pin passive line (at 0 3.81 270) (length 2.54)
          (name "~" (effects (font (size 1.27 1.27))))
          (number "1" (effects (font (size 1.27 1.27))))
        )
        (pin passive line (at 0 -3.81 90) (length 2.54)
          (name "~" (effects (font (size 1.27 1.27))))
          (number "2" (effects (font (size 1.27 1.27))))
        )
      )
    )
    (symbol "Device:R_Pack04" (pin_names (offset 0) hide) (in_bom yes) (on_board yes)
      (property "Reference" "RN" (at -7.62 0 90)
        (effects (font (size 1.27 1.27)))
      )
      (property "Value" "R_Pack04" (at 5.08 0 90)
        (effects (font (size 1.27 1.27)))
      )
      (property "Footprint" "" (at 6.985 0 90)
        (effects (font (size 1.27 1.27)) hide)
      )
      (property "Datasheet" "~" (at 0 0 0)
        (effects (font (size 1.27 1.27)) hide)
      )
      (property "ki_keywords" "R network parallel topology isolated" (at 0 0 0)
        (effects (font (size 1.27 1.27)) hide)
      )
      (property "ki_description" "4 resistor network, parallel topology" (at 0 0 0)
        (effects (font (size 1.27 1.27)) hide)
      )
      (property "ki_fp_filters" "DIP* SOIC* R*Array*Concave* R*Array*Convex*" (at 0 0 0)
        (effects (font (size 1.27 1.27)) hide)
      )
      (symbol "R_Pack04_0_1"
        (rectangle (start -6.35 -2.413) (end 3.81 2.413)
          (stroke (width 0.254) (type default))
          (fill (type background))
        )
        (rectangle (start -5.715 1.905) (end -4.445 -1.905)
          (stroke (width 0.254) (type default))
          (fill (type none))
        )
        (rectangle (start -3.175 1.905) (end -1.905 -1.905)
          (stroke (width 0.254) (type default))
          (fill (type none))
        )
        (rectangle (start -0.635 1.905) (end 0.635 -1.905)
          (stroke (width 0.254) (type default))
          (fill (type none))
        )
        (polyline
          (pts
            (xy -5.08 -2.54)
            (xy -5.08 -1.905)
          )
          (stroke (width 0) (type default))
          (fill (type none))
        )
        (polyline
          (pts
            (xy -5.08 1.905)
            (xy -5.08 2.54)
          )
          (stroke (width 0) (type default))
          (fill (type none))
        )
        (polyline
          (pts
            (xy -2.54 -2.54)
            (xy -2.54 -1.905)
          )
          (stroke (width 0) (type default))
          (fill (type none))
        )
        (polyline
          (pts
            (xy -2.54 1.905)
            (xy -2.54 2.54)
          )
          (stroke (width 0) (type default))
          (fill (type none))
        )
        (polyline
          (pts
            (xy 0 -2.54)
            (xy 0 -1.905)
          )
          (stroke (width 0) (type default))
          (fill (type none))
        )
        (polyline
          (pts
            (xy 0 1.905)
            (xy 0 2.54)
          )
          (stroke (width 0) (type default))
          (fill (type none))
        )
        (polyline
          (pts
            (xy 2.54 -2.54)
            (xy 2.54 -1.905)
          )
          (stroke (width 0) (type default))
          (fill (type none))
        )
        (polyline
          (pts
            (xy 2.54 1.905)
            (xy 2.54 2.54)
          )
          (stroke (width 0) (type default))
          (fill (type none))
        )
        (rectangle (start 1.905 1.905) (end 3.175 -1.905)
          (stroke (width 0.254) (type default))
          (fill (type none))
        )
      )
      (symbol "R_Pack04_1_1"
        (pin passive line (at -5.08 -5.08 90) (length 2.54)
          (name "R1.1" (effects (font (size 1.27 1.27))))
          (number "1" (effects (font (size 1.27 1.27))))
        )
        (pin passive line (at -2.54 -5.08 90) (length 2.54)
          (name "R2.1" (effects (font (size 1.27 1.27))))
          (number "2" (effects (font (size 1.27 1.27))))
        )
        (pin passive line (at 0 -5.08 90) (length 2.54)
          (name "R3.1" (effects (font (size 1.27 1.27))))
          (number "3" (effects (font (size 1.27 1.27))))
        )
        (pin passive line (at 2.54 -5.08 90) (length 2.54)
          (name "R4.1" (effects (font (size 1.27 1.27))))
          (number "4" (effects (font (size 1.27 1.27))))
        )
        (pin passive line (at 2.54 5.08 270) (length 2.54)
          (name "R4.2" (effects (font (size 1.27 1.27))))
          (number "5" (effects (font (size 1.27 1.27))))
        )
        (pin passive line (at 0 5.08 270) (length 2.54)
          (name "R3.2" (effects (font (size 1.27 1.27))))
          (number "6" (effects (font (size 1.27 1.27))))
        )
        (pin passive line (at -2.54 5.08 270) (length 2.54)
          (name "R2.2" (effects (font (size 1.27 1.27))))
          (number "7" (effects (font (size 1.27 1.27))))
        )
        (pin passive line (at -5.08 5.08 270) (length 2.54)
          (name "R1.2" (effects (font (size 1.27 1.27))))
          (number "8" (effects (font (size 1.27 1.27))))
        )
      )
    )
    (symbol "Power_Protection:ESDA6V1BC6" (pin_names hide) (in_bom yes) (on_board yes)
      (property "Reference" "D" (at -2.54 -6.35 0)
        (effects (font (size 1.27 1.27)) (justify right))
      )
      (property "Value" "ESDA6V1BC6" (at 1.27 -6.35 0)
        (effects (font (size 1.27 1.27)) (justify left))
      )
      (property "Footprint" "Package_TO_SOT_SMD:SOT-23-6" (at 0 -8.89 0)
        (effects (font (size 1.27 1.27)) hide)
      )
      (property "Datasheet" "http://www.st.com/content/ccc/resource/technical/document/datasheet/21/07/21/e3/a8/df/42/a2/CD00001906.pdf/files/CD00001906.pdf/jcr:content/translations/en.CD00001906.pdf" (at 0 0 90)
        (effects (font (size 1.27 1.27)) hide)
      )
      (property "ki_keywords" "ESD protection suppression transient" (at 0 0 0)
        (effects (font (size 1.27 1.27)) hide)
      )
      (property "ki_description" "Quad bidirectional transil, Suppressor for ESD protection, 5V Standoff, 4 Channels, SOT-23-6" (at 0 0 0)
        (effects (font (size 1.27 1.27)) hide)
      )
      (property "ki_fp_filters" "SOT?23*" (at 0 0 0)
        (effects (font (size 1.27 1.27)) hide)
      )
      (symbol "ESDA6V1BC6_0_0"
        (pin passive line (at 0 -7.62 90) (length 2.54)
          (name "COM" (effects (font (size 1.27 1.27))))
          (number "2" (effects (font (size 1.27 1.27))))
        )
      )
      (symbol "ESDA6V1BC6_0_1"
        (rectangle (start -7.62 5.08) (end 7.62 -5.08)
          (stroke (width 0.254) (type default))
          (fill (type background))
        )
        (circle (center -2.54 -2.54) (radius 0.254)
          (stroke (width 0) (type default))
          (fill (type outline))
        )
        (circle (center 0 -2.54) (radius 0.254)
          (stroke (width 0) (type default))
          (fill (type outline))
        )
        (polyline
          (pts
            (xy -5.08 -2.54)
            (xy -5.08 -1.27)
          )
          (stroke (width 0) (type default))
          (fill (type none))
        )
        (polyline
          (pts
            (xy -5.08 -2.54)
            (xy 5.08 -2.54)
          )
          (stroke (width 0) (type default))
          (fill (type none))
        )
        (polyline
          (pts
            (xy -5.08 2.54)
            (xy -5.08 -1.27)
          )
          (stroke (width 0) (type default))
          (fill (type none))
        )
        (polyline
          (pts
            (xy -5.08 5.08)
            (xy -5.08 2.54)
          )
          (stroke (width 0) (type default))
          (fill (type none))
        )
        (polyline
          (pts
            (xy -2.54 -2.54)
            (xy -2.54 -1.27)
          )
          (stroke (width 0) (type default))
          (fill (type none))
        )
        (polyline
          (pts
            (xy -2.54 2.54)
            (xy -2.54 -1.27)
          )
          (stroke (width 0) (type default))
          (fill (type none))
        )
        (polyline
          (pts
            (xy -2.54 5.08)
            (xy -2.54 2.54)
          )
          (stroke (width 0) (type default))
          (fill (type none))
        )
        (polyline
          (pts
            (xy 0 -2.54)
            (xy 0 -5.08)
          )
          (stroke (width 0) (type default))
          (fill (type none))
        )
        (polyline
          (pts
            (xy 2.54 -2.54)
            (xy 2.54 -1.27)
          )
          (stroke (width 0) (type default))
          (fill (type none))
        )
        (polyline
          (pts
            (xy 2.54 2.54)
            (xy 2.54 -1.27)
          )
          (stroke (width 0) (type default))
          (fill (type none))
        )
        (polyline
          (pts
            (xy 2.54 5.08)
            (xy 2.54 2.54)
          )
          (stroke (width 0) (type default))
          (fill (type none))
        )
        (polyline
          (pts
            (xy 5.08 -2.54)
            (xy 5.08 -1.27)
          )
          (stroke (width 0) (type default))
          (fill (type none))
        )
        (polyline
          (pts
            (xy 5.08 2.54)
            (xy 5.08 -1.27)
          )
          (stroke (width 0) (type default))
          (fill (type none))
        )
        (polyline
          (pts
            (xy 5.08 5.08)
            (xy 5.08 2.54)
          )
          (stroke (width 0) (type default))
          (fill (type none))
        )
        (polyline
          (pts
            (xy -5.715 -1.016)
            (xy -5.715 -1.27)
            (xy -4.445 -1.27)
          )
          (stroke (width 0) (type default))
          (fill (type none))
        )
        (polyline
          (pts
            (xy -5.715 2.54)
            (xy -4.445 2.54)
            (xy -4.445 2.286)
          )
          (stroke (width 0) (type default))
          (fill (type none))
        )
        (polyline
          (pts
            (xy -3.175 -1.016)
            (xy -3.175 -1.27)
            (xy -1.905 -1.27)
          )
          (stroke (width 0) (type default))
          (fill (type none))
        )
        (polyline
          (pts
            (xy -3.175 2.54)
            (xy -1.905 2.54)
            (xy -1.905 2.286)
          )
          (stroke (width 0) (type default))
          (fill (type none))
        )
        (polyline
          (pts
            (xy 1.905 -1.016)
            (xy 1.905 -1.27)
            (xy 3.175 -1.27)
          )
          (stroke (width 0) (type default))
          (fill (type none))
        )
        (polyline
          (pts
            (xy 1.905 2.54)
            (xy 3.175 2.54)
            (xy 3.175 2.286)
          )
          (stroke (width 0) (type default))
          (fill (type none))
        )
        (polyline
          (pts
            (xy 4.445 -1.016)
            (xy 4.445 -1.27)
            (xy 5.715 -1.27)
          )
          (stroke (width 0) (type default))
          (fill (type none))
        )
        (polyline
          (pts
            (xy 4.445 2.54)
            (xy 5.715 2.54)
            (xy 5.715 2.286)
          )
          (stroke (width 0) (type default))
          (fill (type none))
        )
        (polyline
          (pts
            (xy -5.08 -1.27)
            (xy -5.715 0)
            (xy -4.445 0)
            (xy -5.08 -1.27)
          )
          (stroke (width 0) (type default))
          (fill (type none))
        )
        (polyline
          (pts
            (xy -5.08 2.54)
            (xy -4.445 1.27)
            (xy -5.715 1.27)
            (xy -5.08 2.54)
          )
          (stroke (width 0) (type default))
          (fill (type none))
        )
        (polyline
          (pts
            (xy -2.54 -1.27)
            (xy -3.175 0)
            (xy -1.905 0)
            (xy -2.54 -1.27)
          )
          (stroke (width 0) (type default))
          (fill (type none))
        )
        (polyline
          (pts
            (xy -2.54 2.54)
            (xy -1.905 1.27)
            (xy -3.175 1.27)
            (xy -2.54 2.54)
          )
          (stroke (width 0) (type default))
          (fill (type none))
        )
        (polyline
          (pts
            (xy 2.54 -1.27)
            (xy 1.905 0)
            (xy 3.175 0)
            (xy 2.54 -1.27)
          )
          (stroke (width 0) (type default))
          (fill (type none))
        )
        (polyline
          (pts
            (xy 2.54 2.54)
            (xy 3.175 1.27)
            (xy 1.905 1.27)
            (xy 2.54 2.54)
          )
          (stroke (width 0) (type default))
          (fill (type none))
        )
        (polyline
          (pts
            (xy 5.08 -1.27)
            (xy 4.445 0)
            (xy 5.715 0)
            (xy 5.08 -1.27)
          )
          (stroke (width 0) (type default))
          (fill (type none))
        )
        (polyline
          (pts
            (xy 5.08 2.54)
            (xy 5.715 1.27)
            (xy 4.445 1.27)
            (xy 5.08 2.54)
          )
          (stroke (width 0) (type default))
          (fill (type none))
        )
        (circle (center 2.54 -2.54) (radius 0.254)
          (stroke (width 0) (type default))
          (fill (type outline))
        )
      )
      (symbol "ESDA6V1BC6_1_1"
        (pin passive line (at -5.08 7.62 270) (length 2.54)
          (name "TVS1" (effects (font (size 1.27 1.27))))
          (number "1" (effects (font (size 1.27 1.27))))
        )
        (pin passive line (at -2.54 7.62 270) (length 2.54)
          (name "TVS2" (effects (font (size 1.27 1.27))))
          (number "3" (effects (font (size 1.27 1.27))))
        )
        (pin passive line (at 2.54 7.62 270) (length 2.54)
          (name "TVS3" (effects (font (size 1.27 1.27))))
          (number "4" (effects (font (size 1.27 1.27))))
        )
        (pin passive line (at 0 -7.62 90) (length 2.54) hide
          (name "COM" (effects (font (size 1.27 1.27))))
          (number "5" (effects (font (size 1.27 1.27))))
        )
        (pin passive line (at 5.08 7.62 270) (length 2.54)
          (name "TVS4" (effects (font (size 1.27 1.27))))
          (number "6" (effects (font (size 1.27 1.27))))
        )
      )
    )
    (symbol "power:+5V" (power) (pin_names (offset 0)) (in_bom yes) (on_board yes)
      (property "Reference" "#PWR" (at 0 -3.81 0)
        (effects (font (size 1.27 1.27)) hide)
      )
      (property "Value" "+5V" (at 0 3.556 0)
        (effects (font (size 1.27 1.27)))
      )
      (property "Footprint" "" (at 0 0 0)
        (effects (font (size 1.27 1.27)) hide)
      )
      (property "Datasheet" "" (at 0 0 0)
        (effects (font (size 1.27 1.27)) hide)
      )
      (property "ki_keywords" "power-flag" (at 0 0 0)
        (effects (font (size 1.27 1.27)) hide)
      )
      (property "ki_description" "Power symbol creates a global label with name \"+5V\"" (at 0 0 0)
        (effects (font (size 1.27 1.27)) hide)
      )
      (symbol "+5V_0_1"
        (polyline
          (pts
            (xy -0.762 1.27)
            (xy 0 2.54)
          )
          (stroke (width 0) (type default))
          (fill (type none))
        )
        (polyline
          (pts
            (xy 0 0)
            (xy 0 2.54)
          )
          (stroke (width 0) (type default))
          (fill (type none))
        )
        (polyline
          (pts
            (xy 0 2.54)
            (xy 0.762 1.27)
          )
          (stroke (width 0) (type default))
          (fill (type none))
        )
      )
      (symbol "+5V_1_1"
        (pin power_in line (at 0 0 90) (length 0) hide
          (name "+5V" (effects (font (size 1.27 1.27))))
          (number "1" (effects (font (size 1.27 1.27))))
        )
      )
    )
    (symbol "power:GNDD" (power) (pin_names (offset 0)) (in_bom yes) (on_board yes)
      (property "Reference" "#PWR" (at 0 -6.35 0)
        (effects (font (size 1.27 1.27)) hide)
      )
      (property "Value" "GNDD" (at 0 -3.175 0)
        (effects (font (size 1.27 1.27)))
      )
      (property "Footprint" "" (at 0 0 0)
        (effects (font (size 1.27 1.27)) hide)
      )
      (property "Datasheet" "" (at 0 0 0)
        (effects (font (size 1.27 1.27)) hide)
      )
      (property "ki_keywords" "power-flag" (at 0 0 0)
        (effects (font (size 1.27 1.27)) hide)
      )
      (property "ki_description" "Power symbol creates a global label with name \"GNDD\" , digital ground" (at 0 0 0)
        (effects (font (size 1.27 1.27)) hide)
      )
      (symbol "GNDD_0_1"
        (rectangle (start -1.27 -1.524) (end 1.27 -2.032)
          (stroke (width 0.254) (type default))
          (fill (type outline))
        )
        (polyline
          (pts
            (xy 0 0)
            (xy 0 -1.524)
          )
          (stroke (width 0) (type default))
          (fill (type none))
        )
      )
      (symbol "GNDD_1_1"
        (pin power_in line (at 0 0 270) (length 0) hide
          (name "GNDD" (effects (font (size 1.27 1.27))))
          (number "1" (effects (font (size 1.27 1.27))))
        )
      )
    )
  )

  (junction (at 113.03 140.97) (diameter 0) (color 0 0 0 0)
    (uuid 3dc43b34-f7d7-4f21-aac9-350b1488e58a)
  )
  (junction (at 118.11 118.11) (diameter 0) (color 0 0 0 0)
    (uuid 47b38cc2-3fe0-46b7-8d4b-d67915f4bdec)
  )
  (junction (at 107.95 143.51) (diameter 0) (color 0 0 0 0)
    (uuid 635bc805-2950-49e9-8624-0da1a8f2b278)
  )
  (junction (at 115.57 138.43) (diameter 0) (color 0 0 0 0)
    (uuid 84e4cbce-1ba5-40ca-975a-389d7b4ae045)
  )
  (junction (at 105.41 146.05) (diameter 0) (color 0 0 0 0)
    (uuid dc861295-33b5-472a-ad11-bf83c21cf238)
  )

  (wire (pts (xy 115.57 138.43) (xy 97.79 138.43))
    (stroke (width 0) (type default))
    (uuid 07359e01-fc55-40e0-a537-5ada2a012fc1)
  )
  (wire (pts (xy 132.08 143.51) (xy 107.95 143.51))
    (stroke (width 0) (type default))
    (uuid 161b359b-14e4-4977-90d7-726b12281c36)
  )
  (wire (pts (xy 118.11 118.11) (xy 129.54 118.11))
    (stroke (width 0) (type default))
    (uuid 1e22412c-4602-421a-bfb9-742f86a16e45)
  )
  (wire (pts (xy 87.63 143.51) (xy 80.01 143.51))
    (stroke (width 0) (type default))
    (uuid 1f4b7afd-d77a-486c-88b0-631ccc9f480a)
  )
  (wire (pts (xy 106.68 123.19) (xy 106.68 125.73))
    (stroke (width 0) (type default))
    (uuid 20db48c5-fa06-468b-9557-0159b77e4bf1)
  )
  (polyline (pts (xy 106.68 114.3) (xy 106.68 109.22))
    (stroke (width 0) (type default))
    (uuid 239cf006-e66a-4e8c-9b48-dbff40fc0970)
  )

  (wire (pts (xy 118.11 121.92) (xy 118.11 118.11))
    (stroke (width 0) (type default))
    (uuid 483403a5-1db2-49b0-9e1c-53423cc278c2)
  )
  (wire (pts (xy 107.95 143.51) (xy 97.79 143.51))
    (stroke (width 0) (type default))
    (uuid 4b4c7b5a-e055-412e-9546-3bd6e1488ea0)
  )
  (wire (pts (xy 87.63 140.97) (xy 80.01 140.97))
    (stroke (width 0) (type default))
    (uuid 4c72c76c-65b0-4642-aa65-926a4776fb72)
  )
  (wire (pts (xy 111.76 118.11) (xy 118.11 118.11))
    (stroke (width 0) (type default))
    (uuid 57700af8-d78c-442c-aea6-12bb8003cb44)
  )
  (wire (pts (xy 115.57 148.59) (xy 115.57 138.43))
    (stroke (width 0) (type default))
    (uuid 58998dc8-ba63-4f93-acfd-a86b425a7146)
  )
  (wire (pts (xy 132.08 135.89) (xy 129.54 135.89))
    (stroke (width 0) (type default))
    (uuid 5900a99d-fbb6-4695-b1ba-8eeafa1059ea)
  )
  (wire (pts (xy 132.08 138.43) (xy 115.57 138.43))
    (stroke (width 0) (type default))
    (uuid 5c4c97fe-ee86-4395-93e3-dbf01d28009a)
  )
  (wire (pts (xy 87.63 146.05) (xy 80.01 146.05))
    (stroke (width 0) (type default))
    (uuid 6766ad01-c2ca-4464-b269-dbac144e46b7)
  )
  (wire (pts (xy 129.54 135.89) (xy 129.54 118.11))
    (stroke (width 0) (type default))
    (uuid 7a5a4af0-61c7-4172-810d-99561ba1c9c4)
  )
  (wire (pts (xy 113.03 140.97) (xy 97.79 140.97))
    (stroke (width 0) (type default))
    (uuid 7e7bae58-ed67-4dc5-a9da-8dd35a2c6c0e)
  )
  (wire (pts (xy 86.36 118.11) (xy 80.01 118.11))
    (stroke (width 0) (type default))
    (uuid 8b854689-0dbd-422b-badc-6f8a4a8dd67d)
  )
  (wire (pts (xy 113.03 148.59) (xy 113.03 140.97))
    (stroke (width 0) (type default))
    (uuid 99a754f9-34d1-4446-a0c6-64b474f220cc)
  )
  (wire (pts (xy 127 161.29) (xy 127 166.37))
    (stroke (width 0) (type default))
    (uuid 9bcfc7cf-2edb-49aa-a637-55e40be2b3b0)
  )
  (wire (pts (xy 118.11 130.81) (xy 118.11 129.54))
    (stroke (width 0) (type default))
    (uuid 9cec742c-b500-4263-83c2-5badf8327c7a)
  )
  (wire (pts (xy 105.41 146.05) (xy 97.79 146.05))
    (stroke (width 0) (type default))
    (uuid 9e53657e-cb04-467a-bf94-ef8d0ad6d6af)
  )
  (wire (pts (xy 132.08 140.97) (xy 113.03 140.97))
    (stroke (width 0) (type default))
    (uuid a3f07956-38c0-4104-a5f6-edeac1d34f53)
  )
  (wire (pts (xy 132.08 146.05) (xy 105.41 146.05))
    (stroke (width 0) (type default))
    (uuid a9c36425-1694-4fb9-8c15-19199d65119b)
  )
  (wire (pts (xy 80.01 118.11) (xy 80.01 111.76))
    (stroke (width 0) (type default))
    (uuid bcb53413-46ee-4cec-88ba-99927878bcd0)
  )
  (wire (pts (xy 105.41 148.59) (xy 105.41 146.05))
    (stroke (width 0) (type default))
    (uuid bd6329cc-2f03-47f6-84d3-619d6f2062fb)
  )
  (wire (pts (xy 137.16 153.67) (xy 137.16 166.37))
    (stroke (width 0) (type default))
    (uuid c7277e5c-f5ac-481b-9489-44229ce72681)
  )
  (wire (pts (xy 127 148.59) (xy 127 153.67))
    (stroke (width 0) (type default))
    (uuid da2cf5f8-f353-4e8d-a524-087b28056822)
  )
  (wire (pts (xy 93.98 118.11) (xy 101.6 118.11))
    (stroke (width 0) (type default))
    (uuid de6fc043-97ac-45ea-bd35-9f40196602a9)
  )
  (wire (pts (xy 132.08 148.59) (xy 127 148.59))
    (stroke (width 0) (type default))
    (uuid e01ae40f-a52b-4a64-b1d7-8cac620a98ad)
  )
  (wire (pts (xy 110.49 163.83) (xy 110.49 166.37))
    (stroke (width 0) (type default))
    (uuid ee27565a-ff18-4ca0-b010-e1a0af97b871)
  )
  (wire (pts (xy 107.95 148.59) (xy 107.95 143.51))
    (stroke (width 0) (type default))
    (uuid f96eb9c4-64fa-4162-b821-bfd8998f060f)
  )
  (wire (pts (xy 87.63 138.43) (xy 80.01 138.43))
    (stroke (width 0) (type default))
    (uuid f997b632-6f08-4c59-89eb-57c397164720)
  )

  (hierarchical_label "GPS_TX" (shape input) (at 80.01 138.43 180) (fields_autoplaced)
    (effects (font (size 1.27 1.27)) (justify right))
    (uuid 53300011-8eea-47b0-b0cd-2248fbc25c9a)
  )
  (hierarchical_label "GPS_RX" (shape output) (at 80.01 140.97 180) (fields_autoplaced)
    (effects (font (size 1.27 1.27)) (justify right))
    (uuid 70f2bd81-ace3-4e40-b2c3-cfc555d57c3f)
  )
  (hierarchical_label "GPS_CTS" (shape bidirectional) (at 80.01 143.51 180) (fields_autoplaced)
    (effects (font (size 1.27 1.27)) (justify right))
    (uuid c56395ca-1c49-4912-b9d7-7a0d6ab42716)
  )
  (hierarchical_label "GPS_RTS" (shape bidirectional) (at 80.01 146.05 180) (fields_autoplaced)
    (effects (font (size 1.27 1.27)) (justify right))
    (uuid fbf76879-8601-4788-817d-e18a4b464809)
  )

  (symbol (lib_id "Device:D_TVS") (at 118.11 125.73 270) (unit 1)
    (in_bom yes) (on_board yes) (dnp no)
    (uuid 00000000-0000-0000-0000-00005ed9210d)
    (property "Reference" "D1" (at 120.142 124.5616 90)
      (effects (font (size 1.27 1.27)) (justify left))
    )
    (property "Value" "PESD0402-140" (at 120.142 126.873 90)
      (effects (font (size 1.27 1.27)) (justify left))
    )
    (property "Footprint" "Diode_SMD:D_0402_1005Metric" (at 118.11 125.73 0)
      (effects (font (size 1.27 1.27)) hide)
    )
    (property "Datasheet" "~" (at 118.11 125.73 0)
      (effects (font (size 1.27 1.27)) hide)
    )
    (pin "1" (uuid a5347af1-b7e4-48b9-8209-42a44904def0))
    (pin "2" (uuid c16b5daa-fbe4-440c-9366-8bf5ce463bf8))
    (instances
      (project "rbpi-z-hat"
        (path "/d99b0340-d795-4b40-9cde-9851c6cee99d/00000000-0000-0000-0000-00005f0378cd"
          (reference "D1") (unit 1)
        )
      )
    )
  )

  (symbol (lib_id "power:GNDD") (at 127 166.37 0) (unit 1)
    (in_bom yes) (on_board yes) (dnp no)
    (uuid 00000000-0000-0000-0000-00005ed93c63)
    (property "Reference" "#PWR0124" (at 127 172.72 0)
      (effects (font (size 1.27 1.27)) hide)
    )
    (property "Value" "GNDD" (at 127.1016 170.307 0)
      (effects (font (size 1.27 1.27)))
    )
    (property "Footprint" "" (at 127 166.37 0)
      (effects (font (size 1.27 1.27)) hide)
    )
    (property "Datasheet" "" (at 127 166.37 0)
      (effects (font (size 1.27 1.27)) hide)
    )
    (pin "1" (uuid 669924d7-b5fe-46c2-9e9c-f5cb5afb9a2d))
    (instances
      (project "rbpi-z-hat"
        (path "/d99b0340-d795-4b40-9cde-9851c6cee99d/00000000-0000-0000-0000-00005f0378cd"
          (reference "#PWR0124") (unit 1)
        )
      )
    )
  )

  (symbol (lib_id "Device:FerriteBead") (at 90.17 118.11 270) (unit 1)
    (in_bom yes) (on_board yes) (dnp no)
    (uuid 00000000-0000-0000-0000-00005ed961a6)
    (property "Reference" "FB1" (at 90.17 111.1504 90)
      (effects (font (size 1.27 1.27)))
    )
    (property "Value" "Ferrite_Bead" (at 90.17 113.4618 90)
      (effects (font (size 1.27 1.27)))
    )
    (property "Footprint" "Inductor_SMD:L_0603_1608Metric" (at 90.17 116.332 90)
      (effects (font (size 1.27 1.27)) hide)
    )
    (property "Datasheet" "~" (at 90.17 118.11 0)
      (effects (font (size 1.27 1.27)) hide)
    )
    (pin "1" (uuid 95da5b6a-7f97-4cdc-89f6-9c763d9ebb20))
    (pin "2" (uuid 5262cdb8-3fac-4536-8d0f-021931f1a1da))
    (instances
      (project "rbpi-z-hat"
        (path "/d99b0340-d795-4b40-9cde-9851c6cee99d/00000000-0000-0000-0000-00005f0378cd"
          (reference "FB1") (unit 1)
        )
      )
    )
  )

  (symbol (lib_id "Device:FerriteBead") (at 127 157.48 180) (unit 1)
    (in_bom yes) (on_board yes) (dnp no)
    (uuid 00000000-0000-0000-0000-00005ed98bb9)
    (property "Reference" "FB2" (at 130.81 156.21 0)
      (effects (font (size 1.27 1.27)))
    )
    (property "Value" "Ferrite_Bead" (at 134.62 161.29 0)
      (effects (font (size 1.27 1.27)))
    )
    (property "Footprint" "Inductor_SMD:L_0603_1608Metric" (at 128.778 157.48 90)
      (effects (font (size 1.27 1.27)) hide)
    )
    (property "Datasheet" "~" (at 127 157.48 0)
      (effects (font (size 1.27 1.27)) hide)
    )
    (pin "1" (uuid 07372405-5aac-4e49-83be-ea8d0915d7ff))
    (pin "2" (uuid c7a3721e-7cb7-42fb-acf0-9ad9ff279b54))
    (instances
      (project "rbpi-z-hat"
        (path "/d99b0340-d795-4b40-9cde-9851c6cee99d/00000000-0000-0000-0000-00005f0378cd"
          (reference "FB2") (unit 1)
        )
      )
    )
  )

  (symbol (lib_id "Power_Protection:ESDA6V1BC6") (at 110.49 156.21 0) (unit 1)
    (in_bom yes) (on_board yes) (dnp no)
    (uuid 00000000-0000-0000-0000-00005ed9ac2c)
    (property "Reference" "D2" (at 118.11 156.21 0)
      (effects (font (size 1.27 1.27)) (justify left))
    )
    (property "Value" "ESDA5V3SC5" (at 111.76 162.56 0)
      (effects (font (size 1.27 1.27)) (justify left))
    )
    (property "Footprint" "Package_TO_SOT_SMD:SOT-23-6" (at 110.49 165.1 0)
      (effects (font (size 1.27 1.27)) hide)
    )
    (property "Datasheet" "http://www.st.com/content/ccc/resource/technical/document/datasheet/21/07/21/e3/a8/df/42/a2/CD00001906.pdf/files/CD00001906.pdf/jcr:content/translations/en.CD00001906.pdf" (at 110.49 156.21 90)
      (effects (font (size 1.27 1.27)) hide)
    )
    (property "URL" "https://www.terraelectronica.ru/product/275706" (at 110.49 156.21 0)
      (effects (font (size 1.27 1.27)) hide)
    )
    (pin "2" (uuid 80eddd2b-f20e-46cc-892b-b43774ce8a51))
    (pin "1" (uuid 7789a888-0115-4271-a25a-6460bcb8abd6))
    (pin "3" (uuid b6fce27d-ab8c-49f5-9107-71b2f2ad7c09))
    (pin "4" (uuid f93eeb52-ffa3-4fb5-b749-053fea23f715))
    (pin "5" (uuid 03eb2192-2f24-40c5-aa2a-e59f327c72bf))
    (pin "6" (uuid 675b94a6-e117-495d-b961-70edcb737754))
    (instances
      (project "rbpi-z-hat"
        (path "/d99b0340-d795-4b40-9cde-9851c6cee99d/00000000-0000-0000-0000-00005f0378cd"
          (reference "D2") (unit 1)
        )
      )
    )
  )

  (symbol (lib_id "power:GNDD") (at 137.16 166.37 0) (unit 1)
    (in_bom yes) (on_board yes) (dnp no)
    (uuid 00000000-0000-0000-0000-00005eda09a7)
    (property "Reference" "#PWR0125" (at 137.16 172.72 0)
      (effects (font (size 1.27 1.27)) hide)
    )
    (property "Value" "GNDD" (at 137.2616 170.307 0)
      (effects (font (size 1.27 1.27)))
    )
    (property "Footprint" "" (at 137.16 166.37 0)
      (effects (font (size 1.27 1.27)) hide)
    )
    (property "Datasheet" "" (at 137.16 166.37 0)
      (effects (font (size 1.27 1.27)) hide)
    )
    (pin "1" (uuid dc586260-17ff-43ae-a609-783caa0ef2c1))
    (instances
      (project "rbpi-z-hat"
        (path "/d99b0340-d795-4b40-9cde-9851c6cee99d/00000000-0000-0000-0000-00005f0378cd"
          (reference "#PWR0125") (unit 1)
        )
      )
    )
  )

  (symbol (lib_id "power:GNDD") (at 110.49 166.37 0) (unit 1)
    (in_bom yes) (on_board yes) (dnp no)
    (uuid 00000000-0000-0000-0000-00005eda435a)
    (property "Reference" "#PWR0126" (at 110.49 172.72 0)
      (effects (font (size 1.27 1.27)) hide)
    )
    (property "Value" "GNDD" (at 110.5916 170.307 0)
      (effects (font (size 1.27 1.27)))
    )
    (property "Footprint" "" (at 110.49 166.37 0)
      (effects (font (size 1.27 1.27)) hide)
    )
    (property "Datasheet" "" (at 110.49 166.37 0)
      (effects (font (size 1.27 1.27)) hide)
    )
    (pin "1" (uuid 7e15193f-0c3d-48f8-8337-36f5cd5e15dc))
    (instances
      (project "rbpi-z-hat"
        (path "/d99b0340-d795-4b40-9cde-9851c6cee99d/00000000-0000-0000-0000-00005f0378cd"
          (reference "#PWR0126") (unit 1)
        )
      )
    )
  )

  (symbol (lib_id "power:GNDD") (at 118.11 130.81 0) (unit 1)
    (in_bom yes) (on_board yes) (dnp no)
    (uuid 00000000-0000-0000-0000-00005edae883)
    (property "Reference" "#PWR0127" (at 118.11 137.16 0)
      (effects (font (size 1.27 1.27)) hide)
    )
    (property "Value" "GNDD" (at 118.2116 134.747 0)
      (effects (font (size 1.27 1.27)))
    )
    (property "Footprint" "" (at 118.11 130.81 0)
      (effects (font (size 1.27 1.27)) hide)
    )
    (property "Datasheet" "" (at 118.11 130.81 0)
      (effects (font (size 1.27 1.27)) hide)
    )
    (pin "1" (uuid 6db8225f-c03d-4008-badd-db7a6d0c3b17))
    (instances
      (project "rbpi-z-hat"
        (path "/d99b0340-d795-4b40-9cde-9851c6cee99d/00000000-0000-0000-0000-00005f0378cd"
          (reference "#PWR0127") (unit 1)
        )
      )
    )
  )

  (symbol (lib_id "power:GNDD") (at 106.68 125.73 0) (unit 1)
    (in_bom yes) (on_board yes) (dnp no)
    (uuid 00000000-0000-0000-0000-00005edaedc8)
    (property "Reference" "#PWR0128" (at 106.68 132.08 0)
      (effects (font (size 1.27 1.27)) hide)
    )
    (property "Value" "GNDD" (at 106.7816 129.667 0)
      (effects (font (size 1.27 1.27)))
    )
    (property "Footprint" "" (at 106.68 125.73 0)
      (effects (font (size 1.27 1.27)) hide)
    )
    (property "Datasheet" "" (at 106.68 125.73 0)
      (effects (font (size 1.27 1.27)) hide)
    )
    (pin "1" (uuid d4b05757-a82a-4fff-86c5-56155e8d4820))
    (instances
      (project "rbpi-z-hat"
        (path "/d99b0340-d795-4b40-9cde-9851c6cee99d/00000000-0000-0000-0000-00005f0378cd"
          (reference "#PWR0128") (unit 1)
        )
      )
    )
  )

  (symbol (lib_id "Device:R_Pack04") (at 92.71 143.51 270) (unit 1)
    (in_bom yes) (on_board yes) (dnp no)
    (uuid 00000000-0000-0000-0000-00005edb5996)
    (property "Reference" "RN8" (at 92.71 135.89 90)
      (effects (font (size 1.27 1.27)))
    )
    (property "Value" "120R" (at 92.71 148.59 90)
      (effects (font (size 1.27 1.27)))
    )
    (property "Footprint" "Resistor_SMD:R_Array_Concave_4x0402" (at 92.71 150.495 90)
      (effects (font (size 1.27 1.27)) hide)
    )
    (property "Datasheet" "~" (at 92.71 143.51 0)
      (effects (font (size 1.27 1.27)) hide)
    )
    (pin "1" (uuid ffa847a4-7099-44cd-b430-d1ac85aa35be))
    (pin "2" (uuid 1d36fcaf-5603-4f90-a4fe-3f7f2a00936d))
    (pin "3" (uuid eef8e23c-6cff-4463-a631-ebc2fa01bde6))
    (pin "4" (uuid c429a16a-a91e-4908-bb20-bc2102965ec6))
    (pin "5" (uuid 7cb8906b-ed1c-4318-b844-56308c30dfbc))
    (pin "6" (uuid 76894656-da1d-4ad9-81cd-e03da89c7685))
    (pin "7" (uuid 22d9fad1-d6c4-4ada-8934-01b810001aeb))
    (pin "8" (uuid f1163187-3de5-4663-bc3b-c94078eaa477))
    (instances
      (project "rbpi-z-hat"
        (path "/d99b0340-d795-4b40-9cde-9851c6cee99d/00000000-0000-0000-0000-00005f0378cd"
          (reference "RN8") (unit 1)
        )
      )
    )
  )

  (symbol (lib_id "power:+5V") (at 80.01 111.76 0) (unit 1)
    (in_bom yes) (on_board yes) (dnp no)
    (uuid 00000000-0000-0000-0000-00005edbaa87)
    (property "Reference" "#PWR0129" (at 80.01 115.57 0)
      (effects (font (size 1.27 1.27)) hide)
    )
    (property "Value" "+5V" (at 80.391 107.3658 0)
      (effects (font (size 1.27 1.27)))
    )
    (property "Footprint" "" (at 80.01 111.76 0)
      (effects (font (size 1.27 1.27)) hide)
    )
    (property "Datasheet" "" (at 80.01 111.76 0)
      (effects (font (size 1.27 1.27)) hide)
    )
    (pin "1" (uuid 5c94f9d4-31b2-4335-92ae-3bdf024642c4))
    (instances
      (project "rbpi-z-hat"
        (path "/d99b0340-d795-4b40-9cde-9851c6cee99d/00000000-0000-0000-0000-00005f0378cd"
          (reference "#PWR0129") (unit 1)
        )
      )
    )
  )

  (symbol (lib_id "Connector_Generic_MountingPin:Conn_01x06_MountingPin") (at 137.16 140.97 0) (unit 1)
    (in_bom yes) (on_board yes) (dnp no)
    (uuid 00000000-0000-0000-0000-00005f0388c9)
    (property "Reference" "J8" (at 137.16 133.35 0)
      (effects (font (size 1.27 1.27)))
    )
    (property "Value" "Conn_01x06_MountingPin" (at 139.3952 145.4658 0)
      (effects (font (size 1.27 1.27)) (justify left))
    )
    (property "Footprint" "Connector_JST:JST_GH_BM06B-GHS-TBT_1x06-1MP_P1.25mm_Vertical" (at 137.16 140.97 0)
      (effects (font (size 1.27 1.27)) hide)
    )
    (property "Datasheet" "~" (at 137.16 140.97 0)
      (effects (font (size 1.27 1.27)) hide)
    )
    (pin "1" (uuid 495fe04f-8e24-42f4-a692-1511f3e42c02))
    (pin "2" (uuid 41ed26a7-dd90-4e4d-8b65-23520f36bff6))
    (pin "3" (uuid 3e3f1182-a060-4b19-8d7e-bb4c5883ad01))
    (pin "4" (uuid 4f50fabf-1d9f-42e8-b074-4b8d90b3b2b1))
    (pin "5" (uuid 90561082-0dd8-4d2a-bfe6-69a24ad9015c))
    (pin "6" (uuid 276e8db2-d851-43e6-8754-5eab929b542a))
    (pin "MP" (uuid 275a94bf-8dc8-4299-a843-c0b0dd4844a2))
    (instances
      (project "rbpi-z-hat"
        (path "/d99b0340-d795-4b40-9cde-9851c6cee99d/00000000-0000-0000-0000-00005f0378cd"
          (reference "J8") (unit 1)
        )
      )
    )
  )

  (symbol (lib_id "Device:C_Feedthrough") (at 106.68 120.65 0) (unit 1)
    (in_bom yes) (on_board yes) (dnp no)
    (uuid 00000000-0000-0000-0000-00005f03c347)
    (property "Reference" "C8" (at 106.68 115.57 0)
      (effects (font (size 1.27 1.27)))
    )
    (property "Value" "1uF/16V/0805/NFM21PC105B1C3D" (at 106.68 107.95 0)
      (effects (font (size 1.27 1.27)))
    )
    (property "Footprint" "NFM21PC105B1C3D:NFM21PC105B1C3D" (at 106.68 120.65 90)
      (effects (font (size 1.27 1.27)) hide)
    )
    (property "Datasheet" "~" (at 106.68 120.65 90)
      (effects (font (size 1.27 1.27)) hide)
    )
    (pin "1" (uuid 6165d30f-e94b-4bd4-8956-6272ad040b3d))
    (pin "2" (uuid d3e24e19-2df8-4cfc-8967-0fb1fe565a57))
    (pin "3" (uuid 44d415cd-3865-4e30-8301-ad2fe3444a10))
    (instances
      (project "rbpi-z-hat"
        (path "/d99b0340-d795-4b40-9cde-9851c6cee99d/00000000-0000-0000-0000-00005f0378cd"
          (reference "C8") (unit 1)
        )
      )
    )
  )
)
