(kicad_sch (version 20230121) (generator eeschema)

  (uuid 495637c0-4e20-4437-8629-45acdde987d6)

  (paper "A4")

  (lib_symbols
    (symbol "CPU_NXP_68000:68000D" (pin_names (offset 0.762)) (in_bom yes) (on_board yes)
      (property "Reference" "U" (at 0 2.54 0)
        (effects (font (size 1.27 1.27)))
      )
      (property "Value" "68000D" (at 0 -3.81 0)
        (effects (font (size 1.27 1.27)))
      )
      (property "Footprint" "" (at 0 0 0)
        (effects (font (size 1.27 1.27)) hide)
      )
      (property "Datasheet" "https://www.nxp.com/docs/en/reference-manual/MC68000UM.pdf" (at 0 0 0)
        (effects (font (size 1.27 1.27)) hide)
      )
      (property "ki_keywords" "68000 Microprocessor CPU" (at 0 0 0)
        (effects (font (size 1.27 1.27)) hide)
      )
      (property "ki_description" "16/32-bit Microprocessor" (at 0 0 0)
        (effects (font (size 1.27 1.27)) hide)
      )
      (symbol "68000D_0_1"
        (rectangle (start -17.78 57.15) (end 17.78 -57.15)
          (stroke (width 0.254) (type default))
          (fill (type background))
        )
      )
      (symbol "68000D_1_1"
        (pin bidirectional line (at 25.4 -15.24 180) (length 7.62)
          (name "D4" (effects (font (size 1.27 1.27))))
          (number "1" (effects (font (size 1.27 1.27))))
        )
        (pin input inverted (at -25.4 -20.32 0) (length 7.62)
          (name "DTACK" (effects (font (size 1.27 1.27))))
          (number "10" (effects (font (size 1.27 1.27))))
        )
        (pin output inverted (at -25.4 35.56 0) (length 7.62)
          (name "BG" (effects (font (size 1.27 1.27))))
          (number "11" (effects (font (size 1.27 1.27))))
        )
        (pin input inverted (at -25.4 38.1 0) (length 7.62)
          (name "BGACK" (effects (font (size 1.27 1.27))))
          (number "12" (effects (font (size 1.27 1.27))))
        )
        (pin input inverted (at -25.4 33.02 0) (length 7.62)
          (name "BR" (effects (font (size 1.27 1.27))))
          (number "13" (effects (font (size 1.27 1.27))))
        )
        (pin power_in line (at 0 60.96 270) (length 3.81)
          (name "VCC" (effects (font (size 1.27 1.27))))
          (number "14" (effects (font (size 1.27 1.27))))
        )
        (pin input clock (at -25.4 55.88 0) (length 7.62)
          (name "CLK" (effects (font (size 1.27 1.27))))
          (number "15" (effects (font (size 1.27 1.27))))
        )
        (pin power_in line (at 2.54 -60.96 90) (length 3.81)
          (name "GND" (effects (font (size 1.27 1.27))))
          (number "16" (effects (font (size 1.27 1.27))))
        )
        (pin bidirectional inverted (at -25.4 -30.48 0) (length 7.62)
          (name "HALT" (effects (font (size 1.27 1.27))))
          (number "17" (effects (font (size 1.27 1.27))))
        )
        (pin bidirectional inverted (at -25.4 -33.02 0) (length 7.62)
          (name "RESET" (effects (font (size 1.27 1.27))))
          (number "18" (effects (font (size 1.27 1.27))))
        )
        (pin output inverted (at -25.4 12.7 0) (length 7.62)
          (name "VMA" (effects (font (size 1.27 1.27))))
          (number "19" (effects (font (size 1.27 1.27))))
        )
        (pin bidirectional line (at 25.4 -12.7 180) (length 7.62)
          (name "D3" (effects (font (size 1.27 1.27))))
          (number "2" (effects (font (size 1.27 1.27))))
        )
        (pin output line (at -25.4 10.16 0) (length 7.62)
          (name "E" (effects (font (size 1.27 1.27))))
          (number "20" (effects (font (size 1.27 1.27))))
        )
        (pin input inverted (at -25.4 7.62 0) (length 7.62)
          (name "VPA" (effects (font (size 1.27 1.27))))
          (number "21" (effects (font (size 1.27 1.27))))
        )
        (pin input inverted (at -25.4 -15.24 0) (length 7.62)
          (name "BERR" (effects (font (size 1.27 1.27))))
          (number "22" (effects (font (size 1.27 1.27))))
        )
        (pin input inverted (at -25.4 43.18 0) (length 7.62)
          (name "IPL2" (effects (font (size 1.27 1.27))))
          (number "23" (effects (font (size 1.27 1.27))))
        )
        (pin input inverted (at -25.4 45.72 0) (length 7.62)
          (name "IPL1" (effects (font (size 1.27 1.27))))
          (number "24" (effects (font (size 1.27 1.27))))
        )
        (pin input inverted (at -25.4 48.26 0) (length 7.62)
          (name "IPL0" (effects (font (size 1.27 1.27))))
          (number "25" (effects (font (size 1.27 1.27))))
        )
        (pin output line (at -25.4 20.32 0) (length 7.62)
          (name "FC2" (effects (font (size 1.27 1.27))))
          (number "26" (effects (font (size 1.27 1.27))))
        )
        (pin output line (at -25.4 22.86 0) (length 7.62)
          (name "FC1" (effects (font (size 1.27 1.27))))
          (number "27" (effects (font (size 1.27 1.27))))
        )
        (pin output line (at -25.4 25.4 0) (length 7.62)
          (name "FC0" (effects (font (size 1.27 1.27))))
          (number "28" (effects (font (size 1.27 1.27))))
        )
        (pin output line (at 25.4 55.88 180) (length 7.62)
          (name "A1" (effects (font (size 1.27 1.27))))
          (number "29" (effects (font (size 1.27 1.27))))
        )
        (pin bidirectional line (at 25.4 -10.16 180) (length 7.62)
          (name "D2" (effects (font (size 1.27 1.27))))
          (number "3" (effects (font (size 1.27 1.27))))
        )
        (pin output line (at 25.4 53.34 180) (length 7.62)
          (name "A2" (effects (font (size 1.27 1.27))))
          (number "30" (effects (font (size 1.27 1.27))))
        )
        (pin output line (at 25.4 50.8 180) (length 7.62)
          (name "A3" (effects (font (size 1.27 1.27))))
          (number "31" (effects (font (size 1.27 1.27))))
        )
        (pin output line (at 25.4 48.26 180) (length 7.62)
          (name "A4" (effects (font (size 1.27 1.27))))
          (number "32" (effects (font (size 1.27 1.27))))
        )
        (pin output line (at 25.4 45.72 180) (length 7.62)
          (name "A5" (effects (font (size 1.27 1.27))))
          (number "33" (effects (font (size 1.27 1.27))))
        )
        (pin output line (at 25.4 43.18 180) (length 7.62)
          (name "A6" (effects (font (size 1.27 1.27))))
          (number "34" (effects (font (size 1.27 1.27))))
        )
        (pin output line (at 25.4 40.64 180) (length 7.62)
          (name "A7" (effects (font (size 1.27 1.27))))
          (number "35" (effects (font (size 1.27 1.27))))
        )
        (pin output line (at 25.4 38.1 180) (length 7.62)
          (name "A8" (effects (font (size 1.27 1.27))))
          (number "36" (effects (font (size 1.27 1.27))))
        )
        (pin output line (at 25.4 35.56 180) (length 7.62)
          (name "A9" (effects (font (size 1.27 1.27))))
          (number "37" (effects (font (size 1.27 1.27))))
        )
        (pin output line (at 25.4 33.02 180) (length 7.62)
          (name "A10" (effects (font (size 1.27 1.27))))
          (number "38" (effects (font (size 1.27 1.27))))
        )
        (pin output line (at 25.4 30.48 180) (length 7.62)
          (name "A11" (effects (font (size 1.27 1.27))))
          (number "39" (effects (font (size 1.27 1.27))))
        )
        (pin bidirectional line (at 25.4 -7.62 180) (length 7.62)
          (name "D1" (effects (font (size 1.27 1.27))))
          (number "4" (effects (font (size 1.27 1.27))))
        )
        (pin output line (at 25.4 27.94 180) (length 7.62)
          (name "A12" (effects (font (size 1.27 1.27))))
          (number "40" (effects (font (size 1.27 1.27))))
        )
        (pin output line (at 25.4 25.4 180) (length 7.62)
          (name "A13" (effects (font (size 1.27 1.27))))
          (number "41" (effects (font (size 1.27 1.27))))
        )
        (pin output line (at 25.4 22.86 180) (length 7.62)
          (name "A14" (effects (font (size 1.27 1.27))))
          (number "42" (effects (font (size 1.27 1.27))))
        )
        (pin output line (at 25.4 20.32 180) (length 7.62)
          (name "A15" (effects (font (size 1.27 1.27))))
          (number "43" (effects (font (size 1.27 1.27))))
        )
        (pin output line (at 25.4 17.78 180) (length 7.62)
          (name "A16" (effects (font (size 1.27 1.27))))
          (number "44" (effects (font (size 1.27 1.27))))
        )
        (pin output line (at 25.4 15.24 180) (length 7.62)
          (name "A17" (effects (font (size 1.27 1.27))))
          (number "45" (effects (font (size 1.27 1.27))))
        )
        (pin output line (at 25.4 12.7 180) (length 7.62)
          (name "A18" (effects (font (size 1.27 1.27))))
          (number "46" (effects (font (size 1.27 1.27))))
        )
        (pin output line (at 25.4 10.16 180) (length 7.62)
          (name "A19" (effects (font (size 1.27 1.27))))
          (number "47" (effects (font (size 1.27 1.27))))
        )
        (pin output line (at 25.4 7.62 180) (length 7.62)
          (name "A20" (effects (font (size 1.27 1.27))))
          (number "48" (effects (font (size 1.27 1.27))))
        )
        (pin power_in line (at 2.54 60.96 270) (length 3.81)
          (name "VCC" (effects (font (size 1.27 1.27))))
          (number "49" (effects (font (size 1.27 1.27))))
        )
        (pin bidirectional line (at 25.4 -5.08 180) (length 7.62)
          (name "D0" (effects (font (size 1.27 1.27))))
          (number "5" (effects (font (size 1.27 1.27))))
        )
        (pin output line (at 25.4 5.08 180) (length 7.62)
          (name "A21" (effects (font (size 1.27 1.27))))
          (number "50" (effects (font (size 1.27 1.27))))
        )
        (pin output line (at 25.4 2.54 180) (length 7.62)
          (name "A22" (effects (font (size 1.27 1.27))))
          (number "51" (effects (font (size 1.27 1.27))))
        )
        (pin output line (at 25.4 0 180) (length 7.62)
          (name "A23" (effects (font (size 1.27 1.27))))
          (number "52" (effects (font (size 1.27 1.27))))
        )
        (pin power_in line (at 0 -60.96 90) (length 3.81)
          (name "GND" (effects (font (size 1.27 1.27))))
          (number "53" (effects (font (size 1.27 1.27))))
        )
        (pin bidirectional line (at 25.4 -43.18 180) (length 7.62)
          (name "D15" (effects (font (size 1.27 1.27))))
          (number "54" (effects (font (size 1.27 1.27))))
        )
        (pin bidirectional line (at 25.4 -40.64 180) (length 7.62)
          (name "D14" (effects (font (size 1.27 1.27))))
          (number "55" (effects (font (size 1.27 1.27))))
        )
        (pin bidirectional line (at 25.4 -38.1 180) (length 7.62)
          (name "D13" (effects (font (size 1.27 1.27))))
          (number "56" (effects (font (size 1.27 1.27))))
        )
        (pin bidirectional line (at 25.4 -35.56 180) (length 7.62)
          (name "D12" (effects (font (size 1.27 1.27))))
          (number "57" (effects (font (size 1.27 1.27))))
        )
        (pin bidirectional line (at 25.4 -33.02 180) (length 7.62)
          (name "D11" (effects (font (size 1.27 1.27))))
          (number "58" (effects (font (size 1.27 1.27))))
        )
        (pin bidirectional line (at 25.4 -30.48 180) (length 7.62)
          (name "D10" (effects (font (size 1.27 1.27))))
          (number "59" (effects (font (size 1.27 1.27))))
        )
        (pin output inverted (at 25.4 -48.26 180) (length 7.62)
          (name "AS" (effects (font (size 1.27 1.27))))
          (number "6" (effects (font (size 1.27 1.27))))
        )
        (pin bidirectional line (at 25.4 -27.94 180) (length 7.62)
          (name "D9" (effects (font (size 1.27 1.27))))
          (number "60" (effects (font (size 1.27 1.27))))
        )
        (pin bidirectional line (at 25.4 -25.4 180) (length 7.62)
          (name "D8" (effects (font (size 1.27 1.27))))
          (number "61" (effects (font (size 1.27 1.27))))
        )
        (pin bidirectional line (at 25.4 -22.86 180) (length 7.62)
          (name "D7" (effects (font (size 1.27 1.27))))
          (number "62" (effects (font (size 1.27 1.27))))
        )
        (pin bidirectional line (at 25.4 -20.32 180) (length 7.62)
          (name "D6" (effects (font (size 1.27 1.27))))
          (number "63" (effects (font (size 1.27 1.27))))
        )
        (pin bidirectional line (at 25.4 -17.78 180) (length 7.62)
          (name "D5" (effects (font (size 1.27 1.27))))
          (number "64" (effects (font (size 1.27 1.27))))
        )
        (pin output inverted (at 25.4 -50.8 180) (length 7.62)
          (name "UDS" (effects (font (size 1.27 1.27))))
          (number "7" (effects (font (size 1.27 1.27))))
        )
        (pin output inverted (at 25.4 -53.34 180) (length 7.62)
          (name "LDS" (effects (font (size 1.27 1.27))))
          (number "8" (effects (font (size 1.27 1.27))))
        )
        (pin output line (at 25.4 -55.88 180) (length 7.62)
          (name "R/W" (effects (font (size 1.27 1.27))))
          (number "9" (effects (font (size 1.27 1.27))))
        )
      )
    )
    (symbol "jt74:74LS244" (in_bom yes) (on_board yes)
      (property "Reference" "U" (at -7.62 16.51 0)
        (effects (font (size 1.27 1.27)))
      )
      (property "Value" "74LS244" (at -3.81 -21.59 0)
        (effects (font (size 1.27 1.27)))
      )
      (property "Footprint" "" (at -3.81 -21.59 0)
        (effects (font (size 1.27 1.27)) hide)
      )
      (property "Datasheet" "http://www.ti.com/lit/gpn/sn74LS244" (at 0 -16.51 0)
        (effects (font (size 1.27 1.27)) hide)
      )
      (property "ki_keywords" "TTL Buffer BUS 3State" (at 0 0 0)
        (effects (font (size 1.27 1.27)) hide)
      )
      (property "ki_description" "8-bit Bus Buffer 3-State outputs" (at 0 0 0)
        (effects (font (size 1.27 1.27)) hide)
      )
      (symbol "74LS244_1_0"
        (polyline
          (pts
            (xy -0.635 -1.27)
            (xy -0.635 1.27)
            (xy 0.635 1.27)
          )
          (stroke (width 0) (type default))
          (fill (type none))
        )
        (polyline
          (pts
            (xy -1.27 -1.27)
            (xy 0.635 -1.27)
            (xy 0.635 1.27)
            (xy 1.27 1.27)
          )
          (stroke (width 0) (type default))
          (fill (type none))
        )
        (pin input inverted (at -12.7 -10.16 0) (length 5.08)
          (name "OEa" (effects (font (size 1.27 1.27))))
          (number "1" (effects (font (size 1.27 1.27))))
        )
        (pin power_in line (at 0 -15.24 90) (length 5.08) hide
          (name "VSS" (effects (font (size 1.27 1.27))))
          (number "10" (effects (font (size 1.27 1.27))))
        )
        (pin input line (at -12.7 2.54 0) (length 5.08)
          (name "I0b" (effects (font (size 1.27 1.27))))
          (number "11" (effects (font (size 1.27 1.27))))
        )
        (pin tri_state line (at 12.7 5.08 180) (length 5.08)
          (name "O3a" (effects (font (size 1.27 1.27))))
          (number "12" (effects (font (size 1.27 1.27))))
        )
        (pin input line (at -12.7 0 0) (length 5.08)
          (name "I1b" (effects (font (size 1.27 1.27))))
          (number "13" (effects (font (size 1.27 1.27))))
        )
        (pin tri_state line (at 12.7 7.62 180) (length 5.08)
          (name "O2a" (effects (font (size 1.27 1.27))))
          (number "14" (effects (font (size 1.27 1.27))))
        )
        (pin input line (at -12.7 -2.54 0) (length 5.08)
          (name "I2b" (effects (font (size 1.27 1.27))))
          (number "15" (effects (font (size 1.27 1.27))))
        )
        (pin tri_state line (at 12.7 10.16 180) (length 5.08)
          (name "O1a" (effects (font (size 1.27 1.27))))
          (number "16" (effects (font (size 1.27 1.27))))
        )
        (pin input line (at -12.7 -5.08 0) (length 5.08)
          (name "I3b" (effects (font (size 1.27 1.27))))
          (number "17" (effects (font (size 1.27 1.27))))
        )
        (pin tri_state line (at 12.7 12.7 180) (length 5.08)
          (name "O0a" (effects (font (size 1.27 1.27))))
          (number "18" (effects (font (size 1.27 1.27))))
        )
        (pin input inverted (at -12.7 -12.7 0) (length 5.08)
          (name "OEb" (effects (font (size 1.27 1.27))))
          (number "19" (effects (font (size 1.27 1.27))))
        )
        (pin input line (at -12.7 12.7 0) (length 5.08)
          (name "I0a" (effects (font (size 1.27 1.27))))
          (number "2" (effects (font (size 1.27 1.27))))
        )
        (pin power_in line (at 0 15.24 270) (length 5.08) hide
          (name "VCC" (effects (font (size 1.27 1.27))))
          (number "20" (effects (font (size 1.27 1.27))))
        )
        (pin tri_state line (at 12.7 -5.08 180) (length 5.08)
          (name "O3b" (effects (font (size 1.27 1.27))))
          (number "3" (effects (font (size 1.27 1.27))))
        )
        (pin input line (at -12.7 10.16 0) (length 5.08)
          (name "I1a" (effects (font (size 1.27 1.27))))
          (number "4" (effects (font (size 1.27 1.27))))
        )
        (pin tri_state line (at 12.7 -2.54 180) (length 5.08)
          (name "O2b" (effects (font (size 1.27 1.27))))
          (number "5" (effects (font (size 1.27 1.27))))
        )
        (pin input line (at -12.7 7.62 0) (length 5.08)
          (name "I2a" (effects (font (size 1.27 1.27))))
          (number "6" (effects (font (size 1.27 1.27))))
        )
        (pin tri_state line (at 12.7 0 180) (length 5.08)
          (name "O1b" (effects (font (size 1.27 1.27))))
          (number "7" (effects (font (size 1.27 1.27))))
        )
        (pin input line (at -12.7 5.08 0) (length 5.08)
          (name "I3a" (effects (font (size 1.27 1.27))))
          (number "8" (effects (font (size 1.27 1.27))))
        )
        (pin tri_state line (at 12.7 2.54 180) (length 5.08)
          (name "O0b" (effects (font (size 1.27 1.27))))
          (number "9" (effects (font (size 1.27 1.27))))
        )
      )
      (symbol "74LS244_1_1"
        (rectangle (start -7.62 15.24) (end 7.62 -15.24)
          (stroke (width 0.254) (type default))
          (fill (type background))
        )
      )
    )
    (symbol "jt74:74LS245" (pin_names (offset 1.016)) (in_bom yes) (on_board yes)
      (property "Reference" "U" (at -7.62 16.51 0)
        (effects (font (size 1.27 1.27)))
      )
      (property "Value" "74LS245" (at 2.54 -13.97 0)
        (effects (font (size 1.27 1.27)))
      )
      (property "Footprint" "" (at 0 0 0)
        (effects (font (size 1.27 1.27)) hide)
      )
      (property "Datasheet" "http://www.ti.com/lit/gpn/sn74LS245" (at 0 0 0)
        (effects (font (size 1.27 1.27)) hide)
      )
      (property "ki_locked" "" (at 0 0 0)
        (effects (font (size 1.27 1.27)))
      )
      (property "ki_keywords" "TTL BUS 3State" (at 0 0 0)
        (effects (font (size 1.27 1.27)) hide)
      )
      (property "ki_description" "Octal BUS Transceivers, 3-State outputs" (at 0 0 0)
        (effects (font (size 1.27 1.27)) hide)
      )
      (property "ki_fp_filters" "DIP?20*" (at 0 0 0)
        (effects (font (size 1.27 1.27)) hide)
      )
      (symbol "74LS245_0_0"
        (text "buffers" (at 0 -3.81 0)
          (effects (font (size 1.27 1.27)))
        )
      )
      (symbol "74LS245_1_0"
        (polyline
          (pts
            (xy -0.635 -1.27)
            (xy -0.635 1.27)
            (xy 0.635 1.27)
          )
          (stroke (width 0) (type default))
          (fill (type none))
        )
        (polyline
          (pts
            (xy -1.27 -1.27)
            (xy 0.635 -1.27)
            (xy 0.635 1.27)
            (xy 1.27 1.27)
          )
          (stroke (width 0) (type default))
          (fill (type none))
        )
        (pin input line (at -12.7 -10.16 0) (length 5.08)
          (name "A->B" (effects (font (size 1.27 1.27))))
          (number "1" (effects (font (size 1.27 1.27))))
        )
        (pin tri_state line (at 12.7 -5.08 180) (length 5.08)
          (name "B7" (effects (font (size 1.27 1.27))))
          (number "11" (effects (font (size 1.27 1.27))))
        )
        (pin tri_state line (at 12.7 -2.54 180) (length 5.08)
          (name "B6" (effects (font (size 1.27 1.27))))
          (number "12" (effects (font (size 1.27 1.27))))
        )
        (pin tri_state line (at 12.7 0 180) (length 5.08)
          (name "B5" (effects (font (size 1.27 1.27))))
          (number "13" (effects (font (size 1.27 1.27))))
        )
        (pin tri_state line (at 12.7 2.54 180) (length 5.08)
          (name "B4" (effects (font (size 1.27 1.27))))
          (number "14" (effects (font (size 1.27 1.27))))
        )
        (pin tri_state line (at 12.7 5.08 180) (length 5.08)
          (name "B3" (effects (font (size 1.27 1.27))))
          (number "15" (effects (font (size 1.27 1.27))))
        )
        (pin tri_state line (at 12.7 7.62 180) (length 5.08)
          (name "B2" (effects (font (size 1.27 1.27))))
          (number "16" (effects (font (size 1.27 1.27))))
        )
        (pin tri_state line (at 12.7 10.16 180) (length 5.08)
          (name "B1" (effects (font (size 1.27 1.27))))
          (number "17" (effects (font (size 1.27 1.27))))
        )
        (pin tri_state line (at 12.7 12.7 180) (length 5.08)
          (name "B0" (effects (font (size 1.27 1.27))))
          (number "18" (effects (font (size 1.27 1.27))))
        )
        (pin input inverted (at -12.7 -12.7 0) (length 5.08)
          (name "~{CE}" (effects (font (size 1.27 1.27))))
          (number "19" (effects (font (size 1.27 1.27))))
        )
        (pin tri_state line (at -12.7 12.7 0) (length 5.08)
          (name "A0" (effects (font (size 1.27 1.27))))
          (number "2" (effects (font (size 1.27 1.27))))
        )
        (pin tri_state line (at -12.7 10.16 0) (length 5.08)
          (name "A1" (effects (font (size 1.27 1.27))))
          (number "3" (effects (font (size 1.27 1.27))))
        )
        (pin tri_state line (at -12.7 7.62 0) (length 5.08)
          (name "A2" (effects (font (size 1.27 1.27))))
          (number "4" (effects (font (size 1.27 1.27))))
        )
        (pin tri_state line (at -12.7 5.08 0) (length 5.08)
          (name "A3" (effects (font (size 1.27 1.27))))
          (number "5" (effects (font (size 1.27 1.27))))
        )
        (pin tri_state line (at -12.7 2.54 0) (length 5.08)
          (name "A4" (effects (font (size 1.27 1.27))))
          (number "6" (effects (font (size 1.27 1.27))))
        )
        (pin tri_state line (at -12.7 0 0) (length 5.08)
          (name "A5" (effects (font (size 1.27 1.27))))
          (number "7" (effects (font (size 1.27 1.27))))
        )
        (pin tri_state line (at -12.7 -2.54 0) (length 5.08)
          (name "A6" (effects (font (size 1.27 1.27))))
          (number "8" (effects (font (size 1.27 1.27))))
        )
        (pin tri_state line (at -12.7 -5.08 0) (length 5.08)
          (name "A7" (effects (font (size 1.27 1.27))))
          (number "9" (effects (font (size 1.27 1.27))))
        )
      )
      (symbol "74LS245_1_1"
        (rectangle (start -7.62 15.24) (end 7.62 -15.24)
          (stroke (width 0.254) (type default))
          (fill (type background))
        )
      )
    )
  )

  (junction (at 50.8 21.59) (diameter 0) (color 0 0 0 0)
    (uuid 08c8005a-b96b-46cf-8370-98a13b16de9a)
  )
  (junction (at 99.06 52.07) (diameter 0) (color 0 0 0 0)
    (uuid 5a02c015-a950-4088-9afb-c7f81c6e3545)
  )
  (junction (at 50.8 143.51) (diameter 0) (color 0 0 0 0)
    (uuid c440e4ea-4d1e-41cb-bda9-ee2d00663e2c)
  )

  (bus_entry (at 132.08 87.63) (size 2.54 2.54)
    (stroke (width 0) (type default))
    (uuid 1601b989-c6f0-4e02-b6f1-01c3fef57ce5)
  )
  (bus_entry (at 132.08 97.79) (size 2.54 2.54)
    (stroke (width 0) (type default))
    (uuid 236a1427-00df-47f7-afa7-d747eb35484c)
  )
  (bus_entry (at 129.54 35.56) (size 2.54 -2.54)
    (stroke (width 0) (type default))
    (uuid 42b15dca-cfc4-4fe9-9877-ba30a850df74)
  )
  (bus_entry (at 132.08 95.25) (size 2.54 2.54)
    (stroke (width 0) (type default))
    (uuid 44408327-cc62-4ae3-b560-2b84f72a8ca0)
  )
  (bus_entry (at 129.54 38.1) (size 2.54 -2.54)
    (stroke (width 0) (type default))
    (uuid 60c022ae-a726-4334-9b8a-31ff76dbfd76)
  )
  (bus_entry (at 129.54 30.48) (size 2.54 -2.54)
    (stroke (width 0) (type default))
    (uuid 82b81580-9ea8-46cd-9101-2c13d52235b8)
  )
  (bus_entry (at 132.08 90.17) (size 2.54 2.54)
    (stroke (width 0) (type default))
    (uuid 92b8e79b-f5be-42f9-9066-a0248239a461)
  )
  (bus_entry (at 132.08 92.71) (size 2.54 2.54)
    (stroke (width 0) (type default))
    (uuid 99af3ce9-f0f9-4efb-ac47-a251f8831ed4)
  )
  (bus_entry (at 129.54 43.18) (size 2.54 -2.54)
    (stroke (width 0) (type default))
    (uuid a78606a1-a2e4-40e8-a766-2fef4a623839)
  )
  (bus_entry (at 129.54 45.72) (size 2.54 -2.54)
    (stroke (width 0) (type default))
    (uuid cca68256-5a95-4242-9dc3-0457b6721912)
  )
  (bus_entry (at 129.54 40.64) (size 2.54 -2.54)
    (stroke (width 0) (type default))
    (uuid d083f758-e4c7-46f0-acda-e9d4728bc10f)
  )
  (bus_entry (at 129.54 27.94) (size 2.54 -2.54)
    (stroke (width 0) (type default))
    (uuid d542b1ec-d218-4ba4-9613-e87aa5d9f305)
  )
  (bus_entry (at 129.54 33.02) (size 2.54 -2.54)
    (stroke (width 0) (type default))
    (uuid d8bef465-a209-4f74-a9ee-816b0f37e93a)
  )
  (bus_entry (at 132.08 102.87) (size 2.54 2.54)
    (stroke (width 0) (type default))
    (uuid d94340d3-9b5a-453e-b089-7ae3746d16d5)
  )
  (bus_entry (at 132.08 100.33) (size 2.54 2.54)
    (stroke (width 0) (type default))
    (uuid fb2d60e3-a04a-45e4-aa6d-a80ccc7cfb2f)
  )
  (bus_entry (at 132.08 105.41) (size 2.54 2.54)
    (stroke (width 0) (type default))
    (uuid fe819514-3be3-485e-94e2-c541984ae374)
  )

  (wire (pts (xy 99.06 50.8) (xy 99.06 52.07))
    (stroke (width 0) (type default))
    (uuid 0306f1c4-5d37-4765-b675-6760ed0c47bb)
  )
  (bus (pts (xy 134.62 97.79) (xy 134.62 100.33))
    (stroke (width 0) (type default))
    (uuid 0307961a-879d-4520-9a50-d18c45c26a95)
  )

  (wire (pts (xy 50.8 16.51) (xy 50.8 21.59))
    (stroke (width 0) (type default))
    (uuid 046128f5-91f1-4cb4-b17e-1195a1ce45b4)
  )
  (bus (pts (xy 134.62 107.95) (xy 134.62 147.32))
    (stroke (width 0) (type default))
    (uuid 06d1d49d-4770-413c-9e1a-b2558e2f378a)
  )

  (wire (pts (xy 96.52 102.87) (xy 101.6 102.87))
    (stroke (width 0) (type default))
    (uuid 08043c74-63c7-405b-9893-3da4b51f80e7)
  )
  (wire (pts (xy 74.93 110.49) (xy 80.01 110.49))
    (stroke (width 0) (type default))
    (uuid 0cc56ecd-6c20-418f-848b-3832d5ae0df3)
  )
  (wire (pts (xy 93.98 33.02) (xy 99.06 33.02))
    (stroke (width 0) (type default))
    (uuid 13e836f2-9568-4e46-b2fa-1a6523bfe8b3)
  )
  (wire (pts (xy 74.93 44.45) (xy 80.01 44.45))
    (stroke (width 0) (type default))
    (uuid 181925aa-9102-44e9-8455-5ef87ee4bab9)
  )
  (wire (pts (xy 74.93 100.33) (xy 80.01 100.33))
    (stroke (width 0) (type default))
    (uuid 184e5f8d-cf18-4db6-a665-83ea8363dd6e)
  )
  (wire (pts (xy 96.52 97.79) (xy 101.6 97.79))
    (stroke (width 0) (type default))
    (uuid 18b9b28a-55dd-4672-a0aa-9a97f78030b5)
  )
  (bus (pts (xy 132.08 35.56) (xy 132.08 33.02))
    (stroke (width 0) (type default))
    (uuid 1fd74972-a59e-4685-b98e-3faa827d09a8)
  )

  (wire (pts (xy 127 105.41) (xy 132.08 105.41))
    (stroke (width 0) (type default))
    (uuid 2a381f36-6c1c-4867-a7d2-be43a20bc7fc)
  )
  (wire (pts (xy 74.93 97.79) (xy 80.01 97.79))
    (stroke (width 0) (type default))
    (uuid 2b016421-3cd1-4e1e-a2b8-6ab641eda460)
  )
  (bus (pts (xy 132.08 38.1) (xy 132.08 35.56))
    (stroke (width 0) (type default))
    (uuid 2bf5a41d-3213-4715-8a3b-05aece330749)
  )

  (wire (pts (xy 74.93 39.37) (xy 80.01 39.37))
    (stroke (width 0) (type default))
    (uuid 2c82649e-b0cf-4280-8b7b-81b15e1052b8)
  )
  (bus (pts (xy 134.62 102.87) (xy 134.62 105.41))
    (stroke (width 0) (type default))
    (uuid 2dcfdadc-314f-46d1-a794-efd7a4416f15)
  )
  (bus (pts (xy 134.62 100.33) (xy 134.62 102.87))
    (stroke (width 0) (type default))
    (uuid 2e3473d0-0da5-48f6-a73b-ee3a901c13a6)
  )

  (wire (pts (xy 96.52 121.92) (xy 101.6 121.92))
    (stroke (width 0) (type default))
    (uuid 31cda939-780f-40a2-9e90-c93c809922db)
  )
  (wire (pts (xy 124.46 38.1) (xy 129.54 38.1))
    (stroke (width 0) (type default))
    (uuid 33d1553c-2525-4571-9b3e-d173c458f30e)
  )
  (bus (pts (xy 132.08 33.02) (xy 132.08 30.48))
    (stroke (width 0) (type default))
    (uuid 35e4f699-ec65-4866-9f44-57f7e2a4edbf)
  )

  (wire (pts (xy 124.46 30.48) (xy 129.54 30.48))
    (stroke (width 0) (type default))
    (uuid 385ee322-6ae7-42a9-a592-f38ba93b0ce8)
  )
  (bus (pts (xy 132.08 30.48) (xy 132.08 27.94))
    (stroke (width 0) (type default))
    (uuid 3c17b51b-7d58-4934-857d-c693ccbe6dc5)
  )

  (wire (pts (xy 127 97.79) (xy 132.08 97.79))
    (stroke (width 0) (type default))
    (uuid 434e65ff-2995-4140-b048-b17d2652ecff)
  )
  (wire (pts (xy 74.93 92.71) (xy 80.01 92.71))
    (stroke (width 0) (type default))
    (uuid 461a31fa-a7e1-4950-88f4-d180db195f2c)
  )
  (wire (pts (xy 96.52 92.71) (xy 101.6 92.71))
    (stroke (width 0) (type default))
    (uuid 47fc7b7b-67d8-40a8-9b0f-08fe98f6e1b5)
  )
  (wire (pts (xy 74.93 95.25) (xy 80.01 95.25))
    (stroke (width 0) (type default))
    (uuid 48cfc845-77c2-426c-a5fb-8cf51a8c338b)
  )
  (wire (pts (xy 74.93 90.17) (xy 80.01 90.17))
    (stroke (width 0) (type default))
    (uuid 496eda9f-f99b-44de-9e12-b692b25bb1d2)
  )
  (bus (pts (xy 132.08 43.18) (xy 132.08 40.64))
    (stroke (width 0) (type default))
    (uuid 4ba16e49-2b39-41b8-86d5-03e660efc830)
  )

  (wire (pts (xy 96.52 105.41) (xy 101.6 105.41))
    (stroke (width 0) (type default))
    (uuid 4ea804fb-b1c7-4b32-8b16-20e1450a7030)
  )
  (wire (pts (xy 74.93 120.65) (xy 80.01 120.65))
    (stroke (width 0) (type default))
    (uuid 50096c26-f711-43a0-865f-39aa82c00ae5)
  )
  (wire (pts (xy 93.98 27.94) (xy 99.06 27.94))
    (stroke (width 0) (type default))
    (uuid 518b3386-68b2-4c6a-87bd-db7b0d3a2e86)
  )
  (wire (pts (xy 127 87.63) (xy 132.08 87.63))
    (stroke (width 0) (type default))
    (uuid 52e38122-8538-4db2-a35a-fe8ceba8a2c1)
  )
  (wire (pts (xy 124.46 35.56) (xy 129.54 35.56))
    (stroke (width 0) (type default))
    (uuid 555cdc1a-3e87-4588-8f77-f47611814c63)
  )
  (wire (pts (xy 50.8 143.51) (xy 52.07 143.51))
    (stroke (width 0) (type default))
    (uuid 557e6807-e1e5-47cf-90cc-a4e20dc21b58)
  )
  (wire (pts (xy 74.93 29.21) (xy 80.01 29.21))
    (stroke (width 0) (type default))
    (uuid 5b5721a7-da32-4456-a734-4d12b3207ab7)
  )
  (wire (pts (xy 50.8 21.59) (xy 52.07 21.59))
    (stroke (width 0) (type default))
    (uuid 63702892-3588-45da-8186-b622d2c3d327)
  )
  (bus (pts (xy 134.62 90.17) (xy 134.62 92.71))
    (stroke (width 0) (type default))
    (uuid 63dc76d6-f0db-4441-8fc6-22171f5a979b)
  )
  (bus (pts (xy 134.62 105.41) (xy 134.62 107.95))
    (stroke (width 0) (type default))
    (uuid 653fdd7e-4d89-456c-b2b0-85c5ef7aedd6)
  )

  (wire (pts (xy 93.98 52.07) (xy 99.06 52.07))
    (stroke (width 0) (type default))
    (uuid 690aca9b-16bb-4083-854f-2f79e4e4df1e)
  )
  (wire (pts (xy 74.93 26.67) (xy 80.01 26.67))
    (stroke (width 0) (type default))
    (uuid 6c1d3cc5-5f16-450f-8ec9-363063222aab)
  )
  (wire (pts (xy 124.46 33.02) (xy 129.54 33.02))
    (stroke (width 0) (type default))
    (uuid 6cf68749-6a74-4843-8515-4e73a12e3d47)
  )
  (bus (pts (xy 134.62 95.25) (xy 134.62 97.79))
    (stroke (width 0) (type default))
    (uuid 6d34f999-8fbf-426d-ba55-07e7300561e2)
  )

  (wire (pts (xy 93.98 40.64) (xy 99.06 40.64))
    (stroke (width 0) (type default))
    (uuid 76969521-fc73-42de-a39b-5fa0042ba99c)
  )
  (wire (pts (xy 124.46 43.18) (xy 129.54 43.18))
    (stroke (width 0) (type default))
    (uuid 776880eb-e7a7-4eca-aaa1-d63f552c29c5)
  )
  (bus (pts (xy 132.08 27.94) (xy 132.08 25.4))
    (stroke (width 0) (type default))
    (uuid 7ed08764-c093-4e2f-a1a0-426f27259b10)
  )

  (wire (pts (xy 74.93 107.95) (xy 80.01 107.95))
    (stroke (width 0) (type default))
    (uuid 855e8a71-1e40-4b84-a5b3-3ff39d4ebbe1)
  )
  (wire (pts (xy 99.06 52.07) (xy 99.06 53.34))
    (stroke (width 0) (type default))
    (uuid 8711bd2c-f5be-4761-9809-fd307d86a3cf)
  )
  (wire (pts (xy 124.46 45.72) (xy 129.54 45.72))
    (stroke (width 0) (type default))
    (uuid 8820b96d-5b3c-400b-8545-dea3c5aac388)
  )
  (wire (pts (xy 74.93 123.19) (xy 80.01 123.19))
    (stroke (width 0) (type default))
    (uuid 8ce06e6e-adc4-4de0-b82d-952dfb27c943)
  )
  (wire (pts (xy 124.46 40.64) (xy 129.54 40.64))
    (stroke (width 0) (type default))
    (uuid 92985023-712b-40c6-8c10-bf3e88c44ae5)
  )
  (wire (pts (xy 49.53 21.59) (xy 50.8 21.59))
    (stroke (width 0) (type default))
    (uuid 92d3b8ca-470d-4a45-acf7-af64f01c0bb5)
  )
  (wire (pts (xy 127 102.87) (xy 132.08 102.87))
    (stroke (width 0) (type default))
    (uuid 959d5f7f-57dd-47d7-8aff-389aecde9d10)
  )
  (wire (pts (xy 74.93 87.63) (xy 80.01 87.63))
    (stroke (width 0) (type default))
    (uuid 979b6c52-5bc9-466d-b19c-0d6528f377c8)
  )
  (wire (pts (xy 127 90.17) (xy 132.08 90.17))
    (stroke (width 0) (type default))
    (uuid 98f2e49a-149d-4057-95cd-29b7a5e1a2df)
  )
  (wire (pts (xy 50.8 148.59) (xy 50.8 143.51))
    (stroke (width 0) (type default))
    (uuid 9a2e4770-2d15-4494-999e-27664aa7c4e7)
  )
  (wire (pts (xy 74.93 125.73) (xy 80.01 125.73))
    (stroke (width 0) (type default))
    (uuid a0f39c2b-b72c-4bfd-a714-c899aee40816)
  )
  (wire (pts (xy 74.93 31.75) (xy 80.01 31.75))
    (stroke (width 0) (type default))
    (uuid a62eae45-329d-49a3-9189-c072465a2e3d)
  )
  (bus (pts (xy 134.62 147.32) (xy 146.05 147.32))
    (stroke (width 0) (type default))
    (uuid ab68c315-4cf0-4df0-af33-abc5f8fdf10a)
  )

  (wire (pts (xy 74.93 102.87) (xy 80.01 102.87))
    (stroke (width 0) (type default))
    (uuid acc46082-59cc-44a6-b07b-1b926400057d)
  )
  (wire (pts (xy 93.98 43.18) (xy 99.06 43.18))
    (stroke (width 0) (type default))
    (uuid ad6a0b15-bbf6-420f-9eeb-5963fefdf660)
  )
  (wire (pts (xy 74.93 36.83) (xy 80.01 36.83))
    (stroke (width 0) (type default))
    (uuid b05af95b-aeca-4d5a-a53e-3c4f123c11cc)
  )
  (wire (pts (xy 127 100.33) (xy 132.08 100.33))
    (stroke (width 0) (type default))
    (uuid b3ab3edd-a64b-49e0-af7d-ebcd822f95a0)
  )
  (wire (pts (xy 93.98 30.48) (xy 99.06 30.48))
    (stroke (width 0) (type default))
    (uuid bb06bf03-cf70-46d7-b231-366dbb66681b)
  )
  (wire (pts (xy 74.93 113.03) (xy 80.01 113.03))
    (stroke (width 0) (type default))
    (uuid bf9ddff7-e745-4c4c-a97a-9c82614588d9)
  )
  (wire (pts (xy 93.98 35.56) (xy 99.06 35.56))
    (stroke (width 0) (type default))
    (uuid c0b893f6-657c-4fc0-a85c-52c4ab872def)
  )
  (wire (pts (xy 96.52 100.33) (xy 101.6 100.33))
    (stroke (width 0) (type default))
    (uuid cac443ba-7b3c-4f55-bf4a-843d424319af)
  )
  (wire (pts (xy 93.98 45.72) (xy 99.06 45.72))
    (stroke (width 0) (type default))
    (uuid d2bf5402-694d-4263-a3fc-2da1e7244c83)
  )
  (bus (pts (xy 132.08 21.59) (xy 134.62 21.59))
    (stroke (width 0) (type default))
    (uuid d3a9518f-78ef-49e7-95cd-0da8c758d9e0)
  )

  (wire (pts (xy 74.93 115.57) (xy 80.01 115.57))
    (stroke (width 0) (type default))
    (uuid d72a5e2b-c37c-4866-b12e-db249190f69a)
  )
  (bus (pts (xy 132.08 21.59) (xy 132.08 25.4))
    (stroke (width 0) (type default))
    (uuid d87d6594-f53d-4834-a9d6-91752b36bad1)
  )

  (wire (pts (xy 74.93 41.91) (xy 80.01 41.91))
    (stroke (width 0) (type default))
    (uuid da59ab34-c7f2-456b-aa1d-d641e844cecc)
  )
  (wire (pts (xy 49.53 143.51) (xy 50.8 143.51))
    (stroke (width 0) (type default))
    (uuid df1dae26-73ed-4b2b-a547-82f8f7cad64b)
  )
  (bus (pts (xy 132.08 40.64) (xy 132.08 38.1))
    (stroke (width 0) (type default))
    (uuid e4da536d-2ebd-429c-a62c-8c58db80fe77)
  )

  (wire (pts (xy 96.52 90.17) (xy 101.6 90.17))
    (stroke (width 0) (type default))
    (uuid e7da530a-5dcd-41d2-ad54-3c4c4f5d134f)
  )
  (wire (pts (xy 96.52 87.63) (xy 101.6 87.63))
    (stroke (width 0) (type default))
    (uuid e9887f7d-e05e-4085-b4e5-9429ed0b1c51)
  )
  (wire (pts (xy 93.98 38.1) (xy 99.06 38.1))
    (stroke (width 0) (type default))
    (uuid ebc76e0a-54ae-4ea3-b3ee-1eb6092ab50e)
  )
  (wire (pts (xy 96.52 95.25) (xy 101.6 95.25))
    (stroke (width 0) (type default))
    (uuid f508eca7-8a69-4c63-9030-ee31de3ee4e3)
  )
  (wire (pts (xy 74.93 118.11) (xy 80.01 118.11))
    (stroke (width 0) (type default))
    (uuid f522077b-0efb-426b-839b-46abf2d88bab)
  )
  (wire (pts (xy 74.93 105.41) (xy 80.01 105.41))
    (stroke (width 0) (type default))
    (uuid f5d491af-b9e2-4753-9884-de8162f23f8d)
  )
  (wire (pts (xy 74.93 34.29) (xy 80.01 34.29))
    (stroke (width 0) (type default))
    (uuid f6965f5b-2ef3-492d-a16e-ad9a53ab1df3)
  )
  (wire (pts (xy 124.46 27.94) (xy 129.54 27.94))
    (stroke (width 0) (type default))
    (uuid f7b3a12d-b21b-4804-b74c-5004ada3f749)
  )
  (wire (pts (xy 127 95.25) (xy 132.08 95.25))
    (stroke (width 0) (type default))
    (uuid f9d831ec-b94e-44e4-b402-b90af2f0d64a)
  )
  (bus (pts (xy 134.62 92.71) (xy 134.62 95.25))
    (stroke (width 0) (type default))
    (uuid fc79acd1-4a16-4188-bdef-9755898b4ee7)
  )

  (wire (pts (xy 127 92.71) (xy 132.08 92.71))
    (stroke (width 0) (type default))
    (uuid ff115209-e641-4dd7-8529-8c9352fb494f)
  )

  (label "D3" (at 80.01 95.25 180) (fields_autoplaced)
    (effects (font (size 1.27 1.27)) (justify right bottom))
    (uuid 0349ec05-2629-4cd2-b294-7028448cca00)
  )
  (label "MA2" (at 129.54 30.48 180) (fields_autoplaced)
    (effects (font (size 1.27 1.27)) (justify right bottom))
    (uuid 072e0427-bdfa-4f6e-b32a-587aa8b1b75f)
  )
  (label "A7" (at 93.98 43.18 0) (fields_autoplaced)
    (effects (font (size 1.27 1.27)) (justify left bottom))
    (uuid 09dd5c0a-19cc-4e24-9737-c9ce0b9d55c1)
  )
  (label "A1" (at 93.98 27.94 0) (fields_autoplaced)
    (effects (font (size 1.27 1.27)) (justify left bottom))
    (uuid 13f17c57-9fd4-47a4-96ed-42d97f2cd248)
  )
  (label "D3" (at 96.52 95.25 0) (fields_autoplaced)
    (effects (font (size 1.27 1.27)) (justify left bottom))
    (uuid 1a87a23a-8c30-4548-a795-9d12171b9e89)
  )
  (label "A4" (at 80.01 34.29 180) (fields_autoplaced)
    (effects (font (size 1.27 1.27)) (justify right bottom))
    (uuid 1b7f7db7-18c6-4b30-ad72-75c91f4bfeb8)
  )
  (label "MA6" (at 129.54 40.64 180) (fields_autoplaced)
    (effects (font (size 1.27 1.27)) (justify right bottom))
    (uuid 1e35adfe-10d6-4ad3-b037-b463b5b5b18c)
  )
  (label "MA5" (at 129.54 38.1 180) (fields_autoplaced)
    (effects (font (size 1.27 1.27)) (justify right bottom))
    (uuid 1f32861c-2a86-4ab7-ab7d-f1e67968db1e)
  )
  (label "D4" (at 80.01 97.79 180) (fields_autoplaced)
    (effects (font (size 1.27 1.27)) (justify right bottom))
    (uuid 216dc6ce-57b7-43ac-bddb-2235a5534cce)
  )
  (label "A6" (at 80.01 39.37 180) (fields_autoplaced)
    (effects (font (size 1.27 1.27)) (justify right bottom))
    (uuid 27551d93-e5a7-43e8-96dd-a0ed1b3cc8b9)
  )
  (label "D10" (at 96.52 121.92 0) (fields_autoplaced)
    (effects (font (size 1.27 1.27)) (justify left bottom))
    (uuid 27941756-81de-45fc-950b-5d6fba60aa19)
  )
  (label "MA3" (at 129.54 33.02 180) (fields_autoplaced)
    (effects (font (size 1.27 1.27)) (justify right bottom))
    (uuid 2fb48238-9390-49ff-afae-6e2966db33ad)
  )
  (label "D5" (at 96.52 100.33 0) (fields_autoplaced)
    (effects (font (size 1.27 1.27)) (justify left bottom))
    (uuid 30e71898-d331-49e5-a593-eb3ff6792261)
  )
  (label "A6" (at 93.98 40.64 0) (fields_autoplaced)
    (effects (font (size 1.27 1.27)) (justify left bottom))
    (uuid 3b14171e-4f96-49ad-ac5c-c721b9aa9ee7)
  )
  (label "MA4" (at 129.54 35.56 180) (fields_autoplaced)
    (effects (font (size 1.27 1.27)) (justify right bottom))
    (uuid 431df405-8197-4074-a2e1-7b18ba2ebec8)
  )
  (label "D1" (at 80.01 90.17 180) (fields_autoplaced)
    (effects (font (size 1.27 1.27)) (justify right bottom))
    (uuid 46b85012-97f7-4ddf-a82b-e4119fd2ba2d)
  )
  (label "MD1" (at 132.08 90.17 180) (fields_autoplaced)
    (effects (font (size 1.27 1.27)) (justify right bottom))
    (uuid 4bbd1693-bc8f-4fe9-8bbe-df6188b2bcef)
  )
  (label "A8" (at 80.01 44.45 180) (fields_autoplaced)
    (effects (font (size 1.27 1.27)) (justify right bottom))
    (uuid 4bf0e76f-f3bb-4eef-8774-979023f94548)
  )
  (label "A2" (at 93.98 30.48 0) (fields_autoplaced)
    (effects (font (size 1.27 1.27)) (justify left bottom))
    (uuid 4d6213cb-fcf1-407a-9f42-d45bc8ca0d27)
  )
  (label "MD6" (at 132.08 102.87 180) (fields_autoplaced)
    (effects (font (size 1.27 1.27)) (justify right bottom))
    (uuid 51d8c6c6-7196-42eb-bf6d-7fa7d8e1e8f5)
  )
  (label "MA1" (at 129.54 27.94 180) (fields_autoplaced)
    (effects (font (size 1.27 1.27)) (justify right bottom))
    (uuid 58b00ec2-ec66-430b-8791-9a39c42e2f0b)
  )
  (label "MD5" (at 132.08 100.33 180) (fields_autoplaced)
    (effects (font (size 1.27 1.27)) (justify right bottom))
    (uuid 633caa05-95a6-4023-9c42-09cb8e97648d)
  )
  (label "D4" (at 96.52 97.79 0) (fields_autoplaced)
    (effects (font (size 1.27 1.27)) (justify left bottom))
    (uuid 6a1c3a98-2d86-4e24-978d-29637559b939)
  )
  (label "D0" (at 80.01 87.63 180) (fields_autoplaced)
    (effects (font (size 1.27 1.27)) (justify right bottom))
    (uuid 6c247fe9-180f-4b4f-aea0-ff459d1113bb)
  )
  (label "A8" (at 93.98 45.72 0) (fields_autoplaced)
    (effects (font (size 1.27 1.27)) (justify left bottom))
    (uuid 6c6f56f1-bb58-4cbc-b7ae-17f5696a1601)
  )
  (label "D13" (at 80.01 120.65 180) (fields_autoplaced)
    (effects (font (size 1.27 1.27)) (justify right bottom))
    (uuid 718b8012-59ef-4cab-b5f3-434501be91a6)
  )
  (label "MD7" (at 132.08 105.41 180) (fields_autoplaced)
    (effects (font (size 1.27 1.27)) (justify right bottom))
    (uuid 72f5b58a-05f9-40ab-bb4d-1fb80ec6e7d9)
  )
  (label "MA8" (at 129.54 45.72 180) (fields_autoplaced)
    (effects (font (size 1.27 1.27)) (justify right bottom))
    (uuid 7357b30c-c05c-4783-a378-582b301159af)
  )
  (label "D6" (at 80.01 102.87 180) (fields_autoplaced)
    (effects (font (size 1.27 1.27)) (justify right bottom))
    (uuid 7d10c040-58ad-4058-a570-2b1719017615)
  )
  (label "A5" (at 80.01 36.83 180) (fields_autoplaced)
    (effects (font (size 1.27 1.27)) (justify right bottom))
    (uuid 801dc370-a8e0-4435-9a24-aa2e79f1cea5)
  )
  (label "MD2" (at 132.08 92.71 180) (fields_autoplaced)
    (effects (font (size 1.27 1.27)) (justify right bottom))
    (uuid 81f135bc-8527-47e4-8b76-8b203503ddd5)
  )
  (label "MA7" (at 129.54 43.18 180) (fields_autoplaced)
    (effects (font (size 1.27 1.27)) (justify right bottom))
    (uuid 8f95b76f-5bd7-4376-b1e9-17a425649f58)
  )
  (label "A3" (at 93.98 33.02 0) (fields_autoplaced)
    (effects (font (size 1.27 1.27)) (justify left bottom))
    (uuid 9418ebb8-90a6-41ff-8f95-ddb9aa315b49)
  )
  (label "A2" (at 80.01 29.21 180) (fields_autoplaced)
    (effects (font (size 1.27 1.27)) (justify right bottom))
    (uuid 95c5311a-0e59-4d69-bf43-fa61024c428a)
  )
  (label "A4" (at 93.98 35.56 0) (fields_autoplaced)
    (effects (font (size 1.27 1.27)) (justify left bottom))
    (uuid 9ef479e6-f7e4-4159-a529-38ba8e018cfb)
  )
  (label "D8" (at 80.01 107.95 180) (fields_autoplaced)
    (effects (font (size 1.27 1.27)) (justify right bottom))
    (uuid a5bea714-32d7-496a-a00f-cf5267851c55)
  )
  (label "D0" (at 96.52 87.63 0) (fields_autoplaced)
    (effects (font (size 1.27 1.27)) (justify left bottom))
    (uuid a7427b20-3850-4f5a-a883-5e17726c6332)
  )
  (label "MD3" (at 132.08 95.25 180) (fields_autoplaced)
    (effects (font (size 1.27 1.27)) (justify right bottom))
    (uuid ab7344d4-a1b1-4f95-8633-2a5f07c6ae2d)
  )
  (label "D1" (at 96.52 90.17 0) (fields_autoplaced)
    (effects (font (size 1.27 1.27)) (justify left bottom))
    (uuid abf8a7d3-9e1e-4a66-ad82-a4190d7ab513)
  )
  (label "D7" (at 96.52 105.41 0) (fields_autoplaced)
    (effects (font (size 1.27 1.27)) (justify left bottom))
    (uuid b0e2a37f-0645-4d3b-9956-11807b516da0)
  )
  (label "VCC" (at 50.8 16.51 0) (fields_autoplaced)
    (effects (font (size 1.27 1.27)) (justify left bottom))
    (uuid b2b0e0b8-658f-4248-b70e-8b7c1d4a3542)
  )
  (label "MD0" (at 132.08 87.63 180) (fields_autoplaced)
    (effects (font (size 1.27 1.27)) (justify right bottom))
    (uuid b2f5a94b-1ea3-4267-97a9-9e2c166d0ed7)
  )
  (label "VSS" (at 50.8 148.59 0) (fields_autoplaced)
    (effects (font (size 1.27 1.27)) (justify left bottom))
    (uuid b305b0db-0fd5-48e6-b6a2-12f70f193ce2)
  )
  (label "D2" (at 96.52 92.71 0) (fields_autoplaced)
    (effects (font (size 1.27 1.27)) (justify left bottom))
    (uuid b425ef9f-eb33-4492-aaef-cffa4e8aee95)
  )
  (label "D15" (at 80.01 125.73 180) (fields_autoplaced)
    (effects (font (size 1.27 1.27)) (justify right bottom))
    (uuid b568bdf2-d273-409e-99e9-38a2454cc88f)
  )
  (label "D2" (at 80.01 92.71 180) (fields_autoplaced)
    (effects (font (size 1.27 1.27)) (justify right bottom))
    (uuid c3097d11-49fe-4a15-8dad-6e7f735c753b)
  )
  (label "A7" (at 80.01 41.91 180) (fields_autoplaced)
    (effects (font (size 1.27 1.27)) (justify right bottom))
    (uuid c7391576-6ed3-49dd-b71a-f44e3c03fe62)
  )
  (label "MD4" (at 132.08 97.79 180) (fields_autoplaced)
    (effects (font (size 1.27 1.27)) (justify right bottom))
    (uuid ca8db4f1-9d1e-43e2-bf76-85fcd865a7d9)
  )
  (label "D7" (at 80.01 105.41 180) (fields_autoplaced)
    (effects (font (size 1.27 1.27)) (justify right bottom))
    (uuid cabb2815-8f44-48ce-9a0f-a3470ef0c3c6)
  )
  (label "D10" (at 80.01 113.03 180) (fields_autoplaced)
    (effects (font (size 1.27 1.27)) (justify right bottom))
    (uuid d333c115-b96e-48e1-8cae-3e1e7ad550ff)
  )
  (label "D14" (at 80.01 123.19 180) (fields_autoplaced)
    (effects (font (size 1.27 1.27)) (justify right bottom))
    (uuid d5782f80-4ad0-4d66-a6f2-b29e4f77c3b0)
  )
  (label "D11" (at 80.01 115.57 180) (fields_autoplaced)
    (effects (font (size 1.27 1.27)) (justify right bottom))
    (uuid d9ef52a1-d909-4351-b2f7-248529484e17)
  )
  (label "D9" (at 80.01 110.49 180) (fields_autoplaced)
    (effects (font (size 1.27 1.27)) (justify right bottom))
    (uuid dc980d84-cfec-4d75-b718-cd745c1d6031)
  )
  (label "A5" (at 93.98 38.1 0) (fields_autoplaced)
    (effects (font (size 1.27 1.27)) (justify left bottom))
    (uuid de703a39-3e03-48e3-9c09-66a244ce29d5)
  )
  (label "D6" (at 96.52 102.87 0) (fields_autoplaced)
    (effects (font (size 1.27 1.27)) (justify left bottom))
    (uuid e794e014-f4a8-42d4-834c-2556ad61743b)
  )
  (label "D5" (at 80.01 100.33 180) (fields_autoplaced)
    (effects (font (size 1.27 1.27)) (justify right bottom))
    (uuid e8f0c1eb-516d-4332-a712-2e1544aeb690)
  )
  (label "VSS" (at 93.98 52.07 0) (fields_autoplaced)
    (effects (font (size 1.27 1.27)) (justify left bottom))
    (uuid ef9d9f21-0451-48e8-a0b6-3071c5971db6)
  )
  (label "A3" (at 80.01 31.75 180) (fields_autoplaced)
    (effects (font (size 1.27 1.27)) (justify right bottom))
    (uuid f155b8be-9198-4712-bd5b-7f928af5d492)
  )
  (label "D12" (at 80.01 118.11 180) (fields_autoplaced)
    (effects (font (size 1.27 1.27)) (justify right bottom))
    (uuid f2159e7a-e6b1-479f-8a4f-33bd75bcf6a7)
  )
  (label "A1" (at 80.01 26.67 180) (fields_autoplaced)
    (effects (font (size 1.27 1.27)) (justify right bottom))
    (uuid f741a2ee-e697-4992-94bb-c4e63c25a935)
  )

  (hierarchical_label "MA[1..23]" (shape output) (at 134.62 21.59 0) (fields_autoplaced)
    (effects (font (size 1.27 1.27)) (justify left))
    (uuid 74ccb7f7-1c48-4418-aa7f-322dc78a7e1e)
  )
  (hierarchical_label "MD[0..15]" (shape bidirectional) (at 146.05 147.32 0) (fields_autoplaced)
    (effects (font (size 1.27 1.27)) (justify left))
    (uuid d298ca7f-57cd-4174-8471-69f8604650c3)
  )

  (symbol (lib_id "jt74:74LS245") (at 114.3 100.33 0) (unit 1)
    (in_bom yes) (on_board yes) (dnp no)
    (uuid 0f6cb74f-de5e-4e96-bdd4-b0933db76a5b)
    (property "Reference" "IC2" (at 120.65 83.82 0)
      (effects (font (size 1.27 1.27)))
    )
    (property "Value" "74LS245" (at 116.84 114.3 0)
      (effects (font (size 1.27 1.27)))
    )
    (property "Footprint" "" (at 114.3 100.33 0)
      (effects (font (size 1.27 1.27)) hide)
    )
    (property "Datasheet" "http://www.ti.com/lit/gpn/sn74LS245" (at 114.3 100.33 0)
      (effects (font (size 1.27 1.27)) hide)
    )
    (pin "1" (uuid a01004af-81d1-444f-9301-238f28938363))
    (pin "11" (uuid 19554ddf-feb6-4a00-98da-2d055d25c385))
    (pin "12" (uuid a9f21739-4bc7-4d21-ad34-7c91515cec9a))
    (pin "13" (uuid adbcc7bd-2fc9-4187-9707-8284603df901))
    (pin "14" (uuid 6618dc89-9091-4878-99f4-b45e3b7806f8))
    (pin "15" (uuid fa52391f-6fc9-41fc-b96d-208552188c7f))
    (pin "16" (uuid d4d73fdc-7b1b-4d07-8652-f0b03e50afed))
    (pin "17" (uuid 57b5fd11-79b5-4369-923b-2244f3aeb4de))
    (pin "18" (uuid c87bbf43-03e4-4708-b3f7-c15ef903dac2))
    (pin "19" (uuid c07188a0-87df-485f-987d-9f315c08ace7))
    (pin "2" (uuid f68125d8-e58b-4441-b905-e7948deaa92b))
    (pin "3" (uuid d258dfbc-c890-4ce5-95e7-daa90da22870))
    (pin "4" (uuid a066ddc4-5008-46d1-8417-d441ca2af6f4))
    (pin "5" (uuid 6a4197bb-0361-464b-a8d2-8886269e4049))
    (pin "6" (uuid 9eaa3a0a-e70d-48e7-8da7-75b20f144c5e))
    (pin "7" (uuid 8a58fc51-7136-41ff-8882-5cb010824786))
    (pin "8" (uuid 74770c29-a860-4554-8c3c-c972c68472cd))
    (pin "9" (uuid fa27b778-5233-470d-bc97-af7862f36cf1))
    (instances
      (project "wwfsstar"
        (path "/9b45fe8f-ccde-4083-bbaa-82d9a9454022/50fdd19b-ac4b-4056-8d66-992b35bef780"
          (reference "IC2") (unit 1)
        )
      )
    )
  )

  (symbol (lib_id "jt74:74LS244") (at 111.76 40.64 0) (unit 1)
    (in_bom yes) (on_board yes) (dnp no)
    (uuid 7948663a-c2f7-4f76-8baa-0e40006aea6b)
    (property "Reference" "IC75" (at 116.84 24.13 0)
      (effects (font (size 1.27 1.27)))
    )
    (property "Value" "74LS244" (at 114.3 54.61 0)
      (effects (font (size 1.27 1.27)))
    )
    (property "Footprint" "" (at 107.95 62.23 0)
      (effects (font (size 1.27 1.27)) hide)
    )
    (property "Datasheet" "http://www.ti.com/lit/gpn/sn74LS244" (at 111.76 57.15 0)
      (effects (font (size 1.27 1.27)) hide)
    )
    (pin "1" (uuid 5116d762-9476-44bb-96b6-4e8c0a9fd938))
    (pin "10" (uuid 94b0a998-5a77-413a-8785-cc1194ca9860))
    (pin "11" (uuid b128cbd6-bf3f-4230-8028-58a7e3e6e061))
    (pin "12" (uuid 2a748efd-012a-46f6-ba7f-f2b7f4651c17))
    (pin "13" (uuid a3ae7143-8a0d-418f-b32e-026aa6a6aac2))
    (pin "14" (uuid f8c66921-14ed-44f1-9f58-7ee72b1788b8))
    (pin "15" (uuid 366d5028-ec15-4168-b60a-86d62d7fc9ea))
    (pin "16" (uuid c9e8b838-9371-4756-a52b-109972296c9e))
    (pin "17" (uuid 5efaf76f-73d3-4592-8f56-65fdd6fe5a97))
    (pin "18" (uuid 27f53092-1beb-41fb-ba18-55b264afece8))
    (pin "19" (uuid 110cbcb0-21fe-4b36-8dd5-7fd84012c3c5))
    (pin "2" (uuid eff83d94-504e-4a94-b139-326e4d645638))
    (pin "20" (uuid fde340dd-d6d5-41b1-bbec-653e5865d92d))
    (pin "3" (uuid c2ab4b4f-5510-43f1-9425-29b847807712))
    (pin "4" (uuid 4fdc49bb-61b5-41b1-937f-dc4be210fb6b))
    (pin "5" (uuid 2d33d319-63ad-47e3-8b64-ab13399ebb9d))
    (pin "6" (uuid 463568e8-19c0-4f7d-ae2a-3364292c11d8))
    (pin "7" (uuid 6dc07dea-219a-499b-b8af-d416b57f3de8))
    (pin "8" (uuid a0dcce00-b747-47c3-bc88-a3050a80f7c6))
    (pin "9" (uuid dbc207dd-36c1-4524-be0f-aafbfc8af410))
    (instances
      (project "wwfsstar"
        (path "/9b45fe8f-ccde-4083-bbaa-82d9a9454022/50fdd19b-ac4b-4056-8d66-992b35bef780"
          (reference "IC75") (unit 1)
        )
      )
    )
  )

  (symbol (lib_id "CPU_NXP_68000:68000D") (at 49.53 82.55 0) (unit 1)
    (in_bom yes) (on_board yes) (dnp no) (fields_autoplaced)
    (uuid dae8ffc6-52c3-43de-a8e8-07879e4e4291)
    (property "Reference" "IC63" (at 54.2641 20.32 0)
      (effects (font (size 1.27 1.27)) (justify left))
    )
    (property "Value" "68000D" (at 54.2641 22.86 0)
      (effects (font (size 1.27 1.27)) (justify left))
    )
    (property "Footprint" "" (at 49.53 82.55 0)
      (effects (font (size 1.27 1.27)) hide)
    )
    (property "Datasheet" "https://www.nxp.com/docs/en/reference-manual/MC68000UM.pdf" (at 49.53 82.55 0)
      (effects (font (size 1.27 1.27)) hide)
    )
    (pin "1" (uuid e7d5fb63-5e1b-41e5-947a-f7bd0dda60ce))
    (pin "10" (uuid fd46b39b-765c-4b34-a769-3e976688ce04))
    (pin "11" (uuid d23de48e-05ff-4363-8832-70270e94cdb2))
    (pin "12" (uuid c8f0b829-6a33-41a4-baed-178c7d62b5f0))
    (pin "13" (uuid 9730ae6c-1a44-42e2-a9bc-dc84bce10061))
    (pin "14" (uuid f7b7c1fc-c124-4965-b704-fdc1541c5c83))
    (pin "15" (uuid 39493174-9ed5-441c-aeb9-c038d691910d))
    (pin "16" (uuid 35d78bb3-e065-4793-a707-b814b4d6aee3))
    (pin "17" (uuid 0cf9e220-3a64-4ce2-906b-9e2e1ee87a93))
    (pin "18" (uuid a7449db4-e396-4f11-829e-62fc0069682d))
    (pin "19" (uuid 00b58c05-137e-4b92-9e7a-c99146a729bf))
    (pin "2" (uuid 93ab808d-d94c-43d0-a352-89b095246dc8))
    (pin "20" (uuid cd70953b-6a18-41cd-a254-b16583a52ab2))
    (pin "21" (uuid c4fa33cb-f0bb-4e5e-9574-c35639230791))
    (pin "22" (uuid 82fa1727-adab-451f-8b5b-dfb1af0988e9))
    (pin "23" (uuid ada90c53-6009-44b1-9cc0-430721ae6e7a))
    (pin "24" (uuid 85cac496-8af9-4989-bca7-4c813e2761b3))
    (pin "25" (uuid ed7ac5b9-54be-4e5a-bf26-a11ec0a6658d))
    (pin "26" (uuid f901f44b-4c29-49e1-842d-ad7cb33d71b4))
    (pin "27" (uuid 119fe8a0-3332-4954-84c3-fb737cbd6683))
    (pin "28" (uuid 9f4df14e-76a2-4012-b152-66ee383f34aa))
    (pin "29" (uuid 7f3191b0-a891-4a2e-bda5-01be9264a8e6))
    (pin "3" (uuid 65fde106-d610-489b-b733-2802a1281f01))
    (pin "30" (uuid f84d21ad-313a-4925-9fee-a6b34073e144))
    (pin "31" (uuid fc07da56-fa80-407e-83bf-54ece7eb1154))
    (pin "32" (uuid 053c4b93-8e8d-434d-8c9f-55efa20340ff))
    (pin "33" (uuid b3810c60-076c-458a-b838-152d8cef536c))
    (pin "34" (uuid c8d73ab0-401e-48cb-8448-de245e952bc6))
    (pin "35" (uuid 75be91f8-d2e1-4a7d-8231-a68b985743aa))
    (pin "36" (uuid bbd3be31-59c0-4161-bdba-297ddde53854))
    (pin "37" (uuid 9bafdf3a-c18d-4077-9a1e-fff3b5ade887))
    (pin "38" (uuid 54913817-692d-498b-a2ca-6dd51d3de454))
    (pin "39" (uuid 28cb78f4-2afc-47b7-800e-23aca55f3274))
    (pin "4" (uuid c04b189e-2c8d-4f9d-8595-91a23248bb8a))
    (pin "40" (uuid 518dbd8d-6f2e-4f42-ab53-b6e5b28060d8))
    (pin "41" (uuid e74300bb-b2e1-4702-ba41-221c567b04e5))
    (pin "42" (uuid afe8db82-64db-4a24-960e-7e3f708ba58a))
    (pin "43" (uuid edd5bb09-5691-4525-80bd-af37b68a7e35))
    (pin "44" (uuid 251535b1-df52-4ecb-9fb1-10ea970b77a6))
    (pin "45" (uuid a8f0d90d-1db7-4ab8-80b3-8ef687e39457))
    (pin "46" (uuid 70bc7cc1-7103-4a06-81da-bf3febc6e79f))
    (pin "47" (uuid b1a95884-46df-45a0-b904-befe81b21c80))
    (pin "48" (uuid b9c4ec26-b34a-4b5b-9e86-f24cf8f1afa1))
    (pin "49" (uuid ad72d4e6-4d92-4c77-8c04-8db20935d547))
    (pin "5" (uuid 8bc8fb2b-7149-4bcb-ac75-fe798c390a4a))
    (pin "50" (uuid 8d389934-d9b1-4fa9-8fde-cb2ff4219981))
    (pin "51" (uuid 2832d901-4133-44ae-b867-e333794c6d45))
    (pin "52" (uuid 54a967a9-5c65-45d8-8f17-36affa1d8deb))
    (pin "53" (uuid b3f2d2de-7c51-4ca3-905e-57f71d9c9988))
    (pin "54" (uuid 5c11a275-c8af-499f-844b-05435c9ad428))
    (pin "55" (uuid 45283af6-55d7-485f-8d54-f7000f8f5143))
    (pin "56" (uuid 88abb6c5-b9de-4670-ba9f-10f90c355c96))
    (pin "57" (uuid 5f520875-a8da-4e6c-909a-301077306ce5))
    (pin "58" (uuid 05eab169-62be-4abd-83d2-3b08656538ec))
    (pin "59" (uuid 08ffa688-272e-452a-a92f-440aa8a62f01))
    (pin "6" (uuid d7972bf4-25b1-4ad2-903f-d809c3ab9b48))
    (pin "60" (uuid 5722b22f-addc-47e1-873e-a0f8a2da8701))
    (pin "61" (uuid 12ad15e5-44dc-4799-ba3f-e5fc54380de0))
    (pin "62" (uuid 73aa72e1-7fd0-48b5-8cb6-0fcf2e59b4f1))
    (pin "63" (uuid 4520d8d1-e48d-4b73-a75a-f21f933252f0))
    (pin "64" (uuid d4694e2f-88f5-4b60-a09f-9987014ce256))
    (pin "7" (uuid 18648e36-e3df-40f6-8e5c-efd39f194391))
    (pin "8" (uuid 29deab72-8ff9-4d38-888a-7e4c315670cf))
    (pin "9" (uuid 7e5e8c37-65e6-40ac-8a7d-a17d1fc50593))
    (instances
      (project "wwfsstar"
        (path "/9b45fe8f-ccde-4083-bbaa-82d9a9454022/50fdd19b-ac4b-4056-8d66-992b35bef780"
          (reference "IC63") (unit 1)
        )
      )
    )
  )

  (symbol (lib_id "jt74:74LS245") (at 114.3 134.62 0) (unit 1)
    (in_bom yes) (on_board yes) (dnp no)
    (uuid e305ca42-993e-4b13-810c-fb087ff91cdf)
    (property "Reference" "IC3" (at 119.38 118.11 0)
      (effects (font (size 1.27 1.27)))
    )
    (property "Value" "74LS245" (at 116.84 148.59 0)
      (effects (font (size 1.27 1.27)))
    )
    (property "Footprint" "" (at 114.3 134.62 0)
      (effects (font (size 1.27 1.27)) hide)
    )
    (property "Datasheet" "http://www.ti.com/lit/gpn/sn74LS245" (at 114.3 134.62 0)
      (effects (font (size 1.27 1.27)) hide)
    )
    (pin "1" (uuid 64fd1404-f907-4e3a-b49a-d9441c3b5b11))
    (pin "11" (uuid 56066540-a5b0-406a-a21f-7bd056647204))
    (pin "12" (uuid 13eba541-1e18-4b84-9460-02e6a6935c52))
    (pin "13" (uuid b4a6dc1c-5f13-4e11-8bcc-8d4e1b6ae162))
    (pin "14" (uuid eee76616-9831-4328-8867-01bae623e1ee))
    (pin "15" (uuid 65918d79-cff2-432f-8268-71d10e134e58))
    (pin "16" (uuid b4a57dda-fa1c-4a66-88b7-b1fff4b2cee0))
    (pin "17" (uuid 53c01091-e846-4de8-8413-ac17876cca63))
    (pin "18" (uuid 015ad26c-e405-4da3-ab6e-aa8353173e4c))
    (pin "19" (uuid 69892744-dd28-4e83-8e60-101154b2e810))
    (pin "2" (uuid 498274e2-c1c0-40aa-a2d8-3759d330bef9))
    (pin "3" (uuid 5e4790c1-2208-4ee6-8d46-1787f451a3ce))
    (pin "4" (uuid d98cba2c-cceb-4a62-aad7-9014f6d42c02))
    (pin "5" (uuid 1df05fd6-3abc-4020-b91d-3f3c6f4fc12f))
    (pin "6" (uuid f9b45440-bfda-420c-a32c-1528de3173d7))
    (pin "7" (uuid f5487790-486c-4b72-b9af-af127a6d4e78))
    (pin "8" (uuid beda353c-209f-4656-847b-1705e1bb9788))
    (pin "9" (uuid d43757de-ec2e-4b84-bcb2-6ea1767e4f85))
    (instances
      (project "wwfsstar"
        (path "/9b45fe8f-ccde-4083-bbaa-82d9a9454022/50fdd19b-ac4b-4056-8d66-992b35bef780"
          (reference "IC3") (unit 1)
        )
      )
    )
  )
)
