(kicad_sch (version 20230121) (generator eeschema)

  (uuid 61fe4c73-be59-4519-98f1-a634322a841d)

  (paper "A4" portrait)

  (title_block
    (title "Converted schematics of Atari 260/520 ST")
    (date "2023-04-30")
    (rev "0")
    (comment 1 "…sporniket/kicad-conversions--atari-260-520-st-motherboard--c070231")
    (comment 2 "Original repository : https://github.com/…")
    (comment 4 "Reference : C070231")
  )

  (lib_symbols
  )


  (text "Page 10" (at 176.53 156.21 0)
    (effects (font (size 1.27 1.27)) (justify left bottom))
    (uuid 16243a8f-f830-4686-b55b-d140be4e9fc2)
  )
  (text "Page 4" (at 176.53 80.01 0)
    (effects (font (size 1.27 1.27)) (justify left bottom))
    (uuid 221bef83-3ea7-4d3f-adeb-53a8a07c6273)
  )
  (text "Sheet 1" (at 25.4 50.8 0)
    (effects (font (size 3.9878 3.9878)) (justify left bottom))
    (uuid 2891767f-251c-48c4-91c0-deb1b368f45c)
  )
  (text "Page 7" (at 176.53 110.49 0)
    (effects (font (size 1.27 1.27)) (justify left bottom))
    (uuid 343a1668-7762-46c7-9fd5-7dde82b71b61)
  )
  (text "Page 13" (at 176.53 186.69 0)
    (effects (font (size 1.27 1.27)) (justify left bottom))
    (uuid 3fa0830c-7571-4bc0-9727-dbf17f4a5e1c)
  )
  (text "Page 9" (at 176.53 146.05 0)
    (effects (font (size 1.27 1.27)) (justify left bottom))
    (uuid 3fd35be5-cafd-4188-a3e6-7540d0035bed)
  )
  (text "Page 14" (at 176.53 212.09 0)
    (effects (font (size 1.27 1.27)) (justify left bottom))
    (uuid 4116698e-1037-4179-9e65-623390fd0142)
  )
  (text "Page 6" (at 176.53 100.33 0)
    (effects (font (size 1.27 1.27)) (justify left bottom))
    (uuid 477892a1-722e-4cda-bb6c-fcdb8ba5f93e)
  )
  (text "Sheet 3" (at 25.4 203.2 0)
    (effects (font (size 3.9878 3.9878)) (justify left bottom))
    (uuid 64234354-a2e3-404c-8ce5-4375cab55b6c)
  )
  (text "Page 2" (at 176.53 59.69 0)
    (effects (font (size 1.27 1.27)) (justify left bottom))
    (uuid 795e68e2-c9ba-45cf-9bff-89b8fae05b5a)
  )
  (text "Page 11" (at 176.53 166.37 0)
    (effects (font (size 1.27 1.27)) (justify left bottom))
    (uuid 9adfbee2-2855-4573-b7ae-891938173252)
  )
  (text "Table of content" (at 24.13 38.1 0)
    (effects (font (size 12.7 12.7) (thickness 2.54) bold) (justify left bottom))
    (uuid 9bac9ad3-a7b9-47f0-87c7-d8630653df68)
  )
  (text "Page 3" (at 176.53 69.85 0)
    (effects (font (size 1.27 1.27)) (justify left bottom))
    (uuid c8b92953-cd23-44e6-85ce-083fb8c3f20f)
  )
  (text "Sheet 2" (at 25.4 127 0)
    (effects (font (size 3.9878 3.9878)) (justify left bottom))
    (uuid d3d73fed-50f4-4742-947e-a58ce2834d8c)
  )
  (text "Page 12" (at 176.53 176.53 0)
    (effects (font (size 1.27 1.27)) (justify left bottom))
    (uuid e4fc851a-8de7-4aa7-967e-745df7aa04dc)
  )
  (text "Page 5" (at 176.53 90.17 0)
    (effects (font (size 1.27 1.27)) (justify left bottom))
    (uuid e7369115-d491-4ef3-be3d-f5298992c3e8)
  )
  (text "Page 8" (at 176.53 135.89 0)
    (effects (font (size 1.27 1.27)) (justify left bottom))
    (uuid fc74917b-64f5-4509-9e58-73688b7ac8f2)
  )

  (sheet (at 25.4 133.35) (size 160.02 3.81) (fields_autoplaced)
    (stroke (width 0) (type solid))
    (fill (color 0 0 0 0.0000))
    (uuid 00000000-0000-0000-0000-000062c842ff)
    (property "Sheetname" "U15–MMU ; U22-23-26-27–Bus isolator" (at 25.4 132.3717 0)
      (effects (font (size 1.8034 1.8034)) (justify left bottom))
    )
    (property "Sheetfile" "subsheet_200.kicad_sch" (at 25.4 137.7446 0)
      (effects (font (size 1.27 1.27)) (justify left top))
    )
    (instances
      (project "motherboard"
        (path "/61fe4c73-be59-4519-98f1-a634322a841d" (page "8"))
      )
    )
  )

  (sheet (at 25.4 143.51) (size 160.02 3.81) (fields_autoplaced)
    (stroke (width 0) (type solid))
    (fill (color 0 0 0 0.0000))
    (uuid 00000000-0000-0000-0000-000062db00cc)
    (property "Sheetname" "U16-17-19-24-25-28-29-30-32-33-34-38-42-43-44-45-RAM" (at 25.4 142.5317 0)
      (effects (font (size 1.8034 1.8034)) (justify left bottom))
    )
    (property "Sheetfile" "subsheet_201.kicad_sch" (at 25.4 147.9046 0)
      (effects (font (size 1.27 1.27)) (justify left top))
    )
    (instances
      (project "motherboard"
        (path "/61fe4c73-be59-4519-98f1-a634322a841d" (page "9"))
      )
    )
  )

  (sheet (at 25.4 153.67) (size 160.02 3.81) (fields_autoplaced)
    (stroke (width 0) (type solid))
    (fill (color 0 0 0 0.0000))
    (uuid 00000000-0000-0000-0000-000062e3a54e)
    (property "Sheetname" "U31-Shifter ; J6-Video port (includes details from Sheet 3)" (at 25.4 152.6917 0)
      (effects (font (size 1.8034 1.8034)) (justify left bottom))
    )
    (property "Sheetfile" "subsheet_202.kicad_sch" (at 25.4 158.0646 0)
      (effects (font (size 1.27 1.27)) (justify left top))
    )
    (instances
      (project "motherboard"
        (path "/61fe4c73-be59-4519-98f1-a634322a841d" (page "10"))
      )
    )
  )

  (sheet (at 25.4 163.83) (size 160.02 3.81) (fields_autoplaced)
    (stroke (width 0) (type solid))
    (fill (color 0 0 0 0.0000))
    (uuid 00000000-0000-0000-0000-00006351bff4)
    (property "Sheetname" "U2-3-4-5-6-7-EPROMs ; J1-Cartridge port" (at 25.4 162.8517 0)
      (effects (font (size 1.8034 1.8034)) (justify left bottom))
    )
    (property "Sheetfile" "subsheet_203.kicad_sch" (at 25.4 168.2246 0)
      (effects (font (size 1.27 1.27)) (justify left top))
    )
    (instances
      (project "motherboard"
        (path "/61fe4c73-be59-4519-98f1-a634322a841d" (page "11"))
      )
    )
  )

  (sheet (at 25.4 173.99) (size 160.02 3.81) (fields_autoplaced)
    (stroke (width 0) (type solid))
    (fill (color 0 0 0 0.0000))
    (uuid 00000000-0000-0000-0000-000063c0e747)
    (property "Sheetname" "U12-GLUE" (at 25.4 173.0117 0)
      (effects (font (size 1.8034 1.8034)) (justify left bottom))
    )
    (property "Sheetfile" "subsheet_204.kicad_sch" (at 25.4 178.3846 0)
      (effects (font (size 1.27 1.27)) (justify left top))
    )
    (instances
      (project "motherboard"
        (path "/61fe4c73-be59-4519-98f1-a634322a841d" (page "12"))
      )
    )
  )

  (sheet (at 25.4 87.63) (size 160.02 3.81) (fields_autoplaced)
    (stroke (width 0.1524) (type solid))
    (fill (color 0 0 0 0.0000))
    (uuid 0a8dd614-bc1e-4460-8616-709830470ec1)
    (property "Sheetname" "U19–40–YM2149 ; J5–Parallel port" (at 25.4 86.6534 0)
      (effects (font (size 1.8 1.8)) (justify left bottom))
    )
    (property "Sheetfile" "subsheet_103.kicad_sch" (at 25.4 92.0246 0)
      (effects (font (size 1.27 1.27)) (justify left top))
    )
    (instances
      (project "motherboard"
        (path "/61fe4c73-be59-4519-98f1-a634322a841d" (page "5"))
      )
    )
  )

  (sheet (at 25.4 209.55) (size 160.02 3.81) (fields_autoplaced)
    (stroke (width 0.1524) (type solid))
    (fill (color 0 0 0 0.0000))
    (uuid 2a76ccff-a4af-4964-bb63-bf706778208d)
    (property "Sheetname" "Y2–32MHz clock ; Y3–U41–Modulator clock" (at 25.4 208.8384 0)
      (effects (font (size 1.27 1.27)) (justify left bottom))
    )
    (property "Sheetfile" "subsheet_300.kicad_sch" (at 25.4 213.9446 0)
      (effects (font (size 1.27 1.27)) (justify left top))
    )
    (instances
      (project "motherboard"
        (path "/61fe4c73-be59-4519-98f1-a634322a841d" (page "14"))
      )
    )
  )

  (sheet (at 25.4 57.15) (size 160.02 3.81) (fields_autoplaced)
    (stroke (width 0.1524) (type solid))
    (fill (color 0 0 0 0.0000))
    (uuid 3540a282-3d60-41a6-91eb-10c674ce4d4d)
    (property "Sheetname" "U11–68901 ; U13–14 J4–RS-232 port" (at 25.4 56.1734 0)
      (effects (font (size 1.8 1.8)) (justify left bottom))
    )
    (property "Sheetfile" "subsheet_100.kicad_sch" (at 25.4 61.5446 0)
      (effects (font (size 1.27 1.27)) (justify left top))
    )
    (instances
      (project "motherboard"
        (path "/61fe4c73-be59-4519-98f1-a634322a841d" (page "2"))
      )
    )
  )

  (sheet (at 25.4 67.31) (size 160.02 3.81) (fields_autoplaced)
    (stroke (width 0.1524) (type solid))
    (fill (color 0 0 0 0.0000))
    (uuid 3f88e458-4d53-4de4-ada5-f2535e8a83f8)
    (property "Sheetname" "U21–Acia ; J10–11–12–Joystick, mouse, keyboard ports" (at 25.4 66.3334 0)
      (effects (font (size 1.8 1.8)) (justify left bottom))
    )
    (property "Sheetfile" "subsheet_101.kicad_sch" (at 25.4 71.7046 0)
      (effects (font (size 1.27 1.27)) (justify left top))
    )
    (instances
      (project "motherboard"
        (path "/61fe4c73-be59-4519-98f1-a634322a841d" (page "3"))
      )
    )
  )

  (sheet (at 25.4 77.47) (size 160.02 3.81) (fields_autoplaced)
    (stroke (width 0.1524) (type solid))
    (fill (color 0 0 0 0.0000))
    (uuid 58236c22-0832-4927-a33f-1b37fe7d1f45)
    (property "Sheetname" "U20–Acia ; U35–39 J7–8–Midi ports" (at 25.4 76.4934 0)
      (effects (font (size 1.8 1.8)) (justify left bottom))
    )
    (property "Sheetfile" "subsheet_102.kicad_sch" (at 25.4 81.8646 0)
      (effects (font (size 1.27 1.27)) (justify left top))
    )
    (instances
      (project "motherboard"
        (path "/61fe4c73-be59-4519-98f1-a634322a841d" (page "4"))
      )
    )
  )

  (sheet (at 25.4 184.15) (size 160.02 3.81) (fields_autoplaced)
    (stroke (width 0.1524) (type solid))
    (fill (color 0 0 0 0.0000))
    (uuid 5b318927-956e-4f28-80bb-c09676827d9a)
    (property "Sheetname" "U10-68000 ; U36–37–Reset circuit" (at 25.4 183.1734 0)
      (effects (font (size 1.8 1.8)) (justify left bottom))
    )
    (property "Sheetfile" "subsheet_205.kicad_sch" (at 25.4 188.5446 0)
      (effects (font (size 1.27 1.27)) (justify left top))
    )
    (instances
      (project "motherboard"
        (path "/61fe4c73-be59-4519-98f1-a634322a841d" (page "13"))
      )
    )
  )

  (sheet (at 25.4 97.79) (size 160.02 3.81) (fields_autoplaced)
    (stroke (width 0.1524) (type solid))
    (fill (color 0 0 0 0.0000))
    (uuid a318c5d8-2e1f-4677-941e-2e6bb7098e55)
    (property "Sheetname" "U1–DMA controller ; J2–ACSI port ; U8–9–WD1772 ; J3–FLOPPY port" (at 25.4 96.8134 0)
      (effects (font (size 1.8 1.8)) (justify left bottom))
    )
    (property "Sheetfile" "subsheet_104.kicad_sch" (at 25.4 102.1846 0)
      (effects (font (size 1.27 1.27)) (justify left top))
    )
    (instances
      (project "motherboard"
        (path "/61fe4c73-be59-4519-98f1-a634322a841d" (page "6"))
      )
    )
  )

  (sheet (at 25.4 107.95) (size 160.02 3.81) (fields_autoplaced)
    (stroke (width 0.1524) (type solid))
    (fill (color 0 0 0 0.0000))
    (uuid f1051355-9a2c-4b2d-a09c-1966664c85a9)
    (property "Sheetname" "J9–Power socket" (at 25.4 106.9734 0)
      (effects (font (size 1.8 1.8)) (justify left bottom))
    )
    (property "Sheetfile" "subsheet_105.kicad_sch" (at 25.4 112.3446 0)
      (effects (font (size 1.27 1.27)) (justify left top))
    )
    (instances
      (project "motherboard"
        (path "/61fe4c73-be59-4519-98f1-a634322a841d" (page "7"))
      )
    )
  )

  (sheet_instances
    (path "/" (page "1"))
  )
)
