(kicad_sch (version 20230121) (generator eeschema)

  (uuid d7b44d07-2cb6-4c10-bad9-adf2185ee6fd)

  (paper "A4" portrait)

  (title_block
    (title "Converted schematics of Atari 260/520 ST")
    (date "2023-04-30")
    (rev "0")
    (comment 1 "…sporniket/kicad-conversions--atari-260-520-st-motherboard--c070231")
    (comment 2 "Original repository : https://github.com/…")
    (comment 4 "Reference : C070231")
  )

  (lib_symbols
    (symbol "Device:C_Small" (pin_numbers hide) (pin_names (offset 0.254) hide) (in_bom yes) (on_board yes)
      (property "Reference" "C" (at 0.254 1.778 0)
        (effects (font (size 1.27 1.27)) (justify left))
      )
      (property "Value" "C_Small" (at 0.254 -2.032 0)
        (effects (font (size 1.27 1.27)) (justify left))
      )
      (property "Footprint" "" (at 0 0 0)
        (effects (font (size 1.27 1.27)) hide)
      )
      (property "Datasheet" "~" (at 0 0 0)
        (effects (font (size 1.27 1.27)) hide)
      )
      (property "ki_keywords" "capacitor cap" (at 0 0 0)
        (effects (font (size 1.27 1.27)) hide)
      )
      (property "ki_description" "Unpolarized capacitor, small symbol" (at 0 0 0)
        (effects (font (size 1.27 1.27)) hide)
      )
      (property "ki_fp_filters" "C_*" (at 0 0 0)
        (effects (font (size 1.27 1.27)) hide)
      )
      (symbol "C_Small_0_1"
        (polyline
          (pts
            (xy -1.524 -0.508)
            (xy 1.524 -0.508)
          )
          (stroke (width 0.3302) (type default))
          (fill (type none))
        )
        (polyline
          (pts
            (xy -1.524 0.508)
            (xy 1.524 0.508)
          )
          (stroke (width 0.3048) (type default))
          (fill (type none))
        )
      )
      (symbol "C_Small_1_1"
        (pin passive line (at 0 2.54 270) (length 2.032)
          (name "~" (effects (font (size 1.27 1.27))))
          (number "1" (effects (font (size 1.27 1.27))))
        )
        (pin passive line (at 0 -2.54 90) (length 2.032)
          (name "~" (effects (font (size 1.27 1.27))))
          (number "2" (effects (font (size 1.27 1.27))))
        )
      )
    )
    (symbol "Device:R_Small_US" (pin_numbers hide) (pin_names (offset 0.254) hide) (in_bom yes) (on_board yes)
      (property "Reference" "R" (at 0.762 0.508 0)
        (effects (font (size 1.27 1.27)) (justify left))
      )
      (property "Value" "R_Small_US" (at 0.762 -1.016 0)
        (effects (font (size 1.27 1.27)) (justify left))
      )
      (property "Footprint" "" (at 0 0 0)
        (effects (font (size 1.27 1.27)) hide)
      )
      (property "Datasheet" "~" (at 0 0 0)
        (effects (font (size 1.27 1.27)) hide)
      )
      (property "ki_keywords" "r resistor" (at 0 0 0)
        (effects (font (size 1.27 1.27)) hide)
      )
      (property "ki_description" "Resistor, small US symbol" (at 0 0 0)
        (effects (font (size 1.27 1.27)) hide)
      )
      (property "ki_fp_filters" "R_*" (at 0 0 0)
        (effects (font (size 1.27 1.27)) hide)
      )
      (symbol "R_Small_US_1_1"
        (polyline
          (pts
            (xy 0 0)
            (xy 1.016 -0.381)
            (xy 0 -0.762)
            (xy -1.016 -1.143)
            (xy 0 -1.524)
          )
          (stroke (width 0) (type default))
          (fill (type none))
        )
        (polyline
          (pts
            (xy 0 1.524)
            (xy 1.016 1.143)
            (xy 0 0.762)
            (xy -1.016 0.381)
            (xy 0 0)
          )
          (stroke (width 0) (type default))
          (fill (type none))
        )
        (pin passive line (at 0 2.54 270) (length 1.016)
          (name "~" (effects (font (size 1.27 1.27))))
          (number "1" (effects (font (size 1.27 1.27))))
        )
        (pin passive line (at 0 -2.54 90) (length 1.016)
          (name "~" (effects (font (size 1.27 1.27))))
          (number "2" (effects (font (size 1.27 1.27))))
        )
      )
    )
    (symbol "power:+5V" (power) (pin_names (offset 0)) (in_bom yes) (on_board yes)
      (property "Reference" "#PWR" (at 0 -3.81 0)
        (effects (font (size 1.27 1.27)) hide)
      )
      (property "Value" "+5V" (at 0 3.556 0)
        (effects (font (size 1.27 1.27)))
      )
      (property "Footprint" "" (at 0 0 0)
        (effects (font (size 1.27 1.27)) hide)
      )
      (property "Datasheet" "" (at 0 0 0)
        (effects (font (size 1.27 1.27)) hide)
      )
      (property "ki_keywords" "power-flag" (at 0 0 0)
        (effects (font (size 1.27 1.27)) hide)
      )
      (property "ki_description" "Power symbol creates a global label with name \"+5V\"" (at 0 0 0)
        (effects (font (size 1.27 1.27)) hide)
      )
      (symbol "+5V_0_1"
        (polyline
          (pts
            (xy -0.762 1.27)
            (xy 0 2.54)
          )
          (stroke (width 0) (type default))
          (fill (type none))
        )
        (polyline
          (pts
            (xy 0 0)
            (xy 0 2.54)
          )
          (stroke (width 0) (type default))
          (fill (type none))
        )
        (polyline
          (pts
            (xy 0 2.54)
            (xy 0.762 1.27)
          )
          (stroke (width 0) (type default))
          (fill (type none))
        )
      )
      (symbol "+5V_1_1"
        (pin power_in line (at 0 0 90) (length 0) hide
          (name "+5V" (effects (font (size 1.27 1.27))))
          (number "1" (effects (font (size 1.27 1.27))))
        )
      )
    )
    (symbol "power:GND" (power) (pin_names (offset 0)) (in_bom yes) (on_board yes)
      (property "Reference" "#PWR" (at 0 -6.35 0)
        (effects (font (size 1.27 1.27)) hide)
      )
      (property "Value" "GND" (at 0 -3.81 0)
        (effects (font (size 1.27 1.27)))
      )
      (property "Footprint" "" (at 0 0 0)
        (effects (font (size 1.27 1.27)) hide)
      )
      (property "Datasheet" "" (at 0 0 0)
        (effects (font (size 1.27 1.27)) hide)
      )
      (property "ki_keywords" "power-flag" (at 0 0 0)
        (effects (font (size 1.27 1.27)) hide)
      )
      (property "ki_description" "Power symbol creates a global label with name \"GND\" , ground" (at 0 0 0)
        (effects (font (size 1.27 1.27)) hide)
      )
      (symbol "GND_0_1"
        (polyline
          (pts
            (xy 0 0)
            (xy 0 -1.27)
            (xy 1.27 -1.27)
            (xy 0 -2.54)
            (xy -1.27 -1.27)
            (xy 0 -1.27)
          )
          (stroke (width 0) (type default))
          (fill (type none))
        )
      )
      (symbol "GND_1_1"
        (pin power_in line (at 0 0 270) (length 0) hide
          (name "GND" (effects (font (size 1.27 1.27))))
          (number "1" (effects (font (size 1.27 1.27))))
        )
      )
    )
    (symbol "st_glue:ST_GLUE_PHY" (pin_names (offset 1.27)) (in_bom yes) (on_board yes)
      (property "Reference" "U" (at 22.86 36.83 0)
        (effects (font (size 1.27 1.27)) (justify left top))
      )
      (property "Value" "ST_GLUE_PHY" (at 22.86 34.29 0)
        (effects (font (size 1.27 1.27) bold) (justify left top))
      )
      (property "Footprint" "Package_LCC:PLCC-68_THT-Socket" (at 22.86 39.37 0)
        (effects (font (size 1.27 1.27)) (justify left top) hide)
      )
      (property "Datasheet" "https://raw.githubusercontent.com/sporniket/kicad-symbols-generated/main/reference-materials/atari-16-32/st-glue-mmu-dma-shifter--Atari-ST-Internals.pdf" (at 22.86 41.91 0)
        (effects (font (size 1.27 1.27)) (justify left top) hide)
      )
      (property "ki_locked" "" (at 0 0 0)
        (effects (font (size 1.27 1.27)))
      )
      (symbol "ST_GLUE_PHY_0_0"
        (rectangle (start -33.02 31.75) (end 33.02 -31.75)
          (stroke (width 0.254) (type default))
          (fill (type background))
        )
        (pin power_in line (at 0 39.37 270) (length 7.62)
          (name "VCC" (effects (font (size 1.27 1.27))))
          (number "1" (effects (font (size 1.27 1.27))))
        )
        (pin input line (at -40.64 21.59 0) (length 7.62)
          (name "A22" (effects (font (size 1.27 1.27))))
          (number "10" (effects (font (size 1.27 1.27))))
        )
        (pin input line (at -40.64 19.05 0) (length 7.62)
          (name "A23" (effects (font (size 1.27 1.27))))
          (number "11" (effects (font (size 1.27 1.27))))
        )
        (pin bidirectional line (at -40.64 16.51 0) (length 7.62)
          (name "~{AS}" (effects (font (size 1.27 1.27))))
          (number "12" (effects (font (size 1.27 1.27))))
        )
        (pin bidirectional line (at -40.64 13.97 0) (length 7.62)
          (name "FC2" (effects (font (size 1.27 1.27))))
          (number "13" (effects (font (size 1.27 1.27))))
        )
        (pin bidirectional line (at -40.64 11.43 0) (length 7.62)
          (name "FC1" (effects (font (size 1.27 1.27))))
          (number "14" (effects (font (size 1.27 1.27))))
        )
        (pin bidirectional line (at -40.64 8.89 0) (length 7.62)
          (name "FC0" (effects (font (size 1.27 1.27))))
          (number "15" (effects (font (size 1.27 1.27))))
        )
        (pin input line (at -40.64 6.35 0) (length 7.62)
          (name "~{VMA}" (effects (font (size 1.27 1.27))))
          (number "16" (effects (font (size 1.27 1.27))))
        )
        (pin output line (at -40.64 3.81 0) (length 7.62)
          (name "~{ROM4}" (effects (font (size 1.27 1.27))))
          (number "17" (effects (font (size 1.27 1.27))))
        )
        (pin output line (at -40.64 1.27 0) (length 7.62)
          (name "~{ROM3}" (effects (font (size 1.27 1.27))))
          (number "18" (effects (font (size 1.27 1.27))))
        )
        (pin output line (at -40.64 -1.27 0) (length 7.62)
          (name "~{ROM2}" (effects (font (size 1.27 1.27))))
          (number "19" (effects (font (size 1.27 1.27))))
        )
        (pin input line (at -2.54 39.37 270) (length 7.62)
          (name "A14" (effects (font (size 1.27 1.27))))
          (number "2" (effects (font (size 1.27 1.27))))
        )
        (pin output line (at -40.64 -3.81 0) (length 7.62)
          (name "~{ROM1}" (effects (font (size 1.27 1.27))))
          (number "20" (effects (font (size 1.27 1.27))))
        )
        (pin output line (at -40.64 -6.35 0) (length 7.62)
          (name "~{ROM0}" (effects (font (size 1.27 1.27))))
          (number "21" (effects (font (size 1.27 1.27))))
        )
        (pin input line (at -40.64 -8.89 0) (length 7.62)
          (name "~{RESET}" (effects (font (size 1.27 1.27))))
          (number "22" (effects (font (size 1.27 1.27))))
        )
        (pin output line (at -40.64 -11.43 0) (length 7.62)
          (name "~{RAM}" (effects (font (size 1.27 1.27))))
          (number "23" (effects (font (size 1.27 1.27))))
        )
        (pin output line (at -40.64 -13.97 0) (length 7.62)
          (name "~{DMA}" (effects (font (size 1.27 1.27))))
          (number "24" (effects (font (size 1.27 1.27))))
        )
        (pin output line (at -40.64 -16.51 0) (length 7.62)
          (name "~{DEV}" (effects (font (size 1.27 1.27))))
          (number "25" (effects (font (size 1.27 1.27))))
        )
        (pin output line (at -40.64 -19.05 0) (length 7.62)
          (name "~{FCS}" (effects (font (size 1.27 1.27))))
          (number "26" (effects (font (size 1.27 1.27))))
        )
        (pin input line (at -20.32 -39.37 90) (length 7.62)
          (name "~{BGI}" (effects (font (size 1.27 1.27))))
          (number "27" (effects (font (size 1.27 1.27))))
        )
        (pin bidirectional line (at -17.78 -39.37 90) (length 7.62)
          (name "RDY" (effects (font (size 1.27 1.27))))
          (number "28" (effects (font (size 1.27 1.27))))
        )
        (pin output line (at -15.24 -39.37 90) (length 7.62)
          (name "~{VPA}" (effects (font (size 1.27 1.27))))
          (number "29" (effects (font (size 1.27 1.27))))
        )
        (pin input line (at -5.08 39.37 270) (length 7.62)
          (name "A15" (effects (font (size 1.27 1.27))))
          (number "3" (effects (font (size 1.27 1.27))))
        )
        (pin output line (at -12.7 -39.37 90) (length 7.62)
          (name "~{BERR}" (effects (font (size 1.27 1.27))))
          (number "30" (effects (font (size 1.27 1.27))))
        )
        (pin bidirectional line (at -10.16 -39.37 90) (length 7.62)
          (name "~{DTACK}" (effects (font (size 1.27 1.27))))
          (number "31" (effects (font (size 1.27 1.27))))
        )
        (pin output line (at -7.62 -39.37 90) (length 7.62)
          (name "~{IPL1}" (effects (font (size 1.27 1.27))))
          (number "32" (effects (font (size 1.27 1.27))))
        )
        (pin output line (at -5.08 -39.37 90) (length 7.62)
          (name "~{IPL2}" (effects (font (size 1.27 1.27))))
          (number "33" (effects (font (size 1.27 1.27))))
        )
        (pin input line (at -2.54 -39.37 90) (length 7.62)
          (name "8MHZ" (effects (font (size 1.27 1.27))))
          (number "34" (effects (font (size 1.27 1.27))))
        )
        (pin power_in line (at 0 -39.37 90) (length 7.62)
          (name "GND" (effects (font (size 1.27 1.27))))
          (number "35" (effects (font (size 1.27 1.27))))
        )
        (pin output line (at 2.54 -39.37 90) (length 7.62)
          (name "~{BLANK}" (effects (font (size 1.27 1.27))))
          (number "36" (effects (font (size 1.27 1.27))))
        )
        (pin bidirectional line (at 5.08 -39.37 90) (length 7.62)
          (name "HSYNC" (effects (font (size 1.27 1.27))))
          (number "37" (effects (font (size 1.27 1.27))))
        )
        (pin bidirectional line (at 7.62 -39.37 90) (length 7.62)
          (name "VSYNC" (effects (font (size 1.27 1.27))))
          (number "38" (effects (font (size 1.27 1.27))))
        )
        (pin output line (at 10.16 -39.37 90) (length 7.62)
          (name "DE" (effects (font (size 1.27 1.27))))
          (number "39" (effects (font (size 1.27 1.27))))
        )
        (pin input line (at -7.62 39.37 270) (length 7.62)
          (name "A16" (effects (font (size 1.27 1.27))))
          (number "4" (effects (font (size 1.27 1.27))))
        )
        (pin output line (at 12.7 -39.37 90) (length 7.62)
          (name "~{BR}" (effects (font (size 1.27 1.27))))
          (number "40" (effects (font (size 1.27 1.27))))
        )
        (pin output line (at 15.24 -39.37 90) (length 7.62)
          (name "~{BGACK}" (effects (font (size 1.27 1.27))))
          (number "41" (effects (font (size 1.27 1.27))))
        )
        (pin output line (at 17.78 -39.37 90) (length 7.62)
          (name "6850CS" (effects (font (size 1.27 1.27))))
          (number "42" (effects (font (size 1.27 1.27))))
        )
        (pin output line (at 20.32 -39.37 90) (length 7.62)
          (name "500KHZ" (effects (font (size 1.27 1.27))))
          (number "43" (effects (font (size 1.27 1.27))))
        )
        (pin input line (at 40.64 -19.05 180) (length 7.62)
          (name "~{MFPINT}" (effects (font (size 1.27 1.27))))
          (number "44" (effects (font (size 1.27 1.27))))
        )
        (pin output line (at 40.64 -16.51 180) (length 7.62)
          (name "~{BGO}" (effects (font (size 1.27 1.27))))
          (number "45" (effects (font (size 1.27 1.27))))
        )
        (pin bidirectional line (at 40.64 -13.97 180) (length 7.62)
          (name "~{LDS}" (effects (font (size 1.27 1.27))))
          (number "46" (effects (font (size 1.27 1.27))))
        )
        (pin bidirectional line (at 40.64 -11.43 180) (length 7.62)
          (name "~{UDS}" (effects (font (size 1.27 1.27))))
          (number "47" (effects (font (size 1.27 1.27))))
        )
        (pin bidirectional line (at 40.64 -8.89 180) (length 7.62)
          (name "D0" (effects (font (size 1.27 1.27))))
          (number "48" (effects (font (size 1.27 1.27))))
        )
        (pin bidirectional line (at 40.64 -6.35 180) (length 7.62)
          (name "D1" (effects (font (size 1.27 1.27))))
          (number "49" (effects (font (size 1.27 1.27))))
        )
        (pin input line (at -10.16 39.37 270) (length 7.62)
          (name "A17" (effects (font (size 1.27 1.27))))
          (number "5" (effects (font (size 1.27 1.27))))
        )
        (pin output line (at 40.64 -3.81 180) (length 7.62)
          (name "~{IACK}" (effects (font (size 1.27 1.27))))
          (number "50" (effects (font (size 1.27 1.27))))
        )
        (pin output line (at 40.64 -1.27 180) (length 7.62)
          (name "~{MFPCS}" (effects (font (size 1.27 1.27))))
          (number "51" (effects (font (size 1.27 1.27))))
        )
        (pin input line (at 40.64 1.27 180) (length 7.62)
          (name "TEST" (effects (font (size 1.27 1.27))))
          (number "52" (effects (font (size 1.27 1.27))))
        )
        (pin output line (at 40.64 3.81 180) (length 7.62)
          (name "~{SNDCS}" (effects (font (size 1.27 1.27))))
          (number "53" (effects (font (size 1.27 1.27))))
        )
        (pin output line (at 40.64 6.35 180) (length 7.62)
          (name "2MHZ" (effects (font (size 1.27 1.27))))
          (number "54" (effects (font (size 1.27 1.27))))
        )
        (pin bidirectional line (at 40.64 8.89 180) (length 7.62)
          (name "R/~{W}" (effects (font (size 1.27 1.27))))
          (number "55" (effects (font (size 1.27 1.27))))
        )
        (pin input line (at 40.64 11.43 180) (length 7.62)
          (name "A1" (effects (font (size 1.27 1.27))))
          (number "56" (effects (font (size 1.27 1.27))))
        )
        (pin input line (at 40.64 13.97 180) (length 7.62)
          (name "A2" (effects (font (size 1.27 1.27))))
          (number "57" (effects (font (size 1.27 1.27))))
        )
        (pin input line (at 40.64 16.51 180) (length 7.62)
          (name "A3" (effects (font (size 1.27 1.27))))
          (number "58" (effects (font (size 1.27 1.27))))
        )
        (pin input line (at 40.64 19.05 180) (length 7.62)
          (name "A4" (effects (font (size 1.27 1.27))))
          (number "59" (effects (font (size 1.27 1.27))))
        )
        (pin input line (at -12.7 39.37 270) (length 7.62)
          (name "A18" (effects (font (size 1.27 1.27))))
          (number "6" (effects (font (size 1.27 1.27))))
        )
        (pin input line (at 40.64 21.59 180) (length 7.62)
          (name "A5" (effects (font (size 1.27 1.27))))
          (number "60" (effects (font (size 1.27 1.27))))
        )
        (pin input line (at 20.32 39.37 270) (length 7.62)
          (name "A6" (effects (font (size 1.27 1.27))))
          (number "61" (effects (font (size 1.27 1.27))))
        )
        (pin input line (at 17.78 39.37 270) (length 7.62)
          (name "A7" (effects (font (size 1.27 1.27))))
          (number "62" (effects (font (size 1.27 1.27))))
        )
        (pin input line (at 15.24 39.37 270) (length 7.62)
          (name "A8" (effects (font (size 1.27 1.27))))
          (number "63" (effects (font (size 1.27 1.27))))
        )
        (pin input line (at 12.7 39.37 270) (length 7.62)
          (name "A9" (effects (font (size 1.27 1.27))))
          (number "64" (effects (font (size 1.27 1.27))))
        )
        (pin input line (at 10.16 39.37 270) (length 7.62)
          (name "A10" (effects (font (size 1.27 1.27))))
          (number "65" (effects (font (size 1.27 1.27))))
        )
        (pin input line (at 7.62 39.37 270) (length 7.62)
          (name "A11" (effects (font (size 1.27 1.27))))
          (number "66" (effects (font (size 1.27 1.27))))
        )
        (pin input line (at 5.08 39.37 270) (length 7.62)
          (name "A12" (effects (font (size 1.27 1.27))))
          (number "67" (effects (font (size 1.27 1.27))))
        )
        (pin input line (at 2.54 39.37 270) (length 7.62)
          (name "A13" (effects (font (size 1.27 1.27))))
          (number "68" (effects (font (size 1.27 1.27))))
        )
        (pin input line (at -15.24 39.37 270) (length 7.62)
          (name "A19" (effects (font (size 1.27 1.27))))
          (number "7" (effects (font (size 1.27 1.27))))
        )
        (pin input line (at -17.78 39.37 270) (length 7.62)
          (name "A20" (effects (font (size 1.27 1.27))))
          (number "8" (effects (font (size 1.27 1.27))))
        )
        (pin input line (at -20.32 39.37 270) (length 7.62)
          (name "A21" (effects (font (size 1.27 1.27))))
          (number "9" (effects (font (size 1.27 1.27))))
        )
      )
    )
  )

  (junction (at 83.82 176.53) (diameter 0) (color 0 0 0 0)
    (uuid 15c755f2-272c-423a-91c2-225495f57ace)
  )
  (junction (at 101.6 55.88) (diameter 0) (color 0 0 0 0)
    (uuid 45d6abc9-a321-4677-b4a1-27e0fec29f72)
  )

  (no_connect (at 142.24 130.81) (uuid 82f0532d-1a6d-464b-ad29-fc3e8108d6a8))

  (wire (pts (xy 142.24 128.27) (xy 153.67 128.27))
    (stroke (width 0) (type default))
    (uuid 0368658f-3125-4888-be8d-2d00cf819e46)
  )
  (wire (pts (xy 142.24 95.25) (xy 148.59 95.25))
    (stroke (width 0) (type default))
    (uuid 0504c604-5989-41d4-98b3-73baf39661a4)
  )
  (wire (pts (xy 46.99 133.35) (xy 60.96 133.35))
    (stroke (width 0) (type default))
    (uuid 06d56cea-efec-4ee2-a30e-da196d83ccb4)
  )
  (wire (pts (xy 119.38 74.93) (xy 119.38 68.58))
    (stroke (width 0) (type default))
    (uuid 0afc6592-c2db-4caa-a22b-f13f9e7e1c40)
  )
  (wire (pts (xy 142.24 133.35) (xy 153.67 133.35))
    (stroke (width 0) (type default))
    (uuid 0cdfb605-0053-4621-997d-9fc85dc9c2a3)
  )
  (wire (pts (xy 119.38 153.67) (xy 119.38 167.64))
    (stroke (width 0) (type default))
    (uuid 0e0a4b84-f32d-4d0d-bb01-e1a33da32acb)
  )
  (wire (pts (xy 83.82 74.93) (xy 83.82 68.58))
    (stroke (width 0) (type default))
    (uuid 0ece2b87-02c1-4250-9204-efdee0b5a9d0)
  )
  (bus (pts (xy 31.75 38.1) (xy 38.1 38.1))
    (stroke (width 0) (type default))
    (uuid 12554d67-3517-46ae-aa79-a8d8816ccba4)
  )

  (wire (pts (xy 111.76 153.67) (xy 111.76 167.64))
    (stroke (width 0) (type default))
    (uuid 1a657991-5c9c-41a4-9f2e-22f0c7450b3a)
  )
  (wire (pts (xy 109.22 74.93) (xy 109.22 68.58))
    (stroke (width 0) (type default))
    (uuid 1aa01b33-85ec-45ea-bfaa-b88738576f2f)
  )
  (wire (pts (xy 54.61 92.71) (xy 60.96 92.71))
    (stroke (width 0) (type default))
    (uuid 1c55eaff-dfb6-4adc-bdb2-1121eb73358d)
  )
  (wire (pts (xy 83.82 176.53) (xy 83.82 179.07))
    (stroke (width 0) (type default))
    (uuid 1e782d70-1703-4d01-bb98-8a71974c66f6)
  )
  (wire (pts (xy 142.24 115.57) (xy 154.94 115.57))
    (stroke (width 0) (type default))
    (uuid 20a40fd4-4825-456a-b45d-96e8fe1622a5)
  )
  (wire (pts (xy 142.24 113.03) (xy 173.99 113.03))
    (stroke (width 0) (type default))
    (uuid 2a47ba84-4fcd-4804-afac-4d9c6c2db941)
  )
  (wire (pts (xy 104.14 153.67) (xy 104.14 167.64))
    (stroke (width 0) (type default))
    (uuid 2f1df4d4-ea41-4805-990c-fc64e9beb3f8)
  )
  (wire (pts (xy 96.52 74.93) (xy 96.52 68.58))
    (stroke (width 0) (type default))
    (uuid 311a70eb-5859-4da6-8fe4-344b06368e0f)
  )
  (wire (pts (xy 101.6 153.67) (xy 101.6 156.21))
    (stroke (width 0) (type default))
    (uuid 3167ec41-f663-40e2-bfc9-3f9ded6d5f24)
  )
  (wire (pts (xy 54.61 105.41) (xy 60.96 105.41))
    (stroke (width 0) (type default))
    (uuid 3491c78b-620e-46ca-a1c1-053b49774cc7)
  )
  (wire (pts (xy 88.9 153.67) (xy 88.9 167.64))
    (stroke (width 0) (type default))
    (uuid 3d38eca7-b037-4400-970c-46db57e3c3cb)
  )
  (wire (pts (xy 121.92 74.93) (xy 121.92 68.58))
    (stroke (width 0) (type default))
    (uuid 3f6533ba-c4f9-46fc-b56b-e4570f6ba8d8)
  )
  (wire (pts (xy 86.36 74.93) (xy 86.36 68.58))
    (stroke (width 0) (type default))
    (uuid 3fcf515a-b2e5-4769-a263-706606d34687)
  )
  (bus (pts (xy 69.85 25.4) (xy 76.2 25.4))
    (stroke (width 0) (type default))
    (uuid 40b12084-e9ea-4a47-a64f-d44ca516c9e8)
  )

  (wire (pts (xy 106.68 74.93) (xy 106.68 68.58))
    (stroke (width 0) (type default))
    (uuid 4362e6ac-6290-4071-922f-911c69fdd561)
  )
  (wire (pts (xy 93.98 74.93) (xy 93.98 68.58))
    (stroke (width 0) (type default))
    (uuid 437daa66-7365-482e-804c-8098c6a0905c)
  )
  (wire (pts (xy 114.3 153.67) (xy 114.3 167.64))
    (stroke (width 0) (type default))
    (uuid 4445e598-1c38-4291-936b-eafc95d0cf78)
  )
  (wire (pts (xy 54.61 118.11) (xy 60.96 118.11))
    (stroke (width 0) (type default))
    (uuid 4a151dd5-28d8-42af-b70d-d52cf427540e)
  )
  (wire (pts (xy 101.6 55.88) (xy 101.6 74.93))
    (stroke (width 0) (type default))
    (uuid 4bec0989-3300-4473-a72e-50eec13a2c04)
  )
  (wire (pts (xy 111.76 74.93) (xy 111.76 68.58))
    (stroke (width 0) (type default))
    (uuid 4d759aa0-1145-43ae-a507-a45f6fc89e2a)
  )
  (wire (pts (xy 54.61 110.49) (xy 60.96 110.49))
    (stroke (width 0) (type default))
    (uuid 4ed19592-a5c4-4f6f-8e35-67fef4315ee4)
  )
  (wire (pts (xy 83.82 153.67) (xy 83.82 176.53))
    (stroke (width 0) (type default))
    (uuid 4f2de74c-a0a3-419c-86d3-f1056d120362)
  )
  (wire (pts (xy 48.26 123.19) (xy 60.96 123.19))
    (stroke (width 0) (type default))
    (uuid 4f4277d9-4ff1-4fe4-9af0-84cedee4b2b6)
  )
  (wire (pts (xy 48.26 107.95) (xy 60.96 107.95))
    (stroke (width 0) (type default))
    (uuid 5baacfaf-4f9b-484a-b0ad-900c2c96f940)
  )
  (wire (pts (xy 142.24 125.73) (xy 153.67 125.73))
    (stroke (width 0) (type default))
    (uuid 5d4ed9ca-985c-4d79-b913-0fd671b604bc)
  )
  (wire (pts (xy 116.84 74.93) (xy 116.84 68.58))
    (stroke (width 0) (type default))
    (uuid 62b6b2b3-6ade-4e95-8062-936451a2172f)
  )
  (wire (pts (xy 111.76 55.88) (xy 116.84 55.88))
    (stroke (width 0) (type default))
    (uuid 6bce6e1e-6069-43ee-a0e2-2aa0e9f49b97)
  )
  (wire (pts (xy 116.84 153.67) (xy 116.84 166.37))
    (stroke (width 0) (type default))
    (uuid 6d4529c3-e736-41f4-9e85-842fded7472a)
  )
  (wire (pts (xy 142.24 102.87) (xy 148.59 102.87))
    (stroke (width 0) (type default))
    (uuid 6fb81dc6-41d5-4f97-ab8d-08492b739776)
  )
  (wire (pts (xy 88.9 74.93) (xy 88.9 68.58))
    (stroke (width 0) (type default))
    (uuid 70791199-43db-4ae1-bf3d-59e94aad8d59)
  )
  (wire (pts (xy 81.28 74.93) (xy 81.28 68.58))
    (stroke (width 0) (type default))
    (uuid 72635b6d-f5d1-44fe-86b5-9bebc2da5d46)
  )
  (wire (pts (xy 142.24 97.79) (xy 148.59 97.79))
    (stroke (width 0) (type default))
    (uuid 737d10d1-31d2-4ac3-8e9f-c01d3ad411b5)
  )
  (wire (pts (xy 48.26 97.79) (xy 60.96 97.79))
    (stroke (width 0) (type default))
    (uuid 78502c21-b204-41a4-a74c-663a74be7530)
  )
  (wire (pts (xy 142.24 92.71) (xy 148.59 92.71))
    (stroke (width 0) (type default))
    (uuid 7b66c522-eb2b-4ac5-8fa6-badbd9e03844)
  )
  (wire (pts (xy 46.99 130.81) (xy 60.96 130.81))
    (stroke (width 0) (type default))
    (uuid 7c938fcf-5266-4f01-b9d8-797ff7c61f4c)
  )
  (wire (pts (xy 109.22 153.67) (xy 109.22 167.64))
    (stroke (width 0) (type default))
    (uuid 8ae8bcca-6404-4249-9a1b-d6efa82cff52)
  )
  (wire (pts (xy 93.98 160.02) (xy 93.98 153.67))
    (stroke (width 0) (type default))
    (uuid 8c497335-9f19-4d8f-81b9-d3f6e5560190)
  )
  (wire (pts (xy 54.61 120.65) (xy 60.96 120.65))
    (stroke (width 0) (type default))
    (uuid 92563de1-61c4-4e3f-8603-96474790934f)
  )
  (wire (pts (xy 99.06 153.67) (xy 99.06 166.37))
    (stroke (width 0) (type default))
    (uuid 93b580d1-c2df-48c4-9d06-465ca9d3eebc)
  )
  (wire (pts (xy 104.14 74.93) (xy 104.14 68.58))
    (stroke (width 0) (type default))
    (uuid 971c1271-0f6f-46b9-8494-7107930ab4af)
  )
  (wire (pts (xy 46.99 125.73) (xy 60.96 125.73))
    (stroke (width 0) (type default))
    (uuid 97816a30-8562-4b40-bfd6-82faaadf14b2)
  )
  (wire (pts (xy 114.3 74.93) (xy 114.3 68.58))
    (stroke (width 0) (type default))
    (uuid 9c8b409b-0d1b-49e5-8fed-acd83e0e8b3e)
  )
  (wire (pts (xy 78.74 176.53) (xy 83.82 176.53))
    (stroke (width 0) (type default))
    (uuid 9c9d419c-b975-412a-8bc5-488d17b0b817)
  )
  (wire (pts (xy 101.6 55.88) (xy 106.68 55.88))
    (stroke (width 0) (type default))
    (uuid 9dd6d9c3-b46f-4b65-9d2f-cb64dd40cc61)
  )
  (wire (pts (xy 142.24 105.41) (xy 153.67 105.41))
    (stroke (width 0) (type default))
    (uuid a4a90bd3-5586-4453-acbb-4d2c22443f49)
  )
  (wire (pts (xy 142.24 110.49) (xy 154.94 110.49))
    (stroke (width 0) (type default))
    (uuid a82cec30-45c1-49b3-b9e6-e30cc49eb759)
  )
  (bus (pts (xy 107.95 25.4) (xy 114.3 25.4))
    (stroke (width 0) (type default))
    (uuid abd1d032-e760-4794-bc30-6f665a3c852c)
  )

  (wire (pts (xy 91.44 153.67) (xy 91.44 167.64))
    (stroke (width 0) (type default))
    (uuid ac5a5c45-797a-4bbe-bfd5-5ce5a8aa3463)
  )
  (wire (pts (xy 54.61 95.25) (xy 60.96 95.25))
    (stroke (width 0) (type default))
    (uuid b2561a4b-5655-4b54-95c4-147a5b85fc10)
  )
  (wire (pts (xy 54.61 102.87) (xy 60.96 102.87))
    (stroke (width 0) (type default))
    (uuid b5a26653-4e77-4514-a8f1-63ca7c4f9ab9)
  )
  (wire (pts (xy 142.24 120.65) (xy 148.59 120.65))
    (stroke (width 0) (type default))
    (uuid b5e1d796-f3d8-4363-a6bf-5bf078e880e8)
  )
  (wire (pts (xy 142.24 123.19) (xy 148.59 123.19))
    (stroke (width 0) (type default))
    (uuid b89e3fe5-d3a3-4087-a7a3-319b60fcc6e9)
  )
  (bus (pts (xy 146.05 25.4) (xy 152.4 25.4))
    (stroke (width 0) (type default))
    (uuid b991f6de-4188-4c5b-bb36-b3817a5574f7)
  )

  (wire (pts (xy 96.52 160.02) (xy 96.52 153.67))
    (stroke (width 0) (type default))
    (uuid ba80136a-34d0-4a97-a9c9-c43ab3f7be6e)
  )
  (wire (pts (xy 101.6 50.8) (xy 101.6 55.88))
    (stroke (width 0) (type default))
    (uuid cd74d053-e62a-45a3-9f24-631862f85655)
  )
  (wire (pts (xy 99.06 74.93) (xy 99.06 68.58))
    (stroke (width 0) (type default))
    (uuid cdb2878b-f702-4635-9e4c-1cc8cfe5a84c)
  )
  (wire (pts (xy 86.36 153.67) (xy 86.36 167.64))
    (stroke (width 0) (type default))
    (uuid d0d2152d-05bb-45b9-922c-65dc46f5a5df)
  )
  (wire (pts (xy 106.68 153.67) (xy 106.68 167.64))
    (stroke (width 0) (type default))
    (uuid d628bd18-95ed-41eb-b4b4-f043ded47592)
  )
  (wire (pts (xy 54.61 113.03) (xy 60.96 113.03))
    (stroke (width 0) (type default))
    (uuid d789eb5c-7750-4e88-bd51-088f1d8d4899)
  )
  (wire (pts (xy 54.61 115.57) (xy 60.96 115.57))
    (stroke (width 0) (type default))
    (uuid db3e62ed-d2c4-4262-9844-874282d066c8)
  )
  (wire (pts (xy 46.99 128.27) (xy 60.96 128.27))
    (stroke (width 0) (type default))
    (uuid dc4bf440-2891-440b-98cc-4ec7ceadee72)
  )
  (wire (pts (xy 142.24 118.11) (xy 154.94 118.11))
    (stroke (width 0) (type default))
    (uuid dc538eb4-034b-4b8a-a5e5-4a3e1e9a8cd3)
  )
  (wire (pts (xy 54.61 100.33) (xy 60.96 100.33))
    (stroke (width 0) (type default))
    (uuid dcbc5a2e-2561-4663-8736-09acc9fe0209)
  )
  (wire (pts (xy 91.44 74.93) (xy 91.44 68.58))
    (stroke (width 0) (type default))
    (uuid e26f0b22-8514-418f-977b-cb0a9761b0f5)
  )
  (bus (pts (xy 38.1 25.4) (xy 31.75 25.4))
    (stroke (width 0) (type default))
    (uuid e5ef96dd-e14b-40bb-acac-746f5d3aee37)
  )

  (wire (pts (xy 142.24 100.33) (xy 148.59 100.33))
    (stroke (width 0) (type default))
    (uuid e807127d-3013-4e6e-a160-f258e33d9fb8)
  )
  (wire (pts (xy 142.24 107.95) (xy 154.94 107.95))
    (stroke (width 0) (type default))
    (uuid edbc17dd-aa76-4d77-81ec-11ed42efea05)
  )
  (wire (pts (xy 81.28 153.67) (xy 81.28 166.37))
    (stroke (width 0) (type default))
    (uuid f6662114-e94f-4466-8b01-5f4d76363a86)
  )
  (wire (pts (xy 68.58 176.53) (xy 73.66 176.53))
    (stroke (width 0) (type default))
    (uuid f7bc4354-d2d2-4f5b-b9d9-a2703e0798a2)
  )
  (wire (pts (xy 121.92 153.67) (xy 121.92 167.64))
    (stroke (width 0) (type default))
    (uuid fe9073de-b4ae-429c-945b-a199d6313a17)
  )

  (label "A19" (at 86.36 68.58 90) (fields_autoplaced)
    (effects (font (size 1.27 1.27)) (justify left bottom))
    (uuid 0739a502-7fa1-4e85-8cae-604fd21c9156)
  )
  (label "A2" (at 148.59 100.33 0) (fields_autoplaced)
    (effects (font (size 1.27 1.27)) (justify left bottom))
    (uuid 0e39e32b-7468-4f6e-a6f0-b54d61a16933)
  )
  (label "A[1..23]" (at 31.75 25.4 180) (fields_autoplaced)
    (effects (font (size 1.27 1.27)) (justify right bottom))
    (uuid 1b73c962-e471-4ec3-ab97-9114c97a5609)
  )
  (label "D8" (at 148.59 123.19 0) (fields_autoplaced)
    (effects (font (size 1.27 1.27)) (justify left bottom))
    (uuid 21443f6e-c9cb-43b6-9145-0fe007529b00)
  )
  (label "ROM2" (at 54.61 115.57 180) (fields_autoplaced)
    (effects (font (size 1.27 1.27)) (justify right bottom))
    (uuid 339d0231-8a40-42ca-a323-237589fdab73)
  )
  (label "A16" (at 93.98 68.58 90) (fields_autoplaced)
    (effects (font (size 1.27 1.27)) (justify left bottom))
    (uuid 34f20938-82be-4faa-a3bd-ea4ff60955a6)
  )
  (label "IPL[1..2]" (at 31.75 38.1 180) (fields_autoplaced)
    (effects (font (size 1.27 1.27)) (justify right bottom))
    (uuid 4786ed3b-695d-4717-b3ae-c8d2c2804915)
  )
  (label "A6" (at 121.92 68.58 90) (fields_autoplaced)
    (effects (font (size 1.27 1.27)) (justify left bottom))
    (uuid 486e42a8-ccd7-4296-b46d-c1c0b1981be4)
  )
  (label "A7" (at 119.38 68.58 90) (fields_autoplaced)
    (effects (font (size 1.27 1.27)) (justify left bottom))
    (uuid 49b6beb3-5d64-4af2-830b-e99a8a5ac007)
  )
  (label "A9" (at 114.3 68.58 90) (fields_autoplaced)
    (effects (font (size 1.27 1.27)) (justify left bottom))
    (uuid 4b8ea754-7305-433d-91ba-90a4340e15a7)
  )
  (label "A1" (at 148.59 102.87 0) (fields_autoplaced)
    (effects (font (size 1.27 1.27)) (justify left bottom))
    (uuid 564c737a-c22b-400c-8665-990100e2bad2)
  )
  (label "A4" (at 148.59 95.25 0) (fields_autoplaced)
    (effects (font (size 1.27 1.27)) (justify left bottom))
    (uuid 565082b3-06ce-46fa-857c-fecdf53c89f1)
  )
  (label "FC2" (at 54.61 100.33 180) (fields_autoplaced)
    (effects (font (size 1.27 1.27)) (justify right bottom))
    (uuid 5a173324-7a4c-4dd7-89bd-ab3aa4beea17)
  )
  (label "ROM[0..4]" (at 146.05 25.4 180) (fields_autoplaced)
    (effects (font (size 1.27 1.27)) (justify right bottom))
    (uuid 5c9bc151-e282-4405-8be4-f7b49b568fbb)
  )
  (label "A11" (at 109.22 68.58 90) (fields_autoplaced)
    (effects (font (size 1.27 1.27)) (justify left bottom))
    (uuid 78e707fb-3e9a-4f67-9527-ee34cdefd91a)
  )
  (label "D[0..15]" (at 69.85 25.4 180) (fields_autoplaced)
    (effects (font (size 1.27 1.27)) (justify right bottom))
    (uuid 79094860-9de1-4089-9ad1-fb708c7e674c)
  )
  (label "A5" (at 148.59 92.71 0) (fields_autoplaced)
    (effects (font (size 1.27 1.27)) (justify left bottom))
    (uuid 7db41bda-359c-420f-bdf5-221e6a8efd3d)
  )
  (label "A21" (at 81.28 68.58 90) (fields_autoplaced)
    (effects (font (size 1.27 1.27)) (justify left bottom))
    (uuid 7de04273-7eda-4419-ad6c-938bfee9f2d2)
  )
  (label "A8" (at 116.84 68.58 90) (fields_autoplaced)
    (effects (font (size 1.27 1.27)) (justify left bottom))
    (uuid 7fd7cb09-496d-4f85-a95b-f531a0ea6ec8)
  )
  (label "A14" (at 99.06 68.58 90) (fields_autoplaced)
    (effects (font (size 1.27 1.27)) (justify left bottom))
    (uuid 99187cb6-681b-4886-9fc6-864207b7616f)
  )
  (label "FC[0..2]" (at 107.95 25.4 180) (fields_autoplaced)
    (effects (font (size 1.27 1.27)) (justify right bottom))
    (uuid 9c4f96de-278a-489e-96c5-2a70702afb61)
  )
  (label "FC1" (at 54.61 102.87 180) (fields_autoplaced)
    (effects (font (size 1.27 1.27)) (justify right bottom))
    (uuid ad690df8-13e8-43fa-bd8f-a1eabec6400c)
  )
  (label "ROM1" (at 54.61 118.11 180) (fields_autoplaced)
    (effects (font (size 1.27 1.27)) (justify right bottom))
    (uuid b2cd5d1f-ca21-48bf-babb-dc1a8f95ae47)
  )
  (label "IPL2" (at 96.52 160.02 270) (fields_autoplaced)
    (effects (font (size 1.27 1.27)) (justify right bottom))
    (uuid b5abd110-8797-41ca-a86b-d4b0676ed215)
  )
  (label "A10" (at 111.76 68.58 90) (fields_autoplaced)
    (effects (font (size 1.27 1.27)) (justify left bottom))
    (uuid b5c8a737-214c-4638-bb5c-b013b02f97ab)
  )
  (label "A12" (at 106.68 68.58 90) (fields_autoplaced)
    (effects (font (size 1.27 1.27)) (justify left bottom))
    (uuid b67db6fb-e010-4837-9b46-419c0d446aba)
  )
  (label "A20" (at 83.82 68.58 90) (fields_autoplaced)
    (effects (font (size 1.27 1.27)) (justify left bottom))
    (uuid baa2bb27-3ff4-481e-b331-7cfee71362fe)
  )
  (label "A13" (at 104.14 68.58 90) (fields_autoplaced)
    (effects (font (size 1.27 1.27)) (justify left bottom))
    (uuid bb857b3f-cfd2-48ea-8ae4-988435afb17f)
  )
  (label "A23" (at 54.61 95.25 180) (fields_autoplaced)
    (effects (font (size 1.27 1.27)) (justify right bottom))
    (uuid c435621a-1e7b-4aea-a701-d5d27a54bd0d)
  )
  (label "A3" (at 148.59 97.79 0) (fields_autoplaced)
    (effects (font (size 1.27 1.27)) (justify left bottom))
    (uuid c83a95be-f351-410b-916d-b5948688be99)
  )
  (label "D9" (at 148.59 120.65 0) (fields_autoplaced)
    (effects (font (size 1.27 1.27)) (justify left bottom))
    (uuid d3ea5011-250b-4076-bf21-0457c1dc2816)
  )
  (label "ROM3" (at 54.61 113.03 180) (fields_autoplaced)
    (effects (font (size 1.27 1.27)) (justify right bottom))
    (uuid d7ce504d-72d8-477a-affa-d918e485335f)
  )
  (label "A18" (at 88.9 68.58 90) (fields_autoplaced)
    (effects (font (size 1.27 1.27)) (justify left bottom))
    (uuid dc463df2-2692-4a08-9d95-1a693251e4f0)
  )
  (label "A15" (at 96.52 68.58 90) (fields_autoplaced)
    (effects (font (size 1.27 1.27)) (justify left bottom))
    (uuid e60f5c1d-c97e-4327-8023-b78c1d20bdfb)
  )
  (label "ROM0" (at 54.61 120.65 180) (fields_autoplaced)
    (effects (font (size 1.27 1.27)) (justify right bottom))
    (uuid e6c8127f-e282-4128-8744-05f7893bc3ec)
  )
  (label "ROM4" (at 54.61 110.49 180) (fields_autoplaced)
    (effects (font (size 1.27 1.27)) (justify right bottom))
    (uuid e8c15d1f-dbb7-4d81-8f11-1cb3cb2024f7)
  )
  (label "A17" (at 91.44 68.58 90) (fields_autoplaced)
    (effects (font (size 1.27 1.27)) (justify left bottom))
    (uuid e93f1ff9-82cc-426b-b31b-274f08cc4327)
  )
  (label "IPL1" (at 93.98 160.02 270) (fields_autoplaced)
    (effects (font (size 1.27 1.27)) (justify right bottom))
    (uuid edee798e-9951-4b74-b31c-0f404ae383bc)
  )
  (label "FC0" (at 54.61 105.41 180) (fields_autoplaced)
    (effects (font (size 1.27 1.27)) (justify right bottom))
    (uuid f05675e9-1e48-45f9-89df-fa9994466bd6)
  )
  (label "A22" (at 54.61 92.71 180) (fields_autoplaced)
    (effects (font (size 1.27 1.27)) (justify right bottom))
    (uuid f42c2843-70f0-463a-bc38-eee11dd73b5f)
  )

  (global_label "FC[0..2]" (shape bidirectional) (at 114.3 25.4 0) (fields_autoplaced)
    (effects (font (size 1.27 1.27)) (justify left))
    (uuid 061aae52-5567-4186-8f86-53c17e881a03)
    (property "Intersheetrefs" "${INTERSHEET_REFS}" (at 124.3047 25.3206 0)
      (effects (font (size 1.27 1.27)) (justify left) hide)
    )
  )
  (global_label "XIACK" (shape output) (at 154.94 118.11 0) (fields_autoplaced)
    (effects (font (size 1.27 1.27)) (justify left))
    (uuid 13d85700-5001-4bbf-82c1-2dd98f275e52)
    (property "Intersheetrefs" "${INTERSHEET_REFS}" (at 162.7071 118.0306 0)
      (effects (font (size 1.27 1.27)) (justify left) hide)
    )
  )
  (global_label "XDTACK" (shape output) (at 91.44 167.64 270) (fields_autoplaced)
    (effects (font (size 1.27 1.27)) (justify right))
    (uuid 14a7f5c0-9dbe-4c06-ac61-8a623630a0d5)
    (property "Intersheetrefs" "${INTERSHEET_REFS}" (at 91.3606 177.0399 90)
      (effects (font (size 1.27 1.27)) (justify right) hide)
    )
  )
  (global_label "BLANK" (shape output) (at 104.14 167.64 270) (fields_autoplaced)
    (effects (font (size 1.27 1.27)) (justify right))
    (uuid 16e158f9-1756-4736-88c4-064b2a49e634)
    (property "Intersheetrefs" "${INTERSHEET_REFS}" (at 104.0606 175.9513 90)
      (effects (font (size 1.27 1.27)) (justify right) hide)
    )
  )
  (global_label "XVPA" (shape output) (at 86.36 167.64 270) (fields_autoplaced)
    (effects (font (size 1.27 1.27)) (justify right))
    (uuid 193fcca4-6d80-4304-87f8-05b0105b2b50)
    (property "Intersheetrefs" "${INTERSHEET_REFS}" (at 86.2806 174.6209 90)
      (effects (font (size 1.27 1.27)) (justify right) hide)
    )
  )
  (global_label "GLUE_ROM[0..4]" (shape output) (at 152.4 25.4 0) (fields_autoplaced)
    (effects (font (size 1.27 1.27)) (justify left))
    (uuid 1a41057a-a995-4fd1-97ad-2da57df11cf3)
    (property "Intersheetrefs" "${INTERSHEET_REFS}" (at 169.8432 25.3206 0)
      (effects (font (size 1.27 1.27)) (justify left) hide)
    )
  )
  (global_label "XBG" (shape input) (at 81.28 166.37 270) (fields_autoplaced)
    (effects (font (size 1.27 1.27)) (justify right))
    (uuid 1f7b2375-f101-4156-b489-2943ece797e5)
    (property "Intersheetrefs" "${INTERSHEET_REFS}" (at 81.2006 172.4437 90)
      (effects (font (size 1.27 1.27)) (justify right) hide)
    )
  )
  (global_label "XMFPCS" (shape output) (at 154.94 115.57 0) (fields_autoplaced)
    (effects (font (size 1.27 1.27)) (justify left))
    (uuid 40bbbc2d-79de-4743-9933-a6257c0f2035)
    (property "Intersheetrefs" "${INTERSHEET_REFS}" (at 164.7632 115.4906 0)
      (effects (font (size 1.27 1.27)) (justify left) hide)
    )
  )
  (global_label "XIPL[1..2]" (shape output) (at 38.1 38.1 0) (fields_autoplaced)
    (effects (font (size 1.27 1.27)) (justify left))
    (uuid 43a94338-658d-48bc-a884-88e0cf9d3bec)
    (property "Intersheetrefs" "${INTERSHEET_REFS}" (at 49.8585 38.0206 0)
      (effects (font (size 1.27 1.27)) (justify left) hide)
    )
  )
  (global_label "XMFPINT" (shape input) (at 153.67 133.35 0) (fields_autoplaced)
    (effects (font (size 1.27 1.27)) (justify left))
    (uuid 4851ae3e-140d-45a9-985b-e84b194342e3)
    (property "Intersheetrefs" "${INTERSHEET_REFS}" (at 163.9166 133.2706 0)
      (effects (font (size 1.27 1.27)) (justify left) hide)
    )
  )
  (global_label "XBGACK" (shape input) (at 116.84 166.37 270) (fields_autoplaced)
    (effects (font (size 1.27 1.27)) (justify right))
    (uuid 4be806f3-0d43-479d-9e6b-cd51d613ae89)
    (property "Intersheetrefs" "${INTERSHEET_REFS}" (at 116.7606 176.0723 90)
      (effects (font (size 1.27 1.27)) (justify right) hide)
    )
  )
  (global_label "ADDR[1..23]" (shape input) (at 38.1 25.4 0) (fields_autoplaced)
    (effects (font (size 1.27 1.27)) (justify left))
    (uuid 5632ff9d-82e3-45b5-a86b-5a4683beef51)
    (property "Intersheetrefs" "${INTERSHEET_REFS}" (at 51.8542 25.3206 0)
      (effects (font (size 1.27 1.27)) (justify left) hide)
    )
  )
  (global_label "XDMA" (shape output) (at 46.99 128.27 180) (fields_autoplaced)
    (effects (font (size 1.27 1.27)) (justify right))
    (uuid 679c3c83-840d-4429-a78f-239d1b17f015)
    (property "Intersheetrefs" "${INTERSHEET_REFS}" (at 39.6463 128.1906 0)
      (effects (font (size 1.27 1.27)) (justify right) hide)
    )
  )
  (global_label "N6850" (shape output) (at 119.38 167.64 270) (fields_autoplaced)
    (effects (font (size 1.27 1.27)) (justify right))
    (uuid 6f34a559-7e0f-495e-9eeb-83f6528a0fb1)
    (property "Intersheetrefs" "${INTERSHEET_REFS}" (at 119.3006 176.1328 90)
      (effects (font (size 1.27 1.27)) (justify right) hide)
    )
  )
  (global_label "8MHZ" (shape input) (at 99.06 166.37 270) (fields_autoplaced)
    (effects (font (size 1.27 1.27)) (justify right))
    (uuid 6ff7a88d-70f2-4448-9584-db56b8ba0278)
    (property "Intersheetrefs" "${INTERSHEET_REFS}" (at 98.9806 173.8952 90)
      (effects (font (size 1.27 1.27)) (justify right) hide)
    )
  )
  (global_label "HSYNC" (shape bidirectional) (at 106.68 167.64 270) (fields_autoplaced)
    (effects (font (size 1.27 1.27)) (justify right))
    (uuid 75ad3daa-2ea8-4a79-87b8-4894afa5800d)
    (property "Intersheetrefs" "${INTERSHEET_REFS}" (at 106.6006 176.1932 90)
      (effects (font (size 1.27 1.27)) (justify right) hide)
    )
  )
  (global_label "XFCS" (shape output) (at 46.99 133.35 180) (fields_autoplaced)
    (effects (font (size 1.27 1.27)) (justify right))
    (uuid 85547538-3eb1-4382-b35f-1fcf2103631f)
    (property "Intersheetrefs" "${INTERSHEET_REFS}" (at 39.8882 133.2706 0)
      (effects (font (size 1.27 1.27)) (justify right) hide)
    )
  )
  (global_label "SNDCS" (shape output) (at 154.94 110.49 0) (fields_autoplaced)
    (effects (font (size 1.27 1.27)) (justify left))
    (uuid 891256b4-962b-48c9-b989-4d7dafa61b6a)
    (property "Intersheetrefs" "${INTERSHEET_REFS}" (at 163.5537 110.4106 0)
      (effects (font (size 1.27 1.27)) (justify left) hide)
    )
  )
  (global_label "XRESET" (shape input) (at 48.26 123.19 180) (fields_autoplaced)
    (effects (font (size 1.27 1.27)) (justify right))
    (uuid 89548341-2b1d-46ee-8c2c-c6d01876559c)
    (property "Intersheetrefs" "${INTERSHEET_REFS}" (at 38.981 123.1106 0)
      (effects (font (size 1.27 1.27)) (justify right) hide)
    )
  )
  (global_label "2MHZ" (shape output) (at 154.94 107.95 0) (fields_autoplaced)
    (effects (font (size 1.27 1.27)) (justify left))
    (uuid 8969ac23-8899-4e66-b92e-567357364ff1)
    (property "Intersheetrefs" "${INTERSHEET_REFS}" (at 162.4652 107.8706 0)
      (effects (font (size 1.27 1.27)) (justify left) hide)
    )
  )
  (global_label "XLDS" (shape input) (at 153.67 128.27 0) (fields_autoplaced)
    (effects (font (size 1.27 1.27)) (justify left))
    (uuid 8db4c487-0baf-4410-aa0e-a0c71a42d3eb)
    (property "Intersheetrefs" "${INTERSHEET_REFS}" (at 160.7113 128.1906 0)
      (effects (font (size 1.27 1.27)) (justify left) hide)
    )
  )
  (global_label "XBERR" (shape output) (at 88.9 167.64 270) (fields_autoplaced)
    (effects (font (size 1.27 1.27)) (justify right))
    (uuid 9fa19f51-e022-4533-8f6a-1d753254c814)
    (property "Intersheetrefs" "${INTERSHEET_REFS}" (at 88.8206 176.1328 90)
      (effects (font (size 1.27 1.27)) (justify right) hide)
    )
  )
  (global_label "XRAM" (shape output) (at 46.99 125.73 180) (fields_autoplaced)
    (effects (font (size 1.27 1.27)) (justify right))
    (uuid a47635a4-ad76-4e04-8f55-e28e50ff4e4f)
    (property "Intersheetrefs" "${INTERSHEET_REFS}" (at 39.6463 125.6506 0)
      (effects (font (size 1.27 1.27)) (justify right) hide)
    )
  )
  (global_label "KHZ500" (shape output) (at 121.92 167.64 270) (fields_autoplaced)
    (effects (font (size 1.27 1.27)) (justify right))
    (uuid aeea2b21-d992-408d-89bd-238435ab8bf5)
    (property "Intersheetrefs" "${INTERSHEET_REFS}" (at 121.8406 177.4028 90)
      (effects (font (size 1.27 1.27)) (justify right) hide)
    )
  )
  (global_label "XDEV" (shape output) (at 46.99 130.81 180) (fields_autoplaced)
    (effects (font (size 1.27 1.27)) (justify right))
    (uuid c93f8512-158e-46e1-9b8e-36d95839e762)
    (property "Intersheetrefs" "${INTERSHEET_REFS}" (at 39.9487 130.7306 0)
      (effects (font (size 1.27 1.27)) (justify right) hide)
    )
  )
  (global_label "DE" (shape output) (at 111.76 167.64 270) (fields_autoplaced)
    (effects (font (size 1.27 1.27)) (justify right))
    (uuid e25cbb5c-ef7c-49b0-9487-b7cf9792b6ff)
    (property "Intersheetrefs" "${INTERSHEET_REFS}" (at 111.6806 172.3832 90)
      (effects (font (size 1.27 1.27)) (justify right) hide)
    )
  )
  (global_label "VSYNC" (shape bidirectional) (at 109.22 167.64 270) (fields_autoplaced)
    (effects (font (size 1.27 1.27)) (justify right))
    (uuid e9045168-c3fd-4b61-8e10-8f13292ebc89)
    (property "Intersheetrefs" "${INTERSHEET_REFS}" (at 109.1406 175.9513 90)
      (effects (font (size 1.27 1.27)) (justify right) hide)
    )
  )
  (global_label "XRXW" (shape input) (at 153.67 105.41 0) (fields_autoplaced)
    (effects (font (size 1.27 1.27)) (justify left))
    (uuid e9897ebb-a1d1-4202-b4c7-f25008a17a9d)
    (property "Intersheetrefs" "${INTERSHEET_REFS}" (at 161.1347 105.3306 0)
      (effects (font (size 1.27 1.27)) (justify left) hide)
    )
  )
  (global_label "XAS" (shape input) (at 48.26 97.79 180) (fields_autoplaced)
    (effects (font (size 1.27 1.27)) (justify right))
    (uuid edfc2908-bbe7-4d31-aa93-c89010a82905)
    (property "Intersheetrefs" "${INTERSHEET_REFS}" (at 42.4282 97.7106 0)
      (effects (font (size 1.27 1.27)) (justify right) hide)
    )
  )
  (global_label "XBR" (shape output) (at 114.3 167.64 270) (fields_autoplaced)
    (effects (font (size 1.27 1.27)) (justify right))
    (uuid f9db94c3-deed-48d3-8d0f-2f947371a307)
    (property "Intersheetrefs" "${INTERSHEET_REFS}" (at 114.2206 173.7137 90)
      (effects (font (size 1.27 1.27)) (justify right) hide)
    )
  )
  (global_label "XRDY" (shape bidirectional) (at 83.82 179.07 270) (fields_autoplaced)
    (effects (font (size 1.27 1.27)) (justify right))
    (uuid f9f0b891-241c-46c9-87a2-644064c3dbfa)
    (property "Intersheetrefs" "${INTERSHEET_REFS}" (at 83.7406 186.2323 90)
      (effects (font (size 1.27 1.27)) (justify right) hide)
    )
  )
  (global_label "DATA[0..15]" (shape bidirectional) (at 76.2 25.4 0) (fields_autoplaced)
    (effects (font (size 1.27 1.27)) (justify left))
    (uuid fb7d0d2c-09e5-46e0-8091-1901472a84d1)
    (property "Intersheetrefs" "${INTERSHEET_REFS}" (at 0 0 0)
      (effects (font (size 1.27 1.27)) hide)
    )
  )
  (global_label "XVMA" (shape input) (at 48.26 107.95 180) (fields_autoplaced)
    (effects (font (size 1.27 1.27)) (justify right))
    (uuid fcf3c014-aa1f-49cb-aea5-620513edbbc3)
    (property "Intersheetrefs" "${INTERSHEET_REFS}" (at 41.0977 107.8706 0)
      (effects (font (size 1.27 1.27)) (justify right) hide)
    )
  )
  (global_label "XUDS" (shape input) (at 153.67 125.73 0) (fields_autoplaced)
    (effects (font (size 1.27 1.27)) (justify left))
    (uuid fd035269-52d1-4e41-babb-3fba056a2c92)
    (property "Intersheetrefs" "${INTERSHEET_REFS}" (at 161.0137 125.6506 0)
      (effects (font (size 1.27 1.27)) (justify left) hide)
    )
  )

  (symbol (lib_id "st_glue:ST_GLUE_PHY") (at 101.6 114.3 0) (unit 1)
    (in_bom yes) (on_board yes) (dnp no)
    (uuid 00000000-0000-0000-0000-000063c0f30d)
    (property "Reference" "U12" (at 124.46 77.47 0)
      (effects (font (size 1.27 1.27)) (justify left top))
    )
    (property "Value" "ST_GLUE_PHY" (at 124.46 80.01 0)
      (effects (font (size 1.27 1.27) bold) (justify left top))
    )
    (property "Footprint" "Package_LCC:PLCC-68_THT-Socket" (at 124.46 74.93 0)
      (effects (font (size 1.27 1.27)) (justify left top) hide)
    )
    (property "Datasheet" "https://raw.githubusercontent.com/sporniket/kicad-symbols-generated/main/reference-materials/atari-16-32/st-glue-mmu-dma-shifter--Atari-ST-Internals.pdf" (at 124.46 72.39 0)
      (effects (font (size 1.27 1.27)) (justify left top) hide)
    )
    (pin "1" (uuid 9716c56f-f115-4888-844d-0b096dfce306))
    (pin "10" (uuid 12c3e949-264a-4691-8414-cfc5547a0c9f))
    (pin "11" (uuid ca9c9cdc-71a5-49d2-aece-5a81b3fc7b42))
    (pin "12" (uuid 689a08ee-6ac4-44dd-84ed-a3f9f79b5960))
    (pin "13" (uuid b3d9b64d-c67e-4257-9383-ed08457a425f))
    (pin "14" (uuid 5593ab3b-6421-48a3-bbeb-a24169dd8e79))
    (pin "15" (uuid b62f8acb-0ef1-4047-9945-8c46993ad1b3))
    (pin "16" (uuid 0a69b721-d367-499e-b9ef-9edaa4b21d16))
    (pin "17" (uuid ca5f0f08-e1f5-49ae-995d-705c2720fb88))
    (pin "18" (uuid 4bc650ff-4624-4c3e-8ed0-940f799d0881))
    (pin "19" (uuid f071d116-0730-46d0-8914-d9504643a722))
    (pin "2" (uuid 0c5154ca-77e7-4937-9fcd-3f7a90555a83))
    (pin "20" (uuid c7e2b526-5605-45bf-bf61-af0815301ec0))
    (pin "21" (uuid f08e7037-8532-43e8-b497-971d2d54e159))
    (pin "22" (uuid aa16de98-40a0-40f2-b656-d15581741082))
    (pin "23" (uuid e3398458-087d-42fd-bd13-4f28fc2f146a))
    (pin "24" (uuid e43de6da-b015-4668-8c40-793a58cfbc92))
    (pin "25" (uuid 596d6a75-c142-4d25-bd9a-379657df23fa))
    (pin "26" (uuid a4073fa1-2539-4855-a3a5-76ab718d716f))
    (pin "27" (uuid 07e69f8f-2219-4e14-a7cb-2e9c40b61c88))
    (pin "28" (uuid 918b4a62-3be8-4148-9eef-6e6a0d221695))
    (pin "29" (uuid d75485b3-1c5b-47cc-8724-a08489ea9b03))
    (pin "3" (uuid 29bcde38-6125-49af-a360-8e5cfc3cb0a5))
    (pin "30" (uuid 09237222-9a22-4022-b59a-10e3a56e7b14))
    (pin "31" (uuid 34602187-c5de-4631-a616-22f5e9afa343))
    (pin "32" (uuid c3803199-b1f9-4e23-8d35-f31e21dae0b1))
    (pin "33" (uuid 1b81b872-39d4-4b14-b01c-91713b9598f1))
    (pin "34" (uuid bb1f1746-161c-4b5f-9aa3-722447d52712))
    (pin "35" (uuid 105edd33-8f2c-4c67-91e7-b6eb1e2e963c))
    (pin "36" (uuid c2b6ff0e-054b-4e4b-b55c-d547909167f3))
    (pin "37" (uuid cd6b2d51-140a-48e0-b658-ae44ddfc7b66))
    (pin "38" (uuid c768fc9c-4693-4ce2-a125-721f959abbf0))
    (pin "39" (uuid cf965c7c-debd-48c5-a9df-3447ac750b9b))
    (pin "4" (uuid c8b8cc40-891a-42bd-b945-652d117b138e))
    (pin "40" (uuid 7ed9e500-4bce-4c8d-8ac2-1c6206b17017))
    (pin "41" (uuid 82487c2d-3895-4582-a020-4a1a45209dcf))
    (pin "42" (uuid b4ad8885-454b-47f4-a251-8e49f79e426f))
    (pin "43" (uuid 5ebe4510-84ec-4bd4-8ea2-714dcf441b95))
    (pin "44" (uuid e7944adb-6a20-46f9-a882-d74bf61ee849))
    (pin "45" (uuid bf5bad25-e2ed-40ff-8e51-9e94573a900b))
    (pin "46" (uuid 94d0b38f-3c0f-45df-85c4-634253ea09d5))
    (pin "47" (uuid 743dbec0-50d3-4cd5-95b1-d1631d8aaa53))
    (pin "48" (uuid 5fafac56-74e6-4252-b5d8-bd6fde599b90))
    (pin "49" (uuid 19890ab1-5ead-4800-9c10-f83099f94c1f))
    (pin "5" (uuid d964fe63-e92a-4d3d-a690-b7b381ecd640))
    (pin "50" (uuid 9e397423-34cd-4c8e-a791-736a9e7bc49e))
    (pin "51" (uuid 5d20a811-3bef-482d-837a-8742b9a0b626))
    (pin "52" (uuid c5ffbdde-74e4-4a4f-9736-9f81e1b3e4a4))
    (pin "53" (uuid 077b253b-f1f8-4ed5-ae76-f21c7a03f585))
    (pin "54" (uuid 8901fefa-9616-4680-ab64-72d5d4993e02))
    (pin "55" (uuid 51394ff4-ddef-4cd4-847d-e672eb801b9f))
    (pin "56" (uuid c567c9da-93be-41ad-aa3e-8c52663b2778))
    (pin "57" (uuid 0643b6e2-486c-4044-942f-3d7bd30fbf35))
    (pin "58" (uuid 994a1913-9d63-434a-9852-92127f3b6b18))
    (pin "59" (uuid 2cc3b8e1-b0c8-4be8-83cf-a809c9b563eb))
    (pin "6" (uuid 7008b598-81b0-48d4-bf7e-761a5556dc54))
    (pin "60" (uuid fe3dee9d-4499-42ca-b0cb-4815ae21fb8e))
    (pin "61" (uuid 9cbdd3ba-ae69-41bd-8a23-0591d1fa7279))
    (pin "62" (uuid b0c078cf-ff76-4487-81c3-61c88b3759a3))
    (pin "63" (uuid 7a26ae0b-38cf-45e3-989f-8c712a182624))
    (pin "64" (uuid cef81386-0e12-4fda-aca9-10b315220892))
    (pin "65" (uuid c6891613-b7ed-4616-b0f8-c0a3f424e6fc))
    (pin "66" (uuid b36fb312-9d12-4904-b4a3-86505c42db91))
    (pin "67" (uuid 51aaeb06-683c-4a68-a1cf-be5de08a86a5))
    (pin "68" (uuid b5e28bbf-013b-432f-9cd2-f0ad311bbba1))
    (pin "7" (uuid 8ff7907b-cc7c-40a6-880c-3283ea22269a))
    (pin "8" (uuid 4639d1bb-49ea-4e9d-b365-3dd9d4ecf932))
    (pin "9" (uuid b5d4c2a9-513a-4b02-8fe0-a6fb67e94f7f))
    (instances
      (project "motherboard"
        (path "/61fe4c73-be59-4519-98f1-a634322a841d/00000000-0000-0000-0000-000063c0e747"
          (reference "U12") (unit 1)
        )
      )
    )
  )

  (symbol (lib_id "power:+5V") (at 101.6 50.8 0) (unit 1)
    (in_bom yes) (on_board yes) (dnp no)
    (uuid 0e4f3a38-a650-4cc6-9652-1236baebede9)
    (property "Reference" "#PWR0221" (at 101.6 54.61 0)
      (effects (font (size 1.27 1.27)) hide)
    )
    (property "Value" "+5V" (at 101.6 47.244 0)
      (effects (font (size 1.27 1.27)))
    )
    (property "Footprint" "" (at 101.6 50.8 0)
      (effects (font (size 1.27 1.27)) hide)
    )
    (property "Datasheet" "" (at 101.6 50.8 0)
      (effects (font (size 1.27 1.27)) hide)
    )
    (pin "1" (uuid 87d5d173-2026-4185-a172-b2764314508b))
    (instances
      (project "motherboard"
        (path "/61fe4c73-be59-4519-98f1-a634322a841d/00000000-0000-0000-0000-000063c0e747"
          (reference "#PWR0221") (unit 1)
        )
      )
    )
  )

  (symbol (lib_id "power:+5V") (at 68.58 176.53 0) (unit 1)
    (in_bom yes) (on_board yes) (dnp no)
    (uuid 1607b4db-85e8-447e-8038-6ac4f0f7f121)
    (property "Reference" "#PWR0224" (at 68.58 180.34 0)
      (effects (font (size 1.27 1.27)) hide)
    )
    (property "Value" "+5V" (at 68.58 172.974 0)
      (effects (font (size 1.27 1.27)))
    )
    (property "Footprint" "" (at 68.58 176.53 0)
      (effects (font (size 1.27 1.27)) hide)
    )
    (property "Datasheet" "" (at 68.58 176.53 0)
      (effects (font (size 1.27 1.27)) hide)
    )
    (pin "1" (uuid 56b2fc5b-9b34-4aff-b522-ebb294e437f4))
    (instances
      (project "motherboard"
        (path "/61fe4c73-be59-4519-98f1-a634322a841d/00000000-0000-0000-0000-000063c0e747"
          (reference "#PWR0224") (unit 1)
        )
      )
    )
  )

  (symbol (lib_id "Device:C_Small") (at 109.22 55.88 90) (unit 1)
    (in_bom yes) (on_board yes) (dnp no)
    (uuid a122b196-f93e-459d-9301-55d8c62b7855)
    (property "Reference" "C13" (at 106.68 54.61 90)
      (effects (font (size 1.27 1.27)) (justify left))
    )
    (property "Value" "0.1uF" (at 116.84 54.61 90)
      (effects (font (size 1.27 1.27)) (justify left))
    )
    (property "Footprint" "commons-passives_THT:Passive_THT_capacitor_mlcc_W2.54mm_L12.70mm" (at 109.22 55.88 0)
      (effects (font (size 1.27 1.27)) hide)
    )
    (property "Datasheet" "~" (at 109.22 55.88 0)
      (effects (font (size 1.27 1.27)) hide)
    )
    (pin "1" (uuid fe5eed98-719f-4a7a-987e-ce48224d09a9))
    (pin "2" (uuid 7619162d-7960-4086-b82a-ab273a0f26ff))
    (instances
      (project "motherboard"
        (path "/61fe4c73-be59-4519-98f1-a634322a841d/00000000-0000-0000-0000-000063c0e747"
          (reference "C13") (unit 1)
        )
      )
    )
  )

  (symbol (lib_id "Device:R_Small_US") (at 76.2 176.53 270) (unit 1)
    (in_bom yes) (on_board yes) (dnp no)
    (uuid a9e3d508-7917-4d7c-8236-dc441ae5c6f5)
    (property "Reference" "R5" (at 76.2 173.99 90)
      (effects (font (size 1.27 1.27)))
    )
    (property "Value" "1K" (at 76.2 179.07 90)
      (effects (font (size 1.27 1.27)))
    )
    (property "Footprint" "commons-passives_THT:Passive_THT_resistor_W2.54mm_L12.70mm" (at 76.2 176.53 0)
      (effects (font (size 1.27 1.27)) hide)
    )
    (property "Datasheet" "~" (at 76.2 176.53 0)
      (effects (font (size 1.27 1.27)) hide)
    )
    (pin "1" (uuid 0afcf7c4-6fbb-4919-833f-89e98a2de778))
    (pin "2" (uuid 0f658f55-8436-4e7b-a877-69575b6e65f2))
    (instances
      (project "motherboard"
        (path "/61fe4c73-be59-4519-98f1-a634322a841d/00000000-0000-0000-0000-000063c0e747"
          (reference "R5") (unit 1)
        )
      )
    )
  )

  (symbol (lib_id "power:GND") (at 173.99 113.03 0) (unit 1)
    (in_bom yes) (on_board yes) (dnp no)
    (uuid b50b53a4-407d-4563-9e8e-65adc7b8ecec)
    (property "Reference" "#PWR0220" (at 173.99 119.38 0)
      (effects (font (size 1.27 1.27)) hide)
    )
    (property "Value" "GND" (at 173.99 116.84 0)
      (effects (font (size 1.27 1.27)))
    )
    (property "Footprint" "" (at 173.99 113.03 0)
      (effects (font (size 1.27 1.27)) hide)
    )
    (property "Datasheet" "" (at 173.99 113.03 0)
      (effects (font (size 1.27 1.27)) hide)
    )
    (pin "1" (uuid f25c7a0c-34a7-45a8-aa77-7e0c1ff609e8))
    (instances
      (project "motherboard"
        (path "/61fe4c73-be59-4519-98f1-a634322a841d/00000000-0000-0000-0000-000063c0e747"
          (reference "#PWR0220") (unit 1)
        )
      )
    )
  )

  (symbol (lib_id "power:GND") (at 116.84 55.88 0) (unit 1)
    (in_bom yes) (on_board yes) (dnp no)
    (uuid f5b4d9fc-988c-4fba-ac2f-848603e29ac6)
    (property "Reference" "#PWR0222" (at 116.84 62.23 0)
      (effects (font (size 1.27 1.27)) hide)
    )
    (property "Value" "GND" (at 116.84 59.69 0)
      (effects (font (size 1.27 1.27)))
    )
    (property "Footprint" "" (at 116.84 55.88 0)
      (effects (font (size 1.27 1.27)) hide)
    )
    (property "Datasheet" "" (at 116.84 55.88 0)
      (effects (font (size 1.27 1.27)) hide)
    )
    (pin "1" (uuid 1fc6ccb3-6ba6-466e-b074-7dcaa6edb5bd))
    (instances
      (project "motherboard"
        (path "/61fe4c73-be59-4519-98f1-a634322a841d/00000000-0000-0000-0000-000063c0e747"
          (reference "#PWR0222") (unit 1)
        )
      )
    )
  )

  (symbol (lib_id "power:GND") (at 101.6 156.21 0) (unit 1)
    (in_bom yes) (on_board yes) (dnp no)
    (uuid fbbecb24-a9f0-4850-9f11-7d2e7de51de7)
    (property "Reference" "#PWR0223" (at 101.6 162.56 0)
      (effects (font (size 1.27 1.27)) hide)
    )
    (property "Value" "GND" (at 101.6 160.02 0)
      (effects (font (size 1.27 1.27)))
    )
    (property "Footprint" "" (at 101.6 156.21 0)
      (effects (font (size 1.27 1.27)) hide)
    )
    (property "Datasheet" "" (at 101.6 156.21 0)
      (effects (font (size 1.27 1.27)) hide)
    )
    (pin "1" (uuid 3452a41a-f21b-48e6-82d6-e11517345097))
    (instances
      (project "motherboard"
        (path "/61fe4c73-be59-4519-98f1-a634322a841d/00000000-0000-0000-0000-000063c0e747"
          (reference "#PWR0223") (unit 1)
        )
      )
    )
  )
)
