(kicad_sch (version 20230121) (generator eeschema)

  (uuid b9422f93-a8d9-4d04-b316-153b0ca3f7af)

  (paper "A4")

  (title_block
    (title "step-down voltage regulator")
  )

  (lib_symbols
    (symbol "Device:C" (pin_numbers hide) (pin_names (offset 0.254)) (in_bom yes) (on_board yes)
      (property "Reference" "C" (at 0.635 2.54 0)
        (effects (font (size 1.27 1.27)) (justify left))
      )
      (property "Value" "C" (at 0.635 -2.54 0)
        (effects (font (size 1.27 1.27)) (justify left))
      )
      (property "Footprint" "" (at 0.9652 -3.81 0)
        (effects (font (size 1.27 1.27)) hide)
      )
      (property "Datasheet" "~" (at 0 0 0)
        (effects (font (size 1.27 1.27)) hide)
      )
      (property "ki_keywords" "cap capacitor" (at 0 0 0)
        (effects (font (size 1.27 1.27)) hide)
      )
      (property "ki_description" "Unpolarized capacitor" (at 0 0 0)
        (effects (font (size 1.27 1.27)) hide)
      )
      (property "ki_fp_filters" "C_*" (at 0 0 0)
        (effects (font (size 1.27 1.27)) hide)
      )
      (symbol "C_0_1"
        (polyline
          (pts
            (xy -2.032 -0.762)
            (xy 2.032 -0.762)
          )
          (stroke (width 0.508) (type default))
          (fill (type none))
        )
        (polyline
          (pts
            (xy -2.032 0.762)
            (xy 2.032 0.762)
          )
          (stroke (width 0.508) (type default))
          (fill (type none))
        )
      )
      (symbol "C_1_1"
        (pin passive line (at 0 3.81 270) (length 2.794)
          (name "~" (effects (font (size 1.27 1.27))))
          (number "1" (effects (font (size 1.27 1.27))))
        )
        (pin passive line (at 0 -3.81 90) (length 2.794)
          (name "~" (effects (font (size 1.27 1.27))))
          (number "2" (effects (font (size 1.27 1.27))))
        )
      )
    )
    (symbol "Device:L" (pin_numbers hide) (pin_names (offset 1.016) hide) (in_bom yes) (on_board yes)
      (property "Reference" "L" (at -1.27 0 90)
        (effects (font (size 1.27 1.27)))
      )
      (property "Value" "L" (at 1.905 0 90)
        (effects (font (size 1.27 1.27)))
      )
      (property "Footprint" "" (at 0 0 0)
        (effects (font (size 1.27 1.27)) hide)
      )
      (property "Datasheet" "~" (at 0 0 0)
        (effects (font (size 1.27 1.27)) hide)
      )
      (property "ki_keywords" "inductor choke coil reactor magnetic" (at 0 0 0)
        (effects (font (size 1.27 1.27)) hide)
      )
      (property "ki_description" "Inductor" (at 0 0 0)
        (effects (font (size 1.27 1.27)) hide)
      )
      (property "ki_fp_filters" "Choke_* *Coil* Inductor_* L_*" (at 0 0 0)
        (effects (font (size 1.27 1.27)) hide)
      )
      (symbol "L_0_1"
        (arc (start 0 -2.54) (mid 0.6323 -1.905) (end 0 -1.27)
          (stroke (width 0) (type default))
          (fill (type none))
        )
        (arc (start 0 -1.27) (mid 0.6323 -0.635) (end 0 0)
          (stroke (width 0) (type default))
          (fill (type none))
        )
        (arc (start 0 0) (mid 0.6323 0.635) (end 0 1.27)
          (stroke (width 0) (type default))
          (fill (type none))
        )
        (arc (start 0 1.27) (mid 0.6323 1.905) (end 0 2.54)
          (stroke (width 0) (type default))
          (fill (type none))
        )
      )
      (symbol "L_1_1"
        (pin passive line (at 0 3.81 270) (length 1.27)
          (name "1" (effects (font (size 1.27 1.27))))
          (number "1" (effects (font (size 1.27 1.27))))
        )
        (pin passive line (at 0 -3.81 90) (length 1.27)
          (name "2" (effects (font (size 1.27 1.27))))
          (number "2" (effects (font (size 1.27 1.27))))
        )
      )
    )
    (symbol "Device:R" (pin_numbers hide) (pin_names (offset 0)) (in_bom yes) (on_board yes)
      (property "Reference" "R" (at 2.032 0 90)
        (effects (font (size 1.27 1.27)))
      )
      (property "Value" "R" (at 0 0 90)
        (effects (font (size 1.27 1.27)))
      )
      (property "Footprint" "" (at -1.778 0 90)
        (effects (font (size 1.27 1.27)) hide)
      )
      (property "Datasheet" "~" (at 0 0 0)
        (effects (font (size 1.27 1.27)) hide)
      )
      (property "ki_keywords" "R res resistor" (at 0 0 0)
        (effects (font (size 1.27 1.27)) hide)
      )
      (property "ki_description" "Resistor" (at 0 0 0)
        (effects (font (size 1.27 1.27)) hide)
      )
      (property "ki_fp_filters" "R_*" (at 0 0 0)
        (effects (font (size 1.27 1.27)) hide)
      )
      (symbol "R_0_1"
        (rectangle (start -1.016 -2.54) (end 1.016 2.54)
          (stroke (width 0.254) (type default))
          (fill (type none))
        )
      )
      (symbol "R_1_1"
        (pin passive line (at 0 3.81 270) (length 1.27)
          (name "~" (effects (font (size 1.27 1.27))))
          (number "1" (effects (font (size 1.27 1.27))))
        )
        (pin passive line (at 0 -3.81 90) (length 1.27)
          (name "~" (effects (font (size 1.27 1.27))))
          (number "2" (effects (font (size 1.27 1.27))))
        )
      )
    )
    (symbol "Regulator_Switching:PAM2301CAABADJ" (in_bom yes) (on_board yes)
      (property "Reference" "U" (at -7.62 6.35 0)
        (effects (font (size 1.27 1.27)) (justify left))
      )
      (property "Value" "PAM2301CAABADJ" (at -2.54 6.35 0)
        (effects (font (size 1.27 1.27)) (justify left))
      )
      (property "Footprint" "Package_TO_SOT_SMD:TSOT-23-5" (at 1.27 -6.35 0)
        (effects (font (size 1.27 1.27)) (justify left) hide)
      )
      (property "Datasheet" "https://www.diodes.com/assets/Datasheets/products_inactive_data/PAM2301.pdf" (at -6.35 -8.89 0)
        (effects (font (size 1.27 1.27)) hide)
      )
      (property "ki_keywords" "Voltage regulator switching buck fixed output analog" (at 0 0 0)
        (effects (font (size 1.27 1.27)) hide)
      )
      (property "ki_description" "800mA, Step-Down DC/DC-Converter, Adjustable Output Voltage, 1.5MHz, TSOT-23-5" (at 0 0 0)
        (effects (font (size 1.27 1.27)) hide)
      )
      (property "ki_fp_filters" "TSOT?23*" (at 0 0 0)
        (effects (font (size 1.27 1.27)) hide)
      )
      (symbol "PAM2301CAABADJ_0_1"
        (rectangle (start -7.62 5.08) (end 7.62 -5.08)
          (stroke (width 0.254) (type default))
          (fill (type background))
        )
      )
      (symbol "PAM2301CAABADJ_1_1"
        (pin input line (at -10.16 -2.54 0) (length 2.54)
          (name "EN" (effects (font (size 1.27 1.27))))
          (number "1" (effects (font (size 1.27 1.27))))
        )
        (pin power_in line (at 0 -7.62 90) (length 2.54)
          (name "GND" (effects (font (size 1.27 1.27))))
          (number "2" (effects (font (size 1.27 1.27))))
        )
        (pin power_out line (at 10.16 2.54 180) (length 2.54)
          (name "SW" (effects (font (size 1.27 1.27))))
          (number "3" (effects (font (size 1.27 1.27))))
        )
        (pin power_in line (at -10.16 2.54 0) (length 2.54)
          (name "VIN" (effects (font (size 1.27 1.27))))
          (number "4" (effects (font (size 1.27 1.27))))
        )
        (pin input line (at 10.16 -2.54 180) (length 2.54)
          (name "FB" (effects (font (size 1.27 1.27))))
          (number "5" (effects (font (size 1.27 1.27))))
        )
      )
    )
    (symbol "power:GND" (power) (pin_names (offset 0)) (in_bom yes) (on_board yes)
      (property "Reference" "#PWR" (at 0 -6.35 0)
        (effects (font (size 1.27 1.27)) hide)
      )
      (property "Value" "GND" (at 0 -3.81 0)
        (effects (font (size 1.27 1.27)))
      )
      (property "Footprint" "" (at 0 0 0)
        (effects (font (size 1.27 1.27)) hide)
      )
      (property "Datasheet" "" (at 0 0 0)
        (effects (font (size 1.27 1.27)) hide)
      )
      (property "ki_keywords" "power-flag" (at 0 0 0)
        (effects (font (size 1.27 1.27)) hide)
      )
      (property "ki_description" "Power symbol creates a global label with name \"GND\" , ground" (at 0 0 0)
        (effects (font (size 1.27 1.27)) hide)
      )
      (symbol "GND_0_1"
        (polyline
          (pts
            (xy 0 0)
            (xy 0 -1.27)
            (xy 1.27 -1.27)
            (xy 0 -2.54)
            (xy -1.27 -1.27)
            (xy 0 -1.27)
          )
          (stroke (width 0) (type default))
          (fill (type none))
        )
      )
      (symbol "GND_1_1"
        (pin power_in line (at 0 0 270) (length 0) hide
          (name "GND" (effects (font (size 1.27 1.27))))
          (number "1" (effects (font (size 1.27 1.27))))
        )
      )
    )
  )

  (junction (at 133.35 72.39) (diameter 0) (color 0 0 0 0)
    (uuid 01bbfd5f-0f03-48d7-b9af-74656c89694f)
  )
  (junction (at 95.25 59.69) (diameter 0) (color 0 0 0 0)
    (uuid 27150b32-0434-4b35-9213-7a34e3210b04)
  )
  (junction (at 87.63 59.69) (diameter 0) (color 0 0 0 0)
    (uuid 4c148fc5-e85b-480b-9c8e-a7f4ee3a8a1c)
  )
  (junction (at 106.68 85.09) (diameter 0) (color 0 0 0 0)
    (uuid 679c6051-370c-436a-9f02-008e61ad6d87)
  )
  (junction (at 148.59 59.69) (diameter 0) (color 0 0 0 0)
    (uuid 8a049c7f-7878-48cd-9c2c-4d258677d528)
  )
  (junction (at 133.35 59.69) (diameter 0) (color 0 0 0 0)
    (uuid ed612540-ce45-4f88-b8e7-f74a5f813b04)
  )
  (junction (at 133.35 85.09) (diameter 0) (color 0 0 0 0)
    (uuid f5c4914e-d35f-4080-949b-c5f5e4574525)
  )

  (wire (pts (xy 133.35 59.69) (xy 133.35 63.5))
    (stroke (width 0) (type default))
    (uuid 0f3beb31-14c5-4297-ad3e-9d590634ada3)
  )
  (wire (pts (xy 133.35 72.39) (xy 119.38 72.39))
    (stroke (width 0) (type default))
    (uuid 1b08d97d-e8d9-4333-9cba-0e9a53efdaeb)
  )
  (wire (pts (xy 116.84 59.69) (xy 120.65 59.69))
    (stroke (width 0) (type default))
    (uuid 30fe9604-77a4-49f8-80db-b73013ddf977)
  )
  (wire (pts (xy 133.35 85.09) (xy 106.68 85.09))
    (stroke (width 0) (type default))
    (uuid 349f1403-604a-4d76-aa93-6e5080ec0782)
  )
  (wire (pts (xy 133.35 59.69) (xy 148.59 59.69))
    (stroke (width 0) (type default))
    (uuid 35e2592e-7944-4ffc-801d-6eaf95ccacf9)
  )
  (wire (pts (xy 106.68 85.09) (xy 106.68 87.63))
    (stroke (width 0) (type default))
    (uuid 464da48c-cde2-41df-8d66-5c12975e0957)
  )
  (wire (pts (xy 77.47 59.69) (xy 87.63 59.69))
    (stroke (width 0) (type default))
    (uuid 54221112-9368-413f-a061-5d1f17c4eb80)
  )
  (wire (pts (xy 87.63 76.2) (xy 87.63 85.09))
    (stroke (width 0) (type default))
    (uuid 58e4a7af-27ed-4769-a23c-f1428b662b86)
  )
  (wire (pts (xy 87.63 85.09) (xy 106.68 85.09))
    (stroke (width 0) (type default))
    (uuid 5ddfd721-52d2-43d0-8fd1-f74430a87590)
  )
  (wire (pts (xy 133.35 72.39) (xy 133.35 73.66))
    (stroke (width 0) (type default))
    (uuid 5e9201ef-9b26-49b2-9ff1-c00e8625e4ee)
  )
  (wire (pts (xy 106.68 69.85) (xy 106.68 85.09))
    (stroke (width 0) (type default))
    (uuid 68938ae6-fe8e-45fa-94d8-2f81c8db74d8)
  )
  (wire (pts (xy 95.25 59.69) (xy 96.52 59.69))
    (stroke (width 0) (type default))
    (uuid 6c8bd37c-8359-4881-b018-feeaa522db46)
  )
  (wire (pts (xy 133.35 81.28) (xy 133.35 85.09))
    (stroke (width 0) (type default))
    (uuid 75a42e3a-09eb-4478-bb11-f57463e5556d)
  )
  (wire (pts (xy 119.38 64.77) (xy 116.84 64.77))
    (stroke (width 0) (type default))
    (uuid 821a9135-827e-4644-99a6-3e8ad5c37300)
  )
  (wire (pts (xy 148.59 76.2) (xy 148.59 85.09))
    (stroke (width 0) (type default))
    (uuid 82c3fbfe-5435-4855-a49f-66c35973111c)
  )
  (wire (pts (xy 148.59 59.69) (xy 148.59 68.58))
    (stroke (width 0) (type default))
    (uuid 8984ce54-f41a-410c-a91a-5917e48ead02)
  )
  (wire (pts (xy 133.35 71.12) (xy 133.35 72.39))
    (stroke (width 0) (type default))
    (uuid 93b51cd5-7636-47c0-a5c0-88950ec8176f)
  )
  (wire (pts (xy 95.25 64.77) (xy 96.52 64.77))
    (stroke (width 0) (type default))
    (uuid 9c0ab00f-4bf5-4cf3-b977-c36d05d8227a)
  )
  (wire (pts (xy 128.27 59.69) (xy 133.35 59.69))
    (stroke (width 0) (type default))
    (uuid ac12a9c2-8d93-423b-8fba-63ffb7caa1eb)
  )
  (wire (pts (xy 119.38 72.39) (xy 119.38 64.77))
    (stroke (width 0) (type default))
    (uuid ac242528-f7c7-4e89-a04f-b6f3512f57b0)
  )
  (wire (pts (xy 95.25 59.69) (xy 95.25 64.77))
    (stroke (width 0) (type default))
    (uuid bf70ba2b-0723-4423-ae39-2270d0950681)
  )
  (wire (pts (xy 87.63 68.58) (xy 87.63 59.69))
    (stroke (width 0) (type default))
    (uuid c3a38e4a-f33d-44a1-85eb-c0fc627886fa)
  )
  (wire (pts (xy 87.63 59.69) (xy 95.25 59.69))
    (stroke (width 0) (type default))
    (uuid c7b72da9-7463-4450-b1a6-7ba12889c879)
  )
  (wire (pts (xy 148.59 59.69) (xy 154.94 59.69))
    (stroke (width 0) (type default))
    (uuid d4f91c01-238e-4e61-a4c6-bf0e7976eb86)
  )
  (wire (pts (xy 148.59 85.09) (xy 133.35 85.09))
    (stroke (width 0) (type default))
    (uuid f4ffe944-f6c5-480d-be9d-c3d7eeca3ec0)
  )

  (hierarchical_label "Vout" (shape input) (at 154.94 59.69 0) (fields_autoplaced)
    (effects (font (size 1.27 1.27)) (justify left))
    (uuid 8e17cb7d-d767-4cca-a5ff-0efe6a271813)
  )
  (hierarchical_label "Vin" (shape input) (at 77.47 59.69 180) (fields_autoplaced)
    (effects (font (size 1.27 1.27)) (justify right))
    (uuid f1f53bf3-1a3e-401d-a496-ff869a3e9a45)
  )

  (symbol (lib_id "Device:R") (at 133.35 67.31 0) (unit 1)
    (in_bom yes) (on_board yes) (dnp no) (fields_autoplaced)
    (uuid 0401e5a0-fe22-4b50-94be-bfb52fd070e6)
    (property "Reference" "R48" (at 135.89 66.0399 0)
      (effects (font (size 1.27 1.27)) (justify left))
    )
    (property "Value" "10k" (at 135.89 68.5799 0)
      (effects (font (size 1.27 1.27)) (justify left))
    )
    (property "Footprint" "Resistor_SMD:R_0805_2012Metric" (at 131.572 67.31 90)
      (effects (font (size 1.27 1.27)) hide)
    )
    (property "Datasheet" "~" (at 133.35 67.31 0)
      (effects (font (size 1.27 1.27)) hide)
    )
    (pin "1" (uuid 826547ed-f6f9-4296-b956-a7ff14789a99))
    (pin "2" (uuid 65b2914d-b442-42dc-85ad-2c441bf33c84))
    (instances
      (project "kerberos2"
        (path "/8afbf2dc-b150-43a9-abb5-ad06d78738b6/ac53318d-1259-40bd-8eb0-cd524f55ed0e"
          (reference "R48") (unit 1)
        )
        (path "/8afbf2dc-b150-43a9-abb5-ad06d78738b6/042bc807-c99e-4708-94d6-ccacadf15f45"
          (reference "R50") (unit 1)
        )
      )
    )
  )

  (symbol (lib_id "Device:C") (at 87.63 72.39 0) (unit 1)
    (in_bom yes) (on_board yes) (dnp no) (fields_autoplaced)
    (uuid 0b216c0c-e017-429a-ac07-d36000557897)
    (property "Reference" "C40" (at 91.44 71.1199 0)
      (effects (font (size 1.27 1.27)) (justify left))
    )
    (property "Value" "4.7u" (at 91.44 73.6599 0)
      (effects (font (size 1.27 1.27)) (justify left))
    )
    (property "Footprint" "Capacitor_SMD:C_0805_2012Metric" (at 88.5952 76.2 0)
      (effects (font (size 1.27 1.27)) hide)
    )
    (property "Datasheet" "~" (at 87.63 72.39 0)
      (effects (font (size 1.27 1.27)) hide)
    )
    (pin "1" (uuid 82bf07cb-c8df-4138-9bc6-f03b6a5d3288))
    (pin "2" (uuid 20229897-4c67-499e-84c9-180098cb67d7))
    (instances
      (project "kerberos2"
        (path "/8afbf2dc-b150-43a9-abb5-ad06d78738b6/ac53318d-1259-40bd-8eb0-cd524f55ed0e"
          (reference "C40") (unit 1)
        )
        (path "/8afbf2dc-b150-43a9-abb5-ad06d78738b6/042bc807-c99e-4708-94d6-ccacadf15f45"
          (reference "C42") (unit 1)
        )
      )
    )
  )

  (symbol (lib_id "power:GND") (at 106.68 87.63 0) (unit 1)
    (in_bom yes) (on_board yes) (dnp no) (fields_autoplaced)
    (uuid 211b920a-548b-4fcf-b767-fee7fc88a78a)
    (property "Reference" "#PWR0105" (at 106.68 93.98 0)
      (effects (font (size 1.27 1.27)) hide)
    )
    (property "Value" "GND" (at 106.68 92.71 0)
      (effects (font (size 1.27 1.27)))
    )
    (property "Footprint" "" (at 106.68 87.63 0)
      (effects (font (size 1.27 1.27)) hide)
    )
    (property "Datasheet" "" (at 106.68 87.63 0)
      (effects (font (size 1.27 1.27)) hide)
    )
    (pin "1" (uuid ada18d51-ac53-40c9-85ec-be0aafa6b0ae))
    (instances
      (project "kerberos2"
        (path "/8afbf2dc-b150-43a9-abb5-ad06d78738b6/ac53318d-1259-40bd-8eb0-cd524f55ed0e"
          (reference "#PWR0105") (unit 1)
        )
        (path "/8afbf2dc-b150-43a9-abb5-ad06d78738b6/042bc807-c99e-4708-94d6-ccacadf15f45"
          (reference "#PWR0106") (unit 1)
        )
      )
    )
  )

  (symbol (lib_id "Device:C") (at 148.59 72.39 0) (unit 1)
    (in_bom yes) (on_board yes) (dnp no) (fields_autoplaced)
    (uuid 3ab64feb-f3a3-4803-9dfe-e17b99b67fc8)
    (property "Reference" "C41" (at 152.4 71.1199 0)
      (effects (font (size 1.27 1.27)) (justify left))
    )
    (property "Value" "10u" (at 152.4 73.6599 0)
      (effects (font (size 1.27 1.27)) (justify left))
    )
    (property "Footprint" "Capacitor_SMD:C_0805_2012Metric" (at 149.5552 76.2 0)
      (effects (font (size 1.27 1.27)) hide)
    )
    (property "Datasheet" "~" (at 148.59 72.39 0)
      (effects (font (size 1.27 1.27)) hide)
    )
    (pin "1" (uuid 7c28bff2-e89b-48ab-b959-3567482dc39d))
    (pin "2" (uuid 80d72ac5-770e-47ce-9788-7872af6977cb))
    (instances
      (project "kerberos2"
        (path "/8afbf2dc-b150-43a9-abb5-ad06d78738b6/ac53318d-1259-40bd-8eb0-cd524f55ed0e"
          (reference "C41") (unit 1)
        )
        (path "/8afbf2dc-b150-43a9-abb5-ad06d78738b6/042bc807-c99e-4708-94d6-ccacadf15f45"
          (reference "C43") (unit 1)
        )
      )
    )
  )

  (symbol (lib_id "Device:L") (at 124.46 59.69 90) (unit 1)
    (in_bom yes) (on_board yes) (dnp no) (fields_autoplaced)
    (uuid 79ff5987-6874-43e7-a5bc-753ea6665849)
    (property "Reference" "L1" (at 124.46 53.34 90)
      (effects (font (size 1.27 1.27)))
    )
    (property "Value" "4.7u" (at 124.46 55.88 90)
      (effects (font (size 1.27 1.27)))
    )
    (property "Footprint" "coil:coil" (at 124.46 59.69 0)
      (effects (font (size 1.27 1.27)) hide)
    )
    (property "Datasheet" "~" (at 124.46 59.69 0)
      (effects (font (size 1.27 1.27)) hide)
    )
    (pin "1" (uuid 73ecd0da-5e0d-455e-aefa-be406d2f47fb))
    (pin "2" (uuid 9edd2451-b4ee-4096-bab7-f1fe7f4b84bd))
    (instances
      (project "kerberos2"
        (path "/8afbf2dc-b150-43a9-abb5-ad06d78738b6/ac53318d-1259-40bd-8eb0-cd524f55ed0e"
          (reference "L1") (unit 1)
        )
        (path "/8afbf2dc-b150-43a9-abb5-ad06d78738b6/042bc807-c99e-4708-94d6-ccacadf15f45"
          (reference "L2") (unit 1)
        )
      )
    )
  )

  (symbol (lib_id "Regulator_Switching:PAM2301CAABADJ") (at 106.68 62.23 0) (unit 1)
    (in_bom yes) (on_board yes) (dnp no) (fields_autoplaced)
    (uuid 83cbc606-856c-439a-9708-cb4f364774bc)
    (property "Reference" "U12" (at 106.68 52.07 0)
      (effects (font (size 1.27 1.27)))
    )
    (property "Value" "M3406" (at 106.68 54.61 0)
      (effects (font (size 1.27 1.27)))
    )
    (property "Footprint" "Package_TO_SOT_SMD:TSOT-23-5" (at 107.95 68.58 0)
      (effects (font (size 1.27 1.27)) (justify left) hide)
    )
    (property "Datasheet" "https://www.diodes.com/assets/Datasheets/products_inactive_data/PAM2301.pdf" (at 100.33 71.12 0)
      (effects (font (size 1.27 1.27)) hide)
    )
    (pin "1" (uuid 6bd7cf41-378e-4034-b3fc-51f6fa19533f))
    (pin "2" (uuid d37bb8d1-bfc5-47ed-9ef1-c554f851d499))
    (pin "3" (uuid 3c79306b-4d10-4080-b46c-1f2feb8b9f8c))
    (pin "4" (uuid 5cd7631b-a96e-4c0d-aff2-5a0d1c97f9c4))
    (pin "5" (uuid 1e76bc6f-24e5-4328-b80e-19d337af29bc))
    (instances
      (project "kerberos2"
        (path "/8afbf2dc-b150-43a9-abb5-ad06d78738b6/ac53318d-1259-40bd-8eb0-cd524f55ed0e"
          (reference "U12") (unit 1)
        )
        (path "/8afbf2dc-b150-43a9-abb5-ad06d78738b6/042bc807-c99e-4708-94d6-ccacadf15f45"
          (reference "U13") (unit 1)
        )
      )
    )
  )

  (symbol (lib_id "Device:R") (at 133.35 77.47 0) (unit 1)
    (in_bom yes) (on_board yes) (dnp no) (fields_autoplaced)
    (uuid c9b152b3-8402-4614-909f-8d4c86c8a676)
    (property "Reference" "R49" (at 135.89 76.1999 0)
      (effects (font (size 1.27 1.27)) (justify left))
    )
    (property "Value" "10k" (at 135.89 78.7399 0)
      (effects (font (size 1.27 1.27)) (justify left))
    )
    (property "Footprint" "Resistor_SMD:R_0805_2012Metric" (at 131.572 77.47 90)
      (effects (font (size 1.27 1.27)) hide)
    )
    (property "Datasheet" "~" (at 133.35 77.47 0)
      (effects (font (size 1.27 1.27)) hide)
    )
    (pin "1" (uuid c36c21ea-d2bb-4117-bbf3-36d1332af476))
    (pin "2" (uuid 1d45457f-3146-4341-a3fb-61f9e2a891ef))
    (instances
      (project "kerberos2"
        (path "/8afbf2dc-b150-43a9-abb5-ad06d78738b6/ac53318d-1259-40bd-8eb0-cd524f55ed0e"
          (reference "R49") (unit 1)
        )
        (path "/8afbf2dc-b150-43a9-abb5-ad06d78738b6/042bc807-c99e-4708-94d6-ccacadf15f45"
          (reference "R51") (unit 1)
        )
      )
    )
  )
)
