(kicad_sch (version 20230121) (generator eeschema)

  (uuid 24c45a69-1309-4a66-85dc-bd4044729c6d)

  (paper "User" 152.4 101.6)

  (lib_symbols
    (symbol "46223C:46223C" (pin_names hide) (in_bom yes) (on_board yes)
      (property "Reference" "L" (at 16.51 6.35 0)
        (effects (font (size 1.27 1.27)) (justify left top))
      )
      (property "Value" "46223C" (at 16.51 3.81 0)
        (effects (font (size 1.27 1.27)) (justify left top))
      )
      (property "Footprint" "INDPM7373X455N" (at 16.51 -96.19 0)
        (effects (font (size 1.27 1.27)) (justify left top) hide)
      )
      (property "Datasheet" "https://componentsearchengine.com/Datasheets/2/46223C.pdf" (at 16.51 -196.19 0)
        (effects (font (size 1.27 1.27)) (justify left top) hide)
      )
      (property "Height" "4.55" (at 16.51 -396.19 0)
        (effects (font (size 1.27 1.27)) (justify left top) hide)
      )
      (property "Mouser Part Number" "580-46223C" (at 16.51 -496.19 0)
        (effects (font (size 1.27 1.27)) (justify left top) hide)
      )
      (property "Mouser Price/Stock" "https://www.mouser.co.uk/ProductDetail/Murata-Power-Solutions/46223C?qs=ocmcTMnGEDhS84zdp8RtuA%3D%3D" (at 16.51 -596.19 0)
        (effects (font (size 1.27 1.27)) (justify left top) hide)
      )
      (property "Manufacturer_Name" "Murata Electronics" (at 16.51 -696.19 0)
        (effects (font (size 1.27 1.27)) (justify left top) hide)
      )
      (property "Manufacturer_Part_Number" "46223C" (at 16.51 -796.19 0)
        (effects (font (size 1.27 1.27)) (justify left top) hide)
      )
      (property "ki_description" "Fixed Inductors 22uH 1.8A SMT" (at 0 0 0)
        (effects (font (size 1.27 1.27)) hide)
      )
      (symbol "46223C_1_1"
        (arc (start 7.62 0) (mid 6.35 1.219) (end 5.08 0)
          (stroke (width 0.254) (type default))
          (fill (type none))
        )
        (arc (start 10.16 0) (mid 8.89 1.219) (end 7.62 0)
          (stroke (width 0.254) (type default))
          (fill (type none))
        )
        (arc (start 12.7 0) (mid 11.43 1.219) (end 10.16 0)
          (stroke (width 0.254) (type default))
          (fill (type none))
        )
        (arc (start 15.24 0) (mid 13.97 1.219) (end 12.7 0)
          (stroke (width 0.254) (type default))
          (fill (type none))
        )
        (pin passive line (at 0 0 0) (length 5.08)
          (name "1" (effects (font (size 1.27 1.27))))
          (number "1" (effects (font (size 1.27 1.27))))
        )
        (pin passive line (at 20.32 0 180) (length 5.08)
          (name "2" (effects (font (size 1.27 1.27))))
          (number "2" (effects (font (size 1.27 1.27))))
        )
      )
    )
    (symbol "DCJ200-05-A-XX-X_REVA:DCJ200-05-A-XX-X_REVA" (pin_names (offset 1.016)) (in_bom yes) (on_board yes)
      (property "Reference" "J" (at -5.0869 7.6304 0)
        (effects (font (size 1.27 1.27)) (justify left bottom))
      )
      (property "Value" "DCJ200-05-A-XX-X_REVA" (at -5.0876 -7.6314 0)
        (effects (font (size 1.27 1.27)) (justify left bottom))
      )
      (property "Footprint" "DCJ200-05-A-XX-X_REVA:GCT_DCJ200-05-A-XX-X_REVA" (at -2.54 16.51 0)
        (effects (font (size 1.27 1.27)) (justify bottom) hide)
      )
      (property "Datasheet" "" (at 0 0 0)
        (effects (font (size 1.27 1.27)) hide)
      )
      (property "MF" "Global Connector Technology" (at -1.27 12.7 0)
        (effects (font (size 1.27 1.27)) (justify bottom) hide)
      )
      (property "Description" "\nPower Barrel Connector Jack 2.05mm ID (0.081), 5.50mm OD (0.217) Surface Mount, Right Angle\n" (at 1.27 20.32 0)
        (effects (font (size 1.27 1.27)) (justify bottom) hide)
      )
      (property "Package" "None" (at -6.35 25.4 0)
        (effects (font (size 1.27 1.27)) (justify bottom) hide)
      )
      (property "Price" "None" (at 19.05 11.43 0)
        (effects (font (size 1.27 1.27)) (justify bottom) hide)
      )
      (property "Check_prices" "https://www.snapeda.com/parts/DCJ200-05-A-K1-A/Global+Connector+Technology/view-part/?ref=eda" (at -7.62 19.05 0)
        (effects (font (size 1.27 1.27)) (justify bottom) hide)
      )
      (property "SnapEDA_Link" "https://www.snapeda.com/parts/DCJ200-05-A-K1-A/Global+Connector+Technology/view-part/?ref=snap" (at -1.27 15.24 0)
        (effects (font (size 1.27 1.27)) (justify bottom) hide)
      )
      (property "MP" "DCJ200-05-A-K1-A" (at 0 10.16 0)
        (effects (font (size 1.27 1.27)) (justify bottom) hide)
      )
      (property "Availability" "In Stock" (at 6.35 24.13 0)
        (effects (font (size 1.27 1.27)) (justify bottom) hide)
      )
      (property "MANUFACTURER" "GCT" (at 26.67 11.43 0)
        (effects (font (size 1.27 1.27)) (justify bottom) hide)
      )
      (symbol "DCJ200-05-A-XX-X_REVA_0_0"
        (polyline
          (pts
            (xy -5.08 3.81)
            (xy -5.08 6.35)
          )
          (stroke (width 0.254) (type default))
          (fill (type none))
        )
        (polyline
          (pts
            (xy -5.08 3.81)
            (xy 1.27 3.81)
          )
          (stroke (width 0.254) (type default))
          (fill (type none))
        )
        (polyline
          (pts
            (xy -3.81 -2.54)
            (xy -5.08 -5.08)
          )
          (stroke (width 0.254) (type default))
          (fill (type none))
        )
        (polyline
          (pts
            (xy -2.54 -5.08)
            (xy -3.81 -2.54)
          )
          (stroke (width 0.254) (type default))
          (fill (type none))
        )
        (polyline
          (pts
            (xy -1.27 -3.81)
            (xy 1.27 -3.81)
          )
          (stroke (width 0.254) (type default))
          (fill (type none))
        )
        (polyline
          (pts
            (xy 0 -5.08)
            (xy -1.27 -3.81)
          )
          (stroke (width 0.254) (type default))
          (fill (type none))
        )
        (polyline
          (pts
            (xy 0 0)
            (xy 0 -5.08)
          )
          (stroke (width 0.254) (type default))
          (fill (type none))
        )
        (polyline
          (pts
            (xy 1.27 -3.81)
            (xy 0 -5.08)
          )
          (stroke (width 0.254) (type default))
          (fill (type none))
        )
        (polyline
          (pts
            (xy 1.27 6.35)
            (xy -5.08 6.35)
          )
          (stroke (width 0.254) (type default))
          (fill (type none))
        )
        (polyline
          (pts
            (xy 2.54 -5.08)
            (xy -2.54 -5.08)
          )
          (stroke (width 0.254) (type default))
          (fill (type none))
        )
        (polyline
          (pts
            (xy 2.54 0)
            (xy 0 0)
          )
          (stroke (width 0.254) (type default))
          (fill (type none))
        )
        (rectangle (start 1.27 7.62) (end 2.54 2.54)
          (stroke (width 0.254) (type default))
          (fill (type background))
        )
        (pin passive line (at 7.62 5.08 180) (length 5.08)
          (name "~" (effects (font (size 1.016 1.016))))
          (number "1.1" (effects (font (size 1.016 1.016))))
        )
        (pin passive line (at 7.62 5.08 180) (length 5.08)
          (name "~" (effects (font (size 1.016 1.016))))
          (number "1.2" (effects (font (size 1.016 1.016))))
        )
        (pin passive line (at 7.62 -5.08 180) (length 5.08)
          (name "~" (effects (font (size 1.016 1.016))))
          (number "2" (effects (font (size 1.016 1.016))))
        )
        (pin passive line (at 7.62 0 180) (length 5.08)
          (name "~" (effects (font (size 1.016 1.016))))
          (number "3" (effects (font (size 1.016 1.016))))
        )
      )
    )
    (symbol "Mechanical:MountingHole" (pin_names (offset 1.016)) (in_bom yes) (on_board yes)
      (property "Reference" "H" (at 0 5.08 0)
        (effects (font (size 1.27 1.27)))
      )
      (property "Value" "MountingHole" (at 0 3.175 0)
        (effects (font (size 1.27 1.27)))
      )
      (property "Footprint" "" (at 0 0 0)
        (effects (font (size 1.27 1.27)) hide)
      )
      (property "Datasheet" "~" (at 0 0 0)
        (effects (font (size 1.27 1.27)) hide)
      )
      (property "ki_keywords" "mounting hole" (at 0 0 0)
        (effects (font (size 1.27 1.27)) hide)
      )
      (property "ki_description" "Mounting Hole without connection" (at 0 0 0)
        (effects (font (size 1.27 1.27)) hide)
      )
      (property "ki_fp_filters" "MountingHole*" (at 0 0 0)
        (effects (font (size 1.27 1.27)) hide)
      )
      (symbol "MountingHole_0_1"
        (circle (center 0 0) (radius 1.27)
          (stroke (width 1.27) (type default))
          (fill (type none))
        )
      )
    )
  )


  (no_connect (at 54.61 36.83) (uuid b9d9525b-f321-4921-b361-6034a5ce96e5))

  (wire (pts (xy 86.36 44.45) (xy 86.36 50.8))
    (stroke (width 0) (type default))
    (uuid 26c96056-c6d8-457b-9e53-65d1f8ade1a5)
  )
  (wire (pts (xy 106.68 44.45) (xy 106.68 50.8))
    (stroke (width 0) (type default))
    (uuid 43dc1380-e109-415b-8698-fc5142a8fba8)
  )
  (wire (pts (xy 54.61 41.91) (xy 57.15 41.91))
    (stroke (width 0) (type default))
    (uuid 91a9fcbd-ab9f-4594-9fae-9ec3332a26e6)
  )
  (wire (pts (xy 54.61 31.75) (xy 57.15 31.75))
    (stroke (width 0) (type default))
    (uuid e9cb2e7b-39e7-451d-8763-723327e23854)
  )

  (label "P1" (at 106.68 48.26 0) (fields_autoplaced)
    (effects (font (size 1.27 1.27)) (justify left bottom))
    (uuid 176ac41b-0bb9-41ed-bb1f-e05a09509191)
  )
  (label "N" (at 57.15 41.91 180) (fields_autoplaced)
    (effects (font (size 1.27 1.27)) (justify right bottom))
    (uuid 69c39a0c-3eb6-40b0-a68d-35481538b53f)
  )
  (label "P" (at 57.15 31.75 180) (fields_autoplaced)
    (effects (font (size 1.27 1.27)) (justify right bottom))
    (uuid b5322e38-850e-42b2-be01-7a8a921bd446)
  )
  (label "N1" (at 86.36 48.26 180) (fields_autoplaced)
    (effects (font (size 1.27 1.27)) (justify right bottom))
    (uuid f6881445-2510-4d90-b719-5393db2b7a56)
  )

  (symbol (lib_id "46223C:46223C") (at 86.36 44.45 0) (unit 1)
    (in_bom yes) (on_board yes) (dnp no) (fields_autoplaced)
    (uuid 3104ea8b-a90d-4029-be4a-18af3ff11829)
    (property "Reference" "L1" (at 96.52 39.651 0)
      (effects (font (size 1.27 1.27)))
    )
    (property "Value" "46223C" (at 96.52 41.699 0)
      (effects (font (size 1.27 1.27)))
    )
    (property "Footprint" "Mylib:INDPM7373X455N" (at 102.87 140.64 0)
      (effects (font (size 1.27 1.27)) (justify left top) hide)
    )
    (property "Datasheet" "https://componentsearchengine.com/Datasheets/2/46223C.pdf" (at 102.87 240.64 0)
      (effects (font (size 1.27 1.27)) (justify left top) hide)
    )
    (property "Height" "4.55" (at 102.87 440.64 0)
      (effects (font (size 1.27 1.27)) (justify left top) hide)
    )
    (property "Mouser Part Number" "580-46223C" (at 102.87 540.64 0)
      (effects (font (size 1.27 1.27)) (justify left top) hide)
    )
    (property "Mouser Price/Stock" "https://www.mouser.co.uk/ProductDetail/Murata-Power-Solutions/46223C?qs=ocmcTMnGEDhS84zdp8RtuA%3D%3D" (at 102.87 640.64 0)
      (effects (font (size 1.27 1.27)) (justify left top) hide)
    )
    (property "Manufacturer_Name" "Murata Electronics" (at 102.87 740.64 0)
      (effects (font (size 1.27 1.27)) (justify left top) hide)
    )
    (property "Manufacturer_Part_Number" "46223C" (at 102.87 840.64 0)
      (effects (font (size 1.27 1.27)) (justify left top) hide)
    )
    (pin "1" (uuid f0e74898-0fa7-41e4-a17d-2045ff59add0))
    (pin "2" (uuid 4f4aac3e-b5cb-4cf0-8267-9409d09f3470))
    (instances
      (project "PWR_module"
        (path "/24c45a69-1309-4a66-85dc-bd4044729c6d"
          (reference "L1") (unit 1)
        )
      )
    )
  )

  (symbol (lib_id "Mechanical:MountingHole") (at 107.95 26.67 0) (unit 1)
    (in_bom yes) (on_board yes) (dnp no) (fields_autoplaced)
    (uuid 70f6f18b-7156-4f1b-9729-564e4ae36466)
    (property "Reference" "H3" (at 110.49 25.646 0)
      (effects (font (size 1.27 1.27)) (justify left))
    )
    (property "Value" "M2" (at 110.49 27.694 0)
      (effects (font (size 1.27 1.27)) (justify left))
    )
    (property "Footprint" "MountingHole:MountingHole_2.2mm_M2" (at 107.95 26.67 0)
      (effects (font (size 1.27 1.27)) hide)
    )
    (property "Datasheet" "~" (at 107.95 26.67 0)
      (effects (font (size 1.27 1.27)) hide)
    )
    (instances
      (project "PWR_module"
        (path "/24c45a69-1309-4a66-85dc-bd4044729c6d"
          (reference "H3") (unit 1)
        )
      )
    )
  )

  (symbol (lib_id "Mechanical:MountingHole") (at 96.52 26.67 0) (unit 1)
    (in_bom yes) (on_board yes) (dnp no) (fields_autoplaced)
    (uuid b047ddd5-6d8d-43ac-a5fd-22e7f10d77d1)
    (property "Reference" "H2" (at 99.06 25.646 0)
      (effects (font (size 1.27 1.27)) (justify left))
    )
    (property "Value" "M2" (at 99.06 27.694 0)
      (effects (font (size 1.27 1.27)) (justify left))
    )
    (property "Footprint" "MountingHole:MountingHole_2.2mm_M2" (at 96.52 26.67 0)
      (effects (font (size 1.27 1.27)) hide)
    )
    (property "Datasheet" "~" (at 96.52 26.67 0)
      (effects (font (size 1.27 1.27)) hide)
    )
    (instances
      (project "PWR_module"
        (path "/24c45a69-1309-4a66-85dc-bd4044729c6d"
          (reference "H2") (unit 1)
        )
      )
    )
  )

  (symbol (lib_id "DCJ200-05-A-XX-X_REVA:DCJ200-05-A-XX-X_REVA") (at 46.99 36.83 0) (unit 1)
    (in_bom yes) (on_board yes) (dnp no) (fields_autoplaced)
    (uuid e3ab6942-6bdf-4556-8d56-a6483e142c2e)
    (property "Reference" "J1" (at 45.72 25.63 0)
      (effects (font (size 1.27 1.27)))
    )
    (property "Value" "DCJ200-05-A-XX-X_REVA" (at 45.72 27.678 0)
      (effects (font (size 1.27 1.27)))
    )
    (property "Footprint" "Mylib:GCT_DCJ200-05-A-XX-X_REVA" (at 44.45 20.32 0)
      (effects (font (size 1.27 1.27)) (justify bottom) hide)
    )
    (property "Datasheet" "" (at 46.99 36.83 0)
      (effects (font (size 1.27 1.27)) hide)
    )
    (property "MF" "Global Connector Technology" (at 45.72 24.13 0)
      (effects (font (size 1.27 1.27)) (justify bottom) hide)
    )
    (property "Description" "\nPower Barrel Connector Jack 2.05mm ID (0.081), 5.50mm OD (0.217) Surface Mount, Right Angle\n" (at 48.26 16.51 0)
      (effects (font (size 1.27 1.27)) (justify bottom) hide)
    )
    (property "Package" "None" (at 40.64 11.43 0)
      (effects (font (size 1.27 1.27)) (justify bottom) hide)
    )
    (property "Price" "None" (at 66.04 25.4 0)
      (effects (font (size 1.27 1.27)) (justify bottom) hide)
    )
    (property "Check_prices" "https://www.snapeda.com/parts/DCJ200-05-A-K1-A/Global+Connector+Technology/view-part/?ref=eda" (at 39.37 17.78 0)
      (effects (font (size 1.27 1.27)) (justify bottom) hide)
    )
    (property "SnapEDA_Link" "https://www.snapeda.com/parts/DCJ200-05-A-K1-A/Global+Connector+Technology/view-part/?ref=snap" (at 45.72 21.59 0)
      (effects (font (size 1.27 1.27)) (justify bottom) hide)
    )
    (property "MP" "DCJ200-05-A-K1-A" (at 46.99 26.67 0)
      (effects (font (size 1.27 1.27)) (justify bottom) hide)
    )
    (property "Availability" "In Stock" (at 53.34 12.7 0)
      (effects (font (size 1.27 1.27)) (justify bottom) hide)
    )
    (property "MANUFACTURER" "GCT" (at 73.66 25.4 0)
      (effects (font (size 1.27 1.27)) (justify bottom) hide)
    )
    (pin "1.1" (uuid b7304e9b-e355-4b6e-8ccb-3ca311f487e5))
    (pin "1.2" (uuid 3615facb-9831-45c3-9378-cb12d9cdccb8))
    (pin "2" (uuid 7a7dfc3c-ebf8-45e3-99ad-b8f3a0558f0f))
    (pin "3" (uuid 3b8d6329-8a21-4e5f-a488-7d9eba82664f))
    (instances
      (project "PWR_module"
        (path "/24c45a69-1309-4a66-85dc-bd4044729c6d"
          (reference "J1") (unit 1)
        )
      )
    )
  )

  (symbol (lib_id "46223C:46223C") (at 86.36 50.8 0) (unit 1)
    (in_bom yes) (on_board yes) (dnp no) (fields_autoplaced)
    (uuid fe1b3614-e3a9-4a57-a6e6-e9982391f00d)
    (property "Reference" "L2" (at 96.52 46.001 0)
      (effects (font (size 1.27 1.27)))
    )
    (property "Value" "46223C" (at 96.52 48.049 0)
      (effects (font (size 1.27 1.27)))
    )
    (property "Footprint" "Mylib:INDPM7373X455N" (at 102.87 146.99 0)
      (effects (font (size 1.27 1.27)) (justify left top) hide)
    )
    (property "Datasheet" "https://componentsearchengine.com/Datasheets/2/46223C.pdf" (at 102.87 246.99 0)
      (effects (font (size 1.27 1.27)) (justify left top) hide)
    )
    (property "Height" "4.55" (at 102.87 446.99 0)
      (effects (font (size 1.27 1.27)) (justify left top) hide)
    )
    (property "Mouser Part Number" "580-46223C" (at 102.87 546.99 0)
      (effects (font (size 1.27 1.27)) (justify left top) hide)
    )
    (property "Mouser Price/Stock" "https://www.mouser.co.uk/ProductDetail/Murata-Power-Solutions/46223C?qs=ocmcTMnGEDhS84zdp8RtuA%3D%3D" (at 102.87 646.99 0)
      (effects (font (size 1.27 1.27)) (justify left top) hide)
    )
    (property "Manufacturer_Name" "Murata Electronics" (at 102.87 746.99 0)
      (effects (font (size 1.27 1.27)) (justify left top) hide)
    )
    (property "Manufacturer_Part_Number" "46223C" (at 102.87 846.99 0)
      (effects (font (size 1.27 1.27)) (justify left top) hide)
    )
    (pin "1" (uuid 6a8d1cb1-44c3-413e-b58d-128177614867))
    (pin "2" (uuid 471bc326-6b3c-43f1-a4b1-d19c08d2ba6d))
    (instances
      (project "PWR_module"
        (path "/24c45a69-1309-4a66-85dc-bd4044729c6d"
          (reference "L2") (unit 1)
        )
      )
    )
  )

  (sheet_instances
    (path "/" (page "1"))
  )
)
