{
  "board": {
    "3dviewports": [],
    "design_settings": {
      "defaults": {
        "board_outline_line_width": 0.09999999999999999,
        "copper_line_width": 0.19999999999999998,
        "copper_text_italic": false,
        "copper_text_size_h": 1.5,
        "copper_text_size_v": 1.5,
        "copper_text_thickness": 0.3,
        "copper_text_upright": false,
        "courtyard_line_width": 0.049999999999999996,
        "dimension_precision": 4,
        "dimension_units": 3,
        "dimensions": {
          "arrow_length": 1270000,
          "extension_offset": 500000,
          "keep_text_aligned": true,
          "suppress_zeroes": false,
          "text_position": 0,
          "units_format": 1
        },
        "fab_line_width": 0.09999999999999999,
        "fab_text_italic": false,
        "fab_text_size_h": 1.0,
        "fab_text_size_v": 1.0,
        "fab_text_thickness": 0.15,
        "fab_text_upright": false,
        "other_line_width": 0.15,
        "other_text_italic": false,
        "other_text_size_h": 1.0,
        "other_text_size_v": 1.0,
        "other_text_thickness": 0.15,
        "other_text_upright": false,
        "pads": {
          "drill": 0.762,
          "height": 1.524,
          "width": 1.524
        },
        "silk_line_width": 0.15,
        "silk_text_italic": false,
        "silk_text_size_h": 1.0,
        "silk_text_size_v": 1.0,
        "silk_text_thickness": 0.15,
        "silk_text_upright": false,
        "zones": {
          "45_degree_only": false,
          "min_clearance": 0.254
        }
      },
      "diff_pair_dimensions": [
        {
          "gap": 0.0,
          "via_gap": 0.0,
          "width": 0.0
        }
      ],
      "drc_exclusions": [
        "clearance|128299843|93499651|aff4301f-970e-427d-b6ac-c57e31b5131a|177e5b33-73d0-4005-b495-4d6a5398b593",
        "clearance|128300367|94513792|998c377e-fc07-42d8-b3cd-ddefc24fe464|b21d52e1-a8e1-4c17-ad59-fbbbf67fe25c",
        "clearance|128500000|89500000|525478a8-386b-4055-9af0-8e1e7a29e814|763c60a5-0bb4-4179-9e5c-a2ebcd8e7b5f",
        "clearance|128500000|90500000|14b994c5-6aa3-4d54-9a69-37936495ae98|763c60a5-0bb4-4179-9e5c-a2ebcd8e7b5f",
        "clearance|128500000|91500000|cb069176-c8d9-4bf9-9288-9bad6ae5fa08|763c60a5-0bb4-4179-9e5c-a2ebcd8e7b5f",
        "clearance|128500000|92500000|8bc80073-3206-4805-895f-4886ad815f2f|177e5b33-73d0-4005-b495-4d6a5398b593",
        "clearance|128500000|95500000|f6ad5d07-0513-42a5-89bd-87679eb443f2|b21d52e1-a8e1-4c17-ad59-fbbbf67fe25c",
        "clearance|129000000|90000000|30d4caa2-30d5-4c8a-9a0e-7d2d0be681c3|763c60a5-0bb4-4179-9e5c-a2ebcd8e7b5f",
        "clearance|129000000|90000000|a68035eb-33f1-487c-bad7-f4afcc81293d|763c60a5-0bb4-4179-9e5c-a2ebcd8e7b5f",
        "clearance|129000000|90000000|f069a22b-0e81-4b35-9771-6530adc68204|763c60a5-0bb4-4179-9e5c-a2ebcd8e7b5f",
        "clearance|129000000|91000000|6a1e1b30-196e-4ec2-8b34-214310dd9376|763c60a5-0bb4-4179-9e5c-a2ebcd8e7b5f",
        "clearance|129000000|91000000|8b052605-a2d9-44d0-baa0-55a21ec2fa6d|763c60a5-0bb4-4179-9e5c-a2ebcd8e7b5f",
        "clearance|129000000|93000000|20b9dd24-0c43-4a66-8574-779ac337f401|177e5b33-73d0-4005-b495-4d6a5398b593",
        "clearance|129000000|93000000|36f046e9-12d7-485c-8252-9477c76a9031|177e5b33-73d0-4005-b495-4d6a5398b593",
        "clearance|129000000|95000000|64543260-b12a-42b5-ac8d-edab7e27c4a4|b21d52e1-a8e1-4c17-ad59-fbbbf67fe25c",
        "clearance|129492750|94507250|fc837d25-399b-4b27-9f23-6a03b922e1c1|b21d52e1-a8e1-4c17-ad59-fbbbf67fe25c",
        "clearance|129500000|89500000|378fe54f-2e68-499b-afad-2634017f0285|763c60a5-0bb4-4179-9e5c-a2ebcd8e7b5f",
        "clearance|129500000|90000000|effcfcf6-047c-4676-be8d-73d57d9a6407|763c60a5-0bb4-4179-9e5c-a2ebcd8e7b5f",
        "clearance|129500000|90500000|c17d9aa6-d19e-42ab-804e-2c2b84fd85cd|763c60a5-0bb4-4179-9e5c-a2ebcd8e7b5f",
        "clearance|129500000|91000000|05d17ed2-0f56-4cc1-b117-1ae6c4b8ec1f|763c60a5-0bb4-4179-9e5c-a2ebcd8e7b5f",
        "clearance|129500000|91500000|3dd56be2-a1d3-471a-814c-027e8da95028|763c60a5-0bb4-4179-9e5c-a2ebcd8e7b5f",
        "clearance|129500000|92500000|2e37ef90-a49f-416d-8c58-5b319d5ac148|177e5b33-73d0-4005-b495-4d6a5398b593",
        "clearance|129500000|92500000|c9e9c55b-8670-4adc-bf12-f103ca8f3217|177e5b33-73d0-4005-b495-4d6a5398b593",
        "clearance|129500000|93500000|3d7ed9d6-b9d1-4b2e-ad4f-88f74c1f632c|177e5b33-73d0-4005-b495-4d6a5398b593",
        "clearance|129500000|93500000|a6e4a3a7-ea60-4713-a4a6-42ef96c035a0|177e5b33-73d0-4005-b495-4d6a5398b593",
        "clearance|129500000|93500000|ab07daa9-3c4c-4839-ad37-d153e165ad57|177e5b33-73d0-4005-b495-4d6a5398b593",
        "clearance|129500000|95500000|3026343d-e5f2-4991-89b3-4152e2058315|b21d52e1-a8e1-4c17-ad59-fbbbf67fe25c",
        "clearance|129500000|95500000|464434f5-d70d-4e5b-8262-f79aa2cc171b|b21d52e1-a8e1-4c17-ad59-fbbbf67fe25c",
        "clearance|129500000|95500000|e48672c6-dbef-4f63-99fa-06bfc3bc2ba1|b21d52e1-a8e1-4c17-ad59-fbbbf67fe25c",
        "clearance|129500040|94507210|4aa36596-88ce-4525-91f7-90f436f66de8|b21d52e1-a8e1-4c17-ad59-fbbbf67fe25c",
        "clearance|130000000|90000000|1f1df09b-e1c3-4c78-b527-5b59187eee03|763c60a5-0bb4-4179-9e5c-a2ebcd8e7b5f",
        "clearance|130000000|90000000|9b5061b8-6543-4420-98b2-ee27df470e19|763c60a5-0bb4-4179-9e5c-a2ebcd8e7b5f",
        "clearance|130000000|90500000|6c6dede0-2a91-4f5f-b134-6c7e6833e3a8|763c60a5-0bb4-4179-9e5c-a2ebcd8e7b5f",
        "clearance|130000000|90500000|7688f108-d091-43a9-bbc1-100df8e0c9d3|763c60a5-0bb4-4179-9e5c-a2ebcd8e7b5f",
        "clearance|130000000|91000000|0537308a-5501-4eb7-a8d4-f211b3858129|763c60a5-0bb4-4179-9e5c-a2ebcd8e7b5f",
        "clearance|130000000|91000000|a27e7f2f-a6bf-4538-b425-dae674fe494c|763c60a5-0bb4-4179-9e5c-a2ebcd8e7b5f",
        "clearance|130000000|92000000|80678d21-2ea5-40ae-8d07-8ca995c56e4e|763c60a5-0bb4-4179-9e5c-a2ebcd8e7b5f",
        "clearance|130000000|92000000|e3737368-108c-4a54-987c-543ad56d9e73|763c60a5-0bb4-4179-9e5c-a2ebcd8e7b5f",
        "clearance|130000000|92500000|b2d99067-615c-498d-8f60-3825a32293bf|177e5b33-73d0-4005-b495-4d6a5398b593",
        "clearance|130000000|92500000|c33e0ed1-6a14-4ac9-ae09-dbff073d6cb5|177e5b33-73d0-4005-b495-4d6a5398b593",
        "clearance|130000000|93000000|6e6713e9-7416-49d0-a7df-75f25578e484|177e5b33-73d0-4005-b495-4d6a5398b593",
        "clearance|130000000|93000000|9c632e1e-6959-4089-926a-45268b76092b|177e5b33-73d0-4005-b495-4d6a5398b593",
        "clearance|130000000|93500000|b5ac4338-0c8c-46fa-a25e-e417ea0bc4d2|177e5b33-73d0-4005-b495-4d6a5398b593",
        "clearance|130000000|94000000|68c1e66b-7312-4d39-956f-6af84313f16c|177e5b33-73d0-4005-b495-4d6a5398b593",
        "clearance|130000000|95000000|ceb95a41-4cc8-41fd-9b9b-05cdd86e557b|b21d52e1-a8e1-4c17-ad59-fbbbf67fe25c",
        "clearance|130000000|95000000|dcca2486-dabb-4ac7-b983-1b743a6b67a7|b21d52e1-a8e1-4c17-ad59-fbbbf67fe25c",
        "clearance|130000025|94504468|0b833ced-8bb7-4fb0-b397-1519af46a2a9|b21d52e1-a8e1-4c17-ad59-fbbbf67fe25c",
        "clearance|130000025|94504468|8f560c68-6639-451a-8522-aa7e9f648407|b21d52e1-a8e1-4c17-ad59-fbbbf67fe25c",
        "clearance|130250000|91500000|39ec6d63-1020-46e2-b55c-76e3f9054fbe|763c60a5-0bb4-4179-9e5c-a2ebcd8e7b5f",
        "clearance|130250000|91500000|3f3bb75a-1c77-41f8-abbe-d0319cb9a8e2|763c60a5-0bb4-4179-9e5c-a2ebcd8e7b5f",
        "clearance|130250000|93500000|422b2215-dfae-4bb3-9a42-8242a303af63|177e5b33-73d0-4005-b495-4d6a5398b593",
        "clearance|130250000|93500000|e125400c-b3e2-4575-90c5-59380865472c|177e5b33-73d0-4005-b495-4d6a5398b593",
        "clearance|130250017|94503096|6e1c30f3-5ee5-42f2-90f5-6a68078d31d0|b21d52e1-a8e1-4c17-ad59-fbbbf67fe25c",
        "clearance|130250017|94503096|e72f8ac9-783c-4f92-8349-c1c9902861f4|b21d52e1-a8e1-4c17-ad59-fbbbf67fe25c",
        "clearance|130411378|91000000|ca5a83dd-6a88-414b-85ae-44e219fd3772|763c60a5-0bb4-4179-9e5c-a2ebcd8e7b5f",
        "clearance|130411378|91500000|904cfa90-c722-49fb-9056-9133076f82b6|763c60a5-0bb4-4179-9e5c-a2ebcd8e7b5f",
        "clearance|130412142|92500000|0247221e-951b-4671-bf73-21be5bf5effe|177e5b33-73d0-4005-b495-4d6a5398b593",
        "clearance|130412142|93000000|08b3da90-ae98-4971-a0da-eceae9c9784e|177e5b33-73d0-4005-b495-4d6a5398b593",
        "clearance|130412142|93500000|e129eee5-acee-4f08-81d3-524f6a1d6170|177e5b33-73d0-4005-b495-4d6a5398b593",
        "clearance|130416812|94502181|84be9a42-0caa-4ddb-8411-5a8ceef16a34|b21d52e1-a8e1-4c17-ad59-fbbbf67fe25c",
        "clearance|130500000|90500000|44beb895-7ac1-4f1c-97c0-405a45ee0629|763c60a5-0bb4-4179-9e5c-a2ebcd8e7b5f",
        "clearance|130500000|90500000|61e56a64-465f-4d48-acc1-29980ad9cc8b|763c60a5-0bb4-4179-9e5c-a2ebcd8e7b5f",
        "clearance|130750000|89750000|1eb05123-c2bd-4804-9b10-1e15b99a03b9|763c60a5-0bb4-4179-9e5c-a2ebcd8e7b5f",
        "clearance|130750000|90500000|135bc977-223e-4d19-a79e-8a0ea39ee71e|763c60a5-0bb4-4179-9e5c-a2ebcd8e7b5f",
        "clearance|130750000|90500000|a157014c-20dc-49ee-938e-f230e46283e8|763c60a5-0bb4-4179-9e5c-a2ebcd8e7b5f",
        "clearance|130800000|90500000|b4029dbc-23f0-4d8e-babb-8dd9023659ea|763c60a5-0bb4-4179-9e5c-a2ebcd8e7b5f",
        "clearance|131000000|89500000|b4251662-747e-4c13-917f-d2a8ec227737|763c60a5-0bb4-4179-9e5c-a2ebcd8e7b5f",
        "clearance|131077359|90500000|6e742856-d4f2-4dc2-b99d-d43b626ebd5f|763c60a5-0bb4-4179-9e5c-a2ebcd8e7b5f",
        "clearance|135000000|90500000|b28250c9-d319-449e-ac45-3f1cc4201572|c3c54e84-3db7-4770-9914-0b6ac2b94d95",
        "clearance|135000000|92500000|67dfeafb-a18f-4504-8350-c83fa9dc738b|83628406-d74f-4f53-be3d-f1d933103267",
        "clearance|135000000|94500000|3cd217b3-4e84-420b-a58c-bb2a4224b539|bfeebb3c-9ebb-4ebb-aee2-b77e07307272",
        "clearance|135500000|90750000|2c32a83d-5bbe-4663-9fb0-b74ad4616eba|c3c54e84-3db7-4770-9914-0b6ac2b94d95",
        "clearance|135500000|91750000|0e6ee1b8-83fd-4550-ae63-c3b258babb27|c3c54e84-3db7-4770-9914-0b6ac2b94d95",
        "clearance|135500000|92750000|25fb4a6b-941a-4412-ad02-0d375ed4cabb|83628406-d74f-4f53-be3d-f1d933103267",
        "clearance|135500000|93800650|9e26449f-0aa4-434f-997e-0700b3fc40b7|83628406-d74f-4f53-be3d-f1d933103267",
        "clearance|135500000|94750000|42b73923-9d93-44f2-b4d0-6a122938a2d8|bfeebb3c-9ebb-4ebb-aee2-b77e07307272",
        "clearance|136000000|91000000|bd94133e-c1ad-4d23-a1b9-e9925d7475f7|c3c54e84-3db7-4770-9914-0b6ac2b94d95",
        "clearance|136000000|91500000|0d3c6caa-8617-4432-ade8-1c5fa1d27198|c3c54e84-3db7-4770-9914-0b6ac2b94d95",
        "clearance|136000000|92000000|e0fb9bd5-fb9a-41d5-b02c-f410aa88d73e|c3c54e84-3db7-4770-9914-0b6ac2b94d95",
        "clearance|136000000|93000000|23b892d2-6cfa-4265-9d0f-a8b9eaf1c1bc|83628406-d74f-4f53-be3d-f1d933103267",
        "clearance|136000000|93500000|b5097f36-f79f-40e2-b5f5-5f5c8236447b|83628406-d74f-4f53-be3d-f1d933103267",
        "clearance|136000000|94000000|8ffe6327-037b-4079-8ae0-4a34d2c18015|83628406-d74f-4f53-be3d-f1d933103267",
        "clearance|136000000|95000000|e23a7828-f41f-4a49-bca4-511f8321bfd4|bfeebb3c-9ebb-4ebb-aee2-b77e07307272",
        "clearance|143456845|100426044|d8ee503b-0e1e-4f97-b49d-861458122257|7bb40896-20a1-4562-ba6b-c257f328e465",
        "clearance|143563130|100555805|d186c261-7be9-4b86-b282-cc57d8c9cba0|7bb40896-20a1-4562-ba6b-c257f328e465",
        "clearance|144173733|97293046|026c4920-d0d3-45c9-b30a-15f0e5079260|02826be5-09ae-45f8-98fa-aa656690cfed",
        "clearance|144173733|97293046|b5512c60-6c6c-4cb9-b47a-46268447fd3e|02826be5-09ae-45f8-98fa-aa656690cfed",
        "clearance|144250000|100400000|6cce2256-96d6-4e44-9448-237f6c850966|7bb40896-20a1-4562-ba6b-c257f328e465",
        "clearance|144250000|95600000|ccb7af19-1bdd-4031-9b13-1b999d7a3dbe|bdd0bcae-bc8b-444e-b0ac-301275b05712",
        "clearance|144250000|96400000|61bce07d-dfee-45c0-bee6-4b6e112568df|bdd0bcae-bc8b-444e-b0ac-301275b05712",
        "clearance|144250000|98000000|648e39d1-1ed9-4982-b1f8-af46877ea27d|02826be5-09ae-45f8-98fa-aa656690cfed",
        "clearance|144250000|98800000|e104012c-8e70-429c-82e5-bcb973d4a9bb|02826be5-09ae-45f8-98fa-aa656690cfed",
        "clearance|144250000|99600000|db0868b0-1510-4a62-a67a-804f46b05b27|02826be5-09ae-45f8-98fa-aa656690cfed",
        "clearance|144257012|100407012|0f354e2b-316c-4861-b7ce-26826725b4da|7bb40896-20a1-4562-ba6b-c257f328e465",
        "clearance|144349972|100529018|83cb8159-124b-4536-afe8-4adabeba2881|7bb40896-20a1-4562-ba6b-c257f328e465",
        "clearance|144364900|95600000|7f231e98-9489-44a7-b5bb-27d0b8d78ba9|bdd0bcae-bc8b-444e-b0ac-301275b05712",
        "clearance|144369239|96400000|5f0027c2-4c83-4a20-853f-c0fc71e991e3|bdd0bcae-bc8b-444e-b0ac-301275b05712",
        "clearance|144380000|99600000|499ac96c-0b43-4f43-961f-6e8384613275|02826be5-09ae-45f8-98fa-aa656690cfed",
        "clearance|144384842|96415603|b816b989-f90e-48d6-a3f4-94340becda1b|bdd0bcae-bc8b-444e-b0ac-301275b05712",
        "clearance|144385000|98800000|2b9499da-b04a-475e-9a55-222487bffcdd|02826be5-09ae-45f8-98fa-aa656690cfed",
        "clearance|144396644|98000000|f10fb248-d637-45f6-b74e-11ce62ee974e|02826be5-09ae-45f8-98fa-aa656690cfed",
        "clearance|144595807|99815807|8b0bb614-0c1a-48d2-9655-595af777efb8|02826be5-09ae-45f8-98fa-aa656690cfed",
        "clearance|145085000|99500000|dad1271f-0869-4612-8d8a-e71def4dde6d|02826be5-09ae-45f8-98fa-aa656690cfed",
        "clearance|145125000|95600000|bd6d4d68-26db-44a6-98a5-e3d1c04899c1|bdd0bcae-bc8b-444e-b0ac-301275b05712",
        "clearance|145125000|96400000|2bc6881e-89c4-4422-950b-c39b36d6259c|bdd0bcae-bc8b-444e-b0ac-301275b05712",
        "clearance|145250000|100750000|f6f609e0-7eee-496b-936a-bf8752c3765b|7bb40896-20a1-4562-ba6b-c257f328e465",
        "clearance|145250000|98500000|499aa203-5d7d-4235-ab2b-32526be0d166|02826be5-09ae-45f8-98fa-aa656690cfed",
        "clearance|145250000|99500000|57963ab8-fb6d-4a0c-a9cb-5ccd36f94c82|02826be5-09ae-45f8-98fa-aa656690cfed",
        "clearance|145396644|99000000|eceef6de-686e-4b72-8060-bab67d98dcad|02826be5-09ae-45f8-98fa-aa656690cfed",
        "clearance|145660700|98511871|3660759b-4545-45ae-81e1-1942f57bf389|02826be5-09ae-45f8-98fa-aa656690cfed",
        "clearance|145660700|98511871|fa168d33-d21f-4dab-be27-4f86c6baa731|02826be5-09ae-45f8-98fa-aa656690cfed",
        "clearance|146000000|95600000|c9a017c2-c5ba-498f-a88c-78fab83859d7|bdd0bcae-bc8b-444e-b0ac-301275b05712",
        "clearance|146000000|96400000|642a5d27-9248-4951-8f34-68c4ac1d36ed|bdd0bcae-bc8b-444e-b0ac-301275b05712",
        "clearance|146000000|96453817|bb592ae6-8983-4a85-afc4-c02851de0cb7|bdd0bcae-bc8b-444e-b0ac-301275b05712",
        "clearance|146000000|97500000|91151ce1-153c-48c1-98c1-c03920d3195a|bdd0bcae-bc8b-444e-b0ac-301275b05712",
        "clearance|146250000|100750000|3f02211d-1cce-4ef3-b614-2c2f73e8537c|7bb40896-20a1-4562-ba6b-c257f328e465",
        "clearance|146250000|98750000|7d2f6e83-99f8-4519-ae1a-6234a163c27c|02826be5-09ae-45f8-98fa-aa656690cfed",
        "clearance|146250000|99750000|e371143b-2b7c-4500-a0a0-68070f561369|02826be5-09ae-45f8-98fa-aa656690cfed",
        "clearance|146264900|97500000|29aeb99c-0b70-4f6e-8be9-44f592cafcb5|bdd0bcae-bc8b-444e-b0ac-301275b05712",
        "clearance|146458662|99945639|fbdf41f6-8f83-45fe-88bd-587072ff382a|02826be5-09ae-45f8-98fa-aa656690cfed",
        "clearance|146460858|100917275|80407530-dc17-4ad1-84f9-2b126f53477b|7bb40896-20a1-4562-ba6b-c257f328e465",
        "clearance|146461266|99500000|1ba8c684-cd51-408f-9b78-28ccdba8a56c|02826be5-09ae-45f8-98fa-aa656690cfed",
        "clearance|146464188|99000000|169e2ed4-19ea-4733-9c72-219baca074c1|02826be5-09ae-45f8-98fa-aa656690cfed",
        "clearance|146515762|97988757|becf4205-e48f-43d5-beef-1909bb74e7e3|bdd0bcae-bc8b-444e-b0ac-301275b05712",
        "clearance|146516501|97500000|23012b0f-2efa-413b-8e25-f2783977acad|bdd0bcae-bc8b-444e-b0ac-301275b05712",
        "clearance|146517256|96999956|3f434fb9-9e3a-4ed4-b72b-b4078fc0c145|bdd0bcae-bc8b-444e-b0ac-301275b05712",
        "clearance|146517300|96971117|dc3c66b7-6495-4a5d-a5dc-d921fb782d7a|bdd0bcae-bc8b-444e-b0ac-301275b05712",
        "clearance|146775000|100575000|a0f7ad5c-264a-4071-8092-bf609673fa11|7bb40896-20a1-4562-ba6b-c257f328e465",
        "clearance|146775000|100925000|7c100f4a-9fc9-409f-b067-b382ff06dce0|7bb40896-20a1-4562-ba6b-c257f328e465",
        "clearance|146775000|96925000|ac0946d8-093b-4c8d-859c-0fb2ef5d50e8|bdd0bcae-bc8b-444e-b0ac-301275b05712",
        "clearance|146775000|97425000|aad4db3b-4e03-4023-9bb9-c5fc3831f82b|bdd0bcae-bc8b-444e-b0ac-301275b05712",
        "clearance|146775000|97925000|e45c4426-d29e-4103-a4a6-0533c7de8248|bdd0bcae-bc8b-444e-b0ac-301275b05712",
        "clearance|146775000|98575000|130f455d-3e02-476c-bccf-fed974327e68|02826be5-09ae-45f8-98fa-aa656690cfed",
        "clearance|146775000|98925000|6e73d29b-12a0-4845-9868-52c1b91eb7ca|02826be5-09ae-45f8-98fa-aa656690cfed",
        "clearance|146775000|99425000|72693826-c801-40bb-b58d-3bb1ffab5ae4|02826be5-09ae-45f8-98fa-aa656690cfed",
        "clearance|146775000|99925000|4a5afef8-13b5-48d4-9a4f-1c117d9e0f3c|02826be5-09ae-45f8-98fa-aa656690cfed",
        "clearance|147000000|95600000|dbfeb21a-6a94-4938-9e64-1568083f2a1d|bdd0bcae-bc8b-444e-b0ac-301275b05712",
        "clearance|147164228|95764228|35cee25f-a3a1-4d31-865c-8acdd191a4db|bdd0bcae-bc8b-444e-b0ac-301275b05712",
        "clearance|147209875|96500720|0abb93ad-6953-4a56-8801-2eb011df21e0|bdd0bcae-bc8b-444e-b0ac-301275b05712",
        "clearance|147210809|96552764|338d0070-a6cc-4a17-b6c5-186bc923e9af|bdd0bcae-bc8b-444e-b0ac-301275b05712",
        "clearance|148152378|98529798|6bd6a5dd-3e2e-4059-96fb-cc52f6b50303|499c4952-063c-4bd3-b8fb-b7f94b5a6e04",
        "clearance|148168287|96535908|7e53a955-2b06-4736-8e3b-5b96938d3e55|b7e46272-293d-4182-a070-06861c5bb741",
        "clearance|149000000|100750000|5f325a10-200f-4803-907e-abfa98ccfe4b|14fda976-a468-4728-b831-88381ee976ba",
        "clearance|149000000|96750000|9e547345-02a9-4dea-a120-d52ee9d62584|b7e46272-293d-4182-a070-06861c5bb741",
        "clearance|149000000|97750000|96465eb6-8424-45e7-8f74-b36ce4333181|b7e46272-293d-4182-a070-06861c5bb741",
        "clearance|149000000|98750000|3955849d-df25-4cfd-b249-c098d0098b7c|499c4952-063c-4bd3-b8fb-b7f94b5a6e04",
        "clearance|149000000|99750000|2aef7d63-475d-4751-a0e9-30275181538d|499c4952-063c-4bd3-b8fb-b7f94b5a6e04",
        "clearance|150000000|100750000|742bb492-7c6f-4a7f-9431-0a313126a4ad|14fda976-a468-4728-b831-88381ee976ba",
        "clearance|150000000|97250000|222c7caa-a16c-48c0-b032-c8b202ce2a6e|b7e46272-293d-4182-a070-06861c5bb741",
        "clearance|150000000|99250000|efd636a6-5d72-4787-81b2-fcec1175d543|499c4952-063c-4bd3-b8fb-b7f94b5a6e04",
        "clearance|151000000|100750000|6c2a1c9a-b938-485f-9b9c-096708d43508|14fda976-a468-4728-b831-88381ee976ba",
        "clearance|151000000|96750000|ac3337ed-3349-4229-9575-07a826e0466f|b7e46272-293d-4182-a070-06861c5bb741",
        "clearance|151000000|97750000|d0c9a7c3-437b-44c4-a844-0762d39f77d4|b7e46272-293d-4182-a070-06861c5bb741",
        "clearance|151000000|98750000|c95cb1e7-75d5-42f0-b125-5be697832508|499c4952-063c-4bd3-b8fb-b7f94b5a6e04",
        "clearance|151000000|99750000|83bcb92b-7fc6-4431-8c99-f456b10d40cf|499c4952-063c-4bd3-b8fb-b7f94b5a6e04",
        "clearance|151885618|100500000|d11e71ec-2773-4ee1-840a-6b9fe8231f02|14fda976-a468-4728-b831-88381ee976ba",
        "clearance|151885618|100979737|d51d4351-a04d-42e7-926e-31ea9e992634|14fda976-a468-4728-b831-88381ee976ba",
        "clearance|151928041|99000000|7db8a77d-23c5-4c41-93c1-6ea78235e0d8|499c4952-063c-4bd3-b8fb-b7f94b5a6e04",
        "clearance|151928041|99500000|e10eba37-b3c0-49a1-b712-06faef58e42d|499c4952-063c-4bd3-b8fb-b7f94b5a6e04",
        "clearance|151928041|99993398|5a0c56b5-6ff8-4f8c-8115-1257fd5afea5|499c4952-063c-4bd3-b8fb-b7f94b5a6e04",
        "clearance|151943950|97000000|b847a882-a255-40a5-aea4-beaededa4a58|b7e46272-293d-4182-a070-06861c5bb741",
        "clearance|151943950|97500000|6808954f-7d61-4782-b873-cce1f005acd4|b7e46272-293d-4182-a070-06861c5bb741",
        "clearance|151943950|97999508|3200dfb0-b6e6-45b9-9b77-9e20bdbd7175|b7e46272-293d-4182-a070-06861c5bb741",
        "clearance|152275000|96575000|09b2eec2-f16b-4135-8d35-6abe87d885e7|b7e46272-293d-4182-a070-06861c5bb741",
        "clearance|152275000|97075000|f07c0bc4-99bd-4f8a-ae08-400e1ed3a9e3|b7e46272-293d-4182-a070-06861c5bb741",
        "clearance|152275000|97575000|f30e465a-d76c-4e17-af26-56bd96a81e53|b7e46272-293d-4182-a070-06861c5bb741",
        "clearance|152275000|97925000|ed439dc3-cf29-4270-9d27-f7d8d51280fc|b7e46272-293d-4182-a070-06861c5bb741",
        "clearance|152275000|98575000|a2478825-2d96-41d5-83ae-95b7afaff5e8|499c4952-063c-4bd3-b8fb-b7f94b5a6e04",
        "clearance|152275000|99075000|b8eb56c2-58e0-4099-9041-34072640c028|499c4952-063c-4bd3-b8fb-b7f94b5a6e04",
        "clearance|152275000|99575000|bd875a2b-cf0e-4f85-ae11-591c2951fcd3|499c4952-063c-4bd3-b8fb-b7f94b5a6e04",
        "clearance|152275000|99925000|bdb5f759-2bf2-4f50-a722-da354e702e45|499c4952-063c-4bd3-b8fb-b7f94b5a6e04",
        "lib_footprint_mismatch|135500000|94000000|e756b996-41ce-42d3-982d-eb5126e65140|00000000-0000-0000-0000-000000000000",
        "lib_footprint_mismatch|150000000|100000000|0aea7a6b-9e68-48b1-9e6a-223b5c33bb7d|00000000-0000-0000-0000-000000000000",
        "solder_mask_bridge|130750000|90400000|ac7c8b6d-8f99-42ed-909f-6ae0bd443031|a157014c-20dc-49ee-938e-f230e46283e8",
        "solder_mask_bridge|132275000|92400000|92780994-3182-40fb-b305-c11f0c085bfa|5fbe2bcd-e28d-4c52-875a-0f7706cd8521",
        "solder_mask_bridge|132275000|93900000|7a4e48a9-4751-4f74-98c8-095de06a60f5|52635789-a1f0-4bf1-8f02-56d38c5c3f19",
        "solder_mask_bridge|132275000|94400000|758d9f10-5932-467a-9c6a-f27e219e28cc|52635789-a1f0-4bf1-8f02-56d38c5c3f19",
        "solder_mask_bridge|132275000|95400000|057f8283-1d50-4bd8-a6a4-ba435fdfd2f8|9893a154-9a42-4fd2-bc9f-539d3121fd1b",
        "solder_mask_bridge|132275000|95900000|381407d3-345f-4495-b37c-02c44bbd6991|056ab4c2-299d-4a49-b425-d1482e811f07",
        "solder_mask_bridge|132275000|96400000|49880dcb-f288-4aaa-b4c3-8707951c6390|056ab4c2-299d-4a49-b425-d1482e811f07",
        "solder_mask_bridge|132275000|96900000|f426095a-e93b-444e-b7fc-779d0171095d|ad1bbe1c-a5f1-4e24-a23d-00b26b606642",
        "solder_mask_bridge|132275000|97400000|f980542a-30f4-489a-bb2f-4e07c486ab12|ad1bbe1c-a5f1-4e24-a23d-00b26b606642",
        "solder_mask_bridge|132750000|94000000|7a4e48a9-4751-4f74-98c8-095de06a60f5|52635789-a1f0-4bf1-8f02-56d38c5c3f19",
        "solder_mask_bridge|132750000|95500000|057f8283-1d50-4bd8-a6a4-ba435fdfd2f8|9893a154-9a42-4fd2-bc9f-539d3121fd1b",
        "solder_mask_bridge|132750000|96000000|381407d3-345f-4495-b37c-02c44bbd6991|056ab4c2-299d-4a49-b425-d1482e811f07",
        "solder_mask_bridge|132750000|97000000|f426095a-e93b-444e-b7fc-779d0171095d|ad1bbe1c-a5f1-4e24-a23d-00b26b606642",
        "solder_mask_bridge|133225000|92100000|337073f9-ce6c-4a85-a92d-fbdd14f69e7d|e0abc02d-ba55-480d-b37d-ecbc949f5d06",
        "solder_mask_bridge|133225000|92425000|1939d76d-d9df-40f0-9437-1fde10add52a|6338d5d6-e673-4898-9d19-8cb50719a714",
        "solder_mask_bridge|133225000|94425000|52635789-a1f0-4bf1-8f02-56d38c5c3f19|5333e581-9686-4650-83c5-fdd06873f2a5",
        "solder_mask_bridge|133225000|95100000|d0266c4e-526b-4fa3-9319-9ee02af13f62|52635789-a1f0-4bf1-8f02-56d38c5c3f19",
        "solder_mask_bridge|133225000|95425000|8cc45937-d2f6-4992-b8de-5df9ecbf07fe|661075fc-be24-480b-99bc-adce6d6aaf88",
        "solder_mask_bridge|133225000|95925000|9893a154-9a42-4fd2-bc9f-539d3121fd1b|8cc45937-d2f6-4992-b8de-5df9ecbf07fe",
        "solder_mask_bridge|133225000|96425000|056ab4c2-299d-4a49-b425-d1482e811f07|9893a154-9a42-4fd2-bc9f-539d3121fd1b",
        "solder_mask_bridge|133225000|96600000|49880dcb-f288-4aaa-b4c3-8707951c6390|056ab4c2-299d-4a49-b425-d1482e811f07",
        "solder_mask_bridge|133225000|96925000|f74c67da-dbf5-41fa-91df-ae57dc0028ec|056ab4c2-299d-4a49-b425-d1482e811f07",
        "solder_mask_bridge|133225000|97425000|ad1bbe1c-a5f1-4e24-a23d-00b26b606642|f74c67da-dbf5-41fa-91df-ae57dc0028ec",
        "solder_mask_bridge|135000000|90500000|ac7c8b6d-8f99-42ed-909f-6ae0bd443031|a157014c-20dc-49ee-938e-f230e46283e8",
        "solder_mask_bridge|135000000|92500000|92780994-3182-40fb-b305-c11f0c085bfa|0247221e-951b-4671-bf73-21be5bf5effe",
        "solder_mask_bridge|135000000|94500000|758d9f10-5932-467a-9c6a-f27e219e28cc|84be9a42-0caa-4ddb-8411-5a8ceef16a34",
        "solder_mask_bridge|136000000|90900000|585eb9c6-0340-4318-bef3-ec9bd8eac532|423c4de6-2dee-4127-b354-4440e27fe696",
        "solder_mask_bridge|136000000|91400000|b5294ca0-ec6e-4bbc-a47f-f0e551f5c22b|904cfa90-c722-49fb-9056-9133076f82b6",
        "solder_mask_bridge|136000000|91900000|337073f9-ce6c-4a85-a92d-fbdd14f69e7d|80678d21-2ea5-40ae-8d07-8ca995c56e4e",
        "solder_mask_bridge|136000000|92900000|ad49a677-c0c7-45fc-8627-8fad2867ad4c|08b3da90-ae98-4971-a0da-eceae9c9784e",
        "solder_mask_bridge|136000000|93400000|feb4595f-36de-4d4f-9e6b-2b2d8ec12071|e129eee5-acee-4f08-81d3-524f6a1d6170",
        "solder_mask_bridge|136000000|93900000|7a4e48a9-4751-4f74-98c8-095de06a60f5|68c1e66b-7312-4d39-956f-6af84313f16c",
        "solder_mask_bridge|136000000|94900000|d0266c4e-526b-4fa3-9319-9ee02af13f62|cfc28b36-c019-49c4-84c1-2397ae443fa9",
        "solder_mask_bridge|137775000|92400000|92780994-3182-40fb-b305-c11f0c085bfa|5fbe2bcd-e28d-4c52-875a-0f7706cd8521",
        "solder_mask_bridge|137775000|93900000|7a4e48a9-4751-4f74-98c8-095de06a60f5|52635789-a1f0-4bf1-8f02-56d38c5c3f19",
        "solder_mask_bridge|137775000|94400000|758d9f10-5932-467a-9c6a-f27e219e28cc|52635789-a1f0-4bf1-8f02-56d38c5c3f19",
        "solder_mask_bridge|137775000|95400000|057f8283-1d50-4bd8-a6a4-ba435fdfd2f8|9893a154-9a42-4fd2-bc9f-539d3121fd1b",
        "solder_mask_bridge|137775000|95900000|381407d3-345f-4495-b37c-02c44bbd6991|056ab4c2-299d-4a49-b425-d1482e811f07",
        "solder_mask_bridge|137775000|96400000|49880dcb-f288-4aaa-b4c3-8707951c6390|056ab4c2-299d-4a49-b425-d1482e811f07",
        "solder_mask_bridge|137775000|96900000|f426095a-e93b-444e-b7fc-779d0171095d|ad1bbe1c-a5f1-4e24-a23d-00b26b606642",
        "solder_mask_bridge|137775000|97400000|f980542a-30f4-489a-bb2f-4e07c486ab12|ad1bbe1c-a5f1-4e24-a23d-00b26b606642",
        "solder_mask_bridge|138250000|94000000|7a4e48a9-4751-4f74-98c8-095de06a60f5|52635789-a1f0-4bf1-8f02-56d38c5c3f19",
        "solder_mask_bridge|138250000|95500000|057f8283-1d50-4bd8-a6a4-ba435fdfd2f8|9893a154-9a42-4fd2-bc9f-539d3121fd1b",
        "solder_mask_bridge|138250000|96000000|381407d3-345f-4495-b37c-02c44bbd6991|056ab4c2-299d-4a49-b425-d1482e811f07",
        "solder_mask_bridge|138250000|97000000|f426095a-e93b-444e-b7fc-779d0171095d|ad1bbe1c-a5f1-4e24-a23d-00b26b606642",
        "solder_mask_bridge|138725000|92075000|9610db6e-a3ae-4ba0-8b67-b64b33dd3d29|d45b253d-c7c9-45c0-8c17-c858927175ae",
        "solder_mask_bridge|138725000|92100000|337073f9-ce6c-4a85-a92d-fbdd14f69e7d|e0abc02d-ba55-480d-b37d-ecbc949f5d06",
        "solder_mask_bridge|138725000|94075000|2269ee67-210e-4949-8a22-9395ddbfb205|c67d1299-c1a7-44b9-b922-49bec704df60",
        "solder_mask_bridge|138725000|95075000|1cdfa995-3766-4174-97a6-f817f6af2b44|377c5d61-fe7d-40d5-957c-2db52c3f8ade",
        "solder_mask_bridge|138725000|95100000|d0266c4e-526b-4fa3-9319-9ee02af13f62|52635789-a1f0-4bf1-8f02-56d38c5c3f19",
        "solder_mask_bridge|138725000|95575000|377c5d61-fe7d-40d5-957c-2db52c3f8ade|ea4cd248-e0ca-4a81-b1c3-1f9880379a2a",
        "solder_mask_bridge|138725000|96075000|ea4cd248-e0ca-4a81-b1c3-1f9880379a2a|26546d7d-ddc8-4224-8df6-5ecf81eb2a73",
        "solder_mask_bridge|138725000|96575000|26546d7d-ddc8-4224-8df6-5ecf81eb2a73|aa31b897-0d74-4de0-8fd0-ce928798eda1",
        "solder_mask_bridge|138725000|96600000|49880dcb-f288-4aaa-b4c3-8707951c6390|056ab4c2-299d-4a49-b425-d1482e811f07",
        "solder_mask_bridge|138725000|97075000|aa31b897-0d74-4de0-8fd0-ce928798eda1|26bd8f6d-0320-4e4c-b995-df46be7529c2",
        "solder_mask_bridge|147210809|96552764|bdd0bcae-bc8b-444e-b0ac-301275b05712|338d0070-a6cc-4a17-b6c5-186bc923e9af",
        "solder_mask_bridge|147725000|100075000|4a5afef8-13b5-48d4-9a4f-1c117d9e0f3c|a0f7ad5c-264a-4071-8092-bf609673fa11",
        "solder_mask_bridge|147725000|101075000|7c100f4a-9fc9-409f-b067-b382ff06dce0|47b76abe-3c4a-4674-bf0f-f5356d58b71e",
        "solder_mask_bridge|147725000|101575000|47b76abe-3c4a-4674-bf0f-f5356d58b71e|6c6b017a-0ca4-49c9-bcc6-daf3a96e02c6",
        "solder_mask_bridge|147725000|102075000|6c6b017a-0ca4-49c9-bcc6-daf3a96e02c6|41d64e49-f17e-41b5-a466-c8c5479de684",
        "solder_mask_bridge|147725000|102575000|41d64e49-f17e-41b5-a466-c8c5479de684|02fb5c7d-4196-4458-b181-559a4e645d1b",
        "solder_mask_bridge|147725000|103075000|02fb5c7d-4196-4458-b181-559a4e645d1b|c98c6495-9886-4f84-89af-50ab108baa7a",
        "solder_mask_bridge|147725000|98075000|e45c4426-d29e-4103-a4a6-0533c7de8248|130f455d-3e02-476c-bccf-fed974327e68",
        "solder_mask_bridge|153225000|100425000|dc0631fd-7b13-44c1-8b7b-9026dcf2b200|bdb5f759-2bf2-4f50-a722-da354e702e45",
        "solder_mask_bridge|153225000|101425000|a037c4f2-c8d8-47f6-b451-eb74d84cb97e|22f50d64-b6e8-40e5-8ec7-8b082c60b6b1",
        "solder_mask_bridge|153225000|101925000|1531e3c4-c7bb-467f-9374-70c5e9dda58d|a037c4f2-c8d8-47f6-b451-eb74d84cb97e",
        "solder_mask_bridge|153225000|102425000|7aa0b414-d7cf-4b8d-917e-87b393fb9772|1531e3c4-c7bb-467f-9374-70c5e9dda58d",
        "solder_mask_bridge|153225000|102925000|0a1f9fa1-6f7c-4bb0-8d08-53789b9628b7|7aa0b414-d7cf-4b8d-917e-87b393fb9772",
        "solder_mask_bridge|153225000|103425000|f5698b41-409e-4952-be0f-16c97df59e20|0a1f9fa1-6f7c-4bb0-8d08-53789b9628b7",
        "solder_mask_bridge|153225000|98425000|a2478825-2d96-41d5-83ae-95b7afaff5e8|ed439dc3-cf29-4270-9d27-f7d8d51280fc",
        "track_dangling|130800000|95500000|268290d6-2b7b-4fc1-b429-65df8b25e8ff|00000000-0000-0000-0000-000000000000",
        "track_dangling|130800000|96000000|9252cac8-86a0-4cf7-9035-4df15893842b|00000000-0000-0000-0000-000000000000",
        "track_dangling|130800000|96500000|1d6ba7c0-2f3a-44ef-8b50-4386f47ce62e|00000000-0000-0000-0000-000000000000",
        "track_dangling|130800000|97000000|5168c728-121b-41b2-98c1-21f9430f4031|00000000-0000-0000-0000-000000000000",
        "track_dangling|130800000|97500000|612e6e0b-bff5-48ab-96f3-0ef3dfecfb69|00000000-0000-0000-0000-000000000000",
        "track_dangling|139680000|96500000|6b4da04a-4502-4050-89cf-f0cfd8e4d24b|00000000-0000-0000-0000-000000000000",
        "track_dangling|140200000|90500000|023dfcfb-a1b5-41fe-a23d-9e5905f2098b|00000000-0000-0000-0000-000000000000",
        "track_dangling|140200000|91000000|423c4de6-2dee-4127-b354-4440e27fe696|00000000-0000-0000-0000-000000000000",
        "track_dangling|140200000|91500000|f5ece8d6-de95-441d-929b-ad53c1d80c62|00000000-0000-0000-0000-000000000000",
        "track_dangling|140200000|92000000|cb9b1094-70de-495f-80f3-a184e788c9c9|00000000-0000-0000-0000-000000000000",
        "track_dangling|140200000|92500000|89513cb3-5a8c-40c7-b704-ade64c55e5a8|00000000-0000-0000-0000-000000000000",
        "track_dangling|140200000|93000000|7039ac74-7d4b-43f2-a0a2-95b9143d8340|00000000-0000-0000-0000-000000000000",
        "track_dangling|140200000|93500000|20efde2d-c215-452d-a485-287595387f08|00000000-0000-0000-0000-000000000000",
        "track_dangling|140200000|94000000|485a2330-fae4-4b5a-a1c8-366567917cc5|00000000-0000-0000-0000-000000000000",
        "track_dangling|140200000|94500000|d5bc54f0-c8c6-48d5-a072-895f71d7cafe|00000000-0000-0000-0000-000000000000",
        "track_dangling|140200000|95000000|cfc28b36-c019-49c4-84c1-2397ae443fa9|00000000-0000-0000-0000-000000000000",
        "via_dangling|145125000|95600000|bd6d4d68-26db-44a6-98a5-e3d1c04899c1|00000000-0000-0000-0000-000000000000"
      ],
      "meta": {
        "version": 2
      },
      "rule_severities": {
        "annular_width": "error",
        "clearance": "error",
        "connection_width": "warning",
        "copper_edge_clearance": "error",
        "copper_sliver": "warning",
        "courtyards_overlap": "error",
        "diff_pair_gap_out_of_range": "error",
        "diff_pair_uncoupled_length_too_long": "error",
        "drill_out_of_range": "error",
        "duplicate_footprints": "warning",
        "extra_footprint": "warning",
        "footprint": "error",
        "footprint_type_mismatch": "error",
        "hole_clearance": "error",
        "hole_near_hole": "error",
        "invalid_outline": "error",
        "isolated_copper": "warning",
        "item_on_disabled_layer": "error",
        "items_not_allowed": "error",
        "length_out_of_range": "error",
        "lib_footprint_issues": "warning",
        "lib_footprint_mismatch": "warning",
        "malformed_courtyard": "error",
        "microvia_drill_out_of_range": "error",
        "missing_courtyard": "ignore",
        "missing_footprint": "warning",
        "net_conflict": "warning",
        "npth_inside_courtyard": "ignore",
        "padstack": "error",
        "pth_inside_courtyard": "ignore",
        "shorting_items": "error",
        "silk_edge_clearance": "warning",
        "silk_over_copper": "warning",
        "silk_overlap": "warning",
        "skew_out_of_range": "error",
        "solder_mask_bridge": "error",
        "starved_thermal": "error",
        "text_height": "warning",
        "text_thickness": "warning",
        "through_hole_pad_without_hole": "error",
        "too_many_vias": "error",
        "track_dangling": "warning",
        "track_width": "error",
        "tracks_crossing": "error",
        "unconnected_items": "error",
        "unresolved_variable": "error",
        "via_dangling": "warning",
        "zones_intersect": "error"
      },
      "rules": {
        "allow_blind_buried_vias": false,
        "allow_microvias": false,
        "max_error": 0.005,
        "min_clearance": 0.15239999999999998,
        "min_connection": 0.0,
        "min_copper_edge_clearance": 0.381,
        "min_hole_clearance": 0.15239999999999998,
        "min_hole_to_hole": 0.15239999999999998,
        "min_microvia_diameter": 0.19999999999999998,
        "min_microvia_drill": 0.09999999999999999,
        "min_resolved_spokes": 2,
        "min_silk_clearance": 0.0,
        "min_text_height": 0.7999999999999999,
        "min_text_thickness": 0.08,
        "min_through_hole_diameter": 0.254,
        "min_track_width": 0.15239999999999998,
        "min_via_annular_width": 0.127,
        "min_via_diameter": 0.508,
        "solder_mask_clearance": 0.0,
        "solder_mask_min_width": 0.0,
        "solder_mask_to_copper_clearance": 0.0,
        "use_height_for_length_calcs": true
      },
      "teardrop_options": [
        {
          "td_allow_use_two_tracks": true,
          "td_curve_segcount": 5,
          "td_on_pad_in_zone": false,
          "td_onpadsmd": true,
          "td_onroundshapesonly": false,
          "td_ontrackend": false,
          "td_onviapad": true
        }
      ],
      "teardrop_parameters": [
        {
          "td_curve_segcount": 0,
          "td_height_ratio": 1.0,
          "td_length_ratio": 0.5,
          "td_maxheight": 2.0,
          "td_maxlen": 1.0,
          "td_target_name": "td_round_shape",
          "td_width_to_size_filter_ratio": 0.9
        },
        {
          "td_curve_segcount": 0,
          "td_height_ratio": 1.0,
          "td_length_ratio": 0.5,
          "td_maxheight": 2.0,
          "td_maxlen": 1.0,
          "td_target_name": "td_rect_shape",
          "td_width_to_size_filter_ratio": 0.9
        },
        {
          "td_curve_segcount": 0,
          "td_height_ratio": 1.0,
          "td_length_ratio": 0.5,
          "td_maxheight": 2.0,
          "td_maxlen": 1.0,
          "td_target_name": "td_track_end",
          "td_width_to_size_filter_ratio": 0.9
        }
      ],
      "track_widths": [
        0.0,
        0.1524,
        0.2,
        0.25,
        0.3,
        0.35,
        0.4,
        0.45,
        1.0
      ],
      "via_dimensions": [
        {
          "diameter": 0.0,
          "drill": 0.0
        },
        {
          "diameter": 0.508,
          "drill": 0.254
        }
      ],
      "zones_allow_external_fillets": false,
      "zones_use_no_outline": true
    },
    "layer_presets": [],
    "viewports": []
  },
  "boards": [],
  "cvpcb": {
    "equivalence_files": []
  },
  "erc": {
    "erc_exclusions": [],
    "meta": {
      "version": 0
    },
    "pin_map": [
      [
        0,
        0,
        0,
        0,
        0,
        0,
        1,
        0,
        0,
        0,
        0,
        2
      ],
      [
        0,
        2,
        0,
        1,
        0,
        0,
        1,
        0,
        2,
        2,
        2,
        2
      ],
      [
        0,
        0,
        0,
        0,
        0,
        0,
        1,
        0,
        1,
        0,
        1,
        2
      ],
      [
        0,
        1,
        0,
        0,
        0,
        0,
        1,
        1,
        2,
        1,
        1,
        2
      ],
      [
        0,
        0,
        0,
        0,
        0,
        0,
        1,
        0,
        0,
        0,
        0,
        2
      ],
      [
        0,
        0,
        0,
        0,
        0,
        0,
        0,
        0,
        0,
        0,
        0,
        2
      ],
      [
        1,
        1,
        1,
        1,
        1,
        0,
        1,
        1,
        1,
        1,
        1,
        2
      ],
      [
        0,
        0,
        0,
        1,
        0,
        0,
        1,
        0,
        0,
        0,
        0,
        2
      ],
      [
        0,
        2,
        1,
        2,
        0,
        0,
        1,
        0,
        2,
        2,
        2,
        2
      ],
      [
        0,
        2,
        0,
        1,
        0,
        0,
        1,
        0,
        2,
        0,
        0,
        2
      ],
      [
        0,
        2,
        1,
        1,
        0,
        0,
        1,
        0,
        2,
        0,
        0,
        2
      ],
      [
        2,
        2,
        2,
        2,
        2,
        2,
        2,
        2,
        2,
        2,
        2,
        2
      ]
    ],
    "rule_severities": {
      "bus_definition_conflict": "error",
      "bus_entry_needed": "error",
      "bus_to_bus_conflict": "error",
      "bus_to_net_conflict": "error",
      "conflicting_netclasses": "error",
      "different_unit_footprint": "error",
      "different_unit_net": "error",
      "duplicate_reference": "error",
      "duplicate_sheet_names": "error",
      "endpoint_off_grid": "warning",
      "extra_units": "error",
      "global_label_dangling": "warning",
      "hier_label_mismatch": "error",
      "label_dangling": "error",
      "lib_symbol_issues": "warning",
      "missing_bidi_pin": "warning",
      "missing_input_pin": "warning",
      "missing_power_pin": "error",
      "missing_unit": "warning",
      "multiple_net_names": "warning",
      "net_not_bus_member": "warning",
      "no_connect_connected": "warning",
      "no_connect_dangling": "warning",
      "pin_not_connected": "error",
      "pin_not_driven": "error",
      "pin_to_pin": "warning",
      "power_pin_not_driven": "error",
      "similar_labels": "warning",
      "simulation_model_issue": "ignore",
      "unannotated": "error",
      "unit_value_mismatch": "error",
      "unresolved_variable": "error",
      "wire_dangling": "error"
    }
  },
  "libraries": {
    "pinned_footprint_libs": [],
    "pinned_symbol_libs": []
  },
  "meta": {
    "filename": "mezzanine-flex-board.kicad_pro",
    "version": 1
  },
  "net_settings": {
    "classes": [
      {
        "bus_width": 12,
        "clearance": 0.2,
        "diff_pair_gap": 0.25,
        "diff_pair_via_gap": 0.25,
        "diff_pair_width": 0.2,
        "line_style": 0,
        "microvia_diameter": 0.3,
        "microvia_drill": 0.1,
        "name": "Default",
        "pcb_color": "rgba(0, 0, 0, 0.000)",
        "schematic_color": "rgba(0, 0, 0, 0.000)",
        "track_width": 0.25,
        "via_diameter": 0.8,
        "via_drill": 0.4,
        "wire_width": 6
      }
    ],
    "meta": {
      "version": 3
    },
    "net_colors": null,
    "netclass_assignments": null,
    "netclass_patterns": []
  },
  "pcbnew": {
    "last_paths": {
      "gencad": "",
      "idf": "",
      "netlist": "",
      "specctra_dsn": "",
      "step": "mezzanine-flex-board.step",
      "vrml": ""
    },
    "page_layout_descr_file": ""
  },
  "schematic": {
    "annotate_start_num": 0,
    "drawing": {
      "dashed_lines_dash_length_ratio": 12.0,
      "dashed_lines_gap_length_ratio": 3.0,
      "default_line_thickness": 6.0,
      "default_text_size": 50.0,
      "field_names": [],
      "intersheets_ref_own_page": false,
      "intersheets_ref_prefix": "",
      "intersheets_ref_short": false,
      "intersheets_ref_show": false,
      "intersheets_ref_suffix": "",
      "junction_size_choice": 3,
      "label_size_ratio": 0.375,
      "pin_symbol_size": 25.0,
      "text_offset_ratio": 0.15
    },
    "legacy_lib_dir": "",
    "legacy_lib_list": [],
    "meta": {
      "version": 1
    },
    "net_format_name": "",
    "ngspice": {
      "fix_include_paths": true,
      "fix_passive_vals": false,
      "meta": {
        "version": 0
      },
      "model_mode": 0,
      "workbook_filename": ""
    },
    "page_layout_descr_file": "",
    "plot_directory": "",
    "spice_adjust_passive_values": false,
    "spice_current_sheet_as_root": false,
    "spice_external_command": "spice \"%I\"",
    "spice_model_current_sheet_as_root": true,
    "spice_save_all_currents": false,
    "spice_save_all_voltages": false,
    "subpart_first_id": 65,
    "subpart_id_separator": 0
  },
  "sheets": [
    [
      "73c464dd-daf4-484f-b278-4b4e429c836b",
      ""
    ]
  ],
  "text_variables": {}
}
