(kicad_pcb (version 20221018) (generator pcbnew)

  (general
    (thickness 0.2224)
  )

  (paper "A4")
  (layers
    (0 "F.Cu" signal)
    (31 "B.Cu" signal)
    (32 "B.Adhes" user "B.Adhesive")
    (33 "F.Adhes" user "F.Adhesive")
    (34 "B.Paste" user)
    (35 "F.Paste" user)
    (36 "B.SilkS" user "B.Silkscreen")
    (37 "F.SilkS" user "F.Silkscreen")
    (38 "B.Mask" user)
    (39 "F.Mask" user)
    (40 "Dwgs.User" user "User.Drawings")
    (41 "Cmts.User" user "User.Comments")
    (42 "Eco1.User" user "User.Eco1")
    (43 "Eco2.User" user "User.Eco2")
    (44 "Edge.Cuts" user)
    (45 "Margin" user)
    (46 "B.CrtYd" user "B.Courtyard")
    (47 "F.CrtYd" user "F.Courtyard")
    (48 "B.Fab" user)
    (49 "F.Fab" user)
    (50 "User.1" user)
    (51 "User.2" user)
    (52 "User.3" user)
    (53 "User.4" user)
    (54 "User.5" user)
    (55 "User.6" user)
    (56 "User.7" user)
    (57 "User.8" user)
    (58 "User.9" user)
  )

  (setup
    (stackup
      (layer "F.SilkS" (type "Top Silk Screen"))
      (layer "F.Paste" (type "Top Solder Paste"))
      (layer "F.Mask" (type "Top Solder Mask") (color "#80808000") (thickness 0.0254))
      (layer "F.Cu" (type "copper") (thickness 0.035))
      (layer "dielectric 1" (type "core") (thickness 0.1016) (material "Polyimide") (epsilon_r 3.2) (loss_tangent 0.004))
      (layer "B.Cu" (type "copper") (thickness 0.035))
      (layer "B.Mask" (type "Bottom Solder Mask") (color "#80808000") (thickness 0.0254))
      (layer "B.Paste" (type "Bottom Solder Paste"))
      (layer "B.SilkS" (type "Bottom Silk Screen"))
      (copper_finish "None")
      (dielectric_constraints no)
    )
    (pad_to_mask_clearance 0.0508)
    (solder_mask_min_width 0.101)
    (pcbplotparams
      (layerselection 0x00010fc_ffffffff)
      (plot_on_all_layers_selection 0x0000000_00000000)
      (disableapertmacros false)
      (usegerberextensions false)
      (usegerberattributes true)
      (usegerberadvancedattributes true)
      (creategerberjobfile false)
      (dashed_line_dash_ratio 12.000000)
      (dashed_line_gap_ratio 3.000000)
      (svgprecision 6)
      (plotframeref false)
      (viasonmask false)
      (mode 1)
      (useauxorigin false)
      (hpglpennumber 1)
      (hpglpenspeed 20)
      (hpglpendiameter 15.000000)
      (dxfpolygonmode true)
      (dxfimperialunits true)
      (dxfusepcbnewfont true)
      (psnegative false)
      (psa4output false)
      (plotreference true)
      (plotvalue true)
      (plotinvisibletext false)
      (sketchpadsonfab false)
      (subtractmaskfromsilk false)
      (outputformat 1)
      (mirror false)
      (drillshape 0)
      (scaleselection 1)
      (outputdirectory "build")
    )
  )

  (net 0 "")
  (net 1 "/CAN_L")
  (net 2 "/CAN_H")
  (net 3 "/BOOT")
  (net 4 "/UART_RX")
  (net 5 "/UART_TX")
  (net 6 "/5V")
  (net 7 "/GND")
  (net 8 "/VBUS")

  (footprint "oresat-connectors:J-Molex-0547220304" (layer "B.Cu")
    (tstamp 0aea7a6b-9e68-48b1-9e6a-223b5c33bb7d)
    (at 150 100 -90)
    (property "Sheetfile" "mezzanine-flex-board.kicad_sch")
    (property "Sheetname" "")
    (property "ki_description" "Mezzanine plug, 555600307")
    (path "/a5af1dd9-2557-4155-9ffb-72b502d7a6a2")
    (attr smd)
    (fp_text reference "J1" (at -4.25 -3.25 180 unlocked) (layer "B.SilkS")
        (effects (font (size 0.8 0.8) (thickness 0.12)) (justify mirror))
      (tstamp e4dc29b6-a2ea-4dcb-a2e1-326a072f6f87)
    )
    (fp_text value "Mezzanine Plug" (at 0 2.7 90 unlocked) (layer "B.Fab")
        (effects (font (size 1 1) (thickness 0.15)) (justify mirror))
      (tstamp 8b8081f7-27d0-4b3d-a218-756297e5f194)
    )
    (fp_text user "${REFERENCE}" (at 0 1.2 90 unlocked) (layer "B.Fab")
        (effects (font (size 1 1) (thickness 0.15)) (justify mirror))
      (tstamp 1499d9a9-8156-4b50-b892-7a25e4081dff)
    )
    (fp_line (start -5.05 -2.5) (end -3.8 -2.5)
      (stroke (width 0.12) (type solid)) (layer "B.SilkS") (tstamp 5ca240c2-11c1-4eda-8c0c-028eca6a1b23))
    (fp_line (start -5.05 2.5) (end -5.05 -2.5)
      (stroke (width 0.12) (type solid)) (layer "B.SilkS") (tstamp 78bc7e03-3fab-442c-b2cb-96912a00cfd9))
    (fp_line (start -3.8 2.5) (end -5.05 2.5)
      (stroke (width 0.12) (type solid)) (layer "B.SilkS") (tstamp 618da4e6-5752-408a-9786-9dee3cab7a7e))
    (fp_line (start 3.8 -2.5) (end 5.05 -2.5)
      (stroke (width 0.12) (type solid)) (layer "B.SilkS") (tstamp 0dff298e-78b3-4e7f-ad82-b35e6f711630))
    (fp_line (start 5.05 -2.5) (end 5.05 2.5)
      (stroke (width 0.12) (type solid)) (layer "B.SilkS") (tstamp a9c5d991-e6ea-4b0f-8e73-70280d827a30))
    (fp_line (start 5.05 2.5) (end 3.8 2.5)
      (stroke (width 0.12) (type solid)) (layer "B.SilkS") (tstamp a7d6f8bd-1fec-4701-9d74-6009033b19fc))
    (pad "P$1" smd roundrect (at 3.5 -2.75) (size 1.1 0.3) (layers "B.Cu" "B.Paste" "B.Mask") (roundrect_rratio 0.25)
      (net 1 "/CAN_L") (pinfunction "CAN_L") (pintype "bidirectional") (tstamp f5698b41-409e-4952-be0f-16c97df59e20))
    (pad "P$2" smd roundrect (at 3 -2.75) (size 1.1 0.3) (layers "B.Cu" "B.Paste" "B.Mask") (roundrect_rratio 0.25)
      (net 2 "/CAN_H") (pinfunction "CAN_H") (pintype "bidirectional") (tstamp 0a1f9fa1-6f7c-4bb0-8d08-53789b9628b7))
    (pad "P$3" smd roundrect (at 2.5 -2.75) (size 1.1 0.3) (layers "B.Cu" "B.Paste" "B.Mask") (roundrect_rratio 0.25)
      (net 3 "/BOOT") (pinfunction "BOOT") (pintype "bidirectional") (tstamp 7aa0b414-d7cf-4b8d-917e-87b393fb9772))
    (pad "P$4" smd roundrect (at 2 -2.75) (size 1.1 0.3) (layers "B.Cu" "B.Paste" "B.Mask") (roundrect_rratio 0.25)
      (net 4 "/UART_RX") (pinfunction "UART_RX") (pintype "bidirectional") (tstamp 1531e3c4-c7bb-467f-9374-70c5e9dda58d))
    (pad "P$5" smd roundrect (at 1.5 -2.75) (size 1.1 0.3) (layers "B.Cu" "B.Paste" "B.Mask") (roundrect_rratio 0.25)
      (net 5 "/UART_TX") (pinfunction "UART_TX") (pintype "bidirectional") (tstamp a037c4f2-c8d8-47f6-b451-eb74d84cb97e))
    (pad "P$6" smd roundrect (at 1 -2.75) (size 1.1 0.3) (layers "B.Cu" "B.Paste" "B.Mask") (roundrect_rratio 0.25)
      (net 6 "/5V") (pinfunction "5V") (pintype "power_out") (tstamp 22f50d64-b6e8-40e5-8ec7-8b082c60b6b1))
    (pad "P$7" smd roundrect (at 0.5 -2.75) (size 1.1 0.3) (layers "B.Cu" "B.Paste" "B.Mask") (roundrect_rratio 0.25)
      (net 6 "/5V") (pinfunction "5V") (pintype "power_out") (tstamp dc0631fd-7b13-44c1-8b7b-9026dcf2b200))
    (pad "P$8" smd roundrect (at 0 -2.75) (size 1.1 0.3) (layers "B.Cu" "B.Paste" "B.Mask") (roundrect_rratio 0.25)
      (net 7 "/GND") (pinfunction "GND") (pintype "power_out") (tstamp bdb5f759-2bf2-4f50-a722-da354e702e45))
    (pad "P$9" smd roundrect (at -0.5 -2.75) (size 1.1 0.3) (layers "B.Cu" "B.Paste" "B.Mask") (roundrect_rratio 0.25)
      (net 7 "/GND") (pinfunction "GND") (pintype "power_out") (tstamp bd875a2b-cf0e-4f85-ae11-591c2951fcd3))
    (pad "P$10" smd roundrect (at -1 -2.75) (size 1.1 0.3) (layers "B.Cu" "B.Paste" "B.Mask") (roundrect_rratio 0.25)
      (net 7 "/GND") (pinfunction "GND") (pintype "power_out") (tstamp b8eb56c2-58e0-4099-9041-34072640c028))
    (pad "P$11" smd roundrect (at -1.5 -2.75) (size 1.1 0.3) (layers "B.Cu" "B.Paste" "B.Mask") (roundrect_rratio 0.25)
      (net 7 "/GND") (pinfunction "GND") (pintype "power_out") (tstamp a2478825-2d96-41d5-83ae-95b7afaff5e8))
    (pad "P$12" smd roundrect (at -2 -2.75) (size 1.1 0.3) (layers "B.Cu" "B.Paste" "B.Mask") (roundrect_rratio 0.25)
      (net 8 "/VBUS") (pinfunction "VBUS") (pintype "power_out") (tstamp ed439dc3-cf29-4270-9d27-f7d8d51280fc))
    (pad "P$13" smd roundrect (at -2.5 -2.75) (size 1.1 0.3) (layers "B.Cu" "B.Paste" "B.Mask") (roundrect_rratio 0.25)
      (net 8 "/VBUS") (pinfunction "VBUS") (pintype "power_out") (tstamp f30e465a-d76c-4e17-af26-56bd96a81e53))
    (pad "P$14" smd roundrect (at -3 -2.75) (size 1.1 0.3) (layers "B.Cu" "B.Paste" "B.Mask") (roundrect_rratio 0.25)
      (net 8 "/VBUS") (pinfunction "VBUS") (pintype "power_out") (tstamp f07c0bc4-99bd-4f8a-ae08-400e1ed3a9e3))
    (pad "P$15" smd roundrect (at -3.5 -2.75) (size 1.1 0.3) (layers "B.Cu" "B.Paste" "B.Mask") (roundrect_rratio 0.25)
      (net 8 "/VBUS") (pinfunction "VBUS") (pintype "power_out") (tstamp 09b2eec2-f16b-4135-8d35-6abe87d885e7))
    (pad "P$16" smd roundrect (at -3.5 2.75) (size 1.1 0.3) (layers "B.Cu" "B.Paste" "B.Mask") (roundrect_rratio 0.25)
      (net 8 "/VBUS") (pinfunction "VBUS") (pintype "power_out") (tstamp 338d0070-a6cc-4a17-b6c5-186bc923e9af))
    (pad "P$17" smd roundrect (at -3 2.75) (size 1.1 0.3) (layers "B.Cu" "B.Paste" "B.Mask") (roundrect_rratio 0.25)
      (net 8 "/VBUS") (pinfunction "VBUS") (pintype "power_out") (tstamp ac0946d8-093b-4c8d-859c-0fb2ef5d50e8))
    (pad "P$18" smd roundrect (at -2.5 2.75) (size 1.1 0.3) (layers "B.Cu" "B.Paste" "B.Mask") (roundrect_rratio 0.25)
      (net 8 "/VBUS") (pinfunction "VBUS") (pintype "power_out") (tstamp aad4db3b-4e03-4023-9bb9-c5fc3831f82b))
    (pad "P$19" smd roundrect (at -2 2.75) (size 1.1 0.3) (layers "B.Cu" "B.Paste" "B.Mask") (roundrect_rratio 0.25)
      (net 8 "/VBUS") (pinfunction "VBUS") (pintype "power_out") (tstamp e45c4426-d29e-4103-a4a6-0533c7de8248))
    (pad "P$20" smd roundrect (at -1.5 2.75) (size 1.1 0.3) (layers "B.Cu" "B.Paste" "B.Mask") (roundrect_rratio 0.25)
      (net 7 "/GND") (pinfunction "GND") (pintype "power_out") (tstamp 130f455d-3e02-476c-bccf-fed974327e68))
    (pad "P$21" smd roundrect (at -1 2.75) (size 1.1 0.3) (layers "B.Cu" "B.Paste" "B.Mask") (roundrect_rratio 0.25)
      (net 7 "/GND") (pinfunction "GND") (pintype "power_out") (tstamp 6e73d29b-12a0-4845-9868-52c1b91eb7ca))
    (pad "P$22" smd roundrect (at -0.5 2.75) (size 1.1 0.3) (layers "B.Cu" "B.Paste" "B.Mask") (roundrect_rratio 0.25)
      (net 7 "/GND") (pinfunction "GND") (pintype "power_out") (tstamp 72693826-c801-40bb-b58d-3bb1ffab5ae4))
    (pad "P$23" smd roundrect (at 0 2.75) (size 1.1 0.3) (layers "B.Cu" "B.Paste" "B.Mask") (roundrect_rratio 0.25)
      (net 7 "/GND") (pinfunction "GND") (pintype "power_out") (tstamp 4a5afef8-13b5-48d4-9a4f-1c117d9e0f3c))
    (pad "P$24" smd roundrect (at 0.5 2.75) (size 1.1 0.3) (layers "B.Cu" "B.Paste" "B.Mask") (roundrect_rratio 0.25)
      (net 6 "/5V") (pinfunction "5V") (pintype "power_out") (tstamp a0f7ad5c-264a-4071-8092-bf609673fa11))
    (pad "P$25" smd roundrect (at 1 2.75) (size 1.1 0.3) (layers "B.Cu" "B.Paste" "B.Mask") (roundrect_rratio 0.25)
      (net 6 "/5V") (pinfunction "5V") (pintype "power_out") (tstamp 7c100f4a-9fc9-409f-b067-b382ff06dce0))
    (pad "P$26" smd roundrect (at 1.5 2.75) (size 1.1 0.3) (layers "B.Cu" "B.Paste" "B.Mask") (roundrect_rratio 0.25)
      (net 5 "/UART_TX") (pinfunction "UART_TX") (pintype "bidirectional") (tstamp 47b76abe-3c4a-4674-bf0f-f5356d58b71e))
    (pad "P$27" smd roundrect (at 2 2.75) (size 1.1 0.3) (layers "B.Cu" "B.Paste" "B.Mask") (roundrect_rratio 0.25)
      (net 4 "/UART_RX") (pinfunction "UART_RX") (pintype "bidirectional") (tstamp 6c6b017a-0ca4-49c9-bcc6-daf3a96e02c6))
    (pad "P$28" smd roundrect (at 2.5 2.75) (size 1.1 0.3) (layers "B.Cu" "B.Paste" "B.Mask") (roundrect_rratio 0.25)
      (net 3 "/BOOT") (pinfunction "BOOT") (pintype "bidirectional") (tstamp 41d64e49-f17e-41b5-a466-c8c5479de684))
    (pad "P$29" smd roundrect (at 3 2.75) (size 1.1 0.3) (layers "B.Cu" "B.Paste" "B.Mask") (roundrect_rratio 0.25)
      (net 2 "/CAN_H") (pinfunction "CAN_H") (pintype "bidirectional") (tstamp 02fb5c7d-4196-4458-b181-559a4e645d1b))
    (pad "P$30" smd roundrect (at 3.5 2.75) (size 1.1 0.3) (layers "B.Cu" "B.Paste" "B.Mask") (roundrect_rratio 0.25)
      (net 1 "/CAN_L") (pinfunction "CAN_L") (pintype "bidirectional") (tstamp c98c6495-9886-4f84-89af-50ab108baa7a))
    (model "${ORESAT_LIBRARIES}/oresat-3dmodels/J-Molex-547220304.stp"
      (offset (xyz 0 0 0.5))
      (scale (xyz 1 1 1))
      (rotate (xyz -90 0 0))
    )
  )

  (footprint "oresat-connectors:J-Molex-0547220304" (layer "B.Cu")
    (tstamp e756b996-41ce-42d3-982d-eb5126e65140)
    (at 135.5 94 -90)
    (property "Sheetfile" "mezzanine-flex-board.kicad_sch")
    (property "Sheetname" "")
    (property "ki_description" "Mezzanine plug, 555600307")
    (path "/4513463b-8768-42d7-8671-2b20febc8418")
    (attr smd)
    (fp_text reference "J2" (at -4.425 -3.25 180 unlocked) (layer "B.SilkS")
        (effects (font (size 0.8 0.8) (thickness 0.12)) (justify mirror))
      (tstamp 9b8c7472-cabe-4b91-8a1c-4c4a7bd0aa8e)
    )
    (fp_text value "Mezzanine Plug" (at 0 2.7 90 unlocked) (layer "B.Fab")
        (effects (font (size 1 1) (thickness 0.15)) (justify mirror))
      (tstamp edc98771-d9c7-40e6-9ae0-8ab35b62a7a6)
    )
    (fp_text user "${REFERENCE}" (at 0 1.2 90 unlocked) (layer "B.Fab")
        (effects (font (size 1 1) (thickness 0.15)) (justify mirror))
      (tstamp 8a261f8e-8c57-433d-8030-3263f2af0317)
    )
    (fp_line (start -5.05 -2.5) (end -3.8 -2.5)
      (stroke (width 0.12) (type solid)) (layer "B.SilkS") (tstamp c2a0380e-243e-4346-93e2-0be624d9a805))
    (fp_line (start -5.05 2.5) (end -5.05 -2.5)
      (stroke (width 0.12) (type solid)) (layer "B.SilkS") (tstamp 2a413cd0-94ab-477f-ae21-39ae3ef5c94e))
    (fp_line (start -3.8 2.5) (end -5.05 2.5)
      (stroke (width 0.12) (type solid)) (layer "B.SilkS") (tstamp a1fbf4de-9ccf-4758-b088-6db855151e09))
    (fp_line (start 3.8 -2.5) (end 5.05 -2.5)
      (stroke (width 0.12) (type solid)) (layer "B.SilkS") (tstamp 528b1ba0-b251-4cbb-b434-be57b06adc01))
    (fp_line (start 5.05 -2.5) (end 5.05 2.5)
      (stroke (width 0.12) (type solid)) (layer "B.SilkS") (tstamp 46af9f78-43a3-4eeb-94a7-202b855a5d89))
    (fp_line (start 5.05 2.5) (end 3.8 2.5)
      (stroke (width 0.12) (type solid)) (layer "B.SilkS") (tstamp d84ae8ff-23f4-4c4a-aacf-03b5b42072ea))
    (pad "P$1" smd roundrect (at 3.5 -2.75) (size 1.1 0.3) (layers "B.Cu" "B.Paste" "B.Mask") (roundrect_rratio 0.25)
      (net 1 "/CAN_L") (pinfunction "CAN_L") (pintype "bidirectional") (tstamp 26bd8f6d-0320-4e4c-b995-df46be7529c2))
    (pad "P$2" smd roundrect (at 3 -2.75) (size 1.1 0.3) (layers "B.Cu" "B.Paste" "B.Mask") (roundrect_rratio 0.25)
      (net 2 "/CAN_H") (pinfunction "CAN_H") (pintype "bidirectional") (tstamp aa31b897-0d74-4de0-8fd0-ce928798eda1))
    (pad "P$3" smd roundrect (at 2.5 -2.75) (size 1.1 0.3) (layers "B.Cu" "B.Paste" "B.Mask") (roundrect_rratio 0.25)
      (net 3 "/BOOT") (pinfunction "BOOT") (pintype "bidirectional") (tstamp 26546d7d-ddc8-4224-8df6-5ecf81eb2a73))
    (pad "P$4" smd roundrect (at 2 -2.75) (size 1.1 0.3) (layers "B.Cu" "B.Paste" "B.Mask") (roundrect_rratio 0.25)
      (net 4 "/UART_RX") (pinfunction "UART_RX") (pintype "bidirectional") (tstamp ea4cd248-e0ca-4a81-b1c3-1f9880379a2a))
    (pad "P$5" smd roundrect (at 1.5 -2.75) (size 1.1 0.3) (layers "B.Cu" "B.Paste" "B.Mask") (roundrect_rratio 0.25)
      (net 5 "/UART_TX") (pinfunction "UART_TX") (pintype "bidirectional") (tstamp 377c5d61-fe7d-40d5-957c-2db52c3f8ade))
    (pad "P$6" smd roundrect (at 1 -2.75) (size 1.1 0.3) (layers "B.Cu" "B.Paste" "B.Mask") (roundrect_rratio 0.25)
      (net 6 "/5V") (pinfunction "5V") (pintype "power_in") (tstamp 1cdfa995-3766-4174-97a6-f817f6af2b44))
    (pad "P$7" smd roundrect (at 0.5 -2.75) (size 1.1 0.3) (layers "B.Cu" "B.Paste" "B.Mask") (roundrect_rratio 0.25)
      (net 6 "/5V") (pinfunction "5V") (pintype "power_in") (tstamp c67d1299-c1a7-44b9-b922-49bec704df60))
    (pad "P$8" smd roundrect (at 0 -2.75) (size 1.1 0.3) (layers "B.Cu" "B.Paste" "B.Mask") (roundrect_rratio 0.25)
      (net 7 "/GND") (pinfunction "GND") (pintype "power_in") (tstamp 2269ee67-210e-4949-8a22-9395ddbfb205))
    (pad "P$9" smd roundrect (at -0.5 -2.75) (size 1.1 0.3) (layers "B.Cu" "B.Paste" "B.Mask") (roundrect_rratio 0.25)
      (net 7 "/GND") (pinfunction "GND") (pintype "power_in") (tstamp 5738e810-1d2d-43e0-9571-f66ba8a0ff4e))
    (pad "P$10" smd roundrect (at -1 -2.75) (size 1.1 0.3) (layers "B.Cu" "B.Paste" "B.Mask") (roundrect_rratio 0.25)
      (net 7 "/GND") (pinfunction "GND") (pintype "power_in") (tstamp 506d91ef-4572-499c-85f0-590f560fc1f7))
    (pad "P$11" smd roundrect (at -1.5 -2.75) (size 1.1 0.3) (layers "B.Cu" "B.Paste" "B.Mask") (roundrect_rratio 0.25)
      (net 7 "/GND") (pinfunction "GND") (pintype "power_in") (tstamp d45b253d-c7c9-45c0-8c17-c858927175ae))
    (pad "P$12" smd roundrect (at -2 -2.75) (size 1.1 0.3) (layers "B.Cu" "B.Paste" "B.Mask") (roundrect_rratio 0.25)
      (net 8 "/VBUS") (pinfunction "VBUS") (pintype "power_in") (tstamp 9610db6e-a3ae-4ba0-8b67-b64b33dd3d29))
    (pad "P$13" smd roundrect (at -2.5 -2.75) (size 1.1 0.3) (layers "B.Cu" "B.Paste" "B.Mask") (roundrect_rratio 0.25)
      (net 8 "/VBUS") (pinfunction "VBUS") (pintype "power_in") (tstamp 89b31d34-a11f-485b-a707-d8e8ee644ed4))
    (pad "P$14" smd roundrect (at -3 -2.75) (size 1.1 0.3) (layers "B.Cu" "B.Paste" "B.Mask") (roundrect_rratio 0.25)
      (net 8 "/VBUS") (pinfunction "VBUS") (pintype "power_in") (tstamp 87763572-b2ce-4fb6-8304-fa5ce1763e93))
    (pad "P$15" smd roundrect (at -3.5 -2.75) (size 1.1 0.3) (layers "B.Cu" "B.Paste" "B.Mask") (roundrect_rratio 0.25)
      (net 8 "/VBUS") (pinfunction "VBUS") (pintype "power_in") (tstamp e008e9c4-8964-409e-92e5-de711498dc76))
    (pad "P$16" smd roundrect (at -3.5 2.75) (size 1.1 0.3) (layers "B.Cu" "B.Paste" "B.Mask") (roundrect_rratio 0.25)
      (net 8 "/VBUS") (pinfunction "VBUS") (pintype "power_in") (tstamp cd069194-8251-416b-988f-d7f31d396afc))
    (pad "P$17" smd roundrect (at -3 2.75) (size 1.1 0.3) (layers "B.Cu" "B.Paste" "B.Mask") (roundrect_rratio 0.25)
      (net 8 "/VBUS") (pinfunction "VBUS") (pintype "power_in") (tstamp 57fa00b6-0b40-444a-a474-a2a5242d02a3))
    (pad "P$18" smd roundrect (at -2.5 2.75) (size 1.1 0.3) (layers "B.Cu" "B.Paste" "B.Mask") (roundrect_rratio 0.25)
      (net 8 "/VBUS") (pinfunction "VBUS") (pintype "power_in") (tstamp e0abc02d-ba55-480d-b37d-ecbc949f5d06))
    (pad "P$19" smd roundrect (at -2 2.75) (size 1.1 0.3) (layers "B.Cu" "B.Paste" "B.Mask") (roundrect_rratio 0.25)
      (net 8 "/VBUS") (pinfunction "VBUS") (pintype "power_in") (tstamp 6338d5d6-e673-4898-9d19-8cb50719a714))
    (pad "P$20" smd roundrect (at -1.5 2.75) (size 1.1 0.3) (layers "B.Cu" "B.Paste" "B.Mask") (roundrect_rratio 0.25)
      (net 7 "/GND") (pinfunction "GND") (pintype "power_in") (tstamp 1939d76d-d9df-40f0-9437-1fde10add52a))
    (pad "P$21" smd roundrect (at -1 2.75) (size 1.1 0.3) (layers "B.Cu" "B.Paste" "B.Mask") (roundrect_rratio 0.25)
      (net 7 "/GND") (pinfunction "GND") (pintype "power_in") (tstamp 5fbe2bcd-e28d-4c52-875a-0f7706cd8521))
    (pad "P$22" smd roundrect (at -0.5 2.75) (size 1.1 0.3) (layers "B.Cu" "B.Paste" "B.Mask") (roundrect_rratio 0.25)
      (net 7 "/GND") (pinfunction "GND") (pintype "power_in") (tstamp e027c7c5-6008-44e8-b186-b064f0a46947))
    (pad "P$23" smd roundrect (at 0 2.75) (size 1.1 0.3) (layers "B.Cu" "B.Paste" "B.Mask") (roundrect_rratio 0.25)
      (net 7 "/GND") (pinfunction "GND") (pintype "power_in") (tstamp 5333e581-9686-4650-83c5-fdd06873f2a5))
    (pad "P$24" smd roundrect (at 0.5 2.75) (size 1.1 0.3) (layers "B.Cu" "B.Paste" "B.Mask") (roundrect_rratio 0.25)
      (net 6 "/5V") (pinfunction "5V") (pintype "power_in") (tstamp 52635789-a1f0-4bf1-8f02-56d38c5c3f19))
    (pad "P$25" smd roundrect (at 1 2.75) (size 1.1 0.3) (layers "B.Cu" "B.Paste" "B.Mask") (roundrect_rratio 0.25)
      (net 6 "/5V") (pinfunction "5V") (pintype "power_in") (tstamp 661075fc-be24-480b-99bc-adce6d6aaf88))
    (pad "P$26" smd roundrect (at 1.5 2.75) (size 1.1 0.3) (layers "B.Cu" "B.Paste" "B.Mask") (roundrect_rratio 0.25)
      (net 5 "/UART_TX") (pinfunction "UART_TX") (pintype "bidirectional") (tstamp 8cc45937-d2f6-4992-b8de-5df9ecbf07fe))
    (pad "P$27" smd roundrect (at 2 2.75) (size 1.1 0.3) (layers "B.Cu" "B.Paste" "B.Mask") (roundrect_rratio 0.25)
      (net 4 "/UART_RX") (pinfunction "UART_RX") (pintype "bidirectional") (tstamp 9893a154-9a42-4fd2-bc9f-539d3121fd1b))
    (pad "P$28" smd roundrect (at 2.5 2.75) (size 1.1 0.3) (layers "B.Cu" "B.Paste" "B.Mask") (roundrect_rratio 0.25)
      (net 3 "/BOOT") (pinfunction "BOOT") (pintype "bidirectional") (tstamp 056ab4c2-299d-4a49-b425-d1482e811f07))
    (pad "P$29" smd roundrect (at 3 2.75) (size 1.1 0.3) (layers "B.Cu" "B.Paste" "B.Mask") (roundrect_rratio 0.25)
      (net 2 "/CAN_H") (pinfunction "CAN_H") (pintype "bidirectional") (tstamp f74c67da-dbf5-41fa-91df-ae57dc0028ec))
    (pad "P$30" smd roundrect (at 3.5 2.75) (size 1.1 0.3) (layers "B.Cu" "B.Paste" "B.Mask") (roundrect_rratio 0.25)
      (net 1 "/CAN_L") (pinfunction "CAN_L") (pintype "bidirectional") (tstamp ad1bbe1c-a5f1-4e24-a23d-00b26b606642))
    (model "${ORESAT_LIBRARIES}/oresat-3dmodels/J-Molex-547220304.stp"
      (offset (xyz 0 0 0.5))
      (scale (xyz 1 1 1))
      (rotate (xyz -90 0 0))
    )
  )

  (gr_poly
    (pts
      (xy 146.466616 98.584562)
      (xy 145.676101 98.524495)
      (xy 144.058717 97.19877)
      (xy 144.048111 99.606286)
      (xy 144.838243 99.908551)
      (xy 146.458662 99.945639)
    )

    (stroke (width 0.2) (type solid)) (fill solid) (layer "B.Cu") (tstamp 02826be5-09ae-45f8-98fa-aa656690cfed))
  (gr_rect (start 148.109955 100.497173) (end 151.885618 100.979737)
    (stroke (width 0.2) (type solid)) (fill solid) (layer "B.Cu") (tstamp 14fda976-a468-4728-b831-88381ee976ba))
  (gr_poly
    (pts
      (xy 130.412142 92.484854)
      (xy 128.299843 92.499651)
      (xy 128.299843 93.499651)
      (xy 129.5 93.5)
      (xy 130 94)
      (xy 130.412142 93.984854)
    )

    (stroke (width 0.2) (type solid)) (fill solid) (layer "B.Cu") (tstamp 177e5b33-73d0-4005-b495-4d6a5398b593))
  (gr_rect (start 148.152378 98.529798) (end 151.928041 99.993398)
    (stroke (width 0.2) (type solid)) (fill solid) (layer "B.Cu") (tstamp 499c4952-063c-4bd3-b8fb-b7f94b5a6e04))
  (gr_poly
    (pts
      (xy 130.997905 89.300628)
      (xy 128.504714 89.301851)
      (xy 128.298883 89.507682)
      (xy 128.298883 91.518855)
      (xy 129.515014 91.514141)
      (xy 130 92)
      (xy 130.411378 92.01137)
      (xy 130.411378 90.51137)
      (xy 131.20007 90.497905)
      (xy 131.20007 89.494413)
    )

    (stroke (width 0.2) (type solid)) (fill solid) (layer "B.Cu") (tstamp 763c60a5-0bb4-4179-9e5c-a2ebcd8e7b5f))
  (gr_poly
    (pts
      (xy 146.459533 100.531048)
      (xy 144.321211 100.52899)
      (xy 144.162124 100.226726)
      (xy 143.430324 100.433539)
      (xy 143.931448 100.89489)
      (xy 146.460858 100.917275)
    )

    (stroke (width 0.2) (type solid)) (fill solid) (layer "B.Cu") (tstamp 7bb40896-20a1-4562-ba6b-c257f328e465))
  (gr_rect (start 135 92.5) (end 136 94)
    (stroke (width 0.2) (type solid)) (fill solid) (layer "B.Cu") (tstamp 83628406-d74f-4f53-be3d-f1d933103267))
  (gr_poly
    (pts
      (xy 128.300367 94.513792)
      (xy 128.300367 95.513792)
      (xy 129.5 95.5)
      (xy 130 95)
      (xy 130.416812 95.002181)
      (xy 130.416812 94.502181)
    )

    (stroke (width 0.2) (type solid)) (fill solid) (layer "B.Cu") (tstamp b21d52e1-a8e1-4c17-ad59-fbbbf67fe25c))
  (gr_rect (start 148.168287 96.535908) (end 151.94395 97.999508)
    (stroke (width 0.2) (type solid)) (fill solid) (layer "B.Cu") (tstamp b7e46272-293d-4182-a070-06861c5bb741))
  (gr_poly
    (pts
      (xy 146.517932 96.552618)
      (xy 147.210809 96.552764)
      (xy 147.198033 95.841229)
      (xy 147.007129 95.406391)
      (xy 144.239016 95.406391)
      (xy 144.053415 95.591993)
      (xy 144.053415 96.419245)
      (xy 144.535978 96.413942)
      (xy 145.988973 97.9836)
      (xy 146.515762 97.988757)
    )

    (stroke (width 0.2) (type solid)) (fill solid) (layer "B.Cu") (tstamp bdd0bcae-bc8b-444e-b0ac-301275b05712))
  (gr_rect (start 135 94.5) (end 136 95)
    (stroke (width 0.2) (type solid)) (fill solid) (layer "B.Cu") (tstamp bfeebb3c-9ebb-4ebb-aee2-b77e07307272))
  (gr_rect (start 135 90.5) (end 136 92)
    (stroke (width 0.2) (type solid)) (fill solid) (layer "B.Cu") (tstamp c3c54e84-3db7-4770-9914-0b6ac2b94d95))
  (gr_rect (start 130.75 95.4) (end 140.25 95.6)
    (stroke (width 0.2) (type solid)) (fill solid) (layer "B.Mask") (tstamp 057f8283-1d50-4bd8-a6a4-ba435fdfd2f8))
  (gr_rect (start 130.75 91.9) (end 140.25 92.1)
    (stroke (width 0.2) (type solid)) (fill solid) (layer "B.Mask") (tstamp 337073f9-ce6c-4a85-a92d-fbdd14f69e7d))
  (gr_rect (start 130.75 95.9) (end 140.25 96.1)
    (stroke (width 0.2) (type solid)) (fill solid) (layer "B.Mask") (tstamp 381407d3-345f-4495-b37c-02c44bbd6991))
  (gr_rect (start 130.75 96.4) (end 140.25 96.6)
    (stroke (width 0.2) (type solid)) (fill solid) (layer "B.Mask") (tstamp 49880dcb-f288-4aaa-b4c3-8707951c6390))
  (gr_rect (start 130.75 90.9) (end 140.25 91.1)
    (stroke (width 0.2) (type solid)) (fill solid) (layer "B.Mask") (tstamp 585eb9c6-0340-4318-bef3-ec9bd8eac532))
  (gr_rect (start 130.75 94.4) (end 140.25 94.6)
    (stroke (width 0.2) (type solid)) (fill solid) (layer "B.Mask") (tstamp 758d9f10-5932-467a-9c6a-f27e219e28cc))
  (gr_rect (start 130.75 93.9) (end 140.25 94.1)
    (stroke (width 0.2) (type solid)) (fill solid) (layer "B.Mask") (tstamp 7a4e48a9-4751-4f74-98c8-095de06a60f5))
  (gr_rect (start 130.75 92.4) (end 140.25 92.6)
    (stroke (width 0.2) (type solid)) (fill solid) (layer "B.Mask") (tstamp 92780994-3182-40fb-b305-c11f0c085bfa))
  (gr_rect (start 130.75 90.4) (end 140.25 90.6)
    (stroke (width 0.2) (type solid)) (fill solid) (layer "B.Mask") (tstamp ac7c8b6d-8f99-42ed-909f-6ae0bd443031))
  (gr_rect (start 130.75 92.9) (end 140.25 93.1)
    (stroke (width 0.2) (type solid)) (fill solid) (layer "B.Mask") (tstamp ad49a677-c0c7-45fc-8627-8fad2867ad4c))
  (gr_rect (start 130.75 91.4) (end 140.25 91.6)
    (stroke (width 0.2) (type solid)) (fill solid) (layer "B.Mask") (tstamp b5294ca0-ec6e-4bbc-a47f-f0e551f5c22b))
  (gr_rect (start 130.75 94.9) (end 140.25 95.1)
    (stroke (width 0.2) (type solid)) (fill solid) (layer "B.Mask") (tstamp d0266c4e-526b-4fa3-9319-9ee02af13f62))
  (gr_rect (start 130.75 96.9) (end 140.25 97.1)
    (stroke (width 0.2) (type solid)) (fill solid) (layer "B.Mask") (tstamp f426095a-e93b-444e-b7fc-779d0171095d))
  (gr_rect (start 130.75 97.4) (end 140.25 97.6)
    (stroke (width 0.2) (type solid)) (fill solid) (layer "B.Mask") (tstamp f980542a-30f4-489a-bb2f-4e07c486ab12))
  (gr_rect (start 130.75 93.4) (end 140.25 93.6)
    (stroke (width 0.2) (type solid)) (fill solid) (layer "B.Mask") (tstamp feb4595f-36de-4d4f-9e6b-2b2d8ec12071))
  (gr_line (start 153.03051 94.98959) (end 154.03051 93.98959)
    (stroke (width 0.15) (type solid)) (layer "Dwgs.User") (tstamp 16394bf1-727a-4c44-aaaa-a133a62451ad))
  (gr_line (start 154.03051 93.98959) (end 155.03051 92.98959)
    (stroke (width 0.15) (type solid)) (layer "Dwgs.User") (tstamp 8301e1da-40d7-4da6-a41a-856863839bf1))
  (gr_line (start 153.03051 92.98959) (end 155.03051 94.98959)
    (stroke (width 0.15) (type solid)) (layer "Dwgs.User") (tstamp e79f6187-1277-4bcd-b4f3-db1d4cd04d19))
  (gr_arc (start 126.75 89) (mid 127.042893 88.292893) (end 127.75 88)
    (stroke (width 0.1) (type default)) (layer "Edge.Cuts") (tstamp 0291a554-2ee1-4e02-9d62-a044b9a9a84c))
  (gr_arc (start 127.026306 95.789748) (mid 126.821634 95.471318) (end 126.75 95.099627)
    (stroke (width 0.1) (type default)) (layer "Edge.Cuts") (tstamp 17c140fd-2a97-49b2-a174-19f636749f5c))
  (gr_line (start 142.4 89) (end 142.4 93.8)
    (stroke (width 0.1) (type solid)) (layer "Edge.Cuts") (tstamp 47d20589-f07f-42bc-8aa4-28d49d22340b))
  (gr_line (start 154.5 95.8) (end 154.5 104.2)
    (stroke (width 0.1) (type solid)) (layer "Edge.Cuts") (tstamp 4cbd31de-e6a9-4a55-95af-bf761bfc8cca))
  (gr_arc (start 136.428191 105.2) (mid 136.034567 105.119272) (end 135.704497 104.890121)
    (stroke (width 0.1) (type default)) (layer "Edge.Cuts") (tstamp 65016966-6568-40e5-a193-e9c059f2a320))
  (gr_line (start 126.75 89) (end 126.75 95.099627)
    (stroke (width 0.1) (type default)) (layer "Edge.Cuts") (tstamp 662a71be-7567-4b61-b50b-07f8628d4b80))
  (gr_line (start 141.4 88) (end 127.75 88)
    (stroke (width 0.1) (type default)) (layer "Edge.Cuts") (tstamp 6b0361e4-7176-4986-92c5-3d185db8caaa))
  (gr_arc (start 154.5 104.2) (mid 154.207107 104.907107) (end 153.5 105.2)
    (stroke (width 0.1) (type solid)) (layer "Edge.Cuts") (tstamp 6b32683d-f468-4e74-9047-9712078c5584))
  (gr_line (start 153.5 94.8) (end 143.4 94.8)
    (stroke (width 0.1) (type solid)) (layer "Edge.Cuts") (tstamp 963c8d5a-9c90-47f1-a2db-d2c265f6853c))
  (gr_arc (start 141.4 88) (mid 142.107107 88.292893) (end 142.4 89)
    (stroke (width 0.1) (type default)) (layer "Edge.Cuts") (tstamp 9c437afc-7735-45db-ab9e-f330ea85c374))
  (gr_arc (start 153.5 94.8) (mid 154.207107 95.092893) (end 154.5 95.8)
    (stroke (width 0.1) (type solid)) (layer "Edge.Cuts") (tstamp c28a37eb-b5cc-4b1d-9a48-05e5169ab052))
  (gr_arc (start 143.4 94.8) (mid 142.692893 94.507107) (end 142.4 93.8)
    (stroke (width 0.1) (type solid)) (layer "Edge.Cuts") (tstamp c8ab8009-4783-48fc-8f6a-ccce4d1623e5))
  (gr_line (start 136.428191 105.2) (end 153.5 105.2)
    (stroke (width 0.1) (type solid)) (layer "Edge.Cuts") (tstamp cc9d7cf6-5536-4e42-91fa-d145a826562a))
  (gr_line (start 135.704497 104.890121) (end 127.026306 95.789748)
    (stroke (width 0.1) (type default)) (layer "Edge.Cuts") (tstamp e1d66f10-caf9-4c30-8306-56d909a164f1))
  (gr_text "OreSat ADCS Card \nMezzanine Flex Board v1.1\n2024-02-24" (at 136 103) (layer "F.SilkS") (tstamp f9a163d7-1dca-4e4e-8bdd-90a1ad046304)
    (effects (font (size 0.8 0.8) (thickness 0.12)) (justify left))
  )
  (gr_text "ADCS Card Center\n(exact)" (at 157.43051 90.20959) (layer "Dwgs.User") (tstamp 2949d120-37eb-42db-92c6-e9b8ef70d983)
    (effects (font (size 1 1) (thickness 0.15)))
  )

  (segment (start 147.25 103.5) (end 141.7 103.5) (width 0.3) (layer "B.Cu") (net 1) (tstamp 0a3f0c76-4a89-43bd-8d9a-d64c4a9f8abc))
  (segment (start 140.7 102.5) (end 140.7 98.5) (width 0.3) (layer "B.Cu") (net 1) (tstamp 2958e09b-0fe9-4024-a457-d8525b00db3f))
  (segment (start 140.2 97.5) (end 138.25 97.5) (width 0.3) (layer "B.Cu") (net 1) (tstamp 460b621a-9b65-4b3d-a348-e0ba64d3f006))
  (segment (start 132.542893 97.5) (end 130.8 97.5) (width 0.3) (layer "B.Cu") (net 1) (tstamp 612e6e0b-bff5-48ab-96f3-0ef3dfecfb69))
  (segment (start 132.75 97.5) (end 132.542893 97.5) (width 0.3) (layer "B.Cu") (net 1) (tstamp 6325bc3f-4433-4fda-8bba-e55fbf56dd31))
  (segment (start 132.75 97.5) (end 138.25 97.5) (width 0.3) (layer "B.Cu") (net 1) (tstamp 781c1e23-5ce1-43e5-b1d6-54e447e7010e))
  (segment (start 147.25 103.5) (end 152.75 103.5) (width 0.3) (layer "B.Cu") (net 1) (tstamp a91dc655-4c91-4d3b-8724-df592386e6c4))
  (arc (start 141.7 103.5) (mid 140.992893 103.207107) (end 140.7 102.5) (width 0.3) (layer "B.Cu") (net 1) (tstamp 62fe08ff-a653-4e01-b1bf-8fedbd9d08c4))
  (arc (start 139.7 97.5) (mid 140.407107 97.792893) (end 140.7 98.5) (width 0.3) (layer "B.Cu") (net 1) (tstamp dd46ba68-7433-4e29-b45a-83297debb284))
  (segment (start 147.25 103) (end 152.75 103) (width 0.3) (layer "B.Cu") (net 2) (tstamp 345ff566-22f5-42f7-b6a7-bd6001dcd3d6))
  (segment (start 138.25 97) (end 140.2 97) (width 0.3) (layer "B.Cu") (net 2) (tstamp 3ba5f9ed-4341-4a6f-aab5-2fb052ac1f5f))
  (segment (start 132.75 97) (end 130.8 97) (width 0.3) (layer "B.Cu") (net 2) (tstamp 5168c728-121b-41b2-98c1-21f9430f4031))
  (segment (start 141.2 102) (end 141.2 98) (width 0.3) (layer "B.Cu") (net 2) (tstamp 7f804a09-3bdd-4f0a-875a-4750158a1b65))
  (segment (start 142.2 103) (end 147.25 103) (width 0.3) (layer "B.Cu") (net 2) (tstamp c1056b17-8488-412c-96d3-50ffbc7cae9b))
  (segment (start 132.75 97) (end 138.25 97) (width 0.3) (layer "B.Cu") (net 2) (tstamp ee2183f5-bc5e-44dd-b199-dad25a7313ed))
  (arc (start 141.2 102) (mid 141.492893 102.707107) (end 142.2 103) (width 0.3) (layer "B.Cu") (net 2) (tstamp 14f39c78-bd53-4b44-9041-26f4ca40a1c9))
  (arc (start 141.2 98) (mid 140.907107 97.292893) (end 140.2 97) (width 0.3) (layer "B.Cu") (net 2) (tstamp caa9c6e2-7806-4801-b0b1-659a7632cebc))
  (segment (start 132.75 96.5) (end 138.25 96.5) (width 0.3) (layer "B.Cu") (net 3) (tstamp 1004817d-cf89-43ee-a786-e59cad52351f))
  (segment (start 132.75 96.5) (end 130.8 96.5) (width 0.3) (layer "B.Cu") (net 3) (tstamp 1d6ba7c0-2f3a-44ef-8b50-4386f47ce62e))
  (segment (start 147.25 102.5) (end 152.75 102.5) (width 0.3) (layer "B.Cu") (net 3) (tstamp 5f3f46dc-b735-4891-ab7e-ce82a088d75a))
  (segment (start 139.68 96.5) (end 139.7 96.5) (width 0.3) (layer "B.Cu") (net 3) (tstamp 6b4da04a-4502-4050-89cf-f0cfd8e4d24b))
  (segment (start 142.7 102.5) (end 147.25 102.5) (width 0.3) (layer "B.Cu") (net 3) (tstamp a208748a-a0ea-4a61-9cf2-3d5695d5d96a))
  (segment (start 141.7 101.5) (end 141.7 97.5) (width 0.3) (layer "B.Cu") (net 3) (tstamp a9d5287a-556d-482b-9b7d-324d3c3b13ef))
  (segment (start 138.25 96.5) (end 140.7 96.5) (width 0.3) (layer "B.Cu") (net 3) (tstamp b6d4c4f8-1736-43b3-abb7-279a8ccd5d6b))
  (arc (start 142.7 102.5) (mid 141.992893 102.207107) (end 141.7 101.5) (width 0.3) (layer "B.Cu") (net 3) (tstamp bd4ad7f6-8c56-442a-9a4c-1255e3940a5f))
  (arc (start 141.7 97.5) (mid 141.407107 96.792893) (end 140.7 96.5) (width 0.3) (layer "B.Cu") (net 3) (tstamp cac8e8a3-9a0a-4d20-baa9-cb771da79063))
  (segment (start 147.25 102) (end 143.2 102) (width 0.3) (layer "B.Cu") (net 4) (tstamp 1a9f7fff-bc26-4af2-b961-ca2696b01ba2))
  (segment (start 147.25 102) (end 152.75 102) (width 0.3) (layer "B.Cu") (net 4) (tstamp 2ec93b1d-2ca5-499f-aefc-3391819e0aa0))
  (segment (start 138.25 96) (end 141.2 96) (width 0.3) (layer "B.Cu") (net 4) (tstamp 3e8bff51-6984-4d29-b16d-ac26bac3766c))
  (segment (start 132.75 96) (end 138.25 96) (width 0.3) (layer "B.Cu") (net 4) (tstamp 521d1d5e-f291-4842-9814-f6f71d191366))
  (segment (start 142.2 101) (end 142.2 97) (width 0.3) (layer "B.Cu") (net 4) (tstamp 8310eb3e-de4a-47eb-8a67-16125a416b79))
  (segment (start 132.75 96) (end 130.8 96) (width 0.3) (layer "B.Cu") (net 4) (tstamp 9252cac8-86a0-4cf7-9035-4df15893842b))
  (arc (start 141.2 96) (mid 141.907107 96.292893) (end 142.2 97) (width 0.3) (layer "B.Cu") (net 4) (tstamp 4d155ea4-1bc0-4dc2-9781-964e19f92329))
  (arc (start 143.2 102) (mid 142.492893 101.707107) (end 142.2 101) (width 0.3) (layer "B.Cu") (net 4) (tstamp 85c8ed63-6b64-49ee-8e0d-df60a1023aca))
  (segment (start 138.25 95.5) (end 141.7 95.5) (width 0.3) (layer "B.Cu") (net 5) (tstamp 1d1ea902-479d-437b-bb4e-61033a5be856))
  (segment (start 132.75 95.5) (end 130.8 95.5) (width 0.3) (layer "B.Cu") (net 5) (tstamp 268290d6-2b7b-4fc1-b429-65df8b25e8ff))
  (segment (start 147.25 101.5) (end 143.7 101.5) (width 0.3) (layer "B.Cu") (net 5) (tstamp 42ebc239-f342-4058-ac79-0945d2665f0e))
  (segment (start 147.25 101.5) (end 152.75 101.5) (width 0.3) (layer "B.Cu") (net 5) (tstamp 5b012316-0e44-44a3-a426-18a32f9e28b4))
  (segment (start 132.75 95.5) (end 138.25 95.5) (width 0.3) (layer "B.Cu") (net 5) (tstamp 6267f72f-2573-43e8-94d7-2c3c75209fd5))
  (segment (start 142.7 100.5) (end 142.7 96.5) (width 0.3) (layer "B.Cu") (net 5) (tstamp b0c2ce5c-667b-472b-b41c-90d6e4e42c9e))
  (arc (start 141.7 95.5) (mid 142.407107 95.792893) (end 142.7 96.5) (width 0.3) (layer "B.Cu") (net 5) (tstamp 467c2f81-4003-4210-bd67-565325f75538))
  (arc (start 143.7 101.5) (mid 142.992893 101.207107) (end 142.7 100.5) (width 0.3) (layer "B.Cu") (net 5) (tstamp f1e0cc82-305c-4e8d-b202-054d99a5fa01))
  (via (at 146.25 100.75) (size 0.6) (drill 0.3) (layers "F.Cu" "B.Cu") (free) (net 6) (tstamp 3f02211d-1cce-4ef3-b614-2c2f73e8537c))
  (via (at 135.5 94.75) (size 0.6) (drill 0.3) (layers "F.Cu" "B.Cu") (free) (net 6) (tstamp 42b73923-9d93-44f2-b4d0-6a122938a2d8))
  (via (at 129.5 95.5) (size 0.6) (drill 0.3) (layers "F.Cu" "B.Cu") (free) (net 6) (tstamp 464434f5-d70d-4e5b-8262-f79aa2cc171b))
  (via (at 129.5 94.5) (size 0.6) (drill 0.3) (layers "F.Cu" "B.Cu") (free) (net 6) (tstamp 4aa36596-88ce-4525-91f7-90f436f66de8))
  (via (at 149 100.75) (size 0.6) (drill 0.3) (layers "F.Cu" "B.Cu") (free) (net 6) (tstamp 5f325a10-200f-4803-907e-abfa98ccfe4b))
  (via (at 129 95) (size 0.6) (drill 0.3) (layers "F.Cu" "B.Cu") (free) (net 6) (tstamp 64543260-b12a-42b5-ac8d-edab7e27c4a4))
  (via (at 151 100.75) (size 0.6) (drill 0.3) (layers "F.Cu" "B.Cu") (free) (net 6) (tstamp 6c2a1c9a-b938-485f-9b9c-096708d43508))
  (via (at 144.25 100.4) (size 0.6) (drill 0.3) (layers "F.Cu" "B.Cu") (free) (net 6) (tstamp 6cce2256-96d6-4e44-9448-237f6c850966))
  (via (at 150 100.75) (size 0.6) (drill 0.3) (layers "F.Cu" "B.Cu") (free) (net 6) (tstamp 742bb492-7c6f-4a7f-9431-0a313126a4ad))
  (via (at 128.5 94.5) (size 0.6) (drill 0.3) (layers "F.Cu" "B.Cu") (free) (net 6) (tstamp 998c377e-fc07-42d8-b3cd-ddefc24fe464))
  (via (at 143.509867 100.61366) (size 0.6) (drill 0.3) (layers "F.Cu" "B.Cu") (free) (net 6) (tstamp d8ee503b-0e1e-4f97-b49d-861458122257))
  (via (at 128.5 95.5) (size 0.6) (drill 0.3) (layers "F.Cu" "B.Cu") (free) (net 6) (tstamp f6ad5d07-0513-42a5-89bd-87679eb443f2))
  (via (at 145.25 100.75) (size 0.6) (drill 0.3) (layers "F.Cu" "B.Cu") (free) (net 6) (tstamp f6f609e0-7eee-496b-936a-bf8752c3765b))
  (segment (start 130 94.5) (end 129.5 94.5) (width 0.3) (layer "B.Cu") (net 6) (tstamp 0b833ced-8bb7-4fb0-b397-1519af46a2a9))
  (segment (start 144.35 100.5) (end 144.25 100.4) (width 0.3) (layer "B.Cu") (net 6) (tstamp 0f354e2b-316c-4861-b7ce-26826725b4da))
  (segment (start 129.875 95.125) (end 129.5 95.5) (width 0.3) (layer "B.Cu") (net 6) (tstamp 3026343d-e5f2-4991-89b3-4152e2058315))
  (segment (start 132.75 94.5) (end 138.25 94.5) (width 0.3) (layer "B.Cu") (net 6) (tstamp 3cd217b3-4e84-420b-a58c-bb2a4224b539))
  (segment (start 130.25 94.5) (end 129.5 94.5) (width 0.3) (layer "B.Cu") (net 6) (tstamp 6e1c30f3-5ee5-42f2-90f5-6a68078d31d0))
  (segment (start 147.25 101) (end 143.896207 101) (width 0.3) (layer "B.Cu") (net 6) (tstamp 80407530-dc17-4ad1-84f9-2b126f53477b))
  (segment (start 147.25 100.5) (end 144.35 100.5) (width 0.3) (layer "B.Cu") (net 6) (tstamp 83cb8159-124b-4536-afe8-4adabeba2881))
  (segment (start 132.75 94.5) (end 130.25 94.5) (width 0.3) (layer "B.Cu") (net 6) (tstamp 84be9a42-0caa-4ddb-8411-5a8ceef16a34))
  (segment (start 130 94.5) (end 128.5 94.5) (width 0.3) (layer "B.Cu") (net 6) (tstamp 8f560c68-6639-451a-8522-aa7e9f648407))
  (segment (start 130 95) (end 129.875 95.125) (width 0.3) (layer "B.Cu") (net 6) (tstamp ceb95a41-4cc8-41fd-9b9b-05cdd86e557b))
  (segment (start 140.2 95) (end 138.25 95) (width 0.3) (layer "B.Cu") (net 6) (tstamp cfc28b36-c019-49c4-84c1-2397ae443fa9))
  (segment (start 147.25 100.5) (end 152.75 100.5) (width 0.3) (layer "B.Cu") (net 6) (tstamp d11e71ec-2773-4ee1-840a-6b9fe8231f02))
  (segment (start 143.896207 101) (end 143.509867 100.61366) (width 0.3) (layer "B.Cu") (net 6) (tstamp d186c261-7be9-4b86-b282-cc57d8c9cba0))
  (segment (start 147.25 101) (end 152.75 101) (width 0.3) (layer "B.Cu") (net 6) (tstamp d51d4351-a04d-42e7-926e-31ea9e992634))
  (segment (start 140.2 94.5) (end 138.25 94.5) (width 0.3) (layer "B.Cu") (net 6) (tstamp d5bc54f0-c8c6-48d5-a072-895f71d7cafe))
  (segment (start 130 95) (end 132.75 95) (width 0.3) (layer "B.Cu") (net 6) (tstamp dcca2486-dabb-4ac7-b983-1b743a6b67a7))
  (segment (start 132.75 95) (end 138.25 95) (width 0.3) (layer "B.Cu") (net 6) (tstamp e23a7828-f41f-4a49-bca4-511f8321bfd4))
  (segment (start 129.5 95.5) (end 128.5 95.5) (width 0.3) (layer "B.Cu") (net 6) (tstamp e48672c6-dbef-4f63-99fa-06bfc3bc2ba1))
  (segment (start 130.25 94.5) (end 130 94.5) (width 0.3) (layer "B.Cu") (net 6) (tstamp e72f8ac9-783c-4f92-8349-c1c9902861f4))
  (segment (start 129.5 94.5) (end 128.5 95.5) (width 0.3) (layer "B.Cu") (net 6) (tstamp fc837d25-399b-4b27-9f23-6a03b922e1c1))
  (segment (start 144.221463 97.228537) (end 144.25 97.2) (width 0.3) (layer "F.Cu") (net 7) (tstamp 23452504-9860-41ee-aec6-6202b1439764))
  (via (at 135.5 92.75) (size 0.6) (drill 0.3) (layers "F.Cu" "B.Cu") (free) (net 7) (tstamp 25fb4a6b-941a-4412-ad02-0d375ed4cabb))
  (via (at 149 99.75) (size 0.6) (drill 0.3) (layers "F.Cu" "B.Cu") (free) (net 7) (tstamp 2aef7d63-475d-4751-a0e9-30275181538d))
  (via (at 129.5 92.5) (size 0.6) (drill 0.3) (layers "F.Cu" "B.Cu") (free) (net 7) (tstamp 2e37ef90-a49f-416d-8c58-5b319d5ac148))
  (via (at 129 93) (size 0.6) (drill 0.3) (layers "F.Cu" "B.Cu") (free) (net 7) (tstamp 36f046e9-12d7-485c-8252-9477c76a9031))
  (via (at 149 98.75) (size 0.6) (drill 0.3) (layers "F.Cu" "B.Cu") (free) (net 7) (tstamp 3955849d-df25-4cfd-b249-c098d0098b7c))
  (via (at 129.5 93.5) (size 0.6) (drill 0.3) (layers "F.Cu" "B.Cu") (free) (net 7) (tstamp 3d7ed9d6-b9d1-4b2e-ad4f-88f74c1f632c))
  (via (at 145.25 98.5) (size 0.6) (drill 0.3) (layers "F.Cu" "B.Cu") (free) (net 7) (tstamp 499aa203-5d7d-4235-ab2b-32526be0d166))
  (via (at 145.25 99.5) (size 0.6) (drill 0.3) (layers "F.Cu" "B.Cu") (free) (net 7) (tstamp 57963ab8-fb6d-4a0c-a9cb-5ccd36f94c82))
  (via (at 144.25 98) (size 0.6) (drill 0.3) (layers "F.Cu" "B.Cu") (free) (net 7) (tstamp 648e39d1-1ed9-4982-b1f8-af46877ea27d))
  (via (at 146.25 98.75) (size 0.6) (drill 0.3) (layers "F.Cu" "B.Cu") (free) (net 7) (tstamp 7d2f6e83-99f8-4519-ae1a-6234a163c27c))
  (via (at 151 99.75) (size 0.6) (drill 0.3) (layers "F.Cu" "B.Cu") (free) (net 7) (tstamp 83bcb92b-7fc6-4431-8c99-f456b10d40cf))
  (via (at 128.5 92.5) (size 0.6) (drill 0.3) (layers "F.Cu" "B.Cu") (free) (net 7) (tstamp 8bc80073-3206-4805-895f-4886ad815f2f))
  (via (at 135.5 93.80065) (size 0.6) (drill 0.3) (layers "F.Cu" "B.Cu") (free) (net 7) (tstamp 9e26449f-0aa4-434f-997e-0700b3fc40b7))
  (via (at 128.5 93.5) (size 0.6) (drill 0.3) (layers "F.Cu" "B.Cu") (free) (net 7) (tstamp aff4301f-970e-427d-b6ac-c57e31b5131a))
  (via (at 144.25 97.2) (size 0.6) (drill 0.3) (layers "F.Cu" "B.Cu") (free) (net 7) (tstamp b5512c60-6c6c-4cb9-b47a-46268447fd3e))
  (via (at 151 98.75) (size 0.6) (drill 0.3) (layers "F.Cu" "B.Cu") (free) (net 7) (tstamp c95cb1e7-75d5-42f0-b125-5be697832508))
  (via (at 144.25 99.6) (size 0.6) (drill 0.3) (layers "F.Cu" "B.Cu") (free) (net 7) (tstamp db0868b0-1510-4a62-a67a-804f46b05b27))
  (via (at 144.25 98.8) (size 0.6) (drill 0.3) (layers "F.Cu" "B.Cu") (free) (net 7) (tstamp e104012c-8e70-429c-82e5-bcb973d4a9bb))
  (via (at 146.25 99.75) (size 0.6) (drill 0.3) (layers "F.Cu" "B.Cu") (free) (net 7) (tstamp e371143b-2b7c-4500-a0a0-68070f561369))
  (via (at 150 99.25) (size 0.6) (drill 0.3) (layers "F.Cu" "B.Cu") (free) (net 7) (tstamp efd636a6-5d72-4787-81b2-fcec1175d543))
  (segment (start 132.75 92.5) (end 130 92.5) (width 0.3) (layer "B.Cu") (net 7) (tstamp 0247221e-951b-4671-bf73-21be5bf5effe))
  (segment (start 144.370431 97.2) (end 144.25 97.2) (width 0.3) (layer "B.Cu") (net 7) (tstamp 026c4920-d0d3-45c9-b30a-15f0e5079260))
  (segment (start 132.75 93) (end 130 93) (width 0.3) (layer "B.Cu") (net 7) (tstamp 08b3da90-ae98-4971-a0da-eceae9c9784e))
  (segment (start 147.25 99) (end 145.396644 99) (width 0.3) (layer "B.Cu") (net 7) (tstamp 169e2ed4-19ea-4733-9c72-219baca074c1))
  (segment (start 147.25 99.5) (end 145.085 99.5) (width 0.3) (layer "B.Cu") (net 7) (tstamp 1ba8c684-cd51-408f-9b78-28ccdba8a56c))
  (segment (start 129 93) (end 128.5 92.5) (width 0.3) (layer "B.Cu") (net 7) (tstamp 20b9dd24-0c43-4a66-8574-779ac337f401))
  (segment (start 138.25 93.5) (end 140.2 93.5) (width 0.3) (layer "B.Cu") (net 7) (tstamp 20efde2d-c215-452d-a485-287595387f08))
  (segment (start 132.75 93) (end 138.25 93) (width 0.3) (layer "B.Cu") (net 7) (tstamp 23b892d2-6cfa-4265-9d0f-a8b9eaf1c1bc))
  (segment (start 144.385 98.8) (end 144.25 98.8) (width 0.3) (layer "B.Cu") (net 7) (tstamp 2b9499da-b04a-475e-9a55-222487bffcdd))
  (segment (start 147.25 98.5) (end 145.670431 98.5) (width 0.3) (layer "B.Cu") (net 7) (tstamp 3660759b-4545-45ae-81e1-1942f57bf389))
  (segment (start 130.25 93.5) (end 130 93.5) (width 0.3) (layer "B.Cu") (net 7) (tstamp 422b2215-dfae-4bb3-9a42-8242a303af63))
  (segment (start 138.25 94) (end 140.2 94) (width 0.3) (layer "B.Cu") (net 7) (tstamp 485a2330-fae4-4b5a-a1c8-366567917cc5))
  (segment (start 144.38 99.6) (end 144.25 99.6) (width 0.3) (layer "B.Cu") (net 7) (tstamp 499ac96c-0b43-4f43-961f-6e8384613275))
  (segment (start 147.25 100) (end 152.75 100) (width 0.3) (layer "B.Cu") (net 7) (tstamp 5a0c56b5-6ff8-4f8c-8115-1257fd5afea5))
  (segment (start 132.75 92.5) (end 138.25 92.5) (width 0.3) (layer "B.Cu") (net 7) (tstamp 67dfeafb-a18f-4504-8350-c83fa9dc738b))
  (segment (start 132.75 94) (end 130 94) (width 0.3) (layer "B.Cu") (net 7) (tstamp 68c1e66b-7312-4d39-956f-6af84313f16c))
  (segment (start 147.25 98.5) (end 152.75 98.5) (width 0.3) (layer "B.Cu") (net 7) (tstamp 6bd6a5dd-3e2e-4059-96fb-cc52f6b50303))
  (segment (start 130 93) (end 129 93) (width 0.3) (layer "B.Cu") (net 7) (tstamp 6e6713e9-7416-49d0-a7df-75f25578e484))
  (segment (start 138.25 93) (end 140.2 93) (width 0.3) (layer "B.Cu") (net 7) (tstamp 7039ac74-7d4b-43f2-a0a2-95b9143d8340))
  (segment (start 147.25 99) (end 152.75 99) (width 0.3) (layer "B.Cu") (net 7) (tstamp 7db8a77d-23c5-4c41-93c1-6ea78235e0d8))
  (segment (start 138.25 92.5) (end 140.2 92.5) (width 0.3) (layer "B.Cu") (net 7) (tstamp 89513cb3-5a8c-40c7-b704-ade64c55e5a8))
  (segment (start 144.78 100) (end 144.38 99.6) (width 0.3) (layer "B.Cu") (net 7) (tstamp 8b0bb614-0c1a-48d2-9655-595af777efb8))
  (segment (start 132.75 94) (end 138.25 94) (width 0.3) (layer "B.Cu") (net 7) (tstamp 8ffe6327-037b-4079-8ae0-4a34d2c18015))
  (segment (start 130 93) (end 129.5 92.5) (width 0.3) (layer "B.Cu") (net 7) (tstamp 9c632e1e-6959-4089-926a-45268b76092b))
  (segment (start 129.5 93.5) (end 129 93) (width 0.3) (layer "B.Cu") (net 7) (tstamp a6e4a3a7-ea60-4713-a4a6-42ef96c035a0))
  (segment (start 130 94) (end 129.5 93.5) (width 0.3) (layer "B.Cu") (net 7) (tstamp ab07daa9-3c4c-4839-ad37-d153e165ad57))
  (segment (start 130 92.5) (end 129.5 92.5) (width 0.3) (layer "B.Cu") (net 7) (tstamp b2d99067-615c-498d-8f60-3825a32293bf))
  (segment (start 132.75 93.5) (end 138.25 93.5) (width 0.3) (layer "B.Cu") (net 7) (tstamp b5097f36-f79f-40e2-b5f5-5f5c8236447b))
  (segment (start 130 93.5) (end 129.5 93.5) (width 0.3) (layer "B.Cu") (net 7) (tstamp b5ac4338-0c8c-46fa-a25e-e417ea0bc4d2))
  (segment (start 130 92.5) (end 128.5 92.5) (width 0.3) (layer "B.Cu") (net 7) (tstamp c33e0ed1-6a14-4ac9-ae09-dbff073d6cb5))
  (segment (start 129.5 92.5) (end 128.5 93.5) (width 0.3) (layer "B.Cu") (net 7) (tstamp c9e9c55b-8670-4adc-bf12-f103ca8f3217))
  (segment (start 145.085 99.5) (end 144.385 98.8) (width 0.3) (layer "B.Cu") (net 7) (tstamp dad1271f-0869-4612-8d8a-e71def4dde6d))
  (segment (start 147.25 99.5) (end 152.75 99.5) (width 0.3) (layer "B.Cu") (net 7) (tstamp e10eba37-b3c0-49a1-b712-06faef58e42d))
  (segment (start 130.25 93.5) (end 128.5 93.5) (width 0.3) (layer "B.Cu") (net 7) (tstamp e125400c-b3e2-4575-90c5-59380865472c))
  (segment (start 132.75 93.5) (end 130.25 93.5) (width 0.3) (layer "B.Cu") (net 7) (tstamp e129eee5-acee-4f08-81d3-524f6a1d6170))
  (segment (start 145.396644 99) (end 144.396644 98) (width 0.3) (layer "B.Cu") (net 7) (tstamp eceef6de-686e-4b72-8060-bab67d98dcad))
  (segment (start 144.396644 98) (end 144.25 98) (width 0.3) (layer "B.Cu") (net 7) (tstamp f10fb248-d637-45f6-b74e-11ce62ee974e))
  (segment (start 145.670431 98.5) (end 144.370431 97.2) (width 0.3) (layer "B.Cu") (net 7) (tstamp fa168d33-d21f-4dab-be27-4f86c6baa731))
  (segment (start 147.25 100) (end 144.78 100) (width 0.3) (layer "B.Cu") (net 7) (tstamp fbdf41f6-8f83-45fe-88bd-587072ff382a))
  (segment (start 144.216655 95.566655) (end 144.25 95.6) (width 0.3) (layer "F.Cu") (net 8) (tstamp b6a084c9-f342-4b01-9d51-f747cf494fb1))
  (segment (start 147.033456 95.633456) (end 147 95.6) (width 0.3) (layer "F.Cu") (net 8) (tstamp c65df875-9ac5-48b4-a53f-c096f8f602ae))
  (via (at 135.5 91.75) (size 0.6) (drill 0.3) (layers "F.Cu" "B.Cu") (free) (net 8) (tstamp 0e6ee1b8-83fd-4550-ae63-c3b258babb27))
  (via (at 128.5 90.5) (size 0.6) (drill 0.3) (layers "F.Cu" "B.Cu") (free) (net 8) (tstamp 14b994c5-6aa3-4d54-9a69-37936495ae98))
  (via (at 150 97.25) (size 0.6) (drill 0.3) (layers "F.Cu" "B.Cu") (free) (net 8) (tstamp 222c7caa-a16c-48c0-b032-c8b202ce2a6e))
  (via (at 145.125 96.4) (size 0.6) (drill 0.3) (layers "F.Cu" "B.Cu") (free) (net 8) (tstamp 2bc6881e-89c4-4422-950b-c39b36d6259c))
  (via (at 135.5 90.75) (size 0.6) (drill 0.3) (layers "F.Cu" "B.Cu") (free) (net 8) (tstamp 2c32a83d-5bbe-4663-9fb0-b74ad4616eba))
  (via (at 129.5 89.5) (size 0.6) (drill 0.3) (layers "F.Cu" "B.Cu") (free) (net 8) (tstamp 378fe54f-2e68-499b-afad-2634017f0285))
  (via (at 129.5 91.5) (size 0.6) (drill 0.3) (layers "F.Cu" "B.Cu") (free) (net 8) (tstamp 3dd56be2-a1d3-471a-814c-027e8da95028))
  (via (at 128.5 89.5) (size 0.6) (drill 0.3) (layers "F.Cu" "B.Cu") (free) (net 8) (tstamp 525478a8-386b-4055-9af0-8e1e7a29e814))
  (via (at 144.25 96.4) (size 0.6) (drill 0.3) (layers "F.Cu" "B.Cu") (free) (net 8) (tstamp 61bce07d-dfee-45c0-bee6-4b6e112568df))
  (via (at 146 96.4) (size 0.6) (drill 0.3) (layers "F.Cu" "B.Cu") (free) (net 8) (tstamp 642a5d27-9248-4951-8f34-68c4ac1d36ed))
  (via (at 129 91) (size 0.6) (drill 0.3) (layers "F.Cu" "B.Cu") (free) (net 8) (tstamp 8b052605-a2d9-44d0-baa0-55a21ec2fa6d))
  (via (at 146 97.5) (size 0.6) (drill 0.3) (layers "F.Cu" "B.Cu") (free) (net 8) (tstamp 91151ce1-153c-48c1-98c1-c03920d3195a))
  (via (at 149 97.75) (size 0.6) (drill 0.3) (layers "F.Cu" "B.Cu") (free) (net 8) (tstamp 96465eb6-8424-45e7-8f74-b36ce4333181))
  (via (at 149 96.75) (size 0.6) (drill 0.3) (layers "F.Cu" "B.Cu") (free) (net 8) (tstamp 9e547345-02a9-4dea-a120-d52ee9d62584))
  (via (at 129 90) (size 0.6) (drill 0.3) (layers "F.Cu" "B.Cu") (free) (net 8) (tstamp a68035eb-33f1-487c-bad7-f4afcc81293d))
  (via (at 151 96.75) (size 0.6) (drill 0.3) (layers "F.Cu" "B.Cu") (free) (net 8) (tstamp ac3337ed-3349-4229-9575-07a826e0466f))
  (via (at 131 89.5) (size 0.6) (drill 0.3) (layers "F.Cu" "B.Cu") (free) (net 8) (tstamp b4251662-747e-4c13-917f-d2a8ec227737))
  (via (at 145.125 95.6) (size 0.6) (drill 0.3) (layers "F.Cu" "B.Cu") (free) (net 8) (tstamp bd6d4d68-26db-44a6-98a5-e3d1c04899c1))
  (via (at 129.5 90.5) (size 0.6) (drill 0.3) (layers "F.Cu" "B.Cu") (free) (net 8) (tstamp c17d9aa6-d19e-42ab-804e-2c2b84fd85cd))
  (via (at 146 95.6) (size 0.6) (drill 0.3) (layers "F.Cu" "B.Cu") (free) (net 8) (tstamp c9a017c2-c5ba-498f-a88c-78fab83859d7))
  (via (at 128.5 91.5) (size 0.6) (drill 0.3) (layers "F.Cu" "B.Cu") (free) (net 8) (tstamp cb069176-c8d9-4bf9-9288-9bad6ae5fa08))
  (via (at 144.25 95.6) (size 0.6) (drill 0.3) (layers "F.Cu" "B.Cu") (free) (net 8) (tstamp ccb7af19-1bdd-4031-9b13-1b999d7a3dbe))
  (via (at 151 97.75) (size 0.6) (drill 0.3) (layers "F.Cu" "B.Cu") (free) (net 8) (tstamp d0c9a7c3-437b-44c4-a844-0762d39f77d4))
  (via (at 147 95.6) (size 0.6) (drill 0.3) (layers "F.Cu" "B.Cu") (free) (net 8) (tstamp dbfeb21a-6a94-4938-9e64-1568083f2a1d))
  (segment (start 138.25 90.5) (end 140.2 90.5) (width 0.3) (layer "B.Cu") (net 8) (tstamp 023dfcfb-a1b5-41fe-a23d-9e5905f2098b))
  (segment (start 130 91) (end 129.5 91) (width 0.3) (layer "B.Cu") (net 8) (tstamp 0537308a-5501-4eb7-a8d4-f211b3858129))
  (segment (start 129.5 91) (end 129 91) (width 0.3) (layer "B.Cu") (net 8) (tstamp 05d17ed2-0f56-4cc1-b117-1ae6c4b8ec1f))
  (segment (start 147.25 96.5) (end 147.25 95.85) (width 0.3) (layer "B.Cu") (net 8) (tstamp 0abb93ad-6953-4a56-8801-2eb011df21e0))
  (segment (start 132.75 91.5) (end 138.25 91.5) (width 0.3) (layer "B.Cu") (net 8) (tstamp 0d3c6caa-8617-4432-ade8-1c5fa1d27198))
  (segment (start 130.75 90.5) (end 130.5 90.5) (width 0.3) (layer "B.Cu") (net 8) (tstamp 135bc977-223e-4d19-a79e-8a0ea39ee71e))
  (segment (start 130.75 89.75) (end 131 89.5) (width 0.3) (layer "B.Cu") (net 8) (tstamp 1eb05123-c2bd-4804-9b10-1e15b99a03b9))
  (segment (start 130 90) (end 129.5 90) (width 0.3) (layer "B.Cu") (net 8) (tstamp 1f1df09b-e1c3-4c78-b527-5b59187eee03))
  (segment (start 147.25 97.5) (end 146.2649 97.5) (width 0.3) (layer "B.Cu") (net 8) (tstamp 23012b0f-2efa-413b-8e25-f2783977acad))
  (segment (start 146.2649 97.5) (end 144.3649 95.6) (width 0.3) (layer "B.Cu") (net 8) (tstamp 29aeb99c-0b70-4f6e-8be9-44f592cafcb5))
  (segment (start 129 90) (end 128.5 90.5) (width 0.3) (layer "B.Cu") (net 8) (tstamp 30d4caa2-30d5-4c8a-9a0e-7d2d0be681c3))
  (segment (start 147.25 98) (end 152.75 98) (width 0.3) (layer "B.Cu") (net 8) (tstamp 3200dfb0-b6e6-45b9-9b77-9e20bdbd7175))
  (segment (start 147.25 95.85) (end 147 95.6) (width 0.3) (layer "B.Cu") (net 8) (tstamp 35cee25f-a3a1-4d31-865c-8acdd191a4db))
  (segment (start 130.25 91.5) (end 128.5 91.5) (width 0.3) (layer "B.Cu") (net 8) (tstamp 39ec6d63-1020-46e2-b55c-76e3f9054fbe))
  (segment (start 130.25 91.5) (end 129.5 91.5) (width 0.3) (layer "B.Cu") (net 8) (tstamp 3f3bb75a-1c77-41f8-abbe-d0319cb9a8e2))
  (segment (start 147.25 97) (end 146.546183 97) (width 0.3) (layer "B.Cu") (net 8) (tstamp 3f434fb9-9e3a-4ed4-b72b-b4078fc0c145))
  (segment (start 138.25 91) (end 140.2 91) (width 0.3) (layer "B.Cu") (net 8) (tstamp 423c4de6-2dee-4127-b354-4440e27fe696))
  (segment (start 130.5 90.5) (end 130 90.5) (width 0.3) (layer "B.Cu") (net 8) (tstamp 44beb895-7ac1-4f1c-97c0-405a45ee0629))
  (segment (start 144.369239 96.4) (end 144.25 96.4) (width 0.3) (layer "B.Cu") (net 8) (tstamp 5f0027c2-4c83-4a20-853f-c0fc71e991e3))
  (segment (start 130.5 90.5) (end 130 90) (width 0.3) (layer "B.Cu") (net 8) (tstamp 61e56a64-465f-4d48-acc1-29980ad9cc8b))
  (segment (start 147.25 97.5) (end 152.75 97.5) (width 0.3) (layer "B.Cu") (net 8) (tstamp 6808954f-7d61-4782-b873-cce1f005acd4))
  (segment (start 129 91) (end 128.5 91.5) (width 0.3) (layer "B.Cu") (net 8) (tstamp 6a1e1b30-196e-4ec2-8b34-214310dd9376))
  (segment (start 130 90.5) (end 129.5 90.5) (width 0.3) (layer "B.Cu") (net 8) (tstamp 6c6dede0-2a91-4f5f-b134-6c7e6833e3a8))
  (segment (start 132.75 90.5) (end 130.8 90.5) (width 0.3) (layer "B.Cu") (net 8) (tstamp 6e742856-d4f2-4dc2-b99d-d43b626ebd5f))
  (segment (start 130 90.5) (end 128.5 90.5) (width 0.3) (layer "B.Cu") (net 8) (tstamp 7688f108-d091-43a9-bbc1-100df8e0c9d3))
  (segment (start 147.25 96.5) (end 152.75 96.5) (width 0.3) (layer "B.Cu") (net 8) (tstamp 7e53a955-2b06-4736-8e3b-5b96938d3e55))
  (segment (start 144.3649 95.6) (end 144.25 95.6) (width 0.3) (layer "B.Cu") (net 8) (tstamp 7f231e98-9489-44a7-b5bb-27d0b8d78ba9))
  (segment (start 132.75 92) (end 130 92) (width 0.3) (layer "B.Cu") (net 8) (tstamp 80678d21-2ea5-40ae-8d07-8ca995c56e4e))
  (segment (start 132.75 91.5) (end 130.25 91.5) (width 0.3) (layer "B.Cu") (net 8) (tstamp 904cfa90-c722-49fb-9056-9133076f82b6))
  (segment (start 130 90) (end 129.5 89.5) (width 0.3) (layer "B.Cu") (net 8) (tstamp 9b5061b8-6543-4420-98b2-ee27df470e19))
  (segment (start 130.75 90.5) (end 130.75 89.75) (width 0.3) (layer "B.Cu") (net 8) (tstamp a157014c-20dc-49ee-938e-f230e46283e8))
  (segment (start 130 91) (end 129.5 90.5) (width 0.3) (layer "B.Cu") (net 8) (tstamp a27e7f2f-a6bf-4538-b425-dae674fe494c))
  (segment (start 132.75 90.5) (end 138.25 90.5) (width 0.3) (layer "B.Cu") (net 8) (tstamp b28250c9-d319-449e-ac45-3f1cc4201572))
  (segment (start 130.8 90.5) (end 130.75 90.5) (width 0.3) (layer "B.Cu") (net 8) (tstamp b4029dbc-23f0-4d8e-babb-8dd9023659ea))
  (segment (start 145.969239 98) (end 144.369239 96.4) (width 0.3) (layer "B.Cu") (net 8) (tstamp b816b989-f90e-48d6-a3f4-94340becda1b))
  (segment (start 147.25 97) (end 152.75 97) (width 0.3) (layer "B.Cu") (net 8) (tstamp b847a882-a255-40a5-aea4-beaededa4a58))
  (segment (start 146 96.453817) (end 146 95.6) (width 0.3) (layer "B.Cu") (net 8) (tstamp bb592ae6-8983-4a85-afc4-c02851de0cb7))
  (segment (start 132.75 91) (end 138.25 91) (width 0.3) (layer "B.Cu") (net 8) (tstamp bd94133e-c1ad-4d23-a1b9-e9925d7475f7))
  (segment (start 147.25 98) (end 145.969239 98) (width 0.3) (layer "B.Cu") (net 8) (tstamp becf4205-e48f-43d5-beef-1909bb74e7e3))
  (segment (start 132.75 91) (end 130 91) (width 0.3) (layer "B.Cu") (net 8) (tstamp ca5a83dd-6a88-414b-85ae-44e219fd3772))
  (segment (start 138.25 92) (end 140.2 92) (width 0.3) (layer "B.Cu") (net 8) (tstamp cb9b1094-70de-495f-80f3-a184e788c9c9))
  (segment (start 146.546183 97) (end 146 96.453817) (width 0.3) (layer "B.Cu") (net 8) (tstamp dc3c66b7-6495-4a5d-a5dc-d921fb782d7a))
  (segment (start 132.75 92) (end 138.25 92) (width 0.3) (layer "B.Cu") (net 8) (tstamp e0fb9bd5-fb9a-41d5-b02c-f410aa88d73e))
  (segment (start 130 92) (end 129.5 91.5) (width 0.3) (layer "B.Cu") (net 8) (tstamp e3737368-108c-4a54-987c-543ad56d9e73))
  (segment (start 129.5 90) (end 129 90) (width 0.3) (layer "B.Cu") (net 8) (tstamp effcfcf6-047c-4676-be8d-73d57d9a6407))
  (segment (start 129 90) (end 128.5 89.5) (width 0.3) (layer "B.Cu") (net 8) (tstamp f069a22b-0e81-4b35-9771-6530adc68204))
  (segment (start 138.25 91.5) (end 140.2 91.5) (width 0.3) (layer "B.Cu") (net 8) (tstamp f5ece8d6-de95-441d-929b-ad53c1d80c62))

  (zone (net 6) (net_name "/5V") (layer "F.Cu") (tstamp 29ec0eaa-118e-4aa7-b8a6-92fe985e9e60) (hatch edge 0.5)
    (connect_pads (clearance 0.254))
    (min_thickness 0.25) (filled_areas_thickness no)
    (fill yes (thermal_gap 0.5) (thermal_bridge_width 0.5))
    (polygon
      (pts
        (xy 155 100.25)
        (xy 136.25 100.25)
        (xy 136.25 94.25)
        (xy 126.25 94.25)
        (xy 126.25 96.5)
        (xy 134.75 105.5)
        (xy 155 105.5)
      )
    )
    (filled_polygon
      (layer "F.Cu")
      (pts
        (xy 128.705197 94.252382)
        (xy 128.715911 94.254514)
        (xy 128.766538 94.2595)
        (xy 128.76654 94.2595)
        (xy 129.233461 94.2595)
        (xy 129.233463 94.2595)
        (xy 129.284089 94.254514)
        (xy 129.294802 94.252382)
        (xy 129.318994 94.25)
        (xy 129.681006 94.25)
        (xy 129.705197 94.252382)
        (xy 129.715911 94.254514)
        (xy 129.766538 94.2595)
        (xy 135.145026 94.2595)
        (xy 135.212065 94.279185)
        (xy 135.220277 94.284958)
        (xy 135.220355 94.285003)
        (xy 135.220357 94.285005)
        (xy 135.220358 94.285005)
        (xy 135.220361 94.285007)
        (xy 135.287801 94.312941)
        (xy 135.355246 94.340878)
        (xy 135.427622 94.350406)
        (xy 135.499999 94.359935)
        (xy 135.5 94.359935)
        (xy 135.500001 94.359935)
        (xy 135.548251 94.353582)
        (xy 135.644754 94.340878)
        (xy 135.779643 94.285005)
        (xy 135.779647 94.285001)
        (xy 135.786678 94.280943)
        (xy 135.787339 94.282088)
        (xy 135.844657 94.25993)
        (xy 135.854974 94.2595)
        (xy 136.1165 94.2595)
        (xy 136.183539 94.279185)
        (xy 136.229294 94.331989)
        (xy 136.2405 94.3835)
        (xy 136.2405 99.876008)
        (xy 136.24643 99.93116)
        (xy 136.246432 99.931171)
        (xy 136.247165 99.934538)
        (xy 136.25 99.9609)
        (xy 136.25 100.25)
        (xy 136.549057 100.25)
        (xy 136.566703 100.251261)
        (xy 136.624 100.2595)
        (xy 136.624001 100.2595)
        (xy 143.823738 100.2595)
        (xy 143.839455 100.258845)
        (xy 143.869435 100.252602)
        (xy 143.894709 100.25)
        (xy 144.606726 100.25)
        (xy 144.624372 100.251261)
        (xy 144.681669 100.2595)
        (xy 146.006397 100.2595)
        (xy 146.053849 100.268939)
        (xy 146.078586 100.279185)
        (xy 146.105246 100.290228)
        (xy 146.177622 100.299756)
        (xy 146.249999 100.309285)
        (xy 146.25 100.309285)
        (xy 146.250001 100.309285)
        (xy 146.298251 100.302932)
        (xy 146.394754 100.290228)
        (xy 146.43084 100.27528)
        (xy 146.446151 100.268939)
        (xy 146.493603 100.2595)
        (xy 148.756397 100.2595)
        (xy 148.803849 100.268939)
        (xy 148.828586 100.279185)
        (xy 148.855246 100.290228)
        (xy 148.927622 100.299756)
        (xy 148.999999 100.309285)
        (xy 149 100.309285)
        (xy 149.000001 100.309285)
        (xy 149.048251 100.302932)
        (xy 149.144754 100.290228)
        (xy 149.18084 100.27528)
        (xy 149.196151 100.268939)
        (xy 149.243603 100.2595)
        (xy 150.756397 100.2595)
        (xy 150.803849 100.268939)
        (xy 150.828586 100.279185)
        (xy 150.855246 100.290228)
        (xy 150.927622 100.299756)
        (xy 150.999999 100.309285)
        (xy 151 100.309285)
        (xy 151.000001 100.309285)
        (xy 151.048251 100.302932)
        (xy 151.144754 100.290228)
        (xy 151.18084 100.27528)
        (xy 151.196151 100.268939)
        (xy 151.243603 100.2595)
        (xy 153.9945 100.2595)
        (xy 154.061539 100.279185)
        (xy 154.107294 100.331989)
        (xy 154.1185 100.3835)
        (xy 154.1185 104.196517)
        (xy 154.11811 104.203464)
        (xy 154.104557 104.323746)
        (xy 154.098378 104.350817)
        (xy 154.061864 104.455167)
        (xy 154.049817 104.480184)
        (xy 153.990994 104.5738)
        (xy 153.973681 104.595509)
        (xy 153.895509 104.673681)
        (xy 153.8738 104.690994)
        (xy 153.780184 104.749817)
        (xy 153.755167 104.761864)
        (xy 153.650817 104.798378)
        (xy 153.623746 104.804557)
        (xy 153.600663 104.807158)
        (xy 153.503456 104.81811)
        (xy 153.496518 104.8185)
        (xy 136.431331 104.8185)
        (xy 136.425075 104.818183)
        (xy 136.378075 104.813413)
        (xy 136.316452 104.807158)
        (xy 136.291923 104.802127)
        (xy 136.196752 104.772329)
        (xy 136.173733 104.762472)
        (xy 136.086483 104.714157)
        (xy 136.065913 104.699877)
        (xy 136.046856 104.683563)
        (xy 135.982917 104.628826)
        (xy 135.978374 104.62452)
        (xy 135.942734 104.587146)
        (xy 135.942733 104.587145)
        (xy 131.807999 100.251262)
        (xy 127.349694 95.576067)
        (xy 127.34969 95.576061)
        (xy 127.340246 95.566158)
        (xy 127.340246 95.566157)
        (xy 127.304434 95.528604)
        (xy 127.300568 95.524143)
        (xy 127.237019 95.443343)
        (xy 127.224276 95.423517)
        (xy 127.181242 95.340046)
        (xy 127.172485 95.318173)
        (xy 127.146028 95.228063)
        (xy 127.141569 95.204921)
        (xy 127.131779 95.102343)
        (xy 127.1315 95.096454)
        (xy 127.131504 95.044803)
        (xy 127.131503 95.044801)
        (xy 127.131504 95.04048)
        (xy 127.1315 95.040413)
        (xy 127.1315 94.3835)
        (xy 127.151185 94.316461)
        (xy 127.203989 94.270706)
        (xy 127.2555 94.2595)
        (xy 128.233461 94.2595)
        (xy 128.233463 94.2595)
        (xy 128.284089 94.254514)
        (xy 128.294802 94.252382)
        (xy 128.318994 94.25)
        (xy 128.681006 94.25)
      )
    )
  )
  (zone (net 7) (net_name "/GND") (layer "F.Cu") (tstamp 78c0bf1c-18ab-4260-bda5-b966922ba136) (hatch edge 0.5)
    (priority 1)
    (connect_pads (clearance 0.254))
    (min_thickness 0.25) (filled_areas_thickness no)
    (fill yes (thermal_gap 0.5) (thermal_bridge_width 0.5))
    (polygon
      (pts
        (xy 155 100)
        (xy 136.5 100)
        (xy 136.5 94)
        (xy 126.25 94)
        (xy 126.25 92.25)
        (xy 138.75 92.25)
        (xy 138.75 97)
        (xy 144.25 97)
        (xy 145.75 98.5)
        (xy 155 98.5)
      )
    )
    (filled_polygon
      (layer "F.Cu")
      (pts
        (xy 128.705197 92.252382)
        (xy 128.715911 92.254514)
        (xy 128.766538 92.2595)
        (xy 128.76654 92.2595)
        (xy 129.233461 92.2595)
        (xy 129.233463 92.2595)
        (xy 129.284089 92.254514)
        (xy 129.294802 92.252382)
        (xy 129.318994 92.25)
        (xy 129.681006 92.25)
        (xy 129.705197 92.252382)
        (xy 129.715911 92.254514)
        (xy 129.766538 92.2595)
        (xy 135.256397 92.2595)
        (xy 135.303849 92.268939)
        (xy 135.328586 92.279185)
        (xy 135.355246 92.290228)
        (xy 135.427622 92.299756)
        (xy 135.499999 92.309285)
        (xy 135.5 92.309285)
        (xy 135.500001 92.309285)
        (xy 135.548251 92.302932)
        (xy 135.644754 92.290228)
        (xy 135.68084 92.27528)
        (xy 135.696151 92.268939)
        (xy 135.743603 92.2595)
        (xy 138.6165 92.2595)
        (xy 138.683539 92.279185)
        (xy 138.729294 92.331989)
        (xy 138.7405 92.3835)
        (xy 138.7405 96.626008)
        (xy 138.74643 96.68116)
        (xy 138.746432 96.681171)
        (xy 138.747165 96.684538)
        (xy 138.75 96.7109)
        (xy 138.75 97)
        (xy 139.049057 97)
        (xy 139.066703 97.001261)
        (xy 139.124 97.0095)
        (xy 139.124001 97.0095)
        (xy 143.888899 97.0095)
        (xy 143.904616 97.008845)
        (xy 143.934596 97.002603)
        (xy 143.959871 97)
        (xy 144.198638 97)
        (xy 144.265677 97.019685)
        (xy 144.286319 97.036319)
        (xy 145.75 98.5)
        (xy 146.431006 98.5)
        (xy 146.455197 98.502382)
        (xy 146.465911 98.504514)
        (xy 146.516538 98.5095)
        (xy 146.51654 98.5095)
        (xy 148.733461 98.5095)
        (xy 148.733463 98.5095)
        (xy 148.784089 98.504514)
        (xy 148.794802 98.502382)
        (xy 148.818994 98.5)
        (xy 149.181006 98.5)
        (xy 149.205197 98.502382)
        (xy 149.215911 98.504514)
        (xy 149.266538 98.5095)
        (xy 149.26654 98.5095)
        (xy 150.733461 98.5095)
        (xy 150.733463 98.5095)
        (xy 150.784089 98.504514)
        (xy 150.794802 98.502382)
        (xy 150.818994 98.5)
        (xy 151.181006 98.5)
        (xy 151.205197 98.502382)
        (xy 151.215911 98.504514)
        (xy 151.266538 98.5095)
        (xy 151.26654 98.5095)
        (xy 153.9945 98.5095)
        (xy 154.061539 98.529185)
        (xy 154.107294 98.581989)
        (xy 154.1185 98.6335)
        (xy 154.1185 99.876)
        (xy 154.098815 99.943039)
        (xy 154.046011 99.988794)
        (xy 153.9945 100)
        (xy 144.681669 100)
        (xy 144.61463 99.980315)
        (xy 144.606183 99.974376)
        (xy 144.529643 99.915645)
        (xy 144.529638 99.915642)
        (xy 144.394757 99.859773)
        (xy 144.394752 99.859771)
        (xy 144.250001 99.840715)
        (xy 144.249999 99.840715)
        (xy 144.105247 99.859771)
        (xy 144.105245 99.859772)
        (xy 143.97036 99.915643)
        (xy 143.893818 99.974376)
        (xy 143.828648 99.99957)
        (xy 143.818332 100)
        (xy 136.624 100)
        (xy 136.556961 99.980315)
        (xy 136.511206 99.927511)
        (xy 136.5 99.876)
        (xy 136.5 94)
        (xy 129.766538 94)
        (xy 129.719086 93.990561)
        (xy 129.644757 93.959773)
        (xy 129.644752 93.959771)
        (xy 129.500001 93.940715)
        (xy 129.499999 93.940715)
        (xy 129.355247 93.959771)
        (xy 129.355245 93.959772)
        (xy 129.280916 93.990561)
        (xy 129.233463 94)
        (xy 128.766538 94)
        (xy 128.719086 93.990561)
        (xy 128.644757 93.959773)
        (xy 128.644752 93.959771)
        (xy 128.500001 93.940715)
        (xy 128.499999 93.940715)
        (xy 128.355247 93.959771)
        (xy 128.355245 93.959772)
        (xy 128.280916 93.990561)
        (xy 128.233463 94)
        (xy 127.2555 94)
        (xy 127.188461 93.980315)
        (xy 127.142706 93.927511)
        (xy 127.1315 93.876)
        (xy 127.1315 92.3835)
        (xy 127.151185 92.316461)
        (xy 127.203989 92.270706)
        (xy 127.2555 92.2595)
        (xy 128.233461 92.2595)
        (xy 128.233463 92.2595)
        (xy 128.284089 92.254514)
        (xy 128.294802 92.252382)
        (xy 128.318994 92.25)
        (xy 128.681006 92.25)
      )
    )
  )
  (zone (net 8) (net_name "/VBUS") (layer "F.Cu") (tstamp d79819f7-b64c-4ab4-a288-7a0fa38b742c) (hatch edge 0.5)
    (priority 2)
    (connect_pads (clearance 0.254))
    (min_thickness 0.25) (filled_areas_thickness no)
    (fill yes (thermal_gap 0.5) (thermal_bridge_width 0.5))
    (polygon
      (pts
        (xy 155 98.25)
        (xy 146 98.25)
        (xy 144.5 96.75)
        (xy 139 96.75)
        (xy 139 92)
        (xy 126.25 92)
        (xy 126.25 87)
        (xy 155 87)
      )
    )
    (filled_polygon
      (layer "F.Cu")
      (pts
        (xy 141.403457 88.381889)
        (xy 141.52375 88.395443)
        (xy 141.550811 88.401619)
        (xy 141.655171 88.438137)
        (xy 141.680181 88.45018)
        (xy 141.7738 88.509005)
        (xy 141.795509 88.526318)
        (xy 141.873681 88.60449)
        (xy 141.890994 88.626199)
        (xy 141.949817 88.719815)
        (xy 141.961864 88.744832)
        (xy 141.998378 88.849182)
        (xy 142.004557 88.876253)
        (xy 142.014938 88.968389)
        (xy 142.01811 88.996535)
        (xy 142.0185 89.003482)
        (xy 142.0185 93.908731)
        (xy 142.052516 94.123502)
        (xy 142.119715 94.330316)
        (xy 142.206174 94.5)
        (xy 142.218435 94.524064)
        (xy 142.346251 94.699987)
        (xy 142.500013 94.853749)
        (xy 142.675936 94.981565)
        (xy 142.742822 95.015645)
        (xy 142.869683 95.080284)
        (xy 142.869685 95.080284)
        (xy 142.869688 95.080286)
        (xy 142.944291 95.104526)
        (xy 143.076497 95.147483)
        (xy 143.291269 95.1815)
        (xy 143.291274 95.1815)
        (xy 143.336339 95.1815)
        (xy 153.445149 95.1815)
        (xy 153.496518 95.1815)
        (xy 153.503457 95.181889)
        (xy 153.62375 95.195443)
        (xy 153.650811 95.201619)
        (xy 153.755171 95.238137)
        (xy 153.780181 95.25018)
        (xy 153.8738 95.309005)
        (xy 153.895509 95.326318)
        (xy 153.973681 95.40449)
        (xy 153.990994 95.426199)
        (xy 154.049817 95.519815)
        (xy 154.061864 95.544832)
        (xy 154.098378 95.649182)
        (xy 154.104557 95.676253)
        (xy 154.11811 95.796542)
        (xy 154.1185 95.803481)
        (xy 154.1185 98.126)
        (xy 154.098815 98.193039)
        (xy 154.046011 98.238794)
        (xy 153.9945 98.25)
        (xy 151.266538 98.25)
        (xy 151.219086 98.240561)
        (xy 151.144757 98.209773)
        (xy 151.144752 98.209771)
        (xy 151.000001 98.190715)
        (xy 150.999999 98.190715)
        (xy 150.855247 98.209771)
        (xy 150.855245 98.209772)
        (xy 150.8109 98.228141)
        (xy 150.785182 98.238794)
        (xy 150.780916 98.240561)
        (xy 150.733463 98.25)
        (xy 149.266538 98.25)
        (xy 149.219086 98.240561)
        (xy 149.144757 98.209773)
        (xy 149.144752 98.209771)
        (xy 149.000001 98.190715)
        (xy 148.999999 98.190715)
        (xy 148.855247 98.209771)
        (xy 148.855245 98.209772)
        (xy 148.8109 98.228141)
        (xy 148.785182 98.238794)
        (xy 148.780916 98.240561)
        (xy 148.733463 98.25)
        (xy 146.516538 98.25)
        (xy 146.469086 98.240561)
        (xy 146.394757 98.209773)
        (xy 146.394752 98.209771)
        (xy 146.250001 98.190715)
        (xy 146.249999 98.190715)
        (xy 146.105247 98.209771)
        (xy 146.105242 98.209773)
        (xy 146.078924 98.220674)
        (xy 146.009454 98.228141)
        (xy 145.946976 98.196865)
        (xy 145.943793 98.193793)
        (xy 144.797049 97.047049)
        (xy 144.770169 97.00682)
        (xy 144.734357 96.920362)
        (xy 144.734357 96.920361)
        (xy 144.734355 96.920358)
        (xy 144.645474 96.804526)
        (xy 144.529643 96.715645)
        (xy 144.52964 96.715644)
        (xy 144.529638 96.715642)
        (xy 144.394757 96.659773)
        (xy 144.394752 96.659771)
        (xy 144.250001 96.640715)
        (xy 144.249999 96.640715)
        (xy 144.105247 96.659771)
        (xy 144.105245 96.659772)
        (xy 143.97036 96.715643)
        (xy 143.970358 96.715644)
        (xy 143.958978 96.724377)
        (xy 143.893809 96.74957)
        (xy 143.883493 96.75)
        (xy 139.124 96.75)
        (xy 139.056961 96.730315)
        (xy 139.011206 96.677511)
        (xy 139 96.626)
        (xy 139 92)
        (xy 129.766538 92)
        (xy 129.719086 91.990561)
        (xy 129.644757 91.959773)
        (xy 129.644752 91.959771)
        (xy 129.500001 91.940715)
        (xy 129.499999 91.940715)
        (xy 129.355247 91.959771)
        (xy 129.355245 91.959772)
        (xy 129.280916 91.990561)
        (xy 129.233463 92)
        (xy 128.766538 92)
        (xy 128.719086 91.990561)
        (xy 128.644757 91.959773)
        (xy 128.644752 91.959771)
        (xy 128.500001 91.940715)
        (xy 128.499999 91.940715)
        (xy 128.355247 91.959771)
        (xy 128.355245 91.959772)
        (xy 128.280916 91.990561)
        (xy 128.233463 92)
        (xy 127.2555 92)
        (xy 127.188461 91.980315)
        (xy 127.142706 91.927511)
        (xy 127.1315 91.876)
        (xy 127.1315 89.003482)
        (xy 127.13189 88.996535)
        (xy 127.145443 88.876247)
        (xy 127.151619 88.84919)
        (xy 127.188138 88.744824)
        (xy 127.200178 88.719821)
        (xy 127.259007 88.626195)
        (xy 127.276314 88.604494)
        (xy 127.354494 88.526314)
        (xy 127.376195 88.509007)
        (xy 127.469821 88.450178)
        (xy 127.494824 88.438138)
        (xy 127.59919 88.401619)
        (xy 127.626247 88.395443)
        (xy 127.746542 88.381889)
        (xy 127.753482 88.3815)
        (xy 127.804851 88.3815)
        (xy 141.345149 88.3815)
        (xy 141.396518 88.3815)
      )
    )
  )
)
