(kicad_sch (version 20230121) (generator eeschema)

  (uuid 73c464dd-daf4-484f-b278-4b4e429c836b)

  (paper "A4")

  (lib_symbols
    (symbol "Mezzanine Plug_1" (in_bom yes) (on_board yes)
      (property "Reference" "J1" (at -13.97 -8.89 0)
        (effects (font (size 1.778 1.5113)) (justify right))
      )
      (property "Value" "Mezzanine Plug" (at 2.54 15.24 0)
        (effects (font (size 1.778 1.5113)) (justify right))
      )
      (property "Footprint" "oresat-connectors:J-Molex-0547220304" (at 0 0 0)
        (effects (font (size 1.27 1.27)) hide)
      )
      (property "Datasheet" "" (at 0 0 0)
        (effects (font (size 1.27 1.27)) hide)
      )
      (property "ki_description" "Mezzanine plug, 555600307" (at 0 0 0)
        (effects (font (size 1.27 1.27)) hide)
      )
      (symbol "Mezzanine Plug_1_1_0"
        (polyline
          (pts
            (xy -12.7 -10.16)
            (xy 2.54 -10.16)
          )
          (stroke (width 0.508) (type default))
          (fill (type none))
        )
        (polyline
          (pts
            (xy 2.54 12.7)
            (xy -12.7 12.7)
          )
          (stroke (width 0.508) (type default))
          (fill (type none))
        )
        (pin bidirectional line (at 5.08 -7.62 180) (length 5.08)
          (name "CAN_L" (effects (font (size 1.27 1.27))))
          (number "P$1" (effects (font (size 0 0))))
        )
        (pin power_out line (at 5.08 7.62 180) (length 5.08)
          (name "GND" (effects (font (size 1.27 1.27))))
          (number "P$10" (effects (font (size 0 0))))
        )
        (pin power_out line (at 5.08 7.62 180) (length 5.08)
          (name "GND" (effects (font (size 1.27 1.27))))
          (number "P$11" (effects (font (size 0 0))))
        )
        (pin power_out line (at 5.08 10.16 180) (length 5.08)
          (name "VBUS" (effects (font (size 1.27 1.27))))
          (number "P$12" (effects (font (size 0 0))))
        )
        (pin power_out line (at 5.08 10.16 180) (length 5.08)
          (name "VBUS" (effects (font (size 1.27 1.27))))
          (number "P$13" (effects (font (size 0 0))))
        )
        (pin power_out line (at 5.08 10.16 180) (length 5.08)
          (name "VBUS" (effects (font (size 1.27 1.27))))
          (number "P$14" (effects (font (size 0 0))))
        )
        (pin power_out line (at 5.08 10.16 180) (length 5.08)
          (name "VBUS" (effects (font (size 1.27 1.27))))
          (number "P$15" (effects (font (size 0 0))))
        )
        (pin power_out line (at 5.08 10.16 180) (length 5.08)
          (name "VBUS" (effects (font (size 1.27 1.27))))
          (number "P$16" (effects (font (size 0 0))))
        )
        (pin power_out line (at 5.08 10.16 180) (length 5.08)
          (name "VBUS" (effects (font (size 1.27 1.27))))
          (number "P$17" (effects (font (size 0 0))))
        )
        (pin power_out line (at 5.08 10.16 180) (length 5.08)
          (name "VBUS" (effects (font (size 1.27 1.27))))
          (number "P$18" (effects (font (size 0 0))))
        )
        (pin power_out line (at 5.08 10.16 180) (length 5.08)
          (name "VBUS" (effects (font (size 1.27 1.27))))
          (number "P$19" (effects (font (size 0 0))))
        )
        (pin bidirectional line (at 5.08 -5.08 180) (length 5.08)
          (name "CAN_H" (effects (font (size 1.27 1.27))))
          (number "P$2" (effects (font (size 0 0))))
        )
        (pin power_out line (at 5.08 7.62 180) (length 5.08)
          (name "GND" (effects (font (size 1.27 1.27))))
          (number "P$20" (effects (font (size 0 0))))
        )
        (pin power_out line (at 5.08 7.62 180) (length 5.08)
          (name "GND" (effects (font (size 1.27 1.27))))
          (number "P$21" (effects (font (size 0 0))))
        )
        (pin power_out line (at 5.08 7.62 180) (length 5.08)
          (name "GND" (effects (font (size 1.27 1.27))))
          (number "P$22" (effects (font (size 0 0))))
        )
        (pin power_out line (at 5.08 7.62 180) (length 5.08)
          (name "GND" (effects (font (size 1.27 1.27))))
          (number "P$23" (effects (font (size 0 0))))
        )
        (pin power_out line (at 5.08 5.08 180) (length 5.08)
          (name "5V" (effects (font (size 1.27 1.27))))
          (number "P$24" (effects (font (size 0 0))))
        )
        (pin power_out line (at 5.08 5.08 180) (length 5.08)
          (name "5V" (effects (font (size 1.27 1.27))))
          (number "P$25" (effects (font (size 0 0))))
        )
        (pin bidirectional line (at 5.08 2.54 180) (length 5.08)
          (name "UART_TX" (effects (font (size 1.27 1.27))))
          (number "P$26" (effects (font (size 0 0))))
        )
        (pin bidirectional line (at 5.08 0 180) (length 5.08)
          (name "UART_RX" (effects (font (size 1.27 1.27))))
          (number "P$27" (effects (font (size 0 0))))
        )
        (pin bidirectional line (at 5.08 -2.54 180) (length 5.08)
          (name "BOOT" (effects (font (size 1.27 1.27))))
          (number "P$28" (effects (font (size 0 0))))
        )
        (pin bidirectional line (at 5.08 -5.08 180) (length 5.08)
          (name "CAN_H" (effects (font (size 1.27 1.27))))
          (number "P$29" (effects (font (size 0 0))))
        )
        (pin bidirectional line (at 5.08 -2.54 180) (length 5.08)
          (name "BOOT" (effects (font (size 1.27 1.27))))
          (number "P$3" (effects (font (size 0 0))))
        )
        (pin bidirectional line (at 5.08 -7.62 180) (length 5.08)
          (name "CAN_L" (effects (font (size 1.27 1.27))))
          (number "P$30" (effects (font (size 0 0))))
        )
        (pin bidirectional line (at 5.08 0 180) (length 5.08)
          (name "UART_RX" (effects (font (size 1.27 1.27))))
          (number "P$4" (effects (font (size 0 0))))
        )
        (pin bidirectional line (at 5.08 2.54 180) (length 5.08)
          (name "UART_TX" (effects (font (size 1.27 1.27))))
          (number "P$5" (effects (font (size 0 0))))
        )
        (pin power_out line (at 5.08 5.08 180) (length 5.08)
          (name "5V" (effects (font (size 1.27 1.27))))
          (number "P$6" (effects (font (size 0 0))))
        )
        (pin power_out line (at 5.08 5.08 180) (length 5.08)
          (name "5V" (effects (font (size 1.27 1.27))))
          (number "P$7" (effects (font (size 0 0))))
        )
        (pin power_out line (at 5.08 7.62 180) (length 5.08)
          (name "GND" (effects (font (size 1.27 1.27))))
          (number "P$8" (effects (font (size 0 0))))
        )
        (pin power_out line (at 5.08 7.62 180) (length 5.08)
          (name "GND" (effects (font (size 1.27 1.27))))
          (number "P$9" (effects (font (size 0 0))))
        )
      )
      (symbol "Mezzanine Plug_1_1_1"
        (polyline
          (pts
            (xy -12.7 12.7)
            (xy -12.7 -10.16)
          )
          (stroke (width 0.508) (type default))
          (fill (type none))
        )
      )
    )
    (symbol "oresat-connectors:Mezzanine Plug" (in_bom yes) (on_board yes)
      (property "Reference" "J" (at -12.7 13.97 0)
        (effects (font (size 1.778 1.5113)) (justify left bottom))
      )
      (property "Value" "Mezzanine Plug" (at -12.7 -13.97 0)
        (effects (font (size 1.778 1.5113)) (justify left bottom))
      )
      (property "Footprint" "oresat-footprints:J-Molex-555600307" (at 0 0 0)
        (effects (font (size 1.27 1.27)) hide)
      )
      (property "Datasheet" "" (at 0 0 0)
        (effects (font (size 1.27 1.27)) hide)
      )
      (property "ki_description" "Mezzanine plug, 555600307" (at 0 0 0)
        (effects (font (size 1.27 1.27)) hide)
      )
      (symbol "Mezzanine Plug_1_0"
        (polyline
          (pts
            (xy -12.7 -10.16)
            (xy 2.54 -10.16)
          )
          (stroke (width 0.508) (type default))
          (fill (type none))
        )
        (polyline
          (pts
            (xy 2.54 12.7)
            (xy -12.7 12.7)
          )
          (stroke (width 0.508) (type default))
          (fill (type none))
        )
        (pin bidirectional line (at 5.08 -7.62 180) (length 5.08)
          (name "CAN_L" (effects (font (size 1.27 1.27))))
          (number "P$1" (effects (font (size 0 0))))
        )
        (pin power_in line (at 5.08 7.62 180) (length 5.08)
          (name "GND" (effects (font (size 1.27 1.27))))
          (number "P$10" (effects (font (size 0 0))))
        )
        (pin power_in line (at 5.08 7.62 180) (length 5.08)
          (name "GND" (effects (font (size 1.27 1.27))))
          (number "P$11" (effects (font (size 0 0))))
        )
        (pin power_in line (at 5.08 10.16 180) (length 5.08)
          (name "VBUS" (effects (font (size 1.27 1.27))))
          (number "P$12" (effects (font (size 0 0))))
        )
        (pin power_in line (at 5.08 10.16 180) (length 5.08)
          (name "VBUS" (effects (font (size 1.27 1.27))))
          (number "P$13" (effects (font (size 0 0))))
        )
        (pin power_in line (at 5.08 10.16 180) (length 5.08)
          (name "VBUS" (effects (font (size 1.27 1.27))))
          (number "P$14" (effects (font (size 0 0))))
        )
        (pin power_in line (at 5.08 10.16 180) (length 5.08)
          (name "VBUS" (effects (font (size 1.27 1.27))))
          (number "P$15" (effects (font (size 0 0))))
        )
        (pin power_in line (at 5.08 10.16 180) (length 5.08)
          (name "VBUS" (effects (font (size 1.27 1.27))))
          (number "P$16" (effects (font (size 0 0))))
        )
        (pin power_in line (at 5.08 10.16 180) (length 5.08)
          (name "VBUS" (effects (font (size 1.27 1.27))))
          (number "P$17" (effects (font (size 0 0))))
        )
        (pin power_in line (at 5.08 10.16 180) (length 5.08)
          (name "VBUS" (effects (font (size 1.27 1.27))))
          (number "P$18" (effects (font (size 0 0))))
        )
        (pin power_in line (at 5.08 10.16 180) (length 5.08)
          (name "VBUS" (effects (font (size 1.27 1.27))))
          (number "P$19" (effects (font (size 0 0))))
        )
        (pin bidirectional line (at 5.08 -5.08 180) (length 5.08)
          (name "CAN_H" (effects (font (size 1.27 1.27))))
          (number "P$2" (effects (font (size 0 0))))
        )
        (pin power_in line (at 5.08 7.62 180) (length 5.08)
          (name "GND" (effects (font (size 1.27 1.27))))
          (number "P$20" (effects (font (size 0 0))))
        )
        (pin power_in line (at 5.08 7.62 180) (length 5.08)
          (name "GND" (effects (font (size 1.27 1.27))))
          (number "P$21" (effects (font (size 0 0))))
        )
        (pin power_in line (at 5.08 7.62 180) (length 5.08)
          (name "GND" (effects (font (size 1.27 1.27))))
          (number "P$22" (effects (font (size 0 0))))
        )
        (pin power_in line (at 5.08 7.62 180) (length 5.08)
          (name "GND" (effects (font (size 1.27 1.27))))
          (number "P$23" (effects (font (size 0 0))))
        )
        (pin power_in line (at 5.08 5.08 180) (length 5.08)
          (name "5V" (effects (font (size 1.27 1.27))))
          (number "P$24" (effects (font (size 0 0))))
        )
        (pin power_in line (at 5.08 5.08 180) (length 5.08)
          (name "5V" (effects (font (size 1.27 1.27))))
          (number "P$25" (effects (font (size 0 0))))
        )
        (pin bidirectional line (at 5.08 2.54 180) (length 5.08)
          (name "UART_TX" (effects (font (size 1.27 1.27))))
          (number "P$26" (effects (font (size 0 0))))
        )
        (pin bidirectional line (at 5.08 0 180) (length 5.08)
          (name "UART_RX" (effects (font (size 1.27 1.27))))
          (number "P$27" (effects (font (size 0 0))))
        )
        (pin bidirectional line (at 5.08 -2.54 180) (length 5.08)
          (name "BOOT" (effects (font (size 1.27 1.27))))
          (number "P$28" (effects (font (size 0 0))))
        )
        (pin bidirectional line (at 5.08 -5.08 180) (length 5.08)
          (name "CAN_H" (effects (font (size 1.27 1.27))))
          (number "P$29" (effects (font (size 0 0))))
        )
        (pin bidirectional line (at 5.08 -2.54 180) (length 5.08)
          (name "BOOT" (effects (font (size 1.27 1.27))))
          (number "P$3" (effects (font (size 0 0))))
        )
        (pin bidirectional line (at 5.08 -7.62 180) (length 5.08)
          (name "CAN_L" (effects (font (size 1.27 1.27))))
          (number "P$30" (effects (font (size 0 0))))
        )
        (pin bidirectional line (at 5.08 0 180) (length 5.08)
          (name "UART_RX" (effects (font (size 1.27 1.27))))
          (number "P$4" (effects (font (size 0 0))))
        )
        (pin bidirectional line (at 5.08 2.54 180) (length 5.08)
          (name "UART_TX" (effects (font (size 1.27 1.27))))
          (number "P$5" (effects (font (size 0 0))))
        )
        (pin power_in line (at 5.08 5.08 180) (length 5.08)
          (name "5V" (effects (font (size 1.27 1.27))))
          (number "P$6" (effects (font (size 0 0))))
        )
        (pin power_in line (at 5.08 5.08 180) (length 5.08)
          (name "5V" (effects (font (size 1.27 1.27))))
          (number "P$7" (effects (font (size 0 0))))
        )
        (pin power_in line (at 5.08 7.62 180) (length 5.08)
          (name "GND" (effects (font (size 1.27 1.27))))
          (number "P$8" (effects (font (size 0 0))))
        )
        (pin power_in line (at 5.08 7.62 180) (length 5.08)
          (name "GND" (effects (font (size 1.27 1.27))))
          (number "P$9" (effects (font (size 0 0))))
        )
      )
      (symbol "Mezzanine Plug_1_1"
        (polyline
          (pts
            (xy -12.7 12.7)
            (xy -12.7 -10.16)
          )
          (stroke (width 0.508) (type default))
          (fill (type none))
        )
      )
    )
  )


  (wire (pts (xy 114.3 101.6) (xy 160.02 101.6))
    (stroke (width 0) (type default))
    (uuid 059930bb-d2c9-4127-92cb-97a7547a8f9e)
  )
  (wire (pts (xy 114.3 99.06) (xy 160.02 99.06))
    (stroke (width 0) (type default))
    (uuid 2987d50b-8667-4c57-9886-bcd93b4de04e)
  )
  (wire (pts (xy 114.3 96.52) (xy 160.02 96.52))
    (stroke (width 0) (type default))
    (uuid 7ba6bc8b-0175-4f28-8d40-dab68c8db66b)
  )
  (wire (pts (xy 114.3 91.44) (xy 160.02 91.44))
    (stroke (width 0) (type default))
    (uuid abda6eb0-e6d0-48ae-850e-55faa4905b6b)
  )
  (wire (pts (xy 114.3 104.14) (xy 160.02 104.14))
    (stroke (width 0) (type default))
    (uuid b7295fb2-5eac-40f2-b7c1-14d6a281a4a3)
  )
  (wire (pts (xy 114.3 88.9) (xy 160.02 88.9))
    (stroke (width 0) (type default))
    (uuid c5d70978-f3a1-4247-ac44-e1b0a036c9eb)
  )
  (wire (pts (xy 114.3 86.36) (xy 160.02 86.36))
    (stroke (width 0) (type default))
    (uuid d84474c0-3584-45b0-87af-d9c1b8c2312a)
  )
  (wire (pts (xy 114.3 93.98) (xy 160.02 93.98))
    (stroke (width 0) (type default))
    (uuid db19730a-1c77-435f-8774-4b8faeb22fc7)
  )

  (label "BOOT" (at 114.3 99.06 0) (fields_autoplaced)
    (effects (font (size 1.27 1.27)) (justify left bottom))
    (uuid 0862fb7c-a0b5-4a2f-a857-861c7baed444)
  )
  (label "5V" (at 114.3 91.44 0) (fields_autoplaced)
    (effects (font (size 1.27 1.27)) (justify left bottom))
    (uuid 11395b41-e6e6-470d-853a-d16bd3321825)
  )
  (label "CAN_H" (at 114.3 101.6 0) (fields_autoplaced)
    (effects (font (size 1.27 1.27)) (justify left bottom))
    (uuid 7a2a349c-acf8-4291-a542-a4613c4db042)
  )
  (label "UART_RX" (at 114.3 96.52 0) (fields_autoplaced)
    (effects (font (size 1.27 1.27)) (justify left bottom))
    (uuid 8075f9a1-2921-443d-9bf7-1fa3dfc02710)
  )
  (label "GND" (at 114.3 88.9 0) (fields_autoplaced)
    (effects (font (size 1.27 1.27)) (justify left bottom))
    (uuid 9dd8cc4f-a89d-48b3-8a3d-b89e50664619)
  )
  (label "CAN_L" (at 114.3 104.14 0) (fields_autoplaced)
    (effects (font (size 1.27 1.27)) (justify left bottom))
    (uuid d220c492-0a83-4cea-8a34-00f34a04668d)
  )
  (label "UART_TX" (at 114.3 93.98 0) (fields_autoplaced)
    (effects (font (size 1.27 1.27)) (justify left bottom))
    (uuid e77454f7-34f8-4f78-974f-a4d026899cca)
  )
  (label "VBUS" (at 114.3 86.36 0) (fields_autoplaced)
    (effects (font (size 1.27 1.27)) (justify left bottom))
    (uuid f55c93e0-76ac-4e39-b219-31c34f752ca8)
  )

  (symbol (lib_id "oresat-connectors:Mezzanine Plug") (at 109.22 96.52 0) (unit 1)
    (in_bom yes) (on_board yes) (dnp no)
    (uuid 4513463b-8768-42d7-8671-2b20febc8418)
    (property "Reference" "J2" (at 93.98 105.41 0)
      (effects (font (size 1.778 1.5113)))
    )
    (property "Value" "Mezzanine Plug" (at 104.14 81.28 0)
      (effects (font (size 1.778 1.5113)))
    )
    (property "Footprint" "oresat-connectors:J-Molex-0547220304" (at 109.22 96.52 0)
      (effects (font (size 1.27 1.27)) hide)
    )
    (property "Datasheet" "" (at 109.22 96.52 0)
      (effects (font (size 1.27 1.27)) hide)
    )
    (pin "P$1" (uuid d357d7fd-b9ce-4602-b849-e66a1daa1cb4))
    (pin "P$10" (uuid 0f273c13-6557-4839-8076-2ba4fcb4d5ca))
    (pin "P$11" (uuid 1848177e-c817-4297-8adc-5db55f78f08a))
    (pin "P$12" (uuid 07cfc10d-0484-4bc8-a6ac-53806f76b72f))
    (pin "P$13" (uuid 48593006-d8d4-476d-8abd-d52c7e7ce299))
    (pin "P$14" (uuid 9c8235dd-2664-4271-8ae0-ab84101a3507))
    (pin "P$15" (uuid 57870987-7ae1-4fca-a9fb-6716dc82d871))
    (pin "P$16" (uuid 85798c14-0ff8-4216-94b2-1fd69df625cc))
    (pin "P$17" (uuid 377ada46-1b0e-4e7f-b9d4-1f17f0279f1c))
    (pin "P$18" (uuid 4e8ff338-1d6c-481f-9445-c7cb4ae57f06))
    (pin "P$19" (uuid db05cb15-c788-480b-84a7-731255281750))
    (pin "P$2" (uuid af756b93-b038-41b9-acee-a435b34e4b9b))
    (pin "P$20" (uuid c28538e1-bcf9-4240-9137-5df50e2e11f6))
    (pin "P$21" (uuid 3ea43c82-d510-41d5-95e8-a625ab34bee5))
    (pin "P$22" (uuid 35b5e6f7-d388-40d2-b6a5-bbf696c7fc8f))
    (pin "P$23" (uuid 9cd7b2b0-baaf-415b-92ca-6cdd42e81a02))
    (pin "P$24" (uuid 45675e1c-3555-4c38-978c-1cef956955d8))
    (pin "P$25" (uuid 25352452-58e1-4a1b-984b-1d8d9c17c5df))
    (pin "P$26" (uuid 2147cf74-58a3-4729-aaeb-891c31817eb7))
    (pin "P$27" (uuid d5eddf79-d7cf-4509-bcdd-18cfeb46d721))
    (pin "P$28" (uuid c94e52db-2126-47d6-95d7-9ff0029c79d8))
    (pin "P$29" (uuid 9649792e-52ed-4634-91f8-7f0de849d0fb))
    (pin "P$3" (uuid 317a827c-2240-40b2-a03b-2d8b5694fdde))
    (pin "P$30" (uuid ce83ca30-069f-4543-96f4-fa775a51f09a))
    (pin "P$4" (uuid 2300f70f-4ed4-4f39-a0ef-cf29d3ba497d))
    (pin "P$5" (uuid 628bd3fe-de4b-40d5-ac62-a4ace3d6151d))
    (pin "P$6" (uuid c5de14af-c204-4d57-9a56-821470e1b4da))
    (pin "P$7" (uuid 3151d51a-badf-4a5b-b051-b0e7a72f0336))
    (pin "P$8" (uuid f727038b-8e70-4cb1-b11f-e585e79b656d))
    (pin "P$9" (uuid 921d38ce-ef3d-42cf-9a3d-47e87d76b4e5))
    (instances
      (project "mezzanine-flex-board"
        (path "/73c464dd-daf4-484f-b278-4b4e429c836b"
          (reference "J2") (unit 1)
        )
      )
    )
  )

  (symbol (lib_name "Mezzanine Plug_1") (lib_id "oresat-connectors:Mezzanine Plug") (at 165.1 96.52 0) (mirror y) (unit 1)
    (in_bom yes) (on_board yes) (dnp no)
    (uuid a5af1dd9-2557-4155-9ffb-72b502d7a6a2)
    (property "Reference" "J1" (at 179.07 105.41 0)
      (effects (font (size 1.778 1.5113)) (justify right))
    )
    (property "Value" "Mezzanine Plug" (at 162.56 81.28 0)
      (effects (font (size 1.778 1.5113)) (justify right))
    )
    (property "Footprint" "oresat-connectors:J-Molex-0547220304" (at 165.1 96.52 0)
      (effects (font (size 1.27 1.27)) hide)
    )
    (property "Datasheet" "" (at 165.1 96.52 0)
      (effects (font (size 1.27 1.27)) hide)
    )
    (pin "P$1" (uuid 3c0313ea-6135-4b0a-8ce6-8eb9ce3fe949))
    (pin "P$10" (uuid 588d4b2e-3071-47c2-932d-989abbc2948c))
    (pin "P$11" (uuid 671a8c63-402f-4e40-a62a-222724a60b30))
    (pin "P$12" (uuid 39797b97-9260-4e47-bb22-c0ba8d91127a))
    (pin "P$13" (uuid 50f0fb22-adc4-425d-9967-2028d82d1e7d))
    (pin "P$14" (uuid a7bc3f74-8d98-4116-aca9-4c4f383f8ff1))
    (pin "P$15" (uuid d169361c-5ebf-4ec6-938d-105d789236aa))
    (pin "P$16" (uuid c1177b6f-97d0-421c-a801-6b74a0e35f22))
    (pin "P$17" (uuid 04761bc2-4770-43cf-af58-aed45981eb6c))
    (pin "P$18" (uuid 8723e5f1-bbdf-40f2-9bab-4be1d087a3ff))
    (pin "P$19" (uuid 5a6ce3f4-98fb-4ae9-a9b3-f6254a51cb26))
    (pin "P$2" (uuid 8e0aecfc-5395-4eec-96c8-80a628253cf0))
    (pin "P$20" (uuid 3716656c-8015-4734-9fe2-7553b8963205))
    (pin "P$21" (uuid c5682681-e96b-4741-a643-ed64d4f66f24))
    (pin "P$22" (uuid f9c4334f-2ca6-454e-a406-eba46d7082fe))
    (pin "P$23" (uuid cef17f19-a5e1-4506-8298-e18af81d2de7))
    (pin "P$24" (uuid b57fb04d-2d18-49fc-8a89-f92ce685ffe0))
    (pin "P$25" (uuid 4cfed968-1ffe-448e-bf06-4be6586922aa))
    (pin "P$26" (uuid 7434f507-da5a-4ebd-8539-db46042bd1a2))
    (pin "P$27" (uuid b0c8288b-ede8-4d65-b607-4776814a9040))
    (pin "P$28" (uuid 1d1dd109-4c79-49bb-89c8-9758bc1dbd42))
    (pin "P$29" (uuid d2b65a1a-20b5-4fab-8219-77d4c4713156))
    (pin "P$3" (uuid 1a8b9625-e1c7-4a09-99aa-30d77804cf78))
    (pin "P$30" (uuid 1ee869c7-bc06-4cdc-afed-8737b786bf7b))
    (pin "P$4" (uuid 6a0743b7-039e-4158-a2af-03eadfb043bb))
    (pin "P$5" (uuid b5910caa-c759-451e-b0ee-2976850f2f98))
    (pin "P$6" (uuid 95707d2c-eca7-465f-81ce-78cf2cf95a15))
    (pin "P$7" (uuid 6558ed2e-1127-4bba-8b5f-16c7cfb4ead8))
    (pin "P$8" (uuid c308c46f-5b81-46db-8816-b8694495dbc9))
    (pin "P$9" (uuid de518511-1f24-42b0-ad74-52ad2108b93d))
    (instances
      (project "mezzanine-flex-board"
        (path "/73c464dd-daf4-484f-b278-4b4e429c836b"
          (reference "J1") (unit 1)
        )
      )
    )
  )

  (sheet_instances
    (path "/" (page "1"))
  )
)
