(kicad_pcb (version 20221018) (generator pcbnew)

  (general
    (thickness 1.6)
  )

  (paper "A4")
  (layers
    (0 "F.Cu" signal)
    (31 "B.Cu" signal)
    (32 "B.Adhes" user "B.Adhesive")
    (33 "F.Adhes" user "F.Adhesive")
    (34 "B.Paste" user)
    (35 "F.Paste" user)
    (36 "B.SilkS" user "B.Silkscreen")
    (37 "F.SilkS" user "F.Silkscreen")
    (38 "B.Mask" user)
    (39 "F.Mask" user)
    (40 "Dwgs.User" user "User.Drawings")
    (41 "Cmts.User" user "User.Comments")
    (42 "Eco1.User" user "User.Eco1")
    (43 "Eco2.User" user "User.Eco2")
    (44 "Edge.Cuts" user)
    (45 "Margin" user)
    (46 "B.CrtYd" user "B.Courtyard")
    (47 "F.CrtYd" user "F.Courtyard")
    (48 "B.Fab" user)
    (49 "F.Fab" user)
  )

  (setup
    (pad_to_mask_clearance 0.051)
    (solder_mask_min_width 0.25)
    (pcbplotparams
      (layerselection 0x0001000_7ffffffe)
      (plot_on_all_layers_selection 0x0001000_00000000)
      (disableapertmacros false)
      (usegerberextensions false)
      (usegerberattributes false)
      (usegerberadvancedattributes false)
      (creategerberjobfile false)
      (dashed_line_dash_ratio 12.000000)
      (dashed_line_gap_ratio 3.000000)
      (svgprecision 6)
      (plotframeref false)
      (viasonmask false)
      (mode 1)
      (useauxorigin false)
      (hpglpennumber 1)
      (hpglpenspeed 20)
      (hpglpendiameter 15.000000)
      (dxfpolygonmode true)
      (dxfimperialunits true)
      (dxfusepcbnewfont true)
      (psnegative false)
      (psa4output false)
      (plotreference false)
      (plotvalue false)
      (plotinvisibletext false)
      (sketchpadsonfab false)
      (subtractmaskfromsilk false)
      (outputformat 1)
      (mirror false)
      (drillshape 0)
      (scaleselection 1)
      (outputdirectory "")
    )
  )

  (net 0 "")
  (net 1 "Net-(J1-Pad5)")
  (net 2 "Net-(J1-Pad4)")
  (net 3 "Net-(J1-Pad3)")
  (net 4 "Net-(J1-Pad2)")
  (net 5 "Net-(J1-Pad1)")
  (net 6 "Net-(J2-Pad10)")
  (net 7 "Net-(J2-Pad9)")
  (net 8 "Net-(J2-Pad8)")
  (net 9 "Net-(J2-Pad7)")
  (net 10 "Net-(J2-Pad6)")

  (footprint "Connector:Tag-Connect_TC2050-IDC-NL_2x05_P1.27mm_Vertical" (layer "F.Cu")
    (tstamp 00000000-0000-0000-0000-00005e852290)
    (at 159.004 100.584)
    (descr "Tag-Connect programming header; http://www.tag-connect.com/Materials/TC2050-IDC-NL%20Datasheet.pdf")
    (tags "tag connect programming header pogo pins")
    (path "/00000000-0000-0000-0000-00005e85144b")
    (attr exclude_from_pos_files exclude_from_bom)
    (fp_text reference "J2" (at 3.81 0) (layer "F.SilkS")
        (effects (font (size 0.635 0.635) (thickness 0.1016)))
      (tstamp 23e66461-bcf2-4335-93c2-5c91dfd00187)
    )
    (fp_text value "Conn_02x05_Counter_Clockwise" (at 0 -2.4) (layer "F.Fab")
        (effects (font (size 1 1) (thickness 0.15)))
      (tstamp dd2f6b13-9e35-4a67-90ac-cf0d1ea34e5a)
    )
    (fp_text user "KEEPOUT" (at 0 0) (layer "Cmts.User")
        (effects (font (size 0.4 0.4) (thickness 0.07)))
      (tstamp 87c78429-be2b-40ed-8d3b-56cb9666a56f)
    )
    (fp_text user "${REFERENCE}" (at 0 0) (layer "F.Fab")
        (effects (font (size 1 1) (thickness 0.15)))
      (tstamp 9d984d1b-8097-407f-92f3-3ef68867dcfa)
    )
    (fp_line (start -2.794 1.524) (end -2.286 1.524)
      (stroke (width 0.0762) (type solid)) (layer "F.SilkS") (tstamp 68b52f01-fa04-4908-bf88-60c62ace1cfa))
    (fp_line (start -2.54 1.27) (end -2.794 1.524)
      (stroke (width 0.0762) (type solid)) (layer "F.SilkS") (tstamp 7e969d15-6cc0-4258-8b27-586608a21adb))
    (fp_line (start -2.286 1.524) (end -2.54 1.27)
      (stroke (width 0.0762) (type solid)) (layer "F.SilkS") (tstamp b8c83ad1-b3c9-495c-bdc6-62dead00f5ad))
    (fp_line (start -2.54 -0.635) (end 2.54 -0.635)
      (stroke (width 0.1) (type solid)) (layer "Dwgs.User") (tstamp 0f3c9e3a-9c59-4881-b27a-d0e982b3ea8e))
    (fp_line (start -2.54 0) (end -1.905 -0.635)
      (stroke (width 0.1) (type solid)) (layer "Dwgs.User") (tstamp 825c70b0-4860-42b7-97dc-86bfa46e06fd))
    (fp_line (start -2.54 0.635) (end -2.54 -0.635)
      (stroke (width 0.1) (type solid)) (layer "Dwgs.User") (tstamp bb4f0314-c44c-4dda-b85c-537120eaae9a))
    (fp_line (start -2.54 0.635) (end -1.27 -0.635)
      (stroke (width 0.1) (type solid)) (layer "Dwgs.User") (tstamp bbb15673-6d42-42b8-9d51-7515b3ad9ee9))
    (fp_line (start -1.905 0.635) (end -0.635 -0.635)
      (stroke (width 0.1) (type solid)) (layer "Dwgs.User") (tstamp 02165243-61a3-4857-84ba-71a77cb9a387))
    (fp_line (start -1.27 0.635) (end 0 -0.635)
      (stroke (width 0.1) (type solid)) (layer "Dwgs.User") (tstamp 9ff4672a-e1a4-4a1e-887d-1b9a3429d278))
    (fp_line (start -0.635 0.635) (end 0.635 -0.635)
      (stroke (width 0.1) (type solid)) (layer "Dwgs.User") (tstamp 99030c03-63b4-49ba-b5ab-4d56974f7963))
    (fp_line (start 0 0.635) (end 1.27 -0.635)
      (stroke (width 0.1) (type solid)) (layer "Dwgs.User") (tstamp 646d9e91-59b4-4865-a2fc-29780ed32563))
    (fp_line (start 0.635 0.635) (end 1.905 -0.635)
      (stroke (width 0.1) (type solid)) (layer "Dwgs.User") (tstamp e6521bef-4109-48f7-8b88-4121b0468927))
    (fp_line (start 1.27 0.635) (end 2.54 -0.635)
      (stroke (width 0.1) (type solid)) (layer "Dwgs.User") (tstamp 3559e287-424e-4397-b080-77c7ba6f395b))
    (fp_line (start 1.905 0.635) (end 2.54 0)
      (stroke (width 0.1) (type solid)) (layer "Dwgs.User") (tstamp edc9ab4f-487a-48dc-95f2-4d87f0e9cf9e))
    (fp_line (start 2.54 -0.635) (end 2.54 0.635)
      (stroke (width 0.1) (type solid)) (layer "Dwgs.User") (tstamp e83e0227-ac0f-4180-82bd-68d3a7b56476))
    (fp_line (start 2.54 0.635) (end -2.54 0.635)
      (stroke (width 0.1) (type solid)) (layer "Dwgs.User") (tstamp 46cfd089-6873-4d8b-89af-02ff30e49472))
    (pad "" np_thru_hole circle (at -3.81 0) (size 1 1) (drill 1) (layers "*.Cu" "*.Mask") (tstamp b994142f-02ac-4881-9587-6d3df53c96d2))
    (pad "" smd rect (at -3.81 0) (size 1 2) (layers "F.Cu" "F.Paste" "F.Mask") (tstamp 936e2ca6-11ae-4f42-9128-52bb329f3d21))
    (pad "" np_thru_hole circle (at 3.81 -1.016) (size 1 1) (drill 1) (layers "*.Cu" "*.Mask") (tstamp 2d6718e7-f18d-444d-9792-ddf1a113460c))
    (pad "" smd rect (at 3.81 0) (size 1 3.6) (layers "F.Cu" "F.Paste" "F.Mask") (tstamp 909b030b-fa1a-4fe8-b1ee-422b4d9e23cf))
    (pad "" np_thru_hole circle (at 3.81 1.016) (size 1 1) (drill 1) (layers "*.Cu" "*.Mask") (tstamp b603d26a-e034-42fb-8327-b60c5bf9cdd2))
    (pad "1" thru_hole circle (at -2.54 0.635) (size 1 1) (drill 1) (layers "*.Cu" "*.Mask")
      (net 1 "Net-(J1-Pad5)") (tstamp 29256b3d-9450-4c0a-a4d4-911f04b9c140))
    (pad "1" smd rect (at -2.54 1.135) (size 1 1) (layers "F.Cu" "F.Paste" "F.Mask")
      (net 1 "Net-(J1-Pad5)") (tstamp 71c77456-1405-42e3-95ed-69e629de0558))
    (pad "2" thru_hole circle (at -1.27 0.635) (size 1 1) (drill 1) (layers "*.Cu" "*.Mask")
      (net 2 "Net-(J1-Pad4)") (tstamp 37e4dc66-4492-4061-908d-7213940a2ec3))
    (pad "2" smd rect (at -1.27 1.135) (size 1 1) (layers "F.Cu" "F.Paste" "F.Mask")
      (net 2 "Net-(J1-Pad4)") (tstamp 04f5865e-f449-4408-a0c8-771cccfcb129))
    (pad "3" thru_hole circle (at 0 0.635) (size 1 1) (drill 1) (layers "*.Cu" "*.Mask")
      (net 3 "Net-(J1-Pad3)") (tstamp fb03d859-dcc9-4533-b352-64830e0e5423))
    (pad "3" smd rect (at 0 1.135) (size 1 1) (layers "F.Cu" "F.Paste" "F.Mask")
      (net 3 "Net-(J1-Pad3)") (tstamp 6199bec7-e7eb-4ae0-b9ec-c563e157d635))
    (pad "4" thru_hole circle (at 1.27 0.635) (size 1 1) (drill 1) (layers "*.Cu" "*.Mask")
      (net 4 "Net-(J1-Pad2)") (tstamp 483f60da-14d7-4f88-8d01-3f9f30784c70))
    (pad "4" smd rect (at 1.27 1.135) (size 1 1) (layers "F.Cu" "F.Paste" "F.Mask")
      (net 4 "Net-(J1-Pad2)") (tstamp e47adf3d-9c24-4345-80c9-66679cad107e))
    (pad "5" thru_hole circle (at 2.54 0.635) (size 1 1) (drill 1) (layers "*.Cu" "*.Mask")
      (net 5 "Net-(J1-Pad1)") (tstamp 6ca3c38c-4e71-4202-b6c1-1b25f04a27ae))
    (pad "5" smd rect (at 2.54 1.135) (size 1 1) (layers "F.Cu" "F.Paste" "F.Mask")
      (net 5 "Net-(J1-Pad1)") (tstamp 7f3eb118-a20c-4239-b800-c9211c66847d))
    (pad "6" smd rect (at 2.54 -1.135) (size 1 1) (layers "F.Cu" "F.Paste" "F.Mask")
      (net 10 "Net-(J2-Pad6)") (tstamp 213a2af1-412b-47f4-ab3b-c5f43b6be7a6))
    (pad "6" thru_hole circle (at 2.54 -0.635) (size 1 1) (drill 1) (layers "*.Cu" "*.Mask")
      (net 10 "Net-(J2-Pad6)") (tstamp 2bef89de-08c7-4a13-9d85-67948d429ca0))
    (pad "7" smd rect (at 1.27 -1.135) (size 1 1) (layers "F.Cu" "F.Paste" "F.Mask")
      (net 9 "Net-(J2-Pad7)") (tstamp d2de4093-1fc2-4bc1-94b6-4d0fe3426c6f))
    (pad "7" thru_hole circle (at 1.27 -0.635) (size 1 1) (drill 1) (layers "*.Cu" "*.Mask")
      (net 9 "Net-(J2-Pad7)") (tstamp fc0a4225-db46-4d48-8163-d522602d57cd))
    (pad "8" smd rect (at 0 -1.135) (size 1 1) (layers "F.Cu" "F.Paste" "F.Mask")
      (net 8 "Net-(J2-Pad8)") (tstamp 43891a3c-749f-498d-ba99-685a27689b0d))
    (pad "8" thru_hole circle (at 0 -0.635) (size 1 1) (drill 1) (layers "*.Cu" "*.Mask")
      (net 8 "Net-(J2-Pad8)") (tstamp cb868d2e-5efb-4bfb-8796-88435b326918))
    (pad "9" smd rect (at -1.27 -1.135) (size 1 1) (layers "F.Cu" "F.Paste" "F.Mask")
      (net 7 "Net-(J2-Pad9)") (tstamp cbc539d2-6a10-4052-9b7a-f10326dcac67))
    (pad "9" thru_hole circle (at -1.27 -0.635) (size 1 1) (drill 1) (layers "*.Cu" "*.Mask")
      (net 7 "Net-(J2-Pad9)") (tstamp f022716e-b121-4cbf-a833-20e924070c22))
    (pad "10" smd rect (at -2.54 -1.135) (size 1 1) (layers "F.Cu" "F.Paste" "F.Mask")
      (net 6 "Net-(J2-Pad10)") (tstamp f144a97d-c3f0-423f-b0a9-3f7dbc42478b))
    (pad "10" thru_hole circle (at -2.54 -0.635) (size 1 1) (drill 1) (layers "*.Cu" "*.Mask")
      (net 6 "Net-(J2-Pad10)") (tstamp f1dd8642-b405-490b-a449-d1cc5797fda8))
  )

  (footprint "Connector_PinHeader_2.00mm:PinHeader_1x05_P2.00mm_Vertical" (layer "F.Cu")
    (tstamp 00000000-0000-0000-0000-00005e85f776)
    (at 163.004 103.632 -90)
    (descr "Through hole straight pin header, 1x05, 2.00mm pitch, single row")
    (tags "Through hole pin header THT 1x05 2.00mm single row")
    (path "/00000000-0000-0000-0000-00005e85985b")
    (attr through_hole)
    (fp_text reference "J1" (at -1.778 8.572) (layer "F.SilkS")
        (effects (font (size 0.635 0.635) (thickness 0.1016)))
      (tstamp 3cfcbcc7-4f45-46ab-82a8-c414c7972161)
    )
    (fp_text value "Conn_01x05" (at 0 10.06 -90) (layer "F.Fab")
        (effects (font (size 1 1) (thickness 0.15)))
      (tstamp 2f3deced-880d-4075-a81b-95c62da5b94d)
    )
    (fp_text user "${REFERENCE}" (at 0 4) (layer "F.Fab")
        (effects (font (size 1 1) (thickness 0.15)))
      (tstamp 4d609e7c-74c9-4ae9-a26d-946ff00c167d)
    )
    (fp_line (start -1.06 -1.06) (end 0 -1.06)
      (stroke (width 0.12) (type solid)) (layer "F.SilkS") (tstamp 786b6072-5772-4bc1-8eeb-6c4e19f2a91b))
    (fp_line (start -1.06 0) (end -1.06 -1.06)
      (stroke (width 0.12) (type solid)) (layer "F.SilkS") (tstamp 9a9f2d82-f64d-4264-8bec-c182528fc4de))
    (fp_line (start -1.06 1) (end -1.06 9.06)
      (stroke (width 0.12) (type solid)) (layer "F.SilkS") (tstamp b6bcc3cf-50de-4a33-bc41-678825c1ecf2))
    (fp_line (start -1.06 1) (end 1.06 1)
      (stroke (width 0.12) (type solid)) (layer "F.SilkS") (tstamp b60c50d1-225e-415c-8712-7acb5e3dc8ea))
    (fp_line (start -1.06 9.06) (end 1.06 9.06)
      (stroke (width 0.12) (type solid)) (layer "F.SilkS") (tstamp 5740c959-93d8-47fd-8f68-62f0109e753d))
    (fp_line (start 1.06 1) (end 1.06 9.06)
      (stroke (width 0.12) (type solid)) (layer "F.SilkS") (tstamp 7e08f2a4-63d6-468b-bd8b-ec607077e023))
    (fp_line (start -1 -0.5) (end -0.5 -1)
      (stroke (width 0.1) (type solid)) (layer "F.Fab") (tstamp c3c93de0-69b1-4a04-8e0b-d78caf487c63))
    (fp_line (start -1 9) (end -1 -0.5)
      (stroke (width 0.1) (type solid)) (layer "F.Fab") (tstamp f9865a9f-edb8-49c7-828f-4896e1f3047a))
    (fp_line (start -0.5 -1) (end 1 -1)
      (stroke (width 0.1) (type solid)) (layer "F.Fab") (tstamp ec9e24d8-d1c5-40e2-9812-dc315d05f470))
    (fp_line (start 1 -1) (end 1 9)
      (stroke (width 0.1) (type solid)) (layer "F.Fab") (tstamp a06e8e78-f567-42e6-b645-013b1073ca31))
    (fp_line (start 1 9) (end -1 9)
      (stroke (width 0.1) (type solid)) (layer "F.Fab") (tstamp 55992e35-fe7b-468a-9b7a-1e4dc931b904))
    (pad "1" thru_hole circle (at 0 0 270) (size 1.6 1.6) (drill 1) (layers "*.Cu" "*.Mask")
      (net 5 "Net-(J1-Pad1)") (tstamp 7447a6e7-8205-46ba-afca-d0fa8f90c95a))
    (pad "2" thru_hole circle (at 0 2 270) (size 1.6 1.6) (drill 1) (layers "*.Cu" "*.Mask")
      (net 4 "Net-(J1-Pad2)") (tstamp 4412226e-d975-40a2-921f-502ff4129a95))
    (pad "3" thru_hole circle (at 0 4 270) (size 1.6 1.6) (drill 1) (layers "*.Cu" "*.Mask")
      (net 3 "Net-(J1-Pad3)") (tstamp 4e66a44f-7fa6-4e16-bf9b-62ec864301a5))
    (pad "4" thru_hole circle (at 0 6 270) (size 1.6 1.6) (drill 1) (layers "*.Cu" "*.Mask")
      (net 2 "Net-(J1-Pad4)") (tstamp 0d35483a-0b12-46cc-b9f2-896fd6831779))
    (pad "5" thru_hole circle (at 0 8 270) (size 1.6 1.6) (drill 1) (layers "*.Cu" "*.Mask")
      (net 1 "Net-(J1-Pad5)") (tstamp 9702d639-3b1f-4825-8985-b32b9008503d))
    (model "${KISYS3DMOD}/Connector_PinHeader_2.00mm.3dshapes/PinHeader_1x05_P2.00mm_Vertical.wrl"
      (offset (xyz 0 0 0))
      (scale (xyz 1 1 1))
      (rotate (xyz 0 0 0))
    )
  )

  (footprint "Connector_PinHeader_2.00mm:PinHeader_1x05_P2.00mm_Vertical" (layer "F.Cu")
    (tstamp 00000000-0000-0000-0000-00005e860c6c)
    (at 155.004 97.536 90)
    (descr "Through hole straight pin header, 1x05, 2.00mm pitch, single row")
    (tags "Through hole pin header THT 1x05 2.00mm single row")
    (path "/00000000-0000-0000-0000-00005e85bf59")
    (attr through_hole)
    (fp_text reference "J3" (at -1.778 -0.572 180) (layer "F.SilkS")
        (effects (font (size 0.635 0.635) (thickness 0.1016)))
      (tstamp 2bf3f24b-fd30-41a7-a274-9b519491916b)
    )
    (fp_text value "Conn_01x05" (at 0 10.06 90) (layer "F.Fab")
        (effects (font (size 1 1) (thickness 0.15)))
      (tstamp 4831966c-bb32-4bc8-a400-0382a02ffa1c)
    )
    (fp_text user "${REFERENCE}" (at 0 4 180) (layer "F.Fab")
        (effects (font (size 1 1) (thickness 0.15)))
      (tstamp e25ce415-914a-48fe-bf09-324317917b2e)
    )
    (fp_line (start -1.06 -1.06) (end 0 -1.06)
      (stroke (width 0.12) (type solid)) (layer "F.SilkS") (tstamp 4d4b0fcd-2c79-4fc3-b5fa-7a0741601344))
    (fp_line (start -1.06 0) (end -1.06 -1.06)
      (stroke (width 0.12) (type solid)) (layer "F.SilkS") (tstamp 9762c9ed-64d8-4f3e-baf6-f6ba6effc919))
    (fp_line (start -1.06 1) (end -1.06 9.06)
      (stroke (width 0.12) (type solid)) (layer "F.SilkS") (tstamp 78f88cf6-751c-4e9b-ae75-fb8b6d44ff39))
    (fp_line (start -1.06 1) (end 1.06 1)
      (stroke (width 0.12) (type solid)) (layer "F.SilkS") (tstamp 587a157d-dedf-4558-a037-1a94bbba1848))
    (fp_line (start -1.06 9.06) (end 1.06 9.06)
      (stroke (width 0.12) (type solid)) (layer "F.SilkS") (tstamp 75286985-9fa5-4d30-89c5-493b6e63cd66))
    (fp_line (start 1.06 1) (end 1.06 9.06)
      (stroke (width 0.12) (type solid)) (layer "F.SilkS") (tstamp c19dbe3c-ced0-48f7-a91d-777569cfb936))
    (fp_line (start -1 -0.5) (end -0.5 -1)
      (stroke (width 0.1) (type solid)) (layer "F.Fab") (tstamp 0867287d-2e6a-4d69-a366-c29f88198f2b))
    (fp_line (start -1 9) (end -1 -0.5)
      (stroke (width 0.1) (type solid)) (layer "F.Fab") (tstamp afd3dbad-e7a8-4e4c-b77c-4065a69aefa2))
    (fp_line (start -0.5 -1) (end 1 -1)
      (stroke (width 0.1) (type solid)) (layer "F.Fab") (tstamp 632acde9-b7fd-4f04-8cb4-d2cbb06b3595))
    (fp_line (start 1 -1) (end 1 9)
      (stroke (width 0.1) (type solid)) (layer "F.Fab") (tstamp 0f41a909-27c4-4be2-9d5e-9ae2108c8ff5))
    (fp_line (start 1 9) (end -1 9)
      (stroke (width 0.1) (type solid)) (layer "F.Fab") (tstamp 1b54105e-6590-4d26-a763-ecfcf81eedc4))
    (pad "1" thru_hole circle (at 0 0 90) (size 1.6 1.6) (drill 1) (layers "*.Cu" "*.Mask")
      (net 6 "Net-(J2-Pad10)") (tstamp e12e827e-36be-4503-8eef-6fc7e8bc5d49))
    (pad "2" thru_hole circle (at 0 2 90) (size 1.6 1.6) (drill 1) (layers "*.Cu" "*.Mask")
      (net 7 "Net-(J2-Pad9)") (tstamp dabe541b-b164-4180-97a4-5ca761b86800))
    (pad "3" thru_hole circle (at 0 4 90) (size 1.6 1.6) (drill 1) (layers "*.Cu" "*.Mask")
      (net 8 "Net-(J2-Pad8)") (tstamp 6b25f522-8e2d-4cd8-9d5d-a2b80f60133b))
    (pad "4" thru_hole circle (at 0 6 90) (size 1.6 1.6) (drill 1) (layers "*.Cu" "*.Mask")
      (net 9 "Net-(J2-Pad7)") (tstamp 38f2d955-ea7a-4a21-aba6-02ae23f1bd4a))
    (pad "5" thru_hole circle (at 0 8 90) (size 1.6 1.6) (drill 1) (layers "*.Cu" "*.Mask")
      (net 10 "Net-(J2-Pad6)") (tstamp 35354519-a28c-40c4-befd-0943e98dea53))
    (model "${KISYS3DMOD}/Connector_PinHeader_2.00mm.3dshapes/PinHeader_1x05_P2.00mm_Vertical.wrl"
      (offset (xyz 0 0 0))
      (scale (xyz 1 1 1))
      (rotate (xyz 0 0 0))
    )
  )

  (gr_line (start 164.338 104.902) (end 164.338 96.266)
    (stroke (width 0.05) (type solid)) (layer "Edge.Cuts") (tstamp 00000000-0000-0000-0000-00005e860b9a))
  (gr_line (start 153.67 96.266) (end 153.67 104.902)
    (stroke (width 0.05) (type solid)) (layer "Edge.Cuts") (tstamp 0088d107-13d8-496c-8da6-7bbeb9d096b0))
  (gr_line (start 164.338 96.266) (end 153.67 96.266)
    (stroke (width 0.05) (type solid)) (layer "Edge.Cuts") (tstamp 6a780180-586a-4241-a52d-dc7a5ffcc966))
  (gr_line (start 153.67 104.902) (end 164.338 104.902)
    (stroke (width 0.05) (type solid)) (layer "Edge.Cuts") (tstamp c201e1b2-fc01-4110-bdaa-a33290468c83))

  (segment (start 156.464 101.219) (end 156.464 102.172) (width 0.4064) (layer "F.Cu") (net 1) (tstamp 67621f9e-0a6a-4778-ad69-04dcf300659c))
  (segment (start 156.464 102.172) (end 155.004 103.632) (width 0.4064) (layer "F.Cu") (net 1) (tstamp 68e09be7-3bbc-4443-a838-209ce20b2bef))
  (segment (start 157.734 102.902) (end 157.004 103.632) (width 0.4064) (layer "F.Cu") (net 2) (tstamp 128e34ce-eee7-477d-b905-a493e98db783))
  (segment (start 157.734 101.719) (end 157.734 102.902) (width 0.4064) (layer "F.Cu") (net 2) (tstamp c801d42e-dd94-493e-bd2f-6c3ddad43f55))
  (segment (start 159.004 101.219) (end 159.004 103.632) (width 0.4064) (layer "F.Cu") (net 3) (tstamp 3172f2e2-18d2-4a80-ae30-5707b3409798))
  (segment (start 160.274 102.902) (end 161.004 103.632) (width 0.4064) (layer "F.Cu") (net 4) (tstamp 712d6a7d-2b62-464f-b745-fd2a6b0187f6))
  (segment (start 160.274 101.719) (end 160.274 102.902) (width 0.4064) (layer "F.Cu") (net 4) (tstamp b3d08afa-f296-4e3b-8825-73b6331d35bf))
  (segment (start 161.544 101.219) (end 161.544 102.311342) (width 0.4064) (layer "F.Cu") (net 5) (tstamp 03d88a85-11fd-47aa-954c-c318bb15294a))
  (segment (start 162.204001 102.832001) (end 163.004 103.632) (width 0.4064) (layer "F.Cu") (net 5) (tstamp 51c4dc0a-5b9f-4edf-a83f-4a12881e42ef))
  (segment (start 161.544 102.311342) (end 162.064659 102.832001) (width 0.4064) (layer "F.Cu") (net 5) (tstamp 842e430f-0c35-45f3-a0b5-95ae7b7ae388))
  (segment (start 162.064659 102.832001) (end 162.204001 102.832001) (width 0.4064) (layer "F.Cu") (net 5) (tstamp 98e81e80-1f85-4152-be3f-99785ea97751))
  (segment (start 156.464 99.949) (end 156.464 98.996) (width 0.4064) (layer "F.Cu") (net 6) (tstamp 0dcdf1b8-13c6-48b4-bd94-5d26038ff231))
  (segment (start 156.464 98.996) (end 155.004 97.536) (width 0.4064) (layer "F.Cu") (net 6) (tstamp 1a2f72d1-0b36-4610-afc4-4ad1660d5d3b))
  (segment (start 157.734 99.949) (end 157.734 98.266) (width 0.4064) (layer "F.Cu") (net 7) (tstamp 58dc14f9-c158-4824-a84e-24a6a482a7a4))
  (segment (start 157.734 98.266) (end 157.004 97.536) (width 0.4064) (layer "F.Cu") (net 7) (tstamp dde3dba8-1b81-466c-93a3-c284ff4da1ef))
  (segment (start 159.004 99.949) (end 159.004 97.536) (width 0.4064) (layer "F.Cu") (net 8) (tstamp f976e2cc-36f9-4479-a816-2c74d1d5da6f))
  (segment (start 160.274 99.449) (end 160.274 98.266) (width 0.4064) (layer "F.Cu") (net 9) (tstamp 13475e15-f37c-4de8-857e-1722b0c39513))
  (segment (start 160.274 98.266) (end 161.004 97.536) (width 0.4064) (layer "F.Cu") (net 9) (tstamp b635b16e-60bb-4b3e-9fc3-47d34eef8381))
  (segment (start 161.544 98.856658) (end 162.064659 98.335999) (width 0.4064) (layer "F.Cu") (net 10) (tstamp 120a7b0f-ddfd-4447-85c1-35665465acdb))
  (segment (start 162.064659 98.335999) (end 162.204001 98.335999) (width 0.4064) (layer "F.Cu") (net 10) (tstamp 2732632c-4768-42b6-bf7f-14643424019e))
  (segment (start 162.204001 98.335999) (end 163.004 97.536) (width 0.4064) (layer "F.Cu") (net 10) (tstamp 854dd5d4-5fd2-4730-bd49-a9cd8299a065))
  (segment (start 161.544 99.949) (end 161.544 98.856658) (width 0.4064) (layer "F.Cu") (net 10) (tstamp 8d55e186-3e11-40e8-a65e-b36a8a00069e))

)
