(kicad_sch (version 20230121) (generator eeschema)

  (uuid 08402209-d3fd-42d4-8065-6a77e812c43c)

  (paper "A4")

  (lib_symbols
    (symbol "Connector_Audio:AudioJack2_SwitchT" (in_bom yes) (on_board yes)
      (property "Reference" "J" (at 0 8.89 0)
        (effects (font (size 1.27 1.27)))
      )
      (property "Value" "AudioJack2_SwitchT" (at 0 6.35 0)
        (effects (font (size 1.27 1.27)))
      )
      (property "Footprint" "" (at 0 0 0)
        (effects (font (size 1.27 1.27)) hide)
      )
      (property "Datasheet" "~" (at 0 0 0)
        (effects (font (size 1.27 1.27)) hide)
      )
      (property "ki_keywords" "audio jack receptacle mono headphones phone TS connector" (at 0 0 0)
        (effects (font (size 1.27 1.27)) hide)
      )
      (property "ki_description" "Audio Jack, 2 Poles (Mono / TS), Switched T Pole (Normalling)" (at 0 0 0)
        (effects (font (size 1.27 1.27)) hide)
      )
      (property "ki_fp_filters" "Jack*" (at 0 0 0)
        (effects (font (size 1.27 1.27)) hide)
      )
      (symbol "AudioJack2_SwitchT_0_1"
        (rectangle (start -2.54 0) (end -3.81 -2.54)
          (stroke (width 0.254) (type default))
          (fill (type outline))
        )
        (polyline
          (pts
            (xy 1.778 -0.254)
            (xy 2.032 -0.762)
          )
          (stroke (width 0) (type default))
          (fill (type none))
        )
        (polyline
          (pts
            (xy 0 0)
            (xy 0.635 -0.635)
            (xy 1.27 0)
            (xy 2.54 0)
          )
          (stroke (width 0.254) (type default))
          (fill (type none))
        )
        (polyline
          (pts
            (xy 2.54 -2.54)
            (xy 1.778 -2.54)
            (xy 1.778 -0.254)
            (xy 1.524 -0.762)
          )
          (stroke (width 0) (type default))
          (fill (type none))
        )
        (polyline
          (pts
            (xy 2.54 2.54)
            (xy -0.635 2.54)
            (xy -0.635 0)
            (xy -1.27 -0.635)
            (xy -1.905 0)
          )
          (stroke (width 0.254) (type default))
          (fill (type none))
        )
        (rectangle (start 2.54 3.81) (end -2.54 -5.08)
          (stroke (width 0.254) (type default))
          (fill (type background))
        )
      )
      (symbol "AudioJack2_SwitchT_1_1"
        (pin passive line (at 5.08 2.54 180) (length 2.54)
          (name "~" (effects (font (size 1.27 1.27))))
          (number "S" (effects (font (size 1.27 1.27))))
        )
        (pin passive line (at 5.08 0 180) (length 2.54)
          (name "~" (effects (font (size 1.27 1.27))))
          (number "T" (effects (font (size 1.27 1.27))))
        )
        (pin passive line (at 5.08 -2.54 180) (length 2.54)
          (name "~" (effects (font (size 1.27 1.27))))
          (number "TN" (effects (font (size 1.27 1.27))))
        )
      )
    )
    (symbol "Connector_Generic:Conn_01x01" (pin_names (offset 1.016) hide) (in_bom yes) (on_board yes)
      (property "Reference" "J" (at 0 2.54 0)
        (effects (font (size 1.27 1.27)))
      )
      (property "Value" "Conn_01x01" (at 0 -2.54 0)
        (effects (font (size 1.27 1.27)))
      )
      (property "Footprint" "" (at 0 0 0)
        (effects (font (size 1.27 1.27)) hide)
      )
      (property "Datasheet" "~" (at 0 0 0)
        (effects (font (size 1.27 1.27)) hide)
      )
      (property "ki_keywords" "connector" (at 0 0 0)
        (effects (font (size 1.27 1.27)) hide)
      )
      (property "ki_description" "Generic connector, single row, 01x01, script generated (kicad-library-utils/schlib/autogen/connector/)" (at 0 0 0)
        (effects (font (size 1.27 1.27)) hide)
      )
      (property "ki_fp_filters" "Connector*:*_1x??_*" (at 0 0 0)
        (effects (font (size 1.27 1.27)) hide)
      )
      (symbol "Conn_01x01_1_1"
        (rectangle (start -1.27 0.127) (end 0 -0.127)
          (stroke (width 0.1524) (type default))
          (fill (type none))
        )
        (rectangle (start -1.27 1.27) (end 1.27 -1.27)
          (stroke (width 0.254) (type default))
          (fill (type background))
        )
        (pin passive line (at -5.08 0 0) (length 3.81)
          (name "Pin_1" (effects (font (size 1.27 1.27))))
          (number "1" (effects (font (size 1.27 1.27))))
        )
      )
    )
  )



  (wire (pts (xy 57.15 22.86) (xy 59.69 22.86))
    (stroke (width 0) (type default))
    (uuid 0d5d9f74-b463-4bb4-8ddc-413fd5b5f4ec)
  )
  (wire (pts (xy 33.02 21.59) (xy 30.48 21.59))
    (stroke (width 0) (type default))
    (uuid 44379e43-70bc-44cc-8b1f-be3c3281a877)
  )
  (wire (pts (xy 57.15 27.94) (xy 59.69 27.94))
    (stroke (width 0) (type default))
    (uuid a1dee912-7d18-47d7-ad53-74522f2a5395)
  )
  (wire (pts (xy 33.02 29.21) (xy 30.48 29.21))
    (stroke (width 0) (type default))
    (uuid c4ed1f25-8011-4f17-b9b7-a4903f46d522)
  )
  (wire (pts (xy 33.02 25.4) (xy 30.48 25.4))
    (stroke (width 0) (type default))
    (uuid e7d3f1c4-6e5e-41aa-b1e2-f28895627899)
  )
  (wire (pts (xy 57.15 25.4) (xy 59.69 25.4))
    (stroke (width 0) (type default))
    (uuid f75e7a61-ab39-42c7-b1d2-8fa776ed27d2)
  )

  (label "TN" (at 33.02 29.21 0) (fields_autoplaced)
    (effects (font (size 1.27 1.27)) (justify left bottom))
    (uuid 2e6a6c31-65d5-4f9a-863a-986202c19bc2)
  )
  (label "T" (at 33.02 25.4 0) (fields_autoplaced)
    (effects (font (size 1.27 1.27)) (justify left bottom))
    (uuid 4c114985-cde9-43a3-bedd-7466dfc7ba52)
  )
  (label "S" (at 33.02 21.59 0) (fields_autoplaced)
    (effects (font (size 1.27 1.27)) (justify left bottom))
    (uuid 4c6183b2-1531-4fe4-9639-f33f16838668)
  )
  (label "TN" (at 59.69 27.94 0) (fields_autoplaced)
    (effects (font (size 1.27 1.27)) (justify left bottom))
    (uuid 51c37ad9-917f-49f1-bef8-d1a178a14e24)
  )
  (label "T" (at 59.69 25.4 0) (fields_autoplaced)
    (effects (font (size 1.27 1.27)) (justify left bottom))
    (uuid 533ef5b9-ee4c-4b44-95a9-da85e8b6fee6)
  )
  (label "S" (at 59.69 22.86 0) (fields_autoplaced)
    (effects (font (size 1.27 1.27)) (justify left bottom))
    (uuid 602cf043-73ac-46c3-849c-f3c49cdc3332)
  )

  (symbol (lib_id "Connector_Generic:Conn_01x01") (at 25.4 25.4 0) (mirror y) (unit 1)
    (in_bom yes) (on_board yes) (dnp no)
    (uuid 21aebbca-77b7-4716-9e34-729899f8b713)
    (property "Reference" "J2" (at 21.59 25.4 0)
      (effects (font (size 1.27 1.27)))
    )
    (property "Value" "T" (at 17.78 25.4 0)
      (effects (font (size 1.27 1.27)))
    )
    (property "Footprint" "TestPoint:TestPoint_THTPad_2.0x2.0mm_Drill1.0mm" (at 25.4 25.4 0)
      (effects (font (size 1.27 1.27)) hide)
    )
    (property "Datasheet" "~" (at 25.4 25.4 0)
      (effects (font (size 1.27 1.27)) hide)
    )
    (pin "1" (uuid 324a11d3-435f-4dac-9eda-0bf37e36a9e4))
    (instances
      (project "helper-jack"
        (path "/08402209-d3fd-42d4-8065-6a77e812c43c"
          (reference "J2") (unit 1)
        )
      )
    )
  )

  (symbol (lib_id "Connector_Generic:Conn_01x01") (at 25.4 21.59 0) (mirror y) (unit 1)
    (in_bom yes) (on_board yes) (dnp no)
    (uuid 584dd6f4-b2b6-4752-a0db-43c61228b55e)
    (property "Reference" "J1" (at 21.59 21.59 0)
      (effects (font (size 1.27 1.27)))
    )
    (property "Value" "S" (at 17.78 21.59 0)
      (effects (font (size 1.27 1.27)))
    )
    (property "Footprint" "TestPoint:TestPoint_THTPad_2.0x2.0mm_Drill1.0mm" (at 25.4 21.59 0)
      (effects (font (size 1.27 1.27)) hide)
    )
    (property "Datasheet" "~" (at 25.4 21.59 0)
      (effects (font (size 1.27 1.27)) hide)
    )
    (pin "1" (uuid a9099b8e-83d3-42a9-8fc6-6ccc4acfec5a))
    (instances
      (project "helper-jack"
        (path "/08402209-d3fd-42d4-8065-6a77e812c43c"
          (reference "J1") (unit 1)
        )
      )
    )
  )

  (symbol (lib_id "Connector_Audio:AudioJack2_SwitchT") (at 52.07 25.4 0) (unit 1)
    (in_bom yes) (on_board yes) (dnp no)
    (uuid 70b8744a-7f56-4a6d-a71a-1de076f49081)
    (property "Reference" "J4" (at 52.07 16.51 0)
      (effects (font (size 1.27 1.27)))
    )
    (property "Value" "WQP518MA-BM_Combined" (at 52.07 19.05 0)
      (effects (font (size 1.27 1.27)))
    )
    (property "Footprint" "Protorack:QingPu_WQP-WQP518MA-BM_Combined" (at 52.07 25.4 0)
      (effects (font (size 1.27 1.27)) hide)
    )
    (property "Datasheet" "~" (at 52.07 25.4 0)
      (effects (font (size 1.27 1.27)) hide)
    )
    (pin "S" (uuid e462b99b-dc16-4632-9277-f42cc1c75e32))
    (pin "T" (uuid d9389f84-cc8b-46ce-9bf9-2f7fd6b103c4))
    (pin "TN" (uuid 5467a1d8-1da8-4db6-8370-a392f817657d))
    (instances
      (project "helper-jack"
        (path "/08402209-d3fd-42d4-8065-6a77e812c43c"
          (reference "J4") (unit 1)
        )
      )
    )
  )

  (symbol (lib_id "Connector_Generic:Conn_01x01") (at 25.4 29.21 0) (mirror y) (unit 1)
    (in_bom yes) (on_board yes) (dnp no)
    (uuid 8aff7831-39c5-43f8-b21c-3814575054d2)
    (property "Reference" "J3" (at 21.59 29.21 0)
      (effects (font (size 1.27 1.27)))
    )
    (property "Value" "TN" (at 17.78 29.21 0)
      (effects (font (size 1.27 1.27)))
    )
    (property "Footprint" "TestPoint:TestPoint_THTPad_2.0x2.0mm_Drill1.0mm" (at 25.4 29.21 0)
      (effects (font (size 1.27 1.27)) hide)
    )
    (property "Datasheet" "~" (at 25.4 29.21 0)
      (effects (font (size 1.27 1.27)) hide)
    )
    (pin "1" (uuid 990d3c3a-03d1-4ef2-bc13-f2c8a748e2a1))
    (instances
      (project "helper-jack"
        (path "/08402209-d3fd-42d4-8065-6a77e812c43c"
          (reference "J3") (unit 1)
        )
      )
    )
  )

  (sheet_instances
    (path "/" (page "1"))
  )
)
