(kicad_sch (version 20230121) (generator eeschema)

  (uuid f19f656c-601f-4b16-ab3b-643b19f85cc1)

  (paper "A4")

  (lib_symbols
    (symbol "Device:D_Small" (pin_numbers hide) (pin_names (offset 0.254) hide) (in_bom yes) (on_board yes)
      (property "Reference" "D" (at -1.27 2.032 0)
        (effects (font (size 1.27 1.27)) (justify left))
      )
      (property "Value" "D_Small" (at -3.81 -2.032 0)
        (effects (font (size 1.27 1.27)) (justify left))
      )
      (property "Footprint" "" (at 0 0 90)
        (effects (font (size 1.27 1.27)) hide)
      )
      (property "Datasheet" "~" (at 0 0 90)
        (effects (font (size 1.27 1.27)) hide)
      )
      (property "Sim.Device" "D" (at 0 0 0)
        (effects (font (size 1.27 1.27)) hide)
      )
      (property "Sim.Pins" "1=K 2=A" (at 0 0 0)
        (effects (font (size 1.27 1.27)) hide)
      )
      (property "ki_keywords" "diode" (at 0 0 0)
        (effects (font (size 1.27 1.27)) hide)
      )
      (property "ki_description" "Diode, small symbol" (at 0 0 0)
        (effects (font (size 1.27 1.27)) hide)
      )
      (property "ki_fp_filters" "TO-???* *_Diode_* *SingleDiode* D_*" (at 0 0 0)
        (effects (font (size 1.27 1.27)) hide)
      )
      (symbol "D_Small_0_1"
        (polyline
          (pts
            (xy -0.762 -1.016)
            (xy -0.762 1.016)
          )
          (stroke (width 0.254) (type default))
          (fill (type none))
        )
        (polyline
          (pts
            (xy -0.762 0)
            (xy 0.762 0)
          )
          (stroke (width 0) (type default))
          (fill (type none))
        )
        (polyline
          (pts
            (xy 0.762 -1.016)
            (xy -0.762 0)
            (xy 0.762 1.016)
            (xy 0.762 -1.016)
          )
          (stroke (width 0.254) (type default))
          (fill (type none))
        )
      )
      (symbol "D_Small_1_1"
        (pin passive line (at -2.54 0 0) (length 1.778)
          (name "K" (effects (font (size 1.27 1.27))))
          (number "1" (effects (font (size 1.27 1.27))))
        )
        (pin passive line (at 2.54 0 180) (length 1.778)
          (name "A" (effects (font (size 1.27 1.27))))
          (number "2" (effects (font (size 1.27 1.27))))
        )
      )
    )
    (symbol "Switch:SW_Push" (pin_numbers hide) (pin_names (offset 1.016) hide) (in_bom yes) (on_board yes)
      (property "Reference" "SW" (at 1.27 2.54 0)
        (effects (font (size 1.27 1.27)) (justify left))
      )
      (property "Value" "SW_Push" (at 0 -1.524 0)
        (effects (font (size 1.27 1.27)))
      )
      (property "Footprint" "" (at 0 5.08 0)
        (effects (font (size 1.27 1.27)) hide)
      )
      (property "Datasheet" "~" (at 0 5.08 0)
        (effects (font (size 1.27 1.27)) hide)
      )
      (property "ki_keywords" "switch normally-open pushbutton push-button" (at 0 0 0)
        (effects (font (size 1.27 1.27)) hide)
      )
      (property "ki_description" "Push button switch, generic, two pins" (at 0 0 0)
        (effects (font (size 1.27 1.27)) hide)
      )
      (symbol "SW_Push_0_1"
        (circle (center -2.032 0) (radius 0.508)
          (stroke (width 0) (type default))
          (fill (type none))
        )
        (polyline
          (pts
            (xy 0 1.27)
            (xy 0 3.048)
          )
          (stroke (width 0) (type default))
          (fill (type none))
        )
        (polyline
          (pts
            (xy 2.54 1.27)
            (xy -2.54 1.27)
          )
          (stroke (width 0) (type default))
          (fill (type none))
        )
        (circle (center 2.032 0) (radius 0.508)
          (stroke (width 0) (type default))
          (fill (type none))
        )
        (pin passive line (at -5.08 0 0) (length 2.54)
          (name "1" (effects (font (size 1.27 1.27))))
          (number "1" (effects (font (size 1.27 1.27))))
        )
        (pin passive line (at 5.08 0 180) (length 2.54)
          (name "2" (effects (font (size 1.27 1.27))))
          (number "2" (effects (font (size 1.27 1.27))))
        )
      )
    )
  )

  (junction (at 195.58 80.01) (diameter 0) (color 0 0 0 0)
    (uuid 118641e0-8cd8-40cf-848e-ec515f8e7811)
  )
  (junction (at 172.72 80.01) (diameter 0) (color 0 0 0 0)
    (uuid 13a0cd78-6860-41d9-96a4-e2b3c1645c31)
  )
  (junction (at 158.75 90.17) (diameter 0) (color 0 0 0 0)
    (uuid 1948377d-dd9d-44c3-9dbe-2987554f8d8a)
  )
  (junction (at 115.57 67.31) (diameter 0) (color 0 0 0 0)
    (uuid 2bbfd077-5518-4882-b9bb-d165ba1863a5)
  )
  (junction (at 151.13 80.01) (diameter 0) (color 0 0 0 0)
    (uuid 4333c735-e8fd-41d5-83a5-6ced9cc34a66)
  )
  (junction (at 137.16 67.31) (diameter 0) (color 0 0 0 0)
    (uuid 4b2c3afb-309f-41ed-9963-cc7cd651ea7d)
  )
  (junction (at 151.13 104.14) (diameter 0) (color 0 0 0 0)
    (uuid 4ca25761-6f14-4c51-b180-98bd159b1051)
  )
  (junction (at 195.58 104.14) (diameter 0) (color 0 0 0 0)
    (uuid 4d2b2732-1dd0-4b2e-9bcf-1e8354106b38)
  )
  (junction (at 129.54 80.01) (diameter 0) (color 0 0 0 0)
    (uuid 5f15ef38-cd9c-44b2-90ea-937558441ea6)
  )
  (junction (at 195.58 57.15) (diameter 0) (color 0 0 0 0)
    (uuid 61e065c1-3096-4fe3-8327-ef57aba8dd38)
  )
  (junction (at 93.98 67.31) (diameter 0) (color 0 0 0 0)
    (uuid 6e6d01e8-fbbb-4bfa-b88b-15e5b91b8a87)
  )
  (junction (at 158.75 114.3) (diameter 0) (color 0 0 0 0)
    (uuid 71c4c031-fe03-4119-a321-b6e14871699d)
  )
  (junction (at 107.95 57.15) (diameter 0) (color 0 0 0 0)
    (uuid 7a671514-6a4b-41f8-8f0e-b043ba069a7b)
  )
  (junction (at 137.16 90.17) (diameter 0) (color 0 0 0 0)
    (uuid 813ed22b-44be-4c86-a04a-b1c0518ba596)
  )
  (junction (at 137.16 114.3) (diameter 0) (color 0 0 0 0)
    (uuid 94b8f892-bb32-4e96-bbaa-42f1aa7ff32d)
  )
  (junction (at 115.57 114.3) (diameter 0) (color 0 0 0 0)
    (uuid 97ae00b7-c03b-4e27-ba46-4866c2a0537f)
  )
  (junction (at 151.13 57.15) (diameter 0) (color 0 0 0 0)
    (uuid 9bf518c6-b22d-4760-90d7-638b85a59e32)
  )
  (junction (at 137.16 138.43) (diameter 0) (color 0 0 0 0)
    (uuid a41a7e48-29ca-4c9d-b245-b011747ca711)
  )
  (junction (at 158.75 67.31) (diameter 0) (color 0 0 0 0)
    (uuid a453f5a1-44ee-439a-9eaf-4f55db8f1f26)
  )
  (junction (at 172.72 57.15) (diameter 0) (color 0 0 0 0)
    (uuid a8d7e222-a8ad-46cd-a756-609d78ce26e6)
  )
  (junction (at 93.98 114.3) (diameter 0) (color 0 0 0 0)
    (uuid b573aadc-b1aa-4c68-88ad-b135ef7a1a98)
  )
  (junction (at 129.54 57.15) (diameter 0) (color 0 0 0 0)
    (uuid b84c58dd-83b8-473a-9bdb-1f589d33ab6e)
  )
  (junction (at 115.57 90.17) (diameter 0) (color 0 0 0 0)
    (uuid ec0287ea-4b8b-40d5-ae7e-5b079eb72c52)
  )

  (wire (pts (xy 158.75 67.31) (xy 181.61 67.31))
    (stroke (width 0) (type default))
    (uuid 0408dc57-c074-4b1a-adc3-d699e364a07c)
  )
  (wire (pts (xy 137.16 138.43) (xy 181.61 138.43))
    (stroke (width 0) (type default))
    (uuid 05580b88-95d8-4dea-8261-39e7569926cd)
  )
  (wire (pts (xy 191.77 57.15) (xy 195.58 57.15))
    (stroke (width 0) (type default))
    (uuid 08b9810e-f1df-402f-914b-60ca9c1f2c7f)
  )
  (wire (pts (xy 115.57 104.14) (xy 115.57 106.68))
    (stroke (width 0) (type default))
    (uuid 098a4fc6-7161-4067-a26a-9ffef6dc1fcb)
  )
  (wire (pts (xy 107.95 43.18) (xy 107.95 57.15))
    (stroke (width 0) (type default))
    (uuid 0b494e3b-9dba-4d28-86a2-4059e3f177f6)
  )
  (wire (pts (xy 115.57 57.15) (xy 115.57 59.69))
    (stroke (width 0) (type default))
    (uuid 10f32b7d-e27f-4f8b-83ce-8e82990ba95c)
  )
  (wire (pts (xy 181.61 128.27) (xy 181.61 130.81))
    (stroke (width 0) (type default))
    (uuid 11415fb8-2730-4a77-8566-70e2d6c7a008)
  )
  (wire (pts (xy 172.72 43.18) (xy 172.72 57.15))
    (stroke (width 0) (type default))
    (uuid 1414b009-b9d2-471d-85b4-6ecb8a88171b)
  )
  (wire (pts (xy 151.13 104.14) (xy 151.13 128.27))
    (stroke (width 0) (type default))
    (uuid 1ca5d3d8-98a3-4bfd-901f-ea8b3be08ad9)
  )
  (wire (pts (xy 115.57 111.76) (xy 115.57 114.3))
    (stroke (width 0) (type default))
    (uuid 1cc2d112-3d0f-4bf0-acd6-97c6c8f7b4a5)
  )
  (wire (pts (xy 115.57 114.3) (xy 137.16 114.3))
    (stroke (width 0) (type default))
    (uuid 1f50c17f-8c83-4840-b910-b60f06b04d98)
  )
  (wire (pts (xy 181.61 80.01) (xy 181.61 82.55))
    (stroke (width 0) (type default))
    (uuid 2a59e42a-015c-4be2-a77c-e85baf053a29)
  )
  (wire (pts (xy 195.58 80.01) (xy 195.58 104.14))
    (stroke (width 0) (type default))
    (uuid 2d371895-8eb8-4b41-95bf-3bb500b93252)
  )
  (wire (pts (xy 195.58 43.18) (xy 195.58 57.15))
    (stroke (width 0) (type default))
    (uuid 2e2da6a9-82cc-45d9-9c85-d5521bfac83d)
  )
  (wire (pts (xy 195.58 57.15) (xy 195.58 80.01))
    (stroke (width 0) (type default))
    (uuid 2f54ec70-fdaa-4757-93ab-ec1f29d62571)
  )
  (wire (pts (xy 158.75 64.77) (xy 158.75 67.31))
    (stroke (width 0) (type default))
    (uuid 30a7ae74-0ad7-491c-aac9-590d9be24120)
  )
  (wire (pts (xy 158.75 111.76) (xy 158.75 114.3))
    (stroke (width 0) (type default))
    (uuid 31183e83-22b0-4fc2-b9d9-e326c8f88a18)
  )
  (wire (pts (xy 147.32 128.27) (xy 151.13 128.27))
    (stroke (width 0) (type default))
    (uuid 3472a3bf-f930-4e0b-aec7-bf3e3a1d2cd5)
  )
  (wire (pts (xy 181.61 64.77) (xy 181.61 67.31))
    (stroke (width 0) (type default))
    (uuid 36ddd507-7f47-440d-9cb7-42cedf83a88c)
  )
  (wire (pts (xy 129.54 80.01) (xy 129.54 104.14))
    (stroke (width 0) (type default))
    (uuid 37bda396-dc2a-4627-9a11-e584231c96a6)
  )
  (wire (pts (xy 181.61 104.14) (xy 181.61 106.68))
    (stroke (width 0) (type default))
    (uuid 3b7fbc61-7a29-4215-b597-9db89b26b78b)
  )
  (wire (pts (xy 88.9 138.43) (xy 137.16 138.43))
    (stroke (width 0) (type default))
    (uuid 3d97a293-6e25-46b3-9934-07c36d04ff63)
  )
  (wire (pts (xy 115.57 87.63) (xy 115.57 90.17))
    (stroke (width 0) (type default))
    (uuid 42662282-cd8c-49dd-bb80-153ac169af8f)
  )
  (wire (pts (xy 181.61 87.63) (xy 181.61 90.17))
    (stroke (width 0) (type default))
    (uuid 42af43ca-1db8-461f-b091-36277095c80d)
  )
  (wire (pts (xy 115.57 90.17) (xy 137.16 90.17))
    (stroke (width 0) (type default))
    (uuid 451ac0ad-98e0-4b81-ae5b-9c058e8e7fbb)
  )
  (wire (pts (xy 115.57 80.01) (xy 115.57 82.55))
    (stroke (width 0) (type default))
    (uuid 48deea39-994e-4ca1-abe0-378fe0f965d6)
  )
  (wire (pts (xy 172.72 57.15) (xy 172.72 80.01))
    (stroke (width 0) (type default))
    (uuid 4f4b737f-99d3-41d1-b1c4-5b7fb26b5feb)
  )
  (wire (pts (xy 191.77 128.27) (xy 195.58 128.27))
    (stroke (width 0) (type default))
    (uuid 50db2633-8fd7-467e-86dd-a076e11ebd48)
  )
  (wire (pts (xy 151.13 57.15) (xy 151.13 80.01))
    (stroke (width 0) (type default))
    (uuid 516a2de1-b56f-4f0b-9a71-ac96b0b25c80)
  )
  (wire (pts (xy 93.98 114.3) (xy 115.57 114.3))
    (stroke (width 0) (type default))
    (uuid 54d8f00d-4321-4cd5-9e0d-f9eb6b190988)
  )
  (wire (pts (xy 168.91 104.14) (xy 172.72 104.14))
    (stroke (width 0) (type default))
    (uuid 58823d3a-d033-4352-b2a4-56b189a4e813)
  )
  (wire (pts (xy 147.32 80.01) (xy 151.13 80.01))
    (stroke (width 0) (type default))
    (uuid 594b0171-abd6-4cd3-bcf0-ed717f20dc14)
  )
  (wire (pts (xy 93.98 64.77) (xy 93.98 67.31))
    (stroke (width 0) (type default))
    (uuid 5b55df58-f3ba-4f73-8a5e-10265994fb95)
  )
  (wire (pts (xy 137.16 114.3) (xy 158.75 114.3))
    (stroke (width 0) (type default))
    (uuid 62d41642-22b6-463a-b639-dbb3b7c604d0)
  )
  (wire (pts (xy 158.75 80.01) (xy 158.75 82.55))
    (stroke (width 0) (type default))
    (uuid 645276f3-cea3-458e-ad36-95f7f6ad986f)
  )
  (wire (pts (xy 115.57 67.31) (xy 137.16 67.31))
    (stroke (width 0) (type default))
    (uuid 680c8dfd-6b66-4fd0-8325-ebedb1d60e73)
  )
  (wire (pts (xy 195.58 104.14) (xy 191.77 104.14))
    (stroke (width 0) (type default))
    (uuid 692e7965-66e7-4843-ace5-4d30da204ebd)
  )
  (wire (pts (xy 137.16 57.15) (xy 137.16 59.69))
    (stroke (width 0) (type default))
    (uuid 71bbd61c-61d7-47fc-8a66-12fe065e472f)
  )
  (wire (pts (xy 158.75 57.15) (xy 158.75 59.69))
    (stroke (width 0) (type default))
    (uuid 78a7dd84-8b3b-4207-9713-6c78b1aab71b)
  )
  (wire (pts (xy 137.16 64.77) (xy 137.16 67.31))
    (stroke (width 0) (type default))
    (uuid 7b751648-1c9d-452f-b07e-64c6b64f9e11)
  )
  (wire (pts (xy 125.73 104.14) (xy 129.54 104.14))
    (stroke (width 0) (type default))
    (uuid 800c58a9-0586-4de9-afa5-2b3353a12bc9)
  )
  (wire (pts (xy 137.16 104.14) (xy 137.16 106.68))
    (stroke (width 0) (type default))
    (uuid 8028e734-88bd-4de0-a81f-4fa8939fea22)
  )
  (wire (pts (xy 151.13 43.18) (xy 151.13 57.15))
    (stroke (width 0) (type default))
    (uuid 81e04ecb-a3be-49e5-87fc-e5947d0dffe4)
  )
  (wire (pts (xy 168.91 80.01) (xy 172.72 80.01))
    (stroke (width 0) (type default))
    (uuid 84ce6eef-50e6-4f54-951b-bf58d018c2c8)
  )
  (wire (pts (xy 147.32 57.15) (xy 151.13 57.15))
    (stroke (width 0) (type default))
    (uuid 885ebe87-bbb7-4db5-8fb5-8ebf3191fc83)
  )
  (wire (pts (xy 147.32 104.14) (xy 151.13 104.14))
    (stroke (width 0) (type default))
    (uuid 8d099923-8a24-4122-b082-74e724ca70e2)
  )
  (wire (pts (xy 137.16 67.31) (xy 158.75 67.31))
    (stroke (width 0) (type default))
    (uuid 977652ee-a236-4dc9-931d-def947d6a6de)
  )
  (wire (pts (xy 181.61 57.15) (xy 181.61 59.69))
    (stroke (width 0) (type default))
    (uuid 9d0cb7c7-c341-40f2-80da-3ba472d5e683)
  )
  (wire (pts (xy 88.9 67.31) (xy 93.98 67.31))
    (stroke (width 0) (type default))
    (uuid 9fadd233-8362-4fae-ad39-85a6384afab5)
  )
  (wire (pts (xy 151.13 80.01) (xy 151.13 104.14))
    (stroke (width 0) (type default))
    (uuid a13361d8-aa04-476e-a4fb-be4a5258bac7)
  )
  (wire (pts (xy 168.91 57.15) (xy 172.72 57.15))
    (stroke (width 0) (type default))
    (uuid a69e461a-2064-4751-9409-9154f5e3eb58)
  )
  (wire (pts (xy 88.9 114.3) (xy 93.98 114.3))
    (stroke (width 0) (type default))
    (uuid a99051bf-7647-4b17-9c14-91c2cf4df217)
  )
  (wire (pts (xy 137.16 87.63) (xy 137.16 90.17))
    (stroke (width 0) (type default))
    (uuid b39d6316-3d25-41a3-bffd-e3ad04696329)
  )
  (wire (pts (xy 137.16 111.76) (xy 137.16 114.3))
    (stroke (width 0) (type default))
    (uuid b92a266c-65ad-40cd-a792-8fa0b6db5621)
  )
  (wire (pts (xy 137.16 135.89) (xy 137.16 138.43))
    (stroke (width 0) (type default))
    (uuid bb5fc03b-5a14-4fd1-b8be-0663458cb549)
  )
  (wire (pts (xy 93.98 111.76) (xy 93.98 114.3))
    (stroke (width 0) (type default))
    (uuid c1752ad7-f90a-48e1-ad4d-e8b479b53191)
  )
  (wire (pts (xy 93.98 67.31) (xy 115.57 67.31))
    (stroke (width 0) (type default))
    (uuid caeb030a-a93d-4154-84f7-b66168920187)
  )
  (wire (pts (xy 88.9 90.17) (xy 115.57 90.17))
    (stroke (width 0) (type default))
    (uuid d4aa3027-de1a-4fcd-a328-861c0e743ff9)
  )
  (wire (pts (xy 158.75 90.17) (xy 181.61 90.17))
    (stroke (width 0) (type default))
    (uuid d5b07f2f-d1d5-4259-a4de-4b1bb8211b1c)
  )
  (wire (pts (xy 172.72 80.01) (xy 172.72 104.14))
    (stroke (width 0) (type default))
    (uuid d903fe26-e638-4a3a-9476-7247df9d90d5)
  )
  (wire (pts (xy 191.77 80.01) (xy 195.58 80.01))
    (stroke (width 0) (type default))
    (uuid d9a07053-78a3-41b7-9325-d63aa13147a5)
  )
  (wire (pts (xy 158.75 104.14) (xy 158.75 106.68))
    (stroke (width 0) (type default))
    (uuid da2f7a96-9758-4cac-be76-59b0693cb384)
  )
  (wire (pts (xy 93.98 104.14) (xy 93.98 106.68))
    (stroke (width 0) (type default))
    (uuid de6f44fa-3f4a-4fc3-bcbc-7f7bbed04bc9)
  )
  (wire (pts (xy 115.57 64.77) (xy 115.57 67.31))
    (stroke (width 0) (type default))
    (uuid dfb7caa0-faf3-4a8e-a891-6c25f7cc42a1)
  )
  (wire (pts (xy 158.75 114.3) (xy 181.61 114.3))
    (stroke (width 0) (type default))
    (uuid e05b5d74-e7c6-402f-a475-0182fac4c1dd)
  )
  (wire (pts (xy 137.16 80.01) (xy 137.16 82.55))
    (stroke (width 0) (type default))
    (uuid e1fcb0a4-cc41-4bc4-960c-9b2f106a30e2)
  )
  (wire (pts (xy 181.61 111.76) (xy 181.61 114.3))
    (stroke (width 0) (type default))
    (uuid e5b8055e-2107-4829-b137-4e01c3abf025)
  )
  (wire (pts (xy 93.98 57.15) (xy 93.98 59.69))
    (stroke (width 0) (type default))
    (uuid e6a16b49-4f27-4c6f-99ee-e065b996a5aa)
  )
  (wire (pts (xy 137.16 128.27) (xy 137.16 130.81))
    (stroke (width 0) (type default))
    (uuid ea56a0bc-35d0-4ef6-a806-9ded603a66ff)
  )
  (wire (pts (xy 104.14 104.14) (xy 107.95 104.14))
    (stroke (width 0) (type default))
    (uuid eeafdd7a-47b4-4925-a3db-e56615f7e2e1)
  )
  (wire (pts (xy 129.54 57.15) (xy 129.54 80.01))
    (stroke (width 0) (type default))
    (uuid ef017f6f-9d85-4ba0-93a0-72dad4f48cb6)
  )
  (wire (pts (xy 158.75 87.63) (xy 158.75 90.17))
    (stroke (width 0) (type default))
    (uuid f0853619-f038-4c22-a993-f10a19119c33)
  )
  (wire (pts (xy 129.54 43.18) (xy 129.54 57.15))
    (stroke (width 0) (type default))
    (uuid f0a07fd4-1c40-4771-960d-742ce20d414e)
  )
  (wire (pts (xy 125.73 80.01) (xy 129.54 80.01))
    (stroke (width 0) (type default))
    (uuid f1c272b7-698a-4156-a948-4a4f3a60ba25)
  )
  (wire (pts (xy 137.16 90.17) (xy 158.75 90.17))
    (stroke (width 0) (type default))
    (uuid f678d8cb-ee8a-4636-9915-c567e8b9a09d)
  )
  (wire (pts (xy 107.95 57.15) (xy 107.95 104.14))
    (stroke (width 0) (type default))
    (uuid f8a7df19-9f3d-4d38-84cc-885bd77cb962)
  )
  (wire (pts (xy 104.14 57.15) (xy 107.95 57.15))
    (stroke (width 0) (type default))
    (uuid f8f24155-0b9d-4662-9f6a-45628df7c42b)
  )
  (wire (pts (xy 195.58 104.14) (xy 195.58 128.27))
    (stroke (width 0) (type default))
    (uuid fbbc2b97-69f1-425f-aa7a-ee9677ec5043)
  )
  (wire (pts (xy 181.61 135.89) (xy 181.61 138.43))
    (stroke (width 0) (type default))
    (uuid fe8510ba-6168-4ac9-b5c0-5e71c3ab7e59)
  )
  (wire (pts (xy 125.73 57.15) (xy 129.54 57.15))
    (stroke (width 0) (type default))
    (uuid ff79a5aa-2aef-4b9c-86df-0e1614442747)
  )

  (global_label "COL0" (shape input) (at 107.95 43.18 90) (fields_autoplaced)
    (effects (font (size 1.27 1.27)) (justify left))
    (uuid 1728084e-d3a7-46d2-b15c-d8a6194f75d5)
    (property "Intersheetrefs" "${INTERSHEET_REFS}" (at 107.95 35.3567 90)
      (effects (font (size 1.27 1.27)) (justify left) hide)
    )
  )
  (global_label "COL2" (shape input) (at 151.13 43.18 90) (fields_autoplaced)
    (effects (font (size 1.27 1.27)) (justify left))
    (uuid 25286876-30b9-4b54-8bbb-49a52f54d762)
    (property "Intersheetrefs" "${INTERSHEET_REFS}" (at 151.13 35.3567 90)
      (effects (font (size 1.27 1.27)) (justify left) hide)
    )
  )
  (global_label "ROW0" (shape input) (at 88.9 67.31 180) (fields_autoplaced)
    (effects (font (size 1.27 1.27)) (justify right))
    (uuid 81fb2241-5f86-4a0e-817d-b52ad349d862)
    (property "Intersheetrefs" "${INTERSHEET_REFS}" (at 80.6534 67.31 0)
      (effects (font (size 1.27 1.27)) (justify right) hide)
    )
  )
  (global_label "COL1" (shape input) (at 129.54 43.18 90) (fields_autoplaced)
    (effects (font (size 1.27 1.27)) (justify left))
    (uuid 83196f8b-32c5-4566-a9d0-09bdda3c4892)
    (property "Intersheetrefs" "${INTERSHEET_REFS}" (at 129.54 35.3567 90)
      (effects (font (size 1.27 1.27)) (justify left) hide)
    )
  )
  (global_label "COL3" (shape input) (at 172.72 43.18 90) (fields_autoplaced)
    (effects (font (size 1.27 1.27)) (justify left))
    (uuid 83349876-219e-4e36-a5a2-057403aa21ad)
    (property "Intersheetrefs" "${INTERSHEET_REFS}" (at 172.72 35.3567 90)
      (effects (font (size 1.27 1.27)) (justify left) hide)
    )
  )
  (global_label "ROW1" (shape input) (at 88.9 90.17 180) (fields_autoplaced)
    (effects (font (size 1.27 1.27)) (justify right))
    (uuid 9ebd471a-860b-4cdf-9f16-5d44beef38e4)
    (property "Intersheetrefs" "${INTERSHEET_REFS}" (at 80.6534 90.17 0)
      (effects (font (size 1.27 1.27)) (justify right) hide)
    )
  )
  (global_label "ROW2" (shape input) (at 88.9 114.3 180) (fields_autoplaced)
    (effects (font (size 1.27 1.27)) (justify right))
    (uuid 9f42c73b-0c79-43df-a086-857452a80d68)
    (property "Intersheetrefs" "${INTERSHEET_REFS}" (at 80.6534 114.3 0)
      (effects (font (size 1.27 1.27)) (justify right) hide)
    )
  )
  (global_label "ROW3" (shape input) (at 88.9 138.43 180) (fields_autoplaced)
    (effects (font (size 1.27 1.27)) (justify right))
    (uuid bf874d02-f4a7-43c9-86c5-6b05abb27a5c)
    (property "Intersheetrefs" "${INTERSHEET_REFS}" (at 80.6534 138.43 0)
      (effects (font (size 1.27 1.27)) (justify right) hide)
    )
  )
  (global_label "COL4" (shape input) (at 195.58 43.18 90) (fields_autoplaced)
    (effects (font (size 1.27 1.27)) (justify left))
    (uuid e3a3962a-44ed-4dd9-80dd-3bab2323074f)
    (property "Intersheetrefs" "${INTERSHEET_REFS}" (at 195.58 35.3567 90)
      (effects (font (size 1.27 1.27)) (justify left) hide)
    )
  )

  (symbol (lib_id "Switch:SW_Push") (at 120.65 104.14 0) (unit 1)
    (in_bom yes) (on_board yes) (dnp no) (fields_autoplaced)
    (uuid 007013ef-b352-4073-8ddf-729e95d16eb2)
    (property "Reference" "SW11" (at 120.65 96.52 0)
      (effects (font (size 1.27 1.27)))
    )
    (property "Value" "SW_Push" (at 120.65 99.06 0)
      (effects (font (size 1.27 1.27)))
    )
    (property "Footprint" "key-switches:SW_Gateron_LowProfile_THT" (at 120.65 99.06 0)
      (effects (font (size 1.27 1.27)) hide)
    )
    (property "Datasheet" "~" (at 120.65 99.06 0)
      (effects (font (size 1.27 1.27)) hide)
    )
    (property "JLCPCB BOM" "0" (at 120.65 104.14 0)
      (effects (font (size 1.27 1.27)) hide)
    )
    (pin "1" (uuid 0ddfdc1c-f162-4647-9074-605c4c38a624))
    (pin "2" (uuid a4144164-f001-455d-82e0-2a59eef9906a))
    (instances
      (project "Mathboard"
        (path "/51b4aa36-e8ca-479e-8f43-790046bf63bb/1a85666e-71d9-469b-9a4e-884605e4300e"
          (reference "SW11") (unit 1)
        )
      )
    )
  )

  (symbol (lib_id "Switch:SW_Push") (at 120.65 57.15 0) (unit 1)
    (in_bom yes) (on_board yes) (dnp no) (fields_autoplaced)
    (uuid 03040bb3-cc7d-478f-bda4-cd26e5c30c93)
    (property "Reference" "SW2" (at 120.65 49.53 0)
      (effects (font (size 1.27 1.27)))
    )
    (property "Value" "SW_Push" (at 120.65 52.07 0)
      (effects (font (size 1.27 1.27)))
    )
    (property "Footprint" "key-switches:SW_Gateron_LowProfile_THT" (at 120.65 52.07 0)
      (effects (font (size 1.27 1.27)) hide)
    )
    (property "Datasheet" "~" (at 120.65 52.07 0)
      (effects (font (size 1.27 1.27)) hide)
    )
    (property "JLCPCB BOM" "0" (at 120.65 57.15 0)
      (effects (font (size 1.27 1.27)) hide)
    )
    (pin "1" (uuid b5e2a590-98b5-4679-8669-6ab900d159ad))
    (pin "2" (uuid 5fa2ab2a-520c-4b08-a71f-51a088ed62b2))
    (instances
      (project "Mathboard"
        (path "/51b4aa36-e8ca-479e-8f43-790046bf63bb/1a85666e-71d9-469b-9a4e-884605e4300e"
          (reference "SW2") (unit 1)
        )
      )
    )
  )

  (symbol (lib_id "Device:D_Small") (at 137.16 109.22 90) (unit 1)
    (in_bom yes) (on_board yes) (dnp no) (fields_autoplaced)
    (uuid 1088d81f-ed7e-4159-a4e0-46d5e5f0f64b)
    (property "Reference" "D12" (at 139.7 107.95 90)
      (effects (font (size 1.27 1.27)) (justify right))
    )
    (property "Value" "1N4148W" (at 139.7 110.49 90)
      (effects (font (size 1.27 1.27)) (justify right))
    )
    (property "Footprint" "Diode_SMD:D_SOD-123" (at 137.16 109.22 90)
      (effects (font (size 1.27 1.27)) hide)
    )
    (property "Datasheet" "https://datasheet.lcsc.com/lcsc/2308281515_hongjiacheng-1N4148W_C7420318.pdf" (at 137.16 109.22 90)
      (effects (font (size 1.27 1.27)) hide)
    )
    (property "Sim.Device" "D" (at 137.16 109.22 0)
      (effects (font (size 1.27 1.27)) hide)
    )
    (property "Sim.Pins" "1=K 2=A" (at 137.16 109.22 0)
      (effects (font (size 1.27 1.27)) hide)
    )
    (property "LCSC" "C81598" (at 137.16 109.22 0)
      (effects (font (size 1.27 1.27)) hide)
    )
    (pin "1" (uuid de556a82-6561-452d-a9a8-0187c1f6b5fa))
    (pin "2" (uuid 7bc14a5d-d62a-47b1-8880-212f3444c359))
    (instances
      (project "Mathboard"
        (path "/51b4aa36-e8ca-479e-8f43-790046bf63bb/1a85666e-71d9-469b-9a4e-884605e4300e"
          (reference "D12") (unit 1)
        )
      )
    )
  )

  (symbol (lib_id "Device:D_Small") (at 181.61 62.23 90) (unit 1)
    (in_bom yes) (on_board yes) (dnp no) (fields_autoplaced)
    (uuid 1151a6d1-81f9-4af2-af98-f278d5040a8e)
    (property "Reference" "D5" (at 184.15 60.96 90)
      (effects (font (size 1.27 1.27)) (justify right))
    )
    (property "Value" "1N4148W" (at 184.15 63.5 90)
      (effects (font (size 1.27 1.27)) (justify right))
    )
    (property "Footprint" "Diode_SMD:D_SOD-123" (at 181.61 62.23 90)
      (effects (font (size 1.27 1.27)) hide)
    )
    (property "Datasheet" "https://datasheet.lcsc.com/lcsc/2308281515_hongjiacheng-1N4148W_C7420318.pdf" (at 181.61 62.23 90)
      (effects (font (size 1.27 1.27)) hide)
    )
    (property "Sim.Device" "D" (at 181.61 62.23 0)
      (effects (font (size 1.27 1.27)) hide)
    )
    (property "Sim.Pins" "1=K 2=A" (at 181.61 62.23 0)
      (effects (font (size 1.27 1.27)) hide)
    )
    (property "LCSC" "C81598" (at 181.61 62.23 0)
      (effects (font (size 1.27 1.27)) hide)
    )
    (pin "1" (uuid 9be68449-3cf0-4834-841d-2871367e7507))
    (pin "2" (uuid ef240c68-cea5-47e1-9642-fd6d1257e3cb))
    (instances
      (project "Mathboard"
        (path "/51b4aa36-e8ca-479e-8f43-790046bf63bb/1a85666e-71d9-469b-9a4e-884605e4300e"
          (reference "D5") (unit 1)
        )
      )
    )
  )

  (symbol (lib_id "Device:D_Small") (at 137.16 133.35 90) (unit 1)
    (in_bom yes) (on_board yes) (dnp no) (fields_autoplaced)
    (uuid 1366b87e-a4f2-4e8c-b542-0a0e042160b8)
    (property "Reference" "D15" (at 139.7 132.08 90)
      (effects (font (size 1.27 1.27)) (justify right))
    )
    (property "Value" "1N4148W" (at 139.7 134.62 90)
      (effects (font (size 1.27 1.27)) (justify right))
    )
    (property "Footprint" "Diode_SMD:D_SOD-123" (at 137.16 133.35 90)
      (effects (font (size 1.27 1.27)) hide)
    )
    (property "Datasheet" "https://datasheet.lcsc.com/lcsc/2308281515_hongjiacheng-1N4148W_C7420318.pdf" (at 137.16 133.35 90)
      (effects (font (size 1.27 1.27)) hide)
    )
    (property "Sim.Device" "D" (at 137.16 133.35 0)
      (effects (font (size 1.27 1.27)) hide)
    )
    (property "Sim.Pins" "1=K 2=A" (at 137.16 133.35 0)
      (effects (font (size 1.27 1.27)) hide)
    )
    (property "LCSC" "C81598" (at 137.16 133.35 0)
      (effects (font (size 1.27 1.27)) hide)
    )
    (pin "1" (uuid 0317255f-60aa-4921-87bb-ddececa898b1))
    (pin "2" (uuid aa06d4f9-d75c-4ded-aa77-113475ecafc9))
    (instances
      (project "Mathboard"
        (path "/51b4aa36-e8ca-479e-8f43-790046bf63bb/1a85666e-71d9-469b-9a4e-884605e4300e"
          (reference "D15") (unit 1)
        )
      )
    )
  )

  (symbol (lib_id "Device:D_Small") (at 137.16 62.23 90) (unit 1)
    (in_bom yes) (on_board yes) (dnp no) (fields_autoplaced)
    (uuid 1752f6d2-99e5-4a5a-9220-0dd795ccfacd)
    (property "Reference" "D3" (at 139.7 60.96 90)
      (effects (font (size 1.27 1.27)) (justify right))
    )
    (property "Value" "1N4148W" (at 139.7 63.5 90)
      (effects (font (size 1.27 1.27)) (justify right))
    )
    (property "Footprint" "Diode_SMD:D_SOD-123" (at 137.16 62.23 90)
      (effects (font (size 1.27 1.27)) hide)
    )
    (property "Datasheet" "https://datasheet.lcsc.com/lcsc/2308281515_hongjiacheng-1N4148W_C7420318.pdf" (at 137.16 62.23 90)
      (effects (font (size 1.27 1.27)) hide)
    )
    (property "Sim.Device" "D" (at 137.16 62.23 0)
      (effects (font (size 1.27 1.27)) hide)
    )
    (property "Sim.Pins" "1=K 2=A" (at 137.16 62.23 0)
      (effects (font (size 1.27 1.27)) hide)
    )
    (property "LCSC" "C81598" (at 137.16 62.23 0)
      (effects (font (size 1.27 1.27)) hide)
    )
    (pin "1" (uuid 4282085f-b425-4956-b470-288bee6da257))
    (pin "2" (uuid 90b88318-70f5-48e9-a90a-2410eaa7c2cd))
    (instances
      (project "Mathboard"
        (path "/51b4aa36-e8ca-479e-8f43-790046bf63bb/1a85666e-71d9-469b-9a4e-884605e4300e"
          (reference "D3") (unit 1)
        )
      )
    )
  )

  (symbol (lib_id "Switch:SW_Push") (at 163.83 104.14 0) (unit 1)
    (in_bom yes) (on_board yes) (dnp no) (fields_autoplaced)
    (uuid 21e5b944-cbf0-411d-b38c-5e3ca05311bf)
    (property "Reference" "SW13" (at 163.83 96.52 0)
      (effects (font (size 1.27 1.27)))
    )
    (property "Value" "SW_Push" (at 163.83 99.06 0)
      (effects (font (size 1.27 1.27)))
    )
    (property "Footprint" "key-switches:SW_Gateron_LowProfile_THT" (at 163.83 99.06 0)
      (effects (font (size 1.27 1.27)) hide)
    )
    (property "Datasheet" "~" (at 163.83 99.06 0)
      (effects (font (size 1.27 1.27)) hide)
    )
    (property "JLCPCB BOM" "0" (at 163.83 104.14 0)
      (effects (font (size 1.27 1.27)) hide)
    )
    (pin "1" (uuid 6a715547-8add-4974-8bef-ddb34f8d0b2c))
    (pin "2" (uuid 1d06a499-c8c8-455d-8030-8a9d5d14f125))
    (instances
      (project "Mathboard"
        (path "/51b4aa36-e8ca-479e-8f43-790046bf63bb/1a85666e-71d9-469b-9a4e-884605e4300e"
          (reference "SW13") (unit 1)
        )
      )
    )
  )

  (symbol (lib_id "Device:D_Small") (at 93.98 62.23 90) (unit 1)
    (in_bom yes) (on_board yes) (dnp no) (fields_autoplaced)
    (uuid 4bb334a4-8232-468d-a7ca-e0d090b7728b)
    (property "Reference" "D1" (at 96.52 60.96 90)
      (effects (font (size 1.27 1.27)) (justify right))
    )
    (property "Value" "1N4148W" (at 96.52 63.5 90)
      (effects (font (size 1.27 1.27)) (justify right))
    )
    (property "Footprint" "Diode_SMD:D_SOD-123" (at 93.98 62.23 90)
      (effects (font (size 1.27 1.27)) hide)
    )
    (property "Datasheet" "https://datasheet.lcsc.com/lcsc/2308281515_hongjiacheng-1N4148W_C7420318.pdf" (at 93.98 62.23 90)
      (effects (font (size 1.27 1.27)) hide)
    )
    (property "Sim.Device" "D" (at 93.98 62.23 0)
      (effects (font (size 1.27 1.27)) hide)
    )
    (property "Sim.Pins" "1=K 2=A" (at 93.98 62.23 0)
      (effects (font (size 1.27 1.27)) hide)
    )
    (property "LCSC" "C81598" (at 93.98 62.23 0)
      (effects (font (size 1.27 1.27)) hide)
    )
    (pin "1" (uuid eaadd054-143f-4c83-b277-d16352bd4c07))
    (pin "2" (uuid 9312c76e-f0d1-4f19-8645-f7bb7fe90972))
    (instances
      (project "Mathboard"
        (path "/51b4aa36-e8ca-479e-8f43-790046bf63bb/1a85666e-71d9-469b-9a4e-884605e4300e"
          (reference "D1") (unit 1)
        )
      )
    )
  )

  (symbol (lib_id "Switch:SW_Push") (at 186.69 104.14 0) (unit 1)
    (in_bom yes) (on_board yes) (dnp no) (fields_autoplaced)
    (uuid 4fe13c86-2188-42ee-abff-7ba9e3f26d53)
    (property "Reference" "SW14" (at 186.69 96.52 0)
      (effects (font (size 1.27 1.27)))
    )
    (property "Value" "SW_Push" (at 186.69 99.06 0)
      (effects (font (size 1.27 1.27)))
    )
    (property "Footprint" "key-switches:SW_Gateron_LowProfile_THT" (at 186.69 99.06 0)
      (effects (font (size 1.27 1.27)) hide)
    )
    (property "Datasheet" "~" (at 186.69 99.06 0)
      (effects (font (size 1.27 1.27)) hide)
    )
    (property "JLCPCB BOM" "0" (at 186.69 104.14 0)
      (effects (font (size 1.27 1.27)) hide)
    )
    (pin "1" (uuid 4914daa4-2059-411a-bee0-c044c575420d))
    (pin "2" (uuid 6449ffc0-82f1-45b8-9abe-185b3df962a6))
    (instances
      (project "Mathboard"
        (path "/51b4aa36-e8ca-479e-8f43-790046bf63bb/1a85666e-71d9-469b-9a4e-884605e4300e"
          (reference "SW14") (unit 1)
        )
      )
    )
  )

  (symbol (lib_id "Switch:SW_Push") (at 163.83 80.01 0) (unit 1)
    (in_bom yes) (on_board yes) (dnp no) (fields_autoplaced)
    (uuid 5af280c1-f0c0-4702-a91d-bbac63209854)
    (property "Reference" "SW8" (at 163.83 72.39 0)
      (effects (font (size 1.27 1.27)))
    )
    (property "Value" "SW_Push" (at 163.83 74.93 0)
      (effects (font (size 1.27 1.27)))
    )
    (property "Footprint" "key-switches:SW_Gateron_LowProfile_THT" (at 163.83 74.93 0)
      (effects (font (size 1.27 1.27)) hide)
    )
    (property "Datasheet" "~" (at 163.83 74.93 0)
      (effects (font (size 1.27 1.27)) hide)
    )
    (property "JLCPCB BOM" "0" (at 163.83 80.01 0)
      (effects (font (size 1.27 1.27)) hide)
    )
    (pin "1" (uuid 89163385-6c19-4e95-9ee1-fd113625eb71))
    (pin "2" (uuid b1858f05-5c08-4127-82c3-515a11f3bd57))
    (instances
      (project "Mathboard"
        (path "/51b4aa36-e8ca-479e-8f43-790046bf63bb/1a85666e-71d9-469b-9a4e-884605e4300e"
          (reference "SW8") (unit 1)
        )
      )
    )
  )

  (symbol (lib_id "Device:D_Small") (at 158.75 85.09 90) (unit 1)
    (in_bom yes) (on_board yes) (dnp no) (fields_autoplaced)
    (uuid 5b16f910-70f9-4898-a2d7-7050ebd368ed)
    (property "Reference" "D8" (at 161.29 83.82 90)
      (effects (font (size 1.27 1.27)) (justify right))
    )
    (property "Value" "1N4148W" (at 161.29 86.36 90)
      (effects (font (size 1.27 1.27)) (justify right))
    )
    (property "Footprint" "Diode_SMD:D_SOD-123" (at 158.75 85.09 90)
      (effects (font (size 1.27 1.27)) hide)
    )
    (property "Datasheet" "https://datasheet.lcsc.com/lcsc/2308281515_hongjiacheng-1N4148W_C7420318.pdf" (at 158.75 85.09 90)
      (effects (font (size 1.27 1.27)) hide)
    )
    (property "Sim.Device" "D" (at 158.75 85.09 0)
      (effects (font (size 1.27 1.27)) hide)
    )
    (property "Sim.Pins" "1=K 2=A" (at 158.75 85.09 0)
      (effects (font (size 1.27 1.27)) hide)
    )
    (property "LCSC" "C81598" (at 158.75 85.09 0)
      (effects (font (size 1.27 1.27)) hide)
    )
    (pin "1" (uuid 1f4c41d1-2c18-4eb6-a09e-5912a17ae557))
    (pin "2" (uuid 0990d975-ecdf-4f9c-9233-d8016bb39bbc))
    (instances
      (project "Mathboard"
        (path "/51b4aa36-e8ca-479e-8f43-790046bf63bb/1a85666e-71d9-469b-9a4e-884605e4300e"
          (reference "D8") (unit 1)
        )
      )
    )
  )

  (symbol (lib_id "Device:D_Small") (at 137.16 85.09 90) (unit 1)
    (in_bom yes) (on_board yes) (dnp no) (fields_autoplaced)
    (uuid 5dbd5117-4b25-48c9-86d8-3d67fcca67b2)
    (property "Reference" "D7" (at 139.7 83.82 90)
      (effects (font (size 1.27 1.27)) (justify right))
    )
    (property "Value" "1N4148W" (at 139.7 86.36 90)
      (effects (font (size 1.27 1.27)) (justify right))
    )
    (property "Footprint" "Diode_SMD:D_SOD-123" (at 137.16 85.09 90)
      (effects (font (size 1.27 1.27)) hide)
    )
    (property "Datasheet" "https://datasheet.lcsc.com/lcsc/2308281515_hongjiacheng-1N4148W_C7420318.pdf" (at 137.16 85.09 90)
      (effects (font (size 1.27 1.27)) hide)
    )
    (property "Sim.Device" "D" (at 137.16 85.09 0)
      (effects (font (size 1.27 1.27)) hide)
    )
    (property "Sim.Pins" "1=K 2=A" (at 137.16 85.09 0)
      (effects (font (size 1.27 1.27)) hide)
    )
    (property "LCSC" "C81598" (at 137.16 85.09 0)
      (effects (font (size 1.27 1.27)) hide)
    )
    (pin "1" (uuid ad114c65-42cf-4582-9ba5-099079e27e03))
    (pin "2" (uuid f8f01857-907b-4b24-9b93-0f68a6bfd0d9))
    (instances
      (project "Mathboard"
        (path "/51b4aa36-e8ca-479e-8f43-790046bf63bb/1a85666e-71d9-469b-9a4e-884605e4300e"
          (reference "D7") (unit 1)
        )
      )
    )
  )

  (symbol (lib_id "Switch:SW_Push") (at 99.06 104.14 0) (unit 1)
    (in_bom yes) (on_board yes) (dnp no) (fields_autoplaced)
    (uuid 5e9c37ae-45ef-4fc9-b4aa-8500faff29ca)
    (property "Reference" "SW10" (at 99.06 96.52 0)
      (effects (font (size 1.27 1.27)))
    )
    (property "Value" "SW_Push" (at 99.06 99.06 0)
      (effects (font (size 1.27 1.27)))
    )
    (property "Footprint" "key-switches:SW_Gateron_LowProfile_THT" (at 99.06 99.06 0)
      (effects (font (size 1.27 1.27)) hide)
    )
    (property "Datasheet" "~" (at 99.06 99.06 0)
      (effects (font (size 1.27 1.27)) hide)
    )
    (property "JLCPCB BOM" "0" (at 99.06 104.14 0)
      (effects (font (size 1.27 1.27)) hide)
    )
    (pin "1" (uuid 37c3c377-6327-476d-9a6b-e306c1961142))
    (pin "2" (uuid 50a6ea0d-fa6a-4943-902f-4afaf236ed82))
    (instances
      (project "Mathboard"
        (path "/51b4aa36-e8ca-479e-8f43-790046bf63bb/1a85666e-71d9-469b-9a4e-884605e4300e"
          (reference "SW10") (unit 1)
        )
      )
    )
  )

  (symbol (lib_id "Device:D_Small") (at 181.61 133.35 90) (unit 1)
    (in_bom yes) (on_board yes) (dnp no) (fields_autoplaced)
    (uuid 7653a9f5-27c8-4a97-a563-379536e056c9)
    (property "Reference" "D16" (at 184.15 132.08 90)
      (effects (font (size 1.27 1.27)) (justify right))
    )
    (property "Value" "1N4148W" (at 184.15 134.62 90)
      (effects (font (size 1.27 1.27)) (justify right))
    )
    (property "Footprint" "Diode_SMD:D_SOD-123" (at 181.61 133.35 90)
      (effects (font (size 1.27 1.27)) hide)
    )
    (property "Datasheet" "https://datasheet.lcsc.com/lcsc/2308281515_hongjiacheng-1N4148W_C7420318.pdf" (at 181.61 133.35 90)
      (effects (font (size 1.27 1.27)) hide)
    )
    (property "Sim.Device" "D" (at 181.61 133.35 0)
      (effects (font (size 1.27 1.27)) hide)
    )
    (property "Sim.Pins" "1=K 2=A" (at 181.61 133.35 0)
      (effects (font (size 1.27 1.27)) hide)
    )
    (property "LCSC" "C81598" (at 181.61 133.35 0)
      (effects (font (size 1.27 1.27)) hide)
    )
    (pin "1" (uuid 78633028-c932-4ac8-a4b6-eb78bf056e5a))
    (pin "2" (uuid 406fd858-3301-4fd9-9675-10dd9ee0aa45))
    (instances
      (project "Mathboard"
        (path "/51b4aa36-e8ca-479e-8f43-790046bf63bb/1a85666e-71d9-469b-9a4e-884605e4300e"
          (reference "D16") (unit 1)
        )
      )
    )
  )

  (symbol (lib_id "Device:D_Small") (at 158.75 109.22 90) (unit 1)
    (in_bom yes) (on_board yes) (dnp no) (fields_autoplaced)
    (uuid 76b3fa53-42c0-48f5-bdab-547643bdc6f6)
    (property "Reference" "D13" (at 161.29 107.95 90)
      (effects (font (size 1.27 1.27)) (justify right))
    )
    (property "Value" "1N4148W" (at 161.29 110.49 90)
      (effects (font (size 1.27 1.27)) (justify right))
    )
    (property "Footprint" "Diode_SMD:D_SOD-123" (at 158.75 109.22 90)
      (effects (font (size 1.27 1.27)) hide)
    )
    (property "Datasheet" "https://datasheet.lcsc.com/lcsc/2308281515_hongjiacheng-1N4148W_C7420318.pdf" (at 158.75 109.22 90)
      (effects (font (size 1.27 1.27)) hide)
    )
    (property "Sim.Device" "D" (at 158.75 109.22 0)
      (effects (font (size 1.27 1.27)) hide)
    )
    (property "Sim.Pins" "1=K 2=A" (at 158.75 109.22 0)
      (effects (font (size 1.27 1.27)) hide)
    )
    (property "LCSC" "C81598" (at 158.75 109.22 0)
      (effects (font (size 1.27 1.27)) hide)
    )
    (pin "1" (uuid 7ce4b252-e13d-4bd9-9879-7993e078d1dc))
    (pin "2" (uuid b9be995c-027a-4c74-9f4f-379cd256e239))
    (instances
      (project "Mathboard"
        (path "/51b4aa36-e8ca-479e-8f43-790046bf63bb/1a85666e-71d9-469b-9a4e-884605e4300e"
          (reference "D13") (unit 1)
        )
      )
    )
  )

  (symbol (lib_id "Switch:SW_Push") (at 99.06 57.15 0) (unit 1)
    (in_bom yes) (on_board yes) (dnp no) (fields_autoplaced)
    (uuid a1d00f6f-e631-4936-95f7-a766c2523d20)
    (property "Reference" "SW1" (at 99.06 49.53 0)
      (effects (font (size 1.27 1.27)))
    )
    (property "Value" "SW_Push" (at 99.06 52.07 0)
      (effects (font (size 1.27 1.27)))
    )
    (property "Footprint" "key-switches:SW_Gateron_LowProfile_THT" (at 99.06 52.07 0)
      (effects (font (size 1.27 1.27)) hide)
    )
    (property "Datasheet" "~" (at 99.06 52.07 0)
      (effects (font (size 1.27 1.27)) hide)
    )
    (property "JLCPCB BOM" "0" (at 99.06 57.15 0)
      (effects (font (size 1.27 1.27)) hide)
    )
    (pin "1" (uuid bf2c8494-f735-432a-b54f-9cb18e2f1f57))
    (pin "2" (uuid 683f5c82-930d-4c32-a1b0-7cd01f37bf01))
    (instances
      (project "Mathboard"
        (path "/51b4aa36-e8ca-479e-8f43-790046bf63bb/1a85666e-71d9-469b-9a4e-884605e4300e"
          (reference "SW1") (unit 1)
        )
      )
    )
  )

  (symbol (lib_id "Device:D_Small") (at 181.61 85.09 90) (unit 1)
    (in_bom yes) (on_board yes) (dnp no) (fields_autoplaced)
    (uuid a66fb607-6f39-4029-8c15-1985e99e88e9)
    (property "Reference" "D9" (at 184.15 83.82 90)
      (effects (font (size 1.27 1.27)) (justify right))
    )
    (property "Value" "1N4148W" (at 184.15 86.36 90)
      (effects (font (size 1.27 1.27)) (justify right))
    )
    (property "Footprint" "Diode_SMD:D_SOD-123" (at 181.61 85.09 90)
      (effects (font (size 1.27 1.27)) hide)
    )
    (property "Datasheet" "https://datasheet.lcsc.com/lcsc/2308281515_hongjiacheng-1N4148W_C7420318.pdf" (at 181.61 85.09 90)
      (effects (font (size 1.27 1.27)) hide)
    )
    (property "Sim.Device" "D" (at 181.61 85.09 0)
      (effects (font (size 1.27 1.27)) hide)
    )
    (property "Sim.Pins" "1=K 2=A" (at 181.61 85.09 0)
      (effects (font (size 1.27 1.27)) hide)
    )
    (property "LCSC" "C81598" (at 181.61 85.09 0)
      (effects (font (size 1.27 1.27)) hide)
    )
    (pin "1" (uuid 0b8db675-8bf0-474d-a97d-ffb601c67ad5))
    (pin "2" (uuid 290842a0-4edf-40d4-894a-a1e5aa92efb3))
    (instances
      (project "Mathboard"
        (path "/51b4aa36-e8ca-479e-8f43-790046bf63bb/1a85666e-71d9-469b-9a4e-884605e4300e"
          (reference "D9") (unit 1)
        )
      )
    )
  )

  (symbol (lib_id "Device:D_Small") (at 181.61 109.22 90) (unit 1)
    (in_bom yes) (on_board yes) (dnp no) (fields_autoplaced)
    (uuid abfdced9-827a-4f10-ad74-5d1667908bc1)
    (property "Reference" "D14" (at 184.15 107.95 90)
      (effects (font (size 1.27 1.27)) (justify right))
    )
    (property "Value" "1N4148W" (at 184.15 110.49 90)
      (effects (font (size 1.27 1.27)) (justify right))
    )
    (property "Footprint" "Diode_SMD:D_SOD-123" (at 181.61 109.22 90)
      (effects (font (size 1.27 1.27)) hide)
    )
    (property "Datasheet" "https://datasheet.lcsc.com/lcsc/2308281515_hongjiacheng-1N4148W_C7420318.pdf" (at 181.61 109.22 90)
      (effects (font (size 1.27 1.27)) hide)
    )
    (property "Sim.Device" "D" (at 181.61 109.22 0)
      (effects (font (size 1.27 1.27)) hide)
    )
    (property "Sim.Pins" "1=K 2=A" (at 181.61 109.22 0)
      (effects (font (size 1.27 1.27)) hide)
    )
    (property "LCSC" "C81598" (at 181.61 109.22 0)
      (effects (font (size 1.27 1.27)) hide)
    )
    (pin "1" (uuid e0a126cb-01e1-4f9e-b1c2-0889c29c9e0f))
    (pin "2" (uuid efe05551-0693-4e6e-ac34-6f6eedcb8500))
    (instances
      (project "Mathboard"
        (path "/51b4aa36-e8ca-479e-8f43-790046bf63bb/1a85666e-71d9-469b-9a4e-884605e4300e"
          (reference "D14") (unit 1)
        )
      )
    )
  )

  (symbol (lib_id "Switch:SW_Push") (at 186.69 128.27 0) (unit 1)
    (in_bom yes) (on_board yes) (dnp no) (fields_autoplaced)
    (uuid b079e5bd-a4f1-48e1-b2d0-75401e97d085)
    (property "Reference" "SW16" (at 186.69 120.65 0)
      (effects (font (size 1.27 1.27)))
    )
    (property "Value" "SW_Push" (at 186.69 123.19 0)
      (effects (font (size 1.27 1.27)))
    )
    (property "Footprint" "key-switches:SW_Gateron_LowProfile_THT" (at 186.69 123.19 0)
      (effects (font (size 1.27 1.27)) hide)
    )
    (property "Datasheet" "~" (at 186.69 123.19 0)
      (effects (font (size 1.27 1.27)) hide)
    )
    (property "JLCPCB BOM" "0" (at 186.69 128.27 0)
      (effects (font (size 1.27 1.27)) hide)
    )
    (pin "1" (uuid f2cf3a33-0eda-429f-b844-48f97ad1608b))
    (pin "2" (uuid 12c3265b-a58e-4e24-96fd-b1eca0fd0813))
    (instances
      (project "Mathboard"
        (path "/51b4aa36-e8ca-479e-8f43-790046bf63bb/1a85666e-71d9-469b-9a4e-884605e4300e"
          (reference "SW16") (unit 1)
        )
      )
    )
  )

  (symbol (lib_id "Switch:SW_Push") (at 120.65 80.01 0) (unit 1)
    (in_bom yes) (on_board yes) (dnp no) (fields_autoplaced)
    (uuid be67d070-f86d-40bd-bbe4-d1f314462642)
    (property "Reference" "SW6" (at 120.65 72.39 0)
      (effects (font (size 1.27 1.27)))
    )
    (property "Value" "SW_Push" (at 120.65 74.93 0)
      (effects (font (size 1.27 1.27)))
    )
    (property "Footprint" "key-switches:SW_Gateron_LowProfile_THT" (at 120.65 74.93 0)
      (effects (font (size 1.27 1.27)) hide)
    )
    (property "Datasheet" "~" (at 120.65 74.93 0)
      (effects (font (size 1.27 1.27)) hide)
    )
    (property "JLCPCB BOM" "0" (at 120.65 80.01 0)
      (effects (font (size 1.27 1.27)) hide)
    )
    (pin "1" (uuid 0fe9d4fa-cc8f-4005-9303-fde86229b605))
    (pin "2" (uuid c55514a5-c477-432a-bb95-63e07329b292))
    (instances
      (project "Mathboard"
        (path "/51b4aa36-e8ca-479e-8f43-790046bf63bb/1a85666e-71d9-469b-9a4e-884605e4300e"
          (reference "SW6") (unit 1)
        )
      )
    )
  )

  (symbol (lib_id "Device:D_Small") (at 115.57 85.09 90) (unit 1)
    (in_bom yes) (on_board yes) (dnp no) (fields_autoplaced)
    (uuid c4bf8672-cd59-4af8-a7ec-1b54685ca5ce)
    (property "Reference" "D6" (at 118.11 83.82 90)
      (effects (font (size 1.27 1.27)) (justify right))
    )
    (property "Value" "1N4148W" (at 118.11 86.36 90)
      (effects (font (size 1.27 1.27)) (justify right))
    )
    (property "Footprint" "Diode_SMD:D_SOD-123" (at 115.57 85.09 90)
      (effects (font (size 1.27 1.27)) hide)
    )
    (property "Datasheet" "https://datasheet.lcsc.com/lcsc/2308281515_hongjiacheng-1N4148W_C7420318.pdf" (at 115.57 85.09 90)
      (effects (font (size 1.27 1.27)) hide)
    )
    (property "Sim.Device" "D" (at 115.57 85.09 0)
      (effects (font (size 1.27 1.27)) hide)
    )
    (property "Sim.Pins" "1=K 2=A" (at 115.57 85.09 0)
      (effects (font (size 1.27 1.27)) hide)
    )
    (property "LCSC" "C81598" (at 115.57 85.09 0)
      (effects (font (size 1.27 1.27)) hide)
    )
    (pin "1" (uuid 8bc4f4ec-f592-469f-b7ff-2258a070da82))
    (pin "2" (uuid 097ddadb-dd10-455e-9e31-40b40eab843a))
    (instances
      (project "Mathboard"
        (path "/51b4aa36-e8ca-479e-8f43-790046bf63bb/1a85666e-71d9-469b-9a4e-884605e4300e"
          (reference "D6") (unit 1)
        )
      )
    )
  )

  (symbol (lib_id "Switch:SW_Push") (at 142.24 80.01 0) (unit 1)
    (in_bom yes) (on_board yes) (dnp no) (fields_autoplaced)
    (uuid c6f514b5-c8a0-417e-9f05-37e04ae8f7fe)
    (property "Reference" "SW7" (at 142.24 72.39 0)
      (effects (font (size 1.27 1.27)))
    )
    (property "Value" "SW_Push" (at 142.24 74.93 0)
      (effects (font (size 1.27 1.27)))
    )
    (property "Footprint" "key-switches:SW_Gateron_LowProfile_THT" (at 142.24 74.93 0)
      (effects (font (size 1.27 1.27)) hide)
    )
    (property "Datasheet" "~" (at 142.24 74.93 0)
      (effects (font (size 1.27 1.27)) hide)
    )
    (property "JLCPCB BOM" "0" (at 142.24 80.01 0)
      (effects (font (size 1.27 1.27)) hide)
    )
    (pin "1" (uuid 31365b60-eaf2-4f4a-87a1-3c7ea24ec44f))
    (pin "2" (uuid 45c16bfd-4faf-413d-a613-87f44d635123))
    (instances
      (project "Mathboard"
        (path "/51b4aa36-e8ca-479e-8f43-790046bf63bb/1a85666e-71d9-469b-9a4e-884605e4300e"
          (reference "SW7") (unit 1)
        )
      )
    )
  )

  (symbol (lib_id "Switch:SW_Push") (at 142.24 104.14 0) (unit 1)
    (in_bom yes) (on_board yes) (dnp no) (fields_autoplaced)
    (uuid d2c21856-28d9-4400-93e5-07a89a9814a1)
    (property "Reference" "SW12" (at 142.24 96.52 0)
      (effects (font (size 1.27 1.27)))
    )
    (property "Value" "SW_Push" (at 142.24 99.06 0)
      (effects (font (size 1.27 1.27)))
    )
    (property "Footprint" "key-switches:SW_Gateron_LowProfile_THT" (at 142.24 99.06 0)
      (effects (font (size 1.27 1.27)) hide)
    )
    (property "Datasheet" "~" (at 142.24 99.06 0)
      (effects (font (size 1.27 1.27)) hide)
    )
    (property "JLCPCB BOM" "0" (at 142.24 104.14 0)
      (effects (font (size 1.27 1.27)) hide)
    )
    (pin "1" (uuid 45903f0c-069f-45c0-a531-0ecb5adccd8f))
    (pin "2" (uuid 52fd698d-825e-4e9e-8da0-39830dde9549))
    (instances
      (project "Mathboard"
        (path "/51b4aa36-e8ca-479e-8f43-790046bf63bb/1a85666e-71d9-469b-9a4e-884605e4300e"
          (reference "SW12") (unit 1)
        )
      )
    )
  )

  (symbol (lib_id "Device:D_Small") (at 115.57 109.22 90) (unit 1)
    (in_bom yes) (on_board yes) (dnp no) (fields_autoplaced)
    (uuid dab62274-ffb1-4584-a275-b2c36674ca46)
    (property "Reference" "D11" (at 118.11 107.95 90)
      (effects (font (size 1.27 1.27)) (justify right))
    )
    (property "Value" "1N4148W" (at 118.11 110.49 90)
      (effects (font (size 1.27 1.27)) (justify right))
    )
    (property "Footprint" "Diode_SMD:D_SOD-123" (at 115.57 109.22 90)
      (effects (font (size 1.27 1.27)) hide)
    )
    (property "Datasheet" "https://datasheet.lcsc.com/lcsc/2308281515_hongjiacheng-1N4148W_C7420318.pdf" (at 115.57 109.22 90)
      (effects (font (size 1.27 1.27)) hide)
    )
    (property "Sim.Device" "D" (at 115.57 109.22 0)
      (effects (font (size 1.27 1.27)) hide)
    )
    (property "Sim.Pins" "1=K 2=A" (at 115.57 109.22 0)
      (effects (font (size 1.27 1.27)) hide)
    )
    (property "LCSC" "C81598" (at 115.57 109.22 0)
      (effects (font (size 1.27 1.27)) hide)
    )
    (pin "1" (uuid d8c6d5d0-e618-490f-9763-f00605904fbc))
    (pin "2" (uuid c76fd11a-08e2-4d10-abc5-f5dd365889dc))
    (instances
      (project "Mathboard"
        (path "/51b4aa36-e8ca-479e-8f43-790046bf63bb/1a85666e-71d9-469b-9a4e-884605e4300e"
          (reference "D11") (unit 1)
        )
      )
    )
  )

  (symbol (lib_id "Switch:SW_Push") (at 142.24 128.27 0) (unit 1)
    (in_bom yes) (on_board yes) (dnp no) (fields_autoplaced)
    (uuid dc90e1c6-8a01-4c31-9455-b5784a424ae0)
    (property "Reference" "SW15" (at 142.24 120.65 0)
      (effects (font (size 1.27 1.27)))
    )
    (property "Value" "SW_Push" (at 142.24 123.19 0)
      (effects (font (size 1.27 1.27)))
    )
    (property "Footprint" "key-switches:SW_Gateron_LowProfile_THT" (at 142.24 123.19 0)
      (effects (font (size 1.27 1.27)) hide)
    )
    (property "Datasheet" "~" (at 142.24 123.19 0)
      (effects (font (size 1.27 1.27)) hide)
    )
    (property "JLCPCB BOM" "0" (at 142.24 128.27 0)
      (effects (font (size 1.27 1.27)) hide)
    )
    (pin "1" (uuid ecae7e6f-fbe6-40ec-91ec-9749acdae84a))
    (pin "2" (uuid bff70033-26b5-4619-ae55-431283510bb5))
    (instances
      (project "Mathboard"
        (path "/51b4aa36-e8ca-479e-8f43-790046bf63bb/1a85666e-71d9-469b-9a4e-884605e4300e"
          (reference "SW15") (unit 1)
        )
      )
    )
  )

  (symbol (lib_id "Device:D_Small") (at 115.57 62.23 90) (unit 1)
    (in_bom yes) (on_board yes) (dnp no) (fields_autoplaced)
    (uuid e00d9818-48c1-4a9d-a841-cbcfc88f9dab)
    (property "Reference" "D2" (at 118.11 60.96 90)
      (effects (font (size 1.27 1.27)) (justify right))
    )
    (property "Value" "1N4148W" (at 118.11 63.5 90)
      (effects (font (size 1.27 1.27)) (justify right))
    )
    (property "Footprint" "Diode_SMD:D_SOD-123" (at 115.57 62.23 90)
      (effects (font (size 1.27 1.27)) hide)
    )
    (property "Datasheet" "https://datasheet.lcsc.com/lcsc/2308281515_hongjiacheng-1N4148W_C7420318.pdf" (at 115.57 62.23 90)
      (effects (font (size 1.27 1.27)) hide)
    )
    (property "Sim.Device" "D" (at 115.57 62.23 0)
      (effects (font (size 1.27 1.27)) hide)
    )
    (property "Sim.Pins" "1=K 2=A" (at 115.57 62.23 0)
      (effects (font (size 1.27 1.27)) hide)
    )
    (property "LCSC" "C81598" (at 115.57 62.23 0)
      (effects (font (size 1.27 1.27)) hide)
    )
    (pin "1" (uuid 17e4a102-49f0-47da-a9af-da04ce3c0402))
    (pin "2" (uuid c9c4a9eb-9655-4b5c-acba-4320023e5372))
    (instances
      (project "Mathboard"
        (path "/51b4aa36-e8ca-479e-8f43-790046bf63bb/1a85666e-71d9-469b-9a4e-884605e4300e"
          (reference "D2") (unit 1)
        )
      )
    )
  )

  (symbol (lib_id "Switch:SW_Push") (at 142.24 57.15 0) (unit 1)
    (in_bom yes) (on_board yes) (dnp no) (fields_autoplaced)
    (uuid e0833f0f-c87b-4b4e-a00f-8374718ba41f)
    (property "Reference" "SW3" (at 142.24 49.53 0)
      (effects (font (size 1.27 1.27)))
    )
    (property "Value" "SW_Push" (at 142.24 52.07 0)
      (effects (font (size 1.27 1.27)))
    )
    (property "Footprint" "key-switches:SW_Gateron_LowProfile_THT" (at 142.24 52.07 0)
      (effects (font (size 1.27 1.27)) hide)
    )
    (property "Datasheet" "~" (at 142.24 52.07 0)
      (effects (font (size 1.27 1.27)) hide)
    )
    (property "JLCPCB BOM" "0" (at 142.24 57.15 0)
      (effects (font (size 1.27 1.27)) hide)
    )
    (pin "1" (uuid 005dac35-4cef-4838-9aa2-b2b92d1fb92c))
    (pin "2" (uuid 60fea071-17ae-4fd9-9bf3-78cc787c58af))
    (instances
      (project "Mathboard"
        (path "/51b4aa36-e8ca-479e-8f43-790046bf63bb/1a85666e-71d9-469b-9a4e-884605e4300e"
          (reference "SW3") (unit 1)
        )
      )
    )
  )

  (symbol (lib_id "Device:D_Small") (at 93.98 109.22 90) (unit 1)
    (in_bom yes) (on_board yes) (dnp no) (fields_autoplaced)
    (uuid e9501193-aab4-4bc3-9bcd-a6813cbfe749)
    (property "Reference" "D10" (at 96.52 107.95 90)
      (effects (font (size 1.27 1.27)) (justify right))
    )
    (property "Value" "1N4148W" (at 96.52 110.49 90)
      (effects (font (size 1.27 1.27)) (justify right))
    )
    (property "Footprint" "Diode_SMD:D_SOD-123" (at 93.98 109.22 90)
      (effects (font (size 1.27 1.27)) hide)
    )
    (property "Datasheet" "https://datasheet.lcsc.com/lcsc/2308281515_hongjiacheng-1N4148W_C7420318.pdf" (at 93.98 109.22 90)
      (effects (font (size 1.27 1.27)) hide)
    )
    (property "Sim.Device" "D" (at 93.98 109.22 0)
      (effects (font (size 1.27 1.27)) hide)
    )
    (property "Sim.Pins" "1=K 2=A" (at 93.98 109.22 0)
      (effects (font (size 1.27 1.27)) hide)
    )
    (property "LCSC" "C81598" (at 93.98 109.22 0)
      (effects (font (size 1.27 1.27)) hide)
    )
    (pin "1" (uuid 5f0ec934-be36-4557-893c-1157777973b4))
    (pin "2" (uuid 2def62a3-7b84-4d2b-9354-7687aadc0158))
    (instances
      (project "Mathboard"
        (path "/51b4aa36-e8ca-479e-8f43-790046bf63bb/1a85666e-71d9-469b-9a4e-884605e4300e"
          (reference "D10") (unit 1)
        )
      )
    )
  )

  (symbol (lib_id "Switch:SW_Push") (at 163.83 57.15 0) (unit 1)
    (in_bom no) (on_board yes) (dnp no) (fields_autoplaced)
    (uuid ed31d35d-7e2f-4e10-bf19-04853473b703)
    (property "Reference" "SW4" (at 163.83 49.53 0)
      (effects (font (size 1.27 1.27)))
    )
    (property "Value" "SW_Push" (at 163.83 52.07 0)
      (effects (font (size 1.27 1.27)))
    )
    (property "Footprint" "key-switches:SW_Gateron_LowProfile_THT" (at 163.83 52.07 0)
      (effects (font (size 1.27 1.27)) hide)
    )
    (property "Datasheet" "~" (at 163.83 52.07 0)
      (effects (font (size 1.27 1.27)) hide)
    )
    (property "JLCPCB BOM" "0" (at 163.83 57.15 0)
      (effects (font (size 1.27 1.27)) hide)
    )
    (pin "1" (uuid 26a6c6a8-6434-4ed9-b2fc-f9f339e7e24d))
    (pin "2" (uuid 661288dc-afaf-4952-9e45-49bae55852e1))
    (instances
      (project "Mathboard"
        (path "/51b4aa36-e8ca-479e-8f43-790046bf63bb/1a85666e-71d9-469b-9a4e-884605e4300e"
          (reference "SW4") (unit 1)
        )
      )
    )
  )

  (symbol (lib_id "Switch:SW_Push") (at 186.69 57.15 0) (unit 1)
    (in_bom yes) (on_board yes) (dnp no) (fields_autoplaced)
    (uuid f173dead-089e-4273-9f3e-f9c558b5e574)
    (property "Reference" "SW5" (at 186.69 49.53 0)
      (effects (font (size 1.27 1.27)))
    )
    (property "Value" "SW_Push" (at 186.69 52.07 0)
      (effects (font (size 1.27 1.27)))
    )
    (property "Footprint" "key-switches:SW_Gateron_LowProfile_THT" (at 186.69 52.07 0)
      (effects (font (size 1.27 1.27)) hide)
    )
    (property "Datasheet" "~" (at 186.69 52.07 0)
      (effects (font (size 1.27 1.27)) hide)
    )
    (property "JLCPCB BOM" "0" (at 186.69 57.15 0)
      (effects (font (size 1.27 1.27)) hide)
    )
    (pin "1" (uuid 7e6ecb26-8d74-49b5-9b53-91f76ee9df92))
    (pin "2" (uuid 8ee122e0-df19-439c-b6d9-ecb0f104a229))
    (instances
      (project "Mathboard"
        (path "/51b4aa36-e8ca-479e-8f43-790046bf63bb/1a85666e-71d9-469b-9a4e-884605e4300e"
          (reference "SW5") (unit 1)
        )
      )
    )
  )

  (symbol (lib_id "Device:D_Small") (at 158.75 62.23 90) (unit 1)
    (in_bom yes) (on_board yes) (dnp no) (fields_autoplaced)
    (uuid f3e9a5e5-9145-414b-89d6-e64cf32ce990)
    (property "Reference" "D4" (at 161.29 60.96 90)
      (effects (font (size 1.27 1.27)) (justify right))
    )
    (property "Value" "1N4148W" (at 161.29 63.5 90)
      (effects (font (size 1.27 1.27)) (justify right))
    )
    (property "Footprint" "Diode_SMD:D_SOD-123" (at 158.75 62.23 90)
      (effects (font (size 1.27 1.27)) hide)
    )
    (property "Datasheet" "https://datasheet.lcsc.com/lcsc/2308281515_hongjiacheng-1N4148W_C7420318.pdf" (at 158.75 62.23 90)
      (effects (font (size 1.27 1.27)) hide)
    )
    (property "Sim.Device" "D" (at 158.75 62.23 0)
      (effects (font (size 1.27 1.27)) hide)
    )
    (property "Sim.Pins" "1=K 2=A" (at 158.75 62.23 0)
      (effects (font (size 1.27 1.27)) hide)
    )
    (property "LCSC" "C81598" (at 158.75 62.23 0)
      (effects (font (size 1.27 1.27)) hide)
    )
    (pin "1" (uuid 652bad7f-8129-4b3d-b199-f4edf274e771))
    (pin "2" (uuid 3373876c-6910-4f41-b2eb-741830cea463))
    (instances
      (project "Mathboard"
        (path "/51b4aa36-e8ca-479e-8f43-790046bf63bb/1a85666e-71d9-469b-9a4e-884605e4300e"
          (reference "D4") (unit 1)
        )
      )
    )
  )

  (symbol (lib_id "Switch:SW_Push") (at 186.69 80.01 0) (unit 1)
    (in_bom yes) (on_board yes) (dnp no) (fields_autoplaced)
    (uuid fb49e22f-05e1-459c-8b82-b65492713280)
    (property "Reference" "SW9" (at 186.69 72.39 0)
      (effects (font (size 1.27 1.27)))
    )
    (property "Value" "SW_Push" (at 186.69 74.93 0)
      (effects (font (size 1.27 1.27)))
    )
    (property "Footprint" "key-switches:SW_Gateron_LowProfile_THT" (at 186.69 74.93 0)
      (effects (font (size 1.27 1.27)) hide)
    )
    (property "Datasheet" "~" (at 186.69 74.93 0)
      (effects (font (size 1.27 1.27)) hide)
    )
    (property "JLCPCB BOM" "0" (at 186.69 80.01 0)
      (effects (font (size 1.27 1.27)) hide)
    )
    (pin "1" (uuid a37fcbe7-5ffe-4bfa-b12c-5ec04f3cd753))
    (pin "2" (uuid 8d7177c8-cfc3-46e6-bf0b-e0357f765873))
    (instances
      (project "Mathboard"
        (path "/51b4aa36-e8ca-479e-8f43-790046bf63bb/1a85666e-71d9-469b-9a4e-884605e4300e"
          (reference "SW9") (unit 1)
        )
      )
    )
  )
)
