(kicad_sch (version 20230121) (generator eeschema)

  (uuid 589f6269-e88e-41a7-8100-9f43cb8079f0)

  (paper "A4")

  (lib_symbols
    (symbol "USB_micro_water:USB3505-30-A_REVA4" (pin_names (offset 1.016)) (in_bom yes) (on_board yes)
      (property "Reference" "J" (at -5.08 11.43 0)
        (effects (font (size 1.27 1.27)) (justify left bottom))
      )
      (property "Value" "USB3505-30-A_REVA4" (at -5.08 -12.7 0)
        (effects (font (size 1.27 1.27)) (justify left bottom))
      )
      (property "Footprint" "USB3505-30-A_REVA4:GCT_USB3505-30-A_REVA4" (at 0 0 0)
        (effects (font (size 1.27 1.27)) (justify bottom) hide)
      )
      (property "Datasheet" "" (at 0 0 0)
        (effects (font (size 1.27 1.27)) hide)
      )
      (property "MF" "Global Connector Technology" (at 0 0 0)
        (effects (font (size 1.27 1.27)) (justify bottom) hide)
      )
      (property "MAXIMUM_PACKAGE_HEIGHT" "4.07 mm" (at 0 0 0)
        (effects (font (size 1.27 1.27)) (justify bottom) hide)
      )
      (property "Package" "None" (at 0 0 0)
        (effects (font (size 1.27 1.27)) (justify bottom) hide)
      )
      (property "Price" "None" (at 0 0 0)
        (effects (font (size 1.27 1.27)) (justify bottom) hide)
      )
      (property "Check_prices" "https://www.snapeda.com/parts/USB3505-30-A/Global+Connector+Technology/view-part/?ref=eda" (at 0 0 0)
        (effects (font (size 1.27 1.27)) (justify bottom) hide)
      )
      (property "STANDARD" "Manufacturer Recommendations" (at 0 0 0)
        (effects (font (size 1.27 1.27)) (justify bottom) hide)
      )
      (property "PARTREV" "A4" (at 0 0 0)
        (effects (font (size 1.27 1.27)) (justify bottom) hide)
      )
      (property "SnapEDA_Link" "https://www.snapeda.com/parts/USB3505-30-A/Global+Connector+Technology/view-part/?ref=snap" (at 0 0 0)
        (effects (font (size 1.27 1.27)) (justify bottom) hide)
      )
      (property "MP" "USB3505-30-A" (at 0 0 0)
        (effects (font (size 1.27 1.27)) (justify bottom) hide)
      )
      (property "Description" "\nUSB - micro B USB 2.0 Receptacle Connector 5 Position Board Edge, Cutout; Surface Mount; Through Hole, Right Angle; waterproof and IP67 rated, 4.90mm profile, Horizontal (mated and unmated), top mount\n" (at 0 0 0)
        (effects (font (size 1.27 1.27)) (justify bottom) hide)
      )
      (property "Availability" "In Stock" (at 0 0 0)
        (effects (font (size 1.27 1.27)) (justify bottom) hide)
      )
      (property "MANUFACTURER" "GCT" (at 0 0 0)
        (effects (font (size 1.27 1.27)) (justify bottom) hide)
      )
      (symbol "USB3505-30-A_REVA4_0_0"
        (pin power_in line (at -10.16 7.62 0) (length 5.08)
          (name "VCC" (effects (font (size 1.016 1.016))))
          (number "1" (effects (font (size 1.016 1.016))))
        )
        (pin bidirectional line (at -10.16 5.08 0) (length 5.08)
          (name "D-" (effects (font (size 1.016 1.016))))
          (number "2" (effects (font (size 1.016 1.016))))
        )
        (pin bidirectional line (at -10.16 2.54 0) (length 5.08)
          (name "D+" (effects (font (size 1.016 1.016))))
          (number "3" (effects (font (size 1.016 1.016))))
        )
        (pin bidirectional line (at -10.16 0 0) (length 5.08)
          (name "ID" (effects (font (size 1.016 1.016))))
          (number "4" (effects (font (size 1.016 1.016))))
        )
        (pin power_in line (at -10.16 -2.54 0) (length 5.08)
          (name "GND" (effects (font (size 1.016 1.016))))
          (number "5" (effects (font (size 1.016 1.016))))
        )
        (pin passive line (at -10.16 -7.62 0) (length 5.08)
          (name "SHIELD" (effects (font (size 1.016 1.016))))
          (number "S1" (effects (font (size 1.016 1.016))))
        )
        (pin passive line (at -10.16 -7.62 0) (length 5.08)
          (name "SHIELD" (effects (font (size 1.016 1.016))))
          (number "S2" (effects (font (size 1.016 1.016))))
        )
        (pin passive line (at -10.16 -7.62 0) (length 5.08)
          (name "SHIELD" (effects (font (size 1.016 1.016))))
          (number "S3" (effects (font (size 1.016 1.016))))
        )
        (pin passive line (at -10.16 -7.62 0) (length 5.08)
          (name "SHIELD" (effects (font (size 1.016 1.016))))
          (number "S4" (effects (font (size 1.016 1.016))))
        )
      )
      (symbol "USB3505-30-A_REVA4_1_0"
        (rectangle (start -5.08 10.16) (end 5.08 -10.16)
          (stroke (width 0.254) (type default))
          (fill (type background))
        )
      )
    )
    (symbol "power:GND" (power) (pin_names (offset 0)) (in_bom yes) (on_board yes)
      (property "Reference" "#PWR" (at 0 -6.35 0)
        (effects (font (size 1.27 1.27)) hide)
      )
      (property "Value" "GND" (at 0 -3.81 0)
        (effects (font (size 1.27 1.27)))
      )
      (property "Footprint" "" (at 0 0 0)
        (effects (font (size 1.27 1.27)) hide)
      )
      (property "Datasheet" "" (at 0 0 0)
        (effects (font (size 1.27 1.27)) hide)
      )
      (property "ki_keywords" "global power" (at 0 0 0)
        (effects (font (size 1.27 1.27)) hide)
      )
      (property "ki_description" "Power symbol creates a global label with name \"GND\" , ground" (at 0 0 0)
        (effects (font (size 1.27 1.27)) hide)
      )
      (symbol "GND_0_1"
        (polyline
          (pts
            (xy 0 0)
            (xy 0 -1.27)
            (xy 1.27 -1.27)
            (xy 0 -2.54)
            (xy -1.27 -1.27)
            (xy 0 -1.27)
          )
          (stroke (width 0) (type default))
          (fill (type none))
        )
      )
      (symbol "GND_1_1"
        (pin power_in line (at 0 0 270) (length 0) hide
          (name "GND" (effects (font (size 1.27 1.27))))
          (number "1" (effects (font (size 1.27 1.27))))
        )
      )
    )
    (symbol "power:PWR_FLAG" (power) (pin_numbers hide) (pin_names (offset 0) hide) (in_bom yes) (on_board yes)
      (property "Reference" "#FLG" (at 0 1.905 0)
        (effects (font (size 1.27 1.27)) hide)
      )
      (property "Value" "PWR_FLAG" (at 0 3.81 0)
        (effects (font (size 1.27 1.27)))
      )
      (property "Footprint" "" (at 0 0 0)
        (effects (font (size 1.27 1.27)) hide)
      )
      (property "Datasheet" "~" (at 0 0 0)
        (effects (font (size 1.27 1.27)) hide)
      )
      (property "ki_keywords" "flag power" (at 0 0 0)
        (effects (font (size 1.27 1.27)) hide)
      )
      (property "ki_description" "Special symbol for telling ERC where power comes from" (at 0 0 0)
        (effects (font (size 1.27 1.27)) hide)
      )
      (symbol "PWR_FLAG_0_0"
        (pin power_out line (at 0 0 90) (length 0)
          (name "pwr" (effects (font (size 1.27 1.27))))
          (number "1" (effects (font (size 1.27 1.27))))
        )
      )
      (symbol "PWR_FLAG_0_1"
        (polyline
          (pts
            (xy 0 0)
            (xy 0 1.27)
            (xy -1.016 1.905)
            (xy 0 2.54)
            (xy 1.016 1.905)
            (xy 0 1.27)
          )
          (stroke (width 0) (type default))
          (fill (type none))
        )
      )
    )
  )

  (junction (at 195.58 107.95) (diameter 0) (color 0 0 0 0)
    (uuid 1c745463-3aff-4d8c-98e9-19eb501f2152)
  )
  (junction (at 153.67 66.04) (diameter 0) (color 0 0 0 0)
    (uuid 2c4e9f35-a4ec-4a10-bc9b-0e3bc31f6093)
  )
  (junction (at 161.29 66.04) (diameter 0) (color 0 0 0 0)
    (uuid 610de6b1-05a0-4909-9824-1254c26334de)
  )
  (junction (at 180.34 81.28) (diameter 0) (color 0 0 0 0)
    (uuid f52463b3-8891-406f-8411-6bf021516274)
  )

  (no_connect (at 181.61 73.66) (uuid e9cc321e-53d7-4f27-afdf-101996ca83bf))

  (wire (pts (xy 195.58 107.95) (xy 200.66 107.95))
    (stroke (width 0) (type default))
    (uuid 073ec128-177d-45ff-9e9b-f448138c1447)
  )
  (wire (pts (xy 161.29 66.04) (xy 181.61 66.04))
    (stroke (width 0) (type default))
    (uuid 0f9a87aa-8d47-4489-aa21-15aa35a7870b)
  )
  (wire (pts (xy 180.34 81.28) (xy 180.34 107.95))
    (stroke (width 0) (type default))
    (uuid 343ce8fd-cbd0-4858-b1d3-172e511deb40)
  )
  (wire (pts (xy 153.67 66.04) (xy 161.29 66.04))
    (stroke (width 0) (type default))
    (uuid 3cc3ff80-e818-4200-a978-fa01df5a22e5)
  )
  (wire (pts (xy 180.34 81.28) (xy 181.61 81.28))
    (stroke (width 0) (type default))
    (uuid 630567f5-4cb8-4b5d-8f63-a2eaacad14f2)
  )
  (wire (pts (xy 180.34 76.2) (xy 180.34 81.28))
    (stroke (width 0) (type default))
    (uuid 838d0297-f4ed-447d-8572-a44d335596f4)
  )
  (wire (pts (xy 195.58 107.95) (xy 195.58 111.76))
    (stroke (width 0) (type default))
    (uuid 844a99f7-c0ca-4138-bb46-014c072adf4c)
  )
  (wire (pts (xy 195.58 107.95) (xy 180.34 107.95))
    (stroke (width 0) (type default))
    (uuid 95ae8f3c-9adf-4eb6-af6c-c726e4ccc624)
  )
  (wire (pts (xy 161.29 62.23) (xy 161.29 66.04))
    (stroke (width 0) (type default))
    (uuid 971a6ff3-efd5-459d-a71c-c14dbf185b62)
  )
  (wire (pts (xy 177.8 71.12) (xy 181.61 71.12))
    (stroke (width 0) (type default))
    (uuid a1486617-7cb3-478d-92a1-1abfcbfd70ee)
  )
  (wire (pts (xy 149.86 66.04) (xy 153.67 66.04))
    (stroke (width 0) (type default))
    (uuid b55ef511-61ad-4e58-b636-d01136a501c3)
  )
  (wire (pts (xy 153.67 62.23) (xy 153.67 66.04))
    (stroke (width 0) (type default))
    (uuid b8ec5d7d-a12b-4459-856b-05b626564cc5)
  )
  (wire (pts (xy 181.61 76.2) (xy 180.34 76.2))
    (stroke (width 0) (type default))
    (uuid d88523f9-d691-4b19-b21c-7c444e740c88)
  )
  (wire (pts (xy 177.8 68.58) (xy 181.61 68.58))
    (stroke (width 0) (type default))
    (uuid e1882d48-0d0b-4ab5-ba0e-4be23ecb1c7b)
  )

  (global_label "GND" (shape bidirectional) (at 200.66 107.95 0) (fields_autoplaced)
    (effects (font (size 1.27 1.27)) (justify left))
    (uuid 5566fd2a-bcbf-485f-aeeb-3aea265ba4ed)
    (property "Intersheetrefs" "${INTERSHEET_REFS}" (at 208.627 107.95 0)
      (effects (font (size 1.27 1.27)) (justify left) hide)
    )
  )
  (global_label "5V" (shape bidirectional) (at 153.67 62.23 90) (fields_autoplaced)
    (effects (font (size 1.27 1.27)) (justify left))
    (uuid dacd1e07-49e2-4125-ab04-611b4dad55ab)
    (property "Intersheetrefs" "${INTERSHEET_REFS}" (at 153.67 55.8354 90)
      (effects (font (size 1.27 1.27)) (justify left) hide)
    )
  )

  (hierarchical_label "DATAN" (shape bidirectional) (at 177.8 68.58 180) (fields_autoplaced)
    (effects (font (size 1.27 1.27)) (justify right))
    (uuid a030e2b0-2de3-42b6-92f3-5728e845496f)
  )
  (hierarchical_label "V_5V_USB_C" (shape output) (at 149.86 66.04 180) (fields_autoplaced)
    (effects (font (size 1.27 1.27)) (justify right))
    (uuid a6944792-3b18-4961-a10c-bf90e6a98c0c)
  )
  (hierarchical_label "DATAP" (shape bidirectional) (at 177.8 71.12 180) (fields_autoplaced)
    (effects (font (size 1.27 1.27)) (justify right))
    (uuid df4e9731-d12a-4a28-8ae3-5bb8f9c44fec)
  )

  (symbol (lib_id "power:PWR_FLAG") (at 161.29 62.23 0) (unit 1)
    (in_bom yes) (on_board yes) (dnp no) (fields_autoplaced)
    (uuid 88e7b832-1e37-4604-9c5a-32eec11fb36e)
    (property "Reference" "#FLG01" (at 161.29 60.325 0)
      (effects (font (size 1.27 1.27)) hide)
    )
    (property "Value" "PWR_FLAG" (at 161.29 57.15 0)
      (effects (font (size 1.27 1.27)))
    )
    (property "Footprint" "" (at 161.29 62.23 0)
      (effects (font (size 1.27 1.27)) hide)
    )
    (property "Datasheet" "~" (at 161.29 62.23 0)
      (effects (font (size 1.27 1.27)) hide)
    )
    (pin "1" (uuid 9446a9f3-9654-4e4e-8caa-07760774ca45))
    (instances
      (project "Suspension_telemetry"
        (path "/5c831aae-4894-4c31-a571-d996f699966b/827d91e7-d2fd-441d-a7c6-e88b25daf035"
          (reference "#FLG01") (unit 1)
        )
        (path "/5c831aae-4894-4c31-a571-d996f699966b/662b9913-71f4-469d-b95c-3a768392d596"
          (reference "#FLG01") (unit 1)
        )
        (path "/5c831aae-4894-4c31-a571-d996f699966b/05e9ae38-9b81-45c8-9de7-5b47753a81c7"
          (reference "#FLG05") (unit 1)
        )
      )
    )
  )

  (symbol (lib_id "USB_micro_water:USB3505-30-A_REVA4") (at 191.77 73.66 0) (unit 1)
    (in_bom yes) (on_board yes) (dnp no) (fields_autoplaced)
    (uuid ae5aed73-da6f-4883-b001-2914a0cd890e)
    (property "Reference" "J1" (at 198.12 72.39 0)
      (effects (font (size 1.27 1.27)) (justify left))
    )
    (property "Value" "USB3505-30-A_REVA4" (at 198.12 74.93 0)
      (effects (font (size 1.27 1.27)) (justify left))
    )
    (property "Footprint" "GCT_USB3505-30-A_REVA4:GCT_USB3505-30-A_REVA4" (at 191.77 73.66 0)
      (effects (font (size 1.27 1.27)) (justify bottom) hide)
    )
    (property "Datasheet" "" (at 191.77 73.66 0)
      (effects (font (size 1.27 1.27)) hide)
    )
    (property "MF" "Global Connector Technology" (at 191.77 73.66 0)
      (effects (font (size 1.27 1.27)) (justify bottom) hide)
    )
    (property "MAXIMUM_PACKAGE_HEIGHT" "4.07 mm" (at 191.77 73.66 0)
      (effects (font (size 1.27 1.27)) (justify bottom) hide)
    )
    (property "Package" "None" (at 191.77 73.66 0)
      (effects (font (size 1.27 1.27)) (justify bottom) hide)
    )
    (property "Price" "None" (at 191.77 73.66 0)
      (effects (font (size 1.27 1.27)) (justify bottom) hide)
    )
    (property "Check_prices" "https://www.snapeda.com/parts/USB3505-30-A/Global+Connector+Technology/view-part/?ref=eda" (at 191.77 73.66 0)
      (effects (font (size 1.27 1.27)) (justify bottom) hide)
    )
    (property "STANDARD" "Manufacturer Recommendations" (at 191.77 73.66 0)
      (effects (font (size 1.27 1.27)) (justify bottom) hide)
    )
    (property "PARTREV" "A4" (at 191.77 73.66 0)
      (effects (font (size 1.27 1.27)) (justify bottom) hide)
    )
    (property "SnapEDA_Link" "https://www.snapeda.com/parts/USB3505-30-A/Global+Connector+Technology/view-part/?ref=snap" (at 191.77 73.66 0)
      (effects (font (size 1.27 1.27)) (justify bottom) hide)
    )
    (property "MP" "USB3505-30-A" (at 191.77 73.66 0)
      (effects (font (size 1.27 1.27)) (justify bottom) hide)
    )
    (property "Description" "\nUSB - micro B USB 2.0 Receptacle Connector 5 Position Board Edge, Cutout; Surface Mount; Through Hole, Right Angle; waterproof and IP67 rated, 4.90mm profile, Horizontal (mated and unmated), top mount\n" (at 191.77 73.66 0)
      (effects (font (size 1.27 1.27)) (justify bottom) hide)
    )
    (property "Availability" "In Stock" (at 191.77 73.66 0)
      (effects (font (size 1.27 1.27)) (justify bottom) hide)
    )
    (property "MANUFACTURER" "GCT" (at 191.77 73.66 0)
      (effects (font (size 1.27 1.27)) (justify bottom) hide)
    )
    (pin "1" (uuid 7e7088f5-00f9-4f9d-af79-f8c565bcf9ff))
    (pin "2" (uuid cf1385fc-6f44-42bf-a268-a4a2ce7f73d7))
    (pin "3" (uuid 3144a4d6-686b-401c-aeb4-96e7167b0663))
    (pin "4" (uuid b7b4868d-ec3e-49d8-a45d-487e81052af7))
    (pin "5" (uuid 35c97d84-093a-4aae-b08a-1a2d6d7ed5c6))
    (pin "S1" (uuid 676e5123-b1dd-4ac2-8148-8c5165337db7))
    (pin "S2" (uuid aa6da498-ff5a-4b9b-a6d0-5b0a4901399a))
    (pin "S3" (uuid 07ee47d6-d5e9-4d33-aa1a-e2971c2c170b))
    (pin "S4" (uuid 3712efde-2e0b-48da-a2ff-64edfec209cd))
    (instances
      (project "Suspension_telemetry"
        (path "/5c831aae-4894-4c31-a571-d996f699966b/05e9ae38-9b81-45c8-9de7-5b47753a81c7"
          (reference "J1") (unit 1)
        )
      )
    )
  )

  (symbol (lib_id "power:GND") (at 195.58 111.76 0) (mirror y) (unit 1)
    (in_bom yes) (on_board yes) (dnp no)
    (uuid cf373daa-4313-4c31-b2e6-e9eef0e2f183)
    (property "Reference" "#PWR06" (at 195.58 118.11 0)
      (effects (font (size 1.27 1.27)) hide)
    )
    (property "Value" "GND" (at 195.58 116.84 0)
      (effects (font (size 1.27 1.27)))
    )
    (property "Footprint" "" (at 195.58 111.76 0)
      (effects (font (size 1.27 1.27)) hide)
    )
    (property "Datasheet" "" (at 195.58 111.76 0)
      (effects (font (size 1.27 1.27)) hide)
    )
    (pin "1" (uuid 6355be9a-95c6-4037-b839-618de172c33d))
    (instances
      (project "Suspension_telemetry"
        (path "/5c831aae-4894-4c31-a571-d996f699966b/05e9ae38-9b81-45c8-9de7-5b47753a81c7"
          (reference "#PWR06") (unit 1)
        )
      )
    )
  )
)
