(kicad_sch (version 20230121) (generator eeschema)

  (uuid 7a48e3b6-17ec-4111-a65d-377373ba617b)

  (paper "A4")

  (title_block
    (title "Dash")
    (date "2023-04-27")
    (rev "1.0.0")
    (company "SUFST - Southampton University Formula Student Team")
    (comment 1 "STAG 9")
    (comment 2 "Tim Brewis")
  )

  (lib_symbols
    (symbol "Connector:Conn_01x01_Pin" (pin_names (offset 1.016) hide) (in_bom yes) (on_board yes)
      (property "Reference" "J" (at 0 2.54 0)
        (effects (font (size 1.27 1.27)))
      )
      (property "Value" "Conn_01x01_Pin" (at 0 -2.54 0)
        (effects (font (size 1.27 1.27)))
      )
      (property "Footprint" "" (at 0 0 0)
        (effects (font (size 1.27 1.27)) hide)
      )
      (property "Datasheet" "~" (at 0 0 0)
        (effects (font (size 1.27 1.27)) hide)
      )
      (property "ki_locked" "" (at 0 0 0)
        (effects (font (size 1.27 1.27)))
      )
      (property "ki_keywords" "connector" (at 0 0 0)
        (effects (font (size 1.27 1.27)) hide)
      )
      (property "ki_description" "Generic connector, single row, 01x01, script generated" (at 0 0 0)
        (effects (font (size 1.27 1.27)) hide)
      )
      (property "ki_fp_filters" "Connector*:*_1x??_*" (at 0 0 0)
        (effects (font (size 1.27 1.27)) hide)
      )
      (symbol "Conn_01x01_Pin_1_1"
        (polyline
          (pts
            (xy 1.27 0)
            (xy 0.8636 0)
          )
          (stroke (width 0.1524) (type default))
          (fill (type none))
        )
        (rectangle (start 0.8636 0.127) (end 0 -0.127)
          (stroke (width 0.1524) (type default))
          (fill (type outline))
        )
        (pin passive line (at 5.08 0 180) (length 3.81)
          (name "Pin_1" (effects (font (size 1.27 1.27))))
          (number "1" (effects (font (size 1.27 1.27))))
        )
      )
    )
    (symbol "Device:R_Small" (pin_numbers hide) (pin_names (offset 0.254) hide) (in_bom yes) (on_board yes)
      (property "Reference" "R" (at 0.762 0.508 0)
        (effects (font (size 1.27 1.27)) (justify left))
      )
      (property "Value" "R_Small" (at 0.762 -1.016 0)
        (effects (font (size 1.27 1.27)) (justify left))
      )
      (property "Footprint" "" (at 0 0 0)
        (effects (font (size 1.27 1.27)) hide)
      )
      (property "Datasheet" "~" (at 0 0 0)
        (effects (font (size 1.27 1.27)) hide)
      )
      (property "ki_keywords" "R resistor" (at 0 0 0)
        (effects (font (size 1.27 1.27)) hide)
      )
      (property "ki_description" "Resistor, small symbol" (at 0 0 0)
        (effects (font (size 1.27 1.27)) hide)
      )
      (property "ki_fp_filters" "R_*" (at 0 0 0)
        (effects (font (size 1.27 1.27)) hide)
      )
      (symbol "R_Small_0_1"
        (rectangle (start -0.762 1.778) (end 0.762 -1.778)
          (stroke (width 0.2032) (type default))
          (fill (type none))
        )
      )
      (symbol "R_Small_1_1"
        (pin passive line (at 0 2.54 270) (length 0.762)
          (name "~" (effects (font (size 1.27 1.27))))
          (number "1" (effects (font (size 1.27 1.27))))
        )
        (pin passive line (at 0 -2.54 90) (length 0.762)
          (name "~" (effects (font (size 1.27 1.27))))
          (number "2" (effects (font (size 1.27 1.27))))
        )
      )
    )
    (symbol "Diode:BAT54W" (pin_names (offset 1.016) hide) (in_bom yes) (on_board yes)
      (property "Reference" "D" (at 0 2.54 0)
        (effects (font (size 1.27 1.27)))
      )
      (property "Value" "BAT54W" (at 0 -2.54 0)
        (effects (font (size 1.27 1.27)))
      )
      (property "Footprint" "Package_TO_SOT_SMD:SOT-323_SC-70" (at 0 -4.445 0)
        (effects (font (size 1.27 1.27)) hide)
      )
      (property "Datasheet" "https://assets.nexperia.com/documents/data-sheet/BAT54W_SER.pdf" (at 0 0 0)
        (effects (font (size 1.27 1.27)) hide)
      )
      (property "ki_keywords" "schottky diode" (at 0 0 0)
        (effects (font (size 1.27 1.27)) hide)
      )
      (property "ki_description" "Schottky barrier diode, SOT-323" (at 0 0 0)
        (effects (font (size 1.27 1.27)) hide)
      )
      (property "ki_fp_filters" "SOT?323*" (at 0 0 0)
        (effects (font (size 1.27 1.27)) hide)
      )
      (symbol "BAT54W_0_1"
        (polyline
          (pts
            (xy 1.27 0)
            (xy -1.27 0)
          )
          (stroke (width 0) (type default))
          (fill (type none))
        )
        (polyline
          (pts
            (xy 1.27 1.27)
            (xy 1.27 -1.27)
            (xy -1.27 0)
            (xy 1.27 1.27)
          )
          (stroke (width 0.254) (type default))
          (fill (type none))
        )
        (polyline
          (pts
            (xy -1.905 0.635)
            (xy -1.905 1.27)
            (xy -1.27 1.27)
            (xy -1.27 -1.27)
            (xy -0.635 -1.27)
            (xy -0.635 -0.635)
          )
          (stroke (width 0.254) (type default))
          (fill (type none))
        )
      )
      (symbol "BAT54W_1_1"
        (pin passive line (at 3.81 0 180) (length 2.54)
          (name "A" (effects (font (size 1.27 1.27))))
          (number "1" (effects (font (size 1.27 1.27))))
        )
        (pin no_connect line (at 0 0 90) (length 2.54) hide
          (name "NC" (effects (font (size 1.27 1.27))))
          (number "2" (effects (font (size 1.27 1.27))))
        )
        (pin passive line (at -3.81 0 0) (length 2.54)
          (name "K" (effects (font (size 1.27 1.27))))
          (number "3" (effects (font (size 1.27 1.27))))
        )
      )
    )
    (symbol "Mechanical:MountingHole" (pin_names (offset 1.016)) (in_bom yes) (on_board yes)
      (property "Reference" "H" (at 0 5.08 0)
        (effects (font (size 1.27 1.27)))
      )
      (property "Value" "MountingHole" (at 0 3.175 0)
        (effects (font (size 1.27 1.27)))
      )
      (property "Footprint" "" (at 0 0 0)
        (effects (font (size 1.27 1.27)) hide)
      )
      (property "Datasheet" "~" (at 0 0 0)
        (effects (font (size 1.27 1.27)) hide)
      )
      (property "ki_keywords" "mounting hole" (at 0 0 0)
        (effects (font (size 1.27 1.27)) hide)
      )
      (property "ki_description" "Mounting Hole without connection" (at 0 0 0)
        (effects (font (size 1.27 1.27)) hide)
      )
      (property "ki_fp_filters" "MountingHole*" (at 0 0 0)
        (effects (font (size 1.27 1.27)) hide)
      )
      (symbol "MountingHole_0_1"
        (circle (center 0 0) (radius 1.27)
          (stroke (width 1.27) (type default))
          (fill (type none))
        )
      )
    )
    (symbol "power:+12V" (power) (pin_names (offset 0)) (in_bom yes) (on_board yes)
      (property "Reference" "#PWR" (at 0 -3.81 0)
        (effects (font (size 1.27 1.27)) hide)
      )
      (property "Value" "+12V" (at 0 3.556 0)
        (effects (font (size 1.27 1.27)))
      )
      (property "Footprint" "" (at 0 0 0)
        (effects (font (size 1.27 1.27)) hide)
      )
      (property "Datasheet" "" (at 0 0 0)
        (effects (font (size 1.27 1.27)) hide)
      )
      (property "ki_keywords" "global power" (at 0 0 0)
        (effects (font (size 1.27 1.27)) hide)
      )
      (property "ki_description" "Power symbol creates a global label with name \"+12V\"" (at 0 0 0)
        (effects (font (size 1.27 1.27)) hide)
      )
      (symbol "+12V_0_1"
        (polyline
          (pts
            (xy -0.762 1.27)
            (xy 0 2.54)
          )
          (stroke (width 0) (type default))
          (fill (type none))
        )
        (polyline
          (pts
            (xy 0 0)
            (xy 0 2.54)
          )
          (stroke (width 0) (type default))
          (fill (type none))
        )
        (polyline
          (pts
            (xy 0 2.54)
            (xy 0.762 1.27)
          )
          (stroke (width 0) (type default))
          (fill (type none))
        )
      )
      (symbol "+12V_1_1"
        (pin power_in line (at 0 0 90) (length 0) hide
          (name "+12V" (effects (font (size 1.27 1.27))))
          (number "1" (effects (font (size 1.27 1.27))))
        )
      )
    )
    (symbol "power:PWR_FLAG" (power) (pin_numbers hide) (pin_names (offset 0) hide) (in_bom yes) (on_board yes)
      (property "Reference" "#FLG" (at 0 1.905 0)
        (effects (font (size 1.27 1.27)) hide)
      )
      (property "Value" "PWR_FLAG" (at 0 3.81 0)
        (effects (font (size 1.27 1.27)))
      )
      (property "Footprint" "" (at 0 0 0)
        (effects (font (size 1.27 1.27)) hide)
      )
      (property "Datasheet" "~" (at 0 0 0)
        (effects (font (size 1.27 1.27)) hide)
      )
      (property "ki_keywords" "flag power" (at 0 0 0)
        (effects (font (size 1.27 1.27)) hide)
      )
      (property "ki_description" "Special symbol for telling ERC where power comes from" (at 0 0 0)
        (effects (font (size 1.27 1.27)) hide)
      )
      (symbol "PWR_FLAG_0_0"
        (pin power_out line (at 0 0 90) (length 0)
          (name "pwr" (effects (font (size 1.27 1.27))))
          (number "1" (effects (font (size 1.27 1.27))))
        )
      )
      (symbol "PWR_FLAG_0_1"
        (polyline
          (pts
            (xy 0 0)
            (xy 0 1.27)
            (xy -1.016 1.905)
            (xy 0 2.54)
            (xy 1.016 1.905)
            (xy 0 1.27)
          )
          (stroke (width 0) (type default))
          (fill (type none))
        )
      )
    )
  )

  (junction (at 90.17 83.82) (diameter 0) (color 0 0 0 0)
    (uuid 02618751-4d62-424a-8ca9-11af32c55b3d)
  )
  (junction (at 90.17 76.2) (diameter 0) (color 0 0 0 0)
    (uuid 340fe288-83f3-4b8b-9b9b-f9a3a15a7656)
  )
  (junction (at 90.17 78.74) (diameter 0) (color 0 0 0 0)
    (uuid 3f090d9f-6178-483b-8a4d-5cfd4688ce6d)
  )
  (junction (at 190.5 96.52) (diameter 0) (color 0 0 0 0)
    (uuid 4f50cc8e-33dd-4eaa-8945-c685f02a2703)
  )
  (junction (at 172.72 86.36) (diameter 0) (color 0 0 0 0)
    (uuid 60261ed3-7204-47c2-a08c-50bfa06203dc)
  )
  (junction (at 90.17 73.66) (diameter 0) (color 0 0 0 0)
    (uuid baeedf77-34b4-4f15-aae2-d03cd239b591)
  )
  (junction (at 121.92 90.17) (diameter 0) (color 0 0 0 0)
    (uuid c63db419-b548-404a-9c9a-1eca8a73cef4)
  )
  (junction (at 90.17 81.28) (diameter 0) (color 0 0 0 0)
    (uuid cdd5190f-5708-49cb-9cb0-26aa3540e1d4)
  )
  (junction (at 95.25 73.66) (diameter 0) (color 0 0 0 0)
    (uuid d6573b49-ae1f-45e3-9640-d69f731b0c2c)
  )
  (junction (at 162.56 96.52) (diameter 0) (color 0 0 0 0)
    (uuid e0328aca-736e-46ce-86a8-0650c750b8d9)
  )

  (wire (pts (xy 121.92 81.28) (xy 121.92 90.17))
    (stroke (width 0) (type default))
    (uuid 023bbf04-e469-43dd-9c3a-119e98581790)
  )
  (wire (pts (xy 185.42 86.36) (xy 190.5 86.36))
    (stroke (width 0) (type default))
    (uuid 1d5579e5-6f3f-4783-a316-82b82e2ab3f2)
  )
  (wire (pts (xy 87.63 78.74) (xy 90.17 78.74))
    (stroke (width 0) (type default))
    (uuid 2fe7694b-1394-4baa-881b-f9ea3a6bd231)
  )
  (wire (pts (xy 177.8 96.52) (xy 162.56 96.52))
    (stroke (width 0) (type default))
    (uuid 388b401d-18b0-4800-b6e6-f9681d1040d8)
  )
  (wire (pts (xy 90.17 81.28) (xy 90.17 83.82))
    (stroke (width 0) (type default))
    (uuid 394854a3-ed5e-4987-9db8-dafa990b05bb)
  )
  (wire (pts (xy 90.17 86.36) (xy 87.63 86.36))
    (stroke (width 0) (type default))
    (uuid 3c043fb1-1103-4882-a095-749bf2a05328)
  )
  (wire (pts (xy 90.17 68.58) (xy 90.17 73.66))
    (stroke (width 0) (type default))
    (uuid 420dbdd8-f778-4440-b548-4d5e7d1cedfe)
  )
  (wire (pts (xy 190.5 86.36) (xy 190.5 96.52))
    (stroke (width 0) (type default))
    (uuid 4d6bb416-2e04-4ccf-a955-0f7d65dc3fa4)
  )
  (wire (pts (xy 177.8 86.36) (xy 172.72 86.36))
    (stroke (width 0) (type default))
    (uuid 51b063c9-ada7-485d-b784-dd2257150ba8)
  )
  (wire (pts (xy 185.42 96.52) (xy 190.5 96.52))
    (stroke (width 0) (type default))
    (uuid 5f324437-a8c3-44ee-b084-15453d9e016a)
  )
  (wire (pts (xy 87.63 83.82) (xy 90.17 83.82))
    (stroke (width 0) (type default))
    (uuid 5fb6e98f-8ffd-45b4-9a57-1946a6a47c06)
  )
  (wire (pts (xy 172.72 86.36) (xy 172.72 106.68))
    (stroke (width 0) (type default))
    (uuid 6b30f436-fef3-4530-ba5f-f2fe09c01e8d)
  )
  (wire (pts (xy 87.63 76.2) (xy 90.17 76.2))
    (stroke (width 0) (type default))
    (uuid 6fee9ecc-7db4-4691-ac96-1a86549e792e)
  )
  (wire (pts (xy 121.92 90.17) (xy 121.92 106.68))
    (stroke (width 0) (type default))
    (uuid 7072bd31-729c-4bfb-abd6-ea32a3264204)
  )
  (wire (pts (xy 152.4 73.66) (xy 152.4 76.2))
    (stroke (width 0) (type default))
    (uuid 81b3ba39-4deb-4018-a6e5-d3c65660c088)
  )
  (wire (pts (xy 95.25 73.66) (xy 95.25 90.17))
    (stroke (width 0) (type default))
    (uuid 81d75447-837e-470f-9560-5bcd00d3e84f)
  )
  (wire (pts (xy 142.24 81.28) (xy 142.24 106.68))
    (stroke (width 0) (type default))
    (uuid 849a2a2a-1ce7-44d0-9e90-4ee32b7beb97)
  )
  (wire (pts (xy 90.17 73.66) (xy 90.17 76.2))
    (stroke (width 0) (type default))
    (uuid 8bc1fe13-7be3-4a03-aa2e-5a6f7968f41a)
  )
  (wire (pts (xy 90.17 78.74) (xy 90.17 81.28))
    (stroke (width 0) (type default))
    (uuid 8be493f3-0aff-462f-abaf-be68371de70d)
  )
  (wire (pts (xy 90.17 76.2) (xy 90.17 78.74))
    (stroke (width 0) (type default))
    (uuid 99779950-3b61-4c11-8355-d51aae4d51c2)
  )
  (wire (pts (xy 190.5 96.52) (xy 190.5 106.68))
    (stroke (width 0) (type default))
    (uuid 9a85c9f1-20f4-48b1-abc6-84764cb7e669)
  )
  (wire (pts (xy 132.08 73.66) (xy 132.08 76.2))
    (stroke (width 0) (type default))
    (uuid 9ce886ff-d8f0-4942-bd5d-358bf7ddd486)
  )
  (wire (pts (xy 162.56 73.66) (xy 162.56 76.2))
    (stroke (width 0) (type default))
    (uuid 9fd6aafe-fbe1-4730-95fc-171178fff9f8)
  )
  (wire (pts (xy 152.4 81.28) (xy 152.4 106.68))
    (stroke (width 0) (type default))
    (uuid abd48920-8cf3-4015-a366-aa4e9e7440dc)
  )
  (wire (pts (xy 162.56 96.52) (xy 162.56 81.28))
    (stroke (width 0) (type default))
    (uuid b001fd80-d8d5-4ecf-bd7d-30a0d6f9d712)
  )
  (wire (pts (xy 95.25 73.66) (xy 100.33 73.66))
    (stroke (width 0) (type default))
    (uuid b5196288-04ca-4a7e-ba15-285f646a12fc)
  )
  (wire (pts (xy 90.17 73.66) (xy 95.25 73.66))
    (stroke (width 0) (type default))
    (uuid b6dceecf-3d78-4879-9340-a358e953da3d)
  )
  (wire (pts (xy 95.25 90.17) (xy 121.92 90.17))
    (stroke (width 0) (type default))
    (uuid be2fd723-634b-4948-9e73-a0a2b3e42241)
  )
  (wire (pts (xy 87.63 81.28) (xy 90.17 81.28))
    (stroke (width 0) (type default))
    (uuid c7fef0a2-67f3-4f4d-9710-21ecf323a2c8)
  )
  (wire (pts (xy 162.56 96.52) (xy 162.56 106.68))
    (stroke (width 0) (type default))
    (uuid cbd42401-2378-4bb7-804d-4561e61b9dad)
  )
  (wire (pts (xy 95.25 68.58) (xy 95.25 73.66))
    (stroke (width 0) (type default))
    (uuid d2ad6439-3871-4b07-968d-e874594adcc1)
  )
  (wire (pts (xy 172.72 73.66) (xy 172.72 76.2))
    (stroke (width 0) (type default))
    (uuid d6dd9b07-bfa4-42b1-9ea6-d8af402e4c53)
  )
  (wire (pts (xy 132.08 81.28) (xy 132.08 106.68))
    (stroke (width 0) (type default))
    (uuid de11080e-ca56-4bac-bee9-fc886f75a57f)
  )
  (wire (pts (xy 172.72 86.36) (xy 172.72 81.28))
    (stroke (width 0) (type default))
    (uuid df04ebea-d1de-4b46-9971-7118d0b1b797)
  )
  (wire (pts (xy 87.63 73.66) (xy 90.17 73.66))
    (stroke (width 0) (type default))
    (uuid e0f7fd3c-77df-4d09-b877-c27189622cdb)
  )
  (wire (pts (xy 90.17 83.82) (xy 90.17 86.36))
    (stroke (width 0) (type default))
    (uuid e59fc7ca-3e61-4152-9fb8-b8701a059575)
  )
  (wire (pts (xy 121.92 73.66) (xy 121.92 76.2))
    (stroke (width 0) (type default))
    (uuid ed42039d-0581-4804-aafb-ca202f9ee204)
  )
  (wire (pts (xy 142.24 73.66) (xy 142.24 76.2))
    (stroke (width 0) (type default))
    (uuid f1a312cb-13a2-4fa5-813d-e802ee9207b2)
  )

  (text "BMS" (at 171.45 64.77 0)
    (effects (font (size 1.27 1.27)) (justify left bottom))
    (uuid 396c4c37-51f6-4563-8c2c-a73e57e7ba6e)
  )
  (text "IMD" (at 161.29 64.77 0)
    (effects (font (size 1.27 1.27)) (justify left bottom))
    (uuid 3d1b6797-0d92-48ec-aa5e-a35907333d91)
  )
  (text "LVS" (at 120.65 64.77 0)
    (effects (font (size 1.27 1.27)) (justify left bottom))
    (uuid a0f60b5d-8b9c-4ae9-9fc4-1593b402f720)
  )
  (text "R2D" (at 140.97 64.77 0)
    (effects (font (size 1.27 1.27)) (justify left bottom))
    (uuid aa6b3a2c-9761-475e-8262-f4c56a13dced)
  )
  (text "TS On" (at 129.54 64.77 0)
    (effects (font (size 1.27 1.27)) (justify left bottom))
    (uuid caf56890-f154-4744-9ffa-25f3d3c362b6)
  )
  (text "DRS" (at 151.13 64.77 0)
    (effects (font (size 1.27 1.27)) (justify left bottom))
    (uuid ef32f053-1b01-452a-bdda-8f5026caadfd)
  )

  (label "DRS" (at 152.4 102.87 270) (fields_autoplaced)
    (effects (font (size 1.27 1.27)) (justify right bottom))
    (uuid 24cfef61-6683-4b92-a9d2-7eaec15f4fcd)
  )
  (label "TS" (at 132.08 102.87 270) (fields_autoplaced)
    (effects (font (size 1.27 1.27)) (justify right bottom))
    (uuid 2d9a0ef3-c47a-4070-9c11-9c323bddd890)
  )
  (label "VC" (at 190.5 102.87 270) (fields_autoplaced)
    (effects (font (size 1.27 1.27)) (justify right bottom))
    (uuid 36f3c39a-b6da-4f77-b331-537fd90d9a90)
  )
  (label "IMD" (at 162.56 102.87 270) (fields_autoplaced)
    (effects (font (size 1.27 1.27)) (justify right bottom))
    (uuid e286e6e5-fd07-4dcb-8dde-091d5bf134bc)
  )
  (label "BMS" (at 172.72 102.87 270) (fields_autoplaced)
    (effects (font (size 1.27 1.27)) (justify right bottom))
    (uuid f277f7c5-41d2-4480-81b6-925a9efe86f7)
  )
  (label "R2D" (at 142.24 102.87 270) (fields_autoplaced)
    (effects (font (size 1.27 1.27)) (justify right bottom))
    (uuid f9d77bb1-f1ec-437d-b56f-1bf5fe988ff5)
  )

  (symbol (lib_id "Mechanical:MountingHole") (at 83.82 110.49 0) (unit 1)
    (in_bom yes) (on_board yes) (dnp no) (fields_autoplaced)
    (uuid 0d5790be-b8f6-4158-bcc4-549b2b0d719d)
    (property "Reference" "H2" (at 86.36 109.855 0)
      (effects (font (size 1.27 1.27)) (justify left))
    )
    (property "Value" "MountingHole" (at 86.36 112.395 0)
      (effects (font (size 1.27 1.27)) (justify left))
    )
    (property "Footprint" "MountingHole:MountingHole_3.2mm_M3" (at 83.82 110.49 0)
      (effects (font (size 1.27 1.27)) hide)
    )
    (property "Datasheet" "~" (at 83.82 110.49 0)
      (effects (font (size 1.27 1.27)) hide)
    )
    (instances
      (project "dash"
        (path "/7a48e3b6-17ec-4111-a65d-377373ba617b"
          (reference "H2") (unit 1)
        )
      )
    )
  )

  (symbol (lib_id "Device:R_Small") (at 162.56 78.74 0) (unit 1)
    (in_bom yes) (on_board yes) (dnp no)
    (uuid 10cffa3c-f433-4cc2-9a57-307aee9cfed1)
    (property "Reference" "R5" (at 163.83 77.47 0)
      (effects (font (size 1.27 1.27)) (justify left))
    )
    (property "Value" "?k" (at 163.83 80.01 0)
      (effects (font (size 1.27 1.27)) (justify left))
    )
    (property "Footprint" "Resistor_SMD:R_0805_2012Metric_Pad1.20x1.40mm_HandSolder" (at 162.56 78.74 0)
      (effects (font (size 1.27 1.27)) hide)
    )
    (property "Datasheet" "~" (at 162.56 78.74 0)
      (effects (font (size 1.27 1.27)) hide)
    )
    (pin "1" (uuid db0ea87e-e1dc-4852-bbe9-75e5e5bdc4d0))
    (pin "2" (uuid d78d86ef-dc68-49bb-9cf3-18e0c9ecc050))
    (instances
      (project "dash"
        (path "/7a48e3b6-17ec-4111-a65d-377373ba617b"
          (reference "R5") (unit 1)
        )
      )
    )
  )

  (symbol (lib_id "Connector:Conn_01x01_Pin") (at 152.4 111.76 90) (unit 1)
    (in_bom yes) (on_board yes) (dnp no)
    (uuid 1ccf35cb-a9a9-4848-b42e-df3d9c0c2b99)
    (property "Reference" "J10" (at 153.67 113.03 90)
      (effects (font (size 1.27 1.27)) (justify left))
    )
    (property "Value" "Conn_01x01_Pin" (at 151.13 109.22 90)
      (effects (font (size 1.27 1.27)) (justify left) hide)
    )
    (property "Footprint" "SUFST:Pad_1x5mm" (at 152.4 111.76 0)
      (effects (font (size 1.27 1.27)) hide)
    )
    (property "Datasheet" "~" (at 152.4 111.76 0)
      (effects (font (size 1.27 1.27)) hide)
    )
    (pin "1" (uuid bf68f8b3-b5ba-46ed-a41a-6292cd67aad7))
    (instances
      (project "dash"
        (path "/7a48e3b6-17ec-4111-a65d-377373ba617b"
          (reference "J10") (unit 1)
        )
      )
    )
  )

  (symbol (lib_id "Device:R_Small") (at 132.08 78.74 0) (unit 1)
    (in_bom yes) (on_board yes) (dnp no)
    (uuid 1dced1ab-041a-4ea4-899b-59644bb57adf)
    (property "Reference" "R2" (at 133.35 77.47 0)
      (effects (font (size 1.27 1.27)) (justify left))
    )
    (property "Value" "?k" (at 133.35 80.01 0)
      (effects (font (size 1.27 1.27)) (justify left))
    )
    (property "Footprint" "Resistor_SMD:R_0805_2012Metric_Pad1.20x1.40mm_HandSolder" (at 132.08 78.74 0)
      (effects (font (size 1.27 1.27)) hide)
    )
    (property "Datasheet" "~" (at 132.08 78.74 0)
      (effects (font (size 1.27 1.27)) hide)
    )
    (pin "1" (uuid 7dc9f354-cf87-40cd-9b7d-142da77c1c29))
    (pin "2" (uuid 6df84829-ee35-462e-b614-0841f4c7c23d))
    (instances
      (project "dash"
        (path "/7a48e3b6-17ec-4111-a65d-377373ba617b"
          (reference "R2") (unit 1)
        )
      )
    )
  )

  (symbol (lib_id "Diode:BAT54W") (at 181.61 86.36 0) (mirror y) (unit 1)
    (in_bom yes) (on_board yes) (dnp no)
    (uuid 2497f0c0-b63f-4220-aaa5-b2579804a6e8)
    (property "Reference" "D1" (at 181.61 91.44 0)
      (effects (font (size 1.27 1.27)))
    )
    (property "Value" "BAT54W" (at 180.975 89.535 0)
      (effects (font (size 1.27 1.27)))
    )
    (property "Footprint" "Package_TO_SOT_SMD:SOT-323_SC-70" (at 181.61 90.805 0)
      (effects (font (size 1.27 1.27)) hide)
    )
    (property "Datasheet" "https://assets.nexperia.com/documents/data-sheet/BAT54W_SER.pdf" (at 181.61 86.36 0)
      (effects (font (size 1.27 1.27)) hide)
    )
    (property "Supplier" "Mouser" (at 181.61 86.36 0)
      (effects (font (size 1.27 1.27)) hide)
    )
    (property "Order Code" "771-BAT54W-T/R" (at 181.61 86.36 0)
      (effects (font (size 1.27 1.27)) hide)
    )
    (pin "1" (uuid a889bfd7-9fd7-43ac-b5cd-92fbc404c251))
    (pin "2" (uuid 5881f2f2-2e0b-43a7-a604-bf99129ef145))
    (pin "3" (uuid 98922412-6e19-445a-8687-10fb7bb64875))
    (instances
      (project "dash"
        (path "/7a48e3b6-17ec-4111-a65d-377373ba617b"
          (reference "D1") (unit 1)
        )
      )
      (project "BSPD"
        (path "/a7fc0812-140f-4d96-9cd8-ead8c1c610b1"
          (reference "D1") (unit 1)
        )
      )
    )
  )

  (symbol (lib_id "Connector:Conn_01x01_Pin") (at 132.08 111.76 90) (unit 1)
    (in_bom yes) (on_board yes) (dnp no)
    (uuid 2785112b-7d92-4b04-911b-06dcef269958)
    (property "Reference" "J8" (at 133.35 113.03 90)
      (effects (font (size 1.27 1.27)) (justify left))
    )
    (property "Value" "Conn_01x01_Pin" (at 130.81 109.22 90)
      (effects (font (size 1.27 1.27)) (justify left) hide)
    )
    (property "Footprint" "SUFST:Pad_1x5mm" (at 132.08 111.76 0)
      (effects (font (size 1.27 1.27)) hide)
    )
    (property "Datasheet" "~" (at 132.08 111.76 0)
      (effects (font (size 1.27 1.27)) hide)
    )
    (pin "1" (uuid a361f8c4-744d-4143-b375-b47456352283))
    (instances
      (project "dash"
        (path "/7a48e3b6-17ec-4111-a65d-377373ba617b"
          (reference "J8") (unit 1)
        )
      )
    )
  )

  (symbol (lib_id "Device:R_Small") (at 172.72 78.74 0) (unit 1)
    (in_bom yes) (on_board yes) (dnp no)
    (uuid 325bf60b-e38f-4ee6-ba04-e939c512cc8e)
    (property "Reference" "R6" (at 173.99 77.47 0)
      (effects (font (size 1.27 1.27)) (justify left))
    )
    (property "Value" "?k" (at 173.99 80.01 0)
      (effects (font (size 1.27 1.27)) (justify left))
    )
    (property "Footprint" "Resistor_SMD:R_0805_2012Metric_Pad1.20x1.40mm_HandSolder" (at 172.72 78.74 0)
      (effects (font (size 1.27 1.27)) hide)
    )
    (property "Datasheet" "~" (at 172.72 78.74 0)
      (effects (font (size 1.27 1.27)) hide)
    )
    (pin "1" (uuid 69059fad-1c75-4512-80be-929ea355cb54))
    (pin "2" (uuid 1d3fd241-a839-4437-92c2-03aaa1a9378f))
    (instances
      (project "dash"
        (path "/7a48e3b6-17ec-4111-a65d-377373ba617b"
          (reference "R6") (unit 1)
        )
      )
    )
  )

  (symbol (lib_id "Connector:Conn_01x01_Pin") (at 172.72 111.76 90) (unit 1)
    (in_bom yes) (on_board yes) (dnp no)
    (uuid 40c593be-8632-47cc-932c-225acc776f9a)
    (property "Reference" "J12" (at 173.99 113.03 90)
      (effects (font (size 1.27 1.27)) (justify left))
    )
    (property "Value" "Conn_01x01_Pin" (at 171.45 109.22 90)
      (effects (font (size 1.27 1.27)) (justify left) hide)
    )
    (property "Footprint" "SUFST:Pad_1x5mm" (at 172.72 111.76 0)
      (effects (font (size 1.27 1.27)) hide)
    )
    (property "Datasheet" "~" (at 172.72 111.76 0)
      (effects (font (size 1.27 1.27)) hide)
    )
    (pin "1" (uuid 6b2ea8f0-7846-4a43-91c0-73b3dca877fd))
    (instances
      (project "dash"
        (path "/7a48e3b6-17ec-4111-a65d-377373ba617b"
          (reference "J12") (unit 1)
        )
      )
    )
  )

  (symbol (lib_id "power:PWR_FLAG") (at 100.33 73.66 270) (unit 1)
    (in_bom yes) (on_board yes) (dnp no) (fields_autoplaced)
    (uuid 478e49f1-34bf-45b4-ba9e-170375b49dd4)
    (property "Reference" "#FLG01" (at 102.235 73.66 0)
      (effects (font (size 1.27 1.27)) hide)
    )
    (property "Value" "PWR_FLAG" (at 104.14 74.295 90)
      (effects (font (size 1.27 1.27)) (justify left))
    )
    (property "Footprint" "" (at 100.33 73.66 0)
      (effects (font (size 1.27 1.27)) hide)
    )
    (property "Datasheet" "~" (at 100.33 73.66 0)
      (effects (font (size 1.27 1.27)) hide)
    )
    (pin "1" (uuid 874923a9-1295-444e-9943-4ca06b55381a))
    (instances
      (project "dash"
        (path "/7a48e3b6-17ec-4111-a65d-377373ba617b"
          (reference "#FLG01") (unit 1)
        )
      )
    )
  )

  (symbol (lib_id "Connector:Conn_01x01_Pin") (at 142.24 111.76 90) (unit 1)
    (in_bom yes) (on_board yes) (dnp no)
    (uuid 48871ac8-e897-4d3e-99b5-b39ab755ec36)
    (property "Reference" "J9" (at 143.51 113.03 90)
      (effects (font (size 1.27 1.27)) (justify left))
    )
    (property "Value" "Conn_01x01_Pin" (at 140.97 109.22 90)
      (effects (font (size 1.27 1.27)) (justify left) hide)
    )
    (property "Footprint" "SUFST:Pad_1x5mm" (at 142.24 111.76 0)
      (effects (font (size 1.27 1.27)) hide)
    )
    (property "Datasheet" "~" (at 142.24 111.76 0)
      (effects (font (size 1.27 1.27)) hide)
    )
    (pin "1" (uuid d06500ad-87c3-477e-9aad-da10a2265872))
    (instances
      (project "dash"
        (path "/7a48e3b6-17ec-4111-a65d-377373ba617b"
          (reference "J9") (unit 1)
        )
      )
    )
  )

  (symbol (lib_id "Connector:Conn_01x01_Pin") (at 190.5 111.76 90) (unit 1)
    (in_bom yes) (on_board yes) (dnp no)
    (uuid 4afb92c5-6c09-4660-9382-52629782f145)
    (property "Reference" "J13" (at 191.77 113.03 90)
      (effects (font (size 1.27 1.27)) (justify left))
    )
    (property "Value" "Conn_01x01_Pin" (at 189.23 109.22 90)
      (effects (font (size 1.27 1.27)) (justify left) hide)
    )
    (property "Footprint" "SUFST:Pad_1x5mm" (at 190.5 111.76 0)
      (effects (font (size 1.27 1.27)) hide)
    )
    (property "Datasheet" "~" (at 190.5 111.76 0)
      (effects (font (size 1.27 1.27)) hide)
    )
    (pin "1" (uuid 65da56a8-5251-40a6-b5a4-b76b52ba9d9d))
    (instances
      (project "dash"
        (path "/7a48e3b6-17ec-4111-a65d-377373ba617b"
          (reference "J13") (unit 1)
        )
      )
    )
  )

  (symbol (lib_id "Connector:Conn_01x01_Pin") (at 82.55 86.36 0) (unit 1)
    (in_bom yes) (on_board yes) (dnp no)
    (uuid 4bdf9d72-cdc2-4c93-b2e6-bd1ce5b3ee67)
    (property "Reference" "J20" (at 78.74 86.36 0)
      (effects (font (size 1.27 1.27)) (justify left))
    )
    (property "Value" "Conn_01x01_Pin" (at 85.09 85.09 90)
      (effects (font (size 1.27 1.27)) (justify left) hide)
    )
    (property "Footprint" "SUFST:Pad_1x5mm" (at 82.55 86.36 0)
      (effects (font (size 1.27 1.27)) hide)
    )
    (property "Datasheet" "~" (at 82.55 86.36 0)
      (effects (font (size 1.27 1.27)) hide)
    )
    (pin "1" (uuid 6e9c6d2e-412e-42b7-883e-66762234a1bb))
    (instances
      (project "dash"
        (path "/7a48e3b6-17ec-4111-a65d-377373ba617b"
          (reference "J20") (unit 1)
        )
      )
    )
  )

  (symbol (lib_id "Connector:Conn_01x01_Pin") (at 162.56 111.76 90) (unit 1)
    (in_bom yes) (on_board yes) (dnp no)
    (uuid 4c16dda6-844f-4d58-a0a2-7f069654fb1c)
    (property "Reference" "J11" (at 163.83 113.03 90)
      (effects (font (size 1.27 1.27)) (justify left))
    )
    (property "Value" "Conn_01x01_Pin" (at 161.29 109.22 90)
      (effects (font (size 1.27 1.27)) (justify left) hide)
    )
    (property "Footprint" "SUFST:Pad_1x5mm" (at 162.56 111.76 0)
      (effects (font (size 1.27 1.27)) hide)
    )
    (property "Datasheet" "~" (at 162.56 111.76 0)
      (effects (font (size 1.27 1.27)) hide)
    )
    (pin "1" (uuid d80fa6c5-6909-4090-abff-d8c0409afcd3))
    (instances
      (project "dash"
        (path "/7a48e3b6-17ec-4111-a65d-377373ba617b"
          (reference "J11") (unit 1)
        )
      )
    )
  )

  (symbol (lib_id "Connector:Conn_01x01_Pin") (at 162.56 68.58 270) (unit 1)
    (in_bom yes) (on_board yes) (dnp no)
    (uuid 6088230e-7cdc-4022-bd53-59cfdbb2ce53)
    (property "Reference" "J5" (at 161.29 67.31 90)
      (effects (font (size 1.27 1.27)) (justify left))
    )
    (property "Value" "Conn_01x01_Pin" (at 163.83 71.12 90)
      (effects (font (size 1.27 1.27)) (justify left) hide)
    )
    (property "Footprint" "SUFST:Pad_1x5mm" (at 162.56 68.58 0)
      (effects (font (size 1.27 1.27)) hide)
    )
    (property "Datasheet" "~" (at 162.56 68.58 0)
      (effects (font (size 1.27 1.27)) hide)
    )
    (pin "1" (uuid 6fe7d6bb-bdb6-4304-8d0e-65a6a3ee2d43))
    (instances
      (project "dash"
        (path "/7a48e3b6-17ec-4111-a65d-377373ba617b"
          (reference "J5") (unit 1)
        )
      )
    )
  )

  (symbol (lib_id "Device:R_Small") (at 121.92 78.74 0) (unit 1)
    (in_bom yes) (on_board yes) (dnp no)
    (uuid 639508af-5a93-46ec-a814-125580d60eee)
    (property "Reference" "R1" (at 123.19 77.47 0)
      (effects (font (size 1.27 1.27)) (justify left))
    )
    (property "Value" "?k" (at 123.19 80.01 0)
      (effects (font (size 1.27 1.27)) (justify left))
    )
    (property "Footprint" "Resistor_SMD:R_0805_2012Metric_Pad1.20x1.40mm_HandSolder" (at 121.92 78.74 0)
      (effects (font (size 1.27 1.27)) hide)
    )
    (property "Datasheet" "~" (at 121.92 78.74 0)
      (effects (font (size 1.27 1.27)) hide)
    )
    (pin "1" (uuid 5939c0ee-6799-493f-9bca-7e7aebca0b54))
    (pin "2" (uuid 84981de7-1528-44b4-b106-acaf2165108b))
    (instances
      (project "dash"
        (path "/7a48e3b6-17ec-4111-a65d-377373ba617b"
          (reference "R1") (unit 1)
        )
      )
    )
  )

  (symbol (lib_id "Connector:Conn_01x01_Pin") (at 82.55 76.2 0) (unit 1)
    (in_bom yes) (on_board yes) (dnp no)
    (uuid 6d4ec83b-bb31-45dd-98cf-af6b431502ef)
    (property "Reference" "J16" (at 78.74 76.2 0)
      (effects (font (size 1.27 1.27)) (justify left))
    )
    (property "Value" "Conn_01x01_Pin" (at 85.09 74.93 90)
      (effects (font (size 1.27 1.27)) (justify left) hide)
    )
    (property "Footprint" "SUFST:Pad_1x5mm" (at 82.55 76.2 0)
      (effects (font (size 1.27 1.27)) hide)
    )
    (property "Datasheet" "~" (at 82.55 76.2 0)
      (effects (font (size 1.27 1.27)) hide)
    )
    (pin "1" (uuid 61b4c63c-fff8-4db7-91d9-9574caf1e4d6))
    (instances
      (project "dash"
        (path "/7a48e3b6-17ec-4111-a65d-377373ba617b"
          (reference "J16") (unit 1)
        )
      )
    )
  )

  (symbol (lib_id "Mechanical:MountingHole") (at 83.82 104.14 0) (unit 1)
    (in_bom yes) (on_board yes) (dnp no) (fields_autoplaced)
    (uuid 7d2bd7a2-be6f-4d96-b072-ba6863ee1e23)
    (property "Reference" "H1" (at 86.36 103.505 0)
      (effects (font (size 1.27 1.27)) (justify left))
    )
    (property "Value" "MountingHole" (at 86.36 106.045 0)
      (effects (font (size 1.27 1.27)) (justify left))
    )
    (property "Footprint" "MountingHole:MountingHole_3.2mm_M3" (at 83.82 104.14 0)
      (effects (font (size 1.27 1.27)) hide)
    )
    (property "Datasheet" "~" (at 83.82 104.14 0)
      (effects (font (size 1.27 1.27)) hide)
    )
    (instances
      (project "dash"
        (path "/7a48e3b6-17ec-4111-a65d-377373ba617b"
          (reference "H1") (unit 1)
        )
      )
    )
  )

  (symbol (lib_id "Connector:Conn_01x01_Pin") (at 82.55 81.28 0) (unit 1)
    (in_bom yes) (on_board yes) (dnp no)
    (uuid 86646afb-5935-4c5e-b606-97ca52523da7)
    (property "Reference" "J18" (at 78.74 81.28 0)
      (effects (font (size 1.27 1.27)) (justify left))
    )
    (property "Value" "Conn_01x01_Pin" (at 85.09 80.01 90)
      (effects (font (size 1.27 1.27)) (justify left) hide)
    )
    (property "Footprint" "SUFST:Pad_1x5mm" (at 82.55 81.28 0)
      (effects (font (size 1.27 1.27)) hide)
    )
    (property "Datasheet" "~" (at 82.55 81.28 0)
      (effects (font (size 1.27 1.27)) hide)
    )
    (pin "1" (uuid da78f016-c254-4db8-8046-e4bd2f265e46))
    (instances
      (project "dash"
        (path "/7a48e3b6-17ec-4111-a65d-377373ba617b"
          (reference "J18") (unit 1)
        )
      )
    )
  )

  (symbol (lib_id "Connector:Conn_01x01_Pin") (at 142.24 68.58 270) (unit 1)
    (in_bom yes) (on_board yes) (dnp no)
    (uuid 9a4b88f4-ebf8-4d45-9e02-52fd397ecab4)
    (property "Reference" "J3" (at 140.97 67.31 90)
      (effects (font (size 1.27 1.27)) (justify left))
    )
    (property "Value" "Conn_01x01_Pin" (at 143.51 71.12 90)
      (effects (font (size 1.27 1.27)) (justify left) hide)
    )
    (property "Footprint" "SUFST:Pad_1x5mm" (at 142.24 68.58 0)
      (effects (font (size 1.27 1.27)) hide)
    )
    (property "Datasheet" "~" (at 142.24 68.58 0)
      (effects (font (size 1.27 1.27)) hide)
    )
    (pin "1" (uuid 7f8a1c08-3f2e-41e5-b451-0d78c65ccc4f))
    (instances
      (project "dash"
        (path "/7a48e3b6-17ec-4111-a65d-377373ba617b"
          (reference "J3") (unit 1)
        )
      )
    )
  )

  (symbol (lib_id "Connector:Conn_01x01_Pin") (at 121.92 111.76 90) (unit 1)
    (in_bom yes) (on_board yes) (dnp no)
    (uuid 9e96e443-2425-4fa7-b997-43d11e682c14)
    (property "Reference" "J7" (at 123.19 113.03 90)
      (effects (font (size 1.27 1.27)) (justify left))
    )
    (property "Value" "Conn_01x01_Pin" (at 120.65 109.22 90)
      (effects (font (size 1.27 1.27)) (justify left) hide)
    )
    (property "Footprint" "SUFST:Pad_1x5mm" (at 121.92 111.76 0)
      (effects (font (size 1.27 1.27)) hide)
    )
    (property "Datasheet" "~" (at 121.92 111.76 0)
      (effects (font (size 1.27 1.27)) hide)
    )
    (pin "1" (uuid b5aa699f-2fbd-4faf-baa6-2481e685abff))
    (instances
      (project "dash"
        (path "/7a48e3b6-17ec-4111-a65d-377373ba617b"
          (reference "J7") (unit 1)
        )
      )
    )
  )

  (symbol (lib_id "Connector:Conn_01x01_Pin") (at 132.08 68.58 270) (unit 1)
    (in_bom yes) (on_board yes) (dnp no)
    (uuid a1e4183b-c5de-4f1b-bb78-999c3f85253a)
    (property "Reference" "J2" (at 130.81 67.31 90)
      (effects (font (size 1.27 1.27)) (justify left))
    )
    (property "Value" "Conn_01x01_Pin" (at 133.35 71.12 90)
      (effects (font (size 1.27 1.27)) (justify left) hide)
    )
    (property "Footprint" "SUFST:Pad_1x5mm" (at 132.08 68.58 0)
      (effects (font (size 1.27 1.27)) hide)
    )
    (property "Datasheet" "~" (at 132.08 68.58 0)
      (effects (font (size 1.27 1.27)) hide)
    )
    (pin "1" (uuid f31f0463-dc28-4816-b993-a539d4c53792))
    (instances
      (project "dash"
        (path "/7a48e3b6-17ec-4111-a65d-377373ba617b"
          (reference "J2") (unit 1)
        )
      )
    )
  )

  (symbol (lib_id "Connector:Conn_01x01_Pin") (at 82.55 73.66 0) (unit 1)
    (in_bom yes) (on_board yes) (dnp no)
    (uuid a4c2f4c0-a44f-4ffd-a3e4-c6e98a7f0018)
    (property "Reference" "J15" (at 78.74 73.66 0)
      (effects (font (size 1.27 1.27)) (justify left))
    )
    (property "Value" "Conn_01x01_Pin" (at 85.09 72.39 90)
      (effects (font (size 1.27 1.27)) (justify left) hide)
    )
    (property "Footprint" "SUFST:Pad_1x5mm" (at 82.55 73.66 0)
      (effects (font (size 1.27 1.27)) hide)
    )
    (property "Datasheet" "~" (at 82.55 73.66 0)
      (effects (font (size 1.27 1.27)) hide)
    )
    (pin "1" (uuid 29f49fd9-db9d-4701-9ddf-246634028a6c))
    (instances
      (project "dash"
        (path "/7a48e3b6-17ec-4111-a65d-377373ba617b"
          (reference "J15") (unit 1)
        )
      )
    )
  )

  (symbol (lib_id "Device:R_Small") (at 152.4 78.74 0) (unit 1)
    (in_bom yes) (on_board yes) (dnp no)
    (uuid b7f01fdd-de86-4d69-80a7-9b1be008a470)
    (property "Reference" "R4" (at 153.67 77.47 0)
      (effects (font (size 1.27 1.27)) (justify left))
    )
    (property "Value" "?k" (at 153.67 80.01 0)
      (effects (font (size 1.27 1.27)) (justify left))
    )
    (property "Footprint" "Resistor_SMD:R_0805_2012Metric_Pad1.20x1.40mm_HandSolder" (at 152.4 78.74 0)
      (effects (font (size 1.27 1.27)) hide)
    )
    (property "Datasheet" "~" (at 152.4 78.74 0)
      (effects (font (size 1.27 1.27)) hide)
    )
    (pin "1" (uuid 50a89656-5b54-4e23-8a1b-50d279d1fa7b))
    (pin "2" (uuid cbbf4179-5853-42bf-9c6d-becda23d3801))
    (instances
      (project "dash"
        (path "/7a48e3b6-17ec-4111-a65d-377373ba617b"
          (reference "R4") (unit 1)
        )
      )
    )
  )

  (symbol (lib_id "Connector:Conn_01x01_Pin") (at 152.4 68.58 270) (unit 1)
    (in_bom yes) (on_board yes) (dnp no)
    (uuid b84ba1c8-0e23-4e7e-bea1-f7d73382afca)
    (property "Reference" "J4" (at 151.13 67.31 90)
      (effects (font (size 1.27 1.27)) (justify left))
    )
    (property "Value" "Conn_01x01_Pin" (at 153.67 71.12 90)
      (effects (font (size 1.27 1.27)) (justify left) hide)
    )
    (property "Footprint" "SUFST:Pad_1x5mm" (at 152.4 68.58 0)
      (effects (font (size 1.27 1.27)) hide)
    )
    (property "Datasheet" "~" (at 152.4 68.58 0)
      (effects (font (size 1.27 1.27)) hide)
    )
    (pin "1" (uuid 71eaefc1-e80c-4eb8-b6ad-09a5b71f4982))
    (instances
      (project "dash"
        (path "/7a48e3b6-17ec-4111-a65d-377373ba617b"
          (reference "J4") (unit 1)
        )
      )
    )
  )

  (symbol (lib_id "Connector:Conn_01x01_Pin") (at 172.72 68.58 270) (unit 1)
    (in_bom yes) (on_board yes) (dnp no)
    (uuid bb698682-5560-4ae4-a79f-cababe790943)
    (property "Reference" "J6" (at 171.45 67.31 90)
      (effects (font (size 1.27 1.27)) (justify left))
    )
    (property "Value" "Conn_01x01_Pin" (at 173.99 71.12 90)
      (effects (font (size 1.27 1.27)) (justify left) hide)
    )
    (property "Footprint" "SUFST:Pad_1x5mm" (at 172.72 68.58 0)
      (effects (font (size 1.27 1.27)) hide)
    )
    (property "Datasheet" "~" (at 172.72 68.58 0)
      (effects (font (size 1.27 1.27)) hide)
    )
    (pin "1" (uuid dd860c62-be4d-404e-ae57-4ef87e3a9794))
    (instances
      (project "dash"
        (path "/7a48e3b6-17ec-4111-a65d-377373ba617b"
          (reference "J6") (unit 1)
        )
      )
    )
  )

  (symbol (lib_id "Connector:Conn_01x01_Pin") (at 82.55 78.74 0) (unit 1)
    (in_bom yes) (on_board yes) (dnp no)
    (uuid bf0cb8c3-0842-4974-9aac-b886727f78ea)
    (property "Reference" "J17" (at 78.74 78.74 0)
      (effects (font (size 1.27 1.27)) (justify left))
    )
    (property "Value" "Conn_01x01_Pin" (at 85.09 77.47 90)
      (effects (font (size 1.27 1.27)) (justify left) hide)
    )
    (property "Footprint" "SUFST:Pad_1x5mm" (at 82.55 78.74 0)
      (effects (font (size 1.27 1.27)) hide)
    )
    (property "Datasheet" "~" (at 82.55 78.74 0)
      (effects (font (size 1.27 1.27)) hide)
    )
    (pin "1" (uuid cefc8756-32bf-4627-81e3-bdffda9f314e))
    (instances
      (project "dash"
        (path "/7a48e3b6-17ec-4111-a65d-377373ba617b"
          (reference "J17") (unit 1)
        )
      )
    )
  )

  (symbol (lib_id "Connector:Conn_01x01_Pin") (at 121.92 68.58 270) (unit 1)
    (in_bom yes) (on_board yes) (dnp no)
    (uuid bf5f8a6d-ad4f-46b0-a669-ca5433701fcb)
    (property "Reference" "J1" (at 120.65 67.31 90)
      (effects (font (size 1.27 1.27)) (justify left))
    )
    (property "Value" "Conn_01x01_Pin" (at 123.19 71.12 90)
      (effects (font (size 1.27 1.27)) (justify left) hide)
    )
    (property "Footprint" "SUFST:Pad_1x5mm" (at 121.92 68.58 0)
      (effects (font (size 1.27 1.27)) hide)
    )
    (property "Datasheet" "~" (at 121.92 68.58 0)
      (effects (font (size 1.27 1.27)) hide)
    )
    (pin "1" (uuid 1fac72fb-ea76-48fc-ac0f-2ef1c4693c4f))
    (instances
      (project "dash"
        (path "/7a48e3b6-17ec-4111-a65d-377373ba617b"
          (reference "J1") (unit 1)
        )
      )
    )
  )

  (symbol (lib_id "Device:R_Small") (at 142.24 78.74 0) (unit 1)
    (in_bom yes) (on_board yes) (dnp no)
    (uuid caf3d8be-c362-462d-b66f-e74d73e6cbc2)
    (property "Reference" "R3" (at 143.51 77.47 0)
      (effects (font (size 1.27 1.27)) (justify left))
    )
    (property "Value" "?k" (at 143.51 80.01 0)
      (effects (font (size 1.27 1.27)) (justify left))
    )
    (property "Footprint" "Resistor_SMD:R_0805_2012Metric_Pad1.20x1.40mm_HandSolder" (at 142.24 78.74 0)
      (effects (font (size 1.27 1.27)) hide)
    )
    (property "Datasheet" "~" (at 142.24 78.74 0)
      (effects (font (size 1.27 1.27)) hide)
    )
    (pin "1" (uuid ff5082bf-0ad6-437b-ac1c-101109078848))
    (pin "2" (uuid c16daa00-5046-4890-9ab3-b2635b023f87))
    (instances
      (project "dash"
        (path "/7a48e3b6-17ec-4111-a65d-377373ba617b"
          (reference "R3") (unit 1)
        )
      )
    )
  )

  (symbol (lib_id "Diode:BAT54W") (at 181.61 96.52 0) (mirror y) (unit 1)
    (in_bom yes) (on_board yes) (dnp no)
    (uuid ccdf3e1e-e3a5-4465-ad63-d60e9e10f9a0)
    (property "Reference" "D2" (at 181.61 101.6 0)
      (effects (font (size 1.27 1.27)))
    )
    (property "Value" "BAT54W" (at 180.975 99.695 0)
      (effects (font (size 1.27 1.27)))
    )
    (property "Footprint" "Package_TO_SOT_SMD:SOT-323_SC-70" (at 181.61 100.965 0)
      (effects (font (size 1.27 1.27)) hide)
    )
    (property "Datasheet" "https://assets.nexperia.com/documents/data-sheet/BAT54W_SER.pdf" (at 181.61 96.52 0)
      (effects (font (size 1.27 1.27)) hide)
    )
    (property "Supplier" "Mouser" (at 181.61 96.52 0)
      (effects (font (size 1.27 1.27)) hide)
    )
    (property "Order Code" "771-BAT54W-T/R" (at 181.61 96.52 0)
      (effects (font (size 1.27 1.27)) hide)
    )
    (pin "1" (uuid 0594f1e8-c879-49fe-994b-99c45066b4b4))
    (pin "2" (uuid 48296576-65aa-4ab1-bcb6-113e59175a85))
    (pin "3" (uuid c8959b99-1941-49f4-9504-46c8f63824ea))
    (instances
      (project "dash"
        (path "/7a48e3b6-17ec-4111-a65d-377373ba617b"
          (reference "D2") (unit 1)
        )
      )
      (project "BSPD"
        (path "/a7fc0812-140f-4d96-9cd8-ead8c1c610b1"
          (reference "D1") (unit 1)
        )
      )
    )
  )

  (symbol (lib_id "power:+12V") (at 95.25 68.58 0) (unit 1)
    (in_bom yes) (on_board yes) (dnp no) (fields_autoplaced)
    (uuid d236bb9b-d968-4105-bfb7-4b489e78a8bb)
    (property "Reference" "#PWR01" (at 95.25 72.39 0)
      (effects (font (size 1.27 1.27)) hide)
    )
    (property "Value" "+12V" (at 95.25 64.77 0)
      (effects (font (size 1.27 1.27)))
    )
    (property "Footprint" "" (at 95.25 68.58 0)
      (effects (font (size 1.27 1.27)) hide)
    )
    (property "Datasheet" "" (at 95.25 68.58 0)
      (effects (font (size 1.27 1.27)) hide)
    )
    (pin "1" (uuid 1fd614c0-e978-46df-8461-1b0f97c60a82))
    (instances
      (project "dash"
        (path "/7a48e3b6-17ec-4111-a65d-377373ba617b"
          (reference "#PWR01") (unit 1)
        )
      )
    )
  )

  (symbol (lib_id "Connector:Conn_01x01_Pin") (at 82.55 83.82 0) (unit 1)
    (in_bom yes) (on_board yes) (dnp no)
    (uuid d8e0a548-7320-4bcd-a18b-315641fcb3e2)
    (property "Reference" "J19" (at 78.74 83.82 0)
      (effects (font (size 1.27 1.27)) (justify left))
    )
    (property "Value" "Conn_01x01_Pin" (at 85.09 82.55 90)
      (effects (font (size 1.27 1.27)) (justify left) hide)
    )
    (property "Footprint" "SUFST:Pad_1x5mm" (at 82.55 83.82 0)
      (effects (font (size 1.27 1.27)) hide)
    )
    (property "Datasheet" "~" (at 82.55 83.82 0)
      (effects (font (size 1.27 1.27)) hide)
    )
    (pin "1" (uuid 2c31761d-941e-42b6-a365-781c0bb6ca55))
    (instances
      (project "dash"
        (path "/7a48e3b6-17ec-4111-a65d-377373ba617b"
          (reference "J19") (unit 1)
        )
      )
    )
  )

  (symbol (lib_id "Connector:Conn_01x01_Pin") (at 90.17 63.5 270) (unit 1)
    (in_bom yes) (on_board yes) (dnp no)
    (uuid f7387914-dc9d-40f0-bff8-b3f3828f8b74)
    (property "Reference" "J14" (at 88.9 62.23 90)
      (effects (font (size 1.27 1.27)) (justify left))
    )
    (property "Value" "Conn_01x01_Pin" (at 91.44 66.04 90)
      (effects (font (size 1.27 1.27)) (justify left) hide)
    )
    (property "Footprint" "SUFST:Pad_1x5mm" (at 90.17 63.5 0)
      (effects (font (size 1.27 1.27)) hide)
    )
    (property "Datasheet" "~" (at 90.17 63.5 0)
      (effects (font (size 1.27 1.27)) hide)
    )
    (pin "1" (uuid 19611d9a-c200-46da-9b18-f06beeb5e55a))
    (instances
      (project "dash"
        (path "/7a48e3b6-17ec-4111-a65d-377373ba617b"
          (reference "J14") (unit 1)
        )
      )
    )
  )

  (sheet_instances
    (path "/" (page "1"))
  )
)
