(kicad_pcb (version 20221018) (generator pcbnew)

  (general
    (thickness 1.59)
  )

  (paper "A4")
  (layers
    (0 "F.Cu" signal)
    (31 "B.Cu" signal)
    (32 "B.Adhes" user "B.Adhesive")
    (33 "F.Adhes" user "F.Adhesive")
    (34 "B.Paste" user)
    (35 "F.Paste" user)
    (36 "B.SilkS" user "B.Silkscreen")
    (37 "F.SilkS" user "F.Silkscreen")
    (38 "B.Mask" user)
    (39 "F.Mask" user)
    (40 "Dwgs.User" user "User.Drawings")
    (41 "Cmts.User" user "User.Comments")
    (42 "Eco1.User" user "User.Eco1")
    (43 "Eco2.User" user "User.Eco2")
    (44 "Edge.Cuts" user)
    (45 "Margin" user)
    (46 "B.CrtYd" user "B.Courtyard")
    (47 "F.CrtYd" user "F.Courtyard")
    (48 "B.Fab" user)
    (49 "F.Fab" user)
    (50 "User.1" user)
    (51 "User.2" user)
    (52 "User.3" user)
    (53 "User.4" user)
    (54 "User.5" user)
    (55 "User.6" user)
    (56 "User.7" user)
    (57 "User.8" user)
    (58 "User.9" user)
  )

  (setup
    (stackup
      (layer "F.SilkS" (type "Top Silk Screen") (color "White"))
      (layer "F.Paste" (type "Top Solder Paste"))
      (layer "F.Mask" (type "Top Solder Mask") (color "Green") (thickness 0.01))
      (layer "F.Cu" (type "copper") (thickness 0.035))
      (layer "dielectric 1" (type "core") (thickness 1.5) (material "FR4") (epsilon_r 4.5) (loss_tangent 0.02))
      (layer "B.Cu" (type "copper") (thickness 0.035))
      (layer "B.Mask" (type "Bottom Solder Mask") (color "Green") (thickness 0.01))
      (layer "B.Paste" (type "Bottom Solder Paste"))
      (layer "B.SilkS" (type "Bottom Silk Screen") (color "White"))
      (copper_finish "ENIG")
      (dielectric_constraints no)
    )
    (pad_to_mask_clearance 0)
    (pcbplotparams
      (layerselection 0x00010fc_ffffffff)
      (plot_on_all_layers_selection 0x0000000_00000000)
      (disableapertmacros false)
      (usegerberextensions true)
      (usegerberattributes true)
      (usegerberadvancedattributes false)
      (creategerberjobfile false)
      (dashed_line_dash_ratio 12.000000)
      (dashed_line_gap_ratio 3.000000)
      (svgprecision 4)
      (plotframeref false)
      (viasonmask false)
      (mode 1)
      (useauxorigin false)
      (hpglpennumber 1)
      (hpglpenspeed 20)
      (hpglpendiameter 15.000000)
      (dxfpolygonmode true)
      (dxfimperialunits true)
      (dxfusepcbnewfont true)
      (psnegative false)
      (psa4output false)
      (plotreference true)
      (plotvalue false)
      (plotinvisibletext false)
      (sketchpadsonfab false)
      (subtractmaskfromsilk true)
      (outputformat 1)
      (mirror false)
      (drillshape 0)
      (scaleselection 1)
      (outputdirectory "breakbeam-emitter-manufacture/")
    )
  )

  (net 0 "")
  (net 1 "Net-(D1-K)")
  (net 2 "+3.3V")
  (net 3 "BALL_TX")
  (net 4 "GND")
  (net 5 "Net-(Q1-D)")
  (net 6 "Net-(Q1-G)")

  (footprint "Resistor_SMD:R_0603_1608Metric_Pad0.98x0.95mm_HandSolder" (layer "F.Cu")
    (tstamp 15b9597e-862e-4b9c-b5ee-da806fa8d306)
    (at 126.4 61.9)
    (descr "Resistor SMD 0603 (1608 Metric), square (rectangular) end terminal, IPC_7351 nominal with elongated pad for handsoldering. (Body size source: IPC-SM-782 page 72, https://www.pcb-3d.com/wordpress/wp-content/uploads/ipc-sm-782a_amendment_1_and_2.pdf), generated with kicad-footprint-generator")
    (tags "resistor handsolder")
    (property "Sheetfile" "breakbeam-emitter.kicad_sch")
    (property "Sheetname" "")
    (property "ki_description" "Resistor")
    (property "ki_keywords" "R res resistor")
    (path "/cea7371e-9cb1-4d6e-a751-62e1bf51249e")
    (attr smd)
    (fp_text reference "R1" (at 0 1.5) (layer "F.SilkS")
        (effects (font (size 1 1) (thickness 0.153)))
      (tstamp af0c394e-8711-432a-ab31-0b460a79ed91)
    )
    (fp_text value "36" (at 0 1.43) (layer "F.Fab") hide
        (effects (font (size 1 1) (thickness 0.15)))
      (tstamp f110f66b-9de7-458b-89a2-4fc06916abf3)
    )
    (fp_text user "${REFERENCE}" (at 0 0) (layer "F.Fab")
        (effects (font (size 0.4 0.4) (thickness 0.06)))
      (tstamp 0148c92a-a1e1-404f-9c8d-2669d1336e93)
    )
    (fp_line (start -0.254724 -0.5225) (end 0.254724 -0.5225)
      (stroke (width 0.12) (type solid)) (layer "F.SilkS") (tstamp 5da6b0b8-b57f-4766-a103-0ed93a01509f))
    (fp_line (start -0.254724 0.5225) (end 0.254724 0.5225)
      (stroke (width 0.12) (type solid)) (layer "F.SilkS") (tstamp 33159207-7ae5-4e66-bb5f-fb62042f366c))
    (fp_line (start -1.65 -0.73) (end 1.65 -0.73)
      (stroke (width 0.05) (type solid)) (layer "F.CrtYd") (tstamp 5e111588-2828-488f-9491-1f2fe6738268))
    (fp_line (start -1.65 0.73) (end -1.65 -0.73)
      (stroke (width 0.05) (type solid)) (layer "F.CrtYd") (tstamp 17a3ebcf-e981-4f90-b8dd-e41ba97c8784))
    (fp_line (start 1.65 -0.73) (end 1.65 0.73)
      (stroke (width 0.05) (type solid)) (layer "F.CrtYd") (tstamp fdbdb710-6d94-4ad5-bb89-83c40e0fe672))
    (fp_line (start 1.65 0.73) (end -1.65 0.73)
      (stroke (width 0.05) (type solid)) (layer "F.CrtYd") (tstamp 80173742-9c4e-4e51-995f-c1a0eaede227))
    (fp_line (start -0.8 -0.4125) (end 0.8 -0.4125)
      (stroke (width 0.1) (type solid)) (layer "F.Fab") (tstamp 8990ca4e-e81a-4f63-9455-2f7310a1e025))
    (fp_line (start -0.8 0.4125) (end -0.8 -0.4125)
      (stroke (width 0.1) (type solid)) (layer "F.Fab") (tstamp fa4986ab-0d1f-4837-a379-4fbcee65d8a8))
    (fp_line (start 0.8 -0.4125) (end 0.8 0.4125)
      (stroke (width 0.1) (type solid)) (layer "F.Fab") (tstamp 0dd50b5c-7e07-4df3-9545-2a732ec78e0b))
    (fp_line (start 0.8 0.4125) (end -0.8 0.4125)
      (stroke (width 0.1) (type solid)) (layer "F.Fab") (tstamp 478c70f6-5d8c-420e-b814-4b9b922a924a))
    (pad "1" smd roundrect (at -0.9125 0) (size 0.975 0.95) (layers "F.Cu" "F.Paste" "F.Mask") (roundrect_rratio 0.25)
      (net 1 "Net-(D1-K)") (pintype "passive") (tstamp 3129ca24-a141-4a92-b7f2-8ff892f963c0))
    (pad "2" smd roundrect (at 0.9125 0) (size 0.975 0.95) (layers "F.Cu" "F.Paste" "F.Mask") (roundrect_rratio 0.25)
      (net 5 "Net-(Q1-D)") (pintype "passive") (tstamp 3bbe69de-f3c6-4fc8-bb2e-e13b0a561757))
    (model "${KICAD6_3DMODEL_DIR}/Resistor_SMD.3dshapes/R_0603_1608Metric.wrl"
      (offset (xyz 0 0 0))
      (scale (xyz 1 1 1))
      (rotate (xyz 0 0 0))
    )
  )

  (footprint "Connector_JST:JST_SH_SM03B-SRSS-TB_1x03-1MP_P1.00mm_Horizontal" (layer "F.Cu")
    (tstamp 79ef6744-c181-4551-ac5f-e7bb05fd55e6)
    (at 135 63.5 90)
    (descr "JST SH series connector, SM03B-SRSS-TB (http://www.jst-mfg.com/product/pdf/eng/eSH.pdf), generated with kicad-footprint-generator")
    (tags "connector JST SH top entry")
    (property "Sheetfile" "breakbeam-emitter.kicad_sch")
    (property "Sheetname" "")
    (property "ki_description" "Generic connector, single row, 01x03, script generated (kicad-library-utils/schlib/autogen/connector/)")
    (property "ki_keywords" "connector")
    (path "/a36e5683-08b3-455e-ae61-f7fb0b64efb6")
    (attr smd)
    (fp_text reference "J1" (at 2.1 -3.3 180) (layer "F.SilkS")
        (effects (font (size 1 1) (thickness 0.153)))
      (tstamp 0f0d7feb-ef73-42aa-aaba-0349c5d97381)
    )
    (fp_text value "Conn_01x03" (at 0 3.98 90) (layer "F.Fab") hide
        (effects (font (size 1 1) (thickness 0.15)))
      (tstamp 44f2e10f-2508-4f08-b604-f5439b0e0907)
    )
    (fp_text user "${REFERENCE}" (at 0 0 90) (layer "F.Fab")
        (effects (font (size 1 1) (thickness 0.15)))
      (tstamp 5288d595-51bd-417d-910c-b7ca3fa5e6f9)
    )
    (fp_line (start -2.61 -1.785) (end -1.56 -1.785)
      (stroke (width 0.12) (type solid)) (layer "F.SilkS") (tstamp 757c00ea-0a34-4a94-b774-7e198b007525))
    (fp_line (start -2.61 0.715) (end -2.61 -1.785)
      (stroke (width 0.12) (type solid)) (layer "F.SilkS") (tstamp 9d4451d2-d0f4-41bf-a5cd-2207fcaa3b7d))
    (fp_line (start -1.56 -1.785) (end -1.56 -2.775)
      (stroke (width 0.12) (type solid)) (layer "F.SilkS") (tstamp 9c774f9e-d4b1-4995-9038-7e50e3d24602))
    (fp_line (start -1.44 2.685) (end 1.44 2.685)
      (stroke (width 0.12) (type solid)) (layer "F.SilkS") (tstamp 8fb4c541-6090-4161-bf40-6d47e1f92efd))
    (fp_line (start 2.61 -1.785) (end 1.56 -1.785)
      (stroke (width 0.12) (type solid)) (layer "F.SilkS") (tstamp ab8966f2-c312-42ad-9906-cf62259a1c73))
    (fp_line (start 2.61 0.715) (end 2.61 -1.785)
      (stroke (width 0.12) (type solid)) (layer "F.SilkS") (tstamp 6a1bc5cc-fb7f-42f5-a2df-d3c5f79e31fe))
    (fp_line (start -3.4 -3.28) (end -3.4 3.28)
      (stroke (width 0.05) (type solid)) (layer "F.CrtYd") (tstamp f5e497f8-b993-4da8-80ed-ae6f96cd252e))
    (fp_line (start -3.4 3.28) (end 3.4 3.28)
      (stroke (width 0.05) (type solid)) (layer "F.CrtYd") (tstamp 652de19b-8e23-4084-a10f-22a17138045a))
    (fp_line (start 3.4 -3.28) (end -3.4 -3.28)
      (stroke (width 0.05) (type solid)) (layer "F.CrtYd") (tstamp b6f937c9-1854-4376-80a6-22197e8f9aeb))
    (fp_line (start 3.4 3.28) (end 3.4 -3.28)
      (stroke (width 0.05) (type solid)) (layer "F.CrtYd") (tstamp 6cfd52f6-c57e-4b4c-bc26-ca9b10710e4e))
    (fp_line (start -2.5 -1.675) (end -2.5 2.575)
      (stroke (width 0.1) (type solid)) (layer "F.Fab") (tstamp e5c2a197-cb77-4ad7-ac9e-8a7dc89ccfbc))
    (fp_line (start -2.5 -1.675) (end 2.5 -1.675)
      (stroke (width 0.1) (type solid)) (layer "F.Fab") (tstamp 3cb7cc1e-4384-4eff-885b-6c413405d070))
    (fp_line (start -2.5 2.575) (end 2.5 2.575)
      (stroke (width 0.1) (type solid)) (layer "F.Fab") (tstamp 758c77d3-24c6-4995-86f8-52dfa75e790b))
    (fp_line (start -1.5 -1.675) (end -1 -0.967893)
      (stroke (width 0.1) (type solid)) (layer "F.Fab") (tstamp cd62730d-f092-4127-a6f0-9690a1582266))
    (fp_line (start -1 -0.967893) (end -0.5 -1.675)
      (stroke (width 0.1) (type solid)) (layer "F.Fab") (tstamp 697b95aa-1f88-4ce9-8f4f-d141dce6272e))
    (fp_line (start 2.5 -1.675) (end 2.5 2.575)
      (stroke (width 0.1) (type solid)) (layer "F.Fab") (tstamp 47f494ca-ec05-4fae-9ddf-ab820a8b50b0))
    (pad "1" smd roundrect (at -1 -2 90) (size 0.6 1.55) (layers "F.Cu" "F.Paste" "F.Mask") (roundrect_rratio 0.25)
      (net 2 "+3.3V") (pinfunction "Pin_1") (pintype "passive") (tstamp cb88f998-7f9d-4596-af04-2ff208836558))
    (pad "2" smd roundrect (at 0 -2 90) (size 0.6 1.55) (layers "F.Cu" "F.Paste" "F.Mask") (roundrect_rratio 0.25)
      (net 3 "BALL_TX") (pinfunction "Pin_2") (pintype "passive") (tstamp 8722ba10-efcd-4d22-aa11-8ecaa53c9fb2))
    (pad "3" smd roundrect (at 1 -2 90) (size 0.6 1.55) (layers "F.Cu" "F.Paste" "F.Mask") (roundrect_rratio 0.25)
      (net 4 "GND") (pinfunction "Pin_3") (pintype "passive") (tstamp 98b89fec-e460-46dd-a021-47cd3d6d55f0))
    (pad "MP" smd roundrect (at -2.3 1.875 90) (size 1.2 1.8) (layers "F.Cu" "F.Paste" "F.Mask") (roundrect_rratio 0.2083333333) (tstamp 454931b5-68fa-4a6f-8588-ff70f71075a8))
    (pad "MP" smd roundrect (at 2.3 1.875 90) (size 1.2 1.8) (layers "F.Cu" "F.Paste" "F.Mask") (roundrect_rratio 0.2083333333) (tstamp 41e4916c-a531-49fc-af1e-a4ae9cd70139))
    (model "C:/Users/jspal/GitHub/electrical/robot/breakbeam/v1.0.0/SM03B-SRSS-TB_LF__SN_.step"
      (offset (xyz 0 1.4 -0.24))
      (scale (xyz 1 1 1))
      (rotate (xyz -90 0 0))
    )
  )

  (footprint "Resistor_SMD:R_0603_1608Metric_Pad0.98x0.95mm_HandSolder" (layer "F.Cu")
    (tstamp 87e3492b-076d-44f3-8007-161b176e7c36)
    (at 129.8 63.6 90)
    (descr "Resistor SMD 0603 (1608 Metric), square (rectangular) end terminal, IPC_7351 nominal with elongated pad for handsoldering. (Body size source: IPC-SM-782 page 72, https://www.pcb-3d.com/wordpress/wp-content/uploads/ipc-sm-782a_amendment_1_and_2.pdf), generated with kicad-footprint-generator")
    (tags "resistor handsolder")
    (property "Sheetfile" "breakbeam-emitter.kicad_sch")
    (property "Sheetname" "")
    (property "ki_description" "Resistor")
    (property "ki_keywords" "R res resistor")
    (path "/e5063c6f-bbe9-4cc6-8b4c-3fc07c605ded")
    (attr smd)
    (fp_text reference "R2" (at -2.5 0 180) (layer "F.SilkS")
        (effects (font (size 1 1) (thickness 0.153)))
      (tstamp 961a5be3-3633-4be7-9ae6-23197d4502b6)
    )
    (fp_text value "10k" (at 0 1.43 90) (layer "F.Fab") hide
        (effects (font (size 1 1) (thickness 0.15)))
      (tstamp dc7adfc9-45d1-48f5-aec6-b5c4eb37bd06)
    )
    (fp_text user "${REFERENCE}" (at 0 0 90) (layer "F.Fab")
        (effects (font (size 0.4 0.4) (thickness 0.06)))
      (tstamp baef72ce-61eb-4114-8724-0fce1ee4d1c5)
    )
    (fp_line (start -0.254724 -0.5225) (end 0.254724 -0.5225)
      (stroke (width 0.12) (type solid)) (layer "F.SilkS") (tstamp dd9a0195-cce8-4025-bb62-da13e9c9d30e))
    (fp_line (start -0.254724 0.5225) (end 0.254724 0.5225)
      (stroke (width 0.12) (type solid)) (layer "F.SilkS") (tstamp 36c0c76b-81ac-4c7e-8593-91e3ed413268))
    (fp_line (start -1.65 -0.73) (end 1.65 -0.73)
      (stroke (width 0.05) (type solid)) (layer "F.CrtYd") (tstamp bc44f7eb-08d1-46d2-a767-4fe3b400966f))
    (fp_line (start -1.65 0.73) (end -1.65 -0.73)
      (stroke (width 0.05) (type solid)) (layer "F.CrtYd") (tstamp 008d05ba-7ebb-4e06-95be-683e57841835))
    (fp_line (start 1.65 -0.73) (end 1.65 0.73)
      (stroke (width 0.05) (type solid)) (layer "F.CrtYd") (tstamp 0d08e5c2-261e-433c-b6a3-5ed8cc42fb10))
    (fp_line (start 1.65 0.73) (end -1.65 0.73)
      (stroke (width 0.05) (type solid)) (layer "F.CrtYd") (tstamp a6870e33-c1c4-4682-bf95-a17b709f6d4c))
    (fp_line (start -0.8 -0.4125) (end 0.8 -0.4125)
      (stroke (width 0.1) (type solid)) (layer "F.Fab") (tstamp fb73374c-a0f2-4874-a8bf-cd26c4a7e7bd))
    (fp_line (start -0.8 0.4125) (end -0.8 -0.4125)
      (stroke (width 0.1) (type solid)) (layer "F.Fab") (tstamp 8334076b-e948-41ee-809d-b07e9302c4c6))
    (fp_line (start 0.8 -0.4125) (end 0.8 0.4125)
      (stroke (width 0.1) (type solid)) (layer "F.Fab") (tstamp 05133582-96e2-48e0-9f5a-39a612886859))
    (fp_line (start 0.8 0.4125) (end -0.8 0.4125)
      (stroke (width 0.1) (type solid)) (layer "F.Fab") (tstamp f49cf362-dd70-4d6b-9b0d-7b51b444e94d))
    (pad "1" smd roundrect (at -0.9125 0 90) (size 0.975 0.95) (layers "F.Cu" "F.Paste" "F.Mask") (roundrect_rratio 0.25)
      (net 3 "BALL_TX") (pintype "passive") (tstamp a2845651-1b10-4e1d-95b3-3d0537188035))
    (pad "2" smd roundrect (at 0.9125 0 90) (size 0.975 0.95) (layers "F.Cu" "F.Paste" "F.Mask") (roundrect_rratio 0.25)
      (net 4 "GND") (pintype "passive") (tstamp 43139322-257a-40c7-a241-486d1e58c97b))
    (model "${KICAD6_3DMODEL_DIR}/Resistor_SMD.3dshapes/R_0603_1608Metric.wrl"
      (offset (xyz 0 0 0))
      (scale (xyz 1 1 1))
      (rotate (xyz 0 0 0))
    )
  )

  (footprint "Resistor_SMD:R_0603_1608Metric_Pad0.98x0.95mm_HandSolder" (layer "F.Cu")
    (tstamp 981c34b8-d772-487b-9b11-06c354f8fac3)
    (at 126.4 65.5 180)
    (descr "Resistor SMD 0603 (1608 Metric), square (rectangular) end terminal, IPC_7351 nominal with elongated pad for handsoldering. (Body size source: IPC-SM-782 page 72, https://www.pcb-3d.com/wordpress/wp-content/uploads/ipc-sm-782a_amendment_1_and_2.pdf), generated with kicad-footprint-generator")
    (tags "resistor handsolder")
    (property "Sheetfile" "breakbeam-emitter.kicad_sch")
    (property "Sheetname" "")
    (property "ki_description" "Resistor")
    (property "ki_keywords" "R res resistor")
    (path "/5444fcba-3a4a-4f1d-bd58-6a6770dfa986")
    (attr smd)
    (fp_text reference "R3" (at 0 -1.7) (layer "F.SilkS")
        (effects (font (size 1 1) (thickness 0.153)))
      (tstamp 1d01b2e5-3746-41ae-b1e5-34711f69afd3)
    )
    (fp_text value "100" (at 0 1.43) (layer "F.Fab") hide
        (effects (font (size 1 1) (thickness 0.15)))
      (tstamp 59df9218-a82d-49a8-b59a-67be6c491e79)
    )
    (fp_text user "${REFERENCE}" (at 0 0) (layer "F.Fab")
        (effects (font (size 0.4 0.4) (thickness 0.06)))
      (tstamp 393cafd7-6c5f-4362-8481-b7db88f43751)
    )
    (fp_line (start -0.254724 -0.5225) (end 0.254724 -0.5225)
      (stroke (width 0.12) (type solid)) (layer "F.SilkS") (tstamp ba4c4faf-4a74-4bdd-b986-6b70f2f11f73))
    (fp_line (start -0.254724 0.5225) (end 0.254724 0.5225)
      (stroke (width 0.12) (type solid)) (layer "F.SilkS") (tstamp 39b3d4bf-82bc-4c1a-bdca-a95e705a4c5d))
    (fp_line (start -1.65 -0.73) (end 1.65 -0.73)
      (stroke (width 0.05) (type solid)) (layer "F.CrtYd") (tstamp bbfa5561-2a53-4199-9334-cbd94fcc1926))
    (fp_line (start -1.65 0.73) (end -1.65 -0.73)
      (stroke (width 0.05) (type solid)) (layer "F.CrtYd") (tstamp d8f6ed82-117e-48a4-b6d3-4a04bb465308))
    (fp_line (start 1.65 -0.73) (end 1.65 0.73)
      (stroke (width 0.05) (type solid)) (layer "F.CrtYd") (tstamp 689d74f1-5bb2-4cd0-9874-25bea78f8197))
    (fp_line (start 1.65 0.73) (end -1.65 0.73)
      (stroke (width 0.05) (type solid)) (layer "F.CrtYd") (tstamp 13116948-02ab-43d4-9ade-52ee7766b260))
    (fp_line (start -0.8 -0.4125) (end 0.8 -0.4125)
      (stroke (width 0.1) (type solid)) (layer "F.Fab") (tstamp ef74b459-d862-463f-9d27-06805c3362c4))
    (fp_line (start -0.8 0.4125) (end -0.8 -0.4125)
      (stroke (width 0.1) (type solid)) (layer "F.Fab") (tstamp 6e478713-3f64-4b9c-85a3-e53116b727a3))
    (fp_line (start 0.8 -0.4125) (end 0.8 0.4125)
      (stroke (width 0.1) (type solid)) (layer "F.Fab") (tstamp eb7b5707-a8a5-4122-8f5b-be54eeff928c))
    (fp_line (start 0.8 0.4125) (end -0.8 0.4125)
      (stroke (width 0.1) (type solid)) (layer "F.Fab") (tstamp 9a2c8d65-8e90-40da-a345-7c2007b5d065))
    (pad "1" smd roundrect (at -0.9125 0 180) (size 0.975 0.95) (layers "F.Cu" "F.Paste" "F.Mask") (roundrect_rratio 0.25)
      (net 3 "BALL_TX") (pintype "passive") (tstamp 95c5c9a0-0a5e-4256-96d9-d0376a2d6c57))
    (pad "2" smd roundrect (at 0.9125 0 180) (size 0.975 0.95) (layers "F.Cu" "F.Paste" "F.Mask") (roundrect_rratio 0.25)
      (net 6 "Net-(Q1-G)") (pintype "passive") (tstamp a098d82b-1e0a-472c-b496-fa54ebec65b6))
    (model "${KICAD6_3DMODEL_DIR}/Resistor_SMD.3dshapes/R_0603_1608Metric.wrl"
      (offset (xyz 0 0 0))
      (scale (xyz 1 1 1))
      (rotate (xyz 0 0 0))
    )
  )

  (footprint "MountingHole:MountingHole_2.2mm_M2" (layer "F.Cu")
    (tstamp a04f419a-0bf0-40d4-8818-fdd2ad7252df)
    (at 122 68 -90)
    (descr "Mounting Hole 2.2mm, no annular, M2")
    (tags "mounting hole 2.2mm no annular m2")
    (property "Sheetfile" "breakbeam-emitter.kicad_sch")
    (property "Sheetname" "")
    (property "ki_description" "Mounting Hole without connection")
    (property "ki_keywords" "mounting hole")
    (path "/e07a84a4-c56c-420b-8ce5-3f1b6192c43b")
    (attr exclude_from_pos_files)
    (fp_text reference "H1" (at 0 -3.2 90) (layer "B.SilkS")
        (effects (font (size 1 1) (thickness 0.153)) (justify mirror))
      (tstamp 2434a88c-3a3a-424c-aa2b-36df60645944)
    )
    (fp_text value "MountingHole" (at 0 3.2 90) (layer "F.Fab") hide
        (effects (font (size 1 1) (thickness 0.15)))
      (tstamp 1927a9ef-c5fe-4171-8fd6-518f26f9df28)
    )
    (fp_text user "${REFERENCE}" (at 0 0 90) (layer "F.Fab")
        (effects (font (size 1 1) (thickness 0.15)))
      (tstamp e1baba54-afa1-4bbc-8df4-7b8dffc6ef94)
    )
    (fp_circle (center 0 0) (end 2.2 0)
      (stroke (width 0.15) (type solid)) (fill none) (layer "Cmts.User") (tstamp 20e16d2f-940a-4b57-accf-4f8b5ec43426))
    (fp_circle (center 0 0) (end 2.45 0)
      (stroke (width 0.05) (type solid)) (fill none) (layer "F.CrtYd") (tstamp d3b6e648-b193-4cc3-b270-1208c916d5d8))
    (pad "" np_thru_hole circle (at 0 0 270) (size 2.2 2.2) (drill 2.2) (layers "*.Cu" "*.Mask") (tstamp 302bc927-c028-42b5-be99-88acc01700e9))
  )

  (footprint "MountingHole:MountingHole_2.2mm_M2" (layer "F.Cu")
    (tstamp a4bc7c93-04d6-4a11-b43e-6097d08a0690)
    (at 122 59 -90)
    (descr "Mounting Hole 2.2mm, no annular, M2")
    (tags "mounting hole 2.2mm no annular m2")
    (property "Sheetfile" "breakbeam-emitter.kicad_sch")
    (property "Sheetname" "")
    (property "ki_description" "Mounting Hole without connection")
    (property "ki_keywords" "mounting hole")
    (path "/922ff03e-26db-4e83-bc4c-366b7d2b78ec")
    (attr exclude_from_pos_files)
    (fp_text reference "H2" (at 0 -3.2 90) (layer "B.SilkS")
        (effects (font (size 1 1) (thickness 0.153)) (justify mirror))
      (tstamp 3baef710-14db-422e-9477-6acf5336fbb1)
    )
    (fp_text value "MountingHole" (at 0 3.2 90) (layer "F.Fab") hide
        (effects (font (size 1 1) (thickness 0.15)))
      (tstamp 1df34f2f-1378-4cdc-b049-25783e3c3d85)
    )
    (fp_text user "${REFERENCE}" (at 0 0 90) (layer "F.Fab")
        (effects (font (size 1 1) (thickness 0.15)))
      (tstamp cebedff2-d837-45a4-99c1-04590c78a3e7)
    )
    (fp_circle (center 0 0) (end 2.2 0)
      (stroke (width 0.15) (type solid)) (fill none) (layer "Cmts.User") (tstamp 32ebc1d2-5d32-4c18-bbc0-037180370e8f))
    (fp_circle (center 0 0) (end 2.45 0)
      (stroke (width 0.05) (type solid)) (fill none) (layer "F.CrtYd") (tstamp 923665d6-71a1-4703-a4d0-e8f445ca7877))
    (pad "" np_thru_hole circle (at 0 0 270) (size 2.2 2.2) (drill 2.2) (layers "*.Cu" "*.Mask") (tstamp ca0361de-d166-4c12-ab6f-2b5aafeceaa9))
  )

  (footprint "breakbeam-emitter:SOT23-3_ROM-L" (layer "F.Cu")
    (tstamp d2394f05-34cb-44d5-b1ab-f68769a46f33)
    (at 128 59)
    (tags "RUC002N05T116 ")
    (property "Sheetfile" "breakbeam-emitter.kicad_sch")
    (property "Sheetname" "")
    (property "Sim.Device" "NMOS")
    (property "Sim.Pins" "1=D 2=G 3=S")
    (property "Sim.Type" "VDMOS")
    (property "ki_description" "N-MOSFET transistor, drain/source/gate")
    (property "ki_keywords" "transistor NMOS N-MOS N-MOSFET simulation")
    (path "/dde78885-5e6e-42dd-937d-b99609cd5847")
    (attr smd)
    (fp_text reference "Q1" (at 2.8 -0.7 unlocked) (layer "F.SilkS")
        (effects (font (size 1 1) (thickness 0.153)))
      (tstamp 065a8611-0402-42c2-a5c4-85e8e64aaf4a)
    )
    (fp_text value "RUC002N05T116" (at 4 -4 90 unlocked) (layer "F.Fab") hide
        (effects (font (size 1 1) (thickness 0.15)))
      (tstamp d6ba0509-841c-42b9-ace8-ae22288eda3c)
    )
    (fp_text user "${REFERENCE}" (at 0 0 unlocked) (layer "F.Fab")
        (effects (font (size 0.5 0.5) (thickness 0.1) bold))
      (tstamp 300ee561-a203-437b-a94a-55f2914bb7a1)
    )
    (fp_line (start -1.6764 -0.8763) (end -1.6764 0.8763)
      (stroke (width 0.1524) (type solid)) (layer "F.SilkS") (tstamp 8c1b1dbc-21c3-4091-a562-11bc6c5b8068))
    (fp_line (start -0.58674 -0.8763) (end -1.6764 -0.8763)
      (stroke (width 0.1524) (type solid)) (layer "F.SilkS") (tstamp 25bf376a-52a2-4f05-b4fa-1da894197c2a))
    (fp_line (start -0.36576 0.8763) (end 0.36576 0.8763)
      (stroke (width 0.1524) (type solid)) (layer "F.SilkS") (tstamp ea57e71b-d227-4ea7-b438-86bec701e183))
    (fp_line (start 1.6764 -0.8763) (end 0.58674 -0.8763)
      (stroke (width 0.1524) (type solid)) (layer "F.SilkS") (tstamp f7fd967e-7b3c-42cd-8211-3561461266c5))
    (fp_line (start 1.6764 0.8763) (end 1.6764 -0.8763)
      (stroke (width 0.1524) (type solid)) (layer "F.SilkS") (tstamp bcdd810f-11ba-41e2-a4d1-588b2399c458))
    (fp_circle (center -2.003837 1.443624) (end -1.876837 1.443624)
      (stroke (width 0.1524) (type solid)) (fill none) (layer "F.SilkS") (tstamp a6713ac9-4d1c-456f-811a-f9443bc34844))
    (fp_line (start -1.651 -0.8509) (end -0.3556 -0.8509)
      (stroke (width 0.1524) (type solid)) (layer "F.CrtYd") (tstamp 1044b0b8-7a47-42dd-8c8f-072e0c5ea865))
    (fp_line (start -1.651 0.8509) (end -1.651 -0.8509)
      (stroke (width 0.1524) (type solid)) (layer "F.CrtYd") (tstamp 59dda5a6-b6b4-48d6-9d36-86f108369cc6))
    (fp_line (start -1.651 0.8509) (end -1.3081 0.8509)
      (stroke (width 0.1524) (type solid)) (layer "F.CrtYd") (tstamp 8b329e09-3068-4155-a336-2bf1d6578521))
    (fp_line (start -1.3081 0.8509) (end -1.3081 1.5494)
      (stroke (width 0.1524) (type solid)) (layer "F.CrtYd") (tstamp 4dc99065-511f-4e96-86d7-368e13a79d97))
    (fp_line (start -1.3081 1.5494) (end 1.3081 1.5494)
      (stroke (width 0.1524) (type solid)) (layer "F.CrtYd") (tstamp c8112e99-e731-4ce1-9a3c-7180f857af81))
    (fp_line (start -0.3556 -1.5494) (end 0.3556 -1.5494)
      (stroke (width 0.1524) (type solid)) (layer "F.CrtYd") (tstamp de740857-5532-486f-8da4-04556c3d89c7))
    (fp_line (start -0.3556 -0.8509) (end -0.3556 -1.5494)
      (stroke (width 0.1524) (type solid)) (layer "F.CrtYd") (tstamp fbff4758-6a09-429b-a76c-a3a053ed649e))
    (fp_line (start 0.3556 -0.8509) (end 0.3556 -1.5494)
      (stroke (width 0.1524) (type solid)) (layer "F.CrtYd") (tstamp eb290e06-ace7-4310-8db7-aed47839b872))
    (fp_line (start 1.3081 0.8509) (end 1.3081 1.5494)
      (stroke (width 0.1524) (type solid)) (layer "F.CrtYd") (tstamp 4251ff6b-c323-42d9-a054-bcafee0a6671))
    (fp_line (start 1.651 -0.8509) (end 0.3556 -0.8509)
      (stroke (width 0.1524) (type solid)) (layer "F.CrtYd") (tstamp 04ad44d3-8505-46af-9f50-cd8be07ceb99))
    (fp_line (start 1.651 -0.8509) (end 1.651 0.8509)
      (stroke (width 0.1524) (type solid)) (layer "F.CrtYd") (tstamp 0bcfb38f-24bb-49d2-a30a-dbb5b3dd69dc))
    (fp_line (start 1.651 0.8509) (end 1.3081 0.8509)
      (stroke (width 0.1524) (type solid)) (layer "F.CrtYd") (tstamp ac82c661-2b03-4fbe-990e-518e45cfa3d9))
    (fp_line (start -1.5494 -0.7493) (end -1.5494 0.7493)
      (stroke (width 0.0254) (type solid)) (layer "F.Fab") (tstamp feb17692-14a3-4690-abab-bca29fe71fdf))
    (fp_line (start -1.5494 0.7493) (end 1.5494 0.7493)
      (stroke (width 0.0254) (type solid)) (layer "F.Fab") (tstamp 045e170a-f617-4647-abf7-9c0cb58a7d4a))
    (fp_line (start -1.2065 0.7493) (end -1.2065 1.2954)
      (stroke (width 0.0254) (type solid)) (layer "F.Fab") (tstamp 3676bd39-310c-4e2f-a49d-6377ebcdf345))
    (fp_line (start -1.2065 1.2954) (end -0.6985 1.2954)
      (stroke (width 0.0254) (type solid)) (layer "F.Fab") (tstamp a1c2fc06-2357-4c1c-bb48-a1f2cddd012f))
    (fp_line (start -0.6985 0.7493) (end -1.2065 0.7493)
      (stroke (width 0.0254) (type solid)) (layer "F.Fab") (tstamp 6bc589e5-36dd-4377-a81e-aa1224b1e271))
    (fp_line (start -0.6985 1.2954) (end -0.6985 0.7493)
      (stroke (width 0.0254) (type solid)) (layer "F.Fab") (tstamp ea145cc6-0929-4691-bd37-3b3ba2b73669))
    (fp_line (start -0.254 -1.2954) (end -0.254 -0.7493)
      (stroke (width 0.0254) (type solid)) (layer "F.Fab") (tstamp 50d71ac1-5f45-41fa-acd3-1ebd3eb1be0a))
    (fp_line (start -0.254 -0.7493) (end 0.254 -0.7493)
      (stroke (width 0.0254) (type solid)) (layer "F.Fab") (tstamp 597c8f24-8d5a-45a0-8d86-465ac9b2e46d))
    (fp_line (start 0.254 -1.2954) (end -0.254 -1.2954)
      (stroke (width 0.0254) (type solid)) (layer "F.Fab") (tstamp 8975c553-6c52-47d0-b5c0-ad53d6937bc4))
    (fp_line (start 0.254 -0.7493) (end 0.254 -1.2954)
      (stroke (width 0.0254) (type solid)) (layer "F.Fab") (tstamp a74b050a-00f7-47fd-906f-e0b2ad34049f))
    (fp_line (start 0.6985 0.7493) (end 0.6985 1.2954)
      (stroke (width 0.0254) (type solid)) (layer "F.Fab") (tstamp aafb46b9-886f-43f3-a7ec-678369d3fc31))
    (fp_line (start 0.6985 1.2954) (end 1.2065 1.2954)
      (stroke (width 0.0254) (type solid)) (layer "F.Fab") (tstamp 36d49d81-aa9a-4063-a620-20a978e02330))
    (fp_line (start 1.2065 0.7493) (end 0.6985 0.7493)
      (stroke (width 0.0254) (type solid)) (layer "F.Fab") (tstamp e6a88a3f-26a7-41d0-8122-c4904718c99a))
    (fp_line (start 1.2065 1.2954) (end 1.2065 0.7493)
      (stroke (width 0.0254) (type solid)) (layer "F.Fab") (tstamp 22406abc-cacc-420b-b34d-c2a35261ebf9))
    (fp_line (start 1.5494 -0.7493) (end -1.5494 -0.7493)
      (stroke (width 0.0254) (type solid)) (layer "F.Fab") (tstamp 2d37c40a-b40e-44a8-af4e-5929807d9af2))
    (fp_line (start 1.5494 0.7493) (end 1.5494 -0.7493)
      (stroke (width 0.0254) (type solid)) (layer "F.Fab") (tstamp 43ef97fc-9ba5-44fe-9133-7ed59736657d))
    (fp_circle (center -1.2954 0.4953) (end -1.1684 0.4953)
      (stroke (width 0.0254) (type solid)) (fill none) (layer "F.Fab") (tstamp aade83fb-ac4d-4eff-8c47-b89858aa94bd))
    (pad "1" smd rect (at -0.9525 1.0922) (size 0.508 0.7112) (layers "F.Cu" "F.Paste" "F.Mask")
      (net 5 "Net-(Q1-D)") (pinfunction "D") (pintype "passive") (tstamp 4838096c-9a06-4345-a1d2-ae17db999fc0))
    (pad "2" smd rect (at 0.9525 1.0922) (size 0.508 0.7112) (layers "F.Cu" "F.Paste" "F.Mask")
      (net 6 "Net-(Q1-G)") (pinfunction "G") (pintype "input") (tstamp 108af32e-737e-4fb5-9cc3-55701805057d))
    (pad "3" smd rect (at 0 -1.0922) (size 0.508 0.7112) (layers "F.Cu" "F.Paste" "F.Mask")
      (net 4 "GND") (pinfunction "S") (pintype "passive") (tstamp 3193907c-3ca8-4b5d-b1a4-516080e92506))
    (model "C:/Users/jspal/GitHub/electrical/robot/breakbeam/v1.0.0/SOT23-3.stp"
      (offset (xyz 0 0 0))
      (scale (xyz 1 1 1))
      (rotate (xyz 0 0 90))
    )
  )

  (footprint "AT-Style:logo_3_mm_3_mm" (layer "B.Cu")
    (tstamp 389b1970-aa09-4602-bd92-691c6ef6e32b)
    (at 135.5 60.5 180)
    (attr board_only exclude_from_pos_files exclude_from_bom)
    (fp_text reference "G***" (at 0 0) (layer "B.SilkS") hide
        (effects (font (size 1.5 1.5) (thickness 0.3)) (justify mirror))
      (tstamp bbecd233-33ef-4c7f-aad8-53a9e411d470)
    )
    (fp_text value "LOGO" (at 0.75 0) (layer "B.SilkS") hide
        (effects (font (size 1.5 1.5) (thickness 0.3)) (justify mirror))
      (tstamp 779a81a6-5f17-416c-946d-712bc2ba10f8)
    )
    (fp_poly
      (pts
        (xy 0.084667 1.104608)
        (xy 0.147904 1.099875)
        (xy 0.180206 1.095398)
        (xy 0.322169 1.061718)
        (xy 0.456925 1.011636)
        (xy 0.583926 0.945492)
        (xy 0.702625 0.86363)
        (xy 0.812473 0.766392)
        (xy 0.912923 0.65412)
        (xy 0.937606 0.622279)
        (xy 0.96758 0.579457)
        (xy 0.995872 0.533645)
        (xy 1.020561 0.48853)
        (xy 1.039727 0.447796)
        (xy 1.05145 0.415131)
        (xy 1.054204 0.398475)
        (xy 1.050505 0.373967)
        (xy 1.041173 0.343344)
        (xy 1.036058 0.330691)
        (xy 1.026275 0.304678)
        (xy 1.021897 0.279516)
        (xy 1.022111 0.248004)
        (xy 1.024011 0.224049)
        (xy 1.032764 0.173874)
        (xy 1.048446 0.139843)
        (xy 1.071494 0.121291)
        (xy 1.094133 0.117134)
        (xy 1.11474 0.112649)
        (xy 1.130013 0.097915)
        (xy 1.140723 0.071017)
        (xy 1.147639 0.030038)
        (xy 1.151479 -0.025662)
        (xy 1.149055 -0.14185)
        (xy 1.133304 -0.263808)
        (xy 1.105256 -0.386416)
        (xy 1.065944 -0.504554)
        (xy 1.044967 -0.554637)
        (xy 1.001368 -0.637177)
        (xy 0.944248 -0.722728)
        (xy 0.876763 -0.807472)
        (xy 0.802068 -0.887591)
        (xy 0.723321 -0.959267)
        (xy 0.68614 -0.988703)
        (xy 0.650923 -1.013429)
        (xy 0.609229 -1.039945)
        (xy 0.564453 -1.066397)
        (xy 0.519992 -1.090934)
        (xy 0.479244 -1.111702)
        (xy 0.445603 -1.12685)
        (xy 0.422468 -1.134525)
        (xy 0.41769 -1.135103)
        (xy 0.398369 -1.128601)
        (xy 0.392056 -1.111266)
        (xy 0.394137 -1.101175)
        (xy 0.403563 -1.092172)
        (xy 0.425342 -1.077938)
        (xy 0.455534 -1.060945)
        (xy 0.47046 -1.053236)
        (xy 0.514851 -1.029688)
        (xy 0.558935 -1.004152)
        (xy 0.599617 -0.978656)
        (xy 0.633804 -0.955229)
        (xy 0.658402 -0.935898)
        (xy 0.670318 -0.922691)
        (xy 0.670603 -0.922035)
        (xy 0.670027 -0.906629)
        (xy 0.662891 -0.882188)
        (xy 0.656894 -0.867611)
        (xy 0.646123 -0.84279)
        (xy 0.642773 -0.827688)
        (xy 0.646697 -0.815668)
        (xy 0.655489 -0.803127)
        (xy 0.674013 -0.786197)
        (xy 0.701759 -0.769103)
        (xy 0.717927 -0.761604)
        (xy 0.774833 -0.733656)
        (xy 0.820874 -0.698694)
        (xy 0.860483 -0.654807)
        (xy 0.884639 -0.619991)
        (xy 0.911635 -0.57453)
        (xy 0.939236 -0.522937)
        (xy 0.965206 -0.469727)
        (xy 0.98731 -0.419416)
        (xy 1.003314 -0.376518)
        (xy 1.00966 -0.353465)
        (xy 1.015497 -0.306736)
        (xy 1.01581 -0.254286)
        (xy 1.011248 -0.200335)
        (xy 1.002457 -0.149101)
        (xy 0.990086 -0.104805)
        (xy 0.974784 -0.071668)
        (xy 0.964418 -0.058854)
        (xy 0.948814 -0.048979)
        (xy 0.928069 -0.046231)
        (xy 0.902686 -0.048486)
        (xy 0.855094 -0.056552)
        (xy 0.809686 -0.067349)
        (xy 0.770998 -0.079553)
        (xy 0.743563 -0.091837)
        (xy 0.735843 -0.097264)
        (xy 0.724948 -0.111402)
        (xy 0.708684 -0.137747)
        (xy 0.689443 -0.172241)
        (xy 0.673638 -0.202731)
        (xy 0.648627 -0.251257)
        (xy 0.619077 -0.306529)
        (xy 0.589689 -0.359822)
        (xy 0.576051 -0.383824)
        (xy 0.554573 -0.4222)
        (xy 0.53626 -0.456967)
        (xy 0.523222 -0.483987)
        (xy 0.517815 -0.497964)
        (xy 0.518169 -0.515433)
        (xy 0.523346 -0.546033)
        (xy 0.532286 -0.58586)
        (xy 0.543932 -0.63101)
        (xy 0.557224 -0.677582)
        (xy 0.571104 -0.721672)
        (xy 0.584512 -0.759375)
        (xy 0.595883 -0.785789)
        (xy 0.609593 -0.820079)
        (xy 0.610489 -0.846657)
        (xy 0.598377 -0.870676)
        (xy 0.592427 -0.877872)
        (xy 0.574232 -0.89389)
        (xy 0.543121 -0.916456)
        (xy 0.502109 -0.943696)
        (xy 0.454212 -0.97374)
        (xy 0.402445 -1.004714)
        (xy 0.349825 -1.034748)
        (xy 0.299368 -1.061967)
        (xy 0.279395 -1.072186)
        (xy 0.238711 -1.093223)
        (xy 0.211645 -1.109113)
        (xy 0.195324 -1.121967)
        (xy 0.186873 -1.133896)
        (xy 0.18426 -1.142049)
        (xy 0.174845 -1.176104)
        (xy 0.162161 -1.197038)
        (xy 0.142441 -1.209743)
        (xy 0.128328 -1.21467)
        (xy 0.097761 -1.220116)
        (xy 0.052703 -1.223141)
        (xy -0.003478 -1.223729)
        (xy -0.067413 -1.221863)
        (xy -0.135733 -1.217528)
        (xy -0.153377 -1.216032)
        (xy -0.20402 -1.210554)
        (xy -0.248617 -1.20313)
        (xy -0.293991 -1.192294)
        (xy -0.346968 -1.176579)
        (xy -0.367262 -1.170079)
        (xy -0.408108 -1.153427)
        (xy -0.431117 -1.135776)
        (xy -0.436223 -1.117189)
        (xy -0.432634 -1.108492)
        (xy -0.426649 -1.104147)
        (xy -0.414253 -1.103201)
        (xy -0.392797 -1.106021)
        (xy -0.359637 -1.112977)
        (xy -0.312124 -1.124434)
        (xy -0.304866 -1.126246)
        (xy -0.228096 -1.143572)
        (xy -0.160195 -1.154429)
        (xy -0.093707 -1.159979)
        (xy -0.085598 -1.160339)
        (xy -0.041745 -1.161866)
        (xy -0.012168 -1.161889)
        (xy 0.006849 -1.159927)
        (xy 0.019023 -1.1555)
        (xy 0.02807 -1.148126)
        (xy 0.030713 -1.145286)
        (xy 0.042195 -1.125336)
        (xy 0.039025 -1.10582)
        (xy 0.020353 -1.085606)
        (xy -0.014673 -1.063561)
        (xy -0.04058 -1.050549)
        (xy -0.081289 -1.030115)
        (xy -0.123545 -1.007134)
        (xy -0.158639 -0.986356)
        (xy -0.160621 -0.985094)
        (xy -0.19832 -0.962012)
        (xy -0.230453 -0.945786)
        (xy -0.262363 -0.934743)
        (xy -0.299391 -0.927213)
        (xy -0.346878 -0.921525)
        (xy -0.370873 -0.919314)
        (xy -0.422852 -0.91392)
        (xy -0.478609 -0.906792)
        (xy -0.529599 -0.899073)
        (xy -0.552385 -0.895016)
        (xy -0.598485 -0.887405)
        (xy -0.630143 -0.885808)
        (xy -0.650086 -0.890779)
        (xy -0.661046 -0.902871)
        (xy -0.665154 -0.917858)
        (xy -0.661162 -0.937874)
        (xy -0.646567 -0.96398)
        (xy -0.640319 -0.972368)
        (xy -0.621783 -1.001625)
        (xy -0.618104 -1.022852)
        (xy -0.628984 -1.034956)
        (xy -0.654125 -1.036841)
        (xy -0.657751 -1.036378)
        (xy -0.677934 -1.028048)
        (xy -0.707671 -1.008677)
        (xy -0.744269 -0.98044)
        (xy -0.785034 -0.945517)
        (xy -0.827272 -0.906083)
        (xy -0.860752 -0.872292)
        (xy -0.955699 -0.761086)
        (xy -1.033991 -0.643709)
        (xy -1.095913 -0.519473)
        (xy -1.119157 -0.452647)
        (xy -1.034917 -0.452647)
        (xy -1.030701 -0.471114)
        (xy -1.01875 -0.500241)
        (xy -1.005427 -0.528715)
        (xy -0.951332 -0.626641)
        (xy -0.882784 -0.725865)
        (xy -0.838107 -0.781642)
        (xy -0.806829 -0.816867)
        (xy -0.783769 -0.838046)
        (xy -0.76732 -0.84624)
        (xy -0.755874 -0.842511)
        (xy -0.752474 -0.838143)
        (xy -0.750668 -0.830293)
        (xy -0.753961 -0.817964)
        (xy -0.763581 -0.798841)
        (xy -0.780757 -0.770608)
        (xy -0.80672 -0.730949)
        (xy -0.819541 -0.711813)
        (xy -0.84784 -0.668557)
        (xy -0.879705 -0.61801)
        (xy -0.909869 -0.568584)
        (xy -0.921088 -0.549627)
        (xy -0.951259 -0.5)
        (xy -0.975323 -0.465326)
        (xy -0.994586 -0.444134)
        (xy -1.010356 -0.434954)
        (xy -1.022332 -0.435623)
        (xy -1.031944 -0.441823)
        (xy -1.034917 -0.452647)
        (xy -1.119157 -0.452647)
        (xy -1.134597 -0.408255)
        (xy -0.888575 -0.408255)
        (xy -0.883604 -0.438286)
        (xy -0.87115 -0.472343)
        (xy -0.850239 -0.514355)
        (xy -0.828028 -0.554133)
        (xy -0.784291 -0.626835)
        (xy -0.744445 -0.684407)
        (xy -0.706503 -0.728751)
        (xy -0.668483 -0.761774)
        (xy -0.6284 -0.78538)
        (xy -0.584269 -0.801474)
        (xy -0.565544 -0.806123)
        (xy -0.480251 -0.822947)
        (xy -0.410281 -0.832088)
        (xy -0.354673 -0.83358)
        (xy -0.312463 -0.827455)
        (xy -0.285691 -0.815826)
        (xy -0.270951 -0.800393)
        (xy -0.251505 -0.772018)
        (xy -0.229293 -0.73451)
        (xy -0.206253 -0.69168)
        (xy -0.184326 -0.647335)
        (xy -0.16545 -0.605285)
        (xy -0.151565 -0.56934)
        (xy -0.14461 -0.543307)
        (xy -0.144164 -0.537845)
        (xy -0.147275 -0.513583)
        (xy -0.157143 -0.482216)
        (xy -0.174567 -0.441954)
        (xy -0.200349 -0.391005)
        (xy -0.235291 -0.327575)
        (xy -0.248545 -0.304336)
        (xy -0.273479 -0.260561)
        (xy -0.290366 -0.229432)
        (xy -0.300282 -0.208057)
        (xy -0.304304 -0.193542)
        (xy -0.30351 -0.182995)
        (xy -0.298975 -0.173521)
        (xy -0.297883 -0.171767)
        (xy -0.288461 -0.163743)
        (xy -0.2757 -0.166034)
        (xy -0.258523 -0.179724)
        (xy -0.235853 -0.205893)
        (xy -0.206613 -0.245626)
        (xy -0.169723 -0.300003)
        (xy -0.168753 -0.301469)
        (xy -0.135355 -0.351856)
        (xy -0.108097 -0.390613)
        (xy -0.083921 -0.41924)
        (xy -0.059765 -0.439233)
        (xy -0.032569 -0.45209)
        (xy 0.000726 -0.459309)
        (xy 0.043181 -0.462387)
        (xy 0.097856 -0.462823)
        (xy 0.159664 -0.462197)
        (xy 0.216389 -0.461112)
        (xy 0.269289 -0.459207)
        (xy 0.314794 -0.456678)
        (xy 0.349331 -0.453722)
        (xy 0.369023 -0.450622)
        (xy 0.394699 -0.440707)
        (xy 0.418808 -0.424203)
        (xy 0.442847 -0.399192)
        (xy 0.468313 -0.363757)
        (xy 0.496704 -0.315981)
        (xy 0.529516 -0.253946)
        (xy 0.542055 -0.229047)
        (xy 0.572309 -0.167934)
        (xy 0.594705 -0.119086)
        (xy 0.609081 -0.078961)
        (xy 0.615277 -0.044017)
        (xy 0.613131 -0.01071)
        (xy 0.602484 0.024501)
        (xy 0.583173 0.06516)
        (xy 0.555039 0.114808)
        (xy 0.524087 0.16669)
        (xy 0.479843 0.236435)
        (xy 0.439447 0.29103)
        (xy 0.401232 0.332484)
        (xy 0.363529 0.362802)
        (xy 0.358159 0.366296)
        (xy 0.332074 0.388121)
        (xy 0.323994 0.409295)
        (xy 0.326568 0.414651)
        (xy 0.477545 0.414651)
        (xy 0.481008 0.395017)
        (xy 0.492197 0.36837)
        (xy 0.512313 0.332277)
        (xy 0.539444 0.289081)
        (xy 0.567882 0.244422)
        (xy 0.596961 0.197324)
        (xy 0.622887 0.154005)
        (xy 0.638867 0.126144)
        (xy 0.671465 0.07288)
        (xy 0.700895 0.036572)
        (xy 0.727824 0.01657)
        (xy 0.752922 0.012222)
        (xy 0.755369 0.012626)
        (xy 0.776906 0.016726)
        (xy 0.808659 0.022629)
        (xy 0.837957 0.027999)
        (xy 0.889113 0.039339)
        (xy 0.92477 0.053122)
        (xy 0.947446 0.071613)
        (xy 0.959663 0.097076)
        (xy 0.963939 0.131775)
        (xy 0.964065 0.14132)
        (xy 0.961444 0.186557)
        (xy 0.95445 0.241788)
        (xy 0.944285 0.300185)
        (xy 0.932154 0.354919)
        (xy 0.91926 0.399162)
        (xy 0.917958 0.402794)
        (xy 0.890258 0.454702)
        (xy 0.844732 0.508014)
        (xy 0.781332 0.562782)
        (xy 0.726826 0.601655)
        (xy 0.685899 0.627444)
        (xy 0.655294 0.642399)
        (xy 0.631627 0.647388)
        (xy 0.611517 0.643279)
        (xy 0.597049 0.63497)
        (xy 0.581205 0.618457)
        (xy 0.56104 0.589879)
        (xy 0.538906 0.553574)
        (xy 0.517156 0.513879)
        (xy 0.498144 0.475133)
        (xy 0.484221 0.441673)
        (xy 0.477741 0.417836)
        (xy 0.477545 0.414651)
        (xy 0.326568 0.414651)
        (xy 0.333922 0.429953)
        (xy 0.359625 0.448989)
        (xy 0.38635 0.470048)
        (xy 0.415117 0.502572)
        (xy 0.44366 0.542651)
        (xy 0.469713 0.586377)
        (xy 0.491012 0.629839)
        (xy 0.50529 0.669129)
        (xy 0.510283 0.700336)
        (xy 0.509584 0.707795)
        (xy 0.499597 0.728975)
        (xy 0.477791 0.757663)
        (xy 0.447117 0.791044)
        (xy 0.410529 0.826305)
        (xy 0.370977 0.860631)
        (xy 0.366113 0.86439)
        (xy 0.515245 0.86439)
        (xy 0.523853 0.840863)
        (xy 0.547531 0.80872)
        (xy 0.56002 0.795222)
        (xy 0.603054 0.754519)
        (xy 0.644716 0.721654)
        (xy 0.683065 0.697538)
        (xy 0.716161 0.683079)
        (xy 0.742063 0.679187)
        (xy 0.758831 0.686772)
        (xy 0.764121 0.699579)
        (xy 0.758505 0.716384)
        (xy 0.739414 0.740595)
        (xy 0.708819 0.770336)
        (xy 0.668692 0.803733)
        (xy 0.621006 0.838911)
        (xy 0.608499 0.847517)
        (xy 0.568334 0.870865)
        (xy 0.538636 0.880632)
        (xy 0.520556 0.87806)
        (xy 0.515245 0.86439)
        (xy 0.366113 0.86439)
        (xy 0.331415 0.891207)
        (xy 0.294794 0.915221)
        (xy 0.28797 0.919049)
        (xy 0.229763 0.950585)
        (xy 0.067577 0.950585)
        (xy 0.012686 0.950185)
        (xy -0.038303 0.949074)
        (xy -0.081685 0.947389)
        (xy -0.113759 0.945268)
        (xy -0.128934 0.943319)
        (xy -0.166589 0.92726)
        (xy -0.207779 0.894774)
        (xy -0.251382 0.846846)
        (xy -0.275643 0.814739)
        (xy -0.297951 0.783044)
        (xy -0.313288 0.757721)
        (xy -0.320859 0.73609)
        (xy -0.319864 0.715474)
        (xy -0.309507 0.693194)
        (xy -0.28899 0.666572)
        (xy -0.257517 0.632929)
        (xy -0.214289 0.589586)
        (xy -0.206236 0.581581)
        (xy -0.085598 0.461622)
        (xy 0.049557 0.456928)
        (xy 0.107757 0.454655)
        (xy 0.150512 0.452122)
        (xy 0.180395 0.448801)
        (xy 0.199981 0.444162)
        (xy 0.211842 0.437677)
        (xy 0.218552 0.428817)
        (xy 0.221335 0.421647)
        (xy 0.222774 0.403459)
        (xy 0.212758 0.389793)
        (xy 0.189533 0.379785)
        (xy 0.151344 0.372568)
        (xy 0.113831 0.368635)
        (xy 0.054562 0.362668)
        (xy 0.009713 0.355389)
        (xy -0.024318 0.345604)
        (xy -0.051132 0.332118)
        (xy -0.074328 0.313734)
        (xy -0.085598 0.302436)
        (xy -0.102241 0.281003)
        (xy -0.124676 0.246799)
        (xy -0.150956 0.203327)
        (xy -0.179134 0.154091)
        (xy -0.207261 0.102594)
        (xy -0.233392 0.052339)
        (xy -0.255577 0.006828)
        (xy -0.271871 -0.030434)
        (xy -0.274643 -0.037638)
        (xy -0.297028 -0.081739)
        (xy -0.325165 -0.109484)
        (xy -0.35852 -0.120373)
        (xy -0.36267 -0.120522)
        (xy -0.380565 -0.119741)
        (xy -0.413085 -0.117428)
        (xy -0.456926 -0.113854)
        (xy -0.508781 -0.109288)
        (xy -0.565346 -0.104002)
        (xy -0.570862 -0.103471)
        (xy -0.749777 -0.086186)
        (xy -0.77871 -0.117757)
        (xy -0.799917 -0.147286)
        (xy -0.822832 -0.189902)
        (xy -0.845426 -0.241062)
        (xy -0.865671 -0.296222)
        (xy -0.879958 -0.344561)
        (xy -0.887035 -0.378323)
        (xy -0.888575 -0.408255)
        (xy -1.134597 -0.408255)
        (xy -1.141751 -0.387687)
        (xy -1.17179 -0.247663)
        (xy -1.186317 -0.098711)
        (xy -1.186846 -0.085598)
        (xy -1.185827 -0.044829)
        (xy -1.097503 -0.044829)
        (xy -1.09585 -0.118687)
        (xy -1.089597 -0.18542)
        (xy -1.079548 -0.236539)
        (xy -1.065057 -0.274174)
        (xy -1.045479 -0.300455)
        (xy -1.039067 -0.306015)
        (xy -1.01609 -0.317991)
        (xy -0.996852 -0.313342)
        (xy -0.979333 -0.291427)
        (xy -0.976522 -0.286213)
        (xy -0.963624 -0.258353)
        (xy -0.951501 -0.227848)
        (xy -0.951017 -0.226485)
        (xy -0.942495 -0.204802)
        (xy -0.928473 -0.171733)
        (xy -0.911078 -0.132218)
        (xy -0.896743 -0.100544)
        (xy -0.854031 -0.007368)
        (xy -0.863375 0.055455)
        (xy -0.764515 0.055455)
        (xy -0.70888 0.047435)
        (xy -0.679008 0.043996)
        (xy -0.656812 0.043054)
        (xy -0.647914 0.044486)
        (xy -0.643291 0.055412)
        (xy -0.636816 0.078474)
        (xy -0.6315 0.101366)
        (xy -0.629064 0.11017)
        (xy -0.504576 0.11017)
        (xy -0.504576 0.069199)
        (xy -0.50365 0.047029)
        (xy -0.498532 0.033166)
        (xy -0.485714 0.025392)
        (xy -0.461688 0.02149)
        (xy -0.425736 0.019371)
        (xy -0.405455 0.020319)
        (xy -0.397528 0.028266)
        (xy -0.396452 0.039809)
        (xy -0.394367 0.062721)
        (xy -0.391296 0.075037)
        (xy -0.39065 0.084306)
        (xy -0.398908 0.091264)
        (xy -0.418914 0.097085)
        (xy -0.453513 0.102942)
        (xy -0.461777 0.104128)
        (xy -0.504576 0.11017)
        (xy -0.629064 0.11017)
        (xy -0.623197 0.131374)
        (xy -0.614216 0.149495)
        (xy -0.608728 0.153175)
        (xy -0.595267 0.151708)
        (xy -0.568746 0.147819)
        (xy -0.533842 0.142279)
        (xy -0.49523 0.135858)
        (xy -0.457586 0.129326)
        (xy -0.425586 0.123454)
        (xy -0.41222 0.120811)
        (xy -0.395385 0.11896)
        (xy -0.388644 0.126112)
        (xy -0.387431 0.145701)
        (xy -0.38595 0.177592)
        (xy -0.381926 0.222577)
        (xy -0.375963 0.276006)
        (xy -0.368665 0.333232)
        (xy -0.360635 0.389603)
        (xy -0.352477 0.440472)
        (xy -0.344794 0.481188)
        (xy -0.342594 0.491061)
        (xy -0.335465 0.525065)
        (xy -0.331407 0.552125)
        (xy -0.331047 0.567689)
        (xy -0.331776 0.569461)
        (xy -0.342747 0.575576)
        (xy -0.365808 0.58569)
        (xy -0.396099 0.59768)
        (xy -0.398005 0.598399)
        (xy -0.458103 0.62102)
        (xy -0.511573 0.563861)
        (xy -0.54853 0.520475)
        (xy -0.58629 0.469518)
        (xy -0.621094 0.416577)
        (xy -0.649181 0.367243)
        (xy -0.661604 0.340847)
        (xy -0.675421 0.307768)
        (xy -0.628449 0.297694)
        (xy -0.597616 0.290949)
        (xy -0.571384 0.284984)
        (xy -0.561896 0.282706)
        (xy -0.545299 0.283246)
        (xy -0.536177 0.298238)
        (xy -0.535997 0.298829)
        (xy -0.529162 0.314798)
        (xy -0.517151 0.337515)
        (xy -0.502744 0.362346)
        (xy -0.488724 0.384662)
        (xy -0.47787 0.399829)
        (xy -0.473117 0.403553)
        (xy -0.472823 0.393658)
        (xy -0.474539 0.371138)
        (xy -0.477656 0.341196)
        (xy -0.481566 0.309038)
        (xy -0.485658 0.279867)
        (xy -0.489325 0.258886)
        (xy -0.490678 0.253495)
        (xy -0.494106 0.247482)
        (xy -0.50134 0.244066)
        (xy -0.514681 0.243518)
        (xy -0.536428 0.246106)
        (xy -0.568881 0.2521)
        (xy -0.614341 0.26177)
        (xy -0.672597 0.274817)
        (xy -0.682433 0.275062)
        (xy -0.69114 0.268854)
        (xy -0.700691 0.253291)
        (xy -0.713057 0.22547)
        (xy -0.723152 0.200419)
        (xy -0.737724 0.16145)
        (xy -0.74994 0.124795)
        (xy -0.757873 0.096391)
        (xy -0.759435 0.088547)
        (xy -0.764515 0.055455)
        (xy -0.863375 0.055455)
        (xy -0.864281 0.06155)
        (xy -0.868604 0.097438)
        (xy -0.872955 0.145293)
        (xy -0.876846 0.199071)
        (xy -0.879793 0.252726)
        (xy -0.879967 0.256703)
        (xy -0.883046 0.314055)
        (xy -0.887184 0.355782)
        (xy -0.893261 0.384279)
        (xy -0.902154 0.401942)
        (xy -0.914743 0.411164)
        (xy -0.931904 0.414341)
        (xy -0.937823 0.414473)
        (xy -0.960299 0.410385)
        (xy -0.979726 0.396269)
        (xy -0.999048 0.369352)
        (xy -1.01296 0.343647)
        (xy -1.047596 0.259838)
        (xy -1.073765 0.164183)
        (xy -1.090667 0.06114)
        (xy -1.097503 -0.044829)
        (xy -1.185827 -0.044829)
        (xy -1.183275 0.057324)
        (xy -1.162321 0.196042)
        (xy -1.124291 0.329801)
        (xy -1.069489 0.457844)
        (xy -1.018603 0.544651)
        (xy -0.897017 0.544651)
        (xy -0.890254 0.534676)
        (xy -0.887571 0.531671)
        (xy -0.871076 0.518208)
        (xy -0.8516 0.513055)
        (xy -0.826907 0.516854)
        (xy -0.794762 0.53025)
        (xy -0.752928 0.553887)
        (xy -0.705817 0.584004)
        (xy -0.662746 0.612138)
        (xy -0.620744 0.639028)
        (xy -0.584191 0.661906)
        (xy -0.557465 0.678003)
        (xy -0.554132 0.679913)
        (xy -0.506534 0.707944)
        (xy -0.4715 0.731752)
        (xy -0.445176 0.754548)
        (xy -0.423709 0.779541)
        (xy -0.409027 0.800808)
        (xy -0.386771 0.834814)
        (xy -0.363578 0.869537)
        (xy -0.34952 0.890133)
        (xy -0.3319 0.920259)
        (xy -0.328624 0.940284)
        (xy -0.340049 0.951473)
        (xy -0.366531 0.955086)
        (xy -0.367879 0.955091)
        (xy -0.393622 0.950348)
        (xy -0.430695 0.937303)
        (xy -0.475491 0.917726)
        (xy -0.5244 0.89339)
        (xy -0.573812 0.866067)
        (xy -0.620118 0.837529)
        (xy -0.651158 0.81601)
        (xy -0.697074 0.779191)
        (xy -0.746018 0.735085)
        (xy -0.793692 0.687968)
        (xy -0.835795 0.642114)
        (xy -0.868028 0.601798)
        (xy -0.871305 0.597134)
        (xy -0.88871 0.571181)
        (xy -0.896891 0.555253)
        (xy -0.897017 0.544651)
        (xy -1.018603 0.544651)
        (xy -0.998222 0.579418)
        (xy -0.910794 0.693765)
        (xy -0.842106 0.767168)
        (xy -0.735934 0.862099)
        (xy -0.625713 0.940392)
        (xy -0.509057 1.00335)
        (xy -0.383578 1.05228)
        (xy -0.25903 1.085866)
        (xy -0.204526 1.094879)
        (xy -0.137534 1.101377)
        (xy -0.063424 1.105242)
        (xy 0.012433 1.106358)
      )

      (stroke (width 0) (type solid)) (fill solid) (layer "B.SilkS") (tstamp 8228dbf8-94be-4312-a96e-8fd265ec4350))
  )

  (footprint "LED_THT:LED_D3.0mm" (layer "B.Cu")
    (tstamp bbb28e81-67d5-41e8-8c98-b48031cd9d0c)
    (at 123.275 63.5 180)
    (descr "LED, diameter 3.0mm, 2 pins")
    (tags "LED diameter 3.0mm 2 pins")
    (property "Sheetfile" "breakbeam-emitter.kicad_sch")
    (property "Sheetname" "")
    (property "ki_description" "Light emitting diode")
    (property "ki_keywords" "LED diode")
    (path "/3e84e781-fa94-49ba-aa0a-1befbd0d7aad")
    (attr through_hole)
    (fp_text reference "D1" (at -2.225 -0.5) (layer "B.SilkS")
        (effects (font (size 1 1) (thickness 0.153)) (justify mirror))
      (tstamp 3c58d881-5774-48ec-8e09-8aaa9c171d48)
    )
    (fp_text value "OP166A" (at 1.27 -2.96) (layer "B.Fab")
        (effects (font (size 1 1) (thickness 0.15)) (justify mirror))
      (tstamp b0695a35-4f82-4101-ad00-a9af53340244)
    )
    (fp_line (start -0.29 -1.08) (end -0.29 -1.236)
      (stroke (width 0.12) (type solid)) (layer "B.SilkS") (tstamp 2af92de4-25e2-4c69-9630-a3155a3b0603))
    (fp_line (start -0.29 1.236) (end -0.29 1.08)
      (stroke (width 0.12) (type solid)) (layer "B.SilkS") (tstamp 1a3330a5-8e0b-477d-9a00-ee581e9022c5))
    (fp_arc (start -0.29 -1.235516) (mid 1.366487 -1.987659) (end 2.942335 -1.078608)
      (stroke (width 0.12) (type solid)) (layer "B.SilkS") (tstamp 0efd75bf-1dbd-4cc4-a9da-2f516e294643))
    (fp_arc (start 0.229039 -1.08) (mid 1.270117 -1.5) (end 2.31113 -1.079837)
      (stroke (width 0.12) (type solid)) (layer "B.SilkS") (tstamp 3a651566-978f-4b93-8bab-939dbbf49e8c))
    (fp_arc (start 2.31113 1.079837) (mid 1.270117 1.5) (end 0.229039 1.08)
      (stroke (width 0.12) (type solid)) (layer "B.SilkS") (tstamp cb4cdda1-542b-44a8-9f19-2934c8148651))
    (fp_arc (start 2.942335 1.078608) (mid 1.366487 1.987659) (end -0.29 1.235516)
      (stroke (width 0.12) (type solid)) (layer "B.SilkS") (tstamp 68cbc7ea-e477-44ec-bafe-b16dcb09dbd2))
    (fp_line (start -1.15 -2.25) (end 3.7 -2.25)
      (stroke (width 0.05) (type solid)) (layer "B.CrtYd") (tstamp 15772f07-88b6-42d5-8f30-fd5a1fd52442))
    (fp_line (start -1.15 2.25) (end -1.15 -2.25)
      (stroke (width 0.05) (type solid)) (layer "B.CrtYd") (tstamp d3f0a0c7-90c3-4738-80b3-bb1533033b4d))
    (fp_line (start 3.7 -2.25) (end 3.7 2.25)
      (stroke (width 0.05) (type solid)) (layer "B.CrtYd") (tstamp 69520a24-5c57-42da-b9ad-a8d31655b764))
    (fp_line (start 3.7 2.25) (end -1.15 2.25)
      (stroke (width 0.05) (type solid)) (layer "B.CrtYd") (tstamp 620416df-2f67-43ec-b150-317dc9d72cd9))
    (fp_line (start -0.23 1.16619) (end -0.23 -1.16619)
      (stroke (width 0.1) (type solid)) (layer "B.Fab") (tstamp 435e3f74-eea2-40a1-b486-f6294193cd74))
    (fp_arc (start -0.230555 -1.165476) (mid 3.17 -0.000452) (end -0.23 1.16619)
      (stroke (width 0.1) (type solid)) (layer "B.Fab") (tstamp 4cea53f0-a196-45ac-b82d-385feb37d85c))
    (fp_circle (center 1.27 0) (end 2.77 0)
      (stroke (width 0.1) (type solid)) (fill none) (layer "B.Fab") (tstamp 3de86c5d-8554-40a1-8639-6e5e0763b8a8))
    (pad "1" thru_hole rect (at 0 0 180) (size 1.8 1.8) (drill 0.9) (layers "*.Cu" "*.Mask")
      (net 1 "Net-(D1-K)") (pinfunction "K") (pintype "passive") (tstamp cd845044-7aa2-484c-9c6f-bdcf09fe004f))
    (pad "2" thru_hole circle (at 2.54 0 180) (size 1.8 1.8) (drill 0.9) (layers "*.Cu" "*.Mask")
      (net 2 "+3.3V") (pinfunction "A") (pintype "passive") (tstamp f882412e-5146-4bfd-bc17-7170d574dbae))
    (model "${KICAD6_3DMODEL_DIR}/LED_THT.3dshapes/LED_D3.0mm.wrl"
      (offset (xyz 0 0 -3))
      (scale (xyz 1 1 1))
      (rotate (xyz 0 0 0))
    )
  )

  (gr_line (start 132.2 66.55) (end 132.2 64.65)
    (stroke (width 0.153) (type default)) (layer "B.SilkS") (tstamp 28d31af9-7315-4b8c-8900-d6dd7e5ddd22))
  (gr_line (start 127 67.4) (end 129.6 68.4)
    (stroke (width 0.153) (type default)) (layer "B.SilkS") (tstamp 4069a671-bbb9-45a3-b6fc-8f6003eeda76))
  (gr_line (start 132.2 64.65) (end 129.6 66.5)
    (stroke (width 0.153) (type default)) (layer "B.SilkS") (tstamp 53c9012e-35b3-4683-ac90-73a1a7cdcac4))
  (gr_line (start 132.2 66.55) (end 129.6 68.4)
    (stroke (width 0.153) (type default)) (layer "B.SilkS") (tstamp 676fd7b1-7dbe-4de6-a418-87ba9c46394b))
  (gr_line (start 134.4 61.7) (end 133.3 62.8)
    (stroke (width 0.153) (type default)) (layer "B.SilkS") (tstamp 74df5d91-4e76-4c4c-997f-6f73f14bde6f))
  (gr_arc (start 129.55922 57.698058) (mid 128.72969 59.25465) (end 126.999999 59.6)
    (stroke (width 0.153) (type default)) (layer "B.SilkS") (tstamp 830f7483-3dbe-4108-a7ff-cf35ac05cd86))
  (gr_line (start 135.1 62.1) (end 134.9 63.8)
    (stroke (width 0.153) (type default)) (layer "B.SilkS") (tstamp a62b5ad7-244f-489d-9030-82b5bfe94492))
  (gr_line (start 129.6 68.4) (end 129.6 66.5)
    (stroke (width 0.153) (type default)) (layer "B.SilkS") (tstamp b83d1f7d-1d6d-40d4-8d70-302076b4d93d))
  (gr_line (start 126.999999 59.6) (end 127 65.6)
    (stroke (width 0.153) (type default)) (layer "B.SilkS") (tstamp cb2577f0-2192-4764-a9cd-ff414b634781))
  (gr_line (start 132.2 64.65) (end 129.6 63.75)
    (stroke (width 0.153) (type default)) (layer "B.SilkS") (tstamp d0032bac-dd0e-49e7-95fa-008b8cbd72a8))
  (gr_line (start 129.6 57.7) (end 129.6 63.75)
    (stroke (width 0.153) (type default)) (layer "B.SilkS") (tstamp d29bcab5-b1e1-4b67-8ba1-9b664c1c02d5))
  (gr_line (start 133.925 61) (end 132.275 61.4)
    (stroke (width 0.153) (type default)) (layer "B.SilkS") (tstamp e0598662-0c83-4f49-bc76-ee282c5496bd))
  (gr_line (start 129.6 66.5) (end 127 65.6)
    (stroke (width 0.153) (type default)) (layer "B.SilkS") (tstamp e2bdc7ba-5105-45e4-bbb0-d5e2fd6b5f17))
  (gr_line (start 127 65.6) (end 127 67.4)
    (stroke (width 0.153) (type default)) (layer "B.SilkS") (tstamp e337bb84-8fcc-4f69-a957-4de113f28e30))
  (gr_arc (start 129.599999 63.75) (mid 128.735681 65.304579) (end 126.989377 65.642488)
    (stroke (width 0.153) (type default)) (layer "B.SilkS") (tstamp fd065645-9096-4c88-84f0-6e70a8824f60))
  (gr_line (start 119.4 70) (end 137.6 70)
    (stroke (width 0.1) (type default)) (layer "Edge.Cuts") (tstamp 11166e91-9d71-4499-9b9f-a16c832eb40a))
  (gr_line (start 138.5 69.1) (end 138.5 57.9)
    (stroke (width 0.1) (type default)) (layer "Edge.Cuts") (tstamp 1f5bdffb-b9cd-426e-ab4a-7a9322b724a8))
  (gr_arc (start 119.4 70) (mid 118.763604 69.736396) (end 118.5 69.1)
    (stroke (width 0.1) (type default)) (layer "Edge.Cuts") (tstamp 4ccbe3ef-7234-4c8b-80a8-e7d3dd5282ff))
  (gr_arc (start 118.5 57.9) (mid 118.763604 57.263604) (end 119.4 57)
    (stroke (width 0.1) (type default)) (layer "Edge.Cuts") (tstamp 7c22c6dc-e179-4ba8-85ea-24131e25024d))
  (gr_line (start 137.6 57) (end 119.4 57)
    (stroke (width 0.1) (type default)) (layer "Edge.Cuts") (tstamp b60b6542-86b7-4d86-b942-9cf06f4197f6))
  (gr_arc (start 138.5 69.1) (mid 138.236396 69.736396) (end 137.6 70)
    (stroke (width 0.1) (type default)) (layer "Edge.Cuts") (tstamp df695f22-8111-4ba0-9574-498f9043579c))
  (gr_arc (start 137.6 57) (mid 138.236396 57.263604) (end 138.5 57.9)
    (stroke (width 0.1) (type default)) (layer "Edge.Cuts") (tstamp ea1cdd7c-7427-4691-a351-f37f5d2c57ea))
  (gr_line (start 118.5 69.1) (end 118.5 57.9)
    (stroke (width 0.1) (type default)) (layer "Edge.Cuts") (tstamp f5bb5005-2938-4b0d-ace3-e661845bfc08))
  (gr_text "v1.0" (at 137.1 68.4) (layer "B.SilkS") (tstamp 546a2330-2ec2-400a-ab6f-a725c09f796a)
    (effects (font (size 1 1) (thickness 0.153)) (justify left bottom mirror))
  )
  (gr_text "A-TEAM\nBreakbeam TX" (at 138.1 69.7) (layer "F.SilkS") (tstamp 29251eb1-35e9-4ba2-a090-1a3a39475a10)
    (effects (font (size 1 1) (thickness 0.153)) (justify right bottom))
  )
  (gr_text "v1.0\n5-2023" (at 138.2 60.2) (layer "F.SilkS") (tstamp 37b7e744-bdae-4108-94ff-5b0633491900)
    (effects (font (size 1 1) (thickness 0.153)) (justify right bottom))
  )
  (dimension (type aligned) (layer "F.Fab") (tstamp 03bcfdce-1bc6-4c00-a232-293b4b3075dd)
    (pts (xy 122 68) (xy 122 59))
    (height -9)
    (gr_text "9.0000 mm" (at 111.85 63.5 90) (layer "F.Fab") (tstamp 03bcfdce-1bc6-4c00-a232-293b4b3075dd)
      (effects (font (size 1 1) (thickness 0.15)))
    )
    (format (prefix "") (suffix "") (units 3) (units_format 1) (precision 4))
    (style (thickness 0.1) (arrow_length 1.27) (text_position_mode 0) (extension_height 0.58642) (extension_offset 0.5) keep_text_aligned)
  )
  (dimension (type aligned) (layer "F.Fab") (tstamp 1fa36860-efad-4be8-ae05-462f0fc5fa59)
    (pts (xy 138.5 70) (xy 118.5 70))
    (height -7)
    (gr_text "20.0000 mm" (at 128.5 75.85) (layer "F.Fab") (tstamp 1fa36860-efad-4be8-ae05-462f0fc5fa59)
      (effects (font (size 1 1) (thickness 0.15)))
    )
    (format (prefix "") (suffix "") (units 3) (units_format 1) (precision 4))
    (style (thickness 0.1) (arrow_length 1.27) (text_position_mode 0) (extension_height 0.58642) (extension_offset 0.5) keep_text_aligned)
  )
  (dimension (type aligned) (layer "F.Fab") (tstamp 705e8fdb-b083-4a0f-9cee-f4ac151f9031)
    (pts (xy 122 59) (xy 118.5 59))
    (height 6.1)
    (gr_text "3.5000 mm" (at 120.25 51.4) (layer "F.Fab") (tstamp b1c344bb-b8ce-4b25-822b-42e6e78616eb)
      (effects (font (size 1 1) (thickness 0.153)))
    )
    (format (prefix "") (suffix "") (units 3) (units_format 1) (precision 4))
    (style (thickness 0.1) (arrow_length 1.27) (text_position_mode 2) (extension_height 0.58642) (extension_offset 0.5) keep_text_aligned)
  )
  (dimension (type aligned) (layer "F.Fab") (tstamp de830bcd-e334-4654-854b-f59da1e89ecc)
    (pts (xy 137.6 57) (xy 137.6 70))
    (height -8)
    (gr_text "13.0000 mm" (at 144.45 63.5 90) (layer "F.Fab") (tstamp 0e08a7c2-8351-4ae3-bd2e-6dda7724478f)
      (effects (font (size 1 1) (thickness 0.15)))
    )
    (format (prefix "") (suffix "") (units 3) (units_format 1) (precision 4))
    (style (thickness 0.1) (arrow_length 1.27) (text_position_mode 0) (extension_height 0.58642) (extension_offset 0.5) keep_text_aligned)
  )

  (segment (start 125.4875 61.9) (end 123.8875 63.5) (width 0.25) (layer "F.Cu") (net 1) (tstamp 4227c9f6-ee15-4c5e-8b37-d8c250b5e96b))
  (segment (start 123.8875 63.5) (end 123.275 63.5) (width 0.25) (layer "F.Cu") (net 1) (tstamp a6676459-8c49-4789-aede-50bc035e1d8c))
  (segment (start 130 66.6) (end 124.8 66.6) (width 0.25) (layer "F.Cu") (net 2) (tstamp 26b7eebe-8073-4735-b268-77f50dbf2da2))
  (segment (start 123.2 65) (end 122.235 65) (width 0.25) (layer "F.Cu") (net 2) (tstamp 30341a77-dda3-4bf1-a592-9c94e4eef82b))
  (segment (start 122.235 65) (end 120.735 63.5) (width 0.25) (layer "F.Cu") (net 2) (tstamp 3c094269-b94e-4805-afc3-591776b8beec))
  (segment (start 133 64.5) (end 132.1 64.5) (width 0.25) (layer "F.Cu") (net 2) (tstamp 8b5c233c-facb-41a5-a6ce-986112b26d86))
  (segment (start 124.8 66.6) (end 123.2 65) (width 0.25) (layer "F.Cu") (net 2) (tstamp 96da33c0-9300-47a4-81f6-e4361aeb9e19))
  (segment (start 132.1 64.5) (end 130 66.6) (width 0.25) (layer "F.Cu") (net 2) (tstamp d9b8302d-0dcc-40b7-8f2f-d4f7860489a9))
  (segment (start 130.8125 63.5) (end 133 63.5) (width 0.25) (layer "F.Cu") (net 3) (tstamp 46a8a26c-a1ea-4c97-932a-7b8ed9839454))
  (segment (start 127.3125 65.5) (end 128.8125 65.5) (width 0.25) (layer "F.Cu") (net 3) (tstamp 96b65a64-7194-4d14-9daf-8caec056cc9a))
  (segment (start 128.8125 65.5) (end 130.8125 63.5) (width 0.25) (layer "F.Cu") (net 3) (tstamp 9f7b9464-6f73-40d9-abf8-f1342550247c))
  (segment (start 131.4125 62.6875) (end 129.8 62.6875) (width 0.25) (layer "F.Cu") (net 4) (tstamp 14a199e2-4c00-43a5-97e6-8928b4b98aaf))
  (segment (start 131.6 62.5) (end 131.4125 62.6875) (width 0.25) (layer "F.Cu") (net 4) (tstamp 4208edc0-44b4-4cf1-bd2b-99a25fbe4753))
  (segment (start 128.9078 57.9078) (end 128 57.9078) (width 0.25) (layer "F.Cu") (net 4) (tstamp ca54cead-6cee-4c2b-82d5-a1c385838612))
  (segment (start 129.8 62.6875) (end 129.8 58.8) (width 0.25) (layer "F.Cu") (net 4) (tstamp df149720-e7d5-4c41-90e0-493ecd831ae8))
  (segment (start 129.8 58.8) (end 128.9078 57.9078) (width 0.25) (layer "F.Cu") (net 4) (tstamp ed5d97e6-7a40-45dd-9462-427120ba44f3))
  (segment (start 133 62.5) (end 131.6 62.5) (width 0.25) (layer "F.Cu") (net 4) (tstamp fbf56cb4-2f0f-4307-bb5d-3d5cb519cf3b))
  (segment (start 127.0475 60.8475) (end 127.0475 60.0922) (width 0.25) (layer "F.Cu") (net 5) (tstamp 3822da49-7c39-4b74-8489-4d3375520947))
  (segment (start 127.3125 61.9) (end 127.3125 61.1125) (width 0.25) (layer "F.Cu") (net 5) (tstamp 79896546-9cdb-4e22-8a8e-ab035da47347))
  (segment (start 127.3125 61.1125) (end 127.0475 60.8475) (width 0.25) (layer "F.Cu") (net 5) (tstamp bad5570b-d8f1-4f8d-99f6-a727fcc8bce9))
  (segment (start 127.3 63.6) (end 128.7 62.2) (width 0.25) (layer "F.Cu") (net 6) (tstamp 2b5653c5-1bd3-4901-ab28-99af0ea156d2))
  (segment (start 128.7 61.4) (end 128.9525 61.1475) (width 0.25) (layer "F.Cu") (net 6) (tstamp 33c2e8ff-0cfb-4229-9b77-7f6d5cd1f800))
  (segment (start 128.7 62.2) (end 128.7 61.4) (width 0.25) (layer "F.Cu") (net 6) (tstamp 49455801-8fef-402b-8ec0-67fb870bdb9a))
  (segment (start 125.4875 65.5) (end 125.4875 64.6125) (width 0.25) (layer "F.Cu") (net 6) (tstamp 4bcdd694-3bd5-49c1-8910-99b18c7fecb2))
  (segment (start 128.9525 61.1475) (end 128.9525 60.0922) (width 0.25) (layer "F.Cu") (net 6) (tstamp 4fe7c056-dc87-436b-bcf8-aa865a8cf98a))
  (segment (start 125.4875 64.6125) (end 126.5 63.6) (width 0.25) (layer "F.Cu") (net 6) (tstamp c5a2ec40-111e-44b9-a160-2ea92b3ef1a0))
  (segment (start 126.5 63.6) (end 127.3 63.6) (width 0.25) (layer "F.Cu") (net 6) (tstamp fdd25b48-5290-49ff-920f-66b9176ca9fb))

)
