(kicad_sch (version 20230121) (generator eeschema)

  (uuid 6cad31f1-baa4-4be2-b5ff-ae821c04a3bb)

  (paper "A4")

  (title_block
    (title "resonanz")
    (date "2020-06-10")
    (rev "01")
    (comment 1 "schema for panel")
    (comment 2 "tripple resonant band pass filter")
    (comment 4 "License CC BY 4.0 - Attribution 4.0 International")
  )

  (lib_symbols
    (symbol "Mechanical:MountingHole" (pin_names (offset 1.016)) (in_bom yes) (on_board yes)
      (property "Reference" "H" (at 0 5.08 0)
        (effects (font (size 1.27 1.27)))
      )
      (property "Value" "MountingHole" (at 0 3.175 0)
        (effects (font (size 1.27 1.27)))
      )
      (property "Footprint" "" (at 0 0 0)
        (effects (font (size 1.27 1.27)) hide)
      )
      (property "Datasheet" "~" (at 0 0 0)
        (effects (font (size 1.27 1.27)) hide)
      )
      (property "ki_keywords" "mounting hole" (at 0 0 0)
        (effects (font (size 1.27 1.27)) hide)
      )
      (property "ki_description" "Mounting Hole without connection" (at 0 0 0)
        (effects (font (size 1.27 1.27)) hide)
      )
      (property "ki_fp_filters" "MountingHole*" (at 0 0 0)
        (effects (font (size 1.27 1.27)) hide)
      )
      (symbol "MountingHole_0_1"
        (circle (center 0 0) (radius 1.27)
          (stroke (width 1.27) (type default))
          (fill (type none))
        )
      )
    )
  )


  (symbol (lib_id "Mechanical:MountingHole") (at 35.56 46.99 0) (unit 1)
    (in_bom yes) (on_board yes) (dnp no)
    (uuid 00000000-0000-0000-0000-00005d6af58e)
    (property "Reference" "H1" (at 38.1 45.8216 0)
      (effects (font (size 1.27 1.27)) (justify left))
    )
    (property "Value" "IN_1" (at 38.1 48.133 0)
      (effects (font (size 1.27 1.27)) (justify left))
    )
    (property "Footprint" "elektrophon:panel_jack" (at 35.56 46.99 0)
      (effects (font (size 1.27 1.27)) hide)
    )
    (property "Datasheet" "~" (at 35.56 46.99 0)
      (effects (font (size 1.27 1.27)) hide)
    )
    (instances
      (project "panel"
        (path "/6cad31f1-baa4-4be2-b5ff-ae821c04a3bb"
          (reference "H1") (unit 1)
        )
      )
    )
  )

  (symbol (lib_id "Mechanical:MountingHole") (at 35.56 72.39 0) (unit 1)
    (in_bom yes) (on_board yes) (dnp no)
    (uuid 00000000-0000-0000-0000-00005d6b18ce)
    (property "Reference" "H3" (at 38.1 71.2216 0)
      (effects (font (size 1.27 1.27)) (justify left))
    )
    (property "Value" "resonance_1" (at 38.1 73.533 0)
      (effects (font (size 1.27 1.27)) (justify left))
    )
    (property "Footprint" "elektrophon:panel_potentiometer" (at 35.56 72.39 0)
      (effects (font (size 1.27 1.27)) hide)
    )
    (property "Datasheet" "~" (at 35.56 72.39 0)
      (effects (font (size 1.27 1.27)) hide)
    )
    (instances
      (project "panel"
        (path "/6cad31f1-baa4-4be2-b5ff-ae821c04a3bb"
          (reference "H3") (unit 1)
        )
      )
    )
  )

  (symbol (lib_id "Mechanical:MountingHole") (at 35.56 85.09 0) (unit 1)
    (in_bom yes) (on_board yes) (dnp no)
    (uuid 00000000-0000-0000-0000-00005d6b1f10)
    (property "Reference" "H4" (at 38.1 83.9216 0)
      (effects (font (size 1.27 1.27)) (justify left))
    )
    (property "Value" "frequency_1" (at 38.1 86.233 0)
      (effects (font (size 1.27 1.27)) (justify left))
    )
    (property "Footprint" "elektrophon:panel_potentiometer" (at 35.56 85.09 0)
      (effects (font (size 1.27 1.27)) hide)
    )
    (property "Datasheet" "~" (at 35.56 85.09 0)
      (effects (font (size 1.27 1.27)) hide)
    )
    (instances
      (project "panel"
        (path "/6cad31f1-baa4-4be2-b5ff-ae821c04a3bb"
          (reference "H4") (unit 1)
        )
      )
    )
  )

  (symbol (lib_id "Mechanical:MountingHole") (at 35.56 96.52 0) (unit 1)
    (in_bom yes) (on_board yes) (dnp no)
    (uuid 00000000-0000-0000-0000-00005d6b4fb4)
    (property "Reference" "H5" (at 38.1 95.3516 0)
      (effects (font (size 1.27 1.27)) (justify left))
    )
    (property "Value" "OUT_1" (at 38.1 97.663 0)
      (effects (font (size 1.27 1.27)) (justify left))
    )
    (property "Footprint" "elektrophon:panel_jack" (at 35.56 96.52 0)
      (effects (font (size 1.27 1.27)) hide)
    )
    (property "Datasheet" "~" (at 35.56 96.52 0)
      (effects (font (size 1.27 1.27)) hide)
    )
    (instances
      (project "panel"
        (path "/6cad31f1-baa4-4be2-b5ff-ae821c04a3bb"
          (reference "H5") (unit 1)
        )
      )
    )
  )

  (symbol (lib_id "Mechanical:MountingHole") (at 35.56 120.65 0) (unit 1)
    (in_bom yes) (on_board yes) (dnp no)
    (uuid 00000000-0000-0000-0000-00005d6c1f77)
    (property "Reference" "H6" (at 38.1 119.4816 0)
      (effects (font (size 1.27 1.27)) (justify left))
    )
    (property "Value" "MountingHole" (at 38.1 121.793 0)
      (effects (font (size 1.27 1.27)) (justify left))
    )
    (property "Footprint" "MountingHole:MountingHole_3.2mm_M3" (at 35.56 120.65 0)
      (effects (font (size 1.27 1.27)) hide)
    )
    (property "Datasheet" "~" (at 35.56 120.65 0)
      (effects (font (size 1.27 1.27)) hide)
    )
    (instances
      (project "panel"
        (path "/6cad31f1-baa4-4be2-b5ff-ae821c04a3bb"
          (reference "H6") (unit 1)
        )
      )
    )
  )

  (symbol (lib_id "Mechanical:MountingHole") (at 35.56 127 0) (unit 1)
    (in_bom yes) (on_board yes) (dnp no)
    (uuid 00000000-0000-0000-0000-00005d6c2167)
    (property "Reference" "H7" (at 38.1 125.8316 0)
      (effects (font (size 1.27 1.27)) (justify left))
    )
    (property "Value" "MountingHole" (at 38.1 128.143 0)
      (effects (font (size 1.27 1.27)) (justify left))
    )
    (property "Footprint" "MountingHole:MountingHole_3.2mm_M3" (at 35.56 127 0)
      (effects (font (size 1.27 1.27)) hide)
    )
    (property "Datasheet" "~" (at 35.56 127 0)
      (effects (font (size 1.27 1.27)) hide)
    )
    (instances
      (project "panel"
        (path "/6cad31f1-baa4-4be2-b5ff-ae821c04a3bb"
          (reference "H7") (unit 1)
        )
      )
    )
  )

  (symbol (lib_id "Mechanical:MountingHole") (at 35.56 133.35 0) (unit 1)
    (in_bom yes) (on_board yes) (dnp no)
    (uuid 00000000-0000-0000-0000-00005d6c22fb)
    (property "Reference" "H8" (at 38.1 132.1816 0)
      (effects (font (size 1.27 1.27)) (justify left))
    )
    (property "Value" "MountingHole" (at 38.1 134.493 0)
      (effects (font (size 1.27 1.27)) (justify left))
    )
    (property "Footprint" "MountingHole:MountingHole_3.2mm_M3" (at 35.56 133.35 0)
      (effects (font (size 1.27 1.27)) hide)
    )
    (property "Datasheet" "~" (at 35.56 133.35 0)
      (effects (font (size 1.27 1.27)) hide)
    )
    (instances
      (project "panel"
        (path "/6cad31f1-baa4-4be2-b5ff-ae821c04a3bb"
          (reference "H8") (unit 1)
        )
      )
    )
  )

  (symbol (lib_id "Mechanical:MountingHole") (at 35.56 139.7 0) (unit 1)
    (in_bom yes) (on_board yes) (dnp no)
    (uuid 00000000-0000-0000-0000-00005d6c254b)
    (property "Reference" "H9" (at 38.1 138.5316 0)
      (effects (font (size 1.27 1.27)) (justify left))
    )
    (property "Value" "MountingHole" (at 38.1 140.843 0)
      (effects (font (size 1.27 1.27)) (justify left))
    )
    (property "Footprint" "MountingHole:MountingHole_3.2mm_M3" (at 35.56 139.7 0)
      (effects (font (size 1.27 1.27)) hide)
    )
    (property "Datasheet" "~" (at 35.56 139.7 0)
      (effects (font (size 1.27 1.27)) hide)
    )
    (instances
      (project "panel"
        (path "/6cad31f1-baa4-4be2-b5ff-ae821c04a3bb"
          (reference "H9") (unit 1)
        )
      )
    )
  )

  (symbol (lib_id "Mechanical:MountingHole") (at 63.5 45.72 0) (unit 1)
    (in_bom yes) (on_board yes) (dnp no)
    (uuid 00000000-0000-0000-0000-00005ee0a503)
    (property "Reference" "H10" (at 66.04 44.5516 0)
      (effects (font (size 1.27 1.27)) (justify left))
    )
    (property "Value" "IN_2" (at 66.04 46.863 0)
      (effects (font (size 1.27 1.27)) (justify left))
    )
    (property "Footprint" "elektrophon:panel_jack" (at 63.5 45.72 0)
      (effects (font (size 1.27 1.27)) hide)
    )
    (property "Datasheet" "~" (at 63.5 45.72 0)
      (effects (font (size 1.27 1.27)) hide)
    )
    (instances
      (project "panel"
        (path "/6cad31f1-baa4-4be2-b5ff-ae821c04a3bb"
          (reference "H10") (unit 1)
        )
      )
    )
  )

  (symbol (lib_id "Mechanical:MountingHole") (at 63.5 71.12 0) (unit 1)
    (in_bom yes) (on_board yes) (dnp no)
    (uuid 00000000-0000-0000-0000-00005ee0a50f)
    (property "Reference" "H12" (at 66.04 69.9516 0)
      (effects (font (size 1.27 1.27)) (justify left))
    )
    (property "Value" "resonance_2" (at 66.04 72.263 0)
      (effects (font (size 1.27 1.27)) (justify left))
    )
    (property "Footprint" "elektrophon:panel_potentiometer" (at 63.5 71.12 0)
      (effects (font (size 1.27 1.27)) hide)
    )
    (property "Datasheet" "~" (at 63.5 71.12 0)
      (effects (font (size 1.27 1.27)) hide)
    )
    (instances
      (project "panel"
        (path "/6cad31f1-baa4-4be2-b5ff-ae821c04a3bb"
          (reference "H12") (unit 1)
        )
      )
    )
  )

  (symbol (lib_id "Mechanical:MountingHole") (at 63.5 83.82 0) (unit 1)
    (in_bom yes) (on_board yes) (dnp no)
    (uuid 00000000-0000-0000-0000-00005ee0a515)
    (property "Reference" "H13" (at 66.04 82.6516 0)
      (effects (font (size 1.27 1.27)) (justify left))
    )
    (property "Value" "frequency_2" (at 66.04 84.963 0)
      (effects (font (size 1.27 1.27)) (justify left))
    )
    (property "Footprint" "elektrophon:panel_potentiometer" (at 63.5 83.82 0)
      (effects (font (size 1.27 1.27)) hide)
    )
    (property "Datasheet" "~" (at 63.5 83.82 0)
      (effects (font (size 1.27 1.27)) hide)
    )
    (instances
      (project "panel"
        (path "/6cad31f1-baa4-4be2-b5ff-ae821c04a3bb"
          (reference "H13") (unit 1)
        )
      )
    )
  )

  (symbol (lib_id "Mechanical:MountingHole") (at 63.5 95.25 0) (unit 1)
    (in_bom yes) (on_board yes) (dnp no)
    (uuid 00000000-0000-0000-0000-00005ee0a51b)
    (property "Reference" "H14" (at 66.04 94.0816 0)
      (effects (font (size 1.27 1.27)) (justify left))
    )
    (property "Value" "OUT_2" (at 66.04 96.393 0)
      (effects (font (size 1.27 1.27)) (justify left))
    )
    (property "Footprint" "elektrophon:panel_jack" (at 63.5 95.25 0)
      (effects (font (size 1.27 1.27)) hide)
    )
    (property "Datasheet" "~" (at 63.5 95.25 0)
      (effects (font (size 1.27 1.27)) hide)
    )
    (instances
      (project "panel"
        (path "/6cad31f1-baa4-4be2-b5ff-ae821c04a3bb"
          (reference "H14") (unit 1)
        )
      )
    )
  )

  (symbol (lib_id "Mechanical:MountingHole") (at 86.36 45.72 0) (unit 1)
    (in_bom yes) (on_board yes) (dnp no)
    (uuid 00000000-0000-0000-0000-00005ee0aa5f)
    (property "Reference" "H15" (at 88.9 44.5516 0)
      (effects (font (size 1.27 1.27)) (justify left))
    )
    (property "Value" "IN_3" (at 88.9 46.863 0)
      (effects (font (size 1.27 1.27)) (justify left))
    )
    (property "Footprint" "elektrophon:panel_jack" (at 86.36 45.72 0)
      (effects (font (size 1.27 1.27)) hide)
    )
    (property "Datasheet" "~" (at 86.36 45.72 0)
      (effects (font (size 1.27 1.27)) hide)
    )
    (instances
      (project "panel"
        (path "/6cad31f1-baa4-4be2-b5ff-ae821c04a3bb"
          (reference "H15") (unit 1)
        )
      )
    )
  )

  (symbol (lib_id "Mechanical:MountingHole") (at 35.56 31.75 0) (unit 1)
    (in_bom yes) (on_board yes) (dnp no)
    (uuid 00000000-0000-0000-0000-00005ee0aa65)
    (property "Reference" "H16" (at 38.1 30.5816 0)
      (effects (font (size 1.27 1.27)) (justify left))
    )
    (property "Value" "IN" (at 38.1 32.893 0)
      (effects (font (size 1.27 1.27)) (justify left))
    )
    (property "Footprint" "elektrophon:panel_jack" (at 35.56 31.75 0)
      (effects (font (size 1.27 1.27)) hide)
    )
    (property "Datasheet" "~" (at 35.56 31.75 0)
      (effects (font (size 1.27 1.27)) hide)
    )
    (instances
      (project "panel"
        (path "/6cad31f1-baa4-4be2-b5ff-ae821c04a3bb"
          (reference "H16") (unit 1)
        )
      )
    )
  )

  (symbol (lib_id "Mechanical:MountingHole") (at 86.36 71.12 0) (unit 1)
    (in_bom yes) (on_board yes) (dnp no)
    (uuid 00000000-0000-0000-0000-00005ee0aa6b)
    (property "Reference" "H17" (at 88.9 69.9516 0)
      (effects (font (size 1.27 1.27)) (justify left))
    )
    (property "Value" "resonance_3" (at 88.9 72.263 0)
      (effects (font (size 1.27 1.27)) (justify left))
    )
    (property "Footprint" "elektrophon:panel_potentiometer" (at 86.36 71.12 0)
      (effects (font (size 1.27 1.27)) hide)
    )
    (property "Datasheet" "~" (at 86.36 71.12 0)
      (effects (font (size 1.27 1.27)) hide)
    )
    (instances
      (project "panel"
        (path "/6cad31f1-baa4-4be2-b5ff-ae821c04a3bb"
          (reference "H17") (unit 1)
        )
      )
    )
  )

  (symbol (lib_id "Mechanical:MountingHole") (at 86.36 83.82 0) (unit 1)
    (in_bom yes) (on_board yes) (dnp no)
    (uuid 00000000-0000-0000-0000-00005ee0aa71)
    (property "Reference" "H18" (at 88.9 82.6516 0)
      (effects (font (size 1.27 1.27)) (justify left))
    )
    (property "Value" "frequency_3" (at 88.9 84.963 0)
      (effects (font (size 1.27 1.27)) (justify left))
    )
    (property "Footprint" "elektrophon:panel_potentiometer" (at 86.36 83.82 0)
      (effects (font (size 1.27 1.27)) hide)
    )
    (property "Datasheet" "~" (at 86.36 83.82 0)
      (effects (font (size 1.27 1.27)) hide)
    )
    (instances
      (project "panel"
        (path "/6cad31f1-baa4-4be2-b5ff-ae821c04a3bb"
          (reference "H18") (unit 1)
        )
      )
    )
  )

  (symbol (lib_id "Mechanical:MountingHole") (at 86.36 95.25 0) (unit 1)
    (in_bom yes) (on_board yes) (dnp no)
    (uuid 00000000-0000-0000-0000-00005ee0aa77)
    (property "Reference" "H19" (at 88.9 94.0816 0)
      (effects (font (size 1.27 1.27)) (justify left))
    )
    (property "Value" "OUT_3" (at 88.9 96.393 0)
      (effects (font (size 1.27 1.27)) (justify left))
    )
    (property "Footprint" "elektrophon:panel_jack" (at 86.36 95.25 0)
      (effects (font (size 1.27 1.27)) hide)
    )
    (property "Datasheet" "~" (at 86.36 95.25 0)
      (effects (font (size 1.27 1.27)) hide)
    )
    (instances
      (project "panel"
        (path "/6cad31f1-baa4-4be2-b5ff-ae821c04a3bb"
          (reference "H19") (unit 1)
        )
      )
    )
  )

  (symbol (lib_id "Mechanical:MountingHole") (at 135.89 44.45 0) (unit 1)
    (in_bom yes) (on_board yes) (dnp no)
    (uuid 00000000-0000-0000-0000-00005ee0cd30)
    (property "Reference" "H20" (at 138.43 43.2816 0)
      (effects (font (size 1.27 1.27)) (justify left))
    )
    (property "Value" "VOL_1" (at 138.43 45.593 0)
      (effects (font (size 1.27 1.27)) (justify left))
    )
    (property "Footprint" "elektrophon:panel_potentiometer" (at 135.89 44.45 0)
      (effects (font (size 1.27 1.27)) hide)
    )
    (property "Datasheet" "~" (at 135.89 44.45 0)
      (effects (font (size 1.27 1.27)) hide)
    )
    (instances
      (project "panel"
        (path "/6cad31f1-baa4-4be2-b5ff-ae821c04a3bb"
          (reference "H20") (unit 1)
        )
      )
    )
  )

  (symbol (lib_id "Mechanical:MountingHole") (at 135.89 57.15 0) (unit 1)
    (in_bom yes) (on_board yes) (dnp no)
    (uuid 00000000-0000-0000-0000-00005ee0cd36)
    (property "Reference" "H21" (at 138.43 55.9816 0)
      (effects (font (size 1.27 1.27)) (justify left))
    )
    (property "Value" "VOL_2" (at 138.43 58.293 0)
      (effects (font (size 1.27 1.27)) (justify left))
    )
    (property "Footprint" "elektrophon:panel_potentiometer" (at 135.89 57.15 0)
      (effects (font (size 1.27 1.27)) hide)
    )
    (property "Datasheet" "~" (at 135.89 57.15 0)
      (effects (font (size 1.27 1.27)) hide)
    )
    (instances
      (project "panel"
        (path "/6cad31f1-baa4-4be2-b5ff-ae821c04a3bb"
          (reference "H21") (unit 1)
        )
      )
    )
  )

  (symbol (lib_id "Mechanical:MountingHole") (at 135.89 69.85 0) (unit 1)
    (in_bom yes) (on_board yes) (dnp no)
    (uuid 00000000-0000-0000-0000-00005ee0cd3c)
    (property "Reference" "H22" (at 138.43 68.6816 0)
      (effects (font (size 1.27 1.27)) (justify left))
    )
    (property "Value" "VOL_3" (at 138.43 70.993 0)
      (effects (font (size 1.27 1.27)) (justify left))
    )
    (property "Footprint" "elektrophon:panel_potentiometer" (at 135.89 69.85 0)
      (effects (font (size 1.27 1.27)) hide)
    )
    (property "Datasheet" "~" (at 135.89 69.85 0)
      (effects (font (size 1.27 1.27)) hide)
    )
    (instances
      (project "panel"
        (path "/6cad31f1-baa4-4be2-b5ff-ae821c04a3bb"
          (reference "H22") (unit 1)
        )
      )
    )
  )

  (symbol (lib_id "Mechanical:MountingHole") (at 135.89 93.98 0) (unit 1)
    (in_bom yes) (on_board yes) (dnp no)
    (uuid 00000000-0000-0000-0000-00005ee0cd48)
    (property "Reference" "H23" (at 138.43 92.8116 0)
      (effects (font (size 1.27 1.27)) (justify left))
    )
    (property "Value" "OUT" (at 138.43 95.123 0)
      (effects (font (size 1.27 1.27)) (justify left))
    )
    (property "Footprint" "elektrophon:panel_jack" (at 135.89 93.98 0)
      (effects (font (size 1.27 1.27)) hide)
    )
    (property "Datasheet" "~" (at 135.89 93.98 0)
      (effects (font (size 1.27 1.27)) hide)
    )
    (instances
      (project "panel"
        (path "/6cad31f1-baa4-4be2-b5ff-ae821c04a3bb"
          (reference "H23") (unit 1)
        )
      )
    )
  )

  (symbol (lib_id "Mechanical:MountingHole") (at 135.89 81.28 0) (unit 1)
    (in_bom yes) (on_board yes) (dnp no)
    (uuid 00000000-0000-0000-0000-00005ee61d0a)
    (property "Reference" "H26" (at 138.43 80.1116 0)
      (effects (font (size 1.27 1.27)) (justify left))
    )
    (property "Value" "VOL_4" (at 138.43 82.423 0)
      (effects (font (size 1.27 1.27)) (justify left))
    )
    (property "Footprint" "elektrophon:panel_potentiometer" (at 135.89 81.28 0)
      (effects (font (size 1.27 1.27)) hide)
    )
    (property "Datasheet" "~" (at 135.89 81.28 0)
      (effects (font (size 1.27 1.27)) hide)
    )
    (instances
      (project "panel"
        (path "/6cad31f1-baa4-4be2-b5ff-ae821c04a3bb"
          (reference "H26") (unit 1)
        )
      )
    )
  )

  (symbol (lib_id "Mechanical:MountingHole") (at 109.22 45.72 0) (unit 1)
    (in_bom yes) (on_board yes) (dnp no)
    (uuid 00000000-0000-0000-0000-00005ee65d57)
    (property "Reference" "H2" (at 111.76 44.5516 0)
      (effects (font (size 1.27 1.27)) (justify left))
    )
    (property "Value" "IN_4" (at 111.76 46.863 0)
      (effects (font (size 1.27 1.27)) (justify left))
    )
    (property "Footprint" "elektrophon:panel_jack" (at 109.22 45.72 0)
      (effects (font (size 1.27 1.27)) hide)
    )
    (property "Datasheet" "~" (at 109.22 45.72 0)
      (effects (font (size 1.27 1.27)) hide)
    )
    (instances
      (project "panel"
        (path "/6cad31f1-baa4-4be2-b5ff-ae821c04a3bb"
          (reference "H2") (unit 1)
        )
      )
    )
  )

  (symbol (lib_id "Mechanical:MountingHole") (at 109.22 71.12 0) (unit 1)
    (in_bom yes) (on_board yes) (dnp no)
    (uuid 00000000-0000-0000-0000-00005ee65d5d)
    (property "Reference" "H11" (at 111.76 69.9516 0)
      (effects (font (size 1.27 1.27)) (justify left))
    )
    (property "Value" "resonance_4" (at 111.76 72.263 0)
      (effects (font (size 1.27 1.27)) (justify left))
    )
    (property "Footprint" "elektrophon:panel_potentiometer" (at 109.22 71.12 0)
      (effects (font (size 1.27 1.27)) hide)
    )
    (property "Datasheet" "~" (at 109.22 71.12 0)
      (effects (font (size 1.27 1.27)) hide)
    )
    (instances
      (project "panel"
        (path "/6cad31f1-baa4-4be2-b5ff-ae821c04a3bb"
          (reference "H11") (unit 1)
        )
      )
    )
  )

  (symbol (lib_id "Mechanical:MountingHole") (at 109.22 83.82 0) (unit 1)
    (in_bom yes) (on_board yes) (dnp no)
    (uuid 00000000-0000-0000-0000-00005ee65d63)
    (property "Reference" "H24" (at 111.76 82.6516 0)
      (effects (font (size 1.27 1.27)) (justify left))
    )
    (property "Value" "frequency_4" (at 111.76 84.963 0)
      (effects (font (size 1.27 1.27)) (justify left))
    )
    (property "Footprint" "elektrophon:panel_potentiometer" (at 109.22 83.82 0)
      (effects (font (size 1.27 1.27)) hide)
    )
    (property "Datasheet" "~" (at 109.22 83.82 0)
      (effects (font (size 1.27 1.27)) hide)
    )
    (instances
      (project "panel"
        (path "/6cad31f1-baa4-4be2-b5ff-ae821c04a3bb"
          (reference "H24") (unit 1)
        )
      )
    )
  )

  (symbol (lib_id "Mechanical:MountingHole") (at 109.22 95.25 0) (unit 1)
    (in_bom yes) (on_board yes) (dnp no)
    (uuid 00000000-0000-0000-0000-00005ee65d69)
    (property "Reference" "H25" (at 111.76 94.0816 0)
      (effects (font (size 1.27 1.27)) (justify left))
    )
    (property "Value" "OUT_4" (at 111.76 96.393 0)
      (effects (font (size 1.27 1.27)) (justify left))
    )
    (property "Footprint" "elektrophon:panel_jack" (at 109.22 95.25 0)
      (effects (font (size 1.27 1.27)) hide)
    )
    (property "Datasheet" "~" (at 109.22 95.25 0)
      (effects (font (size 1.27 1.27)) hide)
    )
    (instances
      (project "panel"
        (path "/6cad31f1-baa4-4be2-b5ff-ae821c04a3bb"
          (reference "H25") (unit 1)
        )
      )
    )
  )

  (sheet_instances
    (path "/" (page "1"))
  )
)
