(kicad_sch
	(version 20231120)
	(generator "eeschema")
	(generator_version "8.0")
	(uuid "ce1e6779-15c3-4fde-b5d9-4aa90e56b967")
	(paper "A4")
	(title_block
		(title "SH-ESP32")
		(date "2024-10-16")
		(rev "2.2.1")
		(company "Hat Labs Oy")
		(comment 1 "https://creativecommons.org/licenses/by-sa/4.0")
		(comment 2 "To view a copy of this license, visit ")
		(comment 3 "SH-ESP32 is licensed under CC BY-SA 4.0.")
	)
	(lib_symbols
		(symbol "Connector_Generic:Conn_01x02"
			(pin_names
				(offset 1.016) hide)
			(exclude_from_sim no)
			(in_bom yes)
			(on_board yes)
			(property "Reference" "J"
				(at 0 2.54 0)
				(effects
					(font
						(size 1.27 1.27)
					)
				)
			)
			(property "Value" "Conn_01x02"
				(at 0 -5.08 0)
				(effects
					(font
						(size 1.27 1.27)
					)
				)
			)
			(property "Footprint" ""
				(at 0 0 0)
				(effects
					(font
						(size 1.27 1.27)
					)
					(hide yes)
				)
			)
			(property "Datasheet" "~"
				(at 0 0 0)
				(effects
					(font
						(size 1.27 1.27)
					)
					(hide yes)
				)
			)
			(property "Description" "Generic connector, single row, 01x02, script generated (kicad-library-utils/schlib/autogen/connector/)"
				(at 0 0 0)
				(effects
					(font
						(size 1.27 1.27)
					)
					(hide yes)
				)
			)
			(property "ki_keywords" "connector"
				(at 0 0 0)
				(effects
					(font
						(size 1.27 1.27)
					)
					(hide yes)
				)
			)
			(property "ki_fp_filters" "Connector*:*_1x??_*"
				(at 0 0 0)
				(effects
					(font
						(size 1.27 1.27)
					)
					(hide yes)
				)
			)
			(symbol "Conn_01x02_1_1"
				(rectangle
					(start -1.27 -2.413)
					(end 0 -2.667)
					(stroke
						(width 0.1524)
						(type default)
					)
					(fill
						(type none)
					)
				)
				(rectangle
					(start -1.27 0.127)
					(end 0 -0.127)
					(stroke
						(width 0.1524)
						(type default)
					)
					(fill
						(type none)
					)
				)
				(rectangle
					(start -1.27 1.27)
					(end 1.27 -3.81)
					(stroke
						(width 0.254)
						(type default)
					)
					(fill
						(type background)
					)
				)
				(pin passive line
					(at -5.08 0 0)
					(length 3.81)
					(name "Pin_1"
						(effects
							(font
								(size 1.27 1.27)
							)
						)
					)
					(number "1"
						(effects
							(font
								(size 1.27 1.27)
							)
						)
					)
				)
				(pin passive line
					(at -5.08 -2.54 0)
					(length 3.81)
					(name "Pin_2"
						(effects
							(font
								(size 1.27 1.27)
							)
						)
					)
					(number "2"
						(effects
							(font
								(size 1.27 1.27)
							)
						)
					)
				)
			)
		)
		(symbol "Connector_Generic:Conn_01x04"
			(pin_names
				(offset 1.016) hide)
			(exclude_from_sim no)
			(in_bom yes)
			(on_board yes)
			(property "Reference" "J"
				(at 0 5.08 0)
				(effects
					(font
						(size 1.27 1.27)
					)
				)
			)
			(property "Value" "Conn_01x04"
				(at 0 -7.62 0)
				(effects
					(font
						(size 1.27 1.27)
					)
				)
			)
			(property "Footprint" ""
				(at 0 0 0)
				(effects
					(font
						(size 1.27 1.27)
					)
					(hide yes)
				)
			)
			(property "Datasheet" "~"
				(at 0 0 0)
				(effects
					(font
						(size 1.27 1.27)
					)
					(hide yes)
				)
			)
			(property "Description" "Generic connector, single row, 01x04, script generated (kicad-library-utils/schlib/autogen/connector/)"
				(at 0 0 0)
				(effects
					(font
						(size 1.27 1.27)
					)
					(hide yes)
				)
			)
			(property "ki_keywords" "connector"
				(at 0 0 0)
				(effects
					(font
						(size 1.27 1.27)
					)
					(hide yes)
				)
			)
			(property "ki_fp_filters" "Connector*:*_1x??_*"
				(at 0 0 0)
				(effects
					(font
						(size 1.27 1.27)
					)
					(hide yes)
				)
			)
			(symbol "Conn_01x04_1_1"
				(rectangle
					(start -1.27 -4.953)
					(end 0 -5.207)
					(stroke
						(width 0.1524)
						(type default)
					)
					(fill
						(type none)
					)
				)
				(rectangle
					(start -1.27 -2.413)
					(end 0 -2.667)
					(stroke
						(width 0.1524)
						(type default)
					)
					(fill
						(type none)
					)
				)
				(rectangle
					(start -1.27 0.127)
					(end 0 -0.127)
					(stroke
						(width 0.1524)
						(type default)
					)
					(fill
						(type none)
					)
				)
				(rectangle
					(start -1.27 2.667)
					(end 0 2.413)
					(stroke
						(width 0.1524)
						(type default)
					)
					(fill
						(type none)
					)
				)
				(rectangle
					(start -1.27 3.81)
					(end 1.27 -6.35)
					(stroke
						(width 0.254)
						(type default)
					)
					(fill
						(type background)
					)
				)
				(pin passive line
					(at -5.08 2.54 0)
					(length 3.81)
					(name "Pin_1"
						(effects
							(font
								(size 1.27 1.27)
							)
						)
					)
					(number "1"
						(effects
							(font
								(size 1.27 1.27)
							)
						)
					)
				)
				(pin passive line
					(at -5.08 0 0)
					(length 3.81)
					(name "Pin_2"
						(effects
							(font
								(size 1.27 1.27)
							)
						)
					)
					(number "2"
						(effects
							(font
								(size 1.27 1.27)
							)
						)
					)
				)
				(pin passive line
					(at -5.08 -2.54 0)
					(length 3.81)
					(name "Pin_3"
						(effects
							(font
								(size 1.27 1.27)
							)
						)
					)
					(number "3"
						(effects
							(font
								(size 1.27 1.27)
							)
						)
					)
				)
				(pin passive line
					(at -5.08 -5.08 0)
					(length 3.81)
					(name "Pin_4"
						(effects
							(font
								(size 1.27 1.27)
							)
						)
					)
					(number "4"
						(effects
							(font
								(size 1.27 1.27)
							)
						)
					)
				)
			)
		)
		(symbol "Device:C"
			(pin_numbers hide)
			(pin_names
				(offset 0.254)
			)
			(exclude_from_sim no)
			(in_bom yes)
			(on_board yes)
			(property "Reference" "C"
				(at 0.635 2.54 0)
				(effects
					(font
						(size 1.27 1.27)
					)
					(justify left)
				)
			)
			(property "Value" "C"
				(at 0.635 -2.54 0)
				(effects
					(font
						(size 1.27 1.27)
					)
					(justify left)
				)
			)
			(property "Footprint" ""
				(at 0.9652 -3.81 0)
				(effects
					(font
						(size 1.27 1.27)
					)
					(hide yes)
				)
			)
			(property "Datasheet" "~"
				(at 0 0 0)
				(effects
					(font
						(size 1.27 1.27)
					)
					(hide yes)
				)
			)
			(property "Description" "Unpolarized capacitor"
				(at 0 0 0)
				(effects
					(font
						(size 1.27 1.27)
					)
					(hide yes)
				)
			)
			(property "ki_keywords" "cap capacitor"
				(at 0 0 0)
				(effects
					(font
						(size 1.27 1.27)
					)
					(hide yes)
				)
			)
			(property "ki_fp_filters" "C_*"
				(at 0 0 0)
				(effects
					(font
						(size 1.27 1.27)
					)
					(hide yes)
				)
			)
			(symbol "C_0_1"
				(polyline
					(pts
						(xy -2.032 -0.762) (xy 2.032 -0.762)
					)
					(stroke
						(width 0.508)
						(type default)
					)
					(fill
						(type none)
					)
				)
				(polyline
					(pts
						(xy -2.032 0.762) (xy 2.032 0.762)
					)
					(stroke
						(width 0.508)
						(type default)
					)
					(fill
						(type none)
					)
				)
			)
			(symbol "C_1_1"
				(pin passive line
					(at 0 3.81 270)
					(length 2.794)
					(name "~"
						(effects
							(font
								(size 1.27 1.27)
							)
						)
					)
					(number "1"
						(effects
							(font
								(size 1.27 1.27)
							)
						)
					)
				)
				(pin passive line
					(at 0 -3.81 90)
					(length 2.794)
					(name "~"
						(effects
							(font
								(size 1.27 1.27)
							)
						)
					)
					(number "2"
						(effects
							(font
								(size 1.27 1.27)
							)
						)
					)
				)
			)
		)
		(symbol "Device:D_Schottky"
			(pin_numbers hide)
			(pin_names
				(offset 1.016) hide)
			(exclude_from_sim no)
			(in_bom yes)
			(on_board yes)
			(property "Reference" "D"
				(at 0 2.54 0)
				(effects
					(font
						(size 1.27 1.27)
					)
				)
			)
			(property "Value" "D_Schottky"
				(at 0 -2.54 0)
				(effects
					(font
						(size 1.27 1.27)
					)
				)
			)
			(property "Footprint" ""
				(at 0 0 0)
				(effects
					(font
						(size 1.27 1.27)
					)
					(hide yes)
				)
			)
			(property "Datasheet" "~"
				(at 0 0 0)
				(effects
					(font
						(size 1.27 1.27)
					)
					(hide yes)
				)
			)
			(property "Description" "Schottky diode"
				(at 0 0 0)
				(effects
					(font
						(size 1.27 1.27)
					)
					(hide yes)
				)
			)
			(property "ki_keywords" "diode Schottky"
				(at 0 0 0)
				(effects
					(font
						(size 1.27 1.27)
					)
					(hide yes)
				)
			)
			(property "ki_fp_filters" "TO-???* *_Diode_* *SingleDiode* D_*"
				(at 0 0 0)
				(effects
					(font
						(size 1.27 1.27)
					)
					(hide yes)
				)
			)
			(symbol "D_Schottky_0_1"
				(polyline
					(pts
						(xy 1.27 0) (xy -1.27 0)
					)
					(stroke
						(width 0)
						(type default)
					)
					(fill
						(type none)
					)
				)
				(polyline
					(pts
						(xy 1.27 1.27) (xy 1.27 -1.27) (xy -1.27 0) (xy 1.27 1.27)
					)
					(stroke
						(width 0.254)
						(type default)
					)
					(fill
						(type none)
					)
				)
				(polyline
					(pts
						(xy -1.905 0.635) (xy -1.905 1.27) (xy -1.27 1.27) (xy -1.27 -1.27) (xy -0.635 -1.27) (xy -0.635 -0.635)
					)
					(stroke
						(width 0.254)
						(type default)
					)
					(fill
						(type none)
					)
				)
			)
			(symbol "D_Schottky_1_1"
				(pin passive line
					(at -3.81 0 0)
					(length 2.54)
					(name "K"
						(effects
							(font
								(size 1.27 1.27)
							)
						)
					)
					(number "1"
						(effects
							(font
								(size 1.27 1.27)
							)
						)
					)
				)
				(pin passive line
					(at 3.81 0 180)
					(length 2.54)
					(name "A"
						(effects
							(font
								(size 1.27 1.27)
							)
						)
					)
					(number "2"
						(effects
							(font
								(size 1.27 1.27)
							)
						)
					)
				)
			)
		)
		(symbol "Device:D_TVS"
			(pin_numbers hide)
			(pin_names
				(offset 1.016) hide)
			(exclude_from_sim no)
			(in_bom yes)
			(on_board yes)
			(property "Reference" "D"
				(at 0 2.54 0)
				(effects
					(font
						(size 1.27 1.27)
					)
				)
			)
			(property "Value" "D_TVS"
				(at 0 -2.54 0)
				(effects
					(font
						(size 1.27 1.27)
					)
				)
			)
			(property "Footprint" ""
				(at 0 0 0)
				(effects
					(font
						(size 1.27 1.27)
					)
					(hide yes)
				)
			)
			(property "Datasheet" "~"
				(at 0 0 0)
				(effects
					(font
						(size 1.27 1.27)
					)
					(hide yes)
				)
			)
			(property "Description" "Bidirectional transient-voltage-suppression diode"
				(at 0 0 0)
				(effects
					(font
						(size 1.27 1.27)
					)
					(hide yes)
				)
			)
			(property "ki_keywords" "diode TVS thyrector"
				(at 0 0 0)
				(effects
					(font
						(size 1.27 1.27)
					)
					(hide yes)
				)
			)
			(property "ki_fp_filters" "TO-???* *_Diode_* *SingleDiode* D_*"
				(at 0 0 0)
				(effects
					(font
						(size 1.27 1.27)
					)
					(hide yes)
				)
			)
			(symbol "D_TVS_0_1"
				(polyline
					(pts
						(xy 1.27 0) (xy -1.27 0)
					)
					(stroke
						(width 0)
						(type default)
					)
					(fill
						(type none)
					)
				)
				(polyline
					(pts
						(xy 0.508 1.27) (xy 0 1.27) (xy 0 -1.27) (xy -0.508 -1.27)
					)
					(stroke
						(width 0.254)
						(type default)
					)
					(fill
						(type none)
					)
				)
				(polyline
					(pts
						(xy -2.54 1.27) (xy -2.54 -1.27) (xy 2.54 1.27) (xy 2.54 -1.27) (xy -2.54 1.27)
					)
					(stroke
						(width 0.254)
						(type default)
					)
					(fill
						(type none)
					)
				)
			)
			(symbol "D_TVS_1_1"
				(pin passive line
					(at -3.81 0 0)
					(length 2.54)
					(name "A1"
						(effects
							(font
								(size 1.27 1.27)
							)
						)
					)
					(number "1"
						(effects
							(font
								(size 1.27 1.27)
							)
						)
					)
				)
				(pin passive line
					(at 3.81 0 180)
					(length 2.54)
					(name "A2"
						(effects
							(font
								(size 1.27 1.27)
							)
						)
					)
					(number "2"
						(effects
							(font
								(size 1.27 1.27)
							)
						)
					)
				)
			)
		)
		(symbol "Device:FerriteBead"
			(pin_numbers hide)
			(pin_names
				(offset 0)
			)
			(exclude_from_sim no)
			(in_bom yes)
			(on_board yes)
			(property "Reference" "FB"
				(at -3.81 0.635 90)
				(effects
					(font
						(size 1.27 1.27)
					)
				)
			)
			(property "Value" "FerriteBead"
				(at 3.81 0 90)
				(effects
					(font
						(size 1.27 1.27)
					)
				)
			)
			(property "Footprint" ""
				(at -1.778 0 90)
				(effects
					(font
						(size 1.27 1.27)
					)
					(hide yes)
				)
			)
			(property "Datasheet" "~"
				(at 0 0 0)
				(effects
					(font
						(size 1.27 1.27)
					)
					(hide yes)
				)
			)
			(property "Description" "Ferrite bead"
				(at 0 0 0)
				(effects
					(font
						(size 1.27 1.27)
					)
					(hide yes)
				)
			)
			(property "ki_keywords" "L ferrite bead inductor filter"
				(at 0 0 0)
				(effects
					(font
						(size 1.27 1.27)
					)
					(hide yes)
				)
			)
			(property "ki_fp_filters" "Inductor_* L_* *Ferrite*"
				(at 0 0 0)
				(effects
					(font
						(size 1.27 1.27)
					)
					(hide yes)
				)
			)
			(symbol "FerriteBead_0_1"
				(polyline
					(pts
						(xy 0 -1.27) (xy 0 -1.2192)
					)
					(stroke
						(width 0)
						(type default)
					)
					(fill
						(type none)
					)
				)
				(polyline
					(pts
						(xy 0 1.27) (xy 0 1.2954)
					)
					(stroke
						(width 0)
						(type default)
					)
					(fill
						(type none)
					)
				)
				(polyline
					(pts
						(xy -2.7686 0.4064) (xy -1.7018 2.2606) (xy 2.7686 -0.3048) (xy 1.6764 -2.159) (xy -2.7686 0.4064)
					)
					(stroke
						(width 0)
						(type default)
					)
					(fill
						(type none)
					)
				)
			)
			(symbol "FerriteBead_1_1"
				(pin passive line
					(at 0 3.81 270)
					(length 2.54)
					(name "~"
						(effects
							(font
								(size 1.27 1.27)
							)
						)
					)
					(number "1"
						(effects
							(font
								(size 1.27 1.27)
							)
						)
					)
				)
				(pin passive line
					(at 0 -3.81 90)
					(length 2.54)
					(name "~"
						(effects
							(font
								(size 1.27 1.27)
							)
						)
					)
					(number "2"
						(effects
							(font
								(size 1.27 1.27)
							)
						)
					)
				)
			)
		)
		(symbol "Device:LED"
			(pin_numbers hide)
			(pin_names
				(offset 1.016) hide)
			(exclude_from_sim no)
			(in_bom yes)
			(on_board yes)
			(property "Reference" "D"
				(at 0 2.54 0)
				(effects
					(font
						(size 1.27 1.27)
					)
				)
			)
			(property "Value" "LED"
				(at 0 -2.54 0)
				(effects
					(font
						(size 1.27 1.27)
					)
				)
			)
			(property "Footprint" ""
				(at 0 0 0)
				(effects
					(font
						(size 1.27 1.27)
					)
					(hide yes)
				)
			)
			(property "Datasheet" "~"
				(at 0 0 0)
				(effects
					(font
						(size 1.27 1.27)
					)
					(hide yes)
				)
			)
			(property "Description" "Light emitting diode"
				(at 0 0 0)
				(effects
					(font
						(size 1.27 1.27)
					)
					(hide yes)
				)
			)
			(property "ki_keywords" "LED diode"
				(at 0 0 0)
				(effects
					(font
						(size 1.27 1.27)
					)
					(hide yes)
				)
			)
			(property "ki_fp_filters" "LED* LED_SMD:* LED_THT:*"
				(at 0 0 0)
				(effects
					(font
						(size 1.27 1.27)
					)
					(hide yes)
				)
			)
			(symbol "LED_0_1"
				(polyline
					(pts
						(xy -1.27 -1.27) (xy -1.27 1.27)
					)
					(stroke
						(width 0.254)
						(type default)
					)
					(fill
						(type none)
					)
				)
				(polyline
					(pts
						(xy -1.27 0) (xy 1.27 0)
					)
					(stroke
						(width 0)
						(type default)
					)
					(fill
						(type none)
					)
				)
				(polyline
					(pts
						(xy 1.27 -1.27) (xy 1.27 1.27) (xy -1.27 0) (xy 1.27 -1.27)
					)
					(stroke
						(width 0.254)
						(type default)
					)
					(fill
						(type none)
					)
				)
				(polyline
					(pts
						(xy -3.048 -0.762) (xy -4.572 -2.286) (xy -3.81 -2.286) (xy -4.572 -2.286) (xy -4.572 -1.524)
					)
					(stroke
						(width 0)
						(type default)
					)
					(fill
						(type none)
					)
				)
				(polyline
					(pts
						(xy -1.778 -0.762) (xy -3.302 -2.286) (xy -2.54 -2.286) (xy -3.302 -2.286) (xy -3.302 -1.524)
					)
					(stroke
						(width 0)
						(type default)
					)
					(fill
						(type none)
					)
				)
			)
			(symbol "LED_1_1"
				(pin passive line
					(at -3.81 0 0)
					(length 2.54)
					(name "K"
						(effects
							(font
								(size 1.27 1.27)
							)
						)
					)
					(number "1"
						(effects
							(font
								(size 1.27 1.27)
							)
						)
					)
				)
				(pin passive line
					(at 3.81 0 180)
					(length 2.54)
					(name "A"
						(effects
							(font
								(size 1.27 1.27)
							)
						)
					)
					(number "2"
						(effects
							(font
								(size 1.27 1.27)
							)
						)
					)
				)
			)
		)
		(symbol "Device:Polyfuse"
			(pin_numbers hide)
			(pin_names
				(offset 0)
			)
			(exclude_from_sim no)
			(in_bom yes)
			(on_board yes)
			(property "Reference" "F"
				(at -2.54 0 90)
				(effects
					(font
						(size 1.27 1.27)
					)
				)
			)
			(property "Value" "Polyfuse"
				(at 2.54 0 90)
				(effects
					(font
						(size 1.27 1.27)
					)
				)
			)
			(property "Footprint" ""
				(at 1.27 -5.08 0)
				(effects
					(font
						(size 1.27 1.27)
					)
					(justify left)
					(hide yes)
				)
			)
			(property "Datasheet" "~"
				(at 0 0 0)
				(effects
					(font
						(size 1.27 1.27)
					)
					(hide yes)
				)
			)
			(property "Description" "Resettable fuse, polymeric positive temperature coefficient"
				(at 0 0 0)
				(effects
					(font
						(size 1.27 1.27)
					)
					(hide yes)
				)
			)
			(property "ki_keywords" "resettable fuse PTC PPTC polyfuse polyswitch"
				(at 0 0 0)
				(effects
					(font
						(size 1.27 1.27)
					)
					(hide yes)
				)
			)
			(property "ki_fp_filters" "*polyfuse* *PTC*"
				(at 0 0 0)
				(effects
					(font
						(size 1.27 1.27)
					)
					(hide yes)
				)
			)
			(symbol "Polyfuse_0_1"
				(rectangle
					(start -0.762 2.54)
					(end 0.762 -2.54)
					(stroke
						(width 0.254)
						(type default)
					)
					(fill
						(type none)
					)
				)
				(polyline
					(pts
						(xy 0 2.54) (xy 0 -2.54)
					)
					(stroke
						(width 0)
						(type default)
					)
					(fill
						(type none)
					)
				)
				(polyline
					(pts
						(xy -1.524 2.54) (xy -1.524 1.524) (xy 1.524 -1.524) (xy 1.524 -2.54)
					)
					(stroke
						(width 0)
						(type default)
					)
					(fill
						(type none)
					)
				)
			)
			(symbol "Polyfuse_1_1"
				(pin passive line
					(at 0 3.81 270)
					(length 1.27)
					(name "~"
						(effects
							(font
								(size 1.27 1.27)
							)
						)
					)
					(number "1"
						(effects
							(font
								(size 1.27 1.27)
							)
						)
					)
				)
				(pin passive line
					(at 0 -3.81 90)
					(length 1.27)
					(name "~"
						(effects
							(font
								(size 1.27 1.27)
							)
						)
					)
					(number "2"
						(effects
							(font
								(size 1.27 1.27)
							)
						)
					)
				)
			)
		)
		(symbol "Device:R"
			(pin_numbers hide)
			(pin_names
				(offset 0)
			)
			(exclude_from_sim no)
			(in_bom yes)
			(on_board yes)
			(property "Reference" "R"
				(at 2.032 0 90)
				(effects
					(font
						(size 1.27 1.27)
					)
				)
			)
			(property "Value" "R"
				(at 0 0 90)
				(effects
					(font
						(size 1.27 1.27)
					)
				)
			)
			(property "Footprint" ""
				(at -1.778 0 90)
				(effects
					(font
						(size 1.27 1.27)
					)
					(hide yes)
				)
			)
			(property "Datasheet" "~"
				(at 0 0 0)
				(effects
					(font
						(size 1.27 1.27)
					)
					(hide yes)
				)
			)
			(property "Description" "Resistor"
				(at 0 0 0)
				(effects
					(font
						(size 1.27 1.27)
					)
					(hide yes)
				)
			)
			(property "ki_keywords" "R res resistor"
				(at 0 0 0)
				(effects
					(font
						(size 1.27 1.27)
					)
					(hide yes)
				)
			)
			(property "ki_fp_filters" "R_*"
				(at 0 0 0)
				(effects
					(font
						(size 1.27 1.27)
					)
					(hide yes)
				)
			)
			(symbol "R_0_1"
				(rectangle
					(start -1.016 -2.54)
					(end 1.016 2.54)
					(stroke
						(width 0.254)
						(type default)
					)
					(fill
						(type none)
					)
				)
			)
			(symbol "R_1_1"
				(pin passive line
					(at 0 3.81 270)
					(length 1.27)
					(name "~"
						(effects
							(font
								(size 1.27 1.27)
							)
						)
					)
					(number "1"
						(effects
							(font
								(size 1.27 1.27)
							)
						)
					)
				)
				(pin passive line
					(at 0 -3.81 90)
					(length 1.27)
					(name "~"
						(effects
							(font
								(size 1.27 1.27)
							)
						)
					)
					(number "2"
						(effects
							(font
								(size 1.27 1.27)
							)
						)
					)
				)
			)
		)
		(symbol "Device:R_Small"
			(pin_numbers hide)
			(pin_names
				(offset 0.254) hide)
			(exclude_from_sim no)
			(in_bom yes)
			(on_board yes)
			(property "Reference" "R"
				(at 0.762 0.508 0)
				(effects
					(font
						(size 1.27 1.27)
					)
					(justify left)
				)
			)
			(property "Value" "R_Small"
				(at 0.762 -1.016 0)
				(effects
					(font
						(size 1.27 1.27)
					)
					(justify left)
				)
			)
			(property "Footprint" ""
				(at 0 0 0)
				(effects
					(font
						(size 1.27 1.27)
					)
					(hide yes)
				)
			)
			(property "Datasheet" "~"
				(at 0 0 0)
				(effects
					(font
						(size 1.27 1.27)
					)
					(hide yes)
				)
			)
			(property "Description" "Resistor, small symbol"
				(at 0 0 0)
				(effects
					(font
						(size 1.27 1.27)
					)
					(hide yes)
				)
			)
			(property "ki_keywords" "R resistor"
				(at 0 0 0)
				(effects
					(font
						(size 1.27 1.27)
					)
					(hide yes)
				)
			)
			(property "ki_fp_filters" "R_*"
				(at 0 0 0)
				(effects
					(font
						(size 1.27 1.27)
					)
					(hide yes)
				)
			)
			(symbol "R_Small_0_1"
				(rectangle
					(start -0.762 1.778)
					(end 0.762 -1.778)
					(stroke
						(width 0.2032)
						(type default)
					)
					(fill
						(type none)
					)
				)
			)
			(symbol "R_Small_1_1"
				(pin passive line
					(at 0 2.54 270)
					(length 0.762)
					(name "~"
						(effects
							(font
								(size 1.27 1.27)
							)
						)
					)
					(number "1"
						(effects
							(font
								(size 1.27 1.27)
							)
						)
					)
				)
				(pin passive line
					(at 0 -2.54 90)
					(length 0.762)
					(name "~"
						(effects
							(font
								(size 1.27 1.27)
							)
						)
					)
					(number "2"
						(effects
							(font
								(size 1.27 1.27)
							)
						)
					)
				)
			)
		)
		(symbol "Interface_CAN_LIN:ISO1050DUB"
			(exclude_from_sim no)
			(in_bom yes)
			(on_board yes)
			(property "Reference" "U"
				(at -6.35 6.35 0)
				(effects
					(font
						(size 1.27 1.27)
					)
				)
			)
			(property "Value" "ISO1050DUB"
				(at 2.54 6.35 0)
				(effects
					(font
						(size 1.27 1.27)
					)
				)
			)
			(property "Footprint" "Package_SO:SOP-8_6.62x9.15mm_P2.54mm"
				(at 0 -8.89 0)
				(effects
					(font
						(size 1.27 1.27)
						(italic yes)
					)
					(hide yes)
				)
			)
			(property "Datasheet" "http://www.ti.com/lit/ds/symlink/iso1050.pdf"
				(at 0 -1.27 0)
				(effects
					(font
						(size 1.27 1.27)
					)
					(hide yes)
				)
			)
			(property "Description" "Isolated CAN Transceiver, SOP-8"
				(at 0 0 0)
				(effects
					(font
						(size 1.27 1.27)
					)
					(hide yes)
				)
			)
			(property "ki_keywords" "CAN Isolated"
				(at 0 0 0)
				(effects
					(font
						(size 1.27 1.27)
					)
					(hide yes)
				)
			)
			(property "ki_fp_filters" "SOP*6.62x9.15mm*P2.54mm*"
				(at 0 0 0)
				(effects
					(font
						(size 1.27 1.27)
					)
					(hide yes)
				)
			)
			(symbol "ISO1050DUB_0_1"
				(rectangle
					(start -7.62 5.08)
					(end 7.62 -7.62)
					(stroke
						(width 0.254)
						(type default)
					)
					(fill
						(type background)
					)
				)
				(polyline
					(pts
						(xy 0 -5.08) (xy 0 -6.35)
					)
					(stroke
						(width 0)
						(type default)
					)
					(fill
						(type none)
					)
				)
				(polyline
					(pts
						(xy 0 -2.54) (xy 0 -3.81)
					)
					(stroke
						(width 0)
						(type default)
					)
					(fill
						(type none)
					)
				)
				(polyline
					(pts
						(xy 0 0) (xy 0 -1.27)
					)
					(stroke
						(width 0)
						(type default)
					)
					(fill
						(type none)
					)
				)
				(polyline
					(pts
						(xy 0 2.54) (xy 0 1.27)
					)
					(stroke
						(width 0)
						(type default)
					)
					(fill
						(type none)
					)
				)
				(polyline
					(pts
						(xy 0 5.08) (xy 0 3.81)
					)
					(stroke
						(width 0)
						(type default)
					)
					(fill
						(type none)
					)
				)
			)
			(symbol "ISO1050DUB_1_1"
				(pin power_in line
					(at -10.16 2.54 0)
					(length 2.54)
					(name "VCC1"
						(effects
							(font
								(size 1.27 1.27)
							)
						)
					)
					(number "1"
						(effects
							(font
								(size 1.27 1.27)
							)
						)
					)
				)
				(pin output line
					(at -10.16 0 0)
					(length 2.54)
					(name "RXD"
						(effects
							(font
								(size 1.27 1.27)
							)
						)
					)
					(number "2"
						(effects
							(font
								(size 1.27 1.27)
							)
						)
					)
				)
				(pin input line
					(at -10.16 -2.54 0)
					(length 2.54)
					(name "TXD"
						(effects
							(font
								(size 1.27 1.27)
							)
						)
					)
					(number "3"
						(effects
							(font
								(size 1.27 1.27)
							)
						)
					)
				)
				(pin power_in line
					(at -10.16 -5.08 0)
					(length 2.54)
					(name "GND1"
						(effects
							(font
								(size 1.27 1.27)
							)
						)
					)
					(number "4"
						(effects
							(font
								(size 1.27 1.27)
							)
						)
					)
				)
				(pin power_in line
					(at 10.16 -5.08 180)
					(length 2.54)
					(name "GND2"
						(effects
							(font
								(size 1.27 1.27)
							)
						)
					)
					(number "5"
						(effects
							(font
								(size 1.27 1.27)
							)
						)
					)
				)
				(pin bidirectional line
					(at 10.16 -2.54 180)
					(length 2.54)
					(name "CANL"
						(effects
							(font
								(size 1.27 1.27)
							)
						)
					)
					(number "6"
						(effects
							(font
								(size 1.27 1.27)
							)
						)
					)
				)
				(pin bidirectional line
					(at 10.16 0 180)
					(length 2.54)
					(name "CANH"
						(effects
							(font
								(size 1.27 1.27)
							)
						)
					)
					(number "7"
						(effects
							(font
								(size 1.27 1.27)
							)
						)
					)
				)
				(pin power_in line
					(at 10.16 2.54 180)
					(length 2.54)
					(name "VCC2"
						(effects
							(font
								(size 1.27 1.27)
							)
						)
					)
					(number "8"
						(effects
							(font
								(size 1.27 1.27)
							)
						)
					)
				)
			)
		)
		(symbol "Jumper:SolderJumper_2_Open"
			(pin_names
				(offset 0) hide)
			(exclude_from_sim no)
			(in_bom yes)
			(on_board yes)
			(property "Reference" "JP"
				(at 0 2.032 0)
				(effects
					(font
						(size 1.27 1.27)
					)
				)
			)
			(property "Value" "SolderJumper_2_Open"
				(at 0 -2.54 0)
				(effects
					(font
						(size 1.27 1.27)
					)
				)
			)
			(property "Footprint" ""
				(at 0 0 0)
				(effects
					(font
						(size 1.27 1.27)
					)
					(hide yes)
				)
			)
			(property "Datasheet" "~"
				(at 0 0 0)
				(effects
					(font
						(size 1.27 1.27)
					)
					(hide yes)
				)
			)
			(property "Description" "Solder Jumper, 2-pole, open"
				(at 0 0 0)
				(effects
					(font
						(size 1.27 1.27)
					)
					(hide yes)
				)
			)
			(property "ki_keywords" "solder jumper SPST"
				(at 0 0 0)
				(effects
					(font
						(size 1.27 1.27)
					)
					(hide yes)
				)
			)
			(property "ki_fp_filters" "SolderJumper*Open*"
				(at 0 0 0)
				(effects
					(font
						(size 1.27 1.27)
					)
					(hide yes)
				)
			)
			(symbol "SolderJumper_2_Open_0_1"
				(arc
					(start -0.254 1.016)
					(mid -1.2656 0)
					(end -0.254 -1.016)
					(stroke
						(width 0)
						(type default)
					)
					(fill
						(type none)
					)
				)
				(arc
					(start -0.254 1.016)
					(mid -1.2656 0)
					(end -0.254 -1.016)
					(stroke
						(width 0)
						(type default)
					)
					(fill
						(type outline)
					)
				)
				(polyline
					(pts
						(xy -0.254 1.016) (xy -0.254 -1.016)
					)
					(stroke
						(width 0)
						(type default)
					)
					(fill
						(type none)
					)
				)
				(polyline
					(pts
						(xy 0.254 1.016) (xy 0.254 -1.016)
					)
					(stroke
						(width 0)
						(type default)
					)
					(fill
						(type none)
					)
				)
				(arc
					(start 0.254 -1.016)
					(mid 1.2656 0)
					(end 0.254 1.016)
					(stroke
						(width 0)
						(type default)
					)
					(fill
						(type none)
					)
				)
				(arc
					(start 0.254 -1.016)
					(mid 1.2656 0)
					(end 0.254 1.016)
					(stroke
						(width 0)
						(type default)
					)
					(fill
						(type outline)
					)
				)
			)
			(symbol "SolderJumper_2_Open_1_1"
				(pin passive line
					(at -3.81 0 0)
					(length 2.54)
					(name "A"
						(effects
							(font
								(size 1.27 1.27)
							)
						)
					)
					(number "1"
						(effects
							(font
								(size 1.27 1.27)
							)
						)
					)
				)
				(pin passive line
					(at 3.81 0 180)
					(length 2.54)
					(name "B"
						(effects
							(font
								(size 1.27 1.27)
							)
						)
					)
					(number "2"
						(effects
							(font
								(size 1.27 1.27)
							)
						)
					)
				)
			)
		)
		(symbol "SH-ESP32:HT75xx-1-SOT23"
			(exclude_from_sim no)
			(in_bom yes)
			(on_board yes)
			(property "Reference" "U"
				(at -5.08 -3.81 0)
				(effects
					(font
						(size 1.27 1.27)
					)
					(justify left)
				)
			)
			(property "Value" "HT75xx-1-SOT23"
				(at 0 6.35 0)
				(effects
					(font
						(size 1.27 1.27)
					)
				)
			)
			(property "Footprint" "Package_TO_SOT_SMD:SOT-89-3"
				(at 0 8.255 0)
				(effects
					(font
						(size 1.27 1.27)
						(italic yes)
					)
					(hide yes)
				)
			)
			(property "Datasheet" "https://www.holtek.com/documents/10179/116711/HT75xx-1v250.pdf"
				(at 0 2.54 0)
				(effects
					(font
						(size 1.27 1.27)
					)
					(hide yes)
				)
			)
			(property "Description" "100mA Low Dropout Voltage Regulator, Fixed Output, SOT89"
				(at 0 0 0)
				(effects
					(font
						(size 1.27 1.27)
					)
					(hide yes)
				)
			)
			(property "ki_keywords" "100mA LDO Regulator Fixed Positive"
				(at 0 0 0)
				(effects
					(font
						(size 1.27 1.27)
					)
					(hide yes)
				)
			)
			(property "ki_fp_filters" "SOT?89*"
				(at 0 0 0)
				(effects
					(font
						(size 1.27 1.27)
					)
					(hide yes)
				)
			)
			(symbol "HT75xx-1-SOT23_0_1"
				(rectangle
					(start -5.08 5.08)
					(end 5.08 -2.54)
					(stroke
						(width 0.254)
						(type solid)
					)
					(fill
						(type background)
					)
				)
			)
			(symbol "HT75xx-1-SOT23_1_1"
				(pin power_in line
					(at 0 -5.08 90)
					(length 2.54)
					(name "GND"
						(effects
							(font
								(size 1.27 1.27)
							)
						)
					)
					(number "1"
						(effects
							(font
								(size 1.27 1.27)
							)
						)
					)
				)
				(pin power_out line
					(at 7.62 2.54 180)
					(length 2.54)
					(name "VOUT"
						(effects
							(font
								(size 1.27 1.27)
							)
						)
					)
					(number "2"
						(effects
							(font
								(size 1.27 1.27)
							)
						)
					)
				)
				(pin power_in line
					(at -7.62 2.54 0)
					(length 2.54)
					(name "VIN"
						(effects
							(font
								(size 1.27 1.27)
							)
						)
					)
					(number "3"
						(effects
							(font
								(size 1.27 1.27)
							)
						)
					)
				)
			)
		)
		(symbol "SH-ESP32:TPD2E007"
			(exclude_from_sim no)
			(in_bom yes)
			(on_board yes)
			(property "Reference" "U"
				(at 0 9.652 0)
				(effects
					(font
						(size 1.27 1.27)
					)
				)
			)
			(property "Value" "TPD2E007"
				(at 0 7.366 0)
				(effects
					(font
						(size 1.27 1.27)
					)
				)
			)
			(property "Footprint" "Package_TO_SOT_SMD:SOT-323_SC-70"
				(at 1.27 -6.604 0)
				(effects
					(font
						(size 1.27 1.27)
					)
					(justify left)
					(hide yes)
				)
			)
			(property "Datasheet" ""
				(at 0 0 0)
				(effects
					(font
						(size 1.27 1.27)
					)
					(hide yes)
				)
			)
			(property "Description" ""
				(at 0 0 0)
				(effects
					(font
						(size 1.27 1.27)
					)
					(hide yes)
				)
			)
			(symbol "TPD2E007_1_1"
				(rectangle
					(start -5.08 5.715)
					(end 5.08 -5.08)
					(stroke
						(width 0)
						(type default)
					)
					(fill
						(type background)
					)
				)
				(polyline
					(pts
						(xy -3.175 0.635) (xy -3.175 -0.635)
					)
					(stroke
						(width 0)
						(type default)
					)
					(fill
						(type none)
					)
				)
				(polyline
					(pts
						(xy 2.54 -0.635) (xy 2.54 0.635)
					)
					(stroke
						(width 0)
						(type default)
					)
					(fill
						(type none)
					)
				)
				(polyline
					(pts
						(xy -5.08 3.81) (xy -3.175 3.81) (xy -3.175 1.905)
					)
					(stroke
						(width 0)
						(type default)
					)
					(fill
						(type none)
					)
				)
				(polyline
					(pts
						(xy -3.175 -1.905) (xy -2.54 -1.905) (xy -2.54 -2.54)
					)
					(stroke
						(width 0)
						(type default)
					)
					(fill
						(type none)
					)
				)
				(polyline
					(pts
						(xy -3.175 1.905) (xy -3.81 1.905) (xy -3.81 2.54)
					)
					(stroke
						(width 0)
						(type default)
					)
					(fill
						(type none)
					)
				)
				(polyline
					(pts
						(xy 0 -3.81) (xy 2.54 -3.81) (xy 2.54 -1.905)
					)
					(stroke
						(width 0)
						(type default)
					)
					(fill
						(type none)
					)
				)
				(polyline
					(pts
						(xy 2.54 -1.905) (xy 3.175 -1.905) (xy 3.175 -2.54)
					)
					(stroke
						(width 0)
						(type default)
					)
					(fill
						(type none)
					)
				)
				(polyline
					(pts
						(xy 2.54 1.905) (xy 1.905 1.905) (xy 1.905 2.54)
					)
					(stroke
						(width 0)
						(type default)
					)
					(fill
						(type none)
					)
				)
				(polyline
					(pts
						(xy 2.54 1.905) (xy 2.54 3.81) (xy 5.08 3.81)
					)
					(stroke
						(width 0)
						(type default)
					)
					(fill
						(type none)
					)
				)
				(polyline
					(pts
						(xy -3.175 -1.905) (xy -3.175 -3.81) (xy 0 -3.81) (xy 0 -5.08)
					)
					(stroke
						(width 0)
						(type default)
					)
					(fill
						(type none)
					)
				)
				(polyline
					(pts
						(xy -3.175 1.905) (xy -3.81 0.635) (xy -2.54 0.635) (xy -3.175 1.905) (xy -2.54 1.905) (xy -2.54 1.27)
					)
					(stroke
						(width 0)
						(type default)
					)
					(fill
						(type none)
					)
				)
				(polyline
					(pts
						(xy -3.81 -0.635) (xy -2.54 -0.635) (xy -3.175 -1.905) (xy -3.81 -0.635) (xy -3.175 -1.905) (xy -3.81 -1.905)
						(xy -3.81 -1.27)
					)
					(stroke
						(width 0)
						(type default)
					)
					(fill
						(type none)
					)
				)
				(polyline
					(pts
						(xy 1.905 -0.635) (xy 3.175 -0.635) (xy 2.54 -1.905) (xy 1.905 -0.635) (xy 2.54 -1.905) (xy 1.905 -1.905)
						(xy 1.905 -1.27)
					)
					(stroke
						(width 0)
						(type default)
					)
					(fill
						(type none)
					)
				)
				(polyline
					(pts
						(xy 3.175 0.635) (xy 1.905 0.635) (xy 2.54 1.905) (xy 3.175 0.635) (xy 2.54 1.905) (xy 3.175 1.905)
						(xy 3.175 1.27)
					)
					(stroke
						(width 0)
						(type default)
					)
					(fill
						(type none)
					)
				)
				(pin input line
					(at -7.62 3.81 0)
					(length 2.54)
					(name "IO1"
						(effects
							(font
								(size 1.27 1.27)
							)
						)
					)
					(number "1"
						(effects
							(font
								(size 1.27 1.27)
							)
						)
					)
				)
				(pin input line
					(at 7.62 3.81 180)
					(length 2.54)
					(name "IO2"
						(effects
							(font
								(size 1.27 1.27)
							)
						)
					)
					(number "2"
						(effects
							(font
								(size 1.27 1.27)
							)
						)
					)
				)
				(pin power_in line
					(at 0 -7.62 90)
					(length 2.54)
					(name "GND"
						(effects
							(font
								(size 1.27 1.27)
							)
						)
					)
					(number "3"
						(effects
							(font
								(size 1.27 1.27)
							)
						)
					)
				)
			)
		)
		(symbol "power:+3.3V"
			(power)
			(pin_numbers hide)
			(pin_names
				(offset 0) hide)
			(exclude_from_sim no)
			(in_bom yes)
			(on_board yes)
			(property "Reference" "#PWR"
				(at 0 -3.81 0)
				(effects
					(font
						(size 1.27 1.27)
					)
					(hide yes)
				)
			)
			(property "Value" "+3.3V"
				(at 0 3.556 0)
				(effects
					(font
						(size 1.27 1.27)
					)
				)
			)
			(property "Footprint" ""
				(at 0 0 0)
				(effects
					(font
						(size 1.27 1.27)
					)
					(hide yes)
				)
			)
			(property "Datasheet" ""
				(at 0 0 0)
				(effects
					(font
						(size 1.27 1.27)
					)
					(hide yes)
				)
			)
			(property "Description" "Power symbol creates a global label with name \"+3.3V\""
				(at 0 0 0)
				(effects
					(font
						(size 1.27 1.27)
					)
					(hide yes)
				)
			)
			(property "ki_keywords" "global power"
				(at 0 0 0)
				(effects
					(font
						(size 1.27 1.27)
					)
					(hide yes)
				)
			)
			(symbol "+3.3V_0_1"
				(polyline
					(pts
						(xy -0.762 1.27) (xy 0 2.54)
					)
					(stroke
						(width 0)
						(type default)
					)
					(fill
						(type none)
					)
				)
				(polyline
					(pts
						(xy 0 0) (xy 0 2.54)
					)
					(stroke
						(width 0)
						(type default)
					)
					(fill
						(type none)
					)
				)
				(polyline
					(pts
						(xy 0 2.54) (xy 0.762 1.27)
					)
					(stroke
						(width 0)
						(type default)
					)
					(fill
						(type none)
					)
				)
			)
			(symbol "+3.3V_1_1"
				(pin power_in line
					(at 0 0 90)
					(length 0)
					(name "~"
						(effects
							(font
								(size 1.27 1.27)
							)
						)
					)
					(number "1"
						(effects
							(font
								(size 1.27 1.27)
							)
						)
					)
				)
			)
		)
		(symbol "power:GND"
			(power)
			(pin_numbers hide)
			(pin_names
				(offset 0) hide)
			(exclude_from_sim no)
			(in_bom yes)
			(on_board yes)
			(property "Reference" "#PWR"
				(at 0 -6.35 0)
				(effects
					(font
						(size 1.27 1.27)
					)
					(hide yes)
				)
			)
			(property "Value" "GND"
				(at 0 -3.81 0)
				(effects
					(font
						(size 1.27 1.27)
					)
				)
			)
			(property "Footprint" ""
				(at 0 0 0)
				(effects
					(font
						(size 1.27 1.27)
					)
					(hide yes)
				)
			)
			(property "Datasheet" ""
				(at 0 0 0)
				(effects
					(font
						(size 1.27 1.27)
					)
					(hide yes)
				)
			)
			(property "Description" "Power symbol creates a global label with name \"GND\" , ground"
				(at 0 0 0)
				(effects
					(font
						(size 1.27 1.27)
					)
					(hide yes)
				)
			)
			(property "ki_keywords" "global power"
				(at 0 0 0)
				(effects
					(font
						(size 1.27 1.27)
					)
					(hide yes)
				)
			)
			(symbol "GND_0_1"
				(polyline
					(pts
						(xy 0 0) (xy 0 -1.27) (xy 1.27 -1.27) (xy 0 -2.54) (xy -1.27 -1.27) (xy 0 -1.27)
					)
					(stroke
						(width 0)
						(type default)
					)
					(fill
						(type none)
					)
				)
			)
			(symbol "GND_1_1"
				(pin power_in line
					(at 0 0 270)
					(length 0)
					(name "~"
						(effects
							(font
								(size 1.27 1.27)
							)
						)
					)
					(number "1"
						(effects
							(font
								(size 1.27 1.27)
							)
						)
					)
				)
			)
		)
		(symbol "power:PWR_FLAG"
			(power)
			(pin_numbers hide)
			(pin_names
				(offset 0) hide)
			(exclude_from_sim no)
			(in_bom yes)
			(on_board yes)
			(property "Reference" "#FLG"
				(at 0 1.905 0)
				(effects
					(font
						(size 1.27 1.27)
					)
					(hide yes)
				)
			)
			(property "Value" "PWR_FLAG"
				(at 0 3.81 0)
				(effects
					(font
						(size 1.27 1.27)
					)
				)
			)
			(property "Footprint" ""
				(at 0 0 0)
				(effects
					(font
						(size 1.27 1.27)
					)
					(hide yes)
				)
			)
			(property "Datasheet" "~"
				(at 0 0 0)
				(effects
					(font
						(size 1.27 1.27)
					)
					(hide yes)
				)
			)
			(property "Description" "Special symbol for telling ERC where power comes from"
				(at 0 0 0)
				(effects
					(font
						(size 1.27 1.27)
					)
					(hide yes)
				)
			)
			(property "ki_keywords" "flag power"
				(at 0 0 0)
				(effects
					(font
						(size 1.27 1.27)
					)
					(hide yes)
				)
			)
			(symbol "PWR_FLAG_0_0"
				(pin power_out line
					(at 0 0 90)
					(length 0)
					(name "~"
						(effects
							(font
								(size 1.27 1.27)
							)
						)
					)
					(number "1"
						(effects
							(font
								(size 1.27 1.27)
							)
						)
					)
				)
			)
			(symbol "PWR_FLAG_0_1"
				(polyline
					(pts
						(xy 0 0) (xy 0 1.27) (xy -1.016 1.905) (xy 0 2.54) (xy 1.016 1.905) (xy 0 1.27)
					)
					(stroke
						(width 0)
						(type default)
					)
					(fill
						(type none)
					)
				)
			)
		)
	)
	(junction
		(at 66.04 60.96)
		(diameter 0)
		(color 0 0 0 0)
		(uuid "0000413b-5ca3-46f9-b076-00bb9f8d0f54")
	)
	(junction
		(at 53.34 114.3)
		(diameter 0)
		(color 0 0 0 0)
		(uuid "14c11d14-4a3e-40b4-be04-c65e1114ca43")
	)
	(junction
		(at 156.21 36.83)
		(diameter 0)
		(color 0 0 0 0)
		(uuid "1f84595b-6b50-4df3-af81-d3e04562e612")
	)
	(junction
		(at 53.34 121.92)
		(diameter 0)
		(color 0 0 0 0)
		(uuid "30ade601-8aff-4f16-8eb3-2e9671d2e813")
	)
	(junction
		(at 194.31 36.83)
		(diameter 0)
		(color 0 0 0 0)
		(uuid "72384aa5-b228-4363-b189-461f47a745d0")
	)
	(junction
		(at 162.56 36.83)
		(diameter 0)
		(color 0 0 0 0)
		(uuid "97b1af8b-ed28-4f63-a425-aa0dcefd1b07")
	)
	(junction
		(at 137.16 36.83)
		(diameter 0)
		(color 0 0 0 0)
		(uuid "aa1bf06e-8447-4a2c-bee7-2b646b84af33")
	)
	(junction
		(at 50.8 58.42)
		(diameter 0)
		(color 0 0 0 0)
		(uuid "ee033268-8b62-4fb4-bf45-9d43d3d59e09")
	)
	(junction
		(at 139.7 107.95)
		(diameter 0)
		(color 0 0 0 0)
		(uuid "f3cb0593-36cb-4e39-8aa9-eb397d0cdf2e")
	)
	(junction
		(at 194.31 88.9)
		(diameter 0)
		(color 0 0 0 0)
		(uuid "f5424844-1d74-4299-a8d9-3c5a070b552c")
	)
	(junction
		(at 162.56 86.36)
		(diameter 0)
		(color 0 0 0 0)
		(uuid "f6e62f75-9a82-45fc-b5e4-b2877a1430ef")
	)
	(junction
		(at 123.19 36.83)
		(diameter 0)
		(color 0 0 0 0)
		(uuid "f7f78006-043c-4747-b9c6-a364ab0124af")
	)
	(junction
		(at 177.8 52.07)
		(diameter 0)
		(color 0 0 0 0)
		(uuid "f9078ec5-6c76-4312-a332-1128ed01d000")
	)
	(junction
		(at 177.8 48.26)
		(diameter 0)
		(color 0 0 0 0)
		(uuid "fd9ccf93-4cef-42c2-8169-e32f473bbfa4")
	)
	(wire
		(pts
			(xy 137.16 48.26) (xy 137.16 52.07)
		)
		(stroke
			(width 0)
			(type default)
		)
		(uuid "04899459-4e8e-467a-aca2-652306391660")
	)
	(wire
		(pts
			(xy 201.93 36.83) (xy 194.31 36.83)
		)
		(stroke
			(width 0)
			(type default)
		)
		(uuid "0529259e-6987-4cd0-961c-79deb985f999")
	)
	(wire
		(pts
			(xy 53.34 121.92) (xy 53.34 127)
		)
		(stroke
			(width 0)
			(type default)
		)
		(uuid "070e4118-0dea-4e5a-a871-8801830abbbc")
	)
	(wire
		(pts
			(xy 139.7 107.95) (xy 133.35 107.95)
		)
		(stroke
			(width 0)
			(type default)
		)
		(uuid "0746d5bd-eea3-4f49-b0fd-3e38b87962fd")
	)
	(wire
		(pts
			(xy 53.34 121.92) (xy 55.88 121.92)
		)
		(stroke
			(width 0)
			(type default)
		)
		(uuid "080c7c1f-cba4-46da-8d4b-f7227480e67f")
	)
	(wire
		(pts
			(xy 162.56 52.07) (xy 177.8 52.07)
		)
		(stroke
			(width 0)
			(type default)
		)
		(uuid "0ad77b15-854b-452c-a101-f2ed19cca803")
	)
	(wire
		(pts
			(xy 194.31 101.6) (xy 194.31 99.06)
		)
		(stroke
			(width 0)
			(type default)
		)
		(uuid "0b2dd2a0-5914-4989-b40c-f863b28408f5")
	)
	(wire
		(pts
			(xy 187.96 105.41) (xy 194.31 105.41)
		)
		(stroke
			(width 0)
			(type default)
		)
		(uuid "0d5bbcae-81c6-4f96-b971-a2ed111a9da6")
	)
	(wire
		(pts
			(xy 54.61 127) (xy 53.34 127)
		)
		(stroke
			(width 0)
			(type default)
		)
		(uuid "131089b4-65ea-4c86-94c9-ec086a4ec252")
	)
	(wire
		(pts
			(xy 123.19 48.26) (xy 123.19 52.07)
		)
		(stroke
			(width 0)
			(type default)
		)
		(uuid "1c05f0ac-35da-49df-bdec-d4cad246cd49")
	)
	(wire
		(pts
			(xy 46.99 53.34) (xy 57.15 53.34)
		)
		(stroke
			(width 0)
			(type default)
		)
		(uuid "2388edcc-1234-4a63-8dbf-902f77635160")
	)
	(wire
		(pts
			(xy 162.56 49.53) (xy 162.56 52.07)
		)
		(stroke
			(width 0)
			(type default)
		)
		(uuid "24acb09c-87fb-4e13-8315-4cd86d10f4ec")
	)
	(wire
		(pts
			(xy 137.16 40.64) (xy 137.16 36.83)
		)
		(stroke
			(width 0)
			(type default)
		)
		(uuid "26db4db1-cf52-428a-8fdf-b4e60c1fd607")
	)
	(wire
		(pts
			(xy 187.96 107.95) (xy 194.31 107.95)
		)
		(stroke
			(width 0)
			(type default)
		)
		(uuid "29cff965-c306-47ff-9d77-c3b6b1894832")
	)
	(wire
		(pts
			(xy 177.8 48.26) (xy 177.8 44.45)
		)
		(stroke
			(width 0)
			(type default)
		)
		(uuid "30e2f01f-96fc-443a-8873-21ea16d25863")
	)
	(wire
		(pts
			(xy 177.8 52.07) (xy 194.31 52.07)
		)
		(stroke
			(width 0)
			(type default)
		)
		(uuid "325a683a-6563-4bc4-8db4-7166c2b362c6")
	)
	(wire
		(pts
			(xy 151.13 36.83) (xy 156.21 36.83)
		)
		(stroke
			(width 0)
			(type default)
		)
		(uuid "3a7b7b47-2a9e-4192-ad90-2f081a121822")
	)
	(wire
		(pts
			(xy 63.5 127) (xy 63.5 105.41)
		)
		(stroke
			(width 0)
			(type default)
		)
		(uuid "449ebbcc-5162-4de5-9b32-ce1c160e25d5")
	)
	(wire
		(pts
			(xy 137.16 36.83) (xy 143.51 36.83)
		)
		(stroke
			(width 0)
			(type default)
		)
		(uuid "51aab9a4-657d-4e6d-9b6b-a2c5937e97cd")
	)
	(wire
		(pts
			(xy 259.08 50.8) (xy 259.08 53.34)
		)
		(stroke
			(width 0)
			(type default)
		)
		(uuid "5410a701-8bcf-4b34-9df6-45e1dfaa28ee")
	)
	(wire
		(pts
			(xy 46.99 60.96) (xy 66.04 60.96)
		)
		(stroke
			(width 0)
			(type default)
		)
		(uuid "56bbd132-20d1-4646-9ec5-ebd86845723e")
	)
	(wire
		(pts
			(xy 162.56 41.91) (xy 162.56 36.83)
		)
		(stroke
			(width 0)
			(type default)
		)
		(uuid "58e19020-5fde-4347-b876-7940a4d0be8e")
	)
	(wire
		(pts
			(xy 187.96 88.9) (xy 194.31 88.9)
		)
		(stroke
			(width 0)
			(type default)
		)
		(uuid "5c9ee31c-3c6c-4e8c-b1a3-9dfd5c8ffc4b")
	)
	(wire
		(pts
			(xy 156.21 96.52) (xy 156.21 95.25)
		)
		(stroke
			(width 0)
			(type default)
		)
		(uuid "6afb22d3-934d-4004-9c52-ea67a2b1d282")
	)
	(wire
		(pts
			(xy 66.04 60.96) (xy 72.39 60.96)
		)
		(stroke
			(width 0)
			(type default)
		)
		(uuid "6e09871f-e94e-42ad-8910-2047ff5f3516")
	)
	(wire
		(pts
			(xy 123.19 40.64) (xy 123.19 36.83)
		)
		(stroke
			(width 0)
			(type default)
		)
		(uuid "70cfc3de-356f-422f-8660-4b73d4360b3f")
	)
	(wire
		(pts
			(xy 156.21 36.83) (xy 162.56 36.83)
		)
		(stroke
			(width 0)
			(type default)
		)
		(uuid "71d32460-43ec-4190-a07d-8dae96a3840f")
	)
	(wire
		(pts
			(xy 53.34 114.3) (xy 55.88 114.3)
		)
		(stroke
			(width 0)
			(type default)
		)
		(uuid "75dea342-c608-4f9b-9bb9-4d6fd82acf65")
	)
	(wire
		(pts
			(xy 62.23 127) (xy 63.5 127)
		)
		(stroke
			(width 0)
			(type default)
		)
		(uuid "7db9ba20-c131-47ec-af2b-cdce3958e4c9")
	)
	(wire
		(pts
			(xy 194.31 91.44) (xy 194.31 88.9)
		)
		(stroke
			(width 0)
			(type default)
		)
		(uuid "7eb90f45-9f60-43a4-92cb-30ab5d16c52e")
	)
	(wire
		(pts
			(xy 167.64 105.41) (xy 133.35 105.41)
		)
		(stroke
			(width 0)
			(type default)
		)
		(uuid "8a43a549-7c53-4159-9079-e3706117cb9f")
	)
	(wire
		(pts
			(xy 63.5 105.41) (xy 49.53 105.41)
		)
		(stroke
			(width 0)
			(type default)
		)
		(uuid "8c6d7f58-aa74-48c7-9046-068192377d43")
	)
	(wire
		(pts
			(xy 156.21 88.9) (xy 156.21 86.36)
		)
		(stroke
			(width 0)
			(type default)
		)
		(uuid "914c154b-22c7-4632-aef5-da352a8c4ea5")
	)
	(wire
		(pts
			(xy 123.19 36.83) (xy 137.16 36.83)
		)
		(stroke
			(width 0)
			(type default)
		)
		(uuid "916f91ae-296e-4c56-8d59-c80e6932649c")
	)
	(wire
		(pts
			(xy 162.56 102.87) (xy 167.64 102.87)
		)
		(stroke
			(width 0)
			(type default)
		)
		(uuid "92b6eedb-2012-464a-9be7-3f03b0718720")
	)
	(wire
		(pts
			(xy 50.8 58.42) (xy 72.39 58.42)
		)
		(stroke
			(width 0)
			(type default)
		)
		(uuid "988816c1-1891-446a-9682-7211980a8bea")
	)
	(wire
		(pts
			(xy 50.8 71.12) (xy 50.8 58.42)
		)
		(stroke
			(width 0)
			(type default)
		)
		(uuid "a0e831e4-95fe-416a-b824-40a595146b57")
	)
	(wire
		(pts
			(xy 200.66 88.9) (xy 194.31 88.9)
		)
		(stroke
			(width 0)
			(type default)
		)
		(uuid "a3023d13-f28d-4180-bc0a-9106dabdd8b8")
	)
	(wire
		(pts
			(xy 194.31 52.07) (xy 194.31 49.53)
		)
		(stroke
			(width 0)
			(type default)
		)
		(uuid "a3dc1584-df31-4b2e-981f-94420c041cc8")
	)
	(wire
		(pts
			(xy 177.8 55.88) (xy 177.8 52.07)
		)
		(stroke
			(width 0)
			(type default)
		)
		(uuid "a559cf6c-d66f-4411-90fc-e155ca6cacea")
	)
	(wire
		(pts
			(xy 259.08 63.5) (xy 259.08 60.96)
		)
		(stroke
			(width 0)
			(type default)
		)
		(uuid "afc37b3a-37e3-49e2-95bf-a39e0958112e")
	)
	(wire
		(pts
			(xy 50.8 114.3) (xy 53.34 114.3)
		)
		(stroke
			(width 0)
			(type default)
		)
		(uuid "b0630942-30b2-4f5c-bda8-34935223205a")
	)
	(wire
		(pts
			(xy 100.33 36.83) (xy 109.22 36.83)
		)
		(stroke
			(width 0)
			(type default)
		)
		(uuid "b24471da-8d1a-4760-8d5a-9fecc7cb5897")
	)
	(wire
		(pts
			(xy 167.64 107.95) (xy 139.7 107.95)
		)
		(stroke
			(width 0)
			(type default)
		)
		(uuid "b26f05c6-45b4-4835-b8be-d2c660fd83ad")
	)
	(wire
		(pts
			(xy 214.63 66.04) (xy 210.82 66.04)
		)
		(stroke
			(width 0)
			(type default)
		)
		(uuid "b876f5bf-ac52-487e-8467-c3fea9a4dc29")
	)
	(wire
		(pts
			(xy 49.53 110.49) (xy 53.34 110.49)
		)
		(stroke
			(width 0)
			(type default)
		)
		(uuid "bd2ab89d-f0af-4cff-948a-811ca5cb1cd9")
	)
	(wire
		(pts
			(xy 46.99 55.88) (xy 57.15 55.88)
		)
		(stroke
			(width 0)
			(type default)
		)
		(uuid "c087cd17-e84d-4dad-8adb-26ce807c8b28")
	)
	(wire
		(pts
			(xy 214.63 63.5) (xy 205.74 63.5)
		)
		(stroke
			(width 0)
			(type default)
		)
		(uuid "c164bf37-216c-4a27-94dd-ecc390ca330b")
	)
	(wire
		(pts
			(xy 156.21 86.36) (xy 162.56 86.36)
		)
		(stroke
			(width 0)
			(type default)
		)
		(uuid "c1bd31e2-1ce3-49eb-9167-94e26eb8bc8d")
	)
	(wire
		(pts
			(xy 162.56 86.36) (xy 162.56 102.87)
		)
		(stroke
			(width 0)
			(type default)
		)
		(uuid "c23949b2-419b-4b01-9aa6-519bd8127198")
	)
	(wire
		(pts
			(xy 85.09 36.83) (xy 92.71 36.83)
		)
		(stroke
			(width 0)
			(type default)
		)
		(uuid "c4730cda-9085-485f-b7e8-2d2d35c0760d")
	)
	(wire
		(pts
			(xy 50.8 121.92) (xy 53.34 121.92)
		)
		(stroke
			(width 0)
			(type default)
		)
		(uuid "c6c94f26-39d2-4269-848c-f1ba0148172b")
	)
	(wire
		(pts
			(xy 194.31 36.83) (xy 185.42 36.83)
		)
		(stroke
			(width 0)
			(type default)
		)
		(uuid "caec441f-bc23-4306-8487-c6369049c5de")
	)
	(wire
		(pts
			(xy 53.34 114.3) (xy 53.34 110.49)
		)
		(stroke
			(width 0)
			(type default)
		)
		(uuid "d1e4fc3f-abe5-492d-8acd-5a0650074dc3")
	)
	(wire
		(pts
			(xy 187.96 88.9) (xy 187.96 102.87)
		)
		(stroke
			(width 0)
			(type default)
		)
		(uuid "d2961704-818b-4742-ac6b-b9fe177f4d94")
	)
	(wire
		(pts
			(xy 259.08 40.64) (xy 259.08 43.18)
		)
		(stroke
			(width 0)
			(type default)
		)
		(uuid "d84e82b2-386e-491d-876d-e225dc29581d")
	)
	(wire
		(pts
			(xy 194.31 41.91) (xy 194.31 36.83)
		)
		(stroke
			(width 0)
			(type default)
		)
		(uuid "d8ecb5e9-f77b-408f-a286-6cad6e076dfe")
	)
	(wire
		(pts
			(xy 187.96 114.3) (xy 187.96 110.49)
		)
		(stroke
			(width 0)
			(type default)
		)
		(uuid "dadde757-61b8-4fa0-9cab-09886b110373")
	)
	(wire
		(pts
			(xy 139.7 88.9) (xy 139.7 91.44)
		)
		(stroke
			(width 0)
			(type default)
		)
		(uuid "e4b7b7b4-e125-4918-92b6-20665a764878")
	)
	(wire
		(pts
			(xy 165.1 110.49) (xy 167.64 110.49)
		)
		(stroke
			(width 0)
			(type default)
		)
		(uuid "e75d53ed-a996-44a4-b2c3-579587bf5f99")
	)
	(wire
		(pts
			(xy 116.84 36.83) (xy 123.19 36.83)
		)
		(stroke
			(width 0)
			(type default)
		)
		(uuid "e7b42e4f-4630-441d-b172-98d978214072")
	)
	(wire
		(pts
			(xy 46.99 58.42) (xy 50.8 58.42)
		)
		(stroke
			(width 0)
			(type default)
		)
		(uuid "eb9ce47e-ac98-432c-a190-6044d0bab7bd")
	)
	(wire
		(pts
			(xy 162.56 36.83) (xy 170.18 36.83)
		)
		(stroke
			(width 0)
			(type default)
		)
		(uuid "edb3ae51-3e8b-41cd-8ee5-db3a748b710e")
	)
	(wire
		(pts
			(xy 165.1 111.76) (xy 165.1 110.49)
		)
		(stroke
			(width 0)
			(type default)
		)
		(uuid "eed8973a-c04c-4736-84de-08f6d07365e1")
	)
	(wire
		(pts
			(xy 177.8 52.07) (xy 177.8 48.26)
		)
		(stroke
			(width 0)
			(type default)
		)
		(uuid "f84da9bd-ed02-44f6-9c29-05fe1fca7752")
	)
	(wire
		(pts
			(xy 66.04 60.96) (xy 66.04 71.12)
		)
		(stroke
			(width 0)
			(type default)
		)
		(uuid "f9a0ae9c-4b0b-4d0c-9dee-06b0aa59e42e")
	)
	(wire
		(pts
			(xy 139.7 96.52) (xy 139.7 107.95)
		)
		(stroke
			(width 0)
			(type default)
		)
		(uuid "fbfbca93-c777-4f15-aec6-a73a29c8a830")
	)
	(text "5V power feed for the bus side of the CAN bus tranceiver"
		(exclude_from_sim no)
		(at 120.65 20.32 0)
		(effects
			(font
				(size 1.27 1.27)
			)
			(justify left bottom)
		)
		(uuid "13f97320-83d6-4461-b67a-c35bdaa69c24")
	)
	(text "NMEA 2000"
		(exclude_from_sim no)
		(at 35.56 52.07 0)
		(effects
			(font
				(size 1.27 1.27)
			)
			(justify right bottom)
		)
		(uuid "39d51a06-2aa4-439d-998b-c0b9bdfac39f")
	)
	(text "WIRE-LINK from CAN12V_Prot to Vin_Prot"
		(exclude_from_sim no)
		(at 194.31 72.39 0)
		(effects
			(font
				(size 1.27 1.27)
			)
			(justify left bottom)
		)
		(uuid "5471749e-052f-4641-9b41-bfa42d39185a")
	)
	(text "Input voltage up to 35V.\nOutput current at least 100mA."
		(exclude_from_sim no)
		(at 195.58 30.48 0)
		(effects
			(font
				(size 1.27 1.27)
			)
			(justify left bottom)
		)
		(uuid "5e0cb0b2-1007-4c90-8834-5d4945a1d4c3")
	)
	(text "Optional termination\nresistance for the bus"
		(exclude_from_sim no)
		(at 25.4 125.73 0)
		(effects
			(font
				(size 1.27 1.27)
			)
			(justify left bottom)
		)
		(uuid "a56526e0-5bce-4da3-bb02-fb25f448a887")
	)
	(text "CAN interface\npower LED"
		(exclude_from_sim no)
		(at 261.366 32.766 0)
		(effects
			(font
				(size 1.27 1.27)
			)
		)
		(uuid "b2a8256f-09bf-43e9-a426-ddfb63005d83")
	)
	(label "CAN_GND"
		(at 123.19 52.07 270)
		(fields_autoplaced yes)
		(effects
			(font
				(size 1.27 1.27)
			)
			(justify right bottom)
		)
		(uuid "00f4d12d-73ef-4f23-a936-b5a38c3f4bfd")
	)
	(label "CAN_GND"
		(at 177.8 55.88 270)
		(fields_autoplaced yes)
		(effects
			(font
				(size 1.27 1.27)
			)
			(justify right bottom)
		)
		(uuid "036b5f5c-08ff-4702-91d1-028d40239ab3")
	)
	(label "CAN_GND"
		(at 259.08 63.5 270)
		(fields_autoplaced yes)
		(effects
			(font
				(size 1.27 1.27)
			)
			(justify right bottom)
		)
		(uuid "0e398bdb-0b5a-4c7e-bb66-0f94159840df")
	)
	(label "CAN_GND"
		(at 194.31 101.6 0)
		(fields_autoplaced yes)
		(effects
			(font
				(size 1.27 1.27)
			)
			(justify left bottom)
		)
		(uuid "18dcb66a-1dd4-45ac-a0bc-fc637ad179d7")
	)
	(label "CAN_L"
		(at 49.53 110.49 180)
		(fields_autoplaced yes)
		(effects
			(font
				(size 1.27 1.27)
			)
			(justify right bottom)
		)
		(uuid "28fdf8aa-88b4-4be5-898a-a7eed1ba9524")
	)
	(label "CAN12V_prot"
		(at 205.74 63.5 180)
		(fields_autoplaced yes)
		(effects
			(font
				(size 1.27 1.27)
			)
			(justify right bottom)
		)
		(uuid "33b5f0de-fd8f-4659-bb72-4b56da686030")
	)
	(label "CAN_H"
		(at 194.31 105.41 0)
		(fields_autoplaced yes)
		(effects
			(font
				(size 1.27 1.27)
			)
			(justify left bottom)
		)
		(uuid "3caa69b7-c68f-491e-a92a-3859b958a906")
	)
	(label "CAN_H"
		(at 72.39 58.42 0)
		(fields_autoplaced yes)
		(effects
			(font
				(size 1.27 1.27)
			)
			(justify left bottom)
		)
		(uuid "3ead99eb-bca7-437f-a64a-e9cbab86e55d")
	)
	(label "CAN_12V"
		(at 85.09 36.83 180)
		(fields_autoplaced yes)
		(effects
			(font
				(size 1.27 1.27)
			)
			(justify right bottom)
		)
		(uuid "6eb998eb-a8f2-47f9-9761-e07a3a841f9e")
	)
	(label "CAN_GND"
		(at 57.15 53.34 0)
		(fields_autoplaced yes)
		(effects
			(font
				(size 1.27 1.27)
			)
			(justify left bottom)
		)
		(uuid "714ca26a-0dd5-4389-a1df-32cca6a2305c")
	)
	(label "CAN_5V"
		(at 259.08 40.64 0)
		(fields_autoplaced yes)
		(effects
			(font
				(size 1.27 1.27)
			)
			(justify left bottom)
		)
		(uuid "81c3eea5-0fc3-4168-9a8c-9ae4bc28d3b3")
	)
	(label "CAN12V_fused"
		(at 137.16 36.83 90)
		(fields_autoplaced yes)
		(effects
			(font
				(size 1.27 1.27)
			)
			(justify left bottom)
		)
		(uuid "9b6121e5-e6cd-4e99-84db-a3cfc2d605b9")
	)
	(label "CAN_L"
		(at 194.31 107.95 0)
		(fields_autoplaced yes)
		(effects
			(font
				(size 1.27 1.27)
			)
			(justify left bottom)
		)
		(uuid "a678eac1-92d1-4bc5-a422-3da654510e91")
	)
	(label "CAN_GND"
		(at 187.96 114.3 270)
		(fields_autoplaced yes)
		(effects
			(font
				(size 1.27 1.27)
			)
			(justify right bottom)
		)
		(uuid "a6d0b244-fb88-4878-8519-b3b29d30e616")
	)
	(label "CAN_GND"
		(at 58.42 82.55 270)
		(fields_autoplaced yes)
		(effects
			(font
				(size 1.27 1.27)
			)
			(justify right bottom)
		)
		(uuid "a7a74426-f451-43b4-a37d-37c0801c65db")
	)
	(label "CAN_H"
		(at 49.53 105.41 180)
		(fields_autoplaced yes)
		(effects
			(font
				(size 1.27 1.27)
			)
			(justify right bottom)
		)
		(uuid "b0a9c54b-b0a8-4aab-8e34-d35b8dc0dc4e")
	)
	(label "CAN_GND"
		(at 137.16 52.07 270)
		(fields_autoplaced yes)
		(effects
			(font
				(size 1.27 1.27)
			)
			(justify right bottom)
		)
		(uuid "b59b0a02-eff4-4f16-8da1-b0302829c089")
	)
	(label "CAN_L"
		(at 72.39 60.96 0)
		(fields_autoplaced yes)
		(effects
			(font
				(size 1.27 1.27)
			)
			(justify left bottom)
		)
		(uuid "c35b0d88-c41e-4805-8712-6a88a7dc8fe6")
	)
	(label "CAN_12V"
		(at 57.15 55.88 0)
		(fields_autoplaced yes)
		(effects
			(font
				(size 1.27 1.27)
			)
			(justify left bottom)
		)
		(uuid "c86ce075-f568-4593-9041-50eca4cf088e")
	)
	(label "CAN_5V"
		(at 200.66 88.9 0)
		(fields_autoplaced yes)
		(effects
			(font
				(size 1.27 1.27)
			)
			(justify left bottom)
		)
		(uuid "e394b2cf-10a0-4df6-8a12-09a8cb583cb0")
	)
	(label "CAN_GND"
		(at 210.82 66.04 180)
		(fields_autoplaced yes)
		(effects
			(font
				(size 1.27 1.27)
			)
			(justify right bottom)
		)
		(uuid "e844697d-d210-435c-8a46-936ef2f8471d")
	)
	(label "CAN_5V"
		(at 201.93 36.83 0)
		(fields_autoplaced yes)
		(effects
			(font
				(size 1.27 1.27)
			)
			(justify left bottom)
		)
		(uuid "f0743452-dd42-496d-a243-1b979397281e")
	)
	(label "CAN12V_prot"
		(at 160.02 36.83 90)
		(fields_autoplaced yes)
		(effects
			(font
				(size 1.27 1.27)
			)
			(justify left bottom)
		)
		(uuid "fbcf0fbf-a72b-440f-a386-5cbf59a50354")
	)
	(hierarchical_label "CAN_TX"
		(shape input)
		(at 133.35 107.95 180)
		(fields_autoplaced yes)
		(effects
			(font
				(size 1.27 1.27)
			)
			(justify right)
		)
		(uuid "cf65578f-bda8-400b-a753-9e75dc928630")
	)
	(hierarchical_label "CAN_RX"
		(shape output)
		(at 133.35 105.41 180)
		(fields_autoplaced yes)
		(effects
			(font
				(size 1.27 1.27)
			)
			(justify right)
		)
		(uuid "fbb53e59-1c9e-418a-bb0a-33ff18a6f0aa")
	)
	(symbol
		(lib_id "Device:R")
		(at 50.8 118.11 180)
		(unit 1)
		(exclude_from_sim no)
		(in_bom yes)
		(on_board yes)
		(dnp no)
		(uuid "00000000-0000-0000-0000-00005c353bfc")
		(property "Reference" "R601"
			(at 49.022 119.2784 0)
			(effects
				(font
					(size 1.27 1.27)
				)
				(justify left)
			)
		)
		(property "Value" "240R"
			(at 49.022 116.967 0)
			(effects
				(font
					(size 1.27 1.27)
				)
				(justify left)
			)
		)
		(property "Footprint" "Resistor_SMD:R_0805_2012Metric"
			(at 52.578 118.11 90)
			(effects
				(font
					(size 1.27 1.27)
				)
				(hide yes)
			)
		)
		(property "Datasheet" "~"
			(at 50.8 118.11 0)
			(effects
				(font
					(size 1.27 1.27)
				)
				(hide yes)
			)
		)
		(property "Description" ""
			(at 50.8 118.11 0)
			(effects
				(font
					(size 1.27 1.27)
				)
				(hide yes)
			)
		)
		(property "Note" ""
			(at 50.8 118.11 0)
			(effects
				(font
					(size 1.27 1.27)
				)
				(hide yes)
			)
		)
		(property "Notes" ""
			(at 231.14 78.74 0)
			(effects
				(font
					(size 1.27 1.27)
				)
				(hide yes)
			)
		)
		(property "LCSC" "C17572"
			(at 50.8 118.11 0)
			(effects
				(font
					(size 1.27 1.27)
				)
				(hide yes)
			)
		)
		(property "JLCPCB_CORRECTION" ""
			(at 50.8 118.11 0)
			(effects
				(font
					(size 1.27 1.27)
				)
				(hide yes)
			)
		)
		(pin "1"
			(uuid "e1d2f19a-88cb-4a03-90b0-1e2c20b2b709")
		)
		(pin "2"
			(uuid "b40ba425-9738-4257-b638-ebc54fab9f84")
		)
		(instances
			(project "SH-ESP32"
				(path "/dff502f1-2fe5-4c09-a767-aabc78c2e052/00000000-0000-0000-0000-00005f733ba4"
					(reference "R601")
					(unit 1)
				)
			)
		)
	)
	(symbol
		(lib_id "power:GND")
		(at 165.1 111.76 0)
		(unit 1)
		(exclude_from_sim no)
		(in_bom yes)
		(on_board yes)
		(dnp no)
		(uuid "00000000-0000-0000-0000-00005f3a993e")
		(property "Reference" "#PWR0602"
			(at 165.1 118.11 0)
			(effects
				(font
					(size 1.27 1.27)
				)
				(hide yes)
			)
		)
		(property "Value" "GND"
			(at 165.227 116.1542 0)
			(effects
				(font
					(size 1.27 1.27)
				)
			)
		)
		(property "Footprint" ""
			(at 165.1 111.76 0)
			(effects
				(font
					(size 1.27 1.27)
				)
				(hide yes)
			)
		)
		(property "Datasheet" ""
			(at 165.1 111.76 0)
			(effects
				(font
					(size 1.27 1.27)
				)
				(hide yes)
			)
		)
		(property "Description" "Power symbol creates a global label with name \"GND\" , ground"
			(at 165.1 111.76 0)
			(effects
				(font
					(size 1.27 1.27)
				)
				(hide yes)
			)
		)
		(pin "1"
			(uuid "e9aeee9b-b797-463b-85c7-6c1364e6161d")
		)
		(instances
			(project "SH-ESP32"
				(path "/dff502f1-2fe5-4c09-a767-aabc78c2e052/00000000-0000-0000-0000-00005f733ba4"
					(reference "#PWR0602")
					(unit 1)
				)
			)
		)
	)
	(symbol
		(lib_id "Device:C")
		(at 156.21 92.71 0)
		(unit 1)
		(exclude_from_sim no)
		(in_bom yes)
		(on_board yes)
		(dnp no)
		(uuid "00000000-0000-0000-0000-00005f553562")
		(property "Reference" "C604"
			(at 148.59 91.44 0)
			(effects
				(font
					(size 1.27 1.27)
				)
				(justify left)
			)
		)
		(property "Value" "100nF"
			(at 147.32 93.98 0)
			(effects
				(font
					(size 1.27 1.27)
				)
				(justify left)
			)
		)
		(property "Footprint" "Capacitor_SMD:C_0402_1005Metric"
			(at 157.1752 96.52 0)
			(effects
				(font
					(size 1.27 1.27)
				)
				(hide yes)
			)
		)
		(property "Datasheet" "~"
			(at 156.21 92.71 0)
			(effects
				(font
					(size 1.27 1.27)
				)
				(hide yes)
			)
		)
		(property "Description" ""
			(at 156.21 92.71 0)
			(effects
				(font
					(size 1.27 1.27)
				)
				(hide yes)
			)
		)
		(property "LCSC" "C1525"
			(at 156.21 92.71 0)
			(effects
				(font
					(size 1.27 1.27)
				)
				(hide yes)
			)
		)
		(property "JLCPCB_CORRECTION" ""
			(at 156.21 92.71 0)
			(effects
				(font
					(size 1.27 1.27)
				)
				(hide yes)
			)
		)
		(pin "1"
			(uuid "34f7490a-f55b-4e20-8acf-1022ef68f4e4")
		)
		(pin "2"
			(uuid "9179873c-a076-4861-a9c3-ac3523e4fdfe")
		)
		(instances
			(project "SH-ESP32"
				(path "/dff502f1-2fe5-4c09-a767-aabc78c2e052/00000000-0000-0000-0000-00005f733ba4"
					(reference "C604")
					(unit 1)
				)
			)
		)
	)
	(symbol
		(lib_id "power:GND")
		(at 156.21 95.25 0)
		(unit 1)
		(exclude_from_sim no)
		(in_bom yes)
		(on_board yes)
		(dnp no)
		(uuid "00000000-0000-0000-0000-00005f553db4")
		(property "Reference" "#PWR0603"
			(at 156.21 101.6 0)
			(effects
				(font
					(size 1.27 1.27)
				)
				(hide yes)
			)
		)
		(property "Value" "GND"
			(at 156.337 99.6442 0)
			(effects
				(font
					(size 1.27 1.27)
				)
			)
		)
		(property "Footprint" ""
			(at 156.21 95.25 0)
			(effects
				(font
					(size 1.27 1.27)
				)
				(hide yes)
			)
		)
		(property "Datasheet" ""
			(at 156.21 95.25 0)
			(effects
				(font
					(size 1.27 1.27)
				)
				(hide yes)
			)
		)
		(property "Description" "Power symbol creates a global label with name \"GND\" , ground"
			(at 156.21 95.25 0)
			(effects
				(font
					(size 1.27 1.27)
				)
				(hide yes)
			)
		)
		(pin "1"
			(uuid "904dde77-38b3-4fe6-b154-0be0b26690aa")
		)
		(instances
			(project "SH-ESP32"
				(path "/dff502f1-2fe5-4c09-a767-aabc78c2e052/00000000-0000-0000-0000-00005f733ba4"
					(reference "#PWR0603")
					(unit 1)
				)
			)
		)
	)
	(symbol
		(lib_id "Device:C")
		(at 194.31 95.25 0)
		(unit 1)
		(exclude_from_sim no)
		(in_bom yes)
		(on_board yes)
		(dnp no)
		(uuid "00000000-0000-0000-0000-00005f55e792")
		(property "Reference" "C602"
			(at 197.231 94.0816 0)
			(effects
				(font
					(size 1.27 1.27)
				)
				(justify left)
			)
		)
		(property "Value" "100nF"
			(at 197.231 96.393 0)
			(effects
				(font
					(size 1.27 1.27)
				)
				(justify left)
			)
		)
		(property "Footprint" "Capacitor_SMD:C_0402_1005Metric"
			(at 195.2752 99.06 0)
			(effects
				(font
					(size 1.27 1.27)
				)
				(hide yes)
			)
		)
		(property "Datasheet" "~"
			(at 194.31 95.25 0)
			(effects
				(font
					(size 1.27 1.27)
				)
				(hide yes)
			)
		)
		(property "Description" ""
			(at 194.31 95.25 0)
			(effects
				(font
					(size 1.27 1.27)
				)
				(hide yes)
			)
		)
		(property "LCSC" "C1525"
			(at 194.31 95.25 0)
			(effects
				(font
					(size 1.27 1.27)
				)
				(hide yes)
			)
		)
		(property "JLCPCB_CORRECTION" ""
			(at 194.31 95.25 0)
			(effects
				(font
					(size 1.27 1.27)
				)
				(hide yes)
			)
		)
		(pin "1"
			(uuid "8f515a1c-d3a2-4dad-9461-d5ac01f2fc3b")
		)
		(pin "2"
			(uuid "cf67cdca-aed6-4c1e-9aaa-fb05b1089fa0")
		)
		(instances
			(project "SH-ESP32"
				(path "/dff502f1-2fe5-4c09-a767-aabc78c2e052/00000000-0000-0000-0000-00005f733ba4"
					(reference "C602")
					(unit 1)
				)
			)
		)
	)
	(symbol
		(lib_id "power:+3.3V")
		(at 162.56 86.36 0)
		(mirror y)
		(unit 1)
		(exclude_from_sim no)
		(in_bom yes)
		(on_board yes)
		(dnp no)
		(uuid "00000000-0000-0000-0000-00005f949c80")
		(property "Reference" "#PWR0103"
			(at 162.56 90.17 0)
			(effects
				(font
					(size 1.27 1.27)
				)
				(hide yes)
			)
		)
		(property "Value" "+3V3"
			(at 162.179 81.9658 0)
			(effects
				(font
					(size 1.27 1.27)
				)
			)
		)
		(property "Footprint" ""
			(at 162.56 86.36 0)
			(effects
				(font
					(size 1.27 1.27)
				)
				(hide yes)
			)
		)
		(property "Datasheet" ""
			(at 162.56 86.36 0)
			(effects
				(font
					(size 1.27 1.27)
				)
				(hide yes)
			)
		)
		(property "Description" "Power symbol creates a global label with name \"+3.3V\""
			(at 162.56 86.36 0)
			(effects
				(font
					(size 1.27 1.27)
				)
				(hide yes)
			)
		)
		(pin "1"
			(uuid "b2086365-1df0-4e00-b92e-55761e75989f")
		)
		(instances
			(project "SH-ESP32"
				(path "/dff502f1-2fe5-4c09-a767-aabc78c2e052/00000000-0000-0000-0000-00005f733ba4"
					(reference "#PWR0103")
					(unit 1)
				)
			)
		)
	)
	(symbol
		(lib_id "SH-ESP32:HT75xx-1-SOT23")
		(at 177.8 39.37 0)
		(unit 1)
		(exclude_from_sim no)
		(in_bom yes)
		(on_board yes)
		(dnp no)
		(uuid "00000000-0000-0000-0000-00005f94c95c")
		(property "Reference" "U603"
			(at 177.8 30.0482 0)
			(effects
				(font
					(size 1.27 1.27)
				)
			)
		)
		(property "Value" "H7550-H#"
			(at 177.8 32.3596 0)
			(effects
				(font
					(size 1.27 1.27)
				)
			)
		)
		(property "Footprint" "Package_TO_SOT_SMD:SOT-23-3"
			(at 177.8 31.115 0)
			(effects
				(font
					(size 1.27 1.27)
					(italic yes)
				)
				(hide yes)
			)
		)
		(property "Datasheet" "https://www.holtek.com/documents/10179/116711/HT75xx-1v250.pdf"
			(at 177.8 36.83 0)
			(effects
				(font
					(size 1.27 1.27)
				)
				(hide yes)
			)
		)
		(property "Description" "100mA Low Dropout Voltage Regulator, Fixed Output, SOT89"
			(at 177.8 39.37 0)
			(effects
				(font
					(size 1.27 1.27)
				)
				(hide yes)
			)
		)
		(property "LCSC" "C277875"
			(at 177.8 39.37 0)
			(effects
				(font
					(size 1.27 1.27)
				)
				(hide yes)
			)
		)
		(property "JLCPCB_CORRECTION" "0;0;180"
			(at 177.8 39.37 0)
			(effects
				(font
					(size 1.27 1.27)
				)
				(hide yes)
			)
		)
		(pin "1"
			(uuid "75845f94-0a1c-434b-b442-ed1626d027b4")
		)
		(pin "2"
			(uuid "ed132e08-4ccd-41fc-b0df-93fa46235d4d")
		)
		(pin "3"
			(uuid "ff95ea05-c901-44f0-b22d-26fb0cc376f4")
		)
		(instances
			(project "SH-ESP32"
				(path "/dff502f1-2fe5-4c09-a767-aabc78c2e052/00000000-0000-0000-0000-00005f733ba4"
					(reference "U603")
					(unit 1)
				)
			)
		)
	)
	(symbol
		(lib_id "Device:Polyfuse")
		(at 96.52 36.83 270)
		(unit 1)
		(exclude_from_sim no)
		(in_bom yes)
		(on_board yes)
		(dnp no)
		(uuid "00000000-0000-0000-0000-00005f94c963")
		(property "Reference" "F601"
			(at 96.52 31.115 90)
			(effects
				(font
					(size 1.27 1.27)
				)
			)
		)
		(property "Value" "mSMD050-60V"
			(at 96.52 33.4264 90)
			(effects
				(font
					(size 1.27 1.27)
				)
			)
		)
		(property "Footprint" "Fuse:Fuse_1812_4532Metric"
			(at 91.44 38.1 0)
			(effects
				(font
					(size 1.27 1.27)
				)
				(justify left)
				(hide yes)
			)
		)
		(property "Datasheet" "https://datasheet.lcsc.com/szlcsc/TECHFUSE-mSMD050-60V_C70113.pdf"
			(at 96.52 36.83 0)
			(effects
				(font
					(size 1.27 1.27)
				)
				(hide yes)
			)
		)
		(property "Description" ""
			(at 96.52 36.83 0)
			(effects
				(font
					(size 1.27 1.27)
				)
				(hide yes)
			)
		)
		(property "LCSC" "C70113"
			(at 96.52 36.83 0)
			(effects
				(font
					(size 1.27 1.27)
				)
				(hide yes)
			)
		)
		(property "JLCPCB_CORRECTION" ""
			(at 96.52 36.83 0)
			(effects
				(font
					(size 1.27 1.27)
				)
				(hide yes)
			)
		)
		(pin "1"
			(uuid "512d49ca-79dc-4e8f-bd6c-508c43a479e2")
		)
		(pin "2"
			(uuid "d59a8c9a-6251-4e08-82e0-bee4502fa872")
		)
		(instances
			(project "SH-ESP32"
				(path "/dff502f1-2fe5-4c09-a767-aabc78c2e052/00000000-0000-0000-0000-00005f733ba4"
					(reference "F601")
					(unit 1)
				)
			)
		)
	)
	(symbol
		(lib_id "Device:D_TVS")
		(at 137.16 44.45 270)
		(unit 1)
		(exclude_from_sim no)
		(in_bom yes)
		(on_board yes)
		(dnp no)
		(uuid "00000000-0000-0000-0000-00005f94c96a")
		(property "Reference" "D601"
			(at 139.1666 43.2816 90)
			(effects
				(font
					(size 1.27 1.27)
				)
				(justify left)
			)
		)
		(property "Value" "SMBJ33CA"
			(at 139.1666 45.593 90)
			(effects
				(font
					(size 1.27 1.27)
				)
				(justify left)
			)
		)
		(property "Footprint" "Diode_SMD:D_SMB"
			(at 137.16 44.45 0)
			(effects
				(font
					(size 1.27 1.27)
				)
				(hide yes)
			)
		)
		(property "Datasheet" "~"
			(at 137.16 44.45 0)
			(effects
				(font
					(size 1.27 1.27)
				)
				(hide yes)
			)
		)
		(property "Description" ""
			(at 137.16 44.45 0)
			(effects
				(font
					(size 1.27 1.27)
				)
				(hide yes)
			)
		)
		(property "LCSC" "C114000"
			(at 137.16 44.45 0)
			(effects
				(font
					(size 1.27 1.27)
				)
				(hide yes)
			)
		)
		(property "JLCPCB_CORRECTION" ""
			(at 137.16 44.45 0)
			(effects
				(font
					(size 1.27 1.27)
				)
				(hide yes)
			)
		)
		(pin "1"
			(uuid "dcbc8449-8f41-44bc-adf2-94135a0f1817")
		)
		(pin "2"
			(uuid "558e7804-a2de-4c20-8431-beb78e5c32a4")
		)
		(instances
			(project "SH-ESP32"
				(path "/dff502f1-2fe5-4c09-a767-aabc78c2e052/00000000-0000-0000-0000-00005f733ba4"
					(reference "D601")
					(unit 1)
				)
			)
		)
	)
	(symbol
		(lib_id "power:PWR_FLAG")
		(at 156.21 36.83 180)
		(unit 1)
		(exclude_from_sim no)
		(in_bom yes)
		(on_board yes)
		(dnp no)
		(uuid "00000000-0000-0000-0000-00005f94c980")
		(property "Reference" "#FLG0601"
			(at 156.21 38.735 0)
			(effects
				(font
					(size 1.27 1.27)
				)
				(hide yes)
			)
		)
		(property "Value" "PWR_FLAG"
			(at 156.21 41.2242 0)
			(effects
				(font
					(size 1.27 1.27)
				)
			)
		)
		(property "Footprint" ""
			(at 156.21 36.83 0)
			(effects
				(font
					(size 1.27 1.27)
				)
				(hide yes)
			)
		)
		(property "Datasheet" "~"
			(at 156.21 36.83 0)
			(effects
				(font
					(size 1.27 1.27)
				)
				(hide yes)
			)
		)
		(property "Description" "Special symbol for telling ERC where power comes from"
			(at 156.21 36.83 0)
			(effects
				(font
					(size 1.27 1.27)
				)
				(hide yes)
			)
		)
		(pin "1"
			(uuid "9c93020b-5b73-4315-b4c7-8391871c7bc1")
		)
		(instances
			(project "SH-ESP32"
				(path "/dff502f1-2fe5-4c09-a767-aabc78c2e052/00000000-0000-0000-0000-00005f733ba4"
					(reference "#FLG0601")
					(unit 1)
				)
			)
		)
	)
	(symbol
		(lib_id "power:PWR_FLAG")
		(at 177.8 48.26 270)
		(unit 1)
		(exclude_from_sim no)
		(in_bom yes)
		(on_board yes)
		(dnp no)
		(uuid "00000000-0000-0000-0000-00005f94c988")
		(property "Reference" "#FLG0602"
			(at 179.705 48.26 0)
			(effects
				(font
					(size 1.27 1.27)
				)
				(hide yes)
			)
		)
		(property "Value" "PWR_FLAG"
			(at 181.0512 48.26 90)
			(effects
				(font
					(size 1.27 1.27)
				)
				(justify left)
			)
		)
		(property "Footprint" ""
			(at 177.8 48.26 0)
			(effects
				(font
					(size 1.27 1.27)
				)
				(hide yes)
			)
		)
		(property "Datasheet" "~"
			(at 177.8 48.26 0)
			(effects
				(font
					(size 1.27 1.27)
				)
				(hide yes)
			)
		)
		(property "Description" "Special symbol for telling ERC where power comes from"
			(at 177.8 48.26 0)
			(effects
				(font
					(size 1.27 1.27)
				)
				(hide yes)
			)
		)
		(pin "1"
			(uuid "bc2130e9-7b1d-4bff-a54c-886f05910260")
		)
		(instances
			(project "SH-ESP32"
				(path "/dff502f1-2fe5-4c09-a767-aabc78c2e052/00000000-0000-0000-0000-00005f733ba4"
					(reference "#FLG0602")
					(unit 1)
				)
			)
		)
	)
	(symbol
		(lib_id "Device:C")
		(at 162.56 45.72 0)
		(unit 1)
		(exclude_from_sim no)
		(in_bom yes)
		(on_board yes)
		(dnp no)
		(uuid "00000000-0000-0000-0000-00005f94c994")
		(property "Reference" "C603"
			(at 165.481 44.5516 0)
			(effects
				(font
					(size 1.27 1.27)
				)
				(justify left)
			)
		)
		(property "Value" "10uF/50V"
			(at 165.481 46.863 0)
			(effects
				(font
					(size 1.27 1.27)
				)
				(justify left)
			)
		)
		(property "Footprint" "Capacitor_SMD:C_1206_3216Metric"
			(at 163.5252 49.53 0)
			(effects
				(font
					(size 1.27 1.27)
				)
				(hide yes)
			)
		)
		(property "Datasheet" "~"
			(at 162.56 45.72 0)
			(effects
				(font
					(size 1.27 1.27)
				)
				(hide yes)
			)
		)
		(property "Description" ""
			(at 162.56 45.72 0)
			(effects
				(font
					(size 1.27 1.27)
				)
				(hide yes)
			)
		)
		(property "LCSC" "C13585"
			(at 162.56 45.72 0)
			(effects
				(font
					(size 1.27 1.27)
				)
				(hide yes)
			)
		)
		(property "JLCPCB_CORRECTION" ""
			(at 162.56 45.72 0)
			(effects
				(font
					(size 1.27 1.27)
				)
				(hide yes)
			)
		)
		(pin "1"
			(uuid "fe6a2b32-40fb-4f02-8be9-349c08dd3277")
		)
		(pin "2"
			(uuid "f9577937-ea66-4d9f-848b-eb70e2f4ae1a")
		)
		(instances
			(project "SH-ESP32"
				(path "/dff502f1-2fe5-4c09-a767-aabc78c2e052/00000000-0000-0000-0000-00005f733ba4"
					(reference "C603")
					(unit 1)
				)
			)
		)
	)
	(symbol
		(lib_id "Device:C")
		(at 194.31 45.72 0)
		(unit 1)
		(exclude_from_sim no)
		(in_bom yes)
		(on_board yes)
		(dnp no)
		(uuid "00000000-0000-0000-0000-00005f94c99b")
		(property "Reference" "C605"
			(at 197.231 44.5516 0)
			(effects
				(font
					(size 1.27 1.27)
				)
				(justify left)
			)
		)
		(property "Value" "10uF/10V"
			(at 197.231 46.863 0)
			(effects
				(font
					(size 1.27 1.27)
				)
				(justify left)
			)
		)
		(property "Footprint" "Capacitor_SMD:C_0603_1608Metric"
			(at 195.2752 49.53 0)
			(effects
				(font
					(size 1.27 1.27)
				)
				(hide yes)
			)
		)
		(property "Datasheet" "~"
			(at 194.31 45.72 0)
			(effects
				(font
					(size 1.27 1.27)
				)
				(hide yes)
			)
		)
		(property "Description" ""
			(at 194.31 45.72 0)
			(effects
				(font
					(size 1.27 1.27)
				)
				(hide yes)
			)
		)
		(property "LCSC" "C19702"
			(at 194.31 45.72 0)
			(effects
				(font
					(size 1.27 1.27)
				)
				(hide yes)
			)
		)
		(property "JLCPCB_CORRECTION" ""
			(at 194.31 45.72 0)
			(effects
				(font
					(size 1.27 1.27)
				)
				(hide yes)
			)
		)
		(pin "1"
			(uuid "ec662c8c-8321-4e2d-94b1-517e95b720c1")
		)
		(pin "2"
			(uuid "06cae86e-ecb0-44a2-99c0-0f76000b90f0")
		)
		(instances
			(project "SH-ESP32"
				(path "/dff502f1-2fe5-4c09-a767-aabc78c2e052/00000000-0000-0000-0000-00005f733ba4"
					(reference "C605")
					(unit 1)
				)
			)
		)
	)
	(symbol
		(lib_id "Device:FerriteBead")
		(at 113.03 36.83 90)
		(mirror x)
		(unit 1)
		(exclude_from_sim no)
		(in_bom yes)
		(on_board yes)
		(dnp no)
		(uuid "00000000-0000-0000-0000-00005f94c9b0")
		(property "Reference" "FB601"
			(at 113.03 29.8704 90)
			(effects
				(font
					(size 1.27 1.27)
				)
			)
		)
		(property "Value" "GZ2012D601TF"
			(at 113.03 32.1818 90)
			(effects
				(font
					(size 1.27 1.27)
				)
			)
		)
		(property "Footprint" "Inductor_SMD:L_0805_2012Metric"
			(at 113.03 35.052 90)
			(effects
				(font
					(size 1.27 1.27)
				)
				(hide yes)
			)
		)
		(property "Datasheet" "~"
			(at 113.03 36.83 0)
			(effects
				(font
					(size 1.27 1.27)
				)
				(hide yes)
			)
		)
		(property "Description" ""
			(at 113.03 36.83 0)
			(effects
				(font
					(size 1.27 1.27)
				)
				(hide yes)
			)
		)
		(property "LCSC" "C1017"
			(at 113.03 36.83 90)
			(effects
				(font
					(size 1.27 1.27)
				)
				(hide yes)
			)
		)
		(property "JLCPCB_CORRECTION" ""
			(at 113.03 36.83 0)
			(effects
				(font
					(size 1.27 1.27)
				)
				(hide yes)
			)
		)
		(pin "1"
			(uuid "56109039-fe72-4e09-a08e-9bfedddf11f0")
		)
		(pin "2"
			(uuid "4bb3832f-49fb-495a-ab87-53a8e35ef1e8")
		)
		(instances
			(project "SH-ESP32"
				(path "/dff502f1-2fe5-4c09-a767-aabc78c2e052/00000000-0000-0000-0000-00005f733ba4"
					(reference "FB601")
					(unit 1)
				)
			)
		)
	)
	(symbol
		(lib_id "Connector_Generic:Conn_01x04")
		(at 41.91 55.88 0)
		(mirror y)
		(unit 1)
		(exclude_from_sim no)
		(in_bom yes)
		(on_board yes)
		(dnp no)
		(uuid "00000000-0000-0000-0000-00005f94cfa1")
		(property "Reference" "J601"
			(at 43.9928 47.8282 0)
			(effects
				(font
					(size 1.27 1.27)
				)
			)
		)
		(property "Value" "Conn_01x04"
			(at 43.9928 50.1396 0)
			(effects
				(font
					(size 1.27 1.27)
				)
			)
		)
		(property "Footprint" "Connector_Phoenix_MC:PhoenixContact_MCV_1,5_4-G-3.81_1x04_P3.81mm_Vertical"
			(at 41.91 55.88 0)
			(effects
				(font
					(size 1.27 1.27)
				)
				(hide yes)
			)
		)
		(property "Datasheet" "~"
			(at 41.91 55.88 0)
			(effects
				(font
					(size 1.27 1.27)
				)
				(hide yes)
			)
		)
		(property "Description" ""
			(at 41.91 55.88 0)
			(effects
				(font
					(size 1.27 1.27)
				)
				(hide yes)
			)
		)
		(property "LCSC" " C8410"
			(at 41.91 55.88 0)
			(effects
				(font
					(size 1.27 1.27)
				)
				(hide yes)
			)
		)
		(property "JLCPCB_CORRECTION" "5.715;0;180"
			(at 41.91 55.88 0)
			(effects
				(font
					(size 1.27 1.27)
				)
				(hide yes)
			)
		)
		(pin "1"
			(uuid "ac81a788-2658-4c17-b2ea-cc380f231319")
		)
		(pin "2"
			(uuid "e0bea6ee-d2ea-44a8-8d94-401e9731a77f")
		)
		(pin "3"
			(uuid "55c3efd6-8f59-4af0-ba38-25d9924d252a")
		)
		(pin "4"
			(uuid "b227cbde-9bd1-4962-b4f0-7d930b860690")
		)
		(instances
			(project "SH-ESP32"
				(path "/dff502f1-2fe5-4c09-a767-aabc78c2e052/00000000-0000-0000-0000-00005f733ba4"
					(reference "J601")
					(unit 1)
				)
			)
		)
	)
	(symbol
		(lib_id "Device:D_Schottky")
		(at 147.32 36.83 0)
		(mirror y)
		(unit 1)
		(exclude_from_sim no)
		(in_bom yes)
		(on_board yes)
		(dnp no)
		(uuid "00000000-0000-0000-0000-00005fb60f25")
		(property "Reference" "D602"
			(at 151.13 34.29 0)
			(effects
				(font
					(size 1.27 1.27)
				)
				(justify left)
			)
		)
		(property "Value" "B5819W"
			(at 154.94 31.75 0)
			(effects
				(font
					(size 1.27 1.27)
				)
				(justify left)
			)
		)
		(property "Footprint" "Diode_SMD:D_SOD-123"
			(at 147.32 36.83 0)
			(effects
				(font
					(size 1.27 1.27)
				)
				(hide yes)
			)
		)
		(property "Datasheet" "~"
			(at 147.32 36.83 0)
			(effects
				(font
					(size 1.27 1.27)
				)
				(hide yes)
			)
		)
		(property "Description" ""
			(at 147.32 36.83 0)
			(effects
				(font
					(size 1.27 1.27)
				)
				(hide yes)
			)
		)
		(property "Notes" ""
			(at 147.32 36.83 90)
			(effects
				(font
					(size 1.27 1.27)
				)
				(hide yes)
			)
		)
		(property "LCSC" "C8598"
			(at 147.32 36.83 0)
			(effects
				(font
					(size 1.27 1.27)
				)
				(hide yes)
			)
		)
		(property "JLCPCB_CORRECTION" ""
			(at 147.32 36.83 0)
			(effects
				(font
					(size 1.27 1.27)
				)
				(hide yes)
			)
		)
		(pin "1"
			(uuid "e941a8b3-84d8-4f37-a8f0-7594dfdce668")
		)
		(pin "2"
			(uuid "62ec8b0c-3e91-4081-a29c-4649befda821")
		)
		(instances
			(project "SH-ESP32"
				(path "/dff502f1-2fe5-4c09-a767-aabc78c2e052/00000000-0000-0000-0000-00005f733ba4"
					(reference "D602")
					(unit 1)
				)
			)
		)
	)
	(symbol
		(lib_id "Jumper:SolderJumper_2_Open")
		(at 58.42 127 0)
		(unit 1)
		(exclude_from_sim no)
		(in_bom yes)
		(on_board yes)
		(dnp no)
		(uuid "00000000-0000-0000-0000-00005fb71e26")
		(property "Reference" "JP601"
			(at 58.42 124.1298 0)
			(effects
				(font
					(size 1.27 1.27)
				)
			)
		)
		(property "Value" "SolderJumper_2_Open"
			(at 58.42 124.1044 0)
			(effects
				(font
					(size 1.27 1.27)
				)
				(hide yes)
			)
		)
		(property "Footprint" "SH-ESP32:SolderJumper-2_P1.3mm_Open_TrianglePad_Narrow"
			(at 58.42 127 0)
			(effects
				(font
					(size 1.27 1.27)
				)
				(hide yes)
			)
		)
		(property "Datasheet" "~"
			(at 58.42 127 0)
			(effects
				(font
					(size 1.27 1.27)
				)
				(hide yes)
			)
		)
		(property "Description" ""
			(at 58.42 127 0)
			(effects
				(font
					(size 1.27 1.27)
				)
				(hide yes)
			)
		)
		(property "JLCPCB_CORRECTION" ""
			(at 58.42 127 0)
			(effects
				(font
					(size 1.27 1.27)
				)
				(hide yes)
			)
		)
		(pin "1"
			(uuid "175adcd1-fdd9-44d7-acce-0fb9466cf415")
		)
		(pin "2"
			(uuid "2626c83f-9103-4336-bf91-cd1ff9cfbc20")
		)
		(instances
			(project "SH-ESP32"
				(path "/dff502f1-2fe5-4c09-a767-aabc78c2e052/00000000-0000-0000-0000-00005f733ba4"
					(reference "JP601")
					(unit 1)
				)
			)
		)
	)
	(symbol
		(lib_id "Device:C")
		(at 123.19 44.45 0)
		(unit 1)
		(exclude_from_sim no)
		(in_bom yes)
		(on_board yes)
		(dnp no)
		(uuid "00000000-0000-0000-0000-00005fbc67ee")
		(property "Reference" "C601"
			(at 126.111 43.2816 0)
			(effects
				(font
					(size 1.27 1.27)
				)
				(justify left)
			)
		)
		(property "Value" "10nF/50V"
			(at 126.111 45.593 0)
			(effects
				(font
					(size 1.27 1.27)
				)
				(justify left)
			)
		)
		(property "Footprint" "Capacitor_SMD:C_0402_1005Metric"
			(at 124.1552 48.26 0)
			(effects
				(font
					(size 1.27 1.27)
				)
				(hide yes)
			)
		)
		(property "Datasheet" "~"
			(at 123.19 44.45 0)
			(effects
				(font
					(size 1.27 1.27)
				)
				(hide yes)
			)
		)
		(property "Description" ""
			(at 123.19 44.45 0)
			(effects
				(font
					(size 1.27 1.27)
				)
				(hide yes)
			)
		)
		(property "LCSC" "C15195"
			(at 123.19 44.45 0)
			(effects
				(font
					(size 1.27 1.27)
				)
				(hide yes)
			)
		)
		(property "JLCPCB_CORRECTION" ""
			(at 123.19 44.45 0)
			(effects
				(font
					(size 1.27 1.27)
				)
				(hide yes)
			)
		)
		(pin "1"
			(uuid "46d9e01b-71b9-486c-9d63-a12463bd7121")
		)
		(pin "2"
			(uuid "84d49b97-86ee-471b-97d7-5f9d65adbb89")
		)
		(instances
			(project "SH-ESP32"
				(path "/dff502f1-2fe5-4c09-a767-aabc78c2e052/00000000-0000-0000-0000-00005f733ba4"
					(reference "C601")
					(unit 1)
				)
			)
		)
	)
	(symbol
		(lib_id "Device:R")
		(at 55.88 118.11 0)
		(mirror x)
		(unit 1)
		(exclude_from_sim no)
		(in_bom yes)
		(on_board yes)
		(dnp no)
		(uuid "00000000-0000-0000-0000-00005fe01f73")
		(property "Reference" "R602"
			(at 57.658 119.2784 0)
			(effects
				(font
					(size 1.27 1.27)
				)
				(justify left)
			)
		)
		(property "Value" "240R"
			(at 57.658 116.967 0)
			(effects
				(font
					(size 1.27 1.27)
				)
				(justify left)
			)
		)
		(property "Footprint" "Resistor_SMD:R_0805_2012Metric"
			(at 54.102 118.11 90)
			(effects
				(font
					(size 1.27 1.27)
				)
				(hide yes)
			)
		)
		(property "Datasheet" "~"
			(at 55.88 118.11 0)
			(effects
				(font
					(size 1.27 1.27)
				)
				(hide yes)
			)
		)
		(property "Description" ""
			(at 55.88 118.11 0)
			(effects
				(font
					(size 1.27 1.27)
				)
				(hide yes)
			)
		)
		(property "Note" ""
			(at 55.88 118.11 0)
			(effects
				(font
					(size 1.27 1.27)
				)
				(hide yes)
			)
		)
		(property "Notes" ""
			(at -124.46 78.74 0)
			(effects
				(font
					(size 1.27 1.27)
				)
				(hide yes)
			)
		)
		(property "LCSC" "C17572"
			(at 55.88 118.11 0)
			(effects
				(font
					(size 1.27 1.27)
				)
				(hide yes)
			)
		)
		(property "JLCPCB_CORRECTION" ""
			(at 55.88 118.11 0)
			(effects
				(font
					(size 1.27 1.27)
				)
				(hide yes)
			)
		)
		(pin "1"
			(uuid "a7ed6809-f4e3-4996-8250-b2b374b5d64f")
		)
		(pin "2"
			(uuid "7ee640f8-3934-4b10-9fe3-9c1c68ee265d")
		)
		(instances
			(project "SH-ESP32"
				(path "/dff502f1-2fe5-4c09-a767-aabc78c2e052/00000000-0000-0000-0000-00005f733ba4"
					(reference "R602")
					(unit 1)
				)
			)
		)
	)
	(symbol
		(lib_id "Connector_Generic:Conn_01x02")
		(at 219.71 66.04 0)
		(mirror x)
		(unit 1)
		(exclude_from_sim no)
		(in_bom yes)
		(on_board yes)
		(dnp no)
		(uuid "00000000-0000-0000-0000-0000611f3ee8")
		(property "Reference" "J501"
			(at 217.6272 57.785 0)
			(effects
				(font
					(size 1.27 1.27)
				)
			)
		)
		(property "Value" "Conn_01x02"
			(at 217.6272 60.0964 0)
			(effects
				(font
					(size 1.27 1.27)
				)
			)
		)
		(property "Footprint" "Connector_PinHeader_2.54mm:PinHeader_1x02_P2.54mm_Vertical"
			(at 219.71 66.04 0)
			(effects
				(font
					(size 1.27 1.27)
				)
				(hide yes)
			)
		)
		(property "Datasheet" "~"
			(at 219.71 66.04 0)
			(effects
				(font
					(size 1.27 1.27)
				)
				(hide yes)
			)
		)
		(property "Description" ""
			(at 219.71 66.04 0)
			(effects
				(font
					(size 1.27 1.27)
				)
				(hide yes)
			)
		)
		(property "LCSC" "C492401"
			(at 219.71 66.04 0)
			(effects
				(font
					(size 1.27 1.27)
				)
				(hide yes)
			)
		)
		(property "JLCPCB_CORRECTION" ""
			(at 219.71 66.04 0)
			(effects
				(font
					(size 1.27 1.27)
				)
				(hide yes)
			)
		)
		(pin "1"
			(uuid "7cb3b3ce-e7c6-463c-9ddb-273cb7514fde")
		)
		(pin "2"
			(uuid "5c0dea98-0e27-4bfe-80d9-a7ac6f1fd83f")
		)
		(instances
			(project "SH-ESP32"
				(path "/dff502f1-2fe5-4c09-a767-aabc78c2e052/00000000-0000-0000-0000-00005f733ba4"
					(reference "J501")
					(unit 1)
				)
			)
		)
	)
	(symbol
		(lib_id "SH-ESP32:TPD2E007")
		(at 58.42 74.93 0)
		(unit 1)
		(exclude_from_sim no)
		(in_bom yes)
		(on_board yes)
		(dnp no)
		(fields_autoplaced yes)
		(uuid "20427d1f-c4d7-4642-8cc0-dc6762e9ebe6")
		(property "Reference" "U204"
			(at 58.42 64.77 0)
			(effects
				(font
					(size 1.27 1.27)
				)
			)
		)
		(property "Value" "TPD2E007"
			(at 58.42 67.31 0)
			(effects
				(font
					(size 1.27 1.27)
				)
			)
		)
		(property "Footprint" "Package_TO_SOT_SMD:SOT-323_SC-70"
			(at 59.69 81.534 0)
			(effects
				(font
					(size 1.27 1.27)
				)
				(justify left)
				(hide yes)
			)
		)
		(property "Datasheet" ""
			(at 58.42 74.93 0)
			(effects
				(font
					(size 1.27 1.27)
				)
				(hide yes)
			)
		)
		(property "Description" ""
			(at 58.42 74.93 0)
			(effects
				(font
					(size 1.27 1.27)
				)
				(hide yes)
			)
		)
		(property "LCSC" "C3011199"
			(at 58.42 74.93 0)
			(effects
				(font
					(size 1.27 1.27)
				)
				(hide yes)
			)
		)
		(pin "2"
			(uuid "87f86b99-7fa5-4a1a-ba53-372cc14daf4c")
		)
		(pin "3"
			(uuid "7a7417d9-d9f0-4c11-a55a-943800c87c32")
		)
		(pin "1"
			(uuid "1da1ff09-190c-4458-af80-5ece5e64950d")
		)
		(instances
			(project ""
				(path "/dff502f1-2fe5-4c09-a767-aabc78c2e052/00000000-0000-0000-0000-00005f733ba4"
					(reference "U204")
					(unit 1)
				)
			)
		)
	)
	(symbol
		(lib_id "Device:R_Small")
		(at 139.7 93.98 0)
		(mirror y)
		(unit 1)
		(exclude_from_sim no)
		(in_bom yes)
		(on_board yes)
		(dnp no)
		(fields_autoplaced yes)
		(uuid "3f3590f2-1be3-45a4-853c-ea7e00174178")
		(property "Reference" "R213"
			(at 137.16 92.7099 0)
			(effects
				(font
					(size 1.27 1.27)
				)
				(justify left)
			)
		)
		(property "Value" "10k"
			(at 137.16 95.2499 0)
			(effects
				(font
					(size 1.27 1.27)
				)
				(justify left)
			)
		)
		(property "Footprint" "Resistor_SMD:R_0402_1005Metric"
			(at 139.7 93.98 0)
			(effects
				(font
					(size 1.27 1.27)
				)
				(hide yes)
			)
		)
		(property "Datasheet" "~"
			(at 139.7 93.98 0)
			(effects
				(font
					(size 1.27 1.27)
				)
				(hide yes)
			)
		)
		(property "Description" ""
			(at 139.7 93.98 0)
			(effects
				(font
					(size 1.27 1.27)
				)
				(hide yes)
			)
		)
		(property "LCSC" "C25744"
			(at 139.7 93.98 0)
			(effects
				(font
					(size 1.27 1.27)
				)
				(hide yes)
			)
		)
		(property "JLCPCB_CORRECTION" ""
			(at 139.7 93.98 0)
			(effects
				(font
					(size 1.27 1.27)
				)
				(hide yes)
			)
		)
		(pin "1"
			(uuid "7fa8a55a-7680-44d1-bc24-5ebfe786ec2b")
		)
		(pin "2"
			(uuid "0e5cf6e0-9018-4881-bf44-2f7e9724f36c")
		)
		(instances
			(project "SH-ESP32"
				(path "/dff502f1-2fe5-4c09-a767-aabc78c2e052/00000000-0000-0000-0000-00005f733ba4"
					(reference "R213")
					(unit 1)
				)
			)
		)
	)
	(symbol
		(lib_id "Interface_CAN_LIN:ISO1050DUB")
		(at 177.8 105.41 0)
		(unit 1)
		(exclude_from_sim no)
		(in_bom yes)
		(on_board yes)
		(dnp no)
		(fields_autoplaced yes)
		(uuid "9736eb1a-987a-4657-8e19-f67fff300f68")
		(property "Reference" "U203"
			(at 177.8 95.25 0)
			(effects
				(font
					(size 1.27 1.27)
				)
			)
		)
		(property "Value" "ISO1050DUB"
			(at 177.8 97.79 0)
			(effects
				(font
					(size 1.27 1.27)
				)
			)
		)
		(property "Footprint" "Package_SO:SOP-8_6.62x9.15mm_P2.54mm"
			(at 177.8 114.3 0)
			(effects
				(font
					(size 1.27 1.27)
					(italic yes)
				)
				(hide yes)
			)
		)
		(property "Datasheet" "http://www.ti.com/lit/ds/symlink/iso1050.pdf"
			(at 177.8 106.68 0)
			(effects
				(font
					(size 1.27 1.27)
				)
				(hide yes)
			)
		)
		(property "Description" "Isolated CAN Transceiver, SOP-8"
			(at 177.8 105.41 0)
			(effects
				(font
					(size 1.27 1.27)
				)
				(hide yes)
			)
		)
		(property "LCSC" "C16428"
			(at 177.8 105.41 0)
			(effects
				(font
					(size 1.27 1.27)
				)
				(hide yes)
			)
		)
		(property "JLCPCB_CORRECTION" "0;0;270"
			(at 177.8 105.41 0)
			(effects
				(font
					(size 1.27 1.27)
				)
				(hide yes)
			)
		)
		(pin "3"
			(uuid "0c5318ea-f01f-4322-8021-c0ff88737ff1")
		)
		(pin "2"
			(uuid "785873a8-71e1-4866-98c9-738ecb1bc7ef")
		)
		(pin "1"
			(uuid "7af302c1-6fca-401c-9565-a9d2c4a41523")
		)
		(pin "4"
			(uuid "cfe2ba24-87a1-42ec-a4bf-777374cd5c9a")
		)
		(pin "5"
			(uuid "0e2dd823-b341-41a7-9875-a1aa99d11142")
		)
		(pin "6"
			(uuid "14adb10b-d68b-469f-b260-6f32163b18d8")
		)
		(pin "7"
			(uuid "78f0e440-2caf-42af-bd44-8e6f3e586b94")
		)
		(pin "8"
			(uuid "e0015c8c-403d-47cf-8464-0ab8968a3673")
		)
		(instances
			(project ""
				(path "/dff502f1-2fe5-4c09-a767-aabc78c2e052/00000000-0000-0000-0000-00005f733ba4"
					(reference "U203")
					(unit 1)
				)
			)
		)
	)
	(symbol
		(lib_id "Device:LED")
		(at 259.08 57.15 90)
		(unit 1)
		(exclude_from_sim no)
		(in_bom yes)
		(on_board yes)
		(dnp no)
		(uuid "c7ededb7-856c-4005-96df-a3bb9a3854ab")
		(property "Reference" "D202"
			(at 262.0772 56.1594 90)
			(effects
				(font
					(size 1.27 1.27)
				)
				(justify right)
			)
		)
		(property "Value" "RED LED"
			(at 262.0772 58.4708 90)
			(effects
				(font
					(size 1.27 1.27)
				)
				(justify right)
			)
		)
		(property "Footprint" "LED_SMD:LED_0603_1608Metric"
			(at 259.08 57.15 0)
			(effects
				(font
					(size 1.27 1.27)
				)
				(hide yes)
			)
		)
		(property "Datasheet" "~"
			(at 259.08 57.15 0)
			(effects
				(font
					(size 1.27 1.27)
				)
				(hide yes)
			)
		)
		(property "Description" ""
			(at 259.08 57.15 0)
			(effects
				(font
					(size 1.27 1.27)
				)
				(hide yes)
			)
		)
		(property "LCSC" "C2286"
			(at 259.08 57.15 0)
			(effects
				(font
					(size 1.27 1.27)
				)
				(hide yes)
			)
		)
		(property "JLCPCB_CORRECTION" ""
			(at 259.08 57.15 0)
			(effects
				(font
					(size 1.27 1.27)
				)
				(hide yes)
			)
		)
		(pin "1"
			(uuid "6ffdb7bd-c059-40fd-aa9e-5c6ff9ba2444")
		)
		(pin "2"
			(uuid "5f3749b2-e16f-4718-88da-831efd3e17f4")
		)
		(instances
			(project "SH-ESP32"
				(path "/dff502f1-2fe5-4c09-a767-aabc78c2e052/00000000-0000-0000-0000-00005f733ba4"
					(reference "D202")
					(unit 1)
				)
			)
		)
	)
	(symbol
		(lib_id "power:+3.3V")
		(at 139.7 88.9 0)
		(mirror y)
		(unit 1)
		(exclude_from_sim no)
		(in_bom yes)
		(on_board yes)
		(dnp no)
		(uuid "f90dd64e-e035-4457-84f4-4f888110d1ab")
		(property "Reference" "#PWR0212"
			(at 139.7 92.71 0)
			(effects
				(font
					(size 1.27 1.27)
				)
				(hide yes)
			)
		)
		(property "Value" "+3V3"
			(at 139.319 84.5058 0)
			(effects
				(font
					(size 1.27 1.27)
				)
			)
		)
		(property "Footprint" ""
			(at 139.7 88.9 0)
			(effects
				(font
					(size 1.27 1.27)
				)
				(hide yes)
			)
		)
		(property "Datasheet" ""
			(at 139.7 88.9 0)
			(effects
				(font
					(size 1.27 1.27)
				)
				(hide yes)
			)
		)
		(property "Description" "Power symbol creates a global label with name \"+3.3V\""
			(at 139.7 88.9 0)
			(effects
				(font
					(size 1.27 1.27)
				)
				(hide yes)
			)
		)
		(pin "1"
			(uuid "b4a9260f-2432-4ff1-b6a0-42aca1d10fcf")
		)
		(instances
			(project "SH-ESP32"
				(path "/dff502f1-2fe5-4c09-a767-aabc78c2e052/00000000-0000-0000-0000-00005f733ba4"
					(reference "#PWR0212")
					(unit 1)
				)
			)
		)
	)
	(symbol
		(lib_id "Device:R")
		(at 259.08 46.99 0)
		(unit 1)
		(exclude_from_sim no)
		(in_bom yes)
		(on_board yes)
		(dnp no)
		(uuid "fe3fbdaf-42e7-4f2c-9e0b-1aacb0b6f86a")
		(property "Reference" "R214"
			(at 260.858 45.8216 0)
			(effects
				(font
					(size 1.27 1.27)
				)
				(justify left)
			)
		)
		(property "Value" "4.7k"
			(at 260.858 48.133 0)
			(effects
				(font
					(size 1.27 1.27)
				)
				(justify left)
			)
		)
		(property "Footprint" "Resistor_SMD:R_0402_1005Metric"
			(at 257.302 46.99 90)
			(effects
				(font
					(size 1.27 1.27)
				)
				(hide yes)
			)
		)
		(property "Datasheet" "~"
			(at 259.08 46.99 0)
			(effects
				(font
					(size 1.27 1.27)
				)
				(hide yes)
			)
		)
		(property "Description" ""
			(at 259.08 46.99 0)
			(effects
				(font
					(size 1.27 1.27)
				)
				(hide yes)
			)
		)
		(property "LCSC" "C25900"
			(at 259.08 46.99 0)
			(effects
				(font
					(size 1.27 1.27)
				)
				(hide yes)
			)
		)
		(property "JLCPCB_CORRECTION" ""
			(at 259.08 46.99 0)
			(effects
				(font
					(size 1.27 1.27)
				)
				(hide yes)
			)
		)
		(pin "1"
			(uuid "6ab32247-0345-482a-8a62-8efab07ce7ab")
		)
		(pin "2"
			(uuid "a7e45ed9-a2c2-44a6-b3f2-ab31c4065118")
		)
		(instances
			(project "SH-ESP32"
				(path "/dff502f1-2fe5-4c09-a767-aabc78c2e052/00000000-0000-0000-0000-00005f733ba4"
					(reference "R214")
					(unit 1)
				)
			)
		)
	)
)
