(kicad_sch (version 20230121) (generator eeschema)

  (uuid c589bac6-5bec-4103-bc09-0b92198e364e)

  (paper "A4")

  (lib_symbols
    (symbol "Connector:USB_C_Receptacle_USB2.0" (pin_names (offset 1.016)) (in_bom yes) (on_board yes)
      (property "Reference" "J" (at -10.16 19.05 0)
        (effects (font (size 1.27 1.27)) (justify left))
      )
      (property "Value" "USB_C_Receptacle_USB2.0" (at 19.05 19.05 0)
        (effects (font (size 1.27 1.27)) (justify right))
      )
      (property "Footprint" "" (at 3.81 0 0)
        (effects (font (size 1.27 1.27)) hide)
      )
      (property "Datasheet" "https://www.usb.org/sites/default/files/documents/usb_type-c.zip" (at 3.81 0 0)
        (effects (font (size 1.27 1.27)) hide)
      )
      (property "ki_keywords" "usb universal serial bus type-C USB2.0" (at 0 0 0)
        (effects (font (size 1.27 1.27)) hide)
      )
      (property "ki_description" "USB 2.0-only Type-C Receptacle connector" (at 0 0 0)
        (effects (font (size 1.27 1.27)) hide)
      )
      (property "ki_fp_filters" "USB*C*Receptacle*" (at 0 0 0)
        (effects (font (size 1.27 1.27)) hide)
      )
      (symbol "USB_C_Receptacle_USB2.0_0_0"
        (rectangle (start -0.254 -17.78) (end 0.254 -16.764)
          (stroke (width 0) (type default))
          (fill (type none))
        )
        (rectangle (start 10.16 -14.986) (end 9.144 -15.494)
          (stroke (width 0) (type default))
          (fill (type none))
        )
        (rectangle (start 10.16 -12.446) (end 9.144 -12.954)
          (stroke (width 0) (type default))
          (fill (type none))
        )
        (rectangle (start 10.16 -4.826) (end 9.144 -5.334)
          (stroke (width 0) (type default))
          (fill (type none))
        )
        (rectangle (start 10.16 -2.286) (end 9.144 -2.794)
          (stroke (width 0) (type default))
          (fill (type none))
        )
        (rectangle (start 10.16 0.254) (end 9.144 -0.254)
          (stroke (width 0) (type default))
          (fill (type none))
        )
        (rectangle (start 10.16 2.794) (end 9.144 2.286)
          (stroke (width 0) (type default))
          (fill (type none))
        )
        (rectangle (start 10.16 7.874) (end 9.144 7.366)
          (stroke (width 0) (type default))
          (fill (type none))
        )
        (rectangle (start 10.16 10.414) (end 9.144 9.906)
          (stroke (width 0) (type default))
          (fill (type none))
        )
        (rectangle (start 10.16 15.494) (end 9.144 14.986)
          (stroke (width 0) (type default))
          (fill (type none))
        )
      )
      (symbol "USB_C_Receptacle_USB2.0_0_1"
        (rectangle (start -10.16 17.78) (end 10.16 -17.78)
          (stroke (width 0.254) (type default))
          (fill (type background))
        )
        (arc (start -8.89 -3.81) (mid -6.985 -5.7067) (end -5.08 -3.81)
          (stroke (width 0.508) (type default))
          (fill (type none))
        )
        (arc (start -7.62 -3.81) (mid -6.985 -4.4423) (end -6.35 -3.81)
          (stroke (width 0.254) (type default))
          (fill (type none))
        )
        (arc (start -7.62 -3.81) (mid -6.985 -4.4423) (end -6.35 -3.81)
          (stroke (width 0.254) (type default))
          (fill (type outline))
        )
        (rectangle (start -7.62 -3.81) (end -6.35 3.81)
          (stroke (width 0.254) (type default))
          (fill (type outline))
        )
        (arc (start -6.35 3.81) (mid -6.985 4.4423) (end -7.62 3.81)
          (stroke (width 0.254) (type default))
          (fill (type none))
        )
        (arc (start -6.35 3.81) (mid -6.985 4.4423) (end -7.62 3.81)
          (stroke (width 0.254) (type default))
          (fill (type outline))
        )
        (arc (start -5.08 3.81) (mid -6.985 5.7067) (end -8.89 3.81)
          (stroke (width 0.508) (type default))
          (fill (type none))
        )
        (circle (center -2.54 1.143) (radius 0.635)
          (stroke (width 0.254) (type default))
          (fill (type outline))
        )
        (circle (center 0 -5.842) (radius 1.27)
          (stroke (width 0) (type default))
          (fill (type outline))
        )
        (polyline
          (pts
            (xy -8.89 -3.81)
            (xy -8.89 3.81)
          )
          (stroke (width 0.508) (type default))
          (fill (type none))
        )
        (polyline
          (pts
            (xy -5.08 3.81)
            (xy -5.08 -3.81)
          )
          (stroke (width 0.508) (type default))
          (fill (type none))
        )
        (polyline
          (pts
            (xy 0 -5.842)
            (xy 0 4.318)
          )
          (stroke (width 0.508) (type default))
          (fill (type none))
        )
        (polyline
          (pts
            (xy 0 -3.302)
            (xy -2.54 -0.762)
            (xy -2.54 0.508)
          )
          (stroke (width 0.508) (type default))
          (fill (type none))
        )
        (polyline
          (pts
            (xy 0 -2.032)
            (xy 2.54 0.508)
            (xy 2.54 1.778)
          )
          (stroke (width 0.508) (type default))
          (fill (type none))
        )
        (polyline
          (pts
            (xy -1.27 4.318)
            (xy 0 6.858)
            (xy 1.27 4.318)
            (xy -1.27 4.318)
          )
          (stroke (width 0.254) (type default))
          (fill (type outline))
        )
        (rectangle (start 1.905 1.778) (end 3.175 3.048)
          (stroke (width 0.254) (type default))
          (fill (type outline))
        )
      )
      (symbol "USB_C_Receptacle_USB2.0_1_1"
        (pin passive line (at 0 -22.86 90) (length 5.08)
          (name "GND" (effects (font (size 1.27 1.27))))
          (number "A1" (effects (font (size 1.27 1.27))))
        )
        (pin passive line (at 0 -22.86 90) (length 5.08) hide
          (name "GND" (effects (font (size 1.27 1.27))))
          (number "A12" (effects (font (size 1.27 1.27))))
        )
        (pin passive line (at 15.24 15.24 180) (length 5.08)
          (name "VBUS" (effects (font (size 1.27 1.27))))
          (number "A4" (effects (font (size 1.27 1.27))))
        )
        (pin bidirectional line (at 15.24 10.16 180) (length 5.08)
          (name "CC1" (effects (font (size 1.27 1.27))))
          (number "A5" (effects (font (size 1.27 1.27))))
        )
        (pin bidirectional line (at 15.24 -2.54 180) (length 5.08)
          (name "D+" (effects (font (size 1.27 1.27))))
          (number "A6" (effects (font (size 1.27 1.27))))
        )
        (pin bidirectional line (at 15.24 2.54 180) (length 5.08)
          (name "D-" (effects (font (size 1.27 1.27))))
          (number "A7" (effects (font (size 1.27 1.27))))
        )
        (pin bidirectional line (at 15.24 -12.7 180) (length 5.08)
          (name "SBU1" (effects (font (size 1.27 1.27))))
          (number "A8" (effects (font (size 1.27 1.27))))
        )
        (pin passive line (at 15.24 15.24 180) (length 5.08) hide
          (name "VBUS" (effects (font (size 1.27 1.27))))
          (number "A9" (effects (font (size 1.27 1.27))))
        )
        (pin passive line (at 0 -22.86 90) (length 5.08) hide
          (name "GND" (effects (font (size 1.27 1.27))))
          (number "B1" (effects (font (size 1.27 1.27))))
        )
        (pin passive line (at 0 -22.86 90) (length 5.08) hide
          (name "GND" (effects (font (size 1.27 1.27))))
          (number "B12" (effects (font (size 1.27 1.27))))
        )
        (pin passive line (at 15.24 15.24 180) (length 5.08) hide
          (name "VBUS" (effects (font (size 1.27 1.27))))
          (number "B4" (effects (font (size 1.27 1.27))))
        )
        (pin bidirectional line (at 15.24 7.62 180) (length 5.08)
          (name "CC2" (effects (font (size 1.27 1.27))))
          (number "B5" (effects (font (size 1.27 1.27))))
        )
        (pin bidirectional line (at 15.24 -5.08 180) (length 5.08)
          (name "D+" (effects (font (size 1.27 1.27))))
          (number "B6" (effects (font (size 1.27 1.27))))
        )
        (pin bidirectional line (at 15.24 0 180) (length 5.08)
          (name "D-" (effects (font (size 1.27 1.27))))
          (number "B7" (effects (font (size 1.27 1.27))))
        )
        (pin bidirectional line (at 15.24 -15.24 180) (length 5.08)
          (name "SBU2" (effects (font (size 1.27 1.27))))
          (number "B8" (effects (font (size 1.27 1.27))))
        )
        (pin passive line (at 15.24 15.24 180) (length 5.08) hide
          (name "VBUS" (effects (font (size 1.27 1.27))))
          (number "B9" (effects (font (size 1.27 1.27))))
        )
        (pin passive line (at -7.62 -22.86 90) (length 5.08)
          (name "SHIELD" (effects (font (size 1.27 1.27))))
          (number "S1" (effects (font (size 1.27 1.27))))
        )
      )
    )
    (symbol "Device:R_Small" (pin_numbers hide) (pin_names (offset 0.254) hide) (in_bom yes) (on_board yes)
      (property "Reference" "R" (at 0.762 0.508 0)
        (effects (font (size 1.27 1.27)) (justify left))
      )
      (property "Value" "R_Small" (at 0.762 -1.016 0)
        (effects (font (size 1.27 1.27)) (justify left))
      )
      (property "Footprint" "" (at 0 0 0)
        (effects (font (size 1.27 1.27)) hide)
      )
      (property "Datasheet" "~" (at 0 0 0)
        (effects (font (size 1.27 1.27)) hide)
      )
      (property "ki_keywords" "R resistor" (at 0 0 0)
        (effects (font (size 1.27 1.27)) hide)
      )
      (property "ki_description" "Resistor, small symbol" (at 0 0 0)
        (effects (font (size 1.27 1.27)) hide)
      )
      (property "ki_fp_filters" "R_*" (at 0 0 0)
        (effects (font (size 1.27 1.27)) hide)
      )
      (symbol "R_Small_0_1"
        (rectangle (start -0.762 1.778) (end 0.762 -1.778)
          (stroke (width 0.2032) (type default))
          (fill (type none))
        )
      )
      (symbol "R_Small_1_1"
        (pin passive line (at 0 2.54 270) (length 0.762)
          (name "~" (effects (font (size 1.27 1.27))))
          (number "1" (effects (font (size 1.27 1.27))))
        )
        (pin passive line (at 0 -2.54 90) (length 0.762)
          (name "~" (effects (font (size 1.27 1.27))))
          (number "2" (effects (font (size 1.27 1.27))))
        )
      )
    )
    (symbol "Power_Protection:TPD4E02B04DQA" (pin_names hide) (in_bom yes) (on_board yes)
      (property "Reference" "U" (at 7.62 3.81 0)
        (effects (font (size 1.27 1.27)) (justify left))
      )
      (property "Value" "TPD4E02B04DQA" (at 7.62 1.905 0)
        (effects (font (size 1.27 1.27)) (justify left))
      )
      (property "Footprint" "Package_SON:USON-10_2.5x1.0mm_P0.5mm" (at 7.62 0 0)
        (effects (font (size 1.27 1.27)) (justify left) hide)
      )
      (property "Datasheet" "http://www.ti.com/lit/ds/symlink/tpd4e02b04.pdf" (at 3.175 8.255 0)
        (effects (font (size 1.27 1.27)) hide)
      )
      (property "ki_keywords" "ESD protection USB HDMI" (at 0 0 0)
        (effects (font (size 1.27 1.27)) hide)
      )
      (property "ki_description" "4-Channel ESD Protection Diode for USB Type-C and HDMI 2.0, USON-10" (at 0 0 0)
        (effects (font (size 1.27 1.27)) hide)
      )
      (property "ki_fp_filters" "USON*2.5x1.0mm*P0.5mm*" (at 0 0 0)
        (effects (font (size 1.27 1.27)) hide)
      )
      (symbol "TPD4E02B04DQA_0_0"
        (pin passive line (at 0 -5.08 90) (length 2.54)
          (name "G" (effects (font (size 1.27 1.27))))
          (number "3" (effects (font (size 1.27 1.27))))
        )
      )
      (symbol "TPD4E02B04DQA_0_1"
        (rectangle (start -6.35 5.08) (end 6.35 -2.54)
          (stroke (width 0.254) (type default))
          (fill (type background))
        )
        (circle (center 0 -1.27) (radius 0.254)
          (stroke (width 0) (type default))
          (fill (type outline))
        )
        (polyline
          (pts
            (xy -2.54 5.08)
            (xy -2.54 -1.27)
          )
          (stroke (width 0) (type default))
          (fill (type none))
        )
        (polyline
          (pts
            (xy 0 -1.27)
            (xy 0 -2.54)
          )
          (stroke (width 0) (type default))
          (fill (type none))
        )
        (polyline
          (pts
            (xy 2.54 5.08)
            (xy 2.54 -1.27)
          )
          (stroke (width 0) (type default))
          (fill (type none))
        )
        (polyline
          (pts
            (xy -5.08 5.08)
            (xy -5.08 -1.27)
            (xy 5.08 -1.27)
            (xy 5.08 5.08)
          )
          (stroke (width 0) (type default))
          (fill (type none))
        )
        (polyline
          (pts
            (xy -4.445 0)
            (xy -5.715 0)
            (xy -5.08 1.27)
            (xy -4.445 0)
          )
          (stroke (width 0) (type default))
          (fill (type none))
        )
        (polyline
          (pts
            (xy -3.175 1.524)
            (xy -2.921 1.27)
            (xy -2.159 1.27)
            (xy -1.905 1.016)
          )
          (stroke (width 0) (type default))
          (fill (type none))
        )
        (polyline
          (pts
            (xy -2.54 1.27)
            (xy -1.905 0)
            (xy -3.175 0)
            (xy -2.54 1.27)
          )
          (stroke (width 0) (type default))
          (fill (type none))
        )
        (polyline
          (pts
            (xy 2.54 1.27)
            (xy 1.905 0)
            (xy 3.175 0)
            (xy 2.54 1.27)
          )
          (stroke (width 0) (type default))
          (fill (type none))
        )
        (polyline
          (pts
            (xy 5.08 1.27)
            (xy 4.445 0)
            (xy 5.715 0)
            (xy 5.08 1.27)
          )
          (stroke (width 0) (type default))
          (fill (type none))
        )
        (circle (center 2.54 -1.27) (radius 0.254)
          (stroke (width 0) (type default))
          (fill (type outline))
        )
      )
      (symbol "TPD4E02B04DQA_1_1"
        (circle (center -2.54 -1.27) (radius 0.254)
          (stroke (width 0) (type default))
          (fill (type outline))
        )
        (polyline
          (pts
            (xy -5.715 1.524)
            (xy -5.461 1.27)
            (xy -4.699 1.27)
            (xy -4.445 1.016)
          )
          (stroke (width 0) (type default))
          (fill (type none))
        )
        (polyline
          (pts
            (xy -5.08 1.27)
            (xy -5.715 2.54)
            (xy -4.445 2.54)
            (xy -5.08 1.27)
          )
          (stroke (width 0) (type default))
          (fill (type none))
        )
        (polyline
          (pts
            (xy -2.54 1.27)
            (xy -3.175 2.54)
            (xy -1.905 2.54)
            (xy -2.54 1.27)
          )
          (stroke (width 0) (type default))
          (fill (type none))
        )
        (polyline
          (pts
            (xy 1.905 1.524)
            (xy 2.159 1.27)
            (xy 2.921 1.27)
            (xy 3.175 1.016)
          )
          (stroke (width 0) (type default))
          (fill (type none))
        )
        (polyline
          (pts
            (xy 2.54 1.27)
            (xy 1.905 2.54)
            (xy 3.175 2.54)
            (xy 2.54 1.27)
          )
          (stroke (width 0) (type default))
          (fill (type none))
        )
        (polyline
          (pts
            (xy 4.445 1.524)
            (xy 4.699 1.27)
            (xy 5.461 1.27)
            (xy 5.715 1.016)
          )
          (stroke (width 0) (type default))
          (fill (type none))
        )
        (polyline
          (pts
            (xy 5.08 1.27)
            (xy 4.445 2.54)
            (xy 5.715 2.54)
            (xy 5.08 1.27)
          )
          (stroke (width 0) (type default))
          (fill (type none))
        )
        (pin passive line (at -5.08 7.62 270) (length 2.54)
          (name "IO1" (effects (font (size 1.27 1.27))))
          (number "1" (effects (font (size 1.27 1.27))))
        )
        (pin no_connect line (at -5.08 -2.54 90) (length 2.54) hide
          (name "NC" (effects (font (size 1.27 1.27))))
          (number "10" (effects (font (size 1.27 1.27))))
        )
        (pin passive line (at -2.54 7.62 270) (length 2.54)
          (name "IO2" (effects (font (size 1.27 1.27))))
          (number "2" (effects (font (size 1.27 1.27))))
        )
        (pin passive line (at 2.54 7.62 270) (length 2.54)
          (name "IO3" (effects (font (size 1.27 1.27))))
          (number "4" (effects (font (size 1.27 1.27))))
        )
        (pin passive line (at 5.08 7.62 270) (length 2.54)
          (name "IO4" (effects (font (size 1.27 1.27))))
          (number "5" (effects (font (size 1.27 1.27))))
        )
        (pin no_connect line (at 5.08 -2.54 90) (length 2.54) hide
          (name "NC" (effects (font (size 1.27 1.27))))
          (number "6" (effects (font (size 1.27 1.27))))
        )
        (pin no_connect line (at 2.54 -2.54 90) (length 2.54) hide
          (name "NC" (effects (font (size 1.27 1.27))))
          (number "7" (effects (font (size 1.27 1.27))))
        )
        (pin passive line (at 0 -5.08 90) (length 2.54) hide
          (name "G" (effects (font (size 1.27 1.27))))
          (number "8" (effects (font (size 1.27 1.27))))
        )
        (pin no_connect line (at -2.54 -2.54 90) (length 2.54) hide
          (name "NC" (effects (font (size 1.27 1.27))))
          (number "9" (effects (font (size 1.27 1.27))))
        )
      )
    )
    (symbol "power:+5V" (power) (pin_names (offset 0)) (in_bom yes) (on_board yes)
      (property "Reference" "#PWR" (at 0 -3.81 0)
        (effects (font (size 1.27 1.27)) hide)
      )
      (property "Value" "+5V" (at 0 3.556 0)
        (effects (font (size 1.27 1.27)))
      )
      (property "Footprint" "" (at 0 0 0)
        (effects (font (size 1.27 1.27)) hide)
      )
      (property "Datasheet" "" (at 0 0 0)
        (effects (font (size 1.27 1.27)) hide)
      )
      (property "ki_keywords" "power-flag" (at 0 0 0)
        (effects (font (size 1.27 1.27)) hide)
      )
      (property "ki_description" "Power symbol creates a global label with name \"+5V\"" (at 0 0 0)
        (effects (font (size 1.27 1.27)) hide)
      )
      (symbol "+5V_0_1"
        (polyline
          (pts
            (xy -0.762 1.27)
            (xy 0 2.54)
          )
          (stroke (width 0) (type default))
          (fill (type none))
        )
        (polyline
          (pts
            (xy 0 0)
            (xy 0 2.54)
          )
          (stroke (width 0) (type default))
          (fill (type none))
        )
        (polyline
          (pts
            (xy 0 2.54)
            (xy 0.762 1.27)
          )
          (stroke (width 0) (type default))
          (fill (type none))
        )
      )
      (symbol "+5V_1_1"
        (pin power_in line (at 0 0 90) (length 0) hide
          (name "+5V" (effects (font (size 1.27 1.27))))
          (number "1" (effects (font (size 1.27 1.27))))
        )
      )
    )
    (symbol "power:GND" (power) (pin_names (offset 0)) (in_bom yes) (on_board yes)
      (property "Reference" "#PWR" (at 0 -6.35 0)
        (effects (font (size 1.27 1.27)) hide)
      )
      (property "Value" "GND" (at 0 -3.81 0)
        (effects (font (size 1.27 1.27)))
      )
      (property "Footprint" "" (at 0 0 0)
        (effects (font (size 1.27 1.27)) hide)
      )
      (property "Datasheet" "" (at 0 0 0)
        (effects (font (size 1.27 1.27)) hide)
      )
      (property "ki_keywords" "power-flag" (at 0 0 0)
        (effects (font (size 1.27 1.27)) hide)
      )
      (property "ki_description" "Power symbol creates a global label with name \"GND\" , ground" (at 0 0 0)
        (effects (font (size 1.27 1.27)) hide)
      )
      (symbol "GND_0_1"
        (polyline
          (pts
            (xy 0 0)
            (xy 0 -1.27)
            (xy 1.27 -1.27)
            (xy 0 -2.54)
            (xy -1.27 -1.27)
            (xy 0 -1.27)
          )
          (stroke (width 0) (type default))
          (fill (type none))
        )
      )
      (symbol "GND_1_1"
        (pin power_in line (at 0 0 270) (length 0) hide
          (name "GND" (effects (font (size 1.27 1.27))))
          (number "1" (effects (font (size 1.27 1.27))))
        )
      )
    )
  )

  (junction (at 144.78 88.9) (diameter 0) (color 0 0 0 0)
    (uuid 9734258b-d169-4f79-a302-6258b75f5728)
  )
  (junction (at 144.78 93.98) (diameter 0) (color 0 0 0 0)
    (uuid c1908f77-701c-4ad7-b310-c97384eb455f)
  )
  (junction (at 127 127) (diameter 0) (color 0 0 0 0)
    (uuid e9f4e517-08c9-483c-a87e-b80fe4b0c986)
  )

  (no_connect (at 175.26 120.65) (uuid 71b99452-8f00-4bba-8c56-91197d66ac4b))
  (no_connect (at 142.24 106.68) (uuid b1cfe963-cf46-46fc-873f-ddc7cb044c1f))
  (no_connect (at 142.24 104.14) (uuid b1cfe963-cf46-46fc-873f-ddc7cb044c20))

  (wire (pts (xy 119.38 127) (xy 127 127))
    (stroke (width 0) (type default))
    (uuid 04f4049a-bd7f-4498-9632-2489d8ec0599)
  )
  (wire (pts (xy 142.24 93.98) (xy 144.78 93.98))
    (stroke (width 0) (type default))
    (uuid 05792805-de7b-4fb3-befc-a6ed057194a8)
  )
  (wire (pts (xy 182.88 120.65) (xy 182.88 116.84))
    (stroke (width 0) (type default))
    (uuid 10bd883f-e44a-40b5-833f-1dec3d6bf207)
  )
  (wire (pts (xy 172.72 83.82) (xy 172.72 86.36))
    (stroke (width 0) (type default))
    (uuid 119b9d36-5680-4b29-9dc8-0aa57a6f5e26)
  )
  (wire (pts (xy 180.34 120.65) (xy 180.34 116.84))
    (stroke (width 0) (type default))
    (uuid 2066d6c0-a46a-47e9-81b8-9e2112e30cb9)
  )
  (wire (pts (xy 142.24 76.2) (xy 148.59 76.2))
    (stroke (width 0) (type default))
    (uuid 3412407e-113c-4e23-bca7-81d19618558c)
  )
  (wire (pts (xy 144.78 93.98) (xy 148.59 93.98))
    (stroke (width 0) (type default))
    (uuid 36e0a67c-bba2-46ab-9a96-21bbb3add41c)
  )
  (wire (pts (xy 142.24 83.82) (xy 172.72 83.82))
    (stroke (width 0) (type default))
    (uuid 39cd1964-bf37-4634-bcee-9d7f09d8299f)
  )
  (wire (pts (xy 142.24 91.44) (xy 144.78 91.44))
    (stroke (width 0) (type default))
    (uuid 429b292e-829b-4e39-89d9-32447c400956)
  )
  (wire (pts (xy 144.78 88.9) (xy 148.59 88.9))
    (stroke (width 0) (type default))
    (uuid 596eace6-c4fc-4276-ad46-34c2dd5ce962)
  )
  (wire (pts (xy 127 127) (xy 127 130.81))
    (stroke (width 0) (type default))
    (uuid 6aee20d5-0004-4529-b3bd-4ef0a457f393)
  )
  (wire (pts (xy 119.38 123.19) (xy 119.38 127))
    (stroke (width 0) (type default))
    (uuid 751a69b9-5317-4389-a873-ab3aac2022c6)
  )
  (wire (pts (xy 148.59 76.2) (xy 148.59 74.93))
    (stroke (width 0) (type default))
    (uuid 81356374-5bdb-4669-8c2c-9e0d4920750d)
  )
  (wire (pts (xy 144.78 96.52) (xy 144.78 93.98))
    (stroke (width 0) (type default))
    (uuid 83257276-62d8-4506-9f72-4ecb74bb3900)
  )
  (wire (pts (xy 177.8 133.35) (xy 177.8 135.89))
    (stroke (width 0) (type default))
    (uuid 8b037579-1946-4b86-b49f-f2a73102715d)
  )
  (wire (pts (xy 144.78 91.44) (xy 144.78 88.9))
    (stroke (width 0) (type default))
    (uuid ac533c69-8904-4377-abd5-1ff839adce28)
  )
  (wire (pts (xy 182.88 91.44) (xy 182.88 96.52))
    (stroke (width 0) (type default))
    (uuid b642f668-c269-465b-b855-a7f50b41865c)
  )
  (wire (pts (xy 182.88 81.28) (xy 182.88 86.36))
    (stroke (width 0) (type default))
    (uuid c45e7c2f-5620-40b1-a7f5-1b7b3e32c737)
  )
  (wire (pts (xy 127 114.3) (xy 127 127))
    (stroke (width 0) (type default))
    (uuid caeac599-85aa-4017-842d-9a05544b6c8a)
  )
  (wire (pts (xy 119.38 114.3) (xy 119.38 118.11))
    (stroke (width 0) (type default))
    (uuid d083dc87-8a86-4f8b-82d4-244bf7f22b38)
  )
  (wire (pts (xy 142.24 96.52) (xy 144.78 96.52))
    (stroke (width 0) (type default))
    (uuid e86bb5bf-1168-495f-8a9a-baa4340543a9)
  )
  (wire (pts (xy 142.24 81.28) (xy 182.88 81.28))
    (stroke (width 0) (type default))
    (uuid ece685ed-edae-4955-b9c2-9ab528b0bbd3)
  )
  (wire (pts (xy 172.72 115.57) (xy 172.72 120.65))
    (stroke (width 0) (type default))
    (uuid fa465747-b6a9-4b34-9c42-83d884e63901)
  )
  (wire (pts (xy 172.72 91.44) (xy 172.72 96.52))
    (stroke (width 0) (type default))
    (uuid fd7f9cdc-0c0f-4c43-b89f-10708a944aca)
  )
  (wire (pts (xy 142.24 88.9) (xy 144.78 88.9))
    (stroke (width 0) (type default))
    (uuid ff33a8c8-f0c4-47b5-bf03-c1867e72598d)
  )

  (hierarchical_label "Data +" (shape input) (at 180.34 116.84 90) (fields_autoplaced)
    (effects (font (size 1.27 1.27)) (justify left))
    (uuid 27d0b0d6-3960-456d-b64f-bc93a245f85e)
  )
  (hierarchical_label "Data -" (shape input) (at 182.88 116.84 90) (fields_autoplaced)
    (effects (font (size 1.27 1.27)) (justify left))
    (uuid 5acd9a0b-fd84-4a59-8852-e065d3dd0c08)
  )
  (hierarchical_label "Data +" (shape input) (at 148.59 93.98 0) (fields_autoplaced)
    (effects (font (size 1.27 1.27)) (justify left))
    (uuid 64f303fe-a2e0-40db-a8f9-aec65f8ff485)
  )
  (hierarchical_label "Data -" (shape input) (at 148.59 88.9 0) (fields_autoplaced)
    (effects (font (size 1.27 1.27)) (justify left))
    (uuid 89de1c98-aff5-4bf7-879e-54e05e756c45)
  )

  (symbol (lib_id "power:GND") (at 127 130.81 0) (unit 1)
    (in_bom yes) (on_board yes) (dnp no) (fields_autoplaced)
    (uuid 081a3a88-d880-45de-acc7-6d2bcb7860bc)
    (property "Reference" "#PWR059" (at 127 137.16 0)
      (effects (font (size 1.27 1.27)) hide)
    )
    (property "Value" "GND" (at 127 135.89 0)
      (effects (font (size 1.27 1.27)))
    )
    (property "Footprint" "" (at 127 130.81 0)
      (effects (font (size 1.27 1.27)) hide)
    )
    (property "Datasheet" "" (at 127 130.81 0)
      (effects (font (size 1.27 1.27)) hide)
    )
    (pin "1" (uuid 95546808-901a-4509-ac0c-ae0915a7e3a0))
    (instances
      (project "ESP32 Robo Dev Board"
        (path "/e63e39d7-6ac0-4ffd-8aa3-1841a4541b55/d93a9795-d14e-40f3-89d1-1ddce239a16f"
          (reference "#PWR059") (unit 1)
        )
      )
    )
  )

  (symbol (lib_id "Device:R_Small") (at 119.38 120.65 0) (unit 1)
    (in_bom yes) (on_board yes) (dnp no)
    (uuid 0968533d-8307-43cb-836c-2c8a4cc43ec0)
    (property "Reference" "R11" (at 110.49 120.65 0)
      (effects (font (size 1.27 1.27)) (justify left))
    )
    (property "Value" "1M" (at 110.49 123.19 0)
      (effects (font (size 1.27 1.27)) (justify left))
    )
    (property "Footprint" "Resistor_SMD:R_0402_1005Metric" (at 119.38 120.65 0)
      (effects (font (size 1.27 1.27)) hide)
    )
    (property "Datasheet" "~" (at 119.38 120.65 0)
      (effects (font (size 1.27 1.27)) hide)
    )
    (pin "1" (uuid eb283e91-1245-4315-994a-1998b11ced3d))
    (pin "2" (uuid 066d1574-8525-4471-adc7-4a611078d1a0))
    (instances
      (project "ESP32 Robo Dev Board"
        (path "/e63e39d7-6ac0-4ffd-8aa3-1841a4541b55/d93a9795-d14e-40f3-89d1-1ddce239a16f"
          (reference "R11") (unit 1)
        )
      )
    )
  )

  (symbol (lib_id "Device:R_Small") (at 172.72 88.9 0) (unit 1)
    (in_bom yes) (on_board yes) (dnp no)
    (uuid 178f905f-2f05-49b3-9a7d-45d41ba5d7f2)
    (property "Reference" "R12" (at 167.64 88.9 0)
      (effects (font (size 1.27 1.27)) (justify left))
    )
    (property "Value" "5k" (at 167.64 91.44 0)
      (effects (font (size 1.27 1.27)) (justify left))
    )
    (property "Footprint" "Resistor_SMD:R_0402_1005Metric" (at 172.72 88.9 0)
      (effects (font (size 1.27 1.27)) hide)
    )
    (property "Datasheet" "~" (at 172.72 88.9 0)
      (effects (font (size 1.27 1.27)) hide)
    )
    (pin "1" (uuid 8999f79a-9ac1-43a4-98ef-8510f5ad5f0b))
    (pin "2" (uuid f156f983-1d18-49c6-a837-2635baf1856d))
    (instances
      (project "ESP32 Robo Dev Board"
        (path "/e63e39d7-6ac0-4ffd-8aa3-1841a4541b55/d93a9795-d14e-40f3-89d1-1ddce239a16f"
          (reference "R12") (unit 1)
        )
      )
    )
  )

  (symbol (lib_id "power:GND") (at 172.72 96.52 0) (unit 1)
    (in_bom yes) (on_board yes) (dnp no) (fields_autoplaced)
    (uuid 24d20a7d-c0ed-4f53-8c3d-0c655e1ebdd0)
    (property "Reference" "#PWR061" (at 172.72 102.87 0)
      (effects (font (size 1.27 1.27)) hide)
    )
    (property "Value" "GND" (at 172.72 101.6 0)
      (effects (font (size 1.27 1.27)))
    )
    (property "Footprint" "" (at 172.72 96.52 0)
      (effects (font (size 1.27 1.27)) hide)
    )
    (property "Datasheet" "" (at 172.72 96.52 0)
      (effects (font (size 1.27 1.27)) hide)
    )
    (pin "1" (uuid a2c94c59-b689-4922-a8b9-6d1bdbb295c2))
    (instances
      (project "ESP32 Robo Dev Board"
        (path "/e63e39d7-6ac0-4ffd-8aa3-1841a4541b55/d93a9795-d14e-40f3-89d1-1ddce239a16f"
          (reference "#PWR061") (unit 1)
        )
      )
    )
  )

  (symbol (lib_id "power:+5V") (at 148.59 74.93 0) (unit 1)
    (in_bom yes) (on_board yes) (dnp no) (fields_autoplaced)
    (uuid 487bdf0e-e7b7-4a1d-b8c7-5209756ce48b)
    (property "Reference" "#PWR060" (at 148.59 78.74 0)
      (effects (font (size 1.27 1.27)) hide)
    )
    (property "Value" "+5V" (at 148.59 69.85 0)
      (effects (font (size 1.27 1.27)))
    )
    (property "Footprint" "" (at 148.59 74.93 0)
      (effects (font (size 1.27 1.27)) hide)
    )
    (property "Datasheet" "" (at 148.59 74.93 0)
      (effects (font (size 1.27 1.27)) hide)
    )
    (pin "1" (uuid 1a285eda-746f-465b-96c2-85ae72989760))
    (instances
      (project "ESP32 Robo Dev Board"
        (path "/e63e39d7-6ac0-4ffd-8aa3-1841a4541b55/d93a9795-d14e-40f3-89d1-1ddce239a16f"
          (reference "#PWR060") (unit 1)
        )
      )
    )
  )

  (symbol (lib_id "Power_Protection:TPD4E02B04DQA") (at 177.8 128.27 0) (unit 1)
    (in_bom yes) (on_board yes) (dnp no) (fields_autoplaced)
    (uuid 5e78e590-6141-4966-ad7d-4542ffe725b6)
    (property "Reference" "U14" (at 185.42 125.7299 0)
      (effects (font (size 1.27 1.27)) (justify left))
    )
    (property "Value" "TPD4E02B04DQA" (at 185.42 128.2699 0)
      (effects (font (size 1.27 1.27)) (justify left))
    )
    (property "Footprint" "Package_SON:USON-10_2.5x1.0mm_P0.5mm" (at 185.42 128.27 0)
      (effects (font (size 1.27 1.27)) (justify left) hide)
    )
    (property "Datasheet" "http://www.ti.com/lit/ds/symlink/tpd4e02b04.pdf" (at 180.975 120.015 0)
      (effects (font (size 1.27 1.27)) hide)
    )
    (pin "3" (uuid 424709de-5bdb-4e5e-a0ed-526c58fc3125))
    (pin "1" (uuid 82f1d86f-cde6-406d-a7ab-821c9adee3e9))
    (pin "10" (uuid 4f79f127-8660-4de8-984a-28fe68a7bae3))
    (pin "2" (uuid e72a1e47-5897-4174-9cf9-7b74de3ec9cd))
    (pin "4" (uuid 2b671af2-0fbd-4c94-bcd2-2699389b5b7a))
    (pin "5" (uuid 5d14ce8c-e681-4cf8-981c-ffbe6b7a8164))
    (pin "6" (uuid 329b4950-cb51-4a55-8a07-ff15ccc0cd66))
    (pin "7" (uuid f609eb9a-bc9a-4bc9-92f6-42bc7997e076))
    (pin "8" (uuid 56540881-4cdc-4e3a-8c59-bf10bc1fcc78))
    (pin "9" (uuid 8311d017-3876-4220-a4ee-c8834c3b26e2))
    (instances
      (project "ESP32 Robo Dev Board"
        (path "/e63e39d7-6ac0-4ffd-8aa3-1841a4541b55/d93a9795-d14e-40f3-89d1-1ddce239a16f"
          (reference "U14") (unit 1)
        )
      )
    )
  )

  (symbol (lib_id "power:GND") (at 182.88 96.52 0) (unit 1)
    (in_bom yes) (on_board yes) (dnp no) (fields_autoplaced)
    (uuid 6c2a5a97-568d-4846-8f8a-6cfca0ef23d2)
    (property "Reference" "#PWR064" (at 182.88 102.87 0)
      (effects (font (size 1.27 1.27)) hide)
    )
    (property "Value" "GND" (at 182.88 101.6 0)
      (effects (font (size 1.27 1.27)))
    )
    (property "Footprint" "" (at 182.88 96.52 0)
      (effects (font (size 1.27 1.27)) hide)
    )
    (property "Datasheet" "" (at 182.88 96.52 0)
      (effects (font (size 1.27 1.27)) hide)
    )
    (pin "1" (uuid f17a4596-4def-4b46-8ecf-92c29a79391a))
    (instances
      (project "ESP32 Robo Dev Board"
        (path "/e63e39d7-6ac0-4ffd-8aa3-1841a4541b55/d93a9795-d14e-40f3-89d1-1ddce239a16f"
          (reference "#PWR064") (unit 1)
        )
      )
    )
  )

  (symbol (lib_id "Device:R_Small") (at 182.88 88.9 0) (unit 1)
    (in_bom yes) (on_board yes) (dnp no)
    (uuid ae4c4c6d-3bab-4ebc-bf99-9447cbc7eeb4)
    (property "Reference" "R13" (at 177.8 88.9 0)
      (effects (font (size 1.27 1.27)) (justify left))
    )
    (property "Value" "5K" (at 177.8 91.44 0)
      (effects (font (size 1.27 1.27)) (justify left))
    )
    (property "Footprint" "Resistor_SMD:R_0402_1005Metric" (at 182.88 88.9 0)
      (effects (font (size 1.27 1.27)) hide)
    )
    (property "Datasheet" "~" (at 182.88 88.9 0)
      (effects (font (size 1.27 1.27)) hide)
    )
    (pin "1" (uuid c2fd5886-b404-4cfe-9665-c7e64e16f565))
    (pin "2" (uuid b93c0d4e-e2e1-4288-af47-ba92f7e03815))
    (instances
      (project "ESP32 Robo Dev Board"
        (path "/e63e39d7-6ac0-4ffd-8aa3-1841a4541b55/d93a9795-d14e-40f3-89d1-1ddce239a16f"
          (reference "R13") (unit 1)
        )
      )
    )
  )

  (symbol (lib_id "power:+5V") (at 172.72 115.57 0) (unit 1)
    (in_bom yes) (on_board yes) (dnp no) (fields_autoplaced)
    (uuid b302cd1f-2e44-4308-9e51-fa76d7915cfa)
    (property "Reference" "#PWR062" (at 172.72 119.38 0)
      (effects (font (size 1.27 1.27)) hide)
    )
    (property "Value" "+5V" (at 172.72 110.49 0)
      (effects (font (size 1.27 1.27)))
    )
    (property "Footprint" "" (at 172.72 115.57 0)
      (effects (font (size 1.27 1.27)) hide)
    )
    (property "Datasheet" "" (at 172.72 115.57 0)
      (effects (font (size 1.27 1.27)) hide)
    )
    (pin "1" (uuid c4af04dd-74f4-40e0-a78d-77be3f15b88d))
    (instances
      (project "ESP32 Robo Dev Board"
        (path "/e63e39d7-6ac0-4ffd-8aa3-1841a4541b55/d93a9795-d14e-40f3-89d1-1ddce239a16f"
          (reference "#PWR062") (unit 1)
        )
      )
    )
  )

  (symbol (lib_id "power:GND") (at 177.8 135.89 0) (unit 1)
    (in_bom yes) (on_board yes) (dnp no) (fields_autoplaced)
    (uuid d5cffccb-9972-463f-989f-cb3ee270427e)
    (property "Reference" "#PWR063" (at 177.8 142.24 0)
      (effects (font (size 1.27 1.27)) hide)
    )
    (property "Value" "GND" (at 177.8 140.97 0)
      (effects (font (size 1.27 1.27)))
    )
    (property "Footprint" "" (at 177.8 135.89 0)
      (effects (font (size 1.27 1.27)) hide)
    )
    (property "Datasheet" "" (at 177.8 135.89 0)
      (effects (font (size 1.27 1.27)) hide)
    )
    (pin "1" (uuid 80ec0779-8785-4ae8-a408-5a8606a454a1))
    (instances
      (project "ESP32 Robo Dev Board"
        (path "/e63e39d7-6ac0-4ffd-8aa3-1841a4541b55/d93a9795-d14e-40f3-89d1-1ddce239a16f"
          (reference "#PWR063") (unit 1)
        )
      )
    )
  )

  (symbol (lib_id "Connector:USB_C_Receptacle_USB2.0") (at 127 91.44 0) (unit 1)
    (in_bom yes) (on_board yes) (dnp no) (fields_autoplaced)
    (uuid d7c8303f-5b99-4f7e-8c15-deab02a60d2a)
    (property "Reference" "J2" (at 127 68.58 0)
      (effects (font (size 1.27 1.27)))
    )
    (property "Value" "USB_C_Receptacle_USB2.0" (at 127 71.12 0)
      (effects (font (size 1.27 1.27)))
    )
    (property "Footprint" "Connector_USB:USB_C_Receptacle_XKB_U262-16XN-4BVC11" (at 130.81 91.44 0)
      (effects (font (size 1.27 1.27)) hide)
    )
    (property "Datasheet" "https://www.usb.org/sites/default/files/documents/usb_type-c.zip" (at 130.81 91.44 0)
      (effects (font (size 1.27 1.27)) hide)
    )
    (pin "A1" (uuid 25382819-3363-4759-a341-d6bbe2571f29))
    (pin "A12" (uuid f222ba6a-be0d-400e-b3b8-f775148c517e))
    (pin "A4" (uuid f7b28d86-d1f3-4143-a866-547f6fefb8ea))
    (pin "A5" (uuid 644e0bee-5527-4ab7-8b24-b7dd2d269cb9))
    (pin "A6" (uuid c43d0fa0-b935-4ced-82e2-756c5d06f41a))
    (pin "A7" (uuid b1a4193c-548d-443c-acb7-7170ba401ff2))
    (pin "A8" (uuid 62c02fd2-b7ee-4e5d-ad83-94bd0dec483f))
    (pin "A9" (uuid 112a0930-da4a-43ad-9a0f-84f3cb84a817))
    (pin "B1" (uuid 8882a61c-ebb4-4d98-b7d0-4f026369feb9))
    (pin "B12" (uuid 1e132764-93b1-47ff-84f1-259ff0c8acbb))
    (pin "B4" (uuid 6b86b66d-b806-4335-8b71-f6a7b99345e3))
    (pin "B5" (uuid e95d89b1-33db-4813-87fc-3e7f3359adfe))
    (pin "B6" (uuid 082f7e43-ce65-483c-ac39-61f9b90401a2))
    (pin "B7" (uuid 8083854d-4687-445a-8677-1b21fe5f36a4))
    (pin "B8" (uuid 141ccd8e-379d-4335-812d-ff1e8eb1a24e))
    (pin "B9" (uuid fbc57d2c-0a6c-4aa0-b0c8-b1a5dbdb6335))
    (pin "S1" (uuid 8067fc22-ea8d-4d77-87e6-42da269fa6af))
    (instances
      (project "ESP32 Robo Dev Board"
        (path "/e63e39d7-6ac0-4ffd-8aa3-1841a4541b55/d93a9795-d14e-40f3-89d1-1ddce239a16f"
          (reference "J2") (unit 1)
        )
      )
    )
  )
)
