(kicad_sch (version 20230121) (generator eeschema)

  (uuid 63366297-a190-439b-8711-6ce9e9937b83)

  (paper "A4")

  (lib_symbols
    (symbol "Amplifier_Operational:MAX4238AUT" (pin_names (offset 0.127)) (in_bom yes) (on_board yes)
      (property "Reference" "U" (at 0 6.35 0)
        (effects (font (size 1.27 1.27)) (justify left))
      )
      (property "Value" "MAX4238AUT" (at 0 3.81 0)
        (effects (font (size 1.27 1.27)) (justify left))
      )
      (property "Footprint" "Package_TO_SOT_SMD:SOT-23-6" (at 0 0 0)
        (effects (font (size 1.27 1.27)) hide)
      )
      (property "Datasheet" "http://datasheets.maximintegrated.com/en/ds/MAX4238-MAX4239.pdf" (at 3.81 3.81 0)
        (effects (font (size 1.27 1.27)) hide)
      )
      (property "ki_keywords" "single opamp" (at 0 0 0)
        (effects (font (size 1.27 1.27)) hide)
      )
      (property "ki_description" "Ultra-Low Offset/Drift, Low-Noise, Precision Amplifiers, SOT-23-6" (at 0 0 0)
        (effects (font (size 1.27 1.27)) hide)
      )
      (property "ki_fp_filters" "SOT?23*" (at 0 0 0)
        (effects (font (size 1.27 1.27)) hide)
      )
      (symbol "MAX4238AUT_0_1"
        (polyline
          (pts
            (xy -5.08 5.08)
            (xy 5.08 0)
            (xy -5.08 -5.08)
            (xy -5.08 5.08)
          )
          (stroke (width 0.254) (type default))
          (fill (type background))
        )
      )
      (symbol "MAX4238AUT_1_1"
        (pin output line (at 7.62 0 180) (length 2.54)
          (name "~" (effects (font (size 1.27 1.27))))
          (number "1" (effects (font (size 1.27 1.27))))
        )
        (pin power_in line (at -2.54 -7.62 90) (length 3.81)
          (name "V-" (effects (font (size 1.27 1.27))))
          (number "2" (effects (font (size 1.27 1.27))))
        )
        (pin input line (at -7.62 2.54 0) (length 2.54)
          (name "+" (effects (font (size 1.27 1.27))))
          (number "3" (effects (font (size 1.27 1.27))))
        )
        (pin input line (at -7.62 -2.54 0) (length 2.54)
          (name "-" (effects (font (size 1.27 1.27))))
          (number "4" (effects (font (size 1.27 1.27))))
        )
        (pin input line (at 0 -7.62 90) (length 5.08)
          (name "~{SHDN}" (effects (font (size 0.762 0.762))))
          (number "5" (effects (font (size 1.27 1.27))))
        )
        (pin power_in line (at -2.54 7.62 270) (length 3.81)
          (name "V+" (effects (font (size 1.27 1.27))))
          (number "6" (effects (font (size 1.27 1.27))))
        )
      )
    )
    (symbol "Device:C_Small" (pin_numbers hide) (pin_names (offset 0.254) hide) (in_bom yes) (on_board yes)
      (property "Reference" "C" (at 0.254 1.778 0)
        (effects (font (size 1.27 1.27)) (justify left))
      )
      (property "Value" "C_Small" (at 0.254 -2.032 0)
        (effects (font (size 1.27 1.27)) (justify left))
      )
      (property "Footprint" "" (at 0 0 0)
        (effects (font (size 1.27 1.27)) hide)
      )
      (property "Datasheet" "~" (at 0 0 0)
        (effects (font (size 1.27 1.27)) hide)
      )
      (property "ki_keywords" "capacitor cap" (at 0 0 0)
        (effects (font (size 1.27 1.27)) hide)
      )
      (property "ki_description" "Unpolarized capacitor, small symbol" (at 0 0 0)
        (effects (font (size 1.27 1.27)) hide)
      )
      (property "ki_fp_filters" "C_*" (at 0 0 0)
        (effects (font (size 1.27 1.27)) hide)
      )
      (symbol "C_Small_0_1"
        (polyline
          (pts
            (xy -1.524 -0.508)
            (xy 1.524 -0.508)
          )
          (stroke (width 0.3302) (type default))
          (fill (type none))
        )
        (polyline
          (pts
            (xy -1.524 0.508)
            (xy 1.524 0.508)
          )
          (stroke (width 0.3048) (type default))
          (fill (type none))
        )
      )
      (symbol "C_Small_1_1"
        (pin passive line (at 0 2.54 270) (length 2.032)
          (name "~" (effects (font (size 1.27 1.27))))
          (number "1" (effects (font (size 1.27 1.27))))
        )
        (pin passive line (at 0 -2.54 90) (length 2.032)
          (name "~" (effects (font (size 1.27 1.27))))
          (number "2" (effects (font (size 1.27 1.27))))
        )
      )
    )
    (symbol "power:+3.3VA" (power) (pin_names (offset 0)) (in_bom yes) (on_board yes)
      (property "Reference" "#PWR" (at 0 -3.81 0)
        (effects (font (size 1.27 1.27)) hide)
      )
      (property "Value" "+3.3VA" (at 0 3.556 0)
        (effects (font (size 1.27 1.27)))
      )
      (property "Footprint" "" (at 0 0 0)
        (effects (font (size 1.27 1.27)) hide)
      )
      (property "Datasheet" "" (at 0 0 0)
        (effects (font (size 1.27 1.27)) hide)
      )
      (property "ki_keywords" "power-flag" (at 0 0 0)
        (effects (font (size 1.27 1.27)) hide)
      )
      (property "ki_description" "Power symbol creates a global label with name \"+3.3VA\"" (at 0 0 0)
        (effects (font (size 1.27 1.27)) hide)
      )
      (symbol "+3.3VA_0_1"
        (polyline
          (pts
            (xy -0.762 1.27)
            (xy 0 2.54)
          )
          (stroke (width 0) (type default))
          (fill (type none))
        )
        (polyline
          (pts
            (xy 0 0)
            (xy 0 2.54)
          )
          (stroke (width 0) (type default))
          (fill (type none))
        )
        (polyline
          (pts
            (xy 0 2.54)
            (xy 0.762 1.27)
          )
          (stroke (width 0) (type default))
          (fill (type none))
        )
      )
      (symbol "+3.3VA_1_1"
        (pin power_in line (at 0 0 90) (length 0) hide
          (name "+3.3VA" (effects (font (size 1.27 1.27))))
          (number "1" (effects (font (size 1.27 1.27))))
        )
      )
    )
    (symbol "power:GND" (power) (pin_names (offset 0)) (in_bom yes) (on_board yes)
      (property "Reference" "#PWR" (at 0 -6.35 0)
        (effects (font (size 1.27 1.27)) hide)
      )
      (property "Value" "GND" (at 0 -3.81 0)
        (effects (font (size 1.27 1.27)))
      )
      (property "Footprint" "" (at 0 0 0)
        (effects (font (size 1.27 1.27)) hide)
      )
      (property "Datasheet" "" (at 0 0 0)
        (effects (font (size 1.27 1.27)) hide)
      )
      (property "ki_keywords" "power-flag" (at 0 0 0)
        (effects (font (size 1.27 1.27)) hide)
      )
      (property "ki_description" "Power symbol creates a global label with name \"GND\" , ground" (at 0 0 0)
        (effects (font (size 1.27 1.27)) hide)
      )
      (symbol "GND_0_1"
        (polyline
          (pts
            (xy 0 0)
            (xy 0 -1.27)
            (xy 1.27 -1.27)
            (xy 0 -2.54)
            (xy -1.27 -1.27)
            (xy 0 -1.27)
          )
          (stroke (width 0) (type default))
          (fill (type none))
        )
      )
      (symbol "GND_1_1"
        (pin power_in line (at 0 0 270) (length 0) hide
          (name "GND" (effects (font (size 1.27 1.27))))
          (number "1" (effects (font (size 1.27 1.27))))
        )
      )
    )
  )

  (junction (at 147.32 90.17) (diameter 0) (color 0 0 0 0)
    (uuid 168940b4-0541-4ba3-aae1-5168a3123278)
  )

  (wire (pts (xy 147.32 90.17) (xy 151.13 90.17))
    (stroke (width 0) (type default))
    (uuid 3cc02fdb-ca3d-451b-a148-46f5a7a0ac5f)
  )
  (wire (pts (xy 149.86 114.3) (xy 151.13 114.3))
    (stroke (width 0) (type default))
    (uuid 45ff66f9-6d7a-4847-97e6-595c99b7c4aa)
  )
  (wire (pts (xy 147.32 90.17) (xy 147.32 97.79))
    (stroke (width 0) (type default))
    (uuid 9b044432-7f7c-4bd1-9d32-391e8ee15dce)
  )
  (wire (pts (xy 149.86 113.03) (xy 149.86 114.3))
    (stroke (width 0) (type default))
    (uuid a4419378-0c98-4de0-9e18-6f4501725396)
  )

  (hierarchical_label "guard+" (shape output) (at 157.48 105.41 0) (fields_autoplaced)
    (effects (font (size 1.27 1.27)) (justify left))
    (uuid 3574d2ac-11e4-4812-98c7-3f680c2470b4)
  )
  (hierarchical_label "REF" (shape input) (at 142.24 102.87 180) (fields_autoplaced)
    (effects (font (size 1.27 1.27)) (justify right))
    (uuid b3e7514e-e6dc-4ab7-8005-18824ce17090)
  )
  (hierarchical_label "guard-" (shape input) (at 142.24 107.95 180) (fields_autoplaced)
    (effects (font (size 1.27 1.27)) (justify right))
    (uuid b7693fb3-0830-48de-897a-05ebbff0cd1c)
  )

  (symbol (lib_id "power:+3.3VA") (at 147.32 90.17 0) (unit 1)
    (in_bom yes) (on_board yes) (dnp no) (fields_autoplaced)
    (uuid 057f6c5e-f57c-4465-9a26-753b8d3bd070)
    (property "Reference" "#PWR043" (at 147.32 93.98 0)
      (effects (font (size 1.27 1.27)) hide)
    )
    (property "Value" "+3.3VA" (at 147.32 86.5655 0)
      (effects (font (size 1.27 1.27)))
    )
    (property "Footprint" "" (at 147.32 90.17 0)
      (effects (font (size 1.27 1.27)) hide)
    )
    (property "Datasheet" "" (at 147.32 90.17 0)
      (effects (font (size 1.27 1.27)) hide)
    )
    (pin "1" (uuid 822346bc-4349-430f-83f3-3c0bb52757e5))
    (instances
      (project "6wire"
        (path "/e63e39d7-6ac0-4ffd-8aa3-1841a4541b55/a0d6bc39-c6ae-484f-bd41-46c4a96711ac"
          (reference "#PWR043") (unit 1)
        )
      )
    )
  )

  (symbol (lib_id "Amplifier_Operational:MAX4238AUT") (at 149.86 105.41 0) (unit 1)
    (in_bom yes) (on_board yes) (dnp no)
    (uuid acbf3f0d-d258-4f52-bb7a-28b6d6e15497)
    (property "Reference" "U6" (at 154.94 107.95 0)
      (effects (font (size 1.27 1.27)))
    )
    (property "Value" "MAX4238AUT" (at 158.75 110.49 0)
      (effects (font (size 1.27 1.27)))
    )
    (property "Footprint" "Package_TO_SOT_SMD:SOT-23-6" (at 149.86 105.41 0)
      (effects (font (size 1.27 1.27)) hide)
    )
    (property "Datasheet" "http://datasheets.maximintegrated.com/en/ds/MAX4238-MAX4239.pdf" (at 153.67 101.6 0)
      (effects (font (size 1.27 1.27)) hide)
    )
    (pin "1" (uuid 7cfbd356-37d9-44a4-bdff-3a10704f0818))
    (pin "2" (uuid 0261e43c-8380-427d-ba79-312c5e199533))
    (pin "3" (uuid 13be451a-d19a-4f50-8902-bd2deb170df4))
    (pin "4" (uuid 5fecf53a-5775-45cc-bc83-16b306c99e69))
    (pin "5" (uuid 363c0119-98a5-47b0-8710-a2a827de5100))
    (pin "6" (uuid bd5dd95c-c562-46ff-a22b-a8d76ad31eca))
    (instances
      (project "6wire"
        (path "/e63e39d7-6ac0-4ffd-8aa3-1841a4541b55/a0d6bc39-c6ae-484f-bd41-46c4a96711ac"
          (reference "U6") (unit 1)
        )
      )
    )
  )

  (symbol (lib_id "Device:C_Small") (at 151.13 92.71 0) (unit 1)
    (in_bom yes) (on_board yes) (dnp no) (fields_autoplaced)
    (uuid ad62f09c-8b33-4541-a217-2c34be7d73bc)
    (property "Reference" "C25" (at 153.4541 91.8078 0)
      (effects (font (size 1.27 1.27)) (justify left))
    )
    (property "Value" "100n" (at 153.4541 94.5829 0)
      (effects (font (size 1.27 1.27)) (justify left))
    )
    (property "Footprint" "Capacitor_SMD:C_0603_1608Metric" (at 151.13 92.71 0)
      (effects (font (size 1.27 1.27)) hide)
    )
    (property "Datasheet" "~" (at 151.13 92.71 0)
      (effects (font (size 1.27 1.27)) hide)
    )
    (pin "1" (uuid 73471f9f-e832-426c-8762-6a7ccb8670de))
    (pin "2" (uuid a9f559a5-871f-4312-a5a3-b8ff6012fd22))
    (instances
      (project "6wire"
        (path "/e63e39d7-6ac0-4ffd-8aa3-1841a4541b55/a0d6bc39-c6ae-484f-bd41-46c4a96711ac"
          (reference "C25") (unit 1)
        )
      )
    )
  )

  (symbol (lib_id "power:GND") (at 147.32 113.03 0) (unit 1)
    (in_bom yes) (on_board yes) (dnp no) (fields_autoplaced)
    (uuid f8326c41-4898-4eab-a4e7-0394ffa96f5b)
    (property "Reference" "#PWR044" (at 147.32 119.38 0)
      (effects (font (size 1.27 1.27)) hide)
    )
    (property "Value" "GND" (at 147.32 117.5925 0)
      (effects (font (size 1.27 1.27)))
    )
    (property "Footprint" "" (at 147.32 113.03 0)
      (effects (font (size 1.27 1.27)) hide)
    )
    (property "Datasheet" "" (at 147.32 113.03 0)
      (effects (font (size 1.27 1.27)) hide)
    )
    (pin "1" (uuid 2c6ae23f-cf54-42b8-8325-1c806d08e30f))
    (instances
      (project "6wire"
        (path "/e63e39d7-6ac0-4ffd-8aa3-1841a4541b55/a0d6bc39-c6ae-484f-bd41-46c4a96711ac"
          (reference "#PWR044") (unit 1)
        )
      )
    )
  )

  (symbol (lib_id "power:+3.3VA") (at 151.13 114.3 270) (unit 1)
    (in_bom yes) (on_board yes) (dnp no) (fields_autoplaced)
    (uuid fe9d54d6-1842-4dc4-9085-1061c65cf3c6)
    (property "Reference" "#PWR046" (at 147.32 114.3 0)
      (effects (font (size 1.27 1.27)) hide)
    )
    (property "Value" "+3.3VA" (at 154.305 114.779 90)
      (effects (font (size 1.27 1.27)) (justify left))
    )
    (property "Footprint" "" (at 151.13 114.3 0)
      (effects (font (size 1.27 1.27)) hide)
    )
    (property "Datasheet" "" (at 151.13 114.3 0)
      (effects (font (size 1.27 1.27)) hide)
    )
    (pin "1" (uuid 155d2af5-b9f7-495a-b9d4-8b00f8e035b3))
    (instances
      (project "6wire"
        (path "/e63e39d7-6ac0-4ffd-8aa3-1841a4541b55/a0d6bc39-c6ae-484f-bd41-46c4a96711ac"
          (reference "#PWR046") (unit 1)
        )
      )
    )
  )

  (symbol (lib_id "power:GND") (at 151.13 95.25 0) (unit 1)
    (in_bom yes) (on_board yes) (dnp no) (fields_autoplaced)
    (uuid ffc209f0-a64c-46e2-a3d9-7f82663688cc)
    (property "Reference" "#PWR045" (at 151.13 101.6 0)
      (effects (font (size 1.27 1.27)) hide)
    )
    (property "Value" "GND" (at 151.13 99.8125 0)
      (effects (font (size 1.27 1.27)))
    )
    (property "Footprint" "" (at 151.13 95.25 0)
      (effects (font (size 1.27 1.27)) hide)
    )
    (property "Datasheet" "" (at 151.13 95.25 0)
      (effects (font (size 1.27 1.27)) hide)
    )
    (pin "1" (uuid ae6bf9d6-0a50-4742-99c0-eebfcdb3186d))
    (instances
      (project "6wire"
        (path "/e63e39d7-6ac0-4ffd-8aa3-1841a4541b55/a0d6bc39-c6ae-484f-bd41-46c4a96711ac"
          (reference "#PWR045") (unit 1)
        )
      )
    )
  )
)
