(kicad_sch
	(version 20231120)
	(generator "eeschema")
	(generator_version "8.0")
	(uuid "ac884eb8-f36a-4e92-a2c0-1a3da5179f17")
	(paper "A4")
	(title_block
		(title "Beta Board")
		(date "2023-12-28")
		(rev "R1.1")
		(company "Tim Kuhlbusch")
		(comment 1 "Beta radiation detector")
	)
	(lib_symbols
		(symbol "Amplifier_Operational:LM358"
			(pin_names
				(offset 0.127)
			)
			(exclude_from_sim no)
			(in_bom yes)
			(on_board yes)
			(property "Reference" "U"
				(at 0 5.08 0)
				(effects
					(font
						(size 1.27 1.27)
					)
					(justify left)
				)
			)
			(property "Value" "LM358"
				(at 0 -5.08 0)
				(effects
					(font
						(size 1.27 1.27)
					)
					(justify left)
				)
			)
			(property "Footprint" ""
				(at 0 0 0)
				(effects
					(font
						(size 1.27 1.27)
					)
					(hide yes)
				)
			)
			(property "Datasheet" "http://www.ti.com/lit/ds/symlink/lm2904-n.pdf"
				(at 0 0 0)
				(effects
					(font
						(size 1.27 1.27)
					)
					(hide yes)
				)
			)
			(property "Description" "Low-Power, Dual Operational Amplifiers, DIP-8/SOIC-8/TO-99-8"
				(at 0 0 0)
				(effects
					(font
						(size 1.27 1.27)
					)
					(hide yes)
				)
			)
			(property "ki_locked" ""
				(at 0 0 0)
				(effects
					(font
						(size 1.27 1.27)
					)
				)
			)
			(property "ki_keywords" "dual opamp"
				(at 0 0 0)
				(effects
					(font
						(size 1.27 1.27)
					)
					(hide yes)
				)
			)
			(property "ki_fp_filters" "SOIC*3.9x4.9mm*P1.27mm* DIP*W7.62mm* TO*99* OnSemi*Micro8* TSSOP*3x3mm*P0.65mm* TSSOP*4.4x3mm*P0.65mm* MSOP*3x3mm*P0.65mm* SSOP*3.9x4.9mm*P0.635mm* LFCSP*2x2mm*P0.5mm* *SIP* SOIC*5.3x6.2mm*P1.27mm*"
				(at 0 0 0)
				(effects
					(font
						(size 1.27 1.27)
					)
					(hide yes)
				)
			)
			(symbol "LM358_1_1"
				(polyline
					(pts
						(xy -5.08 5.08) (xy 5.08 0) (xy -5.08 -5.08) (xy -5.08 5.08)
					)
					(stroke
						(width 0.254)
						(type default)
					)
					(fill
						(type background)
					)
				)
				(pin output line
					(at 7.62 0 180)
					(length 2.54)
					(name "~"
						(effects
							(font
								(size 1.27 1.27)
							)
						)
					)
					(number "1"
						(effects
							(font
								(size 1.27 1.27)
							)
						)
					)
				)
				(pin input line
					(at -7.62 -2.54 0)
					(length 2.54)
					(name "-"
						(effects
							(font
								(size 1.27 1.27)
							)
						)
					)
					(number "2"
						(effects
							(font
								(size 1.27 1.27)
							)
						)
					)
				)
				(pin input line
					(at -7.62 2.54 0)
					(length 2.54)
					(name "+"
						(effects
							(font
								(size 1.27 1.27)
							)
						)
					)
					(number "3"
						(effects
							(font
								(size 1.27 1.27)
							)
						)
					)
				)
			)
			(symbol "LM358_2_1"
				(polyline
					(pts
						(xy -5.08 5.08) (xy 5.08 0) (xy -5.08 -5.08) (xy -5.08 5.08)
					)
					(stroke
						(width 0.254)
						(type default)
					)
					(fill
						(type background)
					)
				)
				(pin input line
					(at -7.62 2.54 0)
					(length 2.54)
					(name "+"
						(effects
							(font
								(size 1.27 1.27)
							)
						)
					)
					(number "5"
						(effects
							(font
								(size 1.27 1.27)
							)
						)
					)
				)
				(pin input line
					(at -7.62 -2.54 0)
					(length 2.54)
					(name "-"
						(effects
							(font
								(size 1.27 1.27)
							)
						)
					)
					(number "6"
						(effects
							(font
								(size 1.27 1.27)
							)
						)
					)
				)
				(pin output line
					(at 7.62 0 180)
					(length 2.54)
					(name "~"
						(effects
							(font
								(size 1.27 1.27)
							)
						)
					)
					(number "7"
						(effects
							(font
								(size 1.27 1.27)
							)
						)
					)
				)
			)
			(symbol "LM358_3_1"
				(pin power_in line
					(at -2.54 -7.62 90)
					(length 3.81)
					(name "V-"
						(effects
							(font
								(size 1.27 1.27)
							)
						)
					)
					(number "4"
						(effects
							(font
								(size 1.27 1.27)
							)
						)
					)
				)
				(pin power_in line
					(at -2.54 7.62 270)
					(length 3.81)
					(name "V+"
						(effects
							(font
								(size 1.27 1.27)
							)
						)
					)
					(number "8"
						(effects
							(font
								(size 1.27 1.27)
							)
						)
					)
				)
			)
		)
		(symbol "Device:C"
			(pin_numbers hide)
			(pin_names
				(offset 0.254)
			)
			(exclude_from_sim no)
			(in_bom yes)
			(on_board yes)
			(property "Reference" "C"
				(at 0.635 2.54 0)
				(effects
					(font
						(size 1.27 1.27)
					)
					(justify left)
				)
			)
			(property "Value" "C"
				(at 0.635 -2.54 0)
				(effects
					(font
						(size 1.27 1.27)
					)
					(justify left)
				)
			)
			(property "Footprint" ""
				(at 0.9652 -3.81 0)
				(effects
					(font
						(size 1.27 1.27)
					)
					(hide yes)
				)
			)
			(property "Datasheet" "~"
				(at 0 0 0)
				(effects
					(font
						(size 1.27 1.27)
					)
					(hide yes)
				)
			)
			(property "Description" "Unpolarized capacitor"
				(at 0 0 0)
				(effects
					(font
						(size 1.27 1.27)
					)
					(hide yes)
				)
			)
			(property "ki_keywords" "cap capacitor"
				(at 0 0 0)
				(effects
					(font
						(size 1.27 1.27)
					)
					(hide yes)
				)
			)
			(property "ki_fp_filters" "C_*"
				(at 0 0 0)
				(effects
					(font
						(size 1.27 1.27)
					)
					(hide yes)
				)
			)
			(symbol "C_0_1"
				(polyline
					(pts
						(xy -2.032 -0.762) (xy 2.032 -0.762)
					)
					(stroke
						(width 0.508)
						(type default)
					)
					(fill
						(type none)
					)
				)
				(polyline
					(pts
						(xy -2.032 0.762) (xy 2.032 0.762)
					)
					(stroke
						(width 0.508)
						(type default)
					)
					(fill
						(type none)
					)
				)
			)
			(symbol "C_1_1"
				(pin passive line
					(at 0 3.81 270)
					(length 2.794)
					(name "~"
						(effects
							(font
								(size 1.27 1.27)
							)
						)
					)
					(number "1"
						(effects
							(font
								(size 1.27 1.27)
							)
						)
					)
				)
				(pin passive line
					(at 0 -3.81 90)
					(length 2.794)
					(name "~"
						(effects
							(font
								(size 1.27 1.27)
							)
						)
					)
					(number "2"
						(effects
							(font
								(size 1.27 1.27)
							)
						)
					)
				)
			)
		)
		(symbol "Device:R"
			(pin_numbers hide)
			(pin_names
				(offset 0)
			)
			(exclude_from_sim no)
			(in_bom yes)
			(on_board yes)
			(property "Reference" "R"
				(at 2.032 0 90)
				(effects
					(font
						(size 1.27 1.27)
					)
				)
			)
			(property "Value" "R"
				(at 0 0 90)
				(effects
					(font
						(size 1.27 1.27)
					)
				)
			)
			(property "Footprint" ""
				(at -1.778 0 90)
				(effects
					(font
						(size 1.27 1.27)
					)
					(hide yes)
				)
			)
			(property "Datasheet" "~"
				(at 0 0 0)
				(effects
					(font
						(size 1.27 1.27)
					)
					(hide yes)
				)
			)
			(property "Description" "Resistor"
				(at 0 0 0)
				(effects
					(font
						(size 1.27 1.27)
					)
					(hide yes)
				)
			)
			(property "ki_keywords" "R res resistor"
				(at 0 0 0)
				(effects
					(font
						(size 1.27 1.27)
					)
					(hide yes)
				)
			)
			(property "ki_fp_filters" "R_*"
				(at 0 0 0)
				(effects
					(font
						(size 1.27 1.27)
					)
					(hide yes)
				)
			)
			(symbol "R_0_1"
				(rectangle
					(start -1.016 -2.54)
					(end 1.016 2.54)
					(stroke
						(width 0.254)
						(type default)
					)
					(fill
						(type none)
					)
				)
			)
			(symbol "R_1_1"
				(pin passive line
					(at 0 3.81 270)
					(length 1.27)
					(name "~"
						(effects
							(font
								(size 1.27 1.27)
							)
						)
					)
					(number "1"
						(effects
							(font
								(size 1.27 1.27)
							)
						)
					)
				)
				(pin passive line
					(at 0 -3.81 90)
					(length 1.27)
					(name "~"
						(effects
							(font
								(size 1.27 1.27)
							)
						)
					)
					(number "2"
						(effects
							(font
								(size 1.27 1.27)
							)
						)
					)
				)
			)
		)
		(symbol "Diode:ZMMxx"
			(pin_numbers hide)
			(pin_names hide)
			(exclude_from_sim no)
			(in_bom yes)
			(on_board yes)
			(property "Reference" "D"
				(at 0 2.54 0)
				(effects
					(font
						(size 1.27 1.27)
					)
				)
			)
			(property "Value" "ZMMxx"
				(at 0 -2.54 0)
				(effects
					(font
						(size 1.27 1.27)
					)
				)
			)
			(property "Footprint" "Diode_SMD:D_MiniMELF"
				(at 0 -4.445 0)
				(effects
					(font
						(size 1.27 1.27)
					)
					(hide yes)
				)
			)
			(property "Datasheet" "https://diotec.com/tl_files/diotec/files/pdf/datasheets/zmm1.pdf"
				(at 0 0 0)
				(effects
					(font
						(size 1.27 1.27)
					)
					(hide yes)
				)
			)
			(property "Description" "500mW Zener Diode, MiniMELF"
				(at 0 0 0)
				(effects
					(font
						(size 1.27 1.27)
					)
					(hide yes)
				)
			)
			(property "ki_keywords" "zener diode"
				(at 0 0 0)
				(effects
					(font
						(size 1.27 1.27)
					)
					(hide yes)
				)
			)
			(property "ki_fp_filters" "D*MiniMELF*"
				(at 0 0 0)
				(effects
					(font
						(size 1.27 1.27)
					)
					(hide yes)
				)
			)
			(symbol "ZMMxx_0_1"
				(polyline
					(pts
						(xy 1.27 0) (xy -1.27 0)
					)
					(stroke
						(width 0)
						(type default)
					)
					(fill
						(type none)
					)
				)
				(polyline
					(pts
						(xy -1.27 -1.27) (xy -1.27 1.27) (xy -0.762 1.27)
					)
					(stroke
						(width 0.254)
						(type default)
					)
					(fill
						(type none)
					)
				)
				(polyline
					(pts
						(xy 1.27 -1.27) (xy 1.27 1.27) (xy -1.27 0) (xy 1.27 -1.27)
					)
					(stroke
						(width 0.254)
						(type default)
					)
					(fill
						(type none)
					)
				)
			)
			(symbol "ZMMxx_1_1"
				(pin passive line
					(at -3.81 0 0)
					(length 2.54)
					(name "K"
						(effects
							(font
								(size 1.27 1.27)
							)
						)
					)
					(number "1"
						(effects
							(font
								(size 1.27 1.27)
							)
						)
					)
				)
				(pin passive line
					(at 3.81 0 180)
					(length 2.54)
					(name "A"
						(effects
							(font
								(size 1.27 1.27)
							)
						)
					)
					(number "2"
						(effects
							(font
								(size 1.27 1.27)
							)
						)
					)
				)
			)
		)
		(symbol "power:GND"
			(power)
			(pin_names
				(offset 0)
			)
			(exclude_from_sim no)
			(in_bom yes)
			(on_board yes)
			(property "Reference" "#PWR"
				(at 0 -6.35 0)
				(effects
					(font
						(size 1.27 1.27)
					)
					(hide yes)
				)
			)
			(property "Value" "GND"
				(at 0 -3.81 0)
				(effects
					(font
						(size 1.27 1.27)
					)
				)
			)
			(property "Footprint" ""
				(at 0 0 0)
				(effects
					(font
						(size 1.27 1.27)
					)
					(hide yes)
				)
			)
			(property "Datasheet" ""
				(at 0 0 0)
				(effects
					(font
						(size 1.27 1.27)
					)
					(hide yes)
				)
			)
			(property "Description" "Power symbol creates a global label with name \"GND\" , ground"
				(at 0 0 0)
				(effects
					(font
						(size 1.27 1.27)
					)
					(hide yes)
				)
			)
			(property "ki_keywords" "global power"
				(at 0 0 0)
				(effects
					(font
						(size 1.27 1.27)
					)
					(hide yes)
				)
			)
			(symbol "GND_0_1"
				(polyline
					(pts
						(xy 0 0) (xy 0 -1.27) (xy 1.27 -1.27) (xy 0 -2.54) (xy -1.27 -1.27) (xy 0 -1.27)
					)
					(stroke
						(width 0)
						(type default)
					)
					(fill
						(type none)
					)
				)
			)
			(symbol "GND_1_1"
				(pin power_in line
					(at 0 0 270)
					(length 0) hide
					(name "GND"
						(effects
							(font
								(size 1.27 1.27)
							)
						)
					)
					(number "1"
						(effects
							(font
								(size 1.27 1.27)
							)
						)
					)
				)
			)
		)
		(symbol "power:VCC"
			(power)
			(pin_names
				(offset 0)
			)
			(exclude_from_sim no)
			(in_bom yes)
			(on_board yes)
			(property "Reference" "#PWR"
				(at 0 -3.81 0)
				(effects
					(font
						(size 1.27 1.27)
					)
					(hide yes)
				)
			)
			(property "Value" "VCC"
				(at 0 3.81 0)
				(effects
					(font
						(size 1.27 1.27)
					)
				)
			)
			(property "Footprint" ""
				(at 0 0 0)
				(effects
					(font
						(size 1.27 1.27)
					)
					(hide yes)
				)
			)
			(property "Datasheet" ""
				(at 0 0 0)
				(effects
					(font
						(size 1.27 1.27)
					)
					(hide yes)
				)
			)
			(property "Description" "Power symbol creates a global label with name \"VCC\""
				(at 0 0 0)
				(effects
					(font
						(size 1.27 1.27)
					)
					(hide yes)
				)
			)
			(property "ki_keywords" "global power"
				(at 0 0 0)
				(effects
					(font
						(size 1.27 1.27)
					)
					(hide yes)
				)
			)
			(symbol "VCC_0_1"
				(polyline
					(pts
						(xy -0.762 1.27) (xy 0 2.54)
					)
					(stroke
						(width 0)
						(type default)
					)
					(fill
						(type none)
					)
				)
				(polyline
					(pts
						(xy 0 0) (xy 0 2.54)
					)
					(stroke
						(width 0)
						(type default)
					)
					(fill
						(type none)
					)
				)
				(polyline
					(pts
						(xy 0 2.54) (xy 0.762 1.27)
					)
					(stroke
						(width 0)
						(type default)
					)
					(fill
						(type none)
					)
				)
			)
			(symbol "VCC_1_1"
				(pin power_in line
					(at 0 0 90)
					(length 0) hide
					(name "VCC"
						(effects
							(font
								(size 1.27 1.27)
							)
						)
					)
					(number "1"
						(effects
							(font
								(size 1.27 1.27)
							)
						)
					)
				)
			)
		)
	)
	(junction
		(at 137.795 146.05)
		(diameter 0)
		(color 0 0 0 0)
		(uuid "025f1d30-da9c-457b-b72e-ca6306f6f918")
	)
	(junction
		(at 125.095 157.48)
		(diameter 0)
		(color 0 0 0 0)
		(uuid "0d29b451-df79-4fe2-974e-3506f56119d7")
	)
	(junction
		(at 28.575 38.735)
		(diameter 0)
		(color 0 0 0 0)
		(uuid "10800715-57ca-429e-8c7f-5dc7efe0ea8a")
	)
	(junction
		(at 205.74 109.22)
		(diameter 0)
		(color 0 0 0 0)
		(uuid "25bbb6af-ba51-4bfc-807b-8ae060b55707")
	)
	(junction
		(at 229.87 78.74)
		(diameter 0)
		(color 0 0 0 0)
		(uuid "264bac69-4b7f-4fc9-9f07-8a1f8a04093f")
	)
	(junction
		(at 43.18 142.24)
		(diameter 0)
		(color 0 0 0 0)
		(uuid "2b227e49-363f-4487-830f-de533bbafa18")
	)
	(junction
		(at 167.005 45.72)
		(diameter 0)
		(color 0 0 0 0)
		(uuid "37f2a358-0492-44ef-be4f-448eac6a39be")
	)
	(junction
		(at 144.145 124.46)
		(diameter 0)
		(color 0 0 0 0)
		(uuid "43ec8418-34db-4dd5-afa5-099f40f69c96")
	)
	(junction
		(at 205.74 97.79)
		(diameter 0)
		(color 0 0 0 0)
		(uuid "52bbaa97-0534-46b0-852c-43c68a373e87")
	)
	(junction
		(at 81.915 93.345)
		(diameter 0)
		(color 0 0 0 0)
		(uuid "5f07e262-69e8-4b7b-9df0-e19fd5bbd881")
	)
	(junction
		(at 167.005 55.245)
		(diameter 0)
		(color 0 0 0 0)
		(uuid "5f130625-9769-4c33-80de-5baefdd0fff8")
	)
	(junction
		(at 43.18 125.73)
		(diameter 0)
		(color 0 0 0 0)
		(uuid "5f97c49f-a7b3-4995-a686-2e009edfe0fd")
	)
	(junction
		(at 248.285 78.74)
		(diameter 0)
		(color 0 0 0 0)
		(uuid "6949345e-f02a-4dbf-b668-907bcd88dbd1")
	)
	(junction
		(at 229.87 62.865)
		(diameter 0)
		(color 0 0 0 0)
		(uuid "6a500f7a-a190-4a9b-9351-cc968748bc6a")
	)
	(junction
		(at 109.22 140.97)
		(diameter 0)
		(color 0 0 0 0)
		(uuid "7ba8bd24-59bf-41a4-8e88-bb562281a7b3")
	)
	(junction
		(at 55.88 106.68)
		(diameter 0)
		(color 0 0 0 0)
		(uuid "80b10fd6-e21e-4feb-abf8-6df53ef36a93")
	)
	(junction
		(at 193.04 109.22)
		(diameter 0)
		(color 0 0 0 0)
		(uuid "967b1548-61d7-4ebe-8b6b-d38faecdd0b2")
	)
	(junction
		(at 256.54 44.45)
		(diameter 0)
		(color 0 0 0 0)
		(uuid "99be3f5c-b1b1-4072-82b7-f7953824196e")
	)
	(junction
		(at 144.145 111.125)
		(diameter 0)
		(color 0 0 0 0)
		(uuid "a44ce929-8751-4566-b43f-028d511e5e7b")
	)
	(junction
		(at 106.045 76.2)
		(diameter 0)
		(color 0 0 0 0)
		(uuid "a8e4a218-f065-46ca-881c-d412e916cfa7")
	)
	(junction
		(at 161.925 111.125)
		(diameter 0)
		(color 0 0 0 0)
		(uuid "ab289e4e-55c5-4663-8ef7-3c355d3cf49f")
	)
	(junction
		(at 212.09 62.865)
		(diameter 0)
		(color 0 0 0 0)
		(uuid "b03e37fa-d6e3-42c5-83e4-8e17881a1467")
	)
	(junction
		(at 134.62 45.72)
		(diameter 0)
		(color 0 0 0 0)
		(uuid "b27dd5db-5db2-46ef-9dc7-08fb9ef2236b")
	)
	(junction
		(at 137.795 157.48)
		(diameter 0)
		(color 0 0 0 0)
		(uuid "b4a0fd88-83f3-49f8-bffd-4600bbe13250")
	)
	(junction
		(at 61.595 125.73)
		(diameter 0)
		(color 0 0 0 0)
		(uuid "b990eb22-a732-4ee0-8c5b-520f50e8140a")
	)
	(junction
		(at 212.09 76.2)
		(diameter 0)
		(color 0 0 0 0)
		(uuid "bede6a9e-c376-4b43-b5b5-d1a767500162")
	)
	(junction
		(at 177.165 92.71)
		(diameter 0)
		(color 0 0 0 0)
		(uuid "c58c9522-657d-44bd-a86d-33de96528529")
	)
	(junction
		(at 175.26 127)
		(diameter 0)
		(color 0 0 0 0)
		(uuid "c720473e-a275-4293-a014-c9cea6328e45")
	)
	(junction
		(at 256.54 29.21)
		(diameter 0)
		(color 0 0 0 0)
		(uuid "c8da6d58-ec21-4985-ba42-19e6282f802f")
	)
	(junction
		(at 153.035 45.72)
		(diameter 0)
		(color 0 0 0 0)
		(uuid "cf735fbd-859e-417c-8698-5c030759e3a6")
	)
	(junction
		(at 106.045 109.22)
		(diameter 0)
		(color 0 0 0 0)
		(uuid "dfd383f4-981c-45cb-bb7d-33bffc059593")
	)
	(junction
		(at 161.925 127)
		(diameter 0)
		(color 0 0 0 0)
		(uuid "e815d394-2f25-451b-94b5-ef7a9cea571c")
	)
	(junction
		(at 81.915 109.22)
		(diameter 0)
		(color 0 0 0 0)
		(uuid "e92413b6-bb8c-405d-847d-3342eb542856")
	)
	(junction
		(at 55.88 93.345)
		(diameter 0)
		(color 0 0 0 0)
		(uuid "f0e2c3d8-1508-490b-adb2-c99515a9e920")
	)
	(junction
		(at 28.575 53.975)
		(diameter 0)
		(color 0 0 0 0)
		(uuid "f1cc9581-7c32-4735-8a8a-8e7dc7a7f1c0")
	)
	(wire
		(pts
			(xy 28.575 38.735) (xy 39.37 38.735)
		)
		(stroke
			(width 0)
			(type default)
		)
		(uuid "05124b28-8006-4831-8f95-7c25a708ed0e")
	)
	(wire
		(pts
			(xy 106.045 48.26) (xy 116.205 48.26)
		)
		(stroke
			(width 0)
			(type default)
		)
		(uuid "055d3073-3d4a-494a-932e-4d0c90e1e73f")
	)
	(wire
		(pts
			(xy 171.45 127) (xy 175.26 127)
		)
		(stroke
			(width 0)
			(type default)
		)
		(uuid "060f14c3-b9b2-4704-92a8-7021068bf22c")
	)
	(wire
		(pts
			(xy 39.37 53.975) (xy 39.37 50.165)
		)
		(stroke
			(width 0)
			(type default)
		)
		(uuid "0b085c0a-b25b-4273-893d-7fa33b65ef07")
	)
	(wire
		(pts
			(xy 212.09 62.865) (xy 212.09 52.07)
		)
		(stroke
			(width 0)
			(type default)
		)
		(uuid "0e99f105-24c1-4da9-8ad3-3934f6cce063")
	)
	(wire
		(pts
			(xy 61.595 130.81) (xy 61.595 125.73)
		)
		(stroke
			(width 0)
			(type default)
		)
		(uuid "0ec7a9fc-d852-48e9-b3b3-243138734c65")
	)
	(wire
		(pts
			(xy 144.78 146.05) (xy 144.78 129.54)
		)
		(stroke
			(width 0)
			(type default)
		)
		(uuid "0ee4a7b6-5d77-4e5c-accd-db2350478eec")
	)
	(wire
		(pts
			(xy 134.62 29.845) (xy 134.62 45.72)
		)
		(stroke
			(width 0)
			(type default)
		)
		(uuid "101c8ffd-751f-48ae-ad22-dd8c2e58e0e2")
	)
	(wire
		(pts
			(xy 50.165 106.68) (xy 55.88 106.68)
		)
		(stroke
			(width 0)
			(type default)
		)
		(uuid "10c64586-f8a5-4d49-a31f-d9119be437c3")
	)
	(wire
		(pts
			(xy 116.205 43.18) (xy 111.125 43.18)
		)
		(stroke
			(width 0)
			(type default)
		)
		(uuid "11e1ba5f-f668-4fb8-ab03-5417a36434fc")
	)
	(wire
		(pts
			(xy 193.04 99.06) (xy 193.04 97.79)
		)
		(stroke
			(width 0)
			(type default)
		)
		(uuid "13ee0417-2053-426a-a906-1ed53156d5a1")
	)
	(wire
		(pts
			(xy 161.925 100.33) (xy 161.925 111.125)
		)
		(stroke
			(width 0)
			(type default)
		)
		(uuid "141570ed-f7e5-4afb-a9c9-e96d3098b050")
	)
	(wire
		(pts
			(xy 177.165 92.71) (xy 177.165 94.615)
		)
		(stroke
			(width 0)
			(type default)
		)
		(uuid "14c55abe-03c6-4413-9e92-51c29a4bf7dd")
	)
	(wire
		(pts
			(xy 109.22 140.335) (xy 109.22 140.97)
		)
		(stroke
			(width 0)
			(type default)
		)
		(uuid "14efa543-eafc-4808-b8a3-a3ba715e8014")
	)
	(wire
		(pts
			(xy 64.77 93.345) (xy 55.88 93.345)
		)
		(stroke
			(width 0)
			(type default)
		)
		(uuid "161168fd-0394-474e-8c33-26c4aceda4b5")
	)
	(wire
		(pts
			(xy 43.18 130.81) (xy 43.18 125.73)
		)
		(stroke
			(width 0)
			(type default)
		)
		(uuid "16fe3746-30f4-4678-9765-55db2f4086d1")
	)
	(wire
		(pts
			(xy 125.095 146.05) (xy 137.795 146.05)
		)
		(stroke
			(width 0)
			(type default)
		)
		(uuid "19647d8f-92be-425d-a0ae-1c7634275c0b")
	)
	(wire
		(pts
			(xy 177.165 92.075) (xy 177.165 92.71)
		)
		(stroke
			(width 0)
			(type default)
		)
		(uuid "19b4ffcc-cda4-41ee-aedf-d60c61baef23")
	)
	(wire
		(pts
			(xy 137.795 146.05) (xy 144.78 146.05)
		)
		(stroke
			(width 0)
			(type default)
		)
		(uuid "1a0d1bf8-f0b8-4d66-810f-0fdf825ce54e")
	)
	(wire
		(pts
			(xy 161.925 111.125) (xy 161.925 127)
		)
		(stroke
			(width 0)
			(type default)
		)
		(uuid "1c27bfba-c873-424f-8953-367b0e8f1ab8")
	)
	(wire
		(pts
			(xy 242.57 78.74) (xy 248.285 78.74)
		)
		(stroke
			(width 0)
			(type default)
		)
		(uuid "1ca29986-34dc-4692-aae6-a9a7f077610b")
	)
	(wire
		(pts
			(xy 39.37 38.735) (xy 39.37 42.545)
		)
		(stroke
			(width 0)
			(type default)
		)
		(uuid "1ef1c74e-b7f3-45a7-a4df-2dcbcff864a0")
	)
	(wire
		(pts
			(xy 175.26 157.48) (xy 175.26 145.415)
		)
		(stroke
			(width 0)
			(type default)
		)
		(uuid "1ffb7a06-f9ca-41ed-8a73-35678ce3d74a")
	)
	(wire
		(pts
			(xy 267.335 29.21) (xy 267.335 33.02)
		)
		(stroke
			(width 0)
			(type default)
		)
		(uuid "21b5cd05-24d5-4542-9374-5f2ea102da76")
	)
	(wire
		(pts
			(xy 106.045 76.2) (xy 106.045 48.26)
		)
		(stroke
			(width 0)
			(type default)
		)
		(uuid "22e77393-754d-41d0-8d9d-c346146d96ec")
	)
	(wire
		(pts
			(xy 212.09 62.865) (xy 212.09 76.2)
		)
		(stroke
			(width 0)
			(type default)
		)
		(uuid "2441d26d-41f4-4dce-9386-b787305e9c75")
	)
	(wire
		(pts
			(xy 248.285 89.535) (xy 248.285 78.74)
		)
		(stroke
			(width 0)
			(type default)
		)
		(uuid "248986bd-fd8e-4b1a-846d-bfc06d6cb476")
	)
	(wire
		(pts
			(xy 167.005 55.245) (xy 153.035 55.245)
		)
		(stroke
			(width 0)
			(type default)
		)
		(uuid "25c03dae-3ed0-4226-8afb-c33e332cf596")
	)
	(wire
		(pts
			(xy 205.74 87.63) (xy 205.74 90.17)
		)
		(stroke
			(width 0)
			(type default)
		)
		(uuid "2810cc01-d0af-465a-b695-950bb8d9b260")
	)
	(wire
		(pts
			(xy 61.595 138.43) (xy 61.595 142.24)
		)
		(stroke
			(width 0)
			(type default)
		)
		(uuid "2cc636f9-3145-4c36-a823-6e9457cf16ef")
	)
	(wire
		(pts
			(xy 149.225 111.125) (xy 144.145 111.125)
		)
		(stroke
			(width 0)
			(type default)
		)
		(uuid "2d32e456-2835-4ed1-814b-4ea16138c798")
	)
	(wire
		(pts
			(xy 120.65 140.97) (xy 120.65 135.89)
		)
		(stroke
			(width 0)
			(type default)
		)
		(uuid "2e97f388-6177-420f-be54-6b8774603893")
	)
	(wire
		(pts
			(xy 106.045 76.2) (xy 182.88 76.2)
		)
		(stroke
			(width 0)
			(type default)
		)
		(uuid "2ee3afe8-623e-46e2-9c96-09779b3864f3")
	)
	(wire
		(pts
			(xy 205.74 109.22) (xy 248.285 109.22)
		)
		(stroke
			(width 0)
			(type default)
		)
		(uuid "31456497-8fcf-4745-9b72-068939d1b1e7")
	)
	(wire
		(pts
			(xy 134.62 45.72) (xy 131.445 45.72)
		)
		(stroke
			(width 0)
			(type default)
		)
		(uuid "35671c33-513f-49ab-98f4-13a4983eceb5")
	)
	(wire
		(pts
			(xy 81.915 109.22) (xy 106.045 109.22)
		)
		(stroke
			(width 0)
			(type default)
		)
		(uuid "367f5a49-97b9-4608-8820-31a0ab3119fa")
	)
	(wire
		(pts
			(xy 137.795 160.02) (xy 137.795 157.48)
		)
		(stroke
			(width 0)
			(type default)
		)
		(uuid "3bbe828a-dc6f-4bf7-8690-2328f7e22bb8")
	)
	(wire
		(pts
			(xy 188.595 92.71) (xy 188.595 87.63)
		)
		(stroke
			(width 0)
			(type default)
		)
		(uuid "3c0ba436-9aea-46d2-a3c9-01594091b558")
	)
	(wire
		(pts
			(xy 137.795 157.48) (xy 125.095 157.48)
		)
		(stroke
			(width 0)
			(type default)
		)
		(uuid "40865606-79b9-4b10-9a52-18220ae2b8ca")
	)
	(wire
		(pts
			(xy 61.595 142.24) (xy 43.18 142.24)
		)
		(stroke
			(width 0)
			(type default)
		)
		(uuid "43334726-c46e-4305-b53a-ba4841fdbb43")
	)
	(wire
		(pts
			(xy 229.87 78.74) (xy 227.965 78.74)
		)
		(stroke
			(width 0)
			(type default)
		)
		(uuid "49d14bf1-eac1-4492-b34d-d110978f3130")
	)
	(wire
		(pts
			(xy 111.125 43.18) (xy 111.125 29.845)
		)
		(stroke
			(width 0)
			(type default)
		)
		(uuid "4ef11dac-831c-4229-b617-4c81a9a7ab4b")
	)
	(wire
		(pts
			(xy 153.035 55.245) (xy 153.035 53.975)
		)
		(stroke
			(width 0)
			(type default)
		)
		(uuid "4f7cbe5e-f27f-4799-aafc-80af25cc1af4")
	)
	(wire
		(pts
			(xy 224.79 62.865) (xy 229.87 62.865)
		)
		(stroke
			(width 0)
			(type default)
		)
		(uuid "53bfae2e-bbbf-4c78-8a42-eb3ac13eed0c")
	)
	(wire
		(pts
			(xy 137.795 157.48) (xy 175.26 157.48)
		)
		(stroke
			(width 0)
			(type default)
		)
		(uuid "57085488-67f6-482c-b94b-d362dff8dfdf")
	)
	(wire
		(pts
			(xy 109.22 140.97) (xy 109.22 142.24)
		)
		(stroke
			(width 0)
			(type default)
		)
		(uuid "5ad9a198-e6fe-48cb-9bce-4a5f5164d03b")
	)
	(wire
		(pts
			(xy 106.045 124.46) (xy 114.935 124.46)
		)
		(stroke
			(width 0)
			(type default)
		)
		(uuid "5cdc4812-cb58-4aa5-80a5-6c66fcc525f6")
	)
	(wire
		(pts
			(xy 167.005 55.245) (xy 167.005 53.34)
		)
		(stroke
			(width 0)
			(type default)
		)
		(uuid "5cec851d-2e49-407f-b1f8-7b2e8ab46b4a")
	)
	(wire
		(pts
			(xy 137.16 45.72) (xy 134.62 45.72)
		)
		(stroke
			(width 0)
			(type default)
		)
		(uuid "5ebc38e8-7f66-433c-a2d0-62c1dc2f6765")
	)
	(wire
		(pts
			(xy 144.78 45.72) (xy 153.035 45.72)
		)
		(stroke
			(width 0)
			(type default)
		)
		(uuid "5f4aa4c1-ec48-464a-93ae-7f8d039ffa17")
	)
	(wire
		(pts
			(xy 207.01 76.2) (xy 212.09 76.2)
		)
		(stroke
			(width 0)
			(type default)
		)
		(uuid "61581721-4c23-4e6b-9cc4-1566ea4eece8")
	)
	(wire
		(pts
			(xy 167.005 45.72) (xy 173.99 45.72)
		)
		(stroke
			(width 0)
			(type default)
		)
		(uuid "63ca02d2-2ba6-4c40-886a-3cc25269d70d")
	)
	(wire
		(pts
			(xy 139.065 124.46) (xy 144.145 124.46)
		)
		(stroke
			(width 0)
			(type default)
		)
		(uuid "6442ca16-7ddc-43fe-be7e-89bec4ecf06d")
	)
	(wire
		(pts
			(xy 175.26 137.795) (xy 175.26 127)
		)
		(stroke
			(width 0)
			(type default)
		)
		(uuid "65bcf206-4b60-4968-93b1-64047ae46608")
	)
	(wire
		(pts
			(xy 106.045 109.22) (xy 106.045 124.46)
		)
		(stroke
			(width 0)
			(type default)
		)
		(uuid "66383150-02a7-4a98-a003-758568b58911")
	)
	(wire
		(pts
			(xy 55.88 106.68) (xy 61.595 106.68)
		)
		(stroke
			(width 0)
			(type default)
		)
		(uuid "6c93e7d3-9014-4c50-8550-553742611f0c")
	)
	(wire
		(pts
			(xy 156.845 100.33) (xy 161.925 100.33)
		)
		(stroke
			(width 0)
			(type default)
		)
		(uuid "6dfa06f0-f0d2-434a-b788-5e2fe7ccd4fe")
	)
	(wire
		(pts
			(xy 81.915 93.345) (xy 81.915 109.22)
		)
		(stroke
			(width 0)
			(type default)
		)
		(uuid "7210e3f6-1ab2-401f-a619-eb169a3afcb2")
	)
	(wire
		(pts
			(xy 177.165 92.71) (xy 188.595 92.71)
		)
		(stroke
			(width 0)
			(type default)
		)
		(uuid "7254fb2a-79f0-4263-a9f1-bb97d5b1a4c3")
	)
	(wire
		(pts
			(xy 205.74 111.76) (xy 205.74 109.22)
		)
		(stroke
			(width 0)
			(type default)
		)
		(uuid "765b3398-5f0b-4c42-a648-c9e2966b4f8c")
	)
	(wire
		(pts
			(xy 120.65 135.89) (xy 137.795 135.89)
		)
		(stroke
			(width 0)
			(type default)
		)
		(uuid "7ac46cb5-512f-4cec-8645-62731831eeb5")
	)
	(wire
		(pts
			(xy 199.39 76.2) (xy 190.5 76.2)
		)
		(stroke
			(width 0)
			(type default)
		)
		(uuid "7b9bb157-cddc-4052-8c8e-6f544e2cb396")
	)
	(wire
		(pts
			(xy 144.145 100.33) (xy 149.225 100.33)
		)
		(stroke
			(width 0)
			(type default)
		)
		(uuid "7c183986-a760-4209-9050-acb2c6c96eb8")
	)
	(wire
		(pts
			(xy 125.095 147.32) (xy 125.095 146.05)
		)
		(stroke
			(width 0)
			(type default)
		)
		(uuid "7d8ec5c6-0650-4911-a1fe-358593af0715")
	)
	(wire
		(pts
			(xy 153.035 45.72) (xy 153.035 46.355)
		)
		(stroke
			(width 0)
			(type default)
		)
		(uuid "7e426108-4650-4930-9ca8-69172e0bc8fe")
	)
	(wire
		(pts
			(xy 217.17 62.865) (xy 212.09 62.865)
		)
		(stroke
			(width 0)
			(type default)
		)
		(uuid "80683e6e-8b6a-4171-96bb-dcf41f546c8d")
	)
	(wire
		(pts
			(xy 161.925 127) (xy 160.02 127)
		)
		(stroke
			(width 0)
			(type default)
		)
		(uuid "814fc572-a662-434a-9ca2-5314cf40044c")
	)
	(wire
		(pts
			(xy 137.795 157.48) (xy 137.795 153.67)
		)
		(stroke
			(width 0)
			(type default)
		)
		(uuid "828fd224-5d47-41a3-b3f3-4358b19f9d17")
	)
	(wire
		(pts
			(xy 248.285 78.74) (xy 253.365 78.74)
		)
		(stroke
			(width 0)
			(type default)
		)
		(uuid "83240748-551f-475a-822f-8719b4f616bd")
	)
	(wire
		(pts
			(xy 125.095 157.48) (xy 109.22 157.48)
		)
		(stroke
			(width 0)
			(type default)
		)
		(uuid "845173e8-4af5-458d-a485-072e0454e6f3")
	)
	(wire
		(pts
			(xy 229.87 52.07) (xy 229.87 62.865)
		)
		(stroke
			(width 0)
			(type default)
		)
		(uuid "8834dbcd-34ee-47f9-b2c2-3a57b38479f7")
	)
	(wire
		(pts
			(xy 125.095 154.94) (xy 125.095 157.48)
		)
		(stroke
			(width 0)
			(type default)
		)
		(uuid "88883117-0ea9-41e0-81c7-1cf933ee669d")
	)
	(wire
		(pts
			(xy 55.88 81.28) (xy 55.88 93.345)
		)
		(stroke
			(width 0)
			(type default)
		)
		(uuid "89e8ee95-f3d8-4c27-abf3-49088866e08a")
	)
	(wire
		(pts
			(xy 193.04 97.79) (xy 205.74 97.79)
		)
		(stroke
			(width 0)
			(type default)
		)
		(uuid "8a754d1c-da4f-4593-ac71-2b56e9eda0c8")
	)
	(wire
		(pts
			(xy 144.145 124.46) (xy 144.78 124.46)
		)
		(stroke
			(width 0)
			(type default)
		)
		(uuid "9394b92d-6a54-4411-907c-1c0f6881c1f9")
	)
	(wire
		(pts
			(xy 205.74 109.22) (xy 205.74 105.41)
		)
		(stroke
			(width 0)
			(type default)
		)
		(uuid "93ae80da-639c-498d-bc3c-90c790b89c51")
	)
	(wire
		(pts
			(xy 72.39 93.345) (xy 81.915 93.345)
		)
		(stroke
			(width 0)
			(type default)
		)
		(uuid "94bbe6b6-030b-428f-acab-581eef9cef0f")
	)
	(wire
		(pts
			(xy 153.035 45.72) (xy 167.005 45.72)
		)
		(stroke
			(width 0)
			(type default)
		)
		(uuid "97ae8033-f804-4237-ba3d-5631d29795af")
	)
	(wire
		(pts
			(xy 106.045 109.22) (xy 106.045 76.2)
		)
		(stroke
			(width 0)
			(type default)
		)
		(uuid "9914119b-ec37-4e7b-bc5d-1a05db6f5e2e")
	)
	(wire
		(pts
			(xy 188.595 87.63) (xy 205.74 87.63)
		)
		(stroke
			(width 0)
			(type default)
		)
		(uuid "9c09137c-1aa1-4e90-9275-3ef282275e92")
	)
	(wire
		(pts
			(xy 43.18 125.73) (xy 61.595 125.73)
		)
		(stroke
			(width 0)
			(type default)
		)
		(uuid "a11470fe-7baa-44c2-8a4f-36c6d657146a")
	)
	(wire
		(pts
			(xy 111.125 29.845) (xy 134.62 29.845)
		)
		(stroke
			(width 0)
			(type default)
		)
		(uuid "a1f36a7e-63c3-44b0-b78c-cb06caedf91b")
	)
	(wire
		(pts
			(xy 212.725 97.79) (xy 212.725 81.28)
		)
		(stroke
			(width 0)
			(type default)
		)
		(uuid "a389dd90-1316-4727-8d28-035dd4587a47")
	)
	(wire
		(pts
			(xy 156.845 111.125) (xy 161.925 111.125)
		)
		(stroke
			(width 0)
			(type default)
		)
		(uuid "a5da2972-be1e-44be-8c2a-99267f0635f1")
	)
	(wire
		(pts
			(xy 256.54 44.45) (xy 267.335 44.45)
		)
		(stroke
			(width 0)
			(type default)
		)
		(uuid "a7fb3b97-3963-4370-bac2-8112273669f1")
	)
	(wire
		(pts
			(xy 72.39 81.28) (xy 81.915 81.28)
		)
		(stroke
			(width 0)
			(type default)
		)
		(uuid "abf515d4-166a-4769-95b8-927e67ee1971")
	)
	(wire
		(pts
			(xy 205.74 109.22) (xy 193.04 109.22)
		)
		(stroke
			(width 0)
			(type default)
		)
		(uuid "adce12d8-ca23-475d-bc3b-bedafa335d49")
	)
	(wire
		(pts
			(xy 109.22 140.97) (xy 120.65 140.97)
		)
		(stroke
			(width 0)
			(type default)
		)
		(uuid "ae0f4dcd-971e-4595-8666-44397ecead83")
	)
	(wire
		(pts
			(xy 248.285 109.22) (xy 248.285 97.155)
		)
		(stroke
			(width 0)
			(type default)
		)
		(uuid "b4851ab2-cee6-4b99-b7ee-d7ced99aae3b")
	)
	(wire
		(pts
			(xy 212.09 76.2) (xy 212.725 76.2)
		)
		(stroke
			(width 0)
			(type default)
		)
		(uuid "b84eda08-9d9d-4443-9b68-8ab317591ba0")
	)
	(wire
		(pts
			(xy 167.005 56.515) (xy 167.005 55.245)
		)
		(stroke
			(width 0)
			(type default)
		)
		(uuid "b986d761-b5bf-4f1f-b9ff-a3b9d34230fe")
	)
	(wire
		(pts
			(xy 76.835 109.22) (xy 81.915 109.22)
		)
		(stroke
			(width 0)
			(type default)
		)
		(uuid "b9e023c3-7241-4c2e-a359-32b61fba8798")
	)
	(wire
		(pts
			(xy 224.79 52.07) (xy 229.87 52.07)
		)
		(stroke
			(width 0)
			(type default)
		)
		(uuid "bc4cfa5e-6745-4bf9-9d50-d7008e92a58c")
	)
	(wire
		(pts
			(xy 55.88 93.345) (xy 55.88 106.68)
		)
		(stroke
			(width 0)
			(type default)
		)
		(uuid "bc9c96dc-015f-449c-acbc-9aa465b148fd")
	)
	(wire
		(pts
			(xy 137.795 135.89) (xy 137.795 138.43)
		)
		(stroke
			(width 0)
			(type default)
		)
		(uuid "c1173632-7371-46d1-a121-79931fb2422f")
	)
	(wire
		(pts
			(xy 43.18 142.24) (xy 43.18 138.43)
		)
		(stroke
			(width 0)
			(type default)
		)
		(uuid "c1aef09a-8f44-4188-adb4-18af19152da7")
	)
	(wire
		(pts
			(xy 43.18 123.19) (xy 43.18 125.73)
		)
		(stroke
			(width 0)
			(type default)
		)
		(uuid "c6c4a3b7-0b19-42d2-a97f-18f26642ef77")
	)
	(wire
		(pts
			(xy 161.925 127) (xy 163.83 127)
		)
		(stroke
			(width 0)
			(type default)
		)
		(uuid "c71c413a-90c4-4cb0-a32b-a9d40ee4da4f")
	)
	(wire
		(pts
			(xy 55.88 81.28) (xy 64.77 81.28)
		)
		(stroke
			(width 0)
			(type default)
		)
		(uuid "c88f8b87-2bee-4526-9a18-f4ef2b679505")
	)
	(wire
		(pts
			(xy 28.575 53.975) (xy 39.37 53.975)
		)
		(stroke
			(width 0)
			(type default)
		)
		(uuid "d4d64551-962f-43a8-ad3c-5be9b4a0df74")
	)
	(wire
		(pts
			(xy 229.87 78.74) (xy 234.95 78.74)
		)
		(stroke
			(width 0)
			(type default)
		)
		(uuid "d68d41f0-f599-493c-bff2-0584648c7ba3")
	)
	(wire
		(pts
			(xy 109.22 149.86) (xy 109.22 157.48)
		)
		(stroke
			(width 0)
			(type default)
		)
		(uuid "d861125b-742a-41c5-984d-648e5e2dd22c")
	)
	(wire
		(pts
			(xy 205.74 97.79) (xy 212.725 97.79)
		)
		(stroke
			(width 0)
			(type default)
		)
		(uuid "db505ea9-a378-49c7-b38c-600a450e9427")
	)
	(wire
		(pts
			(xy 131.445 124.46) (xy 122.555 124.46)
		)
		(stroke
			(width 0)
			(type default)
		)
		(uuid "dcc2dc67-fe70-4e99-bf48-aff7ff390890")
	)
	(wire
		(pts
			(xy 61.595 111.76) (xy 61.595 125.73)
		)
		(stroke
			(width 0)
			(type default)
		)
		(uuid "dffcd295-83fe-494a-b1c4-6dfc9519ef4e")
	)
	(wire
		(pts
			(xy 81.915 81.28) (xy 81.915 93.345)
		)
		(stroke
			(width 0)
			(type default)
		)
		(uuid "e25e13c3-9931-4c02-93cc-015e4b1a1fee")
	)
	(wire
		(pts
			(xy 39.37 106.68) (xy 42.545 106.68)
		)
		(stroke
			(width 0)
			(type default)
		)
		(uuid "e7ad86d4-c963-4974-a720-b2e0622e40e8")
	)
	(wire
		(pts
			(xy 256.54 29.21) (xy 267.335 29.21)
		)
		(stroke
			(width 0)
			(type default)
		)
		(uuid "e986944d-43c4-4aa5-8702-176869345842")
	)
	(wire
		(pts
			(xy 144.145 111.125) (xy 144.145 124.46)
		)
		(stroke
			(width 0)
			(type default)
		)
		(uuid "ed67fc78-6d7f-4e4f-bb09-8f9dba7657de")
	)
	(wire
		(pts
			(xy 144.145 111.125) (xy 144.145 100.33)
		)
		(stroke
			(width 0)
			(type default)
		)
		(uuid "f0490839-77b3-493f-adb1-7723e44ec53d")
	)
	(wire
		(pts
			(xy 212.09 52.07) (xy 217.17 52.07)
		)
		(stroke
			(width 0)
			(type default)
		)
		(uuid "f1112d33-2f2d-4c54-adf2-1354aded529d")
	)
	(wire
		(pts
			(xy 193.04 106.68) (xy 193.04 109.22)
		)
		(stroke
			(width 0)
			(type default)
		)
		(uuid "f2bcf646-5eed-49de-bdc1-aafa1e65cfc4")
	)
	(wire
		(pts
			(xy 177.165 102.235) (xy 177.165 109.22)
		)
		(stroke
			(width 0)
			(type default)
		)
		(uuid "f3f600ad-2d11-4d45-af1d-a2edcbdf4832")
	)
	(wire
		(pts
			(xy 175.26 127) (xy 179.07 127)
		)
		(stroke
			(width 0)
			(type default)
		)
		(uuid "f5497a00-60f5-4c3d-8458-216b5a08863c")
	)
	(wire
		(pts
			(xy 267.335 44.45) (xy 267.335 40.64)
		)
		(stroke
			(width 0)
			(type default)
		)
		(uuid "f5ab45a4-b6aa-4972-be0a-760ca107ee97")
	)
	(wire
		(pts
			(xy 229.87 62.865) (xy 229.87 78.74)
		)
		(stroke
			(width 0)
			(type default)
		)
		(uuid "f957d9cf-bc5e-4770-96e1-2cdfa08ed054")
	)
	(wire
		(pts
			(xy 193.04 109.22) (xy 177.165 109.22)
		)
		(stroke
			(width 0)
			(type default)
		)
		(uuid "fdf1269e-d9b6-4b84-8381-a4e2502b1b7a")
	)
	(text "Inspired by:\nhttps://github.com/ozel/DIY_particle_detector/blob/master/hardware/V1.2/documentation/DIY%20particle%20detector%20schematic%20v1-2.pdf"
		(exclude_from_sim no)
		(at 24.765 187.96 0)
		(effects
			(font
				(size 1.27 1.27)
			)
			(justify left bottom)
		)
		(uuid "1caea77d-af30-4651-8915-ff5e2135977d")
	)
	(text "TODO: Think about voltage reach of OpAmp!\n\nTLV272? MCP6232?"
		(exclude_from_sim no)
		(at 19.05 27.305 0)
		(effects
			(font
				(size 1.27 1.27)
			)
			(justify left bottom)
		)
		(uuid "1de8532b-7471-4504-97de-2a8672c55a45")
	)
	(text "5V -> 3V3"
		(exclude_from_sim no)
		(at 26.035 117.475 0)
		(effects
			(font
				(size 1.27 1.27)
			)
			(justify left bottom)
		)
		(uuid "5daad098-e45b-4031-8c87-eabf388e3ae1")
	)
	(text "CJ431 Voltage reference as alternative"
		(exclude_from_sim no)
		(at 69.215 23.495 0)
		(effects
			(font
				(size 1.27 1.27)
			)
			(justify left bottom)
		)
		(uuid "6feb2ecb-9cdb-4f86-b1f6-e8a123ac57c1")
	)
	(text "10pF is the smallest\nbasic component at JLC\n10 MOhm the largest R"
		(exclude_from_sim no)
		(at 57.785 69.215 0)
		(effects
			(font
				(size 1.27 1.27)
			)
			(justify left bottom)
		)
		(uuid "87f02a8d-1065-44a3-973d-3379f80000a1")
	)
	(text "Biased at 3V\n=> good for ADC"
		(exclude_from_sim no)
		(at 215.265 99.695 0)
		(effects
			(font
				(size 1.27 1.27)
			)
			(justify left bottom)
		)
		(uuid "9fc28ddd-c81b-435c-b317-0acffd61d600")
	)
	(text "Biased at 3V\n=> good for ADC"
		(exclude_from_sim no)
		(at 147.32 147.955 0)
		(effects
			(font
				(size 1.27 1.27)
			)
			(justify left bottom)
		)
		(uuid "9fde70ff-1c1a-47b8-9ff5-63e251066f06")
	)
	(text "R = (5V - 3.3V) / 5 mA = 370 Ohm"
		(exclude_from_sim no)
		(at 36.195 153.67 0)
		(effects
			(font
				(size 1.27 1.27)
			)
			(justify left bottom)
		)
		(uuid "b80538f2-beb9-47cb-b8af-dd5d109a4e2c")
	)
	(text "LM358: 3V .. 30V"
		(exclude_from_sim no)
		(at 259.715 26.67 0)
		(effects
			(font
				(size 1.27 1.27)
			)
			(justify left bottom)
		)
		(uuid "feba4f32-0523-4b6c-b5c5-0444ca2e547b")
	)
	(hierarchical_label "out_dc"
		(shape output)
		(at 173.99 45.72 0)
		(fields_autoplaced yes)
		(effects
			(font
				(size 1.27 1.27)
			)
			(justify left)
		)
		(uuid "00613b86-1466-4450-9bc0-1e90a0c2ee13")
	)
	(hierarchical_label "out"
		(shape output)
		(at 179.07 127 0)
		(fields_autoplaced yes)
		(effects
			(font
				(size 1.27 1.27)
			)
			(justify left)
		)
		(uuid "3b0d9ed5-e34c-432c-821d-75ecc4dd857b")
	)
	(hierarchical_label "out_low_gain"
		(shape output)
		(at 253.365 78.74 0)
		(fields_autoplaced yes)
		(effects
			(font
				(size 1.27 1.27)
			)
			(justify left)
		)
		(uuid "dbccdca9-2208-4a9e-97b7-4dc0aab8ded8")
	)
	(hierarchical_label "Diodes"
		(shape bidirectional)
		(at 39.37 106.68 180)
		(fields_autoplaced yes)
		(effects
			(font
				(size 1.27 1.27)
			)
			(justify right)
		)
		(uuid "fb74673f-b08d-4265-aa1f-40e31f4c9ef9")
	)
	(symbol
		(lib_id "Device:R")
		(at 68.58 93.345 270)
		(unit 1)
		(exclude_from_sim no)
		(in_bom yes)
		(on_board yes)
		(dnp no)
		(fields_autoplaced yes)
		(uuid "00155a6c-c35f-4605-998d-9a0f2322921f")
		(property "Reference" "R23"
			(at 68.58 87.63 90)
			(effects
				(font
					(size 1.27 1.27)
				)
			)
		)
		(property "Value" "22M"
			(at 68.58 90.17 90)
			(effects
				(font
					(size 1.27 1.27)
				)
			)
		)
		(property "Footprint" "Resistor_SMD:R_0603_1608Metric"
			(at 68.58 91.567 90)
			(effects
				(font
					(size 1.27 1.27)
				)
				(hide yes)
			)
		)
		(property "Datasheet" "~"
			(at 68.58 93.345 0)
			(effects
				(font
					(size 1.27 1.27)
				)
				(hide yes)
			)
		)
		(property "Description" ""
			(at 68.58 93.345 0)
			(effects
				(font
					(size 1.27 1.27)
				)
				(hide yes)
			)
		)
		(pin "1"
			(uuid "4c2548bb-e75f-49c4-8c21-d87fdc35c91a")
		)
		(pin "2"
			(uuid "e1cb908e-cdc2-4bd6-b217-d870e3765835")
		)
		(instances
			(project "betaBoard"
				(path "/3d37b943-9a24-43ad-9fbf-b901b38695ce/a19c94be-85f2-45d0-b8ae-fe772296c136"
					(reference "R23")
					(unit 1)
				)
			)
		)
	)
	(symbol
		(lib_id "Device:C")
		(at 186.69 76.2 90)
		(mirror x)
		(unit 1)
		(exclude_from_sim no)
		(in_bom yes)
		(on_board yes)
		(dnp no)
		(fields_autoplaced yes)
		(uuid "02440558-5798-4e56-8060-c8127ddce7ec")
		(property "Reference" "C19"
			(at 186.69 69.215 90)
			(effects
				(font
					(size 1.27 1.27)
				)
			)
		)
		(property "Value" "100n"
			(at 186.69 71.755 90)
			(effects
				(font
					(size 1.27 1.27)
				)
			)
		)
		(property "Footprint" "Capacitor_SMD:C_0603_1608Metric"
			(at 190.5 77.1652 0)
			(effects
				(font
					(size 1.27 1.27)
				)
				(hide yes)
			)
		)
		(property "Datasheet" "~"
			(at 186.69 76.2 0)
			(effects
				(font
					(size 1.27 1.27)
				)
				(hide yes)
			)
		)
		(property "Description" ""
			(at 186.69 76.2 0)
			(effects
				(font
					(size 1.27 1.27)
				)
				(hide yes)
			)
		)
		(pin "1"
			(uuid "f254c0bd-1e0b-462c-98dc-6c80a9f11af4")
		)
		(pin "2"
			(uuid "22a16ba1-7ec6-4cb9-bd63-22a0bdf6f778")
		)
		(instances
			(project "betaBoard"
				(path "/3d37b943-9a24-43ad-9fbf-b901b38695ce/a19c94be-85f2-45d0-b8ae-fe772296c136"
					(reference "C19")
					(unit 1)
				)
			)
		)
	)
	(symbol
		(lib_id "Device:R")
		(at 205.74 93.98 180)
		(unit 1)
		(exclude_from_sim no)
		(in_bom yes)
		(on_board yes)
		(dnp no)
		(fields_autoplaced yes)
		(uuid "03d571e8-2518-4566-8de1-85305888ba7a")
		(property "Reference" "R18"
			(at 207.645 92.71 0)
			(effects
				(font
					(size 1.27 1.27)
				)
				(justify right)
			)
		)
		(property "Value" "10k"
			(at 207.645 95.25 0)
			(effects
				(font
					(size 1.27 1.27)
				)
				(justify right)
			)
		)
		(property "Footprint" "Resistor_SMD:R_0603_1608Metric"
			(at 207.518 93.98 90)
			(effects
				(font
					(size 1.27 1.27)
				)
				(hide yes)
			)
		)
		(property "Datasheet" "~"
			(at 205.74 93.98 0)
			(effects
				(font
					(size 1.27 1.27)
				)
				(hide yes)
			)
		)
		(property "Description" ""
			(at 205.74 93.98 0)
			(effects
				(font
					(size 1.27 1.27)
				)
				(hide yes)
			)
		)
		(pin "1"
			(uuid "67cb9265-f75c-462d-a0a2-10657b635efb")
		)
		(pin "2"
			(uuid "6cdf9f48-6456-425b-932e-81215ca1527a")
		)
		(instances
			(project "betaBoard"
				(path "/3d37b943-9a24-43ad-9fbf-b901b38695ce/a19c94be-85f2-45d0-b8ae-fe772296c136"
					(reference "R18")
					(unit 1)
				)
			)
		)
	)
	(symbol
		(lib_id "power:VCC")
		(at 109.22 132.715 0)
		(unit 1)
		(exclude_from_sim no)
		(in_bom yes)
		(on_board yes)
		(dnp no)
		(fields_autoplaced yes)
		(uuid "09a37bca-df3d-47a2-9705-5bede4120e15")
		(property "Reference" "#PWR02"
			(at 109.22 136.525 0)
			(effects
				(font
					(size 1.27 1.27)
				)
				(hide yes)
			)
		)
		(property "Value" "VCC"
			(at 109.22 127.635 0)
			(effects
				(font
					(size 1.27 1.27)
				)
			)
		)
		(property "Footprint" ""
			(at 109.22 132.715 0)
			(effects
				(font
					(size 1.27 1.27)
				)
				(hide yes)
			)
		)
		(property "Datasheet" ""
			(at 109.22 132.715 0)
			(effects
				(font
					(size 1.27 1.27)
				)
				(hide yes)
			)
		)
		(property "Description" ""
			(at 109.22 132.715 0)
			(effects
				(font
					(size 1.27 1.27)
				)
				(hide yes)
			)
		)
		(pin "1"
			(uuid "68925490-a508-4895-ba1d-c39109fc80bc")
		)
		(instances
			(project "betaBoard"
				(path "/3d37b943-9a24-43ad-9fbf-b901b38695ce/a19c94be-85f2-45d0-b8ae-fe772296c136"
					(reference "#PWR02")
					(unit 1)
				)
			)
		)
	)
	(symbol
		(lib_id "power:GND")
		(at 137.795 160.02 0)
		(unit 1)
		(exclude_from_sim no)
		(in_bom yes)
		(on_board yes)
		(dnp no)
		(fields_autoplaced yes)
		(uuid "0b7ad7a5-78fe-42b0-b5b0-3aa5d83d6454")
		(property "Reference" "#PWR040"
			(at 137.795 166.37 0)
			(effects
				(font
					(size 1.27 1.27)
				)
				(hide yes)
			)
		)
		(property "Value" "GND"
			(at 137.795 164.465 0)
			(effects
				(font
					(size 1.27 1.27)
				)
			)
		)
		(property "Footprint" ""
			(at 137.795 160.02 0)
			(effects
				(font
					(size 1.27 1.27)
				)
				(hide yes)
			)
		)
		(property "Datasheet" ""
			(at 137.795 160.02 0)
			(effects
				(font
					(size 1.27 1.27)
				)
				(hide yes)
			)
		)
		(property "Description" ""
			(at 137.795 160.02 0)
			(effects
				(font
					(size 1.27 1.27)
				)
				(hide yes)
			)
		)
		(pin "1"
			(uuid "82c49875-3d19-49e7-aa89-c568f94c17b3")
		)
		(instances
			(project "betaBoard"
				(path "/3d37b943-9a24-43ad-9fbf-b901b38695ce/a19c94be-85f2-45d0-b8ae-fe772296c136"
					(reference "#PWR040")
					(unit 1)
				)
			)
		)
	)
	(symbol
		(lib_id "Diode:ZMMxx")
		(at 248.285 93.345 270)
		(unit 1)
		(exclude_from_sim no)
		(in_bom yes)
		(on_board yes)
		(dnp no)
		(fields_autoplaced yes)
		(uuid "15ff43f2-d16f-43c8-b56b-8590298cbb30")
		(property "Reference" "D10"
			(at 250.825 92.0749 90)
			(effects
				(font
					(size 1.27 1.27)
				)
				(justify left)
			)
		)
		(property "Value" "ZMM3V3-M"
			(at 250.825 94.6149 90)
			(effects
				(font
					(size 1.27 1.27)
				)
				(justify left)
			)
		)
		(property "Footprint" "Diode_SMD:D_MiniMELF"
			(at 243.84 93.345 0)
			(effects
				(font
					(size 1.27 1.27)
				)
				(hide yes)
			)
		)
		(property "Datasheet" "https://diotec.com/tl_files/diotec/files/pdf/datasheets/zmm1.pdf"
			(at 248.285 93.345 0)
			(effects
				(font
					(size 1.27 1.27)
				)
				(hide yes)
			)
		)
		(property "Description" ""
			(at 248.285 93.345 0)
			(effects
				(font
					(size 1.27 1.27)
				)
				(hide yes)
			)
		)
		(pin "1"
			(uuid "d8df6bcf-7fa5-4c06-a278-8c2a81fd0764")
		)
		(pin "2"
			(uuid "bcb18ac1-79ac-46bf-ab59-7ca6ccc10ba6")
		)
		(instances
			(project "betaBoard"
				(path "/3d37b943-9a24-43ad-9fbf-b901b38695ce/a19c94be-85f2-45d0-b8ae-fe772296c136"
					(reference "D10")
					(unit 1)
				)
			)
		)
	)
	(symbol
		(lib_id "power:VCC")
		(at 177.165 84.455 0)
		(unit 1)
		(exclude_from_sim no)
		(in_bom yes)
		(on_board yes)
		(dnp no)
		(fields_autoplaced yes)
		(uuid "1790e6e2-33c9-4a17-b6ce-f77867ed0ebd")
		(property "Reference" "#PWR012"
			(at 177.165 88.265 0)
			(effects
				(font
					(size 1.27 1.27)
				)
				(hide yes)
			)
		)
		(property "Value" "VCC"
			(at 177.165 79.375 0)
			(effects
				(font
					(size 1.27 1.27)
				)
			)
		)
		(property "Footprint" ""
			(at 177.165 84.455 0)
			(effects
				(font
					(size 1.27 1.27)
				)
				(hide yes)
			)
		)
		(property "Datasheet" ""
			(at 177.165 84.455 0)
			(effects
				(font
					(size 1.27 1.27)
				)
				(hide yes)
			)
		)
		(property "Description" ""
			(at 177.165 84.455 0)
			(effects
				(font
					(size 1.27 1.27)
				)
				(hide yes)
			)
		)
		(pin "1"
			(uuid "1898d6e6-8844-45e6-8971-8a21bb478c49")
		)
		(instances
			(project "betaBoard"
				(path "/3d37b943-9a24-43ad-9fbf-b901b38695ce/a19c94be-85f2-45d0-b8ae-fe772296c136"
					(reference "#PWR012")
					(unit 1)
				)
			)
		)
	)
	(symbol
		(lib_id "Device:R")
		(at 203.2 76.2 270)
		(unit 1)
		(exclude_from_sim no)
		(in_bom yes)
		(on_board yes)
		(dnp no)
		(fields_autoplaced yes)
		(uuid "1843ea96-0871-46d6-a41d-f3cb318f1aeb")
		(property "Reference" "R17"
			(at 203.2 70.485 90)
			(effects
				(font
					(size 1.27 1.27)
				)
			)
		)
		(property "Value" "1k"
			(at 203.2 73.025 90)
			(effects
				(font
					(size 1.27 1.27)
				)
			)
		)
		(property "Footprint" "Resistor_SMD:R_0603_1608Metric"
			(at 203.2 74.422 90)
			(effects
				(font
					(size 1.27 1.27)
				)
				(hide yes)
			)
		)
		(property "Datasheet" "~"
			(at 203.2 76.2 0)
			(effects
				(font
					(size 1.27 1.27)
				)
				(hide yes)
			)
		)
		(property "Description" ""
			(at 203.2 76.2 0)
			(effects
				(font
					(size 1.27 1.27)
				)
				(hide yes)
			)
		)
		(pin "1"
			(uuid "10a7b9c3-5762-4415-8cd8-b2b082bee930")
		)
		(pin "2"
			(uuid "6dcde35a-fdd1-46ac-9a40-3b51b337b843")
		)
		(instances
			(project "betaBoard"
				(path "/3d37b943-9a24-43ad-9fbf-b901b38695ce/a19c94be-85f2-45d0-b8ae-fe772296c136"
					(reference "R17")
					(unit 1)
				)
			)
		)
	)
	(symbol
		(lib_id "Device:R")
		(at 153.035 50.165 0)
		(unit 1)
		(exclude_from_sim no)
		(in_bom yes)
		(on_board yes)
		(dnp no)
		(fields_autoplaced yes)
		(uuid "1968b4c5-71cb-405f-bc30-659ac9373e69")
		(property "Reference" "R15"
			(at 155.575 48.895 0)
			(effects
				(font
					(size 1.27 1.27)
				)
				(justify left)
			)
		)
		(property "Value" "10k"
			(at 155.575 51.435 0)
			(effects
				(font
					(size 1.27 1.27)
				)
				(justify left)
			)
		)
		(property "Footprint" "Resistor_SMD:R_0603_1608Metric"
			(at 151.257 50.165 90)
			(effects
				(font
					(size 1.27 1.27)
				)
				(hide yes)
			)
		)
		(property "Datasheet" "~"
			(at 153.035 50.165 0)
			(effects
				(font
					(size 1.27 1.27)
				)
				(hide yes)
			)
		)
		(property "Description" ""
			(at 153.035 50.165 0)
			(effects
				(font
					(size 1.27 1.27)
				)
				(hide yes)
			)
		)
		(pin "1"
			(uuid "6e4c6586-de64-49e8-995f-f529a3c3ea10")
		)
		(pin "2"
			(uuid "e2561916-7f67-4094-97ea-a83f3b64eb8d")
		)
		(instances
			(project "betaBoard"
				(path "/3d37b943-9a24-43ad-9fbf-b901b38695ce/a19c94be-85f2-45d0-b8ae-fe772296c136"
					(reference "R15")
					(unit 1)
				)
			)
		)
	)
	(symbol
		(lib_id "Diode:ZMMxx")
		(at 43.18 134.62 270)
		(unit 1)
		(exclude_from_sim no)
		(in_bom yes)
		(on_board yes)
		(dnp no)
		(fields_autoplaced yes)
		(uuid "1e9b8f96-a36d-478e-87ee-7375f588055b")
		(property "Reference" "D4"
			(at 45.72 133.3499 90)
			(effects
				(font
					(size 1.27 1.27)
				)
				(justify left)
			)
		)
		(property "Value" "ZMM3V3-M"
			(at 45.72 135.8899 90)
			(effects
				(font
					(size 1.27 1.27)
				)
				(justify left)
			)
		)
		(property "Footprint" "Diode_SMD:D_MiniMELF"
			(at 38.735 134.62 0)
			(effects
				(font
					(size 1.27 1.27)
				)
				(hide yes)
			)
		)
		(property "Datasheet" "https://diotec.com/tl_files/diotec/files/pdf/datasheets/zmm1.pdf"
			(at 43.18 134.62 0)
			(effects
				(font
					(size 1.27 1.27)
				)
				(hide yes)
			)
		)
		(property "Description" ""
			(at 43.18 134.62 0)
			(effects
				(font
					(size 1.27 1.27)
				)
				(hide yes)
			)
		)
		(pin "1"
			(uuid "f7522fbc-7b0e-431a-80ee-cf928b25a190")
		)
		(pin "2"
			(uuid "e05e44fb-5bda-4ea0-ac76-647c9cd041b0")
		)
		(instances
			(project "betaBoard"
				(path "/3d37b943-9a24-43ad-9fbf-b901b38695ce/a19c94be-85f2-45d0-b8ae-fe772296c136"
					(reference "D4")
					(unit 1)
				)
			)
		)
	)
	(symbol
		(lib_id "Amplifier_Operational:LM358")
		(at 69.215 109.22 0)
		(mirror x)
		(unit 1)
		(exclude_from_sim no)
		(in_bom yes)
		(on_board yes)
		(dnp no)
		(fields_autoplaced yes)
		(uuid "21dc7376-99bb-4e78-a245-d5144ad9f8f1")
		(property "Reference" "U5"
			(at 69.215 99.06 0)
			(effects
				(font
					(size 1.27 1.27)
				)
			)
		)
		(property "Value" "MCP6232"
			(at 69.215 101.6 0)
			(effects
				(font
					(size 1.27 1.27)
				)
			)
		)
		(property "Footprint" "Package_SO:SOIC-8_3.9x4.9mm_P1.27mm"
			(at 69.215 109.22 0)
			(effects
				(font
					(size 1.27 1.27)
				)
				(hide yes)
			)
		)
		(property "Datasheet" "http://www.ti.com/lit/ds/symlink/lm2904-n.pdf"
			(at 69.215 109.22 0)
			(effects
				(font
					(size 1.27 1.27)
				)
				(hide yes)
			)
		)
		(property "Description" ""
			(at 69.215 109.22 0)
			(effects
				(font
					(size 1.27 1.27)
				)
				(hide yes)
			)
		)
		(pin "1"
			(uuid "f82aa95a-b533-487f-b3bd-3a42186950f0")
		)
		(pin "2"
			(uuid "3b327de9-e15f-4bbd-9b4a-b12a14bc4bfe")
		)
		(pin "3"
			(uuid "2362a9c1-ab15-4a4d-9b47-4a1eb2e7e475")
		)
		(pin "5"
			(uuid "b9c33d23-87b3-4f08-8ea1-303b96d14189")
		)
		(pin "6"
			(uuid "619b18f4-5c42-4eed-8684-e27d454ebccf")
		)
		(pin "7"
			(uuid "ef55aff4-bcdc-4f4d-992a-320e21caa018")
		)
		(pin "4"
			(uuid "6b965c26-9a6a-4a2c-9aa7-21cdb7528a09")
		)
		(pin "8"
			(uuid "3d419c85-6d7a-4fa4-89d8-a31b82759683")
		)
		(instances
			(project "betaBoard"
				(path "/3d37b943-9a24-43ad-9fbf-b901b38695ce/a19c94be-85f2-45d0-b8ae-fe772296c136"
					(reference "U5")
					(unit 1)
				)
			)
		)
	)
	(symbol
		(lib_id "power:GND")
		(at 256.54 44.45 0)
		(unit 1)
		(exclude_from_sim no)
		(in_bom yes)
		(on_board yes)
		(dnp no)
		(fields_autoplaced yes)
		(uuid "2549ba69-5e52-407b-89af-47190c456a6b")
		(property "Reference" "#PWR08"
			(at 256.54 50.8 0)
			(effects
				(font
					(size 1.27 1.27)
				)
				(hide yes)
			)
		)
		(property "Value" "GND"
			(at 256.54 49.53 0)
			(effects
				(font
					(size 1.27 1.27)
				)
			)
		)
		(property "Footprint" ""
			(at 256.54 44.45 0)
			(effects
				(font
					(size 1.27 1.27)
				)
				(hide yes)
			)
		)
		(property "Datasheet" ""
			(at 256.54 44.45 0)
			(effects
				(font
					(size 1.27 1.27)
				)
				(hide yes)
			)
		)
		(property "Description" ""
			(at 256.54 44.45 0)
			(effects
				(font
					(size 1.27 1.27)
				)
				(hide yes)
			)
		)
		(pin "1"
			(uuid "60a759f9-f36a-4674-9dfd-36bb109b7455")
		)
		(instances
			(project "betaBoard"
				(path "/3d37b943-9a24-43ad-9fbf-b901b38695ce/a19c94be-85f2-45d0-b8ae-fe772296c136"
					(reference "#PWR08")
					(unit 1)
				)
			)
		)
	)
	(symbol
		(lib_id "Amplifier_Operational:LM358")
		(at 31.115 46.355 0)
		(unit 3)
		(exclude_from_sim no)
		(in_bom yes)
		(on_board yes)
		(dnp no)
		(fields_autoplaced yes)
		(uuid "3cc2bdee-3720-4e20-9d58-d2667cbbab98")
		(property "Reference" "U5"
			(at 29.21 45.0849 0)
			(effects
				(font
					(size 1.27 1.27)
				)
				(justify left)
			)
		)
		(property "Value" "MCP6232"
			(at 29.21 47.6249 0)
			(effects
				(font
					(size 1.27 1.27)
				)
				(justify left)
			)
		)
		(property "Footprint" "Package_SO:SOIC-8_3.9x4.9mm_P1.27mm"
			(at 31.115 46.355 0)
			(effects
				(font
					(size 1.27 1.27)
				)
				(hide yes)
			)
		)
		(property "Datasheet" "http://www.ti.com/lit/ds/symlink/lm2904-n.pdf"
			(at 31.115 46.355 0)
			(effects
				(font
					(size 1.27 1.27)
				)
				(hide yes)
			)
		)
		(property "Description" ""
			(at 31.115 46.355 0)
			(effects
				(font
					(size 1.27 1.27)
				)
				(hide yes)
			)
		)
		(pin "1"
			(uuid "8385b921-c2ac-42ab-9774-e26dc0c755c5")
		)
		(pin "2"
			(uuid "dfefcef3-9e10-4d75-8cec-f6463a9a362f")
		)
		(pin "3"
			(uuid "e845b35b-9888-4015-a5ee-b51d80f53497")
		)
		(pin "5"
			(uuid "d0c69ce2-fa22-422d-9188-4ca0371c0f76")
		)
		(pin "6"
			(uuid "c13c8eb0-13be-4cc0-bfd8-1edc8798e280")
		)
		(pin "7"
			(uuid "8827462a-c636-4875-b827-8197553427d2")
		)
		(pin "4"
			(uuid "d81cf837-561e-4b44-8dec-8aa2cf04780c")
		)
		(pin "8"
			(uuid "22b6dec6-c85c-48ae-8ec4-49ebaccf3dc6")
		)
		(instances
			(project "betaBoard"
				(path "/3d37b943-9a24-43ad-9fbf-b901b38695ce/a19c94be-85f2-45d0-b8ae-fe772296c136"
					(reference "U5")
					(unit 3)
				)
			)
		)
	)
	(symbol
		(lib_id "Device:R")
		(at 177.165 88.265 0)
		(mirror y)
		(unit 1)
		(exclude_from_sim no)
		(in_bom yes)
		(on_board yes)
		(dnp no)
		(fields_autoplaced yes)
		(uuid "4123b279-538e-44ad-8557-f7f75aca7958")
		(property "Reference" "R16"
			(at 179.07 86.995 0)
			(effects
				(font
					(size 1.27 1.27)
				)
				(justify right)
			)
		)
		(property "Value" "1k"
			(at 179.07 89.535 0)
			(effects
				(font
					(size 1.27 1.27)
				)
				(justify right)
			)
		)
		(property "Footprint" "Resistor_SMD:R_0603_1608Metric"
			(at 178.943 88.265 90)
			(effects
				(font
					(size 1.27 1.27)
				)
				(hide yes)
			)
		)
		(property "Datasheet" "~"
			(at 177.165 88.265 0)
			(effects
				(font
					(size 1.27 1.27)
				)
				(hide yes)
			)
		)
		(property "Description" ""
			(at 177.165 88.265 0)
			(effects
				(font
					(size 1.27 1.27)
				)
				(hide yes)
			)
		)
		(pin "1"
			(uuid "8fbba9fa-0a07-4b68-8c35-efc0cad5e4af")
		)
		(pin "2"
			(uuid "3f542246-a8cb-4999-b71e-6b1f3ca7d3c9")
		)
		(instances
			(project "betaBoard"
				(path "/3d37b943-9a24-43ad-9fbf-b901b38695ce/a19c94be-85f2-45d0-b8ae-fe772296c136"
					(reference "R16")
					(unit 1)
				)
			)
		)
	)
	(symbol
		(lib_id "Device:R")
		(at 238.76 78.74 270)
		(unit 1)
		(exclude_from_sim no)
		(in_bom yes)
		(on_board yes)
		(dnp no)
		(fields_autoplaced yes)
		(uuid "4646b631-ac8e-4078-b4be-19ad1f87fd18")
		(property "Reference" "R22"
			(at 238.76 73.025 90)
			(effects
				(font
					(size 1.27 1.27)
				)
			)
		)
		(property "Value" "10k"
			(at 238.76 75.565 90)
			(effects
				(font
					(size 1.27 1.27)
				)
			)
		)
		(property "Footprint" "Resistor_SMD:R_0603_1608Metric"
			(at 238.76 76.962 90)
			(effects
				(font
					(size 1.27 1.27)
				)
				(hide yes)
			)
		)
		(property "Datasheet" "~"
			(at 238.76 78.74 0)
			(effects
				(font
					(size 1.27 1.27)
				)
				(hide yes)
			)
		)
		(property "Description" ""
			(at 238.76 78.74 0)
			(effects
				(font
					(size 1.27 1.27)
				)
				(hide yes)
			)
		)
		(pin "1"
			(uuid "73c46717-9b3d-47da-af5f-3c08fa8dd7a0")
		)
		(pin "2"
			(uuid "2d247c79-4174-4f79-a2f2-1ab6468eceb6")
		)
		(instances
			(project "betaBoard"
				(path "/3d37b943-9a24-43ad-9fbf-b901b38695ce/a19c94be-85f2-45d0-b8ae-fe772296c136"
					(reference "R22")
					(unit 1)
				)
			)
		)
	)
	(symbol
		(lib_id "Device:R")
		(at 167.64 127 270)
		(unit 1)
		(exclude_from_sim no)
		(in_bom yes)
		(on_board yes)
		(dnp no)
		(fields_autoplaced yes)
		(uuid "493f1692-500d-49b3-bd7f-2eaf72e540fc")
		(property "Reference" "R28"
			(at 167.64 121.285 90)
			(effects
				(font
					(size 1.27 1.27)
				)
			)
		)
		(property "Value" "10k"
			(at 167.64 123.825 90)
			(effects
				(font
					(size 1.27 1.27)
				)
			)
		)
		(property "Footprint" "Resistor_SMD:R_0603_1608Metric"
			(at 167.64 125.222 90)
			(effects
				(font
					(size 1.27 1.27)
				)
				(hide yes)
			)
		)
		(property "Datasheet" "~"
			(at 167.64 127 0)
			(effects
				(font
					(size 1.27 1.27)
				)
				(hide yes)
			)
		)
		(property "Description" ""
			(at 167.64 127 0)
			(effects
				(font
					(size 1.27 1.27)
				)
				(hide yes)
			)
		)
		(pin "1"
			(uuid "9f11f311-b955-4cd6-9cb3-d301222be979")
		)
		(pin "2"
			(uuid "4b51187f-16c5-43b7-bd8c-bdbad45d6447")
		)
		(instances
			(project "betaBoard"
				(path "/3d37b943-9a24-43ad-9fbf-b901b38695ce/a19c94be-85f2-45d0-b8ae-fe772296c136"
					(reference "R28")
					(unit 1)
				)
			)
		)
	)
	(symbol
		(lib_id "Device:C")
		(at 193.04 102.87 0)
		(unit 1)
		(exclude_from_sim no)
		(in_bom yes)
		(on_board yes)
		(dnp no)
		(fields_autoplaced yes)
		(uuid "4dfd369f-30d8-4c09-9d6d-4fb0fb276df2")
		(property "Reference" "C20"
			(at 196.85 101.6 0)
			(effects
				(font
					(size 1.27 1.27)
				)
				(justify left)
			)
		)
		(property "Value" "10u"
			(at 196.85 104.14 0)
			(effects
				(font
					(size 1.27 1.27)
				)
				(justify left)
			)
		)
		(property "Footprint" "Capacitor_SMD:C_0603_1608Metric"
			(at 194.0052 106.68 0)
			(effects
				(font
					(size 1.27 1.27)
				)
				(hide yes)
			)
		)
		(property "Datasheet" "~"
			(at 193.04 102.87 0)
			(effects
				(font
					(size 1.27 1.27)
				)
				(hide yes)
			)
		)
		(property "Description" ""
			(at 193.04 102.87 0)
			(effects
				(font
					(size 1.27 1.27)
				)
				(hide yes)
			)
		)
		(pin "1"
			(uuid "99fb070d-20b9-46cc-a350-28aa7f212185")
		)
		(pin "2"
			(uuid "9b5197be-1d4a-45e5-8012-e688adca99b8")
		)
		(instances
			(project "betaBoard"
				(path "/3d37b943-9a24-43ad-9fbf-b901b38695ce/a19c94be-85f2-45d0-b8ae-fe772296c136"
					(reference "C20")
					(unit 1)
				)
			)
		)
	)
	(symbol
		(lib_id "Device:R")
		(at 43.18 119.38 0)
		(mirror y)
		(unit 1)
		(exclude_from_sim no)
		(in_bom yes)
		(on_board yes)
		(dnp no)
		(fields_autoplaced yes)
		(uuid "502e97e7-6480-44b4-823c-36625e0f58c9")
		(property "Reference" "R21"
			(at 45.085 118.11 0)
			(effects
				(font
					(size 1.27 1.27)
				)
				(justify right)
			)
		)
		(property "Value" "1k"
			(at 45.085 120.65 0)
			(effects
				(font
					(size 1.27 1.27)
				)
				(justify right)
			)
		)
		(property "Footprint" "Resistor_SMD:R_0603_1608Metric"
			(at 44.958 119.38 90)
			(effects
				(font
					(size 1.27 1.27)
				)
				(hide yes)
			)
		)
		(property "Datasheet" "~"
			(at 43.18 119.38 0)
			(effects
				(font
					(size 1.27 1.27)
				)
				(hide yes)
			)
		)
		(property "Description" ""
			(at 43.18 119.38 0)
			(effects
				(font
					(size 1.27 1.27)
				)
				(hide yes)
			)
		)
		(pin "1"
			(uuid "5600d9f6-9e9b-4fa9-b490-b6485fd88a7e")
		)
		(pin "2"
			(uuid "cd87e2c3-5cf8-4adc-aeb7-e218aee9fb15")
		)
		(instances
			(project "betaBoard"
				(path "/3d37b943-9a24-43ad-9fbf-b901b38695ce/a19c94be-85f2-45d0-b8ae-fe772296c136"
					(reference "R21")
					(unit 1)
				)
			)
		)
	)
	(symbol
		(lib_id "power:VCC")
		(at 256.54 29.21 0)
		(unit 1)
		(exclude_from_sim no)
		(in_bom yes)
		(on_board yes)
		(dnp no)
		(fields_autoplaced yes)
		(uuid "51a24787-5527-4673-8837-de106ef59bf0")
		(property "Reference" "#PWR07"
			(at 256.54 33.02 0)
			(effects
				(font
					(size 1.27 1.27)
				)
				(hide yes)
			)
		)
		(property "Value" "VCC"
			(at 256.54 24.13 0)
			(effects
				(font
					(size 1.27 1.27)
				)
			)
		)
		(property "Footprint" ""
			(at 256.54 29.21 0)
			(effects
				(font
					(size 1.27 1.27)
				)
				(hide yes)
			)
		)
		(property "Datasheet" ""
			(at 256.54 29.21 0)
			(effects
				(font
					(size 1.27 1.27)
				)
				(hide yes)
			)
		)
		(property "Description" ""
			(at 256.54 29.21 0)
			(effects
				(font
					(size 1.27 1.27)
				)
				(hide yes)
			)
		)
		(pin "1"
			(uuid "d4cdd64b-98bb-4b62-b5e6-63c220ee6c9c")
		)
		(instances
			(project "betaBoard"
				(path "/3d37b943-9a24-43ad-9fbf-b901b38695ce/a19c94be-85f2-45d0-b8ae-fe772296c136"
					(reference "#PWR07")
					(unit 1)
				)
			)
		)
	)
	(symbol
		(lib_id "Device:R")
		(at 135.255 124.46 270)
		(unit 1)
		(exclude_from_sim no)
		(in_bom yes)
		(on_board yes)
		(dnp no)
		(fields_autoplaced yes)
		(uuid "57fb9b2c-d5b9-4fd2-9eab-94b57b3daa4f")
		(property "Reference" "R24"
			(at 135.255 118.745 90)
			(effects
				(font
					(size 1.27 1.27)
				)
			)
		)
		(property "Value" "1k"
			(at 135.255 121.285 90)
			(effects
				(font
					(size 1.27 1.27)
				)
			)
		)
		(property "Footprint" "Resistor_SMD:R_0603_1608Metric"
			(at 135.255 122.682 90)
			(effects
				(font
					(size 1.27 1.27)
				)
				(hide yes)
			)
		)
		(property "Datasheet" "~"
			(at 135.255 124.46 0)
			(effects
				(font
					(size 1.27 1.27)
				)
				(hide yes)
			)
		)
		(property "Description" ""
			(at 135.255 124.46 0)
			(effects
				(font
					(size 1.27 1.27)
				)
				(hide yes)
			)
		)
		(pin "1"
			(uuid "793d8af8-1d0d-487d-81b9-298c333a28a3")
		)
		(pin "2"
			(uuid "e9b3fe9a-10bc-41a6-95b5-bce36fba6144")
		)
		(instances
			(project "betaBoard"
				(path "/3d37b943-9a24-43ad-9fbf-b901b38695ce/a19c94be-85f2-45d0-b8ae-fe772296c136"
					(reference "R24")
					(unit 1)
				)
			)
		)
	)
	(symbol
		(lib_id "power:VCC")
		(at 28.575 38.735 0)
		(unit 1)
		(exclude_from_sim no)
		(in_bom yes)
		(on_board yes)
		(dnp no)
		(fields_autoplaced yes)
		(uuid "58bf31c9-b193-4bac-9a61-1872331af817")
		(property "Reference" "#PWR036"
			(at 28.575 42.545 0)
			(effects
				(font
					(size 1.27 1.27)
				)
				(hide yes)
			)
		)
		(property "Value" "VCC"
			(at 28.575 33.655 0)
			(effects
				(font
					(size 1.27 1.27)
				)
			)
		)
		(property "Footprint" ""
			(at 28.575 38.735 0)
			(effects
				(font
					(size 1.27 1.27)
				)
				(hide yes)
			)
		)
		(property "Datasheet" ""
			(at 28.575 38.735 0)
			(effects
				(font
					(size 1.27 1.27)
				)
				(hide yes)
			)
		)
		(property "Description" ""
			(at 28.575 38.735 0)
			(effects
				(font
					(size 1.27 1.27)
				)
				(hide yes)
			)
		)
		(pin "1"
			(uuid "e13e3f5c-fc6e-4660-b381-b49e6d1e57cd")
		)
		(instances
			(project "betaBoard"
				(path "/3d37b943-9a24-43ad-9fbf-b901b38695ce/a19c94be-85f2-45d0-b8ae-fe772296c136"
					(reference "#PWR036")
					(unit 1)
				)
			)
		)
	)
	(symbol
		(lib_id "power:GND")
		(at 167.005 56.515 0)
		(unit 1)
		(exclude_from_sim no)
		(in_bom yes)
		(on_board yes)
		(dnp no)
		(fields_autoplaced yes)
		(uuid "5dd1ecdf-3769-4ed7-b045-c89ef19e1f63")
		(property "Reference" "#PWR09"
			(at 167.005 62.865 0)
			(effects
				(font
					(size 1.27 1.27)
				)
				(hide yes)
			)
		)
		(property "Value" "GND"
			(at 167.005 60.96 0)
			(effects
				(font
					(size 1.27 1.27)
				)
			)
		)
		(property "Footprint" ""
			(at 167.005 56.515 0)
			(effects
				(font
					(size 1.27 1.27)
				)
				(hide yes)
			)
		)
		(property "Datasheet" ""
			(at 167.005 56.515 0)
			(effects
				(font
					(size 1.27 1.27)
				)
				(hide yes)
			)
		)
		(property "Description" ""
			(at 167.005 56.515 0)
			(effects
				(font
					(size 1.27 1.27)
				)
				(hide yes)
			)
		)
		(pin "1"
			(uuid "24019a98-db82-463a-8556-328be8f8a20a")
		)
		(instances
			(project "betaBoard"
				(path "/3d37b943-9a24-43ad-9fbf-b901b38695ce/a19c94be-85f2-45d0-b8ae-fe772296c136"
					(reference "#PWR09")
					(unit 1)
				)
			)
		)
	)
	(symbol
		(lib_id "Device:R")
		(at 137.795 142.24 180)
		(unit 1)
		(exclude_from_sim no)
		(in_bom yes)
		(on_board yes)
		(dnp no)
		(fields_autoplaced yes)
		(uuid "5ef20d25-8d0f-4d06-8e49-9f4699abd73e")
		(property "Reference" "R25"
			(at 139.7 140.97 0)
			(effects
				(font
					(size 1.27 1.27)
				)
				(justify right)
			)
		)
		(property "Value" "10k"
			(at 139.7 143.51 0)
			(effects
				(font
					(size 1.27 1.27)
				)
				(justify right)
			)
		)
		(property "Footprint" "Resistor_SMD:R_0603_1608Metric"
			(at 139.573 142.24 90)
			(effects
				(font
					(size 1.27 1.27)
				)
				(hide yes)
			)
		)
		(property "Datasheet" "~"
			(at 137.795 142.24 0)
			(effects
				(font
					(size 1.27 1.27)
				)
				(hide yes)
			)
		)
		(property "Description" ""
			(at 137.795 142.24 0)
			(effects
				(font
					(size 1.27 1.27)
				)
				(hide yes)
			)
		)
		(pin "1"
			(uuid "877421df-62ea-4a46-a417-a084d543dc77")
		)
		(pin "2"
			(uuid "abe69900-554f-4b43-80a9-f2caa1a8c5fd")
		)
		(instances
			(project "betaBoard"
				(path "/3d37b943-9a24-43ad-9fbf-b901b38695ce/a19c94be-85f2-45d0-b8ae-fe772296c136"
					(reference "R25")
					(unit 1)
				)
			)
		)
	)
	(symbol
		(lib_id "Diode:ZMMxx")
		(at 167.005 49.53 270)
		(unit 1)
		(exclude_from_sim no)
		(in_bom yes)
		(on_board yes)
		(dnp no)
		(fields_autoplaced yes)
		(uuid "66db0aae-b3a9-4a08-9c02-b02f90d4aa7b")
		(property "Reference" "D7"
			(at 169.545 48.2599 90)
			(effects
				(font
					(size 1.27 1.27)
				)
				(justify left)
			)
		)
		(property "Value" "ZMM3V3-M"
			(at 169.545 50.7999 90)
			(effects
				(font
					(size 1.27 1.27)
				)
				(justify left)
			)
		)
		(property "Footprint" "Diode_SMD:D_MiniMELF"
			(at 162.56 49.53 0)
			(effects
				(font
					(size 1.27 1.27)
				)
				(hide yes)
			)
		)
		(property "Datasheet" "https://diotec.com/tl_files/diotec/files/pdf/datasheets/zmm1.pdf"
			(at 167.005 49.53 0)
			(effects
				(font
					(size 1.27 1.27)
				)
				(hide yes)
			)
		)
		(property "Description" ""
			(at 167.005 49.53 0)
			(effects
				(font
					(size 1.27 1.27)
				)
				(hide yes)
			)
		)
		(pin "1"
			(uuid "1d89a004-fe8a-470b-9299-c5a91f038bc2")
		)
		(pin "2"
			(uuid "a770d145-8521-4e82-a8d0-9d799ed678f7")
		)
		(instances
			(project "betaBoard"
				(path "/3d37b943-9a24-43ad-9fbf-b901b38695ce/a19c94be-85f2-45d0-b8ae-fe772296c136"
					(reference "D7")
					(unit 1)
				)
			)
		)
	)
	(symbol
		(lib_id "Amplifier_Operational:LM358")
		(at 259.08 36.83 0)
		(unit 3)
		(exclude_from_sim no)
		(in_bom yes)
		(on_board yes)
		(dnp no)
		(fields_autoplaced yes)
		(uuid "7b7cca80-e09d-4811-9c09-03bb21ce3e8b")
		(property "Reference" "U4"
			(at 257.175 35.5599 0)
			(effects
				(font
					(size 1.27 1.27)
				)
				(justify left)
			)
		)
		(property "Value" "MCP6232"
			(at 257.175 38.0999 0)
			(effects
				(font
					(size 1.27 1.27)
				)
				(justify left)
			)
		)
		(property "Footprint" "Package_SO:SOIC-8_3.9x4.9mm_P1.27mm"
			(at 259.08 36.83 0)
			(effects
				(font
					(size 1.27 1.27)
				)
				(hide yes)
			)
		)
		(property "Datasheet" "http://www.ti.com/lit/ds/symlink/lm2904-n.pdf"
			(at 259.08 36.83 0)
			(effects
				(font
					(size 1.27 1.27)
				)
				(hide yes)
			)
		)
		(property "Description" ""
			(at 259.08 36.83 0)
			(effects
				(font
					(size 1.27 1.27)
				)
				(hide yes)
			)
		)
		(pin "1"
			(uuid "8385b921-c2ac-42ab-9774-e26dc0c755c6")
		)
		(pin "2"
			(uuid "dfefcef3-9e10-4d75-8cec-f6463a9a3630")
		)
		(pin "3"
			(uuid "e845b35b-9888-4015-a5ee-b51d80f53498")
		)
		(pin "5"
			(uuid "d0c69ce2-fa22-422d-9188-4ca0371c0f77")
		)
		(pin "6"
			(uuid "c13c8eb0-13be-4cc0-bfd8-1edc8798e281")
		)
		(pin "7"
			(uuid "8827462a-c636-4875-b827-8197553427d3")
		)
		(pin "4"
			(uuid "7222b60b-1554-414d-8d5f-e9f79549fea5")
		)
		(pin "8"
			(uuid "2831c69b-dcff-494e-97b1-f92a274a6461")
		)
		(instances
			(project "betaBoard"
				(path "/3d37b943-9a24-43ad-9fbf-b901b38695ce/a19c94be-85f2-45d0-b8ae-fe772296c136"
					(reference "U4")
					(unit 3)
				)
			)
		)
	)
	(symbol
		(lib_id "Device:R")
		(at 153.035 111.125 270)
		(unit 1)
		(exclude_from_sim no)
		(in_bom yes)
		(on_board yes)
		(dnp no)
		(fields_autoplaced yes)
		(uuid "86726051-9def-4980-8ce5-d5b18c2855e8")
		(property "Reference" "R27"
			(at 153.035 105.41 90)
			(effects
				(font
					(size 1.27 1.27)
				)
			)
		)
		(property "Value" "100k"
			(at 153.035 107.95 90)
			(effects
				(font
					(size 1.27 1.27)
				)
			)
		)
		(property "Footprint" "Resistor_SMD:R_0603_1608Metric"
			(at 153.035 109.347 90)
			(effects
				(font
					(size 1.27 1.27)
				)
				(hide yes)
			)
		)
		(property "Datasheet" "~"
			(at 153.035 111.125 0)
			(effects
				(font
					(size 1.27 1.27)
				)
				(hide yes)
			)
		)
		(property "Description" ""
			(at 153.035 111.125 0)
			(effects
				(font
					(size 1.27 1.27)
				)
				(hide yes)
			)
		)
		(pin "1"
			(uuid "d292f05a-c5f6-43ec-a29c-da537490ae54")
		)
		(pin "2"
			(uuid "0149b475-fa8f-424f-8d8f-f49134b06844")
		)
		(instances
			(project "betaBoard"
				(path "/3d37b943-9a24-43ad-9fbf-b901b38695ce/a19c94be-85f2-45d0-b8ae-fe772296c136"
					(reference "R27")
					(unit 1)
				)
			)
		)
	)
	(symbol
		(lib_id "Device:C")
		(at 220.98 52.07 90)
		(mirror x)
		(unit 1)
		(exclude_from_sim no)
		(in_bom yes)
		(on_board yes)
		(dnp no)
		(fields_autoplaced yes)
		(uuid "88667ba5-072c-400e-bf98-e953733bcb7e")
		(property "Reference" "C21"
			(at 220.98 45.085 90)
			(effects
				(font
					(size 1.27 1.27)
				)
			)
		)
		(property "Value" "10p"
			(at 220.98 47.625 90)
			(effects
				(font
					(size 1.27 1.27)
				)
			)
		)
		(property "Footprint" "Capacitor_SMD:C_0603_1608Metric"
			(at 224.79 53.0352 0)
			(effects
				(font
					(size 1.27 1.27)
				)
				(hide yes)
			)
		)
		(property "Datasheet" "~"
			(at 220.98 52.07 0)
			(effects
				(font
					(size 1.27 1.27)
				)
				(hide yes)
			)
		)
		(property "Description" ""
			(at 220.98 52.07 0)
			(effects
				(font
					(size 1.27 1.27)
				)
				(hide yes)
			)
		)
		(pin "1"
			(uuid "83543d70-24f0-4111-b4cf-43aae3b6a395")
		)
		(pin "2"
			(uuid "ed367e17-2d4d-49da-bd68-6c9c55f53c01")
		)
		(instances
			(project "betaBoard"
				(path "/3d37b943-9a24-43ad-9fbf-b901b38695ce/a19c94be-85f2-45d0-b8ae-fe772296c136"
					(reference "C21")
					(unit 1)
				)
			)
		)
	)
	(symbol
		(lib_id "power:GND")
		(at 43.18 142.24 0)
		(unit 1)
		(exclude_from_sim no)
		(in_bom yes)
		(on_board yes)
		(dnp no)
		(fields_autoplaced yes)
		(uuid "8b7178c9-db92-41b2-96a0-50cfeaef29db")
		(property "Reference" "#PWR03"
			(at 43.18 148.59 0)
			(effects
				(font
					(size 1.27 1.27)
				)
				(hide yes)
			)
		)
		(property "Value" "GND"
			(at 43.18 146.685 0)
			(effects
				(font
					(size 1.27 1.27)
				)
			)
		)
		(property "Footprint" ""
			(at 43.18 142.24 0)
			(effects
				(font
					(size 1.27 1.27)
				)
				(hide yes)
			)
		)
		(property "Datasheet" ""
			(at 43.18 142.24 0)
			(effects
				(font
					(size 1.27 1.27)
				)
				(hide yes)
			)
		)
		(property "Description" ""
			(at 43.18 142.24 0)
			(effects
				(font
					(size 1.27 1.27)
				)
				(hide yes)
			)
		)
		(pin "1"
			(uuid "a8ed6998-e8e9-40c4-b747-08348c51ec48")
		)
		(instances
			(project "betaBoard"
				(path "/3d37b943-9a24-43ad-9fbf-b901b38695ce/a19c94be-85f2-45d0-b8ae-fe772296c136"
					(reference "#PWR03")
					(unit 1)
				)
			)
		)
	)
	(symbol
		(lib_id "power:GND")
		(at 205.74 111.76 0)
		(unit 1)
		(exclude_from_sim no)
		(in_bom yes)
		(on_board yes)
		(dnp no)
		(fields_autoplaced yes)
		(uuid "9c93d1eb-daca-48a7-a4b4-202d87101ba6")
		(property "Reference" "#PWR013"
			(at 205.74 118.11 0)
			(effects
				(font
					(size 1.27 1.27)
				)
				(hide yes)
			)
		)
		(property "Value" "GND"
			(at 205.74 116.205 0)
			(effects
				(font
					(size 1.27 1.27)
				)
			)
		)
		(property "Footprint" ""
			(at 205.74 111.76 0)
			(effects
				(font
					(size 1.27 1.27)
				)
				(hide yes)
			)
		)
		(property "Datasheet" ""
			(at 205.74 111.76 0)
			(effects
				(font
					(size 1.27 1.27)
				)
				(hide yes)
			)
		)
		(property "Description" ""
			(at 205.74 111.76 0)
			(effects
				(font
					(size 1.27 1.27)
				)
				(hide yes)
			)
		)
		(pin "1"
			(uuid "9590da3e-09d5-484d-9d47-43be78847d74")
		)
		(instances
			(project "betaBoard"
				(path "/3d37b943-9a24-43ad-9fbf-b901b38695ce/a19c94be-85f2-45d0-b8ae-fe772296c136"
					(reference "#PWR013")
					(unit 1)
				)
			)
		)
	)
	(symbol
		(lib_id "Device:R")
		(at 109.22 136.525 0)
		(mirror y)
		(unit 1)
		(exclude_from_sim no)
		(in_bom yes)
		(on_board yes)
		(dnp no)
		(fields_autoplaced yes)
		(uuid "a21370a2-37d0-4523-8f7c-1be157fb6812")
		(property "Reference" "R13"
			(at 111.125 135.255 0)
			(effects
				(font
					(size 1.27 1.27)
				)
				(justify right)
			)
		)
		(property "Value" "1k"
			(at 111.125 137.795 0)
			(effects
				(font
					(size 1.27 1.27)
				)
				(justify right)
			)
		)
		(property "Footprint" "Resistor_SMD:R_0603_1608Metric"
			(at 110.998 136.525 90)
			(effects
				(font
					(size 1.27 1.27)
				)
				(hide yes)
			)
		)
		(property "Datasheet" "~"
			(at 109.22 136.525 0)
			(effects
				(font
					(size 1.27 1.27)
				)
				(hide yes)
			)
		)
		(property "Description" ""
			(at 109.22 136.525 0)
			(effects
				(font
					(size 1.27 1.27)
				)
				(hide yes)
			)
		)
		(pin "1"
			(uuid "e26675ab-1001-447c-a9f4-d99c8305e766")
		)
		(pin "2"
			(uuid "d339d01e-37b6-4777-af4a-588aea356ad8")
		)
		(instances
			(project "betaBoard"
				(path "/3d37b943-9a24-43ad-9fbf-b901b38695ce/a19c94be-85f2-45d0-b8ae-fe772296c136"
					(reference "R13")
					(unit 1)
				)
			)
		)
	)
	(symbol
		(lib_id "Diode:ZMMxx")
		(at 177.165 98.425 270)
		(unit 1)
		(exclude_from_sim no)
		(in_bom yes)
		(on_board yes)
		(dnp no)
		(fields_autoplaced yes)
		(uuid "a6abbe75-477b-4eb9-b503-170fa6347dd6")
		(property "Reference" "D8"
			(at 179.705 97.1549 90)
			(effects
				(font
					(size 1.27 1.27)
				)
				(justify left)
			)
		)
		(property "Value" "ZMM3V3-M"
			(at 179.705 99.6949 90)
			(effects
				(font
					(size 1.27 1.27)
				)
				(justify left)
			)
		)
		(property "Footprint" "Diode_SMD:D_MiniMELF"
			(at 172.72 98.425 0)
			(effects
				(font
					(size 1.27 1.27)
				)
				(hide yes)
			)
		)
		(property "Datasheet" "https://diotec.com/tl_files/diotec/files/pdf/datasheets/zmm1.pdf"
			(at 177.165 98.425 0)
			(effects
				(font
					(size 1.27 1.27)
				)
				(hide yes)
			)
		)
		(property "Description" ""
			(at 177.165 98.425 0)
			(effects
				(font
					(size 1.27 1.27)
				)
				(hide yes)
			)
		)
		(pin "1"
			(uuid "de558dc7-5d40-4960-beb8-68b515cc5bc2")
		)
		(pin "2"
			(uuid "f21f120a-e3c0-4dc4-8dd6-bcb4d1104d6b")
		)
		(instances
			(project "betaBoard"
				(path "/3d37b943-9a24-43ad-9fbf-b901b38695ce/a19c94be-85f2-45d0-b8ae-fe772296c136"
					(reference "D8")
					(unit 1)
				)
			)
		)
	)
	(symbol
		(lib_id "Amplifier_Operational:LM358")
		(at 123.825 45.72 0)
		(mirror x)
		(unit 2)
		(exclude_from_sim no)
		(in_bom yes)
		(on_board yes)
		(dnp no)
		(fields_autoplaced yes)
		(uuid "a9309ede-b174-41d6-8dcc-703e8e0756f1")
		(property "Reference" "U4"
			(at 123.825 35.56 0)
			(effects
				(font
					(size 1.27 1.27)
				)
			)
		)
		(property "Value" "MCP6232"
			(at 123.825 38.1 0)
			(effects
				(font
					(size 1.27 1.27)
				)
			)
		)
		(property "Footprint" "Package_SO:SOIC-8_3.9x4.9mm_P1.27mm"
			(at 123.825 45.72 0)
			(effects
				(font
					(size 1.27 1.27)
				)
				(hide yes)
			)
		)
		(property "Datasheet" "http://www.ti.com/lit/ds/symlink/lm2904-n.pdf"
			(at 123.825 45.72 0)
			(effects
				(font
					(size 1.27 1.27)
				)
				(hide yes)
			)
		)
		(property "Description" ""
			(at 123.825 45.72 0)
			(effects
				(font
					(size 1.27 1.27)
				)
				(hide yes)
			)
		)
		(pin "1"
			(uuid "129f8fad-b085-4072-8967-9d196c909dfc")
		)
		(pin "2"
			(uuid "845bb7b5-0b58-4214-9058-016c02eb85a0")
		)
		(pin "3"
			(uuid "535f2e56-9202-49d1-b22f-4f64faf594b1")
		)
		(pin "5"
			(uuid "65bc1932-d39f-45bb-bafe-5658a3ade954")
		)
		(pin "6"
			(uuid "21ec92f4-3cff-42d4-ba48-e3d62128b875")
		)
		(pin "7"
			(uuid "2079f85b-0806-4429-9166-30e63e0422c0")
		)
		(pin "4"
			(uuid "df54b252-3c3d-4e85-967a-0e3aca1b42ba")
		)
		(pin "8"
			(uuid "e9dacca5-03ff-4b5a-a17c-d79bbb93acee")
		)
		(instances
			(project "betaBoard"
				(path "/3d37b943-9a24-43ad-9fbf-b901b38695ce/a19c94be-85f2-45d0-b8ae-fe772296c136"
					(reference "U4")
					(unit 2)
				)
			)
		)
	)
	(symbol
		(lib_id "Device:R")
		(at 140.97 45.72 270)
		(unit 1)
		(exclude_from_sim no)
		(in_bom yes)
		(on_board yes)
		(dnp no)
		(fields_autoplaced yes)
		(uuid "b011d6df-28b9-4e4e-a9f8-1181a73be9d6")
		(property "Reference" "R14"
			(at 140.97 40.005 90)
			(effects
				(font
					(size 1.27 1.27)
				)
			)
		)
		(property "Value" "10k"
			(at 140.97 42.545 90)
			(effects
				(font
					(size 1.27 1.27)
				)
			)
		)
		(property "Footprint" "Resistor_SMD:R_0603_1608Metric"
			(at 140.97 43.942 90)
			(effects
				(font
					(size 1.27 1.27)
				)
				(hide yes)
			)
		)
		(property "Datasheet" "~"
			(at 140.97 45.72 0)
			(effects
				(font
					(size 1.27 1.27)
				)
				(hide yes)
			)
		)
		(property "Description" ""
			(at 140.97 45.72 0)
			(effects
				(font
					(size 1.27 1.27)
				)
				(hide yes)
			)
		)
		(pin "1"
			(uuid "44a0b9bf-a8c7-4070-a4ce-fe54c894f4bd")
		)
		(pin "2"
			(uuid "cac0a808-7334-4c85-ba42-e7ce6572156b")
		)
		(instances
			(project "betaBoard"
				(path "/3d37b943-9a24-43ad-9fbf-b901b38695ce/a19c94be-85f2-45d0-b8ae-fe772296c136"
					(reference "R14")
					(unit 1)
				)
			)
		)
	)
	(symbol
		(lib_id "power:VCC")
		(at 43.18 115.57 0)
		(unit 1)
		(exclude_from_sim no)
		(in_bom yes)
		(on_board yes)
		(dnp no)
		(fields_autoplaced yes)
		(uuid "b3af2e00-f519-4f0f-bf9c-4c3534e127d0")
		(property "Reference" "#PWR038"
			(at 43.18 119.38 0)
			(effects
				(font
					(size 1.27 1.27)
				)
				(hide yes)
			)
		)
		(property "Value" "VCC"
			(at 43.18 110.49 0)
			(effects
				(font
					(size 1.27 1.27)
				)
			)
		)
		(property "Footprint" ""
			(at 43.18 115.57 0)
			(effects
				(font
					(size 1.27 1.27)
				)
				(hide yes)
			)
		)
		(property "Datasheet" ""
			(at 43.18 115.57 0)
			(effects
				(font
					(size 1.27 1.27)
				)
				(hide yes)
			)
		)
		(property "Description" ""
			(at 43.18 115.57 0)
			(effects
				(font
					(size 1.27 1.27)
				)
				(hide yes)
			)
		)
		(pin "1"
			(uuid "8d2d88a8-6e07-4258-b9ec-24227bc8e1da")
		)
		(instances
			(project "betaBoard"
				(path "/3d37b943-9a24-43ad-9fbf-b901b38695ce/a19c94be-85f2-45d0-b8ae-fe772296c136"
					(reference "#PWR038")
					(unit 1)
				)
			)
		)
	)
	(symbol
		(lib_id "Amplifier_Operational:LM358")
		(at 152.4 127 0)
		(mirror x)
		(unit 2)
		(exclude_from_sim no)
		(in_bom yes)
		(on_board yes)
		(dnp no)
		(fields_autoplaced yes)
		(uuid "b6d94f22-c4a2-4ad8-bfc5-874f2b6802fa")
		(property "Reference" "U5"
			(at 152.4 116.205 0)
			(effects
				(font
					(size 1.27 1.27)
				)
			)
		)
		(property "Value" "MCP6232"
			(at 152.4 118.745 0)
			(effects
				(font
					(size 1.27 1.27)
				)
			)
		)
		(property "Footprint" "Package_SO:SOIC-8_3.9x4.9mm_P1.27mm"
			(at 152.4 127 0)
			(effects
				(font
					(size 1.27 1.27)
				)
				(hide yes)
			)
		)
		(property "Datasheet" "http://www.ti.com/lit/ds/symlink/lm2904-n.pdf"
			(at 152.4 127 0)
			(effects
				(font
					(size 1.27 1.27)
				)
				(hide yes)
			)
		)
		(property "Description" ""
			(at 152.4 127 0)
			(effects
				(font
					(size 1.27 1.27)
				)
				(hide yes)
			)
		)
		(pin "1"
			(uuid "129f8fad-b085-4072-8967-9d196c909dfd")
		)
		(pin "2"
			(uuid "845bb7b5-0b58-4214-9058-016c02eb85a1")
		)
		(pin "3"
			(uuid "535f2e56-9202-49d1-b22f-4f64faf594b2")
		)
		(pin "5"
			(uuid "820e1d1c-1741-4af0-83f9-4bb1fefc7c44")
		)
		(pin "6"
			(uuid "cab14ccb-95fa-4900-a42f-671e3a9aec12")
		)
		(pin "7"
			(uuid "513d6fc8-dfc4-4a9f-a503-6fddd60e9ba9")
		)
		(pin "4"
			(uuid "df54b252-3c3d-4e85-967a-0e3aca1b42bb")
		)
		(pin "8"
			(uuid "e9dacca5-03ff-4b5a-a17c-d79bbb93acef")
		)
		(instances
			(project "betaBoard"
				(path "/3d37b943-9a24-43ad-9fbf-b901b38695ce/a19c94be-85f2-45d0-b8ae-fe772296c136"
					(reference "U5")
					(unit 2)
				)
			)
		)
	)
	(symbol
		(lib_id "Diode:ZMMxx")
		(at 175.26 141.605 270)
		(unit 1)
		(exclude_from_sim no)
		(in_bom yes)
		(on_board yes)
		(dnp no)
		(fields_autoplaced yes)
		(uuid "b7ff655a-6171-4459-a28f-f2f55373fb2f")
		(property "Reference" "D21"
			(at 177.8 140.3349 90)
			(effects
				(font
					(size 1.27 1.27)
				)
				(justify left)
			)
		)
		(property "Value" "ZMM3V3-M"
			(at 177.8 142.8749 90)
			(effects
				(font
					(size 1.27 1.27)
				)
				(justify left)
			)
		)
		(property "Footprint" "Diode_SMD:D_MiniMELF"
			(at 170.815 141.605 0)
			(effects
				(font
					(size 1.27 1.27)
				)
				(hide yes)
			)
		)
		(property "Datasheet" "https://diotec.com/tl_files/diotec/files/pdf/datasheets/zmm1.pdf"
			(at 175.26 141.605 0)
			(effects
				(font
					(size 1.27 1.27)
				)
				(hide yes)
			)
		)
		(property "Description" ""
			(at 175.26 141.605 0)
			(effects
				(font
					(size 1.27 1.27)
				)
				(hide yes)
			)
		)
		(pin "1"
			(uuid "d8c0c419-df9a-4700-8486-2e7a405abe63")
		)
		(pin "2"
			(uuid "b1075a15-6237-47f6-9887-124ca5c82137")
		)
		(instances
			(project "betaBoard"
				(path "/3d37b943-9a24-43ad-9fbf-b901b38695ce/a19c94be-85f2-45d0-b8ae-fe772296c136"
					(reference "D21")
					(unit 1)
				)
			)
		)
	)
	(symbol
		(lib_id "Device:R")
		(at 220.98 62.865 270)
		(unit 1)
		(exclude_from_sim no)
		(in_bom yes)
		(on_board yes)
		(dnp no)
		(fields_autoplaced yes)
		(uuid "bdf88897-5576-4da1-9cfc-68873588feea")
		(property "Reference" "R20"
			(at 220.98 57.15 90)
			(effects
				(font
					(size 1.27 1.27)
				)
			)
		)
		(property "Value" "10k"
			(at 220.98 59.69 90)
			(effects
				(font
					(size 1.27 1.27)
				)
			)
		)
		(property "Footprint" "Resistor_SMD:R_0603_1608Metric"
			(at 220.98 61.087 90)
			(effects
				(font
					(size 1.27 1.27)
				)
				(hide yes)
			)
		)
		(property "Datasheet" "~"
			(at 220.98 62.865 0)
			(effects
				(font
					(size 1.27 1.27)
				)
				(hide yes)
			)
		)
		(property "Description" ""
			(at 220.98 62.865 0)
			(effects
				(font
					(size 1.27 1.27)
				)
				(hide yes)
			)
		)
		(pin "1"
			(uuid "9b63ee24-14f2-4760-9871-57a7902bfe0c")
		)
		(pin "2"
			(uuid "2db0b883-1c0a-4fe7-9a0b-b90e00969f16")
		)
		(instances
			(project "betaBoard"
				(path "/3d37b943-9a24-43ad-9fbf-b901b38695ce/a19c94be-85f2-45d0-b8ae-fe772296c136"
					(reference "R20")
					(unit 1)
				)
			)
		)
	)
	(symbol
		(lib_id "Device:C")
		(at 267.335 36.83 0)
		(unit 1)
		(exclude_from_sim no)
		(in_bom yes)
		(on_board yes)
		(dnp no)
		(fields_autoplaced yes)
		(uuid "bff7f994-3581-403f-ab50-4816183ccaaa")
		(property "Reference" "C18"
			(at 271.145 35.5599 0)
			(effects
				(font
					(size 1.27 1.27)
				)
				(justify left)
			)
		)
		(property "Value" "100n"
			(at 271.145 38.0999 0)
			(effects
				(font
					(size 1.27 1.27)
				)
				(justify left)
			)
		)
		(property "Footprint" "Capacitor_SMD:C_0603_1608Metric"
			(at 268.3002 40.64 0)
			(effects
				(font
					(size 1.27 1.27)
				)
				(hide yes)
			)
		)
		(property "Datasheet" "~"
			(at 267.335 36.83 0)
			(effects
				(font
					(size 1.27 1.27)
				)
				(hide yes)
			)
		)
		(property "Description" ""
			(at 267.335 36.83 0)
			(effects
				(font
					(size 1.27 1.27)
				)
				(hide yes)
			)
		)
		(pin "1"
			(uuid "8713a468-e30d-450e-87fb-d50904ecfb7d")
		)
		(pin "2"
			(uuid "972fd1fb-4e7e-43b7-931f-9dbbdfe2dafd")
		)
		(instances
			(project "betaBoard"
				(path "/3d37b943-9a24-43ad-9fbf-b901b38695ce/a19c94be-85f2-45d0-b8ae-fe772296c136"
					(reference "C18")
					(unit 1)
				)
			)
		)
	)
	(symbol
		(lib_id "Device:C")
		(at 68.58 81.28 90)
		(unit 1)
		(exclude_from_sim no)
		(in_bom yes)
		(on_board yes)
		(dnp no)
		(fields_autoplaced yes)
		(uuid "c5555898-0bef-4cc3-accf-effbffd8d470")
		(property "Reference" "C26"
			(at 68.58 73.66 90)
			(effects
				(font
					(size 1.27 1.27)
				)
			)
		)
		(property "Value" "2p2"
			(at 68.58 76.2 90)
			(effects
				(font
					(size 1.27 1.27)
				)
			)
		)
		(property "Footprint" "Capacitor_SMD:C_0603_1608Metric"
			(at 72.39 80.3148 0)
			(effects
				(font
					(size 1.27 1.27)
				)
				(hide yes)
			)
		)
		(property "Datasheet" "~"
			(at 68.58 81.28 0)
			(effects
				(font
					(size 1.27 1.27)
				)
				(hide yes)
			)
		)
		(property "Description" ""
			(at 68.58 81.28 0)
			(effects
				(font
					(size 1.27 1.27)
				)
				(hide yes)
			)
		)
		(pin "1"
			(uuid "8addb5fb-5c78-488e-965a-ad8bb51d47cf")
		)
		(pin "2"
			(uuid "abeb0e1d-f8b8-4d66-ad6d-20a653e894b1")
		)
		(instances
			(project "betaBoard"
				(path "/3d37b943-9a24-43ad-9fbf-b901b38695ce/a19c94be-85f2-45d0-b8ae-fe772296c136"
					(reference "C26")
					(unit 1)
				)
			)
		)
	)
	(symbol
		(lib_id "Device:C")
		(at 39.37 46.355 0)
		(unit 1)
		(exclude_from_sim no)
		(in_bom yes)
		(on_board yes)
		(dnp no)
		(fields_autoplaced yes)
		(uuid "c7d4c430-00c4-48ba-bd32-1c6877236a34")
		(property "Reference" "C24"
			(at 43.18 45.0849 0)
			(effects
				(font
					(size 1.27 1.27)
				)
				(justify left)
			)
		)
		(property "Value" "100n"
			(at 43.18 47.6249 0)
			(effects
				(font
					(size 1.27 1.27)
				)
				(justify left)
			)
		)
		(property "Footprint" "Capacitor_SMD:C_0603_1608Metric"
			(at 40.3352 50.165 0)
			(effects
				(font
					(size 1.27 1.27)
				)
				(hide yes)
			)
		)
		(property "Datasheet" "~"
			(at 39.37 46.355 0)
			(effects
				(font
					(size 1.27 1.27)
				)
				(hide yes)
			)
		)
		(property "Description" ""
			(at 39.37 46.355 0)
			(effects
				(font
					(size 1.27 1.27)
				)
				(hide yes)
			)
		)
		(pin "1"
			(uuid "8c007e0b-57d0-4142-9624-568cb4eafc26")
		)
		(pin "2"
			(uuid "56b235db-03f7-4ed6-ba75-864d45420a7d")
		)
		(instances
			(project "betaBoard"
				(path "/3d37b943-9a24-43ad-9fbf-b901b38695ce/a19c94be-85f2-45d0-b8ae-fe772296c136"
					(reference "C24")
					(unit 1)
				)
			)
		)
	)
	(symbol
		(lib_id "Diode:ZMMxx")
		(at 109.22 146.05 270)
		(unit 1)
		(exclude_from_sim no)
		(in_bom yes)
		(on_board yes)
		(dnp no)
		(fields_autoplaced yes)
		(uuid "d19b7841-0269-43a9-ad4e-b0d88e6d79be")
		(property "Reference" "D6"
			(at 111.76 144.7799 90)
			(effects
				(font
					(size 1.27 1.27)
				)
				(justify left)
			)
		)
		(property "Value" "ZMM3V3-M"
			(at 111.76 147.3199 90)
			(effects
				(font
					(size 1.27 1.27)
				)
				(justify left)
			)
		)
		(property "Footprint" "Diode_SMD:D_MiniMELF"
			(at 104.775 146.05 0)
			(effects
				(font
					(size 1.27 1.27)
				)
				(hide yes)
			)
		)
		(property "Datasheet" "https://diotec.com/tl_files/diotec/files/pdf/datasheets/zmm1.pdf"
			(at 109.22 146.05 0)
			(effects
				(font
					(size 1.27 1.27)
				)
				(hide yes)
			)
		)
		(property "Description" ""
			(at 109.22 146.05 0)
			(effects
				(font
					(size 1.27 1.27)
				)
				(hide yes)
			)
		)
		(pin "1"
			(uuid "cf037d4f-0a34-47ba-996a-572f45cf9d95")
		)
		(pin "2"
			(uuid "3dbed9c7-2ea3-4d27-8973-bddb122c9c5f")
		)
		(instances
			(project "betaBoard"
				(path "/3d37b943-9a24-43ad-9fbf-b901b38695ce/a19c94be-85f2-45d0-b8ae-fe772296c136"
					(reference "D6")
					(unit 1)
				)
			)
		)
	)
	(symbol
		(lib_id "Device:C")
		(at 61.595 134.62 0)
		(unit 1)
		(exclude_from_sim no)
		(in_bom yes)
		(on_board yes)
		(dnp no)
		(fields_autoplaced yes)
		(uuid "d584517e-9533-4e61-a39c-2c322b14574d")
		(property "Reference" "C45"
			(at 65.405 133.35 0)
			(effects
				(font
					(size 1.27 1.27)
				)
				(justify left)
			)
		)
		(property "Value" "10u"
			(at 65.405 135.89 0)
			(effects
				(font
					(size 1.27 1.27)
				)
				(justify left)
			)
		)
		(property "Footprint" "Capacitor_SMD:C_0603_1608Metric"
			(at 62.5602 138.43 0)
			(effects
				(font
					(size 1.27 1.27)
				)
				(hide yes)
			)
		)
		(property "Datasheet" "~"
			(at 61.595 134.62 0)
			(effects
				(font
					(size 1.27 1.27)
				)
				(hide yes)
			)
		)
		(property "Description" ""
			(at 61.595 134.62 0)
			(effects
				(font
					(size 1.27 1.27)
				)
				(hide yes)
			)
		)
		(pin "1"
			(uuid "3bc064d8-c70d-489f-a6db-95e544bad39b")
		)
		(pin "2"
			(uuid "0680f46c-8cb2-4a73-83c4-a9893a6ea0a9")
		)
		(instances
			(project "betaBoard"
				(path "/3d37b943-9a24-43ad-9fbf-b901b38695ce/a19c94be-85f2-45d0-b8ae-fe772296c136"
					(reference "C45")
					(unit 1)
				)
			)
		)
	)
	(symbol
		(lib_id "Device:R")
		(at 137.795 149.86 180)
		(unit 1)
		(exclude_from_sim no)
		(in_bom yes)
		(on_board yes)
		(dnp no)
		(fields_autoplaced yes)
		(uuid "d99cb9ca-2a8f-4060-8c2b-237e44b72ead")
		(property "Reference" "R26"
			(at 139.7 148.59 0)
			(effects
				(font
					(size 1.27 1.27)
				)
				(justify right)
			)
		)
		(property "Value" "100k"
			(at 139.7 151.13 0)
			(effects
				(font
					(size 1.27 1.27)
				)
				(justify right)
			)
		)
		(property "Footprint" "Resistor_SMD:R_0603_1608Metric"
			(at 139.573 149.86 90)
			(effects
				(font
					(size 1.27 1.27)
				)
				(hide yes)
			)
		)
		(property "Datasheet" "~"
			(at 137.795 149.86 0)
			(effects
				(font
					(size 1.27 1.27)
				)
				(hide yes)
			)
		)
		(property "Description" ""
			(at 137.795 149.86 0)
			(effects
				(font
					(size 1.27 1.27)
				)
				(hide yes)
			)
		)
		(pin "1"
			(uuid "4d0b61c5-4bfa-4cf6-95a0-66710465db52")
		)
		(pin "2"
			(uuid "99912474-4928-41e4-b6a2-b53fc6d8bbcc")
		)
		(instances
			(project "betaBoard"
				(path "/3d37b943-9a24-43ad-9fbf-b901b38695ce/a19c94be-85f2-45d0-b8ae-fe772296c136"
					(reference "R26")
					(unit 1)
				)
			)
		)
	)
	(symbol
		(lib_id "power:GND")
		(at 28.575 53.975 0)
		(unit 1)
		(exclude_from_sim no)
		(in_bom yes)
		(on_board yes)
		(dnp no)
		(fields_autoplaced yes)
		(uuid "dcd7ec33-3574-456e-9a9e-854766c9105c")
		(property "Reference" "#PWR037"
			(at 28.575 60.325 0)
			(effects
				(font
					(size 1.27 1.27)
				)
				(hide yes)
			)
		)
		(property "Value" "GND"
			(at 28.575 59.055 0)
			(effects
				(font
					(size 1.27 1.27)
				)
			)
		)
		(property "Footprint" ""
			(at 28.575 53.975 0)
			(effects
				(font
					(size 1.27 1.27)
				)
				(hide yes)
			)
		)
		(property "Datasheet" ""
			(at 28.575 53.975 0)
			(effects
				(font
					(size 1.27 1.27)
				)
				(hide yes)
			)
		)
		(property "Description" ""
			(at 28.575 53.975 0)
			(effects
				(font
					(size 1.27 1.27)
				)
				(hide yes)
			)
		)
		(pin "1"
			(uuid "42ccae20-c22f-47b9-84ac-84c7b404e149")
		)
		(instances
			(project "betaBoard"
				(path "/3d37b943-9a24-43ad-9fbf-b901b38695ce/a19c94be-85f2-45d0-b8ae-fe772296c136"
					(reference "#PWR037")
					(unit 1)
				)
			)
		)
	)
	(symbol
		(lib_id "Device:R")
		(at 46.355 106.68 270)
		(unit 1)
		(exclude_from_sim no)
		(in_bom yes)
		(on_board yes)
		(dnp no)
		(fields_autoplaced yes)
		(uuid "de13d9a3-1e41-441f-8eb8-eaa980fb45ae")
		(property "Reference" "R34"
			(at 46.355 100.33 90)
			(effects
				(font
					(size 1.27 1.27)
				)
			)
		)
		(property "Value" "0"
			(at 46.355 102.87 90)
			(effects
				(font
					(size 1.27 1.27)
				)
			)
		)
		(property "Footprint" "Resistor_SMD:R_0603_1608Metric"
			(at 46.355 104.902 90)
			(effects
				(font
					(size 1.27 1.27)
				)
				(hide yes)
			)
		)
		(property "Datasheet" "~"
			(at 46.355 106.68 0)
			(effects
				(font
					(size 1.27 1.27)
				)
				(hide yes)
			)
		)
		(property "Description" ""
			(at 46.355 106.68 0)
			(effects
				(font
					(size 1.27 1.27)
				)
				(hide yes)
			)
		)
		(pin "1"
			(uuid "ae41507e-4030-4d02-a148-e569957f8f4f")
		)
		(pin "2"
			(uuid "87f769ab-9a74-4d93-bb83-32e7b4cce08a")
		)
		(instances
			(project "betaBoard"
				(path "/3d37b943-9a24-43ad-9fbf-b901b38695ce/a19c94be-85f2-45d0-b8ae-fe772296c136"
					(reference "R34")
					(unit 1)
				)
			)
		)
	)
	(symbol
		(lib_id "Amplifier_Operational:LM358")
		(at 220.345 78.74 0)
		(mirror x)
		(unit 1)
		(exclude_from_sim no)
		(in_bom yes)
		(on_board yes)
		(dnp no)
		(uuid "df2030bd-e1ef-4ab0-a59a-b19a08c3ebd9")
		(property "Reference" "U4"
			(at 220.345 68.58 0)
			(effects
				(font
					(size 1.27 1.27)
				)
			)
		)
		(property "Value" "MCP6232"
			(at 220.345 71.12 0)
			(effects
				(font
					(size 1.27 1.27)
				)
			)
		)
		(property "Footprint" "Package_SO:SOIC-8_3.9x4.9mm_P1.27mm"
			(at 220.345 78.74 0)
			(effects
				(font
					(size 1.27 1.27)
				)
				(hide yes)
			)
		)
		(property "Datasheet" "http://www.ti.com/lit/ds/symlink/lm2904-n.pdf"
			(at 220.345 78.74 0)
			(effects
				(font
					(size 1.27 1.27)
				)
				(hide yes)
			)
		)
		(property "Description" ""
			(at 220.345 78.74 0)
			(effects
				(font
					(size 1.27 1.27)
				)
				(hide yes)
			)
		)
		(pin "1"
			(uuid "021f5ad3-e953-46d2-aadd-522bb42265d9")
		)
		(pin "2"
			(uuid "59eb542c-9a44-40ea-a558-d0a1d0201ed8")
		)
		(pin "3"
			(uuid "fc7c9b0b-3d00-4278-960d-1a633a4650f2")
		)
		(pin "5"
			(uuid "b9c33d23-87b3-4f08-8ea1-303b96d1418a")
		)
		(pin "6"
			(uuid "619b18f4-5c42-4eed-8684-e27d454ebcd0")
		)
		(pin "7"
			(uuid "ef55aff4-bcdc-4f4d-992a-320e21caa019")
		)
		(pin "4"
			(uuid "6b965c26-9a6a-4a2c-9aa7-21cdb7528a0a")
		)
		(pin "8"
			(uuid "3d419c85-6d7a-4fa4-89d8-a31b82759684")
		)
		(instances
			(project "betaBoard"
				(path "/3d37b943-9a24-43ad-9fbf-b901b38695ce/a19c94be-85f2-45d0-b8ae-fe772296c136"
					(reference "U4")
					(unit 1)
				)
			)
		)
	)
	(symbol
		(lib_id "Device:C")
		(at 125.095 151.13 0)
		(unit 1)
		(exclude_from_sim no)
		(in_bom yes)
		(on_board yes)
		(dnp no)
		(fields_autoplaced yes)
		(uuid "e48a3f26-61fa-4061-9fbc-58f17ee1c211")
		(property "Reference" "C28"
			(at 128.27 149.86 0)
			(effects
				(font
					(size 1.27 1.27)
				)
				(justify left)
			)
		)
		(property "Value" "10u"
			(at 128.27 152.4 0)
			(effects
				(font
					(size 1.27 1.27)
				)
				(justify left)
			)
		)
		(property "Footprint" "Capacitor_SMD:C_0603_1608Metric"
			(at 126.0602 154.94 0)
			(effects
				(font
					(size 1.27 1.27)
				)
				(hide yes)
			)
		)
		(property "Datasheet" "~"
			(at 125.095 151.13 0)
			(effects
				(font
					(size 1.27 1.27)
				)
				(hide yes)
			)
		)
		(property "Description" ""
			(at 125.095 151.13 0)
			(effects
				(font
					(size 1.27 1.27)
				)
				(hide yes)
			)
		)
		(pin "1"
			(uuid "a57fe0ca-453f-4ff4-9a47-a0827189d0f2")
		)
		(pin "2"
			(uuid "cbab4f7b-ffff-4734-9d51-d13bdbbb99b5")
		)
		(instances
			(project "betaBoard"
				(path "/3d37b943-9a24-43ad-9fbf-b901b38695ce/a19c94be-85f2-45d0-b8ae-fe772296c136"
					(reference "C28")
					(unit 1)
				)
			)
		)
	)
	(symbol
		(lib_id "Device:C")
		(at 153.035 100.33 90)
		(mirror x)
		(unit 1)
		(exclude_from_sim no)
		(in_bom yes)
		(on_board yes)
		(dnp no)
		(fields_autoplaced yes)
		(uuid "ebb496ed-5b81-4e11-985b-5310a1d2fc53")
		(property "Reference" "C29"
			(at 153.035 93.345 90)
			(effects
				(font
					(size 1.27 1.27)
				)
			)
		)
		(property "Value" "10p"
			(at 153.035 95.885 90)
			(effects
				(font
					(size 1.27 1.27)
				)
			)
		)
		(property "Footprint" "Capacitor_SMD:C_0603_1608Metric"
			(at 156.845 101.2952 0)
			(effects
				(font
					(size 1.27 1.27)
				)
				(hide yes)
			)
		)
		(property "Datasheet" "~"
			(at 153.035 100.33 0)
			(effects
				(font
					(size 1.27 1.27)
				)
				(hide yes)
			)
		)
		(property "Description" ""
			(at 153.035 100.33 0)
			(effects
				(font
					(size 1.27 1.27)
				)
				(hide yes)
			)
		)
		(pin "1"
			(uuid "284b5d84-e006-4162-aa60-622056c8be69")
		)
		(pin "2"
			(uuid "f15877fb-1244-4c5b-91a1-61d8a5393720")
		)
		(instances
			(project "betaBoard"
				(path "/3d37b943-9a24-43ad-9fbf-b901b38695ce/a19c94be-85f2-45d0-b8ae-fe772296c136"
					(reference "C29")
					(unit 1)
				)
			)
		)
	)
	(symbol
		(lib_id "Device:R")
		(at 205.74 101.6 180)
		(unit 1)
		(exclude_from_sim no)
		(in_bom yes)
		(on_board yes)
		(dnp no)
		(fields_autoplaced yes)
		(uuid "fab27a5f-ff84-4089-8cda-792126179497")
		(property "Reference" "R19"
			(at 207.645 100.33 0)
			(effects
				(font
					(size 1.27 1.27)
				)
				(justify right)
			)
		)
		(property "Value" "100k"
			(at 207.645 102.87 0)
			(effects
				(font
					(size 1.27 1.27)
				)
				(justify right)
			)
		)
		(property "Footprint" "Resistor_SMD:R_0603_1608Metric"
			(at 207.518 101.6 90)
			(effects
				(font
					(size 1.27 1.27)
				)
				(hide yes)
			)
		)
		(property "Datasheet" "~"
			(at 205.74 101.6 0)
			(effects
				(font
					(size 1.27 1.27)
				)
				(hide yes)
			)
		)
		(property "Description" ""
			(at 205.74 101.6 0)
			(effects
				(font
					(size 1.27 1.27)
				)
				(hide yes)
			)
		)
		(pin "1"
			(uuid "e6e636c8-807f-4362-9c3c-050dda6277e5")
		)
		(pin "2"
			(uuid "e0615891-45b2-42df-ac87-5fcf075a7051")
		)
		(instances
			(project "betaBoard"
				(path "/3d37b943-9a24-43ad-9fbf-b901b38695ce/a19c94be-85f2-45d0-b8ae-fe772296c136"
					(reference "R19")
					(unit 1)
				)
			)
		)
	)
	(symbol
		(lib_id "Device:C")
		(at 118.745 124.46 90)
		(mirror x)
		(unit 1)
		(exclude_from_sim no)
		(in_bom yes)
		(on_board yes)
		(dnp no)
		(fields_autoplaced yes)
		(uuid "fd920679-22fc-4304-92c2-0020a3b549ea")
		(property "Reference" "C27"
			(at 118.745 117.475 90)
			(effects
				(font
					(size 1.27 1.27)
				)
			)
		)
		(property "Value" "100n"
			(at 118.745 120.015 90)
			(effects
				(font
					(size 1.27 1.27)
				)
			)
		)
		(property "Footprint" "Capacitor_SMD:C_0603_1608Metric"
			(at 122.555 125.4252 0)
			(effects
				(font
					(size 1.27 1.27)
				)
				(hide yes)
			)
		)
		(property "Datasheet" "~"
			(at 118.745 124.46 0)
			(effects
				(font
					(size 1.27 1.27)
				)
				(hide yes)
			)
		)
		(property "Description" ""
			(at 118.745 124.46 0)
			(effects
				(font
					(size 1.27 1.27)
				)
				(hide yes)
			)
		)
		(pin "1"
			(uuid "34fac2f6-4c7b-4e27-9c04-6d3bfdb2cf58")
		)
		(pin "2"
			(uuid "441665a3-7454-415b-bec8-c24bd35fa4ff")
		)
		(instances
			(project "betaBoard"
				(path "/3d37b943-9a24-43ad-9fbf-b901b38695ce/a19c94be-85f2-45d0-b8ae-fe772296c136"
					(reference "C27")
					(unit 1)
				)
			)
		)
	)
)
