(kicad_sch
	(version 20231120)
	(generator "eeschema")
	(generator_version "8.0")
	(uuid "e09fdabf-04ad-457e-94a7-988337bdd582")
	(paper "A4")
	(lib_symbols
		(symbol "Amplifier_Operational:LM358"
			(pin_names
				(offset 0.127)
			)
			(exclude_from_sim no)
			(in_bom yes)
			(on_board yes)
			(property "Reference" "U"
				(at 0 5.08 0)
				(effects
					(font
						(size 1.27 1.27)
					)
					(justify left)
				)
			)
			(property "Value" "LM358"
				(at 0 -5.08 0)
				(effects
					(font
						(size 1.27 1.27)
					)
					(justify left)
				)
			)
			(property "Footprint" ""
				(at 0 0 0)
				(effects
					(font
						(size 1.27 1.27)
					)
					(hide yes)
				)
			)
			(property "Datasheet" "http://www.ti.com/lit/ds/symlink/lm2904-n.pdf"
				(at 0 0 0)
				(effects
					(font
						(size 1.27 1.27)
					)
					(hide yes)
				)
			)
			(property "Description" "Low-Power, Dual Operational Amplifiers, DIP-8/SOIC-8/TO-99-8"
				(at 0 0 0)
				(effects
					(font
						(size 1.27 1.27)
					)
					(hide yes)
				)
			)
			(property "ki_locked" ""
				(at 0 0 0)
				(effects
					(font
						(size 1.27 1.27)
					)
				)
			)
			(property "ki_keywords" "dual opamp"
				(at 0 0 0)
				(effects
					(font
						(size 1.27 1.27)
					)
					(hide yes)
				)
			)
			(property "ki_fp_filters" "SOIC*3.9x4.9mm*P1.27mm* DIP*W7.62mm* TO*99* OnSemi*Micro8* TSSOP*3x3mm*P0.65mm* TSSOP*4.4x3mm*P0.65mm* MSOP*3x3mm*P0.65mm* SSOP*3.9x4.9mm*P0.635mm* LFCSP*2x2mm*P0.5mm* *SIP* SOIC*5.3x6.2mm*P1.27mm*"
				(at 0 0 0)
				(effects
					(font
						(size 1.27 1.27)
					)
					(hide yes)
				)
			)
			(symbol "LM358_1_1"
				(polyline
					(pts
						(xy -5.08 5.08) (xy 5.08 0) (xy -5.08 -5.08) (xy -5.08 5.08)
					)
					(stroke
						(width 0.254)
						(type default)
					)
					(fill
						(type background)
					)
				)
				(pin output line
					(at 7.62 0 180)
					(length 2.54)
					(name "~"
						(effects
							(font
								(size 1.27 1.27)
							)
						)
					)
					(number "1"
						(effects
							(font
								(size 1.27 1.27)
							)
						)
					)
				)
				(pin input line
					(at -7.62 -2.54 0)
					(length 2.54)
					(name "-"
						(effects
							(font
								(size 1.27 1.27)
							)
						)
					)
					(number "2"
						(effects
							(font
								(size 1.27 1.27)
							)
						)
					)
				)
				(pin input line
					(at -7.62 2.54 0)
					(length 2.54)
					(name "+"
						(effects
							(font
								(size 1.27 1.27)
							)
						)
					)
					(number "3"
						(effects
							(font
								(size 1.27 1.27)
							)
						)
					)
				)
			)
			(symbol "LM358_2_1"
				(polyline
					(pts
						(xy -5.08 5.08) (xy 5.08 0) (xy -5.08 -5.08) (xy -5.08 5.08)
					)
					(stroke
						(width 0.254)
						(type default)
					)
					(fill
						(type background)
					)
				)
				(pin input line
					(at -7.62 2.54 0)
					(length 2.54)
					(name "+"
						(effects
							(font
								(size 1.27 1.27)
							)
						)
					)
					(number "5"
						(effects
							(font
								(size 1.27 1.27)
							)
						)
					)
				)
				(pin input line
					(at -7.62 -2.54 0)
					(length 2.54)
					(name "-"
						(effects
							(font
								(size 1.27 1.27)
							)
						)
					)
					(number "6"
						(effects
							(font
								(size 1.27 1.27)
							)
						)
					)
				)
				(pin output line
					(at 7.62 0 180)
					(length 2.54)
					(name "~"
						(effects
							(font
								(size 1.27 1.27)
							)
						)
					)
					(number "7"
						(effects
							(font
								(size 1.27 1.27)
							)
						)
					)
				)
			)
			(symbol "LM358_3_1"
				(pin power_in line
					(at -2.54 -7.62 90)
					(length 3.81)
					(name "V-"
						(effects
							(font
								(size 1.27 1.27)
							)
						)
					)
					(number "4"
						(effects
							(font
								(size 1.27 1.27)
							)
						)
					)
				)
				(pin power_in line
					(at -2.54 7.62 270)
					(length 3.81)
					(name "V+"
						(effects
							(font
								(size 1.27 1.27)
							)
						)
					)
					(number "8"
						(effects
							(font
								(size 1.27 1.27)
							)
						)
					)
				)
			)
		)
		(symbol "Device:C"
			(pin_numbers hide)
			(pin_names
				(offset 0.254)
			)
			(exclude_from_sim no)
			(in_bom yes)
			(on_board yes)
			(property "Reference" "C"
				(at 0.635 2.54 0)
				(effects
					(font
						(size 1.27 1.27)
					)
					(justify left)
				)
			)
			(property "Value" "C"
				(at 0.635 -2.54 0)
				(effects
					(font
						(size 1.27 1.27)
					)
					(justify left)
				)
			)
			(property "Footprint" ""
				(at 0.9652 -3.81 0)
				(effects
					(font
						(size 1.27 1.27)
					)
					(hide yes)
				)
			)
			(property "Datasheet" "~"
				(at 0 0 0)
				(effects
					(font
						(size 1.27 1.27)
					)
					(hide yes)
				)
			)
			(property "Description" "Unpolarized capacitor"
				(at 0 0 0)
				(effects
					(font
						(size 1.27 1.27)
					)
					(hide yes)
				)
			)
			(property "ki_keywords" "cap capacitor"
				(at 0 0 0)
				(effects
					(font
						(size 1.27 1.27)
					)
					(hide yes)
				)
			)
			(property "ki_fp_filters" "C_*"
				(at 0 0 0)
				(effects
					(font
						(size 1.27 1.27)
					)
					(hide yes)
				)
			)
			(symbol "C_0_1"
				(polyline
					(pts
						(xy -2.032 -0.762) (xy 2.032 -0.762)
					)
					(stroke
						(width 0.508)
						(type default)
					)
					(fill
						(type none)
					)
				)
				(polyline
					(pts
						(xy -2.032 0.762) (xy 2.032 0.762)
					)
					(stroke
						(width 0.508)
						(type default)
					)
					(fill
						(type none)
					)
				)
			)
			(symbol "C_1_1"
				(pin passive line
					(at 0 3.81 270)
					(length 2.794)
					(name "~"
						(effects
							(font
								(size 1.27 1.27)
							)
						)
					)
					(number "1"
						(effects
							(font
								(size 1.27 1.27)
							)
						)
					)
				)
				(pin passive line
					(at 0 -3.81 90)
					(length 2.794)
					(name "~"
						(effects
							(font
								(size 1.27 1.27)
							)
						)
					)
					(number "2"
						(effects
							(font
								(size 1.27 1.27)
							)
						)
					)
				)
			)
		)
		(symbol "Device:R"
			(pin_numbers hide)
			(pin_names
				(offset 0)
			)
			(exclude_from_sim no)
			(in_bom yes)
			(on_board yes)
			(property "Reference" "R"
				(at 2.032 0 90)
				(effects
					(font
						(size 1.27 1.27)
					)
				)
			)
			(property "Value" "R"
				(at 0 0 90)
				(effects
					(font
						(size 1.27 1.27)
					)
				)
			)
			(property "Footprint" ""
				(at -1.778 0 90)
				(effects
					(font
						(size 1.27 1.27)
					)
					(hide yes)
				)
			)
			(property "Datasheet" "~"
				(at 0 0 0)
				(effects
					(font
						(size 1.27 1.27)
					)
					(hide yes)
				)
			)
			(property "Description" "Resistor"
				(at 0 0 0)
				(effects
					(font
						(size 1.27 1.27)
					)
					(hide yes)
				)
			)
			(property "ki_keywords" "R res resistor"
				(at 0 0 0)
				(effects
					(font
						(size 1.27 1.27)
					)
					(hide yes)
				)
			)
			(property "ki_fp_filters" "R_*"
				(at 0 0 0)
				(effects
					(font
						(size 1.27 1.27)
					)
					(hide yes)
				)
			)
			(symbol "R_0_1"
				(rectangle
					(start -1.016 -2.54)
					(end 1.016 2.54)
					(stroke
						(width 0.254)
						(type default)
					)
					(fill
						(type none)
					)
				)
			)
			(symbol "R_1_1"
				(pin passive line
					(at 0 3.81 270)
					(length 1.27)
					(name "~"
						(effects
							(font
								(size 1.27 1.27)
							)
						)
					)
					(number "1"
						(effects
							(font
								(size 1.27 1.27)
							)
						)
					)
				)
				(pin passive line
					(at 0 -3.81 90)
					(length 1.27)
					(name "~"
						(effects
							(font
								(size 1.27 1.27)
							)
						)
					)
					(number "2"
						(effects
							(font
								(size 1.27 1.27)
							)
						)
					)
				)
			)
		)
		(symbol "Diode:ZMMxx"
			(pin_numbers hide)
			(pin_names hide)
			(exclude_from_sim no)
			(in_bom yes)
			(on_board yes)
			(property "Reference" "D"
				(at 0 2.54 0)
				(effects
					(font
						(size 1.27 1.27)
					)
				)
			)
			(property "Value" "ZMMxx"
				(at 0 -2.54 0)
				(effects
					(font
						(size 1.27 1.27)
					)
				)
			)
			(property "Footprint" "Diode_SMD:D_MiniMELF"
				(at 0 -4.445 0)
				(effects
					(font
						(size 1.27 1.27)
					)
					(hide yes)
				)
			)
			(property "Datasheet" "https://diotec.com/tl_files/diotec/files/pdf/datasheets/zmm1.pdf"
				(at 0 0 0)
				(effects
					(font
						(size 1.27 1.27)
					)
					(hide yes)
				)
			)
			(property "Description" "500mW Zener Diode, MiniMELF"
				(at 0 0 0)
				(effects
					(font
						(size 1.27 1.27)
					)
					(hide yes)
				)
			)
			(property "ki_keywords" "zener diode"
				(at 0 0 0)
				(effects
					(font
						(size 1.27 1.27)
					)
					(hide yes)
				)
			)
			(property "ki_fp_filters" "D*MiniMELF*"
				(at 0 0 0)
				(effects
					(font
						(size 1.27 1.27)
					)
					(hide yes)
				)
			)
			(symbol "ZMMxx_0_1"
				(polyline
					(pts
						(xy 1.27 0) (xy -1.27 0)
					)
					(stroke
						(width 0)
						(type default)
					)
					(fill
						(type none)
					)
				)
				(polyline
					(pts
						(xy -1.27 -1.27) (xy -1.27 1.27) (xy -0.762 1.27)
					)
					(stroke
						(width 0.254)
						(type default)
					)
					(fill
						(type none)
					)
				)
				(polyline
					(pts
						(xy 1.27 -1.27) (xy 1.27 1.27) (xy -1.27 0) (xy 1.27 -1.27)
					)
					(stroke
						(width 0.254)
						(type default)
					)
					(fill
						(type none)
					)
				)
			)
			(symbol "ZMMxx_1_1"
				(pin passive line
					(at -3.81 0 0)
					(length 2.54)
					(name "K"
						(effects
							(font
								(size 1.27 1.27)
							)
						)
					)
					(number "1"
						(effects
							(font
								(size 1.27 1.27)
							)
						)
					)
				)
				(pin passive line
					(at 3.81 0 180)
					(length 2.54)
					(name "A"
						(effects
							(font
								(size 1.27 1.27)
							)
						)
					)
					(number "2"
						(effects
							(font
								(size 1.27 1.27)
							)
						)
					)
				)
			)
		)
		(symbol "power:GND"
			(power)
			(pin_names
				(offset 0)
			)
			(exclude_from_sim no)
			(in_bom yes)
			(on_board yes)
			(property "Reference" "#PWR"
				(at 0 -6.35 0)
				(effects
					(font
						(size 1.27 1.27)
					)
					(hide yes)
				)
			)
			(property "Value" "GND"
				(at 0 -3.81 0)
				(effects
					(font
						(size 1.27 1.27)
					)
				)
			)
			(property "Footprint" ""
				(at 0 0 0)
				(effects
					(font
						(size 1.27 1.27)
					)
					(hide yes)
				)
			)
			(property "Datasheet" ""
				(at 0 0 0)
				(effects
					(font
						(size 1.27 1.27)
					)
					(hide yes)
				)
			)
			(property "Description" "Power symbol creates a global label with name \"GND\" , ground"
				(at 0 0 0)
				(effects
					(font
						(size 1.27 1.27)
					)
					(hide yes)
				)
			)
			(property "ki_keywords" "global power"
				(at 0 0 0)
				(effects
					(font
						(size 1.27 1.27)
					)
					(hide yes)
				)
			)
			(symbol "GND_0_1"
				(polyline
					(pts
						(xy 0 0) (xy 0 -1.27) (xy 1.27 -1.27) (xy 0 -2.54) (xy -1.27 -1.27) (xy 0 -1.27)
					)
					(stroke
						(width 0)
						(type default)
					)
					(fill
						(type none)
					)
				)
			)
			(symbol "GND_1_1"
				(pin power_in line
					(at 0 0 270)
					(length 0) hide
					(name "GND"
						(effects
							(font
								(size 1.27 1.27)
							)
						)
					)
					(number "1"
						(effects
							(font
								(size 1.27 1.27)
							)
						)
					)
				)
			)
		)
		(symbol "power:VCC"
			(power)
			(pin_names
				(offset 0)
			)
			(exclude_from_sim no)
			(in_bom yes)
			(on_board yes)
			(property "Reference" "#PWR"
				(at 0 -3.81 0)
				(effects
					(font
						(size 1.27 1.27)
					)
					(hide yes)
				)
			)
			(property "Value" "VCC"
				(at 0 3.81 0)
				(effects
					(font
						(size 1.27 1.27)
					)
				)
			)
			(property "Footprint" ""
				(at 0 0 0)
				(effects
					(font
						(size 1.27 1.27)
					)
					(hide yes)
				)
			)
			(property "Datasheet" ""
				(at 0 0 0)
				(effects
					(font
						(size 1.27 1.27)
					)
					(hide yes)
				)
			)
			(property "Description" "Power symbol creates a global label with name \"VCC\""
				(at 0 0 0)
				(effects
					(font
						(size 1.27 1.27)
					)
					(hide yes)
				)
			)
			(property "ki_keywords" "global power"
				(at 0 0 0)
				(effects
					(font
						(size 1.27 1.27)
					)
					(hide yes)
				)
			)
			(symbol "VCC_0_1"
				(polyline
					(pts
						(xy -0.762 1.27) (xy 0 2.54)
					)
					(stroke
						(width 0)
						(type default)
					)
					(fill
						(type none)
					)
				)
				(polyline
					(pts
						(xy 0 0) (xy 0 2.54)
					)
					(stroke
						(width 0)
						(type default)
					)
					(fill
						(type none)
					)
				)
				(polyline
					(pts
						(xy 0 2.54) (xy 0.762 1.27)
					)
					(stroke
						(width 0)
						(type default)
					)
					(fill
						(type none)
					)
				)
			)
			(symbol "VCC_1_1"
				(pin power_in line
					(at 0 0 90)
					(length 0) hide
					(name "VCC"
						(effects
							(font
								(size 1.27 1.27)
							)
						)
					)
					(number "1"
						(effects
							(font
								(size 1.27 1.27)
							)
						)
					)
				)
			)
		)
	)
	(junction
		(at 127 99.695)
		(diameter 0)
		(color 0 0 0 0)
		(uuid "17840697-fade-4244-be8e-9fd57874037d")
	)
	(junction
		(at 88.265 132.715)
		(diameter 0)
		(color 0 0 0 0)
		(uuid "2245726f-78a9-4feb-b2b7-e6547fa56edb")
	)
	(junction
		(at 171.45 132.715)
		(diameter 0)
		(color 0 0 0 0)
		(uuid "2f2ef81b-3b33-4dbc-a9f1-1674be0583a0")
	)
	(junction
		(at 221.615 102.235)
		(diameter 0)
		(color 0 0 0 0)
		(uuid "33d0485a-baaf-4e73-93e4-af283d5667b1")
	)
	(junction
		(at 190.5 86.36)
		(diameter 0)
		(color 0 0 0 0)
		(uuid "3c60acf8-c38b-4dc0-9bd4-211c3dfb50ed")
	)
	(junction
		(at 208.28 102.235)
		(diameter 0)
		(color 0 0 0 0)
		(uuid "3d27dcf1-a750-4ea7-83b9-98b1ebe15781")
	)
	(junction
		(at 184.15 121.285)
		(diameter 0)
		(color 0 0 0 0)
		(uuid "43fedfd1-9f55-43d7-8f1a-5f6c65eb1b78")
	)
	(junction
		(at 190.5 99.695)
		(diameter 0)
		(color 0 0 0 0)
		(uuid "46ade584-61a9-4772-ad74-189f939c2a7c")
	)
	(junction
		(at 184.15 132.715)
		(diameter 0)
		(color 0 0 0 0)
		(uuid "471d7dc6-5727-477e-9527-50470e73e9e3")
	)
	(junction
		(at 100.965 97.155)
		(diameter 0)
		(color 0 0 0 0)
		(uuid "4da192e2-22c9-4471-bf95-8e9fefb3d8cf")
	)
	(junction
		(at 100.965 83.82)
		(diameter 0)
		(color 0 0 0 0)
		(uuid "4ee626fd-79de-4173-9522-01e061ad15d8")
	)
	(junction
		(at 59.69 53.975)
		(diameter 0)
		(color 0 0 0 0)
		(uuid "6079cc85-3f43-4438-9ca2-3639b61adee6")
	)
	(junction
		(at 106.68 116.205)
		(diameter 0)
		(color 0 0 0 0)
		(uuid "80a260ab-6474-441a-adc1-5fbd66606a69")
	)
	(junction
		(at 59.69 69.215)
		(diameter 0)
		(color 0 0 0 0)
		(uuid "bd9f65b1-ed22-450c-8e06-713ed85800d2")
	)
	(junction
		(at 127 83.82)
		(diameter 0)
		(color 0 0 0 0)
		(uuid "d0345fac-3f48-43f1-bccb-fec06cdc71a5")
	)
	(junction
		(at 88.265 116.205)
		(diameter 0)
		(color 0 0 0 0)
		(uuid "dbfeb14a-b370-4ea9-8e9f-a46c1585a5b9")
	)
	(junction
		(at 208.28 86.36)
		(diameter 0)
		(color 0 0 0 0)
		(uuid "e2354937-f6e5-44c4-80be-ca288ee9483a")
	)
	(junction
		(at 155.575 116.205)
		(diameter 0)
		(color 0 0 0 0)
		(uuid "e510759d-9820-4610-bdbe-66d97526c890")
	)
	(junction
		(at 142.875 99.695)
		(diameter 0)
		(color 0 0 0 0)
		(uuid "fcdd7e29-01ad-4401-9e84-c40103135560")
	)
	(wire
		(pts
			(xy 117.475 83.82) (xy 127 83.82)
		)
		(stroke
			(width 0)
			(type default)
		)
		(uuid "087949ca-573d-48c9-8df5-f22ea1d6efb0")
	)
	(wire
		(pts
			(xy 70.485 53.975) (xy 70.485 57.785)
		)
		(stroke
			(width 0)
			(type default)
		)
		(uuid "0ae69f6c-81ab-414b-a375-60b08fcb1df1")
	)
	(wire
		(pts
			(xy 88.265 121.285) (xy 88.265 116.205)
		)
		(stroke
			(width 0)
			(type default)
		)
		(uuid "0d25fbc9-8ebc-490a-9a94-c7f71d5a8f86")
	)
	(wire
		(pts
			(xy 184.15 135.255) (xy 184.15 132.715)
		)
		(stroke
			(width 0)
			(type default)
		)
		(uuid "0f9a2027-1901-4736-a0d1-668a4fc55db0")
	)
	(wire
		(pts
			(xy 88.265 116.205) (xy 106.68 116.205)
		)
		(stroke
			(width 0)
			(type default)
		)
		(uuid "12261677-dc5c-4880-885d-b4be25e9068f")
	)
	(wire
		(pts
			(xy 95.25 97.155) (xy 100.965 97.155)
		)
		(stroke
			(width 0)
			(type default)
		)
		(uuid "12f5985a-755f-448f-af3f-ceb31df4ddf4")
	)
	(wire
		(pts
			(xy 155.575 116.205) (xy 167.005 116.205)
		)
		(stroke
			(width 0)
			(type default)
		)
		(uuid "15390d21-147a-417e-bb8c-74b6bdf420f7")
	)
	(wire
		(pts
			(xy 155.575 115.57) (xy 155.575 116.205)
		)
		(stroke
			(width 0)
			(type default)
		)
		(uuid "1543cf27-2804-4941-bd36-906a198cc193")
	)
	(wire
		(pts
			(xy 203.2 86.36) (xy 208.28 86.36)
		)
		(stroke
			(width 0)
			(type default)
		)
		(uuid "16f6ebb8-479a-4f7a-b4c8-0ff6c4426e47")
	)
	(wire
		(pts
			(xy 203.2 75.565) (xy 208.28 75.565)
		)
		(stroke
			(width 0)
			(type default)
		)
		(uuid "2026c972-d3fd-4ae2-905b-be6316201d80")
	)
	(wire
		(pts
			(xy 106.68 128.905) (xy 106.68 132.715)
		)
		(stroke
			(width 0)
			(type default)
		)
		(uuid "2a83a4c3-dac7-4e27-b85a-4800f0247ecb")
	)
	(wire
		(pts
			(xy 59.69 69.215) (xy 70.485 69.215)
		)
		(stroke
			(width 0)
			(type default)
		)
		(uuid "2b76d50e-8cc1-4297-a408-adf14b771979")
	)
	(wire
		(pts
			(xy 191.135 121.285) (xy 191.135 104.775)
		)
		(stroke
			(width 0)
			(type default)
		)
		(uuid "30aa4df9-2aaa-4ea3-ab88-adf8dea82f7b")
	)
	(wire
		(pts
			(xy 123.825 71.755) (xy 127 71.755)
		)
		(stroke
			(width 0)
			(type default)
		)
		(uuid "37643efb-3fc4-4d78-a31b-e5e9af207c00")
	)
	(wire
		(pts
			(xy 177.8 99.695) (xy 168.91 99.695)
		)
		(stroke
			(width 0)
			(type default)
		)
		(uuid "3d166533-23b7-42b9-9c61-ba52e9691b48")
	)
	(wire
		(pts
			(xy 208.28 102.235) (xy 210.185 102.235)
		)
		(stroke
			(width 0)
			(type default)
		)
		(uuid "3d963798-c504-41f9-aa45-8bd1c946658f")
	)
	(wire
		(pts
			(xy 208.28 86.36) (xy 208.28 102.235)
		)
		(stroke
			(width 0)
			(type default)
		)
		(uuid "3dd17b18-a77c-4e29-aaf5-ea689223c630")
	)
	(wire
		(pts
			(xy 171.45 132.715) (xy 155.575 132.715)
		)
		(stroke
			(width 0)
			(type default)
		)
		(uuid "42253c47-5858-457f-a3e4-fad0477a5388")
	)
	(wire
		(pts
			(xy 190.5 99.695) (xy 191.135 99.695)
		)
		(stroke
			(width 0)
			(type default)
		)
		(uuid "43cf2e62-fe4f-44bb-920b-94c7ccff35d5")
	)
	(wire
		(pts
			(xy 184.15 132.715) (xy 184.15 128.905)
		)
		(stroke
			(width 0)
			(type default)
		)
		(uuid "4508d516-ccf4-48cf-ada4-50187d3c46da")
	)
	(wire
		(pts
			(xy 171.45 122.555) (xy 171.45 121.285)
		)
		(stroke
			(width 0)
			(type default)
		)
		(uuid "474da6ff-eb6c-4794-8b0c-a600e45618ee")
	)
	(wire
		(pts
			(xy 171.45 121.285) (xy 184.15 121.285)
		)
		(stroke
			(width 0)
			(type default)
		)
		(uuid "5148c699-5205-4d5a-ab10-b079e1aa9fca")
	)
	(wire
		(pts
			(xy 70.485 69.215) (xy 70.485 65.405)
		)
		(stroke
			(width 0)
			(type default)
		)
		(uuid "528b4028-da44-4091-950d-ae0af7b89a61")
	)
	(wire
		(pts
			(xy 184.15 121.285) (xy 191.135 121.285)
		)
		(stroke
			(width 0)
			(type default)
		)
		(uuid "55bf4d55-491a-467a-b8ab-f8cb3dd0e81f")
	)
	(wire
		(pts
			(xy 88.265 132.715) (xy 88.265 128.905)
		)
		(stroke
			(width 0)
			(type default)
		)
		(uuid "56298864-3a5d-4cb0-b54f-49504e71fe0e")
	)
	(wire
		(pts
			(xy 127 99.695) (xy 142.875 99.695)
		)
		(stroke
			(width 0)
			(type default)
		)
		(uuid "58d272bc-ba77-468a-8fa5-3cfc7cd922a2")
	)
	(wire
		(pts
			(xy 155.575 125.095) (xy 155.575 132.715)
		)
		(stroke
			(width 0)
			(type default)
		)
		(uuid "58f31287-883a-485a-8296-77b150f5a58f")
	)
	(wire
		(pts
			(xy 121.92 99.695) (xy 127 99.695)
		)
		(stroke
			(width 0)
			(type default)
		)
		(uuid "5945dd12-784b-427f-9315-cc51e323121f")
	)
	(wire
		(pts
			(xy 184.15 132.715) (xy 221.615 132.715)
		)
		(stroke
			(width 0)
			(type default)
		)
		(uuid "5c62d2e2-a3b1-4f56-9857-35cf981e5400")
	)
	(wire
		(pts
			(xy 167.005 111.125) (xy 184.15 111.125)
		)
		(stroke
			(width 0)
			(type default)
		)
		(uuid "6caaab90-3abd-4430-9d6d-f0fdc9a45178")
	)
	(wire
		(pts
			(xy 171.45 130.175) (xy 171.45 132.715)
		)
		(stroke
			(width 0)
			(type default)
		)
		(uuid "6def66d3-3f55-4829-b341-e484343a16ab")
	)
	(wire
		(pts
			(xy 208.28 75.565) (xy 208.28 86.36)
		)
		(stroke
			(width 0)
			(type default)
		)
		(uuid "704c49e0-0d70-4441-a5bc-286e87efa1a1")
	)
	(wire
		(pts
			(xy 155.575 116.205) (xy 155.575 117.475)
		)
		(stroke
			(width 0)
			(type default)
		)
		(uuid "74a54323-14ae-406b-8697-e86ff2dfa6f1")
	)
	(wire
		(pts
			(xy 142.875 92.71) (xy 142.875 99.695)
		)
		(stroke
			(width 0)
			(type default)
		)
		(uuid "77ec0282-0d87-4d0b-b869-866efe0657ec")
	)
	(wire
		(pts
			(xy 190.5 75.565) (xy 195.58 75.565)
		)
		(stroke
			(width 0)
			(type default)
		)
		(uuid "7971df97-c286-42fa-8194-c6115095c15c")
	)
	(wire
		(pts
			(xy 112.395 71.755) (xy 116.205 71.755)
		)
		(stroke
			(width 0)
			(type default)
		)
		(uuid "79839367-f547-46bd-b1f1-523c69819229")
	)
	(wire
		(pts
			(xy 100.965 71.755) (xy 100.965 83.82)
		)
		(stroke
			(width 0)
			(type default)
		)
		(uuid "7caeeb07-c358-4423-8bc5-e99aa67d05d7")
	)
	(wire
		(pts
			(xy 100.965 71.755) (xy 104.775 71.755)
		)
		(stroke
			(width 0)
			(type default)
		)
		(uuid "7dc768fe-53b2-4881-9370-8d69d7c62fe4")
	)
	(wire
		(pts
			(xy 59.69 53.975) (xy 70.485 53.975)
		)
		(stroke
			(width 0)
			(type default)
		)
		(uuid "84254e29-738d-43a1-8668-390763dd25db")
	)
	(wire
		(pts
			(xy 190.5 86.36) (xy 190.5 75.565)
		)
		(stroke
			(width 0)
			(type default)
		)
		(uuid "85156b6e-30ed-4c9f-8add-dba526fb46f7")
	)
	(wire
		(pts
			(xy 106.68 102.235) (xy 106.68 116.205)
		)
		(stroke
			(width 0)
			(type default)
		)
		(uuid "8744932f-cc8d-4f8e-adac-78bdec438a24")
	)
	(wire
		(pts
			(xy 106.68 121.285) (xy 106.68 116.205)
		)
		(stroke
			(width 0)
			(type default)
		)
		(uuid "87f23869-ad19-459f-ba16-5f79c492fd97")
	)
	(wire
		(pts
			(xy 217.805 102.235) (xy 221.615 102.235)
		)
		(stroke
			(width 0)
			(type default)
		)
		(uuid "904edf93-95d3-441c-bcd8-410931d63ef4")
	)
	(wire
		(pts
			(xy 221.615 113.03) (xy 221.615 102.235)
		)
		(stroke
			(width 0)
			(type default)
		)
		(uuid "93ae84a8-b0e8-4877-9b01-2b7b404a26e6")
	)
	(wire
		(pts
			(xy 167.005 116.205) (xy 167.005 111.125)
		)
		(stroke
			(width 0)
			(type default)
		)
		(uuid "954b3570-0131-4283-9d10-57162708f471")
	)
	(wire
		(pts
			(xy 106.68 132.715) (xy 88.265 132.715)
		)
		(stroke
			(width 0)
			(type default)
		)
		(uuid "9d3fafea-9779-442a-b629-28f8d2684f22")
	)
	(wire
		(pts
			(xy 127 83.82) (xy 127 99.695)
		)
		(stroke
			(width 0)
			(type default)
		)
		(uuid "a09149c0-aa4a-4211-a747-309a5e79bb04")
	)
	(wire
		(pts
			(xy 208.28 102.235) (xy 206.375 102.235)
		)
		(stroke
			(width 0)
			(type default)
		)
		(uuid "a4bfc629-a84e-4bcd-b3e8-658bec145f16")
	)
	(wire
		(pts
			(xy 185.42 99.695) (xy 190.5 99.695)
		)
		(stroke
			(width 0)
			(type default)
		)
		(uuid "a9faa18a-ceba-4f0d-9149-56f4e6301f42")
	)
	(wire
		(pts
			(xy 142.875 99.695) (xy 161.29 99.695)
		)
		(stroke
			(width 0)
			(type default)
		)
		(uuid "ab9b4071-68e5-494a-bfca-f4824be11014")
	)
	(wire
		(pts
			(xy 109.855 83.82) (xy 100.965 83.82)
		)
		(stroke
			(width 0)
			(type default)
		)
		(uuid "ae719730-2223-4fa6-845d-0550ee5ebaf0")
	)
	(wire
		(pts
			(xy 100.965 83.82) (xy 100.965 97.155)
		)
		(stroke
			(width 0)
			(type default)
		)
		(uuid "b1c437c2-1b49-4209-a518-8f363da9040d")
	)
	(wire
		(pts
			(xy 151.13 78.74) (xy 142.875 78.74)
		)
		(stroke
			(width 0)
			(type default)
		)
		(uuid "b45f943e-2b79-465b-9887-eff00a59a748")
	)
	(wire
		(pts
			(xy 190.5 86.36) (xy 190.5 99.695)
		)
		(stroke
			(width 0)
			(type default)
		)
		(uuid "b4ef2ccd-afdc-44fa-9b08-60ad193d6c5e")
	)
	(wire
		(pts
			(xy 127 71.755) (xy 127 83.82)
		)
		(stroke
			(width 0)
			(type default)
		)
		(uuid "c5763346-c0ca-4532-ac6a-c1770d10a029")
	)
	(wire
		(pts
			(xy 84.455 97.155) (xy 87.63 97.155)
		)
		(stroke
			(width 0)
			(type default)
		)
		(uuid "c84c539d-a11f-441e-9713-fd0efe72374e")
	)
	(wire
		(pts
			(xy 221.615 102.235) (xy 225.425 102.235)
		)
		(stroke
			(width 0)
			(type default)
		)
		(uuid "e19d77c6-ce17-4b5b-b43d-cc5a156cc2dc")
	)
	(wire
		(pts
			(xy 100.965 97.155) (xy 106.68 97.155)
		)
		(stroke
			(width 0)
			(type default)
		)
		(uuid "e5fbc35c-6a8b-4567-a57b-0137aaf32f54")
	)
	(wire
		(pts
			(xy 184.15 132.715) (xy 171.45 132.715)
		)
		(stroke
			(width 0)
			(type default)
		)
		(uuid "ea3ae87e-0a0c-4f91-b567-7da826808eb3")
	)
	(wire
		(pts
			(xy 142.875 78.74) (xy 142.875 85.09)
		)
		(stroke
			(width 0)
			(type default)
		)
		(uuid "f075f331-ed30-4cf2-ad4c-214e6b8af644")
	)
	(wire
		(pts
			(xy 88.265 113.665) (xy 88.265 116.205)
		)
		(stroke
			(width 0)
			(type default)
		)
		(uuid "f11cbf2f-3045-4e71-b699-d390221d8c4a")
	)
	(wire
		(pts
			(xy 195.58 86.36) (xy 190.5 86.36)
		)
		(stroke
			(width 0)
			(type default)
		)
		(uuid "f8523d65-c544-45fd-8010-23c630f8d4d2")
	)
	(wire
		(pts
			(xy 184.15 111.125) (xy 184.15 113.665)
		)
		(stroke
			(width 0)
			(type default)
		)
		(uuid "f8dd33e7-19bb-4e82-9346-7ca293ea9947")
	)
	(wire
		(pts
			(xy 221.615 132.715) (xy 221.615 120.65)
		)
		(stroke
			(width 0)
			(type default)
		)
		(uuid "faf3312b-3761-47c4-b709-ea9ef86c2d0b")
	)
	(text "5V -> 3V8"
		(exclude_from_sim no)
		(at 71.12 107.95 0)
		(effects
			(font
				(size 1.27 1.27)
			)
			(justify left bottom)
		)
		(uuid "3df83111-04a3-4f04-9a6a-983797b130ef")
	)
	(text "TODO: Figure out good gain values for Alpha detector"
		(exclude_from_sim no)
		(at 143.51 52.07 0)
		(effects
			(font
				(size 1.27 1.27)
			)
			(justify left bottom)
		)
		(uuid "44f1be9c-8172-4354-bd25-658d297e05a7")
	)
	(text "10pF is the smallest\nbasic component at JLC\n10 MOhm the largest R"
		(exclude_from_sim no)
		(at 102.87 59.69 0)
		(effects
			(font
				(size 1.27 1.27)
			)
			(justify left bottom)
		)
		(uuid "aec609d5-b17d-45d1-8c41-83a0c590d68e")
	)
	(text "R = (5V - 3.3V) / 5 mA = 370 Ohm"
		(exclude_from_sim no)
		(at 81.28 144.145 0)
		(effects
			(font
				(size 1.27 1.27)
			)
			(justify left bottom)
		)
		(uuid "c0d19f11-e871-4d1b-9d08-9ef33933a9d0")
	)
	(text "Biased at 3V\n=> good for ADC"
		(exclude_from_sim no)
		(at 193.675 123.19 0)
		(effects
			(font
				(size 1.27 1.27)
			)
			(justify left bottom)
		)
		(uuid "d48db06d-0563-4f6a-918d-b8e30a824e75")
	)
	(hierarchical_label "out"
		(shape output)
		(at 225.425 102.235 0)
		(fields_autoplaced yes)
		(effects
			(font
				(size 1.27 1.27)
			)
			(justify left)
		)
		(uuid "91ffd2a7-6116-4455-8074-2b163be99442")
	)
	(hierarchical_label "Diodes"
		(shape bidirectional)
		(at 84.455 97.155 180)
		(fields_autoplaced yes)
		(effects
			(font
				(size 1.27 1.27)
			)
			(justify right)
		)
		(uuid "af85b204-4d1f-4e28-b0d6-068a8c740df1")
	)
	(hierarchical_label "out_bias"
		(shape output)
		(at 151.13 78.74 0)
		(fields_autoplaced yes)
		(effects
			(font
				(size 1.27 1.27)
			)
			(justify left)
		)
		(uuid "cffb3515-cbfe-47bb-98e3-107cbf9e3388")
	)
	(symbol
		(lib_id "Amplifier_Operational:LM358")
		(at 62.23 61.595 0)
		(unit 3)
		(exclude_from_sim no)
		(in_bom yes)
		(on_board yes)
		(dnp no)
		(fields_autoplaced yes)
		(uuid "023e817e-e9a1-4681-90a0-69bd9fd72ef8")
		(property "Reference" "U6"
			(at 60.325 60.3249 0)
			(effects
				(font
					(size 1.27 1.27)
				)
				(justify left)
			)
		)
		(property "Value" "MCP6232"
			(at 60.325 62.8649 0)
			(effects
				(font
					(size 1.27 1.27)
				)
				(justify left)
			)
		)
		(property "Footprint" "Package_SO:SOIC-8_3.9x4.9mm_P1.27mm"
			(at 62.23 61.595 0)
			(effects
				(font
					(size 1.27 1.27)
				)
				(hide yes)
			)
		)
		(property "Datasheet" "http://www.ti.com/lit/ds/symlink/lm2904-n.pdf"
			(at 62.23 61.595 0)
			(effects
				(font
					(size 1.27 1.27)
				)
				(hide yes)
			)
		)
		(property "Description" ""
			(at 62.23 61.595 0)
			(effects
				(font
					(size 1.27 1.27)
				)
				(hide yes)
			)
		)
		(pin "1"
			(uuid "8385b921-c2ac-42ab-9774-e26dc0c755c5")
		)
		(pin "2"
			(uuid "dfefcef3-9e10-4d75-8cec-f6463a9a362f")
		)
		(pin "3"
			(uuid "e845b35b-9888-4015-a5ee-b51d80f53497")
		)
		(pin "5"
			(uuid "d0c69ce2-fa22-422d-9188-4ca0371c0f76")
		)
		(pin "6"
			(uuid "c13c8eb0-13be-4cc0-bfd8-1edc8798e280")
		)
		(pin "7"
			(uuid "8827462a-c636-4875-b827-8197553427d2")
		)
		(pin "4"
			(uuid "b614071a-5e31-4005-96fb-a3bb77e2c940")
		)
		(pin "8"
			(uuid "e41879fd-b4b7-4f9a-a2b7-756e6db18965")
		)
		(instances
			(project "betaBoard"
				(path "/3d37b943-9a24-43ad-9fbf-b901b38695ce/04257380-b0d3-4dec-9d7c-5e99e8454005"
					(reference "U6")
					(unit 3)
				)
			)
		)
	)
	(symbol
		(lib_id "Device:R")
		(at 113.665 83.82 270)
		(unit 1)
		(exclude_from_sim no)
		(in_bom yes)
		(on_board yes)
		(dnp no)
		(fields_autoplaced yes)
		(uuid "07775a25-3dc5-47a4-9838-ad48db8c5a01")
		(property "Reference" "R37"
			(at 113.665 77.47 90)
			(effects
				(font
					(size 1.27 1.27)
				)
			)
		)
		(property "Value" "10M"
			(at 113.665 80.01 90)
			(effects
				(font
					(size 1.27 1.27)
				)
			)
		)
		(property "Footprint" "Resistor_SMD:R_0603_1608Metric"
			(at 113.665 82.042 90)
			(effects
				(font
					(size 1.27 1.27)
				)
				(hide yes)
			)
		)
		(property "Datasheet" "~"
			(at 113.665 83.82 0)
			(effects
				(font
					(size 1.27 1.27)
				)
				(hide yes)
			)
		)
		(property "Description" ""
			(at 113.665 83.82 0)
			(effects
				(font
					(size 1.27 1.27)
				)
				(hide yes)
			)
		)
		(pin "1"
			(uuid "f3d27503-2e4a-44ab-9050-10b6a22a927f")
		)
		(pin "2"
			(uuid "bdde27bf-217e-47ee-949e-5b6f72b75da4")
		)
		(instances
			(project "betaBoard"
				(path "/3d37b943-9a24-43ad-9fbf-b901b38695ce/04257380-b0d3-4dec-9d7c-5e99e8454005"
					(reference "R37")
					(unit 1)
				)
			)
		)
	)
	(symbol
		(lib_id "Device:R")
		(at 184.15 125.095 180)
		(unit 1)
		(exclude_from_sim no)
		(in_bom yes)
		(on_board yes)
		(dnp no)
		(fields_autoplaced yes)
		(uuid "07a3f070-f196-496f-be50-57abb942da2e")
		(property "Reference" "R41"
			(at 186.055 123.825 0)
			(effects
				(font
					(size 1.27 1.27)
				)
				(justify right)
			)
		)
		(property "Value" "100k"
			(at 186.055 126.365 0)
			(effects
				(font
					(size 1.27 1.27)
				)
				(justify right)
			)
		)
		(property "Footprint" "Resistor_SMD:R_0603_1608Metric"
			(at 185.928 125.095 90)
			(effects
				(font
					(size 1.27 1.27)
				)
				(hide yes)
			)
		)
		(property "Datasheet" "~"
			(at 184.15 125.095 0)
			(effects
				(font
					(size 1.27 1.27)
				)
				(hide yes)
			)
		)
		(property "Description" ""
			(at 184.15 125.095 0)
			(effects
				(font
					(size 1.27 1.27)
				)
				(hide yes)
			)
		)
		(pin "1"
			(uuid "6ee751fa-807a-4ae2-9b0d-d6f277b9819b")
		)
		(pin "2"
			(uuid "a3f4ffa8-9b93-4892-ac28-50c3e71c5199")
		)
		(instances
			(project "betaBoard"
				(path "/3d37b943-9a24-43ad-9fbf-b901b38695ce/04257380-b0d3-4dec-9d7c-5e99e8454005"
					(reference "R41")
					(unit 1)
				)
			)
		)
	)
	(symbol
		(lib_id "power:GND")
		(at 184.15 135.255 0)
		(unit 1)
		(exclude_from_sim no)
		(in_bom yes)
		(on_board yes)
		(dnp no)
		(fields_autoplaced yes)
		(uuid "27c935fd-9e03-4e43-95b1-d98246268187")
		(property "Reference" "#PWR041"
			(at 184.15 141.605 0)
			(effects
				(font
					(size 1.27 1.27)
				)
				(hide yes)
			)
		)
		(property "Value" "GND"
			(at 184.15 139.7 0)
			(effects
				(font
					(size 1.27 1.27)
				)
			)
		)
		(property "Footprint" ""
			(at 184.15 135.255 0)
			(effects
				(font
					(size 1.27 1.27)
				)
				(hide yes)
			)
		)
		(property "Datasheet" ""
			(at 184.15 135.255 0)
			(effects
				(font
					(size 1.27 1.27)
				)
				(hide yes)
			)
		)
		(property "Description" ""
			(at 184.15 135.255 0)
			(effects
				(font
					(size 1.27 1.27)
				)
				(hide yes)
			)
		)
		(pin "1"
			(uuid "dc64fdeb-2118-4773-ac90-dd597fae7f58")
		)
		(instances
			(project "betaBoard"
				(path "/3d37b943-9a24-43ad-9fbf-b901b38695ce/04257380-b0d3-4dec-9d7c-5e99e8454005"
					(reference "#PWR041")
					(unit 1)
				)
			)
		)
	)
	(symbol
		(lib_id "Amplifier_Operational:LM358")
		(at 198.755 102.235 0)
		(mirror x)
		(unit 2)
		(exclude_from_sim no)
		(in_bom yes)
		(on_board yes)
		(dnp no)
		(fields_autoplaced yes)
		(uuid "411a5a63-69cc-4990-a656-1df3f6f3e3b6")
		(property "Reference" "U6"
			(at 198.755 91.44 0)
			(effects
				(font
					(size 1.27 1.27)
				)
			)
		)
		(property "Value" "MCP6232"
			(at 198.755 93.98 0)
			(effects
				(font
					(size 1.27 1.27)
				)
			)
		)
		(property "Footprint" "Package_SO:SOIC-8_3.9x4.9mm_P1.27mm"
			(at 198.755 102.235 0)
			(effects
				(font
					(size 1.27 1.27)
				)
				(hide yes)
			)
		)
		(property "Datasheet" "http://www.ti.com/lit/ds/symlink/lm2904-n.pdf"
			(at 198.755 102.235 0)
			(effects
				(font
					(size 1.27 1.27)
				)
				(hide yes)
			)
		)
		(property "Description" ""
			(at 198.755 102.235 0)
			(effects
				(font
					(size 1.27 1.27)
				)
				(hide yes)
			)
		)
		(pin "1"
			(uuid "129f8fad-b085-4072-8967-9d196c909dfd")
		)
		(pin "2"
			(uuid "845bb7b5-0b58-4214-9058-016c02eb85a1")
		)
		(pin "3"
			(uuid "535f2e56-9202-49d1-b22f-4f64faf594b2")
		)
		(pin "5"
			(uuid "6fc4f085-02fc-4534-9f5b-777d8aa98cc0")
		)
		(pin "6"
			(uuid "931c2c88-7fad-41bf-ac51-bc1b8d9d0ccd")
		)
		(pin "7"
			(uuid "3c3474a8-75c4-40e7-a274-d77ab29be9f1")
		)
		(pin "4"
			(uuid "df54b252-3c3d-4e85-967a-0e3aca1b42bb")
		)
		(pin "8"
			(uuid "e9dacca5-03ff-4b5a-a17c-d79bbb93acef")
		)
		(instances
			(project "betaBoard"
				(path "/3d37b943-9a24-43ad-9fbf-b901b38695ce/04257380-b0d3-4dec-9d7c-5e99e8454005"
					(reference "U6")
					(unit 2)
				)
			)
		)
	)
	(symbol
		(lib_id "Device:C")
		(at 120.015 71.755 90)
		(unit 1)
		(exclude_from_sim no)
		(in_bom yes)
		(on_board yes)
		(dnp no)
		(fields_autoplaced yes)
		(uuid "4a241b2f-8e12-4f50-ab43-a85cbcb1a391")
		(property "Reference" "C34"
			(at 120.015 64.77 90)
			(effects
				(font
					(size 1.27 1.27)
				)
			)
		)
		(property "Value" "10p"
			(at 120.015 67.31 90)
			(effects
				(font
					(size 1.27 1.27)
				)
			)
		)
		(property "Footprint" "Capacitor_SMD:C_0603_1608Metric"
			(at 123.825 70.7898 0)
			(effects
				(font
					(size 1.27 1.27)
				)
				(hide yes)
			)
		)
		(property "Datasheet" "~"
			(at 120.015 71.755 0)
			(effects
				(font
					(size 1.27 1.27)
				)
				(hide yes)
			)
		)
		(property "Description" ""
			(at 120.015 71.755 0)
			(effects
				(font
					(size 1.27 1.27)
				)
				(hide yes)
			)
		)
		(pin "1"
			(uuid "331db767-1ee9-4073-8458-9dbdc1a0f780")
		)
		(pin "2"
			(uuid "b3673f3e-ca4e-4911-90b1-2ffb6e78f7e8")
		)
		(instances
			(project "betaBoard"
				(path "/3d37b943-9a24-43ad-9fbf-b901b38695ce/04257380-b0d3-4dec-9d7c-5e99e8454005"
					(reference "C34")
					(unit 1)
				)
			)
		)
	)
	(symbol
		(lib_id "Device:C")
		(at 199.39 75.565 90)
		(mirror x)
		(unit 1)
		(exclude_from_sim no)
		(in_bom yes)
		(on_board yes)
		(dnp no)
		(fields_autoplaced yes)
		(uuid "4efed8c1-5c8c-4507-a7f1-f657c2e2dc38")
		(property "Reference" "C33"
			(at 199.39 68.58 90)
			(effects
				(font
					(size 1.27 1.27)
				)
			)
		)
		(property "Value" "10p"
			(at 199.39 71.12 90)
			(effects
				(font
					(size 1.27 1.27)
				)
			)
		)
		(property "Footprint" "Capacitor_SMD:C_0603_1608Metric"
			(at 203.2 76.5302 0)
			(effects
				(font
					(size 1.27 1.27)
				)
				(hide yes)
			)
		)
		(property "Datasheet" "~"
			(at 199.39 75.565 0)
			(effects
				(font
					(size 1.27 1.27)
				)
				(hide yes)
			)
		)
		(property "Description" ""
			(at 199.39 75.565 0)
			(effects
				(font
					(size 1.27 1.27)
				)
				(hide yes)
			)
		)
		(pin "1"
			(uuid "d69d1872-ef4f-4a55-9133-35981d94bc70")
		)
		(pin "2"
			(uuid "d407fc09-1f0d-4ec2-a406-9a2492fd5f05")
		)
		(instances
			(project "betaBoard"
				(path "/3d37b943-9a24-43ad-9fbf-b901b38695ce/04257380-b0d3-4dec-9d7c-5e99e8454005"
					(reference "C33")
					(unit 1)
				)
			)
		)
	)
	(symbol
		(lib_id "Amplifier_Operational:LM358")
		(at 114.3 99.695 0)
		(mirror x)
		(unit 1)
		(exclude_from_sim no)
		(in_bom yes)
		(on_board yes)
		(dnp no)
		(fields_autoplaced yes)
		(uuid "563c4597-786e-4339-93b8-7e4e6d4753ca")
		(property "Reference" "U6"
			(at 114.3 89.535 0)
			(effects
				(font
					(size 1.27 1.27)
				)
			)
		)
		(property "Value" "MCP6232"
			(at 114.3 92.075 0)
			(effects
				(font
					(size 1.27 1.27)
				)
			)
		)
		(property "Footprint" "Package_SO:SOIC-8_3.9x4.9mm_P1.27mm"
			(at 114.3 99.695 0)
			(effects
				(font
					(size 1.27 1.27)
				)
				(hide yes)
			)
		)
		(property "Datasheet" "http://www.ti.com/lit/ds/symlink/lm2904-n.pdf"
			(at 114.3 99.695 0)
			(effects
				(font
					(size 1.27 1.27)
				)
				(hide yes)
			)
		)
		(property "Description" ""
			(at 114.3 99.695 0)
			(effects
				(font
					(size 1.27 1.27)
				)
				(hide yes)
			)
		)
		(pin "1"
			(uuid "f2483369-80a0-458f-b611-68aff43c23cf")
		)
		(pin "2"
			(uuid "50622873-b499-4da4-b5a7-ac6f3ad7ea7d")
		)
		(pin "3"
			(uuid "9f5cdc78-8d70-4f7d-a83f-08806bdc9500")
		)
		(pin "5"
			(uuid "b9c33d23-87b3-4f08-8ea1-303b96d14189")
		)
		(pin "6"
			(uuid "619b18f4-5c42-4eed-8684-e27d454ebccf")
		)
		(pin "7"
			(uuid "ef55aff4-bcdc-4f4d-992a-320e21caa018")
		)
		(pin "4"
			(uuid "6b965c26-9a6a-4a2c-9aa7-21cdb7528a09")
		)
		(pin "8"
			(uuid "3d419c85-6d7a-4fa4-89d8-a31b82759683")
		)
		(instances
			(project "betaBoard"
				(path "/3d37b943-9a24-43ad-9fbf-b901b38695ce/04257380-b0d3-4dec-9d7c-5e99e8454005"
					(reference "U6")
					(unit 1)
				)
			)
		)
	)
	(symbol
		(lib_id "power:GND")
		(at 59.69 69.215 0)
		(unit 1)
		(exclude_from_sim no)
		(in_bom yes)
		(on_board yes)
		(dnp no)
		(fields_autoplaced yes)
		(uuid "585ac59b-9ff3-47e7-bca2-b3da6731f76c")
		(property "Reference" "#PWR033"
			(at 59.69 75.565 0)
			(effects
				(font
					(size 1.27 1.27)
				)
				(hide yes)
			)
		)
		(property "Value" "GND"
			(at 59.69 74.295 0)
			(effects
				(font
					(size 1.27 1.27)
				)
			)
		)
		(property "Footprint" ""
			(at 59.69 69.215 0)
			(effects
				(font
					(size 1.27 1.27)
				)
				(hide yes)
			)
		)
		(property "Datasheet" ""
			(at 59.69 69.215 0)
			(effects
				(font
					(size 1.27 1.27)
				)
				(hide yes)
			)
		)
		(property "Description" ""
			(at 59.69 69.215 0)
			(effects
				(font
					(size 1.27 1.27)
				)
				(hide yes)
			)
		)
		(pin "1"
			(uuid "61ff1847-22a1-4f41-9f42-d3c814c2298c")
		)
		(instances
			(project "betaBoard"
				(path "/3d37b943-9a24-43ad-9fbf-b901b38695ce/04257380-b0d3-4dec-9d7c-5e99e8454005"
					(reference "#PWR033")
					(unit 1)
				)
			)
		)
	)
	(symbol
		(lib_id "Device:C")
		(at 108.585 71.755 90)
		(unit 1)
		(exclude_from_sim no)
		(in_bom yes)
		(on_board yes)
		(dnp no)
		(fields_autoplaced yes)
		(uuid "58f053bd-ed5f-494e-8a61-b7182f04ed0e")
		(property "Reference" "C30"
			(at 108.585 64.77 90)
			(effects
				(font
					(size 1.27 1.27)
				)
			)
		)
		(property "Value" "10p"
			(at 108.585 67.31 90)
			(effects
				(font
					(size 1.27 1.27)
				)
			)
		)
		(property "Footprint" "Capacitor_SMD:C_0603_1608Metric"
			(at 112.395 70.7898 0)
			(effects
				(font
					(size 1.27 1.27)
				)
				(hide yes)
			)
		)
		(property "Datasheet" "~"
			(at 108.585 71.755 0)
			(effects
				(font
					(size 1.27 1.27)
				)
				(hide yes)
			)
		)
		(property "Description" ""
			(at 108.585 71.755 0)
			(effects
				(font
					(size 1.27 1.27)
				)
				(hide yes)
			)
		)
		(pin "1"
			(uuid "c7fcbcc3-5872-4a1b-b9af-7e898fb63b90")
		)
		(pin "2"
			(uuid "bb9adc8d-5e44-423b-94a0-734777f5f292")
		)
		(instances
			(project "betaBoard"
				(path "/3d37b943-9a24-43ad-9fbf-b901b38695ce/04257380-b0d3-4dec-9d7c-5e99e8454005"
					(reference "C30")
					(unit 1)
				)
			)
		)
	)
	(symbol
		(lib_id "Device:R")
		(at 91.44 97.155 270)
		(unit 1)
		(exclude_from_sim no)
		(in_bom yes)
		(on_board yes)
		(dnp no)
		(fields_autoplaced yes)
		(uuid "5a226c96-4d8d-4397-bde5-caebf91e3347")
		(property "Reference" "R36"
			(at 91.44 90.805 90)
			(effects
				(font
					(size 1.27 1.27)
				)
			)
		)
		(property "Value" "0"
			(at 91.44 93.345 90)
			(effects
				(font
					(size 1.27 1.27)
				)
			)
		)
		(property "Footprint" "Resistor_SMD:R_0603_1608Metric"
			(at 91.44 95.377 90)
			(effects
				(font
					(size 1.27 1.27)
				)
				(hide yes)
			)
		)
		(property "Datasheet" "~"
			(at 91.44 97.155 0)
			(effects
				(font
					(size 1.27 1.27)
				)
				(hide yes)
			)
		)
		(property "Description" ""
			(at 91.44 97.155 0)
			(effects
				(font
					(size 1.27 1.27)
				)
				(hide yes)
			)
		)
		(pin "1"
			(uuid "588150c7-7df5-4e93-8d66-de9b0a55cd96")
		)
		(pin "2"
			(uuid "eb2ddb6f-0090-4789-b95d-0b02a1b5d740")
		)
		(instances
			(project "betaBoard"
				(path "/3d37b943-9a24-43ad-9fbf-b901b38695ce/04257380-b0d3-4dec-9d7c-5e99e8454005"
					(reference "R36")
					(unit 1)
				)
			)
		)
	)
	(symbol
		(lib_id "Device:R")
		(at 88.265 109.855 0)
		(mirror y)
		(unit 1)
		(exclude_from_sim no)
		(in_bom yes)
		(on_board yes)
		(dnp no)
		(fields_autoplaced yes)
		(uuid "693f06e2-e28e-446a-a504-cf7ea958532b")
		(property "Reference" "R35"
			(at 90.17 108.585 0)
			(effects
				(font
					(size 1.27 1.27)
				)
				(justify right)
			)
		)
		(property "Value" "1k"
			(at 90.17 111.125 0)
			(effects
				(font
					(size 1.27 1.27)
				)
				(justify right)
			)
		)
		(property "Footprint" "Resistor_SMD:R_0603_1608Metric"
			(at 90.043 109.855 90)
			(effects
				(font
					(size 1.27 1.27)
				)
				(hide yes)
			)
		)
		(property "Datasheet" "~"
			(at 88.265 109.855 0)
			(effects
				(font
					(size 1.27 1.27)
				)
				(hide yes)
			)
		)
		(property "Description" ""
			(at 88.265 109.855 0)
			(effects
				(font
					(size 1.27 1.27)
				)
				(hide yes)
			)
		)
		(pin "1"
			(uuid "ee1786bf-5884-44de-b5cd-0e6af85a5858")
		)
		(pin "2"
			(uuid "b57f8f3b-fa2c-41fc-84e2-5325a6ede438")
		)
		(instances
			(project "betaBoard"
				(path "/3d37b943-9a24-43ad-9fbf-b901b38695ce/04257380-b0d3-4dec-9d7c-5e99e8454005"
					(reference "R35")
					(unit 1)
				)
			)
		)
	)
	(symbol
		(lib_id "Device:C")
		(at 70.485 61.595 0)
		(unit 1)
		(exclude_from_sim no)
		(in_bom yes)
		(on_board yes)
		(dnp no)
		(fields_autoplaced yes)
		(uuid "7b6d0b6e-b00c-4c44-899e-cc0e78556bb9")
		(property "Reference" "C23"
			(at 74.295 60.3249 0)
			(effects
				(font
					(size 1.27 1.27)
				)
				(justify left)
			)
		)
		(property "Value" "100n"
			(at 74.295 62.8649 0)
			(effects
				(font
					(size 1.27 1.27)
				)
				(justify left)
			)
		)
		(property "Footprint" "Capacitor_SMD:C_0603_1608Metric"
			(at 71.4502 65.405 0)
			(effects
				(font
					(size 1.27 1.27)
				)
				(hide yes)
			)
		)
		(property "Datasheet" "~"
			(at 70.485 61.595 0)
			(effects
				(font
					(size 1.27 1.27)
				)
				(hide yes)
			)
		)
		(property "Description" ""
			(at 70.485 61.595 0)
			(effects
				(font
					(size 1.27 1.27)
				)
				(hide yes)
			)
		)
		(pin "1"
			(uuid "d2bd78da-60a2-4d2d-beed-8e20b0cfa6bc")
		)
		(pin "2"
			(uuid "e4bfaa7c-c5fe-42f1-9ab2-d061ad4f5aa5")
		)
		(instances
			(project "betaBoard"
				(path "/3d37b943-9a24-43ad-9fbf-b901b38695ce/04257380-b0d3-4dec-9d7c-5e99e8454005"
					(reference "C23")
					(unit 1)
				)
			)
		)
	)
	(symbol
		(lib_id "Device:C")
		(at 171.45 126.365 0)
		(unit 1)
		(exclude_from_sim no)
		(in_bom yes)
		(on_board yes)
		(dnp no)
		(fields_autoplaced yes)
		(uuid "83058155-e8b2-4f06-9c5b-223774c08b2c")
		(property "Reference" "C32"
			(at 174.625 125.095 0)
			(effects
				(font
					(size 1.27 1.27)
				)
				(justify left)
			)
		)
		(property "Value" "1u"
			(at 174.625 127.635 0)
			(effects
				(font
					(size 1.27 1.27)
				)
				(justify left)
			)
		)
		(property "Footprint" "Capacitor_SMD:C_0603_1608Metric"
			(at 172.4152 130.175 0)
			(effects
				(font
					(size 1.27 1.27)
				)
				(hide yes)
			)
		)
		(property "Datasheet" "~"
			(at 171.45 126.365 0)
			(effects
				(font
					(size 1.27 1.27)
				)
				(hide yes)
			)
		)
		(property "Description" ""
			(at 171.45 126.365 0)
			(effects
				(font
					(size 1.27 1.27)
				)
				(hide yes)
			)
		)
		(pin "1"
			(uuid "f9a9c54a-214a-4678-b50c-ab2d06432695")
		)
		(pin "2"
			(uuid "6b699fc5-3ee6-40df-8be3-77943c8c5f7f")
		)
		(instances
			(project "betaBoard"
				(path "/3d37b943-9a24-43ad-9fbf-b901b38695ce/04257380-b0d3-4dec-9d7c-5e99e8454005"
					(reference "C32")
					(unit 1)
				)
			)
		)
	)
	(symbol
		(lib_id "Diode:ZMMxx")
		(at 88.265 125.095 270)
		(unit 1)
		(exclude_from_sim no)
		(in_bom yes)
		(on_board yes)
		(dnp no)
		(fields_autoplaced yes)
		(uuid "938ecc1a-623f-4389-99af-bd9e69205f0f")
		(property "Reference" "D11"
			(at 90.805 123.8249 90)
			(effects
				(font
					(size 1.27 1.27)
				)
				(justify left)
			)
		)
		(property "Value" "ZMM3V3-M"
			(at 90.805 126.3649 90)
			(effects
				(font
					(size 1.27 1.27)
				)
				(justify left)
			)
		)
		(property "Footprint" "Diode_SMD:D_MiniMELF"
			(at 83.82 125.095 0)
			(effects
				(font
					(size 1.27 1.27)
				)
				(hide yes)
			)
		)
		(property "Datasheet" "https://diotec.com/tl_files/diotec/files/pdf/datasheets/zmm1.pdf"
			(at 88.265 125.095 0)
			(effects
				(font
					(size 1.27 1.27)
				)
				(hide yes)
			)
		)
		(property "Description" ""
			(at 88.265 125.095 0)
			(effects
				(font
					(size 1.27 1.27)
				)
				(hide yes)
			)
		)
		(pin "1"
			(uuid "a600bbf1-219f-42ed-a359-a795561d02d1")
		)
		(pin "2"
			(uuid "4e1ea7e4-7e65-4e9e-9106-27b00a9ffeb3")
		)
		(instances
			(project "betaBoard"
				(path "/3d37b943-9a24-43ad-9fbf-b901b38695ce/04257380-b0d3-4dec-9d7c-5e99e8454005"
					(reference "D11")
					(unit 1)
				)
			)
		)
	)
	(symbol
		(lib_id "power:VCC")
		(at 155.575 107.95 0)
		(unit 1)
		(exclude_from_sim no)
		(in_bom yes)
		(on_board yes)
		(dnp no)
		(fields_autoplaced yes)
		(uuid "96a95a9e-1a05-424e-8a6c-fd74c4a5a839")
		(property "Reference" "#PWR039"
			(at 155.575 111.76 0)
			(effects
				(font
					(size 1.27 1.27)
				)
				(hide yes)
			)
		)
		(property "Value" "VCC"
			(at 155.575 102.87 0)
			(effects
				(font
					(size 1.27 1.27)
				)
			)
		)
		(property "Footprint" ""
			(at 155.575 107.95 0)
			(effects
				(font
					(size 1.27 1.27)
				)
				(hide yes)
			)
		)
		(property "Datasheet" ""
			(at 155.575 107.95 0)
			(effects
				(font
					(size 1.27 1.27)
				)
				(hide yes)
			)
		)
		(property "Description" ""
			(at 155.575 107.95 0)
			(effects
				(font
					(size 1.27 1.27)
				)
				(hide yes)
			)
		)
		(pin "1"
			(uuid "ddb0bd98-eb2d-423c-a6ae-72fb0e8689f6")
		)
		(instances
			(project "betaBoard"
				(path "/3d37b943-9a24-43ad-9fbf-b901b38695ce/04257380-b0d3-4dec-9d7c-5e99e8454005"
					(reference "#PWR039")
					(unit 1)
				)
			)
		)
	)
	(symbol
		(lib_id "Device:R")
		(at 181.61 99.695 270)
		(unit 1)
		(exclude_from_sim no)
		(in_bom yes)
		(on_board yes)
		(dnp no)
		(fields_autoplaced yes)
		(uuid "982c7e66-e339-45ab-ad02-0092cec6a990")
		(property "Reference" "R39"
			(at 181.61 93.98 90)
			(effects
				(font
					(size 1.27 1.27)
				)
			)
		)
		(property "Value" "1k"
			(at 181.61 96.52 90)
			(effects
				(font
					(size 1.27 1.27)
				)
			)
		)
		(property "Footprint" "Resistor_SMD:R_0603_1608Metric"
			(at 181.61 97.917 90)
			(effects
				(font
					(size 1.27 1.27)
				)
				(hide yes)
			)
		)
		(property "Datasheet" "~"
			(at 181.61 99.695 0)
			(effects
				(font
					(size 1.27 1.27)
				)
				(hide yes)
			)
		)
		(property "Description" ""
			(at 181.61 99.695 0)
			(effects
				(font
					(size 1.27 1.27)
				)
				(hide yes)
			)
		)
		(pin "1"
			(uuid "319f087b-e5e8-4e02-80dc-27fddf86857a")
		)
		(pin "2"
			(uuid "0e9bf94f-7289-42d1-82ba-14981260af51")
		)
		(instances
			(project "betaBoard"
				(path "/3d37b943-9a24-43ad-9fbf-b901b38695ce/04257380-b0d3-4dec-9d7c-5e99e8454005"
					(reference "R39")
					(unit 1)
				)
			)
		)
	)
	(symbol
		(lib_id "Device:R")
		(at 213.995 102.235 270)
		(unit 1)
		(exclude_from_sim no)
		(in_bom yes)
		(on_board yes)
		(dnp no)
		(fields_autoplaced yes)
		(uuid "9a8e923e-2b9c-472b-9fe9-6d43dc429d4f")
		(property "Reference" "R43"
			(at 213.995 96.52 90)
			(effects
				(font
					(size 1.27 1.27)
				)
			)
		)
		(property "Value" "10k"
			(at 213.995 99.06 90)
			(effects
				(font
					(size 1.27 1.27)
				)
			)
		)
		(property "Footprint" "Resistor_SMD:R_0603_1608Metric"
			(at 213.995 100.457 90)
			(effects
				(font
					(size 1.27 1.27)
				)
				(hide yes)
			)
		)
		(property "Datasheet" "~"
			(at 213.995 102.235 0)
			(effects
				(font
					(size 1.27 1.27)
				)
				(hide yes)
			)
		)
		(property "Description" ""
			(at 213.995 102.235 0)
			(effects
				(font
					(size 1.27 1.27)
				)
				(hide yes)
			)
		)
		(pin "1"
			(uuid "4a75961d-bd16-4667-8c53-7d6f51e8e3cd")
		)
		(pin "2"
			(uuid "2a47ade2-cd82-4aa5-8f84-0958d25dbcba")
		)
		(instances
			(project "betaBoard"
				(path "/3d37b943-9a24-43ad-9fbf-b901b38695ce/04257380-b0d3-4dec-9d7c-5e99e8454005"
					(reference "R43")
					(unit 1)
				)
			)
		)
	)
	(symbol
		(lib_id "Device:R")
		(at 199.39 86.36 270)
		(unit 1)
		(exclude_from_sim no)
		(in_bom yes)
		(on_board yes)
		(dnp no)
		(fields_autoplaced yes)
		(uuid "a448c271-6104-407c-925a-82ddeb983aa9")
		(property "Reference" "R42"
			(at 199.39 80.645 90)
			(effects
				(font
					(size 1.27 1.27)
				)
			)
		)
		(property "Value" "100k"
			(at 199.39 83.185 90)
			(effects
				(font
					(size 1.27 1.27)
				)
			)
		)
		(property "Footprint" "Resistor_SMD:R_0603_1608Metric"
			(at 199.39 84.582 90)
			(effects
				(font
					(size 1.27 1.27)
				)
				(hide yes)
			)
		)
		(property "Datasheet" "~"
			(at 199.39 86.36 0)
			(effects
				(font
					(size 1.27 1.27)
				)
				(hide yes)
			)
		)
		(property "Description" ""
			(at 199.39 86.36 0)
			(effects
				(font
					(size 1.27 1.27)
				)
				(hide yes)
			)
		)
		(pin "1"
			(uuid "d3d22828-af6c-4fec-94d4-86c6bd6f1aa5")
		)
		(pin "2"
			(uuid "5b0ec19b-ad06-452d-99c1-960e67a80123")
		)
		(instances
			(project "betaBoard"
				(path "/3d37b943-9a24-43ad-9fbf-b901b38695ce/04257380-b0d3-4dec-9d7c-5e99e8454005"
					(reference "R42")
					(unit 1)
				)
			)
		)
	)
	(symbol
		(lib_id "Device:R")
		(at 184.15 117.475 180)
		(unit 1)
		(exclude_from_sim no)
		(in_bom yes)
		(on_board yes)
		(dnp no)
		(fields_autoplaced yes)
		(uuid "bcfb50cb-4b1b-4790-bb89-6cb8505eff4f")
		(property "Reference" "R40"
			(at 186.055 116.205 0)
			(effects
				(font
					(size 1.27 1.27)
				)
				(justify right)
			)
		)
		(property "Value" "10k"
			(at 186.055 118.745 0)
			(effects
				(font
					(size 1.27 1.27)
				)
				(justify right)
			)
		)
		(property "Footprint" "Resistor_SMD:R_0603_1608Metric"
			(at 185.928 117.475 90)
			(effects
				(font
					(size 1.27 1.27)
				)
				(hide yes)
			)
		)
		(property "Datasheet" "~"
			(at 184.15 117.475 0)
			(effects
				(font
					(size 1.27 1.27)
				)
				(hide yes)
			)
		)
		(property "Description" ""
			(at 184.15 117.475 0)
			(effects
				(font
					(size 1.27 1.27)
				)
				(hide yes)
			)
		)
		(pin "1"
			(uuid "2cddcfeb-662d-44e9-81dd-4709a2d815c3")
		)
		(pin "2"
			(uuid "c5a3ca9b-77b1-4a45-8911-f205426d9f35")
		)
		(instances
			(project "betaBoard"
				(path "/3d37b943-9a24-43ad-9fbf-b901b38695ce/04257380-b0d3-4dec-9d7c-5e99e8454005"
					(reference "R40")
					(unit 1)
				)
			)
		)
	)
	(symbol
		(lib_id "power:VCC")
		(at 59.69 53.975 0)
		(unit 1)
		(exclude_from_sim no)
		(in_bom yes)
		(on_board yes)
		(dnp no)
		(fields_autoplaced yes)
		(uuid "c399f473-02a4-4c58-a5b9-b54696e080a0")
		(property "Reference" "#PWR032"
			(at 59.69 57.785 0)
			(effects
				(font
					(size 1.27 1.27)
				)
				(hide yes)
			)
		)
		(property "Value" "VCC"
			(at 59.69 48.895 0)
			(effects
				(font
					(size 1.27 1.27)
				)
			)
		)
		(property "Footprint" ""
			(at 59.69 53.975 0)
			(effects
				(font
					(size 1.27 1.27)
				)
				(hide yes)
			)
		)
		(property "Datasheet" ""
			(at 59.69 53.975 0)
			(effects
				(font
					(size 1.27 1.27)
				)
				(hide yes)
			)
		)
		(property "Description" ""
			(at 59.69 53.975 0)
			(effects
				(font
					(size 1.27 1.27)
				)
				(hide yes)
			)
		)
		(pin "1"
			(uuid "12a0125a-04ae-48f8-86eb-a754c6fd4a8c")
		)
		(instances
			(project "betaBoard"
				(path "/3d37b943-9a24-43ad-9fbf-b901b38695ce/04257380-b0d3-4dec-9d7c-5e99e8454005"
					(reference "#PWR032")
					(unit 1)
				)
			)
		)
	)
	(symbol
		(lib_id "power:VCC")
		(at 88.265 106.045 0)
		(unit 1)
		(exclude_from_sim no)
		(in_bom yes)
		(on_board yes)
		(dnp no)
		(fields_autoplaced yes)
		(uuid "cae64942-f418-4461-9a88-dac978ef4e37")
		(property "Reference" "#PWR034"
			(at 88.265 109.855 0)
			(effects
				(font
					(size 1.27 1.27)
				)
				(hide yes)
			)
		)
		(property "Value" "VCC"
			(at 88.265 100.965 0)
			(effects
				(font
					(size 1.27 1.27)
				)
			)
		)
		(property "Footprint" ""
			(at 88.265 106.045 0)
			(effects
				(font
					(size 1.27 1.27)
				)
				(hide yes)
			)
		)
		(property "Datasheet" ""
			(at 88.265 106.045 0)
			(effects
				(font
					(size 1.27 1.27)
				)
				(hide yes)
			)
		)
		(property "Description" ""
			(at 88.265 106.045 0)
			(effects
				(font
					(size 1.27 1.27)
				)
				(hide yes)
			)
		)
		(pin "1"
			(uuid "fbf64434-3152-42b8-bfb3-f9d32555ae44")
		)
		(instances
			(project "betaBoard"
				(path "/3d37b943-9a24-43ad-9fbf-b901b38695ce/04257380-b0d3-4dec-9d7c-5e99e8454005"
					(reference "#PWR034")
					(unit 1)
				)
			)
		)
	)
	(symbol
		(lib_id "Diode:ZMMxx")
		(at 155.575 121.285 270)
		(unit 1)
		(exclude_from_sim no)
		(in_bom yes)
		(on_board yes)
		(dnp no)
		(fields_autoplaced yes)
		(uuid "dfa6ade3-547f-4329-8d00-f77bed81fca1")
		(property "Reference" "D12"
			(at 158.115 120.0149 90)
			(effects
				(font
					(size 1.27 1.27)
				)
				(justify left)
			)
		)
		(property "Value" "ZMM3V3-M"
			(at 158.115 122.5549 90)
			(effects
				(font
					(size 1.27 1.27)
				)
				(justify left)
			)
		)
		(property "Footprint" "Diode_SMD:D_MiniMELF"
			(at 151.13 121.285 0)
			(effects
				(font
					(size 1.27 1.27)
				)
				(hide yes)
			)
		)
		(property "Datasheet" "https://diotec.com/tl_files/diotec/files/pdf/datasheets/zmm1.pdf"
			(at 155.575 121.285 0)
			(effects
				(font
					(size 1.27 1.27)
				)
				(hide yes)
			)
		)
		(property "Description" ""
			(at 155.575 121.285 0)
			(effects
				(font
					(size 1.27 1.27)
				)
				(hide yes)
			)
		)
		(pin "1"
			(uuid "3bec6507-ee59-460d-af1c-609fae20f26e")
		)
		(pin "2"
			(uuid "c82971b7-94f5-4260-b25c-114dad24e607")
		)
		(instances
			(project "betaBoard"
				(path "/3d37b943-9a24-43ad-9fbf-b901b38695ce/04257380-b0d3-4dec-9d7c-5e99e8454005"
					(reference "D12")
					(unit 1)
				)
			)
		)
	)
	(symbol
		(lib_id "power:GND")
		(at 88.265 132.715 0)
		(unit 1)
		(exclude_from_sim no)
		(in_bom yes)
		(on_board yes)
		(dnp no)
		(fields_autoplaced yes)
		(uuid "e8860b9f-9588-4f7b-97e2-ba3a04bb2c81")
		(property "Reference" "#PWR035"
			(at 88.265 139.065 0)
			(effects
				(font
					(size 1.27 1.27)
				)
				(hide yes)
			)
		)
		(property "Value" "GND"
			(at 88.265 137.16 0)
			(effects
				(font
					(size 1.27 1.27)
				)
			)
		)
		(property "Footprint" ""
			(at 88.265 132.715 0)
			(effects
				(font
					(size 1.27 1.27)
				)
				(hide yes)
			)
		)
		(property "Datasheet" ""
			(at 88.265 132.715 0)
			(effects
				(font
					(size 1.27 1.27)
				)
				(hide yes)
			)
		)
		(property "Description" ""
			(at 88.265 132.715 0)
			(effects
				(font
					(size 1.27 1.27)
				)
				(hide yes)
			)
		)
		(pin "1"
			(uuid "c98b45d9-6bb4-48d5-896a-8c57edb31603")
		)
		(instances
			(project "betaBoard"
				(path "/3d37b943-9a24-43ad-9fbf-b901b38695ce/04257380-b0d3-4dec-9d7c-5e99e8454005"
					(reference "#PWR035")
					(unit 1)
				)
			)
		)
	)
	(symbol
		(lib_id "Device:R")
		(at 142.875 88.9 0)
		(unit 1)
		(exclude_from_sim no)
		(in_bom yes)
		(on_board yes)
		(dnp no)
		(fields_autoplaced yes)
		(uuid "ecd2cf94-53a7-4852-826f-77ebf1eca30c")
		(property "Reference" "R44"
			(at 144.78 87.63 0)
			(effects
				(font
					(size 1.27 1.27)
				)
				(justify left)
			)
		)
		(property "Value" "100k"
			(at 144.78 90.17 0)
			(effects
				(font
					(size 1.27 1.27)
				)
				(justify left)
			)
		)
		(property "Footprint" "Resistor_SMD:R_0603_1608Metric"
			(at 141.097 88.9 90)
			(effects
				(font
					(size 1.27 1.27)
				)
				(hide yes)
			)
		)
		(property "Datasheet" "~"
			(at 142.875 88.9 0)
			(effects
				(font
					(size 1.27 1.27)
				)
				(hide yes)
			)
		)
		(property "Description" ""
			(at 142.875 88.9 0)
			(effects
				(font
					(size 1.27 1.27)
				)
				(hide yes)
			)
		)
		(pin "1"
			(uuid "eb9527ba-7e3b-4971-aad9-054c1ab41f29")
		)
		(pin "2"
			(uuid "661b5039-8bd1-442a-9c6a-100cc5af79f6")
		)
		(instances
			(project "betaBoard"
				(path "/3d37b943-9a24-43ad-9fbf-b901b38695ce/04257380-b0d3-4dec-9d7c-5e99e8454005"
					(reference "R44")
					(unit 1)
				)
			)
		)
	)
	(symbol
		(lib_id "Device:R")
		(at 155.575 111.76 0)
		(mirror y)
		(unit 1)
		(exclude_from_sim no)
		(in_bom yes)
		(on_board yes)
		(dnp no)
		(fields_autoplaced yes)
		(uuid "ef175356-da08-4030-9fd6-102c5b612bac")
		(property "Reference" "R38"
			(at 157.48 110.49 0)
			(effects
				(font
					(size 1.27 1.27)
				)
				(justify right)
			)
		)
		(property "Value" "1k"
			(at 157.48 113.03 0)
			(effects
				(font
					(size 1.27 1.27)
				)
				(justify right)
			)
		)
		(property "Footprint" "Resistor_SMD:R_0603_1608Metric"
			(at 157.353 111.76 90)
			(effects
				(font
					(size 1.27 1.27)
				)
				(hide yes)
			)
		)
		(property "Datasheet" "~"
			(at 155.575 111.76 0)
			(effects
				(font
					(size 1.27 1.27)
				)
				(hide yes)
			)
		)
		(property "Description" ""
			(at 155.575 111.76 0)
			(effects
				(font
					(size 1.27 1.27)
				)
				(hide yes)
			)
		)
		(pin "1"
			(uuid "eeec63ea-7e95-4d1b-afdf-fdf6140726ff")
		)
		(pin "2"
			(uuid "75a99aeb-6501-43af-bd55-2e91c65ab868")
		)
		(instances
			(project "betaBoard"
				(path "/3d37b943-9a24-43ad-9fbf-b901b38695ce/04257380-b0d3-4dec-9d7c-5e99e8454005"
					(reference "R38")
					(unit 1)
				)
			)
		)
	)
	(symbol
		(lib_id "Diode:ZMMxx")
		(at 221.615 116.84 270)
		(unit 1)
		(exclude_from_sim no)
		(in_bom yes)
		(on_board yes)
		(dnp no)
		(fields_autoplaced yes)
		(uuid "f06d1d17-3377-4127-bad8-3472e1fce259")
		(property "Reference" "D14"
			(at 224.155 115.5699 90)
			(effects
				(font
					(size 1.27 1.27)
				)
				(justify left)
			)
		)
		(property "Value" "ZMM3V3-M"
			(at 224.155 118.1099 90)
			(effects
				(font
					(size 1.27 1.27)
				)
				(justify left)
			)
		)
		(property "Footprint" "Diode_SMD:D_MiniMELF"
			(at 217.17 116.84 0)
			(effects
				(font
					(size 1.27 1.27)
				)
				(hide yes)
			)
		)
		(property "Datasheet" "https://diotec.com/tl_files/diotec/files/pdf/datasheets/zmm1.pdf"
			(at 221.615 116.84 0)
			(effects
				(font
					(size 1.27 1.27)
				)
				(hide yes)
			)
		)
		(property "Description" ""
			(at 221.615 116.84 0)
			(effects
				(font
					(size 1.27 1.27)
				)
				(hide yes)
			)
		)
		(pin "1"
			(uuid "0ff4beed-28aa-4192-b687-f93ba869033f")
		)
		(pin "2"
			(uuid "eacb1429-f95e-4541-8951-a07a9dd48d76")
		)
		(instances
			(project "betaBoard"
				(path "/3d37b943-9a24-43ad-9fbf-b901b38695ce/04257380-b0d3-4dec-9d7c-5e99e8454005"
					(reference "D14")
					(unit 1)
				)
			)
		)
	)
	(symbol
		(lib_id "Device:C")
		(at 165.1 99.695 90)
		(mirror x)
		(unit 1)
		(exclude_from_sim no)
		(in_bom yes)
		(on_board yes)
		(dnp no)
		(fields_autoplaced yes)
		(uuid "f133f14a-004a-424f-bcfe-62ee0bb784f8")
		(property "Reference" "C31"
			(at 165.1 92.71 90)
			(effects
				(font
					(size 1.27 1.27)
				)
			)
		)
		(property "Value" "100n"
			(at 165.1 95.25 90)
			(effects
				(font
					(size 1.27 1.27)
				)
			)
		)
		(property "Footprint" "Capacitor_SMD:C_0603_1608Metric"
			(at 168.91 100.6602 0)
			(effects
				(font
					(size 1.27 1.27)
				)
				(hide yes)
			)
		)
		(property "Datasheet" "~"
			(at 165.1 99.695 0)
			(effects
				(font
					(size 1.27 1.27)
				)
				(hide yes)
			)
		)
		(property "Description" ""
			(at 165.1 99.695 0)
			(effects
				(font
					(size 1.27 1.27)
				)
				(hide yes)
			)
		)
		(pin "1"
			(uuid "f426062a-0265-4b3f-8e1a-632984e98915")
		)
		(pin "2"
			(uuid "1ad3b932-8b6f-4096-8025-f3aac80e2533")
		)
		(instances
			(project "betaBoard"
				(path "/3d37b943-9a24-43ad-9fbf-b901b38695ce/04257380-b0d3-4dec-9d7c-5e99e8454005"
					(reference "C31")
					(unit 1)
				)
			)
		)
	)
	(symbol
		(lib_id "Device:C")
		(at 106.68 125.095 0)
		(unit 1)
		(exclude_from_sim no)
		(in_bom yes)
		(on_board yes)
		(dnp no)
		(fields_autoplaced yes)
		(uuid "faa29032-18c9-4412-bd9f-f6e82cf0f0f8")
		(property "Reference" "C25"
			(at 110.49 123.825 0)
			(effects
				(font
					(size 1.27 1.27)
				)
				(justify left)
			)
		)
		(property "Value" "10u"
			(at 110.49 126.365 0)
			(effects
				(font
					(size 1.27 1.27)
				)
				(justify left)
			)
		)
		(property "Footprint" "Capacitor_SMD:C_0603_1608Metric"
			(at 107.6452 128.905 0)
			(effects
				(font
					(size 1.27 1.27)
				)
				(hide yes)
			)
		)
		(property "Datasheet" "~"
			(at 106.68 125.095 0)
			(effects
				(font
					(size 1.27 1.27)
				)
				(hide yes)
			)
		)
		(property "Description" ""
			(at 106.68 125.095 0)
			(effects
				(font
					(size 1.27 1.27)
				)
				(hide yes)
			)
		)
		(pin "1"
			(uuid "611f25ef-9871-4efb-b554-4c1250208479")
		)
		(pin "2"
			(uuid "35d786a9-31b7-4152-925c-eb4ee947f73d")
		)
		(instances
			(project "betaBoard"
				(path "/3d37b943-9a24-43ad-9fbf-b901b38695ce/04257380-b0d3-4dec-9d7c-5e99e8454005"
					(reference "C25")
					(unit 1)
				)
			)
		)
	)
)
