{
  "board": {
    "3dviewports": [],
    "design_settings": {
      "defaults": {
        "board_outline_line_width": 0.049999999999999996,
        "copper_line_width": 0.19999999999999998,
        "copper_text_italic": false,
        "copper_text_size_h": 1.5,
        "copper_text_size_v": 1.5,
        "copper_text_thickness": 0.3,
        "copper_text_upright": false,
        "courtyard_line_width": 0.049999999999999996,
        "dimension_precision": 4,
        "dimension_units": 3,
        "dimensions": {
          "arrow_length": 1270000,
          "extension_offset": 500000,
          "keep_text_aligned": true,
          "suppress_zeroes": false,
          "text_position": 0,
          "units_format": 1
        },
        "fab_line_width": 0.09999999999999999,
        "fab_text_italic": false,
        "fab_text_size_h": 1.0,
        "fab_text_size_v": 1.0,
        "fab_text_thickness": 0.15,
        "fab_text_upright": false,
        "other_line_width": 0.09999999999999999,
        "other_text_italic": false,
        "other_text_size_h": 1.0,
        "other_text_size_v": 1.0,
        "other_text_thickness": 0.15,
        "other_text_upright": false,
        "pads": {
          "drill": 0.762,
          "height": 1.524,
          "width": 1.524
        },
        "silk_line_width": 0.09999999999999999,
        "silk_text_italic": false,
        "silk_text_size_h": 1.0,
        "silk_text_size_v": 1.0,
        "silk_text_thickness": 0.09999999999999999,
        "silk_text_upright": false,
        "zones": {
          "min_clearance": 0.01
        }
      },
      "diff_pair_dimensions": [
        {
          "gap": 0.0,
          "via_gap": 0.0,
          "width": 0.0
        }
      ],
      "drc_exclusions": [],
      "meta": {
        "version": 2
      },
      "rule_severities": {
        "annular_width": "error",
        "clearance": "error",
        "connection_width": "warning",
        "copper_edge_clearance": "error",
        "copper_sliver": "warning",
        "courtyards_overlap": "error",
        "diff_pair_gap_out_of_range": "error",
        "diff_pair_uncoupled_length_too_long": "error",
        "drill_out_of_range": "error",
        "duplicate_footprints": "warning",
        "extra_footprint": "warning",
        "footprint": "error",
        "footprint_type_mismatch": "ignore",
        "hole_clearance": "error",
        "hole_near_hole": "error",
        "invalid_outline": "error",
        "isolated_copper": "warning",
        "item_on_disabled_layer": "error",
        "items_not_allowed": "error",
        "length_out_of_range": "error",
        "lib_footprint_issues": "warning",
        "lib_footprint_mismatch": "warning",
        "malformed_courtyard": "error",
        "microvia_drill_out_of_range": "error",
        "missing_courtyard": "ignore",
        "missing_footprint": "warning",
        "net_conflict": "warning",
        "npth_inside_courtyard": "ignore",
        "padstack": "warning",
        "pth_inside_courtyard": "ignore",
        "shorting_items": "error",
        "silk_edge_clearance": "warning",
        "silk_over_copper": "warning",
        "silk_overlap": "warning",
        "skew_out_of_range": "error",
        "solder_mask_bridge": "error",
        "starved_thermal": "warning",
        "text_height": "warning",
        "text_thickness": "warning",
        "through_hole_pad_without_hole": "error",
        "too_many_vias": "error",
        "track_dangling": "warning",
        "track_width": "error",
        "tracks_crossing": "error",
        "unconnected_items": "error",
        "unresolved_variable": "error",
        "via_dangling": "warning",
        "zones_intersect": "error"
      },
      "rules": {
        "max_error": 0.005,
        "min_clearance": 0.0,
        "min_connection": 0.0,
        "min_copper_edge_clearance": 0.5,
        "min_hole_clearance": 0.25,
        "min_hole_to_hole": 0.25,
        "min_microvia_diameter": 0.19999999999999998,
        "min_microvia_drill": 0.09999999999999999,
        "min_resolved_spokes": 2,
        "min_silk_clearance": 0.0,
        "min_text_height": 0.7999999999999999,
        "min_text_thickness": 0.08,
        "min_through_hole_diameter": 0.3,
        "min_track_width": 0.0,
        "min_via_annular_width": 0.049999999999999996,
        "min_via_diameter": 0.39999999999999997,
        "solder_mask_to_copper_clearance": 0.0,
        "use_height_for_length_calcs": true
      },
      "teardrop_options": [
        {
          "td_onpadsmd": true,
          "td_onroundshapesonly": false,
          "td_ontrackend": false,
          "td_onviapad": true
        }
      ],
      "teardrop_parameters": [
        {
          "td_allow_use_two_tracks": true,
          "td_curve_segcount": 5,
          "td_height_ratio": 1.0,
          "td_length_ratio": 0.5,
          "td_maxheight": 2.0,
          "td_maxlen": 1.0,
          "td_on_pad_in_zone": false,
          "td_target_name": "td_round_shape",
          "td_width_to_size_filter_ratio": 0.9
        },
        {
          "td_allow_use_two_tracks": true,
          "td_curve_segcount": 5,
          "td_height_ratio": 1.0,
          "td_length_ratio": 0.5,
          "td_maxheight": 2.0,
          "td_maxlen": 1.0,
          "td_on_pad_in_zone": false,
          "td_target_name": "td_rect_shape",
          "td_width_to_size_filter_ratio": 0.9
        },
        {
          "td_allow_use_two_tracks": true,
          "td_curve_segcount": 5,
          "td_height_ratio": 1.0,
          "td_length_ratio": 0.5,
          "td_maxheight": 2.0,
          "td_maxlen": 1.0,
          "td_on_pad_in_zone": false,
          "td_target_name": "td_track_end",
          "td_width_to_size_filter_ratio": 0.9
        }
      ],
      "track_widths": [
        0.0,
        0.09,
        0.125,
        0.3,
        0.5,
        1.0,
        2.0,
        3.0
      ],
      "via_dimensions": [
        {
          "diameter": 0.0,
          "drill": 0.0
        }
      ],
      "zones_allow_external_fillets": false
    },
    "layer_presets": [],
    "viewports": []
  },
  "boards": [],
  "cvpcb": {
    "equivalence_files": []
  },
  "erc": {
    "erc_exclusions": [],
    "meta": {
      "version": 0
    },
    "pin_map": [
      [
        0,
        0,
        0,
        0,
        0,
        0,
        1,
        0,
        0,
        0,
        0,
        2
      ],
      [
        0,
        2,
        0,
        1,
        0,
        0,
        1,
        0,
        2,
        2,
        2,
        2
      ],
      [
        0,
        0,
        0,
        0,
        0,
        0,
        1,
        0,
        1,
        0,
        1,
        2
      ],
      [
        0,
        1,
        0,
        0,
        0,
        0,
        1,
        1,
        2,
        1,
        1,
        2
      ],
      [
        0,
        0,
        0,
        0,
        0,
        0,
        1,
        0,
        0,
        0,
        0,
        2
      ],
      [
        0,
        0,
        0,
        0,
        0,
        0,
        0,
        0,
        0,
        0,
        0,
        2
      ],
      [
        1,
        1,
        1,
        1,
        1,
        0,
        1,
        1,
        1,
        1,
        1,
        2
      ],
      [
        0,
        0,
        0,
        1,
        0,
        0,
        1,
        0,
        0,
        0,
        0,
        2
      ],
      [
        0,
        2,
        1,
        2,
        0,
        0,
        1,
        0,
        2,
        2,
        2,
        2
      ],
      [
        0,
        2,
        0,
        1,
        0,
        0,
        1,
        0,
        2,
        0,
        0,
        2
      ],
      [
        0,
        2,
        1,
        1,
        0,
        0,
        1,
        0,
        2,
        0,
        0,
        2
      ],
      [
        2,
        2,
        2,
        2,
        2,
        2,
        2,
        2,
        2,
        2,
        2,
        2
      ]
    ],
    "rule_severities": {
      "bus_definition_conflict": "error",
      "bus_entry_needed": "error",
      "bus_to_bus_conflict": "error",
      "bus_to_net_conflict": "error",
      "conflicting_netclasses": "error",
      "different_unit_footprint": "error",
      "different_unit_net": "error",
      "duplicate_reference": "error",
      "duplicate_sheet_names": "error",
      "endpoint_off_grid": "warning",
      "extra_units": "error",
      "global_label_dangling": "warning",
      "hier_label_mismatch": "error",
      "label_dangling": "error",
      "lib_symbol_issues": "warning",
      "missing_bidi_pin": "warning",
      "missing_input_pin": "warning",
      "missing_power_pin": "error",
      "missing_unit": "warning",
      "multiple_net_names": "warning",
      "net_not_bus_member": "warning",
      "no_connect_connected": "warning",
      "no_connect_dangling": "warning",
      "pin_not_connected": "error",
      "pin_not_driven": "error",
      "pin_to_pin": "warning",
      "power_pin_not_driven": "error",
      "similar_labels": "warning",
      "simulation_model_issue": "ignore",
      "unannotated": "error",
      "unit_value_mismatch": "error",
      "unresolved_variable": "error",
      "wire_dangling": "error"
    }
  },
  "libraries": {
    "pinned_footprint_libs": [],
    "pinned_symbol_libs": []
  },
  "meta": {
    "filename": "carrier.kicad_pro",
    "version": 1
  },
  "net_settings": {
    "classes": [
      {
        "bus_width": 12,
        "clearance": 0.11,
        "diff_pair_gap": 0.25,
        "diff_pair_via_gap": 0.25,
        "diff_pair_width": 0.13,
        "line_style": 0,
        "microvia_diameter": 0.3,
        "microvia_drill": 0.1,
        "name": "Default",
        "pcb_color": "rgba(0, 0, 0, 0.000)",
        "schematic_color": "rgba(0, 0, 0, 0.000)",
        "track_width": 0.09,
        "via_diameter": 0.45,
        "via_drill": 0.3,
        "wire_width": 6
      },
      {
        "bus_width": 12,
        "clearance": 0.1016,
        "diff_pair_gap": 0.1016,
        "diff_pair_via_gap": 0.25,
        "diff_pair_width": 0.1074,
        "line_style": 0,
        "microvia_diameter": 0.3,
        "microvia_drill": 0.1,
        "name": "100R",
        "pcb_color": "rgba(0, 0, 0, 0.000)",
        "schematic_color": "rgba(0, 0, 0, 0.000)",
        "track_width": 0.1074,
        "via_diameter": 0.4,
        "via_drill": 0.3,
        "wire_width": 6
      },
      {
        "bus_width": 12,
        "clearance": 0.1016,
        "diff_pair_gap": 0.1016,
        "diff_pair_via_gap": 0.25,
        "diff_pair_width": 0.1588,
        "line_style": 0,
        "microvia_diameter": 0.3,
        "microvia_drill": 0.1,
        "name": "90R",
        "pcb_color": "rgba(0, 0, 0, 0.000)",
        "schematic_color": "rgba(0, 0, 0, 0.000)",
        "track_width": 0.1588,
        "via_diameter": 0.4,
        "via_drill": 0.3,
        "wire_width": 6
      },
      {
        "bus_width": 12,
        "clearance": 0.1016,
        "diff_pair_gap": 0.1016,
        "diff_pair_via_gap": 0.25,
        "diff_pair_width": 0.1074,
        "line_style": 0,
        "microvia_diameter": 0.3,
        "microvia_drill": 0.1,
        "name": "HDMI",
        "pcb_color": "rgba(0, 0, 0, 0.000)",
        "schematic_color": "rgba(0, 0, 0, 0.000)",
        "track_width": 0.1074,
        "via_diameter": 0.4,
        "via_drill": 0.3,
        "wire_width": 6
      }
    ],
    "meta": {
      "version": 3
    },
    "net_colors": null,
    "netclass_assignments": null,
    "netclass_patterns": [
      {
        "netclass": "100R",
        "pattern": "/CM4_GPIO ( Ethernet, GPIO, SDCARD)/TRD0_N"
      },
      {
        "netclass": "100R",
        "pattern": "/CM4_GPIO ( Ethernet, GPIO, SDCARD)/TRD0_P"
      },
      {
        "netclass": "100R",
        "pattern": "/CM4_GPIO ( Ethernet, GPIO, SDCARD)/TRD1_N"
      },
      {
        "netclass": "100R",
        "pattern": "/CM4_GPIO ( Ethernet, GPIO, SDCARD)/TRD1_P"
      },
      {
        "netclass": "100R",
        "pattern": "/CM4_GPIO ( Ethernet, GPIO, SDCARD)/TRD2_N"
      },
      {
        "netclass": "100R",
        "pattern": "/CM4_GPIO ( Ethernet, GPIO, SDCARD)/TRD2_P"
      },
      {
        "netclass": "100R",
        "pattern": "/CM4_GPIO ( Ethernet, GPIO, SDCARD)/TRD3_N"
      },
      {
        "netclass": "100R",
        "pattern": "/CM4_GPIO ( Ethernet, GPIO, SDCARD)/TRD3_P"
      },
      {
        "netclass": "90R",
        "pattern": "/USB2-HUB/HD1_N"
      },
      {
        "netclass": "90R",
        "pattern": "/USB2-HUB/HD1_P"
      },
      {
        "netclass": "90R",
        "pattern": "/USB2-HUB/HD2_N"
      },
      {
        "netclass": "90R",
        "pattern": "/USB2-HUB/HD2_P"
      },
      {
        "netclass": "90R",
        "pattern": "/USB2-HUB/HD3_N"
      },
      {
        "netclass": "90R",
        "pattern": "/USB2-HUB/HD3_P"
      },
      {
        "netclass": "90R",
        "pattern": "/USB2-HUB/HD4_N"
      },
      {
        "netclass": "90R",
        "pattern": "/USB2-HUB/HD4_P"
      },
      {
        "netclass": "90R",
        "pattern": "/USB2-HUB/USBD_N"
      },
      {
        "netclass": "90R",
        "pattern": "/USB2-HUB/USBD_P"
      },
      {
        "netclass": "90R",
        "pattern": "/USB2-HUB/USBH_N"
      },
      {
        "netclass": "90R",
        "pattern": "/USB2-HUB/USBH_P"
      },
      {
        "netclass": "HDMI",
        "pattern": "/CM4_HighSpeed/HDMI0_CK_N"
      },
      {
        "netclass": "HDMI",
        "pattern": "/CM4_HighSpeed/HDMI0_CK_P"
      },
      {
        "netclass": "HDMI",
        "pattern": "/CM4_HighSpeed/HDMI0_D0_N"
      },
      {
        "netclass": "HDMI",
        "pattern": "/CM4_HighSpeed/HDMI0_D0_P"
      },
      {
        "netclass": "HDMI",
        "pattern": "/CM4_HighSpeed/HDMI0_D1_N"
      },
      {
        "netclass": "HDMI",
        "pattern": "/CM4_HighSpeed/HDMI0_D1_P"
      },
      {
        "netclass": "HDMI",
        "pattern": "/CM4_HighSpeed/HDMI0_D2_N"
      },
      {
        "netclass": "HDMI",
        "pattern": "/CM4_HighSpeed/HDMI0_D2_P"
      },
      {
        "netclass": "HDMI",
        "pattern": "/CM4_HighSpeed/HDMI1_CK_N"
      },
      {
        "netclass": "HDMI",
        "pattern": "/CM4_HighSpeed/HDMI1_CK_P"
      },
      {
        "netclass": "HDMI",
        "pattern": "/CM4_HighSpeed/HDMI1_D0_N"
      },
      {
        "netclass": "HDMI",
        "pattern": "/CM4_HighSpeed/HDMI1_D0_P"
      },
      {
        "netclass": "HDMI",
        "pattern": "/CM4_HighSpeed/HDMI1_D1_N"
      },
      {
        "netclass": "HDMI",
        "pattern": "/CM4_HighSpeed/HDMI1_D1_P"
      },
      {
        "netclass": "HDMI",
        "pattern": "/CM4_HighSpeed/HDMI1_D2_N"
      },
      {
        "netclass": "HDMI",
        "pattern": "/CM4_HighSpeed/HDMI1_D2_P"
      },
      {
        "netclass": "90R",
        "pattern": "/CM4_HighSpeed/USB2_P"
      },
      {
        "netclass": "90R",
        "pattern": "/CM4_HighSpeed/USB2_N"
      }
    ]
  },
  "pcbnew": {
    "last_paths": {
      "gencad": "",
      "idf": "",
      "netlist": "",
      "plot": "",
      "pos_files": "",
      "specctra_dsn": "",
      "step": "",
      "svg": "",
      "vrml": ""
    },
    "page_layout_descr_file": ""
  },
  "schematic": {
    "annotate_start_num": 0,
    "bom_fmt_presets": [],
    "bom_fmt_settings": {
      "field_delimiter": ",",
      "keep_line_breaks": false,
      "keep_tabs": false,
      "name": "CSV",
      "ref_delimiter": ",",
      "ref_range_delimiter": "",
      "string_delimiter": "\""
    },
    "bom_presets": [],
    "bom_settings": {
      "exclude_dnp": false,
      "fields_ordered": [
        {
          "group_by": false,
          "label": "Reference",
          "name": "Reference",
          "show": true
        },
        {
          "group_by": true,
          "label": "Value",
          "name": "Value",
          "show": true
        },
        {
          "group_by": false,
          "label": "Datasheet",
          "name": "Datasheet",
          "show": true
        },
        {
          "group_by": false,
          "label": "Footprint",
          "name": "Footprint",
          "show": true
        },
        {
          "group_by": false,
          "label": "Qty",
          "name": "Quantity",
          "show": true
        },
        {
          "group_by": false,
          "label": "AVAILABILITY",
          "name": "AVAILABILITY",
          "show": false
        },
        {
          "group_by": false,
          "label": "Amazon Link",
          "name": "Amazon Link",
          "show": false
        },
        {
          "group_by": false,
          "label": "Comment",
          "name": "Comment",
          "show": false
        },
        {
          "group_by": false,
          "label": "DESCRIPTION",
          "name": "DESCRIPTION",
          "show": false
        },
        {
          "group_by": false,
          "label": "Digikey #",
          "name": "Digikey #",
          "show": false
        },
        {
          "group_by": false,
          "label": "Field4",
          "name": "Field4",
          "show": false
        },
        {
          "group_by": false,
          "label": "Field5",
          "name": "Field5",
          "show": false
        },
        {
          "group_by": false,
          "label": "Field6",
          "name": "Field6",
          "show": false
        },
        {
          "group_by": false,
          "label": "Field7",
          "name": "Field7",
          "show": false
        },
        {
          "group_by": false,
          "label": "Field8",
          "name": "Field8",
          "show": false
        },
        {
          "group_by": false,
          "label": "JLC Part",
          "name": "JLC Part",
          "show": true
        },
        {
          "group_by": false,
          "label": "JLC Part #",
          "name": "JLC Part #",
          "show": true
        },
        {
          "group_by": false,
          "label": "JLCPCB Part #",
          "name": "JLCPCB Part #",
          "show": true
        },
        {
          "group_by": false,
          "label": "LCSC",
          "name": "LCSC",
          "show": true
        },
        {
          "group_by": false,
          "label": "LCSC Part",
          "name": "LCSC Part",
          "show": false
        },
        {
          "group_by": false,
          "label": "MANUFACTURER",
          "name": "MANUFACTURER",
          "show": false
        },
        {
          "group_by": false,
          "label": "MAXIMUM_PACKAGE_HEIGHT",
          "name": "MAXIMUM_PACKAGE_HEIGHT",
          "show": false
        },
        {
          "group_by": false,
          "label": "MF",
          "name": "MF",
          "show": false
        },
        {
          "group_by": false,
          "label": "MP",
          "name": "MP",
          "show": false
        },
        {
          "group_by": false,
          "label": "Manufacturer Part",
          "name": "Manufacturer Part",
          "show": false
        },
        {
          "group_by": false,
          "label": "PACKAGE",
          "name": "PACKAGE",
          "show": false
        },
        {
          "group_by": false,
          "label": "PARTREV",
          "name": "PARTREV",
          "show": false
        },
        {
          "group_by": false,
          "label": "PRICE",
          "name": "PRICE",
          "show": false
        },
        {
          "group_by": false,
          "label": "PURCHASE-URL",
          "name": "PURCHASE-URL",
          "show": false
        },
        {
          "group_by": false,
          "label": "Part Description",
          "name": "Part Description",
          "show": false
        },
        {
          "group_by": false,
          "label": "SNAPEDA_PN",
          "name": "SNAPEDA_PN",
          "show": false
        },
        {
          "group_by": false,
          "label": "STANDARD",
          "name": "STANDARD",
          "show": false
        },
        {
          "group_by": false,
          "label": "Sim.Device",
          "name": "Sim.Device",
          "show": false
        },
        {
          "group_by": false,
          "label": "Sim.Pins",
          "name": "Sim.Pins",
          "show": false
        }
      ],
      "filter_string": "",
      "group_symbols": true,
      "name": "",
      "sort_asc": true,
      "sort_field": "Reference"
    },
    "drawing": {
      "dashed_lines_dash_length_ratio": 12.0,
      "dashed_lines_gap_length_ratio": 3.0,
      "default_line_thickness": 6.0,
      "default_text_size": 50.0,
      "field_names": [],
      "intersheets_ref_own_page": false,
      "intersheets_ref_prefix": "",
      "intersheets_ref_short": false,
      "intersheets_ref_show": false,
      "intersheets_ref_suffix": "",
      "junction_size_choice": 3,
      "label_size_ratio": 0.25,
      "operating_point_overlay_i_precision": 3,
      "operating_point_overlay_i_range": "~A",
      "operating_point_overlay_v_precision": 3,
      "operating_point_overlay_v_range": "~V",
      "pin_symbol_size": 0.0,
      "text_offset_ratio": 0.08
    },
    "legacy_lib_dir": "",
    "legacy_lib_list": [],
    "meta": {
      "version": 1
    },
    "net_format_name": "",
    "ngspice": {
      "fix_include_paths": true,
      "meta": {
        "version": 0
      },
      "model_mode": 4,
      "workbook_filename": ""
    },
    "page_layout_descr_file": "",
    "plot_directory": "",
    "spice_current_sheet_as_root": false,
    "spice_external_command": "spice \"%I\"",
    "spice_model_current_sheet_as_root": true,
    "spice_save_all_currents": false,
    "spice_save_all_dissipations": false,
    "spice_save_all_voltages": false,
    "subpart_first_id": 65,
    "subpart_id_separator": 0
  },
  "sheets": [
    [
      "4b1cea9d-93bc-4380-88c3-ede99bb53de2",
      ""
    ],
    [
      "4da56470-0b67-4551-923f-8b4b216ded57",
      "CM4_HighSpeed"
    ],
    [
      "e0c51feb-4d89-45a3-8e53-506ae2882681",
      "USB2-HUB"
    ],
    [
      "620225a5-f804-40cd-b5ea-f876279ff075",
      "CM4_GPIO ( Ethernet, GPIO, SDCARD)"
    ],
    [
      "982f4b68-a38c-4772-af6b-ffe8049f8a46",
      "Sensors"
    ],
    [
      "9ea89edd-9822-472f-9c73-e53551d82d32",
      "Neopixel"
    ],
    [
      "af6c5568-d2e2-4612-83c1-6e53a7c32d99",
      "Connectors"
    ],
    [
      "ddaf85b2-573f-4b38-8f89-d403b0d00540",
      "Leak Sensor"
    ]
  ],
  "text_variables": {}
}
