(kicad_sch (version 20230121) (generator eeschema)

  (uuid e63e39d7-6ac0-4ffd-8aa3-1841a4541b55)

  (paper "A4")

  (lib_symbols
    (symbol "Connector_Generic:Conn_01x02" (pin_names (offset 1.016) hide) (in_bom yes) (on_board yes)
      (property "Reference" "J" (at 0 2.54 0)
        (effects (font (size 1.27 1.27)))
      )
      (property "Value" "Conn_01x02" (at 0 -5.08 0)
        (effects (font (size 1.27 1.27)))
      )
      (property "Footprint" "" (at 0 0 0)
        (effects (font (size 1.27 1.27)) hide)
      )
      (property "Datasheet" "~" (at 0 0 0)
        (effects (font (size 1.27 1.27)) hide)
      )
      (property "ki_keywords" "connector" (at 0 0 0)
        (effects (font (size 1.27 1.27)) hide)
      )
      (property "ki_description" "Generic connector, single row, 01x02, script generated (kicad-library-utils/schlib/autogen/connector/)" (at 0 0 0)
        (effects (font (size 1.27 1.27)) hide)
      )
      (property "ki_fp_filters" "Connector*:*_1x??_*" (at 0 0 0)
        (effects (font (size 1.27 1.27)) hide)
      )
      (symbol "Conn_01x02_1_1"
        (rectangle (start -1.27 -2.413) (end 0 -2.667)
          (stroke (width 0.1524) (type default))
          (fill (type none))
        )
        (rectangle (start -1.27 0.127) (end 0 -0.127)
          (stroke (width 0.1524) (type default))
          (fill (type none))
        )
        (rectangle (start -1.27 1.27) (end 1.27 -3.81)
          (stroke (width 0.254) (type default))
          (fill (type background))
        )
        (pin passive line (at -5.08 0 0) (length 3.81)
          (name "Pin_1" (effects (font (size 1.27 1.27))))
          (number "1" (effects (font (size 1.27 1.27))))
        )
        (pin passive line (at -5.08 -2.54 0) (length 3.81)
          (name "Pin_2" (effects (font (size 1.27 1.27))))
          (number "2" (effects (font (size 1.27 1.27))))
        )
      )
    )
    (symbol "Connector_Generic:Conn_02x03_Odd_Even" (pin_names (offset 1.016) hide) (in_bom yes) (on_board yes)
      (property "Reference" "J" (at 1.27 5.08 0)
        (effects (font (size 1.27 1.27)))
      )
      (property "Value" "Conn_02x03_Odd_Even" (at 1.27 -5.08 0)
        (effects (font (size 1.27 1.27)))
      )
      (property "Footprint" "" (at 0 0 0)
        (effects (font (size 1.27 1.27)) hide)
      )
      (property "Datasheet" "~" (at 0 0 0)
        (effects (font (size 1.27 1.27)) hide)
      )
      (property "ki_keywords" "connector" (at 0 0 0)
        (effects (font (size 1.27 1.27)) hide)
      )
      (property "ki_description" "Generic connector, double row, 02x03, odd/even pin numbering scheme (row 1 odd numbers, row 2 even numbers), script generated (kicad-library-utils/schlib/autogen/connector/)" (at 0 0 0)
        (effects (font (size 1.27 1.27)) hide)
      )
      (property "ki_fp_filters" "Connector*:*_2x??_*" (at 0 0 0)
        (effects (font (size 1.27 1.27)) hide)
      )
      (symbol "Conn_02x03_Odd_Even_1_1"
        (rectangle (start -1.27 -2.413) (end 0 -2.667)
          (stroke (width 0.1524) (type default))
          (fill (type none))
        )
        (rectangle (start -1.27 0.127) (end 0 -0.127)
          (stroke (width 0.1524) (type default))
          (fill (type none))
        )
        (rectangle (start -1.27 2.667) (end 0 2.413)
          (stroke (width 0.1524) (type default))
          (fill (type none))
        )
        (rectangle (start -1.27 3.81) (end 3.81 -3.81)
          (stroke (width 0.254) (type default))
          (fill (type background))
        )
        (rectangle (start 3.81 -2.413) (end 2.54 -2.667)
          (stroke (width 0.1524) (type default))
          (fill (type none))
        )
        (rectangle (start 3.81 0.127) (end 2.54 -0.127)
          (stroke (width 0.1524) (type default))
          (fill (type none))
        )
        (rectangle (start 3.81 2.667) (end 2.54 2.413)
          (stroke (width 0.1524) (type default))
          (fill (type none))
        )
        (pin passive line (at -5.08 2.54 0) (length 3.81)
          (name "Pin_1" (effects (font (size 1.27 1.27))))
          (number "1" (effects (font (size 1.27 1.27))))
        )
        (pin passive line (at 7.62 2.54 180) (length 3.81)
          (name "Pin_2" (effects (font (size 1.27 1.27))))
          (number "2" (effects (font (size 1.27 1.27))))
        )
        (pin passive line (at -5.08 0 0) (length 3.81)
          (name "Pin_3" (effects (font (size 1.27 1.27))))
          (number "3" (effects (font (size 1.27 1.27))))
        )
        (pin passive line (at 7.62 0 180) (length 3.81)
          (name "Pin_4" (effects (font (size 1.27 1.27))))
          (number "4" (effects (font (size 1.27 1.27))))
        )
        (pin passive line (at -5.08 -2.54 0) (length 3.81)
          (name "Pin_5" (effects (font (size 1.27 1.27))))
          (number "5" (effects (font (size 1.27 1.27))))
        )
        (pin passive line (at 7.62 -2.54 180) (length 3.81)
          (name "Pin_6" (effects (font (size 1.27 1.27))))
          (number "6" (effects (font (size 1.27 1.27))))
        )
      )
    )
    (symbol "Device:C_Small" (pin_numbers hide) (pin_names (offset 0.254) hide) (in_bom yes) (on_board yes)
      (property "Reference" "C" (at 0.254 1.778 0)
        (effects (font (size 1.27 1.27)) (justify left))
      )
      (property "Value" "C_Small" (at 0.254 -2.032 0)
        (effects (font (size 1.27 1.27)) (justify left))
      )
      (property "Footprint" "" (at 0 0 0)
        (effects (font (size 1.27 1.27)) hide)
      )
      (property "Datasheet" "~" (at 0 0 0)
        (effects (font (size 1.27 1.27)) hide)
      )
      (property "ki_keywords" "capacitor cap" (at 0 0 0)
        (effects (font (size 1.27 1.27)) hide)
      )
      (property "ki_description" "Unpolarized capacitor, small symbol" (at 0 0 0)
        (effects (font (size 1.27 1.27)) hide)
      )
      (property "ki_fp_filters" "C_*" (at 0 0 0)
        (effects (font (size 1.27 1.27)) hide)
      )
      (symbol "C_Small_0_1"
        (polyline
          (pts
            (xy -1.524 -0.508)
            (xy 1.524 -0.508)
          )
          (stroke (width 0.3302) (type default))
          (fill (type none))
        )
        (polyline
          (pts
            (xy -1.524 0.508)
            (xy 1.524 0.508)
          )
          (stroke (width 0.3048) (type default))
          (fill (type none))
        )
      )
      (symbol "C_Small_1_1"
        (pin passive line (at 0 2.54 270) (length 2.032)
          (name "~" (effects (font (size 1.27 1.27))))
          (number "1" (effects (font (size 1.27 1.27))))
        )
        (pin passive line (at 0 -2.54 90) (length 2.032)
          (name "~" (effects (font (size 1.27 1.27))))
          (number "2" (effects (font (size 1.27 1.27))))
        )
      )
    )
    (symbol "Device:D_Schottky_Small" (pin_numbers hide) (pin_names (offset 0.254) hide) (in_bom yes) (on_board yes)
      (property "Reference" "D" (at -1.27 2.032 0)
        (effects (font (size 1.27 1.27)) (justify left))
      )
      (property "Value" "D_Schottky_Small" (at -7.112 -2.032 0)
        (effects (font (size 1.27 1.27)) (justify left))
      )
      (property "Footprint" "" (at 0 0 90)
        (effects (font (size 1.27 1.27)) hide)
      )
      (property "Datasheet" "~" (at 0 0 90)
        (effects (font (size 1.27 1.27)) hide)
      )
      (property "ki_keywords" "diode Schottky" (at 0 0 0)
        (effects (font (size 1.27 1.27)) hide)
      )
      (property "ki_description" "Schottky diode, small symbol" (at 0 0 0)
        (effects (font (size 1.27 1.27)) hide)
      )
      (property "ki_fp_filters" "TO-???* *_Diode_* *SingleDiode* D_*" (at 0 0 0)
        (effects (font (size 1.27 1.27)) hide)
      )
      (symbol "D_Schottky_Small_0_1"
        (polyline
          (pts
            (xy -0.762 0)
            (xy 0.762 0)
          )
          (stroke (width 0) (type default))
          (fill (type none))
        )
        (polyline
          (pts
            (xy 0.762 -1.016)
            (xy -0.762 0)
            (xy 0.762 1.016)
            (xy 0.762 -1.016)
          )
          (stroke (width 0.254) (type default))
          (fill (type none))
        )
        (polyline
          (pts
            (xy -1.27 0.762)
            (xy -1.27 1.016)
            (xy -0.762 1.016)
            (xy -0.762 -1.016)
            (xy -0.254 -1.016)
            (xy -0.254 -0.762)
          )
          (stroke (width 0.254) (type default))
          (fill (type none))
        )
      )
      (symbol "D_Schottky_Small_1_1"
        (pin passive line (at -2.54 0 0) (length 1.778)
          (name "K" (effects (font (size 1.27 1.27))))
          (number "1" (effects (font (size 1.27 1.27))))
        )
        (pin passive line (at 2.54 0 180) (length 1.778)
          (name "A" (effects (font (size 1.27 1.27))))
          (number "2" (effects (font (size 1.27 1.27))))
        )
      )
    )
    (symbol "Device:D_Zener" (pin_numbers hide) (pin_names (offset 1.016) hide) (in_bom yes) (on_board yes)
      (property "Reference" "D" (at 0 2.54 0)
        (effects (font (size 1.27 1.27)))
      )
      (property "Value" "D_Zener" (at 0 -2.54 0)
        (effects (font (size 1.27 1.27)))
      )
      (property "Footprint" "" (at 0 0 0)
        (effects (font (size 1.27 1.27)) hide)
      )
      (property "Datasheet" "~" (at 0 0 0)
        (effects (font (size 1.27 1.27)) hide)
      )
      (property "ki_keywords" "diode" (at 0 0 0)
        (effects (font (size 1.27 1.27)) hide)
      )
      (property "ki_description" "Zener diode" (at 0 0 0)
        (effects (font (size 1.27 1.27)) hide)
      )
      (property "ki_fp_filters" "TO-???* *_Diode_* *SingleDiode* D_*" (at 0 0 0)
        (effects (font (size 1.27 1.27)) hide)
      )
      (symbol "D_Zener_0_1"
        (polyline
          (pts
            (xy 1.27 0)
            (xy -1.27 0)
          )
          (stroke (width 0) (type default))
          (fill (type none))
        )
        (polyline
          (pts
            (xy -1.27 -1.27)
            (xy -1.27 1.27)
            (xy -0.762 1.27)
          )
          (stroke (width 0.254) (type default))
          (fill (type none))
        )
        (polyline
          (pts
            (xy 1.27 -1.27)
            (xy 1.27 1.27)
            (xy -1.27 0)
            (xy 1.27 -1.27)
          )
          (stroke (width 0.254) (type default))
          (fill (type none))
        )
      )
      (symbol "D_Zener_1_1"
        (pin passive line (at -3.81 0 0) (length 2.54)
          (name "K" (effects (font (size 1.27 1.27))))
          (number "1" (effects (font (size 1.27 1.27))))
        )
        (pin passive line (at 3.81 0 180) (length 2.54)
          (name "A" (effects (font (size 1.27 1.27))))
          (number "2" (effects (font (size 1.27 1.27))))
        )
      )
    )
    (symbol "Device:LED_RGB" (pin_names (offset 0) hide) (in_bom yes) (on_board yes)
      (property "Reference" "D" (at 0 9.398 0)
        (effects (font (size 1.27 1.27)))
      )
      (property "Value" "LED_RGB" (at 0 -8.89 0)
        (effects (font (size 1.27 1.27)))
      )
      (property "Footprint" "" (at 0 -1.27 0)
        (effects (font (size 1.27 1.27)) hide)
      )
      (property "Datasheet" "~" (at 0 -1.27 0)
        (effects (font (size 1.27 1.27)) hide)
      )
      (property "ki_keywords" "LED RGB diode" (at 0 0 0)
        (effects (font (size 1.27 1.27)) hide)
      )
      (property "ki_description" "RGB LED, 6 pin package" (at 0 0 0)
        (effects (font (size 1.27 1.27)) hide)
      )
      (property "ki_fp_filters" "LED* LED_SMD:* LED_THT:*" (at 0 0 0)
        (effects (font (size 1.27 1.27)) hide)
      )
      (symbol "LED_RGB_0_0"
        (text "B" (at -1.905 -6.35 0)
          (effects (font (size 1.27 1.27)))
        )
        (text "G" (at -1.905 -1.27 0)
          (effects (font (size 1.27 1.27)))
        )
        (text "R" (at -1.905 3.81 0)
          (effects (font (size 1.27 1.27)))
        )
      )
      (symbol "LED_RGB_0_1"
        (polyline
          (pts
            (xy -1.27 -5.08)
            (xy -2.54 -5.08)
          )
          (stroke (width 0) (type default))
          (fill (type none))
        )
        (polyline
          (pts
            (xy -1.27 -5.08)
            (xy 1.27 -5.08)
          )
          (stroke (width 0) (type default))
          (fill (type none))
        )
        (polyline
          (pts
            (xy -1.27 -3.81)
            (xy -1.27 -6.35)
          )
          (stroke (width 0.254) (type default))
          (fill (type none))
        )
        (polyline
          (pts
            (xy -1.27 0)
            (xy -2.54 0)
          )
          (stroke (width 0) (type default))
          (fill (type none))
        )
        (polyline
          (pts
            (xy -1.27 1.27)
            (xy -1.27 -1.27)
          )
          (stroke (width 0.254) (type default))
          (fill (type none))
        )
        (polyline
          (pts
            (xy -1.27 5.08)
            (xy -2.54 5.08)
          )
          (stroke (width 0) (type default))
          (fill (type none))
        )
        (polyline
          (pts
            (xy -1.27 5.08)
            (xy 1.27 5.08)
          )
          (stroke (width 0) (type default))
          (fill (type none))
        )
        (polyline
          (pts
            (xy -1.27 6.35)
            (xy -1.27 3.81)
          )
          (stroke (width 0.254) (type default))
          (fill (type none))
        )
        (polyline
          (pts
            (xy 1.27 -5.08)
            (xy 2.54 -5.08)
          )
          (stroke (width 0) (type default))
          (fill (type none))
        )
        (polyline
          (pts
            (xy 1.27 0)
            (xy -1.27 0)
          )
          (stroke (width 0) (type default))
          (fill (type none))
        )
        (polyline
          (pts
            (xy 1.27 0)
            (xy 2.54 0)
          )
          (stroke (width 0) (type default))
          (fill (type none))
        )
        (polyline
          (pts
            (xy 1.27 5.08)
            (xy 2.54 5.08)
          )
          (stroke (width 0) (type default))
          (fill (type none))
        )
        (polyline
          (pts
            (xy -1.27 1.27)
            (xy -1.27 -1.27)
            (xy -1.27 -1.27)
          )
          (stroke (width 0) (type default))
          (fill (type none))
        )
        (polyline
          (pts
            (xy -1.27 6.35)
            (xy -1.27 3.81)
            (xy -1.27 3.81)
          )
          (stroke (width 0) (type default))
          (fill (type none))
        )
        (polyline
          (pts
            (xy 1.27 -3.81)
            (xy 1.27 -6.35)
            (xy -1.27 -5.08)
            (xy 1.27 -3.81)
          )
          (stroke (width 0.254) (type default))
          (fill (type none))
        )
        (polyline
          (pts
            (xy 1.27 1.27)
            (xy 1.27 -1.27)
            (xy -1.27 0)
            (xy 1.27 1.27)
          )
          (stroke (width 0.254) (type default))
          (fill (type none))
        )
        (polyline
          (pts
            (xy 1.27 6.35)
            (xy 1.27 3.81)
            (xy -1.27 5.08)
            (xy 1.27 6.35)
          )
          (stroke (width 0.254) (type default))
          (fill (type none))
        )
        (polyline
          (pts
            (xy -1.016 -3.81)
            (xy 0.508 -2.286)
            (xy -0.254 -2.286)
            (xy 0.508 -2.286)
            (xy 0.508 -3.048)
          )
          (stroke (width 0) (type default))
          (fill (type none))
        )
        (polyline
          (pts
            (xy -1.016 1.27)
            (xy 0.508 2.794)
            (xy -0.254 2.794)
            (xy 0.508 2.794)
            (xy 0.508 2.032)
          )
          (stroke (width 0) (type default))
          (fill (type none))
        )
        (polyline
          (pts
            (xy -1.016 6.35)
            (xy 0.508 7.874)
            (xy -0.254 7.874)
            (xy 0.508 7.874)
            (xy 0.508 7.112)
          )
          (stroke (width 0) (type default))
          (fill (type none))
        )
        (polyline
          (pts
            (xy 0 -3.81)
            (xy 1.524 -2.286)
            (xy 0.762 -2.286)
            (xy 1.524 -2.286)
            (xy 1.524 -3.048)
          )
          (stroke (width 0) (type default))
          (fill (type none))
        )
        (polyline
          (pts
            (xy 0 1.27)
            (xy 1.524 2.794)
            (xy 0.762 2.794)
            (xy 1.524 2.794)
            (xy 1.524 2.032)
          )
          (stroke (width 0) (type default))
          (fill (type none))
        )
        (polyline
          (pts
            (xy 0 6.35)
            (xy 1.524 7.874)
            (xy 0.762 7.874)
            (xy 1.524 7.874)
            (xy 1.524 7.112)
          )
          (stroke (width 0) (type default))
          (fill (type none))
        )
        (rectangle (start 1.27 -1.27) (end 1.27 1.27)
          (stroke (width 0) (type default))
          (fill (type none))
        )
        (rectangle (start 1.27 1.27) (end 1.27 1.27)
          (stroke (width 0) (type default))
          (fill (type none))
        )
        (rectangle (start 1.27 3.81) (end 1.27 6.35)
          (stroke (width 0) (type default))
          (fill (type none))
        )
        (rectangle (start 1.27 6.35) (end 1.27 6.35)
          (stroke (width 0) (type default))
          (fill (type none))
        )
        (rectangle (start 2.794 8.382) (end -2.794 -7.62)
          (stroke (width 0.254) (type default))
          (fill (type background))
        )
      )
      (symbol "LED_RGB_1_1"
        (pin passive line (at -5.08 5.08 0) (length 2.54)
          (name "RK" (effects (font (size 1.27 1.27))))
          (number "1" (effects (font (size 1.27 1.27))))
        )
        (pin passive line (at -5.08 0 0) (length 2.54)
          (name "GK" (effects (font (size 1.27 1.27))))
          (number "2" (effects (font (size 1.27 1.27))))
        )
        (pin passive line (at -5.08 -5.08 0) (length 2.54)
          (name "BK" (effects (font (size 1.27 1.27))))
          (number "3" (effects (font (size 1.27 1.27))))
        )
        (pin passive line (at 5.08 -5.08 180) (length 2.54)
          (name "BA" (effects (font (size 1.27 1.27))))
          (number "4" (effects (font (size 1.27 1.27))))
        )
        (pin passive line (at 5.08 0 180) (length 2.54)
          (name "GA" (effects (font (size 1.27 1.27))))
          (number "5" (effects (font (size 1.27 1.27))))
        )
        (pin passive line (at 5.08 5.08 180) (length 2.54)
          (name "RA" (effects (font (size 1.27 1.27))))
          (number "6" (effects (font (size 1.27 1.27))))
        )
      )
    )
    (symbol "Device:L_Small" (pin_numbers hide) (pin_names (offset 0.254) hide) (in_bom yes) (on_board yes)
      (property "Reference" "L" (at 0.762 1.016 0)
        (effects (font (size 1.27 1.27)) (justify left))
      )
      (property "Value" "L_Small" (at 0.762 -1.016 0)
        (effects (font (size 1.27 1.27)) (justify left))
      )
      (property "Footprint" "" (at 0 0 0)
        (effects (font (size 1.27 1.27)) hide)
      )
      (property "Datasheet" "~" (at 0 0 0)
        (effects (font (size 1.27 1.27)) hide)
      )
      (property "ki_keywords" "inductor choke coil reactor magnetic" (at 0 0 0)
        (effects (font (size 1.27 1.27)) hide)
      )
      (property "ki_description" "Inductor, small symbol" (at 0 0 0)
        (effects (font (size 1.27 1.27)) hide)
      )
      (property "ki_fp_filters" "Choke_* *Coil* Inductor_* L_*" (at 0 0 0)
        (effects (font (size 1.27 1.27)) hide)
      )
      (symbol "L_Small_0_1"
        (arc (start 0 -2.032) (mid 0.5058 -1.524) (end 0 -1.016)
          (stroke (width 0) (type default))
          (fill (type none))
        )
        (arc (start 0 -1.016) (mid 0.5058 -0.508) (end 0 0)
          (stroke (width 0) (type default))
          (fill (type none))
        )
        (arc (start 0 0) (mid 0.5058 0.508) (end 0 1.016)
          (stroke (width 0) (type default))
          (fill (type none))
        )
        (arc (start 0 1.016) (mid 0.5058 1.524) (end 0 2.032)
          (stroke (width 0) (type default))
          (fill (type none))
        )
      )
      (symbol "L_Small_1_1"
        (pin passive line (at 0 2.54 270) (length 0.508)
          (name "~" (effects (font (size 1.27 1.27))))
          (number "1" (effects (font (size 1.27 1.27))))
        )
        (pin passive line (at 0 -2.54 90) (length 0.508)
          (name "~" (effects (font (size 1.27 1.27))))
          (number "2" (effects (font (size 1.27 1.27))))
        )
      )
    )
    (symbol "Device:R_Small" (pin_numbers hide) (pin_names (offset 0.254) hide) (in_bom yes) (on_board yes)
      (property "Reference" "R" (at 0.762 0.508 0)
        (effects (font (size 1.27 1.27)) (justify left))
      )
      (property "Value" "R_Small" (at 0.762 -1.016 0)
        (effects (font (size 1.27 1.27)) (justify left))
      )
      (property "Footprint" "" (at 0 0 0)
        (effects (font (size 1.27 1.27)) hide)
      )
      (property "Datasheet" "~" (at 0 0 0)
        (effects (font (size 1.27 1.27)) hide)
      )
      (property "ki_keywords" "R resistor" (at 0 0 0)
        (effects (font (size 1.27 1.27)) hide)
      )
      (property "ki_description" "Resistor, small symbol" (at 0 0 0)
        (effects (font (size 1.27 1.27)) hide)
      )
      (property "ki_fp_filters" "R_*" (at 0 0 0)
        (effects (font (size 1.27 1.27)) hide)
      )
      (symbol "R_Small_0_1"
        (rectangle (start -0.762 1.778) (end 0.762 -1.778)
          (stroke (width 0.2032) (type default))
          (fill (type none))
        )
      )
      (symbol "R_Small_1_1"
        (pin passive line (at 0 2.54 270) (length 0.762)
          (name "~" (effects (font (size 1.27 1.27))))
          (number "1" (effects (font (size 1.27 1.27))))
        )
        (pin passive line (at 0 -2.54 90) (length 0.762)
          (name "~" (effects (font (size 1.27 1.27))))
          (number "2" (effects (font (size 1.27 1.27))))
        )
      )
    )
    (symbol "MCU_Microchip_ATtiny:ATtiny10-TS" (in_bom yes) (on_board yes)
      (property "Reference" "U" (at -12.7 13.97 0)
        (effects (font (size 1.27 1.27)) (justify left bottom))
      )
      (property "Value" "ATtiny10-TS" (at 2.54 -13.97 0)
        (effects (font (size 1.27 1.27)) (justify left top))
      )
      (property "Footprint" "Package_TO_SOT_SMD:SOT-23-6" (at 0 0 0)
        (effects (font (size 1.27 1.27) italic) hide)
      )
      (property "Datasheet" "http://ww1.microchip.com/downloads/en/DeviceDoc/Atmel-8127-AVR-8-bit-Microcontroller-ATtiny4-ATtiny5-ATtiny9-ATtiny10_Datasheet.pdf" (at 0 0 0)
        (effects (font (size 1.27 1.27)) hide)
      )
      (property "ki_keywords" "AVR 8bit Microcontroller tinyAVR" (at 0 0 0)
        (effects (font (size 1.27 1.27)) hide)
      )
      (property "ki_description" "12MHz, 1kB Flash, 32B SRAM, No EEPROM, ADC, SOT-23-6" (at 0 0 0)
        (effects (font (size 1.27 1.27)) hide)
      )
      (property "ki_fp_filters" "SOT?23?6*" (at 0 0 0)
        (effects (font (size 1.27 1.27)) hide)
      )
      (symbol "ATtiny10-TS_0_1"
        (rectangle (start -12.7 -12.7) (end 12.7 12.7)
          (stroke (width 0.254) (type default))
          (fill (type background))
        )
      )
      (symbol "ATtiny10-TS_1_1"
        (pin bidirectional line (at 15.24 7.62 180) (length 2.54)
          (name "PB0" (effects (font (size 1.27 1.27))))
          (number "1" (effects (font (size 1.27 1.27))))
        )
        (pin power_in line (at 0 -15.24 90) (length 2.54)
          (name "GND" (effects (font (size 1.27 1.27))))
          (number "2" (effects (font (size 1.27 1.27))))
        )
        (pin bidirectional line (at 15.24 5.08 180) (length 2.54)
          (name "PB1" (effects (font (size 1.27 1.27))))
          (number "3" (effects (font (size 1.27 1.27))))
        )
        (pin bidirectional line (at 15.24 2.54 180) (length 2.54)
          (name "PB2" (effects (font (size 1.27 1.27))))
          (number "4" (effects (font (size 1.27 1.27))))
        )
        (pin power_in line (at 0 15.24 270) (length 2.54)
          (name "VCC" (effects (font (size 1.27 1.27))))
          (number "5" (effects (font (size 1.27 1.27))))
        )
        (pin bidirectional line (at 15.24 0 180) (length 2.54)
          (name "~{RESET}/PB3" (effects (font (size 1.27 1.27))))
          (number "6" (effects (font (size 1.27 1.27))))
        )
      )
    )
    (symbol "Regulator_Switching:TPS63001" (in_bom yes) (on_board yes)
      (property "Reference" "U" (at -7.62 13.97 0)
        (effects (font (size 1.27 1.27)) (justify left))
      )
      (property "Value" "TPS63001" (at 5.08 13.97 0)
        (effects (font (size 1.27 1.27)))
      )
      (property "Footprint" "Package_SON:Texas_DRC0010J_ThermalVias" (at 21.59 -13.97 0)
        (effects (font (size 1.27 1.27)) hide)
      )
      (property "Datasheet" "http://www.ti.com/lit/ds/symlink/tps63000.pdf" (at -7.62 13.97 0)
        (effects (font (size 1.27 1.27)) hide)
      )
      (property "ki_keywords" "Buck-Boost fixed 3.3V converter" (at 0 0 0)
        (effects (font (size 1.27 1.27)) hide)
      )
      (property "ki_description" "Buck-Boost Converter, 1.8-5.5V Input Voltage, 1.7A Switch Current, 3.3V Output Voltage, VSON-10" (at 0 0 0)
        (effects (font (size 1.27 1.27)) hide)
      )
      (property "ki_fp_filters" "Texas*DRC0010J*" (at 0 0 0)
        (effects (font (size 1.27 1.27)) hide)
      )
      (symbol "TPS63001_0_1"
        (rectangle (start -7.62 12.7) (end 7.62 -12.7)
          (stroke (width 0.254) (type default))
          (fill (type background))
        )
      )
      (symbol "TPS63001_1_1"
        (pin power_out line (at 10.16 5.08 180) (length 2.54)
          (name "VOUT" (effects (font (size 1.27 1.27))))
          (number "1" (effects (font (size 1.27 1.27))))
        )
        (pin input line (at 10.16 0 180) (length 2.54)
          (name "FB" (effects (font (size 1.27 1.27))))
          (number "10" (effects (font (size 1.27 1.27))))
        )
        (pin passive line (at 0 -15.24 90) (length 2.54) hide
          (name "PGND" (effects (font (size 1.27 1.27))))
          (number "11" (effects (font (size 1.27 1.27))))
        )
        (pin input line (at 10.16 10.16 180) (length 2.54)
          (name "L2" (effects (font (size 1.27 1.27))))
          (number "2" (effects (font (size 1.27 1.27))))
        )
        (pin power_in line (at 0 -15.24 90) (length 2.54)
          (name "PGND" (effects (font (size 1.27 1.27))))
          (number "3" (effects (font (size 1.27 1.27))))
        )
        (pin input line (at -10.16 10.16 0) (length 2.54)
          (name "L1" (effects (font (size 1.27 1.27))))
          (number "4" (effects (font (size 1.27 1.27))))
        )
        (pin power_in line (at -10.16 5.08 0) (length 2.54)
          (name "VIN" (effects (font (size 1.27 1.27))))
          (number "5" (effects (font (size 1.27 1.27))))
        )
        (pin input line (at -10.16 0 0) (length 2.54)
          (name "EN" (effects (font (size 1.27 1.27))))
          (number "6" (effects (font (size 1.27 1.27))))
        )
        (pin input line (at -10.16 -5.08 0) (length 2.54)
          (name "PS/SYNC" (effects (font (size 1.27 1.27))))
          (number "7" (effects (font (size 1.27 1.27))))
        )
        (pin power_in line (at -10.16 2.54 0) (length 2.54)
          (name "VINA" (effects (font (size 1.27 1.27))))
          (number "8" (effects (font (size 1.27 1.27))))
        )
        (pin power_in line (at -2.54 -15.24 90) (length 2.54)
          (name "GND" (effects (font (size 1.27 1.27))))
          (number "9" (effects (font (size 1.27 1.27))))
        )
      )
    )
    (symbol "power:+3V3" (power) (pin_names (offset 0)) (in_bom yes) (on_board yes)
      (property "Reference" "#PWR" (at 0 -3.81 0)
        (effects (font (size 1.27 1.27)) hide)
      )
      (property "Value" "+3V3" (at 0 3.556 0)
        (effects (font (size 1.27 1.27)))
      )
      (property "Footprint" "" (at 0 0 0)
        (effects (font (size 1.27 1.27)) hide)
      )
      (property "Datasheet" "" (at 0 0 0)
        (effects (font (size 1.27 1.27)) hide)
      )
      (property "ki_keywords" "power-flag" (at 0 0 0)
        (effects (font (size 1.27 1.27)) hide)
      )
      (property "ki_description" "Power symbol creates a global label with name \"+3V3\"" (at 0 0 0)
        (effects (font (size 1.27 1.27)) hide)
      )
      (symbol "+3V3_0_1"
        (polyline
          (pts
            (xy -0.762 1.27)
            (xy 0 2.54)
          )
          (stroke (width 0) (type default))
          (fill (type none))
        )
        (polyline
          (pts
            (xy 0 0)
            (xy 0 2.54)
          )
          (stroke (width 0) (type default))
          (fill (type none))
        )
        (polyline
          (pts
            (xy 0 2.54)
            (xy 0.762 1.27)
          )
          (stroke (width 0) (type default))
          (fill (type none))
        )
      )
      (symbol "+3V3_1_1"
        (pin power_in line (at 0 0 90) (length 0) hide
          (name "+3V3" (effects (font (size 1.27 1.27))))
          (number "1" (effects (font (size 1.27 1.27))))
        )
      )
    )
    (symbol "power:GND" (power) (pin_names (offset 0)) (in_bom yes) (on_board yes)
      (property "Reference" "#PWR" (at 0 -6.35 0)
        (effects (font (size 1.27 1.27)) hide)
      )
      (property "Value" "GND" (at 0 -3.81 0)
        (effects (font (size 1.27 1.27)))
      )
      (property "Footprint" "" (at 0 0 0)
        (effects (font (size 1.27 1.27)) hide)
      )
      (property "Datasheet" "" (at 0 0 0)
        (effects (font (size 1.27 1.27)) hide)
      )
      (property "ki_keywords" "power-flag" (at 0 0 0)
        (effects (font (size 1.27 1.27)) hide)
      )
      (property "ki_description" "Power symbol creates a global label with name \"GND\" , ground" (at 0 0 0)
        (effects (font (size 1.27 1.27)) hide)
      )
      (symbol "GND_0_1"
        (polyline
          (pts
            (xy 0 0)
            (xy 0 -1.27)
            (xy 1.27 -1.27)
            (xy 0 -2.54)
            (xy -1.27 -1.27)
            (xy 0 -1.27)
          )
          (stroke (width 0) (type default))
          (fill (type none))
        )
      )
      (symbol "GND_1_1"
        (pin power_in line (at 0 0 270) (length 0) hide
          (name "GND" (effects (font (size 1.27 1.27))))
          (number "1" (effects (font (size 1.27 1.27))))
        )
      )
    )
  )

  (junction (at 77.47 63.5) (diameter 0) (color 0 0 0 0)
    (uuid 0147f16a-c952-4891-8f53-a9fb8cddeb8d)
  )
  (junction (at 57.15 63.5) (diameter 0) (color 0 0 0 0)
    (uuid 0dcdf1b8-13c6-48b4-bd94-5d26038ff231)
  )
  (junction (at 191.77 104.14) (diameter 0) (color 0 0 0 0)
    (uuid 127679a9-3981-4934-815e-896a4e3ff56e)
  )
  (junction (at 72.39 72.39) (diameter 0) (color 0 0 0 0)
    (uuid 3172f2e2-18d2-4a80-ae30-5707b3409798)
  )
  (junction (at 123.19 63.5) (diameter 0) (color 0 0 0 0)
    (uuid 4d4b0fcd-2c79-4fc3-b5fa-7a0741601344)
  )
  (junction (at 113.03 63.5) (diameter 0) (color 0 0 0 0)
    (uuid 4d609e7c-74c9-4ae9-a26d-946ff00c167d)
  )
  (junction (at 123.19 68.58) (diameter 0) (color 0 0 0 0)
    (uuid 53c85970-3e21-4fae-a84f-721cfc0513b5)
  )
  (junction (at 92.71 63.5) (diameter 0) (color 0 0 0 0)
    (uuid 5740c959-93d8-47fd-8f68-62f0109e753d)
  )
  (junction (at 72.39 63.5) (diameter 0) (color 0 0 0 0)
    (uuid 6a44418c-7bb4-4e99-8836-57f153c19721)
  )
  (junction (at 144.78 76.2) (diameter 0) (color 0 0 0 0)
    (uuid 78cbdd6c-4878-4cc5-9a58-0e506478e37d)
  )
  (junction (at 115.57 63.5) (diameter 0) (color 0 0 0 0)
    (uuid a501555e-bbc7-4b58-ad89-28a0cd3dd6d0)
  )
  (junction (at 85.09 63.5) (diameter 0) (color 0 0 0 0)
    (uuid aa02e544-13f5-4cf8-a5f4-3e6cda006090)
  )
  (junction (at 92.71 66.04) (diameter 0) (color 0 0 0 0)
    (uuid b60c50d1-225e-415c-8712-7acb5e3dc8ea)
  )
  (junction (at 55.88 66.04) (diameter 0) (color 0 0 0 0)
    (uuid b635b16e-60bb-4b3e-9fc3-47d34eef8381)
  )
  (junction (at 100.33 83.82) (diameter 0) (color 0 0 0 0)
    (uuid b994142f-02ac-4881-9587-6d3df53c96d2)
  )
  (junction (at 102.87 83.82) (diameter 0) (color 0 0 0 0)
    (uuid e47adf3d-9c24-4345-80c9-66679cad107e)
  )
  (junction (at 191.77 99.06) (diameter 0) (color 0 0 0 0)
    (uuid fd470e95-4861-44fe-b1e4-6d8a7c66e144)
  )

  (no_connect (at 182.88 127) (uuid d57dcfee-5058-4fc2-a68b-05f9a48f685b))

  (wire (pts (xy 100.33 48.26) (xy 92.71 48.26))
    (stroke (width 0) (type default))
    (uuid 02165243-61a3-4857-84ba-71a77cb9a387)
  )
  (wire (pts (xy 59.69 69.85) (xy 57.15 69.85))
    (stroke (width 0) (type default))
    (uuid 03d88a85-11fd-47aa-954c-c318bb15294a)
  )
  (wire (pts (xy 182.88 124.46) (xy 184.15 124.46))
    (stroke (width 0) (type default))
    (uuid 0b21a65d-d20b-411e-920a-75c343ac5136)
  )
  (wire (pts (xy 113.03 48.26) (xy 113.03 58.42))
    (stroke (width 0) (type default))
    (uuid 0f3c9e3a-9c59-4881-b27a-d0e982b3ea8e)
  )
  (wire (pts (xy 190.5 129.54) (xy 190.5 132.08))
    (stroke (width 0) (type default))
    (uuid 0f54db53-a272-4955-88fb-d7ab00657bb0)
  )
  (wire (pts (xy 160.02 96.52) (xy 170.18 96.52))
    (stroke (width 0) (type default))
    (uuid 10109f84-4940-47f8-8640-91f185ac9bc1)
  )
  (wire (pts (xy 64.77 69.85) (xy 72.39 69.85))
    (stroke (width 0) (type default))
    (uuid 128e34ce-eee7-477d-b905-a493e98db783)
  )
  (wire (pts (xy 55.88 66.04) (xy 54.61 66.04))
    (stroke (width 0) (type default))
    (uuid 13475e15-f37c-4de8-857e-1722b0c39513)
  )
  (wire (pts (xy 57.15 69.85) (xy 57.15 63.5))
    (stroke (width 0) (type default))
    (uuid 1a2f72d1-0b36-4610-afc4-4ad1660d5d3b)
  )
  (wire (pts (xy 144.78 76.2) (xy 144.78 86.36))
    (stroke (width 0) (type default))
    (uuid 23bb2798-d93a-4696-a962-c305c4298a0c)
  )
  (wire (pts (xy 92.71 83.82) (xy 100.33 83.82))
    (stroke (width 0) (type default))
    (uuid 29256b3d-9450-4c0a-a4d4-911f04b9c140)
  )
  (wire (pts (xy 113.03 68.58) (xy 113.03 63.5))
    (stroke (width 0) (type default))
    (uuid 2f3deced-880d-4075-a81b-95c62da5b94d)
  )
  (wire (pts (xy 85.09 68.58) (xy 85.09 69.85))
    (stroke (width 0) (type default))
    (uuid 34871042-9d5c-4e29-abdd-a168368c3c22)
  )
  (wire (pts (xy 92.71 73.66) (xy 92.71 83.82))
    (stroke (width 0) (type default))
    (uuid 37e4dc66-4492-4061-908d-7213940a2ec3)
  )
  (wire (pts (xy 184.15 124.46) (xy 184.15 123.19))
    (stroke (width 0) (type default))
    (uuid 3cd1bda0-18db-417d-b581-a0c50623df68)
  )
  (wire (pts (xy 115.57 63.5) (xy 123.19 63.5))
    (stroke (width 0) (type default))
    (uuid 3cfcbcc7-4f45-46ab-82a8-c414c7972161)
  )
  (wire (pts (xy 168.91 104.14) (xy 170.18 104.14))
    (stroke (width 0) (type default))
    (uuid 47baf4b1-0938-497d-88f9-671136aa8be7)
  )
  (wire (pts (xy 187.96 93.98) (xy 191.77 93.98))
    (stroke (width 0) (type default))
    (uuid 48ab88d7-7084-4d02-b109-3ad55a30bb11)
  )
  (wire (pts (xy 85.09 63.5) (xy 77.47 63.5))
    (stroke (width 0) (type default))
    (uuid 4e3d7c0d-12e3-42f2-b944-e4bcdbbcac2a)
  )
  (wire (pts (xy 59.69 66.04) (xy 55.88 66.04))
    (stroke (width 0) (type default))
    (uuid 51c4dc0a-5b9f-4edf-a83f-4a12881e42ef)
  )
  (wire (pts (xy 170.18 96.52) (xy 170.18 99.06))
    (stroke (width 0) (type default))
    (uuid 55e740a3-0735-4744-896e-2bf5437093b9)
  )
  (wire (pts (xy 59.69 72.39) (xy 55.88 72.39))
    (stroke (width 0) (type default))
    (uuid 58dc14f9-c158-4824-a84e-24a6a482a7a4)
  )
  (wire (pts (xy 182.88 104.14) (xy 180.34 104.14))
    (stroke (width 0) (type default))
    (uuid 5fc27c35-3e1c-4f96-817c-93b5570858a6)
  )
  (wire (pts (xy 72.39 72.39) (xy 72.39 74.93))
    (stroke (width 0) (type default))
    (uuid 67621f9e-0a6a-4778-ad69-04dcf300659c)
  )
  (wire (pts (xy 64.77 72.39) (xy 72.39 72.39))
    (stroke (width 0) (type default))
    (uuid 68e09be7-3bbc-4443-a838-209ce20b2bef)
  )
  (wire (pts (xy 191.77 104.14) (xy 191.77 105.41))
    (stroke (width 0) (type default))
    (uuid 6a45789b-3855-401f-8139-3c734f7f52f9)
  )
  (wire (pts (xy 187.96 104.14) (xy 191.77 104.14))
    (stroke (width 0) (type default))
    (uuid 6c9b793c-e74d-4754-a2c0-901e73b26f1c)
  )
  (wire (pts (xy 149.86 82.55) (xy 149.86 81.28))
    (stroke (width 0) (type default))
    (uuid 6e105729-aba0-497c-a99e-c32d2b3ddb6d)
  )
  (wire (pts (xy 64.77 66.04) (xy 72.39 66.04))
    (stroke (width 0) (type default))
    (uuid 712d6a7d-2b62-464f-b745-fd2a6b0187f6)
  )
  (wire (pts (xy 191.77 99.06) (xy 191.77 104.14))
    (stroke (width 0) (type default))
    (uuid 716e31c5-485f-40b5-88e3-a75900da9811)
  )
  (wire (pts (xy 160.02 93.98) (xy 170.18 93.98))
    (stroke (width 0) (type default))
    (uuid 71c31975-2c45-4d18-a25a-18e07a55d11e)
  )
  (wire (pts (xy 115.57 68.58) (xy 123.19 68.58))
    (stroke (width 0) (type default))
    (uuid 786b6072-5772-4bc1-8eeb-6c4e19f2a91b)
  )
  (wire (pts (xy 92.71 66.04) (xy 92.71 68.58))
    (stroke (width 0) (type default))
    (uuid 7e08f2a4-63d6-468b-bd8b-ec607077e023)
  )
  (wire (pts (xy 92.71 48.26) (xy 92.71 58.42))
    (stroke (width 0) (type default))
    (uuid 825c70b0-4860-42b7-97dc-86bfa46e06fd)
  )
  (wire (pts (xy 59.69 63.5) (xy 57.15 63.5))
    (stroke (width 0) (type default))
    (uuid 842e430f-0c35-45f3-a0b5-95ae7b7ae388)
  )
  (wire (pts (xy 190.5 123.19) (xy 190.5 124.46))
    (stroke (width 0) (type default))
    (uuid 922058ca-d09a-45fd-8394-05f3e2c1e03a)
  )
  (wire (pts (xy 149.86 76.2) (xy 144.78 76.2))
    (stroke (width 0) (type default))
    (uuid 94c158d1-8503-4553-b511-bf42f506c2a8)
  )
  (wire (pts (xy 72.39 63.5) (xy 64.77 63.5))
    (stroke (width 0) (type default))
    (uuid 98e81e80-1f85-4152-be3f-99785ea97751)
  )
  (wire (pts (xy 92.71 63.5) (xy 92.71 66.04))
    (stroke (width 0) (type default))
    (uuid 9a9f2d82-f64d-4264-8bec-c182528fc4de)
  )
  (wire (pts (xy 184.15 129.54) (xy 184.15 130.81))
    (stroke (width 0) (type default))
    (uuid 9bb20359-0f8b-45bc-9d38-6626ed3a939d)
  )
  (wire (pts (xy 182.88 129.54) (xy 184.15 129.54))
    (stroke (width 0) (type default))
    (uuid aa14c3bd-4acc-4908-9d28-228585a22a9d)
  )
  (wire (pts (xy 144.78 118.11) (xy 144.78 116.84))
    (stroke (width 0) (type default))
    (uuid afb8e687-4a13-41a1-b8c0-89a749e897fe)
  )
  (wire (pts (xy 187.96 99.06) (xy 191.77 99.06))
    (stroke (width 0) (type default))
    (uuid b1086f75-01ba-4188-8d36-75a9e2828ca9)
  )
  (wire (pts (xy 72.39 66.04) (xy 72.39 63.5))
    (stroke (width 0) (type default))
    (uuid b3d08afa-f296-4e3b-8825-73b6331d35bf)
  )
  (wire (pts (xy 100.33 83.82) (xy 102.87 83.82))
    (stroke (width 0) (type default))
    (uuid b603d26a-e034-42fb-8327-b60c5bf9cdd2)
  )
  (wire (pts (xy 92.71 63.5) (xy 85.09 63.5))
    (stroke (width 0) (type default))
    (uuid b6bcc3cf-50de-4a33-bc41-678825c1ecf2)
  )
  (wire (pts (xy 105.41 48.26) (xy 113.03 48.26))
    (stroke (width 0) (type default))
    (uuid bbb15673-6d42-42b8-9d51-7515b3ad9ee9)
  )
  (wire (pts (xy 168.91 99.06) (xy 168.91 104.14))
    (stroke (width 0) (type default))
    (uuid c022004a-c968-410e-b59e-fbab0e561e9d)
  )
  (wire (pts (xy 182.88 93.98) (xy 180.34 93.98))
    (stroke (width 0) (type default))
    (uuid c144caa5-b0d4-4cef-840a-d4ad178a2102)
  )
  (wire (pts (xy 77.47 72.39) (xy 77.47 71.12))
    (stroke (width 0) (type default))
    (uuid c70d9ef3-bfeb-47e0-a1e1-9aeba3da7864)
  )
  (wire (pts (xy 72.39 69.85) (xy 72.39 72.39))
    (stroke (width 0) (type default))
    (uuid c801d42e-dd94-493e-bd2f-6c3ddad43f55)
  )
  (wire (pts (xy 77.47 63.5) (xy 72.39 63.5))
    (stroke (width 0) (type default))
    (uuid d1262c4d-2245-4c4f-8f35-7bb32cd9e21e)
  )
  (wire (pts (xy 113.03 63.5) (xy 115.57 63.5))
    (stroke (width 0) (type default))
    (uuid db83d0af-e085-4050-8496-fa2ebdecbd62)
  )
  (wire (pts (xy 57.15 63.5) (xy 54.61 63.5))
    (stroke (width 0) (type default))
    (uuid dde3dba8-1b81-466c-93a3-c284ff4da1ef)
  )
  (wire (pts (xy 123.19 69.85) (xy 123.19 68.58))
    (stroke (width 0) (type default))
    (uuid ef1b4b98-541b-4673-a04f-2043250fc40a)
  )
  (wire (pts (xy 180.34 99.06) (xy 182.88 99.06))
    (stroke (width 0) (type default))
    (uuid efeac2a2-7682-4dc7-83ee-f6f1b23da506)
  )
  (wire (pts (xy 160.02 99.06) (xy 168.91 99.06))
    (stroke (width 0) (type default))
    (uuid f4f99e3d-7269-4f6a-a759-16ad2a258779)
  )
  (wire (pts (xy 191.77 93.98) (xy 191.77 99.06))
    (stroke (width 0) (type default))
    (uuid f71da641-16e6-4257-80c3-0b9d804fee4f)
  )
  (wire (pts (xy 55.88 72.39) (xy 55.88 66.04))
    (stroke (width 0) (type default))
    (uuid f976e2cc-36f9-4479-a816-2c74d1d5da6f)
  )

  (label "TPI_DATA" (at 170.18 124.46 180) (fields_autoplaced)
    (effects (font (size 1.27 1.27)) (justify right bottom))
    (uuid 2d210a96-f81f-42a9-8bf4-1b43c11086f3)
  )
  (label "TPI_CLK" (at 160.02 96.52 0) (fields_autoplaced)
    (effects (font (size 1.27 1.27)) (justify left bottom))
    (uuid 3f5fe6b7-98fc-4d3e-9567-f9f7202d1455)
  )
  (label "RST" (at 190.5 132.08 0) (fields_autoplaced)
    (effects (font (size 1.27 1.27)) (justify left bottom))
    (uuid 42713045-fffd-4b2d-ae1e-7232d705fb12)
  )
  (label "TPI_DATA" (at 160.02 93.98 0) (fields_autoplaced)
    (effects (font (size 1.27 1.27)) (justify left bottom))
    (uuid 5cbb5968-dbb5-4b84-864a-ead1cacf75b9)
  )
  (label "RST" (at 170.18 129.54 180) (fields_autoplaced)
    (effects (font (size 1.27 1.27)) (justify right bottom))
    (uuid 6c2e273e-743c-4f1e-a647-4171f8122550)
  )
  (label "RST" (at 160.02 101.6 0) (fields_autoplaced)
    (effects (font (size 1.27 1.27)) (justify left bottom))
    (uuid bb7f0588-d4d8-44bf-9ebf-3c533fe4d6ae)
  )
  (label "TPI_CLK" (at 170.18 127 180) (fields_autoplaced)
    (effects (font (size 1.27 1.27)) (justify right bottom))
    (uuid e857610b-4434-4144-b04e-43c1ebdc5ceb)
  )

  (symbol (lib_id "Regulator_Switching:TPS63001") (at 102.87 68.58 0) (unit 1)
    (in_bom yes) (on_board yes) (dnp no)
    (uuid 00000000-0000-0000-0000-00005eaa8026)
    (property "Reference" "U1" (at 102.87 51.6382 0)
      (effects (font (size 1.27 1.27)))
    )
    (property "Value" "TPS63001" (at 102.87 53.9496 0)
      (effects (font (size 1.27 1.27)))
    )
    (property "Footprint" "Package_SON:Texas_DRC0010J_ThermalVias" (at 124.46 82.55 0)
      (effects (font (size 1.27 1.27)) hide)
    )
    (property "Datasheet" "http://www.ti.com/lit/ds/symlink/tps63000.pdf" (at 95.25 54.61 0)
      (effects (font (size 1.27 1.27)) hide)
    )
    (pin "1" (uuid de2df7e3-7a67-4ba5-8bc6-03e3251c9c76))
    (pin "10" (uuid dace27d0-8cc5-4851-a3e5-ab37854f3f14))
    (pin "11" (uuid ba763b21-5c9e-4be0-9666-c1b9d633a6de))
    (pin "2" (uuid 54483c6a-5767-49e9-b9a3-d010ffe327c7))
    (pin "3" (uuid 0d96970a-d3e2-4ce6-9930-126fc760d985))
    (pin "4" (uuid 91aa030c-cd7a-4bf6-a3e6-bccd5e0d552c))
    (pin "5" (uuid 47498872-59ee-4403-b24f-06604363ee13))
    (pin "6" (uuid 4d2a5731-b797-4da8-8884-fd04ad010b22))
    (pin "7" (uuid 411fe260-6962-4a42-bab6-fe9c8baa008e))
    (pin "8" (uuid 66e8f4d0-d812-409a-b8ba-dd622a329ea4))
    (pin "9" (uuid a74ac97d-8dca-4ce5-b264-5d128ab007d7))
    (instances
      (project "wireless_rx"
        (path "/e63e39d7-6ac0-4ffd-8aa3-1841a4541b55"
          (reference "U1") (unit 1)
        )
      )
    )
  )

  (symbol (lib_id "Device:L_Small") (at 102.87 48.26 90) (unit 1)
    (in_bom yes) (on_board yes) (dnp no)
    (uuid 00000000-0000-0000-0000-00005eaa915b)
    (property "Reference" "L1" (at 102.87 43.561 90)
      (effects (font (size 1.27 1.27)))
    )
    (property "Value" "2.2u" (at 102.87 45.8724 90)
      (effects (font (size 1.27 1.27)))
    )
    (property "Footprint" "Inductor_SMD:L_Coilcraft_LPS4018" (at 102.87 48.26 0)
      (effects (font (size 1.27 1.27)) hide)
    )
    (property "Datasheet" "~" (at 102.87 48.26 0)
      (effects (font (size 1.27 1.27)) hide)
    )
    (pin "1" (uuid 9b617587-fb8d-4049-aea3-d7b5a7171507))
    (pin "2" (uuid fbb8f479-da94-4390-a23a-87ce541abc9a))
    (instances
      (project "wireless_rx"
        (path "/e63e39d7-6ac0-4ffd-8aa3-1841a4541b55"
          (reference "L1") (unit 1)
        )
      )
    )
  )

  (symbol (lib_id "Device:D_Schottky_Small") (at 62.23 63.5 180) (unit 1)
    (in_bom yes) (on_board yes) (dnp no)
    (uuid 00000000-0000-0000-0000-00005eaab2e3)
    (property "Reference" "D1" (at 59.69 62.23 0)
      (effects (font (size 1.27 1.27)))
    )
    (property "Value" "LL4007?" (at 67.31 62.23 0)
      (effects (font (size 1.27 1.27)))
    )
    (property "Footprint" "Diode_SMD:D_SMA" (at 62.23 63.5 90)
      (effects (font (size 1.27 1.27)) hide)
    )
    (property "Datasheet" "~" (at 62.23 63.5 90)
      (effects (font (size 1.27 1.27)) hide)
    )
    (pin "1" (uuid 28e1cfed-357a-4425-941d-69acbd416080))
    (pin "2" (uuid d96ed4d8-996a-44af-aec1-b27f14d1b5bf))
    (instances
      (project "wireless_rx"
        (path "/e63e39d7-6ac0-4ffd-8aa3-1841a4541b55"
          (reference "D1") (unit 1)
        )
      )
    )
  )

  (symbol (lib_id "Connector_Generic:Conn_01x02") (at 49.53 66.04 180) (unit 1)
    (in_bom yes) (on_board yes) (dnp no)
    (uuid 00000000-0000-0000-0000-00005eaaba6a)
    (property "Reference" "J1" (at 51.6128 57.785 0)
      (effects (font (size 1.27 1.27)))
    )
    (property "Value" "Coil" (at 51.6128 60.0964 0)
      (effects (font (size 1.27 1.27)))
    )
    (property "Footprint" "Connector_PinHeader_2.54mm:PinHeader_1x02_P2.54mm_Vertical" (at 49.53 66.04 0)
      (effects (font (size 1.27 1.27)) hide)
    )
    (property "Datasheet" "~" (at 49.53 66.04 0)
      (effects (font (size 1.27 1.27)) hide)
    )
    (pin "1" (uuid 8bcf88fe-ff96-4785-aa01-35a2461a1075))
    (pin "2" (uuid 3d4d703f-76e0-4858-888a-b38932b2af76))
    (instances
      (project "wireless_rx"
        (path "/e63e39d7-6ac0-4ffd-8aa3-1841a4541b55"
          (reference "J1") (unit 1)
        )
      )
    )
  )

  (symbol (lib_id "Device:C_Small") (at 85.09 66.04 0) (unit 1)
    (in_bom yes) (on_board yes) (dnp no)
    (uuid 00000000-0000-0000-0000-00005eaac94f)
    (property "Reference" "C1" (at 87.4268 64.8716 0)
      (effects (font (size 1.27 1.27)) (justify left))
    )
    (property "Value" "10u" (at 87.4268 67.183 0)
      (effects (font (size 1.27 1.27)) (justify left))
    )
    (property "Footprint" "Capacitor_SMD:C_0603_1608Metric" (at 85.09 66.04 0)
      (effects (font (size 1.27 1.27)) hide)
    )
    (property "Datasheet" "~" (at 85.09 66.04 0)
      (effects (font (size 1.27 1.27)) hide)
    )
    (pin "1" (uuid abc0b165-0397-4b09-8b46-0496644a350b))
    (pin "2" (uuid 1e7f1721-c876-43b5-a65b-2005df14c582))
    (instances
      (project "wireless_rx"
        (path "/e63e39d7-6ac0-4ffd-8aa3-1841a4541b55"
          (reference "C1") (unit 1)
        )
      )
    )
  )

  (symbol (lib_id "power:GND") (at 102.87 83.82 0) (unit 1)
    (in_bom yes) (on_board yes) (dnp no)
    (uuid 00000000-0000-0000-0000-00005eaacf29)
    (property "Reference" "#PWR0101" (at 102.87 90.17 0)
      (effects (font (size 1.27 1.27)) hide)
    )
    (property "Value" "GND" (at 102.997 88.2142 0)
      (effects (font (size 1.27 1.27)))
    )
    (property "Footprint" "" (at 102.87 83.82 0)
      (effects (font (size 1.27 1.27)) hide)
    )
    (property "Datasheet" "" (at 102.87 83.82 0)
      (effects (font (size 1.27 1.27)) hide)
    )
    (pin "1" (uuid 39de8e26-ab41-4f3e-ae7d-cd207a20bba7))
    (instances
      (project "wireless_rx"
        (path "/e63e39d7-6ac0-4ffd-8aa3-1841a4541b55"
          (reference "#PWR0101") (unit 1)
        )
      )
    )
  )

  (symbol (lib_id "Device:C_Small") (at 115.57 66.04 0) (unit 1)
    (in_bom yes) (on_board yes) (dnp no)
    (uuid 00000000-0000-0000-0000-00005eaadaee)
    (property "Reference" "C2" (at 117.9068 64.8716 0)
      (effects (font (size 1.27 1.27)) (justify left))
    )
    (property "Value" "10u" (at 117.9068 67.183 0)
      (effects (font (size 1.27 1.27)) (justify left))
    )
    (property "Footprint" "Capacitor_SMD:C_0603_1608Metric" (at 115.57 66.04 0)
      (effects (font (size 1.27 1.27)) hide)
    )
    (property "Datasheet" "~" (at 115.57 66.04 0)
      (effects (font (size 1.27 1.27)) hide)
    )
    (pin "1" (uuid 09b901c3-622a-41d4-bf24-31eb343b71c7))
    (pin "2" (uuid c72f7e60-b6be-49bf-964b-7e7cd3e140b6))
    (instances
      (project "wireless_rx"
        (path "/e63e39d7-6ac0-4ffd-8aa3-1841a4541b55"
          (reference "C2") (unit 1)
        )
      )
    )
  )

  (symbol (lib_id "Device:C_Small") (at 123.19 66.04 0) (unit 1)
    (in_bom yes) (on_board yes) (dnp no)
    (uuid 00000000-0000-0000-0000-00005eaae2dc)
    (property "Reference" "C3" (at 125.5268 64.8716 0)
      (effects (font (size 1.27 1.27)) (justify left))
    )
    (property "Value" "10u" (at 125.5268 67.183 0)
      (effects (font (size 1.27 1.27)) (justify left))
    )
    (property "Footprint" "Capacitor_SMD:C_0603_1608Metric" (at 123.19 66.04 0)
      (effects (font (size 1.27 1.27)) hide)
    )
    (property "Datasheet" "~" (at 123.19 66.04 0)
      (effects (font (size 1.27 1.27)) hide)
    )
    (pin "1" (uuid fdf1d7e1-935c-4f1f-a10f-c50433766e5c))
    (pin "2" (uuid 565abcbc-e5bd-4cac-8ce6-cbdcf2daeece))
    (instances
      (project "wireless_rx"
        (path "/e63e39d7-6ac0-4ffd-8aa3-1841a4541b55"
          (reference "C3") (unit 1)
        )
      )
    )
  )

  (symbol (lib_id "power:GND") (at 85.09 69.85 0) (unit 1)
    (in_bom yes) (on_board yes) (dnp no)
    (uuid 00000000-0000-0000-0000-00005eaaedc9)
    (property "Reference" "#PWR0102" (at 85.09 76.2 0)
      (effects (font (size 1.27 1.27)) hide)
    )
    (property "Value" "GND" (at 85.217 74.2442 0)
      (effects (font (size 1.27 1.27)))
    )
    (property "Footprint" "" (at 85.09 69.85 0)
      (effects (font (size 1.27 1.27)) hide)
    )
    (property "Datasheet" "" (at 85.09 69.85 0)
      (effects (font (size 1.27 1.27)) hide)
    )
    (pin "1" (uuid 469b2776-b3b2-4a52-982c-27551f4fc452))
    (instances
      (project "wireless_rx"
        (path "/e63e39d7-6ac0-4ffd-8aa3-1841a4541b55"
          (reference "#PWR0102") (unit 1)
        )
      )
    )
  )

  (symbol (lib_id "power:GND") (at 123.19 69.85 0) (unit 1)
    (in_bom yes) (on_board yes) (dnp no)
    (uuid 00000000-0000-0000-0000-00005eaaf154)
    (property "Reference" "#PWR0103" (at 123.19 76.2 0)
      (effects (font (size 1.27 1.27)) hide)
    )
    (property "Value" "GND" (at 123.317 74.2442 0)
      (effects (font (size 1.27 1.27)))
    )
    (property "Footprint" "" (at 123.19 69.85 0)
      (effects (font (size 1.27 1.27)) hide)
    )
    (property "Datasheet" "" (at 123.19 69.85 0)
      (effects (font (size 1.27 1.27)) hide)
    )
    (pin "1" (uuid aea734c7-e0cb-4774-8d68-2b2c56b38b83))
    (instances
      (project "wireless_rx"
        (path "/e63e39d7-6ac0-4ffd-8aa3-1841a4541b55"
          (reference "#PWR0103") (unit 1)
        )
      )
    )
  )

  (symbol (lib_id "power:+3V3") (at 123.19 63.5 0) (unit 1)
    (in_bom yes) (on_board yes) (dnp no)
    (uuid 00000000-0000-0000-0000-00005eab009e)
    (property "Reference" "#PWR0104" (at 123.19 67.31 0)
      (effects (font (size 1.27 1.27)) hide)
    )
    (property "Value" "+3V3" (at 123.571 59.1058 0)
      (effects (font (size 1.27 1.27)))
    )
    (property "Footprint" "" (at 123.19 63.5 0)
      (effects (font (size 1.27 1.27)) hide)
    )
    (property "Datasheet" "" (at 123.19 63.5 0)
      (effects (font (size 1.27 1.27)) hide)
    )
    (pin "1" (uuid 36e4075f-5169-42a6-8463-6ac1b4fe40b4))
    (instances
      (project "wireless_rx"
        (path "/e63e39d7-6ac0-4ffd-8aa3-1841a4541b55"
          (reference "#PWR0104") (unit 1)
        )
      )
    )
  )

  (symbol (lib_id "Device:D_Schottky_Small") (at 62.23 66.04 180) (unit 1)
    (in_bom yes) (on_board yes) (dnp no)
    (uuid 00000000-0000-0000-0000-00005eab23ce)
    (property "Reference" "D2" (at 59.69 64.77 0)
      (effects (font (size 1.27 1.27)))
    )
    (property "Value" "LL4007?" (at 67.31 64.77 0)
      (effects (font (size 1.27 1.27)))
    )
    (property "Footprint" "Diode_SMD:D_SMA" (at 62.23 66.04 90)
      (effects (font (size 1.27 1.27)) hide)
    )
    (property "Datasheet" "~" (at 62.23 66.04 90)
      (effects (font (size 1.27 1.27)) hide)
    )
    (pin "1" (uuid bb066fe2-74a8-453c-8d93-2362b4aeaf1f))
    (pin "2" (uuid be237ae1-caaf-493d-8eee-33886a1134dd))
    (instances
      (project "wireless_rx"
        (path "/e63e39d7-6ac0-4ffd-8aa3-1841a4541b55"
          (reference "D2") (unit 1)
        )
      )
    )
  )

  (symbol (lib_id "Device:D_Schottky_Small") (at 62.23 69.85 0) (unit 1)
    (in_bom yes) (on_board yes) (dnp no)
    (uuid 00000000-0000-0000-0000-00005eab37cf)
    (property "Reference" "D3" (at 59.69 71.12 0)
      (effects (font (size 1.27 1.27)))
    )
    (property "Value" "LL4007?" (at 67.31 71.12 0)
      (effects (font (size 1.27 1.27)))
    )
    (property "Footprint" "Diode_SMD:D_SMA" (at 62.23 69.85 90)
      (effects (font (size 1.27 1.27)) hide)
    )
    (property "Datasheet" "~" (at 62.23 69.85 90)
      (effects (font (size 1.27 1.27)) hide)
    )
    (pin "1" (uuid e753ca5f-3e02-4b40-99b2-ae1180ce0fe2))
    (pin "2" (uuid 1bb1cfa0-d87c-4b71-91bb-edacb8d3e34e))
    (instances
      (project "wireless_rx"
        (path "/e63e39d7-6ac0-4ffd-8aa3-1841a4541b55"
          (reference "D3") (unit 1)
        )
      )
    )
  )

  (symbol (lib_id "Device:D_Schottky_Small") (at 62.23 72.39 0) (unit 1)
    (in_bom yes) (on_board yes) (dnp no)
    (uuid 00000000-0000-0000-0000-00005eab3db0)
    (property "Reference" "D4" (at 59.69 73.66 0)
      (effects (font (size 1.27 1.27)))
    )
    (property "Value" "LL4007?" (at 67.31 73.66 0)
      (effects (font (size 1.27 1.27)))
    )
    (property "Footprint" "Diode_SMD:D_SMA" (at 62.23 72.39 90)
      (effects (font (size 1.27 1.27)) hide)
    )
    (property "Datasheet" "~" (at 62.23 72.39 90)
      (effects (font (size 1.27 1.27)) hide)
    )
    (pin "1" (uuid 54733d40-a075-48ae-8135-0be9869c75ef))
    (pin "2" (uuid 9e48427f-1a1a-448a-8122-d34090e1b0d3))
    (instances
      (project "wireless_rx"
        (path "/e63e39d7-6ac0-4ffd-8aa3-1841a4541b55"
          (reference "D4") (unit 1)
        )
      )
    )
  )

  (symbol (lib_id "power:GND") (at 72.39 74.93 0) (unit 1)
    (in_bom yes) (on_board yes) (dnp no)
    (uuid 00000000-0000-0000-0000-00005eab451f)
    (property "Reference" "#PWR0105" (at 72.39 81.28 0)
      (effects (font (size 1.27 1.27)) hide)
    )
    (property "Value" "GND" (at 72.517 79.3242 0)
      (effects (font (size 1.27 1.27)))
    )
    (property "Footprint" "" (at 72.39 74.93 0)
      (effects (font (size 1.27 1.27)) hide)
    )
    (property "Datasheet" "" (at 72.39 74.93 0)
      (effects (font (size 1.27 1.27)) hide)
    )
    (pin "1" (uuid 24fec2fa-284f-4f80-80d9-f625ae58aced))
    (instances
      (project "wireless_rx"
        (path "/e63e39d7-6ac0-4ffd-8aa3-1841a4541b55"
          (reference "#PWR0105") (unit 1)
        )
      )
    )
  )

  (symbol (lib_id "Device:D_Zener") (at 77.47 67.31 270) (unit 1)
    (in_bom yes) (on_board yes) (dnp no)
    (uuid 00000000-0000-0000-0000-00005eac33a0)
    (property "Reference" "D5" (at 79.4766 66.1416 90)
      (effects (font (size 1.27 1.27)) (justify left))
    )
    (property "Value" "5.6v" (at 79.4766 68.453 90)
      (effects (font (size 1.27 1.27)) (justify left))
    )
    (property "Footprint" "Diode_THT:D_DO-35_SOD27_P7.62mm_Horizontal" (at 77.47 67.31 0)
      (effects (font (size 1.27 1.27)) hide)
    )
    (property "Datasheet" "~" (at 77.47 67.31 0)
      (effects (font (size 1.27 1.27)) hide)
    )
    (pin "1" (uuid eb6944ab-de90-4d2b-a038-fe64fe22b09f))
    (pin "2" (uuid efcf8b8e-b4a4-447f-9f1f-480ef2d2869e))
    (instances
      (project "wireless_rx"
        (path "/e63e39d7-6ac0-4ffd-8aa3-1841a4541b55"
          (reference "D5") (unit 1)
        )
      )
    )
  )

  (symbol (lib_id "power:GND") (at 77.47 72.39 0) (unit 1)
    (in_bom yes) (on_board yes) (dnp no)
    (uuid 00000000-0000-0000-0000-00005eac7b55)
    (property "Reference" "#PWR0106" (at 77.47 78.74 0)
      (effects (font (size 1.27 1.27)) hide)
    )
    (property "Value" "GND" (at 77.597 76.7842 0)
      (effects (font (size 1.27 1.27)))
    )
    (property "Footprint" "" (at 77.47 72.39 0)
      (effects (font (size 1.27 1.27)) hide)
    )
    (property "Datasheet" "" (at 77.47 72.39 0)
      (effects (font (size 1.27 1.27)) hide)
    )
    (pin "1" (uuid 28c42d69-09d4-42ae-87d9-1753699548f4))
    (instances
      (project "wireless_rx"
        (path "/e63e39d7-6ac0-4ffd-8aa3-1841a4541b55"
          (reference "#PWR0106") (unit 1)
        )
      )
    )
  )

  (symbol (lib_id "MCU_Microchip_ATtiny:ATtiny10-TS") (at 144.78 101.6 0) (unit 1)
    (in_bom yes) (on_board yes) (dnp no)
    (uuid 00000000-0000-0000-0000-00005eac9467)
    (property "Reference" "U2" (at 131.318 100.4316 0)
      (effects (font (size 1.27 1.27)) (justify right))
    )
    (property "Value" "ATtiny10-TS" (at 131.318 102.743 0)
      (effects (font (size 1.27 1.27)) (justify right))
    )
    (property "Footprint" "Package_TO_SOT_SMD:SOT-23-6" (at 144.78 101.6 0)
      (effects (font (size 1.27 1.27) italic) hide)
    )
    (property "Datasheet" "http://ww1.microchip.com/downloads/en/DeviceDoc/Atmel-8127-AVR-8-bit-Microcontroller-ATtiny4-ATtiny5-ATtiny9-ATtiny10_Datasheet.pdf" (at 144.78 101.6 0)
      (effects (font (size 1.27 1.27)) hide)
    )
    (pin "1" (uuid b03f40eb-52ca-4ed1-add3-0f257d9af3a8))
    (pin "2" (uuid 32113010-c2c9-4f22-b5e0-c1af5e67bd15))
    (pin "3" (uuid 482efefe-4e01-40d2-baba-6ead4c2bce4d))
    (pin "4" (uuid 6ff95fbb-7122-49b5-b08e-8ceb838e6c98))
    (pin "5" (uuid ac997c2c-f3e9-40ef-a0bf-c72665c9d9cd))
    (pin "6" (uuid 56fcd277-d0fa-4045-8c6c-403fa315d96d))
    (instances
      (project "wireless_rx"
        (path "/e63e39d7-6ac0-4ffd-8aa3-1841a4541b55"
          (reference "U2") (unit 1)
        )
      )
    )
  )

  (symbol (lib_id "Device:C_Small") (at 149.86 78.74 0) (unit 1)
    (in_bom yes) (on_board yes) (dnp no)
    (uuid 00000000-0000-0000-0000-00005eaca254)
    (property "Reference" "C4" (at 152.1968 77.5716 0)
      (effects (font (size 1.27 1.27)) (justify left))
    )
    (property "Value" "100n" (at 152.1968 79.883 0)
      (effects (font (size 1.27 1.27)) (justify left))
    )
    (property "Footprint" "Capacitor_SMD:C_0603_1608Metric" (at 149.86 78.74 0)
      (effects (font (size 1.27 1.27)) hide)
    )
    (property "Datasheet" "~" (at 149.86 78.74 0)
      (effects (font (size 1.27 1.27)) hide)
    )
    (pin "1" (uuid 3897a32f-a35e-4c89-986d-9425af141fb7))
    (pin "2" (uuid bf386271-3c33-47d5-a77b-3306e5af8f3c))
    (instances
      (project "wireless_rx"
        (path "/e63e39d7-6ac0-4ffd-8aa3-1841a4541b55"
          (reference "C4") (unit 1)
        )
      )
    )
  )

  (symbol (lib_id "power:GND") (at 149.86 82.55 0) (unit 1)
    (in_bom yes) (on_board yes) (dnp no)
    (uuid 00000000-0000-0000-0000-00005eacabac)
    (property "Reference" "#PWR0107" (at 149.86 88.9 0)
      (effects (font (size 1.27 1.27)) hide)
    )
    (property "Value" "GND" (at 149.987 86.9442 0)
      (effects (font (size 1.27 1.27)))
    )
    (property "Footprint" "" (at 149.86 82.55 0)
      (effects (font (size 1.27 1.27)) hide)
    )
    (property "Datasheet" "" (at 149.86 82.55 0)
      (effects (font (size 1.27 1.27)) hide)
    )
    (pin "1" (uuid 88999d67-3358-4d26-82e3-9679940ba0c5))
    (instances
      (project "wireless_rx"
        (path "/e63e39d7-6ac0-4ffd-8aa3-1841a4541b55"
          (reference "#PWR0107") (unit 1)
        )
      )
    )
  )

  (symbol (lib_id "power:+3V3") (at 144.78 76.2 0) (unit 1)
    (in_bom yes) (on_board yes) (dnp no)
    (uuid 00000000-0000-0000-0000-00005eacb24e)
    (property "Reference" "#PWR0108" (at 144.78 80.01 0)
      (effects (font (size 1.27 1.27)) hide)
    )
    (property "Value" "+3V3" (at 145.161 71.8058 0)
      (effects (font (size 1.27 1.27)))
    )
    (property "Footprint" "" (at 144.78 76.2 0)
      (effects (font (size 1.27 1.27)) hide)
    )
    (property "Datasheet" "" (at 144.78 76.2 0)
      (effects (font (size 1.27 1.27)) hide)
    )
    (pin "1" (uuid 2cc29d02-032d-40b1-9e90-f7b7bf636c36))
    (instances
      (project "wireless_rx"
        (path "/e63e39d7-6ac0-4ffd-8aa3-1841a4541b55"
          (reference "#PWR0108") (unit 1)
        )
      )
    )
  )

  (symbol (lib_id "power:GND") (at 144.78 118.11 0) (unit 1)
    (in_bom yes) (on_board yes) (dnp no)
    (uuid 00000000-0000-0000-0000-00005eacc847)
    (property "Reference" "#PWR0109" (at 144.78 124.46 0)
      (effects (font (size 1.27 1.27)) hide)
    )
    (property "Value" "GND" (at 144.907 122.5042 0)
      (effects (font (size 1.27 1.27)))
    )
    (property "Footprint" "" (at 144.78 118.11 0)
      (effects (font (size 1.27 1.27)) hide)
    )
    (property "Datasheet" "" (at 144.78 118.11 0)
      (effects (font (size 1.27 1.27)) hide)
    )
    (pin "1" (uuid 39836e00-385b-41cc-83c0-9141a07ef8fa))
    (instances
      (project "wireless_rx"
        (path "/e63e39d7-6ac0-4ffd-8aa3-1841a4541b55"
          (reference "#PWR0109") (unit 1)
        )
      )
    )
  )

  (symbol (lib_id "Device:LED_RGB") (at 175.26 99.06 180) (unit 1)
    (in_bom yes) (on_board yes) (dnp no)
    (uuid 00000000-0000-0000-0000-00005eacdebf)
    (property "Reference" "D6" (at 175.26 87.1982 0)
      (effects (font (size 1.27 1.27)))
    )
    (property "Value" "LED_RGB" (at 175.26 89.5096 0)
      (effects (font (size 1.27 1.27)))
    )
    (property "Footprint" "LED_SMD:LED_RGB_5050-6" (at 175.26 97.79 0)
      (effects (font (size 1.27 1.27)) hide)
    )
    (property "Datasheet" "~" (at 175.26 97.79 0)
      (effects (font (size 1.27 1.27)) hide)
    )
    (pin "1" (uuid 5a8cee00-d7e7-461b-aff7-761b7020db42))
    (pin "2" (uuid cb046a92-89c4-4f93-ac88-d6694c914588))
    (pin "3" (uuid 88ef9428-51e7-40d7-8949-e1dbb85436ff))
    (pin "4" (uuid 0315598e-3276-452d-adad-703b34776d8d))
    (pin "5" (uuid 5d076173-b401-412a-b5bf-db022d7f64b6))
    (pin "6" (uuid 2783f19e-897c-4da4-93c2-c6c302cdf565))
    (instances
      (project "wireless_rx"
        (path "/e63e39d7-6ac0-4ffd-8aa3-1841a4541b55"
          (reference "D6") (unit 1)
        )
      )
    )
  )

  (symbol (lib_id "Device:R_Small") (at 185.42 93.98 270) (unit 1)
    (in_bom yes) (on_board yes) (dnp no)
    (uuid 00000000-0000-0000-0000-00005ead2f4d)
    (property "Reference" "R1" (at 181.61 92.71 90)
      (effects (font (size 1.27 1.27)))
    )
    (property "Value" "50" (at 189.23 92.71 90)
      (effects (font (size 1.27 1.27)))
    )
    (property "Footprint" "Resistor_SMD:R_0603_1608Metric" (at 185.42 93.98 0)
      (effects (font (size 1.27 1.27)) hide)
    )
    (property "Datasheet" "~" (at 185.42 93.98 0)
      (effects (font (size 1.27 1.27)) hide)
    )
    (pin "1" (uuid 99d1ba27-65ee-4a2e-af39-7cc8840c2c8c))
    (pin "2" (uuid d5989401-ffed-4046-9dff-5a880814480b))
    (instances
      (project "wireless_rx"
        (path "/e63e39d7-6ac0-4ffd-8aa3-1841a4541b55"
          (reference "R1") (unit 1)
        )
      )
    )
  )

  (symbol (lib_id "Device:R_Small") (at 185.42 99.06 270) (unit 1)
    (in_bom yes) (on_board yes) (dnp no)
    (uuid 00000000-0000-0000-0000-00005ead38bf)
    (property "Reference" "R2" (at 181.61 97.79 90)
      (effects (font (size 1.27 1.27)))
    )
    (property "Value" "50" (at 189.23 97.79 90)
      (effects (font (size 1.27 1.27)))
    )
    (property "Footprint" "Resistor_SMD:R_0603_1608Metric" (at 185.42 99.06 0)
      (effects (font (size 1.27 1.27)) hide)
    )
    (property "Datasheet" "~" (at 185.42 99.06 0)
      (effects (font (size 1.27 1.27)) hide)
    )
    (pin "1" (uuid fa7971f5-0a23-4df7-97bf-de66d762d76c))
    (pin "2" (uuid ea771d44-d315-4ead-842b-ed4bffe936ea))
    (instances
      (project "wireless_rx"
        (path "/e63e39d7-6ac0-4ffd-8aa3-1841a4541b55"
          (reference "R2") (unit 1)
        )
      )
    )
  )

  (symbol (lib_id "Device:R_Small") (at 185.42 104.14 270) (unit 1)
    (in_bom yes) (on_board yes) (dnp no)
    (uuid 00000000-0000-0000-0000-00005ead3bb9)
    (property "Reference" "R3" (at 181.61 102.87 90)
      (effects (font (size 1.27 1.27)))
    )
    (property "Value" "50" (at 189.23 102.87 90)
      (effects (font (size 1.27 1.27)))
    )
    (property "Footprint" "Resistor_SMD:R_0603_1608Metric" (at 185.42 104.14 0)
      (effects (font (size 1.27 1.27)) hide)
    )
    (property "Datasheet" "~" (at 185.42 104.14 0)
      (effects (font (size 1.27 1.27)) hide)
    )
    (pin "1" (uuid 4febed1b-0ba8-4e44-bfac-17f1e1156d39))
    (pin "2" (uuid b3fdc127-f03d-40ac-8e05-e604becc99fc))
    (instances
      (project "wireless_rx"
        (path "/e63e39d7-6ac0-4ffd-8aa3-1841a4541b55"
          (reference "R3") (unit 1)
        )
      )
    )
  )

  (symbol (lib_id "power:GND") (at 191.77 105.41 0) (unit 1)
    (in_bom yes) (on_board yes) (dnp no)
    (uuid 00000000-0000-0000-0000-00005ead41a9)
    (property "Reference" "#PWR0110" (at 191.77 111.76 0)
      (effects (font (size 1.27 1.27)) hide)
    )
    (property "Value" "GND" (at 191.897 109.8042 0)
      (effects (font (size 1.27 1.27)))
    )
    (property "Footprint" "" (at 191.77 105.41 0)
      (effects (font (size 1.27 1.27)) hide)
    )
    (property "Datasheet" "" (at 191.77 105.41 0)
      (effects (font (size 1.27 1.27)) hide)
    )
    (pin "1" (uuid 8f4d753d-a0cf-4623-bac5-861da741c1ec))
    (instances
      (project "wireless_rx"
        (path "/e63e39d7-6ac0-4ffd-8aa3-1841a4541b55"
          (reference "#PWR0110") (unit 1)
        )
      )
    )
  )

  (symbol (lib_id "Connector_Generic:Conn_02x03_Odd_Even") (at 175.26 127 0) (unit 1)
    (in_bom yes) (on_board yes) (dnp no)
    (uuid 00000000-0000-0000-0000-00005eae039b)
    (property "Reference" "J2" (at 176.53 118.9482 0)
      (effects (font (size 1.27 1.27)))
    )
    (property "Value" "TPI" (at 176.53 121.2596 0)
      (effects (font (size 1.27 1.27)))
    )
    (property "Footprint" "Connector:Tag-Connect_TC2030-IDC-NL_2x03_P1.27mm_Vertical" (at 175.26 127 0)
      (effects (font (size 1.27 1.27)) hide)
    )
    (property "Datasheet" "~" (at 175.26 127 0)
      (effects (font (size 1.27 1.27)) hide)
    )
    (pin "1" (uuid 24df62c9-6fdc-4a70-a717-828494f27267))
    (pin "2" (uuid 7900431f-5250-4450-b208-c7c60a4f4f9a))
    (pin "3" (uuid 25045015-a89f-4eeb-8b1c-2d2e310fa4e2))
    (pin "4" (uuid 3833901d-e3dc-4899-88bf-6e82f43e4c69))
    (pin "5" (uuid 22146a5e-ff57-428c-8445-b829107b62f6))
    (pin "6" (uuid e943b47c-7d18-4587-bde3-28f7768387e9))
    (instances
      (project "wireless_rx"
        (path "/e63e39d7-6ac0-4ffd-8aa3-1841a4541b55"
          (reference "J2") (unit 1)
        )
      )
    )
  )

  (symbol (lib_id "power:+3V3") (at 184.15 123.19 0) (unit 1)
    (in_bom yes) (on_board yes) (dnp no)
    (uuid 00000000-0000-0000-0000-00005eae11df)
    (property "Reference" "#PWR0111" (at 184.15 127 0)
      (effects (font (size 1.27 1.27)) hide)
    )
    (property "Value" "+3V3" (at 184.531 118.7958 0)
      (effects (font (size 1.27 1.27)))
    )
    (property "Footprint" "" (at 184.15 123.19 0)
      (effects (font (size 1.27 1.27)) hide)
    )
    (property "Datasheet" "" (at 184.15 123.19 0)
      (effects (font (size 1.27 1.27)) hide)
    )
    (pin "1" (uuid 49469c9b-df3e-4565-bf63-8656791b4082))
    (instances
      (project "wireless_rx"
        (path "/e63e39d7-6ac0-4ffd-8aa3-1841a4541b55"
          (reference "#PWR0111") (unit 1)
        )
      )
    )
  )

  (symbol (lib_id "power:GND") (at 184.15 130.81 0) (unit 1)
    (in_bom yes) (on_board yes) (dnp no)
    (uuid 00000000-0000-0000-0000-00005eae3aef)
    (property "Reference" "#PWR0112" (at 184.15 137.16 0)
      (effects (font (size 1.27 1.27)) hide)
    )
    (property "Value" "GND" (at 184.277 135.2042 0)
      (effects (font (size 1.27 1.27)))
    )
    (property "Footprint" "" (at 184.15 130.81 0)
      (effects (font (size 1.27 1.27)) hide)
    )
    (property "Datasheet" "" (at 184.15 130.81 0)
      (effects (font (size 1.27 1.27)) hide)
    )
    (pin "1" (uuid e79d67a8-cbba-4c65-b397-7a2efb1f1d5a))
    (instances
      (project "wireless_rx"
        (path "/e63e39d7-6ac0-4ffd-8aa3-1841a4541b55"
          (reference "#PWR0112") (unit 1)
        )
      )
    )
  )

  (symbol (lib_id "Device:R_Small") (at 190.5 127 0) (unit 1)
    (in_bom yes) (on_board yes) (dnp no)
    (uuid 00000000-0000-0000-0000-00005eae5861)
    (property "Reference" "R4" (at 191.9986 125.8316 0)
      (effects (font (size 1.27 1.27)) (justify left))
    )
    (property "Value" "10k" (at 191.9986 128.143 0)
      (effects (font (size 1.27 1.27)) (justify left))
    )
    (property "Footprint" "Resistor_SMD:R_0603_1608Metric" (at 190.5 127 0)
      (effects (font (size 1.27 1.27)) hide)
    )
    (property "Datasheet" "~" (at 190.5 127 0)
      (effects (font (size 1.27 1.27)) hide)
    )
    (pin "1" (uuid 18ea2b2d-140e-4b14-971d-ba1a9d5c5edb))
    (pin "2" (uuid bfaa51d1-b0a2-4e02-81cf-c113a76b4725))
    (instances
      (project "wireless_rx"
        (path "/e63e39d7-6ac0-4ffd-8aa3-1841a4541b55"
          (reference "R4") (unit 1)
        )
      )
    )
  )

  (symbol (lib_id "power:+3V3") (at 190.5 123.19 0) (unit 1)
    (in_bom yes) (on_board yes) (dnp no)
    (uuid 00000000-0000-0000-0000-00005eae5fa2)
    (property "Reference" "#PWR0113" (at 190.5 127 0)
      (effects (font (size 1.27 1.27)) hide)
    )
    (property "Value" "+3V3" (at 190.881 118.7958 0)
      (effects (font (size 1.27 1.27)))
    )
    (property "Footprint" "" (at 190.5 123.19 0)
      (effects (font (size 1.27 1.27)) hide)
    )
    (property "Datasheet" "" (at 190.5 123.19 0)
      (effects (font (size 1.27 1.27)) hide)
    )
    (pin "1" (uuid 7268ef62-ad73-4c96-bfec-0cb3ba120efe))
    (instances
      (project "wireless_rx"
        (path "/e63e39d7-6ac0-4ffd-8aa3-1841a4541b55"
          (reference "#PWR0113") (unit 1)
        )
      )
    )
  )

  (sheet_instances
    (path "/" (page "1"))
  )
)
