(kicad_sch (version 20230121) (generator eeschema)

  (uuid 41c10dca-9768-4bdc-8ab0-1c924b7448a6)

  (paper "A3")

  (title_block
    (title "VCU")
    (date "2023-03-03")
    (rev "1.3.0")
    (company "SUFST")
    (comment 1 "STAG 9")
    (comment 2 "Tim Brewis")
    (comment 3 "Max O'Brien")
  )

  (lib_symbols
    (symbol "Device:C_Small" (pin_numbers hide) (pin_names (offset 0.254) hide) (in_bom yes) (on_board yes)
      (property "Reference" "C" (at 0.254 1.778 0)
        (effects (font (size 1.27 1.27)) (justify left))
      )
      (property "Value" "C_Small" (at 0.254 -2.032 0)
        (effects (font (size 1.27 1.27)) (justify left))
      )
      (property "Footprint" "" (at 0 0 0)
        (effects (font (size 1.27 1.27)) hide)
      )
      (property "Datasheet" "~" (at 0 0 0)
        (effects (font (size 1.27 1.27)) hide)
      )
      (property "ki_keywords" "capacitor cap" (at 0 0 0)
        (effects (font (size 1.27 1.27)) hide)
      )
      (property "ki_description" "Unpolarized capacitor, small symbol" (at 0 0 0)
        (effects (font (size 1.27 1.27)) hide)
      )
      (property "ki_fp_filters" "C_*" (at 0 0 0)
        (effects (font (size 1.27 1.27)) hide)
      )
      (symbol "C_Small_0_1"
        (polyline
          (pts
            (xy -1.524 -0.508)
            (xy 1.524 -0.508)
          )
          (stroke (width 0.3302) (type default))
          (fill (type none))
        )
        (polyline
          (pts
            (xy -1.524 0.508)
            (xy 1.524 0.508)
          )
          (stroke (width 0.3048) (type default))
          (fill (type none))
        )
      )
      (symbol "C_Small_1_1"
        (pin passive line (at 0 2.54 270) (length 2.032)
          (name "~" (effects (font (size 1.27 1.27))))
          (number "1" (effects (font (size 1.27 1.27))))
        )
        (pin passive line (at 0 -2.54 90) (length 2.032)
          (name "~" (effects (font (size 1.27 1.27))))
          (number "2" (effects (font (size 1.27 1.27))))
        )
      )
    )
    (symbol "Device:R_Small" (pin_numbers hide) (pin_names (offset 0.254) hide) (in_bom yes) (on_board yes)
      (property "Reference" "R" (at 0.762 0.508 0)
        (effects (font (size 1.27 1.27)) (justify left))
      )
      (property "Value" "R_Small" (at 0.762 -1.016 0)
        (effects (font (size 1.27 1.27)) (justify left))
      )
      (property "Footprint" "" (at 0 0 0)
        (effects (font (size 1.27 1.27)) hide)
      )
      (property "Datasheet" "~" (at 0 0 0)
        (effects (font (size 1.27 1.27)) hide)
      )
      (property "ki_keywords" "R resistor" (at 0 0 0)
        (effects (font (size 1.27 1.27)) hide)
      )
      (property "ki_description" "Resistor, small symbol" (at 0 0 0)
        (effects (font (size 1.27 1.27)) hide)
      )
      (property "ki_fp_filters" "R_*" (at 0 0 0)
        (effects (font (size 1.27 1.27)) hide)
      )
      (symbol "R_Small_0_1"
        (rectangle (start -0.762 1.778) (end 0.762 -1.778)
          (stroke (width 0.2032) (type default))
          (fill (type none))
        )
      )
      (symbol "R_Small_1_1"
        (pin passive line (at 0 2.54 270) (length 0.762)
          (name "~" (effects (font (size 1.27 1.27))))
          (number "1" (effects (font (size 1.27 1.27))))
        )
        (pin passive line (at 0 -2.54 90) (length 0.762)
          (name "~" (effects (font (size 1.27 1.27))))
          (number "2" (effects (font (size 1.27 1.27))))
        )
      )
    )
    (symbol "Interface_UART:MAX3051" (pin_names (offset 1.016)) (in_bom yes) (on_board yes)
      (property "Reference" "U" (at -10.16 8.89 0)
        (effects (font (size 1.27 1.27)) (justify left))
      )
      (property "Value" "MAX3051" (at 2.54 8.89 0)
        (effects (font (size 1.27 1.27)) (justify left))
      )
      (property "Footprint" "" (at 0 0 0)
        (effects (font (size 1.27 1.27) italic) hide)
      )
      (property "Datasheet" "http://datasheets.maximintegrated.com/en/ds/MAX3051.pdf" (at 0 0 0)
        (effects (font (size 1.27 1.27)) hide)
      )
      (property "ki_keywords" "High-Speed CAN Transceiver" (at 0 0 0)
        (effects (font (size 1.27 1.27)) hide)
      )
      (property "ki_description" "High-Speed CAN Transceiver, 1Mbps, 3.3V supply" (at 0 0 0)
        (effects (font (size 1.27 1.27)) hide)
      )
      (property "ki_fp_filters" "SOT?23* SOIC*" (at 0 0 0)
        (effects (font (size 1.27 1.27)) hide)
      )
      (symbol "MAX3051_0_1"
        (rectangle (start -10.16 7.62) (end 10.16 -7.62)
          (stroke (width 0.254) (type default))
          (fill (type background))
        )
      )
      (symbol "MAX3051_1_1"
        (pin input line (at -12.7 5.08 0) (length 2.54)
          (name "TXD" (effects (font (size 1.27 1.27))))
          (number "1" (effects (font (size 1.27 1.27))))
        )
        (pin power_in line (at 0 -10.16 90) (length 2.54)
          (name "GND" (effects (font (size 1.27 1.27))))
          (number "2" (effects (font (size 1.27 1.27))))
        )
        (pin power_in line (at 0 10.16 270) (length 2.54)
          (name "VDD" (effects (font (size 1.27 1.27))))
          (number "3" (effects (font (size 1.27 1.27))))
        )
        (pin output line (at -12.7 2.54 0) (length 2.54)
          (name "RXD" (effects (font (size 1.27 1.27))))
          (number "4" (effects (font (size 1.27 1.27))))
        )
        (pin input line (at -12.7 -2.54 0) (length 2.54)
          (name "SHDN" (effects (font (size 1.27 1.27))))
          (number "5" (effects (font (size 1.27 1.27))))
        )
        (pin bidirectional line (at 12.7 -2.54 180) (length 2.54)
          (name "CANL" (effects (font (size 1.27 1.27))))
          (number "6" (effects (font (size 1.27 1.27))))
        )
        (pin bidirectional line (at 12.7 2.54 180) (length 2.54)
          (name "CANH" (effects (font (size 1.27 1.27))))
          (number "7" (effects (font (size 1.27 1.27))))
        )
        (pin input line (at -12.7 -5.08 0) (length 2.54)
          (name "RS" (effects (font (size 1.27 1.27))))
          (number "8" (effects (font (size 1.27 1.27))))
        )
      )
    )
    (symbol "power:+3V3" (power) (pin_names (offset 0)) (in_bom yes) (on_board yes)
      (property "Reference" "#PWR" (at 0 -3.81 0)
        (effects (font (size 1.27 1.27)) hide)
      )
      (property "Value" "+3V3" (at 0 3.556 0)
        (effects (font (size 1.27 1.27)))
      )
      (property "Footprint" "" (at 0 0 0)
        (effects (font (size 1.27 1.27)) hide)
      )
      (property "Datasheet" "" (at 0 0 0)
        (effects (font (size 1.27 1.27)) hide)
      )
      (property "ki_keywords" "global power" (at 0 0 0)
        (effects (font (size 1.27 1.27)) hide)
      )
      (property "ki_description" "Power symbol creates a global label with name \"+3V3\"" (at 0 0 0)
        (effects (font (size 1.27 1.27)) hide)
      )
      (symbol "+3V3_0_1"
        (polyline
          (pts
            (xy -0.762 1.27)
            (xy 0 2.54)
          )
          (stroke (width 0) (type default))
          (fill (type none))
        )
        (polyline
          (pts
            (xy 0 0)
            (xy 0 2.54)
          )
          (stroke (width 0) (type default))
          (fill (type none))
        )
        (polyline
          (pts
            (xy 0 2.54)
            (xy 0.762 1.27)
          )
          (stroke (width 0) (type default))
          (fill (type none))
        )
      )
      (symbol "+3V3_1_1"
        (pin power_in line (at 0 0 90) (length 0) hide
          (name "+3V3" (effects (font (size 1.27 1.27))))
          (number "1" (effects (font (size 1.27 1.27))))
        )
      )
    )
    (symbol "power:GND" (power) (pin_names (offset 0)) (in_bom yes) (on_board yes)
      (property "Reference" "#PWR" (at 0 -6.35 0)
        (effects (font (size 1.27 1.27)) hide)
      )
      (property "Value" "GND" (at 0 -3.81 0)
        (effects (font (size 1.27 1.27)))
      )
      (property "Footprint" "" (at 0 0 0)
        (effects (font (size 1.27 1.27)) hide)
      )
      (property "Datasheet" "" (at 0 0 0)
        (effects (font (size 1.27 1.27)) hide)
      )
      (property "ki_keywords" "global power" (at 0 0 0)
        (effects (font (size 1.27 1.27)) hide)
      )
      (property "ki_description" "Power symbol creates a global label with name \"GND\" , ground" (at 0 0 0)
        (effects (font (size 1.27 1.27)) hide)
      )
      (symbol "GND_0_1"
        (polyline
          (pts
            (xy 0 0)
            (xy 0 -1.27)
            (xy 1.27 -1.27)
            (xy 0 -2.54)
            (xy -1.27 -1.27)
            (xy 0 -1.27)
          )
          (stroke (width 0) (type default))
          (fill (type none))
        )
      )
      (symbol "GND_1_1"
        (pin power_in line (at 0 0 270) (length 0) hide
          (name "GND" (effects (font (size 1.27 1.27))))
          (number "1" (effects (font (size 1.27 1.27))))
        )
      )
    )
  )

  (junction (at 134.62 86.36) (diameter 0) (color 0 0 0 0)
    (uuid 185c4fff-ae61-4178-b903-d5f2ed6bbef0)
  )
  (junction (at 111.76 63.5) (diameter 0) (color 0 0 0 0)
    (uuid 454d52a4-3b86-4916-b10f-901060635fcd)
  )
  (junction (at 134.62 102.87) (diameter 0) (color 0 0 0 0)
    (uuid 67db5fb7-bf8f-45ef-b3cd-17e43e8c3e61)
  )
  (junction (at 134.62 69.85) (diameter 0) (color 0 0 0 0)
    (uuid 9e25c6bb-f14f-40eb-b6f5-1f8ef004e6c0)
  )

  (no_connect (at 99.06 88.9) (uuid 55ff49c4-00df-4547-a6cb-a86f4baf9103))

  (wire (pts (xy 106.68 63.5) (xy 111.76 63.5))
    (stroke (width 0) (type default))
    (uuid 163493c3-0dc2-4766-8fb8-def6d937243a)
  )
  (wire (pts (xy 134.62 86.36) (xy 142.24 86.36))
    (stroke (width 0) (type default))
    (uuid 191fe8f2-2626-488f-bddc-410dbad79a89)
  )
  (wire (pts (xy 83.82 83.82) (xy 99.06 83.82))
    (stroke (width 0) (type default))
    (uuid 31ad34e3-3ca8-4bd4-babd-308da61973a1)
  )
  (wire (pts (xy 134.62 69.85) (xy 142.24 69.85))
    (stroke (width 0) (type default))
    (uuid 32156b75-c8f3-479b-b970-6234f8ddd97d)
  )
  (wire (pts (xy 111.76 60.96) (xy 111.76 63.5))
    (stroke (width 0) (type default))
    (uuid 58da59b7-4a0c-4ce1-aacc-10006356dc93)
  )
  (wire (pts (xy 134.62 92.71) (xy 134.62 102.87))
    (stroke (width 0) (type default))
    (uuid 65278255-da45-4e70-8c2a-b7bdbaf640b5)
  )
  (wire (pts (xy 96.52 93.98) (xy 96.52 91.44))
    (stroke (width 0) (type default))
    (uuid 6707168e-a801-4ff0-aa18-ae2fb927ef96)
  )
  (wire (pts (xy 129.54 102.87) (xy 134.62 102.87))
    (stroke (width 0) (type default))
    (uuid 6ff160ae-8db6-453b-b22c-b0134e425336)
  )
  (wire (pts (xy 129.54 69.85) (xy 134.62 69.85))
    (stroke (width 0) (type default))
    (uuid 75ddd899-9a73-4c7a-ae6c-2dbd27a557d9)
  )
  (wire (pts (xy 142.24 92.71) (xy 142.24 93.98))
    (stroke (width 0) (type default))
    (uuid 7c43a830-b936-4644-a3be-7988f6e9da39)
  )
  (wire (pts (xy 129.54 88.9) (xy 129.54 102.87))
    (stroke (width 0) (type default))
    (uuid 7ca4cdb6-8f02-4e61-a6c1-4001409c1207)
  )
  (wire (pts (xy 106.68 64.77) (xy 106.68 63.5))
    (stroke (width 0) (type default))
    (uuid 825707b6-b258-464a-ae3c-85e3b75e2c80)
  )
  (wire (pts (xy 83.82 81.28) (xy 99.06 81.28))
    (stroke (width 0) (type default))
    (uuid 88728dcb-5c7a-44fd-8926-f55a6754b5ff)
  )
  (wire (pts (xy 124.46 83.82) (xy 129.54 83.82))
    (stroke (width 0) (type default))
    (uuid 8e3b79b0-2f72-4a88-9c38-d1e7dd9b46ba)
  )
  (wire (pts (xy 134.62 85.09) (xy 134.62 86.36))
    (stroke (width 0) (type default))
    (uuid 902fbb16-f47e-49cf-94b9-62ee479321dc)
  )
  (wire (pts (xy 134.62 80.01) (xy 134.62 69.85))
    (stroke (width 0) (type default))
    (uuid b3a37214-11c6-4613-8488-6afbb6967376)
  )
  (wire (pts (xy 96.52 91.44) (xy 99.06 91.44))
    (stroke (width 0) (type default))
    (uuid b4666c1c-3f9c-4fe7-88b6-0d82dabcc025)
  )
  (wire (pts (xy 142.24 87.63) (xy 142.24 86.36))
    (stroke (width 0) (type default))
    (uuid c8bdf2ea-418f-403c-8157-7eaab6261453)
  )
  (wire (pts (xy 111.76 63.5) (xy 111.76 76.2))
    (stroke (width 0) (type default))
    (uuid cb6f0fd7-5d60-4af8-b062-ce59dfa3de26)
  )
  (wire (pts (xy 106.68 69.85) (xy 106.68 71.12))
    (stroke (width 0) (type default))
    (uuid cb7b8f45-b4c1-4163-8ec8-96fb15e51231)
  )
  (wire (pts (xy 134.62 102.87) (xy 142.24 102.87))
    (stroke (width 0) (type default))
    (uuid cf27f8e2-f865-4589-ab32-57d68738778d)
  )
  (wire (pts (xy 134.62 86.36) (xy 134.62 87.63))
    (stroke (width 0) (type default))
    (uuid ea40e57b-2bd7-460f-95f1-6730ec265a48)
  )
  (wire (pts (xy 124.46 88.9) (xy 129.54 88.9))
    (stroke (width 0) (type default))
    (uuid eef9b00e-eed5-4450-ba1a-45d127aab205)
  )
  (wire (pts (xy 129.54 83.82) (xy 129.54 69.85))
    (stroke (width 0) (type default))
    (uuid fc919d2a-f178-465e-bf21-5e03447c6ae4)
  )
  (wire (pts (xy 111.76 96.52) (xy 111.76 99.06))
    (stroke (width 0) (type default))
    (uuid fdb387f7-d066-47d7-a911-aa4ba0bcf294)
  )

  (text "CAN bus operating at 1MHz\n\n1.1MHz corner frequency\n\n  R = 60 || 60 = 30 ohms\n  T = RC = 141 ns\n  f = 1/(2*pi*T) = 1.13 MHz\n"
    (at 151.13 94.615 0)
    (effects (font (size 1.27 1.27)) (justify left bottom))
    (uuid 42047826-449b-4a3f-8b53-b9805e0e0d46)
  )
  (text "Termination resistors must be \nvery well matched to properly \nreject common mode noise"
    (at 128.27 66.675 0)
    (effects (font (size 1.27 1.27)) (justify left bottom))
    (uuid 7b6fad1b-de67-4c81-b19c-784432e5acc3)
  )
  (text "Shutdown and standby disabled\nAlways operating in normal mode"
    (at 91.44 92.71 0)
    (effects (font (size 1.27 1.27)) (justify right bottom))
    (uuid d8421bf3-1ac1-4d8c-9eef-85e78c6b44fe)
  )

  (hierarchical_label "CAN_RX" (shape output) (at 83.82 83.82 180) (fields_autoplaced)
    (effects (font (size 1.27 1.27)) (justify right))
    (uuid 4476c8a7-4af1-4ace-96f1-154916c297a2)
  )
  (hierarchical_label "CAN_TX" (shape input) (at 83.82 81.28 180) (fields_autoplaced)
    (effects (font (size 1.27 1.27)) (justify right))
    (uuid 5fd93da3-ca44-47c0-9aa9-7327a36191c4)
  )
  (hierarchical_label "CAN_H" (shape bidirectional) (at 142.24 69.85 0) (fields_autoplaced)
    (effects (font (size 1.27 1.27)) (justify left))
    (uuid d1b756ba-ca9d-47c7-8071-399d3cc1ba01)
  )
  (hierarchical_label "CAN_L" (shape bidirectional) (at 142.24 102.87 0) (fields_autoplaced)
    (effects (font (size 1.27 1.27)) (justify left))
    (uuid fafafda1-fad9-4662-a360-47c49b679660)
  )

  (symbol (lib_id "Device:R_Small") (at 134.62 82.55 180) (unit 1)
    (in_bom yes) (on_board yes) (dnp no)
    (uuid 00ebf8ce-76f7-4dee-b455-7eda5194ad94)
    (property "Reference" "R16" (at 135.89 81.915 0)
      (effects (font (size 1.27 1.27)) (justify right))
    )
    (property "Value" "60R" (at 135.89 83.82 0)
      (effects (font (size 1.27 1.27)) (justify right))
    )
    (property "Footprint" "Resistor_SMD:R_0805_2012Metric_Pad1.20x1.40mm_HandSolder" (at 134.62 82.55 0)
      (effects (font (size 1.27 1.27)) hide)
    )
    (property "Datasheet" "https://www.mouser.co.uk/datasheet/2/427/dcrcwife3-1761849.pdf" (at 134.62 82.55 0)
      (effects (font (size 1.27 1.27)) hide)
    )
    (property "Optional" "True" (at 134.62 82.55 0)
      (effects (font (size 1.27 1.27)) hide)
    )
    (property "Order Code" "" (at 134.62 82.55 0)
      (effects (font (size 1.27 1.27)) hide)
    )
    (property "Supplier" "Mouser" (at 134.62 82.55 0)
      (effects (font (size 1.27 1.27)) hide)
    )
    (pin "1" (uuid 2c3039d4-97c2-473e-81f7-7a2085f16116))
    (pin "2" (uuid d8e9907f-57fa-4eb8-92da-d698ff07d958))
    (instances
      (project "vcu"
        (path "/d2151cc9-0acc-4d18-a050-63c63ade8261/7285d321-62f2-4f5f-9ad9-4b63044720b5"
          (reference "R16") (unit 1)
        )
        (path "/d2151cc9-0acc-4d18-a050-63c63ade8261/0a463a03-a21c-4ab4-b35a-61b3e0bc2af9"
          (reference "R18") (unit 1)
        )
      )
    )
  )

  (symbol (lib_id "power:GND") (at 96.52 93.98 0) (unit 1)
    (in_bom yes) (on_board yes) (dnp no) (fields_autoplaced)
    (uuid 25a71ec5-5ce6-4a2f-a8b2-0f4ad71e04c3)
    (property "Reference" "#PWR028" (at 96.52 100.33 0)
      (effects (font (size 1.27 1.27)) hide)
    )
    (property "Value" "GND" (at 96.52 99.06 0)
      (effects (font (size 1.27 1.27)))
    )
    (property "Footprint" "" (at 96.52 93.98 0)
      (effects (font (size 1.27 1.27)) hide)
    )
    (property "Datasheet" "" (at 96.52 93.98 0)
      (effects (font (size 1.27 1.27)) hide)
    )
    (pin "1" (uuid ba771fa3-88cf-4b96-ac4f-d1cefdc9a5eb))
    (instances
      (project "vcu"
        (path "/d2151cc9-0acc-4d18-a050-63c63ade8261/7285d321-62f2-4f5f-9ad9-4b63044720b5"
          (reference "#PWR028") (unit 1)
        )
        (path "/d2151cc9-0acc-4d18-a050-63c63ade8261/0a463a03-a21c-4ab4-b35a-61b3e0bc2af9"
          (reference "#PWR033") (unit 1)
        )
      )
    )
  )

  (symbol (lib_id "Interface_UART:MAX3051") (at 111.76 86.36 0) (unit 1)
    (in_bom yes) (on_board yes) (dnp no)
    (uuid 489b5468-9913-401d-b655-368d174fe890)
    (property "Reference" "U2" (at 113.665 73.66 0)
      (effects (font (size 1.27 1.27)) (justify left))
    )
    (property "Value" "MAX3051ESA+" (at 113.665 76.2 0)
      (effects (font (size 1.27 1.27)) (justify left))
    )
    (property "Footprint" "Package_SO:SOIC-8_3.9x4.9mm_P1.27mm" (at 111.76 86.36 0)
      (effects (font (size 1.27 1.27) italic) hide)
    )
    (property "Datasheet" "http://datasheets.maximintegrated.com/en/ds/MAX3051.pdf" (at 111.76 86.36 0)
      (effects (font (size 1.27 1.27)) hide)
    )
    (property "Supplier" "Mouser" (at 111.76 86.36 0)
      (effects (font (size 1.27 1.27)) hide)
    )
    (property "Order Code" "700-MAX3051ESA" (at 111.76 86.36 0)
      (effects (font (size 1.27 1.27)) hide)
    )
    (property "Optional" "False" (at 111.76 86.36 0)
      (effects (font (size 1.27 1.27)) hide)
    )
    (pin "1" (uuid 4baa67d5-09ec-44c2-983e-08a5f2e0bc31))
    (pin "2" (uuid deeb4dd9-fe8d-46e5-bffa-949b59640dc1))
    (pin "3" (uuid 9267a831-53fd-4d98-892d-9fa011075ae0))
    (pin "4" (uuid 54aee0fb-1853-4a03-8c9d-6bedb23c2940))
    (pin "5" (uuid 5d79bfd8-b8e0-407d-b11f-f3bb65707ac4))
    (pin "6" (uuid 1d2961e4-7740-40ec-b325-dde1f0533a01))
    (pin "7" (uuid 63d9882f-30c7-4db0-a88d-a44d16568fd3))
    (pin "8" (uuid 5a16603d-6f50-4fd3-91bc-87bb763fd51c))
    (instances
      (project "vcu"
        (path "/d2151cc9-0acc-4d18-a050-63c63ade8261/7285d321-62f2-4f5f-9ad9-4b63044720b5"
          (reference "U2") (unit 1)
        )
        (path "/d2151cc9-0acc-4d18-a050-63c63ade8261/0a463a03-a21c-4ab4-b35a-61b3e0bc2af9"
          (reference "U3") (unit 1)
        )
      )
    )
  )

  (symbol (lib_id "Device:C_Small") (at 142.24 90.17 0) (unit 1)
    (in_bom yes) (on_board yes) (dnp no) (fields_autoplaced)
    (uuid 5f834ad5-0cbe-4a52-aba6-53968922e1b6)
    (property "Reference" "C3" (at 144.78 88.9062 0)
      (effects (font (size 1.27 1.27)) (justify left))
    )
    (property "Value" "4.7n" (at 144.78 91.4462 0)
      (effects (font (size 1.27 1.27)) (justify left))
    )
    (property "Footprint" "Capacitor_SMD:C_0805_2012Metric_Pad1.18x1.45mm_HandSolder" (at 142.24 90.17 0)
      (effects (font (size 1.27 1.27)) hide)
    )
    (property "Datasheet" "https://www.mouser.co.uk/datasheet/2/212/1/KEM_C1076_X7R_HV_AUTO_SMD-1093301.pdf" (at 142.24 90.17 0)
      (effects (font (size 1.27 1.27)) hide)
    )
    (property "Optional" "True" (at 142.24 90.17 0)
      (effects (font (size 1.27 1.27)) hide)
    )
    (property "Order Code" "80-C0805C472KBRAUTO" (at 142.24 90.17 0)
      (effects (font (size 1.27 1.27)) hide)
    )
    (property "Supplier" "Mouser" (at 142.24 90.17 0)
      (effects (font (size 1.27 1.27)) hide)
    )
    (pin "1" (uuid bee866c5-4d68-4b2c-9138-7d530f3ce72a))
    (pin "2" (uuid 577ff3bb-b450-4958-b31a-27e0f7f705d6))
    (instances
      (project "vcu"
        (path "/d2151cc9-0acc-4d18-a050-63c63ade8261/7285d321-62f2-4f5f-9ad9-4b63044720b5"
          (reference "C3") (unit 1)
        )
        (path "/d2151cc9-0acc-4d18-a050-63c63ade8261/0a463a03-a21c-4ab4-b35a-61b3e0bc2af9"
          (reference "C5") (unit 1)
        )
      )
    )
  )

  (symbol (lib_id "power:GND") (at 111.76 99.06 0) (unit 1)
    (in_bom yes) (on_board yes) (dnp no) (fields_autoplaced)
    (uuid 71a34f22-e2ac-4b87-a5be-97a94c482394)
    (property "Reference" "#PWR031" (at 111.76 105.41 0)
      (effects (font (size 1.27 1.27)) hide)
    )
    (property "Value" "GND" (at 111.76 104.14 0)
      (effects (font (size 1.27 1.27)))
    )
    (property "Footprint" "" (at 111.76 99.06 0)
      (effects (font (size 1.27 1.27)) hide)
    )
    (property "Datasheet" "" (at 111.76 99.06 0)
      (effects (font (size 1.27 1.27)) hide)
    )
    (pin "1" (uuid 07a26abb-1708-4984-9d49-5fd67cfe6670))
    (instances
      (project "vcu"
        (path "/d2151cc9-0acc-4d18-a050-63c63ade8261/7285d321-62f2-4f5f-9ad9-4b63044720b5"
          (reference "#PWR031") (unit 1)
        )
        (path "/d2151cc9-0acc-4d18-a050-63c63ade8261/0a463a03-a21c-4ab4-b35a-61b3e0bc2af9"
          (reference "#PWR036") (unit 1)
        )
      )
    )
  )

  (symbol (lib_id "power:GND") (at 142.24 93.98 0) (unit 1)
    (in_bom yes) (on_board yes) (dnp no)
    (uuid 85fc5534-daf2-49fc-8d8d-c5a8c75a7a22)
    (property "Reference" "#PWR032" (at 142.24 100.33 0)
      (effects (font (size 1.27 1.27)) hide)
    )
    (property "Value" "GND" (at 142.24 97.79 0)
      (effects (font (size 1.27 1.27)))
    )
    (property "Footprint" "" (at 142.24 93.98 0)
      (effects (font (size 1.27 1.27)) hide)
    )
    (property "Datasheet" "" (at 142.24 93.98 0)
      (effects (font (size 1.27 1.27)) hide)
    )
    (pin "1" (uuid 2c2a8f3b-3dae-4fb1-ba7e-1309b975063d))
    (instances
      (project "vcu"
        (path "/d2151cc9-0acc-4d18-a050-63c63ade8261/7285d321-62f2-4f5f-9ad9-4b63044720b5"
          (reference "#PWR032") (unit 1)
        )
        (path "/d2151cc9-0acc-4d18-a050-63c63ade8261/0a463a03-a21c-4ab4-b35a-61b3e0bc2af9"
          (reference "#PWR037") (unit 1)
        )
      )
    )
  )

  (symbol (lib_id "Device:C_Small") (at 106.68 67.31 0) (mirror x) (unit 1)
    (in_bom yes) (on_board yes) (dnp no) (fields_autoplaced)
    (uuid 8c1997c4-3bcf-43a2-9a66-64fda2670810)
    (property "Reference" "C2" (at 104.14 66.0335 0)
      (effects (font (size 1.27 1.27)) (justify right))
    )
    (property "Value" "100n" (at 104.14 68.5735 0)
      (effects (font (size 1.27 1.27)) (justify right))
    )
    (property "Footprint" "Capacitor_SMD:C_0805_2012Metric_Pad1.18x1.45mm_HandSolder" (at 106.68 67.31 0)
      (effects (font (size 1.27 1.27)) hide)
    )
    (property "Datasheet" "https://www.mouser.co.uk/datasheet/2/212/KEM_C1002_X7R_SMD-1102033.pdf" (at 106.68 67.31 0)
      (effects (font (size 1.27 1.27)) hide)
    )
    (property "Optional" "False" (at 106.68 67.31 0)
      (effects (font (size 1.27 1.27)) hide)
    )
    (property "Order Code" "80-C0805C104K5RACLR" (at 106.68 67.31 0)
      (effects (font (size 1.27 1.27)) hide)
    )
    (property "Supplier" "Mouser" (at 106.68 67.31 0)
      (effects (font (size 1.27 1.27)) hide)
    )
    (pin "1" (uuid a85cf297-c285-43f3-8b19-e8cd4b8bbf5c))
    (pin "2" (uuid 5f933f72-470a-4766-8ea1-a30a9a9a65e2))
    (instances
      (project "vcu"
        (path "/d2151cc9-0acc-4d18-a050-63c63ade8261/7285d321-62f2-4f5f-9ad9-4b63044720b5"
          (reference "C2") (unit 1)
        )
        (path "/d2151cc9-0acc-4d18-a050-63c63ade8261/0a463a03-a21c-4ab4-b35a-61b3e0bc2af9"
          (reference "C4") (unit 1)
        )
      )
    )
  )

  (symbol (lib_id "Device:R_Small") (at 134.62 90.17 180) (unit 1)
    (in_bom yes) (on_board yes) (dnp no)
    (uuid a1b87751-d7d7-4616-8149-db39211e1a87)
    (property "Reference" "R17" (at 135.89 89.535 0)
      (effects (font (size 1.27 1.27)) (justify right))
    )
    (property "Value" "60R" (at 135.89 91.44 0)
      (effects (font (size 1.27 1.27)) (justify right))
    )
    (property "Footprint" "Resistor_SMD:R_0805_2012Metric_Pad1.20x1.40mm_HandSolder" (at 134.62 90.17 0)
      (effects (font (size 1.27 1.27)) hide)
    )
    (property "Datasheet" "https://www.mouser.co.uk/datasheet/2/427/dcrcwife3-1761849.pdf" (at 134.62 90.17 0)
      (effects (font (size 1.27 1.27)) hide)
    )
    (property "Optional" "True" (at 134.62 90.17 0)
      (effects (font (size 1.27 1.27)) hide)
    )
    (property "Order Code" "" (at 134.62 90.17 0)
      (effects (font (size 1.27 1.27)) hide)
    )
    (property "Supplier" "Mouser" (at 134.62 90.17 0)
      (effects (font (size 1.27 1.27)) hide)
    )
    (pin "1" (uuid 4ec1dda6-b86b-4493-9665-dd930afe3590))
    (pin "2" (uuid 106381c3-e6dd-43f9-82bc-511cec7e7384))
    (instances
      (project "vcu"
        (path "/d2151cc9-0acc-4d18-a050-63c63ade8261/7285d321-62f2-4f5f-9ad9-4b63044720b5"
          (reference "R17") (unit 1)
        )
        (path "/d2151cc9-0acc-4d18-a050-63c63ade8261/0a463a03-a21c-4ab4-b35a-61b3e0bc2af9"
          (reference "R19") (unit 1)
        )
      )
    )
  )

  (symbol (lib_id "power:+3V3") (at 111.76 60.96 0) (unit 1)
    (in_bom yes) (on_board yes) (dnp no)
    (uuid e4559271-5a8e-4b84-8ad8-924e6c7ea753)
    (property "Reference" "#PWR030" (at 111.76 64.77 0)
      (effects (font (size 1.27 1.27)) hide)
    )
    (property "Value" "+3V3" (at 111.76 57.15 0)
      (effects (font (size 1.27 1.27)))
    )
    (property "Footprint" "" (at 111.76 60.96 0)
      (effects (font (size 1.27 1.27)) hide)
    )
    (property "Datasheet" "" (at 111.76 60.96 0)
      (effects (font (size 1.27 1.27)) hide)
    )
    (pin "1" (uuid cf53c060-548c-40a2-9356-796e495c0ee1))
    (instances
      (project "vcu"
        (path "/d2151cc9-0acc-4d18-a050-63c63ade8261/7285d321-62f2-4f5f-9ad9-4b63044720b5"
          (reference "#PWR030") (unit 1)
        )
        (path "/d2151cc9-0acc-4d18-a050-63c63ade8261/0a463a03-a21c-4ab4-b35a-61b3e0bc2af9"
          (reference "#PWR035") (unit 1)
        )
      )
    )
  )

  (symbol (lib_id "power:GND") (at 106.68 71.12 0) (mirror y) (unit 1)
    (in_bom yes) (on_board yes) (dnp no)
    (uuid e9834bcf-8cf5-4021-9b7b-e651def6d57b)
    (property "Reference" "#PWR029" (at 106.68 77.47 0)
      (effects (font (size 1.27 1.27)) hide)
    )
    (property "Value" "GND" (at 106.68 75.565 0)
      (effects (font (size 1.27 1.27)))
    )
    (property "Footprint" "" (at 106.68 71.12 0)
      (effects (font (size 1.27 1.27)) hide)
    )
    (property "Datasheet" "" (at 106.68 71.12 0)
      (effects (font (size 1.27 1.27)) hide)
    )
    (pin "1" (uuid 5287544b-9682-4100-9a8b-4b9657f10e58))
    (instances
      (project "vcu"
        (path "/d2151cc9-0acc-4d18-a050-63c63ade8261/7285d321-62f2-4f5f-9ad9-4b63044720b5"
          (reference "#PWR029") (unit 1)
        )
        (path "/d2151cc9-0acc-4d18-a050-63c63ade8261/0a463a03-a21c-4ab4-b35a-61b3e0bc2af9"
          (reference "#PWR034") (unit 1)
        )
      )
    )
  )
)
