{
  "board": {
    "3dviewports": [],
    "design_settings": {
      "defaults": {
        "board_outline_line_width": 0.09999999999999999,
        "copper_line_width": 0.19999999999999998,
        "copper_text_italic": false,
        "copper_text_size_h": 1.5,
        "copper_text_size_v": 1.5,
        "copper_text_thickness": 0.3,
        "copper_text_upright": false,
        "courtyard_line_width": 0.049999999999999996,
        "dimension_precision": 4,
        "dimension_units": 3,
        "dimensions": {
          "arrow_length": 1270000,
          "extension_offset": 500000,
          "keep_text_aligned": true,
          "suppress_zeroes": false,
          "text_position": 0,
          "units_format": 1
        },
        "fab_line_width": 0.09999999999999999,
        "fab_text_italic": false,
        "fab_text_size_h": 1.0,
        "fab_text_size_v": 1.0,
        "fab_text_thickness": 0.15,
        "fab_text_upright": false,
        "other_line_width": 0.15,
        "other_text_italic": false,
        "other_text_size_h": 1.0,
        "other_text_size_v": 1.0,
        "other_text_thickness": 0.15,
        "other_text_upright": false,
        "pads": {
          "drill": 2.2,
          "height": 3.5,
          "width": 3.5
        },
        "silk_line_width": 0.15,
        "silk_text_italic": false,
        "silk_text_size_h": 1.0,
        "silk_text_size_v": 1.0,
        "silk_text_thickness": 0.15,
        "silk_text_upright": false,
        "zones": {
          "min_clearance": 0.5
        }
      },
      "diff_pair_dimensions": [
        {
          "gap": 0.0,
          "via_gap": 0.0,
          "width": 0.0
        }
      ],
      "drc_exclusions": [
        "copper_sliver|329962262|103380875|00000000-0000-0000-0000-000000000000|B.Cu",
        "hole_clearance|102010000|103140000|f6e9e75e-3e89-4eaf-a779-8a7101912f50|4261ce5b-7aad-40e1-a68a-925f693fa9f7",
        "hole_clearance|109253639|138767462|2117314e-f1f4-41b0-9b80-905867db0b4e|1d0fa4c4-3e77-4669-a78e-d63039ace0c7",
        "hole_clearance|115757278|120904924|eb3b72d4-e379-4b7b-94f6-ed793d5fcf9d|a1bedb91-9181-4768-80f4-7678bb7a1e2b",
        "hole_clearance|122263639|103047462|39ec10c2-3a6b-46c8-9a4e-76fe667ebfcd|bef59abc-9448-41b6-8e27-2b9a91789878",
        "hole_clearance|128140000|142440000|198a0e47-51d4-4ba7-a2e7-70518a0b3285|742e1ac4-82c6-4a44-b6ca-d4d5361eca9d",
        "hole_clearance|134637278|124594924|a4f00346-a343-444b-87a3-0f5052ddaeb7|e99a0bdb-de50-4652-b08a-4d924a582aee",
        "hole_clearance|138158708|175556232|f79145eb-0a57-4677-9a7d-0492e57c67fd|589ea7a4-7a17-45e3-8bb5-118c26caedc2",
        "hole_clearance|141140000|106740000|ace864ab-ac6d-445d-b17d-1402572b9f20|a01eeb10-fb3d-4af2-b70a-4118dba00668",
        "hole_clearance|144970000|151760000|2d30543e-80a9-4946-88f2-a542fa8674ed|6c73ea76-9d5e-485c-9b4d-29faeb503b45",
        "hole_clearance|151470000|133904924|71b9ab49-0089-4fed-8bbd-4c7a44fa9940|54cbf4b3-886d-4efb-8907-68a6828ce2d9",
        "hole_clearance|157970000|116060000|b4abb74c-4fa1-4cd1-8ff4-cf554298b517|a1b7a39c-060c-4372-b1e8-9c70b0bf62b6",
        "hole_clearance|159064639|186508494|6277050e-36b4-45df-8776-3e51be0dc2d9|9654f68b-540a-4781-8717-d1f3f750c2d0",
        "hole_clearance|161810000|161080000|58655d60-89a0-4fd5-acfb-d666228f50ba|c4e7b515-9628-4f68-95e0-25c5949e1bb5",
        "hole_clearance|168290000|143230000|a239b352-84ad-43f4-ae8e-ad67035efdf5|a5cbb632-c9b7-4ed9-acee-0e0617094cd7",
        "hole_clearance|174790000|125370000|3169be2c-aecf-4442-8761-4aa85a06c364|13d957b6-8f53-4f56-af9e-0840d325c5ff",
        "hole_clearance|254404639|194291506|167704b1-e57e-43f7-b3e5-016a7df3b3d9|e37baeed-42e3-451d-9b64-085284bb2d88",
        "hole_clearance|254744679|121898815|000ad56c-4c5c-4314-9e2c-4fe5eff696ea|70808f0d-2794-488a-91cc-6dc19e394206",
        "hole_clearance|261260000|139750000|899d99f3-1ca2-427d-898d-917718eabdbe|ceb1f3e9-91dd-46e8-a875-370dbea4e81c",
        "hole_clearance|267750000|157610000|636000f9-50f4-4075-8ebe-69c319d3221b|72454fd0-57fa-43b6-90ac-a62c359ca550",
        "hole_clearance|271583639|112572538|0d8965e8-9e8c-4be8-ae00-ae634e5574a3|8c816be4-2226-4ee3-b795-ff5d8b32a821",
        "hole_clearance|273518708|181383768|dd9118b1-1f51-497a-bfe0-1d39b9f778d8|43297499-1e6e-482a-9bac-5f30aab0dbb6",
        "hole_clearance|278080000|130430000|d16ccc07-044c-43a5-8f63-572907b0a82f|de6b78a2-2086-4e52-879a-5e67b7e1232a",
        "hole_clearance|284577278|148295076|6df2513a-b60f-4018-b16a-6716d6dab733|cb76c3fe-72e1-45ba-92b6-26c33f54490c",
        "hole_clearance|288407278|103245076|2673a5c0-5c58-420b-90b8-177708279d57|50536e11-8b68-47e7-80b4-b422a78d2aa5",
        "hole_clearance|294897278|121115076|6254afd9-6ce0-425d-b5ee-8f3996f94c14|330b8278-c06b-417c-a177-12a6baf57973",
        "hole_clearance|301397278|138965076|56c3944f-2b1e-4657-95d0-c2a7e3ba189c|ab6f1c52-53e6-49d6-ab4e-2ca32e76df2f",
        "hole_clearance|307287278|99575076|3ed5492c-b712-45ff-b5ff-0772a986c25c|31116f21-74f8-49b6-8ef1-8d05c1ac0963",
        "hole_clearance|313787278|117425076|1aa293e7-0e58-4c64-87d8-2bdb1ac9bcc4|6e02015e-71a5-43fe-983a-004feac5ce5f",
        "hole_clearance|320273639|135282538|47421e98-8ae7-435a-8935-f8b08b791e95|eef08e41-bbfa-407d-8acb-2b99b830b394",
        "hole_clearance|327537278|99655076|d8f8c2a5-1cbe-4508-976e-363b35987e09|bd86d21a-03db-414f-aa30-bbfaee2e4c2b",
        "hole_clearance|334027278|117515076|5dc0de32-d06a-4a7e-8056-80a1a65e6928|efc8aaa9-a417-47f0-962d-ed78e5749080",
        "hole_clearance|340537278|135365076|e2b28f98-bdf0-4de4-8cfd-6e8801f752e4|a1486118-bcd7-4e1e-b3f2-6ecd629b58b3",
        "hole_clearance|89020000|138850000|5efab458-9d9b-4c74-aa2a-47b6c0230693|e2c6f69a-0e9d-471b-a812-595590378a90",
        "hole_clearance|95510000|120990000|dd2131a7-83b0-42ec-a621-ac53c0445915|445248b9-59a0-42a5-a05b-5b1c9ca295ee",
        "isolated_copper|190826951|153026539|f3cbaf06-fe01-4dee-99b2-6df127f3a44b|00000000-0000-0000-0000-000000000000",
        "isolated_copper|193367257|153026975|f3cbaf06-fe01-4dee-99b2-6df127f3a44b|00000000-0000-0000-0000-000000000000",
        "isolated_copper|195907257|153026975|f3cbaf06-fe01-4dee-99b2-6df127f3a44b|00000000-0000-0000-0000-000000000000",
        "isolated_copper|198447257|153026975|f3cbaf06-fe01-4dee-99b2-6df127f3a44b|00000000-0000-0000-0000-000000000000",
        "isolated_copper|200987257|153026975|f3cbaf06-fe01-4dee-99b2-6df127f3a44b|00000000-0000-0000-0000-000000000000",
        "isolated_copper|203527257|153026975|f3cbaf06-fe01-4dee-99b2-6df127f3a44b|00000000-0000-0000-0000-000000000000",
        "isolated_copper|206067257|153026975|f3cbaf06-fe01-4dee-99b2-6df127f3a44b|00000000-0000-0000-0000-000000000000",
        "isolated_copper|208607257|153026975|f3cbaf06-fe01-4dee-99b2-6df127f3a44b|00000000-0000-0000-0000-000000000000",
        "isolated_copper|211685508|151077719|f3cbaf06-fe01-4dee-99b2-6df127f3a44b|00000000-0000-0000-0000-000000000000",
        "isolated_copper|211747500|153022113|f3cbaf06-fe01-4dee-99b2-6df127f3a44b|00000000-0000-0000-0000-000000000000",
        "isolated_copper|214841533|151077577|f3cbaf06-fe01-4dee-99b2-6df127f3a44b|00000000-0000-0000-0000-000000000000",
        "isolated_copper|233605424|153712377|f3cbaf06-fe01-4dee-99b2-6df127f3a44b|00000000-0000-0000-0000-000000000000",
        "isolated_copper|236383114|155910667|f3cbaf06-fe01-4dee-99b2-6df127f3a44b|00000000-0000-0000-0000-000000000000",
        "silk_edge_clearance|132869076|179588846|f685db54-fc91-45d4-93d8-f68dc9515ae9|e0029d1c-9e42-4e9d-a6da-3dc760408544",
        "silk_edge_clearance|133859314|181213263|9eebb01a-231f-4151-adbc-7264dbe35141|0597d0d9-0cbd-444b-ba03-d3846fe386e9",
        "silk_edge_clearance|144943221|102196821|32151baf-0ac2-46e8-8bbd-361eeac16e83|41ffa403-1ecd-4e18-9f76-a0da68b44695",
        "silk_edge_clearance|144994763|100587357|5af1328f-2023-4665-abc7-1643819b6101|9ae4f4d2-7fc2-4642-b96b-1d63f2b3d22b",
        "silk_edge_clearance|160483784|109419280|03ad632a-94d7-4184-bbc1-08e419108b67|72c8c8a1-6a22-4c25-800c-bb690a5e3822",
        "silk_edge_clearance|162082172|110667985|3527b072-9005-42a9-b1a1-b04e1be615d2|2f8cc10e-9632-427a-ba82-17da615fdec3",
        "silk_edge_clearance|175891655|118215307|36fcd503-e771-40ab-800c-e2ee4a415818|9450b35a-6d9e-48ae-98a0-dc2e668b8665",
        "silk_edge_clearance|178679962|120588501|04cff404-f5f3-4649-9138-f62b10d35b68|cb5368cd-b798-4645-9869-6f46c4b4ccbf",
        "silk_edge_clearance|227291343|121625926|b210c721-ea21-4914-b355-12b5f89d698d|92298888-c2a8-44b5-a05e-0d04e5d3b65a",
        "silk_edge_clearance|227388813|121569652|b210c721-ea21-4914-b355-12b5f89d698d|2648863a-1492-4b78-a521-e8332c6d6f26",
        "silk_edge_clearance|241214674|120337372|84b143b1-c3fd-4936-8f38-89cbd6a44020|33b5d2d6-9827-441b-9ca7-08870dbbd8b8",
        "silk_edge_clearance|244126501|118207852|f3921011-1039-40c4-89c9-765e35367538|b9de7c51-6bf3-40ab-993a-70c047fffed1",
        "silk_edge_clearance|257930361|110672403|0833fa28-9b01-45c0-a06e-b3bc7bd35c80|572069fc-6ab5-4791-b6fb-23e6cd064715",
        "silk_edge_clearance|259610175|109374859|7c42030f-56fd-4292-8674-b567c474fa04|34d8458d-0f83-4bb3-a2fd-605106a3d7b5",
        "silk_edge_clearance|275065010|102199435|f390833f-f728-4912-9eb9-4951a8603c41|377af858-c280-45fc-8370-1f8552cc1a25",
        "silk_edge_clearance|275104973|100531056|5678f6f4-70d1-4c33-9890-da8eac1202a1|af86e745-0cbd-4f7b-84ef-68f97a9b2feb",
        "silk_edge_clearance|286153420|181204347|d3bad7fd-790c-48b2-a39c-1e554bae2d6a|b3788936-6a9f-49c4-9ac3-68e0ceb7ef33",
        "silk_edge_clearance|286861670|179204311|d3bad7fd-790c-48b2-a39c-1e554bae2d6a|cf0b9634-63aa-4fcb-a3af-6a9ca6195a21",
        "silk_edge_clearance|306757114|92212377|cbc4acd6-02da-4a69-ae3d-4d23a8839bfd|7fda3a02-533b-48f6-aed7-aa13be36997e",
        "silk_edge_clearance|306757114|92212377|cbc4acd6-02da-4a69-ae3d-4d23a8839bfd|d0b4208c-846b-40eb-8f3f-85d783141501",
        "silk_edge_clearance|325906261|92693055|9965c1c3-6918-4350-bc72-285e7ba383bd|6d785fb6-26f8-4171-87f9-4803ef37529b",
        "silk_edge_clearance|92671621|93185044|7be99b27-caec-4e03-838f-1a68b2f0c657|8ea59fed-5905-4f93-b346-6c2209b31485",
        "silk_edge_clearance|94153652|92724861|7be99b27-caec-4e03-838f-1a68b2f0c657|10497824-861b-4a3a-a495-99700d701957",
        "silk_overlap|103639025|101516960|0c4c18f3-47be-4716-86c9-167afd7c3656|1c37cee9-bfb6-4d3c-9dcc-654723249e89",
        "silk_overlap|236458822|157280652|2b8a7116-e172-4200-a26c-b43aa2d00126|877875ee-3fa2-4544-9b6b-ec682b3b1601",
        "silk_overlap|244572397|129691157|bb224922-3219-4d3c-b5f7-9a0c14b4caad|33b5d2d6-9827-441b-9ca7-08870dbbd8b8",
        "silk_overlap|245154009|131374186|62932fbb-137c-4fda-b461-731c0497deef|33b5d2d6-9827-441b-9ca7-08870dbbd8b8",
        "silk_overlap|247838259|138782189|f6ffb8f4-feee-4dc9-ab99-36b446c44767|c84dfe31-1956-48ba-ac44-eea532815760",
        "silk_overlap|273338236|184151143|c5318468-fb80-4d21-8799-27f55d4d1dd2|b0b30672-b50e-42b1-a4ff-6a448062b220",
        "silk_overlap|339614792|133185140|a828c53e-e27c-4ccc-96c8-6ba5d81448d8|d51234ab-e53a-4547-8a43-2f56f9726192",
        "solder_mask_bridge|102555506|106041560|6c05a5a6-6d0a-4fba-b59d-d0203273c745|a21eadce-0ee2-41ad-9f69-809278f311ac",
        "solder_mask_bridge|104330557|105623448|cb5864bb-0332-484d-81a9-ca890c3e3727|a21eadce-0ee2-41ad-9f69-809278f311ac",
        "solder_mask_bridge|105061697|121353897|40dc49b5-0327-4168-a98e-ab84a9e22644|350ba69b-ac29-48e0-a99e-cc2a93467ea3",
        "solder_mask_bridge|111568058|103496435|334096ea-fccb-4942-a6b1-6a3f1afbdc06|8c544671-b6de-48d3-83fd-4779de4704fb",
        "solder_mask_bridge|111574196|141250910|5abbe191-4727-4212-9193-d72620865f5a|1daa1d16-5f08-4061-9621-340f0727dc7d",
        "solder_mask_bridge|117444419|142888973|3dc58069-b046-48c9-9891-d1b9fd694539|27070840-0774-49a2-9c16-8a815eecc277",
        "solder_mask_bridge|118077835|123388372|9b05340e-4815-4a5f-aaa9-b4f4ed71d2e2|7ee8d818-b09b-4f4a-a918-95e4f9ee9c8c",
        "solder_mask_bridge|122809145|105949022|2bd5c879-38db-418c-a8f8-23623b1df12d|3e3cd6dc-dc5c-4951-8a3e-5a37eaee3ae8",
        "solder_mask_bridge|123941697|125043897|36695693-5fa4-498d-8ec5-0af9f5746540|c43fad95-04d3-4686-bfe5-43ec5c5a7db3",
        "solder_mask_bridge|124584196|105530910|73c6a0d1-5de1-4a06-a2bb-fa72250f1175|3e3cd6dc-dc5c-4951-8a3e-5a37eaee3ae8",
        "solder_mask_bridge|130444419|107188973|6511f48c-650f-42ac-9648-0dc79aa08c73|6f443142-5175-400c-a517-a529fd837a07",
        "solder_mask_bridge|130460557|144923448|1b7cdc9c-79eb-4d9e-9498-25caf777a0b1|298c8bdf-0d8b-4fcc-ae38-dd6ee2283204",
        "solder_mask_bridge|134274419|152208973|e8338595-0d0e-458e-bfc3-8b8b87dc2cf0|d200dcb5-f755-400f-af1d-102e6427ceec",
        "solder_mask_bridge|136559985|172556801|eba583c8-c924-4f05-bb6c-ebd474c5c9e1|4733e061-64fb-48d7-8d44-b967eafe997b",
        "solder_mask_bridge|136957835|127078372|7612152d-c121-4a1d-a6b1-2041bf11ed11|5c13b714-8da5-45dc-8960-a3156f89d949",
        "solder_mask_bridge|140774419|134353897|4f50940f-6f30-4d60-8251-c4dcf79fe474|420ac0ba-1ee4-4081-b207-1aa67ef8fbd1",
        "solder_mask_bridge|141685506|109641560|028be342-33dd-49b6-bbb4-8dc529d8bd0e|9c09ceb5-39e3-4b1d-863e-b4b915ca8267",
        "solder_mask_bridge|143460557|109223448|cec16b4d-84aa-433d-8f25-ad78d94f59c3|9c09ceb5-39e3-4b1d-863e-b4b915ca8267",
        "solder_mask_bridge|147274419|116508973|f16060c1-e6ff-4edc-b836-0c23be4dfd07|b48e7602-0914-44b1-b7b7-a59630976807",
        "solder_mask_bridge|147290557|154243448|e713eb06-9424-4c68-92a3-2f44d5515507|02c2e3f5-78b4-426d-a91a-eecf9bfef855",
        "solder_mask_bridge|148606048|177890777|080eebad-059b-44e1-ad25-f5fa61a7766c|944a47ce-dec3-4f79-8ff2-26e78e0fd916",
        "solder_mask_bridge|151114419|161528973|959e7dfa-44fb-4979-a759-d2e5002f597c|d09fc132-ccb0-4639-af25-c336c680d2c7",
        "solder_mask_bridge|153790557|136388372|955b9895-d643-40fa-a11e-cb171eef4ed7|a97b4805-4a09-4134-90b8-d42d8b235b0a",
        "solder_mask_bridge|157594419|143678973|f4671cf6-b0b6-4bb5-86bc-eb7a02e3914a|6c9fcffe-91fd-4433-8f2c-153af3098466",
        "solder_mask_bridge|158296701|183197487|2b761d28-ff1f-4293-8961-6415fa5c5e7f|bf816811-d43f-4926-b7b1-ffa621c7c7ed",
        "solder_mask_bridge|158515506|118961560|717a9724-50a7-402e-8be4-c5a08d336b28|dd14b059-35a6-4e9f-9754-80280e0bf225",
        "solder_mask_bridge|160290557|118543448|bc49351f-5939-4678-ab96-d247edbc2e27|dd14b059-35a6-4e9f-9754-80280e0bf225",
        "solder_mask_bridge|164094419|125818973|fad57f7b-f070-4fc2-9424-88e9ea6a04ab|78db297d-f33e-47c1-b8b0-8e2aacd64636",
        "solder_mask_bridge|164130557|163563448|8c601a10-d1cd-4813-904f-7650e41f31b5|18df688a-9431-462d-890d-6964bc2e2624",
        "solder_mask_bridge|168551769|191467463|07b06012-d311-48b9-9da3-d9980b4dcaf4|a3501495-2c48-4b8f-a2f1-58e35b0ed460",
        "solder_mask_bridge|170610557|145713448|e86ad035-b449-495a-a857-9b91aa900296|ae59ee0f-9fc2-4e64-8cfa-c1b9aa5716f0",
        "solder_mask_bridge|175335506|128271560|3f439e83-d836-4319-95a5-eda847745f79|d5d207f2-087f-4b34-a94b-288d417dbc30",
        "solder_mask_bridge|177110557|127853448|af541a3c-3d12-4250-bc14-e7cb6ae71985|d5d207f2-087f-4b34-a94b-288d417dbc30",
        "solder_mask_bridge|246839983|129117734|69ad37e9-d07c-4ce2-9b71-33c24958a476|d2d1e177-8f09-4319-ba0d-addd4be6628b",
        "solder_mask_bridge|251277284|195622727|516e976f-2815-4d82-b296-65ca651239e7|8e311e6e-b925-488c-9a7b-9d8b51d50c61",
        "solder_mask_bridge|253355304|146968919|040102c1-85f2-436d-a561-03580cdde5b0|20f11072-5946-4ec1-91af-48a4dd8f4f97",
        "solder_mask_bridge|257027647|123770894|05787fd0-430d-4a40-a136-6f4e84e0b859|8b2ae1a8-07ed-4799-8294-cce01eb344b2",
        "solder_mask_bridge|257640846|184087390|b10991e0-fe46-4f42-9996-e85061f69635|5c7f2005-c27f-478d-b45f-6c3efcfa7f54",
        "solder_mask_bridge|258118658|122309621|4e6d5070-6a5b-4e01-93e9-c240775861c2|8b2ae1a8-07ed-4799-8294-cce01eb344b2",
        "solder_mask_bridge|258198056|181878860|2f4d1e7f-4409-4ed6-b109-9ded971501b9|5c7f2005-c27f-478d-b45f-6c3efcfa7f54",
        "solder_mask_bridge|259845304|164828919|4d5dee4e-30c6-4353-bea0-9165e1388b69|4c23e6b0-91f5-4ec6-916e-a9102fa47696",
        "solder_mask_bridge|263678943|119791457|936d903e-d17b-42c4-b2fe-0da172078941|69ac6cd6-0527-4526-b2e5-de9b7649d7e6",
        "solder_mask_bridge|264633979|140160806|4239d842-07db-4763-82b0-729df324d437|fd39d950-3f01-404a-9725-d03e52f07bff",
        "solder_mask_bridge|270153370|181860211|6a65f3db-86e7-4afc-a2bd-0002c8e74927|2b5fc92b-1b40-4205-a714-6efe65fe15e6",
        "solder_mask_bridge|270175304|137648919|c6779eb8-1bae-4576-b64a-9b4a0586050a|e9f6c400-7590-44a2-ab12-dd269c5ce37b",
        "solder_mask_bridge|271123979|158020806|7c69bcd9-a0e8-4c8a-8bc8-e7c0b70ded0c|a653a2b0-8db7-448a-a7ce-763335715207",
        "solder_mask_bridge|273866607|114444617|cace6fd2-82de-447a-8748-1ba54f47723e|2f4022da-3914-477b-88ea-45ba29d24a64",
        "solder_mask_bridge|274957618|112983344|bd903cb6-e573-4df5-8eb4-bec8950601c4|2f4022da-3914-477b-88ea-45ba29d24a64",
        "solder_mask_bridge|276672582|155513995|0cab12df-735a-408c-a0f1-efd6c39184e2|71b04c1e-63a5-4dc0-b144-eb2f1c282fa0",
        "solder_mask_bridge|280502582|110463995|a7c0881d-3a4b-49f7-aa5f-900fc43bfcb5|23879d1a-c4ef-4691-9b12-c73622e67be2",
        "solder_mask_bridge|280946904|171201729|ebe044b8-dd1f-487d-ad89-46c741755fd0|0a13a98e-27e3-4927-869b-e51d6f2f56c8",
        "solder_mask_bridge|281453979|130840806|4cbe771c-7537-46a2-bd2f-2d5c2bf5cd77|647f3a21-7073-4e2a-bff7-7a5d467a3917",
        "solder_mask_bridge|286992582|128333995|e0f70517-49e2-47f9-8b2e-8a16a4eb213d|3867b221-85f8-44cc-9bd3-6f1573adeb6d",
        "solder_mask_bridge|287951257|148705882|5dc07c36-cc8c-4086-92ff-803a69b9b381|8a310b02-04c6-44d8-b4f9-4a4f32d2cfe4",
        "solder_mask_bridge|290690246|105117155|f97b5695-584a-4702-b384-8a8f00235861|030075e8-47d6-4548-86b0-caa86894115e",
        "solder_mask_bridge|291781257|103655882|aa95940f-4f88-41b2-96cc-4125d31367af|030075e8-47d6-4548-86b0-caa86894115e",
        "solder_mask_bridge|293492582|146183995|6daf6807-c6a7-4205-a8df-22725da9c25c|a80195bd-a0d7-4790-a5b0-2f3957795e6d",
        "solder_mask_bridge|298271257|121525882|a742edc6-ee36-437f-bfb0-2d953fbd1712|def9362f-ef45-4cc0-872d-77490799319e",
        "solder_mask_bridge|299382582|106793995|877c938a-54ab-4650-9963-85eba8129687|831b04aa-4bbb-46a2-a448-4f7cbc7e04a9",
        "solder_mask_bridge|304771257|139375882|da1e426d-f3b1-4f93-9733-952c109ec4f8|98a95bb7-8cd8-41ef-a17d-c0a80ef685dc",
        "solder_mask_bridge|305882582|124643995|2760a204-2966-4405-b235-6bf96c60dfc7|055182bb-c0bd-4805-ae9b-1c6ceae33654",
        "solder_mask_bridge|309570246|101447155|2cb731f1-ed10-4544-bef4-3f0c7e0ffff9|06ef391e-74c1-44db-8310-f22b1ec0b573",
        "solder_mask_bridge|310661257|99985882|242e7535-b55b-4315-a479-b3fe4ef812b5|06ef391e-74c1-44db-8310-f22b1ec0b573",
        "solder_mask_bridge|312368943|142501457|1b80ed9c-c714-4219-9b3d-11c1cd919295|6edb2c51-5543-4e0b-beac-9582e4f9d06f",
        "solder_mask_bridge|317161257|117835882|863e982d-a486-49f9-82ca-43d8a483329c|441e0e54-2564-497e-9f32-5f7f1506acb0",
        "solder_mask_bridge|319632582|106873995|56c87f3f-7963-4044-9393-4c30bbb9c36d|dedf1e60-97ed-4a1e-acb8-d15d5b172f50",
        "solder_mask_bridge|323647618|135693344|809aebd3-e01d-493a-ba1a-332d2dd6f32e|040a3123-b0de-47a8-819e-b919942715c2",
        "solder_mask_bridge|326122582|124733995|8c0ad271-836c-4d9a-a5d4-ffc4c62e60d4|29a2cc42-8b33-4d18-aacd-ecdf3b8f55e5",
        "solder_mask_bridge|330911257|100065882|61b1f550-1e4e-4439-aec3-8ead512bf2bc|a785ada6-eb82-43ba-a53a-9758996b6e7b",
        "solder_mask_bridge|332632582|142583995|37366e26-285b-4da1-acd9-b0269a39ef7e|39e8c12a-5f34-4bb8-8003-94ec1522881d",
        "solder_mask_bridge|337401257|117925882|d8928af3-48b3-49f2-acfb-201b916db6d3|7379ef35-8107-40f0-add3-72c653baef82",
        "solder_mask_bridge|343911257|135775882|1ee8c4eb-aa58-4cdc-9436-ce5407e00db5|1f02f704-62c9-4205-8c32-a3ff21c53acf",
        "solder_mask_bridge|78324419|139298973|d7272ad8-b672-4ed6-b273-c8f6e86357fe|70ca510d-1332-4598-8ae3-be93a6604b60",
        "solder_mask_bridge|84814419|121438973|c4fb7387-d43f-4366-8992-84422e327519|22f2058d-3e45-40ba-abfe-f9f78e3d2911",
        "solder_mask_bridge|91314419|103588973|8ebcfdce-4997-42df-8e10-79d01faa50a8|99ac47ab-de5c-4137-90ee-fa41c040fd59",
        "solder_mask_bridge|91340557|141333448|5b959617-8dd4-42c0-aac0-be1fbfe3c528|820e3a62-5778-4955-be60-e915e51259f5",
        "solder_mask_bridge|97830557|123473448|2af3aeae-92b5-4eda-b1ed-13c49b45006d|34bf2ddf-ff1a-49dd-a1fd-4898da5a570e",
        "solder_mask_bridge|98558058|139216435|b38a1438-552d-4956-bb84-8c1d0bfbbfb1|fb544db9-b429-46cc-85d2-4aaef76bf7f9",
        "starved_thermal|189500000|152380000|f3cbaf06-fe01-4dee-99b2-6df127f3a44b|3494242b-7700-49b7-bef6-557986229c8f|B.Cu",
        "starved_thermal|240505672|161490000|f3cbaf06-fe01-4dee-99b2-6df127f3a44b|5f5d92b2-fe02-4f1f-bfa0-08f95196f152|B.Cu"
      ],
      "meta": {
        "version": 2
      },
      "rule_severities": {
        "annular_width": "error",
        "clearance": "error",
        "connection_width": "warning",
        "copper_edge_clearance": "error",
        "copper_sliver": "warning",
        "courtyards_overlap": "error",
        "diff_pair_gap_out_of_range": "error",
        "diff_pair_uncoupled_length_too_long": "error",
        "drill_out_of_range": "error",
        "duplicate_footprints": "warning",
        "extra_footprint": "warning",
        "footprint": "error",
        "footprint_type_mismatch": "warning",
        "hole_clearance": "error",
        "hole_near_hole": "error",
        "invalid_outline": "error",
        "isolated_copper": "warning",
        "item_on_disabled_layer": "error",
        "items_not_allowed": "error",
        "length_out_of_range": "error",
        "lib_footprint_issues": "warning",
        "lib_footprint_mismatch": "warning",
        "malformed_courtyard": "error",
        "microvia_drill_out_of_range": "error",
        "missing_courtyard": "ignore",
        "missing_footprint": "warning",
        "net_conflict": "warning",
        "npth_inside_courtyard": "error",
        "padstack": "warning",
        "pth_inside_courtyard": "error",
        "shorting_items": "error",
        "silk_edge_clearance": "warning",
        "silk_over_copper": "warning",
        "silk_overlap": "warning",
        "skew_out_of_range": "error",
        "solder_mask_bridge": "error",
        "starved_thermal": "error",
        "text_height": "warning",
        "text_thickness": "warning",
        "through_hole_pad_without_hole": "error",
        "too_many_vias": "error",
        "track_dangling": "warning",
        "track_width": "error",
        "tracks_crossing": "error",
        "unconnected_items": "error",
        "unresolved_variable": "error",
        "via_dangling": "warning",
        "zones_intersect": "error"
      },
      "rules": {
        "max_error": 0.005,
        "min_clearance": 0.0,
        "min_connection": 0.0,
        "min_copper_edge_clearance": 0.0,
        "min_hole_clearance": 0.25,
        "min_hole_to_hole": 0.25,
        "min_microvia_diameter": 0.19999999999999998,
        "min_microvia_drill": 0.09999999999999999,
        "min_resolved_spokes": 2,
        "min_silk_clearance": 0.0,
        "min_text_height": 0.7999999999999999,
        "min_text_thickness": 0.08,
        "min_through_hole_diameter": 0.3,
        "min_track_width": 0.0,
        "min_via_annular_width": 0.09999999999999999,
        "min_via_diameter": 0.5,
        "solder_mask_clearance": 0.0,
        "solder_mask_min_width": 0.0,
        "solder_mask_to_copper_clearance": 0.0,
        "use_height_for_length_calcs": true
      },
      "teardrop_options": [
        {
          "td_allow_use_two_tracks": true,
          "td_curve_segcount": 5,
          "td_on_pad_in_zone": false,
          "td_onpadsmd": true,
          "td_onroundshapesonly": false,
          "td_ontrackend": false,
          "td_onviapad": true
        }
      ],
      "teardrop_parameters": [
        {
          "td_curve_segcount": 0,
          "td_height_ratio": 1.0,
          "td_length_ratio": 0.5,
          "td_maxheight": 2.0,
          "td_maxlen": 1.0,
          "td_target_name": "td_round_shape",
          "td_width_to_size_filter_ratio": 0.9
        },
        {
          "td_curve_segcount": 0,
          "td_height_ratio": 1.0,
          "td_length_ratio": 0.5,
          "td_maxheight": 2.0,
          "td_maxlen": 1.0,
          "td_target_name": "td_rect_shape",
          "td_width_to_size_filter_ratio": 0.9
        },
        {
          "td_curve_segcount": 0,
          "td_height_ratio": 1.0,
          "td_length_ratio": 0.5,
          "td_maxheight": 2.0,
          "td_maxlen": 1.0,
          "td_target_name": "td_track_end",
          "td_width_to_size_filter_ratio": 0.9
        }
      ],
      "track_widths": [
        0.0,
        0.5
      ],
      "via_dimensions": [
        {
          "diameter": 0.0,
          "drill": 0.0
        }
      ],
      "zones_allow_external_fillets": false
    },
    "layer_presets": [],
    "viewports": []
  },
  "boards": [],
  "cvpcb": {
    "equivalence_files": []
  },
  "erc": {
    "erc_exclusions": [],
    "meta": {
      "version": 0
    },
    "pin_map": [
      [
        0,
        0,
        0,
        0,
        0,
        0,
        1,
        0,
        0,
        0,
        0,
        2
      ],
      [
        0,
        2,
        0,
        1,
        0,
        0,
        1,
        0,
        2,
        2,
        2,
        2
      ],
      [
        0,
        0,
        0,
        0,
        0,
        0,
        1,
        0,
        1,
        0,
        1,
        2
      ],
      [
        0,
        1,
        0,
        0,
        0,
        0,
        1,
        1,
        2,
        1,
        1,
        2
      ],
      [
        0,
        0,
        0,
        0,
        0,
        0,
        1,
        0,
        0,
        0,
        0,
        2
      ],
      [
        0,
        0,
        0,
        0,
        0,
        0,
        0,
        0,
        0,
        0,
        0,
        2
      ],
      [
        1,
        1,
        1,
        1,
        1,
        0,
        1,
        1,
        1,
        1,
        1,
        2
      ],
      [
        0,
        0,
        0,
        1,
        0,
        0,
        1,
        0,
        0,
        0,
        0,
        2
      ],
      [
        0,
        2,
        1,
        2,
        0,
        0,
        1,
        0,
        2,
        2,
        2,
        2
      ],
      [
        0,
        2,
        0,
        1,
        0,
        0,
        1,
        0,
        2,
        0,
        0,
        2
      ],
      [
        0,
        2,
        1,
        1,
        0,
        0,
        1,
        0,
        2,
        0,
        0,
        2
      ],
      [
        2,
        2,
        2,
        2,
        2,
        2,
        2,
        2,
        2,
        2,
        2,
        2
      ]
    ],
    "rule_severities": {
      "bus_definition_conflict": "error",
      "bus_entry_needed": "error",
      "bus_to_bus_conflict": "error",
      "bus_to_net_conflict": "error",
      "conflicting_netclasses": "error",
      "different_unit_footprint": "error",
      "different_unit_net": "error",
      "duplicate_reference": "error",
      "duplicate_sheet_names": "error",
      "endpoint_off_grid": "warning",
      "extra_units": "error",
      "global_label_dangling": "warning",
      "hier_label_mismatch": "error",
      "label_dangling": "error",
      "lib_symbol_issues": "warning",
      "missing_bidi_pin": "warning",
      "missing_input_pin": "warning",
      "missing_power_pin": "error",
      "missing_unit": "warning",
      "multiple_net_names": "warning",
      "net_not_bus_member": "warning",
      "no_connect_connected": "warning",
      "no_connect_dangling": "warning",
      "pin_not_connected": "error",
      "pin_not_driven": "error",
      "pin_to_pin": "warning",
      "power_pin_not_driven": "error",
      "similar_labels": "warning",
      "simulation_model_issue": "error",
      "unannotated": "error",
      "unit_value_mismatch": "error",
      "unresolved_variable": "error",
      "wire_dangling": "error"
    }
  },
  "libraries": {
    "pinned_footprint_libs": [],
    "pinned_symbol_libs": []
  },
  "meta": {
    "filename": "fidrildi4.kicad_pro",
    "version": 1
  },
  "net_settings": {
    "classes": [
      {
        "bus_width": 12,
        "clearance": 0.2,
        "diff_pair_gap": 0.25,
        "diff_pair_via_gap": 0.25,
        "diff_pair_width": 0.2,
        "line_style": 0,
        "microvia_diameter": 0.3,
        "microvia_drill": 0.1,
        "name": "Default",
        "pcb_color": "rgba(0, 0, 0, 0.000)",
        "schematic_color": "rgba(0, 0, 0, 0.000)",
        "track_width": 0.25,
        "via_diameter": 0.8,
        "via_drill": 0.4,
        "wire_width": 6
      }
    ],
    "meta": {
      "version": 3
    },
    "net_colors": null,
    "netclass_assignments": null,
    "netclass_patterns": []
  },
  "pcbnew": {
    "last_paths": {
      "gencad": "",
      "idf": "",
      "netlist": "",
      "specctra_dsn": "",
      "step": "",
      "vrml": ""
    },
    "page_layout_descr_file": ""
  },
  "schematic": {
    "annotate_start_num": 0,
    "drawing": {
      "dashed_lines_dash_length_ratio": 12.0,
      "dashed_lines_gap_length_ratio": 3.0,
      "default_line_thickness": 6.0,
      "default_text_size": 50.0,
      "field_names": [],
      "intersheets_ref_own_page": false,
      "intersheets_ref_prefix": "",
      "intersheets_ref_short": false,
      "intersheets_ref_show": false,
      "intersheets_ref_suffix": "",
      "junction_size_choice": 3,
      "label_size_ratio": 0.375,
      "pin_symbol_size": 25.0,
      "text_offset_ratio": 0.15
    },
    "legacy_lib_dir": "",
    "legacy_lib_list": [],
    "meta": {
      "version": 1
    },
    "net_format_name": "",
    "page_layout_descr_file": "",
    "plot_directory": "",
    "spice_current_sheet_as_root": false,
    "spice_external_command": "spice \"%I\"",
    "spice_model_current_sheet_as_root": true,
    "spice_save_all_currents": false,
    "spice_save_all_voltages": false,
    "subpart_first_id": 65,
    "subpart_id_separator": 0
  },
  "sheets": [
    [
      "9480f66b-59eb-4525-b2c4-f8c17a0d538d",
      ""
    ],
    [
      "f4a85ffb-82a5-4758-ae77-2052ef18d546",
      "leds"
    ]
  ],
  "text_variables": {}
}
