{
  "board": {
    "3dviewports": [],
    "design_settings": {
      "defaults": {
        "board_outline_line_width": 0.09999999999999999,
        "copper_line_width": 0.19999999999999998,
        "copper_text_italic": false,
        "copper_text_size_h": 1.5,
        "copper_text_size_v": 1.5,
        "copper_text_thickness": 0.3,
        "copper_text_upright": false,
        "courtyard_line_width": 0.049999999999999996,
        "dimension_precision": 4,
        "dimension_units": 3,
        "dimensions": {
          "arrow_length": 1270000,
          "extension_offset": 500000,
          "keep_text_aligned": true,
          "suppress_zeroes": false,
          "text_position": 0,
          "units_format": 1
        },
        "fab_line_width": 0.09999999999999999,
        "fab_text_italic": false,
        "fab_text_size_h": 1.0,
        "fab_text_size_v": 1.0,
        "fab_text_thickness": 0.15,
        "fab_text_upright": false,
        "other_line_width": 0.15,
        "other_text_italic": false,
        "other_text_size_h": 1.0,
        "other_text_size_v": 1.0,
        "other_text_thickness": 0.15,
        "other_text_upright": false,
        "pads": {
          "drill": 0.762,
          "height": 1.524,
          "width": 1.524
        },
        "silk_line_width": 0.15,
        "silk_text_italic": false,
        "silk_text_size_h": 1.0,
        "silk_text_size_v": 1.0,
        "silk_text_thickness": 0.15,
        "silk_text_upright": false,
        "zones": {
          "45_degree_only": false,
          "min_clearance": 0.0
        }
      },
      "diff_pair_dimensions": [
        {
          "gap": 0.0,
          "via_gap": 0.0,
          "width": 0.0
        }
      ],
      "drc_exclusions": [
        "annular_width|189500000|191325000|ccd79631-1674-430d-b79b-28be0ea4e685|00000000-0000-0000-0000-000000000000",
        "annular_width|200500000|191325000|8258bef6-e857-48f6-9a98-53becce4ca3a|00000000-0000-0000-0000-000000000000",
        "annular_width|230660000|172100000|5ae59375-606b-42cc-b951-05d989fdd83b|00000000-0000-0000-0000-000000000000",
        "annular_width|231930000|172100000|d69559de-cd6b-4b01-9ca1-022f9e02e854|00000000-0000-0000-0000-000000000000",
        "annular_width|233200000|172100000|a4592f0b-74a4-473b-91a9-04f74336f9bc|00000000-0000-0000-0000-000000000000",
        "clearance|210300000|172687000|cd5909d4-968e-4bd7-a872-308392736c69|6deb325d-a6e3-49d7-8eda-27b345bf4692",
        "clearance|217300000|191487000|3d0d171c-d383-4f2b-b38d-57f723a9d16e|cf18a6d9-91bd-4fce-8d01-5abefb8762a3",
        "clearance|219113000|169800000|23dbce1c-18a6-4ced-b126-dceb054dfebb|422d843a-780f-4a6c-91b8-ddba1d78efc8",
        "copper_sliver|179482027|178187460|00000000-0000-0000-0000-000000000000|B.Cu",
        "silk_over_copper|178252587|191060408|350e9d9f-a714-4e39-9eed-aa4795c5ff08|00000000-0000-0000-0000-000000000000",
        "silk_over_copper|185972307|117336659|c8903e7f-61a3-43d1-bb77-90ed7095d7bb|00000000-0000-0000-0000-000000000000",
        "silk_over_copper|188000000|114909452|7c64d18d-d09b-4397-8141-97e69074cf36|00000000-0000-0000-0000-000000000000",
        "silk_over_copper|208395392|112978368|bf41b1d8-b463-4be8-84ee-36b71e28a696|00000000-0000-0000-0000-000000000000",
        "silk_over_copper|208485531|116096034|90bf7960-7c87-40da-82f2-466277b4cc30|00000000-0000-0000-0000-000000000000",
        "silk_over_copper|230484328|116100000|c337423d-5cd3-429d-a13b-87a24d7edf4a|00000000-0000-0000-0000-000000000000",
        "silk_over_copper|236928911|105614536|afcea901-b132-4521-ae97-1bc250b451d2|00000000-0000-0000-0000-000000000000",
        "silk_over_copper|238978911|190614536|4466dbac-753b-453b-870d-dcb082773c4a|00000000-0000-0000-0000-000000000000",
        "silk_over_copper|238978911|190614536|5521443c-832c-49ef-9ad0-321058dd625e|00000000-0000-0000-0000-000000000000",
        "silk_over_copper|239027693|106963341|72f076a2-2dd8-478b-b383-8e86e9d666a3|00000000-0000-0000-0000-000000000000",
        "silk_over_copper|240852464|193529841|a50a9624-ac90-4ab6-b742-9b232d41ae78|00000000-0000-0000-0000-000000000000",
        "silk_overlap|188928571|181447500|39705b25-1d3c-47ee-9152-5715387b3621|3640e545-6274-4b74-811e-96b8e029ea6d",
        "silk_overlap|189940000|187000000|f73ce9e8-73f6-4662-b9bd-23c6fb5e51dd|05e08bb3-b64c-4266-ace1-fc745eea4206",
        "silk_overlap|200060000|187000000|05e08bb3-b64c-4266-ace1-fc745eea4206|55db9d0a-0dd5-4b31-82e4-54f7141605b8",
        "silk_overlap|205500000|111600000|b9c1d0f9-d38a-4d1e-b6e5-6570ca72af93|bf41b1d8-b463-4be8-84ee-36b71e28a696",
        "silk_overlap|205500000|112000000|bf41b1d8-b463-4be8-84ee-36b71e28a696|ee1f9b5d-c2c6-4031-b4c5-1b30af1d0a29",
        "silk_overlap|207384451|112000000|a5d34b5a-b500-467e-8633-c295abe62bee|bf41b1d8-b463-4be8-84ee-36b71e28a696",
        "silk_overlap|212500000|111600000|55ed4932-b0e7-4132-9353-ec5a6902e508|bf41b1d8-b463-4be8-84ee-36b71e28a696",
        "silk_overlap|212500000|112000000|bf41b1d8-b463-4be8-84ee-36b71e28a696|81d1074a-56c7-4db7-87ba-436abd871a01",
        "silk_overlap|224500000|112000000|bf41b1d8-b463-4be8-84ee-36b71e28a696|6b11ddf1-a1a4-4153-aff7-71a79cef01f3",
        "silk_overlap|224500000|112000000|bf41b1d8-b463-4be8-84ee-36b71e28a696|806b20f6-d8b4-4b58-8ddb-014d90b60913",
        "silk_overlap|226384451|112000000|bf41b1d8-b463-4be8-84ee-36b71e28a696|efeb1793-e8da-46bd-a999-0297eabab808",
        "silk_overlap|231500000|112000000|bf41b1d8-b463-4be8-84ee-36b71e28a696|2566dc7f-d4b9-457f-82c4-3d6e9e960f3b",
        "silk_overlap|231500000|112000000|bf41b1d8-b463-4be8-84ee-36b71e28a696|931f7a05-7e32-4351-91d0-7ec1d50a02b9"
      ],
      "meta": {
        "version": 2
      },
      "rule_severities": {
        "annular_width": "error",
        "clearance": "error",
        "connection_width": "warning",
        "copper_edge_clearance": "error",
        "copper_sliver": "warning",
        "courtyards_overlap": "error",
        "diff_pair_gap_out_of_range": "error",
        "diff_pair_uncoupled_length_too_long": "error",
        "drill_out_of_range": "error",
        "duplicate_footprints": "warning",
        "extra_footprint": "warning",
        "footprint": "error",
        "footprint_type_mismatch": "error",
        "hole_clearance": "error",
        "hole_near_hole": "error",
        "invalid_outline": "error",
        "isolated_copper": "warning",
        "item_on_disabled_layer": "error",
        "items_not_allowed": "error",
        "length_out_of_range": "error",
        "lib_footprint_issues": "warning",
        "lib_footprint_mismatch": "warning",
        "malformed_courtyard": "error",
        "microvia_drill_out_of_range": "error",
        "missing_courtyard": "ignore",
        "missing_footprint": "warning",
        "net_conflict": "warning",
        "npth_inside_courtyard": "ignore",
        "padstack": "error",
        "pth_inside_courtyard": "ignore",
        "shorting_items": "error",
        "silk_edge_clearance": "warning",
        "silk_over_copper": "warning",
        "silk_overlap": "warning",
        "skew_out_of_range": "error",
        "solder_mask_bridge": "ignore",
        "starved_thermal": "error",
        "text_height": "warning",
        "text_thickness": "warning",
        "through_hole_pad_without_hole": "error",
        "too_many_vias": "error",
        "track_dangling": "warning",
        "track_width": "error",
        "tracks_crossing": "error",
        "unconnected_items": "error",
        "unresolved_variable": "error",
        "via_dangling": "warning",
        "zones_intersect": "error"
      },
      "rules": {
        "allow_blind_buried_vias": false,
        "allow_microvias": false,
        "max_error": 0.005,
        "min_clearance": 0.127,
        "min_connection": 0.0,
        "min_copper_edge_clearance": 0.0,
        "min_hole_clearance": 0.32999999999999996,
        "min_hole_to_hole": 0.5,
        "min_microvia_diameter": 0.19999999999999998,
        "min_microvia_drill": 0.09999999999999999,
        "min_resolved_spokes": 2,
        "min_silk_clearance": 0.0,
        "min_text_height": 0.7999999999999999,
        "min_text_thickness": 0.08,
        "min_through_hole_diameter": 0.19999999999999998,
        "min_track_width": 0.127,
        "min_via_annular_width": 0.25,
        "min_via_diameter": 0.39999999999999997,
        "solder_mask_clearance": 0.0,
        "solder_mask_min_width": 0.0,
        "solder_mask_to_copper_clearance": 0.0,
        "use_height_for_length_calcs": true
      },
      "teardrop_options": [
        {
          "td_allow_use_two_tracks": true,
          "td_curve_segcount": 5,
          "td_on_pad_in_zone": false,
          "td_onpadsmd": true,
          "td_onroundshapesonly": false,
          "td_ontrackend": false,
          "td_onviapad": true
        }
      ],
      "teardrop_parameters": [
        {
          "td_curve_segcount": 0,
          "td_height_ratio": 1.0,
          "td_length_ratio": 0.5,
          "td_maxheight": 2.0,
          "td_maxlen": 1.0,
          "td_target_name": "td_round_shape",
          "td_width_to_size_filter_ratio": 0.9
        },
        {
          "td_curve_segcount": 0,
          "td_height_ratio": 1.0,
          "td_length_ratio": 0.5,
          "td_maxheight": 2.0,
          "td_maxlen": 1.0,
          "td_target_name": "td_rect_shape",
          "td_width_to_size_filter_ratio": 0.9
        },
        {
          "td_curve_segcount": 0,
          "td_height_ratio": 1.0,
          "td_length_ratio": 0.5,
          "td_maxheight": 2.0,
          "td_maxlen": 1.0,
          "td_target_name": "td_track_end",
          "td_width_to_size_filter_ratio": 0.9
        }
      ],
      "track_widths": [
        0.0,
        0.25,
        0.5,
        0.75,
        1.0,
        2.0
      ],
      "via_dimensions": [
        {
          "diameter": 0.0,
          "drill": 0.0
        },
        {
          "diameter": 0.8,
          "drill": 0.3
        }
      ],
      "zones_allow_external_fillets": false,
      "zones_use_no_outline": true
    },
    "layer_presets": [
      {
        "activeLayer": -2,
        "layers": [
          0,
          1,
          2,
          3,
          4,
          5,
          6,
          7,
          8,
          9,
          10,
          11,
          12,
          13,
          14,
          15,
          16,
          17,
          18,
          19,
          20,
          21,
          22,
          23,
          24,
          25,
          26,
          27,
          28,
          29,
          30,
          31,
          32,
          33,
          34,
          35,
          36,
          37,
          38,
          39,
          40,
          41,
          42,
          43,
          44,
          45,
          46,
          47,
          50,
          51,
          52,
          53,
          54,
          55,
          56,
          57,
          58,
          59
        ],
        "name": "All_NF",
        "renderLayers": [
          125,
          126,
          127,
          128,
          129,
          130,
          133,
          134,
          135,
          136,
          137,
          138,
          139,
          140,
          141,
          142,
          143,
          144,
          145,
          146,
          147,
          148,
          149,
          150,
          151,
          152,
          153,
          154,
          155,
          157,
          158,
          159,
          160,
          161
        ]
      },
      {
        "activeLayer": -2,
        "layers": [
          31,
          32,
          34,
          36,
          38,
          44,
          46
        ],
        "name": "Back_NF",
        "renderLayers": [
          125,
          126,
          127,
          128,
          129,
          130,
          133,
          134,
          135,
          136,
          137,
          138,
          139,
          140,
          141,
          142,
          143,
          144,
          145,
          146,
          147,
          148,
          149,
          150,
          151,
          152,
          153,
          154,
          155,
          157,
          158,
          159,
          160,
          161
        ]
      },
      {
        "activeLayer": -2,
        "layers": [
          0,
          3,
          4,
          5,
          6,
          7,
          8,
          9,
          10,
          11,
          12,
          13,
          14,
          15,
          16,
          17,
          18,
          19,
          20,
          21,
          22,
          23,
          24,
          25,
          26,
          27,
          28,
          29,
          30,
          31,
          32,
          33,
          34,
          35,
          36,
          37,
          38,
          39,
          40,
          41,
          42,
          43,
          44,
          45,
          46,
          47,
          50,
          51,
          52,
          53,
          54,
          55,
          56,
          57,
          58,
          59
        ],
        "name": "TB_NF",
        "renderLayers": [
          125,
          126,
          127,
          128,
          129,
          130,
          133,
          134,
          135,
          136,
          137,
          138,
          139,
          140,
          141,
          142,
          143,
          144,
          145,
          146,
          147,
          148,
          149,
          150,
          151,
          152,
          153,
          154,
          155,
          157,
          158,
          159,
          160,
          161
        ]
      },
      {
        "activeLayer": -2,
        "layers": [
          0,
          33,
          35,
          37,
          39,
          44,
          47
        ],
        "name": "Top_NF",
        "renderLayers": [
          125,
          126,
          127,
          128,
          129,
          130,
          133,
          134,
          135,
          136,
          137,
          138,
          139,
          140,
          141,
          142,
          143,
          144,
          145,
          146,
          147,
          148,
          149,
          150,
          151,
          152,
          153,
          154,
          155,
          157,
          158,
          159,
          160,
          161
        ]
      }
    ],
    "viewports": []
  },
  "boards": [],
  "cvpcb": {
    "equivalence_files": []
  },
  "erc": {
    "erc_exclusions": [],
    "meta": {
      "version": 0
    },
    "pin_map": [
      [
        0,
        0,
        0,
        0,
        0,
        0,
        1,
        0,
        0,
        0,
        0,
        2
      ],
      [
        0,
        2,
        0,
        1,
        0,
        0,
        1,
        0,
        2,
        2,
        2,
        2
      ],
      [
        0,
        0,
        0,
        0,
        0,
        0,
        1,
        0,
        1,
        0,
        1,
        2
      ],
      [
        0,
        1,
        0,
        0,
        0,
        0,
        1,
        1,
        2,
        1,
        1,
        2
      ],
      [
        0,
        0,
        0,
        0,
        0,
        0,
        1,
        0,
        0,
        0,
        0,
        2
      ],
      [
        0,
        0,
        0,
        0,
        0,
        0,
        0,
        0,
        0,
        0,
        0,
        2
      ],
      [
        1,
        1,
        1,
        1,
        1,
        0,
        1,
        1,
        1,
        1,
        1,
        2
      ],
      [
        0,
        0,
        0,
        1,
        0,
        0,
        1,
        0,
        0,
        0,
        0,
        2
      ],
      [
        0,
        2,
        1,
        2,
        0,
        0,
        1,
        0,
        2,
        2,
        2,
        2
      ],
      [
        0,
        2,
        0,
        1,
        0,
        0,
        1,
        0,
        2,
        0,
        0,
        2
      ],
      [
        0,
        2,
        1,
        1,
        0,
        0,
        1,
        0,
        2,
        0,
        0,
        2
      ],
      [
        2,
        2,
        2,
        2,
        2,
        2,
        2,
        2,
        2,
        2,
        2,
        2
      ]
    ],
    "rule_severities": {
      "bus_definition_conflict": "error",
      "bus_entry_needed": "error",
      "bus_to_bus_conflict": "error",
      "bus_to_net_conflict": "error",
      "conflicting_netclasses": "error",
      "different_unit_footprint": "error",
      "different_unit_net": "error",
      "duplicate_reference": "error",
      "duplicate_sheet_names": "error",
      "endpoint_off_grid": "warning",
      "extra_units": "error",
      "global_label_dangling": "warning",
      "hier_label_mismatch": "error",
      "label_dangling": "error",
      "lib_symbol_issues": "warning",
      "missing_bidi_pin": "warning",
      "missing_input_pin": "warning",
      "missing_power_pin": "error",
      "missing_unit": "warning",
      "multiple_net_names": "warning",
      "net_not_bus_member": "warning",
      "no_connect_connected": "warning",
      "no_connect_dangling": "warning",
      "pin_not_connected": "error",
      "pin_not_driven": "error",
      "pin_to_pin": "warning",
      "power_pin_not_driven": "error",
      "similar_labels": "warning",
      "simulation_model_issue": "error",
      "unannotated": "error",
      "unit_value_mismatch": "error",
      "unresolved_variable": "error",
      "wire_dangling": "error"
    }
  },
  "libraries": {
    "pinned_footprint_libs": [],
    "pinned_symbol_libs": []
  },
  "meta": {
    "filename": "kicker.kicad_pro",
    "version": 1
  },
  "net_settings": {
    "classes": [
      {
        "bus_width": 12,
        "clearance": 0.2,
        "diff_pair_gap": 0.25,
        "diff_pair_via_gap": 0.25,
        "diff_pair_width": 0.2,
        "line_style": 0,
        "microvia_diameter": 0.3,
        "microvia_drill": 0.1,
        "name": "Default",
        "pcb_color": "rgba(0, 0, 0, 0.000)",
        "schematic_color": "rgba(0, 0, 0, 0.000)",
        "track_width": 0.25,
        "via_diameter": 0.8,
        "via_drill": 0.4,
        "wire_width": 6
      },
      {
        "bus_width": 12,
        "clearance": 0.5,
        "diff_pair_gap": 0.25,
        "diff_pair_via_gap": 0.25,
        "diff_pair_width": 0.2,
        "line_style": 0,
        "microvia_diameter": 0.3,
        "microvia_drill": 0.1,
        "name": "HV",
        "pcb_color": "rgba(0, 0, 0, 0.000)",
        "schematic_color": "rgba(0, 0, 0, 0.000)",
        "track_width": 0.25,
        "via_diameter": 0.8,
        "via_drill": 0.4,
        "wire_width": 6
      }
    ],
    "meta": {
      "version": 3
    },
    "net_colors": null,
    "netclass_assignments": null,
    "netclass_patterns": [
      {
        "netclass": "HV",
        "pattern": "/DL1S"
      },
      {
        "netclass": "HV",
        "pattern": "/DL2S"
      },
      {
        "netclass": "HV",
        "pattern": "/HVMS"
      },
      {
        "netclass": "HV",
        "pattern": "/flyback_charger/HVFBS"
      },
      {
        "netclass": "HV",
        "pattern": "/flyback_charger/HV_AC"
      },
      {
        "netclass": "HV",
        "pattern": "/flyback_charger/V_{solenoid}"
      },
      {
        "netclass": "HV",
        "pattern": "/solenoid_control/CHIP_SW"
      },
      {
        "netclass": "HV",
        "pattern": "/solenoid_control/KICK_SW"
      }
    ]
  },
  "pcbnew": {
    "last_paths": {
      "gencad": "",
      "idf": "",
      "netlist": "",
      "specctra_dsn": "",
      "step": "",
      "vrml": ""
    },
    "page_layout_descr_file": ""
  },
  "schematic": {
    "annotate_start_num": 0,
    "drawing": {
      "dashed_lines_dash_length_ratio": 12.0,
      "dashed_lines_gap_length_ratio": 3.0,
      "default_line_thickness": 6.0,
      "default_text_size": 50.0,
      "field_names": [],
      "intersheets_ref_own_page": false,
      "intersheets_ref_prefix": "",
      "intersheets_ref_short": false,
      "intersheets_ref_show": false,
      "intersheets_ref_suffix": "",
      "junction_size_choice": 3,
      "label_size_ratio": 0.375,
      "pin_symbol_size": 25.0,
      "text_offset_ratio": 0.15
    },
    "legacy_lib_dir": "",
    "legacy_lib_list": [],
    "meta": {
      "version": 1
    },
    "net_format_name": "",
    "ngspice": {
      "fix_include_paths": true,
      "fix_passive_vals": false,
      "meta": {
        "version": 0
      },
      "model_mode": 0,
      "workbook_filename": ""
    },
    "page_layout_descr_file": "",
    "plot_directory": "",
    "spice_adjust_passive_values": false,
    "spice_current_sheet_as_root": false,
    "spice_external_command": "spice \"%I\"",
    "spice_model_current_sheet_as_root": true,
    "spice_save_all_currents": false,
    "spice_save_all_voltages": false,
    "subpart_first_id": 65,
    "subpart_id_separator": 0
  },
  "sheets": [
    [
      "7cfeeadc-5484-43a0-8ad3-94ff54fbcb4b",
      ""
    ],
    [
      "89b03a37-9b58-4954-87fa-504b69fb9b5e",
      "flyback_charger"
    ],
    [
      "4343588e-be73-4266-b83e-518e278185a9",
      "solenoid_control"
    ],
    [
      "a24d6f3e-2dc7-4ce9-abd5-3d169f00aa0f",
      "digital"
    ]
  ],
  "text_variables": {}
}
