(kicad_sch (version 20230121) (generator eeschema)

  (uuid 3671bdaf-b501-4664-a83d-39af6270ff7f)

  (paper "A4")

  (title_block
    (title "Development Board")
    (date "2022-03-15")
    (rev "2.1")
    (company "Plastic Scanner")
  )

  (lib_symbols
    (symbol "Connector_Generic:Conn_01x04" (pin_names (offset 1.016) hide) (in_bom yes) (on_board yes)
      (property "Reference" "J" (at 0 5.08 0)
        (effects (font (size 1.27 1.27)))
      )
      (property "Value" "Conn_01x04" (at 0 -7.62 0)
        (effects (font (size 1.27 1.27)))
      )
      (property "Footprint" "" (at 0 0 0)
        (effects (font (size 1.27 1.27)) hide)
      )
      (property "Datasheet" "~" (at 0 0 0)
        (effects (font (size 1.27 1.27)) hide)
      )
      (property "ki_keywords" "connector" (at 0 0 0)
        (effects (font (size 1.27 1.27)) hide)
      )
      (property "ki_description" "Generic connector, single row, 01x04, script generated (kicad-library-utils/schlib/autogen/connector/)" (at 0 0 0)
        (effects (font (size 1.27 1.27)) hide)
      )
      (property "ki_fp_filters" "Connector*:*_1x??_*" (at 0 0 0)
        (effects (font (size 1.27 1.27)) hide)
      )
      (symbol "Conn_01x04_1_1"
        (rectangle (start -1.27 -4.953) (end 0 -5.207)
          (stroke (width 0.1524) (type default))
          (fill (type none))
        )
        (rectangle (start -1.27 -2.413) (end 0 -2.667)
          (stroke (width 0.1524) (type default))
          (fill (type none))
        )
        (rectangle (start -1.27 0.127) (end 0 -0.127)
          (stroke (width 0.1524) (type default))
          (fill (type none))
        )
        (rectangle (start -1.27 2.667) (end 0 2.413)
          (stroke (width 0.1524) (type default))
          (fill (type none))
        )
        (rectangle (start -1.27 3.81) (end 1.27 -6.35)
          (stroke (width 0.254) (type default))
          (fill (type background))
        )
        (pin passive line (at -5.08 2.54 0) (length 3.81)
          (name "Pin_1" (effects (font (size 1.27 1.27))))
          (number "1" (effects (font (size 1.27 1.27))))
        )
        (pin passive line (at -5.08 0 0) (length 3.81)
          (name "Pin_2" (effects (font (size 1.27 1.27))))
          (number "2" (effects (font (size 1.27 1.27))))
        )
        (pin passive line (at -5.08 -2.54 0) (length 3.81)
          (name "Pin_3" (effects (font (size 1.27 1.27))))
          (number "3" (effects (font (size 1.27 1.27))))
        )
        (pin passive line (at -5.08 -5.08 0) (length 3.81)
          (name "Pin_4" (effects (font (size 1.27 1.27))))
          (number "4" (effects (font (size 1.27 1.27))))
        )
      )
    )
    (symbol "Device:C" (pin_numbers hide) (pin_names (offset 0.254)) (in_bom yes) (on_board yes)
      (property "Reference" "C" (at 0.635 2.54 0)
        (effects (font (size 1.27 1.27)) (justify left))
      )
      (property "Value" "C" (at 0.635 -2.54 0)
        (effects (font (size 1.27 1.27)) (justify left))
      )
      (property "Footprint" "" (at 0.9652 -3.81 0)
        (effects (font (size 1.27 1.27)) hide)
      )
      (property "Datasheet" "~" (at 0 0 0)
        (effects (font (size 1.27 1.27)) hide)
      )
      (property "ki_keywords" "cap capacitor" (at 0 0 0)
        (effects (font (size 1.27 1.27)) hide)
      )
      (property "ki_description" "Unpolarized capacitor" (at 0 0 0)
        (effects (font (size 1.27 1.27)) hide)
      )
      (property "ki_fp_filters" "C_*" (at 0 0 0)
        (effects (font (size 1.27 1.27)) hide)
      )
      (symbol "C_0_1"
        (polyline
          (pts
            (xy -2.032 -0.762)
            (xy 2.032 -0.762)
          )
          (stroke (width 0.508) (type default))
          (fill (type none))
        )
        (polyline
          (pts
            (xy -2.032 0.762)
            (xy 2.032 0.762)
          )
          (stroke (width 0.508) (type default))
          (fill (type none))
        )
      )
      (symbol "C_1_1"
        (pin passive line (at 0 3.81 270) (length 2.794)
          (name "~" (effects (font (size 1.27 1.27))))
          (number "1" (effects (font (size 1.27 1.27))))
        )
        (pin passive line (at 0 -3.81 90) (length 2.794)
          (name "~" (effects (font (size 1.27 1.27))))
          (number "2" (effects (font (size 1.27 1.27))))
        )
      )
    )
    (symbol "Device:LED" (pin_numbers hide) (pin_names (offset 1.016) hide) (in_bom yes) (on_board yes)
      (property "Reference" "D" (at 0 2.54 0)
        (effects (font (size 1.27 1.27)))
      )
      (property "Value" "LED" (at 0 -2.54 0)
        (effects (font (size 1.27 1.27)))
      )
      (property "Footprint" "" (at 0 0 0)
        (effects (font (size 1.27 1.27)) hide)
      )
      (property "Datasheet" "~" (at 0 0 0)
        (effects (font (size 1.27 1.27)) hide)
      )
      (property "ki_keywords" "LED diode" (at 0 0 0)
        (effects (font (size 1.27 1.27)) hide)
      )
      (property "ki_description" "Light emitting diode" (at 0 0 0)
        (effects (font (size 1.27 1.27)) hide)
      )
      (property "ki_fp_filters" "LED* LED_SMD:* LED_THT:*" (at 0 0 0)
        (effects (font (size 1.27 1.27)) hide)
      )
      (symbol "LED_0_1"
        (polyline
          (pts
            (xy -1.27 -1.27)
            (xy -1.27 1.27)
          )
          (stroke (width 0.254) (type default))
          (fill (type none))
        )
        (polyline
          (pts
            (xy -1.27 0)
            (xy 1.27 0)
          )
          (stroke (width 0) (type default))
          (fill (type none))
        )
        (polyline
          (pts
            (xy 1.27 -1.27)
            (xy 1.27 1.27)
            (xy -1.27 0)
            (xy 1.27 -1.27)
          )
          (stroke (width 0.254) (type default))
          (fill (type none))
        )
        (polyline
          (pts
            (xy -3.048 -0.762)
            (xy -4.572 -2.286)
            (xy -3.81 -2.286)
            (xy -4.572 -2.286)
            (xy -4.572 -1.524)
          )
          (stroke (width 0) (type default))
          (fill (type none))
        )
        (polyline
          (pts
            (xy -1.778 -0.762)
            (xy -3.302 -2.286)
            (xy -2.54 -2.286)
            (xy -3.302 -2.286)
            (xy -3.302 -1.524)
          )
          (stroke (width 0) (type default))
          (fill (type none))
        )
      )
      (symbol "LED_1_1"
        (pin passive line (at -3.81 0 0) (length 2.54)
          (name "K" (effects (font (size 1.27 1.27))))
          (number "1" (effects (font (size 1.27 1.27))))
        )
        (pin passive line (at 3.81 0 180) (length 2.54)
          (name "A" (effects (font (size 1.27 1.27))))
          (number "2" (effects (font (size 1.27 1.27))))
        )
      )
    )
    (symbol "Device:R" (pin_numbers hide) (pin_names (offset 0)) (in_bom yes) (on_board yes)
      (property "Reference" "R" (at 2.032 0 90)
        (effects (font (size 1.27 1.27)))
      )
      (property "Value" "R" (at 0 0 90)
        (effects (font (size 1.27 1.27)))
      )
      (property "Footprint" "" (at -1.778 0 90)
        (effects (font (size 1.27 1.27)) hide)
      )
      (property "Datasheet" "~" (at 0 0 0)
        (effects (font (size 1.27 1.27)) hide)
      )
      (property "ki_keywords" "R res resistor" (at 0 0 0)
        (effects (font (size 1.27 1.27)) hide)
      )
      (property "ki_description" "Resistor" (at 0 0 0)
        (effects (font (size 1.27 1.27)) hide)
      )
      (property "ki_fp_filters" "R_*" (at 0 0 0)
        (effects (font (size 1.27 1.27)) hide)
      )
      (symbol "R_0_1"
        (rectangle (start -1.016 -2.54) (end 1.016 2.54)
          (stroke (width 0.254) (type default))
          (fill (type none))
        )
      )
      (symbol "R_1_1"
        (pin passive line (at 0 3.81 270) (length 1.27)
          (name "~" (effects (font (size 1.27 1.27))))
          (number "1" (effects (font (size 1.27 1.27))))
        )
        (pin passive line (at 0 -3.81 90) (length 1.27)
          (name "~" (effects (font (size 1.27 1.27))))
          (number "2" (effects (font (size 1.27 1.27))))
        )
      )
    )
    (symbol "TLC59208:TLC59208FIPWR" (pin_names (offset 1.016)) (in_bom yes) (on_board yes)
      (property "Reference" "U" (at 0 5.08 0)
        (effects (font (size 1.27 1.27)) (justify left))
      )
      (property "Value" "TLC59208FIPWR" (at 0 7.62 0)
        (effects (font (size 1.27 1.27)) (justify left))
      )
      (property "Footprint" "Texas_Instruments-TLC59208FIPWR-*" (at 0 10.16 0)
        (effects (font (size 1.27 1.27)) (justify left) hide)
      )
      (property "Datasheet" "http://www.ti.com/general/docs/lit/getliterature.tsp?genericPartNumber=TLC59208F&fileType=pdf" (at 0 12.7 0)
        (effects (font (size 1.27 1.27)) (justify left) hide)
      )
      (property "Code  JEDEC" "MO-153" (at 0 15.24 0)
        (effects (font (size 1.27 1.27)) (justify left) hide)
      )
      (property "Component Link 1 Description" "Manufacturer URL" (at 0 17.78 0)
        (effects (font (size 1.27 1.27)) (justify left) hide)
      )
      (property "Component Link 1 URL" "http://www.ti.com/" (at 0 20.32 0)
        (effects (font (size 1.27 1.27)) (justify left) hide)
      )
      (property "Component Link 3 Description" "Package Specification" (at 0 22.86 0)
        (effects (font (size 1.27 1.27)) (justify left) hide)
      )
      (property "Component Link 3 URL" "http://www.ti.com/lit/ml/mpds361/mpds361.pdf" (at 0 25.4 0)
        (effects (font (size 1.27 1.27)) (justify left) hide)
      )
      (property "Datasheet Version" "SCLS715" (at 0 27.94 0)
        (effects (font (size 1.27 1.27)) (justify left) hide)
      )
      (property "Iout Max A" "0.05" (at 0 30.48 0)
        (effects (font (size 1.27 1.27)) (justify left) hide)
      )
      (property "Mounting Technology" "Surface Mount" (at 0 33.02 0)
        (effects (font (size 1.27 1.27)) (justify left) hide)
      )
      (property "Package Description" "16-Pin Plastic Small Outline, Body 4.40 x 5.00 mm, Pitch 0.65 mm" (at 0 35.56 0)
        (effects (font (size 1.27 1.27)) (justify left) hide)
      )
      (property "Package Version" "4040064-4/G" (at 0 38.1 0)
        (effects (font (size 1.27 1.27)) (justify left) hide)
      )
      (property "Sub Family" "LED Driver" (at 0 40.64 0)
        (effects (font (size 1.27 1.27)) (justify left) hide)
      )
      (property "Vin Max V" "5.5" (at 0 43.18 0)
        (effects (font (size 1.27 1.27)) (justify left) hide)
      )
      (property "Vin Min V" "3" (at 0 45.72 0)
        (effects (font (size 1.27 1.27)) (justify left) hide)
      )
      (property "category" "IC" (at 0 48.26 0)
        (effects (font (size 1.27 1.27)) (justify left) hide)
      )
      (property "ciiva ids" "1426985" (at 0 50.8 0)
        (effects (font (size 1.27 1.27)) (justify left) hide)
      )
      (property "library id" "9bf7f104929dd8ed" (at 0 53.34 0)
        (effects (font (size 1.27 1.27)) (justify left) hide)
      )
      (property "manufacturer" "Texas Instruments" (at 0 55.88 0)
        (effects (font (size 1.27 1.27)) (justify left) hide)
      )
      (property "package" "PW0016A" (at 0 58.42 0)
        (effects (font (size 1.27 1.27)) (justify left) hide)
      )
      (property "release date" "1464576871" (at 0 60.96 0)
        (effects (font (size 1.27 1.27)) (justify left) hide)
      )
      (property "rohs" "Yes" (at 0 63.5 0)
        (effects (font (size 1.27 1.27)) (justify left) hide)
      )
      (property "vault revision" "C0AC1098-4EF5-4502-9510-91D6A29A40EB" (at 0 66.04 0)
        (effects (font (size 1.27 1.27)) (justify left) hide)
      )
      (property "imported" "yes" (at 0 68.58 0)
        (effects (font (size 1.27 1.27)) (justify left) hide)
      )
      (property "ki_locked" "" (at 0 0 0)
        (effects (font (size 1.27 1.27)))
      )
      (property "ki_description" "TLC59208FIPWR" (at 0 0 0)
        (effects (font (size 1.27 1.27)) hide)
      )
      (symbol "TLC59208FIPWR_1_1"
        (rectangle (start 5.08 2.54) (end 25.4 -25.4)
          (stroke (width 0) (type solid))
          (fill (type background))
        )
        (pin input line (at 2.54 -5.08 0) (length 2.54)
          (name "A0" (effects (font (size 1.016 1.016))))
          (number "1" (effects (font (size 1.016 1.016))))
        )
        (pin open_collector line (at 27.94 -12.7 180) (length 2.54)
          (name "~{OUT5}" (effects (font (size 1.016 1.016))))
          (number "10" (effects (font (size 1.016 1.016))))
        )
        (pin open_collector line (at 27.94 -15.24 180) (length 2.54)
          (name "~{OUT6}" (effects (font (size 1.016 1.016))))
          (number "11" (effects (font (size 1.016 1.016))))
        )
        (pin open_collector line (at 27.94 -17.78 180) (length 2.54)
          (name "~{OUT7}" (effects (font (size 1.016 1.016))))
          (number "12" (effects (font (size 1.016 1.016))))
        )
        (pin input line (at 2.54 -17.78 0) (length 2.54)
          (name "~{RESET}" (effects (font (size 1.016 1.016))))
          (number "13" (effects (font (size 1.016 1.016))))
        )
        (pin input clock (at 2.54 0 0) (length 2.54)
          (name "SCL" (effects (font (size 1.016 1.016))))
          (number "14" (effects (font (size 1.016 1.016))))
        )
        (pin bidirectional line (at 2.54 -2.54 0) (length 2.54)
          (name "SDA" (effects (font (size 1.016 1.016))))
          (number "15" (effects (font (size 1.016 1.016))))
        )
        (pin power_in line (at 2.54 -22.86 0) (length 2.54)
          (name "VCC" (effects (font (size 1.016 1.016))))
          (number "16" (effects (font (size 1.016 1.016))))
        )
        (pin input line (at 2.54 -7.62 0) (length 2.54)
          (name "A1" (effects (font (size 1.016 1.016))))
          (number "2" (effects (font (size 1.016 1.016))))
        )
        (pin input line (at 2.54 -10.16 0) (length 2.54)
          (name "A2" (effects (font (size 1.016 1.016))))
          (number "3" (effects (font (size 1.016 1.016))))
        )
        (pin open_collector line (at 27.94 0 180) (length 2.54)
          (name "~{OUT0}" (effects (font (size 1.016 1.016))))
          (number "4" (effects (font (size 1.016 1.016))))
        )
        (pin open_collector line (at 27.94 -2.54 180) (length 2.54)
          (name "~{OUT1}" (effects (font (size 1.016 1.016))))
          (number "5" (effects (font (size 1.016 1.016))))
        )
        (pin open_collector line (at 27.94 -5.08 180) (length 2.54)
          (name "~{OUT2}" (effects (font (size 1.016 1.016))))
          (number "6" (effects (font (size 1.016 1.016))))
        )
        (pin open_collector line (at 27.94 -7.62 180) (length 2.54)
          (name "~{OUT3}" (effects (font (size 1.016 1.016))))
          (number "7" (effects (font (size 1.016 1.016))))
        )
        (pin power_in line (at 27.94 -22.86 180) (length 2.54)
          (name "GND" (effects (font (size 1.016 1.016))))
          (number "8" (effects (font (size 1.016 1.016))))
        )
        (pin open_collector line (at 27.94 -10.16 180) (length 2.54)
          (name "~{OUT4}" (effects (font (size 1.016 1.016))))
          (number "9" (effects (font (size 1.016 1.016))))
        )
      )
    )
    (symbol "power:+3.3V" (power) (pin_names (offset 0)) (in_bom yes) (on_board yes)
      (property "Reference" "#PWR" (at 0 -3.81 0)
        (effects (font (size 1.27 1.27)) hide)
      )
      (property "Value" "+3.3V" (at 0 3.556 0)
        (effects (font (size 1.27 1.27)))
      )
      (property "Footprint" "" (at 0 0 0)
        (effects (font (size 1.27 1.27)) hide)
      )
      (property "Datasheet" "" (at 0 0 0)
        (effects (font (size 1.27 1.27)) hide)
      )
      (property "ki_keywords" "power-flag" (at 0 0 0)
        (effects (font (size 1.27 1.27)) hide)
      )
      (property "ki_description" "Power symbol creates a global label with name \"+3.3V\"" (at 0 0 0)
        (effects (font (size 1.27 1.27)) hide)
      )
      (symbol "+3.3V_0_1"
        (polyline
          (pts
            (xy -0.762 1.27)
            (xy 0 2.54)
          )
          (stroke (width 0) (type default))
          (fill (type none))
        )
        (polyline
          (pts
            (xy 0 0)
            (xy 0 2.54)
          )
          (stroke (width 0) (type default))
          (fill (type none))
        )
        (polyline
          (pts
            (xy 0 2.54)
            (xy 0.762 1.27)
          )
          (stroke (width 0) (type default))
          (fill (type none))
        )
      )
      (symbol "+3.3V_1_1"
        (pin power_in line (at 0 0 90) (length 0) hide
          (name "+3V3" (effects (font (size 1.27 1.27))))
          (number "1" (effects (font (size 1.27 1.27))))
        )
      )
    )
    (symbol "power:GND" (power) (pin_names (offset 0)) (in_bom yes) (on_board yes)
      (property "Reference" "#PWR" (at 0 -6.35 0)
        (effects (font (size 1.27 1.27)) hide)
      )
      (property "Value" "GND" (at 0 -3.81 0)
        (effects (font (size 1.27 1.27)))
      )
      (property "Footprint" "" (at 0 0 0)
        (effects (font (size 1.27 1.27)) hide)
      )
      (property "Datasheet" "" (at 0 0 0)
        (effects (font (size 1.27 1.27)) hide)
      )
      (property "ki_keywords" "power-flag" (at 0 0 0)
        (effects (font (size 1.27 1.27)) hide)
      )
      (property "ki_description" "Power symbol creates a global label with name \"GND\" , ground" (at 0 0 0)
        (effects (font (size 1.27 1.27)) hide)
      )
      (symbol "GND_0_1"
        (polyline
          (pts
            (xy 0 0)
            (xy 0 -1.27)
            (xy 1.27 -1.27)
            (xy 0 -2.54)
            (xy -1.27 -1.27)
            (xy 0 -1.27)
          )
          (stroke (width 0) (type default))
          (fill (type none))
        )
      )
      (symbol "GND_1_1"
        (pin power_in line (at 0 0 270) (length 0) hide
          (name "GND" (effects (font (size 1.27 1.27))))
          (number "1" (effects (font (size 1.27 1.27))))
        )
      )
    )
  )

  (junction (at 258.445 109.22) (diameter 0) (color 0 0 0 0)
    (uuid 18846966-8ffe-4d19-bba5-03c8a2a0a950)
  )
  (junction (at 258.445 53.34) (diameter 0) (color 0 0 0 0)
    (uuid 33bca19c-a926-4582-aa7e-c585019e24a8)
  )
  (junction (at 114.3 83.82) (diameter 0) (color 0 0 0 0)
    (uuid 8abc2923-a2d2-42a0-b618-b0f09490b6d6)
  )
  (junction (at 258.445 87.63) (diameter 0) (color 0 0 0 0)
    (uuid 8fe6ad48-30f9-4e8f-ae41-8012452fbc25)
  )
  (junction (at 258.445 64.77) (diameter 0) (color 0 0 0 0)
    (uuid 9e9fef86-c82a-4ae6-97bb-5de167baacdb)
  )
  (junction (at 96.52 99.06) (diameter 0) (color 0 0 0 0)
    (uuid a54e14a4-0a35-4c08-986a-c3cf1740d441)
  )
  (junction (at 258.445 76.2) (diameter 0) (color 0 0 0 0)
    (uuid a9f319d0-dbcd-4460-9338-c0deb0ed7f83)
  )
  (junction (at 258.445 119.38) (diameter 0) (color 0 0 0 0)
    (uuid d2fa213a-7806-4def-83b4-79a96366de73)
  )
  (junction (at 114.3 81.28) (diameter 0) (color 0 0 0 0)
    (uuid d9c44a5b-bc5a-44b0-afb6-f5f7b34d074c)
  )
  (junction (at 258.445 99.06) (diameter 0) (color 0 0 0 0)
    (uuid e1e3f4b7-5ab1-4161-a28c-1293d2198cfe)
  )

  (no_connect (at 120.65 91.44) (uuid c16f4aa3-49ba-4147-b21a-e51af154cc48))

  (wire (pts (xy 258.445 99.06) (xy 258.445 87.63))
    (stroke (width 0) (type default))
    (uuid 067a6cfe-740f-4c97-98ad-927a962b8474)
  )
  (wire (pts (xy 258.445 109.22) (xy 258.445 99.06))
    (stroke (width 0) (type default))
    (uuid 074bd301-e23c-4eb9-8746-cd39a1788b60)
  )
  (wire (pts (xy 110.49 76.2) (xy 120.65 76.2))
    (stroke (width 0) (type default))
    (uuid 09444ccc-335a-4c29-8ba9-12dc9323c2bf)
  )
  (wire (pts (xy 258.445 53.34) (xy 255.905 53.34))
    (stroke (width 0) (type default))
    (uuid 0b083b81-d81d-43f5-b3f4-a3870e333b98)
  )
  (wire (pts (xy 241.3 119.38) (xy 248.285 119.38))
    (stroke (width 0) (type default))
    (uuid 0bcbb0a1-f3b3-4f8a-9a1d-4fd2f4c0c59d)
  )
  (wire (pts (xy 146.05 96.52) (xy 146.05 104.775))
    (stroke (width 0) (type default))
    (uuid 0e8605fa-ae4b-4dc4-bef6-4ebcb76a737c)
  )
  (wire (pts (xy 226.06 129.54) (xy 233.68 129.54))
    (stroke (width 0) (type default))
    (uuid 11cf637c-4cdd-45b3-873b-e65bdcdabdf6)
  )
  (wire (pts (xy 241.3 129.54) (xy 248.285 129.54))
    (stroke (width 0) (type default))
    (uuid 13720999-ab5a-4017-be73-29341fa977d3)
  )
  (wire (pts (xy 114.3 78.74) (xy 114.3 81.28))
    (stroke (width 0) (type default))
    (uuid 14864a3e-e5c5-421c-8faf-a287e94cb44c)
  )
  (wire (pts (xy 114.3 83.82) (xy 120.65 83.82))
    (stroke (width 0) (type default))
    (uuid 1761d91f-81e1-47d2-ae1a-ac358499b047)
  )
  (wire (pts (xy 107.95 73.66) (xy 120.65 73.66))
    (stroke (width 0) (type default))
    (uuid 1defbfd8-c641-4504-b87c-a45048c7f74c)
  )
  (wire (pts (xy 120.65 78.74) (xy 114.3 78.74))
    (stroke (width 0) (type default))
    (uuid 35ff2634-4fcc-4f3d-85f6-7ce1ec766a6f)
  )
  (wire (pts (xy 110.49 96.52) (xy 110.49 76.2))
    (stroke (width 0) (type default))
    (uuid 408575c3-3aed-426b-aa97-7de6ef2f68e0)
  )
  (wire (pts (xy 114.3 81.28) (xy 114.3 83.82))
    (stroke (width 0) (type default))
    (uuid 452dd705-a977-407b-b99d-c6b2cc6becd3)
  )
  (wire (pts (xy 96.52 68.58) (xy 96.52 99.06))
    (stroke (width 0) (type default))
    (uuid 4ffd7a8e-4041-41db-bdb0-f5570448f0cc)
  )
  (wire (pts (xy 226.06 109.22) (xy 233.68 109.22))
    (stroke (width 0) (type default))
    (uuid 53546d62-bcb7-4b42-8fb8-22ea9365090f)
  )
  (wire (pts (xy 96.52 99.06) (xy 96.52 121.92))
    (stroke (width 0) (type default))
    (uuid 5deabb1a-adfb-4358-ada3-51a4d33fb3a5)
  )
  (wire (pts (xy 114.3 83.82) (xy 114.3 105.41))
    (stroke (width 0) (type default))
    (uuid 60f6c143-ff2c-43f8-bc73-6a950741becf)
  )
  (wire (pts (xy 241.3 109.22) (xy 248.285 109.22))
    (stroke (width 0) (type default))
    (uuid 61dbea2e-82a9-4eaa-882b-cebc1ab68423)
  )
  (wire (pts (xy 258.445 64.77) (xy 258.445 53.34))
    (stroke (width 0) (type default))
    (uuid 64d449d7-97ed-4703-8fc3-cb70dac3483f)
  )
  (wire (pts (xy 226.06 119.38) (xy 233.68 119.38))
    (stroke (width 0) (type default))
    (uuid 65634078-0293-4bff-8d69-26f09b240100)
  )
  (wire (pts (xy 258.445 119.38) (xy 255.905 119.38))
    (stroke (width 0) (type default))
    (uuid 703624fe-b513-41fe-8f55-1fe8de97703d)
  )
  (wire (pts (xy 226.06 64.77) (xy 233.68 64.77))
    (stroke (width 0) (type default))
    (uuid 70d07a0a-2bfa-4da7-9650-3eda164c0c20)
  )
  (wire (pts (xy 63.5 93.98) (xy 107.95 93.98))
    (stroke (width 0) (type default))
    (uuid 81f94693-3b94-4f3c-91d2-6a2553fa4f9f)
  )
  (wire (pts (xy 258.445 40.005) (xy 258.445 53.34))
    (stroke (width 0) (type default))
    (uuid 83cdc7e9-84cf-416f-9043-7b7a11aefacb)
  )
  (wire (pts (xy 226.06 87.63) (xy 233.68 87.63))
    (stroke (width 0) (type default))
    (uuid 89a4cc40-c576-4c2d-a92a-a10507b74efa)
  )
  (wire (pts (xy 258.445 129.54) (xy 258.445 119.38))
    (stroke (width 0) (type default))
    (uuid 8a89fe98-49f6-47b6-b7c0-5bf1c6862f12)
  )
  (wire (pts (xy 96.52 129.54) (xy 96.52 131.445))
    (stroke (width 0) (type default))
    (uuid 917d5377-6a72-4d00-8918-31cf9fefd404)
  )
  (wire (pts (xy 258.445 64.77) (xy 255.905 64.77))
    (stroke (width 0) (type default))
    (uuid 918528f9-3820-428a-a8cd-9221af4c06a3)
  )
  (wire (pts (xy 258.445 87.63) (xy 258.445 76.2))
    (stroke (width 0) (type default))
    (uuid 92f313c8-cb88-4e7f-8807-d2db87a08f15)
  )
  (wire (pts (xy 241.3 64.77) (xy 248.285 64.77))
    (stroke (width 0) (type default))
    (uuid 93b715d0-cae0-4a1b-a0b6-32a1fb3503b1)
  )
  (wire (pts (xy 258.445 129.54) (xy 255.905 129.54))
    (stroke (width 0) (type default))
    (uuid 9f468633-90a8-4dba-a0e3-9cf1b962b37d)
  )
  (wire (pts (xy 241.3 99.06) (xy 248.285 99.06))
    (stroke (width 0) (type default))
    (uuid a1f8a43f-b600-4e92-b6e7-7c6cc3359357)
  )
  (wire (pts (xy 258.445 109.22) (xy 255.905 109.22))
    (stroke (width 0) (type default))
    (uuid a78cb8a5-fd81-4136-995a-0e7ca3619782)
  )
  (wire (pts (xy 241.3 87.63) (xy 248.285 87.63))
    (stroke (width 0) (type default))
    (uuid a9a849b2-b6ae-4a91-b5c8-edd748d51a3e)
  )
  (wire (pts (xy 120.65 99.06) (xy 96.52 99.06))
    (stroke (width 0) (type default))
    (uuid a9d1fbc2-1329-488a-9ff2-a07b6d6845a2)
  )
  (wire (pts (xy 120.65 81.28) (xy 114.3 81.28))
    (stroke (width 0) (type default))
    (uuid ae2c2577-85b9-488a-bbc4-866232c3d118)
  )
  (wire (pts (xy 120.65 96.52) (xy 120.65 99.06))
    (stroke (width 0) (type default))
    (uuid b8e8f0ac-64c2-449d-81ba-aec95765cdd3)
  )
  (wire (pts (xy 258.445 99.06) (xy 255.905 99.06))
    (stroke (width 0) (type default))
    (uuid bbdc68c7-50a5-452a-887e-b80055ad1157)
  )
  (wire (pts (xy 226.06 53.34) (xy 233.68 53.34))
    (stroke (width 0) (type default))
    (uuid ccfde623-60c0-46e1-9902-34c96dcba378)
  )
  (wire (pts (xy 226.06 99.06) (xy 233.68 99.06))
    (stroke (width 0) (type default))
    (uuid d3f3fcd9-312c-4c2b-823e-b359b2c3f13f)
  )
  (wire (pts (xy 241.3 53.34) (xy 248.285 53.34))
    (stroke (width 0) (type default))
    (uuid dd0afbe2-87b9-46d1-9823-776704b22fe7)
  )
  (wire (pts (xy 107.95 93.98) (xy 107.95 73.66))
    (stroke (width 0) (type default))
    (uuid ddc1e686-c723-40c0-ac29-30db7087a56c)
  )
  (wire (pts (xy 226.06 76.2) (xy 233.68 76.2))
    (stroke (width 0) (type default))
    (uuid df840cf8-ef10-40cf-b90e-759009b8e1ff)
  )
  (wire (pts (xy 258.445 76.2) (xy 255.905 76.2))
    (stroke (width 0) (type default))
    (uuid df93d791-8a79-437a-b5ea-e96d471e8093)
  )
  (wire (pts (xy 63.5 96.52) (xy 110.49 96.52))
    (stroke (width 0) (type default))
    (uuid e68f4f7c-b271-4e97-ba4d-e2fdefc2f1aa)
  )
  (wire (pts (xy 258.445 76.2) (xy 258.445 64.77))
    (stroke (width 0) (type default))
    (uuid e7850a8c-3f31-439a-b963-71a4c9f12bc0)
  )
  (wire (pts (xy 241.3 76.2) (xy 248.285 76.2))
    (stroke (width 0) (type default))
    (uuid f3891f32-d8f5-4f12-a620-de2a95ce89bb)
  )
  (wire (pts (xy 258.445 87.63) (xy 255.905 87.63))
    (stroke (width 0) (type default))
    (uuid f930a182-b2d5-4c81-81c9-905795e16964)
  )
  (wire (pts (xy 258.445 119.38) (xy 258.445 109.22))
    (stroke (width 0) (type default))
    (uuid fc3afc20-c7a8-4bba-8ff2-950d4e00d5fd)
  )

  (text "940nm digikey XZTNI55W-3\n1050nm digikey MTSM5010-843-IR\n1200nm digikey MTSM0012-844-IR\n1300nm digikey MTSM0013-844-IR\n1460nm digikey MTSM6014-844-IR\n1550nm digikey MTSM5015-844-IR\n1650nm digikey MTSM5016-843-IR\n1720nm starsealand \nhttps://www.starsealand-uvir.com/smd-led\n/1206-dome-lens-smd-led/1206-1720nm\n-infrared-dome-lens-smd-diode.html\n"
    (at 167.64 74.93 0)
    (effects (font (size 1.27 1.27)) (justify left bottom))
    (uuid 8b6e08c0-0edf-49b9-9523-7a523e31d54f)
  )

  (global_label "LED2" (shape input) (at 226.06 64.77 180) (fields_autoplaced)
    (effects (font (size 1.27 1.27)) (justify right))
    (uuid 04c85156-b024-477b-b86c-48d794cf7a1a)
    (property "Intersheetrefs" "${INTERSHEET_REFS}" (at 218.4976 64.77 0)
      (effects (font (size 1.27 1.27)) (justify right) hide)
    )
  )
  (global_label "LED7" (shape input) (at 146.05 88.9 0) (fields_autoplaced)
    (effects (font (size 1.27 1.27)) (justify left))
    (uuid 116b07cd-3fdc-4fb5-a18f-dae437c914a0)
    (property "Intersheetrefs" "${INTERSHEET_REFS}" (at 153.6124 88.9 0)
      (effects (font (size 1.27 1.27)) (justify left) hide)
    )
  )
  (global_label "LED4" (shape input) (at 187.96 114.3 0) (fields_autoplaced)
    (effects (font (size 1.27 1.27)) (justify left))
    (uuid 16a060ce-e688-4f99-b3a5-1ca952688f05)
    (property "Intersheetrefs" "${INTERSHEET_REFS}" (at 195.5224 114.3 0)
      (effects (font (size 1.27 1.27)) (justify left) hide)
    )
  )
  (global_label "LED7" (shape input) (at 226.06 119.38 180) (fields_autoplaced)
    (effects (font (size 1.27 1.27)) (justify right))
    (uuid 1dbf1972-cea7-4e3f-b0bd-43c3670861ba)
    (property "Intersheetrefs" "${INTERSHEET_REFS}" (at 218.4976 119.38 0)
      (effects (font (size 1.27 1.27)) (justify right) hide)
    )
  )
  (global_label "LED3" (shape input) (at 146.05 78.74 0) (fields_autoplaced)
    (effects (font (size 1.27 1.27)) (justify left))
    (uuid 2307dfcc-fc73-49f6-ad5b-dadb4b47f0be)
    (property "Intersheetrefs" "${INTERSHEET_REFS}" (at 153.6124 78.74 0)
      (effects (font (size 1.27 1.27)) (justify left) hide)
    )
  )
  (global_label "LED5" (shape input) (at 187.96 127 0) (fields_autoplaced)
    (effects (font (size 1.27 1.27)) (justify left))
    (uuid 31adabd5-2cbb-4aa9-985b-689af21e7aa2)
    (property "Intersheetrefs" "${INTERSHEET_REFS}" (at 195.5224 127 0)
      (effects (font (size 1.27 1.27)) (justify left) hide)
    )
  )
  (global_label "LED3" (shape input) (at 187.96 111.76 0) (fields_autoplaced)
    (effects (font (size 1.27 1.27)) (justify left))
    (uuid 326fc2af-e9ba-4581-accd-e09d32f45881)
    (property "Intersheetrefs" "${INTERSHEET_REFS}" (at 195.5224 111.76 0)
      (effects (font (size 1.27 1.27)) (justify left) hide)
    )
  )
  (global_label "LED1" (shape input) (at 226.06 53.34 180) (fields_autoplaced)
    (effects (font (size 1.27 1.27)) (justify right))
    (uuid 370101e6-60da-4773-a155-26dcf2dad99d)
    (property "Intersheetrefs" "${INTERSHEET_REFS}" (at 218.4976 53.34 0)
      (effects (font (size 1.27 1.27)) (justify right) hide)
    )
  )
  (global_label "LED6" (shape input) (at 226.06 109.22 180) (fields_autoplaced)
    (effects (font (size 1.27 1.27)) (justify right))
    (uuid 376d9dd1-5261-496d-a906-348873ea0302)
    (property "Intersheetrefs" "${INTERSHEET_REFS}" (at 218.4976 109.22 0)
      (effects (font (size 1.27 1.27)) (justify right) hide)
    )
  )
  (global_label "LED2" (shape input) (at 146.05 76.2 0) (fields_autoplaced)
    (effects (font (size 1.27 1.27)) (justify left))
    (uuid 4395868e-251f-4cb1-881b-5eb3e7a0da42)
    (property "Intersheetrefs" "${INTERSHEET_REFS}" (at 153.6124 76.2 0)
      (effects (font (size 1.27 1.27)) (justify left) hide)
    )
  )
  (global_label "LED2" (shape input) (at 187.96 109.22 0) (fields_autoplaced)
    (effects (font (size 1.27 1.27)) (justify left))
    (uuid 4e042ee7-a4cc-468f-8220-68effbc5d153)
    (property "Intersheetrefs" "${INTERSHEET_REFS}" (at 195.5224 109.22 0)
      (effects (font (size 1.27 1.27)) (justify left) hide)
    )
  )
  (global_label "LED1" (shape input) (at 187.96 106.68 0) (fields_autoplaced)
    (effects (font (size 1.27 1.27)) (justify left))
    (uuid 576b0809-7bc4-4baa-b473-8538797fa4b5)
    (property "Intersheetrefs" "${INTERSHEET_REFS}" (at 195.5224 106.68 0)
      (effects (font (size 1.27 1.27)) (justify left) hide)
    )
  )
  (global_label "LED8" (shape input) (at 226.06 129.54 180) (fields_autoplaced)
    (effects (font (size 1.27 1.27)) (justify right))
    (uuid 68a6692b-6bde-4fc0-abf6-cbfe21b9d3fd)
    (property "Intersheetrefs" "${INTERSHEET_REFS}" (at 218.4976 129.54 0)
      (effects (font (size 1.27 1.27)) (justify right) hide)
    )
  )
  (global_label "LED4" (shape input) (at 146.05 81.28 0) (fields_autoplaced)
    (effects (font (size 1.27 1.27)) (justify left))
    (uuid 722653b7-4767-43f8-adf7-a5012b2ff709)
    (property "Intersheetrefs" "${INTERSHEET_REFS}" (at 153.6124 81.28 0)
      (effects (font (size 1.27 1.27)) (justify left) hide)
    )
  )
  (global_label "LED8" (shape input) (at 187.96 134.62 0) (fields_autoplaced)
    (effects (font (size 1.27 1.27)) (justify left))
    (uuid 7fcd7afa-3593-4bbe-985a-f35fb2db864b)
    (property "Intersheetrefs" "${INTERSHEET_REFS}" (at 195.5224 134.62 0)
      (effects (font (size 1.27 1.27)) (justify left) hide)
    )
  )
  (global_label "LED8" (shape input) (at 146.05 91.44 0) (fields_autoplaced)
    (effects (font (size 1.27 1.27)) (justify left))
    (uuid 80547269-7406-4124-8379-b952d2068ae0)
    (property "Intersheetrefs" "${INTERSHEET_REFS}" (at 153.6124 91.44 0)
      (effects (font (size 1.27 1.27)) (justify left) hide)
    )
  )
  (global_label "LED6" (shape input) (at 146.05 86.36 0) (fields_autoplaced)
    (effects (font (size 1.27 1.27)) (justify left))
    (uuid 8cf8b212-68d3-4e7f-a4e7-c1f41c8b5cdc)
    (property "Intersheetrefs" "${INTERSHEET_REFS}" (at 153.6124 86.36 0)
      (effects (font (size 1.27 1.27)) (justify left) hide)
    )
  )
  (global_label "LED6" (shape input) (at 187.96 129.54 0) (fields_autoplaced)
    (effects (font (size 1.27 1.27)) (justify left))
    (uuid 8ebd445f-2341-4c20-b6d1-4c2df74db338)
    (property "Intersheetrefs" "${INTERSHEET_REFS}" (at 195.5224 129.54 0)
      (effects (font (size 1.27 1.27)) (justify left) hide)
    )
  )
  (global_label "LED4" (shape input) (at 226.06 87.63 180) (fields_autoplaced)
    (effects (font (size 1.27 1.27)) (justify right))
    (uuid 90235304-0027-42a5-b7c6-25dcd9ed0c96)
    (property "Intersheetrefs" "${INTERSHEET_REFS}" (at 218.4976 87.63 0)
      (effects (font (size 1.27 1.27)) (justify right) hide)
    )
  )
  (global_label "LED1" (shape input) (at 146.05 73.66 0) (fields_autoplaced)
    (effects (font (size 1.27 1.27)) (justify left))
    (uuid 9fe30b58-4500-4795-a724-67beda5f4a94)
    (property "Intersheetrefs" "${INTERSHEET_REFS}" (at 153.6124 73.66 0)
      (effects (font (size 1.27 1.27)) (justify left) hide)
    )
  )
  (global_label "LED5" (shape input) (at 146.05 83.82 0) (fields_autoplaced)
    (effects (font (size 1.27 1.27)) (justify left))
    (uuid a4cc1b82-1213-4ea8-8c2d-8372542cfc03)
    (property "Intersheetrefs" "${INTERSHEET_REFS}" (at 153.6124 83.82 0)
      (effects (font (size 1.27 1.27)) (justify left) hide)
    )
  )
  (global_label "LED7" (shape input) (at 187.96 132.08 0) (fields_autoplaced)
    (effects (font (size 1.27 1.27)) (justify left))
    (uuid beb76fec-b0d3-48fc-99f0-963148e7ee44)
    (property "Intersheetrefs" "${INTERSHEET_REFS}" (at 195.5224 132.08 0)
      (effects (font (size 1.27 1.27)) (justify left) hide)
    )
  )
  (global_label "SCL" (shape bidirectional) (at 63.5 93.98 180) (fields_autoplaced)
    (effects (font (size 1.27 1.27)) (justify right))
    (uuid da08db24-6659-49e6-bf66-228dabe6d7e7)
    (property "Intersheetrefs" "${INTERSHEET_REFS}" (at 55.9753 93.98 0)
      (effects (font (size 1.27 1.27)) (justify right) hide)
    )
  )
  (global_label "SDA" (shape bidirectional) (at 63.5 96.52 180) (fields_autoplaced)
    (effects (font (size 1.27 1.27)) (justify right))
    (uuid e43a8dcd-5db0-44f0-a210-ab9db76e6949)
    (property "Intersheetrefs" "${INTERSHEET_REFS}" (at 55.9148 96.52 0)
      (effects (font (size 1.27 1.27)) (justify right) hide)
    )
  )
  (global_label "LED3" (shape input) (at 226.06 76.2 180) (fields_autoplaced)
    (effects (font (size 1.27 1.27)) (justify right))
    (uuid ebbfc7b7-d9d1-490e-8db1-90dcd6baf79e)
    (property "Intersheetrefs" "${INTERSHEET_REFS}" (at 218.4976 76.2 0)
      (effects (font (size 1.27 1.27)) (justify right) hide)
    )
  )
  (global_label "LED5" (shape input) (at 226.06 99.06 180) (fields_autoplaced)
    (effects (font (size 1.27 1.27)) (justify right))
    (uuid f69b9bce-41a7-480e-88fc-3426b6f82982)
    (property "Intersheetrefs" "${INTERSHEET_REFS}" (at 218.4976 99.06 0)
      (effects (font (size 1.27 1.27)) (justify right) hide)
    )
  )

  (symbol (lib_id "Device:LED") (at 252.095 99.06 0) (unit 1)
    (in_bom yes) (on_board yes) (dnp no) (fields_autoplaced)
    (uuid 1ea65141-3dcf-4489-9028-27f756bf783f)
    (property "Reference" "D7" (at 250.5075 92.71 0)
      (effects (font (size 1.27 1.27)))
    )
    (property "Value" "1460nm" (at 250.5075 95.25 0)
      (effects (font (size 1.27 1.27)))
    )
    (property "Footprint" "LED_SMD:LED_1206_3216Metric_Pad1.42x1.75mm_HandSolder" (at 252.095 99.06 0)
      (effects (font (size 1.27 1.27)) hide)
    )
    (property "Datasheet" "https://marktechopto.com/pdf/products/DataSheet/MTSM0013-844-IR.pdf" (at 252.095 99.06 0)
      (effects (font (size 1.27 1.27)) hide)
    )
    (pin "1" (uuid d5b031a3-77c5-492d-99fc-ff76e5df89b3))
    (pin "2" (uuid 7df81421-2a78-4ff3-8b16-2bfbaedf9d2f))
    (instances
      (project "PCB KiCad"
        (path "/a818e058-3544-4da8-96fb-1a428660711f/2f10b7a1-df61-45b4-9fd1-1ebf21b41a15"
          (reference "D7") (unit 1)
        )
      )
    )
  )

  (symbol (lib_id "Device:R") (at 237.49 129.54 90) (unit 1)
    (in_bom yes) (on_board yes) (dnp no)
    (uuid 2635c8f0-f7ca-4651-b9ad-0eca056ec380)
    (property "Reference" "R15" (at 235.585 126.365 90)
      (effects (font (size 1.27 1.27)))
    )
    (property "Value" "47" (at 240.03 126.365 90)
      (effects (font (size 1.27 1.27)))
    )
    (property "Footprint" "Resistor_SMD:R_0805_2012Metric_Pad1.20x1.40mm_HandSolder" (at 237.49 131.318 90)
      (effects (font (size 1.27 1.27)) hide)
    )
    (property "Datasheet" "~" (at 237.49 129.54 0)
      (effects (font (size 1.27 1.27)) hide)
    )
    (pin "1" (uuid 25a4a0b9-345f-4c9d-88f4-5c7d8da8cc61))
    (pin "2" (uuid 83590bdd-3225-44b0-a795-34cc1943ffb9))
    (instances
      (project "PCB KiCad"
        (path "/a818e058-3544-4da8-96fb-1a428660711f/2f10b7a1-df61-45b4-9fd1-1ebf21b41a15"
          (reference "R15") (unit 1)
        )
      )
    )
  )

  (symbol (lib_id "TLC59208:TLC59208FIPWR") (at 118.11 73.66 0) (unit 1)
    (in_bom yes) (on_board yes) (dnp no) (fields_autoplaced)
    (uuid 2a52b823-23f1-4c7a-a79c-5b6b6cb96e52)
    (property "Reference" "U3" (at 133.35 67.31 0)
      (effects (font (size 1.27 1.27)))
    )
    (property "Value" "TLC59208FIPWR" (at 133.35 69.85 0)
      (effects (font (size 1.27 1.27)))
    )
    (property "Footprint" "TLC59208:Texas_Instruments-TLC59208FIPWR-Level_A" (at 118.11 63.5 0)
      (effects (font (size 1.27 1.27)) (justify left) hide)
    )
    (property "Datasheet" "http://www.ti.com/general/docs/lit/getliterature.tsp?genericPartNumber=TLC59208F&fileType=pdf" (at 118.11 60.96 0)
      (effects (font (size 1.27 1.27)) (justify left) hide)
    )
    (property "Code  JEDEC" "MO-153" (at 118.11 58.42 0)
      (effects (font (size 1.27 1.27)) (justify left) hide)
    )
    (property "Component Link 1 Description" "Manufacturer URL" (at 118.11 55.88 0)
      (effects (font (size 1.27 1.27)) (justify left) hide)
    )
    (property "Component Link 1 URL" "http://www.ti.com/" (at 118.11 53.34 0)
      (effects (font (size 1.27 1.27)) (justify left) hide)
    )
    (property "Component Link 3 Description" "Package Specification" (at 118.11 50.8 0)
      (effects (font (size 1.27 1.27)) (justify left) hide)
    )
    (property "Component Link 3 URL" "http://www.ti.com/lit/ml/mpds361/mpds361.pdf" (at 118.11 48.26 0)
      (effects (font (size 1.27 1.27)) (justify left) hide)
    )
    (property "Datasheet Version" "SCLS715" (at 118.11 45.72 0)
      (effects (font (size 1.27 1.27)) (justify left) hide)
    )
    (property "Iout Max A" "0.05" (at 118.11 43.18 0)
      (effects (font (size 1.27 1.27)) (justify left) hide)
    )
    (property "Mounting Technology" "Surface Mount" (at 118.11 40.64 0)
      (effects (font (size 1.27 1.27)) (justify left) hide)
    )
    (property "Package Description" "16-Pin Plastic Small Outline, Body 4.40 x 5.00 mm, Pitch 0.65 mm" (at 118.11 38.1 0)
      (effects (font (size 1.27 1.27)) (justify left) hide)
    )
    (property "Package Version" "4040064-4/G" (at 118.11 35.56 0)
      (effects (font (size 1.27 1.27)) (justify left) hide)
    )
    (property "Sub Family" "LED Driver" (at 118.11 33.02 0)
      (effects (font (size 1.27 1.27)) (justify left) hide)
    )
    (property "Vin Max V" "5.5" (at 118.11 30.48 0)
      (effects (font (size 1.27 1.27)) (justify left) hide)
    )
    (property "Vin Min V" "3" (at 118.11 27.94 0)
      (effects (font (size 1.27 1.27)) (justify left) hide)
    )
    (property "category" "IC" (at 118.11 25.4 0)
      (effects (font (size 1.27 1.27)) (justify left) hide)
    )
    (property "ciiva ids" "1426985" (at 118.11 22.86 0)
      (effects (font (size 1.27 1.27)) (justify left) hide)
    )
    (property "library id" "9bf7f104929dd8ed" (at 118.11 20.32 0)
      (effects (font (size 1.27 1.27)) (justify left) hide)
    )
    (property "manufacturer" "Texas Instruments" (at 118.11 17.78 0)
      (effects (font (size 1.27 1.27)) (justify left) hide)
    )
    (property "package" "PW0016A" (at 118.11 15.24 0)
      (effects (font (size 1.27 1.27)) (justify left) hide)
    )
    (property "release date" "1464576871" (at 118.11 12.7 0)
      (effects (font (size 1.27 1.27)) (justify left) hide)
    )
    (property "rohs" "Yes" (at 118.11 10.16 0)
      (effects (font (size 1.27 1.27)) (justify left) hide)
    )
    (property "vault revision" "C0AC1098-4EF5-4502-9510-91D6A29A40EB" (at 118.11 7.62 0)
      (effects (font (size 1.27 1.27)) (justify left) hide)
    )
    (property "imported" "yes" (at 118.11 5.08 0)
      (effects (font (size 1.27 1.27)) (justify left) hide)
    )
    (pin "1" (uuid 4fc9643f-e66e-4040-b7f9-f41ad3118616))
    (pin "10" (uuid 5daf4101-e617-44df-aad3-f32c5a756eef))
    (pin "11" (uuid 2cfcf7d2-76db-4379-b4f0-ed25e00ae397))
    (pin "12" (uuid d508f726-804c-4afa-b7a4-045077bc78c0))
    (pin "13" (uuid 9bbb94b8-169b-4be4-987c-bc54628a6295))
    (pin "14" (uuid a7f2c94c-2120-4a32-9753-c80963770a2e))
    (pin "15" (uuid 8c265050-2a97-430b-a122-6d6ccbb48928))
    (pin "16" (uuid 93281688-bd8b-4d6b-b048-87b7b071770f))
    (pin "2" (uuid 4d50e709-6cc3-4507-b8a3-7a05c8d0405b))
    (pin "3" (uuid dcdf50c7-89ec-4998-b56f-9167fe971629))
    (pin "4" (uuid df27bcb5-99bb-4c55-90e4-529d71db9203))
    (pin "5" (uuid 0cb1dfad-7941-44df-a5e2-70f586fe3c5f))
    (pin "6" (uuid dacee3f7-3542-4b61-a1d0-36c2b0dea138))
    (pin "7" (uuid c4315fc8-cb54-45c4-883a-4c09e1647e3b))
    (pin "8" (uuid be5e9df6-49a3-4b06-86c3-625f5f0cae33))
    (pin "9" (uuid 6364f069-4632-41fb-9898-75966e633c78))
    (instances
      (project "PCB KiCad"
        (path "/a818e058-3544-4da8-96fb-1a428660711f/2f10b7a1-df61-45b4-9fd1-1ebf21b41a15"
          (reference "U3") (unit 1)
        )
      )
    )
  )

  (symbol (lib_id "Device:R") (at 237.49 64.77 90) (unit 1)
    (in_bom yes) (on_board yes) (dnp no)
    (uuid 4008fa99-3130-46bb-adb1-c683da78fbea)
    (property "Reference" "R9" (at 235.585 61.595 90)
      (effects (font (size 1.27 1.27)))
    )
    (property "Value" "47" (at 240.03 61.595 90)
      (effects (font (size 1.27 1.27)))
    )
    (property "Footprint" "Resistor_SMD:R_0805_2012Metric_Pad1.20x1.40mm_HandSolder" (at 237.49 66.548 90)
      (effects (font (size 1.27 1.27)) hide)
    )
    (property "Datasheet" "~" (at 237.49 64.77 0)
      (effects (font (size 1.27 1.27)) hide)
    )
    (pin "1" (uuid 62a9f5d0-6138-47f7-8321-bb4c292b3299))
    (pin "2" (uuid 65457ec6-00bc-4901-908f-f4dafa40d652))
    (instances
      (project "PCB KiCad"
        (path "/a818e058-3544-4da8-96fb-1a428660711f/2f10b7a1-df61-45b4-9fd1-1ebf21b41a15"
          (reference "R9") (unit 1)
        )
      )
    )
  )

  (symbol (lib_id "Connector_Generic:Conn_01x04") (at 182.88 129.54 0) (mirror y) (unit 1)
    (in_bom yes) (on_board yes) (dnp no)
    (uuid 4b8717db-e582-4386-aee9-357e73806431)
    (property "Reference" "J4" (at 180.34 130.175 0)
      (effects (font (size 1.27 1.27)) (justify left))
    )
    (property "Value" "Conn_01x04" (at 180.34 132.715 0)
      (effects (font (size 1.27 1.27)) (justify left))
    )
    (property "Footprint" "Connector_PinSocket_2.54mm:PinSocket_1x04_P2.54mm_Vertical" (at 182.88 129.54 0)
      (effects (font (size 1.27 1.27)) hide)
    )
    (property "Datasheet" "~" (at 182.88 129.54 0)
      (effects (font (size 1.27 1.27)) hide)
    )
    (pin "1" (uuid 438a1fe3-cf0e-4103-a220-3fe11f9a670b))
    (pin "2" (uuid 335174df-e836-4ee5-b1e9-55cd44e91d12))
    (pin "3" (uuid b4fe21d4-3078-4fc7-92e8-ecaae54b5d9c))
    (pin "4" (uuid 688191eb-75d6-4f45-b53c-ca1623ea53bd))
    (instances
      (project "PCB KiCad"
        (path "/a818e058-3544-4da8-96fb-1a428660711f/2f10b7a1-df61-45b4-9fd1-1ebf21b41a15"
          (reference "J4") (unit 1)
        )
      )
    )
  )

  (symbol (lib_id "Device:C") (at 96.52 125.73 0) (unit 1)
    (in_bom yes) (on_board yes) (dnp no)
    (uuid 6e8fd346-d1f3-451f-b550-8c486d0019dd)
    (property "Reference" "C14" (at 88.9 123.19 0)
      (effects (font (size 1.27 1.27)) (justify left))
    )
    (property "Value" "100n" (at 88.9 125.73 0)
      (effects (font (size 1.27 1.27)) (justify left))
    )
    (property "Footprint" "Capacitor_SMD:C_0805_2012Metric_Pad1.18x1.45mm_HandSolder" (at 97.4852 129.54 0)
      (effects (font (size 1.27 1.27)) hide)
    )
    (property "Datasheet" "~" (at 96.52 125.73 0)
      (effects (font (size 1.27 1.27)) hide)
    )
    (pin "1" (uuid bd40761a-54aa-42fc-83cd-6dc66256ff78))
    (pin "2" (uuid 3098c021-b75e-4753-95e1-03412a80c093))
    (instances
      (project "PCB KiCad"
        (path "/a818e058-3544-4da8-96fb-1a428660711f/2f10b7a1-df61-45b4-9fd1-1ebf21b41a15"
          (reference "C14") (unit 1)
        )
      )
    )
  )

  (symbol (lib_id "Device:LED") (at 252.095 109.22 0) (unit 1)
    (in_bom yes) (on_board yes) (dnp no) (fields_autoplaced)
    (uuid 788e9790-6712-4408-9cd8-bda39baf511b)
    (property "Reference" "D8" (at 250.5075 102.87 0)
      (effects (font (size 1.27 1.27)))
    )
    (property "Value" "1550nm" (at 250.5075 105.41 0)
      (effects (font (size 1.27 1.27)))
    )
    (property "Footprint" "LED_SMD:LED_1206_3216Metric_Pad1.42x1.75mm_HandSolder" (at 252.095 109.22 0)
      (effects (font (size 1.27 1.27)) hide)
    )
    (property "Datasheet" "https://marktechopto.com/pdf/products/datasheet/MTSM6014-844-IR.pdf" (at 252.095 109.22 0)
      (effects (font (size 1.27 1.27)) hide)
    )
    (pin "1" (uuid 78d71c8f-920d-4b25-8328-b2a18b880b37))
    (pin "2" (uuid 9ad560c1-b86f-40ab-bccb-0e63a7e52d76))
    (instances
      (project "PCB KiCad"
        (path "/a818e058-3544-4da8-96fb-1a428660711f/2f10b7a1-df61-45b4-9fd1-1ebf21b41a15"
          (reference "D8") (unit 1)
        )
      )
    )
  )

  (symbol (lib_id "power:GND") (at 114.3 105.41 0) (unit 1)
    (in_bom yes) (on_board yes) (dnp no) (fields_autoplaced)
    (uuid 7ec5d68c-eff3-4877-b075-4ecad8c8f20b)
    (property "Reference" "#PWR016" (at 114.3 111.76 0)
      (effects (font (size 1.27 1.27)) hide)
    )
    (property "Value" "GND" (at 114.3 110.49 0)
      (effects (font (size 1.27 1.27)))
    )
    (property "Footprint" "" (at 114.3 105.41 0)
      (effects (font (size 1.27 1.27)) hide)
    )
    (property "Datasheet" "" (at 114.3 105.41 0)
      (effects (font (size 1.27 1.27)) hide)
    )
    (pin "1" (uuid 0f993841-f861-443f-8cf5-e8ea23bae034))
    (instances
      (project "PCB KiCad"
        (path "/a818e058-3544-4da8-96fb-1a428660711f/2f10b7a1-df61-45b4-9fd1-1ebf21b41a15"
          (reference "#PWR016") (unit 1)
        )
      )
    )
  )

  (symbol (lib_id "Device:LED") (at 252.095 53.34 0) (unit 1)
    (in_bom yes) (on_board yes) (dnp no) (fields_autoplaced)
    (uuid 7f56debb-30f6-410f-9c19-79cb666f45ae)
    (property "Reference" "D3" (at 250.5075 46.99 0)
      (effects (font (size 1.27 1.27)))
    )
    (property "Value" "940nm" (at 250.5075 49.53 0)
      (effects (font (size 1.27 1.27)))
    )
    (property "Footprint" "LED_SMD:LED_1206_3216Metric_Pad1.42x1.75mm_HandSolder" (at 252.095 53.34 0)
      (effects (font (size 1.27 1.27)) hide)
    )
    (property "Datasheet" "https://nl.rs-online.com/web/p/ir-leds/1736298/" (at 252.095 53.34 0)
      (effects (font (size 1.27 1.27)) hide)
    )
    (pin "1" (uuid 63c94630-4e1b-4e7e-96a0-e5f1e659ca0d))
    (pin "2" (uuid f8f26424-bd3d-4ea9-a701-7a2a13367679))
    (instances
      (project "PCB KiCad"
        (path "/a818e058-3544-4da8-96fb-1a428660711f/2f10b7a1-df61-45b4-9fd1-1ebf21b41a15"
          (reference "D3") (unit 1)
        )
      )
    )
  )

  (symbol (lib_id "power:GND") (at 96.52 131.445 0) (unit 1)
    (in_bom yes) (on_board yes) (dnp no) (fields_autoplaced)
    (uuid 92237677-662c-465f-a0e6-d8d723884a10)
    (property "Reference" "#PWR015" (at 96.52 137.795 0)
      (effects (font (size 1.27 1.27)) hide)
    )
    (property "Value" "GND" (at 96.52 136.525 0)
      (effects (font (size 1.27 1.27)))
    )
    (property "Footprint" "" (at 96.52 131.445 0)
      (effects (font (size 1.27 1.27)) hide)
    )
    (property "Datasheet" "" (at 96.52 131.445 0)
      (effects (font (size 1.27 1.27)) hide)
    )
    (pin "1" (uuid ebd91e57-bd1f-4fc9-9ba8-8f474b18f48c))
    (instances
      (project "PCB KiCad"
        (path "/a818e058-3544-4da8-96fb-1a428660711f/2f10b7a1-df61-45b4-9fd1-1ebf21b41a15"
          (reference "#PWR015") (unit 1)
        )
      )
    )
  )

  (symbol (lib_id "Device:LED") (at 252.095 87.63 0) (unit 1)
    (in_bom yes) (on_board yes) (dnp no) (fields_autoplaced)
    (uuid 94ee6830-0178-48f9-b727-f8c82c1f4a97)
    (property "Reference" "D6" (at 250.5075 81.28 0)
      (effects (font (size 1.27 1.27)))
    )
    (property "Value" "1300nm" (at 250.5075 83.82 0)
      (effects (font (size 1.27 1.27)))
    )
    (property "Footprint" "LED_SMD:LED_1206_3216Metric_Pad1.42x1.75mm_HandSolder" (at 252.095 87.63 0)
      (effects (font (size 1.27 1.27)) hide)
    )
    (property "Datasheet" "https://www.marktechopto.com/pdf/products/datasheet/MTSM0012-843-IR.pdf" (at 252.095 87.63 0)
      (effects (font (size 1.27 1.27)) hide)
    )
    (pin "1" (uuid 2db06d30-c444-4e8c-9168-549179fd7b00))
    (pin "2" (uuid 71cc93b5-86f7-4bd7-a535-3036cf642c8a))
    (instances
      (project "PCB KiCad"
        (path "/a818e058-3544-4da8-96fb-1a428660711f/2f10b7a1-df61-45b4-9fd1-1ebf21b41a15"
          (reference "D6") (unit 1)
        )
      )
    )
  )

  (symbol (lib_id "Device:R") (at 237.49 53.34 90) (unit 1)
    (in_bom yes) (on_board yes) (dnp no)
    (uuid 9b5e78e4-62c9-493d-8500-81b6faf2de2b)
    (property "Reference" "R8" (at 235.585 50.165 90)
      (effects (font (size 1.27 1.27)))
    )
    (property "Value" "47" (at 240.03 50.165 90)
      (effects (font (size 1.27 1.27)))
    )
    (property "Footprint" "Resistor_SMD:R_0805_2012Metric_Pad1.20x1.40mm_HandSolder" (at 237.49 55.118 90)
      (effects (font (size 1.27 1.27)) hide)
    )
    (property "Datasheet" "~" (at 237.49 53.34 0)
      (effects (font (size 1.27 1.27)) hide)
    )
    (pin "1" (uuid 463f0cf4-6ff9-4959-95f6-899e439748a3))
    (pin "2" (uuid 6744e088-83ce-4a87-9284-5a883e5aebae))
    (instances
      (project "PCB KiCad"
        (path "/a818e058-3544-4da8-96fb-1a428660711f/2f10b7a1-df61-45b4-9fd1-1ebf21b41a15"
          (reference "R8") (unit 1)
        )
      )
    )
  )

  (symbol (lib_id "Device:R") (at 237.49 109.22 90) (unit 1)
    (in_bom yes) (on_board yes) (dnp no)
    (uuid a49a201b-4835-4b27-a879-df5727294b81)
    (property "Reference" "R13" (at 235.585 106.045 90)
      (effects (font (size 1.27 1.27)))
    )
    (property "Value" "47" (at 240.03 106.045 90)
      (effects (font (size 1.27 1.27)))
    )
    (property "Footprint" "Resistor_SMD:R_0805_2012Metric_Pad1.20x1.40mm_HandSolder" (at 237.49 110.998 90)
      (effects (font (size 1.27 1.27)) hide)
    )
    (property "Datasheet" "~" (at 237.49 109.22 0)
      (effects (font (size 1.27 1.27)) hide)
    )
    (pin "1" (uuid f34ca629-d844-4994-b0c5-75ca896f7c44))
    (pin "2" (uuid ad3dda2d-9ce4-473e-997d-98ad38204dce))
    (instances
      (project "PCB KiCad"
        (path "/a818e058-3544-4da8-96fb-1a428660711f/2f10b7a1-df61-45b4-9fd1-1ebf21b41a15"
          (reference "R13") (unit 1)
        )
      )
    )
  )

  (symbol (lib_id "Device:LED") (at 252.095 129.54 0) (unit 1)
    (in_bom yes) (on_board yes) (dnp no) (fields_autoplaced)
    (uuid ae6de9b9-0550-4376-b49b-7259989631bc)
    (property "Reference" "D10" (at 250.5075 123.19 0)
      (effects (font (size 1.27 1.27)))
    )
    (property "Value" "1720nm" (at 250.5075 125.73 0)
      (effects (font (size 1.27 1.27)))
    )
    (property "Footprint" "LED_SMD:LED_1206_3216Metric_Pad1.42x1.75mm_HandSolder" (at 252.095 129.54 0)
      (effects (font (size 1.27 1.27)) hide)
    )
    (property "Datasheet" "https://www.marktechopto.com/pdf/products/datasheet/MTSM5016-843-IR.pdf" (at 252.095 129.54 0)
      (effects (font (size 1.27 1.27)) hide)
    )
    (pin "1" (uuid 20995069-f4c3-4ac6-af89-fef9950edbdf))
    (pin "2" (uuid 28d94852-0ec9-44aa-8c93-4974d8911cad))
    (instances
      (project "PCB KiCad"
        (path "/a818e058-3544-4da8-96fb-1a428660711f/2f10b7a1-df61-45b4-9fd1-1ebf21b41a15"
          (reference "D10") (unit 1)
        )
      )
    )
  )

  (symbol (lib_id "power:+3.3V") (at 258.445 40.005 0) (unit 1)
    (in_bom yes) (on_board yes) (dnp no) (fields_autoplaced)
    (uuid afd8a72b-4a58-4167-a551-15d1a3583d2c)
    (property "Reference" "#PWR018" (at 258.445 43.815 0)
      (effects (font (size 1.27 1.27)) hide)
    )
    (property "Value" "+3.3V" (at 258.445 34.925 0)
      (effects (font (size 1.27 1.27)))
    )
    (property "Footprint" "" (at 258.445 40.005 0)
      (effects (font (size 1.27 1.27)) hide)
    )
    (property "Datasheet" "" (at 258.445 40.005 0)
      (effects (font (size 1.27 1.27)) hide)
    )
    (pin "1" (uuid d2ca3f12-51da-462c-b7bb-eab94ec28f68))
    (instances
      (project "PCB KiCad"
        (path "/a818e058-3544-4da8-96fb-1a428660711f/2f10b7a1-df61-45b4-9fd1-1ebf21b41a15"
          (reference "#PWR018") (unit 1)
        )
      )
    )
  )

  (symbol (lib_id "Device:R") (at 237.49 99.06 90) (unit 1)
    (in_bom yes) (on_board yes) (dnp no)
    (uuid bb81e943-f626-44e4-b077-599e41a34be0)
    (property "Reference" "R12" (at 235.585 95.885 90)
      (effects (font (size 1.27 1.27)))
    )
    (property "Value" "47" (at 240.03 95.885 90)
      (effects (font (size 1.27 1.27)))
    )
    (property "Footprint" "Resistor_SMD:R_0805_2012Metric_Pad1.20x1.40mm_HandSolder" (at 237.49 100.838 90)
      (effects (font (size 1.27 1.27)) hide)
    )
    (property "Datasheet" "~" (at 237.49 99.06 0)
      (effects (font (size 1.27 1.27)) hide)
    )
    (pin "1" (uuid 945d529e-d535-4fe5-9a7c-ee87998d4321))
    (pin "2" (uuid 736e1ac7-9191-4812-aad7-3dd365a3f9b7))
    (instances
      (project "PCB KiCad"
        (path "/a818e058-3544-4da8-96fb-1a428660711f/2f10b7a1-df61-45b4-9fd1-1ebf21b41a15"
          (reference "R12") (unit 1)
        )
      )
    )
  )

  (symbol (lib_id "power:GND") (at 146.05 104.775 0) (unit 1)
    (in_bom yes) (on_board yes) (dnp no) (fields_autoplaced)
    (uuid bdae894c-f625-4d02-8fb8-2c0705ccb689)
    (property "Reference" "#PWR017" (at 146.05 111.125 0)
      (effects (font (size 1.27 1.27)) hide)
    )
    (property "Value" "GND" (at 146.05 109.855 0)
      (effects (font (size 1.27 1.27)))
    )
    (property "Footprint" "" (at 146.05 104.775 0)
      (effects (font (size 1.27 1.27)) hide)
    )
    (property "Datasheet" "" (at 146.05 104.775 0)
      (effects (font (size 1.27 1.27)) hide)
    )
    (pin "1" (uuid d644b171-a9e8-413d-ab64-b85f176fcec4))
    (instances
      (project "PCB KiCad"
        (path "/a818e058-3544-4da8-96fb-1a428660711f/2f10b7a1-df61-45b4-9fd1-1ebf21b41a15"
          (reference "#PWR017") (unit 1)
        )
      )
    )
  )

  (symbol (lib_id "Device:LED") (at 252.095 76.2 0) (unit 1)
    (in_bom yes) (on_board yes) (dnp no) (fields_autoplaced)
    (uuid cc16645b-47f5-4a9d-a523-9327722646b2)
    (property "Reference" "D5" (at 250.5075 69.85 0)
      (effects (font (size 1.27 1.27)))
    )
    (property "Value" "1200nm" (at 250.5075 72.39 0)
      (effects (font (size 1.27 1.27)))
    )
    (property "Footprint" "LED_SMD:LED_1206_3216Metric_Pad1.42x1.75mm_HandSolder" (at 252.095 76.2 0)
      (effects (font (size 1.27 1.27)) hide)
    )
    (property "Datasheet" "https://www.marktechopto.com/pdf/products/datasheet/MTSM5010-843-IR.pdf" (at 252.095 76.2 0)
      (effects (font (size 1.27 1.27)) hide)
    )
    (pin "1" (uuid fd4a1f79-90f4-479e-8206-6583c8d27bc4))
    (pin "2" (uuid e309da1d-a4fe-4651-8a27-9a20eae0b0e8))
    (instances
      (project "PCB KiCad"
        (path "/a818e058-3544-4da8-96fb-1a428660711f/2f10b7a1-df61-45b4-9fd1-1ebf21b41a15"
          (reference "D5") (unit 1)
        )
      )
    )
  )

  (symbol (lib_id "Connector_Generic:Conn_01x04") (at 182.88 109.22 0) (mirror y) (unit 1)
    (in_bom yes) (on_board yes) (dnp no)
    (uuid d3fa9a66-8e0a-4364-8238-683729a8afd6)
    (property "Reference" "J3" (at 180.34 109.855 0)
      (effects (font (size 1.27 1.27)) (justify left))
    )
    (property "Value" "Conn_01x04" (at 180.34 112.395 0)
      (effects (font (size 1.27 1.27)) (justify left))
    )
    (property "Footprint" "Connector_PinSocket_2.54mm:PinSocket_1x04_P2.54mm_Vertical" (at 182.88 109.22 0)
      (effects (font (size 1.27 1.27)) hide)
    )
    (property "Datasheet" "~" (at 182.88 109.22 0)
      (effects (font (size 1.27 1.27)) hide)
    )
    (pin "1" (uuid c13edb64-3007-480d-93c9-0e2b4fe1aa11))
    (pin "2" (uuid 5687b8d4-7cb9-4b47-a864-8d650ec7fa98))
    (pin "3" (uuid 50f84da9-b7c5-44f9-a262-714ca227d45b))
    (pin "4" (uuid 1a5bc47c-3a6f-4824-b01a-399b2d85144a))
    (instances
      (project "PCB KiCad"
        (path "/a818e058-3544-4da8-96fb-1a428660711f/2f10b7a1-df61-45b4-9fd1-1ebf21b41a15"
          (reference "J3") (unit 1)
        )
      )
    )
  )

  (symbol (lib_id "Device:LED") (at 252.095 64.77 0) (unit 1)
    (in_bom yes) (on_board yes) (dnp no) (fields_autoplaced)
    (uuid e28cbf22-5710-443b-97ab-e217a61f55d9)
    (property "Reference" "D4" (at 250.5075 58.42 0)
      (effects (font (size 1.27 1.27)))
    )
    (property "Value" "1050nm" (at 250.5075 60.96 0)
      (effects (font (size 1.27 1.27)))
    )
    (property "Footprint" "LED_SMD:LED_1206_3216Metric_Pad1.42x1.75mm_HandSolder" (at 252.095 64.77 0)
      (effects (font (size 1.27 1.27)) hide)
    )
    (property "Datasheet" "https://nl.rs-online.com/web/p/ir-leds/1736348" (at 252.095 64.77 0)
      (effects (font (size 1.27 1.27)) hide)
    )
    (pin "1" (uuid b618fec3-cc98-4a9e-8924-888e2f8c02f2))
    (pin "2" (uuid 1b5261a8-be28-4144-a35c-a00bfab95aa2))
    (instances
      (project "PCB KiCad"
        (path "/a818e058-3544-4da8-96fb-1a428660711f/2f10b7a1-df61-45b4-9fd1-1ebf21b41a15"
          (reference "D4") (unit 1)
        )
      )
    )
  )

  (symbol (lib_id "Device:R") (at 237.49 119.38 90) (unit 1)
    (in_bom yes) (on_board yes) (dnp no)
    (uuid e9cf1d33-e514-42ab-8b53-230d3ee6d939)
    (property "Reference" "R14" (at 235.585 116.205 90)
      (effects (font (size 1.27 1.27)))
    )
    (property "Value" "47" (at 240.03 116.205 90)
      (effects (font (size 1.27 1.27)))
    )
    (property "Footprint" "Resistor_SMD:R_0805_2012Metric_Pad1.20x1.40mm_HandSolder" (at 237.49 121.158 90)
      (effects (font (size 1.27 1.27)) hide)
    )
    (property "Datasheet" "~" (at 237.49 119.38 0)
      (effects (font (size 1.27 1.27)) hide)
    )
    (pin "1" (uuid 5d7af7ea-0631-41a9-8943-2aca586c255c))
    (pin "2" (uuid 2040898d-f8e8-46a6-9929-8b3d05e13eb2))
    (instances
      (project "PCB KiCad"
        (path "/a818e058-3544-4da8-96fb-1a428660711f/2f10b7a1-df61-45b4-9fd1-1ebf21b41a15"
          (reference "R14") (unit 1)
        )
      )
    )
  )

  (symbol (lib_id "Device:R") (at 237.49 76.2 90) (unit 1)
    (in_bom yes) (on_board yes) (dnp no)
    (uuid f339d811-6db6-4f6d-ab4f-71e15c85b0ac)
    (property "Reference" "R10" (at 235.585 73.025 90)
      (effects (font (size 1.27 1.27)))
    )
    (property "Value" "47" (at 240.03 73.025 90)
      (effects (font (size 1.27 1.27)))
    )
    (property "Footprint" "Resistor_SMD:R_0805_2012Metric_Pad1.20x1.40mm_HandSolder" (at 237.49 77.978 90)
      (effects (font (size 1.27 1.27)) hide)
    )
    (property "Datasheet" "~" (at 237.49 76.2 0)
      (effects (font (size 1.27 1.27)) hide)
    )
    (pin "1" (uuid cadb7caf-6b70-4545-87d3-7a73f82d2d0a))
    (pin "2" (uuid c00f6dfd-2f43-4b48-9dee-94017f93e688))
    (instances
      (project "PCB KiCad"
        (path "/a818e058-3544-4da8-96fb-1a428660711f/2f10b7a1-df61-45b4-9fd1-1ebf21b41a15"
          (reference "R10") (unit 1)
        )
      )
    )
  )

  (symbol (lib_id "power:+3.3V") (at 96.52 68.58 0) (unit 1)
    (in_bom yes) (on_board yes) (dnp no) (fields_autoplaced)
    (uuid fa88dfc7-3db5-45b5-b84e-e8def18ec096)
    (property "Reference" "#PWR014" (at 96.52 72.39 0)
      (effects (font (size 1.27 1.27)) hide)
    )
    (property "Value" "+3.3V" (at 96.52 63.5 0)
      (effects (font (size 1.27 1.27)))
    )
    (property "Footprint" "" (at 96.52 68.58 0)
      (effects (font (size 1.27 1.27)) hide)
    )
    (property "Datasheet" "" (at 96.52 68.58 0)
      (effects (font (size 1.27 1.27)) hide)
    )
    (pin "1" (uuid cd567edf-b65c-42e0-b5d0-8a32b783ee42))
    (instances
      (project "PCB KiCad"
        (path "/a818e058-3544-4da8-96fb-1a428660711f/2f10b7a1-df61-45b4-9fd1-1ebf21b41a15"
          (reference "#PWR014") (unit 1)
        )
      )
    )
  )

  (symbol (lib_id "Device:R") (at 237.49 87.63 90) (unit 1)
    (in_bom yes) (on_board yes) (dnp no)
    (uuid fdd321da-14e1-438f-9d09-27fc44b0dc20)
    (property "Reference" "R11" (at 235.585 84.455 90)
      (effects (font (size 1.27 1.27)))
    )
    (property "Value" "47" (at 240.03 84.455 90)
      (effects (font (size 1.27 1.27)))
    )
    (property "Footprint" "Resistor_SMD:R_0805_2012Metric_Pad1.20x1.40mm_HandSolder" (at 237.49 89.408 90)
      (effects (font (size 1.27 1.27)) hide)
    )
    (property "Datasheet" "~" (at 237.49 87.63 0)
      (effects (font (size 1.27 1.27)) hide)
    )
    (pin "1" (uuid 53183a3c-59c1-4203-a629-5ca4735e0433))
    (pin "2" (uuid ef2cf076-04d3-4007-bdc5-bf6626741ba6))
    (instances
      (project "PCB KiCad"
        (path "/a818e058-3544-4da8-96fb-1a428660711f/2f10b7a1-df61-45b4-9fd1-1ebf21b41a15"
          (reference "R11") (unit 1)
        )
      )
    )
  )

  (symbol (lib_id "Device:LED") (at 252.095 119.38 0) (unit 1)
    (in_bom yes) (on_board yes) (dnp no) (fields_autoplaced)
    (uuid fe39a524-14c7-41ec-a7f2-76908160e9b0)
    (property "Reference" "D9" (at 250.5075 113.03 0)
      (effects (font (size 1.27 1.27)))
    )
    (property "Value" "1650nm" (at 250.5075 115.57 0)
      (effects (font (size 1.27 1.27)))
    )
    (property "Footprint" "LED_SMD:LED_1206_3216Metric_Pad1.42x1.75mm_HandSolder" (at 252.095 119.38 0)
      (effects (font (size 1.27 1.27)) hide)
    )
    (property "Datasheet" "https://marktechopto.com/pdf/products/DataSheet/MTSM5015-844-IR,.pdf" (at 252.095 119.38 0)
      (effects (font (size 1.27 1.27)) hide)
    )
    (pin "1" (uuid 667e146b-6373-46e4-b65f-7217969e0e1a))
    (pin "2" (uuid 4196db5b-038f-4877-a864-0af69f6c15b3))
    (instances
      (project "PCB KiCad"
        (path "/a818e058-3544-4da8-96fb-1a428660711f/2f10b7a1-df61-45b4-9fd1-1ebf21b41a15"
          (reference "D9") (unit 1)
        )
      )
    )
  )
)
