(kicad_sch (version 20230121) (generator eeschema)

  (uuid 3671bdaf-b501-4664-a83d-39af6270ff7f)

  (paper "A4")

  (title_block
    (title "Development Board")
    (date "2022-03-15")
    (rev "2.1")
    (company "Plastic Scanner")
  )

  (lib_symbols
    (symbol "Device:C" (pin_numbers hide) (pin_names (offset 0.254)) (in_bom yes) (on_board yes)
      (property "Reference" "C" (at 0.635 2.54 0)
        (effects (font (size 1.27 1.27)) (justify left))
      )
      (property "Value" "C" (at 0.635 -2.54 0)
        (effects (font (size 1.27 1.27)) (justify left))
      )
      (property "Footprint" "" (at 0.9652 -3.81 0)
        (effects (font (size 1.27 1.27)) hide)
      )
      (property "Datasheet" "~" (at 0 0 0)
        (effects (font (size 1.27 1.27)) hide)
      )
      (property "ki_keywords" "cap capacitor" (at 0 0 0)
        (effects (font (size 1.27 1.27)) hide)
      )
      (property "ki_description" "Unpolarized capacitor" (at 0 0 0)
        (effects (font (size 1.27 1.27)) hide)
      )
      (property "ki_fp_filters" "C_*" (at 0 0 0)
        (effects (font (size 1.27 1.27)) hide)
      )
      (symbol "C_0_1"
        (polyline
          (pts
            (xy -2.032 -0.762)
            (xy 2.032 -0.762)
          )
          (stroke (width 0.508) (type default))
          (fill (type none))
        )
        (polyline
          (pts
            (xy -2.032 0.762)
            (xy 2.032 0.762)
          )
          (stroke (width 0.508) (type default))
          (fill (type none))
        )
      )
      (symbol "C_1_1"
        (pin passive line (at 0 3.81 270) (length 2.794)
          (name "~" (effects (font (size 1.27 1.27))))
          (number "1" (effects (font (size 1.27 1.27))))
        )
        (pin passive line (at 0 -3.81 90) (length 2.794)
          (name "~" (effects (font (size 1.27 1.27))))
          (number "2" (effects (font (size 1.27 1.27))))
        )
      )
    )
    (symbol "Device:FerriteBead" (pin_numbers hide) (pin_names (offset 0)) (in_bom yes) (on_board yes)
      (property "Reference" "FB" (at -3.81 0.635 90)
        (effects (font (size 1.27 1.27)))
      )
      (property "Value" "FerriteBead" (at 3.81 0 90)
        (effects (font (size 1.27 1.27)))
      )
      (property "Footprint" "" (at -1.778 0 90)
        (effects (font (size 1.27 1.27)) hide)
      )
      (property "Datasheet" "~" (at 0 0 0)
        (effects (font (size 1.27 1.27)) hide)
      )
      (property "ki_keywords" "L ferrite bead inductor filter" (at 0 0 0)
        (effects (font (size 1.27 1.27)) hide)
      )
      (property "ki_description" "Ferrite bead" (at 0 0 0)
        (effects (font (size 1.27 1.27)) hide)
      )
      (property "ki_fp_filters" "Inductor_* L_* *Ferrite*" (at 0 0 0)
        (effects (font (size 1.27 1.27)) hide)
      )
      (symbol "FerriteBead_0_1"
        (polyline
          (pts
            (xy 0 -1.27)
            (xy 0 -1.2192)
          )
          (stroke (width 0) (type default))
          (fill (type none))
        )
        (polyline
          (pts
            (xy 0 1.27)
            (xy 0 1.2954)
          )
          (stroke (width 0) (type default))
          (fill (type none))
        )
        (polyline
          (pts
            (xy -2.7686 0.4064)
            (xy -1.7018 2.2606)
            (xy 2.7686 -0.3048)
            (xy 1.6764 -2.159)
            (xy -2.7686 0.4064)
          )
          (stroke (width 0) (type default))
          (fill (type none))
        )
      )
      (symbol "FerriteBead_1_1"
        (pin passive line (at 0 3.81 270) (length 2.54)
          (name "~" (effects (font (size 1.27 1.27))))
          (number "1" (effects (font (size 1.27 1.27))))
        )
        (pin passive line (at 0 -3.81 90) (length 2.54)
          (name "~" (effects (font (size 1.27 1.27))))
          (number "2" (effects (font (size 1.27 1.27))))
        )
      )
    )
    (symbol "power:+3.3V" (power) (pin_names (offset 0)) (in_bom yes) (on_board yes)
      (property "Reference" "#PWR" (at 0 -3.81 0)
        (effects (font (size 1.27 1.27)) hide)
      )
      (property "Value" "+3.3V" (at 0 3.556 0)
        (effects (font (size 1.27 1.27)))
      )
      (property "Footprint" "" (at 0 0 0)
        (effects (font (size 1.27 1.27)) hide)
      )
      (property "Datasheet" "" (at 0 0 0)
        (effects (font (size 1.27 1.27)) hide)
      )
      (property "ki_keywords" "power-flag" (at 0 0 0)
        (effects (font (size 1.27 1.27)) hide)
      )
      (property "ki_description" "Power symbol creates a global label with name \"+3.3V\"" (at 0 0 0)
        (effects (font (size 1.27 1.27)) hide)
      )
      (symbol "+3.3V_0_1"
        (polyline
          (pts
            (xy -0.762 1.27)
            (xy 0 2.54)
          )
          (stroke (width 0) (type default))
          (fill (type none))
        )
        (polyline
          (pts
            (xy 0 0)
            (xy 0 2.54)
          )
          (stroke (width 0) (type default))
          (fill (type none))
        )
        (polyline
          (pts
            (xy 0 2.54)
            (xy 0.762 1.27)
          )
          (stroke (width 0) (type default))
          (fill (type none))
        )
      )
      (symbol "+3.3V_1_1"
        (pin power_in line (at 0 0 90) (length 0) hide
          (name "+3V3" (effects (font (size 1.27 1.27))))
          (number "1" (effects (font (size 1.27 1.27))))
        )
      )
    )
    (symbol "power:GND" (power) (pin_names (offset 0)) (in_bom yes) (on_board yes)
      (property "Reference" "#PWR" (at 0 -6.35 0)
        (effects (font (size 1.27 1.27)) hide)
      )
      (property "Value" "GND" (at 0 -3.81 0)
        (effects (font (size 1.27 1.27)))
      )
      (property "Footprint" "" (at 0 0 0)
        (effects (font (size 1.27 1.27)) hide)
      )
      (property "Datasheet" "" (at 0 0 0)
        (effects (font (size 1.27 1.27)) hide)
      )
      (property "ki_keywords" "power-flag" (at 0 0 0)
        (effects (font (size 1.27 1.27)) hide)
      )
      (property "ki_description" "Power symbol creates a global label with name \"GND\" , ground" (at 0 0 0)
        (effects (font (size 1.27 1.27)) hide)
      )
      (symbol "GND_0_1"
        (polyline
          (pts
            (xy 0 0)
            (xy 0 -1.27)
            (xy 1.27 -1.27)
            (xy 0 -2.54)
            (xy -1.27 -1.27)
            (xy 0 -1.27)
          )
          (stroke (width 0) (type default))
          (fill (type none))
        )
      )
      (symbol "GND_1_1"
        (pin power_in line (at 0 0 270) (length 0) hide
          (name "GND" (effects (font (size 1.27 1.27))))
          (number "1" (effects (font (size 1.27 1.27))))
        )
      )
    )
  )

  (junction (at 219.71 63.5) (diameter 0) (color 0 0 0 0)
    (uuid 82c71347-6805-4aaa-b8f7-ebccacbe6a58)
  )
  (junction (at 227.33 63.5) (diameter 0) (color 0 0 0 0)
    (uuid ad4114bd-5bc8-4832-b72b-3d8755d28927)
  )
  (junction (at 223.52 78.74) (diameter 0) (color 0 0 0 0)
    (uuid f5506d54-caf7-4598-a964-d319abaf7c7b)
  )

  (wire (pts (xy 219.71 74.93) (xy 219.71 78.74))
    (stroke (width 0) (type default))
    (uuid 09d0938d-4aa8-4280-bf88-6ff90882be08)
  )
  (wire (pts (xy 219.71 63.5) (xy 219.71 67.31))
    (stroke (width 0) (type default))
    (uuid 2a2081ba-e73f-4f8a-9d51-c71049ba0a5a)
  )
  (wire (pts (xy 219.71 78.74) (xy 223.52 78.74))
    (stroke (width 0) (type default))
    (uuid 31d2329d-93c4-4eff-9291-6186a09f5b35)
  )
  (wire (pts (xy 212.09 63.5) (xy 219.71 63.5))
    (stroke (width 0) (type default))
    (uuid 33608b5f-4a98-4a92-beb0-92a6f7d07ea7)
  )
  (wire (pts (xy 227.33 78.74) (xy 223.52 78.74))
    (stroke (width 0) (type default))
    (uuid 3eff7e40-9026-4e04-9f87-df1243540b0f)
  )
  (wire (pts (xy 227.33 74.93) (xy 227.33 78.74))
    (stroke (width 0) (type default))
    (uuid 95bf63f9-f016-4668-b394-79166ef20a5b)
  )
  (wire (pts (xy 239.395 56.515) (xy 239.395 63.5))
    (stroke (width 0) (type default))
    (uuid a6724726-46c7-48f8-80ba-c5f9faa0de8b)
  )
  (wire (pts (xy 200.66 53.34) (xy 200.66 63.5))
    (stroke (width 0) (type default))
    (uuid a800870b-7c53-43af-bbad-654352e24fc8)
  )
  (wire (pts (xy 219.71 63.5) (xy 227.33 63.5))
    (stroke (width 0) (type default))
    (uuid b1d0baef-b84f-4cee-8ec3-82891c7b38b7)
  )
  (wire (pts (xy 200.66 63.5) (xy 204.47 63.5))
    (stroke (width 0) (type default))
    (uuid b5391da6-68f6-41a8-b9eb-833f59fa5a4e)
  )
  (wire (pts (xy 227.33 63.5) (xy 227.33 67.31))
    (stroke (width 0) (type default))
    (uuid bf7374db-702f-41dc-9a7e-4de8cac1dadf)
  )
  (wire (pts (xy 227.33 63.5) (xy 239.395 63.5))
    (stroke (width 0) (type default))
    (uuid c3e47b8b-8c66-47ce-9819-23ee58499cde)
  )

  (text "+3.3v" (at 195.58 39.37 0)
    (effects (font (size 3 3)) (justify left bottom))
    (uuid ae2615c1-fa76-4d59-b2c2-69f51857d348)
  )

  (global_label "3v3unf" (shape input) (at 200.66 53.34 90) (fields_autoplaced)
    (effects (font (size 1.27 1.27)) (justify left))
    (uuid 0fb49159-8dbb-4ebf-9c13-27690b42ac47)
    (property "Intersheetrefs" "${INTERSHEET_REFS}" (at 200.66 44.0239 90)
      (effects (font (size 1.27 1.27)) (justify left) hide)
    )
  )

  (symbol (lib_id "Device:C") (at 227.33 71.12 0) (unit 1)
    (in_bom yes) (on_board yes) (dnp no) (fields_autoplaced)
    (uuid 02fb7ddd-742e-4981-970f-5bb0e8f3ecb7)
    (property "Reference" "C13" (at 231.14 69.8499 0)
      (effects (font (size 1.27 1.27)) (justify left))
    )
    (property "Value" "22u" (at 231.14 72.3899 0)
      (effects (font (size 1.27 1.27)) (justify left))
    )
    (property "Footprint" "Capacitor_SMD:C_0805_2012Metric_Pad1.18x1.45mm_HandSolder" (at 228.2952 74.93 0)
      (effects (font (size 1.27 1.27)) hide)
    )
    (property "Datasheet" "~" (at 227.33 71.12 0)
      (effects (font (size 1.27 1.27)) hide)
    )
    (pin "1" (uuid 433274c9-2e71-48aa-b093-eb80a1a942bb))
    (pin "2" (uuid 37a6583b-a6f5-4a19-9dd7-373f441e2387))
    (instances
      (project "PCB KiCad"
        (path "/a818e058-3544-4da8-96fb-1a428660711f/5869e7b3-0d61-455b-97ad-e4e8b4829f27"
          (reference "C13") (unit 1)
        )
      )
    )
  )

  (symbol (lib_id "power:GND") (at 223.52 78.74 0) (unit 1)
    (in_bom yes) (on_board yes) (dnp no) (fields_autoplaced)
    (uuid 284a4df4-fb04-4601-972f-579414b3fe47)
    (property "Reference" "#PWR012" (at 223.52 85.09 0)
      (effects (font (size 1.27 1.27)) hide)
    )
    (property "Value" "GND" (at 223.52 83.82 0)
      (effects (font (size 1.27 1.27)))
    )
    (property "Footprint" "" (at 223.52 78.74 0)
      (effects (font (size 1.27 1.27)) hide)
    )
    (property "Datasheet" "" (at 223.52 78.74 0)
      (effects (font (size 1.27 1.27)) hide)
    )
    (pin "1" (uuid 7bc4de61-570e-4080-a76d-b03609e6f782))
    (instances
      (project "PCB KiCad"
        (path "/a818e058-3544-4da8-96fb-1a428660711f/5869e7b3-0d61-455b-97ad-e4e8b4829f27"
          (reference "#PWR012") (unit 1)
        )
      )
    )
  )

  (symbol (lib_id "Device:FerriteBead") (at 208.28 63.5 270) (unit 1)
    (in_bom yes) (on_board yes) (dnp no) (fields_autoplaced)
    (uuid 3b4df6b6-8dae-43d3-82e3-5ece613c5521)
    (property "Reference" "FB1" (at 208.3308 57.15 90)
      (effects (font (size 1.27 1.27)))
    )
    (property "Value" "FerriteBead" (at 208.3308 59.69 90)
      (effects (font (size 1.27 1.27)))
    )
    (property "Footprint" "Resistor_SMD:R_0805_2012Metric_Pad1.20x1.40mm_HandSolder" (at 208.28 61.722 90)
      (effects (font (size 1.27 1.27)) hide)
    )
    (property "Datasheet" "~" (at 208.28 63.5 0)
      (effects (font (size 1.27 1.27)) hide)
    )
    (pin "1" (uuid 8cf6d0dc-60f7-48bf-b5d8-f0301b0be5a6))
    (pin "2" (uuid 61ab2d7a-1a48-43ff-bbd2-6a730b53ee07))
    (instances
      (project "PCB KiCad"
        (path "/a818e058-3544-4da8-96fb-1a428660711f/5869e7b3-0d61-455b-97ad-e4e8b4829f27"
          (reference "FB1") (unit 1)
        )
      )
    )
  )

  (symbol (lib_id "Device:C") (at 219.71 71.12 0) (mirror x) (unit 1)
    (in_bom yes) (on_board yes) (dnp no) (fields_autoplaced)
    (uuid 51b83acf-1e37-4764-bdcf-9a51fb122d7d)
    (property "Reference" "C12" (at 215.9 69.8499 0)
      (effects (font (size 1.27 1.27)) (justify right))
    )
    (property "Value" "100n" (at 215.9 72.3899 0)
      (effects (font (size 1.27 1.27)) (justify right))
    )
    (property "Footprint" "Capacitor_SMD:C_0805_2012Metric_Pad1.18x1.45mm_HandSolder" (at 220.6752 67.31 0)
      (effects (font (size 1.27 1.27)) hide)
    )
    (property "Datasheet" "~" (at 219.71 71.12 0)
      (effects (font (size 1.27 1.27)) hide)
    )
    (pin "1" (uuid a8d6d3dd-8822-431b-b9d6-1158ad8a33d7))
    (pin "2" (uuid 9fd10425-f5d2-4eb6-98f4-41c1ce3b7678))
    (instances
      (project "PCB KiCad"
        (path "/a818e058-3544-4da8-96fb-1a428660711f/5869e7b3-0d61-455b-97ad-e4e8b4829f27"
          (reference "C12") (unit 1)
        )
      )
    )
  )

  (symbol (lib_id "power:+3.3V") (at 239.395 56.515 0) (unit 1)
    (in_bom yes) (on_board yes) (dnp no) (fields_autoplaced)
    (uuid 9ca88b3f-de4a-49aa-8747-2c9ab394e157)
    (property "Reference" "#PWR013" (at 239.395 60.325 0)
      (effects (font (size 1.27 1.27)) hide)
    )
    (property "Value" "+3.3V" (at 239.395 51.435 0)
      (effects (font (size 1.27 1.27)))
    )
    (property "Footprint" "" (at 239.395 56.515 0)
      (effects (font (size 1.27 1.27)) hide)
    )
    (property "Datasheet" "" (at 239.395 56.515 0)
      (effects (font (size 1.27 1.27)) hide)
    )
    (pin "1" (uuid 7cc6edca-2ee1-4f0b-b305-3f08939c23de))
    (instances
      (project "PCB KiCad"
        (path "/a818e058-3544-4da8-96fb-1a428660711f/5869e7b3-0d61-455b-97ad-e4e8b4829f27"
          (reference "#PWR013") (unit 1)
        )
      )
    )
  )
)
