(kicad_sch (version 20230121) (generator eeschema)

  (uuid 18164630-8543-4845-95ff-b116ac975144)

  (paper "A4")

  (title_block
    (title "Development Board")
    (date "2022-03-15")
    (rev "2.1")
    (company "Plastic Scanner")
  )

  (lib_symbols
    (symbol "Connector_Generic:Conn_01x04" (pin_names (offset 1.016) hide) (in_bom yes) (on_board yes)
      (property "Reference" "J" (at 0 5.08 0)
        (effects (font (size 1.27 1.27)))
      )
      (property "Value" "Conn_01x04" (at 0 -7.62 0)
        (effects (font (size 1.27 1.27)))
      )
      (property "Footprint" "" (at 0 0 0)
        (effects (font (size 1.27 1.27)) hide)
      )
      (property "Datasheet" "~" (at 0 0 0)
        (effects (font (size 1.27 1.27)) hide)
      )
      (property "ki_keywords" "connector" (at 0 0 0)
        (effects (font (size 1.27 1.27)) hide)
      )
      (property "ki_description" "Generic connector, single row, 01x04, script generated (kicad-library-utils/schlib/autogen/connector/)" (at 0 0 0)
        (effects (font (size 1.27 1.27)) hide)
      )
      (property "ki_fp_filters" "Connector*:*_1x??_*" (at 0 0 0)
        (effects (font (size 1.27 1.27)) hide)
      )
      (symbol "Conn_01x04_1_1"
        (rectangle (start -1.27 -4.953) (end 0 -5.207)
          (stroke (width 0.1524) (type default))
          (fill (type none))
        )
        (rectangle (start -1.27 -2.413) (end 0 -2.667)
          (stroke (width 0.1524) (type default))
          (fill (type none))
        )
        (rectangle (start -1.27 0.127) (end 0 -0.127)
          (stroke (width 0.1524) (type default))
          (fill (type none))
        )
        (rectangle (start -1.27 2.667) (end 0 2.413)
          (stroke (width 0.1524) (type default))
          (fill (type none))
        )
        (rectangle (start -1.27 3.81) (end 1.27 -6.35)
          (stroke (width 0.254) (type default))
          (fill (type background))
        )
        (pin passive line (at -5.08 2.54 0) (length 3.81)
          (name "Pin_1" (effects (font (size 1.27 1.27))))
          (number "1" (effects (font (size 1.27 1.27))))
        )
        (pin passive line (at -5.08 0 0) (length 3.81)
          (name "Pin_2" (effects (font (size 1.27 1.27))))
          (number "2" (effects (font (size 1.27 1.27))))
        )
        (pin passive line (at -5.08 -2.54 0) (length 3.81)
          (name "Pin_3" (effects (font (size 1.27 1.27))))
          (number "3" (effects (font (size 1.27 1.27))))
        )
        (pin passive line (at -5.08 -5.08 0) (length 3.81)
          (name "Pin_4" (effects (font (size 1.27 1.27))))
          (number "4" (effects (font (size 1.27 1.27))))
        )
      )
    )
    (symbol "Device:C" (pin_numbers hide) (pin_names (offset 0.254)) (in_bom yes) (on_board yes)
      (property "Reference" "C" (at 0.635 2.54 0)
        (effects (font (size 1.27 1.27)) (justify left))
      )
      (property "Value" "C" (at 0.635 -2.54 0)
        (effects (font (size 1.27 1.27)) (justify left))
      )
      (property "Footprint" "" (at 0.9652 -3.81 0)
        (effects (font (size 1.27 1.27)) hide)
      )
      (property "Datasheet" "~" (at 0 0 0)
        (effects (font (size 1.27 1.27)) hide)
      )
      (property "ki_keywords" "cap capacitor" (at 0 0 0)
        (effects (font (size 1.27 1.27)) hide)
      )
      (property "ki_description" "Unpolarized capacitor" (at 0 0 0)
        (effects (font (size 1.27 1.27)) hide)
      )
      (property "ki_fp_filters" "C_*" (at 0 0 0)
        (effects (font (size 1.27 1.27)) hide)
      )
      (symbol "C_0_1"
        (polyline
          (pts
            (xy -2.032 -0.762)
            (xy 2.032 -0.762)
          )
          (stroke (width 0.508) (type default))
          (fill (type none))
        )
        (polyline
          (pts
            (xy -2.032 0.762)
            (xy 2.032 0.762)
          )
          (stroke (width 0.508) (type default))
          (fill (type none))
        )
      )
      (symbol "C_1_1"
        (pin passive line (at 0 3.81 270) (length 2.794)
          (name "~" (effects (font (size 1.27 1.27))))
          (number "1" (effects (font (size 1.27 1.27))))
        )
        (pin passive line (at 0 -3.81 90) (length 2.794)
          (name "~" (effects (font (size 1.27 1.27))))
          (number "2" (effects (font (size 1.27 1.27))))
        )
      )
    )
    (symbol "Device:D_Photo" (pin_numbers hide) (pin_names hide) (in_bom yes) (on_board yes)
      (property "Reference" "D" (at 0.508 1.778 0)
        (effects (font (size 1.27 1.27)) (justify left))
      )
      (property "Value" "D_Photo" (at -1.016 -2.794 0)
        (effects (font (size 1.27 1.27)))
      )
      (property "Footprint" "" (at -1.27 0 0)
        (effects (font (size 1.27 1.27)) hide)
      )
      (property "Datasheet" "~" (at -1.27 0 0)
        (effects (font (size 1.27 1.27)) hide)
      )
      (property "ki_keywords" "photodiode diode opto" (at 0 0 0)
        (effects (font (size 1.27 1.27)) hide)
      )
      (property "ki_description" "Photodiode" (at 0 0 0)
        (effects (font (size 1.27 1.27)) hide)
      )
      (symbol "D_Photo_0_1"
        (polyline
          (pts
            (xy -2.54 1.27)
            (xy -2.54 -1.27)
          )
          (stroke (width 0.254) (type default))
          (fill (type none))
        )
        (polyline
          (pts
            (xy -2.032 1.778)
            (xy -1.524 1.778)
          )
          (stroke (width 0) (type default))
          (fill (type none))
        )
        (polyline
          (pts
            (xy 0 0)
            (xy -2.54 0)
          )
          (stroke (width 0) (type default))
          (fill (type none))
        )
        (polyline
          (pts
            (xy -0.508 3.302)
            (xy -2.032 1.778)
            (xy -2.032 2.286)
          )
          (stroke (width 0) (type default))
          (fill (type none))
        )
        (polyline
          (pts
            (xy 0 -1.27)
            (xy 0 1.27)
            (xy -2.54 0)
            (xy 0 -1.27)
          )
          (stroke (width 0.254) (type default))
          (fill (type none))
        )
        (polyline
          (pts
            (xy 0.762 3.302)
            (xy -0.762 1.778)
            (xy -0.762 2.286)
            (xy -0.762 1.778)
            (xy -0.254 1.778)
          )
          (stroke (width 0) (type default))
          (fill (type none))
        )
      )
      (symbol "D_Photo_1_1"
        (pin passive line (at -5.08 0 0) (length 2.54)
          (name "K" (effects (font (size 1.27 1.27))))
          (number "1" (effects (font (size 1.27 1.27))))
        )
        (pin passive line (at 2.54 0 180) (length 2.54)
          (name "A" (effects (font (size 1.27 1.27))))
          (number "2" (effects (font (size 1.27 1.27))))
        )
      )
    )
    (symbol "Device:R" (pin_numbers hide) (pin_names (offset 0)) (in_bom yes) (on_board yes)
      (property "Reference" "R" (at 2.032 0 90)
        (effects (font (size 1.27 1.27)))
      )
      (property "Value" "R" (at 0 0 90)
        (effects (font (size 1.27 1.27)))
      )
      (property "Footprint" "" (at -1.778 0 90)
        (effects (font (size 1.27 1.27)) hide)
      )
      (property "Datasheet" "~" (at 0 0 0)
        (effects (font (size 1.27 1.27)) hide)
      )
      (property "ki_keywords" "R res resistor" (at 0 0 0)
        (effects (font (size 1.27 1.27)) hide)
      )
      (property "ki_description" "Resistor" (at 0 0 0)
        (effects (font (size 1.27 1.27)) hide)
      )
      (property "ki_fp_filters" "R_*" (at 0 0 0)
        (effects (font (size 1.27 1.27)) hide)
      )
      (symbol "R_0_1"
        (rectangle (start -1.016 -2.54) (end 1.016 2.54)
          (stroke (width 0.254) (type default))
          (fill (type none))
        )
      )
      (symbol "R_1_1"
        (pin passive line (at 0 3.81 270) (length 1.27)
          (name "~" (effects (font (size 1.27 1.27))))
          (number "1" (effects (font (size 1.27 1.27))))
        )
        (pin passive line (at 0 -3.81 90) (length 1.27)
          (name "~" (effects (font (size 1.27 1.27))))
          (number "2" (effects (font (size 1.27 1.27))))
        )
      )
    )
    (symbol "OPA2376AID:OPA2376AID" (pin_names (offset 1.016)) (in_bom yes) (on_board yes)
      (property "Reference" "U" (at -12.7 13.7 0)
        (effects (font (size 1.27 1.27)) (justify left bottom))
      )
      (property "Value" "OPA2376AID" (at -12.7 -16.7 0)
        (effects (font (size 1.27 1.27)) (justify left bottom))
      )
      (property "Footprint" "SOIC127P599X175-8N" (at 0 0 0)
        (effects (font (size 1.27 1.27)) (justify bottom) hide)
      )
      (property "Datasheet" "" (at 0 0 0)
        (effects (font (size 1.27 1.27)) hide)
      )
      (symbol "OPA2376AID_0_0"
        (rectangle (start -12.7 -12.7) (end 12.7 12.7)
          (stroke (width 0.41) (type default))
          (fill (type background))
        )
        (pin output line (at 17.78 5.08 180) (length 5.08)
          (name "OUT_A" (effects (font (size 1.016 1.016))))
          (number "1" (effects (font (size 1.016 1.016))))
        )
        (pin input line (at -17.78 0 0) (length 5.08)
          (name "-IN_A" (effects (font (size 1.016 1.016))))
          (number "2" (effects (font (size 1.016 1.016))))
        )
        (pin input line (at -17.78 5.08 0) (length 5.08)
          (name "+IN_A" (effects (font (size 1.016 1.016))))
          (number "3" (effects (font (size 1.016 1.016))))
        )
        (pin power_in line (at 17.78 -10.16 180) (length 5.08)
          (name "V-" (effects (font (size 1.016 1.016))))
          (number "4" (effects (font (size 1.016 1.016))))
        )
        (pin input line (at -17.78 2.54 0) (length 5.08)
          (name "+IN_B" (effects (font (size 1.016 1.016))))
          (number "5" (effects (font (size 1.016 1.016))))
        )
        (pin input line (at -17.78 -2.54 0) (length 5.08)
          (name "-IN_B" (effects (font (size 1.016 1.016))))
          (number "6" (effects (font (size 1.016 1.016))))
        )
        (pin output line (at 17.78 2.54 180) (length 5.08)
          (name "OUT_B" (effects (font (size 1.016 1.016))))
          (number "7" (effects (font (size 1.016 1.016))))
        )
        (pin power_in line (at 17.78 10.16 180) (length 5.08)
          (name "V+" (effects (font (size 1.016 1.016))))
          (number "8" (effects (font (size 1.016 1.016))))
        )
      )
    )
    (symbol "power:+3.3V" (power) (pin_names (offset 0)) (in_bom yes) (on_board yes)
      (property "Reference" "#PWR" (at 0 -3.81 0)
        (effects (font (size 1.27 1.27)) hide)
      )
      (property "Value" "+3.3V" (at 0 3.556 0)
        (effects (font (size 1.27 1.27)))
      )
      (property "Footprint" "" (at 0 0 0)
        (effects (font (size 1.27 1.27)) hide)
      )
      (property "Datasheet" "" (at 0 0 0)
        (effects (font (size 1.27 1.27)) hide)
      )
      (property "ki_keywords" "power-flag" (at 0 0 0)
        (effects (font (size 1.27 1.27)) hide)
      )
      (property "ki_description" "Power symbol creates a global label with name \"+3.3V\"" (at 0 0 0)
        (effects (font (size 1.27 1.27)) hide)
      )
      (symbol "+3.3V_0_1"
        (polyline
          (pts
            (xy -0.762 1.27)
            (xy 0 2.54)
          )
          (stroke (width 0) (type default))
          (fill (type none))
        )
        (polyline
          (pts
            (xy 0 0)
            (xy 0 2.54)
          )
          (stroke (width 0) (type default))
          (fill (type none))
        )
        (polyline
          (pts
            (xy 0 2.54)
            (xy 0.762 1.27)
          )
          (stroke (width 0) (type default))
          (fill (type none))
        )
      )
      (symbol "+3.3V_1_1"
        (pin power_in line (at 0 0 90) (length 0) hide
          (name "+3V3" (effects (font (size 1.27 1.27))))
          (number "1" (effects (font (size 1.27 1.27))))
        )
      )
    )
    (symbol "power:GND" (power) (pin_names (offset 0)) (in_bom yes) (on_board yes)
      (property "Reference" "#PWR" (at 0 -6.35 0)
        (effects (font (size 1.27 1.27)) hide)
      )
      (property "Value" "GND" (at 0 -3.81 0)
        (effects (font (size 1.27 1.27)))
      )
      (property "Footprint" "" (at 0 0 0)
        (effects (font (size 1.27 1.27)) hide)
      )
      (property "Datasheet" "" (at 0 0 0)
        (effects (font (size 1.27 1.27)) hide)
      )
      (property "ki_keywords" "power-flag" (at 0 0 0)
        (effects (font (size 1.27 1.27)) hide)
      )
      (property "ki_description" "Power symbol creates a global label with name \"GND\" , ground" (at 0 0 0)
        (effects (font (size 1.27 1.27)) hide)
      )
      (symbol "GND_0_1"
        (polyline
          (pts
            (xy 0 0)
            (xy 0 -1.27)
            (xy 1.27 -1.27)
            (xy 0 -2.54)
            (xy -1.27 -1.27)
            (xy 0 -1.27)
          )
          (stroke (width 0) (type default))
          (fill (type none))
        )
      )
      (symbol "GND_1_1"
        (pin power_in line (at 0 0 270) (length 0) hide
          (name "GND" (effects (font (size 1.27 1.27))))
          (number "1" (effects (font (size 1.27 1.27))))
        )
      )
    )
  )

  (junction (at 170.18 92.71) (diameter 0) (color 0 0 0 0)
    (uuid 21c818a3-4cc5-4b32-8b60-c395b39af6e4)
  )
  (junction (at 154.94 92.71) (diameter 0) (color 0 0 0 0)
    (uuid 348f1bfc-068f-401b-8d2f-e1828b8bf4ad)
  )
  (junction (at 76.835 90.17) (diameter 0) (color 0 0 0 0)
    (uuid 48cadbf8-27dd-4b70-8373-45f144cb646f)
  )
  (junction (at 140.97 105.41) (diameter 0) (color 0 0 0 0)
    (uuid 4fc81c03-93f8-4d9a-b87f-d8b250a14871)
  )
  (junction (at 76.835 73.66) (diameter 0) (color 0 0 0 0)
    (uuid 63c3dd63-4d85-4d44-a3f1-1c22b5384c16)
  )
  (junction (at 92.71 93.98) (diameter 0) (color 0 0 0 0)
    (uuid 775093bc-22fc-423f-b0c6-abf6dcc655ee)
  )
  (junction (at 170.18 105.41) (diameter 0) (color 0 0 0 0)
    (uuid 92701783-3d6d-4b46-9ebb-cb5d0ec94e6a)
  )
  (junction (at 140.97 73.66) (diameter 0) (color 0 0 0 0)
    (uuid a45644de-dc49-41bf-94cd-508039b09b06)
  )
  (junction (at 76.835 123.19) (diameter 0) (color 0 0 0 0)
    (uuid bb24a5b2-af6c-4584-af9b-3da908d543a0)
  )
  (junction (at 140.97 92.71) (diameter 0) (color 0 0 0 0)
    (uuid d90da5f5-c8a8-4970-bcc7-57eb5f2b81b6)
  )
  (junction (at 140.97 123.19) (diameter 0) (color 0 0 0 0)
    (uuid ee2e9f01-31db-4686-b362-cf27b5b48951)
  )
  (junction (at 60.96 95.25) (diameter 0) (color 0 0 0 0)
    (uuid fb4034f8-112f-46ea-bbb3-e72ddb37a91d)
  )
  (junction (at 154.94 105.41) (diameter 0) (color 0 0 0 0)
    (uuid fb880e9a-3bbf-4be6-9632-0b752a11388a)
  )

  (wire (pts (xy 59.055 95.25) (xy 60.96 95.25))
    (stroke (width 0) (type default))
    (uuid 0399352a-06c3-49ce-b77f-a02710c64d98)
  )
  (wire (pts (xy 30.48 85.09) (xy 33.02 85.09))
    (stroke (width 0) (type default))
    (uuid 05f36ebe-710e-4ce6-bb37-1977df886c3a)
  )
  (wire (pts (xy 76.835 102.87) (xy 76.835 123.19))
    (stroke (width 0) (type default))
    (uuid 0db69bcb-ef76-4d66-addf-8042dc344076)
  )
  (wire (pts (xy 110.49 123.19) (xy 140.97 123.19))
    (stroke (width 0) (type default))
    (uuid 17f912c8-9d98-405c-96d4-250f8b0ba895)
  )
  (wire (pts (xy 154.94 92.71) (xy 170.18 92.71))
    (stroke (width 0) (type default))
    (uuid 185c6eac-1042-4059-8a12-2003cb33f470)
  )
  (wire (pts (xy 34.29 100.33) (xy 33.02 100.33))
    (stroke (width 0) (type default))
    (uuid 223c4bfe-d195-44cd-8ffb-a44da98cf910)
  )
  (wire (pts (xy 92.71 93.98) (xy 80.01 93.98))
    (stroke (width 0) (type default))
    (uuid 256d891e-d11c-4339-bdf3-308016de24be)
  )
  (wire (pts (xy 140.97 132.08) (xy 140.97 123.19))
    (stroke (width 0) (type default))
    (uuid 2710c43c-acd0-429c-9eff-3eeb8b0f96a5)
  )
  (wire (pts (xy 140.97 73.66) (xy 140.97 92.71))
    (stroke (width 0) (type default))
    (uuid 29e0e06b-bb45-4ff3-b9df-dd48162f32e5)
  )
  (wire (pts (xy 113.03 73.66) (xy 140.97 73.66))
    (stroke (width 0) (type default))
    (uuid 2a4457d6-182e-48ac-81d3-787eee740974)
  )
  (wire (pts (xy 128.27 93.98) (xy 140.97 93.98))
    (stroke (width 0) (type default))
    (uuid 2eab4f8c-cd4c-4d8b-aa0d-16f8abbb4773)
  )
  (wire (pts (xy 128.27 88.9) (xy 134.62 88.9))
    (stroke (width 0) (type default))
    (uuid 3362c3ca-bd45-4e10-879c-25bdd07fc4ea)
  )
  (wire (pts (xy 134.62 88.9) (xy 134.62 83.82))
    (stroke (width 0) (type default))
    (uuid 34854f70-fc19-47c2-ad3c-e0f26117382e)
  )
  (wire (pts (xy 30.48 72.39) (xy 45.72 72.39))
    (stroke (width 0) (type default))
    (uuid 38a36803-ffad-4f97-9125-ba54927cf315)
  )
  (wire (pts (xy 76.835 90.17) (xy 76.835 73.66))
    (stroke (width 0) (type default))
    (uuid 3971c94e-2a9d-4c54-bac4-0009ebbe412f)
  )
  (wire (pts (xy 154.94 92.71) (xy 154.94 95.25))
    (stroke (width 0) (type default))
    (uuid 45cf7a4d-f83c-4578-9a09-7e9db5d4e068)
  )
  (wire (pts (xy 170.18 105.41) (xy 185.42 105.41))
    (stroke (width 0) (type default))
    (uuid 55b4187a-aa38-455b-91b1-a7682d368748)
  )
  (wire (pts (xy 34.29 102.87) (xy 34.29 100.33))
    (stroke (width 0) (type default))
    (uuid 5b9d4cae-1fbd-4db1-a302-e058be5c5e88)
  )
  (wire (pts (xy 110.49 132.08) (xy 140.97 132.08))
    (stroke (width 0) (type default))
    (uuid 5e46049d-6c86-4e2c-ac14-8d7adf4692ef)
  )
  (wire (pts (xy 76.2 101.6) (xy 76.2 102.87))
    (stroke (width 0) (type default))
    (uuid 60867edc-bef0-45ec-b5c0-4bdb47651341)
  )
  (wire (pts (xy 87.63 99.06) (xy 87.63 90.17))
    (stroke (width 0) (type default))
    (uuid 627a4d20-c455-4b58-ac71-0c8c0fadcaf3)
  )
  (wire (pts (xy 76.835 123.19) (xy 102.87 123.19))
    (stroke (width 0) (type default))
    (uuid 68a06254-3af4-4370-b5e9-866ecb8e9347)
  )
  (wire (pts (xy 170.18 92.71) (xy 170.18 95.25))
    (stroke (width 0) (type default))
    (uuid 6f879811-2f86-4fd5-842f-e782ebd8532e)
  )
  (wire (pts (xy 76.835 90.17) (xy 87.63 90.17))
    (stroke (width 0) (type default))
    (uuid 704cb959-5538-408b-8d10-a73ae5bcfd65)
  )
  (wire (pts (xy 113.03 63.5) (xy 140.97 63.5))
    (stroke (width 0) (type default))
    (uuid 7167eef6-0c56-4a09-89cf-5174b3c74b08)
  )
  (wire (pts (xy 140.97 96.52) (xy 140.97 105.41))
    (stroke (width 0) (type default))
    (uuid 7197390b-0102-4570-94b7-a48d73d52929)
  )
  (wire (pts (xy 76.835 63.5) (xy 76.835 73.66))
    (stroke (width 0) (type default))
    (uuid 766b928e-2bc6-4cb4-a5af-3213efeda5a4)
  )
  (wire (pts (xy 76.835 132.08) (xy 102.87 132.08))
    (stroke (width 0) (type default))
    (uuid 7872e337-1e81-42ff-8280-21b60765b9ed)
  )
  (wire (pts (xy 92.71 101.6) (xy 76.2 101.6))
    (stroke (width 0) (type default))
    (uuid 7a6db7c8-8e15-4bf3-916d-3a3bfcfcd3ce)
  )
  (wire (pts (xy 148.59 105.41) (xy 154.94 105.41))
    (stroke (width 0) (type default))
    (uuid 7d38dafe-35f7-47a2-a375-907019cb658a)
  )
  (wire (pts (xy 76.835 123.19) (xy 76.835 132.08))
    (stroke (width 0) (type default))
    (uuid 85a4e8bd-e9c8-4d73-a0a0-59c808dea2a0)
  )
  (wire (pts (xy 128.27 96.52) (xy 140.97 96.52))
    (stroke (width 0) (type default))
    (uuid 89440d79-48b8-48bb-a991-80c0daa110d2)
  )
  (wire (pts (xy 59.055 116.84) (xy 59.055 115.57))
    (stroke (width 0) (type default))
    (uuid 8d305fa6-1ba9-45b0-ae2a-3a0231811c6f)
  )
  (wire (pts (xy 170.18 92.71) (xy 185.42 92.71))
    (stroke (width 0) (type default))
    (uuid 90e0cefc-2eb2-469a-afd6-d6eb4fd068ae)
  )
  (wire (pts (xy 148.59 92.71) (xy 154.94 92.71))
    (stroke (width 0) (type default))
    (uuid 920c5fdc-3f10-4e3b-b184-68642b67364f)
  )
  (wire (pts (xy 140.97 92.71) (xy 140.97 93.98))
    (stroke (width 0) (type default))
    (uuid 96ccc550-d15d-4f05-9ba9-1b3fd65b536a)
  )
  (wire (pts (xy 76.2 90.17) (xy 76.835 90.17))
    (stroke (width 0) (type default))
    (uuid 9938ab4f-d2a9-42d5-be11-36bbdc378116)
  )
  (wire (pts (xy 76.2 102.87) (xy 76.835 102.87))
    (stroke (width 0) (type default))
    (uuid a505aee1-30e6-4ca4-bc90-eeec606db8d5)
  )
  (wire (pts (xy 154.94 105.41) (xy 170.18 105.41))
    (stroke (width 0) (type default))
    (uuid a53880fc-b4ec-4972-84c8-be5a59d6d79d)
  )
  (wire (pts (xy 80.01 93.98) (xy 80.01 95.25))
    (stroke (width 0) (type default))
    (uuid a97933c7-356d-45d8-a455-7452c898c2eb)
  )
  (wire (pts (xy 92.71 93.98) (xy 92.71 96.52))
    (stroke (width 0) (type default))
    (uuid b32d141c-d5d3-4ee5-b3fb-33cce387f703)
  )
  (wire (pts (xy 60.96 95.25) (xy 80.01 95.25))
    (stroke (width 0) (type default))
    (uuid bb36cf89-bf8b-423a-b3c3-9b076085c487)
  )
  (wire (pts (xy 76.835 73.66) (xy 105.41 73.66))
    (stroke (width 0) (type default))
    (uuid c5222e91-e084-4631-9572-7a7f44aea2eb)
  )
  (wire (pts (xy 130.81 111.76) (xy 130.81 109.22))
    (stroke (width 0) (type default))
    (uuid cd0c13b8-bd1c-4055-b68d-9810f276897b)
  )
  (wire (pts (xy 60.96 57.15) (xy 60.96 95.25))
    (stroke (width 0) (type default))
    (uuid cd25a133-2578-4f73-b959-1f4eb1ea8c58)
  )
  (wire (pts (xy 140.97 63.5) (xy 140.97 73.66))
    (stroke (width 0) (type default))
    (uuid cf0f60ce-0bbd-4bb6-a8c3-d056e56751a3)
  )
  (wire (pts (xy 170.18 102.87) (xy 170.18 105.41))
    (stroke (width 0) (type default))
    (uuid d17dd236-9e69-4332-9741-17b1d82d4ff0)
  )
  (wire (pts (xy 154.94 102.87) (xy 154.94 105.41))
    (stroke (width 0) (type default))
    (uuid e444ea6a-a32b-4b4b-90c4-0a5fa58e2c3a)
  )
  (wire (pts (xy 59.055 95.25) (xy 59.055 109.22))
    (stroke (width 0) (type default))
    (uuid e8d90e47-20c6-4f3d-a098-dae3dfb83756)
  )
  (wire (pts (xy 130.81 109.22) (xy 128.27 109.22))
    (stroke (width 0) (type default))
    (uuid e9f84ecd-4d80-4b7d-9fa9-fbd98a7ffbf7)
  )
  (wire (pts (xy 33.02 92.71) (xy 33.02 85.09))
    (stroke (width 0) (type default))
    (uuid ed316872-a352-4cf3-9206-123f73a468f6)
  )
  (wire (pts (xy 45.72 74.93) (xy 30.48 74.93))
    (stroke (width 0) (type default))
    (uuid f49bd177-a973-4830-a8b6-912d279195d1)
  )
  (wire (pts (xy 140.97 123.19) (xy 140.97 105.41))
    (stroke (width 0) (type default))
    (uuid f5432eef-4201-4ee4-b37f-d4a07bd3a3f9)
  )
  (wire (pts (xy 92.71 99.06) (xy 87.63 99.06))
    (stroke (width 0) (type default))
    (uuid f71e37d2-b1cd-4581-8894-f99e33beb8bf)
  )
  (wire (pts (xy 76.835 63.5) (xy 105.41 63.5))
    (stroke (width 0) (type default))
    (uuid f831a8d6-a551-4bb7-a629-ba0814d8bf09)
  )

  (label "A+" (at 45.72 72.39 0) (fields_autoplaced)
    (effects (font (size 1.27 1.27)) (justify left bottom))
    (uuid 5dd2276c-f73e-4f3a-a177-996a1866bb15)
  )
  (label "A-" (at 34.29 102.87 0) (fields_autoplaced)
    (effects (font (size 1.27 1.27)) (justify left bottom))
    (uuid 6070a93f-04fb-4df3-a7a9-86556d0d8992)
  )
  (label "A+" (at 76.2 90.17 0) (fields_autoplaced)
    (effects (font (size 1.27 1.27)) (justify left bottom))
    (uuid 71931503-7032-4202-9039-67f1763354c1)
  )
  (label "A+" (at 30.48 85.09 0) (fields_autoplaced)
    (effects (font (size 1.27 1.27)) (justify left bottom))
    (uuid 9de8ced0-f3f4-4a5a-9196-b715b829699c)
  )
  (label "A-" (at 76.2 101.6 0) (fields_autoplaced)
    (effects (font (size 1.27 1.27)) (justify left bottom))
    (uuid ba494d80-4a67-4ae7-9869-0c842d32d44d)
  )
  (label "A-" (at 45.72 74.93 0) (fields_autoplaced)
    (effects (font (size 1.27 1.27)) (justify left bottom))
    (uuid f8751472-50d7-4d9d-a7ab-a3631fdd08ab)
  )

  (global_label "GND" (shape input) (at 30.48 77.47 0) (fields_autoplaced)
    (effects (font (size 1.27 1.27)) (justify left))
    (uuid 7220ef8b-db0c-4ba9-b782-ff9054ae929f)
    (property "Intersheetrefs" "${INTERSHEET_REFS}" (at 37.2563 77.47 0)
      (effects (font (size 1.27 1.27)) (justify left) hide)
    )
  )
  (global_label "3.3v" (shape input) (at 30.48 69.85 0) (fields_autoplaced)
    (effects (font (size 1.27 1.27)) (justify left))
    (uuid 899e037e-1ee9-4dbf-8c1f-18889092ade3)
    (property "Intersheetrefs" "${INTERSHEET_REFS}" (at 37.3772 69.85 0)
      (effects (font (size 1.27 1.27)) (justify left) hide)
    )
  )
  (global_label "GND" (shape input) (at 128.27 109.22 270) (fields_autoplaced)
    (effects (font (size 1.27 1.27)) (justify right))
    (uuid 9ab7d764-a901-4288-9431-b90b16fddc5a)
    (property "Intersheetrefs" "${INTERSHEET_REFS}" (at 128.27 115.9963 90)
      (effects (font (size 1.27 1.27)) (justify right) hide)
    )
  )
  (global_label "3.3v" (shape input) (at 129.54 88.9 90) (fields_autoplaced)
    (effects (font (size 1.27 1.27)) (justify left))
    (uuid c502f36b-9d89-4e9c-a77b-cbce7c308b25)
    (property "Intersheetrefs" "${INTERSHEET_REFS}" (at 129.54 82.0028 90)
      (effects (font (size 1.27 1.27)) (justify left) hide)
    )
  )

  (hierarchical_label "AIN-" (shape bidirectional) (at 185.42 92.71 0) (fields_autoplaced)
    (effects (font (size 1.27 1.27)) (justify left))
    (uuid 079a2d49-a1cd-4559-9b70-448409b52968)
  )
  (hierarchical_label "AIN+" (shape bidirectional) (at 185.42 105.41 0) (fields_autoplaced)
    (effects (font (size 1.27 1.27)) (justify left))
    (uuid 1d7e10cc-8477-4361-be28-e0b21b285bb2)
  )

  (symbol (lib_id "power:GND") (at 59.055 115.57 0) (unit 1)
    (in_bom yes) (on_board yes) (dnp no) (fields_autoplaced)
    (uuid 1ad11d3a-f03a-4cbc-ab6d-7b9f74d5fbdb)
    (property "Reference" "#PWR01" (at 59.055 121.92 0)
      (effects (font (size 1.27 1.27)) hide)
    )
    (property "Value" "GND" (at 59.055 120.65 0)
      (effects (font (size 1.27 1.27)))
    )
    (property "Footprint" "" (at 59.055 115.57 0)
      (effects (font (size 1.27 1.27)) hide)
    )
    (property "Datasheet" "" (at 59.055 115.57 0)
      (effects (font (size 1.27 1.27)) hide)
    )
    (pin "1" (uuid f03bd3f1-1ffd-4c87-aedb-ff7ff8f3ec09))
    (instances
      (project "PCB KiCad"
        (path "/a818e058-3544-4da8-96fb-1a428660711f/98df1e87-3735-4cb9-8253-663f6eb2234f"
          (reference "#PWR01") (unit 1)
        )
      )
    )
  )

  (symbol (lib_id "power:+3.3V") (at 134.62 83.82 0) (unit 1)
    (in_bom yes) (on_board yes) (dnp no) (fields_autoplaced)
    (uuid 204836bb-a0a8-4a1f-9c2f-d1fe039ec308)
    (property "Reference" "#PWR?" (at 134.62 87.63 0)
      (effects (font (size 1.27 1.27)) hide)
    )
    (property "Value" "+3.3V" (at 134.62 78.74 0)
      (effects (font (size 1.27 1.27)))
    )
    (property "Footprint" "" (at 134.62 83.82 0)
      (effects (font (size 1.27 1.27)) hide)
    )
    (property "Datasheet" "" (at 134.62 83.82 0)
      (effects (font (size 1.27 1.27)) hide)
    )
    (pin "1" (uuid 1aaf3aff-26ad-4949-9eb8-df4d1ccf497c))
    (instances
      (project "PCB KiCad"
        (path "/a818e058-3544-4da8-96fb-1a428660711f/5869e7b3-0d61-455b-97ad-e4e8b4829f27"
          (reference "#PWR?") (unit 1)
        )
        (path "/a818e058-3544-4da8-96fb-1a428660711f/98df1e87-3735-4cb9-8253-663f6eb2234f"
          (reference "#PWR04") (unit 1)
        )
      )
    )
  )

  (symbol (lib_id "Device:R") (at 106.68 123.19 270) (mirror x) (unit 1)
    (in_bom yes) (on_board yes) (dnp no)
    (uuid 24136f0a-f288-4471-91c1-fc6b2dcc6762)
    (property "Reference" "R1" (at 106.68 128.27 90)
      (effects (font (size 1.27 1.27)))
    )
    (property "Value" "240k" (at 106.68 125.73 90)
      (effects (font (size 1.27 1.27)))
    )
    (property "Footprint" "Resistor_SMD:R_0805_2012Metric_Pad1.20x1.40mm_HandSolder" (at 106.68 124.968 90)
      (effects (font (size 1.27 1.27)) hide)
    )
    (property "Datasheet" "~" (at 106.68 123.19 0)
      (effects (font (size 1.27 1.27)) hide)
    )
    (pin "1" (uuid 7e0ed17e-d26f-4586-95eb-dc68205584ed))
    (pin "2" (uuid e6293178-fd27-4cfc-94db-a39356593e73))
    (instances
      (project "PCB KiCad"
        (path "/a818e058-3544-4da8-96fb-1a428660711f/98df1e87-3735-4cb9-8253-663f6eb2234f"
          (reference "R1") (unit 1)
        )
      )
    )
  )

  (symbol (lib_id "Device:R") (at 144.78 92.71 90) (unit 1)
    (in_bom yes) (on_board yes) (dnp no)
    (uuid 25382836-373e-497f-92f8-e9b78d8fa53d)
    (property "Reference" "R3" (at 144.78 86.36 90)
      (effects (font (size 1.27 1.27)))
    )
    (property "Value" "300" (at 144.78 88.9 90)
      (effects (font (size 1.27 1.27)))
    )
    (property "Footprint" "Resistor_SMD:R_0805_2012Metric_Pad1.20x1.40mm_HandSolder" (at 144.78 94.488 90)
      (effects (font (size 1.27 1.27)) hide)
    )
    (property "Datasheet" "~" (at 144.78 92.71 0)
      (effects (font (size 1.27 1.27)) hide)
    )
    (pin "1" (uuid 10d5f59b-1ae1-4e51-bbbb-7e9da95400e6))
    (pin "2" (uuid 10101064-3753-4908-9ef9-5a768518c38f))
    (instances
      (project "PCB KiCad"
        (path "/a818e058-3544-4da8-96fb-1a428660711f/98df1e87-3735-4cb9-8253-663f6eb2234f"
          (reference "R3") (unit 1)
        )
      )
    )
  )

  (symbol (lib_id "Device:R") (at 109.22 73.66 90) (unit 1)
    (in_bom yes) (on_board yes) (dnp no)
    (uuid 2dcb6160-16f4-4616-9c10-2cc0608a1c39)
    (property "Reference" "R2" (at 109.22 68.58 90)
      (effects (font (size 1.27 1.27)))
    )
    (property "Value" "240k" (at 109.22 71.12 90)
      (effects (font (size 1.27 1.27)))
    )
    (property "Footprint" "Resistor_SMD:R_0805_2012Metric_Pad1.20x1.40mm_HandSolder" (at 109.22 75.438 90)
      (effects (font (size 1.27 1.27)) hide)
    )
    (property "Datasheet" "~" (at 109.22 73.66 0)
      (effects (font (size 1.27 1.27)) hide)
    )
    (pin "1" (uuid ee58cfd5-1c32-4114-a15d-059b308fe567))
    (pin "2" (uuid 43a8ad93-8652-4fc3-98b3-63bf31afc512))
    (instances
      (project "PCB KiCad"
        (path "/a818e058-3544-4da8-96fb-1a428660711f/98df1e87-3735-4cb9-8253-663f6eb2234f"
          (reference "R2") (unit 1)
        )
      )
    )
  )

  (symbol (lib_id "power:+3.3V") (at 60.96 57.15 0) (unit 1)
    (in_bom yes) (on_board yes) (dnp no)
    (uuid 38170efa-7eb5-491e-85e5-a27c48645819)
    (property "Reference" "#PWR?" (at 60.96 60.96 0)
      (effects (font (size 1.27 1.27)) hide)
    )
    (property "Value" "+3.3V" (at 64.135 53.34 0)
      (effects (font (size 1.27 1.27)))
    )
    (property "Footprint" "" (at 60.96 57.15 0)
      (effects (font (size 1.27 1.27)) hide)
    )
    (property "Datasheet" "" (at 60.96 57.15 0)
      (effects (font (size 1.27 1.27)) hide)
    )
    (pin "1" (uuid 267b39c2-3ba0-4980-b14c-3b72531182d7))
    (instances
      (project "PCB KiCad"
        (path "/a818e058-3544-4da8-96fb-1a428660711f/a8dcb7a4-48cf-403e-b881-d44234291c62"
          (reference "#PWR?") (unit 1)
        )
        (path "/a818e058-3544-4da8-96fb-1a428660711f/98df1e87-3735-4cb9-8253-663f6eb2234f"
          (reference "#PWR02") (unit 1)
        )
      )
    )
  )

  (symbol (lib_id "Device:C") (at 170.18 99.06 0) (unit 1)
    (in_bom yes) (on_board yes) (dnp no) (fields_autoplaced)
    (uuid 39af36bb-ff71-4708-9414-837255499dc5)
    (property "Reference" "C5" (at 173.99 97.7899 0)
      (effects (font (size 1.27 1.27)) (justify left))
    )
    (property "Value" "100p" (at 173.99 100.3299 0)
      (effects (font (size 1.27 1.27)) (justify left))
    )
    (property "Footprint" "Capacitor_SMD:C_0805_2012Metric_Pad1.18x1.45mm_HandSolder" (at 171.1452 102.87 0)
      (effects (font (size 1.27 1.27)) hide)
    )
    (property "Datasheet" "~" (at 170.18 99.06 0)
      (effects (font (size 1.27 1.27)) hide)
    )
    (pin "1" (uuid c11f1ae8-9738-4be8-8006-d9f70c9e3658))
    (pin "2" (uuid 612abe42-455d-49d7-98f6-9c9c96640c15))
    (instances
      (project "PCB KiCad"
        (path "/a818e058-3544-4da8-96fb-1a428660711f/98df1e87-3735-4cb9-8253-663f6eb2234f"
          (reference "C5") (unit 1)
        )
      )
    )
  )

  (symbol (lib_id "power:GND") (at 130.81 111.76 0) (unit 1)
    (in_bom yes) (on_board yes) (dnp no) (fields_autoplaced)
    (uuid 42226f9b-cede-453a-a40a-c49d8f9ef165)
    (property "Reference" "#PWR03" (at 130.81 118.11 0)
      (effects (font (size 1.27 1.27)) hide)
    )
    (property "Value" "GND" (at 130.81 116.84 0)
      (effects (font (size 1.27 1.27)))
    )
    (property "Footprint" "" (at 130.81 111.76 0)
      (effects (font (size 1.27 1.27)) hide)
    )
    (property "Datasheet" "" (at 130.81 111.76 0)
      (effects (font (size 1.27 1.27)) hide)
    )
    (pin "1" (uuid 601818da-046f-41d8-a4be-26b2b487b24e))
    (instances
      (project "PCB KiCad"
        (path "/a818e058-3544-4da8-96fb-1a428660711f/98df1e87-3735-4cb9-8253-663f6eb2234f"
          (reference "#PWR03") (unit 1)
        )
      )
    )
  )

  (symbol (lib_id "Device:C") (at 106.68 132.08 90) (unit 1)
    (in_bom yes) (on_board yes) (dnp no)
    (uuid 86d477d3-e0cd-4e8f-ba84-6cb9a39e967e)
    (property "Reference" "C2" (at 106.68 138.43 90)
      (effects (font (size 1.27 1.27)))
    )
    (property "Value" "51p" (at 106.68 135.89 90)
      (effects (font (size 1.27 1.27)))
    )
    (property "Footprint" "Capacitor_SMD:C_0805_2012Metric_Pad1.18x1.45mm_HandSolder" (at 110.49 131.1148 0)
      (effects (font (size 1.27 1.27)) hide)
    )
    (property "Datasheet" "~" (at 106.68 132.08 0)
      (effects (font (size 1.27 1.27)) hide)
    )
    (pin "1" (uuid f00d8a4d-6dce-4d07-a210-c7a042a81578))
    (pin "2" (uuid fc37955f-bcfd-4597-bd9f-b69c1b945abf))
    (instances
      (project "PCB KiCad"
        (path "/a818e058-3544-4da8-96fb-1a428660711f/98df1e87-3735-4cb9-8253-663f6eb2234f"
          (reference "C2") (unit 1)
        )
      )
    )
  )

  (symbol (lib_id "OPA2376AID:OPA2376AID") (at 110.49 99.06 0) (unit 1)
    (in_bom yes) (on_board yes) (dnp no) (fields_autoplaced)
    (uuid a5bd153a-ef1e-45b7-899e-10fba390499a)
    (property "Reference" "U1" (at 110.49 82.55 0)
      (effects (font (size 1.27 1.27)))
    )
    (property "Value" "OPA2376AID" (at 110.49 85.09 0)
      (effects (font (size 1.27 1.27)))
    )
    (property "Footprint" "OPA2376AID:SOIC127P599X175-8N" (at 110.49 99.06 0)
      (effects (font (size 1.27 1.27)) (justify bottom) hide)
    )
    (property "Datasheet" "" (at 110.49 99.06 0)
      (effects (font (size 1.27 1.27)) hide)
    )
    (pin "1" (uuid 422d8ac8-872b-4230-8b2b-3fb070bbfe92))
    (pin "2" (uuid 5b90f03f-78c5-487d-a25b-4155e5cfa7bb))
    (pin "3" (uuid 81019fed-298a-4f27-84f8-184fc863e9ab))
    (pin "4" (uuid 95a68979-f92a-4e71-951a-bb2b1af018a0))
    (pin "5" (uuid e3c06155-4c67-49dd-aa62-650d54330bfd))
    (pin "6" (uuid 8647d136-f062-417b-8d1b-c3b63461c0ea))
    (pin "7" (uuid 2ac5a8b1-3505-4182-ba35-63f562c6dafe))
    (pin "8" (uuid 0186fc0d-7ff3-4d6a-b6dd-eafbe71b8deb))
    (instances
      (project "PCB KiCad"
        (path "/a818e058-3544-4da8-96fb-1a428660711f/98df1e87-3735-4cb9-8253-663f6eb2234f"
          (reference "U1") (unit 1)
        )
      )
    )
  )

  (symbol (lib_id "Device:C") (at 109.22 63.5 90) (unit 1)
    (in_bom yes) (on_board yes) (dnp no)
    (uuid b18d502c-a39d-4987-a935-12def93ce4c7)
    (property "Reference" "C3" (at 109.22 57.15 90)
      (effects (font (size 1.27 1.27)))
    )
    (property "Value" "51p" (at 109.22 59.69 90)
      (effects (font (size 1.27 1.27)))
    )
    (property "Footprint" "Capacitor_SMD:C_0805_2012Metric_Pad1.18x1.45mm_HandSolder" (at 113.03 62.5348 0)
      (effects (font (size 1.27 1.27)) hide)
    )
    (property "Datasheet" "~" (at 109.22 63.5 0)
      (effects (font (size 1.27 1.27)) hide)
    )
    (pin "1" (uuid 2396fed8-2424-48f2-8c7d-ffc1ee2835b5))
    (pin "2" (uuid e97bdf3d-de01-467a-9396-000ac9ad7700))
    (instances
      (project "PCB KiCad"
        (path "/a818e058-3544-4da8-96fb-1a428660711f/98df1e87-3735-4cb9-8253-663f6eb2234f"
          (reference "C3") (unit 1)
        )
      )
    )
  )

  (symbol (lib_id "Device:C") (at 154.94 99.06 180) (unit 1)
    (in_bom yes) (on_board yes) (dnp no)
    (uuid c0187d96-75c2-4f14-a265-f1191a1e72ef)
    (property "Reference" "C4" (at 161.29 97.79 0)
      (effects (font (size 1.27 1.27)))
    )
    (property "Value" "47n" (at 161.29 100.33 0)
      (effects (font (size 1.27 1.27)))
    )
    (property "Footprint" "Capacitor_SMD:C_0805_2012Metric_Pad1.18x1.45mm_HandSolder" (at 153.9748 95.25 0)
      (effects (font (size 1.27 1.27)) hide)
    )
    (property "Datasheet" "~" (at 154.94 99.06 0)
      (effects (font (size 1.27 1.27)) hide)
    )
    (pin "1" (uuid f3930528-4a4e-4023-8cd2-b8314b7ebf75))
    (pin "2" (uuid dfbc7c3e-8798-4173-b814-11f6d53e2808))
    (instances
      (project "PCB KiCad"
        (path "/a818e058-3544-4da8-96fb-1a428660711f/98df1e87-3735-4cb9-8253-663f6eb2234f"
          (reference "C4") (unit 1)
        )
      )
    )
  )

  (symbol (lib_id "Device:R") (at 144.78 105.41 90) (unit 1)
    (in_bom yes) (on_board yes) (dnp no)
    (uuid dc7e688a-de01-4f67-ae8e-7f7e60e60ade)
    (property "Reference" "R4" (at 144.78 109.22 90)
      (effects (font (size 1.27 1.27)))
    )
    (property "Value" "300" (at 144.78 111.76 90)
      (effects (font (size 1.27 1.27)))
    )
    (property "Footprint" "Resistor_SMD:R_0805_2012Metric_Pad1.20x1.40mm_HandSolder" (at 144.78 107.188 90)
      (effects (font (size 1.27 1.27)) hide)
    )
    (property "Datasheet" "~" (at 144.78 105.41 0)
      (effects (font (size 1.27 1.27)) hide)
    )
    (pin "1" (uuid 7c907a23-a473-4a1f-9376-6d805f337c9b))
    (pin "2" (uuid f6aec33e-ac10-4173-aba2-f3ee22f241e4))
    (instances
      (project "PCB KiCad"
        (path "/a818e058-3544-4da8-96fb-1a428660711f/98df1e87-3735-4cb9-8253-663f6eb2234f"
          (reference "R4") (unit 1)
        )
      )
    )
  )

  (symbol (lib_id "Connector_Generic:Conn_01x04") (at 25.4 72.39 0) (mirror y) (unit 1)
    (in_bom yes) (on_board yes) (dnp no)
    (uuid e9f08ca8-d2a6-41f1-935e-bad096095443)
    (property "Reference" "J?" (at 22.86 73.025 0)
      (effects (font (size 1.27 1.27)) (justify left))
    )
    (property "Value" "Conn_01x04" (at 22.86 75.565 0)
      (effects (font (size 1.27 1.27)) (justify left))
    )
    (property "Footprint" "Connector_PinSocket_2.54mm:PinSocket_1x04_P2.54mm_Vertical" (at 25.4 72.39 0)
      (effects (font (size 1.27 1.27)) hide)
    )
    (property "Datasheet" "~" (at 25.4 72.39 0)
      (effects (font (size 1.27 1.27)) hide)
    )
    (pin "1" (uuid 9d6de485-34b2-4b63-befa-942d1f8447aa))
    (pin "2" (uuid 15f8e559-d2b5-4214-b6f4-c6e0a97b6b77))
    (pin "3" (uuid 5951d313-6792-45d9-b9ff-089ef79da485))
    (pin "4" (uuid 4cb07470-d676-45af-93da-45ee016b457d))
    (instances
      (project "PCB KiCad"
        (path "/a818e058-3544-4da8-96fb-1a428660711f/2f10b7a1-df61-45b4-9fd1-1ebf21b41a15"
          (reference "J?") (unit 1)
        )
        (path "/a818e058-3544-4da8-96fb-1a428660711f/98df1e87-3735-4cb9-8253-663f6eb2234f"
          (reference "J1") (unit 1)
        )
      )
    )
  )

  (symbol (lib_id "Device:D_Photo") (at 33.02 95.25 270) (mirror x) (unit 1)
    (in_bom yes) (on_board yes) (dnp no)
    (uuid f05bbc97-e274-49a9-ab3b-42c85a8131c1)
    (property "Reference" "D1" (at 30.48 94.9324 90)
      (effects (font (size 1.27 1.27)) (justify right))
    )
    (property "Value" "0090-3111-185" (at 30.48 99.06 90)
      (effects (font (size 1.27 1.27)) (justify right))
    )
    (property "Footprint" "Diode_THT:D_A-405_P2.54mm_Vertical_KathodeUp" (at 33.02 96.52 0)
      (effects (font (size 1.27 1.27)) hide)
    )
    (property "Datasheet" "~" (at 33.02 96.52 0)
      (effects (font (size 1.27 1.27)) hide)
    )
    (property "Humanlabel" "PHOTODIODE" (at 24.13 97.155 90)
      (effects (font (size 1.27 1.27)))
    )
    (pin "1" (uuid a771c8e3-d7d4-42c1-9bc3-a78c06853d4b))
    (pin "2" (uuid 0cc18caf-7889-44b7-b48c-38ca57c2b130))
    (instances
      (project "PCB KiCad"
        (path "/a818e058-3544-4da8-96fb-1a428660711f/98df1e87-3735-4cb9-8253-663f6eb2234f"
          (reference "D1") (unit 1)
        )
      )
    )
  )

  (symbol (lib_id "Device:C") (at 59.055 113.03 0) (mirror x) (unit 1)
    (in_bom yes) (on_board yes) (dnp no) (fields_autoplaced)
    (uuid fb03b7bb-2297-4d63-a835-8827b2d106f1)
    (property "Reference" "C1" (at 55.88 112.395 0)
      (effects (font (size 1.27 1.27)) (justify right))
    )
    (property "Value" "0.1u" (at 55.88 114.935 0)
      (effects (font (size 1.27 1.27)) (justify right))
    )
    (property "Footprint" "Capacitor_SMD:C_0805_2012Metric_Pad1.18x1.45mm_HandSolder" (at 60.0202 109.22 0)
      (effects (font (size 1.27 1.27)) hide)
    )
    (property "Datasheet" "~" (at 59.055 113.03 0)
      (effects (font (size 1.27 1.27)) hide)
    )
    (pin "1" (uuid c96d1673-d135-41b0-86f2-e64e6d693d86))
    (pin "2" (uuid 42f4adac-e019-4435-a666-c3478a5df1fc))
    (instances
      (project "PCB KiCad"
        (path "/a818e058-3544-4da8-96fb-1a428660711f/98df1e87-3735-4cb9-8253-663f6eb2234f"
          (reference "C1") (unit 1)
        )
      )
    )
  )
)
