(kicad_sch (version 20230121) (generator eeschema)

  (uuid 0be98f3e-b1de-48aa-bf2f-b705e6291adc)

  (paper "A4")

  (lib_symbols
    (symbol "Connector_Generic:Conn_01x02" (pin_names (offset 1.016) hide) (in_bom yes) (on_board yes)
      (property "Reference" "J" (at 0 2.54 0)
        (effects (font (size 1.27 1.27)))
      )
      (property "Value" "Conn_01x02" (at 0 -5.08 0)
        (effects (font (size 1.27 1.27)))
      )
      (property "Footprint" "" (at 0 0 0)
        (effects (font (size 1.27 1.27)) hide)
      )
      (property "Datasheet" "~" (at 0 0 0)
        (effects (font (size 1.27 1.27)) hide)
      )
      (property "ki_keywords" "connector" (at 0 0 0)
        (effects (font (size 1.27 1.27)) hide)
      )
      (property "ki_description" "Generic connector, single row, 01x02, script generated (kicad-library-utils/schlib/autogen/connector/)" (at 0 0 0)
        (effects (font (size 1.27 1.27)) hide)
      )
      (property "ki_fp_filters" "Connector*:*_1x??_*" (at 0 0 0)
        (effects (font (size 1.27 1.27)) hide)
      )
      (symbol "Conn_01x02_1_1"
        (rectangle (start -1.27 -2.413) (end 0 -2.667)
          (stroke (width 0.1524) (type default))
          (fill (type none))
        )
        (rectangle (start -1.27 0.127) (end 0 -0.127)
          (stroke (width 0.1524) (type default))
          (fill (type none))
        )
        (rectangle (start -1.27 1.27) (end 1.27 -3.81)
          (stroke (width 0.254) (type default))
          (fill (type background))
        )
        (pin passive line (at -5.08 0 0) (length 3.81)
          (name "Pin_1" (effects (font (size 1.27 1.27))))
          (number "1" (effects (font (size 1.27 1.27))))
        )
        (pin passive line (at -5.08 -2.54 0) (length 3.81)
          (name "Pin_2" (effects (font (size 1.27 1.27))))
          (number "2" (effects (font (size 1.27 1.27))))
        )
      )
    )
    (symbol "Device:C" (pin_numbers hide) (pin_names (offset 0.254)) (in_bom yes) (on_board yes)
      (property "Reference" "C" (at 0.635 2.54 0)
        (effects (font (size 1.27 1.27)) (justify left))
      )
      (property "Value" "C" (at 0.635 -2.54 0)
        (effects (font (size 1.27 1.27)) (justify left))
      )
      (property "Footprint" "" (at 0.9652 -3.81 0)
        (effects (font (size 1.27 1.27)) hide)
      )
      (property "Datasheet" "~" (at 0 0 0)
        (effects (font (size 1.27 1.27)) hide)
      )
      (property "ki_keywords" "cap capacitor" (at 0 0 0)
        (effects (font (size 1.27 1.27)) hide)
      )
      (property "ki_description" "Unpolarized capacitor" (at 0 0 0)
        (effects (font (size 1.27 1.27)) hide)
      )
      (property "ki_fp_filters" "C_*" (at 0 0 0)
        (effects (font (size 1.27 1.27)) hide)
      )
      (symbol "C_0_1"
        (polyline
          (pts
            (xy -2.032 -0.762)
            (xy 2.032 -0.762)
          )
          (stroke (width 0.508) (type default))
          (fill (type none))
        )
        (polyline
          (pts
            (xy -2.032 0.762)
            (xy 2.032 0.762)
          )
          (stroke (width 0.508) (type default))
          (fill (type none))
        )
      )
      (symbol "C_1_1"
        (pin passive line (at 0 3.81 270) (length 2.794)
          (name "~" (effects (font (size 1.27 1.27))))
          (number "1" (effects (font (size 1.27 1.27))))
        )
        (pin passive line (at 0 -3.81 90) (length 2.794)
          (name "~" (effects (font (size 1.27 1.27))))
          (number "2" (effects (font (size 1.27 1.27))))
        )
      )
    )
    (symbol "Device:C_Polarized" (pin_numbers hide) (pin_names (offset 0.254)) (in_bom yes) (on_board yes)
      (property "Reference" "C" (at 0.635 2.54 0)
        (effects (font (size 1.27 1.27)) (justify left))
      )
      (property "Value" "C_Polarized" (at 0.635 -2.54 0)
        (effects (font (size 1.27 1.27)) (justify left))
      )
      (property "Footprint" "" (at 0.9652 -3.81 0)
        (effects (font (size 1.27 1.27)) hide)
      )
      (property "Datasheet" "~" (at 0 0 0)
        (effects (font (size 1.27 1.27)) hide)
      )
      (property "ki_keywords" "cap capacitor" (at 0 0 0)
        (effects (font (size 1.27 1.27)) hide)
      )
      (property "ki_description" "Polarized capacitor" (at 0 0 0)
        (effects (font (size 1.27 1.27)) hide)
      )
      (property "ki_fp_filters" "CP_*" (at 0 0 0)
        (effects (font (size 1.27 1.27)) hide)
      )
      (symbol "C_Polarized_0_1"
        (rectangle (start -2.286 0.508) (end 2.286 1.016)
          (stroke (width 0) (type default))
          (fill (type none))
        )
        (polyline
          (pts
            (xy -1.778 2.286)
            (xy -0.762 2.286)
          )
          (stroke (width 0) (type default))
          (fill (type none))
        )
        (polyline
          (pts
            (xy -1.27 2.794)
            (xy -1.27 1.778)
          )
          (stroke (width 0) (type default))
          (fill (type none))
        )
        (rectangle (start 2.286 -0.508) (end -2.286 -1.016)
          (stroke (width 0) (type default))
          (fill (type outline))
        )
      )
      (symbol "C_Polarized_1_1"
        (pin passive line (at 0 3.81 270) (length 2.794)
          (name "~" (effects (font (size 1.27 1.27))))
          (number "1" (effects (font (size 1.27 1.27))))
        )
        (pin passive line (at 0 -3.81 90) (length 2.794)
          (name "~" (effects (font (size 1.27 1.27))))
          (number "2" (effects (font (size 1.27 1.27))))
        )
      )
    )
    (symbol "Device:LED" (pin_numbers hide) (pin_names (offset 1.016) hide) (in_bom yes) (on_board yes)
      (property "Reference" "D" (at 0 2.54 0)
        (effects (font (size 1.27 1.27)))
      )
      (property "Value" "LED" (at 0 -2.54 0)
        (effects (font (size 1.27 1.27)))
      )
      (property "Footprint" "" (at 0 0 0)
        (effects (font (size 1.27 1.27)) hide)
      )
      (property "Datasheet" "~" (at 0 0 0)
        (effects (font (size 1.27 1.27)) hide)
      )
      (property "ki_keywords" "LED diode" (at 0 0 0)
        (effects (font (size 1.27 1.27)) hide)
      )
      (property "ki_description" "Light emitting diode" (at 0 0 0)
        (effects (font (size 1.27 1.27)) hide)
      )
      (property "ki_fp_filters" "LED* LED_SMD:* LED_THT:*" (at 0 0 0)
        (effects (font (size 1.27 1.27)) hide)
      )
      (symbol "LED_0_1"
        (polyline
          (pts
            (xy -1.27 -1.27)
            (xy -1.27 1.27)
          )
          (stroke (width 0.254) (type default))
          (fill (type none))
        )
        (polyline
          (pts
            (xy -1.27 0)
            (xy 1.27 0)
          )
          (stroke (width 0) (type default))
          (fill (type none))
        )
        (polyline
          (pts
            (xy 1.27 -1.27)
            (xy 1.27 1.27)
            (xy -1.27 0)
            (xy 1.27 -1.27)
          )
          (stroke (width 0.254) (type default))
          (fill (type none))
        )
        (polyline
          (pts
            (xy -3.048 -0.762)
            (xy -4.572 -2.286)
            (xy -3.81 -2.286)
            (xy -4.572 -2.286)
            (xy -4.572 -1.524)
          )
          (stroke (width 0) (type default))
          (fill (type none))
        )
        (polyline
          (pts
            (xy -1.778 -0.762)
            (xy -3.302 -2.286)
            (xy -2.54 -2.286)
            (xy -3.302 -2.286)
            (xy -3.302 -1.524)
          )
          (stroke (width 0) (type default))
          (fill (type none))
        )
      )
      (symbol "LED_1_1"
        (pin passive line (at -3.81 0 0) (length 2.54)
          (name "K" (effects (font (size 1.27 1.27))))
          (number "1" (effects (font (size 1.27 1.27))))
        )
        (pin passive line (at 3.81 0 180) (length 2.54)
          (name "A" (effects (font (size 1.27 1.27))))
          (number "2" (effects (font (size 1.27 1.27))))
        )
      )
    )
    (symbol "Device:R" (pin_numbers hide) (pin_names (offset 0)) (in_bom yes) (on_board yes)
      (property "Reference" "R" (at 2.032 0 90)
        (effects (font (size 1.27 1.27)))
      )
      (property "Value" "R" (at 0 0 90)
        (effects (font (size 1.27 1.27)))
      )
      (property "Footprint" "" (at -1.778 0 90)
        (effects (font (size 1.27 1.27)) hide)
      )
      (property "Datasheet" "~" (at 0 0 0)
        (effects (font (size 1.27 1.27)) hide)
      )
      (property "ki_keywords" "R res resistor" (at 0 0 0)
        (effects (font (size 1.27 1.27)) hide)
      )
      (property "ki_description" "Resistor" (at 0 0 0)
        (effects (font (size 1.27 1.27)) hide)
      )
      (property "ki_fp_filters" "R_*" (at 0 0 0)
        (effects (font (size 1.27 1.27)) hide)
      )
      (symbol "R_0_1"
        (rectangle (start -1.016 -2.54) (end 1.016 2.54)
          (stroke (width 0.254) (type default))
          (fill (type none))
        )
      )
      (symbol "R_1_1"
        (pin passive line (at 0 3.81 270) (length 1.27)
          (name "~" (effects (font (size 1.27 1.27))))
          (number "1" (effects (font (size 1.27 1.27))))
        )
        (pin passive line (at 0 -3.81 90) (length 1.27)
          (name "~" (effects (font (size 1.27 1.27))))
          (number "2" (effects (font (size 1.27 1.27))))
        )
      )
    )
    (symbol "Switch:SW_SPST" (pin_names (offset 0) hide) (in_bom yes) (on_board yes)
      (property "Reference" "SW" (at 0 3.175 0)
        (effects (font (size 1.27 1.27)))
      )
      (property "Value" "SW_SPST" (at 0 -2.54 0)
        (effects (font (size 1.27 1.27)))
      )
      (property "Footprint" "" (at 0 0 0)
        (effects (font (size 1.27 1.27)) hide)
      )
      (property "Datasheet" "~" (at 0 0 0)
        (effects (font (size 1.27 1.27)) hide)
      )
      (property "ki_keywords" "switch lever" (at 0 0 0)
        (effects (font (size 1.27 1.27)) hide)
      )
      (property "ki_description" "Single Pole Single Throw (SPST) switch" (at 0 0 0)
        (effects (font (size 1.27 1.27)) hide)
      )
      (symbol "SW_SPST_0_0"
        (circle (center -2.032 0) (radius 0.508)
          (stroke (width 0) (type default))
          (fill (type none))
        )
        (polyline
          (pts
            (xy -1.524 0.254)
            (xy 1.524 1.778)
          )
          (stroke (width 0) (type default))
          (fill (type none))
        )
        (circle (center 2.032 0) (radius 0.508)
          (stroke (width 0) (type default))
          (fill (type none))
        )
      )
      (symbol "SW_SPST_1_1"
        (pin passive line (at -5.08 0 0) (length 2.54)
          (name "A" (effects (font (size 1.27 1.27))))
          (number "1" (effects (font (size 1.27 1.27))))
        )
        (pin passive line (at 5.08 0 180) (length 2.54)
          (name "B" (effects (font (size 1.27 1.27))))
          (number "2" (effects (font (size 1.27 1.27))))
        )
      )
    )
    (symbol "Timer:NE555P" (in_bom yes) (on_board yes)
      (property "Reference" "U" (at -10.16 8.89 0)
        (effects (font (size 1.27 1.27)) (justify left))
      )
      (property "Value" "NE555P" (at 2.54 8.89 0)
        (effects (font (size 1.27 1.27)) (justify left))
      )
      (property "Footprint" "Package_DIP:DIP-8_W7.62mm" (at 16.51 -10.16 0)
        (effects (font (size 1.27 1.27)) hide)
      )
      (property "Datasheet" "http://www.ti.com/lit/ds/symlink/ne555.pdf" (at 21.59 -10.16 0)
        (effects (font (size 1.27 1.27)) hide)
      )
      (property "ki_keywords" "single timer 555" (at 0 0 0)
        (effects (font (size 1.27 1.27)) hide)
      )
      (property "ki_description" "Precision Timers, 555 compatible,  PDIP-8" (at 0 0 0)
        (effects (font (size 1.27 1.27)) hide)
      )
      (property "ki_fp_filters" "DIP*W7.62mm*" (at 0 0 0)
        (effects (font (size 1.27 1.27)) hide)
      )
      (symbol "NE555P_0_0"
        (pin power_in line (at 0 -10.16 90) (length 2.54)
          (name "GND" (effects (font (size 1.27 1.27))))
          (number "1" (effects (font (size 1.27 1.27))))
        )
        (pin power_in line (at 0 10.16 270) (length 2.54)
          (name "VCC" (effects (font (size 1.27 1.27))))
          (number "8" (effects (font (size 1.27 1.27))))
        )
      )
      (symbol "NE555P_0_1"
        (rectangle (start -8.89 -7.62) (end 8.89 7.62)
          (stroke (width 0.254) (type default))
          (fill (type background))
        )
        (rectangle (start -8.89 -7.62) (end 8.89 7.62)
          (stroke (width 0.254) (type default))
          (fill (type background))
        )
      )
      (symbol "NE555P_1_1"
        (pin input line (at -12.7 5.08 0) (length 3.81)
          (name "TR" (effects (font (size 1.27 1.27))))
          (number "2" (effects (font (size 1.27 1.27))))
        )
        (pin output line (at 12.7 5.08 180) (length 3.81)
          (name "Q" (effects (font (size 1.27 1.27))))
          (number "3" (effects (font (size 1.27 1.27))))
        )
        (pin input inverted (at -12.7 -5.08 0) (length 3.81)
          (name "R" (effects (font (size 1.27 1.27))))
          (number "4" (effects (font (size 1.27 1.27))))
        )
        (pin input line (at -12.7 0 0) (length 3.81)
          (name "CV" (effects (font (size 1.27 1.27))))
          (number "5" (effects (font (size 1.27 1.27))))
        )
        (pin input line (at 12.7 -5.08 180) (length 3.81)
          (name "THR" (effects (font (size 1.27 1.27))))
          (number "6" (effects (font (size 1.27 1.27))))
        )
        (pin input line (at 12.7 0 180) (length 3.81)
          (name "DIS" (effects (font (size 1.27 1.27))))
          (number "7" (effects (font (size 1.27 1.27))))
        )
      )
    )
    (symbol "Transistor_BJT:BC858" (pin_names (offset 0) hide) (in_bom yes) (on_board yes)
      (property "Reference" "Q" (at 5.08 1.905 0)
        (effects (font (size 1.27 1.27)) (justify left))
      )
      (property "Value" "BC858" (at 5.08 0 0)
        (effects (font (size 1.27 1.27)) (justify left))
      )
      (property "Footprint" "Package_TO_SOT_SMD:SOT-23" (at 5.08 -1.905 0)
        (effects (font (size 1.27 1.27) italic) (justify left) hide)
      )
      (property "Datasheet" "https://www.onsemi.com/pub/Collateral/BC860-D.pdf" (at 0 0 0)
        (effects (font (size 1.27 1.27)) (justify left) hide)
      )
      (property "ki_keywords" "PNP transistor" (at 0 0 0)
        (effects (font (size 1.27 1.27)) hide)
      )
      (property "ki_description" "0.1A Ic, 30V Vce, PNP Transistor, SOT-23" (at 0 0 0)
        (effects (font (size 1.27 1.27)) hide)
      )
      (property "ki_fp_filters" "SOT?23*" (at 0 0 0)
        (effects (font (size 1.27 1.27)) hide)
      )
      (symbol "BC858_0_1"
        (polyline
          (pts
            (xy 0.635 0.635)
            (xy 2.54 2.54)
          )
          (stroke (width 0) (type default))
          (fill (type none))
        )
        (polyline
          (pts
            (xy 0.635 -0.635)
            (xy 2.54 -2.54)
            (xy 2.54 -2.54)
          )
          (stroke (width 0) (type default))
          (fill (type none))
        )
        (polyline
          (pts
            (xy 0.635 1.905)
            (xy 0.635 -1.905)
            (xy 0.635 -1.905)
          )
          (stroke (width 0.508) (type default))
          (fill (type none))
        )
        (polyline
          (pts
            (xy 2.286 -1.778)
            (xy 1.778 -2.286)
            (xy 1.27 -1.27)
            (xy 2.286 -1.778)
            (xy 2.286 -1.778)
          )
          (stroke (width 0) (type default))
          (fill (type outline))
        )
        (circle (center 1.27 0) (radius 2.8194)
          (stroke (width 0.254) (type default))
          (fill (type none))
        )
      )
      (symbol "BC858_1_1"
        (pin input line (at -5.08 0 0) (length 5.715)
          (name "B" (effects (font (size 1.27 1.27))))
          (number "1" (effects (font (size 1.27 1.27))))
        )
        (pin passive line (at 2.54 -5.08 90) (length 2.54)
          (name "E" (effects (font (size 1.27 1.27))))
          (number "2" (effects (font (size 1.27 1.27))))
        )
        (pin passive line (at 2.54 5.08 270) (length 2.54)
          (name "C" (effects (font (size 1.27 1.27))))
          (number "3" (effects (font (size 1.27 1.27))))
        )
      )
    )
    (symbol "power:+5V" (power) (pin_names (offset 0)) (in_bom yes) (on_board yes)
      (property "Reference" "#PWR" (at 0 -3.81 0)
        (effects (font (size 1.27 1.27)) hide)
      )
      (property "Value" "+5V" (at 0 3.556 0)
        (effects (font (size 1.27 1.27)))
      )
      (property "Footprint" "" (at 0 0 0)
        (effects (font (size 1.27 1.27)) hide)
      )
      (property "Datasheet" "" (at 0 0 0)
        (effects (font (size 1.27 1.27)) hide)
      )
      (property "ki_keywords" "global power" (at 0 0 0)
        (effects (font (size 1.27 1.27)) hide)
      )
      (property "ki_description" "Power symbol creates a global label with name \"+5V\"" (at 0 0 0)
        (effects (font (size 1.27 1.27)) hide)
      )
      (symbol "+5V_0_1"
        (polyline
          (pts
            (xy -0.762 1.27)
            (xy 0 2.54)
          )
          (stroke (width 0) (type default))
          (fill (type none))
        )
        (polyline
          (pts
            (xy 0 0)
            (xy 0 2.54)
          )
          (stroke (width 0) (type default))
          (fill (type none))
        )
        (polyline
          (pts
            (xy 0 2.54)
            (xy 0.762 1.27)
          )
          (stroke (width 0) (type default))
          (fill (type none))
        )
      )
      (symbol "+5V_1_1"
        (pin power_in line (at 0 0 90) (length 0) hide
          (name "+5V" (effects (font (size 1.27 1.27))))
          (number "1" (effects (font (size 1.27 1.27))))
        )
      )
    )
    (symbol "power:GND" (power) (pin_names (offset 0)) (in_bom yes) (on_board yes)
      (property "Reference" "#PWR" (at 0 -6.35 0)
        (effects (font (size 1.27 1.27)) hide)
      )
      (property "Value" "GND" (at 0 -3.81 0)
        (effects (font (size 1.27 1.27)))
      )
      (property "Footprint" "" (at 0 0 0)
        (effects (font (size 1.27 1.27)) hide)
      )
      (property "Datasheet" "" (at 0 0 0)
        (effects (font (size 1.27 1.27)) hide)
      )
      (property "ki_keywords" "global power" (at 0 0 0)
        (effects (font (size 1.27 1.27)) hide)
      )
      (property "ki_description" "Power symbol creates a global label with name \"GND\" , ground" (at 0 0 0)
        (effects (font (size 1.27 1.27)) hide)
      )
      (symbol "GND_0_1"
        (polyline
          (pts
            (xy 0 0)
            (xy 0 -1.27)
            (xy 1.27 -1.27)
            (xy 0 -2.54)
            (xy -1.27 -1.27)
            (xy 0 -1.27)
          )
          (stroke (width 0) (type default))
          (fill (type none))
        )
      )
      (symbol "GND_1_1"
        (pin power_in line (at 0 0 270) (length 0) hide
          (name "GND" (effects (font (size 1.27 1.27))))
          (number "1" (effects (font (size 1.27 1.27))))
        )
      )
    )
  )

  (junction (at 92.71 90.17) (diameter 0) (color 0 0 0 0)
    (uuid 4b52fa3c-f26e-46c0-bf19-1ec0e7a48b05)
  )
  (junction (at 118.11 77.47) (diameter 0) (color 0 0 0 0)
    (uuid 6a7769c3-c80d-4f67-890e-9d198d478ddd)
  )
  (junction (at 135.89 45.72) (diameter 0) (color 0 0 0 0)
    (uuid 731de235-0a1b-4129-aca9-586f376a2413)
  )
  (junction (at 106.68 64.77) (diameter 0) (color 0 0 0 0)
    (uuid 764e9b26-4057-4449-8217-56505e0f3401)
  )
  (junction (at 152.4 63.5) (diameter 0) (color 0 0 0 0)
    (uuid 7bb94872-8dbb-49c9-ba04-f5628db9fbfd)
  )
  (junction (at 171.45 128.27) (diameter 0) (color 0 0 0 0)
    (uuid 86283825-26b2-484d-a379-58509c7afb04)
  )
  (junction (at 120.65 45.72) (diameter 0) (color 0 0 0 0)
    (uuid 8784da16-aab1-4084-9421-1d07ddb5ea1f)
  )
  (junction (at 97.79 72.39) (diameter 0) (color 0 0 0 0)
    (uuid 8fb20e93-f7b0-4261-985f-c093706f08ba)
  )
  (junction (at 135.89 77.47) (diameter 0) (color 0 0 0 0)
    (uuid a83fc53b-f2e4-4a01-9c00-7538b050eb9c)
  )

  (wire (pts (xy 88.9 80.01) (xy 88.9 72.39))
    (stroke (width 0) (type default))
    (uuid 03c52c21-9f81-4a19-9890-eb9cfb396402)
  )
  (wire (pts (xy 184.15 147.32) (xy 184.15 146.05))
    (stroke (width 0) (type default))
    (uuid 0a21e7d0-6c69-4634-b2b6-f0d0223d8049)
  )
  (wire (pts (xy 114.3 53.34) (xy 114.3 64.77))
    (stroke (width 0) (type default))
    (uuid 0a607643-7cbe-40aa-8963-65165d337d58)
  )
  (wire (pts (xy 87.63 80.01) (xy 88.9 80.01))
    (stroke (width 0) (type default))
    (uuid 0a7ad466-7b8b-4d6b-93ef-3281d9e54a91)
  )
  (wire (pts (xy 95.25 137.16) (xy 95.25 138.43))
    (stroke (width 0) (type default))
    (uuid 0aa4d9f2-137f-407a-ab80-92e4471b52a7)
  )
  (wire (pts (xy 123.19 53.34) (xy 114.3 53.34))
    (stroke (width 0) (type default))
    (uuid 0c3504f3-b1ac-4d16-89e8-22bd078339b8)
  )
  (wire (pts (xy 135.89 43.18) (xy 135.89 45.72))
    (stroke (width 0) (type default))
    (uuid 0da1fa1b-42c1-4d2b-a998-dadd3810d15b)
  )
  (wire (pts (xy 106.68 77.47) (xy 106.68 74.93))
    (stroke (width 0) (type default))
    (uuid 10d0e8f3-fddb-4eac-917f-4364013d5539)
  )
  (wire (pts (xy 148.59 63.5) (xy 152.4 63.5))
    (stroke (width 0) (type default))
    (uuid 11250ad8-3722-467e-b9c0-3f871702e38b)
  )
  (wire (pts (xy 106.68 64.77) (xy 106.68 67.31))
    (stroke (width 0) (type default))
    (uuid 11e5ad7c-b3cd-4d0a-b629-21b4d9115b6f)
  )
  (wire (pts (xy 148.59 53.34) (xy 172.72 53.34))
    (stroke (width 0) (type default))
    (uuid 1c14fcf7-7afe-40ba-a136-a2c0456a4f51)
  )
  (wire (pts (xy 92.71 90.17) (xy 97.79 90.17))
    (stroke (width 0) (type default))
    (uuid 27135aea-5c46-4c58-88a7-0cff74655c1f)
  )
  (wire (pts (xy 95.25 113.03) (xy 95.25 115.57))
    (stroke (width 0) (type default))
    (uuid 27f37be1-f41b-4f91-9608-f709ea51242b)
  )
  (wire (pts (xy 88.9 72.39) (xy 97.79 72.39))
    (stroke (width 0) (type default))
    (uuid 2ce31869-dfa4-442d-b82c-c59ac0baaa21)
  )
  (wire (pts (xy 184.15 138.43) (xy 184.15 133.35))
    (stroke (width 0) (type default))
    (uuid 2d804580-45d8-4d5b-af99-e9291a298cf1)
  )
  (wire (pts (xy 123.19 58.42) (xy 118.11 58.42))
    (stroke (width 0) (type default))
    (uuid 2e074f39-f341-4958-bef7-3b1a944c481f)
  )
  (wire (pts (xy 171.45 146.05) (xy 171.45 147.32))
    (stroke (width 0) (type default))
    (uuid 3a0155a8-2358-4768-b398-e7751d6c5ecc)
  )
  (wire (pts (xy 106.68 64.77) (xy 97.79 64.77))
    (stroke (width 0) (type default))
    (uuid 3a0a9998-2cda-4da2-9cf5-e90d754bd38f)
  )
  (wire (pts (xy 152.4 58.42) (xy 152.4 63.5))
    (stroke (width 0) (type default))
    (uuid 3b85451a-6e12-45fc-96a1-77360bc18215)
  )
  (wire (pts (xy 97.79 64.77) (xy 97.79 72.39))
    (stroke (width 0) (type default))
    (uuid 45099ef8-b470-4f34-a90e-0a936a6b6d10)
  )
  (wire (pts (xy 152.4 120.65) (xy 154.94 120.65))
    (stroke (width 0) (type default))
    (uuid 463ef955-df04-4e3f-a3b0-531d202b4f5e)
  )
  (wire (pts (xy 97.79 76.2) (xy 97.79 72.39))
    (stroke (width 0) (type default))
    (uuid 4888375b-5458-4871-a1fa-505252626301)
  )
  (wire (pts (xy 114.3 64.77) (xy 106.68 64.77))
    (stroke (width 0) (type default))
    (uuid 4c2296af-32ad-43f5-a2a0-7acff7a8cb73)
  )
  (wire (pts (xy 118.11 77.47) (xy 106.68 77.47))
    (stroke (width 0) (type default))
    (uuid 4ee0ea3c-39fa-4305-9302-2ee36fb0816a)
  )
  (wire (pts (xy 76.2 120.65) (xy 78.74 120.65))
    (stroke (width 0) (type default))
    (uuid 53f47836-096c-448f-8c94-f2235e5557d3)
  )
  (wire (pts (xy 135.89 77.47) (xy 135.89 80.01))
    (stroke (width 0) (type default))
    (uuid 5662e5d6-bc2a-4462-87fe-107c6d9ab49d)
  )
  (wire (pts (xy 88.9 90.17) (xy 92.71 90.17))
    (stroke (width 0) (type default))
    (uuid 573709ba-970a-43b6-bdd2-b76923af50ff)
  )
  (wire (pts (xy 135.89 77.47) (xy 152.4 77.47))
    (stroke (width 0) (type default))
    (uuid 62fd7450-d4b9-4ff8-a253-d4fe84a74245)
  )
  (wire (pts (xy 86.36 120.65) (xy 87.63 120.65))
    (stroke (width 0) (type default))
    (uuid 63a80e7b-5e29-492a-8025-d9ff6addda0f)
  )
  (wire (pts (xy 171.45 137.16) (xy 171.45 138.43))
    (stroke (width 0) (type default))
    (uuid 6f252de8-4e33-4d64-8d6f-88700c27788c)
  )
  (wire (pts (xy 162.56 120.65) (xy 163.83 120.65))
    (stroke (width 0) (type default))
    (uuid 74d268c9-25be-4958-a09c-af7914daec91)
  )
  (wire (pts (xy 171.45 125.73) (xy 171.45 128.27))
    (stroke (width 0) (type default))
    (uuid 77dbfddd-e2d7-43c4-9e2f-d61569f3a788)
  )
  (wire (pts (xy 95.25 125.73) (xy 95.25 129.54))
    (stroke (width 0) (type default))
    (uuid 7b4f6d54-7ed6-4901-bb69-20ba0e1e7347)
  )
  (wire (pts (xy 92.71 90.17) (xy 92.71 92.71))
    (stroke (width 0) (type default))
    (uuid 840bc222-eac7-4d11-ab33-8854670f18ea)
  )
  (wire (pts (xy 87.63 82.55) (xy 88.9 82.55))
    (stroke (width 0) (type default))
    (uuid 850aa5f6-5bb1-4c2a-99c5-f3161b79c2ed)
  )
  (wire (pts (xy 171.45 113.03) (xy 171.45 115.57))
    (stroke (width 0) (type default))
    (uuid 89e7c424-2927-41ed-9462-887c20f01298)
  )
  (wire (pts (xy 171.45 128.27) (xy 171.45 129.54))
    (stroke (width 0) (type default))
    (uuid 8af92a00-d5f4-44c2-808c-388f9f4dff42)
  )
  (wire (pts (xy 135.89 77.47) (xy 135.89 68.58))
    (stroke (width 0) (type default))
    (uuid 8d53e9c9-18a3-4109-aa53-d44adf9141cf)
  )
  (wire (pts (xy 189.23 130.81) (xy 184.15 130.81))
    (stroke (width 0) (type default))
    (uuid 9036254a-4409-4c3b-aa32-ac5ac201e1cc)
  )
  (wire (pts (xy 97.79 86.36) (xy 97.79 90.17))
    (stroke (width 0) (type default))
    (uuid a15b1a81-421d-431c-975d-5ca2fb5503b1)
  )
  (wire (pts (xy 88.9 82.55) (xy 88.9 90.17))
    (stroke (width 0) (type default))
    (uuid a57a044f-1e0a-4f57-b98f-7a871f824575)
  )
  (wire (pts (xy 152.4 63.5) (xy 158.75 63.5))
    (stroke (width 0) (type default))
    (uuid aed52a1c-d78d-4328-9a5b-0dae9cca9894)
  )
  (wire (pts (xy 123.19 63.5) (xy 120.65 63.5))
    (stroke (width 0) (type default))
    (uuid b5084c89-9ef9-4fc9-83c8-88e6bc8e892b)
  )
  (wire (pts (xy 158.75 45.72) (xy 158.75 54.61))
    (stroke (width 0) (type default))
    (uuid b80307a9-b810-4fc6-81ab-e2a116bf8242)
  )
  (wire (pts (xy 106.68 62.23) (xy 106.68 64.77))
    (stroke (width 0) (type default))
    (uuid b8413942-d6c5-419c-abde-ad0808ce4040)
  )
  (wire (pts (xy 120.65 63.5) (xy 120.65 45.72))
    (stroke (width 0) (type default))
    (uuid bb4dbbaa-4b5d-4e6d-8c43-1b8be9dab861)
  )
  (wire (pts (xy 118.11 58.42) (xy 118.11 67.31))
    (stroke (width 0) (type default))
    (uuid bfd87b05-4ebc-4172-9869-55843457474c)
  )
  (wire (pts (xy 118.11 74.93) (xy 118.11 77.47))
    (stroke (width 0) (type default))
    (uuid c2037d43-7f25-42d0-b395-5b43175f9944)
  )
  (wire (pts (xy 158.75 63.5) (xy 158.75 62.23))
    (stroke (width 0) (type default))
    (uuid cb71c3f8-0ed5-4b40-9de3-746f0ee4a205)
  )
  (wire (pts (xy 184.15 133.35) (xy 189.23 133.35))
    (stroke (width 0) (type default))
    (uuid cb848295-591b-4fc5-a51a-bce8a59b5c70)
  )
  (wire (pts (xy 118.11 77.47) (xy 135.89 77.47))
    (stroke (width 0) (type default))
    (uuid cf3a14b3-a3f8-4538-a7f3-850ef7d491e7)
  )
  (wire (pts (xy 152.4 77.47) (xy 152.4 74.93))
    (stroke (width 0) (type default))
    (uuid cfee6a30-8392-4b95-afc6-b9d992173f75)
  )
  (wire (pts (xy 120.65 45.72) (xy 135.89 45.72))
    (stroke (width 0) (type default))
    (uuid cffab4f5-85f3-407b-a649-74bb72009e9b)
  )
  (wire (pts (xy 106.68 45.72) (xy 106.68 54.61))
    (stroke (width 0) (type default))
    (uuid d326ebbf-79b6-48d2-a6a7-ad8abb56bf3d)
  )
  (wire (pts (xy 152.4 63.5) (xy 152.4 67.31))
    (stroke (width 0) (type default))
    (uuid e60135aa-f13b-4d7f-a02d-9f5e9a476e7c)
  )
  (wire (pts (xy 148.59 58.42) (xy 152.4 58.42))
    (stroke (width 0) (type default))
    (uuid e8954351-c94d-4870-9463-71cfee4378c5)
  )
  (wire (pts (xy 106.68 45.72) (xy 120.65 45.72))
    (stroke (width 0) (type default))
    (uuid e95bc7e1-afa8-4e79-944d-b78ff54851e4)
  )
  (wire (pts (xy 184.15 128.27) (xy 171.45 128.27))
    (stroke (width 0) (type default))
    (uuid f20e7d11-a476-4b8a-926b-dff7faa8a7ed)
  )
  (wire (pts (xy 135.89 45.72) (xy 135.89 48.26))
    (stroke (width 0) (type default))
    (uuid f241e0ee-d3d0-4acb-927b-10754037fbc9)
  )
  (wire (pts (xy 135.89 45.72) (xy 158.75 45.72))
    (stroke (width 0) (type default))
    (uuid f37f4fd2-2740-4984-ac7f-f80065bd2757)
  )
  (wire (pts (xy 184.15 128.27) (xy 184.15 130.81))
    (stroke (width 0) (type default))
    (uuid f6ed04a0-ba11-4b67-938a-2ac59d652fb6)
  )
  (wire (pts (xy 95.25 146.05) (xy 95.25 147.32))
    (stroke (width 0) (type default))
    (uuid ffee5a36-5bf2-4c4a-b1fe-60fb5fb6d661)
  )

  (hierarchical_label "~{RUN}" (shape input) (at 152.4 120.65 180) (fields_autoplaced)
    (effects (font (size 1.27 1.27)) (justify right))
    (uuid 6325db16-d337-46ef-8950-87c3050a5897)
  )
  (hierarchical_label "RESET" (shape output) (at 172.72 53.34 0) (fields_autoplaced)
    (effects (font (size 1.27 1.27)) (justify left))
    (uuid 6ebe6d63-4056-48e8-9eff-d825f638146f)
  )
  (hierarchical_label "~{RESET}" (shape input) (at 76.2 120.65 180) (fields_autoplaced)
    (effects (font (size 1.27 1.27)) (justify right))
    (uuid f63310ec-6ab5-4dc4-b39c-007271092b15)
  )

  (symbol (lib_id "Timer:NE555P") (at 135.89 58.42 0) (unit 1)
    (in_bom yes) (on_board yes) (dnp no)
    (uuid 00000000-0000-0000-0000-000061487989)
    (property "Reference" "U201" (at 130.81 48.26 0)
      (effects (font (size 1.27 1.27)))
    )
    (property "Value" "NE555P" (at 140.97 48.26 0)
      (effects (font (size 1.27 1.27)))
    )
    (property "Footprint" "Package_SO:SOIC-8_3.9x4.9mm_P1.27mm" (at 152.4 68.58 0)
      (effects (font (size 1.27 1.27)) hide)
    )
    (property "Datasheet" "http://www.ti.com/lit/ds/symlink/ne555.pdf" (at 157.48 68.58 0)
      (effects (font (size 1.27 1.27)) hide)
    )
    (pin "1" (uuid 6cda3392-f05b-4513-81e4-1c8708c78bee))
    (pin "8" (uuid 23610b5b-a059-4edc-9bd8-16218f5bf787))
    (pin "2" (uuid b5114e08-9102-4aba-8f25-2e8ccbf4ee9e))
    (pin "3" (uuid f7bf880c-0009-40ad-8823-96508733622b))
    (pin "4" (uuid 7341ff0b-1b89-412c-adcf-a1d328fa12b5))
    (pin "5" (uuid cd377e30-a192-4dd4-b5fa-d775e5c2c804))
    (pin "6" (uuid 7c3d4824-d04b-452d-ac6e-d173131161b0))
    (pin "7" (uuid e0ba8835-9667-4cf5-9c47-e09a69b41e52))
    (instances
      (project "yddraig030"
        (path "/abe3c03e-744a-4406-8e50-6a10745f0c43/00000000-0000-0000-0000-00006147db65"
          (reference "U201") (unit 1)
        )
      )
    )
  )

  (symbol (lib_id "Connector_Generic:Conn_01x02") (at 82.55 80.01 0) (mirror y) (unit 1)
    (in_bom yes) (on_board yes) (dnp no)
    (uuid 00000000-0000-0000-0000-00006148798f)
    (property "Reference" "J201" (at 80.518 80.2132 0)
      (effects (font (size 1.27 1.27)) (justify left))
    )
    (property "Value" "ExtReset" (at 80.518 82.5246 0)
      (effects (font (size 1.27 1.27)) (justify left))
    )
    (property "Footprint" "Connector_PinHeader_2.54mm:PinHeader_1x02_P2.54mm_Vertical" (at 82.55 80.01 0)
      (effects (font (size 1.27 1.27)) hide)
    )
    (property "Datasheet" "~" (at 82.55 80.01 0)
      (effects (font (size 1.27 1.27)) hide)
    )
    (pin "1" (uuid 2512bafa-aa17-47a2-87a4-f19ab6a2259c))
    (pin "2" (uuid 5e7b2ba3-d35f-449f-af6f-7a6d75fc81a1))
    (instances
      (project "yddraig030"
        (path "/abe3c03e-744a-4406-8e50-6a10745f0c43/00000000-0000-0000-0000-00006147db65"
          (reference "J201") (unit 1)
        )
      )
    )
  )

  (symbol (lib_id "Device:R") (at 106.68 58.42 0) (unit 1)
    (in_bom yes) (on_board yes) (dnp no)
    (uuid 00000000-0000-0000-0000-000061487998)
    (property "Reference" "R203" (at 108.458 57.2516 0)
      (effects (font (size 1.27 1.27)) (justify left))
    )
    (property "Value" "10K" (at 108.458 59.563 0)
      (effects (font (size 1.27 1.27)) (justify left))
    )
    (property "Footprint" "Resistor_SMD:R_0805_2012Metric" (at 104.902 58.42 90)
      (effects (font (size 1.27 1.27)) hide)
    )
    (property "Datasheet" "~" (at 106.68 58.42 0)
      (effects (font (size 1.27 1.27)) hide)
    )
    (pin "1" (uuid 0b3e8171-175a-490a-b736-1ca4955c1970))
    (pin "2" (uuid 1b1dadc2-6b63-41cb-ac1b-f88c3d8ab182))
    (instances
      (project "yddraig030"
        (path "/abe3c03e-744a-4406-8e50-6a10745f0c43/00000000-0000-0000-0000-00006147db65"
          (reference "R203") (unit 1)
        )
      )
    )
  )

  (symbol (lib_id "Device:R") (at 158.75 58.42 0) (unit 1)
    (in_bom yes) (on_board yes) (dnp no)
    (uuid 00000000-0000-0000-0000-00006148799e)
    (property "Reference" "R204" (at 160.528 57.2516 0)
      (effects (font (size 1.27 1.27)) (justify left))
    )
    (property "Value" "38K" (at 160.528 59.563 0)
      (effects (font (size 1.27 1.27)) (justify left))
    )
    (property "Footprint" "Resistor_SMD:R_0805_2012Metric" (at 156.972 58.42 90)
      (effects (font (size 1.27 1.27)) hide)
    )
    (property "Datasheet" "~" (at 158.75 58.42 0)
      (effects (font (size 1.27 1.27)) hide)
    )
    (pin "1" (uuid 5d276922-a869-4f5d-88b0-61d986223d09))
    (pin "2" (uuid b6fbd8ac-1e2f-408f-b214-13e2961880de))
    (instances
      (project "yddraig030"
        (path "/abe3c03e-744a-4406-8e50-6a10745f0c43/00000000-0000-0000-0000-00006147db65"
          (reference "R204") (unit 1)
        )
      )
    )
  )

  (symbol (lib_id "Device:C_Polarized") (at 152.4 71.12 0) (unit 1)
    (in_bom yes) (on_board yes) (dnp no)
    (uuid 00000000-0000-0000-0000-0000614879a4)
    (property "Reference" "C203" (at 155.3972 69.9516 0)
      (effects (font (size 1.27 1.27)) (justify left))
    )
    (property "Value" "10uF" (at 155.3972 72.263 0)
      (effects (font (size 1.27 1.27)) (justify left))
    )
    (property "Footprint" "Capacitor_SMD:CP_Elec_4x5.3" (at 153.3652 74.93 0)
      (effects (font (size 1.27 1.27)) hide)
    )
    (property "Datasheet" "~" (at 152.4 71.12 0)
      (effects (font (size 1.27 1.27)) hide)
    )
    (pin "1" (uuid 1db2d99a-24d1-44c6-b5a4-129b77e93baf))
    (pin "2" (uuid 881427d7-7886-4b13-9674-64e2f63dd59b))
    (instances
      (project "yddraig030"
        (path "/abe3c03e-744a-4406-8e50-6a10745f0c43/00000000-0000-0000-0000-00006147db65"
          (reference "C203") (unit 1)
        )
      )
    )
  )

  (symbol (lib_id "Device:C_Polarized") (at 106.68 71.12 0) (unit 1)
    (in_bom yes) (on_board yes) (dnp no)
    (uuid 00000000-0000-0000-0000-0000614879aa)
    (property "Reference" "C201" (at 109.6772 69.9516 0)
      (effects (font (size 1.27 1.27)) (justify left))
    )
    (property "Value" "10uF" (at 109.6772 72.263 0)
      (effects (font (size 1.27 1.27)) (justify left))
    )
    (property "Footprint" "Capacitor_SMD:CP_Elec_4x5.3" (at 107.6452 74.93 0)
      (effects (font (size 1.27 1.27)) hide)
    )
    (property "Datasheet" "~" (at 106.68 71.12 0)
      (effects (font (size 1.27 1.27)) hide)
    )
    (pin "1" (uuid 1e7a4b67-ed41-4adc-bf35-37913645a5b1))
    (pin "2" (uuid d265c32f-a6b1-4ec8-b80f-8e7b133dc8c4))
    (instances
      (project "yddraig030"
        (path "/abe3c03e-744a-4406-8e50-6a10745f0c43/00000000-0000-0000-0000-00006147db65"
          (reference "C201") (unit 1)
        )
      )
    )
  )

  (symbol (lib_id "Device:C") (at 118.11 71.12 0) (unit 1)
    (in_bom yes) (on_board yes) (dnp no)
    (uuid 00000000-0000-0000-0000-0000614879b0)
    (property "Reference" "C202" (at 121.031 69.9516 0)
      (effects (font (size 1.27 1.27)) (justify left))
    )
    (property "Value" "10nF" (at 121.031 72.263 0)
      (effects (font (size 1.27 1.27)) (justify left))
    )
    (property "Footprint" "Capacitor_SMD:C_0805_2012Metric" (at 119.0752 74.93 0)
      (effects (font (size 1.27 1.27)) hide)
    )
    (property "Datasheet" "~" (at 118.11 71.12 0)
      (effects (font (size 1.27 1.27)) hide)
    )
    (pin "1" (uuid a6d37593-4ea8-4de4-91af-4fb36d0a9f33))
    (pin "2" (uuid 79c2f0eb-0990-4585-b546-5fcf2febc252))
    (instances
      (project "yddraig030"
        (path "/abe3c03e-744a-4406-8e50-6a10745f0c43/00000000-0000-0000-0000-00006147db65"
          (reference "C202") (unit 1)
        )
      )
    )
  )

  (symbol (lib_id "power:GND") (at 135.89 80.01 0) (unit 1)
    (in_bom yes) (on_board yes) (dnp no)
    (uuid 00000000-0000-0000-0000-0000614879bc)
    (property "Reference" "#PWR0205" (at 135.89 86.36 0)
      (effects (font (size 1.27 1.27)) hide)
    )
    (property "Value" "GND" (at 136.017 84.4042 0)
      (effects (font (size 1.27 1.27)))
    )
    (property "Footprint" "" (at 135.89 80.01 0)
      (effects (font (size 1.27 1.27)) hide)
    )
    (property "Datasheet" "" (at 135.89 80.01 0)
      (effects (font (size 1.27 1.27)) hide)
    )
    (pin "1" (uuid dc627a33-8631-4bf7-9cfa-e7d61c1c50ec))
    (instances
      (project "yddraig030"
        (path "/abe3c03e-744a-4406-8e50-6a10745f0c43/00000000-0000-0000-0000-00006147db65"
          (reference "#PWR0205") (unit 1)
        )
      )
    )
  )

  (symbol (lib_id "power:+5V") (at 135.89 43.18 0) (unit 1)
    (in_bom yes) (on_board yes) (dnp no)
    (uuid 00000000-0000-0000-0000-0000614879ce)
    (property "Reference" "#PWR0204" (at 135.89 46.99 0)
      (effects (font (size 1.27 1.27)) hide)
    )
    (property "Value" "+5V" (at 136.271 38.7858 0)
      (effects (font (size 1.27 1.27)))
    )
    (property "Footprint" "" (at 135.89 43.18 0)
      (effects (font (size 1.27 1.27)) hide)
    )
    (property "Datasheet" "" (at 135.89 43.18 0)
      (effects (font (size 1.27 1.27)) hide)
    )
    (pin "1" (uuid af2111e1-7fe2-42e9-975e-53da5206848d))
    (instances
      (project "yddraig030"
        (path "/abe3c03e-744a-4406-8e50-6a10745f0c43/00000000-0000-0000-0000-00006147db65"
          (reference "#PWR0204") (unit 1)
        )
      )
    )
  )

  (symbol (lib_id "power:GND") (at 92.71 92.71 0) (unit 1)
    (in_bom yes) (on_board yes) (dnp no)
    (uuid 00000000-0000-0000-0000-0000614879ed)
    (property "Reference" "#PWR0201" (at 92.71 99.06 0)
      (effects (font (size 1.27 1.27)) hide)
    )
    (property "Value" "GND" (at 92.837 97.1042 0)
      (effects (font (size 1.27 1.27)))
    )
    (property "Footprint" "" (at 92.71 92.71 0)
      (effects (font (size 1.27 1.27)) hide)
    )
    (property "Datasheet" "" (at 92.71 92.71 0)
      (effects (font (size 1.27 1.27)) hide)
    )
    (pin "1" (uuid 025e1df8-baa6-4e24-8c3a-64138fa0c841))
    (instances
      (project "yddraig030"
        (path "/abe3c03e-744a-4406-8e50-6a10745f0c43/00000000-0000-0000-0000-00006147db65"
          (reference "#PWR0201") (unit 1)
        )
      )
    )
  )

  (symbol (lib_id "Switch:SW_SPST") (at 97.79 81.28 90) (unit 1)
    (in_bom yes) (on_board yes) (dnp no)
    (uuid 00000000-0000-0000-0000-0000614879f7)
    (property "Reference" "SW201" (at 100.0252 80.1116 90)
      (effects (font (size 1.27 1.27)) (justify right))
    )
    (property "Value" "Reset" (at 100.0252 82.423 90)
      (effects (font (size 1.27 1.27)) (justify right))
    )
    (property "Footprint" "Button_Switch_THT:SW_PUSH_6mm_H4.3mm" (at 97.79 81.28 0)
      (effects (font (size 1.27 1.27)) hide)
    )
    (property "Datasheet" "~" (at 97.79 81.28 0)
      (effects (font (size 1.27 1.27)) hide)
    )
    (pin "1" (uuid de3a5f2f-24a4-41f4-b71c-438b51463a92))
    (pin "2" (uuid 964d3bf4-0bcc-44ee-b0dc-271ca8b5051f))
    (instances
      (project "yddraig030"
        (path "/abe3c03e-744a-4406-8e50-6a10745f0c43/00000000-0000-0000-0000-00006147db65"
          (reference "SW201") (unit 1)
        )
      )
    )
  )

  (symbol (lib_id "Device:R") (at 82.55 120.65 270) (unit 1)
    (in_bom yes) (on_board yes) (dnp no)
    (uuid 00000000-0000-0000-0000-0000614879fe)
    (property "Reference" "R201" (at 82.55 115.3922 90)
      (effects (font (size 1.27 1.27)))
    )
    (property "Value" "1K" (at 82.55 117.7036 90)
      (effects (font (size 1.27 1.27)))
    )
    (property "Footprint" "Resistor_SMD:R_0805_2012Metric" (at 82.55 118.872 90)
      (effects (font (size 1.27 1.27)) hide)
    )
    (property "Datasheet" "~" (at 82.55 120.65 0)
      (effects (font (size 1.27 1.27)) hide)
    )
    (pin "1" (uuid 8f5fd504-341a-436f-ba16-48e59ead6771))
    (pin "2" (uuid 38027a5d-7d66-4d7f-81d4-5656a1938414))
    (instances
      (project "yddraig030"
        (path "/abe3c03e-744a-4406-8e50-6a10745f0c43/00000000-0000-0000-0000-00006147db65"
          (reference "R201") (unit 1)
        )
      )
    )
  )

  (symbol (lib_id "Device:R") (at 95.25 142.24 180) (unit 1)
    (in_bom yes) (on_board yes) (dnp no)
    (uuid 00000000-0000-0000-0000-000061487a04)
    (property "Reference" "R202" (at 97.028 141.0716 0)
      (effects (font (size 1.27 1.27)) (justify right))
    )
    (property "Value" "150R" (at 97.028 143.383 0)
      (effects (font (size 1.27 1.27)) (justify right))
    )
    (property "Footprint" "Resistor_SMD:R_0805_2012Metric" (at 97.028 142.24 90)
      (effects (font (size 1.27 1.27)) hide)
    )
    (property "Datasheet" "~" (at 95.25 142.24 0)
      (effects (font (size 1.27 1.27)) hide)
    )
    (pin "1" (uuid 6d71b73c-c3df-416f-b50f-20b1e5290f30))
    (pin "2" (uuid e586f24c-b0c2-4143-b1dd-0100dfe100fc))
    (instances
      (project "yddraig030"
        (path "/abe3c03e-744a-4406-8e50-6a10745f0c43/00000000-0000-0000-0000-00006147db65"
          (reference "R202") (unit 1)
        )
      )
    )
  )

  (symbol (lib_id "Device:LED") (at 95.25 133.35 90) (unit 1)
    (in_bom yes) (on_board yes) (dnp no)
    (uuid 00000000-0000-0000-0000-000061487a10)
    (property "Reference" "D201" (at 97.79 133.35 0)
      (effects (font (size 1.27 1.27)))
    )
    (property "Value" "RED" (at 92.0496 133.5278 0)
      (effects (font (size 1.27 1.27)))
    )
    (property "Footprint" "LED_SMD:LED_1206_3216Metric" (at 95.25 133.35 0)
      (effects (font (size 1.27 1.27)) hide)
    )
    (property "Datasheet" "~" (at 95.25 133.35 0)
      (effects (font (size 1.27 1.27)) hide)
    )
    (pin "1" (uuid 397d7902-0fce-481c-b7e2-20b2136a5499))
    (pin "2" (uuid b4a8192d-dfd6-4117-9853-7b0a61a94f3b))
    (instances
      (project "yddraig030"
        (path "/abe3c03e-744a-4406-8e50-6a10745f0c43/00000000-0000-0000-0000-00006147db65"
          (reference "D201") (unit 1)
        )
      )
    )
  )

  (symbol (lib_id "power:GND") (at 95.25 147.32 0) (unit 1)
    (in_bom yes) (on_board yes) (dnp no)
    (uuid 00000000-0000-0000-0000-000061487a16)
    (property "Reference" "#PWR0203" (at 95.25 153.67 0)
      (effects (font (size 1.27 1.27)) hide)
    )
    (property "Value" "GND" (at 95.377 151.7142 0)
      (effects (font (size 1.27 1.27)))
    )
    (property "Footprint" "" (at 95.25 147.32 0)
      (effects (font (size 1.27 1.27)) hide)
    )
    (property "Datasheet" "" (at 95.25 147.32 0)
      (effects (font (size 1.27 1.27)) hide)
    )
    (pin "1" (uuid 45bf23e4-4443-4e90-891e-44e28cb7e0ce))
    (instances
      (project "yddraig030"
        (path "/abe3c03e-744a-4406-8e50-6a10745f0c43/00000000-0000-0000-0000-00006147db65"
          (reference "#PWR0203") (unit 1)
        )
      )
    )
  )

  (symbol (lib_id "power:+5V") (at 95.25 113.03 0) (unit 1)
    (in_bom yes) (on_board yes) (dnp no)
    (uuid 00000000-0000-0000-0000-000061487a1c)
    (property "Reference" "#PWR0202" (at 95.25 116.84 0)
      (effects (font (size 1.27 1.27)) hide)
    )
    (property "Value" "+5V" (at 95.631 108.6358 0)
      (effects (font (size 1.27 1.27)))
    )
    (property "Footprint" "" (at 95.25 113.03 0)
      (effects (font (size 1.27 1.27)) hide)
    )
    (property "Datasheet" "" (at 95.25 113.03 0)
      (effects (font (size 1.27 1.27)) hide)
    )
    (pin "1" (uuid d1323ee2-fa53-4dcf-baef-99653d3d6657))
    (instances
      (project "yddraig030"
        (path "/abe3c03e-744a-4406-8e50-6a10745f0c43/00000000-0000-0000-0000-00006147db65"
          (reference "#PWR0202") (unit 1)
        )
      )
    )
  )

  (symbol (lib_id "Device:R") (at 158.75 120.65 270) (unit 1)
    (in_bom yes) (on_board yes) (dnp no)
    (uuid 00000000-0000-0000-0000-000061487a50)
    (property "Reference" "R205" (at 158.75 115.3922 90)
      (effects (font (size 1.27 1.27)))
    )
    (property "Value" "1K" (at 158.75 117.7036 90)
      (effects (font (size 1.27 1.27)))
    )
    (property "Footprint" "Resistor_SMD:R_0805_2012Metric" (at 158.75 118.872 90)
      (effects (font (size 1.27 1.27)) hide)
    )
    (property "Datasheet" "~" (at 158.75 120.65 0)
      (effects (font (size 1.27 1.27)) hide)
    )
    (pin "1" (uuid bae75270-b5eb-44a0-8683-589c58f78791))
    (pin "2" (uuid 73f72ba0-6a18-4b96-a4f8-7b56f90b352f))
    (instances
      (project "yddraig030"
        (path "/abe3c03e-744a-4406-8e50-6a10745f0c43/00000000-0000-0000-0000-00006147db65"
          (reference "R205") (unit 1)
        )
      )
    )
  )

  (symbol (lib_id "Device:R") (at 171.45 142.24 180) (unit 1)
    (in_bom yes) (on_board yes) (dnp no)
    (uuid 00000000-0000-0000-0000-000061487a56)
    (property "Reference" "R206" (at 173.228 141.0716 0)
      (effects (font (size 1.27 1.27)) (justify right))
    )
    (property "Value" "150R" (at 173.228 143.383 0)
      (effects (font (size 1.27 1.27)) (justify right))
    )
    (property "Footprint" "Resistor_SMD:R_0805_2012Metric" (at 173.228 142.24 90)
      (effects (font (size 1.27 1.27)) hide)
    )
    (property "Datasheet" "~" (at 171.45 142.24 0)
      (effects (font (size 1.27 1.27)) hide)
    )
    (pin "1" (uuid 6204584b-434b-4044-9d54-9365dde276dd))
    (pin "2" (uuid b77f5992-cff7-4e5f-a968-19ff1400d7b3))
    (instances
      (project "yddraig030"
        (path "/abe3c03e-744a-4406-8e50-6a10745f0c43/00000000-0000-0000-0000-00006147db65"
          (reference "R206") (unit 1)
        )
      )
    )
  )

  (symbol (lib_id "Device:LED") (at 171.45 133.35 90) (unit 1)
    (in_bom yes) (on_board yes) (dnp no)
    (uuid 00000000-0000-0000-0000-000061487a62)
    (property "Reference" "D202" (at 173.99 133.35 0)
      (effects (font (size 1.27 1.27)))
    )
    (property "Value" "GREEN" (at 168.2496 133.5278 0)
      (effects (font (size 1.27 1.27)))
    )
    (property "Footprint" "LED_SMD:LED_1206_3216Metric" (at 171.45 133.35 0)
      (effects (font (size 1.27 1.27)) hide)
    )
    (property "Datasheet" "~" (at 171.45 133.35 0)
      (effects (font (size 1.27 1.27)) hide)
    )
    (pin "1" (uuid 097e2f3a-3aa4-45ce-9626-1c01ef60a284))
    (pin "2" (uuid 852327a5-466e-41bd-83a5-14183ba96364))
    (instances
      (project "yddraig030"
        (path "/abe3c03e-744a-4406-8e50-6a10745f0c43/00000000-0000-0000-0000-00006147db65"
          (reference "D202") (unit 1)
        )
      )
    )
  )

  (symbol (lib_id "power:GND") (at 171.45 147.32 0) (unit 1)
    (in_bom yes) (on_board yes) (dnp no)
    (uuid 00000000-0000-0000-0000-000061487a69)
    (property "Reference" "#PWR0207" (at 171.45 153.67 0)
      (effects (font (size 1.27 1.27)) hide)
    )
    (property "Value" "GND" (at 171.577 151.7142 0)
      (effects (font (size 1.27 1.27)))
    )
    (property "Footprint" "" (at 171.45 147.32 0)
      (effects (font (size 1.27 1.27)) hide)
    )
    (property "Datasheet" "" (at 171.45 147.32 0)
      (effects (font (size 1.27 1.27)) hide)
    )
    (pin "1" (uuid 442a068c-0c5a-4b42-8a3e-9ba01b116253))
    (instances
      (project "yddraig030"
        (path "/abe3c03e-744a-4406-8e50-6a10745f0c43/00000000-0000-0000-0000-00006147db65"
          (reference "#PWR0207") (unit 1)
        )
      )
    )
  )

  (symbol (lib_id "power:+5V") (at 171.45 113.03 0) (unit 1)
    (in_bom yes) (on_board yes) (dnp no)
    (uuid 00000000-0000-0000-0000-000061487a6f)
    (property "Reference" "#PWR0206" (at 171.45 116.84 0)
      (effects (font (size 1.27 1.27)) hide)
    )
    (property "Value" "+5V" (at 171.831 108.6358 0)
      (effects (font (size 1.27 1.27)))
    )
    (property "Footprint" "" (at 171.45 113.03 0)
      (effects (font (size 1.27 1.27)) hide)
    )
    (property "Datasheet" "" (at 171.45 113.03 0)
      (effects (font (size 1.27 1.27)) hide)
    )
    (pin "1" (uuid 5254b7da-b849-486c-a01c-5cfb8c86e15e))
    (instances
      (project "yddraig030"
        (path "/abe3c03e-744a-4406-8e50-6a10745f0c43/00000000-0000-0000-0000-00006147db65"
          (reference "#PWR0206") (unit 1)
        )
      )
    )
  )

  (symbol (lib_id "Connector_Generic:Conn_01x02") (at 194.31 130.81 0) (unit 1)
    (in_bom yes) (on_board yes) (dnp no)
    (uuid 00000000-0000-0000-0000-000061487a7a)
    (property "Reference" "J202" (at 196.342 131.0132 0)
      (effects (font (size 1.27 1.27)) (justify left))
    )
    (property "Value" "Ext RUN LED" (at 190.5 135.89 0)
      (effects (font (size 1.27 1.27)) (justify left))
    )
    (property "Footprint" "Connector_PinHeader_2.54mm:PinHeader_1x02_P2.54mm_Vertical" (at 194.31 130.81 0)
      (effects (font (size 1.27 1.27)) hide)
    )
    (property "Datasheet" "~" (at 194.31 130.81 0)
      (effects (font (size 1.27 1.27)) hide)
    )
    (pin "1" (uuid 25bd3545-8a3b-4f7c-b82b-4e10761e90b3))
    (pin "2" (uuid 5f6d43b7-9cbc-4def-af0e-b14a8d21580e))
    (instances
      (project "yddraig030"
        (path "/abe3c03e-744a-4406-8e50-6a10745f0c43/00000000-0000-0000-0000-00006147db65"
          (reference "J202") (unit 1)
        )
      )
    )
  )

  (symbol (lib_id "Device:R") (at 184.15 142.24 180) (unit 1)
    (in_bom yes) (on_board yes) (dnp no)
    (uuid 00000000-0000-0000-0000-000061487a80)
    (property "Reference" "R207" (at 185.928 141.0716 0)
      (effects (font (size 1.27 1.27)) (justify right))
    )
    (property "Value" "150R" (at 185.928 143.383 0)
      (effects (font (size 1.27 1.27)) (justify right))
    )
    (property "Footprint" "Resistor_SMD:R_0805_2012Metric" (at 185.928 142.24 90)
      (effects (font (size 1.27 1.27)) hide)
    )
    (property "Datasheet" "~" (at 184.15 142.24 0)
      (effects (font (size 1.27 1.27)) hide)
    )
    (pin "1" (uuid 38012b53-ef20-4d28-adad-0db42e0128ee))
    (pin "2" (uuid 6a5078fd-b09f-4f9a-b2cb-c75109f8778d))
    (instances
      (project "yddraig030"
        (path "/abe3c03e-744a-4406-8e50-6a10745f0c43/00000000-0000-0000-0000-00006147db65"
          (reference "R207") (unit 1)
        )
      )
    )
  )

  (symbol (lib_id "power:GND") (at 184.15 147.32 0) (unit 1)
    (in_bom yes) (on_board yes) (dnp no)
    (uuid 00000000-0000-0000-0000-000061487a86)
    (property "Reference" "#PWR0208" (at 184.15 153.67 0)
      (effects (font (size 1.27 1.27)) hide)
    )
    (property "Value" "GND" (at 184.277 151.7142 0)
      (effects (font (size 1.27 1.27)))
    )
    (property "Footprint" "" (at 184.15 147.32 0)
      (effects (font (size 1.27 1.27)) hide)
    )
    (property "Datasheet" "" (at 184.15 147.32 0)
      (effects (font (size 1.27 1.27)) hide)
    )
    (pin "1" (uuid ba1780a4-4688-4823-b5bf-b568eeccba87))
    (instances
      (project "yddraig030"
        (path "/abe3c03e-744a-4406-8e50-6a10745f0c43/00000000-0000-0000-0000-00006147db65"
          (reference "#PWR0208") (unit 1)
        )
      )
    )
  )

  (symbol (lib_id "Transistor_BJT:BC858") (at 92.71 120.65 0) (mirror x) (unit 1)
    (in_bom yes) (on_board yes) (dnp no) (fields_autoplaced)
    (uuid 2e9298ed-76f1-49be-8cfe-f597a6115064)
    (property "Reference" "Q201" (at 98.044 119.3799 0)
      (effects (font (size 1.27 1.27)) (justify left))
    )
    (property "Value" "BC858" (at 98.044 121.9199 0)
      (effects (font (size 1.27 1.27)) (justify left))
    )
    (property "Footprint" "Package_TO_SOT_SMD:SOT-23" (at 97.79 118.745 0)
      (effects (font (size 1.27 1.27) italic) (justify left) hide)
    )
    (property "Datasheet" "https://www.onsemi.com/pub/Collateral/BC860-D.pdf" (at 92.71 120.65 0)
      (effects (font (size 1.27 1.27)) (justify left) hide)
    )
    (pin "1" (uuid dc3372d8-e717-44ea-963e-880343e04039))
    (pin "2" (uuid a14378ba-1f33-4fea-ae12-573c76047482))
    (pin "3" (uuid 64cf46be-834a-4a4e-b91d-7be27b861f0e))
    (instances
      (project "yddraig030"
        (path "/abe3c03e-744a-4406-8e50-6a10745f0c43/00000000-0000-0000-0000-00006147db65"
          (reference "Q201") (unit 1)
        )
      )
    )
  )

  (symbol (lib_id "Transistor_BJT:BC858") (at 168.91 120.65 0) (mirror x) (unit 1)
    (in_bom yes) (on_board yes) (dnp no) (fields_autoplaced)
    (uuid 41fcc42c-6ee2-4ead-8e77-53ccd83e34a2)
    (property "Reference" "Q202" (at 174.244 119.3799 0)
      (effects (font (size 1.27 1.27)) (justify left))
    )
    (property "Value" "BC858" (at 174.244 121.9199 0)
      (effects (font (size 1.27 1.27)) (justify left))
    )
    (property "Footprint" "Package_TO_SOT_SMD:SOT-23" (at 173.99 118.745 0)
      (effects (font (size 1.27 1.27) italic) (justify left) hide)
    )
    (property "Datasheet" "https://www.onsemi.com/pub/Collateral/BC860-D.pdf" (at 168.91 120.65 0)
      (effects (font (size 1.27 1.27)) (justify left) hide)
    )
    (pin "1" (uuid 626b63e0-60fa-4ae9-8f1d-a775e2f108c2))
    (pin "2" (uuid 46160323-9049-47a6-a31e-4c3fbb1d2a68))
    (pin "3" (uuid 9ed81b7e-157d-40d3-8b1b-1ce4accc85c3))
    (instances
      (project "yddraig030"
        (path "/abe3c03e-744a-4406-8e50-6a10745f0c43/00000000-0000-0000-0000-00006147db65"
          (reference "Q202") (unit 1)
        )
      )
    )
  )
)
