(kicad_sch (version 20230121) (generator eeschema)

  (uuid e65b62be-e01b-4688-a999-1d1be370c4ae)

  (paper "User" 200.025 200.025)

  (title_block
    (title "PTT-Controlled T/R Switch")
    (date "2022-04-23")
    (rev "v0.01")
    (company "Author: Dhiru Kholia (VU3CER)")
  )

  (lib_symbols
    (symbol "Connector:Conn_Coaxial" (pin_names (offset 1.016) hide) (in_bom yes) (on_board yes)
      (property "Reference" "J" (at 0.254 3.048 0)
        (effects (font (size 1.27 1.27)))
      )
      (property "Value" "Conn_Coaxial" (at 2.921 0 90)
        (effects (font (size 1.27 1.27)))
      )
      (property "Footprint" "" (at 0 0 0)
        (effects (font (size 1.27 1.27)) hide)
      )
      (property "Datasheet" " ~" (at 0 0 0)
        (effects (font (size 1.27 1.27)) hide)
      )
      (property "ki_keywords" "BNC SMA SMB SMC LEMO coaxial connector CINCH RCA" (at 0 0 0)
        (effects (font (size 1.27 1.27)) hide)
      )
      (property "ki_description" "coaxial connector (BNC, SMA, SMB, SMC, Cinch/RCA, LEMO, ...)" (at 0 0 0)
        (effects (font (size 1.27 1.27)) hide)
      )
      (property "ki_fp_filters" "*BNC* *SMA* *SMB* *SMC* *Cinch* *LEMO*" (at 0 0 0)
        (effects (font (size 1.27 1.27)) hide)
      )
      (symbol "Conn_Coaxial_0_1"
        (arc (start -1.778 -0.508) (mid 0.2311 -1.8066) (end 1.778 0)
          (stroke (width 0.254) (type default))
          (fill (type none))
        )
        (polyline
          (pts
            (xy -2.54 0)
            (xy -0.508 0)
          )
          (stroke (width 0) (type default))
          (fill (type none))
        )
        (polyline
          (pts
            (xy 0 -2.54)
            (xy 0 -1.778)
          )
          (stroke (width 0) (type default))
          (fill (type none))
        )
        (circle (center 0 0) (radius 0.508)
          (stroke (width 0.2032) (type default))
          (fill (type none))
        )
        (arc (start 1.778 0) (mid 0.2099 1.8101) (end -1.778 0.508)
          (stroke (width 0.254) (type default))
          (fill (type none))
        )
      )
      (symbol "Conn_Coaxial_1_1"
        (pin passive line (at -5.08 0 0) (length 2.54)
          (name "In" (effects (font (size 1.27 1.27))))
          (number "1" (effects (font (size 1.27 1.27))))
        )
        (pin passive line (at 0 -5.08 90) (length 2.54)
          (name "Ext" (effects (font (size 1.27 1.27))))
          (number "2" (effects (font (size 1.27 1.27))))
        )
      )
    )
    (symbol "Connector_Generic:Conn_01x02" (pin_names (offset 1.016) hide) (in_bom yes) (on_board yes)
      (property "Reference" "J" (at 0 2.54 0)
        (effects (font (size 1.27 1.27)))
      )
      (property "Value" "Conn_01x02" (at 0 -5.08 0)
        (effects (font (size 1.27 1.27)))
      )
      (property "Footprint" "" (at 0 0 0)
        (effects (font (size 1.27 1.27)) hide)
      )
      (property "Datasheet" "~" (at 0 0 0)
        (effects (font (size 1.27 1.27)) hide)
      )
      (property "ki_keywords" "connector" (at 0 0 0)
        (effects (font (size 1.27 1.27)) hide)
      )
      (property "ki_description" "Generic connector, single row, 01x02, script generated (kicad-library-utils/schlib/autogen/connector/)" (at 0 0 0)
        (effects (font (size 1.27 1.27)) hide)
      )
      (property "ki_fp_filters" "Connector*:*_1x??_*" (at 0 0 0)
        (effects (font (size 1.27 1.27)) hide)
      )
      (symbol "Conn_01x02_1_1"
        (rectangle (start -1.27 -2.413) (end 0 -2.667)
          (stroke (width 0.1524) (type default))
          (fill (type none))
        )
        (rectangle (start -1.27 0.127) (end 0 -0.127)
          (stroke (width 0.1524) (type default))
          (fill (type none))
        )
        (rectangle (start -1.27 1.27) (end 1.27 -3.81)
          (stroke (width 0.254) (type default))
          (fill (type background))
        )
        (pin passive line (at -5.08 0 0) (length 3.81)
          (name "Pin_1" (effects (font (size 1.27 1.27))))
          (number "1" (effects (font (size 1.27 1.27))))
        )
        (pin passive line (at -5.08 -2.54 0) (length 3.81)
          (name "Pin_2" (effects (font (size 1.27 1.27))))
          (number "2" (effects (font (size 1.27 1.27))))
        )
      )
    )
    (symbol "Device:R_Small" (pin_numbers hide) (pin_names (offset 0.254) hide) (in_bom yes) (on_board yes)
      (property "Reference" "R" (at 0.762 0.508 0)
        (effects (font (size 1.27 1.27)) (justify left))
      )
      (property "Value" "R_Small" (at 0.762 -1.016 0)
        (effects (font (size 1.27 1.27)) (justify left))
      )
      (property "Footprint" "" (at 0 0 0)
        (effects (font (size 1.27 1.27)) hide)
      )
      (property "Datasheet" "~" (at 0 0 0)
        (effects (font (size 1.27 1.27)) hide)
      )
      (property "ki_keywords" "R resistor" (at 0 0 0)
        (effects (font (size 1.27 1.27)) hide)
      )
      (property "ki_description" "Resistor, small symbol" (at 0 0 0)
        (effects (font (size 1.27 1.27)) hide)
      )
      (property "ki_fp_filters" "R_*" (at 0 0 0)
        (effects (font (size 1.27 1.27)) hide)
      )
      (symbol "R_Small_0_1"
        (rectangle (start -0.762 1.778) (end 0.762 -1.778)
          (stroke (width 0.2032) (type default))
          (fill (type none))
        )
      )
      (symbol "R_Small_1_1"
        (pin passive line (at 0 2.54 270) (length 0.762)
          (name "~" (effects (font (size 1.27 1.27))))
          (number "1" (effects (font (size 1.27 1.27))))
        )
        (pin passive line (at 0 -2.54 90) (length 0.762)
          (name "~" (effects (font (size 1.27 1.27))))
          (number "2" (effects (font (size 1.27 1.27))))
        )
      )
    )
    (symbol "Diode:1N4148" (pin_numbers hide) (pin_names hide) (in_bom yes) (on_board yes)
      (property "Reference" "D" (at 0 2.54 0)
        (effects (font (size 1.27 1.27)))
      )
      (property "Value" "1N4148" (at 0 -2.54 0)
        (effects (font (size 1.27 1.27)))
      )
      (property "Footprint" "Diode_THT:D_DO-35_SOD27_P7.62mm_Horizontal" (at 0 0 0)
        (effects (font (size 1.27 1.27)) hide)
      )
      (property "Datasheet" "https://assets.nexperia.com/documents/data-sheet/1N4148_1N4448.pdf" (at 0 0 0)
        (effects (font (size 1.27 1.27)) hide)
      )
      (property "Sim.Device" "D" (at 0 0 0)
        (effects (font (size 1.27 1.27)) hide)
      )
      (property "Sim.Pins" "1=K 2=A" (at 0 0 0)
        (effects (font (size 1.27 1.27)) hide)
      )
      (property "ki_keywords" "diode" (at 0 0 0)
        (effects (font (size 1.27 1.27)) hide)
      )
      (property "ki_description" "100V 0.15A standard switching diode, DO-35" (at 0 0 0)
        (effects (font (size 1.27 1.27)) hide)
      )
      (property "ki_fp_filters" "D*DO?35*" (at 0 0 0)
        (effects (font (size 1.27 1.27)) hide)
      )
      (symbol "1N4148_0_1"
        (polyline
          (pts
            (xy -1.27 1.27)
            (xy -1.27 -1.27)
          )
          (stroke (width 0.254) (type default))
          (fill (type none))
        )
        (polyline
          (pts
            (xy 1.27 0)
            (xy -1.27 0)
          )
          (stroke (width 0) (type default))
          (fill (type none))
        )
        (polyline
          (pts
            (xy 1.27 1.27)
            (xy 1.27 -1.27)
            (xy -1.27 0)
            (xy 1.27 1.27)
          )
          (stroke (width 0.254) (type default))
          (fill (type none))
        )
      )
      (symbol "1N4148_1_1"
        (pin passive line (at -3.81 0 0) (length 2.54)
          (name "K" (effects (font (size 1.27 1.27))))
          (number "1" (effects (font (size 1.27 1.27))))
        )
        (pin passive line (at 3.81 0 180) (length 2.54)
          (name "A" (effects (font (size 1.27 1.27))))
          (number "2" (effects (font (size 1.27 1.27))))
        )
      )
    )
    (symbol "Isolator:EL817" (pin_names (offset 1.016)) (in_bom yes) (on_board yes)
      (property "Reference" "U" (at -5.08 5.08 0)
        (effects (font (size 1.27 1.27)) (justify left))
      )
      (property "Value" "EL817" (at 0 5.08 0)
        (effects (font (size 1.27 1.27)) (justify left))
      )
      (property "Footprint" "Package_DIP:DIP-4_W7.62mm" (at -5.08 -5.08 0)
        (effects (font (size 1.27 1.27) italic) (justify left) hide)
      )
      (property "Datasheet" "http://www.everlight.com/file/ProductFile/EL817.pdf" (at 0 0 0)
        (effects (font (size 1.27 1.27)) (justify left) hide)
      )
      (property "ki_keywords" "NPN DC Optocoupler" (at 0 0 0)
        (effects (font (size 1.27 1.27)) hide)
      )
      (property "ki_description" "DC Optocoupler, Vce 35V, DIP-4" (at 0 0 0)
        (effects (font (size 1.27 1.27)) hide)
      )
      (property "ki_fp_filters" "DIP*W7.62mm*" (at 0 0 0)
        (effects (font (size 1.27 1.27)) hide)
      )
      (symbol "EL817_0_1"
        (rectangle (start -5.08 3.81) (end 5.08 -3.81)
          (stroke (width 0.254) (type default))
          (fill (type background))
        )
        (polyline
          (pts
            (xy -3.175 -0.635)
            (xy -1.905 -0.635)
          )
          (stroke (width 0.254) (type default))
          (fill (type none))
        )
        (polyline
          (pts
            (xy 2.54 0.635)
            (xy 4.445 2.54)
          )
          (stroke (width 0) (type default))
          (fill (type none))
        )
        (polyline
          (pts
            (xy 4.445 -2.54)
            (xy 2.54 -0.635)
          )
          (stroke (width 0) (type default))
          (fill (type outline))
        )
        (polyline
          (pts
            (xy 4.445 -2.54)
            (xy 5.08 -2.54)
          )
          (stroke (width 0) (type default))
          (fill (type none))
        )
        (polyline
          (pts
            (xy 4.445 2.54)
            (xy 5.08 2.54)
          )
          (stroke (width 0) (type default))
          (fill (type none))
        )
        (polyline
          (pts
            (xy -5.08 2.54)
            (xy -2.54 2.54)
            (xy -2.54 -0.635)
          )
          (stroke (width 0) (type default))
          (fill (type none))
        )
        (polyline
          (pts
            (xy -2.54 -0.635)
            (xy -2.54 -2.54)
            (xy -5.08 -2.54)
          )
          (stroke (width 0) (type default))
          (fill (type none))
        )
        (polyline
          (pts
            (xy 2.54 1.905)
            (xy 2.54 -1.905)
            (xy 2.54 -1.905)
          )
          (stroke (width 0.508) (type default))
          (fill (type none))
        )
        (polyline
          (pts
            (xy -2.54 -0.635)
            (xy -3.175 0.635)
            (xy -1.905 0.635)
            (xy -2.54 -0.635)
          )
          (stroke (width 0.254) (type default))
          (fill (type none))
        )
        (polyline
          (pts
            (xy -0.508 -0.508)
            (xy 0.762 -0.508)
            (xy 0.381 -0.635)
            (xy 0.381 -0.381)
            (xy 0.762 -0.508)
          )
          (stroke (width 0) (type default))
          (fill (type none))
        )
        (polyline
          (pts
            (xy -0.508 0.508)
            (xy 0.762 0.508)
            (xy 0.381 0.381)
            (xy 0.381 0.635)
            (xy 0.762 0.508)
          )
          (stroke (width 0) (type default))
          (fill (type none))
        )
        (polyline
          (pts
            (xy 3.048 -1.651)
            (xy 3.556 -1.143)
            (xy 4.064 -2.159)
            (xy 3.048 -1.651)
            (xy 3.048 -1.651)
          )
          (stroke (width 0) (type default))
          (fill (type outline))
        )
      )
      (symbol "EL817_1_1"
        (pin passive line (at -7.62 2.54 0) (length 2.54)
          (name "~" (effects (font (size 1.27 1.27))))
          (number "1" (effects (font (size 1.27 1.27))))
        )
        (pin passive line (at -7.62 -2.54 0) (length 2.54)
          (name "~" (effects (font (size 1.27 1.27))))
          (number "2" (effects (font (size 1.27 1.27))))
        )
        (pin passive line (at 7.62 -2.54 180) (length 2.54)
          (name "~" (effects (font (size 1.27 1.27))))
          (number "3" (effects (font (size 1.27 1.27))))
        )
        (pin passive line (at 7.62 2.54 180) (length 2.54)
          (name "~" (effects (font (size 1.27 1.27))))
          (number "4" (effects (font (size 1.27 1.27))))
        )
      )
    )
    (symbol "Mechanical:MountingHole_Pad" (pin_numbers hide) (pin_names (offset 1.016) hide) (in_bom yes) (on_board yes)
      (property "Reference" "H" (at 0 6.35 0)
        (effects (font (size 1.27 1.27)))
      )
      (property "Value" "MountingHole_Pad" (at 0 4.445 0)
        (effects (font (size 1.27 1.27)))
      )
      (property "Footprint" "" (at 0 0 0)
        (effects (font (size 1.27 1.27)) hide)
      )
      (property "Datasheet" "~" (at 0 0 0)
        (effects (font (size 1.27 1.27)) hide)
      )
      (property "ki_keywords" "mounting hole" (at 0 0 0)
        (effects (font (size 1.27 1.27)) hide)
      )
      (property "ki_description" "Mounting Hole with connection" (at 0 0 0)
        (effects (font (size 1.27 1.27)) hide)
      )
      (property "ki_fp_filters" "MountingHole*Pad*" (at 0 0 0)
        (effects (font (size 1.27 1.27)) hide)
      )
      (symbol "MountingHole_Pad_0_1"
        (circle (center 0 1.27) (radius 1.27)
          (stroke (width 1.27) (type default))
          (fill (type none))
        )
      )
      (symbol "MountingHole_Pad_1_1"
        (pin input line (at 0 -2.54 90) (length 2.54)
          (name "1" (effects (font (size 1.27 1.27))))
          (number "1" (effects (font (size 1.27 1.27))))
        )
      )
    )
    (symbol "Relay:G5V-2" (in_bom yes) (on_board yes)
      (property "Reference" "K" (at 16.51 3.81 0)
        (effects (font (size 1.27 1.27)) (justify left))
      )
      (property "Value" "G5V-2" (at 16.51 1.27 0)
        (effects (font (size 1.27 1.27)) (justify left))
      )
      (property "Footprint" "Relay_THT:Relay_DPDT_Omron_G5V-2" (at 16.51 -1.27 0)
        (effects (font (size 1.27 1.27)) (justify left) hide)
      )
      (property "Datasheet" "http://omronfs.omron.com/en_US/ecb/products/pdf/en-g5v_2.pdf" (at 0 0 0)
        (effects (font (size 1.27 1.27)) hide)
      )
      (property "ki_keywords" "Miniature Relay Dual Pole DPDT Omron" (at 0 0 0)
        (effects (font (size 1.27 1.27)) hide)
      )
      (property "ki_description" "Relay Miniature Omron DPDT" (at 0 0 0)
        (effects (font (size 1.27 1.27)) hide)
      )
      (property "ki_fp_filters" "Relay*DPDT*Omron*G5V*" (at 0 0 0)
        (effects (font (size 1.27 1.27)) hide)
      )
      (symbol "G5V-2_0_1"
        (rectangle (start -15.24 5.08) (end 15.24 -5.08)
          (stroke (width 0.254) (type default))
          (fill (type background))
        )
        (rectangle (start -13.335 1.905) (end -6.985 -1.905)
          (stroke (width 0.254) (type default))
          (fill (type none))
        )
        (polyline
          (pts
            (xy -12.7 -1.905)
            (xy -7.62 1.905)
          )
          (stroke (width 0.254) (type default))
          (fill (type none))
        )
        (polyline
          (pts
            (xy -10.16 -5.08)
            (xy -10.16 -1.905)
          )
          (stroke (width 0) (type default))
          (fill (type none))
        )
        (polyline
          (pts
            (xy -10.16 5.08)
            (xy -10.16 1.905)
          )
          (stroke (width 0) (type default))
          (fill (type none))
        )
        (polyline
          (pts
            (xy -6.985 0)
            (xy -6.35 0)
          )
          (stroke (width 0.254) (type default))
          (fill (type none))
        )
        (polyline
          (pts
            (xy -5.715 0)
            (xy -5.08 0)
          )
          (stroke (width 0.254) (type default))
          (fill (type none))
        )
        (polyline
          (pts
            (xy -4.445 0)
            (xy -3.81 0)
          )
          (stroke (width 0.254) (type default))
          (fill (type none))
        )
        (polyline
          (pts
            (xy -3.175 0)
            (xy -2.54 0)
          )
          (stroke (width 0.254) (type default))
          (fill (type none))
        )
        (polyline
          (pts
            (xy -1.905 0)
            (xy -1.27 0)
          )
          (stroke (width 0.254) (type default))
          (fill (type none))
        )
        (polyline
          (pts
            (xy -0.635 0)
            (xy 0 0)
          )
          (stroke (width 0.254) (type default))
          (fill (type none))
        )
        (polyline
          (pts
            (xy 0 -2.54)
            (xy -1.905 3.81)
          )
          (stroke (width 0.508) (type default))
          (fill (type none))
        )
        (polyline
          (pts
            (xy 0 -2.54)
            (xy 0 -5.08)
          )
          (stroke (width 0) (type default))
          (fill (type none))
        )
        (polyline
          (pts
            (xy 0.635 0)
            (xy 1.27 0)
          )
          (stroke (width 0.254) (type default))
          (fill (type none))
        )
        (polyline
          (pts
            (xy 1.905 0)
            (xy 2.54 0)
          )
          (stroke (width 0.254) (type default))
          (fill (type none))
        )
        (polyline
          (pts
            (xy 3.175 0)
            (xy 3.81 0)
          )
          (stroke (width 0.254) (type default))
          (fill (type none))
        )
        (polyline
          (pts
            (xy 4.445 0)
            (xy 5.08 0)
          )
          (stroke (width 0.254) (type default))
          (fill (type none))
        )
        (polyline
          (pts
            (xy 5.715 0)
            (xy 6.35 0)
          )
          (stroke (width 0.254) (type default))
          (fill (type none))
        )
        (polyline
          (pts
            (xy 6.985 0)
            (xy 7.62 0)
          )
          (stroke (width 0.254) (type default))
          (fill (type none))
        )
        (polyline
          (pts
            (xy 8.255 0)
            (xy 8.89 0)
          )
          (stroke (width 0.254) (type default))
          (fill (type none))
        )
        (polyline
          (pts
            (xy 10.16 -2.54)
            (xy 8.255 3.81)
          )
          (stroke (width 0.508) (type default))
          (fill (type none))
        )
        (polyline
          (pts
            (xy 10.16 -2.54)
            (xy 10.16 -5.08)
          )
          (stroke (width 0) (type default))
          (fill (type none))
        )
        (polyline
          (pts
            (xy -2.54 5.08)
            (xy -2.54 2.54)
            (xy -1.905 3.175)
            (xy -2.54 3.81)
          )
          (stroke (width 0) (type default))
          (fill (type outline))
        )
        (polyline
          (pts
            (xy 2.54 5.08)
            (xy 2.54 2.54)
            (xy 1.905 3.175)
            (xy 2.54 3.81)
          )
          (stroke (width 0) (type default))
          (fill (type none))
        )
        (polyline
          (pts
            (xy 7.62 5.08)
            (xy 7.62 2.54)
            (xy 8.255 3.175)
            (xy 7.62 3.81)
          )
          (stroke (width 0) (type default))
          (fill (type outline))
        )
        (polyline
          (pts
            (xy 12.7 5.08)
            (xy 12.7 2.54)
            (xy 12.065 3.175)
            (xy 12.7 3.81)
          )
          (stroke (width 0) (type default))
          (fill (type none))
        )
      )
      (symbol "G5V-2_1_1"
        (pin passive line (at -10.16 7.62 270) (length 2.54)
          (name "~" (effects (font (size 1.27 1.27))))
          (number "1" (effects (font (size 1.27 1.27))))
        )
        (pin passive line (at 7.62 7.62 270) (length 2.54)
          (name "~" (effects (font (size 1.27 1.27))))
          (number "11" (effects (font (size 1.27 1.27))))
        )
        (pin passive line (at 10.16 -7.62 90) (length 2.54)
          (name "~" (effects (font (size 1.27 1.27))))
          (number "13" (effects (font (size 1.27 1.27))))
        )
        (pin passive line (at -10.16 -7.62 90) (length 2.54)
          (name "~" (effects (font (size 1.27 1.27))))
          (number "16" (effects (font (size 1.27 1.27))))
        )
        (pin passive line (at 0 -7.62 90) (length 2.54)
          (name "~" (effects (font (size 1.27 1.27))))
          (number "4" (effects (font (size 1.27 1.27))))
        )
        (pin passive line (at -2.54 7.62 270) (length 2.54)
          (name "~" (effects (font (size 1.27 1.27))))
          (number "6" (effects (font (size 1.27 1.27))))
        )
        (pin passive line (at 2.54 7.62 270) (length 2.54)
          (name "~" (effects (font (size 1.27 1.27))))
          (number "8" (effects (font (size 1.27 1.27))))
        )
        (pin passive line (at 12.7 7.62 270) (length 2.54)
          (name "~" (effects (font (size 1.27 1.27))))
          (number "9" (effects (font (size 1.27 1.27))))
        )
      )
    )
    (symbol "Transistor_BJT:2N3904" (pin_names (offset 0) hide) (in_bom yes) (on_board yes)
      (property "Reference" "Q" (at 5.08 1.905 0)
        (effects (font (size 1.27 1.27)) (justify left))
      )
      (property "Value" "2N3904" (at 5.08 0 0)
        (effects (font (size 1.27 1.27)) (justify left))
      )
      (property "Footprint" "Package_TO_SOT_THT:TO-92_Inline" (at 5.08 -1.905 0)
        (effects (font (size 1.27 1.27) italic) (justify left) hide)
      )
      (property "Datasheet" "https://www.onsemi.com/pub/Collateral/2N3903-D.PDF" (at 0 0 0)
        (effects (font (size 1.27 1.27)) (justify left) hide)
      )
      (property "ki_keywords" "NPN Transistor" (at 0 0 0)
        (effects (font (size 1.27 1.27)) hide)
      )
      (property "ki_description" "0.2A Ic, 40V Vce, Small Signal NPN Transistor, TO-92" (at 0 0 0)
        (effects (font (size 1.27 1.27)) hide)
      )
      (property "ki_fp_filters" "TO?92*" (at 0 0 0)
        (effects (font (size 1.27 1.27)) hide)
      )
      (symbol "2N3904_0_1"
        (polyline
          (pts
            (xy 0.635 0.635)
            (xy 2.54 2.54)
          )
          (stroke (width 0) (type default))
          (fill (type none))
        )
        (polyline
          (pts
            (xy 0.635 -0.635)
            (xy 2.54 -2.54)
            (xy 2.54 -2.54)
          )
          (stroke (width 0) (type default))
          (fill (type none))
        )
        (polyline
          (pts
            (xy 0.635 1.905)
            (xy 0.635 -1.905)
            (xy 0.635 -1.905)
          )
          (stroke (width 0.508) (type default))
          (fill (type none))
        )
        (polyline
          (pts
            (xy 1.27 -1.778)
            (xy 1.778 -1.27)
            (xy 2.286 -2.286)
            (xy 1.27 -1.778)
            (xy 1.27 -1.778)
          )
          (stroke (width 0) (type default))
          (fill (type outline))
        )
        (circle (center 1.27 0) (radius 2.8194)
          (stroke (width 0.254) (type default))
          (fill (type none))
        )
      )
      (symbol "2N3904_1_1"
        (pin passive line (at 2.54 -5.08 90) (length 2.54)
          (name "E" (effects (font (size 1.27 1.27))))
          (number "1" (effects (font (size 1.27 1.27))))
        )
        (pin passive line (at -5.08 0 0) (length 5.715)
          (name "B" (effects (font (size 1.27 1.27))))
          (number "2" (effects (font (size 1.27 1.27))))
        )
        (pin passive line (at 2.54 5.08 270) (length 2.54)
          (name "C" (effects (font (size 1.27 1.27))))
          (number "3" (effects (font (size 1.27 1.27))))
        )
      )
    )
    (symbol "power:+5V" (power) (pin_names (offset 0)) (in_bom yes) (on_board yes)
      (property "Reference" "#PWR" (at 0 -3.81 0)
        (effects (font (size 1.27 1.27)) hide)
      )
      (property "Value" "+5V" (at 0 3.556 0)
        (effects (font (size 1.27 1.27)))
      )
      (property "Footprint" "" (at 0 0 0)
        (effects (font (size 1.27 1.27)) hide)
      )
      (property "Datasheet" "" (at 0 0 0)
        (effects (font (size 1.27 1.27)) hide)
      )
      (property "ki_keywords" "global power" (at 0 0 0)
        (effects (font (size 1.27 1.27)) hide)
      )
      (property "ki_description" "Power symbol creates a global label with name \"+5V\"" (at 0 0 0)
        (effects (font (size 1.27 1.27)) hide)
      )
      (symbol "+5V_0_1"
        (polyline
          (pts
            (xy -0.762 1.27)
            (xy 0 2.54)
          )
          (stroke (width 0) (type default))
          (fill (type none))
        )
        (polyline
          (pts
            (xy 0 0)
            (xy 0 2.54)
          )
          (stroke (width 0) (type default))
          (fill (type none))
        )
        (polyline
          (pts
            (xy 0 2.54)
            (xy 0.762 1.27)
          )
          (stroke (width 0) (type default))
          (fill (type none))
        )
      )
      (symbol "+5V_1_1"
        (pin power_in line (at 0 0 90) (length 0) hide
          (name "+5V" (effects (font (size 1.27 1.27))))
          (number "1" (effects (font (size 1.27 1.27))))
        )
      )
    )
    (symbol "power:GNDPWR" (power) (pin_names (offset 0)) (in_bom yes) (on_board yes)
      (property "Reference" "#PWR" (at 0 -5.08 0)
        (effects (font (size 1.27 1.27)) hide)
      )
      (property "Value" "GNDPWR" (at 0 -3.302 0)
        (effects (font (size 1.27 1.27)))
      )
      (property "Footprint" "" (at 0 -1.27 0)
        (effects (font (size 1.27 1.27)) hide)
      )
      (property "Datasheet" "" (at 0 -1.27 0)
        (effects (font (size 1.27 1.27)) hide)
      )
      (property "ki_keywords" "global ground" (at 0 0 0)
        (effects (font (size 1.27 1.27)) hide)
      )
      (property "ki_description" "Power symbol creates a global label with name \"GNDPWR\" , global ground" (at 0 0 0)
        (effects (font (size 1.27 1.27)) hide)
      )
      (symbol "GNDPWR_0_1"
        (polyline
          (pts
            (xy 0 -1.27)
            (xy 0 0)
          )
          (stroke (width 0) (type default))
          (fill (type none))
        )
        (polyline
          (pts
            (xy -1.016 -1.27)
            (xy -1.27 -2.032)
            (xy -1.27 -2.032)
          )
          (stroke (width 0.2032) (type default))
          (fill (type none))
        )
        (polyline
          (pts
            (xy -0.508 -1.27)
            (xy -0.762 -2.032)
            (xy -0.762 -2.032)
          )
          (stroke (width 0.2032) (type default))
          (fill (type none))
        )
        (polyline
          (pts
            (xy 0 -1.27)
            (xy -0.254 -2.032)
            (xy -0.254 -2.032)
          )
          (stroke (width 0.2032) (type default))
          (fill (type none))
        )
        (polyline
          (pts
            (xy 0.508 -1.27)
            (xy 0.254 -2.032)
            (xy 0.254 -2.032)
          )
          (stroke (width 0.2032) (type default))
          (fill (type none))
        )
        (polyline
          (pts
            (xy 1.016 -1.27)
            (xy -1.016 -1.27)
            (xy -1.016 -1.27)
          )
          (stroke (width 0.2032) (type default))
          (fill (type none))
        )
        (polyline
          (pts
            (xy 1.016 -1.27)
            (xy 0.762 -2.032)
            (xy 0.762 -2.032)
            (xy 0.762 -2.032)
          )
          (stroke (width 0.2032) (type default))
          (fill (type none))
        )
      )
      (symbol "GNDPWR_1_1"
        (pin power_in line (at 0 0 270) (length 0) hide
          (name "GNDPWR" (effects (font (size 1.27 1.27))))
          (number "1" (effects (font (size 1.27 1.27))))
        )
      )
    )
    (symbol "power:PWR_FLAG" (power) (pin_numbers hide) (pin_names (offset 0) hide) (in_bom yes) (on_board yes)
      (property "Reference" "#FLG" (at 0 1.905 0)
        (effects (font (size 1.27 1.27)) hide)
      )
      (property "Value" "PWR_FLAG" (at 0 3.81 0)
        (effects (font (size 1.27 1.27)))
      )
      (property "Footprint" "" (at 0 0 0)
        (effects (font (size 1.27 1.27)) hide)
      )
      (property "Datasheet" "~" (at 0 0 0)
        (effects (font (size 1.27 1.27)) hide)
      )
      (property "ki_keywords" "flag power" (at 0 0 0)
        (effects (font (size 1.27 1.27)) hide)
      )
      (property "ki_description" "Special symbol for telling ERC where power comes from" (at 0 0 0)
        (effects (font (size 1.27 1.27)) hide)
      )
      (symbol "PWR_FLAG_0_0"
        (pin power_out line (at 0 0 90) (length 0)
          (name "pwr" (effects (font (size 1.27 1.27))))
          (number "1" (effects (font (size 1.27 1.27))))
        )
      )
      (symbol "PWR_FLAG_0_1"
        (polyline
          (pts
            (xy 0 0)
            (xy 0 1.27)
            (xy -1.016 1.905)
            (xy 0 2.54)
            (xy 1.016 1.905)
            (xy 0 1.27)
          )
          (stroke (width 0) (type default))
          (fill (type none))
        )
      )
    )
  )

  (junction (at 91.44 63.5) (diameter 0) (color 0 0 0 0)
    (uuid 5ae3b45a-9f0b-4b54-bc9a-b664b68c3e1c)
  )
  (junction (at 121.92 78.74) (diameter 0) (color 0 0 0 0)
    (uuid a37a07fa-64cd-43b4-9eaa-bc0cf82407e1)
  )
  (junction (at 91.44 71.12) (diameter 0) (color 0 0 0 0)
    (uuid a69108c8-9072-4f26-9564-75cd4a950d72)
  )
  (junction (at 101.6 63.5) (diameter 0) (color 0 0 0 0)
    (uuid a9240eb1-cd96-4728-9dbf-17ea5e90b45d)
  )
  (junction (at 129.54 60.96) (diameter 0) (color 0 0 0 0)
    (uuid d27d362d-e888-4573-b768-584fed2b7888)
  )
  (junction (at 73.66 63.5) (diameter 0) (color 0 0 0 0)
    (uuid e5bc5705-487f-42b9-b581-8f28c1e77113)
  )
  (junction (at 66.04 63.5) (diameter 0) (color 0 0 0 0)
    (uuid fdb936df-00d5-4a8e-8a32-fd805f3d3598)
  )

  (no_connect (at 119.38 63.5) (uuid eef9a49b-90d1-4463-b2c5-af035d3ae9d7))

  (wire (pts (xy 111.76 83.82) (xy 129.54 83.82))
    (stroke (width 0) (type default))
    (uuid 430cb5a0-6865-46d0-be60-5d722d3e8d80)
  )
  (wire (pts (xy 88.9 104.14) (xy 93.98 104.14))
    (stroke (width 0) (type default))
    (uuid 5021d825-7f42-48c0-bdc7-6f39c3c58576)
  )
  (wire (pts (xy 124.46 60.96) (xy 129.54 60.96))
    (stroke (width 0) (type default))
    (uuid 530b6864-2e35-4183-af9d-ccbc42780a5c)
  )
  (wire (pts (xy 121.92 78.74) (xy 127 78.74))
    (stroke (width 0) (type default))
    (uuid 55dfea33-34fe-4f71-b60b-7139624fe266)
  )
  (wire (pts (xy 66.04 71.12) (xy 66.04 63.5))
    (stroke (width 0) (type default))
    (uuid 5631a4cd-33f7-42ae-b2d0-ef35da48beee)
  )
  (wire (pts (xy 124.46 60.96) (xy 124.46 63.5))
    (stroke (width 0) (type default))
    (uuid 5f807444-de2f-4308-8269-a6cb39e8e682)
  )
  (wire (pts (xy 73.66 63.5) (xy 91.44 63.5))
    (stroke (width 0) (type default))
    (uuid 6924239f-cb53-4e96-91c1-1eb2a31a897b)
  )
  (wire (pts (xy 114.3 60.96) (xy 114.3 63.5))
    (stroke (width 0) (type default))
    (uuid 6f52f85c-aac3-4a99-8226-7744ad08fdc3)
  )
  (wire (pts (xy 109.22 60.96) (xy 109.22 63.5))
    (stroke (width 0) (type default))
    (uuid 745a27e0-733b-4d2b-b0f0-d4c1457e893e)
  )
  (wire (pts (xy 88.9 124.46) (xy 93.98 124.46))
    (stroke (width 0) (type default))
    (uuid 74b2f79c-3c11-4f05-a588-1fd37af85b50)
  )
  (wire (pts (xy 129.54 63.5) (xy 129.54 60.96))
    (stroke (width 0) (type default))
    (uuid 79458f00-70d3-4109-97d5-4e6c7a75ad09)
  )
  (wire (pts (xy 91.44 78.74) (xy 101.6 78.74))
    (stroke (width 0) (type default))
    (uuid 94a21413-9821-4587-923e-f37548a5150a)
  )
  (wire (pts (xy 91.44 71.12) (xy 91.44 78.74))
    (stroke (width 0) (type default))
    (uuid 96d488aa-4d20-4ba2-8d75-10df5865e575)
  )
  (wire (pts (xy 111.76 78.74) (xy 111.76 83.82))
    (stroke (width 0) (type default))
    (uuid a1441258-3477-4706-8540-9e88ae0dac49)
  )
  (wire (pts (xy 78.74 71.12) (xy 91.44 71.12))
    (stroke (width 0) (type default))
    (uuid a4f96c2f-faf1-4802-aeda-14d71698ec49)
  )
  (wire (pts (xy 73.66 60.96) (xy 73.66 63.5))
    (stroke (width 0) (type default))
    (uuid be27933c-a1bf-480c-8eff-f44f5cbf640c)
  )
  (wire (pts (xy 66.04 63.5) (xy 73.66 63.5))
    (stroke (width 0) (type default))
    (uuid d1d21eca-9885-44ce-abb7-e2f670d82417)
  )
  (wire (pts (xy 91.44 63.5) (xy 101.6 63.5))
    (stroke (width 0) (type default))
    (uuid d9cdb60a-ecfa-4866-ad81-ca393f637bae)
  )
  (wire (pts (xy 129.54 60.96) (xy 132.08 60.96))
    (stroke (width 0) (type default))
    (uuid de74ff76-0dbc-49d4-ba75-5de846aaf40e)
  )
  (wire (pts (xy 132.08 63.5) (xy 129.54 63.5))
    (stroke (width 0) (type default))
    (uuid f79a29d4-e361-4600-a711-d810886cf47c)
  )

  (text "TX +ve" (at 115.062 53.086 90)
    (effects (font (size 1.27 1.27)) (justify left bottom))
    (uuid 42795956-f125-4166-860d-4316fe3791b8)
  )
  (text "For handling max 10W RF power." (at 90.678 41.148 0)
    (effects (font (size 1.27 1.27)) (justify left bottom))
    (uuid 75d0befc-6747-4c55-b94a-5d4d262187ce)
  )

  (global_label "RX" (shape input) (at 109.22 60.96 90) (fields_autoplaced)
    (effects (font (size 1.27 1.27)) (justify left))
    (uuid 5c55c653-303a-4aa1-b520-46d1ee447caa)
    (property "Intersheetrefs" "${INTERSHEET_REFS}" (at 109.1406 56.1563 90)
      (effects (font (size 1.27 1.27)) (justify left) hide)
    )
  )
  (global_label "RX" (shape input) (at 88.9 124.46 180) (fields_autoplaced)
    (effects (font (size 1.27 1.27)) (justify right))
    (uuid 5dc857cd-69b3-436f-ad40-03b225e423ed)
    (property "Intersheetrefs" "${INTERSHEET_REFS}" (at 84.0963 124.3806 0)
      (effects (font (size 1.27 1.27)) (justify right) hide)
    )
  )
  (global_label "TX" (shape input) (at 114.3 60.96 90) (fields_autoplaced)
    (effects (font (size 1.27 1.27)) (justify left))
    (uuid 8f29ec2b-5253-4ae2-bf8f-40e83998f739)
    (property "Intersheetrefs" "${INTERSHEET_REFS}" (at 114.2206 56.4587 90)
      (effects (font (size 1.27 1.27)) (justify left) hide)
    )
  )
  (global_label "TX" (shape input) (at 88.9 104.14 180) (fields_autoplaced)
    (effects (font (size 1.27 1.27)) (justify right))
    (uuid 9de4c4e7-85b6-4e4c-91a9-3ec355661a79)
    (property "Intersheetrefs" "${INTERSHEET_REFS}" (at 84.3987 104.2194 0)
      (effects (font (size 1.27 1.27)) (justify right) hide)
    )
  )
  (global_label "RX" (shape input) (at 124.46 60.96 90) (fields_autoplaced)
    (effects (font (size 1.27 1.27)) (justify left))
    (uuid c7699973-e377-4c8c-8edc-6474ca187ece)
    (property "Intersheetrefs" "${INTERSHEET_REFS}" (at 124.3806 56.1563 90)
      (effects (font (size 1.27 1.27)) (justify left) hide)
    )
  )

  (symbol (lib_id "power:PWR_FLAG") (at 73.66 60.96 0) (unit 1)
    (in_bom yes) (on_board yes) (dnp no)
    (uuid 03187245-641f-4061-b1dc-2d05e90a0de9)
    (property "Reference" "#FLG01" (at 73.66 59.055 0)
      (effects (font (size 1.27 1.27)) hide)
    )
    (property "Value" "PWR_FLAG" (at 74.168 57.3024 0)
      (effects (font (size 1.27 1.27)))
    )
    (property "Footprint" "" (at 73.66 60.96 0)
      (effects (font (size 1.27 1.27)) hide)
    )
    (property "Datasheet" "~" (at 73.66 60.96 0)
      (effects (font (size 1.27 1.27)) hide)
    )
    (pin "1" (uuid acdde748-d637-4152-b1c5-ccb7c9ef9fb1))
    (instances
      (project "TR-Switch"
        (path "/e65b62be-e01b-4688-a999-1d1be370c4ae"
          (reference "#FLG01") (unit 1)
        )
      )
    )
  )

  (symbol (lib_id "power:GNDPWR") (at 99.06 109.22 0) (unit 1)
    (in_bom yes) (on_board yes) (dnp no) (fields_autoplaced)
    (uuid 077e3e19-9f8a-4748-aec7-022bdb8f450c)
    (property "Reference" "#PWR0101" (at 99.06 114.3 0)
      (effects (font (size 1.27 1.27)) hide)
    )
    (property "Value" "GNDPWR" (at 98.933 114.046 0)
      (effects (font (size 1.27 1.27)))
    )
    (property "Footprint" "" (at 99.06 110.49 0)
      (effects (font (size 1.27 1.27)) hide)
    )
    (property "Datasheet" "" (at 99.06 110.49 0)
      (effects (font (size 1.27 1.27)) hide)
    )
    (pin "1" (uuid 1d9bb682-3336-497d-a7fc-2083e1524001))
    (instances
      (project "TR-Switch"
        (path "/e65b62be-e01b-4688-a999-1d1be370c4ae"
          (reference "#PWR0101") (unit 1)
        )
      )
    )
  )

  (symbol (lib_id "Device:R_Small") (at 68.58 76.2 90) (unit 1)
    (in_bom yes) (on_board yes) (dnp no)
    (uuid 096691a8-ffb6-4d51-b7b2-a41f1d44707d)
    (property "Reference" "R2" (at 68.58 74.422 90)
      (effects (font (size 1.27 1.27)))
    )
    (property "Value" "120" (at 68.58 78.486 90)
      (effects (font (size 1.27 1.27)))
    )
    (property "Footprint" "Resistor_SMD:R_1206_3216Metric_Pad1.30x1.75mm_HandSolder" (at 68.58 76.2 0)
      (effects (font (size 1.27 1.27)) hide)
    )
    (property "Datasheet" "~" (at 68.58 76.2 0)
      (effects (font (size 1.27 1.27)) hide)
    )
    (pin "1" (uuid 491916c7-61ba-43c2-bf27-c2d653232ebc))
    (pin "2" (uuid 6097ab06-8afe-47a8-bb6b-2857bbf78c4a))
    (instances
      (project "TR-Switch"
        (path "/e65b62be-e01b-4688-a999-1d1be370c4ae"
          (reference "R2") (unit 1)
        )
      )
    )
  )

  (symbol (lib_id "Diode:1N4148") (at 135.89 60.96 0) (unit 1)
    (in_bom yes) (on_board yes) (dnp no)
    (uuid 12dd5e39-cce8-4981-b272-c2bdb30751d2)
    (property "Reference" "D2" (at 141.8336 58.6232 0)
      (effects (font (size 1.27 1.27)))
    )
    (property "Value" "1N4148" (at 136.0932 58.6232 0)
      (effects (font (size 1.27 1.27)))
    )
    (property "Footprint" "Diode_THT:D_DO-35_SOD27_P2.54mm_Vertical_KathodeUp" (at 135.89 60.96 0)
      (effects (font (size 1.27 1.27)) hide)
    )
    (property "Datasheet" "https://assets.nexperia.com/documents/data-sheet/1N4148_1N4448.pdf" (at 135.89 60.96 0)
      (effects (font (size 1.27 1.27)) hide)
    )
    (property "Sim.Device" "D" (at 135.89 60.96 0)
      (effects (font (size 1.27 1.27)) hide)
    )
    (property "Sim.Pins" "1=K 2=A" (at 135.89 60.96 0)
      (effects (font (size 1.27 1.27)) hide)
    )
    (pin "1" (uuid 9d867982-adcf-496e-a944-648caa1b6e63))
    (pin "2" (uuid 7d9ae421-93b6-4fb6-a267-713b99c63c9b))
    (instances
      (project "TR-Switch"
        (path "/e65b62be-e01b-4688-a999-1d1be370c4ae"
          (reference "D2") (unit 1)
        )
      )
    )
  )

  (symbol (lib_id "power:GNDPWR") (at 50.8 114.3 0) (unit 1)
    (in_bom yes) (on_board yes) (dnp no) (fields_autoplaced)
    (uuid 14d41a21-0c51-40bf-ab43-a51b89b52c53)
    (property "Reference" "#PWR0107" (at 50.8 119.38 0)
      (effects (font (size 1.27 1.27)) hide)
    )
    (property "Value" "GNDPWR" (at 50.673 119.126 0)
      (effects (font (size 1.27 1.27)) hide)
    )
    (property "Footprint" "" (at 50.8 115.57 0)
      (effects (font (size 1.27 1.27)) hide)
    )
    (property "Datasheet" "" (at 50.8 115.57 0)
      (effects (font (size 1.27 1.27)) hide)
    )
    (pin "1" (uuid 5593891d-6aff-49cc-8be4-1b00e3e55259))
    (instances
      (project "TR-Switch"
        (path "/e65b62be-e01b-4688-a999-1d1be370c4ae"
          (reference "#PWR0107") (unit 1)
        )
      )
    )
  )

  (symbol (lib_id "Transistor_BJT:2N3904") (at 76.2 76.2 0) (unit 1)
    (in_bom yes) (on_board yes) (dnp no) (fields_autoplaced)
    (uuid 376806fb-eceb-4151-a0e5-41b98875c5a0)
    (property "Reference" "Q1" (at 81.788 74.9299 0)
      (effects (font (size 1.27 1.27)) (justify left))
    )
    (property "Value" "2N3904" (at 81.788 77.4699 0)
      (effects (font (size 1.27 1.27)) (justify left))
    )
    (property "Footprint" "Connector_PinSocket_2.54mm:PinSocket_1x03_P2.54mm_Vertical" (at 81.28 78.105 0)
      (effects (font (size 1.27 1.27) italic) (justify left) hide)
    )
    (property "Datasheet" "https://www.onsemi.com/pub/Collateral/2N3903-D.PDF" (at 76.2 76.2 0)
      (effects (font (size 1.27 1.27)) (justify left) hide)
    )
    (pin "1" (uuid 93d438d4-97ab-46d1-b0f3-6acb90f81b11))
    (pin "2" (uuid 99770f7c-7ac7-44f7-9cc7-f7c7b4a66d24))
    (pin "3" (uuid 757f264b-958a-4097-b1f5-345fb5811071))
    (instances
      (project "TR-Switch"
        (path "/e65b62be-e01b-4688-a999-1d1be370c4ae"
          (reference "Q1") (unit 1)
        )
      )
    )
  )

  (symbol (lib_id "power:GNDPWR") (at 50.8 121.92 0) (unit 1)
    (in_bom yes) (on_board yes) (dnp no) (fields_autoplaced)
    (uuid 3889f460-2e85-4b83-9f22-68416165643f)
    (property "Reference" "#PWR0106" (at 50.8 127 0)
      (effects (font (size 1.27 1.27)) hide)
    )
    (property "Value" "GNDPWR" (at 50.673 126.746 0)
      (effects (font (size 1.27 1.27)) hide)
    )
    (property "Footprint" "" (at 50.8 123.19 0)
      (effects (font (size 1.27 1.27)) hide)
    )
    (property "Datasheet" "" (at 50.8 123.19 0)
      (effects (font (size 1.27 1.27)) hide)
    )
    (pin "1" (uuid 80f2f3fc-e20c-4f54-b6ad-d8fa6fda5de2))
    (instances
      (project "TR-Switch"
        (path "/e65b62be-e01b-4688-a999-1d1be370c4ae"
          (reference "#PWR0106") (unit 1)
        )
      )
    )
  )

  (symbol (lib_id "power:GNDPWR") (at 104.14 63.5 0) (unit 1)
    (in_bom yes) (on_board yes) (dnp no)
    (uuid 411f21c0-dcce-4bff-ac0e-7c5571730a65)
    (property "Reference" "#PWR05" (at 104.14 68.58 0)
      (effects (font (size 1.27 1.27)) hide)
    )
    (property "Value" "GNDPWR" (at 106.68 61.722 90)
      (effects (font (size 1.27 1.27)) hide)
    )
    (property "Footprint" "" (at 104.14 64.77 0)
      (effects (font (size 1.27 1.27)) hide)
    )
    (property "Datasheet" "" (at 104.14 64.77 0)
      (effects (font (size 1.27 1.27)) hide)
    )
    (pin "1" (uuid b45301a2-b6d7-44bd-8834-616acde30aef))
    (instances
      (project "TR-Switch"
        (path "/e65b62be-e01b-4688-a999-1d1be370c4ae"
          (reference "#PWR05") (unit 1)
        )
      )
    )
  )

  (symbol (lib_id "power:+5V") (at 66.04 63.5 0) (unit 1)
    (in_bom yes) (on_board yes) (dnp no)
    (uuid 4e5b4aa7-7541-4451-8dc8-a0f647155eee)
    (property "Reference" "#PWR0104" (at 66.04 67.31 0)
      (effects (font (size 1.27 1.27)) hide)
    )
    (property "Value" "+5V" (at 65.786 59.436 0)
      (effects (font (size 1.27 1.27)))
    )
    (property "Footprint" "" (at 66.04 63.5 0)
      (effects (font (size 1.27 1.27)) hide)
    )
    (property "Datasheet" "" (at 66.04 63.5 0)
      (effects (font (size 1.27 1.27)) hide)
    )
    (pin "1" (uuid 60b19880-f4bd-4a41-854d-0c9b39a920bc))
    (instances
      (project "TR-Switch"
        (path "/e65b62be-e01b-4688-a999-1d1be370c4ae"
          (reference "#PWR0104") (unit 1)
        )
      )
    )
  )

  (symbol (lib_id "Device:R_Small") (at 48.26 71.12 90) (unit 1)
    (in_bom yes) (on_board yes) (dnp no) (fields_autoplaced)
    (uuid 505c1d3e-8ca5-438e-9eae-18483f12882c)
    (property "Reference" "R1" (at 48.26 65.278 90)
      (effects (font (size 1.27 1.27)))
    )
    (property "Value" "470" (at 48.26 67.818 90)
      (effects (font (size 1.27 1.27)))
    )
    (property "Footprint" "Resistor_SMD:R_1206_3216Metric_Pad1.30x1.75mm_HandSolder" (at 48.26 71.12 0)
      (effects (font (size 1.27 1.27)) hide)
    )
    (property "Datasheet" "~" (at 48.26 71.12 0)
      (effects (font (size 1.27 1.27)) hide)
    )
    (pin "1" (uuid a0129fe7-e9e9-4c74-af85-e2b335707eb4))
    (pin "2" (uuid 3bdc61da-fd87-4d91-ae6a-f160ef1e6b25))
    (instances
      (project "TR-Switch"
        (path "/e65b62be-e01b-4688-a999-1d1be370c4ae"
          (reference "R1") (unit 1)
        )
      )
    )
  )

  (symbol (lib_id "power:GNDPWR") (at 50.8 76.2 0) (unit 1)
    (in_bom yes) (on_board yes) (dnp no) (fields_autoplaced)
    (uuid 52fe3400-bf18-4fe5-aa6e-2be779b65697)
    (property "Reference" "#PWR02" (at 50.8 81.28 0)
      (effects (font (size 1.27 1.27)) hide)
    )
    (property "Value" "GNDPWR" (at 50.673 81.026 0)
      (effects (font (size 1.27 1.27)) hide)
    )
    (property "Footprint" "" (at 50.8 77.47 0)
      (effects (font (size 1.27 1.27)) hide)
    )
    (property "Datasheet" "" (at 50.8 77.47 0)
      (effects (font (size 1.27 1.27)) hide)
    )
    (pin "1" (uuid 7112d2ae-7915-4f1a-aae6-e71244f669d8))
    (instances
      (project "TR-Switch"
        (path "/e65b62be-e01b-4688-a999-1d1be370c4ae"
          (reference "#PWR02") (unit 1)
        )
      )
    )
  )

  (symbol (lib_id "power:GNDPWR") (at 134.62 88.9 0) (unit 1)
    (in_bom yes) (on_board yes) (dnp no) (fields_autoplaced)
    (uuid 532cb9ef-7fac-483b-aaf5-b83d764d0176)
    (property "Reference" "#PWR07" (at 134.62 93.98 0)
      (effects (font (size 1.27 1.27)) hide)
    )
    (property "Value" "GNDPWR" (at 134.493 93.726 0)
      (effects (font (size 1.27 1.27)))
    )
    (property "Footprint" "" (at 134.62 90.17 0)
      (effects (font (size 1.27 1.27)) hide)
    )
    (property "Datasheet" "" (at 134.62 90.17 0)
      (effects (font (size 1.27 1.27)) hide)
    )
    (pin "1" (uuid b37c8835-0989-48c9-97ba-c045f0d7107f))
    (instances
      (project "TR-Switch"
        (path "/e65b62be-e01b-4688-a999-1d1be370c4ae"
          (reference "#PWR07") (unit 1)
        )
      )
    )
  )

  (symbol (lib_id "power:GNDPWR") (at 121.92 78.74 0) (unit 1)
    (in_bom yes) (on_board yes) (dnp no) (fields_autoplaced)
    (uuid 5f4676ff-2597-415d-a32e-98d53038f432)
    (property "Reference" "#PWR06" (at 121.92 83.82 0)
      (effects (font (size 1.27 1.27)) hide)
    )
    (property "Value" "GNDPWR" (at 121.793 83.312 0)
      (effects (font (size 1.27 1.27)) hide)
    )
    (property "Footprint" "" (at 121.92 80.01 0)
      (effects (font (size 1.27 1.27)) hide)
    )
    (property "Datasheet" "" (at 121.92 80.01 0)
      (effects (font (size 1.27 1.27)) hide)
    )
    (pin "1" (uuid ea7f95ca-1368-4ccc-b3c5-17a85c05a2dd))
    (instances
      (project "TR-Switch"
        (path "/e65b62be-e01b-4688-a999-1d1be370c4ae"
          (reference "#PWR06") (unit 1)
        )
      )
    )
  )

  (symbol (lib_id "Connector:Conn_Coaxial") (at 134.62 83.82 0) (unit 1)
    (in_bom yes) (on_board yes) (dnp no) (fields_autoplaced)
    (uuid 5fe5bd8d-5a86-4565-bd10-e08c6de9aa03)
    (property "Reference" "ANTENNA1" (at 138.176 82.8431 0)
      (effects (font (size 1.27 1.27)) (justify left))
    )
    (property "Value" "SMA" (at 138.176 85.3831 0)
      (effects (font (size 1.27 1.27)) (justify left))
    )
    (property "Footprint" "Connector_Coaxial:SMA_Amphenol_901-144_Vertical" (at 134.62 83.82 0)
      (effects (font (size 1.27 1.27)) hide)
    )
    (property "Datasheet" " ~" (at 134.62 83.82 0)
      (effects (font (size 1.27 1.27)) hide)
    )
    (pin "1" (uuid 885a1129-9446-432d-8d93-f91d54873594))
    (pin "2" (uuid ba660766-df56-40bf-b584-d5d4ed6cb6fc))
    (instances
      (project "TR-Switch"
        (path "/e65b62be-e01b-4688-a999-1d1be370c4ae"
          (reference "ANTENNA1") (unit 1)
        )
      )
    )
  )

  (symbol (lib_id "Connector_Generic:Conn_01x02") (at 40.64 71.12 0) (mirror y) (unit 1)
    (in_bom yes) (on_board yes) (dnp no)
    (uuid 64d84e49-aaf5-4eba-8a78-1b20287a1fe2)
    (property "Reference" "PTT1" (at 40.64 68.58 0)
      (effects (font (size 1.27 1.27)))
    )
    (property "Value" "GPIO (3.3v)" (at 36.576 72.898 90)
      (effects (font (size 1.27 1.27)))
    )
    (property "Footprint" "Connector_PinHeader_2.54mm:PinHeader_1x02_P2.54mm_Vertical" (at 40.64 71.12 0)
      (effects (font (size 1.27 1.27)) hide)
    )
    (property "Datasheet" "~" (at 40.64 71.12 0)
      (effects (font (size 1.27 1.27)) hide)
    )
    (pin "1" (uuid 5f9c5087-aeae-41db-97be-1dd276294553))
    (pin "2" (uuid ab15be4c-1efb-422a-9053-a5c97ba751b0))
    (instances
      (project "TR-Switch"
        (path "/e65b62be-e01b-4688-a999-1d1be370c4ae"
          (reference "PTT1") (unit 1)
        )
      )
    )
  )

  (symbol (lib_id "Mechanical:MountingHole_Pad") (at 55.88 119.38 0) (unit 1)
    (in_bom yes) (on_board yes) (dnp no)
    (uuid 78c93809-c958-455d-931e-82166c718317)
    (property "Reference" "H4" (at 54.61 122.682 0)
      (effects (font (size 1.27 1.27)) (justify left) hide)
    )
    (property "Value" "MountingHole" (at 58.42 120.6499 0)
      (effects (font (size 1.27 1.27)) (justify left) hide)
    )
    (property "Footprint" "MountingHole:MountingHole_2.2mm_M2_Pad" (at 55.88 119.38 0)
      (effects (font (size 1.27 1.27)) hide)
    )
    (property "Datasheet" "~" (at 55.88 119.38 0)
      (effects (font (size 1.27 1.27)) hide)
    )
    (pin "1" (uuid d84119f9-cf43-4c40-acfc-12de06c88ddd))
    (instances
      (project "TR-Switch"
        (path "/e65b62be-e01b-4688-a999-1d1be370c4ae"
          (reference "H4") (unit 1)
        )
      )
    )
  )

  (symbol (lib_id "power:GNDPWR") (at 55.88 121.92 0) (unit 1)
    (in_bom yes) (on_board yes) (dnp no) (fields_autoplaced)
    (uuid 7bac8904-56cc-4ffe-a46b-ccf56e252126)
    (property "Reference" "#PWR0108" (at 55.88 127 0)
      (effects (font (size 1.27 1.27)) hide)
    )
    (property "Value" "GNDPWR" (at 55.753 126.746 0)
      (effects (font (size 1.27 1.27)) hide)
    )
    (property "Footprint" "" (at 55.88 123.19 0)
      (effects (font (size 1.27 1.27)) hide)
    )
    (property "Datasheet" "" (at 55.88 123.19 0)
      (effects (font (size 1.27 1.27)) hide)
    )
    (pin "1" (uuid ab14ab8a-3f97-4044-a510-ac180fca232f))
    (instances
      (project "TR-Switch"
        (path "/e65b62be-e01b-4688-a999-1d1be370c4ae"
          (reference "#PWR0108") (unit 1)
        )
      )
    )
  )

  (symbol (lib_id "power:GNDPWR") (at 139.7 60.96 90) (unit 1)
    (in_bom yes) (on_board yes) (dnp no) (fields_autoplaced)
    (uuid 887aca89-d2d9-4d7e-819a-8be07a95fd54)
    (property "Reference" "#PWR03" (at 144.78 60.96 0)
      (effects (font (size 1.27 1.27)) hide)
    )
    (property "Value" "GNDPWR" (at 144.272 61.087 0)
      (effects (font (size 1.27 1.27)) hide)
    )
    (property "Footprint" "" (at 140.97 60.96 0)
      (effects (font (size 1.27 1.27)) hide)
    )
    (property "Datasheet" "" (at 140.97 60.96 0)
      (effects (font (size 1.27 1.27)) hide)
    )
    (pin "1" (uuid 4660981b-d059-48b6-8803-f295b4e181dc))
    (instances
      (project "TR-Switch"
        (path "/e65b62be-e01b-4688-a999-1d1be370c4ae"
          (reference "#PWR03") (unit 1)
        )
      )
    )
  )

  (symbol (lib_id "power:GNDPWR") (at 99.06 129.54 0) (unit 1)
    (in_bom yes) (on_board yes) (dnp no) (fields_autoplaced)
    (uuid 888d100b-0500-434f-a3b2-808c8e7a5caa)
    (property "Reference" "#PWR0102" (at 99.06 134.62 0)
      (effects (font (size 1.27 1.27)) hide)
    )
    (property "Value" "GNDPWR" (at 98.933 134.366 0)
      (effects (font (size 1.27 1.27)))
    )
    (property "Footprint" "" (at 99.06 130.81 0)
      (effects (font (size 1.27 1.27)) hide)
    )
    (property "Datasheet" "" (at 99.06 130.81 0)
      (effects (font (size 1.27 1.27)) hide)
    )
    (pin "1" (uuid b5a90c87-8ff1-4dbd-9e50-a52d990a9095))
    (instances
      (project "TR-Switch"
        (path "/e65b62be-e01b-4688-a999-1d1be370c4ae"
          (reference "#PWR0102") (unit 1)
        )
      )
    )
  )

  (symbol (lib_id "Connector_Generic:Conn_01x02") (at 104.14 58.42 270) (mirror x) (unit 1)
    (in_bom yes) (on_board yes) (dnp no)
    (uuid 9a68bf85-c16f-48ee-8e66-0d9ea8ea8b23)
    (property "Reference" "RELAY_POWER1" (at 109.728 58.166 0)
      (effects (font (size 1.27 1.27)) hide)
    )
    (property "Value" "RelayPower1" (at 99.314 55.626 90)
      (effects (font (size 1.27 1.27)))
    )
    (property "Footprint" "Connector_PinHeader_2.54mm:PinHeader_1x02_P2.54mm_Vertical" (at 104.14 58.42 0)
      (effects (font (size 1.27 1.27)) hide)
    )
    (property "Datasheet" "~" (at 104.14 58.42 0)
      (effects (font (size 1.27 1.27)) hide)
    )
    (pin "1" (uuid ccdce88e-24b7-4692-934b-22bb9b0763dc))
    (pin "2" (uuid e61e3b10-16bb-45fa-9a42-277efd2ec104))
    (instances
      (project "TR-Switch"
        (path "/e65b62be-e01b-4688-a999-1d1be370c4ae"
          (reference "RELAY_POWER1") (unit 1)
        )
      )
    )
  )

  (symbol (lib_id "Mechanical:MountingHole_Pad") (at 55.88 111.76 0) (unit 1)
    (in_bom yes) (on_board yes) (dnp no)
    (uuid a65c679d-4e37-4dd0-959d-9bd93ba347d2)
    (property "Reference" "H2" (at 54.61 108.712 0)
      (effects (font (size 1.27 1.27)) (justify left) hide)
    )
    (property "Value" "MountingHole" (at 58.42 113.0299 0)
      (effects (font (size 1.27 1.27)) (justify left) hide)
    )
    (property "Footprint" "MountingHole:MountingHole_2.2mm_M2_Pad" (at 55.88 111.76 0)
      (effects (font (size 1.27 1.27)) hide)
    )
    (property "Datasheet" "~" (at 55.88 111.76 0)
      (effects (font (size 1.27 1.27)) hide)
    )
    (pin "1" (uuid 0a566958-4bfe-4df2-9eda-aebb03561e3e))
    (instances
      (project "TR-Switch"
        (path "/e65b62be-e01b-4688-a999-1d1be370c4ae"
          (reference "H2") (unit 1)
        )
      )
    )
  )

  (symbol (lib_id "power:PWR_FLAG") (at 127 78.74 270) (unit 1)
    (in_bom yes) (on_board yes) (dnp no) (fields_autoplaced)
    (uuid a7c864f4-0e87-4076-a820-45b665c724f8)
    (property "Reference" "#FLG02" (at 128.905 78.74 0)
      (effects (font (size 1.27 1.27)) hide)
    )
    (property "Value" "PWR_FLAG" (at 130.81 78.7399 90)
      (effects (font (size 1.27 1.27)) (justify left) hide)
    )
    (property "Footprint" "" (at 127 78.74 0)
      (effects (font (size 1.27 1.27)) hide)
    )
    (property "Datasheet" "~" (at 127 78.74 0)
      (effects (font (size 1.27 1.27)) hide)
    )
    (pin "1" (uuid bed3ec4b-9244-41e3-80cd-077cdb607e32))
    (instances
      (project "TR-Switch"
        (path "/e65b62be-e01b-4688-a999-1d1be370c4ae"
          (reference "#FLG02") (unit 1)
        )
      )
    )
  )

  (symbol (lib_id "power:GNDPWR") (at 45.72 73.66 0) (unit 1)
    (in_bom yes) (on_board yes) (dnp no) (fields_autoplaced)
    (uuid ab3e0d45-ad5b-42a1-ab02-8fee32ad804e)
    (property "Reference" "#PWR01" (at 45.72 78.74 0)
      (effects (font (size 1.27 1.27)) hide)
    )
    (property "Value" "GNDPWR" (at 45.593 78.232 0)
      (effects (font (size 1.27 1.27)) hide)
    )
    (property "Footprint" "" (at 45.72 74.93 0)
      (effects (font (size 1.27 1.27)) hide)
    )
    (property "Datasheet" "" (at 45.72 74.93 0)
      (effects (font (size 1.27 1.27)) hide)
    )
    (pin "1" (uuid 1c6c46b2-dd9e-430f-85e9-621815ceca94))
    (instances
      (project "TR-Switch"
        (path "/e65b62be-e01b-4688-a999-1d1be370c4ae"
          (reference "#PWR01") (unit 1)
        )
      )
    )
  )

  (symbol (lib_id "power:GNDPWR") (at 139.7 63.5 90) (unit 1)
    (in_bom yes) (on_board yes) (dnp no) (fields_autoplaced)
    (uuid ac099f46-d993-4570-83e8-ae7ad38dc5b8)
    (property "Reference" "#PWR04" (at 144.78 63.5 0)
      (effects (font (size 1.27 1.27)) hide)
    )
    (property "Value" "GNDPWR" (at 144.272 63.627 0)
      (effects (font (size 1.27 1.27)) hide)
    )
    (property "Footprint" "" (at 140.97 63.5 0)
      (effects (font (size 1.27 1.27)) hide)
    )
    (property "Datasheet" "" (at 140.97 63.5 0)
      (effects (font (size 1.27 1.27)) hide)
    )
    (pin "1" (uuid f9c41753-011e-42e9-aafd-6910a3c35445))
    (instances
      (project "TR-Switch"
        (path "/e65b62be-e01b-4688-a999-1d1be370c4ae"
          (reference "#PWR04") (unit 1)
        )
      )
    )
  )

  (symbol (lib_id "power:GNDPWR") (at 78.74 81.28 0) (unit 1)
    (in_bom yes) (on_board yes) (dnp no) (fields_autoplaced)
    (uuid b38c604c-814a-40a9-ab0b-227211c3c272)
    (property "Reference" "#PWR0103" (at 78.74 86.36 0)
      (effects (font (size 1.27 1.27)) hide)
    )
    (property "Value" "GNDPWR" (at 78.613 86.106 0)
      (effects (font (size 1.27 1.27)) hide)
    )
    (property "Footprint" "" (at 78.74 82.55 0)
      (effects (font (size 1.27 1.27)) hide)
    )
    (property "Datasheet" "" (at 78.74 82.55 0)
      (effects (font (size 1.27 1.27)) hide)
    )
    (pin "1" (uuid b7ab52d7-c12b-45ea-b275-50e2407c91c3))
    (instances
      (project "TR-Switch"
        (path "/e65b62be-e01b-4688-a999-1d1be370c4ae"
          (reference "#PWR0103") (unit 1)
        )
      )
    )
  )

  (symbol (lib_id "Relay:G5V-2") (at 111.76 71.12 0) (unit 1)
    (in_bom yes) (on_board yes) (dnp no) (fields_autoplaced)
    (uuid b64fe3cc-3a1f-41b6-9ac9-fa971c4a06a6)
    (property "Reference" "K1" (at 128.016 69.8499 0)
      (effects (font (size 1.27 1.27)) (justify left))
    )
    (property "Value" "Omron G5V-2 / OEN 46-05-2C" (at 128.016 72.3899 0)
      (effects (font (size 1.27 1.27)) (justify left))
    )
    (property "Footprint" "Relay_THT:Relay_DPDT_Omron_G5V-2" (at 128.27 72.39 0)
      (effects (font (size 1.27 1.27)) (justify left) hide)
    )
    (property "Datasheet" "http://omronfs.omron.com/en_US/ecb/products/pdf/en-g5v_2.pdf" (at 111.76 71.12 0)
      (effects (font (size 1.27 1.27)) hide)
    )
    (pin "1" (uuid 2276e018-ceb6-4356-b3fe-3b8fe418011b))
    (pin "11" (uuid 90f1070b-d0d3-4d94-9527-f4c1c7006642))
    (pin "13" (uuid 18a9dea8-caa6-40a3-962a-7699d9146e17))
    (pin "16" (uuid e8531c3a-ab79-4096-b3fb-b5b6ae94c3f7))
    (pin "4" (uuid 73fd78b9-9aa5-40d0-adab-1e5886c90dd7))
    (pin "6" (uuid a95b6208-cd25-486f-8a35-f7d7b1426174))
    (pin "8" (uuid 636332c5-387a-4243-bc33-7882b1adfdac))
    (pin "9" (uuid bf8bfbb4-4b7a-430e-865f-8acab9f8c04d))
    (instances
      (project "TR-Switch"
        (path "/e65b62be-e01b-4688-a999-1d1be370c4ae"
          (reference "K1") (unit 1)
        )
      )
    )
  )

  (symbol (lib_id "Connector:Conn_Coaxial") (at 99.06 124.46 0) (unit 1)
    (in_bom yes) (on_board yes) (dnp no) (fields_autoplaced)
    (uuid b949183a-eaa2-425b-ac21-ca35ae2dc4f3)
    (property "Reference" "RX1" (at 102.362 123.4831 0)
      (effects (font (size 1.27 1.27)) (justify left))
    )
    (property "Value" "SMA" (at 102.362 126.0231 0)
      (effects (font (size 1.27 1.27)) (justify left))
    )
    (property "Footprint" "Connector_Coaxial:SMA_Amphenol_901-144_Vertical" (at 99.06 124.46 0)
      (effects (font (size 1.27 1.27)) hide)
    )
    (property "Datasheet" " ~" (at 99.06 124.46 0)
      (effects (font (size 1.27 1.27)) hide)
    )
    (pin "1" (uuid 1c955fbb-5e68-4933-a04e-d7b0255b3d11))
    (pin "2" (uuid 9aaf0567-bcaa-4cd6-9a6d-c6ecc46d3d41))
    (instances
      (project "TR-Switch"
        (path "/e65b62be-e01b-4688-a999-1d1be370c4ae"
          (reference "RX1") (unit 1)
        )
      )
    )
  )

  (symbol (lib_id "Isolator:EL817") (at 58.42 73.66 0) (unit 1)
    (in_bom yes) (on_board yes) (dnp no) (fields_autoplaced)
    (uuid d2f72b7f-67e2-4cf3-9de6-340a26ecf95b)
    (property "Reference" "U1" (at 58.42 64.516 0)
      (effects (font (size 1.27 1.27)))
    )
    (property "Value" "EL817 (OC)" (at 58.42 67.056 0)
      (effects (font (size 1.27 1.27)))
    )
    (property "Footprint" "Package_DIP:DIP-4_W7.62mm" (at 53.34 78.74 0)
      (effects (font (size 1.27 1.27) italic) (justify left) hide)
    )
    (property "Datasheet" "http://www.everlight.com/file/ProductFile/EL817.pdf" (at 58.42 73.66 0)
      (effects (font (size 1.27 1.27)) (justify left) hide)
    )
    (pin "1" (uuid 7bd09790-9a37-4331-94a2-940c4fb9585b))
    (pin "2" (uuid dad24ddf-e25d-4aa8-b795-2adc252edc45))
    (pin "3" (uuid 8b129856-cc2d-4792-b90f-5af9599716ce))
    (pin "4" (uuid 83226cf4-4bcb-4755-8744-16fd92f3a724))
    (instances
      (project "TR-Switch"
        (path "/e65b62be-e01b-4688-a999-1d1be370c4ae"
          (reference "U1") (unit 1)
        )
      )
    )
  )

  (symbol (lib_id "power:GNDPWR") (at 55.88 114.3 0) (unit 1)
    (in_bom yes) (on_board yes) (dnp no) (fields_autoplaced)
    (uuid d6f08648-aa90-41be-857e-160ba82acb73)
    (property "Reference" "#PWR0105" (at 55.88 119.38 0)
      (effects (font (size 1.27 1.27)) hide)
    )
    (property "Value" "GNDPWR" (at 55.753 119.126 0)
      (effects (font (size 1.27 1.27)) hide)
    )
    (property "Footprint" "" (at 55.88 115.57 0)
      (effects (font (size 1.27 1.27)) hide)
    )
    (property "Datasheet" "" (at 55.88 115.57 0)
      (effects (font (size 1.27 1.27)) hide)
    )
    (pin "1" (uuid bb6946e1-1b94-439e-87c5-c34750676ca4))
    (instances
      (project "TR-Switch"
        (path "/e65b62be-e01b-4688-a999-1d1be370c4ae"
          (reference "#PWR0105") (unit 1)
        )
      )
    )
  )

  (symbol (lib_id "Connector:Conn_Coaxial") (at 99.06 104.14 0) (unit 1)
    (in_bom yes) (on_board yes) (dnp no) (fields_autoplaced)
    (uuid d8f7e059-8dd2-4409-9d96-38a5262ce2df)
    (property "Reference" "TX1" (at 102.87 103.1631 0)
      (effects (font (size 1.27 1.27)) (justify left))
    )
    (property "Value" "SMA" (at 102.87 105.7031 0)
      (effects (font (size 1.27 1.27)) (justify left))
    )
    (property "Footprint" "Connector_Coaxial:SMA_Amphenol_901-144_Vertical" (at 99.06 104.14 0)
      (effects (font (size 1.27 1.27)) hide)
    )
    (property "Datasheet" " ~" (at 99.06 104.14 0)
      (effects (font (size 1.27 1.27)) hide)
    )
    (pin "1" (uuid 31c564e2-54c1-46dc-8fa7-c346347f3185))
    (pin "2" (uuid 77388caf-8d34-4a67-ba7c-128a40b6994d))
    (instances
      (project "TR-Switch"
        (path "/e65b62be-e01b-4688-a999-1d1be370c4ae"
          (reference "TX1") (unit 1)
        )
      )
    )
  )

  (symbol (lib_id "Mechanical:MountingHole_Pad") (at 50.8 119.38 0) (unit 1)
    (in_bom yes) (on_board yes) (dnp no)
    (uuid d9d1085b-9b15-4340-9b95-610882d9fee3)
    (property "Reference" "H3" (at 49.53 122.682 0)
      (effects (font (size 1.27 1.27)) (justify left) hide)
    )
    (property "Value" "MountingHole" (at 53.34 120.6499 0)
      (effects (font (size 1.27 1.27)) (justify left) hide)
    )
    (property "Footprint" "MountingHole:MountingHole_2.2mm_M2_Pad" (at 50.8 119.38 0)
      (effects (font (size 1.27 1.27)) hide)
    )
    (property "Datasheet" "~" (at 50.8 119.38 0)
      (effects (font (size 1.27 1.27)) hide)
    )
    (pin "1" (uuid b9d10118-c5ca-4fdf-be60-31425cda6447))
    (instances
      (project "TR-Switch"
        (path "/e65b62be-e01b-4688-a999-1d1be370c4ae"
          (reference "H3") (unit 1)
        )
      )
    )
  )

  (symbol (lib_id "Mechanical:MountingHole_Pad") (at 50.8 111.76 0) (unit 1)
    (in_bom yes) (on_board yes) (dnp no)
    (uuid dcb7ef5d-30e6-47b3-91df-35b8913e714b)
    (property "Reference" "H1" (at 49.784 108.712 0)
      (effects (font (size 1.27 1.27)) (justify left) hide)
    )
    (property "Value" "MountingHole" (at 53.34 113.0299 0)
      (effects (font (size 1.27 1.27)) (justify left) hide)
    )
    (property "Footprint" "MountingHole:MountingHole_2.2mm_M2_Pad" (at 50.8 111.76 0)
      (effects (font (size 1.27 1.27)) hide)
    )
    (property "Datasheet" "~" (at 50.8 111.76 0)
      (effects (font (size 1.27 1.27)) hide)
    )
    (pin "1" (uuid 7c8232c4-c73f-45be-bd2b-408652ab8e7c))
    (instances
      (project "TR-Switch"
        (path "/e65b62be-e01b-4688-a999-1d1be370c4ae"
          (reference "H1") (unit 1)
        )
      )
    )
  )

  (symbol (lib_id "Diode:1N4148") (at 135.89 63.5 180) (unit 1)
    (in_bom yes) (on_board yes) (dnp no)
    (uuid e243f808-2593-4749-a757-b1381a7456fd)
    (property "Reference" "D3" (at 142.2908 65.8368 0)
      (effects (font (size 1.27 1.27)))
    )
    (property "Value" "1N4148" (at 135.9408 65.8368 0)
      (effects (font (size 1.27 1.27)))
    )
    (property "Footprint" "Diode_THT:D_DO-35_SOD27_P2.54mm_Vertical_KathodeUp" (at 135.89 63.5 0)
      (effects (font (size 1.27 1.27)) hide)
    )
    (property "Datasheet" "https://assets.nexperia.com/documents/data-sheet/1N4148_1N4448.pdf" (at 135.89 63.5 0)
      (effects (font (size 1.27 1.27)) hide)
    )
    (property "Sim.Device" "D" (at 135.89 63.5 0)
      (effects (font (size 1.27 1.27)) hide)
    )
    (property "Sim.Pins" "1=K 2=A" (at 135.89 63.5 0)
      (effects (font (size 1.27 1.27)) hide)
    )
    (pin "1" (uuid 2b0b1ad8-8703-471c-a6ba-ac21c00edbaf))
    (pin "2" (uuid 207c20f4-18e6-4caf-b915-0e551809a37e))
    (instances
      (project "TR-Switch"
        (path "/e65b62be-e01b-4688-a999-1d1be370c4ae"
          (reference "D3") (unit 1)
        )
      )
    )
  )

  (symbol (lib_id "Diode:1N4148") (at 91.44 67.31 270) (unit 1)
    (in_bom yes) (on_board yes) (dnp no)
    (uuid eb8da7b1-c954-4f96-b636-28a01b4ed609)
    (property "Reference" "D1" (at 93.472 65.532 90)
      (effects (font (size 1.27 1.27)) (justify left))
    )
    (property "Value" "1N4148" (at 94.488 67.31 0)
      (effects (font (size 1.27 1.27)) (justify left))
    )
    (property "Footprint" "Diode_THT:D_DO-35_SOD27_P2.54mm_Vertical_KathodeUp" (at 91.44 67.31 0)
      (effects (font (size 1.27 1.27)) hide)
    )
    (property "Datasheet" "https://assets.nexperia.com/documents/data-sheet/1N4148_1N4448.pdf" (at 91.44 67.31 0)
      (effects (font (size 1.27 1.27)) hide)
    )
    (property "Sim.Device" "D" (at 91.44 67.31 0)
      (effects (font (size 1.27 1.27)) hide)
    )
    (property "Sim.Pins" "1=K 2=A" (at 91.44 67.31 0)
      (effects (font (size 1.27 1.27)) hide)
    )
    (pin "1" (uuid f574310b-3071-4841-b3bc-44ccc3dd1422))
    (pin "2" (uuid e34d78fc-c821-4e5c-ac82-ce6fcdcd9454))
    (instances
      (project "TR-Switch"
        (path "/e65b62be-e01b-4688-a999-1d1be370c4ae"
          (reference "D1") (unit 1)
        )
      )
    )
  )

  (sheet_instances
    (path "/" (page "1"))
  )
)
