(kicad_pcb (version 20221018) (generator pcbnew)

  (general
    (thickness 1.6)
  )

  (paper "A4")
  (layers
    (0 "F.Cu" signal)
    (31 "B.Cu" signal)
    (32 "B.Adhes" user "B.Adhesive")
    (33 "F.Adhes" user "F.Adhesive")
    (34 "B.Paste" user)
    (35 "F.Paste" user)
    (36 "B.SilkS" user "B.Silkscreen")
    (37 "F.SilkS" user "F.Silkscreen")
    (38 "B.Mask" user)
    (39 "F.Mask" user)
    (40 "Dwgs.User" user "User.Drawings")
    (41 "Cmts.User" user "User.Comments")
    (42 "Eco1.User" user "User.Eco1")
    (43 "Eco2.User" user "User.Eco2")
    (44 "Edge.Cuts" user)
    (45 "Margin" user)
    (46 "B.CrtYd" user "B.Courtyard")
    (47 "F.CrtYd" user "F.Courtyard")
    (48 "B.Fab" user)
    (49 "F.Fab" user)
  )

  (setup
    (pad_to_mask_clearance 0)
    (aux_axis_origin 136.5 112.75)
    (pcbplotparams
      (layerselection 0x0000040_7ffffffe)
      (plot_on_all_layers_selection 0x0001000_00000000)
      (disableapertmacros false)
      (usegerberextensions false)
      (usegerberattributes true)
      (usegerberadvancedattributes true)
      (creategerberjobfile false)
      (dashed_line_dash_ratio 12.000000)
      (dashed_line_gap_ratio 3.000000)
      (svgprecision 6)
      (plotframeref false)
      (viasonmask false)
      (mode 1)
      (useauxorigin false)
      (hpglpennumber 1)
      (hpglpenspeed 20)
      (hpglpendiameter 15.000000)
      (dxfpolygonmode true)
      (dxfimperialunits true)
      (dxfusepcbnewfont true)
      (psnegative false)
      (psa4output false)
      (plotreference false)
      (plotvalue false)
      (plotinvisibletext false)
      (sketchpadsonfab false)
      (subtractmaskfromsilk false)
      (outputformat 4)
      (mirror true)
      (drillshape 1)
      (scaleselection 1)
      (outputdirectory "")
    )
  )

  (net 0 "")
  (net 1 "Net-(C1-Pad2)")
  (net 2 "GND")
  (net 3 "Net-(C2-Pad1)")
  (net 4 "Net-(C3-Pad1)")
  (net 5 "+3V3")
  (net 6 "Net-(C6-Pad2)")
  (net 7 "Net-(C6-Pad1)")
  (net 8 "Net-(C7-Pad2)")
  (net 9 "Net-(C7-Pad1)")
  (net 10 "/SCL")
  (net 11 "/SDA")
  (net 12 "Net-(R4-Pad1)")
  (net 13 "Net-(U1-Pad25)")
  (net 14 "Net-(U1-Pad24)")
  (net 15 "Net-(U1-Pad23)")
  (net 16 "Net-(U1-Pad22)")
  (net 17 "Net-(U1-Pad21)")
  (net 18 "Net-(U1-Pad17)")
  (net 19 "Net-(U1-Pad7)")
  (net 20 "Net-(U1-Pad16)")

  (footprint "Connector_PinHeader_2.54mm:PinHeader_1x04_P2.54mm_Vertical" (layer "F.Cu")
    (tstamp 00000000-0000-0000-0000-00005f20470a)
    (at 153.81 111.25 -90)
    (descr "Through hole straight pin header, 1x04, 2.54mm pitch, single row")
    (tags "Through hole pin header THT 1x04 2.54mm single row")
    (path "/00000000-0000-0000-0000-00005f202a1d")
    (attr through_hole)
    (fp_text reference "J1" (at 0 -2.33 180) (layer "F.SilkS")
        (effects (font (size 1 1) (thickness 0.15)))
      (tstamp 81bbc3ff-3938-49ac-8297-ce2bcc9a42bd)
    )
    (fp_text value "I2C" (at 0 9.95 90) (layer "F.Fab")
        (effects (font (size 1 1) (thickness 0.15)))
      (tstamp 15875808-74d5-4210-b8ca-aa8fbc04ae21)
    )
    (fp_text user "${REFERENCE}" (at 0 3.81) (layer "F.Fab")
        (effects (font (size 1 1) (thickness 0.15)))
      (tstamp 94c158d1-8503-4553-b511-bf42f506c2a8)
    )
    (fp_line (start -1.33 -1.33) (end 0 -1.33)
      (stroke (width 0.12) (type solid)) (layer "F.SilkS") (tstamp f3490fa5-5a27-423b-af60-53609669542c))
    (fp_line (start -1.33 0) (end -1.33 -1.33)
      (stroke (width 0.12) (type solid)) (layer "F.SilkS") (tstamp 1860e030-7a36-4298-b7fc-a16d48ab15ba))
    (fp_line (start -1.33 1.27) (end -1.33 8.95)
      (stroke (width 0.12) (type solid)) (layer "F.SilkS") (tstamp 32667662-ae86-4904-b198-3e95f11851bf))
    (fp_line (start -1.33 1.27) (end 1.33 1.27)
      (stroke (width 0.12) (type solid)) (layer "F.SilkS") (tstamp 3dcc657b-55a1-48e0-9667-e01e7b6b08b5))
    (fp_line (start -1.33 8.95) (end 1.33 8.95)
      (stroke (width 0.12) (type solid)) (layer "F.SilkS") (tstamp a05d7640-f2f6-4ba7-8c51-5a4af431fc13))
    (fp_line (start 1.33 1.27) (end 1.33 8.95)
      (stroke (width 0.12) (type solid)) (layer "F.SilkS") (tstamp 67f6e996-3c99-493c-8f6f-e739e2ed5d7a))
    (fp_line (start -1.8 -1.8) (end -1.8 9.4)
      (stroke (width 0.05) (type solid)) (layer "F.CrtYd") (tstamp b6270a28-e0d9-4655-a18a-03dbf007b940))
    (fp_line (start -1.8 9.4) (end 1.8 9.4)
      (stroke (width 0.05) (type solid)) (layer "F.CrtYd") (tstamp 8322f275-268c-4e87-a69f-4cfbf05e747f))
    (fp_line (start 1.8 -1.8) (end -1.8 -1.8)
      (stroke (width 0.05) (type solid)) (layer "F.CrtYd") (tstamp dd00c2e1-6027-4717-b312-4fab3ee52002))
    (fp_line (start 1.8 9.4) (end 1.8 -1.8)
      (stroke (width 0.05) (type solid)) (layer "F.CrtYd") (tstamp 0a3cc030-c9dd-4d74-9d50-715ed2b361a2))
    (fp_line (start -1.27 -0.635) (end -0.635 -1.27)
      (stroke (width 0.1) (type solid)) (layer "F.Fab") (tstamp 13abf99d-5265-4779-8973-e94370fd18ff))
    (fp_line (start -1.27 8.89) (end -1.27 -0.635)
      (stroke (width 0.1) (type solid)) (layer "F.Fab") (tstamp a7520ad3-0f8b-4788-92d4-8ffb277041e6))
    (fp_line (start -0.635 -1.27) (end 1.27 -1.27)
      (stroke (width 0.1) (type solid)) (layer "F.Fab") (tstamp 9ccf03e8-755a-4cd9-96fc-30e1d08fa253))
    (fp_line (start 1.27 -1.27) (end 1.27 8.89)
      (stroke (width 0.1) (type solid)) (layer "F.Fab") (tstamp 46918595-4a45-48e8-84c0-961b4db7f35f))
    (fp_line (start 1.27 8.89) (end -1.27 8.89)
      (stroke (width 0.1) (type solid)) (layer "F.Fab") (tstamp a795f1ba-cdd5-4cc5-9a52-08586e982934))
    (pad "1" thru_hole rect (at 0 0 270) (size 1.7 1.7) (drill 1) (layers "*.Cu" "*.Mask")
      (net 2 "GND") (tstamp 983c426c-24e0-4c65-ab69-1f1824adc5c6))
    (pad "2" thru_hole oval (at 0 2.54 270) (size 1.7 1.7) (drill 1) (layers "*.Cu" "*.Mask")
      (net 11 "/SDA") (tstamp 6e105729-aba0-497c-a99e-c32d2b3ddb6d))
    (pad "3" thru_hole oval (at 0 5.08 270) (size 1.7 1.7) (drill 1) (layers "*.Cu" "*.Mask")
      (net 10 "/SCL") (tstamp 78cbdd6c-4878-4cc5-9a58-0e506478e37d))
    (pad "4" thru_hole oval (at 0 7.62 270) (size 1.7 1.7) (drill 1) (layers "*.Cu" "*.Mask")
      (net 5 "+3V3") (tstamp 23bb2798-d93a-4696-a962-c305c4298a0c))
    (model "${KISYS3DMOD}/Connector_PinHeader_2.54mm.3dshapes/PinHeader_1x04_P2.54mm_Vertical.wrl"
      (offset (xyz 0 0 0))
      (scale (xyz 1 1 1))
      (rotate (xyz 0 0 0))
    )
  )

  (footprint "SSD1306:SSD1306" (layer "F.Cu")
    (tstamp 00000000-0000-0000-0000-00005f20477b)
    (at 150 100)
    (path "/00000000-0000-0000-0000-00005f200093")
    (attr through_hole)
    (fp_text reference "U1" (at 0 -10.75 -180) (layer "F.SilkS")
        (effects (font (size 0.5 0.5) (thickness 0.1)))
      (tstamp 825c70b0-4860-42b7-97dc-86bfa46e06fd)
    )
    (fp_text value "SSD1306" (at 0 -1.9925 180) (layer "F.Fab")
        (effects (font (size 1 1) (thickness 0.15)))
      (tstamp bbb15673-6d42-42b8-9d51-7515b3ad9ee9)
    )
    (fp_text user "30" (at 10 1.5075) (layer "B.SilkS")
        (effects (font (size 0.5 0.5) (thickness 0.1)) (justify mirror))
      (tstamp 68b52f01-fa04-4908-bf88-60c62ace1cfa)
    )
    (fp_text user "1" (at -10 1.5075) (layer "B.SilkS")
        (effects (font (size 0.5 0.5) (thickness 0.1)) (justify mirror))
      (tstamp b8c83ad1-b3c9-495c-bdc6-62dead00f5ad)
    )
    (fp_line (start -13.5 -11.4) (end -13.5 9)
      (stroke (width 0.1) (type solid)) (layer "F.SilkS") (tstamp bb4f0314-c44c-4dda-b85c-537120eaae9a))
    (fp_line (start -11.1 9) (end -13.5 9)
      (stroke (width 0.1) (type solid)) (layer "F.SilkS") (tstamp 9d984d1b-8097-407f-92f3-3ef68867dcfa))
    (fp_line (start 11.1 9) (end 13.5 9)
      (stroke (width 0.1) (type solid)) (layer "F.SilkS") (tstamp 0f3c9e3a-9c59-4881-b27a-d0e982b3ea8e))
    (fp_line (start 13.5 -11.4) (end -13.5 -11.4)
      (stroke (width 0.1) (type solid)) (layer "F.SilkS") (tstamp 46cfd089-6873-4d8b-89af-02ff30e49472))
    (fp_line (start 13.5 9) (end 13.5 -11.4)
      (stroke (width 0.1) (type solid)) (layer "F.SilkS") (tstamp e83e0227-ac0f-4180-82bd-68d3a7b56476))
    (pad "1" smd rect (at -10.15 0) (size 0.4 2) (layers "B.Cu" "B.Paste" "B.Mask")
      (net 2 "GND") (tstamp cb868d2e-5efb-4bfb-8796-88435b326918))
    (pad "2" smd rect (at -9.45 0) (size 0.4 2) (layers "B.Cu" "B.Paste" "B.Mask")
      (net 7 "Net-(C6-Pad1)") (tstamp fc0a4225-db46-4d48-8163-d522602d57cd))
    (pad "3" smd rect (at -8.75 0) (size 0.4 2) (layers "B.Cu" "B.Paste" "B.Mask")
      (net 6 "Net-(C6-Pad2)") (tstamp 2bef89de-08c7-4a13-9d85-67948d429ca0))
    (pad "4" smd rect (at -8.05 0) (size 0.4 2) (layers "B.Cu" "B.Paste" "B.Mask")
      (net 9 "Net-(C7-Pad1)") (tstamp 6ca3c38c-4e71-4202-b6c1-1b25f04a27ae))
    (pad "5" smd rect (at -7.35 0) (size 0.4 2) (layers "B.Cu" "B.Paste" "B.Mask")
      (net 8 "Net-(C7-Pad2)") (tstamp 483f60da-14d7-4f88-8d01-3f9f30784c70))
    (pad "6" smd rect (at -6.65 0) (size 0.4 2) (layers "B.Cu" "B.Paste" "B.Mask")
      (net 5 "+3V3") (tstamp fb03d859-dcc9-4533-b352-64830e0e5423))
    (pad "7" smd rect (at -5.95 0) (size 0.4 2) (layers "B.Cu" "B.Paste" "B.Mask")
      (net 19 "Net-(U1-Pad7)") (tstamp 37e4dc66-4492-4061-908d-7213940a2ec3))
    (pad "8" smd rect (at -5.25 0) (size 0.4 2) (layers "B.Cu" "B.Paste" "B.Mask")
      (net 2 "GND") (tstamp 29256b3d-9450-4c0a-a4d4-911f04b9c140))
    (pad "9" smd rect (at -4.55 0) (size 0.4 2) (layers "B.Cu" "B.Paste" "B.Mask")
      (net 5 "+3V3") (tstamp b994142f-02ac-4881-9587-6d3df53c96d2))
    (pad "10" smd rect (at -3.85 0) (size 0.4 2) (layers "B.Cu" "B.Paste" "B.Mask")
      (net 2 "GND") (tstamp b603d26a-e034-42fb-8327-b60c5bf9cdd2))
    (pad "11" smd rect (at -3.15 0) (size 0.4 2) (layers "B.Cu" "B.Paste" "B.Mask")
      (net 5 "+3V3") (tstamp 2d6718e7-f18d-444d-9792-ddf1a113460c))
    (pad "12" smd rect (at -2.45 0) (size 0.4 2) (layers "B.Cu" "B.Paste" "B.Mask")
      (net 2 "GND") (tstamp f144a97d-c3f0-423f-b0a9-3f7dbc42478b))
    (pad "13" smd rect (at -1.75 0) (size 0.4 2) (layers "B.Cu" "B.Paste" "B.Mask")
      (net 2 "GND") (tstamp 71c77456-1405-42e3-95ed-69e629de0558))
    (pad "14" smd rect (at -1.05 0) (size 0.4 2) (layers "B.Cu" "B.Paste" "B.Mask")
      (net 1 "Net-(C1-Pad2)") (tstamp 04f5865e-f449-4408-a0c8-771cccfcb129))
    (pad "15" smd rect (at -0.35 0) (size 0.4 2) (layers "B.Cu" "B.Paste" "B.Mask")
      (net 2 "GND") (tstamp f1dd8642-b405-490b-a449-d1cc5797fda8))
    (pad "16" smd rect (at 0.35 0) (size 0.4 2) (layers "B.Cu" "B.Paste" "B.Mask")
      (net 20 "Net-(U1-Pad16)") (tstamp f022716e-b121-4cbf-a833-20e924070c22))
    (pad "17" smd rect (at 1.05 0) (size 0.4 2) (layers "B.Cu" "B.Paste" "B.Mask")
      (net 18 "Net-(U1-Pad17)") (tstamp 6199bec7-e7eb-4ae0-b9ec-c563e157d635))
    (pad "18" smd rect (at 1.75 0) (size 0.4 2) (layers "B.Cu" "B.Paste" "B.Mask")
      (net 10 "/SCL") (tstamp e47adf3d-9c24-4345-80c9-66679cad107e))
    (pad "19" smd rect (at 2.45 0) (size 0.4 2) (layers "B.Cu" "B.Paste" "B.Mask")
      (net 11 "/SDA") (tstamp 7f3eb118-a20c-4239-b800-c9211c66847d))
    (pad "20" smd rect (at 3.15 0) (size 0.4 2) (layers "B.Cu" "B.Paste" "B.Mask")
      (net 11 "/SDA") (tstamp 213a2af1-412b-47f4-ab3b-c5f43b6be7a6))
    (pad "21" smd rect (at 3.85 0) (size 0.4 2) (layers "B.Cu" "B.Paste" "B.Mask")
      (net 17 "Net-(U1-Pad21)") (tstamp d2de4093-1fc2-4bc1-94b6-4d0fe3426c6f))
    (pad "22" smd rect (at 4.55 0) (size 0.4 2) (layers "B.Cu" "B.Paste" "B.Mask")
      (net 16 "Net-(U1-Pad22)") (tstamp 43891a3c-749f-498d-ba99-685a27689b0d))
    (pad "23" smd rect (at 5.25 0) (size 0.4 2) (layers "B.Cu" "B.Paste" "B.Mask")
      (net 15 "Net-(U1-Pad23)") (tstamp cbc539d2-6a10-4052-9b7a-f10326dcac67))
    (pad "24" smd rect (at 5.95 0) (size 0.4 2) (layers "B.Cu" "B.Paste" "B.Mask")
      (net 14 "Net-(U1-Pad24)") (tstamp 909b030b-fa1a-4fe8-b1ee-422b4d9e23cf))
    (pad "25" smd rect (at 6.65 0) (size 0.4 2) (layers "B.Cu" "B.Paste" "B.Mask")
      (net 13 "Net-(U1-Pad25)") (tstamp 936e2ca6-11ae-4f42-9128-52bb329f3d21))
    (pad "26" smd rect (at 7.35 0) (size 0.4 2) (layers "B.Cu" "B.Paste" "B.Mask")
      (net 12 "Net-(R4-Pad1)") (tstamp ebadd2a5-21ab-4a7e-b5bc-6f737367e560))
    (pad "27" smd rect (at 8.05 0) (size 0.4 2) (layers "B.Cu" "B.Paste" "B.Mask")
      (net 3 "Net-(C2-Pad1)") (tstamp 4dc6088c-89a5-4db7-b3ae-db4b6396ad49))
    (pad "28" smd rect (at 8.75 0) (size 0.4 2) (layers "B.Cu" "B.Paste" "B.Mask")
      (net 4 "Net-(C3-Pad1)") (tstamp 0c30a4be-5679-499f-8c5b-5f3024f9d6cf))
    (pad "29" smd rect (at 9.45 0) (size 0.4 2) (layers "B.Cu" "B.Paste" "B.Mask")
      (net 2 "GND") (tstamp db83d0af-e085-4050-8496-fa2ebdecbd62))
    (pad "30" smd rect (at 10.15 0) (size 0.4 2) (layers "B.Cu" "B.Paste" "B.Mask")
      (net 2 "GND") (tstamp a501555e-bbc7-4b58-ad89-28a0cd3dd6d0))
    (pad "31" thru_hole oval (at 0 9) (size 22 0.6) (drill oval 22 0.6) (layers "*.Cu" "*.Mask") (tstamp 7e969d15-6cc0-4258-8b27-586608a21adb))
  )

  (footprint "Capacitor_SMD:C_0603_1608Metric" (layer "B.Cu")
    (tstamp 00000000-0000-0000-0000-00005f20468c)
    (at 149.7 97.25 -90)
    (descr "Capacitor SMD 0603 (1608 Metric), square (rectangular) end terminal, IPC_7351 nominal, (Body size source: http://www.tortai-tech.com/upload/download/2011102023233369053.pdf), generated with kicad-footprint-generator")
    (tags "capacitor")
    (path "/00000000-0000-0000-0000-00005f22c564")
    (attr smd)
    (fp_text reference "C1" (at -2.5 0 90) (layer "B.SilkS")
        (effects (font (size 1 1) (thickness 0.15)) (justify mirror))
      (tstamp a544eb0a-75db-4baf-bf54-9ca21744343b)
    )
    (fp_text value "100n" (at 0 -1.43 90) (layer "B.Fab")
        (effects (font (size 1 1) (thickness 0.15)) (justify mirror))
      (tstamp 1a6d2848-e78e-49fe-8978-e1890f07836f)
    )
    (fp_text user "${REFERENCE}" (at 0 0 90) (layer "B.Fab")
        (effects (font (size 0.4 0.4) (thickness 0.06)) (justify mirror))
      (tstamp aca4de92-9c41-4c2b-9afa-540d02dafa1c)
    )
    (fp_line (start -0.162779 -0.51) (end 0.162779 -0.51)
      (stroke (width 0.12) (type solid)) (layer "B.SilkS") (tstamp 7e023245-2c2b-4e2b-bfb9-5d35176e88f2))
    (fp_line (start -0.162779 0.51) (end 0.162779 0.51)
      (stroke (width 0.12) (type solid)) (layer "B.SilkS") (tstamp 4780a290-d25c-4459-9579-eba3f7678762))
    (fp_line (start -1.48 -0.73) (end -1.48 0.73)
      (stroke (width 0.05) (type solid)) (layer "B.CrtYd") (tstamp 40165eda-4ba6-4565-9bb4-b9df6dbb08da))
    (fp_line (start -1.48 0.73) (end 1.48 0.73)
      (stroke (width 0.05) (type solid)) (layer "B.CrtYd") (tstamp 8e06ba1f-e3ba-4eb9-a10e-887dffd566d6))
    (fp_line (start 1.48 -0.73) (end -1.48 -0.73)
      (stroke (width 0.05) (type solid)) (layer "B.CrtYd") (tstamp 7d34f6b1-ab31-49be-b011-c67fe67a8a56))
    (fp_line (start 1.48 0.73) (end 1.48 -0.73)
      (stroke (width 0.05) (type solid)) (layer "B.CrtYd") (tstamp 12422a89-3d0c-485c-9386-f77121fd68fd))
    (fp_line (start -0.8 -0.4) (end -0.8 0.4)
      (stroke (width 0.1) (type solid)) (layer "B.Fab") (tstamp d7269d2a-b8c0-422d-8f25-f79ea31bf75e))
    (fp_line (start -0.8 0.4) (end 0.8 0.4)
      (stroke (width 0.1) (type solid)) (layer "B.Fab") (tstamp e8c50f1b-c316-4110-9cce-5c24c65a1eaa))
    (fp_line (start 0.8 -0.4) (end -0.8 -0.4)
      (stroke (width 0.1) (type solid)) (layer "B.Fab") (tstamp df68c26a-03b5-4466-aecf-ba34b7dce6b7))
    (fp_line (start 0.8 0.4) (end 0.8 -0.4)
      (stroke (width 0.1) (type solid)) (layer "B.Fab") (tstamp babeabf2-f3b0-4ed5-8d9e-0215947e6cf3))
    (pad "1" smd roundrect (at -0.7875 0 270) (size 0.875 0.95) (layers "B.Cu" "B.Paste" "B.Mask") (roundrect_rratio 0.25)
      (net 2 "GND") (tstamp c830e3bc-dc64-4f65-8f47-3b106bae2807))
    (pad "2" smd roundrect (at 0.7875 0 270) (size 0.875 0.95) (layers "B.Cu" "B.Paste" "B.Mask") (roundrect_rratio 0.25)
      (net 1 "Net-(C1-Pad2)") (tstamp c43663ee-9a0d-4f27-a292-89ba89964065))
    (model "${KISYS3DMOD}/Capacitor_SMD.3dshapes/C_0603_1608Metric.wrl"
      (offset (xyz 0 0 0))
      (scale (xyz 1 1 1))
      (rotate (xyz 0 0 0))
    )
  )

  (footprint "Capacitor_SMD:C_0603_1608Metric" (layer "B.Cu")
    (tstamp 00000000-0000-0000-0000-00005f20469d)
    (at 158.05 97.25 90)
    (descr "Capacitor SMD 0603 (1608 Metric), square (rectangular) end terminal, IPC_7351 nominal, (Body size source: http://www.tortai-tech.com/upload/download/2011102023233369053.pdf), generated with kicad-footprint-generator")
    (tags "capacitor")
    (path "/00000000-0000-0000-0000-00005f256548")
    (attr smd)
    (fp_text reference "C2" (at 2.5 0 90) (layer "B.SilkS")
        (effects (font (size 1 1) (thickness 0.15)) (justify mirror))
      (tstamp 9b0a1687-7e1b-4a04-a30b-c27a072a2949)
    )
    (fp_text value "1u" (at 0 -1.43 90) (layer "B.Fab")
        (effects (font (size 1 1) (thickness 0.15)) (justify mirror))
      (tstamp c01d25cd-f4bb-4ef3-b5ea-533a2a4ddb2b)
    )
    (fp_text user "${REFERENCE}" (at 0 0 90) (layer "B.Fab")
        (effects (font (size 0.4 0.4) (thickness 0.06)) (justify mirror))
      (tstamp 1d9cdadc-9036-4a95-b6db-fa7b3b74c869)
    )
    (fp_line (start -0.162779 -0.51) (end 0.162779 -0.51)
      (stroke (width 0.12) (type solid)) (layer "B.SilkS") (tstamp 2f215f15-3d52-4c91-93e6-3ea03a95622f))
    (fp_line (start -0.162779 0.51) (end 0.162779 0.51)
      (stroke (width 0.12) (type solid)) (layer "B.SilkS") (tstamp 8da933a9-35f8-42e6-8504-d1bab7264306))
    (fp_line (start -1.48 -0.73) (end -1.48 0.73)
      (stroke (width 0.05) (type solid)) (layer "B.CrtYd") (tstamp 61fe293f-6808-4b7f-9340-9aaac7054a97))
    (fp_line (start -1.48 0.73) (end 1.48 0.73)
      (stroke (width 0.05) (type solid)) (layer "B.CrtYd") (tstamp b88717bd-086f-46cd-9d3f-0396009d0996))
    (fp_line (start 1.48 -0.73) (end -1.48 -0.73)
      (stroke (width 0.05) (type solid)) (layer "B.CrtYd") (tstamp 9e1b837f-0d34-4a18-9644-9ee68f141f46))
    (fp_line (start 1.48 0.73) (end 1.48 -0.73)
      (stroke (width 0.05) (type solid)) (layer "B.CrtYd") (tstamp 63ff1c93-3f96-4c33-b498-5dd8c33bccc0))
    (fp_line (start -0.8 -0.4) (end -0.8 0.4)
      (stroke (width 0.1) (type solid)) (layer "B.Fab") (tstamp 6bfe5804-2ef9-4c65-b2a7-f01e4014370a))
    (fp_line (start -0.8 0.4) (end 0.8 0.4)
      (stroke (width 0.1) (type solid)) (layer "B.Fab") (tstamp c0eca5ed-bc5e-4618-9bcd-80945bea41ed))
    (fp_line (start 0.8 -0.4) (end -0.8 -0.4)
      (stroke (width 0.1) (type solid)) (layer "B.Fab") (tstamp bd5408e4-362d-4e43-9d39-78fb99eb52c8))
    (fp_line (start 0.8 0.4) (end 0.8 -0.4)
      (stroke (width 0.1) (type solid)) (layer "B.Fab") (tstamp 0217dfc4-fc13-4699-99ad-d9948522648e))
    (pad "1" smd roundrect (at -0.7875 0 90) (size 0.875 0.95) (layers "B.Cu" "B.Paste" "B.Mask") (roundrect_rratio 0.25)
      (net 3 "Net-(C2-Pad1)") (tstamp 24f7628d-681d-4f0e-8409-40a129e929d9))
    (pad "2" smd roundrect (at 0.7875 0 90) (size 0.875 0.95) (layers "B.Cu" "B.Paste" "B.Mask") (roundrect_rratio 0.25)
      (net 2 "GND") (tstamp 3a7648d8-121a-4921-9b92-9b35b76ce39b))
    (model "${KISYS3DMOD}/Capacitor_SMD.3dshapes/C_0603_1608Metric.wrl"
      (offset (xyz 0 0 0))
      (scale (xyz 1 1 1))
      (rotate (xyz 0 0 0))
    )
  )

  (footprint "Capacitor_SMD:C_0603_1608Metric" (layer "B.Cu")
    (tstamp 00000000-0000-0000-0000-00005f2046ae)
    (at 159.55 97.25 90)
    (descr "Capacitor SMD 0603 (1608 Metric), square (rectangular) end terminal, IPC_7351 nominal, (Body size source: http://www.tortai-tech.com/upload/download/2011102023233369053.pdf), generated with kicad-footprint-generator")
    (tags "capacitor")
    (path "/00000000-0000-0000-0000-00005f257129")
    (attr smd)
    (fp_text reference "C3" (at 2.5 0 90) (layer "B.SilkS")
        (effects (font (size 1 1) (thickness 0.15)) (justify mirror))
      (tstamp 0f54db53-a272-4955-88fb-d7ab00657bb0)
    )
    (fp_text value "1u" (at 0 -1.43 90) (layer "B.Fab")
        (effects (font (size 1 1) (thickness 0.15)) (justify mirror))
      (tstamp 80094b70-85ab-4ff6-934b-60d5ee65023a)
    )
    (fp_text user "${REFERENCE}" (at 0 0 90) (layer "B.Fab")
        (effects (font (size 0.4 0.4) (thickness 0.06)) (justify mirror))
      (tstamp 7edc9030-db7b-43ac-a1b3-b87eeacb4c2d)
    )
    (fp_line (start -0.162779 -0.51) (end 0.162779 -0.51)
      (stroke (width 0.12) (type solid)) (layer "B.SilkS") (tstamp b5352a33-563a-4ffe-a231-2e68fb54afa3))
    (fp_line (start -0.162779 0.51) (end 0.162779 0.51)
      (stroke (width 0.12) (type solid)) (layer "B.SilkS") (tstamp 852dabbf-de45-4470-8176-59d37a754407))
    (fp_line (start -1.48 -0.73) (end -1.48 0.73)
      (stroke (width 0.05) (type solid)) (layer "B.CrtYd") (tstamp 31e08896-1992-4725-96d9-9d2728bca7a3))
    (fp_line (start -1.48 0.73) (end 1.48 0.73)
      (stroke (width 0.05) (type solid)) (layer "B.CrtYd") (tstamp 6441b183-b8f2-458f-a23d-60e2b1f66dd6))
    (fp_line (start 1.48 -0.73) (end -1.48 -0.73)
      (stroke (width 0.05) (type solid)) (layer "B.CrtYd") (tstamp d4a1d3c4-b315-4bec-9220-d12a9eab51e0))
    (fp_line (start 1.48 0.73) (end 1.48 -0.73)
      (stroke (width 0.05) (type solid)) (layer "B.CrtYd") (tstamp bfc0aadc-38cf-466e-a642-68fdc3138c78))
    (fp_line (start -0.8 -0.4) (end -0.8 0.4)
      (stroke (width 0.1) (type solid)) (layer "B.Fab") (tstamp 5528bcad-2950-4673-90eb-c37e6952c475))
    (fp_line (start -0.8 0.4) (end 0.8 0.4)
      (stroke (width 0.1) (type solid)) (layer "B.Fab") (tstamp 7bbf981c-a063-4e30-8911-e4228e1c0743))
    (fp_line (start 0.8 -0.4) (end -0.8 -0.4)
      (stroke (width 0.1) (type solid)) (layer "B.Fab") (tstamp 66043bca-a260-4915-9fce-8a51d324c687))
    (fp_line (start 0.8 0.4) (end 0.8 -0.4)
      (stroke (width 0.1) (type solid)) (layer "B.Fab") (tstamp 2d6db888-4e40-41c8-b701-07170fc894bc))
    (pad "1" smd roundrect (at -0.7875 0 90) (size 0.875 0.95) (layers "B.Cu" "B.Paste" "B.Mask") (roundrect_rratio 0.25)
      (net 4 "Net-(C3-Pad1)") (tstamp 4a4ec8d9-3d72-4952-83d4-808f65849a2b))
    (pad "2" smd roundrect (at 0.7875 0 90) (size 0.875 0.95) (layers "B.Cu" "B.Paste" "B.Mask") (roundrect_rratio 0.25)
      (net 2 "GND") (tstamp 08a7c925-7fae-4530-b0c9-120e185cb318))
    (model "${KISYS3DMOD}/Capacitor_SMD.3dshapes/C_0603_1608Metric.wrl"
      (offset (xyz 0 0 0))
      (scale (xyz 1 1 1))
      (rotate (xyz 0 0 0))
    )
  )

  (footprint "Capacitor_SMD:C_0603_1608Metric" (layer "B.Cu")
    (tstamp 00000000-0000-0000-0000-00005f2046d0)
    (at 145.45 97.25 90)
    (descr "Capacitor SMD 0603 (1608 Metric), square (rectangular) end terminal, IPC_7351 nominal, (Body size source: http://www.tortai-tech.com/upload/download/2011102023233369053.pdf), generated with kicad-footprint-generator")
    (tags "capacitor")
    (path "/00000000-0000-0000-0000-00005f20b7e8")
    (attr smd)
    (fp_text reference "C5" (at 2.5 0 90) (layer "B.SilkS")
        (effects (font (size 1 1) (thickness 0.15)) (justify mirror))
      (tstamp 716e31c5-485f-40b5-88e3-a75900da9811)
    )
    (fp_text value "1u" (at 0 -1.43 90) (layer "B.Fab")
        (effects (font (size 1 1) (thickness 0.15)) (justify mirror))
      (tstamp 127679a9-3981-4934-815e-896a4e3ff56e)
    )
    (fp_text user "${REFERENCE}" (at 0 0 90) (layer "B.Fab")
        (effects (font (size 0.4 0.4) (thickness 0.06)) (justify mirror))
      (tstamp 1831fb37-1c5d-42c4-b898-151be6fca9dc)
    )
    (fp_line (start -0.162779 -0.51) (end 0.162779 -0.51)
      (stroke (width 0.12) (type solid)) (layer "B.SilkS") (tstamp 704d6d51-bb34-4cbf-83d8-841e208048d8))
    (fp_line (start -0.162779 0.51) (end 0.162779 0.51)
      (stroke (width 0.12) (type solid)) (layer "B.SilkS") (tstamp 0eaa98f0-9565-4637-ace3-42a5231b07f7))
    (fp_line (start -1.48 -0.73) (end -1.48 0.73)
      (stroke (width 0.05) (type solid)) (layer "B.CrtYd") (tstamp 8174b4de-74b1-48db-ab8e-c8432251095b))
    (fp_line (start -1.48 0.73) (end 1.48 0.73)
      (stroke (width 0.05) (type solid)) (layer "B.CrtYd") (tstamp fd470e95-4861-44fe-b1e4-6d8a7c66e144))
    (fp_line (start 1.48 -0.73) (end -1.48 -0.73)
      (stroke (width 0.05) (type solid)) (layer "B.CrtYd") (tstamp 48ab88d7-7084-4d02-b109-3ad55a30bb11))
    (fp_line (start 1.48 0.73) (end 1.48 -0.73)
      (stroke (width 0.05) (type solid)) (layer "B.CrtYd") (tstamp f71da641-16e6-4257-80c3-0b9d804fee4f))
    (fp_line (start -0.8 -0.4) (end -0.8 0.4)
      (stroke (width 0.1) (type solid)) (layer "B.Fab") (tstamp 9340c285-5767-42d5-8b6d-63fe2a40ddf3))
    (fp_line (start -0.8 0.4) (end 0.8 0.4)
      (stroke (width 0.1) (type solid)) (layer "B.Fab") (tstamp c41b3c8b-634e-435a-b582-96b83bbd4032))
    (fp_line (start 0.8 -0.4) (end -0.8 -0.4)
      (stroke (width 0.1) (type solid)) (layer "B.Fab") (tstamp 181abe7a-f941-42b6-bd46-aaa3131f90fb))
    (fp_line (start 0.8 0.4) (end 0.8 -0.4)
      (stroke (width 0.1) (type solid)) (layer "B.Fab") (tstamp ce83728b-bebd-48c2-8734-b6a50d837931))
    (pad "1" smd roundrect (at -0.7875 0 90) (size 0.875 0.95) (layers "B.Cu" "B.Paste" "B.Mask") (roundrect_rratio 0.25)
      (net 5 "+3V3") (tstamp fe8d9267-7834-48d6-a191-c8724b2ee78d))
    (pad "2" smd roundrect (at 0.7875 0 90) (size 0.875 0.95) (layers "B.Cu" "B.Paste" "B.Mask") (roundrect_rratio 0.25)
      (net 2 "GND") (tstamp 0f22151c-f260-4674-b486-4710a2c42a55))
    (model "${KISYS3DMOD}/Capacitor_SMD.3dshapes/C_0603_1608Metric.wrl"
      (offset (xyz 0 0 0))
      (scale (xyz 1 1 1))
      (rotate (xyz 0 0 0))
    )
  )

  (footprint "Capacitor_SMD:C_0603_1608Metric" (layer "B.Cu")
    (tstamp 00000000-0000-0000-0000-00005f2046e1)
    (at 140.25 97.25 90)
    (descr "Capacitor SMD 0603 (1608 Metric), square (rectangular) end terminal, IPC_7351 nominal, (Body size source: http://www.tortai-tech.com/upload/download/2011102023233369053.pdf), generated with kicad-footprint-generator")
    (tags "capacitor")
    (path "/00000000-0000-0000-0000-00005f204531")
    (attr smd)
    (fp_text reference "C6" (at 2.5 0 90) (layer "B.SilkS")
        (effects (font (size 1 1) (thickness 0.15)) (justify mirror))
      (tstamp 66116376-6967-4178-9f23-a26cdeafc400)
    )
    (fp_text value "1u" (at 0 -1.43 90) (layer "B.Fab")
        (effects (font (size 1 1) (thickness 0.15)) (justify mirror))
      (tstamp 749dfe75-c0d6-4872-9330-29c5bbcb8ff8)
    )
    (fp_text user "${REFERENCE}" (at 0 0 90) (layer "B.Fab")
        (effects (font (size 0.4 0.4) (thickness 0.06)) (justify mirror))
      (tstamp a3e4f0ae-9f86-49e9-b386-ed8b42e012fb)
    )
    (fp_line (start -0.162779 -0.51) (end 0.162779 -0.51)
      (stroke (width 0.12) (type solid)) (layer "B.SilkS") (tstamp 30f15357-ce1d-48b9-93dc-7d9b1b2aa048))
    (fp_line (start -0.162779 0.51) (end 0.162779 0.51)
      (stroke (width 0.12) (type solid)) (layer "B.SilkS") (tstamp 87371631-aa02-498a-998a-09bdb74784c1))
    (fp_line (start -1.48 -0.73) (end -1.48 0.73)
      (stroke (width 0.05) (type solid)) (layer "B.CrtYd") (tstamp d8603679-3e7b-4337-8dbc-1827f5f54d8a))
    (fp_line (start -1.48 0.73) (end 1.48 0.73)
      (stroke (width 0.05) (type solid)) (layer "B.CrtYd") (tstamp 1e1b062d-fad0-427c-a622-c5b8a80b5268))
    (fp_line (start 1.48 -0.73) (end -1.48 -0.73)
      (stroke (width 0.05) (type solid)) (layer "B.CrtYd") (tstamp 3b838d52-596d-4e4d-a6ac-e4c8e7621137))
    (fp_line (start 1.48 0.73) (end 1.48 -0.73)
      (stroke (width 0.05) (type solid)) (layer "B.CrtYd") (tstamp cbdcaa78-3bbc-413f-91bf-2709119373ce))
    (fp_line (start -0.8 -0.4) (end -0.8 0.4)
      (stroke (width 0.1) (type solid)) (layer "B.Fab") (tstamp 54365317-1355-4216-bb75-829375abc4ec))
    (fp_line (start -0.8 0.4) (end 0.8 0.4)
      (stroke (width 0.1) (type solid)) (layer "B.Fab") (tstamp ac264c30-3e9a-4be2-b97a-9949b68bd497))
    (fp_line (start 0.8 -0.4) (end -0.8 -0.4)
      (stroke (width 0.1) (type solid)) (layer "B.Fab") (tstamp 2e642b3e-a476-4c54-9a52-dcea955640cd))
    (fp_line (start 0.8 0.4) (end 0.8 -0.4)
      (stroke (width 0.1) (type solid)) (layer "B.Fab") (tstamp 5038e144-5119-49db-b6cf-f7c345f1cf03))
    (pad "1" smd roundrect (at -0.7875 0 90) (size 0.875 0.95) (layers "B.Cu" "B.Paste" "B.Mask") (roundrect_rratio 0.25)
      (net 7 "Net-(C6-Pad1)") (tstamp c144caa5-b0d4-4cef-840a-d4ad178a2102))
    (pad "2" smd roundrect (at 0.7875 0 90) (size 0.875 0.95) (layers "B.Cu" "B.Paste" "B.Mask") (roundrect_rratio 0.25)
      (net 6 "Net-(C6-Pad2)") (tstamp a690fc6c-55d9-47e6-b533-faa4b67e20f3))
    (model "${KISYS3DMOD}/Capacitor_SMD.3dshapes/C_0603_1608Metric.wrl"
      (offset (xyz 0 0 0))
      (scale (xyz 1 1 1))
      (rotate (xyz 0 0 0))
    )
  )

  (footprint "Resistor_SMD:R_0603_1608Metric" (layer "B.Cu")
    (tstamp 00000000-0000-0000-0000-00005f20471b)
    (at 151.7 97.25 90)
    (descr "Resistor SMD 0603 (1608 Metric), square (rectangular) end terminal, IPC_7351 nominal, (Body size source: http://www.tortai-tech.com/upload/download/2011102023233369053.pdf), generated with kicad-footprint-generator")
    (tags "resistor")
    (path "/00000000-0000-0000-0000-00005f2393ce")
    (attr smd)
    (fp_text reference "R1" (at 2.5 0 90) (layer "B.SilkS")
        (effects (font (size 1 1) (thickness 0.15)) (justify mirror))
      (tstamp 13475e15-f37c-4de8-857e-1722b0c39513)
    )
    (fp_text value "2.2k" (at 0 -1.43 90) (layer "B.Fab")
        (effects (font (size 1 1) (thickness 0.15)) (justify mirror))
      (tstamp 2732632c-4768-42b6-bf7f-14643424019e)
    )
    (fp_text user "${REFERENCE}" (at 0 0 90) (layer "B.Fab")
        (effects (font (size 0.4 0.4) (thickness 0.06)) (justify mirror))
      (tstamp 4e3d7c0d-12e3-42f2-b944-e4bcdbbcac2a)
    )
    (fp_line (start -0.162779 -0.51) (end 0.162779 -0.51)
      (stroke (width 0.12) (type solid)) (layer "B.SilkS") (tstamp e877bf4a-4210-4bd3-b7b0-806eb4affc5b))
    (fp_line (start -0.162779 0.51) (end 0.162779 0.51)
      (stroke (width 0.12) (type solid)) (layer "B.SilkS") (tstamp cef6f603-8a0b-4dd0-af99-ebfbef7d1b4b))
    (fp_line (start -1.48 -0.73) (end -1.48 0.73)
      (stroke (width 0.05) (type solid)) (layer "B.CrtYd") (tstamp 48f827a8-6e22-4a2e-abdc-c2a03098d883))
    (fp_line (start -1.48 0.73) (end 1.48 0.73)
      (stroke (width 0.05) (type solid)) (layer "B.CrtYd") (tstamp 8d55e186-3e11-40e8-a65e-b36a8a00069e))
    (fp_line (start 1.48 -0.73) (end -1.48 -0.73)
      (stroke (width 0.05) (type solid)) (layer "B.CrtYd") (tstamp 854dd5d4-5fd2-4730-bd49-a9cd8299a065))
    (fp_line (start 1.48 0.73) (end 1.48 -0.73)
      (stroke (width 0.05) (type solid)) (layer "B.CrtYd") (tstamp 120a7b0f-ddfd-4447-85c1-35665465acdb))
    (fp_line (start -0.8 -0.4) (end -0.8 0.4)
      (stroke (width 0.1) (type solid)) (layer "B.Fab") (tstamp c70d9ef3-bfeb-47e0-a1e1-9aeba3da7864))
    (fp_line (start -0.8 0.4) (end 0.8 0.4)
      (stroke (width 0.1) (type solid)) (layer "B.Fab") (tstamp 5b2b5c7d-f943-4634-9f0a-e9561705c49d))
    (fp_line (start 0.8 -0.4) (end -0.8 -0.4)
      (stroke (width 0.1) (type solid)) (layer "B.Fab") (tstamp 9c8ccb2a-b1e9-4f2c-94fe-301b5975277e))
    (fp_line (start 0.8 0.4) (end 0.8 -0.4)
      (stroke (width 0.1) (type solid)) (layer "B.Fab") (tstamp a03e565f-d8cd-4032-aae3-b7327d4143dd))
    (pad "1" smd roundrect (at -0.7875 0 90) (size 0.875 0.95) (layers "B.Cu" "B.Paste" "B.Mask") (roundrect_rratio 0.25)
      (net 10 "/SCL") (tstamp 6a44418c-7bb4-4e99-8836-57f153c19721))
    (pad "2" smd roundrect (at 0.7875 0 90) (size 0.875 0.95) (layers "B.Cu" "B.Paste" "B.Mask") (roundrect_rratio 0.25)
      (net 5 "+3V3") (tstamp aa02e544-13f5-4cf8-a5f4-3e6cda006090))
    (model "${KISYS3DMOD}/Resistor_SMD.3dshapes/R_0603_1608Metric.wrl"
      (offset (xyz 0 0 0))
      (scale (xyz 1 1 1))
      (rotate (xyz 0 0 0))
    )
  )

  (footprint "Resistor_SMD:R_0603_1608Metric" (layer "B.Cu")
    (tstamp 00000000-0000-0000-0000-00005f20473d)
    (at 148.2 97.25 90)
    (descr "Resistor SMD 0603 (1608 Metric), square (rectangular) end terminal, IPC_7351 nominal, (Body size source: http://www.tortai-tech.com/upload/download/2011102023233369053.pdf), generated with kicad-footprint-generator")
    (tags "resistor")
    (path "/00000000-0000-0000-0000-00005f22bec1")
    (attr smd)
    (fp_text reference "R3" (at 2.5 0 90) (layer "B.SilkS")
        (effects (font (size 1 1) (thickness 0.15)) (justify mirror))
      (tstamp 4831966c-bb32-4bc8-a400-0382a02ffa1c)
    )
    (fp_text value "10k" (at 0 -1.43 90) (layer "B.Fab")
        (effects (font (size 1 1) (thickness 0.15)) (justify mirror))
      (tstamp e25ce415-914a-48fe-bf09-324317917b2e)
    )
    (fp_text user "${REFERENCE}" (at 0 0 90) (layer "B.Fab")
        (effects (font (size 0.4 0.4) (thickness 0.06)) (justify mirror))
      (tstamp 632acde9-b7fd-4f04-8cb4-d2cbb06b3595)
    )
    (fp_line (start -0.162779 -0.51) (end 0.162779 -0.51)
      (stroke (width 0.12) (type solid)) (layer "B.SilkS") (tstamp 78f88cf6-751c-4e9b-ae75-fb8b6d44ff39))
    (fp_line (start -0.162779 0.51) (end 0.162779 0.51)
      (stroke (width 0.12) (type solid)) (layer "B.SilkS") (tstamp 75286985-9fa5-4d30-89c5-493b6e63cd66))
    (fp_line (start -1.48 -0.73) (end -1.48 0.73)
      (stroke (width 0.05) (type solid)) (layer "B.CrtYd") (tstamp c19dbe3c-ced0-48f7-a91d-777569cfb936))
    (fp_line (start -1.48 0.73) (end 1.48 0.73)
      (stroke (width 0.05) (type solid)) (layer "B.CrtYd") (tstamp 587a157d-dedf-4558-a037-1a94bbba1848))
    (fp_line (start 1.48 -0.73) (end -1.48 -0.73)
      (stroke (width 0.05) (type solid)) (layer "B.CrtYd") (tstamp 4d4b0fcd-2c79-4fc3-b5fa-7a0741601344))
    (fp_line (start 1.48 0.73) (end 1.48 -0.73)
      (stroke (width 0.05) (type solid)) (layer "B.CrtYd") (tstamp 9762c9ed-64d8-4f3e-baf6-f6ba6effc919))
    (fp_line (start -0.8 -0.4) (end -0.8 0.4)
      (stroke (width 0.1) (type solid)) (layer "B.Fab") (tstamp 0f41a909-27c4-4be2-9d5e-9ae2108c8ff5))
    (fp_line (start -0.8 0.4) (end 0.8 0.4)
      (stroke (width 0.1) (type solid)) (layer "B.Fab") (tstamp 1b54105e-6590-4d26-a763-ecfcf81eedc4))
    (fp_line (start 0.8 -0.4) (end -0.8 -0.4)
      (stroke (width 0.1) (type solid)) (layer "B.Fab") (tstamp 0867287d-2e6a-4d69-a366-c29f88198f2b))
    (fp_line (start 0.8 0.4) (end 0.8 -0.4)
      (stroke (width 0.1) (type solid)) (layer "B.Fab") (tstamp afd3dbad-e7a8-4e4c-b77c-4065a69aefa2))
    (pad "1" smd roundrect (at -0.7875 0 90) (size 0.875 0.95) (layers "B.Cu" "B.Paste" "B.Mask") (roundrect_rratio 0.25)
      (net 1 "Net-(C1-Pad2)") (tstamp 38f2d955-ea7a-4a21-aba6-02ae23f1bd4a))
    (pad "2" smd roundrect (at 0.7875 0 90) (size 0.875 0.95) (layers "B.Cu" "B.Paste" "B.Mask") (roundrect_rratio 0.25)
      (net 5 "+3V3") (tstamp 35354519-a28c-40c4-befd-0943e98dea53))
    (model "${KISYS3DMOD}/Resistor_SMD.3dshapes/R_0603_1608Metric.wrl"
      (offset (xyz 0 0 0))
      (scale (xyz 1 1 1))
      (rotate (xyz 0 0 0))
    )
  )

  (footprint "Resistor_SMD:R_0603_1608Metric" (layer "B.Cu")
    (tstamp 00000000-0000-0000-0000-00005f20474e)
    (at 156.55 97.25 90)
    (descr "Resistor SMD 0603 (1608 Metric), square (rectangular) end terminal, IPC_7351 nominal, (Body size source: http://www.tortai-tech.com/upload/download/2011102023233369053.pdf), generated with kicad-footprint-generator")
    (tags "resistor")
    (path "/00000000-0000-0000-0000-00005f257b95")
    (attr smd)
    (fp_text reference "R4" (at 2.5 0 90) (layer "B.SilkS")
        (effects (font (size 1 1) (thickness 0.15)) (justify mirror))
      (tstamp b60c50d1-225e-415c-8712-7acb5e3dc8ea)
    )
    (fp_text value "470k" (at 0 -1.43 90) (layer "B.Fab")
        (effects (font (size 1 1) (thickness 0.15)) (justify mirror))
      (tstamp 7e08f2a4-63d6-468b-bd8b-ec607077e023)
    )
    (fp_text user "${REFERENCE}" (at 0 0 90) (layer "B.Fab")
        (effects (font (size 0.4 0.4) (thickness 0.06)) (justify mirror))
      (tstamp 4412226e-d975-40a2-921f-502ff4129a95)
    )
    (fp_line (start -0.162779 -0.51) (end 0.162779 -0.51)
      (stroke (width 0.12) (type solid)) (layer "B.SilkS") (tstamp 55992e35-fe7b-468a-9b7a-1e4dc931b904))
    (fp_line (start -0.162779 0.51) (end 0.162779 0.51)
      (stroke (width 0.12) (type solid)) (layer "B.SilkS") (tstamp a06e8e78-f567-42e6-b645-013b1073ca31))
    (fp_line (start -1.48 -0.73) (end -1.48 0.73)
      (stroke (width 0.05) (type solid)) (layer "B.CrtYd") (tstamp f9865a9f-edb8-49c7-828f-4896e1f3047a))
    (fp_line (start -1.48 0.73) (end 1.48 0.73)
      (stroke (width 0.05) (type solid)) (layer "B.CrtYd") (tstamp c3c93de0-69b1-4a04-8e0b-d78caf487c63))
    (fp_line (start 1.48 -0.73) (end -1.48 -0.73)
      (stroke (width 0.05) (type solid)) (layer "B.CrtYd") (tstamp b6bcc3cf-50de-4a33-bc41-678825c1ecf2))
    (fp_line (start 1.48 0.73) (end 1.48 -0.73)
      (stroke (width 0.05) (type solid)) (layer "B.CrtYd") (tstamp 5740c959-93d8-47fd-8f68-62f0109e753d))
    (fp_line (start -0.8 -0.4) (end -0.8 0.4)
      (stroke (width 0.1) (type solid)) (layer "B.Fab") (tstamp 4e66a44f-7fa6-4e16-bf9b-62ec864301a5))
    (fp_line (start -0.8 0.4) (end 0.8 0.4)
      (stroke (width 0.1) (type solid)) (layer "B.Fab") (tstamp 0d35483a-0b12-46cc-b9f2-896fd6831779))
    (fp_line (start 0.8 -0.4) (end -0.8 -0.4)
      (stroke (width 0.1) (type solid)) (layer "B.Fab") (tstamp ec9e24d8-d1c5-40e2-9812-dc315d05f470))
    (fp_line (start 0.8 0.4) (end 0.8 -0.4)
      (stroke (width 0.1) (type solid)) (layer "B.Fab") (tstamp 9702d639-3b1f-4825-8985-b32b9008503d))
    (pad "1" smd roundrect (at -0.7875 0 90) (size 0.875 0.95) (layers "B.Cu" "B.Paste" "B.Mask") (roundrect_rratio 0.25)
      (net 12 "Net-(R4-Pad1)") (tstamp 53c85970-3e21-4fae-a84f-721cfc0513b5))
    (pad "2" smd roundrect (at 0.7875 0 90) (size 0.875 0.95) (layers "B.Cu" "B.Paste" "B.Mask") (roundrect_rratio 0.25)
      (net 2 "GND") (tstamp 7447a6e7-8205-46ba-afca-d0fa8f90c95a))
    (model "${KISYS3DMOD}/Resistor_SMD.3dshapes/R_0603_1608Metric.wrl"
      (offset (xyz 0 0 0))
      (scale (xyz 1 1 1))
      (rotate (xyz 0 0 0))
    )
  )

  (footprint "Resistor_SMD:R_0603_1608Metric" (layer "B.Cu")
    (tstamp 00000000-0000-0000-0000-00005f204f4d)
    (at 153.175 97.25 90)
    (descr "Resistor SMD 0603 (1608 Metric), square (rectangular) end terminal, IPC_7351 nominal, (Body size source: http://www.tortai-tech.com/upload/download/2011102023233369053.pdf), generated with kicad-footprint-generator")
    (tags "resistor")
    (path "/00000000-0000-0000-0000-00005f239a4e")
    (attr smd)
    (fp_text reference "R2" (at 2.5 0 90) (layer "B.SilkS")
        (effects (font (size 1 1) (thickness 0.15)) (justify mirror))
      (tstamp c201e1b2-fc01-4110-bdaa-a33290468c83)
    )
    (fp_text value "2.2k" (at 0 -1.43 90) (layer "B.Fab")
        (effects (font (size 1 1) (thickness 0.15)) (justify mirror))
      (tstamp 0088d107-13d8-496c-8da6-7bbeb9d096b0)
    )
    (fp_text user "${REFERENCE}" (at 0 0 90) (layer "B.Fab")
        (effects (font (size 0.4 0.4) (thickness 0.06)) (justify mirror))
      (tstamp 51c4dc0a-5b9f-4edf-a83f-4a12881e42ef)
    )
    (fp_line (start -0.162779 -0.51) (end 0.162779 -0.51)
      (stroke (width 0.12) (type solid)) (layer "B.SilkS") (tstamp c801d42e-dd94-493e-bd2f-6c3ddad43f55))
    (fp_line (start -0.162779 0.51) (end 0.162779 0.51)
      (stroke (width 0.12) (type solid)) (layer "B.SilkS") (tstamp 3172f2e2-18d2-4a80-ae30-5707b3409798))
    (fp_line (start -1.48 -0.73) (end -1.48 0.73)
      (stroke (width 0.05) (type solid)) (layer "B.CrtYd") (tstamp 128e34ce-eee7-477d-b905-a493e98db783))
    (fp_line (start -1.48 0.73) (end 1.48 0.73)
      (stroke (width 0.05) (type solid)) (layer "B.CrtYd") (tstamp 67621f9e-0a6a-4778-ad69-04dcf300659c))
    (fp_line (start 1.48 -0.73) (end -1.48 -0.73)
      (stroke (width 0.05) (type solid)) (layer "B.CrtYd") (tstamp 6a780180-586a-4241-a52d-dc7a5ffcc966))
    (fp_line (start 1.48 0.73) (end 1.48 -0.73)
      (stroke (width 0.05) (type solid)) (layer "B.CrtYd") (tstamp 68e09be7-3bbc-4443-a838-209ce20b2bef))
    (fp_line (start -0.8 -0.4) (end -0.8 0.4)
      (stroke (width 0.1) (type solid)) (layer "B.Fab") (tstamp 842e430f-0c35-45f3-a0b5-95ae7b7ae388))
    (fp_line (start -0.8 0.4) (end 0.8 0.4)
      (stroke (width 0.1) (type solid)) (layer "B.Fab") (tstamp 98e81e80-1f85-4152-be3f-99785ea97751))
    (fp_line (start 0.8 -0.4) (end -0.8 -0.4)
      (stroke (width 0.1) (type solid)) (layer "B.Fab") (tstamp 712d6a7d-2b62-464f-b745-fd2a6b0187f6))
    (fp_line (start 0.8 0.4) (end 0.8 -0.4)
      (stroke (width 0.1) (type solid)) (layer "B.Fab") (tstamp b3d08afa-f296-4e3b-8825-73b6331d35bf))
    (pad "1" smd roundrect (at -0.7875 0 90) (size 0.875 0.95) (layers "B.Cu" "B.Paste" "B.Mask") (roundrect_rratio 0.25)
      (net 11 "/SDA") (tstamp 1a2f72d1-0b36-4610-afc4-4ad1660d5d3b))
    (pad "2" smd roundrect (at 0.7875 0 90) (size 0.875 0.95) (layers "B.Cu" "B.Paste" "B.Mask") (roundrect_rratio 0.25)
      (net 5 "+3V3") (tstamp 03d88a85-11fd-47aa-954c-c318bb15294a))
    (model "${KISYS3DMOD}/Resistor_SMD.3dshapes/R_0603_1608Metric.wrl"
      (offset (xyz 0 0 0))
      (scale (xyz 1 1 1))
      (rotate (xyz 0 0 0))
    )
  )

  (footprint "Capacitor_SMD:C_0603_1608Metric" (layer "B.Cu")
    (tstamp 00000000-0000-0000-0000-00005f206b89)
    (at 143.75 97.25 90)
    (descr "Capacitor SMD 0603 (1608 Metric), square (rectangular) end terminal, IPC_7351 nominal, (Body size source: http://www.tortai-tech.com/upload/download/2011102023233369053.pdf), generated with kicad-footprint-generator")
    (tags "capacitor")
    (path "/00000000-0000-0000-0000-00005f20b5a8")
    (attr smd)
    (fp_text reference "C4" (at 2.5 0 90) (layer "B.SilkS")
        (effects (font (size 1 1) (thickness 0.15)) (justify mirror))
      (tstamp 29e78086-2175-405e-9ba3-c48766d2f50c)
    )
    (fp_text value "1u" (at 0 -1.43 90) (layer "B.Fab")
        (effects (font (size 1 1) (thickness 0.15)) (justify mirror))
      (tstamp 94a873dc-af67-4ef9-8159-1f7c93eeb3d7)
    )
    (fp_text user "${REFERENCE}" (at 0 0 90) (layer "B.Fab")
        (effects (font (size 0.4 0.4) (thickness 0.06)) (justify mirror))
      (tstamp 1a1ab354-5f85-45f9-938c-9f6c4c8c3ea2)
    )
    (fp_line (start -0.162779 -0.51) (end 0.162779 -0.51)
      (stroke (width 0.12) (type solid)) (layer "B.SilkS") (tstamp e857610b-4434-4144-b04e-43c1ebdc5ceb))
    (fp_line (start -0.162779 0.51) (end 0.162779 0.51)
      (stroke (width 0.12) (type solid)) (layer "B.SilkS") (tstamp 6c2e273e-743c-4f1e-a647-4171f8122550))
    (fp_line (start -1.48 -0.73) (end -1.48 0.73)
      (stroke (width 0.05) (type solid)) (layer "B.CrtYd") (tstamp 2d210a96-f81f-42a9-8bf4-1b43c11086f3))
    (fp_line (start -1.48 0.73) (end 1.48 0.73)
      (stroke (width 0.05) (type solid)) (layer "B.CrtYd") (tstamp 9bb20359-0f8b-45bc-9d38-6626ed3a939d))
    (fp_line (start 1.48 -0.73) (end -1.48 -0.73)
      (stroke (width 0.05) (type solid)) (layer "B.CrtYd") (tstamp 4c8eb964-bdf4-44de-90e9-e2ab82dd5313))
    (fp_line (start 1.48 0.73) (end 1.48 -0.73)
      (stroke (width 0.05) (type solid)) (layer "B.CrtYd") (tstamp aa14c3bd-4acc-4908-9d28-228585a22a9d))
    (fp_line (start -0.8 -0.4) (end -0.8 0.4)
      (stroke (width 0.1) (type solid)) (layer "B.Fab") (tstamp 7aed3a71-054b-4aaa-9c0a-030523c32827))
    (fp_line (start -0.8 0.4) (end 0.8 0.4)
      (stroke (width 0.1) (type solid)) (layer "B.Fab") (tstamp 9157f4ae-0244-4ff1-9f73-3cb4cbb5f280))
    (fp_line (start 0.8 -0.4) (end -0.8 -0.4)
      (stroke (width 0.1) (type solid)) (layer "B.Fab") (tstamp 666713b0-70f4-42df-8761-f65bc212d03b))
    (fp_line (start 0.8 0.4) (end 0.8 -0.4)
      (stroke (width 0.1) (type solid)) (layer "B.Fab") (tstamp 7dc880bc-e7eb-4cce-8d8c-0b65a9dd788e))
    (pad "1" smd roundrect (at -0.7875 0 90) (size 0.875 0.95) (layers "B.Cu" "B.Paste" "B.Mask") (roundrect_rratio 0.25)
      (net 5 "+3V3") (tstamp c0515cd2-cdaa-467e-8354-0f6eadfa35c9))
    (pad "2" smd roundrect (at 0.7875 0 90) (size 0.875 0.95) (layers "B.Cu" "B.Paste" "B.Mask") (roundrect_rratio 0.25)
      (net 2 "GND") (tstamp 42713045-fffd-4b2d-ae1e-7232d705fb12))
    (model "${KISYS3DMOD}/Capacitor_SMD.3dshapes/C_0603_1608Metric.wrl"
      (offset (xyz 0 0 0))
      (scale (xyz 1 1 1))
      (rotate (xyz 0 0 0))
    )
  )

  (footprint "Capacitor_SMD:C_0603_1608Metric" (layer "B.Cu")
    (tstamp 00000000-0000-0000-0000-00005f206e10)
    (at 142 97.25 90)
    (descr "Capacitor SMD 0603 (1608 Metric), square (rectangular) end terminal, IPC_7351 nominal, (Body size source: http://www.tortai-tech.com/upload/download/2011102023233369053.pdf), generated with kicad-footprint-generator")
    (tags "capacitor")
    (path "/00000000-0000-0000-0000-00005f208424")
    (attr smd)
    (fp_text reference "C7" (at 2.5 0 90) (layer "B.SilkS")
        (effects (font (size 1 1) (thickness 0.15)) (justify mirror))
      (tstamp 5cbb5968-dbb5-4b84-864a-ead1cacf75b9)
    )
    (fp_text value "1u" (at 0 -1.43 90) (layer "B.Fab")
        (effects (font (size 1 1) (thickness 0.15)) (justify mirror))
      (tstamp 3f5fe6b7-98fc-4d3e-9567-f9f7202d1455)
    )
    (fp_text user "${REFERENCE}" (at 0 0 90) (layer "B.Fab")
        (effects (font (size 0.4 0.4) (thickness 0.06)) (justify mirror))
      (tstamp c022004a-c968-410e-b59e-fbab0e561e9d)
    )
    (fp_line (start -0.162779 -0.51) (end 0.162779 -0.51)
      (stroke (width 0.12) (type solid)) (layer "B.SilkS") (tstamp e10b5627-3247-4c86-b9f6-ef474ca11543))
    (fp_line (start -0.162779 0.51) (end 0.162779 0.51)
      (stroke (width 0.12) (type solid)) (layer "B.SilkS") (tstamp 746ba970-8279-4e7b-aed3-f28687777c21))
    (fp_line (start -1.48 -0.73) (end -1.48 0.73)
      (stroke (width 0.05) (type solid)) (layer "B.CrtYd") (tstamp e8314017-7be6-4011-9179-37449a29b311))
    (fp_line (start -1.48 0.73) (end 1.48 0.73)
      (stroke (width 0.05) (type solid)) (layer "B.CrtYd") (tstamp 6a955fc7-39d9-4c75-9a69-676ca8c0b9b2))
    (fp_line (start 1.48 -0.73) (end -1.48 -0.73)
      (stroke (width 0.05) (type solid)) (layer "B.CrtYd") (tstamp bb7f0588-d4d8-44bf-9ebf-3c533fe4d6ae))
    (fp_line (start 1.48 0.73) (end 1.48 -0.73)
      (stroke (width 0.05) (type solid)) (layer "B.CrtYd") (tstamp f1830a1b-f0cc-47ae-a2c9-679c82032f14))
    (fp_line (start -0.8 -0.4) (end -0.8 0.4)
      (stroke (width 0.1) (type solid)) (layer "B.Fab") (tstamp f4f99e3d-7269-4f6a-a759-16ad2a258779))
    (fp_line (start -0.8 0.4) (end 0.8 0.4)
      (stroke (width 0.1) (type solid)) (layer "B.Fab") (tstamp 55e740a3-0735-4744-896e-2bf5437093b9))
    (fp_line (start 0.8 -0.4) (end -0.8 -0.4)
      (stroke (width 0.1) (type solid)) (layer "B.Fab") (tstamp 71c31975-2c45-4d18-a25a-18e07a55d11e))
    (fp_line (start 0.8 0.4) (end 0.8 -0.4)
      (stroke (width 0.1) (type solid)) (layer "B.Fab") (tstamp 10109f84-4940-47f8-8640-91f185ac9bc1))
    (pad "1" smd roundrect (at -0.7875 0 90) (size 0.875 0.95) (layers "B.Cu" "B.Paste" "B.Mask") (roundrect_rratio 0.25)
      (net 9 "Net-(C7-Pad1)") (tstamp 77ed3941-d133-4aef-a9af-5a39322d14eb))
    (pad "2" smd roundrect (at 0.7875 0 90) (size 0.875 0.95) (layers "B.Cu" "B.Paste" "B.Mask") (roundrect_rratio 0.25)
      (net 8 "Net-(C7-Pad2)") (tstamp 47baf4b1-0938-497d-88f9-671136aa8be7))
    (model "${KISYS3DMOD}/Capacitor_SMD.3dshapes/C_0603_1608Metric.wrl"
      (offset (xyz 0 0 0))
      (scale (xyz 1 1 1))
      (rotate (xyz 0 0 0))
    )
  )

  (gr_line (start 163.5 88.5) (end 136.5 88.5)
    (stroke (width 0.1) (type solid)) (layer "Edge.Cuts") (tstamp 00000000-0000-0000-0000-00005f204d3d))
  (gr_line (start 136.5 88.5) (end 136.5 112.75)
    (stroke (width 0.1) (type solid)) (layer "Edge.Cuts") (tstamp 8c514922-ffe1-4e37-a260-e807409f2e0d))
  (gr_line (start 136.5 112.75) (end 163.5 112.75)
    (stroke (width 0.1) (type solid)) (layer "Edge.Cuts") (tstamp c25a772d-af9c-4ebc-96f6-0966738c13a8))
  (gr_line (start 163.5 112.75) (end 163.5 88.5)
    (stroke (width 0.1) (type solid)) (layer "Edge.Cuts") (tstamp d5641ac9-9be7-46bf-90b3-6c83d852b5ba))

  (segment (start 148.2 98.0375) (end 149.7 98.0375) (width 0.2) (layer "B.Cu") (net 1) (tstamp 40976bf0-19de-460f-ad64-224d4f51e16b))
  (segment (start 148.95 100) (end 148.95 98.0375) (width 0.2) (layer "B.Cu") (net 1) (tstamp e21aa84b-970e-47cf-b64f-3b55ee0e1b51))
  (segment (start 158.05 100) (end 158.05 98.0375) (width 0.2) (layer "B.Cu") (net 3) (tstamp c8c79177-94d4-43e2-a654-f0a5554fbb68))
  (segment (start 158.75 98.8375) (end 158.75 100) (width 0.2) (layer "B.Cu") (net 4) (tstamp a15a7506-eae4-4933-84da-9ad754258706))
  (segment (start 159.55 98.0375) (end 158.75 98.8375) (width 0.2) (layer "B.Cu") (net 4) (tstamp d3c11c8f-a73d-4211-934b-a6da255728ad))
  (segment (start 143.35 98.4375) (end 143.75 98.0375) (width 0.2) (layer "B.Cu") (net 5) (tstamp 03caada9-9e22-4e2d-9035-b15433dfbb17))
  (segment (start 137.834097 109.595043) (end 139.489054 111.25) (width 0.2) (layer "B.Cu") (net 5) (tstamp 0ff508fd-18da-4ab7-9844-3c8a28c2587e))
  (segment (start 141.75 107.54997) (end 138.671944 107.54997) (width 0.2) (layer "B.Cu") (net 5) (tstamp 13c0ff76-ed71-4cd9-abb0-92c376825d5d))
  (segment (start 143.35 100) (end 143.35 98.4375) (width 0.2) (layer "B.Cu") (net 5) (tstamp 1f3003e6-dce5-420f-906b-3f1e92b67249))
  (segment (start 137.834097 108.387817) (end 137.834097 109.595043) (width 0.2) (layer "B.Cu") (net 5) (tstamp 378af8b4-af3d-46e7-89ae-deff12ca9067))
  (segment (start 148.2 96.4625) (end 148.93751 95.72499) (width 0.2) (layer "B.Cu") (net 5) (tstamp 4fb21471-41be-4be8-9687-66030f97befc))
  (segment (start 145.45 98.0375) (end 145.45 100) (width 0.2) (layer "B.Cu") (net 5) (tstamp 639c0e59-e95c-4114-bccd-2e7277505454))
  (segment (start 143.35 100) (end 143.35 101.65) (width 0.2) (layer "B.Cu") (net 5) (tstamp 68877d35-b796-44db-9124-b8e744e7412e))
  (segment (start 145.45 101.65) (end 146.4 101.65) (width 0.2) (layer "B.Cu") (net 5) (tstamp 6d26d68f-1ca7-4ff3-b058-272f1c399047))
  (segment (start 148.2 96.4625) (end 147.025 96.4625) (width 0.2) (layer "B.Cu") (net 5) (tstamp 70e15522-1572-4451-9c0d-6d36ac70d8c6))
  (segment (start 150.96249 95.72499) (end 151.7 96.4625) (width 0.2) (layer "B.Cu") (net 5) (tstamp 7599133e-c681-4202-85d9-c20dac196c64))
  (segment (start 143.35 105.94997) (end 141.75 107.54997) (width 0.2) (layer "B.Cu") (net 5) (tstamp 8412992d-8754-44de-9e08-115cec1a3eff))
  (segment (start 153.175 96.4625) (end 151.725 96.4625) (width 0.2) (layer "B.Cu") (net 5) (tstamp 8ca3e20d-bcc7-4c5e-9deb-562dfed9fecb))
  (segment (start 145.45 101.65) (end 145.45 100) (width 0.2) (layer "B.Cu") (net 5) (tstamp 911bdcbe-493f-4e21-a506-7cbc636e2c17))
  (segment (start 143.35 101.65) (end 145.45 101.65) (width 0.2) (layer "B.Cu") (net 5) (tstamp 9f8381e9-3077-4453-a480-a01ad9c1a940))
  (segment (start 138.671944 107.54997) (end 137.834097 108.387817) (width 0.2) (layer "B.Cu") (net 5) (tstamp a27eb049-c992-4f11-a026-1e6a8d9d0160))
  (segment (start 143.35 101.65) (end 143.35 105.94997) (width 0.2) (layer "B.Cu") (net 5) (tstamp b96fe6ac-3535-4455-ab88-ed77f5e46d6e))
  (segment (start 146.4 101.65) (end 146.85 101.2) (width 0.2) (layer "B.Cu") (net 5) (tstamp c332fa55-4168-4f55-88a5-f82c7c21040b))
  (segment (start 147.025 96.4625) (end 145.45 98.0375) (width 0.2) (layer "B.Cu") (net 5) (tstamp d3d7e298-1d39-4294-a3ab-c84cc0dc5e5a))
  (segment (start 148.93751 95.72499) (end 150.96249 95.72499) (width 0.2) (layer "B.Cu") (net 5) (tstamp dde51ae5-b215-445e-92bb-4a12ec410531))
  (segment (start 146.85 101.2) (end 146.85 100) (width 0.2) (layer "B.Cu") (net 5) (tstamp df32840e-2912-4088-b54c-9a85f64c0265))
  (segment (start 139.489054 111.25) (end 146.19 111.25) (width 0.2) (layer "B.Cu") (net 5) (tstamp ffd175d1-912a-4224-be1e-a8198680f46b))
  (segment (start 141.22499 97.47499) (end 141.22499 99.97499) (width 0.2) (layer "B.Cu") (net 6) (tstamp 0755aee5-bc01-4cb5-b830-583289df50a3))
  (segment (start 141.22499 99.97499) (end 141.25 100) (width 0.2) (layer "B.Cu") (net 6) (tstamp 4a21e717-d46d-4d9e-8b98-af4ecb02d3ec))
  (segment (start 140.25 96.4625) (end 140.25 96.5) (width 0.2) (layer "B.Cu") (net 6) (tstamp 60dcd1fe-7079-4cb8-b509-04558ccf5097))
  (segment (start 140.25 96.5) (end 141.22499 97.47499) (width 0.2) (layer "B.Cu") (net 6) (tstamp ec31c074-17b2-48e1-ab01-071acad3fa04))
  (segment (start 140.55 100) (end 140.55 98.3375) (width 0.2) (layer "B.Cu") (net 7) (tstamp 85b7594c-358f-454b-b2ad-dd0b1d67ed76))
  (segment (start 140.55 98.3375) (end 140.25 98.0375) (width 0.2) (layer "B.Cu") (net 7) (tstamp c5eb1e4c-ce83-470e-8f32-e20ff1f886a3))
  (segment (start 142.65 100) (end 142.65 98.59614) (width 0.2) (layer "B.Cu") (net 8) (tstamp 01e9b6e7-adf9-4ee7-9447-a588630ee4a2))
  (segment (start 142.77501 98.47113) (end 142.77501 97.23751) (width 0.2) (layer "B.Cu") (net 8) (tstamp 16bd6381-8ac0-4bf2-9dce-ecc20c724b8d))
  (segment (start 142.77501 97.23751) (end 142 96.4625) (width 0.2) (layer "B.Cu") (net 8) (tstamp 4f66b314-0f62-4fb6-8c3c-f9c6a75cd3ec))
  (segment (start 142.65 98.59614) (end 142.77501 98.47113) (width 0.2) (layer "B.Cu") (net 8) (tstamp a5cd8da1-8f7f-4f80-bb23-0317de562222))
  (segment (start 141.95 100) (end 141.95 98.0875) (width 0.2) (layer "B.Cu") (net 9) (tstamp 7d928d56-093a-4ca8-aed1-414b7e703b45))
  (segment (start 141.95 98.0875) (end 142 98.0375) (width 0.2) (layer "B.Cu") (net 9) (tstamp ca87f11b-5f48-4b57-8535-68d3ec2fe5a9))
  (segment (start 151.75 105.784292) (end 149.584312 107.94998) (width 0.2) (layer "B.Cu") (net 10) (tstamp 0c3dceba-7c95-4b3d-b590-0eb581444beb))
  (segment (start 151.75 100) (end 151.75 105.784292) (width 0.2) (layer "B.Cu") (net 10) (tstamp 6595b9c7-02ee-4647-bde5-6b566e35163e))
  (segment (start 138.234107 108.553506) (end 138.234107 109.429354) (width 0.2) (layer "B.Cu") (net 10) (tstamp 730b670c-9bcf-4dcd-9a8d-fcaa61fb0955))
  (segment (start 151.75 100) (end 151.75 98.0875) (width 0.2) (layer "B.Cu") (net 10) (tstamp 770ad51a-7219-4633-b24a-bd20feb0a6c5))
  (segment (start 147.579999 110.099999) (end 148.73 111.25) (width 0.2) (layer "B.Cu") (net 10) (tstamp 8a650ebf-3f78-4ca4-a26b-a5028693e36d))
  (segment (start 138.904752 110.099999) (end 147.579999 110.099999) (width 0.2) (layer "B.Cu") (net 10) (tstamp 965308c8-e014-459a-b9db-b8493a601c62))
  (segment (start 149.584312 107.94998) (end 138.837633 107.94998) (width 0.2) (layer "B.Cu") (net 10) (tstamp abe07c9a-17c3-43b5-b7a6-ae867ac27ea7))
  (segment (start 138.234107 109.429354) (end 138.904752 110.099999) (width 0.2) (layer "B.Cu") (net 10) (tstamp b1c649b1-f44d-46c7-9dea-818e75a1b87e))
  (segment (start 151.75 98.0875) (end 151.7 98.0375) (width 0.2) (layer "B.Cu") (net 10) (tstamp b7199d9b-bebb-4100-9ad3-c2bd31e21d65))
  (segment (start 138.837633 107.94998) (end 138.234107 108.553506) (width 0.2) (layer "B.Cu") (net 10) (tstamp f3628265-0155-43e2-a467-c40ff783e265))
  (segment (start 152.45 100) (end 153.15 100) (width 0.2) (layer "B.Cu") (net 11) (tstamp 16a9ae8c-3ad2-439b-8efe-377c994670c7))
  (segment (start 152.45 100) (end 152.45 105.64999) (width 0.2) (layer "B.Cu") (net 11) (tstamp 182b2d54-931d-49d6-9f39-60a752623e36))
  (segment (start 152.45 105.64999) (end 149.75 108.34999) (width 0.2) (layer "B.Cu") (net 11) (tstamp 2dc272bd-3aa2-45b5-889d-1d3c8aac80f8))
  (segment (start 149.75 108.34999) (end 139.003322 108.34999) (width 0.2) (layer "B.Cu") (net 11) (tstamp 5114c7bf-b955-49f3-a0a8-4b954c81bde0))
  (segment (start 138.634117 109.263665) (end 138.634117 108.719195) (width 0.2) (layer "B.Cu") (net 11) (tstamp 789ca812-3e0c-4a3f-97bc-a916dd9bce80))
  (segment (start 149.67001 109.65001) (end 139.020462 109.65001) (width 0.2) (layer "B.Cu") (net 11) (tstamp a17904b9-135e-4dae-ae20-401c7787de72))
  (segment (start 139.020462 109.65001) (end 138.634117 109.263665) (width 0.2) (layer "B.Cu") (net 11) (tstamp cdfb07af-801b-44ba-8c30-d021a6ad3039))
  (segment (start 153.15 98.0625) (end 153.175 98.0375) (width 0.2) (layer "B.Cu") (net 11) (tstamp db36f6e3-e72a-487f-bda9-88cc84536f62))
  (segment (start 153.15 100) (end 153.15 98.0625) (width 0.2) (layer "B.Cu") (net 11) (tstamp e4c6fdbb-fdc7-4ad4-a516-240d84cdc120))
  (segment (start 138.634117 108.719195) (end 139.003322 108.34999) (width 0.2) (layer "B.Cu") (net 11) (tstamp e6b860cc-cb76-4220-acfb-68f1eb348bfa))
  (segment (start 151.27 111.25) (end 149.67001 109.65001) (width 0.2) (layer "B.Cu") (net 11) (tstamp f202141e-c20d-4cac-b016-06a44f2ecce8))
  (segment (start 157.35 98.8375) (end 157.35 100) (width 0.2) (layer "B.Cu") (net 12) (tstamp 6c2d26bc-6eca-436c-8025-79f817bf57d6))
  (segment (start 156.55 98.0375) (end 157.35 98.8375) (width 0.2) (layer "B.Cu") (net 12) (tstamp cb24efdd-07c6-4317-9277-131625b065ac))

  (zone (net 2) (net_name "GND") (layer "B.Cu") (tstamp 00000000-0000-0000-0000-00005f224c4e) (hatch edge 0.508)
    (connect_pads (clearance 0.2))
    (min_thickness 0.2) (filled_areas_thickness no)
    (fill yes (thermal_gap 0.16) (thermal_bridge_width 0.4))
    (polygon
      (pts
        (xy 166 116)
        (xy 134.5 116)
        (xy 134.5 86.5)
        (xy 166 86.5)
      )
    )
    (filled_polygon
      (layer "B.Cu")
      (pts
        (xy 163.15 112.4)
        (xy 151.383265 112.4)
        (xy 151.605443 112.355806)
        (xy 151.814729 112.269116)
        (xy 152.003082 112.143263)
        (xy 152.046345 112.1)
        (xy 152.698742 112.1)
        (xy 152.703762 112.150969)
        (xy 152.718629 112.199979)
        (xy 152.742772 112.245147)
        (xy 152.775263 112.284737)
        (xy 152.814853 112.317228)
        (xy 152.860021 112.341371)
        (xy 152.909031 112.356238)
        (xy 152.96 112.361258)
        (xy 153.645 112.36)
        (xy 153.71 112.295)
        (xy 153.71 111.35)
        (xy 153.91 111.35)
        (xy 153.91 112.295)
        (xy 153.975 112.36)
        (xy 154.66 112.361258)
        (xy 154.710969 112.356238)
        (xy 154.759979 112.341371)
        (xy 154.805147 112.317228)
        (xy 154.844737 112.284737)
        (xy 154.877228 112.245147)
        (xy 154.901371 112.199979)
        (xy 154.916238 112.150969)
        (xy 154.921258 112.1)
        (xy 154.92 111.415)
        (xy 154.855 111.35)
        (xy 153.91 111.35)
        (xy 153.71 111.35)
        (xy 152.765 111.35)
        (xy 152.7 111.415)
        (xy 152.698742 112.1)
        (xy 152.046345 112.1)
        (xy 152.163263 111.983082)
        (xy 152.289116 111.794729)
        (xy 152.375806 111.585443)
        (xy 152.42 111.363265)
        (xy 152.42 111.136735)
        (xy 152.375806 110.914557)
        (xy 152.289116 110.705271)
        (xy 152.163263 110.516918)
        (xy 152.046345 110.4)
        (xy 152.698742 110.4)
        (xy 152.7 111.085)
        (xy 152.765 111.15)
        (xy 153.71 111.15)
        (xy 153.71 110.205)
        (xy 153.91 110.205)
        (xy 153.91 111.15)
        (xy 154.855 111.15)
        (xy 154.92 111.085)
        (xy 154.921258 110.4)
        (xy 154.916238 110.349031)
        (xy 154.901371 110.300021)
        (xy 154.877228 110.254853)
        (xy 154.844737 110.215263)
        (xy 154.805147 110.182772)
        (xy 154.759979 110.158629)
        (xy 154.710969 110.143762)
        (xy 154.66 110.138742)
        (xy 153.975 110.14)
        (xy 153.91 110.205)
        (xy 153.71 110.205)
        (xy 153.645 110.14)
        (xy 152.96 110.138742)
        (xy 152.909031 110.143762)
        (xy 152.860021 110.158629)
        (xy 152.814853 110.182772)
        (xy 152.775263 110.215263)
        (xy 152.742772 110.254853)
        (xy 152.718629 110.300021)
        (xy 152.703762 110.349031)
        (xy 152.698742 110.4)
        (xy 152.046345 110.4)
        (xy 152.003082 110.356737)
        (xy 151.814729 110.230884)
        (xy 151.605443 110.144194)
        (xy 151.383265 110.1)
        (xy 151.156735 110.1)
        (xy 150.934557 110.144194)
        (xy 150.789828 110.204143)
        (xy 150.185685 109.6)
        (xy 160.729474 109.6)
        (xy 160.817621 109.591318)
        (xy 160.930721 109.55701)
        (xy 161.034955 109.501296)
        (xy 161.126317 109.426317)
        (xy 161.201296 109.334955)
        (xy 161.25701 109.230721)
        (xy 161.291318 109.117621)
        (xy 161.302903 109)
        (xy 161.291318 108.882379)
        (xy 161.25701 108.769279)
        (xy 161.201296 108.665045)
        (xy 161.126317 108.573683)
        (xy 161.034955 108.498704)
        (xy 160.930721 108.44299)
        (xy 160.817621 108.408682)
        (xy 160.729474 108.4)
        (xy 150.265675 108.4)
        (xy 152.718948 105.946727)
        (xy 152.734211 105.934201)
        (xy 152.784197 105.873293)
        (xy 152.82134 105.803804)
        (xy 152.844212 105.728404)
        (xy 152.85 105.669637)
        (xy 152.851935 105.64999)
        (xy 152.85 105.630343)
        (xy 152.85 101.283164)
        (xy 152.89119 101.295659)
        (xy 152.95 101.301451)
        (xy 153.35 101.301451)
        (xy 153.40881 101.295659)
        (xy 153.46536 101.278504)
        (xy 153.5 101.259989)
        (xy 153.53464 101.278504)
        (xy 153.59119 101.295659)
        (xy 153.65 101.301451)
        (xy 154.05 101.301451)
        (xy 154.10881 101.295659)
        (xy 154.16536 101.278504)
        (xy 154.2 101.259989)
        (xy 154.23464 101.278504)
        (xy 154.29119 101.295659)
        (xy 154.35 101.301451)
        (xy 154.75 101.301451)
        (xy 154.80881 101.295659)
        (xy 154.86536 101.278504)
        (xy 154.9 101.259989)
        (xy 154.93464 101.278504)
        (xy 154.99119 101.295659)
        (xy 155.05 101.301451)
        (xy 155.45 101.301451)
        (xy 155.50881 101.295659)
        (xy 155.56536 101.278504)
        (xy 155.6 101.259989)
        (xy 155.63464 101.278504)
        (xy 155.69119 101.295659)
        (xy 155.75 101.301451)
        (xy 156.15 101.301451)
        (xy 156.20881 101.295659)
        (xy 156.26536 101.278504)
        (xy 156.3 101.259989)
        (xy 156.33464 101.278504)
        (xy 156.39119 101.295659)
        (xy 156.45 101.301451)
        (xy 156.85 101.301451)
        (xy 156.90881 101.295659)
        (xy 156.96536 101.278504)
        (xy 157 101.259989)
        (xy 157.03464 101.278504)
        (xy 157.09119 101.295659)
        (xy 157.15 101.301451)
        (xy 157.55 101.301451)
        (xy 157.60881 101.295659)
        (xy 157.66536 101.278504)
        (xy 157.7 101.259989)
        (xy 157.73464 101.278504)
        (xy 157.79119 101.295659)
        (xy 157.85 101.301451)
        (xy 158.25 101.301451)
        (xy 158.30881 101.295659)
        (xy 158.36536 101.278504)
        (xy 158.4 101.259989)
        (xy 158.43464 101.278504)
        (xy 158.49119 101.295659)
        (xy 158.55 101.301451)
        (xy 158.95 101.301451)
        (xy 159.00881 101.295659)
        (xy 159.06536 101.278504)
        (xy 159.117477 101.250647)
        (xy 159.137158 101.234495)
        (xy 159.150021 101.241371)
        (xy 159.199031 101.256238)
        (xy 159.25 101.261258)
        (xy 159.285 101.26)
        (xy 159.35 101.195)
        (xy 159.35 100.1)
        (xy 159.55 100.1)
        (xy 159.55 101.195)
        (xy 159.615 101.26)
        (xy 159.65 101.261258)
        (xy 159.700969 101.256238)
        (xy 159.749979 101.241371)
        (xy 159.795147 101.217228)
        (xy 159.8 101.213245)
        (xy 159.804853 101.217228)
        (xy 159.850021 101.241371)
        (xy 159.899031 101.256238)
        (xy 159.95 101.261258)
        (xy 159.985 101.26)
        (xy 160.05 101.195)
        (xy 160.05 100.1)
        (xy 160.25 100.1)
        (xy 160.25 101.195)
        (xy 160.315 101.26)
        (xy 160.35 101.261258)
        (xy 160.400969 101.256238)
        (xy 160.449979 101.241371)
        (xy 160.495147 101.217228)
        (xy 160.534737 101.184737)
        (xy 160.567228 101.145147)
        (xy 160.591371 101.099979)
        (xy 160.606238 101.050969)
        (xy 160.611258 101)
        (xy 160.61 100.165)
        (xy 160.545 100.1)
        (xy 160.25 100.1)
        (xy 160.05 100.1)
        (xy 159.55 100.1)
        (xy 159.35 100.1)
        (xy 159.33 100.1)
        (xy 159.33 99.9)
        (xy 159.35 99.9)
        (xy 159.35 99.88)
        (xy 159.55 99.88)
        (xy 159.55 99.9)
        (xy 160.05 99.9)
        (xy 160.05 98.805)
        (xy 160.25 98.805)
        (xy 160.25 99.9)
        (xy 160.545 99.9)
        (xy 160.61 99.835)
        (xy 160.611258 99)
        (xy 160.606238 98.949031)
        (xy 160.591371 98.900021)
        (xy 160.567228 98.854853)
        (xy 160.534737 98.815263)
        (xy 160.495147 98.782772)
        (xy 160.449979 98.758629)
        (xy 160.400969 98.743762)
        (xy 160.35 98.738742)
        (xy 160.315 98.74)
        (xy 160.25 98.805)
        (xy 160.05 98.805)
        (xy 159.987315 98.742315)
        (xy 160.005322 98.736853)
        (xy 160.095258 98.688781)
        (xy 160.174088 98.624088)
        (xy 160.238781 98.545258)
        (xy 160.286853 98.455322)
        (xy 160.316455 98.357736)
        (xy 160.326451 98.25625)
        (xy 160.326451 97.81875)
        (xy 160.316455 97.717264)
        (xy 160.286853 97.619678)
        (xy 160.238781 97.529742)
        (xy 160.174088 97.450912)
        (xy 160.095258 97.386219)
        (xy 160.005322 97.338147)
        (xy 159.907736 97.308545)
        (xy 159.80625 97.298549)
        (xy 159.29375 97.298549)
        (xy 159.192264 97.308545)
        (xy 159.094678 97.338147)
        (xy 159.004742 97.386219)
        (xy 158.925912 97.450912)
        (xy 158.861219 97.529742)
        (xy 158.813147 97.619678)
        (xy 158.8 97.663018)
        (xy 158.786853 97.619678)
        (xy 158.738781 97.529742)
        (xy 158.674088 97.450912)
        (xy 158.595258 97.386219)
        (xy 158.505322 97.338147)
        (xy 158.407736 97.308545)
        (xy 158.30625 97.298549)
        (xy 157.79375 97.298549)
        (xy 157.692264 97.308545)
        (xy 157.594678 97.338147)
        (xy 157.504742 97.386219)
        (xy 157.425912 97.450912)
        (xy 157.361219 97.529742)
        (xy 157.313147 97.619678)
        (xy 157.3 97.663018)
        (xy 157.286853 97.619678)
        (xy 157.238781 97.529742)
        (xy 157.174088 97.450912)
        (xy 157.095258 97.386219)
        (xy 157.005322 97.338147)
        (xy 156.907736 97.308545)
        (xy 156.80625 97.298549)
        (xy 156.29375 97.298549)
        (xy 156.192264 97.308545)
        (xy 156.094678 97.338147)
        (xy 156.004742 97.386219)
        (xy 155.925912 97.450912)
        (xy 155.861219 97.529742)
        (xy 155.813147 97.619678)
        (xy 155.783545 97.717264)
        (xy 155.773549 97.81875)
        (xy 155.773549 98.25625)
        (xy 155.783545 98.357736)
        (xy 155.813147 98.455322)
        (xy 155.861219 98.545258)
        (xy 155.925912 98.624088)
        (xy 156.004742 98.688781)
        (xy 156.023017 98.698549)
        (xy 155.75 98.698549)
        (xy 155.69119 98.704341)
        (xy 155.63464 98.721496)
        (xy 155.6 98.740011)
        (xy 155.56536 98.721496)
        (xy 155.50881 98.704341)
        (xy 155.45 98.698549)
        (xy 155.05 98.698549)
        (xy 154.99119 98.704341)
        (xy 154.93464 98.721496)
        (xy 154.9 98.740011)
        (xy 154.86536 98.721496)
        (xy 154.80881 98.704341)
        (xy 154.75 98.698549)
        (xy 154.35 98.698549)
        (xy 154.29119 98.704341)
        (xy 154.23464 98.721496)
        (xy 154.2 98.740011)
        (xy 154.16536 98.721496)
        (xy 154.10881 98.704341)
        (xy 154.05 98.698549)
        (xy 153.701983 98.698549)
        (xy 153.720258 98.688781)
        (xy 153.799088 98.624088)
        (xy 153.863781 98.545258)
        (xy 153.911853 98.455322)
        (xy 153.941455 98.357736)
        (xy 153.951451 98.25625)
        (xy 153.951451 97.81875)
        (xy 153.941455 97.717264)
        (xy 153.911853 97.619678)
        (xy 153.863781 97.529742)
        (xy 153.799088 97.450912)
        (xy 153.720258 97.386219)
        (xy 153.630322 97.338147)
        (xy 153.532736 97.308545)
        (xy 153.43125 97.298549)
        (xy 152.91875 97.298549)
        (xy 152.817264 97.308545)
        (xy 152.719678 97.338147)
        (xy 152.629742 97.386219)
        (xy 152.550912 97.450912)
        (xy 152.486219 97.529742)
        (xy 152.438147 97.619678)
        (xy 152.4375 97.621811)
        (xy 152.436853 97.619678)
        (xy 152.388781 97.529742)
        (xy 152.324088 97.450912)
        (xy 152.245258 97.386219)
        (xy 152.155322 97.338147)
        (xy 152.057736 97.308545)
        (xy 151.95625 97.298549)
        (xy 151.44375 97.298549)
        (xy 151.342264 97.308545)
        (xy 151.244678 97.338147)
        (xy 151.154742 97.386219)
        (xy 151.075912 97.450912)
        (xy 151.011219 97.529742)
        (xy 150.963147 97.619678)
        (xy 150.933545 97.717264)
        (xy 150.923549 97.81875)
        (xy 150.923549 98.25625)
        (xy 150.933545 98.357736)
        (xy 150.963147 98.455322)
        (xy 151.011219 98.545258)
        (xy 151.075912 98.624088)
        (xy 151.154742 98.688781)
        (xy 151.173017 98.698549)
        (xy 150.85 98.698549)
        (xy 150.79119 98.704341)
        (xy 150.73464 98.721496)
        (xy 150.7 98.740011)
        (xy 150.66536 98.721496)
        (xy 150.60881 98.704341)
        (xy 150.55 98.698549)
        (xy 150.226983 98.698549)
        (xy 150.245258 98.688781)
        (xy 150.324088 98.624088)
        (xy 150.388781 98.545258)
        (xy 150.436853 98.455322)
        (xy 150.466455 98.357736)
        (xy 150.476451 98.25625)
        (xy 150.476451 97.81875)
        (xy 150.466455 97.717264)
        (xy 150.436853 97.619678)
        (xy 150.388781 97.529742)
        (xy 150.324088 97.450912)
        (xy 150.245258 97.386219)
        (xy 150.155322 97.338147)
        (xy 150.057736 97.308545)
        (xy 149.95625 97.298549)
        (xy 149.44375 97.298549)
        (xy 149.342264 97.308545)
        (xy 149.244678 97.338147)
        (xy 149.154742 97.386219)
        (xy 149.075912 97.450912)
        (xy 149.011219 97.529742)
        (xy 148.963147 97.619678)
        (xy 148.958086 97.636361)
        (xy 148.95 97.635565)
        (xy 148.941914 97.636361)
        (xy 148.936853 97.619678)
        (xy 148.888781 97.529742)
        (xy 148.824088 97.450912)
        (xy 148.745258 97.386219)
        (xy 148.655322 97.338147)
        (xy 148.557736 97.308545)
        (xy 148.45625 97.298549)
        (xy 147.94375 97.298549)
        (xy 147.842264 97.308545)
        (xy 147.744678 97.338147)
        (xy 147.654742 97.386219)
        (xy 147.575912 97.450912)
        (xy 147.511219 97.529742)
        (xy 147.463147 97.619678)
        (xy 147.433545 97.717264)
        (xy 147.423549 97.81875)
        (xy 147.423549 98.25625)
        (xy 147.433545 98.357736)
        (xy 147.463147 98.455322)
        (xy 147.511219 98.545258)
        (xy 147.575912 98.624088)
        (xy 147.654742 98.688781)
        (xy 147.744678 98.736853)
        (xy 147.751341 98.738874)
        (xy 147.75 98.738742)
        (xy 147.715 98.74)
        (xy 147.65 98.805)
        (xy 147.65 99.9)
        (xy 148.15 99.9)
        (xy 148.15 99.88)
        (xy 148.35 99.88)
        (xy 148.35 99.9)
        (xy 148.37 99.9)
        (xy 148.37 100.1)
        (xy 148.35 100.1)
        (xy 148.35 101.195)
        (xy 148.415 101.26)
        (xy 148.45 101.261258)
        (xy 148.500969 101.256238)
        (xy 148.549979 101.241371)
        (xy 148.562842 101.234495)
        (xy 148.582523 101.250647)
        (xy 148.63464 101.278504)
        (xy 148.69119 101.295659)
        (xy 148.75 101.301451)
        (xy 149.15 101.301451)
        (xy 149.20881 101.295659)
        (xy 149.26536 101.278504)
        (xy 149.317477 101.250647)
        (xy 149.337158 101.234495)
        (xy 149.350021 101.241371)
        (xy 149.399031 101.256238)
        (xy 149.45 101.261258)
        (xy 149.485 101.26)
        (xy 149.55 101.195)
        (xy 149.55 100.1)
        (xy 149.53 100.1)
        (xy 149.53 99.9)
        (xy 149.55 99.9)
        (xy 149.55 99.88)
        (xy 149.75 99.88)
        (xy 149.75 99.9)
        (xy 149.77 99.9)
        (xy 149.77 100.1)
        (xy 149.75 100.1)
        (xy 149.75 101.195)
        (xy 149.815 101.26)
        (xy 149.85 101.261258)
        (xy 149.900969 101.256238)
        (xy 149.949979 101.241371)
        (xy 149.962842 101.234495)
        (xy 149.982523 101.250647)
        (xy 150.03464 101.278504)
        (xy 150.09119 101.295659)
        (xy 150.15 101.301451)
        (xy 150.55 101.301451)
        (xy 150.60881 101.295659)
        (xy 150.66536 101.278504)
        (xy 150.7 101.259989)
        (xy 150.73464 101.278504)
        (xy 150.79119 101.295659)
        (xy 150.85 101.301451)
        (xy 151.25 101.301451)
        (xy 151.30881 101.295659)
        (xy 151.35 101.283164)
        (xy 151.350001 105.618606)
        (xy 149.418627 107.54998)
        (xy 142.315675 107.54998)
        (xy 143.618948 106.246707)
        (xy 143.634211 106.234181)
        (xy 143.684197 106.173273)
        (xy 143.72134 106.103784)
        (xy 143.744212 106.028384)
        (xy 143.75 105.969617)
        (xy 143.751935 105.94997)
        (xy 143.75 105.930323)
        (xy 143.75 102.05)
        (xy 145.430353 102.05)
        (xy 145.45 102.051935)
        (xy 145.469646 102.05)
        (xy 146.380354 102.05)
        (xy 146.4 102.051935)
        (xy 146.419646 102.05)
        (xy 146.419647 102.05)
        (xy 146.478414 102.044212)
        (xy 146.553814 102.02134)
        (xy 146.623303 101.984197)
        (xy 146.684211 101.934211)
        (xy 146.696737 101.918948)
        (xy 147.118954 101.496732)
        (xy 147.134211 101.484211)
        (xy 147.184197 101.423303)
        (xy 147.22134 101.353814)
        (xy 147.244212 101.278414)
        (xy 147.247968 101.240274)
        (xy 147.250021 101.241371)
        (xy 147.299031 101.256238)
        (xy 147.35 101.261258)
        (xy 147.385 101.26)
        (xy 147.45 101.195)
        (xy 147.45 100.1)
        (xy 147.65 100.1)
        (xy 147.65 101.195)
        (xy 147.715 101.26)
        (xy 147.75 101.261258)
        (xy 147.800969 101.256238)
        (xy 147.849979 101.241371)
        (xy 147.895147 101.217228)
        (xy 147.9 101.213245)
        (xy 147.904853 101.217228)
        (xy 147.950021 101.241371)
        (xy 147.999031 101.256238)
        (xy 148.05 101.261258)
        (xy 148.085 101.26)
        (xy 148.15 101.195)
        (xy 148.15 100.1)
        (xy 147.65 100.1)
        (xy 147.45 100.1)
        (xy 147.43 100.1)
        (xy 147.43 99.9)
        (xy 147.45 99.9)
        (xy 147.45 98.805)
        (xy 147.385 98.74)
        (xy 147.35 98.738742)
        (xy 147.299031 98.743762)
        (xy 147.250021 98.758629)
        (xy 147.237158 98.765505)
        (xy 147.217477 98.749353)
        (xy 147.16536 98.721496)
        (xy 147.10881 98.704341)
        (xy 147.05 98.698549)
        (xy 146.65 98.698549)
        (xy 146.59119 98.704341)
        (xy 146.53464 98.721496)
        (xy 146.482523 98.749353)
        (xy 146.462842 98.765505)
        (xy 146.449979 98.758629)
        (xy 146.400969 98.743762)
        (xy 146.35 98.738742)
        (xy 146.315 98.74)
        (xy 146.25 98.805)
        (xy 146.25 99.9)
        (xy 146.27 99.9)
        (xy 146.27 100.1)
        (xy 146.25 100.1)
        (xy 146.25 100.12)
        (xy 146.05 100.12)
        (xy 146.05 100.1)
        (xy 146.03 100.1)
        (xy 146.03 99.9)
        (xy 146.05 99.9)
        (xy 146.05 98.805)
        (xy 145.985 98.74)
        (xy 145.95 98.738742)
        (xy 145.899031 98.743762)
        (xy 145.850021 98.758629)
        (xy 145.85 98.75864)
        (xy 145.85 98.753635)
        (xy 145.905322 98.736853)
        (xy 145.995258 98.688781)
        (xy 146.074088 98.624088)
        (xy 146.138781 98.545258)
        (xy 146.186853 98.455322)
        (xy 146.216455 98.357736)
        (xy 146.226451 98.25625)
        (xy 146.226451 97.826734)
        (xy 147.190685 96.8625)
        (xy 147.457741 96.8625)
        (xy 147.463147 96.880322)
        (xy 147.511219 96.970258)
        (xy 147.575912 97.049088)
        (xy 147.654742 97.113781)
        (xy 147.744678 97.161853)
        (xy 147.842264 97.191455)
        (xy 147.94375 97.201451)
        (xy 148.45625 97.201451)
        (xy 148.557736 97.191455)
        (xy 148.655322 97.161853)
        (xy 148.745258 97.113781)
        (xy 148.824088 97.049088)
        (xy 148.888781 96.970258)
        (xy 148.936853 96.880322)
        (xy 148.96425 96.790006)
        (xy 148.963742 96.9)
        (xy 148.968762 96.950969)
        (xy 148.983629 96.999979)
        (xy 149.007772 97.045147)
        (xy 149.040263 97.084737)
        (xy 149.079853 97.117228)
        (xy 149.125021 97.141371)
        (xy 149.174031 97.156238)
        (xy 149.225 97.161258)
        (xy 149.535 97.16)
        (xy 149.6 97.095)
        (xy 149.6 96.5625)
        (xy 149.8 96.5625)
        (xy 149.8 97.095)
        (xy 149.865 97.16)
        (xy 150.175 97.161258)
        (xy 150.225969 97.156238)
        (xy 150.274979 97.141371)
        (xy 150.320147 97.117228)
        (xy 150.359737 97.084737)
        (xy 150.392228 97.045147)
        (xy 150.416371 96.999979)
        (xy 150.431238 96.950969)
        (xy 150.436258 96.9)
        (xy 150.435 96.6275)
        (xy 150.37 96.5625)
        (xy 149.8 96.5625)
        (xy 149.6 96.5625)
        (xy 149.58 96.5625)
        (xy 149.58 96.3625)
        (xy 149.6 96.3625)
        (xy 149.6 96.3425)
        (xy 149.8 96.3425)
        (xy 149.8 96.3625)
        (xy 150.37 96.3625)
        (xy 150.435 96.2975)
        (xy 150.435796 96.12499)
        (xy 150.796805 96.12499)
        (xy 150.923549 96.251734)
        (xy 150.923549 96.68125)
        (xy 150.933545 96.782736)
        (xy 150.963147 96.880322)
        (xy 151.011219 96.970258)
        (xy 151.075912 97.049088)
        (xy 151.154742 97.113781)
        (xy 151.244678 97.161853)
        (xy 151.342264 97.191455)
        (xy 151.44375 97.201451)
        (xy 151.95625 97.201451)
        (xy 152.057736 97.191455)
        (xy 152.155322 97.161853)
        (xy 152.245258 97.113781)
        (xy 152.324088 97.049088)
        (xy 152.388781 96.970258)
        (xy 152.436853 96.880322)
        (xy 152.4375 96.878189)
        (xy 152.438147 96.880322)
        (xy 152.486219 96.970258)
        (xy 152.550912 97.049088)
        (xy 152.629742 97.113781)
        (xy 152.719678 97.161853)
        (xy 152.817264 97.191455)
        (xy 152.91875 97.201451)
        (xy 153.43125 97.201451)
        (xy 153.532736 97.191455)
        (xy 153.630322 97.161853)
        (xy 153.720258 97.113781)
        (xy 153.799088 97.049088)
        (xy 153.863781 96.970258)
        (xy 153.901334 96.9)
        (xy 155.813742 96.9)
        (xy 155.818762 96.950969)
        (xy 155.833629 96.999979)
        (xy 155.857772 97.045147)
        (xy 155.890263 97.084737)
        (xy 155.929853 97.117228)
        (xy 155.975021 97.141371)
        (xy 156.024031 97.156238)
        (xy 156.075 97.161258)
        (xy 156.385 97.16)
        (xy 156.45 97.095)
        (xy 156.45 96.5625)
        (xy 156.65 96.5625)
        (xy 156.65 97.095)
        (xy 156.715 97.16)
        (xy 157.025 97.161258)
        (xy 157.075969 97.156238)
        (xy 157.124979 97.141371)
        (xy 157.170147 97.117228)
        (xy 157.209737 97.084737)
        (xy 157.242228 97.045147)
        (xy 157.266371 96.999979)
        (xy 157.281238 96.950969)
        (xy 157.286258 96.9)
        (xy 157.313742 96.9)
        (xy 157.318762 96.950969)
        (xy 157.333629 96.999979)
        (xy 157.357772 97.045147)
        (xy 157.390263 97.084737)
        (xy 157.429853 97.117228)
        (xy 157.475021 97.141371)
        (xy 157.524031 97.156238)
        (xy 157.575 97.161258)
        (xy 157.885 97.16)
        (xy 157.95 97.095)
        (xy 157.95 96.5625)
        (xy 158.15 96.5625)
        (xy 158.15 97.095)
        (xy 158.215 97.16)
        (xy 158.525 97.161258)
        (xy 158.575969 97.156238)
        (xy 158.624979 97.141371)
        (xy 158.670147 97.117228)
        (xy 158.709737 97.084737)
        (xy 158.742228 97.045147)
        (xy 158.766371 96.999979)
        (xy 158.781238 96.950969)
        (xy 158.786258 96.9)
        (xy 158.813742 96.9)
        (xy 158.818762 96.950969)
        (xy 158.833629 96.999979)
        (xy 158.857772 97.045147)
        (xy 158.890263 97.084737)
        (xy 158.929853 97.117228)
        (xy 158.975021 97.141371)
        (xy 159.024031 97.156238)
        (xy 159.075 97.161258)
        (xy 159.385 97.16)
        (xy 159.45 97.095)
        (xy 159.45 96.5625)
        (xy 159.65 96.5625)
        (xy 159.65 97.095)
        (xy 159.715 97.16)
        (xy 160.025 97.161258)
        (xy 160.075969 97.156238)
        (xy 160.124979 97.141371)
        (xy 160.170147 97.117228)
        (xy 160.209737 97.084737)
        (xy 160.242228 97.045147)
        (xy 160.266371 96.999979)
        (xy 160.281238 96.950969)
        (xy 160.286258 96.9)
        (xy 160.285 96.6275)
        (xy 160.22 96.5625)
        (xy 159.65 96.5625)
        (xy 159.45 96.5625)
        (xy 158.88 96.5625)
        (xy 158.815 96.6275)
        (xy 158.813742 96.9)
        (xy 158.786258 96.9)
        (xy 158.785 96.6275)
        (xy 158.72 96.5625)
        (xy 158.15 96.5625)
        (xy 157.95 96.5625)
        (xy 157.38 96.5625)
        (xy 157.315 96.6275)
        (xy 157.313742 96.9)
        (xy 157.286258 96.9)
        (xy 157.285 96.6275)
        (xy 157.22 96.5625)
        (xy 156.65 96.5625)
        (xy 156.45 96.5625)
        (xy 155.88 96.5625)
        (xy 155.815 96.6275)
        (xy 155.813742 96.9)
        (xy 153.901334 96.9)
        (xy 153.911853 96.880322)
        (xy 153.941455 96.782736)
        (xy 153.951451 96.68125)
        (xy 153.951451 96.24375)
        (xy 153.941455 96.142264)
        (xy 153.911853 96.044678)
        (xy 153.901335 96.025)
        (xy 155.813742 96.025)
        (xy 155.815 96.2975)
        (xy 155.88 96.3625)
        (xy 156.45 96.3625)
        (xy 156.45 95.83)
        (xy 156.65 95.83)
        (xy 156.65 96.3625)
        (xy 157.22 96.3625)
        (xy 157.285 96.2975)
        (xy 157.286258 96.025)
        (xy 157.313742 96.025)
        (xy 157.315 96.2975)
        (xy 157.38 96.3625)
        (xy 157.95 96.3625)
        (xy 157.95 95.83)
        (xy 158.15 95.83)
        (xy 158.15 96.3625)
        (xy 158.72 96.3625)
        (xy 158.785 96.2975)
        (xy 158.786258 96.025)
        (xy 158.813742 96.025)
        (xy 158.815 96.2975)
        (xy 158.88 96.3625)
        (xy 159.45 96.3625)
        (xy 159.45 95.83)
        (xy 159.65 95.83)
        (xy 159.65 96.3625)
        (xy 160.22 96.3625)
        (xy 160.285 96.2975)
        (xy 160.286258 96.025)
        (xy 160.281238 95.974031)
        (xy 160.266371 95.925021)
        (xy 160.242228 95.879853)
        (xy 160.209737 95.840263)
        (xy 160.170147 95.807772)
        (xy 160.124979 95.783629)
        (xy 160.075969 95.768762)
        (xy 160.025 95.763742)
        (xy 159.715 95.765)
        (xy 159.65 95.83)
        (xy 159.45 95.83)
        (xy 159.385 95.765)
        (xy 159.075 95.763742)
        (xy 159.024031 95.768762)
        (xy 158.975021 95.783629)
        (xy 158.929853 95.807772)
        (xy 158.890263 95.840263)
        (xy 158.857772 95.879853)
        (xy 158.833629 95.925021)
        (xy 158.818762 95.974031)
        (xy 158.813742 96.025)
        (xy 158.786258 96.025)
        (xy 158.781238 95.974031)
        (xy 158.766371 95.925021)
        (xy 158.742228 95.879853)
        (xy 158.709737 95.840263)
        (xy 158.670147 95.807772)
        (xy 158.624979 95.783629)
        (xy 158.575969 95.768762)
        (xy 158.525 95.763742)
        (xy 158.215 95.765)
        (xy 158.15 95.83)
        (xy 157.95 95.83)
        (xy 157.885 95.765)
        (xy 157.575 95.763742)
        (xy 157.524031 95.768762)
        (xy 157.475021 95.783629)
        (xy 157.429853 95.807772)
        (xy 157.390263 95.840263)
        (xy 157.357772 95.879853)
        (xy 157.333629 95.925021)
        (xy 157.318762 95.974031)
        (xy 157.313742 96.025)
        (xy 157.286258 96.025)
        (xy 157.281238 95.974031)
        (xy 157.266371 95.925021)
        (xy 157.242228 95.879853)
        (xy 157.209737 95.840263)
        (xy 157.170147 95.807772)
        (xy 157.124979 95.783629)
        (xy 157.075969 95.768762)
        (xy 157.025 95.763742)
        (xy 156.715 95.765)
        (xy 156.65 95.83)
        (xy 156.45 95.83)
        (xy 156.385 95.765)
        (xy 156.075 95.763742)
        (xy 156.024031 95.768762)
        (xy 155.975021 95.783629)
        (xy 155.929853 95.807772)
        (xy 155.890263 95.840263)
        (xy 155.857772 95.879853)
        (xy 155.833629 95.925021)
        (xy 155.818762 95.974031)
        (xy 155.813742 96.025)
        (xy 153.901335 96.025)
        (xy 153.863781 95.954742)
        (xy 153.799088 95.875912)
        (xy 153.720258 95.811219)
        (xy 153.630322 95.763147)
        (xy 153.532736 95.733545)
        (xy 153.43125 95.723549)
        (xy 152.91875 95.723549)
        (xy 152.817264 95.733545)
        (xy 152.719678 95.763147)
        (xy 152.629742 95.811219)
        (xy 152.550912 95.875912)
        (xy 152.486219 95.954742)
        (xy 152.438147 96.044678)
        (xy 152.4375 96.046811)
        (xy 152.436853 96.044678)
        (xy 152.388781 95.954742)
        (xy 152.324088 95.875912)
        (xy 152.245258 95.811219)
        (xy 152.155322 95.763147)
        (xy 152.057736 95.733545)
        (xy 151.95625 95.723549)
        (xy 151.526734 95.723549)
        (xy 151.259227 95.456042)
        (xy 151.246701 95.440779)
        (xy 151.185793 95.390793)
        (xy 151.116304 95.35365)
        (xy 151.040904 95.330778)
        (xy 150.982137 95.32499)
        (xy 150.982136 95.32499)
        (xy 150.96249 95.323055)
        (xy 150.942844 95.32499)
        (xy 148.957157 95.32499)
        (xy 148.93751 95.323055)
        (xy 148.917863 95.32499)
        (xy 148.859096 95.330778)
        (xy 148.783696 95.35365)
        (xy 148.714207 95.390793)
        (xy 148.653299 95.440779)
        (xy 148.640773 95.456042)
        (xy 148.373266 95.723549)
        (xy 147.94375 95.723549)
        (xy 147.842264 95.733545)
        (xy 147.744678 95.763147)
        (xy 147.654742 95.811219)
        (xy 147.575912 95.875912)
        (xy 147.511219 95.954742)
        (xy 147.463147 96.044678)
        (xy 147.457741 96.0625)
        (xy 147.044635 96.0625)
        (xy 147.024999 96.060566)
        (xy 147.005363 96.0625)
        (xy 147.005353 96.0625)
        (xy 146.946586 96.068288)
        (xy 146.871186 96.09116)
        (xy 146.801697 96.128303)
        (xy 146.740789 96.178289)
        (xy 146.728265 96.19355)
        (xy 146.185502 96.736313)
        (xy 146.185 96.6275)
        (xy 146.12 96.5625)
        (xy 145.55 96.5625)
        (xy 145.55 97.095)
        (xy 145.615 97.16)
        (xy 145.761222 97.160593)
        (xy 145.623266 97.298549)
        (xy 145.19375 97.298549)
        (xy 145.092264 97.308545)
        (xy 144.994678 97.338147)
        (xy 144.904742 97.386219)
        (xy 144.825912 97.450912)
        (xy 144.761219 97.529742)
        (xy 144.713147 97.619678)
        (xy 144.683545 97.717264)
        (xy 144.673549 97.81875)
        (xy 144.673549 98.25625)
        (xy 144.683545 98.357736)
        (xy 144.713147 98.455322)
        (xy 144.761219 98.545258)
        (xy 144.825912 98.624088)
        (xy 144.904742 98.688781)
        (xy 144.994678 98.736853)
        (xy 145.05 98.753635)
        (xy 145.05 98.75864)
        (xy 145.049979 98.758629)
        (xy 145.000969 98.743762)
        (xy 144.95 98.738742)
        (xy 144.915 98.74)
        (xy 144.85 98.805)
        (xy 144.85 99.9)
        (xy 144.87 99.9)
        (xy 144.87 100.1)
        (xy 144.85 100.1)
        (xy 144.85 100.12)
        (xy 144.65 100.12)
        (xy 144.65 100.1)
        (xy 144.63 100.1)
        (xy 144.63 99.9)
        (xy 144.65 99.9)
        (xy 144.65 98.805)
        (xy 144.585 98.74)
        (xy 144.55 98.738742)
        (xy 144.499031 98.743762)
        (xy 144.450021 98.758629)
        (xy 144.437158 98.765505)
        (xy 144.417477 98.749353)
        (xy 144.36536 98.721496)
        (xy 144.30881 98.704341)
        (xy 144.272785 98.700793)
        (xy 144.295258 98.688781)
        (xy 144.374088 98.624088)
        (xy 144.438781 98.545258)
        (xy 144.486853 98.455322)
        (xy 144.516455 98.357736)
        (xy 144.526451 98.25625)
        (xy 144.526451 97.81875)
        (xy 144.516455 97.717264)
        (xy 144.486853 97.619678)
        (xy 144.438781 97.529742)
        (xy 144.374088 97.450912)
        (xy 144.295258 97.386219)
        (xy 144.205322 97.338147)
        (xy 144.107736 97.308545)
        (xy 144.00625 97.298549)
        (xy 143.49375 97.298549)
        (xy 143.392264 97.308545)
        (xy 143.294678 97.338147)
        (xy 143.204742 97.386219)
        (xy 143.17501 97.410619)
        (xy 143.17501 97.257157)
        (xy 143.176945 97.23751)
        (xy 143.169222 97.159096)
        (xy 143.161683 97.134241)
        (xy 143.175021 97.141371)
        (xy 143.224031 97.156238)
        (xy 143.275 97.161258)
        (xy 143.585 97.16)
        (xy 143.65 97.095)
        (xy 143.65 96.5625)
        (xy 143.85 96.5625)
        (xy 143.85 97.095)
        (xy 143.915 97.16)
        (xy 144.225 97.161258)
        (xy 144.275969 97.156238)
        (xy 144.324979 97.141371)
        (xy 144.370147 97.117228)
        (xy 144.409737 97.084737)
        (xy 144.442228 97.045147)
        (xy 144.466371 96.999979)
        (xy 144.481238 96.950969)
        (xy 144.486258 96.9)
        (xy 144.713742 96.9)
        (xy 144.718762 96.950969)
        (xy 144.733629 96.999979)
        (xy 144.757772 97.045147)
        (xy 144.790263 97.084737)
        (xy 144.829853 97.117228)
        (xy 144.875021 97.141371)
        (xy 144.924031 97.156238)
        (xy 144.975 97.161258)
        (xy 145.285 97.16)
        (xy 145.35 97.095)
        (xy 145.35 96.5625)
        (xy 144.78 96.5625)
        (xy 144.715 96.6275)
        (xy 144.713742 96.9)
        (xy 144.486258 96.9)
        (xy 144.485 96.6275)
        (xy 144.42 96.5625)
        (xy 143.85 96.5625)
        (xy 143.65 96.5625)
        (xy 143.08 96.5625)
        (xy 143.015 96.6275)
        (xy 143.013742 96.9)
        (xy 143.014895 96.91171)
        (xy 142.776451 96.673266)
        (xy 142.776451 96.24375)
        (xy 142.766455 96.142264)
        (xy 142.736853 96.044678)
        (xy 142.726335 96.025)
        (xy 143.013742 96.025)
        (xy 143.015 96.2975)
        (xy 143.08 96.3625)
        (xy 143.65 96.3625)
        (xy 143.65 95.83)
        (xy 143.85 95.83)
        (xy 143.85 96.3625)
        (xy 144.42 96.3625)
        (xy 144.485 96.2975)
        (xy 144.486258 96.025)
        (xy 144.713742 96.025)
        (xy 144.715 96.2975)
        (xy 144.78 96.3625)
        (xy 145.35 96.3625)
        (xy 145.35 95.83)
        (xy 145.55 95.83)
        (xy 145.55 96.3625)
        (xy 146.12 96.3625)
        (xy 146.185 96.2975)
        (xy 146.186258 96.025)
        (xy 146.181238 95.974031)
        (xy 146.166371 95.925021)
        (xy 146.142228 95.879853)
        (xy 146.109737 95.840263)
        (xy 146.070147 95.807772)
        (xy 146.024979 95.783629)
        (xy 145.975969 95.768762)
        (xy 145.925 95.763742)
        (xy 145.615 95.765)
        (xy 145.55 95.83)
        (xy 145.35 95.83)
        (xy 145.285 95.765)
        (xy 144.975 95.763742)
        (xy 144.924031 95.768762)
        (xy 144.875021 95.783629)
        (xy 144.829853 95.807772)
        (xy 144.790263 95.840263)
        (xy 144.757772 95.879853)
        (xy 144.733629 95.925021)
        (xy 144.718762 95.974031)
        (xy 144.713742 96.025)
        (xy 144.486258 96.025)
        (xy 144.481238 95.974031)
        (xy 144.466371 95.925021)
        (xy 144.442228 95.879853)
        (xy 144.409737 95.840263)
        (xy 144.370147 95.807772)
        (xy 144.324979 95.783629)
        (xy 144.275969 95.768762)
        (xy 144.225 95.763742)
        (xy 143.915 95.765)
        (xy 143.85 95.83)
        (xy 143.65 95.83)
        (xy 143.585 95.765)
        (xy 143.275 95.763742)
        (xy 143.224031 95.768762)
        (xy 143.175021 95.783629)
        (xy 143.129853 95.807772)
        (xy 143.090263 95.840263)
        (xy 143.057772 95.879853)
        (xy 143.033629 95.925021)
        (xy 143.018762 95.974031)
        (xy 143.013742 96.025)
        (xy 142.726335 96.025)
        (xy 142.688781 95.954742)
        (xy 142.624088 95.875912)
        (xy 142.545258 95.811219)
        (xy 142.455322 95.763147)
        (xy 142.357736 95.733545)
        (xy 142.25625 95.723549)
        (xy 141.74375 95.723549)
        (xy 141.642264 95.733545)
        (xy 141.544678 95.763147)
        (xy 141.454742 95.811219)
        (xy 141.375912 95.875912)
        (xy 141.311219 95.954742)
        (xy 141.263147 96.044678)
        (xy 141.233545 96.142264)
        (xy 141.223549 96.24375)
        (xy 141.223549 96.68125)
        (xy 141.233545 96.782736)
        (xy 141.263147 96.880322)
        (xy 141.311219 96.970258)
        (xy 141.375912 97.049088)
        (xy 141.454742 97.113781)
        (xy 141.544678 97.161853)
        (xy 141.642264 97.191455)
        (xy 141.74375 97.201451)
        (xy 142.173266 97.201451)
        (xy 142.271906 97.300091)
        (xy 142.25625 97.298549)
        (xy 141.74375 97.298549)
        (xy 141.642264 97.308545)
        (xy 141.596692 97.322369)
        (xy 141.59633 97.321176)
        (xy 141.559187 97.251687)
        (xy 141.509201 97.190779)
        (xy 141.493944 97.178258)
        (xy 141.023805 96.708119)
        (xy 141.026451 96.68125)
        (xy 141.026451 96.24375)
        (xy 141.016455 96.142264)
        (xy 140.986853 96.044678)
        (xy 140.938781 95.954742)
        (xy 140.874088 95.875912)
        (xy 140.795258 95.811219)
        (xy 140.705322 95.763147)
        (xy 140.607736 95.733545)
        (xy 140.50625 95.723549)
        (xy 139.99375 95.723549)
        (xy 139.892264 95.733545)
        (xy 139.794678 95.763147)
        (xy 139.704742 95.811219)
        (xy 139.625912 95.875912)
        (xy 139.561219 95.954742)
        (xy 139.513147 96.044678)
        (xy 139.483545 96.142264)
        (xy 139.473549 96.24375)
        (xy 139.473549 96.68125)
        (xy 139.483545 96.782736)
        (xy 139.513147 96.880322)
        (xy 139.561219 96.970258)
        (xy 139.625912 97.049088)
        (xy 139.704742 97.113781)
        (xy 139.794678 97.161853)
        (xy 139.892264 97.191455)
        (xy 139.99375 97.201451)
        (xy 140.385766 97.201451)
        (xy 140.482863 97.298549)
        (xy 139.99375 97.298549)
        (xy 139.892264 97.308545)
        (xy 139.794678 97.338147)
        (xy 139.704742 97.386219)
        (xy 139.625912 97.450912)
        (xy 139.561219 97.529742)
        (xy 139.513147 97.619678)
        (xy 139.483545 97.717264)
        (xy 139.473549 97.81875)
        (xy 139.473549 98.25625)
        (xy 139.483545 98.357736)
        (xy 139.513147 98.455322)
        (xy 139.561219 98.545258)
        (xy 139.625912 98.624088)
        (xy 139.704742 98.688781)
        (xy 139.794678 98.736853)
        (xy 139.805052 98.74)
        (xy 139.749998 98.74)
        (xy 139.749998 98.804998)
        (xy 139.685 98.74)
        (xy 139.65 98.738742)
        (xy 139.599031 98.743762)
        (xy 139.550021 98.758629)
        (xy 139.504853 98.782772)
        (xy 139.465263 98.815263)
        (xy 139.432772 98.854853)
        (xy 139.408629 98.900021)
        (xy 139.393762 98.949031)
        (xy 139.388742 99)
        (xy 139.39 99.835)
        (xy 139.455 99.9)
        (xy 139.75 99.9)
        (xy 139.75 99.88)
        (xy 139.95 99.88)
        (xy 139.95 99.9)
        (xy 139.97 99.9)
        (xy 139.97 100.1)
        (xy 139.95 100.1)
        (xy 139.95 101.195)
        (xy 140.015 101.26)
        (xy 140.05 101.261258)
        (xy 140.100969 101.256238)
        (xy 140.149979 101.241371)
        (xy 140.162842 101.234495)
        (xy 140.182523 101.250647)
        (xy 140.23464 101.278504)
        (xy 140.29119 101.295659)
        (xy 140.35 101.301451)
        (xy 140.75 101.301451)
        (xy 140.80881 101.295659)
        (xy 140.86536 101.278504)
        (xy 140.9 101.259989)
        (xy 140.93464 101.278504)
        (xy 140.99119 101.295659)
        (xy 141.05 101.301451)
        (xy 141.45 101.301451)
        (xy 141.50881 101.295659)
        (xy 141.56536 101.278504)
        (xy 141.6 101.259989)
        (xy 141.63464 101.278504)
        (xy 141.69119 101.295659)
        (xy 141.75 101.301451)
        (xy 142.15 101.301451)
        (xy 142.20881 101.295659)
        (xy 142.26536 101.278504)
        (xy 142.3 101.259989)
        (xy 142.33464 101.278504)
        (xy 142.39119 101.295659)
        (xy 142.45 101.301451)
        (xy 142.85 101.301451)
        (xy 142.90881 101.295659)
        (xy 142.950001 101.283163)
        (xy 142.950001 101.630343)
        (xy 142.948065 101.65)
        (xy 142.95 101.669646)
        (xy 142.950001 105.784284)
        (xy 141.584315 107.14997)
        (xy 138.691591 107.14997)
        (xy 138.671944 107.148035)
        (xy 138.652297 107.14997)
        (xy 138.59353 107.155758)
        (xy 138.51813 107.17863)
        (xy 138.448641 107.215773)
        (xy 138.387733 107.265759)
        (xy 138.375209 107.28102)
        (xy 137.565149 108.09108)
        (xy 137.549886 108.103606)
        (xy 137.4999 108.164515)
        (xy 137.462757 108.234004)
        (xy 137.439885 108.309403)
        (xy 137.439885 108.309404)
        (xy 137.432162 108.387817)
        (xy 137.434097 108.407464)
        (xy 137.434098 109.575387)
        (xy 137.432162 109.595043)
        (xy 137.439885 109.673456)
        (xy 137.462758 109.748857)
        (xy 137.4999 109.818345)
        (xy 137.537362 109.863993)
        (xy 137.537365 109.863996)
        (xy 137.549887 109.879254)
        (xy 137.565145 109.891776)
        (xy 139.192317 111.518948)
        (xy 139.204843 111.534211)
        (xy 139.220104 111.546735)
        (xy 139.265751 111.584197)
        (xy 139.33524 111.62134)
        (xy 139.41064 111.644212)
        (xy 139.489054 111.651935)
        (xy 139.508701 111.65)
        (xy 145.110935 111.65)
        (xy 145.170884 111.794729)
        (xy 145.296737 111.983082)
        (xy 145.456918 112.143263)
        (xy 145.645271 112.269116)
        (xy 145.854557 112.355806)
        (xy 146.076735 112.4)
        (xy 136.85 112.4)
        (xy 136.85 101)
        (xy 139.388742 101)
        (xy 139.393762 101.050969)
        (xy 139.408629 101.099979)
        (xy 139.432772 101.145147)
        (xy 139.465263 101.184737)
        (xy 139.504853 101.217228)
        (xy 139.550021 101.241371)
        (xy 139.599031 101.256238)
        (xy 139.65 101.261258)
        (xy 139.685 101.26)
        (xy 139.75 101.195)
        (xy 139.75 100.1)
        (xy 139.455 100.1)
        (xy 139.39 100.165)
        (xy 139.388742 101)
        (xy 136.85 101)
        (xy 136.85 88.85)
        (xy 163.150001 88.85)
      )
    )
  )
)
