(kicad_sch (version 20230121) (generator eeschema)

  (uuid 83a09eaa-780e-46d4-9732-6279ca723905)

  (paper "A4")

  (lib_symbols
    (symbol "Connector_Generic:Conn_01x02" (pin_names hide) (in_bom yes) (on_board yes)
      (property "Reference" "J" (at 0 2.54 0)
        (effects (font (size 1.27 1.27)))
      )
      (property "Value" "Conn_01x02" (at 0 -5.08 0)
        (effects (font (size 1.27 1.27)))
      )
      (property "Footprint" "" (at 0 0 0)
        (effects (font (size 1.27 1.27)) hide)
      )
      (property "Datasheet" "" (at 0 0 0)
        (effects (font (size 1.27 1.27)) hide)
      )
      (property "ki_keywords" "connector" (at 0 0 0)
        (effects (font (size 1.27 1.27)) hide)
      )
      (property "ki_description" "Generic connector, single row, 01x02, script generated (kicad-library-utils/schlib/autogen/connector/)" (at 0 0 0)
        (effects (font (size 1.27 1.27)) hide)
      )
      (property "ki_fp_filters" "Connector*:*_1x??_*" (at 0 0 0)
        (effects (font (size 1.27 1.27)) hide)
      )
      (symbol "Conn_01x02_1_1"
        (rectangle (start -1.27 -2.413) (end 0 -2.667)
          (stroke (width 0) (type default))
          (fill (type none))
        )
        (rectangle (start -1.27 0.127) (end 0 -0.127)
          (stroke (width 0) (type default))
          (fill (type none))
        )
        (rectangle (start -1.27 1.27) (end 1.27 -3.81)
          (stroke (width 0.254) (type default))
          (fill (type background))
        )
        (pin passive line (at -5.08 0 0) (length 3.81)
          (name "Pin_1" (effects (font (size 1.27 1.27))))
          (number "1" (effects (font (size 1.27 1.27))))
        )
        (pin passive line (at -5.08 -2.54 0) (length 3.81)
          (name "Pin_2" (effects (font (size 1.27 1.27))))
          (number "2" (effects (font (size 1.27 1.27))))
        )
      )
    )
    (symbol "Connector_Generic:Conn_02x08_Odd_Even" (pin_names hide) (in_bom yes) (on_board yes)
      (property "Reference" "J" (at 1.27 10.16 0)
        (effects (font (size 1.27 1.27)))
      )
      (property "Value" "Conn_02x08_Odd_Even" (at 1.27 -12.7 0)
        (effects (font (size 1.27 1.27)))
      )
      (property "Footprint" "" (at 0 0 0)
        (effects (font (size 1.27 1.27)) hide)
      )
      (property "Datasheet" "" (at 0 0 0)
        (effects (font (size 1.27 1.27)) hide)
      )
      (property "ki_keywords" "connector" (at 0 0 0)
        (effects (font (size 1.27 1.27)) hide)
      )
      (property "ki_description" "Generic connector, double row, 02x08, odd/even pin numbering scheme (row 1 odd numbers, row 2 even numbers), script generated (kicad-library-utils/schlib/autogen/connector/)" (at 0 0 0)
        (effects (font (size 1.27 1.27)) hide)
      )
      (property "ki_fp_filters" "Connector*:*_2x??_*" (at 0 0 0)
        (effects (font (size 1.27 1.27)) hide)
      )
      (symbol "Conn_02x08_Odd_Even_1_1"
        (rectangle (start -1.27 -10.033) (end 0 -10.287)
          (stroke (width 0) (type default))
          (fill (type none))
        )
        (rectangle (start -1.27 -7.493) (end 0 -7.747)
          (stroke (width 0) (type default))
          (fill (type none))
        )
        (rectangle (start -1.27 -4.953) (end 0 -5.207)
          (stroke (width 0) (type default))
          (fill (type none))
        )
        (rectangle (start -1.27 -2.413) (end 0 -2.667)
          (stroke (width 0) (type default))
          (fill (type none))
        )
        (rectangle (start -1.27 0.127) (end 0 -0.127)
          (stroke (width 0) (type default))
          (fill (type none))
        )
        (rectangle (start -1.27 2.667) (end 0 2.413)
          (stroke (width 0) (type default))
          (fill (type none))
        )
        (rectangle (start -1.27 5.207) (end 0 4.953)
          (stroke (width 0) (type default))
          (fill (type none))
        )
        (rectangle (start -1.27 7.747) (end 0 7.493)
          (stroke (width 0) (type default))
          (fill (type none))
        )
        (rectangle (start -1.27 8.89) (end 3.81 -11.43)
          (stroke (width 0.254) (type default))
          (fill (type background))
        )
        (rectangle (start 3.81 -10.033) (end 2.54 -10.287)
          (stroke (width 0) (type default))
          (fill (type none))
        )
        (rectangle (start 3.81 -7.493) (end 2.54 -7.747)
          (stroke (width 0) (type default))
          (fill (type none))
        )
        (rectangle (start 3.81 -4.953) (end 2.54 -5.207)
          (stroke (width 0) (type default))
          (fill (type none))
        )
        (rectangle (start 3.81 -2.413) (end 2.54 -2.667)
          (stroke (width 0) (type default))
          (fill (type none))
        )
        (rectangle (start 3.81 0.127) (end 2.54 -0.127)
          (stroke (width 0) (type default))
          (fill (type none))
        )
        (rectangle (start 3.81 2.667) (end 2.54 2.413)
          (stroke (width 0) (type default))
          (fill (type none))
        )
        (rectangle (start 3.81 5.207) (end 2.54 4.953)
          (stroke (width 0) (type default))
          (fill (type none))
        )
        (rectangle (start 3.81 7.747) (end 2.54 7.493)
          (stroke (width 0) (type default))
          (fill (type none))
        )
        (pin passive line (at -5.08 7.62 0) (length 3.81)
          (name "Pin_1" (effects (font (size 1.27 1.27))))
          (number "1" (effects (font (size 1.27 1.27))))
        )
        (pin passive line (at 7.62 -2.54 180) (length 3.81)
          (name "Pin_10" (effects (font (size 1.27 1.27))))
          (number "10" (effects (font (size 1.27 1.27))))
        )
        (pin passive line (at -5.08 -5.08 0) (length 3.81)
          (name "Pin_11" (effects (font (size 1.27 1.27))))
          (number "11" (effects (font (size 1.27 1.27))))
        )
        (pin passive line (at 7.62 -5.08 180) (length 3.81)
          (name "Pin_12" (effects (font (size 1.27 1.27))))
          (number "12" (effects (font (size 1.27 1.27))))
        )
        (pin passive line (at -5.08 -7.62 0) (length 3.81)
          (name "Pin_13" (effects (font (size 1.27 1.27))))
          (number "13" (effects (font (size 1.27 1.27))))
        )
        (pin passive line (at 7.62 -7.62 180) (length 3.81)
          (name "Pin_14" (effects (font (size 1.27 1.27))))
          (number "14" (effects (font (size 1.27 1.27))))
        )
        (pin passive line (at -5.08 -10.16 0) (length 3.81)
          (name "Pin_15" (effects (font (size 1.27 1.27))))
          (number "15" (effects (font (size 1.27 1.27))))
        )
        (pin passive line (at 7.62 -10.16 180) (length 3.81)
          (name "Pin_16" (effects (font (size 1.27 1.27))))
          (number "16" (effects (font (size 1.27 1.27))))
        )
        (pin passive line (at 7.62 7.62 180) (length 3.81)
          (name "Pin_2" (effects (font (size 1.27 1.27))))
          (number "2" (effects (font (size 1.27 1.27))))
        )
        (pin passive line (at -5.08 5.08 0) (length 3.81)
          (name "Pin_3" (effects (font (size 1.27 1.27))))
          (number "3" (effects (font (size 1.27 1.27))))
        )
        (pin passive line (at 7.62 5.08 180) (length 3.81)
          (name "Pin_4" (effects (font (size 1.27 1.27))))
          (number "4" (effects (font (size 1.27 1.27))))
        )
        (pin passive line (at -5.08 2.54 0) (length 3.81)
          (name "Pin_5" (effects (font (size 1.27 1.27))))
          (number "5" (effects (font (size 1.27 1.27))))
        )
        (pin passive line (at 7.62 2.54 180) (length 3.81)
          (name "Pin_6" (effects (font (size 1.27 1.27))))
          (number "6" (effects (font (size 1.27 1.27))))
        )
        (pin passive line (at -5.08 0 0) (length 3.81)
          (name "Pin_7" (effects (font (size 1.27 1.27))))
          (number "7" (effects (font (size 1.27 1.27))))
        )
        (pin passive line (at 7.62 0 180) (length 3.81)
          (name "Pin_8" (effects (font (size 1.27 1.27))))
          (number "8" (effects (font (size 1.27 1.27))))
        )
        (pin passive line (at -5.08 -2.54 0) (length 3.81)
          (name "Pin_9" (effects (font (size 1.27 1.27))))
          (number "9" (effects (font (size 1.27 1.27))))
        )
      )
    )
    (symbol "power:+5V" (power) (pin_names (offset 0)) (in_bom yes) (on_board yes)
      (property "Reference" "#PWR" (at 0 -3.81 0)
        (effects (font (size 1.27 1.27)) hide)
      )
      (property "Value" "+5V" (at 0 3.556 0)
        (effects (font (size 1.27 1.27)))
      )
      (property "Footprint" "" (at 0 0 0)
        (effects (font (size 1.27 1.27)) hide)
      )
      (property "Datasheet" "" (at 0 0 0)
        (effects (font (size 1.27 1.27)) hide)
      )
      (property "ki_keywords" "power-flag" (at 0 0 0)
        (effects (font (size 1.27 1.27)) hide)
      )
      (property "ki_description" "Power symbol creates a global label with name \"+5V\"" (at 0 0 0)
        (effects (font (size 1.27 1.27)) hide)
      )
      (symbol "+5V_0_1"
        (polyline
          (pts
            (xy -0.762 1.27)
            (xy 0 2.54)
          )
          (stroke (width 0) (type default))
          (fill (type none))
        )
        (polyline
          (pts
            (xy 0 0)
            (xy 0 2.54)
          )
          (stroke (width 0) (type default))
          (fill (type none))
        )
        (polyline
          (pts
            (xy 0 2.54)
            (xy 0.762 1.27)
          )
          (stroke (width 0) (type default))
          (fill (type none))
        )
      )
      (symbol "+5V_1_1"
        (pin power_in line (at 0 0 90) (length 0) hide
          (name "+5V" (effects (font (size 1.27 1.27))))
          (number "1" (effects (font (size 1.27 1.27))))
        )
      )
    )
    (symbol "power:GND" (power) (pin_names (offset 0)) (in_bom yes) (on_board yes)
      (property "Reference" "#PWR" (at 0 -6.35 0)
        (effects (font (size 1.27 1.27)) hide)
      )
      (property "Value" "GND" (at 0 -3.81 0)
        (effects (font (size 1.27 1.27)))
      )
      (property "Footprint" "" (at 0 0 0)
        (effects (font (size 1.27 1.27)) hide)
      )
      (property "Datasheet" "" (at 0 0 0)
        (effects (font (size 1.27 1.27)) hide)
      )
      (property "ki_keywords" "power-flag" (at 0 0 0)
        (effects (font (size 1.27 1.27)) hide)
      )
      (property "ki_description" "Power symbol creates a global label with name \"GND\" , ground" (at 0 0 0)
        (effects (font (size 1.27 1.27)) hide)
      )
      (symbol "GND_0_1"
        (polyline
          (pts
            (xy 0 0)
            (xy 0 -1.27)
            (xy 1.27 -1.27)
            (xy 0 -2.54)
            (xy -1.27 -1.27)
            (xy 0 -1.27)
          )
          (stroke (width 0) (type default))
          (fill (type none))
        )
      )
      (symbol "GND_1_1"
        (pin power_in line (at 0 0 270) (length 0) hide
          (name "GND" (effects (font (size 1.27 1.27))))
          (number "1" (effects (font (size 1.27 1.27))))
        )
      )
    )
  )

  (junction (at 120.65 118.11) (diameter 0) (color 0 0 0 0)
    (uuid f410456c-02f8-441d-8cd9-1f40c094ee51)
  )

  (polyline (pts (xy 97.79 97.79) (xy 153.67 97.79))
    (stroke (width 0) (type dash))
    (uuid 072a8325-393f-4137-94bf-f4d33a536b64)
  )

  (wire (pts (xy 92.71 107.95) (xy 91.44 107.95))
    (stroke (width 0) (type solid))
    (uuid 151bca82-c7ce-4d3d-99df-e2eebb372aaa)
  )
  (polyline (pts (xy 95.25 115.57) (xy 95.25 97.79))
    (stroke (width 0) (type dash))
    (uuid 1f183d52-e040-45c0-9716-960e05949e50)
  )
  (polyline (pts (xy 153.67 125.73) (xy 153.67 97.79))
    (stroke (width 0) (type dash))
    (uuid 300394a9-e18d-4c66-8a84-b1fa80fdde6f)
  )

  (wire (pts (xy 110.49 41.91) (xy 110.49 44.45))
    (stroke (width 0) (type solid))
    (uuid 302b7310-cd87-4449-8ff7-a4ca0064fd5c)
  )
  (wire (pts (xy 119.38 113.03) (xy 120.65 113.03))
    (stroke (width 0) (type default))
    (uuid 32645e91-95b4-4594-985e-1b27fe43e3c2)
  )
  (wire (pts (xy 64.77 41.91) (xy 64.77 46.99))
    (stroke (width 0) (type solid))
    (uuid 32e68c31-0dda-42de-9d62-5da3528ed149)
  )
  (polyline (pts (xy 24.13 95.25) (xy 153.67 95.25))
    (stroke (width 0) (type dash))
    (uuid 358321d5-d384-46e4-a14a-85447b261621)
  )

  (wire (pts (xy 97.79 67.31) (xy 97.79 64.77))
    (stroke (width 0) (type solid))
    (uuid 35fba868-4e21-4222-86b0-c33b5dc2e601)
  )
  (wire (pts (xy 82.55 67.31) (xy 82.55 62.23))
    (stroke (width 0) (type solid))
    (uuid 42edfd89-a8b3-406f-865c-bb460702b3b3)
  )
  (wire (pts (xy 33.02 41.91) (xy 33.02 44.45))
    (stroke (width 0) (type solid))
    (uuid 4e19cc99-7f91-40e9-a449-7ee48fa88f3e)
  )
  (wire (pts (xy 119.38 110.49) (xy 120.65 110.49))
    (stroke (width 0) (type default))
    (uuid 4eba843c-8f34-414e-8c86-38318483f0fe)
  )
  (wire (pts (xy 140.97 41.91) (xy 140.97 48.26))
    (stroke (width 0) (type solid))
    (uuid 538cab7d-dcf6-4745-ba49-2df8792ac86d)
  )
  (wire (pts (xy 36.83 67.31) (xy 36.83 64.77))
    (stroke (width 0) (type solid))
    (uuid 574442fe-95f5-4b14-b1c5-190b11081e25)
  )
  (wire (pts (xy 95.25 41.91) (xy 95.25 44.45))
    (stroke (width 0) (type solid))
    (uuid 578442e9-db64-45f8-b192-646b55d5d647)
  )
  (polyline (pts (xy 24.13 21.59) (xy 153.67 21.59))
    (stroke (width 0) (type dash))
    (uuid 57b0f85b-97b7-4241-b31b-33314a327166)
  )

  (wire (pts (xy 80.01 41.91) (xy 80.01 44.45))
    (stroke (width 0) (type solid))
    (uuid 6212068f-f674-489e-9e9c-ad073942cb1a)
  )
  (wire (pts (xy 143.51 64.77) (xy 143.51 67.31))
    (stroke (width 0) (type default))
    (uuid 63faee59-c068-4297-9da3-6f551e32dbeb)
  )
  (polyline (pts (xy 80.01 97.79) (xy 95.25 97.79))
    (stroke (width 0) (type dash))
    (uuid 669a9bab-39c9-41df-a357-c50aec9335cf)
  )
  (polyline (pts (xy 97.79 97.79) (xy 97.79 125.73))
    (stroke (width 0) (type dash))
    (uuid 6d8d7625-25c9-4864-8c68-f3213668bd28)
  )

  (wire (pts (xy 113.03 67.31) (xy 113.03 62.23))
    (stroke (width 0) (type solid))
    (uuid 71a9175e-d494-405e-adc2-22303644ac9b)
  )
  (wire (pts (xy 110.49 118.11) (xy 120.65 118.11))
    (stroke (width 0) (type solid))
    (uuid 73254f60-8c4e-4c7a-8f65-2338dfb34596)
  )
  (wire (pts (xy 120.65 118.11) (xy 135.89 118.11))
    (stroke (width 0) (type solid))
    (uuid 80c3ab77-2031-4351-88a1-06003c74d58d)
  )
  (wire (pts (xy 67.31 67.31) (xy 67.31 64.77))
    (stroke (width 0) (type solid))
    (uuid 8e30d963-27ad-4b0b-b28a-6a7324a1794f)
  )
  (wire (pts (xy 92.71 107.95) (xy 92.71 109.22))
    (stroke (width 0) (type solid))
    (uuid 90a2f0f6-0b76-4f9b-b3b5-2a9651b8fd34)
  )
  (polyline (pts (xy 24.13 21.59) (xy 24.13 95.25))
    (stroke (width 0) (type dash))
    (uuid 9a7ae00b-53fd-42d4-b167-1fb6ec673ad7)
  )

  (wire (pts (xy 128.27 64.77) (xy 128.27 67.31))
    (stroke (width 0) (type default))
    (uuid a9011bdc-3e9e-4bbb-a0a8-fc7f649d2201)
  )
  (polyline (pts (xy 80.01 115.57) (xy 95.25 115.57))
    (stroke (width 0) (type dash))
    (uuid a93c545e-874a-4dce-883c-71221c9264c2)
  )

  (wire (pts (xy 110.49 118.11) (xy 110.49 113.03))
    (stroke (width 0) (type solid))
    (uuid aa9ab5ba-f5d1-4bb3-bd67-124c97c7a628)
  )
  (wire (pts (xy 120.65 113.03) (xy 120.65 118.11))
    (stroke (width 0) (type default))
    (uuid bb6994e9-78c3-43b9-ad3a-96bf1d74aacf)
  )
  (wire (pts (xy 109.22 110.49) (xy 110.49 110.49))
    (stroke (width 0) (type solid))
    (uuid c06c2a41-f068-45f3-85ad-dab5ede7cb89)
  )
  (wire (pts (xy 135.89 118.11) (xy 135.89 119.38))
    (stroke (width 0) (type solid))
    (uuid c185ad4c-beb0-4bc7-9f08-23e9262c080f)
  )
  (wire (pts (xy 92.71 105.41) (xy 91.44 105.41))
    (stroke (width 0) (type solid))
    (uuid c76e9ace-c585-4aa0-aaab-543a698b7023)
  )
  (wire (pts (xy 48.26 41.91) (xy 48.26 44.45))
    (stroke (width 0) (type solid))
    (uuid cc158f7e-6333-4310-b275-6395a0f0e34e)
  )
  (polyline (pts (xy 97.79 125.73) (xy 153.67 125.73))
    (stroke (width 0) (type dash))
    (uuid cce55ec0-599c-4a03-908f-2272064bd3fc)
  )

  (wire (pts (xy 52.07 67.31) (xy 52.07 64.77))
    (stroke (width 0) (type solid))
    (uuid d8cabbe5-c139-4990-9c71-c5d3a2428158)
  )
  (polyline (pts (xy 80.01 97.79) (xy 80.01 115.57))
    (stroke (width 0) (type dash))
    (uuid d97bf8a3-9707-4eb1-a9aa-df242077d963)
  )

  (wire (pts (xy 125.73 41.91) (xy 125.73 46.99))
    (stroke (width 0) (type solid))
    (uuid d9b193ac-ce30-40ff-9459-703eb0731e4c)
  )
  (polyline (pts (xy 153.67 95.25) (xy 153.67 21.59))
    (stroke (width 0) (type dash))
    (uuid dd3c6b27-f5be-4e52-a7ef-c4480687a9f0)
  )

  (wire (pts (xy 109.22 113.03) (xy 110.49 113.03))
    (stroke (width 0) (type solid))
    (uuid f4c70d11-b795-44bb-8806-d2545c9f76f3)
  )
  (wire (pts (xy 92.71 104.14) (xy 92.71 105.41))
    (stroke (width 0) (type solid))
    (uuid f639d4cd-56a9-4165-98be-e6cba63c494d)
  )

  (text "Power IN" (at 80.01 115.57 0)
    (effects (font (size 1.27 1.27)) (justify left bottom))
    (uuid a1900872-a837-4dd3-b659-1034a7ee46cc)
  )
  (text "HUB75" (at 24.13 95.25 0)
    (effects (font (size 1.27 1.27)) (justify left bottom))
    (uuid a7b626d8-94ac-4322-afcb-e7b1261edce7)
  )
  (text "Target Voltage" (at 97.79 125.73 0)
    (effects (font (size 1.27 1.27)) (justify left bottom))
    (uuid c20ee42e-af79-4544-81e7-29bf775443f2)
  )

  (global_label "J7:0" (shape bidirectional) (at 113.03 29.21 90) (fields_autoplaced)
    (effects (font (size 1.1 1.1)) (justify left))
    (uuid 0043454f-1d6d-40af-a62a-401dcf1505d5)
    (property "Intersheetrefs" "${INTERSHEET_REFS}" (at 113.03 22.2051 90)
      (effects (font (size 1.27 1.27)) (justify left) hide)
    )
  )
  (global_label "J8:5" (shape bidirectional) (at 138.43 41.91 270) (fields_autoplaced)
    (effects (font (size 1.1 1.1)) (justify right))
    (uuid 05b02130-93a2-4009-a518-4313a62059b4)
    (property "Intersheetrefs" "${INTERSHEET_REFS}" (at 138.43 48.9149 90)
      (effects (font (size 1.27 1.27)) (justify right) hide)
    )
  )
  (global_label "J2:2" (shape bidirectional) (at 97.79 80.01 270) (fields_autoplaced)
    (effects (font (size 1.1 1.1)) (justify right))
    (uuid 07e76da5-377a-4510-8f5f-9415831b1406)
    (property "Intersheetrefs" "${INTERSHEET_REFS}" (at 97.79 87.0149 90)
      (effects (font (size 1.27 1.27)) (justify right) hide)
    )
  )
  (global_label "J5:2" (shape bidirectional) (at 48.26 29.21 90) (fields_autoplaced)
    (effects (font (size 1.1 1.1)) (justify left))
    (uuid 0904b323-a6ea-4f78-86cd-9e2c419f51a8)
    (property "Intersheetrefs" "${INTERSHEET_REFS}" (at 48.26 22.2051 90)
      (effects (font (size 1.27 1.27)) (justify left) hide)
    )
  )
  (global_label "J4:8" (shape bidirectional) (at 44.45 80.01 270) (fields_autoplaced)
    (effects (font (size 1.1 1.1)) (justify right))
    (uuid 095f5c99-873f-4870-bf72-1f9fb38d0b97)
    (property "Intersheetrefs" "${INTERSHEET_REFS}" (at 44.45 87.0149 90)
      (effects (font (size 1.27 1.27)) (justify right) hide)
    )
  )
  (global_label "J7:1" (shape bidirectional) (at 113.03 41.91 270) (fields_autoplaced)
    (effects (font (size 1.1 1.1)) (justify right))
    (uuid 0d026c65-f8f8-4ed4-afd6-2120fbb750c6)
    (property "Intersheetrefs" "${INTERSHEET_REFS}" (at 113.03 48.9149 90)
      (effects (font (size 1.27 1.27)) (justify right) hide)
    )
  )
  (global_label "SPI_CS" (shape input) (at 46.99 67.31 90) (fields_autoplaced)
    (effects (font (size 1 1)) (justify left))
    (uuid 0d90ed31-124c-4218-bad9-1c4c0f49f9a2)
    (property "Intersheetrefs" "${INTERSHEET_REFS}" (at 46.99 59.8168 90)
      (effects (font (size 1.27 1.27)) (justify left) hide)
    )
  )
  (global_label "J7:5" (shape bidirectional) (at 107.95 41.91 270) (fields_autoplaced)
    (effects (font (size 1.1 1.1)) (justify right))
    (uuid 0daf3ce7-4a6f-46e5-bf6a-da712a08b3c2)
    (property "Intersheetrefs" "${INTERSHEET_REFS}" (at 107.95 48.9149 90)
      (effects (font (size 1.27 1.27)) (justify right) hide)
    )
  )
  (global_label "J5:0" (shape bidirectional) (at 50.8 29.21 90) (fields_autoplaced)
    (effects (font (size 1.1 1.1)) (justify left))
    (uuid 0f99f89b-2460-4391-823c-3821756ecf37)
    (property "Intersheetrefs" "${INTERSHEET_REFS}" (at 50.8 22.2051 90)
      (effects (font (size 1.27 1.27)) (justify left) hide)
    )
  )
  (global_label "J4:1" (shape bidirectional) (at 34.29 67.31 90) (fields_autoplaced)
    (effects (font (size 1.1 1.1)) (justify left))
    (uuid 0fb57338-fc2f-4f61-a41e-bbcf08fb6f3b)
    (property "Intersheetrefs" "${INTERSHEET_REFS}" (at 34.29 60.3051 90)
      (effects (font (size 1.27 1.27)) (justify left) hide)
    )
  )
  (global_label "J6:5" (shape bidirectional) (at 77.47 41.91 270) (fields_autoplaced)
    (effects (font (size 1.1 1.1)) (justify right))
    (uuid 10bf9e5e-e393-4cb4-82ca-31314f1237cd)
    (property "Intersheetrefs" "${INTERSHEET_REFS}" (at 77.47 48.9149 90)
      (effects (font (size 1.27 1.27)) (justify right) hide)
    )
  )
  (global_label "J3:5" (shape bidirectional) (at 69.85 67.31 90) (fields_autoplaced)
    (effects (font (size 1.1 1.1)) (justify left))
    (uuid 1ef90f3f-820d-4081-9533-dd295049eaa0)
    (property "Intersheetrefs" "${INTERSHEET_REFS}" (at 69.85 60.3051 90)
      (effects (font (size 1.27 1.27)) (justify left) hide)
    )
  )
  (global_label "J7:2" (shape bidirectional) (at 110.49 29.21 90) (fields_autoplaced)
    (effects (font (size 1.1 1.1)) (justify left))
    (uuid 23a29450-ae67-4a10-9b98-0cf681eb62ad)
    (property "Intersheetrefs" "${INTERSHEET_REFS}" (at 110.49 22.2051 90)
      (effects (font (size 1.27 1.27)) (justify left) hide)
    )
  )
  (global_label "J1:0" (shape bidirectional) (at 125.73 80.01 270) (fields_autoplaced)
    (effects (font (size 1.1 1.1)) (justify right))
    (uuid 23d6a537-3329-4c07-96f4-efb49bf49a20)
    (property "Intersheetrefs" "${INTERSHEET_REFS}" (at 125.73 87.0149 90)
      (effects (font (size 1.27 1.27)) (justify right) hide)
    )
  )
  (global_label "J5:1" (shape bidirectional) (at 50.8 41.91 270) (fields_autoplaced)
    (effects (font (size 1.1 1.1)) (justify right))
    (uuid 2b330225-1f2a-4229-98e0-e7346acce100)
    (property "Intersheetrefs" "${INTERSHEET_REFS}" (at 50.8 48.9149 90)
      (effects (font (size 1.27 1.27)) (justify right) hide)
    )
  )
  (global_label "J4:0" (shape bidirectional) (at 34.29 80.01 270) (fields_autoplaced)
    (effects (font (size 1.1 1.1)) (justify right))
    (uuid 2f506523-b5a9-4948-86e2-f0dbdd817a5a)
    (property "Intersheetrefs" "${INTERSHEET_REFS}" (at 34.29 87.0149 90)
      (effects (font (size 1.27 1.27)) (justify right) hide)
    )
  )
  (global_label "SPI_MISO" (shape output) (at 49.53 80.01 270) (fields_autoplaced)
    (effects (font (size 1 1)) (justify right))
    (uuid 31aa5a13-3383-475b-b048-41b96ada13ef)
    (property "Intersheetrefs" "${INTERSHEET_REFS}" (at 49.53 89.1699 90)
      (effects (font (size 1.27 1.27)) (justify right) hide)
    )
  )
  (global_label "J4:6" (shape bidirectional) (at 41.91 80.01 270) (fields_autoplaced)
    (effects (font (size 1.1 1.1)) (justify right))
    (uuid 32f89fa0-56e2-428d-870e-4a58589978fc)
    (property "Intersheetrefs" "${INTERSHEET_REFS}" (at 41.91 87.0149 90)
      (effects (font (size 1.27 1.27)) (justify right) hide)
    )
  )
  (global_label "J6:1" (shape bidirectional) (at 82.55 41.91 270) (fields_autoplaced)
    (effects (font (size 1.1 1.1)) (justify right))
    (uuid 3d6bdedd-d9e4-49b4-9ac1-e6ca1aec84c2)
    (property "Intersheetrefs" "${INTERSHEET_REFS}" (at 82.55 48.9149 90)
      (effects (font (size 1.27 1.27)) (justify right) hide)
    )
  )
  (global_label "J6:6" (shape bidirectional) (at 74.93 29.21 90) (fields_autoplaced)
    (effects (font (size 1.1 1.1)) (justify left))
    (uuid 4fee94da-448a-4646-b8d4-7df63ffc3517)
    (property "Intersheetrefs" "${INTERSHEET_REFS}" (at 74.93 22.2051 90)
      (effects (font (size 1.27 1.27)) (justify left) hide)
    )
  )
  (global_label "J2:6" (shape bidirectional) (at 102.87 80.01 270) (fields_autoplaced)
    (effects (font (size 1.1 1.1)) (justify right))
    (uuid 5012d74b-4b9a-49ba-9842-a02b16f803db)
    (property "Intersheetrefs" "${INTERSHEET_REFS}" (at 102.87 87.0149 90)
      (effects (font (size 1.27 1.27)) (justify right) hide)
    )
  )
  (global_label "J8:6" (shape bidirectional) (at 135.89 29.21 90) (fields_autoplaced)
    (effects (font (size 1.1 1.1)) (justify left))
    (uuid 590ee2b8-b94f-49d5-b69c-306efe8fac41)
    (property "Intersheetrefs" "${INTERSHEET_REFS}" (at 135.89 22.2051 90)
      (effects (font (size 1.27 1.27)) (justify left) hide)
    )
  )
  (global_label "J5:4" (shape bidirectional) (at 45.72 29.21 90) (fields_autoplaced)
    (effects (font (size 1.1 1.1)) (justify left))
    (uuid 5d5a2473-dfe2-4b6c-a56b-8fa866082317)
    (property "Intersheetrefs" "${INTERSHEET_REFS}" (at 45.72 22.2051 90)
      (effects (font (size 1.27 1.27)) (justify left) hide)
    )
  )
  (global_label "J8:1" (shape bidirectional) (at 143.51 41.91 270) (fields_autoplaced)
    (effects (font (size 1.1 1.1)) (justify right))
    (uuid 5fc2dac9-f20e-48cf-8da0-fad38aa3b3bd)
    (property "Intersheetrefs" "${INTERSHEET_REFS}" (at 143.51 48.9149 90)
      (effects (font (size 1.27 1.27)) (justify right) hide)
    )
  )
  (global_label "J6:0" (shape bidirectional) (at 82.55 29.21 90) (fields_autoplaced)
    (effects (font (size 1.1 1.1)) (justify left))
    (uuid 64d6845e-d3af-4914-b0e6-65c1b7547294)
    (property "Intersheetrefs" "${INTERSHEET_REFS}" (at 82.55 22.2051 90)
      (effects (font (size 1.27 1.27)) (justify left) hide)
    )
  )
  (global_label "J3:0" (shape bidirectional) (at 64.77 80.01 270) (fields_autoplaced)
    (effects (font (size 1.1 1.1)) (justify right))
    (uuid 660adcd4-d827-4464-8b4e-06bae13c4d9e)
    (property "Intersheetrefs" "${INTERSHEET_REFS}" (at 64.77 87.0149 90)
      (effects (font (size 1.27 1.27)) (justify right) hide)
    )
  )
  (global_label "J3:1" (shape bidirectional) (at 64.77 67.31 90) (fields_autoplaced)
    (effects (font (size 1.1 1.1)) (justify left))
    (uuid 760d53b6-8695-457d-9f02-0d506c0c04e1)
    (property "Intersheetrefs" "${INTERSHEET_REFS}" (at 64.77 60.3051 90)
      (effects (font (size 1.27 1.27)) (justify left) hide)
    )
  )
  (global_label "J8:2" (shape bidirectional) (at 140.97 29.21 90) (fields_autoplaced)
    (effects (font (size 1.1 1.1)) (justify left))
    (uuid 77d9468c-8420-4ec2-abf3-b6d700e637f5)
    (property "Intersheetrefs" "${INTERSHEET_REFS}" (at 140.97 22.2051 90)
      (effects (font (size 1.27 1.27)) (justify left) hide)
    )
  )
  (global_label "J6:2" (shape bidirectional) (at 80.01 29.21 90) (fields_autoplaced)
    (effects (font (size 1.1 1.1)) (justify left))
    (uuid 7cac3992-993f-416d-a813-8592f85e763e)
    (property "Intersheetrefs" "${INTERSHEET_REFS}" (at 80.01 22.2051 90)
      (effects (font (size 1.27 1.27)) (justify left) hide)
    )
  )
  (global_label "J4:2" (shape bidirectional) (at 36.83 80.01 270) (fields_autoplaced)
    (effects (font (size 1.1 1.1)) (justify right))
    (uuid 80872c4c-6851-443e-ab70-5d5541046655)
    (property "Intersheetrefs" "${INTERSHEET_REFS}" (at 36.83 87.0149 90)
      (effects (font (size 1.27 1.27)) (justify right) hide)
    )
  )
  (global_label "J5:6" (shape bidirectional) (at 43.18 29.21 90) (fields_autoplaced)
    (effects (font (size 1.1 1.1)) (justify left))
    (uuid 8ac85e7a-3f0d-4978-81bc-0a21c89418b9)
    (property "Intersheetrefs" "${INTERSHEET_REFS}" (at 43.18 22.2051 90)
      (effects (font (size 1.27 1.27)) (justify left) hide)
    )
  )
  (global_label "J7:6" (shape bidirectional) (at 105.41 29.21 90) (fields_autoplaced)
    (effects (font (size 1.1 1.1)) (justify left))
    (uuid 90b485c8-66c8-4bff-85fd-c0aec6b6fea5)
    (property "Intersheetrefs" "${INTERSHEET_REFS}" (at 105.41 22.2051 90)
      (effects (font (size 1.27 1.27)) (justify left) hide)
    )
  )
  (global_label "J3:6" (shape bidirectional) (at 72.39 80.01 270) (fields_autoplaced)
    (effects (font (size 1.1 1.1)) (justify right))
    (uuid 996ce2ec-56f4-463f-bce8-7b4744ed9c2c)
    (property "Intersheetrefs" "${INTERSHEET_REFS}" (at 72.39 87.0149 90)
      (effects (font (size 1.27 1.27)) (justify right) hide)
    )
  )
  (global_label "J2:5" (shape bidirectional) (at 100.33 67.31 90) (fields_autoplaced)
    (effects (font (size 1.1 1.1)) (justify left))
    (uuid 9c889830-8137-4900-83b4-c2a844d5541e)
    (property "Intersheetrefs" "${INTERSHEET_REFS}" (at 100.33 60.3051 90)
      (effects (font (size 1.27 1.27)) (justify left) hide)
    )
  )
  (global_label "J7:4" (shape bidirectional) (at 107.95 29.21 90) (fields_autoplaced)
    (effects (font (size 1.1 1.1)) (justify left))
    (uuid 9d21ec04-e2ac-488c-8bd3-b4dc51015217)
    (property "Intersheetrefs" "${INTERSHEET_REFS}" (at 107.95 22.2051 90)
      (effects (font (size 1.27 1.27)) (justify left) hide)
    )
  )
  (global_label "J8:0" (shape bidirectional) (at 143.51 29.21 90) (fields_autoplaced)
    (effects (font (size 1.1 1.1)) (justify left))
    (uuid b441a8d2-cc04-40d4-80c5-592cb8b2a0c4)
    (property "Intersheetrefs" "${INTERSHEET_REFS}" (at 143.51 22.2051 90)
      (effects (font (size 1.27 1.27)) (justify left) hide)
    )
  )
  (global_label "SPI_CLCK" (shape input) (at 49.53 67.31 90) (fields_autoplaced)
    (effects (font (size 1 1)) (justify left))
    (uuid b5d885df-3a49-480d-abdb-040c0917c20c)
    (property "Intersheetrefs" "${INTERSHEET_REFS}" (at 49.53 57.9597 90)
      (effects (font (size 1.27 1.27)) (justify left) hide)
    )
  )
  (global_label "SPI_MOSI" (shape input) (at 52.07 80.01 270) (fields_autoplaced)
    (effects (font (size 1 1)) (justify right))
    (uuid b8123275-a7ff-4f81-896f-9dd6742de2f5)
    (property "Intersheetrefs" "${INTERSHEET_REFS}" (at 52.07 89.1699 90)
      (effects (font (size 1.27 1.27)) (justify right) hide)
    )
  )
  (global_label "J1:1" (shape bidirectional) (at 125.73 67.31 90) (fields_autoplaced)
    (effects (font (size 1.1 1.1)) (justify left))
    (uuid b8e999b3-d285-4c1a-a12e-5bd0adac9edb)
    (property "Intersheetrefs" "${INTERSHEET_REFS}" (at 125.73 60.3051 90)
      (effects (font (size 1.27 1.27)) (justify left) hide)
    )
  )
  (global_label "J6:4" (shape bidirectional) (at 77.47 29.21 90) (fields_autoplaced)
    (effects (font (size 1.1 1.1)) (justify left))
    (uuid c42a9d95-70f7-44cd-a8c7-34c50eee1a4a)
    (property "Intersheetrefs" "${INTERSHEET_REFS}" (at 77.47 22.2051 90)
      (effects (font (size 1.27 1.27)) (justify left) hide)
    )
  )
  (global_label "J3:4" (shape bidirectional) (at 69.85 80.01 270) (fields_autoplaced)
    (effects (font (size 1.1 1.1)) (justify right))
    (uuid c667060a-6de7-4600-ada1-1145b68bf587)
    (property "Intersheetrefs" "${INTERSHEET_REFS}" (at 69.85 87.0149 90)
      (effects (font (size 1.27 1.27)) (justify right) hide)
    )
  )
  (global_label "J4:7" (shape bidirectional) (at 41.91 67.31 90) (fields_autoplaced)
    (effects (font (size 1.1 1.1)) (justify left))
    (uuid c887aa4c-a3fa-4386-b72f-25e14bc12533)
    (property "Intersheetrefs" "${INTERSHEET_REFS}" (at 41.91 60.3051 90)
      (effects (font (size 1.27 1.27)) (justify left) hide)
    )
  )
  (global_label "J4:4" (shape bidirectional) (at 39.37 80.01 270) (fields_autoplaced)
    (effects (font (size 1.1 1.1)) (justify right))
    (uuid ca98e0d5-1607-47bb-b720-d704586e7ace)
    (property "Intersheetrefs" "${INTERSHEET_REFS}" (at 39.37 87.0149 90)
      (effects (font (size 1.27 1.27)) (justify right) hide)
    )
  )
  (global_label "J1:2" (shape bidirectional) (at 128.27 80.01 270) (fields_autoplaced)
    (effects (font (size 1.1 1.1)) (justify right))
    (uuid cfd2b3ec-b07a-472a-a6a0-6d121037b1fa)
    (property "Intersheetrefs" "${INTERSHEET_REFS}" (at 128.27 87.0149 90)
      (effects (font (size 1.27 1.27)) (justify right) hide)
    )
  )
  (global_label "J2:0" (shape bidirectional) (at 95.25 80.01 270) (fields_autoplaced)
    (effects (font (size 1.1 1.1)) (justify right))
    (uuid d9e48e77-f547-4534-b3e6-787910f4b07f)
    (property "Intersheetrefs" "${INTERSHEET_REFS}" (at 95.25 87.0149 90)
      (effects (font (size 1.27 1.27)) (justify right) hide)
    )
  )
  (global_label "J2:1" (shape bidirectional) (at 95.25 67.31 90) (fields_autoplaced)
    (effects (font (size 1.1 1.1)) (justify left))
    (uuid da10c603-40d5-486d-affb-d6811154d468)
    (property "Intersheetrefs" "${INTERSHEET_REFS}" (at 95.25 60.3051 90)
      (effects (font (size 1.27 1.27)) (justify left) hide)
    )
  )
  (global_label "J1:6" (shape bidirectional) (at 133.35 80.01 270) (fields_autoplaced)
    (effects (font (size 1.1 1.1)) (justify right))
    (uuid de2a7eb0-4088-4ba8-b4e6-bfe1bf38da8b)
    (property "Intersheetrefs" "${INTERSHEET_REFS}" (at 133.35 87.0149 90)
      (effects (font (size 1.27 1.27)) (justify right) hide)
    )
  )
  (global_label "ENA_IN" (shape output) (at 46.99 80.01 270) (fields_autoplaced)
    (effects (font (size 1 1)) (justify right))
    (uuid dfb66ae4-9c20-4bc2-a1fc-9d925cc44654)
    (property "Intersheetrefs" "${INTERSHEET_REFS}" (at 46.99 87.4555 90)
      (effects (font (size 1.27 1.27)) (justify right) hide)
    )
  )
  (global_label "J2:4" (shape bidirectional) (at 100.33 80.01 270) (fields_autoplaced)
    (effects (font (size 1.1 1.1)) (justify right))
    (uuid e2fbd4cb-7424-407e-ae93-b4ca89e39b9d)
    (property "Intersheetrefs" "${INTERSHEET_REFS}" (at 100.33 87.0149 90)
      (effects (font (size 1.27 1.27)) (justify right) hide)
    )
  )
  (global_label "J1:5" (shape bidirectional) (at 130.81 67.31 90) (fields_autoplaced)
    (effects (font (size 1.1 1.1)) (justify left))
    (uuid ea54c49b-81ed-4110-a2fc-899c829ab19f)
    (property "Intersheetrefs" "${INTERSHEET_REFS}" (at 130.81 60.3051 90)
      (effects (font (size 1.27 1.27)) (justify left) hide)
    )
  )
  (global_label "J4:5" (shape bidirectional) (at 39.37 67.31 90) (fields_autoplaced)
    (effects (font (size 1.1 1.1)) (justify left))
    (uuid ee5b26c0-755d-484c-b797-0026e3ca6093)
    (property "Intersheetrefs" "${INTERSHEET_REFS}" (at 39.37 60.3051 90)
      (effects (font (size 1.27 1.27)) (justify left) hide)
    )
  )
  (global_label "J1:4" (shape bidirectional) (at 130.81 80.01 270) (fields_autoplaced)
    (effects (font (size 1.1 1.1)) (justify right))
    (uuid efaa897c-7967-4da0-851d-9cc4cde72c61)
    (property "Intersheetrefs" "${INTERSHEET_REFS}" (at 130.81 87.0149 90)
      (effects (font (size 1.27 1.27)) (justify right) hide)
    )
  )
  (global_label "J5:5" (shape bidirectional) (at 45.72 41.91 270) (fields_autoplaced)
    (effects (font (size 1.1 1.1)) (justify right))
    (uuid f259a221-b6a4-4f7f-9348-1bcc1d997a0b)
    (property "Intersheetrefs" "${INTERSHEET_REFS}" (at 45.72 48.9149 90)
      (effects (font (size 1.27 1.27)) (justify right) hide)
    )
  )
  (global_label "J3:2" (shape bidirectional) (at 67.31 80.01 270) (fields_autoplaced)
    (effects (font (size 1.1 1.1)) (justify right))
    (uuid f57d1c0f-5732-4c1f-b7cc-f9bf5d508402)
    (property "Intersheetrefs" "${INTERSHEET_REFS}" (at 67.31 87.0149 90)
      (effects (font (size 1.27 1.27)) (justify right) hide)
    )
  )
  (global_label "J4:9" (shape bidirectional) (at 44.45 67.31 90) (fields_autoplaced)
    (effects (font (size 1.1 1.1)) (justify left))
    (uuid f696ee84-2abc-4463-98f7-388d2b0d6d86)
    (property "Intersheetrefs" "${INTERSHEET_REFS}" (at 44.45 60.3051 90)
      (effects (font (size 1.27 1.27)) (justify left) hide)
    )
  )
  (global_label "J8:4" (shape bidirectional) (at 138.43 29.21 90) (fields_autoplaced)
    (effects (font (size 1.1 1.1)) (justify left))
    (uuid fac2a008-0b61-4c51-8df5-ca1ff6207eb0)
    (property "Intersheetrefs" "${INTERSHEET_REFS}" (at 138.43 22.2051 90)
      (effects (font (size 1.27 1.27)) (justify left) hide)
    )
  )

  (symbol (lib_id "Connector_Generic:Conn_01x02") (at 86.36 105.41 0) (mirror y) (unit 1)
    (in_bom yes) (on_board yes) (dnp no) (fields_autoplaced)
    (uuid 04e25bcf-de90-41a2-bb9d-1bbaed2a1711)
    (property "Reference" "J17" (at 86.36 99.06 0)
      (effects (font (size 1.27 1.27)))
    )
    (property "Value" "Conn_01x02" (at 86.36 101.6 0)
      (effects (font (size 1.27 1.27)))
    )
    (property "Footprint" "Connector_Wire:SolderWire-0.5sqmm_1x02_P4.6mm_D0.9mm_OD2.1mm_Relief" (at 86.36 105.41 0)
      (effects (font (size 1.27 1.27)) hide)
    )
    (property "Datasheet" "~" (at 86.36 105.41 0)
      (effects (font (size 1.27 1.27)) hide)
    )
    (pin "1" (uuid b5623859-9bb4-4065-99de-a4faddbf34b8))
    (pin "2" (uuid 660bd3d0-a934-48c6-904e-f6a1501de70b))
    (instances
      (project "chubby-hat"
        (path "/4807f255-cede-4a86-b009-c3f93cadbbb8/cd3f7ea5-63a4-40ca-a998-c2430d7cb59c"
          (reference "J17") (unit 1)
        )
      )
      (project "HUB75HAT"
        (path "/d03ad006-987f-4980-aa86-8f7e7030b027/ddedc954-987e-49a5-be4a-196a3f503e33"
          (reference "J10") (unit 1)
        )
      )
    )
  )

  (symbol (lib_id "power:GND") (at 67.31 64.77 180) (unit 1)
    (in_bom yes) (on_board yes) (dnp no) (fields_autoplaced)
    (uuid 0e21d0f7-17d0-4775-975c-fc3a592e47c8)
    (property "Reference" "#PWR087" (at 67.31 58.42 0)
      (effects (font (size 1.27 1.27)) hide)
    )
    (property "Value" "GND" (at 67.31 59.69 0)
      (effects (font (size 1.27 1.27)))
    )
    (property "Footprint" "" (at 67.31 64.77 0)
      (effects (font (size 1.27 1.27)) hide)
    )
    (property "Datasheet" "" (at 67.31 64.77 0)
      (effects (font (size 1.27 1.27)) hide)
    )
    (pin "1" (uuid 7d3127b4-6553-4ec5-bebd-65e98c700b7d))
    (instances
      (project "chubby-hat"
        (path "/4807f255-cede-4a86-b009-c3f93cadbbb8/cd3f7ea5-63a4-40ca-a998-c2430d7cb59c"
          (reference "#PWR087") (unit 1)
        )
      )
      (project "HUB75HAT"
        (path "/d03ad006-987f-4980-aa86-8f7e7030b027/ddedc954-987e-49a5-be4a-196a3f503e33"
          (reference "#PWR049") (unit 1)
        )
      )
    )
  )

  (symbol (lib_id "power:GND") (at 64.77 46.99 0) (unit 1)
    (in_bom yes) (on_board yes) (dnp no) (fields_autoplaced)
    (uuid 278d417d-05d1-4a8f-ae35-06c7f8bfe0b8)
    (property "Reference" "#PWR072" (at 64.77 53.34 0)
      (effects (font (size 1.27 1.27)) hide)
    )
    (property "Value" "GND" (at 64.77 52.07 0)
      (effects (font (size 1.27 1.27)))
    )
    (property "Footprint" "" (at 64.77 46.99 0)
      (effects (font (size 1.27 1.27)) hide)
    )
    (property "Datasheet" "" (at 64.77 46.99 0)
      (effects (font (size 1.27 1.27)) hide)
    )
    (pin "1" (uuid 431659c6-8d87-49bf-912c-817a2948d289))
    (instances
      (project "chubby-hat"
        (path "/4807f255-cede-4a86-b009-c3f93cadbbb8/cd3f7ea5-63a4-40ca-a998-c2430d7cb59c"
          (reference "#PWR072") (unit 1)
        )
      )
      (project "HUB75HAT"
        (path "/d03ad006-987f-4980-aa86-8f7e7030b027/ddedc954-987e-49a5-be4a-196a3f503e33"
          (reference "#PWR034") (unit 1)
        )
      )
    )
  )

  (symbol (lib_id "power:GND") (at 92.71 109.22 0) (mirror y) (unit 1)
    (in_bom yes) (on_board yes) (dnp no) (fields_autoplaced)
    (uuid 3938fe6b-11cb-4b30-a794-dba05cfd0b8a)
    (property "Reference" "#PWR082" (at 92.71 115.57 0)
      (effects (font (size 1.27 1.27)) hide)
    )
    (property "Value" "GND" (at 92.71 114.3 0)
      (effects (font (size 1.27 1.27)))
    )
    (property "Footprint" "" (at 92.71 109.22 0)
      (effects (font (size 1.27 1.27)) hide)
    )
    (property "Datasheet" "" (at 92.71 109.22 0)
      (effects (font (size 1.27 1.27)) hide)
    )
    (pin "1" (uuid 48fbffa6-c258-4155-93cc-18f3f250619a))
    (instances
      (project "chubby-hat"
        (path "/4807f255-cede-4a86-b009-c3f93cadbbb8/cd3f7ea5-63a4-40ca-a998-c2430d7cb59c"
          (reference "#PWR082") (unit 1)
        )
      )
      (project "HUB75HAT"
        (path "/d03ad006-987f-4980-aa86-8f7e7030b027/ddedc954-987e-49a5-be4a-196a3f503e33"
          (reference "#PWR044") (unit 1)
        )
      )
    )
  )

  (symbol (lib_id "power:GND") (at 80.01 44.45 0) (unit 1)
    (in_bom yes) (on_board yes) (dnp no) (fields_autoplaced)
    (uuid 394a3193-341c-4d8d-811f-dad6cbfe7016)
    (property "Reference" "#PWR074" (at 80.01 50.8 0)
      (effects (font (size 1.27 1.27)) hide)
    )
    (property "Value" "GND" (at 80.01 49.53 0)
      (effects (font (size 1.27 1.27)))
    )
    (property "Footprint" "" (at 80.01 44.45 0)
      (effects (font (size 1.27 1.27)) hide)
    )
    (property "Datasheet" "" (at 80.01 44.45 0)
      (effects (font (size 1.27 1.27)) hide)
    )
    (pin "1" (uuid 4d30a6e7-d52c-457b-9d1f-7db22ca1a1ad))
    (instances
      (project "chubby-hat"
        (path "/4807f255-cede-4a86-b009-c3f93cadbbb8/cd3f7ea5-63a4-40ca-a998-c2430d7cb59c"
          (reference "#PWR074") (unit 1)
        )
      )
      (project "HUB75HAT"
        (path "/d03ad006-987f-4980-aa86-8f7e7030b027/ddedc954-987e-49a5-be4a-196a3f503e33"
          (reference "#PWR036") (unit 1)
        )
      )
    )
  )

  (symbol (lib_id "Connector_Generic:Conn_02x08_Odd_Even") (at 41.91 74.93 90) (unit 1)
    (in_bom yes) (on_board yes) (dnp no) (fields_autoplaced)
    (uuid 3c3ff244-f0d3-47aa-b6ae-9de4d90d4167)
    (property "Reference" "J23" (at 31.75 74.9301 90)
      (effects (font (size 1.27 1.27)) (justify left))
    )
    (property "Value" "HUB75" (at 31.75 72.3901 90)
      (effects (font (size 1.27 1.27)) (justify left))
    )
    (property "Footprint" "Connector_PinSocket_2.54mm:PinSocket_2x08_P2.54mm_Vertical" (at 41.91 74.93 0)
      (effects (font (size 1.27 1.27)) hide)
    )
    (property "Datasheet" "~" (at 41.91 74.93 0)
      (effects (font (size 1.27 1.27)) hide)
    )
    (pin "1" (uuid af5c6ffd-b33d-4750-bc38-3dcc905f75a7))
    (pin "10" (uuid cd8222e0-6418-4151-a16d-bde65aa910af))
    (pin "11" (uuid 235a604c-7ca8-4b37-af02-c604f913098d))
    (pin "12" (uuid b6abcad7-4c4b-45dd-8b2a-670ec323494e))
    (pin "13" (uuid 2311e1ea-384a-452f-9799-bf48736e2e9d))
    (pin "14" (uuid ea3c2df9-47ef-4c1d-a2ac-eb20422d6c3a))
    (pin "15" (uuid fea73b3d-37a7-4692-ba9b-2325a0964363))
    (pin "16" (uuid 36e697ae-733e-4fdd-9ced-7ff8477ac821))
    (pin "2" (uuid b5d397aa-ffe7-4d07-83a5-e2e0dc88d727))
    (pin "3" (uuid 48b522d0-4098-4dda-8b9b-14de7a2d58bb))
    (pin "4" (uuid ef69a2e1-318f-4957-be2a-02bf24bf76f0))
    (pin "5" (uuid 0e74a73a-2d8d-477c-adb3-443c9113aad8))
    (pin "6" (uuid b466abf2-094d-47f4-a57e-0e4004ed1fc9))
    (pin "7" (uuid 0eca4ff2-08d8-4f96-836e-0b56c6b718ae))
    (pin "8" (uuid ebe11ab8-b58e-4aca-8d4d-6a310011ac86))
    (pin "9" (uuid f64e0d4a-3c1b-4643-b814-c22152fad1a1))
    (instances
      (project "chubby-hat"
        (path "/4807f255-cede-4a86-b009-c3f93cadbbb8/cd3f7ea5-63a4-40ca-a998-c2430d7cb59c"
          (reference "J23") (unit 1)
        )
      )
      (project "HUB75HAT"
        (path "/d03ad006-987f-4980-aa86-8f7e7030b027/ddedc954-987e-49a5-be4a-196a3f503e33"
          (reference "J16") (unit 1)
        )
      )
    )
  )

  (symbol (lib_id "power:GND") (at 125.73 46.99 0) (unit 1)
    (in_bom yes) (on_board yes) (dnp no) (fields_autoplaced)
    (uuid 45e05da5-59e1-433e-bc96-bd60875a1abe)
    (property "Reference" "#PWR076" (at 125.73 53.34 0)
      (effects (font (size 1.27 1.27)) hide)
    )
    (property "Value" "GND" (at 125.73 52.07 0)
      (effects (font (size 1.27 1.27)))
    )
    (property "Footprint" "" (at 125.73 46.99 0)
      (effects (font (size 1.27 1.27)) hide)
    )
    (property "Datasheet" "" (at 125.73 46.99 0)
      (effects (font (size 1.27 1.27)) hide)
    )
    (pin "1" (uuid eb4811bc-f36b-497b-9842-752435cfb6d6))
    (instances
      (project "chubby-hat"
        (path "/4807f255-cede-4a86-b009-c3f93cadbbb8/cd3f7ea5-63a4-40ca-a998-c2430d7cb59c"
          (reference "#PWR076") (unit 1)
        )
      )
      (project "HUB75HAT"
        (path "/d03ad006-987f-4980-aa86-8f7e7030b027/ddedc954-987e-49a5-be4a-196a3f503e33"
          (reference "#PWR038") (unit 1)
        )
      )
    )
  )

  (symbol (lib_id "Connector_Generic:Conn_02x08_Odd_Even") (at 102.87 74.93 90) (unit 1)
    (in_bom yes) (on_board yes) (dnp no)
    (uuid 48a177f9-6778-4215-a2c4-1dfb823fab0c)
    (property "Reference" "J19" (at 119.38 72.39 90)
      (effects (font (size 1.27 1.27)) (justify left))
    )
    (property "Value" "HUB75" (at 121.92 74.93 90)
      (effects (font (size 1.27 1.27)) (justify left))
    )
    (property "Footprint" "Connector_PinSocket_2.54mm:PinSocket_2x08_P2.54mm_Vertical" (at 102.87 74.93 0)
      (effects (font (size 1.27 1.27)) hide)
    )
    (property "Datasheet" "~" (at 102.87 74.93 0)
      (effects (font (size 1.27 1.27)) hide)
    )
    (pin "1" (uuid 1b25fe24-8e2a-40ba-9f01-a86f9cff0a51))
    (pin "10" (uuid df7cb74e-1744-40ca-b2b8-294a63568486))
    (pin "11" (uuid 3fa51543-20da-4091-9656-9c1a73cc3ac0))
    (pin "12" (uuid 0e37f4c4-5a09-4f96-9c2e-3b2c9106aa0f))
    (pin "13" (uuid feddc6fd-75ad-4405-9b30-a4f47ca9b9ef))
    (pin "14" (uuid 5fe18bd4-e821-403f-b904-1c7c2a8cf8f2))
    (pin "15" (uuid 6fa2181e-f0c3-40fd-8c1b-31e9261a60ba))
    (pin "16" (uuid dd359772-737a-4559-a732-a18b99a1c8ce))
    (pin "2" (uuid 4476fa93-3eaf-401e-a9a0-e21f39eb832c))
    (pin "3" (uuid db762d65-20eb-45ab-a6da-f7b384439c86))
    (pin "4" (uuid eeaca295-b00d-4be0-b864-19a3488b916e))
    (pin "5" (uuid d368ea48-cc8e-4ff5-9094-bbb052e5e651))
    (pin "6" (uuid dcc2f6b0-6995-43b5-b671-93b342428e74))
    (pin "7" (uuid 957da767-d68f-44d7-88c3-82c98e64a2af))
    (pin "8" (uuid 10ac621a-2a7d-4557-996b-157b1503cd10))
    (pin "9" (uuid 22c20434-b3fb-4b9d-8a2b-0dfedfaecd46))
    (instances
      (project "chubby-hat"
        (path "/4807f255-cede-4a86-b009-c3f93cadbbb8/cd3f7ea5-63a4-40ca-a998-c2430d7cb59c"
          (reference "J19") (unit 1)
        )
      )
      (project "HUB75HAT"
        (path "/d03ad006-987f-4980-aa86-8f7e7030b027/ddedc954-987e-49a5-be4a-196a3f503e33"
          (reference "J12") (unit 1)
        )
      )
    )
  )

  (symbol (lib_id "power:+5V") (at 92.71 104.14 0) (mirror y) (unit 1)
    (in_bom yes) (on_board yes) (dnp no) (fields_autoplaced)
    (uuid 4dc4fa9f-593d-4e70-90a9-cb7aa1be7a9e)
    (property "Reference" "#PWR081" (at 92.71 107.95 0)
      (effects (font (size 1.27 1.27)) hide)
    )
    (property "Value" "+5V" (at 92.71 99.06 0)
      (effects (font (size 1.27 1.27)))
    )
    (property "Footprint" "" (at 92.71 104.14 0)
      (effects (font (size 1.27 1.27)) hide)
    )
    (property "Datasheet" "" (at 92.71 104.14 0)
      (effects (font (size 1.27 1.27)) hide)
    )
    (pin "1" (uuid c7531b5a-dc51-4480-a550-24fa5f1167cc))
    (instances
      (project "chubby-hat"
        (path "/4807f255-cede-4a86-b009-c3f93cadbbb8/cd3f7ea5-63a4-40ca-a998-c2430d7cb59c"
          (reference "#PWR081") (unit 1)
        )
      )
      (project "HUB75HAT"
        (path "/d03ad006-987f-4980-aa86-8f7e7030b027/ddedc954-987e-49a5-be4a-196a3f503e33"
          (reference "#PWR043") (unit 1)
        )
      )
    )
  )

  (symbol (lib_id "power:GND") (at 143.51 64.77 180) (unit 1)
    (in_bom yes) (on_board yes) (dnp no) (fields_autoplaced)
    (uuid 57d7c110-f5d8-4d8c-8d73-daa949897f91)
    (property "Reference" "#PWR085" (at 143.51 58.42 0)
      (effects (font (size 1.27 1.27)) hide)
    )
    (property "Value" "GND" (at 143.51 59.69 0)
      (effects (font (size 1.27 1.27)))
    )
    (property "Footprint" "" (at 143.51 64.77 0)
      (effects (font (size 1.27 1.27)) hide)
    )
    (property "Datasheet" "" (at 143.51 64.77 0)
      (effects (font (size 1.27 1.27)) hide)
    )
    (pin "1" (uuid c7339447-92a8-41d6-858e-d27199f0e2c9))
    (instances
      (project "chubby-hat"
        (path "/4807f255-cede-4a86-b009-c3f93cadbbb8/cd3f7ea5-63a4-40ca-a998-c2430d7cb59c"
          (reference "#PWR085") (unit 1)
        )
      )
      (project "HUB75HAT"
        (path "/d03ad006-987f-4980-aa86-8f7e7030b027/ddedc954-987e-49a5-be4a-196a3f503e33"
          (reference "#PWR047") (unit 1)
        )
      )
    )
  )

  (symbol (lib_id "power:GND") (at 52.07 64.77 180) (unit 1)
    (in_bom yes) (on_board yes) (dnp no) (fields_autoplaced)
    (uuid 59f2bed9-a58f-40bb-ad9e-4195a2e5fc81)
    (property "Reference" "#PWR086" (at 52.07 58.42 0)
      (effects (font (size 1.27 1.27)) hide)
    )
    (property "Value" "GND" (at 54.61 63.5001 0)
      (effects (font (size 1.27 1.27)) (justify right))
    )
    (property "Footprint" "" (at 52.07 64.77 0)
      (effects (font (size 1.27 1.27)) hide)
    )
    (property "Datasheet" "" (at 52.07 64.77 0)
      (effects (font (size 1.27 1.27)) hide)
    )
    (pin "1" (uuid 7c50fe3e-54d5-435e-8cef-c1f7b314fd2a))
    (instances
      (project "chubby-hat"
        (path "/4807f255-cede-4a86-b009-c3f93cadbbb8/cd3f7ea5-63a4-40ca-a998-c2430d7cb59c"
          (reference "#PWR086") (unit 1)
        )
      )
      (project "HUB75HAT"
        (path "/d03ad006-987f-4980-aa86-8f7e7030b027/ddedc954-987e-49a5-be4a-196a3f503e33"
          (reference "#PWR048") (unit 1)
        )
      )
    )
  )

  (symbol (lib_id "power:GND") (at 97.79 64.77 180) (unit 1)
    (in_bom yes) (on_board yes) (dnp no) (fields_autoplaced)
    (uuid 601e5441-5652-493c-adf7-2c307bc3603c)
    (property "Reference" "#PWR084" (at 97.79 58.42 0)
      (effects (font (size 1.27 1.27)) hide)
    )
    (property "Value" "GND" (at 97.79 59.69 0)
      (effects (font (size 1.27 1.27)))
    )
    (property "Footprint" "" (at 97.79 64.77 0)
      (effects (font (size 1.27 1.27)) hide)
    )
    (property "Datasheet" "" (at 97.79 64.77 0)
      (effects (font (size 1.27 1.27)) hide)
    )
    (pin "1" (uuid 8fd5de49-1164-4305-8c16-c83003901236))
    (instances
      (project "chubby-hat"
        (path "/4807f255-cede-4a86-b009-c3f93cadbbb8/cd3f7ea5-63a4-40ca-a998-c2430d7cb59c"
          (reference "#PWR084") (unit 1)
        )
      )
      (project "HUB75HAT"
        (path "/d03ad006-987f-4980-aa86-8f7e7030b027/ddedc954-987e-49a5-be4a-196a3f503e33"
          (reference "#PWR046") (unit 1)
        )
      )
    )
  )

  (symbol (lib_id "power:GND") (at 135.89 119.38 0) (mirror y) (unit 1)
    (in_bom yes) (on_board yes) (dnp no) (fields_autoplaced)
    (uuid 607b2a94-0786-418c-8f1e-ebb5b1d9b44e)
    (property "Reference" "#PWR089" (at 135.89 125.73 0)
      (effects (font (size 1.27 1.27)) hide)
    )
    (property "Value" "GND" (at 135.89 124.46 0)
      (effects (font (size 1.27 1.27)))
    )
    (property "Footprint" "" (at 135.89 119.38 0)
      (effects (font (size 1.27 1.27)) hide)
    )
    (property "Datasheet" "" (at 135.89 119.38 0)
      (effects (font (size 1.27 1.27)) hide)
    )
    (pin "1" (uuid ef3d4b87-5568-453f-966b-302a7e5c25e9))
    (instances
      (project "chubby-hat"
        (path "/4807f255-cede-4a86-b009-c3f93cadbbb8/cd3f7ea5-63a4-40ca-a998-c2430d7cb59c"
          (reference "#PWR089") (unit 1)
        )
      )
      (project "HUB75HAT"
        (path "/d03ad006-987f-4980-aa86-8f7e7030b027/ddedc954-987e-49a5-be4a-196a3f503e33"
          (reference "#PWR051") (unit 1)
        )
      )
    )
  )

  (symbol (lib_id "Connector_Generic:Conn_02x08_Odd_Even") (at 74.93 34.29 270) (unit 1)
    (in_bom yes) (on_board yes) (dnp no) (fields_autoplaced)
    (uuid 6263d7fb-1ce3-45a6-95e2-d196a593a45f)
    (property "Reference" "J12" (at 85.09 34.2899 90)
      (effects (font (size 1.27 1.27)) (justify left))
    )
    (property "Value" "HUB75" (at 85.09 36.8299 90)
      (effects (font (size 1.27 1.27)) (justify left))
    )
    (property "Footprint" "Connector_PinSocket_2.54mm:PinSocket_2x08_P2.54mm_Vertical" (at 74.93 34.29 0)
      (effects (font (size 1.27 1.27)) hide)
    )
    (property "Datasheet" "~" (at 74.93 34.29 0)
      (effects (font (size 1.27 1.27)) hide)
    )
    (pin "1" (uuid 4cebbb61-7f8c-4114-ae4c-9370505f4903))
    (pin "10" (uuid 8e483435-701c-4d89-878c-95a896c61587))
    (pin "11" (uuid 305d80e4-474d-4116-a4d3-826f3632a7ad))
    (pin "12" (uuid 53c97ed2-0796-459f-8493-39e42e6db3ba))
    (pin "13" (uuid d8eb2323-5147-4061-9a95-0bbeb78e86f2))
    (pin "14" (uuid fb25e2d5-5c4a-4b67-96e0-010806dabde4))
    (pin "15" (uuid da0a4e58-aa5c-4b23-b480-e924e7fc4c59))
    (pin "16" (uuid 145129d1-8c93-4052-8f76-313c9702e56c))
    (pin "2" (uuid d880b413-c27a-4047-acf6-9e3feec836e3))
    (pin "3" (uuid 095a6ed9-c73f-4374-99eb-e766196a030e))
    (pin "4" (uuid a9950fc4-22af-4775-bf73-27da7f6168a9))
    (pin "5" (uuid 481db76f-8ba7-4914-9363-10042d3c4d97))
    (pin "6" (uuid 63425e9c-97b6-494d-aa5f-ebc48953c32e))
    (pin "7" (uuid 5273e644-8872-45d9-ae4f-00f935829b35))
    (pin "8" (uuid a54ca898-d152-487b-bd54-f4598d87b0f0))
    (pin "9" (uuid b3eafb29-adee-4f9f-ba9e-10c1dc379d1b))
    (instances
      (project "chubby-hat"
        (path "/4807f255-cede-4a86-b009-c3f93cadbbb8/cd3f7ea5-63a4-40ca-a998-c2430d7cb59c"
          (reference "J12") (unit 1)
        )
      )
      (project "HUB75HAT"
        (path "/d03ad006-987f-4980-aa86-8f7e7030b027/ddedc954-987e-49a5-be4a-196a3f503e33"
          (reference "J5") (unit 1)
        )
      )
    )
  )

  (symbol (lib_id "power:GND") (at 48.26 44.45 0) (unit 1)
    (in_bom yes) (on_board yes) (dnp no) (fields_autoplaced)
    (uuid 8c968eec-dd42-46a9-a7a4-4f8849f23a41)
    (property "Reference" "#PWR073" (at 48.26 50.8 0)
      (effects (font (size 1.27 1.27)) hide)
    )
    (property "Value" "GND" (at 48.26 49.53 0)
      (effects (font (size 1.27 1.27)))
    )
    (property "Footprint" "" (at 48.26 44.45 0)
      (effects (font (size 1.27 1.27)) hide)
    )
    (property "Datasheet" "" (at 48.26 44.45 0)
      (effects (font (size 1.27 1.27)) hide)
    )
    (pin "1" (uuid 5e880e6d-3bce-4b71-bc4c-9ce8cd575a00))
    (instances
      (project "chubby-hat"
        (path "/4807f255-cede-4a86-b009-c3f93cadbbb8/cd3f7ea5-63a4-40ca-a998-c2430d7cb59c"
          (reference "#PWR073") (unit 1)
        )
      )
      (project "HUB75HAT"
        (path "/d03ad006-987f-4980-aa86-8f7e7030b027/ddedc954-987e-49a5-be4a-196a3f503e33"
          (reference "#PWR035") (unit 1)
        )
      )
    )
  )

  (symbol (lib_id "Connector_Generic:Conn_02x08_Odd_Even") (at 72.39 74.93 90) (unit 1)
    (in_bom yes) (on_board yes) (dnp no) (fields_autoplaced)
    (uuid 8ccecc11-5cb5-4e66-9495-934ae6121df8)
    (property "Reference" "J22" (at 85.09 72.3899 90)
      (effects (font (size 1.27 1.27)) (justify right))
    )
    (property "Value" "HUB75" (at 85.09 74.9299 90)
      (effects (font (size 1.27 1.27)) (justify right))
    )
    (property "Footprint" "Connector_PinSocket_2.54mm:PinSocket_2x08_P2.54mm_Vertical" (at 72.39 74.93 0)
      (effects (font (size 1.27 1.27)) hide)
    )
    (property "Datasheet" "~" (at 72.39 74.93 0)
      (effects (font (size 1.27 1.27)) hide)
    )
    (pin "1" (uuid 94c54d70-b672-44d8-a959-d6b39caa129c))
    (pin "10" (uuid 454fe091-6e5f-4f6a-93b5-966e128b7c7f))
    (pin "11" (uuid 87cd8b42-abd2-454e-97b5-e1cd770493b5))
    (pin "12" (uuid 5be75f96-3dd7-4534-b711-b81f084c3ceb))
    (pin "13" (uuid 611fc800-00ac-435d-9c10-d7973aecdece))
    (pin "14" (uuid 0a53d9dd-e6df-4c1b-b933-c2fe3722b9b9))
    (pin "15" (uuid 4ccd5cae-968d-4091-bc75-450d7f55a1c7))
    (pin "16" (uuid cdd5f878-fdfe-42f2-8ebd-2ad54b70b0d6))
    (pin "2" (uuid 0f54b57a-a494-4404-ac66-048a3ab1d44f))
    (pin "3" (uuid 31146e78-93dd-4d05-80d2-aa63b2a859fe))
    (pin "4" (uuid 841c1d81-ac39-4c3b-9416-5c7dcba5ed48))
    (pin "5" (uuid 863d8548-d203-4720-93d9-a716ea9ae734))
    (pin "6" (uuid a47ca0ad-b9f4-4e85-b233-255c240c5e3f))
    (pin "7" (uuid c7620305-26b4-4c76-b24b-42ffce5d797c))
    (pin "8" (uuid 5b3c991f-f675-4c89-8bf5-17365960f948))
    (pin "9" (uuid f59f56be-76e7-4b43-a24c-8787b49d3e14))
    (instances
      (project "chubby-hat"
        (path "/4807f255-cede-4a86-b009-c3f93cadbbb8/cd3f7ea5-63a4-40ca-a998-c2430d7cb59c"
          (reference "J22") (unit 1)
        )
      )
      (project "HUB75HAT"
        (path "/d03ad006-987f-4980-aa86-8f7e7030b027/ddedc954-987e-49a5-be4a-196a3f503e33"
          (reference "J15") (unit 1)
        )
      )
    )
  )

  (symbol (lib_id "power:GND") (at 140.97 48.26 0) (unit 1)
    (in_bom yes) (on_board yes) (dnp no) (fields_autoplaced)
    (uuid 8dce85ec-688c-485d-9f7e-a375ffd0a8de)
    (property "Reference" "#PWR078" (at 140.97 54.61 0)
      (effects (font (size 1.27 1.27)) hide)
    )
    (property "Value" "GND" (at 140.97 53.34 0)
      (effects (font (size 1.27 1.27)))
    )
    (property "Footprint" "" (at 140.97 48.26 0)
      (effects (font (size 1.27 1.27)) hide)
    )
    (property "Datasheet" "" (at 140.97 48.26 0)
      (effects (font (size 1.27 1.27)) hide)
    )
    (pin "1" (uuid 6dedff04-2249-40d8-82ab-1e92883301bb))
    (instances
      (project "chubby-hat"
        (path "/4807f255-cede-4a86-b009-c3f93cadbbb8/cd3f7ea5-63a4-40ca-a998-c2430d7cb59c"
          (reference "#PWR078") (unit 1)
        )
      )
      (project "HUB75HAT"
        (path "/d03ad006-987f-4980-aa86-8f7e7030b027/ddedc954-987e-49a5-be4a-196a3f503e33"
          (reference "#PWR040") (unit 1)
        )
      )
    )
  )

  (symbol (lib_id "power:GND") (at 82.55 62.23 180) (unit 1)
    (in_bom yes) (on_board yes) (dnp no) (fields_autoplaced)
    (uuid 94da684f-09b8-43c6-9f11-ef0ed553f950)
    (property "Reference" "#PWR091" (at 82.55 55.88 0)
      (effects (font (size 1.27 1.27)) hide)
    )
    (property "Value" "GND" (at 82.55 57.15 0)
      (effects (font (size 1.27 1.27)))
    )
    (property "Footprint" "" (at 82.55 62.23 0)
      (effects (font (size 1.27 1.27)) hide)
    )
    (property "Datasheet" "" (at 82.55 62.23 0)
      (effects (font (size 1.27 1.27)) hide)
    )
    (pin "1" (uuid 0b213cfb-4e3e-48f0-94a0-0b79d5c856ee))
    (instances
      (project "chubby-hat"
        (path "/4807f255-cede-4a86-b009-c3f93cadbbb8/cd3f7ea5-63a4-40ca-a998-c2430d7cb59c"
          (reference "#PWR091") (unit 1)
        )
      )
      (project "HUB75HAT"
        (path "/d03ad006-987f-4980-aa86-8f7e7030b027/ddedc954-987e-49a5-be4a-196a3f503e33"
          (reference "#PWR053") (unit 1)
        )
      )
    )
  )

  (symbol (lib_id "Connector_Generic:Conn_02x08_Odd_Even") (at 133.35 74.93 90) (unit 1)
    (in_bom yes) (on_board yes) (dnp no) (fields_autoplaced)
    (uuid a52c14a8-5b58-4d3a-8dbd-5eb6e41198e5)
    (property "Reference" "J18" (at 146.05 72.3899 90)
      (effects (font (size 1.27 1.27)) (justify right))
    )
    (property "Value" "HUB75" (at 146.05 74.9299 90)
      (effects (font (size 1.27 1.27)) (justify right))
    )
    (property "Footprint" "Connector_PinSocket_2.54mm:PinSocket_2x08_P2.54mm_Vertical" (at 133.35 74.93 0)
      (effects (font (size 1.27 1.27)) hide)
    )
    (property "Datasheet" "~" (at 133.35 74.93 0)
      (effects (font (size 1.27 1.27)) hide)
    )
    (pin "1" (uuid cb50a095-ea76-4a96-a794-d9a178caa560))
    (pin "10" (uuid 96c86d3e-4684-4ceb-8219-893fa45b2c21))
    (pin "11" (uuid 25d6fb27-fa39-4ec5-9ba9-067bb0b270ba))
    (pin "12" (uuid 1a1ad424-0c4c-48d4-9419-6fcdc95ba051))
    (pin "13" (uuid 9e964407-8363-4b05-b0a8-97433c723581))
    (pin "14" (uuid 01a051aa-e2ec-42ac-b99f-bf5f0013ba25))
    (pin "15" (uuid 6b667272-b1ee-4b1c-957e-02ba680dffbf))
    (pin "16" (uuid c926fc3c-5b15-4de7-bea9-ec8c9ca3768b))
    (pin "2" (uuid 675259f2-95e0-4073-ba10-64f38256ebd1))
    (pin "3" (uuid 978af057-cbf0-4e3e-a258-3145870abae2))
    (pin "4" (uuid 264ccfd6-f9a2-48ad-b31e-b87e24bae291))
    (pin "5" (uuid ff525827-0c19-403a-a358-8f4c4da3dc05))
    (pin "6" (uuid e61fe155-45a1-4f6b-9756-c1407576df8d))
    (pin "7" (uuid 2401f6b9-15f5-4269-af20-2270f792096a))
    (pin "8" (uuid 4e8a8fd7-57aa-4cba-8cc9-4d2cb24819be))
    (pin "9" (uuid 549f31ee-21e1-42eb-ae4e-d89505c59705))
    (instances
      (project "chubby-hat"
        (path "/4807f255-cede-4a86-b009-c3f93cadbbb8/cd3f7ea5-63a4-40ca-a998-c2430d7cb59c"
          (reference "J18") (unit 1)
        )
      )
      (project "HUB75HAT"
        (path "/d03ad006-987f-4980-aa86-8f7e7030b027/ddedc954-987e-49a5-be4a-196a3f503e33"
          (reference "J11") (unit 1)
        )
      )
    )
  )

  (symbol (lib_id "power:GND") (at 110.49 44.45 0) (unit 1)
    (in_bom yes) (on_board yes) (dnp no) (fields_autoplaced)
    (uuid a653c4d5-dfbd-4905-bfe2-35aa088ac362)
    (property "Reference" "#PWR077" (at 110.49 50.8 0)
      (effects (font (size 1.27 1.27)) hide)
    )
    (property "Value" "GND" (at 110.49 49.53 0)
      (effects (font (size 1.27 1.27)))
    )
    (property "Footprint" "" (at 110.49 44.45 0)
      (effects (font (size 1.27 1.27)) hide)
    )
    (property "Datasheet" "" (at 110.49 44.45 0)
      (effects (font (size 1.27 1.27)) hide)
    )
    (pin "1" (uuid f4c3be00-74f6-4434-ad26-07f144d5b57e))
    (instances
      (project "chubby-hat"
        (path "/4807f255-cede-4a86-b009-c3f93cadbbb8/cd3f7ea5-63a4-40ca-a998-c2430d7cb59c"
          (reference "#PWR077") (unit 1)
        )
      )
      (project "HUB75HAT"
        (path "/d03ad006-987f-4980-aa86-8f7e7030b027/ddedc954-987e-49a5-be4a-196a3f503e33"
          (reference "#PWR039") (unit 1)
        )
      )
    )
  )

  (symbol (lib_id "Connector_Generic:Conn_01x02") (at 114.3 113.03 180) (unit 1)
    (in_bom yes) (on_board yes) (dnp no) (fields_autoplaced)
    (uuid a9dd4ac0-10b6-4d28-a7c5-cb101af75746)
    (property "Reference" "J21" (at 114.3 104.14 0)
      (effects (font (size 1.27 1.27)))
    )
    (property "Value" "V8.0" (at 114.3 106.68 0)
      (effects (font (size 1.27 1.27)))
    )
    (property "Footprint" "Connector_PinHeader_2.54mm:PinHeader_1x02_P2.54mm_Vertical" (at 114.3 113.03 0)
      (effects (font (size 1.27 1.27)) hide)
    )
    (property "Datasheet" "~" (at 114.3 113.03 0)
      (effects (font (size 1.27 1.27)) hide)
    )
    (pin "1" (uuid 01eb8bf7-65cf-4ba0-8c87-468832e55e90))
    (pin "2" (uuid 9da4a1d1-e2d7-49a0-bfbe-5ff711c878bb))
    (instances
      (project "chubby-hat"
        (path "/4807f255-cede-4a86-b009-c3f93cadbbb8/cd3f7ea5-63a4-40ca-a998-c2430d7cb59c"
          (reference "J21") (unit 1)
        )
      )
      (project "HUB75HAT"
        (path "/d03ad006-987f-4980-aa86-8f7e7030b027/ddedc954-987e-49a5-be4a-196a3f503e33"
          (reference "J14") (unit 1)
        )
      )
    )
  )

  (symbol (lib_id "power:GND") (at 113.03 62.23 180) (unit 1)
    (in_bom yes) (on_board yes) (dnp no) (fields_autoplaced)
    (uuid b3ac93a3-a406-4296-91d4-d1f0d766d2c4)
    (property "Reference" "#PWR080" (at 113.03 55.88 0)
      (effects (font (size 1.27 1.27)) hide)
    )
    (property "Value" "GND" (at 113.03 57.15 0)
      (effects (font (size 1.27 1.27)))
    )
    (property "Footprint" "" (at 113.03 62.23 0)
      (effects (font (size 1.27 1.27)) hide)
    )
    (property "Datasheet" "" (at 113.03 62.23 0)
      (effects (font (size 1.27 1.27)) hide)
    )
    (pin "1" (uuid 8ad35e1e-fb4b-4f26-9759-1201d96d5156))
    (instances
      (project "chubby-hat"
        (path "/4807f255-cede-4a86-b009-c3f93cadbbb8/cd3f7ea5-63a4-40ca-a998-c2430d7cb59c"
          (reference "#PWR080") (unit 1)
        )
      )
      (project "HUB75HAT"
        (path "/d03ad006-987f-4980-aa86-8f7e7030b027/ddedc954-987e-49a5-be4a-196a3f503e33"
          (reference "#PWR042") (unit 1)
        )
      )
    )
  )

  (symbol (lib_id "Connector_Generic:Conn_01x02") (at 104.14 113.03 180) (unit 1)
    (in_bom yes) (on_board yes) (dnp no) (fields_autoplaced)
    (uuid c9c85350-30fd-4fba-954c-6afdca46020d)
    (property "Reference" "J20" (at 104.14 104.14 0)
      (effects (font (size 1.27 1.27)))
    )
    (property "Value" "V7.0" (at 104.14 106.68 0)
      (effects (font (size 1.27 1.27)))
    )
    (property "Footprint" "Connector_PinHeader_2.54mm:PinHeader_1x02_P2.54mm_Vertical" (at 104.14 113.03 0)
      (effects (font (size 1.27 1.27)) hide)
    )
    (property "Datasheet" "~" (at 104.14 113.03 0)
      (effects (font (size 1.27 1.27)) hide)
    )
    (pin "1" (uuid fb092373-7664-46f1-b74b-c7c8dfe09cd9))
    (pin "2" (uuid 4710bd51-55ff-4d10-8b6d-ef1c7e9d9c38))
    (instances
      (project "chubby-hat"
        (path "/4807f255-cede-4a86-b009-c3f93cadbbb8/cd3f7ea5-63a4-40ca-a998-c2430d7cb59c"
          (reference "J20") (unit 1)
        )
      )
      (project "HUB75HAT"
        (path "/d03ad006-987f-4980-aa86-8f7e7030b027/ddedc954-987e-49a5-be4a-196a3f503e33"
          (reference "J13") (unit 1)
        )
      )
    )
  )

  (symbol (lib_id "power:GND") (at 95.25 44.45 0) (unit 1)
    (in_bom yes) (on_board yes) (dnp no) (fields_autoplaced)
    (uuid ca7e8977-dea1-4ea5-bf43-d07ad2f5f506)
    (property "Reference" "#PWR079" (at 95.25 50.8 0)
      (effects (font (size 1.27 1.27)) hide)
    )
    (property "Value" "GND" (at 95.25 49.53 0)
      (effects (font (size 1.27 1.27)))
    )
    (property "Footprint" "" (at 95.25 44.45 0)
      (effects (font (size 1.27 1.27)) hide)
    )
    (property "Datasheet" "" (at 95.25 44.45 0)
      (effects (font (size 1.27 1.27)) hide)
    )
    (pin "1" (uuid d3cdd2d0-733e-4d71-bf87-33ac7eac76a3))
    (instances
      (project "chubby-hat"
        (path "/4807f255-cede-4a86-b009-c3f93cadbbb8/cd3f7ea5-63a4-40ca-a998-c2430d7cb59c"
          (reference "#PWR079") (unit 1)
        )
      )
      (project "HUB75HAT"
        (path "/d03ad006-987f-4980-aa86-8f7e7030b027/ddedc954-987e-49a5-be4a-196a3f503e33"
          (reference "#PWR041") (unit 1)
        )
      )
    )
  )

  (symbol (lib_id "Connector_Generic:Conn_02x08_Odd_Even") (at 43.18 34.29 270) (unit 1)
    (in_bom yes) (on_board yes) (dnp no)
    (uuid d62aacb8-9313-40ea-9c49-7410c0582a04)
    (property "Reference" "J11" (at 55.88 34.29 90)
      (effects (font (size 1.27 1.27)) (justify right))
    )
    (property "Value" "HUB75" (at 59.69 36.83 90)
      (effects (font (size 1.27 1.27)) (justify right))
    )
    (property "Footprint" "Connector_PinSocket_2.54mm:PinSocket_2x08_P2.54mm_Vertical" (at 43.18 34.29 0)
      (effects (font (size 1.27 1.27)) hide)
    )
    (property "Datasheet" "~" (at 43.18 34.29 0)
      (effects (font (size 1.27 1.27)) hide)
    )
    (pin "1" (uuid f2d11d56-7934-4ef2-a4e3-6abe2ff62bef))
    (pin "10" (uuid 241c5567-483f-4f92-844e-6b467f894269))
    (pin "11" (uuid 0b85527e-4ba9-40a4-88d1-f02ef68b3c83))
    (pin "12" (uuid 211644d3-4ae3-4ba6-a2b0-26906a26011a))
    (pin "13" (uuid ade7d29a-6886-4009-a47f-7ac5f0e15c78))
    (pin "14" (uuid abf04a6c-8805-42fc-a19b-c14634b2a7bb))
    (pin "15" (uuid 8ec02614-f9ad-4b81-a4a8-6a153d89fdc9))
    (pin "16" (uuid 7b4003b6-cfe5-412d-9e1a-160056e077b8))
    (pin "2" (uuid efaed51d-cf40-4c79-95e5-34696676cea9))
    (pin "3" (uuid fdf7bccf-f8ff-4115-b2f7-1a155866ff5f))
    (pin "4" (uuid 1e3e71c2-967c-49cd-8203-9e200d4100e0))
    (pin "5" (uuid 206d1e9e-3f05-4d60-aa74-26fdf4a195be))
    (pin "6" (uuid e6999c86-6733-4662-9963-cb12fa48f99f))
    (pin "7" (uuid 6db87b12-00e4-4ad3-8bc9-2306ed235a15))
    (pin "8" (uuid 71cf19e7-91de-4501-9ca8-7a4ad616a9d1))
    (pin "9" (uuid 4c113b27-a0cc-4784-b18a-9b9f719f702b))
    (instances
      (project "chubby-hat"
        (path "/4807f255-cede-4a86-b009-c3f93cadbbb8/cd3f7ea5-63a4-40ca-a998-c2430d7cb59c"
          (reference "J11") (unit 1)
        )
      )
      (project "HUB75HAT"
        (path "/d03ad006-987f-4980-aa86-8f7e7030b027/ddedc954-987e-49a5-be4a-196a3f503e33"
          (reference "J4") (unit 1)
        )
      )
    )
  )

  (symbol (lib_id "Connector_Generic:Conn_02x08_Odd_Even") (at 105.41 34.29 270) (unit 1)
    (in_bom yes) (on_board yes) (dnp no)
    (uuid db0736d8-32a9-457a-bfff-dac94ff6d465)
    (property "Reference" "J13" (at 118.11 34.29 90)
      (effects (font (size 1.27 1.27)) (justify right))
    )
    (property "Value" "HUB75" (at 121.92 36.83 90)
      (effects (font (size 1.27 1.27)) (justify right))
    )
    (property "Footprint" "Connector_PinSocket_2.54mm:PinSocket_2x08_P2.54mm_Vertical" (at 105.41 34.29 0)
      (effects (font (size 1.27 1.27)) hide)
    )
    (property "Datasheet" "~" (at 105.41 34.29 0)
      (effects (font (size 1.27 1.27)) hide)
    )
    (pin "1" (uuid d3ca57cc-dc72-4011-bcb7-d363a825e91d))
    (pin "10" (uuid 36d41bdb-3c03-4836-b03f-63dfde78640b))
    (pin "11" (uuid c760db4e-8d74-41d1-86b2-06db625b638d))
    (pin "12" (uuid 65ba6acb-b0bb-4f70-ba8f-c3ac88b04ceb))
    (pin "13" (uuid 5a44062a-82bf-4664-90e5-851b161d1587))
    (pin "14" (uuid 473627ae-ac83-4c78-9423-a082f8c6c49c))
    (pin "15" (uuid bff3f2d8-12c5-4a12-b055-66b22d059fd2))
    (pin "16" (uuid ab85f261-00f1-46f3-b52d-7448b0c44d94))
    (pin "2" (uuid cd6c5115-62dc-4320-b4bd-778a97955f42))
    (pin "3" (uuid 0069bbad-f0a8-467f-a153-3ccace550abe))
    (pin "4" (uuid 45d84944-8c6b-40f4-a5ef-3d777aa399b6))
    (pin "5" (uuid b2f8db47-3be6-4413-8b2f-ae03b315722f))
    (pin "6" (uuid a5157616-6dab-4730-9881-98ee30634355))
    (pin "7" (uuid 8edd715d-f1af-409a-8fc8-a5919b259a79))
    (pin "8" (uuid 0e6e6a47-bdf3-4bab-9593-636338827d0d))
    (pin "9" (uuid 8cf2a52f-1ee9-42bb-b6e6-a6ea8eb79c6c))
    (instances
      (project "chubby-hat"
        (path "/4807f255-cede-4a86-b009-c3f93cadbbb8/cd3f7ea5-63a4-40ca-a998-c2430d7cb59c"
          (reference "J13") (unit 1)
        )
      )
      (project "HUB75HAT"
        (path "/d03ad006-987f-4980-aa86-8f7e7030b027/ddedc954-987e-49a5-be4a-196a3f503e33"
          (reference "J6") (unit 1)
        )
      )
    )
  )

  (symbol (lib_id "power:GND") (at 128.27 64.77 180) (unit 1)
    (in_bom yes) (on_board yes) (dnp no) (fields_autoplaced)
    (uuid ea6ad2dd-1cce-4687-a024-8d1178875b0a)
    (property "Reference" "#PWR083" (at 128.27 58.42 0)
      (effects (font (size 1.27 1.27)) hide)
    )
    (property "Value" "GND" (at 128.27 59.69 0)
      (effects (font (size 1.27 1.27)))
    )
    (property "Footprint" "" (at 128.27 64.77 0)
      (effects (font (size 1.27 1.27)) hide)
    )
    (property "Datasheet" "" (at 128.27 64.77 0)
      (effects (font (size 1.27 1.27)) hide)
    )
    (pin "1" (uuid 05da97b2-f91d-4fcb-aced-a04399bdb3af))
    (instances
      (project "chubby-hat"
        (path "/4807f255-cede-4a86-b009-c3f93cadbbb8/cd3f7ea5-63a4-40ca-a998-c2430d7cb59c"
          (reference "#PWR083") (unit 1)
        )
      )
      (project "HUB75HAT"
        (path "/d03ad006-987f-4980-aa86-8f7e7030b027/ddedc954-987e-49a5-be4a-196a3f503e33"
          (reference "#PWR045") (unit 1)
        )
      )
    )
  )

  (symbol (lib_id "power:GND") (at 33.02 44.45 0) (unit 1)
    (in_bom yes) (on_board yes) (dnp no) (fields_autoplaced)
    (uuid ec4964dd-a478-4688-b5ca-61315d5a3b51)
    (property "Reference" "#PWR075" (at 33.02 50.8 0)
      (effects (font (size 1.27 1.27)) hide)
    )
    (property "Value" "GND" (at 33.02 49.53 0)
      (effects (font (size 1.27 1.27)))
    )
    (property "Footprint" "" (at 33.02 44.45 0)
      (effects (font (size 1.27 1.27)) hide)
    )
    (property "Datasheet" "" (at 33.02 44.45 0)
      (effects (font (size 1.27 1.27)) hide)
    )
    (pin "1" (uuid 7ef903ab-4b4a-403b-beac-270f6b843170))
    (instances
      (project "chubby-hat"
        (path "/4807f255-cede-4a86-b009-c3f93cadbbb8/cd3f7ea5-63a4-40ca-a998-c2430d7cb59c"
          (reference "#PWR075") (unit 1)
        )
      )
      (project "HUB75HAT"
        (path "/d03ad006-987f-4980-aa86-8f7e7030b027/ddedc954-987e-49a5-be4a-196a3f503e33"
          (reference "#PWR037") (unit 1)
        )
      )
    )
  )

  (symbol (lib_id "power:GND") (at 36.83 64.77 180) (unit 1)
    (in_bom yes) (on_board yes) (dnp no) (fields_autoplaced)
    (uuid ff6525a8-07e4-44ba-9286-1e4c33462929)
    (property "Reference" "#PWR090" (at 36.83 58.42 0)
      (effects (font (size 1.27 1.27)) hide)
    )
    (property "Value" "GND" (at 36.83 59.69 0)
      (effects (font (size 1.27 1.27)))
    )
    (property "Footprint" "" (at 36.83 64.77 0)
      (effects (font (size 1.27 1.27)) hide)
    )
    (property "Datasheet" "" (at 36.83 64.77 0)
      (effects (font (size 1.27 1.27)) hide)
    )
    (pin "1" (uuid 9e9dc712-7569-4dab-aae0-b2d5a819483b))
    (instances
      (project "chubby-hat"
        (path "/4807f255-cede-4a86-b009-c3f93cadbbb8/cd3f7ea5-63a4-40ca-a998-c2430d7cb59c"
          (reference "#PWR090") (unit 1)
        )
      )
      (project "HUB75HAT"
        (path "/d03ad006-987f-4980-aa86-8f7e7030b027/ddedc954-987e-49a5-be4a-196a3f503e33"
          (reference "#PWR052") (unit 1)
        )
      )
    )
  )

  (symbol (lib_id "Connector_Generic:Conn_02x08_Odd_Even") (at 135.89 34.29 270) (unit 1)
    (in_bom yes) (on_board yes) (dnp no) (fields_autoplaced)
    (uuid ff9fb244-f467-48ad-acf7-e17d434a3a91)
    (property "Reference" "J16" (at 146.05 34.2899 90)
      (effects (font (size 1.27 1.27)) (justify left))
    )
    (property "Value" "HUB75" (at 146.05 36.8299 90)
      (effects (font (size 1.27 1.27)) (justify left))
    )
    (property "Footprint" "Connector_PinSocket_2.54mm:PinSocket_2x08_P2.54mm_Vertical" (at 135.89 34.29 0)
      (effects (font (size 1.27 1.27)) hide)
    )
    (property "Datasheet" "~" (at 135.89 34.29 0)
      (effects (font (size 1.27 1.27)) hide)
    )
    (pin "1" (uuid d842e809-70f7-4f4f-8136-c2f3f46f7c6d))
    (pin "10" (uuid 1610ce8d-987b-4a33-baf9-2224e8698c4c))
    (pin "11" (uuid 21bf0080-c003-461a-929f-793b30138f63))
    (pin "12" (uuid 8ac4187d-632d-4f60-8da7-d8e893cb2cd7))
    (pin "13" (uuid 07c2022f-2460-4607-9b32-a122ea8d3971))
    (pin "14" (uuid 454b90c1-0fba-48a9-9c0a-9cb358448307))
    (pin "15" (uuid 81769939-80b4-42ca-9aed-87bf239b4b04))
    (pin "16" (uuid c2c6f4bc-d5c6-4c9c-8d1b-c0a742ec6ceb))
    (pin "2" (uuid 5c7492c2-6358-4c87-8cdd-96b62fde5412))
    (pin "3" (uuid feead75e-704b-4fb4-bcc1-7cc9e9397ece))
    (pin "4" (uuid acaf7a03-41ef-4d9a-b018-784a5ab70a57))
    (pin "5" (uuid 380e2018-b2f9-4524-b52d-c7153a999db6))
    (pin "6" (uuid 1702a069-a8df-41d3-b675-22becb9946fc))
    (pin "7" (uuid fd2a99e7-8d8b-49c1-a799-219eac17028a))
    (pin "8" (uuid 97bb9f0e-b2d0-4725-b568-00224815a6ab))
    (pin "9" (uuid aa482c17-63e9-4f2a-abdc-501b148d5ba1))
    (instances
      (project "chubby-hat"
        (path "/4807f255-cede-4a86-b009-c3f93cadbbb8/cd3f7ea5-63a4-40ca-a998-c2430d7cb59c"
          (reference "J16") (unit 1)
        )
      )
      (project "HUB75HAT"
        (path "/d03ad006-987f-4980-aa86-8f7e7030b027/ddedc954-987e-49a5-be4a-196a3f503e33"
          (reference "J9") (unit 1)
        )
      )
    )
  )
)
