(kicad_pcb (version 20221018) (generator pcbnew)

  (general
    (thickness 1.6)
  )

  (paper "A4")
  (layers
    (0 "F.Cu" signal)
    (31 "B.Cu" signal)
    (32 "B.Adhes" user "B.Adhesive")
    (33 "F.Adhes" user "F.Adhesive")
    (34 "B.Paste" user)
    (35 "F.Paste" user)
    (36 "B.SilkS" user "B.Silkscreen")
    (37 "F.SilkS" user "F.Silkscreen")
    (38 "B.Mask" user)
    (39 "F.Mask" user)
    (40 "Dwgs.User" user "User.Drawings")
    (41 "Cmts.User" user "User.Comments")
    (42 "Eco1.User" user "User.Eco1")
    (43 "Eco2.User" user "User.Eco2")
    (44 "Edge.Cuts" user)
    (45 "Margin" user)
    (46 "B.CrtYd" user "B.Courtyard")
    (47 "F.CrtYd" user "F.Courtyard")
    (48 "B.Fab" user)
    (49 "F.Fab" user)
  )

  (setup
    (pad_to_mask_clearance 0.051)
    (solder_mask_min_width 0.25)
    (pcbplotparams
      (layerselection 0x00010fc_ffffffff)
      (plot_on_all_layers_selection 0x0000000_00000000)
      (disableapertmacros false)
      (usegerberextensions false)
      (usegerberattributes false)
      (usegerberadvancedattributes false)
      (creategerberjobfile false)
      (dashed_line_dash_ratio 12.000000)
      (dashed_line_gap_ratio 3.000000)
      (svgprecision 4)
      (plotframeref false)
      (viasonmask false)
      (mode 1)
      (useauxorigin false)
      (hpglpennumber 1)
      (hpglpenspeed 20)
      (hpglpendiameter 15.000000)
      (dxfpolygonmode true)
      (dxfimperialunits true)
      (dxfusepcbnewfont true)
      (psnegative false)
      (psa4output false)
      (plotreference true)
      (plotvalue true)
      (plotinvisibletext false)
      (sketchpadsonfab false)
      (subtractmaskfromsilk false)
      (outputformat 1)
      (mirror false)
      (drillshape 1)
      (scaleselection 1)
      (outputdirectory "")
    )
  )

  (net 0 "")
  (net 1 "Net-(U3-Pad8)")
  (net 2 "/TBC2")
  (net 3 "Net-(U3-Pad6)")
  (net 4 "Net-(U3-Pad5)")
  (net 5 "Net-(U3-Pad4)")
  (net 6 "Net-(TP9-Pad1)")
  (net 7 "Net-(U3-Pad1)")
  (net 8 "VDD")
  (net 9 "Net-(U8-Pad4)")
  (net 10 "/TBC3")
  (net 11 "Net-(U8-Pad2)")
  (net 12 "Net-(U8-Pad1)")
  (net 13 "Net-(U9-Pad3)")
  (net 14 "Net-(U9-Pad2)")
  (net 15 "Net-(U9-Pad1)")
  (net 16 "Net-(U4-Pad16)")
  (net 17 "Net-(U4-Pad15)")
  (net 18 "Net-(U4-Pad13)")
  (net 19 "Net-(U4-Pad12)")
  (net 20 "Net-(U4-Pad11)")
  (net 21 "Net-(U4-Pad10)")
  (net 22 "Net-(U4-Pad8)")
  (net 23 "Net-(U4-Pad7)")
  (net 24 "Net-(U4-Pad5)")
  (net 25 "Net-(U4-Pad4)")
  (net 26 "Net-(U4-Pad3)")
  (net 27 "Net-(U4-Pad2)")
  (net 28 "Net-(U4-Pad6)")
  (net 29 "Net-(U4-Pad9)")
  (net 30 "Net-(U4-Pad14)")
  (net 31 "Net-(U1-Pad32)")
  (net 32 "Net-(R4-Pad1)")
  (net 33 "Net-(U1-Pad30)")
  (net 34 "Net-(U1-Pad29)")
  (net 35 "Net-(U1-Pad28)")
  (net 36 "Net-(U1-Pad27)")
  (net 37 "Net-(U1-Pad26)")
  (net 38 "Net-(U1-Pad25)")
  (net 39 "Net-(U1-Pad24)")
  (net 40 "Net-(U1-Pad23)")
  (net 41 "Net-(U1-Pad22)")
  (net 42 "Net-(U1-Pad21)")
  (net 43 "Net-(U1-Pad20)")
  (net 44 "Net-(U1-Pad19)")
  (net 45 "Net-(U1-Pad18)")
  (net 46 "Net-(U1-Pad17)")
  (net 47 "Net-(U1-Pad16)")
  (net 48 "Net-(U1-Pad15)")
  (net 49 "Net-(U1-Pad14)")
  (net 50 "Net-(U1-Pad13)")
  (net 51 "Net-(U1-Pad12)")
  (net 52 "Net-(U1-Pad11)")
  (net 53 "Net-(U1-Pad10)")
  (net 54 "Net-(U1-Pad9)")
  (net 55 "Net-(U1-Pad8)")
  (net 56 "Net-(U1-Pad7)")
  (net 57 "Net-(U1-Pad6)")
  (net 58 "Net-(U1-Pad5)")
  (net 59 "Net-(U1-Pad4)")
  (net 60 "Net-(U1-Pad3)")
  (net 61 "GND")
  (net 62 "Net-(U2-Pad65)")
  (net 63 "Net-(U2-Pad64)")
  (net 64 "Net-(U2-Pad63)")
  (net 65 "Net-(U2-Pad62)")
  (net 66 "Net-(U2-Pad60)")
  (net 67 "Net-(U2-Pad59)")
  (net 68 "Net-(U2-Pad58)")
  (net 69 "/RX")
  (net 70 "Net-(U2-Pad56)")
  (net 71 "/TX")
  (net 72 "Net-(U2-Pad53)")
  (net 73 "Net-(U2-Pad54)")
  (net 74 "Net-(U2-Pad52)")
  (net 75 "Net-(U2-Pad51)")
  (net 76 "Net-(U2-Pad50)")
  (net 77 "Net-(U2-Pad49)")
  (net 78 "Net-(U2-Pad48)")
  (net 79 "Net-(U2-Pad47)")
  (net 80 "Net-(U2-Pad46)")
  (net 81 "/TBC1")
  (net 82 "Net-(U2-Pad44)")
  (net 83 "Net-(U2-Pad43)")
  (net 84 "Net-(U2-Pad42)")
  (net 85 "Net-(U2-Pad41)")
  (net 86 "Net-(U2-Pad40)")
  (net 87 "Net-(U2-Pad39)")
  (net 88 "Net-(U2-Pad38)")
  (net 89 "Net-(U2-Pad37)")
  (net 90 "Net-(U2-Pad36)")
  (net 91 "Net-(U2-Pad33)")
  (net 92 "Net-(R12-Pad2)")
  (net 93 "Net-(R11-Pad2)")
  (net 94 "/~{RST}")
  (net 95 "Net-(U2-Pad31)")
  (net 96 "Net-(U2-Pad30)")
  (net 97 "Net-(U2-Pad29)")
  (net 98 "Net-(U2-Pad28)")
  (net 99 "Net-(U2-Pad27)")
  (net 100 "Net-(U2-Pad26)")
  (net 101 "Net-(U2-Pad25)")
  (net 102 "/BLUE_LED_EN")
  (net 103 "Net-(U2-Pad18)")
  (net 104 "/TCK_RED_LED_EN")
  (net 105 "/TMS")
  (net 106 "Net-(P?1-Pad9)")
  (net 107 "Net-(U2-Pad22)")
  (net 108 "Net-(U2-Pad23)")
  (net 109 "Net-(U2-Pad24)")
  (net 110 "Net-(U2-Pad16)")
  (net 111 "Net-(U2-Pad15)")
  (net 112 "Net-(U2-Pad14)")
  (net 113 "Net-(U2-Pad13)")
  (net 114 "Net-(U2-Pad12)")
  (net 115 "Net-(U2-Pad11)")
  (net 116 "Net-(U2-Pad10)")
  (net 117 "Net-(U2-Pad9)")
  (net 118 "Net-(U2-Pad1)")
  (net 119 "Net-(U2-Pad2)")
  (net 120 "Net-(U2-Pad3)")
  (net 121 "Net-(U2-Pad4)")
  (net 122 "Net-(U2-Pad5)")
  (net 123 "Net-(U2-Pad6)")
  (net 124 "Net-(U2-Pad7)")
  (net 125 "Net-(U2-Pad8)")
  (net 126 "Net-(R350-Pad1)")
  (net 127 "Net-(R351-Pad1)")
  (net 128 "Net-(R61-Pad2)")
  (net 129 "/GREEN_LED_EN")
  (net 130 "Net-(R62-Pad2)")
  (net 131 "Net-(R353-Pad1)")
  (net 132 "Net-(R65-Pad2)")

  (footprint "Package_SO:TSSOP-8_4.4x3mm_P0.65mm" (layer "F.Cu")
    (tstamp 00000000-0000-0000-0000-00005e3ae481)
    (at 146 127 180)
    (descr "8-Lead Plastic Thin Shrink Small Outline (ST)-4.4 mm Body [TSSOP] (see Microchip Packaging Specification 00000049BS.pdf)")
    (tags "SSOP 0.65")
    (path "/00000000-0000-0000-0000-00005e36d212")
    (attr smd)
    (fp_text reference "U3" (at 0 -2.55) (layer "F.SilkS")
        (effects (font (size 1 1) (thickness 0.15)))
      (tstamp e2dfa386-b52f-4d60-b829-4209d643bd24)
    )
    (fp_text value "IS25LQ032B-JNLE" (at 0 2.55) (layer "F.Fab")
        (effects (font (size 1 1) (thickness 0.15)))
      (tstamp abdbdf3f-163d-4237-b99e-18ef95b0ab6c)
    )
    (fp_text user "${REFERENCE}" (at 0 0) (layer "F.Fab")
        (effects (font (size 0.7 0.7) (thickness 0.15)))
      (tstamp b1364f38-376e-4ee9-bca5-1f351fea78a3)
    )
    (fp_line (start -2.325 -1.625) (end -2.325 -1.525)
      (stroke (width 0.15) (type solid)) (layer "F.SilkS") (tstamp 94cb8fbf-935d-4c27-8c40-03cc552d83b8))
    (fp_line (start -2.325 -1.625) (end 2.325 -1.625)
      (stroke (width 0.15) (type solid)) (layer "F.SilkS") (tstamp 0be8462d-581c-414d-8936-5d3900a77937))
    (fp_line (start -2.325 -1.525) (end -3.675 -1.525)
      (stroke (width 0.15) (type solid)) (layer "F.SilkS") (tstamp e64df4a2-6bdf-4c29-ae69-70d49b716f0e))
    (fp_line (start -2.325 1.625) (end -2.325 1.425)
      (stroke (width 0.15) (type solid)) (layer "F.SilkS") (tstamp 5904002d-b346-4f59-bd3b-0303d59e58b9))
    (fp_line (start -2.325 1.625) (end 2.325 1.625)
      (stroke (width 0.15) (type solid)) (layer "F.SilkS") (tstamp f074db1e-8281-47a0-9863-807878c6ffeb))
    (fp_line (start 2.325 -1.625) (end 2.325 -1.425)
      (stroke (width 0.15) (type solid)) (layer "F.SilkS") (tstamp 4d90c0dd-fb0a-479b-8157-9b85c9d9d1e0))
    (fp_line (start 2.325 1.625) (end 2.325 1.425)
      (stroke (width 0.15) (type solid)) (layer "F.SilkS") (tstamp a170c405-92a6-44f0-9f56-9ad169e30e2b))
    (fp_line (start -3.95 -1.8) (end -3.95 1.8)
      (stroke (width 0.05) (type solid)) (layer "F.CrtYd") (tstamp 435e2067-60f9-453d-bb01-1bc026f38108))
    (fp_line (start -3.95 -1.8) (end 3.95 -1.8)
      (stroke (width 0.05) (type solid)) (layer "F.CrtYd") (tstamp 94b8c5c4-943a-46bb-a25d-d53dc2ff40fb))
    (fp_line (start -3.95 1.8) (end 3.95 1.8)
      (stroke (width 0.05) (type solid)) (layer "F.CrtYd") (tstamp 434d45ca-b124-4448-be84-bbb78ced5b2a))
    (fp_line (start 3.95 -1.8) (end 3.95 1.8)
      (stroke (width 0.05) (type solid)) (layer "F.CrtYd") (tstamp 2e7050f9-e3f7-4df4-adbb-a4afc5c1727a))
    (fp_line (start -2.2 -0.5) (end -1.2 -1.5)
      (stroke (width 0.15) (type solid)) (layer "F.Fab") (tstamp 30ad42f7-d885-4e91-ae46-1405b29b10c9))
    (fp_line (start -2.2 1.5) (end -2.2 -0.5)
      (stroke (width 0.15) (type solid)) (layer "F.Fab") (tstamp 7704e4ff-633f-4eb2-946d-280ba4d0ba50))
    (fp_line (start -1.2 -1.5) (end 2.2 -1.5)
      (stroke (width 0.15) (type solid)) (layer "F.Fab") (tstamp 708ee6bb-a619-4a8c-989a-4950b2de32c0))
    (fp_line (start 2.2 -1.5) (end 2.2 1.5)
      (stroke (width 0.15) (type solid)) (layer "F.Fab") (tstamp fad486db-9685-495c-8dcc-10b075f3a2db))
    (fp_line (start 2.2 1.5) (end -2.2 1.5)
      (stroke (width 0.15) (type solid)) (layer "F.Fab") (tstamp 61db23f0-48f5-4b7d-b055-0ea09f629025))
    (pad "1" smd rect (at -2.95 -0.975 180) (size 1.45 0.45) (layers "F.Cu" "F.Paste" "F.Mask")
      (net 7 "Net-(U3-Pad1)") (tstamp 1f5f8f0b-4607-4c7a-8a02-53f403595bb9))
    (pad "2" smd rect (at -2.95 -0.325 180) (size 1.45 0.45) (layers "F.Cu" "F.Paste" "F.Mask")
      (net 6 "Net-(TP9-Pad1)") (tstamp e2bbb2e4-7bd7-4ab4-a2ae-949f59857309))
    (pad "3" smd rect (at -2.95 0.325 180) (size 1.45 0.45) (layers "F.Cu" "F.Paste" "F.Mask")
      (net 2 "/TBC2") (tstamp fe684eb8-e686-4357-b135-93e468263153))
    (pad "4" smd rect (at -2.95 0.975 180) (size 1.45 0.45) (layers "F.Cu" "F.Paste" "F.Mask")
      (net 5 "Net-(U3-Pad4)") (tstamp 94c5e42c-7de3-45f5-bbc1-67cdc7dcead2))
    (pad "5" smd rect (at 2.95 0.975 180) (size 1.45 0.45) (layers "F.Cu" "F.Paste" "F.Mask")
      (net 4 "Net-(U3-Pad5)") (tstamp da2f2a3e-9428-4416-a666-ea32fcd526f9))
    (pad "6" smd rect (at 2.95 0.325 180) (size 1.45 0.45) (layers "F.Cu" "F.Paste" "F.Mask")
      (net 3 "Net-(U3-Pad6)") (tstamp 13831cd0-1fa4-45b8-b86d-f500687b4c27))
    (pad "7" smd rect (at 2.95 -0.325 180) (size 1.45 0.45) (layers "F.Cu" "F.Paste" "F.Mask")
      (net 2 "/TBC2") (tstamp 64aceae1-2902-4d80-86a3-8ce5df99d56b))
    (pad "8" smd rect (at 2.95 -0.975 180) (size 1.45 0.45) (layers "F.Cu" "F.Paste" "F.Mask")
      (net 1 "Net-(U3-Pad8)") (tstamp 6f0c448c-d203-4801-aea6-312633f2b399))
    (model "${KISYS3DMOD}/Package_SO.3dshapes/TSSOP-8_4.4x3mm_P0.65mm.wrl"
      (offset (xyz 0 0 0))
      (scale (xyz 1 1 1))
      (rotate (xyz 0 0 0))
    )
  )

  (footprint "Package_TO_SOT_SMD:SOT-23-5" (layer "F.Cu")
    (tstamp 00000000-0000-0000-0000-00005e3ae496)
    (at 116.9 72.05 180)
    (descr "5-pin SOT23 package")
    (tags "SOT-23-5")
    (path "/00000000-0000-0000-0000-00005e3c2d05")
    (attr smd)
    (fp_text reference "U8" (at 0 -2.9) (layer "F.SilkS")
        (effects (font (size 1 1) (thickness 0.15)))
      (tstamp 0f2701b2-e297-47b9-909a-f2325e1c81ad)
    )
    (fp_text value "AP2112K-3.3" (at 0 2.9) (layer "F.Fab")
        (effects (font (size 1 1) (thickness 0.15)))
      (tstamp a3dabdf3-156a-43c8-a63d-037f3ff6f4fc)
    )
    (fp_text user "${REFERENCE}" (at 0 0 90) (layer "F.Fab")
        (effects (font (size 0.5 0.5) (thickness 0.075)))
      (tstamp 9db2da11-363e-4eef-8a77-1d1b3fcce48d)
    )
    (fp_line (start -0.9 1.61) (end 0.9 1.61)
      (stroke (width 0.12) (type solid)) (layer "F.SilkS") (tstamp 2775872f-face-41b7-aed4-b1afd5771dc8))
    (fp_line (start 0.9 -1.61) (end -1.55 -1.61)
      (stroke (width 0.12) (type solid)) (layer "F.SilkS") (tstamp 46fc8395-dbd8-4a3f-8bd4-b111e340680c))
    (fp_line (start -1.9 -1.8) (end 1.9 -1.8)
      (stroke (width 0.05) (type solid)) (layer "F.CrtYd") (tstamp 816d9244-6b0f-4af8-908f-cc68b73df3d6))
    (fp_line (start -1.9 1.8) (end -1.9 -1.8)
      (stroke (width 0.05) (type solid)) (layer "F.CrtYd") (tstamp 620d10cd-d6f7-4367-b6fd-67090dd18161))
    (fp_line (start 1.9 -1.8) (end 1.9 1.8)
      (stroke (width 0.05) (type solid)) (layer "F.CrtYd") (tstamp 95d0ca08-05a7-4dc0-a682-dd80e070f067))
    (fp_line (start 1.9 1.8) (end -1.9 1.8)
      (stroke (width 0.05) (type solid)) (layer "F.CrtYd") (tstamp e6e2593d-0719-4f9f-9582-141715d77299))
    (fp_line (start -0.9 -0.9) (end -0.9 1.55)
      (stroke (width 0.1) (type solid)) (layer "F.Fab") (tstamp d7194d93-4c2e-49b7-910b-2f32147da20e))
    (fp_line (start -0.9 -0.9) (end -0.25 -1.55)
      (stroke (width 0.1) (type solid)) (layer "F.Fab") (tstamp 5666ab6c-d664-4fb2-ba3a-49148d0d447b))
    (fp_line (start 0.9 -1.55) (end -0.25 -1.55)
      (stroke (width 0.1) (type solid)) (layer "F.Fab") (tstamp 4112b8dd-2922-4d04-978d-26e9941dc9de))
    (fp_line (start 0.9 -1.55) (end 0.9 1.55)
      (stroke (width 0.1) (type solid)) (layer "F.Fab") (tstamp fd825ded-18d6-46e8-a059-eb77c9f47114))
    (fp_line (start 0.9 1.55) (end -0.9 1.55)
      (stroke (width 0.1) (type solid)) (layer "F.Fab") (tstamp a1212af6-ac0f-47f5-ab06-8e4c381a9940))
    (pad "1" smd rect (at -1.1 -0.95 180) (size 1.06 0.65) (layers "F.Cu" "F.Paste" "F.Mask")
      (net 12 "Net-(U8-Pad1)") (tstamp 49879e32-f1d8-430f-a0d5-aa6aa7b5c319))
    (pad "2" smd rect (at -1.1 0 180) (size 1.06 0.65) (layers "F.Cu" "F.Paste" "F.Mask")
      (net 11 "Net-(U8-Pad2)") (tstamp 41af1d7b-edc3-42ea-bc26-cd71d26203d4))
    (pad "3" smd rect (at -1.1 0.95 180) (size 1.06 0.65) (layers "F.Cu" "F.Paste" "F.Mask")
      (net 10 "/TBC3") (tstamp 5f19804e-f136-42cf-8679-fe786a6de60d))
    (pad "4" smd rect (at 1.1 0.95 180) (size 1.06 0.65) (layers "F.Cu" "F.Paste" "F.Mask")
      (net 9 "Net-(U8-Pad4)") (tstamp 41df9bd3-374b-4b3f-be12-3d13057c8348))
    (pad "5" smd rect (at 1.1 -0.95 180) (size 1.06 0.65) (layers "F.Cu" "F.Paste" "F.Mask")
      (net 8 "VDD") (tstamp b74b3ba0-9fea-4b41-97bd-b26ddcf04037))
    (model "${KISYS3DMOD}/Package_TO_SOT_SMD.3dshapes/SOT-23-5.wrl"
      (offset (xyz 0 0 0))
      (scale (xyz 1 1 1))
      (rotate (xyz 0 0 0))
    )
  )

  (footprint "Package_TO_SOT_SMD:SOT-23" (layer "F.Cu")
    (tstamp 00000000-0000-0000-0000-00005e3ae4ab)
    (at 110 72 -90)
    (descr "SOT-23, Standard")
    (tags "SOT-23")
    (path "/00000000-0000-0000-0000-00005e3def43")
    (attr smd)
    (fp_text reference "U9" (at 0 -2.5 90) (layer "F.SilkS")
        (effects (font (size 1 1) (thickness 0.15)))
      (tstamp 8c20ff75-8d6c-4c9c-998c-59c8ce0c1d30)
    )
    (fp_text value "AP2120N-1.8" (at 0 2.5 90) (layer "F.Fab")
        (effects (font (size 1 1) (thickness 0.15)))
      (tstamp 1b190f45-abfc-49fe-a5d0-618f124559f5)
    )
    (fp_text user "${REFERENCE}" (at 0 0) (layer "F.Fab")
        (effects (font (size 0.5 0.5) (thickness 0.075)))
      (tstamp 6be7f451-0a92-41c1-83c8-81d57bff0219)
    )
    (fp_line (start 0.76 -1.58) (end -1.4 -1.58)
      (stroke (width 0.12) (type solid)) (layer "F.SilkS") (tstamp b0edbfe2-ce69-4359-aa17-90befdcaf9b4))
    (fp_line (start 0.76 -1.58) (end 0.76 -0.65)
      (stroke (width 0.12) (type solid)) (layer "F.SilkS") (tstamp d058f415-aaaf-4bef-bd2e-25fabec7bffc))
    (fp_line (start 0.76 1.58) (end -0.7 1.58)
      (stroke (width 0.12) (type solid)) (layer "F.SilkS") (tstamp b10dd0ee-5268-4dc1-bbce-f274a172948d))
    (fp_line (start 0.76 1.58) (end 0.76 0.65)
      (stroke (width 0.12) (type solid)) (layer "F.SilkS") (tstamp 21dc8062-3883-44f4-a87d-7880c21b2460))
    (fp_line (start -1.7 -1.75) (end 1.7 -1.75)
      (stroke (width 0.05) (type solid)) (layer "F.CrtYd") (tstamp 051b6dc0-5806-4a05-9a95-428c47800dcc))
    (fp_line (start -1.7 1.75) (end -1.7 -1.75)
      (stroke (width 0.05) (type solid)) (layer "F.CrtYd") (tstamp a89db8b3-6ab8-4d9f-bc2b-e192b139fd94))
    (fp_line (start 1.7 -1.75) (end 1.7 1.75)
      (stroke (width 0.05) (type solid)) (layer "F.CrtYd") (tstamp 8f6364c9-ecd1-4cd1-9314-c89991307c1f))
    (fp_line (start 1.7 1.75) (end -1.7 1.75)
      (stroke (width 0.05) (type solid)) (layer "F.CrtYd") (tstamp 25d42616-a8a2-4c70-a639-9bf6f456481c))
    (fp_line (start -0.7 -0.95) (end -0.7 1.5)
      (stroke (width 0.1) (type solid)) (layer "F.Fab") (tstamp 6a23184f-c220-4744-ae16-bb171e51a78c))
    (fp_line (start -0.7 -0.95) (end -0.15 -1.52)
      (stroke (width 0.1) (type solid)) (layer "F.Fab") (tstamp b4bb73f1-5d82-494a-bbff-d55837f164db))
    (fp_line (start -0.7 1.52) (end 0.7 1.52)
      (stroke (width 0.1) (type solid)) (layer "F.Fab") (tstamp 05a9a1dc-d07c-4387-8436-3c3a7f9ef9af))
    (fp_line (start -0.15 -1.52) (end 0.7 -1.52)
      (stroke (width 0.1) (type solid)) (layer "F.Fab") (tstamp 37773b7d-2970-4c47-ad53-2ec5ece501b6))
    (fp_line (start 0.7 -1.52) (end 0.7 1.52)
      (stroke (width 0.1) (type solid)) (layer "F.Fab") (tstamp 4305abb4-af32-44f8-8f08-c5b57d26ed20))
    (pad "1" smd rect (at -1 -0.95 270) (size 0.9 0.8) (layers "F.Cu" "F.Paste" "F.Mask")
      (net 15 "Net-(U9-Pad1)") (tstamp 5b81a712-ba05-44c2-ae29-05c06783bf67))
    (pad "2" smd rect (at -1 0.95 270) (size 0.9 0.8) (layers "F.Cu" "F.Paste" "F.Mask")
      (net 14 "Net-(U9-Pad2)") (tstamp 9fb3e4d9-c7c4-4cd6-aaaf-c02188c27b99))
    (pad "3" smd rect (at 1 0 270) (size 0.9 0.8) (layers "F.Cu" "F.Paste" "F.Mask")
      (net 13 "Net-(U9-Pad3)") (tstamp 726031bb-72d5-49b4-a4e6-c62c9fa38331))
    (model "${KISYS3DMOD}/Package_TO_SOT_SMD.3dshapes/SOT-23.wrl"
      (offset (xyz 0 0 0))
      (scale (xyz 1 1 1))
      (rotate (xyz 0 0 0))
    )
  )

  (footprint "digikey-footprints:VQFN-16_3x3mm" (layer "F.Cu")
    (tstamp 00000000-0000-0000-0000-00005e3d39e5)
    (at 140 68)
    (path "/00000000-0000-0000-0000-00005e3d8f7e")
    (attr smd)
    (fp_text reference "U4" (at 0 -2.9) (layer "F.SilkS")
        (effects (font (size 1 1) (thickness 0.15)))
      (tstamp 9ff890ba-eb1b-488e-863f-6e6df5ca0b59)
    )
    (fp_text value "MMA8451QT" (at 0 3.1) (layer "F.Fab")
        (effects (font (size 1 1) (thickness 0.15)))
      (tstamp d9bb7537-ad07-432c-adfb-6b6bb48e1e56)
    )
    (fp_text user "${REFERENCE}" (at 0 0) (layer "F.Fab")
        (effects (font (size 0.5 0.5) (thickness 0.05)))
      (tstamp 4fc16810-5630-4d1c-bfab-1402124c4986)
    )
    (fp_line (start -1.6 -1.3) (end -1.8 -1.3)
      (stroke (width 0.1) (type solid)) (layer "F.SilkS") (tstamp d9cc6640-bc33-4b73-b93c-89b9f06ee097))
    (fp_line (start -1.6 1.6) (end -1.6 1.3)
      (stroke (width 0.1) (type solid)) (layer "F.SilkS") (tstamp 28b0a267-c161-41c1-85e2-6b5334bb1eb3))
    (fp_line (start -1.6 1.6) (end -1.3 1.6)
      (stroke (width 0.1) (type solid)) (layer "F.SilkS") (tstamp f699ef6e-0e9a-485d-b777-cdd089b92ea9))
    (fp_line (start -1.3 -1.6) (end -1.6 -1.3)
      (stroke (width 0.1) (type solid)) (layer "F.SilkS") (tstamp eeb12414-dfae-461f-a96d-f3096891f4ef))
    (fp_line (start -1 -1.6) (end -1.3 -1.6)
      (stroke (width 0.1) (type solid)) (layer "F.SilkS") (tstamp 1649683a-e929-4b97-a84a-e6575c5d2176))
    (fp_line (start 1.6 -1.6) (end 1.3 -1.6)
      (stroke (width 0.1) (type solid)) (layer "F.SilkS") (tstamp cbc8a692-76b5-41d3-88f1-9f6276e5ce25))
    (fp_line (start 1.6 -1.6) (end 1.6 -1.3)
      (stroke (width 0.1) (type solid)) (layer "F.SilkS") (tstamp 53f4e0eb-5120-43e0-b77a-799ac5e3375d))
    (fp_line (start 1.6 1.6) (end 1.3 1.6)
      (stroke (width 0.1) (type solid)) (layer "F.SilkS") (tstamp 262290fb-2832-4637-a41b-faedefe2d878))
    (fp_line (start 1.6 1.6) (end 1.6 1.3)
      (stroke (width 0.1) (type solid)) (layer "F.SilkS") (tstamp 54443bf8-92ff-4281-9095-eebb769e53a0))
    (fp_line (start -1.93 -1.93) (end -1.93 1.93)
      (stroke (width 0.05) (type solid)) (layer "F.CrtYd") (tstamp cb28db8c-01e5-4e75-9768-b504fce87d98))
    (fp_line (start -1.93 -1.93) (end 1.93 -1.93)
      (stroke (width 0.05) (type solid)) (layer "F.CrtYd") (tstamp d0bd24de-0b90-4aa2-80a4-00acfbf875ef))
    (fp_line (start -1.93 1.93) (end 1.93 1.93)
      (stroke (width 0.05) (type solid)) (layer "F.CrtYd") (tstamp 28ac2217-5cca-4995-a019-37b1ff9a7034))
    (fp_line (start 1.93 -1.93) (end 1.93 1.93)
      (stroke (width 0.05) (type solid)) (layer "F.CrtYd") (tstamp 8a2fabff-7f8e-4c77-9918-e7af3ca16278))
    (fp_line (start -1.5 -1.2) (end -1.5 1.5)
      (stroke (width 0.1) (type solid)) (layer "F.Fab") (tstamp 38e79b22-9e0d-4237-9a19-dce40c691244))
    (fp_line (start -1.5 -1.2) (end -1.2 -1.5)
      (stroke (width 0.1) (type solid)) (layer "F.Fab") (tstamp b0343501-0849-494c-8cf3-309290b5d336))
    (fp_line (start -1.2 -1.5) (end 1.5 -1.5)
      (stroke (width 0.1) (type solid)) (layer "F.Fab") (tstamp 3b4637a2-d81e-48b8-98e7-d71832ca2b98))
    (fp_line (start 1.5 1.5) (end -1.5 1.5)
      (stroke (width 0.1) (type solid)) (layer "F.Fab") (tstamp 45d257d4-cd15-4729-9b41-ba1143917cf3))
    (fp_line (start 1.5 1.5) (end 1.5 -1.5)
      (stroke (width 0.1) (type solid)) (layer "F.Fab") (tstamp db3b0267-e69d-4285-9d6d-5dc39c931639))
    (pad "1" smd rect (at -1.275 -1) (size 0.813 0.305) (layers "F.Cu" "F.Paste" "F.Mask")
      (net 8 "VDD") (tstamp 4efd7f20-84bc-433d-9006-e75b47d07a9e))
    (pad "2" smd rect (at -1.275 -0.5) (size 0.813 0.305) (layers "F.Cu" "F.Paste" "F.Mask")
      (net 27 "Net-(U4-Pad2)") (tstamp c3299fe6-83c2-45e4-92eb-4dea9981689c))
    (pad "3" smd rect (at -1.275 0) (size 0.813 0.305) (layers "F.Cu" "F.Paste" "F.Mask")
      (net 26 "Net-(U4-Pad3)") (tstamp 245239a1-44bd-4e50-9b9e-65872fbf941c))
    (pad "4" smd rect (at -1.275 0.5) (size 0.813 0.305) (layers "F.Cu" "F.Paste" "F.Mask")
      (net 25 "Net-(U4-Pad4)") (tstamp 288b3180-0b47-4f24-889c-a2d8d1aaabcd))
    (pad "5" smd rect (at -1.275 1) (size 0.813 0.305) (layers "F.Cu" "F.Paste" "F.Mask")
      (net 24 "Net-(U4-Pad5)") (tstamp 442b3af6-b8af-4f4e-b648-c62f226d2dbc))
    (pad "6" smd rect (at -0.5 1.275) (size 0.305 0.813) (layers "F.Cu" "F.Paste" "F.Mask")
      (net 28 "Net-(U4-Pad6)") (tstamp cad8fd6e-7354-49f7-b4bf-8a978f9b5d9f))
    (pad "7" smd rect (at 0 1.275) (size 0.305 0.813) (layers "F.Cu" "F.Paste" "F.Mask")
      (net 23 "Net-(U4-Pad7)") (tstamp 567651ee-c8c5-4c22-a720-da4e6628dc60))
    (pad "8" smd rect (at 0.5 1.275) (size 0.305 0.813) (layers "F.Cu" "F.Paste" "F.Mask")
      (net 22 "Net-(U4-Pad8)") (tstamp 2a21d743-2f7f-458a-9c12-d8841d55cde5))
    (pad "9" smd rect (at 1.275 1) (size 0.813 0.305) (layers "F.Cu" "F.Paste" "F.Mask")
      (net 29 "Net-(U4-Pad9)") (tstamp 7eeebe8f-7897-4ad9-a2c9-6fcd836e27f9))
    (pad "10" smd rect (at 1.275 0.5) (size 0.813 0.305) (layers "F.Cu" "F.Paste" "F.Mask")
      (net 21 "Net-(U4-Pad10)") (tstamp 1dba70ef-fda5-4115-b2aa-b92939465521))
    (pad "11" smd rect (at 1.275 0) (size 0.813 0.305) (layers "F.Cu" "F.Paste" "F.Mask")
      (net 20 "Net-(U4-Pad11)") (tstamp eed47ed2-5f00-434c-bca7-f84cf6168358))
    (pad "12" smd rect (at 1.275 -0.5) (size 0.813 0.305) (layers "F.Cu" "F.Paste" "F.Mask")
      (net 19 "Net-(U4-Pad12)") (tstamp ebb06ab8-168f-4561-a041-238aa306b551))
    (pad "13" smd rect (at 1.275 -1) (size 0.813 0.305) (layers "F.Cu" "F.Paste" "F.Mask")
      (net 18 "Net-(U4-Pad13)") (tstamp 50ed3294-2e53-4cec-a5dc-01e2e4687b08))
    (pad "14" smd rect (at 0.5 -1.275) (size 0.305 0.813) (layers "F.Cu" "F.Paste" "F.Mask")
      (net 30 "Net-(U4-Pad14)") (tstamp e4966852-acb1-4f21-966e-aa5f53e38d79))
    (pad "15" smd rect (at 0 -1.275) (size 0.305 0.813) (layers "F.Cu" "F.Paste" "F.Mask")
      (net 17 "Net-(U4-Pad15)") (tstamp 1ef3f749-6758-45f1-a0b0-b628671456f2))
    (pad "16" smd rect (at -0.5 -1.275) (size 0.305 0.813) (layers "F.Cu" "F.Paste" "F.Mask")
      (net 16 "Net-(U4-Pad16)") (tstamp b9265681-91c0-4e00-a92a-86636491067e))
    (model "${KISYS3DMOD}/Package_DFN_QFN.3dshapes/QFN-16-1EP_3x3mm_P0.5mm_EP2.7x2.7mm_ThermalVias.step"
      (offset (xyz 0 0 0))
      (scale (xyz 1 1 1))
      (rotate (xyz 0 0 0))
    )
  )

  (footprint "Package_DFN_QFN:Texas_S-PVQFN-N32_EP3.45x3.45mm" (layer "F.Cu")
    (tstamp 00000000-0000-0000-0000-00005e3d3d1f)
    (at 108 61)
    (descr "QFN, 32 Pin (http://www.ti.com/lit/ds/symlink/msp430f1122.pdf#page=46), generated with kicad-footprint-generator ipc_noLead_generator.py")
    (tags "QFN NoLead")
    (path "/00000000-0000-0000-0000-00005e3e43dd")
    (attr smd)
    (fp_text reference "U1" (at 0 -3.82) (layer "F.SilkS")
        (effects (font (size 1 1) (thickness 0.15)))
      (tstamp 18c59e6b-1f07-4a1a-8fa3-29974b77a5fa)
    )
    (fp_text value "TLV320DAC3100" (at 0 3.82) (layer "F.Fab")
        (effects (font (size 1 1) (thickness 0.15)))
      (tstamp 15c67af8-3251-4ea3-887f-a16ccc0c0872)
    )
    (fp_text user "${REFERENCE}" (at 0 0) (layer "F.Fab")
        (effects (font (size 1 1) (thickness 0.15)))
      (tstamp 63b5b7c2-7cc6-4c19-80a6-cb0c7d1336c6)
    )
    (fp_line (start -2.61 2.61) (end -2.61 2.135)
      (stroke (width 0.12) (type solid)) (layer "F.SilkS") (tstamp 62dc8930-9715-45a2-a357-eb580a1fa8f8))
    (fp_line (start -2.135 -2.61) (end -2.61 -2.61)
      (stroke (width 0.12) (type solid)) (layer "F.SilkS") (tstamp 939826e6-1faf-4a10-b516-aec9987f5c48))
    (fp_line (start -2.135 2.61) (end -2.61 2.61)
      (stroke (width 0.12) (type solid)) (layer "F.SilkS") (tstamp 213e6c4a-5f31-4189-9ca6-7d54cadb91d4))
    (fp_line (start 2.135 -2.61) (end 2.61 -2.61)
      (stroke (width 0.12) (type solid)) (layer "F.SilkS") (tstamp ae0e5852-16bf-4ceb-8011-12737f01b8e3))
    (fp_line (start 2.135 2.61) (end 2.61 2.61)
      (stroke (width 0.12) (type solid)) (layer "F.SilkS") (tstamp 09dd70db-4a9e-4665-bb73-9a6329d78746))
    (fp_line (start 2.61 -2.61) (end 2.61 -2.135)
      (stroke (width 0.12) (type solid)) (layer "F.SilkS") (tstamp 4329be5f-3143-479d-85b5-d5a1a40252aa))
    (fp_line (start 2.61 2.61) (end 2.61 2.135)
      (stroke (width 0.12) (type solid)) (layer "F.SilkS") (tstamp 0b3b997c-7bdb-42c8-84c9-19eed26b9d80))
    (fp_line (start -3.12 -3.12) (end -3.12 3.12)
      (stroke (width 0.05) (type solid)) (layer "F.CrtYd") (tstamp 4cd3656d-c671-40b1-a779-46bf648896ee))
    (fp_line (start -3.12 3.12) (end 3.12 3.12)
      (stroke (width 0.05) (type solid)) (layer "F.CrtYd") (tstamp 87900f37-1a2a-41e4-99bb-8a92476fb699))
    (fp_line (start 3.12 -3.12) (end -3.12 -3.12)
      (stroke (width 0.05) (type solid)) (layer "F.CrtYd") (tstamp bfc94943-5007-4378-b561-b5c5497c7e7d))
    (fp_line (start 3.12 3.12) (end 3.12 -3.12)
      (stroke (width 0.05) (type solid)) (layer "F.CrtYd") (tstamp 4d268c65-690e-4603-b8ff-ce5960947033))
    (fp_line (start -2.5 -1.5) (end -1.5 -2.5)
      (stroke (width 0.1) (type solid)) (layer "F.Fab") (tstamp 873a3780-3390-45ea-aa40-d03364e8fda0))
    (fp_line (start -2.5 2.5) (end -2.5 -1.5)
      (stroke (width 0.1) (type solid)) (layer "F.Fab") (tstamp fc9db54c-bf1d-468c-8b8d-a60462b3e65a))
    (fp_line (start -1.5 -2.5) (end 2.5 -2.5)
      (stroke (width 0.1) (type solid)) (layer "F.Fab") (tstamp c92fd959-3564-4a71-a4eb-c891986fb762))
    (fp_line (start 2.5 -2.5) (end 2.5 2.5)
      (stroke (width 0.1) (type solid)) (layer "F.Fab") (tstamp 2b99c499-ae3c-43f9-9980-4f29ddddd5bd))
    (fp_line (start 2.5 2.5) (end -2.5 2.5)
      (stroke (width 0.1) (type solid)) (layer "F.Fab") (tstamp ddbc073b-cd04-4f49-ad52-a997a8fd8c6c))
    (pad "" smd roundrect (at -1.15 -1.15) (size 0.93 0.93) (layers "F.Paste") (roundrect_rratio 0.25) (tstamp 07e7f2a7-de74-44f4-b320-356bfe5d6315))
    (pad "" smd roundrect (at -1.15 0) (size 0.93 0.93) (layers "F.Paste") (roundrect_rratio 0.25) (tstamp 18d31174-9995-4868-b8aa-375063726218))
    (pad "" smd roundrect (at -1.15 1.15) (size 0.93 0.93) (layers "F.Paste") (roundrect_rratio 0.25) (tstamp bf7e0338-620c-4683-956a-3080b5cc12ce))
    (pad "" smd roundrect (at 0 -1.15) (size 0.93 0.93) (layers "F.Paste") (roundrect_rratio 0.25) (tstamp 2dac6bb0-c765-4b23-803b-725210c479d7))
    (pad "" smd roundrect (at 0 0) (size 0.93 0.93) (layers "F.Paste") (roundrect_rratio 0.25) (tstamp 52c7d9a6-147c-4e4f-99cb-3c5bea32aaaf))
    (pad "" smd roundrect (at 0 1.15) (size 0.93 0.93) (layers "F.Paste") (roundrect_rratio 0.25) (tstamp 4e94e7b9-9b50-4357-b1fe-d68d45ae2c1e))
    (pad "" smd roundrect (at 1.15 -1.15) (size 0.93 0.93) (layers "F.Paste") (roundrect_rratio 0.25) (tstamp d78a8bb7-b96a-43e9-af3f-102866d396af))
    (pad "" smd roundrect (at 1.15 0) (size 0.93 0.93) (layers "F.Paste") (roundrect_rratio 0.25) (tstamp b2dd5f62-8b30-4f66-b112-f7e1212be506))
    (pad "" smd roundrect (at 1.15 1.15) (size 0.93 0.93) (layers "F.Paste") (roundrect_rratio 0.25) (tstamp 1a22f934-f629-4013-993f-97a44f0ffe19))
    (pad "1" smd roundrect (at -2.4375 -1.75) (size 0.875 0.25) (layers "F.Cu" "F.Paste" "F.Mask") (roundrect_rratio 0.25)
      (net 61 "GND") (tstamp 5e8fa9a7-e935-47e0-89d6-8d49c5db103d))
    (pad "2" smd roundrect (at -2.4375 -1.25) (size 0.875 0.25) (layers "F.Cu" "F.Paste" "F.Mask") (roundrect_rratio 0.25)
      (net 8 "VDD") (tstamp f4d284a4-64fa-49d3-a5a1-fe1877530c4e))
    (pad "3" smd roundrect (at -2.4375 -0.75) (size 0.875 0.25) (layers "F.Cu" "F.Paste" "F.Mask") (roundrect_rratio 0.25)
      (net 60 "Net-(U1-Pad3)") (tstamp 32448dd1-5fe3-460e-b713-51718a04e8e6))
    (pad "4" smd roundrect (at -2.4375 -0.25) (size 0.875 0.25) (layers "F.Cu" "F.Paste" "F.Mask") (roundrect_rratio 0.25)
      (net 59 "Net-(U1-Pad4)") (tstamp 362aeed6-f6d5-49fa-b4a4-60e45c404d24))
    (pad "5" smd roundrect (at -2.4375 0.25) (size 0.875 0.25) (layers "F.Cu" "F.Paste" "F.Mask") (roundrect_rratio 0.25)
      (net 58 "Net-(U1-Pad5)") (tstamp c9d095ce-906b-4532-95bd-3aba1915a4cd))
    (pad "6" smd roundrect (at -2.4375 0.75) (size 0.875 0.25) (layers "F.Cu" "F.Paste" "F.Mask") (roundrect_rratio 0.25)
      (net 57 "Net-(U1-Pad6)") (tstamp 743a3d15-6521-499b-8b19-c0912fbef9da))
    (pad "7" smd roundrect (at -2.4375 1.25) (size 0.875 0.25) (layers "F.Cu" "F.Paste" "F.Mask") (roundrect_rratio 0.25)
      (net 56 "Net-(U1-Pad7)") (tstamp f32ef04f-9a51-460e-839d-2402f0b115c4))
    (pad "8" smd roundrect (at -2.4375 1.75) (size 0.875 0.25) (layers "F.Cu" "F.Paste" "F.Mask") (roundrect_rratio 0.25)
      (net 55 "Net-(U1-Pad8)") (tstamp 1bb7e2e6-655b-4d6b-80cb-8c62f8962c3f))
    (pad "9" smd roundrect (at -1.75 2.4375) (size 0.25 0.875) (layers "F.Cu" "F.Paste" "F.Mask") (roundrect_rratio 0.25)
      (net 54 "Net-(U1-Pad9)") (tstamp a240cc4c-8578-416a-8459-784e1d33cae5))
    (pad "10" smd roundrect (at -1.25 2.4375) (size 0.25 0.875) (layers "F.Cu" "F.Paste" "F.Mask") (roundrect_rratio 0.25)
      (net 53 "Net-(U1-Pad10)") (tstamp 15932b3e-899e-4650-923a-0b51ec62d19b))
    (pad "11" smd roundrect (at -0.75 2.4375) (size 0.25 0.875) (layers "F.Cu" "F.Paste" "F.Mask") (roundrect_rratio 0.25)
      (net 52 "Net-(U1-Pad11)") (tstamp 78f1252b-952e-4ba5-89da-36217e6c5d63))
    (pad "12" smd roundrect (at -0.25 2.4375) (size 0.25 0.875) (layers "F.Cu" "F.Paste" "F.Mask") (roundrect_rratio 0.25)
      (net 51 "Net-(U1-Pad12)") (tstamp 072362fd-ef85-49cd-ae24-f1665d144ab5))
    (pad "13" smd roundrect (at 0.25 2.4375) (size 0.25 0.875) (layers "F.Cu" "F.Paste" "F.Mask") (roundrect_rratio 0.25)
      (net 50 "Net-(U1-Pad13)") (tstamp 8f75b23c-485c-4221-9b3c-53b6df0fdfd6))
    (pad "14" smd roundrect (at 0.75 2.4375) (size 0.25 0.875) (layers "F.Cu" "F.Paste" "F.Mask") (roundrect_rratio 0.25)
      (net 49 "Net-(U1-Pad14)") (tstamp 5884b4f5-9ad9-4cee-8d60-afb7a8d4a22b))
    (pad "15" smd roundrect (at 1.25 2.4375) (size 0.25 0.875) (layers "F.Cu" "F.Paste" "F.Mask") (roundrect_rratio 0.25)
      (net 48 "Net-(U1-Pad15)") (tstamp d3fbaea3-bc64-478e-a905-aedaeed915c5))
    (pad "16" smd roundrect (at 1.75 2.4375) (size 0.25 0.875) (layers "F.Cu" "F.Paste" "F.Mask") (roundrect_rratio 0.25)
      (net 47 "Net-(U1-Pad16)") (tstamp bd7d5625-986e-4a59-ba66-b53380aec017))
    (pad "17" smd roundrect (at 2.4375 1.75) (size 0.875 0.25) (layers "F.Cu" "F.Paste" "F.Mask") (roundrect_rratio 0.25)
      (net 46 "Net-(U1-Pad17)") (tstamp 142ce803-77cb-4618-8a00-9ce8e0c68dcc))
    (pad "18" smd roundrect (at 2.4375 1.25) (size 0.875 0.25) (layers "F.Cu" "F.Paste" "F.Mask") (roundrect_rratio 0.25)
      (net 45 "Net-(U1-Pad18)") (tstamp 492d34cb-eaf3-4023-b01c-24a2280e8f94))
    (pad "19" smd roundrect (at 2.4375 0.75) (size 0.875 0.25) (layers "F.Cu" "F.Paste" "F.Mask") (roundrect_rratio 0.25)
      (net 44 "Net-(U1-Pad19)") (tstamp 2253ebbc-4139-4b0b-8289-12bd88f13184))
    (pad "20" smd roundrect (at 2.4375 0.25) (size 0.875 0.25) (layers "F.Cu" "F.Paste" "F.Mask") (roundrect_rratio 0.25)
      (net 43 "Net-(U1-Pad20)") (tstamp e9e908d0-7b4a-4005-abc2-e4def74e0e0c))
    (pad "21" smd roundrect (at 2.4375 -0.25) (size 0.875 0.25) (layers "F.Cu" "F.Paste" "F.Mask") (roundrect_rratio 0.25)
      (net 42 "Net-(U1-Pad21)") (tstamp dacf42b0-93a5-41c5-a557-ce55593c847a))
    (pad "22" smd roundrect (at 2.4375 -0.75) (size 0.875 0.25) (layers "F.Cu" "F.Paste" "F.Mask") (roundrect_rratio 0.25)
      (net 41 "Net-(U1-Pad22)") (tstamp 09f73937-e064-48fa-a3d9-46b9ad894b32))
    (pad "23" smd roundrect (at 2.4375 -1.25) (size 0.875 0.25) (layers "F.Cu" "F.Paste" "F.Mask") (roundrect_rratio 0.25)
      (net 40 "Net-(U1-Pad23)") (tstamp bff46f57-c8c7-4b8d-aed5-3fbeb482301b))
    (pad "24" smd roundrect (at 2.4375 -1.75) (size 0.875 0.25) (layers "F.Cu" "F.Paste" "F.Mask") (roundrect_rratio 0.25)
      (net 39 "Net-(U1-Pad24)") (tstamp 4cdc0b68-a562-4725-8b76-89455f31218c))
    (pad "25" smd roundrect (at 1.75 -2.4375) (size 0.25 0.875) (layers "F.Cu" "F.Paste" "F.Mask") (roundrect_rratio 0.25)
      (net 38 "Net-(U1-Pad25)") (tstamp 3d45ec8f-f9ee-43dd-a12d-1f8f068f5dc6))
    (pad "26" smd roundrect (at 1.25 -2.4375) (size 0.25 0.875) (layers "F.Cu" "F.Paste" "F.Mask") (roundrect_rratio 0.25)
      (net 37 "Net-(U1-Pad26)") (tstamp 45908d47-2e72-48f5-909f-2bcd30d3069b))
    (pad "27" smd roundrect (at 0.75 -2.4375) (size 0.25 0.875) (layers "F.Cu" "F.Paste" "F.Mask") (roundrect_rratio 0.25)
      (net 36 "Net-(U1-Pad27)") (tstamp bae8b2d5-d4d7-49f6-997e-a7c01a411901))
    (pad "28" smd roundrect (at 0.25 -2.4375) (size 0.25 0.875) (layers "F.Cu" "F.Paste" "F.Mask") (roundrect_rratio 0.25)
      (net 35 "Net-(U1-Pad28)") (tstamp 30694694-a3b7-4d4c-a352-89a76a120109))
    (pad "29" smd roundrect (at -0.25 -2.4375) (size 0.25 0.875) (layers "F.Cu" "F.Paste" "F.Mask") (roundrect_rratio 0.25)
      (net 34 "Net-(U1-Pad29)") (tstamp 85874b4c-1d7f-49b5-93a6-d2a8c9cda7e2))
    (pad "30" smd roundrect (at -0.75 -2.4375) (size 0.25 0.875) (layers "F.Cu" "F.Paste" "F.Mask") (roundrect_rratio 0.25)
      (net 33 "Net-(U1-Pad30)") (tstamp 87ff0ad2-1f59-4b9a-9017-c080a5c1cdfb))
    (pad "31" smd roundrect (at -1.25 -2.4375) (size 0.25 0.875) (layers "F.Cu" "F.Paste" "F.Mask") (roundrect_rratio 0.25)
      (net 32 "Net-(R4-Pad1)") (tstamp 39db5745-048b-41c8-a3de-638bf1659230))
    (pad "32" smd roundrect (at -1.75 -2.4375) (size 0.25 0.875) (layers "F.Cu" "F.Paste" "F.Mask") (roundrect_rratio 0.25)
      (net 31 "Net-(U1-Pad32)") (tstamp 42da94a3-f094-40a9-81dc-1aa7f9cdb5e4))
    (pad "33" smd roundrect (at 0 0) (size 3.45 3.45) (layers "F.Cu" "F.Mask") (roundrect_rratio 0.072464) (tstamp 99b560a7-4e55-49e7-95ef-1a77b089c07a))
    (model "${KISYS3DMOD}/Package_DFN_QFN.3dshapes/Texas_S-PVQFN-N32_EP3.45x3.45mm.wrl"
      (offset (xyz 0 0 0))
      (scale (xyz 1 1 1))
      (rotate (xyz 0 0 0))
    )
  )

  (footprint "digikey-footprints:VFQFN-64-1EP_9x9mm" (layer "F.Cu")
    (tstamp 00000000-0000-0000-0000-00005e3d4182)
    (at 156 103 90)
    (descr "http://www.ti.com/lit/ds/symlink/cc3200.pdf")
    (path "/00000000-0000-0000-0000-00005e417251")
    (attr smd)
    (fp_text reference "U2" (at 0 -6.25 90) (layer "F.SilkS")
        (effects (font (size 1 1) (thickness 0.15)))
      (tstamp 7e48ff08-8238-488d-a26f-d6f261155b80)
    )
    (fp_text value "CC3200R1M2RGCR" (at 0 6.75 90) (layer "F.Fab")
        (effects (font (size 1 1) (thickness 0.15)))
      (tstamp 5a494adf-c3b0-4360-a243-d3759c65c7ca)
    )
    (fp_text user "${REFERENCE}" (at 0 0 90) (layer "F.Fab")
        (effects (font (size 1 1) (thickness 0.15)))
      (tstamp ca0cadbf-aaa4-4364-81d8-448e18b80dfd)
    )
    (fp_line (start -4.7 4.1) (end -4.7 4.7)
      (stroke (width 0.1) (type solid)) (layer "F.SilkS") (tstamp dc35c51f-07fa-485d-9902-1daed53afcb7))
    (fp_line (start -4.7 4.7) (end -4.1 4.7)
      (stroke (width 0.1) (type solid)) (layer "F.SilkS") (tstamp 6410c819-0dce-411f-86dc-b77e4dfffced))
    (fp_line (start -4.675 -4.05) (end -4.675 -4)
      (stroke (width 0.1) (type solid)) (layer "F.SilkS") (tstamp 908ebf1e-5c7d-4a92-8ddd-49954427a275))
    (fp_line (start -4.675 -4) (end -4.925 -4)
      (stroke (width 0.1) (type solid)) (layer "F.SilkS") (tstamp cb10ed58-6e47-4eea-8bfc-b00591f4835b))
    (fp_line (start -4.1 -4.65) (end -4.675 -4.05)
      (stroke (width 0.1) (type solid)) (layer "F.SilkS") (tstamp 9b518513-e5a7-4d03-bc2c-b195cf84fada))
    (fp_line (start 4.025 -4.675) (end 4.675 -4.675)
      (stroke (width 0.1) (type solid)) (layer "F.SilkS") (tstamp 524e1a5b-1032-4541-95e8-48d29ecc9daf))
    (fp_line (start 4.675 -4.675) (end 4.675 -4.1)
      (stroke (width 0.1) (type solid)) (layer "F.SilkS") (tstamp 87e92bb7-6f14-4050-938b-ba2d9536bdc8))
    (fp_line (start 4.7 4.1) (end 4.7 4.7)
      (stroke (width 0.1) (type solid)) (layer "F.SilkS") (tstamp f3e06c90-7f91-4e7b-a7e2-16d1f5e3bdad))
    (fp_line (start 4.7 4.7) (end 4.1 4.7)
      (stroke (width 0.1) (type solid)) (layer "F.SilkS") (tstamp e109c38e-a6af-483c-8e56-0081e2c4e904))
    (fp_line (start -5.25 -5.25) (end -5.25 5.25)
      (stroke (width 0.05) (type solid)) (layer "F.CrtYd") (tstamp a697266d-78f4-4a0d-84d2-59b2c5eabc30))
    (fp_line (start -5.25 -5.25) (end 5.25 -5.25)
      (stroke (width 0.05) (type solid)) (layer "F.CrtYd") (tstamp 326cb2c4-0c69-461d-8e6a-45750f2765f6))
    (fp_line (start -5.25 5.25) (end 5.25 5.25)
      (stroke (width 0.05) (type solid)) (layer "F.CrtYd") (tstamp e6fd8e31-8bf0-476a-acc5-389e03e4ea54))
    (fp_line (start 5.25 -5.25) (end 5.25 5.25)
      (stroke (width 0.05) (type solid)) (layer "F.CrtYd") (tstamp dedbf6f6-237f-494f-a817-582f9b6521eb))
    (fp_line (start -4.575 -4) (end -4.025 -4.575)
      (stroke (width 0.1) (type solid)) (layer "F.Fab") (tstamp 6318968b-c66b-42e9-be1b-0cdf4864f238))
    (fp_line (start -4.575 4.575) (end -4.575 -4)
      (stroke (width 0.1) (type solid)) (layer "F.Fab") (tstamp 5f92c06a-786f-4da4-9a94-c79d12c0dd7a))
    (fp_line (start -4.575 4.575) (end 4.575 4.575)
      (stroke (width 0.1) (type solid)) (layer "F.Fab") (tstamp 68e485a6-2281-4b6b-982d-7f8e17c9a2d0))
    (fp_line (start 4.575 -4.575) (end -4.025 -4.575)
      (stroke (width 0.1) (type solid)) (layer "F.Fab") (tstamp db6eacbc-10f8-4431-9dd4-79120be9d94e))
    (fp_line (start 4.575 -4.575) (end 4.575 4.575)
      (stroke (width 0.1) (type solid)) (layer "F.Fab") (tstamp 1a9844d8-6181-4bba-9880-649adfa7cdac))
    (pad "1" smd rect (at -4.525 -3.75 90) (size 0.9 0.4) (layers "F.Cu" "F.Paste" "F.Mask")
      (net 118 "Net-(U2-Pad1)") (tstamp 6feee131-688b-455c-bd8a-ea24c1817d72))
    (pad "2" smd rect (at -4.325 -3.25 90) (size 1 0.35) (layers "F.Cu" "F.Paste" "F.Mask")
      (net 119 "Net-(U2-Pad2)") (tstamp 9004e87e-243e-4748-b5cd-a19483ec7b3d))
    (pad "3" smd rect (at -4.325 -2.75 90) (size 1 0.35) (layers "F.Cu" "F.Paste" "F.Mask")
      (net 120 "Net-(U2-Pad3)") (tstamp 8039c68b-16eb-43df-888a-2e7852f0ff6c))
    (pad "4" smd rect (at -4.325 -2.25 90) (size 1 0.35) (layers "F.Cu" "F.Paste" "F.Mask")
      (net 121 "Net-(U2-Pad4)") (tstamp af30211e-5ef0-45f0-9d1b-db718652172e))
    (pad "5" smd rect (at -4.325 -1.75 90) (size 1 0.35) (layers "F.Cu" "F.Paste" "F.Mask")
      (net 122 "Net-(U2-Pad5)") (tstamp 6fda1f1c-a026-441e-a986-e329e3e93de4))
    (pad "6" smd rect (at -4.325 -1.25 90) (size 1 0.35) (layers "F.Cu" "F.Paste" "F.Mask")
      (net 123 "Net-(U2-Pad6)") (tstamp 0341af36-7dec-4dd3-a575-6bb6714df72c))
    (pad "7" smd rect (at -4.325 -0.75 90) (size 1 0.35) (layers "F.Cu" "F.Paste" "F.Mask")
      (net 124 "Net-(U2-Pad7)") (tstamp 1d4dac8c-31d0-4128-88b6-6a31663586f8))
    (pad "8" smd rect (at -4.325 -0.25 90) (size 1 0.35) (layers "F.Cu" "F.Paste" "F.Mask")
      (net 125 "Net-(U2-Pad8)") (tstamp 5e551041-0fc6-4f4b-b63d-457833b3ef53))
    (pad "9" smd rect (at -4.325 0.25 90) (size 1 0.35) (layers "F.Cu" "F.Paste" "F.Mask")
      (net 117 "Net-(U2-Pad9)") (tstamp f5d05477-f70f-477d-8ba1-0cf429411d63))
    (pad "10" smd rect (at -4.325 0.75 90) (size 1 0.35) (layers "F.Cu" "F.Paste" "F.Mask")
      (net 116 "Net-(U2-Pad10)") (tstamp b116b6df-acd1-481f-8fc3-e80af2f6a513))
    (pad "11" smd rect (at -4.325 1.25 90) (size 1 0.35) (layers "F.Cu" "F.Paste" "F.Mask")
      (net 115 "Net-(U2-Pad11)") (tstamp b95c3507-5656-46f3-8974-ee4192e0c296))
    (pad "12" smd rect (at -4.325 1.75 90) (size 1 0.35) (layers "F.Cu" "F.Paste" "F.Mask")
      (net 114 "Net-(U2-Pad12)") (tstamp 6600cc44-da9f-4387-bfa2-221ee9a01a55))
    (pad "13" smd rect (at -4.325 2.25 90) (size 1 0.35) (layers "F.Cu" "F.Paste" "F.Mask")
      (net 113 "Net-(U2-Pad13)") (tstamp 150cc524-6716-4eca-85c1-bb38f887ca8f))
    (pad "14" smd rect (at -4.325 2.75 90) (size 1 0.35) (layers "F.Cu" "F.Paste" "F.Mask")
      (net 112 "Net-(U2-Pad14)") (tstamp 9d14392b-3a59-48be-b9f3-43cb27b426e4))
    (pad "15" smd rect (at -4.325 3.25 90) (size 1 0.35) (layers "F.Cu" "F.Paste" "F.Mask")
      (net 111 "Net-(U2-Pad15)") (tstamp 05e7aee5-fcd1-4c92-b2e1-165a3ecd3353))
    (pad "16" smd rect (at -4.525 3.75 90) (size 0.9 0.4) (layers "F.Cu" "F.Paste" "F.Mask")
      (net 110 "Net-(U2-Pad16)") (tstamp b1bcce0d-d678-4a4b-967a-463c0db369bf))
    (pad "17" smd rect (at -3.75 4.525 90) (size 0.4 0.9) (layers "F.Cu" "F.Paste" "F.Mask")
      (net 102 "/BLUE_LED_EN") (tstamp 3e2f6bf2-b31d-41c8-b089-6324ce472fa2))
    (pad "18" smd rect (at -3.25 4.325 90) (size 0.35 1) (layers "F.Cu" "F.Paste" "F.Mask")
      (net 103 "Net-(U2-Pad18)") (tstamp 94a859a0-75af-419d-8fbc-d985bdaf451d))
    (pad "19" smd rect (at -2.75 4.325 90) (size 0.35 1) (layers "F.Cu" "F.Paste" "F.Mask")
      (net 104 "/TCK_RED_LED_EN") (tstamp 5bee25a5-eec7-4f8e-95ed-afe919631f26))
    (pad "20" smd rect (at -2.25 4.325 90) (size 0.35 1) (layers "F.Cu" "F.Paste" "F.Mask")
      (net 105 "/TMS") (tstamp 33f27afb-c93e-4368-8d7b-f0bf0eddf22c))
    (pad "21" smd rect (at -1.75 4.325 90) (size 0.35 1) (layers "F.Cu" "F.Paste" "F.Mask")
      (net 106 "Net-(P?1-Pad9)") (tstamp 5fcf38ce-cda4-474b-b4e5-317337238b60))
    (pad "22" smd rect (at -1.25 4.325 90) (size 0.35 1) (layers "F.Cu" "F.Paste" "F.Mask")
      (net 107 "Net-(U2-Pad22)") (tstamp f7e4eb4d-7af0-4a77-a6b0-8b60e3d0aad0))
    (pad "23" smd rect (at -0.75 4.325 90) (size 0.35 1) (layers "F.Cu" "F.Paste" "F.Mask")
      (net 108 "Net-(U2-Pad23)") (tstamp 9ed70ab7-1f89-4d18-b202-c898a3e38d86))
    (pad "24" smd rect (at -0.25 4.325 90) (size 0.35 1) (layers "F.Cu" "F.Paste" "F.Mask")
      (net 109 "Net-(U2-Pad24)") (tstamp c0965a96-b201-4792-9c02-3079321d3d41))
    (pad "25" smd rect (at 0.25 4.325 90) (size 0.35 1) (layers "F.Cu" "F.Paste" "F.Mask")
      (net 101 "Net-(U2-Pad25)") (tstamp f4d3add7-7c74-43ca-8b65-9edbe294153e))
    (pad "26" smd rect (at 0.75 4.325 90) (size 0.35 1) (layers "F.Cu" "F.Paste" "F.Mask")
      (net 100 "Net-(U2-Pad26)") (tstamp 49e30762-4443-4b88-9368-b287153c4e2a))
    (pad "27" smd rect (at 1.25 4.325 90) (size 0.35 1) (layers "F.Cu" "F.Paste" "F.Mask")
      (net 99 "Net-(U2-Pad27)") (tstamp f20834b4-f065-41c4-8a32-160b7c6cc68e))
    (pad "28" smd rect (at 1.75 4.325 90) (size 0.35 1) (layers "F.Cu" "F.Paste" "F.Mask")
      (net 98 "Net-(U2-Pad28)") (tstamp 6239a06b-ce33-4cd4-83f9-fe16cacec3fb))
    (pad "29" smd rect (at 2.25 4.325 90) (size 0.35 1) (layers "F.Cu" "F.Paste" "F.Mask")
      (net 97 "Net-(U2-Pad29)") (tstamp 936e56a5-9437-46d6-8c57-e7071896e842))
    (pad "30" smd rect (at 2.75 4.325 90) (size 0.35 1) (layers "F.Cu" "F.Paste" "F.Mask")
      (net 96 "Net-(U2-Pad30)") (tstamp cfa693b0-d0e1-49fb-a3a9-6a554f15c95d))
    (pad "31" smd rect (at 3.25 4.325 90) (size 0.35 1) (layers "F.Cu" "F.Paste" "F.Mask")
      (net 95 "Net-(U2-Pad31)") (tstamp bc10a04c-1b92-48f5-ab08-163ef3bbb58e))
    (pad "32" smd rect (at 3.75 4.525 90) (size 0.4 0.9) (layers "F.Cu" "F.Paste" "F.Mask")
      (net 94 "/~{RST}") (tstamp c93e9c68-5954-4aee-90fb-87d496c91ac0))
    (pad "33" smd rect (at 4.525 3.75 90) (size 0.9 0.4) (layers "F.Cu" "F.Paste" "F.Mask")
      (net 91 "Net-(U2-Pad33)") (tstamp bbfb14ef-701f-4dfa-9755-4081f967391f))
    (pad "34" smd rect (at 4.325 3.25 90) (size 1 0.35) (layers "F.Cu" "F.Paste" "F.Mask")
      (net 93 "Net-(R11-Pad2)") (tstamp 4e8dfc83-ba2a-4e21-8077-e8f46b43e94f))
    (pad "35" smd rect (at 4.325 2.75 90) (size 1 0.35) (layers "F.Cu" "F.Paste" "F.Mask")
      (net 92 "Net-(R12-Pad2)") (tstamp b9462df2-1b9b-4845-8ff3-0a27ce93c458))
    (pad "36" smd rect (at 4.325 2.25 90) (size 1 0.35) (layers "F.Cu" "F.Paste" "F.Mask")
      (net 90 "Net-(U2-Pad36)") (tstamp 1a91f9c6-557f-4fdd-bb3c-b513c7259140))
    (pad "37" smd rect (at 4.325 1.75 90) (size 1 0.35) (layers "F.Cu" "F.Paste" "F.Mask")
      (net 89 "Net-(U2-Pad37)") (tstamp 78912a2b-dc60-47e1-baff-7fca5caaf181))
    (pad "38" smd rect (at 4.325 1.25 90) (size 1 0.35) (layers "F.Cu" "F.Paste" "F.Mask")
      (net 88 "Net-(U2-Pad38)") (tstamp 25751259-020f-48d3-b074-ffd188061810))
    (pad "39" smd rect (at 4.325 0.75 90) (size 1 0.35) (layers "F.Cu" "F.Paste" "F.Mask")
      (net 87 "Net-(U2-Pad39)") (tstamp 14c82569-de84-4540-b876-b7ca42cc6509))
    (pad "40" smd rect (at 4.325 0.25 90) (size 1 0.35) (layers "F.Cu" "F.Paste" "F.Mask")
      (net 86 "Net-(U2-Pad40)") (tstamp cddce26c-d76f-497f-88ed-fee6f0c58e17))
    (pad "41" smd rect (at 4.325 -0.25 90) (size 1 0.35) (layers "F.Cu" "F.Paste" "F.Mask")
      (net 85 "Net-(U2-Pad41)") (tstamp ab7121fb-cc34-42e5-a727-2c38b28ae874))
    (pad "42" smd rect (at 4.325 -0.75 90) (size 1 0.35) (layers "F.Cu" "F.Paste" "F.Mask")
      (net 84 "Net-(U2-Pad42)") (tstamp ef72dd44-bb03-4ce5-b7b4-ba9513f92e23))
    (pad "43" smd rect (at 4.325 -1.25 90) (size 1 0.35) (layers "F.Cu" "F.Paste" "F.Mask")
      (net 83 "Net-(U2-Pad43)") (tstamp 1ee64745-9754-42f2-bd10-e0a607aae5ff))
    (pad "44" smd rect (at 4.325 -1.75 90) (size 1 0.35) (layers "F.Cu" "F.Paste" "F.Mask")
      (net 82 "Net-(U2-Pad44)") (tstamp bac3a587-4f69-47f9-8b13-6ee2b0231cf9))
    (pad "45" smd rect (at 4.325 -2.25 90) (size 1 0.35) (layers "F.Cu" "F.Paste" "F.Mask")
      (net 81 "/TBC1") (tstamp a183c566-1e4f-4d01-8235-5d696d647893))
    (pad "46" smd rect (at 4.325 -2.75 90) (size 1 0.35) (layers "F.Cu" "F.Paste" "F.Mask")
      (net 80 "Net-(U2-Pad46)") (tstamp 4753c807-246b-47bc-b604-bb03ca553003))
    (pad "47" smd rect (at 4.325 -3.25 90) (size 1 0.35) (layers "F.Cu" "F.Paste" "F.Mask")
      (net 79 "Net-(U2-Pad47)") (tstamp 10ad1c03-ece1-49a1-83c7-1ce576d96884))
    (pad "48" smd rect (at 4.525 -3.75 90) (size 0.9 0.4) (layers "F.Cu" "F.Paste" "F.Mask")
      (net 78 "Net-(U2-Pad48)") (tstamp a2706850-c4d6-4bc5-a25c-dea3fda6032d))
    (pad "49" smd rect (at 3.75 -4.525 90) (size 0.4 0.9) (layers "F.Cu" "F.Paste" "F.Mask")
      (net 77 "Net-(U2-Pad49)") (tstamp f8d02774-5f37-4c98-b138-8c4c328fec99))
    (pad "50" smd rect (at 3.25 -4.325 90) (size 0.35 1) (layers "F.Cu" "F.Paste" "F.Mask")
      (net 76 "Net-(U2-Pad50)") (tstamp e2817ecd-19b2-47fd-96d1-d3ce3e0698ee))
    (pad "51" smd rect (at 2.75 -4.325 90) (size 0.35 1) (layers "F.Cu" "F.Paste" "F.Mask")
      (net 75 "Net-(U2-Pad51)") (tstamp f3bb1ecc-8625-48a3-acf9-655b3c73dc55))
    (pad "52" smd rect (at 2.25 -4.325 90) (size 0.35 1) (layers "F.Cu" "F.Paste" "F.Mask")
      (net 74 "Net-(U2-Pad52)") (tstamp 049ec816-3f3d-42a2-a07c-9e9a1ad65886))
    (pad "53" smd rect (at 1.75 -4.325 90) (size 0.35 1) (layers "F.Cu" "F.Paste" "F.Mask")
      (net 72 "Net-(U2-Pad53)") (tstamp 32bfd548-5ecd-401c-a45a-ce1e3ce7af6d))
    (pad "54" smd rect (at 1.25 -4.325 90) (size 0.35 1) (layers "F.Cu" "F.Paste" "F.Mask")
      (net 73 "Net-(U2-Pad54)") (tstamp a6097dca-69a0-483a-98b4-3c7e759d5635))
    (pad "55" smd rect (at 0.75 -4.325 90) (size 0.35 1) (layers "F.Cu" "F.Paste" "F.Mask")
      (net 71 "/TX") (tstamp f4a92f10-836a-4f2d-95b8-8293f355f8ea))
    (pad "56" smd rect (at 0.25 -4.325 90) (size 0.35 1) (layers "F.Cu" "F.Paste" "F.Mask")
      (net 70 "Net-(U2-Pad56)") (tstamp 965bcef3-630d-45e5-9cc7-919269c1dc64))
    (pad "57" smd rect (at -0.25 -4.325 90) (size 0.35 1) (layers "F.Cu" "F.Paste" "F.Mask")
      (net 69 "/RX") (tstamp 930ede72-9f75-4a28-af28-b7a10d29f204))
    (pad "58" smd rect (at -0.75 -4.325 90) (size 0.35 1) (layers "F.Cu" "F.Paste" "F.Mask")
      (net 68 "Net-(U2-Pad58)") (tstamp 806ca318-5a4e-41c8-808d-a2052bb1ec90))
    (pad "59" smd rect (at -1.25 -4.325 90) (size 0.35 1) (layers "F.Cu" "F.Paste" "F.Mask")
      (net 67 "Net-(U2-Pad59)") (tstamp 238a37ef-e757-479b-98e7-17e798f249b9))
    (pad "60" smd rect (at -1.75 -4.325 90) (size 0.35 1) (layers "F.Cu" "F.Paste" "F.Mask")
      (net 66 "Net-(U2-Pad60)") (tstamp b679de95-63b4-4d5b-b1a9-30805d507a4d))
    (pad "61" smd rect (at -2.25 -4.325 90) (size 0.35 1) (layers "F.Cu" "F.Paste" "F.Mask")
      (net 10 "/TBC3") (tstamp 7afd5338-57ec-493f-ba2c-962ff0f7da14))
    (pad "62" smd rect (at -2.75 -4.325 90) (size 0.35 1) (layers "F.Cu" "F.Paste" "F.Mask")
      (net 65 "Net-(U2-Pad62)") (tstamp b710c7c3-a1e4-460f-bc2d-cbcaf2e6c4bc))
    (pad "63" smd rect (at -3.25 -4.325 90) (size 0.35 1) (layers "F.Cu" "F.Paste" "F.Mask")
      (net 64 "Net-(U2-Pad63)") (tstamp 4c9642e9-ae71-44b9-8c80-338faa8b2efb))
    (pad "64" smd rect (at -3.75 -4.525 90) (size 0.4 0.9) (layers "F.Cu" "F.Paste" "F.Mask")
      (net 63 "Net-(U2-Pad64)") (tstamp 99937700-58e3-467c-8607-7683e0830448))
    (pad "65" smd rect (at 0 0 90) (size 7.3 7.3) (layers "F.Cu" "F.Paste" "F.Mask")
      (net 62 "Net-(U2-Pad65)") (tstamp 43f29357-89d2-4cb8-84ba-7c24170636ad))
    (model "${KISYS3DMOD}/Package_DFN_QFN.3dshapes/Texas_S-PVQFN-N64_EP4.25x4.25mm.step"
      (offset (xyz 0 0 0))
      (scale (xyz 1 1 1))
      (rotate (xyz 0 0 0))
    )
  )

  (footprint "digikey-footprints:SOT-23-3" (layer "F.Cu")
    (tstamp 00000000-0000-0000-0000-00005e3d493c)
    (at 126.05 73 180)
    (path "/00000000-0000-0000-0000-00005e4969fd")
    (attr smd)
    (fp_text reference "T11" (at 0.025 -3.375) (layer "F.SilkS")
        (effects (font (size 1 1) (thickness 0.15)))
      (tstamp 1fc98c4a-b621-471a-8087-eed6e5bf2034)
    )
    (fp_text value "FDV301N" (at 0.025 3.25) (layer "F.Fab")
        (effects (font (size 1 1) (thickness 0.15)))
      (tstamp e61014c3-94fd-4cf4-8db0-3c4eb4b58b8d)
    )
    (fp_text user "${REFERENCE}" (at -0.125 0.15) (layer "F.Fab")
        (effects (font (size 0.25 0.25) (thickness 0.05)))
      (tstamp 2c3ca7d8-62cd-4f93-95c3-afdc372e52f1)
    )
    (fp_line (start -0.825 -1.375) (end -0.825 -1.325)
      (stroke (width 0.1) (type solid)) (layer "F.SilkS") (tstamp 25c4650f-e0a5-4a5a-8765-8274f5c5fd0f))
    (fp_line (start -0.825 -1.325) (end -1.6 -1.325)
      (stroke (width 0.1) (type solid)) (layer "F.SilkS") (tstamp 61125916-bf90-450f-9132-879735bac1b2))
    (fp_line (start -0.825 1.65) (end -0.825 1.3)
      (stroke (width 0.1) (type solid)) (layer "F.SilkS") (tstamp affa3fff-6f7a-4f77-9b3b-55f0e39907e7))
    (fp_line (start -0.45 -1.65) (end -0.825 -1.375)
      (stroke (width 0.1) (type solid)) (layer "F.SilkS") (tstamp 59357dd5-107e-41b2-a1aa-99cd1a912aa4))
    (fp_line (start -0.35 1.65) (end -0.825 1.65)
      (stroke (width 0.1) (type solid)) (layer "F.SilkS") (tstamp b6afecec-0396-474c-9471-4d2db6fe12d6))
    (fp_line (start -0.175 -1.65) (end -0.45 -1.65)
      (stroke (width 0.1) (type solid)) (layer "F.SilkS") (tstamp 0540a325-46e2-4d45-b2af-79d554970cf7))
    (fp_line (start 0.45 -1.65) (end 0.825 -1.65)
      (stroke (width 0.1) (type solid)) (layer "F.SilkS") (tstamp 97939970-a1ac-4ef6-b752-133811331b63))
    (fp_line (start 0.825 -1.65) (end 0.825 -1.35)
      (stroke (width 0.1) (type solid)) (layer "F.SilkS") (tstamp c61b22a3-f36c-472c-a936-ef6650802fb1))
    (fp_line (start 0.825 1.35) (end 0.825 1.65)
      (stroke (width 0.1) (type solid)) (layer "F.SilkS") (tstamp eccea251-b5fc-4d6b-9e0c-b8d92b966a9a))
    (fp_line (start 0.825 1.425) (end 0.825 1.3)
      (stroke (width 0.1) (type solid)) (layer "F.SilkS") (tstamp af3f2e65-5ea0-421d-8fc2-82ace756e048))
    (fp_line (start 0.825 1.65) (end 0.375 1.65)
      (stroke (width 0.1) (type solid)) (layer "F.SilkS") (tstamp aff72ab2-1247-42a0-a935-5aa41caed5ed))
    (fp_line (start -1.825 -1.95) (end -1.825 1.95)
      (stroke (width 0.05) (type solid)) (layer "F.CrtYd") (tstamp 541a87b1-269c-4187-9576-a90908993d3c))
    (fp_line (start -1.825 -1.95) (end 1.825 -1.95)
      (stroke (width 0.05) (type solid)) (layer "F.CrtYd") (tstamp 71d74a4f-ee94-42f1-ae94-0e4097d181bc))
    (fp_line (start 1.825 -1.95) (end 1.825 1.95)
      (stroke (width 0.05) (type solid)) (layer "F.CrtYd") (tstamp 43975d14-0676-4517-873c-5fa50e96117f))
    (fp_line (start 1.825 1.95) (end -1.825 1.95)
      (stroke (width 0.05) (type solid)) (layer "F.CrtYd") (tstamp 5322e936-447b-4eee-b43c-46e6d551bca2))
    (fp_line (start -0.7 -1.325) (end -0.7 1.525)
      (stroke (width 0.1) (type solid)) (layer "F.Fab") (tstamp eadb1e5b-cb26-4858-854e-1b074ae6d4b6))
    (fp_line (start -0.7 1.52) (end 0.7 1.52)
      (stroke (width 0.1) (type solid)) (layer "F.Fab") (tstamp 2b735851-5f87-4ec2-92f5-e1051d4c4dd9))
    (fp_line (start -0.425 -1.525) (end -0.7 -1.325)
      (stroke (width 0.1) (type solid)) (layer "F.Fab") (tstamp 5faeadc2-5b27-4fce-9666-2dcb47fa5a66))
    (fp_line (start -0.425 -1.525) (end 0.7 -1.525)
      (stroke (width 0.1) (type solid)) (layer "F.Fab") (tstamp 6ebb7700-ed5e-49bc-8471-8299cbff0869))
    (fp_line (start 0.7 1.52) (end 0.7 -1.52)
      (stroke (width 0.1) (type solid)) (layer "F.Fab") (tstamp c4e61cde-5d7f-435e-bd6a-c1a829969703))
    (pad "1" smd rect (at -1.05 -0.95 180) (size 1.3 0.6) (layers "F.Cu" "F.Paste" "F.Mask")
      (net 8 "VDD") (solder_mask_margin 0.07) (tstamp 4256879c-5413-403d-bdbc-2c9390009947))
    (pad "2" smd rect (at -1.05 0.95 180) (size 1.3 0.6) (layers "F.Cu" "F.Paste" "F.Mask")
      (net 61 "GND") (solder_mask_margin 0.07) (tstamp cc51b477-3c6a-4d62-8fdd-6737f687f798))
    (pad "3" smd rect (at 1.05 0 180) (size 1.3 0.6) (layers "F.Cu" "F.Paste" "F.Mask")
      (net 126 "Net-(R350-Pad1)") (solder_mask_margin 0.07) (tstamp 5731872a-b357-43b3-b563-5c982216fbd1))
    (model "${KISYS3DMOD}/Package_TO_SOT_SMD.3dshapes/SOT-23.wrl"
      (offset (xyz 0 0 0))
      (scale (xyz 1 1 1))
      (rotate (xyz 0 0 0))
    )
  )

  (footprint "digikey-footprints:SOT-23-3" (layer "F.Cu")
    (tstamp 00000000-0000-0000-0000-00005e3d502c)
    (at 130.95 60)
    (path "/00000000-0000-0000-0000-00005e4a69c9")
    (attr smd)
    (fp_text reference "T4" (at 0.025 -3.375) (layer "F.SilkS")
        (effects (font (size 1 1) (thickness 0.15)))
      (tstamp 663e6eb3-9eab-49f8-81d2-53aaadc8df43)
    )
    (fp_text value "FDV301N" (at 0.025 3.25) (layer "F.Fab")
        (effects (font (size 1 1) (thickness 0.15)))
      (tstamp 34b87a90-b9c5-4cf4-bb7a-3509e4278d86)
    )
    (fp_text user "${REFERENCE}" (at -0.125 0.15) (layer "F.Fab")
        (effects (font (size 0.25 0.25) (thickness 0.05)))
      (tstamp cf03a543-a4e2-456a-9390-c72da35ec897)
    )
    (fp_line (start -0.825 -1.375) (end -0.825 -1.325)
      (stroke (width 0.1) (type solid)) (layer "F.SilkS") (tstamp 08ad36c8-71c0-4883-88ba-717fbd3c9f2f))
    (fp_line (start -0.825 -1.325) (end -1.6 -1.325)
      (stroke (width 0.1) (type solid)) (layer "F.SilkS") (tstamp f32d45d5-bdbe-4c8c-a2fb-211a303971a2))
    (fp_line (start -0.825 1.65) (end -0.825 1.3)
      (stroke (width 0.1) (type solid)) (layer "F.SilkS") (tstamp ddb61d0c-8661-42ab-9e6b-79a045b3b28b))
    (fp_line (start -0.45 -1.65) (end -0.825 -1.375)
      (stroke (width 0.1) (type solid)) (layer "F.SilkS") (tstamp c020df61-330c-4dae-a6c8-723562df66be))
    (fp_line (start -0.35 1.65) (end -0.825 1.65)
      (stroke (width 0.1) (type solid)) (layer "F.SilkS") (tstamp 7777256f-db7d-41ab-bb71-3bd3bb8696ef))
    (fp_line (start -0.175 -1.65) (end -0.45 -1.65)
      (stroke (width 0.1) (type solid)) (layer "F.SilkS") (tstamp dbbd28e9-34b1-46ea-8257-b6b8fdae7136))
    (fp_line (start 0.45 -1.65) (end 0.825 -1.65)
      (stroke (width 0.1) (type solid)) (layer "F.SilkS") (tstamp 8773856a-b7b5-4657-8a79-6f5710fe55e7))
    (fp_line (start 0.825 -1.65) (end 0.825 -1.35)
      (stroke (width 0.1) (type solid)) (layer "F.SilkS") (tstamp 8f085cf8-1526-41fc-9826-d69ffe5b3bc5))
    (fp_line (start 0.825 1.35) (end 0.825 1.65)
      (stroke (width 0.1) (type solid)) (layer "F.SilkS") (tstamp d9ea0d0f-d313-48a1-8bdd-ef8805c91be2))
    (fp_line (start 0.825 1.425) (end 0.825 1.3)
      (stroke (width 0.1) (type solid)) (layer "F.SilkS") (tstamp a355f740-02d7-4866-a6e1-42a93457bf2c))
    (fp_line (start 0.825 1.65) (end 0.375 1.65)
      (stroke (width 0.1) (type solid)) (layer "F.SilkS") (tstamp 8f709b64-dbed-4f86-a4b4-ac861837f14b))
    (fp_line (start -1.825 -1.95) (end -1.825 1.95)
      (stroke (width 0.05) (type solid)) (layer "F.CrtYd") (tstamp 238ba550-6e3e-4ab0-941b-f1d148dc294a))
    (fp_line (start -1.825 -1.95) (end 1.825 -1.95)
      (stroke (width 0.05) (type solid)) (layer "F.CrtYd") (tstamp 1509a4bf-1265-4176-bfbc-d401252d903b))
    (fp_line (start 1.825 -1.95) (end 1.825 1.95)
      (stroke (width 0.05) (type solid)) (layer "F.CrtYd") (tstamp a7ca8a45-4e79-47b1-ae70-763d858e4e37))
    (fp_line (start 1.825 1.95) (end -1.825 1.95)
      (stroke (width 0.05) (type solid)) (layer "F.CrtYd") (tstamp 9e464bfc-4dba-496d-86f8-f90b8351e71f))
    (fp_line (start -0.7 -1.325) (end -0.7 1.525)
      (stroke (width 0.1) (type solid)) (layer "F.Fab") (tstamp 168b6301-4f82-458c-af98-4bc7ced24399))
    (fp_line (start -0.7 1.52) (end 0.7 1.52)
      (stroke (width 0.1) (type solid)) (layer "F.Fab") (tstamp ae329278-b3ab-4148-91b5-d2b3760f7ddf))
    (fp_line (start -0.425 -1.525) (end -0.7 -1.325)
      (stroke (width 0.1) (type solid)) (layer "F.Fab") (tstamp 9fd27f55-70db-46fb-979c-822c29c65f9d))
    (fp_line (start -0.425 -1.525) (end 0.7 -1.525)
      (stroke (width 0.1) (type solid)) (layer "F.Fab") (tstamp 59cfd8f9-5362-49bc-95cf-849ad63d2578))
    (fp_line (start 0.7 1.52) (end 0.7 -1.52)
      (stroke (width 0.1) (type solid)) (layer "F.Fab") (tstamp 0cc8edc1-bc2b-4e6b-b01a-dbde0eaedc08))
    (pad "1" smd rect (at -1.05 -0.95) (size 1.3 0.6) (layers "F.Cu" "F.Paste" "F.Mask")
      (net 127 "Net-(R351-Pad1)") (solder_mask_margin 0.07) (tstamp 7dc97a92-7496-4b77-adfe-6a691e68a451))
    (pad "2" smd rect (at -1.05 0.95) (size 1.3 0.6) (layers "F.Cu" "F.Paste" "F.Mask")
      (net 61 "GND") (solder_mask_margin 0.07) (tstamp 29443d4f-2c2a-4b12-a2ec-3a8dec16224c))
    (pad "3" smd rect (at 1.05 0) (size 1.3 0.6) (layers "F.Cu" "F.Paste" "F.Mask")
      (net 128 "Net-(R61-Pad2)") (solder_mask_margin 0.07) (tstamp d7b9bc20-5abb-4335-ae26-7cb0a4b9af84))
    (model "${KISYS3DMOD}/Package_TO_SOT_SMD.3dshapes/SOT-23.wrl"
      (offset (xyz 0 0 0))
      (scale (xyz 1 1 1))
      (rotate (xyz 0 0 0))
    )
  )

  (footprint "digikey-footprints:SOT-23-3" (layer "F.Cu")
    (tstamp 00000000-0000-0000-0000-00005e3d5048)
    (at 131 72)
    (path "/00000000-0000-0000-0000-00005e4a5819")
    (attr smd)
    (fp_text reference "T5" (at 0.025 -3.375) (layer "F.SilkS")
        (effects (font (size 1 1) (thickness 0.15)))
      (tstamp 481c6083-230c-4754-a14a-5b7d4c7bf4ef)
    )
    (fp_text value "FDV301N" (at 0.025 3.25) (layer "F.Fab")
        (effects (font (size 1 1) (thickness 0.15)))
      (tstamp 14a82637-f84c-48b8-a9cb-ec5d1a10dcaf)
    )
    (fp_text user "${REFERENCE}" (at -0.125 0.15) (layer "F.Fab")
        (effects (font (size 0.25 0.25) (thickness 0.05)))
      (tstamp cd64f115-fdb5-45bb-a86a-d006390988e7)
    )
    (fp_line (start -0.825 -1.375) (end -0.825 -1.325)
      (stroke (width 0.1) (type solid)) (layer "F.SilkS") (tstamp f61fdd5c-36ed-4b9f-bee0-8b08584cd151))
    (fp_line (start -0.825 -1.325) (end -1.6 -1.325)
      (stroke (width 0.1) (type solid)) (layer "F.SilkS") (tstamp 11ce1b2c-628d-4a5d-ba7f-48c1feee2314))
    (fp_line (start -0.825 1.65) (end -0.825 1.3)
      (stroke (width 0.1) (type solid)) (layer "F.SilkS") (tstamp 3acb3214-4df3-4c0c-a722-0687b2cc00b6))
    (fp_line (start -0.45 -1.65) (end -0.825 -1.375)
      (stroke (width 0.1) (type solid)) (layer "F.SilkS") (tstamp e29a5d00-c637-4af0-84af-18875d2d2836))
    (fp_line (start -0.35 1.65) (end -0.825 1.65)
      (stroke (width 0.1) (type solid)) (layer "F.SilkS") (tstamp 989e89f0-9e78-4ac8-9d8f-fc6b0f63a688))
    (fp_line (start -0.175 -1.65) (end -0.45 -1.65)
      (stroke (width 0.1) (type solid)) (layer "F.SilkS") (tstamp b610d416-2289-4c64-82f4-d4796699267c))
    (fp_line (start 0.45 -1.65) (end 0.825 -1.65)
      (stroke (width 0.1) (type solid)) (layer "F.SilkS") (tstamp ad0412c4-186c-42c2-9cca-c81f5031c2be))
    (fp_line (start 0.825 -1.65) (end 0.825 -1.35)
      (stroke (width 0.1) (type solid)) (layer "F.SilkS") (tstamp 2275cce6-96fd-47f7-80e1-3d0dc39ba5a3))
    (fp_line (start 0.825 1.35) (end 0.825 1.65)
      (stroke (width 0.1) (type solid)) (layer "F.SilkS") (tstamp 031f53bc-35d1-4c09-bde8-c58dc496a97f))
    (fp_line (start 0.825 1.425) (end 0.825 1.3)
      (stroke (width 0.1) (type solid)) (layer "F.SilkS") (tstamp c9fa6ce3-2a0a-414d-9f51-459c248df936))
    (fp_line (start 0.825 1.65) (end 0.375 1.65)
      (stroke (width 0.1) (type solid)) (layer "F.SilkS") (tstamp 159c829a-758f-4798-be7f-ca41191ff0e8))
    (fp_line (start -1.825 -1.95) (end -1.825 1.95)
      (stroke (width 0.05) (type solid)) (layer "F.CrtYd") (tstamp 48ea22b4-b760-485b-aed8-281fed05e3cf))
    (fp_line (start -1.825 -1.95) (end 1.825 -1.95)
      (stroke (width 0.05) (type solid)) (layer "F.CrtYd") (tstamp c69a4b4c-2cfe-433a-9afe-bd4564dc2921))
    (fp_line (start 1.825 -1.95) (end 1.825 1.95)
      (stroke (width 0.05) (type solid)) (layer "F.CrtYd") (tstamp c4b3b308-b4e5-4340-9bce-16cf04e78a0e))
    (fp_line (start 1.825 1.95) (end -1.825 1.95)
      (stroke (width 0.05) (type solid)) (layer "F.CrtYd") (tstamp 28fa91f5-e4e5-4f8a-9f35-7eef74ec825c))
    (fp_line (start -0.7 -1.325) (end -0.7 1.525)
      (stroke (width 0.1) (type solid)) (layer "F.Fab") (tstamp 05a3d934-78bb-4716-be41-a0a795726f2e))
    (fp_line (start -0.7 1.52) (end 0.7 1.52)
      (stroke (width 0.1) (type solid)) (layer "F.Fab") (tstamp 660d6285-ea4a-4606-b175-f49071db0b3c))
    (fp_line (start -0.425 -1.525) (end -0.7 -1.325)
      (stroke (width 0.1) (type solid)) (layer "F.Fab") (tstamp b492004b-e20b-4aa3-a0fa-fbc1dcc3b9b4))
    (fp_line (start -0.425 -1.525) (end 0.7 -1.525)
      (stroke (width 0.1) (type solid)) (layer "F.Fab") (tstamp 6586b317-b668-4e65-a363-4434896c6a8f))
    (fp_line (start 0.7 1.52) (end 0.7 -1.52)
      (stroke (width 0.1) (type solid)) (layer "F.Fab") (tstamp 8aac72b5-3f24-4153-97c9-e62b184d95ce))
    (pad "1" smd rect (at -1.05 -0.95) (size 1.3 0.6) (layers "F.Cu" "F.Paste" "F.Mask")
      (net 129 "/GREEN_LED_EN") (solder_mask_margin 0.07) (tstamp 11a08a17-89ce-4d49-9679-ad8e8e4675d5))
    (pad "2" smd rect (at -1.05 0.95) (size 1.3 0.6) (layers "F.Cu" "F.Paste" "F.Mask")
      (net 61 "GND") (solder_mask_margin 0.07) (tstamp 272cee5c-18eb-488f-bd82-59a199c913ec))
    (pad "3" smd rect (at 1.05 0) (size 1.3 0.6) (layers "F.Cu" "F.Paste" "F.Mask")
      (net 130 "Net-(R62-Pad2)") (solder_mask_margin 0.07) (tstamp 8924f1dd-6efb-47b5-af9c-ea7afb9282e8))
    (model "${KISYS3DMOD}/Package_TO_SOT_SMD.3dshapes/SOT-23.wrl"
      (offset (xyz 0 0 0))
      (scale (xyz 1 1 1))
      (rotate (xyz 0 0 0))
    )
  )

  (footprint "digikey-footprints:SOT-23-3" (layer "F.Cu")
    (tstamp 00000000-0000-0000-0000-00005e3d5064)
    (at 131 66)
    (path "/00000000-0000-0000-0000-00005e4a6274")
    (attr smd)
    (fp_text reference "T6" (at 0.025 -3.375) (layer "F.SilkS")
        (effects (font (size 1 1) (thickness 0.15)))
      (tstamp 3872b55f-d584-460e-a9c2-d952298a4450)
    )
    (fp_text value "FDV301N" (at 0.025 3.25) (layer "F.Fab")
        (effects (font (size 1 1) (thickness 0.15)))
      (tstamp e30faac9-5618-4759-933a-493dae159451)
    )
    (fp_text user "${REFERENCE}" (at -0.125 0.15) (layer "F.Fab")
        (effects (font (size 0.25 0.25) (thickness 0.05)))
      (tstamp 271ee6a7-fdf9-4500-9560-73a5273432c3)
    )
    (fp_line (start -0.825 -1.375) (end -0.825 -1.325)
      (stroke (width 0.1) (type solid)) (layer "F.SilkS") (tstamp e2ed5eab-5574-404b-81bb-907acf7a9148))
    (fp_line (start -0.825 -1.325) (end -1.6 -1.325)
      (stroke (width 0.1) (type solid)) (layer "F.SilkS") (tstamp eeb1f513-383e-4e8b-97ea-883c7e6a11b9))
    (fp_line (start -0.825 1.65) (end -0.825 1.3)
      (stroke (width 0.1) (type solid)) (layer "F.SilkS") (tstamp 659cc60b-580d-4b33-beba-acafd1484fe5))
    (fp_line (start -0.45 -1.65) (end -0.825 -1.375)
      (stroke (width 0.1) (type solid)) (layer "F.SilkS") (tstamp d4be110f-225b-450d-9759-81de1c23620f))
    (fp_line (start -0.35 1.65) (end -0.825 1.65)
      (stroke (width 0.1) (type solid)) (layer "F.SilkS") (tstamp 5fb00243-4c4e-4221-9439-d96f94196d64))
    (fp_line (start -0.175 -1.65) (end -0.45 -1.65)
      (stroke (width 0.1) (type solid)) (layer "F.SilkS") (tstamp 13525831-812d-4657-8c04-16a2b2b1c09b))
    (fp_line (start 0.45 -1.65) (end 0.825 -1.65)
      (stroke (width 0.1) (type solid)) (layer "F.SilkS") (tstamp 26b53f42-bee4-4a59-875d-9f7b454b10de))
    (fp_line (start 0.825 -1.65) (end 0.825 -1.35)
      (stroke (width 0.1) (type solid)) (layer "F.SilkS") (tstamp 3ba1850e-3138-40b0-824f-6dc9eae333ee))
    (fp_line (start 0.825 1.35) (end 0.825 1.65)
      (stroke (width 0.1) (type solid)) (layer "F.SilkS") (tstamp 704b738e-8b19-456e-9f84-d44ef1d3ae12))
    (fp_line (start 0.825 1.425) (end 0.825 1.3)
      (stroke (width 0.1) (type solid)) (layer "F.SilkS") (tstamp e469b358-4e72-40b3-8705-6595db91b403))
    (fp_line (start 0.825 1.65) (end 0.375 1.65)
      (stroke (width 0.1) (type solid)) (layer "F.SilkS") (tstamp 82232399-d139-4ddb-8bd8-d5436c6a06cf))
    (fp_line (start -1.825 -1.95) (end -1.825 1.95)
      (stroke (width 0.05) (type solid)) (layer "F.CrtYd") (tstamp c231507c-3008-4219-ac77-7fb2ee297ef3))
    (fp_line (start -1.825 -1.95) (end 1.825 -1.95)
      (stroke (width 0.05) (type solid)) (layer "F.CrtYd") (tstamp 48da1344-d731-4eac-a3aa-018786bfa583))
    (fp_line (start 1.825 -1.95) (end 1.825 1.95)
      (stroke (width 0.05) (type solid)) (layer "F.CrtYd") (tstamp 538c25c6-4b01-4456-b31e-bee29effc444))
    (fp_line (start 1.825 1.95) (end -1.825 1.95)
      (stroke (width 0.05) (type solid)) (layer "F.CrtYd") (tstamp ddb81f26-dfe9-4df7-96ff-af3309a6892b))
    (fp_line (start -0.7 -1.325) (end -0.7 1.525)
      (stroke (width 0.1) (type solid)) (layer "F.Fab") (tstamp 8b6ceef1-532d-475e-bd39-b6a72cb92218))
    (fp_line (start -0.7 1.52) (end 0.7 1.52)
      (stroke (width 0.1) (type solid)) (layer "F.Fab") (tstamp 645bb53d-79e7-4fd9-a168-badda09f2724))
    (fp_line (start -0.425 -1.525) (end -0.7 -1.325)
      (stroke (width 0.1) (type solid)) (layer "F.Fab") (tstamp 17205848-a270-4634-9794-3756a52f1e42))
    (fp_line (start -0.425 -1.525) (end 0.7 -1.525)
      (stroke (width 0.1) (type solid)) (layer "F.Fab") (tstamp 794d4a98-5b05-44e8-aef5-57ba9a5c3eab))
    (fp_line (start 0.7 1.52) (end 0.7 -1.52)
      (stroke (width 0.1) (type solid)) (layer "F.Fab") (tstamp ebacde78-992c-4e35-aaa2-f247641293fb))
    (pad "1" smd rect (at -1.05 -0.95) (size 1.3 0.6) (layers "F.Cu" "F.Paste" "F.Mask")
      (net 131 "Net-(R353-Pad1)") (solder_mask_margin 0.07) (tstamp 30c4ec93-7f0d-4fb6-91c2-360cabecbc1b))
    (pad "2" smd rect (at -1.05 0.95) (size 1.3 0.6) (layers "F.Cu" "F.Paste" "F.Mask")
      (net 126 "Net-(R350-Pad1)") (solder_mask_margin 0.07) (tstamp ef1f3cb5-f57b-40dd-9151-5c99ac76a70d))
    (pad "3" smd rect (at 1.05 0) (size 1.3 0.6) (layers "F.Cu" "F.Paste" "F.Mask")
      (net 132 "Net-(R65-Pad2)") (solder_mask_margin 0.07) (tstamp d9fdd6f4-e181-4aa4-a2a8-951d34f26af4))
    (model "${KISYS3DMOD}/Package_TO_SOT_SMD.3dshapes/SOT-23.wrl"
      (offset (xyz 0 0 0))
      (scale (xyz 1 1 1))
      (rotate (xyz 0 0 0))
    )
  )

  (footprint "digikey-footprints:SOT-23-3" (layer "F.Cu")
    (tstamp 00000000-0000-0000-0000-00005e3d5080)
    (at 172 131 90)
    (path "/00000000-0000-0000-0000-00005e4a7426")
    (attr smd)
    (fp_text reference "T7" (at 0.025 -3.375 90) (layer "F.SilkS")
        (effects (font (size 1 1) (thickness 0.15)))
      (tstamp 70bfd7ee-54b6-457b-9670-8519d75e826f)
    )
    (fp_text value "FDV301N" (at 0.025 3.25 90) (layer "F.Fab")
        (effects (font (size 1 1) (thickness 0.15)))
      (tstamp a0c87365-4107-4d42-bbb6-c3290fecea81)
    )
    (fp_text user "${REFERENCE}" (at -0.125 0.15 90) (layer "F.Fab")
        (effects (font (size 0.25 0.25) (thickness 0.05)))
      (tstamp 99d5a400-319d-4b75-9c01-15d322c99b18)
    )
    (fp_line (start -0.825 -1.375) (end -0.825 -1.325)
      (stroke (width 0.1) (type solid)) (layer "F.SilkS") (tstamp 29e3d6c9-e23d-4f48-bf1c-6f009e08479a))
    (fp_line (start -0.825 -1.325) (end -1.6 -1.325)
      (stroke (width 0.1) (type solid)) (layer "F.SilkS") (tstamp d4199ef9-8724-4375-930b-9cb00124bf88))
    (fp_line (start -0.825 1.65) (end -0.825 1.3)
      (stroke (width 0.1) (type solid)) (layer "F.SilkS") (tstamp 1b16db6f-d6fc-4a64-b92a-387851125f0d))
    (fp_line (start -0.45 -1.65) (end -0.825 -1.375)
      (stroke (width 0.1) (type solid)) (layer "F.SilkS") (tstamp 440f7de0-4910-4202-8413-6aa85080d5c5))
    (fp_line (start -0.35 1.65) (end -0.825 1.65)
      (stroke (width 0.1) (type solid)) (layer "F.SilkS") (tstamp 174715b8-3bfb-47e7-9952-2982fcc403b0))
    (fp_line (start -0.175 -1.65) (end -0.45 -1.65)
      (stroke (width 0.1) (type solid)) (layer "F.SilkS") (tstamp ae428fee-ba15-4f8d-930e-76249d42afa7))
    (fp_line (start 0.45 -1.65) (end 0.825 -1.65)
      (stroke (width 0.1) (type solid)) (layer "F.SilkS") (tstamp 30d38e1e-04af-4db2-b291-c9e89b8b7ea7))
    (fp_line (start 0.825 -1.65) (end 0.825 -1.35)
      (stroke (width 0.1) (type solid)) (layer "F.SilkS") (tstamp 02853815-288f-486c-acfa-1a0abd38dafc))
    (fp_line (start 0.825 1.35) (end 0.825 1.65)
      (stroke (width 0.1) (type solid)) (layer "F.SilkS") (tstamp 7281939a-02e7-4e03-a7be-167cbd12c3c6))
    (fp_line (start 0.825 1.425) (end 0.825 1.3)
      (stroke (width 0.1) (type solid)) (layer "F.SilkS") (tstamp 096949c5-3f88-48b7-9114-db0be504178c))
    (fp_line (start 0.825 1.65) (end 0.375 1.65)
      (stroke (width 0.1) (type solid)) (layer "F.SilkS") (tstamp e37757fd-3726-4238-9384-73b326ea0ea4))
    (fp_line (start -1.825 -1.95) (end -1.825 1.95)
      (stroke (width 0.05) (type solid)) (layer "F.CrtYd") (tstamp 6fb4e62e-7452-47f8-b681-fec97f32a54a))
    (fp_line (start -1.825 -1.95) (end 1.825 -1.95)
      (stroke (width 0.05) (type solid)) (layer "F.CrtYd") (tstamp e3b9748b-f0f8-4714-a09c-e999fd71a8ea))
    (fp_line (start 1.825 -1.95) (end 1.825 1.95)
      (stroke (width 0.05) (type solid)) (layer "F.CrtYd") (tstamp a8d3368e-37ff-4123-9d9a-cb5187bb102a))
    (fp_line (start 1.825 1.95) (end -1.825 1.95)
      (stroke (width 0.05) (type solid)) (layer "F.CrtYd") (tstamp d0699fbe-939b-4aab-bc4f-bfaced5f5f67))
    (fp_line (start -0.7 -1.325) (end -0.7 1.525)
      (stroke (width 0.1) (type solid)) (layer "F.Fab") (tstamp 2b92c4b6-334c-4741-bf7c-7a4e5e5358f3))
    (fp_line (start -0.7 1.52) (end 0.7 1.52)
      (stroke (width 0.1) (type solid)) (layer "F.Fab") (tstamp 6e722d13-e5da-4479-8242-dfd7eae2dbbe))
    (fp_line (start -0.425 -1.525) (end -0.7 -1.325)
      (stroke (width 0.1) (type solid)) (layer "F.Fab") (tstamp a192b3f9-634c-4c99-8603-a65a75005dfe))
    (fp_line (start -0.425 -1.525) (end 0.7 -1.525)
      (stroke (width 0.1) (type solid)) (layer "F.Fab") (tstamp 42c4e427-663c-470e-bc2c-6aed35b24cfb))
    (fp_line (start 0.7 1.52) (end 0.7 -1.52)
      (stroke (width 0.1) (type solid)) (layer "F.Fab") (tstamp c6d0c862-47c8-432f-969b-85553c239c58))
    (pad "1" smd rect (at -1.05 -0.95 90) (size 1.3 0.6) (layers "F.Cu" "F.Paste" "F.Mask")
      (net 106 "Net-(P?1-Pad9)") (solder_mask_margin 0.07) (tstamp b9ddc9ea-49ce-4804-8b4e-c71fb3cc3c66))
    (pad "2" smd rect (at -1.05 0.95 90) (size 1.3 0.6) (layers "F.Cu" "F.Paste" "F.Mask")
      (net 61 "GND") (solder_mask_margin 0.07) (tstamp b4ce932e-61bf-42d2-bce7-13be45ff8748))
    (pad "3" smd rect (at 1.05 0 90) (size 1.3 0.6) (layers "F.Cu" "F.Paste" "F.Mask")
      (net 92 "Net-(R12-Pad2)") (solder_mask_margin 0.07) (tstamp 4fab9780-72b0-4ae8-94ff-69d0297cfd68))
    (model "${KISYS3DMOD}/Package_TO_SOT_SMD.3dshapes/SOT-23.wrl"
      (offset (xyz 0 0 0))
      (scale (xyz 1 1 1))
      (rotate (xyz 0 0 0))
    )
  )

  (gr_line (start 100 43) (end 100 140)
    (stroke (width 0.05) (type solid)) (layer "Edge.Cuts") (tstamp 00000000-0000-0000-0000-00005e41c421))
  (gr_line (start 135 145) (end 152 145)
    (stroke (width 0.05) (type solid)) (layer "Edge.Cuts") (tstamp 00000000-0000-0000-0000-00005e41c52a))
  (gr_line (start 135 140) (end 100 140)
    (stroke (width 0.05) (type solid)) (layer "Edge.Cuts") (tstamp 00000000-0000-0000-0000-00005e41c5c6))
  (gr_line (start 152 140) (end 152 145)
    (stroke (width 0.05) (type solid)) (layer "Edge.Cuts") (tstamp 0840bd76-537d-4cec-8891-9db0257da061))
  (gr_line (start 169 57) (end 119 57)
    (stroke (width 0.05) (type solid)) (layer "Edge.Cuts") (tstamp 0b61fecb-afd9-4b05-80db-563ed6f884f4))
  (gr_line (start 119 57) (end 119 43)
    (stroke (width 0.05) (type solid)) (layer "Edge.Cuts") (tstamp 10dcfd90-cd92-46ee-b507-de93341da847))
  (gr_line (start 135 140) (end 135 145)
    (stroke (width 0.05) (type solid)) (layer "Edge.Cuts") (tstamp 2345a296-a628-424f-9d20-93a0e100fac4))
  (gr_line (start 188 140) (end 188 43)
    (stroke (width 0.05) (type solid)) (layer "Edge.Cuts") (tstamp 270a7bc8-9e87-4d02-9092-80f0f3d1148a))
  (gr_line (start 119 43) (end 100 43)
    (stroke (width 0.05) (type solid)) (layer "Edge.Cuts") (tstamp 421f2eab-8e05-49d2-82d2-bfaa650d49d3))
  (gr_line (start 152 140) (end 188 140)
    (stroke (width 0.05) (type solid)) (layer "Edge.Cuts") (tstamp 4a89e40a-b12e-472a-8889-112da5420fa3))
  (gr_line (start 188 43) (end 169 43)
    (stroke (width 0.05) (type solid)) (layer "Edge.Cuts") (tstamp 4c4af925-5ef0-4f16-bb83-a5e3f76903cc))
  (gr_line (start 169 43) (end 169 57)
    (stroke (width 0.05) (type solid)) (layer "Edge.Cuts") (tstamp 84e2bfeb-4e90-49ef-9987-2ca2cc9e5a34))

)
