(kicad_sch (version 20230121) (generator eeschema)

  (uuid e63e39d7-6ac0-4ffd-8aa3-1841a4541b55)

  (paper "A")

  (title_block
    (title "VCO CONTROL LOGIC")
    (date "2022-10-02")
    (rev "2")
    (company "LAND BOARDS LLC")
    (comment 1 "https://note.com/solder_state/n/nca6a1dec3921")
  )

  (lib_symbols
    (symbol "Amplifier_Operational:TL072" (pin_names (offset 0.127)) (in_bom yes) (on_board yes)
      (property "Reference" "U" (at 0 5.08 0)
        (effects (font (size 1.27 1.27)) (justify left))
      )
      (property "Value" "TL072" (at 0 -5.08 0)
        (effects (font (size 1.27 1.27)) (justify left))
      )
      (property "Footprint" "" (at 0 0 0)
        (effects (font (size 1.27 1.27)) hide)
      )
      (property "Datasheet" "http://www.ti.com/lit/ds/symlink/tl071.pdf" (at 0 0 0)
        (effects (font (size 1.27 1.27)) hide)
      )
      (property "ki_locked" "" (at 0 0 0)
        (effects (font (size 1.27 1.27)))
      )
      (property "ki_keywords" "dual opamp" (at 0 0 0)
        (effects (font (size 1.27 1.27)) hide)
      )
      (property "ki_description" "Dual Low-Noise JFET-Input Operational Amplifiers, DIP-8/SOIC-8" (at 0 0 0)
        (effects (font (size 1.27 1.27)) hide)
      )
      (property "ki_fp_filters" "SOIC*3.9x4.9mm*P1.27mm* DIP*W7.62mm* TO*99* OnSemi*Micro8* TSSOP*3x3mm*P0.65mm* TSSOP*4.4x3mm*P0.65mm* MSOP*3x3mm*P0.65mm* SSOP*3.9x4.9mm*P0.635mm* LFCSP*2x2mm*P0.5mm* *SIP* SOIC*5.3x6.2mm*P1.27mm*" (at 0 0 0)
        (effects (font (size 1.27 1.27)) hide)
      )
      (symbol "TL072_1_1"
        (polyline
          (pts
            (xy -5.08 5.08)
            (xy 5.08 0)
            (xy -5.08 -5.08)
            (xy -5.08 5.08)
          )
          (stroke (width 0.254) (type default))
          (fill (type background))
        )
        (pin output line (at 7.62 0 180) (length 2.54)
          (name "~" (effects (font (size 1.27 1.27))))
          (number "1" (effects (font (size 1.27 1.27))))
        )
        (pin input line (at -7.62 -2.54 0) (length 2.54)
          (name "-" (effects (font (size 1.27 1.27))))
          (number "2" (effects (font (size 1.27 1.27))))
        )
        (pin input line (at -7.62 2.54 0) (length 2.54)
          (name "+" (effects (font (size 1.27 1.27))))
          (number "3" (effects (font (size 1.27 1.27))))
        )
      )
      (symbol "TL072_2_1"
        (polyline
          (pts
            (xy -5.08 5.08)
            (xy 5.08 0)
            (xy -5.08 -5.08)
            (xy -5.08 5.08)
          )
          (stroke (width 0.254) (type default))
          (fill (type background))
        )
        (pin input line (at -7.62 2.54 0) (length 2.54)
          (name "+" (effects (font (size 1.27 1.27))))
          (number "5" (effects (font (size 1.27 1.27))))
        )
        (pin input line (at -7.62 -2.54 0) (length 2.54)
          (name "-" (effects (font (size 1.27 1.27))))
          (number "6" (effects (font (size 1.27 1.27))))
        )
        (pin output line (at 7.62 0 180) (length 2.54)
          (name "~" (effects (font (size 1.27 1.27))))
          (number "7" (effects (font (size 1.27 1.27))))
        )
      )
      (symbol "TL072_3_1"
        (pin power_in line (at -2.54 -7.62 90) (length 3.81)
          (name "V-" (effects (font (size 1.27 1.27))))
          (number "4" (effects (font (size 1.27 1.27))))
        )
        (pin power_in line (at -2.54 7.62 270) (length 3.81)
          (name "V+" (effects (font (size 1.27 1.27))))
          (number "8" (effects (font (size 1.27 1.27))))
        )
      )
    )
    (symbol "Connector_Generic:Conn_01x03" (pin_names (offset 1.016) hide) (in_bom yes) (on_board yes)
      (property "Reference" "J" (at 0 5.08 0)
        (effects (font (size 1.27 1.27)))
      )
      (property "Value" "Conn_01x03" (at 0 -5.08 0)
        (effects (font (size 1.27 1.27)))
      )
      (property "Footprint" "" (at 0 0 0)
        (effects (font (size 1.27 1.27)) hide)
      )
      (property "Datasheet" "~" (at 0 0 0)
        (effects (font (size 1.27 1.27)) hide)
      )
      (property "ki_keywords" "connector" (at 0 0 0)
        (effects (font (size 1.27 1.27)) hide)
      )
      (property "ki_description" "Generic connector, single row, 01x03, script generated (kicad-library-utils/schlib/autogen/connector/)" (at 0 0 0)
        (effects (font (size 1.27 1.27)) hide)
      )
      (property "ki_fp_filters" "Connector*:*_1x??_*" (at 0 0 0)
        (effects (font (size 1.27 1.27)) hide)
      )
      (symbol "Conn_01x03_1_1"
        (rectangle (start -1.27 -2.413) (end 0 -2.667)
          (stroke (width 0.1524) (type default))
          (fill (type none))
        )
        (rectangle (start -1.27 0.127) (end 0 -0.127)
          (stroke (width 0.1524) (type default))
          (fill (type none))
        )
        (rectangle (start -1.27 2.667) (end 0 2.413)
          (stroke (width 0.1524) (type default))
          (fill (type none))
        )
        (rectangle (start -1.27 3.81) (end 1.27 -3.81)
          (stroke (width 0.254) (type default))
          (fill (type background))
        )
        (pin passive line (at -5.08 2.54 0) (length 3.81)
          (name "Pin_1" (effects (font (size 1.27 1.27))))
          (number "1" (effects (font (size 1.27 1.27))))
        )
        (pin passive line (at -5.08 0 0) (length 3.81)
          (name "Pin_2" (effects (font (size 1.27 1.27))))
          (number "2" (effects (font (size 1.27 1.27))))
        )
        (pin passive line (at -5.08 -2.54 0) (length 3.81)
          (name "Pin_3" (effects (font (size 1.27 1.27))))
          (number "3" (effects (font (size 1.27 1.27))))
        )
      )
    )
    (symbol "Connector_Generic:Conn_01x16" (pin_names (offset 1.016) hide) (in_bom yes) (on_board yes)
      (property "Reference" "J" (at 0 20.32 0)
        (effects (font (size 1.27 1.27)))
      )
      (property "Value" "Conn_01x16" (at 0 -22.86 0)
        (effects (font (size 1.27 1.27)))
      )
      (property "Footprint" "" (at 0 0 0)
        (effects (font (size 1.27 1.27)) hide)
      )
      (property "Datasheet" "~" (at 0 0 0)
        (effects (font (size 1.27 1.27)) hide)
      )
      (property "ki_keywords" "connector" (at 0 0 0)
        (effects (font (size 1.27 1.27)) hide)
      )
      (property "ki_description" "Generic connector, single row, 01x16, script generated (kicad-library-utils/schlib/autogen/connector/)" (at 0 0 0)
        (effects (font (size 1.27 1.27)) hide)
      )
      (property "ki_fp_filters" "Connector*:*_1x??_*" (at 0 0 0)
        (effects (font (size 1.27 1.27)) hide)
      )
      (symbol "Conn_01x16_1_1"
        (rectangle (start -1.27 -20.193) (end 0 -20.447)
          (stroke (width 0.1524) (type default))
          (fill (type none))
        )
        (rectangle (start -1.27 -17.653) (end 0 -17.907)
          (stroke (width 0.1524) (type default))
          (fill (type none))
        )
        (rectangle (start -1.27 -15.113) (end 0 -15.367)
          (stroke (width 0.1524) (type default))
          (fill (type none))
        )
        (rectangle (start -1.27 -12.573) (end 0 -12.827)
          (stroke (width 0.1524) (type default))
          (fill (type none))
        )
        (rectangle (start -1.27 -10.033) (end 0 -10.287)
          (stroke (width 0.1524) (type default))
          (fill (type none))
        )
        (rectangle (start -1.27 -7.493) (end 0 -7.747)
          (stroke (width 0.1524) (type default))
          (fill (type none))
        )
        (rectangle (start -1.27 -4.953) (end 0 -5.207)
          (stroke (width 0.1524) (type default))
          (fill (type none))
        )
        (rectangle (start -1.27 -2.413) (end 0 -2.667)
          (stroke (width 0.1524) (type default))
          (fill (type none))
        )
        (rectangle (start -1.27 0.127) (end 0 -0.127)
          (stroke (width 0.1524) (type default))
          (fill (type none))
        )
        (rectangle (start -1.27 2.667) (end 0 2.413)
          (stroke (width 0.1524) (type default))
          (fill (type none))
        )
        (rectangle (start -1.27 5.207) (end 0 4.953)
          (stroke (width 0.1524) (type default))
          (fill (type none))
        )
        (rectangle (start -1.27 7.747) (end 0 7.493)
          (stroke (width 0.1524) (type default))
          (fill (type none))
        )
        (rectangle (start -1.27 10.287) (end 0 10.033)
          (stroke (width 0.1524) (type default))
          (fill (type none))
        )
        (rectangle (start -1.27 12.827) (end 0 12.573)
          (stroke (width 0.1524) (type default))
          (fill (type none))
        )
        (rectangle (start -1.27 15.367) (end 0 15.113)
          (stroke (width 0.1524) (type default))
          (fill (type none))
        )
        (rectangle (start -1.27 17.907) (end 0 17.653)
          (stroke (width 0.1524) (type default))
          (fill (type none))
        )
        (rectangle (start -1.27 19.05) (end 1.27 -21.59)
          (stroke (width 0.254) (type default))
          (fill (type background))
        )
        (pin passive line (at -5.08 17.78 0) (length 3.81)
          (name "Pin_1" (effects (font (size 1.27 1.27))))
          (number "1" (effects (font (size 1.27 1.27))))
        )
        (pin passive line (at -5.08 -5.08 0) (length 3.81)
          (name "Pin_10" (effects (font (size 1.27 1.27))))
          (number "10" (effects (font (size 1.27 1.27))))
        )
        (pin passive line (at -5.08 -7.62 0) (length 3.81)
          (name "Pin_11" (effects (font (size 1.27 1.27))))
          (number "11" (effects (font (size 1.27 1.27))))
        )
        (pin passive line (at -5.08 -10.16 0) (length 3.81)
          (name "Pin_12" (effects (font (size 1.27 1.27))))
          (number "12" (effects (font (size 1.27 1.27))))
        )
        (pin passive line (at -5.08 -12.7 0) (length 3.81)
          (name "Pin_13" (effects (font (size 1.27 1.27))))
          (number "13" (effects (font (size 1.27 1.27))))
        )
        (pin passive line (at -5.08 -15.24 0) (length 3.81)
          (name "Pin_14" (effects (font (size 1.27 1.27))))
          (number "14" (effects (font (size 1.27 1.27))))
        )
        (pin passive line (at -5.08 -17.78 0) (length 3.81)
          (name "Pin_15" (effects (font (size 1.27 1.27))))
          (number "15" (effects (font (size 1.27 1.27))))
        )
        (pin passive line (at -5.08 -20.32 0) (length 3.81)
          (name "Pin_16" (effects (font (size 1.27 1.27))))
          (number "16" (effects (font (size 1.27 1.27))))
        )
        (pin passive line (at -5.08 15.24 0) (length 3.81)
          (name "Pin_2" (effects (font (size 1.27 1.27))))
          (number "2" (effects (font (size 1.27 1.27))))
        )
        (pin passive line (at -5.08 12.7 0) (length 3.81)
          (name "Pin_3" (effects (font (size 1.27 1.27))))
          (number "3" (effects (font (size 1.27 1.27))))
        )
        (pin passive line (at -5.08 10.16 0) (length 3.81)
          (name "Pin_4" (effects (font (size 1.27 1.27))))
          (number "4" (effects (font (size 1.27 1.27))))
        )
        (pin passive line (at -5.08 7.62 0) (length 3.81)
          (name "Pin_5" (effects (font (size 1.27 1.27))))
          (number "5" (effects (font (size 1.27 1.27))))
        )
        (pin passive line (at -5.08 5.08 0) (length 3.81)
          (name "Pin_6" (effects (font (size 1.27 1.27))))
          (number "6" (effects (font (size 1.27 1.27))))
        )
        (pin passive line (at -5.08 2.54 0) (length 3.81)
          (name "Pin_7" (effects (font (size 1.27 1.27))))
          (number "7" (effects (font (size 1.27 1.27))))
        )
        (pin passive line (at -5.08 0 0) (length 3.81)
          (name "Pin_8" (effects (font (size 1.27 1.27))))
          (number "8" (effects (font (size 1.27 1.27))))
        )
        (pin passive line (at -5.08 -2.54 0) (length 3.81)
          (name "Pin_9" (effects (font (size 1.27 1.27))))
          (number "9" (effects (font (size 1.27 1.27))))
        )
      )
    )
    (symbol "Connector_Generic:Conn_02x08_Odd_Even" (pin_names (offset 1.016) hide) (in_bom yes) (on_board yes)
      (property "Reference" "J" (at 1.27 10.16 0)
        (effects (font (size 1.27 1.27)))
      )
      (property "Value" "Conn_02x08_Odd_Even" (at 1.27 -12.7 0)
        (effects (font (size 1.27 1.27)))
      )
      (property "Footprint" "" (at 0 0 0)
        (effects (font (size 1.27 1.27)) hide)
      )
      (property "Datasheet" "~" (at 0 0 0)
        (effects (font (size 1.27 1.27)) hide)
      )
      (property "ki_keywords" "connector" (at 0 0 0)
        (effects (font (size 1.27 1.27)) hide)
      )
      (property "ki_description" "Generic connector, double row, 02x08, odd/even pin numbering scheme (row 1 odd numbers, row 2 even numbers), script generated (kicad-library-utils/schlib/autogen/connector/)" (at 0 0 0)
        (effects (font (size 1.27 1.27)) hide)
      )
      (property "ki_fp_filters" "Connector*:*_2x??_*" (at 0 0 0)
        (effects (font (size 1.27 1.27)) hide)
      )
      (symbol "Conn_02x08_Odd_Even_1_1"
        (rectangle (start -1.27 -10.033) (end 0 -10.287)
          (stroke (width 0.1524) (type default))
          (fill (type none))
        )
        (rectangle (start -1.27 -7.493) (end 0 -7.747)
          (stroke (width 0.1524) (type default))
          (fill (type none))
        )
        (rectangle (start -1.27 -4.953) (end 0 -5.207)
          (stroke (width 0.1524) (type default))
          (fill (type none))
        )
        (rectangle (start -1.27 -2.413) (end 0 -2.667)
          (stroke (width 0.1524) (type default))
          (fill (type none))
        )
        (rectangle (start -1.27 0.127) (end 0 -0.127)
          (stroke (width 0.1524) (type default))
          (fill (type none))
        )
        (rectangle (start -1.27 2.667) (end 0 2.413)
          (stroke (width 0.1524) (type default))
          (fill (type none))
        )
        (rectangle (start -1.27 5.207) (end 0 4.953)
          (stroke (width 0.1524) (type default))
          (fill (type none))
        )
        (rectangle (start -1.27 7.747) (end 0 7.493)
          (stroke (width 0.1524) (type default))
          (fill (type none))
        )
        (rectangle (start -1.27 8.89) (end 3.81 -11.43)
          (stroke (width 0.254) (type default))
          (fill (type background))
        )
        (rectangle (start 3.81 -10.033) (end 2.54 -10.287)
          (stroke (width 0.1524) (type default))
          (fill (type none))
        )
        (rectangle (start 3.81 -7.493) (end 2.54 -7.747)
          (stroke (width 0.1524) (type default))
          (fill (type none))
        )
        (rectangle (start 3.81 -4.953) (end 2.54 -5.207)
          (stroke (width 0.1524) (type default))
          (fill (type none))
        )
        (rectangle (start 3.81 -2.413) (end 2.54 -2.667)
          (stroke (width 0.1524) (type default))
          (fill (type none))
        )
        (rectangle (start 3.81 0.127) (end 2.54 -0.127)
          (stroke (width 0.1524) (type default))
          (fill (type none))
        )
        (rectangle (start 3.81 2.667) (end 2.54 2.413)
          (stroke (width 0.1524) (type default))
          (fill (type none))
        )
        (rectangle (start 3.81 5.207) (end 2.54 4.953)
          (stroke (width 0.1524) (type default))
          (fill (type none))
        )
        (rectangle (start 3.81 7.747) (end 2.54 7.493)
          (stroke (width 0.1524) (type default))
          (fill (type none))
        )
        (pin passive line (at -5.08 7.62 0) (length 3.81)
          (name "Pin_1" (effects (font (size 1.27 1.27))))
          (number "1" (effects (font (size 1.27 1.27))))
        )
        (pin passive line (at 7.62 -2.54 180) (length 3.81)
          (name "Pin_10" (effects (font (size 1.27 1.27))))
          (number "10" (effects (font (size 1.27 1.27))))
        )
        (pin passive line (at -5.08 -5.08 0) (length 3.81)
          (name "Pin_11" (effects (font (size 1.27 1.27))))
          (number "11" (effects (font (size 1.27 1.27))))
        )
        (pin passive line (at 7.62 -5.08 180) (length 3.81)
          (name "Pin_12" (effects (font (size 1.27 1.27))))
          (number "12" (effects (font (size 1.27 1.27))))
        )
        (pin passive line (at -5.08 -7.62 0) (length 3.81)
          (name "Pin_13" (effects (font (size 1.27 1.27))))
          (number "13" (effects (font (size 1.27 1.27))))
        )
        (pin passive line (at 7.62 -7.62 180) (length 3.81)
          (name "Pin_14" (effects (font (size 1.27 1.27))))
          (number "14" (effects (font (size 1.27 1.27))))
        )
        (pin passive line (at -5.08 -10.16 0) (length 3.81)
          (name "Pin_15" (effects (font (size 1.27 1.27))))
          (number "15" (effects (font (size 1.27 1.27))))
        )
        (pin passive line (at 7.62 -10.16 180) (length 3.81)
          (name "Pin_16" (effects (font (size 1.27 1.27))))
          (number "16" (effects (font (size 1.27 1.27))))
        )
        (pin passive line (at 7.62 7.62 180) (length 3.81)
          (name "Pin_2" (effects (font (size 1.27 1.27))))
          (number "2" (effects (font (size 1.27 1.27))))
        )
        (pin passive line (at -5.08 5.08 0) (length 3.81)
          (name "Pin_3" (effects (font (size 1.27 1.27))))
          (number "3" (effects (font (size 1.27 1.27))))
        )
        (pin passive line (at 7.62 5.08 180) (length 3.81)
          (name "Pin_4" (effects (font (size 1.27 1.27))))
          (number "4" (effects (font (size 1.27 1.27))))
        )
        (pin passive line (at -5.08 2.54 0) (length 3.81)
          (name "Pin_5" (effects (font (size 1.27 1.27))))
          (number "5" (effects (font (size 1.27 1.27))))
        )
        (pin passive line (at 7.62 2.54 180) (length 3.81)
          (name "Pin_6" (effects (font (size 1.27 1.27))))
          (number "6" (effects (font (size 1.27 1.27))))
        )
        (pin passive line (at -5.08 0 0) (length 3.81)
          (name "Pin_7" (effects (font (size 1.27 1.27))))
          (number "7" (effects (font (size 1.27 1.27))))
        )
        (pin passive line (at 7.62 0 180) (length 3.81)
          (name "Pin_8" (effects (font (size 1.27 1.27))))
          (number "8" (effects (font (size 1.27 1.27))))
        )
        (pin passive line (at -5.08 -2.54 0) (length 3.81)
          (name "Pin_9" (effects (font (size 1.27 1.27))))
          (number "9" (effects (font (size 1.27 1.27))))
        )
      )
    )
    (symbol "Device:C" (pin_numbers hide) (pin_names (offset 0.254)) (in_bom yes) (on_board yes)
      (property "Reference" "C" (at 0.635 2.54 0)
        (effects (font (size 1.27 1.27)) (justify left))
      )
      (property "Value" "C" (at 0.635 -2.54 0)
        (effects (font (size 1.27 1.27)) (justify left))
      )
      (property "Footprint" "" (at 0.9652 -3.81 0)
        (effects (font (size 1.27 1.27)) hide)
      )
      (property "Datasheet" "~" (at 0 0 0)
        (effects (font (size 1.27 1.27)) hide)
      )
      (property "ki_keywords" "cap capacitor" (at 0 0 0)
        (effects (font (size 1.27 1.27)) hide)
      )
      (property "ki_description" "Unpolarized capacitor" (at 0 0 0)
        (effects (font (size 1.27 1.27)) hide)
      )
      (property "ki_fp_filters" "C_*" (at 0 0 0)
        (effects (font (size 1.27 1.27)) hide)
      )
      (symbol "C_0_1"
        (polyline
          (pts
            (xy -2.032 -0.762)
            (xy 2.032 -0.762)
          )
          (stroke (width 0.508) (type default))
          (fill (type none))
        )
        (polyline
          (pts
            (xy -2.032 0.762)
            (xy 2.032 0.762)
          )
          (stroke (width 0.508) (type default))
          (fill (type none))
        )
      )
      (symbol "C_1_1"
        (pin passive line (at 0 3.81 270) (length 2.794)
          (name "~" (effects (font (size 1.27 1.27))))
          (number "1" (effects (font (size 1.27 1.27))))
        )
        (pin passive line (at 0 -3.81 90) (length 2.794)
          (name "~" (effects (font (size 1.27 1.27))))
          (number "2" (effects (font (size 1.27 1.27))))
        )
      )
    )
    (symbol "Device:C_Polarized" (pin_numbers hide) (pin_names (offset 0.254)) (in_bom yes) (on_board yes)
      (property "Reference" "C" (at 0.635 2.54 0)
        (effects (font (size 1.27 1.27)) (justify left))
      )
      (property "Value" "C_Polarized" (at 0.635 -2.54 0)
        (effects (font (size 1.27 1.27)) (justify left))
      )
      (property "Footprint" "" (at 0.9652 -3.81 0)
        (effects (font (size 1.27 1.27)) hide)
      )
      (property "Datasheet" "~" (at 0 0 0)
        (effects (font (size 1.27 1.27)) hide)
      )
      (property "ki_keywords" "cap capacitor" (at 0 0 0)
        (effects (font (size 1.27 1.27)) hide)
      )
      (property "ki_description" "Polarized capacitor" (at 0 0 0)
        (effects (font (size 1.27 1.27)) hide)
      )
      (property "ki_fp_filters" "CP_*" (at 0 0 0)
        (effects (font (size 1.27 1.27)) hide)
      )
      (symbol "C_Polarized_0_1"
        (rectangle (start -2.286 0.508) (end 2.286 1.016)
          (stroke (width 0) (type default))
          (fill (type none))
        )
        (polyline
          (pts
            (xy -1.778 2.286)
            (xy -0.762 2.286)
          )
          (stroke (width 0) (type default))
          (fill (type none))
        )
        (polyline
          (pts
            (xy -1.27 2.794)
            (xy -1.27 1.778)
          )
          (stroke (width 0) (type default))
          (fill (type none))
        )
        (rectangle (start 2.286 -0.508) (end -2.286 -1.016)
          (stroke (width 0) (type default))
          (fill (type outline))
        )
      )
      (symbol "C_Polarized_1_1"
        (pin passive line (at 0 3.81 270) (length 2.794)
          (name "~" (effects (font (size 1.27 1.27))))
          (number "1" (effects (font (size 1.27 1.27))))
        )
        (pin passive line (at 0 -3.81 90) (length 2.794)
          (name "~" (effects (font (size 1.27 1.27))))
          (number "2" (effects (font (size 1.27 1.27))))
        )
      )
    )
    (symbol "Device:D_Schottky" (pin_numbers hide) (pin_names (offset 1.016) hide) (in_bom yes) (on_board yes)
      (property "Reference" "D" (at 0 2.54 0)
        (effects (font (size 1.27 1.27)))
      )
      (property "Value" "D_Schottky" (at 0 -2.54 0)
        (effects (font (size 1.27 1.27)))
      )
      (property "Footprint" "" (at 0 0 0)
        (effects (font (size 1.27 1.27)) hide)
      )
      (property "Datasheet" "~" (at 0 0 0)
        (effects (font (size 1.27 1.27)) hide)
      )
      (property "ki_keywords" "diode Schottky" (at 0 0 0)
        (effects (font (size 1.27 1.27)) hide)
      )
      (property "ki_description" "Schottky diode" (at 0 0 0)
        (effects (font (size 1.27 1.27)) hide)
      )
      (property "ki_fp_filters" "TO-???* *_Diode_* *SingleDiode* D_*" (at 0 0 0)
        (effects (font (size 1.27 1.27)) hide)
      )
      (symbol "D_Schottky_0_1"
        (polyline
          (pts
            (xy 1.27 0)
            (xy -1.27 0)
          )
          (stroke (width 0) (type default))
          (fill (type none))
        )
        (polyline
          (pts
            (xy 1.27 1.27)
            (xy 1.27 -1.27)
            (xy -1.27 0)
            (xy 1.27 1.27)
          )
          (stroke (width 0.254) (type default))
          (fill (type none))
        )
        (polyline
          (pts
            (xy -1.905 0.635)
            (xy -1.905 1.27)
            (xy -1.27 1.27)
            (xy -1.27 -1.27)
            (xy -0.635 -1.27)
            (xy -0.635 -0.635)
          )
          (stroke (width 0.254) (type default))
          (fill (type none))
        )
      )
      (symbol "D_Schottky_1_1"
        (pin passive line (at -3.81 0 0) (length 2.54)
          (name "K" (effects (font (size 1.27 1.27))))
          (number "1" (effects (font (size 1.27 1.27))))
        )
        (pin passive line (at 3.81 0 180) (length 2.54)
          (name "A" (effects (font (size 1.27 1.27))))
          (number "2" (effects (font (size 1.27 1.27))))
        )
      )
    )
    (symbol "Device:R" (pin_numbers hide) (pin_names (offset 0)) (in_bom yes) (on_board yes)
      (property "Reference" "R" (at 2.032 0 90)
        (effects (font (size 1.27 1.27)))
      )
      (property "Value" "R" (at 0 0 90)
        (effects (font (size 1.27 1.27)))
      )
      (property "Footprint" "" (at -1.778 0 90)
        (effects (font (size 1.27 1.27)) hide)
      )
      (property "Datasheet" "~" (at 0 0 0)
        (effects (font (size 1.27 1.27)) hide)
      )
      (property "ki_keywords" "R res resistor" (at 0 0 0)
        (effects (font (size 1.27 1.27)) hide)
      )
      (property "ki_description" "Resistor" (at 0 0 0)
        (effects (font (size 1.27 1.27)) hide)
      )
      (property "ki_fp_filters" "R_*" (at 0 0 0)
        (effects (font (size 1.27 1.27)) hide)
      )
      (symbol "R_0_1"
        (rectangle (start -1.016 -2.54) (end 1.016 2.54)
          (stroke (width 0.254) (type default))
          (fill (type none))
        )
      )
      (symbol "R_1_1"
        (pin passive line (at 0 3.81 270) (length 1.27)
          (name "~" (effects (font (size 1.27 1.27))))
          (number "1" (effects (font (size 1.27 1.27))))
        )
        (pin passive line (at 0 -3.81 90) (length 1.27)
          (name "~" (effects (font (size 1.27 1.27))))
          (number "2" (effects (font (size 1.27 1.27))))
        )
      )
    )
    (symbol "LandBoards_Cards:XIAO_RP2040" (pin_names (offset 1.016)) (in_bom yes) (on_board yes)
      (property "Reference" "BRD" (at 0 25.4 0)
        (effects (font (size 1.524 1.524)))
      )
      (property "Value" "XIAO_RP2040" (at 0 -11.43 0)
        (effects (font (size 1.524 1.524)))
      )
      (property "Footprint" "" (at 3.81 0 0)
        (effects (font (size 1.524 1.524)))
      )
      (property "Datasheet" "" (at 3.81 0 0)
        (effects (font (size 1.524 1.524)))
      )
      (symbol "XIAO_RP2040_0_0"
        (rectangle (start -15.24 24.13) (end 13.97 -10.16)
          (stroke (width 0) (type default))
          (fill (type none))
        )
      )
      (symbol "XIAO_RP2040_1_1"
        (pin bidirectional line (at -22.86 7.62 0) (length 7.62)
          (name "D0/P26" (effects (font (size 1.27 1.27))))
          (number "1" (effects (font (size 1.27 1.27))))
        )
        (pin bidirectional line (at 21.59 -2.54 180) (length 7.62)
          (name "D9/MISO/P4" (effects (font (size 1.27 1.27))))
          (number "10" (effects (font (size 1.27 1.27))))
        )
        (pin bidirectional line (at 21.59 0 180) (length 7.62)
          (name "D10/MOSI/P3" (effects (font (size 1.27 1.27))))
          (number "11" (effects (font (size 1.27 1.27))))
        )
        (pin power_out line (at 21.59 2.54 180) (length 7.62)
          (name "3.3V" (effects (font (size 1.27 1.27))))
          (number "12" (effects (font (size 1.27 1.27))))
        )
        (pin power_in line (at 21.59 5.08 180) (length 7.62)
          (name "GND" (effects (font (size 1.27 1.27))))
          (number "13" (effects (font (size 1.27 1.27))))
        )
        (pin power_in line (at -22.86 21.59 0) (length 7.62)
          (name "5V" (effects (font (size 1.27 1.27))))
          (number "14" (effects (font (size 1.27 1.27))))
        )
        (pin bidirectional line (at -22.86 5.08 0) (length 7.62)
          (name "D1/P27" (effects (font (size 1.27 1.27))))
          (number "2" (effects (font (size 1.27 1.27))))
        )
        (pin bidirectional line (at -22.86 2.54 0) (length 7.62)
          (name "D2/P28" (effects (font (size 1.27 1.27))))
          (number "3" (effects (font (size 1.27 1.27))))
        )
        (pin bidirectional line (at -22.86 0 0) (length 7.62)
          (name "D3/P29" (effects (font (size 1.27 1.27))))
          (number "4" (effects (font (size 1.27 1.27))))
        )
        (pin bidirectional line (at -22.86 -2.54 0) (length 7.62)
          (name "D4/SDA/P6" (effects (font (size 1.27 1.27))))
          (number "5" (effects (font (size 1.27 1.27))))
        )
        (pin bidirectional line (at -22.86 -5.08 0) (length 7.62)
          (name "D5/SCL/P7" (effects (font (size 1.27 1.27))))
          (number "6" (effects (font (size 1.27 1.27))))
        )
        (pin bidirectional line (at -22.86 -7.62 0) (length 7.62)
          (name "D6/TX/P0" (effects (font (size 1.27 1.27))))
          (number "7" (effects (font (size 1.27 1.27))))
        )
        (pin bidirectional line (at 21.59 -7.62 180) (length 7.62)
          (name "D7/RX/P1" (effects (font (size 1.27 1.27))))
          (number "8" (effects (font (size 1.27 1.27))))
        )
        (pin bidirectional line (at 21.59 -5.08 180) (length 7.62)
          (name "D8/SCK/P2" (effects (font (size 1.27 1.27))))
          (number "9" (effects (font (size 1.27 1.27))))
        )
      )
    )
    (symbol "power:+12V" (power) (pin_names (offset 0)) (in_bom yes) (on_board yes)
      (property "Reference" "#PWR" (at 0 -3.81 0)
        (effects (font (size 1.27 1.27)) hide)
      )
      (property "Value" "+12V" (at 0 3.556 0)
        (effects (font (size 1.27 1.27)))
      )
      (property "Footprint" "" (at 0 0 0)
        (effects (font (size 1.27 1.27)) hide)
      )
      (property "Datasheet" "" (at 0 0 0)
        (effects (font (size 1.27 1.27)) hide)
      )
      (property "ki_keywords" "power-flag" (at 0 0 0)
        (effects (font (size 1.27 1.27)) hide)
      )
      (property "ki_description" "Power symbol creates a global label with name \"+12V\"" (at 0 0 0)
        (effects (font (size 1.27 1.27)) hide)
      )
      (symbol "+12V_0_1"
        (polyline
          (pts
            (xy -0.762 1.27)
            (xy 0 2.54)
          )
          (stroke (width 0) (type default))
          (fill (type none))
        )
        (polyline
          (pts
            (xy 0 0)
            (xy 0 2.54)
          )
          (stroke (width 0) (type default))
          (fill (type none))
        )
        (polyline
          (pts
            (xy 0 2.54)
            (xy 0.762 1.27)
          )
          (stroke (width 0) (type default))
          (fill (type none))
        )
      )
      (symbol "+12V_1_1"
        (pin power_in line (at 0 0 90) (length 0) hide
          (name "+12V" (effects (font (size 1.27 1.27))))
          (number "1" (effects (font (size 1.27 1.27))))
        )
      )
    )
    (symbol "power:+3.3V" (power) (pin_names (offset 0)) (in_bom yes) (on_board yes)
      (property "Reference" "#PWR" (at 0 -3.81 0)
        (effects (font (size 1.27 1.27)) hide)
      )
      (property "Value" "+3.3V" (at 0 3.556 0)
        (effects (font (size 1.27 1.27)))
      )
      (property "Footprint" "" (at 0 0 0)
        (effects (font (size 1.27 1.27)) hide)
      )
      (property "Datasheet" "" (at 0 0 0)
        (effects (font (size 1.27 1.27)) hide)
      )
      (property "ki_keywords" "power-flag" (at 0 0 0)
        (effects (font (size 1.27 1.27)) hide)
      )
      (property "ki_description" "Power symbol creates a global label with name \"+3.3V\"" (at 0 0 0)
        (effects (font (size 1.27 1.27)) hide)
      )
      (symbol "+3.3V_0_1"
        (polyline
          (pts
            (xy -0.762 1.27)
            (xy 0 2.54)
          )
          (stroke (width 0) (type default))
          (fill (type none))
        )
        (polyline
          (pts
            (xy 0 0)
            (xy 0 2.54)
          )
          (stroke (width 0) (type default))
          (fill (type none))
        )
        (polyline
          (pts
            (xy 0 2.54)
            (xy 0.762 1.27)
          )
          (stroke (width 0) (type default))
          (fill (type none))
        )
      )
      (symbol "+3.3V_1_1"
        (pin power_in line (at 0 0 90) (length 0) hide
          (name "+3V3" (effects (font (size 1.27 1.27))))
          (number "1" (effects (font (size 1.27 1.27))))
        )
      )
    )
    (symbol "power:+5V" (power) (pin_names (offset 0)) (in_bom yes) (on_board yes)
      (property "Reference" "#PWR" (at 0 -3.81 0)
        (effects (font (size 1.27 1.27)) hide)
      )
      (property "Value" "+5V" (at 0 3.556 0)
        (effects (font (size 1.27 1.27)))
      )
      (property "Footprint" "" (at 0 0 0)
        (effects (font (size 1.27 1.27)) hide)
      )
      (property "Datasheet" "" (at 0 0 0)
        (effects (font (size 1.27 1.27)) hide)
      )
      (property "ki_keywords" "power-flag" (at 0 0 0)
        (effects (font (size 1.27 1.27)) hide)
      )
      (property "ki_description" "Power symbol creates a global label with name \"+5V\"" (at 0 0 0)
        (effects (font (size 1.27 1.27)) hide)
      )
      (symbol "+5V_0_1"
        (polyline
          (pts
            (xy -0.762 1.27)
            (xy 0 2.54)
          )
          (stroke (width 0) (type default))
          (fill (type none))
        )
        (polyline
          (pts
            (xy 0 0)
            (xy 0 2.54)
          )
          (stroke (width 0) (type default))
          (fill (type none))
        )
        (polyline
          (pts
            (xy 0 2.54)
            (xy 0.762 1.27)
          )
          (stroke (width 0) (type default))
          (fill (type none))
        )
      )
      (symbol "+5V_1_1"
        (pin power_in line (at 0 0 90) (length 0) hide
          (name "+5V" (effects (font (size 1.27 1.27))))
          (number "1" (effects (font (size 1.27 1.27))))
        )
      )
    )
    (symbol "power:+5VD" (power) (pin_names (offset 0)) (in_bom yes) (on_board yes)
      (property "Reference" "#PWR" (at 0 -3.81 0)
        (effects (font (size 1.27 1.27)) hide)
      )
      (property "Value" "+5VD" (at 0 3.556 0)
        (effects (font (size 1.27 1.27)))
      )
      (property "Footprint" "" (at 0 0 0)
        (effects (font (size 1.27 1.27)) hide)
      )
      (property "Datasheet" "" (at 0 0 0)
        (effects (font (size 1.27 1.27)) hide)
      )
      (property "ki_keywords" "power-flag" (at 0 0 0)
        (effects (font (size 1.27 1.27)) hide)
      )
      (property "ki_description" "Power symbol creates a global label with name \"+5VD\"" (at 0 0 0)
        (effects (font (size 1.27 1.27)) hide)
      )
      (symbol "+5VD_0_1"
        (polyline
          (pts
            (xy -0.762 1.27)
            (xy 0 2.54)
          )
          (stroke (width 0) (type default))
          (fill (type none))
        )
        (polyline
          (pts
            (xy 0 0)
            (xy 0 2.54)
          )
          (stroke (width 0) (type default))
          (fill (type none))
        )
        (polyline
          (pts
            (xy 0 2.54)
            (xy 0.762 1.27)
          )
          (stroke (width 0) (type default))
          (fill (type none))
        )
      )
      (symbol "+5VD_1_1"
        (pin power_in line (at 0 0 90) (length 0) hide
          (name "+5VD" (effects (font (size 1.27 1.27))))
          (number "1" (effects (font (size 1.27 1.27))))
        )
      )
    )
    (symbol "power:GND" (power) (pin_names (offset 0)) (in_bom yes) (on_board yes)
      (property "Reference" "#PWR" (at 0 -6.35 0)
        (effects (font (size 1.27 1.27)) hide)
      )
      (property "Value" "GND" (at 0 -3.81 0)
        (effects (font (size 1.27 1.27)))
      )
      (property "Footprint" "" (at 0 0 0)
        (effects (font (size 1.27 1.27)) hide)
      )
      (property "Datasheet" "" (at 0 0 0)
        (effects (font (size 1.27 1.27)) hide)
      )
      (property "ki_keywords" "power-flag" (at 0 0 0)
        (effects (font (size 1.27 1.27)) hide)
      )
      (property "ki_description" "Power symbol creates a global label with name \"GND\" , ground" (at 0 0 0)
        (effects (font (size 1.27 1.27)) hide)
      )
      (symbol "GND_0_1"
        (polyline
          (pts
            (xy 0 0)
            (xy 0 -1.27)
            (xy 1.27 -1.27)
            (xy 0 -2.54)
            (xy -1.27 -1.27)
            (xy 0 -1.27)
          )
          (stroke (width 0) (type default))
          (fill (type none))
        )
      )
      (symbol "GND_1_1"
        (pin power_in line (at 0 0 270) (length 0) hide
          (name "GND" (effects (font (size 1.27 1.27))))
          (number "1" (effects (font (size 1.27 1.27))))
        )
      )
    )
  )

  (junction (at 100.33 93.98) (diameter 0) (color 0 0 0 0)
    (uuid 3b1195bd-1881-439d-bcc7-2a991f5264df)
  )
  (junction (at 232.41 46.99) (diameter 0) (color 0 0 0 0)
    (uuid 3c629693-a26b-4f9d-bebc-619ba7f1c002)
  )
  (junction (at 36.83 173.99) (diameter 0) (color 0 0 0 0)
    (uuid 3f63a2b0-b68f-4f63-9d5f-f5ce53b75bec)
  )
  (junction (at 127 52.07) (diameter 0) (color 0 0 0 0)
    (uuid 4b554246-2bd5-491f-ab94-32f328b0d5db)
  )
  (junction (at 232.41 44.45) (diameter 0) (color 0 0 0 0)
    (uuid 4b7f481a-ffab-49b6-ab70-058e45c84eb0)
  )
  (junction (at 138.43 52.07) (diameter 0) (color 0 0 0 0)
    (uuid 55334cd7-9c95-425e-8a97-45e0c63de769)
  )
  (junction (at 41.91 69.85) (diameter 0) (color 0 0 0 0)
    (uuid 6aa3ec62-1775-497e-a673-903e63fd5c06)
  )
  (junction (at 115.57 52.07) (diameter 0) (color 0 0 0 0)
    (uuid 6b39b79c-e285-4d1b-8e3e-bfe03132416f)
  )
  (junction (at 149.86 72.39) (diameter 0) (color 0 0 0 0)
    (uuid 84003cc6-3aa0-4f53-b02c-d28087d8951a)
  )
  (junction (at 54.61 176.53) (diameter 0) (color 0 0 0 0)
    (uuid 8bc969ef-0b49-4526-aaf1-e8d5b6449323)
  )
  (junction (at 36.83 176.53) (diameter 0) (color 0 0 0 0)
    (uuid a8e40db7-ef5a-4c35-b021-fb8e131413a6)
  )
  (junction (at 172.72 54.61) (diameter 0) (color 0 0 0 0)
    (uuid b866eb8f-fabf-4098-a853-c13a78140385)
  )
  (junction (at 59.69 140.97) (diameter 0) (color 0 0 0 0)
    (uuid bea68987-dbeb-4657-accf-4da0bfde714a)
  )
  (junction (at 175.26 54.61) (diameter 0) (color 0 0 0 0)
    (uuid da538e7b-5cc1-49bc-a2a0-e9d71efe7392)
  )
  (junction (at 54.61 173.99) (diameter 0) (color 0 0 0 0)
    (uuid ed73f421-210f-463e-8416-475f22c56ef2)
  )
  (junction (at 237.49 68.58) (diameter 0) (color 0 0 0 0)
    (uuid f03868c1-2b18-4c11-b3f7-3299b656987b)
  )
  (junction (at 176.53 54.61) (diameter 0) (color 0 0 0 0)
    (uuid f28168cf-a585-40fc-b8c0-c74fc10f14ef)
  )
  (junction (at 237.49 106.68) (diameter 0) (color 0 0 0 0)
    (uuid f4da6fcf-f5f2-4a6e-97c7-c177e7741b60)
  )

  (wire (pts (xy 232.41 41.91) (xy 234.95 41.91))
    (stroke (width 0) (type default))
    (uuid 010e2452-339a-4e50-9fe7-61ed319793a0)
  )
  (wire (pts (xy 39.37 171.45) (xy 36.83 171.45))
    (stroke (width 0) (type default))
    (uuid 08138ea7-490c-46a6-8bd8-49d5c9c3e8f0)
  )
  (wire (pts (xy 17.78 163.83) (xy 39.37 163.83))
    (stroke (width 0) (type default))
    (uuid 08c02e4e-9e87-4f03-9cf1-25c75cbd6a8e)
  )
  (wire (pts (xy 229.87 148.59) (xy 219.71 148.59))
    (stroke (width 0) (type default))
    (uuid 091af1d0-f5bc-47bd-b319-f2635c807b5a)
  )
  (wire (pts (xy 218.44 88.9) (xy 240.03 88.9))
    (stroke (width 0) (type default))
    (uuid 09228836-aa50-4ecb-9fcc-a7a2aeb76f01)
  )
  (wire (pts (xy 176.53 54.61) (xy 191.77 54.61))
    (stroke (width 0) (type default))
    (uuid 0a0b74b7-a2f5-41c7-988a-bd4ed87a088c)
  )
  (wire (pts (xy 90.17 93.98) (xy 100.33 93.98))
    (stroke (width 0) (type default))
    (uuid 0a6b69b5-d679-44ae-bcfa-dbe2db696e9d)
  )
  (wire (pts (xy 232.41 44.45) (xy 232.41 41.91))
    (stroke (width 0) (type default))
    (uuid 0f7d9ff4-cfea-472b-87af-b3b9304e40eb)
  )
  (wire (pts (xy 200.66 156.21) (xy 200.66 158.75))
    (stroke (width 0) (type default))
    (uuid 12840bdc-1357-40f9-9f78-e1b6f53b8557)
  )
  (wire (pts (xy 175.26 43.18) (xy 175.26 44.45))
    (stroke (width 0) (type default))
    (uuid 12da1d6c-909e-4b21-b107-afe139ec2186)
  )
  (wire (pts (xy 54.61 173.99) (xy 54.61 176.53))
    (stroke (width 0) (type default))
    (uuid 153942f5-a462-44fe-b3a1-0dfce1ac5bf5)
  )
  (wire (pts (xy 29.21 93.98) (xy 45.72 93.98))
    (stroke (width 0) (type default))
    (uuid 1584ed85-ba55-4de7-bf87-42cb27c7a460)
  )
  (wire (pts (xy 227.33 153.67) (xy 227.33 162.56))
    (stroke (width 0) (type default))
    (uuid 15d6d123-2619-48b1-9230-de18e27dacdd)
  )
  (wire (pts (xy 38.1 80.01) (xy 38.1 78.74))
    (stroke (width 0) (type default))
    (uuid 18a95a9a-2367-4d83-bd95-c5283950e408)
  )
  (wire (pts (xy 218.44 76.2) (xy 240.03 76.2))
    (stroke (width 0) (type default))
    (uuid 1ac3f38e-f8b9-44a1-a77e-41e68b1fba71)
  )
  (wire (pts (xy 73.66 137.16) (xy 73.66 140.97))
    (stroke (width 0) (type default))
    (uuid 1d934b79-4091-4bcf-9ef7-7d7140fb989e)
  )
  (wire (pts (xy 17.78 161.29) (xy 39.37 161.29))
    (stroke (width 0) (type default))
    (uuid 1db772c7-52bf-4cd8-9b01-4652c3413dc1)
  )
  (wire (pts (xy 218.44 93.98) (xy 240.03 93.98))
    (stroke (width 0) (type default))
    (uuid 1f5e0582-6e9b-489e-a357-8d62a842372a)
  )
  (wire (pts (xy 36.83 176.53) (xy 36.83 184.15))
    (stroke (width 0) (type default))
    (uuid 20b4a9fd-06c0-445f-afed-146759f2bb5b)
  )
  (wire (pts (xy 218.44 96.52) (xy 240.03 96.52))
    (stroke (width 0) (type default))
    (uuid 214cda44-dca4-4721-835e-c87ac0480dc8)
  )
  (wire (pts (xy 240.03 71.12) (xy 237.49 71.12))
    (stroke (width 0) (type default))
    (uuid 25029fb5-7596-44b5-9bb6-4338e0a77242)
  )
  (wire (pts (xy 90.17 101.6) (xy 95.25 101.6))
    (stroke (width 0) (type default))
    (uuid 2b501503-a87e-463c-9597-5d487eac8429)
  )
  (wire (pts (xy 115.57 52.07) (xy 115.57 55.88))
    (stroke (width 0) (type default))
    (uuid 2d182362-6016-45ca-8fdb-aeaa8915ed96)
  )
  (wire (pts (xy 116.84 52.07) (xy 115.57 52.07))
    (stroke (width 0) (type default))
    (uuid 2dc0b721-31bd-4642-886c-11a7e1fa5443)
  )
  (wire (pts (xy 36.83 173.99) (xy 36.83 176.53))
    (stroke (width 0) (type default))
    (uuid 32e6e0eb-d034-4567-9b38-1567746a6d90)
  )
  (wire (pts (xy 29.21 104.14) (xy 45.72 104.14))
    (stroke (width 0) (type default))
    (uuid 351e38e5-8979-45d6-ae75-ffba44bdf20e)
  )
  (wire (pts (xy 138.43 62.23) (xy 138.43 63.5))
    (stroke (width 0) (type default))
    (uuid 355325c7-2dbe-410f-95b7-ba337770fb1f)
  )
  (wire (pts (xy 59.69 140.97) (xy 63.5 140.97))
    (stroke (width 0) (type default))
    (uuid 37da7eaa-a952-4def-a1be-d160b14e844c)
  )
  (wire (pts (xy 218.44 78.74) (xy 240.03 78.74))
    (stroke (width 0) (type default))
    (uuid 38693425-24e0-4b78-adff-b26e77b3b89f)
  )
  (wire (pts (xy 41.91 74.93) (xy 41.91 69.85))
    (stroke (width 0) (type default))
    (uuid 38b940e9-3418-4fb9-bf48-d2e00e411801)
  )
  (wire (pts (xy 229.87 153.67) (xy 227.33 153.67))
    (stroke (width 0) (type default))
    (uuid 38d57e22-ad0a-4f5f-9325-a0992e912fca)
  )
  (wire (pts (xy 39.37 166.37) (xy 33.02 166.37))
    (stroke (width 0) (type default))
    (uuid 39f46497-33f3-4238-9238-07dccd529d9f)
  )
  (wire (pts (xy 41.91 69.85) (xy 41.91 67.31))
    (stroke (width 0) (type default))
    (uuid 3b3913ed-d3b1-4164-8dc2-8d2f99dd11d5)
  )
  (wire (pts (xy 172.72 54.61) (xy 175.26 54.61))
    (stroke (width 0) (type default))
    (uuid 3c031824-fc26-45a4-9cd4-6655cd9328c3)
  )
  (wire (pts (xy 33.02 166.37) (xy 33.02 156.21))
    (stroke (width 0) (type default))
    (uuid 3e632b5d-b44b-4812-b8c8-c04c6ca498e6)
  )
  (wire (pts (xy 95.25 52.07) (xy 106.68 52.07))
    (stroke (width 0) (type default))
    (uuid 40a4c701-ff1d-4b88-8856-dcf4cfed1301)
  )
  (wire (pts (xy 219.71 148.59) (xy 219.71 156.21))
    (stroke (width 0) (type default))
    (uuid 42119621-1c02-48c6-97c0-f29483c36b25)
  )
  (wire (pts (xy 90.17 104.14) (xy 127 104.14))
    (stroke (width 0) (type default))
    (uuid 431ad2b3-efb1-4bca-b248-56233d6f0de9)
  )
  (wire (pts (xy 54.61 171.45) (xy 54.61 173.99))
    (stroke (width 0) (type default))
    (uuid 4770ba66-8809-48b6-b935-3ba228a3cea4)
  )
  (wire (pts (xy 41.91 74.93) (xy 45.72 74.93))
    (stroke (width 0) (type default))
    (uuid 4a0209f6-55fa-467f-8c11-ee625db517b1)
  )
  (wire (pts (xy 237.49 110.49) (xy 237.49 106.68))
    (stroke (width 0) (type default))
    (uuid 4a2b5cd4-5349-4db9-bad8-5838bfe646c9)
  )
  (wire (pts (xy 115.57 64.77) (xy 115.57 63.5))
    (stroke (width 0) (type default))
    (uuid 4b67c516-a47b-4a5a-932c-784048028dd3)
  )
  (wire (pts (xy 90.17 96.52) (xy 127 96.52))
    (stroke (width 0) (type default))
    (uuid 4bc6d592-4ec5-4893-8c70-9a59b476cfb8)
  )
  (wire (pts (xy 162.56 72.39) (xy 172.72 72.39))
    (stroke (width 0) (type default))
    (uuid 4cfa26f1-51c7-4feb-9ee3-c7a34ca43d50)
  )
  (wire (pts (xy 95.25 52.07) (xy 95.25 101.6))
    (stroke (width 0) (type default))
    (uuid 4e21ace9-309e-4531-8250-a2fc37089e7f)
  )
  (wire (pts (xy 39.37 168.91) (xy 26.67 168.91))
    (stroke (width 0) (type default))
    (uuid 4f4c4499-cb44-43b1-968b-536973bbe879)
  )
  (wire (pts (xy 127 64.77) (xy 127 63.5))
    (stroke (width 0) (type default))
    (uuid 59505d27-ae56-4a5d-8d0b-cec1be2216d2)
  )
  (wire (pts (xy 124.46 52.07) (xy 127 52.07))
    (stroke (width 0) (type default))
    (uuid 598a7d22-0168-4c29-9d13-f7c3e8466dfb)
  )
  (wire (pts (xy 29.21 99.06) (xy 45.72 99.06))
    (stroke (width 0) (type default))
    (uuid 5ad140c3-b41e-4e55-be69-bf484cb1f14c)
  )
  (wire (pts (xy 138.43 52.07) (xy 138.43 54.61))
    (stroke (width 0) (type default))
    (uuid 5bfd266b-07ea-4441-8118-4b014ddce1f2)
  )
  (wire (pts (xy 90.17 99.06) (xy 127 99.06))
    (stroke (width 0) (type default))
    (uuid 5cad38ce-fcb3-47ed-9092-c2848bb4c328)
  )
  (wire (pts (xy 29.21 101.6) (xy 45.72 101.6))
    (stroke (width 0) (type default))
    (uuid 62ea801a-4460-4691-aac9-1e31fb779547)
  )
  (wire (pts (xy 41.91 69.85) (xy 38.1 69.85))
    (stroke (width 0) (type default))
    (uuid 635cfc6a-e1ee-410a-8407-cd6bff175006)
  )
  (wire (pts (xy 52.07 168.91) (xy 66.04 168.91))
    (stroke (width 0) (type default))
    (uuid 64574606-f0a8-4fba-95df-627c7979d6c9)
  )
  (wire (pts (xy 176.53 54.61) (xy 176.53 57.15))
    (stroke (width 0) (type default))
    (uuid 64f6aca9-49c3-402c-877c-bb0a51379943)
  )
  (wire (pts (xy 36.83 173.99) (xy 39.37 173.99))
    (stroke (width 0) (type default))
    (uuid 6524bd4e-0022-4132-be01-ff9a71bf3be3)
  )
  (wire (pts (xy 149.86 57.15) (xy 152.4 57.15))
    (stroke (width 0) (type default))
    (uuid 658bc658-22d8-43e1-87b0-4051e249d69a)
  )
  (wire (pts (xy 218.44 91.44) (xy 240.03 91.44))
    (stroke (width 0) (type default))
    (uuid 67c41640-a5e7-4fd7-a17b-9c7fc94c4026)
  )
  (wire (pts (xy 227.33 162.56) (xy 247.65 162.56))
    (stroke (width 0) (type default))
    (uuid 69b62e81-2bf8-4210-9c14-7261655832ca)
  )
  (wire (pts (xy 26.67 156.21) (xy 26.67 168.91))
    (stroke (width 0) (type default))
    (uuid 6e38957b-39f3-4f36-9e4f-a337632a7ed6)
  )
  (wire (pts (xy 59.69 140.97) (xy 59.69 137.16))
    (stroke (width 0) (type default))
    (uuid 74e607b3-022f-4799-88c7-f8b8cf8c1ff6)
  )
  (wire (pts (xy 149.86 72.39) (xy 149.86 73.66))
    (stroke (width 0) (type default))
    (uuid 778a00e4-f47a-486a-8b73-b57b4a14cf63)
  )
  (wire (pts (xy 167.64 54.61) (xy 172.72 54.61))
    (stroke (width 0) (type default))
    (uuid 77e32e36-6ff3-40bb-a9ae-48ff717f4e9b)
  )
  (wire (pts (xy 237.49 71.12) (xy 237.49 68.58))
    (stroke (width 0) (type default))
    (uuid 7dded36b-34c2-4ef7-9071-c748b2b7c2f5)
  )
  (wire (pts (xy 172.72 72.39) (xy 172.72 54.61))
    (stroke (width 0) (type default))
    (uuid 819a390a-ef4b-4ed5-af97-699f1a2cb14b)
  )
  (wire (pts (xy 73.66 140.97) (xy 71.12 140.97))
    (stroke (width 0) (type default))
    (uuid 830dec47-e269-4060-9daa-a24dae40f43f)
  )
  (wire (pts (xy 29.21 91.44) (xy 45.72 91.44))
    (stroke (width 0) (type default))
    (uuid 842e12df-c6d0-44fb-af69-825a842fe81a)
  )
  (wire (pts (xy 149.86 81.28) (xy 149.86 82.55))
    (stroke (width 0) (type default))
    (uuid 852692c2-3086-48d3-b4db-e35bbd1a3415)
  )
  (wire (pts (xy 54.61 176.53) (xy 54.61 184.15))
    (stroke (width 0) (type default))
    (uuid 85547538-3eb1-4382-b35f-1fcf2103631f)
  )
  (wire (pts (xy 90.17 91.44) (xy 92.71 91.44))
    (stroke (width 0) (type default))
    (uuid 8cfe58e6-5896-4bba-b750-8a7d91db674a)
  )
  (wire (pts (xy 138.43 52.07) (xy 152.4 52.07))
    (stroke (width 0) (type default))
    (uuid 8e35a348-4653-4c7c-a672-efa77ef32d0e)
  )
  (wire (pts (xy 237.49 68.58) (xy 237.49 63.5))
    (stroke (width 0) (type default))
    (uuid 8e430cfa-9915-46b7-9c9e-27169ca83f39)
  )
  (wire (pts (xy 232.41 50.8) (xy 232.41 46.99))
    (stroke (width 0) (type default))
    (uuid 8f2344ac-4117-4fec-97eb-33c6ee1442fa)
  )
  (wire (pts (xy 115.57 52.07) (xy 114.3 52.07))
    (stroke (width 0) (type default))
    (uuid 92b7dd35-d700-40f1-a638-5284e01f2971)
  )
  (wire (pts (xy 200.66 139.7) (xy 200.66 140.97))
    (stroke (width 0) (type default))
    (uuid 9359880e-ee29-4880-bee7-e3ce0e11e0c7)
  )
  (wire (pts (xy 52.07 171.45) (xy 54.61 171.45))
    (stroke (width 0) (type default))
    (uuid 95ee9771-79bc-4bb0-9283-9289572e8a33)
  )
  (wire (pts (xy 100.33 114.3) (xy 100.33 113.03))
    (stroke (width 0) (type default))
    (uuid 96e4f3c4-f20e-4c10-a72d-87256b11846f)
  )
  (wire (pts (xy 127 52.07) (xy 138.43 52.07))
    (stroke (width 0) (type default))
    (uuid 98afd629-a548-495a-b67c-059753580f3f)
  )
  (wire (pts (xy 175.26 54.61) (xy 176.53 54.61))
    (stroke (width 0) (type default))
    (uuid 98ecce69-96a2-4e91-b2bb-4a8536a379bd)
  )
  (wire (pts (xy 52.07 161.29) (xy 74.93 161.29))
    (stroke (width 0) (type default))
    (uuid 9a434b45-c5e1-48a5-a4c6-e1f388e90587)
  )
  (wire (pts (xy 232.41 46.99) (xy 234.95 46.99))
    (stroke (width 0) (type default))
    (uuid 9bcc0dea-e586-4d33-babe-2c8bc7b0922f)
  )
  (wire (pts (xy 218.44 73.66) (xy 240.03 73.66))
    (stroke (width 0) (type default))
    (uuid a6b973bf-3c82-4206-bae7-4f835d16d359)
  )
  (wire (pts (xy 218.44 99.06) (xy 240.03 99.06))
    (stroke (width 0) (type default))
    (uuid a9799945-6524-4792-9375-160ea9239fdb)
  )
  (wire (pts (xy 38.1 69.85) (xy 38.1 71.12))
    (stroke (width 0) (type default))
    (uuid ac4eab25-ffd0-4731-8972-f141f5c3af7a)
  )
  (wire (pts (xy 218.44 83.82) (xy 240.03 83.82))
    (stroke (width 0) (type default))
    (uuid ad99d4a3-0792-418d-8afc-7300486bdc4f)
  )
  (wire (pts (xy 232.41 44.45) (xy 234.95 44.45))
    (stroke (width 0) (type default))
    (uuid b0edb842-cf8e-4ab3-9234-ddb2d72b579b)
  )
  (wire (pts (xy 237.49 106.68) (xy 237.49 104.14))
    (stroke (width 0) (type default))
    (uuid b1cbc4f0-17fb-4719-ab73-cd4b51a1994f)
  )
  (wire (pts (xy 237.49 104.14) (xy 240.03 104.14))
    (stroke (width 0) (type default))
    (uuid b2af3aa4-f89b-4c16-857a-5cfff47a1b68)
  )
  (wire (pts (xy 237.49 68.58) (xy 240.03 68.58))
    (stroke (width 0) (type default))
    (uuid b2fda8ee-72ef-4f23-9875-13c63f85543e)
  )
  (wire (pts (xy 237.49 106.68) (xy 240.03 106.68))
    (stroke (width 0) (type default))
    (uuid b3de8feb-aec7-4867-979c-ca4e1778f431)
  )
  (wire (pts (xy 176.53 66.04) (xy 176.53 64.77))
    (stroke (width 0) (type default))
    (uuid b6bf24ac-2605-41e1-84da-bd20447b8bb7)
  )
  (wire (pts (xy 247.65 162.56) (xy 247.65 151.13))
    (stroke (width 0) (type default))
    (uuid b73e65ab-b38a-4a0c-a32e-ece1ded8aec2)
  )
  (wire (pts (xy 52.07 166.37) (xy 59.69 166.37))
    (stroke (width 0) (type default))
    (uuid ba98c835-f077-4f76-9395-e7696912c474)
  )
  (wire (pts (xy 218.44 86.36) (xy 240.03 86.36))
    (stroke (width 0) (type default))
    (uuid bdf95e72-27a4-4454-a958-3620a53b1a5e)
  )
  (wire (pts (xy 218.44 81.28) (xy 240.03 81.28))
    (stroke (width 0) (type default))
    (uuid c54e3e05-4b50-419b-8c20-b95b88b96936)
  )
  (wire (pts (xy 100.33 88.9) (xy 100.33 93.98))
    (stroke (width 0) (type default))
    (uuid c6b7f2fb-f8e2-43e2-8199-d6f515e15138)
  )
  (wire (pts (xy 36.83 171.45) (xy 36.83 173.99))
    (stroke (width 0) (type default))
    (uuid c819c04d-c81d-4e0e-9d79-ed0d828380d2)
  )
  (wire (pts (xy 218.44 101.6) (xy 240.03 101.6))
    (stroke (width 0) (type default))
    (uuid cc8b4646-8656-41ff-8571-30f0ed990a17)
  )
  (wire (pts (xy 66.04 156.21) (xy 66.04 168.91))
    (stroke (width 0) (type default))
    (uuid cf70cffa-c8e4-442f-8fcf-01a3478fb9b7)
  )
  (wire (pts (xy 59.69 166.37) (xy 59.69 140.97))
    (stroke (width 0) (type default))
    (uuid d552119a-a29e-4ed3-8608-6627ee486fc9)
  )
  (wire (pts (xy 52.07 173.99) (xy 54.61 173.99))
    (stroke (width 0) (type default))
    (uuid d7b25f40-3ba3-4d06-9ced-639d5d19c074)
  )
  (wire (pts (xy 92.71 91.44) (xy 92.71 109.22))
    (stroke (width 0) (type default))
    (uuid dbe02ce0-1eca-4db9-a8c7-ea39e8b4da43)
  )
  (wire (pts (xy 232.41 46.99) (xy 232.41 44.45))
    (stroke (width 0) (type default))
    (uuid e1d2be48-0a84-49c9-a84b-bfff0ab7cb6a)
  )
  (wire (pts (xy 127 52.07) (xy 127 55.88))
    (stroke (width 0) (type default))
    (uuid e4d4a1c2-3976-42f7-a209-093b59a7712e)
  )
  (wire (pts (xy 149.86 72.39) (xy 149.86 57.15))
    (stroke (width 0) (type default))
    (uuid e6cf6f12-0e64-46b0-9406-ac2b9a4c6549)
  )
  (wire (pts (xy 36.83 176.53) (xy 39.37 176.53))
    (stroke (width 0) (type default))
    (uuid e71e9a2a-2076-4135-853a-0b38d46fca16)
  )
  (wire (pts (xy 52.07 176.53) (xy 54.61 176.53))
    (stroke (width 0) (type default))
    (uuid f257c445-45e9-46d3-a85e-f3ace40176eb)
  )
  (wire (pts (xy 154.94 72.39) (xy 149.86 72.39))
    (stroke (width 0) (type default))
    (uuid f49dfff6-9448-46d6-bbae-c3161359f5a8)
  )
  (wire (pts (xy 52.07 163.83) (xy 74.93 163.83))
    (stroke (width 0) (type default))
    (uuid f6ee6958-c5d8-4768-8fa6-bac61398cd9a)
  )
  (wire (pts (xy 100.33 105.41) (xy 100.33 93.98))
    (stroke (width 0) (type default))
    (uuid f6fbf72b-8eda-4b31-8707-82335ef409de)
  )
  (wire (pts (xy 175.26 52.07) (xy 175.26 54.61))
    (stroke (width 0) (type default))
    (uuid f9f2840d-25cf-497a-b25a-e4b16bab0275)
  )
  (wire (pts (xy 29.21 96.52) (xy 45.72 96.52))
    (stroke (width 0) (type default))
    (uuid fa2edfb3-0caa-4771-9a7e-3a9d24d521bc)
  )
  (wire (pts (xy 29.21 88.9) (xy 45.72 88.9))
    (stroke (width 0) (type default))
    (uuid ff8384c7-24b0-4fca-9579-476148bd2b62)
  )

  (text "used as support" (at 242.57 45.72 0)
    (effects (font (size 1.27 1.27)) (justify left bottom))
    (uuid 13a8189f-f99a-43b7-923b-85fc7a19f85f)
  )
  (text "EURORACK POWER" (at 31.75 194.31 0)
    (effects (font (size 1.905 1.905) (thickness 0.381) bold) (justify left bottom))
    (uuid a4275acf-ee62-43b6-a9c7-24c8975f1fb9)
  )

  (label "OCT_DN_PB" (at 106.68 104.14 0) (fields_autoplaced)
    (effects (font (size 1.27 1.27)) (justify left bottom))
    (uuid 0e5f9678-2fc9-4989-86a0-a2753e39683e)
  )
  (label "MODE_DN_PB" (at 106.68 99.06 0) (fields_autoplaced)
    (effects (font (size 1.27 1.27)) (justify left bottom))
    (uuid 0eb9bb5a-9bb2-49fa-a7fb-9c27470b6d19)
  )
  (label "FREQ_POT" (at 220.98 88.9 0) (fields_autoplaced)
    (effects (font (size 1.27 1.27)) (justify left bottom))
    (uuid 12831a56-b340-4e5f-882c-be6474e316c2)
  )
  (label "GATE_CTL" (at 31.75 101.6 0) (fields_autoplaced)
    (effects (font (size 1.27 1.27)) (justify left bottom))
    (uuid 12be23f9-f502-46ea-bc49-83f436aa7da4)
  )
  (label "MODE_DN_PB" (at 220.98 91.44 0) (fields_autoplaced)
    (effects (font (size 1.27 1.27)) (justify left bottom))
    (uuid 145563ca-f9b2-4f01-a2fc-1817e91fbf47)
  )
  (label "GATE" (at 68.58 161.29 0) (fields_autoplaced)
    (effects (font (size 1.27 1.27)) (justify left bottom))
    (uuid 35682d85-1b72-4b49-a989-596b09b5a55d)
  )
  (label "MOD_POT" (at 220.98 78.74 0) (fields_autoplaced)
    (effects (font (size 1.27 1.27)) (justify left bottom))
    (uuid 3763b2d2-de22-4991-be4b-333925a103b6)
  )
  (label "MOD_CV" (at 31.75 93.98 0) (fields_autoplaced)
    (effects (font (size 1.27 1.27)) (justify left bottom))
    (uuid 4343120a-670e-4d9d-916d-47c867b8ad9f)
  )
  (label "VPEROCT_CV" (at 220.98 93.98 0) (fields_autoplaced)
    (effects (font (size 1.27 1.27)) (justify left bottom))
    (uuid 4dc44b16-4972-434a-bfd2-d382baf56395)
  )
  (label "FREQ_POT" (at 31.75 91.44 0) (fields_autoplaced)
    (effects (font (size 1.27 1.27)) (justify left bottom))
    (uuid 4dc51635-fb7f-4e3b-8540-f80176727e1b)
  )
  (label "TIMBRE_PB" (at 220.98 101.6 0) (fields_autoplaced)
    (effects (font (size 1.27 1.27)) (justify left bottom))
    (uuid 4f2d6a8d-0e80-4d54-bbae-408c1fcd4a62)
  )
  (label "CV" (at 68.58 163.83 0) (fields_autoplaced)
    (effects (font (size 1.27 1.27)) (justify left bottom))
    (uuid 528124d7-6765-4290-8ccc-62a50e00d3eb)
  )
  (label "GATE" (at 20.32 161.29 0) (fields_autoplaced)
    (effects (font (size 1.27 1.27)) (justify left bottom))
    (uuid 530a98c5-6c9e-4c5a-a886-92ee0aae938c)
  )
  (label "MOD_POT" (at 31.75 96.52 0) (fields_autoplaced)
    (effects (font (size 1.27 1.27)) (justify left bottom))
    (uuid 5bc7627d-2a6c-4700-b0b7-1fc6de9fb0ab)
  )
  (label "TIMBRE_PB" (at 31.75 99.06 0) (fields_autoplaced)
    (effects (font (size 1.27 1.27)) (justify left bottom))
    (uuid 5fb89c5b-0c93-4049-ac44-1b53b59657a1)
  )
  (label "OCT_UP_PB" (at 220.98 81.28 0) (fields_autoplaced)
    (effects (font (size 1.27 1.27)) (justify left bottom))
    (uuid 649b9d74-0113-47d9-97d2-31f4fd87d3ff)
  )
  (label "MODE_UP_PB" (at 220.98 86.36 0) (fields_autoplaced)
    (effects (font (size 1.27 1.27)) (justify left bottom))
    (uuid 7d596d0e-e140-442b-b46b-285a8b8170ca)
  )
  (label "WAV" (at 97.79 52.07 0) (fields_autoplaced)
    (effects (font (size 1.27 1.27)) (justify left bottom))
    (uuid 8db3ac16-7d79-439f-b77f-84ece420bd68)
  )
  (label "AUD_OUT" (at 220.98 99.06 0) (fields_autoplaced)
    (effects (font (size 1.27 1.27)) (justify left bottom))
    (uuid 9520a232-347d-4b7f-a398-c6406501c8c3)
  )
  (label "VPEROCT_CV" (at 31.75 88.9 0) (fields_autoplaced)
    (effects (font (size 1.27 1.27)) (justify left bottom))
    (uuid 99f2159b-1f11-41f1-9dd7-f84e9fe47ce5)
  )
  (label "OCT_DN_PB" (at 220.98 76.2 0) (fields_autoplaced)
    (effects (font (size 1.27 1.27)) (justify left bottom))
    (uuid bb702799-04d1-4136-9913-db15d677cb7f)
  )
  (label "AUD_OUT" (at 182.88 54.61 0) (fields_autoplaced)
    (effects (font (size 1.27 1.27)) (justify left bottom))
    (uuid c351a9a0-648a-467e-8eea-43e30e796738)
  )
  (label "MODE_UP_PB" (at 106.68 96.52 0) (fields_autoplaced)
    (effects (font (size 1.27 1.27)) (justify left bottom))
    (uuid c6ab76dc-5b40-45ff-9719-a594436a5fe8)
  )
  (label "CV" (at 20.32 163.83 0) (fields_autoplaced)
    (effects (font (size 1.27 1.27)) (justify left bottom))
    (uuid e6449a26-17f2-4fb7-b0bf-871e2e859dbf)
  )
  (label "MOD_CV" (at 220.98 96.52 0) (fields_autoplaced)
    (effects (font (size 1.27 1.27)) (justify left bottom))
    (uuid f44aa2a0-ac92-41d8-acbc-037147acb61f)
  )
  (label "PRE_FILT" (at 142.24 52.07 0) (fields_autoplaced)
    (effects (font (size 1.27 1.27)) (justify left bottom))
    (uuid f845043c-7269-498d-b4f2-94a69fbadbd0)
  )
  (label "GATE_CTL" (at 220.98 83.82 0) (fields_autoplaced)
    (effects (font (size 1.27 1.27)) (justify left bottom))
    (uuid feca530a-c6c1-4219-b383-a5f1908d3bf8)
  )
  (label "OCT_UP_PB" (at 31.75 104.14 0) (fields_autoplaced)
    (effects (font (size 1.27 1.27)) (justify left bottom))
    (uuid ff5676ee-234c-4f94-89a8-45288bf6cda4)
  )

  (symbol (lib_id "power:GND") (at 92.71 109.22 0) (unit 1)
    (in_bom yes) (on_board yes) (dnp no) (fields_autoplaced)
    (uuid 020c6564-da7c-41a2-a7c4-0679f6cde69d)
    (property "Reference" "#PWR0105" (at 92.71 115.57 0)
      (effects (font (size 1.27 1.27)) hide)
    )
    (property "Value" "GND" (at 92.71 113.7825 0)
      (effects (font (size 1.27 1.27)))
    )
    (property "Footprint" "" (at 92.71 109.22 0)
      (effects (font (size 1.27 1.27)) hide)
    )
    (property "Datasheet" "" (at 92.71 109.22 0)
      (effects (font (size 1.27 1.27)) hide)
    )
    (pin "1" (uuid 45f32e5f-bfb6-4233-9455-54ace66adcf6))
    (instances
      (project "ER-VCO-03-DB"
        (path "/e63e39d7-6ac0-4ffd-8aa3-1841a4541b55"
          (reference "#PWR0105") (unit 1)
        )
      )
    )
  )

  (symbol (lib_id "Device:R") (at 120.65 52.07 90) (unit 1)
    (in_bom yes) (on_board yes) (dnp no)
    (uuid 1918cd9a-53d9-4716-9b52-ad71771fe819)
    (property "Reference" "R5" (at 120.65 49.53 90)
      (effects (font (size 1.27 1.27)))
    )
    (property "Value" "220" (at 120.65 52.07 90)
      (effects (font (size 1.27 1.27)))
    )
    (property "Footprint" "Resistor_THT:R_Axial_DIN0204_L3.6mm_D1.6mm_P7.62mm_Horizontal" (at 127 73.66 90)
      (effects (font (size 0.762 0.762)))
    )
    (property "Datasheet" "" (at 120.65 52.07 0)
      (effects (font (size 1.27 1.27)) hide)
    )
    (pin "1" (uuid 826f3b36-6307-41fa-a66d-59583e3cd618))
    (pin "2" (uuid 48800395-13fd-4bf4-b7c1-6a820634b76a))
    (instances
      (project "ER-VCO-03-DB"
        (path "/e63e39d7-6ac0-4ffd-8aa3-1841a4541b55"
          (reference "R5") (unit 1)
        )
      )
    )
  )

  (symbol (lib_id "Device:C_Polarized") (at 38.1 74.93 0) (unit 1)
    (in_bom yes) (on_board yes) (dnp no)
    (uuid 197b772e-15b4-489f-8571-b11e788d585f)
    (property "Reference" "C11" (at 34.29 72.39 0)
      (effects (font (size 1.27 1.27)))
    )
    (property "Value" "47uF" (at 34.29 77.47 0)
      (effects (font (size 1.27 1.27)))
    )
    (property "Footprint" "Capacitor_THT:CP_Radial_D5.0mm_P2.50mm" (at 48.26 57.15 0)
      (effects (font (size 0.762 0.762)))
    )
    (property "Datasheet" "" (at 38.1 74.93 0)
      (effects (font (size 1.27 1.27)) hide)
    )
    (pin "1" (uuid 03b82878-0073-40c7-a1d6-7621d8e7f79d))
    (pin "2" (uuid 4d00b9ac-589f-4055-a832-7ed2e43a5ab2))
    (instances
      (project "ER-VCO-03-DB"
        (path "/e63e39d7-6ac0-4ffd-8aa3-1841a4541b55"
          (reference "C11") (unit 1)
        )
      )
    )
  )

  (symbol (lib_id "power:+5V") (at 33.02 156.21 0) (unit 1)
    (in_bom yes) (on_board yes) (dnp no) (fields_autoplaced)
    (uuid 21bfa426-bfdf-450e-9a20-2937dcd28e48)
    (property "Reference" "#PWR0107" (at 33.02 160.02 0)
      (effects (font (size 1.27 1.27)) hide)
    )
    (property "Value" "+5V" (at 33.02 152.6055 0)
      (effects (font (size 1.27 1.27)))
    )
    (property "Footprint" "" (at 33.02 156.21 0)
      (effects (font (size 1.27 1.27)) hide)
    )
    (property "Datasheet" "" (at 33.02 156.21 0)
      (effects (font (size 1.27 1.27)) hide)
    )
    (pin "1" (uuid 5621ab4d-c103-4da0-863d-71f0b83af052))
    (instances
      (project "ER-VCO-03-DB"
        (path "/e63e39d7-6ac0-4ffd-8aa3-1841a4541b55"
          (reference "#PWR0107") (unit 1)
        )
      )
    )
  )

  (symbol (lib_id "power:GND") (at 237.49 110.49 0) (unit 1)
    (in_bom yes) (on_board yes) (dnp no) (fields_autoplaced)
    (uuid 3e9e7a8c-fce8-453f-b394-7ff37c75fffa)
    (property "Reference" "#PWR0102" (at 237.49 116.84 0)
      (effects (font (size 1.27 1.27)) hide)
    )
    (property "Value" "GND" (at 237.49 115.0525 0)
      (effects (font (size 1.27 1.27)))
    )
    (property "Footprint" "" (at 237.49 110.49 0)
      (effects (font (size 1.27 1.27)) hide)
    )
    (property "Datasheet" "" (at 237.49 110.49 0)
      (effects (font (size 1.27 1.27)) hide)
    )
    (pin "1" (uuid 96c33868-d76e-47a5-be6d-c61693b91cc4))
    (instances
      (project "ER-VCO-03-DB"
        (path "/e63e39d7-6ac0-4ffd-8aa3-1841a4541b55"
          (reference "#PWR0102") (unit 1)
        )
      )
    )
  )

  (symbol (lib_id "Amplifier_Operational:TL072") (at 237.49 151.13 0) (unit 2)
    (in_bom yes) (on_board yes) (dnp no) (fields_autoplaced)
    (uuid 407adfa4-a77b-49db-b602-05375a3606ae)
    (property "Reference" "U1" (at 237.49 142.0835 0)
      (effects (font (size 1.27 1.27)))
    )
    (property "Value" "MCP6232" (at 237.49 144.8586 0)
      (effects (font (size 1.27 1.27)))
    )
    (property "Footprint" "Package_DIP:DIP-8_W7.62mm" (at 237.49 151.13 0)
      (effects (font (size 1.27 1.27)) hide)
    )
    (property "Datasheet" "" (at 237.49 151.13 0)
      (effects (font (size 1.27 1.27)) hide)
    )
    (pin "1" (uuid 0116647b-df42-4fba-bf4d-fdf7f7833096))
    (pin "2" (uuid 2e1c5c13-bac8-463b-86aa-f35dad3f3a72))
    (pin "3" (uuid d3298821-8324-4f87-87aa-1065cad4bc38))
    (pin "5" (uuid e17c332e-6357-40fa-b5ad-395cd94f3daa))
    (pin "6" (uuid 35b2fb27-aad8-4f7c-8726-de3501de50f0))
    (pin "7" (uuid 3eae0782-35db-4bea-9a0b-f9e304d79153))
    (pin "4" (uuid 940c457d-332a-4895-b64a-c2fa1ab3265c))
    (pin "8" (uuid fd45a4cf-1cee-45e9-b947-f1dd298ecab2))
    (instances
      (project "ER-VCO-03-DB"
        (path "/e63e39d7-6ac0-4ffd-8aa3-1841a4541b55"
          (reference "U1") (unit 2)
        )
      )
    )
  )

  (symbol (lib_id "Device:D_Schottky") (at 176.53 60.96 270) (unit 1)
    (in_bom yes) (on_board yes) (dnp no)
    (uuid 4343f375-7bb6-440e-8c30-270ff7d765f8)
    (property "Reference" "D1" (at 178.562 59.734 90)
      (effects (font (size 1.27 1.27)) (justify left))
    )
    (property "Value" "BAT41" (at 178.562 62.5091 90)
      (effects (font (size 1.27 1.27)) (justify left))
    )
    (property "Footprint" "Diode_THT:D_DO-35_SOD27_P7.62mm_Horizontal" (at 176.53 77.47 90)
      (effects (font (size 0.762 0.762)))
    )
    (property "Datasheet" "~" (at 176.53 60.96 0)
      (effects (font (size 1.27 1.27)) hide)
    )
    (pin "1" (uuid 5ad585ce-de6e-4496-af10-eb0c6b77b0ae))
    (pin "2" (uuid ea13dacc-1908-4b62-89d4-e244da56ecea))
    (instances
      (project "ER-VCO-03-DB"
        (path "/e63e39d7-6ac0-4ffd-8aa3-1841a4541b55"
          (reference "D1") (unit 1)
        )
      )
    )
  )

  (symbol (lib_id "Device:R") (at 158.75 72.39 90) (unit 1)
    (in_bom yes) (on_board yes) (dnp no)
    (uuid 510ab5ee-db1e-4013-af9a-6ed702aca126)
    (property "Reference" "R3" (at 158.75 74.93 90)
      (effects (font (size 1.27 1.27)))
    )
    (property "Value" "2.7K" (at 158.75 72.39 90)
      (effects (font (size 1.27 1.27)))
    )
    (property "Footprint" "Resistor_THT:R_Axial_DIN0204_L3.6mm_D1.6mm_P7.62mm_Horizontal" (at 185.42 76.2 90)
      (effects (font (size 0.762 0.762)))
    )
    (property "Datasheet" "" (at 158.75 72.39 0)
      (effects (font (size 1.27 1.27)) hide)
    )
    (pin "1" (uuid 03c308fd-426d-4ca5-a469-0c6c0d769201))
    (pin "2" (uuid 1537e2cb-369e-42b2-a416-796452e52de6))
    (instances
      (project "ER-VCO-03-DB"
        (path "/e63e39d7-6ac0-4ffd-8aa3-1841a4541b55"
          (reference "R3") (unit 1)
        )
      )
    )
  )

  (symbol (lib_id "power:GND") (at 232.41 50.8 0) (unit 1)
    (in_bom yes) (on_board yes) (dnp no) (fields_autoplaced)
    (uuid 522b57bc-0e28-427c-9da8-23d37d33d35c)
    (property "Reference" "#PWR0103" (at 232.41 57.15 0)
      (effects (font (size 1.27 1.27)) hide)
    )
    (property "Value" "GND" (at 232.41 55.3625 0)
      (effects (font (size 1.27 1.27)))
    )
    (property "Footprint" "" (at 232.41 50.8 0)
      (effects (font (size 1.27 1.27)) hide)
    )
    (property "Datasheet" "" (at 232.41 50.8 0)
      (effects (font (size 1.27 1.27)) hide)
    )
    (pin "1" (uuid d07b04ce-e928-40b9-a472-6bd933c4ab15))
    (instances
      (project "ER-VCO-03-DB"
        (path "/e63e39d7-6ac0-4ffd-8aa3-1841a4541b55"
          (reference "#PWR0103") (unit 1)
        )
      )
    )
  )

  (symbol (lib_id "power:GND") (at 127 64.77 0) (unit 1)
    (in_bom yes) (on_board yes) (dnp no) (fields_autoplaced)
    (uuid 5cced30d-4930-4b4b-83a1-f1caf63dec77)
    (property "Reference" "#PWR0115" (at 127 71.12 0)
      (effects (font (size 1.27 1.27)) hide)
    )
    (property "Value" "GND" (at 127 69.3325 0)
      (effects (font (size 1.27 1.27)))
    )
    (property "Footprint" "" (at 127 64.77 0)
      (effects (font (size 1.27 1.27)) hide)
    )
    (property "Datasheet" "" (at 127 64.77 0)
      (effects (font (size 1.27 1.27)) hide)
    )
    (pin "1" (uuid 3cdb8557-92e2-4565-ac24-2d6a6a71004e))
    (instances
      (project "ER-VCO-03-DB"
        (path "/e63e39d7-6ac0-4ffd-8aa3-1841a4541b55"
          (reference "#PWR0115") (unit 1)
        )
      )
    )
  )

  (symbol (lib_id "Device:R") (at 110.49 52.07 90) (unit 1)
    (in_bom yes) (on_board yes) (dnp no)
    (uuid 6c24bcf9-b6a0-44ad-bbd0-585bd852c070)
    (property "Reference" "R4" (at 110.49 49.53 90)
      (effects (font (size 1.27 1.27)))
    )
    (property "Value" "220" (at 110.49 52.07 90)
      (effects (font (size 1.27 1.27)))
    )
    (property "Footprint" "Resistor_THT:R_Axial_DIN0204_L3.6mm_D1.6mm_P7.62mm_Horizontal" (at 124.46 71.12 90)
      (effects (font (size 0.762 0.762)))
    )
    (property "Datasheet" "" (at 110.49 52.07 0)
      (effects (font (size 1.27 1.27)) hide)
    )
    (pin "1" (uuid 56583ac9-033c-4f48-afc6-2c7ae3fc8e3a))
    (pin "2" (uuid 1ab72082-9caf-410a-9371-8e76f2eb8eb3))
    (instances
      (project "ER-VCO-03-DB"
        (path "/e63e39d7-6ac0-4ffd-8aa3-1841a4541b55"
          (reference "R4") (unit 1)
        )
      )
    )
  )

  (symbol (lib_id "Connector_Generic:Conn_01x03") (at 240.03 44.45 0) (unit 1)
    (in_bom yes) (on_board yes) (dnp no)
    (uuid 7053bb1d-572b-4fbf-9ad1-7794125392b6)
    (property "Reference" "J2" (at 238.76 39.37 0)
      (effects (font (size 1.27 1.27)) (justify left))
    )
    (property "Value" "Conn_01x03" (at 234.95 49.53 0)
      (effects (font (size 1.27 1.27)) (justify left))
    )
    (property "Footprint" "Connector_PinHeader_2.54mm:PinHeader_1x03_P2.54mm_Vertical" (at 240.03 44.45 0)
      (effects (font (size 1.27 1.27)) hide)
    )
    (property "Datasheet" "~" (at 240.03 44.45 0)
      (effects (font (size 1.27 1.27)) hide)
    )
    (pin "1" (uuid bef2f38e-3a8b-4cdc-ad2e-3d5e4975ee2e))
    (pin "2" (uuid 2bbdb967-ab92-4569-86e9-d9b822f7e406))
    (pin "3" (uuid ee6379e8-baa3-4077-98da-26cb178881b6))
    (instances
      (project "ER-VCO-03-DB"
        (path "/e63e39d7-6ac0-4ffd-8aa3-1841a4541b55"
          (reference "J2") (unit 1)
        )
      )
    )
  )

  (symbol (lib_id "power:+5V") (at 59.69 137.16 0) (unit 1)
    (in_bom yes) (on_board yes) (dnp no) (fields_autoplaced)
    (uuid 820277e1-666e-4a9d-9297-fbbf9e49a66b)
    (property "Reference" "#PWR0118" (at 59.69 140.97 0)
      (effects (font (size 1.27 1.27)) hide)
    )
    (property "Value" "+5V" (at 59.69 133.5555 0)
      (effects (font (size 1.27 1.27)))
    )
    (property "Footprint" "" (at 59.69 137.16 0)
      (effects (font (size 1.27 1.27)) hide)
    )
    (property "Datasheet" "" (at 59.69 137.16 0)
      (effects (font (size 1.27 1.27)) hide)
    )
    (pin "1" (uuid 62151065-7e59-4eef-84c8-120e164ac82d))
    (instances
      (project "ER-VCO-03-DB"
        (path "/e63e39d7-6ac0-4ffd-8aa3-1841a4541b55"
          (reference "#PWR0118") (unit 1)
        )
      )
    )
  )

  (symbol (lib_id "Device:R") (at 149.86 77.47 180) (unit 1)
    (in_bom yes) (on_board yes) (dnp no)
    (uuid 820f5752-29c5-47c0-8a13-7765e68aee81)
    (property "Reference" "R2" (at 152.4 77.47 90)
      (effects (font (size 1.27 1.27)))
    )
    (property "Value" "5.6K" (at 149.86 77.47 90)
      (effects (font (size 1.27 1.27)))
    )
    (property "Footprint" "Resistor_THT:R_Axial_DIN0204_L3.6mm_D1.6mm_P7.62mm_Horizontal" (at 187.96 74.93 0)
      (effects (font (size 0.762 0.762)))
    )
    (property "Datasheet" "" (at 149.86 77.47 0)
      (effects (font (size 1.27 1.27)) hide)
    )
    (pin "1" (uuid 14d2ba50-1cdf-4045-8a2e-cd0d6f99f5de))
    (pin "2" (uuid a45e798a-1e4e-4987-8e89-5e5b986ffe93))
    (instances
      (project "ER-VCO-03-DB"
        (path "/e63e39d7-6ac0-4ffd-8aa3-1841a4541b55"
          (reference "R2") (unit 1)
        )
      )
    )
  )

  (symbol (lib_id "power:+3.3V") (at 237.49 63.5 0) (unit 1)
    (in_bom yes) (on_board yes) (dnp no) (fields_autoplaced)
    (uuid 8528c752-f706-4bab-8ac1-520decf119ed)
    (property "Reference" "#PWR0101" (at 237.49 67.31 0)
      (effects (font (size 1.27 1.27)) hide)
    )
    (property "Value" "+3.3V" (at 237.49 59.8955 0)
      (effects (font (size 1.27 1.27)))
    )
    (property "Footprint" "" (at 237.49 63.5 0)
      (effects (font (size 1.27 1.27)) hide)
    )
    (property "Datasheet" "" (at 237.49 63.5 0)
      (effects (font (size 1.27 1.27)) hide)
    )
    (pin "1" (uuid 22beb590-a4f7-4f48-912f-98d99c0449d6))
    (instances
      (project "ER-VCO-03-DB"
        (path "/e63e39d7-6ac0-4ffd-8aa3-1841a4541b55"
          (reference "#PWR0101") (unit 1)
        )
      )
    )
  )

  (symbol (lib_id "power:+12V") (at 26.67 156.21 0) (unit 1)
    (in_bom yes) (on_board yes) (dnp no) (fields_autoplaced)
    (uuid 8ac46659-5028-4e30-922a-eac266322fa4)
    (property "Reference" "#PWR0111" (at 26.67 160.02 0)
      (effects (font (size 1.27 1.27)) hide)
    )
    (property "Value" "+12V" (at 26.67 152.6055 0)
      (effects (font (size 1.27 1.27)))
    )
    (property "Footprint" "" (at 26.67 156.21 0)
      (effects (font (size 1.27 1.27)) hide)
    )
    (property "Datasheet" "" (at 26.67 156.21 0)
      (effects (font (size 1.27 1.27)) hide)
    )
    (pin "1" (uuid 79d3616e-ee4d-4ae3-abf8-1ecd95e2a804))
    (instances
      (project "ER-VCO-03-DB"
        (path "/e63e39d7-6ac0-4ffd-8aa3-1841a4541b55"
          (reference "#PWR0111") (unit 1)
        )
      )
    )
  )

  (symbol (lib_id "power:GND") (at 138.43 63.5 0) (unit 1)
    (in_bom yes) (on_board yes) (dnp no) (fields_autoplaced)
    (uuid 90bb0ad9-4ee6-4d9d-9730-2276ca782771)
    (property "Reference" "#PWR0126" (at 138.43 69.85 0)
      (effects (font (size 1.27 1.27)) hide)
    )
    (property "Value" "GND" (at 138.43 68.0625 0)
      (effects (font (size 1.27 1.27)))
    )
    (property "Footprint" "" (at 138.43 63.5 0)
      (effects (font (size 1.27 1.27)) hide)
    )
    (property "Datasheet" "" (at 138.43 63.5 0)
      (effects (font (size 1.27 1.27)) hide)
    )
    (pin "1" (uuid 19b38b4e-0a01-47f8-8447-fb2a535df78b))
    (instances
      (project "ER-VCO-03-DB"
        (path "/e63e39d7-6ac0-4ffd-8aa3-1841a4541b55"
          (reference "#PWR0126") (unit 1)
        )
      )
    )
  )

  (symbol (lib_id "power:GND") (at 54.61 184.15 0) (unit 1)
    (in_bom yes) (on_board yes) (dnp no) (fields_autoplaced)
    (uuid 95f8b40c-fd94-47ad-adfb-bc9a376fa7bb)
    (property "Reference" "#PWR0108" (at 54.61 190.5 0)
      (effects (font (size 1.27 1.27)) hide)
    )
    (property "Value" "GND" (at 54.61 188.7125 0)
      (effects (font (size 1.27 1.27)))
    )
    (property "Footprint" "" (at 54.61 184.15 0)
      (effects (font (size 1.27 1.27)) hide)
    )
    (property "Datasheet" "" (at 54.61 184.15 0)
      (effects (font (size 1.27 1.27)) hide)
    )
    (pin "1" (uuid bb41c9a4-5643-47b6-9b84-3e63ca0f553b))
    (instances
      (project "ER-VCO-03-DB"
        (path "/e63e39d7-6ac0-4ffd-8aa3-1841a4541b55"
          (reference "#PWR0108") (unit 1)
        )
      )
    )
  )

  (symbol (lib_id "Device:C_Polarized") (at 100.33 109.22 0) (unit 1)
    (in_bom yes) (on_board yes) (dnp no)
    (uuid 9aabb0df-49bb-4982-b29c-a60a01b4bd2a)
    (property "Reference" "C9" (at 104.14 105.41 0)
      (effects (font (size 1.27 1.27)))
    )
    (property "Value" "47uF" (at 105.41 113.03 0)
      (effects (font (size 1.27 1.27)))
    )
    (property "Footprint" "Capacitor_THT:CP_Radial_D5.0mm_P2.50mm" (at 100.33 120.65 0)
      (effects (font (size 0.762 0.762)))
    )
    (property "Datasheet" "" (at 100.33 109.22 0)
      (effects (font (size 1.27 1.27)) hide)
    )
    (pin "1" (uuid f4595dd7-a476-4af3-b56a-c4b97a602e55))
    (pin "2" (uuid 96eb12b7-8f7b-4e9d-86aa-866cc715f0a8))
    (instances
      (project "ER-VCO-03-DB"
        (path "/e63e39d7-6ac0-4ffd-8aa3-1841a4541b55"
          (reference "C9") (unit 1)
        )
      )
    )
  )

  (symbol (lib_id "power:GND") (at 100.33 114.3 0) (unit 1)
    (in_bom yes) (on_board yes) (dnp no) (fields_autoplaced)
    (uuid a2e4b90b-65e6-49dc-8c5c-ff573a4473a7)
    (property "Reference" "#PWR0104" (at 100.33 120.65 0)
      (effects (font (size 1.27 1.27)) hide)
    )
    (property "Value" "GND" (at 100.33 118.8625 0)
      (effects (font (size 1.27 1.27)))
    )
    (property "Footprint" "" (at 100.33 114.3 0)
      (effects (font (size 1.27 1.27)) hide)
    )
    (property "Datasheet" "" (at 100.33 114.3 0)
      (effects (font (size 1.27 1.27)) hide)
    )
    (pin "1" (uuid 22406e25-c524-4de9-98be-1f9eb811f3c1))
    (instances
      (project "ER-VCO-03-DB"
        (path "/e63e39d7-6ac0-4ffd-8aa3-1841a4541b55"
          (reference "#PWR0104") (unit 1)
        )
      )
    )
  )

  (symbol (lib_id "power:GND") (at 176.53 66.04 0) (unit 1)
    (in_bom yes) (on_board yes) (dnp no) (fields_autoplaced)
    (uuid a31d4ad6-2602-4926-9814-eb8f06c608d7)
    (property "Reference" "#PWR0120" (at 176.53 72.39 0)
      (effects (font (size 1.27 1.27)) hide)
    )
    (property "Value" "GND" (at 176.53 70.6025 0)
      (effects (font (size 1.27 1.27)))
    )
    (property "Footprint" "" (at 176.53 66.04 0)
      (effects (font (size 1.27 1.27)) hide)
    )
    (property "Datasheet" "" (at 176.53 66.04 0)
      (effects (font (size 1.27 1.27)) hide)
    )
    (pin "1" (uuid 014cda3c-1b61-441d-bc37-b78a7c4d25f2))
    (instances
      (project "ER-VCO-03-DB"
        (path "/e63e39d7-6ac0-4ffd-8aa3-1841a4541b55"
          (reference "#PWR0120") (unit 1)
        )
      )
    )
  )

  (symbol (lib_id "power:+12V") (at 66.04 156.21 0) (unit 1)
    (in_bom yes) (on_board yes) (dnp no) (fields_autoplaced)
    (uuid b0eacd98-fa95-4603-9128-384589d45684)
    (property "Reference" "#PWR0106" (at 66.04 160.02 0)
      (effects (font (size 1.27 1.27)) hide)
    )
    (property "Value" "+12V" (at 66.04 152.6055 0)
      (effects (font (size 1.27 1.27)))
    )
    (property "Footprint" "" (at 66.04 156.21 0)
      (effects (font (size 1.27 1.27)) hide)
    )
    (property "Datasheet" "" (at 66.04 156.21 0)
      (effects (font (size 1.27 1.27)) hide)
    )
    (pin "1" (uuid 1997b9b6-7fb7-4f6a-b499-b7740ba18622))
    (instances
      (project "ER-VCO-03-DB"
        (path "/e63e39d7-6ac0-4ffd-8aa3-1841a4541b55"
          (reference "#PWR0106") (unit 1)
        )
      )
    )
  )

  (symbol (lib_id "power:+5VD") (at 73.66 137.16 0) (unit 1)
    (in_bom yes) (on_board yes) (dnp no) (fields_autoplaced)
    (uuid be7646a7-6e9a-430b-8a19-0ea9b072fd2a)
    (property "Reference" "#PWR0110" (at 73.66 140.97 0)
      (effects (font (size 1.27 1.27)) hide)
    )
    (property "Value" "+5VD" (at 73.66 133.5555 0)
      (effects (font (size 1.27 1.27)))
    )
    (property "Footprint" "" (at 73.66 137.16 0)
      (effects (font (size 1.27 1.27)) hide)
    )
    (property "Datasheet" "" (at 73.66 137.16 0)
      (effects (font (size 1.27 1.27)) hide)
    )
    (pin "1" (uuid de24ad75-a874-4d54-a682-b1d6f2079d30))
    (instances
      (project "ER-VCO-03-DB"
        (path "/e63e39d7-6ac0-4ffd-8aa3-1841a4541b55"
          (reference "#PWR0110") (unit 1)
        )
      )
    )
  )

  (symbol (lib_id "power:GND") (at 38.1 80.01 0) (unit 1)
    (in_bom yes) (on_board yes) (dnp no) (fields_autoplaced)
    (uuid c1dc585e-9c6d-4d18-9f09-19d371976f6c)
    (property "Reference" "#PWR0119" (at 38.1 86.36 0)
      (effects (font (size 1.27 1.27)) hide)
    )
    (property "Value" "GND" (at 38.1 84.5725 0)
      (effects (font (size 1.27 1.27)))
    )
    (property "Footprint" "" (at 38.1 80.01 0)
      (effects (font (size 1.27 1.27)) hide)
    )
    (property "Datasheet" "" (at 38.1 80.01 0)
      (effects (font (size 1.27 1.27)) hide)
    )
    (pin "1" (uuid 3856edae-aa28-46f6-acdf-8159836e2e1f))
    (instances
      (project "ER-VCO-03-DB"
        (path "/e63e39d7-6ac0-4ffd-8aa3-1841a4541b55"
          (reference "#PWR0119") (unit 1)
        )
      )
    )
  )

  (symbol (lib_id "Device:C") (at 115.57 59.69 0) (unit 1)
    (in_bom yes) (on_board yes) (dnp no)
    (uuid c7c42dec-716e-427d-9f1f-e03ba4d1c176)
    (property "Reference" "C2" (at 118.491 57.3786 0)
      (effects (font (size 1.27 1.27)) (justify left))
    )
    (property "Value" "10nF" (at 118.491 59.69 0)
      (effects (font (size 1.27 1.27)) (justify left))
    )
    (property "Footprint" "Capacitor_THT:C_Rect_L4.0mm_W2.5mm_P2.50mm" (at 100.33 76.2 0)
      (effects (font (size 0.762 0.762)) (justify left))
    )
    (property "Datasheet" "" (at 115.57 59.69 0)
      (effects (font (size 1.27 1.27)) hide)
    )
    (pin "1" (uuid c78471d8-761e-47aa-aca6-b5b5abc5aac2))
    (pin "2" (uuid edab3462-5ca0-490b-b32c-67d08cb572ea))
    (instances
      (project "ER-VCO-03-DB"
        (path "/e63e39d7-6ac0-4ffd-8aa3-1841a4541b55"
          (reference "C2") (unit 1)
        )
      )
    )
  )

  (symbol (lib_id "Amplifier_Operational:TL072") (at 203.2 148.59 0) (unit 3)
    (in_bom yes) (on_board yes) (dnp no)
    (uuid ca00449a-8f86-45c8-b30b-3ce9242f3386)
    (property "Reference" "U1" (at 201.295 147.6815 0)
      (effects (font (size 1.27 1.27)) (justify left))
    )
    (property "Value" "MCP6232" (at 201.295 150.4566 0)
      (effects (font (size 1.27 1.27)) (justify left))
    )
    (property "Footprint" "Package_DIP:DIP-8_W7.62mm" (at 203.2 148.59 0)
      (effects (font (size 1.27 1.27)) hide)
    )
    (property "Datasheet" "" (at 203.2 148.59 0)
      (effects (font (size 1.27 1.27)) hide)
    )
    (pin "1" (uuid 0e464013-2c51-4092-89ba-955c52e2ef1e))
    (pin "2" (uuid 59344547-7107-4af6-ac25-fbdc086587f9))
    (pin "3" (uuid ce8c80d1-f81a-4545-9599-8924f4b9c694))
    (pin "5" (uuid fa3beb7a-f7af-4c29-bbd8-9d2db77b7206))
    (pin "6" (uuid e6666ecb-897a-4030-8180-a2d8805bf47d))
    (pin "7" (uuid 02d3f465-3168-47e4-82d9-10c578f9210b))
    (pin "4" (uuid f38ebb43-bdc1-4d2d-84a2-e3c63a2d0c40))
    (pin "8" (uuid fc29d23f-e27e-4f28-ab71-a4b0c732df84))
    (instances
      (project "ER-VCO-03-DB"
        (path "/e63e39d7-6ac0-4ffd-8aa3-1841a4541b55"
          (reference "U1") (unit 3)
        )
      )
    )
  )

  (symbol (lib_id "power:+5V") (at 175.26 43.18 0) (unit 1)
    (in_bom yes) (on_board yes) (dnp no) (fields_autoplaced)
    (uuid ccee5fae-0619-4086-9b90-c52f03e331f7)
    (property "Reference" "#PWR0117" (at 175.26 46.99 0)
      (effects (font (size 1.27 1.27)) hide)
    )
    (property "Value" "+5V" (at 175.26 39.5755 0)
      (effects (font (size 1.27 1.27)))
    )
    (property "Footprint" "" (at 175.26 43.18 0)
      (effects (font (size 1.27 1.27)) hide)
    )
    (property "Datasheet" "" (at 175.26 43.18 0)
      (effects (font (size 1.27 1.27)) hide)
    )
    (pin "1" (uuid 4ccdf599-fb33-4f5e-aada-94538449272f))
    (instances
      (project "ER-VCO-03-DB"
        (path "/e63e39d7-6ac0-4ffd-8aa3-1841a4541b55"
          (reference "#PWR0117") (unit 1)
        )
      )
    )
  )

  (symbol (lib_id "power:GND") (at 200.66 158.75 0) (unit 1)
    (in_bom yes) (on_board yes) (dnp no) (fields_autoplaced)
    (uuid d5296a2c-85aa-4919-98af-fed46f32794c)
    (property "Reference" "#PWR0121" (at 200.66 165.1 0)
      (effects (font (size 1.27 1.27)) hide)
    )
    (property "Value" "GND" (at 200.66 163.3125 0)
      (effects (font (size 1.27 1.27)))
    )
    (property "Footprint" "" (at 200.66 158.75 0)
      (effects (font (size 1.27 1.27)) hide)
    )
    (property "Datasheet" "" (at 200.66 158.75 0)
      (effects (font (size 1.27 1.27)) hide)
    )
    (pin "1" (uuid 2399a664-24f1-47b4-accd-d4dae2f3216c))
    (instances
      (project "ER-VCO-03-DB"
        (path "/e63e39d7-6ac0-4ffd-8aa3-1841a4541b55"
          (reference "#PWR0121") (unit 1)
        )
      )
    )
  )

  (symbol (lib_id "power:+5VD") (at 41.91 67.31 0) (unit 1)
    (in_bom yes) (on_board yes) (dnp no) (fields_autoplaced)
    (uuid debc87b6-3677-43c1-9164-d5d96a2f56d3)
    (property "Reference" "#PWR0112" (at 41.91 71.12 0)
      (effects (font (size 1.27 1.27)) hide)
    )
    (property "Value" "+5VD" (at 41.91 63.7055 0)
      (effects (font (size 1.27 1.27)))
    )
    (property "Footprint" "" (at 41.91 67.31 0)
      (effects (font (size 1.27 1.27)) hide)
    )
    (property "Datasheet" "" (at 41.91 67.31 0)
      (effects (font (size 1.27 1.27)) hide)
    )
    (pin "1" (uuid 7ace0dca-7b2a-478a-b019-1838fb75433d))
    (instances
      (project "ER-VCO-03-DB"
        (path "/e63e39d7-6ac0-4ffd-8aa3-1841a4541b55"
          (reference "#PWR0112") (unit 1)
        )
      )
    )
  )

  (symbol (lib_id "power:+3.3V") (at 100.33 88.9 0) (unit 1)
    (in_bom yes) (on_board yes) (dnp no) (fields_autoplaced)
    (uuid e0eb05f1-0795-4196-b1ad-69755eb2eed7)
    (property "Reference" "#PWR0123" (at 100.33 92.71 0)
      (effects (font (size 1.27 1.27)) hide)
    )
    (property "Value" "+3.3V" (at 100.33 85.2955 0)
      (effects (font (size 1.27 1.27)))
    )
    (property "Footprint" "" (at 100.33 88.9 0)
      (effects (font (size 1.27 1.27)) hide)
    )
    (property "Datasheet" "" (at 100.33 88.9 0)
      (effects (font (size 1.27 1.27)) hide)
    )
    (pin "1" (uuid b7a178b6-3742-4cee-a71f-4d40008fc3b9))
    (instances
      (project "ER-VCO-03-DB"
        (path "/e63e39d7-6ac0-4ffd-8aa3-1841a4541b55"
          (reference "#PWR0123") (unit 1)
        )
      )
    )
  )

  (symbol (lib_id "power:GND") (at 149.86 82.55 0) (unit 1)
    (in_bom yes) (on_board yes) (dnp no) (fields_autoplaced)
    (uuid e12b8589-18e8-444d-b2fe-e529b3fe0520)
    (property "Reference" "#PWR0122" (at 149.86 88.9 0)
      (effects (font (size 1.27 1.27)) hide)
    )
    (property "Value" "GND" (at 149.86 87.1125 0)
      (effects (font (size 1.27 1.27)))
    )
    (property "Footprint" "" (at 149.86 82.55 0)
      (effects (font (size 1.27 1.27)) hide)
    )
    (property "Datasheet" "" (at 149.86 82.55 0)
      (effects (font (size 1.27 1.27)) hide)
    )
    (pin "1" (uuid b3415b11-b61a-47df-a037-f40da33def31))
    (instances
      (project "ER-VCO-03-DB"
        (path "/e63e39d7-6ac0-4ffd-8aa3-1841a4541b55"
          (reference "#PWR0122") (unit 1)
        )
      )
    )
  )

  (symbol (lib_id "power:GND") (at 115.57 64.77 0) (unit 1)
    (in_bom yes) (on_board yes) (dnp no) (fields_autoplaced)
    (uuid e4ba3d6a-264a-4614-b74f-1dcf2abe262a)
    (property "Reference" "#PWR0113" (at 115.57 71.12 0)
      (effects (font (size 1.27 1.27)) hide)
    )
    (property "Value" "GND" (at 115.57 69.3325 0)
      (effects (font (size 1.27 1.27)))
    )
    (property "Footprint" "" (at 115.57 64.77 0)
      (effects (font (size 1.27 1.27)) hide)
    )
    (property "Datasheet" "" (at 115.57 64.77 0)
      (effects (font (size 1.27 1.27)) hide)
    )
    (pin "1" (uuid d6d3ee2f-ce37-4c0b-bbb9-9b97dd3f403e))
    (instances
      (project "ER-VCO-03-DB"
        (path "/e63e39d7-6ac0-4ffd-8aa3-1841a4541b55"
          (reference "#PWR0113") (unit 1)
        )
      )
    )
  )

  (symbol (lib_id "power:+5V") (at 200.66 139.7 0) (unit 1)
    (in_bom yes) (on_board yes) (dnp no) (fields_autoplaced)
    (uuid e56fb61b-cdb4-424b-aa17-858bcee8b472)
    (property "Reference" "#PWR0116" (at 200.66 143.51 0)
      (effects (font (size 1.27 1.27)) hide)
    )
    (property "Value" "+5V" (at 200.66 136.0955 0)
      (effects (font (size 1.27 1.27)))
    )
    (property "Footprint" "" (at 200.66 139.7 0)
      (effects (font (size 1.27 1.27)) hide)
    )
    (property "Datasheet" "" (at 200.66 139.7 0)
      (effects (font (size 1.27 1.27)) hide)
    )
    (pin "1" (uuid a9939e2e-ed10-4863-b2bb-ed66f660e951))
    (instances
      (project "ER-VCO-03-DB"
        (path "/e63e39d7-6ac0-4ffd-8aa3-1841a4541b55"
          (reference "#PWR0116") (unit 1)
        )
      )
    )
  )

  (symbol (lib_id "Connector_Generic:Conn_02x08_Odd_Even") (at 46.99 171.45 180) (unit 1)
    (in_bom yes) (on_board yes) (dnp no)
    (uuid e672436b-0e0a-4bb1-984f-f0c558b6f651)
    (property "Reference" "J5" (at 45.72 158.75 0)
      (effects (font (size 1.27 1.27)))
    )
    (property "Value" "HEADER, 2X8" (at 46.99 181.61 0)
      (effects (font (size 1.27 1.27)))
    )
    (property "Footprint" "Connector_IDC:IDC-Header_2x08_P2.54mm_Vertical" (at 46.99 196.85 0)
      (effects (font (size 0.762 0.762) bold))
    )
    (property "Datasheet" "https://store.synthrotek.com/16-Pin_Keyed_Shrouded_Eurorack_Power_Header" (at 46.99 171.45 0)
      (effects (font (size 1.27 1.27)) hide)
    )
    (pin "1" (uuid d106e485-29d9-44c8-98a9-7f279f2310d6))
    (pin "10" (uuid 6069b06a-4d9d-428e-a0d5-d2dccf7f345c))
    (pin "11" (uuid 0901b048-36fe-4f12-a81d-d788c9cd2107))
    (pin "12" (uuid 97b72add-901b-48d9-841b-59d6cf4b5f52))
    (pin "13" (uuid c99bac27-4353-44e2-b151-78190cf0bfd6))
    (pin "14" (uuid fef82338-3ae3-4332-a6e4-066fcb6cc2f6))
    (pin "15" (uuid 9af66c90-2c33-40c5-a1a0-6ba7f1c4fe8f))
    (pin "16" (uuid cb4bc87b-030f-4081-a121-e8793ab70907))
    (pin "2" (uuid ff12e168-f617-4e3a-b1a6-2729624196f8))
    (pin "3" (uuid 03943a42-cf0c-45b7-a9f9-e7bed50ae524))
    (pin "4" (uuid b46b7e64-130c-4f22-a13a-649e3455634c))
    (pin "5" (uuid 38dbb038-b624-463d-a6bf-100ad7247409))
    (pin "6" (uuid 6fcbe049-947e-4667-b5a8-ef16159d6a2f))
    (pin "7" (uuid 0bb7fb44-bbcc-4165-a5d8-83226e255c1e))
    (pin "8" (uuid bdcb9df8-2ed4-41bb-9de4-772c84691d0d))
    (pin "9" (uuid d374ace6-8636-47f3-9e58-f46ae5d861e4))
    (instances
      (project "ER-VCO-03-DB"
        (path "/e63e39d7-6ac0-4ffd-8aa3-1841a4541b55"
          (reference "J5") (unit 1)
        )
      )
    )
  )

  (symbol (lib_id "power:GND") (at 36.83 184.15 0) (unit 1)
    (in_bom yes) (on_board yes) (dnp no) (fields_autoplaced)
    (uuid e737601f-e1bc-4f7f-a62b-e94feba44d70)
    (property "Reference" "#PWR0109" (at 36.83 190.5 0)
      (effects (font (size 1.27 1.27)) hide)
    )
    (property "Value" "GND" (at 36.83 188.7125 0)
      (effects (font (size 1.27 1.27)))
    )
    (property "Footprint" "" (at 36.83 184.15 0)
      (effects (font (size 1.27 1.27)) hide)
    )
    (property "Datasheet" "" (at 36.83 184.15 0)
      (effects (font (size 1.27 1.27)) hide)
    )
    (pin "1" (uuid 1c92e6b7-9cbf-4c7a-a924-5052f9906a0f))
    (instances
      (project "ER-VCO-03-DB"
        (path "/e63e39d7-6ac0-4ffd-8aa3-1841a4541b55"
          (reference "#PWR0109") (unit 1)
        )
      )
    )
  )

  (symbol (lib_id "Amplifier_Operational:TL072") (at 160.02 54.61 0) (unit 1)
    (in_bom yes) (on_board yes) (dnp no) (fields_autoplaced)
    (uuid ed75d5d0-1bf9-47d5-9e1b-d2a1cde0c998)
    (property "Reference" "U1" (at 160.02 45.5635 0)
      (effects (font (size 1.27 1.27)))
    )
    (property "Value" "MCP6232" (at 160.02 48.3386 0)
      (effects (font (size 1.27 1.27)))
    )
    (property "Footprint" "Package_DIP:DIP-8_W7.62mm" (at 160.02 54.61 0)
      (effects (font (size 1.27 1.27)) hide)
    )
    (property "Datasheet" "" (at 160.02 54.61 0)
      (effects (font (size 1.27 1.27)) hide)
    )
    (pin "1" (uuid 4adb0423-2d12-4ffb-891a-023eeb88091d))
    (pin "2" (uuid 1a634dd2-d612-4663-a841-75bb3e79e10b))
    (pin "3" (uuid 226fb9ee-e87b-4653-93ea-7719d92645ea))
    (pin "5" (uuid 2ba77d5f-ea9c-4dec-ad3a-c57b67fcf1a1))
    (pin "6" (uuid 436a8068-1f33-4260-ae39-77edb5bb74c2))
    (pin "7" (uuid 23b0ac76-925f-4924-aceb-e8848265d4e8))
    (pin "4" (uuid 86327a29-7216-431e-87e0-5ebf0771d5e5))
    (pin "8" (uuid 664737ed-9390-40e1-8aa4-20460266a7c2))
    (instances
      (project "ER-VCO-03-DB"
        (path "/e63e39d7-6ac0-4ffd-8aa3-1841a4541b55"
          (reference "U1") (unit 1)
        )
      )
    )
  )

  (symbol (lib_id "LandBoards_Cards:XIAO_RP2040") (at 68.58 96.52 0) (unit 1)
    (in_bom yes) (on_board yes) (dnp no)
    (uuid edf6191d-434c-40ac-a287-ce0b6f906e77)
    (property "Reference" "U2" (at 68.58 71.12 0)
      (effects (font (size 1.524 1.524)))
    )
    (property "Value" "XIAO_RP2040" (at 68.58 107.95 0)
      (effects (font (size 1.524 1.524)))
    )
    (property "Footprint" "LandBoards_BoardOutlines:QT_Py" (at 67.31 110.49 0)
      (effects (font (size 0.762 0.762)))
    )
    (property "Datasheet" "" (at 72.39 96.52 0)
      (effects (font (size 1.524 1.524)))
    )
    (pin "1" (uuid e4aa5ef7-35f8-41d3-bc70-e5475d1a43f0))
    (pin "10" (uuid 343aaf96-3b18-4316-be31-852c3a1c5b64))
    (pin "11" (uuid 07cb969a-e6e7-45e7-9d12-e3ca34b201c7))
    (pin "12" (uuid 4f420666-0406-41a9-a0f0-b4034ba786b5))
    (pin "13" (uuid 8d83cf74-76f6-4c12-8ba6-fee8e6855f28))
    (pin "14" (uuid 01f9e156-5bf5-4a11-b380-3093e7ee7667))
    (pin "2" (uuid b5b4ed87-a56c-4209-8211-f3c8779a1aea))
    (pin "3" (uuid 4c76534b-7710-410b-a4ce-3373d2652982))
    (pin "4" (uuid 49bc28f8-4561-466e-98dd-ab9a1d368fa0))
    (pin "5" (uuid 8effe614-398f-4143-a31f-db2ba92cb67a))
    (pin "6" (uuid 8845d31f-14fa-4322-a2c3-b3c56e57fb37))
    (pin "7" (uuid c0b089be-7bb0-4ba0-8150-d94f24545037))
    (pin "8" (uuid 06e0ad58-b06d-4a63-9bbc-f2957935489b))
    (pin "9" (uuid 56a399dc-806f-408f-82b5-0a5007f6ceec))
    (instances
      (project "ER-VCO-03-DB"
        (path "/e63e39d7-6ac0-4ffd-8aa3-1841a4541b55"
          (reference "U2") (unit 1)
        )
      )
    )
  )

  (symbol (lib_id "power:GND") (at 219.71 156.21 0) (unit 1)
    (in_bom yes) (on_board yes) (dnp no) (fields_autoplaced)
    (uuid ee467188-4513-4fee-b455-7e4149d64381)
    (property "Reference" "#PWR0124" (at 219.71 162.56 0)
      (effects (font (size 1.27 1.27)) hide)
    )
    (property "Value" "GND" (at 219.71 160.7725 0)
      (effects (font (size 1.27 1.27)))
    )
    (property "Footprint" "" (at 219.71 156.21 0)
      (effects (font (size 1.27 1.27)) hide)
    )
    (property "Datasheet" "" (at 219.71 156.21 0)
      (effects (font (size 1.27 1.27)) hide)
    )
    (pin "1" (uuid a3395fac-d229-4fde-a02f-24b1910753d7))
    (instances
      (project "ER-VCO-03-DB"
        (path "/e63e39d7-6ac0-4ffd-8aa3-1841a4541b55"
          (reference "#PWR0124") (unit 1)
        )
      )
    )
  )

  (symbol (lib_id "Connector_Generic:Conn_01x16") (at 245.11 86.36 0) (unit 1)
    (in_bom yes) (on_board yes) (dnp no) (fields_autoplaced)
    (uuid ee4fa114-b0a8-4583-9c63-25e46f8e5051)
    (property "Reference" "J1" (at 247.142 86.7215 0)
      (effects (font (size 1.27 1.27)) (justify left))
    )
    (property "Value" "Conn_01x16" (at 247.142 89.4966 0)
      (effects (font (size 1.27 1.27)) (justify left))
    )
    (property "Footprint" "Connector_PinHeader_2.54mm:PinHeader_2x08_P2.54mm_Vertical" (at 245.11 86.36 0)
      (effects (font (size 1.27 1.27)) hide)
    )
    (property "Datasheet" "~" (at 245.11 86.36 0)
      (effects (font (size 1.27 1.27)) hide)
    )
    (pin "1" (uuid 5521a2b1-eab9-46d0-bbd1-bc6f89db5d51))
    (pin "10" (uuid d19130a8-d976-4407-b34d-b6f290901bb9))
    (pin "11" (uuid 3cc963c5-8514-48de-8b6b-23e261423ac7))
    (pin "12" (uuid 5229cd57-cdd8-46bf-80cc-0a5016c831d4))
    (pin "13" (uuid f3e4f781-5f85-4ab6-b2b5-3483a16e105b))
    (pin "14" (uuid cae9f394-d509-45ad-a165-834d63dce8b7))
    (pin "15" (uuid 59ce9f3d-0459-409f-8a52-68b7b26f6de0))
    (pin "16" (uuid 286118c5-7d62-46bf-bbb6-8ecaf2891316))
    (pin "2" (uuid 910ce2ba-9908-435b-9cd1-670c17508abb))
    (pin "3" (uuid 8a204c49-5913-4e17-91ba-01a6cfe06b4b))
    (pin "4" (uuid b4334e8d-e7b4-48c4-a9bd-6bb4a022bdac))
    (pin "5" (uuid 7d3200f3-1d13-4f29-9238-5767988c515f))
    (pin "6" (uuid 6dffefdf-c723-4132-88ee-3c11c3350d2c))
    (pin "7" (uuid 8f3ecacd-dd72-4dec-a677-60562c10093a))
    (pin "8" (uuid 62c082c6-d524-44e7-964a-de0fb50d86b7))
    (pin "9" (uuid 26534b93-9904-42cd-82fb-fe8c6b572766))
    (instances
      (project "ER-VCO-03-DB"
        (path "/e63e39d7-6ac0-4ffd-8aa3-1841a4541b55"
          (reference "J1") (unit 1)
        )
      )
    )
  )

  (symbol (lib_id "Device:D_Schottky") (at 67.31 140.97 180) (unit 1)
    (in_bom yes) (on_board yes) (dnp no)
    (uuid f186eebb-6779-4416-aa64-556ae1583edc)
    (property "Reference" "D3" (at 68.536 143.002 90)
      (effects (font (size 1.27 1.27)) (justify left))
    )
    (property "Value" "BAT41" (at 65.7609 143.002 90)
      (effects (font (size 1.27 1.27)) (justify left))
    )
    (property "Footprint" "Diode_THT:D_DO-35_SOD27_P7.62mm_Horizontal" (at 82.55 148.59 0)
      (effects (font (size 0.762 0.762)))
    )
    (property "Datasheet" "~" (at 67.31 140.97 0)
      (effects (font (size 1.27 1.27)) hide)
    )
    (pin "1" (uuid 640aa2f2-9eb6-48f3-8038-20a50678794c))
    (pin "2" (uuid bfecdcad-b480-49bb-b778-a1d3951b1283))
    (instances
      (project "ER-VCO-03-DB"
        (path "/e63e39d7-6ac0-4ffd-8aa3-1841a4541b55"
          (reference "D3") (unit 1)
        )
      )
    )
  )

  (symbol (lib_id "Device:D_Schottky") (at 175.26 48.26 270) (unit 1)
    (in_bom yes) (on_board yes) (dnp no)
    (uuid f4a7bf52-1b92-422a-b530-fbf5782f9ac7)
    (property "Reference" "D2" (at 177.292 47.034 90)
      (effects (font (size 1.27 1.27)) (justify left))
    )
    (property "Value" "BAT41" (at 177.292 49.8091 90)
      (effects (font (size 1.27 1.27)) (justify left))
    )
    (property "Footprint" "Diode_THT:D_DO-35_SOD27_P7.62mm_Horizontal" (at 182.88 73.66 90)
      (effects (font (size 0.762 0.762)))
    )
    (property "Datasheet" "~" (at 175.26 48.26 0)
      (effects (font (size 1.27 1.27)) hide)
    )
    (pin "1" (uuid 36ffc3bc-7e6d-49a8-a5a2-edfa2400ed36))
    (pin "2" (uuid 1bede944-2327-4ace-8ea3-a46b287ca8ae))
    (instances
      (project "ER-VCO-03-DB"
        (path "/e63e39d7-6ac0-4ffd-8aa3-1841a4541b55"
          (reference "D2") (unit 1)
        )
      )
    )
  )

  (symbol (lib_id "Device:C") (at 127 59.69 0) (unit 1)
    (in_bom yes) (on_board yes) (dnp no)
    (uuid fac04110-7c89-4ecb-81b7-9e9dcb6b898d)
    (property "Reference" "C3" (at 129.921 57.3786 0)
      (effects (font (size 1.27 1.27)) (justify left))
    )
    (property "Value" "10nF" (at 129.921 59.69 0)
      (effects (font (size 1.27 1.27)) (justify left))
    )
    (property "Footprint" "Capacitor_THT:C_Rect_L4.0mm_W2.5mm_P2.50mm" (at 116.84 72.39 0)
      (effects (font (size 0.762 0.762)) (justify left))
    )
    (property "Datasheet" "" (at 127 59.69 0)
      (effects (font (size 1.27 1.27)) hide)
    )
    (pin "1" (uuid 27d23240-c66e-4781-a63a-1bed549b4276))
    (pin "2" (uuid 70a6eb81-b4f0-4407-a37e-9870a1efe7e0))
    (instances
      (project "ER-VCO-03-DB"
        (path "/e63e39d7-6ac0-4ffd-8aa3-1841a4541b55"
          (reference "C3") (unit 1)
        )
      )
    )
  )

  (symbol (lib_id "Device:R") (at 138.43 58.42 0) (unit 1)
    (in_bom yes) (on_board yes) (dnp no)
    (uuid fd6e65ac-7857-4dbe-a493-cc599be4ccae)
    (property "Reference" "R6" (at 135.89 58.42 90)
      (effects (font (size 1.27 1.27)))
    )
    (property "Value" "DNP" (at 138.43 58.42 90)
      (effects (font (size 1.27 1.27)))
    )
    (property "Footprint" "Resistor_THT:R_Axial_DIN0204_L3.6mm_D1.6mm_P7.62mm_Horizontal" (at 123.19 74.93 0)
      (effects (font (size 0.762 0.762)))
    )
    (property "Datasheet" "" (at 138.43 58.42 0)
      (effects (font (size 1.27 1.27)) hide)
    )
    (pin "1" (uuid 0a6e0b9d-f138-4df5-a0b5-8c5b89814c57))
    (pin "2" (uuid 1df12956-a755-41c7-839d-1693f5e30012))
    (instances
      (project "ER-VCO-03-DB"
        (path "/e63e39d7-6ac0-4ffd-8aa3-1841a4541b55"
          (reference "R6") (unit 1)
        )
      )
    )
  )

  (sheet_instances
    (path "/" (page "1"))
  )
)
