(kicad_sch (version 20230121) (generator eeschema)

  (uuid 383c4264-3413-4991-a4ed-5ec54d738fb8)

  (paper "A4")

  (lib_symbols
    (symbol "Device:R" (pin_numbers hide) (pin_names (offset 0)) (in_bom yes) (on_board yes)
      (property "Reference" "R" (at 2.032 0 90)
        (effects (font (size 1.27 1.27)))
      )
      (property "Value" "R" (at 0 0 90)
        (effects (font (size 1.27 1.27)))
      )
      (property "Footprint" "" (at -1.778 0 90)
        (effects (font (size 1.27 1.27)) hide)
      )
      (property "Datasheet" "~" (at 0 0 0)
        (effects (font (size 1.27 1.27)) hide)
      )
      (property "ki_keywords" "R res resistor" (at 0 0 0)
        (effects (font (size 1.27 1.27)) hide)
      )
      (property "ki_description" "Resistor" (at 0 0 0)
        (effects (font (size 1.27 1.27)) hide)
      )
      (property "ki_fp_filters" "R_*" (at 0 0 0)
        (effects (font (size 1.27 1.27)) hide)
      )
      (symbol "R_0_1"
        (rectangle (start -1.016 -2.54) (end 1.016 2.54)
          (stroke (width 0.254) (type default))
          (fill (type none))
        )
      )
      (symbol "R_1_1"
        (pin passive line (at 0 3.81 270) (length 1.27)
          (name "~" (effects (font (size 1.27 1.27))))
          (number "1" (effects (font (size 1.27 1.27))))
        )
        (pin passive line (at 0 -3.81 90) (length 1.27)
          (name "~" (effects (font (size 1.27 1.27))))
          (number "2" (effects (font (size 1.27 1.27))))
        )
      )
    )
    (symbol "Transistor_BJT:MMDT2222A" (pin_names (offset 0) hide) (in_bom yes) (on_board yes)
      (property "Reference" "Q" (at 5.08 1.27 0)
        (effects (font (size 1.27 1.27)) (justify left))
      )
      (property "Value" "MMDT2222A" (at 5.08 -1.27 0)
        (effects (font (size 1.27 1.27)) (justify left))
      )
      (property "Footprint" "Package_TO_SOT_SMD:SOT-363_SC-70-6" (at 5.08 2.54 0)
        (effects (font (size 1.27 1.27)) hide)
      )
      (property "Datasheet" "http://www.diodes.com/_files/datasheets/ds30125.pdf" (at 0 0 0)
        (effects (font (size 1.27 1.27)) hide)
      )
      (property "ki_locked" "" (at 0 0 0)
        (effects (font (size 1.27 1.27)))
      )
      (property "ki_keywords" "NPN/NPN Transistor" (at 0 0 0)
        (effects (font (size 1.27 1.27)) hide)
      )
      (property "ki_description" "600mA IC, 40V Vce, Dual NPN/NPN Transistors, SOT-363" (at 0 0 0)
        (effects (font (size 1.27 1.27)) hide)
      )
      (property "ki_fp_filters" "SOT?363*" (at 0 0 0)
        (effects (font (size 1.27 1.27)) hide)
      )
      (symbol "MMDT2222A_0_1"
        (polyline
          (pts
            (xy 0.635 0)
            (xy -2.54 0)
          )
          (stroke (width 0) (type default))
          (fill (type none))
        )
        (polyline
          (pts
            (xy 0.635 0.635)
            (xy 2.54 2.54)
          )
          (stroke (width 0) (type default))
          (fill (type none))
        )
        (polyline
          (pts
            (xy 0.635 -0.635)
            (xy 2.54 -2.54)
            (xy 2.54 -2.54)
          )
          (stroke (width 0) (type default))
          (fill (type none))
        )
        (polyline
          (pts
            (xy 0.635 1.905)
            (xy 0.635 -1.905)
            (xy 0.635 -1.905)
          )
          (stroke (width 0.508) (type default))
          (fill (type none))
        )
        (polyline
          (pts
            (xy 1.27 -1.778)
            (xy 1.778 -1.27)
            (xy 2.286 -2.286)
            (xy 1.27 -1.778)
            (xy 1.27 -1.778)
          )
          (stroke (width 0) (type default))
          (fill (type outline))
        )
        (circle (center 1.27 0) (radius 2.8194)
          (stroke (width 0.254) (type default))
          (fill (type none))
        )
      )
      (symbol "MMDT2222A_1_1"
        (pin passive line (at 2.54 -5.08 90) (length 2.54)
          (name "E1" (effects (font (size 1.27 1.27))))
          (number "1" (effects (font (size 1.27 1.27))))
        )
        (pin input line (at -5.08 0 0) (length 2.54)
          (name "B1" (effects (font (size 1.27 1.27))))
          (number "2" (effects (font (size 1.27 1.27))))
        )
        (pin passive line (at 2.54 5.08 270) (length 2.54)
          (name "C1" (effects (font (size 1.27 1.27))))
          (number "6" (effects (font (size 1.27 1.27))))
        )
      )
      (symbol "MMDT2222A_2_1"
        (pin passive line (at 2.54 5.08 270) (length 2.54)
          (name "C2" (effects (font (size 1.27 1.27))))
          (number "3" (effects (font (size 1.27 1.27))))
        )
        (pin passive line (at 2.54 -5.08 90) (length 2.54)
          (name "E2" (effects (font (size 1.27 1.27))))
          (number "4" (effects (font (size 1.27 1.27))))
        )
        (pin input line (at -5.08 0 0) (length 2.54)
          (name "B2" (effects (font (size 1.27 1.27))))
          (number "5" (effects (font (size 1.27 1.27))))
        )
      )
    )
    (symbol "Transistor_FET:AO3401A" (pin_names (offset 0) hide) (in_bom yes) (on_board yes)
      (property "Reference" "Q" (at 5.08 1.905 0)
        (effects (font (size 1.27 1.27)) (justify left))
      )
      (property "Value" "AO3401A" (at 5.08 0 0)
        (effects (font (size 1.27 1.27)) (justify left))
      )
      (property "Footprint" "Package_TO_SOT_SMD:SOT-23" (at 5.08 -1.905 0)
        (effects (font (size 1.27 1.27) italic) (justify left) hide)
      )
      (property "Datasheet" "http://www.aosmd.com/pdfs/datasheet/AO3401A.pdf" (at 0 0 0)
        (effects (font (size 1.27 1.27)) (justify left) hide)
      )
      (property "ki_keywords" "P-Channel MOSFET" (at 0 0 0)
        (effects (font (size 1.27 1.27)) hide)
      )
      (property "ki_description" "-4.0A Id, -30V Vds, P-Channel MOSFET, SOT-23" (at 0 0 0)
        (effects (font (size 1.27 1.27)) hide)
      )
      (property "ki_fp_filters" "SOT?23*" (at 0 0 0)
        (effects (font (size 1.27 1.27)) hide)
      )
      (symbol "AO3401A_0_1"
        (polyline
          (pts
            (xy -2.54 0)
            (xy 0.254 0)
          )
          (stroke (width 0) (type default))
          (fill (type none))
        )
        (polyline
          (pts
            (xy 0.762 -1.778)
            (xy 2.54 -1.778)
          )
          (stroke (width 0) (type default))
          (fill (type none))
        )
        (polyline
          (pts
            (xy 0.762 -1.27)
            (xy 0.762 -2.286)
          )
          (stroke (width 0.254) (type default))
          (fill (type none))
        )
        (polyline
          (pts
            (xy 0.762 0)
            (xy 2.54 0)
          )
          (stroke (width 0) (type default))
          (fill (type none))
        )
        (polyline
          (pts
            (xy 0.762 0.508)
            (xy 0.762 -0.508)
          )
          (stroke (width 0.254) (type default))
          (fill (type none))
        )
        (polyline
          (pts
            (xy 0.762 1.778)
            (xy 2.54 1.778)
          )
          (stroke (width 0) (type default))
          (fill (type none))
        )
        (polyline
          (pts
            (xy 0.762 2.286)
            (xy 0.762 1.27)
          )
          (stroke (width 0.254) (type default))
          (fill (type none))
        )
        (polyline
          (pts
            (xy 2.54 -1.778)
            (xy 2.54 -2.54)
          )
          (stroke (width 0) (type default))
          (fill (type none))
        )
        (polyline
          (pts
            (xy 2.54 -1.778)
            (xy 2.54 0)
          )
          (stroke (width 0) (type default))
          (fill (type none))
        )
        (polyline
          (pts
            (xy 2.54 2.54)
            (xy 2.54 1.778)
          )
          (stroke (width 0) (type default))
          (fill (type none))
        )
        (polyline
          (pts
            (xy 0.254 1.905)
            (xy 0.254 -1.905)
            (xy 0.254 -1.905)
          )
          (stroke (width 0.254) (type default))
          (fill (type none))
        )
        (polyline
          (pts
            (xy 2.286 0)
            (xy 1.27 -0.381)
            (xy 1.27 0.381)
            (xy 2.286 0)
          )
          (stroke (width 0) (type default))
          (fill (type outline))
        )
        (polyline
          (pts
            (xy 2.54 -1.778)
            (xy 3.302 -1.778)
            (xy 3.302 1.778)
            (xy 2.54 1.778)
          )
          (stroke (width 0) (type default))
          (fill (type none))
        )
        (polyline
          (pts
            (xy 2.794 -0.508)
            (xy 2.921 -0.381)
            (xy 3.683 -0.381)
            (xy 3.81 -0.254)
          )
          (stroke (width 0) (type default))
          (fill (type none))
        )
        (polyline
          (pts
            (xy 3.302 -0.381)
            (xy 2.921 0.254)
            (xy 3.683 0.254)
            (xy 3.302 -0.381)
          )
          (stroke (width 0) (type default))
          (fill (type none))
        )
        (circle (center 1.651 0) (radius 2.8194)
          (stroke (width 0.254) (type default))
          (fill (type none))
        )
        (circle (center 2.54 -1.778) (radius 0.2794)
          (stroke (width 0) (type default))
          (fill (type outline))
        )
        (circle (center 2.54 1.778) (radius 0.2794)
          (stroke (width 0) (type default))
          (fill (type outline))
        )
      )
      (symbol "AO3401A_1_1"
        (pin input line (at -5.08 0 0) (length 2.54)
          (name "G" (effects (font (size 1.27 1.27))))
          (number "1" (effects (font (size 1.27 1.27))))
        )
        (pin passive line (at 2.54 -5.08 90) (length 2.54)
          (name "S" (effects (font (size 1.27 1.27))))
          (number "2" (effects (font (size 1.27 1.27))))
        )
        (pin passive line (at 2.54 5.08 270) (length 2.54)
          (name "D" (effects (font (size 1.27 1.27))))
          (number "3" (effects (font (size 1.27 1.27))))
        )
      )
    )
    (symbol "power:GND" (power) (pin_names (offset 0)) (in_bom yes) (on_board yes)
      (property "Reference" "#PWR" (at 0 -6.35 0)
        (effects (font (size 1.27 1.27)) hide)
      )
      (property "Value" "GND" (at 0 -3.81 0)
        (effects (font (size 1.27 1.27)))
      )
      (property "Footprint" "" (at 0 0 0)
        (effects (font (size 1.27 1.27)) hide)
      )
      (property "Datasheet" "" (at 0 0 0)
        (effects (font (size 1.27 1.27)) hide)
      )
      (property "ki_keywords" "power-flag" (at 0 0 0)
        (effects (font (size 1.27 1.27)) hide)
      )
      (property "ki_description" "Power symbol creates a global label with name \"GND\" , ground" (at 0 0 0)
        (effects (font (size 1.27 1.27)) hide)
      )
      (symbol "GND_0_1"
        (polyline
          (pts
            (xy 0 0)
            (xy 0 -1.27)
            (xy 1.27 -1.27)
            (xy 0 -2.54)
            (xy -1.27 -1.27)
            (xy 0 -1.27)
          )
          (stroke (width 0) (type default))
          (fill (type none))
        )
      )
      (symbol "GND_1_1"
        (pin power_in line (at 0 0 270) (length 0) hide
          (name "GND" (effects (font (size 1.27 1.27))))
          (number "1" (effects (font (size 1.27 1.27))))
        )
      )
    )
  )

  (junction (at 60.96 60.96) (diameter 0) (color 0 0 0 0)
    (uuid 57f81dae-6b74-4778-877c-d9c9c7c487be)
  )
  (junction (at 50.8 68.58) (diameter 0) (color 0 0 0 0)
    (uuid ed99ab8c-69dc-4017-81dd-4e64183b24bf)
  )
  (junction (at 76.2 68.58) (diameter 0) (color 0 0 0 0)
    (uuid fd3ac42b-0e3d-4a11-808a-8a59a447b829)
  )

  (wire (pts (xy 76.2 66.04) (xy 76.2 68.58))
    (stroke (width 0) (type default))
    (uuid 32d945f1-bef9-4c15-96de-ed87383fd3da)
  )
  (wire (pts (xy 76.2 68.58) (xy 63.5 68.58))
    (stroke (width 0) (type default))
    (uuid 3d9b91da-70cd-4544-8f1e-c85a5730eae3)
  )
  (wire (pts (xy 76.2 68.58) (xy 76.2 69.85))
    (stroke (width 0) (type default))
    (uuid 3e46924d-ae48-4009-b713-b7d675a0eb37)
  )
  (wire (pts (xy 50.8 77.47) (xy 50.8 78.74))
    (stroke (width 0) (type default))
    (uuid 4387878c-7ba7-40d1-8d60-8cc8f22de6d7)
  )
  (wire (pts (xy 50.8 68.58) (xy 60.96 68.58))
    (stroke (width 0) (type default))
    (uuid 59132a97-75f9-4554-b7bc-77284ce52bd0)
  )
  (wire (pts (xy 68.58 50.8) (xy 76.2 50.8))
    (stroke (width 0) (type default))
    (uuid 7d103b70-b167-4f6b-9200-a6decd24c15b)
  )
  (wire (pts (xy 50.8 50.8) (xy 58.42 50.8))
    (stroke (width 0) (type default))
    (uuid 826debd1-13e7-4087-a620-ba618ac80e93)
  )
  (wire (pts (xy 58.42 60.96) (xy 60.96 60.96))
    (stroke (width 0) (type default))
    (uuid 834e5dea-6001-4f39-be85-407d7d7a6fa1)
  )
  (wire (pts (xy 60.96 68.58) (xy 60.96 60.96))
    (stroke (width 0) (type default))
    (uuid 839fe33a-5dee-462e-a043-d9d0b12e07c9)
  )
  (wire (pts (xy 63.5 58.42) (xy 63.5 68.58))
    (stroke (width 0) (type default))
    (uuid 83a195de-b9fc-41c2-87ff-fe2d8e28a4f7)
  )
  (wire (pts (xy 50.8 68.58) (xy 50.8 69.85))
    (stroke (width 0) (type default))
    (uuid 8fbae232-2f78-4e0c-afb2-1bf763150f89)
  )
  (wire (pts (xy 76.2 77.47) (xy 76.2 78.74))
    (stroke (width 0) (type default))
    (uuid cdbee288-3766-4618-8296-9b3076e2bb3d)
  )
  (wire (pts (xy 60.96 60.96) (xy 68.58 60.96))
    (stroke (width 0) (type default))
    (uuid cf337966-c728-4a87-90c7-2af178392e58)
  )
  (wire (pts (xy 50.8 66.04) (xy 50.8 68.58))
    (stroke (width 0) (type default))
    (uuid d112daef-aad0-4ec0-a4d8-6a9aa3005c0e)
  )
  (wire (pts (xy 50.8 55.88) (xy 50.8 50.8))
    (stroke (width 0) (type default))
    (uuid eed5227d-84e5-47f8-a43f-1a78266f1eb4)
  )
  (wire (pts (xy 76.2 50.8) (xy 76.2 55.88))
    (stroke (width 0) (type default))
    (uuid f08a00a3-757c-4801-9056-5d5a3e30ec83)
  )

  (hierarchical_label "C" (shape input) (at 76.2 50.8 0) (fields_autoplaced)
    (effects (font (size 1.27 1.27)) (justify left))
    (uuid 61846998-7077-42d0-bfbc-e9ea4b4c50f5)
  )
  (hierarchical_label "A" (shape input) (at 50.8 50.8 180) (fields_autoplaced)
    (effects (font (size 1.27 1.27)) (justify right))
    (uuid 9f165ad8-666a-4135-8d6d-8f27ffe7f7f2)
  )

  (symbol (lib_id "Transistor_BJT:MMDT2222A") (at 53.34 60.96 0) (mirror y) (unit 2)
    (in_bom yes) (on_board yes) (dnp no) (fields_autoplaced)
    (uuid 13ab213e-eddb-41b4-86fb-7ef45aa21aa7)
    (property "Reference" "Q1" (at 48.26 59.6899 0)
      (effects (font (size 1.27 1.27)) (justify left))
    )
    (property "Value" "BC807DS,115" (at 48.26 62.2299 0)
      (effects (font (size 1.27 1.27)) (justify left))
    )
    (property "Footprint" "Package_SO:SC-74-6_1.5x2.9mm_P0.95mm" (at 48.26 58.42 0)
      (effects (font (size 1.27 1.27)) hide)
    )
    (property "Datasheet" "http://www.diodes.com/_files/datasheets/ds30125.pdf" (at 53.34 60.96 0)
      (effects (font (size 1.27 1.27)) hide)
    )
    (pin "1" (uuid 75328407-7e84-4284-b6a2-320b5fbf6ba6))
    (pin "2" (uuid 17c6128c-df1b-4029-a926-4189698fc483))
    (pin "6" (uuid 0fd7e937-f3eb-47b0-aaf4-205c6ed16a11))
    (pin "3" (uuid 38751a3c-8856-4ded-82d0-93d47f6f1ada))
    (pin "4" (uuid 81680c08-6094-40e0-b823-57845075f9ed))
    (pin "5" (uuid 5e75df94-239c-4d31-abe5-b7877890860c))
    (instances
      (project "chubby-hat"
        (path "/4807f255-cede-4a86-b009-c3f93cadbbb8/2dfe213e-a803-4806-9a93-2fd69a441a25/e665c2ef-b449-4dc5-9bfe-324124961020"
          (reference "Q1") (unit 2)
        )
        (path "/4807f255-cede-4a86-b009-c3f93cadbbb8/fd50aec1-3d51-44db-a4cb-6c1b12df99e5"
          (reference "Q3") (unit 2)
        )
      )
    )
  )

  (symbol (lib_id "Transistor_FET:AO3401A") (at 63.5 53.34 90) (unit 1)
    (in_bom yes) (on_board yes) (dnp no)
    (uuid 3bcf76ee-885c-42d1-bb76-85e1431b0c84)
    (property "Reference" "Q2" (at 63.5 44.6594 90)
      (effects (font (size 1.27 1.27)))
    )
    (property "Value" "AO3401A" (at 63.5 46.9581 90)
      (effects (font (size 1.27 1.27)))
    )
    (property "Footprint" "Package_TO_SOT_SMD:SOT-23" (at 65.405 48.26 0)
      (effects (font (size 1.27 1.27) italic) (justify left) hide)
    )
    (property "Datasheet" "http://www.aosmd.com/pdfs/datasheet/AO3401A.pdf" (at 63.5 53.34 0)
      (effects (font (size 1.27 1.27)) (justify left) hide)
    )
    (pin "1" (uuid d0b3ff26-2352-4459-a5a3-710a1f62a458))
    (pin "2" (uuid d1edb820-0faa-4bd5-89e3-eceb1ab00372))
    (pin "3" (uuid a9693ba0-996b-4a5b-89bb-df2ec227d792))
    (instances
      (project "chubby-hat"
        (path "/4807f255-cede-4a86-b009-c3f93cadbbb8/2dfe213e-a803-4806-9a93-2fd69a441a25/e665c2ef-b449-4dc5-9bfe-324124961020"
          (reference "Q2") (unit 1)
        )
        (path "/4807f255-cede-4a86-b009-c3f93cadbbb8/fd50aec1-3d51-44db-a4cb-6c1b12df99e5"
          (reference "Q4") (unit 1)
        )
      )
    )
  )

  (symbol (lib_id "power:GND") (at 50.8 78.74 0) (unit 1)
    (in_bom yes) (on_board yes) (dnp no)
    (uuid 774018f0-92e7-41f1-b520-ef89d499cecf)
    (property "Reference" "#PWR068" (at 50.8 85.09 0)
      (effects (font (size 1.27 1.27)) hide)
    )
    (property "Value" "GND" (at 50.9143 83.0644 0)
      (effects (font (size 1.27 1.27)))
    )
    (property "Footprint" "" (at 50.8 78.74 0)
      (effects (font (size 1.27 1.27)) hide)
    )
    (property "Datasheet" "" (at 50.8 78.74 0)
      (effects (font (size 1.27 1.27)) hide)
    )
    (pin "1" (uuid b1d852ef-1379-4903-9530-857dd22b75f9))
    (instances
      (project "chubby-hat"
        (path "/4807f255-cede-4a86-b009-c3f93cadbbb8/2dfe213e-a803-4806-9a93-2fd69a441a25/e665c2ef-b449-4dc5-9bfe-324124961020"
          (reference "#PWR068") (unit 1)
        )
        (path "/4807f255-cede-4a86-b009-c3f93cadbbb8/fd50aec1-3d51-44db-a4cb-6c1b12df99e5"
          (reference "#PWR070") (unit 1)
        )
      )
    )
  )

  (symbol (lib_id "power:GND") (at 76.2 78.74 0) (unit 1)
    (in_bom yes) (on_board yes) (dnp no)
    (uuid c02b17f8-c900-4141-a608-b253937a759e)
    (property "Reference" "#PWR069" (at 76.2 85.09 0)
      (effects (font (size 1.27 1.27)) hide)
    )
    (property "Value" "GND" (at 76.3143 83.0644 0)
      (effects (font (size 1.27 1.27)))
    )
    (property "Footprint" "" (at 76.2 78.74 0)
      (effects (font (size 1.27 1.27)) hide)
    )
    (property "Datasheet" "" (at 76.2 78.74 0)
      (effects (font (size 1.27 1.27)) hide)
    )
    (pin "1" (uuid f85d8464-7d5b-4d7e-ac7d-fb2edad043f0))
    (instances
      (project "chubby-hat"
        (path "/4807f255-cede-4a86-b009-c3f93cadbbb8/2dfe213e-a803-4806-9a93-2fd69a441a25/e665c2ef-b449-4dc5-9bfe-324124961020"
          (reference "#PWR069") (unit 1)
        )
        (path "/4807f255-cede-4a86-b009-c3f93cadbbb8/fd50aec1-3d51-44db-a4cb-6c1b12df99e5"
          (reference "#PWR071") (unit 1)
        )
      )
    )
  )

  (symbol (lib_id "Device:R") (at 76.2 73.66 180) (unit 1)
    (in_bom yes) (on_board yes) (dnp no) (fields_autoplaced)
    (uuid c88f5978-16dc-4051-a94b-795cf28cd814)
    (property "Reference" "R10" (at 78.74 72.3899 0)
      (effects (font (size 1.27 1.27)) (justify right))
    )
    (property "Value" "47k" (at 78.74 74.9299 0)
      (effects (font (size 1.27 1.27)) (justify right))
    )
    (property "Footprint" "Resistor_SMD:R_0603_1608Metric" (at 77.978 73.66 90)
      (effects (font (size 1.27 1.27)) hide)
    )
    (property "Datasheet" "~" (at 76.2 73.66 0)
      (effects (font (size 1.27 1.27)) hide)
    )
    (pin "1" (uuid e70ef1eb-761f-4d9b-a083-4cda77a26e62))
    (pin "2" (uuid 24459416-bea8-432f-9da3-188a5c54ce67))
    (instances
      (project "chubby-hat"
        (path "/4807f255-cede-4a86-b009-c3f93cadbbb8/2dfe213e-a803-4806-9a93-2fd69a441a25/e665c2ef-b449-4dc5-9bfe-324124961020"
          (reference "R10") (unit 1)
        )
        (path "/4807f255-cede-4a86-b009-c3f93cadbbb8/fd50aec1-3d51-44db-a4cb-6c1b12df99e5"
          (reference "R12") (unit 1)
        )
      )
    )
  )

  (symbol (lib_id "Transistor_BJT:MMDT2222A") (at 73.66 60.96 0) (unit 1)
    (in_bom yes) (on_board yes) (dnp no) (fields_autoplaced)
    (uuid d0ba0d76-11c6-4d8f-b149-0e8fb06bf75b)
    (property "Reference" "Q1" (at 78.74 59.6899 0)
      (effects (font (size 1.27 1.27)) (justify left))
    )
    (property "Value" "BC807DS,115" (at 78.74 62.2299 0)
      (effects (font (size 1.27 1.27)) (justify left))
    )
    (property "Footprint" "Package_SO:SC-74-6_1.5x2.9mm_P0.95mm" (at 78.74 58.42 0)
      (effects (font (size 1.27 1.27)) hide)
    )
    (property "Datasheet" "http://www.diodes.com/_files/datasheets/ds30125.pdf" (at 73.66 60.96 0)
      (effects (font (size 1.27 1.27)) hide)
    )
    (pin "1" (uuid 50317d8f-9c4d-4428-b13a-f8b1c4adcf66))
    (pin "2" (uuid 5449639f-08f1-4154-b70b-e21180645e6d))
    (pin "6" (uuid 2fe4dcd1-ba28-4d8d-9473-9c7af5920a8e))
    (pin "3" (uuid 8d542777-f4e0-4405-bd5e-a145c6a51865))
    (pin "4" (uuid 372fad61-f187-4b78-a6ea-68cc30bd8b6c))
    (pin "5" (uuid a6e9f47b-7f34-46bd-8504-d5c49be6b806))
    (instances
      (project "chubby-hat"
        (path "/4807f255-cede-4a86-b009-c3f93cadbbb8/2dfe213e-a803-4806-9a93-2fd69a441a25/e665c2ef-b449-4dc5-9bfe-324124961020"
          (reference "Q1") (unit 1)
        )
        (path "/4807f255-cede-4a86-b009-c3f93cadbbb8/fd50aec1-3d51-44db-a4cb-6c1b12df99e5"
          (reference "Q3") (unit 1)
        )
      )
    )
  )

  (symbol (lib_id "Device:R") (at 50.8 73.66 180) (unit 1)
    (in_bom yes) (on_board yes) (dnp no) (fields_autoplaced)
    (uuid fb3e81ec-b7de-452f-a403-6419fe44140b)
    (property "Reference" "R9" (at 53.34 72.3899 0)
      (effects (font (size 1.27 1.27)) (justify right))
    )
    (property "Value" "10k" (at 53.34 74.9299 0)
      (effects (font (size 1.27 1.27)) (justify right))
    )
    (property "Footprint" "Resistor_SMD:R_0603_1608Metric" (at 52.578 73.66 90)
      (effects (font (size 1.27 1.27)) hide)
    )
    (property "Datasheet" "~" (at 50.8 73.66 0)
      (effects (font (size 1.27 1.27)) hide)
    )
    (pin "1" (uuid 2e81fbeb-4147-4a79-a194-89d2ba37d4ab))
    (pin "2" (uuid 50118e33-b39a-4dc7-83ab-5c05b79591ad))
    (instances
      (project "chubby-hat"
        (path "/4807f255-cede-4a86-b009-c3f93cadbbb8/2dfe213e-a803-4806-9a93-2fd69a441a25/e665c2ef-b449-4dc5-9bfe-324124961020"
          (reference "R9") (unit 1)
        )
        (path "/4807f255-cede-4a86-b009-c3f93cadbbb8/fd50aec1-3d51-44db-a4cb-6c1b12df99e5"
          (reference "R11") (unit 1)
        )
      )
    )
  )
)
