(kicad_sch (version 20230121) (generator eeschema)

  (uuid e63e39d7-6ac0-4ffd-8aa3-1841a4541b55)

  (paper "A4")

  (title_block
    (title "CC26X2R1 HAT")
    (date "2024-04-30")
    (rev "0.4")
    (company "haus-automatisierung.com")
    (comment 1 "Matthias Kleine")
  )

  (lib_symbols
    (symbol "Connector:Conn_01x10_Female" (pin_names (offset 1.016) hide) (in_bom yes) (on_board yes)
      (property "Reference" "J" (at 0 12.7 0)
        (effects (font (size 1.27 1.27)))
      )
      (property "Value" "Conn_01x10_Female" (at 0 -15.24 0)
        (effects (font (size 1.27 1.27)))
      )
      (property "Footprint" "" (at 0 0 0)
        (effects (font (size 1.27 1.27)) hide)
      )
      (property "Datasheet" "~" (at 0 0 0)
        (effects (font (size 1.27 1.27)) hide)
      )
      (property "ki_keywords" "connector" (at 0 0 0)
        (effects (font (size 1.27 1.27)) hide)
      )
      (property "ki_description" "Generic connector, single row, 01x10, script generated (kicad-library-utils/schlib/autogen/connector/)" (at 0 0 0)
        (effects (font (size 1.27 1.27)) hide)
      )
      (property "ki_fp_filters" "Connector*:*_1x??_*" (at 0 0 0)
        (effects (font (size 1.27 1.27)) hide)
      )
      (symbol "Conn_01x10_Female_1_1"
        (arc (start 0 -12.192) (mid -0.5058 -12.7) (end 0 -13.208)
          (stroke (width 0.1524) (type default))
          (fill (type none))
        )
        (arc (start 0 -9.652) (mid -0.5058 -10.16) (end 0 -10.668)
          (stroke (width 0.1524) (type default))
          (fill (type none))
        )
        (arc (start 0 -7.112) (mid -0.5058 -7.62) (end 0 -8.128)
          (stroke (width 0.1524) (type default))
          (fill (type none))
        )
        (arc (start 0 -4.572) (mid -0.5058 -5.08) (end 0 -5.588)
          (stroke (width 0.1524) (type default))
          (fill (type none))
        )
        (arc (start 0 -2.032) (mid -0.5058 -2.54) (end 0 -3.048)
          (stroke (width 0.1524) (type default))
          (fill (type none))
        )
        (polyline
          (pts
            (xy -1.27 -12.7)
            (xy -0.508 -12.7)
          )
          (stroke (width 0.1524) (type default))
          (fill (type none))
        )
        (polyline
          (pts
            (xy -1.27 -10.16)
            (xy -0.508 -10.16)
          )
          (stroke (width 0.1524) (type default))
          (fill (type none))
        )
        (polyline
          (pts
            (xy -1.27 -7.62)
            (xy -0.508 -7.62)
          )
          (stroke (width 0.1524) (type default))
          (fill (type none))
        )
        (polyline
          (pts
            (xy -1.27 -5.08)
            (xy -0.508 -5.08)
          )
          (stroke (width 0.1524) (type default))
          (fill (type none))
        )
        (polyline
          (pts
            (xy -1.27 -2.54)
            (xy -0.508 -2.54)
          )
          (stroke (width 0.1524) (type default))
          (fill (type none))
        )
        (polyline
          (pts
            (xy -1.27 0)
            (xy -0.508 0)
          )
          (stroke (width 0.1524) (type default))
          (fill (type none))
        )
        (polyline
          (pts
            (xy -1.27 2.54)
            (xy -0.508 2.54)
          )
          (stroke (width 0.1524) (type default))
          (fill (type none))
        )
        (polyline
          (pts
            (xy -1.27 5.08)
            (xy -0.508 5.08)
          )
          (stroke (width 0.1524) (type default))
          (fill (type none))
        )
        (polyline
          (pts
            (xy -1.27 7.62)
            (xy -0.508 7.62)
          )
          (stroke (width 0.1524) (type default))
          (fill (type none))
        )
        (polyline
          (pts
            (xy -1.27 10.16)
            (xy -0.508 10.16)
          )
          (stroke (width 0.1524) (type default))
          (fill (type none))
        )
        (arc (start 0 0.508) (mid -0.5058 0) (end 0 -0.508)
          (stroke (width 0.1524) (type default))
          (fill (type none))
        )
        (arc (start 0 3.048) (mid -0.5058 2.54) (end 0 2.032)
          (stroke (width 0.1524) (type default))
          (fill (type none))
        )
        (arc (start 0 5.588) (mid -0.5058 5.08) (end 0 4.572)
          (stroke (width 0.1524) (type default))
          (fill (type none))
        )
        (arc (start 0 8.128) (mid -0.5058 7.62) (end 0 7.112)
          (stroke (width 0.1524) (type default))
          (fill (type none))
        )
        (arc (start 0 10.668) (mid -0.5058 10.16) (end 0 9.652)
          (stroke (width 0.1524) (type default))
          (fill (type none))
        )
        (pin passive line (at -5.08 10.16 0) (length 3.81)
          (name "Pin_1" (effects (font (size 1.27 1.27))))
          (number "1" (effects (font (size 1.27 1.27))))
        )
        (pin passive line (at -5.08 -12.7 0) (length 3.81)
          (name "Pin_10" (effects (font (size 1.27 1.27))))
          (number "10" (effects (font (size 1.27 1.27))))
        )
        (pin passive line (at -5.08 7.62 0) (length 3.81)
          (name "Pin_2" (effects (font (size 1.27 1.27))))
          (number "2" (effects (font (size 1.27 1.27))))
        )
        (pin passive line (at -5.08 5.08 0) (length 3.81)
          (name "Pin_3" (effects (font (size 1.27 1.27))))
          (number "3" (effects (font (size 1.27 1.27))))
        )
        (pin passive line (at -5.08 2.54 0) (length 3.81)
          (name "Pin_4" (effects (font (size 1.27 1.27))))
          (number "4" (effects (font (size 1.27 1.27))))
        )
        (pin passive line (at -5.08 0 0) (length 3.81)
          (name "Pin_5" (effects (font (size 1.27 1.27))))
          (number "5" (effects (font (size 1.27 1.27))))
        )
        (pin passive line (at -5.08 -2.54 0) (length 3.81)
          (name "Pin_6" (effects (font (size 1.27 1.27))))
          (number "6" (effects (font (size 1.27 1.27))))
        )
        (pin passive line (at -5.08 -5.08 0) (length 3.81)
          (name "Pin_7" (effects (font (size 1.27 1.27))))
          (number "7" (effects (font (size 1.27 1.27))))
        )
        (pin passive line (at -5.08 -7.62 0) (length 3.81)
          (name "Pin_8" (effects (font (size 1.27 1.27))))
          (number "8" (effects (font (size 1.27 1.27))))
        )
        (pin passive line (at -5.08 -10.16 0) (length 3.81)
          (name "Pin_9" (effects (font (size 1.27 1.27))))
          (number "9" (effects (font (size 1.27 1.27))))
        )
      )
    )
    (symbol "Connector_Generic:Conn_01x07" (pin_names (offset 1.016) hide) (in_bom yes) (on_board yes)
      (property "Reference" "J" (at 0 10.16 0)
        (effects (font (size 1.27 1.27)))
      )
      (property "Value" "Conn_01x07" (at 0 -10.16 0)
        (effects (font (size 1.27 1.27)))
      )
      (property "Footprint" "" (at 0 0 0)
        (effects (font (size 1.27 1.27)) hide)
      )
      (property "Datasheet" "~" (at 0 0 0)
        (effects (font (size 1.27 1.27)) hide)
      )
      (property "ki_keywords" "connector" (at 0 0 0)
        (effects (font (size 1.27 1.27)) hide)
      )
      (property "ki_description" "Generic connector, single row, 01x07, script generated (kicad-library-utils/schlib/autogen/connector/)" (at 0 0 0)
        (effects (font (size 1.27 1.27)) hide)
      )
      (property "ki_fp_filters" "Connector*:*_1x??_*" (at 0 0 0)
        (effects (font (size 1.27 1.27)) hide)
      )
      (symbol "Conn_01x07_1_1"
        (rectangle (start -1.27 -7.493) (end 0 -7.747)
          (stroke (width 0.1524) (type default))
          (fill (type none))
        )
        (rectangle (start -1.27 -4.953) (end 0 -5.207)
          (stroke (width 0.1524) (type default))
          (fill (type none))
        )
        (rectangle (start -1.27 -2.413) (end 0 -2.667)
          (stroke (width 0.1524) (type default))
          (fill (type none))
        )
        (rectangle (start -1.27 0.127) (end 0 -0.127)
          (stroke (width 0.1524) (type default))
          (fill (type none))
        )
        (rectangle (start -1.27 2.667) (end 0 2.413)
          (stroke (width 0.1524) (type default))
          (fill (type none))
        )
        (rectangle (start -1.27 5.207) (end 0 4.953)
          (stroke (width 0.1524) (type default))
          (fill (type none))
        )
        (rectangle (start -1.27 7.747) (end 0 7.493)
          (stroke (width 0.1524) (type default))
          (fill (type none))
        )
        (rectangle (start -1.27 8.89) (end 1.27 -8.89)
          (stroke (width 0.254) (type default))
          (fill (type background))
        )
        (pin passive line (at -5.08 7.62 0) (length 3.81)
          (name "Pin_1" (effects (font (size 1.27 1.27))))
          (number "1" (effects (font (size 1.27 1.27))))
        )
        (pin passive line (at -5.08 5.08 0) (length 3.81)
          (name "Pin_2" (effects (font (size 1.27 1.27))))
          (number "2" (effects (font (size 1.27 1.27))))
        )
        (pin passive line (at -5.08 2.54 0) (length 3.81)
          (name "Pin_3" (effects (font (size 1.27 1.27))))
          (number "3" (effects (font (size 1.27 1.27))))
        )
        (pin passive line (at -5.08 0 0) (length 3.81)
          (name "Pin_4" (effects (font (size 1.27 1.27))))
          (number "4" (effects (font (size 1.27 1.27))))
        )
        (pin passive line (at -5.08 -2.54 0) (length 3.81)
          (name "Pin_5" (effects (font (size 1.27 1.27))))
          (number "5" (effects (font (size 1.27 1.27))))
        )
        (pin passive line (at -5.08 -5.08 0) (length 3.81)
          (name "Pin_6" (effects (font (size 1.27 1.27))))
          (number "6" (effects (font (size 1.27 1.27))))
        )
        (pin passive line (at -5.08 -7.62 0) (length 3.81)
          (name "Pin_7" (effects (font (size 1.27 1.27))))
          (number "7" (effects (font (size 1.27 1.27))))
        )
      )
    )
    (symbol "haus-automatisierung:CC26X2R1" (in_bom yes) (on_board yes)
      (property "Reference" "U" (at 0 1.27 0)
        (effects (font (size 1.27 1.27)))
      )
      (property "Value" "CC26X2R1" (at 0 -1.27 0)
        (effects (font (size 1.27 1.27)))
      )
      (property "Footprint" "haus-automatisierung:CC26X2R1" (at 0 0 0)
        (effects (font (size 1.27 1.27)) hide)
      )
      (property "Datasheet" "" (at 0 0 0)
        (effects (font (size 1.27 1.27)) hide)
      )
      (symbol "CC26X2R1_0_1"
        (rectangle (start -13.97 -8.89) (end 12.7 -67.31)
          (stroke (width 0) (type default))
          (fill (type none))
        )
      )
      (symbol "CC26X2R1_1_1"
        (pin power_in line (at -1.27 -6.35 270) (length 2.54)
          (name "3v3" (effects (font (size 1.27 1.27))))
          (number "1" (effects (font (size 1.27 1.27))))
        )
        (pin bidirectional line (at 15.24 -49.53 180) (length 2.54)
          (name "DIO5/I2C_SDA" (effects (font (size 1.27 1.27))))
          (number "10" (effects (font (size 1.27 1.27))))
        )
        (pin bidirectional line (at -16.51 -52.07 0) (length 2.54)
          (name "DIO15" (effects (font (size 1.27 1.27))))
          (number "11" (effects (font (size 1.27 1.27))))
        )
        (pin bidirectional line (at 15.24 -36.83 180) (length 2.54)
          (name "DIO14/BTN2" (effects (font (size 1.27 1.27))))
          (number "12" (effects (font (size 1.27 1.27))))
        )
        (pin bidirectional line (at 15.24 -34.29 180) (length 2.54)
          (name "DIO13/BTN1" (effects (font (size 1.27 1.27))))
          (number "13" (effects (font (size 1.27 1.27))))
        )
        (pin bidirectional line (at 15.24 -54.61 180) (length 2.54)
          (name "DIO8/MISO" (effects (font (size 1.27 1.27))))
          (number "14" (effects (font (size 1.27 1.27))))
        )
        (pin bidirectional line (at 15.24 -57.15 180) (length 2.54)
          (name "DIO9/MOSI" (effects (font (size 1.27 1.27))))
          (number "15" (effects (font (size 1.27 1.27))))
        )
        (pin bidirectional line (at -16.51 -34.29 0) (length 2.54)
          (name "LP_RST" (effects (font (size 1.27 1.27))))
          (number "16" (effects (font (size 1.27 1.27))))
        )
        (pin no_connect line (at -16.51 -16.51 0) (length 2.54)
          (name "" (effects (font (size 1.27 1.27))))
          (number "17" (effects (font (size 1.27 1.27))))
        )
        (pin bidirectional line (at 15.24 -41.91 180) (length 2.54)
          (name "DIO11/SPI_CS" (effects (font (size 1.27 1.27))))
          (number "18" (effects (font (size 1.27 1.27))))
        )
        (pin bidirectional line (at -16.51 -41.91 0) (length 2.54)
          (name "DIO12/PWM1" (effects (font (size 1.27 1.27))))
          (number "19" (effects (font (size 1.27 1.27))))
        )
        (pin bidirectional line (at 15.24 -11.43 180) (length 2.54)
          (name "DIO23/A0" (effects (font (size 1.27 1.27))))
          (number "2" (effects (font (size 1.27 1.27))))
        )
        (pin power_out line (at 2.54 -69.85 90) (length 2.54)
          (name "GND" (effects (font (size 1.27 1.27))))
          (number "20" (effects (font (size 1.27 1.27))))
        )
        (pin power_in line (at 1.27 -6.35 270) (length 2.54)
          (name "5V" (effects (font (size 1.27 1.27))))
          (number "21" (effects (font (size 1.27 1.27))))
        )
        (pin power_out line (at 6.35 -69.85 90) (length 2.54)
          (name "GND" (effects (font (size 1.27 1.27))))
          (number "22" (effects (font (size 1.27 1.27))))
        )
        (pin bidirectional line (at 15.24 -16.51 180) (length 2.54)
          (name "DIO25/A2" (effects (font (size 1.27 1.27))))
          (number "23" (effects (font (size 1.27 1.27))))
        )
        (pin bidirectional line (at 15.24 -19.05 180) (length 2.54)
          (name "DIO26/A3" (effects (font (size 1.27 1.27))))
          (number "24" (effects (font (size 1.27 1.27))))
        )
        (pin bidirectional line (at 15.24 -21.59 180) (length 2.54)
          (name "DIO27/A4" (effects (font (size 1.27 1.27))))
          (number "25" (effects (font (size 1.27 1.27))))
        )
        (pin bidirectional line (at 15.24 -24.13 180) (length 2.54)
          (name "DIO28/A5" (effects (font (size 1.27 1.27))))
          (number "26" (effects (font (size 1.27 1.27))))
        )
        (pin bidirectional line (at 15.24 -26.67 180) (length 2.54)
          (name "DIO29/A6" (effects (font (size 1.27 1.27))))
          (number "27" (effects (font (size 1.27 1.27))))
        )
        (pin bidirectional line (at 15.24 -29.21 180) (length 2.54)
          (name "DIO30/A7" (effects (font (size 1.27 1.27))))
          (number "28" (effects (font (size 1.27 1.27))))
        )
        (pin bidirectional line (at -16.51 -46.99 0) (length 2.54)
          (name "DIO0" (effects (font (size 1.27 1.27))))
          (number "29" (effects (font (size 1.27 1.27))))
        )
        (pin bidirectional line (at -16.51 -11.43 0) (length 2.54)
          (name "DIO2/RXD" (effects (font (size 1.27 1.27))))
          (number "3" (effects (font (size 1.27 1.27))))
        )
        (pin bidirectional line (at -16.51 -49.53 0) (length 2.54)
          (name "DIO1" (effects (font (size 1.27 1.27))))
          (number "30" (effects (font (size 1.27 1.27))))
        )
        (pin bidirectional line (at -16.51 -26.67 0) (length 2.54)
          (name "DIO17/TDI" (effects (font (size 1.27 1.27))))
          (number "31" (effects (font (size 1.27 1.27))))
        )
        (pin bidirectional line (at -16.51 -29.21 0) (length 2.54)
          (name "DIO16/TDO" (effects (font (size 1.27 1.27))))
          (number "32" (effects (font (size 1.27 1.27))))
        )
        (pin bidirectional line (at 15.24 -62.23 180) (length 2.54)
          (name "TCK" (effects (font (size 1.27 1.27))))
          (number "33" (effects (font (size 1.27 1.27))))
        )
        (pin bidirectional line (at 15.24 -64.77 180) (length 2.54)
          (name "TMS" (effects (font (size 1.27 1.27))))
          (number "34" (effects (font (size 1.27 1.27))))
        )
        (pin bidirectional line (at -16.51 -36.83 0) (length 2.54)
          (name "RESET" (effects (font (size 1.27 1.27))))
          (number "35" (effects (font (size 1.27 1.27))))
        )
        (pin bidirectional line (at -16.51 -24.13 0) (length 2.54)
          (name "DIO18/RTS/SWO" (effects (font (size 1.27 1.27))))
          (number "36" (effects (font (size 1.27 1.27))))
        )
        (pin bidirectional line (at -16.51 -21.59 0) (length 2.54)
          (name "DIO19/CTS" (effects (font (size 1.27 1.27))))
          (number "37" (effects (font (size 1.27 1.27))))
        )
        (pin bidirectional line (at -16.51 -19.05 0) (length 2.54)
          (name "DIO20/FLASH_CS" (effects (font (size 1.27 1.27))))
          (number "38" (effects (font (size 1.27 1.27))))
        )
        (pin bidirectional line (at -16.51 -62.23 0) (length 2.54)
          (name "DIO6/LED_RED" (effects (font (size 1.27 1.27))))
          (number "39" (effects (font (size 1.27 1.27))))
        )
        (pin bidirectional line (at -16.51 -13.97 0) (length 2.54)
          (name "DIO3/TXD" (effects (font (size 1.27 1.27))))
          (number "4" (effects (font (size 1.27 1.27))))
        )
        (pin bidirectional line (at -16.51 -64.77 0) (length 2.54)
          (name "DIO7/LED_GRN" (effects (font (size 1.27 1.27))))
          (number "40" (effects (font (size 1.27 1.27))))
        )
        (pin bidirectional line (at -16.51 -57.15 0) (length 2.54)
          (name "DIO22" (effects (font (size 1.27 1.27))))
          (number "5" (effects (font (size 1.27 1.27))))
        )
        (pin bidirectional line (at 15.24 -13.97 180) (length 2.54)
          (name "DIO24/A1" (effects (font (size 1.27 1.27))))
          (number "6" (effects (font (size 1.27 1.27))))
        )
        (pin bidirectional line (at 15.24 -44.45 180) (length 2.54)
          (name "DIO10/SPI_CLK" (effects (font (size 1.27 1.27))))
          (number "7" (effects (font (size 1.27 1.27))))
        )
        (pin bidirectional line (at -16.51 -54.61 0) (length 2.54)
          (name "DIO21" (effects (font (size 1.27 1.27))))
          (number "8" (effects (font (size 1.27 1.27))))
        )
        (pin bidirectional line (at 15.24 -46.99 180) (length 2.54)
          (name "DIO4/I2C_SCL" (effects (font (size 1.27 1.27))))
          (number "9" (effects (font (size 1.27 1.27))))
        )
      )
    )
    (symbol "power:+3.3V" (power) (pin_names (offset 0)) (in_bom yes) (on_board yes)
      (property "Reference" "#PWR" (at 0 -3.81 0)
        (effects (font (size 1.27 1.27)) hide)
      )
      (property "Value" "+3.3V" (at 0 3.556 0)
        (effects (font (size 1.27 1.27)))
      )
      (property "Footprint" "" (at 0 0 0)
        (effects (font (size 1.27 1.27)) hide)
      )
      (property "Datasheet" "" (at 0 0 0)
        (effects (font (size 1.27 1.27)) hide)
      )
      (property "ki_keywords" "power-flag" (at 0 0 0)
        (effects (font (size 1.27 1.27)) hide)
      )
      (property "ki_description" "Power symbol creates a global label with name \"+3.3V\"" (at 0 0 0)
        (effects (font (size 1.27 1.27)) hide)
      )
      (symbol "+3.3V_0_1"
        (polyline
          (pts
            (xy -0.762 1.27)
            (xy 0 2.54)
          )
          (stroke (width 0) (type default))
          (fill (type none))
        )
        (polyline
          (pts
            (xy 0 0)
            (xy 0 2.54)
          )
          (stroke (width 0) (type default))
          (fill (type none))
        )
        (polyline
          (pts
            (xy 0 2.54)
            (xy 0.762 1.27)
          )
          (stroke (width 0) (type default))
          (fill (type none))
        )
      )
      (symbol "+3.3V_1_1"
        (pin power_in line (at 0 0 90) (length 0) hide
          (name "+3V3" (effects (font (size 1.27 1.27))))
          (number "1" (effects (font (size 1.27 1.27))))
        )
      )
    )
    (symbol "power:+5V" (power) (pin_names (offset 0)) (in_bom yes) (on_board yes)
      (property "Reference" "#PWR" (at 0 -3.81 0)
        (effects (font (size 1.27 1.27)) hide)
      )
      (property "Value" "+5V" (at 0 3.556 0)
        (effects (font (size 1.27 1.27)))
      )
      (property "Footprint" "" (at 0 0 0)
        (effects (font (size 1.27 1.27)) hide)
      )
      (property "Datasheet" "" (at 0 0 0)
        (effects (font (size 1.27 1.27)) hide)
      )
      (property "ki_keywords" "power-flag" (at 0 0 0)
        (effects (font (size 1.27 1.27)) hide)
      )
      (property "ki_description" "Power symbol creates a global label with name \"+5V\"" (at 0 0 0)
        (effects (font (size 1.27 1.27)) hide)
      )
      (symbol "+5V_0_1"
        (polyline
          (pts
            (xy -0.762 1.27)
            (xy 0 2.54)
          )
          (stroke (width 0) (type default))
          (fill (type none))
        )
        (polyline
          (pts
            (xy 0 0)
            (xy 0 2.54)
          )
          (stroke (width 0) (type default))
          (fill (type none))
        )
        (polyline
          (pts
            (xy 0 2.54)
            (xy 0.762 1.27)
          )
          (stroke (width 0) (type default))
          (fill (type none))
        )
      )
      (symbol "+5V_1_1"
        (pin power_in line (at 0 0 90) (length 0) hide
          (name "+5V" (effects (font (size 1.27 1.27))))
          (number "1" (effects (font (size 1.27 1.27))))
        )
      )
    )
    (symbol "power:GND" (power) (pin_names (offset 0)) (in_bom yes) (on_board yes)
      (property "Reference" "#PWR" (at 0 -6.35 0)
        (effects (font (size 1.27 1.27)) hide)
      )
      (property "Value" "GND" (at 0 -3.81 0)
        (effects (font (size 1.27 1.27)))
      )
      (property "Footprint" "" (at 0 0 0)
        (effects (font (size 1.27 1.27)) hide)
      )
      (property "Datasheet" "" (at 0 0 0)
        (effects (font (size 1.27 1.27)) hide)
      )
      (property "ki_keywords" "power-flag" (at 0 0 0)
        (effects (font (size 1.27 1.27)) hide)
      )
      (property "ki_description" "Power symbol creates a global label with name \"GND\" , ground" (at 0 0 0)
        (effects (font (size 1.27 1.27)) hide)
      )
      (symbol "GND_0_1"
        (polyline
          (pts
            (xy 0 0)
            (xy 0 -1.27)
            (xy 1.27 -1.27)
            (xy 0 -2.54)
            (xy -1.27 -1.27)
            (xy 0 -1.27)
          )
          (stroke (width 0) (type default))
          (fill (type none))
        )
      )
      (symbol "GND_1_1"
        (pin power_in line (at 0 0 270) (length 0) hide
          (name "GND" (effects (font (size 1.27 1.27))))
          (number "1" (effects (font (size 1.27 1.27))))
        )
      )
    )
  )

  (junction (at 214.63 128.905) (diameter 0) (color 0 0 0 0)
    (uuid fbb9901f-4b39-4ffd-958d-fcfeef3d754e)
  )

  (no_connect (at 48.26 142.875) (uuid 240ce5c2-8c4f-42b2-b710-891fb65c7b19))
  (no_connect (at 96.52 80.645) (uuid 3dd2b157-ca0c-4f64-9cea-c2a483e7e370))
  (no_connect (at 63.5 142.875) (uuid 4dd5b135-8830-4480-ba32-c50cc150817d))
  (no_connect (at 55.88 142.875) (uuid b3653fa9-9ed3-43c8-b25c-108208859dbd))

  (polyline (pts (xy 41.275 27.94) (xy 41.275 102.235))
    (stroke (width 0) (type default))
    (uuid 017f2564-2eba-4bc3-9b3b-0f253d555a5c)
  )

  (wire (pts (xy 53.34 85.725) (xy 62.23 85.725))
    (stroke (width 0) (type default))
    (uuid 01c157f2-0633-4c67-b313-1c160bd379e2)
  )
  (wire (pts (xy 227.33 95.885) (xy 234.95 95.885))
    (stroke (width 0) (type default))
    (uuid 059ea0bf-751e-4f3a-bc25-22ea3144149b)
  )
  (wire (pts (xy 96.52 45.085) (xy 87.63 45.085))
    (stroke (width 0) (type default))
    (uuid 0636cef5-2fb7-4994-9efe-167d5ff96e48)
  )
  (wire (pts (xy 87.63 60.325) (xy 96.52 60.325))
    (stroke (width 0) (type default))
    (uuid 09bd8b12-f469-4983-89f3-4d06696db6d1)
  )
  (wire (pts (xy 189.23 65.405) (xy 195.58 65.405))
    (stroke (width 0) (type default))
    (uuid 0b20dbb4-6215-4da5-b268-826bd107ccc1)
  )
  (polyline (pts (xy 118.745 102.235) (xy 41.275 102.235))
    (stroke (width 0) (type default))
    (uuid 0b6c5ce4-0055-4207-9e56-efe39e1da1ea)
  )

  (wire (pts (xy 87.63 90.805) (xy 96.52 90.805))
    (stroke (width 0) (type default))
    (uuid 0e173958-247d-4ad1-a198-d5c4447e0640)
  )
  (wire (pts (xy 227.33 70.485) (xy 234.95 70.485))
    (stroke (width 0) (type default))
    (uuid 0fd08134-00aa-421f-8dbf-9dbe5c32f018)
  )
  (polyline (pts (xy 70.485 116.84) (xy 70.485 158.115))
    (stroke (width 0) (type default))
    (uuid 10dbebfe-f444-4665-b552-edee05945b6d)
  )
  (polyline (pts (xy 70.485 158.115) (xy 41.275 158.115))
    (stroke (width 0) (type default))
    (uuid 12706b8a-5e21-49e4-9533-0c7ba4a4c707)
  )

  (wire (pts (xy 53.34 52.705) (xy 62.23 52.705))
    (stroke (width 0) (type default))
    (uuid 13927670-c527-49ec-bad2-7e39ee9219b7)
  )
  (wire (pts (xy 227.33 90.805) (xy 234.95 90.805))
    (stroke (width 0) (type default))
    (uuid 18c041c2-b099-489d-847b-3cf0b4bac313)
  )
  (wire (pts (xy 189.23 116.205) (xy 195.58 116.205))
    (stroke (width 0) (type default))
    (uuid 1a6b1f0a-eb01-4aef-9c60-d6eb0dbe4077)
  )
  (wire (pts (xy 189.23 95.885) (xy 195.58 95.885))
    (stroke (width 0) (type default))
    (uuid 1a6b9d8f-040a-40a2-ac8d-c3b894652c15)
  )
  (wire (pts (xy 214.63 123.825) (xy 214.63 128.905))
    (stroke (width 0) (type default))
    (uuid 1afdbf56-dc92-4419-b304-8096eeec5c73)
  )
  (wire (pts (xy 87.63 95.885) (xy 96.52 95.885))
    (stroke (width 0) (type default))
    (uuid 268444ee-220d-49b1-ac04-cac580c8fafc)
  )
  (wire (pts (xy 53.34 80.645) (xy 62.23 80.645))
    (stroke (width 0) (type default))
    (uuid 2900e674-26f8-4bc3-9015-4da4282337cd)
  )
  (wire (pts (xy 227.33 111.125) (xy 234.95 111.125))
    (stroke (width 0) (type default))
    (uuid 29ab5fbe-9b9f-4f05-8971-2923dd5a69f5)
  )
  (wire (pts (xy 227.33 83.185) (xy 234.95 83.185))
    (stroke (width 0) (type default))
    (uuid 2ea9c4ed-197a-4d8a-a07e-f9d5236434c5)
  )
  (wire (pts (xy 218.44 123.825) (xy 218.44 128.905))
    (stroke (width 0) (type default))
    (uuid 317cd533-cf7a-4771-a935-3c20d59eb1cb)
  )
  (wire (pts (xy 227.33 67.945) (xy 234.95 67.945))
    (stroke (width 0) (type default))
    (uuid 31833ad2-3daf-4877-8410-b80fb3702dea)
  )
  (wire (pts (xy 53.34 75.565) (xy 62.23 75.565))
    (stroke (width 0) (type default))
    (uuid 3ca5d627-a684-408a-8593-018910f84ee0)
  )
  (wire (pts (xy 96.52 40.005) (xy 80.01 40.005))
    (stroke (width 0) (type default))
    (uuid 41fe254e-fba3-45bb-aec6-ee91f36bd6c4)
  )
  (wire (pts (xy 189.23 103.505) (xy 195.58 103.505))
    (stroke (width 0) (type default))
    (uuid 44056df1-9fc3-4b45-9073-763dbd56a4cb)
  )
  (wire (pts (xy 50.8 132.715) (xy 50.8 142.875))
    (stroke (width 0) (type default))
    (uuid 4b30d36c-5264-45f5-92d2-9b1f1640ef73)
  )
  (wire (pts (xy 87.63 75.565) (xy 96.52 75.565))
    (stroke (width 0) (type default))
    (uuid 4e5f4599-7776-4340-89b1-274629d346be)
  )
  (wire (pts (xy 189.23 73.025) (xy 195.58 73.025))
    (stroke (width 0) (type default))
    (uuid 4ef6e37c-110f-4b75-846a-1f0da7f99081)
  )
  (wire (pts (xy 53.34 57.785) (xy 62.23 57.785))
    (stroke (width 0) (type default))
    (uuid 50bc96e5-a1ab-49d7-a118-7ef3aca5b9fd)
  )
  (wire (pts (xy 53.34 132.715) (xy 53.34 142.875))
    (stroke (width 0) (type default))
    (uuid 53e38dfe-9346-4737-aba2-ba30b9e42d44)
  )
  (wire (pts (xy 189.23 111.125) (xy 195.58 111.125))
    (stroke (width 0) (type default))
    (uuid 5465642f-4a92-478a-8718-16ee8ca13a3f)
  )
  (wire (pts (xy 96.52 42.545) (xy 87.63 42.545))
    (stroke (width 0) (type default))
    (uuid 54c49a4f-2d77-4d55-b55b-2be259333b80)
  )
  (wire (pts (xy 227.33 80.645) (xy 234.95 80.645))
    (stroke (width 0) (type default))
    (uuid 579fc86c-aa23-48d0-8a15-f555f4dd434c)
  )
  (wire (pts (xy 53.34 88.265) (xy 62.23 88.265))
    (stroke (width 0) (type default))
    (uuid 589f2199-a28a-4a91-834a-a603098baca5)
  )
  (wire (pts (xy 189.23 75.565) (xy 195.58 75.565))
    (stroke (width 0) (type default))
    (uuid 5b622501-dba2-4e55-a83b-ffdc0ed11cda)
  )
  (wire (pts (xy 189.23 108.585) (xy 195.58 108.585))
    (stroke (width 0) (type default))
    (uuid 5d876780-07d0-4334-baf2-aebe64afac04)
  )
  (wire (pts (xy 53.34 40.005) (xy 62.23 40.005))
    (stroke (width 0) (type default))
    (uuid 613e49c2-fb22-4693-8a27-9d5699dbb980)
  )
  (wire (pts (xy 53.34 93.345) (xy 62.23 93.345))
    (stroke (width 0) (type default))
    (uuid 61ec57f6-c4c4-4255-8914-57c8ab574270)
  )
  (wire (pts (xy 53.34 60.325) (xy 62.23 60.325))
    (stroke (width 0) (type default))
    (uuid 627f83b5-9ee0-44ab-8ca9-d887c617c813)
  )
  (wire (pts (xy 87.63 50.165) (xy 96.52 50.165))
    (stroke (width 0) (type default))
    (uuid 640a7c9d-269a-4981-921c-c55a1647be6c)
  )
  (wire (pts (xy 53.34 83.185) (xy 62.23 83.185))
    (stroke (width 0) (type default))
    (uuid 65b25a9f-4f29-4a0e-a014-15983e307c31)
  )
  (wire (pts (xy 53.34 90.805) (xy 62.23 90.805))
    (stroke (width 0) (type default))
    (uuid 65ba08a5-29bb-4307-9f12-c2f296e1211a)
  )
  (wire (pts (xy 227.33 65.405) (xy 234.95 65.405))
    (stroke (width 0) (type default))
    (uuid 6e4d5018-b005-467b-a0af-14e8113b270b)
  )
  (wire (pts (xy 213.36 45.085) (xy 213.36 60.325))
    (stroke (width 0) (type default))
    (uuid 6eb5de1c-4d0b-4fc6-bc30-4a709bef8591)
  )
  (wire (pts (xy 210.82 43.815) (xy 210.82 60.325))
    (stroke (width 0) (type default))
    (uuid 702d3c75-dbc9-40f8-947d-42dfccb4068e)
  )
  (wire (pts (xy 189.23 83.185) (xy 195.58 83.185))
    (stroke (width 0) (type default))
    (uuid 70fe2826-56ef-4159-bac5-51a16b4a5f06)
  )
  (wire (pts (xy 53.34 42.545) (xy 62.23 42.545))
    (stroke (width 0) (type default))
    (uuid 725aa646-07f4-41a4-87d7-9ecbdefef9f2)
  )
  (wire (pts (xy 53.34 50.165) (xy 62.23 50.165))
    (stroke (width 0) (type default))
    (uuid 78ad864b-01ac-4240-9603-b318f465d332)
  )
  (wire (pts (xy 227.33 103.505) (xy 234.95 103.505))
    (stroke (width 0) (type default))
    (uuid 7c34969f-5b32-479a-8056-3f4fe5d7c10a)
  )
  (wire (pts (xy 189.23 88.265) (xy 195.58 88.265))
    (stroke (width 0) (type default))
    (uuid 7d9fa808-f6da-444c-a4fc-59ac2bbb3df8)
  )
  (wire (pts (xy 227.33 98.425) (xy 234.95 98.425))
    (stroke (width 0) (type default))
    (uuid 81732603-b1ba-4e1d-9620-deb43eddc356)
  )
  (wire (pts (xy 53.34 73.025) (xy 62.23 73.025))
    (stroke (width 0) (type default))
    (uuid 82bec4bd-aabd-4545-8e86-9821edd05e02)
  )
  (wire (pts (xy 189.23 78.105) (xy 195.58 78.105))
    (stroke (width 0) (type default))
    (uuid 87d19926-fddc-44cc-8f1c-eabeb5918bbf)
  )
  (wire (pts (xy 87.63 85.725) (xy 96.52 85.725))
    (stroke (width 0) (type default))
    (uuid 8c2d9964-abc6-40a3-a1af-74d5c2c3ea3d)
  )
  (wire (pts (xy 214.63 128.905) (xy 214.63 131.445))
    (stroke (width 0) (type default))
    (uuid 8e3359cf-0953-4622-9b84-c6b6a9a98dbd)
  )
  (wire (pts (xy 53.34 55.245) (xy 62.23 55.245))
    (stroke (width 0) (type default))
    (uuid 8ed2b642-4f62-40d4-a17b-6c20928c88d5)
  )
  (wire (pts (xy 60.96 133.985) (xy 60.96 142.875))
    (stroke (width 0) (type default))
    (uuid 938de4b9-9faf-4108-9bb1-4fab07431d9e)
  )
  (wire (pts (xy 80.01 73.025) (xy 96.52 73.025))
    (stroke (width 0) (type default))
    (uuid 95f256e4-ff93-4309-86e3-61d0840e63f2)
  )
  (wire (pts (xy 189.23 67.945) (xy 195.58 67.945))
    (stroke (width 0) (type default))
    (uuid 983a0824-6363-4feb-acd9-91cf00ab1a03)
  )
  (wire (pts (xy 53.34 47.625) (xy 62.23 47.625))
    (stroke (width 0) (type default))
    (uuid 9b4af129-fd9a-412c-bd56-3dabdf3cedb6)
  )
  (wire (pts (xy 87.63 57.785) (xy 96.52 57.785))
    (stroke (width 0) (type default))
    (uuid 9c3fd8ec-3b70-4a6e-8967-4ab8dbc0be98)
  )
  (polyline (pts (xy 118.745 27.94) (xy 118.745 102.235))
    (stroke (width 0) (type default))
    (uuid a20d0f97-9b35-43c0-a4f6-e7173a348697)
  )

  (wire (pts (xy 189.23 90.805) (xy 195.58 90.805))
    (stroke (width 0) (type default))
    (uuid a40a2630-55f5-4e77-b83f-91abd1dbb41a)
  )
  (wire (pts (xy 87.63 83.185) (xy 96.52 83.185))
    (stroke (width 0) (type default))
    (uuid a49100dd-1dff-484d-8d26-f74d03e3f721)
  )
  (wire (pts (xy 53.34 37.465) (xy 62.23 37.465))
    (stroke (width 0) (type default))
    (uuid a96132de-87e2-4e68-b3ed-90507a4ed33b)
  )
  (polyline (pts (xy 41.275 116.84) (xy 70.485 116.84))
    (stroke (width 0) (type default))
    (uuid b4234322-9f78-4906-b6d7-8fbe45787617)
  )

  (wire (pts (xy 53.34 95.885) (xy 62.23 95.885))
    (stroke (width 0) (type default))
    (uuid b6091f9a-c615-46da-ac7d-73df26e566ab)
  )
  (polyline (pts (xy 41.275 27.94) (xy 118.745 27.94))
    (stroke (width 0) (type default))
    (uuid bc781ebb-d249-4663-a4a5-7f5099660797)
  )
  (polyline (pts (xy 41.275 116.84) (xy 41.275 158.115))
    (stroke (width 0) (type default))
    (uuid c002d2f8-f80e-44c0-a9df-4c47bce3744c)
  )

  (wire (pts (xy 227.33 73.025) (xy 234.95 73.025))
    (stroke (width 0) (type default))
    (uuid c1508b48-e19b-4bfe-ab03-d5a8828d3d68)
  )
  (wire (pts (xy 58.42 126.365) (xy 58.42 142.875))
    (stroke (width 0) (type default))
    (uuid c217a129-1789-4c67-abd4-fafddaec13a4)
  )
  (wire (pts (xy 227.33 88.265) (xy 234.95 88.265))
    (stroke (width 0) (type default))
    (uuid c6ec6e75-f9dc-49df-a9ef-0c8db0bf8cf9)
  )
  (wire (pts (xy 227.33 78.105) (xy 234.95 78.105))
    (stroke (width 0) (type default))
    (uuid c82b42dd-2741-4593-80b3-679298a89eab)
  )
  (wire (pts (xy 227.33 100.965) (xy 234.95 100.965))
    (stroke (width 0) (type default))
    (uuid c9404fd3-91c4-402a-a234-b555fb8db65f)
  )
  (wire (pts (xy 53.34 45.085) (xy 62.23 45.085))
    (stroke (width 0) (type default))
    (uuid c9b45818-c7a1-4dbb-a227-11c900fec4dc)
  )
  (wire (pts (xy 227.33 108.585) (xy 234.95 108.585))
    (stroke (width 0) (type default))
    (uuid ce483293-969f-467d-9ea6-88a77a9b9fb0)
  )
  (wire (pts (xy 189.23 100.965) (xy 195.58 100.965))
    (stroke (width 0) (type default))
    (uuid d063d8e5-3700-4af4-9a59-6f43eaa1064c)
  )
  (wire (pts (xy 53.34 78.105) (xy 62.23 78.105))
    (stroke (width 0) (type default))
    (uuid d09690ca-a010-43b9-bf46-d60787a0fb28)
  )
  (wire (pts (xy 189.23 80.645) (xy 195.58 80.645))
    (stroke (width 0) (type default))
    (uuid d2cc7c2e-6881-4178-ace4-20612f38915e)
  )
  (wire (pts (xy 87.63 78.105) (xy 96.52 78.105))
    (stroke (width 0) (type default))
    (uuid d63a2a15-16fc-4f4d-a9c0-5452c478967a)
  )
  (wire (pts (xy 87.63 88.265) (xy 96.52 88.265))
    (stroke (width 0) (type default))
    (uuid dbca5b46-4f9c-497a-8a9d-41a8025c2ee8)
  )
  (wire (pts (xy 218.44 128.905) (xy 214.63 128.905))
    (stroke (width 0) (type default))
    (uuid dd22a230-3f61-43a7-851d-a45612c58066)
  )
  (wire (pts (xy 189.23 118.745) (xy 195.58 118.745))
    (stroke (width 0) (type default))
    (uuid dffca4a1-e32a-4234-96f8-f218f88e09f7)
  )
  (wire (pts (xy 87.63 93.345) (xy 96.52 93.345))
    (stroke (width 0) (type default))
    (uuid e1eeaa61-129d-4951-92f7-27c4b9713d33)
  )
  (wire (pts (xy 227.33 118.745) (xy 234.95 118.745))
    (stroke (width 0) (type default))
    (uuid e2c7e478-1069-4ce0-847e-8e57ba1e861c)
  )
  (wire (pts (xy 96.52 37.465) (xy 87.63 37.465))
    (stroke (width 0) (type default))
    (uuid e53ef2d8-3f42-47a8-b0ea-6fd90dad7681)
  )
  (wire (pts (xy 87.63 55.245) (xy 96.52 55.245))
    (stroke (width 0) (type default))
    (uuid eb9005fd-9f59-418e-86cb-7337cc5a08b0)
  )
  (wire (pts (xy 189.23 106.045) (xy 195.58 106.045))
    (stroke (width 0) (type default))
    (uuid ed0da8ae-b5b6-4e2f-a118-15608e2f1618)
  )
  (wire (pts (xy 87.63 52.705) (xy 96.52 52.705))
    (stroke (width 0) (type default))
    (uuid ed0fe6f2-920b-49f5-9c1a-b6af5595d81b)
  )
  (wire (pts (xy 227.33 116.205) (xy 234.95 116.205))
    (stroke (width 0) (type default))
    (uuid ee29c742-909c-4e95-a65e-f339e5ddab95)
  )
  (wire (pts (xy 87.63 47.625) (xy 96.52 47.625))
    (stroke (width 0) (type default))
    (uuid ffa8f8e2-bf2d-4c60-b823-512ab8ac2e3b)
  )
  (wire (pts (xy 227.33 75.565) (xy 234.95 75.565))
    (stroke (width 0) (type default))
    (uuid ffc71417-56fd-44b2-9644-36ec20d56e5a)
  )

  (text "DIO Outputs" (at 41.275 27.305 0)
    (effects (font (size 1.27 1.27)) (justify left bottom))
    (uuid 103ad33c-6fca-4343-8ff6-59b41ad3989f)
  )
  (text "USR-TCP232-T2 connection" (at 41.275 116.205 0)
    (effects (font (size 1.27 1.27)) (justify left bottom))
    (uuid dffded37-871f-4ced-be6b-cdd4117a1ff3)
  )

  (global_label "DIO19" (shape input) (at 189.23 75.565 180) (fields_autoplaced)
    (effects (font (size 1.27 1.27)) (justify right))
    (uuid 029f027b-7cf8-4465-a4b3-bee8ebc4d4c4)
    (property "Intersheetrefs" "${INTERSHEET_REFS}" (at 181.1926 75.4856 0)
      (effects (font (size 1.27 1.27)) (justify right) hide)
    )
  )
  (global_label "DIO17" (shape input) (at 189.23 80.645 180) (fields_autoplaced)
    (effects (font (size 1.27 1.27)) (justify right))
    (uuid 02e1ed48-021d-4b64-b25c-45d97a8e7e9c)
    (property "Intersheetrefs" "${INTERSHEET_REFS}" (at 181.1926 80.5656 0)
      (effects (font (size 1.27 1.27)) (justify right) hide)
    )
  )
  (global_label "DIO30" (shape input) (at 234.95 83.185 0) (fields_autoplaced)
    (effects (font (size 1.27 1.27)) (justify left))
    (uuid 11d7a034-bfaa-46e8-a526-6e76eca8c340)
    (property "Intersheetrefs" "${INTERSHEET_REFS}" (at 242.9874 83.1056 0)
      (effects (font (size 1.27 1.27)) (justify left) hide)
    )
  )
  (global_label "DIO19" (shape output) (at 53.34 80.645 180) (fields_autoplaced)
    (effects (font (size 1.27 1.27)) (justify right))
    (uuid 12b24232-0dd1-4a29-a740-12cd5b655173)
    (property "Intersheetrefs" "${INTERSHEET_REFS}" (at 45.3026 80.5656 0)
      (effects (font (size 1.27 1.27)) (justify right) hide)
    )
  )
  (global_label "DIO5" (shape output) (at 53.34 60.325 180) (fields_autoplaced)
    (effects (font (size 1.27 1.27)) (justify right))
    (uuid 12c3d61f-7abc-4387-b78c-4e9950c70d59)
    (property "Intersheetrefs" "${INTERSHEET_REFS}" (at 46.5121 60.2456 0)
      (effects (font (size 1.27 1.27)) (justify right) hide)
    )
  )
  (global_label "DIO17" (shape output) (at 53.34 95.885 180) (fields_autoplaced)
    (effects (font (size 1.27 1.27)) (justify right))
    (uuid 12eedbf6-1c8b-401b-94ca-8ad33a7286b5)
    (property "Intersheetrefs" "${INTERSHEET_REFS}" (at 45.3026 95.8056 0)
      (effects (font (size 1.27 1.27)) (justify right) hide)
    )
  )
  (global_label "DIO14" (shape input) (at 234.95 90.805 0) (fields_autoplaced)
    (effects (font (size 1.27 1.27)) (justify left))
    (uuid 18fcdf46-f7ee-44f7-ad4c-ab901691f91f)
    (property "Intersheetrefs" "${INTERSHEET_REFS}" (at 242.9874 90.7256 0)
      (effects (font (size 1.27 1.27)) (justify left) hide)
    )
  )
  (global_label "DIO18" (shape input) (at 189.23 78.105 180) (fields_autoplaced)
    (effects (font (size 1.27 1.27)) (justify right))
    (uuid 1a0ee80b-8a95-4e56-b281-9eba85c37c5b)
    (property "Intersheetrefs" "${INTERSHEET_REFS}" (at 181.1926 78.0256 0)
      (effects (font (size 1.27 1.27)) (justify right) hide)
    )
  )
  (global_label "DIO0" (shape input) (at 189.23 100.965 180) (fields_autoplaced)
    (effects (font (size 1.27 1.27)) (justify right))
    (uuid 1f16a60e-ed07-429c-b5c6-15bd4de2a9f0)
    (property "Intersheetrefs" "${INTERSHEET_REFS}" (at 182.4021 100.8856 0)
      (effects (font (size 1.27 1.27)) (justify right) hide)
    )
  )
  (global_label "DIO1" (shape input) (at 189.23 103.505 180) (fields_autoplaced)
    (effects (font (size 1.27 1.27)) (justify right))
    (uuid 2f3ad676-dbb5-44e7-a763-c7b3b514f4a2)
    (property "Intersheetrefs" "${INTERSHEET_REFS}" (at 182.4021 103.4256 0)
      (effects (font (size 1.27 1.27)) (justify right) hide)
    )
  )
  (global_label "DIO27" (shape input) (at 234.95 75.565 0) (fields_autoplaced)
    (effects (font (size 1.27 1.27)) (justify left))
    (uuid 2fbd21a5-2410-4820-b893-b9402197c32b)
    (property "Intersheetrefs" "${INTERSHEET_REFS}" (at 242.9874 75.4856 0)
      (effects (font (size 1.27 1.27)) (justify left) hide)
    )
  )
  (global_label "DIO21" (shape input) (at 189.23 108.585 180) (fields_autoplaced)
    (effects (font (size 1.27 1.27)) (justify right))
    (uuid 3018567d-4753-4b2f-9f86-8cdd84859300)
    (property "Intersheetrefs" "${INTERSHEET_REFS}" (at 181.1926 108.5056 0)
      (effects (font (size 1.27 1.27)) (justify right) hide)
    )
  )
  (global_label "DIO7" (shape input) (at 189.23 118.745 180) (fields_autoplaced)
    (effects (font (size 1.27 1.27)) (justify right))
    (uuid 30733550-1c96-46d6-a05c-5ee304cb9972)
    (property "Intersheetrefs" "${INTERSHEET_REFS}" (at 182.4021 118.6656 0)
      (effects (font (size 1.27 1.27)) (justify right) hide)
    )
  )
  (global_label "TXD" (shape output) (at 53.34 42.545 180) (fields_autoplaced)
    (effects (font (size 1.27 1.27)) (justify right))
    (uuid 3cb0e897-4a64-4e2c-8e1c-8128200cddbe)
    (property "Intersheetrefs" "${INTERSHEET_REFS}" (at 47.4798 42.4656 0)
      (effects (font (size 1.27 1.27)) (justify right) hide)
    )
  )
  (global_label "DIO15" (shape output) (at 87.63 95.885 180) (fields_autoplaced)
    (effects (font (size 1.27 1.27)) (justify right))
    (uuid 45361cfd-801d-4985-9479-24d76503da81)
    (property "Intersheetrefs" "${INTERSHEET_REFS}" (at 79.5926 95.8056 0)
      (effects (font (size 1.27 1.27)) (justify right) hide)
    )
  )
  (global_label "DIO26" (shape input) (at 234.95 73.025 0) (fields_autoplaced)
    (effects (font (size 1.27 1.27)) (justify left))
    (uuid 49408a4f-a0f1-4f12-a77e-3d6e3b89091c)
    (property "Intersheetrefs" "${INTERSHEET_REFS}" (at 242.9874 72.9456 0)
      (effects (font (size 1.27 1.27)) (justify left) hide)
    )
  )
  (global_label "DIO24" (shape input) (at 234.95 67.945 0) (fields_autoplaced)
    (effects (font (size 1.27 1.27)) (justify left))
    (uuid 4b4f15a5-37d8-4818-acc2-5b70b5ec5b60)
    (property "Intersheetrefs" "${INTERSHEET_REFS}" (at 242.9874 67.8656 0)
      (effects (font (size 1.27 1.27)) (justify left) hide)
    )
  )
  (global_label "DIO29" (shape input) (at 234.95 80.645 0) (fields_autoplaced)
    (effects (font (size 1.27 1.27)) (justify left))
    (uuid 50ad98a8-010b-49e4-8a38-d03251d75ce5)
    (property "Intersheetrefs" "${INTERSHEET_REFS}" (at 242.9874 80.5656 0)
      (effects (font (size 1.27 1.27)) (justify left) hide)
    )
  )
  (global_label "DIO30" (shape output) (at 87.63 55.245 180) (fields_autoplaced)
    (effects (font (size 1.27 1.27)) (justify right))
    (uuid 589c6547-8a4a-48e7-b3f5-dc9405bf9c32)
    (property "Intersheetrefs" "${INTERSHEET_REFS}" (at 79.5926 55.1656 0)
      (effects (font (size 1.27 1.27)) (justify right) hide)
    )
  )
  (global_label "DIO13" (shape output) (at 87.63 90.805 180) (fields_autoplaced)
    (effects (font (size 1.27 1.27)) (justify right))
    (uuid 59112205-fe6e-4b2a-aeb3-3139de1f7130)
    (property "Intersheetrefs" "${INTERSHEET_REFS}" (at 79.5926 90.7256 0)
      (effects (font (size 1.27 1.27)) (justify right) hide)
    )
  )
  (global_label "DIO27" (shape output) (at 87.63 47.625 180) (fields_autoplaced)
    (effects (font (size 1.27 1.27)) (justify right))
    (uuid 595b1eec-cb65-4b71-8396-c0dd7e172344)
    (property "Intersheetrefs" "${INTERSHEET_REFS}" (at 79.5926 47.5456 0)
      (effects (font (size 1.27 1.27)) (justify right) hide)
    )
  )
  (global_label "RXD" (shape input) (at 189.23 67.945 180) (fields_autoplaced)
    (effects (font (size 1.27 1.27)) (justify right))
    (uuid 5ade848b-31c3-42a0-be84-06be719dfe2b)
    (property "Intersheetrefs" "${INTERSHEET_REFS}" (at 183.0674 67.8656 0)
      (effects (font (size 1.27 1.27)) (justify right) hide)
    )
  )
  (global_label "DIO0" (shape output) (at 87.63 57.785 180) (fields_autoplaced)
    (effects (font (size 1.27 1.27)) (justify right))
    (uuid 5b3a9955-becb-4ca0-a495-bfcb26bddfef)
    (property "Intersheetrefs" "${INTERSHEET_REFS}" (at 80.8021 57.7056 0)
      (effects (font (size 1.27 1.27)) (justify right) hide)
    )
  )
  (global_label "DIO4" (shape output) (at 53.34 57.785 180) (fields_autoplaced)
    (effects (font (size 1.27 1.27)) (justify right))
    (uuid 6087062f-bc53-4f9e-9063-319ca7ac5e25)
    (property "Intersheetrefs" "${INTERSHEET_REFS}" (at 46.5121 57.7056 0)
      (effects (font (size 1.27 1.27)) (justify right) hide)
    )
  )
  (global_label "TXD" (shape input) (at 189.23 65.405 180) (fields_autoplaced)
    (effects (font (size 1.27 1.27)) (justify right))
    (uuid 60cd50e9-b933-4981-a92a-7ac1a648f2fd)
    (property "Intersheetrefs" "${INTERSHEET_REFS}" (at 183.3698 65.3256 0)
      (effects (font (size 1.27 1.27)) (justify right) hide)
    )
  )
  (global_label "DIO6" (shape output) (at 53.34 75.565 180) (fields_autoplaced)
    (effects (font (size 1.27 1.27)) (justify right))
    (uuid 6342bfb9-7ba6-4319-84ed-92b4c35314f2)
    (property "Intersheetrefs" "${INTERSHEET_REFS}" (at 46.5121 75.4856 0)
      (effects (font (size 1.27 1.27)) (justify right) hide)
    )
  )
  (global_label "DIO12" (shape input) (at 189.23 95.885 180) (fields_autoplaced)
    (effects (font (size 1.27 1.27)) (justify right))
    (uuid 6436ad05-8ecc-4e36-b75e-677fd45f0748)
    (property "Intersheetrefs" "${INTERSHEET_REFS}" (at 181.1926 95.8056 0)
      (effects (font (size 1.27 1.27)) (justify right) hide)
    )
  )
  (global_label "DIO8" (shape input) (at 234.95 108.585 0) (fields_autoplaced)
    (effects (font (size 1.27 1.27)) (justify left))
    (uuid 69b6f69b-8358-4e9c-bf27-044c6489631f)
    (property "Intersheetrefs" "${INTERSHEET_REFS}" (at 241.7779 108.5056 0)
      (effects (font (size 1.27 1.27)) (justify left) hide)
    )
  )
  (global_label "DIO11" (shape output) (at 87.63 78.105 180) (fields_autoplaced)
    (effects (font (size 1.27 1.27)) (justify right))
    (uuid 6a827db1-48c9-4c3c-b6e7-7def3a4fc7e0)
    (property "Intersheetrefs" "${INTERSHEET_REFS}" (at 79.5926 78.0256 0)
      (effects (font (size 1.27 1.27)) (justify right) hide)
    )
  )
  (global_label "DIO5" (shape input) (at 234.95 103.505 0) (fields_autoplaced)
    (effects (font (size 1.27 1.27)) (justify left))
    (uuid 6c8b8626-b2ce-40e2-b86a-495bc0fb83d4)
    (property "Intersheetrefs" "${INTERSHEET_REFS}" (at 241.7779 103.4256 0)
      (effects (font (size 1.27 1.27)) (justify left) hide)
    )
  )
  (global_label "LP_RST" (shape output) (at 87.63 83.185 180) (fields_autoplaced)
    (effects (font (size 1.27 1.27)) (justify right))
    (uuid 721f23ce-844a-43f6-9ff8-9b5749517dd1)
    (property "Intersheetrefs" "${INTERSHEET_REFS}" (at 78.504 83.1056 0)
      (effects (font (size 1.27 1.27)) (justify right) hide)
    )
  )
  (global_label "DIO25" (shape input) (at 234.95 70.485 0) (fields_autoplaced)
    (effects (font (size 1.27 1.27)) (justify left))
    (uuid 75018ce7-5485-41e7-946c-164e225cf30a)
    (property "Intersheetrefs" "${INTERSHEET_REFS}" (at 242.9874 70.4056 0)
      (effects (font (size 1.27 1.27)) (justify left) hide)
    )
  )
  (global_label "DIO21" (shape output) (at 53.34 55.245 180) (fields_autoplaced)
    (effects (font (size 1.27 1.27)) (justify right))
    (uuid 750c958a-3eda-4da9-8392-269448fac84a)
    (property "Intersheetrefs" "${INTERSHEET_REFS}" (at 45.3026 55.1656 0)
      (effects (font (size 1.27 1.27)) (justify right) hide)
    )
  )
  (global_label "DIO26" (shape output) (at 87.63 45.085 180) (fields_autoplaced)
    (effects (font (size 1.27 1.27)) (justify right))
    (uuid 7b9825e3-3d1a-45bc-80c9-73210742ee08)
    (property "Intersheetrefs" "${INTERSHEET_REFS}" (at 79.5926 45.1644 0)
      (effects (font (size 1.27 1.27)) (justify right) hide)
    )
  )
  (global_label "DIO9" (shape output) (at 87.63 85.725 180) (fields_autoplaced)
    (effects (font (size 1.27 1.27)) (justify right))
    (uuid 81b9199d-c029-4354-98ff-24d71e48cbd7)
    (property "Intersheetrefs" "${INTERSHEET_REFS}" (at 80.8021 85.6456 0)
      (effects (font (size 1.27 1.27)) (justify right) hide)
    )
  )
  (global_label "DIO18" (shape output) (at 53.34 83.185 180) (fields_autoplaced)
    (effects (font (size 1.27 1.27)) (justify right))
    (uuid 850706b2-7013-4fb5-915f-f62da106cdad)
    (property "Intersheetrefs" "${INTERSHEET_REFS}" (at 45.3026 83.1056 0)
      (effects (font (size 1.27 1.27)) (justify right) hide)
    )
  )
  (global_label "DIO25" (shape output) (at 87.63 42.545 180) (fields_autoplaced)
    (effects (font (size 1.27 1.27)) (justify right))
    (uuid 8730f4d8-3988-4462-a2c9-f03937063641)
    (property "Intersheetrefs" "${INTERSHEET_REFS}" (at 79.5926 42.6244 0)
      (effects (font (size 1.27 1.27)) (justify right) hide)
    )
  )
  (global_label "DIO13" (shape input) (at 234.95 88.265 0) (fields_autoplaced)
    (effects (font (size 1.27 1.27)) (justify left))
    (uuid 8917fbe9-e42a-4d58-b790-b28fe7fdb97e)
    (property "Intersheetrefs" "${INTERSHEET_REFS}" (at 242.9874 88.1856 0)
      (effects (font (size 1.27 1.27)) (justify left) hide)
    )
  )
  (global_label "DIO23" (shape input) (at 234.95 65.405 0) (fields_autoplaced)
    (effects (font (size 1.27 1.27)) (justify left))
    (uuid 924d84e8-eab5-43b2-baf2-782a0eabea94)
    (property "Intersheetrefs" "${INTERSHEET_REFS}" (at 242.9874 65.3256 0)
      (effects (font (size 1.27 1.27)) (justify left) hide)
    )
  )
  (global_label "RXD" (shape output) (at 50.8 132.715 90) (fields_autoplaced)
    (effects (font (size 1.27 1.27)) (justify left))
    (uuid 9a45eb7b-9c50-447e-af7c-b3b4e33d45b6)
    (property "Intersheetrefs" "${INTERSHEET_REFS}" (at 50.7206 126.5524 90)
      (effects (font (size 1.27 1.27)) (justify left) hide)
    )
  )
  (global_label "DIO7" (shape output) (at 53.34 73.025 180) (fields_autoplaced)
    (effects (font (size 1.27 1.27)) (justify right))
    (uuid 9d78d0d9-1b3e-4b22-93c3-f97250baf6c2)
    (property "Intersheetrefs" "${INTERSHEET_REFS}" (at 46.5121 72.9456 0)
      (effects (font (size 1.27 1.27)) (justify right) hide)
    )
  )
  (global_label "DIO4" (shape input) (at 234.95 100.965 0) (fields_autoplaced)
    (effects (font (size 1.27 1.27)) (justify left))
    (uuid 9e59ec46-c799-41b7-8b90-d129ead8ef5a)
    (property "Intersheetrefs" "${INTERSHEET_REFS}" (at 241.7779 100.8856 0)
      (effects (font (size 1.27 1.27)) (justify left) hide)
    )
  )
  (global_label "DIO16" (shape input) (at 189.23 83.185 180) (fields_autoplaced)
    (effects (font (size 1.27 1.27)) (justify right))
    (uuid 9e79bc81-3220-4759-a6c6-b7507231655c)
    (property "Intersheetrefs" "${INTERSHEET_REFS}" (at 181.1926 83.1056 0)
      (effects (font (size 1.27 1.27)) (justify right) hide)
    )
  )
  (global_label "DIO8" (shape output) (at 87.63 88.265 180) (fields_autoplaced)
    (effects (font (size 1.27 1.27)) (justify right))
    (uuid a4f28c6c-e76f-47bc-9850-c144d2d46415)
    (property "Intersheetrefs" "${INTERSHEET_REFS}" (at 80.8021 88.1856 0)
      (effects (font (size 1.27 1.27)) (justify right) hide)
    )
  )
  (global_label "TMS" (shape output) (at 53.34 88.265 180) (fields_autoplaced)
    (effects (font (size 1.27 1.27)) (justify right))
    (uuid aa2eb8ef-22e0-4372-8176-7ab7e353a892)
    (property "Intersheetrefs" "${INTERSHEET_REFS}" (at 47.2983 88.1856 0)
      (effects (font (size 1.27 1.27)) (justify right) hide)
    )
  )
  (global_label "TMS" (shape input) (at 234.95 118.745 0) (fields_autoplaced)
    (effects (font (size 1.27 1.27)) (justify left))
    (uuid aa467926-d401-4eed-a2ee-6baa1babd409)
    (property "Intersheetrefs" "${INTERSHEET_REFS}" (at 240.9917 118.6656 0)
      (effects (font (size 1.27 1.27)) (justify left) hide)
    )
  )
  (global_label "DIO12" (shape output) (at 87.63 75.565 180) (fields_autoplaced)
    (effects (font (size 1.27 1.27)) (justify right))
    (uuid b156fda4-df30-4c2f-9f44-22861a17d151)
    (property "Intersheetrefs" "${INTERSHEET_REFS}" (at 79.5926 75.4856 0)
      (effects (font (size 1.27 1.27)) (justify right) hide)
    )
  )
  (global_label "DIO20" (shape input) (at 189.23 73.025 180) (fields_autoplaced)
    (effects (font (size 1.27 1.27)) (justify right))
    (uuid b55d87c2-33c2-42c8-b796-b8ab87fb6f13)
    (property "Intersheetrefs" "${INTERSHEET_REFS}" (at 181.1926 72.9456 0)
      (effects (font (size 1.27 1.27)) (justify right) hide)
    )
  )
  (global_label "LP_RST" (shape input) (at 189.23 88.265 180) (fields_autoplaced)
    (effects (font (size 1.27 1.27)) (justify right))
    (uuid c18488bf-6b17-4c93-a6f0-ca0525e26112)
    (property "Intersheetrefs" "${INTERSHEET_REFS}" (at 180.104 88.1856 0)
      (effects (font (size 1.27 1.27)) (justify right) hide)
    )
  )
  (global_label "DIO28" (shape input) (at 234.95 78.105 0) (fields_autoplaced)
    (effects (font (size 1.27 1.27)) (justify left))
    (uuid c1af144c-c3d0-41c3-9dc9-5eb5163bcf57)
    (property "Intersheetrefs" "${INTERSHEET_REFS}" (at 242.9874 78.0256 0)
      (effects (font (size 1.27 1.27)) (justify left) hide)
    )
  )
  (global_label "RESET" (shape output) (at 53.34 85.725 180) (fields_autoplaced)
    (effects (font (size 1.27 1.27)) (justify right))
    (uuid c3c6044a-12b2-409f-9f37-baeb0fa7f954)
    (property "Intersheetrefs" "${INTERSHEET_REFS}" (at 45.1817 85.6456 0)
      (effects (font (size 1.27 1.27)) (justify right) hide)
    )
  )
  (global_label "DIO24" (shape output) (at 53.34 50.165 180) (fields_autoplaced)
    (effects (font (size 1.27 1.27)) (justify right))
    (uuid c58adbcf-bf37-477f-8192-bbe9fde06386)
    (property "Intersheetrefs" "${INTERSHEET_REFS}" (at 45.3026 50.0856 0)
      (effects (font (size 1.27 1.27)) (justify right) hide)
    )
  )
  (global_label "DIO15" (shape input) (at 189.23 106.045 180) (fields_autoplaced)
    (effects (font (size 1.27 1.27)) (justify right))
    (uuid c5bc76b8-4af4-469b-9eff-0eb1d3895ea3)
    (property "Intersheetrefs" "${INTERSHEET_REFS}" (at 181.1926 105.9656 0)
      (effects (font (size 1.27 1.27)) (justify right) hide)
    )
  )
  (global_label "DIO6" (shape input) (at 189.23 116.205 180) (fields_autoplaced)
    (effects (font (size 1.27 1.27)) (justify right))
    (uuid ccd82578-889c-438b-b700-6b371d6aee35)
    (property "Intersheetrefs" "${INTERSHEET_REFS}" (at 182.4021 116.1256 0)
      (effects (font (size 1.27 1.27)) (justify right) hide)
    )
  )
  (global_label "DIO28" (shape output) (at 87.63 50.165 180) (fields_autoplaced)
    (effects (font (size 1.27 1.27)) (justify right))
    (uuid cef42851-81a2-4769-ac45-837849deab48)
    (property "Intersheetrefs" "${INTERSHEET_REFS}" (at 79.5926 50.0856 0)
      (effects (font (size 1.27 1.27)) (justify right) hide)
    )
  )
  (global_label "TXD" (shape output) (at 53.34 132.715 90) (fields_autoplaced)
    (effects (font (size 1.27 1.27)) (justify left))
    (uuid d03cda91-2b66-423e-be77-00c698c7f665)
    (property "Intersheetrefs" "${INTERSHEET_REFS}" (at 53.4194 126.8548 90)
      (effects (font (size 1.27 1.27)) (justify left) hide)
    )
  )
  (global_label "DIO14" (shape output) (at 87.63 93.345 180) (fields_autoplaced)
    (effects (font (size 1.27 1.27)) (justify right))
    (uuid d77fa444-a40d-4f14-9668-c382fa5bb0d0)
    (property "Intersheetrefs" "${INTERSHEET_REFS}" (at 79.5926 93.2656 0)
      (effects (font (size 1.27 1.27)) (justify right) hide)
    )
  )
  (global_label "DIO9" (shape input) (at 234.95 111.125 0) (fields_autoplaced)
    (effects (font (size 1.27 1.27)) (justify left))
    (uuid d8c9e157-c0f6-4df9-9ba5-0bb60d315c95)
    (property "Intersheetrefs" "${INTERSHEET_REFS}" (at 241.7779 111.0456 0)
      (effects (font (size 1.27 1.27)) (justify left) hide)
    )
  )
  (global_label "TCK" (shape output) (at 53.34 90.805 180) (fields_autoplaced)
    (effects (font (size 1.27 1.27)) (justify right))
    (uuid d8e5682c-aa49-4704-851a-aeb0ba172e94)
    (property "Intersheetrefs" "${INTERSHEET_REFS}" (at 47.4193 90.7256 0)
      (effects (font (size 1.27 1.27)) (justify right) hide)
    )
  )
  (global_label "RXD" (shape output) (at 53.34 45.085 180) (fields_autoplaced)
    (effects (font (size 1.27 1.27)) (justify right))
    (uuid d9305115-4ca4-4cc2-b32b-e9d390a5e94b)
    (property "Intersheetrefs" "${INTERSHEET_REFS}" (at 47.1774 45.0056 0)
      (effects (font (size 1.27 1.27)) (justify right) hide)
    )
  )
  (global_label "DIO11" (shape input) (at 234.95 95.885 0) (fields_autoplaced)
    (effects (font (size 1.27 1.27)) (justify left))
    (uuid dab656a7-e1e6-4796-bdbf-9646c7d99578)
    (property "Intersheetrefs" "${INTERSHEET_REFS}" (at 242.9874 95.8056 0)
      (effects (font (size 1.27 1.27)) (justify left) hide)
    )
  )
  (global_label "DIO1" (shape output) (at 87.63 60.325 180) (fields_autoplaced)
    (effects (font (size 1.27 1.27)) (justify right))
    (uuid dc40611a-d875-404a-9630-4363aa8d7905)
    (property "Intersheetrefs" "${INTERSHEET_REFS}" (at 80.8021 60.2456 0)
      (effects (font (size 1.27 1.27)) (justify right) hide)
    )
  )
  (global_label "DIO22" (shape input) (at 189.23 111.125 180) (fields_autoplaced)
    (effects (font (size 1.27 1.27)) (justify right))
    (uuid dd089991-be30-4a37-91c6-bd994a2efb3b)
    (property "Intersheetrefs" "${INTERSHEET_REFS}" (at 181.1926 111.0456 0)
      (effects (font (size 1.27 1.27)) (justify right) hide)
    )
  )
  (global_label "RESET" (shape input) (at 189.23 90.805 180) (fields_autoplaced)
    (effects (font (size 1.27 1.27)) (justify right))
    (uuid deb0ca72-4104-42c8-9728-0eeac2eaef68)
    (property "Intersheetrefs" "${INTERSHEET_REFS}" (at 181.0717 90.7256 0)
      (effects (font (size 1.27 1.27)) (justify right) hide)
    )
  )
  (global_label "DIO23" (shape output) (at 53.34 40.005 180) (fields_autoplaced)
    (effects (font (size 1.27 1.27)) (justify right))
    (uuid dfeea669-bb78-405b-b08f-57a8bc4ad7aa)
    (property "Intersheetrefs" "${INTERSHEET_REFS}" (at 45.3026 39.9256 0)
      (effects (font (size 1.27 1.27)) (justify right) hide)
    )
  )
  (global_label "DIO22" (shape output) (at 53.34 47.625 180) (fields_autoplaced)
    (effects (font (size 1.27 1.27)) (justify right))
    (uuid e02627f5-ed6d-494a-b48f-ceeb694d586f)
    (property "Intersheetrefs" "${INTERSHEET_REFS}" (at 45.3026 47.5456 0)
      (effects (font (size 1.27 1.27)) (justify right) hide)
    )
  )
  (global_label "DIO29" (shape output) (at 87.63 52.705 180) (fields_autoplaced)
    (effects (font (size 1.27 1.27)) (justify right))
    (uuid e1ad2e04-9034-4332-ad23-7a8fa7d79a01)
    (property "Intersheetrefs" "${INTERSHEET_REFS}" (at 79.5926 52.6256 0)
      (effects (font (size 1.27 1.27)) (justify right) hide)
    )
  )
  (global_label "DIO20" (shape output) (at 53.34 78.105 180) (fields_autoplaced)
    (effects (font (size 1.27 1.27)) (justify right))
    (uuid e8872505-0963-48c3-937d-2fab6317c608)
    (property "Intersheetrefs" "${INTERSHEET_REFS}" (at 45.3026 78.0256 0)
      (effects (font (size 1.27 1.27)) (justify right) hide)
    )
  )
  (global_label "DIO10" (shape input) (at 234.95 98.425 0) (fields_autoplaced)
    (effects (font (size 1.27 1.27)) (justify left))
    (uuid eb9f846b-0a3e-402d-baa9-773a90ace51c)
    (property "Intersheetrefs" "${INTERSHEET_REFS}" (at 242.9874 98.3456 0)
      (effects (font (size 1.27 1.27)) (justify left) hide)
    )
  )
  (global_label "DIO10" (shape output) (at 53.34 52.705 180) (fields_autoplaced)
    (effects (font (size 1.27 1.27)) (justify right))
    (uuid eff66e10-2b69-47e1-af36-6b562e42da95)
    (property "Intersheetrefs" "${INTERSHEET_REFS}" (at 45.3026 52.6256 0)
      (effects (font (size 1.27 1.27)) (justify right) hide)
    )
  )
  (global_label "TCK" (shape input) (at 234.95 116.205 0) (fields_autoplaced)
    (effects (font (size 1.27 1.27)) (justify left))
    (uuid fa08ea80-87fc-422d-8e84-a1e0e45b7436)
    (property "Intersheetrefs" "${INTERSHEET_REFS}" (at 240.8707 116.1256 0)
      (effects (font (size 1.27 1.27)) (justify left) hide)
    )
  )
  (global_label "DIO16" (shape output) (at 53.34 93.345 180) (fields_autoplaced)
    (effects (font (size 1.27 1.27)) (justify right))
    (uuid faf16bf2-956b-4f4c-8137-da743b95b441)
    (property "Intersheetrefs" "${INTERSHEET_REFS}" (at 45.3026 93.4244 0)
      (effects (font (size 1.27 1.27)) (justify right) hide)
    )
  )

  (symbol (lib_id "power:+3.3V") (at 60.96 133.985 0) (unit 1)
    (in_bom yes) (on_board yes) (dnp no) (fields_autoplaced)
    (uuid 0b3e53bb-7424-418b-b077-e6881b0daa80)
    (property "Reference" "#PWR0103" (at 60.96 137.795 0)
      (effects (font (size 1.27 1.27)) hide)
    )
    (property "Value" "+3.3V" (at 60.96 128.905 0)
      (effects (font (size 1.27 1.27)))
    )
    (property "Footprint" "" (at 60.96 133.985 0)
      (effects (font (size 1.27 1.27)) hide)
    )
    (property "Datasheet" "" (at 60.96 133.985 0)
      (effects (font (size 1.27 1.27)) hide)
    )
    (pin "1" (uuid bdd159f3-fec5-4e22-ab6d-0fe91dd926bf))
    (instances
      (project "CC26X2R1-hat"
        (path "/e63e39d7-6ac0-4ffd-8aa3-1841a4541b55"
          (reference "#PWR0103") (unit 1)
        )
      )
    )
  )

  (symbol (lib_id "haus-automatisierung:CC26X2R1") (at 212.09 53.975 0) (unit 1)
    (in_bom yes) (on_board yes) (dnp no) (fields_autoplaced)
    (uuid 0fa14e5a-e4ed-45c5-9b4e-6f70ba7ec3ef)
    (property "Reference" "U1" (at 215.3794 57.785 0)
      (effects (font (size 1.27 1.27)) (justify left))
    )
    (property "Value" "CC26X2R1" (at 215.3794 60.325 0)
      (effects (font (size 1.27 1.27)) (justify left))
    )
    (property "Footprint" "haus-automatisierung:CC26X2R1" (at 212.09 53.975 0)
      (effects (font (size 1.27 1.27)) hide)
    )
    (property "Datasheet" "" (at 212.09 53.975 0)
      (effects (font (size 1.27 1.27)) hide)
    )
    (pin "1" (uuid 936a7823-21cb-4ef8-8300-b185d9bba27b))
    (pin "10" (uuid 4edd66fe-3faa-4db2-94d8-1f22d3883c56))
    (pin "11" (uuid 4d3ff8ef-8596-4cd5-9638-268a21355e01))
    (pin "12" (uuid 1a004846-052e-451a-8a45-76449318c168))
    (pin "13" (uuid 322f18db-351b-4652-808b-2c98a2dbabdd))
    (pin "14" (uuid 18325d37-8fac-496c-8101-446e51e6676f))
    (pin "15" (uuid f166e221-383d-4aee-8bde-fb40e863e6e7))
    (pin "16" (uuid 98cd5f6a-768f-493c-b3ba-6b34df7adc11))
    (pin "17" (uuid a990cbd5-405d-41d8-a73a-4b8477b94022))
    (pin "18" (uuid 8fe870d6-48ea-4291-b7d4-616ca3d3bc17))
    (pin "19" (uuid d03fcb6a-1022-4dc3-b236-d43af3518b12))
    (pin "2" (uuid ded08f46-ec15-4c9a-948c-f5c5e686e74a))
    (pin "20" (uuid 1df89587-026d-4d52-a68b-3f2233d0ceea))
    (pin "21" (uuid 6a1648be-cdc7-4822-a623-09401b8d3a54))
    (pin "22" (uuid a42f4527-1745-4654-a464-8841699f449e))
    (pin "23" (uuid 0d98cb47-d56b-43d5-8430-0f5ea525eab4))
    (pin "24" (uuid b7504b70-4e2a-4730-b20f-f2ad8bb7a14b))
    (pin "25" (uuid 8f2e3046-2752-4143-a829-39e8cab08f3d))
    (pin "26" (uuid c76870fc-7a6a-4013-8cc1-f6fe1d8119db))
    (pin "27" (uuid e6effb39-db69-4f7b-b7b1-e06a787a1625))
    (pin "28" (uuid 37b85f96-3807-40d9-b9b2-e929b81a84b9))
    (pin "29" (uuid 9d9af40c-bc79-43ac-8f30-ae81c01960b2))
    (pin "3" (uuid 5d2830fe-435d-4293-afd5-b8805bf9e748))
    (pin "30" (uuid 5b072421-8719-4f2e-86d0-3732150b27ea))
    (pin "31" (uuid 8d2c77c9-cda1-4805-b886-56ccc9c7f12d))
    (pin "32" (uuid 60a3a1b3-5756-45dc-b9ee-4dc3f8e67dd0))
    (pin "33" (uuid df2d21fb-df1e-41b1-8d34-5ab987a86200))
    (pin "34" (uuid 2c326747-5d7e-4f19-8fa5-2c8b399c3ff1))
    (pin "35" (uuid acb31e7a-c202-457e-aaec-10139ac135c2))
    (pin "36" (uuid 2040e42e-3f87-42a5-b211-bca088edc507))
    (pin "37" (uuid 6dc6307c-aa66-41df-808a-a41cfb6d555c))
    (pin "38" (uuid 3ef18427-886d-4f8c-bfa3-95fd2d30327a))
    (pin "39" (uuid 1324e271-6f8d-4a1d-a087-9877bd0193ea))
    (pin "4" (uuid 30ab6ff4-bfd5-44e8-ac80-e0f0c0d58d94))
    (pin "40" (uuid 9197048c-6a78-456b-a6c9-3ffdcc1c5c81))
    (pin "5" (uuid 91e40dcd-055b-493c-a45b-d7e379e11da0))
    (pin "6" (uuid d98cafd9-6d0e-430f-a466-0a7e9839fe01))
    (pin "7" (uuid 4b234d36-bac4-44ea-86e6-eef7145dd05f))
    (pin "8" (uuid 4f7be7c8-f1c8-4271-9c6d-e796aaa8431a))
    (pin "9" (uuid 335e7952-a370-4ccf-94dc-8e955c0325b9))
    (instances
      (project "CC26X2R1-hat"
        (path "/e63e39d7-6ac0-4ffd-8aa3-1841a4541b55"
          (reference "U1") (unit 1)
        )
      )
    )
  )

  (symbol (lib_id "power:+5V") (at 87.63 37.465 90) (unit 1)
    (in_bom yes) (on_board yes) (dnp no) (fields_autoplaced)
    (uuid 1a79e718-ab5e-4b0f-9800-f1daf5eb62ab)
    (property "Reference" "#PWR0107" (at 91.44 37.465 0)
      (effects (font (size 1.27 1.27)) hide)
    )
    (property "Value" "+5V" (at 83.82 37.4651 90)
      (effects (font (size 1.27 1.27)) (justify left))
    )
    (property "Footprint" "" (at 87.63 37.465 0)
      (effects (font (size 1.27 1.27)) hide)
    )
    (property "Datasheet" "" (at 87.63 37.465 0)
      (effects (font (size 1.27 1.27)) hide)
    )
    (pin "1" (uuid 1385dd93-0a9c-4268-83b3-60f04722355e))
    (instances
      (project "CC26X2R1-hat"
        (path "/e63e39d7-6ac0-4ffd-8aa3-1841a4541b55"
          (reference "#PWR0107") (unit 1)
        )
      )
    )
  )

  (symbol (lib_id "power:GND") (at 214.63 131.445 0) (unit 1)
    (in_bom yes) (on_board yes) (dnp no) (fields_autoplaced)
    (uuid 253f8565-ebf6-400b-9793-4013c1e00fac)
    (property "Reference" "#PWR01" (at 214.63 137.795 0)
      (effects (font (size 1.27 1.27)) hide)
    )
    (property "Value" "GND" (at 214.63 136.525 0)
      (effects (font (size 1.27 1.27)))
    )
    (property "Footprint" "" (at 214.63 131.445 0)
      (effects (font (size 1.27 1.27)) hide)
    )
    (property "Datasheet" "" (at 214.63 131.445 0)
      (effects (font (size 1.27 1.27)) hide)
    )
    (pin "1" (uuid 744776a1-a2e9-438d-a63e-a1f1396075bb))
    (instances
      (project "CC26X2R1-hat"
        (path "/e63e39d7-6ac0-4ffd-8aa3-1841a4541b55"
          (reference "#PWR01") (unit 1)
        )
      )
    )
  )

  (symbol (lib_id "Connector:Conn_01x10_Female") (at 67.31 47.625 0) (unit 1)
    (in_bom yes) (on_board yes) (dnp no)
    (uuid 3b4ba78b-6f4c-4c5b-9d71-937b404081eb)
    (property "Reference" "J1" (at 60.96 31.115 0)
      (effects (font (size 1.27 1.27)) (justify left))
    )
    (property "Value" "Conn_01x10_Female" (at 60.96 33.655 0)
      (effects (font (size 1.27 1.27)) (justify left))
    )
    (property "Footprint" "Connector_PinHeader_2.54mm:PinHeader_1x10_P2.54mm_Vertical" (at 67.31 47.625 0)
      (effects (font (size 1.27 1.27)) hide)
    )
    (property "Datasheet" "~" (at 67.31 47.625 0)
      (effects (font (size 1.27 1.27)) hide)
    )
    (pin "1" (uuid 8e0dab7e-7474-43d5-bb4a-b578f9c5c1cf))
    (pin "10" (uuid e9b6d2de-e0c0-4728-a1bb-211e8d37e3a2))
    (pin "2" (uuid 1ff097e3-53a1-4c6e-adf1-d8be9b92553a))
    (pin "3" (uuid ddb953bc-4af3-4928-beaf-b492dbca72fb))
    (pin "4" (uuid 17df24ab-3657-4c56-a582-d5254b553d15))
    (pin "5" (uuid e3ead7c7-5044-4b42-bb34-4c9795c94dc0))
    (pin "6" (uuid afc3b7f7-35c8-414c-8ecf-3cf69a31051a))
    (pin "7" (uuid e0fdbbc0-8f29-42d6-af44-43c3f79ab867))
    (pin "8" (uuid aaa1b1e8-7eb1-427b-bf18-65dd68c3a00c))
    (pin "9" (uuid e232f371-5295-4204-b39d-4acea001e355))
    (instances
      (project "CC26X2R1-hat"
        (path "/e63e39d7-6ac0-4ffd-8aa3-1841a4541b55"
          (reference "J1") (unit 1)
        )
      )
    )
  )

  (symbol (lib_id "Connector:Conn_01x10_Female") (at 67.31 83.185 0) (unit 1)
    (in_bom yes) (on_board yes) (dnp no)
    (uuid 607b1d66-7fd0-4d85-af38-c4ea0824ed95)
    (property "Reference" "J4" (at 60.96 66.675 0)
      (effects (font (size 1.27 1.27)) (justify left))
    )
    (property "Value" "Conn_01x10_Female" (at 60.96 69.215 0)
      (effects (font (size 1.27 1.27)) (justify left))
    )
    (property "Footprint" "Connector_PinHeader_2.54mm:PinHeader_1x10_P2.54mm_Vertical" (at 67.31 83.185 0)
      (effects (font (size 1.27 1.27)) hide)
    )
    (property "Datasheet" "~" (at 67.31 83.185 0)
      (effects (font (size 1.27 1.27)) hide)
    )
    (pin "1" (uuid 268d9902-8f87-4692-bd4f-e0e30c0a80d2))
    (pin "10" (uuid 667a5177-b29c-48f0-bf5a-8edbd0ab0c3e))
    (pin "2" (uuid f7f194ed-f584-409c-9862-73a75ef53a4a))
    (pin "3" (uuid 86d004bb-9dc3-4dac-9fe1-f9ebf4c1598d))
    (pin "4" (uuid 787dd0ad-113e-4369-82fe-4564ce551d27))
    (pin "5" (uuid 6aaaef6d-1bc7-4395-8918-46765a41eeb0))
    (pin "6" (uuid de4d6f48-529e-449f-9129-699cfc52b431))
    (pin "7" (uuid 3fd5ef75-0c40-40ed-9850-db7d8650920f))
    (pin "8" (uuid 082e0230-edf9-41c1-a0ec-a8594d497fe7))
    (pin "9" (uuid 2f766ee5-18dd-452e-8a78-093ea6d96d3b))
    (instances
      (project "CC26X2R1-hat"
        (path "/e63e39d7-6ac0-4ffd-8aa3-1841a4541b55"
          (reference "J4") (unit 1)
        )
      )
    )
  )

  (symbol (lib_id "power:+3.3V") (at 53.34 37.465 90) (unit 1)
    (in_bom yes) (on_board yes) (dnp no) (fields_autoplaced)
    (uuid 64288f6c-54db-4a38-83af-8d0bc435105c)
    (property "Reference" "#PWR0104" (at 57.15 37.465 0)
      (effects (font (size 1.27 1.27)) hide)
    )
    (property "Value" "+3.3V" (at 49.53 37.4649 90)
      (effects (font (size 1.27 1.27)) (justify left))
    )
    (property "Footprint" "" (at 53.34 37.465 0)
      (effects (font (size 1.27 1.27)) hide)
    )
    (property "Datasheet" "" (at 53.34 37.465 0)
      (effects (font (size 1.27 1.27)) hide)
    )
    (pin "1" (uuid 5b616dba-31b8-47e3-8ee4-142117934c50))
    (instances
      (project "CC26X2R1-hat"
        (path "/e63e39d7-6ac0-4ffd-8aa3-1841a4541b55"
          (reference "#PWR0104") (unit 1)
        )
      )
    )
  )

  (symbol (lib_id "power:GND") (at 80.01 40.005 270) (unit 1)
    (in_bom yes) (on_board yes) (dnp no) (fields_autoplaced)
    (uuid 763496f3-121d-476b-92ed-2928dd374644)
    (property "Reference" "#PWR0106" (at 73.66 40.005 0)
      (effects (font (size 1.27 1.27)) hide)
    )
    (property "Value" "GND" (at 76.2 40.0051 90)
      (effects (font (size 1.27 1.27)) (justify right))
    )
    (property "Footprint" "" (at 80.01 40.005 0)
      (effects (font (size 1.27 1.27)) hide)
    )
    (property "Datasheet" "" (at 80.01 40.005 0)
      (effects (font (size 1.27 1.27)) hide)
    )
    (pin "1" (uuid 5b40015f-8e42-44cf-b073-07e1eea6e214))
    (instances
      (project "CC26X2R1-hat"
        (path "/e63e39d7-6ac0-4ffd-8aa3-1841a4541b55"
          (reference "#PWR0106") (unit 1)
        )
      )
    )
  )

  (symbol (lib_id "power:+3.3V") (at 210.82 43.815 0) (unit 1)
    (in_bom yes) (on_board yes) (dnp no) (fields_autoplaced)
    (uuid 7682babb-76f4-4e80-a7e1-b43584b3d01e)
    (property "Reference" "#PWR0101" (at 210.82 47.625 0)
      (effects (font (size 1.27 1.27)) hide)
    )
    (property "Value" "+3.3V" (at 210.82 38.735 0)
      (effects (font (size 1.27 1.27)))
    )
    (property "Footprint" "" (at 210.82 43.815 0)
      (effects (font (size 1.27 1.27)) hide)
    )
    (property "Datasheet" "" (at 210.82 43.815 0)
      (effects (font (size 1.27 1.27)) hide)
    )
    (pin "1" (uuid d419987e-8005-4bba-9cdd-ff04af302d72))
    (instances
      (project "CC26X2R1-hat"
        (path "/e63e39d7-6ac0-4ffd-8aa3-1841a4541b55"
          (reference "#PWR0101") (unit 1)
        )
      )
    )
  )

  (symbol (lib_id "power:+5V") (at 213.36 45.085 0) (unit 1)
    (in_bom yes) (on_board yes) (dnp no) (fields_autoplaced)
    (uuid a86bf668-cfb0-434f-b1c5-75eb8ae7c89d)
    (property "Reference" "#PWR0105" (at 213.36 48.895 0)
      (effects (font (size 1.27 1.27)) hide)
    )
    (property "Value" "+5V" (at 213.36 40.005 0)
      (effects (font (size 1.27 1.27)))
    )
    (property "Footprint" "" (at 213.36 45.085 0)
      (effects (font (size 1.27 1.27)) hide)
    )
    (property "Datasheet" "" (at 213.36 45.085 0)
      (effects (font (size 1.27 1.27)) hide)
    )
    (pin "1" (uuid c84c6f6f-6980-43dc-9224-f383208af219))
    (instances
      (project "CC26X2R1-hat"
        (path "/e63e39d7-6ac0-4ffd-8aa3-1841a4541b55"
          (reference "#PWR0105") (unit 1)
        )
      )
    )
  )

  (symbol (lib_id "Connector:Conn_01x10_Female") (at 101.6 47.625 0) (unit 1)
    (in_bom yes) (on_board yes) (dnp no)
    (uuid debbd8ed-3cb6-47d4-86cb-12eb93537897)
    (property "Reference" "J2" (at 95.25 31.115 0)
      (effects (font (size 1.27 1.27)) (justify left))
    )
    (property "Value" "Conn_01x10_Female" (at 95.25 33.655 0)
      (effects (font (size 1.27 1.27)) (justify left))
    )
    (property "Footprint" "Connector_PinHeader_2.54mm:PinHeader_1x10_P2.54mm_Vertical" (at 101.6 47.625 0)
      (effects (font (size 1.27 1.27)) hide)
    )
    (property "Datasheet" "~" (at 101.6 47.625 0)
      (effects (font (size 1.27 1.27)) hide)
    )
    (pin "1" (uuid b4f94625-8e69-42af-b9c9-971d7df7e869))
    (pin "10" (uuid 9c4cec16-c095-4bb4-80dc-83e0bbeb6fe3))
    (pin "2" (uuid e04e71a7-7d88-4351-86b4-96e66752e0aa))
    (pin "3" (uuid 3b46e6a4-2fdb-48f4-90c0-31d8c4ef7b38))
    (pin "4" (uuid 88b6b9cd-6e82-4f1c-9bfe-97c32d4baf6a))
    (pin "5" (uuid 8554694d-bbd9-4361-b1c1-fa87b399bdc9))
    (pin "6" (uuid e1b20599-7439-4832-aeb1-c45a450304c2))
    (pin "7" (uuid 5b27d467-b1e8-4182-8f58-5a3b487d78cb))
    (pin "8" (uuid eec1d7aa-f6fd-4c25-939b-bcc53fc6e53d))
    (pin "9" (uuid 29cc138f-476e-4b0a-a3c5-41468c82c31b))
    (instances
      (project "CC26X2R1-hat"
        (path "/e63e39d7-6ac0-4ffd-8aa3-1841a4541b55"
          (reference "J2") (unit 1)
        )
      )
    )
  )

  (symbol (lib_id "power:GND") (at 58.42 126.365 180) (unit 1)
    (in_bom yes) (on_board yes) (dnp no) (fields_autoplaced)
    (uuid e057a567-fee1-4832-a2c3-6f4d14a1b1ff)
    (property "Reference" "#PWR0102" (at 58.42 120.015 0)
      (effects (font (size 1.27 1.27)) hide)
    )
    (property "Value" "GND" (at 58.42 121.285 0)
      (effects (font (size 1.27 1.27)))
    )
    (property "Footprint" "" (at 58.42 126.365 0)
      (effects (font (size 1.27 1.27)) hide)
    )
    (property "Datasheet" "" (at 58.42 126.365 0)
      (effects (font (size 1.27 1.27)) hide)
    )
    (pin "1" (uuid 63bdae14-d41e-4bec-8f84-1072d7d840f3))
    (instances
      (project "CC26X2R1-hat"
        (path "/e63e39d7-6ac0-4ffd-8aa3-1841a4541b55"
          (reference "#PWR0102") (unit 1)
        )
      )
    )
  )

  (symbol (lib_id "Connector:Conn_01x10_Female") (at 101.6 83.185 0) (unit 1)
    (in_bom yes) (on_board yes) (dnp no)
    (uuid e24bae7a-d4ea-4eda-9d73-5870121a03af)
    (property "Reference" "J5" (at 95.25 66.675 0)
      (effects (font (size 1.27 1.27)) (justify left))
    )
    (property "Value" "Conn_01x10_Female" (at 95.25 69.215 0)
      (effects (font (size 1.27 1.27)) (justify left))
    )
    (property "Footprint" "Connector_PinHeader_2.54mm:PinHeader_1x10_P2.54mm_Vertical" (at 101.6 83.185 0)
      (effects (font (size 1.27 1.27)) hide)
    )
    (property "Datasheet" "~" (at 101.6 83.185 0)
      (effects (font (size 1.27 1.27)) hide)
    )
    (pin "1" (uuid bca6edbb-ee14-4afc-a408-62a9051593d2))
    (pin "10" (uuid aaf98a54-f61b-4670-a8ad-91018d0cfada))
    (pin "2" (uuid 5da54aa0-ba5a-4f96-ba01-b6f6c2b979ae))
    (pin "3" (uuid 36ccdbd8-489c-427c-b9b4-930ccf20a8b3))
    (pin "4" (uuid fb6039de-f2a3-49c0-af79-443d957e538d))
    (pin "5" (uuid b69a6e18-a54c-4c1c-997f-0068e5c00be0))
    (pin "6" (uuid e27385ae-b18c-4999-a12f-d8146e5afd12))
    (pin "7" (uuid 05f83ed9-3a54-4f42-a800-4322f98f06ba))
    (pin "8" (uuid 342564c4-621d-40cc-8449-370861443d48))
    (pin "9" (uuid 557bde75-6f9b-42c0-a6a3-6f7f0150aada))
    (instances
      (project "CC26X2R1-hat"
        (path "/e63e39d7-6ac0-4ffd-8aa3-1841a4541b55"
          (reference "J5") (unit 1)
        )
      )
    )
  )

  (symbol (lib_id "power:GND") (at 80.01 73.025 270) (unit 1)
    (in_bom yes) (on_board yes) (dnp no) (fields_autoplaced)
    (uuid ec046292-fffd-4abc-b6c5-e100f74da08e)
    (property "Reference" "#PWR0108" (at 73.66 73.025 0)
      (effects (font (size 1.27 1.27)) hide)
    )
    (property "Value" "GND" (at 76.2 73.0249 90)
      (effects (font (size 1.27 1.27)) (justify right))
    )
    (property "Footprint" "" (at 80.01 73.025 0)
      (effects (font (size 1.27 1.27)) hide)
    )
    (property "Datasheet" "" (at 80.01 73.025 0)
      (effects (font (size 1.27 1.27)) hide)
    )
    (pin "1" (uuid a8817c66-1e9d-4edb-b7c6-2d169c4c91cd))
    (instances
      (project "CC26X2R1-hat"
        (path "/e63e39d7-6ac0-4ffd-8aa3-1841a4541b55"
          (reference "#PWR0108") (unit 1)
        )
      )
    )
  )

  (symbol (lib_id "Connector_Generic:Conn_01x07") (at 55.88 147.955 270) (unit 1)
    (in_bom yes) (on_board yes) (dnp no) (fields_autoplaced)
    (uuid fb220158-b64d-464d-992c-9dc0851a42f8)
    (property "Reference" "J3" (at 55.88 151.765 90)
      (effects (font (size 1.27 1.27)))
    )
    (property "Value" "Conn_01x07" (at 55.88 154.305 90)
      (effects (font (size 1.27 1.27)))
    )
    (property "Footprint" "Connector_PinHeader_2.54mm:PinHeader_1x07_P2.54mm_Vertical" (at 55.88 147.955 0)
      (effects (font (size 1.27 1.27)) hide)
    )
    (property "Datasheet" "~" (at 55.88 147.955 0)
      (effects (font (size 1.27 1.27)) hide)
    )
    (pin "1" (uuid a56c5a55-caaa-416f-b20f-8f4d2e59169c))
    (pin "2" (uuid 6cecf559-3593-4f83-8057-605a51ecdc02))
    (pin "3" (uuid 459cfa83-1c85-4717-88f3-d9fdc98c5046))
    (pin "4" (uuid 3bba1db7-d49c-46d7-8aaa-985e3235b318))
    (pin "5" (uuid 16257a69-4edc-4958-b06c-a027451af1f2))
    (pin "6" (uuid dc0be073-32d3-45bc-b118-6d1b4e105d3d))
    (pin "7" (uuid 2486caca-fda4-4b14-bc55-dfb4c3391add))
    (instances
      (project "CC26X2R1-hat"
        (path "/e63e39d7-6ac0-4ffd-8aa3-1841a4541b55"
          (reference "J3") (unit 1)
        )
      )
    )
  )

  (sheet_instances
    (path "/" (page "1"))
  )
)
