{
  "board": {
    "3dviewports": [],
    "design_settings": {
      "defaults": {
        "board_outline_line_width": 0.09999999999999999,
        "copper_line_width": 0.19999999999999998,
        "copper_text_italic": false,
        "copper_text_size_h": 1.5,
        "copper_text_size_v": 1.5,
        "copper_text_thickness": 0.3,
        "copper_text_upright": false,
        "courtyard_line_width": 0.049999999999999996,
        "dimension_precision": 4,
        "dimension_units": 3,
        "dimensions": {
          "arrow_length": 1270000,
          "extension_offset": 500000,
          "keep_text_aligned": true,
          "suppress_zeroes": false,
          "text_position": 0,
          "units_format": 1
        },
        "fab_line_width": 0.09999999999999999,
        "fab_text_italic": false,
        "fab_text_size_h": 1.0,
        "fab_text_size_v": 1.0,
        "fab_text_thickness": 0.15,
        "fab_text_upright": false,
        "other_line_width": 0.09999999999999999,
        "other_text_italic": false,
        "other_text_size_h": 1.0,
        "other_text_size_v": 1.0,
        "other_text_thickness": 0.15,
        "other_text_upright": false,
        "pads": {
          "drill": 0.0,
          "height": 0.5,
          "width": 0.5
        },
        "silk_line_width": 0.15,
        "silk_text_italic": false,
        "silk_text_size_h": 0.7,
        "silk_text_size_v": 0.7,
        "silk_text_thickness": 0.15,
        "silk_text_upright": false,
        "zones": {
          "45_degree_only": false,
          "min_clearance": 0.125
        }
      },
      "diff_pair_dimensions": [
        {
          "gap": 0.0,
          "via_gap": 0.0,
          "width": 0.0
        }
      ],
      "drc_exclusions": [],
      "meta": {
        "filename": "board_design_settings.json",
        "version": 2
      },
      "rule_severities": {
        "annular_width": "error",
        "clearance": "error",
        "connection_width": "warning",
        "copper_edge_clearance": "error",
        "copper_sliver": "warning",
        "courtyards_overlap": "error",
        "diff_pair_gap_out_of_range": "error",
        "diff_pair_uncoupled_length_too_long": "error",
        "drill_out_of_range": "error",
        "duplicate_footprints": "warning",
        "extra_footprint": "warning",
        "footprint": "error",
        "footprint_type_mismatch": "error",
        "hole_clearance": "error",
        "hole_near_hole": "error",
        "invalid_outline": "error",
        "isolated_copper": "warning",
        "item_on_disabled_layer": "error",
        "items_not_allowed": "error",
        "length_out_of_range": "error",
        "lib_footprint_issues": "warning",
        "lib_footprint_mismatch": "warning",
        "malformed_courtyard": "error",
        "microvia_drill_out_of_range": "error",
        "missing_courtyard": "ignore",
        "missing_footprint": "warning",
        "net_conflict": "warning",
        "npth_inside_courtyard": "ignore",
        "padstack": "error",
        "pth_inside_courtyard": "ignore",
        "shorting_items": "error",
        "silk_edge_clearance": "warning",
        "silk_over_copper": "warning",
        "silk_overlap": "warning",
        "skew_out_of_range": "error",
        "solder_mask_bridge": "error",
        "starved_thermal": "error",
        "text_height": "warning",
        "text_thickness": "warning",
        "through_hole_pad_without_hole": "error",
        "too_many_vias": "error",
        "track_dangling": "warning",
        "track_width": "error",
        "tracks_crossing": "error",
        "unconnected_items": "error",
        "unresolved_variable": "error",
        "via_dangling": "warning",
        "zones_intersect": "error"
      },
      "rule_severitieslegacy_courtyards_overlap": true,
      "rule_severitieslegacy_no_courtyard_defined": false,
      "rules": {
        "allow_blind_buried_vias": true,
        "allow_microvias": false,
        "max_error": 0.005,
        "min_clearance": 0.0,
        "min_connection": 0.0,
        "min_copper_edge_clearance": 0.049999999999999996,
        "min_hole_clearance": 0.25,
        "min_hole_to_hole": 0.25,
        "min_microvia_diameter": 0.19999999999999998,
        "min_microvia_drill": 0.09999999999999999,
        "min_resolved_spokes": 2,
        "min_silk_clearance": 0.0,
        "min_text_height": 0.7999999999999999,
        "min_text_thickness": 0.08,
        "min_through_hole_diameter": 0.15,
        "min_track_width": 0.09999999999999999,
        "min_via_annular_width": 0.049999999999999996,
        "min_via_diameter": 0.44999999999999996,
        "solder_mask_to_copper_clearance": 0.0,
        "use_height_for_length_calcs": true
      },
      "teardrop_options": [
        {
          "td_allow_use_two_tracks": true,
          "td_curve_segcount": 5,
          "td_on_pad_in_zone": false,
          "td_onpadsmd": true,
          "td_onroundshapesonly": false,
          "td_ontrackend": false,
          "td_onviapad": true
        }
      ],
      "teardrop_parameters": [
        {
          "td_curve_segcount": 0,
          "td_height_ratio": 1.0,
          "td_length_ratio": 0.5,
          "td_maxheight": 2.0,
          "td_maxlen": 1.0,
          "td_target_name": "td_round_shape",
          "td_width_to_size_filter_ratio": 0.9
        },
        {
          "td_curve_segcount": 0,
          "td_height_ratio": 1.0,
          "td_length_ratio": 0.5,
          "td_maxheight": 2.0,
          "td_maxlen": 1.0,
          "td_target_name": "td_rect_shape",
          "td_width_to_size_filter_ratio": 0.9
        },
        {
          "td_curve_segcount": 0,
          "td_height_ratio": 1.0,
          "td_length_ratio": 0.5,
          "td_maxheight": 2.0,
          "td_maxlen": 1.0,
          "td_target_name": "td_track_end",
          "td_width_to_size_filter_ratio": 0.9
        }
      ],
      "track_widths": [
        0.0,
        0.1,
        0.11,
        0.127,
        0.15,
        0.2,
        0.21336,
        0.4
      ],
      "via_dimensions": [
        {
          "diameter": 0.0,
          "drill": 0.0
        },
        {
          "diameter": 0.5,
          "drill": 0.2
        }
      ],
      "zones_allow_external_fillets": false,
      "zones_use_no_outline": true
    },
    "layer_presets": [],
    "viewports": []
  },
  "boards": [],
  "cvpcb": {
    "equivalence_files": []
  },
  "erc": {
    "erc_exclusions": [],
    "meta": {
      "version": 0
    },
    "pin_map": [
      [
        0,
        0,
        0,
        0,
        0,
        0,
        1,
        0,
        0,
        0,
        0,
        2
      ],
      [
        0,
        2,
        0,
        1,
        0,
        0,
        1,
        0,
        2,
        2,
        2,
        2
      ],
      [
        0,
        0,
        0,
        0,
        0,
        0,
        1,
        0,
        1,
        0,
        1,
        2
      ],
      [
        0,
        1,
        0,
        0,
        0,
        0,
        1,
        1,
        2,
        1,
        1,
        2
      ],
      [
        0,
        0,
        0,
        0,
        0,
        0,
        1,
        0,
        0,
        0,
        0,
        2
      ],
      [
        0,
        0,
        0,
        0,
        0,
        0,
        0,
        0,
        0,
        0,
        0,
        2
      ],
      [
        1,
        1,
        1,
        1,
        1,
        0,
        1,
        1,
        1,
        1,
        1,
        2
      ],
      [
        0,
        0,
        0,
        1,
        0,
        0,
        1,
        0,
        0,
        0,
        0,
        2
      ],
      [
        0,
        2,
        1,
        2,
        0,
        0,
        1,
        0,
        2,
        2,
        2,
        2
      ],
      [
        0,
        2,
        0,
        1,
        0,
        0,
        1,
        0,
        2,
        0,
        0,
        2
      ],
      [
        0,
        2,
        1,
        1,
        0,
        0,
        1,
        0,
        2,
        0,
        0,
        2
      ],
      [
        2,
        2,
        2,
        2,
        2,
        2,
        2,
        2,
        2,
        2,
        2,
        2
      ]
    ],
    "rule_severities": {
      "bus_definition_conflict": "error",
      "bus_entry_needed": "error",
      "bus_to_bus_conflict": "error",
      "bus_to_net_conflict": "error",
      "conflicting_netclasses": "error",
      "different_unit_footprint": "error",
      "different_unit_net": "error",
      "duplicate_reference": "error",
      "duplicate_sheet_names": "error",
      "endpoint_off_grid": "warning",
      "extra_units": "error",
      "global_label_dangling": "warning",
      "hier_label_mismatch": "error",
      "label_dangling": "error",
      "lib_symbol_issues": "warning",
      "missing_bidi_pin": "warning",
      "missing_input_pin": "warning",
      "missing_power_pin": "error",
      "missing_unit": "warning",
      "multiple_net_names": "warning",
      "net_not_bus_member": "warning",
      "no_connect_connected": "ignore",
      "no_connect_dangling": "warning",
      "pin_not_connected": "error",
      "pin_not_driven": "error",
      "pin_to_pin": "ignore",
      "power_pin_not_driven": "error",
      "similar_labels": "warning",
      "simulation_model_issue": "ignore",
      "unannotated": "error",
      "unit_value_mismatch": "error",
      "unresolved_variable": "error",
      "wire_dangling": "error"
    }
  },
  "libraries": {
    "pinned_footprint_libs": [],
    "pinned_symbol_libs": []
  },
  "meta": {
    "filename": "data-center-rdimm-ddr5-tester.kicad_pro",
    "version": 1
  },
  "net_settings": {
    "classes": [
      {
        "bus_width": 12,
        "clearance": 0.1,
        "diff_pair_gap": 0.15,
        "diff_pair_via_gap": 0.25,
        "diff_pair_width": 0.1,
        "line_style": 0,
        "microvia_diameter": 0.3,
        "microvia_drill": 0.1,
        "name": "Default",
        "pcb_color": "rgba(0, 0, 0, 0.000)",
        "schematic_color": "rgba(0, 0, 0, 0.000)",
        "track_width": 0.1,
        "via_diameter": 0.5,
        "via_drill": 0.2,
        "wire_width": 6
      },
      {
        "bus_width": 12,
        "clearance": 0.1,
        "diff_pair_gap": 0.1016,
        "diff_pair_via_gap": 0.25,
        "diff_pair_width": 0.21336,
        "line_style": 0,
        "microvia_diameter": 0.3,
        "microvia_drill": 0.1,
        "name": "DIFF50",
        "pcb_color": "rgba(0, 0, 0, 0.000)",
        "schematic_color": "rgba(0, 0, 0, 0.000)",
        "track_width": 1.0,
        "via_diameter": 0.5,
        "via_drill": 0.2,
        "wire_width": 6
      },
      {
        "bus_width": 12,
        "clearance": 0.1,
        "diff_pair_gap": 0.12446,
        "diff_pair_via_gap": 0.25,
        "diff_pair_width": 0.1016,
        "line_style": 0,
        "microvia_diameter": 0.3,
        "microvia_drill": 0.1,
        "name": "DIFF80",
        "pcb_color": "rgba(0, 0, 0, 0.000)",
        "schematic_color": "rgba(0, 0, 0, 0.000)",
        "track_width": 1.0,
        "via_diameter": 0.5,
        "via_drill": 0.2,
        "wire_width": 6
      },
      {
        "bus_width": 12,
        "clearance": 0.1,
        "diff_pair_gap": 1.0,
        "diff_pair_via_gap": 0.25,
        "diff_pair_width": 1.0,
        "line_style": 0,
        "microvia_diameter": 0.3,
        "microvia_drill": 0.1,
        "name": "SE40",
        "pcb_color": "rgba(0, 0, 0, 0.000)",
        "schematic_color": "rgba(0, 0, 0, 0.000)",
        "track_width": 0.2,
        "via_diameter": 0.5,
        "via_drill": 0.2,
        "wire_width": 6
      },
      {
        "bus_width": 12,
        "clearance": 0.1,
        "diff_pair_gap": 1.0,
        "diff_pair_via_gap": 0.25,
        "diff_pair_width": 1.0,
        "line_style": 0,
        "microvia_diameter": 0.3,
        "microvia_drill": 0.1,
        "name": "SE50",
        "pcb_color": "rgba(0, 0, 0, 0.000)",
        "schematic_color": "rgba(0, 0, 0, 0.000)",
        "track_width": 0.13,
        "via_diameter": 0.5,
        "via_drill": 0.2,
        "wire_width": 6
      },
      {
        "bus_width": 12,
        "clearance": 0.13,
        "diff_pair_gap": 0.2,
        "diff_pair_via_gap": 0.25,
        "diff_pair_width": 0.1,
        "line_style": 0,
        "microvia_diameter": 0.3,
        "microvia_drill": 0.1,
        "name": "USB",
        "pcb_color": "rgba(0, 0, 0, 0.000)",
        "schematic_color": "rgba(0, 0, 0, 0.000)",
        "track_width": 0.15,
        "via_diameter": 0.5,
        "via_drill": 0.2,
        "wire_width": 6
      },
      {
        "bus_width": 12,
        "clearance": 0.1,
        "diff_pair_gap": 0.17,
        "diff_pair_via_gap": 0.25,
        "diff_pair_width": 0.14,
        "line_style": 0,
        "microvia_diameter": 0.3,
        "microvia_drill": 0.1,
        "name": "Z=100",
        "pcb_color": "rgba(0, 0, 0, 0.000)",
        "schematic_color": "rgba(0, 0, 0, 0.000)",
        "track_width": 0.14,
        "via_diameter": 0.5,
        "via_drill": 0.2,
        "wire_width": 6
      }
    ],
    "meta": {
      "version": 3
    },
    "net_colors": null,
    "netclass_assignments": null,
    "netclass_patterns": [
      {
        "netclass": "DIFF50",
        "pattern": "CK_N"
      },
      {
        "netclass": "DIFF50",
        "pattern": "CK_P"
      },
      {
        "netclass": "DIFF80",
        "pattern": "DQS0_A_N"
      },
      {
        "netclass": "DIFF80",
        "pattern": "DQS0_A_P"
      },
      {
        "netclass": "DIFF80",
        "pattern": "DQS0_B_N"
      },
      {
        "netclass": "DIFF80",
        "pattern": "DQS0_B_P"
      },
      {
        "netclass": "DIFF80",
        "pattern": "DQS1_A_N"
      },
      {
        "netclass": "DIFF80",
        "pattern": "DQS1_A_P"
      },
      {
        "netclass": "DIFF80",
        "pattern": "DQS1_B_N"
      },
      {
        "netclass": "DIFF80",
        "pattern": "DQS1_B_P"
      },
      {
        "netclass": "DIFF80",
        "pattern": "DQS2_A_N"
      },
      {
        "netclass": "DIFF80",
        "pattern": "DQS2_A_P"
      },
      {
        "netclass": "DIFF80",
        "pattern": "DQS2_B_N"
      },
      {
        "netclass": "DIFF80",
        "pattern": "DQS2_B_P"
      },
      {
        "netclass": "DIFF80",
        "pattern": "DQS3_A_N"
      },
      {
        "netclass": "DIFF80",
        "pattern": "DQS3_A_P"
      },
      {
        "netclass": "DIFF80",
        "pattern": "DQS3_B_N"
      },
      {
        "netclass": "DIFF80",
        "pattern": "DQS3_B_P"
      },
      {
        "netclass": "DIFF80",
        "pattern": "DQS4_A_N"
      },
      {
        "netclass": "DIFF80",
        "pattern": "DQS4_A_P"
      },
      {
        "netclass": "DIFF80",
        "pattern": "DQS4_B_N"
      },
      {
        "netclass": "DIFF80",
        "pattern": "DQS4_B_P"
      },
      {
        "netclass": "DIFF80",
        "pattern": "DQS5_A_N"
      },
      {
        "netclass": "DIFF80",
        "pattern": "DQS5_A_P"
      },
      {
        "netclass": "DIFF80",
        "pattern": "DQS5_B_N"
      },
      {
        "netclass": "DIFF80",
        "pattern": "DQS5_B_P"
      },
      {
        "netclass": "DIFF80",
        "pattern": "DQS6_A_N"
      },
      {
        "netclass": "DIFF80",
        "pattern": "DQS6_A_P"
      },
      {
        "netclass": "DIFF80",
        "pattern": "DQS6_B_N"
      },
      {
        "netclass": "DIFF80",
        "pattern": "DQS6_B_P"
      },
      {
        "netclass": "DIFF80",
        "pattern": "DQS7_A_N"
      },
      {
        "netclass": "DIFF80",
        "pattern": "DQS7_A_P"
      },
      {
        "netclass": "DIFF80",
        "pattern": "DQS7_B_N"
      },
      {
        "netclass": "DIFF80",
        "pattern": "DQS7_B_P"
      },
      {
        "netclass": "DIFF80",
        "pattern": "DQS8_A_N"
      },
      {
        "netclass": "DIFF80",
        "pattern": "DQS8_A_P"
      },
      {
        "netclass": "DIFF80",
        "pattern": "DQS8_B_N"
      },
      {
        "netclass": "DIFF80",
        "pattern": "DQS8_B_P"
      },
      {
        "netclass": "DIFF80",
        "pattern": "DQS9_A_N"
      },
      {
        "netclass": "DIFF80",
        "pattern": "DQS9_A_P"
      },
      {
        "netclass": "DIFF80",
        "pattern": "DQS9_B_N"
      },
      {
        "netclass": "DIFF80",
        "pattern": "DQS9_B_P"
      },
      {
        "netclass": "SE40",
        "pattern": "DQ0_A"
      },
      {
        "netclass": "SE40",
        "pattern": "DQ0_B"
      },
      {
        "netclass": "SE40",
        "pattern": "DQ10_A"
      },
      {
        "netclass": "SE40",
        "pattern": "DQ10_B"
      },
      {
        "netclass": "SE40",
        "pattern": "DQ11_A"
      },
      {
        "netclass": "SE40",
        "pattern": "DQ11_B"
      },
      {
        "netclass": "SE40",
        "pattern": "DQ12_A"
      },
      {
        "netclass": "SE40",
        "pattern": "DQ12_B"
      },
      {
        "netclass": "SE40",
        "pattern": "DQ13_A"
      },
      {
        "netclass": "SE40",
        "pattern": "DQ13_B"
      },
      {
        "netclass": "SE40",
        "pattern": "DQ14_A"
      },
      {
        "netclass": "SE40",
        "pattern": "DQ14_B"
      },
      {
        "netclass": "SE40",
        "pattern": "DQ15_A"
      },
      {
        "netclass": "SE40",
        "pattern": "DQ15_B"
      },
      {
        "netclass": "SE40",
        "pattern": "DQ16_A"
      },
      {
        "netclass": "SE40",
        "pattern": "DQ16_B"
      },
      {
        "netclass": "SE40",
        "pattern": "DQ17_A"
      },
      {
        "netclass": "SE40",
        "pattern": "DQ17_B"
      },
      {
        "netclass": "SE40",
        "pattern": "DQ18_A"
      },
      {
        "netclass": "SE40",
        "pattern": "DQ18_B"
      },
      {
        "netclass": "SE40",
        "pattern": "DQ19_A"
      },
      {
        "netclass": "SE40",
        "pattern": "DQ19_B"
      },
      {
        "netclass": "SE40",
        "pattern": "DQ1_A"
      },
      {
        "netclass": "SE40",
        "pattern": "DQ1_B"
      },
      {
        "netclass": "SE40",
        "pattern": "DQ20_A"
      },
      {
        "netclass": "SE40",
        "pattern": "DQ20_B"
      },
      {
        "netclass": "SE40",
        "pattern": "DQ21_A"
      },
      {
        "netclass": "SE40",
        "pattern": "DQ21_B"
      },
      {
        "netclass": "SE40",
        "pattern": "DQ22_A"
      },
      {
        "netclass": "SE40",
        "pattern": "DQ22_B"
      },
      {
        "netclass": "SE40",
        "pattern": "DQ23_A"
      },
      {
        "netclass": "SE40",
        "pattern": "DQ23_B"
      },
      {
        "netclass": "SE40",
        "pattern": "DQ24_A"
      },
      {
        "netclass": "SE40",
        "pattern": "DQ24_B"
      },
      {
        "netclass": "SE40",
        "pattern": "DQ25_A"
      },
      {
        "netclass": "SE40",
        "pattern": "DQ25_B"
      },
      {
        "netclass": "SE40",
        "pattern": "DQ26_A"
      },
      {
        "netclass": "SE40",
        "pattern": "DQ26_B"
      },
      {
        "netclass": "SE40",
        "pattern": "DQ27_A"
      },
      {
        "netclass": "SE40",
        "pattern": "DQ27_B"
      },
      {
        "netclass": "SE40",
        "pattern": "DQ28_A"
      },
      {
        "netclass": "SE40",
        "pattern": "DQ28_B"
      },
      {
        "netclass": "SE40",
        "pattern": "DQ29_A"
      },
      {
        "netclass": "SE40",
        "pattern": "DQ29_B"
      },
      {
        "netclass": "SE40",
        "pattern": "DQ2_A"
      },
      {
        "netclass": "SE40",
        "pattern": "DQ2_B"
      },
      {
        "netclass": "SE40",
        "pattern": "DQ30_A"
      },
      {
        "netclass": "SE40",
        "pattern": "DQ30_B"
      },
      {
        "netclass": "SE40",
        "pattern": "DQ31_A"
      },
      {
        "netclass": "SE40",
        "pattern": "DQ31_B"
      },
      {
        "netclass": "SE40",
        "pattern": "DQ3_A"
      },
      {
        "netclass": "SE40",
        "pattern": "DQ3_B"
      },
      {
        "netclass": "SE40",
        "pattern": "DQ4_A"
      },
      {
        "netclass": "SE40",
        "pattern": "DQ4_B"
      },
      {
        "netclass": "SE40",
        "pattern": "DQ5_A"
      },
      {
        "netclass": "SE40",
        "pattern": "DQ5_B"
      },
      {
        "netclass": "SE40",
        "pattern": "DQ6_A"
      },
      {
        "netclass": "SE40",
        "pattern": "DQ6_B"
      },
      {
        "netclass": "SE40",
        "pattern": "DQ7_A"
      },
      {
        "netclass": "SE40",
        "pattern": "DQ7_B"
      },
      {
        "netclass": "SE40",
        "pattern": "DQ8_A"
      },
      {
        "netclass": "SE40",
        "pattern": "DQ8_B"
      },
      {
        "netclass": "SE40",
        "pattern": "DQ9_A"
      },
      {
        "netclass": "SE40",
        "pattern": "DQ9_B"
      },
      {
        "netclass": "SE50",
        "pattern": "ALERT_N"
      },
      {
        "netclass": "SE50",
        "pattern": "CA0_A"
      },
      {
        "netclass": "SE50",
        "pattern": "CA0_B"
      },
      {
        "netclass": "SE50",
        "pattern": "CA1_A"
      },
      {
        "netclass": "SE50",
        "pattern": "CA1_B"
      },
      {
        "netclass": "SE50",
        "pattern": "CA2_A"
      },
      {
        "netclass": "SE50",
        "pattern": "CA2_B"
      },
      {
        "netclass": "SE50",
        "pattern": "CA3_A"
      },
      {
        "netclass": "SE50",
        "pattern": "CA3_B"
      },
      {
        "netclass": "SE50",
        "pattern": "CA4_A"
      },
      {
        "netclass": "SE50",
        "pattern": "CA4_B"
      },
      {
        "netclass": "SE50",
        "pattern": "CA5_A"
      },
      {
        "netclass": "SE50",
        "pattern": "CA5_B"
      },
      {
        "netclass": "SE50",
        "pattern": "CA6_A"
      },
      {
        "netclass": "SE50",
        "pattern": "CA6_B"
      },
      {
        "netclass": "SE50",
        "pattern": "CB0_A"
      },
      {
        "netclass": "SE50",
        "pattern": "CB0_B"
      },
      {
        "netclass": "SE50",
        "pattern": "CB1_A"
      },
      {
        "netclass": "SE50",
        "pattern": "CB1_B"
      },
      {
        "netclass": "SE50",
        "pattern": "CB2_A"
      },
      {
        "netclass": "SE50",
        "pattern": "CB2_B"
      },
      {
        "netclass": "SE50",
        "pattern": "CB3_A"
      },
      {
        "netclass": "SE50",
        "pattern": "CB3_B"
      },
      {
        "netclass": "SE50",
        "pattern": "CB4_A"
      },
      {
        "netclass": "SE50",
        "pattern": "CB4_B"
      },
      {
        "netclass": "SE50",
        "pattern": "CB5_A"
      },
      {
        "netclass": "SE50",
        "pattern": "CB5_B"
      },
      {
        "netclass": "SE50",
        "pattern": "CB6_A"
      },
      {
        "netclass": "SE50",
        "pattern": "CB6_B"
      },
      {
        "netclass": "SE50",
        "pattern": "CB7_A"
      },
      {
        "netclass": "SE50",
        "pattern": "CB7_B"
      },
      {
        "netclass": "SE50",
        "pattern": "CS0_A_N"
      },
      {
        "netclass": "SE50",
        "pattern": "CS0_B_N"
      },
      {
        "netclass": "SE50",
        "pattern": "CS1_A_N"
      },
      {
        "netclass": "SE50",
        "pattern": "CS1_B_N"
      },
      {
        "netclass": "SE50",
        "pattern": "DLBDQ"
      },
      {
        "netclass": "SE50",
        "pattern": "DLBDQS"
      },
      {
        "netclass": "SE50",
        "pattern": "PAR_A"
      },
      {
        "netclass": "SE50",
        "pattern": "PAR_B"
      },
      {
        "netclass": "SE50",
        "pattern": "RESET_N"
      },
      {
        "netclass": "USB",
        "pattern": "DBG_USB_N"
      },
      {
        "netclass": "USB",
        "pattern": "DBG_USB_P"
      },
      {
        "netclass": "Z=100",
        "pattern": "/Ethernet/ETH1_N"
      },
      {
        "netclass": "Z=100",
        "pattern": "/Ethernet/ETH1_P"
      },
      {
        "netclass": "Z=100",
        "pattern": "/Ethernet/ETH2_N"
      },
      {
        "netclass": "Z=100",
        "pattern": "/Ethernet/ETH2_P"
      },
      {
        "netclass": "Z=100",
        "pattern": "/Ethernet/ETH3_N"
      },
      {
        "netclass": "Z=100",
        "pattern": "/Ethernet/ETH3_P"
      },
      {
        "netclass": "Z=100",
        "pattern": "/Ethernet/ETH4_N"
      },
      {
        "netclass": "Z=100",
        "pattern": "/Ethernet/ETH4_P"
      },
      {
        "netclass": "Z=100",
        "pattern": "C_TMDS_CLK_N"
      },
      {
        "netclass": "Z=100",
        "pattern": "C_TMDS_CLK_P"
      },
      {
        "netclass": "Z=100",
        "pattern": "C_TMDS_D0_N"
      },
      {
        "netclass": "Z=100",
        "pattern": "C_TMDS_D0_P"
      },
      {
        "netclass": "Z=100",
        "pattern": "C_TMDS_D1_N"
      },
      {
        "netclass": "Z=100",
        "pattern": "C_TMDS_D1_P"
      },
      {
        "netclass": "Z=100",
        "pattern": "C_TMDS_D2_N"
      },
      {
        "netclass": "Z=100",
        "pattern": "C_TMDS_D2_P"
      },
      {
        "netclass": "Z=100",
        "pattern": "TMDS_CLK_N"
      },
      {
        "netclass": "Z=100",
        "pattern": "TMDS_CLK_P"
      },
      {
        "netclass": "Z=100",
        "pattern": "TMDS_D0_N"
      },
      {
        "netclass": "Z=100",
        "pattern": "TMDS_D0_P"
      },
      {
        "netclass": "Z=100",
        "pattern": "TMDS_D1_N"
      },
      {
        "netclass": "Z=100",
        "pattern": "TMDS_D1_P"
      },
      {
        "netclass": "Z=100",
        "pattern": "TMDS_D2_N"
      },
      {
        "netclass": "Z=100",
        "pattern": "TMDS_D2_P"
      }
    ]
  },
  "pcbnew": {
    "last_paths": {
      "gencad": "",
      "idf": "",
      "netlist": "",
      "specctra_dsn": "",
      "step": "",
      "vrml": "data-center-rdimm-ddr5-tester.wrl"
    },
    "page_layout_descr_file": ""
  },
  "schematic": {
    "annotate_start_num": 0,
    "drawing": {
      "dashed_lines_dash_length_ratio": 12.0,
      "dashed_lines_gap_length_ratio": 3.0,
      "default_line_thickness": 6.0,
      "default_text_size": 50.0,
      "field_names": [],
      "intersheets_ref_own_page": false,
      "intersheets_ref_prefix": "",
      "intersheets_ref_short": false,
      "intersheets_ref_show": false,
      "intersheets_ref_suffix": "",
      "junction_size_choice": 3,
      "label_size_ratio": 0.25,
      "pin_symbol_size": 0.0,
      "text_offset_ratio": 0.08
    },
    "legacy_lib_dir": "",
    "legacy_lib_list": [],
    "meta": {
      "version": 1
    },
    "net_format_name": "Pcbnew",
    "ngspice": {
      "fix_include_paths": true,
      "fix_passive_vals": false,
      "meta": {
        "version": 0
      },
      "model_mode": 0,
      "workbook_filename": ""
    },
    "page_layout_descr_file": "",
    "plot_directory": "./doc",
    "spice_adjust_passive_values": false,
    "spice_current_sheet_as_root": false,
    "spice_external_command": "spice \"%I\"",
    "spice_model_current_sheet_as_root": true,
    "spice_save_all_currents": false,
    "spice_save_all_voltages": false,
    "subpart_first_id": 65,
    "subpart_id_separator": 0
  },
  "sheets": [
    [
      "83c3b3ef-7ad1-4f47-8590-6dd7be28fd08",
      ""
    ],
    [
      "00000000-0000-0000-0000-00005fea2994",
      "HyperRAM"
    ],
    [
      "00000000-0000-0000-0000-00005fd53c7d",
      "Config SPI flash"
    ],
    [
      "00000000-0000-0000-0000-000061827943",
      "DDR5"
    ],
    [
      "00000000-0000-0000-0000-0000600295c1",
      "FPGA power"
    ],
    [
      "00000000-0000-0000-0000-0000600e76d8",
      "Interfaces"
    ],
    [
      "00000000-0000-0000-0000-000061af7ff2",
      "FPGA banks 12-15"
    ],
    [
      "00000000-0000-0000-0000-00005f982999",
      "Ethernet"
    ],
    [
      "00000000-0000-0000-0000-000061b4860c",
      "FPGA banks 16-34"
    ],
    [
      "00000000-0000-0000-0000-000060225b0c",
      "Supply"
    ]
  ],
  "text_variables": {}
}
