(kicad_sch (version 20230121) (generator eeschema)

  (uuid 1d063d80-606f-4d65-ae35-f0a4178a87de)

  (paper "A4")

  (title_block
    (title "Control")
    (date "2023-02-21")
    (rev "1.0.0")
    (company "The A-Team (RC SSL)")
    (comment 1 "W. Stuckey & R. Osawa")
  )

  (lib_symbols
    (symbol "AT-Transistors:Q_PMOS_SGD_PowerPAK" (pin_names (offset 0) hide) (in_bom yes) (on_board yes)
      (property "Reference" "Q" (at 5.08 1.27 0)
        (effects (font (size 1.27 1.27)) (justify left))
      )
      (property "Value" "Q_PMOS_SGD_PowerPAK" (at 5.08 -1.27 0)
        (effects (font (size 1.27 1.27)) (justify left))
      )
      (property "Footprint" "" (at 5.08 2.54 0)
        (effects (font (size 1.27 1.27)) hide)
      )
      (property "Datasheet" "~" (at 0 0 0)
        (effects (font (size 1.27 1.27)) hide)
      )
      (property "ki_keywords" "transistor PMOS P-MOS P-MOSFET" (at 0 0 0)
        (effects (font (size 1.27 1.27)) hide)
      )
      (property "ki_description" "P-MOSFET transistor, source/gate/drain" (at 0 0 0)
        (effects (font (size 1.27 1.27)) hide)
      )
      (symbol "Q_PMOS_SGD_PowerPAK_0_1"
        (polyline
          (pts
            (xy 0.254 0)
            (xy -2.54 0)
          )
          (stroke (width 0) (type default))
          (fill (type none))
        )
        (polyline
          (pts
            (xy 0.254 0)
            (xy -2.54 0)
          )
          (stroke (width 0) (type default))
          (fill (type none))
        )
        (polyline
          (pts
            (xy 0.254 1.905)
            (xy 0.254 -1.905)
          )
          (stroke (width 0.254) (type default))
          (fill (type none))
        )
        (polyline
          (pts
            (xy 0.762 -1.27)
            (xy 0.762 -2.286)
          )
          (stroke (width 0.254) (type default))
          (fill (type none))
        )
        (polyline
          (pts
            (xy 0.762 0.508)
            (xy 0.762 -0.508)
          )
          (stroke (width 0.254) (type default))
          (fill (type none))
        )
        (polyline
          (pts
            (xy 0.762 2.286)
            (xy 0.762 1.27)
          )
          (stroke (width 0.254) (type default))
          (fill (type none))
        )
        (polyline
          (pts
            (xy 2.54 2.54)
            (xy 2.54 1.778)
          )
          (stroke (width 0) (type default))
          (fill (type none))
        )
        (polyline
          (pts
            (xy 7.62 -2.54)
            (xy 5.08 -2.54)
          )
          (stroke (width 0.1524) (type default))
          (fill (type none))
        )
        (polyline
          (pts
            (xy 2.54 -2.54)
            (xy 2.54 0)
            (xy 0.762 0)
          )
          (stroke (width 0) (type default))
          (fill (type none))
        )
        (polyline
          (pts
            (xy 5.08 -2.54)
            (xy 2.54 -2.54)
            (xy 3.81 -2.54)
          )
          (stroke (width 0.1524) (type default))
          (fill (type none))
        )
        (polyline
          (pts
            (xy 0.762 1.778)
            (xy 3.302 1.778)
            (xy 3.302 -1.778)
            (xy 0.762 -1.778)
          )
          (stroke (width 0) (type default))
          (fill (type none))
        )
        (polyline
          (pts
            (xy 2.286 0)
            (xy 1.27 0.381)
            (xy 1.27 -0.381)
            (xy 2.286 0)
          )
          (stroke (width 0) (type default))
          (fill (type outline))
        )
        (polyline
          (pts
            (xy 2.794 -0.508)
            (xy 2.921 -0.381)
            (xy 3.683 -0.381)
            (xy 3.81 -0.254)
          )
          (stroke (width 0) (type default))
          (fill (type none))
        )
        (polyline
          (pts
            (xy 3.302 -0.381)
            (xy 2.921 0.254)
            (xy 3.683 0.254)
            (xy 3.302 -0.381)
          )
          (stroke (width 0) (type default))
          (fill (type none))
        )
        (circle (center 1.651 0) (radius 2.794)
          (stroke (width 0.254) (type default))
          (fill (type none))
        )
        (circle (center 2.54 -2.54) (radius 0.254)
          (stroke (width 0) (type default))
          (fill (type outline))
        )
        (circle (center 2.54 -1.778) (radius 0.254)
          (stroke (width 0) (type default))
          (fill (type outline))
        )
        (circle (center 2.54 1.778) (radius 0.254)
          (stroke (width 0) (type default))
          (fill (type outline))
        )
        (circle (center 5.08 -2.54) (radius 0.254)
          (stroke (width 0) (type default))
          (fill (type outline))
        )
      )
      (symbol "Q_PMOS_SGD_PowerPAK_1_1"
        (pin passive line (at 2.54 -5.08 90) (length 2.54)
          (name "S" (effects (font (size 1.27 1.27))))
          (number "1" (effects (font (size 1.27 1.27))))
        )
        (pin passive line (at 5.08 -5.08 90) (length 2.54)
          (name "S" (effects (font (size 1.27 1.27))))
          (number "2" (effects (font (size 1.27 1.27))))
        )
        (pin passive line (at 7.62 -5.08 90) (length 2.54)
          (name "S" (effects (font (size 1.27 1.27))))
          (number "3" (effects (font (size 1.27 1.27))))
        )
        (pin input line (at -5.08 0 0) (length 5.08)
          (name "G" (effects (font (size 1.27 1.27))))
          (number "4" (effects (font (size 1.27 1.27))))
        )
        (pin passive line (at 2.54 5.08 270) (length 2.54)
          (name "D" (effects (font (size 1.27 1.27))))
          (number "5" (effects (font (size 1.27 1.27))))
        )
      )
    )
    (symbol "Device:C_Polarized_Small_US" (pin_numbers hide) (pin_names (offset 0.254) hide) (in_bom yes) (on_board yes)
      (property "Reference" "C" (at 0.254 1.778 0)
        (effects (font (size 1.27 1.27)) (justify left))
      )
      (property "Value" "C_Polarized_Small_US" (at 0.254 -2.032 0)
        (effects (font (size 1.27 1.27)) (justify left))
      )
      (property "Footprint" "" (at 0 0 0)
        (effects (font (size 1.27 1.27)) hide)
      )
      (property "Datasheet" "~" (at 0 0 0)
        (effects (font (size 1.27 1.27)) hide)
      )
      (property "ki_keywords" "cap capacitor" (at 0 0 0)
        (effects (font (size 1.27 1.27)) hide)
      )
      (property "ki_description" "Polarized capacitor, small US symbol" (at 0 0 0)
        (effects (font (size 1.27 1.27)) hide)
      )
      (property "ki_fp_filters" "CP_*" (at 0 0 0)
        (effects (font (size 1.27 1.27)) hide)
      )
      (symbol "C_Polarized_Small_US_0_1"
        (polyline
          (pts
            (xy -1.524 0.508)
            (xy 1.524 0.508)
          )
          (stroke (width 0.3048) (type default))
          (fill (type none))
        )
        (polyline
          (pts
            (xy -1.27 1.524)
            (xy -0.762 1.524)
          )
          (stroke (width 0) (type default))
          (fill (type none))
        )
        (polyline
          (pts
            (xy -1.016 1.27)
            (xy -1.016 1.778)
          )
          (stroke (width 0) (type default))
          (fill (type none))
        )
        (arc (start 1.524 -0.762) (mid 0 -0.3734) (end -1.524 -0.762)
          (stroke (width 0.3048) (type default))
          (fill (type none))
        )
      )
      (symbol "C_Polarized_Small_US_1_1"
        (pin passive line (at 0 2.54 270) (length 2.032)
          (name "~" (effects (font (size 1.27 1.27))))
          (number "1" (effects (font (size 1.27 1.27))))
        )
        (pin passive line (at 0 -2.54 90) (length 2.032)
          (name "~" (effects (font (size 1.27 1.27))))
          (number "2" (effects (font (size 1.27 1.27))))
        )
      )
    )
    (symbol "Device:C_Small" (pin_numbers hide) (pin_names (offset 0.254) hide) (in_bom yes) (on_board yes)
      (property "Reference" "C" (at 0.254 1.778 0)
        (effects (font (size 1.27 1.27)) (justify left))
      )
      (property "Value" "C_Small" (at 0.254 -2.032 0)
        (effects (font (size 1.27 1.27)) (justify left))
      )
      (property "Footprint" "" (at 0 0 0)
        (effects (font (size 1.27 1.27)) hide)
      )
      (property "Datasheet" "~" (at 0 0 0)
        (effects (font (size 1.27 1.27)) hide)
      )
      (property "ki_keywords" "capacitor cap" (at 0 0 0)
        (effects (font (size 1.27 1.27)) hide)
      )
      (property "ki_description" "Unpolarized capacitor, small symbol" (at 0 0 0)
        (effects (font (size 1.27 1.27)) hide)
      )
      (property "ki_fp_filters" "C_*" (at 0 0 0)
        (effects (font (size 1.27 1.27)) hide)
      )
      (symbol "C_Small_0_1"
        (polyline
          (pts
            (xy -1.524 -0.508)
            (xy 1.524 -0.508)
          )
          (stroke (width 0.3302) (type default))
          (fill (type none))
        )
        (polyline
          (pts
            (xy -1.524 0.508)
            (xy 1.524 0.508)
          )
          (stroke (width 0.3048) (type default))
          (fill (type none))
        )
      )
      (symbol "C_Small_1_1"
        (pin passive line (at 0 2.54 270) (length 2.032)
          (name "~" (effects (font (size 1.27 1.27))))
          (number "1" (effects (font (size 1.27 1.27))))
        )
        (pin passive line (at 0 -2.54 90) (length 2.032)
          (name "~" (effects (font (size 1.27 1.27))))
          (number "2" (effects (font (size 1.27 1.27))))
        )
      )
    )
    (symbol "Device:D_Schottky_AAK" (pin_names (offset 0) hide) (in_bom yes) (on_board yes)
      (property "Reference" "D" (at 0 2.54 0)
        (effects (font (size 1.27 1.27)))
      )
      (property "Value" "D_Schottky_AAK" (at 0 -2.54 0)
        (effects (font (size 1.27 1.27)))
      )
      (property "Footprint" "" (at 0 0 0)
        (effects (font (size 1.27 1.27)) hide)
      )
      (property "Datasheet" "~" (at 0 0 0)
        (effects (font (size 1.27 1.27)) hide)
      )
      (property "ki_keywords" "diode Schottky SCHDPAK" (at 0 0 0)
        (effects (font (size 1.27 1.27)) hide)
      )
      (property "ki_description" "Schottky diode, anode on pins 1 and 2" (at 0 0 0)
        (effects (font (size 1.27 1.27)) hide)
      )
      (property "ki_fp_filters" "TO-???* *_Diode_* *SingleDiode* D_*" (at 0 0 0)
        (effects (font (size 1.27 1.27)) hide)
      )
      (symbol "D_Schottky_AAK_0_1"
        (polyline
          (pts
            (xy 1.27 1.27)
            (xy 1.27 -1.27)
            (xy -1.27 0)
            (xy 1.27 1.27)
          )
          (stroke (width 0.254) (type default))
          (fill (type none))
        )
        (polyline
          (pts
            (xy 3.81 2.54)
            (xy 2.54 2.54)
            (xy 2.54 0)
            (xy -1.27 0)
          )
          (stroke (width 0) (type default))
          (fill (type none))
        )
        (polyline
          (pts
            (xy -1.905 0.635)
            (xy -1.905 1.27)
            (xy -1.27 1.27)
            (xy -1.27 -1.27)
            (xy -0.635 -1.27)
            (xy -0.635 -0.635)
          )
          (stroke (width 0.254) (type default))
          (fill (type none))
        )
        (circle (center 2.54 0) (radius 0.254)
          (stroke (width 0) (type default))
          (fill (type outline))
        )
      )
      (symbol "D_Schottky_AAK_1_1"
        (pin passive line (at 5.08 2.54 180) (length 2.54)
          (name "A" (effects (font (size 1.27 1.27))))
          (number "1" (effects (font (size 1.27 1.27))))
        )
        (pin passive line (at 5.08 0 180) (length 2.54)
          (name "A" (effects (font (size 1.27 1.27))))
          (number "2" (effects (font (size 1.27 1.27))))
        )
        (pin passive line (at -3.81 0 0) (length 2.54)
          (name "K" (effects (font (size 1.27 1.27))))
          (number "3" (effects (font (size 1.27 1.27))))
        )
      )
    )
    (symbol "Device:Fuse" (pin_numbers hide) (pin_names (offset 0)) (in_bom yes) (on_board yes)
      (property "Reference" "F" (at 2.032 0 90)
        (effects (font (size 1.27 1.27)))
      )
      (property "Value" "Fuse" (at -1.905 0 90)
        (effects (font (size 1.27 1.27)))
      )
      (property "Footprint" "" (at -1.778 0 90)
        (effects (font (size 1.27 1.27)) hide)
      )
      (property "Datasheet" "~" (at 0 0 0)
        (effects (font (size 1.27 1.27)) hide)
      )
      (property "ki_keywords" "fuse" (at 0 0 0)
        (effects (font (size 1.27 1.27)) hide)
      )
      (property "ki_description" "Fuse" (at 0 0 0)
        (effects (font (size 1.27 1.27)) hide)
      )
      (property "ki_fp_filters" "*Fuse*" (at 0 0 0)
        (effects (font (size 1.27 1.27)) hide)
      )
      (symbol "Fuse_0_1"
        (rectangle (start -0.762 -2.54) (end 0.762 2.54)
          (stroke (width 0.254) (type default))
          (fill (type none))
        )
        (polyline
          (pts
            (xy 0 2.54)
            (xy 0 -2.54)
          )
          (stroke (width 0) (type default))
          (fill (type none))
        )
      )
      (symbol "Fuse_1_1"
        (pin passive line (at 0 3.81 270) (length 1.27)
          (name "~" (effects (font (size 1.27 1.27))))
          (number "1" (effects (font (size 1.27 1.27))))
        )
        (pin passive line (at 0 -3.81 90) (length 1.27)
          (name "~" (effects (font (size 1.27 1.27))))
          (number "2" (effects (font (size 1.27 1.27))))
        )
      )
    )
    (symbol "Device:L" (pin_numbers hide) (pin_names (offset 1.016) hide) (in_bom yes) (on_board yes)
      (property "Reference" "L" (at -1.27 0 90)
        (effects (font (size 1.27 1.27)))
      )
      (property "Value" "L" (at 1.905 0 90)
        (effects (font (size 1.27 1.27)))
      )
      (property "Footprint" "" (at 0 0 0)
        (effects (font (size 1.27 1.27)) hide)
      )
      (property "Datasheet" "~" (at 0 0 0)
        (effects (font (size 1.27 1.27)) hide)
      )
      (property "ki_keywords" "inductor choke coil reactor magnetic" (at 0 0 0)
        (effects (font (size 1.27 1.27)) hide)
      )
      (property "ki_description" "Inductor" (at 0 0 0)
        (effects (font (size 1.27 1.27)) hide)
      )
      (property "ki_fp_filters" "Choke_* *Coil* Inductor_* L_*" (at 0 0 0)
        (effects (font (size 1.27 1.27)) hide)
      )
      (symbol "L_0_1"
        (arc (start 0 -2.54) (mid 0.6323 -1.905) (end 0 -1.27)
          (stroke (width 0) (type default))
          (fill (type none))
        )
        (arc (start 0 -1.27) (mid 0.6323 -0.635) (end 0 0)
          (stroke (width 0) (type default))
          (fill (type none))
        )
        (arc (start 0 0) (mid 0.6323 0.635) (end 0 1.27)
          (stroke (width 0) (type default))
          (fill (type none))
        )
        (arc (start 0 1.27) (mid 0.6323 1.905) (end 0 2.54)
          (stroke (width 0) (type default))
          (fill (type none))
        )
      )
      (symbol "L_1_1"
        (pin passive line (at 0 3.81 270) (length 1.27)
          (name "1" (effects (font (size 1.27 1.27))))
          (number "1" (effects (font (size 1.27 1.27))))
        )
        (pin passive line (at 0 -3.81 90) (length 1.27)
          (name "2" (effects (font (size 1.27 1.27))))
          (number "2" (effects (font (size 1.27 1.27))))
        )
      )
    )
    (symbol "Device:R_Small_US" (pin_numbers hide) (pin_names (offset 0.254) hide) (in_bom yes) (on_board yes)
      (property "Reference" "R" (at 0.762 0.508 0)
        (effects (font (size 1.27 1.27)) (justify left))
      )
      (property "Value" "R_Small_US" (at 0.762 -1.016 0)
        (effects (font (size 1.27 1.27)) (justify left))
      )
      (property "Footprint" "" (at 0 0 0)
        (effects (font (size 1.27 1.27)) hide)
      )
      (property "Datasheet" "~" (at 0 0 0)
        (effects (font (size 1.27 1.27)) hide)
      )
      (property "ki_keywords" "r resistor" (at 0 0 0)
        (effects (font (size 1.27 1.27)) hide)
      )
      (property "ki_description" "Resistor, small US symbol" (at 0 0 0)
        (effects (font (size 1.27 1.27)) hide)
      )
      (property "ki_fp_filters" "R_*" (at 0 0 0)
        (effects (font (size 1.27 1.27)) hide)
      )
      (symbol "R_Small_US_1_1"
        (polyline
          (pts
            (xy 0 0)
            (xy 1.016 -0.381)
            (xy 0 -0.762)
            (xy -1.016 -1.143)
            (xy 0 -1.524)
          )
          (stroke (width 0) (type default))
          (fill (type none))
        )
        (polyline
          (pts
            (xy 0 1.524)
            (xy 1.016 1.143)
            (xy 0 0.762)
            (xy -1.016 0.381)
            (xy 0 0)
          )
          (stroke (width 0) (type default))
          (fill (type none))
        )
        (pin passive line (at 0 2.54 270) (length 1.016)
          (name "~" (effects (font (size 1.27 1.27))))
          (number "1" (effects (font (size 1.27 1.27))))
        )
        (pin passive line (at 0 -2.54 90) (length 1.016)
          (name "~" (effects (font (size 1.27 1.27))))
          (number "2" (effects (font (size 1.27 1.27))))
        )
      )
    )
    (symbol "Device:R_US" (pin_numbers hide) (pin_names (offset 0)) (in_bom yes) (on_board yes)
      (property "Reference" "R" (at 2.54 0 90)
        (effects (font (size 1.27 1.27)))
      )
      (property "Value" "R_US" (at -2.54 0 90)
        (effects (font (size 1.27 1.27)))
      )
      (property "Footprint" "" (at 1.016 -0.254 90)
        (effects (font (size 1.27 1.27)) hide)
      )
      (property "Datasheet" "~" (at 0 0 0)
        (effects (font (size 1.27 1.27)) hide)
      )
      (property "ki_keywords" "R res resistor" (at 0 0 0)
        (effects (font (size 1.27 1.27)) hide)
      )
      (property "ki_description" "Resistor, US symbol" (at 0 0 0)
        (effects (font (size 1.27 1.27)) hide)
      )
      (property "ki_fp_filters" "R_*" (at 0 0 0)
        (effects (font (size 1.27 1.27)) hide)
      )
      (symbol "R_US_0_1"
        (polyline
          (pts
            (xy 0 -2.286)
            (xy 0 -2.54)
          )
          (stroke (width 0) (type default))
          (fill (type none))
        )
        (polyline
          (pts
            (xy 0 2.286)
            (xy 0 2.54)
          )
          (stroke (width 0) (type default))
          (fill (type none))
        )
        (polyline
          (pts
            (xy 0 -0.762)
            (xy 1.016 -1.143)
            (xy 0 -1.524)
            (xy -1.016 -1.905)
            (xy 0 -2.286)
          )
          (stroke (width 0) (type default))
          (fill (type none))
        )
        (polyline
          (pts
            (xy 0 0.762)
            (xy 1.016 0.381)
            (xy 0 0)
            (xy -1.016 -0.381)
            (xy 0 -0.762)
          )
          (stroke (width 0) (type default))
          (fill (type none))
        )
        (polyline
          (pts
            (xy 0 2.286)
            (xy 1.016 1.905)
            (xy 0 1.524)
            (xy -1.016 1.143)
            (xy 0 0.762)
          )
          (stroke (width 0) (type default))
          (fill (type none))
        )
      )
      (symbol "R_US_1_1"
        (pin passive line (at 0 3.81 270) (length 1.27)
          (name "~" (effects (font (size 1.27 1.27))))
          (number "1" (effects (font (size 1.27 1.27))))
        )
        (pin passive line (at 0 -3.81 90) (length 1.27)
          (name "~" (effects (font (size 1.27 1.27))))
          (number "2" (effects (font (size 1.27 1.27))))
        )
      )
    )
    (symbol "Jumper:SolderJumper_2_Bridged" (pin_names (offset 0) hide) (in_bom yes) (on_board yes)
      (property "Reference" "JP" (at 0 2.032 0)
        (effects (font (size 1.27 1.27)))
      )
      (property "Value" "SolderJumper_2_Bridged" (at 0 -2.54 0)
        (effects (font (size 1.27 1.27)))
      )
      (property "Footprint" "" (at 0 0 0)
        (effects (font (size 1.27 1.27)) hide)
      )
      (property "Datasheet" "~" (at 0 0 0)
        (effects (font (size 1.27 1.27)) hide)
      )
      (property "ki_keywords" "solder jumper SPST" (at 0 0 0)
        (effects (font (size 1.27 1.27)) hide)
      )
      (property "ki_description" "Solder Jumper, 2-pole, closed/bridged" (at 0 0 0)
        (effects (font (size 1.27 1.27)) hide)
      )
      (property "ki_fp_filters" "SolderJumper*Bridged*" (at 0 0 0)
        (effects (font (size 1.27 1.27)) hide)
      )
      (symbol "SolderJumper_2_Bridged_0_1"
        (rectangle (start -0.508 0.508) (end 0.508 -0.508)
          (stroke (width 0) (type default))
          (fill (type outline))
        )
        (arc (start -0.254 1.016) (mid -1.2656 0) (end -0.254 -1.016)
          (stroke (width 0) (type default))
          (fill (type none))
        )
        (arc (start -0.254 1.016) (mid -1.2656 0) (end -0.254 -1.016)
          (stroke (width 0) (type default))
          (fill (type outline))
        )
        (polyline
          (pts
            (xy -0.254 1.016)
            (xy -0.254 -1.016)
          )
          (stroke (width 0) (type default))
          (fill (type none))
        )
        (polyline
          (pts
            (xy 0.254 1.016)
            (xy 0.254 -1.016)
          )
          (stroke (width 0) (type default))
          (fill (type none))
        )
        (arc (start 0.254 -1.016) (mid 1.2656 0) (end 0.254 1.016)
          (stroke (width 0) (type default))
          (fill (type none))
        )
        (arc (start 0.254 -1.016) (mid 1.2656 0) (end 0.254 1.016)
          (stroke (width 0) (type default))
          (fill (type outline))
        )
      )
      (symbol "SolderJumper_2_Bridged_1_1"
        (pin passive line (at -3.81 0 0) (length 2.54)
          (name "A" (effects (font (size 1.27 1.27))))
          (number "1" (effects (font (size 1.27 1.27))))
        )
        (pin passive line (at 3.81 0 180) (length 2.54)
          (name "B" (effects (font (size 1.27 1.27))))
          (number "2" (effects (font (size 1.27 1.27))))
        )
      )
    )
    (symbol "ltc_regulators:LTC3864" (in_bom yes) (on_board yes)
      (property "Reference" "U" (at -6.35 -15.24 0)
        (effects (font (size 1.27 1.27)))
      )
      (property "Value" "LTC3864" (at 0 15.24 0)
        (effects (font (size 1.27 1.27)))
      )
      (property "Footprint" "" (at -5.08 0 0)
        (effects (font (size 1.27 1.27)) hide)
      )
      (property "Datasheet" "" (at -5.08 0 0)
        (effects (font (size 1.27 1.27)) hide)
      )
      (symbol "LTC3864_0_1"
        (rectangle (start -8.89 13.97) (end 8.89 -13.97)
          (stroke (width 0.1524) (type default))
          (fill (type background))
        )
      )
      (symbol "LTC3864_1_1"
        (pin input line (at -11.43 2.54 0) (length 2.54)
          (name "PLLIN/MODE" (effects (font (size 1.27 1.27))))
          (number "1" (effects (font (size 1.27 1.27))))
        )
        (pin input line (at 11.43 7.62 180) (length 2.54)
          (name "SENSE" (effects (font (size 1.27 1.27))))
          (number "10" (effects (font (size 1.27 1.27))))
        )
        (pin power_in line (at 11.43 12.7 180) (length 2.54)
          (name "V_{IN}" (effects (font (size 1.27 1.27))))
          (number "11" (effects (font (size 1.27 1.27))))
        )
        (pin output line (at 11.43 2.54 180) (length 2.54)
          (name "GATE" (effects (font (size 1.27 1.27))))
          (number "12" (effects (font (size 1.27 1.27))))
        )
        (pin power_in line (at 0 -16.51 90) (length 2.54)
          (name "PGND" (effects (font (size 1.27 1.27))))
          (number "13" (effects (font (size 1.27 1.27))))
        )
        (pin passive line (at -11.43 -7.62 0) (length 2.54)
          (name "FREQ" (effects (font (size 1.27 1.27))))
          (number "2" (effects (font (size 1.27 1.27))))
        )
        (pin power_in line (at 11.43 -12.7 180) (length 2.54)
          (name "SGND" (effects (font (size 1.27 1.27))))
          (number "3" (effects (font (size 1.27 1.27))))
        )
        (pin bidirectional line (at -11.43 -2.54 0) (length 2.54)
          (name "SS" (effects (font (size 1.27 1.27))))
          (number "4" (effects (font (size 1.27 1.27))))
        )
        (pin input line (at 11.43 -2.54 180) (length 2.54)
          (name "V_{FB}" (effects (font (size 1.27 1.27))))
          (number "5" (effects (font (size 1.27 1.27))))
        )
        (pin bidirectional line (at 11.43 -7.62 180) (length 2.54)
          (name "ITH" (effects (font (size 1.27 1.27))))
          (number "6" (effects (font (size 1.27 1.27))))
        )
        (pin bidirectional line (at -11.43 -12.7 0) (length 2.54)
          (name "PGOOD" (effects (font (size 1.27 1.27))))
          (number "7" (effects (font (size 1.27 1.27))))
        )
        (pin input line (at -11.43 7.62 0) (length 2.54)
          (name "RUN" (effects (font (size 1.27 1.27))))
          (number "8" (effects (font (size 1.27 1.27))))
        )
        (pin bidirectional line (at -11.43 12.7 0) (length 2.54)
          (name "CAP" (effects (font (size 1.27 1.27))))
          (number "9" (effects (font (size 1.27 1.27))))
        )
      )
    )
    (symbol "power:GND" (power) (pin_names (offset 0)) (in_bom yes) (on_board yes)
      (property "Reference" "#PWR" (at 0 -6.35 0)
        (effects (font (size 1.27 1.27)) hide)
      )
      (property "Value" "GND" (at 0 -3.81 0)
        (effects (font (size 1.27 1.27)))
      )
      (property "Footprint" "" (at 0 0 0)
        (effects (font (size 1.27 1.27)) hide)
      )
      (property "Datasheet" "" (at 0 0 0)
        (effects (font (size 1.27 1.27)) hide)
      )
      (property "ki_keywords" "global power" (at 0 0 0)
        (effects (font (size 1.27 1.27)) hide)
      )
      (property "ki_description" "Power symbol creates a global label with name \"GND\" , ground" (at 0 0 0)
        (effects (font (size 1.27 1.27)) hide)
      )
      (symbol "GND_0_1"
        (polyline
          (pts
            (xy 0 0)
            (xy 0 -1.27)
            (xy 1.27 -1.27)
            (xy 0 -2.54)
            (xy -1.27 -1.27)
            (xy 0 -1.27)
          )
          (stroke (width 0) (type default))
          (fill (type none))
        )
      )
      (symbol "GND_1_1"
        (pin power_in line (at 0 0 270) (length 0) hide
          (name "GND" (effects (font (size 1.27 1.27))))
          (number "1" (effects (font (size 1.27 1.27))))
        )
      )
    )
    (symbol "power:PWR_FLAG" (power) (pin_numbers hide) (pin_names (offset 0) hide) (in_bom yes) (on_board yes)
      (property "Reference" "#FLG" (at 0 1.905 0)
        (effects (font (size 1.27 1.27)) hide)
      )
      (property "Value" "PWR_FLAG" (at 0 3.81 0)
        (effects (font (size 1.27 1.27)))
      )
      (property "Footprint" "" (at 0 0 0)
        (effects (font (size 1.27 1.27)) hide)
      )
      (property "Datasheet" "~" (at 0 0 0)
        (effects (font (size 1.27 1.27)) hide)
      )
      (property "ki_keywords" "flag power" (at 0 0 0)
        (effects (font (size 1.27 1.27)) hide)
      )
      (property "ki_description" "Special symbol for telling ERC where power comes from" (at 0 0 0)
        (effects (font (size 1.27 1.27)) hide)
      )
      (symbol "PWR_FLAG_0_0"
        (pin power_out line (at 0 0 90) (length 0)
          (name "pwr" (effects (font (size 1.27 1.27))))
          (number "1" (effects (font (size 1.27 1.27))))
        )
      )
      (symbol "PWR_FLAG_0_1"
        (polyline
          (pts
            (xy 0 0)
            (xy 0 1.27)
            (xy -1.016 1.905)
            (xy 0 2.54)
            (xy 1.016 1.905)
            (xy 0 1.27)
          )
          (stroke (width 0) (type default))
          (fill (type none))
        )
      )
    )
  )

  (junction (at 151.13 29.21) (diameter 0) (color 0 0 0 0)
    (uuid 103d74a1-d5ac-4df5-af88-0b2e1262bea4)
  )
  (junction (at 151.13 26.67) (diameter 0) (color 0 0 0 0)
    (uuid 17d581dc-7dc2-4989-b8de-3074b3a9644c)
  )
  (junction (at 214.63 39.37) (diameter 0) (color 0 0 0 0)
    (uuid 1d444c52-c29b-435e-908f-980d2ccd20aa)
  )
  (junction (at 214.63 29.21) (diameter 0) (color 0 0 0 0)
    (uuid 2da8a02c-3bd0-45ec-a3b5-1ed7a20b436b)
  )
  (junction (at 193.04 29.21) (diameter 0) (color 0 0 0 0)
    (uuid 2fc13f8d-cd64-4b46-9566-c918f1a93a20)
  )
  (junction (at 167.64 41.91) (diameter 0) (color 0 0 0 0)
    (uuid 3a0d7442-c448-4bb2-bd89-e39578a10280)
  )
  (junction (at 138.43 34.29) (diameter 0) (color 0 0 0 0)
    (uuid 412760db-68a4-49d4-9ba4-fddc4f31a40b)
  )
  (junction (at 93.98 29.21) (diameter 0) (color 0 0 0 0)
    (uuid 473a1ef3-7dc3-4179-8c4a-580ee5aee0da)
  )
  (junction (at 129.54 41.91) (diameter 0) (color 0 0 0 0)
    (uuid 5457024b-07d2-4049-a0f2-1845b330c7af)
  )
  (junction (at 228.6 39.37) (diameter 0) (color 0 0 0 0)
    (uuid 55f8f76a-1be5-4228-8a9d-14fb49dd0cac)
  )
  (junction (at 44.45 29.21) (diameter 0) (color 0 0 0 0)
    (uuid 5dacd178-48cd-43e3-b69b-55543de663a2)
  )
  (junction (at 39.37 29.21) (diameter 0) (color 0 0 0 0)
    (uuid 638a5592-1026-48b1-9dec-b8c949a9ac24)
  )
  (junction (at 143.51 29.21) (diameter 0) (color 0 0 0 0)
    (uuid 6d79619c-478f-4b5e-a1a4-af80c241efb4)
  )
  (junction (at 200.66 29.21) (diameter 0) (color 0 0 0 0)
    (uuid 717433a3-f5e6-45bd-953f-13424010e8bd)
  )
  (junction (at 133.35 62.23) (diameter 0) (color 0 0 0 0)
    (uuid 776e1d1b-f9af-4ab6-9084-6bf82bf6a536)
  )
  (junction (at 133.35 80.01) (diameter 0) (color 0 0 0 0)
    (uuid 7ed989b5-57d4-4ea1-a0f2-f340f99fd9ec)
  )
  (junction (at 129.54 80.01) (diameter 0) (color 0 0 0 0)
    (uuid 87a7ed3b-c14e-4af8-b644-b05ba3131e8c)
  )
  (junction (at 68.58 29.21) (diameter 0) (color 0 0 0 0)
    (uuid 91e4a24f-45f1-484a-8e20-0cf190749155)
  )
  (junction (at 193.04 57.15) (diameter 0) (color 0 0 0 0)
    (uuid 99132f54-5354-42cd-955d-e87b439f01e6)
  )
  (junction (at 167.64 29.21) (diameter 0) (color 0 0 0 0)
    (uuid 9a664c51-a92d-4b6d-89cd-7a5d075a79dc)
  )
  (junction (at 160.02 38.1) (diameter 0) (color 0 0 0 0)
    (uuid 9d05602c-7e29-495b-bffc-a6612893f09a)
  )
  (junction (at 129.54 29.21) (diameter 0) (color 0 0 0 0)
    (uuid 9ef4e8c2-2e02-42b5-b3a0-aa2e1eb609d7)
  )
  (junction (at 143.51 34.29) (diameter 0) (color 0 0 0 0)
    (uuid aaa27faf-b80b-433d-805e-88a86228aeb1)
  )
  (junction (at 138.43 29.21) (diameter 0) (color 0 0 0 0)
    (uuid b2d52f7f-d74e-40ca-be0d-c97ecb5c87e8)
  )
  (junction (at 53.34 29.21) (diameter 0) (color 0 0 0 0)
    (uuid c6eb9717-84e6-42a5-9cde-4262f0322005)
  )
  (junction (at 45.72 67.31) (diameter 0) (color 0 0 0 0)
    (uuid cdc8fc37-b0ea-4618-b1d5-c8643f586f43)
  )
  (junction (at 147.32 29.21) (diameter 0) (color 0 0 0 0)
    (uuid dca4757c-2cfb-49da-892d-7ed3207bcb0e)
  )
  (junction (at 134.62 29.21) (diameter 0) (color 0 0 0 0)
    (uuid eb23e621-f9f7-41a3-a55e-84e88a96237a)
  )
  (junction (at 228.6 29.21) (diameter 0) (color 0 0 0 0)
    (uuid fe78b31e-73c8-476e-b32a-208e3ff5e17f)
  )

  (no_connect (at 104.14 52.07) (uuid 1a669d75-34bc-44e1-a6c8-83cda9dde846))
  (no_connect (at 104.14 62.23) (uuid 23f3b1f0-89b4-4370-9480-38c06c69a06b))
  (no_connect (at 104.14 57.15) (uuid 421ae7d7-76b8-4390-b24a-cf4d6d64cbda))

  (wire (pts (xy 129.54 80.01) (xy 129.54 81.28))
    (stroke (width 0) (type default))
    (uuid 010ec1cd-3288-4ba2-99c2-4e33a68fa530)
  )
  (wire (pts (xy 148.59 77.47) (xy 148.59 80.01))
    (stroke (width 0) (type default))
    (uuid 0519c4cf-ea31-4f00-b18c-a191606ce155)
  )
  (wire (pts (xy 127 62.23) (xy 133.35 62.23))
    (stroke (width 0) (type default))
    (uuid 05ad695b-376d-4645-98d9-981701842f56)
  )
  (wire (pts (xy 127 46.99) (xy 143.51 46.99))
    (stroke (width 0) (type default))
    (uuid 0659bc46-c8ef-46bf-b3c2-22568f8a874a)
  )
  (wire (pts (xy 45.72 77.47) (xy 45.72 80.01))
    (stroke (width 0) (type default))
    (uuid 0da696ff-b9af-4b3f-a5b4-9e831eb50703)
  )
  (wire (pts (xy 68.58 36.83) (xy 68.58 38.1))
    (stroke (width 0) (type default))
    (uuid 1166c814-40f1-4155-9d13-317983890f47)
  )
  (wire (pts (xy 193.04 54.61) (xy 193.04 57.15))
    (stroke (width 0) (type solid))
    (uuid 116a0ff4-7e2a-4682-95b2-bd785d60c766)
  )
  (wire (pts (xy 154.94 24.13) (xy 151.13 24.13))
    (stroke (width 0) (type default))
    (uuid 132c3395-3313-4700-b784-22717a97e4cd)
  )
  (wire (pts (xy 165.1 29.21) (xy 167.64 29.21))
    (stroke (width 0) (type default))
    (uuid 15e201e4-fe92-4121-af7e-0ae13c3a0eda)
  )
  (wire (pts (xy 133.35 62.23) (xy 133.35 72.39))
    (stroke (width 0) (type default))
    (uuid 1709999b-094f-4dc0-bb50-559f2984821c)
  )
  (wire (pts (xy 143.51 29.21) (xy 147.32 29.21))
    (stroke (width 0) (type default))
    (uuid 19569f79-1253-4b80-ac83-7788e3467508)
  )
  (wire (pts (xy 93.98 29.21) (xy 129.54 29.21))
    (stroke (width 0) (type default))
    (uuid 1de3d250-0445-47ca-8323-d161f668f93f)
  )
  (wire (pts (xy 200.66 29.21) (xy 200.66 31.75))
    (stroke (width 0) (type solid))
    (uuid 1e62ca92-3528-414d-bebc-049de3c1ef6f)
  )
  (wire (pts (xy 151.13 38.1) (xy 160.02 38.1))
    (stroke (width 0) (type default))
    (uuid 1e677187-62c5-41e1-9c11-7ae69d47be2c)
  )
  (wire (pts (xy 127 52.07) (xy 160.02 52.07))
    (stroke (width 0) (type default))
    (uuid 23353d52-0718-4ca0-a195-b9439237eeab)
  )
  (wire (pts (xy 93.98 41.91) (xy 104.14 41.91))
    (stroke (width 0) (type default))
    (uuid 23da6da4-a14a-419b-b6a4-c73c153a4ce7)
  )
  (wire (pts (xy 151.13 29.21) (xy 151.13 31.75))
    (stroke (width 0) (type default))
    (uuid 298a9fe8-3528-4baa-8dbd-1d8832aebae4)
  )
  (wire (pts (xy 53.34 29.21) (xy 68.58 29.21))
    (stroke (width 0) (type default))
    (uuid 2b95f5d8-44ba-4efa-9a88-f2d86791416d)
  )
  (wire (pts (xy 39.37 36.83) (xy 39.37 38.1))
    (stroke (width 0) (type default))
    (uuid 2d719aa0-eb8a-4c41-bb91-4fccc0086d40)
  )
  (wire (pts (xy 228.6 29.21) (xy 228.6 31.75))
    (stroke (width 0) (type default))
    (uuid 2fd74034-3421-48c9-911d-01a67d60f56b)
  )
  (wire (pts (xy 214.63 29.21) (xy 228.6 29.21))
    (stroke (width 0) (type solid))
    (uuid 324924a3-e2a0-48b6-bded-a20cb6e36c2b)
  )
  (wire (pts (xy 83.82 46.99) (xy 104.14 46.99))
    (stroke (width 0) (type default))
    (uuid 34c445af-414f-4679-ab4c-791afeafd480)
  )
  (wire (pts (xy 252.73 29.21) (xy 257.81 29.21))
    (stroke (width 0) (type default))
    (uuid 35e371e7-7aec-49ef-9985-d4680775774a)
  )
  (wire (pts (xy 68.58 29.21) (xy 93.98 29.21))
    (stroke (width 0) (type default))
    (uuid 3e7420ac-c2e4-4cd4-847c-654571d782af)
  )
  (wire (pts (xy 193.04 64.77) (xy 193.04 66.04))
    (stroke (width 0) (type default))
    (uuid 409e0cb5-4e0d-4d23-922f-f4233bc2c2d8)
  )
  (wire (pts (xy 200.66 29.21) (xy 214.63 29.21))
    (stroke (width 0) (type solid))
    (uuid 4896af30-7ff7-4d52-9582-93819c9a2a23)
  )
  (wire (pts (xy 39.37 29.21) (xy 44.45 29.21))
    (stroke (width 0) (type solid))
    (uuid 4d5bf021-1e12-43a2-9343-40fde675fe27)
  )
  (wire (pts (xy 214.63 29.21) (xy 214.63 31.75))
    (stroke (width 0) (type default))
    (uuid 530793e1-252f-4655-af2b-1e593e3f152b)
  )
  (wire (pts (xy 133.35 62.23) (xy 148.59 62.23))
    (stroke (width 0) (type default))
    (uuid 5404df7c-0f10-4df3-86c3-ba1a25e39e40)
  )
  (wire (pts (xy 115.57 71.12) (xy 115.57 73.66))
    (stroke (width 0) (type default))
    (uuid 55f44423-5c91-47c9-bd94-3c8c82517d3d)
  )
  (wire (pts (xy 143.51 29.21) (xy 143.51 34.29))
    (stroke (width 0) (type default))
    (uuid 56fde2e4-e4b5-4552-bded-206136298400)
  )
  (wire (pts (xy 129.54 29.21) (xy 129.54 41.91))
    (stroke (width 0) (type default))
    (uuid 57f730b0-d8cd-44b8-a13b-4114bbeaa6bf)
  )
  (wire (pts (xy 127 41.91) (xy 129.54 41.91))
    (stroke (width 0) (type default))
    (uuid 59f5e92b-ab3e-4952-b544-ea7126f62e5f)
  )
  (wire (pts (xy 129.54 67.31) (xy 129.54 80.01))
    (stroke (width 0) (type default))
    (uuid 5cd78ac3-782e-4e94-b25d-5365c6c61016)
  )
  (wire (pts (xy 147.32 31.75) (xy 147.32 29.21))
    (stroke (width 0) (type default))
    (uuid 5db86a62-5907-4cc6-b286-b556807a471a)
  )
  (wire (pts (xy 129.54 41.91) (xy 138.43 41.91))
    (stroke (width 0) (type default))
    (uuid 6142dc46-4622-4d30-bb74-56af1f9a253e)
  )
  (wire (pts (xy 144.78 34.29) (xy 143.51 34.29))
    (stroke (width 0) (type default))
    (uuid 63d0b761-0f91-4b4d-b870-9747259fd014)
  )
  (wire (pts (xy 167.64 41.91) (xy 167.64 43.18))
    (stroke (width 0) (type default))
    (uuid 662ad581-f469-4e67-9ebf-042112901db2)
  )
  (wire (pts (xy 151.13 36.83) (xy 151.13 38.1))
    (stroke (width 0) (type default))
    (uuid 6857a149-9f4a-42d7-9264-4d5092d2416e)
  )
  (wire (pts (xy 31.75 29.21) (xy 39.37 29.21))
    (stroke (width 0) (type solid))
    (uuid 6939ed2a-3f98-4684-80c6-3b74e8aee7a6)
  )
  (wire (pts (xy 53.34 29.21) (xy 53.34 31.75))
    (stroke (width 0) (type solid))
    (uuid 6952423f-bfe8-46a3-8c56-0b04c4810ace)
  )
  (wire (pts (xy 137.16 34.29) (xy 138.43 34.29))
    (stroke (width 0) (type default))
    (uuid 69792989-5bbb-45f2-be08-885469fec692)
  )
  (wire (pts (xy 193.04 29.21) (xy 200.66 29.21))
    (stroke (width 0) (type default))
    (uuid 6e953655-50c1-45bf-802e-ec259aadb73a)
  )
  (wire (pts (xy 53.34 36.83) (xy 53.34 38.1))
    (stroke (width 0) (type default))
    (uuid 712d0f7e-5aee-4ec3-896d-e4496e39fffb)
  )
  (wire (pts (xy 45.72 67.31) (xy 104.14 67.31))
    (stroke (width 0) (type default))
    (uuid 715a10ce-db7b-4077-bc29-02635b0e24b0)
  )
  (wire (pts (xy 228.6 39.37) (xy 228.6 41.91))
    (stroke (width 0) (type default))
    (uuid 728265c5-2d14-4f58-aabe-b2a4f18091f4)
  )
  (wire (pts (xy 228.6 29.21) (xy 245.11 29.21))
    (stroke (width 0) (type default))
    (uuid 7759cee1-33a1-4d7f-9d63-e5344227496b)
  )
  (wire (pts (xy 167.64 40.64) (xy 167.64 41.91))
    (stroke (width 0) (type solid))
    (uuid 7abe7754-4705-44e8-b7e4-c107a7661eae)
  )
  (wire (pts (xy 133.35 77.47) (xy 133.35 80.01))
    (stroke (width 0) (type default))
    (uuid 7b00865d-ed4d-411b-a530-88a06225a8b7)
  )
  (wire (pts (xy 39.37 29.21) (xy 39.37 31.75))
    (stroke (width 0) (type default))
    (uuid 7e654951-1f3d-4c42-af40-7df2e1a23daf)
  )
  (wire (pts (xy 45.72 64.77) (xy 45.72 67.31))
    (stroke (width 0) (type solid))
    (uuid 7e8d0304-fea1-4e80-8faf-2f9eaf2b650e)
  )
  (wire (pts (xy 148.59 69.85) (xy 148.59 72.39))
    (stroke (width 0) (type default))
    (uuid 82710a8a-bd36-4c52-a413-d0cd128faa16)
  )
  (wire (pts (xy 160.02 38.1) (xy 160.02 36.83))
    (stroke (width 0) (type default))
    (uuid 84de9157-466f-4a4b-945b-2fc828d44d09)
  )
  (wire (pts (xy 127 67.31) (xy 129.54 67.31))
    (stroke (width 0) (type default))
    (uuid 8609d5f8-fb53-49f5-881a-877252d97daa)
  )
  (wire (pts (xy 45.72 67.31) (xy 43.18 67.31))
    (stroke (width 0) (type default))
    (uuid 873a49e4-d57e-4ebd-be46-7ef28757b681)
  )
  (wire (pts (xy 93.98 29.21) (xy 93.98 31.75))
    (stroke (width 0) (type default))
    (uuid 875ff6e5-169b-40b7-8f87-2a4f6d2a1b62)
  )
  (wire (pts (xy 129.54 80.01) (xy 133.35 80.01))
    (stroke (width 0) (type default))
    (uuid 877a69fa-5b22-43af-8052-ee36a9cb0a39)
  )
  (wire (pts (xy 170.18 40.64) (xy 170.18 41.91))
    (stroke (width 0) (type default))
    (uuid 8bf8d05b-7e6d-41e9-a352-2bb2d6aac9b3)
  )
  (wire (pts (xy 44.45 29.21) (xy 53.34 29.21))
    (stroke (width 0) (type solid))
    (uuid 8c4f0146-7499-4198-9c19-092e4af944d3)
  )
  (wire (pts (xy 147.32 29.21) (xy 151.13 29.21))
    (stroke (width 0) (type default))
    (uuid 8de1ba60-165e-4acc-947f-c4377671db09)
  )
  (wire (pts (xy 93.98 36.83) (xy 93.98 41.91))
    (stroke (width 0) (type default))
    (uuid 8e60a9ed-ebb0-449c-853d-80a1bd286ce1)
  )
  (wire (pts (xy 133.35 80.01) (xy 148.59 80.01))
    (stroke (width 0) (type default))
    (uuid 8f9d1eca-3abc-4fa6-9028-d72262f87685)
  )
  (wire (pts (xy 45.72 67.31) (xy 45.72 69.85))
    (stroke (width 0) (type default))
    (uuid 9c45c2a1-0586-4b0f-8d55-dcb03b707e21)
  )
  (wire (pts (xy 134.62 29.21) (xy 134.62 31.75))
    (stroke (width 0) (type default))
    (uuid 9ec1a1cd-511e-453e-8a2e-212eb34e0cd1)
  )
  (wire (pts (xy 214.63 39.37) (xy 228.6 39.37))
    (stroke (width 0) (type default))
    (uuid a1a828b4-e9e4-498e-b8cb-a26a463e4ddf)
  )
  (wire (pts (xy 68.58 29.21) (xy 68.58 31.75))
    (stroke (width 0) (type default))
    (uuid a3053299-acc7-49ec-a841-6321a631bfdc)
  )
  (wire (pts (xy 143.51 34.29) (xy 143.51 46.99))
    (stroke (width 0) (type default))
    (uuid a71e6b57-3da3-48d6-a76c-71305b6b3b40)
  )
  (wire (pts (xy 134.62 31.75) (xy 137.16 34.29))
    (stroke (width 0) (type default))
    (uuid a8d69690-f5b6-483f-9720-b9ccd4c29137)
  )
  (wire (pts (xy 151.13 29.21) (xy 154.94 29.21))
    (stroke (width 0) (type default))
    (uuid a9d6a337-f527-481f-9b74-ec54e08d1bf5)
  )
  (wire (pts (xy 200.66 39.37) (xy 214.63 39.37))
    (stroke (width 0) (type default))
    (uuid b04e68a6-3e47-40b1-868a-3ac184baf2ac)
  )
  (wire (pts (xy 144.78 34.29) (xy 147.32 31.75))
    (stroke (width 0) (type default))
    (uuid b3f43afc-7c7a-4aa7-9b78-fc6bc4efd1e1)
  )
  (wire (pts (xy 167.64 29.21) (xy 167.64 31.75))
    (stroke (width 0) (type default))
    (uuid b4f3e3fb-1e8f-4c30-b747-a6f3c0f2ff25)
  )
  (wire (pts (xy 200.66 36.83) (xy 200.66 39.37))
    (stroke (width 0) (type default))
    (uuid b7f65981-5723-4098-b707-10046baba482)
  )
  (wire (pts (xy 193.04 57.15) (xy 193.04 59.69))
    (stroke (width 0) (type solid))
    (uuid c08991de-3be4-4821-bc1b-c868f9209d7d)
  )
  (wire (pts (xy 214.63 36.83) (xy 214.63 39.37))
    (stroke (width 0) (type default))
    (uuid c08b1685-6873-418d-9cbb-b4e2bda860e3)
  )
  (wire (pts (xy 138.43 29.21) (xy 138.43 34.29))
    (stroke (width 0) (type default))
    (uuid c2979902-e6bb-463c-97ca-283e121505f7)
  )
  (wire (pts (xy 167.64 29.21) (xy 176.53 29.21))
    (stroke (width 0) (type default))
    (uuid c3dc40db-46f7-492c-bbec-a3b43784fee9)
  )
  (wire (pts (xy 151.13 26.67) (xy 151.13 29.21))
    (stroke (width 0) (type default))
    (uuid c4628853-b64f-4b48-81e6-59d4efba1469)
  )
  (wire (pts (xy 167.64 41.91) (xy 170.18 41.91))
    (stroke (width 0) (type default))
    (uuid c99636d0-d631-4183-bda3-17719a7210c9)
  )
  (wire (pts (xy 21.59 29.21) (xy 24.13 29.21))
    (stroke (width 0) (type solid))
    (uuid ca91dd40-141c-47d8-8b32-4e4f8740ebf5)
  )
  (wire (pts (xy 134.62 29.21) (xy 138.43 29.21))
    (stroke (width 0) (type default))
    (uuid cb220a1d-6507-4817-96fe-8977dc693cf0)
  )
  (wire (pts (xy 45.72 54.61) (xy 45.72 57.15))
    (stroke (width 0) (type default))
    (uuid d575dd05-cd89-4654-9910-0158b331a20b)
  )
  (wire (pts (xy 40.64 54.61) (xy 45.72 54.61))
    (stroke (width 0) (type default))
    (uuid d62cfdd2-88a7-4575-aa5d-f9627cc3884c)
  )
  (wire (pts (xy 138.43 41.91) (xy 138.43 34.29))
    (stroke (width 0) (type default))
    (uuid d6805a6d-6edd-4403-ba46-72d9b24887e6)
  )
  (wire (pts (xy 184.15 29.21) (xy 193.04 29.21))
    (stroke (width 0) (type default))
    (uuid d72eadb8-324d-46b9-b0d0-af4bf36e60c0)
  )
  (wire (pts (xy 160.02 38.1) (xy 160.02 52.07))
    (stroke (width 0) (type default))
    (uuid e20bf37d-74d3-47c6-ac4f-68bc247061d7)
  )
  (wire (pts (xy 148.59 62.23) (xy 148.59 64.77))
    (stroke (width 0) (type default))
    (uuid e231c8f6-eb1f-4824-a1f9-397f658054a2)
  )
  (wire (pts (xy 151.13 24.13) (xy 151.13 26.67))
    (stroke (width 0) (type default))
    (uuid e3278e10-784d-4394-a17e-22f7c08a2dd0)
  )
  (wire (pts (xy 193.04 29.21) (xy 193.04 49.53))
    (stroke (width 0) (type default))
    (uuid e7a8180e-372e-4b4b-a855-913acfaf43ae)
  )
  (wire (pts (xy 151.13 26.67) (xy 154.94 26.67))
    (stroke (width 0) (type default))
    (uuid eb2ac486-819d-4c59-9189-c0ad91c0e8eb)
  )
  (polyline (pts (xy 15.24 15.24) (xy 15.24 90.17))
    (stroke (width 0) (type dash))
    (uuid ef08a195-2c8a-4bb1-b79b-a84a7f4bd7e8)
  )
  (polyline (pts (xy 15.24 15.24) (xy 281.94 15.24))
    (stroke (width 0) (type dash))
    (uuid ef08a195-2c8a-4bb1-b79b-a84a7f4bd7e9)
  )
  (polyline (pts (xy 15.24 90.17) (xy 281.94 90.17))
    (stroke (width 0) (type dash))
    (uuid ef08a195-2c8a-4bb1-b79b-a84a7f4bd7ea)
  )
  (polyline (pts (xy 281.94 90.17) (xy 281.94 15.24))
    (stroke (width 0) (type dash))
    (uuid ef08a195-2c8a-4bb1-b79b-a84a7f4bd7eb)
  )

  (wire (pts (xy 127 57.15) (xy 193.04 57.15))
    (stroke (width 0) (type default))
    (uuid f2adcfb0-56ce-4e72-91eb-d4625d07be31)
  )
  (wire (pts (xy 228.6 36.83) (xy 228.6 39.37))
    (stroke (width 0) (type default))
    (uuid fa912f6c-d2db-4e73-abef-db5606346823)
  )
  (wire (pts (xy 129.54 29.21) (xy 134.62 29.21))
    (stroke (width 0) (type default))
    (uuid fbf8df88-a58a-45df-852c-fcc0cccd8cb2)
  )
  (wire (pts (xy 44.45 26.67) (xy 44.45 29.21))
    (stroke (width 0) (type default))
    (uuid feb66be3-1ab6-4be1-8a1d-3a25ec01dc07)
  )

  (text "SS\nFloat = No additional ramp time" (at 102.87 58.42 0)
    (effects (font (size 1.27 1.27)) (justify right bottom))
    (uuid 2054f72f-f1e3-4ada-930b-0978dca7c2ae)
  )
  (text "R_{FB1}\n" (at 187.96 60.96 0)
    (effects (font (size 1.27 1.27)) (justify left bottom))
    (uuid 342c4c9e-247f-4031-b21a-d0b0995d6cb4)
  )
  (text "FREQ\nFloat = 535kHz" (at 102.87 63.5 0)
    (effects (font (size 1.27 1.27)) (justify right bottom))
    (uuid 3e43d890-0d4e-467b-a880-58303b731831)
  )
  (text "e.g.:\n63YXM33MEFR6.3X11\nEKZE630ELL330MF11D" (at 36.83 50.8 0)
    (effects (font (size 1.27 1.27)) (justify left bottom))
    (uuid 4513b716-5bb9-41dd-86ca-40bffe5e96b3)
  )
  (text "Kelvin Route" (at 134.62 36.83 0)
    (effects (font (size 1.27 1.27)) (justify left bottom))
    (uuid 6cc79dfd-6b94-4e4d-8e1a-0a37b5b7b728)
  )
  (text "PGOOD Pull-up: ~5.073V" (at 54.61 74.93 0)
    (effects (font (size 1.27 1.27)) (justify left bottom))
    (uuid 6ef55dc2-bc59-4118-a8cc-1fbbb43f656f)
  )
  (text "RUN: Safe to 60V" (at 102.87 46.99 0)
    (effects (font (size 1.27 1.27)) (justify right bottom))
    (uuid 82e17d83-98ad-4093-a076-51bfa8407de0)
  )
  (text "2A" (at 257.81 27.94 0)
    (effects (font (size 1.27 1.27)) (justify left bottom))
    (uuid 886d939b-dff2-4bee-bc3e-ab863bcd8001)
  )
  (text "12V Regulation" (at 17.78 19.05 0)
    (effects (font (size 1.27 1.27)) (justify left bottom))
    (uuid 9d5339a0-09db-40cb-aa96-c5a4176f5bc0)
  )
  (text "e.g.:\n0685T2000-01\nSF-1206S200-2" (at 19.05 38.1 0)
    (effects (font (size 1.27 1.27)) (justify left bottom))
    (uuid a4290419-e361-4768-9387-2a08999dc8df)
  )
  (text "pg. 12\nV_{OUT} = 0.8V * (1 + (R_{FB2} / R_{FB1}))\nV_{OUT} = 11.99V"
    (at 203.2 54.61 0)
    (effects (font (size 1.27 1.27)) (justify left bottom))
    (uuid c875ab22-3246-4f52-88fd-cf57318a4ee5)
  )
  (text "PLLIN/MODE\nFloat = Burst Mode" (at 102.87 53.34 0)
    (effects (font (size 1.27 1.27)) (justify right bottom))
    (uuid cd57c62f-a045-4e13-9719-163609b1bd17)
  )
  (text "R_{FB2}" (at 187.96 50.8 0)
    (effects (font (size 1.27 1.27)) (justify left bottom))
    (uuid ee4d4fea-1dde-47e2-9c42-c14e86e7c8a0)
  )

  (label "12v0" (at 40.64 54.61 180) (fields_autoplaced)
    (effects (font (size 1.27 1.27)) (justify right bottom))
    (uuid 8a9929cc-0760-4e88-8e91-c8c9783484f0)
  )
  (label "V_{SENSE-}" (at 130.81 46.99 0) (fields_autoplaced)
    (effects (font (size 1.27 1.27)) (justify left bottom))
    (uuid a200ef4a-331d-48b1-854d-1515f3ca9636)
  )
  (label "V_{SENSE+}" (at 130.81 41.91 0) (fields_autoplaced)
    (effects (font (size 1.27 1.27)) (justify left bottom))
    (uuid f240d812-0e01-4c44-8015-d96feb62f48e)
  )

  (hierarchical_label "EN" (shape input) (at 83.82 46.99 180) (fields_autoplaced)
    (effects (font (size 1.27 1.27)) (justify right))
    (uuid 2fe6b1cd-9743-43c8-b475-c7a6f424d885)
  )
  (hierarchical_label "V_{IN}" (shape input) (at 21.59 29.21 180) (fields_autoplaced)
    (effects (font (size 1.27 1.27)) (justify right))
    (uuid 70e7effc-a117-45dc-8d2e-2d21e6ef0172)
  )
  (hierarchical_label "PGOOD_{12v0}" (shape output) (at 43.18 67.31 180) (fields_autoplaced)
    (effects (font (size 1.27 1.27)) (justify right))
    (uuid 8416351c-f921-4848-86ff-454dd8611bd0)
  )
  (hierarchical_label "12v0" (shape output) (at 257.81 29.21 0) (fields_autoplaced)
    (effects (font (size 1.27 1.27)) (justify left))
    (uuid 8da33318-17e0-47b1-8ebb-901ddc5926af)
  )

  (symbol (lib_id "Device:R_Small_US") (at 193.04 52.07 0) (unit 1)
    (in_bom yes) (on_board yes) (dnp no) (fields_autoplaced)
    (uuid 0293e95c-a303-4bfd-aa09-ffad453e45a1)
    (property "Reference" "R45" (at 195.58 50.7999 0)
      (effects (font (size 1.27 1.27)) (justify left))
    )
    (property "Value" "845k" (at 195.58 53.3399 0)
      (effects (font (size 1.27 1.27)) (justify left))
    )
    (property "Footprint" "Resistor_SMD:R_0402_1005Metric" (at 193.04 52.07 0)
      (effects (font (size 1.27 1.27)) hide)
    )
    (property "Datasheet" "~" (at 193.04 52.07 0)
      (effects (font (size 1.27 1.27)) hide)
    )
    (pin "1" (uuid 50f981eb-75b7-4ae3-bc50-aab9f66f57ac))
    (pin "2" (uuid 5a464927-dbbe-4d00-baa7-4122328e1388))
    (instances
      (project "control"
        (path "/e63e39d7-6ac0-4ffd-8aa3-1841a4541b55/fe12649d-bb0a-40f3-8811-3d0e7b82a240"
          (reference "R45") (unit 1)
        )
      )
    )
  )

  (symbol (lib_id "power:GND") (at 68.58 38.1 0) (unit 1)
    (in_bom yes) (on_board yes) (dnp no) (fields_autoplaced)
    (uuid 07d8ae6a-d74b-4d94-81f5-ed994837d466)
    (property "Reference" "#PWR041" (at 68.58 44.45 0)
      (effects (font (size 1.27 1.27)) hide)
    )
    (property "Value" "GND" (at 68.58 43.18 0)
      (effects (font (size 1.27 1.27)))
    )
    (property "Footprint" "" (at 68.58 38.1 0)
      (effects (font (size 1.27 1.27)) hide)
    )
    (property "Datasheet" "" (at 68.58 38.1 0)
      (effects (font (size 1.27 1.27)) hide)
    )
    (pin "1" (uuid bed0cb3e-ab74-4df0-a6bb-bf860aef1892))
    (instances
      (project "control"
        (path "/e63e39d7-6ac0-4ffd-8aa3-1841a4541b55/fe12649d-bb0a-40f3-8811-3d0e7b82a240"
          (reference "#PWR041") (unit 1)
        )
      )
    )
  )

  (symbol (lib_id "Device:Fuse") (at 27.94 29.21 90) (unit 1)
    (in_bom yes) (on_board yes) (dnp no) (fields_autoplaced)
    (uuid 0dc3f6f7-89b3-4b44-a930-7704c7ba4eca)
    (property "Reference" "F2" (at 27.94 22.86 90)
      (effects (font (size 1.27 1.27)))
    )
    (property "Value" "2.0A" (at 27.94 25.4 90)
      (effects (font (size 1.27 1.27)))
    )
    (property "Footprint" "Fuse:Fuse_1206_3216Metric" (at 27.94 30.988 90)
      (effects (font (size 1.27 1.27)) hide)
    )
    (property "Datasheet" "~" (at 27.94 29.21 0)
      (effects (font (size 1.27 1.27)) hide)
    )
    (pin "1" (uuid 7bf5fc21-c7b2-4899-849e-c44dd31a7b3c))
    (pin "2" (uuid 426392d9-962d-469d-b3ed-7b7faf7e76c5))
    (instances
      (project "control"
        (path "/e63e39d7-6ac0-4ffd-8aa3-1841a4541b55/fe12649d-bb0a-40f3-8811-3d0e7b82a240"
          (reference "F2") (unit 1)
        )
      )
    )
  )

  (symbol (lib_id "Device:R_US") (at 45.72 60.96 180) (unit 1)
    (in_bom yes) (on_board yes) (dnp no) (fields_autoplaced)
    (uuid 203eb632-d71a-4204-acb6-068b41592aa7)
    (property "Reference" "R40" (at 48.26 59.6899 0)
      (effects (font (size 1.27 1.27)) (justify right))
    )
    (property "Value" "54.9k" (at 48.26 62.2299 0)
      (effects (font (size 1.27 1.27)) (justify right))
    )
    (property "Footprint" "Resistor_SMD:R_0402_1005Metric" (at 44.704 60.706 90)
      (effects (font (size 1.27 1.27)) hide)
    )
    (property "Datasheet" "~" (at 45.72 60.96 0)
      (effects (font (size 1.27 1.27)) hide)
    )
    (pin "1" (uuid 06743747-0a68-4fe2-8623-4bff84551a15))
    (pin "2" (uuid cf617e46-bba4-4515-ae29-341533fd1668))
    (instances
      (project "control"
        (path "/e63e39d7-6ac0-4ffd-8aa3-1841a4541b55/fe12649d-bb0a-40f3-8811-3d0e7b82a240"
          (reference "R40") (unit 1)
        )
      )
    )
  )

  (symbol (lib_id "Device:L") (at 180.34 29.21 90) (unit 1)
    (in_bom yes) (on_board yes) (dnp no)
    (uuid 24f7012f-bc22-426b-8e21-f6f2bb35febe)
    (property "Reference" "L1" (at 180.34 24.13 90)
      (effects (font (size 1.27 1.27)))
    )
    (property "Value" "1217AS-H-220M=P3" (at 180.34 26.67 90)
      (effects (font (size 1.27 1.27)))
    )
    (property "Footprint" "AT-Inductors:DEM8045C" (at 180.34 29.21 0)
      (effects (font (size 1.27 1.27)) hide)
    )
    (property "Datasheet" "~" (at 180.34 29.21 0)
      (effects (font (size 1.27 1.27)) hide)
    )
    (property "Value2" "22uH" (at 180.34 31.75 90)
      (effects (font (size 1.27 1.27)))
    )
    (pin "1" (uuid 4d6c7fd6-48ea-4661-ac7a-9ae1eda8a8a9))
    (pin "2" (uuid 450bbbc6-09a3-4b4f-8077-9a2ba3f5a408))
    (instances
      (project "control"
        (path "/e63e39d7-6ac0-4ffd-8aa3-1841a4541b55/fe12649d-bb0a-40f3-8811-3d0e7b82a240"
          (reference "L1") (unit 1)
        )
      )
    )
  )

  (symbol (lib_id "Device:C_Small") (at 133.35 74.93 0) (unit 1)
    (in_bom yes) (on_board yes) (dnp no) (fields_autoplaced)
    (uuid 34688f2c-bee9-45ac-bdd5-68535afab28c)
    (property "Reference" "C13" (at 135.89 73.6662 0)
      (effects (font (size 1.27 1.27)) (justify left))
    )
    (property "Value" "100pF 63V" (at 135.89 76.2062 0)
      (effects (font (size 1.27 1.27)) (justify left))
    )
    (property "Footprint" "Capacitor_SMD:C_0402_1005Metric" (at 133.35 74.93 0)
      (effects (font (size 1.27 1.27)) hide)
    )
    (property "Datasheet" "~" (at 133.35 74.93 0)
      (effects (font (size 1.27 1.27)) hide)
    )
    (pin "1" (uuid d1af11e2-f968-4e05-95cb-6e97804f9c1a))
    (pin "2" (uuid 8356d05d-1faa-49d3-88d4-a173b2ac134a))
    (instances
      (project "control"
        (path "/e63e39d7-6ac0-4ffd-8aa3-1841a4541b55/fe12649d-bb0a-40f3-8811-3d0e7b82a240"
          (reference "C13") (unit 1)
        )
      )
    )
  )

  (symbol (lib_id "ltc_regulators:LTC3864") (at 115.57 54.61 0) (unit 1)
    (in_bom yes) (on_board yes) (dnp no) (fields_autoplaced)
    (uuid 3e7d9184-bee0-45a8-bdc7-9cdb6b883859)
    (property "Reference" "U2" (at 115.57 35.56 0)
      (effects (font (size 1.27 1.27)))
    )
    (property "Value" "LTC3864" (at 115.57 38.1 0)
      (effects (font (size 1.27 1.27)))
    )
    (property "Footprint" "AT-IC:MSE" (at 110.49 54.61 0)
      (effects (font (size 1.27 1.27)) hide)
    )
    (property "Datasheet" "" (at 110.49 54.61 0)
      (effects (font (size 1.27 1.27)) hide)
    )
    (pin "1" (uuid c09d9adc-7aa2-4552-afca-4a591a1679ea))
    (pin "10" (uuid 3b033a2b-d1e5-41fa-a639-46bf8893e672))
    (pin "11" (uuid 28906e4f-34be-427e-af4f-4d66146dc582))
    (pin "12" (uuid f4acade5-2008-40c3-995d-a95e4a982c71))
    (pin "13" (uuid 2129b54a-45dd-46a0-9a2b-950c286ec366))
    (pin "2" (uuid 36730ea5-7a99-4188-9be6-f7864d84c3a2))
    (pin "3" (uuid b635e907-db5b-456d-ba28-ccad0205e556))
    (pin "4" (uuid 60ba6e62-831f-464c-820b-fab861e34ca6))
    (pin "5" (uuid 36054814-2b24-4729-801d-1b7607cc062d))
    (pin "6" (uuid 89385482-79ff-4bf9-ad7a-eb4511ea8bd9))
    (pin "7" (uuid 1c9e779d-5744-4064-8bc6-65e53970b1b8))
    (pin "8" (uuid 942a3f4c-f1d6-4eea-ba3d-f131cadaa213))
    (pin "9" (uuid a9250a26-09d1-475f-90f1-03651cbed068))
    (instances
      (project "control"
        (path "/e63e39d7-6ac0-4ffd-8aa3-1841a4541b55/fe12649d-bb0a-40f3-8811-3d0e7b82a240"
          (reference "U2") (unit 1)
        )
      )
    )
  )

  (symbol (lib_id "power:GND") (at 129.54 81.28 0) (unit 1)
    (in_bom yes) (on_board yes) (dnp no) (fields_autoplaced)
    (uuid 53a95cf8-0b70-45b7-b88d-6483b7b0973e)
    (property "Reference" "#PWR043" (at 129.54 87.63 0)
      (effects (font (size 1.27 1.27)) hide)
    )
    (property "Value" "GND" (at 129.54 86.36 0)
      (effects (font (size 1.27 1.27)))
    )
    (property "Footprint" "" (at 129.54 81.28 0)
      (effects (font (size 1.27 1.27)) hide)
    )
    (property "Datasheet" "" (at 129.54 81.28 0)
      (effects (font (size 1.27 1.27)) hide)
    )
    (pin "1" (uuid ff2c6deb-fbe5-4564-b197-93db1fc1d0f6))
    (instances
      (project "control"
        (path "/e63e39d7-6ac0-4ffd-8aa3-1841a4541b55/fe12649d-bb0a-40f3-8811-3d0e7b82a240"
          (reference "#PWR043") (unit 1)
        )
      )
    )
  )

  (symbol (lib_id "power:GND") (at 53.34 38.1 0) (unit 1)
    (in_bom yes) (on_board yes) (dnp no) (fields_autoplaced)
    (uuid 7b1eb7d1-033b-42d7-8dda-42a9c18b9b8e)
    (property "Reference" "#PWR040" (at 53.34 44.45 0)
      (effects (font (size 1.27 1.27)) hide)
    )
    (property "Value" "GND" (at 53.34 43.18 0)
      (effects (font (size 1.27 1.27)))
    )
    (property "Footprint" "" (at 53.34 38.1 0)
      (effects (font (size 1.27 1.27)) hide)
    )
    (property "Datasheet" "" (at 53.34 38.1 0)
      (effects (font (size 1.27 1.27)) hide)
    )
    (pin "1" (uuid 58b8f24a-93b3-4e38-80e0-df655a8a06f0))
    (instances
      (project "control"
        (path "/e63e39d7-6ac0-4ffd-8aa3-1841a4541b55/fe12649d-bb0a-40f3-8811-3d0e7b82a240"
          (reference "#PWR040") (unit 1)
        )
      )
    )
  )

  (symbol (lib_id "Device:R_US") (at 45.72 73.66 180) (unit 1)
    (in_bom yes) (on_board yes) (dnp no) (fields_autoplaced)
    (uuid 7ba38ef3-8f99-47e6-b854-6e323c69cd1a)
    (property "Reference" "R41" (at 48.26 72.3899 0)
      (effects (font (size 1.27 1.27)) (justify right))
    )
    (property "Value" "40.2k" (at 48.26 74.9299 0)
      (effects (font (size 1.27 1.27)) (justify right))
    )
    (property "Footprint" "Resistor_SMD:R_0402_1005Metric" (at 44.704 73.406 90)
      (effects (font (size 1.27 1.27)) hide)
    )
    (property "Datasheet" "~" (at 45.72 73.66 0)
      (effects (font (size 1.27 1.27)) hide)
    )
    (pin "1" (uuid c937eb70-2581-4a51-b2ee-f41c2a3afe3e))
    (pin "2" (uuid a6d1bd9a-f4e8-4956-991c-e45a826f5233))
    (instances
      (project "control"
        (path "/e63e39d7-6ac0-4ffd-8aa3-1841a4541b55/fe12649d-bb0a-40f3-8811-3d0e7b82a240"
          (reference "R41") (unit 1)
        )
      )
    )
  )

  (symbol (lib_id "Device:R_Small_US") (at 151.13 34.29 0) (unit 1)
    (in_bom yes) (on_board yes) (dnp no)
    (uuid 83655442-853d-4beb-bda9-9de86b0af3d0)
    (property "Reference" "R44" (at 153.67 33.0199 0)
      (effects (font (size 1.27 1.27)) (justify left))
    )
    (property "Value" "100k" (at 153.67 35.5599 0)
      (effects (font (size 1.27 1.27)) (justify left))
    )
    (property "Footprint" "Resistor_SMD:R_0402_1005Metric" (at 151.13 34.29 0)
      (effects (font (size 1.27 1.27)) hide)
    )
    (property "Datasheet" "~" (at 151.13 34.29 0)
      (effects (font (size 1.27 1.27)) hide)
    )
    (pin "1" (uuid 7cb34d56-c22d-4b83-a28f-5aa1244c76ed))
    (pin "2" (uuid dc7657cf-e13c-4b4f-abee-d4d108fb205d))
    (instances
      (project "control"
        (path "/e63e39d7-6ac0-4ffd-8aa3-1841a4541b55/fe12649d-bb0a-40f3-8811-3d0e7b82a240"
          (reference "R44") (unit 1)
        )
      )
    )
  )

  (symbol (lib_id "power:GND") (at 45.72 80.01 0) (unit 1)
    (in_bom yes) (on_board yes) (dnp no) (fields_autoplaced)
    (uuid 85605eda-c7f8-46a5-9bac-41e0c281bd2f)
    (property "Reference" "#PWR039" (at 45.72 86.36 0)
      (effects (font (size 1.27 1.27)) hide)
    )
    (property "Value" "GND" (at 45.72 85.09 0)
      (effects (font (size 1.27 1.27)))
    )
    (property "Footprint" "" (at 45.72 80.01 0)
      (effects (font (size 1.27 1.27)) hide)
    )
    (property "Datasheet" "" (at 45.72 80.01 0)
      (effects (font (size 1.27 1.27)) hide)
    )
    (pin "1" (uuid 3b7b3fce-a664-45b7-ac94-2b1c23fdefc7))
    (instances
      (project "control"
        (path "/e63e39d7-6ac0-4ffd-8aa3-1841a4541b55/fe12649d-bb0a-40f3-8811-3d0e7b82a240"
          (reference "#PWR039") (unit 1)
        )
      )
    )
  )

  (symbol (lib_id "Device:C_Small") (at 53.34 34.29 0) (unit 1)
    (in_bom yes) (on_board yes) (dnp no) (fields_autoplaced)
    (uuid 96e8c966-8426-46d8-852b-9e1e8033f8f2)
    (property "Reference" "C10" (at 55.88 33.0262 0)
      (effects (font (size 1.27 1.27)) (justify left))
    )
    (property "Value" "10uF 63V" (at 55.88 35.5662 0)
      (effects (font (size 1.27 1.27)) (justify left))
    )
    (property "Footprint" "Capacitor_SMD:C_1210_3225Metric" (at 53.34 34.29 0)
      (effects (font (size 1.27 1.27)) hide)
    )
    (property "Datasheet" "~" (at 53.34 34.29 0)
      (effects (font (size 1.27 1.27)) hide)
    )
    (pin "1" (uuid 15be3658-11f0-483c-811a-b9e29770000e))
    (pin "2" (uuid 4f776ba9-c334-4a9e-a173-3c48464aed74))
    (instances
      (project "control"
        (path "/e63e39d7-6ac0-4ffd-8aa3-1841a4541b55/fe12649d-bb0a-40f3-8811-3d0e7b82a240"
          (reference "C10") (unit 1)
        )
      )
    )
  )

  (symbol (lib_id "Jumper:SolderJumper_2_Bridged") (at 248.92 29.21 0) (unit 1)
    (in_bom no) (on_board yes) (dnp no) (fields_autoplaced)
    (uuid 9a6348ff-10e4-48eb-8c94-c5ec609d2acd)
    (property "Reference" "JP4" (at 248.92 22.86 0)
      (effects (font (size 1.27 1.27)))
    )
    (property "Value" "SB_{+12v0}" (at 248.92 25.4 0)
      (effects (font (size 1.27 1.27)))
    )
    (property "Footprint" "AT-BoardFeatures:SolderJumper-2_2.0x1.2mm_Closed" (at 248.92 29.21 0)
      (effects (font (size 1.27 1.27)) hide)
    )
    (property "Datasheet" "~" (at 248.92 29.21 0)
      (effects (font (size 1.27 1.27)) hide)
    )
    (pin "1" (uuid f74defe1-62b5-4f4b-9da6-d7cbaac57648))
    (pin "2" (uuid be3b23bb-e057-4bb9-b620-05304364f3be))
    (instances
      (project "control"
        (path "/e63e39d7-6ac0-4ffd-8aa3-1841a4541b55/fe12649d-bb0a-40f3-8811-3d0e7b82a240"
          (reference "JP4") (unit 1)
        )
      )
    )
  )

  (symbol (lib_id "Device:C_Polarized_Small_US") (at 39.37 34.29 0) (unit 1)
    (in_bom yes) (on_board yes) (dnp no) (fields_autoplaced)
    (uuid 9bb87ad8-1cf5-4500-88f9-91a4d824488e)
    (property "Reference" "C9" (at 41.91 32.5881 0)
      (effects (font (size 1.27 1.27)) (justify left))
    )
    (property "Value" "33uF 63V" (at 41.91 35.1281 0)
      (effects (font (size 1.27 1.27)) (justify left))
    )
    (property "Footprint" "Capacitor_THT:C_Radial_D6.3mm_H11.0mm_P2.50mm" (at 39.37 34.29 0)
      (effects (font (size 1.27 1.27)) hide)
    )
    (property "Datasheet" "~" (at 39.37 34.29 0)
      (effects (font (size 1.27 1.27)) hide)
    )
    (pin "1" (uuid f128a11d-0124-4dec-a476-4ddf76ab9523))
    (pin "2" (uuid 4516419c-ad25-40c5-ae22-3e4898d45158))
    (instances
      (project "control"
        (path "/e63e39d7-6ac0-4ffd-8aa3-1841a4541b55/fe12649d-bb0a-40f3-8811-3d0e7b82a240"
          (reference "C9") (unit 1)
        )
      )
    )
  )

  (symbol (lib_id "Device:C_Small") (at 148.59 74.93 0) (unit 1)
    (in_bom yes) (on_board yes) (dnp no) (fields_autoplaced)
    (uuid 9c707d57-2eab-4a52-a0ea-58043b8142c3)
    (property "Reference" "C14" (at 151.13 73.6662 0)
      (effects (font (size 1.27 1.27)) (justify left))
    )
    (property "Value" "3300pF 63V" (at 151.13 76.2062 0)
      (effects (font (size 1.27 1.27)) (justify left))
    )
    (property "Footprint" "Capacitor_SMD:C_0402_1005Metric" (at 148.59 74.93 0)
      (effects (font (size 1.27 1.27)) hide)
    )
    (property "Datasheet" "~" (at 148.59 74.93 0)
      (effects (font (size 1.27 1.27)) hide)
    )
    (pin "1" (uuid d4b53f0d-1b24-4119-aa48-46b8c3d2b511))
    (pin "2" (uuid 10c9d37e-a556-4432-89fe-b98f4505d9fc))
    (instances
      (project "control"
        (path "/e63e39d7-6ac0-4ffd-8aa3-1841a4541b55/fe12649d-bb0a-40f3-8811-3d0e7b82a240"
          (reference "C14") (unit 1)
        )
      )
    )
  )

  (symbol (lib_id "power:GND") (at 39.37 38.1 0) (unit 1)
    (in_bom yes) (on_board yes) (dnp no) (fields_autoplaced)
    (uuid 9db62cc4-714d-4079-9c22-b75fbdfb6bdf)
    (property "Reference" "#PWR038" (at 39.37 44.45 0)
      (effects (font (size 1.27 1.27)) hide)
    )
    (property "Value" "GND" (at 39.37 43.18 0)
      (effects (font (size 1.27 1.27)))
    )
    (property "Footprint" "" (at 39.37 38.1 0)
      (effects (font (size 1.27 1.27)) hide)
    )
    (property "Datasheet" "" (at 39.37 38.1 0)
      (effects (font (size 1.27 1.27)) hide)
    )
    (pin "1" (uuid 31d8916a-8815-4a16-baf3-d86c1a21e203))
    (instances
      (project "control"
        (path "/e63e39d7-6ac0-4ffd-8aa3-1841a4541b55/fe12649d-bb0a-40f3-8811-3d0e7b82a240"
          (reference "#PWR038") (unit 1)
        )
      )
    )
  )

  (symbol (lib_id "power:GND") (at 228.6 41.91 0) (unit 1)
    (in_bom yes) (on_board yes) (dnp no) (fields_autoplaced)
    (uuid a60aa173-3c19-49b0-a595-8e6aa9676541)
    (property "Reference" "#PWR046" (at 228.6 48.26 0)
      (effects (font (size 1.27 1.27)) hide)
    )
    (property "Value" "GND" (at 228.6 46.99 0)
      (effects (font (size 1.27 1.27)))
    )
    (property "Footprint" "" (at 228.6 41.91 0)
      (effects (font (size 1.27 1.27)) hide)
    )
    (property "Datasheet" "" (at 228.6 41.91 0)
      (effects (font (size 1.27 1.27)) hide)
    )
    (pin "1" (uuid 634e6c6f-afc1-46c6-b234-7739a729b49c))
    (instances
      (project "control"
        (path "/e63e39d7-6ac0-4ffd-8aa3-1841a4541b55/fe12649d-bb0a-40f3-8811-3d0e7b82a240"
          (reference "#PWR046") (unit 1)
        )
      )
    )
  )

  (symbol (lib_id "Device:C_Small") (at 214.63 34.29 0) (unit 1)
    (in_bom yes) (on_board yes) (dnp no) (fields_autoplaced)
    (uuid ae022e6a-11b9-4961-8825-0ad294fee4a6)
    (property "Reference" "C16" (at 217.17 33.0262 0)
      (effects (font (size 1.27 1.27)) (justify left))
    )
    (property "Value" "10uF 63V" (at 217.17 35.5662 0)
      (effects (font (size 1.27 1.27)) (justify left))
    )
    (property "Footprint" "Capacitor_SMD:C_1210_3225Metric" (at 214.63 34.29 0)
      (effects (font (size 1.27 1.27)) hide)
    )
    (property "Datasheet" "~" (at 214.63 34.29 0)
      (effects (font (size 1.27 1.27)) hide)
    )
    (pin "1" (uuid 61bcf340-bf0e-43de-826e-0491428c6caf))
    (pin "2" (uuid 8e0b6975-75a5-40a9-84e0-9f3721e615f6))
    (instances
      (project "control"
        (path "/e63e39d7-6ac0-4ffd-8aa3-1841a4541b55/fe12649d-bb0a-40f3-8811-3d0e7b82a240"
          (reference "C16") (unit 1)
        )
      )
    )
  )

  (symbol (lib_id "Device:R_Small_US") (at 148.59 67.31 180) (unit 1)
    (in_bom yes) (on_board yes) (dnp no) (fields_autoplaced)
    (uuid b35d193a-d20f-49fe-b08c-f768643f21b6)
    (property "Reference" "R43" (at 151.13 66.0399 0)
      (effects (font (size 1.27 1.27)) (justify right))
    )
    (property "Value" "11.3k" (at 151.13 68.5799 0)
      (effects (font (size 1.27 1.27)) (justify right))
    )
    (property "Footprint" "Resistor_SMD:R_0402_1005Metric" (at 148.59 67.31 0)
      (effects (font (size 1.27 1.27)) hide)
    )
    (property "Datasheet" "~" (at 148.59 67.31 0)
      (effects (font (size 1.27 1.27)) hide)
    )
    (pin "1" (uuid e5b26c54-a0cd-4c94-bd44-9ac943a129a0))
    (pin "2" (uuid 4aea69e9-efeb-4edc-9b96-1782add092e3))
    (instances
      (project "control"
        (path "/e63e39d7-6ac0-4ffd-8aa3-1841a4541b55/fe12649d-bb0a-40f3-8811-3d0e7b82a240"
          (reference "R43") (unit 1)
        )
      )
    )
  )

  (symbol (lib_id "Device:C_Small") (at 200.66 34.29 0) (unit 1)
    (in_bom yes) (on_board yes) (dnp no) (fields_autoplaced)
    (uuid b76c9e2d-fba7-4859-9276-731182806729)
    (property "Reference" "C15" (at 203.2 33.0262 0)
      (effects (font (size 1.27 1.27)) (justify left))
    )
    (property "Value" "10uF 63V" (at 203.2 35.5662 0)
      (effects (font (size 1.27 1.27)) (justify left))
    )
    (property "Footprint" "Capacitor_SMD:C_1210_3225Metric" (at 200.66 34.29 0)
      (effects (font (size 1.27 1.27)) hide)
    )
    (property "Datasheet" "~" (at 200.66 34.29 0)
      (effects (font (size 1.27 1.27)) hide)
    )
    (pin "1" (uuid 5dbd5135-4f55-4872-9ed4-0ba0ca65e64d))
    (pin "2" (uuid 310f73ef-d538-4a29-9987-5522b6762d30))
    (instances
      (project "control"
        (path "/e63e39d7-6ac0-4ffd-8aa3-1841a4541b55/fe12649d-bb0a-40f3-8811-3d0e7b82a240"
          (reference "C15") (unit 1)
        )
      )
    )
  )

  (symbol (lib_id "Device:C_Polarized_Small_US") (at 228.6 34.29 0) (unit 1)
    (in_bom yes) (on_board yes) (dnp no) (fields_autoplaced)
    (uuid c66f942e-e54a-4896-b966-8c726531f7ba)
    (property "Reference" "C17" (at 231.14 32.5881 0)
      (effects (font (size 1.27 1.27)) (justify left))
    )
    (property "Value" "33uF 63V" (at 231.14 35.1281 0)
      (effects (font (size 1.27 1.27)) (justify left))
    )
    (property "Footprint" "Capacitor_THT:C_Radial_D6.3mm_H11.0mm_P2.50mm" (at 228.6 34.29 0)
      (effects (font (size 1.27 1.27)) hide)
    )
    (property "Datasheet" "~" (at 228.6 34.29 0)
      (effects (font (size 1.27 1.27)) hide)
    )
    (pin "1" (uuid 9868cce9-82c8-43a6-9b60-c272e81fa35b))
    (pin "2" (uuid 3812e260-f6ca-463b-96a9-bc5d5d7ec976))
    (instances
      (project "control"
        (path "/e63e39d7-6ac0-4ffd-8aa3-1841a4541b55/fe12649d-bb0a-40f3-8811-3d0e7b82a240"
          (reference "C17") (unit 1)
        )
      )
    )
  )

  (symbol (lib_id "Device:C_Small") (at 93.98 34.29 0) (unit 1)
    (in_bom yes) (on_board yes) (dnp no) (fields_autoplaced)
    (uuid ce54026c-3328-420d-965f-082c811288b5)
    (property "Reference" "C12" (at 96.52 33.0262 0)
      (effects (font (size 1.27 1.27)) (justify left))
    )
    (property "Value" "0.47uF 63V" (at 96.52 35.5662 0)
      (effects (font (size 1.27 1.27)) (justify left))
    )
    (property "Footprint" "Capacitor_SMD:C_0805_2012Metric" (at 93.98 34.29 0)
      (effects (font (size 1.27 1.27)) hide)
    )
    (property "Datasheet" "~" (at 93.98 34.29 0)
      (effects (font (size 1.27 1.27)) hide)
    )
    (pin "1" (uuid 5fd98b2b-8182-49ef-a610-2ff1e6fc1071))
    (pin "2" (uuid 1f9b7f59-36e5-43cb-b59e-2a06605d74f0))
    (instances
      (project "control"
        (path "/e63e39d7-6ac0-4ffd-8aa3-1841a4541b55/fe12649d-bb0a-40f3-8811-3d0e7b82a240"
          (reference "C12") (unit 1)
        )
      )
    )
  )

  (symbol (lib_id "Device:C_Small") (at 68.58 34.29 0) (unit 1)
    (in_bom yes) (on_board yes) (dnp no) (fields_autoplaced)
    (uuid d019ab5b-dbc8-48b9-a52f-739df6ee9e03)
    (property "Reference" "C11" (at 71.12 33.0262 0)
      (effects (font (size 1.27 1.27)) (justify left))
    )
    (property "Value" "0.1uF 63V" (at 71.12 35.5662 0)
      (effects (font (size 1.27 1.27)) (justify left))
    )
    (property "Footprint" "Capacitor_SMD:C_0402_1005Metric" (at 68.58 34.29 0)
      (effects (font (size 1.27 1.27)) hide)
    )
    (property "Datasheet" "~" (at 68.58 34.29 0)
      (effects (font (size 1.27 1.27)) hide)
    )
    (pin "1" (uuid 7b34209a-202a-4241-a876-bd0d594cb966))
    (pin "2" (uuid dd441900-46f3-4053-92dd-55eda9c983ec))
    (instances
      (project "control"
        (path "/e63e39d7-6ac0-4ffd-8aa3-1841a4541b55/fe12649d-bb0a-40f3-8811-3d0e7b82a240"
          (reference "C11") (unit 1)
        )
      )
    )
  )

  (symbol (lib_id "Device:R_Small_US") (at 193.04 62.23 0) (unit 1)
    (in_bom yes) (on_board yes) (dnp no) (fields_autoplaced)
    (uuid d5634efd-1759-4661-9503-9aaa280d45f4)
    (property "Reference" "R46" (at 195.58 60.9599 0)
      (effects (font (size 1.27 1.27)) (justify left))
    )
    (property "Value" "60.4k" (at 195.58 63.4999 0)
      (effects (font (size 1.27 1.27)) (justify left))
    )
    (property "Footprint" "Resistor_SMD:R_0402_1005Metric" (at 193.04 62.23 0)
      (effects (font (size 1.27 1.27)) hide)
    )
    (property "Datasheet" "~" (at 193.04 62.23 0)
      (effects (font (size 1.27 1.27)) hide)
    )
    (pin "1" (uuid 6ccdd4fa-d35c-412b-b09a-aec2f959c848))
    (pin "2" (uuid 6c3b8868-3bcf-4d9e-9038-c056e3902c16))
    (instances
      (project "control"
        (path "/e63e39d7-6ac0-4ffd-8aa3-1841a4541b55/fe12649d-bb0a-40f3-8811-3d0e7b82a240"
          (reference "R46") (unit 1)
        )
      )
    )
  )

  (symbol (lib_id "power:PWR_FLAG") (at 44.45 26.67 0) (unit 1)
    (in_bom yes) (on_board yes) (dnp no) (fields_autoplaced)
    (uuid d80d4275-896a-4f93-9ec7-942d4cc917e2)
    (property "Reference" "#FLG05" (at 44.45 24.765 0)
      (effects (font (size 1.27 1.27)) hide)
    )
    (property "Value" "PWR_FLAG" (at 44.45 21.59 0)
      (effects (font (size 1.27 1.27)))
    )
    (property "Footprint" "" (at 44.45 26.67 0)
      (effects (font (size 1.27 1.27)) hide)
    )
    (property "Datasheet" "~" (at 44.45 26.67 0)
      (effects (font (size 1.27 1.27)) hide)
    )
    (pin "1" (uuid cd96957f-2293-47c5-9093-a354fc30089f))
    (instances
      (project "control"
        (path "/e63e39d7-6ac0-4ffd-8aa3-1841a4541b55/fe12649d-bb0a-40f3-8811-3d0e7b82a240"
          (reference "#FLG05") (unit 1)
        )
      )
    )
  )

  (symbol (lib_id "AT-Transistors:Q_PMOS_SGD_PowerPAK") (at 160.02 31.75 270) (mirror x) (unit 1)
    (in_bom yes) (on_board yes) (dnp no) (fields_autoplaced)
    (uuid e4f83737-aeba-4a3e-993c-e853afc84cf0)
    (property "Reference" "Q5" (at 160.02 19.05 90)
      (effects (font (size 1.27 1.27)))
    )
    (property "Value" "SI7465DP-T1-GE3" (at 160.02 21.59 90)
      (effects (font (size 1.27 1.27)))
    )
    (property "Footprint" "AT-Discrete:PowerPAK_SO-8L_Single" (at 162.56 26.67 0)
      (effects (font (size 1.27 1.27)) hide)
    )
    (property "Datasheet" "~" (at 160.02 31.75 0)
      (effects (font (size 1.27 1.27)) hide)
    )
    (pin "1" (uuid 146ffdb7-2ced-413d-9c13-9477cb6f268c))
    (pin "2" (uuid 98b4165b-bf1e-4d5b-aeb4-55c246aa6960))
    (pin "3" (uuid 792ec2de-83d6-4c0d-8968-7b4fef8d9f50))
    (pin "4" (uuid 855caf2c-3688-45fa-87e6-c9544a8f0216))
    (pin "5" (uuid 19d0f221-caa8-4867-9fa8-dcf1a17220fb))
    (instances
      (project "control"
        (path "/e63e39d7-6ac0-4ffd-8aa3-1841a4541b55/fe12649d-bb0a-40f3-8811-3d0e7b82a240"
          (reference "Q5") (unit 1)
        )
      )
    )
  )

  (symbol (lib_id "power:GND") (at 193.04 66.04 0) (unit 1)
    (in_bom yes) (on_board yes) (dnp no) (fields_autoplaced)
    (uuid e90976de-4728-4f2e-91ab-870bd2212e07)
    (property "Reference" "#PWR045" (at 193.04 72.39 0)
      (effects (font (size 1.27 1.27)) hide)
    )
    (property "Value" "GND" (at 193.04 71.12 0)
      (effects (font (size 1.27 1.27)))
    )
    (property "Footprint" "" (at 193.04 66.04 0)
      (effects (font (size 1.27 1.27)) hide)
    )
    (property "Datasheet" "" (at 193.04 66.04 0)
      (effects (font (size 1.27 1.27)) hide)
    )
    (pin "1" (uuid 19ad05d6-45ba-417e-aeb7-0fd096db6188))
    (instances
      (project "control"
        (path "/e63e39d7-6ac0-4ffd-8aa3-1841a4541b55/fe12649d-bb0a-40f3-8811-3d0e7b82a240"
          (reference "#PWR045") (unit 1)
        )
      )
    )
  )

  (symbol (lib_id "Device:D_Schottky_AAK") (at 167.64 35.56 270) (unit 1)
    (in_bom yes) (on_board yes) (dnp no) (fields_autoplaced)
    (uuid ec5a3ceb-6895-48f5-ba58-43945a2a6d79)
    (property "Reference" "D4" (at 171.45 35.1789 90)
      (effects (font (size 1.27 1.27)) (justify left))
    )
    (property "Value" "SVT10100U_R1_00001" (at 171.45 37.7189 90)
      (effects (font (size 1.27 1.27)) (justify left))
    )
    (property "Footprint" "AT-Discrete:TO-277" (at 167.64 35.56 0)
      (effects (font (size 1.27 1.27)) hide)
    )
    (property "Datasheet" "~" (at 167.64 35.56 0)
      (effects (font (size 1.27 1.27)) hide)
    )
    (pin "1" (uuid d953e217-5eca-47ea-a5b2-702c3bfdc6e6))
    (pin "2" (uuid a4d96142-d40a-4457-a0ee-dee5d4cb4d4b))
    (pin "3" (uuid 38c4e362-f374-4fb9-91f1-981b9a0eca98))
    (instances
      (project "control"
        (path "/e63e39d7-6ac0-4ffd-8aa3-1841a4541b55/fe12649d-bb0a-40f3-8811-3d0e7b82a240"
          (reference "D4") (unit 1)
        )
      )
    )
  )

  (symbol (lib_id "power:GND") (at 167.64 43.18 0) (unit 1)
    (in_bom yes) (on_board yes) (dnp no) (fields_autoplaced)
    (uuid ef798891-fce0-42a4-877a-538b9a9d0912)
    (property "Reference" "#PWR044" (at 167.64 49.53 0)
      (effects (font (size 1.27 1.27)) hide)
    )
    (property "Value" "GND" (at 167.64 48.26 0)
      (effects (font (size 1.27 1.27)))
    )
    (property "Footprint" "" (at 167.64 43.18 0)
      (effects (font (size 1.27 1.27)) hide)
    )
    (property "Datasheet" "" (at 167.64 43.18 0)
      (effects (font (size 1.27 1.27)) hide)
    )
    (pin "1" (uuid e8faa32f-1e03-43bd-a4cd-c51652531cac))
    (instances
      (project "control"
        (path "/e63e39d7-6ac0-4ffd-8aa3-1841a4541b55/fe12649d-bb0a-40f3-8811-3d0e7b82a240"
          (reference "#PWR044") (unit 1)
        )
      )
    )
  )

  (symbol (lib_id "power:GND") (at 115.57 73.66 0) (unit 1)
    (in_bom yes) (on_board yes) (dnp no) (fields_autoplaced)
    (uuid f2a32ab4-2722-4c1c-b54b-4eba99caa853)
    (property "Reference" "#PWR042" (at 115.57 80.01 0)
      (effects (font (size 1.27 1.27)) hide)
    )
    (property "Value" "GND" (at 115.57 78.74 0)
      (effects (font (size 1.27 1.27)))
    )
    (property "Footprint" "" (at 115.57 73.66 0)
      (effects (font (size 1.27 1.27)) hide)
    )
    (property "Datasheet" "" (at 115.57 73.66 0)
      (effects (font (size 1.27 1.27)) hide)
    )
    (pin "1" (uuid 3d219191-baef-4fb0-9ef8-2aee1834c659))
    (instances
      (project "control"
        (path "/e63e39d7-6ac0-4ffd-8aa3-1841a4541b55/fe12649d-bb0a-40f3-8811-3d0e7b82a240"
          (reference "#PWR042") (unit 1)
        )
      )
    )
  )

  (symbol (lib_id "Device:R_Small_US") (at 140.97 29.21 90) (unit 1)
    (in_bom yes) (on_board yes) (dnp no)
    (uuid f36ce598-e07b-464c-914b-de7ce10ff6af)
    (property "Reference" "R42" (at 140.97 24.13 90)
      (effects (font (size 1.27 1.27)))
    )
    (property "Value" "30m 1/3W" (at 140.97 26.67 90)
      (effects (font (size 1.27 1.27)))
    )
    (property "Footprint" "Resistor_SMD:R_0603_1608Metric" (at 140.97 29.21 0)
      (effects (font (size 1.27 1.27)) hide)
    )
    (property "Datasheet" "~" (at 140.97 29.21 0)
      (effects (font (size 1.27 1.27)) hide)
    )
    (pin "1" (uuid 3842e900-f173-411f-8331-6ca77b6ae2af))
    (pin "2" (uuid 1454ba6a-be5f-4f5a-9e4a-b4b8bf3d2e42))
    (instances
      (project "control"
        (path "/e63e39d7-6ac0-4ffd-8aa3-1841a4541b55/fe12649d-bb0a-40f3-8811-3d0e7b82a240"
          (reference "R42") (unit 1)
        )
      )
    )
  )
)
