(kicad_sch (version 20230121) (generator eeschema)

  (uuid 53119c14-15e6-40b0-8f65-e6a57783f50d)

  (paper "A4")

  (lib_symbols
    (symbol "Device:C" (pin_numbers hide) (pin_names (offset 0.254)) (in_bom yes) (on_board yes)
      (property "Reference" "C" (at 0.635 2.54 0)
        (effects (font (size 1.27 1.27)) (justify left))
      )
      (property "Value" "C" (at 0.635 -2.54 0)
        (effects (font (size 1.27 1.27)) (justify left))
      )
      (property "Footprint" "" (at 0.9652 -3.81 0)
        (effects (font (size 1.27 1.27)) hide)
      )
      (property "Datasheet" "~" (at 0 0 0)
        (effects (font (size 1.27 1.27)) hide)
      )
      (property "ki_keywords" "cap capacitor" (at 0 0 0)
        (effects (font (size 1.27 1.27)) hide)
      )
      (property "ki_description" "Unpolarized capacitor" (at 0 0 0)
        (effects (font (size 1.27 1.27)) hide)
      )
      (property "ki_fp_filters" "C_*" (at 0 0 0)
        (effects (font (size 1.27 1.27)) hide)
      )
      (symbol "C_0_1"
        (polyline
          (pts
            (xy -2.032 -0.762)
            (xy 2.032 -0.762)
          )
          (stroke (width 0.508) (type default))
          (fill (type none))
        )
        (polyline
          (pts
            (xy -2.032 0.762)
            (xy 2.032 0.762)
          )
          (stroke (width 0.508) (type default))
          (fill (type none))
        )
      )
      (symbol "C_1_1"
        (pin passive line (at 0 3.81 270) (length 2.794)
          (name "~" (effects (font (size 1.27 1.27))))
          (number "1" (effects (font (size 1.27 1.27))))
        )
        (pin passive line (at 0 -3.81 90) (length 2.794)
          (name "~" (effects (font (size 1.27 1.27))))
          (number "2" (effects (font (size 1.27 1.27))))
        )
      )
    )
    (symbol "Jumper:SolderJumper_2_Bridged" (pin_names (offset 0) hide) (in_bom yes) (on_board yes)
      (property "Reference" "JP" (at 0 2.032 0)
        (effects (font (size 1.27 1.27)))
      )
      (property "Value" "SolderJumper_2_Bridged" (at 0 -2.54 0)
        (effects (font (size 1.27 1.27)))
      )
      (property "Footprint" "" (at 0 0 0)
        (effects (font (size 1.27 1.27)) hide)
      )
      (property "Datasheet" "~" (at 0 0 0)
        (effects (font (size 1.27 1.27)) hide)
      )
      (property "ki_keywords" "solder jumper SPST" (at 0 0 0)
        (effects (font (size 1.27 1.27)) hide)
      )
      (property "ki_description" "Solder Jumper, 2-pole, closed/bridged" (at 0 0 0)
        (effects (font (size 1.27 1.27)) hide)
      )
      (property "ki_fp_filters" "SolderJumper*Bridged*" (at 0 0 0)
        (effects (font (size 1.27 1.27)) hide)
      )
      (symbol "SolderJumper_2_Bridged_0_1"
        (rectangle (start -0.508 0.508) (end 0.508 -0.508)
          (stroke (width 0) (type default))
          (fill (type outline))
        )
        (arc (start -0.254 1.016) (mid -1.2656 0) (end -0.254 -1.016)
          (stroke (width 0) (type default))
          (fill (type none))
        )
        (arc (start -0.254 1.016) (mid -1.2656 0) (end -0.254 -1.016)
          (stroke (width 0) (type default))
          (fill (type outline))
        )
        (polyline
          (pts
            (xy -0.254 1.016)
            (xy -0.254 -1.016)
          )
          (stroke (width 0) (type default))
          (fill (type none))
        )
        (polyline
          (pts
            (xy 0.254 1.016)
            (xy 0.254 -1.016)
          )
          (stroke (width 0) (type default))
          (fill (type none))
        )
        (arc (start 0.254 -1.016) (mid 1.2656 0) (end 0.254 1.016)
          (stroke (width 0) (type default))
          (fill (type none))
        )
        (arc (start 0.254 -1.016) (mid 1.2656 0) (end 0.254 1.016)
          (stroke (width 0) (type default))
          (fill (type outline))
        )
      )
      (symbol "SolderJumper_2_Bridged_1_1"
        (pin passive line (at -3.81 0 0) (length 2.54)
          (name "A" (effects (font (size 1.27 1.27))))
          (number "1" (effects (font (size 1.27 1.27))))
        )
        (pin passive line (at 3.81 0 180) (length 2.54)
          (name "B" (effects (font (size 1.27 1.27))))
          (number "2" (effects (font (size 1.27 1.27))))
        )
      )
    )
    (symbol "Memory_Flash:SST39LF040-55-4C-WHE" (in_bom yes) (on_board yes)
      (property "Reference" "U" (at 1.27 1.27 0)
        (effects (font (size 1.27 1.27)))
      )
      (property "Value" "" (at 0 0 0)
        (effects (font (size 1.27 1.27)))
      )
      (property "Footprint" "Package_SO:TSOP-I-32_14.4x8mm_P0.5mm" (at 0 0 0)
        (effects (font (size 1.27 1.27)) hide)
      )
      (property "Datasheet" "https://www.mouser.ca/datasheet/2/268/20005023B-709002.pdf" (at 0 0 0)
        (effects (font (size 1.27 1.27)) hide)
      )
      (property "ki_description" "512Kx8 NOR Flash ROM" (at 0 0 0)
        (effects (font (size 1.27 1.27)) hide)
      )
      (symbol "SST39LF040-55-4C-WHE_0_1"
        (rectangle (start 0 0) (end 12.7 -66.04)
          (stroke (width 0) (type default))
          (fill (type none))
        )
      )
      (symbol "SST39LF040-55-4C-WHE_1_1"
        (pin input line (at -5.08 -33.02 0) (length 5.08)
          (name "A11" (effects (font (size 1.27 1.27))))
          (number "1" (effects (font (size 1.27 1.27))))
        )
        (pin input line (at -5.08 -45.72 0) (length 5.08)
          (name "A16" (effects (font (size 1.27 1.27))))
          (number "10" (effects (font (size 1.27 1.27))))
        )
        (pin input line (at -5.08 -43.18 0) (length 5.08)
          (name "A15" (effects (font (size 1.27 1.27))))
          (number "11" (effects (font (size 1.27 1.27))))
        )
        (pin input line (at -5.08 -35.56 0) (length 5.08)
          (name "A12" (effects (font (size 1.27 1.27))))
          (number "12" (effects (font (size 1.27 1.27))))
        )
        (pin input line (at -5.08 -22.86 0) (length 5.08)
          (name "A7" (effects (font (size 1.27 1.27))))
          (number "13" (effects (font (size 1.27 1.27))))
        )
        (pin input line (at -5.08 -20.32 0) (length 5.08)
          (name "A6" (effects (font (size 1.27 1.27))))
          (number "14" (effects (font (size 1.27 1.27))))
        )
        (pin input line (at -5.08 -17.78 0) (length 5.08)
          (name "A5" (effects (font (size 1.27 1.27))))
          (number "15" (effects (font (size 1.27 1.27))))
        )
        (pin input line (at -5.08 -15.24 0) (length 5.08)
          (name "A4" (effects (font (size 1.27 1.27))))
          (number "16" (effects (font (size 1.27 1.27))))
        )
        (pin input line (at -5.08 -12.7 0) (length 5.08)
          (name "A3" (effects (font (size 1.27 1.27))))
          (number "17" (effects (font (size 1.27 1.27))))
        )
        (pin input line (at -5.08 -10.16 0) (length 5.08)
          (name "A2" (effects (font (size 1.27 1.27))))
          (number "18" (effects (font (size 1.27 1.27))))
        )
        (pin input line (at -5.08 -7.62 0) (length 5.08)
          (name "A1" (effects (font (size 1.27 1.27))))
          (number "19" (effects (font (size 1.27 1.27))))
        )
        (pin input line (at -5.08 -27.94 0) (length 5.08)
          (name "A9" (effects (font (size 1.27 1.27))))
          (number "2" (effects (font (size 1.27 1.27))))
        )
        (pin input line (at -5.08 -5.08 0) (length 5.08)
          (name "A0" (effects (font (size 1.27 1.27))))
          (number "20" (effects (font (size 1.27 1.27))))
        )
        (pin tri_state line (at 17.78 -5.08 180) (length 5.08)
          (name "D0" (effects (font (size 1.27 1.27))))
          (number "21" (effects (font (size 1.27 1.27))))
        )
        (pin tri_state line (at 17.78 -7.62 180) (length 5.08)
          (name "D1" (effects (font (size 1.27 1.27))))
          (number "22" (effects (font (size 1.27 1.27))))
        )
        (pin tri_state line (at 17.78 -10.16 180) (length 5.08)
          (name "D2" (effects (font (size 1.27 1.27))))
          (number "23" (effects (font (size 1.27 1.27))))
        )
        (pin power_in line (at 6.35 -71.12 90) (length 5.08)
          (name "GND" (effects (font (size 1.27 1.27))))
          (number "24" (effects (font (size 1.27 1.27))))
        )
        (pin tri_state line (at 17.78 -12.7 180) (length 5.08)
          (name "D3" (effects (font (size 1.27 1.27))))
          (number "25" (effects (font (size 1.27 1.27))))
        )
        (pin tri_state line (at 17.78 -15.24 180) (length 5.08)
          (name "D4" (effects (font (size 1.27 1.27))))
          (number "26" (effects (font (size 1.27 1.27))))
        )
        (pin tri_state line (at 17.78 -17.78 180) (length 5.08)
          (name "D5" (effects (font (size 1.27 1.27))))
          (number "27" (effects (font (size 1.27 1.27))))
        )
        (pin tri_state line (at 17.78 -20.32 180) (length 5.08)
          (name "D6" (effects (font (size 1.27 1.27))))
          (number "28" (effects (font (size 1.27 1.27))))
        )
        (pin tri_state line (at 17.78 -22.86 180) (length 5.08)
          (name "D7" (effects (font (size 1.27 1.27))))
          (number "29" (effects (font (size 1.27 1.27))))
        )
        (pin input line (at -5.08 -25.4 0) (length 5.08)
          (name "A8" (effects (font (size 1.27 1.27))))
          (number "3" (effects (font (size 1.27 1.27))))
        )
        (pin input inverted (at -5.08 -55.88 0) (length 5.08)
          (name "~{CE}" (effects (font (size 1.27 1.27))))
          (number "30" (effects (font (size 1.27 1.27))))
        )
        (pin input line (at -5.08 -30.48 0) (length 5.08)
          (name "A10" (effects (font (size 1.27 1.27))))
          (number "31" (effects (font (size 1.27 1.27))))
        )
        (pin input inverted (at -5.08 -60.96 0) (length 5.08)
          (name "~{OE}" (effects (font (size 1.27 1.27))))
          (number "32" (effects (font (size 1.27 1.27))))
        )
        (pin input line (at -5.08 -38.1 0) (length 5.08)
          (name "A13" (effects (font (size 1.27 1.27))))
          (number "4" (effects (font (size 1.27 1.27))))
        )
        (pin input line (at -5.08 -40.64 0) (length 5.08)
          (name "A14" (effects (font (size 1.27 1.27))))
          (number "5" (effects (font (size 1.27 1.27))))
        )
        (pin input line (at -5.08 -48.26 0) (length 5.08)
          (name "A17" (effects (font (size 1.27 1.27))))
          (number "6" (effects (font (size 1.27 1.27))))
        )
        (pin input inverted (at -5.08 -58.42 0) (length 5.08)
          (name "~{WE}" (effects (font (size 1.27 1.27))))
          (number "7" (effects (font (size 1.27 1.27))))
        )
        (pin power_in line (at 6.35 5.08 270) (length 5.08)
          (name "VDD" (effects (font (size 1.27 1.27))))
          (number "8" (effects (font (size 1.27 1.27))))
        )
        (pin input line (at -5.08 -50.8 0) (length 5.08)
          (name "A18" (effects (font (size 1.27 1.27))))
          (number "9" (effects (font (size 1.27 1.27))))
        )
      )
    )
    (symbol "Sentinel 65X V2:Conn_02x32_Row_Letter_First" (pin_names (offset 1.016) hide) (in_bom yes) (on_board yes)
      (property "Reference" "J" (at 1.27 40.64 0)
        (effects (font (size 1.27 1.27)))
      )
      (property "Value" "Conn_02x32_Row_Letter_First" (at 1.27 -43.18 0)
        (effects (font (size 1.27 1.27)))
      )
      (property "Footprint" "" (at 0 0 0)
        (effects (font (size 1.27 1.27)) hide)
      )
      (property "Datasheet" "~" (at 0 0 0)
        (effects (font (size 1.27 1.27)) hide)
      )
      (property "ki_keywords" "connector" (at 0 0 0)
        (effects (font (size 1.27 1.27)) hide)
      )
      (property "ki_description" "Generic connector, double row, 02x32, row letter first pin numbering scheme (pin number consists of a letter for the row and a number for the pin index in this row. a1, ..., aN; b1, ..., bN), script generated (kicad-library-utils/schlib/autogen/connector/)" (at 0 0 0)
        (effects (font (size 1.27 1.27)) hide)
      )
      (property "ki_fp_filters" "Connector*:*_2x??_*" (at 0 0 0)
        (effects (font (size 1.27 1.27)) hide)
      )
      (symbol "Conn_02x32_Row_Letter_First_1_1"
        (rectangle (start -1.27 -40.513) (end 0 -40.767)
          (stroke (width 0.1524) (type default))
          (fill (type none))
        )
        (rectangle (start -1.27 -37.973) (end 0 -38.227)
          (stroke (width 0.1524) (type default))
          (fill (type none))
        )
        (rectangle (start -1.27 -35.433) (end 0 -35.687)
          (stroke (width 0.1524) (type default))
          (fill (type none))
        )
        (rectangle (start -1.27 -32.893) (end 0 -33.147)
          (stroke (width 0.1524) (type default))
          (fill (type none))
        )
        (rectangle (start -1.27 -30.353) (end 0 -30.607)
          (stroke (width 0.1524) (type default))
          (fill (type none))
        )
        (rectangle (start -1.27 -27.813) (end 0 -28.067)
          (stroke (width 0.1524) (type default))
          (fill (type none))
        )
        (rectangle (start -1.27 -25.273) (end 0 -25.527)
          (stroke (width 0.1524) (type default))
          (fill (type none))
        )
        (rectangle (start -1.27 -22.733) (end 0 -22.987)
          (stroke (width 0.1524) (type default))
          (fill (type none))
        )
        (rectangle (start -1.27 -20.193) (end 0 -20.447)
          (stroke (width 0.1524) (type default))
          (fill (type none))
        )
        (rectangle (start -1.27 -17.653) (end 0 -17.907)
          (stroke (width 0.1524) (type default))
          (fill (type none))
        )
        (rectangle (start -1.27 -15.113) (end 0 -15.367)
          (stroke (width 0.1524) (type default))
          (fill (type none))
        )
        (rectangle (start -1.27 -12.573) (end 0 -12.827)
          (stroke (width 0.1524) (type default))
          (fill (type none))
        )
        (rectangle (start -1.27 -10.033) (end 0 -10.287)
          (stroke (width 0.1524) (type default))
          (fill (type none))
        )
        (rectangle (start -1.27 -7.493) (end 0 -7.747)
          (stroke (width 0.1524) (type default))
          (fill (type none))
        )
        (rectangle (start -1.27 -4.953) (end 0 -5.207)
          (stroke (width 0.1524) (type default))
          (fill (type none))
        )
        (rectangle (start -1.27 -2.413) (end 0 -2.667)
          (stroke (width 0.1524) (type default))
          (fill (type none))
        )
        (rectangle (start -1.27 0.127) (end 0 -0.127)
          (stroke (width 0.1524) (type default))
          (fill (type none))
        )
        (rectangle (start -1.27 2.667) (end 0 2.413)
          (stroke (width 0.1524) (type default))
          (fill (type none))
        )
        (rectangle (start -1.27 5.207) (end 0 4.953)
          (stroke (width 0.1524) (type default))
          (fill (type none))
        )
        (rectangle (start -1.27 7.747) (end 0 7.493)
          (stroke (width 0.1524) (type default))
          (fill (type none))
        )
        (rectangle (start -1.27 10.287) (end 0 10.033)
          (stroke (width 0.1524) (type default))
          (fill (type none))
        )
        (rectangle (start -1.27 12.827) (end 0 12.573)
          (stroke (width 0.1524) (type default))
          (fill (type none))
        )
        (rectangle (start -1.27 15.367) (end 0 15.113)
          (stroke (width 0.1524) (type default))
          (fill (type none))
        )
        (rectangle (start -1.27 17.907) (end 0 17.653)
          (stroke (width 0.1524) (type default))
          (fill (type none))
        )
        (rectangle (start -1.27 20.447) (end 0 20.193)
          (stroke (width 0.1524) (type default))
          (fill (type none))
        )
        (rectangle (start -1.27 22.987) (end 0 22.733)
          (stroke (width 0.1524) (type default))
          (fill (type none))
        )
        (rectangle (start -1.27 25.527) (end 0 25.273)
          (stroke (width 0.1524) (type default))
          (fill (type none))
        )
        (rectangle (start -1.27 28.067) (end 0 27.813)
          (stroke (width 0.1524) (type default))
          (fill (type none))
        )
        (rectangle (start -1.27 30.607) (end 0 30.353)
          (stroke (width 0.1524) (type default))
          (fill (type none))
        )
        (rectangle (start -1.27 33.147) (end 0 32.893)
          (stroke (width 0.1524) (type default))
          (fill (type none))
        )
        (rectangle (start -1.27 35.687) (end 0 35.433)
          (stroke (width 0.1524) (type default))
          (fill (type none))
        )
        (rectangle (start -1.27 38.227) (end 0 37.973)
          (stroke (width 0.1524) (type default))
          (fill (type none))
        )
        (rectangle (start -1.27 39.37) (end 3.81 -41.91)
          (stroke (width 0.254) (type default))
          (fill (type background))
        )
        (rectangle (start 3.81 -40.513) (end 2.54 -40.767)
          (stroke (width 0.1524) (type default))
          (fill (type none))
        )
        (rectangle (start 3.81 -37.973) (end 2.54 -38.227)
          (stroke (width 0.1524) (type default))
          (fill (type none))
        )
        (rectangle (start 3.81 -35.433) (end 2.54 -35.687)
          (stroke (width 0.1524) (type default))
          (fill (type none))
        )
        (rectangle (start 3.81 -32.893) (end 2.54 -33.147)
          (stroke (width 0.1524) (type default))
          (fill (type none))
        )
        (rectangle (start 3.81 -30.353) (end 2.54 -30.607)
          (stroke (width 0.1524) (type default))
          (fill (type none))
        )
        (rectangle (start 3.81 -27.813) (end 2.54 -28.067)
          (stroke (width 0.1524) (type default))
          (fill (type none))
        )
        (rectangle (start 3.81 -25.273) (end 2.54 -25.527)
          (stroke (width 0.1524) (type default))
          (fill (type none))
        )
        (rectangle (start 3.81 -22.733) (end 2.54 -22.987)
          (stroke (width 0.1524) (type default))
          (fill (type none))
        )
        (rectangle (start 3.81 -20.193) (end 2.54 -20.447)
          (stroke (width 0.1524) (type default))
          (fill (type none))
        )
        (rectangle (start 3.81 -17.653) (end 2.54 -17.907)
          (stroke (width 0.1524) (type default))
          (fill (type none))
        )
        (rectangle (start 3.81 -15.113) (end 2.54 -15.367)
          (stroke (width 0.1524) (type default))
          (fill (type none))
        )
        (rectangle (start 3.81 -12.573) (end 2.54 -12.827)
          (stroke (width 0.1524) (type default))
          (fill (type none))
        )
        (rectangle (start 3.81 -10.033) (end 2.54 -10.287)
          (stroke (width 0.1524) (type default))
          (fill (type none))
        )
        (rectangle (start 3.81 -7.493) (end 2.54 -7.747)
          (stroke (width 0.1524) (type default))
          (fill (type none))
        )
        (rectangle (start 3.81 -4.953) (end 2.54 -5.207)
          (stroke (width 0.1524) (type default))
          (fill (type none))
        )
        (rectangle (start 3.81 -2.413) (end 2.54 -2.667)
          (stroke (width 0.1524) (type default))
          (fill (type none))
        )
        (rectangle (start 3.81 0.127) (end 2.54 -0.127)
          (stroke (width 0.1524) (type default))
          (fill (type none))
        )
        (rectangle (start 3.81 2.667) (end 2.54 2.413)
          (stroke (width 0.1524) (type default))
          (fill (type none))
        )
        (rectangle (start 3.81 5.207) (end 2.54 4.953)
          (stroke (width 0.1524) (type default))
          (fill (type none))
        )
        (rectangle (start 3.81 7.747) (end 2.54 7.493)
          (stroke (width 0.1524) (type default))
          (fill (type none))
        )
        (rectangle (start 3.81 10.287) (end 2.54 10.033)
          (stroke (width 0.1524) (type default))
          (fill (type none))
        )
        (rectangle (start 3.81 12.827) (end 2.54 12.573)
          (stroke (width 0.1524) (type default))
          (fill (type none))
        )
        (rectangle (start 3.81 15.367) (end 2.54 15.113)
          (stroke (width 0.1524) (type default))
          (fill (type none))
        )
        (rectangle (start 3.81 17.907) (end 2.54 17.653)
          (stroke (width 0.1524) (type default))
          (fill (type none))
        )
        (rectangle (start 3.81 20.447) (end 2.54 20.193)
          (stroke (width 0.1524) (type default))
          (fill (type none))
        )
        (rectangle (start 3.81 22.987) (end 2.54 22.733)
          (stroke (width 0.1524) (type default))
          (fill (type none))
        )
        (rectangle (start 3.81 25.527) (end 2.54 25.273)
          (stroke (width 0.1524) (type default))
          (fill (type none))
        )
        (rectangle (start 3.81 28.067) (end 2.54 27.813)
          (stroke (width 0.1524) (type default))
          (fill (type none))
        )
        (rectangle (start 3.81 30.607) (end 2.54 30.353)
          (stroke (width 0.1524) (type default))
          (fill (type none))
        )
        (rectangle (start 3.81 33.147) (end 2.54 32.893)
          (stroke (width 0.1524) (type default))
          (fill (type none))
        )
        (rectangle (start 3.81 35.687) (end 2.54 35.433)
          (stroke (width 0.1524) (type default))
          (fill (type none))
        )
        (rectangle (start 3.81 38.227) (end 2.54 37.973)
          (stroke (width 0.1524) (type default))
          (fill (type none))
        )
        (pin passive line (at -5.08 38.1 0) (length 3.81)
          (name "Pin_a1" (effects (font (size 1.27 1.27))))
          (number "a1" (effects (font (size 1.27 1.27))))
        )
        (pin passive line (at -5.08 15.24 0) (length 3.81)
          (name "Pin_a10" (effects (font (size 1.27 1.27))))
          (number "a10" (effects (font (size 1.27 1.27))))
        )
        (pin passive line (at -5.08 12.7 0) (length 3.81)
          (name "Pin_a11" (effects (font (size 1.27 1.27))))
          (number "a11" (effects (font (size 1.27 1.27))))
        )
        (pin passive line (at -5.08 10.16 0) (length 3.81)
          (name "Pin_a12" (effects (font (size 1.27 1.27))))
          (number "a12" (effects (font (size 1.27 1.27))))
        )
        (pin passive line (at -5.08 7.62 0) (length 3.81)
          (name "Pin_a13" (effects (font (size 1.27 1.27))))
          (number "a13" (effects (font (size 1.27 1.27))))
        )
        (pin passive line (at -5.08 5.08 0) (length 3.81)
          (name "Pin_a14" (effects (font (size 1.27 1.27))))
          (number "a14" (effects (font (size 1.27 1.27))))
        )
        (pin passive line (at -5.08 2.54 0) (length 3.81)
          (name "Pin_a15" (effects (font (size 1.27 1.27))))
          (number "a15" (effects (font (size 1.27 1.27))))
        )
        (pin passive line (at -5.08 0 0) (length 3.81)
          (name "Pin_a16" (effects (font (size 1.27 1.27))))
          (number "a16" (effects (font (size 1.27 1.27))))
        )
        (pin passive line (at -5.08 -2.54 0) (length 3.81)
          (name "Pin_a17" (effects (font (size 1.27 1.27))))
          (number "a17" (effects (font (size 1.27 1.27))))
        )
        (pin passive line (at -5.08 -5.08 0) (length 3.81)
          (name "Pin_a18" (effects (font (size 1.27 1.27))))
          (number "a18" (effects (font (size 1.27 1.27))))
        )
        (pin passive line (at -5.08 -7.62 0) (length 3.81)
          (name "Pin_a19" (effects (font (size 1.27 1.27))))
          (number "a19" (effects (font (size 1.27 1.27))))
        )
        (pin passive line (at -5.08 35.56 0) (length 3.81)
          (name "Pin_a2" (effects (font (size 1.27 1.27))))
          (number "a2" (effects (font (size 1.27 1.27))))
        )
        (pin passive line (at -5.08 -10.16 0) (length 3.81)
          (name "Pin_a20" (effects (font (size 1.27 1.27))))
          (number "a20" (effects (font (size 1.27 1.27))))
        )
        (pin passive line (at -5.08 -12.7 0) (length 3.81)
          (name "Pin_a21" (effects (font (size 1.27 1.27))))
          (number "a21" (effects (font (size 1.27 1.27))))
        )
        (pin passive line (at -5.08 -15.24 0) (length 3.81)
          (name "Pin_a22" (effects (font (size 1.27 1.27))))
          (number "a22" (effects (font (size 1.27 1.27))))
        )
        (pin passive line (at -5.08 -17.78 0) (length 3.81)
          (name "Pin_a23" (effects (font (size 1.27 1.27))))
          (number "a23" (effects (font (size 1.27 1.27))))
        )
        (pin passive line (at -5.08 -20.32 0) (length 3.81)
          (name "Pin_a24" (effects (font (size 1.27 1.27))))
          (number "a24" (effects (font (size 1.27 1.27))))
        )
        (pin passive line (at -5.08 -22.86 0) (length 3.81)
          (name "Pin_a25" (effects (font (size 1.27 1.27))))
          (number "a25" (effects (font (size 1.27 1.27))))
        )
        (pin passive line (at -5.08 -25.4 0) (length 3.81)
          (name "Pin_a26" (effects (font (size 1.27 1.27))))
          (number "a26" (effects (font (size 1.27 1.27))))
        )
        (pin passive line (at -5.08 -27.94 0) (length 3.81)
          (name "Pin_a27" (effects (font (size 1.27 1.27))))
          (number "a27" (effects (font (size 1.27 1.27))))
        )
        (pin passive line (at -5.08 -30.48 0) (length 3.81)
          (name "Pin_a28" (effects (font (size 1.27 1.27))))
          (number "a28" (effects (font (size 1.27 1.27))))
        )
        (pin passive line (at -5.08 -33.02 0) (length 3.81)
          (name "Pin_a29" (effects (font (size 1.27 1.27))))
          (number "a29" (effects (font (size 1.27 1.27))))
        )
        (pin passive line (at -5.08 33.02 0) (length 3.81)
          (name "Pin_a3" (effects (font (size 1.27 1.27))))
          (number "a3" (effects (font (size 1.27 1.27))))
        )
        (pin passive line (at -5.08 -35.56 0) (length 3.81)
          (name "Pin_a30" (effects (font (size 1.27 1.27))))
          (number "a30" (effects (font (size 1.27 1.27))))
        )
        (pin passive line (at -5.08 -38.1 0) (length 3.81)
          (name "Pin_a31" (effects (font (size 1.27 1.27))))
          (number "a31" (effects (font (size 1.27 1.27))))
        )
        (pin passive line (at -5.08 -40.64 0) (length 3.81)
          (name "Pin_a32" (effects (font (size 1.27 1.27))))
          (number "a32" (effects (font (size 1.27 1.27))))
        )
        (pin passive line (at -5.08 30.48 0) (length 3.81)
          (name "Pin_a4" (effects (font (size 1.27 1.27))))
          (number "a4" (effects (font (size 1.27 1.27))))
        )
        (pin passive line (at -5.08 27.94 0) (length 3.81)
          (name "Pin_a5" (effects (font (size 1.27 1.27))))
          (number "a5" (effects (font (size 1.27 1.27))))
        )
        (pin passive line (at -5.08 25.4 0) (length 3.81)
          (name "Pin_a6" (effects (font (size 1.27 1.27))))
          (number "a6" (effects (font (size 1.27 1.27))))
        )
        (pin passive line (at -5.08 22.86 0) (length 3.81)
          (name "Pin_a7" (effects (font (size 1.27 1.27))))
          (number "a7" (effects (font (size 1.27 1.27))))
        )
        (pin passive line (at -5.08 20.32 0) (length 3.81)
          (name "Pin_a8" (effects (font (size 1.27 1.27))))
          (number "a8" (effects (font (size 1.27 1.27))))
        )
        (pin passive line (at -5.08 17.78 0) (length 3.81)
          (name "Pin_a9" (effects (font (size 1.27 1.27))))
          (number "a9" (effects (font (size 1.27 1.27))))
        )
        (pin passive line (at 7.62 38.1 180) (length 3.81)
          (name "Pin_b1" (effects (font (size 1.27 1.27))))
          (number "b1" (effects (font (size 1.27 1.27))))
        )
        (pin passive line (at 7.62 15.24 180) (length 3.81)
          (name "Pin_b10" (effects (font (size 1.27 1.27))))
          (number "b10" (effects (font (size 1.27 1.27))))
        )
        (pin passive line (at 7.62 12.7 180) (length 3.81)
          (name "Pin_b11" (effects (font (size 1.27 1.27))))
          (number "b11" (effects (font (size 1.27 1.27))))
        )
        (pin passive line (at 7.62 10.16 180) (length 3.81)
          (name "Pin_b12" (effects (font (size 1.27 1.27))))
          (number "b12" (effects (font (size 1.27 1.27))))
        )
        (pin passive line (at 7.62 7.62 180) (length 3.81)
          (name "Pin_b13" (effects (font (size 1.27 1.27))))
          (number "b13" (effects (font (size 1.27 1.27))))
        )
        (pin passive line (at 7.62 5.08 180) (length 3.81)
          (name "Pin_b14" (effects (font (size 1.27 1.27))))
          (number "b14" (effects (font (size 1.27 1.27))))
        )
        (pin passive line (at 7.62 2.54 180) (length 3.81)
          (name "Pin_b15" (effects (font (size 1.27 1.27))))
          (number "b15" (effects (font (size 1.27 1.27))))
        )
        (pin passive line (at 7.62 0 180) (length 3.81)
          (name "Pin_b16" (effects (font (size 1.27 1.27))))
          (number "b16" (effects (font (size 1.27 1.27))))
        )
        (pin passive line (at 7.62 -2.54 180) (length 3.81)
          (name "Pin_b17" (effects (font (size 1.27 1.27))))
          (number "b17" (effects (font (size 1.27 1.27))))
        )
        (pin passive line (at 7.62 -5.08 180) (length 3.81)
          (name "Pin_b18" (effects (font (size 1.27 1.27))))
          (number "b18" (effects (font (size 1.27 1.27))))
        )
        (pin passive line (at 7.62 -7.62 180) (length 3.81)
          (name "Pin_b19" (effects (font (size 1.27 1.27))))
          (number "b19" (effects (font (size 1.27 1.27))))
        )
        (pin passive line (at 7.62 35.56 180) (length 3.81)
          (name "Pin_b2" (effects (font (size 1.27 1.27))))
          (number "b2" (effects (font (size 1.27 1.27))))
        )
        (pin passive line (at 7.62 -10.16 180) (length 3.81)
          (name "Pin_b20" (effects (font (size 1.27 1.27))))
          (number "b20" (effects (font (size 1.27 1.27))))
        )
        (pin passive line (at 7.62 -12.7 180) (length 3.81)
          (name "Pin_b21" (effects (font (size 1.27 1.27))))
          (number "b21" (effects (font (size 1.27 1.27))))
        )
        (pin passive line (at 7.62 -15.24 180) (length 3.81)
          (name "Pin_b22" (effects (font (size 1.27 1.27))))
          (number "b22" (effects (font (size 1.27 1.27))))
        )
        (pin passive line (at 7.62 -17.78 180) (length 3.81)
          (name "Pin_b23" (effects (font (size 1.27 1.27))))
          (number "b23" (effects (font (size 1.27 1.27))))
        )
        (pin passive line (at 7.62 -20.32 180) (length 3.81)
          (name "Pin_b24" (effects (font (size 1.27 1.27))))
          (number "b24" (effects (font (size 1.27 1.27))))
        )
        (pin passive line (at 7.62 -22.86 180) (length 3.81)
          (name "Pin_b25" (effects (font (size 1.27 1.27))))
          (number "b25" (effects (font (size 1.27 1.27))))
        )
        (pin passive line (at 7.62 -25.4 180) (length 3.81)
          (name "Pin_b26" (effects (font (size 1.27 1.27))))
          (number "b26" (effects (font (size 1.27 1.27))))
        )
        (pin passive line (at 7.62 -27.94 180) (length 3.81)
          (name "Pin_b27" (effects (font (size 1.27 1.27))))
          (number "b27" (effects (font (size 1.27 1.27))))
        )
        (pin passive line (at 7.62 -30.48 180) (length 3.81)
          (name "Pin_b28" (effects (font (size 1.27 1.27))))
          (number "b28" (effects (font (size 1.27 1.27))))
        )
        (pin passive line (at 7.62 -33.02 180) (length 3.81)
          (name "Pin_b29" (effects (font (size 1.27 1.27))))
          (number "b29" (effects (font (size 1.27 1.27))))
        )
        (pin passive line (at 7.62 33.02 180) (length 3.81)
          (name "Pin_b3" (effects (font (size 1.27 1.27))))
          (number "b3" (effects (font (size 1.27 1.27))))
        )
        (pin passive line (at 7.62 -35.56 180) (length 3.81)
          (name "Pin_b30" (effects (font (size 1.27 1.27))))
          (number "b30" (effects (font (size 1.27 1.27))))
        )
        (pin passive line (at 7.62 -38.1 180) (length 3.81)
          (name "Pin_b31" (effects (font (size 1.27 1.27))))
          (number "b31" (effects (font (size 1.27 1.27))))
        )
        (pin passive line (at 7.62 -40.64 180) (length 3.81)
          (name "Pin_b32" (effects (font (size 1.27 1.27))))
          (number "b32" (effects (font (size 1.27 1.27))))
        )
        (pin passive line (at 7.62 30.48 180) (length 3.81)
          (name "Pin_b4" (effects (font (size 1.27 1.27))))
          (number "b4" (effects (font (size 1.27 1.27))))
        )
        (pin passive line (at 7.62 27.94 180) (length 3.81)
          (name "Pin_b5" (effects (font (size 1.27 1.27))))
          (number "b5" (effects (font (size 1.27 1.27))))
        )
        (pin passive line (at 7.62 25.4 180) (length 3.81)
          (name "Pin_b6" (effects (font (size 1.27 1.27))))
          (number "b6" (effects (font (size 1.27 1.27))))
        )
        (pin passive line (at 7.62 22.86 180) (length 3.81)
          (name "Pin_b7" (effects (font (size 1.27 1.27))))
          (number "b7" (effects (font (size 1.27 1.27))))
        )
        (pin passive line (at 7.62 20.32 180) (length 3.81)
          (name "Pin_b8" (effects (font (size 1.27 1.27))))
          (number "b8" (effects (font (size 1.27 1.27))))
        )
        (pin passive line (at 7.62 17.78 180) (length 3.81)
          (name "Pin_b9" (effects (font (size 1.27 1.27))))
          (number "b9" (effects (font (size 1.27 1.27))))
        )
      )
    )
    (symbol "power:+3.3V" (power) (pin_names (offset 0)) (in_bom yes) (on_board yes)
      (property "Reference" "#PWR" (at 0 -3.81 0)
        (effects (font (size 1.27 1.27)) hide)
      )
      (property "Value" "+3.3V" (at 0 3.556 0)
        (effects (font (size 1.27 1.27)))
      )
      (property "Footprint" "" (at 0 0 0)
        (effects (font (size 1.27 1.27)) hide)
      )
      (property "Datasheet" "" (at 0 0 0)
        (effects (font (size 1.27 1.27)) hide)
      )
      (property "ki_keywords" "global power" (at 0 0 0)
        (effects (font (size 1.27 1.27)) hide)
      )
      (property "ki_description" "Power symbol creates a global label with name \"+3.3V\"" (at 0 0 0)
        (effects (font (size 1.27 1.27)) hide)
      )
      (symbol "+3.3V_0_1"
        (polyline
          (pts
            (xy -0.762 1.27)
            (xy 0 2.54)
          )
          (stroke (width 0) (type default))
          (fill (type none))
        )
        (polyline
          (pts
            (xy 0 0)
            (xy 0 2.54)
          )
          (stroke (width 0) (type default))
          (fill (type none))
        )
        (polyline
          (pts
            (xy 0 2.54)
            (xy 0.762 1.27)
          )
          (stroke (width 0) (type default))
          (fill (type none))
        )
      )
      (symbol "+3.3V_1_1"
        (pin power_in line (at 0 0 90) (length 0) hide
          (name "+3.3V" (effects (font (size 1.27 1.27))))
          (number "1" (effects (font (size 1.27 1.27))))
        )
      )
    )
    (symbol "power:+5V" (power) (pin_names (offset 0)) (in_bom yes) (on_board yes)
      (property "Reference" "#PWR" (at 0 -3.81 0)
        (effects (font (size 1.27 1.27)) hide)
      )
      (property "Value" "+5V" (at 0 3.556 0)
        (effects (font (size 1.27 1.27)))
      )
      (property "Footprint" "" (at 0 0 0)
        (effects (font (size 1.27 1.27)) hide)
      )
      (property "Datasheet" "" (at 0 0 0)
        (effects (font (size 1.27 1.27)) hide)
      )
      (property "ki_keywords" "global power" (at 0 0 0)
        (effects (font (size 1.27 1.27)) hide)
      )
      (property "ki_description" "Power symbol creates a global label with name \"+5V\"" (at 0 0 0)
        (effects (font (size 1.27 1.27)) hide)
      )
      (symbol "+5V_0_1"
        (polyline
          (pts
            (xy -0.762 1.27)
            (xy 0 2.54)
          )
          (stroke (width 0) (type default))
          (fill (type none))
        )
        (polyline
          (pts
            (xy 0 0)
            (xy 0 2.54)
          )
          (stroke (width 0) (type default))
          (fill (type none))
        )
        (polyline
          (pts
            (xy 0 2.54)
            (xy 0.762 1.27)
          )
          (stroke (width 0) (type default))
          (fill (type none))
        )
      )
      (symbol "+5V_1_1"
        (pin power_in line (at 0 0 90) (length 0) hide
          (name "+5V" (effects (font (size 1.27 1.27))))
          (number "1" (effects (font (size 1.27 1.27))))
        )
      )
    )
    (symbol "power:GND" (power) (pin_names (offset 0)) (in_bom yes) (on_board yes)
      (property "Reference" "#PWR" (at 0 -6.35 0)
        (effects (font (size 1.27 1.27)) hide)
      )
      (property "Value" "GND" (at 0 -3.81 0)
        (effects (font (size 1.27 1.27)))
      )
      (property "Footprint" "" (at 0 0 0)
        (effects (font (size 1.27 1.27)) hide)
      )
      (property "Datasheet" "" (at 0 0 0)
        (effects (font (size 1.27 1.27)) hide)
      )
      (property "ki_keywords" "global power" (at 0 0 0)
        (effects (font (size 1.27 1.27)) hide)
      )
      (property "ki_description" "Power symbol creates a global label with name \"GND\" , ground" (at 0 0 0)
        (effects (font (size 1.27 1.27)) hide)
      )
      (symbol "GND_0_1"
        (polyline
          (pts
            (xy 0 0)
            (xy 0 -1.27)
            (xy 1.27 -1.27)
            (xy 0 -2.54)
            (xy -1.27 -1.27)
            (xy 0 -1.27)
          )
          (stroke (width 0) (type default))
          (fill (type none))
        )
      )
      (symbol "GND_1_1"
        (pin power_in line (at 0 0 270) (length 0) hide
          (name "GND" (effects (font (size 1.27 1.27))))
          (number "1" (effects (font (size 1.27 1.27))))
        )
      )
    )
  )


  (no_connect (at 99.06 123.19) (uuid 07153ce9-a8e0-47e4-89a2-ebac577da5e4))
  (no_connect (at 111.76 113.03) (uuid 085b5d4b-a77f-4811-b5fc-5108ad22889a))
  (no_connect (at 99.06 113.03) (uuid 14b9e0c4-450d-46d0-a291-afed75628b67))
  (no_connect (at 99.06 128.27) (uuid 15b8d439-355e-4235-bfe7-43471eadcfcd))
  (no_connect (at 99.06 105.41) (uuid 1e09163e-8867-499a-aaf6-495edff71c5f))
  (no_connect (at 99.06 110.49) (uuid 239a6a12-a59c-47ab-ac52-a3a80cb973a0))
  (no_connect (at 111.76 85.09) (uuid 3f082461-05d6-4f84-888f-024b084e5312))
  (no_connect (at 111.76 82.55) (uuid 4173a3c4-bc81-4f53-8c55-a68702e62d5a))
  (no_connect (at 111.76 123.19) (uuid 4dda9e10-5968-4333-aed5-33765ec31dc7))
  (no_connect (at 99.06 115.57) (uuid 54519fa0-30a4-45df-be50-7bb8fb39385d))
  (no_connect (at 99.06 87.63) (uuid 54c7157c-f19c-4f1c-bd30-1722e7f00778))
  (no_connect (at 99.06 85.09) (uuid 65e373b1-b032-44be-be92-5c0f92c4e8e3))
  (no_connect (at 111.76 87.63) (uuid 6a740623-79f9-477b-93ea-681653be2cea))
  (no_connect (at 99.06 125.73) (uuid 6ae89cbe-d276-4966-84b0-7a23200d9755))
  (no_connect (at 111.76 102.87) (uuid 7322b6de-b539-45e3-99d2-a699cdf19e11))
  (no_connect (at 111.76 128.27) (uuid 7cac0f40-a385-4d8a-a499-2e74b929ce4d))
  (no_connect (at 99.06 130.81) (uuid 8086ef40-1d63-40ff-8c9b-3611719d9387))
  (no_connect (at 111.76 125.73) (uuid 82611860-91f3-42e4-b442-f8eef75f4314))
  (no_connect (at 99.06 118.11) (uuid 8c47b0c8-7d1d-4592-ac90-fbc002f63ca2))
  (no_connect (at 111.76 107.95) (uuid 9a73ed77-384d-4e71-92fc-b74630bb5f6d))
  (no_connect (at 111.76 120.65) (uuid a1fd95e9-d3e4-41d1-b1a4-3a88a635bc51))
  (no_connect (at 99.06 54.61) (uuid af1ec09e-2d83-4244-bdc6-a988bc3dc4b1))
  (no_connect (at 111.76 115.57) (uuid bcfa508e-35ce-48f0-af84-ea498ab086f8))
  (no_connect (at 111.76 110.49) (uuid c3a97396-5d57-49d7-8673-0574e1918552))
  (no_connect (at 99.06 120.65) (uuid c3b663a3-334c-4a8a-85ad-d9e10f974dff))
  (no_connect (at 99.06 57.15) (uuid c63a8d3e-756c-4d45-8790-6985b8e409c7))
  (no_connect (at 111.76 105.41) (uuid cd4bb1cf-584d-4aa7-8513-d7e1a7475d47))
  (no_connect (at 111.76 118.11) (uuid fe1ea47b-a9ea-484e-b120-0925816f26e2))

  (wire (pts (xy 156.845 88.265) (xy 168.275 88.265))
    (stroke (width 0) (type default))
    (uuid 01d02768-4f6a-4763-b8a1-cf5019e1cbd4)
  )
  (wire (pts (xy 111.76 92.71) (xy 123.19 92.71))
    (stroke (width 0) (type default))
    (uuid 078543e9-7130-4578-8127-292937b0020e)
  )
  (wire (pts (xy 156.845 85.725) (xy 168.275 85.725))
    (stroke (width 0) (type default))
    (uuid 086f6940-9d9c-4be2-bf94-8b6aa96202ba)
  )
  (wire (pts (xy 156.845 126.365) (xy 168.275 126.365))
    (stroke (width 0) (type default))
    (uuid 0ab3ae0d-10c4-4376-b998-c5548823dd14)
  )
  (wire (pts (xy 87.63 69.85) (xy 99.06 69.85))
    (stroke (width 0) (type default))
    (uuid 0c10d332-6449-4fab-8cbc-1436d241f6d4)
  )
  (wire (pts (xy 111.76 80.01) (xy 123.19 80.01))
    (stroke (width 0) (type default))
    (uuid 181c1766-102b-42dc-9d42-8bd163c46c78)
  )
  (wire (pts (xy 87.63 97.79) (xy 99.06 97.79))
    (stroke (width 0) (type default))
    (uuid 282e506d-52ca-4dff-b5d4-a345a24170f2)
  )
  (wire (pts (xy 111.76 95.25) (xy 123.19 95.25))
    (stroke (width 0) (type default))
    (uuid 28bd19ba-ee21-4884-95ac-c601dc3fbdbb)
  )
  (wire (pts (xy 191.135 83.185) (xy 202.565 83.185))
    (stroke (width 0) (type default))
    (uuid 2f2f3b27-e40b-4335-b0c1-9166549cd2af)
  )
  (wire (pts (xy 156.845 121.285) (xy 168.275 121.285))
    (stroke (width 0) (type default))
    (uuid 3105c875-b4c0-4fed-ab25-a8ed3e0a60a5)
  )
  (wire (pts (xy 87.63 102.87) (xy 99.06 102.87))
    (stroke (width 0) (type default))
    (uuid 3113e724-cc51-474e-b0fb-f77c46b2c131)
  )
  (wire (pts (xy 111.76 97.79) (xy 130.81 97.79))
    (stroke (width 0) (type default))
    (uuid 3526cdb9-bf73-4c67-b981-abe4520bbce5)
  )
  (wire (pts (xy 156.845 100.965) (xy 168.275 100.965))
    (stroke (width 0) (type default))
    (uuid 371fe698-1bfd-420e-ac85-c7887b3423a5)
  )
  (wire (pts (xy 144.145 123.825) (xy 147.955 123.825))
    (stroke (width 0) (type default))
    (uuid 3f82c0b0-9a4f-44cc-8be8-40ef7f3a5991)
  )
  (wire (pts (xy 99.06 95.25) (xy 87.63 95.25))
    (stroke (width 0) (type default))
    (uuid 41f023d2-21e6-41db-8173-a191904ad770)
  )
  (wire (pts (xy 87.63 67.31) (xy 99.06 67.31))
    (stroke (width 0) (type default))
    (uuid 42833a73-dd40-4573-a6a6-c66441401236)
  )
  (wire (pts (xy 156.845 116.205) (xy 168.275 116.205))
    (stroke (width 0) (type default))
    (uuid 48882f0c-5ee3-438c-9339-2bd415604256)
  )
  (wire (pts (xy 87.63 74.93) (xy 99.06 74.93))
    (stroke (width 0) (type default))
    (uuid 49d680f5-297f-467b-b5b4-587f71c42c2c)
  )
  (wire (pts (xy 156.845 103.505) (xy 168.275 103.505))
    (stroke (width 0) (type default))
    (uuid 4c3aac95-bdea-4468-b47b-9a8d4a4b7264)
  )
  (wire (pts (xy 111.76 90.17) (xy 123.19 90.17))
    (stroke (width 0) (type default))
    (uuid 4d606f03-99d3-46d1-986c-627bea38305b)
  )
  (wire (pts (xy 191.135 88.265) (xy 202.565 88.265))
    (stroke (width 0) (type default))
    (uuid 4e898517-3c9f-4155-bca5-64420e75cb96)
  )
  (wire (pts (xy 111.76 64.77) (xy 123.19 64.77))
    (stroke (width 0) (type default))
    (uuid 4fa3464f-6200-4822-bc54-47ec24e67288)
  )
  (wire (pts (xy 87.63 59.69) (xy 99.06 59.69))
    (stroke (width 0) (type default))
    (uuid 4fe1af9f-2e50-4c9e-89e0-431c7b393e34)
  )
  (wire (pts (xy 156.845 108.585) (xy 168.275 108.585))
    (stroke (width 0) (type default))
    (uuid 51ceaadd-0bb3-4667-92d2-b5fe161c8307)
  )
  (wire (pts (xy 87.63 64.77) (xy 99.06 64.77))
    (stroke (width 0) (type default))
    (uuid 5305ef13-1912-45c3-89e9-318db68f7220)
  )
  (wire (pts (xy 111.76 59.69) (xy 123.19 59.69))
    (stroke (width 0) (type default))
    (uuid 54fcd4f8-3aee-4b8d-9057-c00de69bab8e)
  )
  (wire (pts (xy 191.135 73.025) (xy 202.565 73.025))
    (stroke (width 0) (type default))
    (uuid 5748b96a-3cb3-4771-b864-0d9091f2c4d5)
  )
  (wire (pts (xy 156.845 95.885) (xy 168.275 95.885))
    (stroke (width 0) (type default))
    (uuid 576b2b42-b66b-4d65-99a6-8e0ee4b7ffcc)
  )
  (wire (pts (xy 156.845 106.045) (xy 168.275 106.045))
    (stroke (width 0) (type default))
    (uuid 60f42169-b29b-40a0-beb1-1113a542279e)
  )
  (wire (pts (xy 156.845 75.565) (xy 168.275 75.565))
    (stroke (width 0) (type default))
    (uuid 613d0f21-dd01-4fda-b485-578510178de9)
  )
  (wire (pts (xy 130.81 54.61) (xy 130.81 57.15))
    (stroke (width 0) (type default))
    (uuid 6b84b491-f5a2-4f19-abbe-fbee6f8340dc)
  )
  (wire (pts (xy 156.845 70.485) (xy 168.275 70.485))
    (stroke (width 0) (type default))
    (uuid 738405b4-050e-477a-b437-25a2d7bd1704)
  )
  (wire (pts (xy 156.845 111.125) (xy 168.275 111.125))
    (stroke (width 0) (type default))
    (uuid 7589d9d1-6919-4179-8ee2-ea499a7a82bb)
  )
  (wire (pts (xy 111.76 130.81) (xy 130.81 130.81))
    (stroke (width 0) (type default))
    (uuid 7738c0b0-8b73-4727-b005-31b9473964db)
  )
  (wire (pts (xy 111.76 77.47) (xy 123.19 77.47))
    (stroke (width 0) (type default))
    (uuid 7ada93f2-9f52-4d2f-bf5d-efe112aac11e)
  )
  (wire (pts (xy 130.81 128.27) (xy 130.81 130.81))
    (stroke (width 0) (type default))
    (uuid 7f6924c3-6afe-45f9-98ec-db3b730fb3aa)
  )
  (wire (pts (xy 99.06 133.35) (xy 85.09 133.35))
    (stroke (width 0) (type default))
    (uuid 7f99caf8-081d-4004-ae58-8fc7f0a7480d)
  )
  (wire (pts (xy 111.76 67.31) (xy 123.19 67.31))
    (stroke (width 0) (type default))
    (uuid 800a1584-68b0-40e5-a586-fa474791bff4)
  )
  (wire (pts (xy 111.76 54.61) (xy 130.81 54.61))
    (stroke (width 0) (type default))
    (uuid 82945f8d-1686-400e-9476-7d21543d3f22)
  )
  (wire (pts (xy 156.845 98.425) (xy 168.275 98.425))
    (stroke (width 0) (type default))
    (uuid 97b5ec6f-7b51-4006-bfc4-bb9adb40e439)
  )
  (wire (pts (xy 111.76 74.93) (xy 123.19 74.93))
    (stroke (width 0) (type default))
    (uuid 9d512ba6-778d-4c98-95a0-ef9c6c02abc7)
  )
  (wire (pts (xy 130.81 97.79) (xy 130.81 100.33))
    (stroke (width 0) (type default))
    (uuid a258d92a-3b5a-4df3-bcf4-e55beabefd97)
  )
  (wire (pts (xy 156.845 90.805) (xy 168.275 90.805))
    (stroke (width 0) (type default))
    (uuid a351c5c5-48ed-4fb3-8278-21efcb8931ac)
  )
  (wire (pts (xy 156.845 73.025) (xy 168.275 73.025))
    (stroke (width 0) (type default))
    (uuid a3681377-d132-4fc3-b734-1ce08050caef)
  )
  (wire (pts (xy 99.06 80.01) (xy 87.63 80.01))
    (stroke (width 0) (type default))
    (uuid a3b6bd2c-8d62-44be-aa2d-4840630ed293)
  )
  (wire (pts (xy 156.845 83.185) (xy 168.275 83.185))
    (stroke (width 0) (type default))
    (uuid a683bd04-aa6b-4e8d-9e0a-139c7b5e581d)
  )
  (wire (pts (xy 85.09 130.81) (xy 85.09 133.35))
    (stroke (width 0) (type default))
    (uuid adcec869-f148-4a29-8425-03d6e1aabaa5)
  )
  (wire (pts (xy 87.63 107.95) (xy 99.06 107.95))
    (stroke (width 0) (type default))
    (uuid b0c7539b-f5c4-4f0c-bec0-fa467ea86f93)
  )
  (wire (pts (xy 87.63 77.47) (xy 99.06 77.47))
    (stroke (width 0) (type default))
    (uuid b226f2de-69dc-453c-a523-144f326d7139)
  )
  (wire (pts (xy 111.76 69.85) (xy 123.19 69.85))
    (stroke (width 0) (type default))
    (uuid b25e8dee-4e84-4b8a-a7d9-2d419856a039)
  )
  (wire (pts (xy 191.135 75.565) (xy 202.565 75.565))
    (stroke (width 0) (type default))
    (uuid b2649e02-2ead-419f-9ac9-ccea7d3e3b36)
  )
  (wire (pts (xy 111.76 62.23) (xy 123.19 62.23))
    (stroke (width 0) (type default))
    (uuid b2775801-a718-4b3d-a921-84a9f90da800)
  )
  (wire (pts (xy 191.135 70.485) (xy 202.565 70.485))
    (stroke (width 0) (type default))
    (uuid b4bb0c83-18e8-4157-8805-35d37ea4119c)
  )
  (wire (pts (xy 99.06 82.55) (xy 87.63 82.55))
    (stroke (width 0) (type default))
    (uuid b6f6fa98-4d53-4b76-b46d-66f03363508f)
  )
  (wire (pts (xy 111.76 133.35) (xy 130.81 133.35))
    (stroke (width 0) (type default))
    (uuid b88ddf02-4976-44ee-9d9e-2edf20c09c22)
  )
  (wire (pts (xy 123.19 100.33) (xy 111.76 100.33))
    (stroke (width 0) (type default))
    (uuid b8e0bd1d-f846-453d-b338-315b018d7e24)
  )
  (wire (pts (xy 156.845 113.665) (xy 168.275 113.665))
    (stroke (width 0) (type default))
    (uuid b9e7879c-de1b-428f-b769-341f76c676e2)
  )
  (wire (pts (xy 87.63 72.39) (xy 99.06 72.39))
    (stroke (width 0) (type default))
    (uuid ba3df1ce-6c14-43a1-8c2d-0d3a5af7c36f)
  )
  (wire (pts (xy 191.135 80.645) (xy 202.565 80.645))
    (stroke (width 0) (type default))
    (uuid ba4ebfca-0063-4642-92c4-088e1776d5de)
  )
  (wire (pts (xy 191.135 85.725) (xy 202.565 85.725))
    (stroke (width 0) (type default))
    (uuid bf4d9847-e28e-48e2-81f1-f96bd9c83648)
  )
  (wire (pts (xy 99.06 90.17) (xy 87.63 90.17))
    (stroke (width 0) (type default))
    (uuid c3c03a2e-aa83-4f25-ad16-9f1ee730d9d0)
  )
  (wire (pts (xy 130.81 133.35) (xy 130.81 135.89))
    (stroke (width 0) (type default))
    (uuid c507520d-7f37-4b51-97c9-32dc669c900a)
  )
  (wire (pts (xy 191.135 78.105) (xy 202.565 78.105))
    (stroke (width 0) (type default))
    (uuid cbc1f4c6-3e9b-4cd1-80c0-334f6e0fedd9)
  )
  (wire (pts (xy 111.76 72.39) (xy 123.19 72.39))
    (stroke (width 0) (type default))
    (uuid d0bb8dce-0f30-42d4-a74f-8b24a3a1af3a)
  )
  (wire (pts (xy 99.06 100.33) (xy 87.63 100.33))
    (stroke (width 0) (type default))
    (uuid d2670d89-e4e9-4e14-8d1e-4b4d68ca9d9e)
  )
  (wire (pts (xy 111.76 57.15) (xy 112.395 57.15))
    (stroke (width 0) (type default))
    (uuid d3480353-1c90-4fcb-8434-61a0b52be8cc)
  )
  (wire (pts (xy 156.845 78.105) (xy 168.275 78.105))
    (stroke (width 0) (type default))
    (uuid d5ebc337-2aa3-4797-a156-2e4bf9d3cf63)
  )
  (wire (pts (xy 87.63 62.23) (xy 99.06 62.23))
    (stroke (width 0) (type default))
    (uuid ebb83862-631b-45f5-8223-ccbfb401d8ac)
  )
  (wire (pts (xy 99.06 92.71) (xy 87.63 92.71))
    (stroke (width 0) (type default))
    (uuid f20961b7-8d76-4e62-a097-72ae3ee955d3)
  )
  (wire (pts (xy 155.575 123.825) (xy 168.275 123.825))
    (stroke (width 0) (type default))
    (uuid f76a0a7f-3900-454e-a301-958bbd8b0cba)
  )
  (wire (pts (xy 156.845 80.645) (xy 168.275 80.645))
    (stroke (width 0) (type default))
    (uuid fb53dc06-a658-4cc6-9e82-5150988e37b1)
  )
  (wire (pts (xy 156.845 93.345) (xy 168.275 93.345))
    (stroke (width 0) (type default))
    (uuid ff7c72d4-c473-4c88-8ba9-c815eabca9fd)
  )

  (label "A4" (at 156.845 80.645 0) (fields_autoplaced)
    (effects (font (size 1.27 1.27)) (justify left bottom))
    (uuid 0ac797ec-6e63-4fa8-bffb-237888bdb8fb)
  )
  (label "~{RD}" (at 87.63 102.87 0) (fields_autoplaced)
    (effects (font (size 1.27 1.27)) (justify left bottom))
    (uuid 0b88fb83-f1af-47bf-9cde-6d5458378bf4)
  )
  (label "D1" (at 123.19 90.17 180) (fields_autoplaced)
    (effects (font (size 1.27 1.27)) (justify right bottom))
    (uuid 1449cd9b-b7c3-44e5-a592-069544f2dc3f)
  )
  (label "A1" (at 156.845 73.025 0) (fields_autoplaced)
    (effects (font (size 1.27 1.27)) (justify left bottom))
    (uuid 199404de-0fa8-467f-8ecd-247a4acd99ea)
  )
  (label "A18" (at 156.845 116.205 0) (fields_autoplaced)
    (effects (font (size 1.27 1.27)) (justify left bottom))
    (uuid 1afc7c0c-08f1-42bf-b9fb-dee72925d4e0)
  )
  (label "~{WR}" (at 123.19 100.33 180) (fields_autoplaced)
    (effects (font (size 1.27 1.27)) (justify right bottom))
    (uuid 1e10cc19-2141-4b1f-8b93-c9302c889092)
  )
  (label "A11" (at 123.19 72.39 180) (fields_autoplaced)
    (effects (font (size 1.27 1.27)) (justify right bottom))
    (uuid 24e14ccf-6f0f-4d6a-b765-66ef5cae5d55)
  )
  (label "A16" (at 87.63 80.01 0) (fields_autoplaced)
    (effects (font (size 1.27 1.27)) (justify left bottom))
    (uuid 278eb0a7-a59f-4646-9452-78705b2592e9)
  )
  (label "A13" (at 123.19 74.93 180) (fields_autoplaced)
    (effects (font (size 1.27 1.27)) (justify right bottom))
    (uuid 2bb66f75-6892-400b-aff9-4508dfbf1223)
  )
  (label "A17" (at 156.845 113.665 0) (fields_autoplaced)
    (effects (font (size 1.27 1.27)) (justify left bottom))
    (uuid 2cd10506-82cc-436c-88e7-6d2e7a7c1a58)
  )
  (label "A7" (at 123.19 67.31 180) (fields_autoplaced)
    (effects (font (size 1.27 1.27)) (justify right bottom))
    (uuid 2f2d1684-d0e9-4a91-9221-71667f06c3ac)
  )
  (label "~{CS}6" (at 156.845 121.285 0) (fields_autoplaced)
    (effects (font (size 1.27 1.27)) (justify left bottom))
    (uuid 30a934f6-4bad-435e-b43e-16c2382a8a47)
  )
  (label "A3" (at 123.19 62.23 180) (fields_autoplaced)
    (effects (font (size 1.27 1.27)) (justify right bottom))
    (uuid 32f7547a-0703-464a-be50-8f65c8e6f485)
  )
  (label "A11" (at 156.845 98.425 0) (fields_autoplaced)
    (effects (font (size 1.27 1.27)) (justify left bottom))
    (uuid 34b69a1f-95ad-4f67-8d46-6e82d0c0c047)
  )
  (label "D5" (at 123.19 95.25 180) (fields_autoplaced)
    (effects (font (size 1.27 1.27)) (justify right bottom))
    (uuid 3c519ad7-2b4f-4bc2-aae3-80ce4c872c7a)
  )
  (label "D6" (at 87.63 97.79 0) (fields_autoplaced)
    (effects (font (size 1.27 1.27)) (justify left bottom))
    (uuid 47714b66-68bd-4280-9f36-304d1bdd82e4)
  )
  (label "A14" (at 87.63 77.47 0) (fields_autoplaced)
    (effects (font (size 1.27 1.27)) (justify left bottom))
    (uuid 47aed0f6-c269-43fc-b664-38707c9c5cfd)
  )
  (label "D7" (at 202.565 88.265 180) (fields_autoplaced)
    (effects (font (size 1.27 1.27)) (justify right bottom))
    (uuid 4846a4bf-99b6-49c1-bbd0-23c659126dd3)
  )
  (label "A10" (at 87.63 72.39 0) (fields_autoplaced)
    (effects (font (size 1.27 1.27)) (justify left bottom))
    (uuid 5988ce0c-7dec-4ad8-b8e2-cc82557e3008)
  )
  (label "A15" (at 156.845 108.585 0) (fields_autoplaced)
    (effects (font (size 1.27 1.27)) (justify left bottom))
    (uuid 60dfd3ea-ed18-491a-9074-0b5dc2cddcaf)
  )
  (label "A7" (at 156.845 88.265 0) (fields_autoplaced)
    (effects (font (size 1.27 1.27)) (justify left bottom))
    (uuid 638f00f4-b728-441f-b7f1-7d968577cb6b)
  )
  (label "D6" (at 202.565 85.725 180) (fields_autoplaced)
    (effects (font (size 1.27 1.27)) (justify right bottom))
    (uuid 6a9da812-4b3c-4bd4-838f-6b44e06657b6)
  )
  (label "~{RD}" (at 156.845 126.365 0) (fields_autoplaced)
    (effects (font (size 1.27 1.27)) (justify left bottom))
    (uuid 6fec97e0-a024-4b1b-a5d5-f2d078ef5a20)
  )
  (label "D1" (at 202.565 73.025 180) (fields_autoplaced)
    (effects (font (size 1.27 1.27)) (justify right bottom))
    (uuid 759b502f-9b64-4b23-840f-ebaf25b0248c)
  )
  (label "A5" (at 123.19 64.77 180) (fields_autoplaced)
    (effects (font (size 1.27 1.27)) (justify right bottom))
    (uuid 7675ae57-4687-4434-a7bd-d8aa2bfa0e92)
  )
  (label "A4" (at 87.63 64.77 0) (fields_autoplaced)
    (effects (font (size 1.27 1.27)) (justify left bottom))
    (uuid 7f31f5e0-d13e-4bdb-8a6a-c0a8d4faa97d)
  )
  (label "A9" (at 156.845 93.345 0) (fields_autoplaced)
    (effects (font (size 1.27 1.27)) (justify left bottom))
    (uuid 81c193a7-4bcd-4cc8-aa8b-5152e0c4f713)
  )
  (label "A2" (at 87.63 62.23 0) (fields_autoplaced)
    (effects (font (size 1.27 1.27)) (justify left bottom))
    (uuid 90026252-d166-4aa8-9da3-e48556856ab7)
  )
  (label "A17" (at 123.19 80.01 180) (fields_autoplaced)
    (effects (font (size 1.27 1.27)) (justify right bottom))
    (uuid 967ad3be-f829-4a06-91c3-b3e7a9b242c0)
  )
  (label "D3" (at 202.565 78.105 180) (fields_autoplaced)
    (effects (font (size 1.27 1.27)) (justify right bottom))
    (uuid 9c753aa4-3080-4c0f-a87d-42189eff36db)
  )
  (label "A8" (at 87.63 69.85 0) (fields_autoplaced)
    (effects (font (size 1.27 1.27)) (justify left bottom))
    (uuid 9f576841-15ed-4d21-ab0b-bc964078346e)
  )
  (label "A14" (at 156.845 106.045 0) (fields_autoplaced)
    (effects (font (size 1.27 1.27)) (justify left bottom))
    (uuid 9f6932c9-564b-4333-ba59-4893c4a0cd15)
  )
  (label "A9" (at 123.19 69.85 180) (fields_autoplaced)
    (effects (font (size 1.27 1.27)) (justify right bottom))
    (uuid a746988c-d3fe-41c2-a258-9bc555b5ba05)
  )
  (label "D4" (at 202.565 80.645 180) (fields_autoplaced)
    (effects (font (size 1.27 1.27)) (justify right bottom))
    (uuid a7667d99-f103-45b8-ad95-9770ffe33920)
  )
  (label "A2" (at 156.845 75.565 0) (fields_autoplaced)
    (effects (font (size 1.27 1.27)) (justify left bottom))
    (uuid a7ec1c57-2151-4b8d-a21d-a34c1a194585)
  )
  (label "A8" (at 156.845 90.805 0) (fields_autoplaced)
    (effects (font (size 1.27 1.27)) (justify left bottom))
    (uuid a9fbc0f4-a0d1-48a6-bdbe-5de483c9134a)
  )
  (label "A3" (at 156.845 78.105 0) (fields_autoplaced)
    (effects (font (size 1.27 1.27)) (justify left bottom))
    (uuid accf3a2d-41f5-43d9-bf40-3e8af7c35e97)
  )
  (label "A12" (at 87.63 74.93 0) (fields_autoplaced)
    (effects (font (size 1.27 1.27)) (justify left bottom))
    (uuid b2504d99-8334-42be-9c28-dd09fc94b736)
  )
  (label "A6" (at 87.63 67.31 0) (fields_autoplaced)
    (effects (font (size 1.27 1.27)) (justify left bottom))
    (uuid b2b7f88c-e682-4f75-a516-1c14455062e6)
  )
  (label "A16" (at 156.845 111.125 0) (fields_autoplaced)
    (effects (font (size 1.27 1.27)) (justify left bottom))
    (uuid b7856738-b313-4288-837f-a3042b7aba6c)
  )
  (label "A13" (at 156.845 103.505 0) (fields_autoplaced)
    (effects (font (size 1.27 1.27)) (justify left bottom))
    (uuid c4dddd5c-de55-44c7-a604-18652ef74560)
  )
  (label "A5" (at 156.845 83.185 0) (fields_autoplaced)
    (effects (font (size 1.27 1.27)) (justify left bottom))
    (uuid c644e14f-452a-4c28-9220-e318380bee29)
  )
  (label "A18" (at 87.63 82.55 0) (fields_autoplaced)
    (effects (font (size 1.27 1.27)) (justify left bottom))
    (uuid c7c4f9c3-2464-4597-90d3-9a30604a063e)
  )
  (label "D2" (at 87.63 92.71 0) (fields_autoplaced)
    (effects (font (size 1.27 1.27)) (justify left bottom))
    (uuid ca89a339-d8c9-4c67-9ee9-2fd3cc84c812)
  )
  (label "D4" (at 87.63 95.25 0) (fields_autoplaced)
    (effects (font (size 1.27 1.27)) (justify left bottom))
    (uuid cc6c658d-211f-48aa-a6a5-932df2bed139)
  )
  (label "D7" (at 87.63 100.33 0) (fields_autoplaced)
    (effects (font (size 1.27 1.27)) (justify left bottom))
    (uuid cdd283d4-d193-4831-b062-63b96287038e)
  )
  (label "A1" (at 123.19 59.69 180) (fields_autoplaced)
    (effects (font (size 1.27 1.27)) (justify right bottom))
    (uuid d15d0c9e-be81-410c-b134-582e3f259276)
  )
  (label "D0" (at 202.565 70.485 180) (fields_autoplaced)
    (effects (font (size 1.27 1.27)) (justify right bottom))
    (uuid d3b2fa12-e060-47d8-bc23-bb1a4f3e5f05)
  )
  (label "A6" (at 156.845 85.725 0) (fields_autoplaced)
    (effects (font (size 1.27 1.27)) (justify left bottom))
    (uuid d41f81ce-5b53-41fc-ab3c-d952be3733da)
  )
  (label "A0" (at 156.845 70.485 0) (fields_autoplaced)
    (effects (font (size 1.27 1.27)) (justify left bottom))
    (uuid d6eb09ff-bb9e-4f97-aecc-2fe7cfa4bc28)
  )
  (label "D3" (at 123.19 92.71 180) (fields_autoplaced)
    (effects (font (size 1.27 1.27)) (justify right bottom))
    (uuid d770b686-2caa-4d96-b90f-0b598b8e4522)
  )
  (label "A0" (at 87.63 59.69 0) (fields_autoplaced)
    (effects (font (size 1.27 1.27)) (justify left bottom))
    (uuid d83a4da6-076e-4b44-b046-c99d5879ad3b)
  )
  (label "A10" (at 156.845 95.885 0) (fields_autoplaced)
    (effects (font (size 1.27 1.27)) (justify left bottom))
    (uuid dc6c7ed5-671f-4dd7-a42b-0a1545528210)
  )
  (label "A15" (at 123.19 77.47 180) (fields_autoplaced)
    (effects (font (size 1.27 1.27)) (justify right bottom))
    (uuid df3219c6-ff55-4a8e-a9a2-e57057091f02)
  )
  (label "~{WR}" (at 144.145 123.825 0) (fields_autoplaced)
    (effects (font (size 1.27 1.27)) (justify left bottom))
    (uuid f0001c06-8f6f-430e-990a-2bdc966d9b6f)
  )
  (label "D5" (at 202.565 83.185 180) (fields_autoplaced)
    (effects (font (size 1.27 1.27)) (justify right bottom))
    (uuid f90330ed-1cb4-4c53-9e43-960c552a31c8)
  )
  (label "~{CS}6" (at 87.63 107.95 0) (fields_autoplaced)
    (effects (font (size 1.27 1.27)) (justify left bottom))
    (uuid fab914aa-6c61-48f4-8963-e2343976a511)
  )
  (label "D2" (at 202.565 75.565 180) (fields_autoplaced)
    (effects (font (size 1.27 1.27)) (justify right bottom))
    (uuid fde7896e-fe5d-40ab-ba5c-08cc05c46160)
  )
  (label "D0" (at 87.63 90.17 0) (fields_autoplaced)
    (effects (font (size 1.27 1.27)) (justify left bottom))
    (uuid fdebee3e-04a8-427b-bc83-951ef91db21d)
  )
  (label "A12" (at 156.845 100.965 0) (fields_autoplaced)
    (effects (font (size 1.27 1.27)) (justify left bottom))
    (uuid fee6cf1a-f0f5-47ac-8719-20ec6439c6bc)
  )

  (symbol (lib_id "power:GND") (at 179.705 136.525 0) (unit 1)
    (in_bom yes) (on_board yes) (dnp no)
    (uuid 2ce46c5c-0622-4d74-96f7-0017a0506cec)
    (property "Reference" "#PWR033" (at 179.705 142.875 0)
      (effects (font (size 1.27 1.27)) hide)
    )
    (property "Value" "GND" (at 179.705 140.335 0)
      (effects (font (size 1.27 1.27)))
    )
    (property "Footprint" "" (at 179.705 136.525 0)
      (effects (font (size 1.27 1.27)) hide)
    )
    (property "Datasheet" "" (at 179.705 136.525 0)
      (effects (font (size 1.27 1.27)) hide)
    )
    (pin "1" (uuid 812fa21a-24e1-4010-92de-75f61837e8d6))
    (instances
      (project "Sentinel 65X - Prototype 4"
        (path "/24268fb5-9051-453e-aa4f-3f063d8cbf81"
          (reference "#PWR033") (unit 1)
        )
      )
      (project "Sentinel 65X - 512KB ROM Cartridge"
        (path "/53119c14-15e6-40b0-8f65-e6a57783f50d"
          (reference "#PWR08") (unit 1)
        )
      )
      (project "Sentinel 65X V3"
        (path "/91ecbc9a-dcad-415b-aa31-06328ec91924"
          (reference "#PWR047") (unit 1)
        )
      )
      (project "Sentinel 65X V2"
        (path "/a2a8ce47-493a-4b72-bd2b-495163d6beb9"
          (reference "#PWR046") (unit 1)
        )
      )
      (project "Sentinel 65X - PTH Prototype 2"
        (path "/b745c47f-ef11-4146-85d4-5d59baf20dd9"
          (reference "#PWR041") (unit 1)
        )
      )
      (project "Pepper - V02"
        (path "/c17220fd-a7a1-45ed-ab15-7eff7ffb6f01"
          (reference "#PWR087") (unit 1)
        )
      )
      (project "Sentinel 65X - Prototype 4"
        (path "/fc731a5a-3ad4-4a0e-afd5-7c9a8671a833"
          (reference "#PWR070") (unit 1)
        )
      )
    )
  )

  (symbol (lib_id "Jumper:SolderJumper_2_Bridged") (at 151.765 123.825 0) (unit 1)
    (in_bom yes) (on_board yes) (dnp no)
    (uuid 55f64479-795f-47b3-a6f4-2ec99729a049)
    (property "Reference" "JP1" (at 151.765 120.65 0)
      (effects (font (size 1.27 1.27)))
    )
    (property "Value" "SolderJumper_2_Bridged" (at 151.765 120.65 0)
      (effects (font (size 1.27 1.27)) hide)
    )
    (property "Footprint" "Jumper:SolderJumper-2_P1.3mm_Bridged_RoundedPad1.0x1.5mm" (at 151.765 123.825 0)
      (effects (font (size 1.27 1.27)) hide)
    )
    (property "Datasheet" "~" (at 151.765 123.825 0)
      (effects (font (size 1.27 1.27)) hide)
    )
    (pin "1" (uuid 587cd9ad-7ab6-4115-b9f1-5cc1e33d9116))
    (pin "2" (uuid c7d549c8-9fbd-4023-830c-b15b4e6dbce4))
    (instances
      (project "Sentinel 65X - 512KB ROM Cartridge"
        (path "/53119c14-15e6-40b0-8f65-e6a57783f50d"
          (reference "JP1") (unit 1)
        )
      )
    )
  )

  (symbol (lib_id "Memory_Flash:SST39LF040-55-4C-WHE") (at 173.355 65.405 0) (unit 1)
    (in_bom yes) (on_board yes) (dnp no)
    (uuid 5e96550f-f86a-49ae-ae97-5227d110e332)
    (property "Reference" "U1" (at 173.2376 64.77 0)
      (effects (font (size 1.27 1.27)) (justify left))
    )
    (property "Value" "~" (at 173.355 65.405 0)
      (effects (font (size 1.27 1.27)))
    )
    (property "Footprint" "Package_SO:TSOP-I-32_14.4x8mm_P0.5mm" (at 173.355 65.405 0)
      (effects (font (size 1.27 1.27)) hide)
    )
    (property "Datasheet" "https://www.mouser.ca/datasheet/2/268/20005023B-709002.pdf" (at 173.355 65.405 0)
      (effects (font (size 1.27 1.27)) hide)
    )
    (pin "1" (uuid 7b9359e3-52ae-40c4-bbc1-5f836bfcee49))
    (pin "10" (uuid f5debe95-f87f-4421-a273-4594f86ff840))
    (pin "11" (uuid 907e17d9-91d6-4810-943d-fd957826984b))
    (pin "12" (uuid 8d159204-23a4-4665-8f4b-dbe371033506))
    (pin "13" (uuid 72cee037-a2db-4896-8670-df1e0e279166))
    (pin "14" (uuid ceb8bcd7-3f11-4e4d-985a-fb489a3049a8))
    (pin "15" (uuid fd2266e2-d163-4ba7-ab47-3d529680ff0a))
    (pin "16" (uuid 1ad44425-b25e-4840-9eea-da8e4a84d051))
    (pin "17" (uuid c3481ee3-1546-4c50-a867-a5b8af4b7908))
    (pin "18" (uuid 3f90c695-9153-4ad5-b91c-45037bf7dadd))
    (pin "19" (uuid eeac0393-bd73-445e-8a81-b4b320d8a82f))
    (pin "2" (uuid 9d0c140a-3630-4687-8524-77dc6599065c))
    (pin "20" (uuid 014160dc-4d2c-4b35-afdc-ca27bc8991ef))
    (pin "21" (uuid a1fe247f-924b-4154-81e3-aa22db7f75bb))
    (pin "22" (uuid d72440d9-2d0f-4f2e-a1e3-310b37cd188b))
    (pin "23" (uuid 1fedfd1d-e865-413b-b90c-85a17418723a))
    (pin "24" (uuid 35d4d140-edf2-444d-a2bd-170b0ba83046))
    (pin "25" (uuid e6705dd0-22fe-48e4-9f05-143e370eba2d))
    (pin "26" (uuid 94018915-142c-4b6e-94b6-daef6d2920b7))
    (pin "27" (uuid c173e8e5-1110-46f8-93ec-fb06146b08f6))
    (pin "28" (uuid 6b94a376-0491-4816-9581-d0d5e7cc16a0))
    (pin "29" (uuid 6c99c048-e946-4a1a-bb20-bc47e9e1070f))
    (pin "3" (uuid 57ca577e-60aa-456d-9e80-241ad6ceac22))
    (pin "30" (uuid e106e42b-4684-498c-b9e4-e3c9b6854248))
    (pin "31" (uuid 8e470608-ac94-4065-a633-f3f295957cd8))
    (pin "32" (uuid 66feff6f-0184-4caf-aa8d-20aaada8d0c8))
    (pin "4" (uuid b8380160-02c5-4110-9bca-baf7ebb488fa))
    (pin "5" (uuid 01eb1c56-5330-4174-9a7a-ef2bb4ea219f))
    (pin "6" (uuid 518ae11b-5119-446b-9209-9764067d7b30))
    (pin "7" (uuid 62ad0bc2-f4e5-4c0e-93e1-d9787cb5a035))
    (pin "8" (uuid 8b5de252-75e5-4abd-9e1e-44b15fb85bf0))
    (pin "9" (uuid 86a4f0e3-93d1-46f9-9fdd-9aa2b572d7c4))
    (instances
      (project "Sentinel 65X - 512KB ROM Cartridge"
        (path "/53119c14-15e6-40b0-8f65-e6a57783f50d"
          (reference "U1") (unit 1)
        )
      )
    )
  )

  (symbol (lib_id "power:GND") (at 130.81 100.33 0) (unit 1)
    (in_bom yes) (on_board yes) (dnp no)
    (uuid 6d3c1a50-c3b4-4508-a4d5-1e9083217f97)
    (property "Reference" "#PWR017" (at 130.81 106.68 0)
      (effects (font (size 1.27 1.27)) hide)
    )
    (property "Value" "GND" (at 130.81 104.14 0)
      (effects (font (size 1.27 1.27)))
    )
    (property "Footprint" "" (at 130.81 100.33 0)
      (effects (font (size 1.27 1.27)) hide)
    )
    (property "Datasheet" "" (at 130.81 100.33 0)
      (effects (font (size 1.27 1.27)) hide)
    )
    (pin "1" (uuid d66bae57-42de-4a0e-8820-d2324ff72d0d))
    (instances
      (project "Sentinel 65X - Prototype 4"
        (path "/24268fb5-9051-453e-aa4f-3f063d8cbf81"
          (reference "#PWR017") (unit 1)
        )
      )
      (project "Sentinel 65X - 512KB ROM Cartridge"
        (path "/53119c14-15e6-40b0-8f65-e6a57783f50d"
          (reference "#PWR03") (unit 1)
        )
      )
      (project "Sentinel 65X V3"
        (path "/91ecbc9a-dcad-415b-aa31-06328ec91924"
          (reference "#PWR045") (unit 1)
        )
      )
      (project "Sentinel 65X V2"
        (path "/a2a8ce47-493a-4b72-bd2b-495163d6beb9"
          (reference "#PWR033") (unit 1)
        )
      )
      (project "Sentinel 65X - PTH Prototype 2"
        (path "/b745c47f-ef11-4146-85d4-5d59baf20dd9"
          (reference "#PWR039") (unit 1)
        )
      )
      (project "Pepper - V02"
        (path "/c17220fd-a7a1-45ed-ab15-7eff7ffb6f01"
          (reference "#PWR085") (unit 1)
        )
      )
      (project "Sentinel 65X - Prototype 4"
        (path "/fc731a5a-3ad4-4a0e-afd5-7c9a8671a833"
          (reference "#PWR068") (unit 1)
        )
      )
    )
  )

  (symbol (lib_id "power:+3.3V") (at 179.705 60.325 0) (unit 1)
    (in_bom yes) (on_board yes) (dnp no)
    (uuid 855228d9-17ca-467e-88ca-f62ac1fed358)
    (property "Reference" "#PWR04" (at 179.705 64.135 0)
      (effects (font (size 1.27 1.27)) hide)
    )
    (property "Value" "+3.3V" (at 179.705 56.515 0)
      (effects (font (size 1.27 1.27)))
    )
    (property "Footprint" "" (at 179.705 60.325 0)
      (effects (font (size 1.27 1.27)) hide)
    )
    (property "Datasheet" "" (at 179.705 60.325 0)
      (effects (font (size 1.27 1.27)) hide)
    )
    (pin "1" (uuid fab2dd44-1a3b-4633-a920-aadad44cc5fe))
    (instances
      (project "Sentinel 65X - Prototype 4"
        (path "/24268fb5-9051-453e-aa4f-3f063d8cbf81"
          (reference "#PWR04") (unit 1)
        )
      )
      (project "Sentinel 65X - 512KB ROM Cartridge"
        (path "/53119c14-15e6-40b0-8f65-e6a57783f50d"
          (reference "#PWR07") (unit 1)
        )
      )
      (project "Sentinel 65X V3"
        (path "/91ecbc9a-dcad-415b-aa31-06328ec91924"
          (reference "#PWR043") (unit 1)
        )
      )
      (project "Sentinel 65X V2"
        (path "/a2a8ce47-493a-4b72-bd2b-495163d6beb9"
          (reference "#PWR01") (unit 1)
        )
      )
      (project "Sentinel 65X - PTH Prototype 2"
        (path "/b745c47f-ef11-4146-85d4-5d59baf20dd9"
          (reference "#PWR037") (unit 1)
        )
      )
      (project "Pepper - V02"
        (path "/c17220fd-a7a1-45ed-ab15-7eff7ffb6f01"
          (reference "#PWR083") (unit 1)
        )
      )
      (project "Sentinel 65X - Prototype 4"
        (path "/fc731a5a-3ad4-4a0e-afd5-7c9a8671a833"
          (reference "#PWR066") (unit 1)
        )
      )
    )
  )

  (symbol (lib_id "power:+3.3V") (at 167.64 52.07 0) (unit 1)
    (in_bom yes) (on_board yes) (dnp no)
    (uuid 86f65e3e-4af8-4437-92bb-af93f3078c73)
    (property "Reference" "#PWR04" (at 167.64 55.88 0)
      (effects (font (size 1.27 1.27)) hide)
    )
    (property "Value" "+3.3V" (at 167.64 48.26 0)
      (effects (font (size 1.27 1.27)))
    )
    (property "Footprint" "" (at 167.64 52.07 0)
      (effects (font (size 1.27 1.27)) hide)
    )
    (property "Datasheet" "" (at 167.64 52.07 0)
      (effects (font (size 1.27 1.27)) hide)
    )
    (pin "1" (uuid 4d4762d6-824f-4904-a01b-a970714bbe4a))
    (instances
      (project "Sentinel 65X - Prototype 4"
        (path "/24268fb5-9051-453e-aa4f-3f063d8cbf81"
          (reference "#PWR04") (unit 1)
        )
      )
      (project "Sentinel 65X - 512KB ROM Cartridge"
        (path "/53119c14-15e6-40b0-8f65-e6a57783f50d"
          (reference "#PWR09") (unit 1)
        )
      )
      (project "Sentinel 65X V3"
        (path "/91ecbc9a-dcad-415b-aa31-06328ec91924"
          (reference "#PWR043") (unit 1)
        )
      )
      (project "Sentinel 65X V2"
        (path "/a2a8ce47-493a-4b72-bd2b-495163d6beb9"
          (reference "#PWR01") (unit 1)
        )
      )
      (project "Sentinel 65X - PTH Prototype 2"
        (path "/b745c47f-ef11-4146-85d4-5d59baf20dd9"
          (reference "#PWR037") (unit 1)
        )
      )
      (project "Pepper - V02"
        (path "/c17220fd-a7a1-45ed-ab15-7eff7ffb6f01"
          (reference "#PWR083") (unit 1)
        )
      )
      (project "Sentinel 65X - Prototype 4"
        (path "/fc731a5a-3ad4-4a0e-afd5-7c9a8671a833"
          (reference "#PWR066") (unit 1)
        )
      )
    )
  )

  (symbol (lib_id "power:+3.3V") (at 112.395 57.15 270) (unit 1)
    (in_bom yes) (on_board yes) (dnp no)
    (uuid a8edec16-05d7-4b84-a541-442de4ace59d)
    (property "Reference" "#PWR04" (at 108.585 57.15 0)
      (effects (font (size 1.27 1.27)) hide)
    )
    (property "Value" "+3.3V" (at 118.11 57.15 90)
      (effects (font (size 1.27 1.27)))
    )
    (property "Footprint" "" (at 112.395 57.15 0)
      (effects (font (size 1.27 1.27)) hide)
    )
    (property "Datasheet" "" (at 112.395 57.15 0)
      (effects (font (size 1.27 1.27)) hide)
    )
    (pin "1" (uuid 4e28bad7-ad1b-43c1-be76-18ba79147fec))
    (instances
      (project "Sentinel 65X - Prototype 4"
        (path "/24268fb5-9051-453e-aa4f-3f063d8cbf81"
          (reference "#PWR04") (unit 1)
        )
      )
      (project "Sentinel 65X - 512KB ROM Cartridge"
        (path "/53119c14-15e6-40b0-8f65-e6a57783f50d"
          (reference "#PWR01") (unit 1)
        )
      )
      (project "Sentinel 65X V3"
        (path "/91ecbc9a-dcad-415b-aa31-06328ec91924"
          (reference "#PWR043") (unit 1)
        )
      )
      (project "Sentinel 65X V2"
        (path "/a2a8ce47-493a-4b72-bd2b-495163d6beb9"
          (reference "#PWR01") (unit 1)
        )
      )
      (project "Sentinel 65X - PTH Prototype 2"
        (path "/b745c47f-ef11-4146-85d4-5d59baf20dd9"
          (reference "#PWR037") (unit 1)
        )
      )
      (project "Pepper - V02"
        (path "/c17220fd-a7a1-45ed-ab15-7eff7ffb6f01"
          (reference "#PWR083") (unit 1)
        )
      )
      (project "Sentinel 65X - Prototype 4"
        (path "/fc731a5a-3ad4-4a0e-afd5-7c9a8671a833"
          (reference "#PWR066") (unit 1)
        )
      )
    )
  )

  (symbol (lib_id "power:GND") (at 167.64 59.69 0) (unit 1)
    (in_bom yes) (on_board yes) (dnp no)
    (uuid b68a058d-2be1-4e4d-b149-519a4dd56321)
    (property "Reference" "#PWR033" (at 167.64 66.04 0)
      (effects (font (size 1.27 1.27)) hide)
    )
    (property "Value" "GND" (at 167.64 63.5 0)
      (effects (font (size 1.27 1.27)))
    )
    (property "Footprint" "" (at 167.64 59.69 0)
      (effects (font (size 1.27 1.27)) hide)
    )
    (property "Datasheet" "" (at 167.64 59.69 0)
      (effects (font (size 1.27 1.27)) hide)
    )
    (pin "1" (uuid a9166f27-da3c-40e8-b13a-ad371e5be66d))
    (instances
      (project "Sentinel 65X - Prototype 4"
        (path "/24268fb5-9051-453e-aa4f-3f063d8cbf81"
          (reference "#PWR033") (unit 1)
        )
      )
      (project "Sentinel 65X - 512KB ROM Cartridge"
        (path "/53119c14-15e6-40b0-8f65-e6a57783f50d"
          (reference "#PWR010") (unit 1)
        )
      )
      (project "Sentinel 65X V3"
        (path "/91ecbc9a-dcad-415b-aa31-06328ec91924"
          (reference "#PWR047") (unit 1)
        )
      )
      (project "Sentinel 65X V2"
        (path "/a2a8ce47-493a-4b72-bd2b-495163d6beb9"
          (reference "#PWR046") (unit 1)
        )
      )
      (project "Sentinel 65X - PTH Prototype 2"
        (path "/b745c47f-ef11-4146-85d4-5d59baf20dd9"
          (reference "#PWR041") (unit 1)
        )
      )
      (project "Pepper - V02"
        (path "/c17220fd-a7a1-45ed-ab15-7eff7ffb6f01"
          (reference "#PWR087") (unit 1)
        )
      )
      (project "Sentinel 65X - Prototype 4"
        (path "/fc731a5a-3ad4-4a0e-afd5-7c9a8671a833"
          (reference "#PWR070") (unit 1)
        )
      )
    )
  )

  (symbol (lib_id "Device:C") (at 167.64 55.88 0) (unit 1)
    (in_bom yes) (on_board yes) (dnp no) (fields_autoplaced)
    (uuid d65bd8a8-0f4a-4ddc-b1ad-7bb65a7db674)
    (property "Reference" "C1" (at 170.815 54.6099 0)
      (effects (font (size 1.27 1.27)) (justify left))
    )
    (property "Value" "100nF" (at 170.815 57.1499 0)
      (effects (font (size 1.27 1.27)) (justify left))
    )
    (property "Footprint" "Capacitor_SMD:C_0603_1608Metric" (at 168.6052 59.69 0)
      (effects (font (size 1.27 1.27)) hide)
    )
    (property "Datasheet" "~" (at 167.64 55.88 0)
      (effects (font (size 1.27 1.27)) hide)
    )
    (pin "1" (uuid f13abae0-c215-48cf-b387-be801977ad6c))
    (pin "2" (uuid ce44d07e-7693-473f-9977-665dc9ab7740))
    (instances
      (project "Sentinel 65X - 512KB ROM Cartridge"
        (path "/53119c14-15e6-40b0-8f65-e6a57783f50d"
          (reference "C1") (unit 1)
        )
      )
    )
  )

  (symbol (lib_id "Sentinel 65X V2:Conn_02x32_Row_Letter_First") (at 106.68 95.25 180) (unit 1)
    (in_bom no) (on_board yes) (dnp no)
    (uuid df04fe6a-4bdc-4578-b3d2-aa1b85f953a6)
    (property "Reference" "J3" (at 105.41 135.89 0)
      (effects (font (size 1.27 1.27)))
    )
    (property "Value" "2x32 2.54mm Card Edge Connector" (at 105.41 52.07 0)
      (effects (font (size 1.27 1.27)))
    )
    (property "Footprint" "Connector:Conn_Edge_2x32_THT_2.54mm_Male" (at 106.68 95.25 0)
      (effects (font (size 1.27 1.27)) hide)
    )
    (property "Datasheet" "~" (at 106.68 95.25 0)
      (effects (font (size 1.27 1.27)) hide)
    )
    (pin "a1" (uuid a555b8d0-2ac7-498d-9d8f-7530ec3728e3))
    (pin "a10" (uuid d011bd1d-f990-441c-9e7b-3c86d1e8c82c))
    (pin "a11" (uuid 937fb681-1972-443c-b136-2b13af607ea6))
    (pin "a12" (uuid b73c6321-e1ce-48c1-ace4-3eea3f58f5d2))
    (pin "a13" (uuid 1967d46e-a466-43c9-84e8-9af3951d56cf))
    (pin "a14" (uuid 21e135c7-68c6-4f2c-978e-687dc4acb130))
    (pin "a15" (uuid 4a0ccf29-1545-4de4-ab05-88ba65f1f5fc))
    (pin "a16" (uuid 3a70c159-23c0-4435-903f-3143f1b3e93a))
    (pin "a17" (uuid 81af5324-b2a5-40af-ad8e-be7d8656e8e3))
    (pin "a18" (uuid e981b7c8-1b5b-4a1f-9ab3-832dd9b47b0d))
    (pin "a19" (uuid bbc88324-3342-483e-955b-867fa6167f5a))
    (pin "a2" (uuid 6a085822-7d46-4c85-842b-766e0fb377df))
    (pin "a20" (uuid f237c2fe-6381-4c77-b586-374b381847b6))
    (pin "a21" (uuid b319a8c2-68c8-4887-a450-52d20ab1c068))
    (pin "a22" (uuid 952b7b8f-77b9-4920-b3e1-7c8295f5a90c))
    (pin "a23" (uuid ee21d1d1-4881-4a40-bfd4-9423c48a3461))
    (pin "a24" (uuid f0a8414d-061d-43d9-9830-0acee2e28514))
    (pin "a25" (uuid 4acfe703-a49b-425e-811f-b862fc6d6aa8))
    (pin "a26" (uuid 144d8dde-4195-4eb2-912a-5f51de79f224))
    (pin "a27" (uuid fe56cb60-a779-4b62-9cd1-fe7a04237026))
    (pin "a28" (uuid 070426f0-b64f-43b1-b472-d37d9f4227de))
    (pin "a29" (uuid e883558d-e1d2-4d89-bf6c-35da9d8727bc))
    (pin "a3" (uuid f9bd3dbd-484f-4121-9bd9-da650aeb32ad))
    (pin "a30" (uuid 7634d5e6-ea2f-475d-9b9c-f46cf23242c7))
    (pin "a31" (uuid 99a7c22b-9e68-4dc0-b169-f863a6003c9e))
    (pin "a32" (uuid 33b00c0a-965f-408b-a642-6324213e31c5))
    (pin "a4" (uuid 29a8eb49-061f-42a3-927b-5d2c101f2766))
    (pin "a5" (uuid d80338ab-2ef5-4533-a061-73d71926fd00))
    (pin "a6" (uuid c0fb1dc8-70cd-416b-9654-7042ff4d280f))
    (pin "a7" (uuid 2875c511-1ba9-4892-bb21-3c0b109a2e71))
    (pin "a8" (uuid 9e41a6d8-1922-4359-9bf9-7569c99877b4))
    (pin "a9" (uuid 8efab94a-6929-4746-9dc7-552bb8d9c68d))
    (pin "b1" (uuid e7330bf5-c081-4e55-a716-06758cf24fac))
    (pin "b10" (uuid cb14fb6f-af29-430d-b983-f02f7fb02110))
    (pin "b11" (uuid 6a7f2ee0-b6da-4900-8c6b-97e6c2336e03))
    (pin "b12" (uuid 586c52ac-0c4b-4a59-93e7-e139b2f035b8))
    (pin "b13" (uuid 9ce1468b-636f-4e62-9807-6018cfa47f78))
    (pin "b14" (uuid 3c2e5728-5c66-4d97-a942-5b71b0bc8da3))
    (pin "b15" (uuid 952bbfa4-0384-4cb6-8113-2bb7620d5078))
    (pin "b16" (uuid 4dc84078-3563-416b-8d89-4a53d73f87d4))
    (pin "b17" (uuid 81c91df6-02bc-490f-a078-e2c29fe45260))
    (pin "b18" (uuid 06a55ac7-fb6b-4534-8ac9-5c0cd35d2cca))
    (pin "b19" (uuid c880a08b-7a15-4f9a-bb89-574eccd7f1f2))
    (pin "b2" (uuid 11e45930-37c4-499d-ad9a-c7fd28ae1cc2))
    (pin "b20" (uuid 822e7c9c-1553-49d3-96c3-b760a4fbf399))
    (pin "b21" (uuid b2d8164e-8166-4340-b56e-60db21d95ffa))
    (pin "b22" (uuid 311fd45e-2898-46c0-86a8-432159b0b3ea))
    (pin "b23" (uuid 901ccbbb-9565-41ce-ad4f-12eebc37ad8d))
    (pin "b24" (uuid f6a155bd-e475-4689-b6f7-0ddd6f4f9b0d))
    (pin "b25" (uuid 7c5f0b2e-1805-4b05-8c8a-94c8f21b5e25))
    (pin "b26" (uuid 2f288eee-ce6e-447b-bd2b-d4b6064626f8))
    (pin "b27" (uuid 1b608e93-0a32-416f-9bfb-9990171a3dbb))
    (pin "b28" (uuid 72947cdc-9554-49d3-bee3-7913ba2e00dd))
    (pin "b29" (uuid a2ced0bc-4e20-479c-8a30-301a72ec786f))
    (pin "b3" (uuid f59cdd8e-ce4e-46b6-b8d9-8134f1a262c7))
    (pin "b30" (uuid b5fe3e4e-bc2c-43fc-96f3-885ff7f87210))
    (pin "b31" (uuid d7cd5963-ea33-4590-acbb-c3c68de7fc53))
    (pin "b32" (uuid 25280727-d6e9-412c-9615-48ba3a0eb3d3))
    (pin "b4" (uuid 63209372-1fbe-4530-ac64-b5e27fcb571f))
    (pin "b5" (uuid bc90d59c-f8da-4075-ba74-d54d194afdeb))
    (pin "b6" (uuid 2ad021a2-27ef-4086-9dbd-b1c78d6090c6))
    (pin "b7" (uuid b2ad839e-a632-43de-8ce2-8a9727187042))
    (pin "b8" (uuid a771534a-ba71-4323-be50-91d9e20ee80a))
    (pin "b9" (uuid ebfeb6cf-40d2-4847-8d38-a01debca8290))
    (instances
      (project "Sentinel 65X - Prototype 4"
        (path "/24268fb5-9051-453e-aa4f-3f063d8cbf81"
          (reference "J3") (unit 1)
        )
      )
      (project "Sentinel 65X - 512KB ROM Cartridge"
        (path "/53119c14-15e6-40b0-8f65-e6a57783f50d"
          (reference "J1") (unit 1)
        )
      )
      (project "Sentinel 65X V3"
        (path "/91ecbc9a-dcad-415b-aa31-06328ec91924"
          (reference "J2") (unit 1)
        )
      )
      (project "Sentinel 65X V2"
        (path "/a2a8ce47-493a-4b72-bd2b-495163d6beb9"
          (reference "J5") (unit 1)
        )
      )
      (project "Sentinel 65X - PTH Prototype 2"
        (path "/b745c47f-ef11-4146-85d4-5d59baf20dd9"
          (reference "J5") (unit 1)
        )
      )
      (project "Pepper - V02"
        (path "/c17220fd-a7a1-45ed-ab15-7eff7ffb6f01"
          (reference "J11") (unit 1)
        )
      )
      (project "Sentinel 65X - Prototype 4"
        (path "/fc731a5a-3ad4-4a0e-afd5-7c9a8671a833"
          (reference "J11") (unit 1)
        )
      )
    )
  )

  (symbol (lib_id "power:+5V") (at 85.09 130.81 0) (unit 1)
    (in_bom yes) (on_board yes) (dnp no)
    (uuid e1eb7a12-b448-44e4-9b12-6269c0cbe618)
    (property "Reference" "#PWR025" (at 85.09 134.62 0)
      (effects (font (size 1.27 1.27)) hide)
    )
    (property "Value" "+5V" (at 85.09 127 0)
      (effects (font (size 1.27 1.27)))
    )
    (property "Footprint" "" (at 85.09 130.81 0)
      (effects (font (size 1.27 1.27)) hide)
    )
    (property "Datasheet" "" (at 85.09 130.81 0)
      (effects (font (size 1.27 1.27)) hide)
    )
    (pin "1" (uuid 1928c827-0f79-4780-9281-52bf27e3cd8e))
    (instances
      (project "Sentinel 65X - Prototype 4"
        (path "/24268fb5-9051-453e-aa4f-3f063d8cbf81"
          (reference "#PWR025") (unit 1)
        )
      )
      (project "Sentinel 65X - 512KB ROM Cartridge"
        (path "/53119c14-15e6-40b0-8f65-e6a57783f50d"
          (reference "#PWR05") (unit 1)
        )
      )
    )
  )

  (symbol (lib_id "power:+3.3V") (at 130.81 128.27 0) (unit 1)
    (in_bom yes) (on_board yes) (dnp no)
    (uuid e64fdd75-d924-4358-ad32-e918be506a7a)
    (property "Reference" "#PWR023" (at 130.81 132.08 0)
      (effects (font (size 1.27 1.27)) hide)
    )
    (property "Value" "+3.3V" (at 130.81 124.46 0)
      (effects (font (size 1.27 1.27)))
    )
    (property "Footprint" "" (at 130.81 128.27 0)
      (effects (font (size 1.27 1.27)) hide)
    )
    (property "Datasheet" "" (at 130.81 128.27 0)
      (effects (font (size 1.27 1.27)) hide)
    )
    (pin "1" (uuid aaf8f215-2c5c-4bab-a98f-3813e57fb6d9))
    (instances
      (project "Sentinel 65X - Prototype 4"
        (path "/24268fb5-9051-453e-aa4f-3f063d8cbf81"
          (reference "#PWR023") (unit 1)
        )
      )
      (project "Sentinel 65X - 512KB ROM Cartridge"
        (path "/53119c14-15e6-40b0-8f65-e6a57783f50d"
          (reference "#PWR04") (unit 1)
        )
      )
      (project "Sentinel 65X V3"
        (path "/91ecbc9a-dcad-415b-aa31-06328ec91924"
          (reference "#PWR046") (unit 1)
        )
      )
      (project "Sentinel 65X V2"
        (path "/a2a8ce47-493a-4b72-bd2b-495163d6beb9"
          (reference "#PWR038") (unit 1)
        )
      )
      (project "Sentinel 65X - PTH Prototype 2"
        (path "/b745c47f-ef11-4146-85d4-5d59baf20dd9"
          (reference "#PWR040") (unit 1)
        )
      )
      (project "Pepper - V02"
        (path "/c17220fd-a7a1-45ed-ab15-7eff7ffb6f01"
          (reference "#PWR086") (unit 1)
        )
      )
      (project "Sentinel 65X - Prototype 4"
        (path "/fc731a5a-3ad4-4a0e-afd5-7c9a8671a833"
          (reference "#PWR069") (unit 1)
        )
      )
    )
  )

  (symbol (lib_id "power:GND") (at 130.81 57.15 0) (unit 1)
    (in_bom yes) (on_board yes) (dnp no)
    (uuid e9ffea6d-e517-4c78-bca0-7722a018f186)
    (property "Reference" "#PWR08" (at 130.81 63.5 0)
      (effects (font (size 1.27 1.27)) hide)
    )
    (property "Value" "GND" (at 130.81 60.96 0)
      (effects (font (size 1.27 1.27)))
    )
    (property "Footprint" "" (at 130.81 57.15 0)
      (effects (font (size 1.27 1.27)) hide)
    )
    (property "Datasheet" "" (at 130.81 57.15 0)
      (effects (font (size 1.27 1.27)) hide)
    )
    (pin "1" (uuid 617330db-1130-46cb-a429-2529250716bf))
    (instances
      (project "Sentinel 65X - Prototype 4"
        (path "/24268fb5-9051-453e-aa4f-3f063d8cbf81"
          (reference "#PWR08") (unit 1)
        )
      )
      (project "Sentinel 65X - 512KB ROM Cartridge"
        (path "/53119c14-15e6-40b0-8f65-e6a57783f50d"
          (reference "#PWR02") (unit 1)
        )
      )
      (project "Sentinel 65X V3"
        (path "/91ecbc9a-dcad-415b-aa31-06328ec91924"
          (reference "#PWR044") (unit 1)
        )
      )
      (project "Sentinel 65X V2"
        (path "/a2a8ce47-493a-4b72-bd2b-495163d6beb9"
          (reference "#PWR013") (unit 1)
        )
      )
      (project "Sentinel 65X - PTH Prototype 2"
        (path "/b745c47f-ef11-4146-85d4-5d59baf20dd9"
          (reference "#PWR038") (unit 1)
        )
      )
      (project "Pepper - V02"
        (path "/c17220fd-a7a1-45ed-ab15-7eff7ffb6f01"
          (reference "#PWR084") (unit 1)
        )
      )
      (project "Sentinel 65X - Prototype 4"
        (path "/fc731a5a-3ad4-4a0e-afd5-7c9a8671a833"
          (reference "#PWR067") (unit 1)
        )
      )
    )
  )

  (symbol (lib_id "power:GND") (at 130.81 135.89 0) (unit 1)
    (in_bom yes) (on_board yes) (dnp no)
    (uuid fe31c355-64b3-4298-ad95-fb8e7b9136b6)
    (property "Reference" "#PWR033" (at 130.81 142.24 0)
      (effects (font (size 1.27 1.27)) hide)
    )
    (property "Value" "GND" (at 130.81 139.7 0)
      (effects (font (size 1.27 1.27)))
    )
    (property "Footprint" "" (at 130.81 135.89 0)
      (effects (font (size 1.27 1.27)) hide)
    )
    (property "Datasheet" "" (at 130.81 135.89 0)
      (effects (font (size 1.27 1.27)) hide)
    )
    (pin "1" (uuid 21e55f0e-1854-4b00-9921-ceb0a2a71ba3))
    (instances
      (project "Sentinel 65X - Prototype 4"
        (path "/24268fb5-9051-453e-aa4f-3f063d8cbf81"
          (reference "#PWR033") (unit 1)
        )
      )
      (project "Sentinel 65X - 512KB ROM Cartridge"
        (path "/53119c14-15e6-40b0-8f65-e6a57783f50d"
          (reference "#PWR06") (unit 1)
        )
      )
      (project "Sentinel 65X V3"
        (path "/91ecbc9a-dcad-415b-aa31-06328ec91924"
          (reference "#PWR047") (unit 1)
        )
      )
      (project "Sentinel 65X V2"
        (path "/a2a8ce47-493a-4b72-bd2b-495163d6beb9"
          (reference "#PWR046") (unit 1)
        )
      )
      (project "Sentinel 65X - PTH Prototype 2"
        (path "/b745c47f-ef11-4146-85d4-5d59baf20dd9"
          (reference "#PWR041") (unit 1)
        )
      )
      (project "Pepper - V02"
        (path "/c17220fd-a7a1-45ed-ab15-7eff7ffb6f01"
          (reference "#PWR087") (unit 1)
        )
      )
      (project "Sentinel 65X - Prototype 4"
        (path "/fc731a5a-3ad4-4a0e-afd5-7c9a8671a833"
          (reference "#PWR070") (unit 1)
        )
      )
    )
  )

  (sheet_instances
    (path "/" (page "1"))
  )
)
