(kicad_sch (version 20230121) (generator eeschema)

  (uuid 25df89d5-bd08-424d-9ad9-be22d875b09e)

  (paper "A4")

  (lib_symbols
    (symbol "Ddraig:35RAPC2BHN2" (pin_names (offset 1.016) hide) (in_bom yes) (on_board yes)
      (property "Reference" "J" (at -5.08 7.62 0)
        (effects (font (size 1.27 1.27)) (justify left bottom))
      )
      (property "Value" "35RAPC2BHN2" (at -7.62 -6.35 0)
        (effects (font (size 1.27 1.27)) (justify left bottom))
      )
      (property "Footprint" "SWITCHCRAFT_35RAPC2BHN2" (at 0 0 0)
        (effects (font (size 1.27 1.27)) (justify left bottom) hide)
      )
      (property "Datasheet" "" (at 0 0 0)
        (effects (font (size 1.27 1.27)) (justify left bottom) hide)
      )
      (property "STANDARD" "Manufacturer Recommendations" (at 0 0 0)
        (effects (font (size 1.27 1.27)) (justify left bottom) hide)
      )
      (property "MAXIMUM_PACKAGE_HIEGHT" "6.1214mm" (at 0 0 0)
        (effects (font (size 1.27 1.27)) (justify left bottom) hide)
      )
      (property "MANUFACTURER" "Switchcraft Inc." (at 0 0 0)
        (effects (font (size 1.27 1.27)) (justify left bottom) hide)
      )
      (property "PARTREV" "L" (at 0 0 0)
        (effects (font (size 1.27 1.27)) (justify left bottom) hide)
      )
      (symbol "35RAPC2BHN2_0_0"
        (polyline
          (pts
            (xy -5.715 -2.286)
            (xy -5.715 2.413)
          )
          (stroke (width 0.254) (type default))
          (fill (type none))
        )
        (polyline
          (pts
            (xy -5.715 2.413)
            (xy -5.08 2.413)
          )
          (stroke (width 0.254) (type default))
          (fill (type none))
        )
        (polyline
          (pts
            (xy -5.08 2.413)
            (xy -4.445 2.413)
          )
          (stroke (width 0.254) (type default))
          (fill (type none))
        )
        (polyline
          (pts
            (xy -5.08 5.08)
            (xy -5.08 2.413)
          )
          (stroke (width 0.254) (type default))
          (fill (type none))
        )
        (polyline
          (pts
            (xy -4.445 -2.286)
            (xy -5.715 -2.286)
          )
          (stroke (width 0.254) (type default))
          (fill (type none))
        )
        (polyline
          (pts
            (xy -4.445 2.413)
            (xy -4.445 -2.286)
          )
          (stroke (width 0.254) (type default))
          (fill (type none))
        )
        (polyline
          (pts
            (xy -1.905 1.143)
            (xy -2.54 2.54)
          )
          (stroke (width 0.254) (type default))
          (fill (type none))
        )
        (polyline
          (pts
            (xy -1.27 2.54)
            (xy -1.905 1.143)
          )
          (stroke (width 0.254) (type default))
          (fill (type none))
        )
        (polyline
          (pts
            (xy -0.381 -1.143)
            (xy -1.016 -2.54)
          )
          (stroke (width 0.254) (type default))
          (fill (type none))
        )
        (polyline
          (pts
            (xy 0.254 -2.54)
            (xy -0.381 -1.143)
          )
          (stroke (width 0.254) (type default))
          (fill (type none))
        )
        (polyline
          (pts
            (xy 5.08 -2.54)
            (xy 0.254 -2.54)
          )
          (stroke (width 0.254) (type default))
          (fill (type none))
        )
        (polyline
          (pts
            (xy 5.08 2.54)
            (xy -1.27 2.54)
          )
          (stroke (width 0.254) (type default))
          (fill (type none))
        )
        (polyline
          (pts
            (xy 5.08 5.08)
            (xy -5.08 5.08)
          )
          (stroke (width 0.254) (type default))
          (fill (type none))
        )
        (pin passive line (at 7.62 5.08 180) (length 2.54)
          (name "~" (effects (font (size 1.016 1.016))))
          (number "1" (effects (font (size 1.016 1.016))))
        )
        (pin passive line (at 7.62 -2.54 180) (length 2.54)
          (name "~" (effects (font (size 1.016 1.016))))
          (number "2" (effects (font (size 1.016 1.016))))
        )
        (pin passive line (at 7.62 2.54 180) (length 2.54)
          (name "~" (effects (font (size 1.016 1.016))))
          (number "3" (effects (font (size 1.016 1.016))))
        )
      )
      (symbol "35RAPC2BHN2_1_1"
        (rectangle (start -6.35 6.35) (end 5.08 -3.81)
          (stroke (width 0) (type default))
          (fill (type background))
        )
      )
    )
    (symbol "Ddraig:TPA3122D2" (pin_names (offset 1.016)) (in_bom yes) (on_board yes)
      (property "Reference" "U" (at 8.89 22.86 0)
        (effects (font (size 1.27 1.27)))
      )
      (property "Value" "TPA3122D2" (at -12.7 -21.59 0)
        (effects (font (size 1.27 1.27)))
      )
      (property "Footprint" "" (at 0 -7.62 0)
        (effects (font (size 1.27 1.27)) hide)
      )
      (property "Datasheet" "" (at 0 -7.62 0)
        (effects (font (size 1.27 1.27)) hide)
      )
      (property "ki_description" "15W Stereo Single Chip Class D DIP Power Amplifier" (at 0 0 0)
        (effects (font (size 1.27 1.27)) hide)
      )
      (symbol "TPA3122D2_0_1"
        (rectangle (start -11.43 21.59) (end 11.43 -20.32)
          (stroke (width 0) (type default))
          (fill (type background))
        )
      )
      (symbol "TPA3122D2_1_1"
        (pin power_in line (at 5.08 24.13 270) (length 2.54)
          (name "PVCCL" (effects (font (size 1.27 1.27))))
          (number "1" (effects (font (size 1.27 1.27))))
        )
        (pin power_in line (at 2.54 24.13 270) (length 2.54)
          (name "PVCCR" (effects (font (size 1.27 1.27))))
          (number "10" (effects (font (size 1.27 1.27))))
        )
        (pin power_in line (at 5.08 -22.86 90) (length 2.54)
          (name "PGNDR" (effects (font (size 1.27 1.27))))
          (number "11" (effects (font (size 1.27 1.27))))
        )
        (pin output line (at 13.97 6.35 180) (length 2.54)
          (name "ROUT" (effects (font (size 1.27 1.27))))
          (number "12" (effects (font (size 1.27 1.27))))
        )
        (pin passive line (at 13.97 11.43 180) (length 2.54)
          (name "BSR" (effects (font (size 1.27 1.27))))
          (number "13" (effects (font (size 1.27 1.27))))
        )
        (pin input line (at -13.97 -11.43 0) (length 2.54)
          (name "GAIN1" (effects (font (size 1.27 1.27))))
          (number "14" (effects (font (size 1.27 1.27))))
        )
        (pin input line (at -13.97 -8.89 0) (length 2.54)
          (name "GAIN0" (effects (font (size 1.27 1.27))))
          (number "15" (effects (font (size 1.27 1.27))))
        )
        (pin power_in line (at -2.54 24.13 270) (length 2.54)
          (name "AVCC" (effects (font (size 1.27 1.27))))
          (number "16" (effects (font (size 1.27 1.27))))
        )
        (pin power_in line (at -5.08 24.13 270) (length 2.54)
          (name "AVCC" (effects (font (size 1.27 1.27))))
          (number "17" (effects (font (size 1.27 1.27))))
        )
        (pin passive line (at 13.97 -3.81 180) (length 2.54)
          (name "BSL" (effects (font (size 1.27 1.27))))
          (number "18" (effects (font (size 1.27 1.27))))
        )
        (pin output line (at 13.97 1.27 180) (length 2.54)
          (name "LOUT" (effects (font (size 1.27 1.27))))
          (number "19" (effects (font (size 1.27 1.27))))
        )
        (pin input line (at -13.97 -1.27 0) (length 2.54)
          (name "~{SD}" (effects (font (size 1.27 1.27))))
          (number "2" (effects (font (size 1.27 1.27))))
        )
        (pin power_in line (at 2.54 -22.86 90) (length 2.54)
          (name "PGNDL" (effects (font (size 1.27 1.27))))
          (number "20" (effects (font (size 1.27 1.27))))
        )
        (pin input line (at -13.97 -6.35 0) (length 2.54)
          (name "MUTE" (effects (font (size 1.27 1.27))))
          (number "3" (effects (font (size 1.27 1.27))))
        )
        (pin input line (at -13.97 8.89 0) (length 2.54)
          (name "LIN" (effects (font (size 1.27 1.27))))
          (number "4" (effects (font (size 1.27 1.27))))
        )
        (pin input line (at -13.97 11.43 0) (length 2.54)
          (name "RIN" (effects (font (size 1.27 1.27))))
          (number "5" (effects (font (size 1.27 1.27))))
        )
        (pin passive line (at -13.97 3.81 0) (length 2.54)
          (name "BYPASS" (effects (font (size 1.27 1.27))))
          (number "6" (effects (font (size 1.27 1.27))))
        )
        (pin power_in line (at -5.08 -22.86 90) (length 2.54)
          (name "AGND" (effects (font (size 1.27 1.27))))
          (number "7" (effects (font (size 1.27 1.27))))
        )
        (pin power_in line (at -2.54 -22.86 90) (length 2.54)
          (name "AGND" (effects (font (size 1.27 1.27))))
          (number "8" (effects (font (size 1.27 1.27))))
        )
        (pin input line (at 13.97 -8.89 180) (length 2.54)
          (name "VCLAMP" (effects (font (size 1.27 1.27))))
          (number "9" (effects (font (size 1.27 1.27))))
        )
      )
    )
    (symbol "Device:C" (pin_numbers hide) (pin_names (offset 0.254)) (in_bom yes) (on_board yes)
      (property "Reference" "C" (at 0.635 2.54 0)
        (effects (font (size 1.27 1.27)) (justify left))
      )
      (property "Value" "C" (at 0.635 -2.54 0)
        (effects (font (size 1.27 1.27)) (justify left))
      )
      (property "Footprint" "" (at 0.9652 -3.81 0)
        (effects (font (size 1.27 1.27)) hide)
      )
      (property "Datasheet" "~" (at 0 0 0)
        (effects (font (size 1.27 1.27)) hide)
      )
      (property "ki_keywords" "cap capacitor" (at 0 0 0)
        (effects (font (size 1.27 1.27)) hide)
      )
      (property "ki_description" "Unpolarized capacitor" (at 0 0 0)
        (effects (font (size 1.27 1.27)) hide)
      )
      (property "ki_fp_filters" "C_*" (at 0 0 0)
        (effects (font (size 1.27 1.27)) hide)
      )
      (symbol "C_0_1"
        (polyline
          (pts
            (xy -2.032 -0.762)
            (xy 2.032 -0.762)
          )
          (stroke (width 0.508) (type default))
          (fill (type none))
        )
        (polyline
          (pts
            (xy -2.032 0.762)
            (xy 2.032 0.762)
          )
          (stroke (width 0.508) (type default))
          (fill (type none))
        )
      )
      (symbol "C_1_1"
        (pin passive line (at 0 3.81 270) (length 2.794)
          (name "~" (effects (font (size 1.27 1.27))))
          (number "1" (effects (font (size 1.27 1.27))))
        )
        (pin passive line (at 0 -3.81 90) (length 2.794)
          (name "~" (effects (font (size 1.27 1.27))))
          (number "2" (effects (font (size 1.27 1.27))))
        )
      )
    )
    (symbol "Device:C_Polarized" (pin_numbers hide) (pin_names (offset 0.254)) (in_bom yes) (on_board yes)
      (property "Reference" "C" (at 0.635 2.54 0)
        (effects (font (size 1.27 1.27)) (justify left))
      )
      (property "Value" "C_Polarized" (at 0.635 -2.54 0)
        (effects (font (size 1.27 1.27)) (justify left))
      )
      (property "Footprint" "" (at 0.9652 -3.81 0)
        (effects (font (size 1.27 1.27)) hide)
      )
      (property "Datasheet" "~" (at 0 0 0)
        (effects (font (size 1.27 1.27)) hide)
      )
      (property "ki_keywords" "cap capacitor" (at 0 0 0)
        (effects (font (size 1.27 1.27)) hide)
      )
      (property "ki_description" "Polarized capacitor" (at 0 0 0)
        (effects (font (size 1.27 1.27)) hide)
      )
      (property "ki_fp_filters" "CP_*" (at 0 0 0)
        (effects (font (size 1.27 1.27)) hide)
      )
      (symbol "C_Polarized_0_1"
        (rectangle (start -2.286 0.508) (end 2.286 1.016)
          (stroke (width 0) (type default))
          (fill (type none))
        )
        (polyline
          (pts
            (xy -1.778 2.286)
            (xy -0.762 2.286)
          )
          (stroke (width 0) (type default))
          (fill (type none))
        )
        (polyline
          (pts
            (xy -1.27 2.794)
            (xy -1.27 1.778)
          )
          (stroke (width 0) (type default))
          (fill (type none))
        )
        (rectangle (start 2.286 -0.508) (end -2.286 -1.016)
          (stroke (width 0) (type default))
          (fill (type outline))
        )
      )
      (symbol "C_Polarized_1_1"
        (pin passive line (at 0 3.81 270) (length 2.794)
          (name "~" (effects (font (size 1.27 1.27))))
          (number "1" (effects (font (size 1.27 1.27))))
        )
        (pin passive line (at 0 -3.81 90) (length 2.794)
          (name "~" (effects (font (size 1.27 1.27))))
          (number "2" (effects (font (size 1.27 1.27))))
        )
      )
    )
    (symbol "Device:L" (pin_numbers hide) (pin_names (offset 1.016) hide) (in_bom yes) (on_board yes)
      (property "Reference" "L" (at -1.27 0 90)
        (effects (font (size 1.27 1.27)))
      )
      (property "Value" "L" (at 1.905 0 90)
        (effects (font (size 1.27 1.27)))
      )
      (property "Footprint" "" (at 0 0 0)
        (effects (font (size 1.27 1.27)) hide)
      )
      (property "Datasheet" "~" (at 0 0 0)
        (effects (font (size 1.27 1.27)) hide)
      )
      (property "ki_keywords" "inductor choke coil reactor magnetic" (at 0 0 0)
        (effects (font (size 1.27 1.27)) hide)
      )
      (property "ki_description" "Inductor" (at 0 0 0)
        (effects (font (size 1.27 1.27)) hide)
      )
      (property "ki_fp_filters" "Choke_* *Coil* Inductor_* L_*" (at 0 0 0)
        (effects (font (size 1.27 1.27)) hide)
      )
      (symbol "L_0_1"
        (arc (start 0 -2.54) (mid 0.6323 -1.905) (end 0 -1.27)
          (stroke (width 0) (type default))
          (fill (type none))
        )
        (arc (start 0 -1.27) (mid 0.6323 -0.635) (end 0 0)
          (stroke (width 0) (type default))
          (fill (type none))
        )
        (arc (start 0 0) (mid 0.6323 0.635) (end 0 1.27)
          (stroke (width 0) (type default))
          (fill (type none))
        )
        (arc (start 0 1.27) (mid 0.6323 1.905) (end 0 2.54)
          (stroke (width 0) (type default))
          (fill (type none))
        )
      )
      (symbol "L_1_1"
        (pin passive line (at 0 3.81 270) (length 1.27)
          (name "1" (effects (font (size 1.27 1.27))))
          (number "1" (effects (font (size 1.27 1.27))))
        )
        (pin passive line (at 0 -3.81 90) (length 1.27)
          (name "2" (effects (font (size 1.27 1.27))))
          (number "2" (effects (font (size 1.27 1.27))))
        )
      )
    )
    (symbol "Device:R" (pin_numbers hide) (pin_names (offset 0)) (in_bom yes) (on_board yes)
      (property "Reference" "R" (at 2.032 0 90)
        (effects (font (size 1.27 1.27)))
      )
      (property "Value" "R" (at 0 0 90)
        (effects (font (size 1.27 1.27)))
      )
      (property "Footprint" "" (at -1.778 0 90)
        (effects (font (size 1.27 1.27)) hide)
      )
      (property "Datasheet" "~" (at 0 0 0)
        (effects (font (size 1.27 1.27)) hide)
      )
      (property "ki_keywords" "R res resistor" (at 0 0 0)
        (effects (font (size 1.27 1.27)) hide)
      )
      (property "ki_description" "Resistor" (at 0 0 0)
        (effects (font (size 1.27 1.27)) hide)
      )
      (property "ki_fp_filters" "R_*" (at 0 0 0)
        (effects (font (size 1.27 1.27)) hide)
      )
      (symbol "R_0_1"
        (rectangle (start -1.016 -2.54) (end 1.016 2.54)
          (stroke (width 0.254) (type default))
          (fill (type none))
        )
      )
      (symbol "R_1_1"
        (pin passive line (at 0 3.81 270) (length 1.27)
          (name "~" (effects (font (size 1.27 1.27))))
          (number "1" (effects (font (size 1.27 1.27))))
        )
        (pin passive line (at 0 -3.81 90) (length 1.27)
          (name "~" (effects (font (size 1.27 1.27))))
          (number "2" (effects (font (size 1.27 1.27))))
        )
      )
    )
    (symbol "Device:R_Potentiometer_Dual_Separate" (pin_names (offset 1.016) hide) (in_bom yes) (on_board yes)
      (property "Reference" "RV" (at -4.445 0 90)
        (effects (font (size 1.27 1.27)))
      )
      (property "Value" "R_Potentiometer_Dual_Separate" (at -2.54 0 90)
        (effects (font (size 1.27 1.27)))
      )
      (property "Footprint" "" (at 0 0 0)
        (effects (font (size 1.27 1.27)) hide)
      )
      (property "Datasheet" "~" (at 0 0 0)
        (effects (font (size 1.27 1.27)) hide)
      )
      (property "ki_keywords" "resistor variable" (at 0 0 0)
        (effects (font (size 1.27 1.27)) hide)
      )
      (property "ki_description" "Dual potentiometer, separate units" (at 0 0 0)
        (effects (font (size 1.27 1.27)) hide)
      )
      (property "ki_fp_filters" "Potentiometer*" (at 0 0 0)
        (effects (font (size 1.27 1.27)) hide)
      )
      (symbol "R_Potentiometer_Dual_Separate_0_1"
        (polyline
          (pts
            (xy 2.54 0)
            (xy 1.524 0)
          )
          (stroke (width 0) (type default))
          (fill (type none))
        )
        (polyline
          (pts
            (xy 1.143 0)
            (xy 2.286 0.508)
            (xy 2.286 -0.508)
            (xy 1.143 0)
          )
          (stroke (width 0) (type default))
          (fill (type outline))
        )
        (rectangle (start 1.016 2.54) (end -1.016 -2.54)
          (stroke (width 0.254) (type default))
          (fill (type none))
        )
      )
      (symbol "R_Potentiometer_Dual_Separate_1_1"
        (pin passive line (at 0 3.81 270) (length 1.27)
          (name "1" (effects (font (size 1.27 1.27))))
          (number "1" (effects (font (size 1.27 1.27))))
        )
        (pin passive line (at 3.81 0 180) (length 1.27)
          (name "2" (effects (font (size 1.27 1.27))))
          (number "2" (effects (font (size 1.27 1.27))))
        )
        (pin passive line (at 0 -3.81 90) (length 1.27)
          (name "3" (effects (font (size 1.27 1.27))))
          (number "3" (effects (font (size 1.27 1.27))))
        )
      )
      (symbol "R_Potentiometer_Dual_Separate_2_1"
        (pin passive line (at 0 3.81 270) (length 1.27)
          (name "4" (effects (font (size 1.27 1.27))))
          (number "4" (effects (font (size 1.27 1.27))))
        )
        (pin passive line (at 3.81 0 180) (length 1.27)
          (name "5" (effects (font (size 1.27 1.27))))
          (number "5" (effects (font (size 1.27 1.27))))
        )
        (pin passive line (at 0 -3.81 90) (length 1.27)
          (name "6" (effects (font (size 1.27 1.27))))
          (number "6" (effects (font (size 1.27 1.27))))
        )
      )
    )
    (symbol "power:+12V" (power) (pin_names (offset 0)) (in_bom yes) (on_board yes)
      (property "Reference" "#PWR" (at 0 -3.81 0)
        (effects (font (size 1.27 1.27)) hide)
      )
      (property "Value" "+12V" (at 0 3.556 0)
        (effects (font (size 1.27 1.27)))
      )
      (property "Footprint" "" (at 0 0 0)
        (effects (font (size 1.27 1.27)) hide)
      )
      (property "Datasheet" "" (at 0 0 0)
        (effects (font (size 1.27 1.27)) hide)
      )
      (property "ki_keywords" "power-flag" (at 0 0 0)
        (effects (font (size 1.27 1.27)) hide)
      )
      (property "ki_description" "Power symbol creates a global label with name \"+12V\"" (at 0 0 0)
        (effects (font (size 1.27 1.27)) hide)
      )
      (symbol "+12V_0_1"
        (polyline
          (pts
            (xy -0.762 1.27)
            (xy 0 2.54)
          )
          (stroke (width 0) (type default))
          (fill (type none))
        )
        (polyline
          (pts
            (xy 0 0)
            (xy 0 2.54)
          )
          (stroke (width 0) (type default))
          (fill (type none))
        )
        (polyline
          (pts
            (xy 0 2.54)
            (xy 0.762 1.27)
          )
          (stroke (width 0) (type default))
          (fill (type none))
        )
      )
      (symbol "+12V_1_1"
        (pin power_in line (at 0 0 90) (length 0) hide
          (name "+12V" (effects (font (size 1.27 1.27))))
          (number "1" (effects (font (size 1.27 1.27))))
        )
      )
    )
    (symbol "power:+3V3" (power) (pin_names (offset 0)) (in_bom yes) (on_board yes)
      (property "Reference" "#PWR" (at 0 -3.81 0)
        (effects (font (size 1.27 1.27)) hide)
      )
      (property "Value" "+3V3" (at 0 3.556 0)
        (effects (font (size 1.27 1.27)))
      )
      (property "Footprint" "" (at 0 0 0)
        (effects (font (size 1.27 1.27)) hide)
      )
      (property "Datasheet" "" (at 0 0 0)
        (effects (font (size 1.27 1.27)) hide)
      )
      (property "ki_keywords" "power-flag" (at 0 0 0)
        (effects (font (size 1.27 1.27)) hide)
      )
      (property "ki_description" "Power symbol creates a global label with name \"+3V3\"" (at 0 0 0)
        (effects (font (size 1.27 1.27)) hide)
      )
      (symbol "+3V3_0_1"
        (polyline
          (pts
            (xy -0.762 1.27)
            (xy 0 2.54)
          )
          (stroke (width 0) (type default))
          (fill (type none))
        )
        (polyline
          (pts
            (xy 0 0)
            (xy 0 2.54)
          )
          (stroke (width 0) (type default))
          (fill (type none))
        )
        (polyline
          (pts
            (xy 0 2.54)
            (xy 0.762 1.27)
          )
          (stroke (width 0) (type default))
          (fill (type none))
        )
      )
      (symbol "+3V3_1_1"
        (pin power_in line (at 0 0 90) (length 0) hide
          (name "+3V3" (effects (font (size 1.27 1.27))))
          (number "1" (effects (font (size 1.27 1.27))))
        )
      )
    )
    (symbol "power:+5V" (power) (pin_names (offset 0)) (in_bom yes) (on_board yes)
      (property "Reference" "#PWR" (at 0 -3.81 0)
        (effects (font (size 1.27 1.27)) hide)
      )
      (property "Value" "+5V" (at 0 3.556 0)
        (effects (font (size 1.27 1.27)))
      )
      (property "Footprint" "" (at 0 0 0)
        (effects (font (size 1.27 1.27)) hide)
      )
      (property "Datasheet" "" (at 0 0 0)
        (effects (font (size 1.27 1.27)) hide)
      )
      (property "ki_keywords" "power-flag" (at 0 0 0)
        (effects (font (size 1.27 1.27)) hide)
      )
      (property "ki_description" "Power symbol creates a global label with name \"+5V\"" (at 0 0 0)
        (effects (font (size 1.27 1.27)) hide)
      )
      (symbol "+5V_0_1"
        (polyline
          (pts
            (xy -0.762 1.27)
            (xy 0 2.54)
          )
          (stroke (width 0) (type default))
          (fill (type none))
        )
        (polyline
          (pts
            (xy 0 0)
            (xy 0 2.54)
          )
          (stroke (width 0) (type default))
          (fill (type none))
        )
        (polyline
          (pts
            (xy 0 2.54)
            (xy 0.762 1.27)
          )
          (stroke (width 0) (type default))
          (fill (type none))
        )
      )
      (symbol "+5V_1_1"
        (pin power_in line (at 0 0 90) (length 0) hide
          (name "+5V" (effects (font (size 1.27 1.27))))
          (number "1" (effects (font (size 1.27 1.27))))
        )
      )
    )
    (symbol "power:+5VA" (power) (pin_names (offset 0)) (in_bom yes) (on_board yes)
      (property "Reference" "#PWR" (at 0 -3.81 0)
        (effects (font (size 1.27 1.27)) hide)
      )
      (property "Value" "+5VA" (at 0 3.556 0)
        (effects (font (size 1.27 1.27)))
      )
      (property "Footprint" "" (at 0 0 0)
        (effects (font (size 1.27 1.27)) hide)
      )
      (property "Datasheet" "" (at 0 0 0)
        (effects (font (size 1.27 1.27)) hide)
      )
      (property "ki_keywords" "power-flag" (at 0 0 0)
        (effects (font (size 1.27 1.27)) hide)
      )
      (property "ki_description" "Power symbol creates a global label with name \"+5VA\"" (at 0 0 0)
        (effects (font (size 1.27 1.27)) hide)
      )
      (symbol "+5VA_0_1"
        (polyline
          (pts
            (xy -0.762 1.27)
            (xy 0 2.54)
          )
          (stroke (width 0) (type default))
          (fill (type none))
        )
        (polyline
          (pts
            (xy 0 0)
            (xy 0 2.54)
          )
          (stroke (width 0) (type default))
          (fill (type none))
        )
        (polyline
          (pts
            (xy 0 2.54)
            (xy 0.762 1.27)
          )
          (stroke (width 0) (type default))
          (fill (type none))
        )
      )
      (symbol "+5VA_1_1"
        (pin power_in line (at 0 0 90) (length 0) hide
          (name "+5VA" (effects (font (size 1.27 1.27))))
          (number "1" (effects (font (size 1.27 1.27))))
        )
      )
    )
    (symbol "power:GND" (power) (pin_names (offset 0)) (in_bom yes) (on_board yes)
      (property "Reference" "#PWR" (at 0 -6.35 0)
        (effects (font (size 1.27 1.27)) hide)
      )
      (property "Value" "GND" (at 0 -3.81 0)
        (effects (font (size 1.27 1.27)))
      )
      (property "Footprint" "" (at 0 0 0)
        (effects (font (size 1.27 1.27)) hide)
      )
      (property "Datasheet" "" (at 0 0 0)
        (effects (font (size 1.27 1.27)) hide)
      )
      (property "ki_keywords" "power-flag" (at 0 0 0)
        (effects (font (size 1.27 1.27)) hide)
      )
      (property "ki_description" "Power symbol creates a global label with name \"GND\" , ground" (at 0 0 0)
        (effects (font (size 1.27 1.27)) hide)
      )
      (symbol "GND_0_1"
        (polyline
          (pts
            (xy 0 0)
            (xy 0 -1.27)
            (xy 1.27 -1.27)
            (xy 0 -2.54)
            (xy -1.27 -1.27)
            (xy 0 -1.27)
          )
          (stroke (width 0) (type default))
          (fill (type none))
        )
      )
      (symbol "GND_1_1"
        (pin power_in line (at 0 0 270) (length 0) hide
          (name "GND" (effects (font (size 1.27 1.27))))
          (number "1" (effects (font (size 1.27 1.27))))
        )
      )
    )
    (symbol "power:GNDA" (power) (pin_names (offset 0)) (in_bom yes) (on_board yes)
      (property "Reference" "#PWR" (at 0 -6.35 0)
        (effects (font (size 1.27 1.27)) hide)
      )
      (property "Value" "GNDA" (at 0 -3.81 0)
        (effects (font (size 1.27 1.27)))
      )
      (property "Footprint" "" (at 0 0 0)
        (effects (font (size 1.27 1.27)) hide)
      )
      (property "Datasheet" "" (at 0 0 0)
        (effects (font (size 1.27 1.27)) hide)
      )
      (property "ki_keywords" "power-flag" (at 0 0 0)
        (effects (font (size 1.27 1.27)) hide)
      )
      (property "ki_description" "Power symbol creates a global label with name \"GNDA\" , analog ground" (at 0 0 0)
        (effects (font (size 1.27 1.27)) hide)
      )
      (symbol "GNDA_0_1"
        (polyline
          (pts
            (xy 0 0)
            (xy 0 -1.27)
            (xy 1.27 -1.27)
            (xy 0 -2.54)
            (xy -1.27 -1.27)
            (xy 0 -1.27)
          )
          (stroke (width 0) (type default))
          (fill (type none))
        )
      )
      (symbol "GNDA_1_1"
        (pin power_in line (at 0 0 270) (length 0) hide
          (name "GNDA" (effects (font (size 1.27 1.27))))
          (number "1" (effects (font (size 1.27 1.27))))
        )
      )
    )
    (symbol "power:PWR_FLAG" (power) (pin_numbers hide) (pin_names (offset 0) hide) (in_bom yes) (on_board yes)
      (property "Reference" "#FLG" (at 0 1.905 0)
        (effects (font (size 1.27 1.27)) hide)
      )
      (property "Value" "PWR_FLAG" (at 0 3.81 0)
        (effects (font (size 1.27 1.27)))
      )
      (property "Footprint" "" (at 0 0 0)
        (effects (font (size 1.27 1.27)) hide)
      )
      (property "Datasheet" "~" (at 0 0 0)
        (effects (font (size 1.27 1.27)) hide)
      )
      (property "ki_keywords" "power-flag" (at 0 0 0)
        (effects (font (size 1.27 1.27)) hide)
      )
      (property "ki_description" "Special symbol for telling ERC where power comes from" (at 0 0 0)
        (effects (font (size 1.27 1.27)) hide)
      )
      (symbol "PWR_FLAG_0_0"
        (pin power_out line (at 0 0 90) (length 0)
          (name "pwr" (effects (font (size 1.27 1.27))))
          (number "1" (effects (font (size 1.27 1.27))))
        )
      )
      (symbol "PWR_FLAG_0_1"
        (polyline
          (pts
            (xy 0 0)
            (xy 0 1.27)
            (xy -1.016 1.905)
            (xy 0 2.54)
            (xy 1.016 1.905)
            (xy 0 1.27)
          )
          (stroke (width 0) (type default))
          (fill (type none))
        )
      )
    )
  )

  (junction (at 205.74 68.58) (diameter 0) (color 0 0 0 0)
    (uuid 0753a347-97d9-4cb7-b81c-f57d156ee03d)
  )
  (junction (at 139.7 110.49) (diameter 0) (color 0 0 0 0)
    (uuid 0869e0b9-0f06-4665-8d27-0aaf6452f146)
  )
  (junction (at 149.86 110.49) (diameter 0) (color 0 0 0 0)
    (uuid 14f698ab-438b-48c5-b308-6ce7d6ee9fd2)
  )
  (junction (at 201.93 80.01) (diameter 0) (color 0 0 0 0)
    (uuid 1c88df89-6a29-4ae9-b4e8-cec81df6622f)
  )
  (junction (at 147.32 58.42) (diameter 0) (color 0 0 0 0)
    (uuid 1d4f0bf3-6eea-42b1-94d7-6208242e147a)
  )
  (junction (at 196.85 93.98) (diameter 0) (color 0 0 0 0)
    (uuid 26d4ebbe-a131-4114-b2bd-4995e50b63ac)
  )
  (junction (at 201.93 105.41) (diameter 0) (color 0 0 0 0)
    (uuid 29efc5f7-aa53-40dd-8206-1dc86bde662a)
  )
  (junction (at 205.74 93.98) (diameter 0) (color 0 0 0 0)
    (uuid 3a2360fe-0cc2-4faf-8bf8-3445095b0532)
  )
  (junction (at 184.15 93.98) (diameter 0) (color 0 0 0 0)
    (uuid 51249de2-6a96-416a-97e7-484d171d38e3)
  )
  (junction (at 128.27 96.52) (diameter 0) (color 0 0 0 0)
    (uuid 7c3ffe22-2b3b-497c-bf48-875ede53e1eb)
  )
  (junction (at 144.78 58.42) (diameter 0) (color 0 0 0 0)
    (uuid 987b8fc4-c65d-4bf1-90e0-c033126b54a7)
  )
  (junction (at 105.41 158.75) (diameter 0) (color 0 0 0 0)
    (uuid b826c778-22a1-4e82-9bb2-1489d0d356ed)
  )
  (junction (at 128.27 93.98) (diameter 0) (color 0 0 0 0)
    (uuid d7a50e2d-4686-4f19-a489-b437e4af1acd)
  )
  (junction (at 196.85 68.58) (diameter 0) (color 0 0 0 0)
    (uuid da5f0827-501f-4557-9eba-b804d71b1f11)
  )
  (junction (at 142.24 58.42) (diameter 0) (color 0 0 0 0)
    (uuid de14c90d-0bde-4f70-93dc-d3a45c201982)
  )
  (junction (at 105.41 146.05) (diameter 0) (color 0 0 0 0)
    (uuid ecfaed2a-d6de-4d7f-9f11-5a04e83767b7)
  )
  (junction (at 184.15 68.58) (diameter 0) (color 0 0 0 0)
    (uuid ff5c1e9a-f04b-4cc6-bf7e-12ecce80edf2)
  )

  (wire (pts (xy 130.81 81.28) (xy 119.38 81.28))
    (stroke (width 0) (type default))
    (uuid 039c1f4c-9e84-40f5-bb54-1f2d2f6c959d)
  )
  (wire (pts (xy 119.38 113.03) (xy 119.38 107.95))
    (stroke (width 0) (type default))
    (uuid 04667964-aa4a-4734-bbbc-e9a6e9abc763)
  )
  (wire (pts (xy 147.32 110.49) (xy 149.86 110.49))
    (stroke (width 0) (type default))
    (uuid 04b62230-901c-4ffd-b466-8870dd8a801f)
  )
  (wire (pts (xy 110.49 78.74) (xy 102.87 78.74))
    (stroke (width 0) (type default))
    (uuid 081d9787-7a22-4522-8fa8-d4eeb29a0412)
  )
  (wire (pts (xy 139.7 113.03) (xy 139.7 110.49))
    (stroke (width 0) (type default))
    (uuid 091bd240-955f-4d1d-82d2-87c722ba5131)
  )
  (wire (pts (xy 234.95 100.33) (xy 241.3 100.33))
    (stroke (width 0) (type default))
    (uuid 0be23e41-d81d-48d2-ae53-505ecdd50c0b)
  )
  (wire (pts (xy 205.74 105.41) (xy 205.74 104.14))
    (stroke (width 0) (type default))
    (uuid 0dadb9c8-2d5b-415f-a2eb-6ef0b3b82154)
  )
  (wire (pts (xy 128.27 91.44) (xy 130.81 91.44))
    (stroke (width 0) (type default))
    (uuid 137521f3-0d81-4a40-a52c-bf4eeb7c9fe6)
  )
  (wire (pts (xy 205.74 68.58) (xy 205.74 71.12))
    (stroke (width 0) (type default))
    (uuid 14161f34-9866-4e45-b934-d8e467630b0d)
  )
  (wire (pts (xy 130.81 76.2) (xy 120.65 76.2))
    (stroke (width 0) (type default))
    (uuid 14b54dc5-7387-448d-966d-85a685dd8b4f)
  )
  (wire (pts (xy 201.93 106.68) (xy 201.93 105.41))
    (stroke (width 0) (type default))
    (uuid 15b2367d-dab7-4603-b24b-9ffd33341868)
  )
  (wire (pts (xy 102.87 71.12) (xy 110.49 71.12))
    (stroke (width 0) (type default))
    (uuid 1bfecdc4-2106-41b1-a1dc-60314542d868)
  )
  (wire (pts (xy 54.61 41.91) (xy 54.61 35.56))
    (stroke (width 0) (type default))
    (uuid 2244a78e-ecd8-4153-8683-4e9a0ac1a906)
  )
  (wire (pts (xy 64.77 35.56) (xy 64.77 41.91))
    (stroke (width 0) (type default))
    (uuid 24ae20c6-cc0e-4e26-adca-cec7c60bd4f2)
  )
  (wire (pts (xy 120.65 73.66) (xy 130.81 73.66))
    (stroke (width 0) (type default))
    (uuid 2781c2e5-a8db-4480-a7cd-e9e434bda751)
  )
  (wire (pts (xy 163.83 107.95) (xy 163.83 113.03))
    (stroke (width 0) (type default))
    (uuid 2dc4fd3f-326c-48df-9a49-e45d57053645)
  )
  (wire (pts (xy 105.41 143.51) (xy 105.41 146.05))
    (stroke (width 0) (type default))
    (uuid 2fd9292f-5591-49a3-ba85-80919c5a82e7)
  )
  (wire (pts (xy 111.76 148.59) (xy 111.76 146.05))
    (stroke (width 0) (type default))
    (uuid 32cedff6-8aa4-4da2-8277-ded0f4fe7f20)
  )
  (wire (pts (xy 196.85 105.41) (xy 201.93 105.41))
    (stroke (width 0) (type default))
    (uuid 36289ce4-b856-4b57-9a90-b0af868286bd)
  )
  (wire (pts (xy 147.32 58.42) (xy 149.86 58.42))
    (stroke (width 0) (type default))
    (uuid 37dfbcea-0942-4408-9259-2a5c03ee2e6e)
  )
  (wire (pts (xy 85.09 144.78) (xy 85.09 148.59))
    (stroke (width 0) (type default))
    (uuid 3a6ce748-0b7c-4fec-bb23-e2bd5c383dc7)
  )
  (wire (pts (xy 184.15 68.58) (xy 186.69 68.58))
    (stroke (width 0) (type default))
    (uuid 46cde1d8-576c-42e9-aea7-c1aef9c06775)
  )
  (wire (pts (xy 196.85 68.58) (xy 205.74 68.58))
    (stroke (width 0) (type default))
    (uuid 47ac320b-b7ec-4510-8354-29abe9c244e5)
  )
  (wire (pts (xy 144.78 55.88) (xy 144.78 58.42))
    (stroke (width 0) (type default))
    (uuid 4a5f9fa1-0930-4f95-8e2b-249ed57bed5c)
  )
  (wire (pts (xy 142.24 60.96) (xy 142.24 58.42))
    (stroke (width 0) (type default))
    (uuid 4ae6a02d-3ff3-4ce4-a7c1-d09ab39192a0)
  )
  (wire (pts (xy 231.14 104.14) (xy 231.14 106.68))
    (stroke (width 0) (type default))
    (uuid 500ee89f-f192-4ebd-af10-76e06a513988)
  )
  (wire (pts (xy 231.14 68.58) (xy 231.14 73.66))
    (stroke (width 0) (type default))
    (uuid 53bddfa9-f461-4504-94a7-bb268f9cbe5f)
  )
  (wire (pts (xy 171.45 73.66) (xy 171.45 68.58))
    (stroke (width 0) (type default))
    (uuid 589a50a2-23c3-4169-b4e5-3216df10625d)
  )
  (wire (pts (xy 193.04 93.98) (xy 196.85 93.98))
    (stroke (width 0) (type default))
    (uuid 5a806d8b-fc74-4322-9f76-0c28d6091077)
  )
  (wire (pts (xy 234.95 77.47) (xy 241.3 77.47))
    (stroke (width 0) (type default))
    (uuid 66e522d1-67fb-4fff-8d99-4cb3fccc938a)
  )
  (wire (pts (xy 158.75 93.98) (xy 163.83 93.98))
    (stroke (width 0) (type default))
    (uuid 68eea8e8-a611-4e15-8a27-7cedfbc4660a)
  )
  (wire (pts (xy 196.85 93.98) (xy 196.85 96.52))
    (stroke (width 0) (type default))
    (uuid 68f87dd3-c001-4b90-bec1-3df849a79207)
  )
  (wire (pts (xy 196.85 78.74) (xy 196.85 80.01))
    (stroke (width 0) (type default))
    (uuid 6aa7f495-3978-44d3-abb7-975eaf0c6e03)
  )
  (wire (pts (xy 158.75 78.74) (xy 184.15 78.74))
    (stroke (width 0) (type default))
    (uuid 6c2961c0-144f-420f-9ecc-be65e30b3d6a)
  )
  (wire (pts (xy 139.7 110.49) (xy 142.24 110.49))
    (stroke (width 0) (type default))
    (uuid 6c5cad09-6d72-4b35-b724-f3352832f22e)
  )
  (wire (pts (xy 171.45 68.58) (xy 173.99 68.58))
    (stroke (width 0) (type default))
    (uuid 6de1cc15-ea99-4456-b4a9-dee7a58e3d0b)
  )
  (wire (pts (xy 241.3 85.09) (xy 247.65 85.09))
    (stroke (width 0) (type default))
    (uuid 6e8d8f6b-f6ca-4165-aeee-0d0bfbbcc737)
  )
  (wire (pts (xy 245.11 92.71) (xy 245.11 82.55))
    (stroke (width 0) (type default))
    (uuid 6ea4b168-b648-4531-9572-50b03e8ef551)
  )
  (wire (pts (xy 205.74 93.98) (xy 207.01 93.98))
    (stroke (width 0) (type default))
    (uuid 6ecfd3a8-2d7c-4075-8e51-8d7151dd0127)
  )
  (wire (pts (xy 205.74 80.01) (xy 205.74 78.74))
    (stroke (width 0) (type default))
    (uuid 6fac430e-c180-46b2-a4d0-dc15d68b42f3)
  )
  (wire (pts (xy 241.3 100.33) (xy 241.3 90.17))
    (stroke (width 0) (type default))
    (uuid 707ab8bd-7bca-4658-88e7-176d9e506752)
  )
  (wire (pts (xy 130.81 93.98) (xy 128.27 93.98))
    (stroke (width 0) (type default))
    (uuid 72db59cb-8ad1-480e-9415-8acc9afdfa69)
  )
  (wire (pts (xy 181.61 68.58) (xy 184.15 68.58))
    (stroke (width 0) (type default))
    (uuid 7438122e-b0f0-4823-90e7-45ee3afd2cbe)
  )
  (wire (pts (xy 163.83 93.98) (xy 163.83 100.33))
    (stroke (width 0) (type default))
    (uuid 764789a6-751b-4fa9-bfed-5c3838d38206)
  )
  (wire (pts (xy 158.75 83.82) (xy 184.15 83.82))
    (stroke (width 0) (type default))
    (uuid 7b58813c-9519-445a-944d-d61c8c8db15f)
  )
  (wire (pts (xy 171.45 93.98) (xy 173.99 93.98))
    (stroke (width 0) (type default))
    (uuid 7e9401d8-5e7c-4162-ac40-1a299d7bf70c)
  )
  (wire (pts (xy 119.38 81.28) (xy 119.38 100.33))
    (stroke (width 0) (type default))
    (uuid 7f9a5cef-7679-4fdb-b8e0-76893df299ff)
  )
  (wire (pts (xy 85.09 161.29) (xy 85.09 156.21))
    (stroke (width 0) (type default))
    (uuid 82f858bd-c951-431e-80be-c4ea960cae79)
  )
  (wire (pts (xy 105.41 146.05) (xy 99.06 146.05))
    (stroke (width 0) (type default))
    (uuid 8833aa8f-3359-4a9a-bb71-432239cfeeba)
  )
  (wire (pts (xy 149.86 110.49) (xy 149.86 107.95))
    (stroke (width 0) (type default))
    (uuid 8cb5a4f9-a023-449b-b3d9-fb1553f64a93)
  )
  (wire (pts (xy 245.11 82.55) (xy 247.65 82.55))
    (stroke (width 0) (type default))
    (uuid 8cfd8fa4-1931-4d2c-84f4-12aa69e7a095)
  )
  (wire (pts (xy 128.27 93.98) (xy 128.27 91.44))
    (stroke (width 0) (type default))
    (uuid 903c8531-a52c-437f-8c62-e1856e32b739)
  )
  (wire (pts (xy 149.86 113.03) (xy 149.86 110.49))
    (stroke (width 0) (type default))
    (uuid 91980109-7323-475a-903e-f2fc8d559ea0)
  )
  (wire (pts (xy 99.06 146.05) (xy 99.06 148.59))
    (stroke (width 0) (type default))
    (uuid 91997f0e-b0df-4fa2-9c8b-2b028bd26949)
  )
  (wire (pts (xy 120.65 76.2) (xy 120.65 78.74))
    (stroke (width 0) (type default))
    (uuid 92d6dce4-358d-49eb-9d4c-3ea4bbe0e973)
  )
  (wire (pts (xy 139.7 58.42) (xy 142.24 58.42))
    (stroke (width 0) (type default))
    (uuid 9600c55f-122c-4125-b18f-774d88b805cd)
  )
  (wire (pts (xy 201.93 81.28) (xy 201.93 80.01))
    (stroke (width 0) (type default))
    (uuid 96345b93-155d-49ff-aa17-9ac9f85b6740)
  )
  (wire (pts (xy 142.24 58.42) (xy 144.78 58.42))
    (stroke (width 0) (type default))
    (uuid 96a86079-0824-447d-9c9a-a38cceb614b4)
  )
  (wire (pts (xy 194.31 68.58) (xy 196.85 68.58))
    (stroke (width 0) (type default))
    (uuid 9772fd98-2371-4fb7-8428-27bae75b1ef5)
  )
  (wire (pts (xy 99.06 158.75) (xy 105.41 158.75))
    (stroke (width 0) (type default))
    (uuid 98999fb8-202e-4e96-82b5-2db4521bd7b6)
  )
  (wire (pts (xy 231.14 81.28) (xy 231.14 83.82))
    (stroke (width 0) (type default))
    (uuid 9bf4a1bc-f1b5-44c3-9066-212a0e16ed89)
  )
  (wire (pts (xy 139.7 107.95) (xy 139.7 110.49))
    (stroke (width 0) (type default))
    (uuid a0893931-9624-432a-8ac9-65f196774887)
  )
  (wire (pts (xy 128.27 99.06) (xy 128.27 96.52))
    (stroke (width 0) (type default))
    (uuid a0f59878-1510-4c5c-b8f0-a35f37ddc3f5)
  )
  (wire (pts (xy 120.65 71.12) (xy 118.11 71.12))
    (stroke (width 0) (type default))
    (uuid a13351af-6ea8-4446-a4b6-05abcd916057)
  )
  (wire (pts (xy 196.85 71.12) (xy 196.85 68.58))
    (stroke (width 0) (type default))
    (uuid a2ed0e53-02fd-4c25-8461-425a7ab5f95b)
  )
  (wire (pts (xy 142.24 107.95) (xy 142.24 110.49))
    (stroke (width 0) (type default))
    (uuid a3edfa83-1c29-49ac-b58d-96fbe19e3c36)
  )
  (wire (pts (xy 201.93 105.41) (xy 205.74 105.41))
    (stroke (width 0) (type default))
    (uuid a5b6b81b-c5f4-4367-b7a8-8df80be313c2)
  )
  (wire (pts (xy 125.73 55.88) (xy 125.73 86.36))
    (stroke (width 0) (type default))
    (uuid a8900778-3774-4df7-b8be-1d4128ff762f)
  )
  (wire (pts (xy 184.15 83.82) (xy 184.15 93.98))
    (stroke (width 0) (type default))
    (uuid a993d967-8415-4e05-a31e-3155b2d787cc)
  )
  (wire (pts (xy 44.45 35.56) (xy 44.45 41.91))
    (stroke (width 0) (type default))
    (uuid aa7ad718-9df0-47c9-81d4-6b63ce1d3a7e)
  )
  (wire (pts (xy 139.7 60.96) (xy 139.7 58.42))
    (stroke (width 0) (type default))
    (uuid aea75fce-1dd5-4f6a-a6d1-45d81ae96040)
  )
  (wire (pts (xy 147.32 60.96) (xy 147.32 58.42))
    (stroke (width 0) (type default))
    (uuid af798256-1a34-4a2b-898a-058b587b4cef)
  )
  (wire (pts (xy 201.93 80.01) (xy 205.74 80.01))
    (stroke (width 0) (type default))
    (uuid b2698cea-5850-4c3f-9e33-4b49c1e33d29)
  )
  (wire (pts (xy 196.85 104.14) (xy 196.85 105.41))
    (stroke (width 0) (type default))
    (uuid b43cb50f-42a3-4213-acb0-dc3de305df29)
  )
  (wire (pts (xy 171.45 88.9) (xy 171.45 93.98))
    (stroke (width 0) (type default))
    (uuid b45ee314-96c0-4137-aaf1-6dd0ff892557)
  )
  (wire (pts (xy 105.41 158.75) (xy 111.76 158.75))
    (stroke (width 0) (type default))
    (uuid b69dd169-bf84-4046-9a1b-6643baa5defd)
  )
  (wire (pts (xy 205.74 68.58) (xy 207.01 68.58))
    (stroke (width 0) (type default))
    (uuid b982d8c2-d060-4958-8fdf-309466537b88)
  )
  (wire (pts (xy 184.15 93.98) (xy 181.61 93.98))
    (stroke (width 0) (type default))
    (uuid bb3e6bfb-aa15-4260-bf3c-8ac12b5ee942)
  )
  (wire (pts (xy 111.76 156.21) (xy 111.76 158.75))
    (stroke (width 0) (type default))
    (uuid c6d40fd3-4c6c-4777-a30c-9aa9b1249b58)
  )
  (wire (pts (xy 144.78 58.42) (xy 147.32 58.42))
    (stroke (width 0) (type default))
    (uuid cabf7a1d-7729-463a-9a6b-251c73a1cbd8)
  )
  (wire (pts (xy 99.06 156.21) (xy 99.06 158.75))
    (stroke (width 0) (type default))
    (uuid cc11fae5-0e67-4312-a2bf-839466212d5d)
  )
  (wire (pts (xy 158.75 88.9) (xy 171.45 88.9))
    (stroke (width 0) (type default))
    (uuid d0c66319-07bc-4337-bca5-683abb287ce0)
  )
  (wire (pts (xy 205.74 96.52) (xy 205.74 93.98))
    (stroke (width 0) (type default))
    (uuid d11e279e-bb98-4cea-8528-b9b957b2368f)
  )
  (wire (pts (xy 147.32 107.95) (xy 147.32 110.49))
    (stroke (width 0) (type default))
    (uuid d1d11a6c-8934-427d-a230-2a94f9a2ced9)
  )
  (wire (pts (xy 128.27 96.52) (xy 128.27 93.98))
    (stroke (width 0) (type default))
    (uuid d7772cde-8458-4930-90a2-31ce2a1a65da)
  )
  (wire (pts (xy 231.14 93.98) (xy 231.14 96.52))
    (stroke (width 0) (type default))
    (uuid d990c84a-853b-46b8-a6d8-548ef1cf1b72)
  )
  (wire (pts (xy 241.3 90.17) (xy 247.65 90.17))
    (stroke (width 0) (type default))
    (uuid da706765-ef0b-42ab-b325-67fa1ef3231d)
  )
  (wire (pts (xy 130.81 86.36) (xy 125.73 86.36))
    (stroke (width 0) (type default))
    (uuid db79bdfa-f6e4-4972-800f-487a63dbc8f0)
  )
  (wire (pts (xy 149.86 58.42) (xy 149.86 60.96))
    (stroke (width 0) (type default))
    (uuid de055332-b1eb-4790-bdc4-825a8b3d86ae)
  )
  (wire (pts (xy 214.63 68.58) (xy 231.14 68.58))
    (stroke (width 0) (type default))
    (uuid df9a3886-922e-42f9-b1c5-a44c76a63496)
  )
  (wire (pts (xy 241.3 77.47) (xy 241.3 85.09))
    (stroke (width 0) (type default))
    (uuid e95885ed-cafa-4897-92c4-13fb13567e5d)
  )
  (wire (pts (xy 158.75 73.66) (xy 171.45 73.66))
    (stroke (width 0) (type default))
    (uuid ecdf6ee8-4e6f-4fa0-9581-8d26fc688c93)
  )
  (wire (pts (xy 196.85 93.98) (xy 205.74 93.98))
    (stroke (width 0) (type default))
    (uuid f1142c71-fe7e-4bf9-8ebf-781e86feae32)
  )
  (wire (pts (xy 34.29 35.56) (xy 34.29 41.91))
    (stroke (width 0) (type default))
    (uuid f15aec85-b343-4759-8c8d-bb1fc79f1bf9)
  )
  (wire (pts (xy 184.15 78.74) (xy 184.15 68.58))
    (stroke (width 0) (type default))
    (uuid f2064d0d-d032-43d7-ba00-3eb93d3dec1e)
  )
  (wire (pts (xy 130.81 96.52) (xy 128.27 96.52))
    (stroke (width 0) (type default))
    (uuid f266716e-b26f-4241-a1d0-87d200b07c6f)
  )
  (wire (pts (xy 118.11 78.74) (xy 120.65 78.74))
    (stroke (width 0) (type default))
    (uuid f5e171f9-17b8-4dba-8789-65e0a1d23e97)
  )
  (wire (pts (xy 196.85 80.01) (xy 201.93 80.01))
    (stroke (width 0) (type default))
    (uuid f868b649-9af0-41e8-a444-6da7ca0f6194)
  )
  (wire (pts (xy 184.15 93.98) (xy 185.42 93.98))
    (stroke (width 0) (type default))
    (uuid f8ccdf29-defd-45a7-b557-531c63b7895b)
  )
  (wire (pts (xy 111.76 146.05) (xy 105.41 146.05))
    (stroke (width 0) (type default))
    (uuid f8d9c588-826f-4730-9e7f-d00d765bd3c2)
  )
  (wire (pts (xy 120.65 71.12) (xy 120.65 73.66))
    (stroke (width 0) (type default))
    (uuid fa954ee7-e7ad-4451-b157-dd96dfd061a3)
  )
  (wire (pts (xy 214.63 93.98) (xy 231.14 93.98))
    (stroke (width 0) (type default))
    (uuid fb93b05f-c008-4e0a-acdd-283fc5bb403d)
  )
  (wire (pts (xy 105.41 161.29) (xy 105.41 158.75))
    (stroke (width 0) (type default))
    (uuid fbf88723-134f-48b0-8318-6206c6e7c482)
  )

  (hierarchical_label "AUDIO_L" (shape input) (at 102.87 78.74 180) (fields_autoplaced)
    (effects (font (size 1.27 1.27)) (justify right))
    (uuid 5e37c68a-47bf-4659-9fa2-38907ce21def)
  )
  (hierarchical_label "AUDIO_R" (shape input) (at 102.87 71.12 180) (fields_autoplaced)
    (effects (font (size 1.27 1.27)) (justify right))
    (uuid 6dcc9c24-57dc-441b-99de-c5a7af1c9a4c)
  )

  (symbol (lib_id "Ddraig:TPA3122D2") (at 144.78 85.09 0) (unit 1)
    (in_bom yes) (on_board yes) (dnp no)
    (uuid 00000000-0000-0000-0000-000060d93e14)
    (property "Reference" "U8" (at 134.62 62.23 0)
      (effects (font (size 1.27 1.27)))
    )
    (property "Value" "TPA3122D2" (at 156.21 62.23 0)
      (effects (font (size 1.27 1.27)))
    )
    (property "Footprint" "Package_DIP:DIP-20_W7.62mm_Socket" (at 144.78 92.71 0)
      (effects (font (size 1.27 1.27)) hide)
    )
    (property "Datasheet" "" (at 144.78 92.71 0)
      (effects (font (size 1.27 1.27)) hide)
    )
    (pin "1" (uuid 6fdc96a7-a0a4-4e06-a4e3-1a7775216d0a))
    (pin "10" (uuid c44957b7-02df-43f0-9336-49c4e83e8550))
    (pin "11" (uuid 80c4720c-3a07-4c6c-bec9-1a5affbe465e))
    (pin "12" (uuid 146d4128-412d-4a8f-aa9b-4b87889c7608))
    (pin "13" (uuid 3eb030ed-ef37-4f9a-af42-d43a9ed6ca15))
    (pin "14" (uuid 9531ac12-5709-4ad7-9943-64e99b2dec27))
    (pin "15" (uuid 7db64407-0196-4e90-9fb1-c68b258aad0f))
    (pin "16" (uuid d81acff2-6a0d-41e8-8e6f-58d372e855c2))
    (pin "17" (uuid fbd0f747-3788-4bb2-bdae-7e6cb6838f93))
    (pin "18" (uuid 7cdb5133-13e3-4b85-9dce-d40f447ee64f))
    (pin "19" (uuid 6aabfc06-c7f4-4d01-bad6-105ca463b0f6))
    (pin "2" (uuid 3862c7ef-b0f3-4155-9d69-a937ce751ffe))
    (pin "20" (uuid 9f32f1b2-bec8-4c64-9b1f-eef8a3e6ccc3))
    (pin "3" (uuid ad38547a-f41d-4a09-afe6-f5ff98f3ed75))
    (pin "4" (uuid ca88734e-d38b-44e6-8833-a2f489ea77fb))
    (pin "5" (uuid 4d1de5fc-63eb-4508-a6cb-5dfbce2f9c27))
    (pin "6" (uuid c5c52e40-232b-4e98-8bac-f01c406ac972))
    (pin "7" (uuid 1ee01bf8-20b5-46af-9613-fa8fb46304ef))
    (pin "8" (uuid eedd3bfa-26ba-4b41-82e8-5ff0fa841b88))
    (pin "9" (uuid 9f43516f-bd96-432f-af9b-acd9329ab2f3))
    (instances
      (project "AudioYM2610"
        (path "/11b3d4e8-2628-4a40-8ff8-a648827b2eb8/00000000-0000-0000-0000-000060d7ccdf"
          (reference "U8") (unit 1)
        )
      )
    )
  )

  (symbol (lib_id "Device:C_Polarized") (at 114.3 71.12 90) (unit 1)
    (in_bom yes) (on_board yes) (dnp no)
    (uuid 00000000-0000-0000-0000-000060d93e26)
    (property "Reference" "C24" (at 114.3 64.643 90)
      (effects (font (size 1.27 1.27)))
    )
    (property "Value" "1uF" (at 114.3 66.9544 90)
      (effects (font (size 1.27 1.27)))
    )
    (property "Footprint" "Capacitor_THT:CP_Radial_D5.0mm_P2.50mm" (at 118.11 70.1548 0)
      (effects (font (size 1.27 1.27)) hide)
    )
    (property "Datasheet" "~" (at 114.3 71.12 0)
      (effects (font (size 1.27 1.27)) hide)
    )
    (pin "1" (uuid 2b1c09e0-70a6-4c47-bb85-332d6f183723))
    (pin "2" (uuid e8d782b7-5273-4a37-a23a-0e199af38f4f))
    (instances
      (project "AudioYM2610"
        (path "/11b3d4e8-2628-4a40-8ff8-a648827b2eb8/00000000-0000-0000-0000-000060d7ccdf"
          (reference "C24") (unit 1)
        )
      )
    )
  )

  (symbol (lib_id "Device:C_Polarized") (at 114.3 78.74 90) (unit 1)
    (in_bom yes) (on_board yes) (dnp no)
    (uuid 00000000-0000-0000-0000-000060d93e2c)
    (property "Reference" "C25" (at 114.3 85.09 90)
      (effects (font (size 1.27 1.27)))
    )
    (property "Value" "1uF" (at 114.3 82.55 90)
      (effects (font (size 1.27 1.27)))
    )
    (property "Footprint" "Capacitor_THT:CP_Radial_D5.0mm_P2.50mm" (at 118.11 77.7748 0)
      (effects (font (size 1.27 1.27)) hide)
    )
    (property "Datasheet" "~" (at 114.3 78.74 0)
      (effects (font (size 1.27 1.27)) hide)
    )
    (pin "1" (uuid 56c3b04c-eb63-4fc6-98bc-b6c2ec50945f))
    (pin "2" (uuid c63fa291-276d-4d32-b340-e57735ce9e97))
    (instances
      (project "AudioYM2610"
        (path "/11b3d4e8-2628-4a40-8ff8-a648827b2eb8/00000000-0000-0000-0000-000060d7ccdf"
          (reference "C25") (unit 1)
        )
      )
    )
  )

  (symbol (lib_id "Device:C_Polarized") (at 163.83 104.14 0) (unit 1)
    (in_bom yes) (on_board yes) (dnp no)
    (uuid 00000000-0000-0000-0000-000060d93e4d)
    (property "Reference" "C27" (at 166.8272 102.9716 0)
      (effects (font (size 1.27 1.27)) (justify left))
    )
    (property "Value" "1uF" (at 166.8272 105.283 0)
      (effects (font (size 1.27 1.27)) (justify left))
    )
    (property "Footprint" "Capacitor_THT:CP_Radial_D5.0mm_P2.50mm" (at 164.7952 107.95 0)
      (effects (font (size 1.27 1.27)) hide)
    )
    (property "Datasheet" "~" (at 163.83 104.14 0)
      (effects (font (size 1.27 1.27)) hide)
    )
    (pin "1" (uuid b6910896-32af-4b6e-9925-a5d5aa033988))
    (pin "2" (uuid 69beabcc-1e70-4358-9906-9d267148b9d0))
    (instances
      (project "AudioYM2610"
        (path "/11b3d4e8-2628-4a40-8ff8-a648827b2eb8/00000000-0000-0000-0000-000060d7ccdf"
          (reference "C27") (unit 1)
        )
      )
    )
  )

  (symbol (lib_id "Device:C_Polarized") (at 119.38 104.14 0) (unit 1)
    (in_bom yes) (on_board yes) (dnp no)
    (uuid 00000000-0000-0000-0000-000060d93e5a)
    (property "Reference" "C26" (at 113.03 102.87 0)
      (effects (font (size 1.27 1.27)) (justify left))
    )
    (property "Value" "1uF" (at 113.03 105.41 0)
      (effects (font (size 1.27 1.27)) (justify left))
    )
    (property "Footprint" "Capacitor_THT:CP_Radial_D5.0mm_P2.50mm" (at 120.3452 107.95 0)
      (effects (font (size 1.27 1.27)) hide)
    )
    (property "Datasheet" "~" (at 119.38 104.14 0)
      (effects (font (size 1.27 1.27)) hide)
    )
    (pin "1" (uuid f52a465b-2e52-4de6-85c2-e909e06814c4))
    (pin "2" (uuid 2cd0ad77-c9eb-442d-a180-ba2e9cc457bf))
    (instances
      (project "AudioYM2610"
        (path "/11b3d4e8-2628-4a40-8ff8-a648827b2eb8/00000000-0000-0000-0000-000060d7ccdf"
          (reference "C26") (unit 1)
        )
      )
    )
  )

  (symbol (lib_id "Device:C") (at 177.8 68.58 90) (unit 1)
    (in_bom yes) (on_board yes) (dnp no)
    (uuid 00000000-0000-0000-0000-000060d93e66)
    (property "Reference" "C28" (at 177.8 62.23 90)
      (effects (font (size 1.27 1.27)))
    )
    (property "Value" "220nF" (at 177.8 64.77 90)
      (effects (font (size 1.27 1.27)))
    )
    (property "Footprint" "Capacitor_THT:C_Disc_D5.0mm_W2.5mm_P2.50mm" (at 181.61 67.6148 0)
      (effects (font (size 1.27 1.27)) hide)
    )
    (property "Datasheet" "~" (at 177.8 68.58 0)
      (effects (font (size 1.27 1.27)) hide)
    )
    (pin "1" (uuid 0ec90f88-f1dc-4422-a77a-5f8f75789294))
    (pin "2" (uuid 047ae351-4505-47f6-9a6d-9434648dd7ae))
    (instances
      (project "AudioYM2610"
        (path "/11b3d4e8-2628-4a40-8ff8-a648827b2eb8/00000000-0000-0000-0000-000060d7ccdf"
          (reference "C28") (unit 1)
        )
      )
    )
  )

  (symbol (lib_id "Device:L") (at 190.5 68.58 90) (unit 1)
    (in_bom yes) (on_board yes) (dnp no)
    (uuid 00000000-0000-0000-0000-000060d93e6c)
    (property "Reference" "L4" (at 190.5 63.5 90)
      (effects (font (size 1.27 1.27)))
    )
    (property "Value" "22uH" (at 190.5 66.04 90)
      (effects (font (size 1.27 1.27)))
    )
    (property "Footprint" "Inductor_THT:L_Radial_D8.7mm_P5.00mm_Fastron_07HCP" (at 190.5 68.58 0)
      (effects (font (size 1.27 1.27)) hide)
    )
    (property "Datasheet" "~" (at 190.5 68.58 0)
      (effects (font (size 1.27 1.27)) hide)
    )
    (pin "1" (uuid bcff7f39-7b4f-408d-b345-f4ffa0eb5c43))
    (pin "2" (uuid b85060b2-02d0-40ee-8c57-cdb6cdbc1af5))
    (instances
      (project "AudioYM2610"
        (path "/11b3d4e8-2628-4a40-8ff8-a648827b2eb8/00000000-0000-0000-0000-000060d7ccdf"
          (reference "L4") (unit 1)
        )
      )
    )
  )

  (symbol (lib_id "Device:C_Polarized") (at 210.82 68.58 90) (unit 1)
    (in_bom yes) (on_board yes) (dnp no)
    (uuid 00000000-0000-0000-0000-000060d93e72)
    (property "Reference" "C32" (at 210.82 62.103 90)
      (effects (font (size 1.27 1.27)))
    )
    (property "Value" "470uF" (at 210.82 64.4144 90)
      (effects (font (size 1.27 1.27)))
    )
    (property "Footprint" "Capacitor_THT:CP_Radial_D8.0mm_P5.00mm" (at 214.63 67.6148 0)
      (effects (font (size 1.27 1.27)) hide)
    )
    (property "Datasheet" "~" (at 210.82 68.58 0)
      (effects (font (size 1.27 1.27)) hide)
    )
    (pin "1" (uuid 53e5dc7a-8358-4b3b-8e30-2b479c51c107))
    (pin "2" (uuid f08a8a6c-f389-4f55-a7bc-9b3815b35a5e))
    (instances
      (project "AudioYM2610"
        (path "/11b3d4e8-2628-4a40-8ff8-a648827b2eb8/00000000-0000-0000-0000-000060d7ccdf"
          (reference "C32") (unit 1)
        )
      )
    )
  )

  (symbol (lib_id "Device:C") (at 205.74 74.93 180) (unit 1)
    (in_bom yes) (on_board yes) (dnp no)
    (uuid 00000000-0000-0000-0000-000060d93e78)
    (property "Reference" "C30" (at 213.36 76.2 0)
      (effects (font (size 1.27 1.27)) (justify left))
    )
    (property "Value" "680nF" (at 214.63 73.66 0)
      (effects (font (size 1.27 1.27)) (justify left))
    )
    (property "Footprint" "Capacitor_THT:C_Disc_D5.0mm_W2.5mm_P2.50mm" (at 204.7748 71.12 0)
      (effects (font (size 1.27 1.27)) hide)
    )
    (property "Datasheet" "~" (at 205.74 74.93 0)
      (effects (font (size 1.27 1.27)) hide)
    )
    (pin "1" (uuid d4e7c3cd-abb5-4268-8ffb-7080fdb5678f))
    (pin "2" (uuid 571146e7-3416-45a1-b127-6d4c4c8718d0))
    (instances
      (project "AudioYM2610"
        (path "/11b3d4e8-2628-4a40-8ff8-a648827b2eb8/00000000-0000-0000-0000-000060d7ccdf"
          (reference "C30") (unit 1)
        )
      )
    )
  )

  (symbol (lib_id "Device:R") (at 196.85 74.93 0) (unit 1)
    (in_bom yes) (on_board yes) (dnp no)
    (uuid 00000000-0000-0000-0000-000060d93e7e)
    (property "Reference" "R17" (at 198.628 73.7616 0)
      (effects (font (size 1.27 1.27)) (justify left))
    )
    (property "Value" "4K7" (at 198.628 76.073 0)
      (effects (font (size 1.27 1.27)) (justify left))
    )
    (property "Footprint" "Resistor_THT:R_Axial_DIN0207_L6.3mm_D2.5mm_P10.16mm_Horizontal" (at 195.072 74.93 90)
      (effects (font (size 1.27 1.27)) hide)
    )
    (property "Datasheet" "~" (at 196.85 74.93 0)
      (effects (font (size 1.27 1.27)) hide)
    )
    (pin "1" (uuid b59d887a-252a-429a-8b97-7e5710705e38))
    (pin "2" (uuid 40679d06-43a8-4413-8907-b352baca599f))
    (instances
      (project "AudioYM2610"
        (path "/11b3d4e8-2628-4a40-8ff8-a648827b2eb8/00000000-0000-0000-0000-000060d7ccdf"
          (reference "R17") (unit 1)
        )
      )
    )
  )

  (symbol (lib_id "Device:C") (at 177.8 93.98 270) (unit 1)
    (in_bom yes) (on_board yes) (dnp no)
    (uuid 00000000-0000-0000-0000-000060d93e8e)
    (property "Reference" "C29" (at 177.8 87.5792 90)
      (effects (font (size 1.27 1.27)))
    )
    (property "Value" "220nF" (at 177.8 89.8906 90)
      (effects (font (size 1.27 1.27)))
    )
    (property "Footprint" "Capacitor_THT:C_Disc_D5.0mm_W2.5mm_P2.50mm" (at 173.99 94.9452 0)
      (effects (font (size 1.27 1.27)) hide)
    )
    (property "Datasheet" "~" (at 177.8 93.98 0)
      (effects (font (size 1.27 1.27)) hide)
    )
    (pin "1" (uuid a02f6cc1-02ab-4589-9c44-9d46e0c14538))
    (pin "2" (uuid af1c8af0-74a0-4e7c-b5f0-b0513058b853))
    (instances
      (project "AudioYM2610"
        (path "/11b3d4e8-2628-4a40-8ff8-a648827b2eb8/00000000-0000-0000-0000-000060d7ccdf"
          (reference "C29") (unit 1)
        )
      )
    )
  )

  (symbol (lib_id "Device:L") (at 189.23 93.98 90) (unit 1)
    (in_bom yes) (on_board yes) (dnp no)
    (uuid 00000000-0000-0000-0000-000060d93e94)
    (property "Reference" "L3" (at 189.23 98.5774 90)
      (effects (font (size 1.27 1.27)))
    )
    (property "Value" "22uH" (at 189.23 96.266 90)
      (effects (font (size 1.27 1.27)))
    )
    (property "Footprint" "Inductor_THT:L_Radial_D8.7mm_P5.00mm_Fastron_07HCP" (at 189.23 93.98 0)
      (effects (font (size 1.27 1.27)) hide)
    )
    (property "Datasheet" "~" (at 189.23 93.98 0)
      (effects (font (size 1.27 1.27)) hide)
    )
    (pin "1" (uuid 51296573-98a1-4311-9c8d-46b05fea5dae))
    (pin "2" (uuid 71afea8f-7b10-4a65-91cd-ad37de8eeb42))
    (instances
      (project "AudioYM2610"
        (path "/11b3d4e8-2628-4a40-8ff8-a648827b2eb8/00000000-0000-0000-0000-000060d7ccdf"
          (reference "L3") (unit 1)
        )
      )
    )
  )

  (symbol (lib_id "Device:C") (at 205.74 100.33 180) (unit 1)
    (in_bom yes) (on_board yes) (dnp no)
    (uuid 00000000-0000-0000-0000-000060d93ea1)
    (property "Reference" "C31" (at 213.36 101.6 0)
      (effects (font (size 1.27 1.27)) (justify left))
    )
    (property "Value" "680nF" (at 214.63 99.06 0)
      (effects (font (size 1.27 1.27)) (justify left))
    )
    (property "Footprint" "Capacitor_THT:C_Disc_D5.0mm_W2.5mm_P2.50mm" (at 204.7748 96.52 0)
      (effects (font (size 1.27 1.27)) hide)
    )
    (property "Datasheet" "~" (at 205.74 100.33 0)
      (effects (font (size 1.27 1.27)) hide)
    )
    (pin "1" (uuid 26176a63-8a55-46ba-8e66-b6d59bffdd93))
    (pin "2" (uuid 26d7686d-8468-47b6-b5c2-3c20e3cb77a0))
    (instances
      (project "AudioYM2610"
        (path "/11b3d4e8-2628-4a40-8ff8-a648827b2eb8/00000000-0000-0000-0000-000060d7ccdf"
          (reference "C31") (unit 1)
        )
      )
    )
  )

  (symbol (lib_id "Device:R") (at 196.85 100.33 0) (unit 1)
    (in_bom yes) (on_board yes) (dnp no)
    (uuid 00000000-0000-0000-0000-000060d93ea7)
    (property "Reference" "R18" (at 198.628 99.1616 0)
      (effects (font (size 1.27 1.27)) (justify left))
    )
    (property "Value" "4K7" (at 198.628 101.473 0)
      (effects (font (size 1.27 1.27)) (justify left))
    )
    (property "Footprint" "Resistor_THT:R_Axial_DIN0207_L6.3mm_D2.5mm_P10.16mm_Horizontal" (at 195.072 100.33 90)
      (effects (font (size 1.27 1.27)) hide)
    )
    (property "Datasheet" "~" (at 196.85 100.33 0)
      (effects (font (size 1.27 1.27)) hide)
    )
    (pin "1" (uuid 39dc92bd-5deb-40b7-aeda-d6b3fc31b67c))
    (pin "2" (uuid db9bfb47-21e3-4615-83cc-ed0b0b5e8ea8))
    (instances
      (project "AudioYM2610"
        (path "/11b3d4e8-2628-4a40-8ff8-a648827b2eb8/00000000-0000-0000-0000-000060d7ccdf"
          (reference "R18") (unit 1)
        )
      )
    )
  )

  (symbol (lib_id "Device:C_Polarized") (at 210.82 93.98 90) (unit 1)
    (in_bom yes) (on_board yes) (dnp no)
    (uuid 00000000-0000-0000-0000-000060d93eb2)
    (property "Reference" "C33" (at 210.82 87.503 90)
      (effects (font (size 1.27 1.27)))
    )
    (property "Value" "470uF" (at 210.82 89.8144 90)
      (effects (font (size 1.27 1.27)))
    )
    (property "Footprint" "Capacitor_THT:CP_Radial_D8.0mm_P5.00mm" (at 214.63 93.0148 0)
      (effects (font (size 1.27 1.27)) hide)
    )
    (property "Datasheet" "~" (at 210.82 93.98 0)
      (effects (font (size 1.27 1.27)) hide)
    )
    (pin "1" (uuid 63278a04-5391-47af-8e9c-aacd06c072ec))
    (pin "2" (uuid 39f0acb0-a2b2-480f-aadb-f978b0d0e0a9))
    (instances
      (project "AudioYM2610"
        (path "/11b3d4e8-2628-4a40-8ff8-a648827b2eb8/00000000-0000-0000-0000-000060d7ccdf"
          (reference "C33") (unit 1)
        )
      )
    )
  )

  (symbol (lib_id "Device:R_Potentiometer_Dual_Separate") (at 231.14 77.47 0) (unit 1)
    (in_bom yes) (on_board yes) (dnp no)
    (uuid 00000000-0000-0000-0000-000060d93ed0)
    (property "Reference" "RV1" (at 229.3874 76.3016 0)
      (effects (font (size 1.27 1.27)) (justify right))
    )
    (property "Value" "10K" (at 229.3874 78.613 0)
      (effects (font (size 1.27 1.27)) (justify right))
    )
    (property "Footprint" "Potentiometer_THT:Potentiometer_Alps_RK163_Dual_Horizontal" (at 231.14 77.47 0)
      (effects (font (size 1.27 1.27)) hide)
    )
    (property "Datasheet" "~" (at 231.14 77.47 0)
      (effects (font (size 1.27 1.27)) hide)
    )
    (pin "1" (uuid d7460a58-2cbb-4871-8514-27f2bb55b88c))
    (pin "2" (uuid 7dea5658-ec0d-4081-8b0a-697596e1b042))
    (pin "3" (uuid 61f8f015-2a23-45e8-8b4a-e2605c0f968c))
    (pin "4" (uuid 591b8d09-a466-47e6-b2c8-057222696995))
    (pin "5" (uuid 1aea4a66-fe11-4517-88d3-788cdfe16002))
    (pin "6" (uuid cad234c9-00ca-4634-bdee-0cefa968c05e))
    (instances
      (project "AudioYM2610"
        (path "/11b3d4e8-2628-4a40-8ff8-a648827b2eb8/00000000-0000-0000-0000-000060d7ccdf"
          (reference "RV1") (unit 1)
        )
      )
    )
  )

  (symbol (lib_id "Device:R_Potentiometer_Dual_Separate") (at 231.14 100.33 0) (unit 2)
    (in_bom yes) (on_board yes) (dnp no)
    (uuid 00000000-0000-0000-0000-000060d93ed6)
    (property "Reference" "RV1" (at 229.362 99.1616 0)
      (effects (font (size 1.27 1.27)) (justify right))
    )
    (property "Value" "10K" (at 229.362 101.473 0)
      (effects (font (size 1.27 1.27)) (justify right))
    )
    (property "Footprint" "Potentiometer_THT:Potentiometer_Alps_RK163_Dual_Horizontal" (at 231.14 100.33 0)
      (effects (font (size 1.27 1.27)) hide)
    )
    (property "Datasheet" "~" (at 231.14 100.33 0)
      (effects (font (size 1.27 1.27)) hide)
    )
    (pin "1" (uuid f3d71fd1-4cf2-498e-8d11-dd88c684d14e))
    (pin "2" (uuid 85245d0f-9837-4d8c-b191-6e014449f55a))
    (pin "3" (uuid 7a05f766-d864-46ea-966a-3d3ebe1ffafb))
    (pin "4" (uuid 439a92a8-2c59-44ff-b8b1-8e26b339a5f8))
    (pin "5" (uuid 4e21f717-cab5-4846-85d3-ad9d849c8881))
    (pin "6" (uuid a6624754-d217-4157-aa66-2ab2615f4d52))
    (instances
      (project "AudioYM2610"
        (path "/11b3d4e8-2628-4a40-8ff8-a648827b2eb8/00000000-0000-0000-0000-000060d7ccdf"
          (reference "RV1") (unit 2)
        )
      )
    )
  )

  (symbol (lib_id "Ddraig:35RAPC2BHN2") (at 255.27 87.63 0) (mirror y) (unit 1)
    (in_bom yes) (on_board yes) (dnp no)
    (uuid 00000000-0000-0000-0000-000060d93ee0)
    (property "Reference" "J3" (at 262.3312 85.1916 0)
      (effects (font (size 1.27 1.27)) (justify right))
    )
    (property "Value" "35RAPC2BHN2" (at 262.3312 87.503 0)
      (effects (font (size 1.27 1.27)) (justify right))
    )
    (property "Footprint" "Ddraig:SWITCHCRAFT_35RAPC2BHN2" (at 255.27 87.63 0)
      (effects (font (size 1.27 1.27)) (justify left bottom) hide)
    )
    (property "Datasheet" "" (at 255.27 87.63 0)
      (effects (font (size 1.27 1.27)) (justify left bottom) hide)
    )
    (property "STANDARD" "Manufacturer Recommendations" (at 255.27 87.63 0)
      (effects (font (size 1.27 1.27)) (justify left bottom) hide)
    )
    (property "MAXIMUM_PACKAGE_HIEGHT" "6.1214mm" (at 255.27 87.63 0)
      (effects (font (size 1.27 1.27)) (justify left bottom) hide)
    )
    (property "MANUFACTURER" "Switchcraft Inc." (at 255.27 87.63 0)
      (effects (font (size 1.27 1.27)) (justify left bottom) hide)
    )
    (property "PARTREV" "L" (at 255.27 87.63 0)
      (effects (font (size 1.27 1.27)) (justify left bottom) hide)
    )
    (pin "1" (uuid 4b0d9dea-2296-4324-8ccd-7c238cee9785))
    (pin "2" (uuid 60716897-2cf3-4bc9-afa7-6de80a4d80c3))
    (pin "3" (uuid 9967dada-6a84-4069-8814-bb265a552a98))
    (instances
      (project "AudioYM2610"
        (path "/11b3d4e8-2628-4a40-8ff8-a648827b2eb8/00000000-0000-0000-0000-000060d7ccdf"
          (reference "J3") (unit 1)
        )
      )
    )
  )

  (symbol (lib_id "Device:C") (at 111.76 152.4 0) (unit 1)
    (in_bom yes) (on_board yes) (dnp no)
    (uuid 00000000-0000-0000-0000-000060d93fa3)
    (property "Reference" "C23" (at 114.681 151.2316 0)
      (effects (font (size 1.27 1.27)) (justify left))
    )
    (property "Value" "100nF" (at 114.681 153.543 0)
      (effects (font (size 1.27 1.27)) (justify left))
    )
    (property "Footprint" "Capacitor_THT:C_Disc_D5.0mm_W2.5mm_P2.50mm" (at 112.7252 156.21 0)
      (effects (font (size 1.27 1.27)) hide)
    )
    (property "Datasheet" "~" (at 111.76 152.4 0)
      (effects (font (size 1.27 1.27)) hide)
    )
    (pin "1" (uuid 04d46d44-29f0-41e2-b9c2-faca40bb6170))
    (pin "2" (uuid b47b97d1-1e7d-4c40-8755-c612c6965aeb))
    (instances
      (project "AudioYM2610"
        (path "/11b3d4e8-2628-4a40-8ff8-a648827b2eb8/00000000-0000-0000-0000-000060d7ccdf"
          (reference "C23") (unit 1)
        )
      )
    )
  )

  (symbol (lib_id "Device:C") (at 99.06 152.4 0) (unit 1)
    (in_bom yes) (on_board yes) (dnp no)
    (uuid 00000000-0000-0000-0000-000060d93fa9)
    (property "Reference" "C22" (at 101.981 151.2316 0)
      (effects (font (size 1.27 1.27)) (justify left))
    )
    (property "Value" "100nF" (at 101.981 153.543 0)
      (effects (font (size 1.27 1.27)) (justify left))
    )
    (property "Footprint" "Capacitor_THT:C_Disc_D5.0mm_W2.5mm_P2.50mm" (at 100.0252 156.21 0)
      (effects (font (size 1.27 1.27)) hide)
    )
    (property "Datasheet" "~" (at 99.06 152.4 0)
      (effects (font (size 1.27 1.27)) hide)
    )
    (pin "1" (uuid e0dc8e01-194a-46c4-98c1-bbf85ada34e8))
    (pin "2" (uuid 03b08320-9f39-4704-b2a5-87eca41b76df))
    (instances
      (project "AudioYM2610"
        (path "/11b3d4e8-2628-4a40-8ff8-a648827b2eb8/00000000-0000-0000-0000-000060d7ccdf"
          (reference "C22") (unit 1)
        )
      )
    )
  )

  (symbol (lib_id "Device:C") (at 85.09 152.4 0) (unit 1)
    (in_bom yes) (on_board yes) (dnp no)
    (uuid 00000000-0000-0000-0000-000060d93faf)
    (property "Reference" "C21" (at 88.011 151.2316 0)
      (effects (font (size 1.27 1.27)) (justify left))
    )
    (property "Value" "100nF" (at 88.011 153.543 0)
      (effects (font (size 1.27 1.27)) (justify left))
    )
    (property "Footprint" "Capacitor_THT:C_Disc_D5.0mm_W2.5mm_P2.50mm" (at 86.0552 156.21 0)
      (effects (font (size 1.27 1.27)) hide)
    )
    (property "Datasheet" "~" (at 85.09 152.4 0)
      (effects (font (size 1.27 1.27)) hide)
    )
    (pin "1" (uuid 791baf94-787a-4355-b6b3-558cd21444d5))
    (pin "2" (uuid da1e25d9-8fda-4812-b2e0-6dd04cb06243))
    (instances
      (project "AudioYM2610"
        (path "/11b3d4e8-2628-4a40-8ff8-a648827b2eb8/00000000-0000-0000-0000-000060d7ccdf"
          (reference "C21") (unit 1)
        )
      )
    )
  )

  (symbol (lib_id "power:+12V") (at 144.78 55.88 0) (unit 1)
    (in_bom yes) (on_board yes) (dnp no)
    (uuid 00000000-0000-0000-0000-000060d93fed)
    (property "Reference" "#PWR057" (at 144.78 59.69 0)
      (effects (font (size 1.27 1.27)) hide)
    )
    (property "Value" "+12V" (at 145.161 51.4858 0)
      (effects (font (size 1.27 1.27)))
    )
    (property "Footprint" "" (at 144.78 55.88 0)
      (effects (font (size 1.27 1.27)) hide)
    )
    (property "Datasheet" "" (at 144.78 55.88 0)
      (effects (font (size 1.27 1.27)) hide)
    )
    (pin "1" (uuid 7e7e9190-d16e-4c85-a6a5-8c38c293f6c4))
    (instances
      (project "AudioYM2610"
        (path "/11b3d4e8-2628-4a40-8ff8-a648827b2eb8/00000000-0000-0000-0000-000060d7ccdf"
          (reference "#PWR057") (unit 1)
        )
      )
    )
  )

  (symbol (lib_id "power:+12V") (at 125.73 55.88 0) (unit 1)
    (in_bom yes) (on_board yes) (dnp no)
    (uuid 00000000-0000-0000-0000-000060d93ff3)
    (property "Reference" "#PWR054" (at 125.73 59.69 0)
      (effects (font (size 1.27 1.27)) hide)
    )
    (property "Value" "+12V" (at 126.111 51.4858 0)
      (effects (font (size 1.27 1.27)))
    )
    (property "Footprint" "" (at 125.73 55.88 0)
      (effects (font (size 1.27 1.27)) hide)
    )
    (property "Datasheet" "" (at 125.73 55.88 0)
      (effects (font (size 1.27 1.27)) hide)
    )
    (pin "1" (uuid 36dfe358-35b6-41a9-94b0-e7f7c19bead6))
    (instances
      (project "AudioYM2610"
        (path "/11b3d4e8-2628-4a40-8ff8-a648827b2eb8/00000000-0000-0000-0000-000060d7ccdf"
          (reference "#PWR054") (unit 1)
        )
      )
    )
  )

  (symbol (lib_id "power:+12V") (at 85.09 144.78 0) (unit 1)
    (in_bom yes) (on_board yes) (dnp no)
    (uuid 00000000-0000-0000-0000-000060e4fdb5)
    (property "Reference" "#PWR049" (at 85.09 148.59 0)
      (effects (font (size 1.27 1.27)) hide)
    )
    (property "Value" "+12V" (at 85.471 140.3858 0)
      (effects (font (size 1.27 1.27)))
    )
    (property "Footprint" "" (at 85.09 144.78 0)
      (effects (font (size 1.27 1.27)) hide)
    )
    (property "Datasheet" "" (at 85.09 144.78 0)
      (effects (font (size 1.27 1.27)) hide)
    )
    (pin "1" (uuid ad328312-6023-4fa5-9c97-3bd8d78f4c54))
    (instances
      (project "AudioYM2610"
        (path "/11b3d4e8-2628-4a40-8ff8-a648827b2eb8/00000000-0000-0000-0000-000060d7ccdf"
          (reference "#PWR049") (unit 1)
        )
      )
    )
  )

  (symbol (lib_id "power:GNDA") (at 119.38 113.03 0) (unit 1)
    (in_bom yes) (on_board yes) (dnp no)
    (uuid 00000000-0000-0000-0000-000060e9a46f)
    (property "Reference" "#PWR0101" (at 119.38 119.38 0)
      (effects (font (size 1.27 1.27)) hide)
    )
    (property "Value" "GNDA" (at 119.507 117.4242 0)
      (effects (font (size 1.27 1.27)))
    )
    (property "Footprint" "" (at 119.38 113.03 0)
      (effects (font (size 1.27 1.27)) hide)
    )
    (property "Datasheet" "" (at 119.38 113.03 0)
      (effects (font (size 1.27 1.27)) hide)
    )
    (pin "1" (uuid 08ed6397-ea8c-46f0-8f37-7336e0893471))
    (instances
      (project "AudioYM2610"
        (path "/11b3d4e8-2628-4a40-8ff8-a648827b2eb8/00000000-0000-0000-0000-000060d7ccdf"
          (reference "#PWR0101") (unit 1)
        )
      )
    )
  )

  (symbol (lib_id "power:GNDA") (at 128.27 99.06 0) (unit 1)
    (in_bom yes) (on_board yes) (dnp no)
    (uuid 00000000-0000-0000-0000-000060ecde2c)
    (property "Reference" "#PWR0102" (at 128.27 105.41 0)
      (effects (font (size 1.27 1.27)) hide)
    )
    (property "Value" "GNDA" (at 128.397 103.4542 0)
      (effects (font (size 1.27 1.27)))
    )
    (property "Footprint" "" (at 128.27 99.06 0)
      (effects (font (size 1.27 1.27)) hide)
    )
    (property "Datasheet" "" (at 128.27 99.06 0)
      (effects (font (size 1.27 1.27)) hide)
    )
    (pin "1" (uuid ef805832-5c62-4651-9745-438b3b426f09))
    (instances
      (project "AudioYM2610"
        (path "/11b3d4e8-2628-4a40-8ff8-a648827b2eb8/00000000-0000-0000-0000-000060d7ccdf"
          (reference "#PWR0102") (unit 1)
        )
      )
    )
  )

  (symbol (lib_id "power:GNDA") (at 139.7 113.03 0) (unit 1)
    (in_bom yes) (on_board yes) (dnp no)
    (uuid 00000000-0000-0000-0000-000060ece19c)
    (property "Reference" "#PWR0110" (at 139.7 119.38 0)
      (effects (font (size 1.27 1.27)) hide)
    )
    (property "Value" "GNDA" (at 139.827 117.4242 0)
      (effects (font (size 1.27 1.27)))
    )
    (property "Footprint" "" (at 139.7 113.03 0)
      (effects (font (size 1.27 1.27)) hide)
    )
    (property "Datasheet" "" (at 139.7 113.03 0)
      (effects (font (size 1.27 1.27)) hide)
    )
    (pin "1" (uuid 48b5c74b-90af-4383-8b7d-45736796b7bc))
    (instances
      (project "AudioYM2610"
        (path "/11b3d4e8-2628-4a40-8ff8-a648827b2eb8/00000000-0000-0000-0000-000060d7ccdf"
          (reference "#PWR0110") (unit 1)
        )
      )
    )
  )

  (symbol (lib_id "power:GNDA") (at 149.86 113.03 0) (unit 1)
    (in_bom yes) (on_board yes) (dnp no)
    (uuid 00000000-0000-0000-0000-000060ece4ab)
    (property "Reference" "#PWR0103" (at 149.86 119.38 0)
      (effects (font (size 1.27 1.27)) hide)
    )
    (property "Value" "GNDA" (at 149.987 117.4242 0)
      (effects (font (size 1.27 1.27)))
    )
    (property "Footprint" "" (at 149.86 113.03 0)
      (effects (font (size 1.27 1.27)) hide)
    )
    (property "Datasheet" "" (at 149.86 113.03 0)
      (effects (font (size 1.27 1.27)) hide)
    )
    (pin "1" (uuid f234e1f9-bf64-4a54-bb16-2bc6a4b9d1d6))
    (instances
      (project "AudioYM2610"
        (path "/11b3d4e8-2628-4a40-8ff8-a648827b2eb8/00000000-0000-0000-0000-000060d7ccdf"
          (reference "#PWR0103") (unit 1)
        )
      )
    )
  )

  (symbol (lib_id "power:GNDA") (at 163.83 113.03 0) (unit 1)
    (in_bom yes) (on_board yes) (dnp no)
    (uuid 00000000-0000-0000-0000-000060ece662)
    (property "Reference" "#PWR0104" (at 163.83 119.38 0)
      (effects (font (size 1.27 1.27)) hide)
    )
    (property "Value" "GNDA" (at 163.957 117.4242 0)
      (effects (font (size 1.27 1.27)))
    )
    (property "Footprint" "" (at 163.83 113.03 0)
      (effects (font (size 1.27 1.27)) hide)
    )
    (property "Datasheet" "" (at 163.83 113.03 0)
      (effects (font (size 1.27 1.27)) hide)
    )
    (pin "1" (uuid fa023089-f65a-4744-b298-0801edf78285))
    (instances
      (project "AudioYM2610"
        (path "/11b3d4e8-2628-4a40-8ff8-a648827b2eb8/00000000-0000-0000-0000-000060d7ccdf"
          (reference "#PWR0104") (unit 1)
        )
      )
    )
  )

  (symbol (lib_id "power:GNDA") (at 201.93 106.68 0) (unit 1)
    (in_bom yes) (on_board yes) (dnp no)
    (uuid 00000000-0000-0000-0000-000060ece8f5)
    (property "Reference" "#PWR0105" (at 201.93 113.03 0)
      (effects (font (size 1.27 1.27)) hide)
    )
    (property "Value" "GNDA" (at 202.057 111.0742 0)
      (effects (font (size 1.27 1.27)))
    )
    (property "Footprint" "" (at 201.93 106.68 0)
      (effects (font (size 1.27 1.27)) hide)
    )
    (property "Datasheet" "" (at 201.93 106.68 0)
      (effects (font (size 1.27 1.27)) hide)
    )
    (pin "1" (uuid df666cee-3fbd-4345-9b78-b3a02ce04f7e))
    (instances
      (project "AudioYM2610"
        (path "/11b3d4e8-2628-4a40-8ff8-a648827b2eb8/00000000-0000-0000-0000-000060d7ccdf"
          (reference "#PWR0105") (unit 1)
        )
      )
    )
  )

  (symbol (lib_id "power:GNDA") (at 201.93 81.28 0) (unit 1)
    (in_bom yes) (on_board yes) (dnp no)
    (uuid 00000000-0000-0000-0000-000060ececeb)
    (property "Reference" "#PWR0106" (at 201.93 87.63 0)
      (effects (font (size 1.27 1.27)) hide)
    )
    (property "Value" "GNDA" (at 202.057 85.6742 0)
      (effects (font (size 1.27 1.27)))
    )
    (property "Footprint" "" (at 201.93 81.28 0)
      (effects (font (size 1.27 1.27)) hide)
    )
    (property "Datasheet" "" (at 201.93 81.28 0)
      (effects (font (size 1.27 1.27)) hide)
    )
    (pin "1" (uuid 8b0a201e-e134-4d87-9bc9-bf7ede354845))
    (instances
      (project "AudioYM2610"
        (path "/11b3d4e8-2628-4a40-8ff8-a648827b2eb8/00000000-0000-0000-0000-000060d7ccdf"
          (reference "#PWR0106") (unit 1)
        )
      )
    )
  )

  (symbol (lib_id "power:GNDA") (at 231.14 83.82 0) (unit 1)
    (in_bom yes) (on_board yes) (dnp no)
    (uuid 00000000-0000-0000-0000-000060ecefc5)
    (property "Reference" "#PWR0107" (at 231.14 90.17 0)
      (effects (font (size 1.27 1.27)) hide)
    )
    (property "Value" "GNDA" (at 231.267 88.2142 0)
      (effects (font (size 1.27 1.27)))
    )
    (property "Footprint" "" (at 231.14 83.82 0)
      (effects (font (size 1.27 1.27)) hide)
    )
    (property "Datasheet" "" (at 231.14 83.82 0)
      (effects (font (size 1.27 1.27)) hide)
    )
    (pin "1" (uuid 25b45554-29e4-45ed-b2b3-0f483e689a77))
    (instances
      (project "AudioYM2610"
        (path "/11b3d4e8-2628-4a40-8ff8-a648827b2eb8/00000000-0000-0000-0000-000060d7ccdf"
          (reference "#PWR0107") (unit 1)
        )
      )
    )
  )

  (symbol (lib_id "power:GNDA") (at 231.14 106.68 0) (unit 1)
    (in_bom yes) (on_board yes) (dnp no)
    (uuid 00000000-0000-0000-0000-000060ecf2ec)
    (property "Reference" "#PWR0108" (at 231.14 113.03 0)
      (effects (font (size 1.27 1.27)) hide)
    )
    (property "Value" "GNDA" (at 231.267 111.0742 0)
      (effects (font (size 1.27 1.27)))
    )
    (property "Footprint" "" (at 231.14 106.68 0)
      (effects (font (size 1.27 1.27)) hide)
    )
    (property "Datasheet" "" (at 231.14 106.68 0)
      (effects (font (size 1.27 1.27)) hide)
    )
    (pin "1" (uuid 7e2aa71d-51b1-4825-a17d-61ed353ee9f8))
    (instances
      (project "AudioYM2610"
        (path "/11b3d4e8-2628-4a40-8ff8-a648827b2eb8/00000000-0000-0000-0000-000060d7ccdf"
          (reference "#PWR0108") (unit 1)
        )
      )
    )
  )

  (symbol (lib_id "power:GNDA") (at 245.11 92.71 0) (unit 1)
    (in_bom yes) (on_board yes) (dnp no)
    (uuid 00000000-0000-0000-0000-000060ecf6f3)
    (property "Reference" "#PWR0109" (at 245.11 99.06 0)
      (effects (font (size 1.27 1.27)) hide)
    )
    (property "Value" "GNDA" (at 245.237 97.1042 0)
      (effects (font (size 1.27 1.27)))
    )
    (property "Footprint" "" (at 245.11 92.71 0)
      (effects (font (size 1.27 1.27)) hide)
    )
    (property "Datasheet" "" (at 245.11 92.71 0)
      (effects (font (size 1.27 1.27)) hide)
    )
    (pin "1" (uuid 27ccf197-520f-40af-8bbf-e520ab1a0ef3))
    (instances
      (project "AudioYM2610"
        (path "/11b3d4e8-2628-4a40-8ff8-a648827b2eb8/00000000-0000-0000-0000-000060d7ccdf"
          (reference "#PWR0109") (unit 1)
        )
      )
    )
  )

  (symbol (lib_id "power:GNDA") (at 105.41 161.29 0) (unit 1)
    (in_bom yes) (on_board yes) (dnp no)
    (uuid 00000000-0000-0000-0000-000060ed55a0)
    (property "Reference" "#PWR0111" (at 105.41 167.64 0)
      (effects (font (size 1.27 1.27)) hide)
    )
    (property "Value" "GNDA" (at 105.537 165.6842 0)
      (effects (font (size 1.27 1.27)))
    )
    (property "Footprint" "" (at 105.41 161.29 0)
      (effects (font (size 1.27 1.27)) hide)
    )
    (property "Datasheet" "" (at 105.41 161.29 0)
      (effects (font (size 1.27 1.27)) hide)
    )
    (pin "1" (uuid 2f28f4b3-8b72-4d3a-83fc-4268f4d7db54))
    (instances
      (project "AudioYM2610"
        (path "/11b3d4e8-2628-4a40-8ff8-a648827b2eb8/00000000-0000-0000-0000-000060d7ccdf"
          (reference "#PWR0111") (unit 1)
        )
      )
    )
  )

  (symbol (lib_id "power:GNDA") (at 85.09 161.29 0) (unit 1)
    (in_bom yes) (on_board yes) (dnp no)
    (uuid 00000000-0000-0000-0000-000060ed5950)
    (property "Reference" "#PWR0112" (at 85.09 167.64 0)
      (effects (font (size 1.27 1.27)) hide)
    )
    (property "Value" "GNDA" (at 85.217 165.6842 0)
      (effects (font (size 1.27 1.27)))
    )
    (property "Footprint" "" (at 85.09 161.29 0)
      (effects (font (size 1.27 1.27)) hide)
    )
    (property "Datasheet" "" (at 85.09 161.29 0)
      (effects (font (size 1.27 1.27)) hide)
    )
    (pin "1" (uuid 3e115179-60ae-445b-9146-0985ba3797be))
    (instances
      (project "AudioYM2610"
        (path "/11b3d4e8-2628-4a40-8ff8-a648827b2eb8/00000000-0000-0000-0000-000060d7ccdf"
          (reference "#PWR0112") (unit 1)
        )
      )
    )
  )

  (symbol (lib_id "power:+5VA") (at 105.41 143.51 0) (unit 1)
    (in_bom yes) (on_board yes) (dnp no)
    (uuid 00000000-0000-0000-0000-000060ee91fb)
    (property "Reference" "#PWR0113" (at 105.41 147.32 0)
      (effects (font (size 1.27 1.27)) hide)
    )
    (property "Value" "+5VA" (at 105.791 139.1158 0)
      (effects (font (size 1.27 1.27)))
    )
    (property "Footprint" "" (at 105.41 143.51 0)
      (effects (font (size 1.27 1.27)) hide)
    )
    (property "Datasheet" "" (at 105.41 143.51 0)
      (effects (font (size 1.27 1.27)) hide)
    )
    (pin "1" (uuid bdfca827-e9f3-4e1e-ba2f-3dd35d104bdb))
    (instances
      (project "AudioYM2610"
        (path "/11b3d4e8-2628-4a40-8ff8-a648827b2eb8/00000000-0000-0000-0000-000060d7ccdf"
          (reference "#PWR0113") (unit 1)
        )
      )
    )
  )

  (symbol (lib_id "power:+5V") (at 44.45 35.56 0) (unit 1)
    (in_bom yes) (on_board yes) (dnp no)
    (uuid 00000000-0000-0000-0000-00006131ab94)
    (property "Reference" "#PWR046" (at 44.45 39.37 0)
      (effects (font (size 1.27 1.27)) hide)
    )
    (property "Value" "+5V" (at 44.831 31.1658 0)
      (effects (font (size 1.27 1.27)))
    )
    (property "Footprint" "" (at 44.45 35.56 0)
      (effects (font (size 1.27 1.27)) hide)
    )
    (property "Datasheet" "" (at 44.45 35.56 0)
      (effects (font (size 1.27 1.27)) hide)
    )
    (pin "1" (uuid aaa04fce-1ebe-4c32-93c8-811ca676114d))
    (instances
      (project "AudioYM2610"
        (path "/11b3d4e8-2628-4a40-8ff8-a648827b2eb8/00000000-0000-0000-0000-000060d7ccdf"
          (reference "#PWR046") (unit 1)
        )
      )
    )
  )

  (symbol (lib_id "power:+3V3") (at 54.61 35.56 0) (unit 1)
    (in_bom yes) (on_board yes) (dnp no)
    (uuid 00000000-0000-0000-0000-00006131ab9a)
    (property "Reference" "#PWR047" (at 54.61 39.37 0)
      (effects (font (size 1.27 1.27)) hide)
    )
    (property "Value" "+3V3" (at 54.991 31.1658 0)
      (effects (font (size 1.27 1.27)))
    )
    (property "Footprint" "" (at 54.61 35.56 0)
      (effects (font (size 1.27 1.27)) hide)
    )
    (property "Datasheet" "" (at 54.61 35.56 0)
      (effects (font (size 1.27 1.27)) hide)
    )
    (pin "1" (uuid 4c6ec8df-732b-4d54-888f-f0fe51ec4bba))
    (instances
      (project "AudioYM2610"
        (path "/11b3d4e8-2628-4a40-8ff8-a648827b2eb8/00000000-0000-0000-0000-000060d7ccdf"
          (reference "#PWR047") (unit 1)
        )
      )
    )
  )

  (symbol (lib_id "power:GND") (at 64.77 41.91 0) (unit 1)
    (in_bom yes) (on_board yes) (dnp no)
    (uuid 00000000-0000-0000-0000-00006131aba0)
    (property "Reference" "#PWR048" (at 64.77 48.26 0)
      (effects (font (size 1.27 1.27)) hide)
    )
    (property "Value" "GND" (at 64.897 46.3042 0)
      (effects (font (size 1.27 1.27)))
    )
    (property "Footprint" "" (at 64.77 41.91 0)
      (effects (font (size 1.27 1.27)) hide)
    )
    (property "Datasheet" "" (at 64.77 41.91 0)
      (effects (font (size 1.27 1.27)) hide)
    )
    (pin "1" (uuid 80942369-70d7-4066-8864-7ae9bd02bf84))
    (instances
      (project "AudioYM2610"
        (path "/11b3d4e8-2628-4a40-8ff8-a648827b2eb8/00000000-0000-0000-0000-000060d7ccdf"
          (reference "#PWR048") (unit 1)
        )
      )
    )
  )

  (symbol (lib_id "power:PWR_FLAG") (at 64.77 35.56 0) (unit 1)
    (in_bom yes) (on_board yes) (dnp no)
    (uuid 00000000-0000-0000-0000-00006131aba6)
    (property "Reference" "#FLG06" (at 64.77 33.655 0)
      (effects (font (size 1.27 1.27)) hide)
    )
    (property "Value" "PWR_FLAG" (at 64.77 31.1658 0)
      (effects (font (size 1.27 1.27)))
    )
    (property "Footprint" "" (at 64.77 35.56 0)
      (effects (font (size 1.27 1.27)) hide)
    )
    (property "Datasheet" "~" (at 64.77 35.56 0)
      (effects (font (size 1.27 1.27)) hide)
    )
    (pin "1" (uuid 5913e224-e10d-40a7-8eea-ba1bd11d292c))
    (instances
      (project "AudioYM2610"
        (path "/11b3d4e8-2628-4a40-8ff8-a648827b2eb8/00000000-0000-0000-0000-000060d7ccdf"
          (reference "#FLG06") (unit 1)
        )
      )
    )
  )

  (symbol (lib_id "power:PWR_FLAG") (at 44.45 41.91 180) (unit 1)
    (in_bom yes) (on_board yes) (dnp no)
    (uuid 00000000-0000-0000-0000-00006131abac)
    (property "Reference" "#FLG04" (at 44.45 43.815 0)
      (effects (font (size 1.27 1.27)) hide)
    )
    (property "Value" "PWR_FLAG" (at 44.45 46.3042 0)
      (effects (font (size 1.27 1.27)))
    )
    (property "Footprint" "" (at 44.45 41.91 0)
      (effects (font (size 1.27 1.27)) hide)
    )
    (property "Datasheet" "~" (at 44.45 41.91 0)
      (effects (font (size 1.27 1.27)) hide)
    )
    (pin "1" (uuid 332d6404-83be-4298-9518-7c8ae2864d4e))
    (instances
      (project "AudioYM2610"
        (path "/11b3d4e8-2628-4a40-8ff8-a648827b2eb8/00000000-0000-0000-0000-000060d7ccdf"
          (reference "#FLG04") (unit 1)
        )
      )
    )
  )

  (symbol (lib_id "power:PWR_FLAG") (at 54.61 41.91 180) (unit 1)
    (in_bom yes) (on_board yes) (dnp no)
    (uuid 00000000-0000-0000-0000-00006131abb2)
    (property "Reference" "#FLG05" (at 54.61 43.815 0)
      (effects (font (size 1.27 1.27)) hide)
    )
    (property "Value" "PWR_FLAG" (at 54.61 46.3042 0)
      (effects (font (size 1.27 1.27)))
    )
    (property "Footprint" "" (at 54.61 41.91 0)
      (effects (font (size 1.27 1.27)) hide)
    )
    (property "Datasheet" "~" (at 54.61 41.91 0)
      (effects (font (size 1.27 1.27)) hide)
    )
    (pin "1" (uuid 0218f16e-52a3-43b4-8948-e2427477c126))
    (instances
      (project "AudioYM2610"
        (path "/11b3d4e8-2628-4a40-8ff8-a648827b2eb8/00000000-0000-0000-0000-000060d7ccdf"
          (reference "#FLG05") (unit 1)
        )
      )
    )
  )

  (symbol (lib_id "power:PWR_FLAG") (at 34.29 41.91 180) (unit 1)
    (in_bom yes) (on_board yes) (dnp no)
    (uuid 00000000-0000-0000-0000-00006131def0)
    (property "Reference" "#FLG03" (at 34.29 43.815 0)
      (effects (font (size 1.27 1.27)) hide)
    )
    (property "Value" "PWR_FLAG" (at 34.29 46.3042 0)
      (effects (font (size 1.27 1.27)))
    )
    (property "Footprint" "" (at 34.29 41.91 0)
      (effects (font (size 1.27 1.27)) hide)
    )
    (property "Datasheet" "~" (at 34.29 41.91 0)
      (effects (font (size 1.27 1.27)) hide)
    )
    (pin "1" (uuid d85e0122-be2f-494d-90d5-a6a62df60472))
    (instances
      (project "AudioYM2610"
        (path "/11b3d4e8-2628-4a40-8ff8-a648827b2eb8/00000000-0000-0000-0000-000060d7ccdf"
          (reference "#FLG03") (unit 1)
        )
      )
    )
  )

  (symbol (lib_id "power:+12V") (at 34.29 35.56 0) (unit 1)
    (in_bom yes) (on_board yes) (dnp no)
    (uuid 00000000-0000-0000-0000-0000613211e7)
    (property "Reference" "#PWR045" (at 34.29 39.37 0)
      (effects (font (size 1.27 1.27)) hide)
    )
    (property "Value" "+12V" (at 34.671 31.1658 0)
      (effects (font (size 1.27 1.27)))
    )
    (property "Footprint" "" (at 34.29 35.56 0)
      (effects (font (size 1.27 1.27)) hide)
    )
    (property "Datasheet" "" (at 34.29 35.56 0)
      (effects (font (size 1.27 1.27)) hide)
    )
    (pin "1" (uuid 341135fc-68f8-48c0-a424-98d76909a278))
    (instances
      (project "AudioYM2610"
        (path "/11b3d4e8-2628-4a40-8ff8-a648827b2eb8/00000000-0000-0000-0000-000060d7ccdf"
          (reference "#PWR045") (unit 1)
        )
      )
    )
  )
)
