(kicad_sch (version 20230121) (generator eeschema)

  (uuid a5d54026-40bd-45ab-a4c9-312f3def8456)

  (paper "A4")

  (title_block
    (title "PicoPOST Remote")
    (date "2024-01-15")
    (rev "1.1")
    (company "The Retro Web")
    (comment 1 "by Matthew Petry (fireTwoOneNine) and contributors")
  )

  (lib_symbols
    (symbol "Connector:Conn_01x04_Male" (pin_names (offset 1.016) hide) (in_bom yes) (on_board yes)
      (property "Reference" "J" (at 0 5.08 0)
        (effects (font (size 1.27 1.27)))
      )
      (property "Value" "Conn_01x04_Male" (at 0 -7.62 0)
        (effects (font (size 1.27 1.27)))
      )
      (property "Footprint" "" (at 0 0 0)
        (effects (font (size 1.27 1.27)) hide)
      )
      (property "Datasheet" "~" (at 0 0 0)
        (effects (font (size 1.27 1.27)) hide)
      )
      (property "ki_keywords" "connector" (at 0 0 0)
        (effects (font (size 1.27 1.27)) hide)
      )
      (property "ki_description" "Generic connector, single row, 01x04, script generated (kicad-library-utils/schlib/autogen/connector/)" (at 0 0 0)
        (effects (font (size 1.27 1.27)) hide)
      )
      (property "ki_fp_filters" "Connector*:*_1x??_*" (at 0 0 0)
        (effects (font (size 1.27 1.27)) hide)
      )
      (symbol "Conn_01x04_Male_1_1"
        (polyline
          (pts
            (xy 1.27 -5.08)
            (xy 0.8636 -5.08)
          )
          (stroke (width 0.1524) (type default))
          (fill (type none))
        )
        (polyline
          (pts
            (xy 1.27 -2.54)
            (xy 0.8636 -2.54)
          )
          (stroke (width 0.1524) (type default))
          (fill (type none))
        )
        (polyline
          (pts
            (xy 1.27 0)
            (xy 0.8636 0)
          )
          (stroke (width 0.1524) (type default))
          (fill (type none))
        )
        (polyline
          (pts
            (xy 1.27 2.54)
            (xy 0.8636 2.54)
          )
          (stroke (width 0.1524) (type default))
          (fill (type none))
        )
        (rectangle (start 0.8636 -4.953) (end 0 -5.207)
          (stroke (width 0.1524) (type default))
          (fill (type outline))
        )
        (rectangle (start 0.8636 -2.413) (end 0 -2.667)
          (stroke (width 0.1524) (type default))
          (fill (type outline))
        )
        (rectangle (start 0.8636 0.127) (end 0 -0.127)
          (stroke (width 0.1524) (type default))
          (fill (type outline))
        )
        (rectangle (start 0.8636 2.667) (end 0 2.413)
          (stroke (width 0.1524) (type default))
          (fill (type outline))
        )
        (pin passive line (at 5.08 2.54 180) (length 3.81)
          (name "Pin_1" (effects (font (size 1.27 1.27))))
          (number "1" (effects (font (size 1.27 1.27))))
        )
        (pin passive line (at 5.08 0 180) (length 3.81)
          (name "Pin_2" (effects (font (size 1.27 1.27))))
          (number "2" (effects (font (size 1.27 1.27))))
        )
        (pin passive line (at 5.08 -2.54 180) (length 3.81)
          (name "Pin_3" (effects (font (size 1.27 1.27))))
          (number "3" (effects (font (size 1.27 1.27))))
        )
        (pin passive line (at 5.08 -5.08 180) (length 3.81)
          (name "Pin_4" (effects (font (size 1.27 1.27))))
          (number "4" (effects (font (size 1.27 1.27))))
        )
      )
    )
    (symbol "Connector:Conn_01x05_Pin" (pin_names (offset 1.016) hide) (in_bom yes) (on_board yes)
      (property "Reference" "J" (at 0 7.62 0)
        (effects (font (size 1.27 1.27)))
      )
      (property "Value" "Conn_01x05_Pin" (at 0 -7.62 0)
        (effects (font (size 1.27 1.27)))
      )
      (property "Footprint" "" (at 0 0 0)
        (effects (font (size 1.27 1.27)) hide)
      )
      (property "Datasheet" "~" (at 0 0 0)
        (effects (font (size 1.27 1.27)) hide)
      )
      (property "ki_locked" "" (at 0 0 0)
        (effects (font (size 1.27 1.27)))
      )
      (property "ki_keywords" "connector" (at 0 0 0)
        (effects (font (size 1.27 1.27)) hide)
      )
      (property "ki_description" "Generic connector, single row, 01x05, script generated" (at 0 0 0)
        (effects (font (size 1.27 1.27)) hide)
      )
      (property "ki_fp_filters" "Connector*:*_1x??_*" (at 0 0 0)
        (effects (font (size 1.27 1.27)) hide)
      )
      (symbol "Conn_01x05_Pin_1_1"
        (polyline
          (pts
            (xy 1.27 -5.08)
            (xy 0.8636 -5.08)
          )
          (stroke (width 0.1524) (type default))
          (fill (type none))
        )
        (polyline
          (pts
            (xy 1.27 -2.54)
            (xy 0.8636 -2.54)
          )
          (stroke (width 0.1524) (type default))
          (fill (type none))
        )
        (polyline
          (pts
            (xy 1.27 0)
            (xy 0.8636 0)
          )
          (stroke (width 0.1524) (type default))
          (fill (type none))
        )
        (polyline
          (pts
            (xy 1.27 2.54)
            (xy 0.8636 2.54)
          )
          (stroke (width 0.1524) (type default))
          (fill (type none))
        )
        (polyline
          (pts
            (xy 1.27 5.08)
            (xy 0.8636 5.08)
          )
          (stroke (width 0.1524) (type default))
          (fill (type none))
        )
        (rectangle (start 0.8636 -4.953) (end 0 -5.207)
          (stroke (width 0.1524) (type default))
          (fill (type outline))
        )
        (rectangle (start 0.8636 -2.413) (end 0 -2.667)
          (stroke (width 0.1524) (type default))
          (fill (type outline))
        )
        (rectangle (start 0.8636 0.127) (end 0 -0.127)
          (stroke (width 0.1524) (type default))
          (fill (type outline))
        )
        (rectangle (start 0.8636 2.667) (end 0 2.413)
          (stroke (width 0.1524) (type default))
          (fill (type outline))
        )
        (rectangle (start 0.8636 5.207) (end 0 4.953)
          (stroke (width 0.1524) (type default))
          (fill (type outline))
        )
        (pin passive line (at 5.08 5.08 180) (length 3.81)
          (name "Pin_1" (effects (font (size 1.27 1.27))))
          (number "1" (effects (font (size 1.27 1.27))))
        )
        (pin passive line (at 5.08 2.54 180) (length 3.81)
          (name "Pin_2" (effects (font (size 1.27 1.27))))
          (number "2" (effects (font (size 1.27 1.27))))
        )
        (pin passive line (at 5.08 0 180) (length 3.81)
          (name "Pin_3" (effects (font (size 1.27 1.27))))
          (number "3" (effects (font (size 1.27 1.27))))
        )
        (pin passive line (at 5.08 -2.54 180) (length 3.81)
          (name "Pin_4" (effects (font (size 1.27 1.27))))
          (number "4" (effects (font (size 1.27 1.27))))
        )
        (pin passive line (at 5.08 -5.08 180) (length 3.81)
          (name "Pin_5" (effects (font (size 1.27 1.27))))
          (number "5" (effects (font (size 1.27 1.27))))
        )
      )
    )
    (symbol "Connector:Conn_01x07_Male" (pin_names (offset 1.016) hide) (in_bom yes) (on_board yes)
      (property "Reference" "J" (at 0 10.16 0)
        (effects (font (size 1.27 1.27)))
      )
      (property "Value" "Conn_01x07_Male" (at 0 -10.16 0)
        (effects (font (size 1.27 1.27)))
      )
      (property "Footprint" "" (at 0 0 0)
        (effects (font (size 1.27 1.27)) hide)
      )
      (property "Datasheet" "~" (at 0 0 0)
        (effects (font (size 1.27 1.27)) hide)
      )
      (property "ki_keywords" "connector" (at 0 0 0)
        (effects (font (size 1.27 1.27)) hide)
      )
      (property "ki_description" "Generic connector, single row, 01x07, script generated (kicad-library-utils/schlib/autogen/connector/)" (at 0 0 0)
        (effects (font (size 1.27 1.27)) hide)
      )
      (property "ki_fp_filters" "Connector*:*_1x??_*" (at 0 0 0)
        (effects (font (size 1.27 1.27)) hide)
      )
      (symbol "Conn_01x07_Male_1_1"
        (polyline
          (pts
            (xy 1.27 -7.62)
            (xy 0.8636 -7.62)
          )
          (stroke (width 0.1524) (type default))
          (fill (type none))
        )
        (polyline
          (pts
            (xy 1.27 -5.08)
            (xy 0.8636 -5.08)
          )
          (stroke (width 0.1524) (type default))
          (fill (type none))
        )
        (polyline
          (pts
            (xy 1.27 -2.54)
            (xy 0.8636 -2.54)
          )
          (stroke (width 0.1524) (type default))
          (fill (type none))
        )
        (polyline
          (pts
            (xy 1.27 0)
            (xy 0.8636 0)
          )
          (stroke (width 0.1524) (type default))
          (fill (type none))
        )
        (polyline
          (pts
            (xy 1.27 2.54)
            (xy 0.8636 2.54)
          )
          (stroke (width 0.1524) (type default))
          (fill (type none))
        )
        (polyline
          (pts
            (xy 1.27 5.08)
            (xy 0.8636 5.08)
          )
          (stroke (width 0.1524) (type default))
          (fill (type none))
        )
        (polyline
          (pts
            (xy 1.27 7.62)
            (xy 0.8636 7.62)
          )
          (stroke (width 0.1524) (type default))
          (fill (type none))
        )
        (rectangle (start 0.8636 -7.493) (end 0 -7.747)
          (stroke (width 0.1524) (type default))
          (fill (type outline))
        )
        (rectangle (start 0.8636 -4.953) (end 0 -5.207)
          (stroke (width 0.1524) (type default))
          (fill (type outline))
        )
        (rectangle (start 0.8636 -2.413) (end 0 -2.667)
          (stroke (width 0.1524) (type default))
          (fill (type outline))
        )
        (rectangle (start 0.8636 0.127) (end 0 -0.127)
          (stroke (width 0.1524) (type default))
          (fill (type outline))
        )
        (rectangle (start 0.8636 2.667) (end 0 2.413)
          (stroke (width 0.1524) (type default))
          (fill (type outline))
        )
        (rectangle (start 0.8636 5.207) (end 0 4.953)
          (stroke (width 0.1524) (type default))
          (fill (type outline))
        )
        (rectangle (start 0.8636 7.747) (end 0 7.493)
          (stroke (width 0.1524) (type default))
          (fill (type outline))
        )
        (pin passive line (at 5.08 7.62 180) (length 3.81)
          (name "Pin_1" (effects (font (size 1.27 1.27))))
          (number "1" (effects (font (size 1.27 1.27))))
        )
        (pin passive line (at 5.08 5.08 180) (length 3.81)
          (name "Pin_2" (effects (font (size 1.27 1.27))))
          (number "2" (effects (font (size 1.27 1.27))))
        )
        (pin passive line (at 5.08 2.54 180) (length 3.81)
          (name "Pin_3" (effects (font (size 1.27 1.27))))
          (number "3" (effects (font (size 1.27 1.27))))
        )
        (pin passive line (at 5.08 0 180) (length 3.81)
          (name "Pin_4" (effects (font (size 1.27 1.27))))
          (number "4" (effects (font (size 1.27 1.27))))
        )
        (pin passive line (at 5.08 -2.54 180) (length 3.81)
          (name "Pin_5" (effects (font (size 1.27 1.27))))
          (number "5" (effects (font (size 1.27 1.27))))
        )
        (pin passive line (at 5.08 -5.08 180) (length 3.81)
          (name "Pin_6" (effects (font (size 1.27 1.27))))
          (number "6" (effects (font (size 1.27 1.27))))
        )
        (pin passive line (at 5.08 -7.62 180) (length 3.81)
          (name "Pin_7" (effects (font (size 1.27 1.27))))
          (number "7" (effects (font (size 1.27 1.27))))
        )
      )
    )
    (symbol "Connector_Generic:Conn_02x03_Odd_Even" (pin_names (offset 1.016) hide) (in_bom yes) (on_board yes)
      (property "Reference" "J" (at 1.27 5.08 0)
        (effects (font (size 1.27 1.27)))
      )
      (property "Value" "Conn_02x03_Odd_Even" (at 1.27 -5.08 0)
        (effects (font (size 1.27 1.27)))
      )
      (property "Footprint" "" (at 0 0 0)
        (effects (font (size 1.27 1.27)) hide)
      )
      (property "Datasheet" "~" (at 0 0 0)
        (effects (font (size 1.27 1.27)) hide)
      )
      (property "ki_keywords" "connector" (at 0 0 0)
        (effects (font (size 1.27 1.27)) hide)
      )
      (property "ki_description" "Generic connector, double row, 02x03, odd/even pin numbering scheme (row 1 odd numbers, row 2 even numbers), script generated (kicad-library-utils/schlib/autogen/connector/)" (at 0 0 0)
        (effects (font (size 1.27 1.27)) hide)
      )
      (property "ki_fp_filters" "Connector*:*_2x??_*" (at 0 0 0)
        (effects (font (size 1.27 1.27)) hide)
      )
      (symbol "Conn_02x03_Odd_Even_1_1"
        (rectangle (start -1.27 -2.413) (end 0 -2.667)
          (stroke (width 0.1524) (type default))
          (fill (type none))
        )
        (rectangle (start -1.27 0.127) (end 0 -0.127)
          (stroke (width 0.1524) (type default))
          (fill (type none))
        )
        (rectangle (start -1.27 2.667) (end 0 2.413)
          (stroke (width 0.1524) (type default))
          (fill (type none))
        )
        (rectangle (start -1.27 3.81) (end 3.81 -3.81)
          (stroke (width 0.254) (type default))
          (fill (type background))
        )
        (rectangle (start 3.81 -2.413) (end 2.54 -2.667)
          (stroke (width 0.1524) (type default))
          (fill (type none))
        )
        (rectangle (start 3.81 0.127) (end 2.54 -0.127)
          (stroke (width 0.1524) (type default))
          (fill (type none))
        )
        (rectangle (start 3.81 2.667) (end 2.54 2.413)
          (stroke (width 0.1524) (type default))
          (fill (type none))
        )
        (pin passive line (at -5.08 2.54 0) (length 3.81)
          (name "Pin_1" (effects (font (size 1.27 1.27))))
          (number "1" (effects (font (size 1.27 1.27))))
        )
        (pin passive line (at 7.62 2.54 180) (length 3.81)
          (name "Pin_2" (effects (font (size 1.27 1.27))))
          (number "2" (effects (font (size 1.27 1.27))))
        )
        (pin passive line (at -5.08 0 0) (length 3.81)
          (name "Pin_3" (effects (font (size 1.27 1.27))))
          (number "3" (effects (font (size 1.27 1.27))))
        )
        (pin passive line (at 7.62 0 180) (length 3.81)
          (name "Pin_4" (effects (font (size 1.27 1.27))))
          (number "4" (effects (font (size 1.27 1.27))))
        )
        (pin passive line (at -5.08 -2.54 0) (length 3.81)
          (name "Pin_5" (effects (font (size 1.27 1.27))))
          (number "5" (effects (font (size 1.27 1.27))))
        )
        (pin passive line (at 7.62 -2.54 180) (length 3.81)
          (name "Pin_6" (effects (font (size 1.27 1.27))))
          (number "6" (effects (font (size 1.27 1.27))))
        )
      )
    )
    (symbol "Device:Buzzer" (pin_names (offset 0.0254) hide) (in_bom yes) (on_board yes)
      (property "Reference" "BZ" (at 3.81 1.27 0)
        (effects (font (size 1.27 1.27)) (justify left))
      )
      (property "Value" "Buzzer" (at 3.81 -1.27 0)
        (effects (font (size 1.27 1.27)) (justify left))
      )
      (property "Footprint" "" (at -0.635 2.54 90)
        (effects (font (size 1.27 1.27)) hide)
      )
      (property "Datasheet" "~" (at -0.635 2.54 90)
        (effects (font (size 1.27 1.27)) hide)
      )
      (property "ki_keywords" "quartz resonator ceramic" (at 0 0 0)
        (effects (font (size 1.27 1.27)) hide)
      )
      (property "ki_description" "Buzzer, polarized" (at 0 0 0)
        (effects (font (size 1.27 1.27)) hide)
      )
      (property "ki_fp_filters" "*Buzzer*" (at 0 0 0)
        (effects (font (size 1.27 1.27)) hide)
      )
      (symbol "Buzzer_0_1"
        (arc (start 0 -3.175) (mid 3.1612 0) (end 0 3.175)
          (stroke (width 0) (type default))
          (fill (type none))
        )
        (polyline
          (pts
            (xy -1.651 1.905)
            (xy -1.143 1.905)
          )
          (stroke (width 0) (type default))
          (fill (type none))
        )
        (polyline
          (pts
            (xy -1.397 2.159)
            (xy -1.397 1.651)
          )
          (stroke (width 0) (type default))
          (fill (type none))
        )
        (polyline
          (pts
            (xy 0 3.175)
            (xy 0 -3.175)
          )
          (stroke (width 0) (type default))
          (fill (type none))
        )
      )
      (symbol "Buzzer_1_1"
        (pin passive line (at -2.54 2.54 0) (length 2.54)
          (name "-" (effects (font (size 1.27 1.27))))
          (number "1" (effects (font (size 1.27 1.27))))
        )
        (pin passive line (at -2.54 -2.54 0) (length 2.54)
          (name "+" (effects (font (size 1.27 1.27))))
          (number "2" (effects (font (size 1.27 1.27))))
        )
      )
    )
    (symbol "Device:C" (pin_numbers hide) (pin_names (offset 0.254)) (in_bom yes) (on_board yes)
      (property "Reference" "C" (at 0.635 2.54 0)
        (effects (font (size 1.27 1.27)) (justify left))
      )
      (property "Value" "C" (at 0.635 -2.54 0)
        (effects (font (size 1.27 1.27)) (justify left))
      )
      (property "Footprint" "" (at 0.9652 -3.81 0)
        (effects (font (size 1.27 1.27)) hide)
      )
      (property "Datasheet" "~" (at 0 0 0)
        (effects (font (size 1.27 1.27)) hide)
      )
      (property "ki_keywords" "cap capacitor" (at 0 0 0)
        (effects (font (size 1.27 1.27)) hide)
      )
      (property "ki_description" "Unpolarized capacitor" (at 0 0 0)
        (effects (font (size 1.27 1.27)) hide)
      )
      (property "ki_fp_filters" "C_*" (at 0 0 0)
        (effects (font (size 1.27 1.27)) hide)
      )
      (symbol "C_0_1"
        (polyline
          (pts
            (xy -2.032 -0.762)
            (xy 2.032 -0.762)
          )
          (stroke (width 0.508) (type default))
          (fill (type none))
        )
        (polyline
          (pts
            (xy -2.032 0.762)
            (xy 2.032 0.762)
          )
          (stroke (width 0.508) (type default))
          (fill (type none))
        )
      )
      (symbol "C_1_1"
        (pin passive line (at 0 3.81 270) (length 2.794)
          (name "~" (effects (font (size 1.27 1.27))))
          (number "1" (effects (font (size 1.27 1.27))))
        )
        (pin passive line (at 0 -3.81 90) (length 2.794)
          (name "~" (effects (font (size 1.27 1.27))))
          (number "2" (effects (font (size 1.27 1.27))))
        )
      )
    )
    (symbol "Device:R" (pin_numbers hide) (pin_names (offset 0)) (in_bom yes) (on_board yes)
      (property "Reference" "R" (at 2.032 0 90)
        (effects (font (size 1.27 1.27)))
      )
      (property "Value" "R" (at 0 0 90)
        (effects (font (size 1.27 1.27)))
      )
      (property "Footprint" "" (at -1.778 0 90)
        (effects (font (size 1.27 1.27)) hide)
      )
      (property "Datasheet" "~" (at 0 0 0)
        (effects (font (size 1.27 1.27)) hide)
      )
      (property "ki_keywords" "R res resistor" (at 0 0 0)
        (effects (font (size 1.27 1.27)) hide)
      )
      (property "ki_description" "Resistor" (at 0 0 0)
        (effects (font (size 1.27 1.27)) hide)
      )
      (property "ki_fp_filters" "R_*" (at 0 0 0)
        (effects (font (size 1.27 1.27)) hide)
      )
      (symbol "R_0_1"
        (rectangle (start -1.016 -2.54) (end 1.016 2.54)
          (stroke (width 0.254) (type default))
          (fill (type none))
        )
      )
      (symbol "R_1_1"
        (pin passive line (at 0 3.81 270) (length 1.27)
          (name "~" (effects (font (size 1.27 1.27))))
          (number "1" (effects (font (size 1.27 1.27))))
        )
        (pin passive line (at 0 -3.81 90) (length 1.27)
          (name "~" (effects (font (size 1.27 1.27))))
          (number "2" (effects (font (size 1.27 1.27))))
        )
      )
    )
    (symbol "Jumper:SolderJumper_2_Open" (pin_names (offset 0) hide) (in_bom yes) (on_board yes)
      (property "Reference" "JP" (at 0 2.032 0)
        (effects (font (size 1.27 1.27)))
      )
      (property "Value" "SolderJumper_2_Open" (at 0 -2.54 0)
        (effects (font (size 1.27 1.27)))
      )
      (property "Footprint" "" (at 0 0 0)
        (effects (font (size 1.27 1.27)) hide)
      )
      (property "Datasheet" "~" (at 0 0 0)
        (effects (font (size 1.27 1.27)) hide)
      )
      (property "ki_keywords" "solder jumper SPST" (at 0 0 0)
        (effects (font (size 1.27 1.27)) hide)
      )
      (property "ki_description" "Solder Jumper, 2-pole, open" (at 0 0 0)
        (effects (font (size 1.27 1.27)) hide)
      )
      (property "ki_fp_filters" "SolderJumper*Open*" (at 0 0 0)
        (effects (font (size 1.27 1.27)) hide)
      )
      (symbol "SolderJumper_2_Open_0_1"
        (arc (start -0.254 1.016) (mid -1.2656 0) (end -0.254 -1.016)
          (stroke (width 0) (type default))
          (fill (type none))
        )
        (arc (start -0.254 1.016) (mid -1.2656 0) (end -0.254 -1.016)
          (stroke (width 0) (type default))
          (fill (type outline))
        )
        (polyline
          (pts
            (xy -0.254 1.016)
            (xy -0.254 -1.016)
          )
          (stroke (width 0) (type default))
          (fill (type none))
        )
        (polyline
          (pts
            (xy 0.254 1.016)
            (xy 0.254 -1.016)
          )
          (stroke (width 0) (type default))
          (fill (type none))
        )
        (arc (start 0.254 -1.016) (mid 1.2656 0) (end 0.254 1.016)
          (stroke (width 0) (type default))
          (fill (type none))
        )
        (arc (start 0.254 -1.016) (mid 1.2656 0) (end 0.254 1.016)
          (stroke (width 0) (type default))
          (fill (type outline))
        )
      )
      (symbol "SolderJumper_2_Open_1_1"
        (pin passive line (at -3.81 0 0) (length 2.54)
          (name "A" (effects (font (size 1.27 1.27))))
          (number "1" (effects (font (size 1.27 1.27))))
        )
        (pin passive line (at 3.81 0 180) (length 2.54)
          (name "B" (effects (font (size 1.27 1.27))))
          (number "2" (effects (font (size 1.27 1.27))))
        )
      )
    )
    (symbol "MCP23009-E_SO:MCP23009-SO" (in_bom yes) (on_board yes)
      (property "Reference" "U" (at -8.89 13.97 0)
        (effects (font (size 1.27 1.27)))
      )
      (property "Value" "MCP23009-SO" (at 8.89 13.97 0)
        (effects (font (size 1.27 1.27)))
      )
      (property "Footprint" "Package_SO:SOIC-18W_7.5x11.6mm_P1.27mm" (at 0 -26.67 0)
        (effects (font (size 1.27 1.27)) hide)
      )
      (property "Datasheet" "http://ww1.microchip.com/downloads/en/DeviceDoc/MCP23008-MCP23S08-Data-Sheet-20001919F.pdf" (at 33.02 -30.48 0)
        (effects (font (size 1.27 1.27)) hide)
      )
      (property "ki_keywords" "I2C parallel port expander" (at 0 0 0)
        (effects (font (size 1.27 1.27)) hide)
      )
      (property "ki_description" "8-bit I/O expander, I2C, interrupts, SOIC-18" (at 0 0 0)
        (effects (font (size 1.27 1.27)) hide)
      )
      (property "ki_fp_filters" "SOIC*7.5x11.6mm*P1.27mm*" (at 0 0 0)
        (effects (font (size 1.27 1.27)) hide)
      )
      (symbol "MCP23009-SO_0_1"
        (rectangle (start -10.16 12.7) (end 10.16 -12.7)
          (stroke (width 0.254) (type default))
          (fill (type background))
        )
      )
      (symbol "MCP23009-SO_1_1"
        (pin power_in line (at 0 15.24 270) (length 2.54)
          (name "VDD" (effects (font (size 1.27 1.27))))
          (number "1" (effects (font (size 1.27 1.27))))
        )
        (pin bidirectional line (at 12.7 5.08 180) (length 2.54)
          (name "GP2" (effects (font (size 1.27 1.27))))
          (number "10" (effects (font (size 1.27 1.27))))
        )
        (pin bidirectional line (at 12.7 2.54 180) (length 2.54)
          (name "GP3" (effects (font (size 1.27 1.27))))
          (number "11" (effects (font (size 1.27 1.27))))
        )
        (pin bidirectional line (at 12.7 0 180) (length 2.54)
          (name "GP4" (effects (font (size 1.27 1.27))))
          (number "12" (effects (font (size 1.27 1.27))))
        )
        (pin bidirectional line (at 12.7 -2.54 180) (length 2.54)
          (name "GP5" (effects (font (size 1.27 1.27))))
          (number "13" (effects (font (size 1.27 1.27))))
        )
        (pin bidirectional line (at 12.7 -5.08 180) (length 2.54)
          (name "GP6" (effects (font (size 1.27 1.27))))
          (number "14" (effects (font (size 1.27 1.27))))
        )
        (pin bidirectional line (at 12.7 -7.62 180) (length 2.54)
          (name "GP7" (effects (font (size 1.27 1.27))))
          (number "15" (effects (font (size 1.27 1.27))))
        )
        (pin power_in line (at 0 -15.24 90) (length 2.54)
          (name "VSS" (effects (font (size 1.27 1.27))))
          (number "18" (effects (font (size 1.27 1.27))))
        )
        (pin input line (at -12.7 7.62 0) (length 2.54)
          (name "SCL" (effects (font (size 1.27 1.27))))
          (number "3" (effects (font (size 1.27 1.27))))
        )
        (pin bidirectional line (at -12.7 5.08 0) (length 2.54)
          (name "SDA" (effects (font (size 1.27 1.27))))
          (number "4" (effects (font (size 1.27 1.27))))
        )
        (pin input line (at -12.7 -10.16 0) (length 2.54)
          (name "ADDR" (effects (font (size 1.27 1.27))))
          (number "5" (effects (font (size 1.27 1.27))))
        )
        (pin input line (at -12.7 10.16 0) (length 2.54)
          (name "~{RESET}" (effects (font (size 1.27 1.27))))
          (number "6" (effects (font (size 1.27 1.27))))
        )
        (pin output line (at -12.7 0 0) (length 2.54)
          (name "INT" (effects (font (size 1.27 1.27))))
          (number "7" (effects (font (size 1.27 1.27))))
        )
        (pin bidirectional line (at 12.7 10.16 180) (length 2.54)
          (name "GP0" (effects (font (size 1.27 1.27))))
          (number "8" (effects (font (size 1.27 1.27))))
        )
        (pin bidirectional line (at 12.7 7.62 180) (length 2.54)
          (name "GP1" (effects (font (size 1.27 1.27))))
          (number "9" (effects (font (size 1.27 1.27))))
        )
      )
    )
    (symbol "Mechanical:MountingHole" (pin_names (offset 1.016)) (in_bom yes) (on_board yes)
      (property "Reference" "H" (at 0 5.08 0)
        (effects (font (size 1.27 1.27)))
      )
      (property "Value" "MountingHole" (at 0 3.175 0)
        (effects (font (size 1.27 1.27)))
      )
      (property "Footprint" "" (at 0 0 0)
        (effects (font (size 1.27 1.27)) hide)
      )
      (property "Datasheet" "~" (at 0 0 0)
        (effects (font (size 1.27 1.27)) hide)
      )
      (property "ki_keywords" "mounting hole" (at 0 0 0)
        (effects (font (size 1.27 1.27)) hide)
      )
      (property "ki_description" "Mounting Hole without connection" (at 0 0 0)
        (effects (font (size 1.27 1.27)) hide)
      )
      (property "ki_fp_filters" "MountingHole*" (at 0 0 0)
        (effects (font (size 1.27 1.27)) hide)
      )
      (symbol "MountingHole_0_1"
        (circle (center 0 0) (radius 1.27)
          (stroke (width 1.27) (type default))
          (fill (type none))
        )
      )
    )
    (symbol "Regulator_Linear:AMS1117-3.3" (pin_names (offset 0.254)) (in_bom yes) (on_board yes)
      (property "Reference" "U" (at -3.81 3.175 0)
        (effects (font (size 1.27 1.27)))
      )
      (property "Value" "AMS1117-3.3" (at 0 3.175 0)
        (effects (font (size 1.27 1.27)) (justify left))
      )
      (property "Footprint" "Package_TO_SOT_SMD:SOT-223-3_TabPin2" (at 0 5.08 0)
        (effects (font (size 1.27 1.27)) hide)
      )
      (property "Datasheet" "http://www.advanced-monolithic.com/pdf/ds1117.pdf" (at 2.54 -6.35 0)
        (effects (font (size 1.27 1.27)) hide)
      )
      (property "ki_keywords" "linear regulator ldo fixed positive" (at 0 0 0)
        (effects (font (size 1.27 1.27)) hide)
      )
      (property "ki_description" "1A Low Dropout regulator, positive, 3.3V fixed output, SOT-223" (at 0 0 0)
        (effects (font (size 1.27 1.27)) hide)
      )
      (property "ki_fp_filters" "SOT?223*TabPin2*" (at 0 0 0)
        (effects (font (size 1.27 1.27)) hide)
      )
      (symbol "AMS1117-3.3_0_1"
        (rectangle (start -5.08 -5.08) (end 5.08 1.905)
          (stroke (width 0.254) (type default))
          (fill (type background))
        )
      )
      (symbol "AMS1117-3.3_1_1"
        (pin power_in line (at 0 -7.62 90) (length 2.54)
          (name "GND" (effects (font (size 1.27 1.27))))
          (number "1" (effects (font (size 1.27 1.27))))
        )
        (pin power_out line (at 7.62 0 180) (length 2.54)
          (name "VO" (effects (font (size 1.27 1.27))))
          (number "2" (effects (font (size 1.27 1.27))))
        )
        (pin power_in line (at -7.62 0 0) (length 2.54)
          (name "VI" (effects (font (size 1.27 1.27))))
          (number "3" (effects (font (size 1.27 1.27))))
        )
      )
    )
    (symbol "Switch:SW_Push" (pin_numbers hide) (pin_names (offset 1.016) hide) (in_bom yes) (on_board yes)
      (property "Reference" "SW" (at 1.27 2.54 0)
        (effects (font (size 1.27 1.27)) (justify left))
      )
      (property "Value" "SW_Push" (at 0 -1.524 0)
        (effects (font (size 1.27 1.27)))
      )
      (property "Footprint" "" (at 0 5.08 0)
        (effects (font (size 1.27 1.27)) hide)
      )
      (property "Datasheet" "~" (at 0 5.08 0)
        (effects (font (size 1.27 1.27)) hide)
      )
      (property "ki_keywords" "switch normally-open pushbutton push-button" (at 0 0 0)
        (effects (font (size 1.27 1.27)) hide)
      )
      (property "ki_description" "Push button switch, generic, two pins" (at 0 0 0)
        (effects (font (size 1.27 1.27)) hide)
      )
      (symbol "SW_Push_0_1"
        (circle (center -2.032 0) (radius 0.508)
          (stroke (width 0) (type default))
          (fill (type none))
        )
        (polyline
          (pts
            (xy 0 1.27)
            (xy 0 3.048)
          )
          (stroke (width 0) (type default))
          (fill (type none))
        )
        (polyline
          (pts
            (xy 2.54 1.27)
            (xy -2.54 1.27)
          )
          (stroke (width 0) (type default))
          (fill (type none))
        )
        (circle (center 2.032 0) (radius 0.508)
          (stroke (width 0) (type default))
          (fill (type none))
        )
        (pin passive line (at -5.08 0 0) (length 2.54)
          (name "1" (effects (font (size 1.27 1.27))))
          (number "1" (effects (font (size 1.27 1.27))))
        )
        (pin passive line (at 5.08 0 180) (length 2.54)
          (name "2" (effects (font (size 1.27 1.27))))
          (number "2" (effects (font (size 1.27 1.27))))
        )
      )
    )
    (symbol "power:+3.3V" (power) (pin_names (offset 0)) (in_bom yes) (on_board yes)
      (property "Reference" "#PWR" (at 0 -3.81 0)
        (effects (font (size 1.27 1.27)) hide)
      )
      (property "Value" "+3.3V" (at 0 3.556 0)
        (effects (font (size 1.27 1.27)))
      )
      (property "Footprint" "" (at 0 0 0)
        (effects (font (size 1.27 1.27)) hide)
      )
      (property "Datasheet" "" (at 0 0 0)
        (effects (font (size 1.27 1.27)) hide)
      )
      (property "ki_keywords" "power-flag" (at 0 0 0)
        (effects (font (size 1.27 1.27)) hide)
      )
      (property "ki_description" "Power symbol creates a global label with name \"+3.3V\"" (at 0 0 0)
        (effects (font (size 1.27 1.27)) hide)
      )
      (symbol "+3.3V_0_1"
        (polyline
          (pts
            (xy -0.762 1.27)
            (xy 0 2.54)
          )
          (stroke (width 0) (type default))
          (fill (type none))
        )
        (polyline
          (pts
            (xy 0 0)
            (xy 0 2.54)
          )
          (stroke (width 0) (type default))
          (fill (type none))
        )
        (polyline
          (pts
            (xy 0 2.54)
            (xy 0.762 1.27)
          )
          (stroke (width 0) (type default))
          (fill (type none))
        )
      )
      (symbol "+3.3V_1_1"
        (pin power_in line (at 0 0 90) (length 0) hide
          (name "+3V3" (effects (font (size 1.27 1.27))))
          (number "1" (effects (font (size 1.27 1.27))))
        )
      )
    )
    (symbol "power:+3V3" (power) (pin_names (offset 0)) (in_bom yes) (on_board yes)
      (property "Reference" "#PWR" (at 0 -3.81 0)
        (effects (font (size 1.27 1.27)) hide)
      )
      (property "Value" "+3V3" (at 0 3.556 0)
        (effects (font (size 1.27 1.27)))
      )
      (property "Footprint" "" (at 0 0 0)
        (effects (font (size 1.27 1.27)) hide)
      )
      (property "Datasheet" "" (at 0 0 0)
        (effects (font (size 1.27 1.27)) hide)
      )
      (property "ki_keywords" "power-flag" (at 0 0 0)
        (effects (font (size 1.27 1.27)) hide)
      )
      (property "ki_description" "Power symbol creates a global label with name \"+3V3\"" (at 0 0 0)
        (effects (font (size 1.27 1.27)) hide)
      )
      (symbol "+3V3_0_1"
        (polyline
          (pts
            (xy -0.762 1.27)
            (xy 0 2.54)
          )
          (stroke (width 0) (type default))
          (fill (type none))
        )
        (polyline
          (pts
            (xy 0 0)
            (xy 0 2.54)
          )
          (stroke (width 0) (type default))
          (fill (type none))
        )
        (polyline
          (pts
            (xy 0 2.54)
            (xy 0.762 1.27)
          )
          (stroke (width 0) (type default))
          (fill (type none))
        )
      )
      (symbol "+3V3_1_1"
        (pin power_in line (at 0 0 90) (length 0) hide
          (name "+3V3" (effects (font (size 1.27 1.27))))
          (number "1" (effects (font (size 1.27 1.27))))
        )
      )
    )
    (symbol "power:+5V" (power) (pin_names (offset 0)) (in_bom yes) (on_board yes)
      (property "Reference" "#PWR" (at 0 -3.81 0)
        (effects (font (size 1.27 1.27)) hide)
      )
      (property "Value" "+5V" (at 0 3.556 0)
        (effects (font (size 1.27 1.27)))
      )
      (property "Footprint" "" (at 0 0 0)
        (effects (font (size 1.27 1.27)) hide)
      )
      (property "Datasheet" "" (at 0 0 0)
        (effects (font (size 1.27 1.27)) hide)
      )
      (property "ki_keywords" "power-flag" (at 0 0 0)
        (effects (font (size 1.27 1.27)) hide)
      )
      (property "ki_description" "Power symbol creates a global label with name \"+5V\"" (at 0 0 0)
        (effects (font (size 1.27 1.27)) hide)
      )
      (symbol "+5V_0_1"
        (polyline
          (pts
            (xy -0.762 1.27)
            (xy 0 2.54)
          )
          (stroke (width 0) (type default))
          (fill (type none))
        )
        (polyline
          (pts
            (xy 0 0)
            (xy 0 2.54)
          )
          (stroke (width 0) (type default))
          (fill (type none))
        )
        (polyline
          (pts
            (xy 0 2.54)
            (xy 0.762 1.27)
          )
          (stroke (width 0) (type default))
          (fill (type none))
        )
      )
      (symbol "+5V_1_1"
        (pin power_in line (at 0 0 90) (length 0) hide
          (name "+5V" (effects (font (size 1.27 1.27))))
          (number "1" (effects (font (size 1.27 1.27))))
        )
      )
    )
    (symbol "power:GND" (power) (pin_names (offset 0)) (in_bom yes) (on_board yes)
      (property "Reference" "#PWR" (at 0 -6.35 0)
        (effects (font (size 1.27 1.27)) hide)
      )
      (property "Value" "GND" (at 0 -3.81 0)
        (effects (font (size 1.27 1.27)))
      )
      (property "Footprint" "" (at 0 0 0)
        (effects (font (size 1.27 1.27)) hide)
      )
      (property "Datasheet" "" (at 0 0 0)
        (effects (font (size 1.27 1.27)) hide)
      )
      (property "ki_keywords" "power-flag" (at 0 0 0)
        (effects (font (size 1.27 1.27)) hide)
      )
      (property "ki_description" "Power symbol creates a global label with name \"GND\" , ground" (at 0 0 0)
        (effects (font (size 1.27 1.27)) hide)
      )
      (symbol "GND_0_1"
        (polyline
          (pts
            (xy 0 0)
            (xy 0 -1.27)
            (xy 1.27 -1.27)
            (xy 0 -2.54)
            (xy -1.27 -1.27)
            (xy 0 -1.27)
          )
          (stroke (width 0) (type default))
          (fill (type none))
        )
      )
      (symbol "GND_1_1"
        (pin power_in line (at 0 0 270) (length 0) hide
          (name "GND" (effects (font (size 1.27 1.27))))
          (number "1" (effects (font (size 1.27 1.27))))
        )
      )
    )
  )

  (junction (at 40.64 76.2) (diameter 0) (color 0 0 0 0)
    (uuid 063fe568-6eaa-4abf-a1d0-1bd3b4cd04ff)
  )
  (junction (at 40.64 68.58) (diameter 0) (color 0 0 0 0)
    (uuid 0b1c06fb-4418-4a9e-9656-4fa46a7a7c30)
  )
  (junction (at 82.55 97.79) (diameter 0) (color 0 0 0 0)
    (uuid 2ac2e88b-a75d-40e5-9c2d-fad55b1185a0)
  )
  (junction (at 68.58 175.26) (diameter 0) (color 0 0 0 0)
    (uuid 34e8c6db-aaf7-4dc0-9e8a-628b4a0fc299)
  )
  (junction (at 76.2 97.79) (diameter 0) (color 0 0 0 0)
    (uuid 4fa93191-6d87-480b-a178-1e1f66d5bbab)
  )
  (junction (at 135.89 128.27) (diameter 0) (color 0 0 0 0)
    (uuid 61b7875d-99ff-4859-9598-2d79eb39b015)
  )
  (junction (at 135.89 125.73) (diameter 0) (color 0 0 0 0)
    (uuid c1d802ca-df67-4188-89b6-5f8c899ed47b)
  )
  (junction (at 88.9 97.79) (diameter 0) (color 0 0 0 0)
    (uuid ef2fc146-ce96-4350-9920-ba542174acd8)
  )

  (wire (pts (xy 134.62 128.27) (xy 135.89 128.27))
    (stroke (width 0) (type default))
    (uuid 024146c0-9b6c-463f-b89a-5a9a997d79b9)
  )
  (wire (pts (xy 135.89 123.19) (xy 135.89 125.73))
    (stroke (width 0) (type default))
    (uuid 04a7afb7-df3c-40a4-896e-a0731e3c327b)
  )
  (polyline (pts (xy 25.4 190.5) (xy 101.6 190.5))
    (stroke (width 0) (type default))
    (uuid 1787fc8c-77ea-42c6-ae6b-b69a35967256)
  )

  (wire (pts (xy 135.89 128.27) (xy 135.89 125.73))
    (stroke (width 0) (type default))
    (uuid 2854a90d-5fa1-4685-9d5a-ef2c7b114b04)
  )
  (wire (pts (xy 50.8 123.19) (xy 127 123.19))
    (stroke (width 0) (type default))
    (uuid 3182818f-6015-47e1-a3f1-7ec896a5b4c6)
  )
  (wire (pts (xy 50.8 118.11) (xy 101.6 118.11))
    (stroke (width 0) (type default))
    (uuid 36f24060-2357-4765-9d48-a8a41dcc7869)
  )
  (wire (pts (xy 90.17 175.26) (xy 97.79 175.26))
    (stroke (width 0) (type default))
    (uuid 37989c6d-d151-4a45-b813-30db447709a4)
  )
  (wire (pts (xy 50.8 113.03) (xy 76.2 113.03))
    (stroke (width 0) (type default))
    (uuid 384f4c64-4bb2-4b5f-9939-c9400d99437a)
  )
  (polyline (pts (xy 25.4 165.1) (xy 101.6 165.1))
    (stroke (width 0) (type default))
    (uuid 3af0215e-5538-4c69-9255-b07039d4998a)
  )

  (wire (pts (xy 90.17 172.72) (xy 92.71 172.72))
    (stroke (width 0) (type default))
    (uuid 3de79dd5-26fc-49e8-be9d-5c3c949bb195)
  )
  (wire (pts (xy 30.48 60.96) (xy 40.64 60.96))
    (stroke (width 0) (type default))
    (uuid 44d32a82-1d22-4490-9506-3acd29fa8422)
  )
  (polyline (pts (xy 25.4 165.1) (xy 25.4 190.5))
    (stroke (width 0) (type default))
    (uuid 4e0277fb-6791-4993-b1e2-b3d4736958a5)
  )

  (wire (pts (xy 50.8 120.65) (xy 114.3 120.65))
    (stroke (width 0) (type default))
    (uuid 5188c8f3-3a6e-4680-9211-a9d4855cb4d3)
  )
  (wire (pts (xy 101.6 118.11) (xy 101.6 110.49))
    (stroke (width 0) (type default))
    (uuid 51bc192b-92a2-44e1-8029-7c99b517761e)
  )
  (wire (pts (xy 40.64 60.96) (xy 40.64 68.58))
    (stroke (width 0) (type default))
    (uuid 5290bf4a-ed5c-4336-8fe3-f2f717efb400)
  )
  (wire (pts (xy 45.72 175.26) (xy 45.72 172.72))
    (stroke (width 0) (type default))
    (uuid 5b12c41c-e814-4985-a9f3-2607135ed94e)
  )
  (wire (pts (xy 88.9 97.79) (xy 101.6 97.79))
    (stroke (width 0) (type default))
    (uuid 5c608c9a-e477-448d-b18e-ab5427e3d181)
  )
  (wire (pts (xy 68.58 175.26) (xy 68.58 177.8))
    (stroke (width 0) (type default))
    (uuid 5d6ded4f-a95b-4734-94fa-a7aa8c6fb8d7)
  )
  (wire (pts (xy 134.62 125.73) (xy 135.89 125.73))
    (stroke (width 0) (type default))
    (uuid 603a6fb1-4a93-4d6b-8342-1895d56c812e)
  )
  (wire (pts (xy 114.3 97.79) (xy 114.3 102.87))
    (stroke (width 0) (type default))
    (uuid 64c99c46-56e7-4e90-8674-c6d9ce7ec20c)
  )
  (wire (pts (xy 63.5 97.79) (xy 76.2 97.79))
    (stroke (width 0) (type default))
    (uuid 653d9be3-76b6-4235-8ca8-ac53a68ceece)
  )
  (wire (pts (xy 50.8 115.57) (xy 88.9 115.57))
    (stroke (width 0) (type default))
    (uuid 6f7bbea9-2d12-472f-b0f8-a6b5e24e8f94)
  )
  (wire (pts (xy 50.8 128.27) (xy 127 128.27))
    (stroke (width 0) (type default))
    (uuid 7097addf-20ac-42f3-be3e-3f43734c79e0)
  )
  (wire (pts (xy 38.1 175.26) (xy 45.72 175.26))
    (stroke (width 0) (type default))
    (uuid 75b339a5-2dc7-4de9-afb7-8bc9da135e22)
  )
  (wire (pts (xy 82.55 97.79) (xy 88.9 97.79))
    (stroke (width 0) (type default))
    (uuid 82f15b9f-97a6-4c7e-96e0-a78ba8085751)
  )
  (wire (pts (xy 63.5 100.33) (xy 63.5 97.79))
    (stroke (width 0) (type default))
    (uuid 8b0c7ff8-8297-4956-9881-72e4c696e5dd)
  )
  (polyline (pts (xy 101.6 190.5) (xy 101.6 165.1))
    (stroke (width 0) (type default))
    (uuid 8e6b9415-8d37-46f0-8541-3c1274245a83)
  )

  (wire (pts (xy 76.2 97.79) (xy 82.55 97.79))
    (stroke (width 0) (type default))
    (uuid 972af6f3-fae2-4edc-ad6a-553a899b8d8f)
  )
  (wire (pts (xy 40.64 68.58) (xy 40.64 76.2))
    (stroke (width 0) (type default))
    (uuid 9a614753-1a44-4d32-84a3-a07411348163)
  )
  (wire (pts (xy 114.3 120.65) (xy 114.3 107.95))
    (stroke (width 0) (type default))
    (uuid 9b876bd3-f506-413a-8fe0-569da0039ac4)
  )
  (wire (pts (xy 134.62 123.19) (xy 135.89 123.19))
    (stroke (width 0) (type default))
    (uuid a3372211-af5c-46be-a55e-ba1ea88872fb)
  )
  (wire (pts (xy 76.2 97.79) (xy 76.2 100.33))
    (stroke (width 0) (type default))
    (uuid b232f998-4764-486f-be6b-bce8812f8193)
  )
  (wire (pts (xy 19.05 110.49) (xy 25.4 110.49))
    (stroke (width 0) (type default))
    (uuid b7e973bd-0d4e-4d80-be0d-c3f6a70d7d37)
  )
  (wire (pts (xy 30.48 68.58) (xy 40.64 68.58))
    (stroke (width 0) (type default))
    (uuid c5a8c7de-a31b-41e1-95dd-54027bba9a65)
  )
  (wire (pts (xy 38.1 172.72) (xy 40.64 172.72))
    (stroke (width 0) (type default))
    (uuid c5bf8061-09d9-4a6c-9d96-89f41f913574)
  )
  (wire (pts (xy 88.9 97.79) (xy 88.9 100.33))
    (stroke (width 0) (type default))
    (uuid c6dddba9-295e-444c-b28f-3e79d32fdc52)
  )
  (wire (pts (xy 76.2 113.03) (xy 76.2 110.49))
    (stroke (width 0) (type default))
    (uuid c75ae48b-f315-4078-a3a0-911b4d832602)
  )
  (wire (pts (xy 101.6 97.79) (xy 101.6 100.33))
    (stroke (width 0) (type default))
    (uuid cc4ec855-9b5e-4e71-85be-222eb71c0f51)
  )
  (wire (pts (xy 30.48 76.2) (xy 40.64 76.2))
    (stroke (width 0) (type default))
    (uuid d4bf8786-a6d5-4f98-86a1-3aaacbd915cf)
  )
  (wire (pts (xy 50.8 125.73) (xy 127 125.73))
    (stroke (width 0) (type default))
    (uuid da49297e-0072-42cc-a43c-1b78a401ce7c)
  )
  (wire (pts (xy 50.8 110.49) (xy 63.5 110.49))
    (stroke (width 0) (type default))
    (uuid dc90d64e-5ca9-4273-a275-2f1fe4dd4954)
  )
  (wire (pts (xy 88.9 115.57) (xy 88.9 110.49))
    (stroke (width 0) (type default))
    (uuid dd475595-50b5-4995-ad51-100bd9aa9d40)
  )
  (wire (pts (xy 97.79 175.26) (xy 97.79 172.72))
    (stroke (width 0) (type default))
    (uuid edc3b907-17b3-4c26-94d6-f7b93cddd210)
  )

  (text "GND\nSDA\nSCL\nGND\n5V\nIRQ\nGND" (at 20.32 76.2 0)
    (effects (font (size 1.5 1.5)) (justify left bottom))
    (uuid 183dc1be-73ae-4cb1-bf54-92894ed8d351)
  )
  (text "Place cap as close to MCP23009 as possible" (at 93.98 21.59 0)
    (effects (font (size 1.27 1.27)) (justify left bottom))
    (uuid 4b365e0a-214f-4eb3-a66d-e761760a584f)
  )
  (text "OLED connectors" (at 26.67 189.23 0)
    (effects (font (size 1.27 1.27)) (justify left bottom))
    (uuid f7ae2f63-b411-469b-a649-04af0c2cac90)
  )

  (label "SDA" (at 55.88 177.8 180) (fields_autoplaced)
    (effects (font (size 1.27 1.27)) (justify right bottom))
    (uuid 1539a871-e68d-48f7-aae7-188844fe6f03)
  )
  (label "SCL" (at 30.48 66.04 0) (fields_autoplaced)
    (effects (font (size 1.27 1.27)) (justify left bottom))
    (uuid 21f3ed25-ce64-4328-845c-a506382fe9d4)
  )
  (label "SDA" (at 30.48 63.5 0) (fields_autoplaced)
    (effects (font (size 1.27 1.27)) (justify left bottom))
    (uuid 40f87941-7da2-4978-9046-c2482dee0173)
  )
  (label "SDA" (at 90.17 177.8 0) (fields_autoplaced)
    (effects (font (size 1.27 1.27)) (justify left bottom))
    (uuid 600f4866-930e-445a-82f3-3c916c19a8c0)
  )
  (label "SDA" (at 38.1 180.34 0) (fields_autoplaced)
    (effects (font (size 1.27 1.27)) (justify left bottom))
    (uuid 6aecfa31-7828-4620-a8f9-5bb53d3e916b)
  )
  (label "SDA" (at 25.4 115.57 180) (fields_autoplaced)
    (effects (font (size 1.27 1.27)) (justify right bottom))
    (uuid 75f2c9ea-c82c-4309-b044-f10e59330a3f)
  )
  (label "SCL" (at 59.817 63.5 0) (fields_autoplaced)
    (effects (font (size 1.27 1.27)) (justify left bottom))
    (uuid 81ae87a1-5252-4fb5-92ee-d5f01b24c1e3)
  )
  (label "SCL" (at 55.88 180.34 180) (fields_autoplaced)
    (effects (font (size 1.27 1.27)) (justify right bottom))
    (uuid a0dc47b4-9ca1-4aff-841b-09c8b13ac965)
  )
  (label "SCL" (at 25.4 113.03 180) (fields_autoplaced)
    (effects (font (size 1.27 1.27)) (justify right bottom))
    (uuid a2f2eae0-a081-4f4d-9683-a48aed7cf7ef)
  )
  (label "IRQ" (at 25.4 120.65 180) (fields_autoplaced)
    (effects (font (size 1.27 1.27)) (justify right bottom))
    (uuid b092ef6f-394e-4958-ad37-3d8bf99b1387)
  )
  (label "SCL" (at 69.85 30.48 270) (fields_autoplaced)
    (effects (font (size 1.27 1.27)) (justify right bottom))
    (uuid bcf68e20-22f5-41b0-b52f-1f50d2fe87b8)
  )
  (label "SCL" (at 38.1 177.8 0) (fields_autoplaced)
    (effects (font (size 1.27 1.27)) (justify left bottom))
    (uuid c0978b41-29da-4314-b5a7-d82e523dc6d3)
  )
  (label "SCL" (at 90.17 180.34 0) (fields_autoplaced)
    (effects (font (size 1.27 1.27)) (justify left bottom))
    (uuid ced60edd-5d14-4cc5-ba34-cab77da430da)
  )
  (label "SDA" (at 59.69 30.48 270) (fields_autoplaced)
    (effects (font (size 1.27 1.27)) (justify right bottom))
    (uuid eda3bded-70d6-4416-adfa-8e69e97fa383)
  )
  (label "SDA" (at 59.817 60.96 0) (fields_autoplaced)
    (effects (font (size 1.27 1.27)) (justify left bottom))
    (uuid f0576eed-523f-4ae7-be01-36c4067fff4e)
  )
  (label "IRQ" (at 59.817 68.58 0) (fields_autoplaced)
    (effects (font (size 1.27 1.27)) (justify left bottom))
    (uuid f6230e54-e040-4b96-9257-286e23a41c69)
  )
  (label "IRQ" (at 30.48 73.66 0) (fields_autoplaced)
    (effects (font (size 1.27 1.27)) (justify left bottom))
    (uuid f977669a-fa73-4420-81d9-93b640cd2b3d)
  )

  (symbol (lib_id "Connector:Conn_01x07_Male") (at 25.4 68.58 0) (unit 1)
    (in_bom yes) (on_board yes) (dnp no)
    (uuid 02b18e06-be3d-47b6-b461-abc44f446597)
    (property "Reference" "J1" (at 26.67 54.61 0)
      (effects (font (size 1.27 1.27)))
    )
    (property "Value" "Remote Connector" (at 26.67 57.15 0)
      (effects (font (size 1.27 1.27)))
    )
    (property "Footprint" "eec:Molex-47080-4001-0-0-0" (at 25.4 68.58 0)
      (effects (font (size 1.27 1.27)) hide)
    )
    (property "Datasheet" "~" (at 25.4 68.58 0)
      (effects (font (size 1.27 1.27)) hide)
    )
    (pin "1" (uuid 5c5924c4-b39c-445c-a829-7a5bc407daab))
    (pin "2" (uuid 400f4ee4-d275-4cbf-a20e-356d253aad5a))
    (pin "3" (uuid 3924276d-b2bc-4be2-9f8b-5b4062d8a07d))
    (pin "4" (uuid ec8aa57f-3b87-4de1-a249-c72c04c5821f))
    (pin "5" (uuid 4a5f495b-5e47-4b96-bcd4-de4939827f2a))
    (pin "6" (uuid 6fd3ffa5-1a79-4c54-9314-700fd0b7690f))
    (pin "7" (uuid 6269fa10-b48b-4870-a54c-db64f37aa2c4))
    (instances
      (project "remote"
        (path "/a5d54026-40bd-45ab-a4c9-312f3def8456"
          (reference "J1") (unit 1)
        )
      )
    )
  )

  (symbol (lib_id "power:GND") (at 30.48 31.75 0) (unit 1)
    (in_bom yes) (on_board yes) (dnp no) (fields_autoplaced)
    (uuid 04804b27-a7d5-48ff-a73e-23933b8fdf93)
    (property "Reference" "#PWR04" (at 30.48 38.1 0)
      (effects (font (size 1.27 1.27)) hide)
    )
    (property "Value" "GND" (at 30.48 36.1934 0)
      (effects (font (size 1.27 1.27)))
    )
    (property "Footprint" "" (at 30.48 31.75 0)
      (effects (font (size 1.27 1.27)) hide)
    )
    (property "Datasheet" "" (at 30.48 31.75 0)
      (effects (font (size 1.27 1.27)) hide)
    )
    (pin "1" (uuid ffca8013-d88e-4897-bca8-6e124c9b31c0))
    (instances
      (project "remote"
        (path "/a5d54026-40bd-45ab-a4c9-312f3def8456"
          (reference "#PWR04") (unit 1)
        )
      )
    )
  )

  (symbol (lib_id "power:GND") (at 38.1 135.89 0) (unit 1)
    (in_bom yes) (on_board yes) (dnp no) (fields_autoplaced)
    (uuid 08e7c081-8d95-4e68-8eac-6a44f438b0a7)
    (property "Reference" "#PWR08" (at 38.1 142.24 0)
      (effects (font (size 1.27 1.27)) hide)
    )
    (property "Value" "GND" (at 38.1 140.3334 0)
      (effects (font (size 1.27 1.27)))
    )
    (property "Footprint" "" (at 38.1 135.89 0)
      (effects (font (size 1.27 1.27)) hide)
    )
    (property "Datasheet" "" (at 38.1 135.89 0)
      (effects (font (size 1.27 1.27)) hide)
    )
    (pin "1" (uuid 192333b4-1c90-4963-a91c-852da5782433))
    (instances
      (project "remote"
        (path "/a5d54026-40bd-45ab-a4c9-312f3def8456"
          (reference "#PWR08") (unit 1)
        )
      )
    )
  )

  (symbol (lib_id "Connector:Conn_01x05_Pin") (at 54.737 66.04 0) (unit 1)
    (in_bom yes) (on_board yes) (dnp no)
    (uuid 0c2c9afd-c52f-4989-97f8-f8e797f70ff4)
    (property "Reference" "J6" (at 60.579 54.483 0)
      (effects (font (size 1.27 1.27)))
    )
    (property "Value" "Remote Hardmount Connector" (at 61.087 57.15 0)
      (effects (font (size 1.27 1.27)))
    )
    (property "Footprint" "Connector_PinSocket_2.54mm:PinSocket_1x05_P2.54mm_Horizontal" (at 54.737 66.04 0)
      (effects (font (size 1.27 1.27)) hide)
    )
    (property "Datasheet" "~" (at 54.737 66.04 0)
      (effects (font (size 1.27 1.27)) hide)
    )
    (pin "1" (uuid 19faeb10-c225-42b2-ab3e-5c718f864108))
    (pin "2" (uuid f7916de0-d062-4e80-8599-07ac4fcb2581))
    (pin "3" (uuid d1ac865d-d5fe-4ad8-959a-a584bc0ac482))
    (pin "4" (uuid ebbf5026-e1a7-4b34-8658-81f6b7b3ba90))
    (pin "5" (uuid b8642e14-7931-4ab8-95a1-b566d412b59f))
    (instances
      (project "remote"
        (path "/a5d54026-40bd-45ab-a4c9-312f3def8456"
          (reference "J6") (unit 1)
        )
      )
      (project "ISA rev8"
        (path "/d1f04949-fb9b-4268-b5f3-6258a63d79ac"
          (reference "J4") (unit 1)
        )
      )
    )
  )

  (symbol (lib_id "power:GND") (at 82.55 90.17 180) (unit 1)
    (in_bom yes) (on_board yes) (dnp no) (fields_autoplaced)
    (uuid 0eb2d1f7-feee-46ec-ab1c-f47083c4cc93)
    (property "Reference" "#PWR017" (at 82.55 83.82 0)
      (effects (font (size 1.27 1.27)) hide)
    )
    (property "Value" "GND" (at 82.55 86.5942 0)
      (effects (font (size 1.27 1.27)))
    )
    (property "Footprint" "" (at 82.55 90.17 0)
      (effects (font (size 1.27 1.27)) hide)
    )
    (property "Datasheet" "" (at 82.55 90.17 0)
      (effects (font (size 1.27 1.27)) hide)
    )
    (pin "1" (uuid f6bae17a-c54e-4d51-814b-2d8a1346bfb6))
    (instances
      (project "remote"
        (path "/a5d54026-40bd-45ab-a4c9-312f3def8456"
          (reference "#PWR017") (unit 1)
        )
      )
    )
  )

  (symbol (lib_id "Mechanical:MountingHole") (at 149.86 29.21 0) (unit 1)
    (in_bom yes) (on_board yes) (dnp no) (fields_autoplaced)
    (uuid 1a6330d6-248a-405a-80d6-f9cc440cbc9d)
    (property "Reference" "H3" (at 152.4 28.3753 0)
      (effects (font (size 1.27 1.27)) (justify left))
    )
    (property "Value" "MountingHole" (at 152.4 30.9122 0)
      (effects (font (size 1.27 1.27)) (justify left))
    )
    (property "Footprint" "MountingHole:MountingHole_2.2mm_M2" (at 149.86 29.21 0)
      (effects (font (size 1.27 1.27)) hide)
    )
    (property "Datasheet" "~" (at 149.86 29.21 0)
      (effects (font (size 1.27 1.27)) hide)
    )
    (instances
      (project "remote"
        (path "/a5d54026-40bd-45ab-a4c9-312f3def8456"
          (reference "H3") (unit 1)
        )
      )
    )
  )

  (symbol (lib_id "Mechanical:MountingHole") (at 149.86 19.05 0) (unit 1)
    (in_bom yes) (on_board yes) (dnp no) (fields_autoplaced)
    (uuid 1ce1bf17-6893-4f1f-ad36-75eba3305d49)
    (property "Reference" "H1" (at 152.4 18.2153 0)
      (effects (font (size 1.27 1.27)) (justify left))
    )
    (property "Value" "MountingHole" (at 152.4 20.7522 0)
      (effects (font (size 1.27 1.27)) (justify left))
    )
    (property "Footprint" "MountingHole:MountingHole_2.2mm_M2" (at 149.86 19.05 0)
      (effects (font (size 1.27 1.27)) hide)
    )
    (property "Datasheet" "~" (at 149.86 19.05 0)
      (effects (font (size 1.27 1.27)) hide)
    )
    (instances
      (project "remote"
        (path "/a5d54026-40bd-45ab-a4c9-312f3def8456"
          (reference "H1") (unit 1)
        )
      )
    )
  )

  (symbol (lib_id "Device:C") (at 88.9 26.67 0) (unit 1)
    (in_bom yes) (on_board yes) (dnp no) (fields_autoplaced)
    (uuid 255bdf87-a808-449a-afae-fd668832d4c3)
    (property "Reference" "C1" (at 91.821 25.8353 0)
      (effects (font (size 1.27 1.27)) (justify left))
    )
    (property "Value" "100n" (at 91.821 28.3722 0)
      (effects (font (size 1.27 1.27)) (justify left))
    )
    (property "Footprint" "Capacitor_SMD:C_1206_3216Metric_Pad1.33x1.80mm_HandSolder" (at 89.8652 30.48 0)
      (effects (font (size 1.27 1.27)) hide)
    )
    (property "Datasheet" "~" (at 88.9 26.67 0)
      (effects (font (size 1.27 1.27)) hide)
    )
    (pin "1" (uuid 92d19911-faf5-47b5-a45b-87396d1674ee))
    (pin "2" (uuid 51f5d0f4-9ffe-44b5-addf-5c60da60593f))
    (instances
      (project "remote"
        (path "/a5d54026-40bd-45ab-a4c9-312f3def8456"
          (reference "C1") (unit 1)
        )
      )
    )
  )

  (symbol (lib_id "power:+3V3") (at 69.85 22.86 0) (unit 1)
    (in_bom yes) (on_board yes) (dnp no) (fields_autoplaced)
    (uuid 26c0f7d1-2571-4449-a3b7-4f8715034677)
    (property "Reference" "#PWR016" (at 69.85 26.67 0)
      (effects (font (size 1.27 1.27)) hide)
    )
    (property "Value" "+3V3" (at 69.85 19.2842 0)
      (effects (font (size 1.27 1.27)))
    )
    (property "Footprint" "" (at 69.85 22.86 0)
      (effects (font (size 1.27 1.27)) hide)
    )
    (property "Datasheet" "" (at 69.85 22.86 0)
      (effects (font (size 1.27 1.27)) hide)
    )
    (pin "1" (uuid 5cee5fff-52a9-4213-a3cf-324a915fc020))
    (instances
      (project "remote"
        (path "/a5d54026-40bd-45ab-a4c9-312f3def8456"
          (reference "#PWR016") (unit 1)
        )
      )
    )
  )

  (symbol (lib_id "Jumper:SolderJumper_2_Open") (at 130.81 125.73 0) (unit 1)
    (in_bom yes) (on_board yes) (dnp no)
    (uuid 274ff539-c8ff-428c-a6e8-5d5369988fdd)
    (property "Reference" "JP2" (at 138.684 125.73 0)
      (effects (font (size 1.27 1.27)))
    )
    (property "Value" "Display Resolution" (at 151.003 125.73 0)
      (effects (font (size 1.27 1.27)))
    )
    (property "Footprint" "Jumper:SolderJumper-2_P1.3mm_Open_TrianglePad1.0x1.5mm" (at 130.81 125.73 0)
      (effects (font (size 1.27 1.27)) hide)
    )
    (property "Datasheet" "~" (at 130.81 125.73 0)
      (effects (font (size 1.27 1.27)) hide)
    )
    (pin "1" (uuid f08ae688-0625-45d3-9007-19631eccf294))
    (pin "2" (uuid 273215d4-63a5-48e0-b14a-87d979d9947f))
    (instances
      (project "remote"
        (path "/a5d54026-40bd-45ab-a4c9-312f3def8456"
          (reference "JP2") (unit 1)
        )
      )
    )
  )

  (symbol (lib_id "Jumper:SolderJumper_2_Open") (at 130.81 123.19 0) (unit 1)
    (in_bom yes) (on_board yes) (dnp no)
    (uuid 2767b9e7-b67f-4587-b6ef-6fc52af7cad6)
    (property "Reference" "JP1" (at 138.811 123.19 0)
      (effects (font (size 1.27 1.27)))
    )
    (property "Value" "Display Type" (at 148.082 123.19 0)
      (effects (font (size 1.27 1.27)))
    )
    (property "Footprint" "Jumper:SolderJumper-2_P1.3mm_Open_TrianglePad1.0x1.5mm" (at 130.81 123.19 0)
      (effects (font (size 1.27 1.27)) hide)
    )
    (property "Datasheet" "~" (at 130.81 123.19 0)
      (effects (font (size 1.27 1.27)) hide)
    )
    (pin "1" (uuid 06561426-fa52-42ab-8705-d5bd8241a826))
    (pin "2" (uuid 43f031a9-6de2-4e29-89b7-20c9c9462c10))
    (instances
      (project "remote"
        (path "/a5d54026-40bd-45ab-a4c9-312f3def8456"
          (reference "JP1") (unit 1)
        )
      )
    )
  )

  (symbol (lib_id "Connector:Conn_01x04_Male") (at 33.02 175.26 0) (unit 1)
    (in_bom yes) (on_board yes) (dnp no)
    (uuid 285444cd-2908-47e4-9720-a9433d9d6a8f)
    (property "Reference" "J2" (at 35.56 185.42 0)
      (effects (font (size 1.27 1.27)))
    )
    (property "Value" "Generic Connector" (at 35.56 182.88 0)
      (effects (font (size 1.27 1.27)))
    )
    (property "Footprint" "Connector_PinHeader_2.54mm:PinHeader_1x04_P2.54mm_Vertical" (at 33.02 175.26 0)
      (effects (font (size 1.27 1.27)) hide)
    )
    (property "Datasheet" "~" (at 33.02 175.26 0)
      (effects (font (size 1.27 1.27)) hide)
    )
    (pin "1" (uuid d13d168b-3d4d-4d7e-95f0-517c809a6a66))
    (pin "2" (uuid de88085f-96a1-4b99-b1c2-97eb8b8df4cb))
    (pin "3" (uuid 7bdd3209-c50c-4e5f-8618-d30c23c3b9da))
    (pin "4" (uuid 7af725bd-3f23-45cf-b217-b1994f2d64ae))
    (instances
      (project "remote"
        (path "/a5d54026-40bd-45ab-a4c9-312f3def8456"
          (reference "J2") (unit 1)
        )
      )
    )
  )

  (symbol (lib_id "power:GND") (at 40.64 172.72 180) (unit 1)
    (in_bom yes) (on_board yes) (dnp no) (fields_autoplaced)
    (uuid 2b5ce9bb-0cd5-48d2-9788-ee035d5f3a5e)
    (property "Reference" "#PWR010" (at 40.64 166.37 0)
      (effects (font (size 1.27 1.27)) hide)
    )
    (property "Value" "GND" (at 40.64 169.1442 0)
      (effects (font (size 1.27 1.27)))
    )
    (property "Footprint" "" (at 40.64 172.72 0)
      (effects (font (size 1.27 1.27)) hide)
    )
    (property "Datasheet" "" (at 40.64 172.72 0)
      (effects (font (size 1.27 1.27)) hide)
    )
    (pin "1" (uuid cba63cec-f0ff-4e05-917a-2ad0940c3c74))
    (instances
      (project "remote"
        (path "/a5d54026-40bd-45ab-a4c9-312f3def8456"
          (reference "#PWR010") (unit 1)
        )
      )
    )
  )

  (symbol (lib_id "power:+3V3") (at 59.69 22.86 0) (unit 1)
    (in_bom yes) (on_board yes) (dnp no) (fields_autoplaced)
    (uuid 2cafa12a-95f0-4f8f-94ef-fa0d75869cc0)
    (property "Reference" "#PWR013" (at 59.69 26.67 0)
      (effects (font (size 1.27 1.27)) hide)
    )
    (property "Value" "+3V3" (at 59.69 19.2842 0)
      (effects (font (size 1.27 1.27)))
    )
    (property "Footprint" "" (at 59.69 22.86 0)
      (effects (font (size 1.27 1.27)) hide)
    )
    (property "Datasheet" "" (at 59.69 22.86 0)
      (effects (font (size 1.27 1.27)) hide)
    )
    (pin "1" (uuid 0f0ea955-51cb-4e01-b33c-f9aab2b7614a))
    (instances
      (project "remote"
        (path "/a5d54026-40bd-45ab-a4c9-312f3def8456"
          (reference "#PWR013") (unit 1)
        )
      )
    )
  )

  (symbol (lib_id "power:+3V3") (at 38.1 105.41 0) (unit 1)
    (in_bom yes) (on_board yes) (dnp no) (fields_autoplaced)
    (uuid 33e030be-a3ac-4a0a-a30e-0a3412ecfff7)
    (property "Reference" "#PWR07" (at 38.1 109.22 0)
      (effects (font (size 1.27 1.27)) hide)
    )
    (property "Value" "+3V3" (at 38.1 101.8342 0)
      (effects (font (size 1.27 1.27)))
    )
    (property "Footprint" "" (at 38.1 105.41 0)
      (effects (font (size 1.27 1.27)) hide)
    )
    (property "Datasheet" "" (at 38.1 105.41 0)
      (effects (font (size 1.27 1.27)) hide)
    )
    (pin "1" (uuid a7f75d41-ef48-4243-8a4c-a87e573bfd46))
    (instances
      (project "remote"
        (path "/a5d54026-40bd-45ab-a4c9-312f3def8456"
          (reference "#PWR07") (unit 1)
        )
      )
    )
  )

  (symbol (lib_id "Mechanical:MountingHole") (at 149.86 34.29 0) (unit 1)
    (in_bom yes) (on_board yes) (dnp no) (fields_autoplaced)
    (uuid 3c5ab205-c9af-4ce3-92c6-29026f8949b0)
    (property "Reference" "H4" (at 152.4 33.4553 0)
      (effects (font (size 1.27 1.27)) (justify left))
    )
    (property "Value" "MountingHole" (at 152.4 35.9922 0)
      (effects (font (size 1.27 1.27)) (justify left))
    )
    (property "Footprint" "MountingHole:MountingHole_2.2mm_M2" (at 149.86 34.29 0)
      (effects (font (size 1.27 1.27)) hide)
    )
    (property "Datasheet" "~" (at 149.86 34.29 0)
      (effects (font (size 1.27 1.27)) hide)
    )
    (instances
      (project "remote"
        (path "/a5d54026-40bd-45ab-a4c9-312f3def8456"
          (reference "H4") (unit 1)
        )
      )
    )
  )

  (symbol (lib_id "Connector:Conn_01x04_Male") (at 85.09 175.26 0) (unit 1)
    (in_bom yes) (on_board yes) (dnp no)
    (uuid 4387efae-6e54-49d6-bb51-0269534909cb)
    (property "Reference" "J4" (at 88.9 185.42 0)
      (effects (font (size 1.27 1.27)))
    )
    (property "Value" "Qwiic/STEMMA QT" (at 87.63 182.88 0)
      (effects (font (size 1.27 1.27)))
    )
    (property "Footprint" "Connector_JST:JST_SH_SM04B-SRSS-TB_1x04-1MP_P1.00mm_Horizontal" (at 85.09 175.26 0)
      (effects (font (size 1.27 1.27)) hide)
    )
    (property "Datasheet" "~" (at 85.09 175.26 0)
      (effects (font (size 1.27 1.27)) hide)
    )
    (pin "1" (uuid dd7e8ba2-c710-4576-a015-b70ee8e4c458))
    (pin "2" (uuid 3edae7a6-f9f8-46ed-86a1-f24f5072cff5))
    (pin "3" (uuid e899121c-9d99-4c8a-a068-3904e8ee9383))
    (pin "4" (uuid 0b7769b8-58a0-4a62-bd99-cdb8d806c3d5))
    (instances
      (project "remote"
        (path "/a5d54026-40bd-45ab-a4c9-312f3def8456"
          (reference "J4") (unit 1)
        )
      )
    )
  )

  (symbol (lib_id "MCP23009-E_SO:MCP23009-SO") (at 38.1 120.65 0) (unit 1)
    (in_bom yes) (on_board yes) (dnp no)
    (uuid 44ffde5d-a720-453b-a1ba-0d78875d79d1)
    (property "Reference" "U2" (at 36.83 96.52 0)
      (effects (font (size 1.27 1.27)) (justify left))
    )
    (property "Value" "MCP23009-SO" (at 31.75 99.06 0)
      (effects (font (size 1.27 1.27)) (justify left))
    )
    (property "Footprint" "Package_SO:SOIC-18W_7.5x11.6mm_P1.27mm" (at 38.1 147.32 0)
      (effects (font (size 1.27 1.27)) hide)
    )
    (property "Datasheet" "http://ww1.microchip.com/downloads/en/DeviceDoc/MCP23008-MCP23S08-Data-Sheet-20001919F.pdf" (at 71.12 151.13 0)
      (effects (font (size 1.27 1.27)) hide)
    )
    (pin "1" (uuid 990d1604-417e-4a11-82ce-d7abb0d959b2))
    (pin "10" (uuid f1bc6538-3f3c-45fe-93aa-74d63b905f2c))
    (pin "11" (uuid 561859b1-2ce9-4243-bedc-b0421d83aced))
    (pin "12" (uuid 742b61e6-9ca5-4a40-87e0-824eee4cd1f6))
    (pin "13" (uuid cbf3e31b-b96f-43ba-b3f5-78c40a520fc6))
    (pin "14" (uuid 752b35fe-8e9b-44b7-9160-e1ae510233a7))
    (pin "15" (uuid a495ff19-8f56-4ea4-ad2d-f23807627ea7))
    (pin "18" (uuid a33414ea-b3de-4848-b28a-baa5d8314a66))
    (pin "3" (uuid 4b4afec4-87c3-4bf5-832c-9ec5a0e84378))
    (pin "4" (uuid 364e1aa2-db47-46e5-8b26-ad5c78c9c5d2))
    (pin "5" (uuid b4befe06-34ca-4b5e-894b-425394f81e29))
    (pin "6" (uuid f5ef4c75-0769-424d-8520-c6f1f182168f))
    (pin "7" (uuid 337773aa-dbfd-4fa9-9337-157045b17fca))
    (pin "8" (uuid b01369fe-76e4-4d24-be5d-e5166f823974))
    (pin "9" (uuid 34c6dc22-f2e0-410f-b1b3-94460afb2557))
    (instances
      (project "remote"
        (path "/a5d54026-40bd-45ab-a4c9-312f3def8456"
          (reference "U2") (unit 1)
        )
      )
    )
  )

  (symbol (lib_id "power:GND") (at 88.9 30.48 0) (unit 1)
    (in_bom yes) (on_board yes) (dnp no) (fields_autoplaced)
    (uuid 4ab3e762-5b4a-4fc3-9e9b-726304986e55)
    (property "Reference" "#PWR022" (at 88.9 36.83 0)
      (effects (font (size 1.27 1.27)) hide)
    )
    (property "Value" "GND" (at 88.9 34.9234 0)
      (effects (font (size 1.27 1.27)))
    )
    (property "Footprint" "" (at 88.9 30.48 0)
      (effects (font (size 1.27 1.27)) hide)
    )
    (property "Datasheet" "" (at 88.9 30.48 0)
      (effects (font (size 1.27 1.27)) hide)
    )
    (pin "1" (uuid 7306c221-f98c-495b-8b1d-9677fd1b67bf))
    (instances
      (project "remote"
        (path "/a5d54026-40bd-45ab-a4c9-312f3def8456"
          (reference "#PWR022") (unit 1)
        )
      )
    )
  )

  (symbol (lib_id "power:GND") (at 135.89 128.27 0) (unit 1)
    (in_bom yes) (on_board yes) (dnp no) (fields_autoplaced)
    (uuid 4c1525e3-9276-4dd4-9a97-fa120c0bec67)
    (property "Reference" "#PWR0101" (at 135.89 134.62 0)
      (effects (font (size 1.27 1.27)) hide)
    )
    (property "Value" "GND" (at 135.89 132.7134 0)
      (effects (font (size 1.27 1.27)))
    )
    (property "Footprint" "" (at 135.89 128.27 0)
      (effects (font (size 1.27 1.27)) hide)
    )
    (property "Datasheet" "" (at 135.89 128.27 0)
      (effects (font (size 1.27 1.27)) hide)
    )
    (pin "1" (uuid a6e55b68-2364-4c20-b602-90b648a2c35d))
    (instances
      (project "remote"
        (path "/a5d54026-40bd-45ab-a4c9-312f3def8456"
          (reference "#PWR0101") (unit 1)
        )
      )
    )
  )

  (symbol (lib_id "power:GND") (at 40.64 76.2 0) (unit 1)
    (in_bom yes) (on_board yes) (dnp no) (fields_autoplaced)
    (uuid 50f95f4f-a59c-4b83-8620-071958a35a2d)
    (property "Reference" "#PWR09" (at 40.64 82.55 0)
      (effects (font (size 1.27 1.27)) hide)
    )
    (property "Value" "GND" (at 40.64 80.6434 0)
      (effects (font (size 1.27 1.27)))
    )
    (property "Footprint" "" (at 40.64 76.2 0)
      (effects (font (size 1.27 1.27)) hide)
    )
    (property "Datasheet" "" (at 40.64 76.2 0)
      (effects (font (size 1.27 1.27)) hide)
    )
    (pin "1" (uuid 5cc79bd9-698c-47da-9272-ce7fd8da6683))
    (instances
      (project "remote"
        (path "/a5d54026-40bd-45ab-a4c9-312f3def8456"
          (reference "#PWR09") (unit 1)
        )
      )
    )
  )

  (symbol (lib_id "power:+3V3") (at 114.3 97.79 0) (unit 1)
    (in_bom yes) (on_board yes) (dnp no) (fields_autoplaced)
    (uuid 53c08879-3deb-4961-9aa6-df70ef6b1d28)
    (property "Reference" "#PWR020" (at 114.3 101.6 0)
      (effects (font (size 1.27 1.27)) hide)
    )
    (property "Value" "+3V3" (at 114.3 94.2142 0)
      (effects (font (size 1.27 1.27)))
    )
    (property "Footprint" "" (at 114.3 97.79 0)
      (effects (font (size 1.27 1.27)) hide)
    )
    (property "Datasheet" "" (at 114.3 97.79 0)
      (effects (font (size 1.27 1.27)) hide)
    )
    (pin "1" (uuid c608d36c-d0a7-4242-ae32-1cd262f6b933))
    (instances
      (project "remote"
        (path "/a5d54026-40bd-45ab-a4c9-312f3def8456"
          (reference "#PWR020") (unit 1)
        )
      )
    )
  )

  (symbol (lib_id "power:+3V3") (at 97.79 172.72 0) (unit 1)
    (in_bom yes) (on_board yes) (dnp no)
    (uuid 5eabdb1e-ad3a-4059-af32-3dd516c114bd)
    (property "Reference" "#PWR019" (at 97.79 176.53 0)
      (effects (font (size 1.27 1.27)) hide)
    )
    (property "Value" "+3V3" (at 95.25 168.91 0)
      (effects (font (size 1.27 1.27)) (justify left))
    )
    (property "Footprint" "" (at 97.79 172.72 0)
      (effects (font (size 1.27 1.27)) hide)
    )
    (property "Datasheet" "" (at 97.79 172.72 0)
      (effects (font (size 1.27 1.27)) hide)
    )
    (pin "1" (uuid 04b24c09-de37-4792-93f8-db546447a90d))
    (instances
      (project "remote"
        (path "/a5d54026-40bd-45ab-a4c9-312f3def8456"
          (reference "#PWR019") (unit 1)
        )
      )
    )
  )

  (symbol (lib_id "power:GND") (at 92.71 172.72 180) (unit 1)
    (in_bom yes) (on_board yes) (dnp no) (fields_autoplaced)
    (uuid 5f379e33-5bcf-489d-af05-3284facdafc0)
    (property "Reference" "#PWR018" (at 92.71 166.37 0)
      (effects (font (size 1.27 1.27)) hide)
    )
    (property "Value" "GND" (at 92.71 169.1442 0)
      (effects (font (size 1.27 1.27)))
    )
    (property "Footprint" "" (at 92.71 172.72 0)
      (effects (font (size 1.27 1.27)) hide)
    )
    (property "Datasheet" "" (at 92.71 172.72 0)
      (effects (font (size 1.27 1.27)) hide)
    )
    (pin "1" (uuid 8ae44ac9-caf4-4cf0-8276-36fb424c8ecb))
    (instances
      (project "remote"
        (path "/a5d54026-40bd-45ab-a4c9-312f3def8456"
          (reference "#PWR018") (unit 1)
        )
      )
    )
  )

  (symbol (lib_id "Connector_Generic:Conn_02x03_Odd_Even") (at 60.96 177.8 0) (unit 1)
    (in_bom yes) (on_board yes) (dnp no)
    (uuid 5f4dbd51-6a38-4c46-b989-a3fc264db239)
    (property "Reference" "J3" (at 62.23 185.42 0)
      (effects (font (size 1.27 1.27)))
    )
    (property "Value" "PiOLED Connector" (at 62.23 182.88 0)
      (effects (font (size 1.27 1.27)))
    )
    (property "Footprint" "Connector_PinHeader_2.54mm:PinHeader_2x03_P2.54mm_Vertical" (at 60.96 177.8 0)
      (effects (font (size 1.27 1.27)) hide)
    )
    (property "Datasheet" "~" (at 60.96 177.8 0)
      (effects (font (size 1.27 1.27)) hide)
    )
    (pin "1" (uuid cdfa48d2-bf5f-4cb6-b74c-acece852689d))
    (pin "2" (uuid f6fcdc9b-e087-4762-869f-3ef285055f5d))
    (pin "3" (uuid acd03e1b-7371-4cb0-8b5b-2099966d0b4e))
    (pin "4" (uuid 5ba2a037-53f1-4dd8-a865-5bd86787b789))
    (pin "5" (uuid d2d5e3fd-9e36-4d3c-98f1-a792268a064b))
    (pin "6" (uuid d85d3989-2557-4291-8bdd-5b3cf3f3d817))
    (instances
      (project "remote"
        (path "/a5d54026-40bd-45ab-a4c9-312f3def8456"
          (reference "J3") (unit 1)
        )
      )
    )
  )

  (symbol (lib_id "Device:R") (at 69.85 26.67 0) (unit 1)
    (in_bom yes) (on_board yes) (dnp no) (fields_autoplaced)
    (uuid 605b6736-213c-42bf-abf7-6a0d4de806f9)
    (property "Reference" "R2" (at 71.628 25.8353 0)
      (effects (font (size 1.27 1.27)) (justify left))
    )
    (property "Value" "1000" (at 71.628 28.3722 0)
      (effects (font (size 1.27 1.27)) (justify left))
    )
    (property "Footprint" "Resistor_SMD:R_1206_3216Metric_Pad1.30x1.75mm_HandSolder" (at 68.072 26.67 90)
      (effects (font (size 1.27 1.27)) hide)
    )
    (property "Datasheet" "~" (at 69.85 26.67 0)
      (effects (font (size 1.27 1.27)) hide)
    )
    (pin "1" (uuid 59037f05-69d4-40e0-859a-53ec6cd2f9c2))
    (pin "2" (uuid c9d69eef-e920-4152-94df-2651f9f6c2f6))
    (instances
      (project "remote"
        (path "/a5d54026-40bd-45ab-a4c9-312f3def8456"
          (reference "R2") (unit 1)
        )
      )
    )
  )

  (symbol (lib_id "power:+5V") (at 22.86 24.13 90) (unit 1)
    (in_bom yes) (on_board yes) (dnp no)
    (uuid 60961a4a-dbaf-4fa3-a5c5-f84033053423)
    (property "Reference" "#PWR02" (at 26.67 24.13 0)
      (effects (font (size 1.27 1.27)) hide)
    )
    (property "Value" "+5V" (at 15.24 24.13 90)
      (effects (font (size 1.27 1.27)) (justify right))
    )
    (property "Footprint" "" (at 22.86 24.13 0)
      (effects (font (size 1.27 1.27)) hide)
    )
    (property "Datasheet" "" (at 22.86 24.13 0)
      (effects (font (size 1.27 1.27)) hide)
    )
    (pin "1" (uuid bdc65c61-713d-46ff-8263-e7cb7c57c4d6))
    (instances
      (project "remote"
        (path "/a5d54026-40bd-45ab-a4c9-312f3def8456"
          (reference "#PWR02") (unit 1)
        )
      )
    )
  )

  (symbol (lib_id "power:+3.3V") (at 19.05 110.49 0) (unit 1)
    (in_bom yes) (on_board yes) (dnp no) (fields_autoplaced)
    (uuid 6471f159-4df2-49d0-9969-329942802630)
    (property "Reference" "#PWR0102" (at 19.05 114.3 0)
      (effects (font (size 1.27 1.27)) hide)
    )
    (property "Value" "+3.3V" (at 19.05 106.9142 0)
      (effects (font (size 1.27 1.27)))
    )
    (property "Footprint" "" (at 19.05 110.49 0)
      (effects (font (size 1.27 1.27)) hide)
    )
    (property "Datasheet" "" (at 19.05 110.49 0)
      (effects (font (size 1.27 1.27)) hide)
    )
    (pin "1" (uuid 2a33a8cd-eb4a-4da2-8400-0673c9d36431))
    (instances
      (project "remote"
        (path "/a5d54026-40bd-45ab-a4c9-312f3def8456"
          (reference "#PWR0102") (unit 1)
        )
      )
    )
  )

  (symbol (lib_id "Regulator_Linear:AMS1117-3.3") (at 30.48 24.13 0) (unit 1)
    (in_bom yes) (on_board yes) (dnp no) (fields_autoplaced)
    (uuid 64e71535-1dc3-4e04-ae19-890e38ee709d)
    (property "Reference" "U1" (at 30.48 18.5252 0)
      (effects (font (size 1.27 1.27)))
    )
    (property "Value" "AMS1117-3.3" (at 30.48 21.0621 0)
      (effects (font (size 1.27 1.27)))
    )
    (property "Footprint" "Package_TO_SOT_SMD:SOT-223-3_TabPin2" (at 30.48 19.05 0)
      (effects (font (size 1.27 1.27)) hide)
    )
    (property "Datasheet" "http://www.advanced-monolithic.com/pdf/ds1117.pdf" (at 33.02 30.48 0)
      (effects (font (size 1.27 1.27)) hide)
    )
    (pin "1" (uuid decb607a-d00b-4cf3-bf48-4e7e75a2c0ad))
    (pin "2" (uuid 66e9777a-42b3-4f37-b366-4041d2deb890))
    (pin "3" (uuid 0f169ae5-1ca2-4729-822c-72d750c0ec35))
    (instances
      (project "remote"
        (path "/a5d54026-40bd-45ab-a4c9-312f3def8456"
          (reference "U1") (unit 1)
        )
      )
    )
  )

  (symbol (lib_id "Jumper:SolderJumper_2_Open") (at 130.81 128.27 0) (unit 1)
    (in_bom yes) (on_board yes) (dnp no)
    (uuid 65209781-dec5-467b-b93a-664feed18865)
    (property "Reference" "JP3" (at 138.684 128.27 0)
      (effects (font (size 1.27 1.27)))
    )
    (property "Value" "Display Rotate" (at 149.098 128.27 0)
      (effects (font (size 1.27 1.27)))
    )
    (property "Footprint" "Jumper:SolderJumper-2_P1.3mm_Open_TrianglePad1.0x1.5mm" (at 130.81 128.27 0)
      (effects (font (size 1.27 1.27)) hide)
    )
    (property "Datasheet" "~" (at 130.81 128.27 0)
      (effects (font (size 1.27 1.27)) hide)
    )
    (pin "1" (uuid 6e04c439-84ca-4fa1-95d1-679afeca7fa7))
    (pin "2" (uuid fb22477f-ef71-4c35-b785-0c1f9e8c5a4c))
    (instances
      (project "remote"
        (path "/a5d54026-40bd-45ab-a4c9-312f3def8456"
          (reference "JP3") (unit 1)
        )
      )
    )
  )

  (symbol (lib_id "power:GND") (at 68.58 180.34 90) (unit 1)
    (in_bom yes) (on_board yes) (dnp no) (fields_autoplaced)
    (uuid 6776b310-cadd-410d-85a9-c8fa6a0a65e8)
    (property "Reference" "#PWR015" (at 74.93 180.34 0)
      (effects (font (size 1.27 1.27)) hide)
    )
    (property "Value" "GND" (at 71.755 180.7738 90)
      (effects (font (size 1.27 1.27)) (justify right))
    )
    (property "Footprint" "" (at 68.58 180.34 0)
      (effects (font (size 1.27 1.27)) hide)
    )
    (property "Datasheet" "" (at 68.58 180.34 0)
      (effects (font (size 1.27 1.27)) hide)
    )
    (pin "1" (uuid 4d81bfb5-055a-4d8b-a2cf-b54e682967dd))
    (instances
      (project "remote"
        (path "/a5d54026-40bd-45ab-a4c9-312f3def8456"
          (reference "#PWR015") (unit 1)
        )
      )
    )
  )

  (symbol (lib_id "power:+5V") (at 30.48 71.12 270) (unit 1)
    (in_bom yes) (on_board yes) (dnp no) (fields_autoplaced)
    (uuid 68c622ad-ac29-4c59-968c-05d2c485b3a2)
    (property "Reference" "#PWR05" (at 26.67 71.12 0)
      (effects (font (size 1.27 1.27)) hide)
    )
    (property "Value" "+5V" (at 33.655 71.5538 90)
      (effects (font (size 1.27 1.27)) (justify left))
    )
    (property "Footprint" "" (at 30.48 71.12 0)
      (effects (font (size 1.27 1.27)) hide)
    )
    (property "Datasheet" "" (at 30.48 71.12 0)
      (effects (font (size 1.27 1.27)) hide)
    )
    (pin "1" (uuid f62f7f9e-fdc5-41da-9213-e94a8e819675))
    (instances
      (project "remote"
        (path "/a5d54026-40bd-45ab-a4c9-312f3def8456"
          (reference "#PWR05") (unit 1)
        )
      )
    )
  )

  (symbol (lib_id "Device:Buzzer") (at 116.84 105.41 0) (unit 1)
    (in_bom yes) (on_board yes) (dnp no) (fields_autoplaced)
    (uuid 739c6093-b04b-457a-aaf1-ef60eb687859)
    (property "Reference" "BZ1" (at 120.65 104.5753 0)
      (effects (font (size 1.27 1.27)) (justify left))
    )
    (property "Value" "Buzzer" (at 120.65 107.1122 0)
      (effects (font (size 1.27 1.27)) (justify left))
    )
    (property "Footprint" "modified ICs:7.6mm side mount buzzer" (at 116.205 102.87 90)
      (effects (font (size 1.27 1.27)) hide)
    )
    (property "Datasheet" "~" (at 116.205 102.87 90)
      (effects (font (size 1.27 1.27)) hide)
    )
    (pin "1" (uuid 10a3dc23-daee-448d-8457-08d407b9a423))
    (pin "2" (uuid 864a35af-5805-41da-888d-67d63c36ac08))
    (instances
      (project "remote"
        (path "/a5d54026-40bd-45ab-a4c9-312f3def8456"
          (reference "BZ1") (unit 1)
        )
      )
    )
  )

  (symbol (lib_id "Switch:SW_Push") (at 88.9 105.41 90) (unit 1)
    (in_bom yes) (on_board yes) (dnp no) (fields_autoplaced)
    (uuid 9d03b832-53e1-4163-9dbb-c797a9169120)
    (property "Reference" "SW3" (at 90.043 104.5753 90)
      (effects (font (size 1.27 1.27)) (justify right))
    )
    (property "Value" "Select" (at 90.043 107.1122 90)
      (effects (font (size 1.27 1.27)) (justify right))
    )
    (property "Footprint" "Button_Switch_THT:SW_PUSH_6mm" (at 83.82 105.41 0)
      (effects (font (size 1.27 1.27)) hide)
    )
    (property "Datasheet" "~" (at 83.82 105.41 0)
      (effects (font (size 1.27 1.27)) hide)
    )
    (pin "1" (uuid 7bb5ed4c-bcac-444d-a650-17b47cffb550))
    (pin "2" (uuid 43cde1b2-eef1-4bcb-9272-ad87c0b59292))
    (instances
      (project "remote"
        (path "/a5d54026-40bd-45ab-a4c9-312f3def8456"
          (reference "SW3") (unit 1)
        )
      )
    )
  )

  (symbol (lib_id "power:+5V") (at 59.817 66.04 270) (unit 1)
    (in_bom yes) (on_board yes) (dnp no)
    (uuid a78e4c11-485a-4340-be0b-3f8d374da7e5)
    (property "Reference" "#PWR01" (at 56.007 66.04 0)
      (effects (font (size 1.27 1.27)) hide)
    )
    (property "Value" "+5V" (at 64.897 66.04 90)
      (effects (font (size 1.27 1.27)))
    )
    (property "Footprint" "" (at 59.817 66.04 0)
      (effects (font (size 1.27 1.27)) hide)
    )
    (property "Datasheet" "" (at 59.817 66.04 0)
      (effects (font (size 1.27 1.27)) hide)
    )
    (pin "1" (uuid 96e0320c-3b28-4efa-b102-eb4d472430a6))
    (instances
      (project "remote"
        (path "/a5d54026-40bd-45ab-a4c9-312f3def8456"
          (reference "#PWR01") (unit 1)
        )
      )
      (project "ISA rev8"
        (path "/d1f04949-fb9b-4268-b5f3-6258a63d79ac"
          (reference "#PWR029") (unit 1)
        )
      )
    )
  )

  (symbol (lib_id "power:+3V3") (at 55.88 175.26 0) (unit 1)
    (in_bom yes) (on_board yes) (dnp no) (fields_autoplaced)
    (uuid ac2c690e-9975-4e76-bb2b-106bd6d6d2e2)
    (property "Reference" "#PWR012" (at 55.88 179.07 0)
      (effects (font (size 1.27 1.27)) hide)
    )
    (property "Value" "+3V3" (at 55.88 171.6842 0)
      (effects (font (size 1.27 1.27)))
    )
    (property "Footprint" "" (at 55.88 175.26 0)
      (effects (font (size 1.27 1.27)) hide)
    )
    (property "Datasheet" "" (at 55.88 175.26 0)
      (effects (font (size 1.27 1.27)) hide)
    )
    (pin "1" (uuid e2c5d101-a99e-44b6-8df0-1fcd46d5e198))
    (instances
      (project "remote"
        (path "/a5d54026-40bd-45ab-a4c9-312f3def8456"
          (reference "#PWR012") (unit 1)
        )
      )
    )
  )

  (symbol (lib_id "Device:R") (at 59.69 26.67 0) (unit 1)
    (in_bom yes) (on_board yes) (dnp no) (fields_autoplaced)
    (uuid b3875f4c-a400-430e-bf11-732cba8801c1)
    (property "Reference" "R1" (at 61.468 25.8353 0)
      (effects (font (size 1.27 1.27)) (justify left))
    )
    (property "Value" "1000" (at 61.468 28.3722 0)
      (effects (font (size 1.27 1.27)) (justify left))
    )
    (property "Footprint" "Resistor_SMD:R_1206_3216Metric_Pad1.30x1.75mm_HandSolder" (at 57.912 26.67 90)
      (effects (font (size 1.27 1.27)) hide)
    )
    (property "Datasheet" "~" (at 59.69 26.67 0)
      (effects (font (size 1.27 1.27)) hide)
    )
    (pin "1" (uuid 3a6bf67e-bed5-4c5e-9007-a446240f78d5))
    (pin "2" (uuid c497924a-976d-4d2d-b330-875793ea07e5))
    (instances
      (project "remote"
        (path "/a5d54026-40bd-45ab-a4c9-312f3def8456"
          (reference "R1") (unit 1)
        )
      )
    )
  )

  (symbol (lib_id "Switch:SW_Push") (at 76.2 105.41 90) (unit 1)
    (in_bom yes) (on_board yes) (dnp no) (fields_autoplaced)
    (uuid b594c12a-4e42-4ccc-9a4f-7d0d33af507d)
    (property "Reference" "SW4" (at 77.343 104.5753 90)
      (effects (font (size 1.27 1.27)) (justify right))
    )
    (property "Value" "Back" (at 77.343 107.1122 90)
      (effects (font (size 1.27 1.27)) (justify right))
    )
    (property "Footprint" "Button_Switch_THT:SW_PUSH_6mm" (at 71.12 105.41 0)
      (effects (font (size 1.27 1.27)) hide)
    )
    (property "Datasheet" "~" (at 71.12 105.41 0)
      (effects (font (size 1.27 1.27)) hide)
    )
    (pin "1" (uuid 2d00c168-ddd2-46c1-ac8e-2940b10a2b01))
    (pin "2" (uuid 11370cfb-5459-46e3-be74-8e54f57849bb))
    (instances
      (project "remote"
        (path "/a5d54026-40bd-45ab-a4c9-312f3def8456"
          (reference "SW4") (unit 1)
        )
      )
    )
  )

  (symbol (lib_id "power:+5V") (at 68.58 175.26 0) (unit 1)
    (in_bom yes) (on_board yes) (dnp no) (fields_autoplaced)
    (uuid b5d00170-c8d4-4b21-990c-945daa23b976)
    (property "Reference" "#PWR014" (at 68.58 179.07 0)
      (effects (font (size 1.27 1.27)) hide)
    )
    (property "Value" "+5V" (at 68.58 171.6842 0)
      (effects (font (size 1.27 1.27)))
    )
    (property "Footprint" "" (at 68.58 175.26 0)
      (effects (font (size 1.27 1.27)) hide)
    )
    (property "Datasheet" "" (at 68.58 175.26 0)
      (effects (font (size 1.27 1.27)) hide)
    )
    (pin "1" (uuid c29bbe03-9fcd-467d-a333-09ab149d148d))
    (instances
      (project "remote"
        (path "/a5d54026-40bd-45ab-a4c9-312f3def8456"
          (reference "#PWR014") (unit 1)
        )
      )
    )
  )

  (symbol (lib_id "Switch:SW_Push") (at 101.6 105.41 90) (unit 1)
    (in_bom yes) (on_board yes) (dnp no) (fields_autoplaced)
    (uuid bbc78732-42f9-4462-9321-13875f7e1a15)
    (property "Reference" "SW2" (at 102.743 104.5753 90)
      (effects (font (size 1.27 1.27)) (justify right))
    )
    (property "Value" "Down" (at 102.743 107.1122 90)
      (effects (font (size 1.27 1.27)) (justify right))
    )
    (property "Footprint" "Button_Switch_THT:SW_PUSH_6mm" (at 96.52 105.41 0)
      (effects (font (size 1.27 1.27)) hide)
    )
    (property "Datasheet" "~" (at 96.52 105.41 0)
      (effects (font (size 1.27 1.27)) hide)
    )
    (pin "1" (uuid 0c8b90a1-0510-4096-86b7-78a3014226b7))
    (pin "2" (uuid 30b3f7f8-52a6-41c8-9499-8305c2bfd166))
    (instances
      (project "remote"
        (path "/a5d54026-40bd-45ab-a4c9-312f3def8456"
          (reference "SW2") (unit 1)
        )
      )
    )
  )

  (symbol (lib_id "power:GND") (at 59.817 71.12 90) (unit 1)
    (in_bom yes) (on_board yes) (dnp no)
    (uuid c6c020be-a51f-4263-8f10-600448f656da)
    (property "Reference" "#PWR023" (at 66.167 71.12 0)
      (effects (font (size 1.27 1.27)) hide)
    )
    (property "Value" "GND" (at 64.897 71.12 90)
      (effects (font (size 1.27 1.27)))
    )
    (property "Footprint" "" (at 59.817 71.12 0)
      (effects (font (size 1.27 1.27)) hide)
    )
    (property "Datasheet" "" (at 59.817 71.12 0)
      (effects (font (size 1.27 1.27)) hide)
    )
    (pin "1" (uuid 15665a45-45ff-4800-8def-675b475f112b))
    (instances
      (project "remote"
        (path "/a5d54026-40bd-45ab-a4c9-312f3def8456"
          (reference "#PWR023") (unit 1)
        )
      )
      (project "ISA rev8"
        (path "/d1f04949-fb9b-4268-b5f3-6258a63d79ac"
          (reference "#PWR026") (unit 1)
        )
      )
    )
  )

  (symbol (lib_id "power:+5V") (at 45.72 172.72 0) (unit 1)
    (in_bom yes) (on_board yes) (dnp no)
    (uuid c9e9d280-b229-42a4-8fa1-84d0045b71bf)
    (property "Reference" "#PWR011" (at 45.72 176.53 0)
      (effects (font (size 1.27 1.27)) hide)
    )
    (property "Value" "+5V" (at 45.72 169.1442 0)
      (effects (font (size 1.27 1.27)))
    )
    (property "Footprint" "" (at 45.72 172.72 0)
      (effects (font (size 1.27 1.27)) hide)
    )
    (property "Datasheet" "" (at 45.72 172.72 0)
      (effects (font (size 1.27 1.27)) hide)
    )
    (pin "1" (uuid d3d59994-b8ee-4dd1-a582-3254f492f277))
    (instances
      (project "remote"
        (path "/a5d54026-40bd-45ab-a4c9-312f3def8456"
          (reference "#PWR011") (unit 1)
        )
      )
    )
  )

  (symbol (lib_id "Device:R") (at 82.55 93.98 0) (unit 1)
    (in_bom yes) (on_board yes) (dnp no) (fields_autoplaced)
    (uuid ca57086a-e4eb-4de2-80bc-04578774c2d9)
    (property "Reference" "R3" (at 84.328 93.1453 0)
      (effects (font (size 1.27 1.27)) (justify left))
    )
    (property "Value" "1000" (at 84.328 95.6822 0)
      (effects (font (size 1.27 1.27)) (justify left))
    )
    (property "Footprint" "Resistor_SMD:R_1206_3216Metric_Pad1.30x1.75mm_HandSolder" (at 80.772 93.98 90)
      (effects (font (size 1.27 1.27)) hide)
    )
    (property "Datasheet" "~" (at 82.55 93.98 0)
      (effects (font (size 1.27 1.27)) hide)
    )
    (pin "1" (uuid 6cfc2f0a-6fa7-4147-b4e7-736caf568f81))
    (pin "2" (uuid 7c16244d-b490-4828-92ec-d99358fa4c58))
    (instances
      (project "remote"
        (path "/a5d54026-40bd-45ab-a4c9-312f3def8456"
          (reference "R3") (unit 1)
        )
      )
    )
  )

  (symbol (lib_id "power:+3V3") (at 38.1 24.13 270) (unit 1)
    (in_bom yes) (on_board yes) (dnp no) (fields_autoplaced)
    (uuid d04c4c10-fbd9-440d-95c2-b947aa2a62c2)
    (property "Reference" "#PWR06" (at 34.29 24.13 0)
      (effects (font (size 1.27 1.27)) hide)
    )
    (property "Value" "+3V3" (at 41.275 24.5638 90)
      (effects (font (size 1.27 1.27)) (justify left))
    )
    (property "Footprint" "" (at 38.1 24.13 0)
      (effects (font (size 1.27 1.27)) hide)
    )
    (property "Datasheet" "" (at 38.1 24.13 0)
      (effects (font (size 1.27 1.27)) hide)
    )
    (pin "1" (uuid 420c2924-9744-4455-b976-fdc143581c0c))
    (instances
      (project "remote"
        (path "/a5d54026-40bd-45ab-a4c9-312f3def8456"
          (reference "#PWR06") (unit 1)
        )
      )
    )
  )

  (symbol (lib_id "power:GND") (at 25.4 130.81 0) (unit 1)
    (in_bom yes) (on_board yes) (dnp no) (fields_autoplaced)
    (uuid eb2afb7a-bdf6-45ba-97c2-e23a796abb08)
    (property "Reference" "#PWR03" (at 25.4 137.16 0)
      (effects (font (size 1.27 1.27)) hide)
    )
    (property "Value" "GND" (at 25.4 135.2534 0)
      (effects (font (size 1.27 1.27)))
    )
    (property "Footprint" "" (at 25.4 130.81 0)
      (effects (font (size 1.27 1.27)) hide)
    )
    (property "Datasheet" "" (at 25.4 130.81 0)
      (effects (font (size 1.27 1.27)) hide)
    )
    (pin "1" (uuid 9414360e-57c3-4ae3-b8c1-5ec0bc18d118))
    (instances
      (project "remote"
        (path "/a5d54026-40bd-45ab-a4c9-312f3def8456"
          (reference "#PWR03") (unit 1)
        )
      )
    )
  )

  (symbol (lib_id "Switch:SW_Push") (at 63.5 105.41 90) (unit 1)
    (in_bom yes) (on_board yes) (dnp no) (fields_autoplaced)
    (uuid eb606aec-5260-4080-a2c8-ade57d044752)
    (property "Reference" "SW1" (at 64.643 104.5753 90)
      (effects (font (size 1.27 1.27)) (justify right))
    )
    (property "Value" "Up" (at 64.643 107.1122 90)
      (effects (font (size 1.27 1.27)) (justify right))
    )
    (property "Footprint" "Button_Switch_THT:SW_PUSH_6mm" (at 58.42 105.41 0)
      (effects (font (size 1.27 1.27)) hide)
    )
    (property "Datasheet" "~" (at 58.42 105.41 0)
      (effects (font (size 1.27 1.27)) hide)
    )
    (pin "1" (uuid 62069704-10d1-42c3-b04d-35d543727894))
    (pin "2" (uuid d6180e92-c2d8-49b1-8cfc-56cff499a0cd))
    (instances
      (project "remote"
        (path "/a5d54026-40bd-45ab-a4c9-312f3def8456"
          (reference "SW1") (unit 1)
        )
      )
    )
  )

  (symbol (lib_id "power:+3V3") (at 88.9 22.86 0) (unit 1)
    (in_bom yes) (on_board yes) (dnp no) (fields_autoplaced)
    (uuid fb74a593-f54a-4600-8f22-54f23c97b1f5)
    (property "Reference" "#PWR021" (at 88.9 26.67 0)
      (effects (font (size 1.27 1.27)) hide)
    )
    (property "Value" "+3V3" (at 88.9 19.2842 0)
      (effects (font (size 1.27 1.27)))
    )
    (property "Footprint" "" (at 88.9 22.86 0)
      (effects (font (size 1.27 1.27)) hide)
    )
    (property "Datasheet" "" (at 88.9 22.86 0)
      (effects (font (size 1.27 1.27)) hide)
    )
    (pin "1" (uuid 9a37f4df-8eee-4be9-ae4b-78e93d256303))
    (instances
      (project "remote"
        (path "/a5d54026-40bd-45ab-a4c9-312f3def8456"
          (reference "#PWR021") (unit 1)
        )
      )
    )
  )

  (symbol (lib_id "Mechanical:MountingHole") (at 149.86 24.13 0) (unit 1)
    (in_bom yes) (on_board yes) (dnp no) (fields_autoplaced)
    (uuid ffa17909-9103-4ac0-90d6-30606a45a447)
    (property "Reference" "H2" (at 152.4 23.2953 0)
      (effects (font (size 1.27 1.27)) (justify left))
    )
    (property "Value" "MountingHole" (at 152.4 25.8322 0)
      (effects (font (size 1.27 1.27)) (justify left))
    )
    (property "Footprint" "MountingHole:MountingHole_2.2mm_M2" (at 149.86 24.13 0)
      (effects (font (size 1.27 1.27)) hide)
    )
    (property "Datasheet" "~" (at 149.86 24.13 0)
      (effects (font (size 1.27 1.27)) hide)
    )
    (instances
      (project "remote"
        (path "/a5d54026-40bd-45ab-a4c9-312f3def8456"
          (reference "H2") (unit 1)
        )
      )
    )
  )

  (sheet_instances
    (path "/" (page "1"))
  )
)
