(kicad_sch (version 20230121) (generator eeschema)

  (uuid 69cceaac-6f1b-4182-8e1c-91402953f92a)

  (paper "A4")

  (title_block
    (title "WarpSE (GW4410A)")
    (date "2024-04-23")
    (rev "1.0")
    (company "Garrett's Workshop")
  )

  (lib_symbols
    (symbol "Connector_Generic:Conn_01x02" (pin_names (offset 1.016) hide) (in_bom yes) (on_board yes)
      (property "Reference" "J" (at 0 2.54 0)
        (effects (font (size 1.27 1.27)))
      )
      (property "Value" "Conn_01x02" (at 0 -5.08 0)
        (effects (font (size 1.27 1.27)))
      )
      (property "Footprint" "" (at 0 0 0)
        (effects (font (size 1.27 1.27)) hide)
      )
      (property "Datasheet" "~" (at 0 0 0)
        (effects (font (size 1.27 1.27)) hide)
      )
      (property "ki_keywords" "connector" (at 0 0 0)
        (effects (font (size 1.27 1.27)) hide)
      )
      (property "ki_description" "Generic connector, single row, 01x02, script generated (kicad-library-utils/schlib/autogen/connector/)" (at 0 0 0)
        (effects (font (size 1.27 1.27)) hide)
      )
      (property "ki_fp_filters" "Connector*:*_1x??_*" (at 0 0 0)
        (effects (font (size 1.27 1.27)) hide)
      )
      (symbol "Conn_01x02_1_1"
        (rectangle (start -1.27 -2.413) (end 0 -2.667)
          (stroke (width 0.1524) (type default))
          (fill (type none))
        )
        (rectangle (start -1.27 0.127) (end 0 -0.127)
          (stroke (width 0.1524) (type default))
          (fill (type none))
        )
        (rectangle (start -1.27 1.27) (end 1.27 -3.81)
          (stroke (width 0.254) (type default))
          (fill (type background))
        )
        (pin passive line (at -5.08 0 0) (length 3.81)
          (name "Pin_1" (effects (font (size 1.27 1.27))))
          (number "1" (effects (font (size 1.27 1.27))))
        )
        (pin passive line (at -5.08 -2.54 0) (length 3.81)
          (name "Pin_2" (effects (font (size 1.27 1.27))))
          (number "2" (effects (font (size 1.27 1.27))))
        )
      )
    )
    (symbol "Device:C_Small" (pin_numbers hide) (pin_names (offset 0.254) hide) (in_bom yes) (on_board yes)
      (property "Reference" "C" (at 0.254 1.778 0)
        (effects (font (size 1.27 1.27)) (justify left))
      )
      (property "Value" "C_Small" (at 0.254 -2.032 0)
        (effects (font (size 1.27 1.27)) (justify left))
      )
      (property "Footprint" "" (at 0 0 0)
        (effects (font (size 1.27 1.27)) hide)
      )
      (property "Datasheet" "~" (at 0 0 0)
        (effects (font (size 1.27 1.27)) hide)
      )
      (property "ki_keywords" "capacitor cap" (at 0 0 0)
        (effects (font (size 1.27 1.27)) hide)
      )
      (property "ki_description" "Unpolarized capacitor, small symbol" (at 0 0 0)
        (effects (font (size 1.27 1.27)) hide)
      )
      (property "ki_fp_filters" "C_*" (at 0 0 0)
        (effects (font (size 1.27 1.27)) hide)
      )
      (symbol "C_Small_0_1"
        (polyline
          (pts
            (xy -1.524 -0.508)
            (xy 1.524 -0.508)
          )
          (stroke (width 0.3302) (type default))
          (fill (type none))
        )
        (polyline
          (pts
            (xy -1.524 0.508)
            (xy 1.524 0.508)
          )
          (stroke (width 0.3048) (type default))
          (fill (type none))
        )
      )
      (symbol "C_Small_1_1"
        (pin passive line (at 0 2.54 270) (length 2.032)
          (name "~" (effects (font (size 1.27 1.27))))
          (number "1" (effects (font (size 1.27 1.27))))
        )
        (pin passive line (at 0 -2.54 90) (length 2.032)
          (name "~" (effects (font (size 1.27 1.27))))
          (number "2" (effects (font (size 1.27 1.27))))
        )
      )
    )
    (symbol "Device:R_Small" (pin_numbers hide) (pin_names (offset 0.254) hide) (in_bom yes) (on_board yes)
      (property "Reference" "R" (at 0.762 0.508 0)
        (effects (font (size 1.27 1.27)) (justify left))
      )
      (property "Value" "R_Small" (at 0.762 -1.016 0)
        (effects (font (size 1.27 1.27)) (justify left))
      )
      (property "Footprint" "" (at 0 0 0)
        (effects (font (size 1.27 1.27)) hide)
      )
      (property "Datasheet" "~" (at 0 0 0)
        (effects (font (size 1.27 1.27)) hide)
      )
      (property "ki_keywords" "R resistor" (at 0 0 0)
        (effects (font (size 1.27 1.27)) hide)
      )
      (property "ki_description" "Resistor, small symbol" (at 0 0 0)
        (effects (font (size 1.27 1.27)) hide)
      )
      (property "ki_fp_filters" "R_*" (at 0 0 0)
        (effects (font (size 1.27 1.27)) hide)
      )
      (symbol "R_Small_0_1"
        (rectangle (start -0.762 1.778) (end 0.762 -1.778)
          (stroke (width 0.2032) (type default))
          (fill (type none))
        )
      )
      (symbol "R_Small_1_1"
        (pin passive line (at 0 2.54 270) (length 0.762)
          (name "~" (effects (font (size 1.27 1.27))))
          (number "1" (effects (font (size 1.27 1.27))))
        )
        (pin passive line (at 0 -2.54 90) (length 0.762)
          (name "~" (effects (font (size 1.27 1.27))))
          (number "2" (effects (font (size 1.27 1.27))))
        )
      )
    )
    (symbol "GW_Logic:741G74DC" (pin_names (offset 1.016)) (in_bom yes) (on_board yes)
      (property "Reference" "U" (at 0 7.62 0)
        (effects (font (size 1.27 1.27)))
      )
      (property "Value" "741G74DC" (at 0 -7.62 0)
        (effects (font (size 1.27 1.27)))
      )
      (property "Footprint" "stdpads:SOT-353" (at 0 -8.89 0)
        (effects (font (size 1.27 1.27)) (justify top) hide)
      )
      (property "Datasheet" "" (at 0 -5.08 0)
        (effects (font (size 1.524 1.524)) hide)
      )
      (symbol "741G74DC_0_1"
        (rectangle (start 5.08 -6.35) (end -5.08 6.35)
          (stroke (width 0.254) (type default))
          (fill (type background))
        )
      )
      (symbol "741G74DC_1_1"
        (pin input line (at -10.16 -3.81 0) (length 5.08)
          (name "CK" (effects (font (size 1.27 1.27))))
          (number "1" (effects (font (size 1.27 1.27))))
        )
        (pin input line (at -10.16 3.81 0) (length 5.08)
          (name "D" (effects (font (size 1.27 1.27))))
          (number "2" (effects (font (size 1.27 1.27))))
        )
        (pin output line (at 10.16 -1.27 180) (length 5.08)
          (name "~{Q}" (effects (font (size 1.27 1.27))))
          (number "3" (effects (font (size 1.27 1.27))))
        )
        (pin power_in line (at 10.16 -3.81 180) (length 5.08)
          (name "GND" (effects (font (size 1.27 1.27))))
          (number "4" (effects (font (size 1.27 1.27))))
        )
        (pin output line (at 10.16 1.27 180) (length 5.08)
          (name "Q" (effects (font (size 1.27 1.27))))
          (number "5" (effects (font (size 1.27 1.27))))
        )
        (pin input line (at -10.16 -1.27 0) (length 5.08)
          (name "~{R}" (effects (font (size 1.27 1.27))))
          (number "6" (effects (font (size 1.27 1.27))))
        )
        (pin input line (at -10.16 1.27 0) (length 5.08)
          (name "~{S}" (effects (font (size 1.27 1.27))))
          (number "7" (effects (font (size 1.27 1.27))))
        )
        (pin power_in line (at 10.16 3.81 180) (length 5.08)
          (name "Vcc" (effects (font (size 1.27 1.27))))
          (number "8" (effects (font (size 1.27 1.27))))
        )
      )
    )
    (symbol "GW_Logic:Oscillator_4P" (pin_names (offset 1.016)) (in_bom yes) (on_board yes)
      (property "Reference" "U" (at 0 6.35 0)
        (effects (font (size 1.27 1.27)))
      )
      (property "Value" "Oscillator_4P" (at 0 -3.81 0)
        (effects (font (size 1.27 1.27)))
      )
      (property "Footprint" "" (at 0 0 0)
        (effects (font (size 1.27 1.27)) hide)
      )
      (property "Datasheet" "" (at 0 0 0)
        (effects (font (size 1.27 1.27)) hide)
      )
      (symbol "Oscillator_4P_0_1"
        (rectangle (start -6.35 5.08) (end 6.35 -2.54)
          (stroke (width 0.254) (type default))
          (fill (type background))
        )
      )
      (symbol "Oscillator_4P_1_1"
        (pin input line (at -8.89 2.54 0) (length 2.54)
          (name "EN" (effects (font (size 1.27 1.27))))
          (number "1" (effects (font (size 1.27 1.27))))
        )
        (pin power_in line (at -8.89 0 0) (length 2.54)
          (name "GND" (effects (font (size 1.27 1.27))))
          (number "2" (effects (font (size 1.27 1.27))))
        )
        (pin output line (at 8.89 0 180) (length 2.54)
          (name "Output" (effects (font (size 1.27 1.27))))
          (number "3" (effects (font (size 1.27 1.27))))
        )
        (pin power_in line (at 8.89 2.54 180) (length 2.54)
          (name "Vdd" (effects (font (size 1.27 1.27))))
          (number "4" (effects (font (size 1.27 1.27))))
        )
      )
    )
    (symbol "power:+3V3" (power) (pin_names (offset 0)) (in_bom yes) (on_board yes)
      (property "Reference" "#PWR" (at 0 -3.81 0)
        (effects (font (size 1.27 1.27)) hide)
      )
      (property "Value" "+3V3" (at 0 3.556 0)
        (effects (font (size 1.27 1.27)))
      )
      (property "Footprint" "" (at 0 0 0)
        (effects (font (size 1.27 1.27)) hide)
      )
      (property "Datasheet" "" (at 0 0 0)
        (effects (font (size 1.27 1.27)) hide)
      )
      (property "ki_keywords" "power-flag" (at 0 0 0)
        (effects (font (size 1.27 1.27)) hide)
      )
      (property "ki_description" "Power symbol creates a global label with name \"+3V3\"" (at 0 0 0)
        (effects (font (size 1.27 1.27)) hide)
      )
      (symbol "+3V3_0_1"
        (polyline
          (pts
            (xy -0.762 1.27)
            (xy 0 2.54)
          )
          (stroke (width 0) (type default))
          (fill (type none))
        )
        (polyline
          (pts
            (xy 0 0)
            (xy 0 2.54)
          )
          (stroke (width 0) (type default))
          (fill (type none))
        )
        (polyline
          (pts
            (xy 0 2.54)
            (xy 0.762 1.27)
          )
          (stroke (width 0) (type default))
          (fill (type none))
        )
      )
      (symbol "+3V3_1_1"
        (pin power_in line (at 0 0 90) (length 0) hide
          (name "+3V3" (effects (font (size 1.27 1.27))))
          (number "1" (effects (font (size 1.27 1.27))))
        )
      )
    )
    (symbol "power:+5V" (power) (pin_names (offset 0)) (in_bom yes) (on_board yes)
      (property "Reference" "#PWR" (at 0 -3.81 0)
        (effects (font (size 1.27 1.27)) hide)
      )
      (property "Value" "+5V" (at 0 3.556 0)
        (effects (font (size 1.27 1.27)))
      )
      (property "Footprint" "" (at 0 0 0)
        (effects (font (size 1.27 1.27)) hide)
      )
      (property "Datasheet" "" (at 0 0 0)
        (effects (font (size 1.27 1.27)) hide)
      )
      (property "ki_keywords" "global power" (at 0 0 0)
        (effects (font (size 1.27 1.27)) hide)
      )
      (property "ki_description" "Power symbol creates a global label with name \"+5V\"" (at 0 0 0)
        (effects (font (size 1.27 1.27)) hide)
      )
      (symbol "+5V_0_1"
        (polyline
          (pts
            (xy -0.762 1.27)
            (xy 0 2.54)
          )
          (stroke (width 0) (type default))
          (fill (type none))
        )
        (polyline
          (pts
            (xy 0 0)
            (xy 0 2.54)
          )
          (stroke (width 0) (type default))
          (fill (type none))
        )
        (polyline
          (pts
            (xy 0 2.54)
            (xy 0.762 1.27)
          )
          (stroke (width 0) (type default))
          (fill (type none))
        )
      )
      (symbol "+5V_1_1"
        (pin power_in line (at 0 0 90) (length 0) hide
          (name "+5V" (effects (font (size 1.27 1.27))))
          (number "1" (effects (font (size 1.27 1.27))))
        )
      )
    )
    (symbol "power:GND" (power) (pin_names (offset 0)) (in_bom yes) (on_board yes)
      (property "Reference" "#PWR" (at 0 -6.35 0)
        (effects (font (size 1.27 1.27)) hide)
      )
      (property "Value" "GND" (at 0 -3.81 0)
        (effects (font (size 1.27 1.27)))
      )
      (property "Footprint" "" (at 0 0 0)
        (effects (font (size 1.27 1.27)) hide)
      )
      (property "Datasheet" "" (at 0 0 0)
        (effects (font (size 1.27 1.27)) hide)
      )
      (property "ki_keywords" "power-flag" (at 0 0 0)
        (effects (font (size 1.27 1.27)) hide)
      )
      (property "ki_description" "Power symbol creates a global label with name \"GND\" , ground" (at 0 0 0)
        (effects (font (size 1.27 1.27)) hide)
      )
      (symbol "GND_0_1"
        (polyline
          (pts
            (xy 0 0)
            (xy 0 -1.27)
            (xy 1.27 -1.27)
            (xy 0 -2.54)
            (xy -1.27 -1.27)
            (xy 0 -1.27)
          )
          (stroke (width 0) (type default))
          (fill (type none))
        )
      )
      (symbol "GND_1_1"
        (pin power_in line (at 0 0 270) (length 0) hide
          (name "GND" (effects (font (size 1.27 1.27))))
          (number "1" (effects (font (size 1.27 1.27))))
        )
      )
    )
  )

  (junction (at 138.43 77.47) (diameter 0) (color 0 0 0 0)
    (uuid 03605e6a-5ba2-4f61-83e7-b123ce4a3b9a)
  )
  (junction (at 88.9 105.41) (diameter 0) (color 0 0 0 0)
    (uuid 1710de41-8fe6-4c78-a2c2-feb8a6419f71)
  )
  (junction (at 146.05 95.25) (diameter 0) (color 0 0 0 0)
    (uuid 3275bde5-0b94-48c4-97e4-a8cfe527403b)
  )
  (junction (at 184.15 72.39) (diameter 0) (color 0 0 0 0)
    (uuid 45bc845d-b910-410f-9614-8998f21264f8)
  )
  (junction (at 148.59 92.71) (diameter 0) (color 0 0 0 0)
    (uuid 4a91fece-1a3e-4300-b2fd-585857dccdd8)
  )
  (junction (at 143.51 77.47) (diameter 0) (color 0 0 0 0)
    (uuid 4d97c94d-78f6-4f06-848a-a4bcfebfcdbc)
  )
  (junction (at 113.03 77.47) (diameter 0) (color 0 0 0 0)
    (uuid 5ebc1cdd-f290-4399-ae10-1d59c3ed6dc2)
  )
  (junction (at 176.53 95.25) (diameter 0) (color 0 0 0 0)
    (uuid 6b523de0-1928-4468-a14f-5db44022217c)
  )
  (junction (at 100.33 74.93) (diameter 0) (color 0 0 0 0)
    (uuid 9ad35ec8-cd30-48a0-89dd-61b718c6d652)
  )
  (junction (at 146.05 72.39) (diameter 0) (color 0 0 0 0)
    (uuid a7ce0b7c-1c92-42f2-8e99-727241a0e88c)
  )
  (junction (at 99.06 110.49) (diameter 0) (color 0 0 0 0)
    (uuid c3909ef8-3ccd-4247-8dc1-21a40239befa)
  )
  (junction (at 88.9 110.49) (diameter 0) (color 0 0 0 0)
    (uuid e8531c3a-ab79-4096-b3fb-b5b6ae94c3f7)
  )
  (junction (at 78.74 105.41) (diameter 0) (color 0 0 0 0)
    (uuid ea7f95ca-1368-4ccc-b3c5-17a85c05a2dd)
  )

  (no_connect (at 171.45 74.93) (uuid d20da2eb-c473-46cd-aa3a-99172be7fc03))

  (wire (pts (xy 177.8 72.39) (xy 171.45 72.39))
    (stroke (width 0) (type default))
    (uuid 03d1e307-f6ed-4547-8970-076c49ef6cdd)
  )
  (wire (pts (xy 173.99 105.41) (xy 148.59 105.41))
    (stroke (width 0) (type default))
    (uuid 04f8279c-fc2f-40e9-8af4-960ff34aa1e8)
  )
  (wire (pts (xy 143.51 100.33) (xy 151.13 100.33))
    (stroke (width 0) (type default))
    (uuid 0638a032-f686-4099-aaca-4916c4e6350f)
  )
  (wire (pts (xy 171.45 95.25) (xy 176.53 95.25))
    (stroke (width 0) (type default))
    (uuid 072d3f65-5236-4c4e-a6b4-c7bf826c931b)
  )
  (wire (pts (xy 143.51 74.93) (xy 151.13 74.93))
    (stroke (width 0) (type default))
    (uuid 087dbf91-423c-4631-a590-22b79a467a1b)
  )
  (wire (pts (xy 78.74 110.49) (xy 88.9 110.49))
    (stroke (width 0) (type default))
    (uuid 1416f46f-efcf-4c99-81af-d39cf81f2652)
  )
  (wire (pts (xy 180.34 80.01) (xy 184.15 80.01))
    (stroke (width 0) (type default))
    (uuid 1f3d838e-5685-4ec1-914f-1f579871733f)
  )
  (wire (pts (xy 173.99 97.79) (xy 173.99 105.41))
    (stroke (width 0) (type default))
    (uuid 2a5568aa-8ba5-43fa-b22a-5d599d50858c)
  )
  (wire (pts (xy 180.34 87.63) (xy 180.34 86.36))
    (stroke (width 0) (type default))
    (uuid 372332df-af0b-4c1d-95e0-5353862efcac)
  )
  (wire (pts (xy 173.99 97.79) (xy 171.45 97.79))
    (stroke (width 0) (type default))
    (uuid 4086bdc8-6c63-4c0b-9603-4f6d851634f4)
  )
  (wire (pts (xy 146.05 97.79) (xy 146.05 95.25))
    (stroke (width 0) (type default))
    (uuid 4c7ae8f4-0148-4ca3-b4f4-098c5ed05cb9)
  )
  (wire (pts (xy 151.13 69.85) (xy 148.59 69.85))
    (stroke (width 0) (type default))
    (uuid 4ca75573-239f-4ba2-9a6d-4846019594fd)
  )
  (wire (pts (xy 146.05 72.39) (xy 146.05 95.25))
    (stroke (width 0) (type default))
    (uuid 5a8c557b-c17d-4929-973a-1507112a8dff)
  )
  (wire (pts (xy 184.15 72.39) (xy 185.42 72.39))
    (stroke (width 0) (type default))
    (uuid 5edfb289-94ad-495e-9b21-110fb884233c)
  )
  (wire (pts (xy 148.59 92.71) (xy 151.13 92.71))
    (stroke (width 0) (type default))
    (uuid 5fa5a820-06b1-4fc3-963c-8b10ea7cee42)
  )
  (wire (pts (xy 146.05 72.39) (xy 151.13 72.39))
    (stroke (width 0) (type default))
    (uuid 6317244d-8952-406f-93d3-45bcef8b31f5)
  )
  (wire (pts (xy 138.43 77.47) (xy 143.51 77.47))
    (stroke (width 0) (type default))
    (uuid 650f099a-4f6d-4409-95e7-adb865d570a8)
  )
  (wire (pts (xy 138.43 90.17) (xy 137.16 90.17))
    (stroke (width 0) (type default))
    (uuid 652cd889-b73e-4451-8178-e90dccb85724)
  )
  (wire (pts (xy 97.79 74.93) (xy 100.33 74.93))
    (stroke (width 0) (type default))
    (uuid 7a96be59-a011-4636-ad8b-6c789a4637ab)
  )
  (wire (pts (xy 88.9 110.49) (xy 99.06 110.49))
    (stroke (width 0) (type default))
    (uuid 8fa789eb-90f4-432d-9935-8ebb05e6df5a)
  )
  (wire (pts (xy 180.34 80.01) (xy 180.34 81.28))
    (stroke (width 0) (type default))
    (uuid 96445813-1857-42b6-81e4-53658e91d7e2)
  )
  (wire (pts (xy 176.53 95.25) (xy 177.8 95.25))
    (stroke (width 0) (type default))
    (uuid 97bb2434-5a1d-4881-909b-36883592f7dd)
  )
  (wire (pts (xy 176.53 87.63) (xy 176.53 95.25))
    (stroke (width 0) (type default))
    (uuid a69ae93a-7af1-4924-98fe-0889446ad20b)
  )
  (wire (pts (xy 78.74 105.41) (xy 88.9 105.41))
    (stroke (width 0) (type default))
    (uuid ad8c2a20-27d0-4e2a-aabf-44a509bf342a)
  )
  (wire (pts (xy 176.53 87.63) (xy 180.34 87.63))
    (stroke (width 0) (type default))
    (uuid b3a65e8a-a691-493b-b732-a7424e80544f)
  )
  (wire (pts (xy 146.05 97.79) (xy 151.13 97.79))
    (stroke (width 0) (type default))
    (uuid b579e3ab-be44-48c9-bcf9-bc4478142ba2)
  )
  (wire (pts (xy 88.9 105.41) (xy 99.06 105.41))
    (stroke (width 0) (type default))
    (uuid b5ac8070-845b-42d5-abf0-a989b476f878)
  )
  (wire (pts (xy 182.88 95.25) (xy 185.42 95.25))
    (stroke (width 0) (type default))
    (uuid b920fcd6-6346-40cc-b53b-6468e426dbe3)
  )
  (wire (pts (xy 138.43 77.47) (xy 138.43 90.17))
    (stroke (width 0) (type default))
    (uuid b9d5ca06-6660-4967-9998-98b15cf035b3)
  )
  (wire (pts (xy 97.79 77.47) (xy 113.03 77.47))
    (stroke (width 0) (type default))
    (uuid bad5f0d4-4809-45da-9872-e3f3ca11426f)
  )
  (wire (pts (xy 182.88 72.39) (xy 184.15 72.39))
    (stroke (width 0) (type default))
    (uuid bc037087-a4ca-4ca9-ac47-bbc1277954a3)
  )
  (wire (pts (xy 143.51 77.47) (xy 151.13 77.47))
    (stroke (width 0) (type default))
    (uuid bf3dac85-7772-43a9-90c3-d06ab88f5d01)
  )
  (wire (pts (xy 143.51 77.47) (xy 143.51 100.33))
    (stroke (width 0) (type default))
    (uuid c0e1b154-93e7-492f-beed-fb3fd9713c3a)
  )
  (wire (pts (xy 146.05 95.25) (xy 151.13 95.25))
    (stroke (width 0) (type default))
    (uuid c7a8b1e6-037a-4505-9503-045cbb2a90c8)
  )
  (wire (pts (xy 184.15 72.39) (xy 184.15 80.01))
    (stroke (width 0) (type default))
    (uuid cb2c36e0-76f6-4068-8d0f-ea6a80edfb62)
  )
  (wire (pts (xy 148.59 105.41) (xy 148.59 92.71))
    (stroke (width 0) (type default))
    (uuid cba803bf-774b-4060-8fdb-f4f45272a12e)
  )
  (wire (pts (xy 148.59 69.85) (xy 148.59 92.71))
    (stroke (width 0) (type default))
    (uuid d8f919a0-e6b3-431c-9a47-8cad1728a744)
  )
  (wire (pts (xy 132.08 77.47) (xy 130.81 77.47))
    (stroke (width 0) (type default))
    (uuid df54a223-14d1-4635-8d19-8b22a3f64245)
  )
  (wire (pts (xy 137.16 77.47) (xy 138.43 77.47))
    (stroke (width 0) (type default))
    (uuid e1b305a9-ad3b-4bd8-bf32-71fc5bef994d)
  )
  (wire (pts (xy 100.33 74.93) (xy 113.03 74.93))
    (stroke (width 0) (type default))
    (uuid fee80f93-dd16-4c6f-8cc7-86636a09888e)
  )

  (label "CLKEN" (at 113.03 74.93 180) (fields_autoplaced)
    (effects (font (size 1.27 1.27)) (justify right bottom))
    (uuid 631bbf26-27e6-48d2-b3d6-f0ea9ad1e6ce)
  )

  (hierarchical_label "MCKE" (shape input) (at 143.51 74.93 180) (fields_autoplaced)
    (effects (font (size 1.27 1.27)) (justify right))
    (uuid 18a9dea8-caa6-40a3-962a-7699d9146e17)
  )
  (hierarchical_label "FCLK" (shape output) (at 185.42 95.25 0) (fields_autoplaced)
    (effects (font (size 1.27 1.27)) (justify left))
    (uuid 462f8e7e-09c6-4676-ba4f-fd07b2868aa8)
  )
  (hierarchical_label "MCLK" (shape output) (at 185.42 72.39 0) (fields_autoplaced)
    (effects (font (size 1.27 1.27)) (justify left))
    (uuid bbeadbd3-dc9d-4bb3-9f60-a643fa1fa7e6)
  )

  (symbol (lib_id "Device:C_Small") (at 78.74 107.95 0) (unit 1)
    (in_bom yes) (on_board yes) (dnp no)
    (uuid 00000000-0000-0000-0000-0000613b711a)
    (property "Reference" "C5" (at 80.01 106.68 0)
      (effects (font (size 1.27 1.27)) (justify left))
    )
    (property "Value" "2u2" (at 80.01 109.22 0)
      (effects (font (size 1.27 1.27)) (justify left))
    )
    (property "Footprint" "stdpads:C_0603" (at 78.74 107.95 0)
      (effects (font (size 1.27 1.27)) hide)
    )
    (property "Datasheet" "" (at 78.74 107.95 0)
      (effects (font (size 1.27 1.27)) hide)
    )
    (property "LCSC Part" "C23630" (at 78.74 107.95 0)
      (effects (font (size 1.27 1.27)) hide)
    )
    (pin "1" (uuid 4dd27742-9d60-40e0-893f-609cf3feb017))
    (pin "2" (uuid 995fff9d-4464-486e-adae-f0ceeade687b))
    (instances
      (project "WarpSE"
        (path "/a5be2cb8-c68d-4180-8412-69a6b4c5b1d4/00000000-0000-0000-0000-000061350d21"
          (reference "C5") (unit 1)
        )
      )
    )
  )

  (symbol (lib_id "power:+3V3") (at 78.74 105.41 0) (unit 1)
    (in_bom yes) (on_board yes) (dnp no)
    (uuid 00000000-0000-0000-0000-0000613b7131)
    (property "Reference" "#PWR0122" (at 78.74 109.22 0)
      (effects (font (size 1.27 1.27)) hide)
    )
    (property "Value" "+3V3" (at 78.74 101.6 0)
      (effects (font (size 1.27 1.27)))
    )
    (property "Footprint" "" (at 78.74 105.41 0)
      (effects (font (size 1.27 1.27)) hide)
    )
    (property "Datasheet" "" (at 78.74 105.41 0)
      (effects (font (size 1.27 1.27)) hide)
    )
    (pin "1" (uuid 70130935-d9c1-4b0a-baec-a9e6ef81c3f2))
    (instances
      (project "WarpSE"
        (path "/a5be2cb8-c68d-4180-8412-69a6b4c5b1d4/00000000-0000-0000-0000-000061350d21"
          (reference "#PWR0122") (unit 1)
        )
      )
    )
  )

  (symbol (lib_id "Device:C_Small") (at 88.9 107.95 0) (unit 1)
    (in_bom yes) (on_board yes) (dnp no)
    (uuid 00000000-0000-0000-0000-0000613b713d)
    (property "Reference" "C6" (at 90.17 106.68 0)
      (effects (font (size 1.27 1.27)) (justify left))
    )
    (property "Value" "2u2" (at 90.17 109.22 0)
      (effects (font (size 1.27 1.27)) (justify left))
    )
    (property "Footprint" "stdpads:C_0603" (at 88.9 107.95 0)
      (effects (font (size 1.27 1.27)) hide)
    )
    (property "Datasheet" "" (at 88.9 107.95 0)
      (effects (font (size 1.27 1.27)) hide)
    )
    (property "LCSC Part" "C23630" (at 88.9 107.95 0)
      (effects (font (size 1.27 1.27)) hide)
    )
    (pin "1" (uuid f64b4cb2-f14c-4dbc-9361-96de5a124f8c))
    (pin "2" (uuid 6b5d7351-fda2-4b86-9e10-de349c4e7935))
    (instances
      (project "WarpSE"
        (path "/a5be2cb8-c68d-4180-8412-69a6b4c5b1d4/00000000-0000-0000-0000-000061350d21"
          (reference "C6") (unit 1)
        )
      )
    )
  )

  (symbol (lib_id "Device:R_Small") (at 180.34 72.39 270) (unit 1)
    (in_bom yes) (on_board yes) (dnp no)
    (uuid 00000000-0000-0000-0000-00006141a918)
    (property "Reference" "R1" (at 180.34 68.58 90)
      (effects (font (size 1.27 1.27)))
    )
    (property "Value" "47" (at 180.34 71.12 90)
      (effects (font (size 1.27 1.27)) (justify bottom))
    )
    (property "Footprint" "stdpads:R_0603" (at 180.34 72.39 0)
      (effects (font (size 1.27 1.27)) hide)
    )
    (property "Datasheet" "" (at 180.34 72.39 0)
      (effects (font (size 1.27 1.27)) hide)
    )
    (property "LCSC Part" "C23182" (at 180.34 72.39 0)
      (effects (font (size 1.27 1.27)) hide)
    )
    (pin "1" (uuid 5667316e-619b-432d-8f9c-290de9284874))
    (pin "2" (uuid 41dd5872-6064-430c-af2c-53fcb8ee9e43))
    (instances
      (project "WarpSE"
        (path "/a5be2cb8-c68d-4180-8412-69a6b4c5b1d4/00000000-0000-0000-0000-000061350d21"
          (reference "R1") (unit 1)
        )
      )
    )
  )

  (symbol (lib_id "Device:R_Small") (at 180.34 95.25 270) (unit 1)
    (in_bom yes) (on_board yes) (dnp no)
    (uuid 00000000-0000-0000-0000-00006141ac14)
    (property "Reference" "R2" (at 180.34 91.44 90)
      (effects (font (size 1.27 1.27)))
    )
    (property "Value" "47" (at 180.34 93.98 90)
      (effects (font (size 1.27 1.27)) (justify bottom))
    )
    (property "Footprint" "stdpads:R_0603" (at 180.34 95.25 0)
      (effects (font (size 1.27 1.27)) hide)
    )
    (property "Datasheet" "" (at 180.34 95.25 0)
      (effects (font (size 1.27 1.27)) hide)
    )
    (property "LCSC Part" "C23182" (at 180.34 95.25 0)
      (effects (font (size 1.27 1.27)) hide)
    )
    (pin "1" (uuid 89c85104-8d29-4ed2-8bc9-1efdcf061524))
    (pin "2" (uuid 230539e6-ed9f-4a15-94c6-70aec3a7825d))
    (instances
      (project "WarpSE"
        (path "/a5be2cb8-c68d-4180-8412-69a6b4c5b1d4/00000000-0000-0000-0000-000061350d21"
          (reference "R2") (unit 1)
        )
      )
    )
  )

  (symbol (lib_id "power:GND") (at 113.03 77.47 0) (mirror y) (unit 1)
    (in_bom yes) (on_board yes) (dnp no)
    (uuid 00000000-0000-0000-0000-000061bf038c)
    (property "Reference" "#PWR0114" (at 113.03 83.82 0)
      (effects (font (size 1.27 1.27)) hide)
    )
    (property "Value" "GND" (at 113.03 81.28 0)
      (effects (font (size 1.27 1.27)))
    )
    (property "Footprint" "" (at 113.03 77.47 0)
      (effects (font (size 1.27 1.27)) hide)
    )
    (property "Datasheet" "" (at 113.03 77.47 0)
      (effects (font (size 1.27 1.27)) hide)
    )
    (pin "1" (uuid 1a49f729-5f47-475f-8eb9-8a015ec1ed97))
    (instances
      (project "WarpSE"
        (path "/a5be2cb8-c68d-4180-8412-69a6b4c5b1d4/00000000-0000-0000-0000-000061350d21"
          (reference "#PWR0114") (unit 1)
        )
      )
    )
  )

  (symbol (lib_id "power:+3V3") (at 130.81 74.93 0) (mirror y) (unit 1)
    (in_bom yes) (on_board yes) (dnp no)
    (uuid 00000000-0000-0000-0000-000061bf0398)
    (property "Reference" "#PWR0116" (at 130.81 78.74 0)
      (effects (font (size 1.27 1.27)) hide)
    )
    (property "Value" "+3V3" (at 130.81 71.12 0)
      (effects (font (size 1.27 1.27)))
    )
    (property "Footprint" "" (at 130.81 74.93 0)
      (effects (font (size 1.27 1.27)) hide)
    )
    (property "Datasheet" "" (at 130.81 74.93 0)
      (effects (font (size 1.27 1.27)) hide)
    )
    (pin "1" (uuid 65c83ca6-ae17-4a0f-a5be-1a9b8e62bcd2))
    (instances
      (project "WarpSE"
        (path "/a5be2cb8-c68d-4180-8412-69a6b4c5b1d4/00000000-0000-0000-0000-000061350d21"
          (reference "#PWR0116") (unit 1)
        )
      )
    )
  )

  (symbol (lib_id "GW_Logic:Oscillator_4P") (at 121.92 77.47 0) (unit 1)
    (in_bom yes) (on_board yes) (dnp no)
    (uuid 00000000-0000-0000-0000-000061bf03a4)
    (property "Reference" "U5" (at 121.92 69.85 0)
      (effects (font (size 1.27 1.27)) (justify bottom) hide)
    )
    (property "Value" "50M" (at 121.92 71.12 0)
      (effects (font (size 1.27 1.27)))
    )
    (property "Footprint" "stdpads:Crystal_SMD_3225-4Pin_3.2x2.5mm" (at 121.92 77.47 0)
      (effects (font (size 1.27 1.27)) hide)
    )
    (property "Datasheet" "" (at 121.92 77.47 0)
      (effects (font (size 1.27 1.27)) hide)
    )
    (property "LCSC Part" "C717684" (at 121.92 77.47 0)
      (effects (font (size 1.27 1.27)) hide)
    )
    (pin "1" (uuid 507ab6dc-4ff9-4266-ba03-bfe284e8e9d1))
    (pin "2" (uuid 778cee0e-27c6-4951-b511-2b01fbe62b2d))
    (pin "3" (uuid 9b01d706-76c4-490d-85b9-4c6efbdb4bab))
    (pin "4" (uuid f70ab145-7d27-4f0a-b4f6-36eb6a2d5954))
    (instances
      (project "WarpSE"
        (path "/a5be2cb8-c68d-4180-8412-69a6b4c5b1d4/00000000-0000-0000-0000-000061350d21"
          (reference "U5") (unit 1)
        )
      )
    )
  )

  (symbol (lib_id "GW_Logic:741G74DC") (at 161.29 96.52 0) (unit 1)
    (in_bom yes) (on_board yes) (dnp no)
    (uuid 07a39b5e-0f9c-41e7-8640-7943ff59152a)
    (property "Reference" "U7" (at 161.29 96.52 0)
      (effects (font (size 1.27 1.27)))
    )
    (property "Value" "74LVC1G74DC" (at 161.29 104.14 0)
      (effects (font (size 1.27 1.27)))
    )
    (property "Footprint" "stdpads:NXP_VSSOP-8_2.3x2mm" (at 161.29 105.41 0)
      (effects (font (size 1.27 1.27)) (justify top) hide)
    )
    (property "Datasheet" "" (at 161.29 101.6 0)
      (effects (font (size 1.524 1.524)) hide)
    )
    (property "LCSC Part" "C503431" (at 161.29 96.52 0)
      (effects (font (size 1.27 1.27)) hide)
    )
    (pin "1" (uuid dddf75cc-7ee7-43eb-8430-feb85d4f823f))
    (pin "2" (uuid 510c4dc8-0d36-430e-8457-ca646d3f0daf))
    (pin "3" (uuid ea860632-9b77-4cd6-baba-8b0293855c36))
    (pin "4" (uuid dca87996-bf44-4cc9-ac6f-313eeb23f5da))
    (pin "5" (uuid ed51fdac-7903-482d-816d-05793d09fd9b))
    (pin "6" (uuid 77bc4fd1-604e-4dbb-b829-302aa905fa59))
    (pin "7" (uuid eef296d7-3e9c-4555-a20f-29a81fbac40a))
    (pin "8" (uuid 467fe910-a71d-4363-b720-e992a3fa2e47))
    (instances
      (project "WarpSE"
        (path "/a5be2cb8-c68d-4180-8412-69a6b4c5b1d4/00000000-0000-0000-0000-000061350d21"
          (reference "U7") (unit 1)
        )
      )
    )
  )

  (symbol (lib_id "Device:C_Small") (at 99.06 107.95 0) (unit 1)
    (in_bom yes) (on_board yes) (dnp no)
    (uuid 1a15a425-56c5-4008-90b5-99ea44c1ab0a)
    (property "Reference" "C53" (at 100.33 106.68 0)
      (effects (font (size 1.27 1.27)) (justify left))
    )
    (property "Value" "2u2" (at 100.33 109.22 0)
      (effects (font (size 1.27 1.27)) (justify left))
    )
    (property "Footprint" "stdpads:C_0603" (at 99.06 107.95 0)
      (effects (font (size 1.27 1.27)) hide)
    )
    (property "Datasheet" "" (at 99.06 107.95 0)
      (effects (font (size 1.27 1.27)) hide)
    )
    (property "LCSC Part" "C23630" (at 99.06 107.95 0)
      (effects (font (size 1.27 1.27)) hide)
    )
    (pin "1" (uuid b87c2de7-0041-48a4-bd24-1bd15d95e25c))
    (pin "2" (uuid 34decbe5-68a3-4ee9-8fdd-0c69b53382cb))
    (instances
      (project "WarpSE"
        (path "/a5be2cb8-c68d-4180-8412-69a6b4c5b1d4/00000000-0000-0000-0000-000061350d21"
          (reference "C53") (unit 1)
        )
      )
    )
  )

  (symbol (lib_id "power:+3V3") (at 100.33 69.85 0) (unit 1)
    (in_bom yes) (on_board yes) (dnp no)
    (uuid 376d0515-9053-4da0-a13f-69871edc9402)
    (property "Reference" "#PWR09" (at 100.33 73.66 0)
      (effects (font (size 1.27 1.27)) hide)
    )
    (property "Value" "+3V3" (at 100.33 66.04 0)
      (effects (font (size 1.27 1.27)))
    )
    (property "Footprint" "" (at 100.33 69.85 0)
      (effects (font (size 1.27 1.27)) hide)
    )
    (property "Datasheet" "" (at 100.33 69.85 0)
      (effects (font (size 1.27 1.27)) hide)
    )
    (pin "1" (uuid c02f6571-98d2-4bfd-94ee-594b16eb13cd))
    (instances
      (project "WarpSE"
        (path "/a5be2cb8-c68d-4180-8412-69a6b4c5b1d4/00000000-0000-0000-0000-000061350d21"
          (reference "#PWR09") (unit 1)
        )
      )
    )
  )

  (symbol (lib_id "Device:R_Small") (at 180.34 83.82 180) (unit 1)
    (in_bom yes) (on_board yes) (dnp no)
    (uuid 463fa256-f429-4317-92a8-e8fc21869976)
    (property "Reference" "R12" (at 181.61 82.55 0)
      (effects (font (size 1.27 1.27)) (justify right))
    )
    (property "Value" "DNP" (at 181.61 85.09 0)
      (effects (font (size 1.27 1.27)) (justify right))
    )
    (property "Footprint" "stdpads:R_0603" (at 180.34 83.82 0)
      (effects (font (size 1.27 1.27)) hide)
    )
    (property "Datasheet" "" (at 180.34 83.82 0)
      (effects (font (size 1.27 1.27)) hide)
    )
    (pin "1" (uuid 5bbb8993-4e6a-4e14-a5ee-022b9c51492e))
    (pin "2" (uuid e5a1d3af-4f0b-4d33-8d30-bf829f96aed1))
    (instances
      (project "WarpSE"
        (path "/a5be2cb8-c68d-4180-8412-69a6b4c5b1d4/00000000-0000-0000-0000-000061350d21"
          (reference "R12") (unit 1)
        )
      )
    )
  )

  (symbol (lib_id "power:GND") (at 132.08 92.71 0) (mirror y) (unit 1)
    (in_bom yes) (on_board yes) (dnp no)
    (uuid 52906c1d-a703-4dd7-809a-d03f7922f30a)
    (property "Reference" "#PWR08" (at 132.08 99.06 0)
      (effects (font (size 1.27 1.27)) hide)
    )
    (property "Value" "GND" (at 132.08 96.52 0)
      (effects (font (size 1.27 1.27)))
    )
    (property "Footprint" "" (at 132.08 92.71 0)
      (effects (font (size 1.27 1.27)) hide)
    )
    (property "Datasheet" "" (at 132.08 92.71 0)
      (effects (font (size 1.27 1.27)) hide)
    )
    (pin "1" (uuid f54bf9e1-d3af-45b9-a5f2-693e3b4eabd3))
    (instances
      (project "WarpSE"
        (path "/a5be2cb8-c68d-4180-8412-69a6b4c5b1d4/00000000-0000-0000-0000-000061350d21"
          (reference "#PWR08") (unit 1)
        )
      )
    )
  )

  (symbol (lib_id "power:GND") (at 119.38 92.71 0) (mirror y) (unit 1)
    (in_bom yes) (on_board yes) (dnp no)
    (uuid 535b87ed-cbfd-405b-908e-667ab6c7dc98)
    (property "Reference" "#PWR026" (at 119.38 99.06 0)
      (effects (font (size 1.27 1.27)) hide)
    )
    (property "Value" "GND" (at 119.38 96.52 0)
      (effects (font (size 1.27 1.27)))
    )
    (property "Footprint" "" (at 119.38 92.71 0)
      (effects (font (size 1.27 1.27)) hide)
    )
    (property "Datasheet" "" (at 119.38 92.71 0)
      (effects (font (size 1.27 1.27)) hide)
    )
    (pin "1" (uuid ffca25fe-fc75-4d50-8c40-22f8b3754cd6))
    (instances
      (project "WarpSE"
        (path "/a5be2cb8-c68d-4180-8412-69a6b4c5b1d4/00000000-0000-0000-0000-000061350d21"
          (reference "#PWR026") (unit 1)
        )
      )
    )
  )

  (symbol (lib_id "power:GND") (at 171.45 100.33 0) (unit 1)
    (in_bom yes) (on_board yes) (dnp no)
    (uuid 5da6943b-d5d6-4279-a89e-fcb0a5433c4b)
    (property "Reference" "#PWR03" (at 171.45 106.68 0)
      (effects (font (size 1.27 1.27)) hide)
    )
    (property "Value" "GND" (at 171.45 104.14 0)
      (effects (font (size 1.27 1.27)))
    )
    (property "Footprint" "" (at 171.45 100.33 0)
      (effects (font (size 1.27 1.27)) hide)
    )
    (property "Datasheet" "" (at 171.45 100.33 0)
      (effects (font (size 1.27 1.27)) hide)
    )
    (pin "1" (uuid 2ed17212-001b-4a54-82f3-9993a23aeebb))
    (instances
      (project "WarpSE"
        (path "/a5be2cb8-c68d-4180-8412-69a6b4c5b1d4/00000000-0000-0000-0000-000061350d21"
          (reference "#PWR03") (unit 1)
        )
      )
    )
  )

  (symbol (lib_id "Connector_Generic:Conn_01x02") (at 127 90.17 0) (mirror y) (unit 1)
    (in_bom yes) (on_board yes) (dnp no)
    (uuid 85b79bbd-e87c-4cdb-b3be-0f19bab36f14)
    (property "Reference" "J5" (at 127 87.63 0)
      (effects (font (size 1.27 1.27)))
    )
    (property "Value" "CLKIN" (at 127 95.25 0)
      (effects (font (size 1.27 1.27)))
    )
    (property "Footprint" "stdpads:PinHeader_1x02_P2.54mm_Vertical" (at 127 90.17 0)
      (effects (font (size 1.27 1.27)) hide)
    )
    (property "Datasheet" "" (at 127 90.17 0)
      (effects (font (size 1.27 1.27)) hide)
    )
    (pin "1" (uuid cfa92bbb-4074-41e2-8f42-17d05ef1328e))
    (pin "2" (uuid 0dd2d711-7e85-47e6-a28b-dffeb8e7351d))
    (instances
      (project "WarpSE"
        (path "/a5be2cb8-c68d-4180-8412-69a6b4c5b1d4/00000000-0000-0000-0000-000061350d21"
          (reference "J5") (unit 1)
        )
      )
    )
  )

  (symbol (lib_id "power:GND") (at 171.45 77.47 0) (unit 1)
    (in_bom yes) (on_board yes) (dnp no)
    (uuid b02eeb7f-1091-49f3-a385-cbe04b68decb)
    (property "Reference" "#PWR01" (at 171.45 83.82 0)
      (effects (font (size 1.27 1.27)) hide)
    )
    (property "Value" "GND" (at 171.45 81.28 0)
      (effects (font (size 1.27 1.27)) hide)
    )
    (property "Footprint" "" (at 171.45 77.47 0)
      (effects (font (size 1.27 1.27)) hide)
    )
    (property "Datasheet" "" (at 171.45 77.47 0)
      (effects (font (size 1.27 1.27)) hide)
    )
    (pin "1" (uuid 58933a61-3f94-46e8-aeea-18fa39102370))
    (instances
      (project "WarpSE"
        (path "/a5be2cb8-c68d-4180-8412-69a6b4c5b1d4/00000000-0000-0000-0000-000061350d21"
          (reference "#PWR01") (unit 1)
        )
      )
    )
  )

  (symbol (lib_id "power:+3V3") (at 171.45 92.71 0) (unit 1)
    (in_bom yes) (on_board yes) (dnp no)
    (uuid b360ef4a-da9e-4b0c-9f05-85078e8cfa7a)
    (property "Reference" "#PWR011" (at 171.45 96.52 0)
      (effects (font (size 1.27 1.27)) hide)
    )
    (property "Value" "+3V3" (at 171.45 88.9 0)
      (effects (font (size 1.27 1.27)))
    )
    (property "Footprint" "" (at 171.45 92.71 0)
      (effects (font (size 1.27 1.27)) hide)
    )
    (property "Datasheet" "" (at 171.45 92.71 0)
      (effects (font (size 1.27 1.27)) hide)
    )
    (pin "1" (uuid e6e88bbb-bcc2-4fca-a332-6d4bdc02f927))
    (instances
      (project "WarpSE"
        (path "/a5be2cb8-c68d-4180-8412-69a6b4c5b1d4/00000000-0000-0000-0000-000061350d21"
          (reference "#PWR011") (unit 1)
        )
      )
    )
  )

  (symbol (lib_id "GW_Logic:741G74DC") (at 161.29 73.66 0) (unit 1)
    (in_bom yes) (on_board yes) (dnp no)
    (uuid b5cd0ab1-9609-4fb0-b487-80dce43acd0c)
    (property "Reference" "U6" (at 161.29 73.66 0)
      (effects (font (size 1.27 1.27)))
    )
    (property "Value" "74LVC1G74DC" (at 161.29 81.28 0)
      (effects (font (size 1.27 1.27)))
    )
    (property "Footprint" "stdpads:NXP_VSSOP-8_2.3x2mm" (at 161.29 82.55 0)
      (effects (font (size 1.27 1.27)) (justify top) hide)
    )
    (property "Datasheet" "" (at 161.29 78.74 0)
      (effects (font (size 1.524 1.524)) hide)
    )
    (property "LCSC Part" "C503431" (at 161.29 73.66 0)
      (effects (font (size 1.27 1.27)) hide)
    )
    (pin "1" (uuid 2979ae8e-8f38-4b72-a84e-917f8e5a4739))
    (pin "2" (uuid 7804f3b4-21e9-4584-860d-b465a4a19f2f))
    (pin "3" (uuid 23b7ad85-aa03-49b3-b102-64e23670190a))
    (pin "4" (uuid 9c3071ba-4503-4a9a-8cf2-d9748d9d3aaf))
    (pin "5" (uuid 04c39015-46a0-4e4e-90ee-240e1d2d67f3))
    (pin "6" (uuid 9f1f0aee-4826-449a-8a93-10a53536fbc0))
    (pin "7" (uuid c8b86fab-99c3-4a82-9b71-6feab46f2085))
    (pin "8" (uuid 8f4b340f-d3f5-4efe-921c-e066f425a038))
    (instances
      (project "WarpSE"
        (path "/a5be2cb8-c68d-4180-8412-69a6b4c5b1d4/00000000-0000-0000-0000-000061350d21"
          (reference "U6") (unit 1)
        )
      )
    )
  )

  (symbol (lib_id "power:+5V") (at 119.38 90.17 0) (unit 1)
    (in_bom yes) (on_board yes) (dnp no)
    (uuid c16b49c7-5c9a-4693-8cac-607bc6376c53)
    (property "Reference" "#PWR027" (at 119.38 93.98 0)
      (effects (font (size 1.27 1.27)) hide)
    )
    (property "Value" "+5V" (at 119.38 86.36 0)
      (effects (font (size 1.27 1.27)))
    )
    (property "Footprint" "" (at 119.38 90.17 0)
      (effects (font (size 1.27 1.27)) hide)
    )
    (property "Datasheet" "" (at 119.38 90.17 0)
      (effects (font (size 1.27 1.27)) hide)
    )
    (pin "1" (uuid 34f990a5-a77f-4289-b124-9589b31813ef))
    (instances
      (project "WarpSE"
        (path "/a5be2cb8-c68d-4180-8412-69a6b4c5b1d4/00000000-0000-0000-0000-000061350d21"
          (reference "#PWR027") (unit 1)
        )
      )
    )
  )

  (symbol (lib_id "power:GND") (at 99.06 110.49 0) (mirror y) (unit 1)
    (in_bom yes) (on_board yes) (dnp no)
    (uuid c4552a4c-67ec-4c74-9534-4a3480747fb1)
    (property "Reference" "#PWR015" (at 99.06 116.84 0)
      (effects (font (size 1.27 1.27)) hide)
    )
    (property "Value" "GND" (at 99.06 114.3 0)
      (effects (font (size 1.27 1.27)))
    )
    (property "Footprint" "" (at 99.06 110.49 0)
      (effects (font (size 1.27 1.27)) hide)
    )
    (property "Datasheet" "" (at 99.06 110.49 0)
      (effects (font (size 1.27 1.27)) hide)
    )
    (pin "1" (uuid 6164da11-9a47-4211-9516-8ad1aac327f1))
    (instances
      (project "WarpSE"
        (path "/a5be2cb8-c68d-4180-8412-69a6b4c5b1d4/00000000-0000-0000-0000-000061350d21"
          (reference "#PWR015") (unit 1)
        )
      )
    )
  )

  (symbol (lib_id "Device:R_Small") (at 134.62 77.47 270) (unit 1)
    (in_bom yes) (on_board yes) (dnp no)
    (uuid cc39b492-09bd-4c04-bd1e-c4a4f364bac5)
    (property "Reference" "R3" (at 134.62 73.66 90)
      (effects (font (size 1.27 1.27)))
    )
    (property "Value" "47" (at 134.62 76.2 90)
      (effects (font (size 1.27 1.27)) (justify bottom))
    )
    (property "Footprint" "stdpads:R_0603" (at 134.62 77.47 0)
      (effects (font (size 1.27 1.27)) hide)
    )
    (property "Datasheet" "" (at 134.62 77.47 0)
      (effects (font (size 1.27 1.27)) hide)
    )
    (property "LCSC Part" "C23182" (at 134.62 77.47 0)
      (effects (font (size 1.27 1.27)) hide)
    )
    (pin "1" (uuid 8631d962-edd5-458e-ab60-82abdb76388e))
    (pin "2" (uuid 982897a5-8161-4b4e-93a6-3c8b766ab5b8))
    (instances
      (project "WarpSE"
        (path "/a5be2cb8-c68d-4180-8412-69a6b4c5b1d4/00000000-0000-0000-0000-000061350d21"
          (reference "R3") (unit 1)
        )
      )
    )
  )

  (symbol (lib_id "power:+3V3") (at 146.05 72.39 0) (unit 1)
    (in_bom yes) (on_board yes) (dnp no)
    (uuid d7cf89dc-1334-4643-ac5f-78b13136fc45)
    (property "Reference" "#PWR012" (at 146.05 76.2 0)
      (effects (font (size 1.27 1.27)) hide)
    )
    (property "Value" "+3V3" (at 146.05 68.58 0)
      (effects (font (size 1.27 1.27)))
    )
    (property "Footprint" "" (at 146.05 72.39 0)
      (effects (font (size 1.27 1.27)) hide)
    )
    (property "Datasheet" "" (at 146.05 72.39 0)
      (effects (font (size 1.27 1.27)) hide)
    )
    (pin "1" (uuid f6d6c524-87b3-490a-a631-ff31429cdd25))
    (instances
      (project "WarpSE"
        (path "/a5be2cb8-c68d-4180-8412-69a6b4c5b1d4/00000000-0000-0000-0000-000061350d21"
          (reference "#PWR012") (unit 1)
        )
      )
    )
  )

  (symbol (lib_id "Connector_Generic:Conn_01x02") (at 114.3 90.17 0) (mirror y) (unit 1)
    (in_bom yes) (on_board yes) (dnp no)
    (uuid e0f35a4d-57ee-4e42-b380-84d6e41a5cf1)
    (property "Reference" "J7" (at 114.3 87.63 0)
      (effects (font (size 1.27 1.27)))
    )
    (property "Value" "PWR" (at 114.3 95.25 0)
      (effects (font (size 1.27 1.27)))
    )
    (property "Footprint" "stdpads:PinHeader_1x02_P2.54mm_Vertical" (at 114.3 90.17 0)
      (effects (font (size 1.27 1.27)) hide)
    )
    (property "Datasheet" "" (at 114.3 90.17 0)
      (effects (font (size 1.27 1.27)) hide)
    )
    (pin "1" (uuid ff5d8391-54c0-4399-b0c1-c598a2661ab2))
    (pin "2" (uuid 6765a1ed-394b-400a-a079-5aa0a1f109c6))
    (instances
      (project "WarpSE"
        (path "/a5be2cb8-c68d-4180-8412-69a6b4c5b1d4/00000000-0000-0000-0000-000061350d21"
          (reference "J7") (unit 1)
        )
      )
    )
  )

  (symbol (lib_id "Device:R_Small") (at 100.33 72.39 180) (unit 1)
    (in_bom yes) (on_board yes) (dnp no)
    (uuid eba9534c-7822-4ffd-8a48-7a46c4141239)
    (property "Reference" "R8" (at 101.6 71.12 0)
      (effects (font (size 1.27 1.27)) (justify right))
    )
    (property "Value" "1k" (at 101.6 73.66 0)
      (effects (font (size 1.27 1.27)) (justify right))
    )
    (property "Footprint" "stdpads:R_0603" (at 100.33 72.39 0)
      (effects (font (size 1.27 1.27)) hide)
    )
    (property "Datasheet" "" (at 100.33 72.39 0)
      (effects (font (size 1.27 1.27)) hide)
    )
    (property "LCSC Part" "C21190" (at 100.33 72.39 0)
      (effects (font (size 1.27 1.27)) hide)
    )
    (pin "1" (uuid f851052a-70dd-4b2e-ad70-0dfd25d8445a))
    (pin "2" (uuid 014d1fb7-bef4-4e28-bdec-2fe7fd3345fc))
    (instances
      (project "WarpSE"
        (path "/a5be2cb8-c68d-4180-8412-69a6b4c5b1d4/00000000-0000-0000-0000-000061350d21"
          (reference "R8") (unit 1)
        )
      )
    )
  )

  (symbol (lib_id "Connector_Generic:Conn_01x02") (at 92.71 74.93 0) (mirror y) (unit 1)
    (in_bom yes) (on_board yes) (dnp no)
    (uuid f1f5ef96-c7c3-4c7a-89e3-e67b510a4fe7)
    (property "Reference" "J6" (at 92.71 72.39 0)
      (effects (font (size 1.27 1.27)))
    )
    (property "Value" "CLKDIS" (at 92.71 80.01 0)
      (effects (font (size 1.27 1.27)))
    )
    (property "Footprint" "stdpads:PinHeader_1x02_P2.54mm_Vertical" (at 92.71 74.93 0)
      (effects (font (size 1.27 1.27)) hide)
    )
    (property "Datasheet" "" (at 92.71 74.93 0)
      (effects (font (size 1.27 1.27)) hide)
    )
    (pin "1" (uuid 0d0d9ae7-761e-4b80-9314-8f27bb675a38))
    (pin "2" (uuid fd977045-4d47-40cd-b65e-3741116df66d))
    (instances
      (project "WarpSE"
        (path "/a5be2cb8-c68d-4180-8412-69a6b4c5b1d4/00000000-0000-0000-0000-000061350d21"
          (reference "J6") (unit 1)
        )
      )
    )
  )

  (symbol (lib_id "Device:R_Small") (at 134.62 90.17 270) (unit 1)
    (in_bom yes) (on_board yes) (dnp no)
    (uuid f9ff8d3d-c628-49bc-943f-bf55b21785c6)
    (property "Reference" "R5" (at 134.62 86.36 90)
      (effects (font (size 1.27 1.27)))
    )
    (property "Value" "47" (at 134.62 88.9 90)
      (effects (font (size 1.27 1.27)) (justify bottom))
    )
    (property "Footprint" "stdpads:R_0603" (at 134.62 90.17 0)
      (effects (font (size 1.27 1.27)) hide)
    )
    (property "Datasheet" "" (at 134.62 90.17 0)
      (effects (font (size 1.27 1.27)) hide)
    )
    (property "LCSC Part" "C23182" (at 134.62 90.17 0)
      (effects (font (size 1.27 1.27)) hide)
    )
    (pin "1" (uuid f4b3a713-6ba0-4a6f-aa8d-e85f716568fc))
    (pin "2" (uuid 60f28cc3-4985-48dd-b38a-9035cfa38a1f))
    (instances
      (project "WarpSE"
        (path "/a5be2cb8-c68d-4180-8412-69a6b4c5b1d4/00000000-0000-0000-0000-000061350d21"
          (reference "R5") (unit 1)
        )
      )
    )
  )

  (symbol (lib_id "power:+3V3") (at 171.45 69.85 0) (unit 1)
    (in_bom yes) (on_board yes) (dnp no)
    (uuid fc65c475-b619-47e5-8a58-663f3e862ac5)
    (property "Reference" "#PWR05" (at 171.45 73.66 0)
      (effects (font (size 1.27 1.27)) hide)
    )
    (property "Value" "+3V3" (at 171.45 66.04 0)
      (effects (font (size 1.27 1.27)))
    )
    (property "Footprint" "" (at 171.45 69.85 0)
      (effects (font (size 1.27 1.27)) hide)
    )
    (property "Datasheet" "" (at 171.45 69.85 0)
      (effects (font (size 1.27 1.27)) hide)
    )
    (pin "1" (uuid 58a1529e-3653-4684-99e7-50dd58f51bc4))
    (instances
      (project "WarpSE"
        (path "/a5be2cb8-c68d-4180-8412-69a6b4c5b1d4/00000000-0000-0000-0000-000061350d21"
          (reference "#PWR05") (unit 1)
        )
      )
    )
  )
)
