(kicad_sch (version 20230121) (generator eeschema)

  (uuid 26a22c19-4cc5-4237-9651-0edc4f854154)

  (paper "A4")

  (title_block
    (title "WarpSE (GW4410A)")
    (date "2024-04-23")
    (rev "1.0")
    (company "Garrett's Workshop")
  )

  (lib_symbols
    (symbol "CPLD_Xilinx:XC95144XL-TQ100" (in_bom yes) (on_board yes)
      (property "Reference" "U" (at -20.32 64.77 0)
        (effects (font (size 1.27 1.27)))
      )
      (property "Value" "XC95144XL-TQ100" (at -20.32 -64.77 0)
        (effects (font (size 1.27 1.27)))
      )
      (property "Footprint" "Package_QFP:TQFP-100_14x14mm_P0.5mm" (at 0 0 0)
        (effects (font (size 1.27 1.27)) hide)
      )
      (property "Datasheet" "https://www.xilinx.com/support/documentation/data_sheets/ds056.pdf" (at 0 0 0)
        (effects (font (size 1.27 1.27)) hide)
      )
      (property "ki_keywords" "CPLD" (at 0 0 0)
        (effects (font (size 1.27 1.27)) hide)
      )
      (property "ki_description" "CPLD, 144 Macrocells, 3200 Usable Gates" (at 0 0 0)
        (effects (font (size 1.27 1.27)) hide)
      )
      (property "ki_fp_filters" "TQFP*14x14mm*P0.5mm*" (at 0 0 0)
        (effects (font (size 1.27 1.27)) hide)
      )
      (symbol "XC95144XL-TQ100_1_1"
        (rectangle (start -20.32 63.5) (end 20.32 -63.5)
          (stroke (width 0.254) (type default))
          (fill (type background))
        )
        (pin bidirectional line (at -25.4 27.94 0) (length 5.08)
          (name "I/O/GTS3" (effects (font (size 1.27 1.27))))
          (number "1" (effects (font (size 1.27 1.27))))
        )
        (pin bidirectional line (at -25.4 7.62 0) (length 5.08)
          (name "P10" (effects (font (size 1.27 1.27))))
          (number "10" (effects (font (size 1.27 1.27))))
        )
        (pin power_in line (at 10.16 -68.58 90) (length 5.08)
          (name "GND" (effects (font (size 1.27 1.27))))
          (number "100" (effects (font (size 1.27 1.27))))
        )
        (pin bidirectional line (at -25.4 60.96 0) (length 5.08)
          (name "P11" (effects (font (size 1.27 1.27))))
          (number "11" (effects (font (size 1.27 1.27))))
        )
        (pin bidirectional line (at -25.4 58.42 0) (length 5.08)
          (name "P12" (effects (font (size 1.27 1.27))))
          (number "12" (effects (font (size 1.27 1.27))))
        )
        (pin bidirectional line (at -25.4 55.88 0) (length 5.08)
          (name "P13" (effects (font (size 1.27 1.27))))
          (number "13" (effects (font (size 1.27 1.27))))
        )
        (pin bidirectional line (at -25.4 53.34 0) (length 5.08)
          (name "P14" (effects (font (size 1.27 1.27))))
          (number "14" (effects (font (size 1.27 1.27))))
        )
        (pin bidirectional line (at -25.4 50.8 0) (length 5.08)
          (name "P15" (effects (font (size 1.27 1.27))))
          (number "15" (effects (font (size 1.27 1.27))))
        )
        (pin bidirectional line (at -25.4 48.26 0) (length 5.08)
          (name "P16" (effects (font (size 1.27 1.27))))
          (number "16" (effects (font (size 1.27 1.27))))
        )
        (pin bidirectional line (at -25.4 45.72 0) (length 5.08)
          (name "P17" (effects (font (size 1.27 1.27))))
          (number "17" (effects (font (size 1.27 1.27))))
        )
        (pin bidirectional line (at -25.4 43.18 0) (length 5.08)
          (name "P18" (effects (font (size 1.27 1.27))))
          (number "18" (effects (font (size 1.27 1.27))))
        )
        (pin bidirectional line (at -25.4 40.64 0) (length 5.08)
          (name "P19" (effects (font (size 1.27 1.27))))
          (number "19" (effects (font (size 1.27 1.27))))
        )
        (pin bidirectional line (at -25.4 25.4 0) (length 5.08)
          (name "I/O/GTS4" (effects (font (size 1.27 1.27))))
          (number "2" (effects (font (size 1.27 1.27))))
        )
        (pin bidirectional line (at -25.4 38.1 0) (length 5.08)
          (name "P20" (effects (font (size 1.27 1.27))))
          (number "20" (effects (font (size 1.27 1.27))))
        )
        (pin power_in line (at -7.62 -68.58 90) (length 5.08)
          (name "GND" (effects (font (size 1.27 1.27))))
          (number "21" (effects (font (size 1.27 1.27))))
        )
        (pin bidirectional line (at -25.4 35.56 0) (length 5.08)
          (name "I/O/GCK1" (effects (font (size 1.27 1.27))))
          (number "22" (effects (font (size 1.27 1.27))))
        )
        (pin bidirectional line (at -25.4 2.54 0) (length 5.08)
          (name "I/O/GCK2" (effects (font (size 1.27 1.27))))
          (number "23" (effects (font (size 1.27 1.27))))
        )
        (pin bidirectional line (at -25.4 0 0) (length 5.08)
          (name "P24" (effects (font (size 1.27 1.27))))
          (number "24" (effects (font (size 1.27 1.27))))
        )
        (pin bidirectional line (at -25.4 -2.54 0) (length 5.08)
          (name "P25" (effects (font (size 1.27 1.27))))
          (number "25" (effects (font (size 1.27 1.27))))
        )
        (pin power_in line (at 0 68.58 270) (length 5.08)
          (name "VCCIO" (effects (font (size 1.27 1.27))))
          (number "26" (effects (font (size 1.27 1.27))))
        )
        (pin bidirectional line (at -25.4 -5.08 0) (length 5.08)
          (name "I/O/GCK3" (effects (font (size 1.27 1.27))))
          (number "27" (effects (font (size 1.27 1.27))))
        )
        (pin bidirectional line (at -25.4 -7.62 0) (length 5.08)
          (name "P28" (effects (font (size 1.27 1.27))))
          (number "28" (effects (font (size 1.27 1.27))))
        )
        (pin bidirectional line (at -25.4 -10.16 0) (length 5.08)
          (name "P29" (effects (font (size 1.27 1.27))))
          (number "29" (effects (font (size 1.27 1.27))))
        )
        (pin bidirectional line (at -25.4 22.86 0) (length 5.08)
          (name "I/O/GTS1" (effects (font (size 1.27 1.27))))
          (number "3" (effects (font (size 1.27 1.27))))
        )
        (pin bidirectional line (at -25.4 -12.7 0) (length 5.08)
          (name "P30" (effects (font (size 1.27 1.27))))
          (number "30" (effects (font (size 1.27 1.27))))
        )
        (pin power_in line (at -5.08 -68.58 90) (length 5.08)
          (name "GND" (effects (font (size 1.27 1.27))))
          (number "31" (effects (font (size 1.27 1.27))))
        )
        (pin bidirectional line (at -25.4 -15.24 0) (length 5.08)
          (name "P32" (effects (font (size 1.27 1.27))))
          (number "32" (effects (font (size 1.27 1.27))))
        )
        (pin bidirectional line (at -25.4 -17.78 0) (length 5.08)
          (name "P33" (effects (font (size 1.27 1.27))))
          (number "33" (effects (font (size 1.27 1.27))))
        )
        (pin bidirectional line (at -25.4 -20.32 0) (length 5.08)
          (name "P34" (effects (font (size 1.27 1.27))))
          (number "34" (effects (font (size 1.27 1.27))))
        )
        (pin bidirectional line (at 25.4 60.96 180) (length 5.08)
          (name "P35" (effects (font (size 1.27 1.27))))
          (number "35" (effects (font (size 1.27 1.27))))
        )
        (pin bidirectional line (at 25.4 58.42 180) (length 5.08)
          (name "P36" (effects (font (size 1.27 1.27))))
          (number "36" (effects (font (size 1.27 1.27))))
        )
        (pin bidirectional line (at 25.4 55.88 180) (length 5.08)
          (name "P37" (effects (font (size 1.27 1.27))))
          (number "37" (effects (font (size 1.27 1.27))))
        )
        (pin power_in line (at 2.54 68.58 270) (length 5.08)
          (name "VCCIO" (effects (font (size 1.27 1.27))))
          (number "38" (effects (font (size 1.27 1.27))))
        )
        (pin bidirectional line (at 25.4 53.34 180) (length 5.08)
          (name "P39" (effects (font (size 1.27 1.27))))
          (number "39" (effects (font (size 1.27 1.27))))
        )
        (pin bidirectional line (at -25.4 20.32 0) (length 5.08)
          (name "I/O/GTS2" (effects (font (size 1.27 1.27))))
          (number "4" (effects (font (size 1.27 1.27))))
        )
        (pin bidirectional line (at 25.4 50.8 180) (length 5.08)
          (name "P40" (effects (font (size 1.27 1.27))))
          (number "40" (effects (font (size 1.27 1.27))))
        )
        (pin bidirectional line (at 25.4 48.26 180) (length 5.08)
          (name "P41" (effects (font (size 1.27 1.27))))
          (number "41" (effects (font (size 1.27 1.27))))
        )
        (pin bidirectional line (at 25.4 45.72 180) (length 5.08)
          (name "P42" (effects (font (size 1.27 1.27))))
          (number "42" (effects (font (size 1.27 1.27))))
        )
        (pin bidirectional line (at 25.4 43.18 180) (length 5.08)
          (name "P43" (effects (font (size 1.27 1.27))))
          (number "43" (effects (font (size 1.27 1.27))))
        )
        (pin power_in line (at -2.54 -68.58 90) (length 5.08)
          (name "GND" (effects (font (size 1.27 1.27))))
          (number "44" (effects (font (size 1.27 1.27))))
        )
        (pin input line (at 25.4 -53.34 180) (length 5.08)
          (name "TDI" (effects (font (size 1.27 1.27))))
          (number "45" (effects (font (size 1.27 1.27))))
        )
        (pin bidirectional line (at 25.4 40.64 180) (length 5.08)
          (name "P46" (effects (font (size 1.27 1.27))))
          (number "46" (effects (font (size 1.27 1.27))))
        )
        (pin input line (at 25.4 -55.88 180) (length 5.08)
          (name "TMS" (effects (font (size 1.27 1.27))))
          (number "47" (effects (font (size 1.27 1.27))))
        )
        (pin input line (at 25.4 -58.42 180) (length 5.08)
          (name "TCK" (effects (font (size 1.27 1.27))))
          (number "48" (effects (font (size 1.27 1.27))))
        )
        (pin bidirectional line (at 25.4 38.1 180) (length 5.08)
          (name "P49" (effects (font (size 1.27 1.27))))
          (number "49" (effects (font (size 1.27 1.27))))
        )
        (pin power_in line (at -7.62 68.58 270) (length 5.08)
          (name "VCCINT" (effects (font (size 1.27 1.27))))
          (number "5" (effects (font (size 1.27 1.27))))
        )
        (pin bidirectional line (at 25.4 2.54 180) (length 5.08)
          (name "P50" (effects (font (size 1.27 1.27))))
          (number "50" (effects (font (size 1.27 1.27))))
        )
        (pin power_in line (at 5.08 68.58 270) (length 5.08)
          (name "VCCIO" (effects (font (size 1.27 1.27))))
          (number "51" (effects (font (size 1.27 1.27))))
        )
        (pin bidirectional line (at 25.4 0 180) (length 5.08)
          (name "P52" (effects (font (size 1.27 1.27))))
          (number "52" (effects (font (size 1.27 1.27))))
        )
        (pin bidirectional line (at 25.4 -2.54 180) (length 5.08)
          (name "P53" (effects (font (size 1.27 1.27))))
          (number "53" (effects (font (size 1.27 1.27))))
        )
        (pin bidirectional line (at 25.4 -5.08 180) (length 5.08)
          (name "P54" (effects (font (size 1.27 1.27))))
          (number "54" (effects (font (size 1.27 1.27))))
        )
        (pin bidirectional line (at 25.4 -7.62 180) (length 5.08)
          (name "P55" (effects (font (size 1.27 1.27))))
          (number "55" (effects (font (size 1.27 1.27))))
        )
        (pin bidirectional line (at 25.4 -10.16 180) (length 5.08)
          (name "P56" (effects (font (size 1.27 1.27))))
          (number "56" (effects (font (size 1.27 1.27))))
        )
        (pin power_in line (at -5.08 68.58 270) (length 5.08)
          (name "VCCINT" (effects (font (size 1.27 1.27))))
          (number "57" (effects (font (size 1.27 1.27))))
        )
        (pin bidirectional line (at 25.4 -12.7 180) (length 5.08)
          (name "P58" (effects (font (size 1.27 1.27))))
          (number "58" (effects (font (size 1.27 1.27))))
        )
        (pin bidirectional line (at 25.4 -15.24 180) (length 5.08)
          (name "P59" (effects (font (size 1.27 1.27))))
          (number "59" (effects (font (size 1.27 1.27))))
        )
        (pin bidirectional line (at -25.4 17.78 0) (length 5.08)
          (name "P6" (effects (font (size 1.27 1.27))))
          (number "6" (effects (font (size 1.27 1.27))))
        )
        (pin bidirectional line (at 25.4 -17.78 180) (length 5.08)
          (name "P60" (effects (font (size 1.27 1.27))))
          (number "60" (effects (font (size 1.27 1.27))))
        )
        (pin bidirectional line (at 25.4 -20.32 180) (length 5.08)
          (name "P61" (effects (font (size 1.27 1.27))))
          (number "61" (effects (font (size 1.27 1.27))))
        )
        (pin power_in line (at 0 -68.58 90) (length 5.08)
          (name "GND" (effects (font (size 1.27 1.27))))
          (number "62" (effects (font (size 1.27 1.27))))
        )
        (pin bidirectional line (at 25.4 -25.4 180) (length 5.08)
          (name "P63" (effects (font (size 1.27 1.27))))
          (number "63" (effects (font (size 1.27 1.27))))
        )
        (pin bidirectional line (at 25.4 -27.94 180) (length 5.08)
          (name "P64" (effects (font (size 1.27 1.27))))
          (number "64" (effects (font (size 1.27 1.27))))
        )
        (pin bidirectional line (at 25.4 -30.48 180) (length 5.08)
          (name "P65" (effects (font (size 1.27 1.27))))
          (number "65" (effects (font (size 1.27 1.27))))
        )
        (pin bidirectional line (at 25.4 -33.02 180) (length 5.08)
          (name "P66" (effects (font (size 1.27 1.27))))
          (number "66" (effects (font (size 1.27 1.27))))
        )
        (pin bidirectional line (at 25.4 -35.56 180) (length 5.08)
          (name "P67" (effects (font (size 1.27 1.27))))
          (number "67" (effects (font (size 1.27 1.27))))
        )
        (pin bidirectional line (at 25.4 -38.1 180) (length 5.08)
          (name "P68" (effects (font (size 1.27 1.27))))
          (number "68" (effects (font (size 1.27 1.27))))
        )
        (pin power_in line (at 2.54 -68.58 90) (length 5.08)
          (name "GND" (effects (font (size 1.27 1.27))))
          (number "69" (effects (font (size 1.27 1.27))))
        )
        (pin bidirectional line (at -25.4 15.24 0) (length 5.08)
          (name "P7" (effects (font (size 1.27 1.27))))
          (number "7" (effects (font (size 1.27 1.27))))
        )
        (pin bidirectional line (at 25.4 -40.64 180) (length 5.08)
          (name "P70" (effects (font (size 1.27 1.27))))
          (number "70" (effects (font (size 1.27 1.27))))
        )
        (pin bidirectional line (at 25.4 -43.18 180) (length 5.08)
          (name "P71" (effects (font (size 1.27 1.27))))
          (number "71" (effects (font (size 1.27 1.27))))
        )
        (pin bidirectional line (at 25.4 -45.72 180) (length 5.08)
          (name "P72" (effects (font (size 1.27 1.27))))
          (number "72" (effects (font (size 1.27 1.27))))
        )
        (pin bidirectional line (at 25.4 -48.26 180) (length 5.08)
          (name "P73" (effects (font (size 1.27 1.27))))
          (number "73" (effects (font (size 1.27 1.27))))
        )
        (pin bidirectional line (at 25.4 30.48 180) (length 5.08)
          (name "P74" (effects (font (size 1.27 1.27))))
          (number "74" (effects (font (size 1.27 1.27))))
        )
        (pin power_in line (at 5.08 -68.58 90) (length 5.08)
          (name "GND" (effects (font (size 1.27 1.27))))
          (number "75" (effects (font (size 1.27 1.27))))
        )
        (pin bidirectional line (at 25.4 27.94 180) (length 5.08)
          (name "P76" (effects (font (size 1.27 1.27))))
          (number "76" (effects (font (size 1.27 1.27))))
        )
        (pin bidirectional line (at 25.4 25.4 180) (length 5.08)
          (name "P77" (effects (font (size 1.27 1.27))))
          (number "77" (effects (font (size 1.27 1.27))))
        )
        (pin bidirectional line (at 25.4 22.86 180) (length 5.08)
          (name "P78" (effects (font (size 1.27 1.27))))
          (number "78" (effects (font (size 1.27 1.27))))
        )
        (pin bidirectional line (at 25.4 20.32 180) (length 5.08)
          (name "P79" (effects (font (size 1.27 1.27))))
          (number "79" (effects (font (size 1.27 1.27))))
        )
        (pin bidirectional line (at -25.4 12.7 0) (length 5.08)
          (name "P8" (effects (font (size 1.27 1.27))))
          (number "8" (effects (font (size 1.27 1.27))))
        )
        (pin bidirectional line (at 25.4 17.78 180) (length 5.08)
          (name "P80" (effects (font (size 1.27 1.27))))
          (number "80" (effects (font (size 1.27 1.27))))
        )
        (pin bidirectional line (at 25.4 15.24 180) (length 5.08)
          (name "P81" (effects (font (size 1.27 1.27))))
          (number "81" (effects (font (size 1.27 1.27))))
        )
        (pin bidirectional line (at 25.4 12.7 180) (length 5.08)
          (name "P82" (effects (font (size 1.27 1.27))))
          (number "82" (effects (font (size 1.27 1.27))))
        )
        (pin output line (at 25.4 -60.96 180) (length 5.08)
          (name "TDO" (effects (font (size 1.27 1.27))))
          (number "83" (effects (font (size 1.27 1.27))))
        )
        (pin power_in line (at 7.62 -68.58 90) (length 5.08)
          (name "GND" (effects (font (size 1.27 1.27))))
          (number "84" (effects (font (size 1.27 1.27))))
        )
        (pin bidirectional line (at 25.4 10.16 180) (length 5.08)
          (name "P85" (effects (font (size 1.27 1.27))))
          (number "85" (effects (font (size 1.27 1.27))))
        )
        (pin bidirectional line (at 25.4 7.62 180) (length 5.08)
          (name "P86" (effects (font (size 1.27 1.27))))
          (number "86" (effects (font (size 1.27 1.27))))
        )
        (pin bidirectional line (at -25.4 -25.4 0) (length 5.08)
          (name "P87" (effects (font (size 1.27 1.27))))
          (number "87" (effects (font (size 1.27 1.27))))
        )
        (pin power_in line (at 7.62 68.58 270) (length 5.08)
          (name "VCCIO" (effects (font (size 1.27 1.27))))
          (number "88" (effects (font (size 1.27 1.27))))
        )
        (pin bidirectional line (at -25.4 -27.94 0) (length 5.08)
          (name "P89" (effects (font (size 1.27 1.27))))
          (number "89" (effects (font (size 1.27 1.27))))
        )
        (pin bidirectional line (at -25.4 10.16 0) (length 5.08)
          (name "P9" (effects (font (size 1.27 1.27))))
          (number "9" (effects (font (size 1.27 1.27))))
        )
        (pin bidirectional line (at -25.4 -30.48 0) (length 5.08)
          (name "P90" (effects (font (size 1.27 1.27))))
          (number "90" (effects (font (size 1.27 1.27))))
        )
        (pin bidirectional line (at -25.4 -33.02 0) (length 5.08)
          (name "P91" (effects (font (size 1.27 1.27))))
          (number "91" (effects (font (size 1.27 1.27))))
        )
        (pin bidirectional line (at -25.4 -35.56 0) (length 5.08)
          (name "P92" (effects (font (size 1.27 1.27))))
          (number "92" (effects (font (size 1.27 1.27))))
        )
        (pin bidirectional line (at -25.4 -38.1 0) (length 5.08)
          (name "P93" (effects (font (size 1.27 1.27))))
          (number "93" (effects (font (size 1.27 1.27))))
        )
        (pin bidirectional line (at -25.4 -40.64 0) (length 5.08)
          (name "P94" (effects (font (size 1.27 1.27))))
          (number "94" (effects (font (size 1.27 1.27))))
        )
        (pin bidirectional line (at -25.4 -43.18 0) (length 5.08)
          (name "P95" (effects (font (size 1.27 1.27))))
          (number "95" (effects (font (size 1.27 1.27))))
        )
        (pin bidirectional line (at -25.4 -45.72 0) (length 5.08)
          (name "P96" (effects (font (size 1.27 1.27))))
          (number "96" (effects (font (size 1.27 1.27))))
        )
        (pin bidirectional line (at -25.4 -48.26 0) (length 5.08)
          (name "P97" (effects (font (size 1.27 1.27))))
          (number "97" (effects (font (size 1.27 1.27))))
        )
        (pin power_in line (at -2.54 68.58 270) (length 5.08)
          (name "VCCINT" (effects (font (size 1.27 1.27))))
          (number "98" (effects (font (size 1.27 1.27))))
        )
        (pin bidirectional line (at -25.4 30.48 0) (length 5.08)
          (name "I/O/GSR" (effects (font (size 1.27 1.27))))
          (number "99" (effects (font (size 1.27 1.27))))
        )
      )
    )
    (symbol "Connector_Generic:Conn_02x06_Odd_Even" (pin_names (offset 1.016) hide) (in_bom yes) (on_board yes)
      (property "Reference" "J" (at 1.27 7.62 0)
        (effects (font (size 1.27 1.27)))
      )
      (property "Value" "Conn_02x06_Odd_Even" (at 1.27 -10.16 0)
        (effects (font (size 1.27 1.27)))
      )
      (property "Footprint" "" (at 0 0 0)
        (effects (font (size 1.27 1.27)) hide)
      )
      (property "Datasheet" "~" (at 0 0 0)
        (effects (font (size 1.27 1.27)) hide)
      )
      (property "ki_keywords" "connector" (at 0 0 0)
        (effects (font (size 1.27 1.27)) hide)
      )
      (property "ki_description" "Generic connector, double row, 02x06, odd/even pin numbering scheme (row 1 odd numbers, row 2 even numbers), script generated (kicad-library-utils/schlib/autogen/connector/)" (at 0 0 0)
        (effects (font (size 1.27 1.27)) hide)
      )
      (property "ki_fp_filters" "Connector*:*_2x??_*" (at 0 0 0)
        (effects (font (size 1.27 1.27)) hide)
      )
      (symbol "Conn_02x06_Odd_Even_1_1"
        (rectangle (start -1.27 -7.493) (end 0 -7.747)
          (stroke (width 0.1524) (type default))
          (fill (type none))
        )
        (rectangle (start -1.27 -4.953) (end 0 -5.207)
          (stroke (width 0.1524) (type default))
          (fill (type none))
        )
        (rectangle (start -1.27 -2.413) (end 0 -2.667)
          (stroke (width 0.1524) (type default))
          (fill (type none))
        )
        (rectangle (start -1.27 0.127) (end 0 -0.127)
          (stroke (width 0.1524) (type default))
          (fill (type none))
        )
        (rectangle (start -1.27 2.667) (end 0 2.413)
          (stroke (width 0.1524) (type default))
          (fill (type none))
        )
        (rectangle (start -1.27 5.207) (end 0 4.953)
          (stroke (width 0.1524) (type default))
          (fill (type none))
        )
        (rectangle (start -1.27 6.35) (end 3.81 -8.89)
          (stroke (width 0.254) (type default))
          (fill (type background))
        )
        (rectangle (start 3.81 -7.493) (end 2.54 -7.747)
          (stroke (width 0.1524) (type default))
          (fill (type none))
        )
        (rectangle (start 3.81 -4.953) (end 2.54 -5.207)
          (stroke (width 0.1524) (type default))
          (fill (type none))
        )
        (rectangle (start 3.81 -2.413) (end 2.54 -2.667)
          (stroke (width 0.1524) (type default))
          (fill (type none))
        )
        (rectangle (start 3.81 0.127) (end 2.54 -0.127)
          (stroke (width 0.1524) (type default))
          (fill (type none))
        )
        (rectangle (start 3.81 2.667) (end 2.54 2.413)
          (stroke (width 0.1524) (type default))
          (fill (type none))
        )
        (rectangle (start 3.81 5.207) (end 2.54 4.953)
          (stroke (width 0.1524) (type default))
          (fill (type none))
        )
        (pin passive line (at -5.08 5.08 0) (length 3.81)
          (name "Pin_1" (effects (font (size 1.27 1.27))))
          (number "1" (effects (font (size 1.27 1.27))))
        )
        (pin passive line (at 7.62 -5.08 180) (length 3.81)
          (name "Pin_10" (effects (font (size 1.27 1.27))))
          (number "10" (effects (font (size 1.27 1.27))))
        )
        (pin passive line (at -5.08 -7.62 0) (length 3.81)
          (name "Pin_11" (effects (font (size 1.27 1.27))))
          (number "11" (effects (font (size 1.27 1.27))))
        )
        (pin passive line (at 7.62 -7.62 180) (length 3.81)
          (name "Pin_12" (effects (font (size 1.27 1.27))))
          (number "12" (effects (font (size 1.27 1.27))))
        )
        (pin passive line (at 7.62 5.08 180) (length 3.81)
          (name "Pin_2" (effects (font (size 1.27 1.27))))
          (number "2" (effects (font (size 1.27 1.27))))
        )
        (pin passive line (at -5.08 2.54 0) (length 3.81)
          (name "Pin_3" (effects (font (size 1.27 1.27))))
          (number "3" (effects (font (size 1.27 1.27))))
        )
        (pin passive line (at 7.62 2.54 180) (length 3.81)
          (name "Pin_4" (effects (font (size 1.27 1.27))))
          (number "4" (effects (font (size 1.27 1.27))))
        )
        (pin passive line (at -5.08 0 0) (length 3.81)
          (name "Pin_5" (effects (font (size 1.27 1.27))))
          (number "5" (effects (font (size 1.27 1.27))))
        )
        (pin passive line (at 7.62 0 180) (length 3.81)
          (name "Pin_6" (effects (font (size 1.27 1.27))))
          (number "6" (effects (font (size 1.27 1.27))))
        )
        (pin passive line (at -5.08 -2.54 0) (length 3.81)
          (name "Pin_7" (effects (font (size 1.27 1.27))))
          (number "7" (effects (font (size 1.27 1.27))))
        )
        (pin passive line (at 7.62 -2.54 180) (length 3.81)
          (name "Pin_8" (effects (font (size 1.27 1.27))))
          (number "8" (effects (font (size 1.27 1.27))))
        )
        (pin passive line (at -5.08 -5.08 0) (length 3.81)
          (name "Pin_9" (effects (font (size 1.27 1.27))))
          (number "9" (effects (font (size 1.27 1.27))))
        )
      )
    )
    (symbol "Device:C_Small" (pin_numbers hide) (pin_names (offset 0.254) hide) (in_bom yes) (on_board yes)
      (property "Reference" "C" (at 0.254 1.778 0)
        (effects (font (size 1.27 1.27)) (justify left))
      )
      (property "Value" "C_Small" (at 0.254 -2.032 0)
        (effects (font (size 1.27 1.27)) (justify left))
      )
      (property "Footprint" "" (at 0 0 0)
        (effects (font (size 1.27 1.27)) hide)
      )
      (property "Datasheet" "~" (at 0 0 0)
        (effects (font (size 1.27 1.27)) hide)
      )
      (property "ki_keywords" "capacitor cap" (at 0 0 0)
        (effects (font (size 1.27 1.27)) hide)
      )
      (property "ki_description" "Unpolarized capacitor, small symbol" (at 0 0 0)
        (effects (font (size 1.27 1.27)) hide)
      )
      (property "ki_fp_filters" "C_*" (at 0 0 0)
        (effects (font (size 1.27 1.27)) hide)
      )
      (symbol "C_Small_0_1"
        (polyline
          (pts
            (xy -1.524 -0.508)
            (xy 1.524 -0.508)
          )
          (stroke (width 0.3302) (type default))
          (fill (type none))
        )
        (polyline
          (pts
            (xy -1.524 0.508)
            (xy 1.524 0.508)
          )
          (stroke (width 0.3048) (type default))
          (fill (type none))
        )
      )
      (symbol "C_Small_1_1"
        (pin passive line (at 0 2.54 270) (length 2.032)
          (name "~" (effects (font (size 1.27 1.27))))
          (number "1" (effects (font (size 1.27 1.27))))
        )
        (pin passive line (at 0 -2.54 90) (length 2.032)
          (name "~" (effects (font (size 1.27 1.27))))
          (number "2" (effects (font (size 1.27 1.27))))
        )
      )
    )
    (symbol "power:+3V3" (power) (pin_names (offset 0)) (in_bom yes) (on_board yes)
      (property "Reference" "#PWR" (at 0 -3.81 0)
        (effects (font (size 1.27 1.27)) hide)
      )
      (property "Value" "+3V3" (at 0 3.556 0)
        (effects (font (size 1.27 1.27)))
      )
      (property "Footprint" "" (at 0 0 0)
        (effects (font (size 1.27 1.27)) hide)
      )
      (property "Datasheet" "" (at 0 0 0)
        (effects (font (size 1.27 1.27)) hide)
      )
      (property "ki_keywords" "power-flag" (at 0 0 0)
        (effects (font (size 1.27 1.27)) hide)
      )
      (property "ki_description" "Power symbol creates a global label with name \"+3V3\"" (at 0 0 0)
        (effects (font (size 1.27 1.27)) hide)
      )
      (symbol "+3V3_0_1"
        (polyline
          (pts
            (xy -0.762 1.27)
            (xy 0 2.54)
          )
          (stroke (width 0) (type default))
          (fill (type none))
        )
        (polyline
          (pts
            (xy 0 0)
            (xy 0 2.54)
          )
          (stroke (width 0) (type default))
          (fill (type none))
        )
        (polyline
          (pts
            (xy 0 2.54)
            (xy 0.762 1.27)
          )
          (stroke (width 0) (type default))
          (fill (type none))
        )
      )
      (symbol "+3V3_1_1"
        (pin power_in line (at 0 0 90) (length 0) hide
          (name "+3V3" (effects (font (size 1.27 1.27))))
          (number "1" (effects (font (size 1.27 1.27))))
        )
      )
    )
    (symbol "power:+5V" (power) (pin_names (offset 0)) (in_bom yes) (on_board yes)
      (property "Reference" "#PWR" (at 0 -3.81 0)
        (effects (font (size 1.27 1.27)) hide)
      )
      (property "Value" "+5V" (at 0 3.556 0)
        (effects (font (size 1.27 1.27)))
      )
      (property "Footprint" "" (at 0 0 0)
        (effects (font (size 1.27 1.27)) hide)
      )
      (property "Datasheet" "" (at 0 0 0)
        (effects (font (size 1.27 1.27)) hide)
      )
      (property "ki_keywords" "global power" (at 0 0 0)
        (effects (font (size 1.27 1.27)) hide)
      )
      (property "ki_description" "Power symbol creates a global label with name \"+5V\"" (at 0 0 0)
        (effects (font (size 1.27 1.27)) hide)
      )
      (symbol "+5V_0_1"
        (polyline
          (pts
            (xy -0.762 1.27)
            (xy 0 2.54)
          )
          (stroke (width 0) (type default))
          (fill (type none))
        )
        (polyline
          (pts
            (xy 0 0)
            (xy 0 2.54)
          )
          (stroke (width 0) (type default))
          (fill (type none))
        )
        (polyline
          (pts
            (xy 0 2.54)
            (xy 0.762 1.27)
          )
          (stroke (width 0) (type default))
          (fill (type none))
        )
      )
      (symbol "+5V_1_1"
        (pin power_in line (at 0 0 90) (length 0) hide
          (name "+5V" (effects (font (size 1.27 1.27))))
          (number "1" (effects (font (size 1.27 1.27))))
        )
      )
    )
    (symbol "power:GND" (power) (pin_names (offset 0)) (in_bom yes) (on_board yes)
      (property "Reference" "#PWR" (at 0 -6.35 0)
        (effects (font (size 1.27 1.27)) hide)
      )
      (property "Value" "GND" (at 0 -3.81 0)
        (effects (font (size 1.27 1.27)))
      )
      (property "Footprint" "" (at 0 0 0)
        (effects (font (size 1.27 1.27)) hide)
      )
      (property "Datasheet" "" (at 0 0 0)
        (effects (font (size 1.27 1.27)) hide)
      )
      (property "ki_keywords" "power-flag" (at 0 0 0)
        (effects (font (size 1.27 1.27)) hide)
      )
      (property "ki_description" "Power symbol creates a global label with name \"GND\" , ground" (at 0 0 0)
        (effects (font (size 1.27 1.27)) hide)
      )
      (symbol "GND_0_1"
        (polyline
          (pts
            (xy 0 0)
            (xy 0 -1.27)
            (xy 1.27 -1.27)
            (xy 0 -2.54)
            (xy -1.27 -1.27)
            (xy 0 -1.27)
          )
          (stroke (width 0) (type default))
          (fill (type none))
        )
      )
      (symbol "GND_1_1"
        (pin power_in line (at 0 0 270) (length 0) hide
          (name "GND" (effects (font (size 1.27 1.27))))
          (number "1" (effects (font (size 1.27 1.27))))
        )
      )
    )
  )

  (junction (at 119.38 191.77) (diameter 0) (color 0 0 0 0)
    (uuid 15189cef-9045-423b-b4f6-a763d4e75704)
  )
  (junction (at 193.04 157.48) (diameter 0) (color 0 0 0 0)
    (uuid 17cf1c88-8d51-4538-aa76-e35ac22d0ed0)
  )
  (junction (at 129.54 191.77) (diameter 0) (color 0 0 0 0)
    (uuid 1a22eb2d-f625-4371-a918-ff1b97dc8219)
  )
  (junction (at 180.34 157.48) (diameter 0) (color 0 0 0 0)
    (uuid 2028d85e-9e27-4758-8c0b-559fad072813)
  )
  (junction (at 177.8 20.32) (diameter 0) (color 0 0 0 0)
    (uuid 234e1024-0b7f-410c-90bb-bae43af1eb25)
  )
  (junction (at 139.7 191.77) (diameter 0) (color 0 0 0 0)
    (uuid 291935ec-f8ff-41f0-8717-e68b8af7b8c1)
  )
  (junction (at 139.7 186.69) (diameter 0) (color 0 0 0 0)
    (uuid 35fb7c56-dc85-43f7-b954-81b8040a8500)
  )
  (junction (at 187.96 157.48) (diameter 0) (color 0 0 0 0)
    (uuid 3fa05934-8ad1-40a9-af5c-98ad298eb412)
  )
  (junction (at 182.88 157.48) (diameter 0) (color 0 0 0 0)
    (uuid 49488c82-6277-4d05-a051-6a9df142c373)
  )
  (junction (at 73.66 86.36) (diameter 0) (color 0 0 0 0)
    (uuid 4bbda676-9b5b-4904-8c29-6fdc6253b83b)
  )
  (junction (at 73.66 91.44) (diameter 0) (color 0 0 0 0)
    (uuid 5485dfac-23ae-4aad-925c-34c189dad3c3)
  )
  (junction (at 119.38 186.69) (diameter 0) (color 0 0 0 0)
    (uuid 560d05a7-84e4-403a-80d1-f287a4032b8a)
  )
  (junction (at 185.42 20.32) (diameter 0) (color 0 0 0 0)
    (uuid 6762c669-2824-49a2-8bd4-3f19091dd75a)
  )
  (junction (at 160.02 186.69) (diameter 0) (color 0 0 0 0)
    (uuid 7274c82d-0cb9-47de-b093-7d848f491410)
  )
  (junction (at 73.66 88.9) (diameter 0) (color 0 0 0 0)
    (uuid 77806343-6a98-4e26-b75d-d4d827e8fef9)
  )
  (junction (at 182.88 20.32) (diameter 0) (color 0 0 0 0)
    (uuid 83e349fb-6338-43f9-ad3f-2e7f4b8bb4a9)
  )
  (junction (at 109.22 186.69) (diameter 0) (color 0 0 0 0)
    (uuid 9de304ba-fba7-4896-b969-9d87a3522d74)
  )
  (junction (at 195.58 157.48) (diameter 0) (color 0 0 0 0)
    (uuid a48f5fff-52e4-4ae8-8faa-7084c7ae8a28)
  )
  (junction (at 187.96 20.32) (diameter 0) (color 0 0 0 0)
    (uuid a9d76dfc-52ba-46de-beb4-dab7b94ee663)
  )
  (junction (at 180.34 20.32) (diameter 0) (color 0 0 0 0)
    (uuid aae6bc05-6036-4fc6-8be7-c70daf5c8932)
  )
  (junction (at 149.86 191.77) (diameter 0) (color 0 0 0 0)
    (uuid ae8bb5ae-95ee-4e2d-8a0c-ae5b6149b4e3)
  )
  (junction (at 73.66 83.82) (diameter 0) (color 0 0 0 0)
    (uuid b6d574fc-ffc6-406f-aa38-cb2a07f4dc6b)
  )
  (junction (at 190.5 157.48) (diameter 0) (color 0 0 0 0)
    (uuid b7b00984-6ab1-482e-b4b4-67cac44d44da)
  )
  (junction (at 149.86 186.69) (diameter 0) (color 0 0 0 0)
    (uuid b8c8c7a1-d546-4878-9de9-463ec76dff98)
  )
  (junction (at 185.42 157.48) (diameter 0) (color 0 0 0 0)
    (uuid be5a7017-fe9d-43ea-9a6a-8fe8deb78420)
  )
  (junction (at 170.18 191.77) (diameter 0) (color 0 0 0 0)
    (uuid de552ae9-cde6-4643-8cc7-9de2579dadae)
  )
  (junction (at 160.02 191.77) (diameter 0) (color 0 0 0 0)
    (uuid dec284d9-246c-4619-8dcc-8f4886f9349e)
  )
  (junction (at 129.54 186.69) (diameter 0) (color 0 0 0 0)
    (uuid dfcef016-1bf5-4158-8a79-72d38a522877)
  )
  (junction (at 190.5 20.32) (diameter 0) (color 0 0 0 0)
    (uuid e04b8c10-725b-4bde-8cbf-66bfea5053e6)
  )

  (no_connect (at 160.02 58.42) (uuid 73f40fda-e6eb-4f93-9482-56cf47d84a87))

  (bus_entry (at 147.32 63.5) (size 2.54 2.54)
    (stroke (width 0) (type default))
    (uuid 0a1d0cbe-85ab-4f0f-b3b1-fcef21dfb600)
  )
  (bus_entry (at 147.32 129.54) (size 2.54 2.54)
    (stroke (width 0) (type default))
    (uuid 0a5610bb-d01a-4417-8271-dc424dd2c838)
  )
  (bus_entry (at 147.32 71.12) (size 2.54 2.54)
    (stroke (width 0) (type default))
    (uuid 0c544a8c-9f45-4205-9bca-1d91c95d58ef)
  )
  (bus_entry (at 147.32 27.94) (size 2.54 2.54)
    (stroke (width 0) (type default))
    (uuid 0fb27e11-fde6-4a25-adbb-e9684771b369)
  )
  (bus_entry (at 147.32 35.56) (size 2.54 2.54)
    (stroke (width 0) (type default))
    (uuid 2f3fba7a-cf45-4bd8-9035-07e6fa0b4732)
  )
  (bus_entry (at 220.98 93.98) (size -2.54 2.54)
    (stroke (width 0) (type default))
    (uuid 3a1a39fc-8030-4c93-9d9c-d79ba6824099)
  )
  (bus_entry (at 218.44 43.18) (size -2.54 2.54)
    (stroke (width 0) (type default))
    (uuid 3b9c5ffd-e59b-402d-8c5e-052f7ca643a4)
  )
  (bus_entry (at 147.32 25.4) (size 2.54 2.54)
    (stroke (width 0) (type default))
    (uuid 41c18011-40db-4384-9ba4-c0158d0d9d6a)
  )
  (bus_entry (at 147.32 30.48) (size 2.54 2.54)
    (stroke (width 0) (type default))
    (uuid 4346fe55-f906-453a-b81a-1c013104a598)
  )
  (bus_entry (at 147.32 45.72) (size 2.54 2.54)
    (stroke (width 0) (type default))
    (uuid 456c5e47-d71e-4708-b061-1e61634d8648)
  )
  (bus_entry (at 220.98 96.52) (size -2.54 2.54)
    (stroke (width 0) (type default))
    (uuid 49b5f540-e128-4e08-bb09-f321f8e64056)
  )
  (bus_entry (at 147.32 48.26) (size 2.54 2.54)
    (stroke (width 0) (type default))
    (uuid 49fec31e-3712-4229-8142-b191d90a97d0)
  )
  (bus_entry (at 218.44 45.72) (size -2.54 2.54)
    (stroke (width 0) (type default))
    (uuid 4fb2577d-2e1c-480c-9060-124510b35053)
  )
  (bus_entry (at 220.98 88.9) (size -2.54 2.54)
    (stroke (width 0) (type default))
    (uuid 5a33f5a4-a470-4c04-9e2d-532b5f01a5d6)
  )
  (bus_entry (at 147.32 73.66) (size 2.54 2.54)
    (stroke (width 0) (type default))
    (uuid 60d26b83-9c3a-4edb-93ef-ab3d9d05e8cb)
  )
  (bus_entry (at 220.98 83.82) (size -2.54 2.54)
    (stroke (width 0) (type default))
    (uuid 6133fb54-5524-482e-9ae2-adbf29aced9e)
  )
  (bus_entry (at 218.44 38.1) (size -2.54 2.54)
    (stroke (width 0) (type default))
    (uuid 6b6d35dc-fa1d-46c5-87c0-b0652011059d)
  )
  (bus_entry (at 218.44 35.56) (size -2.54 2.54)
    (stroke (width 0) (type default))
    (uuid 720ec55a-7c69-4064-b792-ef3dbba4eab9)
  )
  (bus_entry (at 147.32 86.36) (size 2.54 2.54)
    (stroke (width 0) (type default))
    (uuid 765684c2-53b3-4ef7-bd1b-7a4a73d87b76)
  )
  (bus_entry (at 147.32 127) (size 2.54 2.54)
    (stroke (width 0) (type default))
    (uuid 9f4abbc0-6ac3-48f0-b823-2c1c19349540)
  )
  (bus_entry (at 147.32 78.74) (size 2.54 2.54)
    (stroke (width 0) (type default))
    (uuid ae158d42-76cc-4911-a621-4cc28931c98b)
  )
  (bus_entry (at 147.32 76.2) (size 2.54 2.54)
    (stroke (width 0) (type default))
    (uuid bb5d2eae-a96e-45dd-89aa-125fe22cc2fa)
  )
  (bus_entry (at 147.32 68.58) (size 2.54 2.54)
    (stroke (width 0) (type default))
    (uuid c37d3f0c-41ec-4928-8869-febc821c6326)
  )
  (bus_entry (at 147.32 33.02) (size 2.54 2.54)
    (stroke (width 0) (type default))
    (uuid c512fed3-9770-476b-b048-e781b4f3cd72)
  )
  (bus_entry (at 147.32 40.64) (size 2.54 2.54)
    (stroke (width 0) (type default))
    (uuid cb1a49ef-0a06-4f40-9008-61d1d1c36198)
  )
  (bus_entry (at 218.44 40.64) (size -2.54 2.54)
    (stroke (width 0) (type default))
    (uuid d035bb7a-e806-42f2-ba95-a390d279aef1)
  )
  (bus_entry (at 147.32 132.08) (size 2.54 2.54)
    (stroke (width 0) (type default))
    (uuid d5f4d798-57d3-493b-b57c-3b6e89508879)
  )
  (bus_entry (at 147.32 38.1) (size 2.54 2.54)
    (stroke (width 0) (type default))
    (uuid d655bb0a-cbf9-4908-ad60-7024ff468fbd)
  )
  (bus_entry (at 220.98 91.44) (size -2.54 2.54)
    (stroke (width 0) (type default))
    (uuid dd70858b-2f9a-4b3f-9af5-ead3a9ba57e9)
  )
  (bus_entry (at 231.14 106.68) (size -2.54 2.54)
    (stroke (width 0) (type default))
    (uuid e057ab1b-472b-4800-8ea2-45925ce61403)
  )
  (bus_entry (at 147.32 134.62) (size 2.54 2.54)
    (stroke (width 0) (type default))
    (uuid e4504518-96e7-4c9e-8457-7273f5a490f1)
  )
  (bus_entry (at 147.32 60.96) (size 2.54 2.54)
    (stroke (width 0) (type default))
    (uuid ea77ba09-319a-49bd-ad5b-49f4c76f232c)
  )
  (bus_entry (at 220.98 111.76) (size -2.54 2.54)
    (stroke (width 0) (type default))
    (uuid efd7a1e0-5bed-4583-a94e-5ccec9e4eb74)
  )
  (bus_entry (at 220.98 86.36) (size -2.54 2.54)
    (stroke (width 0) (type default))
    (uuid f08895dc-4dcb-4aef-a39b-5a08864cdaaf)
  )
  (bus_entry (at 231.14 104.14) (size -2.54 2.54)
    (stroke (width 0) (type default))
    (uuid f701e12f-4066-40a8-acb7-da65c57ee93b)
  )
  (bus_entry (at 147.32 66.04) (size 2.54 2.54)
    (stroke (width 0) (type default))
    (uuid facb0614-068b-4c9c-a466-d374df96a94c)
  )
  (bus_entry (at 147.32 43.18) (size 2.54 2.54)
    (stroke (width 0) (type default))
    (uuid ffa442c7-cbef-461f-8613-c211201cec06)
  )

  (wire (pts (xy 210.82 93.98) (xy 218.44 93.98))
    (stroke (width 0) (type default))
    (uuid 000b46d6-b833-4804-8f56-56d539f76d09)
  )
  (wire (pts (xy 210.82 43.18) (xy 215.9 43.18))
    (stroke (width 0) (type default))
    (uuid 044dde97-ee2e-473a-9264-ed4dff1893a5)
  )
  (wire (pts (xy 182.88 20.32) (xy 185.42 20.32))
    (stroke (width 0) (type default))
    (uuid 044de712-d3da-40ed-9c9f-d91ef285c74c)
  )
  (bus (pts (xy 147.32 127) (xy 147.32 129.54))
    (stroke (width 0) (type default))
    (uuid 05d4469c-1e3a-4add-8626-61a5e656202f)
  )
  (bus (pts (xy 147.32 27.94) (xy 147.32 30.48))
    (stroke (width 0) (type default))
    (uuid 07632eef-4b6a-4f3d-9e93-a91a03819c3a)
  )
  (bus (pts (xy 147.32 38.1) (xy 147.32 40.64))
    (stroke (width 0) (type default))
    (uuid 07a5ad0a-75f6-494c-a2f1-1c732ce92808)
  )

  (wire (pts (xy 73.66 81.28) (xy 73.66 83.82))
    (stroke (width 0) (type default))
    (uuid 08b0ea6c-9901-436d-b1fc-f6d4e21ec933)
  )
  (wire (pts (xy 160.02 33.02) (xy 149.86 33.02))
    (stroke (width 0) (type default))
    (uuid 08ec951f-e7eb-41cf-9589-697107a98e88)
  )
  (wire (pts (xy 160.02 35.56) (xy 149.86 35.56))
    (stroke (width 0) (type default))
    (uuid 09bbea88-8bd7-48ec-baae-1b4a9a11a40e)
  )
  (wire (pts (xy 185.42 20.32) (xy 187.96 20.32))
    (stroke (width 0) (type default))
    (uuid 0b110cbc-e477-4bdc-9c81-26a3d588d354)
  )
  (wire (pts (xy 160.02 45.72) (xy 149.86 45.72))
    (stroke (width 0) (type default))
    (uuid 0f0f7bb5-ade7-4a81-82b4-43be6a8ad05c)
  )
  (bus (pts (xy 147.32 73.66) (xy 147.32 76.2))
    (stroke (width 0) (type default))
    (uuid 0fa7ee95-c41d-4741-af62-277a9d896847)
  )

  (wire (pts (xy 109.22 186.69) (xy 119.38 186.69))
    (stroke (width 0) (type default))
    (uuid 152cd84e-bbed-4df5-a866-d1ab977b0966)
  )
  (bus (pts (xy 220.98 96.52) (xy 220.98 111.76))
    (stroke (width 0) (type default))
    (uuid 1628d2d6-1934-4441-83f2-554ac860b844)
  )

  (wire (pts (xy 160.02 50.8) (xy 149.86 50.8))
    (stroke (width 0) (type default))
    (uuid 162e5bdd-61a8-46a3-8485-826b5d58e1a1)
  )
  (wire (pts (xy 160.02 81.28) (xy 149.86 81.28))
    (stroke (width 0) (type default))
    (uuid 2102c637-9f11-48f1-aae6-b4139dc22be2)
  )
  (wire (pts (xy 160.02 76.2) (xy 149.86 76.2))
    (stroke (width 0) (type default))
    (uuid 272c2a78-b5f5-4b61-aed3-ec69e0e92729)
  )
  (wire (pts (xy 119.38 186.69) (xy 129.54 186.69))
    (stroke (width 0) (type default))
    (uuid 2a4111b7-8149-4814-9344-3b8119cd75e4)
  )
  (bus (pts (xy 147.32 48.26) (xy 147.32 60.96))
    (stroke (width 0) (type default))
    (uuid 2a830129-37fc-4789-92bd-5b9b102f22f9)
  )
  (bus (pts (xy 147.32 25.4) (xy 146.05 25.4))
    (stroke (width 0) (type default))
    (uuid 2b25e886-ded1-450a-ada1-ece4208052e4)
  )

  (wire (pts (xy 210.82 106.68) (xy 228.6 106.68))
    (stroke (width 0) (type default))
    (uuid 2da4ffed-db46-4007-8979-1454a1040efd)
  )
  (bus (pts (xy 147.32 71.12) (xy 147.32 73.66))
    (stroke (width 0) (type default))
    (uuid 2e29b46b-b52d-4024-9d0e-39633329c3aa)
  )

  (wire (pts (xy 160.02 30.48) (xy 149.86 30.48))
    (stroke (width 0) (type default))
    (uuid 2eea20e6-112c-411a-b615-885ae773135a)
  )
  (wire (pts (xy 160.02 48.26) (xy 149.86 48.26))
    (stroke (width 0) (type default))
    (uuid 319c683d-aed6-4e7d-aee2-ff9871746d52)
  )
  (bus (pts (xy 220.98 83.82) (xy 220.98 86.36))
    (stroke (width 0) (type default))
    (uuid 34a11a07-8b7f-45d2-96e3-89fd43e62756)
  )

  (wire (pts (xy 160.02 186.69) (xy 170.18 186.69))
    (stroke (width 0) (type default))
    (uuid 386faf3f-2adf-472a-84bf-bd511edf2429)
  )
  (bus (pts (xy 147.32 45.72) (xy 147.32 48.26))
    (stroke (width 0) (type default))
    (uuid 3c1875f9-0737-4e5c-bf2e-bb508a74497e)
  )
  (bus (pts (xy 147.32 40.64) (xy 147.32 43.18))
    (stroke (width 0) (type default))
    (uuid 3e222b0d-a61b-47de-b7f8-b8f5ba798695)
  )

  (wire (pts (xy 160.02 78.74) (xy 149.86 78.74))
    (stroke (width 0) (type default))
    (uuid 3f2a6679-91d7-4b6c-bf5c-c4d5abb2bc44)
  )
  (wire (pts (xy 210.82 38.1) (xy 215.9 38.1))
    (stroke (width 0) (type default))
    (uuid 4160bbf7-ffff-4c5c-a647-5ee58ddecf06)
  )
  (bus (pts (xy 218.44 35.56) (xy 218.44 38.1))
    (stroke (width 0) (type default))
    (uuid 41b4f8c6-4973-4fc7-9118-d582bc7f31e7)
  )

  (wire (pts (xy 149.86 137.16) (xy 160.02 137.16))
    (stroke (width 0) (type default))
    (uuid 42ecdba3-f348-4384-8d4b-cd21e56f3613)
  )
  (bus (pts (xy 218.44 40.64) (xy 218.44 43.18))
    (stroke (width 0) (type default))
    (uuid 453c49e6-a421-425e-a761-1679eeef3b6e)
  )
  (bus (pts (xy 231.14 104.14) (xy 233.68 104.14))
    (stroke (width 0) (type default))
    (uuid 45ea21b1-bf9c-490c-a46b-93b410865949)
  )
  (bus (pts (xy 147.32 25.4) (xy 147.32 27.94))
    (stroke (width 0) (type default))
    (uuid 47993d80-a37e-426e-90c9-fd54b49ed166)
  )

  (wire (pts (xy 139.7 191.77) (xy 149.86 191.77))
    (stroke (width 0) (type default))
    (uuid 49a65079-57a9-46fc-8711-1d7f2cab8dbf)
  )
  (bus (pts (xy 220.98 86.36) (xy 220.98 88.9))
    (stroke (width 0) (type default))
    (uuid 510e8cff-0fed-461c-b55b-564e9203c44e)
  )

  (wire (pts (xy 160.02 38.1) (xy 149.86 38.1))
    (stroke (width 0) (type default))
    (uuid 56d2bc5d-fd72-4542-ab0f-053a5fd60efa)
  )
  (wire (pts (xy 218.44 96.52) (xy 210.82 96.52))
    (stroke (width 0) (type default))
    (uuid 5a390647-51ba-4684-b747-9001f749ff71)
  )
  (wire (pts (xy 73.66 83.82) (xy 73.66 86.36))
    (stroke (width 0) (type default))
    (uuid 5a4ed62d-238a-48cd-9b1c-99be22b21a78)
  )
  (bus (pts (xy 147.32 43.18) (xy 147.32 45.72))
    (stroke (width 0) (type default))
    (uuid 5af1bf61-ae8c-4f02-860a-cd44f7e94bad)
  )
  (bus (pts (xy 147.32 33.02) (xy 147.32 35.56))
    (stroke (width 0) (type default))
    (uuid 5c0ed0bc-1292-4884-a3ed-c5a5cecec576)
  )
  (bus (pts (xy 218.44 38.1) (xy 218.44 40.64))
    (stroke (width 0) (type default))
    (uuid 5d418eeb-54f0-450e-8983-4abfe3268033)
  )

  (wire (pts (xy 160.02 40.64) (xy 149.86 40.64))
    (stroke (width 0) (type default))
    (uuid 5e6153e6-2c19-46de-9a8e-b310a2a07861)
  )
  (wire (pts (xy 187.96 157.48) (xy 185.42 157.48))
    (stroke (width 0) (type default))
    (uuid 5eb16f0d-ef1e-4549-97a1-19cd06ad7236)
  )
  (wire (pts (xy 210.82 109.22) (xy 228.6 109.22))
    (stroke (width 0) (type default))
    (uuid 5ef3fefe-63f4-49e8-94dd-31d90757c227)
  )
  (bus (pts (xy 147.32 60.96) (xy 147.32 63.5))
    (stroke (width 0) (type default))
    (uuid 601d6497-ec0f-4ba6-a3fa-c896457d3373)
  )

  (wire (pts (xy 73.66 91.44) (xy 73.66 88.9))
    (stroke (width 0) (type default))
    (uuid 609932b7-23d5-4d18-a37b-be75a6d1d117)
  )
  (wire (pts (xy 160.02 66.04) (xy 149.86 66.04))
    (stroke (width 0) (type default))
    (uuid 62f15a9a-9893-486e-9ad0-ea43f88fc9e7)
  )
  (wire (pts (xy 73.66 86.36) (xy 73.66 88.9))
    (stroke (width 0) (type default))
    (uuid 64641304-2aa4-483b-9c65-93347b67d341)
  )
  (wire (pts (xy 210.82 88.9) (xy 218.44 88.9))
    (stroke (width 0) (type default))
    (uuid 661ca2ba-bce5-4308-99a6-de333a625515)
  )
  (wire (pts (xy 210.82 99.06) (xy 218.44 99.06))
    (stroke (width 0) (type default))
    (uuid 6b8c153e-62fe-42fb-aa7f-caef740ef6fd)
  )
  (wire (pts (xy 129.54 186.69) (xy 139.7 186.69))
    (stroke (width 0) (type default))
    (uuid 6ff9bb63-d6fd-4e32-bb60-7ac65509c2e9)
  )
  (wire (pts (xy 210.82 45.72) (xy 215.9 45.72))
    (stroke (width 0) (type default))
    (uuid 722636b6-8ff0-452f-9357-23deb317d921)
  )
  (wire (pts (xy 160.02 191.77) (xy 170.18 191.77))
    (stroke (width 0) (type default))
    (uuid 72366acb-6c86-4134-89df-01ed6e4dc8e0)
  )
  (wire (pts (xy 160.02 68.58) (xy 149.86 68.58))
    (stroke (width 0) (type default))
    (uuid 7273dd21-e834-41d3-b279-d7de727709ca)
  )
  (wire (pts (xy 139.7 186.69) (xy 149.86 186.69))
    (stroke (width 0) (type default))
    (uuid 73ee7e03-97a8-4121-b568-c25f3934a935)
  )
  (wire (pts (xy 210.82 40.64) (xy 215.9 40.64))
    (stroke (width 0) (type default))
    (uuid 7582a530-a952-46c1-b7eb-75006524ba29)
  )
  (bus (pts (xy 147.32 63.5) (xy 147.32 66.04))
    (stroke (width 0) (type default))
    (uuid 7c1b3707-10cf-45a3-beda-10b164d243e7)
  )
  (bus (pts (xy 147.32 68.58) (xy 147.32 71.12))
    (stroke (width 0) (type default))
    (uuid 819d5acf-863e-43cd-9c42-c5ab95883177)
  )

  (wire (pts (xy 149.86 186.69) (xy 160.02 186.69))
    (stroke (width 0) (type default))
    (uuid 82204892-ec79-4d38-a593-52fb9a9b4b87)
  )
  (wire (pts (xy 210.82 48.26) (xy 215.9 48.26))
    (stroke (width 0) (type default))
    (uuid 8ae05d37-86b4-45ea-800f-f1f9fb167857)
  )
  (wire (pts (xy 149.86 191.77) (xy 160.02 191.77))
    (stroke (width 0) (type default))
    (uuid 8b3ba7fc-20b6-43c4-a020-80151e1caecc)
  )
  (bus (pts (xy 147.32 132.08) (xy 147.32 134.62))
    (stroke (width 0) (type default))
    (uuid 977f6e5e-5425-4fc3-b917-cb32afd616f4)
  )
  (bus (pts (xy 147.32 78.74) (xy 147.32 86.36))
    (stroke (width 0) (type default))
    (uuid 99f3763c-685d-4adf-b2ea-99d421921562)
  )
  (bus (pts (xy 147.32 35.56) (xy 147.32 38.1))
    (stroke (width 0) (type default))
    (uuid 9a776d3b-6658-4201-a337-3c87e23457ac)
  )

  (wire (pts (xy 185.42 157.48) (xy 182.88 157.48))
    (stroke (width 0) (type default))
    (uuid 9cacb6ad-6bbf-4ffe-b0a4-2df24045e046)
  )
  (wire (pts (xy 193.04 157.48) (xy 190.5 157.48))
    (stroke (width 0) (type default))
    (uuid 9e2492fd-e074-42db-8129-fe39460dc1e0)
  )
  (wire (pts (xy 160.02 43.18) (xy 149.86 43.18))
    (stroke (width 0) (type default))
    (uuid 9f969b13-1795-4747-8326-93bdc304ed56)
  )
  (wire (pts (xy 149.86 129.54) (xy 160.02 129.54))
    (stroke (width 0) (type default))
    (uuid a22bec73-a69c-4ab7-8d8d-f6a6b09f925f)
  )
  (wire (pts (xy 119.38 191.77) (xy 129.54 191.77))
    (stroke (width 0) (type default))
    (uuid a239fd1d-dfbb-49fd-b565-8c3de9dcf42b)
  )
  (wire (pts (xy 160.02 71.12) (xy 149.86 71.12))
    (stroke (width 0) (type default))
    (uuid a3fab380-991d-404b-95d5-1c209b047b6e)
  )
  (wire (pts (xy 109.22 191.77) (xy 119.38 191.77))
    (stroke (width 0) (type default))
    (uuid a686ed7c-c2d1-4d29-9d54-727faf9fd6bf)
  )
  (wire (pts (xy 210.82 86.36) (xy 218.44 86.36))
    (stroke (width 0) (type default))
    (uuid acb6c3f3-e677-4f35-9fc2-138ba10f33af)
  )
  (bus (pts (xy 218.44 43.18) (xy 218.44 45.72))
    (stroke (width 0) (type default))
    (uuid ad4704cb-121b-40b5-b135-30265818eb69)
  )
  (bus (pts (xy 220.98 88.9) (xy 220.98 91.44))
    (stroke (width 0) (type default))
    (uuid ad9b4029-2050-40af-938e-f925f34173a9)
  )
  (bus (pts (xy 147.32 129.54) (xy 147.32 132.08))
    (stroke (width 0) (type default))
    (uuid b116c81e-2735-4fd0-8690-f9ef8d322648)
  )
  (bus (pts (xy 147.32 86.36) (xy 147.32 127))
    (stroke (width 0) (type default))
    (uuid b21715cf-83c3-46cf-87c4-339992bbdca4)
  )
  (bus (pts (xy 231.14 106.68) (xy 231.14 104.14))
    (stroke (width 0) (type default))
    (uuid b2277fcf-8ba0-475c-b91f-a38ec6728a38)
  )

  (wire (pts (xy 160.02 63.5) (xy 149.86 63.5))
    (stroke (width 0) (type default))
    (uuid b2b363dd-8e47-4a76-a142-e00e28334875)
  )
  (wire (pts (xy 149.86 132.08) (xy 160.02 132.08))
    (stroke (width 0) (type default))
    (uuid b44c0167-50fe-4c67-94fb-5ce2e6f52544)
  )
  (wire (pts (xy 149.86 134.62) (xy 160.02 134.62))
    (stroke (width 0) (type default))
    (uuid bd29b6d3-a58c-4b1f-9c20-de4efb708ab2)
  )
  (wire (pts (xy 218.44 91.44) (xy 210.82 91.44))
    (stroke (width 0) (type default))
    (uuid bf8d857b-70bf-41ee-a068-5771461e04e9)
  )
  (wire (pts (xy 160.02 27.94) (xy 149.86 27.94))
    (stroke (width 0) (type default))
    (uuid c15b2f75-2e10-4b71-bebb-e2b872171b92)
  )
  (wire (pts (xy 182.88 157.48) (xy 180.34 157.48))
    (stroke (width 0) (type default))
    (uuid c20aea50-e9e4-4978-b938-d613d445aab7)
  )
  (wire (pts (xy 190.5 157.48) (xy 187.96 157.48))
    (stroke (width 0) (type default))
    (uuid c3a69550-c4fa-45d1-9aba-0bba47699cca)
  )
  (bus (pts (xy 147.32 76.2) (xy 147.32 78.74))
    (stroke (width 0) (type default))
    (uuid c8245ab0-59da-412e-8d25-e5bcfaeddeeb)
  )
  (bus (pts (xy 147.32 30.48) (xy 147.32 33.02))
    (stroke (width 0) (type default))
    (uuid cd117e33-81f3-4e15-9ad9-5cbdfd6c73a8)
  )

  (wire (pts (xy 210.82 114.3) (xy 218.44 114.3))
    (stroke (width 0) (type default))
    (uuid ceb12634-32ca-4cbf-9ff5-5e8b53ab18ad)
  )
  (bus (pts (xy 218.44 35.56) (xy 219.71 35.56))
    (stroke (width 0) (type default))
    (uuid d4ef5db0-5fba-4fcd-ab64-2ef2646c5c6d)
  )
  (bus (pts (xy 220.98 91.44) (xy 220.98 93.98))
    (stroke (width 0) (type default))
    (uuid d6473873-2a8d-47dc-a135-38a6bdd1a70b)
  )

  (wire (pts (xy 187.96 20.32) (xy 190.5 20.32))
    (stroke (width 0) (type default))
    (uuid d9cf2d61-3126-40fe-a66d-ae5145f94be8)
  )
  (wire (pts (xy 160.02 88.9) (xy 149.86 88.9))
    (stroke (width 0) (type default))
    (uuid dd2d59b3-ddef-491f-bb57-eb3d3820bdeb)
  )
  (wire (pts (xy 190.5 20.32) (xy 193.04 20.32))
    (stroke (width 0) (type default))
    (uuid df5c9f6b-a62e-44ba-997f-b2cf3279c7d4)
  )
  (wire (pts (xy 177.8 20.32) (xy 180.34 20.32))
    (stroke (width 0) (type default))
    (uuid e0b0947e-ec91-4d8a-8663-5a112b0a8541)
  )
  (wire (pts (xy 180.34 157.48) (xy 177.8 157.48))
    (stroke (width 0) (type default))
    (uuid e0d7c1d9-102e-4758-a8b7-ff248f1ce315)
  )
  (wire (pts (xy 195.58 157.48) (xy 193.04 157.48))
    (stroke (width 0) (type default))
    (uuid f4aae365-6c70-41da-9253-52b239e8f5e6)
  )
  (wire (pts (xy 129.54 191.77) (xy 139.7 191.77))
    (stroke (width 0) (type default))
    (uuid f674b8e7-203d-419e-988a-58e0f9ae4fad)
  )
  (wire (pts (xy 160.02 73.66) (xy 149.86 73.66))
    (stroke (width 0) (type default))
    (uuid f6a5c856-f2b5-40eb-a958-b666a0d408a0)
  )
  (bus (pts (xy 220.98 83.82) (xy 222.25 83.82))
    (stroke (width 0) (type default))
    (uuid f7070c76-b83b-43a9-a243-491723819616)
  )
  (bus (pts (xy 220.98 93.98) (xy 220.98 96.52))
    (stroke (width 0) (type default))
    (uuid f9f57a55-28b5-42fe-91c2-a575e5434058)
  )
  (bus (pts (xy 147.32 66.04) (xy 147.32 68.58))
    (stroke (width 0) (type default))
    (uuid fcd90b52-9d16-482f-9241-1a464de3fc0f)
  )

  (wire (pts (xy 180.34 20.32) (xy 182.88 20.32))
    (stroke (width 0) (type default))
    (uuid fcfb3f77-487d-44de-bd4e-948fbeca3220)
  )

  (text "MCKE used to be CK25EN\nGA23 used to be SW1\nGA22 used to be SW0"
    (at 223.52 96.52 0)
    (effects (font (size 1.27 1.27)) (justify left bottom))
    (uuid 9dea66bb-f925-4b4d-b327-e45f84fbf5b7)
  )

  (label "DBG3" (at 210.82 35.56 0) (fields_autoplaced)
    (effects (font (size 1.27 1.27)) (justify left bottom))
    (uuid 0b11b5c4-3ed8-4458-992e-00259077b7ca)
  )
  (label "DBG5" (at 86.36 91.44 0) (fields_autoplaced)
    (effects (font (size 1.27 1.27)) (justify left bottom))
    (uuid 0cd6873b-a562-4eb5-80e4-203f8b1d36e9)
  )
  (label "RA11" (at 210.82 114.3 0) (fields_autoplaced)
    (effects (font (size 1.27 1.27)) (justify left bottom))
    (uuid 113ffcdf-4c54-4e37-81dc-f91efa934ba7)
  )
  (label "A8" (at 160.02 71.12 180) (fields_autoplaced)
    (effects (font (size 1.27 1.27)) (justify right bottom))
    (uuid 1cacb878-9da4-41fc-aa80-018bc841e19a)
  )
  (label "A23" (at 160.02 88.9 180) (fields_autoplaced)
    (effects (font (size 1.27 1.27)) (justify right bottom))
    (uuid 1cb64bfe-d819-47e3-be11-515b04f2c451)
  )
  (label "DBG1" (at 86.36 81.28 0) (fields_autoplaced)
    (effects (font (size 1.27 1.27)) (justify left bottom))
    (uuid 1d4a66b6-1a55-4828-89d4-d36acee49f91)
  )
  (label "A5" (at 160.02 63.5 180) (fields_autoplaced)
    (effects (font (size 1.27 1.27)) (justify right bottom))
    (uuid 1de61170-5337-44c5-ba28-bd477db4bff1)
  )
  (label "RA2" (at 210.82 45.72 0) (fields_autoplaced)
    (effects (font (size 1.27 1.27)) (justify left bottom))
    (uuid 232ccf4f-3322-4e62-990b-290e6ff36fcd)
  )
  (label "A15" (at 160.02 33.02 180) (fields_autoplaced)
    (effects (font (size 1.27 1.27)) (justify right bottom))
    (uuid 247ebffd-2cb6-4379-ba6e-21861fea3913)
  )
  (label "RA10" (at 210.82 96.52 0) (fields_autoplaced)
    (effects (font (size 1.27 1.27)) (justify left bottom))
    (uuid 2681e64d-bedc-4e1f-87d2-754aaa485bbd)
  )
  (label "RA1" (at 210.82 86.36 0) (fields_autoplaced)
    (effects (font (size 1.27 1.27)) (justify left bottom))
    (uuid 2ba25c40-ea42-478e-9150-1d94fa1c8ae9)
  )
  (label "A17" (at 160.02 38.1 180) (fields_autoplaced)
    (effects (font (size 1.27 1.27)) (justify right bottom))
    (uuid 3bbbbb7d-391c-4fee-ac81-3c47878edc38)
  )
  (label "RA4" (at 210.82 38.1 0) (fields_autoplaced)
    (effects (font (size 1.27 1.27)) (justify left bottom))
    (uuid 42b61d5b-39d6-462b-b2cc-57656078085f)
  )
  (label "DBG5" (at 160.02 60.96 180) (fields_autoplaced)
    (effects (font (size 1.27 1.27)) (justify right bottom))
    (uuid 460d896d-0b68-423f-b601-739ecc63ca65)
  )
  (label "A16" (at 160.02 35.56 180) (fields_autoplaced)
    (effects (font (size 1.27 1.27)) (justify right bottom))
    (uuid 4a53fa56-d65b-42a4-a4be-8f49c4c015bb)
  )
  (label "GA22" (at 223.52 109.22 0) (fields_autoplaced)
    (effects (font (size 1.27 1.27)) (justify left bottom))
    (uuid 4c924e11-c631-4c54-9eba-4528f9faf437)
  )
  (label "A7" (at 160.02 68.58 180) (fields_autoplaced)
    (effects (font (size 1.27 1.27)) (justify right bottom))
    (uuid 4ce9470f-5633-41bf-89ac-74a810939893)
  )
  (label "A10" (at 160.02 76.2 180) (fields_autoplaced)
    (effects (font (size 1.27 1.27)) (justify right bottom))
    (uuid 51cc007a-3378-4ce3-909c-71e94822f8d1)
  )
  (label "DBG1" (at 210.82 127 0) (fields_autoplaced)
    (effects (font (size 1.27 1.27)) (justify left bottom))
    (uuid 532006e1-0024-4639-a865-6e0dbd03417d)
  )
  (label "A9" (at 160.02 73.66 180) (fields_autoplaced)
    (effects (font (size 1.27 1.27)) (justify right bottom))
    (uuid 5576cd03-3bad-40c5-9316-1d286895d52a)
  )
  (label "A21" (at 160.02 48.26 180) (fields_autoplaced)
    (effects (font (size 1.27 1.27)) (justify right bottom))
    (uuid 5bab6a37-1fdf-4cf8-b571-44c962ed86e9)
  )
  (label "RA3" (at 210.82 40.64 0) (fields_autoplaced)
    (effects (font (size 1.27 1.27)) (justify left bottom))
    (uuid 6d7ff8c0-8a2a-4636-844f-c7210ff3e6f2)
  )
  (label "A20" (at 160.02 45.72 180) (fields_autoplaced)
    (effects (font (size 1.27 1.27)) (justify right bottom))
    (uuid 706c1cb9-5d96-4282-9efc-6147f0125147)
  )
  (label "A3" (at 160.02 134.62 180) (fields_autoplaced)
    (effects (font (size 1.27 1.27)) (justify right bottom))
    (uuid 74012f9c-57f0-452a-9ea1-1e3437e264b8)
  )
  (label "A13" (at 160.02 27.94 180) (fields_autoplaced)
    (effects (font (size 1.27 1.27)) (justify right bottom))
    (uuid 83184391-76ed-44f0-8cd0-01f89f157bdb)
  )
  (label "DBG2" (at 210.82 50.8 0) (fields_autoplaced)
    (effects (font (size 1.27 1.27)) (justify left bottom))
    (uuid 87669cce-3378-478b-a900-f4d69a10f452)
  )
  (label "DBG4" (at 210.82 132.08 0) (fields_autoplaced)
    (effects (font (size 1.27 1.27)) (justify left bottom))
    (uuid 89af8558-04aa-4625-a478-cbbf9616222b)
  )
  (label "GA22" (at 210.82 109.22 0) (fields_autoplaced)
    (effects (font (size 1.27 1.27)) (justify left bottom))
    (uuid 8b898dbf-5ecd-45c0-b7e3-8d5416e3e200)
  )
  (label "A22" (at 160.02 50.8 180) (fields_autoplaced)
    (effects (font (size 1.27 1.27)) (justify right bottom))
    (uuid 92f063a3-7cce-4a96-8a3a-cf5767f700c6)
  )
  (label "RA6" (at 210.82 48.26 0) (fields_autoplaced)
    (effects (font (size 1.27 1.27)) (justify left bottom))
    (uuid 93ac15d8-5f91-4361-acff-be4992b93b51)
  )
  (label "A14" (at 160.02 30.48 180) (fields_autoplaced)
    (effects (font (size 1.27 1.27)) (justify right bottom))
    (uuid 966ee9ec-860e-45bb-af89-30bda72b2032)
  )
  (label "RA7" (at 210.82 88.9 0) (fields_autoplaced)
    (effects (font (size 1.27 1.27)) (justify left bottom))
    (uuid 96781640-c07e-4eea-a372-067ded96b703)
  )
  (label "DBG0" (at 210.82 124.46 0) (fields_autoplaced)
    (effects (font (size 1.27 1.27)) (justify left bottom))
    (uuid 9680eb6d-a1a9-4406-85fe-2dfbb1529067)
  )
  (label "A11" (at 160.02 78.74 180) (fields_autoplaced)
    (effects (font (size 1.27 1.27)) (justify right bottom))
    (uuid 96ef76a5-90c3-4767-98ba-2b61887e28d3)
  )
  (label "DBG0" (at 86.36 78.74 0) (fields_autoplaced)
    (effects (font (size 1.27 1.27)) (justify left bottom))
    (uuid 9cdc3718-d41a-4988-a871-91fc74bdc5d0)
  )
  (label "A18" (at 160.02 40.64 180) (fields_autoplaced)
    (effects (font (size 1.27 1.27)) (justify right bottom))
    (uuid 9ed09117-33cf-45a3-85a7-2606522feaf8)
  )
  (label "A6" (at 160.02 66.04 180) (fields_autoplaced)
    (effects (font (size 1.27 1.27)) (justify right bottom))
    (uuid aa23bfe3-454b-4a2b-bfe1-101c747eb84e)
  )
  (label "RA0" (at 210.82 91.44 0) (fields_autoplaced)
    (effects (font (size 1.27 1.27)) (justify left bottom))
    (uuid b7ac5cea-ed28-4028-87d0-45e58c709cf1)
  )
  (label "CK20EN" (at 210.82 104.14 0) (fields_autoplaced)
    (effects (font (size 1.27 1.27)) (justify left bottom))
    (uuid b7bde57e-929a-493c-8bf8-6cd0b4b8c95f)
  )
  (label "RA8" (at 210.82 93.98 0) (fields_autoplaced)
    (effects (font (size 1.27 1.27)) (justify left bottom))
    (uuid c7cd39db-931a-4d86-96b8-57e6b39f58f9)
  )
  (label "RA9" (at 210.82 99.06 0) (fields_autoplaced)
    (effects (font (size 1.27 1.27)) (justify left bottom))
    (uuid c811ed5f-f509-4605-b7d3-da6f79935a1e)
  )
  (label "A1" (at 160.02 129.54 180) (fields_autoplaced)
    (effects (font (size 1.27 1.27)) (justify right bottom))
    (uuid cd50b8dc-829d-4a1d-8f2a-6471f378ba87)
  )
  (label "DBG2" (at 86.36 83.82 0) (fields_autoplaced)
    (effects (font (size 1.27 1.27)) (justify left bottom))
    (uuid cda4b7ff-3484-4d1b-98bc-83a3435392cc)
  )
  (label "A4" (at 160.02 137.16 180) (fields_autoplaced)
    (effects (font (size 1.27 1.27)) (justify right bottom))
    (uuid cfdef906-c924-4492-999d-4de066c0bce1)
  )
  (label "A2" (at 160.02 132.08 180) (fields_autoplaced)
    (effects (font (size 1.27 1.27)) (justify right bottom))
    (uuid d1441985-7b63-4bf8-a06d-c70da2e3b78b)
  )
  (label "A12" (at 160.02 81.28 180) (fields_autoplaced)
    (effects (font (size 1.27 1.27)) (justify right bottom))
    (uuid db6412d3-e6c3-4bdd-abf4-a8f55d56df31)
  )
  (label "DBG4" (at 86.36 88.9 0) (fields_autoplaced)
    (effects (font (size 1.27 1.27)) (justify left bottom))
    (uuid e0d984c9-236b-4687-bf04-86fe7689303e)
  )
  (label "A19" (at 160.02 43.18 180) (fields_autoplaced)
    (effects (font (size 1.27 1.27)) (justify right bottom))
    (uuid eb391a95-1c1d-4613-b508-c76b8bc13a73)
  )
  (label "GA23" (at 210.82 106.68 0) (fields_autoplaced)
    (effects (font (size 1.27 1.27)) (justify left bottom))
    (uuid f0c82548-e8fc-4b33-8e3e-19cf15809d7a)
  )
  (label "RA5" (at 210.82 43.18 0) (fields_autoplaced)
    (effects (font (size 1.27 1.27)) (justify left bottom))
    (uuid f284b1e2-75a4-4a3f-a5f4-6f05f15fb4f5)
  )
  (label "GA23" (at 223.52 106.68 0) (fields_autoplaced)
    (effects (font (size 1.27 1.27)) (justify left bottom))
    (uuid f6edbff2-9da9-4ea6-bdd2-af5337c3262d)
  )
  (label "DBG3" (at 86.36 86.36 0) (fields_autoplaced)
    (effects (font (size 1.27 1.27)) (justify left bottom))
    (uuid fc04b51c-4b08-4300-886e-4a9969a2fbd0)
  )

  (hierarchical_label "A[23..1]" (shape input) (at 146.05 25.4 180) (fields_autoplaced)
    (effects (font (size 1.27 1.27)) (justify right))
    (uuid 022502e0-e724-4b75-bc35-3c5984dbeb76)
  )
  (hierarchical_label "Dout~{OE}" (shape output) (at 160.02 116.84 180) (fields_autoplaced)
    (effects (font (size 1.27 1.27)) (justify right))
    (uuid 0c5dddf1-38df-43d2-b49c-e7b691dab0ab)
  )
  (hierarchical_label "AccR~{W}" (shape input) (at 160.02 99.06 180) (fields_autoplaced)
    (effects (font (size 1.27 1.27)) (justify right))
    (uuid 0ce1dd44-f307-4f98-9f0d-478fd87daa64)
  )
  (hierarchical_label "TCK" (shape input) (at 210.82 147.32 0) (fields_autoplaced)
    (effects (font (size 1.27 1.27)) (justify left))
    (uuid 0e0f9829-27a5-43b2-a0ae-121d3ce72ef4)
  )
  (hierarchical_label "ROM~{WE}" (shape output) (at 160.02 109.22 180) (fields_autoplaced)
    (effects (font (size 1.27 1.27)) (justify right))
    (uuid 15ea3484-2685-47cb-9e01-ec01c6d477b8)
  )
  (hierarchical_label "~{RAS}" (shape output) (at 210.82 116.84 0) (fields_autoplaced)
    (effects (font (size 1.27 1.27)) (justify left))
    (uuid 1855ca44-ab48-4b76-a210-97fc81d916c4)
  )
  (hierarchical_label "Mac~{BG}" (shape input) (at 210.82 137.16 0) (fields_autoplaced)
    (effects (font (size 1.27 1.27)) (justify left))
    (uuid 1bf36c06-dbbd-409d-984f-9fca14389614)
  )
  (hierarchical_label "Acc~{UDS}" (shape input) (at 160.02 106.68 180) (fields_autoplaced)
    (effects (font (size 1.27 1.27)) (justify right))
    (uuid 1bf7d0f9-0dcf-4d7c-b58c-318e3dc42bc9)
  )
  (hierarchical_label "Din~{OE}" (shape output) (at 160.02 119.38 180) (fields_autoplaced)
    (effects (font (size 1.27 1.27)) (justify right))
    (uuid 254f7cc6-cee1-44ca-9afe-939b318201aa)
  )
  (hierarchical_label "L~{WE}" (shape output) (at 210.82 119.38 0) (fields_autoplaced)
    (effects (font (size 1.27 1.27)) (justify left))
    (uuid 3457afc5-3e4f-4220-81d1-b079f653a722)
  )
  (hierarchical_label "TDO" (shape output) (at 210.82 149.86 0) (fields_autoplaced)
    (effects (font (size 1.27 1.27)) (justify left))
    (uuid 3934b2e9-06c8-499c-a6df-4d7b35cfb894)
  )
  (hierarchical_label "Mac~{DTACK}" (shape input) (at 210.82 66.04 0) (fields_autoplaced)
    (effects (font (size 1.27 1.27)) (justify left))
    (uuid 3b65c51e-c243-447e-bee9-832d94c1630e)
  )
  (hierarchical_label "TDI" (shape input) (at 210.82 142.24 0) (fields_autoplaced)
    (effects (font (size 1.27 1.27)) (justify left))
    (uuid 3f96e159-1f3b-4ee7-a46e-e60d78f2137a)
  )
  (hierarchical_label "Mac~{VMA}" (shape output) (at 210.82 58.42 0) (fields_autoplaced)
    (effects (font (size 1.27 1.27)) (justify left))
    (uuid 402c62e6-8d8e-473a-a0cf-2b86e4908cd7)
  )
  (hierarchical_label "~{OE}" (shape output) (at 210.82 33.02 0) (fields_autoplaced)
    (effects (font (size 1.27 1.27)) (justify left))
    (uuid 406d491e-5b01-46dc-a768-fd0992cdb346)
  )
  (hierarchical_label "ADoutLE1" (shape output) (at 210.82 76.2 0) (fields_autoplaced)
    (effects (font (size 1.27 1.27)) (justify left))
    (uuid 44b926bf-8bdd-4191-846d-2dfabab2cecb)
  )
  (hierarchical_label "Mac~{UDS}" (shape output) (at 210.82 71.12 0) (fields_autoplaced)
    (effects (font (size 1.27 1.27)) (justify left))
    (uuid 4970ec6e-3725-4619-b57d-dc2c2cb86ed0)
  )
  (hierarchical_label "ADoutLE0" (shape output) (at 210.82 78.74 0) (fields_autoplaced)
    (effects (font (size 1.27 1.27)) (justify left))
    (uuid 58126faf-01a4-4f91-8e8c-ca9e47b48048)
  )
  (hierarchical_label "Acc~{AS}" (shape input) (at 160.02 104.14 180) (fields_autoplaced)
    (effects (font (size 1.27 1.27)) (justify right))
    (uuid 58390862-1833-41dd-9c4e-98073ea0da33)
  )
  (hierarchical_label "Acc~{VPA}" (shape output) (at 160.02 127 180) (fields_autoplaced)
    (effects (font (size 1.27 1.27)) (justify right))
    (uuid 5e755161-24a5-4650-a6e3-9836bf074412)
  )
  (hierarchical_label "DinLE" (shape output) (at 210.82 81.28 0) (fields_autoplaced)
    (effects (font (size 1.27 1.27)) (justify left))
    (uuid 5f48b0f2-82cf-40ce-afac-440f97643c36)
  )
  (hierarchical_label "C8M" (shape input) (at 160.02 86.36 180) (fields_autoplaced)
    (effects (font (size 1.27 1.27)) (justify right))
    (uuid 6150c02b-beb5-4af1-951e-3666a285a6ea)
  )
  (hierarchical_label "MCKE" (shape output) (at 210.82 101.6 0) (fields_autoplaced)
    (effects (font (size 1.27 1.27)) (justify left))
    (uuid 662bafcb-dcfb-4471-a8a9-f5c777fdf249)
  )
  (hierarchical_label "ROM~{OE}" (shape output) (at 210.82 27.94 0) (fields_autoplaced)
    (effects (font (size 1.27 1.27)) (justify left))
    (uuid 755f94aa-38f0-4a64-a7c7-6c71cb18cddf)
  )
  (hierarchical_label "TMS" (shape input) (at 210.82 144.78 0) (fields_autoplaced)
    (effects (font (size 1.27 1.27)) (justify left))
    (uuid 77aa6db5-9b8d-4983-b88e-30fe5af25975)
  )
  (hierarchical_label "~{IPL}2" (shape input) (at 160.02 124.46 180) (fields_autoplaced)
    (effects (font (size 1.27 1.27)) (justify right))
    (uuid 7fdb7495-883d-4f65-8d5c-ea6abbcf2fa7)
  )
  (hierarchical_label "GA[23..22]" (shape output) (at 233.68 104.14 0) (fields_autoplaced)
    (effects (font (size 1.27 1.27)) (justify left))
    (uuid 8006b452-2833-4c08-bb21-420c92c2d8c8)
  )
  (hierarchical_label "Mac~{BERR}" (shape input) (at 210.82 60.96 0) (fields_autoplaced)
    (effects (font (size 1.27 1.27)) (justify left))
    (uuid 88deea08-baa5-4041-beb7-01c299cf00e6)
  )
  (hierarchical_label "Acc~{LDS}" (shape input) (at 160.02 101.6 180) (fields_autoplaced)
    (effects (font (size 1.27 1.27)) (justify right))
    (uuid 9208ea78-8dde-4b3d-91e9-5755ab5efd9a)
  )
  (hierarchical_label "Acc~{DTACK}" (shape output) (at 160.02 96.52 180) (fields_autoplaced)
    (effects (font (size 1.27 1.27)) (justify right))
    (uuid 94d24676-7ae3-483c-8bd6-88d31adf00b4)
  )
  (hierarchical_label "C16M" (shape input) (at 160.02 53.34 180) (fields_autoplaced)
    (effects (font (size 1.27 1.27)) (justify right))
    (uuid 9c2999b2-1cf1-4204-9d23-243401b77aa3)
  )
  (hierarchical_label "FCLK" (shape input) (at 160.02 93.98 180) (fields_autoplaced)
    (effects (font (size 1.27 1.27)) (justify right))
    (uuid 9e136ac4-5d28-4814-9ebf-c30c372bc2ec)
  )
  (hierarchical_label "Mac~{VPA}" (shape input) (at 210.82 63.5 0) (fields_autoplaced)
    (effects (font (size 1.27 1.27)) (justify left))
    (uuid a177c3b4-b04c-490e-b3fe-d3d4d7aa24a7)
  )
  (hierarchical_label "MacE" (shape input) (at 160.02 91.44 180) (fields_autoplaced)
    (effects (font (size 1.27 1.27)) (justify right))
    (uuid ad4d05f5-6957-42f8-b65c-c657b9a26485)
  )
  (hierarchical_label "Mac~{BR}" (shape output) (at 210.82 134.62 0) (fields_autoplaced)
    (effects (font (size 1.27 1.27)) (justify left))
    (uuid c19d260f-7d20-43d4-b891-0ff782d185d2)
  )
  (hierarchical_label "Mac~{AS}" (shape output) (at 210.82 73.66 0) (fields_autoplaced)
    (effects (font (size 1.27 1.27)) (justify left))
    (uuid c1b11207-7c0a-49b3-a41d-2fe677d5f3b8)
  )
  (hierarchical_label "~{CAS}" (shape output) (at 210.82 30.48 0) (fields_autoplaced)
    (effects (font (size 1.27 1.27)) (justify left))
    (uuid c6462399-f2e4-4f1a-b34a-b49a04c8bdb9)
  )
  (hierarchical_label "Aout~{OE}" (shape output) (at 160.02 114.3 180) (fields_autoplaced)
    (effects (font (size 1.27 1.27)) (justify right))
    (uuid ca56e1ad-54bf-4df5-a4f7-99f5d61d0de9)
  )
  (hierarchical_label "RA[11..0]" (shape output) (at 219.71 35.56 0) (fields_autoplaced)
    (effects (font (size 1.27 1.27)) (justify left))
    (uuid d115a0df-1034-4583-83af-ff1cb8acfa17)
  )
  (hierarchical_label "Acc~{BERR}" (shape output) (at 210.82 129.54 0) (fields_autoplaced)
    (effects (font (size 1.27 1.27)) (justify left))
    (uuid e45aa7d8-0254-4176-afd9-766820762e19)
  )
  (hierarchical_label "~{RESET}" (shape input) (at 160.02 121.92 180) (fields_autoplaced)
    (effects (font (size 1.27 1.27)) (justify right))
    (uuid e8274862-c966-456a-98d5-9c42f72963c1)
  )
  (hierarchical_label "U~{WE}" (shape output) (at 210.82 121.92 0) (fields_autoplaced)
    (effects (font (size 1.27 1.27)) (justify left))
    (uuid e86e4fae-9ca7-4857-a93c-bc6a3048f887)
  )
  (hierarchical_label "RA[11..0]" (shape output) (at 222.25 83.82 0) (fields_autoplaced)
    (effects (font (size 1.27 1.27)) (justify left))
    (uuid f5eb7390-4215-4bb5-bc53-f82f663cc9a5)
  )
  (hierarchical_label "Mac~{LDS}" (shape output) (at 210.82 68.58 0) (fields_autoplaced)
    (effects (font (size 1.27 1.27)) (justify left))
    (uuid f8b47531-6c06-4e54-9fc9-cd9d0f3dd69f)
  )

  (symbol (lib_id "Device:C_Small") (at 119.38 189.23 0) (unit 1)
    (in_bom yes) (on_board yes) (dnp no)
    (uuid 00000000-0000-0000-0000-0000616131d5)
    (property "Reference" "C27" (at 120.65 187.96 0)
      (effects (font (size 1.27 1.27)) (justify left))
    )
    (property "Value" "2u2" (at 120.65 190.5 0)
      (effects (font (size 1.27 1.27)) (justify left))
    )
    (property "Footprint" "stdpads:C_0603" (at 119.38 189.23 0)
      (effects (font (size 1.27 1.27)) hide)
    )
    (property "Datasheet" "" (at 119.38 189.23 0)
      (effects (font (size 1.27 1.27)) hide)
    )
    (property "LCSC Part" "C23630" (at 119.38 189.23 0)
      (effects (font (size 1.27 1.27)) hide)
    )
    (pin "1" (uuid b1c0f06e-43f4-4bb5-92d3-79e5d9102373))
    (pin "2" (uuid 68dcdcb6-79c6-4665-997d-8db967eebfd4))
    (instances
      (project "WarpSE"
        (path "/a5be2cb8-c68d-4180-8412-69a6b4c5b1d4/00000000-0000-0000-0000-00005f723173"
          (reference "C27") (unit 1)
        )
      )
    )
  )

  (symbol (lib_id "Device:C_Small") (at 129.54 189.23 0) (unit 1)
    (in_bom yes) (on_board yes) (dnp no)
    (uuid 00000000-0000-0000-0000-0000616131e1)
    (property "Reference" "C28" (at 130.81 187.96 0)
      (effects (font (size 1.27 1.27)) (justify left))
    )
    (property "Value" "2u2" (at 130.81 190.5 0)
      (effects (font (size 1.27 1.27)) (justify left))
    )
    (property "Footprint" "stdpads:C_0603" (at 129.54 189.23 0)
      (effects (font (size 1.27 1.27)) hide)
    )
    (property "Datasheet" "" (at 129.54 189.23 0)
      (effects (font (size 1.27 1.27)) hide)
    )
    (property "LCSC Part" "C23630" (at 129.54 189.23 0)
      (effects (font (size 1.27 1.27)) hide)
    )
    (pin "1" (uuid 1ea56676-192b-4f1f-aa74-cc5187fe5f37))
    (pin "2" (uuid 1bbf0e9c-58cf-4125-b779-40bccf3f01ec))
    (instances
      (project "WarpSE"
        (path "/a5be2cb8-c68d-4180-8412-69a6b4c5b1d4/00000000-0000-0000-0000-00005f723173"
          (reference "C28") (unit 1)
        )
      )
    )
  )

  (symbol (lib_id "Device:C_Small") (at 139.7 189.23 0) (unit 1)
    (in_bom yes) (on_board yes) (dnp no)
    (uuid 00000000-0000-0000-0000-0000616131eb)
    (property "Reference" "C29" (at 140.97 187.96 0)
      (effects (font (size 1.27 1.27)) (justify left))
    )
    (property "Value" "2u2" (at 140.97 190.5 0)
      (effects (font (size 1.27 1.27)) (justify left))
    )
    (property "Footprint" "stdpads:C_0603" (at 139.7 189.23 0)
      (effects (font (size 1.27 1.27)) hide)
    )
    (property "Datasheet" "" (at 139.7 189.23 0)
      (effects (font (size 1.27 1.27)) hide)
    )
    (property "LCSC Part" "C23630" (at 139.7 189.23 0)
      (effects (font (size 1.27 1.27)) hide)
    )
    (pin "1" (uuid 46a126cb-806e-4c4c-8aba-4078c9edbc43))
    (pin "2" (uuid 784d62a9-5a54-468d-a25d-67602adc9cc7))
    (instances
      (project "WarpSE"
        (path "/a5be2cb8-c68d-4180-8412-69a6b4c5b1d4/00000000-0000-0000-0000-00005f723173"
          (reference "C29") (unit 1)
        )
      )
    )
  )

  (symbol (lib_id "power:+3V3") (at 109.22 186.69 0) (unit 1)
    (in_bom yes) (on_board yes) (dnp no)
    (uuid 00000000-0000-0000-0000-0000616131f5)
    (property "Reference" "#PWR0158" (at 109.22 190.5 0)
      (effects (font (size 1.27 1.27)) hide)
    )
    (property "Value" "+3V3" (at 109.22 182.88 0)
      (effects (font (size 1.27 1.27)))
    )
    (property "Footprint" "" (at 109.22 186.69 0)
      (effects (font (size 1.27 1.27)) hide)
    )
    (property "Datasheet" "" (at 109.22 186.69 0)
      (effects (font (size 1.27 1.27)) hide)
    )
    (pin "1" (uuid 2cfa49ac-a358-436e-acab-e0e642516e85))
    (instances
      (project "WarpSE"
        (path "/a5be2cb8-c68d-4180-8412-69a6b4c5b1d4/00000000-0000-0000-0000-00005f723173"
          (reference "#PWR0158") (unit 1)
        )
      )
    )
  )

  (symbol (lib_id "Device:C_Small") (at 109.22 189.23 0) (unit 1)
    (in_bom yes) (on_board yes) (dnp no)
    (uuid 00000000-0000-0000-0000-0000616131fc)
    (property "Reference" "C26" (at 110.49 187.96 0)
      (effects (font (size 1.27 1.27)) (justify left))
    )
    (property "Value" "2u2" (at 110.49 190.5 0)
      (effects (font (size 1.27 1.27)) (justify left))
    )
    (property "Footprint" "stdpads:C_0603" (at 109.22 189.23 0)
      (effects (font (size 1.27 1.27)) hide)
    )
    (property "Datasheet" "" (at 109.22 189.23 0)
      (effects (font (size 1.27 1.27)) hide)
    )
    (property "LCSC Part" "C23630" (at 109.22 189.23 0)
      (effects (font (size 1.27 1.27)) hide)
    )
    (pin "1" (uuid de252fdb-6399-4828-bd3d-c4f4af980355))
    (pin "2" (uuid fe764f26-bc07-4f4f-bf0d-7549551485c8))
    (instances
      (project "WarpSE"
        (path "/a5be2cb8-c68d-4180-8412-69a6b4c5b1d4/00000000-0000-0000-0000-00005f723173"
          (reference "C26") (unit 1)
        )
      )
    )
  )

  (symbol (lib_id "Device:C_Small") (at 160.02 189.23 0) (unit 1)
    (in_bom yes) (on_board yes) (dnp no)
    (uuid 00000000-0000-0000-0000-000061613208)
    (property "Reference" "C31" (at 161.29 187.96 0)
      (effects (font (size 1.27 1.27)) (justify left))
    )
    (property "Value" "2u2" (at 161.29 190.5 0)
      (effects (font (size 1.27 1.27)) (justify left))
    )
    (property "Footprint" "stdpads:C_0603" (at 160.02 189.23 0)
      (effects (font (size 1.27 1.27)) hide)
    )
    (property "Datasheet" "" (at 160.02 189.23 0)
      (effects (font (size 1.27 1.27)) hide)
    )
    (property "LCSC Part" "C23630" (at 160.02 189.23 0)
      (effects (font (size 1.27 1.27)) hide)
    )
    (pin "1" (uuid 7be248ce-0b8b-4301-9d1d-c6c81231f7d9))
    (pin "2" (uuid b3b3b627-7717-4ea6-8bc5-49dbbb522cce))
    (instances
      (project "WarpSE"
        (path "/a5be2cb8-c68d-4180-8412-69a6b4c5b1d4/00000000-0000-0000-0000-00005f723173"
          (reference "C31") (unit 1)
        )
      )
    )
  )

  (symbol (lib_id "Device:C_Small") (at 149.86 189.23 0) (unit 1)
    (in_bom yes) (on_board yes) (dnp no)
    (uuid 00000000-0000-0000-0000-00006161320e)
    (property "Reference" "C30" (at 151.13 187.96 0)
      (effects (font (size 1.27 1.27)) (justify left))
    )
    (property "Value" "2u2" (at 151.13 190.5 0)
      (effects (font (size 1.27 1.27)) (justify left))
    )
    (property "Footprint" "stdpads:C_0603" (at 149.86 189.23 0)
      (effects (font (size 1.27 1.27)) hide)
    )
    (property "Datasheet" "" (at 149.86 189.23 0)
      (effects (font (size 1.27 1.27)) hide)
    )
    (property "LCSC Part" "C23630" (at 149.86 189.23 0)
      (effects (font (size 1.27 1.27)) hide)
    )
    (pin "1" (uuid 5d3b1520-4846-48a2-8f8d-69acf5d56f23))
    (pin "2" (uuid 7d637fa6-85ea-4505-a399-87ca530fa22e))
    (instances
      (project "WarpSE"
        (path "/a5be2cb8-c68d-4180-8412-69a6b4c5b1d4/00000000-0000-0000-0000-00005f723173"
          (reference "C30") (unit 1)
        )
      )
    )
  )

  (symbol (lib_id "power:GND") (at 170.18 191.77 0) (mirror y) (unit 1)
    (in_bom yes) (on_board yes) (dnp no)
    (uuid 00000000-0000-0000-0000-0000616151a9)
    (property "Reference" "#PWR0159" (at 170.18 198.12 0)
      (effects (font (size 1.27 1.27)) hide)
    )
    (property "Value" "GND" (at 170.18 195.58 0)
      (effects (font (size 1.27 1.27)))
    )
    (property "Footprint" "" (at 170.18 191.77 0)
      (effects (font (size 1.27 1.27)) hide)
    )
    (property "Datasheet" "" (at 170.18 191.77 0)
      (effects (font (size 1.27 1.27)) hide)
    )
    (pin "1" (uuid b169acbe-073a-4d43-a641-28932f10ad93))
    (instances
      (project "WarpSE"
        (path "/a5be2cb8-c68d-4180-8412-69a6b4c5b1d4/00000000-0000-0000-0000-00005f723173"
          (reference "#PWR0159") (unit 1)
        )
      )
    )
  )

  (symbol (lib_id "Device:C_Small") (at 170.18 189.23 0) (unit 1)
    (in_bom yes) (on_board yes) (dnp no)
    (uuid 00000000-0000-0000-0000-0000616151af)
    (property "Reference" "C32" (at 171.45 187.96 0)
      (effects (font (size 1.27 1.27)) (justify left))
    )
    (property "Value" "2u2" (at 171.45 190.5 0)
      (effects (font (size 1.27 1.27)) (justify left))
    )
    (property "Footprint" "stdpads:C_0603" (at 170.18 189.23 0)
      (effects (font (size 1.27 1.27)) hide)
    )
    (property "Datasheet" "" (at 170.18 189.23 0)
      (effects (font (size 1.27 1.27)) hide)
    )
    (property "LCSC Part" "C23630" (at 170.18 189.23 0)
      (effects (font (size 1.27 1.27)) hide)
    )
    (pin "1" (uuid 543d0a47-2bf4-4c02-842c-8cf6e370dbad))
    (pin "2" (uuid 0d097421-a0c5-4647-bf62-af2ce539f56a))
    (instances
      (project "WarpSE"
        (path "/a5be2cb8-c68d-4180-8412-69a6b4c5b1d4/00000000-0000-0000-0000-00005f723173"
          (reference "C32") (unit 1)
        )
      )
    )
  )

  (symbol (lib_id "power:+3V3") (at 177.8 20.32 0) (unit 1)
    (in_bom yes) (on_board yes) (dnp no)
    (uuid 00000000-0000-0000-0000-00006164065b)
    (property "Reference" "#PWR0160" (at 177.8 24.13 0)
      (effects (font (size 1.27 1.27)) hide)
    )
    (property "Value" "+3V3" (at 177.8 16.51 0)
      (effects (font (size 1.27 1.27)))
    )
    (property "Footprint" "" (at 177.8 20.32 0)
      (effects (font (size 1.27 1.27)) hide)
    )
    (property "Datasheet" "" (at 177.8 20.32 0)
      (effects (font (size 1.27 1.27)) hide)
    )
    (pin "1" (uuid f3d1575b-dd8b-4374-a1db-6847fca2df3f))
    (instances
      (project "WarpSE"
        (path "/a5be2cb8-c68d-4180-8412-69a6b4c5b1d4/00000000-0000-0000-0000-00005f723173"
          (reference "#PWR0160") (unit 1)
        )
      )
    )
  )

  (symbol (lib_id "power:GND") (at 195.58 157.48 0) (unit 1)
    (in_bom yes) (on_board yes) (dnp no)
    (uuid 00000000-0000-0000-0000-00006164325e)
    (property "Reference" "#PWR0161" (at 195.58 163.83 0)
      (effects (font (size 1.27 1.27)) hide)
    )
    (property "Value" "GND" (at 195.58 161.29 0)
      (effects (font (size 1.27 1.27)))
    )
    (property "Footprint" "" (at 195.58 157.48 0)
      (effects (font (size 1.27 1.27)) hide)
    )
    (property "Datasheet" "" (at 195.58 157.48 0)
      (effects (font (size 1.27 1.27)) hide)
    )
    (pin "1" (uuid 770fb8c6-1b30-4eb3-8a91-9529085c4f1c))
    (instances
      (project "WarpSE"
        (path "/a5be2cb8-c68d-4180-8412-69a6b4c5b1d4/00000000-0000-0000-0000-00005f723173"
          (reference "#PWR0161") (unit 1)
        )
      )
    )
  )

  (symbol (lib_id "CPLD_Xilinx:XC95144XL-TQ100") (at 185.42 88.9 0) (unit 1)
    (in_bom yes) (on_board yes) (dnp no)
    (uuid 00000000-0000-0000-0000-00006318b3c7)
    (property "Reference" "U1" (at 185.42 81.28 0)
      (effects (font (size 1.27 1.27)))
    )
    (property "Value" "XC95144XL-TQ100" (at 185.42 83.82 0)
      (effects (font (size 1.27 1.27)))
    )
    (property "Footprint" "stdpads:TQFP-100_14x14mm_P0.5mm" (at 185.42 88.9 0)
      (effects (font (size 1.27 1.27)) hide)
    )
    (property "Datasheet" "" (at 185.42 88.9 0)
      (effects (font (size 1.27 1.27)) hide)
    )
    (property "LCSC Part" "C45126" (at 185.42 88.9 0)
      (effects (font (size 1.27 1.27)) hide)
    )
    (pin "1" (uuid 0c6899da-97e5-44e8-b9a9-b5deb4ca412a))
    (pin "10" (uuid 8ac3e986-93e4-4968-b10d-bc6e6615baff))
    (pin "100" (uuid f4b466e8-18f8-474a-9fee-8a3aa081adad))
    (pin "11" (uuid e2a581b7-3057-454b-bc22-6bdc4bad2e8a))
    (pin "12" (uuid 4872709a-adaf-44ad-88a0-a1c5401f9851))
    (pin "13" (uuid 6f82be5e-9f3e-4419-8f39-1d9da449e655))
    (pin "14" (uuid 1c4ba925-22fa-4bb6-a21c-089e1ff6998f))
    (pin "15" (uuid 2f3c8237-072c-4aad-a49b-b47982ae8a3e))
    (pin "16" (uuid f509a29a-f51f-4262-8656-4ea0b6662743))
    (pin "17" (uuid e569452b-5b77-4c50-953e-7aacdc9fd811))
    (pin "18" (uuid 328b3418-4051-48aa-bc38-62f12f672698))
    (pin "19" (uuid 0305936f-2d1b-4d2a-8f1d-ed938a5eb3ea))
    (pin "2" (uuid aff2e46f-65c6-483a-9b4a-5fe325e83448))
    (pin "20" (uuid d29cfa41-b4da-4393-a887-49974fbd299a))
    (pin "21" (uuid 472ccc17-5491-4e50-9a63-55fe1d7197c2))
    (pin "22" (uuid 0c72b226-fe0a-4009-bea6-b626514264a8))
    (pin "23" (uuid 3ed7d61d-4e5c-490a-a59c-c13d633cb021))
    (pin "24" (uuid 2f39ae00-3c02-4981-b3b9-f4a35fbf08a5))
    (pin "25" (uuid 98097055-f0d1-40e5-bbab-4d1ba02d2a01))
    (pin "26" (uuid 40c6ea0f-7fbc-4c40-84ff-66d8ce5131c5))
    (pin "27" (uuid f3248b4b-475e-449b-8fb0-8e14fdca938c))
    (pin "28" (uuid 0a7d0c72-c98c-4311-bc76-4c22b4b0ee88))
    (pin "29" (uuid dc6302d7-6e18-46d5-9608-677535554cb6))
    (pin "3" (uuid 8ca61b25-5e6d-4208-9e60-75a5be37aa95))
    (pin "30" (uuid 9bc0cdd7-7ba8-4361-937b-09896ec90286))
    (pin "31" (uuid 795e0e2b-ee76-4c80-9bba-3ae44e2597ea))
    (pin "32" (uuid d35a8da8-3bb2-40f2-87e9-3ab2d0109014))
    (pin "33" (uuid 03db1da8-c8ee-4f62-a1ac-9fe955d444d8))
    (pin "34" (uuid 1db8550c-4d09-4876-9c32-c4466a73295a))
    (pin "35" (uuid 69bc675d-8390-4f46-945a-db3eaa417c5e))
    (pin "36" (uuid 050fcda1-e243-4582-b721-cbb5b50a4681))
    (pin "37" (uuid fbc7ae91-5f03-4210-8ea5-9a10bd4de5d6))
    (pin "38" (uuid 7154b10c-fe3b-466c-9c4f-36d725ca6ae3))
    (pin "39" (uuid 1ad55749-0f90-4694-89a5-42acdeee6c2c))
    (pin "4" (uuid e1cb1200-2389-4a2c-85d8-612f9374291d))
    (pin "40" (uuid d70f03d6-82ae-4618-aeb1-6425442bffdb))
    (pin "41" (uuid 9e15fd57-e7dc-4669-b6c6-d492b4d87555))
    (pin "42" (uuid be447013-0605-444e-8f40-796aa7a8ca9f))
    (pin "43" (uuid 05da6a8a-f73a-4c29-a395-46c312504a43))
    (pin "44" (uuid 35f9ba7d-1548-4698-ba75-efc024a39f96))
    (pin "45" (uuid f7fd5259-72a0-49d0-b406-f8c36e16cfbb))
    (pin "46" (uuid 37325831-19f6-4fd7-90e2-81e2499c2448))
    (pin "47" (uuid e59e1b48-8a7e-4ef3-b6da-9c862f36ad34))
    (pin "48" (uuid 528ca687-6709-49c3-b20a-6115f7c5590b))
    (pin "49" (uuid ce3cdec5-baea-4dbb-8a0b-d8f143271df3))
    (pin "5" (uuid b4fcabee-0625-4768-b59f-9b11284a08a4))
    (pin "50" (uuid 48f1478e-0ecf-4e15-9d1a-2565f6e4110b))
    (pin "51" (uuid 5892eae3-a4c9-4baf-b84d-9612e062fa46))
    (pin "52" (uuid b56bd1e8-f627-4de4-b4c0-14f3acaebedb))
    (pin "53" (uuid 276dc9c5-9149-49a5-9704-217d4fd7e7d6))
    (pin "54" (uuid 5bf89a8b-3c9f-49f9-8f44-f713550b4a01))
    (pin "55" (uuid d89c71a7-2bfc-491c-bbe1-aa4a15a93355))
    (pin "56" (uuid edabd74d-09b2-4c61-b231-7617adad815f))
    (pin "57" (uuid 34fb8779-9a92-44ba-b6c9-7eaf7f2a97bd))
    (pin "58" (uuid 3e2b0c34-16df-493b-9b3e-9e846368f718))
    (pin "59" (uuid 0ad687ad-56ae-4c2f-8192-cafe7a50ddf2))
    (pin "6" (uuid b1328dc6-0b83-4194-a588-a5cb84076440))
    (pin "60" (uuid b859818e-52e7-4740-9da5-94d1dafd5ce6))
    (pin "61" (uuid da683594-5c47-4a74-95b7-db7da4d2cadd))
    (pin "62" (uuid 9f1c97a3-ddb6-447a-aa73-c47716d96793))
    (pin "63" (uuid e73ba54f-b826-40a9-83b5-80a32ffbf61c))
    (pin "64" (uuid 6a7ff31e-f318-4512-92b7-5c2b9db072de))
    (pin "65" (uuid 7c6f1a45-6d39-4eb5-8ef3-23a944038870))
    (pin "66" (uuid 6e83f054-415d-4c04-a8ab-299cdc3d257a))
    (pin "67" (uuid 8304f9ad-db5c-4ad5-9e1a-6e39d30caa7f))
    (pin "68" (uuid 6278b0cf-52ec-4451-8dd7-3f66383de964))
    (pin "69" (uuid 558de66d-6640-44fb-abc4-d85c4b4673b3))
    (pin "7" (uuid b9fde3ae-339a-4034-bd54-2839dba3ef43))
    (pin "70" (uuid 0736a624-f83d-4039-a532-bfe8055c6ffb))
    (pin "71" (uuid 8c2a106a-1697-4fb1-9c12-4a1a0b26fc6a))
    (pin "72" (uuid 310cc178-c185-404c-ab6c-49771ed2776d))
    (pin "73" (uuid bd3af85c-871b-4eca-a697-503ac0eaa695))
    (pin "74" (uuid 5d44a8b8-2019-4235-b7e8-b65080d317a7))
    (pin "75" (uuid d1f487a6-0d60-4cca-8c67-d4e8f889f99b))
    (pin "76" (uuid 32bdb73a-385b-4119-bef3-50cc73570324))
    (pin "77" (uuid c6a5a98d-a58f-4eae-9eab-1071947246a0))
    (pin "78" (uuid cbfbba3d-31c3-47fc-abfd-f99f417102ae))
    (pin "79" (uuid 84e741d9-6409-408b-b038-f0cec041259b))
    (pin "8" (uuid 4c454cd2-3994-42d8-aee0-afb351621168))
    (pin "80" (uuid 22308a09-1723-4452-ac91-7863b7b39a35))
    (pin "81" (uuid 9b9d2291-379a-4d0d-b9a0-f74509d3c80b))
    (pin "82" (uuid aac33ec4-4f60-49a4-9436-a59dee31881b))
    (pin "83" (uuid 62f90603-62e7-4c29-837c-57b7be7b7721))
    (pin "84" (uuid a6b46608-65c6-4670-ac3b-38a7eb6754ae))
    (pin "85" (uuid 82b2636f-d6be-4fdd-99d3-3acb0391665a))
    (pin "86" (uuid d51d2f15-a1df-4510-8b74-936b432ea5d0))
    (pin "87" (uuid 5ebe9e97-3572-4a9b-bf22-59bac9f245ad))
    (pin "88" (uuid 8fb094cb-3503-4f53-95b5-69dd933bf17c))
    (pin "89" (uuid 041540dd-66e6-44c5-9d56-d11d2216d19d))
    (pin "9" (uuid 5e91f196-738b-4d8c-a0b9-d18562d1e5aa))
    (pin "90" (uuid cec927cf-a2b6-4165-b014-ef16ef3b01fb))
    (pin "91" (uuid e54e53cc-284e-44d8-830e-3b88a5d21b2c))
    (pin "92" (uuid 387e5624-3d87-4615-9afe-bf0ca9c976ca))
    (pin "93" (uuid 84701c46-4395-499b-ad8f-f98c9cd26e0f))
    (pin "94" (uuid f67115df-5827-4387-8bd1-8dbc4e7c85e9))
    (pin "95" (uuid ed617e8e-a02d-44ac-a87b-c0e06660c4ee))
    (pin "96" (uuid a1a2d012-d6ba-43d8-bb1d-d1ff148b4c44))
    (pin "97" (uuid bc98a095-4d12-4038-b24d-b0c2a42f604c))
    (pin "98" (uuid abaf3e3f-85ee-4931-b179-3f037cfb2da8))
    (pin "99" (uuid a8fe34f2-b8e3-408c-a7d5-4947e5c3bbaa))
    (instances
      (project "WarpSE"
        (path "/a5be2cb8-c68d-4180-8412-69a6b4c5b1d4/00000000-0000-0000-0000-00005f723173"
          (reference "U1") (unit 1)
        )
      )
    )
  )

  (symbol (lib_id "power:+5V") (at 73.66 78.74 0) (unit 1)
    (in_bom yes) (on_board yes) (dnp no)
    (uuid 9e659a81-979a-44e9-93c7-3500535e1b6e)
    (property "Reference" "#PWR07" (at 73.66 82.55 0)
      (effects (font (size 1.27 1.27)) hide)
    )
    (property "Value" "+5V" (at 73.66 74.93 0)
      (effects (font (size 1.27 1.27)))
    )
    (property "Footprint" "" (at 73.66 78.74 0)
      (effects (font (size 1.27 1.27)) hide)
    )
    (property "Datasheet" "" (at 73.66 78.74 0)
      (effects (font (size 1.27 1.27)) hide)
    )
    (pin "1" (uuid bbbd2aa7-cd41-4db3-aff3-4db6a0a4bb65))
    (instances
      (project "WarpSE"
        (path "/a5be2cb8-c68d-4180-8412-69a6b4c5b1d4/00000000-0000-0000-0000-00005f723173"
          (reference "#PWR07") (unit 1)
        )
      )
    )
  )

  (symbol (lib_id "power:GND") (at 73.66 91.44 0) (unit 1)
    (in_bom yes) (on_board yes) (dnp no)
    (uuid c00e9133-363f-4c5b-96ee-37292658c439)
    (property "Reference" "#PWR024" (at 73.66 97.79 0)
      (effects (font (size 1.27 1.27)) hide)
    )
    (property "Value" "GND" (at 73.66 95.25 0)
      (effects (font (size 1.27 1.27)))
    )
    (property "Footprint" "" (at 73.66 91.44 0)
      (effects (font (size 1.27 1.27)) hide)
    )
    (property "Datasheet" "" (at 73.66 91.44 0)
      (effects (font (size 1.27 1.27)) hide)
    )
    (pin "1" (uuid fa767e98-7455-4030-a379-900d66bbb007))
    (instances
      (project "WarpSE"
        (path "/a5be2cb8-c68d-4180-8412-69a6b4c5b1d4/00000000-0000-0000-0000-00005f723173"
          (reference "#PWR024") (unit 1)
        )
      )
    )
  )

  (symbol (lib_id "Connector_Generic:Conn_02x06_Odd_Even") (at 78.74 83.82 0) (unit 1)
    (in_bom yes) (on_board yes) (dnp no)
    (uuid cb49ab23-e1ec-4554-bd82-46d23301be65)
    (property "Reference" "J4" (at 80.01 76.2 0)
      (effects (font (size 1.27 1.27)))
    )
    (property "Value" "DBG" (at 80.01 93.98 0)
      (effects (font (size 1.27 1.27)))
    )
    (property "Footprint" "stdpads:PinHeader_2x06_P2.54mm_Vertical" (at 78.74 83.82 0)
      (effects (font (size 1.27 1.27)) hide)
    )
    (property "Datasheet" "" (at 78.74 83.82 0)
      (effects (font (size 1.27 1.27)) hide)
    )
    (pin "1" (uuid 44c251da-2313-4cc2-a081-2234a5346e60))
    (pin "10" (uuid 5fdbf140-c566-4656-b20c-ef9eddd40836))
    (pin "11" (uuid 9d31f271-bb52-4ccb-8ddb-9ce8482caa12))
    (pin "12" (uuid c5999be3-4e12-475c-a0cd-9216c36a66ee))
    (pin "2" (uuid addc4ba0-717f-4d6c-87c8-9d24d20edfc6))
    (pin "3" (uuid 35a610b7-ae4c-4455-b993-2c8b47b24069))
    (pin "4" (uuid f0f836f1-f146-47ed-8d3f-ef3607fcd599))
    (pin "5" (uuid b2d06a92-b605-4690-b0d7-98337177f7d4))
    (pin "6" (uuid 52a0025a-5a4b-45f2-b6db-de84723240d4))
    (pin "7" (uuid 9e104d74-fc73-4b99-93b7-a84e791e8521))
    (pin "8" (uuid 642a59f9-f319-4377-9bf6-595dba1820dd))
    (pin "9" (uuid b7f34816-c375-46c9-9c6d-81a884572b89))
    (instances
      (project "WarpSE"
        (path "/a5be2cb8-c68d-4180-8412-69a6b4c5b1d4/00000000-0000-0000-0000-00005f723173"
          (reference "J4") (unit 1)
        )
      )
    )
  )
)
