(kicad_sch (version 20230121) (generator eeschema)

  (uuid 22127bf3-28e1-4f2a-9132-0b2244d2149e)

  (paper "A4")

  (title_block
    (title "WarpSE (GW4410A)")
    (date "2024-04-23")
    (rev "1.0")
    (company "Garrett's Workshop")
  )

  (lib_symbols
    (symbol "Connector:USB_B_Micro" (pin_names (offset 1.016)) (in_bom yes) (on_board yes)
      (property "Reference" "J" (at -5.08 11.43 0)
        (effects (font (size 1.27 1.27)) (justify left))
      )
      (property "Value" "USB_B_Micro" (at -5.08 8.89 0)
        (effects (font (size 1.27 1.27)) (justify left))
      )
      (property "Footprint" "" (at 3.81 -1.27 0)
        (effects (font (size 1.27 1.27)) hide)
      )
      (property "Datasheet" "~" (at 3.81 -1.27 0)
        (effects (font (size 1.27 1.27)) hide)
      )
      (property "ki_keywords" "connector USB micro" (at 0 0 0)
        (effects (font (size 1.27 1.27)) hide)
      )
      (property "ki_description" "USB Micro Type B connector" (at 0 0 0)
        (effects (font (size 1.27 1.27)) hide)
      )
      (property "ki_fp_filters" "USB*" (at 0 0 0)
        (effects (font (size 1.27 1.27)) hide)
      )
      (symbol "USB_B_Micro_0_1"
        (rectangle (start -5.08 -7.62) (end 5.08 7.62)
          (stroke (width 0.254) (type default))
          (fill (type background))
        )
        (circle (center -3.81 2.159) (radius 0.635)
          (stroke (width 0.254) (type default))
          (fill (type outline))
        )
        (circle (center -0.635 3.429) (radius 0.381)
          (stroke (width 0.254) (type default))
          (fill (type outline))
        )
        (rectangle (start -0.127 -7.62) (end 0.127 -6.858)
          (stroke (width 0) (type default))
          (fill (type none))
        )
        (polyline
          (pts
            (xy -1.905 2.159)
            (xy 0.635 2.159)
          )
          (stroke (width 0.254) (type default))
          (fill (type none))
        )
        (polyline
          (pts
            (xy -3.175 2.159)
            (xy -2.54 2.159)
            (xy -1.27 3.429)
            (xy -0.635 3.429)
          )
          (stroke (width 0.254) (type default))
          (fill (type none))
        )
        (polyline
          (pts
            (xy -2.54 2.159)
            (xy -1.905 2.159)
            (xy -1.27 0.889)
            (xy 0 0.889)
          )
          (stroke (width 0.254) (type default))
          (fill (type none))
        )
        (polyline
          (pts
            (xy 0.635 2.794)
            (xy 0.635 1.524)
            (xy 1.905 2.159)
            (xy 0.635 2.794)
          )
          (stroke (width 0.254) (type default))
          (fill (type outline))
        )
        (polyline
          (pts
            (xy -4.318 5.588)
            (xy -1.778 5.588)
            (xy -2.032 4.826)
            (xy -4.064 4.826)
            (xy -4.318 5.588)
          )
          (stroke (width 0) (type default))
          (fill (type outline))
        )
        (polyline
          (pts
            (xy -4.699 5.842)
            (xy -4.699 5.588)
            (xy -4.445 4.826)
            (xy -4.445 4.572)
            (xy -1.651 4.572)
            (xy -1.651 4.826)
            (xy -1.397 5.588)
            (xy -1.397 5.842)
            (xy -4.699 5.842)
          )
          (stroke (width 0) (type default))
          (fill (type none))
        )
        (rectangle (start 0.254 1.27) (end -0.508 0.508)
          (stroke (width 0.254) (type default))
          (fill (type outline))
        )
        (rectangle (start 5.08 -5.207) (end 4.318 -4.953)
          (stroke (width 0) (type default))
          (fill (type none))
        )
        (rectangle (start 5.08 -2.667) (end 4.318 -2.413)
          (stroke (width 0) (type default))
          (fill (type none))
        )
        (rectangle (start 5.08 -0.127) (end 4.318 0.127)
          (stroke (width 0) (type default))
          (fill (type none))
        )
        (rectangle (start 5.08 4.953) (end 4.318 5.207)
          (stroke (width 0) (type default))
          (fill (type none))
        )
      )
      (symbol "USB_B_Micro_1_1"
        (pin power_out line (at 7.62 5.08 180) (length 2.54)
          (name "VBUS" (effects (font (size 1.27 1.27))))
          (number "1" (effects (font (size 1.27 1.27))))
        )
        (pin bidirectional line (at 7.62 -2.54 180) (length 2.54)
          (name "D-" (effects (font (size 1.27 1.27))))
          (number "2" (effects (font (size 1.27 1.27))))
        )
        (pin bidirectional line (at 7.62 0 180) (length 2.54)
          (name "D+" (effects (font (size 1.27 1.27))))
          (number "3" (effects (font (size 1.27 1.27))))
        )
        (pin passive line (at 7.62 -5.08 180) (length 2.54)
          (name "ID" (effects (font (size 1.27 1.27))))
          (number "4" (effects (font (size 1.27 1.27))))
        )
        (pin power_out line (at 0 -10.16 90) (length 2.54)
          (name "GND" (effects (font (size 1.27 1.27))))
          (number "5" (effects (font (size 1.27 1.27))))
        )
        (pin passive line (at -2.54 -10.16 90) (length 2.54)
          (name "Shield" (effects (font (size 1.27 1.27))))
          (number "6" (effects (font (size 1.27 1.27))))
        )
      )
    )
    (symbol "Connector_Generic:Conn_02x05_Odd_Even" (pin_names (offset 1.016) hide) (in_bom yes) (on_board yes)
      (property "Reference" "J" (at 1.27 7.62 0)
        (effects (font (size 1.27 1.27)))
      )
      (property "Value" "Conn_02x05_Odd_Even" (at 1.27 -7.62 0)
        (effects (font (size 1.27 1.27)))
      )
      (property "Footprint" "" (at 0 0 0)
        (effects (font (size 1.27 1.27)) hide)
      )
      (property "Datasheet" "~" (at 0 0 0)
        (effects (font (size 1.27 1.27)) hide)
      )
      (property "ki_keywords" "connector" (at 0 0 0)
        (effects (font (size 1.27 1.27)) hide)
      )
      (property "ki_description" "Generic connector, double row, 02x05, odd/even pin numbering scheme (row 1 odd numbers, row 2 even numbers), script generated (kicad-library-utils/schlib/autogen/connector/)" (at 0 0 0)
        (effects (font (size 1.27 1.27)) hide)
      )
      (property "ki_fp_filters" "Connector*:*_2x??_*" (at 0 0 0)
        (effects (font (size 1.27 1.27)) hide)
      )
      (symbol "Conn_02x05_Odd_Even_1_1"
        (rectangle (start -1.27 -4.953) (end 0 -5.207)
          (stroke (width 0.1524) (type default))
          (fill (type none))
        )
        (rectangle (start -1.27 -2.413) (end 0 -2.667)
          (stroke (width 0.1524) (type default))
          (fill (type none))
        )
        (rectangle (start -1.27 0.127) (end 0 -0.127)
          (stroke (width 0.1524) (type default))
          (fill (type none))
        )
        (rectangle (start -1.27 2.667) (end 0 2.413)
          (stroke (width 0.1524) (type default))
          (fill (type none))
        )
        (rectangle (start -1.27 5.207) (end 0 4.953)
          (stroke (width 0.1524) (type default))
          (fill (type none))
        )
        (rectangle (start -1.27 6.35) (end 3.81 -6.35)
          (stroke (width 0.254) (type default))
          (fill (type background))
        )
        (rectangle (start 3.81 -4.953) (end 2.54 -5.207)
          (stroke (width 0.1524) (type default))
          (fill (type none))
        )
        (rectangle (start 3.81 -2.413) (end 2.54 -2.667)
          (stroke (width 0.1524) (type default))
          (fill (type none))
        )
        (rectangle (start 3.81 0.127) (end 2.54 -0.127)
          (stroke (width 0.1524) (type default))
          (fill (type none))
        )
        (rectangle (start 3.81 2.667) (end 2.54 2.413)
          (stroke (width 0.1524) (type default))
          (fill (type none))
        )
        (rectangle (start 3.81 5.207) (end 2.54 4.953)
          (stroke (width 0.1524) (type default))
          (fill (type none))
        )
        (pin passive line (at -5.08 5.08 0) (length 3.81)
          (name "Pin_1" (effects (font (size 1.27 1.27))))
          (number "1" (effects (font (size 1.27 1.27))))
        )
        (pin passive line (at 7.62 -5.08 180) (length 3.81)
          (name "Pin_10" (effects (font (size 1.27 1.27))))
          (number "10" (effects (font (size 1.27 1.27))))
        )
        (pin passive line (at 7.62 5.08 180) (length 3.81)
          (name "Pin_2" (effects (font (size 1.27 1.27))))
          (number "2" (effects (font (size 1.27 1.27))))
        )
        (pin passive line (at -5.08 2.54 0) (length 3.81)
          (name "Pin_3" (effects (font (size 1.27 1.27))))
          (number "3" (effects (font (size 1.27 1.27))))
        )
        (pin passive line (at 7.62 2.54 180) (length 3.81)
          (name "Pin_4" (effects (font (size 1.27 1.27))))
          (number "4" (effects (font (size 1.27 1.27))))
        )
        (pin passive line (at -5.08 0 0) (length 3.81)
          (name "Pin_5" (effects (font (size 1.27 1.27))))
          (number "5" (effects (font (size 1.27 1.27))))
        )
        (pin passive line (at 7.62 0 180) (length 3.81)
          (name "Pin_6" (effects (font (size 1.27 1.27))))
          (number "6" (effects (font (size 1.27 1.27))))
        )
        (pin passive line (at -5.08 -2.54 0) (length 3.81)
          (name "Pin_7" (effects (font (size 1.27 1.27))))
          (number "7" (effects (font (size 1.27 1.27))))
        )
        (pin passive line (at 7.62 -2.54 180) (length 3.81)
          (name "Pin_8" (effects (font (size 1.27 1.27))))
          (number "8" (effects (font (size 1.27 1.27))))
        )
        (pin passive line (at -5.08 -5.08 0) (length 3.81)
          (name "Pin_9" (effects (font (size 1.27 1.27))))
          (number "9" (effects (font (size 1.27 1.27))))
        )
      )
    )
    (symbol "Device:C_Small" (pin_numbers hide) (pin_names (offset 0.254) hide) (in_bom yes) (on_board yes)
      (property "Reference" "C" (at 0.254 1.778 0)
        (effects (font (size 1.27 1.27)) (justify left))
      )
      (property "Value" "C_Small" (at 0.254 -2.032 0)
        (effects (font (size 1.27 1.27)) (justify left))
      )
      (property "Footprint" "" (at 0 0 0)
        (effects (font (size 1.27 1.27)) hide)
      )
      (property "Datasheet" "~" (at 0 0 0)
        (effects (font (size 1.27 1.27)) hide)
      )
      (property "ki_keywords" "capacitor cap" (at 0 0 0)
        (effects (font (size 1.27 1.27)) hide)
      )
      (property "ki_description" "Unpolarized capacitor, small symbol" (at 0 0 0)
        (effects (font (size 1.27 1.27)) hide)
      )
      (property "ki_fp_filters" "C_*" (at 0 0 0)
        (effects (font (size 1.27 1.27)) hide)
      )
      (symbol "C_Small_0_1"
        (polyline
          (pts
            (xy -1.524 -0.508)
            (xy 1.524 -0.508)
          )
          (stroke (width 0.3302) (type default))
          (fill (type none))
        )
        (polyline
          (pts
            (xy -1.524 0.508)
            (xy 1.524 0.508)
          )
          (stroke (width 0.3048) (type default))
          (fill (type none))
        )
      )
      (symbol "C_Small_1_1"
        (pin passive line (at 0 2.54 270) (length 2.032)
          (name "~" (effects (font (size 1.27 1.27))))
          (number "1" (effects (font (size 1.27 1.27))))
        )
        (pin passive line (at 0 -2.54 90) (length 2.032)
          (name "~" (effects (font (size 1.27 1.27))))
          (number "2" (effects (font (size 1.27 1.27))))
        )
      )
    )
    (symbol "Device:Crystal_GND24_Small" (pin_names (offset 1.016) hide) (in_bom yes) (on_board yes)
      (property "Reference" "Y" (at 1.27 4.445 0)
        (effects (font (size 1.27 1.27)) (justify left))
      )
      (property "Value" "Crystal_GND24_Small" (at 1.27 2.54 0)
        (effects (font (size 1.27 1.27)) (justify left))
      )
      (property "Footprint" "" (at 0 0 0)
        (effects (font (size 1.27 1.27)) hide)
      )
      (property "Datasheet" "~" (at 0 0 0)
        (effects (font (size 1.27 1.27)) hide)
      )
      (property "ki_keywords" "quartz ceramic resonator oscillator" (at 0 0 0)
        (effects (font (size 1.27 1.27)) hide)
      )
      (property "ki_description" "Four pin crystal, GND on pins 2 and 4, small symbol" (at 0 0 0)
        (effects (font (size 1.27 1.27)) hide)
      )
      (property "ki_fp_filters" "Crystal*" (at 0 0 0)
        (effects (font (size 1.27 1.27)) hide)
      )
      (symbol "Crystal_GND24_Small_0_1"
        (rectangle (start -0.762 -1.524) (end 0.762 1.524)
          (stroke (width 0) (type default))
          (fill (type none))
        )
        (polyline
          (pts
            (xy -1.27 -0.762)
            (xy -1.27 0.762)
          )
          (stroke (width 0.381) (type default))
          (fill (type none))
        )
        (polyline
          (pts
            (xy 1.27 -0.762)
            (xy 1.27 0.762)
          )
          (stroke (width 0.381) (type default))
          (fill (type none))
        )
        (polyline
          (pts
            (xy -1.27 -1.27)
            (xy -1.27 -1.905)
            (xy 1.27 -1.905)
            (xy 1.27 -1.27)
          )
          (stroke (width 0) (type default))
          (fill (type none))
        )
        (polyline
          (pts
            (xy -1.27 1.27)
            (xy -1.27 1.905)
            (xy 1.27 1.905)
            (xy 1.27 1.27)
          )
          (stroke (width 0) (type default))
          (fill (type none))
        )
      )
      (symbol "Crystal_GND24_Small_1_1"
        (pin passive line (at -2.54 0 0) (length 1.27)
          (name "1" (effects (font (size 1.27 1.27))))
          (number "1" (effects (font (size 0.762 0.762))))
        )
        (pin passive line (at 0 -2.54 90) (length 0.635)
          (name "2" (effects (font (size 1.27 1.27))))
          (number "2" (effects (font (size 0.762 0.762))))
        )
        (pin passive line (at 2.54 0 180) (length 1.27)
          (name "3" (effects (font (size 1.27 1.27))))
          (number "3" (effects (font (size 0.762 0.762))))
        )
        (pin passive line (at 0 2.54 270) (length 0.635)
          (name "4" (effects (font (size 1.27 1.27))))
          (number "4" (effects (font (size 0.762 0.762))))
        )
      )
    )
    (symbol "Device:R_Small" (pin_numbers hide) (pin_names (offset 0.254) hide) (in_bom yes) (on_board yes)
      (property "Reference" "R" (at 0.762 0.508 0)
        (effects (font (size 1.27 1.27)) (justify left))
      )
      (property "Value" "R_Small" (at 0.762 -1.016 0)
        (effects (font (size 1.27 1.27)) (justify left))
      )
      (property "Footprint" "" (at 0 0 0)
        (effects (font (size 1.27 1.27)) hide)
      )
      (property "Datasheet" "~" (at 0 0 0)
        (effects (font (size 1.27 1.27)) hide)
      )
      (property "ki_keywords" "R resistor" (at 0 0 0)
        (effects (font (size 1.27 1.27)) hide)
      )
      (property "ki_description" "Resistor, small symbol" (at 0 0 0)
        (effects (font (size 1.27 1.27)) hide)
      )
      (property "ki_fp_filters" "R_*" (at 0 0 0)
        (effects (font (size 1.27 1.27)) hide)
      )
      (symbol "R_Small_0_1"
        (rectangle (start -0.762 1.778) (end 0.762 -1.778)
          (stroke (width 0.2032) (type default))
          (fill (type none))
        )
      )
      (symbol "R_Small_1_1"
        (pin passive line (at 0 2.54 270) (length 0.762)
          (name "~" (effects (font (size 1.27 1.27))))
          (number "1" (effects (font (size 1.27 1.27))))
        )
        (pin passive line (at 0 -2.54 90) (length 0.762)
          (name "~" (effects (font (size 1.27 1.27))))
          (number "2" (effects (font (size 1.27 1.27))))
        )
      )
    )
    (symbol "Interface_USB:CH340G" (in_bom yes) (on_board yes)
      (property "Reference" "U" (at -5.08 13.97 0)
        (effects (font (size 1.27 1.27)) (justify right))
      )
      (property "Value" "CH340G" (at 1.27 13.97 0)
        (effects (font (size 1.27 1.27)) (justify left))
      )
      (property "Footprint" "Package_SO:SOIC-16_3.9x9.9mm_P1.27mm" (at 1.27 -13.97 0)
        (effects (font (size 1.27 1.27)) (justify left) hide)
      )
      (property "Datasheet" "http://www.datasheet5.com/pdf-local-2195953" (at -8.89 20.32 0)
        (effects (font (size 1.27 1.27)) hide)
      )
      (property "ki_keywords" "USB UART Serial Converter Interface" (at 0 0 0)
        (effects (font (size 1.27 1.27)) hide)
      )
      (property "ki_description" "USB serial converter, UART, SOIC-16" (at 0 0 0)
        (effects (font (size 1.27 1.27)) hide)
      )
      (property "ki_fp_filters" "SOIC*3.9x9.9mm*P1.27mm*" (at 0 0 0)
        (effects (font (size 1.27 1.27)) hide)
      )
      (symbol "CH340G_0_1"
        (rectangle (start -7.62 12.7) (end 7.62 -12.7)
          (stroke (width 0.254) (type default))
          (fill (type background))
        )
      )
      (symbol "CH340G_1_1"
        (pin power_in line (at 0 -15.24 90) (length 2.54)
          (name "GND" (effects (font (size 1.27 1.27))))
          (number "1" (effects (font (size 1.27 1.27))))
        )
        (pin input line (at 10.16 0 180) (length 2.54)
          (name "~{DSR}" (effects (font (size 1.27 1.27))))
          (number "10" (effects (font (size 1.27 1.27))))
        )
        (pin input line (at 10.16 -2.54 180) (length 2.54)
          (name "~{RI}" (effects (font (size 1.27 1.27))))
          (number "11" (effects (font (size 1.27 1.27))))
        )
        (pin input line (at 10.16 -5.08 180) (length 2.54)
          (name "~{DCD}" (effects (font (size 1.27 1.27))))
          (number "12" (effects (font (size 1.27 1.27))))
        )
        (pin output line (at 10.16 -7.62 180) (length 2.54)
          (name "~{DTR}" (effects (font (size 1.27 1.27))))
          (number "13" (effects (font (size 1.27 1.27))))
        )
        (pin output line (at 10.16 -10.16 180) (length 2.54)
          (name "~{RTS}" (effects (font (size 1.27 1.27))))
          (number "14" (effects (font (size 1.27 1.27))))
        )
        (pin input line (at -10.16 7.62 0) (length 2.54)
          (name "R232" (effects (font (size 1.27 1.27))))
          (number "15" (effects (font (size 1.27 1.27))))
        )
        (pin power_in line (at 0 15.24 270) (length 2.54)
          (name "VCC" (effects (font (size 1.27 1.27))))
          (number "16" (effects (font (size 1.27 1.27))))
        )
        (pin output line (at 10.16 10.16 180) (length 2.54)
          (name "TXD" (effects (font (size 1.27 1.27))))
          (number "2" (effects (font (size 1.27 1.27))))
        )
        (pin input line (at 10.16 7.62 180) (length 2.54)
          (name "RXD" (effects (font (size 1.27 1.27))))
          (number "3" (effects (font (size 1.27 1.27))))
        )
        (pin passive line (at -2.54 15.24 270) (length 2.54)
          (name "V3" (effects (font (size 1.27 1.27))))
          (number "4" (effects (font (size 1.27 1.27))))
        )
        (pin bidirectional line (at -10.16 2.54 0) (length 2.54)
          (name "UD+" (effects (font (size 1.27 1.27))))
          (number "5" (effects (font (size 1.27 1.27))))
        )
        (pin bidirectional line (at -10.16 0 0) (length 2.54)
          (name "UD-" (effects (font (size 1.27 1.27))))
          (number "6" (effects (font (size 1.27 1.27))))
        )
        (pin input line (at -10.16 -5.08 0) (length 2.54)
          (name "XI" (effects (font (size 1.27 1.27))))
          (number "7" (effects (font (size 1.27 1.27))))
        )
        (pin output line (at -10.16 -10.16 0) (length 2.54)
          (name "XO" (effects (font (size 1.27 1.27))))
          (number "8" (effects (font (size 1.27 1.27))))
        )
        (pin input line (at 10.16 2.54 180) (length 2.54)
          (name "~{CTS}" (effects (font (size 1.27 1.27))))
          (number "9" (effects (font (size 1.27 1.27))))
        )
      )
    )
    (symbol "Transistor_BJT:MMBT3904" (pin_names (offset 0) hide) (in_bom yes) (on_board yes)
      (property "Reference" "Q" (at 5.08 1.905 0)
        (effects (font (size 1.27 1.27)) (justify left))
      )
      (property "Value" "MMBT3904" (at 5.08 0 0)
        (effects (font (size 1.27 1.27)) (justify left))
      )
      (property "Footprint" "Package_TO_SOT_SMD:SOT-23" (at 5.08 -1.905 0)
        (effects (font (size 1.27 1.27) italic) (justify left) hide)
      )
      (property "Datasheet" "https://www.onsemi.com/pub/Collateral/2N3903-D.PDF" (at 0 0 0)
        (effects (font (size 1.27 1.27)) (justify left) hide)
      )
      (property "ki_keywords" "NPN Transistor" (at 0 0 0)
        (effects (font (size 1.27 1.27)) hide)
      )
      (property "ki_description" "0.2A Ic, 40V Vce, Small Signal NPN Transistor, SOT-23" (at 0 0 0)
        (effects (font (size 1.27 1.27)) hide)
      )
      (property "ki_fp_filters" "SOT?23*" (at 0 0 0)
        (effects (font (size 1.27 1.27)) hide)
      )
      (symbol "MMBT3904_0_1"
        (polyline
          (pts
            (xy 0.635 0.635)
            (xy 2.54 2.54)
          )
          (stroke (width 0) (type default))
          (fill (type none))
        )
        (polyline
          (pts
            (xy 0.635 -0.635)
            (xy 2.54 -2.54)
            (xy 2.54 -2.54)
          )
          (stroke (width 0) (type default))
          (fill (type none))
        )
        (polyline
          (pts
            (xy 0.635 1.905)
            (xy 0.635 -1.905)
            (xy 0.635 -1.905)
          )
          (stroke (width 0.508) (type default))
          (fill (type none))
        )
        (polyline
          (pts
            (xy 1.27 -1.778)
            (xy 1.778 -1.27)
            (xy 2.286 -2.286)
            (xy 1.27 -1.778)
            (xy 1.27 -1.778)
          )
          (stroke (width 0) (type default))
          (fill (type outline))
        )
        (circle (center 1.27 0) (radius 2.8194)
          (stroke (width 0.254) (type default))
          (fill (type none))
        )
      )
      (symbol "MMBT3904_1_1"
        (pin input line (at -5.08 0 0) (length 5.715)
          (name "B" (effects (font (size 1.27 1.27))))
          (number "1" (effects (font (size 1.27 1.27))))
        )
        (pin passive line (at 2.54 -5.08 90) (length 2.54)
          (name "E" (effects (font (size 1.27 1.27))))
          (number "2" (effects (font (size 1.27 1.27))))
        )
        (pin passive line (at 2.54 5.08 270) (length 2.54)
          (name "C" (effects (font (size 1.27 1.27))))
          (number "3" (effects (font (size 1.27 1.27))))
        )
      )
    )
    (symbol "power:+3V3" (power) (pin_names (offset 0)) (in_bom yes) (on_board yes)
      (property "Reference" "#PWR" (at 0 -3.81 0)
        (effects (font (size 1.27 1.27)) hide)
      )
      (property "Value" "+3V3" (at 0 3.556 0)
        (effects (font (size 1.27 1.27)))
      )
      (property "Footprint" "" (at 0 0 0)
        (effects (font (size 1.27 1.27)) hide)
      )
      (property "Datasheet" "" (at 0 0 0)
        (effects (font (size 1.27 1.27)) hide)
      )
      (property "ki_keywords" "power-flag" (at 0 0 0)
        (effects (font (size 1.27 1.27)) hide)
      )
      (property "ki_description" "Power symbol creates a global label with name \"+3V3\"" (at 0 0 0)
        (effects (font (size 1.27 1.27)) hide)
      )
      (symbol "+3V3_0_1"
        (polyline
          (pts
            (xy -0.762 1.27)
            (xy 0 2.54)
          )
          (stroke (width 0) (type default))
          (fill (type none))
        )
        (polyline
          (pts
            (xy 0 0)
            (xy 0 2.54)
          )
          (stroke (width 0) (type default))
          (fill (type none))
        )
        (polyline
          (pts
            (xy 0 2.54)
            (xy 0.762 1.27)
          )
          (stroke (width 0) (type default))
          (fill (type none))
        )
      )
      (symbol "+3V3_1_1"
        (pin power_in line (at 0 0 90) (length 0) hide
          (name "+3V3" (effects (font (size 1.27 1.27))))
          (number "1" (effects (font (size 1.27 1.27))))
        )
      )
    )
    (symbol "power:GND" (power) (pin_names (offset 0)) (in_bom yes) (on_board yes)
      (property "Reference" "#PWR" (at 0 -6.35 0)
        (effects (font (size 1.27 1.27)) hide)
      )
      (property "Value" "GND" (at 0 -3.81 0)
        (effects (font (size 1.27 1.27)))
      )
      (property "Footprint" "" (at 0 0 0)
        (effects (font (size 1.27 1.27)) hide)
      )
      (property "Datasheet" "" (at 0 0 0)
        (effects (font (size 1.27 1.27)) hide)
      )
      (property "ki_keywords" "power-flag" (at 0 0 0)
        (effects (font (size 1.27 1.27)) hide)
      )
      (property "ki_description" "Power symbol creates a global label with name \"GND\" , ground" (at 0 0 0)
        (effects (font (size 1.27 1.27)) hide)
      )
      (symbol "GND_0_1"
        (polyline
          (pts
            (xy 0 0)
            (xy 0 -1.27)
            (xy 1.27 -1.27)
            (xy 0 -2.54)
            (xy -1.27 -1.27)
            (xy 0 -1.27)
          )
          (stroke (width 0) (type default))
          (fill (type none))
        )
      )
      (symbol "GND_1_1"
        (pin power_in line (at 0 0 270) (length 0) hide
          (name "GND" (effects (font (size 1.27 1.27))))
          (number "1" (effects (font (size 1.27 1.27))))
        )
      )
    )
  )

  (junction (at 261.62 74.93) (diameter 0) (color 0 0 0 0)
    (uuid 1e0743f9-25f1-4e27-8ba3-1bbc1755dc6c)
  )
  (junction (at 210.82 62.23) (diameter 0) (color 0 0 0 0)
    (uuid 243aef0a-deaf-4a60-b473-423f0d16a7b9)
  )
  (junction (at 209.55 139.7) (diameter 0) (color 0 0 0 0)
    (uuid 59550421-1010-45d2-ae78-ff36e5bca6b7)
  )
  (junction (at 220.98 41.91) (diameter 0) (color 0 0 0 0)
    (uuid 5c099af0-63c8-4ecf-aeb2-14994025fd26)
  )
  (junction (at 250.19 74.93) (diameter 0) (color 0 0 0 0)
    (uuid 5d9cc826-4756-4365-b769-24e883398d0a)
  )
  (junction (at 237.49 74.93) (diameter 0) (color 0 0 0 0)
    (uuid 66476d1d-4c00-4a38-be9f-44c27aa5a5d8)
  )
  (junction (at 234.95 69.85) (diameter 0) (color 0 0 0 0)
    (uuid 77564a16-86d6-4747-a84e-1eec4273b395)
  )
  (junction (at 240.03 74.93) (diameter 0) (color 0 0 0 0)
    (uuid 77ab6daa-d195-4b7a-82b7-9ebe28ff1a07)
  )
  (junction (at 72.39 58.42) (diameter 0) (color 0 0 0 0)
    (uuid 7a7a7b2a-5e5c-4bd9-929e-467d22d860f5)
  )
  (junction (at 222.25 110.49) (diameter 0) (color 0 0 0 0)
    (uuid 82c8cab5-31a0-4919-8944-eec324ac63bc)
  )
  (junction (at 219.71 147.32) (diameter 0) (color 0 0 0 0)
    (uuid 83e0cca9-5613-4db9-a25e-9b9a5a3ef818)
  )
  (junction (at 210.82 64.77) (diameter 0) (color 0 0 0 0)
    (uuid a3885708-2be2-4332-ae1d-29d9583b2492)
  )
  (junction (at 240.03 105.41) (diameter 0) (color 0 0 0 0)
    (uuid a9d81040-aa83-41c0-9ffb-dc565d767092)
  )
  (junction (at 229.87 147.32) (diameter 0) (color 0 0 0 0)
    (uuid b0b40da2-8918-4f0b-b11b-1408b929feb5)
  )
  (junction (at 80.01 63.5) (diameter 0) (color 0 0 0 0)
    (uuid cb6ea17f-5c88-4ad8-b5a7-f6343dcc732c)
  )
  (junction (at 209.55 147.32) (diameter 0) (color 0 0 0 0)
    (uuid ccb0a40d-98fd-4349-8a25-765788d792cc)
  )
  (junction (at 259.08 74.93) (diameter 0) (color 0 0 0 0)
    (uuid e5e10b7e-d4e1-472a-acd2-b7ba1a3292f0)
  )
  (junction (at 234.95 64.77) (diameter 0) (color 0 0 0 0)
    (uuid eabe635e-0260-4161-883b-d1098d65af6f)
  )
  (junction (at 199.39 139.7) (diameter 0) (color 0 0 0 0)
    (uuid fc629b48-b1aa-444a-9183-fd4178726e1f)
  )

  (no_connect (at 115.57 59.69) (uuid 6b1d6bcd-1928-474b-8dbd-6dab746597ca))
  (no_connect (at 251.46 62.23) (uuid 8a118e01-ce68-4cb9-aa2c-69460d69aea9))
  (no_connect (at 102.87 59.69) (uuid a9fdce30-e0b1-49dc-914c-0573fb33fbc7))
  (no_connect (at 115.57 57.15) (uuid b9f8ba78-9b7b-4a7c-8351-c9f145a140ab))

  (wire (pts (xy 231.14 64.77) (xy 234.95 64.77))
    (stroke (width 0) (type default))
    (uuid 0850d44a-6bde-4886-b872-ef2fda5e1590)
  )
  (wire (pts (xy 240.03 69.85) (xy 234.95 69.85))
    (stroke (width 0) (type default))
    (uuid 1132057a-71b1-4ca2-9f3c-73105e44ace9)
  )
  (wire (pts (xy 250.19 64.77) (xy 250.19 69.85))
    (stroke (width 0) (type default))
    (uuid 1509b6e6-a266-4bd3-bef6-1700f12ad930)
  )
  (wire (pts (xy 115.57 52.07) (xy 120.65 52.07))
    (stroke (width 0) (type default))
    (uuid 1a0c5194-0d7e-4fcc-a11d-049fac80c4dc)
  )
  (wire (pts (xy 223.52 41.91) (xy 223.52 44.45))
    (stroke (width 0) (type default))
    (uuid 21863908-1893-451b-ac66-7dcbc5e00451)
  )
  (wire (pts (xy 208.28 41.91) (xy 220.98 41.91))
    (stroke (width 0) (type default))
    (uuid 26a6c669-caf3-49b5-86b0-e743f4015013)
  )
  (wire (pts (xy 231.14 69.85) (xy 234.95 69.85))
    (stroke (width 0) (type default))
    (uuid 2df83ebe-1ddf-4544-b413-d0b7b3d7c49e)
  )
  (wire (pts (xy 240.03 74.93) (xy 250.19 74.93))
    (stroke (width 0) (type default))
    (uuid 3850e2d4-b49e-4213-938e-107014b88c2f)
  )
  (wire (pts (xy 209.55 139.7) (xy 219.71 139.7))
    (stroke (width 0) (type default))
    (uuid 3adb8c69-132c-478c-b246-f381b0e1424c)
  )
  (wire (pts (xy 115.57 54.61) (xy 118.11 54.61))
    (stroke (width 0) (type default))
    (uuid 415d6a7d-98b2-4d17-b46f-6f38749a3ba2)
  )
  (wire (pts (xy 72.39 55.88) (xy 69.85 55.88))
    (stroke (width 0) (type default))
    (uuid 443b842e-cdd6-495f-a7fb-0cef04c17274)
  )
  (wire (pts (xy 229.87 139.7) (xy 229.87 140.97))
    (stroke (width 0) (type default))
    (uuid 44553259-2185-472f-80bb-034facaeec13)
  )
  (wire (pts (xy 72.39 58.42) (xy 80.01 58.42))
    (stroke (width 0) (type default))
    (uuid 47337783-480d-4a3c-af15-7ed820740dad)
  )
  (wire (pts (xy 259.08 74.93) (xy 261.62 74.93))
    (stroke (width 0) (type default))
    (uuid 48c8f34d-07f7-4afa-855e-fa94e34f4de0)
  )
  (wire (pts (xy 118.11 54.61) (xy 118.11 49.53))
    (stroke (width 0) (type default))
    (uuid 4dfbe524-132d-43d4-8ae0-9aa2f72df70b)
  )
  (wire (pts (xy 237.49 74.93) (xy 232.41 74.93))
    (stroke (width 0) (type default))
    (uuid 5189845c-1131-4cfb-bb97-7625ac5e3ca4)
  )
  (wire (pts (xy 219.71 139.7) (xy 219.71 140.97))
    (stroke (width 0) (type default))
    (uuid 53b68512-81a5-4a7e-8368-3cd00f25b652)
  )
  (wire (pts (xy 237.49 67.31) (xy 237.49 74.93))
    (stroke (width 0) (type default))
    (uuid 579abbbc-4b91-48bd-871c-68f2d2274b3e)
  )
  (wire (pts (xy 222.25 93.98) (xy 222.25 95.25))
    (stroke (width 0) (type default))
    (uuid 5a05a589-fec3-4695-8649-dafcbcf356c8)
  )
  (wire (pts (xy 72.39 63.5) (xy 80.01 63.5))
    (stroke (width 0) (type default))
    (uuid 656e1eef-0e28-41c8-8ede-558364b67c68)
  )
  (wire (pts (xy 199.39 139.7) (xy 199.39 140.97))
    (stroke (width 0) (type default))
    (uuid 6abeeefb-39b7-44d2-9c7c-29f61e493f63)
  )
  (wire (pts (xy 229.87 147.32) (xy 229.87 146.05))
    (stroke (width 0) (type default))
    (uuid 708d2ac5-ed62-4b3a-aae2-79154739aa43)
  )
  (wire (pts (xy 261.62 67.31) (xy 261.62 74.93))
    (stroke (width 0) (type default))
    (uuid 72587f14-3879-4ab1-8ee7-30f0f8e50d93)
  )
  (wire (pts (xy 210.82 62.23) (xy 210.82 59.69))
    (stroke (width 0) (type default))
    (uuid 7711f478-1a0c-4411-8ec2-875db35b321f)
  )
  (wire (pts (xy 209.55 139.7) (xy 209.55 140.97))
    (stroke (width 0) (type default))
    (uuid 7712e1f9-19bc-4c8c-ad2a-4e8ef472247d)
  )
  (wire (pts (xy 220.98 41.91) (xy 223.52 41.91))
    (stroke (width 0) (type default))
    (uuid 7725f0a6-c976-4dd4-8cb8-47f665bb0f77)
  )
  (wire (pts (xy 241.3 99.06) (xy 240.03 99.06))
    (stroke (width 0) (type default))
    (uuid 77b04dfd-bc0c-4c52-8031-34d55be4e388)
  )
  (wire (pts (xy 234.95 64.77) (xy 250.19 64.77))
    (stroke (width 0) (type default))
    (uuid 7851c748-2387-4154-b3ec-a8d320da9b5f)
  )
  (wire (pts (xy 69.85 58.42) (xy 72.39 58.42))
    (stroke (width 0) (type default))
    (uuid 7ab8aff0-29e4-4be7-af1f-6a97b7752e20)
  )
  (wire (pts (xy 240.03 105.41) (xy 229.87 105.41))
    (stroke (width 0) (type default))
    (uuid 87595ebf-9ca8-46be-97c1-8ee081fd3461)
  )
  (wire (pts (xy 219.71 147.32) (xy 219.71 146.05))
    (stroke (width 0) (type default))
    (uuid 8f81b132-7461-4a5c-842b-4600b9b27f29)
  )
  (wire (pts (xy 259.08 67.31) (xy 259.08 74.93))
    (stroke (width 0) (type default))
    (uuid 90a47af4-b3af-42ad-8a92-2ac33f1eaf7d)
  )
  (wire (pts (xy 233.68 52.07) (xy 231.14 52.07))
    (stroke (width 0) (type default))
    (uuid 922cf8c5-5c40-470a-b001-29b04aff528b)
  )
  (wire (pts (xy 250.19 74.93) (xy 259.08 74.93))
    (stroke (width 0) (type default))
    (uuid 97db24fe-c1f7-4f86-9060-dc632af2d885)
  )
  (wire (pts (xy 209.55 147.32) (xy 199.39 147.32))
    (stroke (width 0) (type default))
    (uuid 9f20cc6d-a871-4f9f-a863-b0b289696776)
  )
  (wire (pts (xy 199.39 139.7) (xy 209.55 139.7))
    (stroke (width 0) (type default))
    (uuid 9fb31f90-14d9-4b17-bc1a-46c773f3c3a2)
  )
  (wire (pts (xy 205.74 64.77) (xy 210.82 64.77))
    (stroke (width 0) (type default))
    (uuid a9ec2cea-f866-4dcd-a128-362db838a24b)
  )
  (wire (pts (xy 219.71 147.32) (xy 209.55 147.32))
    (stroke (width 0) (type default))
    (uuid b027388d-8092-416a-ae2f-62be7825303f)
  )
  (wire (pts (xy 222.25 110.49) (xy 240.03 110.49))
    (stroke (width 0) (type default))
    (uuid b2a1c630-ab1b-42b6-9d37-f17afeebd40e)
  )
  (wire (pts (xy 237.49 74.93) (xy 240.03 74.93))
    (stroke (width 0) (type default))
    (uuid b5c32e07-0423-44db-b511-a43a3226b789)
  )
  (wire (pts (xy 209.55 147.32) (xy 209.55 146.05))
    (stroke (width 0) (type default))
    (uuid bcd26aab-846a-44c9-b454-0e602a3dbd70)
  )
  (wire (pts (xy 240.03 99.06) (xy 240.03 100.33))
    (stroke (width 0) (type default))
    (uuid bf7e8764-6b66-4313-98ae-754d4068fa57)
  )
  (wire (pts (xy 229.87 139.7) (xy 228.6 139.7))
    (stroke (width 0) (type default))
    (uuid bfb1ba37-6199-4bcb-aa4e-e6986b689ba1)
  )
  (wire (pts (xy 199.39 147.32) (xy 199.39 146.05))
    (stroke (width 0) (type default))
    (uuid c4389781-9b7d-437b-9862-d039156e9666)
  )
  (wire (pts (xy 210.82 62.23) (xy 210.82 64.77))
    (stroke (width 0) (type default))
    (uuid d4ccca85-7d3e-4505-9418-594f3ddbdbde)
  )
  (wire (pts (xy 219.71 147.32) (xy 229.87 147.32))
    (stroke (width 0) (type default))
    (uuid d72e94c5-a32f-4cd1-a529-1aee988eb170)
  )
  (wire (pts (xy 232.41 74.93) (xy 232.41 67.31))
    (stroke (width 0) (type default))
    (uuid d9c352fe-5044-40c9-8006-922595c33d54)
  )
  (wire (pts (xy 251.46 57.15) (xy 231.14 57.15))
    (stroke (width 0) (type default))
    (uuid db002d44-34dc-4a16-a373-be2b73d8ad8e)
  )
  (wire (pts (xy 208.28 41.91) (xy 208.28 52.07))
    (stroke (width 0) (type default))
    (uuid dbc9643b-8b89-4ff3-80f6-063535be3753)
  )
  (wire (pts (xy 224.79 93.98) (xy 222.25 93.98))
    (stroke (width 0) (type default))
    (uuid e1a929c4-c484-4255-9524-8c224d1f6e73)
  )
  (wire (pts (xy 208.28 52.07) (xy 210.82 52.07))
    (stroke (width 0) (type default))
    (uuid e69b829b-c0b7-43a9-80d0-4376f3776ee0)
  )
  (wire (pts (xy 231.14 59.69) (xy 251.46 59.69))
    (stroke (width 0) (type default))
    (uuid e6c16e98-5927-4f9f-a3b1-c110a2a40970)
  )
  (wire (pts (xy 220.98 41.91) (xy 220.98 44.45))
    (stroke (width 0) (type default))
    (uuid f5e58d0d-abf0-41f6-8138-82c7fdc86b74)
  )
  (wire (pts (xy 97.79 52.07) (xy 102.87 52.07))
    (stroke (width 0) (type default))
    (uuid fcd846fb-7233-4438-a0f1-624e56694bbf)
  )
  (wire (pts (xy 210.82 49.53) (xy 200.66 49.53))
    (stroke (width 0) (type default))
    (uuid ff579cc0-821d-40ca-8f3d-8708c2d87acb)
  )

  (label "UTCK" (at 200.66 49.53 0) (fields_autoplaced)
    (effects (font (size 1.27 1.27)) (justify left bottom))
    (uuid 99187cb6-681b-4886-9fc6-864207b7616f)
  )
  (label "TCKrc" (at 102.87 52.07 180) (fields_autoplaced)
    (effects (font (size 1.27 1.27)) (justify right bottom))
    (uuid d1f13090-101e-4d0b-b293-0c9cedb300b9)
  )

  (global_label "USB5V" (shape input) (at 251.46 52.07 180) (fields_autoplaced)
    (effects (font (size 1.27 1.27)) (justify right))
    (uuid 3236df0b-e15f-45ca-9654-f1ebb3968907)
    (property "Intersheetrefs" "${INTERSHEET_REFS}" (at 243.1003 52.07 0)
      (effects (font (size 1.27 1.27)) (justify right) hide)
    )
  )
  (global_label "USB5V" (shape input) (at 228.6 139.7 180) (fields_autoplaced)
    (effects (font (size 1.27 1.27)) (justify right))
    (uuid 7047f942-4886-4876-b5e7-2d16d0be0a77)
    (property "Intersheetrefs" "${INTERSHEET_REFS}" (at 220.2403 139.7 0)
      (effects (font (size 1.27 1.27)) (justify right) hide)
    )
  )
  (global_label "USB5V" (shape input) (at 241.3 99.06 0) (fields_autoplaced)
    (effects (font (size 1.27 1.27)) (justify left))
    (uuid fb5424d8-34e6-4342-9205-a7169b9b60b5)
    (property "Intersheetrefs" "${INTERSHEET_REFS}" (at 249.6597 99.06 0)
      (effects (font (size 1.27 1.27)) (justify left) hide)
    )
  )

  (hierarchical_label "TCK" (shape output) (at 92.71 52.07 180) (fields_autoplaced)
    (effects (font (size 1.27 1.27)) (justify right))
    (uuid 08601885-ffd0-426c-9b07-2dc479593fb1)
  )
  (hierarchical_label "TCK" (shape output) (at 69.85 58.42 180) (fields_autoplaced)
    (effects (font (size 1.27 1.27)) (justify right))
    (uuid 494a6b97-f33e-4834-b724-0c3a3ff54317)
  )
  (hierarchical_label "TMS" (shape output) (at 69.85 55.88 180) (fields_autoplaced)
    (effects (font (size 1.27 1.27)) (justify right))
    (uuid 506110af-ac51-4501-bfa6-1552a848d599)
  )
  (hierarchical_label "~{RESET}" (shape tri_state) (at 224.79 93.98 0) (fields_autoplaced)
    (effects (font (size 1.27 1.27)) (justify left))
    (uuid 5dcbb3b6-1c66-4989-97d2-485c6610a0cb)
  )
  (hierarchical_label "TMS" (shape output) (at 210.82 69.85 180) (fields_autoplaced)
    (effects (font (size 1.27 1.27)) (justify right))
    (uuid 6bab81b1-b4b7-42f0-8e22-e13646597891)
  )
  (hierarchical_label "TDI" (shape output) (at 102.87 62.23 180) (fields_autoplaced)
    (effects (font (size 1.27 1.27)) (justify right))
    (uuid 824a1256-25d4-4c20-968f-40a07210c698)
  )
  (hierarchical_label "TMS" (shape output) (at 102.87 57.15 180) (fields_autoplaced)
    (effects (font (size 1.27 1.27)) (justify right))
    (uuid 89d9af53-e698-40c4-8ab2-a44fdf0a4c6c)
  )
  (hierarchical_label "TDO" (shape input) (at 210.82 57.15 180) (fields_autoplaced)
    (effects (font (size 1.27 1.27)) (justify right))
    (uuid a3016852-b4bb-4616-8ece-bd5e86969689)
  )
  (hierarchical_label "TCK" (shape output) (at 195.58 49.53 180) (fields_autoplaced)
    (effects (font (size 1.27 1.27)) (justify right))
    (uuid ae0ad2a8-816d-4ed9-8122-ce73b249d5bc)
  )
  (hierarchical_label "TDO" (shape input) (at 102.87 54.61 180) (fields_autoplaced)
    (effects (font (size 1.27 1.27)) (justify right))
    (uuid cf6465a5-cdc8-43ab-af6a-066f3abc4788)
  )
  (hierarchical_label "TDI" (shape output) (at 210.82 67.31 180) (fields_autoplaced)
    (effects (font (size 1.27 1.27)) (justify right))
    (uuid fe5aebf0-984c-414c-8b60-cf718f989fc6)
  )

  (symbol (lib_id "Connector_Generic:Conn_02x05_Odd_Even") (at 107.95 57.15 0) (unit 1)
    (in_bom yes) (on_board yes) (dnp no)
    (uuid 00000000-0000-0000-0000-000061ac4edf)
    (property "Reference" "J2" (at 109.22 49.53 0)
      (effects (font (size 1.27 1.27)))
    )
    (property "Value" "JTAG" (at 109.22 64.77 0)
      (effects (font (size 1.27 1.27)))
    )
    (property "Footprint" "stdpads:Tag-Connect_TC2050-IDC-FP_2x05_P1.27mm_Vertical" (at 107.95 57.15 0)
      (effects (font (size 1.27 1.27)) hide)
    )
    (property "Datasheet" "" (at 107.95 57.15 0)
      (effects (font (size 1.27 1.27)) hide)
    )
    (pin "1" (uuid bdf86609-929e-4079-950b-2d5bfdd6c5fb))
    (pin "10" (uuid 8eef7ede-2db8-45e4-8bab-50e28bd12e2a))
    (pin "2" (uuid 24a86178-ebc1-44ed-9c10-015db7084534))
    (pin "3" (uuid 450646d0-7c26-4bbe-9ddf-75757216004a))
    (pin "4" (uuid f49ac800-5f0f-4506-955c-909db167555e))
    (pin "5" (uuid 65a2e60a-b206-4739-86cc-19ad7fed8d54))
    (pin "6" (uuid 900b99ff-c24d-4e3a-a06a-95e376f9bf11))
    (pin "7" (uuid 478e7e51-d9b7-46e4-8d83-b055805e49d7))
    (pin "8" (uuid 970ac6d5-4efb-46d9-9ba0-ac6a247ed97b))
    (pin "9" (uuid 6a4015d8-ef59-4a5b-ba16-34eb529960e5))
    (instances
      (project "WarpSE"
        (path "/a5be2cb8-c68d-4180-8412-69a6b4c5b1d4/00000000-0000-0000-0000-000061aa52c4"
          (reference "J2") (unit 1)
        )
      )
    )
  )

  (symbol (lib_id "power:+3V3") (at 118.11 49.53 0) (unit 1)
    (in_bom yes) (on_board yes) (dnp no)
    (uuid 00000000-0000-0000-0000-000061ac4ef7)
    (property "Reference" "#PWR0128" (at 118.11 53.34 0)
      (effects (font (size 1.27 1.27)) hide)
    )
    (property "Value" "+3V3" (at 118.11 45.72 0)
      (effects (font (size 1.27 1.27)))
    )
    (property "Footprint" "" (at 118.11 49.53 0)
      (effects (font (size 1.27 1.27)) hide)
    )
    (property "Datasheet" "" (at 118.11 49.53 0)
      (effects (font (size 1.27 1.27)) hide)
    )
    (pin "1" (uuid deb9ebef-314a-4c99-adb7-ab285004007d))
    (instances
      (project "WarpSE"
        (path "/a5be2cb8-c68d-4180-8412-69a6b4c5b1d4/00000000-0000-0000-0000-000061aa52c4"
          (reference "#PWR0128") (unit 1)
        )
      )
    )
  )

  (symbol (lib_id "Interface_USB:CH340G") (at 220.98 59.69 0) (mirror y) (unit 1)
    (in_bom yes) (on_board yes) (dnp no)
    (uuid 00000000-0000-0000-0000-000061acf498)
    (property "Reference" "U12" (at 220.98 59.69 0)
      (effects (font (size 1.27 1.27)))
    )
    (property "Value" "CH340G" (at 220.98 62.23 0)
      (effects (font (size 1.27 1.27)))
    )
    (property "Footprint" "stdpads:SOIC-16_3.9mm" (at 219.71 73.66 0)
      (effects (font (size 1.27 1.27)) (justify left) hide)
    )
    (property "Datasheet" "" (at 229.87 39.37 0)
      (effects (font (size 1.27 1.27)) hide)
    )
    (property "LCSC Part" "C14267" (at 220.98 59.69 0)
      (effects (font (size 1.27 1.27)) hide)
    )
    (pin "1" (uuid 0b067857-a79a-4810-9de8-4106088187b3))
    (pin "10" (uuid bb1f3998-bbb6-48c8-b48f-a222a2454926))
    (pin "11" (uuid eaaa7ecc-5f0e-46b2-8f90-21144aeb1857))
    (pin "12" (uuid 4baa2f40-535e-4ddb-8aa5-3347bee49194))
    (pin "13" (uuid f4d19bc6-8eb2-4fc1-a616-ee85d8448e49))
    (pin "14" (uuid 7d450177-3f13-4257-b0d5-ae03dfced048))
    (pin "15" (uuid df0a1b40-6da4-420e-aad0-e979e5f928fd))
    (pin "16" (uuid f859b5d1-5db4-4371-b7c7-d1b6bcdf7290))
    (pin "2" (uuid b33bfc0c-a5f5-44e6-bc72-f99529dd0938))
    (pin "3" (uuid 274736c9-14c3-4c8a-a6ea-fc8af5aa6101))
    (pin "4" (uuid 6528c645-a1fa-4bdb-886b-ac7959a1fbaa))
    (pin "5" (uuid eec579fd-6c9e-4a42-b500-0f9b09c2e2ed))
    (pin "6" (uuid d98b0356-ce99-416b-87f6-1f5ddfebff6c))
    (pin "7" (uuid dbac70b7-a79b-44cc-b29a-9f169c3aa27e))
    (pin "8" (uuid 55852791-59b6-409c-adab-130e7cb7b0e9))
    (pin "9" (uuid 05c1cf41-1061-4517-8cb7-c6f56de76432))
    (instances
      (project "WarpSE"
        (path "/a5be2cb8-c68d-4180-8412-69a6b4c5b1d4/00000000-0000-0000-0000-000061aa52c4"
          (reference "U12") (unit 1)
        )
      )
    )
  )

  (symbol (lib_id "power:GND") (at 233.68 52.07 0) (mirror y) (unit 1)
    (in_bom yes) (on_board yes) (dnp no)
    (uuid 00000000-0000-0000-0000-000061afee59)
    (property "Reference" "#PWR0164" (at 233.68 58.42 0)
      (effects (font (size 1.27 1.27)) hide)
    )
    (property "Value" "GND" (at 233.68 55.88 0)
      (effects (font (size 1.27 1.27)))
    )
    (property "Footprint" "" (at 233.68 52.07 0)
      (effects (font (size 1.27 1.27)) hide)
    )
    (property "Datasheet" "" (at 233.68 52.07 0)
      (effects (font (size 1.27 1.27)) hide)
    )
    (pin "1" (uuid ea0edf99-dc98-4a03-a5c3-fc227dbd5d1e))
    (instances
      (project "WarpSE"
        (path "/a5be2cb8-c68d-4180-8412-69a6b4c5b1d4/00000000-0000-0000-0000-000061aa52c4"
          (reference "#PWR0164") (unit 1)
        )
      )
    )
  )

  (symbol (lib_id "Device:C_Small") (at 209.55 143.51 0) (unit 1)
    (in_bom yes) (on_board yes) (dnp no)
    (uuid 00000000-0000-0000-0000-000061d388da)
    (property "Reference" "C11" (at 210.82 142.24 0)
      (effects (font (size 1.27 1.27)) (justify left))
    )
    (property "Value" "2u2" (at 210.82 144.78 0)
      (effects (font (size 1.27 1.27)) (justify left))
    )
    (property "Footprint" "stdpads:C_0603" (at 209.55 143.51 0)
      (effects (font (size 1.27 1.27)) hide)
    )
    (property "Datasheet" "" (at 209.55 143.51 0)
      (effects (font (size 1.27 1.27)) hide)
    )
    (property "LCSC Part" "C23630" (at 209.55 143.51 0)
      (effects (font (size 1.27 1.27)) hide)
    )
    (pin "1" (uuid 0c3e6189-fe0d-4aa0-9801-819c2c28b385))
    (pin "2" (uuid d61b2bb2-bb71-49ce-8ef7-de9ae5416f79))
    (instances
      (project "WarpSE"
        (path "/a5be2cb8-c68d-4180-8412-69a6b4c5b1d4/00000000-0000-0000-0000-000061aa52c4"
          (reference "C11") (unit 1)
        )
      )
    )
  )

  (symbol (lib_id "Device:C_Small") (at 219.71 143.51 0) (unit 1)
    (in_bom yes) (on_board yes) (dnp no)
    (uuid 00000000-0000-0000-0000-000061d3bd74)
    (property "Reference" "C23" (at 220.98 142.24 0)
      (effects (font (size 1.27 1.27)) (justify left))
    )
    (property "Value" "2u2" (at 220.98 144.78 0)
      (effects (font (size 1.27 1.27)) (justify left))
    )
    (property "Footprint" "stdpads:C_0603" (at 219.71 143.51 0)
      (effects (font (size 1.27 1.27)) hide)
    )
    (property "Datasheet" "" (at 219.71 143.51 0)
      (effects (font (size 1.27 1.27)) hide)
    )
    (property "LCSC Part" "C23630" (at 219.71 143.51 0)
      (effects (font (size 1.27 1.27)) hide)
    )
    (pin "1" (uuid 82b1688c-3bcd-432f-90a4-e6df85b2a005))
    (pin "2" (uuid 2a29454e-06e5-4ff2-96c9-d6a7014348bf))
    (instances
      (project "WarpSE"
        (path "/a5be2cb8-c68d-4180-8412-69a6b4c5b1d4/00000000-0000-0000-0000-000061aa52c4"
          (reference "C23") (unit 1)
        )
      )
    )
  )

  (symbol (lib_id "Device:C_Small") (at 229.87 143.51 0) (unit 1)
    (in_bom yes) (on_board yes) (dnp no)
    (uuid 00000000-0000-0000-0000-000061d4446a)
    (property "Reference" "C25" (at 231.14 142.24 0)
      (effects (font (size 1.27 1.27)) (justify left))
    )
    (property "Value" "2u2" (at 231.14 144.78 0)
      (effects (font (size 1.27 1.27)) (justify left))
    )
    (property "Footprint" "stdpads:C_0603" (at 229.87 143.51 0)
      (effects (font (size 1.27 1.27)) hide)
    )
    (property "Datasheet" "" (at 229.87 143.51 0)
      (effects (font (size 1.27 1.27)) hide)
    )
    (property "LCSC Part" "C23630" (at 229.87 143.51 0)
      (effects (font (size 1.27 1.27)) hide)
    )
    (pin "1" (uuid dbcc4140-7a3e-4d0d-b2ee-be0316d70716))
    (pin "2" (uuid 85999929-a620-46a4-9f13-3e8df80f24b7))
    (instances
      (project "WarpSE"
        (path "/a5be2cb8-c68d-4180-8412-69a6b4c5b1d4/00000000-0000-0000-0000-000061aa52c4"
          (reference "C25") (unit 1)
        )
      )
    )
  )

  (symbol (lib_id "power:GND") (at 261.62 74.93 0) (mirror y) (unit 1)
    (in_bom yes) (on_board yes) (dnp no)
    (uuid 00000000-0000-0000-0000-000061de6244)
    (property "Reference" "#PWR0165" (at 261.62 81.28 0)
      (effects (font (size 1.27 1.27)) hide)
    )
    (property "Value" "GND" (at 261.62 78.74 0)
      (effects (font (size 1.27 1.27)))
    )
    (property "Footprint" "" (at 261.62 74.93 0)
      (effects (font (size 1.27 1.27)) hide)
    )
    (property "Datasheet" "" (at 261.62 74.93 0)
      (effects (font (size 1.27 1.27)) hide)
    )
    (pin "1" (uuid df6cfdb3-2a8b-40a4-b77f-46c3a2ec7231))
    (instances
      (project "WarpSE"
        (path "/a5be2cb8-c68d-4180-8412-69a6b4c5b1d4/00000000-0000-0000-0000-000061aa52c4"
          (reference "#PWR0165") (unit 1)
        )
      )
    )
  )

  (symbol (lib_id "power:GND") (at 115.57 62.23 0) (unit 1)
    (in_bom yes) (on_board yes) (dnp no)
    (uuid 00000000-0000-0000-0000-000061e4a7db)
    (property "Reference" "#PWR0127" (at 115.57 68.58 0)
      (effects (font (size 1.27 1.27)) hide)
    )
    (property "Value" "GND" (at 115.57 66.04 0)
      (effects (font (size 1.27 1.27)))
    )
    (property "Footprint" "" (at 115.57 62.23 0)
      (effects (font (size 1.27 1.27)) hide)
    )
    (property "Datasheet" "" (at 115.57 62.23 0)
      (effects (font (size 1.27 1.27)) hide)
    )
    (pin "1" (uuid 67253a3e-10e5-4396-a563-bb3ce5146e90))
    (instances
      (project "WarpSE"
        (path "/a5be2cb8-c68d-4180-8412-69a6b4c5b1d4/00000000-0000-0000-0000-000061aa52c4"
          (reference "#PWR0127") (unit 1)
        )
      )
    )
  )

  (symbol (lib_id "Device:C_Small") (at 240.03 72.39 0) (unit 1)
    (in_bom yes) (on_board yes) (dnp no)
    (uuid 00000000-0000-0000-0000-000061e5e607)
    (property "Reference" "C46" (at 242.57 71.12 0)
      (effects (font (size 1.27 1.27)) (justify left))
    )
    (property "Value" "22p" (at 242.57 73.66 0)
      (effects (font (size 1.27 1.27)) (justify left))
    )
    (property "Footprint" "stdpads:C_0603" (at 240.03 72.39 0)
      (effects (font (size 1.27 1.27)) hide)
    )
    (property "Datasheet" "" (at 240.03 72.39 0)
      (effects (font (size 1.27 1.27)) hide)
    )
    (property "LCSC Part" "C1653" (at 240.03 72.39 0)
      (effects (font (size 1.27 1.27)) hide)
    )
    (pin "1" (uuid e5887c03-47e6-47d3-b8d8-fd3820e6c88b))
    (pin "2" (uuid 9c3ded12-b7b6-43ec-9a78-d68c986ec6a7))
    (instances
      (project "WarpSE"
        (path "/a5be2cb8-c68d-4180-8412-69a6b4c5b1d4/00000000-0000-0000-0000-000061aa52c4"
          (reference "C46") (unit 1)
        )
      )
    )
  )

  (symbol (lib_id "Device:C_Small") (at 250.19 72.39 0) (unit 1)
    (in_bom yes) (on_board yes) (dnp no)
    (uuid 00000000-0000-0000-0000-000061e5e608)
    (property "Reference" "C47" (at 252.73 71.12 0)
      (effects (font (size 1.27 1.27)) (justify left))
    )
    (property "Value" "22p" (at 252.73 73.66 0)
      (effects (font (size 1.27 1.27)) (justify left))
    )
    (property "Footprint" "stdpads:C_0603" (at 250.19 72.39 0)
      (effects (font (size 1.27 1.27)) hide)
    )
    (property "Datasheet" "" (at 250.19 72.39 0)
      (effects (font (size 1.27 1.27)) hide)
    )
    (property "LCSC Part" "C1653" (at 250.19 72.39 0)
      (effects (font (size 1.27 1.27)) hide)
    )
    (pin "1" (uuid 9212ae8b-6b4f-46cb-8c41-481df9b6f650))
    (pin "2" (uuid 398ae79b-4425-42f7-9c42-d0e0f772885e))
    (instances
      (project "WarpSE"
        (path "/a5be2cb8-c68d-4180-8412-69a6b4c5b1d4/00000000-0000-0000-0000-000061aa52c4"
          (reference "C47") (unit 1)
        )
      )
    )
  )

  (symbol (lib_id "Connector:USB_B_Micro") (at 259.08 57.15 0) (mirror y) (unit 1)
    (in_bom yes) (on_board yes) (dnp no)
    (uuid 00000000-0000-0000-0000-000061e5e60c)
    (property "Reference" "J3" (at 259.08 45.72 0)
      (effects (font (size 1.27 1.27)))
    )
    (property "Value" "microUSB" (at 259.08 48.26 0)
      (effects (font (size 1.27 1.27)))
    )
    (property "Footprint" "stdpads:USB_Micro-B_Amphenol_10118192-0001" (at 255.27 58.42 0)
      (effects (font (size 1.27 1.27)) hide)
    )
    (property "Datasheet" "" (at 255.27 58.42 0)
      (effects (font (size 1.27 1.27)) hide)
    )
    (property "LCSC Part" "C132564" (at 259.08 57.15 0)
      (effects (font (size 1.27 1.27)) hide)
    )
    (pin "1" (uuid 8f564582-deef-4611-a656-cea28a9f34d1))
    (pin "2" (uuid b9de7d54-dc0f-471c-8683-7c0dd7aa6389))
    (pin "3" (uuid 38286fd8-d533-4cf3-95b4-2c552b87da45))
    (pin "4" (uuid c5d2cc45-9cad-4d8e-8b55-e0a68b7f469d))
    (pin "5" (uuid 35cf6da3-4352-42df-b1af-73b09ff2e1d9))
    (pin "6" (uuid a0d3c320-f882-4c60-809b-3dc09f9b126c))
    (instances
      (project "WarpSE"
        (path "/a5be2cb8-c68d-4180-8412-69a6b4c5b1d4/00000000-0000-0000-0000-000061aa52c4"
          (reference "J3") (unit 1)
        )
      )
    )
  )

  (symbol (lib_id "power:GND") (at 120.65 52.07 0) (unit 1)
    (in_bom yes) (on_board yes) (dnp no)
    (uuid 00000000-0000-0000-0000-000061e5e60d)
    (property "Reference" "#PWR0204" (at 120.65 58.42 0)
      (effects (font (size 1.27 1.27)) hide)
    )
    (property "Value" "GND" (at 120.65 55.88 0)
      (effects (font (size 1.27 1.27)))
    )
    (property "Footprint" "" (at 120.65 52.07 0)
      (effects (font (size 1.27 1.27)) hide)
    )
    (property "Datasheet" "" (at 120.65 52.07 0)
      (effects (font (size 1.27 1.27)) hide)
    )
    (pin "1" (uuid f8c98054-7416-44eb-b452-6f525fbc9852))
    (instances
      (project "WarpSE"
        (path "/a5be2cb8-c68d-4180-8412-69a6b4c5b1d4/00000000-0000-0000-0000-000061aa52c4"
          (reference "#PWR0204") (unit 1)
        )
      )
    )
  )

  (symbol (lib_id "power:GND") (at 229.87 147.32 0) (mirror y) (unit 1)
    (in_bom yes) (on_board yes) (dnp no)
    (uuid 00000000-0000-0000-0000-000061f58615)
    (property "Reference" "#PWR0199" (at 229.87 153.67 0)
      (effects (font (size 1.27 1.27)) hide)
    )
    (property "Value" "GND" (at 229.87 151.13 0)
      (effects (font (size 1.27 1.27)))
    )
    (property "Footprint" "" (at 229.87 147.32 0)
      (effects (font (size 1.27 1.27)) hide)
    )
    (property "Datasheet" "" (at 229.87 147.32 0)
      (effects (font (size 1.27 1.27)) hide)
    )
    (pin "1" (uuid 2c8e309f-0c2f-47e0-8385-6cf0f1cb1695))
    (instances
      (project "WarpSE"
        (path "/a5be2cb8-c68d-4180-8412-69a6b4c5b1d4/00000000-0000-0000-0000-000061aa52c4"
          (reference "#PWR0199") (unit 1)
        )
      )
    )
  )

  (symbol (lib_id "power:GND") (at 220.98 74.93 0) (mirror y) (unit 1)
    (in_bom yes) (on_board yes) (dnp no)
    (uuid 00000000-0000-0000-0000-00006211cead)
    (property "Reference" "#PWR0162" (at 220.98 81.28 0)
      (effects (font (size 1.27 1.27)) hide)
    )
    (property "Value" "GND" (at 220.98 78.74 0)
      (effects (font (size 1.27 1.27)))
    )
    (property "Footprint" "" (at 220.98 74.93 0)
      (effects (font (size 1.27 1.27)) hide)
    )
    (property "Datasheet" "" (at 220.98 74.93 0)
      (effects (font (size 1.27 1.27)) hide)
    )
    (pin "1" (uuid 92960015-f81f-467b-8412-fdf5ef79e3f8))
    (instances
      (project "WarpSE"
        (path "/a5be2cb8-c68d-4180-8412-69a6b4c5b1d4/00000000-0000-0000-0000-000061aa52c4"
          (reference "#PWR0162") (unit 1)
        )
      )
    )
  )

  (symbol (lib_id "Device:R_Small") (at 72.39 60.96 0) (mirror y) (unit 1)
    (in_bom yes) (on_board yes) (dnp no)
    (uuid 00000000-0000-0000-0000-0000627624e5)
    (property "Reference" "R16" (at 73.66 59.69 0)
      (effects (font (size 1.27 1.27)) (justify right))
    )
    (property "Value" "DNP" (at 73.66 62.23 0)
      (effects (font (size 1.27 1.27)) (justify right))
    )
    (property "Footprint" "stdpads:R_0603" (at 72.39 60.96 0)
      (effects (font (size 1.27 1.27)) hide)
    )
    (property "Datasheet" "" (at 72.39 60.96 0)
      (effects (font (size 1.27 1.27)) hide)
    )
    (property "LCSC Part" "" (at 72.39 60.96 0)
      (effects (font (size 1.27 1.27)) hide)
    )
    (pin "1" (uuid 1c398a39-9517-4d77-86fd-5610ce8bd0a7))
    (pin "2" (uuid c80621c4-81c7-4209-97a8-6143c833b7eb))
    (instances
      (project "WarpSE"
        (path "/a5be2cb8-c68d-4180-8412-69a6b4c5b1d4/00000000-0000-0000-0000-000061aa52c4"
          (reference "R16") (unit 1)
        )
      )
    )
  )

  (symbol (lib_id "Device:R_Small") (at 72.39 53.34 0) (mirror y) (unit 1)
    (in_bom yes) (on_board yes) (dnp no)
    (uuid 00000000-0000-0000-0000-000062762b96)
    (property "Reference" "R15" (at 73.66 52.07 0)
      (effects (font (size 1.27 1.27)) (justify right))
    )
    (property "Value" "DNP" (at 73.66 54.61 0)
      (effects (font (size 1.27 1.27)) (justify right))
    )
    (property "Footprint" "stdpads:R_0603" (at 72.39 53.34 0)
      (effects (font (size 1.27 1.27)) hide)
    )
    (property "Datasheet" "" (at 72.39 53.34 0)
      (effects (font (size 1.27 1.27)) hide)
    )
    (property "LCSC Part" "" (at 72.39 53.34 0)
      (effects (font (size 1.27 1.27)) hide)
    )
    (pin "1" (uuid bd9971c7-421a-4318-8d59-c82dfeb65b2c))
    (pin "2" (uuid cde28874-0011-4849-87a9-ffea5714b93b))
    (instances
      (project "WarpSE"
        (path "/a5be2cb8-c68d-4180-8412-69a6b4c5b1d4/00000000-0000-0000-0000-000061aa52c4"
          (reference "R15") (unit 1)
        )
      )
    )
  )

  (symbol (lib_id "power:+3V3") (at 72.39 50.8 0) (unit 1)
    (in_bom yes) (on_board yes) (dnp no)
    (uuid 00000000-0000-0000-0000-00006276b755)
    (property "Reference" "#PWR0205" (at 72.39 54.61 0)
      (effects (font (size 1.27 1.27)) hide)
    )
    (property "Value" "+3V3" (at 72.39 46.99 0)
      (effects (font (size 1.27 1.27)))
    )
    (property "Footprint" "" (at 72.39 50.8 0)
      (effects (font (size 1.27 1.27)) hide)
    )
    (property "Datasheet" "" (at 72.39 50.8 0)
      (effects (font (size 1.27 1.27)) hide)
    )
    (pin "1" (uuid 293e44db-de95-47ed-9bed-4003e28d7566))
    (instances
      (project "WarpSE"
        (path "/a5be2cb8-c68d-4180-8412-69a6b4c5b1d4/00000000-0000-0000-0000-000061aa52c4"
          (reference "#PWR0205") (unit 1)
        )
      )
    )
  )

  (symbol (lib_id "power:GND") (at 80.01 63.5 0) (unit 1)
    (in_bom yes) (on_board yes) (dnp no)
    (uuid 00000000-0000-0000-0000-00006276bbe6)
    (property "Reference" "#PWR0206" (at 80.01 69.85 0)
      (effects (font (size 1.27 1.27)) hide)
    )
    (property "Value" "GND" (at 80.01 67.31 0)
      (effects (font (size 1.27 1.27)))
    )
    (property "Footprint" "" (at 80.01 63.5 0)
      (effects (font (size 1.27 1.27)) hide)
    )
    (property "Datasheet" "" (at 80.01 63.5 0)
      (effects (font (size 1.27 1.27)) hide)
    )
    (pin "1" (uuid dc8f2e78-bb60-4b23-aa67-dab0fc15d059))
    (instances
      (project "WarpSE"
        (path "/a5be2cb8-c68d-4180-8412-69a6b4c5b1d4/00000000-0000-0000-0000-000061aa52c4"
          (reference "#PWR0206") (unit 1)
        )
      )
    )
  )

  (symbol (lib_id "Device:R_Small") (at 240.03 102.87 180) (unit 1)
    (in_bom yes) (on_board yes) (dnp no)
    (uuid 0ce51bde-6f85-43cc-ae3f-6cff79c26dd7)
    (property "Reference" "R11" (at 241.3 101.6 0)
      (effects (font (size 1.27 1.27)) (justify right))
    )
    (property "Value" "1k" (at 241.3 104.14 0)
      (effects (font (size 1.27 1.27)) (justify right))
    )
    (property "Footprint" "stdpads:R_0603" (at 240.03 102.87 0)
      (effects (font (size 1.27 1.27)) hide)
    )
    (property "Datasheet" "" (at 240.03 102.87 0)
      (effects (font (size 1.27 1.27)) hide)
    )
    (property "LCSC Part" "C21190" (at 240.03 102.87 0)
      (effects (font (size 1.27 1.27)) hide)
    )
    (pin "1" (uuid e32b9cca-5c68-44f5-9d81-3c48056d5cee))
    (pin "2" (uuid 03355822-bd14-4010-9e17-f8c63fa19a52))
    (instances
      (project "WarpSE"
        (path "/a5be2cb8-c68d-4180-8412-69a6b4c5b1d4/00000000-0000-0000-0000-000061aa52c4"
          (reference "R11") (unit 1)
        )
      )
    )
  )

  (symbol (lib_id "power:+3V3") (at 205.74 64.77 0) (unit 1)
    (in_bom yes) (on_board yes) (dnp no)
    (uuid 18c5bc27-63b2-46f4-9afb-e563cb210dcf)
    (property "Reference" "#PWR022" (at 205.74 68.58 0)
      (effects (font (size 1.27 1.27)) hide)
    )
    (property "Value" "+3V3" (at 205.74 60.96 0)
      (effects (font (size 1.27 1.27)))
    )
    (property "Footprint" "" (at 205.74 64.77 0)
      (effects (font (size 1.27 1.27)) hide)
    )
    (property "Datasheet" "" (at 205.74 64.77 0)
      (effects (font (size 1.27 1.27)) hide)
    )
    (pin "1" (uuid a94789a0-81f3-488c-9a3f-1d7c7a844936))
    (instances
      (project "WarpSE"
        (path "/a5be2cb8-c68d-4180-8412-69a6b4c5b1d4/00000000-0000-0000-0000-000061aa52c4"
          (reference "#PWR022") (unit 1)
        )
      )
    )
  )

  (symbol (lib_id "Device:Crystal_GND24_Small") (at 234.95 67.31 90) (unit 1)
    (in_bom yes) (on_board yes) (dnp no)
    (uuid 1f2b1158-7260-406a-abfa-f8180bb82ca2)
    (property "Reference" "Y1" (at 238.76 66.04 90)
      (effects (font (size 1.27 1.27)) (justify right))
    )
    (property "Value" "12M" (at 238.76 68.58 90)
      (effects (font (size 1.27 1.27)) (justify right))
    )
    (property "Footprint" "stdpads:Crystal_SMD_3225-4Pin_3.2x2.5mm" (at 234.95 67.31 0)
      (effects (font (size 1.27 1.27)) hide)
    )
    (property "Datasheet" "" (at 234.95 67.31 0)
      (effects (font (size 1.27 1.27)) hide)
    )
    (property "LCSC Part" "C9002" (at 234.95 67.31 90)
      (effects (font (size 1.27 1.27)) hide)
    )
    (pin "1" (uuid e675967a-2d8c-4292-a8c7-779992ac20b5))
    (pin "2" (uuid b1d00979-7250-4d4f-8b6f-3e4266d73b38))
    (pin "3" (uuid 19c53c39-9a77-4194-af62-9cf7903d3bdd))
    (pin "4" (uuid 277054cd-0a21-4dee-87ee-2ca25f419214))
    (instances
      (project "WarpSE"
        (path "/a5be2cb8-c68d-4180-8412-69a6b4c5b1d4/00000000-0000-0000-0000-000061aa52c4"
          (reference "Y1") (unit 1)
        )
      )
    )
  )

  (symbol (lib_id "power:+3V3") (at 199.39 139.7 0) (unit 1)
    (in_bom yes) (on_board yes) (dnp no)
    (uuid 206baf31-1f19-4047-8cfa-70633dd6e35a)
    (property "Reference" "#PWR023" (at 199.39 143.51 0)
      (effects (font (size 1.27 1.27)) hide)
    )
    (property "Value" "+3V3" (at 199.39 135.89 0)
      (effects (font (size 1.27 1.27)))
    )
    (property "Footprint" "" (at 199.39 139.7 0)
      (effects (font (size 1.27 1.27)) hide)
    )
    (property "Datasheet" "" (at 199.39 139.7 0)
      (effects (font (size 1.27 1.27)) hide)
    )
    (pin "1" (uuid 3451f049-bb9e-4261-9822-d39d61739ae2))
    (instances
      (project "WarpSE"
        (path "/a5be2cb8-c68d-4180-8412-69a6b4c5b1d4/00000000-0000-0000-0000-000061aa52c4"
          (reference "#PWR023") (unit 1)
        )
      )
    )
  )

  (symbol (lib_id "Transistor_BJT:MMBT3904") (at 224.79 105.41 0) (mirror y) (unit 1)
    (in_bom yes) (on_board yes) (dnp no)
    (uuid 444548f8-07de-4db2-adff-fcca0efdbfc5)
    (property "Reference" "Q1" (at 227.33 102.87 0)
      (effects (font (size 1.27 1.27)) (justify right bottom))
    )
    (property "Value" "MMBT3904" (at 227.33 104.14 0)
      (effects (font (size 1.27 1.27)) (justify right))
    )
    (property "Footprint" "stdpads:SOT-23" (at 219.71 107.315 0)
      (effects (font (size 1.27 1.27) italic) (justify left) hide)
    )
    (property "Datasheet" "" (at 224.79 105.41 0)
      (effects (font (size 1.27 1.27)) (justify left) hide)
    )
    (property "LCSC Part" "C20526" (at 224.79 105.41 0)
      (effects (font (size 1.27 1.27)) hide)
    )
    (pin "1" (uuid 065748ba-3a06-461f-a9a4-aac96b175149))
    (pin "2" (uuid 4f9902a4-27cc-485c-b0d3-774ce751d693))
    (pin "3" (uuid 0ae0b3ef-82e1-4723-a6ea-53845deb9c3c))
    (instances
      (project "WarpSE"
        (path "/a5be2cb8-c68d-4180-8412-69a6b4c5b1d4/00000000-0000-0000-0000-000061aa52c4"
          (reference "Q1") (unit 1)
        )
      )
    )
  )

  (symbol (lib_id "Device:R_Small") (at 198.12 49.53 270) (unit 1)
    (in_bom yes) (on_board yes) (dnp no)
    (uuid 5e924e16-081d-4828-bbd3-a32b5299fa8d)
    (property "Reference" "R20" (at 198.12 45.72 90)
      (effects (font (size 1.27 1.27)))
    )
    (property "Value" "47" (at 198.12 48.26 90)
      (effects (font (size 1.27 1.27)) (justify bottom))
    )
    (property "Footprint" "stdpads:R_0603" (at 198.12 49.53 0)
      (effects (font (size 1.27 1.27)) hide)
    )
    (property "Datasheet" "" (at 198.12 49.53 0)
      (effects (font (size 1.27 1.27)) hide)
    )
    (property "LCSC Part" "C23182" (at 198.12 49.53 0)
      (effects (font (size 1.27 1.27)) hide)
    )
    (pin "1" (uuid 50d760ea-dde5-443c-99df-9a3113ef8dda))
    (pin "2" (uuid 38fe79f7-7568-48dc-8ba5-f023cc050316))
    (instances
      (project "WarpSE"
        (path "/a5be2cb8-c68d-4180-8412-69a6b4c5b1d4/00000000-0000-0000-0000-000061aa52c4"
          (reference "R20") (unit 1)
        )
      )
    )
  )

  (symbol (lib_id "Device:R_Small") (at 222.25 97.79 0) (mirror y) (unit 1)
    (in_bom yes) (on_board yes) (dnp no)
    (uuid 6eb20f87-b889-486e-9df5-c23ed9be4b9b)
    (property "Reference" "R19" (at 223.52 96.52 0)
      (effects (font (size 1.27 1.27)) (justify right))
    )
    (property "Value" "47" (at 223.52 99.06 0)
      (effects (font (size 1.27 1.27)) (justify right))
    )
    (property "Footprint" "stdpads:R_0603" (at 222.25 97.79 0)
      (effects (font (size 1.27 1.27)) hide)
    )
    (property "Datasheet" "" (at 222.25 97.79 0)
      (effects (font (size 1.27 1.27)) hide)
    )
    (property "LCSC Part" "C23182" (at 222.25 97.79 0)
      (effects (font (size 1.27 1.27)) hide)
    )
    (pin "1" (uuid bd8ec0b3-d58d-4d07-9fab-03727b230f74))
    (pin "2" (uuid 83ebcf01-74c4-431b-a8ac-61e88a7271a2))
    (instances
      (project "WarpSE"
        (path "/a5be2cb8-c68d-4180-8412-69a6b4c5b1d4/00000000-0000-0000-0000-000061aa52c4"
          (reference "R19") (unit 1)
        )
      )
    )
  )

  (symbol (lib_id "Device:C_Small") (at 199.39 143.51 0) (unit 1)
    (in_bom yes) (on_board yes) (dnp no)
    (uuid 8f8001bf-66c4-4a1f-9862-1e048ca3a77b)
    (property "Reference" "C49" (at 200.66 142.24 0)
      (effects (font (size 1.27 1.27)) (justify left))
    )
    (property "Value" "2u2" (at 200.66 144.78 0)
      (effects (font (size 1.27 1.27)) (justify left))
    )
    (property "Footprint" "stdpads:C_0603" (at 199.39 143.51 0)
      (effects (font (size 1.27 1.27)) hide)
    )
    (property "Datasheet" "" (at 199.39 143.51 0)
      (effects (font (size 1.27 1.27)) hide)
    )
    (property "LCSC Part" "C23630" (at 199.39 143.51 0)
      (effects (font (size 1.27 1.27)) hide)
    )
    (pin "1" (uuid 584c9a03-9ff7-4134-b0dc-709ec16de011))
    (pin "2" (uuid 0fb557d0-281d-45a9-9ab7-58451e19ad2d))
    (instances
      (project "WarpSE"
        (path "/a5be2cb8-c68d-4180-8412-69a6b4c5b1d4/00000000-0000-0000-0000-000061aa52c4"
          (reference "C49") (unit 1)
        )
      )
    )
  )

  (symbol (lib_id "Device:R_Small") (at 95.25 52.07 270) (unit 1)
    (in_bom yes) (on_board yes) (dnp no)
    (uuid a63b06a0-aa92-4c38-8fea-dd39a3595866)
    (property "Reference" "R23" (at 95.25 48.26 90)
      (effects (font (size 1.27 1.27)))
    )
    (property "Value" "47" (at 95.25 50.8 90)
      (effects (font (size 1.27 1.27)) (justify bottom))
    )
    (property "Footprint" "stdpads:R_0603" (at 95.25 52.07 0)
      (effects (font (size 1.27 1.27)) hide)
    )
    (property "Datasheet" "" (at 95.25 52.07 0)
      (effects (font (size 1.27 1.27)) hide)
    )
    (property "LCSC Part" "C23182" (at 95.25 52.07 0)
      (effects (font (size 1.27 1.27)) hide)
    )
    (pin "1" (uuid d704d38b-0bcf-4c7f-b740-a7c25216fc71))
    (pin "2" (uuid b86dcf72-827f-4275-a480-a9aba59116d7))
    (instances
      (project "WarpSE"
        (path "/a5be2cb8-c68d-4180-8412-69a6b4c5b1d4/00000000-0000-0000-0000-000061aa52c4"
          (reference "R23") (unit 1)
        )
      )
    )
  )

  (symbol (lib_id "power:GND") (at 222.25 110.49 0) (unit 1)
    (in_bom yes) (on_board yes) (dnp no)
    (uuid abc09d00-5322-4f8b-b165-e7d6ae9191e5)
    (property "Reference" "#PWR020" (at 222.25 116.84 0)
      (effects (font (size 1.27 1.27)) hide)
    )
    (property "Value" "GND" (at 222.25 114.3 0)
      (effects (font (size 1.27 1.27)))
    )
    (property "Footprint" "" (at 222.25 110.49 0)
      (effects (font (size 1.27 1.27)) hide)
    )
    (property "Datasheet" "" (at 222.25 110.49 0)
      (effects (font (size 1.27 1.27)) hide)
    )
    (pin "1" (uuid 3b332ad2-88b1-4691-803b-572aec743f42))
    (instances
      (project "WarpSE"
        (path "/a5be2cb8-c68d-4180-8412-69a6b4c5b1d4/00000000-0000-0000-0000-000061aa52c4"
          (reference "#PWR020") (unit 1)
        )
      )
    )
  )

  (symbol (lib_id "Device:R_Small") (at 240.03 107.95 180) (unit 1)
    (in_bom yes) (on_board yes) (dnp no)
    (uuid b8ce8ff7-883d-4b71-94e7-08f15d35759f)
    (property "Reference" "R10" (at 241.3 106.68 0)
      (effects (font (size 1.27 1.27)) (justify right))
    )
    (property "Value" "1k" (at 241.3 109.22 0)
      (effects (font (size 1.27 1.27)) (justify right))
    )
    (property "Footprint" "stdpads:R_0603" (at 240.03 107.95 0)
      (effects (font (size 1.27 1.27)) hide)
    )
    (property "Datasheet" "" (at 240.03 107.95 0)
      (effects (font (size 1.27 1.27)) hide)
    )
    (property "LCSC Part" "C21190" (at 240.03 107.95 0)
      (effects (font (size 1.27 1.27)) hide)
    )
    (pin "1" (uuid c754bebf-512a-4c8a-858c-375187f6cbd5))
    (pin "2" (uuid de4885ef-b231-4583-a424-21f5678564de))
    (instances
      (project "WarpSE"
        (path "/a5be2cb8-c68d-4180-8412-69a6b4c5b1d4/00000000-0000-0000-0000-000061aa52c4"
          (reference "R10") (unit 1)
        )
      )
    )
  )

  (symbol (lib_id "power:+3V3") (at 220.98 41.91 0) (unit 1)
    (in_bom yes) (on_board yes) (dnp no)
    (uuid bf0cb174-f4ca-4d7e-bf12-af72449057e3)
    (property "Reference" "#PWR021" (at 220.98 45.72 0)
      (effects (font (size 1.27 1.27)) hide)
    )
    (property "Value" "+3V3" (at 220.98 38.1 0)
      (effects (font (size 1.27 1.27)))
    )
    (property "Footprint" "" (at 220.98 41.91 0)
      (effects (font (size 1.27 1.27)) hide)
    )
    (property "Datasheet" "" (at 220.98 41.91 0)
      (effects (font (size 1.27 1.27)) hide)
    )
    (pin "1" (uuid a39ac460-97a0-419c-86a2-175ad60f3d08))
    (instances
      (project "WarpSE"
        (path "/a5be2cb8-c68d-4180-8412-69a6b4c5b1d4/00000000-0000-0000-0000-000061aa52c4"
          (reference "#PWR021") (unit 1)
        )
      )
    )
  )

  (symbol (lib_id "Device:C_Small") (at 80.01 60.96 0) (unit 1)
    (in_bom yes) (on_board yes) (dnp no)
    (uuid f3e48e47-da3a-4ea5-87a4-d769c3e41e31)
    (property "Reference" "C52" (at 82.55 59.69 0)
      (effects (font (size 1.27 1.27)) (justify left))
    )
    (property "Value" "22p" (at 82.55 62.23 0)
      (effects (font (size 1.27 1.27)) (justify left))
    )
    (property "Footprint" "stdpads:C_0603" (at 80.01 60.96 0)
      (effects (font (size 1.27 1.27)) hide)
    )
    (property "Datasheet" "" (at 80.01 60.96 0)
      (effects (font (size 1.27 1.27)) hide)
    )
    (property "LCSC Part" "C1653" (at 80.01 60.96 0)
      (effects (font (size 1.27 1.27)) hide)
    )
    (pin "1" (uuid f1c4ffb9-7e17-4365-a69c-bcd23ebb9992))
    (pin "2" (uuid e6da48be-6aad-4cc0-a3f7-f5fa54d553db))
    (instances
      (project "WarpSE"
        (path "/a5be2cb8-c68d-4180-8412-69a6b4c5b1d4/00000000-0000-0000-0000-000061aa52c4"
          (reference "C52") (unit 1)
        )
      )
    )
  )
)
