(kicad_sch (version 20230121) (generator eeschema)

  (uuid ad318d6b-c895-4e1f-bdc1-b6d0f430d3e4)

  (paper "A4")

  (lib_symbols
    (symbol "Connector_Generic:Conn_01x03" (pin_names (offset 1.016) hide) (in_bom yes) (on_board yes)
      (property "Reference" "J" (at 0 5.08 0)
        (effects (font (size 1.27 1.27)))
      )
      (property "Value" "Conn_01x03" (at 0 -5.08 0)
        (effects (font (size 1.27 1.27)))
      )
      (property "Footprint" "" (at 0 0 0)
        (effects (font (size 1.27 1.27)) hide)
      )
      (property "Datasheet" "~" (at 0 0 0)
        (effects (font (size 1.27 1.27)) hide)
      )
      (property "ki_keywords" "connector" (at 0 0 0)
        (effects (font (size 1.27 1.27)) hide)
      )
      (property "ki_description" "Generic connector, single row, 01x03, script generated (kicad-library-utils/schlib/autogen/connector/)" (at 0 0 0)
        (effects (font (size 1.27 1.27)) hide)
      )
      (property "ki_fp_filters" "Connector*:*_1x??_*" (at 0 0 0)
        (effects (font (size 1.27 1.27)) hide)
      )
      (symbol "Conn_01x03_1_1"
        (rectangle (start -1.27 -2.413) (end 0 -2.667)
          (stroke (width 0.1524) (type default))
          (fill (type none))
        )
        (rectangle (start -1.27 0.127) (end 0 -0.127)
          (stroke (width 0.1524) (type default))
          (fill (type none))
        )
        (rectangle (start -1.27 2.667) (end 0 2.413)
          (stroke (width 0.1524) (type default))
          (fill (type none))
        )
        (rectangle (start -1.27 3.81) (end 1.27 -3.81)
          (stroke (width 0.254) (type default))
          (fill (type background))
        )
        (pin passive line (at -5.08 2.54 0) (length 3.81)
          (name "Pin_1" (effects (font (size 1.27 1.27))))
          (number "1" (effects (font (size 1.27 1.27))))
        )
        (pin passive line (at -5.08 0 0) (length 3.81)
          (name "Pin_2" (effects (font (size 1.27 1.27))))
          (number "2" (effects (font (size 1.27 1.27))))
        )
        (pin passive line (at -5.08 -2.54 0) (length 3.81)
          (name "Pin_3" (effects (font (size 1.27 1.27))))
          (number "3" (effects (font (size 1.27 1.27))))
        )
      )
    )
    (symbol "Device:Q_Photo_NPN_EC" (pin_names (offset 0) hide) (in_bom yes) (on_board yes)
      (property "Reference" "Q" (at 5.08 1.27 0)
        (effects (font (size 1.27 1.27)) (justify left))
      )
      (property "Value" "Q_Photo_NPN_EC" (at 5.08 -1.27 0)
        (effects (font (size 1.27 1.27)) (justify left))
      )
      (property "Footprint" "" (at 5.08 2.54 0)
        (effects (font (size 1.27 1.27)) hide)
      )
      (property "Datasheet" "~" (at 0 0 0)
        (effects (font (size 1.27 1.27)) hide)
      )
      (property "ki_keywords" "phototransistor NPN" (at 0 0 0)
        (effects (font (size 1.27 1.27)) hide)
      )
      (property "ki_description" "NPN phototransistor, emitter/collector" (at 0 0 0)
        (effects (font (size 1.27 1.27)) hide)
      )
      (symbol "Q_Photo_NPN_EC_0_1"
        (polyline
          (pts
            (xy -1.905 1.27)
            (xy -2.54 1.27)
          )
          (stroke (width 0) (type default))
          (fill (type none))
        )
        (polyline
          (pts
            (xy -1.27 2.54)
            (xy -1.905 2.54)
          )
          (stroke (width 0) (type default))
          (fill (type none))
        )
        (polyline
          (pts
            (xy 0.635 0.635)
            (xy 2.54 2.54)
          )
          (stroke (width 0) (type default))
          (fill (type none))
        )
        (polyline
          (pts
            (xy -3.81 3.175)
            (xy -1.905 1.27)
            (xy -1.905 1.905)
          )
          (stroke (width 0) (type default))
          (fill (type none))
        )
        (polyline
          (pts
            (xy -3.175 4.445)
            (xy -1.27 2.54)
            (xy -1.27 3.175)
          )
          (stroke (width 0) (type default))
          (fill (type none))
        )
        (polyline
          (pts
            (xy 0.635 -0.635)
            (xy 2.54 -2.54)
            (xy 2.54 -2.54)
          )
          (stroke (width 0) (type default))
          (fill (type none))
        )
        (polyline
          (pts
            (xy 0.635 1.905)
            (xy 0.635 -1.905)
            (xy 0.635 -1.905)
          )
          (stroke (width 0.508) (type default))
          (fill (type none))
        )
        (polyline
          (pts
            (xy 1.27 -1.778)
            (xy 1.778 -1.27)
            (xy 2.286 -2.286)
            (xy 1.27 -1.778)
            (xy 1.27 -1.778)
          )
          (stroke (width 0) (type default))
          (fill (type outline))
        )
        (circle (center 1.27 0) (radius 2.8194)
          (stroke (width 0.254) (type default))
          (fill (type none))
        )
      )
      (symbol "Q_Photo_NPN_EC_1_1"
        (pin passive line (at 2.54 -5.08 90) (length 2.54)
          (name "E" (effects (font (size 1.27 1.27))))
          (number "1" (effects (font (size 1.27 1.27))))
        )
        (pin passive line (at 2.54 5.08 270) (length 2.54)
          (name "C" (effects (font (size 1.27 1.27))))
          (number "2" (effects (font (size 1.27 1.27))))
        )
      )
    )
    (symbol "Device:R" (pin_numbers hide) (pin_names (offset 0)) (in_bom yes) (on_board yes)
      (property "Reference" "R" (at 2.032 0 90)
        (effects (font (size 1.27 1.27)))
      )
      (property "Value" "R" (at 0 0 90)
        (effects (font (size 1.27 1.27)))
      )
      (property "Footprint" "" (at -1.778 0 90)
        (effects (font (size 1.27 1.27)) hide)
      )
      (property "Datasheet" "~" (at 0 0 0)
        (effects (font (size 1.27 1.27)) hide)
      )
      (property "ki_keywords" "R res resistor" (at 0 0 0)
        (effects (font (size 1.27 1.27)) hide)
      )
      (property "ki_description" "Resistor" (at 0 0 0)
        (effects (font (size 1.27 1.27)) hide)
      )
      (property "ki_fp_filters" "R_*" (at 0 0 0)
        (effects (font (size 1.27 1.27)) hide)
      )
      (symbol "R_0_1"
        (rectangle (start -1.016 -2.54) (end 1.016 2.54)
          (stroke (width 0.254) (type default))
          (fill (type none))
        )
      )
      (symbol "R_1_1"
        (pin passive line (at 0 3.81 270) (length 1.27)
          (name "~" (effects (font (size 1.27 1.27))))
          (number "1" (effects (font (size 1.27 1.27))))
        )
        (pin passive line (at 0 -3.81 90) (length 1.27)
          (name "~" (effects (font (size 1.27 1.27))))
          (number "2" (effects (font (size 1.27 1.27))))
        )
      )
    )
    (symbol "Mechanical:MountingHole" (pin_names (offset 1.016)) (in_bom yes) (on_board yes)
      (property "Reference" "H" (at 0 5.08 0)
        (effects (font (size 1.27 1.27)))
      )
      (property "Value" "MountingHole" (at 0 3.175 0)
        (effects (font (size 1.27 1.27)))
      )
      (property "Footprint" "" (at 0 0 0)
        (effects (font (size 1.27 1.27)) hide)
      )
      (property "Datasheet" "~" (at 0 0 0)
        (effects (font (size 1.27 1.27)) hide)
      )
      (property "ki_keywords" "mounting hole" (at 0 0 0)
        (effects (font (size 1.27 1.27)) hide)
      )
      (property "ki_description" "Mounting Hole without connection" (at 0 0 0)
        (effects (font (size 1.27 1.27)) hide)
      )
      (property "ki_fp_filters" "MountingHole*" (at 0 0 0)
        (effects (font (size 1.27 1.27)) hide)
      )
      (symbol "MountingHole_0_1"
        (circle (center 0 0) (radius 1.27)
          (stroke (width 1.27) (type default))
          (fill (type none))
        )
      )
    )
    (symbol "power:+3.3V" (power) (pin_names (offset 0)) (in_bom yes) (on_board yes)
      (property "Reference" "#PWR" (at 0 -3.81 0)
        (effects (font (size 1.27 1.27)) hide)
      )
      (property "Value" "+3.3V" (at 0 3.556 0)
        (effects (font (size 1.27 1.27)))
      )
      (property "Footprint" "" (at 0 0 0)
        (effects (font (size 1.27 1.27)) hide)
      )
      (property "Datasheet" "" (at 0 0 0)
        (effects (font (size 1.27 1.27)) hide)
      )
      (property "ki_keywords" "global power" (at 0 0 0)
        (effects (font (size 1.27 1.27)) hide)
      )
      (property "ki_description" "Power symbol creates a global label with name \"+3.3V\"" (at 0 0 0)
        (effects (font (size 1.27 1.27)) hide)
      )
      (symbol "+3.3V_0_1"
        (polyline
          (pts
            (xy -0.762 1.27)
            (xy 0 2.54)
          )
          (stroke (width 0) (type default))
          (fill (type none))
        )
        (polyline
          (pts
            (xy 0 0)
            (xy 0 2.54)
          )
          (stroke (width 0) (type default))
          (fill (type none))
        )
        (polyline
          (pts
            (xy 0 2.54)
            (xy 0.762 1.27)
          )
          (stroke (width 0) (type default))
          (fill (type none))
        )
      )
      (symbol "+3.3V_1_1"
        (pin power_in line (at 0 0 90) (length 0) hide
          (name "+3.3V" (effects (font (size 1.27 1.27))))
          (number "1" (effects (font (size 1.27 1.27))))
        )
      )
    )
    (symbol "power:GND" (power) (pin_names (offset 0)) (in_bom yes) (on_board yes)
      (property "Reference" "#PWR" (at 0 -6.35 0)
        (effects (font (size 1.27 1.27)) hide)
      )
      (property "Value" "GND" (at 0 -3.81 0)
        (effects (font (size 1.27 1.27)))
      )
      (property "Footprint" "" (at 0 0 0)
        (effects (font (size 1.27 1.27)) hide)
      )
      (property "Datasheet" "" (at 0 0 0)
        (effects (font (size 1.27 1.27)) hide)
      )
      (property "ki_keywords" "global power" (at 0 0 0)
        (effects (font (size 1.27 1.27)) hide)
      )
      (property "ki_description" "Power symbol creates a global label with name \"GND\" , ground" (at 0 0 0)
        (effects (font (size 1.27 1.27)) hide)
      )
      (symbol "GND_0_1"
        (polyline
          (pts
            (xy 0 0)
            (xy 0 -1.27)
            (xy 1.27 -1.27)
            (xy 0 -2.54)
            (xy -1.27 -1.27)
            (xy 0 -1.27)
          )
          (stroke (width 0) (type default))
          (fill (type none))
        )
      )
      (symbol "GND_1_1"
        (pin power_in line (at 0 0 270) (length 0) hide
          (name "GND" (effects (font (size 1.27 1.27))))
          (number "1" (effects (font (size 1.27 1.27))))
        )
      )
    )
  )

  (junction (at 116.84 111.76) (diameter 0) (color 0 0 0 0)
    (uuid 1ec49ddc-2fb3-4e8f-ab8f-b3a2778dd308)
  )

  (wire (pts (xy 189.23 113.03) (xy 189.23 119.38))
    (stroke (width 0) (type default))
    (uuid 07489b4d-7ad2-4db2-a49e-9a548dae2f84)
  )
  (wire (pts (xy 116.84 111.76) (xy 116.84 114.3))
    (stroke (width 0) (type default))
    (uuid 0b70e125-e627-4d7c-bdab-76e8fb39b1a5)
  )
  (wire (pts (xy 116.84 121.92) (xy 116.84 124.46))
    (stroke (width 0) (type default))
    (uuid 4141afc4-def4-4223-9eff-dfe99fa2bc80)
  )
  (wire (pts (xy 193.04 113.03) (xy 189.23 113.03))
    (stroke (width 0) (type default))
    (uuid 63e7cb97-df52-4c0e-8aa7-a780f9a43785)
  )
  (wire (pts (xy 189.23 107.95) (xy 193.04 107.95))
    (stroke (width 0) (type default))
    (uuid 65e8ca32-6444-4aba-8e4d-fab46078dbb3)
  )
  (wire (pts (xy 116.84 96.52) (xy 116.84 99.06))
    (stroke (width 0) (type default))
    (uuid 859e7e29-516b-44b4-ad0e-5930888fcc72)
  )
  (wire (pts (xy 116.84 109.22) (xy 116.84 111.76))
    (stroke (width 0) (type default))
    (uuid b10c486d-c257-417c-8a68-8333bde49396)
  )
  (wire (pts (xy 133.35 111.76) (xy 138.43 111.76))
    (stroke (width 0) (type default))
    (uuid c293080c-e164-40ad-9a23-95eca97eefd1)
  )
  (wire (pts (xy 189.23 110.49) (xy 193.04 110.49))
    (stroke (width 0) (type default))
    (uuid cca4efdc-f0a5-482e-9998-d65322b72a59)
  )
  (wire (pts (xy 189.23 102.87) (xy 189.23 107.95))
    (stroke (width 0) (type default))
    (uuid e78d538b-887b-4b76-850f-d2db1955550f)
  )
  (wire (pts (xy 116.84 111.76) (xy 125.73 111.76))
    (stroke (width 0) (type default))
    (uuid f82659ba-6999-4a27-80f4-d4a3285b2ad4)
  )

  (text "Want Switch Mode -> V_{CC} < R_{L}* I_{C}\nV_{CC} = 3.3V\nR_{L} = 2k\nIf I_{C} > 1.65mA, switch mode\nMin I_{C(ON)} = 2.15mA so always switch mode\n"
    (at 132.08 104.14 0)
    (effects (font (size 1.27 1.27)) (justify left bottom))
    (uuid 93e1c276-3df5-457c-a9a2-4327c2048862)
  )

  (global_label "BALL_RX" (shape input) (at 189.23 110.49 180) (fields_autoplaced)
    (effects (font (size 1.27 1.27)) (justify right))
    (uuid 310505a5-c89e-4801-bbeb-57187c3ddd05)
    (property "Intersheetrefs" "${INTERSHEET_REFS}" (at 178.4623 110.49 0)
      (effects (font (size 1.27 1.27)) (justify right) hide)
    )
  )
  (global_label "BALL_RX" (shape input) (at 138.43 111.76 0) (fields_autoplaced)
    (effects (font (size 1.27 1.27)) (justify left))
    (uuid a877f985-a4a0-4985-aeec-1ebf4421eb21)
    (property "Intersheetrefs" "${INTERSHEET_REFS}" (at 149.1977 111.76 0)
      (effects (font (size 1.27 1.27)) (justify left) hide)
    )
  )

  (symbol (lib_id "power:GND") (at 116.84 124.46 0) (unit 1)
    (in_bom yes) (on_board yes) (dnp no)
    (uuid 23bf75e4-de59-488c-91a0-45b2f6a0d848)
    (property "Reference" "#PWR03" (at 116.84 130.81 0)
      (effects (font (size 1.27 1.27)) hide)
    )
    (property "Value" "GND" (at 116.84 128.27 0)
      (effects (font (size 1.27 1.27)))
    )
    (property "Footprint" "" (at 116.84 124.46 0)
      (effects (font (size 1.27 1.27)) hide)
    )
    (property "Datasheet" "" (at 116.84 124.46 0)
      (effects (font (size 1.27 1.27)) hide)
    )
    (pin "1" (uuid 66a12cc2-4d07-4cb1-8f01-112efa226c13))
    (instances
      (project "breakbeam-receiver"
        (path "/ad318d6b-c895-4e1f-bdc1-b6d0f430d3e4"
          (reference "#PWR03") (unit 1)
        )
      )
    )
  )

  (symbol (lib_id "Device:R") (at 116.84 118.11 0) (unit 1)
    (in_bom yes) (on_board yes) (dnp no) (fields_autoplaced)
    (uuid 3ed20688-356c-41d5-bd14-0cde86ebd66d)
    (property "Reference" "R1" (at 119.38 117.475 0)
      (effects (font (size 1.27 1.27)) (justify left))
    )
    (property "Value" "2k" (at 119.38 120.015 0)
      (effects (font (size 1.27 1.27)) (justify left))
    )
    (property "Footprint" "Resistor_SMD:R_0603_1608Metric" (at 115.062 118.11 90)
      (effects (font (size 1.27 1.27)) hide)
    )
    (property "Datasheet" "~" (at 116.84 118.11 0)
      (effects (font (size 1.27 1.27)) hide)
    )
    (pin "1" (uuid 96e9f6b1-8567-4071-9e3d-aac3575dbaa2))
    (pin "2" (uuid 2c48e084-0d43-44d3-a1fa-74a3bfbc8c8d))
    (instances
      (project "breakbeam-receiver"
        (path "/ad318d6b-c895-4e1f-bdc1-b6d0f430d3e4"
          (reference "R1") (unit 1)
        )
      )
    )
  )

  (symbol (lib_id "Mechanical:MountingHole") (at 154.94 135.89 0) (unit 1)
    (in_bom yes) (on_board yes) (dnp no) (fields_autoplaced)
    (uuid 44fa3496-8344-4ec2-9105-038dea7f4841)
    (property "Reference" "H1" (at 157.48 135.255 0)
      (effects (font (size 1.27 1.27)) (justify left))
    )
    (property "Value" "MountingHole" (at 157.48 137.795 0)
      (effects (font (size 1.27 1.27)) (justify left))
    )
    (property "Footprint" "MountingHole:MountingHole_2.2mm_M2" (at 154.94 135.89 0)
      (effects (font (size 1.27 1.27)) hide)
    )
    (property "Datasheet" "~" (at 154.94 135.89 0)
      (effects (font (size 1.27 1.27)) hide)
    )
    (instances
      (project "breakbeam-receiver"
        (path "/ad318d6b-c895-4e1f-bdc1-b6d0f430d3e4"
          (reference "H1") (unit 1)
        )
      )
    )
  )

  (symbol (lib_id "power:GND") (at 189.23 119.38 0) (unit 1)
    (in_bom yes) (on_board yes) (dnp no)
    (uuid 6b8523fc-be3d-4131-b1fb-a7a668bd5ea6)
    (property "Reference" "#PWR02" (at 189.23 125.73 0)
      (effects (font (size 1.27 1.27)) hide)
    )
    (property "Value" "GND" (at 189.23 123.19 0)
      (effects (font (size 1.27 1.27)))
    )
    (property "Footprint" "" (at 189.23 119.38 0)
      (effects (font (size 1.27 1.27)) hide)
    )
    (property "Datasheet" "" (at 189.23 119.38 0)
      (effects (font (size 1.27 1.27)) hide)
    )
    (pin "1" (uuid d5ff6f52-1303-4a77-b52c-5a7cb764f46f))
    (instances
      (project "breakbeam-receiver"
        (path "/ad318d6b-c895-4e1f-bdc1-b6d0f430d3e4"
          (reference "#PWR02") (unit 1)
        )
      )
    )
  )

  (symbol (lib_id "power:+3.3V") (at 116.84 96.52 0) (unit 1)
    (in_bom yes) (on_board yes) (dnp no) (fields_autoplaced)
    (uuid 93d5219f-4bba-4720-ab58-42eca79aec8f)
    (property "Reference" "#PWR04" (at 116.84 100.33 0)
      (effects (font (size 1.27 1.27)) hide)
    )
    (property "Value" "+3.3V" (at 116.84 92.71 0)
      (effects (font (size 1.27 1.27)))
    )
    (property "Footprint" "" (at 116.84 96.52 0)
      (effects (font (size 1.27 1.27)) hide)
    )
    (property "Datasheet" "" (at 116.84 96.52 0)
      (effects (font (size 1.27 1.27)) hide)
    )
    (pin "1" (uuid db3a4e87-30f5-4d46-afa7-b937cd44b2a7))
    (instances
      (project "breakbeam-receiver"
        (path "/ad318d6b-c895-4e1f-bdc1-b6d0f430d3e4"
          (reference "#PWR04") (unit 1)
        )
      )
    )
  )

  (symbol (lib_id "Device:Q_Photo_NPN_EC") (at 114.3 104.14 0) (unit 1)
    (in_bom yes) (on_board yes) (dnp no) (fields_autoplaced)
    (uuid 960f3b5b-dc2d-4f53-8189-3b6f4ffa7deb)
    (property "Reference" "Q1" (at 119.38 102.7557 0)
      (effects (font (size 1.27 1.27)) (justify left))
    )
    (property "Value" "OP506B" (at 119.38 105.2957 0)
      (effects (font (size 1.27 1.27)) (justify left))
    )
    (property "Footprint" "LED_THT:LED_D3.0mm" (at 119.38 101.6 0)
      (effects (font (size 1.27 1.27)) hide)
    )
    (property "Datasheet" "~" (at 114.3 104.14 0)
      (effects (font (size 1.27 1.27)) hide)
    )
    (pin "1" (uuid 793ba004-b6f3-4efa-9e28-1654273306f0))
    (pin "2" (uuid 292e9b41-838f-4708-bdb4-12f8fe7385d8))
    (instances
      (project "breakbeam-receiver"
        (path "/ad318d6b-c895-4e1f-bdc1-b6d0f430d3e4"
          (reference "Q1") (unit 1)
        )
      )
    )
  )

  (symbol (lib_id "Mechanical:MountingHole") (at 175.26 135.89 0) (unit 1)
    (in_bom yes) (on_board yes) (dnp no) (fields_autoplaced)
    (uuid 9bb3d093-66e8-4459-9ec5-01e7227c913e)
    (property "Reference" "H2" (at 177.8 135.255 0)
      (effects (font (size 1.27 1.27)) (justify left))
    )
    (property "Value" "MountingHole" (at 177.8 137.795 0)
      (effects (font (size 1.27 1.27)) (justify left))
    )
    (property "Footprint" "MountingHole:MountingHole_2.2mm_M2" (at 175.26 135.89 0)
      (effects (font (size 1.27 1.27)) hide)
    )
    (property "Datasheet" "~" (at 175.26 135.89 0)
      (effects (font (size 1.27 1.27)) hide)
    )
    (instances
      (project "breakbeam-receiver"
        (path "/ad318d6b-c895-4e1f-bdc1-b6d0f430d3e4"
          (reference "H2") (unit 1)
        )
      )
    )
  )

  (symbol (lib_id "power:+3.3V") (at 189.23 102.87 0) (unit 1)
    (in_bom yes) (on_board yes) (dnp no) (fields_autoplaced)
    (uuid a894b109-0c42-42d1-bf2a-44a394a5f96f)
    (property "Reference" "#PWR01" (at 189.23 106.68 0)
      (effects (font (size 1.27 1.27)) hide)
    )
    (property "Value" "+3.3V" (at 189.23 99.06 0)
      (effects (font (size 1.27 1.27)))
    )
    (property "Footprint" "" (at 189.23 102.87 0)
      (effects (font (size 1.27 1.27)) hide)
    )
    (property "Datasheet" "" (at 189.23 102.87 0)
      (effects (font (size 1.27 1.27)) hide)
    )
    (pin "1" (uuid 8912a000-b15f-43a9-a130-0d23002fc59c))
    (instances
      (project "breakbeam-receiver"
        (path "/ad318d6b-c895-4e1f-bdc1-b6d0f430d3e4"
          (reference "#PWR01") (unit 1)
        )
      )
    )
  )

  (symbol (lib_id "Device:R") (at 129.54 111.76 90) (unit 1)
    (in_bom yes) (on_board yes) (dnp no)
    (uuid bffa4658-6796-422e-b72f-749cd38a37b1)
    (property "Reference" "R2" (at 129.54 109.22 90)
      (effects (font (size 1.27 1.27)))
    )
    (property "Value" "100" (at 129.54 114.3 90)
      (effects (font (size 1.27 1.27)))
    )
    (property "Footprint" "Resistor_SMD:R_0603_1608Metric" (at 129.54 113.538 90)
      (effects (font (size 1.27 1.27)) hide)
    )
    (property "Datasheet" "~" (at 129.54 111.76 0)
      (effects (font (size 1.27 1.27)) hide)
    )
    (pin "1" (uuid 46d56a3d-9122-4e9f-84a6-40eade38a658))
    (pin "2" (uuid e2631b4e-b740-40f4-a156-8188825f7d17))
    (instances
      (project "breakbeam-receiver"
        (path "/ad318d6b-c895-4e1f-bdc1-b6d0f430d3e4"
          (reference "R2") (unit 1)
        )
      )
    )
  )

  (symbol (lib_id "Connector_Generic:Conn_01x03") (at 198.12 110.49 0) (unit 1)
    (in_bom yes) (on_board yes) (dnp no)
    (uuid f3d04798-eeed-45c3-93d4-74f077de6c85)
    (property "Reference" "J1" (at 198.12 102.87 0)
      (effects (font (size 1.27 1.27)))
    )
    (property "Value" "Conn_01x03" (at 198.12 105.41 0)
      (effects (font (size 1.27 1.27)))
    )
    (property "Footprint" "Connector_JST:JST_SH_SM03B-SRSS-TB_1x03-1MP_P1.00mm_Horizontal" (at 198.12 110.49 0)
      (effects (font (size 1.27 1.27)) hide)
    )
    (property "Datasheet" "~" (at 198.12 110.49 0)
      (effects (font (size 1.27 1.27)) hide)
    )
    (pin "1" (uuid 1c468630-217c-49ae-a736-a4e625781d7e))
    (pin "2" (uuid ac3a2372-615c-4cce-8525-b27473365f97))
    (pin "3" (uuid 76444325-e7e3-4e1b-9201-be15b9ea3327))
    (instances
      (project "breakbeam-receiver"
        (path "/ad318d6b-c895-4e1f-bdc1-b6d0f430d3e4"
          (reference "J1") (unit 1)
        )
      )
    )
  )

  (sheet_instances
    (path "/" (page "1"))
  )
)
