(kicad_sch (version 20230121) (generator eeschema)

  (uuid 2763a0b1-f0c8-4103-aae0-af587058df51)

  (paper "A4")

  (lib_symbols
    (symbol "Device:C_Small" (pin_numbers hide) (pin_names (offset 0.254) hide) (in_bom yes) (on_board yes)
      (property "Reference" "C" (at 0.254 1.778 0)
        (effects (font (size 1.27 1.27)) (justify left))
      )
      (property "Value" "C_Small" (at 0.254 -2.032 0)
        (effects (font (size 1.27 1.27)) (justify left))
      )
      (property "Footprint" "" (at 0 0 0)
        (effects (font (size 1.27 1.27)) hide)
      )
      (property "Datasheet" "~" (at 0 0 0)
        (effects (font (size 1.27 1.27)) hide)
      )
      (property "ki_keywords" "capacitor cap" (at 0 0 0)
        (effects (font (size 1.27 1.27)) hide)
      )
      (property "ki_description" "Unpolarized capacitor, small symbol" (at 0 0 0)
        (effects (font (size 1.27 1.27)) hide)
      )
      (property "ki_fp_filters" "C_*" (at 0 0 0)
        (effects (font (size 1.27 1.27)) hide)
      )
      (symbol "C_Small_0_1"
        (polyline
          (pts
            (xy -1.524 -0.508)
            (xy 1.524 -0.508)
          )
          (stroke (width 0.3302) (type default))
          (fill (type none))
        )
        (polyline
          (pts
            (xy -1.524 0.508)
            (xy 1.524 0.508)
          )
          (stroke (width 0.3048) (type default))
          (fill (type none))
        )
      )
      (symbol "C_Small_1_1"
        (pin passive line (at 0 2.54 270) (length 2.032)
          (name "~" (effects (font (size 1.27 1.27))))
          (number "1" (effects (font (size 1.27 1.27))))
        )
        (pin passive line (at 0 -2.54 90) (length 2.032)
          (name "~" (effects (font (size 1.27 1.27))))
          (number "2" (effects (font (size 1.27 1.27))))
        )
      )
    )
    (symbol "Device:R_Small" (pin_numbers hide) (pin_names (offset 0.254) hide) (in_bom yes) (on_board yes)
      (property "Reference" "R" (at 0.762 0.508 0)
        (effects (font (size 1.27 1.27)) (justify left))
      )
      (property "Value" "R_Small" (at 0.762 -1.016 0)
        (effects (font (size 1.27 1.27)) (justify left))
      )
      (property "Footprint" "" (at 0 0 0)
        (effects (font (size 1.27 1.27)) hide)
      )
      (property "Datasheet" "~" (at 0 0 0)
        (effects (font (size 1.27 1.27)) hide)
      )
      (property "ki_keywords" "R resistor" (at 0 0 0)
        (effects (font (size 1.27 1.27)) hide)
      )
      (property "ki_description" "Resistor, small symbol" (at 0 0 0)
        (effects (font (size 1.27 1.27)) hide)
      )
      (property "ki_fp_filters" "R_*" (at 0 0 0)
        (effects (font (size 1.27 1.27)) hide)
      )
      (symbol "R_Small_0_1"
        (rectangle (start -0.762 1.778) (end 0.762 -1.778)
          (stroke (width 0.2032) (type default))
          (fill (type none))
        )
      )
      (symbol "R_Small_1_1"
        (pin passive line (at 0 2.54 270) (length 0.762)
          (name "~" (effects (font (size 1.27 1.27))))
          (number "1" (effects (font (size 1.27 1.27))))
        )
        (pin passive line (at 0 -2.54 90) (length 0.762)
          (name "~" (effects (font (size 1.27 1.27))))
          (number "2" (effects (font (size 1.27 1.27))))
        )
      )
    )
    (symbol "Regulator_Switching:LM5164DDA" (in_bom yes) (on_board yes)
      (property "Reference" "U" (at -8.89 11.43 0)
        (effects (font (size 1.27 1.27)))
      )
      (property "Value" "LM5164DDA" (at 5.08 11.43 0)
        (effects (font (size 1.27 1.27)))
      )
      (property "Footprint" "Package_SO:HSOP-8-1EP_3.9x4.9mm_P1.27mm_EP2.41x3.1mm_ThermalVias" (at 1.27 -11.43 0)
        (effects (font (size 1.27 1.27)) hide)
      )
      (property "Datasheet" "https://www.ti.com/lit/ds/symlink/lm5164.pdf?ts=1598311864250&ref_url=https%253A%252F%252Fwww.ti.com%252Fproduct%252FLM5164%253FHQS%253DTI-null-null-octopart-df-pf-null-wwe" (at -7.62 8.89 0)
        (effects (font (size 1.27 1.27)) hide)
      )
      (property "ki_keywords" "step-down dc-dc buck regulator adjustable" (at 0 0 0)
        (effects (font (size 1.27 1.27)) hide)
      )
      (property "ki_description" "1A synchronous buck converter with ultra-low IQ, 6V - 100V input, adjustable output voltage, HSOP-8" (at 0 0 0)
        (effects (font (size 1.27 1.27)) hide)
      )
      (property "ki_fp_filters" "HSOP*1EP*3.9x4.9*P1.27mm*" (at 0 0 0)
        (effects (font (size 1.27 1.27)) hide)
      )
      (symbol "LM5164DDA_1_1"
        (rectangle (start -10.16 10.16) (end 10.16 -10.16)
          (stroke (width 0.254) (type default))
          (fill (type background))
        )
        (pin power_in line (at -2.54 -12.7 90) (length 2.54)
          (name "GND" (effects (font (size 1.27 1.27))))
          (number "1" (effects (font (size 1.27 1.27))))
        )
        (pin power_in line (at -12.7 7.62 0) (length 2.54)
          (name "VIN" (effects (font (size 1.27 1.27))))
          (number "2" (effects (font (size 1.27 1.27))))
        )
        (pin input line (at -12.7 2.54 0) (length 2.54)
          (name "EN/UVLO" (effects (font (size 1.27 1.27))))
          (number "3" (effects (font (size 1.27 1.27))))
        )
        (pin passive line (at -12.7 -5.08 0) (length 2.54)
          (name "RON" (effects (font (size 1.27 1.27))))
          (number "4" (effects (font (size 1.27 1.27))))
        )
        (pin input line (at 12.7 -2.54 180) (length 2.54)
          (name "FB" (effects (font (size 1.27 1.27))))
          (number "5" (effects (font (size 1.27 1.27))))
        )
        (pin open_collector line (at 12.7 -5.08 180) (length 2.54)
          (name "PGOOD" (effects (font (size 1.27 1.27))))
          (number "6" (effects (font (size 1.27 1.27))))
        )
        (pin passive line (at 12.7 7.62 180) (length 2.54)
          (name "BST" (effects (font (size 1.27 1.27))))
          (number "7" (effects (font (size 1.27 1.27))))
        )
        (pin power_out line (at 12.7 2.54 180) (length 2.54)
          (name "SW" (effects (font (size 1.27 1.27))))
          (number "8" (effects (font (size 1.27 1.27))))
        )
        (pin passive line (at 2.54 -12.7 90) (length 2.54)
          (name "EP" (effects (font (size 1.27 1.27))))
          (number "9" (effects (font (size 1.27 1.27))))
        )
      )
    )
    (symbol "power:+BATT" (power) (pin_names (offset 0)) (in_bom yes) (on_board yes)
      (property "Reference" "#PWR" (at 0 -3.81 0)
        (effects (font (size 1.27 1.27)) hide)
      )
      (property "Value" "+BATT" (at 0 3.556 0)
        (effects (font (size 1.27 1.27)))
      )
      (property "Footprint" "" (at 0 0 0)
        (effects (font (size 1.27 1.27)) hide)
      )
      (property "Datasheet" "" (at 0 0 0)
        (effects (font (size 1.27 1.27)) hide)
      )
      (property "ki_keywords" "power-flag battery" (at 0 0 0)
        (effects (font (size 1.27 1.27)) hide)
      )
      (property "ki_description" "Power symbol creates a global label with name \"+BATT\"" (at 0 0 0)
        (effects (font (size 1.27 1.27)) hide)
      )
      (symbol "+BATT_0_1"
        (polyline
          (pts
            (xy -0.762 1.27)
            (xy 0 2.54)
          )
          (stroke (width 0) (type default))
          (fill (type none))
        )
        (polyline
          (pts
            (xy 0 0)
            (xy 0 2.54)
          )
          (stroke (width 0) (type default))
          (fill (type none))
        )
        (polyline
          (pts
            (xy 0 2.54)
            (xy 0.762 1.27)
          )
          (stroke (width 0) (type default))
          (fill (type none))
        )
      )
      (symbol "+BATT_1_1"
        (pin power_in line (at 0 0 90) (length 0) hide
          (name "+BATT" (effects (font (size 1.27 1.27))))
          (number "1" (effects (font (size 1.27 1.27))))
        )
      )
    )
    (symbol "power:GND" (power) (pin_names (offset 0)) (in_bom yes) (on_board yes)
      (property "Reference" "#PWR" (at 0 -6.35 0)
        (effects (font (size 1.27 1.27)) hide)
      )
      (property "Value" "GND" (at 0 -3.81 0)
        (effects (font (size 1.27 1.27)))
      )
      (property "Footprint" "" (at 0 0 0)
        (effects (font (size 1.27 1.27)) hide)
      )
      (property "Datasheet" "" (at 0 0 0)
        (effects (font (size 1.27 1.27)) hide)
      )
      (property "ki_keywords" "power-flag" (at 0 0 0)
        (effects (font (size 1.27 1.27)) hide)
      )
      (property "ki_description" "Power symbol creates a global label with name \"GND\" , ground" (at 0 0 0)
        (effects (font (size 1.27 1.27)) hide)
      )
      (symbol "GND_0_1"
        (polyline
          (pts
            (xy 0 0)
            (xy 0 -1.27)
            (xy 1.27 -1.27)
            (xy 0 -2.54)
            (xy -1.27 -1.27)
            (xy 0 -1.27)
          )
          (stroke (width 0) (type default))
          (fill (type none))
        )
      )
      (symbol "GND_1_1"
        (pin power_in line (at 0 0 270) (length 0) hide
          (name "GND" (effects (font (size 1.27 1.27))))
          (number "1" (effects (font (size 1.27 1.27))))
        )
      )
    )
  )

  (junction (at 67.31 104.14) (diameter 0) (color 0 0 0 0)
    (uuid 5beeebe4-6385-47d1-95a3-0ffeeea7326e)
  )
  (junction (at 93.98 81.28) (diameter 0) (color 0 0 0 0)
    (uuid 6ac0ad4e-21f1-4f5b-8d85-f9a7378c0c3b)
  )
  (junction (at 67.31 81.28) (diameter 0) (color 0 0 0 0)
    (uuid 862b5037-4dff-4881-92c1-e2ef97d9506f)
  )

  (wire (pts (xy 55.88 81.28) (xy 59.69 81.28))
    (stroke (width 0) (type default))
    (uuid 090ae295-7868-430c-803f-7835015203c0)
  )
  (wire (pts (xy 67.31 104.14) (xy 106.68 104.14))
    (stroke (width 0) (type default))
    (uuid 11cd7f8a-909d-4c95-887e-7ff062d1f722)
  )
  (polyline (pts (xy 45.72 64.77) (xy 160.02 64.77))
    (stroke (width 0) (type default))
    (uuid 46c7a398-1d1c-4b72-92bd-fcd954780344)
  )

  (wire (pts (xy 64.77 81.28) (xy 67.31 81.28))
    (stroke (width 0) (type default))
    (uuid 56756b42-afe0-4e21-bfd4-5cadc87c36c8)
  )
  (polyline (pts (xy 45.72 113.03) (xy 160.02 113.03))
    (stroke (width 0) (type default))
    (uuid 61cad5ac-634f-43bd-9d37-e6ad229b0404)
  )
  (polyline (pts (xy 160.02 113.03) (xy 160.02 64.77))
    (stroke (width 0) (type default))
    (uuid aef27814-2bbf-413e-8fda-51ad11ad5156)
  )

  (wire (pts (xy 93.98 81.28) (xy 93.98 86.36))
    (stroke (width 0) (type default))
    (uuid be1170c7-2764-4735-8863-5c1651e9c6c5)
  )
  (wire (pts (xy 67.31 82.55) (xy 67.31 81.28))
    (stroke (width 0) (type default))
    (uuid c31fbeea-0ac7-47c1-a050-6b01c487ef9e)
  )
  (wire (pts (xy 67.31 81.28) (xy 93.98 81.28))
    (stroke (width 0) (type default))
    (uuid cf1c6830-fc54-47a2-9b78-a135df067da2)
  )
  (wire (pts (xy 93.98 86.36) (xy 96.52 86.36))
    (stroke (width 0) (type default))
    (uuid d41584a0-f7bd-40d7-9802-9451331220a7)
  )
  (polyline (pts (xy 45.72 64.77) (xy 45.72 113.03))
    (stroke (width 0) (type default))
    (uuid d7f0ab43-5cbe-4a2f-a031-445802f0a3cc)
  )

  (wire (pts (xy 106.68 101.6) (xy 106.68 104.14))
    (stroke (width 0) (type default))
    (uuid e730e834-f023-4bd2-924e-2bb4e6a327d8)
  )
  (wire (pts (xy 67.31 87.63) (xy 67.31 104.14))
    (stroke (width 0) (type default))
    (uuid f345d53c-e525-4e86-8d6d-890f82761cee)
  )
  (wire (pts (xy 55.88 77.47) (xy 55.88 81.28))
    (stroke (width 0) (type default))
    (uuid f5f1f28c-7090-480b-8b71-a070d445b239)
  )
  (wire (pts (xy 93.98 81.28) (xy 96.52 81.28))
    (stroke (width 0) (type default))
    (uuid f80cec7f-6238-4fa7-a92e-c0b4e5714bca)
  )

  (text "5V buck converter" (at 46.99 63.5 0)
    (effects (font (size 1.27 1.27)) (justify left bottom))
    (uuid 2e835148-3778-495b-a3fc-1e4d3598a45c)
  )

  (hierarchical_label "BAT_UVLO" (shape output) (at 93.98 86.36 180) (fields_autoplaced)
    (effects (font (size 1.27 1.27)) (justify right))
    (uuid 2dad2143-2a1b-4f22-9d4f-5391c2c31e6c)
  )

  (symbol (lib_id "power:GND") (at 67.31 104.14 0) (unit 1)
    (in_bom yes) (on_board yes) (dnp no) (fields_autoplaced)
    (uuid 3c777041-5cf1-41b0-926d-5f719e8273bc)
    (property "Reference" "#PWR0502" (at 67.31 110.49 0)
      (effects (font (size 1.27 1.27)) hide)
    )
    (property "Value" "GND" (at 67.31 109.22 0)
      (effects (font (size 1.27 1.27)))
    )
    (property "Footprint" "" (at 67.31 104.14 0)
      (effects (font (size 1.27 1.27)) hide)
    )
    (property "Datasheet" "" (at 67.31 104.14 0)
      (effects (font (size 1.27 1.27)) hide)
    )
    (pin "1" (uuid a30c4feb-3c1a-4413-adbd-7c6f6c9486a6))
    (instances
      (project "vesc-bms"
        (path "/3e668e3e-3e16-4665-a807-4735962c41d3/600d3fd5-a2c8-411e-91ac-e4cbb4ace0f8"
          (reference "#PWR0502") (unit 1)
        )
      )
    )
  )

  (symbol (lib_id "Device:R_Small") (at 62.23 81.28 90) (unit 1)
    (in_bom yes) (on_board yes) (dnp no) (fields_autoplaced)
    (uuid c9c79f4c-38dd-46dd-89b0-64d0a5910646)
    (property "Reference" "R501" (at 62.23 74.93 90)
      (effects (font (size 1.27 1.27)))
    )
    (property "Value" "100" (at 62.23 77.47 90)
      (effects (font (size 1.27 1.27)))
    )
    (property "Footprint" "" (at 62.23 81.28 0)
      (effects (font (size 1.27 1.27)) hide)
    )
    (property "Datasheet" "~" (at 62.23 81.28 0)
      (effects (font (size 1.27 1.27)) hide)
    )
    (pin "1" (uuid 0b953342-086b-4085-8ad6-b3d373d6162c))
    (pin "2" (uuid e00a7a01-1426-49a7-90a4-9ef4774be0fa))
    (instances
      (project "vesc-bms"
        (path "/3e668e3e-3e16-4665-a807-4735962c41d3/600d3fd5-a2c8-411e-91ac-e4cbb4ace0f8"
          (reference "R501") (unit 1)
        )
      )
    )
  )

  (symbol (lib_id "Regulator_Switching:LM5164DDA") (at 109.22 88.9 0) (unit 1)
    (in_bom yes) (on_board yes) (dnp no) (fields_autoplaced)
    (uuid deb1b356-6b13-4777-a25c-1e6c644c15c0)
    (property "Reference" "U501" (at 109.22 73.66 0)
      (effects (font (size 1.27 1.27)))
    )
    (property "Value" "LM5164DDA" (at 109.22 76.2 0)
      (effects (font (size 1.27 1.27)))
    )
    (property "Footprint" "Package_SO:HSOP-8-1EP_3.9x4.9mm_P1.27mm_EP2.41x3.1mm_ThermalVias" (at 110.49 100.33 0)
      (effects (font (size 1.27 1.27)) hide)
    )
    (property "Datasheet" "https://www.ti.com/lit/ds/symlink/lm5164.pdf?ts=1598311864250&ref_url=https%253A%252F%252Fwww.ti.com%252Fproduct%252FLM5164%253FHQS%253DTI-null-null-octopart-df-pf-null-wwe" (at 101.6 80.01 0)
      (effects (font (size 1.27 1.27)) hide)
    )
    (property "LCSC" "C477928" (at 109.22 88.9 0)
      (effects (font (size 1.27 1.27)) hide)
    )
    (pin "1" (uuid 8d1c69a6-246f-4b7d-b93c-b744e729d95c))
    (pin "2" (uuid 8fa6590a-fdb5-4947-a5d4-7de045ab6242))
    (pin "3" (uuid 7e13c49c-db4b-4945-b86a-3189d6867cd3))
    (pin "4" (uuid 5702466e-bca3-48d8-84e3-5973e22994b8))
    (pin "5" (uuid 54d9e44d-9196-433d-ba0d-2fcc0bff8c1d))
    (pin "6" (uuid 0ed61148-6363-4304-bf75-7b5a45a02796))
    (pin "7" (uuid bae9e4ab-1f40-4785-861b-82502d79259b))
    (pin "8" (uuid f58894a5-c101-4f10-b0a1-e95f92a500f1))
    (pin "9" (uuid cfd5679d-281b-4218-84b5-1b593525bc74))
    (instances
      (project "vesc-bms"
        (path "/3e668e3e-3e16-4665-a807-4735962c41d3/600d3fd5-a2c8-411e-91ac-e4cbb4ace0f8"
          (reference "U501") (unit 1)
        )
      )
    )
  )

  (symbol (lib_id "power:+BATT") (at 55.88 77.47 0) (unit 1)
    (in_bom yes) (on_board yes) (dnp no) (fields_autoplaced)
    (uuid f318570c-d25f-4828-8a5f-09306e4d0123)
    (property "Reference" "#PWR0501" (at 55.88 81.28 0)
      (effects (font (size 1.27 1.27)) hide)
    )
    (property "Value" "+BATT" (at 55.88 72.39 0)
      (effects (font (size 1.27 1.27)))
    )
    (property "Footprint" "" (at 55.88 77.47 0)
      (effects (font (size 1.27 1.27)) hide)
    )
    (property "Datasheet" "" (at 55.88 77.47 0)
      (effects (font (size 1.27 1.27)) hide)
    )
    (pin "1" (uuid 9515f53d-ddeb-4931-9192-39f81a944803))
    (instances
      (project "vesc-bms"
        (path "/3e668e3e-3e16-4665-a807-4735962c41d3/600d3fd5-a2c8-411e-91ac-e4cbb4ace0f8"
          (reference "#PWR0501") (unit 1)
        )
      )
    )
  )

  (symbol (lib_id "Device:C_Small") (at 67.31 85.09 0) (unit 1)
    (in_bom yes) (on_board yes) (dnp no) (fields_autoplaced)
    (uuid f55e1cba-f27b-4b04-9aa4-8502ed96b41b)
    (property "Reference" "C501" (at 69.85 83.8262 0)
      (effects (font (size 1.27 1.27)) (justify left))
    )
    (property "Value" "2.2u" (at 69.85 86.3662 0)
      (effects (font (size 1.27 1.27)) (justify left))
    )
    (property "Footprint" "Capacitor_SMD:C_0603_1608Metric" (at 67.31 85.09 0)
      (effects (font (size 1.27 1.27)) hide)
    )
    (property "Datasheet" "~" (at 67.31 85.09 0)
      (effects (font (size 1.27 1.27)) hide)
    )
    (pin "1" (uuid c6273fbd-60a2-4aa8-894d-f7d8bf87f2f7))
    (pin "2" (uuid 4f6fde50-e547-4789-9f0a-3038f0f3f578))
    (instances
      (project "vesc-bms"
        (path "/3e668e3e-3e16-4665-a807-4735962c41d3/600d3fd5-a2c8-411e-91ac-e4cbb4ace0f8"
          (reference "C501") (unit 1)
        )
      )
    )
  )
)
