(kicad_sch (version 20230121) (generator eeschema)

  (uuid 131b7f7e-0295-4bdb-a7ec-c459bf37e81c)

  (paper "A4")

  (lib_symbols
    (symbol "Device:R_Small" (pin_numbers hide) (pin_names (offset 0.254) hide) (in_bom yes) (on_board yes)
      (property "Reference" "R" (at 0.762 0.508 0)
        (effects (font (size 1.27 1.27)) (justify left))
      )
      (property "Value" "R_Small" (at 0.762 -1.016 0)
        (effects (font (size 1.27 1.27)) (justify left))
      )
      (property "Footprint" "" (at 0 0 0)
        (effects (font (size 1.27 1.27)) hide)
      )
      (property "Datasheet" "~" (at 0 0 0)
        (effects (font (size 1.27 1.27)) hide)
      )
      (property "ki_keywords" "R resistor" (at 0 0 0)
        (effects (font (size 1.27 1.27)) hide)
      )
      (property "ki_description" "Resistor, small symbol" (at 0 0 0)
        (effects (font (size 1.27 1.27)) hide)
      )
      (property "ki_fp_filters" "R_*" (at 0 0 0)
        (effects (font (size 1.27 1.27)) hide)
      )
      (symbol "R_Small_0_1"
        (rectangle (start -0.762 1.778) (end 0.762 -1.778)
          (stroke (width 0.2032) (type default))
          (fill (type none))
        )
      )
      (symbol "R_Small_1_1"
        (pin passive line (at 0 2.54 270) (length 0.762)
          (name "~" (effects (font (size 1.27 1.27))))
          (number "1" (effects (font (size 1.27 1.27))))
        )
        (pin passive line (at 0 -2.54 90) (length 0.762)
          (name "~" (effects (font (size 1.27 1.27))))
          (number "2" (effects (font (size 1.27 1.27))))
        )
      )
    )
    (symbol "Diode:SM4007" (pin_numbers hide) (pin_names hide) (in_bom yes) (on_board yes)
      (property "Reference" "D" (at 0 2.54 0)
        (effects (font (size 1.27 1.27)))
      )
      (property "Value" "SM4007" (at 0 -2.54 0)
        (effects (font (size 1.27 1.27)))
      )
      (property "Footprint" "Diode_SMD:D_MELF" (at 0 -4.445 0)
        (effects (font (size 1.27 1.27)) hide)
      )
      (property "Datasheet" "http://cdn-reichelt.de/documents/datenblatt/A400/SMD1N400%23DIO.pdf" (at 0 0 0)
        (effects (font (size 1.27 1.27)) hide)
      )
      (property "Sim.Device" "D" (at 0 0 0)
        (effects (font (size 1.27 1.27)) hide)
      )
      (property "Sim.Pins" "1=K 2=A" (at 0 0 0)
        (effects (font (size 1.27 1.27)) hide)
      )
      (property "ki_keywords" "diode" (at 0 0 0)
        (effects (font (size 1.27 1.27)) hide)
      )
      (property "ki_description" "1000V 1A General Purpose Rectifier Diode, MELF" (at 0 0 0)
        (effects (font (size 1.27 1.27)) hide)
      )
      (property "ki_fp_filters" "D*MELF*" (at 0 0 0)
        (effects (font (size 1.27 1.27)) hide)
      )
      (symbol "SM4007_0_1"
        (polyline
          (pts
            (xy -1.27 1.27)
            (xy -1.27 -1.27)
          )
          (stroke (width 0.254) (type default))
          (fill (type none))
        )
        (polyline
          (pts
            (xy 1.27 0)
            (xy -1.27 0)
          )
          (stroke (width 0) (type default))
          (fill (type none))
        )
        (polyline
          (pts
            (xy 1.27 1.27)
            (xy 1.27 -1.27)
            (xy -1.27 0)
            (xy 1.27 1.27)
          )
          (stroke (width 0.254) (type default))
          (fill (type none))
        )
      )
      (symbol "SM4007_1_1"
        (pin passive line (at -3.81 0 0) (length 2.54)
          (name "K" (effects (font (size 1.27 1.27))))
          (number "1" (effects (font (size 1.27 1.27))))
        )
        (pin passive line (at 3.81 0 180) (length 2.54)
          (name "A" (effects (font (size 1.27 1.27))))
          (number "2" (effects (font (size 1.27 1.27))))
        )
      )
    )
    (symbol "GND_1" (power) (pin_names (offset 0)) (in_bom yes) (on_board yes)
      (property "Reference" "#PWR" (at 0 -6.35 0)
        (effects (font (size 1.27 1.27)) hide)
      )
      (property "Value" "GND_1" (at 0 -3.81 0)
        (effects (font (size 1.27 1.27)))
      )
      (property "Footprint" "" (at 0 0 0)
        (effects (font (size 1.27 1.27)) hide)
      )
      (property "Datasheet" "" (at 0 0 0)
        (effects (font (size 1.27 1.27)) hide)
      )
      (property "ki_keywords" "global power" (at 0 0 0)
        (effects (font (size 1.27 1.27)) hide)
      )
      (property "ki_description" "Power symbol creates a global label with name \"GND\" , ground" (at 0 0 0)
        (effects (font (size 1.27 1.27)) hide)
      )
      (symbol "GND_1_0_1"
        (polyline
          (pts
            (xy 0 0)
            (xy 0 -1.27)
            (xy 1.27 -1.27)
            (xy 0 -2.54)
            (xy -1.27 -1.27)
            (xy 0 -1.27)
          )
          (stroke (width 0) (type default))
          (fill (type none))
        )
      )
      (symbol "GND_1_1_1"
        (pin power_in line (at 0 0 270) (length 0) hide
          (name "GND" (effects (font (size 1.27 1.27))))
          (number "1" (effects (font (size 1.27 1.27))))
        )
      )
    )
    (symbol "GND_2" (power) (pin_names (offset 0)) (in_bom yes) (on_board yes)
      (property "Reference" "#PWR" (at 0 -6.35 0)
        (effects (font (size 1.27 1.27)) hide)
      )
      (property "Value" "GND_2" (at 0 -3.81 0)
        (effects (font (size 1.27 1.27)))
      )
      (property "Footprint" "" (at 0 0 0)
        (effects (font (size 1.27 1.27)) hide)
      )
      (property "Datasheet" "" (at 0 0 0)
        (effects (font (size 1.27 1.27)) hide)
      )
      (property "ki_keywords" "global power" (at 0 0 0)
        (effects (font (size 1.27 1.27)) hide)
      )
      (property "ki_description" "Power symbol creates a global label with name \"GND\" , ground" (at 0 0 0)
        (effects (font (size 1.27 1.27)) hide)
      )
      (symbol "GND_2_0_1"
        (polyline
          (pts
            (xy 0 0)
            (xy 0 -1.27)
            (xy 1.27 -1.27)
            (xy 0 -2.54)
            (xy -1.27 -1.27)
            (xy 0 -1.27)
          )
          (stroke (width 0) (type default))
          (fill (type none))
        )
      )
      (symbol "GND_2_1_1"
        (pin power_in line (at 0 0 270) (length 0) hide
          (name "GND" (effects (font (size 1.27 1.27))))
          (number "1" (effects (font (size 1.27 1.27))))
        )
      )
    )
    (symbol "Motor:Fan" (pin_names (offset 0)) (in_bom yes) (on_board yes)
      (property "Reference" "M" (at 2.54 5.08 0)
        (effects (font (size 1.27 1.27)) (justify left))
      )
      (property "Value" "Fan" (at 2.54 -2.54 0)
        (effects (font (size 1.27 1.27)) (justify left top))
      )
      (property "Footprint" "" (at 0 0.254 0)
        (effects (font (size 1.27 1.27)) hide)
      )
      (property "Datasheet" "~" (at 0 0.254 0)
        (effects (font (size 1.27 1.27)) hide)
      )
      (property "ki_keywords" "Fan Motor" (at 0 0 0)
        (effects (font (size 1.27 1.27)) hide)
      )
      (property "ki_description" "Fan" (at 0 0 0)
        (effects (font (size 1.27 1.27)) hide)
      )
      (property "ki_fp_filters" "PinHeader*P2.54mm* TerminalBlock*" (at 0 0 0)
        (effects (font (size 1.27 1.27)) hide)
      )
      (symbol "Fan_0_1"
        (arc (start -2.54 -0.508) (mid 0.0028 0.9121) (end 0 3.81)
          (stroke (width 0) (type default))
          (fill (type none))
        )
        (polyline
          (pts
            (xy 0 -5.08)
            (xy 0 -4.572)
          )
          (stroke (width 0) (type default))
          (fill (type none))
        )
        (polyline
          (pts
            (xy 0 -2.2352)
            (xy 0 -2.6416)
          )
          (stroke (width 0) (type default))
          (fill (type none))
        )
        (polyline
          (pts
            (xy 0 4.2672)
            (xy 0 4.6228)
          )
          (stroke (width 0) (type default))
          (fill (type none))
        )
        (polyline
          (pts
            (xy 0 4.572)
            (xy 0 5.08)
          )
          (stroke (width 0) (type default))
          (fill (type none))
        )
        (circle (center 0 1.016) (radius 3.2512)
          (stroke (width 0.254) (type default))
          (fill (type none))
        )
        (arc (start 0 3.81) (mid 0.053 0.921) (end 2.54 -0.508)
          (stroke (width 0) (type default))
          (fill (type none))
        )
        (arc (start 2.54 -0.508) (mid 0 1.0618) (end -2.54 -0.508)
          (stroke (width 0) (type default))
          (fill (type none))
        )
      )
      (symbol "Fan_1_1"
        (pin passive line (at 0 7.62 270) (length 2.54)
          (name "+" (effects (font (size 1.27 1.27))))
          (number "1" (effects (font (size 1.27 1.27))))
        )
        (pin passive line (at 0 -5.08 90) (length 2.54)
          (name "-" (effects (font (size 1.27 1.27))))
          (number "2" (effects (font (size 1.27 1.27))))
        )
      )
    )
    (symbol "Motor:Fan_4pin" (pin_names (offset 0)) (in_bom yes) (on_board yes)
      (property "Reference" "M" (at 2.54 5.08 0)
        (effects (font (size 1.27 1.27)) (justify left))
      )
      (property "Value" "Fan_4pin" (at 2.54 -2.54 0)
        (effects (font (size 1.27 1.27)) (justify left top))
      )
      (property "Footprint" "" (at 0 0.254 0)
        (effects (font (size 1.27 1.27)) hide)
      )
      (property "Datasheet" "http://www.formfactors.org/developer%5Cspecs%5Crev1_2_public.pdf" (at 0 0.254 0)
        (effects (font (size 1.27 1.27)) hide)
      )
      (property "ki_keywords" "Fan Motor tacho PWM" (at 0 0 0)
        (effects (font (size 1.27 1.27)) hide)
      )
      (property "ki_description" "Fan, tacho output, PWM input, 4-pin connector" (at 0 0 0)
        (effects (font (size 1.27 1.27)) hide)
      )
      (property "ki_fp_filters" "FanPinHeader*P2.54mm*Vertical* PinHeader*P2.54mm*Vertical* TerminalBlock*" (at 0 0 0)
        (effects (font (size 1.27 1.27)) hide)
      )
      (symbol "Fan_4pin_0_0"
        (arc (start -5.588 1.524) (mid -5.08 1.0182) (end -4.572 1.524)
          (stroke (width 0) (type default))
          (fill (type none))
        )
        (arc (start -5.08 2.032) (mid -5.4392 1.8832) (end -5.588 1.524)
          (stroke (width 0) (type default))
          (fill (type none))
        )
        (polyline
          (pts
            (xy -5.08 2.032)
            (xy -5.334 2.159)
          )
          (stroke (width 0) (type default))
          (fill (type none))
        )
        (polyline
          (pts
            (xy -5.08 2.032)
            (xy -5.207 1.778)
          )
          (stroke (width 0) (type default))
          (fill (type none))
        )
        (polyline
          (pts
            (xy -4.064 2.54)
            (xy -4.064 1.016)
            (xy -3.302 1.016)
          )
          (stroke (width 0) (type default))
          (fill (type none))
        )
      )
      (symbol "Fan_4pin_0_1"
        (arc (start -2.54 -0.508) (mid 0.0028 0.9121) (end 0 3.81)
          (stroke (width 0) (type default))
          (fill (type none))
        )
        (polyline
          (pts
            (xy -4.064 2.54)
            (xy -5.08 2.54)
          )
          (stroke (width 0) (type default))
          (fill (type none))
        )
        (polyline
          (pts
            (xy 0 -5.08)
            (xy 0 -4.572)
          )
          (stroke (width 0) (type default))
          (fill (type none))
        )
        (polyline
          (pts
            (xy 0 -2.2352)
            (xy 0 -2.6416)
          )
          (stroke (width 0) (type default))
          (fill (type none))
        )
        (polyline
          (pts
            (xy 0 4.2672)
            (xy 0 4.6228)
          )
          (stroke (width 0) (type default))
          (fill (type none))
        )
        (polyline
          (pts
            (xy 0 4.572)
            (xy 0 5.08)
          )
          (stroke (width 0) (type default))
          (fill (type none))
        )
        (polyline
          (pts
            (xy -2.54 -1.016)
            (xy -4.064 -1.016)
            (xy -4.064 -2.54)
            (xy -5.08 -2.54)
          )
          (stroke (width 0) (type default))
          (fill (type none))
        )
        (polyline
          (pts
            (xy -5.334 -3.302)
            (xy -5.08 -3.302)
            (xy -5.08 -3.048)
            (xy -4.826 -3.048)
            (xy -4.826 -3.302)
            (xy -4.318 -3.302)
            (xy -4.318 -3.048)
            (xy -4.064 -3.048)
            (xy -4.064 -3.302)
            (xy -3.556 -3.302)
          )
          (stroke (width 0) (type default))
          (fill (type none))
        )
        (circle (center 0 1.016) (radius 3.2512)
          (stroke (width 0.254) (type default))
          (fill (type none))
        )
        (arc (start 0 3.81) (mid 0.053 0.921) (end 2.54 -0.508)
          (stroke (width 0) (type default))
          (fill (type none))
        )
        (arc (start 2.54 -0.508) (mid 0 1.0618) (end -2.54 -0.508)
          (stroke (width 0) (type default))
          (fill (type none))
        )
      )
      (symbol "Fan_4pin_1_1"
        (pin passive line (at 0 -5.08 90) (length 2.54)
          (name "-" (effects (font (size 1.27 1.27))))
          (number "1" (effects (font (size 1.27 1.27))))
        )
        (pin passive line (at 0 7.62 270) (length 2.54)
          (name "+" (effects (font (size 1.27 1.27))))
          (number "2" (effects (font (size 1.27 1.27))))
        )
        (pin passive line (at -7.62 2.54 0) (length 2.54)
          (name "Tacho" (effects (font (size 1.27 1.27))))
          (number "3" (effects (font (size 1.27 1.27))))
        )
        (pin input line (at -7.62 -2.54 0) (length 2.54)
          (name "PWM" (effects (font (size 1.27 1.27))))
          (number "4" (effects (font (size 1.27 1.27))))
        )
      )
    )
    (symbol "Sensor_Humidity:HDC1080" (in_bom yes) (on_board yes)
      (property "Reference" "U" (at -6.35 6.35 0)
        (effects (font (size 1.27 1.27)))
      )
      (property "Value" "HDC1080" (at 3.81 6.35 0)
        (effects (font (size 1.27 1.27)))
      )
      (property "Footprint" "Package_SON:Texas_PWSON-N6" (at -1.27 -6.35 0)
        (effects (font (size 1.27 1.27)) (justify left) hide)
      )
      (property "Datasheet" "http://www.ti.com/lit/ds/symlink/hdc1080.pdf" (at -10.16 6.35 0)
        (effects (font (size 1.27 1.27)) hide)
      )
      (property "ki_keywords" "Temerature Humidity Sensor" (at 0 0 0)
        (effects (font (size 1.27 1.27)) hide)
      )
      (property "ki_description" "Low Power,High Accuracy Digital Humidity Sensor with Temperature Sensor" (at 0 0 0)
        (effects (font (size 1.27 1.27)) hide)
      )
      (property "ki_fp_filters" "Package*SON:Texas*PWSON*N6*" (at 0 0 0)
        (effects (font (size 1.27 1.27)) hide)
      )
      (symbol "HDC1080_0_1"
        (rectangle (start -7.62 5.08) (end 5.08 -5.08)
          (stroke (width 0.254) (type default))
          (fill (type background))
        )
      )
      (symbol "HDC1080_1_1"
        (pin bidirectional line (at 7.62 0 180) (length 2.54)
          (name "SDA" (effects (font (size 1.27 1.27))))
          (number "1" (effects (font (size 1.27 1.27))))
        )
        (pin power_in line (at -2.54 -7.62 90) (length 2.54)
          (name "GND" (effects (font (size 1.27 1.27))))
          (number "2" (effects (font (size 1.27 1.27))))
        )
        (pin no_connect line (at -7.62 0 0) (length 2.54) hide
          (name "NC" (effects (font (size 1.27 1.27))))
          (number "3" (effects (font (size 1.27 1.27))))
        )
        (pin no_connect line (at -7.62 -2.54 0) (length 2.54) hide
          (name "NC" (effects (font (size 1.27 1.27))))
          (number "4" (effects (font (size 1.27 1.27))))
        )
        (pin power_in line (at -2.54 7.62 270) (length 2.54)
          (name "VCC" (effects (font (size 1.27 1.27))))
          (number "5" (effects (font (size 1.27 1.27))))
        )
        (pin input line (at 7.62 2.54 180) (length 2.54)
          (name "SCL" (effects (font (size 1.27 1.27))))
          (number "6" (effects (font (size 1.27 1.27))))
        )
        (pin no_connect line (at -7.62 2.54 0) (length 2.54) hide
          (name "DAP" (effects (font (size 1.27 1.27))))
          (number "7" (effects (font (size 1.27 1.27))))
        )
      )
    )
    (symbol "Transistor_FET:AO3401A" (pin_names hide) (in_bom yes) (on_board yes)
      (property "Reference" "Q" (at 5.08 1.905 0)
        (effects (font (size 1.27 1.27)) (justify left))
      )
      (property "Value" "AO3401A" (at 5.08 0 0)
        (effects (font (size 1.27 1.27)) (justify left))
      )
      (property "Footprint" "Package_TO_SOT_SMD:SOT-23" (at 5.08 -1.905 0)
        (effects (font (size 1.27 1.27) italic) (justify left) hide)
      )
      (property "Datasheet" "http://www.aosmd.com/pdfs/datasheet/AO3401A.pdf" (at 0 0 0)
        (effects (font (size 1.27 1.27)) (justify left) hide)
      )
      (property "ki_keywords" "P-Channel MOSFET" (at 0 0 0)
        (effects (font (size 1.27 1.27)) hide)
      )
      (property "ki_description" "-4.0A Id, -30V Vds, P-Channel MOSFET, SOT-23" (at 0 0 0)
        (effects (font (size 1.27 1.27)) hide)
      )
      (property "ki_fp_filters" "SOT?23*" (at 0 0 0)
        (effects (font (size 1.27 1.27)) hide)
      )
      (symbol "AO3401A_0_1"
        (polyline
          (pts
            (xy 0.254 0)
            (xy -2.54 0)
          )
          (stroke (width 0) (type default))
          (fill (type none))
        )
        (polyline
          (pts
            (xy 0.254 1.905)
            (xy 0.254 -1.905)
          )
          (stroke (width 0.254) (type default))
          (fill (type none))
        )
        (polyline
          (pts
            (xy 0.762 -1.27)
            (xy 0.762 -2.286)
          )
          (stroke (width 0.254) (type default))
          (fill (type none))
        )
        (polyline
          (pts
            (xy 0.762 0.508)
            (xy 0.762 -0.508)
          )
          (stroke (width 0.254) (type default))
          (fill (type none))
        )
        (polyline
          (pts
            (xy 0.762 2.286)
            (xy 0.762 1.27)
          )
          (stroke (width 0.254) (type default))
          (fill (type none))
        )
        (polyline
          (pts
            (xy 2.54 2.54)
            (xy 2.54 1.778)
          )
          (stroke (width 0) (type default))
          (fill (type none))
        )
        (polyline
          (pts
            (xy 2.54 -2.54)
            (xy 2.54 0)
            (xy 0.762 0)
          )
          (stroke (width 0) (type default))
          (fill (type none))
        )
        (polyline
          (pts
            (xy 0.762 1.778)
            (xy 3.302 1.778)
            (xy 3.302 -1.778)
            (xy 0.762 -1.778)
          )
          (stroke (width 0) (type default))
          (fill (type none))
        )
        (polyline
          (pts
            (xy 2.286 0)
            (xy 1.27 0.381)
            (xy 1.27 -0.381)
            (xy 2.286 0)
          )
          (stroke (width 0) (type default))
          (fill (type outline))
        )
        (polyline
          (pts
            (xy 2.794 -0.508)
            (xy 2.921 -0.381)
            (xy 3.683 -0.381)
            (xy 3.81 -0.254)
          )
          (stroke (width 0) (type default))
          (fill (type none))
        )
        (polyline
          (pts
            (xy 3.302 -0.381)
            (xy 2.921 0.254)
            (xy 3.683 0.254)
            (xy 3.302 -0.381)
          )
          (stroke (width 0) (type default))
          (fill (type none))
        )
        (circle (center 1.651 0) (radius 2.794)
          (stroke (width 0.254) (type default))
          (fill (type none))
        )
        (circle (center 2.54 -1.778) (radius 0.254)
          (stroke (width 0) (type default))
          (fill (type outline))
        )
        (circle (center 2.54 1.778) (radius 0.254)
          (stroke (width 0) (type default))
          (fill (type outline))
        )
      )
      (symbol "AO3401A_1_1"
        (pin input line (at -5.08 0 0) (length 2.54)
          (name "G" (effects (font (size 1.27 1.27))))
          (number "1" (effects (font (size 1.27 1.27))))
        )
        (pin passive line (at 2.54 -5.08 90) (length 2.54)
          (name "S" (effects (font (size 1.27 1.27))))
          (number "2" (effects (font (size 1.27 1.27))))
        )
        (pin passive line (at 2.54 5.08 270) (length 2.54)
          (name "D" (effects (font (size 1.27 1.27))))
          (number "3" (effects (font (size 1.27 1.27))))
        )
      )
    )
    (symbol "power:+12V" (power) (pin_names (offset 0)) (in_bom yes) (on_board yes)
      (property "Reference" "#PWR" (at 0 -3.81 0)
        (effects (font (size 1.27 1.27)) hide)
      )
      (property "Value" "+12V" (at 0 3.556 0)
        (effects (font (size 1.27 1.27)))
      )
      (property "Footprint" "" (at 0 0 0)
        (effects (font (size 1.27 1.27)) hide)
      )
      (property "Datasheet" "" (at 0 0 0)
        (effects (font (size 1.27 1.27)) hide)
      )
      (property "ki_keywords" "global power" (at 0 0 0)
        (effects (font (size 1.27 1.27)) hide)
      )
      (property "ki_description" "Power symbol creates a global label with name \"+12V\"" (at 0 0 0)
        (effects (font (size 1.27 1.27)) hide)
      )
      (symbol "+12V_0_1"
        (polyline
          (pts
            (xy -0.762 1.27)
            (xy 0 2.54)
          )
          (stroke (width 0) (type default))
          (fill (type none))
        )
        (polyline
          (pts
            (xy 0 0)
            (xy 0 2.54)
          )
          (stroke (width 0) (type default))
          (fill (type none))
        )
        (polyline
          (pts
            (xy 0 2.54)
            (xy 0.762 1.27)
          )
          (stroke (width 0) (type default))
          (fill (type none))
        )
      )
      (symbol "+12V_1_1"
        (pin power_in line (at 0 0 90) (length 0) hide
          (name "+12V" (effects (font (size 1.27 1.27))))
          (number "1" (effects (font (size 1.27 1.27))))
        )
      )
    )
    (symbol "power:+3.3V" (power) (pin_names (offset 0)) (in_bom yes) (on_board yes)
      (property "Reference" "#PWR" (at 0 -3.81 0)
        (effects (font (size 1.27 1.27)) hide)
      )
      (property "Value" "+3.3V" (at 0 3.556 0)
        (effects (font (size 1.27 1.27)))
      )
      (property "Footprint" "" (at 0 0 0)
        (effects (font (size 1.27 1.27)) hide)
      )
      (property "Datasheet" "" (at 0 0 0)
        (effects (font (size 1.27 1.27)) hide)
      )
      (property "ki_keywords" "power-flag" (at 0 0 0)
        (effects (font (size 1.27 1.27)) hide)
      )
      (property "ki_description" "Power symbol creates a global label with name \"+3.3V\"" (at 0 0 0)
        (effects (font (size 1.27 1.27)) hide)
      )
      (symbol "+3.3V_0_1"
        (polyline
          (pts
            (xy -0.762 1.27)
            (xy 0 2.54)
          )
          (stroke (width 0) (type default))
          (fill (type none))
        )
        (polyline
          (pts
            (xy 0 0)
            (xy 0 2.54)
          )
          (stroke (width 0) (type default))
          (fill (type none))
        )
        (polyline
          (pts
            (xy 0 2.54)
            (xy 0.762 1.27)
          )
          (stroke (width 0) (type default))
          (fill (type none))
        )
      )
      (symbol "+3.3V_1_1"
        (pin power_in line (at 0 0 90) (length 0) hide
          (name "+3.3V" (effects (font (size 1.27 1.27))))
          (number "1" (effects (font (size 1.27 1.27))))
        )
      )
    )
    (symbol "power:GND" (power) (pin_names (offset 0)) (in_bom yes) (on_board yes)
      (property "Reference" "#PWR" (at 0 -6.35 0)
        (effects (font (size 1.27 1.27)) hide)
      )
      (property "Value" "GND" (at 0 -3.81 0)
        (effects (font (size 1.27 1.27)))
      )
      (property "Footprint" "" (at 0 0 0)
        (effects (font (size 1.27 1.27)) hide)
      )
      (property "Datasheet" "" (at 0 0 0)
        (effects (font (size 1.27 1.27)) hide)
      )
      (property "ki_keywords" "power-flag" (at 0 0 0)
        (effects (font (size 1.27 1.27)) hide)
      )
      (property "ki_description" "Power symbol creates a global label with name \"GND\" , ground" (at 0 0 0)
        (effects (font (size 1.27 1.27)) hide)
      )
      (symbol "GND_0_1"
        (polyline
          (pts
            (xy 0 0)
            (xy 0 -1.27)
            (xy 1.27 -1.27)
            (xy 0 -2.54)
            (xy -1.27 -1.27)
            (xy 0 -1.27)
          )
          (stroke (width 0) (type default))
          (fill (type none))
        )
      )
      (symbol "GND_1_1"
        (pin power_in line (at 0 0 270) (length 0) hide
          (name "GND" (effects (font (size 1.27 1.27))))
          (number "1" (effects (font (size 1.27 1.27))))
        )
      )
    )
  )

  (junction (at 87.63 78.74) (diameter 0) (color 0 0 0 0)
    (uuid a6897f99-46ad-4912-83f7-7615438538e7)
  )
  (junction (at 87.63 95.25) (diameter 0) (color 0 0 0 0)
    (uuid dcf70f2c-967a-4841-a4c8-907065ab2936)
  )
  (junction (at 76.2 88.9) (diameter 0) (color 0 0 0 0)
    (uuid ddfbe4f5-5235-41a7-948b-534ea94b7ba3)
  )
  (junction (at 107.95 95.25) (diameter 0) (color 0 0 0 0)
    (uuid fdee439c-07ca-4831-a442-15ff877c96e2)
  )

  (wire (pts (xy 71.12 88.9) (xy 76.2 88.9))
    (stroke (width 0) (type default))
    (uuid 28ba4645-1f4d-46a6-b2ad-e662110f3ad6)
  )
  (wire (pts (xy 87.63 77.47) (xy 87.63 78.74))
    (stroke (width 0) (type default))
    (uuid 3086de12-fdb2-4180-9b0d-31dceb39966a)
  )
  (wire (pts (xy 76.2 88.9) (xy 80.01 88.9))
    (stroke (width 0) (type default))
    (uuid 38aabe6d-b33c-4e6f-9d04-8d1ef82818ee)
  )
  (wire (pts (xy 62.23 106.68) (xy 80.01 106.68))
    (stroke (width 0) (type default))
    (uuid 39e619be-b9d3-4de1-93b8-53092ccd0746)
  )
  (wire (pts (xy 107.95 96.52) (xy 107.95 95.25))
    (stroke (width 0) (type default))
    (uuid 5916fce0-91a0-4bf1-bb8d-b63b3128578b)
  )
  (wire (pts (xy 120.65 95.25) (xy 107.95 95.25))
    (stroke (width 0) (type default))
    (uuid 59530718-2596-4ea6-9d94-43abd04d4404)
  )
  (wire (pts (xy 76.2 80.01) (xy 76.2 78.74))
    (stroke (width 0) (type default))
    (uuid 5bbdcca4-6647-4173-a81e-65a770bef790)
  )
  (wire (pts (xy 87.63 93.98) (xy 87.63 95.25))
    (stroke (width 0) (type default))
    (uuid 72ca964c-4ad2-4d40-898a-da0e81e000e9)
  )
  (wire (pts (xy 76.2 85.09) (xy 76.2 88.9))
    (stroke (width 0) (type default))
    (uuid 9bd67fae-fe47-42bf-919c-b3422db40dfa)
  )
  (wire (pts (xy 120.65 99.06) (xy 120.65 95.25))
    (stroke (width 0) (type default))
    (uuid afbacde9-63ff-43bb-9a6f-24211ea4ec81)
  )
  (wire (pts (xy 76.2 78.74) (xy 87.63 78.74))
    (stroke (width 0) (type default))
    (uuid b598b591-ce8d-4f91-8bfe-ffee51c11ca8)
  )
  (wire (pts (xy 87.63 95.25) (xy 87.63 96.52))
    (stroke (width 0) (type default))
    (uuid c55fdd8c-a4f4-4335-8c92-930365f58209)
  )
  (wire (pts (xy 62.23 101.6) (xy 80.01 101.6))
    (stroke (width 0) (type default))
    (uuid ca3a7a26-0fee-4d51-8a01-4e6d645c5698)
  )
  (wire (pts (xy 107.95 95.25) (xy 87.63 95.25))
    (stroke (width 0) (type default))
    (uuid d66bce3b-473b-4caa-a040-bfbcfb614771)
  )
  (wire (pts (xy 87.63 78.74) (xy 87.63 83.82))
    (stroke (width 0) (type default))
    (uuid ec02e205-a87c-4cae-87cf-c1d258f130c4)
  )
  (wire (pts (xy 120.65 106.68) (xy 120.65 109.22))
    (stroke (width 0) (type default))
    (uuid ed317b58-cd15-47ba-a3a1-bc0b3c51a856)
  )
  (wire (pts (xy 62.23 88.9) (xy 66.04 88.9))
    (stroke (width 0) (type default))
    (uuid ed56a688-f20c-4a8c-b727-279538c34679)
  )

  (hierarchical_label "SDA" (shape bidirectional) (at 195.58 95.25 0) (fields_autoplaced)
    (effects (font (size 1.27 1.27)) (justify left))
    (uuid 0680ab88-95a1-4695-94f9-66c9f263e951)
  )
  (hierarchical_label "Fan_PWM" (shape input) (at 62.23 106.68 180) (fields_autoplaced)
    (effects (font (size 1.27 1.27)) (justify right))
    (uuid 0da30da0-19bd-4c7f-b1ab-bdac019038d0)
  )
  (hierarchical_label "Fan_EN" (shape input) (at 62.23 88.9 180) (fields_autoplaced)
    (effects (font (size 1.27 1.27)) (justify right))
    (uuid 190663f1-4b5b-414b-9e68-c044a9d4f543)
  )
  (hierarchical_label "TEMP_3" (shape output) (at 144.78 101.6 180) (fields_autoplaced)
    (effects (font (size 1.27 1.27)) (justify right))
    (uuid 19b32852-b698-47c4-938e-25563bf6c226)
  )
  (hierarchical_label "TEMP_1" (shape output) (at 144.78 88.9 180) (fields_autoplaced)
    (effects (font (size 1.27 1.27)) (justify right))
    (uuid 3cff5e99-de39-4d33-87eb-799315332d23)
  )
  (hierarchical_label "SCL" (shape input) (at 195.58 92.71 0) (fields_autoplaced)
    (effects (font (size 1.27 1.27)) (justify left))
    (uuid 8430dd22-5d9c-41f4-966e-332e83553e8a)
  )
  (hierarchical_label "TEMP_2" (shape output) (at 144.78 95.25 180) (fields_autoplaced)
    (effects (font (size 1.27 1.27)) (justify right))
    (uuid 9df322d8-4092-4193-a4b6-1f88a0e83363)
  )
  (hierarchical_label "Fan_Tacho" (shape input) (at 62.23 101.6 180) (fields_autoplaced)
    (effects (font (size 1.27 1.27)) (justify right))
    (uuid aa68027e-87e7-434c-8611-60e6f04fd2b2)
  )

  (symbol (lib_id "Device:R_Small") (at 68.58 88.9 90) (unit 1)
    (in_bom yes) (on_board yes) (dnp no) (fields_autoplaced)
    (uuid 0724ec04-b306-455c-805d-b193a1cf7d79)
    (property "Reference" "R2401" (at 68.58 83.82 90)
      (effects (font (size 1.27 1.27)))
    )
    (property "Value" "1k" (at 68.58 86.36 90)
      (effects (font (size 1.27 1.27)))
    )
    (property "Footprint" "" (at 68.58 88.9 0)
      (effects (font (size 1.27 1.27)) hide)
    )
    (property "Datasheet" "~" (at 68.58 88.9 0)
      (effects (font (size 1.27 1.27)) hide)
    )
    (pin "1" (uuid f892340d-a4b7-4319-adf2-7f6cb63602a2))
    (pin "2" (uuid dbca3be8-4f2a-4e59-aac9-3c8d525457f4))
    (instances
      (project "vesc-bms"
        (path "/3e668e3e-3e16-4665-a807-4735962c41d3/95476253-acbc-4b80-80be-f4a25f0f1538"
          (reference "R2401") (unit 1)
        )
      )
    )
  )

  (symbol (lib_id "power:+3.3V") (at 185.42 87.63 0) (unit 1)
    (in_bom yes) (on_board yes) (dnp no) (fields_autoplaced)
    (uuid 1a9fb5d2-c907-417d-98de-aa50c050fc93)
    (property "Reference" "#PWR02405" (at 185.42 91.44 0)
      (effects (font (size 1.27 1.27)) hide)
    )
    (property "Value" "+3.3V" (at 185.42 82.55 0)
      (effects (font (size 1.27 1.27)))
    )
    (property "Footprint" "" (at 185.42 87.63 0)
      (effects (font (size 1.27 1.27)) hide)
    )
    (property "Datasheet" "" (at 185.42 87.63 0)
      (effects (font (size 1.27 1.27)) hide)
    )
    (pin "1" (uuid c41d6eff-a313-4b25-a5f9-ed561db50249))
    (instances
      (project "vesc-bms"
        (path "/3e668e3e-3e16-4665-a807-4735962c41d3/95476253-acbc-4b80-80be-f4a25f0f1538"
          (reference "#PWR02405") (unit 1)
        )
      )
    )
  )

  (symbol (lib_id "power:GND") (at 185.42 102.87 0) (unit 1)
    (in_bom yes) (on_board yes) (dnp no) (fields_autoplaced)
    (uuid 2045ed12-1482-4795-a7b2-fa8ae2193dfe)
    (property "Reference" "#PWR02406" (at 185.42 109.22 0)
      (effects (font (size 1.27 1.27)) hide)
    )
    (property "Value" "GND" (at 185.42 107.95 0)
      (effects (font (size 1.27 1.27)))
    )
    (property "Footprint" "" (at 185.42 102.87 0)
      (effects (font (size 1.27 1.27)) hide)
    )
    (property "Datasheet" "" (at 185.42 102.87 0)
      (effects (font (size 1.27 1.27)) hide)
    )
    (pin "1" (uuid 775b81d3-a022-4531-986f-59b822826587))
    (instances
      (project "vesc-bms"
        (path "/3e668e3e-3e16-4665-a807-4735962c41d3/95476253-acbc-4b80-80be-f4a25f0f1538"
          (reference "#PWR02406") (unit 1)
        )
      )
    )
  )

  (symbol (lib_id "power:+12V") (at 87.63 77.47 0) (unit 1)
    (in_bom yes) (on_board yes) (dnp no) (fields_autoplaced)
    (uuid 3dd25b19-8b87-4363-8df8-75e322b4fe1d)
    (property "Reference" "#PWR02401" (at 87.63 81.28 0)
      (effects (font (size 1.27 1.27)) hide)
    )
    (property "Value" "+12V" (at 87.63 73.66 0)
      (effects (font (size 1.27 1.27)))
    )
    (property "Footprint" "" (at 87.63 77.47 0)
      (effects (font (size 1.27 1.27)) hide)
    )
    (property "Datasheet" "" (at 87.63 77.47 0)
      (effects (font (size 1.27 1.27)) hide)
    )
    (pin "1" (uuid eace73a7-72d9-4a4c-82e7-c6fda1371358))
    (instances
      (project "vesc-bms"
        (path "/3e668e3e-3e16-4665-a807-4735962c41d3/95476253-acbc-4b80-80be-f4a25f0f1538"
          (reference "#PWR02401") (unit 1)
        )
      )
    )
  )

  (symbol (lib_id "Motor:Fan_4pin") (at 87.63 104.14 0) (unit 1)
    (in_bom yes) (on_board yes) (dnp no) (fields_autoplaced)
    (uuid 47d4caf2-3b82-4c86-b6a0-fd2de3b1adfb)
    (property "Reference" "M2401" (at 92.71 103.505 0)
      (effects (font (size 1.27 1.27)) (justify left))
    )
    (property "Value" "Fan_4pin" (at 92.71 106.045 0)
      (effects (font (size 1.27 1.27)) (justify left))
    )
    (property "Footprint" "Connector:FanPinHeader_1x04_P2.54mm_Vertical" (at 87.63 103.886 0)
      (effects (font (size 1.27 1.27)) hide)
    )
    (property "Datasheet" "http://www.formfactors.org/developer%5Cspecs%5Crev1_2_public.pdf" (at 87.63 103.886 0)
      (effects (font (size 1.27 1.27)) hide)
    )
    (pin "1" (uuid 7ddb2d67-881b-49bc-a33b-70c5a965f1df))
    (pin "2" (uuid 26cd7751-f028-4aed-a078-f61e7e6f3151))
    (pin "3" (uuid 245921d7-c997-412e-a2cc-5a95bda57f38))
    (pin "4" (uuid 862c3135-3bba-471a-8796-725d2e14466d))
    (instances
      (project "vesc-bms"
        (path "/3e668e3e-3e16-4665-a807-4735962c41d3/95476253-acbc-4b80-80be-f4a25f0f1538"
          (reference "M2401") (unit 1)
        )
      )
    )
  )

  (symbol (lib_name "GND_1") (lib_id "power:GND") (at 87.63 109.22 0) (unit 1)
    (in_bom yes) (on_board yes) (dnp no) (fields_autoplaced)
    (uuid 4923b184-fa07-4667-8f0f-82d8e7f863f1)
    (property "Reference" "#PWR02402" (at 87.63 115.57 0)
      (effects (font (size 1.27 1.27)) hide)
    )
    (property "Value" "GND" (at 87.63 114.3 0)
      (effects (font (size 1.27 1.27)))
    )
    (property "Footprint" "" (at 87.63 109.22 0)
      (effects (font (size 1.27 1.27)) hide)
    )
    (property "Datasheet" "" (at 87.63 109.22 0)
      (effects (font (size 1.27 1.27)) hide)
    )
    (pin "1" (uuid 1d808ba5-303a-4c11-a3de-8024872dc504))
    (instances
      (project "vesc-bms"
        (path "/3e668e3e-3e16-4665-a807-4735962c41d3/95476253-acbc-4b80-80be-f4a25f0f1538"
          (reference "#PWR02402") (unit 1)
        )
      )
    )
  )

  (symbol (lib_name "GND_2") (lib_id "power:GND") (at 120.65 109.22 0) (unit 1)
    (in_bom yes) (on_board yes) (dnp no) (fields_autoplaced)
    (uuid 79bbdce5-47b0-4b74-a1cf-2408942210a4)
    (property "Reference" "#PWR02404" (at 120.65 115.57 0)
      (effects (font (size 1.27 1.27)) hide)
    )
    (property "Value" "GND" (at 120.65 114.3 0)
      (effects (font (size 1.27 1.27)))
    )
    (property "Footprint" "" (at 120.65 109.22 0)
      (effects (font (size 1.27 1.27)) hide)
    )
    (property "Datasheet" "" (at 120.65 109.22 0)
      (effects (font (size 1.27 1.27)) hide)
    )
    (pin "1" (uuid 43e17202-e8bd-4356-90cb-c31ce26e0c72))
    (instances
      (project "vesc-bms"
        (path "/3e668e3e-3e16-4665-a807-4735962c41d3/95476253-acbc-4b80-80be-f4a25f0f1538"
          (reference "#PWR02404") (unit 1)
        )
      )
    )
  )

  (symbol (lib_id "Diode:SM4007") (at 120.65 102.87 270) (unit 1)
    (in_bom yes) (on_board yes) (dnp no) (fields_autoplaced)
    (uuid 941c8f22-fbcf-49e7-86fc-da95839fa387)
    (property "Reference" "D2401" (at 123.19 102.235 90)
      (effects (font (size 1.27 1.27)) (justify left))
    )
    (property "Value" "SM4007" (at 123.19 104.775 90)
      (effects (font (size 1.27 1.27)) (justify left))
    )
    (property "Footprint" "Diode_THT:D_DO-41_SOD81_P7.62mm_Horizontal" (at 116.205 102.87 0)
      (effects (font (size 1.27 1.27)) hide)
    )
    (property "Datasheet" "http://cdn-reichelt.de/documents/datenblatt/A400/SMD1N400%23DIO.pdf" (at 120.65 102.87 0)
      (effects (font (size 1.27 1.27)) hide)
    )
    (property "Sim.Device" "D" (at 120.65 102.87 0)
      (effects (font (size 1.27 1.27)) hide)
    )
    (property "Sim.Pins" "1=K 2=A" (at 120.65 102.87 0)
      (effects (font (size 1.27 1.27)) hide)
    )
    (pin "1" (uuid d808c187-68f3-42ba-9b7b-4b0a43af0f4a))
    (pin "2" (uuid 995eecd2-dac9-43ae-9f45-6b421fe2ad20))
    (instances
      (project "vesc-bms"
        (path "/3e668e3e-3e16-4665-a807-4735962c41d3/95476253-acbc-4b80-80be-f4a25f0f1538"
          (reference "D2401") (unit 1)
        )
      )
    )
  )

  (symbol (lib_id "Transistor_FET:AO3401A") (at 85.09 88.9 0) (mirror x) (unit 1)
    (in_bom yes) (on_board yes) (dnp no)
    (uuid 97b7502e-5ece-4677-8639-d0a8898254b8)
    (property "Reference" "Q2401" (at 91.44 88.265 0)
      (effects (font (size 1.27 1.27)) (justify left))
    )
    (property "Value" "AO3401A" (at 91.44 90.805 0)
      (effects (font (size 1.27 1.27)) (justify left))
    )
    (property "Footprint" "Package_TO_SOT_SMD:SOT-23" (at 90.17 86.995 0)
      (effects (font (size 1.27 1.27) italic) (justify left) hide)
    )
    (property "Datasheet" "http://www.aosmd.com/pdfs/datasheet/AO3401A.pdf" (at 85.09 88.9 0)
      (effects (font (size 1.27 1.27)) (justify left) hide)
    )
    (pin "1" (uuid efe9ea0a-ed3e-4557-a8a7-33df2cd79836))
    (pin "2" (uuid 1e7399f2-5f72-491c-9d0f-f532fe46ce6c))
    (pin "3" (uuid 5ab6597f-6ed7-4342-a026-653126215096))
    (instances
      (project "vesc-bms"
        (path "/3e668e3e-3e16-4665-a807-4735962c41d3/95476253-acbc-4b80-80be-f4a25f0f1538"
          (reference "Q2401") (unit 1)
        )
      )
    )
  )

  (symbol (lib_id "Sensor_Humidity:HDC1080") (at 187.96 95.25 0) (unit 1)
    (in_bom yes) (on_board yes) (dnp no) (fields_autoplaced)
    (uuid 9a902132-2cd9-4ed2-addd-2c5fe48e29b9)
    (property "Reference" "U2401" (at 179.07 93.9799 0)
      (effects (font (size 1.27 1.27)) (justify right))
    )
    (property "Value" "HDC1080" (at 179.07 96.5199 0)
      (effects (font (size 1.27 1.27)) (justify right))
    )
    (property "Footprint" "Package_SON:Texas_PWSON-N6" (at 186.69 101.6 0)
      (effects (font (size 1.27 1.27)) (justify left) hide)
    )
    (property "Datasheet" "http://www.ti.com/lit/ds/symlink/hdc1080.pdf" (at 177.8 88.9 0)
      (effects (font (size 1.27 1.27)) hide)
    )
    (pin "1" (uuid 97f62235-90dc-41ef-96a2-53c98759ba70))
    (pin "2" (uuid cac4a6bc-4528-4121-ba07-7f512487d5a6))
    (pin "3" (uuid c51fb792-87f8-40fa-bc79-076dd0b3134c))
    (pin "4" (uuid f9a0f285-fbbd-4c20-b8de-84c2684ececd))
    (pin "5" (uuid e2b084d7-6562-4f57-994f-cd387e19e4a4))
    (pin "6" (uuid 49d971a0-eecc-4bc8-82ea-0d71ebad3f8f))
    (pin "7" (uuid 11314ae3-5e3d-401d-b005-7d58f2171a56))
    (instances
      (project "vesc-bms"
        (path "/3e668e3e-3e16-4665-a807-4735962c41d3/95476253-acbc-4b80-80be-f4a25f0f1538"
          (reference "U2401") (unit 1)
        )
      )
    )
  )

  (symbol (lib_id "Motor:Fan") (at 107.95 104.14 0) (unit 1)
    (in_bom yes) (on_board yes) (dnp no) (fields_autoplaced)
    (uuid ae3c6d57-fcd3-4544-b597-1cc341dd489d)
    (property "Reference" "M2402" (at 113.03 103.505 0)
      (effects (font (size 1.27 1.27)) (justify left))
    )
    (property "Value" "Fan" (at 113.03 106.045 0)
      (effects (font (size 1.27 1.27)) (justify left))
    )
    (property "Footprint" "Connector_JST:JST_XH_B2B-XH-A_1x02_P2.50mm_Vertical" (at 107.95 103.886 0)
      (effects (font (size 1.27 1.27)) hide)
    )
    (property "Datasheet" "~" (at 107.95 103.886 0)
      (effects (font (size 1.27 1.27)) hide)
    )
    (pin "1" (uuid 6347fbb7-a8ca-428c-85e8-358e29f02895))
    (pin "2" (uuid df23273a-3417-4beb-b172-58b7ec4c54c2))
    (instances
      (project "vesc-bms"
        (path "/3e668e3e-3e16-4665-a807-4735962c41d3/95476253-acbc-4b80-80be-f4a25f0f1538"
          (reference "M2402") (unit 1)
        )
      )
    )
  )

  (symbol (lib_id "Device:R_Small") (at 76.2 82.55 0) (unit 1)
    (in_bom yes) (on_board yes) (dnp no) (fields_autoplaced)
    (uuid c95be0c9-847f-4e55-9f10-0149a6bca37d)
    (property "Reference" "R2402" (at 78.74 81.915 0)
      (effects (font (size 1.27 1.27)) (justify left))
    )
    (property "Value" "100k" (at 78.74 84.455 0)
      (effects (font (size 1.27 1.27)) (justify left))
    )
    (property "Footprint" "" (at 76.2 82.55 0)
      (effects (font (size 1.27 1.27)) hide)
    )
    (property "Datasheet" "~" (at 76.2 82.55 0)
      (effects (font (size 1.27 1.27)) hide)
    )
    (pin "1" (uuid 84685492-e295-49de-8174-7dd063cc82b6))
    (pin "2" (uuid bc44c216-f4fd-4842-b0e6-5714cdb6bb8b))
    (instances
      (project "vesc-bms"
        (path "/3e668e3e-3e16-4665-a807-4735962c41d3/95476253-acbc-4b80-80be-f4a25f0f1538"
          (reference "R2402") (unit 1)
        )
      )
    )
  )

  (symbol (lib_name "GND_1") (lib_id "power:GND") (at 107.95 109.22 0) (unit 1)
    (in_bom yes) (on_board yes) (dnp no) (fields_autoplaced)
    (uuid f25c128d-892f-48ce-a925-38cfa68c496d)
    (property "Reference" "#PWR02403" (at 107.95 115.57 0)
      (effects (font (size 1.27 1.27)) hide)
    )
    (property "Value" "GND" (at 107.95 114.3 0)
      (effects (font (size 1.27 1.27)))
    )
    (property "Footprint" "" (at 107.95 109.22 0)
      (effects (font (size 1.27 1.27)) hide)
    )
    (property "Datasheet" "" (at 107.95 109.22 0)
      (effects (font (size 1.27 1.27)) hide)
    )
    (pin "1" (uuid a60ccfd8-546e-45e8-911b-db0ed33c1baf))
    (instances
      (project "vesc-bms"
        (path "/3e668e3e-3e16-4665-a807-4735962c41d3/95476253-acbc-4b80-80be-f4a25f0f1538"
          (reference "#PWR02403") (unit 1)
        )
      )
    )
  )

  (sheet (at 144.78 92.71) (size 12.7 5.08) (fields_autoplaced)
    (stroke (width 0.1524) (type solid))
    (fill (color 0 0 0 0.0000))
    (uuid 093546ac-4b32-4941-93d8-34442ea23c06)
    (property "Sheetname" "NTC1" (at 144.78 91.9984 0)
      (effects (font (size 1.27 1.27)) (justify left bottom) hide)
    )
    (property "Sheetfile" "ntc.kicad_sch" (at 144.78 98.3746 0)
      (effects (font (size 1.27 1.27)) (justify left top) hide)
    )
    (pin "TEMP" output (at 144.78 95.25 180)
      (effects (font (size 1.27 1.27)) (justify left))
      (uuid 3e4f008e-efdb-4389-95d2-6943d606de75)
    )
    (instances
      (project "vesc-bms"
        (path "/3e668e3e-3e16-4665-a807-4735962c41d3/95476253-acbc-4b80-80be-f4a25f0f1538" (page "26"))
      )
    )
  )

  (sheet (at 144.78 99.06) (size 12.7 5.08) (fields_autoplaced)
    (stroke (width 0.1524) (type solid))
    (fill (color 0 0 0 0.0000))
    (uuid 8331fb18-4942-4880-a12f-c73df369bf91)
    (property "Sheetname" "NTC3" (at 144.78 98.3484 0)
      (effects (font (size 1.27 1.27)) (justify left bottom) hide)
    )
    (property "Sheetfile" "ntc.kicad_sch" (at 144.78 104.7246 0)
      (effects (font (size 1.27 1.27)) (justify left top) hide)
    )
    (pin "TEMP" output (at 144.78 101.6 180)
      (effects (font (size 1.27 1.27)) (justify left))
      (uuid 647b4424-970f-4628-bb8c-87a009b0f86c)
    )
    (instances
      (project "vesc-bms"
        (path "/3e668e3e-3e16-4665-a807-4735962c41d3/95476253-acbc-4b80-80be-f4a25f0f1538" (page "29"))
      )
    )
  )

  (sheet (at 144.78 86.36) (size 12.7 5.08) (fields_autoplaced)
    (stroke (width 0.1524) (type solid))
    (fill (color 0 0 0 0.0000))
    (uuid fc1479f0-081a-4b3d-8813-844957f05f0a)
    (property "Sheetname" "NTC" (at 144.78 85.6484 0)
      (effects (font (size 1.27 1.27)) (justify left bottom))
    )
    (property "Sheetfile" "ntc.kicad_sch" (at 144.78 92.0246 0)
      (effects (font (size 1.27 1.27)) (justify left top) hide)
    )
    (pin "TEMP" output (at 144.78 88.9 180)
      (effects (font (size 1.27 1.27)) (justify left))
      (uuid 71ef6ae8-0727-41b9-9e3a-0f8d7ee4a7c5)
    )
    (instances
      (project "vesc-bms"
        (path "/3e668e3e-3e16-4665-a807-4735962c41d3/95476253-acbc-4b80-80be-f4a25f0f1538" (page "25"))
      )
    )
  )
)
