{
  "board": {
    "3dviewports": [],
    "design_settings": {
      "defaults": {
        "board_outline_line_width": 0.09999999999999999,
        "copper_line_width": 0.19999999999999998,
        "copper_text_italic": false,
        "copper_text_size_h": 0.7999999999999999,
        "copper_text_size_v": 0.7999999999999999,
        "copper_text_thickness": 0.15,
        "copper_text_upright": false,
        "courtyard_line_width": 0.049999999999999996,
        "dimension_precision": 4,
        "dimension_units": 2,
        "dimensions": {
          "arrow_length": 1270000,
          "extension_offset": 500000,
          "keep_text_aligned": true,
          "suppress_zeroes": false,
          "text_position": 0,
          "units_format": 1
        },
        "fab_line_width": 0.09999999999999999,
        "fab_text_italic": false,
        "fab_text_size_h": 0.6,
        "fab_text_size_v": 0.6,
        "fab_text_thickness": 0.15,
        "fab_text_upright": false,
        "other_line_width": 0.15,
        "other_text_italic": false,
        "other_text_size_h": 0.7999999999999999,
        "other_text_size_v": 0.7999999999999999,
        "other_text_thickness": 0.15,
        "other_text_upright": false,
        "pads": {
          "drill": 0.0,
          "height": 2.4,
          "width": 4.0
        },
        "silk_line_width": 0.15,
        "silk_text_italic": false,
        "silk_text_size_h": 0.7999999999999999,
        "silk_text_size_v": 0.7999999999999999,
        "silk_text_thickness": 0.15,
        "silk_text_upright": false,
        "zones": {
          "45_degree_only": true,
          "min_clearance": 0.19999999999999998
        }
      },
      "diff_pair_dimensions": [
        {
          "gap": 0.0,
          "via_gap": 0.0,
          "width": 0.0
        }
      ],
      "drc_exclusions": [
        "clearance|180220000|109525000|77abb8ad-fad4-439e-83ec-7c59505cc395|5771b749-e474-4ddd-91a4-256d4db61fa8",
        "clearance|181500000|109525000|77abb8ad-fad4-439e-83ec-7c59505cc395|5771b749-e474-4ddd-91a4-256d4db61fa8",
        "clearance|181850000|109525000|e38a1064-576f-4a13-ae7a-e4cb3ab3b204|5771b749-e474-4ddd-91a4-256d4db61fa8",
        "clearance|181870000|109775000|55a963f9-c2df-4a73-a4b8-b0b69d85eb41|5771b749-e474-4ddd-91a4-256d4db61fa8",
        "clearance|181870000|109775000|d717a4e8-75f0-42f4-852c-738fe5bf2988|5771b749-e474-4ddd-91a4-256d4db61fa8",
        "clearance|183150000|109775000|55a963f9-c2df-4a73-a4b8-b0b69d85eb41|5771b749-e474-4ddd-91a4-256d4db61fa8",
        "copper_edge_clearance|169850000|74550000|9a78f01a-de1f-467e-8d9f-e6a0645db814|c189794b-26e7-4497-9bc2-f5bdf76ed379",
        "copper_edge_clearance|169850000|78650000|423f7b66-d9d0-474b-b48d-f025a889a092|e8ad6b2e-7988-4a4d-9cc7-6754e91c55df",
        "courtyards_overlap|169300001|95475001|0d28d575-5bc0-4e67-9927-5f218489411b|199d6472-8073-4df7-b047-19e8625ba9e5",
        "courtyards_overlap|173339631|41850002|5e8722e9-7b43-46a9-8d22-878ec7a7e611|a95ce777-284a-4f22-8128-95b18ef905fe",
        "courtyards_overlap|182982390|98516313|06d1b67d-710a-415b-a47f-e02062a86f3b|22cede15-84d0-4d60-9388-bc42208a235c",
        "courtyards_overlap|185573102|45768990|5e8722e9-7b43-46a9-8d22-878ec7a7e611|a95ce777-284a-4f22-8128-95b18ef905fe",
        "hole_clearance|169850000|74550000|c189794b-26e7-4497-9bc2-f5bdf76ed379|9a78f01a-de1f-467e-8d9f-e6a0645db814",
        "hole_clearance|169850000|78650000|e8ad6b2e-7988-4a4d-9cc7-6754e91c55df|423f7b66-d9d0-474b-b48d-f025a889a092",
        "silk_edge_clearance|166050000|72620000|76f53cfe-a474-4d06-a4ee-4118e1446cad|ceb9982f-f096-40e1-ab23-07222d14d671",
        "silk_edge_clearance|166050000|80580000|76f53cfe-a474-4d06-a4ee-4118e1446cad|aaf83867-768a-412e-a3bf-667e537e6063",
        "silk_edge_clearance|168375370|42000000|d4c3bf1d-44ca-420e-be6c-89d3b789845e|50d7d372-ef83-4891-b3e5-5a5070f5005d",
        "silk_edge_clearance|170085000|74600000|9a78f01a-de1f-467e-8d9f-e6a0645db814|ccb798bc-765d-4dcc-82f2-705e6591c16c",
        "silk_edge_clearance|189500000|39025100|9a5f6f5a-9d56-4983-83e2-dd223289e3e6|c79dff6a-634d-4b6b-8113-ec92b0803332",
        "silk_edge_clearance|194029413|103130000|32466f1a-cd49-491f-9718-e8075aeda780|50d7d372-ef83-4891-b3e5-5a5070f5005d",
        "solder_mask_bridge|181870000|109775000|5771b749-e474-4ddd-91a4-256d4db61fa8|55a963f9-c2df-4a73-a4b8-b0b69d85eb41",
        "unconnected_items|192000000|50125000|0fe81dad-6f1b-42a0-a0d2-fbeaca74ff1b|00d87c3f-dcb2-4f17-8f7e-c3d33a5a5664",
        "zones_intersect|181100000|60200000|91a8f0f2-6b28-44bc-b05d-bdaaf2550e0a|b5d21efa-2543-4758-bad0-001d71b79366",
        "zones_intersect|181100000|60200000|b5d21efa-2543-4758-bad0-001d71b79366|91a8f0f2-6b28-44bc-b05d-bdaaf2550e0a",
        "zones_intersect|182000000|60200000|b5d21efa-2543-4758-bad0-001d71b79366|91a8f0f2-6b28-44bc-b05d-bdaaf2550e0a"
      ],
      "meta": {
        "version": 2
      },
      "rule_severities": {
        "annular_width": "error",
        "clearance": "error",
        "connection_width": "ignore",
        "copper_edge_clearance": "error",
        "copper_sliver": "warning",
        "courtyards_overlap": "error",
        "diff_pair_gap_out_of_range": "error",
        "diff_pair_uncoupled_length_too_long": "error",
        "drill_out_of_range": "error",
        "duplicate_footprints": "warning",
        "extra_footprint": "warning",
        "footprint": "error",
        "footprint_type_mismatch": "ignore",
        "hole_clearance": "error",
        "hole_near_hole": "error",
        "invalid_outline": "error",
        "isolated_copper": "warning",
        "item_on_disabled_layer": "error",
        "items_not_allowed": "error",
        "length_out_of_range": "error",
        "lib_footprint_issues": "error",
        "lib_footprint_mismatch": "ignore",
        "malformed_courtyard": "ignore",
        "microvia_drill_out_of_range": "error",
        "missing_courtyard": "ignore",
        "missing_footprint": "warning",
        "net_conflict": "warning",
        "npth_inside_courtyard": "ignore",
        "padstack": "error",
        "pth_inside_courtyard": "ignore",
        "shorting_items": "error",
        "silk_edge_clearance": "warning",
        "silk_over_copper": "ignore",
        "silk_overlap": "ignore",
        "skew_out_of_range": "error",
        "solder_mask_bridge": "error",
        "starved_thermal": "error",
        "text_height": "warning",
        "text_thickness": "warning",
        "through_hole_pad_without_hole": "error",
        "too_many_vias": "error",
        "track_dangling": "ignore",
        "track_width": "error",
        "tracks_crossing": "error",
        "unconnected_items": "error",
        "unresolved_variable": "error",
        "via_dangling": "ignore",
        "zones_intersect": "error"
      },
      "rules": {
        "allow_blind_buried_vias": false,
        "allow_microvias": false,
        "max_error": 0.005,
        "min_clearance": 0.09,
        "min_connection": 0.0,
        "min_copper_edge_clearance": 0.19999999999999998,
        "min_hole_clearance": 0.19999999999999998,
        "min_hole_to_hole": 0.254,
        "min_microvia_diameter": 0.19999999999999998,
        "min_microvia_drill": 0.09999999999999999,
        "min_resolved_spokes": 2,
        "min_silk_clearance": 0.0,
        "min_text_height": 0.7999999999999999,
        "min_text_thickness": 0.12,
        "min_through_hole_diameter": 0.19999999999999998,
        "min_track_width": 0.08574999999999999,
        "min_via_annular_width": 0.09999999999999999,
        "min_via_diameter": 0.39999999999999997,
        "solder_mask_to_copper_clearance": 0.0,
        "use_height_for_length_calcs": true
      },
      "teardrop_options": [
        {
          "td_allow_use_two_tracks": true,
          "td_curve_segcount": 5,
          "td_on_pad_in_zone": false,
          "td_onpadsmd": true,
          "td_onroundshapesonly": false,
          "td_ontrackend": false,
          "td_onviapad": true
        }
      ],
      "teardrop_parameters": [
        {
          "td_curve_segcount": 0,
          "td_height_ratio": 1.0,
          "td_length_ratio": 0.5,
          "td_maxheight": 2.0,
          "td_maxlen": 1.0,
          "td_target_name": "td_round_shape",
          "td_width_to_size_filter_ratio": 0.9
        },
        {
          "td_curve_segcount": 0,
          "td_height_ratio": 1.0,
          "td_length_ratio": 0.5,
          "td_maxheight": 2.0,
          "td_maxlen": 1.0,
          "td_target_name": "td_rect_shape",
          "td_width_to_size_filter_ratio": 0.9
        },
        {
          "td_curve_segcount": 0,
          "td_height_ratio": 1.0,
          "td_length_ratio": 0.5,
          "td_maxheight": 2.0,
          "td_maxlen": 1.0,
          "td_target_name": "td_track_end",
          "td_width_to_size_filter_ratio": 0.9
        }
      ],
      "track_widths": [
        0.0,
        0.1,
        0.2,
        0.3,
        0.4
      ],
      "via_dimensions": [
        {
          "diameter": 0.0,
          "drill": 0.0
        },
        {
          "diameter": 0.45,
          "drill": 0.2
        }
      ],
      "zones_allow_external_fillets": false,
      "zones_use_no_outline": true
    },
    "layer_presets": [],
    "viewports": []
  },
  "boards": [],
  "cvpcb": {
    "equivalence_files": []
  },
  "erc": {
    "erc_exclusions": [],
    "meta": {
      "version": 0
    },
    "pin_map": [
      [
        0,
        0,
        0,
        0,
        0,
        0,
        1,
        0,
        0,
        0,
        0,
        2
      ],
      [
        0,
        2,
        0,
        1,
        0,
        0,
        1,
        0,
        2,
        2,
        2,
        2
      ],
      [
        0,
        0,
        0,
        0,
        0,
        0,
        1,
        0,
        1,
        0,
        1,
        2
      ],
      [
        0,
        1,
        0,
        0,
        0,
        0,
        1,
        1,
        2,
        1,
        1,
        2
      ],
      [
        0,
        0,
        0,
        0,
        0,
        0,
        1,
        0,
        0,
        0,
        0,
        2
      ],
      [
        0,
        0,
        0,
        0,
        0,
        0,
        0,
        0,
        0,
        0,
        0,
        2
      ],
      [
        1,
        1,
        1,
        1,
        1,
        0,
        1,
        1,
        1,
        1,
        1,
        2
      ],
      [
        0,
        0,
        0,
        1,
        0,
        0,
        1,
        0,
        0,
        0,
        0,
        2
      ],
      [
        0,
        2,
        1,
        2,
        0,
        0,
        1,
        0,
        2,
        2,
        2,
        2
      ],
      [
        0,
        2,
        0,
        1,
        0,
        0,
        1,
        0,
        2,
        0,
        0,
        2
      ],
      [
        0,
        2,
        1,
        1,
        0,
        0,
        1,
        0,
        2,
        0,
        0,
        2
      ],
      [
        2,
        2,
        2,
        2,
        2,
        2,
        2,
        2,
        2,
        2,
        2,
        2
      ]
    ],
    "rule_severities": {
      "bus_definition_conflict": "error",
      "bus_entry_needed": "error",
      "bus_to_bus_conflict": "error",
      "bus_to_net_conflict": "error",
      "conflicting_netclasses": "error",
      "different_unit_footprint": "error",
      "different_unit_net": "error",
      "duplicate_reference": "error",
      "duplicate_sheet_names": "error",
      "endpoint_off_grid": "warning",
      "extra_units": "error",
      "global_label_dangling": "warning",
      "hier_label_mismatch": "error",
      "label_dangling": "error",
      "lib_symbol_issues": "warning",
      "missing_bidi_pin": "warning",
      "missing_input_pin": "warning",
      "missing_power_pin": "error",
      "missing_unit": "warning",
      "multiple_net_names": "warning",
      "net_not_bus_member": "warning",
      "no_connect_connected": "warning",
      "no_connect_dangling": "warning",
      "pin_not_connected": "error",
      "pin_not_driven": "error",
      "pin_to_pin": "warning",
      "power_pin_not_driven": "error",
      "similar_labels": "warning",
      "simulation_model_issue": "error",
      "unannotated": "error",
      "unit_value_mismatch": "error",
      "unresolved_variable": "error",
      "wire_dangling": "error"
    }
  },
  "libraries": {
    "pinned_footprint_libs": [],
    "pinned_symbol_libs": []
  },
  "meta": {
    "filename": "sensor-epaper.kicad_pro",
    "version": 1
  },
  "net_settings": {
    "classes": [
      {
        "bus_width": 19,
        "clearance": 0.09,
        "diff_pair_gap": 0.25,
        "diff_pair_via_gap": 0.25,
        "diff_pair_width": 0.2,
        "line_style": 0,
        "microvia_diameter": 0.3,
        "microvia_drill": 0.1,
        "name": "Default",
        "pcb_color": "rgba(0, 0, 0, 0.000)",
        "schematic_color": "rgba(0, 0, 0, 0.000)",
        "track_width": 0.1,
        "via_diameter": 0.45,
        "via_drill": 0.2,
        "wire_width": 5
      },
      {
        "bus_width": 12,
        "clearance": 0.09,
        "diff_pair_gap": 0.25,
        "diff_pair_via_gap": 0.25,
        "diff_pair_width": 0.2,
        "line_style": 0,
        "microvia_diameter": 0.3,
        "microvia_drill": 0.1,
        "name": "50ohm",
        "pcb_color": "rgba(0, 0, 0, 0.000)",
        "schematic_color": "rgba(0, 0, 0, 0.000)",
        "track_width": 0.283,
        "via_diameter": 0.45,
        "via_drill": 0.2,
        "wire_width": 6
      },
      {
        "bus_width": 12,
        "clearance": 0.09,
        "diff_pair_gap": 0.098,
        "diff_pair_via_gap": 0.25,
        "diff_pair_width": 0.169,
        "line_style": 0,
        "microvia_diameter": 0.3,
        "microvia_drill": 0.1,
        "name": "90ohm diff",
        "pcb_color": "rgba(0, 0, 0, 0.000)",
        "schematic_color": "rgba(0, 0, 0, 0.000)",
        "track_width": 0.1,
        "via_diameter": 0.45,
        "via_drill": 0.2,
        "wire_width": 6
      }
    ],
    "meta": {
      "version": 3
    },
    "net_colors": null,
    "netclass_assignments": null,
    "netclass_patterns": [
      {
        "netclass": "90ohm diff",
        "pattern": "/D+"
      },
      {
        "netclass": "90ohm diff",
        "pattern": "/D-"
      },
      {
        "netclass": "50ohm",
        "pattern": "/ANT*"
      }
    ]
  },
  "pcbnew": {
    "last_paths": {
      "gencad": "",
      "idf": "",
      "netlist": "",
      "specctra_dsn": "",
      "step": "sensor-epaper.step",
      "vrml": ""
    },
    "page_layout_descr_file": ""
  },
  "schematic": {
    "annotate_start_num": 0,
    "drawing": {
      "dashed_lines_dash_length_ratio": 12.0,
      "dashed_lines_gap_length_ratio": 3.0,
      "default_bus_thickness": 12.0,
      "default_junction_size": 36.0,
      "default_line_thickness": 6.0,
      "default_text_size": 50.0,
      "default_wire_thickness": 6.0,
      "field_names": [],
      "intersheets_ref_own_page": false,
      "intersheets_ref_prefix": "",
      "intersheets_ref_short": false,
      "intersheets_ref_show": false,
      "intersheets_ref_suffix": "",
      "junction_size_choice": 3,
      "label_size_ratio": 0.3,
      "pin_symbol_size": 25.0,
      "text_offset_ratio": 0.3
    },
    "legacy_lib_dir": "",
    "legacy_lib_list": [],
    "meta": {
      "version": 1
    },
    "net_format_name": "",
    "ngspice": {
      "fix_include_paths": true,
      "fix_passive_vals": false,
      "meta": {
        "version": 0
      },
      "model_mode": 0,
      "workbook_filename": ""
    },
    "page_layout_descr_file": "",
    "plot_directory": "",
    "spice_adjust_passive_values": false,
    "spice_current_sheet_as_root": false,
    "spice_external_command": "spice \"%I\"",
    "spice_model_current_sheet_as_root": true,
    "spice_save_all_currents": false,
    "spice_save_all_voltages": false,
    "subpart_first_id": 65,
    "subpart_id_separator": 0
  },
  "sheets": [
    [
      "8b915f44-d92b-4376-8a4d-f445b50a784a",
      ""
    ],
    [
      "717c6736-2a95-4424-a35e-11020ba9e52f",
      "I2C-interface"
    ]
  ],
  "text_variables": {}
}
