(kicad_sch (version 20230121) (generator eeschema)

  (uuid 3ce3e180-730f-4841-9951-c95bd9d521a5)

  (paper "A")

  (title_block
    (title "pico_synth_sandbox - LiPo Battery Power & Charging")
    (date "2023-09-19")
    (rev "2")
    (comment 3 "pico-synth-sandbox.dcdalrymple.com")
    (comment 4 "D Cooper Dalrymple")
  )

  (lib_symbols
    (symbol "Battery_Management:AP9101CK6" (in_bom yes) (on_board yes)
      (property "Reference" "U" (at -7.62 6.35 0)
        (effects (font (size 1.27 1.27)) (justify left))
      )
      (property "Value" "AP9101CK6" (at 7.62 6.35 0)
        (effects (font (size 1.27 1.27)))
      )
      (property "Footprint" "Package_TO_SOT_SMD:SOT-23-6" (at 0 0 0)
        (effects (font (size 1.27 1.27)) hide)
      )
      (property "Datasheet" "https://www.diodes.com/assets/Datasheets/AP9101C.pdf" (at 0 1.27 0)
        (effects (font (size 1.27 1.27)) hide)
      )
      (property "ki_keywords" "battery protection li-ion li-po" (at 0 0 0)
        (effects (font (size 1.27 1.27)) hide)
      )
      (property "ki_description" "Li+ Battery Protection IC for Single Cell Pack, SOT-23-6" (at 0 0 0)
        (effects (font (size 1.27 1.27)) hide)
      )
      (property "ki_fp_filters" "SOT?23*" (at 0 0 0)
        (effects (font (size 1.27 1.27)) hide)
      )
      (symbol "AP9101CK6_0_1"
        (rectangle (start -7.62 5.08) (end 7.62 -5.08)
          (stroke (width 0.254) (type default))
          (fill (type background))
        )
      )
      (symbol "AP9101CK6_1_1"
        (pin output line (at 10.16 -2.54 180) (length 2.54)
          (name "DO" (effects (font (size 1.27 1.27))))
          (number "1" (effects (font (size 1.27 1.27))))
        )
        (pin passive line (at -10.16 0 0) (length 2.54)
          (name "VM" (effects (font (size 1.27 1.27))))
          (number "2" (effects (font (size 1.27 1.27))))
        )
        (pin output line (at 10.16 2.54 180) (length 2.54)
          (name "CO" (effects (font (size 1.27 1.27))))
          (number "3" (effects (font (size 1.27 1.27))))
        )
        (pin no_connect line (at -7.62 -2.54 0) (length 2.54) hide
          (name "NC" (effects (font (size 1.27 1.27))))
          (number "4" (effects (font (size 1.27 1.27))))
        )
        (pin power_in line (at 0 7.62 270) (length 2.54)
          (name "VDD" (effects (font (size 1.27 1.27))))
          (number "5" (effects (font (size 1.27 1.27))))
        )
        (pin power_in line (at 0 -7.62 90) (length 2.54)
          (name "VSS" (effects (font (size 1.27 1.27))))
          (number "6" (effects (font (size 1.27 1.27))))
        )
      )
    )
    (symbol "Battery_Management:MCP73831-5-OT" (in_bom yes) (on_board yes)
      (property "Reference" "U" (at -7.62 6.35 0)
        (effects (font (size 1.27 1.27)) (justify left))
      )
      (property "Value" "MCP73831-5-OT" (at 1.27 6.35 0)
        (effects (font (size 1.27 1.27)) (justify left))
      )
      (property "Footprint" "Package_TO_SOT_SMD:SOT-23-5" (at 1.27 -6.35 0)
        (effects (font (size 1.27 1.27) italic) (justify left) hide)
      )
      (property "Datasheet" "http://ww1.microchip.com/downloads/en/DeviceDoc/20001984g.pdf" (at -3.81 -1.27 0)
        (effects (font (size 1.27 1.27)) hide)
      )
      (property "ki_keywords" "battery charger lithium" (at 0 0 0)
        (effects (font (size 1.27 1.27)) hide)
      )
      (property "ki_description" "Single cell, Li-Ion/Li-Po charge management controller, 4.50V, Tri-State Status Output, in SOT23-5 package" (at 0 0 0)
        (effects (font (size 1.27 1.27)) hide)
      )
      (property "ki_fp_filters" "SOT?23*" (at 0 0 0)
        (effects (font (size 1.27 1.27)) hide)
      )
      (symbol "MCP73831-5-OT_0_1"
        (rectangle (start -7.62 5.08) (end 7.62 -5.08)
          (stroke (width 0.254) (type default))
          (fill (type background))
        )
      )
      (symbol "MCP73831-5-OT_1_1"
        (pin output line (at 10.16 -2.54 180) (length 2.54)
          (name "STAT" (effects (font (size 1.27 1.27))))
          (number "1" (effects (font (size 1.27 1.27))))
        )
        (pin power_in line (at 0 -7.62 90) (length 2.54)
          (name "V_{SS}" (effects (font (size 1.27 1.27))))
          (number "2" (effects (font (size 1.27 1.27))))
        )
        (pin power_out line (at 10.16 2.54 180) (length 2.54)
          (name "V_{BAT}" (effects (font (size 1.27 1.27))))
          (number "3" (effects (font (size 1.27 1.27))))
        )
        (pin power_in line (at 0 7.62 270) (length 2.54)
          (name "V_{DD}" (effects (font (size 1.27 1.27))))
          (number "4" (effects (font (size 1.27 1.27))))
        )
        (pin input line (at -10.16 -2.54 0) (length 2.54)
          (name "PROG" (effects (font (size 1.27 1.27))))
          (number "5" (effects (font (size 1.27 1.27))))
        )
      )
    )
    (symbol "Device:Battery_Cell" (pin_numbers hide) (pin_names (offset 0) hide) (in_bom yes) (on_board yes)
      (property "Reference" "BT" (at 2.54 2.54 0)
        (effects (font (size 1.27 1.27)) (justify left))
      )
      (property "Value" "Battery_Cell" (at 2.54 0 0)
        (effects (font (size 1.27 1.27)) (justify left))
      )
      (property "Footprint" "" (at 0 1.524 90)
        (effects (font (size 1.27 1.27)) hide)
      )
      (property "Datasheet" "~" (at 0 1.524 90)
        (effects (font (size 1.27 1.27)) hide)
      )
      (property "ki_keywords" "battery cell" (at 0 0 0)
        (effects (font (size 1.27 1.27)) hide)
      )
      (property "ki_description" "Single-cell battery" (at 0 0 0)
        (effects (font (size 1.27 1.27)) hide)
      )
      (symbol "Battery_Cell_0_1"
        (rectangle (start -2.286 1.778) (end 2.286 1.524)
          (stroke (width 0) (type default))
          (fill (type outline))
        )
        (rectangle (start -1.524 1.016) (end 1.524 0.508)
          (stroke (width 0) (type default))
          (fill (type outline))
        )
        (polyline
          (pts
            (xy 0 0.762)
            (xy 0 0)
          )
          (stroke (width 0) (type default))
          (fill (type none))
        )
        (polyline
          (pts
            (xy 0 1.778)
            (xy 0 2.54)
          )
          (stroke (width 0) (type default))
          (fill (type none))
        )
        (polyline
          (pts
            (xy 0.762 3.048)
            (xy 1.778 3.048)
          )
          (stroke (width 0.254) (type default))
          (fill (type none))
        )
        (polyline
          (pts
            (xy 1.27 3.556)
            (xy 1.27 2.54)
          )
          (stroke (width 0.254) (type default))
          (fill (type none))
        )
      )
      (symbol "Battery_Cell_1_1"
        (pin passive line (at 0 5.08 270) (length 2.54)
          (name "+" (effects (font (size 1.27 1.27))))
          (number "1" (effects (font (size 1.27 1.27))))
        )
        (pin passive line (at 0 -2.54 90) (length 2.54)
          (name "-" (effects (font (size 1.27 1.27))))
          (number "2" (effects (font (size 1.27 1.27))))
        )
      )
    )
    (symbol "Device:C_Small" (pin_numbers hide) (pin_names (offset 0.254) hide) (in_bom yes) (on_board yes)
      (property "Reference" "C" (at 0.254 1.778 0)
        (effects (font (size 1.27 1.27)) (justify left))
      )
      (property "Value" "C_Small" (at 0.254 -2.032 0)
        (effects (font (size 1.27 1.27)) (justify left))
      )
      (property "Footprint" "" (at 0 0 0)
        (effects (font (size 1.27 1.27)) hide)
      )
      (property "Datasheet" "~" (at 0 0 0)
        (effects (font (size 1.27 1.27)) hide)
      )
      (property "ki_keywords" "capacitor cap" (at 0 0 0)
        (effects (font (size 1.27 1.27)) hide)
      )
      (property "ki_description" "Unpolarized capacitor, small symbol" (at 0 0 0)
        (effects (font (size 1.27 1.27)) hide)
      )
      (property "ki_fp_filters" "C_*" (at 0 0 0)
        (effects (font (size 1.27 1.27)) hide)
      )
      (symbol "C_Small_0_1"
        (polyline
          (pts
            (xy -1.524 -0.508)
            (xy 1.524 -0.508)
          )
          (stroke (width 0.3302) (type default))
          (fill (type none))
        )
        (polyline
          (pts
            (xy -1.524 0.508)
            (xy 1.524 0.508)
          )
          (stroke (width 0.3048) (type default))
          (fill (type none))
        )
      )
      (symbol "C_Small_1_1"
        (pin passive line (at 0 2.54 270) (length 2.032)
          (name "~" (effects (font (size 1.27 1.27))))
          (number "1" (effects (font (size 1.27 1.27))))
        )
        (pin passive line (at 0 -2.54 90) (length 2.032)
          (name "~" (effects (font (size 1.27 1.27))))
          (number "2" (effects (font (size 1.27 1.27))))
        )
      )
    )
    (symbol "Device:LED" (pin_numbers hide) (pin_names (offset 1.016) hide) (in_bom yes) (on_board yes)
      (property "Reference" "D" (at 0 2.54 0)
        (effects (font (size 1.27 1.27)))
      )
      (property "Value" "LED" (at 0 -2.54 0)
        (effects (font (size 1.27 1.27)))
      )
      (property "Footprint" "" (at 0 0 0)
        (effects (font (size 1.27 1.27)) hide)
      )
      (property "Datasheet" "~" (at 0 0 0)
        (effects (font (size 1.27 1.27)) hide)
      )
      (property "ki_keywords" "LED diode" (at 0 0 0)
        (effects (font (size 1.27 1.27)) hide)
      )
      (property "ki_description" "Light emitting diode" (at 0 0 0)
        (effects (font (size 1.27 1.27)) hide)
      )
      (property "ki_fp_filters" "LED* LED_SMD:* LED_THT:*" (at 0 0 0)
        (effects (font (size 1.27 1.27)) hide)
      )
      (symbol "LED_0_1"
        (polyline
          (pts
            (xy -1.27 -1.27)
            (xy -1.27 1.27)
          )
          (stroke (width 0.254) (type default))
          (fill (type none))
        )
        (polyline
          (pts
            (xy -1.27 0)
            (xy 1.27 0)
          )
          (stroke (width 0) (type default))
          (fill (type none))
        )
        (polyline
          (pts
            (xy 1.27 -1.27)
            (xy 1.27 1.27)
            (xy -1.27 0)
            (xy 1.27 -1.27)
          )
          (stroke (width 0.254) (type default))
          (fill (type none))
        )
        (polyline
          (pts
            (xy -3.048 -0.762)
            (xy -4.572 -2.286)
            (xy -3.81 -2.286)
            (xy -4.572 -2.286)
            (xy -4.572 -1.524)
          )
          (stroke (width 0) (type default))
          (fill (type none))
        )
        (polyline
          (pts
            (xy -1.778 -0.762)
            (xy -3.302 -2.286)
            (xy -2.54 -2.286)
            (xy -3.302 -2.286)
            (xy -3.302 -1.524)
          )
          (stroke (width 0) (type default))
          (fill (type none))
        )
      )
      (symbol "LED_1_1"
        (pin passive line (at -3.81 0 0) (length 2.54)
          (name "K" (effects (font (size 1.27 1.27))))
          (number "1" (effects (font (size 1.27 1.27))))
        )
        (pin passive line (at 3.81 0 180) (length 2.54)
          (name "A" (effects (font (size 1.27 1.27))))
          (number "2" (effects (font (size 1.27 1.27))))
        )
      )
    )
    (symbol "Device:R_Small" (pin_numbers hide) (pin_names (offset 0.254) hide) (in_bom yes) (on_board yes)
      (property "Reference" "R" (at 0.762 0.508 0)
        (effects (font (size 1.27 1.27)) (justify left))
      )
      (property "Value" "R_Small" (at 0.762 -1.016 0)
        (effects (font (size 1.27 1.27)) (justify left))
      )
      (property "Footprint" "" (at 0 0 0)
        (effects (font (size 1.27 1.27)) hide)
      )
      (property "Datasheet" "~" (at 0 0 0)
        (effects (font (size 1.27 1.27)) hide)
      )
      (property "ki_keywords" "R resistor" (at 0 0 0)
        (effects (font (size 1.27 1.27)) hide)
      )
      (property "ki_description" "Resistor, small symbol" (at 0 0 0)
        (effects (font (size 1.27 1.27)) hide)
      )
      (property "ki_fp_filters" "R_*" (at 0 0 0)
        (effects (font (size 1.27 1.27)) hide)
      )
      (symbol "R_Small_0_1"
        (rectangle (start -0.762 1.778) (end 0.762 -1.778)
          (stroke (width 0.2032) (type default))
          (fill (type none))
        )
      )
      (symbol "R_Small_1_1"
        (pin passive line (at 0 2.54 270) (length 0.762)
          (name "~" (effects (font (size 1.27 1.27))))
          (number "1" (effects (font (size 1.27 1.27))))
        )
        (pin passive line (at 0 -2.54 90) (length 0.762)
          (name "~" (effects (font (size 1.27 1.27))))
          (number "2" (effects (font (size 1.27 1.27))))
        )
      )
    )
    (symbol "Transistor_FET:BSS138" (pin_names hide) (in_bom yes) (on_board yes)
      (property "Reference" "Q" (at 5.08 1.905 0)
        (effects (font (size 1.27 1.27)) (justify left))
      )
      (property "Value" "BSS138" (at 5.08 0 0)
        (effects (font (size 1.27 1.27)) (justify left))
      )
      (property "Footprint" "Package_TO_SOT_SMD:SOT-23" (at 5.08 -1.905 0)
        (effects (font (size 1.27 1.27) italic) (justify left) hide)
      )
      (property "Datasheet" "https://www.onsemi.com/pub/Collateral/BSS138-D.PDF" (at 0 0 0)
        (effects (font (size 1.27 1.27)) (justify left) hide)
      )
      (property "ki_keywords" "N-Channel MOSFET" (at 0 0 0)
        (effects (font (size 1.27 1.27)) hide)
      )
      (property "ki_description" "50V Vds, 0.22A Id, N-Channel MOSFET, SOT-23" (at 0 0 0)
        (effects (font (size 1.27 1.27)) hide)
      )
      (property "ki_fp_filters" "SOT?23*" (at 0 0 0)
        (effects (font (size 1.27 1.27)) hide)
      )
      (symbol "BSS138_0_1"
        (polyline
          (pts
            (xy 0.254 0)
            (xy -2.54 0)
          )
          (stroke (width 0) (type default))
          (fill (type none))
        )
        (polyline
          (pts
            (xy 0.254 1.905)
            (xy 0.254 -1.905)
          )
          (stroke (width 0.254) (type default))
          (fill (type none))
        )
        (polyline
          (pts
            (xy 0.762 -1.27)
            (xy 0.762 -2.286)
          )
          (stroke (width 0.254) (type default))
          (fill (type none))
        )
        (polyline
          (pts
            (xy 0.762 0.508)
            (xy 0.762 -0.508)
          )
          (stroke (width 0.254) (type default))
          (fill (type none))
        )
        (polyline
          (pts
            (xy 0.762 2.286)
            (xy 0.762 1.27)
          )
          (stroke (width 0.254) (type default))
          (fill (type none))
        )
        (polyline
          (pts
            (xy 2.54 2.54)
            (xy 2.54 1.778)
          )
          (stroke (width 0) (type default))
          (fill (type none))
        )
        (polyline
          (pts
            (xy 2.54 -2.54)
            (xy 2.54 0)
            (xy 0.762 0)
          )
          (stroke (width 0) (type default))
          (fill (type none))
        )
        (polyline
          (pts
            (xy 0.762 -1.778)
            (xy 3.302 -1.778)
            (xy 3.302 1.778)
            (xy 0.762 1.778)
          )
          (stroke (width 0) (type default))
          (fill (type none))
        )
        (polyline
          (pts
            (xy 1.016 0)
            (xy 2.032 0.381)
            (xy 2.032 -0.381)
            (xy 1.016 0)
          )
          (stroke (width 0) (type default))
          (fill (type outline))
        )
        (polyline
          (pts
            (xy 2.794 0.508)
            (xy 2.921 0.381)
            (xy 3.683 0.381)
            (xy 3.81 0.254)
          )
          (stroke (width 0) (type default))
          (fill (type none))
        )
        (polyline
          (pts
            (xy 3.302 0.381)
            (xy 2.921 -0.254)
            (xy 3.683 -0.254)
            (xy 3.302 0.381)
          )
          (stroke (width 0) (type default))
          (fill (type none))
        )
        (circle (center 1.651 0) (radius 2.794)
          (stroke (width 0.254) (type default))
          (fill (type none))
        )
        (circle (center 2.54 -1.778) (radius 0.254)
          (stroke (width 0) (type default))
          (fill (type outline))
        )
        (circle (center 2.54 1.778) (radius 0.254)
          (stroke (width 0) (type default))
          (fill (type outline))
        )
      )
      (symbol "BSS138_1_1"
        (pin input line (at -5.08 0 0) (length 2.54)
          (name "G" (effects (font (size 1.27 1.27))))
          (number "1" (effects (font (size 1.27 1.27))))
        )
        (pin passive line (at 2.54 -5.08 90) (length 2.54)
          (name "S" (effects (font (size 1.27 1.27))))
          (number "2" (effects (font (size 1.27 1.27))))
        )
        (pin passive line (at 2.54 5.08 270) (length 2.54)
          (name "D" (effects (font (size 1.27 1.27))))
          (number "3" (effects (font (size 1.27 1.27))))
        )
      )
    )
    (symbol "Transistor_FET:BSS84" (pin_names hide) (in_bom yes) (on_board yes)
      (property "Reference" "Q" (at 5.08 1.905 0)
        (effects (font (size 1.27 1.27)) (justify left))
      )
      (property "Value" "BSS84" (at 5.08 0 0)
        (effects (font (size 1.27 1.27)) (justify left))
      )
      (property "Footprint" "Package_TO_SOT_SMD:SOT-23" (at 5.08 -1.905 0)
        (effects (font (size 1.27 1.27) italic) (justify left) hide)
      )
      (property "Datasheet" "http://assets.nexperia.com/documents/data-sheet/BSS84.pdf" (at 0 0 0)
        (effects (font (size 1.27 1.27)) (justify left) hide)
      )
      (property "ki_keywords" "P-Channel MOSFET" (at 0 0 0)
        (effects (font (size 1.27 1.27)) hide)
      )
      (property "ki_description" "-0.13A Id, -50V Vds, P-Channel MOSFET, SOT-23" (at 0 0 0)
        (effects (font (size 1.27 1.27)) hide)
      )
      (property "ki_fp_filters" "SOT?23*" (at 0 0 0)
        (effects (font (size 1.27 1.27)) hide)
      )
      (symbol "BSS84_0_1"
        (polyline
          (pts
            (xy 0.254 0)
            (xy -2.54 0)
          )
          (stroke (width 0) (type default))
          (fill (type none))
        )
        (polyline
          (pts
            (xy 0.254 1.905)
            (xy 0.254 -1.905)
          )
          (stroke (width 0.254) (type default))
          (fill (type none))
        )
        (polyline
          (pts
            (xy 0.762 -1.27)
            (xy 0.762 -2.286)
          )
          (stroke (width 0.254) (type default))
          (fill (type none))
        )
        (polyline
          (pts
            (xy 0.762 0.508)
            (xy 0.762 -0.508)
          )
          (stroke (width 0.254) (type default))
          (fill (type none))
        )
        (polyline
          (pts
            (xy 0.762 2.286)
            (xy 0.762 1.27)
          )
          (stroke (width 0.254) (type default))
          (fill (type none))
        )
        (polyline
          (pts
            (xy 2.54 2.54)
            (xy 2.54 1.778)
          )
          (stroke (width 0) (type default))
          (fill (type none))
        )
        (polyline
          (pts
            (xy 2.54 -2.54)
            (xy 2.54 0)
            (xy 0.762 0)
          )
          (stroke (width 0) (type default))
          (fill (type none))
        )
        (polyline
          (pts
            (xy 0.762 1.778)
            (xy 3.302 1.778)
            (xy 3.302 -1.778)
            (xy 0.762 -1.778)
          )
          (stroke (width 0) (type default))
          (fill (type none))
        )
        (polyline
          (pts
            (xy 2.286 0)
            (xy 1.27 0.381)
            (xy 1.27 -0.381)
            (xy 2.286 0)
          )
          (stroke (width 0) (type default))
          (fill (type outline))
        )
        (polyline
          (pts
            (xy 2.794 -0.508)
            (xy 2.921 -0.381)
            (xy 3.683 -0.381)
            (xy 3.81 -0.254)
          )
          (stroke (width 0) (type default))
          (fill (type none))
        )
        (polyline
          (pts
            (xy 3.302 -0.381)
            (xy 2.921 0.254)
            (xy 3.683 0.254)
            (xy 3.302 -0.381)
          )
          (stroke (width 0) (type default))
          (fill (type none))
        )
        (circle (center 1.651 0) (radius 2.794)
          (stroke (width 0.254) (type default))
          (fill (type none))
        )
        (circle (center 2.54 -1.778) (radius 0.254)
          (stroke (width 0) (type default))
          (fill (type outline))
        )
        (circle (center 2.54 1.778) (radius 0.254)
          (stroke (width 0) (type default))
          (fill (type outline))
        )
      )
      (symbol "BSS84_1_1"
        (pin input line (at -5.08 0 0) (length 2.54)
          (name "G" (effects (font (size 1.27 1.27))))
          (number "1" (effects (font (size 1.27 1.27))))
        )
        (pin passive line (at 2.54 -5.08 90) (length 2.54)
          (name "S" (effects (font (size 1.27 1.27))))
          (number "2" (effects (font (size 1.27 1.27))))
        )
        (pin passive line (at 2.54 5.08 270) (length 2.54)
          (name "D" (effects (font (size 1.27 1.27))))
          (number "3" (effects (font (size 1.27 1.27))))
        )
      )
    )
    (symbol "pico_synth_sandbox:VBAT" (power) (pin_names (offset 0)) (in_bom yes) (on_board yes)
      (property "Reference" "#PWR" (at 0 -3.81 0)
        (effects (font (size 1.27 1.27)) hide)
      )
      (property "Value" "VBAT" (at 0 3.81 0)
        (effects (font (size 1.27 1.27)))
      )
      (property "Footprint" "" (at 0 0 0)
        (effects (font (size 1.27 1.27)) hide)
      )
      (property "Datasheet" "" (at 0 0 0)
        (effects (font (size 1.27 1.27)) hide)
      )
      (property "ki_keywords" "global power" (at 0 0 0)
        (effects (font (size 1.27 1.27)) hide)
      )
      (property "ki_description" "Power symbol creates a global label with name \"VBUS\"" (at 0 0 0)
        (effects (font (size 1.27 1.27)) hide)
      )
      (symbol "VBAT_0_1"
        (polyline
          (pts
            (xy -0.762 1.27)
            (xy 0 2.54)
          )
          (stroke (width 0) (type default))
          (fill (type none))
        )
        (polyline
          (pts
            (xy 0 0)
            (xy 0 2.54)
          )
          (stroke (width 0) (type default))
          (fill (type none))
        )
        (polyline
          (pts
            (xy 0 2.54)
            (xy 0.762 1.27)
          )
          (stroke (width 0) (type default))
          (fill (type none))
        )
      )
      (symbol "VBAT_1_1"
        (pin power_in line (at 0 0 90) (length 0) hide
          (name "VBAT" (effects (font (size 1.27 1.27))))
          (number "1" (effects (font (size 1.27 1.27))))
        )
      )
    )
    (symbol "pico_synth_sandbox:VSYS" (power) (pin_names (offset 0)) (in_bom yes) (on_board yes)
      (property "Reference" "#PWR" (at 0 -3.81 0)
        (effects (font (size 1.27 1.27)) hide)
      )
      (property "Value" "VSYS" (at 0 3.81 0)
        (effects (font (size 1.27 1.27)))
      )
      (property "Footprint" "" (at 0 0 0)
        (effects (font (size 1.27 1.27)) hide)
      )
      (property "Datasheet" "" (at 0 0 0)
        (effects (font (size 1.27 1.27)) hide)
      )
      (property "ki_keywords" "global power" (at 0 0 0)
        (effects (font (size 1.27 1.27)) hide)
      )
      (property "ki_description" "Power symbol creates a global label with name \"VBUS\"" (at 0 0 0)
        (effects (font (size 1.27 1.27)) hide)
      )
      (symbol "VSYS_0_1"
        (polyline
          (pts
            (xy -0.762 1.27)
            (xy 0 2.54)
          )
          (stroke (width 0) (type default))
          (fill (type none))
        )
        (polyline
          (pts
            (xy 0 0)
            (xy 0 2.54)
          )
          (stroke (width 0) (type default))
          (fill (type none))
        )
        (polyline
          (pts
            (xy 0 2.54)
            (xy 0.762 1.27)
          )
          (stroke (width 0) (type default))
          (fill (type none))
        )
      )
      (symbol "VSYS_1_1"
        (pin power_in line (at 0 0 90) (length 0) hide
          (name "VSYS" (effects (font (size 1.27 1.27))))
          (number "1" (effects (font (size 1.27 1.27))))
        )
      )
    )
    (symbol "pico_synth_sandbox:VSYS&VBAT" (power) (pin_names (offset 0)) (in_bom yes) (on_board yes)
      (property "Reference" "#PWR" (at 0 -3.81 0)
        (effects (font (size 1.27 1.27)) hide)
      )
      (property "Value" "VSYS&VBAT" (at 0 3.81 0)
        (effects (font (size 1.27 1.27)))
      )
      (property "Footprint" "" (at 0 0 0)
        (effects (font (size 1.27 1.27)) hide)
      )
      (property "Datasheet" "" (at 0 0 0)
        (effects (font (size 1.27 1.27)) hide)
      )
      (property "ki_keywords" "global power" (at 0 0 0)
        (effects (font (size 1.27 1.27)) hide)
      )
      (property "ki_description" "Power symbol creates a global label with name \"VBUS\"" (at 0 0 0)
        (effects (font (size 1.27 1.27)) hide)
      )
      (symbol "VSYS&VBAT_0_1"
        (polyline
          (pts
            (xy -0.762 1.27)
            (xy 0 2.54)
          )
          (stroke (width 0) (type default))
          (fill (type none))
        )
        (polyline
          (pts
            (xy 0 0)
            (xy 0 2.54)
          )
          (stroke (width 0) (type default))
          (fill (type none))
        )
        (polyline
          (pts
            (xy 0 2.54)
            (xy 0.762 1.27)
          )
          (stroke (width 0) (type default))
          (fill (type none))
        )
      )
      (symbol "VSYS&VBAT_1_1"
        (pin power_in line (at 0 0 90) (length 0) hide
          (name "VSYS&VBAT" (effects (font (size 1.27 1.27))))
          (number "1" (effects (font (size 1.27 1.27))))
        )
      )
    )
    (symbol "power:+3.3V" (power) (pin_names (offset 0)) (in_bom yes) (on_board yes)
      (property "Reference" "#PWR" (at 0 -3.81 0)
        (effects (font (size 1.27 1.27)) hide)
      )
      (property "Value" "+3.3V" (at 0 3.556 0)
        (effects (font (size 1.27 1.27)))
      )
      (property "Footprint" "" (at 0 0 0)
        (effects (font (size 1.27 1.27)) hide)
      )
      (property "Datasheet" "" (at 0 0 0)
        (effects (font (size 1.27 1.27)) hide)
      )
      (property "ki_keywords" "global power" (at 0 0 0)
        (effects (font (size 1.27 1.27)) hide)
      )
      (property "ki_description" "Power symbol creates a global label with name \"+3.3V\"" (at 0 0 0)
        (effects (font (size 1.27 1.27)) hide)
      )
      (symbol "+3.3V_0_1"
        (polyline
          (pts
            (xy -0.762 1.27)
            (xy 0 2.54)
          )
          (stroke (width 0) (type default))
          (fill (type none))
        )
        (polyline
          (pts
            (xy 0 0)
            (xy 0 2.54)
          )
          (stroke (width 0) (type default))
          (fill (type none))
        )
        (polyline
          (pts
            (xy 0 2.54)
            (xy 0.762 1.27)
          )
          (stroke (width 0) (type default))
          (fill (type none))
        )
      )
      (symbol "+3.3V_1_1"
        (pin power_in line (at 0 0 90) (length 0) hide
          (name "+3.3V" (effects (font (size 1.27 1.27))))
          (number "1" (effects (font (size 1.27 1.27))))
        )
      )
    )
    (symbol "power:+BATT" (power) (pin_names (offset 0)) (in_bom yes) (on_board yes)
      (property "Reference" "#PWR" (at 0 -3.81 0)
        (effects (font (size 1.27 1.27)) hide)
      )
      (property "Value" "+BATT" (at 0 3.556 0)
        (effects (font (size 1.27 1.27)))
      )
      (property "Footprint" "" (at 0 0 0)
        (effects (font (size 1.27 1.27)) hide)
      )
      (property "Datasheet" "" (at 0 0 0)
        (effects (font (size 1.27 1.27)) hide)
      )
      (property "ki_keywords" "global power battery" (at 0 0 0)
        (effects (font (size 1.27 1.27)) hide)
      )
      (property "ki_description" "Power symbol creates a global label with name \"+BATT\"" (at 0 0 0)
        (effects (font (size 1.27 1.27)) hide)
      )
      (symbol "+BATT_0_1"
        (polyline
          (pts
            (xy -0.762 1.27)
            (xy 0 2.54)
          )
          (stroke (width 0) (type default))
          (fill (type none))
        )
        (polyline
          (pts
            (xy 0 0)
            (xy 0 2.54)
          )
          (stroke (width 0) (type default))
          (fill (type none))
        )
        (polyline
          (pts
            (xy 0 2.54)
            (xy 0.762 1.27)
          )
          (stroke (width 0) (type default))
          (fill (type none))
        )
      )
      (symbol "+BATT_1_1"
        (pin power_in line (at 0 0 90) (length 0) hide
          (name "+BATT" (effects (font (size 1.27 1.27))))
          (number "1" (effects (font (size 1.27 1.27))))
        )
      )
    )
    (symbol "power:-BATT" (power) (pin_names (offset 0)) (in_bom yes) (on_board yes)
      (property "Reference" "#PWR" (at 0 -3.81 0)
        (effects (font (size 1.27 1.27)) hide)
      )
      (property "Value" "-BATT" (at 0 3.556 0)
        (effects (font (size 1.27 1.27)))
      )
      (property "Footprint" "" (at 0 0 0)
        (effects (font (size 1.27 1.27)) hide)
      )
      (property "Datasheet" "" (at 0 0 0)
        (effects (font (size 1.27 1.27)) hide)
      )
      (property "ki_keywords" "global power battery" (at 0 0 0)
        (effects (font (size 1.27 1.27)) hide)
      )
      (property "ki_description" "Power symbol creates a global label with name \"-BATT\"" (at 0 0 0)
        (effects (font (size 1.27 1.27)) hide)
      )
      (symbol "-BATT_0_1"
        (polyline
          (pts
            (xy 0 0)
            (xy 0 2.54)
          )
          (stroke (width 0) (type default))
          (fill (type none))
        )
        (polyline
          (pts
            (xy 0.762 1.27)
            (xy -0.762 1.27)
            (xy 0 2.54)
            (xy 0.762 1.27)
          )
          (stroke (width 0) (type default))
          (fill (type outline))
        )
      )
      (symbol "-BATT_1_1"
        (pin power_in line (at 0 0 90) (length 0) hide
          (name "-BATT" (effects (font (size 1.27 1.27))))
          (number "1" (effects (font (size 1.27 1.27))))
        )
      )
    )
    (symbol "power:GND" (power) (pin_names (offset 0)) (in_bom yes) (on_board yes)
      (property "Reference" "#PWR" (at 0 -6.35 0)
        (effects (font (size 1.27 1.27)) hide)
      )
      (property "Value" "GND" (at 0 -3.81 0)
        (effects (font (size 1.27 1.27)))
      )
      (property "Footprint" "" (at 0 0 0)
        (effects (font (size 1.27 1.27)) hide)
      )
      (property "Datasheet" "" (at 0 0 0)
        (effects (font (size 1.27 1.27)) hide)
      )
      (property "ki_keywords" "global power" (at 0 0 0)
        (effects (font (size 1.27 1.27)) hide)
      )
      (property "ki_description" "Power symbol creates a global label with name \"GND\" , ground" (at 0 0 0)
        (effects (font (size 1.27 1.27)) hide)
      )
      (symbol "GND_0_1"
        (polyline
          (pts
            (xy 0 0)
            (xy 0 -1.27)
            (xy 1.27 -1.27)
            (xy 0 -2.54)
            (xy -1.27 -1.27)
            (xy 0 -1.27)
          )
          (stroke (width 0) (type default))
          (fill (type none))
        )
      )
      (symbol "GND_1_1"
        (pin power_in line (at 0 0 270) (length 0) hide
          (name "GND" (effects (font (size 1.27 1.27))))
          (number "1" (effects (font (size 1.27 1.27))))
        )
      )
    )
    (symbol "power:VBUS" (power) (pin_names (offset 0)) (in_bom yes) (on_board yes)
      (property "Reference" "#PWR" (at 0 -3.81 0)
        (effects (font (size 1.27 1.27)) hide)
      )
      (property "Value" "VBUS" (at 0 3.81 0)
        (effects (font (size 1.27 1.27)))
      )
      (property "Footprint" "" (at 0 0 0)
        (effects (font (size 1.27 1.27)) hide)
      )
      (property "Datasheet" "" (at 0 0 0)
        (effects (font (size 1.27 1.27)) hide)
      )
      (property "ki_keywords" "global power" (at 0 0 0)
        (effects (font (size 1.27 1.27)) hide)
      )
      (property "ki_description" "Power symbol creates a global label with name \"VBUS\"" (at 0 0 0)
        (effects (font (size 1.27 1.27)) hide)
      )
      (symbol "VBUS_0_1"
        (polyline
          (pts
            (xy -0.762 1.27)
            (xy 0 2.54)
          )
          (stroke (width 0) (type default))
          (fill (type none))
        )
        (polyline
          (pts
            (xy 0 0)
            (xy 0 2.54)
          )
          (stroke (width 0) (type default))
          (fill (type none))
        )
        (polyline
          (pts
            (xy 0 2.54)
            (xy 0.762 1.27)
          )
          (stroke (width 0) (type default))
          (fill (type none))
        )
      )
      (symbol "VBUS_1_1"
        (pin power_in line (at 0 0 90) (length 0) hide
          (name "VBUS" (effects (font (size 1.27 1.27))))
          (number "1" (effects (font (size 1.27 1.27))))
        )
      )
    )
  )

  (junction (at 157.48 85.09) (diameter 0) (color 0 0 0 0)
    (uuid 6fbf3caa-8fa8-44f4-b7ee-af8e2fae590e)
  )
  (junction (at 137.16 85.09) (diameter 0) (color 0 0 0 0)
    (uuid 78ffb377-57f8-42f2-9057-6dd7749059b0)
  )
  (junction (at 123.19 68.58) (diameter 0) (color 0 0 0 0)
    (uuid 85056de4-dbdf-448a-a312-3fd47bba71b1)
  )
  (junction (at 90.17 158.75) (diameter 0) (color 0 0 0 0)
    (uuid ab8e71c0-6993-4d86-a289-3534d340101e)
  )
  (junction (at 157.48 68.58) (diameter 0) (color 0 0 0 0)
    (uuid ba3d81dc-7764-4b63-a3e7-d40ebfe06f62)
  )
  (junction (at 176.53 85.09) (diameter 0) (color 0 0 0 0)
    (uuid cf09f26b-7adc-4e51-ae1b-77982f914f8d)
  )
  (junction (at 137.16 68.58) (diameter 0) (color 0 0 0 0)
    (uuid de9dc4fd-7ed9-4b21-ae0b-0a05bba1c297)
  )
  (junction (at 213.36 85.09) (diameter 0) (color 0 0 0 0)
    (uuid f5abd69b-a998-45a2-afb2-199228cdc6bd)
  )

  (wire (pts (xy 137.16 68.58) (xy 137.16 72.39))
    (stroke (width 0) (type default))
    (uuid 03df5e36-f475-45f8-af6d-86c4671df0f7)
  )
  (wire (pts (xy 93.98 87.63) (xy 93.98 78.74))
    (stroke (width 0) (type default))
    (uuid 04fab09f-f1f6-4258-9a91-d2d103be7a63)
  )
  (wire (pts (xy 157.48 85.09) (xy 176.53 85.09))
    (stroke (width 0) (type default))
    (uuid 0b6096ec-e80a-4c57-919e-312515d9b13c)
  )
  (wire (pts (xy 123.19 68.58) (xy 104.14 68.58))
    (stroke (width 0) (type default))
    (uuid 0bf86cb5-d024-4611-b7ee-60f31b88a266)
  )
  (wire (pts (xy 205.74 69.85) (xy 205.74 77.47))
    (stroke (width 0) (type default))
    (uuid 0fbbf8c4-8ce2-4c58-9cdc-128d7cbedf02)
  )
  (wire (pts (xy 80.01 158.75) (xy 90.17 158.75))
    (stroke (width 0) (type default))
    (uuid 14887acd-e6e6-435c-9a18-298598857b9a)
  )
  (wire (pts (xy 137.16 68.58) (xy 147.32 68.58))
    (stroke (width 0) (type default))
    (uuid 18baf3db-6962-4c07-8edd-2bccfb3b4ca4)
  )
  (wire (pts (xy 123.19 53.34) (xy 123.19 68.58))
    (stroke (width 0) (type default))
    (uuid 1fbd7350-3740-42a0-b4d4-7d1a4dc39c24)
  )
  (wire (pts (xy 196.85 85.09) (xy 200.66 85.09))
    (stroke (width 0) (type default))
    (uuid 29e8591a-eeb3-4644-9b1d-441e9a36d170)
  )
  (wire (pts (xy 191.77 74.93) (xy 191.77 77.47))
    (stroke (width 0) (type default))
    (uuid 300d2c7e-92db-4e83-8a10-1e575f8e6dd7)
  )
  (wire (pts (xy 123.19 78.74) (xy 123.19 87.63))
    (stroke (width 0) (type default))
    (uuid 349b9493-3b36-4119-b445-0f45a3b8969e)
  )
  (wire (pts (xy 105.41 147.32) (xy 105.41 151.13))
    (stroke (width 0) (type default))
    (uuid 356a3b7e-1311-447f-94e7-a408be5fb12c)
  )
  (wire (pts (xy 81.28 87.63) (xy 81.28 83.82))
    (stroke (width 0) (type default))
    (uuid 35732131-6317-4392-8dd3-1980fb455d26)
  )
  (wire (pts (xy 137.16 85.09) (xy 137.16 88.9))
    (stroke (width 0) (type default))
    (uuid 38d23d88-6841-40d6-85ff-6df2cd14d284)
  )
  (wire (pts (xy 137.16 80.01) (xy 137.16 85.09))
    (stroke (width 0) (type default))
    (uuid 3fbf1b06-7512-4692-bdd0-b63e3d18a895)
  )
  (wire (pts (xy 186.69 69.85) (xy 205.74 69.85))
    (stroke (width 0) (type default))
    (uuid 45ade7d4-7661-4e84-b2a8-3e4a80b06da7)
  )
  (wire (pts (xy 59.69 158.75) (xy 69.85 158.75))
    (stroke (width 0) (type default))
    (uuid 493313d2-941f-47b4-aab1-e280443195dd)
  )
  (wire (pts (xy 74.93 166.37) (xy 74.93 170.18))
    (stroke (width 0) (type default))
    (uuid 56efff6a-498c-40a5-9a0d-4f68e166e817)
  )
  (wire (pts (xy 166.37 72.39) (xy 166.37 95.25))
    (stroke (width 0) (type default))
    (uuid 5ad2198c-e438-4340-be71-209d0fc4d895)
  )
  (wire (pts (xy 157.48 68.58) (xy 157.48 60.96))
    (stroke (width 0) (type default))
    (uuid 5b00166a-980f-47a1-ada4-91817381c5ba)
  )
  (wire (pts (xy 176.53 85.09) (xy 176.53 80.01))
    (stroke (width 0) (type default))
    (uuid 5ced9c66-1c6c-48e1-85a8-4967c09ce2ca)
  )
  (wire (pts (xy 90.17 158.75) (xy 100.33 158.75))
    (stroke (width 0) (type default))
    (uuid 60c3f02e-25f7-47ce-a75b-5a91f00c75ee)
  )
  (wire (pts (xy 83.82 73.66) (xy 81.28 73.66))
    (stroke (width 0) (type default))
    (uuid 6446db70-26f2-4077-a5e3-7b48b94ce16c)
  )
  (wire (pts (xy 179.07 95.25) (xy 213.36 95.25))
    (stroke (width 0) (type default))
    (uuid 650459df-3a2c-4a26-8634-62546ff06a60)
  )
  (wire (pts (xy 93.98 53.34) (xy 93.98 63.5))
    (stroke (width 0) (type default))
    (uuid 6cf00808-9763-42e3-9616-ac2f96623f20)
  )
  (wire (pts (xy 67.31 87.63) (xy 67.31 73.66))
    (stroke (width 0) (type default))
    (uuid 768612be-ac7a-4bcc-b8e3-702e88553362)
  )
  (wire (pts (xy 213.36 85.09) (xy 223.52 85.09))
    (stroke (width 0) (type default))
    (uuid 7a7d2c0e-8719-48d4-96fd-741c0e1a042a)
  )
  (wire (pts (xy 50.8 64.77) (xy 50.8 53.34))
    (stroke (width 0) (type default))
    (uuid 7e8065f1-11c8-4a9c-b2ff-ee4469423e03)
  )
  (wire (pts (xy 213.36 95.25) (xy 213.36 85.09))
    (stroke (width 0) (type default))
    (uuid 7eff0549-f7fb-425c-bf4f-25f3875e37d1)
  )
  (wire (pts (xy 125.73 158.75) (xy 110.49 158.75))
    (stroke (width 0) (type default))
    (uuid 7fc95d5d-92c4-4040-89f9-09c76c744767)
  )
  (wire (pts (xy 67.31 53.34) (xy 67.31 68.58))
    (stroke (width 0) (type default))
    (uuid 89b21b50-d860-4652-92c1-23aa71eb5df0)
  )
  (wire (pts (xy 186.69 74.93) (xy 191.77 74.93))
    (stroke (width 0) (type default))
    (uuid 89e6d440-2b54-4f12-b5d4-6da73643aa00)
  )
  (wire (pts (xy 59.69 147.32) (xy 59.69 158.75))
    (stroke (width 0) (type default))
    (uuid 8ba6ab1b-73cd-4b99-bb9e-d32a33c5ee56)
  )
  (wire (pts (xy 157.48 60.96) (xy 176.53 60.96))
    (stroke (width 0) (type default))
    (uuid 963b2e7c-d7b8-434c-9cfb-ec815bcff99f)
  )
  (wire (pts (xy 125.73 147.32) (xy 125.73 158.75))
    (stroke (width 0) (type default))
    (uuid 98b26431-d762-4a4a-a6ca-7f5ab58215b5)
  )
  (wire (pts (xy 90.17 147.32) (xy 90.17 158.75))
    (stroke (width 0) (type default))
    (uuid 9ad65b53-3dd5-46c4-a948-36cddc5f27f2)
  )
  (wire (pts (xy 74.93 170.18) (xy 78.74 170.18))
    (stroke (width 0) (type default))
    (uuid 9e675191-401f-466f-a635-f38272ca0827)
  )
  (wire (pts (xy 157.48 78.74) (xy 157.48 85.09))
    (stroke (width 0) (type default))
    (uuid a50df1fe-b74f-4d8d-b2b1-2735cc4049f5)
  )
  (wire (pts (xy 81.28 73.66) (xy 81.28 78.74))
    (stroke (width 0) (type default))
    (uuid add6b350-1c32-4280-bf1e-6844dbc07951)
  )
  (wire (pts (xy 152.4 68.58) (xy 157.48 68.58))
    (stroke (width 0) (type default))
    (uuid af288afc-fa04-448f-b2da-f7f5f526abed)
  )
  (wire (pts (xy 176.53 60.96) (xy 176.53 64.77))
    (stroke (width 0) (type default))
    (uuid b1a16afd-5650-41b2-8255-5554935bbae5)
  )
  (wire (pts (xy 166.37 95.25) (xy 173.99 95.25))
    (stroke (width 0) (type default))
    (uuid b3a9fdaa-747e-4df5-9050-e4f1cd07085e)
  )
  (wire (pts (xy 50.8 77.47) (xy 50.8 87.63))
    (stroke (width 0) (type default))
    (uuid b54588bf-9bbe-4edc-a18c-97447b4150e7)
  )
  (wire (pts (xy 213.36 85.09) (xy 210.82 85.09))
    (stroke (width 0) (type default))
    (uuid bc62ccb4-51cb-44c4-bf03-14aa9cedab4d)
  )
  (wire (pts (xy 176.53 85.09) (xy 186.69 85.09))
    (stroke (width 0) (type default))
    (uuid bf0aae63-4a67-4e45-83d0-9357aab3f7f4)
  )
  (wire (pts (xy 137.16 85.09) (xy 157.48 85.09))
    (stroke (width 0) (type default))
    (uuid bf8897aa-9ea4-462e-8994-d323913ce013)
  )
  (wire (pts (xy 104.14 73.66) (xy 107.95 73.66))
    (stroke (width 0) (type default))
    (uuid c397fd98-fe1f-4ece-9cfd-f48df2b615ca)
  )
  (wire (pts (xy 137.16 53.34) (xy 137.16 68.58))
    (stroke (width 0) (type default))
    (uuid c956b9e2-89b3-492d-a62e-903f49ab32dd)
  )
  (wire (pts (xy 157.48 68.58) (xy 157.48 73.66))
    (stroke (width 0) (type default))
    (uuid cea6eda1-c13b-4b7f-b3fe-10f0f2be1ef9)
  )
  (wire (pts (xy 223.52 85.09) (xy 223.52 92.71))
    (stroke (width 0) (type default))
    (uuid dde8166e-3624-4df7-88b3-ae56556efd47)
  )
  (wire (pts (xy 123.19 68.58) (xy 123.19 73.66))
    (stroke (width 0) (type default))
    (uuid e9a9572b-8761-4bb3-afca-cc44e2f54a0d)
  )
  (wire (pts (xy 123.19 68.58) (xy 137.16 68.58))
    (stroke (width 0) (type default))
    (uuid ed9c285c-b4db-4961-a3e8-63c224151fbb)
  )
  (wire (pts (xy 107.95 73.66) (xy 107.95 66.04))
    (stroke (width 0) (type default))
    (uuid f7c623b7-4779-4fac-b961-8724816dabe0)
  )

  (text "VBAT and +BATT are the same" (at 120.65 43.18 0)
    (effects (font (size 1.27 1.27)) (justify left bottom))
    (uuid 2e298343-1cba-4fab-af33-5ceea83b92d7)
  )
  (text "VBUS/VBAT Power Switching and Power Enable Switch" (at 57.15 129.54 0)
    (effects (font (size 1.27 1.27)) (justify left bottom))
    (uuid f622d326-b1e8-4fd3-8416-b8e191ea1638)
  )

  (global_label "3V3_EN" (shape input) (at 78.74 170.18 0) (fields_autoplaced)
    (effects (font (size 1 1)) (justify left))
    (uuid 86e17e9e-7022-46b2-b644-219e81b93c4b)
    (property "Intersheetrefs" "${INTERSHEET_REFS}" (at 86.5665 170.18 0)
      (effects (font (size 1.27 1.27)) (justify left) hide)
    )
  )

  (symbol (lib_id "power:+BATT") (at 137.16 53.34 0) (unit 1)
    (in_bom yes) (on_board yes) (dnp no) (fields_autoplaced)
    (uuid 02e9464c-00f9-4d0a-901d-6434c1710f6c)
    (property "Reference" "#PWR0120" (at 137.16 57.15 0)
      (effects (font (size 1.27 1.27)) hide)
    )
    (property "Value" "+BATT" (at 137.16 48.26 0)
      (effects (font (size 1.27 1.27)))
    )
    (property "Footprint" "" (at 137.16 53.34 0)
      (effects (font (size 1.27 1.27)) hide)
    )
    (property "Datasheet" "" (at 137.16 53.34 0)
      (effects (font (size 1.27 1.27)) hide)
    )
    (pin "1" (uuid 40d75e87-31ae-48fe-8103-c928d0166e03))
    (instances
      (project "pico_synth_sandbox"
        (path "/bfc01388-33ce-4b1a-9d2f-82d750172e5a/9c12b2ee-f811-4183-acdf-4598ef52f2ef"
          (reference "#PWR0120") (unit 1)
        )
      )
    )
  )

  (symbol (lib_id "pico_synth_sandbox:VBAT") (at 123.19 53.34 0) (unit 1)
    (in_bom yes) (on_board yes) (dnp no) (fields_autoplaced)
    (uuid 0525fd21-acb8-4820-a9d4-e3ccb9a33003)
    (property "Reference" "#PWR0117" (at 123.19 57.15 0)
      (effects (font (size 1.27 1.27)) hide)
    )
    (property "Value" "VBAT" (at 123.19 48.26 0)
      (effects (font (size 1.27 1.27)))
    )
    (property "Footprint" "" (at 123.19 53.34 0)
      (effects (font (size 1.27 1.27)) hide)
    )
    (property "Datasheet" "" (at 123.19 53.34 0)
      (effects (font (size 1.27 1.27)) hide)
    )
    (pin "1" (uuid f73ec27d-65c7-48ec-abf8-6d001e50ba27))
    (instances
      (project "pico_synth_sandbox"
        (path "/bfc01388-33ce-4b1a-9d2f-82d750172e5a/9c12b2ee-f811-4183-acdf-4598ef52f2ef"
          (reference "#PWR0117") (unit 1)
        )
      )
    )
  )

  (symbol (lib_id "power:GND") (at 123.19 87.63 0) (unit 1)
    (in_bom yes) (on_board yes) (dnp no) (fields_autoplaced)
    (uuid 0d322703-41de-4281-b275-ea0a0ba45c75)
    (property "Reference" "#PWR0118" (at 123.19 93.98 0)
      (effects (font (size 1.27 1.27)) hide)
    )
    (property "Value" "GND" (at 123.19 92.71 0)
      (effects (font (size 1.27 1.27)))
    )
    (property "Footprint" "" (at 123.19 87.63 0)
      (effects (font (size 1.27 1.27)) hide)
    )
    (property "Datasheet" "" (at 123.19 87.63 0)
      (effects (font (size 1.27 1.27)) hide)
    )
    (pin "1" (uuid 29393eaf-ab21-4da0-bd67-8fb4a2855dc4))
    (instances
      (project "pico_synth_sandbox"
        (path "/bfc01388-33ce-4b1a-9d2f-82d750172e5a/9c12b2ee-f811-4183-acdf-4598ef52f2ef"
          (reference "#PWR0118") (unit 1)
        )
      )
    )
  )

  (symbol (lib_id "pico_synth_sandbox:VSYS") (at 59.69 147.32 0) (unit 1)
    (in_bom yes) (on_board yes) (dnp no) (fields_autoplaced)
    (uuid 11eacd9c-a063-42ae-8e98-eb2dc15a09cb)
    (property "Reference" "#PWR0108" (at 59.69 151.13 0)
      (effects (font (size 1.27 1.27)) hide)
    )
    (property "Value" "VSYS" (at 59.69 142.24 0)
      (effects (font (size 1.27 1.27)))
    )
    (property "Footprint" "" (at 59.69 147.32 0)
      (effects (font (size 1.27 1.27)) hide)
    )
    (property "Datasheet" "" (at 59.69 147.32 0)
      (effects (font (size 1.27 1.27)) hide)
    )
    (pin "1" (uuid dca60596-665d-4010-80a2-c994b39387a7))
    (instances
      (project "pico_synth_sandbox"
        (path "/bfc01388-33ce-4b1a-9d2f-82d750172e5a/9c12b2ee-f811-4183-acdf-4598ef52f2ef"
          (reference "#PWR0108") (unit 1)
        )
      )
    )
  )

  (symbol (lib_id "Battery_Management:AP9101CK6") (at 176.53 72.39 0) (unit 1)
    (in_bom yes) (on_board yes) (dnp no) (fields_autoplaced)
    (uuid 160b4b50-86ec-49bf-90c9-fb0d01ab0b19)
    (property "Reference" "U7" (at 178.7241 62.23 0)
      (effects (font (size 1.27 1.27)) (justify left))
    )
    (property "Value" "AP9101CK6" (at 178.7241 64.77 0)
      (effects (font (size 1.27 1.27)) (justify left))
    )
    (property "Footprint" "Package_TO_SOT_SMD:SOT-23-6" (at 176.53 72.39 0)
      (effects (font (size 1.27 1.27)) hide)
    )
    (property "Datasheet" "https://www.diodes.com/assets/Datasheets/AP9101C.pdf" (at 176.53 71.12 0)
      (effects (font (size 1.27 1.27)) hide)
    )
    (pin "1" (uuid cc41076e-a531-4db4-8894-b834e3a8ea5a))
    (pin "2" (uuid 2de5a760-81cd-4a70-bad4-c11f21b0763f))
    (pin "3" (uuid efab4230-eaa1-4c37-82a1-5a511480c0f7))
    (pin "4" (uuid 5ebf1ea1-7f83-489c-bee2-4d85f37a61f9))
    (pin "5" (uuid 550fc660-6554-4d70-aff9-39782e191d44))
    (pin "6" (uuid 751f888c-0ce4-460e-b9e0-e193e5479d2d))
    (instances
      (project "pico_synth_sandbox"
        (path "/bfc01388-33ce-4b1a-9d2f-82d750172e5a/9c12b2ee-f811-4183-acdf-4598ef52f2ef"
          (reference "U7") (unit 1)
        )
      )
    )
  )

  (symbol (lib_id "power:GND") (at 67.31 87.63 0) (unit 1)
    (in_bom yes) (on_board yes) (dnp no) (fields_autoplaced)
    (uuid 1e74c3b3-7b65-412d-8102-48e397ce7046)
    (property "Reference" "#PWR0110" (at 67.31 93.98 0)
      (effects (font (size 1.27 1.27)) hide)
    )
    (property "Value" "GND" (at 67.31 92.71 0)
      (effects (font (size 1.27 1.27)))
    )
    (property "Footprint" "" (at 67.31 87.63 0)
      (effects (font (size 1.27 1.27)) hide)
    )
    (property "Datasheet" "" (at 67.31 87.63 0)
      (effects (font (size 1.27 1.27)) hide)
    )
    (pin "1" (uuid 01b5d5f0-210b-4edf-ba87-00046a50774c))
    (instances
      (project "pico_synth_sandbox"
        (path "/bfc01388-33ce-4b1a-9d2f-82d750172e5a/9c12b2ee-f811-4183-acdf-4598ef52f2ef"
          (reference "#PWR0110") (unit 1)
        )
      )
    )
  )

  (symbol (lib_id "power:GND") (at 223.52 92.71 0) (unit 1)
    (in_bom yes) (on_board yes) (dnp no) (fields_autoplaced)
    (uuid 20b99a02-3e99-494f-abc9-3af9d4bf5e1f)
    (property "Reference" "#PWR0122" (at 223.52 99.06 0)
      (effects (font (size 1.27 1.27)) hide)
    )
    (property "Value" "GND" (at 223.52 97.79 0)
      (effects (font (size 1.27 1.27)))
    )
    (property "Footprint" "" (at 223.52 92.71 0)
      (effects (font (size 1.27 1.27)) hide)
    )
    (property "Datasheet" "" (at 223.52 92.71 0)
      (effects (font (size 1.27 1.27)) hide)
    )
    (pin "1" (uuid 4acdd436-c1c6-4645-b9b6-ec18c09ffa6d))
    (instances
      (project "pico_synth_sandbox"
        (path "/bfc01388-33ce-4b1a-9d2f-82d750172e5a/9c12b2ee-f811-4183-acdf-4598ef52f2ef"
          (reference "#PWR0122") (unit 1)
        )
      )
    )
  )

  (symbol (lib_id "Transistor_FET:BSS84") (at 105.41 156.21 270) (unit 1)
    (in_bom yes) (on_board yes) (dnp no) (fields_autoplaced)
    (uuid 2eaa7d13-c71e-4bbf-8ae3-62916b208940)
    (property "Reference" "Q4" (at 105.41 162.56 90)
      (effects (font (size 1.27 1.27)))
    )
    (property "Value" "BSS84" (at 105.41 165.1 90)
      (effects (font (size 1.27 1.27)))
    )
    (property "Footprint" "Package_TO_SOT_SMD:SOT-23_Handsoldering" (at 103.505 161.29 0)
      (effects (font (size 1.27 1.27) italic) (justify left) hide)
    )
    (property "Datasheet" "http://assets.nexperia.com/documents/data-sheet/BSS84.pdf" (at 105.41 156.21 0)
      (effects (font (size 1.27 1.27)) (justify left) hide)
    )
    (pin "1" (uuid 4fd212ed-7a37-4481-9b4c-f63550f4e982))
    (pin "2" (uuid 9e154fdd-ebf1-46d1-80f2-830b554c33ec))
    (pin "3" (uuid 028dff2b-d47a-4989-9504-5b2197cebd4d))
    (instances
      (project "pico_synth_sandbox"
        (path "/bfc01388-33ce-4b1a-9d2f-82d750172e5a/9c12b2ee-f811-4183-acdf-4598ef52f2ef"
          (reference "Q4") (unit 1)
        )
      )
    )
  )

  (symbol (lib_id "Transistor_FET:BSS84") (at 74.93 161.29 90) (unit 1)
    (in_bom yes) (on_board yes) (dnp no) (fields_autoplaced)
    (uuid 2ede20f5-cfe5-4270-9562-25b8dc4a829c)
    (property "Reference" "Q3" (at 74.93 152.4 90)
      (effects (font (size 1.27 1.27)))
    )
    (property "Value" "BSS84" (at 74.93 154.94 90)
      (effects (font (size 1.27 1.27)))
    )
    (property "Footprint" "Package_TO_SOT_SMD:SOT-23_Handsoldering" (at 76.835 156.21 0)
      (effects (font (size 1.27 1.27) italic) (justify left) hide)
    )
    (property "Datasheet" "http://assets.nexperia.com/documents/data-sheet/BSS84.pdf" (at 74.93 161.29 0)
      (effects (font (size 1.27 1.27)) (justify left) hide)
    )
    (pin "1" (uuid af896638-8d2e-400f-b763-4072bd15f866))
    (pin "2" (uuid 5dd49c89-db81-42d0-a7bc-7a7d117360a7))
    (pin "3" (uuid d791203b-0104-4e41-bdd5-52e9d4647494))
    (instances
      (project "pico_synth_sandbox"
        (path "/bfc01388-33ce-4b1a-9d2f-82d750172e5a/9c12b2ee-f811-4183-acdf-4598ef52f2ef"
          (reference "Q3") (unit 1)
        )
      )
    )
  )

  (symbol (lib_id "Device:R_Small") (at 107.95 63.5 0) (unit 1)
    (in_bom yes) (on_board yes) (dnp no) (fields_autoplaced)
    (uuid 368e87b7-c97f-4ac4-9bdc-6ec0b6804b22)
    (property "Reference" "R17" (at 110.49 62.23 0)
      (effects (font (size 1.27 1.27)) (justify left))
    )
    (property "Value" "1k" (at 110.49 64.77 0)
      (effects (font (size 1.27 1.27)) (justify left))
    )
    (property "Footprint" "Resistor_SMD:R_0805_2012Metric_Pad1.20x1.40mm_HandSolder" (at 107.95 63.5 0)
      (effects (font (size 1.27 1.27)) hide)
    )
    (property "Datasheet" "~" (at 107.95 63.5 0)
      (effects (font (size 1.27 1.27)) hide)
    )
    (pin "1" (uuid e65c0623-41e3-4a5f-8325-708397b4d433))
    (pin "2" (uuid 8b81eb9b-af31-4f99-8d98-8f24f9c8198b))
    (instances
      (project "pico_synth_sandbox"
        (path "/bfc01388-33ce-4b1a-9d2f-82d750172e5a/9c12b2ee-f811-4183-acdf-4598ef52f2ef"
          (reference "R17") (unit 1)
        )
      )
    )
  )

  (symbol (lib_id "power:VBUS") (at 107.95 53.34 0) (unit 1)
    (in_bom yes) (on_board yes) (dnp no) (fields_autoplaced)
    (uuid 36ea27bd-35c0-4df4-a546-a37d113e7169)
    (property "Reference" "#PWR0116" (at 107.95 57.15 0)
      (effects (font (size 1.27 1.27)) hide)
    )
    (property "Value" "VBUS" (at 107.95 48.26 0)
      (effects (font (size 1.27 1.27)))
    )
    (property "Footprint" "" (at 107.95 53.34 0)
      (effects (font (size 1.27 1.27)) hide)
    )
    (property "Datasheet" "" (at 107.95 53.34 0)
      (effects (font (size 1.27 1.27)) hide)
    )
    (pin "1" (uuid 2db59eb4-170f-468b-b486-06bbc60c48ef))
    (instances
      (project "pico_synth_sandbox"
        (path "/bfc01388-33ce-4b1a-9d2f-82d750172e5a/9c12b2ee-f811-4183-acdf-4598ef52f2ef"
          (reference "#PWR0116") (unit 1)
        )
      )
    )
  )

  (symbol (lib_id "Battery_Management:MCP73831-5-OT") (at 93.98 71.12 0) (unit 1)
    (in_bom yes) (on_board yes) (dnp no)
    (uuid 3bc61a61-00ca-4113-a1aa-6641b369e23b)
    (property "Reference" "U6" (at 91.44 60.96 0)
      (effects (font (size 1.27 1.27)) (justify right))
    )
    (property "Value" "MCP73831-5-OT" (at 91.44 63.5 0)
      (effects (font (size 1.27 1.27)) (justify right))
    )
    (property "Footprint" "Package_TO_SOT_SMD:SOT-23-5" (at 95.25 77.47 0)
      (effects (font (size 1.27 1.27) italic) (justify left) hide)
    )
    (property "Datasheet" "http://ww1.microchip.com/downloads/en/DeviceDoc/20001984g.pdf" (at 90.17 72.39 0)
      (effects (font (size 1.27 1.27)) hide)
    )
    (pin "1" (uuid d10c5891-ca10-471d-98f7-dd30723b55b5))
    (pin "2" (uuid 5d8e2c86-ab82-453e-8ada-87d239c76992))
    (pin "3" (uuid 6147b944-9d7b-4c3a-8a86-8603650dc55b))
    (pin "4" (uuid 6ea80130-45fd-4c81-bb7e-5a5ac132ed18))
    (pin "5" (uuid e621e806-3f7e-4ab0-a676-5599569c7b07))
    (instances
      (project "pico_synth_sandbox"
        (path "/bfc01388-33ce-4b1a-9d2f-82d750172e5a/9c12b2ee-f811-4183-acdf-4598ef52f2ef"
          (reference "U6") (unit 1)
        )
      )
    )
  )

  (symbol (lib_id "power:GND") (at 93.98 87.63 0) (unit 1)
    (in_bom yes) (on_board yes) (dnp no) (fields_autoplaced)
    (uuid 5eb435ad-555f-40e0-bb13-c9dae12ab547)
    (property "Reference" "#PWR0114" (at 93.98 93.98 0)
      (effects (font (size 1.27 1.27)) hide)
    )
    (property "Value" "GND" (at 93.98 92.71 0)
      (effects (font (size 1.27 1.27)))
    )
    (property "Footprint" "" (at 93.98 87.63 0)
      (effects (font (size 1.27 1.27)) hide)
    )
    (property "Datasheet" "" (at 93.98 87.63 0)
      (effects (font (size 1.27 1.27)) hide)
    )
    (pin "1" (uuid 32e8778e-b610-4d2d-a2fd-6b41a1e4e22a))
    (instances
      (project "pico_synth_sandbox"
        (path "/bfc01388-33ce-4b1a-9d2f-82d750172e5a/9c12b2ee-f811-4183-acdf-4598ef52f2ef"
          (reference "#PWR0114") (unit 1)
        )
      )
    )
  )

  (symbol (lib_id "Device:C_Small") (at 67.31 71.12 0) (unit 1)
    (in_bom yes) (on_board yes) (dnp no) (fields_autoplaced)
    (uuid 60a0dec9-3c6b-4be0-bc6a-261a846776e4)
    (property "Reference" "C43" (at 69.85 69.8563 0)
      (effects (font (size 1.27 1.27)) (justify left))
    )
    (property "Value" "10uF" (at 69.85 72.3963 0)
      (effects (font (size 1.27 1.27)) (justify left))
    )
    (property "Footprint" "Capacitor_SMD:C_0805_2012Metric_Pad1.18x1.45mm_HandSolder" (at 67.31 71.12 0)
      (effects (font (size 1.27 1.27)) hide)
    )
    (property "Datasheet" "~" (at 67.31 71.12 0)
      (effects (font (size 1.27 1.27)) hide)
    )
    (pin "1" (uuid 02a27396-3796-4c23-9010-e6280eeeb19b))
    (pin "2" (uuid 15457c9c-fd9c-4553-9d59-6915f0acb7f5))
    (instances
      (project "pico_synth_sandbox"
        (path "/bfc01388-33ce-4b1a-9d2f-82d750172e5a/9c12b2ee-f811-4183-acdf-4598ef52f2ef"
          (reference "C43") (unit 1)
        )
      )
    )
  )

  (symbol (lib_id "Device:C_Small") (at 157.48 76.2 0) (unit 1)
    (in_bom yes) (on_board yes) (dnp no) (fields_autoplaced)
    (uuid 639ce4af-07fc-415c-b1ba-ccdb8f855d66)
    (property "Reference" "C45" (at 160.02 74.9363 0)
      (effects (font (size 1.27 1.27)) (justify left))
    )
    (property "Value" "0.1uF" (at 160.02 77.4763 0)
      (effects (font (size 1.27 1.27)) (justify left))
    )
    (property "Footprint" "Capacitor_SMD:C_0805_2012Metric_Pad1.18x1.45mm_HandSolder" (at 157.48 76.2 0)
      (effects (font (size 1.27 1.27)) hide)
    )
    (property "Datasheet" "~" (at 157.48 76.2 0)
      (effects (font (size 1.27 1.27)) hide)
    )
    (pin "1" (uuid 26a961b4-a3cb-411d-ad4f-64d0af954480))
    (pin "2" (uuid 7f7af5c1-96c4-4a23-a316-5844072b3222))
    (instances
      (project "pico_synth_sandbox"
        (path "/bfc01388-33ce-4b1a-9d2f-82d750172e5a/9c12b2ee-f811-4183-acdf-4598ef52f2ef"
          (reference "C45") (unit 1)
        )
      )
    )
  )

  (symbol (lib_id "Device:R_Small") (at 81.28 81.28 0) (mirror y) (unit 1)
    (in_bom yes) (on_board yes) (dnp no)
    (uuid 74a1d649-68a1-40f7-9f8a-56bb230ecac2)
    (property "Reference" "R16" (at 78.74 80.01 0)
      (effects (font (size 1.27 1.27)) (justify left))
    )
    (property "Value" "4.7k" (at 78.74 82.55 0)
      (effects (font (size 1.27 1.27)) (justify left))
    )
    (property "Footprint" "Resistor_SMD:R_0805_2012Metric_Pad1.20x1.40mm_HandSolder" (at 81.28 81.28 0)
      (effects (font (size 1.27 1.27)) hide)
    )
    (property "Datasheet" "~" (at 81.28 81.28 0)
      (effects (font (size 1.27 1.27)) hide)
    )
    (pin "1" (uuid d7858029-1528-40a4-8bc4-758e2b6d55ea))
    (pin "2" (uuid 73e5e5b3-ee19-485e-84f9-b1528b5f150c))
    (instances
      (project "pico_synth_sandbox"
        (path "/bfc01388-33ce-4b1a-9d2f-82d750172e5a/9c12b2ee-f811-4183-acdf-4598ef52f2ef"
          (reference "R16") (unit 1)
        )
      )
    )
  )

  (symbol (lib_id "power:VBUS") (at 93.98 53.34 0) (unit 1)
    (in_bom yes) (on_board yes) (dnp no) (fields_autoplaced)
    (uuid 818abfd0-4aef-4d30-ab18-6196df338e0e)
    (property "Reference" "#PWR0113" (at 93.98 57.15 0)
      (effects (font (size 1.27 1.27)) hide)
    )
    (property "Value" "VBUS" (at 93.98 48.26 0)
      (effects (font (size 1.27 1.27)))
    )
    (property "Footprint" "" (at 93.98 53.34 0)
      (effects (font (size 1.27 1.27)) hide)
    )
    (property "Datasheet" "" (at 93.98 53.34 0)
      (effects (font (size 1.27 1.27)) hide)
    )
    (pin "1" (uuid fe858943-5c77-4a70-a28c-1b6652b46337))
    (instances
      (project "pico_synth_sandbox"
        (path "/bfc01388-33ce-4b1a-9d2f-82d750172e5a/9c12b2ee-f811-4183-acdf-4598ef52f2ef"
          (reference "#PWR0113") (unit 1)
        )
      )
    )
  )

  (symbol (lib_id "power:VBUS") (at 105.41 147.32 0) (unit 1)
    (in_bom yes) (on_board yes) (dnp no) (fields_autoplaced)
    (uuid 821ddd84-8a2d-4517-8307-9c677d851c83)
    (property "Reference" "#PWR0115" (at 105.41 151.13 0)
      (effects (font (size 1.27 1.27)) hide)
    )
    (property "Value" "VBUS" (at 105.41 142.24 0)
      (effects (font (size 1.27 1.27)))
    )
    (property "Footprint" "" (at 105.41 147.32 0)
      (effects (font (size 1.27 1.27)) hide)
    )
    (property "Datasheet" "" (at 105.41 147.32 0)
      (effects (font (size 1.27 1.27)) hide)
    )
    (pin "1" (uuid c0e86aa8-0c21-4841-97b2-1314fc99d9ee))
    (instances
      (project "pico_synth_sandbox"
        (path "/bfc01388-33ce-4b1a-9d2f-82d750172e5a/9c12b2ee-f811-4183-acdf-4598ef52f2ef"
          (reference "#PWR0115") (unit 1)
        )
      )
    )
  )

  (symbol (lib_id "power:-BATT") (at 137.16 88.9 180) (unit 1)
    (in_bom yes) (on_board yes) (dnp no) (fields_autoplaced)
    (uuid 90979630-951d-4077-bfe4-80bd07cc9fff)
    (property "Reference" "#PWR0121" (at 137.16 85.09 0)
      (effects (font (size 1.27 1.27)) hide)
    )
    (property "Value" "-BATT" (at 137.16 93.98 0)
      (effects (font (size 1.27 1.27)))
    )
    (property "Footprint" "" (at 137.16 88.9 0)
      (effects (font (size 1.27 1.27)) hide)
    )
    (property "Datasheet" "" (at 137.16 88.9 0)
      (effects (font (size 1.27 1.27)) hide)
    )
    (pin "1" (uuid 5f857ca8-3769-4209-953c-9ef32f2f38fa))
    (instances
      (project "pico_synth_sandbox"
        (path "/bfc01388-33ce-4b1a-9d2f-82d750172e5a/9c12b2ee-f811-4183-acdf-4598ef52f2ef"
          (reference "#PWR0121") (unit 1)
        )
      )
    )
  )

  (symbol (lib_id "Device:Battery_Cell") (at 137.16 77.47 0) (unit 1)
    (in_bom yes) (on_board yes) (dnp no) (fields_autoplaced)
    (uuid 9231d7fe-0c01-4a85-97a6-2d6399fb35ef)
    (property "Reference" "BT1" (at 140.97 74.3585 0)
      (effects (font (size 1.27 1.27)) (justify left))
    )
    (property "Value" "LiPo Battery" (at 140.97 76.8985 0)
      (effects (font (size 1.27 1.27)) (justify left))
    )
    (property "Footprint" "Connector_JST:JST_PH_S2B-PH-SM4-TB_1x02-1MP_P2.00mm_Horizontal" (at 137.16 75.946 90)
      (effects (font (size 1.27 1.27)) hide)
    )
    (property "Datasheet" "~" (at 137.16 75.946 90)
      (effects (font (size 1.27 1.27)) hide)
    )
    (pin "1" (uuid c5b0854d-3808-4a23-8060-4caff8fbd9a5))
    (pin "2" (uuid 2352cfc0-7b5e-4102-b60f-325ea8e0d934))
    (instances
      (project "pico_synth_sandbox"
        (path "/bfc01388-33ce-4b1a-9d2f-82d750172e5a/9c12b2ee-f811-4183-acdf-4598ef52f2ef"
          (reference "BT1") (unit 1)
        )
      )
    )
  )

  (symbol (lib_id "Transistor_FET:BSS138") (at 191.77 82.55 270) (unit 1)
    (in_bom yes) (on_board yes) (dnp no) (fields_autoplaced)
    (uuid 9f94f5cc-844d-4005-a2b2-4209cc1cfc32)
    (property "Reference" "Q5" (at 191.77 88.9 90)
      (effects (font (size 1.27 1.27)))
    )
    (property "Value" "BSS138" (at 191.77 91.44 90)
      (effects (font (size 1.27 1.27)))
    )
    (property "Footprint" "Package_TO_SOT_SMD:SOT-23_Handsoldering" (at 189.865 87.63 0)
      (effects (font (size 1.27 1.27) italic) (justify left) hide)
    )
    (property "Datasheet" "https://www.onsemi.com/pub/Collateral/BSS138-D.PDF" (at 191.77 82.55 0)
      (effects (font (size 1.27 1.27)) (justify left) hide)
    )
    (pin "1" (uuid 748a790b-df63-449f-8597-7256e32c70f4))
    (pin "2" (uuid e8cdf475-6328-4f40-bc72-40854d8d2a38))
    (pin "3" (uuid f850dbd1-07a0-4913-8478-835bcccb66d0))
    (instances
      (project "pico_synth_sandbox"
        (path "/bfc01388-33ce-4b1a-9d2f-82d750172e5a/9c12b2ee-f811-4183-acdf-4598ef52f2ef"
          (reference "Q5") (unit 1)
        )
      )
    )
  )

  (symbol (lib_id "pico_synth_sandbox:VBAT") (at 125.73 147.32 0) (unit 1)
    (in_bom yes) (on_board yes) (dnp no) (fields_autoplaced)
    (uuid a15dbd2f-a430-4a05-a87b-cec53d875b82)
    (property "Reference" "#PWR0119" (at 125.73 151.13 0)
      (effects (font (size 1.27 1.27)) hide)
    )
    (property "Value" "VBAT" (at 125.73 142.24 0)
      (effects (font (size 1.27 1.27)))
    )
    (property "Footprint" "" (at 125.73 147.32 0)
      (effects (font (size 1.27 1.27)) hide)
    )
    (property "Datasheet" "" (at 125.73 147.32 0)
      (effects (font (size 1.27 1.27)) hide)
    )
    (pin "1" (uuid 6f27eb40-f201-4b34-82dc-06c9663ffe6b))
    (instances
      (project "pico_synth_sandbox"
        (path "/bfc01388-33ce-4b1a-9d2f-82d750172e5a/9c12b2ee-f811-4183-acdf-4598ef52f2ef"
          (reference "#PWR0119") (unit 1)
        )
      )
    )
  )

  (symbol (lib_id "Transistor_FET:BSS138") (at 205.74 82.55 90) (mirror x) (unit 1)
    (in_bom yes) (on_board yes) (dnp no)
    (uuid a3eeb899-0d40-439b-87d9-95273833a976)
    (property "Reference" "Q6" (at 205.74 88.9 90)
      (effects (font (size 1.27 1.27)))
    )
    (property "Value" "BSS138" (at 205.74 91.44 90)
      (effects (font (size 1.27 1.27)))
    )
    (property "Footprint" "Package_TO_SOT_SMD:SOT-23_Handsoldering" (at 207.645 87.63 0)
      (effects (font (size 1.27 1.27) italic) (justify left) hide)
    )
    (property "Datasheet" "https://www.onsemi.com/pub/Collateral/BSS138-D.PDF" (at 205.74 82.55 0)
      (effects (font (size 1.27 1.27)) (justify left) hide)
    )
    (pin "1" (uuid 5b02417e-4528-49a4-85f4-38ed432fa23d))
    (pin "2" (uuid d6514c6b-fe75-4294-ac5b-924dab9e53b9))
    (pin "3" (uuid 523aec19-c947-4233-af52-a9b9f0d98534))
    (instances
      (project "pico_synth_sandbox"
        (path "/bfc01388-33ce-4b1a-9d2f-82d750172e5a/9c12b2ee-f811-4183-acdf-4598ef52f2ef"
          (reference "Q6") (unit 1)
        )
      )
    )
  )

  (symbol (lib_id "Device:LED") (at 50.8 68.58 270) (unit 1)
    (in_bom yes) (on_board yes) (dnp no) (fields_autoplaced)
    (uuid aa0d017c-876c-4606-9ebf-0ece99a22291)
    (property "Reference" "D1" (at 53.34 65.7225 90)
      (effects (font (size 1.27 1.27)) (justify left))
    )
    (property "Value" "PWR" (at 53.34 68.2625 90)
      (effects (font (size 1.27 1.27)) (justify left))
    )
    (property "Footprint" "LED_SMD:LED_0805_2012Metric_Pad1.15x1.40mm_HandSolder" (at 50.8 68.58 0)
      (effects (font (size 1.27 1.27)) hide)
    )
    (property "Datasheet" "~" (at 50.8 68.58 0)
      (effects (font (size 1.27 1.27)) hide)
    )
    (pin "1" (uuid 33e99241-3664-4a3d-95ba-21351f338c49))
    (pin "2" (uuid c4a9ca43-c0dc-46ed-9a08-7c4e4aa47c3a))
    (instances
      (project "pico_synth_sandbox"
        (path "/bfc01388-33ce-4b1a-9d2f-82d750172e5a/9c12b2ee-f811-4183-acdf-4598ef52f2ef"
          (reference "D1") (unit 1)
        )
      )
    )
  )

  (symbol (lib_id "pico_synth_sandbox:VSYS&VBAT") (at 90.17 147.32 0) (unit 1)
    (in_bom yes) (on_board yes) (dnp no) (fields_autoplaced)
    (uuid af978c9e-fc77-4249-9ea2-58bbe34da7ce)
    (property "Reference" "#PWR0112" (at 90.17 151.13 0)
      (effects (font (size 1.27 1.27)) hide)
    )
    (property "Value" "VSYS&VBAT" (at 90.17 142.24 0)
      (effects (font (size 1.27 1.27)))
    )
    (property "Footprint" "" (at 90.17 147.32 0)
      (effects (font (size 1.27 1.27)) hide)
    )
    (property "Datasheet" "" (at 90.17 147.32 0)
      (effects (font (size 1.27 1.27)) hide)
    )
    (pin "1" (uuid 8100a784-afad-409c-998b-c0f0d7e700ec))
    (instances
      (project "pico_synth_sandbox"
        (path "/bfc01388-33ce-4b1a-9d2f-82d750172e5a/9c12b2ee-f811-4183-acdf-4598ef52f2ef"
          (reference "#PWR0112") (unit 1)
        )
      )
    )
  )

  (symbol (lib_id "Device:R_Small") (at 50.8 74.93 0) (unit 1)
    (in_bom yes) (on_board yes) (dnp no) (fields_autoplaced)
    (uuid ca9ea7f6-0142-4a3b-b6aa-6b0033b20965)
    (property "Reference" "R15" (at 53.34 73.66 0)
      (effects (font (size 1.27 1.27)) (justify left))
    )
    (property "Value" "1k" (at 53.34 76.2 0)
      (effects (font (size 1.27 1.27)) (justify left))
    )
    (property "Footprint" "Resistor_SMD:R_0805_2012Metric_Pad1.20x1.40mm_HandSolder" (at 50.8 74.93 0)
      (effects (font (size 1.27 1.27)) hide)
    )
    (property "Datasheet" "~" (at 50.8 74.93 0)
      (effects (font (size 1.27 1.27)) hide)
    )
    (pin "1" (uuid c1965dce-e753-46d5-9508-24a6b600774a))
    (pin "2" (uuid f56994d6-d18c-437c-adfb-52b4768ae28f))
    (instances
      (project "pico_synth_sandbox"
        (path "/bfc01388-33ce-4b1a-9d2f-82d750172e5a/9c12b2ee-f811-4183-acdf-4598ef52f2ef"
          (reference "R15") (unit 1)
        )
      )
    )
  )

  (symbol (lib_id "Device:C_Small") (at 123.19 76.2 0) (unit 1)
    (in_bom yes) (on_board yes) (dnp no) (fields_autoplaced)
    (uuid d03a227d-43d1-4463-a973-f4f93c354a0f)
    (property "Reference" "C44" (at 125.73 74.9363 0)
      (effects (font (size 1.27 1.27)) (justify left))
    )
    (property "Value" "10uF" (at 125.73 77.4763 0)
      (effects (font (size 1.27 1.27)) (justify left))
    )
    (property "Footprint" "Capacitor_SMD:C_0805_2012Metric_Pad1.18x1.45mm_HandSolder" (at 123.19 76.2 0)
      (effects (font (size 1.27 1.27)) hide)
    )
    (property "Datasheet" "~" (at 123.19 76.2 0)
      (effects (font (size 1.27 1.27)) hide)
    )
    (pin "1" (uuid 70499d80-4241-4a0c-b945-e94a4e11265f))
    (pin "2" (uuid da070bd0-4a72-4337-a012-9c58bf73804b))
    (instances
      (project "pico_synth_sandbox"
        (path "/bfc01388-33ce-4b1a-9d2f-82d750172e5a/9c12b2ee-f811-4183-acdf-4598ef52f2ef"
          (reference "C44") (unit 1)
        )
      )
    )
  )

  (symbol (lib_id "power:+3.3V") (at 50.8 53.34 0) (unit 1)
    (in_bom yes) (on_board yes) (dnp no) (fields_autoplaced)
    (uuid e3d874c5-db88-430c-883e-ced3614dc2bd)
    (property "Reference" "#PWR0106" (at 50.8 57.15 0)
      (effects (font (size 1.27 1.27)) hide)
    )
    (property "Value" "+3.3V" (at 50.8 48.26 0)
      (effects (font (size 1.27 1.27)))
    )
    (property "Footprint" "" (at 50.8 53.34 0)
      (effects (font (size 1.27 1.27)) hide)
    )
    (property "Datasheet" "" (at 50.8 53.34 0)
      (effects (font (size 1.27 1.27)) hide)
    )
    (pin "1" (uuid 1d42708f-79fd-48f6-b1d2-16d8a6a0c1f7))
    (instances
      (project "pico_synth_sandbox"
        (path "/bfc01388-33ce-4b1a-9d2f-82d750172e5a/9c12b2ee-f811-4183-acdf-4598ef52f2ef"
          (reference "#PWR0106") (unit 1)
        )
      )
    )
  )

  (symbol (lib_id "power:GND") (at 81.28 87.63 0) (unit 1)
    (in_bom yes) (on_board yes) (dnp no) (fields_autoplaced)
    (uuid ea8480ba-f472-45b8-90d0-714971b16c14)
    (property "Reference" "#PWR0111" (at 81.28 93.98 0)
      (effects (font (size 1.27 1.27)) hide)
    )
    (property "Value" "GND" (at 81.28 92.71 0)
      (effects (font (size 1.27 1.27)))
    )
    (property "Footprint" "" (at 81.28 87.63 0)
      (effects (font (size 1.27 1.27)) hide)
    )
    (property "Datasheet" "" (at 81.28 87.63 0)
      (effects (font (size 1.27 1.27)) hide)
    )
    (pin "1" (uuid e73e9102-92c4-49dc-a79c-9db78c0373a4))
    (instances
      (project "pico_synth_sandbox"
        (path "/bfc01388-33ce-4b1a-9d2f-82d750172e5a/9c12b2ee-f811-4183-acdf-4598ef52f2ef"
          (reference "#PWR0111") (unit 1)
        )
      )
    )
  )

  (symbol (lib_id "Device:R_Small") (at 149.86 68.58 90) (unit 1)
    (in_bom yes) (on_board yes) (dnp no) (fields_autoplaced)
    (uuid f0961583-f631-4961-8bfa-989c72a83716)
    (property "Reference" "R18" (at 149.86 63.5 90)
      (effects (font (size 1.27 1.27)))
    )
    (property "Value" "330" (at 149.86 66.04 90)
      (effects (font (size 1.27 1.27)))
    )
    (property "Footprint" "Resistor_SMD:R_0805_2012Metric_Pad1.20x1.40mm_HandSolder" (at 149.86 68.58 0)
      (effects (font (size 1.27 1.27)) hide)
    )
    (property "Datasheet" "~" (at 149.86 68.58 0)
      (effects (font (size 1.27 1.27)) hide)
    )
    (pin "1" (uuid 58581bab-0bf9-447d-9c9d-d6ae462979ed))
    (pin "2" (uuid ba0951e9-b47d-4e6e-b279-e5a817c1dd3e))
    (instances
      (project "pico_synth_sandbox"
        (path "/bfc01388-33ce-4b1a-9d2f-82d750172e5a/9c12b2ee-f811-4183-acdf-4598ef52f2ef"
          (reference "R18") (unit 1)
        )
      )
    )
  )

  (symbol (lib_id "power:VBUS") (at 67.31 53.34 0) (unit 1)
    (in_bom yes) (on_board yes) (dnp no) (fields_autoplaced)
    (uuid f0f50648-903b-4817-afa6-462e4254b684)
    (property "Reference" "#PWR0109" (at 67.31 57.15 0)
      (effects (font (size 1.27 1.27)) hide)
    )
    (property "Value" "VBUS" (at 67.31 48.26 0)
      (effects (font (size 1.27 1.27)))
    )
    (property "Footprint" "" (at 67.31 53.34 0)
      (effects (font (size 1.27 1.27)) hide)
    )
    (property "Datasheet" "" (at 67.31 53.34 0)
      (effects (font (size 1.27 1.27)) hide)
    )
    (pin "1" (uuid d72a6105-50ce-4d4d-afe4-2146bc0e6016))
    (instances
      (project "pico_synth_sandbox"
        (path "/bfc01388-33ce-4b1a-9d2f-82d750172e5a/9c12b2ee-f811-4183-acdf-4598ef52f2ef"
          (reference "#PWR0109") (unit 1)
        )
      )
    )
  )

  (symbol (lib_id "Device:R_Small") (at 176.53 95.25 90) (unit 1)
    (in_bom yes) (on_board yes) (dnp no) (fields_autoplaced)
    (uuid f408faf3-bf42-4f29-9c7c-09ec89d8d343)
    (property "Reference" "R19" (at 176.53 90.17 90)
      (effects (font (size 1.27 1.27)))
    )
    (property "Value" "2.7k" (at 176.53 92.71 90)
      (effects (font (size 1.27 1.27)))
    )
    (property "Footprint" "Resistor_SMD:R_0805_2012Metric_Pad1.20x1.40mm_HandSolder" (at 176.53 95.25 0)
      (effects (font (size 1.27 1.27)) hide)
    )
    (property "Datasheet" "~" (at 176.53 95.25 0)
      (effects (font (size 1.27 1.27)) hide)
    )
    (pin "1" (uuid 78d66fac-776e-4658-b1db-d38966c3df41))
    (pin "2" (uuid c21ba115-43d9-40b1-a679-301c1ad09411))
    (instances
      (project "pico_synth_sandbox"
        (path "/bfc01388-33ce-4b1a-9d2f-82d750172e5a/9c12b2ee-f811-4183-acdf-4598ef52f2ef"
          (reference "R19") (unit 1)
        )
      )
    )
  )

  (symbol (lib_id "power:GND") (at 50.8 87.63 0) (unit 1)
    (in_bom yes) (on_board yes) (dnp no) (fields_autoplaced)
    (uuid fa4ef127-6bb4-4bb7-b464-bdb1b738cbb0)
    (property "Reference" "#PWR0107" (at 50.8 93.98 0)
      (effects (font (size 1.27 1.27)) hide)
    )
    (property "Value" "GND" (at 50.8 92.71 0)
      (effects (font (size 1.27 1.27)))
    )
    (property "Footprint" "" (at 50.8 87.63 0)
      (effects (font (size 1.27 1.27)) hide)
    )
    (property "Datasheet" "" (at 50.8 87.63 0)
      (effects (font (size 1.27 1.27)) hide)
    )
    (pin "1" (uuid b40a37ac-e251-4710-a99b-c6625f37902a))
    (instances
      (project "pico_synth_sandbox"
        (path "/bfc01388-33ce-4b1a-9d2f-82d750172e5a/9c12b2ee-f811-4183-acdf-4598ef52f2ef"
          (reference "#PWR0107") (unit 1)
        )
      )
    )
  )

  (symbol (lib_id "Device:LED") (at 107.95 57.15 270) (unit 1)
    (in_bom yes) (on_board yes) (dnp no) (fields_autoplaced)
    (uuid ff8df7f6-282b-4b1a-9998-67c83ca6618a)
    (property "Reference" "D2" (at 110.49 54.2925 90)
      (effects (font (size 1.27 1.27)) (justify left))
    )
    (property "Value" "CHRG" (at 110.49 56.8325 90)
      (effects (font (size 1.27 1.27)) (justify left))
    )
    (property "Footprint" "LED_SMD:LED_0805_2012Metric_Pad1.15x1.40mm_HandSolder" (at 107.95 57.15 0)
      (effects (font (size 1.27 1.27)) hide)
    )
    (property "Datasheet" "~" (at 107.95 57.15 0)
      (effects (font (size 1.27 1.27)) hide)
    )
    (pin "1" (uuid cbd67608-b198-4590-b7f3-0c88179e5294))
    (pin "2" (uuid 92549e5d-e037-402a-956e-9c52e226b0f8))
    (instances
      (project "pico_synth_sandbox"
        (path "/bfc01388-33ce-4b1a-9d2f-82d750172e5a/9c12b2ee-f811-4183-acdf-4598ef52f2ef"
          (reference "D2") (unit 1)
        )
      )
    )
  )
)
