(kicad_sch (version 20230121) (generator eeschema)

  (uuid 04c3ff56-6368-438a-a2ca-47050dcc77fc)

  (paper "A")

  (title_block
    (title "pico_synth_sandbox - I2S DAC")
    (date "2023-11-30")
    (rev "2")
    (comment 3 "pico-synth-sandbox.dcdalrymple.com")
    (comment 4 "D Cooper Dalrymple")
  )

  (lib_symbols
    (symbol "Audio:PCM5102A" (in_bom yes) (on_board yes)
      (property "Reference" "U" (at -10.16 13.97 0)
        (effects (font (size 1.27 1.27)) (justify left))
      )
      (property "Value" "PCM5102A" (at 3.81 13.97 0)
        (effects (font (size 1.27 1.27)) (justify left))
      )
      (property "Footprint" "Package_SO:TSSOP-20_4.4x6.5mm_P0.65mm" (at 25.4 -16.51 0)
        (effects (font (size 1.27 1.27)) hide)
      )
      (property "Datasheet" "https://www.ti.com/lit/ds/symlink/pcm5102a.pdf" (at 0 0 0)
        (effects (font (size 1.27 1.27)) hide)
      )
      (property "ki_keywords" "audio dac 2ch 32bit 384kHz" (at 0 0 0)
        (effects (font (size 1.27 1.27)) hide)
      )
      (property "ki_description" "2.1 VRMS, 112dB Audio Stereo DAC with PLL and 32-bit, 384kHz PCM Interface, TSSOP-20" (at 0 0 0)
        (effects (font (size 1.27 1.27)) hide)
      )
      (property "ki_fp_filters" "TSSOP*4.4x6.5mm*P0.65mm*" (at 0 0 0)
        (effects (font (size 1.27 1.27)) hide)
      )
      (symbol "PCM5102A_0_1"
        (rectangle (start -10.16 12.7) (end 10.16 -15.24)
          (stroke (width 0.254) (type default))
          (fill (type background))
        )
      )
      (symbol "PCM5102A_1_1"
        (pin passive line (at -2.54 15.24 270) (length 2.54)
          (name "CPVDD" (effects (font (size 1.27 1.27))))
          (number "1" (effects (font (size 1.27 1.27))))
        )
        (pin input line (at -12.7 -5.08 0) (length 2.54)
          (name "DEMP" (effects (font (size 1.27 1.27))))
          (number "10" (effects (font (size 1.27 1.27))))
        )
        (pin input line (at -12.7 -2.54 0) (length 2.54)
          (name "FLT" (effects (font (size 1.27 1.27))))
          (number "11" (effects (font (size 1.27 1.27))))
        )
        (pin input line (at -12.7 2.54 0) (length 2.54)
          (name "SCK" (effects (font (size 1.27 1.27))))
          (number "12" (effects (font (size 1.27 1.27))))
        )
        (pin input line (at -12.7 5.08 0) (length 2.54)
          (name "BCK" (effects (font (size 1.27 1.27))))
          (number "13" (effects (font (size 1.27 1.27))))
        )
        (pin input line (at -12.7 7.62 0) (length 2.54)
          (name "DIN" (effects (font (size 1.27 1.27))))
          (number "14" (effects (font (size 1.27 1.27))))
        )
        (pin input line (at -12.7 10.16 0) (length 2.54)
          (name "LRCK" (effects (font (size 1.27 1.27))))
          (number "15" (effects (font (size 1.27 1.27))))
        )
        (pin input line (at -12.7 -10.16 0) (length 2.54)
          (name "FMT" (effects (font (size 1.27 1.27))))
          (number "16" (effects (font (size 1.27 1.27))))
        )
        (pin input line (at -12.7 -7.62 0) (length 2.54)
          (name "XSMT" (effects (font (size 1.27 1.27))))
          (number "17" (effects (font (size 1.27 1.27))))
        )
        (pin passive line (at 12.7 -10.16 180) (length 2.54)
          (name "LDOO" (effects (font (size 1.27 1.27))))
          (number "18" (effects (font (size 1.27 1.27))))
        )
        (pin power_in line (at 0 -17.78 90) (length 2.54)
          (name "DGND" (effects (font (size 1.27 1.27))))
          (number "19" (effects (font (size 1.27 1.27))))
        )
        (pin passive line (at 12.7 2.54 180) (length 2.54)
          (name "CAPP" (effects (font (size 1.27 1.27))))
          (number "2" (effects (font (size 1.27 1.27))))
        )
        (pin power_in line (at 0 15.24 270) (length 2.54)
          (name "DVDD" (effects (font (size 1.27 1.27))))
          (number "20" (effects (font (size 1.27 1.27))))
        )
        (pin power_in line (at -2.54 -17.78 90) (length 2.54)
          (name "CPGND" (effects (font (size 1.27 1.27))))
          (number "3" (effects (font (size 1.27 1.27))))
        )
        (pin passive line (at 12.7 -5.08 180) (length 2.54)
          (name "CAPM" (effects (font (size 1.27 1.27))))
          (number "4" (effects (font (size 1.27 1.27))))
        )
        (pin passive line (at 12.7 -12.7 180) (length 2.54)
          (name "VNEG" (effects (font (size 1.27 1.27))))
          (number "5" (effects (font (size 1.27 1.27))))
        )
        (pin output line (at 12.7 10.16 180) (length 2.54)
          (name "OUTL" (effects (font (size 1.27 1.27))))
          (number "6" (effects (font (size 1.27 1.27))))
        )
        (pin output line (at 12.7 7.62 180) (length 2.54)
          (name "OUTR" (effects (font (size 1.27 1.27))))
          (number "7" (effects (font (size 1.27 1.27))))
        )
        (pin power_in line (at 2.54 15.24 270) (length 2.54)
          (name "AVDD" (effects (font (size 1.27 1.27))))
          (number "8" (effects (font (size 1.27 1.27))))
        )
        (pin power_in line (at 2.54 -17.78 90) (length 2.54)
          (name "AGND" (effects (font (size 1.27 1.27))))
          (number "9" (effects (font (size 1.27 1.27))))
        )
      )
    )
    (symbol "Connector:TestPoint" (pin_numbers hide) (pin_names (offset 0.762) hide) (in_bom yes) (on_board yes)
      (property "Reference" "TP" (at 0 6.858 0)
        (effects (font (size 1.27 1.27)))
      )
      (property "Value" "TestPoint" (at 0 5.08 0)
        (effects (font (size 1.27 1.27)))
      )
      (property "Footprint" "" (at 5.08 0 0)
        (effects (font (size 1.27 1.27)) hide)
      )
      (property "Datasheet" "~" (at 5.08 0 0)
        (effects (font (size 1.27 1.27)) hide)
      )
      (property "ki_keywords" "test point tp" (at 0 0 0)
        (effects (font (size 1.27 1.27)) hide)
      )
      (property "ki_description" "test point" (at 0 0 0)
        (effects (font (size 1.27 1.27)) hide)
      )
      (property "ki_fp_filters" "Pin* Test*" (at 0 0 0)
        (effects (font (size 1.27 1.27)) hide)
      )
      (symbol "TestPoint_0_1"
        (circle (center 0 3.302) (radius 0.762)
          (stroke (width 0) (type default))
          (fill (type none))
        )
      )
      (symbol "TestPoint_1_1"
        (pin passive line (at 0 0 90) (length 2.54)
          (name "1" (effects (font (size 1.27 1.27))))
          (number "1" (effects (font (size 1.27 1.27))))
        )
      )
    )
    (symbol "Device:C_Small" (pin_numbers hide) (pin_names (offset 0.254) hide) (in_bom yes) (on_board yes)
      (property "Reference" "C" (at 0.254 1.778 0)
        (effects (font (size 1.27 1.27)) (justify left))
      )
      (property "Value" "C_Small" (at 0.254 -2.032 0)
        (effects (font (size 1.27 1.27)) (justify left))
      )
      (property "Footprint" "" (at 0 0 0)
        (effects (font (size 1.27 1.27)) hide)
      )
      (property "Datasheet" "~" (at 0 0 0)
        (effects (font (size 1.27 1.27)) hide)
      )
      (property "ki_keywords" "capacitor cap" (at 0 0 0)
        (effects (font (size 1.27 1.27)) hide)
      )
      (property "ki_description" "Unpolarized capacitor, small symbol" (at 0 0 0)
        (effects (font (size 1.27 1.27)) hide)
      )
      (property "ki_fp_filters" "C_*" (at 0 0 0)
        (effects (font (size 1.27 1.27)) hide)
      )
      (symbol "C_Small_0_1"
        (polyline
          (pts
            (xy -1.524 -0.508)
            (xy 1.524 -0.508)
          )
          (stroke (width 0.3302) (type default))
          (fill (type none))
        )
        (polyline
          (pts
            (xy -1.524 0.508)
            (xy 1.524 0.508)
          )
          (stroke (width 0.3048) (type default))
          (fill (type none))
        )
      )
      (symbol "C_Small_1_1"
        (pin passive line (at 0 2.54 270) (length 2.032)
          (name "~" (effects (font (size 1.27 1.27))))
          (number "1" (effects (font (size 1.27 1.27))))
        )
        (pin passive line (at 0 -2.54 90) (length 2.032)
          (name "~" (effects (font (size 1.27 1.27))))
          (number "2" (effects (font (size 1.27 1.27))))
        )
      )
    )
    (symbol "Device:R_Pack04" (pin_names (offset 0) hide) (in_bom yes) (on_board yes)
      (property "Reference" "RN" (at -7.62 0 90)
        (effects (font (size 1.27 1.27)))
      )
      (property "Value" "R_Pack04" (at 5.08 0 90)
        (effects (font (size 1.27 1.27)))
      )
      (property "Footprint" "" (at 6.985 0 90)
        (effects (font (size 1.27 1.27)) hide)
      )
      (property "Datasheet" "~" (at 0 0 0)
        (effects (font (size 1.27 1.27)) hide)
      )
      (property "ki_keywords" "R network parallel topology isolated" (at 0 0 0)
        (effects (font (size 1.27 1.27)) hide)
      )
      (property "ki_description" "4 resistor network, parallel topology" (at 0 0 0)
        (effects (font (size 1.27 1.27)) hide)
      )
      (property "ki_fp_filters" "DIP* SOIC* R*Array*Concave* R*Array*Convex*" (at 0 0 0)
        (effects (font (size 1.27 1.27)) hide)
      )
      (symbol "R_Pack04_0_1"
        (rectangle (start -6.35 -2.413) (end 3.81 2.413)
          (stroke (width 0.254) (type default))
          (fill (type background))
        )
        (rectangle (start -5.715 1.905) (end -4.445 -1.905)
          (stroke (width 0.254) (type default))
          (fill (type none))
        )
        (rectangle (start -3.175 1.905) (end -1.905 -1.905)
          (stroke (width 0.254) (type default))
          (fill (type none))
        )
        (rectangle (start -0.635 1.905) (end 0.635 -1.905)
          (stroke (width 0.254) (type default))
          (fill (type none))
        )
        (polyline
          (pts
            (xy -5.08 -2.54)
            (xy -5.08 -1.905)
          )
          (stroke (width 0) (type default))
          (fill (type none))
        )
        (polyline
          (pts
            (xy -5.08 1.905)
            (xy -5.08 2.54)
          )
          (stroke (width 0) (type default))
          (fill (type none))
        )
        (polyline
          (pts
            (xy -2.54 -2.54)
            (xy -2.54 -1.905)
          )
          (stroke (width 0) (type default))
          (fill (type none))
        )
        (polyline
          (pts
            (xy -2.54 1.905)
            (xy -2.54 2.54)
          )
          (stroke (width 0) (type default))
          (fill (type none))
        )
        (polyline
          (pts
            (xy 0 -2.54)
            (xy 0 -1.905)
          )
          (stroke (width 0) (type default))
          (fill (type none))
        )
        (polyline
          (pts
            (xy 0 1.905)
            (xy 0 2.54)
          )
          (stroke (width 0) (type default))
          (fill (type none))
        )
        (polyline
          (pts
            (xy 2.54 -2.54)
            (xy 2.54 -1.905)
          )
          (stroke (width 0) (type default))
          (fill (type none))
        )
        (polyline
          (pts
            (xy 2.54 1.905)
            (xy 2.54 2.54)
          )
          (stroke (width 0) (type default))
          (fill (type none))
        )
        (rectangle (start 1.905 1.905) (end 3.175 -1.905)
          (stroke (width 0.254) (type default))
          (fill (type none))
        )
      )
      (symbol "R_Pack04_1_1"
        (pin passive line (at -5.08 -5.08 90) (length 2.54)
          (name "R1.1" (effects (font (size 1.27 1.27))))
          (number "1" (effects (font (size 1.27 1.27))))
        )
        (pin passive line (at -2.54 -5.08 90) (length 2.54)
          (name "R2.1" (effects (font (size 1.27 1.27))))
          (number "2" (effects (font (size 1.27 1.27))))
        )
        (pin passive line (at 0 -5.08 90) (length 2.54)
          (name "R3.1" (effects (font (size 1.27 1.27))))
          (number "3" (effects (font (size 1.27 1.27))))
        )
        (pin passive line (at 2.54 -5.08 90) (length 2.54)
          (name "R4.1" (effects (font (size 1.27 1.27))))
          (number "4" (effects (font (size 1.27 1.27))))
        )
        (pin passive line (at 2.54 5.08 270) (length 2.54)
          (name "R4.2" (effects (font (size 1.27 1.27))))
          (number "5" (effects (font (size 1.27 1.27))))
        )
        (pin passive line (at 0 5.08 270) (length 2.54)
          (name "R3.2" (effects (font (size 1.27 1.27))))
          (number "6" (effects (font (size 1.27 1.27))))
        )
        (pin passive line (at -2.54 5.08 270) (length 2.54)
          (name "R2.2" (effects (font (size 1.27 1.27))))
          (number "7" (effects (font (size 1.27 1.27))))
        )
        (pin passive line (at -5.08 5.08 270) (length 2.54)
          (name "R1.2" (effects (font (size 1.27 1.27))))
          (number "8" (effects (font (size 1.27 1.27))))
        )
      )
    )
    (symbol "Device:R_Small" (pin_numbers hide) (pin_names (offset 0.254) hide) (in_bom yes) (on_board yes)
      (property "Reference" "R" (at 0.762 0.508 0)
        (effects (font (size 1.27 1.27)) (justify left))
      )
      (property "Value" "R_Small" (at 0.762 -1.016 0)
        (effects (font (size 1.27 1.27)) (justify left))
      )
      (property "Footprint" "" (at 0 0 0)
        (effects (font (size 1.27 1.27)) hide)
      )
      (property "Datasheet" "~" (at 0 0 0)
        (effects (font (size 1.27 1.27)) hide)
      )
      (property "ki_keywords" "R resistor" (at 0 0 0)
        (effects (font (size 1.27 1.27)) hide)
      )
      (property "ki_description" "Resistor, small symbol" (at 0 0 0)
        (effects (font (size 1.27 1.27)) hide)
      )
      (property "ki_fp_filters" "R_*" (at 0 0 0)
        (effects (font (size 1.27 1.27)) hide)
      )
      (symbol "R_Small_0_1"
        (rectangle (start -0.762 1.778) (end 0.762 -1.778)
          (stroke (width 0.2032) (type default))
          (fill (type none))
        )
      )
      (symbol "R_Small_1_1"
        (pin passive line (at 0 2.54 270) (length 0.762)
          (name "~" (effects (font (size 1.27 1.27))))
          (number "1" (effects (font (size 1.27 1.27))))
        )
        (pin passive line (at 0 -2.54 90) (length 0.762)
          (name "~" (effects (font (size 1.27 1.27))))
          (number "2" (effects (font (size 1.27 1.27))))
        )
      )
    )
    (symbol "Jumper:SolderJumper_2_Bridged" (pin_names (offset 0) hide) (in_bom yes) (on_board yes)
      (property "Reference" "JP" (at 0 2.032 0)
        (effects (font (size 1.27 1.27)))
      )
      (property "Value" "SolderJumper_2_Bridged" (at 0 -2.54 0)
        (effects (font (size 1.27 1.27)))
      )
      (property "Footprint" "" (at 0 0 0)
        (effects (font (size 1.27 1.27)) hide)
      )
      (property "Datasheet" "~" (at 0 0 0)
        (effects (font (size 1.27 1.27)) hide)
      )
      (property "ki_keywords" "solder jumper SPST" (at 0 0 0)
        (effects (font (size 1.27 1.27)) hide)
      )
      (property "ki_description" "Solder Jumper, 2-pole, closed/bridged" (at 0 0 0)
        (effects (font (size 1.27 1.27)) hide)
      )
      (property "ki_fp_filters" "SolderJumper*Bridged*" (at 0 0 0)
        (effects (font (size 1.27 1.27)) hide)
      )
      (symbol "SolderJumper_2_Bridged_0_1"
        (rectangle (start -0.508 0.508) (end 0.508 -0.508)
          (stroke (width 0) (type default))
          (fill (type outline))
        )
        (arc (start -0.254 1.016) (mid -1.2656 0) (end -0.254 -1.016)
          (stroke (width 0) (type default))
          (fill (type none))
        )
        (arc (start -0.254 1.016) (mid -1.2656 0) (end -0.254 -1.016)
          (stroke (width 0) (type default))
          (fill (type outline))
        )
        (polyline
          (pts
            (xy -0.254 1.016)
            (xy -0.254 -1.016)
          )
          (stroke (width 0) (type default))
          (fill (type none))
        )
        (polyline
          (pts
            (xy 0.254 1.016)
            (xy 0.254 -1.016)
          )
          (stroke (width 0) (type default))
          (fill (type none))
        )
        (arc (start 0.254 -1.016) (mid 1.2656 0) (end 0.254 1.016)
          (stroke (width 0) (type default))
          (fill (type none))
        )
        (arc (start 0.254 -1.016) (mid 1.2656 0) (end 0.254 1.016)
          (stroke (width 0) (type default))
          (fill (type outline))
        )
      )
      (symbol "SolderJumper_2_Bridged_1_1"
        (pin passive line (at -3.81 0 0) (length 2.54)
          (name "A" (effects (font (size 1.27 1.27))))
          (number "1" (effects (font (size 1.27 1.27))))
        )
        (pin passive line (at 3.81 0 180) (length 2.54)
          (name "B" (effects (font (size 1.27 1.27))))
          (number "2" (effects (font (size 1.27 1.27))))
        )
      )
    )
    (symbol "Jumper:SolderJumper_3_Bridged12" (pin_names (offset 0) hide) (in_bom yes) (on_board yes)
      (property "Reference" "JP" (at -2.54 -2.54 0)
        (effects (font (size 1.27 1.27)))
      )
      (property "Value" "SolderJumper_3_Bridged12" (at 0 2.794 0)
        (effects (font (size 1.27 1.27)))
      )
      (property "Footprint" "" (at 0 0 0)
        (effects (font (size 1.27 1.27)) hide)
      )
      (property "Datasheet" "~" (at 0 0 0)
        (effects (font (size 1.27 1.27)) hide)
      )
      (property "ki_keywords" "Solder Jumper SPDT" (at 0 0 0)
        (effects (font (size 1.27 1.27)) hide)
      )
      (property "ki_description" "3-pole Solder Jumper, pins 1+2 closed/bridged" (at 0 0 0)
        (effects (font (size 1.27 1.27)) hide)
      )
      (property "ki_fp_filters" "SolderJumper*Bridged12*" (at 0 0 0)
        (effects (font (size 1.27 1.27)) hide)
      )
      (symbol "SolderJumper_3_Bridged12_0_1"
        (rectangle (start -1.016 0.508) (end -0.508 -0.508)
          (stroke (width 0) (type default))
          (fill (type outline))
        )
        (arc (start -1.016 1.016) (mid -2.0276 0) (end -1.016 -1.016)
          (stroke (width 0) (type default))
          (fill (type none))
        )
        (arc (start -1.016 1.016) (mid -2.0276 0) (end -1.016 -1.016)
          (stroke (width 0) (type default))
          (fill (type outline))
        )
        (rectangle (start -0.508 1.016) (end 0.508 -1.016)
          (stroke (width 0) (type default))
          (fill (type outline))
        )
        (polyline
          (pts
            (xy -2.54 0)
            (xy -2.032 0)
          )
          (stroke (width 0) (type default))
          (fill (type none))
        )
        (polyline
          (pts
            (xy -1.016 1.016)
            (xy -1.016 -1.016)
          )
          (stroke (width 0) (type default))
          (fill (type none))
        )
        (polyline
          (pts
            (xy 0 -1.27)
            (xy 0 -1.016)
          )
          (stroke (width 0) (type default))
          (fill (type none))
        )
        (polyline
          (pts
            (xy 1.016 1.016)
            (xy 1.016 -1.016)
          )
          (stroke (width 0) (type default))
          (fill (type none))
        )
        (polyline
          (pts
            (xy 2.54 0)
            (xy 2.032 0)
          )
          (stroke (width 0) (type default))
          (fill (type none))
        )
        (arc (start 1.016 -1.016) (mid 2.0276 0) (end 1.016 1.016)
          (stroke (width 0) (type default))
          (fill (type none))
        )
        (arc (start 1.016 -1.016) (mid 2.0276 0) (end 1.016 1.016)
          (stroke (width 0) (type default))
          (fill (type outline))
        )
      )
      (symbol "SolderJumper_3_Bridged12_1_1"
        (pin passive line (at -5.08 0 0) (length 2.54)
          (name "A" (effects (font (size 1.27 1.27))))
          (number "1" (effects (font (size 1.27 1.27))))
        )
        (pin passive line (at 0 -3.81 90) (length 2.54)
          (name "C" (effects (font (size 1.27 1.27))))
          (number "2" (effects (font (size 1.27 1.27))))
        )
        (pin passive line (at 5.08 0 180) (length 2.54)
          (name "B" (effects (font (size 1.27 1.27))))
          (number "3" (effects (font (size 1.27 1.27))))
        )
      )
    )
    (symbol "power:+3.3V" (power) (pin_names (offset 0)) (in_bom yes) (on_board yes)
      (property "Reference" "#PWR" (at 0 -3.81 0)
        (effects (font (size 1.27 1.27)) hide)
      )
      (property "Value" "+3.3V" (at 0 3.556 0)
        (effects (font (size 1.27 1.27)))
      )
      (property "Footprint" "" (at 0 0 0)
        (effects (font (size 1.27 1.27)) hide)
      )
      (property "Datasheet" "" (at 0 0 0)
        (effects (font (size 1.27 1.27)) hide)
      )
      (property "ki_keywords" "global power" (at 0 0 0)
        (effects (font (size 1.27 1.27)) hide)
      )
      (property "ki_description" "Power symbol creates a global label with name \"+3.3V\"" (at 0 0 0)
        (effects (font (size 1.27 1.27)) hide)
      )
      (symbol "+3.3V_0_1"
        (polyline
          (pts
            (xy -0.762 1.27)
            (xy 0 2.54)
          )
          (stroke (width 0) (type default))
          (fill (type none))
        )
        (polyline
          (pts
            (xy 0 0)
            (xy 0 2.54)
          )
          (stroke (width 0) (type default))
          (fill (type none))
        )
        (polyline
          (pts
            (xy 0 2.54)
            (xy 0.762 1.27)
          )
          (stroke (width 0) (type default))
          (fill (type none))
        )
      )
      (symbol "+3.3V_1_1"
        (pin power_in line (at 0 0 90) (length 0) hide
          (name "+3.3V" (effects (font (size 1.27 1.27))))
          (number "1" (effects (font (size 1.27 1.27))))
        )
      )
    )
    (symbol "power:+3.3VA" (power) (pin_names (offset 0)) (in_bom yes) (on_board yes)
      (property "Reference" "#PWR" (at 0 -3.81 0)
        (effects (font (size 1.27 1.27)) hide)
      )
      (property "Value" "+3.3VA" (at 0 3.556 0)
        (effects (font (size 1.27 1.27)))
      )
      (property "Footprint" "" (at 0 0 0)
        (effects (font (size 1.27 1.27)) hide)
      )
      (property "Datasheet" "" (at 0 0 0)
        (effects (font (size 1.27 1.27)) hide)
      )
      (property "ki_keywords" "global power" (at 0 0 0)
        (effects (font (size 1.27 1.27)) hide)
      )
      (property "ki_description" "Power symbol creates a global label with name \"+3.3VA\"" (at 0 0 0)
        (effects (font (size 1.27 1.27)) hide)
      )
      (symbol "+3.3VA_0_1"
        (polyline
          (pts
            (xy -0.762 1.27)
            (xy 0 2.54)
          )
          (stroke (width 0) (type default))
          (fill (type none))
        )
        (polyline
          (pts
            (xy 0 0)
            (xy 0 2.54)
          )
          (stroke (width 0) (type default))
          (fill (type none))
        )
        (polyline
          (pts
            (xy 0 2.54)
            (xy 0.762 1.27)
          )
          (stroke (width 0) (type default))
          (fill (type none))
        )
      )
      (symbol "+3.3VA_1_1"
        (pin power_in line (at 0 0 90) (length 0) hide
          (name "+3.3VA" (effects (font (size 1.27 1.27))))
          (number "1" (effects (font (size 1.27 1.27))))
        )
      )
    )
    (symbol "power:GND" (power) (pin_names (offset 0)) (in_bom yes) (on_board yes)
      (property "Reference" "#PWR" (at 0 -6.35 0)
        (effects (font (size 1.27 1.27)) hide)
      )
      (property "Value" "GND" (at 0 -3.81 0)
        (effects (font (size 1.27 1.27)))
      )
      (property "Footprint" "" (at 0 0 0)
        (effects (font (size 1.27 1.27)) hide)
      )
      (property "Datasheet" "" (at 0 0 0)
        (effects (font (size 1.27 1.27)) hide)
      )
      (property "ki_keywords" "global power" (at 0 0 0)
        (effects (font (size 1.27 1.27)) hide)
      )
      (property "ki_description" "Power symbol creates a global label with name \"GND\" , ground" (at 0 0 0)
        (effects (font (size 1.27 1.27)) hide)
      )
      (symbol "GND_0_1"
        (polyline
          (pts
            (xy 0 0)
            (xy 0 -1.27)
            (xy 1.27 -1.27)
            (xy 0 -2.54)
            (xy -1.27 -1.27)
            (xy 0 -1.27)
          )
          (stroke (width 0) (type default))
          (fill (type none))
        )
      )
      (symbol "GND_1_1"
        (pin power_in line (at 0 0 270) (length 0) hide
          (name "GND" (effects (font (size 1.27 1.27))))
          (number "1" (effects (font (size 1.27 1.27))))
        )
      )
    )
    (symbol "power:GNDA" (power) (pin_names (offset 0)) (in_bom yes) (on_board yes)
      (property "Reference" "#PWR" (at 0 -6.35 0)
        (effects (font (size 1.27 1.27)) hide)
      )
      (property "Value" "GNDA" (at 0 -3.81 0)
        (effects (font (size 1.27 1.27)))
      )
      (property "Footprint" "" (at 0 0 0)
        (effects (font (size 1.27 1.27)) hide)
      )
      (property "Datasheet" "" (at 0 0 0)
        (effects (font (size 1.27 1.27)) hide)
      )
      (property "ki_keywords" "global power" (at 0 0 0)
        (effects (font (size 1.27 1.27)) hide)
      )
      (property "ki_description" "Power symbol creates a global label with name \"GNDA\" , analog ground" (at 0 0 0)
        (effects (font (size 1.27 1.27)) hide)
      )
      (symbol "GNDA_0_1"
        (polyline
          (pts
            (xy 0 0)
            (xy 0 -1.27)
            (xy 1.27 -1.27)
            (xy 0 -2.54)
            (xy -1.27 -1.27)
            (xy 0 -1.27)
          )
          (stroke (width 0) (type default))
          (fill (type none))
        )
      )
      (symbol "GNDA_1_1"
        (pin power_in line (at 0 0 270) (length 0) hide
          (name "GNDA" (effects (font (size 1.27 1.27))))
          (number "1" (effects (font (size 1.27 1.27))))
        )
      )
    )
  )

  (junction (at 58.42 149.86) (diameter 0) (color 0 0 0 0)
    (uuid 044ba32c-ca47-4c7b-81ce-c7113e82f356)
  )
  (junction (at 97.79 147.32) (diameter 0) (color 0 0 0 0)
    (uuid 08f00765-df14-4b95-b40f-66132cb4626c)
  )
  (junction (at 172.72 64.77) (diameter 0) (color 0 0 0 0)
    (uuid 2a5d84bb-5c49-4a9d-9eeb-af38b0c7927f)
  )
  (junction (at 118.11 72.39) (diameter 0) (color 0 0 0 0)
    (uuid 325e0b0b-bfaa-4f02-817a-b69453d42ee6)
  )
  (junction (at 87.63 142.24) (diameter 0) (color 0 0 0 0)
    (uuid 3728a476-928c-4143-98f6-41dd8e2558c3)
  )
  (junction (at 107.95 142.24) (diameter 0) (color 0 0 0 0)
    (uuid 521ba1bc-173e-42df-bfa2-e512cd9395d5)
  )
  (junction (at 97.79 142.24) (diameter 0) (color 0 0 0 0)
    (uuid 682cb9c5-bc28-4c8b-9bb2-7d9d260232e7)
  )
  (junction (at 58.42 142.24) (diameter 0) (color 0 0 0 0)
    (uuid e55efed7-5c2f-490f-b204-c3d0609e58d2)
  )
  (junction (at 161.29 67.31) (diameter 0) (color 0 0 0 0)
    (uuid f5a798aa-c00c-4823-be0d-01d92742819e)
  )

  (wire (pts (xy 95.25 147.32) (xy 97.79 147.32))
    (stroke (width 0) (type default))
    (uuid 00d1fe0f-7edc-46c1-b304-264e7bf9f370)
  )
  (wire (pts (xy 133.35 92.71) (xy 133.35 97.79))
    (stroke (width 0) (type default))
    (uuid 06effba7-b551-4b87-b331-b41800541656)
  )
  (wire (pts (xy 95.25 69.85) (xy 105.41 69.85))
    (stroke (width 0) (type default))
    (uuid 0d2be30a-56f1-40c9-8c72-3ab4fbbeebfc)
  )
  (wire (pts (xy 58.42 149.86) (xy 58.42 151.13))
    (stroke (width 0) (type default))
    (uuid 104dc6b8-8a44-42c1-9c20-878baa155137)
  )
  (wire (pts (xy 233.68 105.41) (xy 238.76 105.41))
    (stroke (width 0) (type default))
    (uuid 10c77843-a739-4d7f-98cf-e2789048ddbb)
  )
  (wire (pts (xy 154.94 67.31) (xy 161.29 67.31))
    (stroke (width 0) (type default))
    (uuid 148019b7-3d52-449d-b62c-828e416fe801)
  )
  (wire (pts (xy 213.36 105.41) (xy 218.44 105.41))
    (stroke (width 0) (type default))
    (uuid 1769b7f6-29d4-4cbe-913c-639603b206b4)
  )
  (wire (pts (xy 146.05 67.31) (xy 149.86 67.31))
    (stroke (width 0) (type default))
    (uuid 24e749fc-9468-408d-a520-22d38947ddbd)
  )
  (wire (pts (xy 97.79 72.39) (xy 105.41 72.39))
    (stroke (width 0) (type default))
    (uuid 297d24da-43de-4dec-b0b8-70f4c2894c66)
  )
  (wire (pts (xy 111.76 80.01) (xy 120.65 80.01))
    (stroke (width 0) (type default))
    (uuid 2e053617-c9a6-4f75-b9ea-25ff6d65ae77)
  )
  (wire (pts (xy 111.76 77.47) (xy 120.65 77.47))
    (stroke (width 0) (type default))
    (uuid 348e462c-770d-4121-86c2-20a243b1ea92)
  )
  (wire (pts (xy 172.72 64.77) (xy 182.88 64.77))
    (stroke (width 0) (type default))
    (uuid 3e4d00f1-5610-4f08-ad35-a2fe78972a81)
  )
  (wire (pts (xy 146.05 72.39) (xy 149.86 72.39))
    (stroke (width 0) (type default))
    (uuid 451011d7-47ae-46ce-9f26-3f3fe937adf0)
  )
  (wire (pts (xy 172.72 64.77) (xy 172.72 73.66))
    (stroke (width 0) (type default))
    (uuid 4c2be85f-8174-4d44-bb74-fc667093b417)
  )
  (wire (pts (xy 97.79 147.32) (xy 97.79 153.67))
    (stroke (width 0) (type default))
    (uuid 5149042e-47df-481e-b6d9-e8220a192b2a)
  )
  (wire (pts (xy 135.89 58.42) (xy 135.89 59.69))
    (stroke (width 0) (type default))
    (uuid 54572a80-d814-4f42-ba89-034a2aae0401)
  )
  (wire (pts (xy 95.25 67.31) (xy 105.41 67.31))
    (stroke (width 0) (type default))
    (uuid 56736668-a28a-49d0-9e70-4cf33d9ccb0a)
  )
  (wire (pts (xy 60.96 143.51) (xy 60.96 142.24))
    (stroke (width 0) (type default))
    (uuid 582afd8d-e737-4555-9f3e-337a9cf25af8)
  )
  (wire (pts (xy 111.76 82.55) (xy 120.65 82.55))
    (stroke (width 0) (type default))
    (uuid 5c706c6b-af1e-4552-aab2-87168e991080)
  )
  (wire (pts (xy 154.94 64.77) (xy 172.72 64.77))
    (stroke (width 0) (type default))
    (uuid 5ee7e41a-c754-4f43-8984-e01ee5400686)
  )
  (wire (pts (xy 58.42 140.97) (xy 58.42 142.24))
    (stroke (width 0) (type default))
    (uuid 62d0a8a7-41dc-49c1-8b71-e365cdc0187f)
  )
  (wire (pts (xy 115.57 72.39) (xy 118.11 72.39))
    (stroke (width 0) (type default))
    (uuid 64ab7cc3-63af-491b-bf0b-889a10abb804)
  )
  (wire (pts (xy 146.05 85.09) (xy 154.94 85.09))
    (stroke (width 0) (type default))
    (uuid 6529225d-3d6f-4063-a763-a2b6ee7e3b37)
  )
  (wire (pts (xy 115.57 67.31) (xy 120.65 67.31))
    (stroke (width 0) (type default))
    (uuid 65d8b4bb-dba0-48ab-a679-a8cb74013887)
  )
  (wire (pts (xy 135.89 92.71) (xy 135.89 96.52))
    (stroke (width 0) (type default))
    (uuid 66791367-2ce2-4763-8677-1baf830fa2f0)
  )
  (wire (pts (xy 149.86 78.74) (xy 149.86 80.01))
    (stroke (width 0) (type default))
    (uuid 6a047818-cc79-4751-a3de-90058d57c68a)
  )
  (wire (pts (xy 60.96 149.86) (xy 58.42 149.86))
    (stroke (width 0) (type default))
    (uuid 7ba46614-afe5-413c-9f89-57202b11cc9b)
  )
  (wire (pts (xy 118.11 72.39) (xy 120.65 72.39))
    (stroke (width 0) (type default))
    (uuid 82d9ca07-68d8-4e9c-b7b2-89a16b2c8ccb)
  )
  (wire (pts (xy 97.79 142.24) (xy 97.79 147.32))
    (stroke (width 0) (type default))
    (uuid 85ee79b6-a06f-4798-ac08-65975618e2ce)
  )
  (wire (pts (xy 148.59 95.25) (xy 148.59 96.52))
    (stroke (width 0) (type default))
    (uuid 86db4716-9966-4373-b808-cfaccd74aa04)
  )
  (wire (pts (xy 146.05 87.63) (xy 148.59 87.63))
    (stroke (width 0) (type default))
    (uuid 8a284992-12a1-465a-b5cd-7ca19ecdbe83)
  )
  (wire (pts (xy 55.88 149.86) (xy 58.42 149.86))
    (stroke (width 0) (type default))
    (uuid 8e16df11-95c8-4a6f-8a9d-c68b3018ae8c)
  )
  (wire (pts (xy 148.59 87.63) (xy 148.59 90.17))
    (stroke (width 0) (type default))
    (uuid 8e8cacc9-7e99-4d33-a4a3-ef6643d24c59)
  )
  (wire (pts (xy 172.72 78.74) (xy 172.72 83.82))
    (stroke (width 0) (type default))
    (uuid 90e06b2a-bc5f-4a36-b120-6da3dce6b0f5)
  )
  (wire (pts (xy 118.11 74.93) (xy 118.11 72.39))
    (stroke (width 0) (type default))
    (uuid 93d615c7-61e3-4717-a78a-6a8ee9c48047)
  )
  (wire (pts (xy 107.95 135.89) (xy 107.95 142.24))
    (stroke (width 0) (type default))
    (uuid 9635117a-8af8-40e4-ac83-dc247f4fa97f)
  )
  (wire (pts (xy 161.29 67.31) (xy 182.88 67.31))
    (stroke (width 0) (type default))
    (uuid 9777f5f1-5e21-4887-839f-988c19a89530)
  )
  (wire (pts (xy 97.79 142.24) (xy 100.33 142.24))
    (stroke (width 0) (type default))
    (uuid 9a751b65-af82-4d59-9426-d57d4f4e5a20)
  )
  (wire (pts (xy 55.88 142.24) (xy 55.88 143.51))
    (stroke (width 0) (type default))
    (uuid 9e8c9a39-e912-42c4-b9c2-3c127c3b881e)
  )
  (wire (pts (xy 105.41 142.24) (xy 107.95 142.24))
    (stroke (width 0) (type default))
    (uuid a274780b-52c0-40f8-887c-668346eb3f89)
  )
  (wire (pts (xy 161.29 78.74) (xy 161.29 83.82))
    (stroke (width 0) (type default))
    (uuid a6795fdd-6dd3-4069-a060-5e176949b7ed)
  )
  (wire (pts (xy 105.41 147.32) (xy 107.95 147.32))
    (stroke (width 0) (type default))
    (uuid ac9099b6-57a7-45de-9bba-5ba8f10dc458)
  )
  (wire (pts (xy 149.86 80.01) (xy 146.05 80.01))
    (stroke (width 0) (type default))
    (uuid b18d9397-067a-4af9-882a-a754ec5deb0b)
  )
  (wire (pts (xy 133.35 57.15) (xy 133.35 59.69))
    (stroke (width 0) (type default))
    (uuid b1bd2d2f-0b4f-4c20-bb4e-a1ef925617cb)
  )
  (wire (pts (xy 115.57 64.77) (xy 120.65 64.77))
    (stroke (width 0) (type default))
    (uuid b24d53fa-75a7-4ec1-9968-cb59bca7a94f)
  )
  (wire (pts (xy 58.42 142.24) (xy 55.88 142.24))
    (stroke (width 0) (type default))
    (uuid b2d9ee72-e1d9-42c6-b9d7-f7c69f6c7eeb)
  )
  (wire (pts (xy 130.81 92.71) (xy 130.81 96.52))
    (stroke (width 0) (type default))
    (uuid b7a8c936-d07d-4117-beb6-268f57baf364)
  )
  (wire (pts (xy 213.36 77.47) (xy 218.44 77.47))
    (stroke (width 0) (type default))
    (uuid ba3e1788-f946-4103-b88f-a949e644f10b)
  )
  (wire (pts (xy 97.79 147.32) (xy 100.33 147.32))
    (stroke (width 0) (type default))
    (uuid ba83ec69-fda5-4b4e-8728-901ee2a2c4a7)
  )
  (wire (pts (xy 55.88 148.59) (xy 55.88 149.86))
    (stroke (width 0) (type default))
    (uuid bba292ca-c681-40c8-8aa3-bc387f0f82a5)
  )
  (wire (pts (xy 87.63 147.32) (xy 90.17 147.32))
    (stroke (width 0) (type default))
    (uuid bbdde499-00ec-4400-b4b1-89656b5a04cc)
  )
  (wire (pts (xy 87.63 142.24) (xy 90.17 142.24))
    (stroke (width 0) (type default))
    (uuid bd16e279-ef32-4af4-8d80-e95abb359da4)
  )
  (wire (pts (xy 111.76 85.09) (xy 120.65 85.09))
    (stroke (width 0) (type default))
    (uuid c0d5d763-5b79-4af6-b0f5-511c16005165)
  )
  (wire (pts (xy 115.57 69.85) (xy 120.65 69.85))
    (stroke (width 0) (type default))
    (uuid d1746bcb-50aa-46cb-8869-4f510f091dbb)
  )
  (wire (pts (xy 104.14 74.93) (xy 118.11 74.93))
    (stroke (width 0) (type default))
    (uuid d467a36a-4195-41e1-ae84-72947e55d5f8)
  )
  (wire (pts (xy 95.25 142.24) (xy 97.79 142.24))
    (stroke (width 0) (type default))
    (uuid d607774a-bf64-4aef-bc2a-602949f65ab1)
  )
  (wire (pts (xy 233.68 77.47) (xy 238.76 77.47))
    (stroke (width 0) (type default))
    (uuid d84a3abb-a583-410e-a2ab-ccb3140b7688)
  )
  (wire (pts (xy 149.86 72.39) (xy 149.86 73.66))
    (stroke (width 0) (type default))
    (uuid d92790dc-dd1c-4472-9a56-08899f94e0c0)
  )
  (wire (pts (xy 58.42 142.24) (xy 60.96 142.24))
    (stroke (width 0) (type default))
    (uuid db85966d-ad33-4df7-b7ae-a02590d2b468)
  )
  (wire (pts (xy 95.25 64.77) (xy 105.41 64.77))
    (stroke (width 0) (type default))
    (uuid de0268dc-b82c-40a3-8742-2539db03b99a)
  )
  (wire (pts (xy 81.28 142.24) (xy 87.63 142.24))
    (stroke (width 0) (type default))
    (uuid dfd5d706-2fae-42ae-bf73-fcf722c80018)
  )
  (wire (pts (xy 130.81 58.42) (xy 130.81 59.69))
    (stroke (width 0) (type default))
    (uuid e70ad52e-98fa-4074-bd57-0064420771eb)
  )
  (wire (pts (xy 60.96 148.59) (xy 60.96 149.86))
    (stroke (width 0) (type default))
    (uuid e7222e1a-8ecf-45c0-815d-9b75450a683d)
  )
  (wire (pts (xy 161.29 67.31) (xy 161.29 73.66))
    (stroke (width 0) (type default))
    (uuid e806268b-5aec-413e-822f-fe01d93075de)
  )
  (wire (pts (xy 87.63 142.24) (xy 87.63 147.32))
    (stroke (width 0) (type default))
    (uuid ef17c9bc-5b60-4037-91ac-9592ca36bea2)
  )
  (wire (pts (xy 146.05 64.77) (xy 149.86 64.77))
    (stroke (width 0) (type default))
    (uuid f1e7b9cb-34b1-4321-86b5-bf04c9ced08f)
  )
  (wire (pts (xy 107.95 142.24) (xy 107.95 147.32))
    (stroke (width 0) (type default))
    (uuid f4d662c9-bc4a-4a7e-b157-689107f460dc)
  )

  (text "DAC" (at 102.87 36.83 0)
    (effects (font (size 2.54 2.54) (thickness 0.508) bold) (justify left bottom))
    (uuid 0e9c7642-3aae-450c-b75d-1bad363de68a)
  )
  (text "Power Filtering" (at 50.8 125.73 0)
    (effects (font (size 2.54 2.54) (thickness 0.508) bold) (justify left bottom))
    (uuid 35936901-21b3-49c7-bdc0-e1bebc9d4ff3)
  )
  (text "Configuration" (at 213.36 55.88 0)
    (effects (font (size 2.54 2.54) (thickness 0.508) bold) (justify left bottom))
    (uuid 4ba0aee2-77a2-4a6c-b4f8-a5be0ab3f5b6)
  )

  (label "DIN" (at 97.79 67.31 0) (fields_autoplaced)
    (effects (font (size 1.27 1.27)) (justify left bottom))
    (uuid 047c079b-ab15-4ac5-b768-155f529dde3c)
  )
  (label "FMT" (at 111.76 85.09 0) (fields_autoplaced)
    (effects (font (size 1.27 1.27)) (justify left bottom))
    (uuid 381cef0d-b98a-4d19-ae3e-2459e3267afc)
  )
  (label "LRCK" (at 97.79 64.77 0) (fields_autoplaced)
    (effects (font (size 1.27 1.27)) (justify left bottom))
    (uuid 389bb7bb-d40a-4b2b-ad9f-4bb7149b78eb)
  )
  (label "LOUT" (at 180.34 64.77 180) (fields_autoplaced)
    (effects (font (size 1.27 1.27)) (justify right bottom))
    (uuid 3eded46f-0743-4ec9-b45c-51ff11721aac)
  )
  (label "BCK" (at 97.79 69.85 0) (fields_autoplaced)
    (effects (font (size 1.27 1.27)) (justify left bottom))
    (uuid 53c997dc-b35d-4618-9a3b-0ea82bcce0df)
  )
  (label "LDOO" (at 154.94 85.09 180) (fields_autoplaced)
    (effects (font (size 1.27 1.27)) (justify right bottom))
    (uuid 5d74250d-c61f-41fc-9eae-581873092dc7)
  )
  (label "DEMP" (at 111.76 80.01 0) (fields_autoplaced)
    (effects (font (size 1.27 1.27)) (justify left bottom))
    (uuid 66069651-0eac-431d-bd58-e77be041eef8)
  )
  (label "SCK" (at 97.79 72.39 0) (fields_autoplaced)
    (effects (font (size 1.27 1.27)) (justify left bottom))
    (uuid 7c127924-79b8-4e33-a7fb-d48f1346933d)
  )
  (label "FLT" (at 213.36 77.47 0) (fields_autoplaced)
    (effects (font (size 1.27 1.27)) (justify left bottom))
    (uuid 8410d76a-2cc7-41c8-a8ae-5ba448f30a40)
  )
  (label "XSMT" (at 213.36 105.41 0) (fields_autoplaced)
    (effects (font (size 1.27 1.27)) (justify left bottom))
    (uuid 9be0449c-79a6-4435-a6f5-2814fe3fded8)
  )
  (label "FLT" (at 111.76 77.47 0) (fields_autoplaced)
    (effects (font (size 1.27 1.27)) (justify left bottom))
    (uuid 9feae507-be6a-42eb-b0b9-7c299c41050a)
  )
  (label "DEMP" (at 233.68 77.47 0) (fields_autoplaced)
    (effects (font (size 1.27 1.27)) (justify left bottom))
    (uuid a2c293fb-affc-4627-8b1d-af3ceb8ec4e6)
  )
  (label "XSMT" (at 111.76 82.55 0) (fields_autoplaced)
    (effects (font (size 1.27 1.27)) (justify left bottom))
    (uuid b1d7596a-662b-498b-b218-0264a13bf162)
  )
  (label "ROUT" (at 180.34 67.31 180) (fields_autoplaced)
    (effects (font (size 1.27 1.27)) (justify right bottom))
    (uuid bbcf2265-1a85-44d0-9282-c1f23fa13e50)
  )
  (label "FMT" (at 233.68 105.41 0) (fields_autoplaced)
    (effects (font (size 1.27 1.27)) (justify left bottom))
    (uuid c70ae40d-607b-4e39-902e-59c661c7907a)
  )
  (label "LDOO" (at 81.28 142.24 0) (fields_autoplaced)
    (effects (font (size 1.27 1.27)) (justify left bottom))
    (uuid fc76a3ef-b72c-4e5d-8c4f-7f7f6bc11083)
  )

  (global_label "DAC_I2SDAT" (shape input) (at 95.25 67.31 180) (fields_autoplaced)
    (effects (font (size 1 1)) (justify right))
    (uuid 03220956-42fd-4f35-8c9f-51b5792b7906)
    (property "Intersheetrefs" "${INTERSHEET_REFS}" (at 84.2807 67.31 0)
      (effects (font (size 1.27 1.27)) (justify right) hide)
    )
  )
  (global_label "I2SAR" (shape output) (at 182.88 67.31 0) (fields_autoplaced)
    (effects (font (size 1 1) bold) (justify left))
    (uuid 3fa79275-1e1f-41c8-80fd-f8825323c416)
    (property "Intersheetrefs" "${INTERSHEET_REFS}" (at 189.8434 67.31 0)
      (effects (font (size 1.27 1.27)) (justify left) hide)
    )
  )
  (global_label "DAC_I2SWS" (shape input) (at 95.25 64.77 180) (fields_autoplaced)
    (effects (font (size 1 1)) (justify right))
    (uuid 73443069-3e44-4f28-91e7-f0a3a3925ae1)
    (property "Intersheetrefs" "${INTERSHEET_REFS}" (at 84.8044 64.77 0)
      (effects (font (size 1.27 1.27)) (justify right) hide)
    )
  )
  (global_label "DAC_I2SCLK" (shape input) (at 95.25 69.85 180) (fields_autoplaced)
    (effects (font (size 1 1)) (justify right))
    (uuid da107dd6-9040-4895-b661-a8b955585b29)
    (property "Intersheetrefs" "${INTERSHEET_REFS}" (at 84.0902 69.85 0)
      (effects (font (size 1.27 1.27)) (justify right) hide)
    )
  )
  (global_label "I2SAL" (shape output) (at 182.88 64.77 0) (fields_autoplaced)
    (effects (font (size 1 1) bold) (justify left))
    (uuid f96a26ee-6700-4a3e-b5c7-f1f4e09a71fa)
    (property "Intersheetrefs" "${INTERSHEET_REFS}" (at 189.6529 64.77 0)
      (effects (font (size 1.27 1.27)) (justify left) hide)
    )
  )

  (symbol (lib_id "power:GNDA") (at 161.29 83.82 0) (unit 1)
    (in_bom yes) (on_board yes) (dnp no)
    (uuid 04a51064-260d-4069-a0b3-505d120a3794)
    (property "Reference" "#PWR050" (at 161.29 90.17 0)
      (effects (font (size 1.27 1.27)) hide)
    )
    (property "Value" "GNDA" (at 161.29 90.17 90)
      (effects (font (size 1.27 1.27)))
    )
    (property "Footprint" "" (at 161.29 83.82 0)
      (effects (font (size 1.27 1.27)) hide)
    )
    (property "Datasheet" "" (at 161.29 83.82 0)
      (effects (font (size 1.27 1.27)) hide)
    )
    (pin "1" (uuid 491f9393-7d08-45e8-8946-c5781b86bd7e))
    (instances
      (project "pico_synth_sandbox"
        (path "/bfc01388-33ce-4b1a-9d2f-82d750172e5a/f0d7f11b-6ebd-4c2b-8e52-e814f3b2f284"
          (reference "#PWR050") (unit 1)
        )
      )
    )
  )

  (symbol (lib_id "power:GND") (at 222.25 110.49 0) (unit 1)
    (in_bom yes) (on_board yes) (dnp no) (fields_autoplaced)
    (uuid 072f49fd-8292-4fa6-8079-ff28f698016d)
    (property "Reference" "#PWR055" (at 222.25 116.84 0)
      (effects (font (size 1.27 1.27)) hide)
    )
    (property "Value" "GND" (at 222.25 115.57 0)
      (effects (font (size 1.27 1.27)))
    )
    (property "Footprint" "" (at 222.25 110.49 0)
      (effects (font (size 1.27 1.27)) hide)
    )
    (property "Datasheet" "" (at 222.25 110.49 0)
      (effects (font (size 1.27 1.27)) hide)
    )
    (pin "1" (uuid 71b3c07a-45fb-444a-8ac0-cb5bd849a8d5))
    (instances
      (project "pico_synth_sandbox"
        (path "/bfc01388-33ce-4b1a-9d2f-82d750172e5a/f0d7f11b-6ebd-4c2b-8e52-e814f3b2f284"
          (reference "#PWR055") (unit 1)
        )
      )
    )
  )

  (symbol (lib_id "power:+3.3V") (at 133.35 57.15 0) (unit 1)
    (in_bom yes) (on_board yes) (dnp no)
    (uuid 1b1a11c9-fd84-405c-baf2-86e744ea43de)
    (property "Reference" "#PWR045" (at 133.35 60.96 0)
      (effects (font (size 1.27 1.27)) hide)
    )
    (property "Value" "+3.3V" (at 133.35 50.8 90)
      (effects (font (size 1.27 1.27)))
    )
    (property "Footprint" "" (at 133.35 57.15 0)
      (effects (font (size 1.27 1.27)) hide)
    )
    (property "Datasheet" "" (at 133.35 57.15 0)
      (effects (font (size 1.27 1.27)) hide)
    )
    (pin "1" (uuid da3fef87-3b84-447c-8deb-6cbbdf8f7901))
    (instances
      (project "pico_synth_sandbox"
        (path "/bfc01388-33ce-4b1a-9d2f-82d750172e5a/f0d7f11b-6ebd-4c2b-8e52-e814f3b2f284"
          (reference "#PWR045") (unit 1)
        )
      )
    )
  )

  (symbol (lib_id "power:+3.3V") (at 222.25 72.39 0) (unit 1)
    (in_bom yes) (on_board yes) (dnp no) (fields_autoplaced)
    (uuid 25309aa6-96e1-423e-8444-3ff9725d8ee6)
    (property "Reference" "#PWR052" (at 222.25 76.2 0)
      (effects (font (size 1.27 1.27)) hide)
    )
    (property "Value" "+3.3V" (at 222.25 67.31 0)
      (effects (font (size 1.27 1.27)))
    )
    (property "Footprint" "" (at 222.25 72.39 0)
      (effects (font (size 1.27 1.27)) hide)
    )
    (property "Datasheet" "" (at 222.25 72.39 0)
      (effects (font (size 1.27 1.27)) hide)
    )
    (pin "1" (uuid b6ebed9d-91df-44e7-919e-f558cbfaf7ee))
    (instances
      (project "pico_synth_sandbox"
        (path "/bfc01388-33ce-4b1a-9d2f-82d750172e5a/f0d7f11b-6ebd-4c2b-8e52-e814f3b2f284"
          (reference "#PWR052") (unit 1)
        )
      )
    )
  )

  (symbol (lib_id "Device:C_Small") (at 161.29 76.2 0) (unit 1)
    (in_bom yes) (on_board yes) (dnp no) (fields_autoplaced)
    (uuid 26ed49ae-adac-4021-b472-23612f76f8c3)
    (property "Reference" "C13" (at 163.83 74.9363 0)
      (effects (font (size 1.27 1.27)) (justify left))
    )
    (property "Value" "2.2nF" (at 163.83 77.4763 0)
      (effects (font (size 1.27 1.27)) (justify left))
    )
    (property "Footprint" "Capacitor_SMD:C_0805_2012Metric_Pad1.18x1.45mm_HandSolder" (at 161.29 76.2 0)
      (effects (font (size 1.27 1.27)) hide)
    )
    (property "Datasheet" "~" (at 161.29 76.2 0)
      (effects (font (size 1.27 1.27)) hide)
    )
    (pin "1" (uuid f5399eda-d19d-4443-8934-2e8cd2e5a3ae))
    (pin "2" (uuid 2304ad4b-ae7f-4273-8cba-bee178ed572d))
    (instances
      (project "pico_synth_sandbox"
        (path "/bfc01388-33ce-4b1a-9d2f-82d750172e5a/f0d7f11b-6ebd-4c2b-8e52-e814f3b2f284"
          (reference "C13") (unit 1)
        )
      )
    )
  )

  (symbol (lib_id "Device:C_Small") (at 172.72 76.2 0) (unit 1)
    (in_bom yes) (on_board yes) (dnp no) (fields_autoplaced)
    (uuid 28691633-f758-460e-bbd5-7487ccaed3d4)
    (property "Reference" "C14" (at 175.26 74.9363 0)
      (effects (font (size 1.27 1.27)) (justify left))
    )
    (property "Value" "2.2nF" (at 175.26 77.4763 0)
      (effects (font (size 1.27 1.27)) (justify left))
    )
    (property "Footprint" "Capacitor_SMD:C_0805_2012Metric_Pad1.18x1.45mm_HandSolder" (at 172.72 76.2 0)
      (effects (font (size 1.27 1.27)) hide)
    )
    (property "Datasheet" "~" (at 172.72 76.2 0)
      (effects (font (size 1.27 1.27)) hide)
    )
    (pin "1" (uuid d45fefad-4258-424e-ac76-c1e61b38a8ce))
    (pin "2" (uuid 57783d78-8de3-487b-b93a-67eec7c9f3c4))
    (instances
      (project "pico_synth_sandbox"
        (path "/bfc01388-33ce-4b1a-9d2f-82d750172e5a/f0d7f11b-6ebd-4c2b-8e52-e814f3b2f284"
          (reference "C14") (unit 1)
        )
      )
    )
  )

  (symbol (lib_id "Device:R_Pack04") (at 110.49 69.85 90) (mirror x) (unit 1)
    (in_bom yes) (on_board yes) (dnp no)
    (uuid 2b9880f3-92f2-410a-ba54-f36fd531ddeb)
    (property "Reference" "RN3" (at 110.49 59.69 90)
      (effects (font (size 1.27 1.27)))
    )
    (property "Value" "22" (at 110.49 62.23 90)
      (effects (font (size 1.27 1.27)))
    )
    (property "Footprint" "Resistor_SMD:R_Array_Convex_4x1206" (at 110.49 76.835 90)
      (effects (font (size 1.27 1.27)) hide)
    )
    (property "Datasheet" "~" (at 110.49 69.85 0)
      (effects (font (size 1.27 1.27)) hide)
    )
    (pin "7" (uuid 4ec77020-e89f-4680-b10b-819f319ff642))
    (pin "6" (uuid f12e869b-0235-45cf-8889-c467409c4d2f))
    (pin "2" (uuid aaf21261-d8f7-4b4c-abd1-c1738ece4fa8))
    (pin "3" (uuid beaae306-f54f-4209-93eb-5b4f3142d4fd))
    (pin "1" (uuid 28d9f4b7-8438-48f8-8efa-e2d401dd11e4))
    (pin "5" (uuid f7844c7e-4b95-4f3c-8ef9-2ab160920bfe))
    (pin "4" (uuid 45b37c86-2621-4c84-b094-bcf1a93e6ca5))
    (pin "8" (uuid 75109493-dd75-4f65-a816-d113c6fb2f33))
    (instances
      (project "pico_synth_sandbox"
        (path "/bfc01388-33ce-4b1a-9d2f-82d750172e5a/f0d7f11b-6ebd-4c2b-8e52-e814f3b2f284"
          (reference "RN3") (unit 1)
        )
      )
    )
  )

  (symbol (lib_id "power:GNDA") (at 172.72 83.82 0) (unit 1)
    (in_bom yes) (on_board yes) (dnp no)
    (uuid 2c96ee76-f896-4f28-a102-81002fee8050)
    (property "Reference" "#PWR051" (at 172.72 90.17 0)
      (effects (font (size 1.27 1.27)) hide)
    )
    (property "Value" "GNDA" (at 172.72 90.17 90)
      (effects (font (size 1.27 1.27)))
    )
    (property "Footprint" "" (at 172.72 83.82 0)
      (effects (font (size 1.27 1.27)) hide)
    )
    (property "Datasheet" "" (at 172.72 83.82 0)
      (effects (font (size 1.27 1.27)) hide)
    )
    (pin "1" (uuid c4677fda-847f-40be-9a78-a5a340c141b7))
    (instances
      (project "pico_synth_sandbox"
        (path "/bfc01388-33ce-4b1a-9d2f-82d750172e5a/f0d7f11b-6ebd-4c2b-8e52-e814f3b2f284"
          (reference "#PWR051") (unit 1)
        )
      )
    )
  )

  (symbol (lib_id "power:GNDA") (at 58.42 151.13 0) (unit 1)
    (in_bom yes) (on_board yes) (dnp no)
    (uuid 2f7af935-6b58-4c10-a4b1-652794f12a64)
    (property "Reference" "#PWR039" (at 58.42 157.48 0)
      (effects (font (size 1.27 1.27)) hide)
    )
    (property "Value" "GNDA" (at 58.42 154.94 0)
      (effects (font (size 1.27 1.27)))
    )
    (property "Footprint" "" (at 58.42 151.13 0)
      (effects (font (size 1.27 1.27)) hide)
    )
    (property "Datasheet" "" (at 58.42 151.13 0)
      (effects (font (size 1.27 1.27)) hide)
    )
    (pin "1" (uuid 2ee24dfb-d98d-44be-a167-49414014d9d4))
    (instances
      (project "pico_synth_sandbox"
        (path "/bfc01388-33ce-4b1a-9d2f-82d750172e5a/f0d7f11b-6ebd-4c2b-8e52-e814f3b2f284"
          (reference "#PWR039") (unit 1)
        )
      )
    )
  )

  (symbol (lib_id "Device:C_Small") (at 149.86 76.2 0) (unit 1)
    (in_bom yes) (on_board yes) (dnp no) (fields_autoplaced)
    (uuid 3041e546-d203-4d55-8fb8-ce1339b84e3b)
    (property "Reference" "C12" (at 152.4 74.9363 0)
      (effects (font (size 1.27 1.27)) (justify left))
    )
    (property "Value" "2.2uF" (at 152.4 77.4763 0)
      (effects (font (size 1.27 1.27)) (justify left))
    )
    (property "Footprint" "Capacitor_SMD:C_0805_2012Metric_Pad1.18x1.45mm_HandSolder" (at 149.86 76.2 0)
      (effects (font (size 1.27 1.27)) hide)
    )
    (property "Datasheet" "~" (at 149.86 76.2 0)
      (effects (font (size 1.27 1.27)) hide)
    )
    (pin "1" (uuid c0e5bb2a-0a80-4baf-b3a8-c064a269c007))
    (pin "2" (uuid b6960b76-2dd6-4074-9b00-81fc13c38fc6))
    (instances
      (project "pico_synth_sandbox"
        (path "/bfc01388-33ce-4b1a-9d2f-82d750172e5a/f0d7f11b-6ebd-4c2b-8e52-e814f3b2f284"
          (reference "C12") (unit 1)
        )
      )
    )
  )

  (symbol (lib_id "Connector:TestPoint") (at 97.79 72.39 90) (unit 1)
    (in_bom yes) (on_board yes) (dnp no)
    (uuid 304c58d0-d673-431a-8c11-cf402314c042)
    (property "Reference" "TP4" (at 92.71 72.39 90)
      (effects (font (size 1.27 1.27)) (justify left))
    )
    (property "Value" "SCK" (at 92.71 74.93 90)
      (effects (font (size 1.27 1.27)) (justify left))
    )
    (property "Footprint" "TestPoint:TestPoint_Pad_D2.0mm" (at 97.79 67.31 0)
      (effects (font (size 1.27 1.27)) hide)
    )
    (property "Datasheet" "~" (at 97.79 67.31 0)
      (effects (font (size 1.27 1.27)) hide)
    )
    (pin "1" (uuid 2e355234-543e-4224-b6f1-ec2bffd5f702))
    (instances
      (project "pico_synth_sandbox"
        (path "/bfc01388-33ce-4b1a-9d2f-82d750172e5a/f0d7f11b-6ebd-4c2b-8e52-e814f3b2f284"
          (reference "TP4") (unit 1)
        )
      )
    )
  )

  (symbol (lib_id "power:+3.3VA") (at 130.81 58.42 0) (unit 1)
    (in_bom yes) (on_board yes) (dnp no)
    (uuid 3426f716-ff98-49b3-aaaa-f3c77b43d30e)
    (property "Reference" "#PWR043" (at 130.81 62.23 0)
      (effects (font (size 1.27 1.27)) hide)
    )
    (property "Value" "+3.3VA" (at 130.81 52.07 90)
      (effects (font (size 1.27 1.27)))
    )
    (property "Footprint" "" (at 130.81 58.42 0)
      (effects (font (size 1.27 1.27)) hide)
    )
    (property "Datasheet" "" (at 130.81 58.42 0)
      (effects (font (size 1.27 1.27)) hide)
    )
    (pin "1" (uuid d6e36511-6192-4e11-b641-f2498069b57f))
    (instances
      (project "pico_synth_sandbox"
        (path "/bfc01388-33ce-4b1a-9d2f-82d750172e5a/f0d7f11b-6ebd-4c2b-8e52-e814f3b2f284"
          (reference "#PWR043") (unit 1)
        )
      )
    )
  )

  (symbol (lib_id "power:+3.3V") (at 222.25 100.33 0) (unit 1)
    (in_bom yes) (on_board yes) (dnp no) (fields_autoplaced)
    (uuid 4a8ba04a-c824-4bb6-8597-ceb92a578ac9)
    (property "Reference" "#PWR054" (at 222.25 104.14 0)
      (effects (font (size 1.27 1.27)) hide)
    )
    (property "Value" "+3.3V" (at 222.25 95.25 0)
      (effects (font (size 1.27 1.27)))
    )
    (property "Footprint" "" (at 222.25 100.33 0)
      (effects (font (size 1.27 1.27)) hide)
    )
    (property "Datasheet" "" (at 222.25 100.33 0)
      (effects (font (size 1.27 1.27)) hide)
    )
    (pin "1" (uuid 804fd115-9689-4fe8-ad2f-f864784639ee))
    (instances
      (project "pico_synth_sandbox"
        (path "/bfc01388-33ce-4b1a-9d2f-82d750172e5a/f0d7f11b-6ebd-4c2b-8e52-e814f3b2f284"
          (reference "#PWR054") (unit 1)
        )
      )
    )
  )

  (symbol (lib_id "Device:C_Small") (at 55.88 146.05 0) (mirror y) (unit 1)
    (in_bom yes) (on_board yes) (dnp no)
    (uuid 4c5749db-70b2-47ec-8f75-4ceea2f46a03)
    (property "Reference" "C5" (at 53.34 144.2339 0)
      (effects (font (size 1.27 1.27)) (justify left))
    )
    (property "Value" "10uF" (at 53.34 146.7739 0)
      (effects (font (size 1.27 1.27)) (justify left))
    )
    (property "Footprint" "Capacitor_SMD:C_0805_2012Metric_Pad1.18x1.45mm_HandSolder" (at 55.88 146.05 0)
      (effects (font (size 1.27 1.27)) hide)
    )
    (property "Datasheet" "~" (at 55.88 146.05 0)
      (effects (font (size 1.27 1.27)) hide)
    )
    (pin "1" (uuid 5613106d-a91f-4c67-afca-ecc26e8cb356))
    (pin "2" (uuid 0a086ed2-0df5-4e68-af4d-a419b7ec94a3))
    (instances
      (project "pico_synth_sandbox"
        (path "/bfc01388-33ce-4b1a-9d2f-82d750172e5a/f0d7f11b-6ebd-4c2b-8e52-e814f3b2f284"
          (reference "C5") (unit 1)
        )
      )
    )
  )

  (symbol (lib_id "Device:R_Small") (at 152.4 64.77 270) (mirror x) (unit 1)
    (in_bom yes) (on_board yes) (dnp no)
    (uuid 4de678d3-1c9f-40fa-be9e-8016332d857f)
    (property "Reference" "R1" (at 152.4 62.23 90)
      (effects (font (size 1 1)))
    )
    (property "Value" "470" (at 152.4 64.77 90)
      (effects (font (size 1 1)))
    )
    (property "Footprint" "Resistor_SMD:R_0805_2012Metric_Pad1.20x1.40mm_HandSolder" (at 152.4 64.77 0)
      (effects (font (size 1.27 1.27)) hide)
    )
    (property "Datasheet" "~" (at 152.4 64.77 0)
      (effects (font (size 1.27 1.27)) hide)
    )
    (pin "1" (uuid 169a9d5d-090b-483d-b981-4c44b8ed2295))
    (pin "2" (uuid 2bc7951c-73f2-4ec4-8ba1-172731a09ae9))
    (instances
      (project "pico_synth_sandbox"
        (path "/bfc01388-33ce-4b1a-9d2f-82d750172e5a/f0d7f11b-6ebd-4c2b-8e52-e814f3b2f284"
          (reference "R1") (unit 1)
        )
      )
    )
  )

  (symbol (lib_id "Device:C_Small") (at 102.87 142.24 270) (mirror x) (unit 1)
    (in_bom yes) (on_board yes) (dnp no)
    (uuid 58bb1ba0-39a9-4d64-9a5e-d7072280f23b)
    (property "Reference" "C9" (at 102.8637 135.89 90)
      (effects (font (size 1.27 1.27)))
    )
    (property "Value" "0.1uF" (at 102.8637 138.43 90)
      (effects (font (size 1.27 1.27)))
    )
    (property "Footprint" "Capacitor_SMD:C_0805_2012Metric_Pad1.18x1.45mm_HandSolder" (at 102.87 142.24 0)
      (effects (font (size 1.27 1.27)) hide)
    )
    (property "Datasheet" "~" (at 102.87 142.24 0)
      (effects (font (size 1.27 1.27)) hide)
    )
    (pin "1" (uuid 5489f602-8087-46c4-a1db-dad31620d223))
    (pin "2" (uuid ba520a65-e028-418d-bd26-dac405c38b47))
    (instances
      (project "pico_synth_sandbox"
        (path "/bfc01388-33ce-4b1a-9d2f-82d750172e5a/f0d7f11b-6ebd-4c2b-8e52-e814f3b2f284"
          (reference "C9") (unit 1)
        )
      )
    )
  )

  (symbol (lib_id "power:+3.3V") (at 242.57 72.39 0) (unit 1)
    (in_bom yes) (on_board yes) (dnp no) (fields_autoplaced)
    (uuid 5f56d5fe-de00-4b10-88e5-2dc33ed16f3e)
    (property "Reference" "#PWR056" (at 242.57 76.2 0)
      (effects (font (size 1.27 1.27)) hide)
    )
    (property "Value" "+3.3V" (at 242.57 67.31 0)
      (effects (font (size 1.27 1.27)))
    )
    (property "Footprint" "" (at 242.57 72.39 0)
      (effects (font (size 1.27 1.27)) hide)
    )
    (property "Datasheet" "" (at 242.57 72.39 0)
      (effects (font (size 1.27 1.27)) hide)
    )
    (pin "1" (uuid cf4edc68-0d56-403a-b952-54f6b85b4c89))
    (instances
      (project "pico_synth_sandbox"
        (path "/bfc01388-33ce-4b1a-9d2f-82d750172e5a/f0d7f11b-6ebd-4c2b-8e52-e814f3b2f284"
          (reference "#PWR056") (unit 1)
        )
      )
    )
  )

  (symbol (lib_id "power:GND") (at 242.57 110.49 0) (unit 1)
    (in_bom yes) (on_board yes) (dnp no) (fields_autoplaced)
    (uuid 6cb134a6-6d8d-4901-9147-ed4aa2ce8203)
    (property "Reference" "#PWR059" (at 242.57 116.84 0)
      (effects (font (size 1.27 1.27)) hide)
    )
    (property "Value" "GND" (at 242.57 115.57 0)
      (effects (font (size 1.27 1.27)))
    )
    (property "Footprint" "" (at 242.57 110.49 0)
      (effects (font (size 1.27 1.27)) hide)
    )
    (property "Datasheet" "" (at 242.57 110.49 0)
      (effects (font (size 1.27 1.27)) hide)
    )
    (pin "1" (uuid c860f2da-25e3-4bb8-9323-8890df935221))
    (instances
      (project "pico_synth_sandbox"
        (path "/bfc01388-33ce-4b1a-9d2f-82d750172e5a/f0d7f11b-6ebd-4c2b-8e52-e814f3b2f284"
          (reference "#PWR059") (unit 1)
        )
      )
    )
  )

  (symbol (lib_id "Device:C_Small") (at 148.59 92.71 0) (unit 1)
    (in_bom yes) (on_board yes) (dnp no) (fields_autoplaced)
    (uuid 6d499485-ff19-447d-9ec9-61a754ccbda6)
    (property "Reference" "C11" (at 151.13 91.4463 0)
      (effects (font (size 1.27 1.27)) (justify left))
    )
    (property "Value" "2.2uF" (at 151.13 93.9863 0)
      (effects (font (size 1.27 1.27)) (justify left))
    )
    (property "Footprint" "Capacitor_SMD:C_0805_2012Metric_Pad1.18x1.45mm_HandSolder" (at 148.59 92.71 0)
      (effects (font (size 1.27 1.27)) hide)
    )
    (property "Datasheet" "~" (at 148.59 92.71 0)
      (effects (font (size 1.27 1.27)) hide)
    )
    (pin "1" (uuid 3f64d544-63cf-4057-b272-5a4cf355829d))
    (pin "2" (uuid b8336914-2c9e-43bd-9793-4f9d2960101d))
    (instances
      (project "pico_synth_sandbox"
        (path "/bfc01388-33ce-4b1a-9d2f-82d750172e5a/f0d7f11b-6ebd-4c2b-8e52-e814f3b2f284"
          (reference "C11") (unit 1)
        )
      )
    )
  )

  (symbol (lib_id "power:GND") (at 242.57 82.55 0) (unit 1)
    (in_bom yes) (on_board yes) (dnp no) (fields_autoplaced)
    (uuid 6dbb11c5-1de6-47a5-b172-4332d47ac271)
    (property "Reference" "#PWR057" (at 242.57 88.9 0)
      (effects (font (size 1.27 1.27)) hide)
    )
    (property "Value" "GND" (at 242.57 87.63 0)
      (effects (font (size 1.27 1.27)))
    )
    (property "Footprint" "" (at 242.57 82.55 0)
      (effects (font (size 1.27 1.27)) hide)
    )
    (property "Datasheet" "" (at 242.57 82.55 0)
      (effects (font (size 1.27 1.27)) hide)
    )
    (pin "1" (uuid ac7dab2b-611e-4bc5-8126-c3155219ee0e))
    (instances
      (project "pico_synth_sandbox"
        (path "/bfc01388-33ce-4b1a-9d2f-82d750172e5a/f0d7f11b-6ebd-4c2b-8e52-e814f3b2f284"
          (reference "#PWR057") (unit 1)
        )
      )
    )
  )

  (symbol (lib_id "power:GND") (at 133.35 97.79 0) (unit 1)
    (in_bom yes) (on_board yes) (dnp no)
    (uuid 7431aeec-2dd5-4481-921b-c5d87d480c04)
    (property "Reference" "#PWR046" (at 133.35 104.14 0)
      (effects (font (size 1.27 1.27)) hide)
    )
    (property "Value" "GND" (at 133.35 102.87 90)
      (effects (font (size 1.27 1.27)))
    )
    (property "Footprint" "" (at 133.35 97.79 0)
      (effects (font (size 1.27 1.27)) hide)
    )
    (property "Datasheet" "" (at 133.35 97.79 0)
      (effects (font (size 1.27 1.27)) hide)
    )
    (pin "1" (uuid e8ea5620-1e9a-4e8f-8967-3f6473deab98))
    (instances
      (project "pico_synth_sandbox"
        (path "/bfc01388-33ce-4b1a-9d2f-82d750172e5a/f0d7f11b-6ebd-4c2b-8e52-e814f3b2f284"
          (reference "#PWR046") (unit 1)
        )
      )
    )
  )

  (symbol (lib_id "Device:C_Small") (at 60.96 146.05 0) (unit 1)
    (in_bom yes) (on_board yes) (dnp no) (fields_autoplaced)
    (uuid 76451538-8334-4e6d-a4b2-74455e76fb20)
    (property "Reference" "C6" (at 63.5 144.2339 0)
      (effects (font (size 1.27 1.27)) (justify left))
    )
    (property "Value" "0.1uF" (at 63.5 146.7739 0)
      (effects (font (size 1.27 1.27)) (justify left))
    )
    (property "Footprint" "Capacitor_SMD:C_0805_2012Metric_Pad1.18x1.45mm_HandSolder" (at 60.96 146.05 0)
      (effects (font (size 1.27 1.27)) hide)
    )
    (property "Datasheet" "~" (at 60.96 146.05 0)
      (effects (font (size 1.27 1.27)) hide)
    )
    (pin "1" (uuid 9c33d9bb-128b-4da2-9235-008aa08c310d))
    (pin "2" (uuid e50e0e8a-1dda-466f-a8e5-e883d75b09a7))
    (instances
      (project "pico_synth_sandbox"
        (path "/bfc01388-33ce-4b1a-9d2f-82d750172e5a/f0d7f11b-6ebd-4c2b-8e52-e814f3b2f284"
          (reference "C6") (unit 1)
        )
      )
    )
  )

  (symbol (lib_id "Jumper:SolderJumper_3_Bridged12") (at 222.25 77.47 270) (mirror x) (unit 1)
    (in_bom yes) (on_board yes) (dnp no)
    (uuid 76f40dff-a7ee-452f-bfdd-7e766448f4ff)
    (property "Reference" "JP2" (at 224.79 76.2 90)
      (effects (font (size 1.27 1.27)) (justify left))
    )
    (property "Value" "H1L" (at 224.79 78.74 90)
      (effects (font (size 1.27 1.27)) (justify left))
    )
    (property "Footprint" "Jumper:SolderJumper-3_P1.3mm_Bridged12_RoundedPad1.0x1.5mm" (at 222.25 77.47 0)
      (effects (font (size 1.27 1.27)) hide)
    )
    (property "Datasheet" "~" (at 222.25 77.47 0)
      (effects (font (size 1.27 1.27)) hide)
    )
    (pin "1" (uuid 1666f9af-3987-4c1d-bd5a-4b21c859dc3f))
    (pin "2" (uuid 4ba99345-ab0b-47e1-8c75-d82e2fed2d9f))
    (pin "3" (uuid 2679e2af-1845-4fef-ac03-bdc1e7654e63))
    (instances
      (project "pico_synth_sandbox"
        (path "/bfc01388-33ce-4b1a-9d2f-82d750172e5a/f0d7f11b-6ebd-4c2b-8e52-e814f3b2f284"
          (reference "JP2") (unit 1)
        )
      )
    )
  )

  (symbol (lib_id "Device:C_Small") (at 102.87 147.32 90) (mirror x) (unit 1)
    (in_bom yes) (on_board yes) (dnp no)
    (uuid 7f3e1ddd-9b4b-4b15-9941-0d5cf614fecc)
    (property "Reference" "C10" (at 102.8763 153.67 90)
      (effects (font (size 1.27 1.27)))
    )
    (property "Value" "10uF" (at 102.8763 151.13 90)
      (effects (font (size 1.27 1.27)))
    )
    (property "Footprint" "Capacitor_SMD:C_0805_2012Metric_Pad1.18x1.45mm_HandSolder" (at 102.87 147.32 0)
      (effects (font (size 1.27 1.27)) hide)
    )
    (property "Datasheet" "~" (at 102.87 147.32 0)
      (effects (font (size 1.27 1.27)) hide)
    )
    (pin "1" (uuid 684516da-d7e2-482c-a471-d2efa8d4644c))
    (pin "2" (uuid e5b0f1fd-b4ee-4932-9db7-0e713481aa18))
    (instances
      (project "pico_synth_sandbox"
        (path "/bfc01388-33ce-4b1a-9d2f-82d750172e5a/f0d7f11b-6ebd-4c2b-8e52-e814f3b2f284"
          (reference "C10") (unit 1)
        )
      )
    )
  )

  (symbol (lib_id "power:GNDA") (at 135.89 96.52 0) (unit 1)
    (in_bom yes) (on_board yes) (dnp no)
    (uuid 87500b7e-e01e-4b05-9ff8-eb745a073905)
    (property "Reference" "#PWR048" (at 135.89 102.87 0)
      (effects (font (size 1.27 1.27)) hide)
    )
    (property "Value" "GNDA" (at 135.89 102.87 90)
      (effects (font (size 1.27 1.27)))
    )
    (property "Footprint" "" (at 135.89 96.52 0)
      (effects (font (size 1.27 1.27)) hide)
    )
    (property "Datasheet" "" (at 135.89 96.52 0)
      (effects (font (size 1.27 1.27)) hide)
    )
    (pin "1" (uuid 0b2f4e6b-7142-46f8-a20c-da8320281d1a))
    (instances
      (project "pico_synth_sandbox"
        (path "/bfc01388-33ce-4b1a-9d2f-82d750172e5a/f0d7f11b-6ebd-4c2b-8e52-e814f3b2f284"
          (reference "#PWR048") (unit 1)
        )
      )
    )
  )

  (symbol (lib_id "power:GND") (at 104.14 82.55 0) (unit 1)
    (in_bom yes) (on_board yes) (dnp no)
    (uuid 89b4b923-57d6-4649-bb58-cd186979a053)
    (property "Reference" "#PWR041" (at 104.14 88.9 0)
      (effects (font (size 1.27 1.27)) hide)
    )
    (property "Value" "GND" (at 104.14 87.63 90)
      (effects (font (size 1.27 1.27)))
    )
    (property "Footprint" "" (at 104.14 82.55 0)
      (effects (font (size 1.27 1.27)) hide)
    )
    (property "Datasheet" "" (at 104.14 82.55 0)
      (effects (font (size 1.27 1.27)) hide)
    )
    (pin "1" (uuid e4a5af7c-e072-465a-a4ce-4a519453665d))
    (instances
      (project "pico_synth_sandbox"
        (path "/bfc01388-33ce-4b1a-9d2f-82d750172e5a/f0d7f11b-6ebd-4c2b-8e52-e814f3b2f284"
          (reference "#PWR041") (unit 1)
        )
      )
    )
  )

  (symbol (lib_id "power:+3.3V") (at 107.95 135.89 0) (unit 1)
    (in_bom yes) (on_board yes) (dnp no)
    (uuid 99abdf2f-3eef-4713-899b-1e7c45d35413)
    (property "Reference" "#PWR042" (at 107.95 139.7 0)
      (effects (font (size 1.27 1.27)) hide)
    )
    (property "Value" "+3.3V" (at 107.95 132.08 0)
      (effects (font (size 1.27 1.27)))
    )
    (property "Footprint" "" (at 107.95 135.89 0)
      (effects (font (size 1.27 1.27)) hide)
    )
    (property "Datasheet" "" (at 107.95 135.89 0)
      (effects (font (size 1.27 1.27)) hide)
    )
    (pin "1" (uuid 4899163c-35f3-4fe3-b686-4e61fb968493))
    (instances
      (project "pico_synth_sandbox"
        (path "/bfc01388-33ce-4b1a-9d2f-82d750172e5a/f0d7f11b-6ebd-4c2b-8e52-e814f3b2f284"
          (reference "#PWR042") (unit 1)
        )
      )
    )
  )

  (symbol (lib_id "power:+3.3VA") (at 58.42 140.97 0) (unit 1)
    (in_bom yes) (on_board yes) (dnp no)
    (uuid 99e54a75-e93b-4054-9463-51afd36453af)
    (property "Reference" "#PWR038" (at 58.42 144.78 0)
      (effects (font (size 1.27 1.27)) hide)
    )
    (property "Value" "+3.3VA" (at 58.42 137.16 0)
      (effects (font (size 1.27 1.27)))
    )
    (property "Footprint" "" (at 58.42 140.97 0)
      (effects (font (size 1.27 1.27)) hide)
    )
    (property "Datasheet" "" (at 58.42 140.97 0)
      (effects (font (size 1.27 1.27)) hide)
    )
    (pin "1" (uuid 88ed5960-c0a4-4fbd-9de3-26c97f2999bc))
    (instances
      (project "pico_synth_sandbox"
        (path "/bfc01388-33ce-4b1a-9d2f-82d750172e5a/f0d7f11b-6ebd-4c2b-8e52-e814f3b2f284"
          (reference "#PWR038") (unit 1)
        )
      )
    )
  )

  (symbol (lib_id "Jumper:SolderJumper_2_Bridged") (at 104.14 78.74 90) (unit 1)
    (in_bom yes) (on_board yes) (dnp no)
    (uuid a41fa257-a75b-4b33-8a03-75e503baddb2)
    (property "Reference" "JP1" (at 101.6 78.74 0)
      (effects (font (size 1.27 1.27)))
    )
    (property "Value" "SCK" (at 107.95 78.74 0)
      (effects (font (size 1.27 1.27)))
    )
    (property "Footprint" "Jumper:SolderJumper-2_P1.3mm_Bridged_RoundedPad1.0x1.5mm" (at 104.14 78.74 0)
      (effects (font (size 1.27 1.27)) hide)
    )
    (property "Datasheet" "~" (at 104.14 78.74 0)
      (effects (font (size 1.27 1.27)) hide)
    )
    (pin "1" (uuid bae84e3b-a97b-4cc7-9a93-39dc97d08e2f))
    (pin "2" (uuid e9b606bc-4210-460b-bdd5-362740d2cb5b))
    (instances
      (project "pico_synth_sandbox"
        (path "/bfc01388-33ce-4b1a-9d2f-82d750172e5a/f0d7f11b-6ebd-4c2b-8e52-e814f3b2f284"
          (reference "JP1") (unit 1)
        )
      )
    )
  )

  (symbol (lib_id "Device:R_Small") (at 152.4 67.31 270) (mirror x) (unit 1)
    (in_bom yes) (on_board yes) (dnp no)
    (uuid ad8a9f93-d57d-479e-91fe-a36d9efe8be4)
    (property "Reference" "R2" (at 152.4 69.85 90)
      (effects (font (size 1 1)))
    )
    (property "Value" "470" (at 152.4 67.31 90)
      (effects (font (size 1 1)))
    )
    (property "Footprint" "Resistor_SMD:R_0805_2012Metric_Pad1.20x1.40mm_HandSolder" (at 152.4 67.31 0)
      (effects (font (size 1.27 1.27)) hide)
    )
    (property "Datasheet" "~" (at 152.4 67.31 0)
      (effects (font (size 1.27 1.27)) hide)
    )
    (pin "1" (uuid 8b262537-a727-499f-a728-b0b8056028b1))
    (pin "2" (uuid cb46562a-f8a9-42a9-a943-b9a324ed8609))
    (instances
      (project "pico_synth_sandbox"
        (path "/bfc01388-33ce-4b1a-9d2f-82d750172e5a/f0d7f11b-6ebd-4c2b-8e52-e814f3b2f284"
          (reference "R2") (unit 1)
        )
      )
    )
  )

  (symbol (lib_id "power:GND") (at 97.79 153.67 0) (unit 1)
    (in_bom yes) (on_board yes) (dnp no)
    (uuid bb1a8ded-724d-4455-b46f-eeb737bfb378)
    (property "Reference" "#PWR040" (at 97.79 160.02 0)
      (effects (font (size 1.27 1.27)) hide)
    )
    (property "Value" "GND" (at 97.79 157.48 0)
      (effects (font (size 1.27 1.27)))
    )
    (property "Footprint" "" (at 97.79 153.67 0)
      (effects (font (size 1.27 1.27)) hide)
    )
    (property "Datasheet" "" (at 97.79 153.67 0)
      (effects (font (size 1.27 1.27)) hide)
    )
    (pin "1" (uuid a924238d-40e3-4986-8886-afe0bf4fd32e))
    (instances
      (project "pico_synth_sandbox"
        (path "/bfc01388-33ce-4b1a-9d2f-82d750172e5a/f0d7f11b-6ebd-4c2b-8e52-e814f3b2f284"
          (reference "#PWR040") (unit 1)
        )
      )
    )
  )

  (symbol (lib_id "Audio:PCM5102A") (at 133.35 74.93 0) (unit 1)
    (in_bom yes) (on_board yes) (dnp no) (fields_autoplaced)
    (uuid bed3e404-091c-4023-a089-0636830f551e)
    (property "Reference" "U3" (at 138.0841 57.15 0)
      (effects (font (size 1.27 1.27)) (justify left))
    )
    (property "Value" "PCM5102A" (at 138.0841 59.69 0)
      (effects (font (size 1.27 1.27)) (justify left))
    )
    (property "Footprint" "Package_SO:TSSOP-20_4.4x6.5mm_P0.65mm" (at 158.75 91.44 0)
      (effects (font (size 1.27 1.27)) hide)
    )
    (property "Datasheet" "https://www.ti.com/lit/ds/symlink/pcm5102a.pdf" (at 133.35 74.93 0)
      (effects (font (size 1.27 1.27)) hide)
    )
    (pin "1" (uuid 6c3dc77a-9113-4657-bb58-cf746f087b4c))
    (pin "10" (uuid 373064a3-abda-44cb-95c5-c9b4a66c95b8))
    (pin "11" (uuid 0e471f0a-e112-4f8f-b2ec-b4bafba86e01))
    (pin "12" (uuid b40fe567-0116-4cd6-ad78-9e8f855c2bc4))
    (pin "13" (uuid 61f61b6e-cdb9-4797-89bb-c4413f740e8f))
    (pin "14" (uuid ca723be6-1b67-43d8-937c-09fd9ddc4379))
    (pin "15" (uuid 36ba4fbb-99a8-4a28-8008-e56fa4fff821))
    (pin "16" (uuid c5240b88-7589-4e47-9c1c-b0d2ee0e604e))
    (pin "17" (uuid 0344d9bb-ec28-4171-81bf-c954e2407be9))
    (pin "18" (uuid be5f4d56-9df7-4c84-82a9-fa8622894117))
    (pin "19" (uuid bfae4e03-2c0d-449d-a46b-a2445fcad6be))
    (pin "2" (uuid 6b01a87c-4b7f-4c7c-b85f-fcc470e9c4b5))
    (pin "20" (uuid e76bff6a-7f77-4490-aeea-bff94bfee56a))
    (pin "3" (uuid 278dcb0e-64ec-422e-bcfa-a46e0659893d))
    (pin "4" (uuid 413d3bd6-23d2-49f4-90fc-8eb1f72f7fcc))
    (pin "5" (uuid d3856b45-83e4-43a3-9ebf-83f3d79c177e))
    (pin "6" (uuid 43f1964c-efcd-4586-8f02-996fe4e0fc69))
    (pin "7" (uuid 429bd6f5-8a0e-4afc-b274-3c3de9e80feb))
    (pin "8" (uuid c118613a-75f8-47bf-b867-bf1218eadcdd))
    (pin "9" (uuid a76fb012-3b6a-48ea-92ed-87088b6df04a))
    (instances
      (project "pico_synth_sandbox"
        (path "/bfc01388-33ce-4b1a-9d2f-82d750172e5a/f0d7f11b-6ebd-4c2b-8e52-e814f3b2f284"
          (reference "U3") (unit 1)
        )
      )
    )
  )

  (symbol (lib_id "Jumper:SolderJumper_3_Bridged12") (at 242.57 105.41 270) (mirror x) (unit 1)
    (in_bom yes) (on_board yes) (dnp no)
    (uuid cb2865ba-5920-4892-8331-ce764a1a5065)
    (property "Reference" "JP5" (at 245.11 104.14 90)
      (effects (font (size 1.27 1.27)) (justify left))
    )
    (property "Value" "H4L" (at 245.11 106.68 90)
      (effects (font (size 1.27 1.27)) (justify left))
    )
    (property "Footprint" "Jumper:SolderJumper-3_P1.3mm_Bridged12_RoundedPad1.0x1.5mm" (at 242.57 105.41 0)
      (effects (font (size 1.27 1.27)) hide)
    )
    (property "Datasheet" "~" (at 242.57 105.41 0)
      (effects (font (size 1.27 1.27)) hide)
    )
    (pin "1" (uuid cc9b850f-dbeb-44aa-abd2-67c70d469d5d))
    (pin "2" (uuid c8370712-e07b-47d1-8799-00f3b158eea3))
    (pin "3" (uuid 4a46c5b2-7181-4ea4-a45c-abed2405166b))
    (instances
      (project "pico_synth_sandbox"
        (path "/bfc01388-33ce-4b1a-9d2f-82d750172e5a/f0d7f11b-6ebd-4c2b-8e52-e814f3b2f284"
          (reference "JP5") (unit 1)
        )
      )
    )
  )

  (symbol (lib_id "Jumper:SolderJumper_3_Bridged12") (at 242.57 77.47 270) (mirror x) (unit 1)
    (in_bom yes) (on_board yes) (dnp no)
    (uuid cdd3224d-f197-4707-980d-45489669a49d)
    (property "Reference" "JP4" (at 245.11 76.2 90)
      (effects (font (size 1.27 1.27)) (justify left))
    )
    (property "Value" "H2L" (at 245.11 78.74 90)
      (effects (font (size 1.27 1.27)) (justify left))
    )
    (property "Footprint" "Jumper:SolderJumper-3_P1.3mm_Bridged12_RoundedPad1.0x1.5mm" (at 242.57 77.47 0)
      (effects (font (size 1.27 1.27)) hide)
    )
    (property "Datasheet" "~" (at 242.57 77.47 0)
      (effects (font (size 1.27 1.27)) hide)
    )
    (pin "1" (uuid b7e20095-eba2-461d-bfad-c08efed80c15))
    (pin "2" (uuid 6e899263-4a62-4b88-bafa-fbe3f63daad7))
    (pin "3" (uuid ff7a0e5a-6a29-47b1-bf32-ffcb6610cee9))
    (instances
      (project "pico_synth_sandbox"
        (path "/bfc01388-33ce-4b1a-9d2f-82d750172e5a/f0d7f11b-6ebd-4c2b-8e52-e814f3b2f284"
          (reference "JP4") (unit 1)
        )
      )
    )
  )

  (symbol (lib_id "power:GNDA") (at 148.59 96.52 0) (unit 1)
    (in_bom yes) (on_board yes) (dnp no)
    (uuid d1404dc0-92e4-4f2b-9e05-0a93f6acbc0d)
    (property "Reference" "#PWR049" (at 148.59 102.87 0)
      (effects (font (size 1.27 1.27)) hide)
    )
    (property "Value" "GNDA" (at 148.59 102.87 90)
      (effects (font (size 1.27 1.27)))
    )
    (property "Footprint" "" (at 148.59 96.52 0)
      (effects (font (size 1.27 1.27)) hide)
    )
    (property "Datasheet" "" (at 148.59 96.52 0)
      (effects (font (size 1.27 1.27)) hide)
    )
    (pin "1" (uuid 82c18760-1367-436b-a2ba-39b711e6d89d))
    (instances
      (project "pico_synth_sandbox"
        (path "/bfc01388-33ce-4b1a-9d2f-82d750172e5a/f0d7f11b-6ebd-4c2b-8e52-e814f3b2f284"
          (reference "#PWR049") (unit 1)
        )
      )
    )
  )

  (symbol (lib_id "power:+3.3V") (at 242.57 100.33 0) (unit 1)
    (in_bom yes) (on_board yes) (dnp no) (fields_autoplaced)
    (uuid e8db43ee-c9ec-481a-8200-0a45903c9bf1)
    (property "Reference" "#PWR058" (at 242.57 104.14 0)
      (effects (font (size 1.27 1.27)) hide)
    )
    (property "Value" "+3.3V" (at 242.57 95.25 0)
      (effects (font (size 1.27 1.27)))
    )
    (property "Footprint" "" (at 242.57 100.33 0)
      (effects (font (size 1.27 1.27)) hide)
    )
    (property "Datasheet" "" (at 242.57 100.33 0)
      (effects (font (size 1.27 1.27)) hide)
    )
    (pin "1" (uuid ee0b19be-6524-4bed-9dbd-9b0cb4993a3c))
    (instances
      (project "pico_synth_sandbox"
        (path "/bfc01388-33ce-4b1a-9d2f-82d750172e5a/f0d7f11b-6ebd-4c2b-8e52-e814f3b2f284"
          (reference "#PWR058") (unit 1)
        )
      )
    )
  )

  (symbol (lib_id "power:GND") (at 222.25 82.55 0) (unit 1)
    (in_bom yes) (on_board yes) (dnp no) (fields_autoplaced)
    (uuid eb740fd7-036c-4501-8e7c-1c5d75fbdc2d)
    (property "Reference" "#PWR053" (at 222.25 88.9 0)
      (effects (font (size 1.27 1.27)) hide)
    )
    (property "Value" "GND" (at 222.25 87.63 0)
      (effects (font (size 1.27 1.27)))
    )
    (property "Footprint" "" (at 222.25 82.55 0)
      (effects (font (size 1.27 1.27)) hide)
    )
    (property "Datasheet" "" (at 222.25 82.55 0)
      (effects (font (size 1.27 1.27)) hide)
    )
    (pin "1" (uuid 0dd65141-1814-46c7-89c1-298ac84a0062))
    (instances
      (project "pico_synth_sandbox"
        (path "/bfc01388-33ce-4b1a-9d2f-82d750172e5a/f0d7f11b-6ebd-4c2b-8e52-e814f3b2f284"
          (reference "#PWR053") (unit 1)
        )
      )
    )
  )

  (symbol (lib_id "power:GNDA") (at 130.81 96.52 0) (unit 1)
    (in_bom yes) (on_board yes) (dnp no)
    (uuid f04cc7c8-83be-40d5-8b84-61bd184df691)
    (property "Reference" "#PWR044" (at 130.81 102.87 0)
      (effects (font (size 1.27 1.27)) hide)
    )
    (property "Value" "GNDA" (at 130.81 102.87 90)
      (effects (font (size 1.27 1.27)))
    )
    (property "Footprint" "" (at 130.81 96.52 0)
      (effects (font (size 1.27 1.27)) hide)
    )
    (property "Datasheet" "" (at 130.81 96.52 0)
      (effects (font (size 1.27 1.27)) hide)
    )
    (pin "1" (uuid c96dadf7-4955-4fd0-a53b-ffbf5b7beb94))
    (instances
      (project "pico_synth_sandbox"
        (path "/bfc01388-33ce-4b1a-9d2f-82d750172e5a/f0d7f11b-6ebd-4c2b-8e52-e814f3b2f284"
          (reference "#PWR044") (unit 1)
        )
      )
    )
  )

  (symbol (lib_id "Device:C_Small") (at 92.71 142.24 90) (unit 1)
    (in_bom yes) (on_board yes) (dnp no) (fields_autoplaced)
    (uuid f17822f8-918c-456d-b0a3-7afc2c91d9d6)
    (property "Reference" "C7" (at 92.7163 135.89 90)
      (effects (font (size 1.27 1.27)))
    )
    (property "Value" "0.1uF" (at 92.7163 138.43 90)
      (effects (font (size 1.27 1.27)))
    )
    (property "Footprint" "Capacitor_SMD:C_0805_2012Metric_Pad1.18x1.45mm_HandSolder" (at 92.71 142.24 0)
      (effects (font (size 1.27 1.27)) hide)
    )
    (property "Datasheet" "~" (at 92.71 142.24 0)
      (effects (font (size 1.27 1.27)) hide)
    )
    (pin "1" (uuid f759de2b-cd88-4be7-8377-bf2a3bfe947e))
    (pin "2" (uuid 703f15e2-c5e4-4c48-9b97-227f7466bf43))
    (instances
      (project "pico_synth_sandbox"
        (path "/bfc01388-33ce-4b1a-9d2f-82d750172e5a/f0d7f11b-6ebd-4c2b-8e52-e814f3b2f284"
          (reference "C7") (unit 1)
        )
      )
    )
  )

  (symbol (lib_id "Device:C_Small") (at 92.71 147.32 90) (mirror x) (unit 1)
    (in_bom yes) (on_board yes) (dnp no)
    (uuid f1b3174c-d8cf-4fd2-b1f6-0c03418beb87)
    (property "Reference" "C8" (at 92.7163 153.67 90)
      (effects (font (size 1.27 1.27)))
    )
    (property "Value" "10uF" (at 92.7163 151.13 90)
      (effects (font (size 1.27 1.27)))
    )
    (property "Footprint" "Capacitor_SMD:C_0805_2012Metric_Pad1.18x1.45mm_HandSolder" (at 92.71 147.32 0)
      (effects (font (size 1.27 1.27)) hide)
    )
    (property "Datasheet" "~" (at 92.71 147.32 0)
      (effects (font (size 1.27 1.27)) hide)
    )
    (pin "1" (uuid d87c950d-3b1d-4a99-a647-e8902a032faa))
    (pin "2" (uuid f4d16bdc-96c4-4903-ada0-ff986b3f6aca))
    (instances
      (project "pico_synth_sandbox"
        (path "/bfc01388-33ce-4b1a-9d2f-82d750172e5a/f0d7f11b-6ebd-4c2b-8e52-e814f3b2f284"
          (reference "C8") (unit 1)
        )
      )
    )
  )

  (symbol (lib_id "power:+3.3VA") (at 135.89 58.42 0) (unit 1)
    (in_bom yes) (on_board yes) (dnp no)
    (uuid fa43b1dc-9506-4aa3-bdb9-451087828913)
    (property "Reference" "#PWR047" (at 135.89 62.23 0)
      (effects (font (size 1.27 1.27)) hide)
    )
    (property "Value" "+3.3VA" (at 135.89 52.07 90)
      (effects (font (size 1.27 1.27)))
    )
    (property "Footprint" "" (at 135.89 58.42 0)
      (effects (font (size 1.27 1.27)) hide)
    )
    (property "Datasheet" "" (at 135.89 58.42 0)
      (effects (font (size 1.27 1.27)) hide)
    )
    (pin "1" (uuid e9efd21d-4f36-40bd-a1c5-7c426cf26399))
    (instances
      (project "pico_synth_sandbox"
        (path "/bfc01388-33ce-4b1a-9d2f-82d750172e5a/f0d7f11b-6ebd-4c2b-8e52-e814f3b2f284"
          (reference "#PWR047") (unit 1)
        )
      )
    )
  )

  (symbol (lib_id "Jumper:SolderJumper_3_Bridged12") (at 222.25 105.41 270) (unit 1)
    (in_bom yes) (on_board yes) (dnp no) (fields_autoplaced)
    (uuid fdc572a0-342a-4480-9946-3fa1f151f3cf)
    (property "Reference" "JP3" (at 224.79 104.14 90)
      (effects (font (size 1.27 1.27)) (justify left))
    )
    (property "Value" "H3L" (at 224.79 106.68 90)
      (effects (font (size 1.27 1.27)) (justify left))
    )
    (property "Footprint" "Jumper:SolderJumper-3_P1.3mm_Bridged12_RoundedPad1.0x1.5mm" (at 222.25 105.41 0)
      (effects (font (size 1.27 1.27)) hide)
    )
    (property "Datasheet" "~" (at 222.25 105.41 0)
      (effects (font (size 1.27 1.27)) hide)
    )
    (pin "1" (uuid 7e608f92-2042-4529-a911-a5f4e2b3e300))
    (pin "2" (uuid 7f81cf87-dfbe-427a-9c88-e5e378dd6c7c))
    (pin "3" (uuid a43b21cb-55a3-499b-b763-93e2f43fdffc))
    (instances
      (project "pico_synth_sandbox"
        (path "/bfc01388-33ce-4b1a-9d2f-82d750172e5a/f0d7f11b-6ebd-4c2b-8e52-e814f3b2f284"
          (reference "JP3") (unit 1)
        )
      )
    )
  )
)
