{
  "board": {
    "3dviewports": [],
    "design_settings": {
      "defaults": {
        "board_outline_line_width": 0.09999999999999999,
        "copper_line_width": 0.19999999999999998,
        "copper_text_italic": false,
        "copper_text_size_h": 1.5,
        "copper_text_size_v": 1.5,
        "copper_text_thickness": 0.3,
        "copper_text_upright": false,
        "courtyard_line_width": 0.049999999999999996,
        "dimension_precision": 4,
        "dimension_units": 3,
        "dimensions": {
          "arrow_length": 1270000,
          "extension_offset": 500000,
          "keep_text_aligned": true,
          "suppress_zeroes": false,
          "text_position": 0,
          "units_format": 1
        },
        "fab_line_width": 0.09999999999999999,
        "fab_text_italic": false,
        "fab_text_size_h": 1.0,
        "fab_text_size_v": 1.0,
        "fab_text_thickness": 0.15,
        "fab_text_upright": false,
        "other_line_width": 0.15,
        "other_text_italic": false,
        "other_text_size_h": 1.0,
        "other_text_size_v": 1.0,
        "other_text_thickness": 0.15,
        "other_text_upright": false,
        "pads": {
          "drill": 0.0,
          "height": 0.62,
          "width": 0.56
        },
        "silk_line_width": 0.15,
        "silk_text_italic": false,
        "silk_text_size_h": 1.0,
        "silk_text_size_v": 1.0,
        "silk_text_thickness": 0.15,
        "silk_text_upright": false,
        "zones": {
          "min_clearance": 0.127
        }
      },
      "diff_pair_dimensions": [
        {
          "gap": 0.0,
          "via_gap": 0.0,
          "width": 0.0
        }
      ],
      "drc_exclusions": [
        "hole_near_hole|234632500|73818750|2b2a9b38-eca6-4ca0-bc5d-50a4f5a740e7|ef5cd655-f960-4e19-a291-19cfbb78708d",
        "hole_near_hole|239077500|83185000|e7da6844-85f3-4ea9-88a1-02e721a4bb8e|7bd55194-b02c-452f-8ed5-bc906f2f9e3e",
        "hole_near_hole|245427500|80645000|726f6e79-5d26-4571-b29f-eefbf12c70cf|20c5e6b5-b262-4db6-8387-6f25d1352044",
        "starved_thermal|146768750|72842500|bcccebc8-727d-43ac-8c2e-a1729ddb36c3|081b66b2-7f18-4004-9b5f-31ae709fb2c0|B.Cu",
        "starved_thermal|146768750|72842500|bcccebc8-727d-43ac-8c2e-a1729ddb36c3|5d8dc50c-15b3-4a21-b69b-48554a43f795|B.Cu",
        "starved_thermal|153268750|72842500|bcccebc8-727d-43ac-8c2e-a1729ddb36c3|77855e4e-1ab3-4443-ae32-6a486a88b4db|B.Cu",
        "starved_thermal|153268750|72842500|bcccebc8-727d-43ac-8c2e-a1729ddb36c3|98ca4495-72f7-4b3b-8628-a1352af763db|B.Cu",
        "starved_thermal|227433712|72901871|bcccebc8-727d-43ac-8c2e-a1729ddb36c3|143b4960-563c-4a45-ac31-289cdd9e253c|B.Cu",
        "starved_thermal|227433712|72901871|bcccebc8-727d-43ac-8c2e-a1729ddb36c3|143b4960-563c-4a45-ac31-289cdd9e253c|F.Cu",
        "starved_thermal|229767164|70568419|bcccebc8-727d-43ac-8c2e-a1729ddb36c3|9341f871-40f3-4ba9-9c5c-bf7438bb8446|B.Cu",
        "starved_thermal|229767164|70568419|bcccebc8-727d-43ac-8c2e-a1729ddb36c3|9341f871-40f3-4ba9-9c5c-bf7438bb8446|F.Cu",
        "starved_thermal|250055644|105941798|bcccebc8-727d-43ac-8c2e-a1729ddb36c3|f4a42a26-1251-4515-9d2b-3f63b25d23f3|B.Cu",
        "starved_thermal|250055644|105941798|bcccebc8-727d-43ac-8c2e-a1729ddb36c3|f4a42a26-1251-4515-9d2b-3f63b25d23f3|F.Cu",
        "starved_thermal|252389096|103608346|bcccebc8-727d-43ac-8c2e-a1729ddb36c3|121b436f-7792-4b27-9bc2-e72e95416e05|B.Cu",
        "starved_thermal|252389096|103608346|bcccebc8-727d-43ac-8c2e-a1729ddb36c3|121b436f-7792-4b27-9bc2-e72e95416e05|F.Cu",
        "starved_thermal|47648884|105941798|bcccebc8-727d-43ac-8c2e-a1729ddb36c3|08086d56-bfc3-42f9-9ab0-aae0145c41d0|B.Cu",
        "starved_thermal|47648884|105941798|bcccebc8-727d-43ac-8c2e-a1729ddb36c3|08086d56-bfc3-42f9-9ab0-aae0145c41d0|F.Cu",
        "starved_thermal|49982336|103608346|bcccebc8-727d-43ac-8c2e-a1729ddb36c3|db657de9-d2bc-4949-b5c1-4439e64b74d9|B.Cu",
        "starved_thermal|49982336|103608346|bcccebc8-727d-43ac-8c2e-a1729ddb36c3|db657de9-d2bc-4949-b5c1-4439e64b74d9|F.Cu",
        "starved_thermal|70270816|72901871|bcccebc8-727d-43ac-8c2e-a1729ddb36c3|3b6cc853-99a8-4e93-8dfd-cb1987d125bf|B.Cu",
        "starved_thermal|70270816|72901871|bcccebc8-727d-43ac-8c2e-a1729ddb36c3|3b6cc853-99a8-4e93-8dfd-cb1987d125bf|F.Cu",
        "starved_thermal|72604268|70568419|bcccebc8-727d-43ac-8c2e-a1729ddb36c3|7eba37ae-662d-443b-8dbb-ccab11807cc6|B.Cu",
        "starved_thermal|72604268|70568419|bcccebc8-727d-43ac-8c2e-a1729ddb36c3|7eba37ae-662d-443b-8dbb-ccab11807cc6|F.Cu"
      ],
      "meta": {
        "version": 2
      },
      "rule_severities": {
        "annular_width": "error",
        "clearance": "error",
        "connection_width": "warning",
        "copper_edge_clearance": "error",
        "copper_sliver": "warning",
        "courtyards_overlap": "warning",
        "diff_pair_gap_out_of_range": "error",
        "diff_pair_uncoupled_length_too_long": "error",
        "drill_out_of_range": "error",
        "duplicate_footprints": "warning",
        "extra_footprint": "warning",
        "footprint": "error",
        "footprint_type_mismatch": "ignore",
        "hole_clearance": "error",
        "hole_near_hole": "error",
        "invalid_outline": "error",
        "isolated_copper": "warning",
        "item_on_disabled_layer": "error",
        "items_not_allowed": "error",
        "length_out_of_range": "error",
        "lib_footprint_issues": "warning",
        "lib_footprint_mismatch": "warning",
        "malformed_courtyard": "error",
        "microvia_drill_out_of_range": "error",
        "missing_courtyard": "ignore",
        "missing_footprint": "warning",
        "net_conflict": "warning",
        "npth_inside_courtyard": "ignore",
        "padstack": "warning",
        "pth_inside_courtyard": "ignore",
        "shorting_items": "error",
        "silk_edge_clearance": "ignore",
        "silk_over_copper": "ignore",
        "silk_overlap": "ignore",
        "skew_out_of_range": "error",
        "solder_mask_bridge": "error",
        "starved_thermal": "error",
        "text_height": "warning",
        "text_thickness": "warning",
        "through_hole_pad_without_hole": "error",
        "too_many_vias": "error",
        "track_dangling": "warning",
        "track_width": "error",
        "tracks_crossing": "error",
        "unconnected_items": "error",
        "unresolved_variable": "error",
        "via_dangling": "warning",
        "zones_intersect": "error"
      },
      "rules": {
        "max_error": 0.005,
        "min_clearance": 0.0,
        "min_connection": 0.0,
        "min_copper_edge_clearance": 0.0,
        "min_hole_clearance": 0.25,
        "min_hole_to_hole": 0.25,
        "min_microvia_diameter": 0.19999999999999998,
        "min_microvia_drill": 0.09999999999999999,
        "min_resolved_spokes": 2,
        "min_silk_clearance": 0.0,
        "min_text_height": 0.7999999999999999,
        "min_text_thickness": 0.08,
        "min_through_hole_diameter": 0.3,
        "min_track_width": 0.0,
        "min_via_annular_width": 0.09999999999999999,
        "min_via_diameter": 0.5,
        "solder_mask_clearance": 0.0,
        "solder_mask_min_width": 0.0,
        "solder_mask_to_copper_clearance": 0.005,
        "use_height_for_length_calcs": true
      },
      "teardrop_options": [
        {
          "td_allow_use_two_tracks": true,
          "td_curve_segcount": 5,
          "td_on_pad_in_zone": false,
          "td_onpadsmd": true,
          "td_onroundshapesonly": false,
          "td_ontrackend": false,
          "td_onviapad": true
        }
      ],
      "teardrop_parameters": [
        {
          "td_curve_segcount": 0,
          "td_height_ratio": 1.0,
          "td_length_ratio": 0.5,
          "td_maxheight": 2.0,
          "td_maxlen": 1.0,
          "td_target_name": "td_round_shape",
          "td_width_to_size_filter_ratio": 0.9
        },
        {
          "td_curve_segcount": 0,
          "td_height_ratio": 1.0,
          "td_length_ratio": 0.5,
          "td_maxheight": 2.0,
          "td_maxlen": 1.0,
          "td_target_name": "td_rect_shape",
          "td_width_to_size_filter_ratio": 0.9
        },
        {
          "td_curve_segcount": 0,
          "td_height_ratio": 1.0,
          "td_length_ratio": 0.5,
          "td_maxheight": 2.0,
          "td_maxlen": 1.0,
          "td_target_name": "td_track_end",
          "td_width_to_size_filter_ratio": 0.9
        }
      ],
      "track_widths": [
        0.0,
        0.127,
        0.2,
        0.25
      ],
      "via_dimensions": [
        {
          "diameter": 0.0,
          "drill": 0.0
        },
        {
          "diameter": 0.5,
          "drill": 0.3
        }
      ],
      "zones_allow_external_fillets": false
    },
    "layer_presets": [],
    "viewports": []
  },
  "boards": [],
  "cvpcb": {
    "equivalence_files": []
  },
  "erc": {
    "erc_exclusions": [],
    "meta": {
      "version": 0
    },
    "pin_map": [
      [
        0,
        0,
        0,
        0,
        0,
        0,
        1,
        0,
        0,
        0,
        0,
        2
      ],
      [
        0,
        2,
        0,
        1,
        0,
        0,
        1,
        0,
        2,
        2,
        2,
        2
      ],
      [
        0,
        0,
        0,
        0,
        0,
        0,
        1,
        0,
        1,
        0,
        1,
        2
      ],
      [
        0,
        1,
        0,
        0,
        0,
        0,
        1,
        1,
        2,
        1,
        1,
        2
      ],
      [
        0,
        0,
        0,
        0,
        0,
        0,
        1,
        0,
        0,
        0,
        0,
        2
      ],
      [
        0,
        0,
        0,
        0,
        0,
        0,
        0,
        0,
        0,
        0,
        0,
        2
      ],
      [
        1,
        1,
        1,
        1,
        1,
        0,
        1,
        1,
        1,
        1,
        1,
        2
      ],
      [
        0,
        0,
        0,
        1,
        0,
        0,
        1,
        0,
        0,
        0,
        0,
        2
      ],
      [
        0,
        2,
        1,
        2,
        0,
        0,
        1,
        0,
        2,
        2,
        2,
        2
      ],
      [
        0,
        2,
        0,
        1,
        0,
        0,
        1,
        0,
        2,
        0,
        0,
        2
      ],
      [
        0,
        2,
        1,
        1,
        0,
        0,
        1,
        0,
        2,
        0,
        0,
        2
      ],
      [
        2,
        2,
        2,
        2,
        2,
        2,
        2,
        2,
        2,
        2,
        2,
        2
      ]
    ],
    "rule_severities": {
      "bus_definition_conflict": "error",
      "bus_entry_needed": "error",
      "bus_to_bus_conflict": "error",
      "bus_to_net_conflict": "error",
      "conflicting_netclasses": "error",
      "different_unit_footprint": "error",
      "different_unit_net": "error",
      "duplicate_reference": "error",
      "duplicate_sheet_names": "error",
      "endpoint_off_grid": "warning",
      "extra_units": "error",
      "global_label_dangling": "warning",
      "hier_label_mismatch": "error",
      "label_dangling": "error",
      "lib_symbol_issues": "warning",
      "missing_bidi_pin": "warning",
      "missing_input_pin": "warning",
      "missing_power_pin": "error",
      "missing_unit": "warning",
      "multiple_net_names": "warning",
      "net_not_bus_member": "warning",
      "no_connect_connected": "warning",
      "no_connect_dangling": "warning",
      "pin_not_connected": "error",
      "pin_not_driven": "error",
      "pin_to_pin": "warning",
      "power_pin_not_driven": "error",
      "similar_labels": "warning",
      "simulation_model_issue": "ignore",
      "unannotated": "error",
      "unit_value_mismatch": "error",
      "unresolved_variable": "error",
      "wire_dangling": "error"
    }
  },
  "libraries": {
    "pinned_footprint_libs": [],
    "pinned_symbol_libs": []
  },
  "meta": {
    "filename": "kicad_ch552t.kicad_pro",
    "version": 1
  },
  "net_settings": {
    "classes": [
      {
        "bus_width": 12,
        "clearance": 0.2,
        "diff_pair_gap": 0.25,
        "diff_pair_via_gap": 0.25,
        "diff_pair_width": 0.2,
        "line_style": 0,
        "microvia_diameter": 0.3,
        "microvia_drill": 0.1,
        "name": "Default",
        "pcb_color": "rgba(0, 0, 0, 0.000)",
        "schematic_color": "rgba(0, 0, 0, 0.000)",
        "track_width": 0.25,
        "via_diameter": 0.8,
        "via_drill": 0.4,
        "wire_width": 6
      }
    ],
    "meta": {
      "version": 3
    },
    "net_colors": null,
    "netclass_assignments": null,
    "netclass_patterns": []
  },
  "pcbnew": {
    "last_paths": {
      "gencad": "",
      "idf": "",
      "netlist": "",
      "specctra_dsn": "",
      "step": "kicad_ch552t.step",
      "vrml": ""
    },
    "page_layout_descr_file": ""
  },
  "schematic": {
    "annotate_start_num": 0,
    "drawing": {
      "dashed_lines_dash_length_ratio": 12.0,
      "dashed_lines_gap_length_ratio": 3.0,
      "default_line_thickness": 6.0,
      "default_text_size": 50.0,
      "field_names": [],
      "intersheets_ref_own_page": false,
      "intersheets_ref_prefix": "",
      "intersheets_ref_short": false,
      "intersheets_ref_show": false,
      "intersheets_ref_suffix": "",
      "junction_size_choice": 3,
      "label_size_ratio": 0.375,
      "pin_symbol_size": 25.0,
      "text_offset_ratio": 0.15
    },
    "legacy_lib_dir": "",
    "legacy_lib_list": [],
    "meta": {
      "version": 1
    },
    "net_format_name": "",
    "page_layout_descr_file": "",
    "plot_directory": "",
    "spice_current_sheet_as_root": false,
    "spice_external_command": "spice \"%I\"",
    "spice_model_current_sheet_as_root": true,
    "spice_save_all_currents": false,
    "spice_save_all_voltages": false,
    "subpart_first_id": 65,
    "subpart_id_separator": 0
  },
  "sheets": [
    [
      "cb7e2a8a-c538-448e-8bb3-985b2652863f",
      ""
    ]
  ],
  "text_variables": {}
}
