(kicad_sch (version 20230121) (generator eeschema)

  (uuid 555e82ea-1f48-47c0-9d11-8a91e0f65a73)

  (paper "A4")

  (title_block
    (title "uEFI")
    (date "%%date%%")
    (rev "%%version%%")
    (company "Churrosoft")
    (comment 1 "MIT Licence")
  )

  (lib_symbols
    (symbol "Device:Polyfuse_Small" (pin_numbers hide) (pin_names (offset 0)) (in_bom yes) (on_board yes)
      (property "Reference" "F" (at -1.905 0 90)
        (effects (font (size 1.27 1.27)))
      )
      (property "Value" "Polyfuse_Small" (at 1.905 0 90)
        (effects (font (size 1.27 1.27)))
      )
      (property "Footprint" "" (at 1.27 -5.08 0)
        (effects (font (size 1.27 1.27)) (justify left) hide)
      )
      (property "Datasheet" "~" (at 0 0 0)
        (effects (font (size 1.27 1.27)) hide)
      )
      (property "ki_keywords" "resettable fuse PTC PPTC polyfuse polyswitch" (at 0 0 0)
        (effects (font (size 1.27 1.27)) hide)
      )
      (property "ki_description" "Resettable fuse, polymeric positive temperature coefficient, small symbol" (at 0 0 0)
        (effects (font (size 1.27 1.27)) hide)
      )
      (property "ki_fp_filters" "*polyfuse* *PTC*" (at 0 0 0)
        (effects (font (size 1.27 1.27)) hide)
      )
      (symbol "Polyfuse_Small_0_1"
        (rectangle (start -0.508 1.27) (end 0.508 -1.27)
          (stroke (width 0) (type default))
          (fill (type none))
        )
        (polyline
          (pts
            (xy 0 2.54)
            (xy 0 -2.54)
          )
          (stroke (width 0) (type default))
          (fill (type none))
        )
        (polyline
          (pts
            (xy -1.016 1.27)
            (xy -1.016 0.762)
            (xy 1.016 -0.762)
            (xy 1.016 -1.27)
          )
          (stroke (width 0) (type default))
          (fill (type none))
        )
      )
      (symbol "Polyfuse_Small_1_1"
        (pin passive line (at 0 2.54 270) (length 0.635)
          (name "~" (effects (font (size 1.27 1.27))))
          (number "1" (effects (font (size 1.27 1.27))))
        )
        (pin passive line (at 0 -2.54 90) (length 0.635)
          (name "~" (effects (font (size 1.27 1.27))))
          (number "2" (effects (font (size 1.27 1.27))))
        )
      )
    )
    (symbol "OpenEFI-STM32-rev3:TPL7407LAPWR" (pin_names (offset 1.016)) (in_bom yes) (on_board yes)
      (property "Reference" "U" (at -6.985 5.08 0)
        (effects (font (size 1.27 1.27)))
      )
      (property "Value" "TPL7407LAPWR" (at 0 -22.86 0)
        (effects (font (size 1.27 1.27)))
      )
      (property "Footprint" "" (at 0 0 0)
        (effects (font (size 1.27 1.27)) hide)
      )
      (property "Datasheet" "" (at 0 0 0)
        (effects (font (size 1.27 1.27)) hide)
      )
      (symbol "TPL7407LAPWR_0_1"
        (rectangle (start -8.255 6.35) (end 8.255 -24.765)
          (stroke (width 0) (type default))
          (fill (type none))
        )
      )
      (symbol "TPL7407LAPWR_1_1"
        (pin input line (at -10.795 0.635 0) (length 2.54)
          (name "IN1" (effects (font (size 1.27 1.27))))
          (number "1" (effects (font (size 1.27 1.27))))
        )
        (pin output line (at 10.795 -14.605 180) (length 2.54)
          (name "OUT7" (effects (font (size 1.27 1.27))))
          (number "10" (effects (font (size 1.27 1.27))))
        )
        (pin output line (at 10.795 -12.065 180) (length 2.54)
          (name "OUT6" (effects (font (size 1.27 1.27))))
          (number "11" (effects (font (size 1.27 1.27))))
        )
        (pin output line (at 10.795 -9.525 180) (length 2.54)
          (name "OUT5" (effects (font (size 1.27 1.27))))
          (number "12" (effects (font (size 1.27 1.27))))
        )
        (pin output line (at 10.795 -6.985 180) (length 2.54)
          (name "OUT4" (effects (font (size 1.27 1.27))))
          (number "13" (effects (font (size 1.27 1.27))))
        )
        (pin output line (at 10.795 -4.445 180) (length 2.54)
          (name "OUT3" (effects (font (size 1.27 1.27))))
          (number "14" (effects (font (size 1.27 1.27))))
        )
        (pin output line (at 10.795 -1.905 180) (length 2.54)
          (name "OUT2" (effects (font (size 1.27 1.27))))
          (number "15" (effects (font (size 1.27 1.27))))
        )
        (pin output line (at 10.795 0.635 180) (length 2.54)
          (name "OUT1" (effects (font (size 1.27 1.27))))
          (number "16" (effects (font (size 1.27 1.27))))
        )
        (pin input line (at -10.795 -1.905 0) (length 2.54)
          (name "IN2" (effects (font (size 1.27 1.27))))
          (number "2" (effects (font (size 1.27 1.27))))
        )
        (pin input line (at -10.795 -4.445 0) (length 2.54)
          (name "IN3" (effects (font (size 1.27 1.27))))
          (number "3" (effects (font (size 1.27 1.27))))
        )
        (pin input line (at -10.795 -6.985 0) (length 2.54)
          (name "IN4" (effects (font (size 1.27 1.27))))
          (number "4" (effects (font (size 1.27 1.27))))
        )
        (pin input line (at -10.795 -9.525 0) (length 2.54)
          (name "IN5" (effects (font (size 1.27 1.27))))
          (number "5" (effects (font (size 1.27 1.27))))
        )
        (pin input line (at -10.795 -12.065 0) (length 2.54)
          (name "IN6" (effects (font (size 1.27 1.27))))
          (number "6" (effects (font (size 1.27 1.27))))
        )
        (pin input line (at -10.795 -14.605 0) (length 2.54)
          (name "IN7" (effects (font (size 1.27 1.27))))
          (number "7" (effects (font (size 1.27 1.27))))
        )
        (pin input line (at -10.795 -19.685 0) (length 2.54)
          (name "GND" (effects (font (size 1.27 1.27))))
          (number "8" (effects (font (size 1.27 1.27))))
        )
        (pin input line (at 10.795 -19.685 180) (length 2.54)
          (name "COM" (effects (font (size 1.27 1.27))))
          (number "9" (effects (font (size 1.27 1.27))))
        )
      )
    )
    (symbol "power:+12V" (power) (pin_names (offset 0)) (in_bom yes) (on_board yes)
      (property "Reference" "#PWR" (at 0 -3.81 0)
        (effects (font (size 1.27 1.27)) hide)
      )
      (property "Value" "+12V" (at 0 3.556 0)
        (effects (font (size 1.27 1.27)))
      )
      (property "Footprint" "" (at 0 0 0)
        (effects (font (size 1.27 1.27)) hide)
      )
      (property "Datasheet" "" (at 0 0 0)
        (effects (font (size 1.27 1.27)) hide)
      )
      (property "ki_keywords" "power-flag" (at 0 0 0)
        (effects (font (size 1.27 1.27)) hide)
      )
      (property "ki_description" "Power symbol creates a global label with name \"+12V\"" (at 0 0 0)
        (effects (font (size 1.27 1.27)) hide)
      )
      (symbol "+12V_0_1"
        (polyline
          (pts
            (xy -0.762 1.27)
            (xy 0 2.54)
          )
          (stroke (width 0) (type default))
          (fill (type none))
        )
        (polyline
          (pts
            (xy 0 0)
            (xy 0 2.54)
          )
          (stroke (width 0) (type default))
          (fill (type none))
        )
        (polyline
          (pts
            (xy 0 2.54)
            (xy 0.762 1.27)
          )
          (stroke (width 0) (type default))
          (fill (type none))
        )
      )
      (symbol "+12V_1_1"
        (pin power_in line (at 0 0 90) (length 0) hide
          (name "+12V" (effects (font (size 1.27 1.27))))
          (number "1" (effects (font (size 1.27 1.27))))
        )
      )
    )
    (symbol "power:GND" (power) (pin_names (offset 0)) (in_bom yes) (on_board yes)
      (property "Reference" "#PWR" (at 0 -6.35 0)
        (effects (font (size 1.27 1.27)) hide)
      )
      (property "Value" "GND" (at 0 -3.81 0)
        (effects (font (size 1.27 1.27)))
      )
      (property "Footprint" "" (at 0 0 0)
        (effects (font (size 1.27 1.27)) hide)
      )
      (property "Datasheet" "" (at 0 0 0)
        (effects (font (size 1.27 1.27)) hide)
      )
      (property "ki_keywords" "power-flag" (at 0 0 0)
        (effects (font (size 1.27 1.27)) hide)
      )
      (property "ki_description" "Power symbol creates a global label with name \"GND\" , ground" (at 0 0 0)
        (effects (font (size 1.27 1.27)) hide)
      )
      (symbol "GND_0_1"
        (polyline
          (pts
            (xy 0 0)
            (xy 0 -1.27)
            (xy 1.27 -1.27)
            (xy 0 -2.54)
            (xy -1.27 -1.27)
            (xy 0 -1.27)
          )
          (stroke (width 0) (type default))
          (fill (type none))
        )
      )
      (symbol "GND_1_1"
        (pin power_in line (at 0 0 270) (length 0) hide
          (name "GND" (effects (font (size 1.27 1.27))))
          (number "1" (effects (font (size 1.27 1.27))))
        )
      )
    )
  )

  (junction (at 116.84 125.095) (diameter 1.016) (color 0 0 0 0)
    (uuid 171fdca9-3abf-47ec-adfa-6909484da46f)
  )
  (junction (at 160.02 125.095) (diameter 0) (color 0 0 0 0)
    (uuid 26ff3f5d-6e5a-4cc6-9e07-435c84d1c57e)
  )

  (wire (pts (xy 215.265 160.02) (xy 216.535 160.02))
    (stroke (width 0) (type default))
    (uuid 02954bd5-eed1-48c8-8e87-9061a4c0b571)
  )
  (wire (pts (xy 121.92 173.99) (xy 118.6942 173.99))
    (stroke (width 0) (type solid))
    (uuid 03da42bf-5b35-4b69-89e0-afc3d7173e70)
  )
  (wire (pts (xy 161.29 132.715) (xy 162.56 132.715))
    (stroke (width 0) (type default))
    (uuid 05ad6f0c-fe73-4f84-b122-dd82ca51ff73)
  )
  (wire (pts (xy 205.74 139.065) (xy 215.9 139.065))
    (stroke (width 0) (type default))
    (uuid 10a8fa4c-a090-4fae-848b-b09cd5c5cb23)
  )
  (wire (pts (xy 121.285 130.175) (xy 116.84 130.175))
    (stroke (width 0) (type solid))
    (uuid 12e06643-8d4f-4b53-8dbb-fdce7ac5d04a)
  )
  (wire (pts (xy 116.84 137.795) (xy 121.285 137.795))
    (stroke (width 0) (type solid))
    (uuid 14629497-44ef-41b5-84c7-461191458197)
  )
  (wire (pts (xy 151.765 176.53) (xy 153.035 176.53))
    (stroke (width 0) (type default))
    (uuid 1a12a6d1-7030-49df-ac4c-11696e396b56)
  )
  (wire (pts (xy 220.98 154.94) (xy 226.06 154.94))
    (stroke (width 0) (type default))
    (uuid 1cc4e6ca-7db4-47ba-ad5f-395ff4bd52f8)
  )
  (wire (pts (xy 252.095 143.51) (xy 267.335 143.51))
    (stroke (width 0) (type solid))
    (uuid 2197dba0-2fa4-4dd7-bf21-a725aef32eae)
  )
  (wire (pts (xy 116.84 125.095) (xy 121.285 125.095))
    (stroke (width 0) (type solid))
    (uuid 24deff49-36a5-4718-83c3-6212f6ee208e)
  )
  (wire (pts (xy 151.765 166.37) (xy 153.035 166.37))
    (stroke (width 0) (type default))
    (uuid 27c86c25-dd6a-4269-81ee-6831e32d0c33)
  )
  (polyline (pts (xy 243.205 121.92) (xy 277.495 121.92))
    (stroke (width 0) (type dash))
    (uuid 28369614-fd2e-430f-bc88-94af09f46c4c)
  )

  (wire (pts (xy 121.92 163.83) (xy 118.6942 163.83))
    (stroke (width 0) (type solid))
    (uuid 29502f63-668a-4462-919a-37f280157f27)
  )
  (polyline (pts (xy 277.495 121.92) (xy 277.495 160.02))
    (stroke (width 0) (type dash))
    (uuid 2a34ff09-431c-404d-90bf-d2ac63626c21)
  )

  (wire (pts (xy 252.095 139.7) (xy 267.335 139.7))
    (stroke (width 0) (type solid))
    (uuid 2dbcd2fd-f64e-4792-8158-efa0c4a9f0ef)
  )
  (wire (pts (xy 114.7826 142.875) (xy 114.7826 147.7772))
    (stroke (width 0) (type solid))
    (uuid 2f0298d3-4f97-4fd0-b936-07eb4ec8de2d)
  )
  (wire (pts (xy 158.115 171.45) (xy 160.02 171.45))
    (stroke (width 0) (type default))
    (uuid 2f221dea-020a-400d-89e9-e6bb9611f875)
  )
  (wire (pts (xy 252.095 147.32) (xy 267.335 147.32))
    (stroke (width 0) (type solid))
    (uuid 340f0d62-9259-4392-a98a-fdc113d956c1)
  )
  (wire (pts (xy 143.51 173.99) (xy 147.955 173.99))
    (stroke (width 0) (type default))
    (uuid 34241a89-f521-457f-ad74-b8b9c480e469)
  )
  (wire (pts (xy 142.875 122.555) (xy 154.94 122.555))
    (stroke (width 0) (type default))
    (uuid 3931fb14-5ecb-4e2d-b8ae-944461eb9433)
  )
  (wire (pts (xy 221.615 160.02) (xy 226.06 160.02))
    (stroke (width 0) (type default))
    (uuid 3a16839d-3587-4847-9824-d0631d0ec17f)
  )
  (wire (pts (xy 252.095 154.94) (xy 267.335 154.94))
    (stroke (width 0) (type solid))
    (uuid 43ccad55-38f9-4ab2-8f43-b08da4ced214)
  )
  (wire (pts (xy 116.84 127.635) (xy 116.84 125.095))
    (stroke (width 0) (type solid))
    (uuid 4868facd-8e55-4994-8e96-8b5e35e549de)
  )
  (wire (pts (xy 143.51 179.07) (xy 147.32 179.07))
    (stroke (width 0) (type solid))
    (uuid 4a358e4e-5324-4d5e-8422-49d0d93ecb5a)
  )
  (wire (pts (xy 118.6942 163.83) (xy 118.6942 166.37))
    (stroke (width 0) (type solid))
    (uuid 5160f4f5-c9b8-42e6-87a5-c4d49ddd401a)
  )
  (wire (pts (xy 142.875 132.715) (xy 156.21 132.715))
    (stroke (width 0) (type solid))
    (uuid 5311756f-c50e-438a-a2fb-06a70539fa98)
  )
  (wire (pts (xy 143.51 184.15) (xy 158.115 184.15))
    (stroke (width 0) (type solid))
    (uuid 5d39600d-8480-4940-92c9-2dbf5f7de24f)
  )
  (wire (pts (xy 118.6942 166.37) (xy 121.92 166.37))
    (stroke (width 0) (type solid))
    (uuid 61b71bf3-f630-4ec3-bb9e-78b95fa4e1fc)
  )
  (wire (pts (xy 142.875 125.095) (xy 153.67 125.095))
    (stroke (width 0) (type default))
    (uuid 621fa918-e3f3-4bca-aec3-2ca23b6194a1)
  )
  (polyline (pts (xy 243.205 121.92) (xy 243.205 160.02))
    (stroke (width 0) (type dash))
    (uuid 624c0bbc-baa5-4d76-966a-6cb5a181393e)
  )

  (wire (pts (xy 160.02 171.45) (xy 160.02 168.91))
    (stroke (width 0) (type default))
    (uuid 671aaf10-067c-4d5c-b9b9-5f2f71f0947d)
  )
  (wire (pts (xy 205.74 154.94) (xy 215.9 154.94))
    (stroke (width 0) (type default))
    (uuid 67e0e6d6-d334-4455-8228-e58ae4cf446a)
  )
  (wire (pts (xy 143.51 168.91) (xy 154.94 168.91))
    (stroke (width 0) (type default))
    (uuid 6b40e2a6-4ef4-42f8-84d7-f4365c3846d1)
  )
  (wire (pts (xy 143.51 171.45) (xy 153.035 171.45))
    (stroke (width 0) (type default))
    (uuid 6b533286-7336-460b-8407-14f6ef987b46)
  )
  (wire (pts (xy 205.74 149.225) (xy 226.06 149.225))
    (stroke (width 0) (type default))
    (uuid 6d8005e8-6776-4d0e-9872-7e4860e005bd)
  )
  (wire (pts (xy 116.84 132.715) (xy 121.285 132.715))
    (stroke (width 0) (type solid))
    (uuid 6e06a923-aa5f-46a2-bf60-72cdff8b4fd0)
  )
  (wire (pts (xy 142.875 137.795) (xy 146.685 137.795))
    (stroke (width 0) (type solid))
    (uuid 723d43ca-946c-4a3b-a2b8-3026ebce1bd8)
  )
  (wire (pts (xy 143.51 163.83) (xy 147.955 163.83))
    (stroke (width 0) (type default))
    (uuid 7240791a-dba1-4359-bad4-f522eeba45d4)
  )
  (wire (pts (xy 252.095 158.75) (xy 267.335 158.75))
    (stroke (width 0) (type solid))
    (uuid 7330cba7-0d72-4b49-93ba-aeffe29d013b)
  )
  (wire (pts (xy 118.6942 176.53) (xy 121.92 176.53))
    (stroke (width 0) (type solid))
    (uuid 7e250f35-0539-4478-aeb2-77c8638c1632)
  )
  (wire (pts (xy 252.095 151.13) (xy 267.335 151.13))
    (stroke (width 0) (type solid))
    (uuid 82b60079-ae2b-4949-9e92-a631e25e1fcf)
  )
  (wire (pts (xy 160.02 127.635) (xy 160.02 125.095))
    (stroke (width 0) (type default))
    (uuid 8d0ef015-f85e-4c30-ac81-82f205e55b61)
  )
  (wire (pts (xy 121.92 184.15) (xy 116.2558 184.15))
    (stroke (width 0) (type solid))
    (uuid 8ed6ecd6-a70a-4489-9507-4eea67310447)
  )
  (wire (pts (xy 116.84 130.175) (xy 116.84 132.715))
    (stroke (width 0) (type solid))
    (uuid 8fd2f3b1-e03b-4767-9e40-840afb061c9e)
  )
  (wire (pts (xy 205.74 144.145) (xy 226.06 144.145))
    (stroke (width 0) (type default))
    (uuid 9333bbf9-c2d8-4899-a611-fba7d49b70b0)
  )
  (wire (pts (xy 121.285 142.875) (xy 114.7826 142.875))
    (stroke (width 0) (type solid))
    (uuid 9657aa08-c128-4e4e-b527-0ad8e9f48240)
  )
  (wire (pts (xy 205.74 123.825) (xy 226.06 123.825))
    (stroke (width 0) (type default))
    (uuid 9843ac64-13db-49cb-ac8e-6f4c6288042c)
  )
  (wire (pts (xy 153.035 176.53) (xy 153.035 173.99))
    (stroke (width 0) (type default))
    (uuid 9d5d1938-6f10-4d6f-96c7-79237778a7de)
  )
  (wire (pts (xy 157.48 127.635) (xy 160.02 127.635))
    (stroke (width 0) (type default))
    (uuid 9f35c667-c807-4c80-a480-fc65215962a5)
  )
  (wire (pts (xy 205.74 128.905) (xy 226.06 128.905))
    (stroke (width 0) (type default))
    (uuid 9f4891f5-a2fe-44be-9541-6848ff79ba42)
  )
  (wire (pts (xy 142.875 142.875) (xy 156.845 142.875))
    (stroke (width 0) (type solid))
    (uuid 9f618955-e87c-47e1-b6f2-369ccac8b359)
  )
  (wire (pts (xy 162.56 130.175) (xy 162.56 132.715))
    (stroke (width 0) (type default))
    (uuid a0e7f359-448a-4ad3-b168-68077c29ff2a)
  )
  (wire (pts (xy 121.92 168.91) (xy 118.6942 168.91))
    (stroke (width 0) (type solid))
    (uuid a6c4acd3-e00b-4e95-b497-0f1424d31f15)
  )
  (wire (pts (xy 147.32 135.255) (xy 142.875 135.255))
    (stroke (width 0) (type solid))
    (uuid ab498201-a89a-4759-8f73-e626976eb712)
  )
  (wire (pts (xy 142.875 127.635) (xy 152.4 127.635))
    (stroke (width 0) (type default))
    (uuid b83e4241-afa2-47a5-8412-876f777f9eb5)
  )
  (wire (pts (xy 160.02 125.095) (xy 158.75 125.095))
    (stroke (width 0) (type default))
    (uuid b9e58534-14cc-4b98-bc5b-3ea1374c1390)
  )
  (wire (pts (xy 220.98 139.065) (xy 226.06 139.065))
    (stroke (width 0) (type default))
    (uuid bc5be290-f177-416f-9abc-25f985703e28)
  )
  (wire (pts (xy 153.035 166.37) (xy 153.035 163.83))
    (stroke (width 0) (type default))
    (uuid bcf96df2-faef-4f57-a7e6-31b1248771b3)
  )
  (wire (pts (xy 142.875 130.175) (xy 157.48 130.175))
    (stroke (width 0) (type solid))
    (uuid c13d75bf-30e4-4e54-9fdb-3ca1569707e6)
  )
  (wire (pts (xy 116.84 135.255) (xy 121.285 135.255))
    (stroke (width 0) (type solid))
    (uuid c1ba0d60-9409-461e-a75c-9f62d6589b94)
  )
  (wire (pts (xy 143.51 166.37) (xy 146.685 166.37))
    (stroke (width 0) (type default))
    (uuid c8699075-5c5a-4ea8-a036-10ac2f2e880b)
  )
  (wire (pts (xy 116.84 122.555) (xy 121.285 122.555))
    (stroke (width 0) (type solid))
    (uuid cadb347b-2032-4ffe-a326-d28fb48221ad)
  )
  (wire (pts (xy 252.095 135.89) (xy 267.335 135.89))
    (stroke (width 0) (type solid))
    (uuid cd087509-8c33-41ab-bac7-10aab2e49cd2)
  )
  (wire (pts (xy 118.6942 173.99) (xy 118.6942 176.53))
    (stroke (width 0) (type solid))
    (uuid cd0cb4d0-61f7-4b25-acd7-57f14c877542)
  )
  (wire (pts (xy 118.6942 168.91) (xy 118.6942 171.45))
    (stroke (width 0) (type solid))
    (uuid d0d076ab-efe7-4dbb-9be7-3d8f766b7475)
  )
  (wire (pts (xy 157.48 143.51) (xy 156.845 142.875))
    (stroke (width 0) (type solid))
    (uuid d3581065-2dca-4255-8dd3-9d06dae08606)
  )
  (wire (pts (xy 118.6942 179.07) (xy 121.92 179.07))
    (stroke (width 0) (type solid))
    (uuid d5ad436e-8ba1-4cb4-8d0a-db4decf3213f)
  )
  (polyline (pts (xy 200.66 151.765) (xy 234.95 151.765))
    (stroke (width 0) (type dash))
    (uuid d8f2aec3-282e-4a1a-b6bb-5c74a19a494b)
  )

  (wire (pts (xy 118.6942 171.45) (xy 121.92 171.45))
    (stroke (width 0) (type solid))
    (uuid dbbbdf75-e7e5-4530-a5df-6c9914ee5b7b)
  )
  (wire (pts (xy 116.2558 184.15) (xy 116.2558 188.4172))
    (stroke (width 0) (type solid))
    (uuid dc5e9ac8-f903-4926-9c69-40b7a3ab1281)
  )
  (polyline (pts (xy 243.205 160.02) (xy 277.495 160.02))
    (stroke (width 0) (type dash))
    (uuid de30339b-184d-4fc3-9a71-db356e5dff74)
  )

  (wire (pts (xy 143.51 176.53) (xy 146.685 176.53))
    (stroke (width 0) (type default))
    (uuid dfb10ac8-149e-4a12-abf3-806a0c1f791b)
  )
  (wire (pts (xy 116.84 125.095) (xy 116.84 122.555))
    (stroke (width 0) (type solid))
    (uuid e1fe39d6-8050-4aab-932d-88d5605abffd)
  )
  (wire (pts (xy 121.285 127.635) (xy 116.84 127.635))
    (stroke (width 0) (type solid))
    (uuid e4c08fef-380a-421d-80c5-80307b36c5ba)
  )
  (wire (pts (xy 252.095 132.08) (xy 267.335 132.08))
    (stroke (width 0) (type solid))
    (uuid eab08232-20a7-4e17-9ca1-29810ab3fb30)
  )
  (wire (pts (xy 205.74 133.985) (xy 226.06 133.985))
    (stroke (width 0) (type default))
    (uuid ec445b2d-0a5c-43f0-b789-3ec5d1e02ac8)
  )
  (wire (pts (xy 160.02 122.555) (xy 160.02 125.095))
    (stroke (width 0) (type default))
    (uuid f2dc4a64-eaa4-421c-b45e-48affcba7f1c)
  )

  (text "max 1.8A" (at 153.67 117.475 0)
    (effects (font (size 0.889 0.889)) (justify left bottom))
    (uuid 91d2f8b5-9529-42e3-b479-f230114ba651)
  )
  (text "max 1.2A" (at 143.51 132.08 0)
    (effects (font (size 0.889 0.889)) (justify left bottom))
    (uuid a9e21be1-b08e-42f9-855c-c3a81edf8641)
  )
  (text "SCH BIND" (at 266.7 126.365 0)
    (effects (font (size 2 2)) (justify right bottom))
    (uuid b3708b93-6761-48f8-bfab-42f85af6ef8b)
  )
  (text "max 1.2A" (at 128.27 161.29 0)
    (effects (font (size 0.889 0.889)) (justify left bottom))
    (uuid b6ebd4ef-f6f6-48f2-99d8-7f83a3ff510d)
  )
  (text "CONNECTOR BIND" (at 229.87 120.015 0)
    (effects (font (size 2 2)) (justify right bottom))
    (uuid fcb67f88-29c3-420d-a738-06133130e4b5)
  )

  (label "PWM0" (at 252.095 154.94 0) (fields_autoplaced)
    (effects (font (size 1.27 1.27)) (justify left bottom))
    (uuid 11c0f1ef-a79e-40ac-9cd4-0ccd50057140)
  )
  (label "R2_OUT" (at 205.74 133.985 0) (fields_autoplaced)
    (effects (font (size 1.27 1.27)) (justify left bottom))
    (uuid 1458ce6d-a6d7-44f1-a5c9-d65eb51e87be)
  )
  (label "PWM0" (at 117.475 122.555 180) (fields_autoplaced)
    (effects (font (size 1.27 1.27)) (justify right bottom))
    (uuid 14966f1e-ea1b-49f0-a05b-055326d94fce)
  )
  (label "R1_OUT" (at 160.02 170.18 0) (fields_autoplaced)
    (effects (font (size 0.8 0.8)) (justify left bottom))
    (uuid 17ded75d-adf3-4e07-9dd5-4af2dfd721c9)
  )
  (label "R1" (at 252.095 147.32 0) (fields_autoplaced)
    (effects (font (size 1.27 1.27)) (justify left bottom))
    (uuid 2a6225ee-c253-49a4-9fb6-8b290377acad)
  )
  (label "R3_OUT" (at 145.415 179.07 0) (fields_autoplaced)
    (effects (font (size 0.8 0.8)) (justify left bottom))
    (uuid 30dd23c2-47f8-4de0-9731-148d076fca14)
  )
  (label "CHECK_ENGINE" (at 147.32 135.255 0) (fields_autoplaced)
    (effects (font (size 0.8 0.8)) (justify left bottom))
    (uuid 355b07de-ab6e-47d2-bdfc-395d7dbaf5ad)
  )
  (label "PWM1" (at 118.745 130.175 180) (fields_autoplaced)
    (effects (font (size 1.27 1.27)) (justify right bottom))
    (uuid 3f6bc08a-361d-42cd-b9bb-1afea06b245b)
  )
  (label "CHECK_ENGINE" (at 215.265 160.02 180) (fields_autoplaced)
    (effects (font (size 1.27 1.27)) (justify right bottom))
    (uuid 40dd4c3d-8b0e-4636-86ef-a310384f8dfc)
  )
  (label "PWM0_OUT" (at 160.02 125.095 0) (fields_autoplaced)
    (effects (font (size 0.8 0.8)) (justify left bottom))
    (uuid 4d760aea-861d-49ac-a683-d0f9ca5669b9)
  )
  (label "MIL_OUT" (at 205.74 154.94 0) (fields_autoplaced)
    (effects (font (size 1.27 1.27)) (justify left bottom))
    (uuid 51d7da39-a9d8-47f1-a49a-89595d5cf0cc)
  )
  (label "CHK" (at 116.84 135.255 0) (fields_autoplaced)
    (effects (font (size 1.27 1.27)) (justify left bottom))
    (uuid 52bc03aa-11f5-4ff7-8760-62ff3eceb99c)
  )
  (label "MIL" (at 252.095 135.89 0) (fields_autoplaced)
    (effects (font (size 1.27 1.27)) (justify left bottom))
    (uuid 56cbeb40-5a69-4be0-87bc-2923a90d066e)
  )
  (label "R3" (at 252.095 139.7 0) (fields_autoplaced)
    (effects (font (size 1.27 1.27)) (justify left bottom))
    (uuid 5a2609b0-e30d-4c47-917f-dab469a0940f)
  )
  (label "R3_OUT" (at 205.74 139.065 0) (fields_autoplaced)
    (effects (font (size 1.27 1.27)) (justify left bottom))
    (uuid 6c9b907c-03da-4d6b-bf37-9a62678a8ca8)
  )
  (label "R0" (at 120.65 163.83 180) (fields_autoplaced)
    (effects (font (size 1.27 1.27)) (justify right bottom))
    (uuid 7168e1b6-158c-41bb-93e8-d4e0a8488651)
  )
  (label "PWM1" (at 252.095 158.75 0) (fields_autoplaced)
    (effects (font (size 1.27 1.27)) (justify left bottom))
    (uuid 729eab12-e47a-4901-9c0f-7efd3e8a7981)
  )
  (label "PWM0_OUT" (at 205.74 144.145 0) (fields_autoplaced)
    (effects (font (size 1.27 1.27)) (justify left bottom))
    (uuid 74f749e7-de0a-4c20-8b88-010577b658b6)
  )
  (label "R2" (at 119.38 173.99 180) (fields_autoplaced)
    (effects (font (size 1.27 1.27)) (justify right bottom))
    (uuid 782cca2c-621b-4118-91ba-9f69048827ae)
  )
  (label "MIL_OUT" (at 146.685 137.795 0) (fields_autoplaced)
    (effects (font (size 0.8 0.8)) (justify left bottom))
    (uuid 8e6fad66-195b-40b2-a16a-3d8333c8bbc9)
  )
  (label "R1_OUT" (at 205.74 128.905 0) (fields_autoplaced)
    (effects (font (size 1.27 1.27)) (justify left bottom))
    (uuid 92312393-28ed-43f9-9bc3-68a42079dda1)
  )
  (label "PWM1_OUT" (at 205.74 149.225 0) (fields_autoplaced)
    (effects (font (size 1.27 1.27)) (justify left bottom))
    (uuid 9701c1d1-8ec0-4bb5-8496-996c138e3b99)
  )
  (label "R0_OUT" (at 153.035 165.1 0) (fields_autoplaced)
    (effects (font (size 0.8 0.8)) (justify left bottom))
    (uuid a9b84f57-ff38-4b3d-a485-c39b6087dcfb)
  )
  (label "R0_OUT" (at 205.74 123.825 0) (fields_autoplaced)
    (effects (font (size 1.27 1.27)) (justify left bottom))
    (uuid bcccf307-94d3-4757-9c2d-7bab0005333a)
  )
  (label "R0" (at 252.095 151.13 0) (fields_autoplaced)
    (effects (font (size 1.27 1.27)) (justify left bottom))
    (uuid be5eb27f-c428-4dc0-b9f9-51900a94fcf2)
  )
  (label "R2_OUT" (at 153.035 176.53 0) (fields_autoplaced)
    (effects (font (size 0.8 0.8)) (justify left bottom))
    (uuid c148fb73-8e12-4e2a-ad06-12c6a8fbfbd3)
  )
  (label "CHK" (at 252.095 132.08 0) (fields_autoplaced)
    (effects (font (size 1.27 1.27)) (justify left bottom))
    (uuid cb384490-ec39-4b17-add1-eabfbd70cb6d)
  )
  (label "R1" (at 119.38 168.91 180) (fields_autoplaced)
    (effects (font (size 1.27 1.27)) (justify right bottom))
    (uuid d22e813c-8203-402c-98f9-898c83f97a60)
  )
  (label "MIL" (at 117.475 137.795 0) (fields_autoplaced)
    (effects (font (size 1.27 1.27)) (justify left bottom))
    (uuid d64047f9-e6a9-44a5-8a8e-a15ccb8f196d)
  )
  (label "R2" (at 252.095 143.51 0) (fields_autoplaced)
    (effects (font (size 1.27 1.27)) (justify left bottom))
    (uuid ebf4f062-eebb-4b01-8e4f-31443644a435)
  )
  (label "R3" (at 119.38 179.07 180) (fields_autoplaced)
    (effects (font (size 1.27 1.27)) (justify right bottom))
    (uuid f14f2dab-d77f-4716-baf7-42def68195f3)
  )
  (label "PWM1_OUT" (at 162.56 132.715 0) (fields_autoplaced)
    (effects (font (size 0.8 0.8)) (justify left bottom))
    (uuid fa3ea224-7256-4df2-b855-f989ecae2f5c)
  )

  (global_label "D4" (shape input) (at 226.06 133.985 0)
    (effects (font (size 1.27 1.27)) (justify left))
    (uuid 342011c0-9c91-435a-b832-8516842f8bb9)
    (property "Intersheetrefs" "${INTERSHEET_REFS}" (at 230.9526 133.9056 0)
      (effects (font (size 1.27 1.27)) (justify left) hide)
    )
  )
  (global_label "C3" (shape input) (at 232.41 158.115 0)
    (effects (font (size 1.27 1.27)) (justify left))
    (uuid 6d0f5abe-7f2e-431d-90ab-aa22bd735d06)
    (property "Intersheetrefs" "${INTERSHEET_REFS}" (at 237.3026 158.0356 0)
      (effects (font (size 1.27 1.27)) (justify left) hide)
    )
  )
  (global_label "G3" (shape input) (at 226.06 128.905 0)
    (effects (font (size 1.27 1.27)) (justify left))
    (uuid 7cd06608-818e-4df4-a29c-40d3a733f569)
    (property "Intersheetrefs" "${INTERSHEET_REFS}" (at 230.9526 128.8256 0)
      (effects (font (size 1.27 1.27)) (justify left) hide)
    )
  )
  (global_label "D3" (shape input) (at 226.06 154.94 0)
    (effects (font (size 1.27 1.27)) (justify left))
    (uuid 90677d5e-37a9-4f1c-b6e1-57fdd1fdcaa8)
    (property "Intersheetrefs" "${INTERSHEET_REFS}" (at 230.9526 154.8606 0)
      (effects (font (size 1.27 1.27)) (justify left) hide)
    )
  )
  (global_label "F3" (shape input) (at 226.06 139.065 0)
    (effects (font (size 1.27 1.27)) (justify left))
    (uuid bc083132-b6a9-40cb-8d3e-50e283b3679a)
    (property "Intersheetrefs" "${INTERSHEET_REFS}" (at 230.7712 138.9856 0)
      (effects (font (size 1.27 1.27)) (justify left) hide)
    )
  )
  (global_label "H3" (shape input) (at 226.06 123.825 0)
    (effects (font (size 1.27 1.27)) (justify left))
    (uuid c6423a85-de47-4a8d-8ee1-198f2967cef5)
    (property "Intersheetrefs" "${INTERSHEET_REFS}" (at 231.0131 123.7456 0)
      (effects (font (size 1.27 1.27)) (justify left) hide)
    )
  )
  (global_label "E3" (shape input) (at 226.06 160.02 0)
    (effects (font (size 1.27 1.27)) (justify left))
    (uuid ddb49fe0-610d-468b-96fe-656250b213d6)
    (property "Intersheetrefs" "${INTERSHEET_REFS}" (at 230.8317 159.9406 0)
      (effects (font (size 1.27 1.27)) (justify left) hide)
    )
  )
  (global_label "B4" (shape input) (at 226.06 149.225 0)
    (effects (font (size 1.27 1.27)) (justify left))
    (uuid e24637a8-8a12-48a7-b8a4-828b8e265b7f)
    (property "Intersheetrefs" "${INTERSHEET_REFS}" (at 230.9526 149.1456 0)
      (effects (font (size 1.27 1.27)) (justify left) hide)
    )
  )
  (global_label "C4" (shape input) (at 226.06 144.145 0)
    (effects (font (size 1.27 1.27)) (justify left))
    (uuid e9e44b13-0f95-4355-9246-700c0c0c80cf)
    (property "Intersheetrefs" "${INTERSHEET_REFS}" (at 230.9526 144.0656 0)
      (effects (font (size 1.27 1.27)) (justify left) hide)
    )
  )

  (hierarchical_label "PWM1" (shape input) (at 267.335 158.75 0) (fields_autoplaced)
    (effects (font (size 1.27 1.27)) (justify left))
    (uuid 19e14ba1-c8b1-4fe0-af8e-450b958b1eda)
  )
  (hierarchical_label "R0" (shape input) (at 267.335 151.13 0) (fields_autoplaced)
    (effects (font (size 1.27 1.27)) (justify left))
    (uuid 49f04deb-ba0d-4484-9c30-117269442b5d)
  )
  (hierarchical_label "R2" (shape input) (at 267.335 143.51 0) (fields_autoplaced)
    (effects (font (size 1.27 1.27)) (justify left))
    (uuid 611ab821-4795-4038-b7d1-9b590c72f8c2)
  )
  (hierarchical_label "PWM0" (shape input) (at 267.335 154.94 0) (fields_autoplaced)
    (effects (font (size 1.27 1.27)) (justify left))
    (uuid a453456a-c11e-4cc7-a95b-2628b3c27ff2)
  )
  (hierarchical_label "R3" (shape input) (at 267.335 139.7 0) (fields_autoplaced)
    (effects (font (size 1.27 1.27)) (justify left))
    (uuid b08904c3-c547-4093-957f-39e545505fc8)
  )
  (hierarchical_label "CHK" (shape input) (at 267.335 132.08 0) (fields_autoplaced)
    (effects (font (size 1.27 1.27)) (justify left))
    (uuid c7352df6-0722-4bbc-b843-10b61d0cb4b1)
  )
  (hierarchical_label "MIL" (shape input) (at 267.335 135.89 0) (fields_autoplaced)
    (effects (font (size 1.27 1.27)) (justify left))
    (uuid e4e7ccd9-f93d-4dfc-a749-3e22e2c0b4d5)
  )
  (hierarchical_label "R1" (shape input) (at 267.335 147.32 0) (fields_autoplaced)
    (effects (font (size 1.27 1.27)) (justify left))
    (uuid ec0f4537-0f9b-44c8-a728-b080c92d1080)
  )

  (symbol (lib_id "Device:Polyfuse_Small") (at 219.075 160.02 90) (unit 1)
    (in_bom yes) (on_board yes) (dnp no)
    (uuid 03f86763-1276-452c-84fc-a17b443e94af)
    (property "Reference" "F14" (at 217.17 158.75 90)
      (effects (font (size 0.6 0.6)))
    )
    (property "Value" "750mA" (at 224.155 158.115 90)
      (effects (font (size 1.27 1.27)) hide)
    )
    (property "Footprint" "Fuse:Fuse_0805_2012Metric" (at 224.155 158.75 0)
      (effects (font (size 1.27 1.27)) (justify left) hide)
    )
    (property "Datasheet" "~" (at 219.075 160.02 0)
      (effects (font (size 1.27 1.27)) hide)
    )
    (property "LCSC" "C2760263" (at 219.075 160.02 90)
      (effects (font (size 0.889 0.889)) hide)
    )
    (pin "1" (uuid fc726f26-2928-464e-9bc3-7b91fbff7e28))
    (pin "2" (uuid f1fe2f87-5e37-48ef-ab91-b04aabfd6b17))
    (instances
      (project "uEFI_rev3"
        (path "/b282ce4b-c3d0-4c94-b06c-73b92bb672a9/b1829a8d-2693-4ef4-b38b-2a2550c6ec35"
          (reference "F14") (unit 1)
        )
      )
    )
  )

  (symbol (lib_id "Device:Polyfuse_Small") (at 149.225 166.37 90) (unit 1)
    (in_bom yes) (on_board yes) (dnp no)
    (uuid 1dc2fd4e-3b86-436b-a8b5-0a3a743fc6a4)
    (property "Reference" "F1" (at 147.32 165.1 90)
      (effects (font (size 0.6 0.6)))
    )
    (property "Value" "750mA" (at 154.305 164.465 90)
      (effects (font (size 1.27 1.27)) hide)
    )
    (property "Footprint" "Fuse:Fuse_0805_2012Metric" (at 154.305 165.1 0)
      (effects (font (size 1.27 1.27)) (justify left) hide)
    )
    (property "Datasheet" "~" (at 149.225 166.37 0)
      (effects (font (size 1.27 1.27)) hide)
    )
    (property "LCSC" "C2760263" (at 149.225 166.37 90)
      (effects (font (size 0.889 0.889)) hide)
    )
    (pin "1" (uuid b6ab0ccb-c562-457c-8661-efe7b8ebdb8b))
    (pin "2" (uuid 2316558d-d6e5-4f42-a145-5ce18e9c2401))
    (instances
      (project "uEFI_rev3"
        (path "/b282ce4b-c3d0-4c94-b06c-73b92bb672a9/b1829a8d-2693-4ef4-b38b-2a2550c6ec35"
          (reference "F1") (unit 1)
        )
      )
    )
  )

  (symbol (lib_id "Device:Polyfuse_Small") (at 156.21 125.095 90) (unit 1)
    (in_bom yes) (on_board yes) (dnp no)
    (uuid 21d18622-b98e-49b2-b3ad-596379046f73)
    (property "Reference" "F7" (at 154.305 123.825 90)
      (effects (font (size 0.6 0.6)))
    )
    (property "Value" "750mA" (at 161.29 123.19 90)
      (effects (font (size 1.27 1.27)) hide)
    )
    (property "Footprint" "Fuse:Fuse_0805_2012Metric" (at 161.29 123.825 0)
      (effects (font (size 1.27 1.27)) (justify left) hide)
    )
    (property "Datasheet" "~" (at 156.21 125.095 0)
      (effects (font (size 1.27 1.27)) hide)
    )
    (property "LCSC" "C2760263" (at 156.21 125.095 90)
      (effects (font (size 0.889 0.889)) hide)
    )
    (pin "1" (uuid 60f38d66-7e84-4392-962c-4591a92d7209))
    (pin "2" (uuid 6dbeb4ed-3281-47c3-bcb5-047031745123))
    (instances
      (project "uEFI_rev3"
        (path "/b282ce4b-c3d0-4c94-b06c-73b92bb672a9/b1829a8d-2693-4ef4-b38b-2a2550c6ec35"
          (reference "F7") (unit 1)
        )
      )
    )
  )

  (symbol (lib_id "Device:Polyfuse_Small") (at 155.575 171.45 90) (unit 1)
    (in_bom yes) (on_board yes) (dnp no)
    (uuid 2ad1ac08-af41-45a8-8324-3c57baeaf8fa)
    (property "Reference" "F6" (at 153.67 170.18 90)
      (effects (font (size 0.6 0.6)))
    )
    (property "Value" "750mA" (at 160.655 169.545 90)
      (effects (font (size 1.27 1.27)) hide)
    )
    (property "Footprint" "Fuse:Fuse_0805_2012Metric" (at 160.655 170.18 0)
      (effects (font (size 1.27 1.27)) (justify left) hide)
    )
    (property "Datasheet" "~" (at 155.575 171.45 0)
      (effects (font (size 1.27 1.27)) hide)
    )
    (property "LCSC" "C2760263" (at 155.575 171.45 90)
      (effects (font (size 0.889 0.889)) hide)
    )
    (pin "1" (uuid 846143d8-a6ea-46ff-9778-2adff3d20a36))
    (pin "2" (uuid 3388fb22-269c-498d-91aa-f96e9d77d643))
    (instances
      (project "uEFI_rev3"
        (path "/b282ce4b-c3d0-4c94-b06c-73b92bb672a9/b1829a8d-2693-4ef4-b38b-2a2550c6ec35"
          (reference "F6") (unit 1)
        )
      )
    )
  )

  (symbol (lib_id "Device:Polyfuse_Small") (at 157.48 168.91 90) (unit 1)
    (in_bom yes) (on_board yes) (dnp no)
    (uuid 2aee3283-ea0c-4405-b502-d9b77d8a18ab)
    (property "Reference" "F9" (at 155.575 167.64 90)
      (effects (font (size 0.6 0.6)))
    )
    (property "Value" "750mA" (at 162.56 167.005 90)
      (effects (font (size 1.27 1.27)) hide)
    )
    (property "Footprint" "Fuse:Fuse_0805_2012Metric" (at 162.56 167.64 0)
      (effects (font (size 1.27 1.27)) (justify left) hide)
    )
    (property "Datasheet" "~" (at 157.48 168.91 0)
      (effects (font (size 1.27 1.27)) hide)
    )
    (property "LCSC" "C2760263" (at 157.48 168.91 90)
      (effects (font (size 0.889 0.889)) hide)
    )
    (pin "1" (uuid 12c304cb-b6d4-4f84-bf8a-8ec79297e352))
    (pin "2" (uuid 925ede02-a8ff-40a3-a0b9-e6ca490d1635))
    (instances
      (project "uEFI_rev3"
        (path "/b282ce4b-c3d0-4c94-b06c-73b92bb672a9/b1829a8d-2693-4ef4-b38b-2a2550c6ec35"
          (reference "F9") (unit 1)
        )
      )
    )
  )

  (symbol (lib_id "Device:Polyfuse_Small") (at 218.44 154.94 90) (unit 1)
    (in_bom yes) (on_board yes) (dnp no)
    (uuid 2ba8bd04-af57-4389-bafa-1cfbe0173388)
    (property "Reference" "F13" (at 216.535 153.67 90)
      (effects (font (size 0.6 0.6)))
    )
    (property "Value" "750mA" (at 223.52 153.035 90)
      (effects (font (size 1.27 1.27)) hide)
    )
    (property "Footprint" "Fuse:Fuse_0805_2012Metric" (at 223.52 153.67 0)
      (effects (font (size 1.27 1.27)) (justify left) hide)
    )
    (property "Datasheet" "~" (at 218.44 154.94 0)
      (effects (font (size 1.27 1.27)) hide)
    )
    (property "LCSC" "C2760263" (at 218.44 154.94 90)
      (effects (font (size 0.889 0.889)) hide)
    )
    (pin "1" (uuid 5fdd16c3-9a10-4dd4-b159-688eb58831fc))
    (pin "2" (uuid 9a5f333e-83ff-41ca-90c4-705cb676ea05))
    (instances
      (project "uEFI_rev3"
        (path "/b282ce4b-c3d0-4c94-b06c-73b92bb672a9/b1829a8d-2693-4ef4-b38b-2a2550c6ec35"
          (reference "F13") (unit 1)
        )
      )
    )
  )

  (symbol (lib_id "Device:Polyfuse_Small") (at 150.495 173.99 90) (unit 1)
    (in_bom yes) (on_board yes) (dnp no)
    (uuid 3047bf9d-3b9f-4122-9117-da36b71a13f6)
    (property "Reference" "F4" (at 148.59 172.72 90)
      (effects (font (size 0.6 0.6)))
    )
    (property "Value" "750mA" (at 155.575 172.085 90)
      (effects (font (size 1.27 1.27)) hide)
    )
    (property "Footprint" "Fuse:Fuse_0805_2012Metric" (at 155.575 172.72 0)
      (effects (font (size 1.27 1.27)) (justify left) hide)
    )
    (property "Datasheet" "~" (at 150.495 173.99 0)
      (effects (font (size 1.27 1.27)) hide)
    )
    (property "LCSC" "C2760263" (at 150.495 173.99 90)
      (effects (font (size 0.889 0.889)) hide)
    )
    (pin "1" (uuid 358b22c0-4c63-4068-9ac0-107418337369))
    (pin "2" (uuid d0dcc7cc-8bd2-4adf-a379-13dce79c2951))
    (instances
      (project "uEFI_rev3"
        (path "/b282ce4b-c3d0-4c94-b06c-73b92bb672a9/b1829a8d-2693-4ef4-b38b-2a2550c6ec35"
          (reference "F4") (unit 1)
        )
      )
    )
  )

  (symbol (lib_id "power:+12V") (at 158.115 184.15 0) (unit 1)
    (in_bom yes) (on_board yes) (dnp no)
    (uuid 3b0e59b3-6be8-4f6a-8eb7-e2e31bd0620c)
    (property "Reference" "#PWR0129" (at 158.115 187.96 0)
      (effects (font (size 1.27 1.27)) hide)
    )
    (property "Value" "+12V" (at 158.4833 179.8256 0)
      (effects (font (size 1.27 1.27)))
    )
    (property "Footprint" "" (at 158.115 184.15 0)
      (effects (font (size 1.27 1.27)) hide)
    )
    (property "Datasheet" "" (at 158.115 184.15 0)
      (effects (font (size 1.27 1.27)) hide)
    )
    (pin "1" (uuid 393e2460-fd75-45c1-b9f2-e548fb10f85a))
    (instances
      (project "uEFI_rev3"
        (path "/b282ce4b-c3d0-4c94-b06c-73b92bb672a9/b1829a8d-2693-4ef4-b38b-2a2550c6ec35"
          (reference "#PWR0129") (unit 1)
        )
      )
    )
  )

  (symbol (lib_id "Device:Polyfuse_Small") (at 160.02 130.175 90) (unit 1)
    (in_bom yes) (on_board yes) (dnp no)
    (uuid 3d722bcd-0446-4b0d-839e-2a7bf779c02b)
    (property "Reference" "F11" (at 158.115 128.905 90)
      (effects (font (size 0.6 0.6)))
    )
    (property "Value" "750mA" (at 165.1 128.27 90)
      (effects (font (size 1.27 1.27)) hide)
    )
    (property "Footprint" "Fuse:Fuse_0805_2012Metric" (at 165.1 128.905 0)
      (effects (font (size 1.27 1.27)) (justify left) hide)
    )
    (property "Datasheet" "~" (at 160.02 130.175 0)
      (effects (font (size 1.27 1.27)) hide)
    )
    (property "LCSC" "C2760263" (at 160.02 130.175 90)
      (effects (font (size 0.889 0.889)) hide)
    )
    (pin "1" (uuid 470db310-4bcc-4630-b10e-0b7b7f4af169))
    (pin "2" (uuid e1337476-3423-4f0d-844d-236e270d8439))
    (instances
      (project "uEFI_rev3"
        (path "/b282ce4b-c3d0-4c94-b06c-73b92bb672a9/b1829a8d-2693-4ef4-b38b-2a2550c6ec35"
          (reference "F11") (unit 1)
        )
      )
    )
  )

  (symbol (lib_id "Device:Polyfuse_Small") (at 157.48 122.555 90) (unit 1)
    (in_bom yes) (on_board yes) (dnp no)
    (uuid 3dea8eea-4cfa-4491-9c3f-84c21127d823)
    (property "Reference" "F8" (at 154.305 120.65 90)
      (effects (font (size 1.27 1.27)))
    )
    (property "Value" "750mA" (at 162.56 120.65 90)
      (effects (font (size 1.27 1.27)))
    )
    (property "Footprint" "Fuse:Fuse_0805_2012Metric" (at 162.56 121.285 0)
      (effects (font (size 1.27 1.27)) (justify left) hide)
    )
    (property "Datasheet" "~" (at 157.48 122.555 0)
      (effects (font (size 1.27 1.27)) hide)
    )
    (property "LCSC" "C2760263" (at 157.48 122.555 90)
      (effects (font (size 0.889 0.889)) hide)
    )
    (pin "1" (uuid 748972d3-e853-42c1-bd92-44287183b3f7))
    (pin "2" (uuid 2df24e58-6763-470b-a6f1-d8b0ee936f73))
    (instances
      (project "uEFI_rev3"
        (path "/b282ce4b-c3d0-4c94-b06c-73b92bb672a9/b1829a8d-2693-4ef4-b38b-2a2550c6ec35"
          (reference "F8") (unit 1)
        )
      )
    )
  )

  (symbol (lib_id "Device:Polyfuse_Small") (at 149.225 176.53 90) (unit 1)
    (in_bom yes) (on_board yes) (dnp no)
    (uuid 5785a2eb-c800-4e55-bfb4-1e5eb3df9773)
    (property "Reference" "F2" (at 147.32 175.26 90)
      (effects (font (size 0.6 0.6)))
    )
    (property "Value" "750mA" (at 154.305 174.625 90)
      (effects (font (size 1.27 1.27)) hide)
    )
    (property "Footprint" "Fuse:Fuse_0805_2012Metric" (at 154.305 175.26 0)
      (effects (font (size 1.27 1.27)) (justify left) hide)
    )
    (property "Datasheet" "~" (at 149.225 176.53 0)
      (effects (font (size 1.27 1.27)) hide)
    )
    (property "LCSC" "C2760263" (at 149.225 176.53 90)
      (effects (font (size 0.889 0.889)) hide)
    )
    (pin "1" (uuid 4c95214b-231d-41d4-99db-06be31217e5b))
    (pin "2" (uuid 5d08aa13-86df-4c86-b6bd-1b6a7e3b7ea5))
    (instances
      (project "uEFI_rev3"
        (path "/b282ce4b-c3d0-4c94-b06c-73b92bb672a9/b1829a8d-2693-4ef4-b38b-2a2550c6ec35"
          (reference "F2") (unit 1)
        )
      )
    )
  )

  (symbol (lib_id "Device:Polyfuse_Small") (at 154.94 127.635 90) (unit 1)
    (in_bom yes) (on_board yes) (dnp no)
    (uuid 6bc948ad-02cf-4df3-9492-d8f8fe907d1f)
    (property "Reference" "F5" (at 153.035 126.365 90)
      (effects (font (size 0.6 0.6)))
    )
    (property "Value" "750mA" (at 160.02 125.73 90)
      (effects (font (size 1.27 1.27)) hide)
    )
    (property "Footprint" "Fuse:Fuse_0805_2012Metric" (at 160.02 126.365 0)
      (effects (font (size 1.27 1.27)) (justify left) hide)
    )
    (property "Datasheet" "~" (at 154.94 127.635 0)
      (effects (font (size 1.27 1.27)) hide)
    )
    (property "LCSC" "C2760263" (at 154.94 127.635 90)
      (effects (font (size 0.889 0.889)) hide)
    )
    (pin "1" (uuid d8ca8613-6902-40e3-bfae-e80e04c0a01e))
    (pin "2" (uuid 1cd76bdf-57b6-410e-85df-cab522615b04))
    (instances
      (project "uEFI_rev3"
        (path "/b282ce4b-c3d0-4c94-b06c-73b92bb672a9/b1829a8d-2693-4ef4-b38b-2a2550c6ec35"
          (reference "F5") (unit 1)
        )
      )
    )
  )

  (symbol (lib_id "Device:Polyfuse_Small") (at 218.44 139.065 90) (unit 1)
    (in_bom yes) (on_board yes) (dnp no)
    (uuid 8c7f67eb-9bee-497a-9ed8-e732e66491e6)
    (property "Reference" "F12" (at 216.535 137.795 90)
      (effects (font (size 0.6 0.6)))
    )
    (property "Value" "750mA" (at 223.52 137.16 90)
      (effects (font (size 1.27 1.27)) hide)
    )
    (property "Footprint" "Fuse:Fuse_0805_2012Metric" (at 223.52 137.795 0)
      (effects (font (size 1.27 1.27)) (justify left) hide)
    )
    (property "Datasheet" "~" (at 218.44 139.065 0)
      (effects (font (size 1.27 1.27)) hide)
    )
    (property "LCSC" "C2760263" (at 218.44 139.065 90)
      (effects (font (size 0.889 0.889)) hide)
    )
    (pin "1" (uuid 7ffe0ebc-5c70-4f55-ba82-42c0915b3340))
    (pin "2" (uuid bce7f66f-e266-4c28-8685-2b6fa2ab3a20))
    (instances
      (project "uEFI_rev3"
        (path "/b282ce4b-c3d0-4c94-b06c-73b92bb672a9/b1829a8d-2693-4ef4-b38b-2a2550c6ec35"
          (reference "F12") (unit 1)
        )
      )
    )
  )

  (symbol (lib_id "Device:Polyfuse_Small") (at 158.75 132.715 90) (unit 1)
    (in_bom yes) (on_board yes) (dnp no)
    (uuid 9afc8f3c-e2b5-435b-8526-e99687638d71)
    (property "Reference" "F10" (at 156.845 131.445 90)
      (effects (font (size 0.6 0.6)))
    )
    (property "Value" "750mA" (at 163.83 130.81 90)
      (effects (font (size 1.27 1.27)) hide)
    )
    (property "Footprint" "Fuse:Fuse_0805_2012Metric" (at 163.83 131.445 0)
      (effects (font (size 1.27 1.27)) (justify left) hide)
    )
    (property "Datasheet" "~" (at 158.75 132.715 0)
      (effects (font (size 1.27 1.27)) hide)
    )
    (property "LCSC" "C2760263" (at 158.75 132.715 90)
      (effects (font (size 0.889 0.889)) hide)
    )
    (pin "1" (uuid a37abe73-1a4f-435f-87f6-f646a8baebdf))
    (pin "2" (uuid cebd1fd1-56f2-4317-9221-121d6d8117ba))
    (instances
      (project "uEFI_rev3"
        (path "/b282ce4b-c3d0-4c94-b06c-73b92bb672a9/b1829a8d-2693-4ef4-b38b-2a2550c6ec35"
          (reference "F10") (unit 1)
        )
      )
    )
  )

  (symbol (lib_id "power:+12V") (at 157.48 143.51 180) (unit 1)
    (in_bom yes) (on_board yes) (dnp no)
    (uuid b164873c-f856-4c52-a454-bb22e221561b)
    (property "Reference" "#PWR0135" (at 157.48 139.7 0)
      (effects (font (size 1.27 1.27)) hide)
    )
    (property "Value" "+12V" (at 157.1117 147.8344 0)
      (effects (font (size 1.27 1.27)))
    )
    (property "Footprint" "" (at 157.48 143.51 0)
      (effects (font (size 1.27 1.27)) hide)
    )
    (property "Datasheet" "" (at 157.48 143.51 0)
      (effects (font (size 1.27 1.27)) hide)
    )
    (pin "1" (uuid 099c93c4-5d90-49f5-a10e-e32f27e6e0d2))
    (instances
      (project "uEFI_rev3"
        (path "/b282ce4b-c3d0-4c94-b06c-73b92bb672a9/b1829a8d-2693-4ef4-b38b-2a2550c6ec35"
          (reference "#PWR0135") (unit 1)
        )
      )
    )
  )

  (symbol (lib_id "power:GND") (at 116.2558 188.4172 0) (unit 1)
    (in_bom yes) (on_board yes) (dnp no)
    (uuid b46227ee-e0b1-4571-aaa9-cdba48fcd89e)
    (property "Reference" "#PWR0122" (at 116.2558 194.7672 0)
      (effects (font (size 1.27 1.27)) hide)
    )
    (property "Value" "GND" (at 116.3701 192.7416 0)
      (effects (font (size 1.27 1.27)))
    )
    (property "Footprint" "" (at 116.2558 188.4172 0)
      (effects (font (size 1.27 1.27)) hide)
    )
    (property "Datasheet" "" (at 116.2558 188.4172 0)
      (effects (font (size 1.27 1.27)) hide)
    )
    (pin "1" (uuid 9e774b5d-5b7f-4768-9e44-675b92c9d7d3))
    (instances
      (project "uEFI_rev3"
        (path "/b282ce4b-c3d0-4c94-b06c-73b92bb672a9/b1829a8d-2693-4ef4-b38b-2a2550c6ec35"
          (reference "#PWR0122") (unit 1)
        )
      )
    )
  )

  (symbol (lib_id "OpenEFI-STM32-rev3:TPL7407LAPWR") (at 132.715 164.465 0) (unit 1)
    (in_bom yes) (on_board yes) (dnp no)
    (uuid e04d180c-16e0-40f0-9f97-12c8e15ca614)
    (property "Reference" "U22" (at 132.715 154.0318 0)
      (effects (font (size 1.27 1.27)))
    )
    (property "Value" "TPL7407LAPWR" (at 132.715 156.3305 0)
      (effects (font (size 1.27 1.27)))
    )
    (property "Footprint" "Package_SO:TSSOP-16_4.4x5mm_P0.65mm" (at 132.715 164.465 0)
      (effects (font (size 1.27 1.27)) hide)
    )
    (property "Datasheet" "" (at 132.715 164.465 0)
      (effects (font (size 1.27 1.27)) hide)
    )
    (property "LCSC" "C91443" (at 132.715 164.465 0)
      (effects (font (size 0.889 0.889)) hide)
    )
    (pin "1" (uuid 934d4233-d3d0-4b1f-823e-ab92db15ba6f))
    (pin "10" (uuid 98d8a2cf-0d27-485c-bdab-beb3765611a3))
    (pin "11" (uuid fcc567a3-9f8c-43a8-886a-04742cfb0140))
    (pin "12" (uuid 8ba1d36c-99cc-4aaa-b2e8-21d6ffbf9aa4))
    (pin "13" (uuid 99819422-45bf-4be1-8558-6019d1677bff))
    (pin "14" (uuid 0934d6d7-84f7-49fc-a973-2afad111b64f))
    (pin "15" (uuid 46b96624-7ad6-4eaa-8b0f-e0f36a42a1a2))
    (pin "16" (uuid 3a510804-dd4f-4575-9e14-e8cd8db4bceb))
    (pin "2" (uuid 3474f9ad-d368-42df-b2dc-42f1ea2363d3))
    (pin "3" (uuid 6c6ed21d-1d19-4925-aba0-8f6d0936dd05))
    (pin "4" (uuid c374a4b0-f017-4910-a38d-1c97a62f6487))
    (pin "5" (uuid 82a0bea9-18bc-4046-bce6-3fc9b86ca971))
    (pin "6" (uuid 2a4036ea-d754-4d73-8f1f-26f1e2e616ea))
    (pin "7" (uuid 4959321e-9f47-415a-b8e7-8b5b2b3a8188))
    (pin "8" (uuid 943ecf73-42f5-410e-851e-1ddedbe62fe3))
    (pin "9" (uuid b76f0f64-f7fd-467b-a2a4-6244144775e1))
    (instances
      (project "uEFI_rev3"
        (path "/b282ce4b-c3d0-4c94-b06c-73b92bb672a9/b1829a8d-2693-4ef4-b38b-2a2550c6ec35"
          (reference "U22") (unit 1)
        )
      )
    )
  )

  (symbol (lib_id "power:GND") (at 114.7826 147.7772 0) (unit 1)
    (in_bom yes) (on_board yes) (dnp no)
    (uuid f587c4b8-adcd-432d-91ac-a5e93cb01633)
    (property "Reference" "#PWR0130" (at 114.7826 154.1272 0)
      (effects (font (size 1.27 1.27)) hide)
    )
    (property "Value" "GND" (at 114.8969 152.1016 0)
      (effects (font (size 1.27 1.27)))
    )
    (property "Footprint" "" (at 114.7826 147.7772 0)
      (effects (font (size 1.27 1.27)) hide)
    )
    (property "Datasheet" "" (at 114.7826 147.7772 0)
      (effects (font (size 1.27 1.27)) hide)
    )
    (pin "1" (uuid 6773a881-5211-4e71-9012-b5c64e74d253))
    (instances
      (project "uEFI_rev3"
        (path "/b282ce4b-c3d0-4c94-b06c-73b92bb672a9/b1829a8d-2693-4ef4-b38b-2a2550c6ec35"
          (reference "#PWR0130") (unit 1)
        )
      )
    )
  )

  (symbol (lib_id "Device:Polyfuse_Small") (at 150.495 163.83 90) (unit 1)
    (in_bom yes) (on_board yes) (dnp no)
    (uuid fa3e749d-f720-4b6f-a9f5-3cd98cada4b6)
    (property "Reference" "F3" (at 148.59 162.56 90)
      (effects (font (size 0.6 0.6)))
    )
    (property "Value" "750mA" (at 155.575 161.925 90)
      (effects (font (size 1.27 1.27)) hide)
    )
    (property "Footprint" "Fuse:Fuse_0805_2012Metric" (at 155.575 162.56 0)
      (effects (font (size 1.27 1.27)) (justify left) hide)
    )
    (property "Datasheet" "~" (at 150.495 163.83 0)
      (effects (font (size 1.27 1.27)) hide)
    )
    (property "LCSC" "C2760263" (at 150.495 163.83 90)
      (effects (font (size 0.889 0.889)) hide)
    )
    (pin "1" (uuid 8b29783c-2f96-48ba-ad7a-2d1ed40db37d))
    (pin "2" (uuid a9882cab-b120-4793-9a0b-32836d425f31))
    (instances
      (project "uEFI_rev3"
        (path "/b282ce4b-c3d0-4c94-b06c-73b92bb672a9/b1829a8d-2693-4ef4-b38b-2a2550c6ec35"
          (reference "F3") (unit 1)
        )
      )
    )
  )

  (symbol (lib_id "OpenEFI-STM32-rev3:TPL7407LAPWR") (at 132.08 123.19 0) (unit 1)
    (in_bom yes) (on_board yes) (dnp no)
    (uuid ff302b44-23dc-4076-bd3d-f1c694290a02)
    (property "Reference" "U20" (at 132.08 112.7568 0)
      (effects (font (size 1.27 1.27)))
    )
    (property "Value" "TPL7407LAPWR" (at 132.08 115.0555 0)
      (effects (font (size 1.27 1.27)))
    )
    (property "Footprint" "Package_SO:TSSOP-16_4.4x5mm_P0.65mm" (at 132.08 123.19 0)
      (effects (font (size 1.27 1.27)) hide)
    )
    (property "Datasheet" "" (at 132.08 123.19 0)
      (effects (font (size 1.27 1.27)) hide)
    )
    (property "LCSC" "C91443" (at 132.08 123.19 0)
      (effects (font (size 0.889 0.889)) hide)
    )
    (pin "1" (uuid d68bd4ad-4952-4d6f-a186-07c87b47b9a5))
    (pin "10" (uuid f34fe573-0484-4624-8877-a0ec6faf147c))
    (pin "11" (uuid 54367f9a-6b5c-4b6b-977a-d952dccee0ef))
    (pin "12" (uuid eaf2cf70-a8c1-40e5-aa4a-052849bc730e))
    (pin "13" (uuid 318cf3c0-82e8-4d4f-89ea-35dcd0686a2a))
    (pin "14" (uuid 1470f895-6384-45d9-b37d-cc6805c0adf1))
    (pin "15" (uuid c7f96192-ab7c-4ce0-91d0-7a0c1dcedd41))
    (pin "16" (uuid 4d495024-e45e-446d-9bcd-7356b3f41a32))
    (pin "2" (uuid 83069fc7-4808-4364-9625-8eeba2340f2c))
    (pin "3" (uuid 41d9d2d7-72a2-41d1-8a83-2c98b2c84530))
    (pin "4" (uuid 86c70694-fba3-4555-90a9-8aa05f95783e))
    (pin "5" (uuid 5ca2eaa9-4b58-4eb4-a53f-fa5668474b82))
    (pin "6" (uuid f6bdb02d-4aab-4cbd-a46c-7aee1e546831))
    (pin "7" (uuid ea5f6330-8eb7-4cfc-b5fa-b1bed52fc37c))
    (pin "8" (uuid 719c0dd7-e862-409e-bc5a-f7d792b30627))
    (pin "9" (uuid 92d23315-5d5c-4195-84b9-9b972b7a387a))
    (instances
      (project "uEFI_rev3"
        (path "/b282ce4b-c3d0-4c94-b06c-73b92bb672a9/b1829a8d-2693-4ef4-b38b-2a2550c6ec35"
          (reference "U20") (unit 1)
        )
      )
    )
  )
)
