(kicad_sch (version 20230121) (generator eeschema)

  (uuid 3603de6c-3607-46db-b9a0-943a0ebbb17f)

  (paper "A4")

  (title_block
    (title "uEFI")
    (date "%%date%%")
    (rev "%%version%%")
    (company "Churrosoft")
    (comment 1 "MIT Licence")
  )

  (lib_symbols
    (symbol "Connector:TestPoint" (pin_numbers hide) (pin_names (offset 0.762) hide) (in_bom yes) (on_board yes)
      (property "Reference" "TP" (at 0 6.858 0)
        (effects (font (size 1.27 1.27)))
      )
      (property "Value" "TestPoint" (at 0 5.08 0)
        (effects (font (size 1.27 1.27)))
      )
      (property "Footprint" "" (at 5.08 0 0)
        (effects (font (size 1.27 1.27)) hide)
      )
      (property "Datasheet" "~" (at 5.08 0 0)
        (effects (font (size 1.27 1.27)) hide)
      )
      (property "ki_keywords" "test point tp" (at 0 0 0)
        (effects (font (size 1.27 1.27)) hide)
      )
      (property "ki_description" "test point" (at 0 0 0)
        (effects (font (size 1.27 1.27)) hide)
      )
      (property "ki_fp_filters" "Pin* Test*" (at 0 0 0)
        (effects (font (size 1.27 1.27)) hide)
      )
      (symbol "TestPoint_0_1"
        (circle (center 0 3.302) (radius 0.762)
          (stroke (width 0) (type default))
          (fill (type none))
        )
      )
      (symbol "TestPoint_1_1"
        (pin passive line (at 0 0 90) (length 2.54)
          (name "1" (effects (font (size 1.27 1.27))))
          (number "1" (effects (font (size 1.27 1.27))))
        )
      )
    )
    (symbol "Device:C_Small" (pin_numbers hide) (pin_names (offset 0.254) hide) (in_bom yes) (on_board yes)
      (property "Reference" "C" (at 0.254 1.778 0)
        (effects (font (size 1.27 1.27)) (justify left))
      )
      (property "Value" "C_Small" (at 0.254 -2.032 0)
        (effects (font (size 1.27 1.27)) (justify left))
      )
      (property "Footprint" "" (at 0 0 0)
        (effects (font (size 1.27 1.27)) hide)
      )
      (property "Datasheet" "~" (at 0 0 0)
        (effects (font (size 1.27 1.27)) hide)
      )
      (property "ki_keywords" "capacitor cap" (at 0 0 0)
        (effects (font (size 1.27 1.27)) hide)
      )
      (property "ki_description" "Unpolarized capacitor, small symbol" (at 0 0 0)
        (effects (font (size 1.27 1.27)) hide)
      )
      (property "ki_fp_filters" "C_*" (at 0 0 0)
        (effects (font (size 1.27 1.27)) hide)
      )
      (symbol "C_Small_0_1"
        (polyline
          (pts
            (xy -1.524 -0.508)
            (xy 1.524 -0.508)
          )
          (stroke (width 0.3302) (type default))
          (fill (type none))
        )
        (polyline
          (pts
            (xy -1.524 0.508)
            (xy 1.524 0.508)
          )
          (stroke (width 0.3048) (type default))
          (fill (type none))
        )
      )
      (symbol "C_Small_1_1"
        (pin passive line (at 0 2.54 270) (length 2.032)
          (name "~" (effects (font (size 1.27 1.27))))
          (number "1" (effects (font (size 1.27 1.27))))
        )
        (pin passive line (at 0 -2.54 90) (length 2.032)
          (name "~" (effects (font (size 1.27 1.27))))
          (number "2" (effects (font (size 1.27 1.27))))
        )
      )
    )
    (symbol "Device:R_Small" (pin_numbers hide) (pin_names (offset 0.254) hide) (in_bom yes) (on_board yes)
      (property "Reference" "R" (at 0.762 0.508 0)
        (effects (font (size 1.27 1.27)) (justify left))
      )
      (property "Value" "R_Small" (at 0.762 -1.016 0)
        (effects (font (size 1.27 1.27)) (justify left))
      )
      (property "Footprint" "" (at 0 0 0)
        (effects (font (size 1.27 1.27)) hide)
      )
      (property "Datasheet" "~" (at 0 0 0)
        (effects (font (size 1.27 1.27)) hide)
      )
      (property "ki_keywords" "R resistor" (at 0 0 0)
        (effects (font (size 1.27 1.27)) hide)
      )
      (property "ki_description" "Resistor, small symbol" (at 0 0 0)
        (effects (font (size 1.27 1.27)) hide)
      )
      (property "ki_fp_filters" "R_*" (at 0 0 0)
        (effects (font (size 1.27 1.27)) hide)
      )
      (symbol "R_Small_0_1"
        (rectangle (start -0.762 1.778) (end 0.762 -1.778)
          (stroke (width 0.2032) (type default))
          (fill (type none))
        )
      )
      (symbol "R_Small_1_1"
        (pin passive line (at 0 2.54 270) (length 0.762)
          (name "~" (effects (font (size 1.27 1.27))))
          (number "1" (effects (font (size 1.27 1.27))))
        )
        (pin passive line (at 0 -2.54 90) (length 0.762)
          (name "~" (effects (font (size 1.27 1.27))))
          (number "2" (effects (font (size 1.27 1.27))))
        )
      )
    )
    (symbol "Diode:BAS316" (pin_numbers hide) (pin_names (offset 1.016) hide) (in_bom yes) (on_board yes)
      (property "Reference" "D" (at 0 2.54 0)
        (effects (font (size 1.27 1.27)))
      )
      (property "Value" "BAS316" (at 0 -2.54 0)
        (effects (font (size 1.27 1.27)))
      )
      (property "Footprint" "Diode_SMD:D_SOD-323" (at 0 -4.445 0)
        (effects (font (size 1.27 1.27)) hide)
      )
      (property "Datasheet" "https://assets.nexperia.com/documents/data-sheet/BAS16_SER.pdf" (at 0 0 0)
        (effects (font (size 1.27 1.27)) hide)
      )
      (property "ki_keywords" "diode" (at 0 0 0)
        (effects (font (size 1.27 1.27)) hide)
      )
      (property "ki_description" "100V, 0.25A, High-speed Switching Diode, SOD-323" (at 0 0 0)
        (effects (font (size 1.27 1.27)) hide)
      )
      (property "ki_fp_filters" "D*SOD?323*" (at 0 0 0)
        (effects (font (size 1.27 1.27)) hide)
      )
      (symbol "BAS316_0_1"
        (polyline
          (pts
            (xy -1.27 1.27)
            (xy -1.27 -1.27)
          )
          (stroke (width 0.254) (type default))
          (fill (type none))
        )
        (polyline
          (pts
            (xy 1.27 0)
            (xy -1.27 0)
          )
          (stroke (width 0) (type default))
          (fill (type none))
        )
        (polyline
          (pts
            (xy 1.27 1.27)
            (xy 1.27 -1.27)
            (xy -1.27 0)
            (xy 1.27 1.27)
          )
          (stroke (width 0.254) (type default))
          (fill (type none))
        )
      )
      (symbol "BAS316_1_1"
        (pin passive line (at -3.81 0 0) (length 2.54)
          (name "K" (effects (font (size 1.27 1.27))))
          (number "1" (effects (font (size 1.27 1.27))))
        )
        (pin passive line (at 3.81 0 180) (length 2.54)
          (name "A" (effects (font (size 1.27 1.27))))
          (number "2" (effects (font (size 1.27 1.27))))
        )
      )
    )
    (symbol "Jumper:Jumper_3_Bridged12" (pin_names (offset 0) hide) (in_bom yes) (on_board yes)
      (property "Reference" "JP" (at -2.54 -2.54 0)
        (effects (font (size 1.27 1.27)))
      )
      (property "Value" "Jumper_3_Bridged12" (at 0 2.794 0)
        (effects (font (size 1.27 1.27)))
      )
      (property "Footprint" "" (at 0 0 0)
        (effects (font (size 1.27 1.27)) hide)
      )
      (property "Datasheet" "~" (at 0 0 0)
        (effects (font (size 1.27 1.27)) hide)
      )
      (property "ki_keywords" "Jumper SPDT" (at 0 0 0)
        (effects (font (size 1.27 1.27)) hide)
      )
      (property "ki_description" "Jumper, 3-pole, pins 1+2 closed/bridged" (at 0 0 0)
        (effects (font (size 1.27 1.27)) hide)
      )
      (property "ki_fp_filters" "Jumper* TestPoint*3Pads* TestPoint*Bridge*" (at 0 0 0)
        (effects (font (size 1.27 1.27)) hide)
      )
      (symbol "Jumper_3_Bridged12_0_0"
        (circle (center -3.302 0) (radius 0.508)
          (stroke (width 0) (type default))
          (fill (type none))
        )
        (circle (center 0 0) (radius 0.508)
          (stroke (width 0) (type default))
          (fill (type none))
        )
        (circle (center 3.302 0) (radius 0.508)
          (stroke (width 0) (type default))
          (fill (type none))
        )
      )
      (symbol "Jumper_3_Bridged12_0_1"
        (arc (start -0.254 0.508) (mid -1.651 0.9912) (end -3.048 0.508)
          (stroke (width 0) (type default))
          (fill (type none))
        )
        (polyline
          (pts
            (xy 0 -1.27)
            (xy 0 -0.508)
          )
          (stroke (width 0) (type default))
          (fill (type none))
        )
      )
      (symbol "Jumper_3_Bridged12_1_1"
        (pin passive line (at -6.35 0 0) (length 2.54)
          (name "A" (effects (font (size 1.27 1.27))))
          (number "1" (effects (font (size 1.27 1.27))))
        )
        (pin passive line (at 0 -3.81 90) (length 2.54)
          (name "C" (effects (font (size 1.27 1.27))))
          (number "2" (effects (font (size 1.27 1.27))))
        )
        (pin passive line (at 6.35 0 180) (length 2.54)
          (name "B" (effects (font (size 1.27 1.27))))
          (number "3" (effects (font (size 1.27 1.27))))
        )
      )
    )
    (symbol "Jumper:SolderJumper_2_Open" (pin_names (offset 0) hide) (in_bom yes) (on_board yes)
      (property "Reference" "JP" (at 0 2.032 0)
        (effects (font (size 1.27 1.27)))
      )
      (property "Value" "SolderJumper_2_Open" (at 0 -2.54 0)
        (effects (font (size 1.27 1.27)))
      )
      (property "Footprint" "" (at 0 0 0)
        (effects (font (size 1.27 1.27)) hide)
      )
      (property "Datasheet" "~" (at 0 0 0)
        (effects (font (size 1.27 1.27)) hide)
      )
      (property "ki_keywords" "solder jumper SPST" (at 0 0 0)
        (effects (font (size 1.27 1.27)) hide)
      )
      (property "ki_description" "Solder Jumper, 2-pole, open" (at 0 0 0)
        (effects (font (size 1.27 1.27)) hide)
      )
      (property "ki_fp_filters" "SolderJumper*Open*" (at 0 0 0)
        (effects (font (size 1.27 1.27)) hide)
      )
      (symbol "SolderJumper_2_Open_0_1"
        (arc (start -0.254 1.016) (mid -1.2656 0) (end -0.254 -1.016)
          (stroke (width 0) (type default))
          (fill (type none))
        )
        (arc (start -0.254 1.016) (mid -1.2656 0) (end -0.254 -1.016)
          (stroke (width 0) (type default))
          (fill (type outline))
        )
        (polyline
          (pts
            (xy -0.254 1.016)
            (xy -0.254 -1.016)
          )
          (stroke (width 0) (type default))
          (fill (type none))
        )
        (polyline
          (pts
            (xy 0.254 1.016)
            (xy 0.254 -1.016)
          )
          (stroke (width 0) (type default))
          (fill (type none))
        )
        (arc (start 0.254 -1.016) (mid 1.2656 0) (end 0.254 1.016)
          (stroke (width 0) (type default))
          (fill (type none))
        )
        (arc (start 0.254 -1.016) (mid 1.2656 0) (end 0.254 1.016)
          (stroke (width 0) (type default))
          (fill (type outline))
        )
      )
      (symbol "SolderJumper_2_Open_1_1"
        (pin passive line (at -3.81 0 0) (length 2.54)
          (name "A" (effects (font (size 1.27 1.27))))
          (number "1" (effects (font (size 1.27 1.27))))
        )
        (pin passive line (at 3.81 0 180) (length 2.54)
          (name "B" (effects (font (size 1.27 1.27))))
          (number "2" (effects (font (size 1.27 1.27))))
        )
      )
    )
    (symbol "OpenEFI-STM32-rev3:MAX9926UAEE+" (pin_names (offset 1.016)) (in_bom yes) (on_board yes)
      (property "Reference" "U" (at -12.7 23.8506 0)
        (effects (font (size 1.27 1.27)) (justify left bottom))
      )
      (property "Value" "MAX9926UAEE+" (at -12.7 -26.8478 0)
        (effects (font (size 1.27 1.27)) (justify left bottom))
      )
      (property "Footprint" "OpenEFI-STM32F_rev3:SOP63P602X175-16N" (at 0 0 0)
        (effects (font (size 1.27 1.27)) (justify left bottom) hide)
      )
      (property "Datasheet" "" (at 0 0 0)
        (effects (font (size 1.27 1.27)) (justify left bottom) hide)
      )
      (property "Description" "Variable Reluctance Sensor Interface 16-Pin QSOP Tube" (at 0 0 0)
        (effects (font (size 1.27 1.27)) (justify left bottom) hide)
      )
      (property "MF" "Maxim Integrated" (at 0 0 0)
        (effects (font (size 1.27 1.27)) (justify left bottom) hide)
      )
      (property "Availability" "Unavailable" (at 0 0 0)
        (effects (font (size 1.27 1.27)) (justify left bottom) hide)
      )
      (property "Package" "QSOP-16 Maxim" (at 0 0 0)
        (effects (font (size 1.27 1.27)) (justify left bottom) hide)
      )
      (property "MP" "MAX9926UAEE+" (at 0 0 0)
        (effects (font (size 1.27 1.27)) (justify left bottom) hide)
      )
      (property "Price" "None" (at 0 0 0)
        (effects (font (size 1.27 1.27)) (justify left bottom) hide)
      )
      (symbol "MAX9926UAEE+_0_0"
        (rectangle (start -12.7 -22.86) (end 12.7 22.86)
          (stroke (width 0.4064) (type default))
          (fill (type background))
        )
        (pin input line (at -17.78 -5.08 0) (length 5.08)
          (name "INT_THRS1" (effects (font (size 1.016 1.016))))
          (number "1" (effects (font (size 1.016 1.016))))
        )
        (pin input line (at -17.78 -2.54 0) (length 5.08)
          (name "IN2-" (effects (font (size 1.016 1.016))))
          (number "10" (effects (font (size 1.016 1.016))))
        )
        (pin power_in line (at 17.78 -17.78 180) (length 5.08)
          (name "GND" (effects (font (size 1.016 1.016))))
          (number "11" (effects (font (size 1.016 1.016))))
        )
        (pin output line (at 17.78 10.16 180) (length 5.08)
          (name "DIRN" (effects (font (size 1.016 1.016))))
          (number "12" (effects (font (size 1.016 1.016))))
        )
        (pin input line (at -17.78 -10.16 0) (length 5.08)
          (name "ZERO_EN" (effects (font (size 1.016 1.016))))
          (number "13" (effects (font (size 1.016 1.016))))
        )
        (pin power_in line (at 17.78 20.32 180) (length 5.08)
          (name "VCC" (effects (font (size 1.016 1.016))))
          (number "14" (effects (font (size 1.016 1.016))))
        )
        (pin input line (at -17.78 2.54 0) (length 5.08)
          (name "IN1-" (effects (font (size 1.016 1.016))))
          (number "15" (effects (font (size 1.016 1.016))))
        )
        (pin input line (at -17.78 5.08 0) (length 5.08)
          (name "IN1+" (effects (font (size 1.016 1.016))))
          (number "16" (effects (font (size 1.016 1.016))))
        )
        (pin input line (at -17.78 10.16 0) (length 5.08)
          (name "EXT1" (effects (font (size 1.016 1.016))))
          (number "2" (effects (font (size 1.016 1.016))))
        )
        (pin input line (at -17.78 15.24 0) (length 5.08)
          (name "BIAS1" (effects (font (size 1.016 1.016))))
          (number "3" (effects (font (size 1.016 1.016))))
        )
        (pin output line (at 17.78 15.24 180) (length 5.08)
          (name "COUT1" (effects (font (size 1.016 1.016))))
          (number "4" (effects (font (size 1.016 1.016))))
        )
        (pin output line (at 17.78 12.7 180) (length 5.08)
          (name "COUT2" (effects (font (size 1.016 1.016))))
          (number "5" (effects (font (size 1.016 1.016))))
        )
        (pin input line (at -17.78 12.7 0) (length 5.08)
          (name "BIAS2" (effects (font (size 1.016 1.016))))
          (number "6" (effects (font (size 1.016 1.016))))
        )
        (pin input line (at -17.78 7.62 0) (length 5.08)
          (name "EXT2" (effects (font (size 1.016 1.016))))
          (number "7" (effects (font (size 1.016 1.016))))
        )
        (pin input line (at -17.78 -7.62 0) (length 5.08)
          (name "INT_THRS2" (effects (font (size 1.016 1.016))))
          (number "8" (effects (font (size 1.016 1.016))))
        )
        (pin input line (at -17.78 0 0) (length 5.08)
          (name "IN2+" (effects (font (size 1.016 1.016))))
          (number "9" (effects (font (size 1.016 1.016))))
        )
      )
    )
    (symbol "power:+3V3" (power) (pin_names (offset 0)) (in_bom yes) (on_board yes)
      (property "Reference" "#PWR" (at 0 -3.81 0)
        (effects (font (size 1.27 1.27)) hide)
      )
      (property "Value" "+3V3" (at 0 3.556 0)
        (effects (font (size 1.27 1.27)))
      )
      (property "Footprint" "" (at 0 0 0)
        (effects (font (size 1.27 1.27)) hide)
      )
      (property "Datasheet" "" (at 0 0 0)
        (effects (font (size 1.27 1.27)) hide)
      )
      (property "ki_keywords" "power-flag" (at 0 0 0)
        (effects (font (size 1.27 1.27)) hide)
      )
      (property "ki_description" "Power symbol creates a global label with name \"+3V3\"" (at 0 0 0)
        (effects (font (size 1.27 1.27)) hide)
      )
      (symbol "+3V3_0_1"
        (polyline
          (pts
            (xy -0.762 1.27)
            (xy 0 2.54)
          )
          (stroke (width 0) (type default))
          (fill (type none))
        )
        (polyline
          (pts
            (xy 0 0)
            (xy 0 2.54)
          )
          (stroke (width 0) (type default))
          (fill (type none))
        )
        (polyline
          (pts
            (xy 0 2.54)
            (xy 0.762 1.27)
          )
          (stroke (width 0) (type default))
          (fill (type none))
        )
      )
      (symbol "+3V3_1_1"
        (pin power_in line (at 0 0 90) (length 0) hide
          (name "+3V3" (effects (font (size 1.27 1.27))))
          (number "1" (effects (font (size 1.27 1.27))))
        )
      )
    )
    (symbol "power:+5V" (power) (pin_names (offset 0)) (in_bom yes) (on_board yes)
      (property "Reference" "#PWR" (at 0 -3.81 0)
        (effects (font (size 1.27 1.27)) hide)
      )
      (property "Value" "+5V" (at 0 3.556 0)
        (effects (font (size 1.27 1.27)))
      )
      (property "Footprint" "" (at 0 0 0)
        (effects (font (size 1.27 1.27)) hide)
      )
      (property "Datasheet" "" (at 0 0 0)
        (effects (font (size 1.27 1.27)) hide)
      )
      (property "ki_keywords" "power-flag" (at 0 0 0)
        (effects (font (size 1.27 1.27)) hide)
      )
      (property "ki_description" "Power symbol creates a global label with name \"+5V\"" (at 0 0 0)
        (effects (font (size 1.27 1.27)) hide)
      )
      (symbol "+5V_0_1"
        (polyline
          (pts
            (xy -0.762 1.27)
            (xy 0 2.54)
          )
          (stroke (width 0) (type default))
          (fill (type none))
        )
        (polyline
          (pts
            (xy 0 0)
            (xy 0 2.54)
          )
          (stroke (width 0) (type default))
          (fill (type none))
        )
        (polyline
          (pts
            (xy 0 2.54)
            (xy 0.762 1.27)
          )
          (stroke (width 0) (type default))
          (fill (type none))
        )
      )
      (symbol "+5V_1_1"
        (pin power_in line (at 0 0 90) (length 0) hide
          (name "+5V" (effects (font (size 1.27 1.27))))
          (number "1" (effects (font (size 1.27 1.27))))
        )
      )
    )
    (symbol "power:GND" (power) (pin_names (offset 0)) (in_bom yes) (on_board yes)
      (property "Reference" "#PWR" (at 0 -6.35 0)
        (effects (font (size 1.27 1.27)) hide)
      )
      (property "Value" "GND" (at 0 -3.81 0)
        (effects (font (size 1.27 1.27)))
      )
      (property "Footprint" "" (at 0 0 0)
        (effects (font (size 1.27 1.27)) hide)
      )
      (property "Datasheet" "" (at 0 0 0)
        (effects (font (size 1.27 1.27)) hide)
      )
      (property "ki_keywords" "power-flag" (at 0 0 0)
        (effects (font (size 1.27 1.27)) hide)
      )
      (property "ki_description" "Power symbol creates a global label with name \"GND\" , ground" (at 0 0 0)
        (effects (font (size 1.27 1.27)) hide)
      )
      (symbol "GND_0_1"
        (polyline
          (pts
            (xy 0 0)
            (xy 0 -1.27)
            (xy 1.27 -1.27)
            (xy 0 -2.54)
            (xy -1.27 -1.27)
            (xy 0 -1.27)
          )
          (stroke (width 0) (type default))
          (fill (type none))
        )
      )
      (symbol "GND_1_1"
        (pin power_in line (at 0 0 270) (length 0) hide
          (name "GND" (effects (font (size 1.27 1.27))))
          (number "1" (effects (font (size 1.27 1.27))))
        )
      )
    )
  )

  (junction (at 116.205 78.74) (diameter 1.016) (color 0 0 0 0)
    (uuid 2adbad2b-46af-4caa-a651-e9f024a9fb8b)
  )
  (junction (at 191.77 85.09) (diameter 1.016) (color 0 0 0 0)
    (uuid 4497622e-6a35-4d56-b145-e61873b6a125)
  )
  (junction (at 116.205 58.42) (diameter 1.016) (color 0 0 0 0)
    (uuid 4cd38139-85d8-4bb0-8ec5-44fb4adb00fa)
  )
  (junction (at 106.045 104.775) (diameter 1.016) (color 0 0 0 0)
    (uuid 5b176ccc-587a-4308-8c95-991bd5be9b68)
  )
  (junction (at 114.935 125.095) (diameter 1.016) (color 0 0 0 0)
    (uuid 5b6af5a7-591e-4959-8c60-02f298d40677)
  )
  (junction (at 132.08 105.41) (diameter 1.016) (color 0 0 0 0)
    (uuid 5dfa8f9a-6e69-407d-b1ae-eb50492ca459)
  )
  (junction (at 197.485 85.09) (diameter 0.9144) (color 0 0 0 0)
    (uuid 5f3f0408-a3b0-4f22-91e2-9a024ab006ab)
  )
  (junction (at 78.74 125.222) (diameter 1.016) (color 0 0 0 0)
    (uuid 6832f754-a6e6-478a-bd86-858502b6adf6)
  )
  (junction (at 132.08 85.09) (diameter 1.016) (color 0 0 0 0)
    (uuid 6a3fe70d-92b9-4ad1-8a4f-a944ee5522b9)
  )
  (junction (at 191.77 77.47) (diameter 0) (color 0 0 0 0)
    (uuid 7070e3d5-d263-43b3-a401-a9ec69b02e83)
  )
  (junction (at 132.08 107.95) (diameter 1.016) (color 0 0 0 0)
    (uuid 8231f06e-2ee3-4905-af5e-c0d72e3085eb)
  )
  (junction (at 96.52 37.465) (diameter 0) (color 0 0 0 0)
    (uuid 838b422d-137b-4ec5-940c-658dce18c3c4)
  )
  (junction (at 79.375 104.775) (diameter 1.016) (color 0 0 0 0)
    (uuid 8ae55606-cfbf-467b-98ad-b305173bd9ee)
  )
  (junction (at 106.045 125.095) (diameter 1.016) (color 0 0 0 0)
    (uuid 9da855b0-f953-4d94-ac15-68c62fcf943f)
  )
  (junction (at 180.34 82.55) (diameter 1.016) (color 0 0 0 0)
    (uuid a1a89e2c-c297-4307-a1ff-efd1e2a95a5d)
  )
  (junction (at 107.315 78.74) (diameter 1.016) (color 0 0 0 0)
    (uuid c04e50f2-d5aa-4a23-a606-4b4ca7d7a313)
  )
  (junction (at 114.935 104.775) (diameter 1.016) (color 0 0 0 0)
    (uuid c221eefe-1cf5-48d5-b941-f08de75c2fe3)
  )
  (junction (at 86.995 37.465) (diameter 0) (color 0 0 0 0)
    (uuid c2967d4b-a65a-4ff3-9788-4b95478f21ec)
  )
  (junction (at 132.08 102.87) (diameter 1.016) (color 0 0 0 0)
    (uuid cf4ac78b-a9ac-469c-829f-72c6f81e6f21)
  )
  (junction (at 107.315 58.42) (diameter 1.016) (color 0 0 0 0)
    (uuid de589fca-e528-4d9d-88c3-9fb59d406d80)
  )
  (junction (at 124.46 125.095) (diameter 0.9144) (color 0 0 0 0)
    (uuid e254fbf4-1596-4274-a2c3-cd2c87e0c836)
  )
  (junction (at 198.12 82.55) (diameter 0.9144) (color 0 0 0 0)
    (uuid fc98aaf7-0aba-4c7e-a96d-56e31c31a588)
  )

  (no_connect (at 135.89 90.17) (uuid 42169a9d-cbc4-4d90-8541-84e1b616719a))
  (no_connect (at 171.45 87.63) (uuid d3203572-0600-4a85-8b7c-11ef5115ac01))
  (no_connect (at 135.89 87.63) (uuid ef4b8a5c-e9ed-42c2-bc1e-57bc780baa94))

  (wire (pts (xy 87.63 104.775) (xy 95.25 104.775))
    (stroke (width 0) (type solid))
    (uuid 015c5e40-e906-4348-b2e7-f70604468b4b)
  )
  (wire (pts (xy 88.9 78.74) (xy 96.52 78.74))
    (stroke (width 0) (type solid))
    (uuid 031e3d52-7168-46cf-9e9d-1eade643459c)
  )
  (wire (pts (xy 125.73 78.74) (xy 116.205 78.74))
    (stroke (width 0) (type solid))
    (uuid 09a271b0-3956-4566-a2f6-91b4cdfee470)
  )
  (wire (pts (xy 132.08 124.46) (xy 132.08 107.95))
    (stroke (width 0) (type solid))
    (uuid 0cdd6a19-cd17-400c-b7dd-b64264869682)
  )
  (wire (pts (xy 107.315 78.74) (xy 116.205 78.74))
    (stroke (width 0) (type solid))
    (uuid 17b9cd64-15de-4f6b-ae75-05204eb2afde)
  )
  (wire (pts (xy 132.08 107.95) (xy 135.89 107.95))
    (stroke (width 0) (type solid))
    (uuid 18a885a3-6d74-431a-a8c7-c99abbe007f4)
  )
  (wire (pts (xy 132.08 102.87) (xy 135.89 102.87))
    (stroke (width 0) (type solid))
    (uuid 19d102aa-3738-4d44-b3f9-48b88ea7228a)
  )
  (wire (pts (xy 135.89 100.33) (xy 124.46 100.33))
    (stroke (width 0) (type solid))
    (uuid 19e25b1f-479c-4073-bb23-6893b1f74140)
  )
  (wire (pts (xy 132.08 105.41) (xy 135.89 105.41))
    (stroke (width 0) (type solid))
    (uuid 1f9a8589-d9b3-4a9c-8b2d-80796728388b)
  )
  (wire (pts (xy 135.89 85.09) (xy 132.08 85.09))
    (stroke (width 0) (type solid))
    (uuid 2000eee3-be1f-4d68-a5d6-790b0c37e562)
  )
  (wire (pts (xy 79.375 107.315) (xy 79.375 104.775))
    (stroke (width 0) (type solid))
    (uuid 21fbc677-c72f-449d-9cb1-4f50c0f03ecb)
  )
  (wire (pts (xy 171.45 82.55) (xy 180.34 82.55))
    (stroke (width 0) (type solid))
    (uuid 220f5f02-daac-435c-87c3-e7fa54cf2516)
  )
  (wire (pts (xy 171.45 85.09) (xy 191.77 85.09))
    (stroke (width 0) (type solid))
    (uuid 24060d1f-ea85-454f-a7a8-2399ccfee3c6)
  )
  (wire (pts (xy 116.205 58.42) (xy 107.315 58.42))
    (stroke (width 0) (type solid))
    (uuid 24d5e5e7-f7df-426c-97c5-11a72320696e)
  )
  (wire (pts (xy 132.08 105.41) (xy 132.08 102.87))
    (stroke (width 0) (type solid))
    (uuid 26be47aa-12ec-4654-b9c6-2f6cf00033d0)
  )
  (wire (pts (xy 86.995 35.56) (xy 86.995 37.465))
    (stroke (width 0) (type default))
    (uuid 2823434b-6b05-4be5-ba5f-7ef1101534ee)
  )
  (wire (pts (xy 106.045 107.95) (xy 106.045 104.775))
    (stroke (width 0) (type solid))
    (uuid 2cbcb805-b2dd-4984-be63-ddb719e42798)
  )
  (wire (pts (xy 86.995 37.465) (xy 96.52 37.465))
    (stroke (width 0) (type default))
    (uuid 330f4342-fea7-4373-824b-0966d1ed8d31)
  )
  (wire (pts (xy 124.46 100.33) (xy 124.46 125.095))
    (stroke (width 0) (type solid))
    (uuid 38c3d801-f5f4-4d40-a39a-1a5b58bdc040)
  )
  (wire (pts (xy 114.935 37.465) (xy 116.84 37.465))
    (stroke (width 0) (type default))
    (uuid 47c9696e-7af0-46bf-92dc-295eb1433bb1)
  )
  (wire (pts (xy 135.89 82.55) (xy 132.08 82.55))
    (stroke (width 0) (type solid))
    (uuid 504e063c-31f8-471c-bce3-e04fef0bd7f9)
  )
  (wire (pts (xy 106.045 125.095) (xy 114.935 125.095))
    (stroke (width 0) (type solid))
    (uuid 5136d996-0464-42ee-b2c3-e2536e11ebf1)
  )
  (wire (pts (xy 114.935 104.775) (xy 106.045 104.775))
    (stroke (width 0) (type solid))
    (uuid 5215eed5-ff53-4e75-bb47-633a8df73b38)
  )
  (wire (pts (xy 128.27 58.42) (xy 116.205 58.42))
    (stroke (width 0) (type solid))
    (uuid 53cc9217-157f-4c9a-8c3c-0c2588913ae1)
  )
  (wire (pts (xy 124.46 125.095) (xy 114.935 125.095))
    (stroke (width 0) (type solid))
    (uuid 545577dd-3e69-47b4-8acf-825c202f87e9)
  )
  (wire (pts (xy 107.315 58.42) (xy 101.6 58.42))
    (stroke (width 0) (type solid))
    (uuid 57e945bf-923b-4c3f-bd48-b1b253b8ad10)
  )
  (wire (pts (xy 135.89 92.71) (xy 128.27 92.71))
    (stroke (width 0) (type solid))
    (uuid 5abef09a-61d0-4e3c-8dd0-2e0915356dc8)
  )
  (wire (pts (xy 114.935 115.57) (xy 114.935 125.095))
    (stroke (width 0) (type solid))
    (uuid 5e1d4036-c980-42ed-9fb6-06b931f3ae71)
  )
  (wire (pts (xy 120.65 97.79) (xy 120.65 104.775))
    (stroke (width 0) (type solid))
    (uuid 669fa0fe-7e29-4b73-b2cb-ed22102157f2)
  )
  (wire (pts (xy 106.045 123.19) (xy 106.045 125.095))
    (stroke (width 0) (type solid))
    (uuid 6921b5ec-69dc-4502-96a6-97cbf879ed9a)
  )
  (wire (pts (xy 128.27 92.71) (xy 128.27 58.42))
    (stroke (width 0) (type solid))
    (uuid 6fdf0082-2471-4edc-8c89-ae97defbd95a)
  )
  (wire (pts (xy 80.01 86.36) (xy 80.01 89.535))
    (stroke (width 0) (type solid))
    (uuid 719e57ee-5bd6-41be-9906-2ffb0393caa8)
  )
  (wire (pts (xy 80.645 66.04) (xy 80.645 68.58))
    (stroke (width 0) (type solid))
    (uuid 7a164872-5bc2-46fd-9f7c-a3e77c229b20)
  )
  (wire (pts (xy 74.422 125.222) (xy 78.74 125.222))
    (stroke (width 0) (type solid))
    (uuid 7c2a6a57-9458-42c0-a1d6-b93edffe130d)
  )
  (wire (pts (xy 114.935 110.49) (xy 114.935 104.775))
    (stroke (width 0) (type solid))
    (uuid 7d86a87a-81de-4fab-a33f-04018476206d)
  )
  (wire (pts (xy 101.6 78.74) (xy 107.315 78.74))
    (stroke (width 0) (type solid))
    (uuid 7d97291e-fde9-4a57-8f90-72bc73bfcd83)
  )
  (wire (pts (xy 106.045 104.775) (xy 100.33 104.775))
    (stroke (width 0) (type solid))
    (uuid 7f7e81c1-ca2c-4cbf-8427-f17f3de33f35)
  )
  (wire (pts (xy 132.08 82.55) (xy 132.08 85.09))
    (stroke (width 0) (type solid))
    (uuid 86b9dedb-63c3-4299-8ec6-ae50d2639375)
  )
  (wire (pts (xy 78.74 125.095) (xy 82.55 125.095))
    (stroke (width 0) (type solid))
    (uuid 8aa743c6-d5ee-45d2-9e9b-23f7acd0f1f7)
  )
  (wire (pts (xy 125.73 95.25) (xy 125.73 78.74))
    (stroke (width 0) (type solid))
    (uuid 8d2c15bb-4a55-4e62-a74c-3304161b3500)
  )
  (wire (pts (xy 100.33 125.095) (xy 106.045 125.095))
    (stroke (width 0) (type solid))
    (uuid 8e4dca79-9818-40ef-892a-bf0401aff218)
  )
  (wire (pts (xy 88.9 58.42) (xy 96.52 58.42))
    (stroke (width 0) (type solid))
    (uuid 9295bf25-fbc1-4e05-bde2-80488cf674d5)
  )
  (wire (pts (xy 191.77 85.09) (xy 197.485 85.09))
    (stroke (width 0) (type solid))
    (uuid 93d86342-8ac0-445d-b614-d2f4260ee6db)
  )
  (wire (pts (xy 197.485 85.09) (xy 200.66 85.09))
    (stroke (width 0) (type solid))
    (uuid 93d86342-8ac0-445d-b614-d2f4260ee6dc)
  )
  (wire (pts (xy 191.77 76.2) (xy 191.77 77.47))
    (stroke (width 0) (type default))
    (uuid 94922951-4894-403f-985e-393c11b257d6)
  )
  (wire (pts (xy 135.89 95.25) (xy 125.73 95.25))
    (stroke (width 0) (type solid))
    (uuid 95be310c-543e-4f6e-afe6-9b5a9f5a33b6)
  )
  (wire (pts (xy 80.01 81.28) (xy 80.01 78.74))
    (stroke (width 0) (type solid))
    (uuid 9889ea49-cb92-4239-a083-07859514a9ea)
  )
  (wire (pts (xy 80.645 58.42) (xy 83.82 58.42))
    (stroke (width 0) (type solid))
    (uuid a5dc17f9-6675-4e16-b074-1b6919c06d5d)
  )
  (wire (pts (xy 79.375 104.775) (xy 82.55 104.775))
    (stroke (width 0) (type solid))
    (uuid a8442f7d-3c97-4dc7-acaf-0b75c85550c8)
  )
  (wire (pts (xy 96.52 36.83) (xy 96.52 37.465))
    (stroke (width 0) (type default))
    (uuid abe9e849-2542-43e1-9f2b-e9912a099f70)
  )
  (wire (pts (xy 171.45 115.57) (xy 171.45 119.38))
    (stroke (width 0) (type solid))
    (uuid ac68bca0-5bd3-4806-946a-28f5fc4e0b1a)
  )
  (wire (pts (xy 191.77 80.01) (xy 191.77 77.47))
    (stroke (width 0) (type solid))
    (uuid acef3a7b-2e7b-4f2c-8c94-0e827163d79b)
  )
  (wire (pts (xy 180.34 82.55) (xy 198.12 82.55))
    (stroke (width 0) (type solid))
    (uuid ae23e8aa-481c-44f8-936a-55ee6af2b4f1)
  )
  (wire (pts (xy 198.12 82.55) (xy 200.66 82.55))
    (stroke (width 0) (type solid))
    (uuid ae23e8aa-481c-44f8-936a-55ee6af2b4f2)
  )
  (wire (pts (xy 107.315 76.835) (xy 107.315 78.74))
    (stroke (width 0) (type solid))
    (uuid b4292f07-2a21-4a51-a99d-ded2d6ac5c42)
  )
  (wire (pts (xy 78.74 125.222) (xy 78.74 127.635))
    (stroke (width 0) (type solid))
    (uuid b73e3ec7-6d53-4d4a-86e5-a07f10fb64a5)
  )
  (wire (pts (xy 107.315 61.595) (xy 107.315 58.42))
    (stroke (width 0) (type solid))
    (uuid b76fd42e-b407-4ef3-9f8b-337bf58ba7c9)
  )
  (wire (pts (xy 116.205 69.215) (xy 116.205 78.74))
    (stroke (width 0) (type solid))
    (uuid b87b9892-e705-4774-9270-c587fe8d6c77)
  )
  (wire (pts (xy 74.168 104.394) (xy 79.375 104.394))
    (stroke (width 0) (type solid))
    (uuid bc03fb26-c75a-4848-b433-c919351a9a8f)
  )
  (wire (pts (xy 191.77 77.47) (xy 180.34 77.47))
    (stroke (width 0) (type solid))
    (uuid c12ef1f9-00e7-4ed1-b822-b8984875caab)
  )
  (wire (pts (xy 79.375 104.394) (xy 79.375 104.775))
    (stroke (width 0) (type solid))
    (uuid c33e12ca-63f5-48d9-b7de-9e428dcf6d1a)
  )
  (wire (pts (xy 132.08 85.09) (xy 132.08 102.87))
    (stroke (width 0) (type solid))
    (uuid c518efcc-a897-4953-a5f8-d0f359647730)
  )
  (wire (pts (xy 83.82 37.465) (xy 86.995 37.465))
    (stroke (width 0) (type default))
    (uuid c638e260-2a52-4f04-ab41-a43bb1fddc1e)
  )
  (wire (pts (xy 120.65 104.775) (xy 114.935 104.775))
    (stroke (width 0) (type solid))
    (uuid c838cdc6-9455-4d9a-8040-ca62298740df)
  )
  (wire (pts (xy 87.63 125.095) (xy 95.25 125.095))
    (stroke (width 0) (type solid))
    (uuid c9b995ac-8f20-47c9-8cf2-8ba62d857070)
  )
  (wire (pts (xy 173.99 74.93) (xy 173.99 77.47))
    (stroke (width 0) (type solid))
    (uuid cd043f7f-2414-4474-af7b-b5ca5cca99c6)
  )
  (wire (pts (xy 108.585 41.275) (xy 108.585 44.45))
    (stroke (width 0) (type default))
    (uuid d198d2a2-1712-4ac2-a644-69cdaecd7a44)
  )
  (wire (pts (xy 173.99 77.47) (xy 171.45 77.47))
    (stroke (width 0) (type solid))
    (uuid dd32c2db-b3ff-46d8-a745-6f687dd2cb3c)
  )
  (wire (pts (xy 107.315 66.675) (xy 107.315 69.215))
    (stroke (width 0) (type solid))
    (uuid df328c8c-1bcb-4b77-be60-ec29c8191178)
  )
  (wire (pts (xy 78.74 132.715) (xy 78.74 135.89))
    (stroke (width 0) (type solid))
    (uuid e221eece-703d-434e-acb1-0f9c714a228c)
  )
  (wire (pts (xy 86.995 29.21) (xy 86.995 30.48))
    (stroke (width 0) (type default))
    (uuid e3ff8c8a-7b94-4a1c-bbcd-e4e6b7e1546e)
  )
  (wire (pts (xy 80.645 60.96) (xy 80.645 58.42))
    (stroke (width 0) (type solid))
    (uuid e736f4df-6bff-465c-b36c-e887b03ac49c)
  )
  (wire (pts (xy 135.89 97.79) (xy 120.65 97.79))
    (stroke (width 0) (type solid))
    (uuid ef249e82-3d3e-45c4-a43c-c9e2621c8fe6)
  )
  (wire (pts (xy 79.375 112.395) (xy 79.375 114.935))
    (stroke (width 0) (type solid))
    (uuid ef3d8f19-28d9-41c6-be4e-c22bdb28f278)
  )
  (wire (pts (xy 96.52 29.21) (xy 96.52 29.845))
    (stroke (width 0) (type default))
    (uuid f3888eb5-cfcd-4dcc-9980-bb1f20a7c3e4)
  )
  (wire (pts (xy 78.74 125.095) (xy 78.74 125.222))
    (stroke (width 0) (type solid))
    (uuid f395647e-f50d-486d-b4e1-bf1410f7cd79)
  )
  (wire (pts (xy 80.01 78.74) (xy 83.82 78.74))
    (stroke (width 0) (type solid))
    (uuid f3bbcee0-0d33-4df6-aad9-531edb7a51e4)
  )
  (wire (pts (xy 116.205 64.135) (xy 116.205 58.42))
    (stroke (width 0) (type solid))
    (uuid f6e761db-3178-4a5e-8d88-a57a42deaca3)
  )
  (wire (pts (xy 132.08 107.95) (xy 132.08 105.41))
    (stroke (width 0) (type solid))
    (uuid f7eafb1e-895d-441f-9715-736e7e64f8d5)
  )
  (wire (pts (xy 106.045 113.03) (xy 106.045 115.57))
    (stroke (width 0) (type solid))
    (uuid fcbd2598-1a62-4c1d-9b84-06be9734b909)
  )
  (wire (pts (xy 96.52 37.465) (xy 102.235 37.465))
    (stroke (width 0) (type default))
    (uuid fce54b52-a38a-4017-92f4-51277a6ab876)
  )

  (label "IN1+" (at 128.27 58.42 180) (fields_autoplaced)
    (effects (font (size 1.27 1.27)) (justify right bottom))
    (uuid 12cc7aaa-0966-4e6d-9a8d-35f49ca36e61)
  )
  (label "IN2-" (at 120.65 102.87 180) (fields_autoplaced)
    (effects (font (size 1.27 1.27)) (justify right bottom))
    (uuid 1863c259-55ca-4e49-a470-f3368148e54e)
  )
  (label "CKP_VR" (at 116.84 37.465 0) (fields_autoplaced)
    (effects (font (size 0.889 0.889)) (justify left bottom))
    (uuid 237b544a-bc4e-4311-ae57-e9f4942f2ebe)
  )
  (label "IN1-" (at 125.73 78.74 180) (fields_autoplaced)
    (effects (font (size 1.27 1.27)) (justify right bottom))
    (uuid 81b4494e-61c7-410e-9c15-af8f82705baa)
  )
  (label "CKP_VR" (at 200.66 82.55 0) (fields_autoplaced)
    (effects (font (size 0.889 0.889)) (justify left bottom))
    (uuid dafa9192-ce66-4bf1-8130-c91cf8a23fac)
  )
  (label "IN2+" (at 124.46 107.95 180) (fields_autoplaced)
    (effects (font (size 1.27 1.27)) (justify right bottom))
    (uuid e5ac916d-8a16-47b0-ad16-796b58516b94)
  )

  (global_label "CMP-" (shape input) (at 80.01 78.74 180)
    (effects (font (size 1.27 1.27)) (justify right))
    (uuid 0a0d4949-6464-426b-81b0-83e4b261f49b)
    (property "Intersheetrefs" "${INTERSHEET_REFS}" (at 72.0331 78.6606 0)
      (effects (font (size 1.27 1.27)) (justify right) hide)
    )
  )
  (global_label "CMP+" (shape input) (at 80.772 58.42 180)
    (effects (font (size 1.27 1.27)) (justify right))
    (uuid 1fa7d242-182e-4c42-92ca-64fd05bd0dd7)
    (property "Intersheetrefs" "${INTERSHEET_REFS}" (at 72.7951 58.3406 0)
      (effects (font (size 1.27 1.27)) (justify right) hide)
    )
  )
  (global_label "CKP+" (shape input) (at 83.82 37.465 180)
    (effects (font (size 1.27 1.27)) (justify right))
    (uuid 2a5df374-cd47-4b4e-80cc-2efb76c8fee3)
    (property "Intersheetrefs" "${INTERSHEET_REFS}" (at 76.0245 37.3856 0)
      (effects (font (size 1.27 1.27)) (justify right) hide)
    )
  )
  (global_label "CKP-" (shape input) (at 74.168 104.394 180)
    (effects (font (size 1.27 1.27)) (justify right))
    (uuid 8de4d156-2b49-46cd-8e54-00f48f67de24)
    (property "Intersheetrefs" "${INTERSHEET_REFS}" (at 66.3725 104.3146 0)
      (effects (font (size 1.27 1.27)) (justify right) hide)
    )
  )
  (global_label "CKP+" (shape input) (at 74.422 125.222 180)
    (effects (font (size 1.27 1.27)) (justify right))
    (uuid fd964b55-4b02-4132-8582-633f046c90cd)
    (property "Intersheetrefs" "${INTERSHEET_REFS}" (at 66.6265 125.1426 0)
      (effects (font (size 1.27 1.27)) (justify right) hide)
    )
  )

  (hierarchical_label "CKP" (shape input) (at 108.585 44.45 0) (fields_autoplaced)
    (effects (font (size 1.27 1.27)) (justify left))
    (uuid 9d23bcf8-e4bd-4ba6-a4c5-1a054a9d39a1)
  )
  (hierarchical_label "CMP" (shape input) (at 200.66 85.09 0) (fields_autoplaced)
    (effects (font (size 1.27 1.27)) (justify left))
    (uuid c3af931d-fc5a-4845-9084-b9e8ca7063f6)
  )

  (symbol (lib_id "Device:R_Small") (at 99.06 78.74 90) (unit 1)
    (in_bom yes) (on_board yes) (dnp no)
    (uuid 05371274-63ef-4840-849d-49f22ee06649)
    (property "Reference" "R114" (at 99.06 73.7932 90)
      (effects (font (size 1.27 1.27)))
    )
    (property "Value" "4.99K 1/2W" (at 99.06 76.0919 90)
      (effects (font (size 1.27 1.27)))
    )
    (property "Footprint" "Resistor_SMD:R_1210_3225Metric" (at 99.06 78.74 0)
      (effects (font (size 1.27 1.27)) hide)
    )
    (property "Datasheet" "~" (at 99.06 78.74 0)
      (effects (font (size 1.27 1.27)) hide)
    )
    (property "LCSC" "C407178" (at 99.06 78.74 90)
      (effects (font (size 1.27 1.27)) hide)
    )
    (pin "1" (uuid 4c8131d8-c25a-41a0-87b0-c8b974fdc4bc))
    (pin "2" (uuid 448e9817-93ff-4545-a7f6-709203e30c71))
    (instances
      (project "uEFI_rev3"
        (path "/b282ce4b-c3d0-4c94-b06c-73b92bb672a9/8d3d2293-e570-4555-b12b-74c389ae5124"
          (reference "R114") (unit 1)
        )
      )
    )
  )

  (symbol (lib_id "Device:R_Small") (at 86.995 33.02 0) (mirror y) (unit 1)
    (in_bom yes) (on_board yes) (dnp no)
    (uuid 1606b4ff-a31c-4065-8fa1-1e1148bbfc3d)
    (property "Reference" "R60" (at 85.09 33.02 90)
      (effects (font (size 1.27 1.27)))
    )
    (property "Value" "10k" (at 88.9 33.02 90)
      (effects (font (size 1.27 1.27)))
    )
    (property "Footprint" "Resistor_SMD:R_0603_1608Metric" (at 86.995 33.02 0)
      (effects (font (size 1.27 1.27)) hide)
    )
    (property "Datasheet" "~" (at 86.995 33.02 0)
      (effects (font (size 1.27 1.27)) hide)
    )
    (pin "1" (uuid 80b42518-108a-4caf-8932-d2dec319fe5c))
    (pin "2" (uuid bba18516-aa84-4ca0-b8f3-589fed286d63))
    (instances
      (project "uEFI_rev3"
        (path "/b282ce4b-c3d0-4c94-b06c-73b92bb672a9/8d3d2293-e570-4555-b12b-74c389ae5124"
          (reference "R60") (unit 1)
        )
      )
    )
  )

  (symbol (lib_id "power:GND") (at 80.01 89.535 0) (unit 1)
    (in_bom yes) (on_board yes) (dnp no)
    (uuid 1ba12c49-6b71-42c7-9078-06e20892df66)
    (property "Reference" "#PWR023" (at 80.01 95.885 0)
      (effects (font (size 1.27 1.27)) hide)
    )
    (property "Value" "GND" (at 80.1243 93.8594 0)
      (effects (font (size 1.27 1.27)))
    )
    (property "Footprint" "" (at 80.01 89.535 0)
      (effects (font (size 1.27 1.27)) hide)
    )
    (property "Datasheet" "" (at 80.01 89.535 0)
      (effects (font (size 1.27 1.27)) hide)
    )
    (pin "1" (uuid 9d862180-60f1-47d8-a003-c825e1b033a5))
    (instances
      (project "uEFI_rev3"
        (path "/b282ce4b-c3d0-4c94-b06c-73b92bb672a9/8d3d2293-e570-4555-b12b-74c389ae5124"
          (reference "#PWR023") (unit 1)
        )
      )
    )
  )

  (symbol (lib_id "Device:C_Small") (at 79.375 109.855 0) (unit 1)
    (in_bom yes) (on_board yes) (dnp no)
    (uuid 281eea26-26fd-44ba-92fe-560b79356653)
    (property "Reference" "C56" (at 81.6992 108.7056 0)
      (effects (font (size 1.27 1.27)) (justify left))
    )
    (property "Value" "0.01uF" (at 81.6992 111.0043 0)
      (effects (font (size 1.27 1.27)) (justify left))
    )
    (property "Footprint" "Capacitor_SMD:C_0805_2012Metric" (at 79.375 109.855 0)
      (effects (font (size 1.27 1.27)) hide)
    )
    (property "Datasheet" "~" (at 79.375 109.855 0)
      (effects (font (size 1.27 1.27)) hide)
    )
    (property "LCSC" "C100042" (at 79.375 109.855 0)
      (effects (font (size 1.27 1.27)) hide)
    )
    (pin "1" (uuid 79d3dc67-fd19-4df5-bc78-5dc66dcaa245))
    (pin "2" (uuid 6d710027-ae28-4b41-8701-4ae49c790635))
    (instances
      (project "uEFI_rev3"
        (path "/b282ce4b-c3d0-4c94-b06c-73b92bb672a9/8d3d2293-e570-4555-b12b-74c389ae5124"
          (reference "C56") (unit 1)
        )
      )
    )
  )

  (symbol (lib_id "Device:R_Small") (at 85.09 125.095 90) (unit 1)
    (in_bom yes) (on_board yes) (dnp no)
    (uuid 454e7d1f-d70e-40cb-b83d-47026a1db456)
    (property "Reference" "R117" (at 85.09 120.1482 90)
      (effects (font (size 1.27 1.27)))
    )
    (property "Value" "4.99K 1/2W" (at 85.09 122.4469 90)
      (effects (font (size 1.27 1.27)))
    )
    (property "Footprint" "Resistor_SMD:R_1210_3225Metric" (at 85.09 125.095 0)
      (effects (font (size 1.27 1.27)) hide)
    )
    (property "Datasheet" "~" (at 85.09 125.095 0)
      (effects (font (size 1.27 1.27)) hide)
    )
    (property "LCSC" "C407178" (at 85.09 125.095 90)
      (effects (font (size 1.27 1.27)) hide)
    )
    (pin "1" (uuid b901a3ce-83c0-4aa6-9df2-e70bea71b3c2))
    (pin "2" (uuid c2179a02-561c-469e-9150-cd23da9501f4))
    (instances
      (project "uEFI_rev3"
        (path "/b282ce4b-c3d0-4c94-b06c-73b92bb672a9/8d3d2293-e570-4555-b12b-74c389ae5124"
          (reference "R117") (unit 1)
        )
      )
    )
  )

  (symbol (lib_id "power:+5V") (at 173.99 74.93 0) (unit 1)
    (in_bom yes) (on_board yes) (dnp no)
    (uuid 4aa68ba3-5871-4639-87fe-85c50d1427a6)
    (property "Reference" "#PWR0163" (at 173.99 78.74 0)
      (effects (font (size 1.27 1.27)) hide)
    )
    (property "Value" "+5V" (at 174.371 70.5358 0)
      (effects (font (size 1.27 1.27)))
    )
    (property "Footprint" "" (at 173.99 74.93 0)
      (effects (font (size 1.27 1.27)) hide)
    )
    (property "Datasheet" "" (at 173.99 74.93 0)
      (effects (font (size 1.27 1.27)) hide)
    )
    (pin "1" (uuid f2123c61-b053-4e7d-82b8-3c271315760c))
    (instances
      (project "uEFI_rev3"
        (path "/b282ce4b-c3d0-4c94-b06c-73b92bb672a9/8d3d2293-e570-4555-b12b-74c389ae5124"
          (reference "#PWR0163") (unit 1)
        )
      )
    )
  )

  (symbol (lib_id "power:GND") (at 132.08 124.46 0) (unit 1)
    (in_bom yes) (on_board yes) (dnp no)
    (uuid 50e8f5d7-ac08-4f23-8cd0-8abd1d273b8b)
    (property "Reference" "#PWR0176" (at 132.08 130.81 0)
      (effects (font (size 1.27 1.27)) hide)
    )
    (property "Value" "GND" (at 132.1943 128.7844 0)
      (effects (font (size 1.27 1.27)))
    )
    (property "Footprint" "" (at 132.08 124.46 0)
      (effects (font (size 1.27 1.27)) hide)
    )
    (property "Datasheet" "" (at 132.08 124.46 0)
      (effects (font (size 1.27 1.27)) hide)
    )
    (pin "1" (uuid 4ff9d44e-d82d-4649-bd3b-69bd08202af2))
    (instances
      (project "uEFI_rev3"
        (path "/b282ce4b-c3d0-4c94-b06c-73b92bb672a9/8d3d2293-e570-4555-b12b-74c389ae5124"
          (reference "#PWR0176") (unit 1)
        )
      )
    )
  )

  (symbol (lib_id "Device:C_Small") (at 78.74 130.175 0) (unit 1)
    (in_bom yes) (on_board yes) (dnp no)
    (uuid 59d32682-5211-4c90-bfc7-15660cf44ef5)
    (property "Reference" "C55" (at 81.0642 129.0256 0)
      (effects (font (size 1.27 1.27)) (justify left))
    )
    (property "Value" "0.01uF" (at 81.0642 131.3243 0)
      (effects (font (size 1.27 1.27)) (justify left))
    )
    (property "Footprint" "Capacitor_SMD:C_0805_2012Metric" (at 78.74 130.175 0)
      (effects (font (size 1.27 1.27)) hide)
    )
    (property "Datasheet" "~" (at 78.74 130.175 0)
      (effects (font (size 1.27 1.27)) hide)
    )
    (property "LCSC" "C100042" (at 78.74 130.175 0)
      (effects (font (size 1.27 1.27)) hide)
    )
    (pin "1" (uuid b9586f5c-58ad-452c-9ad0-b5209a010f1f))
    (pin "2" (uuid 8b1398ee-1843-477a-81aa-7bdb5f54aff6))
    (instances
      (project "uEFI_rev3"
        (path "/b282ce4b-c3d0-4c94-b06c-73b92bb672a9/8d3d2293-e570-4555-b12b-74c389ae5124"
          (reference "C55") (unit 1)
        )
      )
    )
  )

  (symbol (lib_id "power:GND") (at 80.645 68.58 0) (unit 1)
    (in_bom yes) (on_board yes) (dnp no)
    (uuid 5a37339f-2133-4587-bb04-430d75f74d26)
    (property "Reference" "#PWR0172" (at 80.645 74.93 0)
      (effects (font (size 1.27 1.27)) hide)
    )
    (property "Value" "GND" (at 80.7593 72.9044 0)
      (effects (font (size 1.27 1.27)))
    )
    (property "Footprint" "" (at 80.645 68.58 0)
      (effects (font (size 1.27 1.27)) hide)
    )
    (property "Datasheet" "" (at 80.645 68.58 0)
      (effects (font (size 1.27 1.27)) hide)
    )
    (pin "1" (uuid 099fceba-3439-4ab2-8ab1-e9d722df8a2d))
    (instances
      (project "uEFI_rev3"
        (path "/b282ce4b-c3d0-4c94-b06c-73b92bb672a9/8d3d2293-e570-4555-b12b-74c389ae5124"
          (reference "#PWR0172") (unit 1)
        )
      )
    )
  )

  (symbol (lib_id "Device:R_Small") (at 85.09 104.775 90) (unit 1)
    (in_bom yes) (on_board yes) (dnp no)
    (uuid 68641650-8c15-41eb-84b5-effa661015ad)
    (property "Reference" "R116" (at 85.09 99.8282 90)
      (effects (font (size 1.27 1.27)))
    )
    (property "Value" "4.99K 1/2W" (at 85.09 102.1269 90)
      (effects (font (size 1.27 1.27)))
    )
    (property "Footprint" "Resistor_SMD:R_1210_3225Metric" (at 85.09 104.775 0)
      (effects (font (size 1.27 1.27)) hide)
    )
    (property "Datasheet" "~" (at 85.09 104.775 0)
      (effects (font (size 1.27 1.27)) hide)
    )
    (property "LCSC" "C407178" (at 85.09 104.775 90)
      (effects (font (size 1.27 1.27)) hide)
    )
    (pin "1" (uuid 22974a84-fcc5-461e-bfed-4ab9770189a3))
    (pin "2" (uuid 446b3bb8-b758-43dc-b749-d2e294cf16e0))
    (instances
      (project "uEFI_rev3"
        (path "/b282ce4b-c3d0-4c94-b06c-73b92bb672a9/8d3d2293-e570-4555-b12b-74c389ae5124"
          (reference "R116") (unit 1)
        )
      )
    )
  )

  (symbol (lib_id "Device:C_Small") (at 96.52 40.005 0) (unit 1)
    (in_bom yes) (on_board yes) (dnp no)
    (uuid 6dbe326c-ca5f-48e5-826c-48d2ea9425f1)
    (property "Reference" "C41" (at 98.8442 38.8556 0)
      (effects (font (size 1.27 1.27)) (justify left))
    )
    (property "Value" "0.01uF" (at 98.8442 41.1543 0)
      (effects (font (size 1.27 1.27)) (justify left))
    )
    (property "Footprint" "Capacitor_SMD:C_0805_2012Metric" (at 96.52 40.005 0)
      (effects (font (size 1.27 1.27)) hide)
    )
    (property "Datasheet" "~" (at 96.52 40.005 0)
      (effects (font (size 1.27 1.27)) hide)
    )
    (property "LCSC" "C100042" (at 96.52 40.005 0)
      (effects (font (size 1.27 1.27)) hide)
    )
    (pin "1" (uuid b21a78d0-eb9f-411c-b79c-66f5c4f57130))
    (pin "2" (uuid 30736b4b-907c-4830-9f52-b9adcc6db65f))
    (instances
      (project "uEFI_rev3"
        (path "/b282ce4b-c3d0-4c94-b06c-73b92bb672a9/8d3d2293-e570-4555-b12b-74c389ae5124"
          (reference "C41") (unit 1)
        )
      )
    )
  )

  (symbol (lib_id "Connector:TestPoint") (at 116.205 78.74 180) (unit 1)
    (in_bom yes) (on_board yes) (dnp no)
    (uuid 734eb138-b822-48d1-bf94-98100b26d403)
    (property "Reference" "TP5" (at 114.3 81.2166 0)
      (effects (font (size 1.27 1.27)) (justify left))
    )
    (property "Value" "TestPoint" (at 114.3 78.6766 0)
      (effects (font (size 1.27 1.27)) (justify left))
    )
    (property "Footprint" "TestPoint:TestPoint_Pad_1.0x1.0mm" (at 111.125 78.74 0)
      (effects (font (size 1.27 1.27)) hide)
    )
    (property "Datasheet" "~" (at 111.125 78.74 0)
      (effects (font (size 1.27 1.27)) hide)
    )
    (pin "1" (uuid 388452f1-eba5-4b08-85ca-33fa2e66677b))
    (instances
      (project "uEFI_rev3"
        (path "/b282ce4b-c3d0-4c94-b06c-73b92bb672a9/8d3d2293-e570-4555-b12b-74c389ae5124"
          (reference "TP5") (unit 1)
        )
      )
    )
  )

  (symbol (lib_id "power:GND") (at 79.375 114.935 0) (unit 1)
    (in_bom yes) (on_board yes) (dnp no)
    (uuid 7933faf8-d6c4-4ae5-8b62-5dc999b09ea3)
    (property "Reference" "#PWR0174" (at 79.375 121.285 0)
      (effects (font (size 1.27 1.27)) hide)
    )
    (property "Value" "GND" (at 79.4893 119.2594 0)
      (effects (font (size 1.27 1.27)))
    )
    (property "Footprint" "" (at 79.375 114.935 0)
      (effects (font (size 1.27 1.27)) hide)
    )
    (property "Datasheet" "" (at 79.375 114.935 0)
      (effects (font (size 1.27 1.27)) hide)
    )
    (pin "1" (uuid 1fdb29c2-3668-4c67-8121-4f7b6130e51c))
    (instances
      (project "uEFI_rev3"
        (path "/b282ce4b-c3d0-4c94-b06c-73b92bb672a9/8d3d2293-e570-4555-b12b-74c389ae5124"
          (reference "#PWR0174") (unit 1)
        )
      )
    )
  )

  (symbol (lib_id "power:+3V3") (at 191.77 76.2 0) (unit 1)
    (in_bom yes) (on_board yes) (dnp no) (fields_autoplaced)
    (uuid 7b980daf-5509-4cf8-9af9-36fd13e00624)
    (property "Reference" "#PWR0162" (at 191.77 80.01 0)
      (effects (font (size 1.27 1.27)) hide)
    )
    (property "Value" "+3V3" (at 191.77 71.12 0)
      (effects (font (size 1.27 1.27)))
    )
    (property "Footprint" "" (at 191.77 76.2 0)
      (effects (font (size 1.27 1.27)) hide)
    )
    (property "Datasheet" "" (at 191.77 76.2 0)
      (effects (font (size 1.27 1.27)) hide)
    )
    (pin "1" (uuid b570e801-bfe7-4a35-b59b-0f09030c449f))
    (instances
      (project "uEFI_rev3"
        (path "/b282ce4b-c3d0-4c94-b06c-73b92bb672a9/8d3d2293-e570-4555-b12b-74c389ae5124"
          (reference "#PWR0162") (unit 1)
        )
      )
    )
  )

  (symbol (lib_id "Device:R_Small") (at 107.315 64.135 0) (unit 1)
    (in_bom yes) (on_board yes) (dnp no)
    (uuid 7f0316c1-7e7a-4027-a987-6b0d25ad73ba)
    (property "Reference" "R115" (at 112.2618 64.135 90)
      (effects (font (size 1.27 1.27)))
    )
    (property "Value" "4.99K 1/2W" (at 109.9631 64.135 90)
      (effects (font (size 1.27 1.27)))
    )
    (property "Footprint" "Resistor_SMD:R_1210_3225Metric" (at 107.315 64.135 0)
      (effects (font (size 1.27 1.27)) hide)
    )
    (property "Datasheet" "~" (at 107.315 64.135 0)
      (effects (font (size 1.27 1.27)) hide)
    )
    (property "LCSC" "C407178" (at 107.315 64.135 90)
      (effects (font (size 1.27 1.27)) hide)
    )
    (pin "1" (uuid 366eccfa-a0f0-4179-a2e3-e4000927b851))
    (pin "2" (uuid c3e4432d-ae41-4b56-a1df-219e1dfda2ad))
    (instances
      (project "uEFI_rev3"
        (path "/b282ce4b-c3d0-4c94-b06c-73b92bb672a9/8d3d2293-e570-4555-b12b-74c389ae5124"
          (reference "R115") (unit 1)
        )
      )
    )
  )

  (symbol (lib_id "Jumper:SolderJumper_2_Open") (at 106.045 119.38 90) (unit 1)
    (in_bom yes) (on_board yes) (dnp no)
    (uuid 80ea5e54-25b5-4d26-844a-61a8e0f22f4c)
    (property "Reference" "JP24" (at 108.1787 118.2306 90)
      (effects (font (size 1.27 1.27)) (justify right))
    )
    (property "Value" "SolderJumper_2_Open" (at 108.179 120.529 90)
      (effects (font (size 1.27 1.27)) (justify right) hide)
    )
    (property "Footprint" "Jumper:SolderJumper-2_P1.3mm_Open_RoundedPad1.0x1.5mm" (at 106.045 119.38 0)
      (effects (font (size 1.27 1.27)) hide)
    )
    (property "Datasheet" "~" (at 106.045 119.38 0)
      (effects (font (size 1.27 1.27)) hide)
    )
    (pin "1" (uuid 59df6ee8-b724-4935-a79f-31691d85ce5a))
    (pin "2" (uuid 68159521-d3fd-4cf1-b049-bac36442990b))
    (instances
      (project "uEFI_rev3"
        (path "/b282ce4b-c3d0-4c94-b06c-73b92bb672a9/8d3d2293-e570-4555-b12b-74c389ae5124"
          (reference "JP24") (unit 1)
        )
      )
    )
  )

  (symbol (lib_id "power:GND") (at 171.45 119.38 0) (unit 1)
    (in_bom yes) (on_board yes) (dnp no)
    (uuid 83a605ab-059d-45f9-a020-3033bfecebab)
    (property "Reference" "#PWR0177" (at 171.45 125.73 0)
      (effects (font (size 1.27 1.27)) hide)
    )
    (property "Value" "GND" (at 171.5643 123.7044 0)
      (effects (font (size 1.27 1.27)))
    )
    (property "Footprint" "" (at 171.45 119.38 0)
      (effects (font (size 1.27 1.27)) hide)
    )
    (property "Datasheet" "" (at 171.45 119.38 0)
      (effects (font (size 1.27 1.27)) hide)
    )
    (pin "1" (uuid 9de24efc-caf8-4358-91cc-61edae00c5fa))
    (instances
      (project "uEFI_rev3"
        (path "/b282ce4b-c3d0-4c94-b06c-73b92bb672a9/8d3d2293-e570-4555-b12b-74c389ae5124"
          (reference "#PWR0177") (unit 1)
        )
      )
    )
  )

  (symbol (lib_id "Device:R_Small") (at 180.34 80.01 0) (unit 1)
    (in_bom yes) (on_board yes) (dnp no)
    (uuid 8a8578e2-5aad-4309-8ef3-9385398ae4fb)
    (property "Reference" "R121" (at 181.8387 78.8606 0)
      (effects (font (size 1.27 1.27)) (justify left))
    )
    (property "Value" "10k" (at 181.8387 81.1593 0)
      (effects (font (size 1.27 1.27)) (justify left))
    )
    (property "Footprint" "Resistor_SMD:R_0603_1608Metric" (at 180.34 80.01 0)
      (effects (font (size 1.27 1.27)) hide)
    )
    (property "Datasheet" "~" (at 180.34 80.01 0)
      (effects (font (size 1.27 1.27)) hide)
    )
    (pin "1" (uuid 63033c44-0925-4ce7-a5dc-3842fe899472))
    (pin "2" (uuid e6e86744-03c0-45a2-b024-02e381d78bc0))
    (instances
      (project "uEFI_rev3"
        (path "/b282ce4b-c3d0-4c94-b06c-73b92bb672a9/8d3d2293-e570-4555-b12b-74c389ae5124"
          (reference "R121") (unit 1)
        )
      )
    )
  )

  (symbol (lib_id "power:+3V3") (at 86.995 29.21 0) (unit 1)
    (in_bom yes) (on_board yes) (dnp no) (fields_autoplaced)
    (uuid 8e545c1e-9396-420a-a0d1-c79a85c970eb)
    (property "Reference" "#PWR076" (at 86.995 33.02 0)
      (effects (font (size 1.27 1.27)) hide)
    )
    (property "Value" "+3V3" (at 86.995 24.13 0)
      (effects (font (size 1.27 1.27)))
    )
    (property "Footprint" "" (at 86.995 29.21 0)
      (effects (font (size 1.27 1.27)) hide)
    )
    (property "Datasheet" "" (at 86.995 29.21 0)
      (effects (font (size 1.27 1.27)) hide)
    )
    (pin "1" (uuid 41391802-2cc8-4938-ba81-0057694d2e99))
    (instances
      (project "uEFI_rev3"
        (path "/b282ce4b-c3d0-4c94-b06c-73b92bb672a9/8d3d2293-e570-4555-b12b-74c389ae5124"
          (reference "#PWR076") (unit 1)
        )
      )
    )
  )

  (symbol (lib_id "power:GND") (at 78.74 135.89 0) (unit 1)
    (in_bom yes) (on_board yes) (dnp no)
    (uuid 92bb76af-c6c3-484e-86a1-44284dabc0e1)
    (property "Reference" "#PWR0173" (at 78.74 142.24 0)
      (effects (font (size 1.27 1.27)) hide)
    )
    (property "Value" "GND" (at 78.8543 140.2144 0)
      (effects (font (size 1.27 1.27)))
    )
    (property "Footprint" "" (at 78.74 135.89 0)
      (effects (font (size 1.27 1.27)) hide)
    )
    (property "Datasheet" "" (at 78.74 135.89 0)
      (effects (font (size 1.27 1.27)) hide)
    )
    (pin "1" (uuid 90129f07-1869-4deb-b4b6-92f59fac0b78))
    (instances
      (project "uEFI_rev3"
        (path "/b282ce4b-c3d0-4c94-b06c-73b92bb672a9/8d3d2293-e570-4555-b12b-74c389ae5124"
          (reference "#PWR0173") (unit 1)
        )
      )
    )
  )

  (symbol (lib_id "Connector:TestPoint") (at 197.485 85.09 180) (unit 1)
    (in_bom yes) (on_board yes) (dnp no)
    (uuid 9756daa2-c027-412b-a590-95d37f0d7cb7)
    (property "Reference" "TP7" (at 195.58 87.5666 0)
      (effects (font (size 1.27 1.27)) (justify left))
    )
    (property "Value" "TestPoint" (at 201.93 91.44 0)
      (effects (font (size 1.27 1.27)) (justify left))
    )
    (property "Footprint" "TestPoint:TestPoint_Pad_1.0x1.0mm" (at 192.405 85.09 0)
      (effects (font (size 1.27 1.27)) hide)
    )
    (property "Datasheet" "~" (at 192.405 85.09 0)
      (effects (font (size 1.27 1.27)) hide)
    )
    (pin "1" (uuid 388452f1-eba5-4b08-85ca-33fa2e66677d))
    (instances
      (project "uEFI_rev3"
        (path "/b282ce4b-c3d0-4c94-b06c-73b92bb672a9/8d3d2293-e570-4555-b12b-74c389ae5124"
          (reference "TP7") (unit 1)
        )
      )
    )
  )

  (symbol (lib_id "Device:R_Small") (at 97.79 104.775 90) (unit 1)
    (in_bom yes) (on_board yes) (dnp no)
    (uuid a399bde6-dff5-4073-aabc-822014de61cd)
    (property "Reference" "R118" (at 97.79 99.8282 90)
      (effects (font (size 1.27 1.27)))
    )
    (property "Value" "4.99K 1/2W" (at 97.79 102.1269 90)
      (effects (font (size 1.27 1.27)))
    )
    (property "Footprint" "Resistor_SMD:R_1210_3225Metric" (at 97.79 104.775 0)
      (effects (font (size 1.27 1.27)) hide)
    )
    (property "Datasheet" "~" (at 97.79 104.775 0)
      (effects (font (size 1.27 1.27)) hide)
    )
    (property "LCSC" "C407178" (at 97.79 104.775 90)
      (effects (font (size 1.27 1.27)) hide)
    )
    (pin "1" (uuid bda17e1d-1936-4954-9ea8-1e309ec1d9d4))
    (pin "2" (uuid cbc06528-6899-437b-90dc-e343b7cd4070))
    (instances
      (project "uEFI_rev3"
        (path "/b282ce4b-c3d0-4c94-b06c-73b92bb672a9/8d3d2293-e570-4555-b12b-74c389ae5124"
          (reference "R118") (unit 1)
        )
      )
    )
  )

  (symbol (lib_id "Diode:BAS316") (at 96.52 33.02 270) (unit 1)
    (in_bom yes) (on_board yes) (dnp no) (fields_autoplaced)
    (uuid a4a8e985-877d-4bd9-a196-a3be8d47becb)
    (property "Reference" "D14" (at 99.695 31.4324 90)
      (effects (font (size 1.27 1.27)) (justify left))
    )
    (property "Value" "K26" (at 99.695 33.9724 90)
      (effects (font (size 1.27 1.27)) (justify left) hide)
    )
    (property "Footprint" "Diode_SMD:D_SOD-323" (at 92.075 33.02 0)
      (effects (font (size 1.27 1.27)) hide)
    )
    (property "Datasheet" "https://assets.nexperia.com/documents/data-sheet/BAS16_SER.pdf" (at 96.52 33.02 0)
      (effects (font (size 1.27 1.27)) hide)
    )
    (property "LCSC" "C2922179" (at 96.52 33.02 90)
      (effects (font (size 0.889 0.889)) hide)
    )
    (pin "1" (uuid 4bc9d659-73c7-4ddc-a690-bcdc21ea6700))
    (pin "2" (uuid 1fefdf64-09f8-4dd1-a385-bd06fb1ccd04))
    (instances
      (project "uEFI_rev3"
        (path "/b282ce4b-c3d0-4c94-b06c-73b92bb672a9/8d3d2293-e570-4555-b12b-74c389ae5124"
          (reference "D14") (unit 1)
        )
      )
    )
  )

  (symbol (lib_id "Jumper:Jumper_3_Bridged12") (at 108.585 37.465 0) (mirror y) (unit 1)
    (in_bom yes) (on_board yes) (dnp no) (fields_autoplaced)
    (uuid a5be5bec-cc8f-4a92-bc22-d912d0367587)
    (property "Reference" "JP11" (at 108.585 31.75 0)
      (effects (font (size 1.27 1.27)))
    )
    (property "Value" "vr/hall" (at 108.585 34.29 0)
      (effects (font (size 1.27 1.27)))
    )
    (property "Footprint" "Jumper:SolderJumper-3_P1.3mm_Bridged2Bar12_Pad1.0x1.5mm_NumberLabels" (at 108.585 37.465 0)
      (effects (font (size 1.27 1.27)) hide)
    )
    (property "Datasheet" "~" (at 108.585 37.465 0)
      (effects (font (size 1.27 1.27)) hide)
    )
    (pin "1" (uuid a67fffe0-e2da-47db-a79f-53669da8ef0d))
    (pin "2" (uuid 78b56b61-ef8f-4805-b97c-5ab5c0b411cc))
    (pin "3" (uuid 5f7c53ad-a221-4a7c-aa56-8fe23dde6e72))
    (instances
      (project "uEFI_rev3"
        (path "/b282ce4b-c3d0-4c94-b06c-73b92bb672a9/8d3d2293-e570-4555-b12b-74c389ae5124"
          (reference "JP11") (unit 1)
        )
      )
    )
  )

  (symbol (lib_id "Device:R_Small") (at 191.77 82.55 0) (unit 1)
    (in_bom yes) (on_board yes) (dnp no)
    (uuid ac97a1a7-3d68-44d4-913b-2b5fa7a47f1f)
    (property "Reference" "R122" (at 193.2687 81.4006 0)
      (effects (font (size 1.27 1.27)) (justify left))
    )
    (property "Value" "10k" (at 193.2687 83.6993 0)
      (effects (font (size 1.27 1.27)) (justify left))
    )
    (property "Footprint" "Resistor_SMD:R_0603_1608Metric" (at 191.77 82.55 0)
      (effects (font (size 1.27 1.27)) hide)
    )
    (property "Datasheet" "~" (at 191.77 82.55 0)
      (effects (font (size 1.27 1.27)) hide)
    )
    (pin "1" (uuid 0b6d6b50-f0c1-4ebd-b401-07ebd1bcd5e9))
    (pin "2" (uuid fa60e971-a92f-425e-bda7-ba617cfdd56c))
    (instances
      (project "uEFI_rev3"
        (path "/b282ce4b-c3d0-4c94-b06c-73b92bb672a9/8d3d2293-e570-4555-b12b-74c389ae5124"
          (reference "R122") (unit 1)
        )
      )
    )
  )

  (symbol (lib_id "power:+3V3") (at 96.52 29.845 0) (unit 1)
    (in_bom yes) (on_board yes) (dnp no) (fields_autoplaced)
    (uuid b9e4181c-869d-4d95-bb71-881cdc72d5ea)
    (property "Reference" "#PWR055" (at 96.52 33.655 0)
      (effects (font (size 1.27 1.27)) hide)
    )
    (property "Value" "+3V3" (at 96.52 24.765 0)
      (effects (font (size 1.27 1.27)))
    )
    (property "Footprint" "" (at 96.52 29.845 0)
      (effects (font (size 1.27 1.27)) hide)
    )
    (property "Datasheet" "" (at 96.52 29.845 0)
      (effects (font (size 1.27 1.27)) hide)
    )
    (pin "1" (uuid 31bdc177-5a74-426d-9bf0-846f72b0e494))
    (instances
      (project "uEFI_rev3"
        (path "/b282ce4b-c3d0-4c94-b06c-73b92bb672a9/8d3d2293-e570-4555-b12b-74c389ae5124"
          (reference "#PWR055") (unit 1)
        )
      )
    )
  )

  (symbol (lib_id "Connector:TestPoint") (at 124.46 125.095 180) (unit 1)
    (in_bom yes) (on_board yes) (dnp no)
    (uuid bf6ed69d-09c1-44bc-9633-370fc9b2f8fa)
    (property "Reference" "TP6" (at 122.555 127.5716 0)
      (effects (font (size 1.27 1.27)) (justify left))
    )
    (property "Value" "TestPoint" (at 122.555 125.0316 0)
      (effects (font (size 1.27 1.27)) (justify left))
    )
    (property "Footprint" "TestPoint:TestPoint_Pad_1.0x1.0mm" (at 119.38 125.095 0)
      (effects (font (size 1.27 1.27)) hide)
    )
    (property "Datasheet" "~" (at 119.38 125.095 0)
      (effects (font (size 1.27 1.27)) hide)
    )
    (pin "1" (uuid 388452f1-eba5-4b08-85ca-33fa2e66677c))
    (instances
      (project "uEFI_rev3"
        (path "/b282ce4b-c3d0-4c94-b06c-73b92bb672a9/8d3d2293-e570-4555-b12b-74c389ae5124"
          (reference "TP6") (unit 1)
        )
      )
    )
  )

  (symbol (lib_id "OpenEFI-STM32-rev3:MAX9926UAEE+") (at 153.67 97.79 0) (unit 1)
    (in_bom yes) (on_board yes) (dnp no)
    (uuid cad82789-58b6-429e-8e82-6ac1131c23ba)
    (property "Reference" "U36" (at 153.67 70.6436 0)
      (effects (font (size 1.27 1.27)))
    )
    (property "Value" "MAX9926UAEE+" (at 153.67 72.9423 0)
      (effects (font (size 1.27 1.27)))
    )
    (property "Footprint" "OpenEFI-STM32F_rev3:SOP63P602X175-16N" (at 153.67 97.79 0)
      (effects (font (size 1.27 1.27)) (justify left bottom) hide)
    )
    (property "Datasheet" "" (at 153.67 97.79 0)
      (effects (font (size 1.27 1.27)) (justify left bottom) hide)
    )
    (property "Description" "Variable Reluctance Sensor Interface 16-Pin QSOP Tube" (at 153.67 97.79 0)
      (effects (font (size 1.27 1.27)) (justify left bottom) hide)
    )
    (property "MF" "Maxim Integrated" (at 153.67 97.79 0)
      (effects (font (size 1.27 1.27)) (justify left bottom) hide)
    )
    (property "Availability" "Unavailable" (at 153.67 97.79 0)
      (effects (font (size 1.27 1.27)) (justify left bottom) hide)
    )
    (property "Package" "QSOP-16 Maxim" (at 153.67 97.79 0)
      (effects (font (size 1.27 1.27)) (justify left bottom) hide)
    )
    (property "MP" "MAX9926UAEE+" (at 153.67 97.79 0)
      (effects (font (size 1.27 1.27)) (justify left bottom) hide)
    )
    (property "Price" "None" (at 153.67 97.79 0)
      (effects (font (size 1.27 1.27)) (justify left bottom) hide)
    )
    (pin "1" (uuid 7e50d971-7d93-4cb7-b61e-07b05b111561))
    (pin "10" (uuid 57fcbc28-b0e7-4d0a-b960-5f46a44bd18b))
    (pin "11" (uuid d7592ac3-9cea-4d96-bcd7-84291e6bca4b))
    (pin "12" (uuid 1033b0f7-c5b3-421f-a37c-2efb9614eedc))
    (pin "13" (uuid efdb6286-0e30-4e1b-8fbe-815eefa8af1a))
    (pin "14" (uuid 7db7a751-fc93-471c-8e9e-328e341d000f))
    (pin "15" (uuid 2e7530ad-f04a-46dd-9688-0d2b7340debd))
    (pin "16" (uuid a4e6bd0d-3fb2-43a4-b8b5-4caa054c77d4))
    (pin "2" (uuid 0cc99932-86b3-494d-a37f-267ee93aeeec))
    (pin "3" (uuid bd11ba0d-ead0-4008-b8f5-7e13e6385bef))
    (pin "4" (uuid 0f7f96ec-3e96-4971-9bb5-75ed2229cca2))
    (pin "5" (uuid 380e401f-7ea1-4696-ad6a-9468f5b7a5f5))
    (pin "6" (uuid 8ca60c3f-511b-4873-94f5-2b25a76ebdeb))
    (pin "7" (uuid 48d1b071-f1c6-4c6e-a263-8f66aec22a03))
    (pin "8" (uuid 6405ad09-1c79-4eaa-8a59-60a7a28bfeac))
    (pin "9" (uuid 80c652fe-897d-4715-87ec-7af02f6967b2))
    (instances
      (project "uEFI_rev3"
        (path "/b282ce4b-c3d0-4c94-b06c-73b92bb672a9/8d3d2293-e570-4555-b12b-74c389ae5124"
          (reference "U36") (unit 1)
        )
      )
    )
  )

  (symbol (lib_id "Device:C_Small") (at 116.205 66.675 0) (unit 1)
    (in_bom yes) (on_board yes) (dnp no)
    (uuid ccb0b899-916c-487b-b315-fb42f01c81c1)
    (property "Reference" "C54" (at 118.5292 65.5256 0)
      (effects (font (size 1.27 1.27)) (justify left))
    )
    (property "Value" "0.01uF" (at 118.5292 67.8243 0)
      (effects (font (size 1.27 1.27)) (justify left))
    )
    (property "Footprint" "Capacitor_SMD:C_0805_2012Metric" (at 116.205 66.675 0)
      (effects (font (size 1.27 1.27)) hide)
    )
    (property "Datasheet" "~" (at 116.205 66.675 0)
      (effects (font (size 1.27 1.27)) hide)
    )
    (property "LCSC" "C100042" (at 116.205 66.675 0)
      (effects (font (size 1.27 1.27)) hide)
    )
    (pin "1" (uuid c5722b92-ec20-4414-90bd-db30644c94b9))
    (pin "2" (uuid 4d7ffa3d-8de7-44f0-b7ca-a8811b7e57bf))
    (instances
      (project "uEFI_rev3"
        (path "/b282ce4b-c3d0-4c94-b06c-73b92bb672a9/8d3d2293-e570-4555-b12b-74c389ae5124"
          (reference "C54") (unit 1)
        )
      )
    )
  )

  (symbol (lib_id "power:GND") (at 96.52 42.545 0) (unit 1)
    (in_bom yes) (on_board yes) (dnp no)
    (uuid cfae0e21-0966-4ddb-90c1-71dc58c35984)
    (property "Reference" "#PWR058" (at 96.52 48.895 0)
      (effects (font (size 1.27 1.27)) hide)
    )
    (property "Value" "GND" (at 96.6343 46.8694 0)
      (effects (font (size 1.27 1.27)))
    )
    (property "Footprint" "" (at 96.52 42.545 0)
      (effects (font (size 1.27 1.27)) hide)
    )
    (property "Datasheet" "" (at 96.52 42.545 0)
      (effects (font (size 1.27 1.27)) hide)
    )
    (pin "1" (uuid 5bf20ae4-d629-462b-874c-86ac1ceb6e53))
    (instances
      (project "uEFI_rev3"
        (path "/b282ce4b-c3d0-4c94-b06c-73b92bb672a9/8d3d2293-e570-4555-b12b-74c389ae5124"
          (reference "#PWR058") (unit 1)
        )
      )
    )
  )

  (symbol (lib_id "Device:R_Small") (at 97.79 125.095 90) (unit 1)
    (in_bom yes) (on_board yes) (dnp no)
    (uuid d24a02ee-6a22-4ce6-880e-d17b3a2f6371)
    (property "Reference" "R119" (at 97.79 120.1482 90)
      (effects (font (size 1.27 1.27)))
    )
    (property "Value" "4.99K 1/2W" (at 97.79 122.4469 90)
      (effects (font (size 1.27 1.27)))
    )
    (property "Footprint" "Resistor_SMD:R_1210_3225Metric" (at 97.79 125.095 0)
      (effects (font (size 1.27 1.27)) hide)
    )
    (property "Datasheet" "~" (at 97.79 125.095 0)
      (effects (font (size 1.27 1.27)) hide)
    )
    (property "LCSC" "C407178" (at 97.79 125.095 90)
      (effects (font (size 1.27 1.27)) hide)
    )
    (pin "1" (uuid ede9c919-2af2-410b-853d-e8e90c9d026e))
    (pin "2" (uuid 7fd524e5-cd67-4b6c-b7eb-14f9b3b15537))
    (instances
      (project "uEFI_rev3"
        (path "/b282ce4b-c3d0-4c94-b06c-73b92bb672a9/8d3d2293-e570-4555-b12b-74c389ae5124"
          (reference "R119") (unit 1)
        )
      )
    )
  )

  (symbol (lib_id "Device:R_Small") (at 86.36 78.74 90) (unit 1)
    (in_bom yes) (on_board yes) (dnp no)
    (uuid d453b4a4-2a3d-4502-a0a1-88658fc02894)
    (property "Reference" "R112" (at 86.36 73.7932 90)
      (effects (font (size 1.27 1.27)))
    )
    (property "Value" "4.99K 1/2W" (at 86.36 76.0919 90)
      (effects (font (size 1.27 1.27)))
    )
    (property "Footprint" "Resistor_SMD:R_1210_3225Metric" (at 86.36 78.74 0)
      (effects (font (size 1.27 1.27)) hide)
    )
    (property "Datasheet" "~" (at 86.36 78.74 0)
      (effects (font (size 1.27 1.27)) hide)
    )
    (property "LCSC" "C407178" (at 86.36 78.74 90)
      (effects (font (size 1.27 1.27)) hide)
    )
    (pin "1" (uuid ba2dc090-c7a4-4ffa-b60d-dedcc4d85da4))
    (pin "2" (uuid 2499b7a3-f4c0-46b9-958e-f99f54332979))
    (instances
      (project "uEFI_rev3"
        (path "/b282ce4b-c3d0-4c94-b06c-73b92bb672a9/8d3d2293-e570-4555-b12b-74c389ae5124"
          (reference "R112") (unit 1)
        )
      )
    )
  )

  (symbol (lib_id "Device:R_Small") (at 99.06 58.42 90) (unit 1)
    (in_bom yes) (on_board yes) (dnp no)
    (uuid d55d22b3-b7e6-4929-8f55-7ddcb301e51f)
    (property "Reference" "R113" (at 99.06 53.4732 90)
      (effects (font (size 1.27 1.27)))
    )
    (property "Value" "4.99K 1/2W" (at 99.06 55.7719 90)
      (effects (font (size 1.27 1.27)))
    )
    (property "Footprint" "Resistor_SMD:R_1210_3225Metric" (at 99.06 58.42 0)
      (effects (font (size 1.27 1.27)) hide)
    )
    (property "Datasheet" "~" (at 99.06 58.42 0)
      (effects (font (size 1.27 1.27)) hide)
    )
    (property "LCSC" "C407178" (at 99.06 58.42 90)
      (effects (font (size 1.27 1.27)) hide)
    )
    (pin "1" (uuid 58e8b81c-5db1-489b-8fe1-6955a568bc7d))
    (pin "2" (uuid 444d8c06-7dd7-4737-83fc-e2bd5fe68ac8))
    (instances
      (project "uEFI_rev3"
        (path "/b282ce4b-c3d0-4c94-b06c-73b92bb672a9/8d3d2293-e570-4555-b12b-74c389ae5124"
          (reference "R113") (unit 1)
        )
      )
    )
  )

  (symbol (lib_id "Device:R_Small") (at 86.36 58.42 90) (unit 1)
    (in_bom yes) (on_board yes) (dnp no)
    (uuid e0fc2163-36fb-474e-ad23-a39c6993b4e6)
    (property "Reference" "R81" (at 86.36 53.4732 90)
      (effects (font (size 1.27 1.27)))
    )
    (property "Value" "4.99K 1/2W" (at 86.36 55.7719 90)
      (effects (font (size 1.27 1.27)))
    )
    (property "Footprint" "Resistor_SMD:R_1210_3225Metric" (at 86.36 58.42 0)
      (effects (font (size 1.27 1.27)) hide)
    )
    (property "Datasheet" "~" (at 86.36 58.42 0)
      (effects (font (size 1.27 1.27)) hide)
    )
    (property "LCSC" "C407178" (at 86.36 58.42 90)
      (effects (font (size 1.27 1.27)) hide)
    )
    (pin "1" (uuid e007e3e0-2a57-4997-b242-02d49767645f))
    (pin "2" (uuid 167a2f0c-239f-4eeb-ac5c-c002d667ecf2))
    (instances
      (project "uEFI_rev3"
        (path "/b282ce4b-c3d0-4c94-b06c-73b92bb672a9/8d3d2293-e570-4555-b12b-74c389ae5124"
          (reference "R81") (unit 1)
        )
      )
    )
  )

  (symbol (lib_id "Device:R_Small") (at 106.045 110.49 0) (unit 1)
    (in_bom yes) (on_board yes) (dnp no)
    (uuid e78457ad-c6d8-4537-add0-009d18ac8256)
    (property "Reference" "R120" (at 110.9918 110.49 90)
      (effects (font (size 1.27 1.27)))
    )
    (property "Value" "4.99K 1/2W" (at 108.6931 110.49 90)
      (effects (font (size 1.27 1.27)))
    )
    (property "Footprint" "Resistor_SMD:R_1210_3225Metric" (at 106.045 110.49 0)
      (effects (font (size 1.27 1.27)) hide)
    )
    (property "Datasheet" "~" (at 106.045 110.49 0)
      (effects (font (size 1.27 1.27)) hide)
    )
    (property "LCSC" "C407178" (at 106.045 110.49 90)
      (effects (font (size 1.27 1.27)) hide)
    )
    (pin "1" (uuid 8be413a2-d1d7-4701-8021-f99e799e9f4a))
    (pin "2" (uuid 667174fa-da84-4ed8-8cea-b990950a0ea5))
    (instances
      (project "uEFI_rev3"
        (path "/b282ce4b-c3d0-4c94-b06c-73b92bb672a9/8d3d2293-e570-4555-b12b-74c389ae5124"
          (reference "R120") (unit 1)
        )
      )
    )
  )

  (symbol (lib_id "Device:C_Small") (at 114.935 113.03 0) (unit 1)
    (in_bom yes) (on_board yes) (dnp no)
    (uuid e7cdd43d-756a-49d4-8bd0-c815efee73cf)
    (property "Reference" "C57" (at 117.2592 111.8806 0)
      (effects (font (size 1.27 1.27)) (justify left))
    )
    (property "Value" "0.01uF" (at 117.2592 114.1793 0)
      (effects (font (size 1.27 1.27)) (justify left))
    )
    (property "Footprint" "Capacitor_SMD:C_0805_2012Metric" (at 114.935 113.03 0)
      (effects (font (size 1.27 1.27)) hide)
    )
    (property "Datasheet" "~" (at 114.935 113.03 0)
      (effects (font (size 1.27 1.27)) hide)
    )
    (property "LCSC" "C100042" (at 114.935 113.03 0)
      (effects (font (size 1.27 1.27)) hide)
    )
    (pin "1" (uuid 117d687d-403a-4f1f-932c-1a5ec900c31e))
    (pin "2" (uuid 98997d18-05b7-4655-b8b4-ac2560accb37))
    (instances
      (project "uEFI_rev3"
        (path "/b282ce4b-c3d0-4c94-b06c-73b92bb672a9/8d3d2293-e570-4555-b12b-74c389ae5124"
          (reference "C57") (unit 1)
        )
      )
    )
  )

  (symbol (lib_id "Connector:TestPoint") (at 198.12 82.55 0) (unit 1)
    (in_bom yes) (on_board yes) (dnp no)
    (uuid f007968c-d79b-40ce-b677-2d1e7c772614)
    (property "Reference" "TP8" (at 200.025 80.0734 0)
      (effects (font (size 1.27 1.27)) (justify left))
    )
    (property "Value" "TestPoint" (at 193.675 76.835 0)
      (effects (font (size 1.27 1.27)) (justify left))
    )
    (property "Footprint" "TestPoint:TestPoint_Pad_1.0x1.0mm" (at 203.2 82.55 0)
      (effects (font (size 1.27 1.27)) hide)
    )
    (property "Datasheet" "~" (at 203.2 82.55 0)
      (effects (font (size 1.27 1.27)) hide)
    )
    (pin "1" (uuid 388452f1-eba5-4b08-85ca-33fa2e66677e))
    (instances
      (project "uEFI_rev3"
        (path "/b282ce4b-c3d0-4c94-b06c-73b92bb672a9/8d3d2293-e570-4555-b12b-74c389ae5124"
          (reference "TP8") (unit 1)
        )
      )
    )
  )

  (symbol (lib_id "Device:C_Small") (at 80.01 83.82 0) (unit 1)
    (in_bom yes) (on_board yes) (dnp no)
    (uuid f2aba775-ea54-45d1-93b6-de057b5a9028)
    (property "Reference" "C52" (at 82.3342 82.6706 0)
      (effects (font (size 1.27 1.27)) (justify left))
    )
    (property "Value" "0.01uF" (at 82.3342 84.9693 0)
      (effects (font (size 1.27 1.27)) (justify left))
    )
    (property "Footprint" "Capacitor_SMD:C_0805_2012Metric" (at 80.01 83.82 0)
      (effects (font (size 1.27 1.27)) hide)
    )
    (property "Datasheet" "~" (at 80.01 83.82 0)
      (effects (font (size 1.27 1.27)) hide)
    )
    (property "LCSC" "C100042" (at 80.01 83.82 0)
      (effects (font (size 1.27 1.27)) hide)
    )
    (pin "1" (uuid 8c0ea447-0cd2-440e-aa6e-2dd5c886ebba))
    (pin "2" (uuid 3a179279-9437-45ce-8bec-8c485508261a))
    (instances
      (project "uEFI_rev3"
        (path "/b282ce4b-c3d0-4c94-b06c-73b92bb672a9/8d3d2293-e570-4555-b12b-74c389ae5124"
          (reference "C52") (unit 1)
        )
      )
    )
  )

  (symbol (lib_id "Device:C_Small") (at 80.645 63.5 0) (unit 1)
    (in_bom yes) (on_board yes) (dnp no)
    (uuid f2f6ec20-43a9-4d7f-8708-03325e43c50c)
    (property "Reference" "C53" (at 82.9692 62.3506 0)
      (effects (font (size 1.27 1.27)) (justify left))
    )
    (property "Value" "0.01uF" (at 82.9692 64.6493 0)
      (effects (font (size 1.27 1.27)) (justify left))
    )
    (property "Footprint" "Capacitor_SMD:C_0805_2012Metric" (at 80.645 63.5 0)
      (effects (font (size 1.27 1.27)) hide)
    )
    (property "Datasheet" "~" (at 80.645 63.5 0)
      (effects (font (size 1.27 1.27)) hide)
    )
    (property "LCSC" "C100042" (at 80.645 63.5 0)
      (effects (font (size 1.27 1.27)) hide)
    )
    (pin "1" (uuid 2fc6ffee-e0ad-4d22-9e22-6d2e6ca1a61c))
    (pin "2" (uuid 6666daa6-bf8e-4e26-8cf0-ab0bcc3b319e))
    (instances
      (project "uEFI_rev3"
        (path "/b282ce4b-c3d0-4c94-b06c-73b92bb672a9/8d3d2293-e570-4555-b12b-74c389ae5124"
          (reference "C53") (unit 1)
        )
      )
    )
  )

  (symbol (lib_id "Connector:TestPoint") (at 114.935 104.775 0) (unit 1)
    (in_bom yes) (on_board yes) (dnp no)
    (uuid f6b75406-c1bb-4e18-a8b2-c95a632b47bc)
    (property "Reference" "TP3" (at 116.84 102.2984 0)
      (effects (font (size 1.27 1.27)) (justify left))
    )
    (property "Value" "TestPoint" (at 116.84 104.8384 0)
      (effects (font (size 1.27 1.27)) (justify left))
    )
    (property "Footprint" "TestPoint:TestPoint_Pad_1.0x1.0mm" (at 120.015 104.775 0)
      (effects (font (size 1.27 1.27)) hide)
    )
    (property "Datasheet" "~" (at 120.015 104.775 0)
      (effects (font (size 1.27 1.27)) hide)
    )
    (pin "1" (uuid 388452f1-eba5-4b08-85ca-33fa2e666779))
    (instances
      (project "uEFI_rev3"
        (path "/b282ce4b-c3d0-4c94-b06c-73b92bb672a9/8d3d2293-e570-4555-b12b-74c389ae5124"
          (reference "TP3") (unit 1)
        )
      )
    )
  )

  (symbol (lib_id "Jumper:SolderJumper_2_Open") (at 107.315 73.025 90) (unit 1)
    (in_bom yes) (on_board yes) (dnp no)
    (uuid f9e22668-03ec-49b4-be08-c61bd0d9c893)
    (property "Reference" "JP23" (at 109.4487 71.8756 90)
      (effects (font (size 1.27 1.27)) (justify right))
    )
    (property "Value" "SolderJumper_2_Open" (at 109.449 74.174 90)
      (effects (font (size 1.27 1.27)) (justify right) hide)
    )
    (property "Footprint" "Jumper:SolderJumper-2_P1.3mm_Open_RoundedPad1.0x1.5mm" (at 107.315 73.025 0)
      (effects (font (size 1.27 1.27)) hide)
    )
    (property "Datasheet" "~" (at 107.315 73.025 0)
      (effects (font (size 1.27 1.27)) hide)
    )
    (pin "1" (uuid 1ddc41c6-3d63-435a-833f-f5db945e2190))
    (pin "2" (uuid 2254860e-8848-4fcc-8adf-4116644195e7))
    (instances
      (project "uEFI_rev3"
        (path "/b282ce4b-c3d0-4c94-b06c-73b92bb672a9/8d3d2293-e570-4555-b12b-74c389ae5124"
          (reference "JP23") (unit 1)
        )
      )
    )
  )

  (symbol (lib_id "Connector:TestPoint") (at 116.205 58.42 0) (unit 1)
    (in_bom yes) (on_board yes) (dnp no)
    (uuid fb33e1bc-1072-44c8-99cc-2f4a46680ad1)
    (property "Reference" "TP4" (at 118.11 55.9434 0)
      (effects (font (size 1.27 1.27)) (justify left))
    )
    (property "Value" "TestPoint" (at 118.11 58.4834 0)
      (effects (font (size 1.27 1.27)) (justify left))
    )
    (property "Footprint" "TestPoint:TestPoint_Pad_1.0x1.0mm" (at 121.285 58.42 0)
      (effects (font (size 1.27 1.27)) hide)
    )
    (property "Datasheet" "~" (at 121.285 58.42 0)
      (effects (font (size 1.27 1.27)) hide)
    )
    (pin "1" (uuid 388452f1-eba5-4b08-85ca-33fa2e66677a))
    (instances
      (project "uEFI_rev3"
        (path "/b282ce4b-c3d0-4c94-b06c-73b92bb672a9/8d3d2293-e570-4555-b12b-74c389ae5124"
          (reference "TP4") (unit 1)
        )
      )
    )
  )
)
