(kicad_sch
	(version 20231120)
	(generator "eeschema")
	(generator_version "7.99")
	(uuid "f9ed5852-7913-4572-b85d-816387f6e92f")
	(paper "A4")
	(lib_symbols
		(symbol "Amplifier_Current:INA199xxDCK"
			(pin_names
				(offset 0.127)
			)
			(exclude_from_sim no)
			(in_bom yes)
			(on_board yes)
			(property "Reference" "U"
				(at 3.81 3.81 0)
				(effects
					(font
						(size 1.27 1.27)
					)
					(justify left)
				)
			)
			(property "Value" "INA199xxDCK"
				(at 3.81 -2.54 0)
				(effects
					(font
						(size 1.27 1.27)
					)
					(justify left)
				)
			)
			(property "Footprint" "Package_TO_SOT_SMD:SOT-363_SC-70-6"
				(at 1.27 1.27 0)
				(effects
					(font
						(size 1.27 1.27)
					)
					(hide yes)
				)
			)
			(property "Datasheet" "http://www.ti.com/lit/ds/symlink/ina199.pdf"
				(at 3.81 3.81 0)
				(effects
					(font
						(size 1.27 1.27)
					)
					(hide yes)
				)
			)
			(property "Description" "INA199 26-V, Bidirectional, Zero-Drift, Low- or High-Side, Voltage-Output, Current-Shunt Monitor, SOT-363, SC-70"
				(at 0 0 0)
				(effects
					(font
						(size 1.27 1.27)
					)
					(hide yes)
				)
			)
			(property "ki_keywords" "current monitor shunt sensor bidirectional"
				(at 0 0 0)
				(effects
					(font
						(size 1.27 1.27)
					)
					(hide yes)
				)
			)
			(property "ki_fp_filters" "*SC?70*"
				(at 0 0 0)
				(effects
					(font
						(size 1.27 1.27)
					)
					(hide yes)
				)
			)
			(symbol "INA199xxDCK_0_1"
				(polyline
					(pts
						(xy 5.08 0) (xy -5.08 5.08) (xy -5.08 -5.08) (xy 5.08 0)
					)
					(stroke
						(width 0.254)
						(type default)
					)
					(fill
						(type background)
					)
				)
			)
			(symbol "INA199xxDCK_1_1"
				(pin input line
					(at 2.54 -7.62 90)
					(length 6.35)
					(name "REF"
						(effects
							(font
								(size 0.508 0.508)
							)
						)
					)
					(number "1"
						(effects
							(font
								(size 1.27 1.27)
							)
						)
					)
				)
				(pin power_in line
					(at -2.54 -7.62 90)
					(length 3.81)
					(name "GND"
						(effects
							(font
								(size 1.27 1.27)
							)
						)
					)
					(number "2"
						(effects
							(font
								(size 1.27 1.27)
							)
						)
					)
				)
				(pin power_in line
					(at -2.54 7.62 270)
					(length 3.81)
					(name "V+"
						(effects
							(font
								(size 1.27 1.27)
							)
						)
					)
					(number "3"
						(effects
							(font
								(size 1.27 1.27)
							)
						)
					)
				)
				(pin input line
					(at -7.62 2.54 0)
					(length 2.54)
					(name "+"
						(effects
							(font
								(size 1.27 1.27)
							)
						)
					)
					(number "4"
						(effects
							(font
								(size 1.27 1.27)
							)
						)
					)
				)
				(pin input line
					(at -7.62 -2.54 0)
					(length 2.54)
					(name "-"
						(effects
							(font
								(size 1.27 1.27)
							)
						)
					)
					(number "5"
						(effects
							(font
								(size 1.27 1.27)
							)
						)
					)
				)
				(pin output line
					(at 7.62 0 180)
					(length 2.54)
					(name "~"
						(effects
							(font
								(size 1.27 1.27)
							)
						)
					)
					(number "6"
						(effects
							(font
								(size 1.27 1.27)
							)
						)
					)
				)
			)
		)
		(symbol "Device:C_Small"
			(pin_numbers hide)
			(pin_names
				(offset 0.254) hide)
			(exclude_from_sim no)
			(in_bom yes)
			(on_board yes)
			(property "Reference" "C"
				(at 0.254 1.778 0)
				(effects
					(font
						(size 1.27 1.27)
					)
					(justify left)
				)
			)
			(property "Value" "C_Small"
				(at 0.254 -2.032 0)
				(effects
					(font
						(size 1.27 1.27)
					)
					(justify left)
				)
			)
			(property "Footprint" ""
				(at 0 0 0)
				(effects
					(font
						(size 1.27 1.27)
					)
					(hide yes)
				)
			)
			(property "Datasheet" "~"
				(at 0 0 0)
				(effects
					(font
						(size 1.27 1.27)
					)
					(hide yes)
				)
			)
			(property "Description" "Unpolarized capacitor, small symbol"
				(at 0 0 0)
				(effects
					(font
						(size 1.27 1.27)
					)
					(hide yes)
				)
			)
			(property "ki_keywords" "capacitor cap"
				(at 0 0 0)
				(effects
					(font
						(size 1.27 1.27)
					)
					(hide yes)
				)
			)
			(property "ki_fp_filters" "C_*"
				(at 0 0 0)
				(effects
					(font
						(size 1.27 1.27)
					)
					(hide yes)
				)
			)
			(symbol "C_Small_0_1"
				(polyline
					(pts
						(xy -1.524 -0.508) (xy 1.524 -0.508)
					)
					(stroke
						(width 0.3302)
						(type default)
					)
					(fill
						(type none)
					)
				)
				(polyline
					(pts
						(xy -1.524 0.508) (xy 1.524 0.508)
					)
					(stroke
						(width 0.3048)
						(type default)
					)
					(fill
						(type none)
					)
				)
			)
			(symbol "C_Small_1_1"
				(pin passive line
					(at 0 2.54 270)
					(length 2.032)
					(name "~"
						(effects
							(font
								(size 1.27 1.27)
							)
						)
					)
					(number "1"
						(effects
							(font
								(size 1.27 1.27)
							)
						)
					)
				)
				(pin passive line
					(at 0 -2.54 90)
					(length 2.032)
					(name "~"
						(effects
							(font
								(size 1.27 1.27)
							)
						)
					)
					(number "2"
						(effects
							(font
								(size 1.27 1.27)
							)
						)
					)
				)
			)
		)
		(symbol "Device:R_Small"
			(pin_numbers hide)
			(pin_names
				(offset 0.254) hide)
			(exclude_from_sim no)
			(in_bom yes)
			(on_board yes)
			(property "Reference" "R"
				(at 0.762 0.508 0)
				(effects
					(font
						(size 1.27 1.27)
					)
					(justify left)
				)
			)
			(property "Value" "R_Small"
				(at 0.762 -1.016 0)
				(effects
					(font
						(size 1.27 1.27)
					)
					(justify left)
				)
			)
			(property "Footprint" ""
				(at 0 0 0)
				(effects
					(font
						(size 1.27 1.27)
					)
					(hide yes)
				)
			)
			(property "Datasheet" "~"
				(at 0 0 0)
				(effects
					(font
						(size 1.27 1.27)
					)
					(hide yes)
				)
			)
			(property "Description" "Resistor, small symbol"
				(at 0 0 0)
				(effects
					(font
						(size 1.27 1.27)
					)
					(hide yes)
				)
			)
			(property "ki_keywords" "R resistor"
				(at 0 0 0)
				(effects
					(font
						(size 1.27 1.27)
					)
					(hide yes)
				)
			)
			(property "ki_fp_filters" "R_*"
				(at 0 0 0)
				(effects
					(font
						(size 1.27 1.27)
					)
					(hide yes)
				)
			)
			(symbol "R_Small_0_1"
				(rectangle
					(start -0.762 1.778)
					(end 0.762 -1.778)
					(stroke
						(width 0.2032)
						(type default)
					)
					(fill
						(type none)
					)
				)
			)
			(symbol "R_Small_1_1"
				(pin passive line
					(at 0 2.54 270)
					(length 0.762)
					(name "~"
						(effects
							(font
								(size 1.27 1.27)
							)
						)
					)
					(number "1"
						(effects
							(font
								(size 1.27 1.27)
							)
						)
					)
				)
				(pin passive line
					(at 0 -2.54 90)
					(length 0.762)
					(name "~"
						(effects
							(font
								(size 1.27 1.27)
							)
						)
					)
					(number "2"
						(effects
							(font
								(size 1.27 1.27)
							)
						)
					)
				)
			)
		)
		(symbol "Power_Management:TPS22917DBV"
			(exclude_from_sim no)
			(in_bom yes)
			(on_board yes)
			(property "Reference" "U"
				(at -6.35 6.35 0)
				(effects
					(font
						(size 1.27 1.27)
					)
				)
			)
			(property "Value" "TPS22917DBV"
				(at 2.54 6.35 0)
				(effects
					(font
						(size 1.27 1.27)
					)
				)
			)
			(property "Footprint" "Package_TO_SOT_SMD:SOT-23-6"
				(at 0 12.7 0)
				(effects
					(font
						(size 1.27 1.27)
					)
					(hide yes)
				)
			)
			(property "Datasheet" "http://www.ti.com/lit/ds/symlink/tps22917.pdf"
				(at 1.27 -17.78 0)
				(effects
					(font
						(size 1.27 1.27)
					)
					(hide yes)
				)
			)
			(property "Description" "1V to 5.5V, 2A, 80mΩ Ultra-Low Leakage Load Switch, SOT23-6"
				(at 0 0 0)
				(effects
					(font
						(size 1.27 1.27)
					)
					(hide yes)
				)
			)
			(property "ki_keywords" "high-side power distribution switch"
				(at 0 0 0)
				(effects
					(font
						(size 1.27 1.27)
					)
					(hide yes)
				)
			)
			(property "ki_fp_filters" "SOT?23*"
				(at 0 0 0)
				(effects
					(font
						(size 1.27 1.27)
					)
					(hide yes)
				)
			)
			(symbol "TPS22917DBV_0_1"
				(rectangle
					(start -7.62 5.08)
					(end 7.62 -5.08)
					(stroke
						(width 0.254)
						(type default)
					)
					(fill
						(type background)
					)
				)
			)
			(symbol "TPS22917DBV_1_1"
				(pin power_in line
					(at -10.16 2.54 0)
					(length 2.54)
					(name "VIN"
						(effects
							(font
								(size 1.27 1.27)
							)
						)
					)
					(number "1"
						(effects
							(font
								(size 1.27 1.27)
							)
						)
					)
				)
				(pin power_in line
					(at 0 -7.62 90)
					(length 2.54)
					(name "GND"
						(effects
							(font
								(size 1.27 1.27)
							)
						)
					)
					(number "2"
						(effects
							(font
								(size 1.27 1.27)
							)
						)
					)
				)
				(pin input line
					(at -10.16 -2.54 0)
					(length 2.54)
					(name "ON"
						(effects
							(font
								(size 1.27 1.27)
							)
						)
					)
					(number "3"
						(effects
							(font
								(size 1.27 1.27)
							)
						)
					)
				)
				(pin output line
					(at -10.16 0 0)
					(length 2.54)
					(name "CT"
						(effects
							(font
								(size 1.27 1.27)
							)
						)
					)
					(number "4"
						(effects
							(font
								(size 1.27 1.27)
							)
						)
					)
				)
				(pin open_collector line
					(at 10.16 0 180)
					(length 2.54)
					(name "QOD"
						(effects
							(font
								(size 1.27 1.27)
							)
						)
					)
					(number "5"
						(effects
							(font
								(size 1.27 1.27)
							)
						)
					)
				)
				(pin power_out line
					(at 10.16 2.54 180)
					(length 2.54)
					(name "VOUT"
						(effects
							(font
								(size 1.27 1.27)
							)
						)
					)
					(number "6"
						(effects
							(font
								(size 1.27 1.27)
							)
						)
					)
				)
			)
		)
		(symbol "power:+3.3VP"
			(power)
			(pin_names
				(offset 0)
			)
			(exclude_from_sim no)
			(in_bom yes)
			(on_board yes)
			(property "Reference" "#PWR"
				(at 3.81 -1.27 0)
				(effects
					(font
						(size 1.27 1.27)
					)
					(hide yes)
				)
			)
			(property "Value" "+3.3VP"
				(at 0 2.54 0)
				(effects
					(font
						(size 1.27 1.27)
					)
				)
			)
			(property "Footprint" ""
				(at 0 0 0)
				(effects
					(font
						(size 1.27 1.27)
					)
					(hide yes)
				)
			)
			(property "Datasheet" ""
				(at 0 0 0)
				(effects
					(font
						(size 1.27 1.27)
					)
					(hide yes)
				)
			)
			(property "Description" "Power symbol creates a global label with name \"+3.3VP\""
				(at 0 0 0)
				(effects
					(font
						(size 1.27 1.27)
					)
					(hide yes)
				)
			)
			(property "ki_keywords" "global power"
				(at 0 0 0)
				(effects
					(font
						(size 1.27 1.27)
					)
					(hide yes)
				)
			)
			(symbol "+3.3VP_0_0"
				(pin power_in line
					(at 0 0 90)
					(length 0) hide
					(name "+3.3VP"
						(effects
							(font
								(size 1.27 1.27)
							)
						)
					)
					(number "1"
						(effects
							(font
								(size 1.27 1.27)
							)
						)
					)
				)
			)
			(symbol "+3.3VP_0_1"
				(polyline
					(pts
						(xy -0.762 1.27) (xy 0 2.54)
					)
					(stroke
						(width 0)
						(type default)
					)
					(fill
						(type none)
					)
				)
				(polyline
					(pts
						(xy 0 0) (xy 0 2.54)
					)
					(stroke
						(width 0)
						(type default)
					)
					(fill
						(type none)
					)
				)
				(polyline
					(pts
						(xy 0 2.54) (xy 0.762 1.27)
					)
					(stroke
						(width 0)
						(type default)
					)
					(fill
						(type none)
					)
				)
			)
		)
		(symbol "power:GND"
			(power)
			(pin_names
				(offset 0)
			)
			(exclude_from_sim no)
			(in_bom yes)
			(on_board yes)
			(property "Reference" "#PWR"
				(at 0 -6.35 0)
				(effects
					(font
						(size 1.27 1.27)
					)
					(hide yes)
				)
			)
			(property "Value" "GND"
				(at 0 -3.81 0)
				(effects
					(font
						(size 1.27 1.27)
					)
				)
			)
			(property "Footprint" ""
				(at 0 0 0)
				(effects
					(font
						(size 1.27 1.27)
					)
					(hide yes)
				)
			)
			(property "Datasheet" ""
				(at 0 0 0)
				(effects
					(font
						(size 1.27 1.27)
					)
					(hide yes)
				)
			)
			(property "Description" "Power symbol creates a global label with name \"GND\" , ground"
				(at 0 0 0)
				(effects
					(font
						(size 1.27 1.27)
					)
					(hide yes)
				)
			)
			(property "ki_keywords" "global power"
				(at 0 0 0)
				(effects
					(font
						(size 1.27 1.27)
					)
					(hide yes)
				)
			)
			(symbol "GND_0_1"
				(polyline
					(pts
						(xy 0 0) (xy 0 -1.27) (xy 1.27 -1.27) (xy 0 -2.54) (xy -1.27 -1.27) (xy 0 -1.27)
					)
					(stroke
						(width 0)
						(type default)
					)
					(fill
						(type none)
					)
				)
			)
			(symbol "GND_1_1"
				(pin power_in line
					(at 0 0 270)
					(length 0) hide
					(name "GND"
						(effects
							(font
								(size 1.27 1.27)
							)
						)
					)
					(number "1"
						(effects
							(font
								(size 1.27 1.27)
							)
						)
					)
				)
			)
		)
		(symbol "power:VDD"
			(power)
			(pin_names
				(offset 0)
			)
			(exclude_from_sim no)
			(in_bom yes)
			(on_board yes)
			(property "Reference" "#PWR"
				(at 0 -3.81 0)
				(effects
					(font
						(size 1.27 1.27)
					)
					(hide yes)
				)
			)
			(property "Value" "VDD"
				(at 0 3.81 0)
				(effects
					(font
						(size 1.27 1.27)
					)
				)
			)
			(property "Footprint" ""
				(at 0 0 0)
				(effects
					(font
						(size 1.27 1.27)
					)
					(hide yes)
				)
			)
			(property "Datasheet" ""
				(at 0 0 0)
				(effects
					(font
						(size 1.27 1.27)
					)
					(hide yes)
				)
			)
			(property "Description" "Power symbol creates a global label with name \"VDD\""
				(at 0 0 0)
				(effects
					(font
						(size 1.27 1.27)
					)
					(hide yes)
				)
			)
			(property "ki_keywords" "global power"
				(at 0 0 0)
				(effects
					(font
						(size 1.27 1.27)
					)
					(hide yes)
				)
			)
			(symbol "VDD_0_1"
				(polyline
					(pts
						(xy -0.762 1.27) (xy 0 2.54)
					)
					(stroke
						(width 0)
						(type default)
					)
					(fill
						(type none)
					)
				)
				(polyline
					(pts
						(xy 0 0) (xy 0 2.54)
					)
					(stroke
						(width 0)
						(type default)
					)
					(fill
						(type none)
					)
				)
				(polyline
					(pts
						(xy 0 2.54) (xy 0.762 1.27)
					)
					(stroke
						(width 0)
						(type default)
					)
					(fill
						(type none)
					)
				)
			)
			(symbol "VDD_1_1"
				(pin power_in line
					(at 0 0 90)
					(length 0) hide
					(name "VDD"
						(effects
							(font
								(size 1.27 1.27)
							)
						)
					)
					(number "1"
						(effects
							(font
								(size 1.27 1.27)
							)
						)
					)
				)
			)
		)
	)
	(junction
		(at 209.55 36.83)
		(diameter 0)
		(color 0 0 0 0)
		(uuid "3dff0d2b-0585-41ac-a8e3-0c78432f504d")
	)
	(junction
		(at 149.86 111.76)
		(diameter 0)
		(color 0 0 0 0)
		(uuid "811fd52a-4ae9-454e-9e0f-4f88f339b1f9")
	)
	(junction
		(at 193.04 59.69)
		(diameter 0)
		(color 0 0 0 0)
		(uuid "96fb5db3-4a18-4fb2-b017-6fbace2951ff")
	)
	(junction
		(at 105.41 111.76)
		(diameter 0)
		(color 0 0 0 0)
		(uuid "9dc2e52e-99f1-4a9b-bf0f-e5a7ea7ca0e3")
	)
	(junction
		(at 105.41 36.83)
		(diameter 0)
		(color 0 0 0 0)
		(uuid "a07dee53-cd4f-4013-a01a-89f214b59ecf")
	)
	(junction
		(at 193.04 54.61)
		(diameter 0)
		(color 0 0 0 0)
		(uuid "c40ed6f2-dbd7-4ea5-9109-101dfae6f5fa")
	)
	(junction
		(at 149.86 36.83)
		(diameter 0)
		(color 0 0 0 0)
		(uuid "f3c75b06-abc1-4d4a-beba-2c5392ce7c3e")
	)
	(wire
		(pts
			(xy 116.84 119.38) (xy 116.84 114.3)
		)
		(stroke
			(width 0)
			(type default)
		)
		(uuid "0877ac2d-3378-4520-a27d-ce3d19d5ba7f")
	)
	(wire
		(pts
			(xy 209.55 36.83) (xy 209.55 49.53)
		)
		(stroke
			(width 0)
			(type default)
		)
		(uuid "0a5e951e-cbe6-417f-83e8-111829e988fd")
	)
	(wire
		(pts
			(xy 105.41 36.83) (xy 105.41 44.45)
		)
		(stroke
			(width 0)
			(type default)
		)
		(uuid "0e2486bf-84e0-4bfd-a4b9-900beb4aae8c")
	)
	(wire
		(pts
			(xy 119.38 116.84) (xy 119.38 124.46)
		)
		(stroke
			(width 0)
			(type default)
		)
		(uuid "0fd38422-213b-488d-b5b0-7cf0a6cb0bd4")
	)
	(wire
		(pts
			(xy 193.04 54.61) (xy 193.04 36.83)
		)
		(stroke
			(width 0)
			(type default)
		)
		(uuid "1bc5f0e4-0f8d-4162-82b9-e2d34a8c228d")
	)
	(wire
		(pts
			(xy 120.65 41.91) (xy 119.38 41.91)
		)
		(stroke
			(width 0)
			(type default)
		)
		(uuid "272b6ded-c453-47c1-a308-a46da41a919c")
	)
	(wire
		(pts
			(xy 149.86 36.83) (xy 149.86 39.37)
		)
		(stroke
			(width 0)
			(type default)
		)
		(uuid "2e65d115-4e6f-462a-9413-7f2423bfbcfb")
	)
	(wire
		(pts
			(xy 209.55 34.29) (xy 209.55 36.83)
		)
		(stroke
			(width 0)
			(type default)
		)
		(uuid "2f37b556-ba86-4aef-8563-3d6960dd3424")
	)
	(wire
		(pts
			(xy 219.71 57.15) (xy 236.22 57.15)
		)
		(stroke
			(width 0)
			(type default)
		)
		(uuid "35c1e658-40c1-4d8f-b398-720a6e2446a7")
	)
	(wire
		(pts
			(xy 105.41 36.83) (xy 120.65 36.83)
		)
		(stroke
			(width 0)
			(type default)
		)
		(uuid "3bc930e8-84ae-46e7-bcf5-3cc6290ecb9b")
	)
	(wire
		(pts
			(xy 149.86 111.76) (xy 193.04 111.76)
		)
		(stroke
			(width 0)
			(type default)
		)
		(uuid "3f04e505-1a92-4d62-be02-7e3bc3d2e3f7")
	)
	(wire
		(pts
			(xy 193.04 91.44) (xy 193.04 59.69)
		)
		(stroke
			(width 0)
			(type default)
		)
		(uuid "45befd68-24ed-4bea-ad45-51c43a1a694a")
	)
	(wire
		(pts
			(xy 193.04 59.69) (xy 204.47 59.69)
		)
		(stroke
			(width 0)
			(type default)
		)
		(uuid "476ed5ba-e60c-48db-b782-a2c2f8e06619")
	)
	(wire
		(pts
			(xy 77.47 111.76) (xy 105.41 111.76)
		)
		(stroke
			(width 0)
			(type default)
		)
		(uuid "47ebf47a-46cd-42a4-ba32-025e286e85dc")
	)
	(wire
		(pts
			(xy 104.14 49.53) (xy 119.38 49.53)
		)
		(stroke
			(width 0)
			(type default)
		)
		(uuid "48386d98-8b11-46c3-86f6-d4f2611e3740")
	)
	(wire
		(pts
			(xy 105.41 111.76) (xy 120.65 111.76)
		)
		(stroke
			(width 0)
			(type default)
		)
		(uuid "4ed0979c-0ab6-4780-a820-4dac14cf258a")
	)
	(wire
		(pts
			(xy 198.12 36.83) (xy 198.12 40.64)
		)
		(stroke
			(width 0)
			(type default)
		)
		(uuid "4efaf4ca-b141-4f71-8160-b3f6f8090c71")
	)
	(wire
		(pts
			(xy 113.03 44.45) (xy 116.84 44.45)
		)
		(stroke
			(width 0)
			(type default)
		)
		(uuid "514da7ca-ba97-407c-a3a6-b3d47ea1ba59")
	)
	(wire
		(pts
			(xy 214.63 72.39) (xy 214.63 73.66)
		)
		(stroke
			(width 0)
			(type default)
		)
		(uuid "569dd2d5-393b-4f7d-9a05-5d7c5b2a47d0")
	)
	(wire
		(pts
			(xy 144.78 121.92) (xy 149.86 121.92)
		)
		(stroke
			(width 0)
			(type default)
		)
		(uuid "5f421d2c-7dab-486f-919b-f8b7cc202f79")
	)
	(wire
		(pts
			(xy 140.97 39.37) (xy 144.78 39.37)
		)
		(stroke
			(width 0)
			(type default)
		)
		(uuid "6005ee1c-b59e-43f3-ae2a-4d16ae639248")
	)
	(wire
		(pts
			(xy 193.04 54.61) (xy 204.47 54.61)
		)
		(stroke
			(width 0)
			(type default)
		)
		(uuid "604bfcec-5ef7-422f-b430-9362fdb59063")
	)
	(wire
		(pts
			(xy 113.03 119.38) (xy 116.84 119.38)
		)
		(stroke
			(width 0)
			(type default)
		)
		(uuid "680e5a9c-241b-4809-865c-dd247e4d9a04")
	)
	(wire
		(pts
			(xy 140.97 111.76) (xy 149.86 111.76)
		)
		(stroke
			(width 0)
			(type default)
		)
		(uuid "6b69c354-680f-478b-9a6e-b00c1625f08a")
	)
	(wire
		(pts
			(xy 214.63 64.77) (xy 214.63 67.31)
		)
		(stroke
			(width 0)
			(type default)
		)
		(uuid "6f061149-306a-473d-9e51-2d7d537f738c")
	)
	(wire
		(pts
			(xy 88.9 35.56) (xy 88.9 36.83)
		)
		(stroke
			(width 0)
			(type default)
		)
		(uuid "746f2a82-dead-4c9b-81a2-e8c84e72171f")
	)
	(wire
		(pts
			(xy 149.86 111.76) (xy 149.86 114.3)
		)
		(stroke
			(width 0)
			(type default)
		)
		(uuid "7691ca8f-0edc-45a4-8a49-db44372a927b")
	)
	(wire
		(pts
			(xy 116.84 44.45) (xy 116.84 39.37)
		)
		(stroke
			(width 0)
			(type default)
		)
		(uuid "7eaa25ed-6c4f-4a8a-b3b3-2cd4124a63b3")
	)
	(wire
		(pts
			(xy 119.38 41.91) (xy 119.38 49.53)
		)
		(stroke
			(width 0)
			(type default)
		)
		(uuid "84f4b20c-f28c-4da0-863d-c13221a846f3")
	)
	(wire
		(pts
			(xy 149.86 36.83) (xy 193.04 36.83)
		)
		(stroke
			(width 0)
			(type default)
		)
		(uuid "8628401e-6878-4983-96e7-b3e191d3f135")
	)
	(wire
		(pts
			(xy 104.14 124.46) (xy 119.38 124.46)
		)
		(stroke
			(width 0)
			(type default)
		)
		(uuid "87a6f2e3-8cd6-4bea-84fa-e4664e083a6b")
	)
	(wire
		(pts
			(xy 144.78 39.37) (xy 144.78 46.99)
		)
		(stroke
			(width 0)
			(type default)
		)
		(uuid "929753ab-6e72-4859-acf7-9d8e6a564e65")
	)
	(wire
		(pts
			(xy 209.55 36.83) (xy 198.12 36.83)
		)
		(stroke
			(width 0)
			(type default)
		)
		(uuid "931669d2-9757-45ae-900f-7c7025f60c54")
	)
	(wire
		(pts
			(xy 130.81 46.99) (xy 130.81 49.53)
		)
		(stroke
			(width 0)
			(type default)
		)
		(uuid "93a4f170-d855-4c6e-8d2b-eeac37f2e673")
	)
	(wire
		(pts
			(xy 120.65 39.37) (xy 116.84 39.37)
		)
		(stroke
			(width 0)
			(type default)
		)
		(uuid "93ce5e78-825f-4af4-8385-54a9de7e1278")
	)
	(wire
		(pts
			(xy 149.86 46.99) (xy 149.86 44.45)
		)
		(stroke
			(width 0)
			(type default)
		)
		(uuid "9c861f77-68e8-4070-958e-aa5035827228")
	)
	(wire
		(pts
			(xy 209.55 64.77) (xy 209.55 66.04)
		)
		(stroke
			(width 0)
			(type default)
		)
		(uuid "a46dbc2b-d1e5-45c6-b3b5-33fd292ee24f")
	)
	(wire
		(pts
			(xy 140.97 36.83) (xy 149.86 36.83)
		)
		(stroke
			(width 0)
			(type default)
		)
		(uuid "a7cb43cc-f099-4570-82c0-e3e34feac36e")
	)
	(wire
		(pts
			(xy 198.12 45.72) (xy 198.12 46.99)
		)
		(stroke
			(width 0)
			(type default)
		)
		(uuid "a896399f-b937-4cc1-903e-290a603b512c")
	)
	(wire
		(pts
			(xy 193.04 91.44) (xy 236.22 91.44)
		)
		(stroke
			(width 0)
			(type default)
		)
		(uuid "aad58442-5ed4-44e1-9865-c2789f8bfbf3")
	)
	(wire
		(pts
			(xy 88.9 36.83) (xy 105.41 36.83)
		)
		(stroke
			(width 0)
			(type default)
		)
		(uuid "abc7e907-70d8-438c-9c56-c95b9c383534")
	)
	(wire
		(pts
			(xy 144.78 46.99) (xy 149.86 46.99)
		)
		(stroke
			(width 0)
			(type default)
		)
		(uuid "c166e1bf-9246-494c-9c61-5390e33ce176")
	)
	(wire
		(pts
			(xy 140.97 114.3) (xy 144.78 114.3)
		)
		(stroke
			(width 0)
			(type default)
		)
		(uuid "ca49ad11-84f8-4783-8457-5aafad511055")
	)
	(wire
		(pts
			(xy 107.95 119.38) (xy 105.41 119.38)
		)
		(stroke
			(width 0)
			(type default)
		)
		(uuid "ca6f835c-d09e-4ad2-a312-6922cbcc09f5")
	)
	(wire
		(pts
			(xy 105.41 111.76) (xy 105.41 119.38)
		)
		(stroke
			(width 0)
			(type default)
		)
		(uuid "cd895cd6-7b63-45d3-8673-6e194ec837cf")
	)
	(wire
		(pts
			(xy 144.78 114.3) (xy 144.78 121.92)
		)
		(stroke
			(width 0)
			(type default)
		)
		(uuid "dcc212e7-54f8-491d-b032-47cc5d55d932")
	)
	(wire
		(pts
			(xy 120.65 116.84) (xy 119.38 116.84)
		)
		(stroke
			(width 0)
			(type default)
		)
		(uuid "e1eaa53b-34a4-4bfc-994c-edf8dfd426b3")
	)
	(wire
		(pts
			(xy 149.86 121.92) (xy 149.86 119.38)
		)
		(stroke
			(width 0)
			(type default)
		)
		(uuid "e7c3af63-de2a-46f2-b620-b972a8b97eaf")
	)
	(wire
		(pts
			(xy 130.81 121.92) (xy 130.81 124.46)
		)
		(stroke
			(width 0)
			(type default)
		)
		(uuid "e8642a50-dac3-473e-b0a0-2b8219a54920")
	)
	(wire
		(pts
			(xy 120.65 114.3) (xy 116.84 114.3)
		)
		(stroke
			(width 0)
			(type default)
		)
		(uuid "ebe702db-6a86-45c9-9e50-d85a9562b2aa")
	)
	(wire
		(pts
			(xy 77.47 109.22) (xy 77.47 111.76)
		)
		(stroke
			(width 0)
			(type default)
		)
		(uuid "eec45292-59ad-4565-ad76-3ef1f397d570")
	)
	(wire
		(pts
			(xy 107.95 44.45) (xy 105.41 44.45)
		)
		(stroke
			(width 0)
			(type default)
		)
		(uuid "f3d7074d-5c93-4f61-bd56-f19c9a40f8ef")
	)
	(hierarchical_label "CURRENT_SENSE"
		(shape output)
		(at 236.22 57.15 0)
		(fields_autoplaced yes)
		(effects
			(font
				(size 1.27 1.27)
			)
			(justify left)
		)
		(uuid "2b80aba9-645e-4eb9-a69d-1719cfe09233")
	)
	(hierarchical_label "3V3_SW_EN"
		(shape input)
		(at 104.14 124.46 180)
		(fields_autoplaced yes)
		(effects
			(font
				(size 1.27 1.27)
			)
			(justify right)
		)
		(uuid "2dcf8bf4-f900-4cfa-9e28-180f95e6dad4")
	)
	(hierarchical_label "VDD_SWITCHED"
		(shape output)
		(at 236.22 91.44 0)
		(fields_autoplaced yes)
		(effects
			(font
				(size 1.27 1.27)
			)
			(justify left)
		)
		(uuid "4b400b6b-4c5d-437f-98a3-7217ca9f25d7")
	)
	(hierarchical_label "VDD_SW_EN"
		(shape input)
		(at 104.14 49.53 180)
		(fields_autoplaced yes)
		(effects
			(font
				(size 1.27 1.27)
			)
			(justify right)
		)
		(uuid "7f5edaaa-e774-42e2-9274-281a79d7d4fe")
	)
	(hierarchical_label "3V3_SWITCHED"
		(shape output)
		(at 193.04 111.76 0)
		(fields_autoplaced yes)
		(effects
			(font
				(size 1.27 1.27)
			)
			(justify left)
		)
		(uuid "c22bfc42-fec2-425d-8a27-5de76450e1d7")
	)
	(symbol
		(lib_id "Device:R_Small")
		(at 149.86 116.84 0)
		(unit 1)
		(exclude_from_sim no)
		(in_bom yes)
		(on_board yes)
		(dnp no)
		(fields_autoplaced yes)
		(uuid "06ed2de8-74d1-4288-8772-8e26ade13b34")
		(property "Reference" "R702"
			(at 152.4 115.5699 0)
			(effects
				(font
					(size 1.27 1.27)
				)
				(justify left)
			)
		)
		(property "Value" "0"
			(at 152.4 118.1099 0)
			(effects
				(font
					(size 1.27 1.27)
				)
				(justify left)
			)
		)
		(property "Footprint" "Resistor_SMD:R_0402_1005Metric"
			(at 149.86 116.84 0)
			(effects
				(font
					(size 1.27 1.27)
				)
				(hide yes)
			)
		)
		(property "Datasheet" "~"
			(at 149.86 116.84 0)
			(effects
				(font
					(size 1.27 1.27)
				)
				(hide yes)
			)
		)
		(property "Description" ""
			(at 149.86 116.84 0)
			(effects
				(font
					(size 1.27 1.27)
				)
				(hide yes)
			)
		)
		(property "LCSC Part #" "C17168"
			(at 149.86 116.84 0)
			(effects
				(font
					(size 1.27 1.27)
				)
				(hide yes)
			)
		)
		(pin "1"
			(uuid "6c13f6f8-229e-4d48-9199-d3f2e81859a9")
		)
		(pin "2"
			(uuid "df80a112-f464-4904-8fdf-9f6b884e38dc")
		)
		(instances
			(project "bias_controller"
				(path "/c9087306-c5f7-4203-b4d2-ad73ff81b231/d5b71baa-35d6-4c93-9f12-bbf3cd21e244"
					(reference "R702")
					(unit 1)
				)
			)
		)
	)
	(symbol
		(lib_id "power:GND")
		(at 130.81 124.46 0)
		(unit 1)
		(exclude_from_sim no)
		(in_bom yes)
		(on_board yes)
		(dnp no)
		(fields_autoplaced yes)
		(uuid "14973745-0c7f-4787-b55a-43c7576e68ce")
		(property "Reference" "#PWR0704"
			(at 130.81 130.81 0)
			(effects
				(font
					(size 1.27 1.27)
				)
				(hide yes)
			)
		)
		(property "Value" "GND"
			(at 130.81 129.54 0)
			(effects
				(font
					(size 1.27 1.27)
				)
			)
		)
		(property "Footprint" ""
			(at 130.81 124.46 0)
			(effects
				(font
					(size 1.27 1.27)
				)
				(hide yes)
			)
		)
		(property "Datasheet" ""
			(at 130.81 124.46 0)
			(effects
				(font
					(size 1.27 1.27)
				)
				(hide yes)
			)
		)
		(property "Description" ""
			(at 130.81 124.46 0)
			(effects
				(font
					(size 1.27 1.27)
				)
				(hide yes)
			)
		)
		(pin "1"
			(uuid "67dfbd23-a8a7-48d0-97fa-31700517a23c")
		)
		(instances
			(project "bias_controller"
				(path "/c9087306-c5f7-4203-b4d2-ad73ff81b231/d5b71baa-35d6-4c93-9f12-bbf3cd21e244"
					(reference "#PWR0704")
					(unit 1)
				)
			)
		)
	)
	(symbol
		(lib_id "Device:C_Small")
		(at 198.12 43.18 0)
		(unit 1)
		(exclude_from_sim no)
		(in_bom yes)
		(on_board yes)
		(dnp no)
		(fields_autoplaced yes)
		(uuid "18343afd-06b9-47e1-9764-d8a46a29bb50")
		(property "Reference" "C703"
			(at 200.66 41.9163 0)
			(effects
				(font
					(size 1.27 1.27)
				)
				(justify left)
			)
		)
		(property "Value" "100 nF"
			(at 200.66 44.4563 0)
			(effects
				(font
					(size 1.27 1.27)
				)
				(justify left)
			)
		)
		(property "Footprint" "Capacitor_SMD:C_0402_1005Metric"
			(at 198.12 43.18 0)
			(effects
				(font
					(size 1.27 1.27)
				)
				(hide yes)
			)
		)
		(property "Datasheet" "~"
			(at 198.12 43.18 0)
			(effects
				(font
					(size 1.27 1.27)
				)
				(hide yes)
			)
		)
		(property "Description" ""
			(at 198.12 43.18 0)
			(effects
				(font
					(size 1.27 1.27)
				)
				(hide yes)
			)
		)
		(property "LCSC Part #" "C307331"
			(at 198.12 43.18 0)
			(effects
				(font
					(size 1.27 1.27)
				)
				(hide yes)
			)
		)
		(pin "1"
			(uuid "2d38f0e7-f0af-4e11-81de-bc38253d20cf")
		)
		(pin "2"
			(uuid "c0d17c04-0643-49ef-b9bc-23ac8b89f5c5")
		)
		(instances
			(project "bias_controller"
				(path "/c9087306-c5f7-4203-b4d2-ad73ff81b231/d5b71baa-35d6-4c93-9f12-bbf3cd21e244"
					(reference "C703")
					(unit 1)
				)
			)
		)
	)
	(symbol
		(lib_id "power:VDD")
		(at 88.9 35.56 0)
		(unit 1)
		(exclude_from_sim no)
		(in_bom yes)
		(on_board yes)
		(dnp no)
		(fields_autoplaced yes)
		(uuid "1d5f4a04-84f6-4edd-b4a1-142181e7317a")
		(property "Reference" "#PWR0702"
			(at 88.9 39.37 0)
			(effects
				(font
					(size 1.27 1.27)
				)
				(hide yes)
			)
		)
		(property "Value" "VDD"
			(at 88.9 30.48 0)
			(effects
				(font
					(size 1.27 1.27)
				)
			)
		)
		(property "Footprint" ""
			(at 88.9 35.56 0)
			(effects
				(font
					(size 1.27 1.27)
				)
				(hide yes)
			)
		)
		(property "Datasheet" ""
			(at 88.9 35.56 0)
			(effects
				(font
					(size 1.27 1.27)
				)
				(hide yes)
			)
		)
		(property "Description" ""
			(at 88.9 35.56 0)
			(effects
				(font
					(size 1.27 1.27)
				)
				(hide yes)
			)
		)
		(pin "1"
			(uuid "144f76a8-0e0b-4c82-802d-5cb5729bccc6")
		)
		(instances
			(project "bias_controller"
				(path "/c9087306-c5f7-4203-b4d2-ad73ff81b231/d5b71baa-35d6-4c93-9f12-bbf3cd21e244"
					(reference "#PWR0702")
					(unit 1)
				)
			)
		)
	)
	(symbol
		(lib_id "power:GND")
		(at 209.55 66.04 0)
		(unit 1)
		(exclude_from_sim no)
		(in_bom yes)
		(on_board yes)
		(dnp no)
		(fields_autoplaced yes)
		(uuid "24686d3f-44a2-4844-acf3-42a4bdf08941")
		(property "Reference" "#PWR0707"
			(at 209.55 72.39 0)
			(effects
				(font
					(size 1.27 1.27)
				)
				(hide yes)
			)
		)
		(property "Value" "GND"
			(at 209.55 71.12 0)
			(effects
				(font
					(size 1.27 1.27)
				)
			)
		)
		(property "Footprint" ""
			(at 209.55 66.04 0)
			(effects
				(font
					(size 1.27 1.27)
				)
				(hide yes)
			)
		)
		(property "Datasheet" ""
			(at 209.55 66.04 0)
			(effects
				(font
					(size 1.27 1.27)
				)
				(hide yes)
			)
		)
		(property "Description" ""
			(at 209.55 66.04 0)
			(effects
				(font
					(size 1.27 1.27)
				)
				(hide yes)
			)
		)
		(pin "1"
			(uuid "058064a0-ff0d-4ce7-987f-0d7741a65b04")
		)
		(instances
			(project "bias_controller"
				(path "/c9087306-c5f7-4203-b4d2-ad73ff81b231/d5b71baa-35d6-4c93-9f12-bbf3cd21e244"
					(reference "#PWR0707")
					(unit 1)
				)
			)
		)
	)
	(symbol
		(lib_id "power:GND")
		(at 198.12 46.99 0)
		(unit 1)
		(exclude_from_sim no)
		(in_bom yes)
		(on_board yes)
		(dnp no)
		(fields_autoplaced yes)
		(uuid "3009e145-18d3-4efb-ab8c-6669df8f8c86")
		(property "Reference" "#PWR0705"
			(at 198.12 53.34 0)
			(effects
				(font
					(size 1.27 1.27)
				)
				(hide yes)
			)
		)
		(property "Value" "GND"
			(at 198.12 52.07 0)
			(effects
				(font
					(size 1.27 1.27)
				)
			)
		)
		(property "Footprint" ""
			(at 198.12 46.99 0)
			(effects
				(font
					(size 1.27 1.27)
				)
				(hide yes)
			)
		)
		(property "Datasheet" ""
			(at 198.12 46.99 0)
			(effects
				(font
					(size 1.27 1.27)
				)
				(hide yes)
			)
		)
		(property "Description" ""
			(at 198.12 46.99 0)
			(effects
				(font
					(size 1.27 1.27)
				)
				(hide yes)
			)
		)
		(pin "1"
			(uuid "1d657168-668c-48d2-bdcb-1b7afc5982b1")
		)
		(instances
			(project "bias_controller"
				(path "/c9087306-c5f7-4203-b4d2-ad73ff81b231/d5b71baa-35d6-4c93-9f12-bbf3cd21e244"
					(reference "#PWR0705")
					(unit 1)
				)
			)
		)
	)
	(symbol
		(lib_id "Device:R_Small")
		(at 193.04 57.15 0)
		(unit 1)
		(exclude_from_sim no)
		(in_bom yes)
		(on_board yes)
		(dnp no)
		(fields_autoplaced yes)
		(uuid "4a46da8d-8929-441d-a966-173bec8b0082")
		(property "Reference" "R703"
			(at 195.58 55.8799 0)
			(effects
				(font
					(size 1.27 1.27)
				)
				(justify left)
			)
		)
		(property "Value" "0.05"
			(at 195.58 58.4199 0)
			(effects
				(font
					(size 1.27 1.27)
				)
				(justify left)
			)
		)
		(property "Footprint" "Resistor_SMD:R_1206_3216Metric"
			(at 193.04 57.15 0)
			(effects
				(font
					(size 1.27 1.27)
				)
				(hide yes)
			)
		)
		(property "Datasheet" "~"
			(at 193.04 57.15 0)
			(effects
				(font
					(size 1.27 1.27)
				)
				(hide yes)
			)
		)
		(property "Description" ""
			(at 193.04 57.15 0)
			(effects
				(font
					(size 1.27 1.27)
				)
				(hide yes)
			)
		)
		(property "LCSC Part #" "C601088"
			(at 193.04 57.15 0)
			(effects
				(font
					(size 1.27 1.27)
				)
				(hide yes)
			)
		)
		(pin "1"
			(uuid "2538befe-9a26-4695-8af1-7ca06ed95bd0")
		)
		(pin "2"
			(uuid "50e4124c-e01d-4a4b-acf4-e10b2373a5b9")
		)
		(instances
			(project "bias_controller"
				(path "/c9087306-c5f7-4203-b4d2-ad73ff81b231/d5b71baa-35d6-4c93-9f12-bbf3cd21e244"
					(reference "R703")
					(unit 1)
				)
			)
		)
	)
	(symbol
		(lib_id "Power_Management:TPS22917DBV")
		(at 130.81 114.3 0)
		(unit 1)
		(exclude_from_sim no)
		(in_bom yes)
		(on_board yes)
		(dnp no)
		(fields_autoplaced yes)
		(uuid "4bae8a50-6437-4529-a87f-8e4ef6da0b80")
		(property "Reference" "U702"
			(at 130.81 104.14 0)
			(effects
				(font
					(size 1.27 1.27)
				)
			)
		)
		(property "Value" "TPS22917DBV"
			(at 130.81 106.68 0)
			(effects
				(font
					(size 1.27 1.27)
				)
			)
		)
		(property "Footprint" "Package_TO_SOT_SMD:SOT-23-6"
			(at 130.81 101.6 0)
			(effects
				(font
					(size 1.27 1.27)
				)
				(hide yes)
			)
		)
		(property "Datasheet" "http://www.ti.com/lit/ds/symlink/tps22917.pdf"
			(at 132.08 132.08 0)
			(effects
				(font
					(size 1.27 1.27)
				)
				(hide yes)
			)
		)
		(property "Description" ""
			(at 130.81 114.3 0)
			(effects
				(font
					(size 1.27 1.27)
				)
				(hide yes)
			)
		)
		(property "LCSC Part #" "C2681320"
			(at 130.81 114.3 0)
			(effects
				(font
					(size 1.27 1.27)
				)
				(hide yes)
			)
		)
		(pin "1"
			(uuid "fb591368-568d-4700-a104-790a58baa4bd")
		)
		(pin "2"
			(uuid "a14fad36-1adc-4ede-aadd-f7875a58bddf")
		)
		(pin "3"
			(uuid "d3e6c8ab-e5d8-4195-9d2e-bda7bb81acfc")
		)
		(pin "4"
			(uuid "ec024753-2bfa-4d9c-9882-ee63427da71c")
		)
		(pin "5"
			(uuid "feeeb275-59c4-47ce-a53f-c712f89bfde6")
		)
		(pin "6"
			(uuid "e79d59cd-71be-41ac-86bd-323d5592fec8")
		)
		(instances
			(project "bias_controller"
				(path "/c9087306-c5f7-4203-b4d2-ad73ff81b231/d5b71baa-35d6-4c93-9f12-bbf3cd21e244"
					(reference "U702")
					(unit 1)
				)
			)
		)
	)
	(symbol
		(lib_id "power:+3.3VP")
		(at 209.55 34.29 0)
		(unit 1)
		(exclude_from_sim no)
		(in_bom yes)
		(on_board yes)
		(dnp no)
		(fields_autoplaced yes)
		(uuid "631fcbd1-d169-4d8b-9aeb-3162b2fbdb93")
		(property "Reference" "#PWR0706"
			(at 213.36 35.56 0)
			(effects
				(font
					(size 1.27 1.27)
				)
				(hide yes)
			)
		)
		(property "Value" "+3.3VP"
			(at 209.55 29.21 0)
			(effects
				(font
					(size 1.27 1.27)
				)
			)
		)
		(property "Footprint" ""
			(at 209.55 34.29 0)
			(effects
				(font
					(size 1.27 1.27)
				)
				(hide yes)
			)
		)
		(property "Datasheet" ""
			(at 209.55 34.29 0)
			(effects
				(font
					(size 1.27 1.27)
				)
				(hide yes)
			)
		)
		(property "Description" ""
			(at 209.55 34.29 0)
			(effects
				(font
					(size 1.27 1.27)
				)
				(hide yes)
			)
		)
		(pin "1"
			(uuid "ae7a0c21-7962-4494-b6c1-7eaa04b8aac7")
		)
		(instances
			(project "bias_controller"
				(path "/c9087306-c5f7-4203-b4d2-ad73ff81b231/d5b71baa-35d6-4c93-9f12-bbf3cd21e244"
					(reference "#PWR0706")
					(unit 1)
				)
			)
		)
	)
	(symbol
		(lib_id "Device:R_Small")
		(at 149.86 41.91 0)
		(unit 1)
		(exclude_from_sim no)
		(in_bom yes)
		(on_board yes)
		(dnp no)
		(fields_autoplaced yes)
		(uuid "6532ecf9-57a8-47ea-993f-f4f138a86d4e")
		(property "Reference" "R701"
			(at 152.4 40.6399 0)
			(effects
				(font
					(size 1.27 1.27)
				)
				(justify left)
			)
		)
		(property "Value" "0"
			(at 152.4 43.1799 0)
			(effects
				(font
					(size 1.27 1.27)
				)
				(justify left)
			)
		)
		(property "Footprint" "Resistor_SMD:R_0402_1005Metric"
			(at 149.86 41.91 0)
			(effects
				(font
					(size 1.27 1.27)
				)
				(hide yes)
			)
		)
		(property "Datasheet" "~"
			(at 149.86 41.91 0)
			(effects
				(font
					(size 1.27 1.27)
				)
				(hide yes)
			)
		)
		(property "Description" ""
			(at 149.86 41.91 0)
			(effects
				(font
					(size 1.27 1.27)
				)
				(hide yes)
			)
		)
		(property "LCSC Part #" "C17168"
			(at 149.86 41.91 0)
			(effects
				(font
					(size 1.27 1.27)
				)
				(hide yes)
			)
		)
		(pin "1"
			(uuid "ae7418fb-bc81-4821-840d-90417163f6d5")
		)
		(pin "2"
			(uuid "c0cf656c-99eb-484b-9b72-c51a83ec21e4")
		)
		(instances
			(project "bias_controller"
				(path "/c9087306-c5f7-4203-b4d2-ad73ff81b231/d5b71baa-35d6-4c93-9f12-bbf3cd21e244"
					(reference "R701")
					(unit 1)
				)
			)
		)
	)
	(symbol
		(lib_id "Amplifier_Current:INA199xxDCK")
		(at 212.09 57.15 0)
		(unit 1)
		(exclude_from_sim no)
		(in_bom yes)
		(on_board yes)
		(dnp no)
		(uuid "899093a1-bf75-40d2-8dd2-d1f56ffc0b0a")
		(property "Reference" "U703"
			(at 215.9 49.53 0)
			(effects
				(font
					(size 1.27 1.27)
				)
			)
		)
		(property "Value" "INA199B1DCKR"
			(at 220.98 52.07 0)
			(effects
				(font
					(size 1.27 1.27)
				)
			)
		)
		(property "Footprint" "Package_TO_SOT_SMD:SOT-363_SC-70-6"
			(at 213.36 55.88 0)
			(effects
				(font
					(size 1.27 1.27)
				)
				(hide yes)
			)
		)
		(property "Datasheet" "http://www.ti.com/lit/ds/symlink/ina199.pdf"
			(at 215.9 53.34 0)
			(effects
				(font
					(size 1.27 1.27)
				)
				(hide yes)
			)
		)
		(property "Description" ""
			(at 212.09 57.15 0)
			(effects
				(font
					(size 1.27 1.27)
				)
				(hide yes)
			)
		)
		(property "LCSC Part #" "C398920"
			(at 212.09 57.15 0)
			(effects
				(font
					(size 1.27 1.27)
				)
				(hide yes)
			)
		)
		(pin "1"
			(uuid "eb35bd1c-8f4d-4a50-991c-495b6da4d310")
		)
		(pin "2"
			(uuid "f9ac34d8-f592-476c-af82-a602f863ce1a")
		)
		(pin "3"
			(uuid "976fb917-f656-4504-8300-1272fff97634")
		)
		(pin "4"
			(uuid "8df3699d-3a42-4ce9-ad41-57b2867dba9d")
		)
		(pin "5"
			(uuid "f92d307d-b588-447c-ae6e-d279ac81f92a")
		)
		(pin "6"
			(uuid "b0cc4f0f-3a6a-439a-9596-53be44bb9815")
		)
		(instances
			(project "bias_controller"
				(path "/c9087306-c5f7-4203-b4d2-ad73ff81b231/d5b71baa-35d6-4c93-9f12-bbf3cd21e244"
					(reference "U703")
					(unit 1)
				)
			)
		)
	)
	(symbol
		(lib_id "power:GND")
		(at 130.81 49.53 0)
		(unit 1)
		(exclude_from_sim no)
		(in_bom yes)
		(on_board yes)
		(dnp no)
		(fields_autoplaced yes)
		(uuid "943c1a2c-8259-4710-92da-862b4a0e7f54")
		(property "Reference" "#PWR0703"
			(at 130.81 55.88 0)
			(effects
				(font
					(size 1.27 1.27)
				)
				(hide yes)
			)
		)
		(property "Value" "GND"
			(at 130.81 54.61 0)
			(effects
				(font
					(size 1.27 1.27)
				)
			)
		)
		(property "Footprint" ""
			(at 130.81 49.53 0)
			(effects
				(font
					(size 1.27 1.27)
				)
				(hide yes)
			)
		)
		(property "Datasheet" ""
			(at 130.81 49.53 0)
			(effects
				(font
					(size 1.27 1.27)
				)
				(hide yes)
			)
		)
		(property "Description" ""
			(at 130.81 49.53 0)
			(effects
				(font
					(size 1.27 1.27)
				)
				(hide yes)
			)
		)
		(pin "1"
			(uuid "69edd6af-3de1-498d-aa4b-92bb7b90d85b")
		)
		(instances
			(project "bias_controller"
				(path "/c9087306-c5f7-4203-b4d2-ad73ff81b231/d5b71baa-35d6-4c93-9f12-bbf3cd21e244"
					(reference "#PWR0703")
					(unit 1)
				)
			)
		)
	)
	(symbol
		(lib_id "Device:C_Small")
		(at 110.49 119.38 90)
		(unit 1)
		(exclude_from_sim no)
		(in_bom yes)
		(on_board yes)
		(dnp no)
		(fields_autoplaced yes)
		(uuid "9799dbf0-c9de-4ea0-8d1a-3df6610ec694")
		(property "Reference" "C702"
			(at 110.4963 113.03 90)
			(effects
				(font
					(size 1.27 1.27)
				)
			)
		)
		(property "Value" "100 pF"
			(at 110.4963 115.57 90)
			(effects
				(font
					(size 1.27 1.27)
				)
			)
		)
		(property "Footprint" "Capacitor_SMD:C_0402_1005Metric"
			(at 110.49 119.38 0)
			(effects
				(font
					(size 1.27 1.27)
				)
				(hide yes)
			)
		)
		(property "Datasheet" "~"
			(at 110.49 119.38 0)
			(effects
				(font
					(size 1.27 1.27)
				)
				(hide yes)
			)
		)
		(property "Description" ""
			(at 110.49 119.38 0)
			(effects
				(font
					(size 1.27 1.27)
				)
				(hide yes)
			)
		)
		(property "LCSC Part #" "C1546"
			(at 110.49 119.38 0)
			(effects
				(font
					(size 1.27 1.27)
				)
				(hide yes)
			)
		)
		(pin "1"
			(uuid "5848156e-905d-476b-a883-e15fc4d5e0bd")
		)
		(pin "2"
			(uuid "467fa686-8216-4e19-a0f2-fb539b023c0f")
		)
		(instances
			(project "bias_controller"
				(path "/c9087306-c5f7-4203-b4d2-ad73ff81b231/d5b71baa-35d6-4c93-9f12-bbf3cd21e244"
					(reference "C702")
					(unit 1)
				)
			)
		)
	)
	(symbol
		(lib_id "Power_Management:TPS22917DBV")
		(at 130.81 39.37 0)
		(unit 1)
		(exclude_from_sim no)
		(in_bom yes)
		(on_board yes)
		(dnp no)
		(fields_autoplaced yes)
		(uuid "9ec03fbf-6b8e-4482-a112-c4bb331d7bfc")
		(property "Reference" "U701"
			(at 130.81 29.21 0)
			(effects
				(font
					(size 1.27 1.27)
				)
			)
		)
		(property "Value" "TPS22917DBV"
			(at 130.81 31.75 0)
			(effects
				(font
					(size 1.27 1.27)
				)
			)
		)
		(property "Footprint" "Package_TO_SOT_SMD:SOT-23-6"
			(at 130.81 26.67 0)
			(effects
				(font
					(size 1.27 1.27)
				)
				(hide yes)
			)
		)
		(property "Datasheet" "http://www.ti.com/lit/ds/symlink/tps22917.pdf"
			(at 132.08 57.15 0)
			(effects
				(font
					(size 1.27 1.27)
				)
				(hide yes)
			)
		)
		(property "Description" ""
			(at 130.81 39.37 0)
			(effects
				(font
					(size 1.27 1.27)
				)
				(hide yes)
			)
		)
		(property "LCSC Part #" "C2681320"
			(at 130.81 39.37 0)
			(effects
				(font
					(size 1.27 1.27)
				)
				(hide yes)
			)
		)
		(pin "1"
			(uuid "8d8c2aef-0b86-43e6-9b08-de1335fd6ef8")
		)
		(pin "2"
			(uuid "44aaef0e-ff32-4748-9a37-418fc83d1f84")
		)
		(pin "3"
			(uuid "7d70c60f-73b5-4592-8b55-d3a1340e699e")
		)
		(pin "4"
			(uuid "4553731c-07ea-441d-84fc-2e90d1ffb98c")
		)
		(pin "5"
			(uuid "bb2d11b8-c2c9-4c98-aa1d-14c3a5df2a54")
		)
		(pin "6"
			(uuid "7cab23be-8de0-4c99-99bd-b4c6f53c478d")
		)
		(instances
			(project "bias_controller"
				(path "/c9087306-c5f7-4203-b4d2-ad73ff81b231/d5b71baa-35d6-4c93-9f12-bbf3cd21e244"
					(reference "U701")
					(unit 1)
				)
			)
		)
	)
	(symbol
		(lib_id "Device:R_Small")
		(at 214.63 69.85 0)
		(unit 1)
		(exclude_from_sim no)
		(in_bom yes)
		(on_board yes)
		(dnp no)
		(fields_autoplaced yes)
		(uuid "a0f6da1e-7b43-4366-94ed-8d6b8519f05a")
		(property "Reference" "R704"
			(at 217.17 68.5799 0)
			(effects
				(font
					(size 1.27 1.27)
				)
				(justify left)
			)
		)
		(property "Value" "0"
			(at 217.17 71.1199 0)
			(effects
				(font
					(size 1.27 1.27)
				)
				(justify left)
			)
		)
		(property "Footprint" "Resistor_SMD:R_0402_1005Metric"
			(at 214.63 69.85 0)
			(effects
				(font
					(size 1.27 1.27)
				)
				(hide yes)
			)
		)
		(property "Datasheet" "~"
			(at 214.63 69.85 0)
			(effects
				(font
					(size 1.27 1.27)
				)
				(hide yes)
			)
		)
		(property "Description" ""
			(at 214.63 69.85 0)
			(effects
				(font
					(size 1.27 1.27)
				)
				(hide yes)
			)
		)
		(property "LCSC Part #" "C17168"
			(at 214.63 69.85 0)
			(effects
				(font
					(size 1.27 1.27)
				)
				(hide yes)
			)
		)
		(pin "1"
			(uuid "cb1c5812-8978-46eb-b550-df71c98b2afd")
		)
		(pin "2"
			(uuid "8401e8c5-c906-487e-889b-9b1666cbcef7")
		)
		(instances
			(project "bias_controller"
				(path "/c9087306-c5f7-4203-b4d2-ad73ff81b231/d5b71baa-35d6-4c93-9f12-bbf3cd21e244"
					(reference "R704")
					(unit 1)
				)
			)
		)
	)
	(symbol
		(lib_id "power:+3.3VP")
		(at 77.47 109.22 0)
		(unit 1)
		(exclude_from_sim no)
		(in_bom yes)
		(on_board yes)
		(dnp no)
		(fields_autoplaced yes)
		(uuid "b33afee3-fb46-4b98-8b4a-04a4bad78e89")
		(property "Reference" "#PWR0701"
			(at 81.28 110.49 0)
			(effects
				(font
					(size 1.27 1.27)
				)
				(hide yes)
			)
		)
		(property "Value" "+3.3VP"
			(at 77.47 104.14 0)
			(effects
				(font
					(size 1.27 1.27)
				)
			)
		)
		(property "Footprint" ""
			(at 77.47 109.22 0)
			(effects
				(font
					(size 1.27 1.27)
				)
				(hide yes)
			)
		)
		(property "Datasheet" ""
			(at 77.47 109.22 0)
			(effects
				(font
					(size 1.27 1.27)
				)
				(hide yes)
			)
		)
		(property "Description" ""
			(at 77.47 109.22 0)
			(effects
				(font
					(size 1.27 1.27)
				)
				(hide yes)
			)
		)
		(pin "1"
			(uuid "73f623f2-8548-429d-b09f-e7beb90d4af0")
		)
		(instances
			(project "bias_controller"
				(path "/c9087306-c5f7-4203-b4d2-ad73ff81b231/d5b71baa-35d6-4c93-9f12-bbf3cd21e244"
					(reference "#PWR0701")
					(unit 1)
				)
			)
		)
	)
	(symbol
		(lib_id "power:GND")
		(at 214.63 73.66 0)
		(unit 1)
		(exclude_from_sim no)
		(in_bom yes)
		(on_board yes)
		(dnp no)
		(fields_autoplaced yes)
		(uuid "d8b91d3c-69e3-4f86-87ff-a61158138173")
		(property "Reference" "#PWR0708"
			(at 214.63 80.01 0)
			(effects
				(font
					(size 1.27 1.27)
				)
				(hide yes)
			)
		)
		(property "Value" "GND"
			(at 214.63 78.74 0)
			(effects
				(font
					(size 1.27 1.27)
				)
			)
		)
		(property "Footprint" ""
			(at 214.63 73.66 0)
			(effects
				(font
					(size 1.27 1.27)
				)
				(hide yes)
			)
		)
		(property "Datasheet" ""
			(at 214.63 73.66 0)
			(effects
				(font
					(size 1.27 1.27)
				)
				(hide yes)
			)
		)
		(property "Description" ""
			(at 214.63 73.66 0)
			(effects
				(font
					(size 1.27 1.27)
				)
				(hide yes)
			)
		)
		(pin "1"
			(uuid "d9641e00-6549-4ead-b79d-923160c89a21")
		)
		(instances
			(project "bias_controller"
				(path "/c9087306-c5f7-4203-b4d2-ad73ff81b231/d5b71baa-35d6-4c93-9f12-bbf3cd21e244"
					(reference "#PWR0708")
					(unit 1)
				)
			)
		)
	)
	(symbol
		(lib_id "Device:C_Small")
		(at 110.49 44.45 90)
		(unit 1)
		(exclude_from_sim no)
		(in_bom yes)
		(on_board yes)
		(dnp no)
		(fields_autoplaced yes)
		(uuid "fecfcd1e-498c-472f-96e6-c293baa1f6ed")
		(property "Reference" "C701"
			(at 110.4963 38.1 90)
			(effects
				(font
					(size 1.27 1.27)
				)
			)
		)
		(property "Value" "100 pF"
			(at 110.4963 40.64 90)
			(effects
				(font
					(size 1.27 1.27)
				)
			)
		)
		(property "Footprint" "Capacitor_SMD:C_0402_1005Metric"
			(at 110.49 44.45 0)
			(effects
				(font
					(size 1.27 1.27)
				)
				(hide yes)
			)
		)
		(property "Datasheet" "~"
			(at 110.49 44.45 0)
			(effects
				(font
					(size 1.27 1.27)
				)
				(hide yes)
			)
		)
		(property "Description" ""
			(at 110.49 44.45 0)
			(effects
				(font
					(size 1.27 1.27)
				)
				(hide yes)
			)
		)
		(property "LCSC Part #" "C1546"
			(at 110.49 44.45 0)
			(effects
				(font
					(size 1.27 1.27)
				)
				(hide yes)
			)
		)
		(pin "1"
			(uuid "c3da58ec-31b9-482f-b50e-a5b88b2a630b")
		)
		(pin "2"
			(uuid "cb416c53-38f0-49ab-8a9a-b3651ec99ff3")
		)
		(instances
			(project "bias_controller"
				(path "/c9087306-c5f7-4203-b4d2-ad73ff81b231/d5b71baa-35d6-4c93-9f12-bbf3cd21e244"
					(reference "C701")
					(unit 1)
				)
			)
		)
	)
)