(kicad_sch (version 20230121) (generator eeschema)

  (uuid 63989edb-7353-4638-be83-d7561205b120)

  (paper "A")

  (title_block
    (title "TRS-80 Color Computer 2 (26-3134B & 26-3136B)")
    (date "2022-10-07")
    (rev "1.0.0")
    (company "Tandy Corporation")
    (comment 1 "Board # 20261058")
    (comment 3 "Reference board donated by MrDave6309")
    (comment 4 "Kicad schematic capture by Rocky Hill")
  )

  (lib_symbols
    (symbol "coco2-rescue:+5V-power" (power) (pin_names (offset 0)) (in_bom yes) (on_board yes)
      (property "Reference" "#PWR" (at 0 -3.81 0)
        (effects (font (size 1.27 1.27)) hide)
      )
      (property "Value" "+5V-power" (at 0 3.556 0)
        (effects (font (size 1.27 1.27)))
      )
      (property "Footprint" "" (at 0 0 0)
        (effects (font (size 1.27 1.27)) hide)
      )
      (property "Datasheet" "" (at 0 0 0)
        (effects (font (size 1.27 1.27)) hide)
      )
      (symbol "+5V-power_0_1"
        (polyline
          (pts
            (xy -0.762 1.27)
            (xy 0 2.54)
          )
          (stroke (width 0) (type default))
          (fill (type none))
        )
        (polyline
          (pts
            (xy 0 0)
            (xy 0 2.54)
          )
          (stroke (width 0) (type default))
          (fill (type none))
        )
        (polyline
          (pts
            (xy 0 2.54)
            (xy 0.762 1.27)
          )
          (stroke (width 0) (type default))
          (fill (type none))
        )
      )
      (symbol "+5V-power_1_1"
        (pin power_in line (at 0 0 90) (length 0) hide
          (name "+5V" (effects (font (size 1.27 1.27))))
          (number "1" (effects (font (size 1.27 1.27))))
        )
      )
    )
    (symbol "coco2-rescue:1N4002-Diode" (pin_numbers hide) (pin_names (offset 1.016) hide) (in_bom yes) (on_board yes)
      (property "Reference" "D" (at 0 2.54 0)
        (effects (font (size 1.27 1.27)))
      )
      (property "Value" "1N4002-Diode" (at 0 -2.54 0)
        (effects (font (size 1.27 1.27)))
      )
      (property "Footprint" "Diode_THT:D_DO-41_SOD81_P10.16mm_Horizontal" (at 0 -4.445 0)
        (effects (font (size 1.27 1.27)) hide)
      )
      (property "Datasheet" "" (at 0 0 0)
        (effects (font (size 1.27 1.27)) hide)
      )
      (property "ki_fp_filters" "D*DO?41*" (at 0 0 0)
        (effects (font (size 1.27 1.27)) hide)
      )
      (symbol "1N4002-Diode_0_1"
        (polyline
          (pts
            (xy -1.27 1.27)
            (xy -1.27 -1.27)
          )
          (stroke (width 0.254) (type default))
          (fill (type none))
        )
        (polyline
          (pts
            (xy 1.27 0)
            (xy -1.27 0)
          )
          (stroke (width 0) (type default))
          (fill (type none))
        )
        (polyline
          (pts
            (xy 1.27 1.27)
            (xy 1.27 -1.27)
            (xy -1.27 0)
            (xy 1.27 1.27)
          )
          (stroke (width 0.254) (type default))
          (fill (type none))
        )
      )
      (symbol "1N4002-Diode_1_1"
        (pin passive line (at -3.81 0 0) (length 2.54)
          (name "K" (effects (font (size 1.27 1.27))))
          (number "1" (effects (font (size 1.27 1.27))))
        )
        (pin passive line (at 3.81 0 180) (length 2.54)
          (name "A" (effects (font (size 1.27 1.27))))
          (number "2" (effects (font (size 1.27 1.27))))
        )
      )
    )
    (symbol "coco2-rescue:1N4148-Diode" (pin_numbers hide) (pin_names (offset 1.016) hide) (in_bom yes) (on_board yes)
      (property "Reference" "D" (at 0 2.54 0)
        (effects (font (size 1.27 1.27)))
      )
      (property "Value" "1N4148-Diode" (at 0 -2.54 0)
        (effects (font (size 1.27 1.27)))
      )
      (property "Footprint" "Diode_THT:D_DO-35_SOD27_P7.62mm_Horizontal" (at 0 -4.445 0)
        (effects (font (size 1.27 1.27)) hide)
      )
      (property "Datasheet" "" (at 0 0 0)
        (effects (font (size 1.27 1.27)) hide)
      )
      (property "ki_fp_filters" "D*DO?35*" (at 0 0 0)
        (effects (font (size 1.27 1.27)) hide)
      )
      (symbol "1N4148-Diode_0_1"
        (polyline
          (pts
            (xy -1.27 1.27)
            (xy -1.27 -1.27)
          )
          (stroke (width 0.254) (type default))
          (fill (type none))
        )
        (polyline
          (pts
            (xy 1.27 0)
            (xy -1.27 0)
          )
          (stroke (width 0) (type default))
          (fill (type none))
        )
        (polyline
          (pts
            (xy 1.27 1.27)
            (xy 1.27 -1.27)
            (xy -1.27 0)
            (xy 1.27 1.27)
          )
          (stroke (width 0.254) (type default))
          (fill (type none))
        )
      )
      (symbol "1N4148-Diode_1_1"
        (pin passive line (at -3.81 0 0) (length 2.54)
          (name "K" (effects (font (size 1.27 1.27))))
          (number "1" (effects (font (size 1.27 1.27))))
        )
        (pin passive line (at 3.81 0 180) (length 2.54)
          (name "A" (effects (font (size 1.27 1.27))))
          (number "2" (effects (font (size 1.27 1.27))))
        )
      )
    )
    (symbol "coco2-rescue:1N5401-Diode" (pin_numbers hide) (pin_names (offset 1.016) hide) (in_bom yes) (on_board yes)
      (property "Reference" "D" (at 0 2.54 0)
        (effects (font (size 1.27 1.27)))
      )
      (property "Value" "1N5401-Diode" (at 0 -2.54 0)
        (effects (font (size 1.27 1.27)))
      )
      (property "Footprint" "Diode_THT:D_DO-201AD_P15.24mm_Horizontal" (at 0 -4.445 0)
        (effects (font (size 1.27 1.27)) hide)
      )
      (property "Datasheet" "" (at 0 0 0)
        (effects (font (size 1.27 1.27)) hide)
      )
      (property "ki_fp_filters" "D*DO?201AD*" (at 0 0 0)
        (effects (font (size 1.27 1.27)) hide)
      )
      (symbol "1N5401-Diode_0_1"
        (polyline
          (pts
            (xy -1.27 1.27)
            (xy -1.27 -1.27)
          )
          (stroke (width 0.254) (type default))
          (fill (type none))
        )
        (polyline
          (pts
            (xy 1.27 0)
            (xy -1.27 0)
          )
          (stroke (width 0) (type default))
          (fill (type none))
        )
        (polyline
          (pts
            (xy 1.27 1.27)
            (xy 1.27 -1.27)
            (xy -1.27 0)
            (xy 1.27 1.27)
          )
          (stroke (width 0.254) (type default))
          (fill (type none))
        )
      )
      (symbol "1N5401-Diode_1_1"
        (pin passive line (at -3.81 0 0) (length 2.54)
          (name "K" (effects (font (size 1.27 1.27))))
          (number "1" (effects (font (size 1.27 1.27))))
        )
        (pin passive line (at 3.81 0 180) (length 2.54)
          (name "A" (effects (font (size 1.27 1.27))))
          (number "2" (effects (font (size 1.27 1.27))))
        )
      )
    )
    (symbol "coco2-rescue:CP_Small-Device" (pin_numbers hide) (pin_names (offset 0.254) hide) (in_bom yes) (on_board yes)
      (property "Reference" "C" (at 0.254 1.778 0)
        (effects (font (size 1.27 1.27)) (justify left))
      )
      (property "Value" "CP_Small-Device" (at 0.254 -2.032 0)
        (effects (font (size 1.27 1.27)) (justify left))
      )
      (property "Footprint" "" (at 0 0 0)
        (effects (font (size 1.27 1.27)) hide)
      )
      (property "Datasheet" "" (at 0 0 0)
        (effects (font (size 1.27 1.27)) hide)
      )
      (property "ki_fp_filters" "CP_*" (at 0 0 0)
        (effects (font (size 1.27 1.27)) hide)
      )
      (symbol "CP_Small-Device_0_1"
        (rectangle (start -1.524 -0.3048) (end 1.524 -0.6858)
          (stroke (width 0) (type default))
          (fill (type outline))
        )
        (rectangle (start -1.524 0.6858) (end 1.524 0.3048)
          (stroke (width 0) (type default))
          (fill (type none))
        )
        (polyline
          (pts
            (xy -1.27 1.524)
            (xy -0.762 1.524)
          )
          (stroke (width 0) (type default))
          (fill (type none))
        )
        (polyline
          (pts
            (xy -1.016 1.27)
            (xy -1.016 1.778)
          )
          (stroke (width 0) (type default))
          (fill (type none))
        )
      )
      (symbol "CP_Small-Device_1_1"
        (pin passive line (at 0 2.54 270) (length 1.8542)
          (name "~" (effects (font (size 1.27 1.27))))
          (number "1" (effects (font (size 1.27 1.27))))
        )
        (pin passive line (at 0 -2.54 90) (length 1.8542)
          (name "~" (effects (font (size 1.27 1.27))))
          (number "2" (effects (font (size 1.27 1.27))))
        )
      )
    )
    (symbol "coco2-rescue:C_Small-Device" (pin_numbers hide) (pin_names (offset 0.254) hide) (in_bom yes) (on_board yes)
      (property "Reference" "C" (at 0.254 1.778 0)
        (effects (font (size 1.27 1.27)) (justify left))
      )
      (property "Value" "C_Small-Device" (at 0.254 -2.032 0)
        (effects (font (size 1.27 1.27)) (justify left))
      )
      (property "Footprint" "" (at 0 0 0)
        (effects (font (size 1.27 1.27)) hide)
      )
      (property "Datasheet" "" (at 0 0 0)
        (effects (font (size 1.27 1.27)) hide)
      )
      (property "ki_fp_filters" "C_*" (at 0 0 0)
        (effects (font (size 1.27 1.27)) hide)
      )
      (symbol "C_Small-Device_0_1"
        (polyline
          (pts
            (xy -1.524 -0.508)
            (xy 1.524 -0.508)
          )
          (stroke (width 0.3302) (type default))
          (fill (type none))
        )
        (polyline
          (pts
            (xy -1.524 0.508)
            (xy 1.524 0.508)
          )
          (stroke (width 0.3048) (type default))
          (fill (type none))
        )
      )
      (symbol "C_Small-Device_1_1"
        (pin passive line (at 0 2.54 270) (length 2.032)
          (name "~" (effects (font (size 1.27 1.27))))
          (number "1" (effects (font (size 1.27 1.27))))
        )
        (pin passive line (at 0 -2.54 90) (length 2.032)
          (name "~" (effects (font (size 1.27 1.27))))
          (number "2" (effects (font (size 1.27 1.27))))
        )
      )
    )
    (symbol "coco2-rescue:Conn_01x01_Male-Connector" (pin_names (offset 1.016) hide) (in_bom yes) (on_board yes)
      (property "Reference" "J" (at 0 2.54 0)
        (effects (font (size 1.27 1.27)))
      )
      (property "Value" "Conn_01x01_Male-Connector" (at 0 -2.54 0)
        (effects (font (size 1.27 1.27)))
      )
      (property "Footprint" "" (at 0 0 0)
        (effects (font (size 1.27 1.27)) hide)
      )
      (property "Datasheet" "" (at 0 0 0)
        (effects (font (size 1.27 1.27)) hide)
      )
      (property "ki_fp_filters" "Connector*:*" (at 0 0 0)
        (effects (font (size 1.27 1.27)) hide)
      )
      (symbol "Conn_01x01_Male-Connector_1_1"
        (polyline
          (pts
            (xy 1.27 0)
            (xy 0.8636 0)
          )
          (stroke (width 0.1524) (type default))
          (fill (type none))
        )
        (rectangle (start 0.8636 0.127) (end 0 -0.127)
          (stroke (width 0.1524) (type default))
          (fill (type outline))
        )
        (pin passive line (at 5.08 0 180) (length 3.81)
          (name "Pin_1" (effects (font (size 1.27 1.27))))
          (number "1" (effects (font (size 1.27 1.27))))
        )
      )
    )
    (symbol "coco2-rescue:Ferrite_Bead_Small-Device" (pin_numbers hide) (pin_names (offset 0)) (in_bom yes) (on_board yes)
      (property "Reference" "FB" (at 1.905 1.27 0)
        (effects (font (size 1.27 1.27)) (justify left))
      )
      (property "Value" "Ferrite_Bead_Small-Device" (at 1.905 -1.27 0)
        (effects (font (size 1.27 1.27)) (justify left))
      )
      (property "Footprint" "" (at -1.778 0 90)
        (effects (font (size 1.27 1.27)) hide)
      )
      (property "Datasheet" "" (at 0 0 0)
        (effects (font (size 1.27 1.27)) hide)
      )
      (property "ki_fp_filters" "Inductor_* L_* *Ferrite*" (at 0 0 0)
        (effects (font (size 1.27 1.27)) hide)
      )
      (symbol "Ferrite_Bead_Small-Device_0_1"
        (polyline
          (pts
            (xy 0 -1.27)
            (xy 0 -0.7874)
          )
          (stroke (width 0) (type default))
          (fill (type none))
        )
        (polyline
          (pts
            (xy 0 0.889)
            (xy 0 1.2954)
          )
          (stroke (width 0) (type default))
          (fill (type none))
        )
        (polyline
          (pts
            (xy -1.8288 0.2794)
            (xy -1.1176 1.4986)
            (xy 1.8288 -0.2032)
            (xy 1.1176 -1.4224)
            (xy -1.8288 0.2794)
          )
          (stroke (width 0) (type default))
          (fill (type none))
        )
      )
      (symbol "Ferrite_Bead_Small-Device_1_1"
        (pin passive line (at 0 2.54 270) (length 1.27)
          (name "~" (effects (font (size 1.27 1.27))))
          (number "1" (effects (font (size 1.27 1.27))))
        )
        (pin passive line (at 0 -2.54 90) (length 1.27)
          (name "~" (effects (font (size 1.27 1.27))))
          (number "2" (effects (font (size 1.27 1.27))))
        )
      )
    )
    (symbol "coco2-rescue:GNDS-power" (power) (pin_names (offset 0)) (in_bom yes) (on_board yes)
      (property "Reference" "#PWR" (at 0 -6.35 0)
        (effects (font (size 1.27 1.27)) hide)
      )
      (property "Value" "GNDS-power" (at 0 -3.81 0)
        (effects (font (size 1.27 1.27)))
      )
      (property "Footprint" "" (at 0 0 0)
        (effects (font (size 1.27 1.27)) hide)
      )
      (property "Datasheet" "" (at 0 0 0)
        (effects (font (size 1.27 1.27)) hide)
      )
      (symbol "GNDS-power_0_1"
        (polyline
          (pts
            (xy 0 0)
            (xy 0 -1.27)
            (xy 1.27 -1.27)
            (xy 0 -2.54)
            (xy -1.27 -1.27)
            (xy 0 -1.27)
          )
          (stroke (width 0) (type default))
          (fill (type none))
        )
      )
      (symbol "GNDS-power_1_1"
        (pin power_in line (at 0 0 270) (length 0) hide
          (name "GNDS" (effects (font (size 1.27 1.27))))
          (number "1" (effects (font (size 1.27 1.27))))
        )
      )
    )
    (symbol "coco2-rescue:PWR_FLAG-power" (power) (pin_numbers hide) (pin_names (offset 0) hide) (in_bom yes) (on_board yes)
      (property "Reference" "#FLG" (at 0 1.905 0)
        (effects (font (size 1.27 1.27)) hide)
      )
      (property "Value" "PWR_FLAG-power" (at 0 3.81 0)
        (effects (font (size 1.27 1.27)))
      )
      (property "Footprint" "" (at 0 0 0)
        (effects (font (size 1.27 1.27)) hide)
      )
      (property "Datasheet" "" (at 0 0 0)
        (effects (font (size 1.27 1.27)) hide)
      )
      (symbol "PWR_FLAG-power_0_0"
        (pin power_out line (at 0 0 90) (length 0)
          (name "pwr" (effects (font (size 1.27 1.27))))
          (number "1" (effects (font (size 1.27 1.27))))
        )
      )
      (symbol "PWR_FLAG-power_0_1"
        (polyline
          (pts
            (xy 0 0)
            (xy 0 1.27)
            (xy -1.016 1.905)
            (xy 0 2.54)
            (xy 1.016 1.905)
            (xy 0 1.27)
          )
          (stroke (width 0) (type default))
          (fill (type none))
        )
      )
    )
    (symbol "coco2-rescue:R_Small_US-Device" (pin_numbers hide) (pin_names (offset 0.254) hide) (in_bom yes) (on_board yes)
      (property "Reference" "R" (at 0.762 0.508 0)
        (effects (font (size 1.27 1.27)) (justify left))
      )
      (property "Value" "R_Small_US-Device" (at 0.762 -1.016 0)
        (effects (font (size 1.27 1.27)) (justify left))
      )
      (property "Footprint" "" (at 0 0 0)
        (effects (font (size 1.27 1.27)) hide)
      )
      (property "Datasheet" "" (at 0 0 0)
        (effects (font (size 1.27 1.27)) hide)
      )
      (property "ki_fp_filters" "R_*" (at 0 0 0)
        (effects (font (size 1.27 1.27)) hide)
      )
      (symbol "R_Small_US-Device_1_1"
        (polyline
          (pts
            (xy 0 0)
            (xy 1.016 -0.381)
            (xy 0 -0.762)
            (xy -1.016 -1.143)
            (xy 0 -1.524)
          )
          (stroke (width 0) (type default))
          (fill (type none))
        )
        (polyline
          (pts
            (xy 0 1.524)
            (xy 1.016 1.143)
            (xy 0 0.762)
            (xy -1.016 0.381)
            (xy 0 0)
          )
          (stroke (width 0) (type default))
          (fill (type none))
        )
        (pin passive line (at 0 2.54 270) (length 1.016)
          (name "~" (effects (font (size 1.27 1.27))))
          (number "1" (effects (font (size 1.27 1.27))))
        )
        (pin passive line (at 0 -2.54 90) (length 1.016)
          (name "~" (effects (font (size 1.27 1.27))))
          (number "2" (effects (font (size 1.27 1.27))))
        )
      )
    )
    (symbol "coco2-rescue:SW_DPDT_x2-Switch" (pin_names (offset 0) hide) (in_bom yes) (on_board yes)
      (property "Reference" "SW" (at 0 4.318 0)
        (effects (font (size 1.27 1.27)))
      )
      (property "Value" "SW_DPDT_x2-Switch" (at 0 -5.08 0)
        (effects (font (size 1.27 1.27)))
      )
      (property "Footprint" "" (at 0 0 0)
        (effects (font (size 1.27 1.27)) hide)
      )
      (property "Datasheet" "" (at 0 0 0)
        (effects (font (size 1.27 1.27)) hide)
      )
      (property "ki_fp_filters" "SW*DPDT*" (at 0 0 0)
        (effects (font (size 1.27 1.27)) hide)
      )
      (symbol "SW_DPDT_x2-Switch_0_0"
        (circle (center -2.032 0) (radius 0.508)
          (stroke (width 0) (type default))
          (fill (type none))
        )
        (circle (center 2.032 -2.54) (radius 0.508)
          (stroke (width 0) (type default))
          (fill (type none))
        )
      )
      (symbol "SW_DPDT_x2-Switch_0_1"
        (polyline
          (pts
            (xy -1.524 0.254)
            (xy 1.651 2.286)
          )
          (stroke (width 0) (type default))
          (fill (type none))
        )
        (circle (center 2.032 2.54) (radius 0.508)
          (stroke (width 0) (type default))
          (fill (type none))
        )
      )
      (symbol "SW_DPDT_x2-Switch_1_1"
        (pin passive line (at 5.08 2.54 180) (length 2.54)
          (name "A" (effects (font (size 1.27 1.27))))
          (number "1" (effects (font (size 1.27 1.27))))
        )
        (pin passive line (at -5.08 0 0) (length 2.54)
          (name "B" (effects (font (size 1.27 1.27))))
          (number "2" (effects (font (size 1.27 1.27))))
        )
        (pin passive line (at 5.08 -2.54 180) (length 2.54)
          (name "C" (effects (font (size 1.27 1.27))))
          (number "3" (effects (font (size 1.27 1.27))))
        )
      )
      (symbol "SW_DPDT_x2-Switch_2_1"
        (pin passive line (at 5.08 2.54 180) (length 2.54)
          (name "A" (effects (font (size 1.27 1.27))))
          (number "4" (effects (font (size 1.27 1.27))))
        )
        (pin passive line (at -5.08 0 0) (length 2.54)
          (name "B" (effects (font (size 1.27 1.27))))
          (number "5" (effects (font (size 1.27 1.27))))
        )
        (pin passive line (at 5.08 -2.54 180) (length 2.54)
          (name "C" (effects (font (size 1.27 1.27))))
          (number "6" (effects (font (size 1.27 1.27))))
        )
      )
    )
    (symbol "coco2:SW_Push-Switch" (pin_numbers hide) (pin_names (offset 1.016) hide) (in_bom yes) (on_board yes)
      (property "Reference" "SW" (at 1.27 2.54 0)
        (effects (font (size 1.27 1.27)) (justify left))
      )
      (property "Value" "SW_Push-Switch" (at 0 -1.524 0)
        (effects (font (size 1.27 1.27)))
      )
      (property "Footprint" "" (at 0 5.08 0)
        (effects (font (size 1.27 1.27)) hide)
      )
      (property "Datasheet" "" (at 0 5.08 0)
        (effects (font (size 1.27 1.27)) hide)
      )
      (symbol "SW_Push-Switch_0_0"
        (text "GNDS" (at 3.81 -3.81 0)
          (effects (font (size 1.27 1.27)))
        )
      )
      (symbol "SW_Push-Switch_0_1"
        (circle (center -2.032 0) (radius 0.508)
          (stroke (width 0) (type default))
          (fill (type none))
        )
        (polyline
          (pts
            (xy 0 1.27)
            (xy 0 3.048)
          )
          (stroke (width 0) (type default))
          (fill (type none))
        )
        (polyline
          (pts
            (xy 2.54 1.27)
            (xy -2.54 1.27)
          )
          (stroke (width 0) (type default))
          (fill (type none))
        )
        (circle (center 2.032 0) (radius 0.508)
          (stroke (width 0) (type default))
          (fill (type none))
        )
        (pin passive line (at -5.08 0 0) (length 2.54)
          (name "1" (effects (font (size 1.27 1.27))))
          (number "1" (effects (font (size 1.27 1.27))))
        )
        (pin passive line (at 5.08 0 180) (length 2.54)
          (name "2" (effects (font (size 1.27 1.27))))
          (number "2" (effects (font (size 1.27 1.27))))
        )
      )
      (symbol "SW_Push-Switch_1_1"
        (pin passive line (at 8.89 -3.81 180) (length 2.54)
          (name "GNDS" (effects (font (size 1.27 1.27))))
          (number "GNDS" (effects (font (size 1.27 1.27))))
        )
      )
    )
  )

  (junction (at 107.95 166.37) (diameter 0) (color 0 0 0 0)
    (uuid 03656797-a43d-4a67-82d3-fc7aba46492d)
  )
  (junction (at 148.59 67.31) (diameter 0) (color 0 0 0 0)
    (uuid 0fc0e7e3-6658-4aad-b77e-f79619cfc034)
  )
  (junction (at 110.49 105.41) (diameter 0) (color 0 0 0 0)
    (uuid 1d896c44-27b4-42c2-ad9f-2619e31cd49a)
  )
  (junction (at 127 97.79) (diameter 0) (color 0 0 0 0)
    (uuid 205de957-b3ec-4850-a89c-e60cf7fdd745)
  )
  (junction (at 101.6 166.37) (diameter 0) (color 0 0 0 0)
    (uuid 24096e23-e31b-4a6b-b7db-5893cc67d6be)
  )
  (junction (at 88.9 105.41) (diameter 0) (color 0 0 0 0)
    (uuid 31c7638d-5aff-49d1-bc90-20f9b417daaa)
  )
  (junction (at 184.15 100.33) (diameter 0) (color 0 0 0 0)
    (uuid 49c3dd44-6947-4657-89cc-8444a184d5b8)
  )
  (junction (at 124.46 182.88) (diameter 0) (color 0 0 0 0)
    (uuid 56e2c8ab-83b4-4c67-894a-24644c3eef1b)
  )
  (junction (at 77.47 105.41) (diameter 0) (color 0 0 0 0)
    (uuid 5b2592a1-b90b-4e6c-9c6d-1998f173fb5b)
  )
  (junction (at 121.92 176.53) (diameter 0) (color 0 0 0 0)
    (uuid 5d0560ff-409b-4f8e-8f0d-49d3c7e3a98d)
  )
  (junction (at 107.95 158.75) (diameter 0) (color 0 0 0 0)
    (uuid 5d0dab56-5ad5-4125-b2a4-6103f1a92635)
  )
  (junction (at 102.87 69.85) (diameter 0) (color 0 0 0 0)
    (uuid 62ec1f30-ffa7-4457-a774-b57d339e40ae)
  )
  (junction (at 158.75 104.14) (diameter 0) (color 0 0 0 0)
    (uuid 84885b15-e5fa-4e4e-9e3b-a37343725d50)
  )
  (junction (at 127 120.65) (diameter 0) (color 0 0 0 0)
    (uuid 8b9ddd0f-675b-41d7-8267-bd39a08b5c4d)
  )
  (junction (at 127 111.76) (diameter 0) (color 0 0 0 0)
    (uuid 8eb50196-eb0a-473d-8097-4093cdb1f7fc)
  )
  (junction (at 179.07 90.17) (diameter 0) (color 0 0 0 0)
    (uuid 9b875efa-ab07-40a4-bcbb-6f5e2f01d785)
  )
  (junction (at 158.75 120.65) (diameter 0) (color 0 0 0 0)
    (uuid a345f6de-cc66-41be-a0e3-e4a9a00969d9)
  )
  (junction (at 148.59 77.47) (diameter 0) (color 0 0 0 0)
    (uuid af1d0a4f-81a8-4a33-8817-249ee22e2519)
  )
  (junction (at 144.78 104.14) (diameter 0) (color 0 0 0 0)
    (uuid d31590c5-b279-41ab-b2d5-09b3bdd412ec)
  )
  (junction (at 121.92 166.37) (diameter 0) (color 0 0 0 0)
    (uuid f2855869-26d8-4d2a-a789-218ffba8442b)
  )
  (junction (at 102.87 105.41) (diameter 0) (color 0 0 0 0)
    (uuid fac68959-ec2a-402f-b52f-eb6670dc2dc6)
  )

  (no_connect (at 151.13 55.88) (uuid 09a6f306-dcb8-453e-a07e-54608695abf6))
  (no_connect (at 100.33 55.88) (uuid 52fe30b3-8261-428e-b912-873e0187191a))

  (wire (pts (xy 121.92 176.53) (xy 121.92 182.88))
    (stroke (width 0) (type default))
    (uuid 08593136-5448-4dec-844a-ad09d41c7658)
  )
  (wire (pts (xy 127 120.65) (xy 127 130.81))
    (stroke (width 0) (type default))
    (uuid 08b50ade-e1e5-4b9b-aa5b-b81e3bf290c1)
  )
  (wire (pts (xy 100.33 105.41) (xy 102.87 105.41))
    (stroke (width 0) (type default))
    (uuid 0b7281ad-6821-427c-bf7c-adb6f9173334)
  )
  (wire (pts (xy 127 77.47) (xy 148.59 77.47))
    (stroke (width 0) (type default))
    (uuid 0c3e8c23-3ed8-4da2-bf64-6edb0d673444)
  )
  (wire (pts (xy 121.92 48.26) (xy 121.92 55.88))
    (stroke (width 0) (type default))
    (uuid 0ffe928c-1291-4dbf-9387-6ea593082982)
  )
  (wire (pts (xy 101.6 166.37) (xy 107.95 166.37))
    (stroke (width 0) (type default))
    (uuid 16006e9b-b4ac-42a2-916f-7e90b8f0b641)
  )
  (wire (pts (xy 209.55 100.33) (xy 184.15 100.33))
    (stroke (width 0) (type default))
    (uuid 1b267a58-3efd-4a52-859f-72f4e478b2c3)
  )
  (wire (pts (xy 132.08 48.26) (xy 132.08 55.88))
    (stroke (width 0) (type default))
    (uuid 1d8e0892-725e-4d1d-bd89-b154f7f690bd)
  )
  (wire (pts (xy 90.17 69.85) (xy 86.36 69.85))
    (stroke (width 0) (type default))
    (uuid 26481b28-e86a-4ab3-abb8-e187d1d8e534)
  )
  (wire (pts (xy 158.75 110.49) (xy 158.75 120.65))
    (stroke (width 0) (type default))
    (uuid 353ebccd-f9e7-41a4-b633-6573e009099a)
  )
  (wire (pts (xy 87.63 166.37) (xy 101.6 166.37))
    (stroke (width 0) (type default))
    (uuid 39c8cb73-cc98-423b-85f7-7a4bd356ead4)
  )
  (wire (pts (xy 102.87 69.85) (xy 102.87 71.12))
    (stroke (width 0) (type default))
    (uuid 3b73cd93-fc71-4ea3-9cec-fa85136dd686)
  )
  (wire (pts (xy 124.46 182.88) (xy 127 182.88))
    (stroke (width 0) (type default))
    (uuid 3ea6e697-417b-4e1e-af2f-e37d2f6e9edd)
  )
  (wire (pts (xy 102.87 105.41) (xy 110.49 105.41))
    (stroke (width 0) (type default))
    (uuid 3fee0ccb-1d67-44e9-8981-d3e2db02aeaa)
  )
  (wire (pts (xy 88.9 105.41) (xy 88.9 107.95))
    (stroke (width 0) (type default))
    (uuid 53229273-5f79-4d59-9d11-158f557a26cb)
  )
  (wire (pts (xy 107.95 156.21) (xy 107.95 158.75))
    (stroke (width 0) (type default))
    (uuid 542d869c-1972-40e4-8ac2-f2963f6321b0)
  )
  (wire (pts (xy 107.95 166.37) (xy 121.92 166.37))
    (stroke (width 0) (type default))
    (uuid 543f5b97-557b-448a-b3ca-55e23432e1ee)
  )
  (wire (pts (xy 148.59 67.31) (xy 148.59 66.04))
    (stroke (width 0) (type default))
    (uuid 592c7a6d-eac6-4fc4-8bbe-c0588d46059d)
  )
  (wire (pts (xy 184.15 134.62) (xy 184.15 100.33))
    (stroke (width 0) (type default))
    (uuid 5b320639-ee16-468b-8556-b9042355313a)
  )
  (wire (pts (xy 77.47 105.41) (xy 81.28 105.41))
    (stroke (width 0) (type default))
    (uuid 5f3e8df4-f016-498b-b4f6-a6d2a3f3700f)
  )
  (wire (pts (xy 148.59 73.66) (xy 148.59 77.47))
    (stroke (width 0) (type default))
    (uuid 5f81f77f-2feb-41b8-bda3-56634222dc34)
  )
  (wire (pts (xy 67.31 166.37) (xy 80.01 166.37))
    (stroke (width 0) (type default))
    (uuid 60caeb90-5079-4282-94e1-ba5563eccac5)
  )
  (wire (pts (xy 107.95 158.75) (xy 107.95 160.02))
    (stroke (width 0) (type default))
    (uuid 62f2ceec-e730-4aa1-a903-2f092ab6c8b7)
  )
  (wire (pts (xy 77.47 105.41) (xy 77.47 134.62))
    (stroke (width 0) (type default))
    (uuid 643afde1-9ee4-4b62-8ca0-d6fd9ca2dea4)
  )
  (wire (pts (xy 127 120.65) (xy 149.86 120.65))
    (stroke (width 0) (type default))
    (uuid 69809050-16cc-445f-99fc-0848ee12cb8e)
  )
  (wire (pts (xy 107.95 166.37) (xy 107.95 170.18))
    (stroke (width 0) (type default))
    (uuid 70389322-5924-43dc-8746-3c071f39c8ed)
  )
  (wire (pts (xy 184.15 100.33) (xy 184.15 97.79))
    (stroke (width 0) (type default))
    (uuid 7059b87b-5277-4331-99f4-8c85714e785a)
  )
  (wire (pts (xy 88.9 105.41) (xy 95.25 105.41))
    (stroke (width 0) (type default))
    (uuid 7292c639-d1f6-4a21-95d0-f75a8e1e2c70)
  )
  (wire (pts (xy 86.36 69.85) (xy 86.36 73.66))
    (stroke (width 0) (type default))
    (uuid 73d12ee4-ab37-4110-9c62-e4ce3ed292e3)
  )
  (wire (pts (xy 144.78 97.79) (xy 144.78 104.14))
    (stroke (width 0) (type default))
    (uuid 784c8959-1544-4e86-a2cc-79ba909e9146)
  )
  (wire (pts (xy 139.7 97.79) (xy 144.78 97.79))
    (stroke (width 0) (type default))
    (uuid 800c8d4a-ba07-4d4a-b24e-ade492683fb0)
  )
  (wire (pts (xy 114.3 97.79) (xy 110.49 97.79))
    (stroke (width 0) (type default))
    (uuid 8446a896-b622-4a0d-b838-0869432014ad)
  )
  (wire (pts (xy 110.49 97.79) (xy 110.49 105.41))
    (stroke (width 0) (type default))
    (uuid 850413ff-1aee-4f94-b4b7-1b4460806da5)
  )
  (wire (pts (xy 107.95 165.1) (xy 107.95 166.37))
    (stroke (width 0) (type default))
    (uuid 85354f98-0b2d-4b37-9883-1237be6078a5)
  )
  (wire (pts (xy 121.92 182.88) (xy 124.46 182.88))
    (stroke (width 0) (type default))
    (uuid 86031fc0-9672-4e46-bfed-2c6c0aaa20b9)
  )
  (wire (pts (xy 158.75 74.93) (xy 158.75 104.14))
    (stroke (width 0) (type default))
    (uuid 8ffcc2e2-b77d-4def-b11c-4704a6e41e0a)
  )
  (wire (pts (xy 184.15 134.62) (xy 77.47 134.62))
    (stroke (width 0) (type default))
    (uuid 90e5f08c-6403-4019-8fd8-c8640135b0bc)
  )
  (wire (pts (xy 121.92 55.88) (xy 105.41 55.88))
    (stroke (width 0) (type default))
    (uuid 956d4a70-43ad-4b0e-976b-7500346b4a13)
  )
  (wire (pts (xy 121.92 111.76) (xy 127 111.76))
    (stroke (width 0) (type default))
    (uuid 979545f5-b115-4d3b-87bb-11ffff4dd9bd)
  )
  (wire (pts (xy 101.6 158.75) (xy 107.95 158.75))
    (stroke (width 0) (type default))
    (uuid 9e3fbcf3-8ec6-4867-aca0-d023402cccc8)
  )
  (wire (pts (xy 124.46 182.88) (xy 124.46 185.42))
    (stroke (width 0) (type default))
    (uuid a69b7507-e4e0-406f-83ab-199188ae1650)
  )
  (wire (pts (xy 127 111.76) (xy 127 120.65))
    (stroke (width 0) (type default))
    (uuid a98e33cd-75d7-4548-8f4e-0de8f2d936c8)
  )
  (wire (pts (xy 77.47 105.41) (xy 66.04 105.41))
    (stroke (width 0) (type default))
    (uuid ae6a2113-fb2f-4e12-9910-4e031b7fe65f)
  )
  (wire (pts (xy 179.07 130.81) (xy 179.07 90.17))
    (stroke (width 0) (type default))
    (uuid b24dee3d-0ec8-46ff-9b80-6ac5e1f0effc)
  )
  (wire (pts (xy 127 92.71) (xy 127 97.79))
    (stroke (width 0) (type default))
    (uuid b4da5087-30eb-4119-a6b1-4cd1486c9a07)
  )
  (wire (pts (xy 110.49 105.41) (xy 110.49 111.76))
    (stroke (width 0) (type default))
    (uuid b7eb894b-e08d-4109-9722-351e22f6b048)
  )
  (wire (pts (xy 110.49 111.76) (xy 114.3 111.76))
    (stroke (width 0) (type default))
    (uuid b7ec3cf9-3a05-41fd-b7b9-aad266b01e7f)
  )
  (wire (pts (xy 158.75 104.14) (xy 144.78 104.14))
    (stroke (width 0) (type default))
    (uuid beaa6212-f429-44cc-9410-dc40ed1a7185)
  )
  (wire (pts (xy 130.81 176.53) (xy 121.92 176.53))
    (stroke (width 0) (type default))
    (uuid c1498c4e-e8c3-4752-9497-8e1987e7dbf6)
  )
  (wire (pts (xy 107.95 177.8) (xy 107.95 184.15))
    (stroke (width 0) (type default))
    (uuid c302a6e1-99cd-496d-bf91-45a5ce028210)
  )
  (wire (pts (xy 158.75 121.92) (xy 158.75 120.65))
    (stroke (width 0) (type default))
    (uuid c90a5838-e9e3-40e2-88be-7acac236e34a)
  )
  (wire (pts (xy 148.59 77.47) (xy 148.59 82.55))
    (stroke (width 0) (type default))
    (uuid d46b468b-e276-4906-a893-fffb71b06b7a)
  )
  (wire (pts (xy 179.07 130.81) (xy 127 130.81))
    (stroke (width 0) (type default))
    (uuid d5be6ce0-9702-42f2-b802-1eefdceb1317)
  )
  (wire (pts (xy 102.87 76.2) (xy 102.87 105.41))
    (stroke (width 0) (type default))
    (uuid d6b41f83-0461-4bfb-8df1-6a7056c87646)
  )
  (wire (pts (xy 127 97.79) (xy 132.08 97.79))
    (stroke (width 0) (type default))
    (uuid d976a8dc-9969-4e83-94d0-42c937dc80f7)
  )
  (wire (pts (xy 158.75 105.41) (xy 158.75 104.14))
    (stroke (width 0) (type default))
    (uuid d9c86304-aaee-4ef4-a862-b0c3606140d7)
  )
  (wire (pts (xy 209.55 90.17) (xy 179.07 90.17))
    (stroke (width 0) (type default))
    (uuid dba380d6-d6ae-48e3-bb13-1f4ce8c7ba87)
  )
  (wire (pts (xy 41.91 184.15) (xy 107.95 184.15))
    (stroke (width 0) (type default))
    (uuid dd9f5776-82e8-4423-8e55-503cd20f6194)
  )
  (wire (pts (xy 158.75 120.65) (xy 154.94 120.65))
    (stroke (width 0) (type default))
    (uuid df23a398-194b-4ee0-95a9-dd514af5e984)
  )
  (wire (pts (xy 88.9 105.41) (xy 86.36 105.41))
    (stroke (width 0) (type default))
    (uuid e3db5721-dd99-4d13-81af-bca738a9e662)
  )
  (wire (pts (xy 127 111.76) (xy 132.08 111.76))
    (stroke (width 0) (type default))
    (uuid e5f7ae10-e87f-4776-8912-a51af709ff28)
  )
  (wire (pts (xy 95.25 69.85) (xy 102.87 69.85))
    (stroke (width 0) (type default))
    (uuid ea0fac44-b995-4501-84b4-849d74b79738)
  )
  (wire (pts (xy 144.78 111.76) (xy 139.7 111.76))
    (stroke (width 0) (type default))
    (uuid ed60070e-631f-4799-abfa-d8cebf862914)
  )
  (wire (pts (xy 77.47 92.71) (xy 77.47 105.41))
    (stroke (width 0) (type default))
    (uuid edf7d693-5b34-40ff-9a6d-920ba350d07f)
  )
  (wire (pts (xy 144.78 104.14) (xy 144.78 111.76))
    (stroke (width 0) (type default))
    (uuid eed5ab04-bfe4-490e-bd19-1a4242575d5f)
  )
  (wire (pts (xy 102.87 66.04) (xy 102.87 69.85))
    (stroke (width 0) (type default))
    (uuid f07e5090-7fb3-45ac-ab23-48c8c085dd42)
  )
  (wire (pts (xy 127 92.71) (xy 77.47 92.71))
    (stroke (width 0) (type default))
    (uuid f1abe19a-f86c-4083-a426-ac1b436b7409)
  )
  (wire (pts (xy 158.75 67.31) (xy 148.59 67.31))
    (stroke (width 0) (type default))
    (uuid f1d15a28-b0a2-40c5-8aeb-7100a66977fb)
  )
  (wire (pts (xy 127 48.26) (xy 127 77.47))
    (stroke (width 0) (type default))
    (uuid f1e0b8fe-3e79-4246-a3f0-aa6ca896875e)
  )
  (wire (pts (xy 121.92 166.37) (xy 130.81 166.37))
    (stroke (width 0) (type default))
    (uuid f22159a3-b0ff-457a-89c6-fc03a8b08ba5)
  )
  (wire (pts (xy 148.59 68.58) (xy 148.59 67.31))
    (stroke (width 0) (type default))
    (uuid f36fba6d-3df2-4849-baf2-c7d9f617fbb8)
  )
  (wire (pts (xy 127 182.88) (xy 127 180.34))
    (stroke (width 0) (type default))
    (uuid f5196141-c421-47c3-a568-0deed347a999)
  )
  (wire (pts (xy 121.92 171.45) (xy 121.92 176.53))
    (stroke (width 0) (type default))
    (uuid f5469146-3f6b-4609-953d-01b2329608c5)
  )
  (wire (pts (xy 132.08 55.88) (xy 146.05 55.88))
    (stroke (width 0) (type default))
    (uuid f612f95d-7a61-43d8-a839-9ed557ccdbaa)
  )
  (wire (pts (xy 121.92 97.79) (xy 127 97.79))
    (stroke (width 0) (type default))
    (uuid f8a19613-4406-45e6-88b2-46dc573b9870)
  )
  (wire (pts (xy 158.75 69.85) (xy 158.75 67.31))
    (stroke (width 0) (type default))
    (uuid fa2f4b1d-5dc8-4bde-b083-f07a5e420bc0)
  )
  (wire (pts (xy 66.04 105.41) (xy 66.04 107.95))
    (stroke (width 0) (type default))
    (uuid fbbb8473-c7f5-4354-84c7-4e8dace415fb)
  )

  (hierarchical_label "-SALT_VIN" (shape output) (at 209.55 100.33 0) (fields_autoplaced)
    (effects (font (size 1.27 1.27)) (justify left))
    (uuid 107a74e6-297b-4848-a942-21a8360159b3)
  )
  (hierarchical_label "~{RESET}" (shape output) (at 41.91 184.15 180) (fields_autoplaced)
    (effects (font (size 1.27 1.27)) (justify right))
    (uuid 3fb991b4-332f-417f-a39d-e5693548224d)
  )
  (hierarchical_label "+SALT_VIN" (shape output) (at 209.55 90.17 0) (fields_autoplaced)
    (effects (font (size 1.27 1.27)) (justify left))
    (uuid 50e169ba-3a2e-41ed-93fe-c5a2786976b0)
  )
  (hierarchical_label "VDGCLK" (shape input) (at 67.31 166.37 180) (fields_autoplaced)
    (effects (font (size 1.27 1.27)) (justify right))
    (uuid 8f9e9cf6-c655-4cf6-aadc-10226eaa5a44)
  )

  (symbol (lib_id "coco2-rescue:C_Small-Device") (at 148.59 71.12 0) (unit 1)
    (in_bom yes) (on_board yes) (dnp no)
    (uuid 00000000-0000-0000-0000-00006029905d)
    (property "Reference" "C42" (at 142.24 71.12 0)
      (effects (font (size 1.27 1.27)) (justify left))
    )
    (property "Value" ".022uF" (at 140.97 74.93 0)
      (effects (font (size 1.27 1.27)) (justify left))
    )
    (property "Footprint" "Capacitor_THT:C_Disc_D8.0mm_W2.5mm_P5.00mm" (at 148.59 71.12 0)
      (effects (font (size 1.27 1.27)) hide)
    )
    (property "Datasheet" "https://api.kemet.com/component-edge/download/datasheet/C317C223M5U5TA7301.pdf" (at 148.59 71.12 0)
      (effects (font (size 1.27 1.27)) hide)
    )
    (property "Vendor" "digikey" (at 148.59 71.12 0)
      (effects (font (size 1.27 1.27)) hide)
    )
    (property "Vendor part#" "399-14073-1-ND" (at 148.59 71.12 0)
      (effects (font (size 1.27 1.27)) hide)
    )
    (property "Manufacturer part#" "C317C223M5U5TA7301" (at 148.59 71.12 0)
      (effects (font (size 1.27 1.27)) hide)
    )
    (pin "1" (uuid 9d2677d2-b961-4f59-a084-2ddead599f9b))
    (pin "2" (uuid 10bda120-30ee-40bd-9082-b62c644f0321))
    (instances
      (project "coco2"
        (path "/4da7874e-d887-4a2f-9386-b4d7f0215f19/00000000-0000-0000-0000-0000602a51a8"
          (reference "C42") (unit 1)
        )
      )
    )
  )

  (symbol (lib_id "coco2-rescue:C_Small-Device") (at 92.71 69.85 270) (unit 1)
    (in_bom yes) (on_board yes) (dnp no)
    (uuid 00000000-0000-0000-0000-00006029a195)
    (property "Reference" "C43" (at 92.71 64.0334 90)
      (effects (font (size 1.27 1.27)))
    )
    (property "Value" ".022uF" (at 92.71 66.3448 90)
      (effects (font (size 1.27 1.27)))
    )
    (property "Footprint" "Capacitor_THT:C_Disc_D8.0mm_W2.5mm_P5.00mm" (at 92.71 69.85 0)
      (effects (font (size 1.27 1.27)) hide)
    )
    (property "Datasheet" "https://api.kemet.com/component-edge/download/datasheet/C317C223M5U5TA7301.pdf" (at 92.71 69.85 0)
      (effects (font (size 1.27 1.27)) hide)
    )
    (property "Vendor" "digikey" (at 92.71 69.85 0)
      (effects (font (size 1.27 1.27)) hide)
    )
    (property "Vendor part#" "399-14073-1-ND" (at 92.71 69.85 0)
      (effects (font (size 1.27 1.27)) hide)
    )
    (property "Manufacturer part#" "C317C223M5U5TA7301" (at 92.71 69.85 0)
      (effects (font (size 1.27 1.27)) hide)
    )
    (pin "1" (uuid 7b635e7c-9e59-4493-a714-f8f31838f71f))
    (pin "2" (uuid 374107ce-5382-433f-8001-1979479d5b2c))
    (instances
      (project "coco2"
        (path "/4da7874e-d887-4a2f-9386-b4d7f0215f19/00000000-0000-0000-0000-0000602a51a8"
          (reference "C43") (unit 1)
        )
      )
    )
  )

  (symbol (lib_id "coco2-rescue:C_Small-Device") (at 97.79 105.41 270) (unit 1)
    (in_bom yes) (on_board yes) (dnp no)
    (uuid 00000000-0000-0000-0000-00006029a833)
    (property "Reference" "C40" (at 97.79 99.5934 90)
      (effects (font (size 1.27 1.27)))
    )
    (property "Value" ".022uF" (at 97.79 101.9048 90)
      (effects (font (size 1.27 1.27)))
    )
    (property "Footprint" "Capacitor_THT:C_Disc_D8.0mm_W2.5mm_P5.00mm" (at 97.79 105.41 0)
      (effects (font (size 1.27 1.27)) hide)
    )
    (property "Datasheet" "https://api.kemet.com/component-edge/download/datasheet/C317C223M5U5TA7301.pdf" (at 97.79 105.41 0)
      (effects (font (size 1.27 1.27)) hide)
    )
    (property "Vendor" "digikey" (at 97.79 105.41 0)
      (effects (font (size 1.27 1.27)) hide)
    )
    (property "Vendor part#" "399-14073-1-ND" (at 97.79 105.41 0)
      (effects (font (size 1.27 1.27)) hide)
    )
    (property "Manufacturer part#" "C317C223M5U5TA7301" (at 97.79 105.41 0)
      (effects (font (size 1.27 1.27)) hide)
    )
    (pin "1" (uuid 1065fa93-7de0-4d6f-88cd-7a50f6781558))
    (pin "2" (uuid eea43f8d-7e8c-42c9-a07e-44c1d0036934))
    (instances
      (project "coco2"
        (path "/4da7874e-d887-4a2f-9386-b4d7f0215f19/00000000-0000-0000-0000-0000602a51a8"
          (reference "C40") (unit 1)
        )
      )
    )
  )

  (symbol (lib_id "coco2-rescue:C_Small-Device") (at 158.75 107.95 0) (unit 1)
    (in_bom yes) (on_board yes) (dnp no)
    (uuid 00000000-0000-0000-0000-00006029b20f)
    (property "Reference" "C41" (at 161.0868 106.7816 0)
      (effects (font (size 1.27 1.27)) (justify left))
    )
    (property "Value" ".022uF" (at 161.0868 109.093 0)
      (effects (font (size 1.27 1.27)) (justify left))
    )
    (property "Footprint" "Capacitor_THT:C_Disc_D8.0mm_W2.5mm_P5.00mm" (at 158.75 107.95 0)
      (effects (font (size 1.27 1.27)) hide)
    )
    (property "Datasheet" "https://api.kemet.com/component-edge/download/datasheet/C317C223M5U5TA7301.pdf" (at 158.75 107.95 0)
      (effects (font (size 1.27 1.27)) hide)
    )
    (property "Vendor" "digikey" (at 158.75 107.95 0)
      (effects (font (size 1.27 1.27)) hide)
    )
    (property "Vendor part#" "399-14073-1-ND" (at 158.75 107.95 0)
      (effects (font (size 1.27 1.27)) hide)
    )
    (property "Manufacturer part#" "C317C223M5U5TA7301" (at 158.75 107.95 0)
      (effects (font (size 1.27 1.27)) hide)
    )
    (pin "1" (uuid f2eb8545-d1eb-4877-b458-1ae37bef8506))
    (pin "2" (uuid b856701f-6bcb-4168-9055-8dbb754eba2d))
    (instances
      (project "coco2"
        (path "/4da7874e-d887-4a2f-9386-b4d7f0215f19/00000000-0000-0000-0000-0000602a51a8"
          (reference "C41") (unit 1)
        )
      )
    )
  )

  (symbol (lib_id "coco2-rescue:1N4002-Diode") (at 118.11 97.79 0) (unit 1)
    (in_bom yes) (on_board yes) (dnp no)
    (uuid 00000000-0000-0000-0000-0000602a863e)
    (property "Reference" "D8" (at 118.11 95.25 0)
      (effects (font (size 1.27 1.27)))
    )
    (property "Value" "1N4002" (at 118.11 100.33 0)
      (effects (font (size 1.27 1.27)))
    )
    (property "Footprint" "Diode_THT:D_DO-41_SOD81_P10.16mm_Horizontal" (at 118.11 102.235 0)
      (effects (font (size 1.27 1.27)) hide)
    )
    (property "Datasheet" "https://www.diodes.com/assets/Datasheets/ds29002.pdf" (at 118.11 97.79 0)
      (effects (font (size 1.27 1.27)) hide)
    )
    (property "Vendor" "digikey" (at 118.11 97.79 0)
      (effects (font (size 1.27 1.27)) hide)
    )
    (property "Vendor part#" "1N4002GDICT-ND" (at 118.11 97.79 0)
      (effects (font (size 1.27 1.27)) hide)
    )
    (property "Manufacturer part#" "1N4002G-T" (at 118.11 97.79 0)
      (effects (font (size 1.27 1.27)) hide)
    )
    (pin "1" (uuid 48d52834-0821-46bd-9246-165c83b2b4c2))
    (pin "2" (uuid 5b53ec0c-f27d-4321-8fe2-be86cdd81d6a))
    (instances
      (project "coco2"
        (path "/4da7874e-d887-4a2f-9386-b4d7f0215f19/00000000-0000-0000-0000-0000602a51a8"
          (reference "D8") (unit 1)
        )
      )
    )
  )

  (symbol (lib_id "coco2-rescue:1N4002-Diode") (at 135.89 97.79 180) (unit 1)
    (in_bom yes) (on_board yes) (dnp no)
    (uuid 00000000-0000-0000-0000-0000602ac243)
    (property "Reference" "D9" (at 135.89 95.25 0)
      (effects (font (size 1.27 1.27)))
    )
    (property "Value" "1N4002" (at 135.89 100.33 0)
      (effects (font (size 1.27 1.27)))
    )
    (property "Footprint" "Diode_THT:D_DO-41_SOD81_P10.16mm_Horizontal" (at 135.89 93.345 0)
      (effects (font (size 1.27 1.27)) hide)
    )
    (property "Datasheet" "https://www.diodes.com/assets/Datasheets/ds29002.pdf" (at 135.89 97.79 0)
      (effects (font (size 1.27 1.27)) hide)
    )
    (property "Vendor" "digikey" (at 135.89 97.79 0)
      (effects (font (size 1.27 1.27)) hide)
    )
    (property "Vendor part#" "1N4002GDICT-ND" (at 135.89 97.79 0)
      (effects (font (size 1.27 1.27)) hide)
    )
    (property "Manufacturer part#" "1N4002G-T" (at 135.89 97.79 0)
      (effects (font (size 1.27 1.27)) hide)
    )
    (pin "1" (uuid c57b684d-41e8-4b75-9150-4b26e2576f8f))
    (pin "2" (uuid 1e3cc410-e88d-4e5d-aaac-1926f778b9bf))
    (instances
      (project "coco2"
        (path "/4da7874e-d887-4a2f-9386-b4d7f0215f19/00000000-0000-0000-0000-0000602a51a8"
          (reference "D9") (unit 1)
        )
      )
    )
  )

  (symbol (lib_id "coco2-rescue:1N5401-Diode") (at 118.11 111.76 180) (unit 1)
    (in_bom yes) (on_board yes) (dnp no)
    (uuid 00000000-0000-0000-0000-0000602acdc6)
    (property "Reference" "D10" (at 118.11 106.2482 0)
      (effects (font (size 1.27 1.27)))
    )
    (property "Value" "1N5401" (at 118.11 108.5596 0)
      (effects (font (size 1.27 1.27)))
    )
    (property "Footprint" "Diode_THT:D_DO-201AD_P15.24mm_Horizontal" (at 118.11 107.315 0)
      (effects (font (size 1.27 1.27)) hide)
    )
    (property "Datasheet" "https://www.diodes.com/assets/Datasheets/ds29003.pdf" (at 118.11 111.76 0)
      (effects (font (size 1.27 1.27)) hide)
    )
    (property "Vendor" "digikey" (at 118.11 111.76 0)
      (effects (font (size 1.27 1.27)) hide)
    )
    (property "Vendor part#" "1N5401GDICT-ND" (at 118.11 111.76 0)
      (effects (font (size 1.27 1.27)) hide)
    )
    (property "Manufacturer part#" "1N5401G-T" (at 118.11 111.76 0)
      (effects (font (size 1.27 1.27)) hide)
    )
    (pin "1" (uuid 5eb9b85b-2884-4af6-b05d-21f1659e588b))
    (pin "2" (uuid a2eacc68-d2fc-43d1-917a-974ee10dd6f8))
    (instances
      (project "coco2"
        (path "/4da7874e-d887-4a2f-9386-b4d7f0215f19/00000000-0000-0000-0000-0000602a51a8"
          (reference "D10") (unit 1)
        )
      )
    )
  )

  (symbol (lib_id "coco2-rescue:1N5401-Diode") (at 135.89 111.76 0) (unit 1)
    (in_bom yes) (on_board yes) (dnp no)
    (uuid 00000000-0000-0000-0000-0000602ae323)
    (property "Reference" "D11" (at 135.89 106.2482 0)
      (effects (font (size 1.27 1.27)))
    )
    (property "Value" "1N5401" (at 135.89 108.5596 0)
      (effects (font (size 1.27 1.27)))
    )
    (property "Footprint" "Diode_THT:D_DO-201AD_P15.24mm_Horizontal" (at 135.89 116.205 0)
      (effects (font (size 1.27 1.27)) hide)
    )
    (property "Datasheet" "https://www.diodes.com/assets/Datasheets/ds29003.pdf" (at 135.89 111.76 0)
      (effects (font (size 1.27 1.27)) hide)
    )
    (property "Vendor" "digikey" (at 135.89 111.76 0)
      (effects (font (size 1.27 1.27)) hide)
    )
    (property "Vendor part#" "1N5401GDICT-ND" (at 135.89 111.76 0)
      (effects (font (size 1.27 1.27)) hide)
    )
    (property "Manufacturer part#" "1N5401G-T" (at 135.89 111.76 0)
      (effects (font (size 1.27 1.27)) hide)
    )
    (pin "1" (uuid c0fed426-dc68-4341-aedf-6c3b242df6aa))
    (pin "2" (uuid 40e2acb8-3af6-47d3-9408-882a9edcdabb))
    (instances
      (project "coco2"
        (path "/4da7874e-d887-4a2f-9386-b4d7f0215f19/00000000-0000-0000-0000-0000602a51a8"
          (reference "D11") (unit 1)
        )
      )
    )
  )

  (symbol (lib_id "coco2-rescue:Conn_01x01_Male-Connector") (at 127 43.18 270) (unit 1)
    (in_bom yes) (on_board yes) (dnp no)
    (uuid 00000000-0000-0000-0000-0000602b83e3)
    (property "Reference" "A3" (at 125.73 41.91 90)
      (effects (font (size 1.27 1.27)) (justify left))
    )
    (property "Value" "A3" (at 125.73 38.1 90)
      (effects (font (size 1.27 1.27)) (justify left))
    )
    (property "Footprint" "coco2:power_connector_post" (at 127 43.18 0)
      (effects (font (size 1.27 1.27)) hide)
    )
    (property "Datasheet" "https://www.mill-max.com/catalog/download/2020-01%3A221.1.pdf" (at 127 43.18 0)
      (effects (font (size 1.27 1.27)) hide)
    )
    (property "Vendor" "digikey" (at 127 43.18 90)
      (effects (font (size 1.27 1.27)) hide)
    )
    (property "Vendor part#" "ED11524-ND" (at 127 43.18 90)
      (effects (font (size 1.27 1.27)) hide)
    )
    (property "Manufacturer part#" "6331-0-00-15-00-00-08-0" (at 127 43.18 90)
      (effects (font (size 1.27 1.27)) hide)
    )
    (pin "1" (uuid a179f6af-c26a-4aaa-a5f6-0218ddd9833c))
    (instances
      (project "coco2"
        (path "/4da7874e-d887-4a2f-9386-b4d7f0215f19/00000000-0000-0000-0000-0000602a51a8"
          (reference "A3") (unit 1)
        )
      )
    )
  )

  (symbol (lib_id "coco2-rescue:Conn_01x01_Male-Connector") (at 121.92 43.18 270) (unit 1)
    (in_bom yes) (on_board yes) (dnp no)
    (uuid 00000000-0000-0000-0000-0000602ba0e4)
    (property "Reference" "A1" (at 120.65 41.91 90)
      (effects (font (size 1.27 1.27)) (justify left))
    )
    (property "Value" "A1" (at 120.65 38.1 90)
      (effects (font (size 1.27 1.27)) (justify left))
    )
    (property "Footprint" "coco2:power_connector_post" (at 121.92 43.18 0)
      (effects (font (size 1.27 1.27)) hide)
    )
    (property "Datasheet" "https://www.mill-max.com/catalog/download/2020-01%3A221.1.pdf" (at 121.92 43.18 0)
      (effects (font (size 1.27 1.27)) hide)
    )
    (property "Vendor" "digikey" (at 121.92 43.18 90)
      (effects (font (size 1.27 1.27)) hide)
    )
    (property "Vendor part#" "ED11524-ND" (at 121.92 43.18 90)
      (effects (font (size 1.27 1.27)) hide)
    )
    (property "Manufacturer part#" "6331-0-00-15-00-00-08-0" (at 121.92 43.18 90)
      (effects (font (size 1.27 1.27)) hide)
    )
    (pin "1" (uuid 7bc27f0a-61b0-4891-a1e1-f058e5369b74))
    (instances
      (project "coco2"
        (path "/4da7874e-d887-4a2f-9386-b4d7f0215f19/00000000-0000-0000-0000-0000602a51a8"
          (reference "A1") (unit 1)
        )
      )
    )
  )

  (symbol (lib_id "coco2-rescue:Conn_01x01_Male-Connector") (at 132.08 43.18 270) (unit 1)
    (in_bom yes) (on_board yes) (dnp no)
    (uuid 00000000-0000-0000-0000-0000602ba8b9)
    (property "Reference" "A2" (at 130.81 41.91 90)
      (effects (font (size 1.27 1.27)) (justify left))
    )
    (property "Value" "A2" (at 130.81 38.1 90)
      (effects (font (size 1.27 1.27)) (justify left))
    )
    (property "Footprint" "coco2:power_connector_post" (at 132.08 43.18 0)
      (effects (font (size 1.27 1.27)) hide)
    )
    (property "Datasheet" "https://www.mill-max.com/catalog/download/2020-01%3A221.1.pdf" (at 132.08 43.18 0)
      (effects (font (size 1.27 1.27)) hide)
    )
    (property "Vendor" "digikey" (at 132.08 43.18 90)
      (effects (font (size 1.27 1.27)) hide)
    )
    (property "Vendor part#" "ED11524-ND" (at 132.08 43.18 90)
      (effects (font (size 1.27 1.27)) hide)
    )
    (property "Manufacturer part#" "6331-0-00-15-00-00-08-0" (at 132.08 43.18 90)
      (effects (font (size 1.27 1.27)) hide)
    )
    (pin "1" (uuid 71fe1772-224f-4ec2-9d42-b87f2799dc1b))
    (instances
      (project "coco2"
        (path "/4da7874e-d887-4a2f-9386-b4d7f0215f19/00000000-0000-0000-0000-0000602a51a8"
          (reference "A2") (unit 1)
        )
      )
    )
  )

  (symbol (lib_id "coco2-rescue:SW_DPDT_x2-Switch") (at 102.87 60.96 90) (unit 1)
    (in_bom yes) (on_board yes) (dnp no)
    (uuid 00000000-0000-0000-0000-0000602bc867)
    (property "Reference" "SW1" (at 93.98 54.61 90)
      (effects (font (size 1.27 1.27)) (justify right))
    )
    (property "Value" "SW_DPDT_x2" (at 87.63 60.96 90)
      (effects (font (size 1.27 1.27)) (justify right))
    )
    (property "Footprint" "coco2:F2UEE" (at 102.87 60.96 0)
      (effects (font (size 1.27 1.27)) hide)
    )
    (property "Datasheet" "https://www.ckswitches.com/media/1402/fpush.pdf" (at 102.87 60.96 0)
      (effects (font (size 1.27 1.27)) hide)
    )
    (property "Vendor" "digikey" (at 102.87 60.96 0)
      (effects (font (size 1.27 1.27)) hide)
    )
    (property "Vendor part#" "401-1223-ND" (at 102.87 60.96 0)
      (effects (font (size 1.27 1.27)) hide)
    )
    (property "Manufacturer part#" "F2UEE" (at 102.87 60.96 0)
      (effects (font (size 1.27 1.27)) hide)
    )
    (pin "1" (uuid ec8cdeec-16ad-47da-a299-759c78337a3b))
    (pin "2" (uuid 6aef7873-b509-456c-bdc6-b915a5c6844b))
    (pin "3" (uuid ba1761d6-77b1-40c3-b1f2-aad81c027a50))
    (pin "4" (uuid 9e4bc53a-488e-439e-bcb8-859abe2db142))
    (pin "5" (uuid 6a0a3b39-b49f-481c-8a58-9a9fbb320605))
    (pin "6" (uuid 6c5945ae-e49a-430f-a666-6a9ca6e3637c))
    (instances
      (project "coco2"
        (path "/4da7874e-d887-4a2f-9386-b4d7f0215f19/00000000-0000-0000-0000-0000602a51a8"
          (reference "SW1") (unit 1)
        )
      )
    )
  )

  (symbol (lib_id "coco2-rescue:SW_DPDT_x2-Switch") (at 148.59 60.96 270) (mirror x) (unit 2)
    (in_bom yes) (on_board yes) (dnp no)
    (uuid 00000000-0000-0000-0000-0000602bd00e)
    (property "Reference" "SW1" (at 153.67 54.61 90)
      (effects (font (size 1.27 1.27)) (justify left))
    )
    (property "Value" "SW_DPDT_x2" (at 152.3492 62.103 90)
      (effects (font (size 1.27 1.27)) (justify left))
    )
    (property "Footprint" "coco2:F2UEE" (at 148.59 60.96 0)
      (effects (font (size 1.27 1.27)) hide)
    )
    (property "Datasheet" "https://www.ckswitches.com/media/1402/fpush.pdf" (at 148.59 60.96 0)
      (effects (font (size 1.27 1.27)) hide)
    )
    (property "Vendor" "digikey" (at 148.59 60.96 90)
      (effects (font (size 1.27 1.27)) hide)
    )
    (property "Vendor part#" "401-1223-ND" (at 148.59 60.96 90)
      (effects (font (size 1.27 1.27)) hide)
    )
    (property "Manufacturer part#" "F2UEE" (at 148.59 60.96 90)
      (effects (font (size 1.27 1.27)) hide)
    )
    (property "Vendor2 part#" "401-1215-ND" (at 148.59 60.96 90)
      (effects (font (size 1.27 1.27)) hide)
    )
    (property "Manufacturer2 part#" "F0201" (at 148.59 60.96 90)
      (effects (font (size 1.27 1.27)) hide)
    )
    (pin "1" (uuid 06f8c836-5405-43b4-835f-58b55cf84a2f))
    (pin "2" (uuid 082edbd6-c7be-4c98-b6fe-6e19cf99d4d6))
    (pin "3" (uuid 448e3572-2880-473b-8156-005ec70a3978))
    (pin "4" (uuid 90499610-e6f0-41c2-9da3-1f5803b04661))
    (pin "5" (uuid 7ba881ef-322f-4197-b711-d7fe6b0aad84))
    (pin "6" (uuid 599fa9a8-21fb-49eb-8ad9-3f6823887c48))
    (instances
      (project "coco2"
        (path "/4da7874e-d887-4a2f-9386-b4d7f0215f19/00000000-0000-0000-0000-0000602a51a8"
          (reference "SW1") (unit 2)
        )
      )
    )
  )

  (symbol (lib_id "coco2-rescue:GNDS-power") (at 148.59 82.55 0) (unit 1)
    (in_bom yes) (on_board yes) (dnp no)
    (uuid 00000000-0000-0000-0000-0000602c274b)
    (property "Reference" "#PWR0999085" (at 148.59 88.9 0)
      (effects (font (size 1.27 1.27)) hide)
    )
    (property "Value" "GNDS" (at 148.717 86.9442 0)
      (effects (font (size 1.27 1.27)))
    )
    (property "Footprint" "" (at 148.59 82.55 0)
      (effects (font (size 1.27 1.27)) hide)
    )
    (property "Datasheet" "" (at 148.59 82.55 0)
      (effects (font (size 1.27 1.27)) hide)
    )
    (pin "1" (uuid 82624089-c94b-4e73-a854-cf47edfb594d))
    (instances
      (project "coco2"
        (path "/4da7874e-d887-4a2f-9386-b4d7f0215f19/00000000-0000-0000-0000-0000602a51a8"
          (reference "#PWR0999085") (unit 1)
        )
      )
    )
  )

  (symbol (lib_id "coco2-rescue:Ferrite_Bead_Small-Device") (at 158.75 72.39 0) (unit 1)
    (in_bom yes) (on_board yes) (dnp no)
    (uuid 00000000-0000-0000-0000-0000602ccbdb)
    (property "Reference" "FB2" (at 161.29 71.2216 0)
      (effects (font (size 1.27 1.27)) (justify left))
    )
    (property "Value" "Ferrite_Bead_Small" (at 161.29 73.533 0)
      (effects (font (size 1.27 1.27)) (justify left))
    )
    (property "Footprint" "coco2:ferrite_bead" (at 156.972 72.39 90)
      (effects (font (size 1.27 1.27)) hide)
    )
    (property "Datasheet" "http://www.fair-rite.com/wp-content/themes/fair-rite/print_product.php?pid=18608" (at 158.75 72.39 0)
      (effects (font (size 1.27 1.27)) hide)
    )
    (property "Vendor" "digikey" (at 158.75 72.39 0)
      (effects (font (size 1.27 1.27)) hide)
    )
    (property "Vendor part#" "1934-1364-ND" (at 158.75 72.39 0)
      (effects (font (size 1.27 1.27)) hide)
    )
    (property "Manufacturer part#" "2743007111" (at 158.75 72.39 0)
      (effects (font (size 1.27 1.27)) hide)
    )
    (pin "1" (uuid 6927929b-40fe-473c-920e-1eea789923f5))
    (pin "2" (uuid 3a567d88-c9d7-4799-8924-fc0b680f93a7))
    (instances
      (project "coco2"
        (path "/4da7874e-d887-4a2f-9386-b4d7f0215f19/00000000-0000-0000-0000-0000602a51a8"
          (reference "FB2") (unit 1)
        )
      )
    )
  )

  (symbol (lib_id "coco2-rescue:Ferrite_Bead_Small-Device") (at 102.87 73.66 0) (unit 1)
    (in_bom yes) (on_board yes) (dnp no)
    (uuid 00000000-0000-0000-0000-0000602ce834)
    (property "Reference" "FB1" (at 105.41 72.4916 0)
      (effects (font (size 1.27 1.27)) (justify left))
    )
    (property "Value" "Ferrite_Bead_Small" (at 105.41 74.803 0)
      (effects (font (size 1.27 1.27)) (justify left))
    )
    (property "Footprint" "coco2:ferrite_bead" (at 101.092 73.66 90)
      (effects (font (size 1.27 1.27)) hide)
    )
    (property "Datasheet" "http://www.fair-rite.com/wp-content/themes/fair-rite/print_product.php?pid=18608" (at 102.87 73.66 0)
      (effects (font (size 1.27 1.27)) hide)
    )
    (property "Vendor" "digikey" (at 102.87 73.66 0)
      (effects (font (size 1.27 1.27)) hide)
    )
    (property "Vendor part#" "1934-1364-ND" (at 102.87 73.66 0)
      (effects (font (size 1.27 1.27)) hide)
    )
    (property "Manufacturer part#" "2743007111" (at 102.87 73.66 0)
      (effects (font (size 1.27 1.27)) hide)
    )
    (pin "1" (uuid 9a8d5311-943e-42dc-ac95-cb5826511c05))
    (pin "2" (uuid 8fb7aa00-745d-4750-a0d8-30a7bf93d0fb))
    (instances
      (project "coco2"
        (path "/4da7874e-d887-4a2f-9386-b4d7f0215f19/00000000-0000-0000-0000-0000602a51a8"
          (reference "FB1") (unit 1)
        )
      )
    )
  )

  (symbol (lib_id "coco2-rescue:C_Small-Device") (at 152.4 120.65 270) (unit 1)
    (in_bom yes) (on_board yes) (dnp no)
    (uuid 00000000-0000-0000-0000-0000602d08ff)
    (property "Reference" "C37" (at 153.67 115.57 0)
      (effects (font (size 1.27 1.27)))
    )
    (property "Value" ".1uF" (at 149.86 115.57 0)
      (effects (font (size 1.27 1.27)))
    )
    (property "Footprint" "Capacitor_THT:C_Disc_D4.7mm_W2.5mm_P5.00mm" (at 152.4 120.65 0)
      (effects (font (size 1.27 1.27)) hide)
    )
    (property "Datasheet" " https://search.murata.co.jp/Ceramy/image/img/A01X/G101/ENG/RDE_X7R_250V-1kV_E.pdf" (at 152.4 120.65 0)
      (effects (font (size 1.27 1.27)) hide)
    )
    (property "Vendor" "digikey" (at 152.4 120.65 90)
      (effects (font (size 1.27 1.27)) hide)
    )
    (property "Vendor part#" "490-8814-ND" (at 152.4 120.65 90)
      (effects (font (size 1.27 1.27)) hide)
    )
    (property "Manufacturer part#" "RDER71H104K0K1H03B" (at 152.4 120.65 90)
      (effects (font (size 1.27 1.27)) hide)
    )
    (pin "1" (uuid 2d1d03a7-b02a-441c-a64d-fa27aafafd93))
    (pin "2" (uuid f327cf55-abbb-41aa-a5ae-46b9a88da072))
    (instances
      (project "coco2"
        (path "/4da7874e-d887-4a2f-9386-b4d7f0215f19/00000000-0000-0000-0000-0000602a51a8"
          (reference "C37") (unit 1)
        )
      )
    )
  )

  (symbol (lib_id "coco2-rescue:GNDS-power") (at 158.75 121.92 0) (unit 1)
    (in_bom yes) (on_board yes) (dnp no)
    (uuid 00000000-0000-0000-0000-0000602d146f)
    (property "Reference" "#PWR0999087" (at 158.75 128.27 0)
      (effects (font (size 1.27 1.27)) hide)
    )
    (property "Value" "GNDS" (at 158.877 126.3142 0)
      (effects (font (size 1.27 1.27)))
    )
    (property "Footprint" "" (at 158.75 121.92 0)
      (effects (font (size 1.27 1.27)) hide)
    )
    (property "Datasheet" "" (at 158.75 121.92 0)
      (effects (font (size 1.27 1.27)) hide)
    )
    (pin "1" (uuid ecc58c2b-541e-49e3-90a5-37d07fe54920))
    (instances
      (project "coco2"
        (path "/4da7874e-d887-4a2f-9386-b4d7f0215f19/00000000-0000-0000-0000-0000602a51a8"
          (reference "#PWR0999087") (unit 1)
        )
      )
    )
  )

  (symbol (lib_id "coco2-rescue:GNDS-power") (at 88.9 107.95 0) (unit 1)
    (in_bom yes) (on_board yes) (dnp no)
    (uuid 00000000-0000-0000-0000-0000602f0879)
    (property "Reference" "#PWR0999086" (at 88.9 114.3 0)
      (effects (font (size 1.27 1.27)) hide)
    )
    (property "Value" "GNDS" (at 89.027 112.3442 0)
      (effects (font (size 1.27 1.27)))
    )
    (property "Footprint" "" (at 88.9 107.95 0)
      (effects (font (size 1.27 1.27)) hide)
    )
    (property "Datasheet" "" (at 88.9 107.95 0)
      (effects (font (size 1.27 1.27)) hide)
    )
    (pin "1" (uuid 96b1bce3-0d35-472f-9cb2-570bb4a721de))
    (instances
      (project "coco2"
        (path "/4da7874e-d887-4a2f-9386-b4d7f0215f19/00000000-0000-0000-0000-0000602a51a8"
          (reference "#PWR0999086") (unit 1)
        )
      )
    )
  )

  (symbol (lib_id "coco2-rescue:GNDS-power") (at 86.36 73.66 0) (unit 1)
    (in_bom yes) (on_board yes) (dnp no)
    (uuid 00000000-0000-0000-0000-00006030ecb4)
    (property "Reference" "#PWR0999084" (at 86.36 80.01 0)
      (effects (font (size 1.27 1.27)) hide)
    )
    (property "Value" "GNDS" (at 86.487 78.0542 0)
      (effects (font (size 1.27 1.27)))
    )
    (property "Footprint" "" (at 86.36 73.66 0)
      (effects (font (size 1.27 1.27)) hide)
    )
    (property "Datasheet" "" (at 86.36 73.66 0)
      (effects (font (size 1.27 1.27)) hide)
    )
    (pin "1" (uuid 7d8d95ca-9bd3-48ad-af14-1f809d423d78))
    (instances
      (project "coco2"
        (path "/4da7874e-d887-4a2f-9386-b4d7f0215f19/00000000-0000-0000-0000-0000602a51a8"
          (reference "#PWR0999084") (unit 1)
        )
      )
    )
  )

  (symbol (lib_id "coco2-rescue:CP_Small-Device") (at 83.82 105.41 270) (unit 1)
    (in_bom yes) (on_board yes) (dnp no)
    (uuid 00000000-0000-0000-0000-0000603267d7)
    (property "Reference" "C38" (at 83.82 111.125 90)
      (effects (font (size 1.27 1.27)))
    )
    (property "Value" "220uF  16V" (at 85.09 101.6 90)
      (effects (font (size 1.27 1.27)))
    )
    (property "Footprint" "Capacitor_THT:CP_Radial_D8.0mm_P5.00mm" (at 83.82 105.41 0)
      (effects (font (size 1.27 1.27)) hide)
    )
    (property "Datasheet" "http://nichicon-us.com/english/products/pdfs/e-urs.pdf" (at 83.82 105.41 0)
      (effects (font (size 1.27 1.27)) hide)
    )
    (property "Vendor" "digikey" (at 83.82 105.41 0)
      (effects (font (size 1.27 1.27)) hide)
    )
    (property "Vendor part#" "493-15896-1-ND" (at 83.82 105.41 0)
      (effects (font (size 1.27 1.27)) hide)
    )
    (property "Manufacturer part#" "URS1C221MPD1TA" (at 83.82 105.41 0)
      (effects (font (size 1.27 1.27)) hide)
    )
    (pin "1" (uuid c3fcb8f3-44d2-4103-8adb-075e6a07e71a))
    (pin "2" (uuid ab1449b7-cd89-4ce5-8f44-0643b4b7ee64))
    (instances
      (project "coco2"
        (path "/4da7874e-d887-4a2f-9386-b4d7f0215f19/00000000-0000-0000-0000-0000602a51a8"
          (reference "C38") (unit 1)
        )
      )
    )
  )

  (symbol (lib_id "coco2-rescue:PWR_FLAG-power") (at 179.07 90.17 0) (unit 1)
    (in_bom yes) (on_board yes) (dnp no)
    (uuid 00000000-0000-0000-0000-0000603af7ed)
    (property "Reference" "#FLG0999002" (at 179.07 88.265 0)
      (effects (font (size 1.27 1.27)) hide)
    )
    (property "Value" "PWR_FLAG" (at 179.07 85.7758 0)
      (effects (font (size 1.27 1.27)))
    )
    (property "Footprint" "" (at 179.07 90.17 0)
      (effects (font (size 1.27 1.27)) hide)
    )
    (property "Datasheet" "~" (at 179.07 90.17 0)
      (effects (font (size 1.27 1.27)) hide)
    )
    (pin "1" (uuid 1e5935a3-c6c3-412f-92b6-64e20db08659))
    (instances
      (project "coco2"
        (path "/4da7874e-d887-4a2f-9386-b4d7f0215f19/00000000-0000-0000-0000-0000602a51a8"
          (reference "#FLG0999002") (unit 1)
        )
      )
    )
  )

  (symbol (lib_id "coco2-rescue:PWR_FLAG-power") (at 184.15 97.79 0) (unit 1)
    (in_bom yes) (on_board yes) (dnp no)
    (uuid 00000000-0000-0000-0000-0000603b147e)
    (property "Reference" "#FLG0999003" (at 184.15 95.885 0)
      (effects (font (size 1.27 1.27)) hide)
    )
    (property "Value" "PWR_FLAG" (at 184.15 93.3958 0)
      (effects (font (size 1.27 1.27)))
    )
    (property "Footprint" "" (at 184.15 97.79 0)
      (effects (font (size 1.27 1.27)) hide)
    )
    (property "Datasheet" "~" (at 184.15 97.79 0)
      (effects (font (size 1.27 1.27)) hide)
    )
    (pin "1" (uuid 7ca6ea78-38f8-4825-b599-851d4a21c20f))
    (instances
      (project "coco2"
        (path "/4da7874e-d887-4a2f-9386-b4d7f0215f19/00000000-0000-0000-0000-0000602a51a8"
          (reference "#FLG0999003") (unit 1)
        )
      )
    )
  )

  (symbol (lib_id "coco2:SW_Push-Switch") (at 130.81 171.45 270) (unit 1)
    (in_bom yes) (on_board yes) (dnp no)
    (uuid 00000000-0000-0000-0000-000060403583)
    (property "Reference" "SW3" (at 134.5692 170.2816 90)
      (effects (font (size 1.27 1.27)) (justify left))
    )
    (property "Value" "Reset Switch" (at 134.5692 172.593 90)
      (effects (font (size 1.27 1.27)) (justify left))
    )
    (property "Footprint" "coco2:B3F3152" (at 135.89 171.45 0)
      (effects (font (size 1.27 1.27)) hide)
    )
    (property "Datasheet" "https://omronfs.omron.com/en_US/ecb/products/pdf/en-b3f.pdf" (at 135.89 171.45 0)
      (effects (font (size 1.27 1.27)) hide)
    )
    (property "Vendor" "digikey" (at 130.81 171.45 90)
      (effects (font (size 1.27 1.27)) hide)
    )
    (property "Vendor part#" "SW410-ND" (at 130.81 171.45 90)
      (effects (font (size 1.27 1.27)) hide)
    )
    (property "Manufacturer part#" "B3F-3152" (at 130.81 171.45 90)
      (effects (font (size 1.27 1.27)) hide)
    )
    (property "Vendor 2nd part#" "SW451-ND" (at 130.81 171.45 90)
      (effects (font (size 1.27 1.27)) hide)
    )
    (property "Manufacturer 2nd part#" "B32-1010" (at 130.81 171.45 90)
      (effects (font (size 1.27 1.27)) hide)
    )
    (pin "1" (uuid 28ae5bf0-2cf7-4a73-991f-948b07cac5f7))
    (pin "2" (uuid d4173db4-6c19-4223-bba9-b6dab49c3e0b))
    (pin "GNDS" (uuid d23bcd7b-a6a5-4ff6-80e9-879dbe267a1c))
    (instances
      (project "coco2"
        (path "/4da7874e-d887-4a2f-9386-b4d7f0215f19/00000000-0000-0000-0000-0000602a51a8"
          (reference "SW3") (unit 1)
        )
      )
    )
  )

  (symbol (lib_id "coco2-rescue:GNDS-power") (at 124.46 185.42 0) (unit 1)
    (in_bom yes) (on_board yes) (dnp no)
    (uuid 00000000-0000-0000-0000-00006040358f)
    (property "Reference" "#PWR0999089" (at 124.46 191.77 0)
      (effects (font (size 1.27 1.27)) hide)
    )
    (property "Value" "GNDS" (at 124.587 189.8142 0)
      (effects (font (size 1.27 1.27)))
    )
    (property "Footprint" "" (at 124.46 185.42 0)
      (effects (font (size 1.27 1.27)) hide)
    )
    (property "Datasheet" "" (at 124.46 185.42 0)
      (effects (font (size 1.27 1.27)) hide)
    )
    (pin "1" (uuid a9e3e8f1-3d7e-40d4-bdd1-933f4a060036))
    (instances
      (project "coco2"
        (path "/4da7874e-d887-4a2f-9386-b4d7f0215f19/00000000-0000-0000-0000-0000602a51a8"
          (reference "#PWR0999089") (unit 1)
        )
      )
    )
  )

  (symbol (lib_id "coco2-rescue:C_Small-Device") (at 121.92 168.91 0) (unit 1)
    (in_bom yes) (on_board yes) (dnp no)
    (uuid 00000000-0000-0000-0000-000060403598)
    (property "Reference" "C7" (at 116.1034 168.91 90)
      (effects (font (size 1.27 1.27)))
    )
    (property "Value" ".1uF" (at 118.4148 168.91 90)
      (effects (font (size 1.27 1.27)))
    )
    (property "Footprint" "Capacitor_THT:C_Disc_D4.7mm_W2.5mm_P5.00mm" (at 121.92 168.91 0)
      (effects (font (size 1.27 1.27)) hide)
    )
    (property "Datasheet" " https://search.murata.co.jp/Ceramy/image/img/A01X/G101/ENG/RDE_X7R_250V-1kV_E.pdf" (at 121.92 168.91 0)
      (effects (font (size 1.27 1.27)) hide)
    )
    (property "Vendor" "digikey" (at 121.92 168.91 90)
      (effects (font (size 1.27 1.27)) hide)
    )
    (property "Vendor part#" "490-8814-ND" (at 121.92 168.91 90)
      (effects (font (size 1.27 1.27)) hide)
    )
    (property "Manufacturer part#" "RDER71H104K0K1H03B" (at 121.92 168.91 90)
      (effects (font (size 1.27 1.27)) hide)
    )
    (pin "1" (uuid 84e0af8e-bed6-40d6-b079-fe29fd3041f4))
    (pin "2" (uuid f40f6156-267c-46dc-8392-f41089f3be30))
    (instances
      (project "coco2"
        (path "/4da7874e-d887-4a2f-9386-b4d7f0215f19/00000000-0000-0000-0000-0000602a51a8"
          (reference "C7") (unit 1)
        )
      )
    )
  )

  (symbol (lib_id "coco2-rescue:+5V-power") (at 107.95 156.21 0) (unit 1)
    (in_bom yes) (on_board yes) (dnp no)
    (uuid 00000000-0000-0000-0000-0000604035a5)
    (property "Reference" "#PWR0999088" (at 107.95 160.02 0)
      (effects (font (size 1.27 1.27)) hide)
    )
    (property "Value" "+5V" (at 108.331 151.8158 0)
      (effects (font (size 1.27 1.27)))
    )
    (property "Footprint" "" (at 107.95 156.21 0)
      (effects (font (size 1.27 1.27)) hide)
    )
    (property "Datasheet" "" (at 107.95 156.21 0)
      (effects (font (size 1.27 1.27)) hide)
    )
    (pin "1" (uuid 3db12a85-51b4-4aa0-bb32-9173404eac90))
    (instances
      (project "coco2"
        (path "/4da7874e-d887-4a2f-9386-b4d7f0215f19/00000000-0000-0000-0000-0000602a51a8"
          (reference "#PWR0999088") (unit 1)
        )
      )
    )
  )

  (symbol (lib_id "coco2-rescue:R_Small_US-Device") (at 107.95 162.56 0) (unit 1)
    (in_bom yes) (on_board yes) (dnp no)
    (uuid 00000000-0000-0000-0000-0000604035ac)
    (property "Reference" "R13" (at 109.6772 161.3916 0)
      (effects (font (size 1.27 1.27)) (justify left))
    )
    (property "Value" "100K" (at 109.6772 163.703 0)
      (effects (font (size 1.27 1.27)) (justify left))
    )
    (property "Footprint" "Resistor_THT:R_Axial_DIN0207_L6.3mm_D2.5mm_P10.16mm_Horizontal" (at 107.95 162.56 0)
      (effects (font (size 1.27 1.27)) hide)
    )
    (property "Datasheet" "https://www.seielect.com/catalog/sei-cf_cfm.pdf" (at 107.95 162.56 0)
      (effects (font (size 1.27 1.27)) hide)
    )
    (property "Vendor" "digikey" (at 107.95 162.56 0)
      (effects (font (size 1.27 1.27)) hide)
    )
    (property "Vendor part#" "CF14JT100KCT-ND" (at 107.95 162.56 0)
      (effects (font (size 1.27 1.27)) hide)
    )
    (property "Manufacturer part#" "CF14JT100K" (at 107.95 162.56 0)
      (effects (font (size 1.27 1.27)) hide)
    )
    (pin "1" (uuid b939389d-7237-4973-9be7-3e984f61b2f1))
    (pin "2" (uuid b14cbeb3-6049-4238-8a3c-20c675847fd1))
    (instances
      (project "coco2"
        (path "/4da7874e-d887-4a2f-9386-b4d7f0215f19/00000000-0000-0000-0000-0000602a51a8"
          (reference "R13") (unit 1)
        )
      )
    )
  )

  (symbol (lib_id "coco2-rescue:1N4148-Diode") (at 101.6 162.56 270) (unit 1)
    (in_bom yes) (on_board yes) (dnp no)
    (uuid 00000000-0000-0000-0000-0000604035b3)
    (property "Reference" "D2" (at 93.98 160.02 90)
      (effects (font (size 1.27 1.27)) (justify left))
    )
    (property "Value" "1N4148" (at 92.71 163.83 90)
      (effects (font (size 1.27 1.27)) (justify left))
    )
    (property "Footprint" "Diode_THT:D_DO-35_SOD27_P7.62mm_Horizontal" (at 97.155 162.56 0)
      (effects (font (size 1.27 1.27)) hide)
    )
    (property "Datasheet" " https://www.onsemi.com/pub/Collateral/1N914-D.PDF" (at 101.6 162.56 0)
      (effects (font (size 1.27 1.27)) hide)
    )
    (property "Vendor" "digikey" (at 101.6 162.56 90)
      (effects (font (size 1.27 1.27)) hide)
    )
    (property "Vendor part#" "1N4148FS-ND" (at 101.6 162.56 90)
      (effects (font (size 1.27 1.27)) hide)
    )
    (property "Manufacturer part#" "1N4148" (at 101.6 162.56 90)
      (effects (font (size 1.27 1.27)) hide)
    )
    (pin "1" (uuid b53b59d5-482c-4232-b992-7328e4fab8f4))
    (pin "2" (uuid 9aa982c2-b486-4c9d-934d-54969fdacc71))
    (instances
      (project "coco2"
        (path "/4da7874e-d887-4a2f-9386-b4d7f0215f19/00000000-0000-0000-0000-0000602a51a8"
          (reference "D2") (unit 1)
        )
      )
    )
  )

  (symbol (lib_id "coco2-rescue:1N4148-Diode") (at 107.95 173.99 270) (unit 1)
    (in_bom yes) (on_board yes) (dnp no)
    (uuid 00000000-0000-0000-0000-0000604035b9)
    (property "Reference" "D1" (at 100.33 172.72 90)
      (effects (font (size 1.27 1.27)) (justify left))
    )
    (property "Value" "1N4148" (at 97.79 175.26 90)
      (effects (font (size 1.27 1.27)) (justify left))
    )
    (property "Footprint" "Diode_THT:D_DO-35_SOD27_P7.62mm_Horizontal" (at 103.505 173.99 0)
      (effects (font (size 1.27 1.27)) hide)
    )
    (property "Datasheet" " https://www.onsemi.com/pub/Collateral/1N914-D.PDF" (at 107.95 173.99 0)
      (effects (font (size 1.27 1.27)) hide)
    )
    (property "Vendor" "digikey" (at 107.95 173.99 90)
      (effects (font (size 1.27 1.27)) hide)
    )
    (property "Vendor part#" "1N4148FS-ND" (at 107.95 173.99 90)
      (effects (font (size 1.27 1.27)) hide)
    )
    (property "Manufacturer part#" "1N4148" (at 107.95 173.99 90)
      (effects (font (size 1.27 1.27)) hide)
    )
    (pin "1" (uuid c95a7e4d-f461-4b4c-9bb6-830198bdad84))
    (pin "2" (uuid da4c5a68-94c5-4e8d-a002-8388df1f4bfa))
    (instances
      (project "coco2"
        (path "/4da7874e-d887-4a2f-9386-b4d7f0215f19/00000000-0000-0000-0000-0000602a51a8"
          (reference "D1") (unit 1)
        )
      )
    )
  )

  (symbol (lib_id "coco2-rescue:1N4148-Diode") (at 83.82 166.37 180) (unit 1)
    (in_bom yes) (on_board yes) (dnp no)
    (uuid 00000000-0000-0000-0000-0000604035bf)
    (property "Reference" "D3" (at 85.09 162.56 0)
      (effects (font (size 1.27 1.27)) (justify left))
    )
    (property "Value" "1N4148" (at 86.36 170.18 0)
      (effects (font (size 1.27 1.27)) (justify left))
    )
    (property "Footprint" "Diode_THT:D_DO-35_SOD27_P7.62mm_Horizontal" (at 83.82 161.925 0)
      (effects (font (size 1.27 1.27)) hide)
    )
    (property "Datasheet" " https://www.onsemi.com/pub/Collateral/1N914-D.PDF" (at 83.82 166.37 0)
      (effects (font (size 1.27 1.27)) hide)
    )
    (property "Vendor" "digikey" (at 83.82 166.37 0)
      (effects (font (size 1.27 1.27)) hide)
    )
    (property "Vendor part#" "1N4148FS-ND" (at 83.82 166.37 0)
      (effects (font (size 1.27 1.27)) hide)
    )
    (property "Manufacturer part#" "1N4148" (at 83.82 166.37 0)
      (effects (font (size 1.27 1.27)) hide)
    )
    (pin "1" (uuid 82a357ee-bbc1-4973-a102-93295849e744))
    (pin "2" (uuid ebeedfd9-72a8-4af4-9b81-74221bd8e451))
    (instances
      (project "coco2"
        (path "/4da7874e-d887-4a2f-9386-b4d7f0215f19/00000000-0000-0000-0000-0000602a51a8"
          (reference "D3") (unit 1)
        )
      )
    )
  )

  (symbol (lib_id "coco2-rescue:C_Small-Device") (at 66.04 110.49 0) (unit 1)
    (in_bom yes) (on_board yes) (dnp no)
    (uuid 00000000-0000-0000-0000-000062968ca5)
    (property "Reference" "C39" (at 60.96 109.22 0)
      (effects (font (size 1.27 1.27)))
    )
    (property "Value" ".1uF" (at 60.96 113.03 0)
      (effects (font (size 1.27 1.27)))
    )
    (property "Footprint" "Capacitor_THT:C_Disc_D4.7mm_W2.5mm_P5.00mm" (at 66.04 110.49 0)
      (effects (font (size 1.27 1.27)) hide)
    )
    (property "Datasheet" " https://search.murata.co.jp/Ceramy/image/img/A01X/G101/ENG/RDE_X7R_250V-1kV_E.pdf" (at 66.04 110.49 0)
      (effects (font (size 1.27 1.27)) hide)
    )
    (property "Vendor" "digikey" (at 66.04 110.49 90)
      (effects (font (size 1.27 1.27)) hide)
    )
    (property "Vendor part#" "490-8814-ND" (at 66.04 110.49 90)
      (effects (font (size 1.27 1.27)) hide)
    )
    (property "Manufacturer part#" "RDER71H104K0K1H03B" (at 66.04 110.49 90)
      (effects (font (size 1.27 1.27)) hide)
    )
    (pin "1" (uuid 0bf5cf86-d505-4e81-abb5-e9fb833e0191))
    (pin "2" (uuid 6cde5110-7580-45fd-af6f-e0071133a4f8))
    (instances
      (project "coco2"
        (path "/4da7874e-d887-4a2f-9386-b4d7f0215f19/00000000-0000-0000-0000-0000602a51a8"
          (reference "C39") (unit 1)
        )
      )
    )
  )

  (symbol (lib_id "coco2-rescue:GNDS-power") (at 66.04 113.03 0) (unit 1)
    (in_bom yes) (on_board yes) (dnp no)
    (uuid 00000000-0000-0000-0000-00006296cdf7)
    (property "Reference" "#PWR0119" (at 66.04 119.38 0)
      (effects (font (size 1.27 1.27)) hide)
    )
    (property "Value" "GNDS" (at 66.167 117.4242 0)
      (effects (font (size 1.27 1.27)))
    )
    (property "Footprint" "" (at 66.04 113.03 0)
      (effects (font (size 1.27 1.27)) hide)
    )
    (property "Datasheet" "" (at 66.04 113.03 0)
      (effects (font (size 1.27 1.27)) hide)
    )
    (pin "1" (uuid 6df08422-e2b3-47de-9d7e-40a7cb969b1a))
    (instances
      (project "coco2"
        (path "/4da7874e-d887-4a2f-9386-b4d7f0215f19/00000000-0000-0000-0000-0000602a51a8"
          (reference "#PWR0119") (unit 1)
        )
      )
    )
  )
)
