(kicad_sch (version 20230121) (generator eeschema)

  (uuid 521bfbc1-de05-4506-b52a-e16453f953ad)

  (paper "A5")

  (title_block
    (title "USB Flash/EPROM Programmer")
    (date "2022-05-19")
    (rev "DRAFT")
    (company "Robson Martins")
    (comment 1 "https://usbflashprog.robsonmartins.com")
    (comment 2 "Proposal with Boost Converter to eliminate external power supply.")
    (comment 3 "This is a DRAFT. Not yet a part of the main project.")
  )

  (lib_symbols
    (symbol "Device:C" (pin_numbers hide) (pin_names (offset 0.254)) (in_bom yes) (on_board yes)
      (property "Reference" "C" (at 0.635 2.54 0)
        (effects (font (size 1.27 1.27)) (justify left))
      )
      (property "Value" "C" (at 0.635 -2.54 0)
        (effects (font (size 1.27 1.27)) (justify left))
      )
      (property "Footprint" "" (at 0.9652 -3.81 0)
        (effects (font (size 1.27 1.27)) hide)
      )
      (property "Datasheet" "~" (at 0 0 0)
        (effects (font (size 1.27 1.27)) hide)
      )
      (property "ki_keywords" "cap capacitor" (at 0 0 0)
        (effects (font (size 1.27 1.27)) hide)
      )
      (property "ki_description" "Unpolarized capacitor" (at 0 0 0)
        (effects (font (size 1.27 1.27)) hide)
      )
      (property "ki_fp_filters" "C_*" (at 0 0 0)
        (effects (font (size 1.27 1.27)) hide)
      )
      (symbol "C_0_1"
        (polyline
          (pts
            (xy -2.032 -0.762)
            (xy 2.032 -0.762)
          )
          (stroke (width 0.508) (type default))
          (fill (type none))
        )
        (polyline
          (pts
            (xy -2.032 0.762)
            (xy 2.032 0.762)
          )
          (stroke (width 0.508) (type default))
          (fill (type none))
        )
      )
      (symbol "C_1_1"
        (pin passive line (at 0 3.81 270) (length 2.794)
          (name "~" (effects (font (size 1.27 1.27))))
          (number "1" (effects (font (size 1.27 1.27))))
        )
        (pin passive line (at 0 -3.81 90) (length 2.794)
          (name "~" (effects (font (size 1.27 1.27))))
          (number "2" (effects (font (size 1.27 1.27))))
        )
      )
    )
    (symbol "Device:C_Polarized" (pin_numbers hide) (pin_names (offset 0.254)) (in_bom yes) (on_board yes)
      (property "Reference" "C" (at 0.635 2.54 0)
        (effects (font (size 1.27 1.27)) (justify left))
      )
      (property "Value" "C_Polarized" (at 0.635 -2.54 0)
        (effects (font (size 1.27 1.27)) (justify left))
      )
      (property "Footprint" "" (at 0.9652 -3.81 0)
        (effects (font (size 1.27 1.27)) hide)
      )
      (property "Datasheet" "~" (at 0 0 0)
        (effects (font (size 1.27 1.27)) hide)
      )
      (property "ki_keywords" "cap capacitor" (at 0 0 0)
        (effects (font (size 1.27 1.27)) hide)
      )
      (property "ki_description" "Polarized capacitor" (at 0 0 0)
        (effects (font (size 1.27 1.27)) hide)
      )
      (property "ki_fp_filters" "CP_*" (at 0 0 0)
        (effects (font (size 1.27 1.27)) hide)
      )
      (symbol "C_Polarized_0_1"
        (rectangle (start -2.286 0.508) (end 2.286 1.016)
          (stroke (width 0) (type default))
          (fill (type none))
        )
        (polyline
          (pts
            (xy -1.778 2.286)
            (xy -0.762 2.286)
          )
          (stroke (width 0) (type default))
          (fill (type none))
        )
        (polyline
          (pts
            (xy -1.27 2.794)
            (xy -1.27 1.778)
          )
          (stroke (width 0) (type default))
          (fill (type none))
        )
        (rectangle (start 2.286 -0.508) (end -2.286 -1.016)
          (stroke (width 0) (type default))
          (fill (type outline))
        )
      )
      (symbol "C_Polarized_1_1"
        (pin passive line (at 0 3.81 270) (length 2.794)
          (name "~" (effects (font (size 1.27 1.27))))
          (number "1" (effects (font (size 1.27 1.27))))
        )
        (pin passive line (at 0 -3.81 90) (length 2.794)
          (name "~" (effects (font (size 1.27 1.27))))
          (number "2" (effects (font (size 1.27 1.27))))
        )
      )
    )
    (symbol "Device:LED" (pin_numbers hide) (pin_names (offset 1.016) hide) (in_bom yes) (on_board yes)
      (property "Reference" "D" (at 0 2.54 0)
        (effects (font (size 1.27 1.27)))
      )
      (property "Value" "LED" (at 0 -2.54 0)
        (effects (font (size 1.27 1.27)))
      )
      (property "Footprint" "" (at 0 0 0)
        (effects (font (size 1.27 1.27)) hide)
      )
      (property "Datasheet" "~" (at 0 0 0)
        (effects (font (size 1.27 1.27)) hide)
      )
      (property "ki_keywords" "LED diode" (at 0 0 0)
        (effects (font (size 1.27 1.27)) hide)
      )
      (property "ki_description" "Light emitting diode" (at 0 0 0)
        (effects (font (size 1.27 1.27)) hide)
      )
      (property "ki_fp_filters" "LED* LED_SMD:* LED_THT:*" (at 0 0 0)
        (effects (font (size 1.27 1.27)) hide)
      )
      (symbol "LED_0_1"
        (polyline
          (pts
            (xy -1.27 -1.27)
            (xy -1.27 1.27)
          )
          (stroke (width 0.254) (type default))
          (fill (type none))
        )
        (polyline
          (pts
            (xy -1.27 0)
            (xy 1.27 0)
          )
          (stroke (width 0) (type default))
          (fill (type none))
        )
        (polyline
          (pts
            (xy 1.27 -1.27)
            (xy 1.27 1.27)
            (xy -1.27 0)
            (xy 1.27 -1.27)
          )
          (stroke (width 0.254) (type default))
          (fill (type none))
        )
        (polyline
          (pts
            (xy -3.048 -0.762)
            (xy -4.572 -2.286)
            (xy -3.81 -2.286)
            (xy -4.572 -2.286)
            (xy -4.572 -1.524)
          )
          (stroke (width 0) (type default))
          (fill (type none))
        )
        (polyline
          (pts
            (xy -1.778 -0.762)
            (xy -3.302 -2.286)
            (xy -2.54 -2.286)
            (xy -3.302 -2.286)
            (xy -3.302 -1.524)
          )
          (stroke (width 0) (type default))
          (fill (type none))
        )
      )
      (symbol "LED_1_1"
        (pin passive line (at -3.81 0 0) (length 2.54)
          (name "K" (effects (font (size 1.27 1.27))))
          (number "1" (effects (font (size 1.27 1.27))))
        )
        (pin passive line (at 3.81 0 180) (length 2.54)
          (name "A" (effects (font (size 1.27 1.27))))
          (number "2" (effects (font (size 1.27 1.27))))
        )
      )
    )
    (symbol "Device:L_Ferrite" (pin_numbers hide) (pin_names (offset 1.016) hide) (in_bom yes) (on_board yes)
      (property "Reference" "L" (at -1.27 0 90)
        (effects (font (size 1.27 1.27)))
      )
      (property "Value" "L_Ferrite" (at 2.794 0 90)
        (effects (font (size 1.27 1.27)))
      )
      (property "Footprint" "" (at 0 0 0)
        (effects (font (size 1.27 1.27)) hide)
      )
      (property "Datasheet" "~" (at 0 0 0)
        (effects (font (size 1.27 1.27)) hide)
      )
      (property "ki_keywords" "inductor choke coil reactor magnetic" (at 0 0 0)
        (effects (font (size 1.27 1.27)) hide)
      )
      (property "ki_description" "Inductor with ferrite core" (at 0 0 0)
        (effects (font (size 1.27 1.27)) hide)
      )
      (property "ki_fp_filters" "Choke_* *Coil* Inductor_* L_*" (at 0 0 0)
        (effects (font (size 1.27 1.27)) hide)
      )
      (symbol "L_Ferrite_0_1"
        (arc (start 0 -2.54) (mid 0.6323 -1.905) (end 0 -1.27)
          (stroke (width 0) (type default))
          (fill (type none))
        )
        (arc (start 0 -1.27) (mid 0.6323 -0.635) (end 0 0)
          (stroke (width 0) (type default))
          (fill (type none))
        )
        (polyline
          (pts
            (xy 1.016 -2.794)
            (xy 1.016 -2.286)
          )
          (stroke (width 0) (type default))
          (fill (type none))
        )
        (polyline
          (pts
            (xy 1.016 -1.778)
            (xy 1.016 -1.27)
          )
          (stroke (width 0) (type default))
          (fill (type none))
        )
        (polyline
          (pts
            (xy 1.016 -0.762)
            (xy 1.016 -0.254)
          )
          (stroke (width 0) (type default))
          (fill (type none))
        )
        (polyline
          (pts
            (xy 1.016 0.254)
            (xy 1.016 0.762)
          )
          (stroke (width 0) (type default))
          (fill (type none))
        )
        (polyline
          (pts
            (xy 1.016 1.27)
            (xy 1.016 1.778)
          )
          (stroke (width 0) (type default))
          (fill (type none))
        )
        (polyline
          (pts
            (xy 1.016 2.286)
            (xy 1.016 2.794)
          )
          (stroke (width 0) (type default))
          (fill (type none))
        )
        (polyline
          (pts
            (xy 1.524 -2.286)
            (xy 1.524 -2.794)
          )
          (stroke (width 0) (type default))
          (fill (type none))
        )
        (polyline
          (pts
            (xy 1.524 -1.27)
            (xy 1.524 -1.778)
          )
          (stroke (width 0) (type default))
          (fill (type none))
        )
        (polyline
          (pts
            (xy 1.524 -0.254)
            (xy 1.524 -0.762)
          )
          (stroke (width 0) (type default))
          (fill (type none))
        )
        (polyline
          (pts
            (xy 1.524 0.762)
            (xy 1.524 0.254)
          )
          (stroke (width 0) (type default))
          (fill (type none))
        )
        (polyline
          (pts
            (xy 1.524 1.778)
            (xy 1.524 1.27)
          )
          (stroke (width 0) (type default))
          (fill (type none))
        )
        (polyline
          (pts
            (xy 1.524 2.794)
            (xy 1.524 2.286)
          )
          (stroke (width 0) (type default))
          (fill (type none))
        )
        (arc (start 0 0) (mid 0.6323 0.635) (end 0 1.27)
          (stroke (width 0) (type default))
          (fill (type none))
        )
        (arc (start 0 1.27) (mid 0.6323 1.905) (end 0 2.54)
          (stroke (width 0) (type default))
          (fill (type none))
        )
      )
      (symbol "L_Ferrite_1_1"
        (pin passive line (at 0 3.81 270) (length 1.27)
          (name "1" (effects (font (size 1.27 1.27))))
          (number "1" (effects (font (size 1.27 1.27))))
        )
        (pin passive line (at 0 -3.81 90) (length 1.27)
          (name "2" (effects (font (size 1.27 1.27))))
          (number "2" (effects (font (size 1.27 1.27))))
        )
      )
    )
    (symbol "Device:R" (pin_numbers hide) (pin_names (offset 0)) (in_bom yes) (on_board yes)
      (property "Reference" "R" (at 2.032 0 90)
        (effects (font (size 1.27 1.27)))
      )
      (property "Value" "R" (at 0 0 90)
        (effects (font (size 1.27 1.27)))
      )
      (property "Footprint" "" (at -1.778 0 90)
        (effects (font (size 1.27 1.27)) hide)
      )
      (property "Datasheet" "~" (at 0 0 0)
        (effects (font (size 1.27 1.27)) hide)
      )
      (property "ki_keywords" "R res resistor" (at 0 0 0)
        (effects (font (size 1.27 1.27)) hide)
      )
      (property "ki_description" "Resistor" (at 0 0 0)
        (effects (font (size 1.27 1.27)) hide)
      )
      (property "ki_fp_filters" "R_*" (at 0 0 0)
        (effects (font (size 1.27 1.27)) hide)
      )
      (symbol "R_0_1"
        (rectangle (start -1.016 -2.54) (end 1.016 2.54)
          (stroke (width 0.254) (type default))
          (fill (type none))
        )
      )
      (symbol "R_1_1"
        (pin passive line (at 0 3.81 270) (length 1.27)
          (name "~" (effects (font (size 1.27 1.27))))
          (number "1" (effects (font (size 1.27 1.27))))
        )
        (pin passive line (at 0 -3.81 90) (length 1.27)
          (name "~" (effects (font (size 1.27 1.27))))
          (number "2" (effects (font (size 1.27 1.27))))
        )
      )
    )
    (symbol "Diode:BAT46" (pin_numbers hide) (pin_names (offset 1.016) hide) (in_bom yes) (on_board yes)
      (property "Reference" "D" (at 0 2.54 0)
        (effects (font (size 1.27 1.27)))
      )
      (property "Value" "BAT46" (at 0 -2.54 0)
        (effects (font (size 1.27 1.27)))
      )
      (property "Footprint" "Diode_THT:D_DO-35_SOD27_P7.62mm_Horizontal" (at 0 -4.445 0)
        (effects (font (size 1.27 1.27)) hide)
      )
      (property "Datasheet" "http://www.vishay.com/docs/85662/bat46.pdf" (at 0 0 0)
        (effects (font (size 1.27 1.27)) hide)
      )
      (property "ki_keywords" "diode Schottky" (at 0 0 0)
        (effects (font (size 1.27 1.27)) hide)
      )
      (property "ki_description" "100V 0.15A Small Signal Schottky Diode, DO-35" (at 0 0 0)
        (effects (font (size 1.27 1.27)) hide)
      )
      (property "ki_fp_filters" "D*DO?35*" (at 0 0 0)
        (effects (font (size 1.27 1.27)) hide)
      )
      (symbol "BAT46_0_1"
        (polyline
          (pts
            (xy 1.27 0)
            (xy -1.27 0)
          )
          (stroke (width 0) (type default))
          (fill (type none))
        )
        (polyline
          (pts
            (xy 1.27 1.27)
            (xy 1.27 -1.27)
            (xy -1.27 0)
            (xy 1.27 1.27)
          )
          (stroke (width 0.254) (type default))
          (fill (type none))
        )
        (polyline
          (pts
            (xy -1.905 0.635)
            (xy -1.905 1.27)
            (xy -1.27 1.27)
            (xy -1.27 -1.27)
            (xy -0.635 -1.27)
            (xy -0.635 -0.635)
          )
          (stroke (width 0.254) (type default))
          (fill (type none))
        )
      )
      (symbol "BAT46_1_1"
        (pin passive line (at -3.81 0 0) (length 2.54)
          (name "K" (effects (font (size 1.27 1.27))))
          (number "1" (effects (font (size 1.27 1.27))))
        )
        (pin passive line (at 3.81 0 180) (length 2.54)
          (name "A" (effects (font (size 1.27 1.27))))
          (number "2" (effects (font (size 1.27 1.27))))
        )
      )
    )
    (symbol "Regulator_Switching:MT3608" (in_bom yes) (on_board yes)
      (property "Reference" "U" (at -2.54 8.89 0)
        (effects (font (size 1.27 1.27)) (justify left))
      )
      (property "Value" "MT3608" (at -3.81 6.35 0)
        (effects (font (size 1.27 1.27)) (justify left))
      )
      (property "Footprint" "Package_TO_SOT_SMD:SOT-23-6" (at 1.27 -6.35 0)
        (effects (font (size 1.27 1.27) italic) (justify left) hide)
      )
      (property "Datasheet" "https://www.olimex.com/Products/Breadboarding/BB-PWR-3608/resources/MT3608.pdf" (at -6.35 11.43 0)
        (effects (font (size 1.27 1.27)) hide)
      )
      (property "ki_keywords" "Step-Up Boost DC-DC Regulator Adjustable" (at 0 0 0)
        (effects (font (size 1.27 1.27)) hide)
      )
      (property "ki_description" "High Efficiency 1.2MHz 2A Step Up Converter, 2-24V Vin, 28V Vout, 4A current limit, 1.2MHz, SOT23-6" (at 0 0 0)
        (effects (font (size 1.27 1.27)) hide)
      )
      (property "ki_fp_filters" "SOT*23*" (at 0 0 0)
        (effects (font (size 1.27 1.27)) hide)
      )
      (symbol "MT3608_0_1"
        (rectangle (start -5.08 5.08) (end 5.08 -5.08)
          (stroke (width 0.254) (type default))
          (fill (type background))
        )
      )
      (symbol "MT3608_1_1"
        (pin passive line (at 7.62 2.54 180) (length 2.54)
          (name "SW" (effects (font (size 1.27 1.27))))
          (number "1" (effects (font (size 1.27 1.27))))
        )
        (pin power_in line (at 0 -7.62 90) (length 2.54)
          (name "GND" (effects (font (size 1.27 1.27))))
          (number "2" (effects (font (size 1.27 1.27))))
        )
        (pin input line (at 7.62 -2.54 180) (length 2.54)
          (name "FB" (effects (font (size 1.27 1.27))))
          (number "3" (effects (font (size 1.27 1.27))))
        )
        (pin input line (at -7.62 -2.54 0) (length 2.54)
          (name "EN" (effects (font (size 1.27 1.27))))
          (number "4" (effects (font (size 1.27 1.27))))
        )
        (pin power_in line (at -7.62 2.54 0) (length 2.54)
          (name "IN" (effects (font (size 1.27 1.27))))
          (number "5" (effects (font (size 1.27 1.27))))
        )
        (pin no_connect line (at 5.08 0 180) (length 2.54) hide
          (name "NC" (effects (font (size 1.27 1.27))))
          (number "6" (effects (font (size 1.27 1.27))))
        )
      )
    )
    (symbol "power:+5V" (power) (pin_names (offset 0)) (in_bom yes) (on_board yes)
      (property "Reference" "#PWR" (at 0 -3.81 0)
        (effects (font (size 1.27 1.27)) hide)
      )
      (property "Value" "+5V" (at 0 3.556 0)
        (effects (font (size 1.27 1.27)))
      )
      (property "Footprint" "" (at 0 0 0)
        (effects (font (size 1.27 1.27)) hide)
      )
      (property "Datasheet" "" (at 0 0 0)
        (effects (font (size 1.27 1.27)) hide)
      )
      (property "ki_keywords" "power-flag" (at 0 0 0)
        (effects (font (size 1.27 1.27)) hide)
      )
      (property "ki_description" "Power symbol creates a global label with name \"+5V\"" (at 0 0 0)
        (effects (font (size 1.27 1.27)) hide)
      )
      (symbol "+5V_0_1"
        (polyline
          (pts
            (xy -0.762 1.27)
            (xy 0 2.54)
          )
          (stroke (width 0) (type default))
          (fill (type none))
        )
        (polyline
          (pts
            (xy 0 0)
            (xy 0 2.54)
          )
          (stroke (width 0) (type default))
          (fill (type none))
        )
        (polyline
          (pts
            (xy 0 2.54)
            (xy 0.762 1.27)
          )
          (stroke (width 0) (type default))
          (fill (type none))
        )
      )
      (symbol "+5V_1_1"
        (pin power_in line (at 0 0 90) (length 0) hide
          (name "+5V" (effects (font (size 1.27 1.27))))
          (number "1" (effects (font (size 1.27 1.27))))
        )
      )
    )
    (symbol "power:+9V" (power) (pin_names (offset 0)) (in_bom yes) (on_board yes)
      (property "Reference" "#PWR" (at 0 -3.81 0)
        (effects (font (size 1.27 1.27)) hide)
      )
      (property "Value" "+9V" (at 0 3.556 0)
        (effects (font (size 1.27 1.27)))
      )
      (property "Footprint" "" (at 0 0 0)
        (effects (font (size 1.27 1.27)) hide)
      )
      (property "Datasheet" "" (at 0 0 0)
        (effects (font (size 1.27 1.27)) hide)
      )
      (property "ki_keywords" "power-flag" (at 0 0 0)
        (effects (font (size 1.27 1.27)) hide)
      )
      (property "ki_description" "Power symbol creates a global label with name \"+9V\"" (at 0 0 0)
        (effects (font (size 1.27 1.27)) hide)
      )
      (symbol "+9V_0_1"
        (polyline
          (pts
            (xy -0.762 1.27)
            (xy 0 2.54)
          )
          (stroke (width 0) (type default))
          (fill (type none))
        )
        (polyline
          (pts
            (xy 0 0)
            (xy 0 2.54)
          )
          (stroke (width 0) (type default))
          (fill (type none))
        )
        (polyline
          (pts
            (xy 0 2.54)
            (xy 0.762 1.27)
          )
          (stroke (width 0) (type default))
          (fill (type none))
        )
      )
      (symbol "+9V_1_1"
        (pin power_in line (at 0 0 90) (length 0) hide
          (name "+9V" (effects (font (size 1.27 1.27))))
          (number "1" (effects (font (size 1.27 1.27))))
        )
      )
    )
    (symbol "power:GND" (power) (pin_names (offset 0)) (in_bom yes) (on_board yes)
      (property "Reference" "#PWR" (at 0 -6.35 0)
        (effects (font (size 1.27 1.27)) hide)
      )
      (property "Value" "GND" (at 0 -3.81 0)
        (effects (font (size 1.27 1.27)))
      )
      (property "Footprint" "" (at 0 0 0)
        (effects (font (size 1.27 1.27)) hide)
      )
      (property "Datasheet" "" (at 0 0 0)
        (effects (font (size 1.27 1.27)) hide)
      )
      (property "ki_keywords" "power-flag" (at 0 0 0)
        (effects (font (size 1.27 1.27)) hide)
      )
      (property "ki_description" "Power symbol creates a global label with name \"GND\" , ground" (at 0 0 0)
        (effects (font (size 1.27 1.27)) hide)
      )
      (symbol "GND_0_1"
        (polyline
          (pts
            (xy 0 0)
            (xy 0 -1.27)
            (xy 1.27 -1.27)
            (xy 0 -2.54)
            (xy -1.27 -1.27)
            (xy 0 -1.27)
          )
          (stroke (width 0) (type default))
          (fill (type none))
        )
      )
      (symbol "GND_1_1"
        (pin power_in line (at 0 0 270) (length 0) hide
          (name "GND" (effects (font (size 1.27 1.27))))
          (number "1" (effects (font (size 1.27 1.27))))
        )
      )
    )
  )

  (junction (at 142.24 52.07) (diameter 0) (color 0 0 0 0)
    (uuid 04c49c4b-c497-4507-ae67-6d17bdfac83b)
  )
  (junction (at 54.61 52.07) (diameter 0) (color 0 0 0 0)
    (uuid 1deffa9a-e69c-44be-a4e6-653446ce3493)
  )
  (junction (at 132.08 52.07) (diameter 0) (color 0 0 0 0)
    (uuid 232d0cc2-848f-4b6e-93f7-19a49b53f2df)
  )
  (junction (at 67.31 66.04) (diameter 0) (color 0 0 0 0)
    (uuid 46c214e2-a141-4a2c-983a-ff2c0672eee4)
  )
  (junction (at 101.6 52.07) (diameter 0) (color 0 0 0 0)
    (uuid 4d575a0c-7dc3-4190-94ce-2ec7f4234dc4)
  )
  (junction (at 67.31 60.96) (diameter 0) (color 0 0 0 0)
    (uuid 9ef0edc3-d00c-4674-a21f-409e8406d97d)
  )
  (junction (at 119.38 52.07) (diameter 0) (color 0 0 0 0)
    (uuid aaad1445-e468-4310-b390-5daa0b583ae1)
  )
  (junction (at 67.31 52.07) (diameter 0) (color 0 0 0 0)
    (uuid cec0c7c2-c75a-438c-b8a0-69682c772a27)
  )
  (junction (at 110.49 66.04) (diameter 0) (color 0 0 0 0)
    (uuid f58cb784-5dab-4b65-9b08-8d16d1e5a846)
  )
  (junction (at 110.49 52.07) (diameter 0) (color 0 0 0 0)
    (uuid fb95bcf6-1f85-474c-a7bf-7053225508fb)
  )

  (wire (pts (xy 67.31 60.96) (xy 67.31 52.07))
    (stroke (width 0) (type default))
    (uuid 008591c8-d404-48be-bfab-2470f6bb49b3)
  )
  (wire (pts (xy 119.38 82.55) (xy 119.38 76.2))
    (stroke (width 0) (type default))
    (uuid 04ebe921-17ac-43b8-bdac-4e2f56c00e88)
  )
  (wire (pts (xy 132.08 52.07) (xy 132.08 68.58))
    (stroke (width 0) (type default))
    (uuid 158cee3d-c6f1-44f6-adfd-df6d1a580d1c)
  )
  (wire (pts (xy 142.24 52.07) (xy 132.08 52.07))
    (stroke (width 0) (type default))
    (uuid 171c70b9-5676-458b-8473-3559f983545e)
  )
  (wire (pts (xy 119.38 52.07) (xy 119.38 68.58))
    (stroke (width 0) (type default))
    (uuid 32bfe098-cb4a-4b92-a966-36d4d0e9e3b1)
  )
  (wire (pts (xy 67.31 66.04) (xy 77.47 66.04))
    (stroke (width 0) (type default))
    (uuid 36a9f493-8e58-45d3-a6f1-756ff3d30b0b)
  )
  (wire (pts (xy 54.61 52.07) (xy 54.61 68.58))
    (stroke (width 0) (type default))
    (uuid 3744f5dd-e4ff-496e-9d0f-1fbe89217cbe)
  )
  (wire (pts (xy 67.31 60.96) (xy 77.47 60.96))
    (stroke (width 0) (type default))
    (uuid 3b5d0d08-00a4-4fa8-8b87-22f306c842e1)
  )
  (wire (pts (xy 110.49 64.77) (xy 110.49 66.04))
    (stroke (width 0) (type default))
    (uuid 3fa7252c-aad8-4b7e-8310-bbc0cf425b7b)
  )
  (wire (pts (xy 54.61 52.07) (xy 67.31 52.07))
    (stroke (width 0) (type default))
    (uuid 40793f72-0dfc-4321-8f3a-5f69c2a2f505)
  )
  (wire (pts (xy 67.31 52.07) (xy 80.01 52.07))
    (stroke (width 0) (type default))
    (uuid 45aa2f64-a924-439b-b22f-6e588dc3136f)
  )
  (wire (pts (xy 54.61 82.55) (xy 54.61 76.2))
    (stroke (width 0) (type default))
    (uuid 45fbb131-03c2-414d-9157-b85c176163d8)
  )
  (wire (pts (xy 110.49 57.15) (xy 110.49 52.07))
    (stroke (width 0) (type default))
    (uuid 558c0778-bcc7-46bb-bec0-444300da0615)
  )
  (wire (pts (xy 142.24 49.53) (xy 142.24 52.07))
    (stroke (width 0) (type default))
    (uuid 60afbe23-a793-4cdd-b17e-432cf6e7955f)
  )
  (wire (pts (xy 110.49 52.07) (xy 109.22 52.07))
    (stroke (width 0) (type default))
    (uuid 6427c965-a2fe-4508-b005-b16f54aab3b4)
  )
  (wire (pts (xy 110.49 74.93) (xy 110.49 82.55))
    (stroke (width 0) (type default))
    (uuid 846d9130-3729-4110-aa80-5aed051514d8)
  )
  (wire (pts (xy 54.61 52.07) (xy 54.61 49.53))
    (stroke (width 0) (type default))
    (uuid 85969d0c-522a-44ca-b36b-60f59ee96c58)
  )
  (wire (pts (xy 92.71 60.96) (xy 101.6 60.96))
    (stroke (width 0) (type default))
    (uuid 91f3bfd2-8d78-4b73-931a-696892f15931)
  )
  (wire (pts (xy 101.6 52.07) (xy 101.6 60.96))
    (stroke (width 0) (type default))
    (uuid 977552ee-2bb1-42b9-8bba-220a8cebcb11)
  )
  (wire (pts (xy 92.71 66.04) (xy 110.49 66.04))
    (stroke (width 0) (type default))
    (uuid 9c957593-bfa4-40b8-8f5b-f3093baf67b5)
  )
  (wire (pts (xy 142.24 81.28) (xy 142.24 82.55))
    (stroke (width 0) (type default))
    (uuid aaca08da-3e28-4850-af17-1f8f9dcc9ec0)
  )
  (wire (pts (xy 85.09 71.12) (xy 85.09 82.55))
    (stroke (width 0) (type default))
    (uuid b47b97d1-1e7d-4c40-8755-c612c6965aeb)
  )
  (wire (pts (xy 119.38 52.07) (xy 132.08 52.07))
    (stroke (width 0) (type default))
    (uuid b4ba58e7-fbe4-4156-aef2-03115195bdb1)
  )
  (wire (pts (xy 132.08 76.2) (xy 132.08 82.55))
    (stroke (width 0) (type default))
    (uuid b6878f52-fbfc-4801-a688-481eb19be5c4)
  )
  (wire (pts (xy 142.24 73.66) (xy 142.24 71.12))
    (stroke (width 0) (type default))
    (uuid b9c043b1-9885-4b76-a385-fc9c6ca102bd)
  )
  (wire (pts (xy 67.31 66.04) (xy 67.31 68.58))
    (stroke (width 0) (type default))
    (uuid c1d51f25-0ff6-4322-90d8-14ad1e9a5228)
  )
  (wire (pts (xy 87.63 52.07) (xy 101.6 52.07))
    (stroke (width 0) (type default))
    (uuid ccabb5e5-c2ca-47d4-846f-c13078822340)
  )
  (wire (pts (xy 67.31 60.96) (xy 67.31 66.04))
    (stroke (width 0) (type default))
    (uuid cd4393c0-62f5-44e6-b089-c893081b0c58)
  )
  (wire (pts (xy 142.24 63.5) (xy 142.24 52.07))
    (stroke (width 0) (type default))
    (uuid d5512425-41b8-4779-8527-a4371b68c716)
  )
  (wire (pts (xy 67.31 76.2) (xy 67.31 82.55))
    (stroke (width 0) (type default))
    (uuid e76559e6-6e0c-40e6-806e-d93ba492eb68)
  )
  (wire (pts (xy 110.49 66.04) (xy 110.49 67.31))
    (stroke (width 0) (type default))
    (uuid ed9c5e80-b815-47ba-b2b2-b995fe223422)
  )
  (wire (pts (xy 110.49 52.07) (xy 119.38 52.07))
    (stroke (width 0) (type default))
    (uuid f10b4a0a-ad2b-4e43-924c-bbca94515bc2)
  )

  (text "POWER" (at 145.2372 81.8388 0)
    (effects (font (size 1.27 1.27)) (justify left bottom))
    (uuid 51378f31-1c05-4726-b8b8-3dcab684ca79)
  )

  (symbol (lib_id "Device:C") (at 132.08 72.39 0) (unit 1)
    (in_bom yes) (on_board yes) (dnp no)
    (uuid 02baa095-197d-4e1a-8b54-d6b86c268bdf)
    (property "Reference" "C?" (at 135.001 71.2216 0)
      (effects (font (size 1.27 1.27)) (justify left))
    )
    (property "Value" "100nF" (at 135.001 73.533 0)
      (effects (font (size 1.27 1.27)) (justify left))
    )
    (property "Footprint" "Capacitor_THT:C_Disc_D6.0mm_W2.5mm_P5.00mm" (at 133.0452 76.2 0)
      (effects (font (size 1.27 1.27)) hide)
    )
    (property "Datasheet" "~" (at 132.08 72.39 0)
      (effects (font (size 1.27 1.27)) hide)
    )
    (pin "1" (uuid e97996ef-4bf2-4815-bb44-aefe8d8b18ea))
    (pin "2" (uuid 71880f02-e1c4-436a-9ada-87c0a5dd4b43))
    (instances
      (project "alternative_power"
        (path "/521bfbc1-de05-4506-b52a-e16453f953ad"
          (reference "C?") (unit 1)
        )
      )
    )
  )

  (symbol (lib_id "Device:R") (at 142.24 67.31 0) (unit 1)
    (in_bom yes) (on_board yes) (dnp no)
    (uuid 0a547a86-b413-4da0-ae6d-279ff52f4eb5)
    (property "Reference" "R?" (at 144.018 66.1416 0)
      (effects (font (size 1.27 1.27)) (justify left))
    )
    (property "Value" "2K2" (at 144.018 68.453 0)
      (effects (font (size 1.27 1.27)) (justify left))
    )
    (property "Footprint" "Resistor_THT:R_Axial_DIN0207_L6.3mm_D2.5mm_P10.16mm_Horizontal" (at 140.462 67.31 90)
      (effects (font (size 1.27 1.27)) hide)
    )
    (property "Datasheet" "~" (at 142.24 67.31 0)
      (effects (font (size 1.27 1.27)) hide)
    )
    (pin "1" (uuid c85b1a3a-e5ba-4ed1-a392-9dfc7ee47a9e))
    (pin "2" (uuid 6d82c2c5-915c-473c-a154-852082958d96))
    (instances
      (project "alternative_power"
        (path "/521bfbc1-de05-4506-b52a-e16453f953ad"
          (reference "R?") (unit 1)
        )
      )
    )
  )

  (symbol (lib_id "Diode:BAT46") (at 105.41 52.07 180) (unit 1)
    (in_bom yes) (on_board yes) (dnp no)
    (uuid 0a83ef2b-0e47-445b-a65f-dc7b15589478)
    (property "Reference" "D?" (at 104.2416 50.038 90)
      (effects (font (size 1.27 1.27)) (justify right))
    )
    (property "Value" "BAT46" (at 106.553 50.038 90)
      (effects (font (size 1.27 1.27)) (justify right))
    )
    (property "Footprint" "Diode_THT:D_DO-35_SOD27_P7.62mm_Horizontal" (at 105.41 47.625 0)
      (effects (font (size 1.27 1.27)) hide)
    )
    (property "Datasheet" "http://www.vishay.com/docs/85662/bat46.pdf" (at 105.41 52.07 0)
      (effects (font (size 1.27 1.27)) hide)
    )
    (pin "1" (uuid 493e67d6-d3e3-4da9-82e5-2743f64163f4))
    (pin "2" (uuid 0add1f20-da55-4138-90eb-1bfedd310a6f))
    (instances
      (project "alternative_power"
        (path "/521bfbc1-de05-4506-b52a-e16453f953ad"
          (reference "D?") (unit 1)
        )
      )
    )
  )

  (symbol (lib_id "Device:L_Ferrite") (at 83.82 52.07 90) (unit 1)
    (in_bom yes) (on_board yes) (dnp no)
    (uuid 1d21549d-0925-4e40-9963-a7921d1d4a97)
    (property "Reference" "L?" (at 82.6516 49.8348 0)
      (effects (font (size 1.27 1.27)) (justify left))
    )
    (property "Value" "22uH" (at 84.963 49.8348 0)
      (effects (font (size 1.27 1.27)) (justify left))
    )
    (property "Footprint" "Inductor_THT:L_Toroid_Vertical_L13.0mm_W6.5mm_P5.60mm" (at 83.82 52.07 0)
      (effects (font (size 1.27 1.27)) hide)
    )
    (property "Datasheet" "~" (at 83.82 52.07 0)
      (effects (font (size 1.27 1.27)) hide)
    )
    (pin "1" (uuid ddb01290-5e20-4331-889c-ae7a49cfa90e))
    (pin "2" (uuid e8f8995c-197b-495f-ba2a-9708642ff813))
    (instances
      (project "alternative_power"
        (path "/521bfbc1-de05-4506-b52a-e16453f953ad"
          (reference "L?") (unit 1)
        )
      )
    )
  )

  (symbol (lib_id "power:GND") (at 132.08 82.55 0) (unit 1)
    (in_bom yes) (on_board yes) (dnp no)
    (uuid 22b7464f-b8e2-4b33-ae05-1f4626cc278b)
    (property "Reference" "#PWR?" (at 132.08 88.9 0)
      (effects (font (size 1.27 1.27)) hide)
    )
    (property "Value" "GND" (at 132.207 86.9442 0)
      (effects (font (size 1.27 1.27)) hide)
    )
    (property "Footprint" "" (at 132.08 82.55 0)
      (effects (font (size 1.27 1.27)) hide)
    )
    (property "Datasheet" "" (at 132.08 82.55 0)
      (effects (font (size 1.27 1.27)) hide)
    )
    (pin "1" (uuid 5ac43655-4e9d-4d2a-ac62-dcc770e79b8c))
    (instances
      (project "alternative_power"
        (path "/521bfbc1-de05-4506-b52a-e16453f953ad"
          (reference "#PWR?") (unit 1)
        )
      )
    )
  )

  (symbol (lib_id "power:+5V") (at 54.61 49.53 0) (unit 1)
    (in_bom yes) (on_board yes) (dnp no)
    (uuid 3ce0cd74-b364-4ae5-9a56-28552f7dbba0)
    (property "Reference" "#PWR?" (at 54.61 53.34 0)
      (effects (font (size 1.27 1.27)) hide)
    )
    (property "Value" "+5V" (at 54.991 45.1358 0)
      (effects (font (size 1.27 1.27)))
    )
    (property "Footprint" "" (at 54.61 49.53 0)
      (effects (font (size 1.27 1.27)) hide)
    )
    (property "Datasheet" "" (at 54.61 49.53 0)
      (effects (font (size 1.27 1.27)) hide)
    )
    (pin "1" (uuid 6fa05e9a-a57d-41cd-b41a-b5bcf8af1970))
    (instances
      (project "alternative_power"
        (path "/521bfbc1-de05-4506-b52a-e16453f953ad"
          (reference "#PWR?") (unit 1)
        )
      )
    )
  )

  (symbol (lib_id "Device:C_Polarized") (at 54.61 72.39 0) (unit 1)
    (in_bom yes) (on_board yes) (dnp no)
    (uuid 3df1628c-c0b6-4023-84d0-e67ae7ee4e6c)
    (property "Reference" "C?" (at 57.6072 71.2216 0)
      (effects (font (size 1.27 1.27)) (justify left))
    )
    (property "Value" "22uF" (at 57.6072 73.533 0)
      (effects (font (size 1.27 1.27)) (justify left))
    )
    (property "Footprint" "Capacitor_THT:CP_Radial_D5.0mm_P2.50mm" (at 55.5752 76.2 0)
      (effects (font (size 1.27 1.27)) hide)
    )
    (property "Datasheet" "~" (at 54.61 72.39 0)
      (effects (font (size 1.27 1.27)) hide)
    )
    (pin "1" (uuid 4981591b-8236-4c7f-a760-7bddd6959f38))
    (pin "2" (uuid d824f3a5-1024-46c8-845f-d1e0bf7343c7))
    (instances
      (project "alternative_power"
        (path "/521bfbc1-de05-4506-b52a-e16453f953ad"
          (reference "C?") (unit 1)
        )
      )
    )
  )

  (symbol (lib_id "power:+9V") (at 142.24 49.53 0) (unit 1)
    (in_bom yes) (on_board yes) (dnp no)
    (uuid 3e50b4c0-3b54-4e13-922d-f28e164a1764)
    (property "Reference" "#PWR?" (at 142.24 53.34 0)
      (effects (font (size 1.27 1.27)) hide)
    )
    (property "Value" "+9V" (at 142.621 45.1358 0)
      (effects (font (size 1.27 1.27)))
    )
    (property "Footprint" "" (at 142.24 49.53 0)
      (effects (font (size 1.27 1.27)) hide)
    )
    (property "Datasheet" "" (at 142.24 49.53 0)
      (effects (font (size 1.27 1.27)) hide)
    )
    (pin "1" (uuid 76a62ea3-2f2c-4456-91a4-830d8d7a8791))
    (instances
      (project "alternative_power"
        (path "/521bfbc1-de05-4506-b52a-e16453f953ad"
          (reference "#PWR?") (unit 1)
        )
      )
    )
  )

  (symbol (lib_id "power:GND") (at 54.61 82.55 0) (unit 1)
    (in_bom yes) (on_board yes) (dnp no)
    (uuid 5b3ec34e-f087-4787-946e-027ec7cd8e12)
    (property "Reference" "#PWR?" (at 54.61 88.9 0)
      (effects (font (size 1.27 1.27)) hide)
    )
    (property "Value" "GND" (at 54.737 86.9442 0)
      (effects (font (size 1.27 1.27)) hide)
    )
    (property "Footprint" "" (at 54.61 82.55 0)
      (effects (font (size 1.27 1.27)) hide)
    )
    (property "Datasheet" "" (at 54.61 82.55 0)
      (effects (font (size 1.27 1.27)) hide)
    )
    (pin "1" (uuid ba3b1137-23dc-4102-9b73-4a2a6c7ffc07))
    (instances
      (project "alternative_power"
        (path "/521bfbc1-de05-4506-b52a-e16453f953ad"
          (reference "#PWR?") (unit 1)
        )
      )
    )
  )

  (symbol (lib_id "Regulator_Switching:MT3608") (at 85.09 63.5 0) (unit 1)
    (in_bom yes) (on_board yes) (dnp no)
    (uuid 6ce51c61-b190-429a-8ce1-901761a43bfe)
    (property "Reference" "U1" (at 85.09 54.61 0)
      (effects (font (size 1.27 1.27)))
    )
    (property "Value" "MT3608" (at 85.09 57.15 0)
      (effects (font (size 1.27 1.27)))
    )
    (property "Footprint" "Package_TO_SOT_SMD:SOT-23-6" (at 86.36 69.85 0)
      (effects (font (size 1.27 1.27) italic) (justify left) hide)
    )
    (property "Datasheet" "https://www.olimex.com/Products/Breadboarding/BB-PWR-3608/resources/MT3608.pdf" (at 78.74 52.07 0)
      (effects (font (size 1.27 1.27)) hide)
    )
    (pin "1" (uuid 2dc078ac-a48a-4727-afe4-b4e2627573bc))
    (pin "2" (uuid f9ea8ddf-b432-4170-822d-064be1906898))
    (pin "3" (uuid b7370529-1828-4e91-985a-e6eeec1c7671))
    (pin "4" (uuid 26e98a42-e748-4ff4-af92-cd77507d1c75))
    (pin "5" (uuid e7a27893-5400-4cb8-ae78-69885b07b461))
    (pin "6" (uuid abfeff72-c7d6-4031-b5e4-bb883f4bd5dc))
    (instances
      (project "alternative_power"
        (path "/521bfbc1-de05-4506-b52a-e16453f953ad"
          (reference "U1") (unit 1)
        )
      )
    )
  )

  (symbol (lib_id "power:GND") (at 142.24 82.55 0) (unit 1)
    (in_bom yes) (on_board yes) (dnp no)
    (uuid 754fbe5f-59ba-4361-88e0-dab4a44534bf)
    (property "Reference" "#PWR?" (at 142.24 88.9 0)
      (effects (font (size 1.27 1.27)) hide)
    )
    (property "Value" "GND" (at 142.367 86.9442 0)
      (effects (font (size 1.27 1.27)) hide)
    )
    (property "Footprint" "" (at 142.24 82.55 0)
      (effects (font (size 1.27 1.27)) hide)
    )
    (property "Datasheet" "" (at 142.24 82.55 0)
      (effects (font (size 1.27 1.27)) hide)
    )
    (pin "1" (uuid 41a2c474-d03d-4cce-832f-ec9dd711acdf))
    (instances
      (project "alternative_power"
        (path "/521bfbc1-de05-4506-b52a-e16453f953ad"
          (reference "#PWR?") (unit 1)
        )
      )
    )
  )

  (symbol (lib_id "Device:C") (at 67.31 72.39 0) (unit 1)
    (in_bom yes) (on_board yes) (dnp no)
    (uuid 7e0f2a8d-6af3-4378-b429-b0244719e336)
    (property "Reference" "C?" (at 70.231 71.2216 0)
      (effects (font (size 1.27 1.27)) (justify left))
    )
    (property "Value" "100nF" (at 70.231 73.533 0)
      (effects (font (size 1.27 1.27)) (justify left))
    )
    (property "Footprint" "Capacitor_THT:C_Disc_D6.0mm_W2.5mm_P5.00mm" (at 68.2752 76.2 0)
      (effects (font (size 1.27 1.27)) hide)
    )
    (property "Datasheet" "~" (at 67.31 72.39 0)
      (effects (font (size 1.27 1.27)) hide)
    )
    (pin "1" (uuid c10a2a87-2f01-4c86-9242-534503c3c9ba))
    (pin "2" (uuid e17e145d-0769-4a96-9910-db533a1f23b8))
    (instances
      (project "alternative_power"
        (path "/521bfbc1-de05-4506-b52a-e16453f953ad"
          (reference "C?") (unit 1)
        )
      )
    )
  )

  (symbol (lib_id "power:GND") (at 110.49 82.55 0) (unit 1)
    (in_bom yes) (on_board yes) (dnp no)
    (uuid 8ea2e9d9-15d6-4170-86d2-3f31d61e995d)
    (property "Reference" "#PWR?" (at 110.49 88.9 0)
      (effects (font (size 1.27 1.27)) hide)
    )
    (property "Value" "GND" (at 110.617 86.9442 0)
      (effects (font (size 1.27 1.27)) hide)
    )
    (property "Footprint" "" (at 110.49 82.55 0)
      (effects (font (size 1.27 1.27)) hide)
    )
    (property "Datasheet" "" (at 110.49 82.55 0)
      (effects (font (size 1.27 1.27)) hide)
    )
    (pin "1" (uuid 8c5b2393-8b0c-4d50-b444-a29b9a69d3ad))
    (instances
      (project "alternative_power"
        (path "/521bfbc1-de05-4506-b52a-e16453f953ad"
          (reference "#PWR?") (unit 1)
        )
      )
    )
  )

  (symbol (lib_id "power:GND") (at 85.09 82.55 0) (unit 1)
    (in_bom yes) (on_board yes) (dnp no)
    (uuid 90f4d571-02c4-431b-989b-14f8748aa1d1)
    (property "Reference" "#PWR?" (at 85.09 88.9 0)
      (effects (font (size 1.27 1.27)) hide)
    )
    (property "Value" "GND" (at 85.217 86.9442 0)
      (effects (font (size 1.27 1.27)) hide)
    )
    (property "Footprint" "" (at 85.09 82.55 0)
      (effects (font (size 1.27 1.27)) hide)
    )
    (property "Datasheet" "" (at 85.09 82.55 0)
      (effects (font (size 1.27 1.27)) hide)
    )
    (pin "1" (uuid 3f605587-b36c-47ba-83a7-4e9fbf85079c))
    (instances
      (project "alternative_power"
        (path "/521bfbc1-de05-4506-b52a-e16453f953ad"
          (reference "#PWR?") (unit 1)
        )
      )
    )
  )

  (symbol (lib_id "Device:LED") (at 142.24 77.47 90) (unit 1)
    (in_bom yes) (on_board yes) (dnp no)
    (uuid a2d7eaba-1360-45f9-989f-53f07de40eb0)
    (property "Reference" "D?" (at 145.2372 76.4794 90)
      (effects (font (size 1.27 1.27)) (justify right))
    )
    (property "Value" "GREEN" (at 145.2372 78.7908 90)
      (effects (font (size 1.27 1.27)) (justify right))
    )
    (property "Footprint" "LED_THT:LED_D3.0mm" (at 142.24 77.47 0)
      (effects (font (size 1.27 1.27)) hide)
    )
    (property "Datasheet" "~" (at 142.24 77.47 0)
      (effects (font (size 1.27 1.27)) hide)
    )
    (pin "1" (uuid 54fb0ed6-5ac9-4d86-8bf7-040c68eba349))
    (pin "2" (uuid 9fb1aa45-1ae9-4090-a74d-ec5f7e25257f))
    (instances
      (project "alternative_power"
        (path "/521bfbc1-de05-4506-b52a-e16453f953ad"
          (reference "D?") (unit 1)
        )
      )
    )
  )

  (symbol (lib_id "Device:R") (at 110.49 71.12 0) (unit 1)
    (in_bom yes) (on_board yes) (dnp no)
    (uuid df7c4208-fa84-4710-bcc1-edd13f583d13)
    (property "Reference" "R?" (at 112.268 69.9516 0)
      (effects (font (size 1.27 1.27)) (justify left))
    )
    (property "Value" "2K2" (at 112.268 72.263 0)
      (effects (font (size 1.27 1.27)) (justify left))
    )
    (property "Footprint" "Resistor_THT:R_Axial_DIN0207_L6.3mm_D2.5mm_P10.16mm_Horizontal" (at 108.712 71.12 90)
      (effects (font (size 1.27 1.27)) hide)
    )
    (property "Datasheet" "~" (at 110.49 71.12 0)
      (effects (font (size 1.27 1.27)) hide)
    )
    (pin "1" (uuid c7b8630f-32fe-4b40-beb2-5f30c6803b80))
    (pin "2" (uuid 29e06f37-d709-4cea-af8d-4a2c1ea3d5c4))
    (instances
      (project "alternative_power"
        (path "/521bfbc1-de05-4506-b52a-e16453f953ad"
          (reference "R?") (unit 1)
        )
      )
    )
  )

  (symbol (lib_id "Device:C_Polarized") (at 119.38 72.39 0) (unit 1)
    (in_bom yes) (on_board yes) (dnp no)
    (uuid e6736190-5da8-4f05-b7d7-a4efa5722122)
    (property "Reference" "C?" (at 122.3772 71.2216 0)
      (effects (font (size 1.27 1.27)) (justify left))
    )
    (property "Value" "22uF" (at 122.3772 73.533 0)
      (effects (font (size 1.27 1.27)) (justify left))
    )
    (property "Footprint" "Capacitor_THT:CP_Radial_D5.0mm_P2.50mm" (at 120.3452 76.2 0)
      (effects (font (size 1.27 1.27)) hide)
    )
    (property "Datasheet" "~" (at 119.38 72.39 0)
      (effects (font (size 1.27 1.27)) hide)
    )
    (pin "1" (uuid 0d2958b4-541e-4949-917e-ee919daa8672))
    (pin "2" (uuid 9b024607-372c-47d3-87d6-674ea8e22afd))
    (instances
      (project "alternative_power"
        (path "/521bfbc1-de05-4506-b52a-e16453f953ad"
          (reference "C?") (unit 1)
        )
      )
    )
  )

  (symbol (lib_id "Device:R") (at 110.49 60.96 0) (unit 1)
    (in_bom yes) (on_board yes) (dnp no)
    (uuid f0f2c833-9dc4-46ad-b280-f599ffb84bc3)
    (property "Reference" "R?" (at 112.268 59.7916 0)
      (effects (font (size 1.27 1.27)) (justify left))
    )
    (property "Value" "33K" (at 112.268 62.103 0)
      (effects (font (size 1.27 1.27)) (justify left))
    )
    (property "Footprint" "Resistor_THT:R_Axial_DIN0207_L6.3mm_D2.5mm_P10.16mm_Horizontal" (at 108.712 60.96 90)
      (effects (font (size 1.27 1.27)) hide)
    )
    (property "Datasheet" "~" (at 110.49 60.96 0)
      (effects (font (size 1.27 1.27)) hide)
    )
    (pin "1" (uuid fd050c45-fdce-4497-92df-415c47963e53))
    (pin "2" (uuid 6db25b62-abba-4ea8-ad44-4d65b9f0171d))
    (instances
      (project "alternative_power"
        (path "/521bfbc1-de05-4506-b52a-e16453f953ad"
          (reference "R?") (unit 1)
        )
      )
    )
  )

  (symbol (lib_id "power:GND") (at 67.31 82.55 0) (unit 1)
    (in_bom yes) (on_board yes) (dnp no)
    (uuid f1951845-bdac-4058-ba52-03f042e1e218)
    (property "Reference" "#PWR?" (at 67.31 88.9 0)
      (effects (font (size 1.27 1.27)) hide)
    )
    (property "Value" "GND" (at 67.437 86.9442 0)
      (effects (font (size 1.27 1.27)) hide)
    )
    (property "Footprint" "" (at 67.31 82.55 0)
      (effects (font (size 1.27 1.27)) hide)
    )
    (property "Datasheet" "" (at 67.31 82.55 0)
      (effects (font (size 1.27 1.27)) hide)
    )
    (pin "1" (uuid 52cbe672-f8ed-4c62-97dc-3cabfc606878))
    (instances
      (project "alternative_power"
        (path "/521bfbc1-de05-4506-b52a-e16453f953ad"
          (reference "#PWR?") (unit 1)
        )
      )
    )
  )

  (symbol (lib_id "power:GND") (at 119.38 82.55 0) (unit 1)
    (in_bom yes) (on_board yes) (dnp no)
    (uuid fc550a87-3f7e-4dec-94b5-c1dcb5e5c69a)
    (property "Reference" "#PWR?" (at 119.38 88.9 0)
      (effects (font (size 1.27 1.27)) hide)
    )
    (property "Value" "GND" (at 119.507 86.9442 0)
      (effects (font (size 1.27 1.27)) hide)
    )
    (property "Footprint" "" (at 119.38 82.55 0)
      (effects (font (size 1.27 1.27)) hide)
    )
    (property "Datasheet" "" (at 119.38 82.55 0)
      (effects (font (size 1.27 1.27)) hide)
    )
    (pin "1" (uuid f5b4273f-72d7-416e-bf9b-fb9813692e9d))
    (instances
      (project "alternative_power"
        (path "/521bfbc1-de05-4506-b52a-e16453f953ad"
          (reference "#PWR?") (unit 1)
        )
      )
    )
  )

  (sheet_instances
    (path "/" (page "1"))
  )
)
