(kicad_sch (version 20230121) (generator eeschema)

  (uuid e63e39d7-6ac0-4ffd-8aa3-1841a4541b55)

  (paper "A4")

  (lib_symbols
    (symbol "Connector_Generic:Conn_01x01" (pin_names (offset 1.016) hide) (in_bom yes) (on_board yes)
      (property "Reference" "J" (at 0 2.54 0)
        (effects (font (size 1.27 1.27)))
      )
      (property "Value" "Conn_01x01" (at 0 -2.54 0)
        (effects (font (size 1.27 1.27)))
      )
      (property "Footprint" "" (at 0 0 0)
        (effects (font (size 1.27 1.27)) hide)
      )
      (property "Datasheet" "~" (at 0 0 0)
        (effects (font (size 1.27 1.27)) hide)
      )
      (property "ki_keywords" "connector" (at 0 0 0)
        (effects (font (size 1.27 1.27)) hide)
      )
      (property "ki_description" "Generic connector, single row, 01x01, script generated (kicad-library-utils/schlib/autogen/connector/)" (at 0 0 0)
        (effects (font (size 1.27 1.27)) hide)
      )
      (property "ki_fp_filters" "Connector*:*_1x??_*" (at 0 0 0)
        (effects (font (size 1.27 1.27)) hide)
      )
      (symbol "Conn_01x01_1_1"
        (rectangle (start -1.27 0.127) (end 0 -0.127)
          (stroke (width 0.1524) (type default))
          (fill (type none))
        )
        (rectangle (start -1.27 1.27) (end 1.27 -1.27)
          (stroke (width 0.254) (type default))
          (fill (type background))
        )
        (pin passive line (at -5.08 0 0) (length 3.81)
          (name "Pin_1" (effects (font (size 1.27 1.27))))
          (number "1" (effects (font (size 1.27 1.27))))
        )
      )
    )
    (symbol "Connector_Generic:Conn_01x08" (pin_names (offset 1.016) hide) (in_bom yes) (on_board yes)
      (property "Reference" "J" (at 0 10.16 0)
        (effects (font (size 1.27 1.27)))
      )
      (property "Value" "Conn_01x08" (at 0 -12.7 0)
        (effects (font (size 1.27 1.27)))
      )
      (property "Footprint" "" (at 0 0 0)
        (effects (font (size 1.27 1.27)) hide)
      )
      (property "Datasheet" "~" (at 0 0 0)
        (effects (font (size 1.27 1.27)) hide)
      )
      (property "ki_keywords" "connector" (at 0 0 0)
        (effects (font (size 1.27 1.27)) hide)
      )
      (property "ki_description" "Generic connector, single row, 01x08, script generated (kicad-library-utils/schlib/autogen/connector/)" (at 0 0 0)
        (effects (font (size 1.27 1.27)) hide)
      )
      (property "ki_fp_filters" "Connector*:*_1x??_*" (at 0 0 0)
        (effects (font (size 1.27 1.27)) hide)
      )
      (symbol "Conn_01x08_1_1"
        (rectangle (start -1.27 -10.033) (end 0 -10.287)
          (stroke (width 0.1524) (type default))
          (fill (type none))
        )
        (rectangle (start -1.27 -7.493) (end 0 -7.747)
          (stroke (width 0.1524) (type default))
          (fill (type none))
        )
        (rectangle (start -1.27 -4.953) (end 0 -5.207)
          (stroke (width 0.1524) (type default))
          (fill (type none))
        )
        (rectangle (start -1.27 -2.413) (end 0 -2.667)
          (stroke (width 0.1524) (type default))
          (fill (type none))
        )
        (rectangle (start -1.27 0.127) (end 0 -0.127)
          (stroke (width 0.1524) (type default))
          (fill (type none))
        )
        (rectangle (start -1.27 2.667) (end 0 2.413)
          (stroke (width 0.1524) (type default))
          (fill (type none))
        )
        (rectangle (start -1.27 5.207) (end 0 4.953)
          (stroke (width 0.1524) (type default))
          (fill (type none))
        )
        (rectangle (start -1.27 7.747) (end 0 7.493)
          (stroke (width 0.1524) (type default))
          (fill (type none))
        )
        (rectangle (start -1.27 8.89) (end 1.27 -11.43)
          (stroke (width 0.254) (type default))
          (fill (type background))
        )
        (pin passive line (at -5.08 7.62 0) (length 3.81)
          (name "Pin_1" (effects (font (size 1.27 1.27))))
          (number "1" (effects (font (size 1.27 1.27))))
        )
        (pin passive line (at -5.08 5.08 0) (length 3.81)
          (name "Pin_2" (effects (font (size 1.27 1.27))))
          (number "2" (effects (font (size 1.27 1.27))))
        )
        (pin passive line (at -5.08 2.54 0) (length 3.81)
          (name "Pin_3" (effects (font (size 1.27 1.27))))
          (number "3" (effects (font (size 1.27 1.27))))
        )
        (pin passive line (at -5.08 0 0) (length 3.81)
          (name "Pin_4" (effects (font (size 1.27 1.27))))
          (number "4" (effects (font (size 1.27 1.27))))
        )
        (pin passive line (at -5.08 -2.54 0) (length 3.81)
          (name "Pin_5" (effects (font (size 1.27 1.27))))
          (number "5" (effects (font (size 1.27 1.27))))
        )
        (pin passive line (at -5.08 -5.08 0) (length 3.81)
          (name "Pin_6" (effects (font (size 1.27 1.27))))
          (number "6" (effects (font (size 1.27 1.27))))
        )
        (pin passive line (at -5.08 -7.62 0) (length 3.81)
          (name "Pin_7" (effects (font (size 1.27 1.27))))
          (number "7" (effects (font (size 1.27 1.27))))
        )
        (pin passive line (at -5.08 -10.16 0) (length 3.81)
          (name "Pin_8" (effects (font (size 1.27 1.27))))
          (number "8" (effects (font (size 1.27 1.27))))
        )
      )
    )
    (symbol "Connector_Generic:Conn_02x05_Odd_Even" (pin_names (offset 1.016) hide) (in_bom yes) (on_board yes)
      (property "Reference" "J" (at 1.27 7.62 0)
        (effects (font (size 1.27 1.27)))
      )
      (property "Value" "Conn_02x05_Odd_Even" (at 1.27 -7.62 0)
        (effects (font (size 1.27 1.27)))
      )
      (property "Footprint" "" (at 0 0 0)
        (effects (font (size 1.27 1.27)) hide)
      )
      (property "Datasheet" "~" (at 0 0 0)
        (effects (font (size 1.27 1.27)) hide)
      )
      (property "ki_keywords" "connector" (at 0 0 0)
        (effects (font (size 1.27 1.27)) hide)
      )
      (property "ki_description" "Generic connector, double row, 02x05, odd/even pin numbering scheme (row 1 odd numbers, row 2 even numbers), script generated (kicad-library-utils/schlib/autogen/connector/)" (at 0 0 0)
        (effects (font (size 1.27 1.27)) hide)
      )
      (property "ki_fp_filters" "Connector*:*_2x??_*" (at 0 0 0)
        (effects (font (size 1.27 1.27)) hide)
      )
      (symbol "Conn_02x05_Odd_Even_1_1"
        (rectangle (start -1.27 -4.953) (end 0 -5.207)
          (stroke (width 0.1524) (type default))
          (fill (type none))
        )
        (rectangle (start -1.27 -2.413) (end 0 -2.667)
          (stroke (width 0.1524) (type default))
          (fill (type none))
        )
        (rectangle (start -1.27 0.127) (end 0 -0.127)
          (stroke (width 0.1524) (type default))
          (fill (type none))
        )
        (rectangle (start -1.27 2.667) (end 0 2.413)
          (stroke (width 0.1524) (type default))
          (fill (type none))
        )
        (rectangle (start -1.27 5.207) (end 0 4.953)
          (stroke (width 0.1524) (type default))
          (fill (type none))
        )
        (rectangle (start -1.27 6.35) (end 3.81 -6.35)
          (stroke (width 0.254) (type default))
          (fill (type background))
        )
        (rectangle (start 3.81 -4.953) (end 2.54 -5.207)
          (stroke (width 0.1524) (type default))
          (fill (type none))
        )
        (rectangle (start 3.81 -2.413) (end 2.54 -2.667)
          (stroke (width 0.1524) (type default))
          (fill (type none))
        )
        (rectangle (start 3.81 0.127) (end 2.54 -0.127)
          (stroke (width 0.1524) (type default))
          (fill (type none))
        )
        (rectangle (start 3.81 2.667) (end 2.54 2.413)
          (stroke (width 0.1524) (type default))
          (fill (type none))
        )
        (rectangle (start 3.81 5.207) (end 2.54 4.953)
          (stroke (width 0.1524) (type default))
          (fill (type none))
        )
        (pin passive line (at -5.08 5.08 0) (length 3.81)
          (name "Pin_1" (effects (font (size 1.27 1.27))))
          (number "1" (effects (font (size 1.27 1.27))))
        )
        (pin passive line (at 7.62 -5.08 180) (length 3.81)
          (name "Pin_10" (effects (font (size 1.27 1.27))))
          (number "10" (effects (font (size 1.27 1.27))))
        )
        (pin passive line (at 7.62 5.08 180) (length 3.81)
          (name "Pin_2" (effects (font (size 1.27 1.27))))
          (number "2" (effects (font (size 1.27 1.27))))
        )
        (pin passive line (at -5.08 2.54 0) (length 3.81)
          (name "Pin_3" (effects (font (size 1.27 1.27))))
          (number "3" (effects (font (size 1.27 1.27))))
        )
        (pin passive line (at 7.62 2.54 180) (length 3.81)
          (name "Pin_4" (effects (font (size 1.27 1.27))))
          (number "4" (effects (font (size 1.27 1.27))))
        )
        (pin passive line (at -5.08 0 0) (length 3.81)
          (name "Pin_5" (effects (font (size 1.27 1.27))))
          (number "5" (effects (font (size 1.27 1.27))))
        )
        (pin passive line (at 7.62 0 180) (length 3.81)
          (name "Pin_6" (effects (font (size 1.27 1.27))))
          (number "6" (effects (font (size 1.27 1.27))))
        )
        (pin passive line (at -5.08 -2.54 0) (length 3.81)
          (name "Pin_7" (effects (font (size 1.27 1.27))))
          (number "7" (effects (font (size 1.27 1.27))))
        )
        (pin passive line (at 7.62 -2.54 180) (length 3.81)
          (name "Pin_8" (effects (font (size 1.27 1.27))))
          (number "8" (effects (font (size 1.27 1.27))))
        )
        (pin passive line (at -5.08 -5.08 0) (length 3.81)
          (name "Pin_9" (effects (font (size 1.27 1.27))))
          (number "9" (effects (font (size 1.27 1.27))))
        )
      )
    )
    (symbol "Device:C_Small" (pin_numbers hide) (pin_names (offset 0.254) hide) (in_bom yes) (on_board yes)
      (property "Reference" "C" (at 0.254 1.778 0)
        (effects (font (size 1.27 1.27)) (justify left))
      )
      (property "Value" "C_Small" (at 0.254 -2.032 0)
        (effects (font (size 1.27 1.27)) (justify left))
      )
      (property "Footprint" "" (at 0 0 0)
        (effects (font (size 1.27 1.27)) hide)
      )
      (property "Datasheet" "~" (at 0 0 0)
        (effects (font (size 1.27 1.27)) hide)
      )
      (property "ki_keywords" "capacitor cap" (at 0 0 0)
        (effects (font (size 1.27 1.27)) hide)
      )
      (property "ki_description" "Unpolarized capacitor, small symbol" (at 0 0 0)
        (effects (font (size 1.27 1.27)) hide)
      )
      (property "ki_fp_filters" "C_*" (at 0 0 0)
        (effects (font (size 1.27 1.27)) hide)
      )
      (symbol "C_Small_0_1"
        (polyline
          (pts
            (xy -1.524 -0.508)
            (xy 1.524 -0.508)
          )
          (stroke (width 0.3302) (type default))
          (fill (type none))
        )
        (polyline
          (pts
            (xy -1.524 0.508)
            (xy 1.524 0.508)
          )
          (stroke (width 0.3048) (type default))
          (fill (type none))
        )
      )
      (symbol "C_Small_1_1"
        (pin passive line (at 0 2.54 270) (length 2.032)
          (name "~" (effects (font (size 1.27 1.27))))
          (number "1" (effects (font (size 1.27 1.27))))
        )
        (pin passive line (at 0 -2.54 90) (length 2.032)
          (name "~" (effects (font (size 1.27 1.27))))
          (number "2" (effects (font (size 1.27 1.27))))
        )
      )
    )
    (symbol "Device:R_Small" (pin_numbers hide) (pin_names (offset 0.254) hide) (in_bom yes) (on_board yes)
      (property "Reference" "R" (at 0.762 0.508 0)
        (effects (font (size 1.27 1.27)) (justify left))
      )
      (property "Value" "R_Small" (at 0.762 -1.016 0)
        (effects (font (size 1.27 1.27)) (justify left))
      )
      (property "Footprint" "" (at 0 0 0)
        (effects (font (size 1.27 1.27)) hide)
      )
      (property "Datasheet" "~" (at 0 0 0)
        (effects (font (size 1.27 1.27)) hide)
      )
      (property "ki_keywords" "R resistor" (at 0 0 0)
        (effects (font (size 1.27 1.27)) hide)
      )
      (property "ki_description" "Resistor, small symbol" (at 0 0 0)
        (effects (font (size 1.27 1.27)) hide)
      )
      (property "ki_fp_filters" "R_*" (at 0 0 0)
        (effects (font (size 1.27 1.27)) hide)
      )
      (symbol "R_Small_0_1"
        (rectangle (start -0.762 1.778) (end 0.762 -1.778)
          (stroke (width 0.2032) (type default))
          (fill (type none))
        )
      )
      (symbol "R_Small_1_1"
        (pin passive line (at 0 2.54 270) (length 0.762)
          (name "~" (effects (font (size 1.27 1.27))))
          (number "1" (effects (font (size 1.27 1.27))))
        )
        (pin passive line (at 0 -2.54 90) (length 0.762)
          (name "~" (effects (font (size 1.27 1.27))))
          (number "2" (effects (font (size 1.27 1.27))))
        )
      )
    )
    (symbol "Regulator_Linear:AZ1117-3.3" (pin_names (offset 0.254)) (in_bom yes) (on_board yes)
      (property "Reference" "U?" (at 0 5.6048 0)
        (effects (font (size 1.27 1.27)))
      )
      (property "Value" "AZ1117CR2-3.3" (at 0 3.0679 0)
        (effects (font (size 1.27 1.27)))
      )
      (property "Footprint" "" (at 0 6.35 0)
        (effects (font (size 1.27 1.27) italic) hide)
      )
      (property "Datasheet" "https://www.diodes.com/assets/Datasheets/AZ1117.pdf" (at 0 0 0)
        (effects (font (size 1.27 1.27)) hide)
      )
      (property "ki_keywords" "Fixed Voltage Regulator 1A Positive LDO" (at 0 0 0)
        (effects (font (size 1.27 1.27)) hide)
      )
      (property "ki_description" "1A 20V Fixed LDO Linear Regulator, 3.3V, SOT-89/SOT-223/TO-220/TO-252/TO-263" (at 0 0 0)
        (effects (font (size 1.27 1.27)) hide)
      )
      (property "ki_fp_filters" "SOT?223* SOT?89* TO?220* TO?252* TO?263*" (at 0 0 0)
        (effects (font (size 1.27 1.27)) hide)
      )
      (symbol "AZ1117-3.3_0_1"
        (rectangle (start -5.08 1.905) (end 5.08 -5.08)
          (stroke (width 0.254) (type default))
          (fill (type background))
        )
      )
      (symbol "AZ1117-3.3_1_1"
        (pin power_in line (at 0 -7.62 90) (length 2.54)
          (name "GND" (effects (font (size 1.27 1.27))))
          (number "1" (effects (font (size 1.27 1.27))))
        )
        (pin power_in line (at -7.62 0 0) (length 2.54)
          (name "VI" (effects (font (size 1.27 1.27))))
          (number "2" (effects (font (size 1.27 1.27))))
        )
        (pin power_out line (at 7.62 0 180) (length 2.54)
          (name "VO" (effects (font (size 1.27 1.27))))
          (number "3" (effects (font (size 1.27 1.27))))
        )
      )
    )
    (symbol "Switch:SW_SPDT" (pin_names (offset 0) hide) (in_bom yes) (on_board yes)
      (property "Reference" "SW" (at 0 4.318 0)
        (effects (font (size 1.27 1.27)))
      )
      (property "Value" "SW_SPDT" (at 0 -5.08 0)
        (effects (font (size 1.27 1.27)))
      )
      (property "Footprint" "" (at 0 0 0)
        (effects (font (size 1.27 1.27)) hide)
      )
      (property "Datasheet" "~" (at 0 0 0)
        (effects (font (size 1.27 1.27)) hide)
      )
      (property "ki_keywords" "switch single-pole double-throw spdt ON-ON" (at 0 0 0)
        (effects (font (size 1.27 1.27)) hide)
      )
      (property "ki_description" "Switch, single pole double throw" (at 0 0 0)
        (effects (font (size 1.27 1.27)) hide)
      )
      (symbol "SW_SPDT_0_0"
        (circle (center -2.032 0) (radius 0.508)
          (stroke (width 0) (type default))
          (fill (type none))
        )
        (circle (center 2.032 -2.54) (radius 0.508)
          (stroke (width 0) (type default))
          (fill (type none))
        )
      )
      (symbol "SW_SPDT_0_1"
        (polyline
          (pts
            (xy -1.524 0.254)
            (xy 1.651 2.286)
          )
          (stroke (width 0) (type default))
          (fill (type none))
        )
        (circle (center 2.032 2.54) (radius 0.508)
          (stroke (width 0) (type default))
          (fill (type none))
        )
      )
      (symbol "SW_SPDT_1_1"
        (pin passive line (at 5.08 2.54 180) (length 2.54)
          (name "A" (effects (font (size 1.27 1.27))))
          (number "1" (effects (font (size 1.27 1.27))))
        )
        (pin passive line (at -5.08 0 0) (length 2.54)
          (name "B" (effects (font (size 1.27 1.27))))
          (number "2" (effects (font (size 1.27 1.27))))
        )
        (pin passive line (at 5.08 -2.54 180) (length 2.54)
          (name "C" (effects (font (size 1.27 1.27))))
          (number "3" (effects (font (size 1.27 1.27))))
        )
      )
    )
    (symbol "power:+3V3" (power) (pin_names (offset 0)) (in_bom yes) (on_board yes)
      (property "Reference" "#PWR" (at 0 -3.81 0)
        (effects (font (size 1.27 1.27)) hide)
      )
      (property "Value" "+3V3" (at 0 3.556 0)
        (effects (font (size 1.27 1.27)))
      )
      (property "Footprint" "" (at 0 0 0)
        (effects (font (size 1.27 1.27)) hide)
      )
      (property "Datasheet" "" (at 0 0 0)
        (effects (font (size 1.27 1.27)) hide)
      )
      (property "ki_keywords" "power-flag" (at 0 0 0)
        (effects (font (size 1.27 1.27)) hide)
      )
      (property "ki_description" "Power symbol creates a global label with name \"+3V3\"" (at 0 0 0)
        (effects (font (size 1.27 1.27)) hide)
      )
      (symbol "+3V3_0_1"
        (polyline
          (pts
            (xy -0.762 1.27)
            (xy 0 2.54)
          )
          (stroke (width 0) (type default))
          (fill (type none))
        )
        (polyline
          (pts
            (xy 0 0)
            (xy 0 2.54)
          )
          (stroke (width 0) (type default))
          (fill (type none))
        )
        (polyline
          (pts
            (xy 0 2.54)
            (xy 0.762 1.27)
          )
          (stroke (width 0) (type default))
          (fill (type none))
        )
      )
      (symbol "+3V3_1_1"
        (pin power_in line (at 0 0 90) (length 0) hide
          (name "+3V3" (effects (font (size 1.27 1.27))))
          (number "1" (effects (font (size 1.27 1.27))))
        )
      )
    )
    (symbol "power:+5V" (power) (pin_names (offset 0)) (in_bom yes) (on_board yes)
      (property "Reference" "#PWR" (at 0 -3.81 0)
        (effects (font (size 1.27 1.27)) hide)
      )
      (property "Value" "+5V" (at 0 3.556 0)
        (effects (font (size 1.27 1.27)))
      )
      (property "Footprint" "" (at 0 0 0)
        (effects (font (size 1.27 1.27)) hide)
      )
      (property "Datasheet" "" (at 0 0 0)
        (effects (font (size 1.27 1.27)) hide)
      )
      (property "ki_keywords" "power-flag" (at 0 0 0)
        (effects (font (size 1.27 1.27)) hide)
      )
      (property "ki_description" "Power symbol creates a global label with name \"+5V\"" (at 0 0 0)
        (effects (font (size 1.27 1.27)) hide)
      )
      (symbol "+5V_0_1"
        (polyline
          (pts
            (xy -0.762 1.27)
            (xy 0 2.54)
          )
          (stroke (width 0) (type default))
          (fill (type none))
        )
        (polyline
          (pts
            (xy 0 0)
            (xy 0 2.54)
          )
          (stroke (width 0) (type default))
          (fill (type none))
        )
        (polyline
          (pts
            (xy 0 2.54)
            (xy 0.762 1.27)
          )
          (stroke (width 0) (type default))
          (fill (type none))
        )
      )
      (symbol "+5V_1_1"
        (pin power_in line (at 0 0 90) (length 0) hide
          (name "+5V" (effects (font (size 1.27 1.27))))
          (number "1" (effects (font (size 1.27 1.27))))
        )
      )
    )
    (symbol "power:GND" (power) (pin_names (offset 0)) (in_bom yes) (on_board yes)
      (property "Reference" "#PWR" (at 0 -6.35 0)
        (effects (font (size 1.27 1.27)) hide)
      )
      (property "Value" "GND" (at 0 -3.81 0)
        (effects (font (size 1.27 1.27)))
      )
      (property "Footprint" "" (at 0 0 0)
        (effects (font (size 1.27 1.27)) hide)
      )
      (property "Datasheet" "" (at 0 0 0)
        (effects (font (size 1.27 1.27)) hide)
      )
      (property "ki_keywords" "power-flag" (at 0 0 0)
        (effects (font (size 1.27 1.27)) hide)
      )
      (property "ki_description" "Power symbol creates a global label with name \"GND\" , ground" (at 0 0 0)
        (effects (font (size 1.27 1.27)) hide)
      )
      (symbol "GND_0_1"
        (polyline
          (pts
            (xy 0 0)
            (xy 0 -1.27)
            (xy 1.27 -1.27)
            (xy 0 -2.54)
            (xy -1.27 -1.27)
            (xy 0 -1.27)
          )
          (stroke (width 0) (type default))
          (fill (type none))
        )
      )
      (symbol "GND_1_1"
        (pin power_in line (at 0 0 270) (length 0) hide
          (name "GND" (effects (font (size 1.27 1.27))))
          (number "1" (effects (font (size 1.27 1.27))))
        )
      )
    )
    (symbol "power:PWR_FLAG" (power) (pin_numbers hide) (pin_names (offset 0) hide) (in_bom yes) (on_board yes)
      (property "Reference" "#FLG" (at 0 1.905 0)
        (effects (font (size 1.27 1.27)) hide)
      )
      (property "Value" "PWR_FLAG" (at 0 3.81 0)
        (effects (font (size 1.27 1.27)))
      )
      (property "Footprint" "" (at 0 0 0)
        (effects (font (size 1.27 1.27)) hide)
      )
      (property "Datasheet" "~" (at 0 0 0)
        (effects (font (size 1.27 1.27)) hide)
      )
      (property "ki_keywords" "power-flag" (at 0 0 0)
        (effects (font (size 1.27 1.27)) hide)
      )
      (property "ki_description" "Special symbol for telling ERC where power comes from" (at 0 0 0)
        (effects (font (size 1.27 1.27)) hide)
      )
      (symbol "PWR_FLAG_0_0"
        (pin power_out line (at 0 0 90) (length 0)
          (name "pwr" (effects (font (size 1.27 1.27))))
          (number "1" (effects (font (size 1.27 1.27))))
        )
      )
      (symbol "PWR_FLAG_0_1"
        (polyline
          (pts
            (xy 0 0)
            (xy 0 1.27)
            (xy -1.016 1.905)
            (xy 0 2.54)
            (xy 1.016 1.905)
            (xy 0 1.27)
          )
          (stroke (width 0) (type default))
          (fill (type none))
        )
      )
    )
    (symbol "power:VDD" (power) (pin_names (offset 0)) (in_bom yes) (on_board yes)
      (property "Reference" "#PWR" (at 0 -3.81 0)
        (effects (font (size 1.27 1.27)) hide)
      )
      (property "Value" "VDD" (at 0 3.81 0)
        (effects (font (size 1.27 1.27)))
      )
      (property "Footprint" "" (at 0 0 0)
        (effects (font (size 1.27 1.27)) hide)
      )
      (property "Datasheet" "" (at 0 0 0)
        (effects (font (size 1.27 1.27)) hide)
      )
      (property "ki_keywords" "power-flag" (at 0 0 0)
        (effects (font (size 1.27 1.27)) hide)
      )
      (property "ki_description" "Power symbol creates a global label with name \"VDD\"" (at 0 0 0)
        (effects (font (size 1.27 1.27)) hide)
      )
      (symbol "VDD_0_1"
        (polyline
          (pts
            (xy -0.762 1.27)
            (xy 0 2.54)
          )
          (stroke (width 0) (type default))
          (fill (type none))
        )
        (polyline
          (pts
            (xy 0 0)
            (xy 0 2.54)
          )
          (stroke (width 0) (type default))
          (fill (type none))
        )
        (polyline
          (pts
            (xy 0 2.54)
            (xy 0.762 1.27)
          )
          (stroke (width 0) (type default))
          (fill (type none))
        )
      )
      (symbol "VDD_1_1"
        (pin power_in line (at 0 0 90) (length 0) hide
          (name "VDD" (effects (font (size 1.27 1.27))))
          (number "1" (effects (font (size 1.27 1.27))))
        )
      )
    )
  )

  (junction (at 132.715 85.725) (diameter 0) (color 0 0 0 0)
    (uuid 1a01feb6-c119-4776-8e4e-aa924601916e)
  )
  (junction (at 125.095 85.725) (diameter 0) (color 0 0 0 0)
    (uuid 3f2417bd-1e7d-40c1-ad50-fdb0bdc291fe)
  )
  (junction (at 154.94 118.11) (diameter 0) (color 0 0 0 0)
    (uuid 4584e4c6-1b46-41f5-8835-006d4ba675cf)
  )
  (junction (at 153.035 85.725) (diameter 0) (color 0 0 0 0)
    (uuid 8835b8be-cb19-4091-ac88-798f2a88bcbb)
  )
  (junction (at 191.77 85.725) (diameter 0) (color 0 0 0 0)
    (uuid b0a0090c-4152-43d5-bbbe-b422de252677)
  )
  (junction (at 131.445 109.22) (diameter 0) (color 0 0 0 0)
    (uuid e5c7c28a-a541-4584-a01d-83d54a9bc0dc)
  )
  (junction (at 142.875 93.345) (diameter 0) (color 0 0 0 0)
    (uuid f87fcc81-714c-4763-aefe-9afd2d84f6d8)
  )

  (no_connect (at 190.5 90.805) (uuid c105c37a-b851-4f08-915f-46b7dd6694f5))

  (wire (pts (xy 142.875 93.345) (xy 153.035 93.345))
    (stroke (width 0) (type default))
    (uuid 1443346d-557a-4359-b557-9081268c98eb)
  )
  (wire (pts (xy 148.59 115.57) (xy 156.21 115.57))
    (stroke (width 0) (type default))
    (uuid 17663a89-0c79-41b5-82f0-6792eacdbfcb)
  )
  (wire (pts (xy 132.715 85.725) (xy 135.255 85.725))
    (stroke (width 0) (type default))
    (uuid 1a6d6175-3601-4d37-9695-12c71c8902ac)
  )
  (wire (pts (xy 162.56 90.805) (xy 169.545 90.805))
    (stroke (width 0) (type default))
    (uuid 1fdfa2ad-7cdf-4689-8b3c-5e84165c96b4)
  )
  (wire (pts (xy 123.825 106.68) (xy 131.445 106.68))
    (stroke (width 0) (type default))
    (uuid 371c8118-0d42-4294-96c3-37c4ad41d04f)
  )
  (wire (pts (xy 168.275 84.455) (xy 168.275 85.725))
    (stroke (width 0) (type default))
    (uuid 44fd3201-c63d-4e57-87b9-8174ce85ad40)
  )
  (wire (pts (xy 131.445 109.22) (xy 131.445 110.49))
    (stroke (width 0) (type default))
    (uuid 4e36cec0-be87-49a6-b5ef-6ea232c0f961)
  )
  (wire (pts (xy 168.275 85.725) (xy 169.545 85.725))
    (stroke (width 0) (type default))
    (uuid 5e2b3495-2129-4c4b-a5fa-17bd00ac0f6c)
  )
  (wire (pts (xy 154.94 118.11) (xy 154.94 110.49))
    (stroke (width 0) (type default))
    (uuid 60bd9040-6a32-4058-a0d4-c0ff82075c0f)
  )
  (wire (pts (xy 153.67 113.03) (xy 156.21 113.03))
    (stroke (width 0) (type default))
    (uuid 71da50d5-7ff5-470e-a356-f546f1fc815e)
  )
  (wire (pts (xy 162.56 84.455) (xy 162.56 90.805))
    (stroke (width 0) (type default))
    (uuid 761a8bb8-2915-4fea-b37a-5424593a1908)
  )
  (wire (pts (xy 125.095 85.725) (xy 125.095 84.455))
    (stroke (width 0) (type default))
    (uuid 7f410f43-66d8-4e6b-aef4-8a50b525201b)
  )
  (wire (pts (xy 150.495 85.725) (xy 153.035 85.725))
    (stroke (width 0) (type default))
    (uuid 8343091e-a2ad-46b4-b387-d75b794e395e)
  )
  (wire (pts (xy 132.715 92.075) (xy 132.715 93.345))
    (stroke (width 0) (type default))
    (uuid 87334bcf-97ae-430d-88be-60f343c05e67)
  )
  (wire (pts (xy 191.77 85.725) (xy 191.77 84.455))
    (stroke (width 0) (type default))
    (uuid 88d98308-e012-45ca-abd6-05c9498a8001)
  )
  (wire (pts (xy 123.825 109.22) (xy 131.445 109.22))
    (stroke (width 0) (type default))
    (uuid 8ac8dc42-e34d-4a73-a83e-febfd2fdaf34)
  )
  (wire (pts (xy 132.715 84.455) (xy 132.715 85.725))
    (stroke (width 0) (type default))
    (uuid 8b11a77b-f88b-4cbb-aef2-dd9744cd72a6)
  )
  (wire (pts (xy 123.825 85.725) (xy 125.095 85.725))
    (stroke (width 0) (type default))
    (uuid 8f35d2e5-8c1a-4df9-b1b6-1977c3413d25)
  )
  (wire (pts (xy 153.035 86.995) (xy 153.035 85.725))
    (stroke (width 0) (type default))
    (uuid 9f6398df-4ac2-410a-acde-2fbcafa3c45f)
  )
  (wire (pts (xy 168.91 118.11) (xy 173.99 118.11))
    (stroke (width 0) (type default))
    (uuid a347f4a1-ff46-4e9a-ad36-99139b637136)
  )
  (wire (pts (xy 154.94 107.95) (xy 154.94 106.68))
    (stroke (width 0) (type default))
    (uuid a419e156-f726-4449-85b6-a2b1c52c2d34)
  )
  (wire (pts (xy 180.34 88.265) (xy 179.705 88.265))
    (stroke (width 0) (type default))
    (uuid a6472501-a08a-4002-95c6-67a40f24026e)
  )
  (wire (pts (xy 132.715 93.345) (xy 142.875 93.345))
    (stroke (width 0) (type default))
    (uuid a950619d-c6ce-4ff5-8c97-c9b2091aac9b)
  )
  (wire (pts (xy 190.5 85.725) (xy 191.77 85.725))
    (stroke (width 0) (type default))
    (uuid acca4f7c-521c-4058-80f5-f4575c4769e6)
  )
  (wire (pts (xy 156.21 107.95) (xy 154.94 107.95))
    (stroke (width 0) (type default))
    (uuid c8327958-4ea2-4cdf-b1d2-70c73565b2af)
  )
  (wire (pts (xy 153.035 84.455) (xy 153.035 85.725))
    (stroke (width 0) (type default))
    (uuid ca14bcaf-c926-4f0e-b0c6-aca63ab395d6)
  )
  (wire (pts (xy 153.035 93.345) (xy 153.035 92.075))
    (stroke (width 0) (type default))
    (uuid cca7bf72-890e-4978-89c6-eedaec2e8151)
  )
  (wire (pts (xy 154.94 118.11) (xy 156.21 118.11))
    (stroke (width 0) (type default))
    (uuid d36319d0-d8f7-4d10-bb05-ff3a2e122819)
  )
  (wire (pts (xy 154.94 110.49) (xy 156.21 110.49))
    (stroke (width 0) (type default))
    (uuid dd17c2e0-bd50-4dae-8203-90074e57968f)
  )
  (wire (pts (xy 154.94 119.38) (xy 154.94 118.11))
    (stroke (width 0) (type default))
    (uuid e15fafa1-ca79-400a-8c70-ea5b32436e0c)
  )
  (wire (pts (xy 131.445 106.68) (xy 131.445 105.41))
    (stroke (width 0) (type default))
    (uuid f6f91ae3-4efa-4451-b53a-628a035dbeb4)
  )
  (wire (pts (xy 132.715 85.725) (xy 132.715 86.995))
    (stroke (width 0) (type default))
    (uuid f8847efd-b80b-4ded-8be7-a8f42f95b5f2)
  )

  (text "TVDD" (at 123.825 106.68 0)
    (effects (font (size 1.27 1.27)) (justify left bottom))
    (uuid 610ab6de-7665-4390-943e-72444fc53d0d)
  )
  (text "GND" (at 123.825 109.22 0)
    (effects (font (size 1.27 1.27)) (justify left bottom))
    (uuid a9cdd209-a6bd-452a-88b4-543d3cffd0fb)
  )

  (label "PGD" (at 168.91 113.03 0) (fields_autoplaced)
    (effects (font (size 1.27 1.27)) (justify left bottom))
    (uuid 13e9807e-3271-4584-88a9-508601468c03)
  )
  (label "TVPP" (at 123.825 104.14 0) (fields_autoplaced)
    (effects (font (size 1.27 1.27)) (justify left bottom))
    (uuid 245f9c4e-b4c8-4fe5-8f09-a0bf74be3135)
  )
  (label "PGC" (at 123.825 114.3 0) (fields_autoplaced)
    (effects (font (size 1.27 1.27)) (justify left bottom))
    (uuid 3d638713-ba0d-4164-9e22-75c90cf2b8c5)
  )
  (label "TAUX" (at 123.825 116.84 0) (fields_autoplaced)
    (effects (font (size 1.27 1.27)) (justify left bottom))
    (uuid 5fb23e6e-52a3-4a97-a03e-f97a15436275)
  )
  (label "PGD" (at 123.825 111.76 0) (fields_autoplaced)
    (effects (font (size 1.27 1.27)) (justify left bottom))
    (uuid 654a52a0-d132-4e73-a443-735a980521c3)
  )
  (label "TTMS" (at 148.59 113.03 180) (fields_autoplaced)
    (effects (font (size 1.27 1.27)) (justify right bottom))
    (uuid 6e474be5-0bea-41a0-a8cc-66dd4759e163)
  )
  (label "PGC" (at 168.91 110.49 0) (fields_autoplaced)
    (effects (font (size 1.27 1.27)) (justify left bottom))
    (uuid 807ebf4f-5d0e-4525-8179-87de289ed60e)
  )
  (label "TTMS" (at 123.825 121.92 0) (fields_autoplaced)
    (effects (font (size 1.27 1.27)) (justify left bottom))
    (uuid 92d6fd66-d9f6-40e6-a8e9-2b23acca3003)
  )
  (label "TAUX" (at 184.15 120.65 0) (fields_autoplaced)
    (effects (font (size 1.27 1.27)) (justify left bottom))
    (uuid 98b32a4a-a4c4-48d5-8324-0917f6509d73)
  )
  (label "TVPP" (at 184.15 115.57 0) (fields_autoplaced)
    (effects (font (size 1.27 1.27)) (justify left bottom))
    (uuid 9ba4e5fa-1d92-40d0-9c45-9a0377913b9b)
  )
  (label "TTMS" (at 168.91 107.95 0) (fields_autoplaced)
    (effects (font (size 1.27 1.27)) (justify left bottom))
    (uuid cec8adee-d40e-44b6-b6aa-81a71e0cedf6)
  )
  (label "TTDI" (at 168.91 115.57 0) (fields_autoplaced)
    (effects (font (size 1.27 1.27)) (justify left bottom))
    (uuid d3698af5-59ee-434c-bcb4-cea5ee373d6c)
  )
  (label "TTDI" (at 148.59 115.57 180) (fields_autoplaced)
    (effects (font (size 1.27 1.27)) (justify right bottom))
    (uuid d7d69174-c05a-482e-b993-d3302aaf2dc4)
  )
  (label "TTDI" (at 123.825 119.38 0) (fields_autoplaced)
    (effects (font (size 1.27 1.27)) (justify left bottom))
    (uuid fc132493-230c-46fe-8f36-14932e9c3240)
  )

  (symbol (lib_id "power:+5V") (at 125.095 84.455 0) (unit 1)
    (in_bom yes) (on_board yes) (dnp no) (fields_autoplaced)
    (uuid 02bdfe21-792b-41e1-9445-9e0060054caa)
    (property "Reference" "#PWR01" (at 125.095 88.265 0)
      (effects (font (size 1.27 1.27)) hide)
    )
    (property "Value" "+5V" (at 125.095 80.8792 0)
      (effects (font (size 1.27 1.27)))
    )
    (property "Footprint" "" (at 125.095 84.455 0)
      (effects (font (size 1.27 1.27)) hide)
    )
    (property "Datasheet" "" (at 125.095 84.455 0)
      (effects (font (size 1.27 1.27)) hide)
    )
    (pin "1" (uuid 92606f68-a7c1-4e6a-891f-c936868f1393))
    (instances
      (project "mplabsnap"
        (path "/e63e39d7-6ac0-4ffd-8aa3-1841a4541b55"
          (reference "#PWR01") (unit 1)
        )
      )
    )
  )

  (symbol (lib_id "power:GND") (at 142.875 93.345 0) (unit 1)
    (in_bom yes) (on_board yes) (dnp no) (fields_autoplaced)
    (uuid 0decbabd-b829-437d-8e70-bef1429054a6)
    (property "Reference" "#PWR05" (at 142.875 99.695 0)
      (effects (font (size 1.27 1.27)) hide)
    )
    (property "Value" "GND" (at 142.875 97.7884 0)
      (effects (font (size 1.27 1.27)))
    )
    (property "Footprint" "" (at 142.875 93.345 0)
      (effects (font (size 1.27 1.27)) hide)
    )
    (property "Datasheet" "" (at 142.875 93.345 0)
      (effects (font (size 1.27 1.27)) hide)
    )
    (pin "1" (uuid d1fae735-864a-41f1-82bb-dd39a6ffb6f6))
    (instances
      (project "mplabsnap"
        (path "/e63e39d7-6ac0-4ffd-8aa3-1841a4541b55"
          (reference "#PWR05") (unit 1)
        )
      )
    )
  )

  (symbol (lib_id "Regulator_Linear:AZ1117-3.3") (at 142.875 85.725 0) (unit 1)
    (in_bom yes) (on_board yes) (dnp no)
    (uuid 21134327-3e4d-4228-8764-4dc3b41ce284)
    (property "Reference" "U1" (at 142.875 80.01 0)
      (effects (font (size 1.27 1.27)))
    )
    (property "Value" "AZ1117CR2-3.3" (at 142.875 82.55 0)
      (effects (font (size 1.27 1.27)))
    )
    (property "Footprint" "Package_TO_SOT_SMD:SOT-89-3" (at 142.875 79.375 0)
      (effects (font (size 1.27 1.27) italic) hide)
    )
    (property "Datasheet" "https://www.diodes.com/assets/Datasheets/AZ1117.pdf" (at 142.875 85.725 0)
      (effects (font (size 1.27 1.27)) hide)
    )
    (pin "1" (uuid 6d9d303d-1320-4435-bf48-97c30db130d4))
    (pin "2" (uuid c0901924-ed1f-466c-a1ca-bdea73f1623f))
    (pin "3" (uuid db618b0f-577a-4815-ae2e-de7b88ce1fae))
    (instances
      (project "mplabsnap"
        (path "/e63e39d7-6ac0-4ffd-8aa3-1841a4541b55"
          (reference "U1") (unit 1)
        )
      )
    )
  )

  (symbol (lib_id "Connector_Generic:Conn_01x01") (at 118.745 85.725 180) (unit 1)
    (in_bom yes) (on_board yes) (dnp no)
    (uuid 28f42fec-263d-457b-8d5a-39443db3a08d)
    (property "Reference" "J1" (at 118.745 81.28 0)
      (effects (font (size 1.27 1.27)))
    )
    (property "Value" "5V" (at 118.745 83.185 0)
      (effects (font (size 1.27 1.27)))
    )
    (property "Footprint" "TestPoint:TestPoint_THTPad_D1.5mm_Drill0.7mm" (at 118.745 85.725 0)
      (effects (font (size 1.27 1.27)) hide)
    )
    (property "Datasheet" "~" (at 118.745 85.725 0)
      (effects (font (size 1.27 1.27)) hide)
    )
    (pin "1" (uuid dc3a875b-0699-4358-ab9e-59baf60c4693))
    (instances
      (project "mplabsnap"
        (path "/e63e39d7-6ac0-4ffd-8aa3-1841a4541b55"
          (reference "J1") (unit 1)
        )
      )
    )
  )

  (symbol (lib_id "power:+3V3") (at 153.035 84.455 0) (unit 1)
    (in_bom yes) (on_board yes) (dnp no) (fields_autoplaced)
    (uuid 2ab7b47e-60d2-46d5-be10-528a6f4559e5)
    (property "Reference" "#PWR06" (at 153.035 88.265 0)
      (effects (font (size 1.27 1.27)) hide)
    )
    (property "Value" "+3V3" (at 153.035 80.8792 0)
      (effects (font (size 1.27 1.27)))
    )
    (property "Footprint" "" (at 153.035 84.455 0)
      (effects (font (size 1.27 1.27)) hide)
    )
    (property "Datasheet" "" (at 153.035 84.455 0)
      (effects (font (size 1.27 1.27)) hide)
    )
    (pin "1" (uuid 7e98c0ab-9369-43ce-be83-97a6b21de5e8))
    (instances
      (project "mplabsnap"
        (path "/e63e39d7-6ac0-4ffd-8aa3-1841a4541b55"
          (reference "#PWR06") (unit 1)
        )
      )
    )
  )

  (symbol (lib_id "power:+5V") (at 162.56 84.455 0) (unit 1)
    (in_bom yes) (on_board yes) (dnp no) (fields_autoplaced)
    (uuid 496e0327-9980-4072-8cf6-ef5a6542a22e)
    (property "Reference" "#PWR010" (at 162.56 88.265 0)
      (effects (font (size 1.27 1.27)) hide)
    )
    (property "Value" "+5V" (at 162.56 80.8792 0)
      (effects (font (size 1.27 1.27)))
    )
    (property "Footprint" "" (at 162.56 84.455 0)
      (effects (font (size 1.27 1.27)) hide)
    )
    (property "Datasheet" "" (at 162.56 84.455 0)
      (effects (font (size 1.27 1.27)) hide)
    )
    (pin "1" (uuid 3baabf99-03c2-4cc4-bc23-ea6ea0d451b5))
    (instances
      (project "mplabsnap"
        (path "/e63e39d7-6ac0-4ffd-8aa3-1841a4541b55"
          (reference "#PWR010") (unit 1)
        )
      )
    )
  )

  (symbol (lib_id "Switch:SW_SPDT") (at 185.42 88.265 0) (mirror x) (unit 1)
    (in_bom yes) (on_board yes) (dnp no)
    (uuid 49922c90-7f8d-4eda-8046-b09ee30ebe75)
    (property "Reference" "SW3" (at 185.42 83.82 0)
      (effects (font (size 1.27 1.27)))
    )
    (property "Value" "VTG_PWR" (at 185.42 93.345 0)
      (effects (font (size 1.27 1.27)))
    )
    (property "Footprint" "extraparts:JS202011JAQN" (at 185.42 88.265 0)
      (effects (font (size 1.27 1.27)) hide)
    )
    (property "Datasheet" "~" (at 185.42 88.265 0)
      (effects (font (size 1.27 1.27)) hide)
    )
    (pin "1" (uuid 3245bcba-2ebf-4cc8-acc0-b0405840c7dc))
    (pin "2" (uuid ac3c0aac-bc61-4912-a651-8e7a18fd3eb6))
    (pin "3" (uuid e7340e3f-95c7-4e27-9689-651a5181c385))
    (instances
      (project "mplabsnap"
        (path "/e63e39d7-6ac0-4ffd-8aa3-1841a4541b55"
          (reference "SW3") (unit 1)
        )
      )
    )
  )

  (symbol (lib_id "power:PWR_FLAG") (at 125.095 85.725 270) (unit 1)
    (in_bom yes) (on_board yes) (dnp no) (fields_autoplaced)
    (uuid 52429193-3e91-453f-9836-a583715e6f65)
    (property "Reference" "#FLG01" (at 127 85.725 0)
      (effects (font (size 1.27 1.27)) hide)
    )
    (property "Value" "PWR_FLAG" (at 128.6708 85.725 0)
      (effects (font (size 1.27 1.27)) hide)
    )
    (property "Footprint" "" (at 125.095 85.725 0)
      (effects (font (size 1.27 1.27)) hide)
    )
    (property "Datasheet" "~" (at 125.095 85.725 0)
      (effects (font (size 1.27 1.27)) hide)
    )
    (pin "1" (uuid 9b32914a-c879-4d04-a1fc-c876a1a710d6))
    (instances
      (project "mplabsnap"
        (path "/e63e39d7-6ac0-4ffd-8aa3-1841a4541b55"
          (reference "#FLG01") (unit 1)
        )
      )
    )
  )

  (symbol (lib_id "power:+5V") (at 132.715 84.455 0) (unit 1)
    (in_bom yes) (on_board yes) (dnp no) (fields_autoplaced)
    (uuid 61db40a7-db57-4aae-8c72-950c7abc378c)
    (property "Reference" "#PWR04" (at 132.715 88.265 0)
      (effects (font (size 1.27 1.27)) hide)
    )
    (property "Value" "+5V" (at 132.715 80.8792 0)
      (effects (font (size 1.27 1.27)))
    )
    (property "Footprint" "" (at 132.715 84.455 0)
      (effects (font (size 1.27 1.27)) hide)
    )
    (property "Datasheet" "" (at 132.715 84.455 0)
      (effects (font (size 1.27 1.27)) hide)
    )
    (pin "1" (uuid 3909b25b-bbf8-43da-9242-017a0ada07e2))
    (instances
      (project "mplabsnap"
        (path "/e63e39d7-6ac0-4ffd-8aa3-1841a4541b55"
          (reference "#PWR04") (unit 1)
        )
      )
    )
  )

  (symbol (lib_id "Device:C_Small") (at 132.715 89.535 0) (mirror x) (unit 1)
    (in_bom yes) (on_board yes) (dnp no) (fields_autoplaced)
    (uuid 63c1483b-a233-4a08-8eac-03c7c309e53b)
    (property "Reference" "C1" (at 130.391 88.6939 0)
      (effects (font (size 1.27 1.27)) (justify right))
    )
    (property "Value" "10u" (at 130.391 91.2308 0)
      (effects (font (size 1.27 1.27)) (justify right))
    )
    (property "Footprint" "Capacitor_SMD:C_0805_2012Metric" (at 132.715 89.535 0)
      (effects (font (size 1.27 1.27)) hide)
    )
    (property "Datasheet" "~" (at 132.715 89.535 0)
      (effects (font (size 1.27 1.27)) hide)
    )
    (pin "1" (uuid 042b3e72-d749-4061-85b5-f9dabac93a4f))
    (pin "2" (uuid 866e6db9-b1f5-403c-8b79-c8d09bd1e98f))
    (instances
      (project "mplabsnap"
        (path "/e63e39d7-6ac0-4ffd-8aa3-1841a4541b55"
          (reference "C1") (unit 1)
        )
      )
    )
  )

  (symbol (lib_id "power:VDD") (at 131.445 105.41 0) (unit 1)
    (in_bom yes) (on_board yes) (dnp no)
    (uuid 6933cde0-263f-48f7-8e40-0c192c7c577e)
    (property "Reference" "#PWR02" (at 131.445 109.22 0)
      (effects (font (size 1.27 1.27)) hide)
    )
    (property "Value" "VDD" (at 131.445 101.6 0)
      (effects (font (size 1.27 1.27)))
    )
    (property "Footprint" "" (at 131.445 105.41 0)
      (effects (font (size 1.27 1.27)) hide)
    )
    (property "Datasheet" "" (at 131.445 105.41 0)
      (effects (font (size 1.27 1.27)) hide)
    )
    (pin "1" (uuid 218bd539-8d54-4e0d-986d-cb5f02a00744))
    (instances
      (project "mplabsnap"
        (path "/e63e39d7-6ac0-4ffd-8aa3-1841a4541b55"
          (reference "#PWR02") (unit 1)
        )
      )
    )
  )

  (symbol (lib_id "Connector_Generic:Conn_02x05_Odd_Even") (at 161.29 113.03 0) (unit 1)
    (in_bom yes) (on_board yes) (dnp no)
    (uuid 82bf5f36-058a-4ad8-b8a2-d5e47db10102)
    (property "Reference" "J3" (at 162.56 103.505 0)
      (effects (font (size 1.27 1.27)))
    )
    (property "Value" "standard" (at 162.56 105.41 0)
      (effects (font (size 1.27 1.27)))
    )
    (property "Footprint" "extraparts:TC2050+Header" (at 161.29 113.03 0)
      (effects (font (size 1.27 1.27)) hide)
    )
    (property "Datasheet" "~" (at 161.29 113.03 0)
      (effects (font (size 1.27 1.27)) hide)
    )
    (pin "1" (uuid c69163ef-1b71-4854-9d41-5c4ae1d666d7))
    (pin "10" (uuid f5a558b3-346c-4683-9bb1-153e618f995b))
    (pin "2" (uuid d1d764ed-fb4f-4af7-a6fb-48b553119b52))
    (pin "3" (uuid d307fece-0c6b-47fd-9425-cd662b43c437))
    (pin "4" (uuid 2c6125f5-6997-4d70-96c6-c5d4d05ca691))
    (pin "5" (uuid a65964e3-dd0d-4a81-b9fb-c90fa9c501f8))
    (pin "6" (uuid 6619a64d-fd92-4f67-b708-e779fa14e400))
    (pin "7" (uuid 31dda969-64d5-4c6c-95cc-aa2f54677507))
    (pin "8" (uuid 95047d9c-cb0e-424d-b724-15d77dc28f5f))
    (pin "9" (uuid 66227df8-7d6e-4a8d-b5e1-14a125b4b437))
    (instances
      (project "mplabsnap"
        (path "/e63e39d7-6ac0-4ffd-8aa3-1841a4541b55"
          (reference "J3") (unit 1)
        )
      )
    )
  )

  (symbol (lib_id "power:VDD") (at 191.77 84.455 0) (unit 1)
    (in_bom yes) (on_board yes) (dnp no)
    (uuid 8751426b-9497-4279-a6b2-f74c18c2200a)
    (property "Reference" "#PWR011" (at 191.77 88.265 0)
      (effects (font (size 1.27 1.27)) hide)
    )
    (property "Value" "VDD" (at 191.77 80.645 0)
      (effects (font (size 1.27 1.27)))
    )
    (property "Footprint" "" (at 191.77 84.455 0)
      (effects (font (size 1.27 1.27)) hide)
    )
    (property "Datasheet" "" (at 191.77 84.455 0)
      (effects (font (size 1.27 1.27)) hide)
    )
    (pin "1" (uuid 272430b5-79ac-4bd6-ad72-a65f2294c323))
    (instances
      (project "mplabsnap"
        (path "/e63e39d7-6ac0-4ffd-8aa3-1841a4541b55"
          (reference "#PWR011") (unit 1)
        )
      )
    )
  )

  (symbol (lib_id "power:GND") (at 154.94 119.38 0) (unit 1)
    (in_bom yes) (on_board yes) (dnp no)
    (uuid a797f097-9256-41b4-93c8-8b434070bb83)
    (property "Reference" "#PWR08" (at 154.94 125.73 0)
      (effects (font (size 1.27 1.27)) hide)
    )
    (property "Value" "GND" (at 154.94 123.19 0)
      (effects (font (size 1.27 1.27)))
    )
    (property "Footprint" "" (at 154.94 119.38 0)
      (effects (font (size 1.27 1.27)) hide)
    )
    (property "Datasheet" "" (at 154.94 119.38 0)
      (effects (font (size 1.27 1.27)) hide)
    )
    (pin "1" (uuid a4a76223-ec12-4eaa-bf67-2e01010d11a2))
    (instances
      (project "mplabsnap"
        (path "/e63e39d7-6ac0-4ffd-8aa3-1841a4541b55"
          (reference "#PWR08") (unit 1)
        )
      )
    )
  )

  (symbol (lib_id "Switch:SW_SPDT") (at 174.625 88.265 180) (unit 1)
    (in_bom yes) (on_board yes) (dnp no)
    (uuid b578b6ee-50b1-41a5-99dc-7b6ca80317f7)
    (property "Reference" "SW1" (at 174.625 83.82 0)
      (effects (font (size 1.27 1.27)))
    )
    (property "Value" "5V/3V3" (at 174.625 93.345 0)
      (effects (font (size 1.27 1.27)))
    )
    (property "Footprint" "extraparts:JS202011JAQN" (at 174.625 88.265 0)
      (effects (font (size 1.27 1.27)) hide)
    )
    (property "Datasheet" "~" (at 174.625 88.265 0)
      (effects (font (size 1.27 1.27)) hide)
    )
    (pin "1" (uuid 04fefe96-c5de-43a1-9530-2b6e8255e81a))
    (pin "2" (uuid 5298e900-aae2-4cdd-b1c5-b324fa607ea5))
    (pin "3" (uuid 66f2e934-7aa1-4dc5-8265-8e8d5771404a))
    (instances
      (project "mplabsnap"
        (path "/e63e39d7-6ac0-4ffd-8aa3-1841a4541b55"
          (reference "SW1") (unit 1)
        )
      )
    )
  )

  (symbol (lib_id "power:+3V3") (at 168.275 84.455 0) (unit 1)
    (in_bom yes) (on_board yes) (dnp no) (fields_autoplaced)
    (uuid c4a4e92a-bb1f-4123-9aad-fa5f3ebaa4d9)
    (property "Reference" "#PWR09" (at 168.275 88.265 0)
      (effects (font (size 1.27 1.27)) hide)
    )
    (property "Value" "+3V3" (at 168.275 80.8792 0)
      (effects (font (size 1.27 1.27)))
    )
    (property "Footprint" "" (at 168.275 84.455 0)
      (effects (font (size 1.27 1.27)) hide)
    )
    (property "Datasheet" "" (at 168.275 84.455 0)
      (effects (font (size 1.27 1.27)) hide)
    )
    (pin "1" (uuid 9f4ecddd-c12e-490b-9143-1b77b4ac3af6))
    (instances
      (project "mplabsnap"
        (path "/e63e39d7-6ac0-4ffd-8aa3-1841a4541b55"
          (reference "#PWR09") (unit 1)
        )
      )
    )
  )

  (symbol (lib_id "Switch:SW_SPDT") (at 179.07 118.11 0) (unit 1)
    (in_bom yes) (on_board yes) (dnp no)
    (uuid cb5c5775-6331-4de7-83be-ebb22cb8cfa4)
    (property "Reference" "SW2" (at 179.07 113.665 0)
      (effects (font (size 1.27 1.27)))
    )
    (property "Value" "~{MCLR}/RST" (at 179.07 123.825 0)
      (effects (font (size 1.27 1.27)))
    )
    (property "Footprint" "extraparts:JS202011JAQN" (at 179.07 118.11 0)
      (effects (font (size 1.27 1.27)) hide)
    )
    (property "Datasheet" "~" (at 179.07 118.11 0)
      (effects (font (size 1.27 1.27)) hide)
    )
    (pin "1" (uuid d7903d6a-7f1f-40ee-a0c2-fc0f3f521b2a))
    (pin "2" (uuid 6b803c83-b836-4a78-9368-e84d190c9966))
    (pin "3" (uuid e9b282d4-d71d-415a-8170-ffe2dabf649b))
    (instances
      (project "mplabsnap"
        (path "/e63e39d7-6ac0-4ffd-8aa3-1841a4541b55"
          (reference "SW2") (unit 1)
        )
      )
    )
  )

  (symbol (lib_id "Device:C_Small") (at 153.035 89.535 0) (unit 1)
    (in_bom yes) (on_board yes) (dnp no) (fields_autoplaced)
    (uuid d203ca95-4b57-4f1e-8d31-0b5af41548f7)
    (property "Reference" "C2" (at 155.3591 88.7066 0)
      (effects (font (size 1.27 1.27)) (justify left))
    )
    (property "Value" "10u" (at 155.3591 91.2435 0)
      (effects (font (size 1.27 1.27)) (justify left))
    )
    (property "Footprint" "Capacitor_SMD:C_0805_2012Metric" (at 153.035 89.535 0)
      (effects (font (size 1.27 1.27)) hide)
    )
    (property "Datasheet" "~" (at 153.035 89.535 0)
      (effects (font (size 1.27 1.27)) hide)
    )
    (pin "1" (uuid 5499d813-860b-4bec-9c16-140e6d059689))
    (pin "2" (uuid 7285a484-d029-4cb8-8004-221201bd87c4))
    (instances
      (project "mplabsnap"
        (path "/e63e39d7-6ac0-4ffd-8aa3-1841a4541b55"
          (reference "C2") (unit 1)
        )
      )
    )
  )

  (symbol (lib_id "power:VDD") (at 154.94 106.68 0) (unit 1)
    (in_bom yes) (on_board yes) (dnp no)
    (uuid d39a5f5b-0b8a-4d69-980b-90b29c295f02)
    (property "Reference" "#PWR07" (at 154.94 110.49 0)
      (effects (font (size 1.27 1.27)) hide)
    )
    (property "Value" "VDD" (at 154.94 102.87 0)
      (effects (font (size 1.27 1.27)))
    )
    (property "Footprint" "" (at 154.94 106.68 0)
      (effects (font (size 1.27 1.27)) hide)
    )
    (property "Datasheet" "" (at 154.94 106.68 0)
      (effects (font (size 1.27 1.27)) hide)
    )
    (pin "1" (uuid 6875eed5-e508-49bd-bad7-43011661015b))
    (instances
      (project "mplabsnap"
        (path "/e63e39d7-6ac0-4ffd-8aa3-1841a4541b55"
          (reference "#PWR07") (unit 1)
        )
      )
    )
  )

  (symbol (lib_id "power:GND") (at 131.445 110.49 0) (unit 1)
    (in_bom yes) (on_board yes) (dnp no)
    (uuid d7c885cb-9212-4521-951f-6f3928034fe5)
    (property "Reference" "#PWR03" (at 131.445 116.84 0)
      (effects (font (size 1.27 1.27)) hide)
    )
    (property "Value" "GND" (at 131.445 114.3 0)
      (effects (font (size 1.27 1.27)))
    )
    (property "Footprint" "" (at 131.445 110.49 0)
      (effects (font (size 1.27 1.27)) hide)
    )
    (property "Datasheet" "" (at 131.445 110.49 0)
      (effects (font (size 1.27 1.27)) hide)
    )
    (pin "1" (uuid 5d8a8b22-2361-43b9-9353-5e0f3bc2d0e0))
    (instances
      (project "mplabsnap"
        (path "/e63e39d7-6ac0-4ffd-8aa3-1841a4541b55"
          (reference "#PWR03") (unit 1)
        )
      )
    )
  )

  (symbol (lib_id "Connector_Generic:Conn_01x08") (at 118.745 111.76 0) (mirror y) (unit 1)
    (in_bom yes) (on_board yes) (dnp no)
    (uuid e180d324-7a8a-43d6-b91e-703cbbea52f3)
    (property "Reference" "J2" (at 118.745 99.06 0)
      (effects (font (size 1.27 1.27)))
    )
    (property "Value" "snap" (at 118.745 100.965 0)
      (effects (font (size 1.27 1.27)))
    )
    (property "Footprint" "Connector_PinHeader_2.54mm:PinHeader_1x08_P2.54mm_Vertical" (at 118.745 111.76 0)
      (effects (font (size 1.27 1.27)) hide)
    )
    (property "Datasheet" "~" (at 118.745 111.76 0)
      (effects (font (size 1.27 1.27)) hide)
    )
    (pin "1" (uuid 9d159ee0-0a3f-49e8-8773-7a5b9dcdb277))
    (pin "2" (uuid faab38db-c749-45dd-90fd-d4d91e2f1589))
    (pin "3" (uuid 4c30101f-a124-48c4-b487-f0fd9e2d9daa))
    (pin "4" (uuid 32b7e771-748f-4421-b320-1737ee0b34a2))
    (pin "5" (uuid ff7c047b-3349-4182-9b71-99a5529bba53))
    (pin "6" (uuid be05a8fb-91c7-4351-9306-da6aac21b167))
    (pin "7" (uuid c6ff1ae5-cc06-4f55-af9c-b8db0b43feb8))
    (pin "8" (uuid 8fa81f4a-3c6e-4360-b8b4-d3f383476590))
    (instances
      (project "mplabsnap"
        (path "/e63e39d7-6ac0-4ffd-8aa3-1841a4541b55"
          (reference "J2") (unit 1)
        )
      )
    )
  )

  (symbol (lib_id "power:PWR_FLAG") (at 131.445 109.22 270) (unit 1)
    (in_bom yes) (on_board yes) (dnp no) (fields_autoplaced)
    (uuid e56773a0-ba9b-4094-baa1-95874038a296)
    (property "Reference" "#FLG02" (at 133.35 109.22 0)
      (effects (font (size 1.27 1.27)) hide)
    )
    (property "Value" "PWR_FLAG" (at 135.0208 109.22 0)
      (effects (font (size 1.27 1.27)) hide)
    )
    (property "Footprint" "" (at 131.445 109.22 0)
      (effects (font (size 1.27 1.27)) hide)
    )
    (property "Datasheet" "~" (at 131.445 109.22 0)
      (effects (font (size 1.27 1.27)) hide)
    )
    (pin "1" (uuid 8de2ddcf-7dd9-42f6-a2ad-785baba71680))
    (instances
      (project "mplabsnap"
        (path "/e63e39d7-6ac0-4ffd-8aa3-1841a4541b55"
          (reference "#FLG02") (unit 1)
        )
      )
    )
  )

  (symbol (lib_id "power:PWR_FLAG") (at 191.77 85.725 270) (unit 1)
    (in_bom yes) (on_board yes) (dnp no) (fields_autoplaced)
    (uuid ed59ab81-1e14-4e22-b9c5-640ae811e388)
    (property "Reference" "#FLG03" (at 193.675 85.725 0)
      (effects (font (size 1.27 1.27)) hide)
    )
    (property "Value" "PWR_FLAG" (at 195.3458 85.725 0)
      (effects (font (size 1.27 1.27)) hide)
    )
    (property "Footprint" "" (at 191.77 85.725 0)
      (effects (font (size 1.27 1.27)) hide)
    )
    (property "Datasheet" "~" (at 191.77 85.725 0)
      (effects (font (size 1.27 1.27)) hide)
    )
    (pin "1" (uuid 9b8df757-7c5a-48e1-9fd5-b01aa4f39413))
    (instances
      (project "mplabsnap"
        (path "/e63e39d7-6ac0-4ffd-8aa3-1841a4541b55"
          (reference "#FLG03") (unit 1)
        )
      )
    )
  )

  (symbol (lib_id "Device:R_Small") (at 151.13 113.03 90) (unit 1)
    (in_bom yes) (on_board yes) (dnp no)
    (uuid f85a7232-011a-43d3-878d-d3773691be70)
    (property "Reference" "R1" (at 151.13 111.125 90)
      (effects (font (size 1.27 1.27)))
    )
    (property "Value" "220" (at 151.13 113.03 90)
      (effects (font (size 1.27 1.27)))
    )
    (property "Footprint" "Resistor_SMD:R_0603_1608Metric" (at 151.13 113.03 0)
      (effects (font (size 1.27 1.27)) hide)
    )
    (property "Datasheet" "~" (at 151.13 113.03 0)
      (effects (font (size 1.27 1.27)) hide)
    )
    (pin "1" (uuid b488e5d9-a137-4f76-a1b3-71306c65d1f8))
    (pin "2" (uuid decd4e54-1547-44da-b5bc-f326ffc2e77e))
    (instances
      (project "mplabsnap"
        (path "/e63e39d7-6ac0-4ffd-8aa3-1841a4541b55"
          (reference "R1") (unit 1)
        )
      )
    )
  )

  (sheet_instances
    (path "/" (page "1"))
  )
)
