{
  "board": {
    "3dviewports": [],
    "design_settings": {
      "defaults": {
        "board_outline_line_width": 0.038099999999999995,
        "copper_line_width": 0.254,
        "copper_text_italic": false,
        "copper_text_size_h": 1.524,
        "copper_text_size_v": 1.524,
        "copper_text_thickness": 0.30479999999999996,
        "copper_text_upright": false,
        "courtyard_line_width": 0.049999999999999996,
        "dimension_precision": 4,
        "dimension_units": 3,
        "dimensions": {
          "arrow_length": 1270000,
          "extension_offset": 500000,
          "keep_text_aligned": true,
          "suppress_zeroes": false,
          "text_position": 0,
          "units_format": 1
        },
        "fab_line_width": 0.09999999999999999,
        "fab_text_italic": false,
        "fab_text_size_h": 1.0,
        "fab_text_size_v": 1.0,
        "fab_text_thickness": 0.15,
        "fab_text_upright": false,
        "other_line_width": 0.09999999999999999,
        "other_text_italic": false,
        "other_text_size_h": 1.0,
        "other_text_size_v": 1.0,
        "other_text_thickness": 0.15,
        "other_text_upright": false,
        "pads": {
          "drill": 3.2,
          "height": 4.2,
          "width": 4.2
        },
        "silk_line_width": 0.15239999999999998,
        "silk_text_italic": false,
        "silk_text_size_h": 0.8128,
        "silk_text_size_v": 0.8128,
        "silk_text_thickness": 0.15239999999999998,
        "silk_text_upright": false,
        "zones": {
          "45_degree_only": false,
          "min_clearance": 0.0
        }
      },
      "diff_pair_dimensions": [
        {
          "gap": 0.0,
          "via_gap": 0.0,
          "width": 0.0
        }
      ],
      "drc_exclusions": [
        "courtyards_overlap|76978999|111681999|6ddab7ac-8690-471e-b82e-576cb8df2f0b|bbcde485-72cf-4fec-9aa3-1d920557ee42",
        "lib_footprint_mismatch|114800000|36925000|15e77d60-9a70-40f0-90ba-32e91d3929c2|00000000-0000-0000-0000-000000000000",
        "lib_footprint_mismatch|114800000|58500000|04b70595-c62a-4695-a343-5d3ec566b941|00000000-0000-0000-0000-000000000000",
        "lib_footprint_mismatch|189000000|37000000|657b9d5a-7235-4bfe-922f-441aa7cad22b|00000000-0000-0000-0000-000000000000",
        "lib_footprint_mismatch|23500000|90000000|00000000-0000-0000-0000-00005fa9de77|00000000-0000-0000-0000-000000000000",
        "lib_footprint_mismatch|72279000|115300000|6ddab7ac-8690-471e-b82e-576cb8df2f0b|00000000-0000-0000-0000-000000000000",
        "lib_footprint_mismatch|76595600|51204400|ac3233d5-8829-48d0-827e-1e5f81ceacad|00000000-0000-0000-0000-000000000000",
        "lib_footprint_mismatch|97450000|33125000|7f897338-0fd8-4b16-916e-0e4a567f7d20|00000000-0000-0000-0000-000000000000",
        "lib_footprint_mismatch|97450000|54700000|9620ae2b-e438-4f53-8147-6d184cda5d67|00000000-0000-0000-0000-000000000000",
        "silk_edge_clearance|160840000|136000000|00000000-0000-0000-0000-00005faa9ed8|039e2757-6bfd-42b9-884d-58ead77bc421",
        "silk_edge_clearance|174160000|136000000|00000000-0000-0000-0000-00005faa9ed8|0efaf128-378e-465b-adc6-60c1ddbc7510"
      ],
      "meta": {
        "filename": "board_design_settings.json",
        "version": 2
      },
      "rule_severities": {
        "annular_width": "error",
        "clearance": "error",
        "connection_width": "warning",
        "copper_edge_clearance": "error",
        "copper_sliver": "warning",
        "courtyards_overlap": "error",
        "diff_pair_gap_out_of_range": "error",
        "diff_pair_uncoupled_length_too_long": "error",
        "drill_out_of_range": "error",
        "duplicate_footprints": "warning",
        "extra_footprint": "warning",
        "footprint": "error",
        "footprint_type_mismatch": "error",
        "hole_clearance": "error",
        "hole_near_hole": "error",
        "invalid_outline": "error",
        "isolated_copper": "warning",
        "item_on_disabled_layer": "error",
        "items_not_allowed": "error",
        "length_out_of_range": "error",
        "lib_footprint_issues": "warning",
        "lib_footprint_mismatch": "warning",
        "malformed_courtyard": "error",
        "microvia_drill_out_of_range": "error",
        "missing_courtyard": "ignore",
        "missing_footprint": "warning",
        "net_conflict": "warning",
        "npth_inside_courtyard": "ignore",
        "padstack": "error",
        "pth_inside_courtyard": "ignore",
        "shorting_items": "error",
        "silk_edge_clearance": "warning",
        "silk_over_copper": "warning",
        "silk_overlap": "warning",
        "skew_out_of_range": "error",
        "solder_mask_bridge": "error",
        "starved_thermal": "error",
        "text_height": "warning",
        "text_thickness": "warning",
        "through_hole_pad_without_hole": "error",
        "too_many_vias": "error",
        "track_dangling": "warning",
        "track_width": "error",
        "tracks_crossing": "error",
        "unconnected_items": "error",
        "unresolved_variable": "error",
        "via_dangling": "warning",
        "zones_intersect": "error"
      },
      "rule_severitieslegacy_courtyards_overlap": true,
      "rule_severitieslegacy_no_courtyard_defined": false,
      "rules": {
        "allow_blind_buried_vias": false,
        "allow_microvias": false,
        "max_error": 0.005,
        "min_clearance": 0.15,
        "min_connection": 0.0,
        "min_copper_edge_clearance": 0.019049999999999997,
        "min_hole_clearance": 0.25,
        "min_hole_to_hole": 0.25,
        "min_microvia_diameter": 0.19999999999999998,
        "min_microvia_drill": 0.09999999999999999,
        "min_resolved_spokes": 2,
        "min_silk_clearance": 0.0,
        "min_text_height": 0.7999999999999999,
        "min_text_thickness": 0.08,
        "min_through_hole_diameter": 0.19999999999999998,
        "min_track_width": 0.08889999999999999,
        "min_via_annular_width": 0.049999999999999996,
        "min_via_diameter": 0.44999999999999996,
        "solder_mask_to_copper_clearance": 0.0,
        "use_height_for_length_calcs": true
      },
      "teardrop_options": [
        {
          "td_allow_use_two_tracks": true,
          "td_curve_segcount": 5,
          "td_on_pad_in_zone": false,
          "td_onpadsmd": true,
          "td_onroundshapesonly": false,
          "td_ontrackend": false,
          "td_onviapad": true
        }
      ],
      "teardrop_parameters": [
        {
          "td_curve_segcount": 0,
          "td_height_ratio": 1.0,
          "td_length_ratio": 0.5,
          "td_maxheight": 2.0,
          "td_maxlen": 1.0,
          "td_target_name": "td_round_shape",
          "td_width_to_size_filter_ratio": 0.9
        },
        {
          "td_curve_segcount": 0,
          "td_height_ratio": 1.0,
          "td_length_ratio": 0.5,
          "td_maxheight": 2.0,
          "td_maxlen": 1.0,
          "td_target_name": "td_rect_shape",
          "td_width_to_size_filter_ratio": 0.9
        },
        {
          "td_curve_segcount": 0,
          "td_height_ratio": 1.0,
          "td_length_ratio": 0.5,
          "td_maxheight": 2.0,
          "td_maxlen": 1.0,
          "td_target_name": "td_track_end",
          "td_width_to_size_filter_ratio": 0.9
        }
      ],
      "track_widths": [
        0.0,
        0.127,
        0.254,
        0.381,
        0.508,
        0.762,
        3.500001
      ],
      "via_dimensions": [
        {
          "diameter": 0.0,
          "drill": 0.0
        },
        {
          "diameter": 0.6096,
          "drill": 0.3556
        },
        {
          "diameter": 0.7112,
          "drill": 0.3048
        },
        {
          "diameter": 0.8,
          "drill": 0.4
        },
        {
          "diameter": 0.889,
          "drill": 0.381
        }
      ],
      "zones_allow_external_fillets": false,
      "zones_use_no_outline": true
    },
    "layer_presets": [],
    "viewports": []
  },
  "boards": [],
  "cvpcb": {
    "equivalence_files": []
  },
  "erc": {
    "erc_exclusions": [],
    "meta": {
      "version": 0
    },
    "pin_map": [
      [
        0,
        0,
        0,
        0,
        0,
        0,
        1,
        0,
        0,
        0,
        0,
        2
      ],
      [
        0,
        2,
        0,
        1,
        0,
        0,
        1,
        0,
        2,
        2,
        2,
        2
      ],
      [
        0,
        0,
        0,
        0,
        0,
        0,
        1,
        0,
        1,
        0,
        1,
        2
      ],
      [
        0,
        1,
        0,
        0,
        0,
        0,
        1,
        1,
        2,
        1,
        1,
        2
      ],
      [
        0,
        0,
        0,
        0,
        0,
        0,
        1,
        0,
        0,
        0,
        0,
        2
      ],
      [
        0,
        0,
        0,
        0,
        0,
        0,
        0,
        0,
        0,
        0,
        0,
        2
      ],
      [
        1,
        1,
        1,
        1,
        1,
        0,
        1,
        1,
        1,
        1,
        1,
        2
      ],
      [
        0,
        0,
        0,
        1,
        0,
        0,
        1,
        0,
        0,
        0,
        0,
        2
      ],
      [
        0,
        2,
        1,
        2,
        0,
        0,
        1,
        0,
        2,
        2,
        2,
        2
      ],
      [
        0,
        2,
        0,
        1,
        0,
        0,
        1,
        0,
        2,
        0,
        0,
        2
      ],
      [
        0,
        2,
        1,
        1,
        0,
        0,
        1,
        0,
        2,
        0,
        0,
        2
      ],
      [
        2,
        2,
        2,
        2,
        2,
        2,
        2,
        2,
        2,
        2,
        2,
        2
      ]
    ],
    "rule_severities": {
      "bus_definition_conflict": "error",
      "bus_entry_needed": "error",
      "bus_to_bus_conflict": "error",
      "bus_to_net_conflict": "error",
      "conflicting_netclasses": "error",
      "different_unit_footprint": "error",
      "different_unit_net": "error",
      "duplicate_reference": "error",
      "duplicate_sheet_names": "error",
      "endpoint_off_grid": "warning",
      "extra_units": "error",
      "global_label_dangling": "warning",
      "hier_label_mismatch": "error",
      "label_dangling": "error",
      "lib_symbol_issues": "warning",
      "missing_bidi_pin": "warning",
      "missing_input_pin": "warning",
      "missing_power_pin": "error",
      "missing_unit": "warning",
      "multiple_net_names": "warning",
      "net_not_bus_member": "warning",
      "no_connect_connected": "warning",
      "no_connect_dangling": "warning",
      "pin_not_connected": "error",
      "pin_not_driven": "error",
      "pin_to_pin": "error",
      "power_pin_not_driven": "error",
      "similar_labels": "warning",
      "simulation_model_issue": "ignore",
      "unannotated": "error",
      "unit_value_mismatch": "error",
      "unresolved_variable": "error",
      "wire_dangling": "error"
    }
  },
  "libraries": {
    "pinned_footprint_libs": [
      "lib_fp"
    ],
    "pinned_symbol_libs": [
      "Project"
    ]
  },
  "meta": {
    "filename": "main-board.kicad_pro",
    "version": 1
  },
  "net_settings": {
    "classes": [
      {
        "bus_width": 12,
        "clearance": 0.127,
        "diff_pair_gap": 0.25,
        "diff_pair_via_gap": 0.25,
        "diff_pair_width": 0.2,
        "line_style": 0,
        "microvia_diameter": 0.6858,
        "microvia_drill": 0.3302,
        "name": "Default",
        "pcb_color": "rgba(0, 0, 0, 0.000)",
        "schematic_color": "rgba(0, 0, 0, 0.000)",
        "track_width": 0.254,
        "via_diameter": 0.6858,
        "via_drill": 0.3302,
        "wire_width": 6
      },
      {
        "bus_width": 12,
        "clearance": 1.5,
        "diff_pair_gap": 0.25,
        "diff_pair_via_gap": 0.25,
        "diff_pair_width": 0.2,
        "line_style": 0,
        "microvia_diameter": 0.3,
        "microvia_drill": 0.1,
        "name": "Mains",
        "pcb_color": "rgba(0, 0, 0, 0.000)",
        "schematic_color": "rgba(0, 0, 0, 0.000)",
        "track_width": 3.500001,
        "via_diameter": 0.8,
        "via_drill": 0.4,
        "wire_width": 6
      },
      {
        "bus_width": 12,
        "clearance": 0.127,
        "diff_pair_gap": 0.2032,
        "diff_pair_via_gap": 0.25,
        "diff_pair_width": 0.261112,
        "line_style": 0,
        "microvia_diameter": 0.6858,
        "microvia_drill": 0.3302,
        "name": "USB",
        "pcb_color": "rgba(0, 0, 0, 0.000)",
        "schematic_color": "rgba(0, 0, 0, 0.000)",
        "track_width": 0.254,
        "via_diameter": 0.6858,
        "via_drill": 0.3302,
        "wire_width": 6
      }
    ],
    "meta": {
      "version": 3
    },
    "net_colors": {
      "/Power Supply and Control/3V3_BOOT": "rgb(72, 72, 72)",
      "/Power Supply and Control/3V3_FB": "rgb(255, 224, 128)",
      "/Power Supply and Control/3V3_PHASE": "rgb(128, 216, 168)",
      "/Power Supply and Control/3V3_VIN": "rgb(128, 216, 248)",
      "/Power Supply and Control/5V_BOOT": "rgb(72, 72, 72)",
      "/Power Supply and Control/5V_FB": "rgb(255, 224, 128)",
      "/Power Supply and Control/5V_PHASE": "rgb(128, 216, 168)",
      "/Power Supply and Control/5V_VIN": "rgb(128, 216, 248)"
    },
    "netclass_assignments": null,
    "netclass_patterns": [
      {
        "netclass": "USB",
        "pattern": "/USB_OTG_FS_D+"
      },
      {
        "netclass": "USB",
        "pattern": "/USB_OTG_FS_D-"
      },
      {
        "netclass": "USB",
        "pattern": "/Front External Connections/USB_CONN_D+"
      },
      {
        "netclass": "USB",
        "pattern": "/Front External Connections/USB_CONN_D-"
      }
    ]
  },
  "pcbnew": {
    "last_paths": {
      "gencad": "",
      "idf": "",
      "netlist": "main-board.net",
      "specctra_dsn": "",
      "step": "main-board.step",
      "vrml": ""
    },
    "page_layout_descr_file": ""
  },
  "schematic": {
    "annotate_start_num": 0,
    "drawing": {
      "dashed_lines_dash_length_ratio": 12.0,
      "dashed_lines_gap_length_ratio": 3.0,
      "default_line_thickness": 6.0,
      "default_text_size": 50.0,
      "field_names": [],
      "intersheets_ref_own_page": false,
      "intersheets_ref_prefix": "",
      "intersheets_ref_short": false,
      "intersheets_ref_show": false,
      "intersheets_ref_suffix": "",
      "junction_size_choice": 3,
      "label_size_ratio": 0.25,
      "pin_symbol_size": 0.0,
      "text_offset_ratio": 0.08
    },
    "legacy_lib_dir": "",
    "legacy_lib_list": [],
    "meta": {
      "version": 1
    },
    "net_format_name": "Pcbnew",
    "ngspice": {
      "fix_include_paths": true,
      "fix_passive_vals": false,
      "meta": {
        "version": 0
      },
      "model_mode": 0,
      "workbook_filename": ""
    },
    "page_layout_descr_file": "",
    "plot_directory": "",
    "spice_adjust_passive_values": false,
    "spice_current_sheet_as_root": false,
    "spice_external_command": "spice \"%I\"",
    "spice_model_current_sheet_as_root": true,
    "spice_save_all_currents": false,
    "spice_save_all_voltages": false,
    "subpart_first_id": 65,
    "subpart_id_separator": 0
  },
  "sheets": [
    [
      "31a301d9-d769-4a35-943a-fe3e3609e773",
      ""
    ],
    [
      "00000000-0000-0000-0000-00005f8b674d",
      "Power Supply and Control"
    ],
    [
      "00000000-0000-0000-0000-00005f8b69b5",
      "User Input"
    ],
    [
      "00000000-0000-0000-0000-00005fa19aff",
      "Front External Connections"
    ]
  ],
  "text_variables": {}
}
