{
  "board": {
    "3dviewports": [],
    "design_settings": {
      "defaults": {
        "board_outline_line_width": 0.1,
        "copper_line_width": 0.2,
        "copper_text_size_h": 1.5,
        "copper_text_size_v": 1.5,
        "copper_text_thickness": 0.3,
        "other_line_width": 0.15,
        "silk_line_width": 0.15,
        "silk_text_size_h": 1.0,
        "silk_text_size_v": 1.0,
        "silk_text_thickness": 0.15
      },
      "diff_pair_dimensions": [],
      "drc_exclusions": [],
      "rules": {
        "min_copper_edge_clearance": 0.0,
        "solder_mask_clearance": 0.0,
        "solder_mask_min_width": 0.0
      },
      "track_widths": [],
      "via_dimensions": []
    },
    "layer_presets": [],
    "viewports": []
  },
  "boards": [],
  "cvpcb": {
    "equivalence_files": []
  },
  "erc": {
    "erc_exclusions": [
      "pin_to_pin|1168400|889000|037add00-be79-400f-ac5d-e2d0bb977be3|eb7464eb-aa07-49b2-9ba0-62740ffefa21|/22e0f8e1-b0d7-4d47-bb7c-8ef04cd95fca/89d830c1-f0d9-4d89-9863-428a1b54ae3d|/22e0f8e1-b0d7-4d47-bb7c-8ef04cd95fca/89d830c1-f0d9-4d89-9863-428a1b54ae3d|/22e0f8e1-b0d7-4d47-bb7c-8ef04cd95fca/abd64d43-20ca-4b37-94fd-5fc041c76dd4",
      "pin_to_pin|1790700|660400|9eeeeecd-f022-4ea6-9d42-a104d2ccbdcd|4a52a600-d0d9-4913-beeb-c82588e08b74|/22e0f8e1-b0d7-4d47-bb7c-8ef04cd95fca/5c3a56e1-a539-47ae-9041-458228256291|/22e0f8e1-b0d7-4d47-bb7c-8ef04cd95fca/5c3a56e1-a539-47ae-9041-458228256291|/22e0f8e1-b0d7-4d47-bb7c-8ef04cd95fca/5c3a56e1-a539-47ae-9041-458228256291",
      "pin_to_pin|1790700|965200|4a52a600-d0d9-4913-beeb-c82588e08b74|9eeeeecd-f022-4ea6-9d42-a104d2ccbdcd|/22e0f8e1-b0d7-4d47-bb7c-8ef04cd95fca/5c3a56e1-a539-47ae-9041-458228256291|/22e0f8e1-b0d7-4d47-bb7c-8ef04cd95fca/5c3a56e1-a539-47ae-9041-458228256291|/22e0f8e1-b0d7-4d47-bb7c-8ef04cd95fca/5c3a56e1-a539-47ae-9041-458228256291",
      "pin_to_pin|2070100|533400|4d634306-a992-4450-b0d3-4df713d83a3c|9e5b0177-ea58-4f76-8b57-ff1c6e52d9df|/22e0f8e1-b0d7-4d47-bb7c-8ef04cd95fca/baeeec1c-6d89-4b09-ba07-b183ebc66f47|/22e0f8e1-b0d7-4d47-bb7c-8ef04cd95fca/baeeec1c-6d89-4b09-ba07-b183ebc66f47|/22e0f8e1-b0d7-4d47-bb7c-8ef04cd95fca/4512e1de-1ae8-4271-aab5-cfad75ab4cbf",
      "pin_to_pin|2209800|1041400|03c3bb2a-e58b-490c-ac2d-eaab5f0fe967|c2d5fe4e-604e-4608-b5d5-2107867214a0|/22e0f8e1-b0d7-4d47-bb7c-8ef04cd95fca/abd64d43-20ca-4b37-94fd-5fc041c76dd4|/22e0f8e1-b0d7-4d47-bb7c-8ef04cd95fca/abd64d43-20ca-4b37-94fd-5fc041c76dd4|/22e0f8e1-b0d7-4d47-bb7c-8ef04cd95fca/abd64d43-20ca-4b37-94fd-5fc041c76dd4",
      "pin_to_pin|736600|889000|de12e572-109d-4ada-8aaa-94756accf1e8|6c7c1d55-0df9-4863-b29e-63a45f32e628|/22e0f8e1-b0d7-4d47-bb7c-8ef04cd95fca/89d830c1-f0d9-4d89-9863-428a1b54ae3d|/22e0f8e1-b0d7-4d47-bb7c-8ef04cd95fca/89d830c1-f0d9-4d89-9863-428a1b54ae3d|/22e0f8e1-b0d7-4d47-bb7c-8ef04cd95fca/abd64d43-20ca-4b37-94fd-5fc041c76dd4",
      "pin_to_pin|736600|889000|de12e572-109d-4ada-8aaa-94756accf1e8|748d9d91-e37d-4d4d-b284-1e1d330e6e73|/22e0f8e1-b0d7-4d47-bb7c-8ef04cd95fca/89d830c1-f0d9-4d89-9863-428a1b54ae3d|/22e0f8e1-b0d7-4d47-bb7c-8ef04cd95fca/89d830c1-f0d9-4d89-9863-428a1b54ae3d|/22e0f8e1-b0d7-4d47-bb7c-8ef04cd95fca/abd64d43-20ca-4b37-94fd-5fc041c76dd4",
      "pin_to_pin|736600|889000|de12e572-109d-4ada-8aaa-94756accf1e8|85d3d40a-670c-4159-b171-26270ac5ebd7|/22e0f8e1-b0d7-4d47-bb7c-8ef04cd95fca/89d830c1-f0d9-4d89-9863-428a1b54ae3d|/22e0f8e1-b0d7-4d47-bb7c-8ef04cd95fca/89d830c1-f0d9-4d89-9863-428a1b54ae3d|/22e0f8e1-b0d7-4d47-bb7c-8ef04cd95fca/abd64d43-20ca-4b37-94fd-5fc041c76dd4",
      "pin_to_pin|736600|889000|de12e572-109d-4ada-8aaa-94756accf1e8|9e77118e-8223-45c8-aa04-cd9f668a6fd5|/22e0f8e1-b0d7-4d47-bb7c-8ef04cd95fca/89d830c1-f0d9-4d89-9863-428a1b54ae3d|/22e0f8e1-b0d7-4d47-bb7c-8ef04cd95fca/89d830c1-f0d9-4d89-9863-428a1b54ae3d|/22e0f8e1-b0d7-4d47-bb7c-8ef04cd95fca/abd64d43-20ca-4b37-94fd-5fc041c76dd4",
      "pin_to_pin|736600|889000|de12e572-109d-4ada-8aaa-94756accf1e8|e697d62e-a719-4a2f-8eb3-b8da105924f4|/22e0f8e1-b0d7-4d47-bb7c-8ef04cd95fca/89d830c1-f0d9-4d89-9863-428a1b54ae3d|/22e0f8e1-b0d7-4d47-bb7c-8ef04cd95fca/89d830c1-f0d9-4d89-9863-428a1b54ae3d|/22e0f8e1-b0d7-4d47-bb7c-8ef04cd95fca/abd64d43-20ca-4b37-94fd-5fc041c76dd4",
      "pin_to_pin|736600|889000|de12e572-109d-4ada-8aaa-94756accf1e8|e83fc63f-d299-4cf2-ab37-c3fcb99eb6cb|/22e0f8e1-b0d7-4d47-bb7c-8ef04cd95fca/89d830c1-f0d9-4d89-9863-428a1b54ae3d|/22e0f8e1-b0d7-4d47-bb7c-8ef04cd95fca/89d830c1-f0d9-4d89-9863-428a1b54ae3d|/22e0f8e1-b0d7-4d47-bb7c-8ef04cd95fca/abd64d43-20ca-4b37-94fd-5fc041c76dd4"
    ],
    "meta": {
      "version": 0
    },
    "pin_map": [
      [
        0,
        0,
        0,
        0,
        0,
        0,
        1,
        0,
        0,
        0,
        0,
        2
      ],
      [
        0,
        2,
        0,
        1,
        0,
        0,
        1,
        0,
        2,
        2,
        2,
        2
      ],
      [
        0,
        0,
        0,
        0,
        0,
        0,
        1,
        0,
        1,
        0,
        1,
        2
      ],
      [
        0,
        1,
        0,
        0,
        0,
        0,
        1,
        1,
        2,
        1,
        1,
        2
      ],
      [
        0,
        0,
        0,
        0,
        0,
        0,
        1,
        0,
        0,
        0,
        0,
        2
      ],
      [
        0,
        0,
        0,
        0,
        0,
        0,
        0,
        0,
        0,
        0,
        0,
        2
      ],
      [
        1,
        1,
        1,
        1,
        1,
        0,
        1,
        1,
        1,
        1,
        1,
        2
      ],
      [
        0,
        0,
        0,
        1,
        0,
        0,
        1,
        0,
        0,
        0,
        0,
        2
      ],
      [
        0,
        2,
        1,
        2,
        0,
        0,
        1,
        0,
        2,
        2,
        2,
        2
      ],
      [
        0,
        2,
        0,
        1,
        0,
        0,
        1,
        0,
        2,
        0,
        0,
        2
      ],
      [
        0,
        2,
        1,
        1,
        0,
        0,
        1,
        0,
        2,
        0,
        0,
        2
      ],
      [
        2,
        2,
        2,
        2,
        2,
        2,
        2,
        2,
        2,
        2,
        2,
        2
      ]
    ],
    "rule_severities": {
      "bus_definition_conflict": "error",
      "bus_entry_needed": "error",
      "bus_to_bus_conflict": "error",
      "bus_to_net_conflict": "error",
      "conflicting_netclasses": "error",
      "different_unit_footprint": "error",
      "different_unit_net": "error",
      "duplicate_reference": "error",
      "duplicate_sheet_names": "error",
      "endpoint_off_grid": "warning",
      "extra_units": "error",
      "global_label_dangling": "warning",
      "hier_label_mismatch": "error",
      "label_dangling": "error",
      "lib_symbol_issues": "ignore",
      "missing_bidi_pin": "warning",
      "missing_input_pin": "warning",
      "missing_power_pin": "error",
      "missing_unit": "warning",
      "multiple_net_names": "warning",
      "net_not_bus_member": "warning",
      "no_connect_connected": "warning",
      "no_connect_dangling": "warning",
      "pin_not_connected": "error",
      "pin_not_driven": "error",
      "pin_to_pin": "error",
      "power_pin_not_driven": "error",
      "similar_labels": "warning",
      "simulation_model_issue": "ignore",
      "unannotated": "error",
      "unit_value_mismatch": "error",
      "unresolved_variable": "error",
      "wire_dangling": "error"
    }
  },
  "libraries": {
    "pinned_footprint_libs": [],
    "pinned_symbol_libs": []
  },
  "meta": {
    "filename": "YARC.kicad_pro",
    "version": 1
  },
  "net_settings": {
    "classes": [
      {
        "bus_width": 12,
        "clearance": 0.2,
        "diff_pair_gap": 0.25,
        "diff_pair_via_gap": 0.25,
        "diff_pair_width": 0.2,
        "line_style": 0,
        "microvia_diameter": 0.3,
        "microvia_drill": 0.1,
        "name": "Default",
        "pcb_color": "rgba(0, 0, 0, 0.000)",
        "schematic_color": "rgba(0, 0, 0, 0.000)",
        "track_width": 0.25,
        "via_diameter": 0.8,
        "via_drill": 0.4,
        "wire_width": 6
      }
    ],
    "meta": {
      "version": 3
    },
    "net_colors": null,
    "netclass_assignments": null,
    "netclass_patterns": []
  },
  "pcbnew": {
    "last_paths": {
      "gencad": "",
      "idf": "",
      "netlist": "",
      "specctra_dsn": "",
      "step": "",
      "vrml": ""
    },
    "page_layout_descr_file": ""
  },
  "schematic": {
    "annotate_start_num": 145,
    "drawing": {
      "dashed_lines_dash_length_ratio": 12.0,
      "dashed_lines_gap_length_ratio": 3.0,
      "default_line_thickness": 6.0,
      "default_text_size": 50.0,
      "field_names": [],
      "intersheets_ref_own_page": false,
      "intersheets_ref_prefix": "",
      "intersheets_ref_short": false,
      "intersheets_ref_show": false,
      "intersheets_ref_suffix": "",
      "junction_size_choice": 3,
      "label_size_ratio": 0.375,
      "pin_symbol_size": 25.0,
      "text_offset_ratio": 0.15
    },
    "legacy_lib_dir": "",
    "legacy_lib_list": [],
    "meta": {
      "version": 1
    },
    "net_format_name": "",
    "ngspice": {
      "fix_include_paths": true,
      "fix_passive_vals": false,
      "meta": {
        "version": 0
      },
      "model_mode": 0,
      "workbook_filename": ""
    },
    "page_layout_descr_file": "",
    "plot_directory": "../../2024-02-05/",
    "spice_adjust_passive_values": false,
    "spice_current_sheet_as_root": false,
    "spice_external_command": "spice \"%I\"",
    "spice_model_current_sheet_as_root": true,
    "spice_save_all_currents": false,
    "spice_save_all_voltages": false,
    "subpart_first_id": 65,
    "subpart_id_separator": 0
  },
  "sheets": [
    [
      "22e0f8e1-b0d7-4d47-bb7c-8ef04cd95fca",
      ""
    ],
    [
      "baeeec1c-6d89-4b09-ba07-b183ebc66f47",
      "Downloader Core"
    ],
    [
      "4512e1de-1ae8-4271-aab5-cfad75ab4cbf",
      "Clock and Downloader Extension"
    ],
    [
      "32a6a89d-8e27-4c41-a8a1-866f443f001b",
      "Memory"
    ],
    [
      "898bc8c4-26bf-49d8-bb4c-382409bb277a",
      "Microcode Engine"
    ],
    [
      "a3892bed-2422-46c3-a2f7-c55c7ea6ac93",
      "Microcode Control"
    ],
    [
      "5c3a56e1-a539-47ae-9041-458228256291",
      "Microcode Transceivers"
    ],
    [
      "ab31a2b6-5416-47ce-a658-779ff6faeebe",
      "Stacks"
    ],
    [
      "08911a09-4c52-4bc8-9a9a-ff564ff87689",
      "GeneralRegisters"
    ],
    [
      "2ffac34c-e3cb-492f-a745-89749c95e306",
      "FlagLogic"
    ],
    [
      "89d830c1-f0d9-4d89-9863-428a1b54ae3d",
      "South Central"
    ],
    [
      "51c42971-ddd1-444d-b989-88f84ae04d0f",
      "North Central"
    ],
    [
      "feebb92e-360c-455c-a141-048b807a0420",
      "ALU"
    ],
    [
      "abd64d43-20ca-4b37-94fd-5fc041c76dd4",
      "ConstantRegisters"
    ],
    [
      "a71dcb28-687f-4ebb-8f7d-60fc197ba42e",
      "KludgeSpace"
    ],
    [
      "849f3d14-f0b8-4537-b3d9-7d1c506b2b94",
      "ALUControls"
    ]
  ],
  "text_variables": {}
}
