(kicad_sch (version 20230121) (generator eeschema)

  (uuid d99e2b23-26d7-46be-804b-25b16a034791)

  (paper "A3")

  (lib_symbols
    (symbol "DreaM117er_Library:Joystick_NSJoycon" (in_bom yes) (on_board yes)
      (property "Reference" "JE" (at -6.985 13.97 0)
        (effects (font (size 1.27 1.27)))
      )
      (property "Value" "NS Joy-con" (at -2.54 11.43 0)
        (effects (font (size 1.27 1.27)))
      )
      (property "Footprint" "DreaM117er-keebLibrary:Joystick_NSJoy-con" (at 0 -12.065 0)
        (effects (font (size 1.27 1.27)) hide)
      )
      (property "Datasheet" "" (at 1.905 11.43 0)
        (effects (font (size 1.27 1.27)) hide)
      )
      (symbol "Joystick_NSJoycon_0_1"
        (arc (start -12.065 -7.62) (mid -11.693 -8.518) (end -10.795 -8.89)
          (stroke (width 0) (type default))
          (fill (type none))
        )
        (arc (start -10.795 -6.35) (mid -11.693 -6.722) (end -12.065 -7.62)
          (stroke (width 0) (type default))
          (fill (type none))
        )
        (rectangle (start -9.525 9.525) (end 9.525 -9.525)
          (stroke (width 0) (type default))
          (fill (type none))
        )
        (polyline
          (pts
            (xy -10.795 -8.89)
            (xy -9.525 -8.89)
          )
          (stroke (width 0) (type default))
          (fill (type none))
        )
        (polyline
          (pts
            (xy -10.795 -6.35)
            (xy -9.525 -6.35)
          )
          (stroke (width 0) (type default))
          (fill (type none))
        )
        (polyline
          (pts
            (xy 5.715 10.795)
            (xy 5.715 9.525)
          )
          (stroke (width 0) (type default))
          (fill (type none))
        )
        (polyline
          (pts
            (xy 8.255 10.795)
            (xy 8.255 9.525)
          )
          (stroke (width 0) (type default))
          (fill (type none))
        )
        (arc (start 6.985 12.065) (mid 6.087 11.693) (end 5.715 10.795)
          (stroke (width 0) (type default))
          (fill (type none))
        )
        (arc (start 8.255 10.795) (mid 7.883 11.693) (end 6.985 12.065)
          (stroke (width 0) (type default))
          (fill (type none))
        )
      )
      (symbol "Joystick_NSJoycon_1_1"
        (pin input line (at 14.605 6.35 180) (length 5.08)
          (name "X/AD1" (effects (font (size 1.27 1.27))))
          (number "1" (effects (font (size 1.27 1.27))))
        )
        (pin output output_low (at 14.605 3.81 180) (length 5.08)
          (name "GND" (effects (font (size 1.27 1.27))))
          (number "2" (effects (font (size 1.27 1.27))))
        )
        (pin input line (at 14.605 1.27 180) (length 5.08)
          (name "SW" (effects (font (size 1.27 1.27))))
          (number "3" (effects (font (size 1.27 1.27))))
        )
        (pin input line (at 14.605 -1.27 180) (length 5.08)
          (name "Y/AD2" (effects (font (size 1.27 1.27))))
          (number "4" (effects (font (size 1.27 1.27))))
        )
        (pin output output_low (at 14.605 -3.81 180) (length 5.08)
          (name "GND" (effects (font (size 1.27 1.27))))
          (number "5" (effects (font (size 1.27 1.27))))
        )
        (pin input input_low (at 14.605 -6.35 180) (length 5.08)
          (name "VCC" (effects (font (size 1.27 1.27))))
          (number "6" (effects (font (size 1.27 1.27))))
        )
      )
    )
    (symbol "DreaM117er_Library:MCU_RP2040_SuperMini" (pin_names (offset 0.635)) (in_bom yes) (on_board yes)
      (property "Reference" "U" (at 0 12.7 0)
        (effects (font (size 1.27 1.27)))
      )
      (property "Value" "MCU_RP2040_SuperMini" (at 0 10.16 0)
        (effects (font (size 1.27 1.27)))
      )
      (property "Footprint" "DreaM117er-keebLibrary:MCU_RP2040SuperMini" (at 23.495 -3.81 90)
        (effects (font (size 1.27 1.27)) hide)
      )
      (property "Datasheet" "" (at 2.54 0 0)
        (effects (font (size 1.27 1.27)) hide)
      )
      (symbol "MCU_RP2040_SuperMini_0_1"
        (rectangle (start -12.065 8.89) (end 12.065 -16.51)
          (stroke (width 0) (type default))
          (fill (type none))
        )
      )
      (symbol "MCU_RP2040_SuperMini_1_1"
        (pin passive output_low (at -15.875 6.35 0) (length 3.81)
          (name "5V" (effects (font (size 1.27 1.27))))
          (number "1" (effects (font (size 1.27 1.27))))
        )
        (pin passive line (at 15.875 6.35 180) (length 3.81)
          (name "GP0" (effects (font (size 1.27 1.27))))
          (number "10" (effects (font (size 1.27 1.27))))
        )
        (pin passive line (at 15.875 3.81 180) (length 3.81)
          (name "GP1" (effects (font (size 1.27 1.27))))
          (number "11" (effects (font (size 1.27 1.27))))
        )
        (pin passive line (at 15.875 1.27 180) (length 3.81)
          (name "GP2" (effects (font (size 1.27 1.27))))
          (number "12" (effects (font (size 1.27 1.27))))
        )
        (pin passive line (at 15.875 -1.27 180) (length 3.81)
          (name "GP3" (effects (font (size 1.27 1.27))))
          (number "13" (effects (font (size 1.27 1.27))))
        )
        (pin passive line (at 15.875 -3.81 180) (length 3.81)
          (name "GP4" (effects (font (size 1.27 1.27))))
          (number "14" (effects (font (size 1.27 1.27))))
        )
        (pin passive line (at 15.875 -6.35 180) (length 3.81)
          (name "GP5" (effects (font (size 1.27 1.27))))
          (number "15" (effects (font (size 1.27 1.27))))
        )
        (pin passive line (at 15.875 -8.89 180) (length 3.81)
          (name "GP6" (effects (font (size 1.27 1.27))))
          (number "16" (effects (font (size 1.27 1.27))))
        )
        (pin passive line (at 15.875 -11.43 180) (length 3.81)
          (name "GP7" (effects (font (size 1.27 1.27))))
          (number "17" (effects (font (size 1.27 1.27))))
        )
        (pin passive line (at 15.875 -13.97 180) (length 3.81)
          (name "GP8" (effects (font (size 1.27 1.27))))
          (number "18" (effects (font (size 1.27 1.27))))
        )
        (pin passive line (at 5.715 -20.32 90) (length 3.81)
          (name "GP9" (effects (font (size 1.27 1.27))))
          (number "19" (effects (font (size 1.27 1.27))))
        )
        (pin passive input_low (at -15.875 3.81 0) (length 3.81)
          (name "GND" (effects (font (size 1.27 1.27))))
          (number "2" (effects (font (size 1.27 1.27))))
        )
        (pin passive line (at 3.175 -20.32 90) (length 3.81)
          (name "GP10" (effects (font (size 1.27 1.27))))
          (number "20" (effects (font (size 1.27 1.27))))
        )
        (pin passive line (at 0.635 -20.32 90) (length 3.81)
          (name "GP11" (effects (font (size 1.27 1.27))))
          (number "21" (effects (font (size 1.27 1.27))))
        )
        (pin passive line (at -1.905 -20.32 90) (length 3.81)
          (name "GP12" (effects (font (size 1.27 1.27))))
          (number "22" (effects (font (size 1.27 1.27))))
        )
        (pin passive line (at -4.445 -20.32 90) (length 3.81)
          (name "GP13" (effects (font (size 1.27 1.27))))
          (number "23" (effects (font (size 1.27 1.27))))
        )
        (pin passive output_low (at -15.875 1.27 0) (length 3.81)
          (name "3V3" (effects (font (size 1.27 1.27))))
          (number "3" (effects (font (size 1.27 1.27))))
        )
        (pin passive line (at -15.875 -1.27 0) (length 3.81)
          (name "GP29" (effects (font (size 1.27 1.27))))
          (number "4" (effects (font (size 1.27 1.27))))
        )
        (pin passive line (at -15.875 -3.81 0) (length 3.81)
          (name "GP28" (effects (font (size 1.27 1.27))))
          (number "5" (effects (font (size 1.27 1.27))))
        )
        (pin passive line (at -15.875 -6.35 0) (length 3.81)
          (name "GP27" (effects (font (size 1.27 1.27))))
          (number "6" (effects (font (size 1.27 1.27))))
        )
        (pin passive line (at -15.875 -8.89 0) (length 3.81)
          (name "GP26" (effects (font (size 1.27 1.27))))
          (number "7" (effects (font (size 1.27 1.27))))
        )
        (pin passive line (at -15.875 -11.43 0) (length 3.81)
          (name "GP15" (effects (font (size 1.27 1.27))))
          (number "8" (effects (font (size 1.27 1.27))))
        )
        (pin passive line (at -15.875 -13.97 0) (length 3.81)
          (name "GP14" (effects (font (size 1.27 1.27))))
          (number "9" (effects (font (size 1.27 1.27))))
        )
      )
    )
  )


  (no_connect (at 390.525 28.575) (uuid 0837d7f7-44ee-4b41-9577-d02cbac1869f))
  (no_connect (at 380.365 52.705) (uuid 0973d435-05f6-4e51-9ca3-73c5069100f0))
  (no_connect (at 377.825 52.705) (uuid 300086b3-8f63-4336-9674-d60883eb9b25))
  (no_connect (at 390.525 46.355) (uuid 34505053-c99a-49fc-ac70-d63e804ef1bf))
  (no_connect (at 358.775 43.815) (uuid 34b8db61-df45-43f6-a1ce-04e0a842d84b))
  (no_connect (at 326.39 43.815) (uuid 3898d190-0b24-4f56-a77a-c0e9cd7ddd5e))
  (no_connect (at 370.205 52.705) (uuid 47dbb70d-a1c2-4aa1-9c8b-027a841c5027))
  (no_connect (at 358.775 33.655) (uuid 52f4a9b3-6a1c-47c0-8122-946b42cc3a39))
  (no_connect (at 390.525 38.735) (uuid 55df874b-c02e-4322-af87-ddab54775823))
  (no_connect (at 390.525 26.035) (uuid 5833f4e3-df24-4bb6-b46b-db0be54507a7))
  (no_connect (at 358.775 31.115) (uuid 63da2264-0baa-44a7-9b63-a7c0b6615a30))
  (no_connect (at 390.525 36.195) (uuid 6d6b569d-6d20-4cd4-8c0c-693673075b97))
  (no_connect (at 390.525 31.115) (uuid 74d1bd90-114b-4fbd-ab4c-be2b67e5da5f))
  (no_connect (at 326.39 33.655) (uuid 800da3da-8e7a-4916-aae9-d4456f5661ee))
  (no_connect (at 358.775 28.575) (uuid 87878bc7-ce01-4519-b88f-b7a4cdb9a716))
  (no_connect (at 326.39 41.275) (uuid 93c16d47-9ff3-470c-b90e-e654ba08ad3c))
  (no_connect (at 358.775 36.195) (uuid 9652ba69-64dc-403d-a56d-9c51bc213235))
  (no_connect (at 358.775 41.275) (uuid 975fed84-35c1-4307-ac67-8b239390189a))
  (no_connect (at 390.525 41.275) (uuid ac596fbb-5bed-4d16-9aef-3d3df4d5f1fd))
  (no_connect (at 375.285 52.705) (uuid bccd5089-78aa-495d-94f1-b64f157d0b6e))
  (no_connect (at 372.745 52.705) (uuid c1309b1a-8182-4ff7-a6d3-8f0bd4f0c52d))
  (no_connect (at 326.39 38.735) (uuid c377b11a-df7c-474e-b969-1b733939c0f5))
  (no_connect (at 326.39 31.115) (uuid c9ff985b-f81a-4914-b5aa-8d74d16143a3))
  (no_connect (at 358.775 46.355) (uuid d05deb33-2054-4308-8fa1-7c3037610e09))
  (no_connect (at 358.775 26.035) (uuid de8f627d-d181-45b5-8b18-3d3fa8800763))
  (no_connect (at 390.525 33.655) (uuid efed0c98-1540-421f-a47d-9d108b4219bb))
  (no_connect (at 326.39 36.195) (uuid f23edefa-aa4d-4af8-80d8-4e3ee947cedc))
  (no_connect (at 358.775 38.735) (uuid f81660e9-7733-470f-abc3-df19a6fd0483))
  (no_connect (at 390.525 43.815) (uuid fa92af1d-71af-4fdb-b781-0dd39e063909))

  (symbol (lib_id "DreaM117er_Library:MCU_RP2040_SuperMini") (at 374.65 32.385 0) (unit 1)
    (in_bom yes) (on_board yes) (dnp no) (fields_autoplaced)
    (uuid 1a8c9ed6-ce09-4ed3-b5a8-db963b7f12f0)
    (property "Reference" "U2" (at 374.65 19.05 0)
      (effects (font (size 1.27 1.27)))
    )
    (property "Value" "MCU_Right" (at 374.65 21.59 0)
      (effects (font (size 1.27 1.27)))
    )
    (property "Footprint" "DreaM117er-keebLibrary:MCU_RP2040SuperMini_SMD" (at 398.145 36.195 90)
      (effects (font (size 1.27 1.27)) hide)
    )
    (property "Datasheet" "" (at 377.19 32.385 0)
      (effects (font (size 1.27 1.27)) hide)
    )
    (pin "1" (uuid e9e80b32-350a-4ef8-9f2a-42677e558c4b))
    (pin "10" (uuid 1812ec65-1f51-4d73-8f04-6848e3152e61))
    (pin "11" (uuid 53d571ab-5acf-4e3e-b669-4e3ef680e88b))
    (pin "12" (uuid 88f8727b-aab9-43df-b2a5-0f423008975c))
    (pin "13" (uuid 79d2a27d-3561-4df3-bee5-ab48d814e808))
    (pin "14" (uuid d0af9292-5d3f-4cfe-a6de-191a98e59fee))
    (pin "15" (uuid 1263777d-6c6e-4d35-a4d5-b78ba9dd6568))
    (pin "16" (uuid d81d037e-b46b-4559-bd08-d17ec59e624b))
    (pin "17" (uuid 7d3e2a97-2af1-44fc-a8ab-ccd5d1167a7f))
    (pin "18" (uuid fdc33b46-17f2-4c0c-a7f8-61f182a95dfc))
    (pin "19" (uuid 18dc6872-3209-44f2-b607-6796173c7134))
    (pin "2" (uuid 5dbe9f4d-8f15-43c7-9e6b-15feeb383fc2))
    (pin "20" (uuid 3200f0ef-7664-4cf6-b39b-583193c2380e))
    (pin "21" (uuid 2e076529-9354-4336-b85c-d705cc36e104))
    (pin "22" (uuid ced71a6f-4dfd-4d03-bb40-3e863671452e))
    (pin "23" (uuid 7b426947-bad6-4bc5-b5d8-e513c466d47c))
    (pin "3" (uuid 5ba68234-d067-4f3e-8fd8-94ba3c2d845c))
    (pin "4" (uuid ea84a660-127c-4b18-a9f4-dd53066f2d8d))
    (pin "5" (uuid f889bfa9-aad6-49ba-940a-06f815b59d2f))
    (pin "6" (uuid 4889fe98-b3e9-4f54-96c7-3c2412d72c25))
    (pin "7" (uuid 8c40748f-b3ba-4420-a804-86b5b09c8578))
    (pin "8" (uuid ab0717d4-c214-4308-9bfb-1f5e03fa642d))
    (pin "9" (uuid 89fd6310-d169-4ba1-98ed-0db3bb4904c8))
    (instances
      (project "J-50x"
        (path "/d99e2b23-26d7-46be-804b-25b16a034791"
          (reference "U2") (unit 1)
        )
      )
    )
  )

  (symbol (lib_id "DreaM117er_Library:Joystick_NSJoycon") (at 311.785 37.465 0) (unit 1)
    (in_bom yes) (on_board yes) (dnp no)
    (uuid 654cf0f8-58fc-4626-854f-949e7a4291a3)
    (property "Reference" "K26" (at 309.245 22.86 0)
      (effects (font (size 1.27 1.27)))
    )
    (property "Value" "NS Joy-con" (at 309.245 25.4 0)
      (effects (font (size 1.27 1.27)))
    )
    (property "Footprint" "DreaM117er-keebLibrary:Joystick_NSJoy-con" (at 311.785 49.53 0)
      (effects (font (size 1.27 1.27)) hide)
    )
    (property "Datasheet" "" (at 313.69 26.035 0)
      (effects (font (size 1.27 1.27)) hide)
    )
    (pin "1" (uuid 2265fd14-690d-4324-bb3a-5e698878c93b))
    (pin "2" (uuid 95be19bd-5dab-48eb-927b-b0b10480708e))
    (pin "3" (uuid cba56979-3ed8-45aa-b1df-8a74929ab894))
    (pin "4" (uuid f4af7ce2-9a05-4017-b2ee-bf31b4e360c1))
    (pin "5" (uuid 5d235a0b-66bd-476b-80b4-2242767342f4))
    (pin "6" (uuid 83c048c3-6c4b-4b92-9160-b3a39f19af67))
    (instances
      (project "J-50x"
        (path "/d99e2b23-26d7-46be-804b-25b16a034791"
          (reference "K26") (unit 1)
        )
      )
    )
  )

  (sheet_instances
    (path "/" (page "1"))
  )
)
