(kicad_pcb
	(version 20240108)
	(generator "pcbnew")
	(generator_version "8.0")
	(general
		(thickness 1.6)
		(legacy_teardrops no)
	)
	(paper "A4")
	(layers
		(0 "F.Cu" signal)
		(31 "B.Cu" signal)
		(32 "B.Adhes" user "B.Adhesive")
		(33 "F.Adhes" user "F.Adhesive")
		(34 "B.Paste" user)
		(35 "F.Paste" user)
		(36 "B.SilkS" user "B.Silkscreen")
		(37 "F.SilkS" user "F.Silkscreen")
		(38 "B.Mask" user)
		(39 "F.Mask" user)
		(40 "Dwgs.User" user "User.Drawings")
		(41 "Cmts.User" user "User.Comments")
		(42 "Eco1.User" user "User.Eco1")
		(43 "Eco2.User" user "User.Eco2")
		(44 "Edge.Cuts" user)
		(45 "Margin" user)
		(46 "B.CrtYd" user "B.Courtyard")
		(47 "F.CrtYd" user "F.Courtyard")
		(48 "B.Fab" user)
		(49 "F.Fab" user)
		(50 "User.1" user)
		(51 "User.2" user)
		(52 "User.3" user)
		(53 "User.4" user)
		(54 "User.5" user)
		(55 "User.6" user)
		(56 "User.7" user)
		(57 "User.8" user)
		(58 "User.9" user)
	)
	(setup
		(pad_to_mask_clearance 0)
		(allow_soldermask_bridges_in_footprints no)
		(pcbplotparams
			(layerselection 0x00010fc_ffffffff)
			(plot_on_all_layers_selection 0x0000000_00000000)
			(disableapertmacros no)
			(usegerberextensions no)
			(usegerberattributes yes)
			(usegerberadvancedattributes yes)
			(creategerberjobfile yes)
			(dashed_line_dash_ratio 12.000000)
			(dashed_line_gap_ratio 3.000000)
			(svgprecision 4)
			(plotframeref no)
			(viasonmask no)
			(mode 1)
			(useauxorigin no)
			(hpglpennumber 1)
			(hpglpenspeed 20)
			(hpglpendiameter 15.000000)
			(pdf_front_fp_property_popups yes)
			(pdf_back_fp_property_popups yes)
			(dxfpolygonmode yes)
			(dxfimperialunits yes)
			(dxfusepcbnewfont yes)
			(psnegative no)
			(psa4output no)
			(plotreference yes)
			(plotvalue yes)
			(plotfptext yes)
			(plotinvisibletext no)
			(sketchpadsonfab no)
			(subtractmaskfromsilk no)
			(outputformat 1)
			(mirror no)
			(drillshape 0)
			(scaleselection 1)
			(outputdirectory "gerber/")
		)
	)
	(net 0 "")
	(net 1 "Net-(BT1--)")
	(net 2 "Net-(BT1-+)")
	(net 3 "Net-(D1-A)")
	(net 4 "Net-(R1-Pad2)")
	(net 5 "Net-(BatteryChargeModule1-+)")
	(net 6 "Net-(BatteryChargeModule1--)")
	(footprint "Personal:Battery Charge Module"
		(layer "F.Cu")
		(uuid "334c8aaf-864e-4b2b-9b7f-ed640d900888")
		(at 156.06 98.77)
		(property "Reference" "BatteryChargeModule1"
			(at 0 -6 0)
			(unlocked yes)
			(layer "F.SilkS")
			(hide yes)
			(uuid "a5f38a11-4845-4e93-b73f-6d4aea608bae")
			(effects
				(font
					(size 1 1)
					(thickness 0.1)
				)
			)
		)
		(property "Value" "~"
			(at 0 8 0)
			(unlocked yes)
			(layer "F.Fab")
			(hide yes)
			(uuid "ab247508-451f-45ab-a635-536ba7ec8102")
			(effects
				(font
					(size 1 1)
					(thickness 0.15)
				)
			)
		)
		(property "Footprint" "Personal:Battery Charge Module"
			(at 0 0 0)
			(unlocked yes)
			(layer "F.Fab")
			(hide yes)
			(uuid "b98e1c28-8c3f-443c-8703-35ed02019347")
			(effects
				(font
					(size 1 1)
					(thickness 0.15)
				)
			)
		)
		(property "Datasheet" ""
			(at 0 0 0)
			(unlocked yes)
			(layer "F.Fab")
			(hide yes)
			(uuid "1f7f01e7-7a87-48b9-b6ce-3eb6078ef369")
			(effects
				(font
					(size 1 1)
					(thickness 0.15)
				)
			)
		)
		(property "Description" ""
			(at 0 0 0)
			(unlocked yes)
			(layer "F.Fab")
			(hide yes)
			(uuid "8dc1bcaf-c23f-40a9-b41e-1305ac8e6efb")
			(effects
				(font
					(size 1 1)
					(thickness 0.15)
				)
			)
		)
		(path "/e5353304-58a3-4329-a8e8-bca069d76963")
		(sheetname "Root")
		(sheetfile "LED2.kicad_sch")
		(attr smd)
		(fp_line
			(start -1.33 -4.91)
			(end 0 -4.91)
			(stroke
				(width 0.12)
				(type solid)
			)
			(layer "F.SilkS")
			(uuid "3888f6d0-88a5-4fc6-b68d-0dffc0b40cd8")
		)
		(fp_line
			(start -1.33 -3.58)
			(end -1.33 -4.91)
			(stroke
				(width 0.12)
				(type solid)
			)
			(layer "F.SilkS")
			(uuid "10a1d912-4284-4118-be5b-1c1d3f28aa20")
		)
		(fp_line
			(start -1.33 -2.31)
			(end -1.33 5.37)
			(stroke
				(width 0.12)
				(type solid)
			)
			(layer "F.SilkS")
			(uuid "8dbc76f2-730d-4db9-9224-508b2f7d151f")
		)
		(fp_line
			(start -1.33 -2.31)
			(end 1.33 -2.31)
			(stroke
				(width 0.12)
				(type solid)
			)
			(layer "F.SilkS")
			(uuid "ac528210-b699-4620-96f1-c948959c73ff")
		)
		(fp_line
			(start -1.33 5.37)
			(end 1.33 5.37)
			(stroke
				(width 0.12)
				(type solid)
			)
			(layer "F.SilkS")
			(uuid "4b3fce9d-eb5c-41de-8c9d-95853ddc0b82")
		)
		(fp_line
			(start 1.33 -2.31)
			(end 1.33 5.37)
			(stroke
				(width 0.12)
				(type solid)
			)
			(layer "F.SilkS")
			(uuid "5756676d-90e0-4cc2-b9ae-33233a3e1045")
		)
		(fp_line
			(start -1.8 -5.38)
			(end -1.8 5.82)
			(stroke
				(width 0.05)
				(type solid)
			)
			(layer "F.CrtYd")
			(uuid "fc79ca79-5423-4963-8e50-face394d7f83")
		)
		(fp_line
			(start -1.8 5.82)
			(end 1.8 5.82)
			(stroke
				(width 0.05)
				(type solid)
			)
			(layer "F.CrtYd")
			(uuid "4a49a0b4-cf3c-47df-b712-8857f00eb1f5")
		)
		(fp_line
			(start 1.8 -5.38)
			(end -1.8 -5.38)
			(stroke
				(width 0.05)
				(type solid)
			)
			(layer "F.CrtYd")
			(uuid "70c753f3-cbfc-439c-b091-0f3b28636d07")
		)
		(fp_line
			(start 1.8 5.82)
			(end 1.8 -5.38)
			(stroke
				(width 0.05)
				(type solid)
			)
			(layer "F.CrtYd")
			(uuid "72ff36db-0d2f-4393-afd5-033eb5aed2af")
		)
		(fp_line
			(start -1.27 -4.215)
			(end -0.635 -4.85)
			(stroke
				(width 0.1)
				(type solid)
			)
			(layer "F.Fab")
			(uuid "25b81d1c-34b0-4732-a538-51b233e303cf")
		)
		(fp_line
			(start -1.27 5.31)
			(end -1.27 -4.215)
			(stroke
				(width 0.1)
				(type solid)
			)
			(layer "F.Fab")
			(uuid "faeb3e9a-e4fe-4fa4-855c-23a78aa734e2")
		)
		(fp_line
			(start -0.635 -4.85)
			(end 1.27 -4.85)
			(stroke
				(width 0.1)
				(type solid)
			)
			(layer "F.Fab")
			(uuid "f2aa4d1d-d9e5-4a0d-897a-1d3bbcec270f")
		)
		(fp_line
			(start 1.27 -4.85)
			(end 1.27 5.31)
			(stroke
				(width 0.1)
				(type solid)
			)
			(layer "F.Fab")
			(uuid "870128e8-3164-443e-a1c6-798923338243")
		)
		(fp_line
			(start 1.27 5.31)
			(end -1.27 5.31)
			(stroke
				(width 0.1)
				(type solid)
			)
			(layer "F.Fab")
			(uuid "4a982861-e73b-4dc8-b2e5-2e31e2d45e01")
		)
		(fp_text user "Bat-"
			(at 2 4.92 0)
			(unlocked yes)
			(layer "F.SilkS")
			(uuid "147bb521-8c87-4282-aaed-6191df9be219")
			(effects
				(font
					(size 1 1)
					(thickness 0.15)
				)
				(justify left bottom)
			)
		)
		(fp_text user "+"
			(at 1 -0.58 0)
			(unlocked yes)
			(layer "F.SilkS")
			(uuid "458200f9-dce0-4d6f-bec2-342180a8990f")
			(effects
				(font
					(size 1 1)
					(thickness 0.15)
				)
				(justify left bottom)
			)
		)
		(fp_text user "Bat+"
			(at 2 -3.08 0)
			(unlocked yes)
			(layer "F.SilkS")
			(uuid "68d559fa-238b-4013-b53c-accadad858bd")
			(effects
				(font
					(size 1 1)
					(thickness 0.15)
				)
				(justify left bottom)
			)
		)
		(fp_text user "-"
			(at 1 1.92 0)
			(unlocked yes)
			(layer "F.SilkS")
			(uuid "6b9b9c16-e5ab-4263-87af-3c2d22cebaa9")
			(effects
				(font
					(size 1 1)
					(thickness 0.15)
				)
				(justify left bottom)
			)
		)
		(pad "1" thru_hole rect
			(at 0 -3.58)
			(size 1.7 1.7)
			(drill 1)
			(layers "*.Cu" "*.Mask")
			(remove_unused_layers no)
			(net 2 "Net-(BT1-+)")
			(pinfunction "Bat+")
			(pintype "input")
			(uuid "2b497b3e-56a5-4afa-847c-00eeb6db5e67")
		)
		(pad "2" thru_hole oval
			(at 0 -1.04)
			(size 1.7 1.7)
			(drill 1)
			(layers "*.Cu" "*.Mask")
			(remove_unused_layers no)
			(net 5 "Net-(BatteryChargeModule1-+)")
			(pinfunction "Bat-")
			(pintype "input")
			(uuid "a7f3044b-4638-4ad0-a94a-726e6eaad685")
		)
		(pad "3" thru_hole oval
			(at 0 1.5)
			(size 1.7 1.7)
			(drill 1)
			(layers "*.Cu" "*.Mask")
			(remove_unused_layers no)
			(net 6 "Net-(BatteryChargeModule1--)")
			(pinfunction "+")
			(pintype "input")
			(uuid "ab96077b-dfef-4ba8-946e-2ab75f43fcbe")
		)
		(pad "4" thru_hole oval
			(at 0 4.04)
			(size 1.7 1.7)
			(drill 1)
			(layers "*.Cu" "*.Mask")
			(remove_unused_layers no)
			(net 1 "Net-(BT1--)")
			(pinfunction "-")
			(pintype "input")
			(uuid "23c18e0d-62c1-48a0-954b-2d950d8f2657")
		)
	)
	(footprint "Connector_PinHeader_2.54mm:PinHeader_1x02_P2.54mm_Vertical"
		(layer "F.Cu")
		(uuid "46d60fe3-d6cd-48b1-9388-86d44e0867a9")
		(at 159.65 97.75)
		(descr "Through hole straight pin header, 1x02, 2.54mm pitch, single row")
		(tags "Through hole pin header THT 1x02 2.54mm single row")
		(property "Reference" "BT1"
			(at 0 -2.33 0)
			(layer "F.SilkS")
			(hide yes)
			(uuid "37f6a4e1-8fa5-49d7-862e-52d5a520c72f")
			(effects
				(font
					(size 1 1)
					(thickness 0.15)
				)
			)
		)
		(property "Value" "Battery"
			(at 0 4.87 0)
			(layer "F.Fab")
			(hide yes)
			(uuid "32578ca9-d2d8-4345-89d8-f9c765bf5dcf")
			(effects
				(font
					(size 1 1)
					(thickness 0.15)
				)
			)
		)
		(property "Footprint" "Connector_PinHeader_2.54mm:PinHeader_1x02_P2.54mm_Vertical"
			(at 0 0 0)
			(unlocked yes)
			(layer "F.Fab")
			(hide yes)
			(uuid "b6ed1073-187c-4460-a50f-4c5772b180ab")
			(effects
				(font
					(size 1.27 1.27)
					(thickness 0.15)
				)
			)
		)
		(property "Datasheet" ""
			(at 0 0 0)
			(unlocked yes)
			(layer "F.Fab")
			(hide yes)
			(uuid "8bed58df-33c7-4de6-aa20-e3f682db927d")
			(effects
				(font
					(size 1.27 1.27)
					(thickness 0.15)
				)
			)
		)
		(property "Description" "Multiple-cell battery"
			(at 0 0 0)
			(unlocked yes)
			(layer "F.Fab")
			(hide yes)
			(uuid "cad5c15c-3f7d-4f4e-b355-d3fbf83ad346")
			(effects
				(font
					(size 1.27 1.27)
					(thickness 0.15)
				)
			)
		)
		(path "/09f63f43-ce83-4a93-ad79-28232b3ed810")
		(sheetname "Root")
		(sheetfile "LED2.kicad_sch")
		(attr through_hole)
		(fp_line
			(start -1.33 -1.33)
			(end 0 -1.33)
			(stroke
				(width 0.12)
				(type solid)
			)
			(layer "F.SilkS")
			(uuid "670da8f4-1418-450e-8e06-7616194a6451")
		)
		(fp_line
			(start -1.33 0)
			(end -1.33 -1.33)
			(stroke
				(width 0.12)
				(type solid)
			)
			(layer "F.SilkS")
			(uuid "e869602c-6429-4284-aa22-7fadb3169d53")
		)
		(fp_line
			(start -1.33 1.27)
			(end -1.33 3.87)
			(stroke
				(width 0.12)
				(type solid)
			)
			(layer "F.SilkS")
			(uuid "eafd3002-ea11-478d-95e0-7c5c373b96a8")
		)
		(fp_line
			(start -1.33 1.27)
			(end 1.33 1.27)
			(stroke
				(width 0.12)
				(type solid)
			)
			(layer "F.SilkS")
			(uuid "506f110b-bb21-46d1-a140-806033574e2c")
		)
		(fp_line
			(start -1.33 3.87)
			(end 1.33 3.87)
			(stroke
				(width 0.12)
				(type solid)
			)
			(layer "F.SilkS")
			(uuid "570d574b-b54f-491c-b487-0805ce024d24")
		)
		(fp_line
			(start 1.33 1.27)
			(end 1.33 3.87)
			(stroke
				(width 0.12)
				(type solid)
			)
			(layer "F.SilkS")
			(uuid "487ab648-ff9b-4116-a4ba-49d14b92a6c1")
		)
		(fp_line
			(start -1.8 -1.8)
			(end -1.8 4.35)
			(stroke
				(width 0.05)
				(type solid)
			)
			(layer "F.CrtYd")
			(uuid "659d9fb1-ccd9-4e9e-8889-b7116c43ddcb")
		)
		(fp_line
			(start -1.8 4.35)
			(end 1.8 4.35)
			(stroke
				(width 0.05)
				(type solid)
			)
			(layer "F.CrtYd")
			(uuid "761ece06-3930-48d8-8a61-2181fe20087e")
		)
		(fp_line
			(start 1.8 -1.8)
			(end -1.8 -1.8)
			(stroke
				(width 0.05)
				(type solid)
			)
			(layer "F.CrtYd")
			(uuid "f80548d5-b34d-470a-9a6e-84b717d68011")
		)
		(fp_line
			(start 1.8 4.35)
			(end 1.8 -1.8)
			(stroke
				(width 0.05)
				(type solid)
			)
			(layer "F.CrtYd")
			(uuid "9cbc8113-1006-4e10-b795-33c21069dc18")
		)
		(fp_line
			(start -1.27 -0.635)
			(end -0.635 -1.27)
			(stroke
				(width 0.1)
				(type solid)
			)
			(layer "F.Fab")
			(uuid "9d130fe3-0cdd-4321-9338-db4421b0eb37")
		)
		(fp_line
			(start -1.27 3.81)
			(end -1.27 -0.635)
			(stroke
				(width 0.1)
				(type solid)
			)
			(layer "F.Fab")
			(uuid "74399019-30fe-459f-ba1c-0b2d5ea9311e")
		)
		(fp_line
			(start -0.635 -1.27)
			(end 1.27 -1.27)
			(stroke
				(width 0.1)
				(type solid)
			)
			(layer "F.Fab")
			(uuid "860c622f-5f5f-4ad4-bcec-f502d08dd2f5")
		)
		(fp_line
			(start 1.27 -1.27)
			(end 1.27 3.81)
			(stroke
				(width 0.1)
				(type solid)
			)
			(layer "F.Fab")
			(uuid "f3f3b269-c289-47e9-af41-3d36252938c1")
		)
		(fp_line
			(start 1.27 3.81)
			(end -1.27 3.81)
			(stroke
				(width 0.1)
				(type solid)
			)
			(layer "F.Fab")
			(uuid "a81be0eb-a646-4c43-95ac-c49a5e563a0a")
		)
		(fp_text user "${REFERENCE}"
			(at 0 1.27 90)
			(layer "F.Fab")
			(uuid "2518b511-2471-47a0-b8d5-3f3eb1ac1284")
			(effects
				(font
					(size 1 1)
					(thickness 0.15)
				)
			)
		)
		(pad "1" thru_hole rect
			(at 0 0)
			(size 1.7 1.7)
			(drill 1)
			(layers "*.Cu" "*.Mask")
			(remove_unused_layers no)
			(net 2 "Net-(BT1-+)")
			(pinfunction "+")
			(pintype "passive")
			(uuid "8a469ebc-754e-4552-a88f-8f2f3c1c3f57")
		)
		(pad "2" thru_hole oval
			(at 0 2.54)
			(size 1.7 1.7)
			(drill 1)
			(layers "*.Cu" "*.Mask")
			(remove_unused_layers no)
			(net 1 "Net-(BT1--)")
			(pinfunction "-")
			(pintype "passive")
			(uuid "b829174e-cc00-4d91-ab3a-e8db36808e74")
		)
		(model "${KICAD8_3DMODEL_DIR}/Connector_PinHeader_2.54mm.3dshapes/PinHeader_1x02_P2.54mm_Vertical.wrl"
			(offset
				(xyz 0 0 0)
			)
			(scale
				(xyz 1 1 1)
			)
			(rotate
				(xyz 0 0 0)
			)
		)
	)
	(footprint "Resistor_THT:R_Axial_DIN0207_L6.3mm_D2.5mm_P7.62mm_Horizontal"
		(layer "F.Cu")
		(uuid "78f28457-a46a-4eb7-92a2-6d3c19c5ce12")
		(at 147.56 103.43 90)
		(descr "Resistor, Axial_DIN0207 series, Axial, Horizontal, pin pitch=7.62mm, 0.25W = 1/4W, length*diameter=6.3*2.5mm^2, http://cdn-reichelt.de/documents/datenblatt/B400/1_4W%23YAG.pdf")
		(tags "Resistor Axial_DIN0207 series Axial Horizontal pin pitch 7.62mm 0.25W = 1/4W length 6.3mm diameter 2.5mm")
		(property "Reference" "R1"
			(at 3.81 -2.37 90)
			(layer "F.SilkS")
			(hide yes)
			(uuid "dc4d970c-ee2d-48d0-8ffa-68a6877bf8ab")
			(effects
				(font
					(size 1 1)
					(thickness 0.15)
				)
			)
		)
		(property "Value" "R_US"
			(at 3.81 2.37 90)
			(layer "F.Fab")
			(hide yes)
			(uuid "83de0167-6a09-422f-88e3-c8797cb4e991")
			(effects
				(font
					(size 1 1)
					(thickness 0.15)
				)
			)
		)
		(property "Footprint" "Resistor_THT:R_Axial_DIN0207_L6.3mm_D2.5mm_P7.62mm_Horizontal"
			(at 0 0 90)
			(unlocked yes)
			(layer "F.Fab")
			(hide yes)
			(uuid "f696163e-2f17-4ef0-8f26-6634dc268b74")
			(effects
				(font
					(size 1.27 1.27)
					(thickness 0.15)
				)
			)
		)
		(property "Datasheet" ""
			(at 0 0 90)
			(unlocked yes)
			(layer "F.Fab")
			(hide yes)
			(uuid "397e1061-da3a-418b-a50d-919af72011c2")
			(effects
				(font
					(size 1.27 1.27)
					(thickness 0.15)
				)
			)
		)
		(property "Description" "Resistor, US symbol"
			(at 0 0 90)
			(unlocked yes)
			(layer "F.Fab")
			(hide yes)
			(uuid "ff6603da-8af1-44a7-bee0-d535591102a4")
			(effects
				(font
					(size 1.27 1.27)
					(thickness 0.15)
				)
			)
		)
		(property ki_fp_filters "R_*")
		(path "/f8510b09-e49e-4466-a8a0-c29f54a82df5")
		(sheetname "Root")
		(sheetfile "LED2.kicad_sch")
		(attr through_hole)
		(fp_line
			(start 7.08 -1.37)
			(end 7.08 -1.04)
			(stroke
				(width 0.12)
				(type solid)
			)
			(layer "F.SilkS")
			(uuid "fae786e1-5e66-451a-93a1-47178f4cba78")
		)
		(fp_line
			(start 0.54 -1.37)
			(end 7.08 -1.37)
			(stroke
				(width 0.12)
				(type solid)
			)
			(layer "F.SilkS")
			(uuid "8fe89342-b373-4129-99bc-196b65413c86")
		)
		(fp_line
			(start 0.54 -1.04)
			(end 0.54 -1.37)
			(stroke
				(width 0.12)
				(type solid)
			)
			(layer "F.SilkS")
			(uuid "ec71e2f8-a4c2-4083-b4b1-42af7b09fde9")
		)
		(fp_line
			(start 0.54 1.04)
			(end 0.54 1.37)
			(stroke
				(width 0.12)
				(type solid)
			)
			(layer "F.SilkS")
			(uuid "1a4fa66d-12ae-4908-97a7-42c81affc35c")
		)
		(fp_line
			(start 7.08 1.37)
			(end 7.08 1.04)
			(stroke
				(width 0.12)
				(type solid)
			)
			(layer "F.SilkS")
			(uuid "c57a6d99-05e3-4f85-b05d-9e19857ca298")
		)
		(fp_line
			(start 0.54 1.37)
			(end 7.08 1.37)
			(stroke
				(width 0.12)
				(type solid)
			)
			(layer "F.SilkS")
			(uuid "ab66f954-6426-4538-888e-2e98a54a12f6")
		)
		(fp_line
			(start 8.67 -1.5)
			(end -1.05 -1.5)
			(stroke
				(width 0.05)
				(type solid)
			)
			(layer "F.CrtYd")
			(uuid "b8a15b61-e310-4c48-a515-cf7f8e69dbd7")
		)
		(fp_line
			(start -1.05 -1.5)
			(end -1.05 1.5)
			(stroke
				(width 0.05)
				(type solid)
			)
			(layer "F.CrtYd")
			(uuid "c226d6d5-a9cc-4cf9-9cfa-a6aa404e2480")
		)
		(fp_line
			(start 8.67 1.5)
			(end 8.67 -1.5)
			(stroke
				(width 0.05)
				(type solid)
			)
			(layer "F.CrtYd")
			(uuid "b20a6e65-8514-4524-9384-ae8a9f532f06")
		)
		(fp_line
			(start -1.05 1.5)
			(end 8.67 1.5)
			(stroke
				(width 0.05)
				(type solid)
			)
			(layer "F.CrtYd")
			(uuid "6681b7b6-8807-4b3e-895d-2097407517b1")
		)
		(fp_line
			(start 6.96 -1.25)
			(end 0.66 -1.25)
			(stroke
				(width 0.1)
				(type solid)
			)
			(layer "F.Fab")
			(uuid "4a2c0380-3bb8-4dc2-89e9-70a4e61dd3d1")
		)
		(fp_line
			(start 0.66 -1.25)
			(end 0.66 1.25)
			(stroke
				(width 0.1)
				(type solid)
			)
			(layer "F.Fab")
			(uuid "9e6d39eb-1521-43a1-8926-10d5c5d78368")
		)
		(fp_line
			(start 7.62 0)
			(end 6.96 0)
			(stroke
				(width 0.1)
				(type solid)
			)
			(layer "F.Fab")
			(uuid "f6028fb2-b62d-4cdb-8ca3-e5cbe77e6e59")
		)
		(fp_line
			(start 0 0)
			(end 0.66 0)
			(stroke
				(width 0.1)
				(type solid)
			)
			(layer "F.Fab")
			(uuid "891460eb-e08e-42ac-9a6d-d4d672086474")
		)
		(fp_line
			(start 6.96 1.25)
			(end 6.96 -1.25)
			(stroke
				(width 0.1)
				(type solid)
			)
			(layer "F.Fab")
			(uuid "5deff3df-2777-4440-b6a0-0e946443a68a")
		)
		(fp_line
			(start 0.66 1.25)
			(end 6.96 1.25)
			(stroke
				(width 0.1)
				(type solid)
			)
			(layer "F.Fab")
			(uuid "43ccbbf5-1393-438c-bbc9-be9a74114714")
		)
		(fp_text user "${REFERENCE}"
			(at 3.81 0 90)
			(layer "F.Fab")
			(uuid "f14a5e37-53b1-4cd5-9c17-304be1e6bda1")
			(effects
				(font
					(size 1 1)
					(thickness 0.15)
				)
			)
		)
		(pad "1" thru_hole circle
			(at 0 0 90)
			(size 1.6 1.6)
			(drill 0.8)
			(layers "*.Cu" "*.Mask")
			(remove_unused_layers no)
			(net 3 "Net-(D1-A)")
			(pintype "passive")
			(uuid "f3c9000a-155b-4f02-a1ba-3b8e578a70df")
		)
		(pad "2" thru_hole oval
			(at 7.62 0 90)
			(size 1.6 1.6)
			(drill 0.8)
			(layers "*.Cu" "*.Mask")
			(remove_unused_layers no)
			(net 4 "Net-(R1-Pad2)")
			(pintype "passive")
			(uuid "4582eae9-25be-4783-bbca-59e9fca5ebf0")
		)
		(model "${KICAD8_3DMODEL_DIR}/Resistor_THT.3dshapes/R_Axial_DIN0207_L6.3mm_D2.5mm_P7.62mm_Horizontal.wrl"
			(offset
				(xyz 0 0 0)
			)
			(scale
				(xyz 1 1 1)
			)
			(rotate
				(xyz 0 0 0)
			)
		)
	)
	(footprint "LED_THT:LED_D5.0mm_Horizontal_O1.27mm_Z3.0mm"
		(layer "F.Cu")
		(uuid "c28dd926-2a95-4486-85d3-48ba6261f6a5")
		(at 143.56 98.035 -90)
		(descr "LED, diameter 5.0mm z-position of LED center 3.0mm, 2 pins")
		(tags "LED diameter 5.0mm z-position of LED center 3.0mm 2 pins")
		(property "Reference" "D1"
			(at 1.27 -1.96 90)
			(layer "F.SilkS")
			(hide yes)
			(uuid "f8821a36-1523-4356-aa04-f47edbc6a29c")
			(effects
				(font
					(size 1 1)
					(thickness 0.15)
				)
			)
		)
		(property "Value" "LED"
			(at 1.27 10.93 90)
			(layer "F.Fab")
			(hide yes)
			(uuid "42fa163e-1209-4666-abcd-1644fc183a2e")
			(effects
				(font
					(size 1 1)
					(thickness 0.15)
				)
			)
		)
		(property "Footprint" "LED_THT:LED_D5.0mm_Horizontal_O1.27mm_Z3.0mm"
			(at 0 0 -90)
			(unlocked yes)
			(layer "F.Fab")
			(hide yes)
			(uuid "1696ac0f-21bf-4e22-b477-2b12ec78dcf2")
			(effects
				(font
					(size 1.27 1.27)
					(thickness 0.15)
				)
			)
		)
		(property "Datasheet" ""
			(at 0 0 -90)
			(unlocked yes)
			(layer "F.Fab")
			(hide yes)
			(uuid "dc18c6a1-a472-4857-ab33-4987e87b2004")
			(effects
				(font
					(size 1.27 1.27)
					(thickness 0.15)
				)
			)
		)
		(property "Description" "Light emitting diode"
			(at 0 0 -90)
			(unlocked yes)
			(layer "F.Fab")
			(hide yes)
			(uuid "251e8e83-d532-419d-b5d0-3406101a4d59")
			(effects
				(font
					(size 1.27 1.27)
					(thickness 0.15)
				)
			)
		)
		(property ki_fp_filters "LED* LED_SMD:* LED_THT:*")
		(path "/93c4662f-b880-4e6d-af16-7ea038f79d35")
		(sheetname "Root")
		(sheetfile "LED2.kicad_sch")
		(attr through_hole)
		(fp_rect
			(start -1.95 -1.375)
			(end 4.5 1.375)
			(stroke
				(width 0.05)
				(type default)
			)
			(fill none)
			(layer "F.CrtYd")
			(uuid "fb000628-061c-4e71-8d29-915d65c8cf2a")
		)
		(fp_line
			(start 0 0)
			(end 0 0)
			(stroke
				(width 0.1)
				(type solid)
			)
			(layer "F.Fab")
			(uuid "b61228d1-5327-440f-b02b-ffb237f5804f")
		)
		(fp_line
			(start 2.54 0)
			(end 2.54 0)
			(stroke
				(width 0.1)
				(type solid)
			)
			(layer "F.Fab")
			(uuid "fa38084f-c320-4d35-9ccb-59592740cf66")
		)
		(pad "1" thru_hole rect
			(at 0 0 270)
			(size 1.8 1.8)
			(drill 0.9)
			(layers "*.Cu" "*.Mask")
			(remove_unused_layers no)
			(net 5 "Net-(BatteryChargeModule1-+)")
			(pinfunction "K")
			(pintype "passive")
			(uuid "108bf563-de76-4a34-b94e-d5b250af7999")
		)
		(pad "2" thru_hole circle
			(at 2.54 0 270)
			(size 1.8 1.8)
			(drill 0.9)
			(layers "*.Cu" "*.Mask")
			(remove_unused_layers no)
			(net 3 "Net-(D1-A)")
			(pinfunction "A")
			(pintype "passive")
			(uuid "61e97bd0-7abf-4989-8269-ad69238b3b2c")
		)
		(model "${KICAD8_3DMODEL_DIR}/LED_THT.3dshapes/LED_D5.0mm_Horizontal_O1.27mm_Z3.0mm.wrl"
			(offset
				(xyz 0 0 0)
			)
			(scale
				(xyz 1 1 1)
			)
			(rotate
				(xyz 0 0 0)
			)
		)
	)
	(footprint "Resistor_THT:R_Axial_DIN0207_L6.3mm_D2.5mm_P7.62mm_Horizontal"
		(layer "F.Cu")
		(uuid "ca9a2364-c300-42dc-a768-a78b93f4f59e")
		(at 152.06 103.12 90)
		(descr "Resistor, Axial_DIN0207 series, Axial, Horizontal, pin pitch=7.62mm, 0.25W = 1/4W, length*diameter=6.3*2.5mm^2, http://cdn-reichelt.de/documents/datenblatt/B400/1_4W%23YAG.pdf")
		(tags "Resistor Axial_DIN0207 series Axial Horizontal pin pitch 7.62mm 0.25W = 1/4W length 6.3mm diameter 2.5mm")
		(property "Reference" "R1"
			(at 3.81 -2.37 90)
			(layer "F.SilkS")
			(hide yes)
			(uuid "dc4d970c-ee2d-48d0-8ffa-68a6877bf8ab")
			(effects
				(font
					(size 1 1)
					(thickness 0.15)
				)
			)
		)
		(property "Value" "R_US"
			(at 3.81 2.37 90)
			(layer "F.Fab")
			(hide yes)
			(uuid "83de0167-6a09-422f-88e3-c8797cb4e991")
			(effects
				(font
					(size 1 1)
					(thickness 0.15)
				)
			)
		)
		(property "Footprint" "Resistor_THT:R_Axial_DIN0207_L6.3mm_D2.5mm_P7.62mm_Horizontal"
			(at 0 0 90)
			(unlocked yes)
			(layer "F.Fab")
			(hide yes)
			(uuid "f696163e-2f17-4ef0-8f26-6634dc268b74")
			(effects
				(font
					(size 1.27 1.27)
					(thickness 0.15)
				)
			)
		)
		(property "Datasheet" ""
			(at 0 0 90)
			(unlocked yes)
			(layer "F.Fab")
			(hide yes)
			(uuid "397e1061-da3a-418b-a50d-919af72011c2")
			(effects
				(font
					(size 1.27 1.27)
					(thickness 0.15)
				)
			)
		)
		(property "Description" "Resistor, US symbol"
			(at 0 0 90)
			(unlocked yes)
			(layer "F.Fab")
			(hide yes)
			(uuid "ff6603da-8af1-44a7-bee0-d535591102a4")
			(effects
				(font
					(size 1.27 1.27)
					(thickness 0.15)
				)
			)
		)
		(attr through_hole)
		(fp_line
			(start 7.08 -1.37)
			(end 7.08 -1.04)
			(stroke
				(width 0.12)
				(type solid)
			)
			(layer "F.SilkS")
			(uuid "fae786e1-5e66-451a-93a1-47178f4cba78")
		)
		(fp_line
			(start 0.54 -1.37)
			(end 7.08 -1.37)
			(stroke
				(width 0.12)
				(type solid)
			)
			(layer "F.SilkS")
			(uuid "8fe89342-b373-4129-99bc-196b65413c86")
		)
		(fp_line
			(start 0.54 -1.04)
			(end 0.54 -1.37)
			(stroke
				(width 0.12)
				(type solid)
			)
			(layer "F.SilkS")
			(uuid "ec71e2f8-a4c2-4083-b4b1-42af7b09fde9")
		)
		(fp_line
			(start 0.54 1.04)
			(end 0.54 1.37)
			(stroke
				(width 0.12)
				(type solid)
			)
			(layer "F.SilkS")
			(uuid "1a4fa66d-12ae-4908-97a7-42c81affc35c")
		)
		(fp_line
			(start 7.08 1.37)
			(end 7.08 1.04)
			(stroke
				(width 0.12)
				(type solid)
			)
			(layer "F.SilkS")
			(uuid "c57a6d99-05e3-4f85-b05d-9e19857ca298")
		)
		(fp_line
			(start 0.54 1.37)
			(end 7.08 1.37)
			(stroke
				(width 0.12)
				(type solid)
			)
			(layer "F.SilkS")
			(uuid "ab66f954-6426-4538-888e-2e98a54a12f6")
		)
		(fp_line
			(start 8.67 -1.5)
			(end -1.05 -1.5)
			(stroke
				(width 0.05)
				(type solid)
			)
			(layer "F.CrtYd")
			(uuid "b8a15b61-e310-4c48-a515-cf7f8e69dbd7")
		)
		(fp_line
			(start -1.05 -1.5)
			(end -1.05 1.5)
			(stroke
				(width 0.05)
				(type solid)
			)
			(layer "F.CrtYd")
			(uuid "c226d6d5-a9cc-4cf9-9cfa-a6aa404e2480")
		)
		(fp_line
			(start 8.67 1.5)
			(end 8.67 -1.5)
			(stroke
				(width 0.05)
				(type solid)
			)
			(layer "F.CrtYd")
			(uuid "b20a6e65-8514-4524-9384-ae8a9f532f06")
		)
		(fp_line
			(start -1.05 1.5)
			(end 8.67 1.5)
			(stroke
				(width 0.05)
				(type solid)
			)
			(layer "F.CrtYd")
			(uuid "6681b7b6-8807-4b3e-895d-2097407517b1")
		)
		(fp_line
			(start 6.96 -1.25)
			(end 0.66 -1.25)
			(stroke
				(width 0.1)
				(type solid)
			)
			(layer "F.Fab")
			(uuid "4a2c0380-3bb8-4dc2-89e9-70a4e61dd3d1")
		)
		(fp_line
			(start 0.66 -1.25)
			(end 0.66 1.25)
			(stroke
				(width 0.1)
				(type solid)
			)
			(layer "F.Fab")
			(uuid "9e6d39eb-1521-43a1-8926-10d5c5d78368")
		)
		(fp_line
			(start 7.62 0)
			(end 6.96 0)
			(stroke
				(width 0.1)
				(type solid)
			)
			(layer "F.Fab")
			(uuid "f6028fb2-b62d-4cdb-8ca3-e5cbe77e6e59")
		)
		(fp_line
			(start 0 0)
			(end 0.66 0)
			(stroke
				(width 0.1)
				(type solid)
			)
			(layer "F.Fab")
			(uuid "891460eb-e08e-42ac-9a6d-d4d672086474")
		)
		(fp_line
			(start 6.96 1.25)
			(end 6.96 -1.25)
			(stroke
				(width 0.1)
				(type solid)
			)
			(layer "F.Fab")
			(uuid "5deff3df-2777-4440-b6a0-0e946443a68a")
		)
		(fp_line
			(start 0.66 1.25)
			(end 6.96 1.25)
			(stroke
				(width 0.1)
				(type solid)
			)
			(layer "F.Fab")
			(uuid "43ccbbf5-1393-438c-bbc9-be9a74114714")
		)
		(pad "1" thru_hole circle
			(at 0 0 90)
			(size 1.6 1.6)
			(drill 0.8)
			(layers "*.Cu" "*.Mask")
			(remove_unused_layers no)
			(net 6 "Net-(BatteryChargeModule1--)")
			(pintype "passive")
			(uuid "f3c9000a-155b-4f02-a1ba-3b8e578a70df")
		)
		(pad "2" thru_hole oval
			(at 7.62 0 90)
			(size 1.6 1.6)
			(drill 0.8)
			(layers "*.Cu" "*.Mask")
			(remove_unused_layers no)
			(net 4 "Net-(R1-Pad2)")
			(pintype "passive")
			(uuid "4582eae9-25be-4783-bbca-59e9fca5ebf0")
		)
		(model "${KICAD8_3DMODEL_DIR}/Resistor_THT.3dshapes/R_Axial_DIN0207_L6.3mm_D2.5mm_P7.62mm_Horizontal.wrl"
			(offset
				(xyz 0 0 0)
			)
			(scale
				(xyz 1 1 1)
			)
			(rotate
				(xyz 0 0 0)
			)
		)
	)
	(footprint "Button_Switch_SMD:SW_SPST_B3U-1000P"
		(layer "F.Cu")
		(uuid "f6debf91-d7ee-4529-baf1-f204cd7a97f6")
		(at 152.06 99.31 -90)
		(descr "Ultra-small-sized Tactile Switch with High Contact Reliability, Top-actuated Model, without Ground Terminal, without Boss")
		(tags "Tactile Switch")
		(property "Reference" "SW1"
			(at 0 -2.5 90)
			(layer "F.SilkS")
			(hide yes)
			(uuid "9ff4f985-ae5c-4798-aba2-8eb5f5e810c1")
			(effects
				(font
					(size 1 1)
					(thickness 0.15)
				)
			)
		)
		(property "Value" "SW_Push"
			(at 0 2.5 90)
			(layer "F.Fab")
			(uuid "a94f615a-3556-40ce-81a0-2f406b221768")
			(effects
				(font
					(size 1 1)
					(thickness 0.15)
				)
			)
		)
		(property "Footprint" "Button_Switch_SMD:SW_SPST_B3U-1000P"
			(at 0 0 -90)
			(unlocked yes)
			(layer "F.Fab")
			(hide yes)
			(uuid "dba0e2be-f59d-4627-9883-0378b4b69975")
			(effects
				(font
					(size 1.27 1.27)
					(thickness 0.15)
				)
			)
		)
		(property "Datasheet" ""
			(at 0 0 -90)
			(unlocked yes)
			(layer "F.Fab")
			(hide yes)
			(uuid "3d15a735-282e-4bfa-9566-01dae4529243")
			(effects
				(font
					(size 1.27 1.27)
					(thickness 0.15)
				)
			)
		)
		(property "Description" "Push button switch, generic, two pins"
			(at 0 0 -90)
			(unlocked yes)
			(layer "F.Fab")
			(hide yes)
			(uuid "0b12ad88-9843-4d12-956a-8d005a391a1d")
			(effects
				(font
					(size 1.27 1.27)
					(thickness 0.15)
				)
			)
		)
		(path "/9b716118-4c64-4336-b9f8-96c883943e25")
		(sheetname "Root")
		(sheetfile "LED2.kicad_sch")
		(attr smd)
		(fp_line
			(start -1.65 1.4)
			(end 1.65 1.4)
			(stroke
				(width 0.12)
				(type solid)
			)
			(layer "F.SilkS")
			(uuid "32e134af-8939-4d9a-9a1e-34665637861d")
		)
		(fp_line
			(start 1.65 1.4)
			(end 1.65 1.1)
			(stroke
				(width 0.12)
				(type solid)
			)
			(layer "F.SilkS")
			(uuid "aea1160d-3412-4691-bcd0-df880d455aa6")
		)
		(fp_line
			(start -1.65 1.1)
			(end -1.65 1.4)
			(stroke
				(width 0.12)
				(type solid)
			)
			(layer "F.SilkS")
			(uuid "f5c5af31-87ee-40a4-a34b-ac41860eb104")
		)
		(fp_line
			(start -1.65 -1.1)
			(end -1.65 -1.4)
			(stroke
				(width 0.12)
				(type solid)
			)
			(layer "F.SilkS")
			(uuid "a60a1f88-2930-4835-b2f4-689d4fc27a2b")
		)
		(fp_line
			(start -1.65 -1.4)
			(end 1.65 -1.4)
			(stroke
				(width 0.12)
				(type solid)
			)
			(layer "F.SilkS")
			(uuid "b3e30388-de3e-4cd1-95b6-e7a7dc4fab9a")
		)
		(fp_line
			(start 1.65 -1.4)
			(end 1.65 -1.1)
			(stroke
				(width 0.12)
				(type solid)
			)
			(layer "F.SilkS")
			(uuid "468c84a3-eec2-4e4c-ba65-f63fd28d2de8")
		)
		(fp_line
			(start -2.4 1.65)
			(end 2.4 1.65)
			(stroke
				(width 0.05)
				(type solid)
			)
			(layer "F.CrtYd")
			(uuid "e829480f-18c0-4fc2-be0e-f2a11ce74be9")
		)
		(fp_line
			(start 2.4 1.65)
			(end 2.4 -1.65)
			(stroke
				(width 0.05)
				(type solid)
			)
			(layer "F.CrtYd")
			(uuid "f2e90b53-36d6-4188-9d22-3e3b720789ee")
		)
		(fp_line
			(start -2.4 -1.65)
			(end -2.4 1.65)
			(stroke
				(width 0.05)
				(type solid)
			)
			(layer "F.CrtYd")
			(uuid "c8703dc8-1118-417a-a97b-d59c5f5bb5a2")
		)
		(fp_line
			(start 2.4 -1.65)
			(end -2.4 -1.65)
			(stroke
				(width 0.05)
				(type solid)
			)
			(layer "F.CrtYd")
			(uuid "8c378900-562b-47c2-891c-2588cd1a2673")
		)
		(fp_line
			(start -1.5 1.25)
			(end -1.5 -1.25)
			(stroke
				(width 0.1)
				(type solid)
			)
			(layer "F.Fab")
			(uuid "889612b8-046f-4001-8099-7904b9bf2ef8")
		)
		(fp_line
			(start 1.5 1.25)
			(end -1.5 1.25)
			(stroke
				(width 0.1)
				(type solid)
			)
			(layer "F.Fab")
			(uuid "210932f2-9b10-4431-a7be-c0f251d5ff6e")
		)
		(fp_line
			(start -1.5 -1.25)
			(end 1.5 -1.25)
			(stroke
				(width 0.1)
				(type solid)
			)
			(layer "F.Fab")
			(uuid "3230199b-5a42-4e98-abfb-bd60f7d070cd")
		)
		(fp_line
			(start 1.5 -1.25)
			(end 1.5 1.25)
			(stroke
				(width 0.1)
				(type solid)
			)
			(layer "F.Fab")
			(uuid "79b314b4-fa36-48ab-9647-2e0b61ece7a9")
		)
		(fp_circle
			(center 0 0)
			(end 0.75 0)
			(stroke
				(width 0.1)
				(type solid)
			)
			(fill none)
			(layer "F.Fab")
			(uuid "27d92129-11ca-477c-9dd8-eeef1fde75f4")
		)
		(pad "1" smd rect
			(at -1.7 0 270)
			(size 0.9 1.7)
			(layers "F.Cu" "F.Paste" "F.Mask")
			(net 4 "Net-(R1-Pad2)")
			(pinfunction "1")
			(pintype "passive")
			(uuid "7de4ba87-87ae-450c-b5d2-ba3cf1a8cf29")
		)
		(pad "2" smd rect
			(at 1.7 0 270)
			(size 0.9 1.7)
			(layers "F.Cu" "F.Paste" "F.Mask")
			(net 6 "Net-(BatteryChargeModule1--)")
			(pinfunction "2")
			(pintype "passive")
			(uuid "05bd65e0-9703-4e5c-89ac-4fa76f17ff53")
		)
		(model "${KICAD8_3DMODEL_DIR}/Button_Switch_SMD.3dshapes/SW_SPST_B3U-1000P.wrl"
			(offset
				(xyz 0 0 0)
			)
			(scale
				(xyz 1 1 1)
			)
			(rotate
				(xyz 0 0 0)
			)
		)
	)
	(gr_arc
		(start 160.06 92.81)
		(mid 162.18132 93.68868)
		(end 163.06 95.81)
		(stroke
			(width 0.05)
			(type default)
		)
		(layer "Edge.Cuts")
		(uuid "005f4ce5-629c-4999-bb33-358dc1b2b140")
	)
	(gr_line
		(start 160.06 105.31)
		(end 145.06 105.31)
		(stroke
			(width 0.05)
			(type default)
		)
		(layer "Edge.Cuts")
		(uuid "2223f57e-3d13-4e48-863f-6404746b3328")
	)
	(gr_line
		(start 163.06 95.81)
		(end 163.06 102.31)
		(stroke
			(width 0.05)
			(type default)
		)
		(layer "Edge.Cuts")
		(uuid "48b25ee3-f126-41a4-b2c4-0f462773c55c")
	)
	(gr_arc
		(start 142.06 95.81)
		(mid 142.93868 93.68868)
		(end 145.06 92.81)
		(stroke
			(width 0.05)
			(type default)
		)
		(layer "Edge.Cuts")
		(uuid "548b419d-9c58-48b0-928a-a490b1081c4b")
	)
	(gr_line
		(start 142.06 102.31)
		(end 142.06 95.81)
		(stroke
			(width 0.05)
			(type default)
		)
		(layer "Edge.Cuts")
		(uuid "662a2296-9c4b-4b3f-84d4-99aada858304")
	)
	(gr_arc
		(start 145.06 105.31)
		(mid 142.93868 104.43132)
		(end 142.06 102.31)
		(stroke
			(width 0.05)
			(type default)
		)
		(layer "Edge.Cuts")
		(uuid "70143ebf-99a1-4eed-8b83-b4a2dd40d3e5")
	)
	(gr_line
		(start 145.06 92.81)
		(end 160.06 92.81)
		(stroke
			(width 0.05)
			(type default)
		)
		(layer "Edge.Cuts")
		(uuid "7ee30d93-d027-4016-bfd0-dce5941a47f4")
	)
	(gr_arc
		(start 163.06 102.31)
		(mid 162.18132 104.43132)
		(end 160.06 105.31)
		(stroke
			(width 0.05)
			(type default)
		)
		(layer "Edge.Cuts")
		(uuid "fafc9a44-501a-4cdf-8feb-4cdf41c6b6d1")
	)
	(segment
		(start 158.85 100.29)
		(end 156.33 102.81)
		(width 1)
		(layer "F.Cu")
		(net 1)
		(uuid "66bf1e32-5722-497e-ba96-09edd97b414c")
	)
	(segment
		(start 159.65 100.29)
		(end 158.85 100.29)
		(width 1)
		(layer "F.Cu")
		(net 1)
		(uuid "7856c00d-f602-4a09-a83e-8ddabb0cb6b5")
	)
	(segment
		(start 156.33 102.81)
		(end 156.06 102.81)
		(width 1)
		(layer "F.Cu")
		(net 1)
		(uuid "d5e4776d-574c-43aa-a96f-ff8369df073d")
	)
	(segment
		(start 157.09 95.19)
		(end 156.06 95.19)
		(width 1)
		(layer "F.Cu")
		(net 2)
		(uuid "0218ec17-bc6b-4e49-8c72-e63d46c70472")
	)
	(segment
		(start 159.56 97.66)
		(end 157.09 95.19)
		(width 1)
		(layer "F.Cu")
		(net 2)
		(uuid "aa574505-81ab-446f-9649-6d26537a9bb0")
	)
	(segment
		(start 146.415 103.43)
		(end 143.56 100.575)
		(width 1)
		(layer "F.Cu")
		(net 3)
		(uuid "58ce89b1-a805-4bfc-b243-ed1c430a8349")
	)
	(segment
		(start 147.56 103.43)
		(end 146.415 103.43)
		(width 1)
		(layer "F.Cu")
		(net 3)
		(uuid "6c13e3a1-c784-4e64-b584-88b0dff8fb5b")
	)
	(segment
		(start 152.06 97.61)
		(end 149.36 97.61)
		(width 1)
		(layer "F.Cu")
		(net 4)
		(uuid "bc0affec-acfa-4093-b65e-2b6b28d39fa1")
	)
	(segment
		(start 149.36 97.61)
		(end 147.56 95.81)
		(width 1)
		(layer "F.Cu")
		(net 4)
		(uuid "be5882ca-afe8-405d-9865-8b919b95c41e")
	)
	(segment
		(start 152.06 95.5)
		(end 152.06 97.61)
		(width 1)
		(layer "F.Cu")
		(net 4)
		(uuid "f88f84a2-81dd-4fb0-bb93-8b3ddaaf3155")
	)
	(segment
		(start 155.755 98.035)
		(end 156.06 97.73)
		(width 1)
		(layer "B.Cu")
		(net 5)
		(uuid "1d71baf1-da03-46f1-8258-ebcf619745e2")
	)
	(segment
		(start 143.56 98.035)
		(end 155.755 98.035)
		(width 1)
		(layer "B.Cu")
		(net 5)
		(uuid "30d4fabe-adc3-468f-b30e-98f07d168a64")
	)
	(segment
		(start 152.06 103.12)
		(end 152.06 101.01)
		(width 1)
		(layer "F.Cu")
		(net 6)
		(uuid "4b941e69-26f9-4ed5-99f0-e1e67c71e4cc")
	)
	(segment
		(start 156.06 100.27)
		(end 152.8 100.27)
		(width 1)
		(layer "F.Cu")
		(net 6)
		(uuid "887ce926-37e1-4433-8281-6c2c6cac8f83")
	)
	(segment
		(start 152.8 100.27)
		(end 152.06 101.01)
		(width 1)
		(layer "F.Cu")
		(net 6)
		(uuid "d305315e-868c-43ec-b49f-e25eb3ee07ac")
	)
	(zone
		(net 0)
		(net_name "")
		(layer "F.Cu")
		(uuid "4bfa0fbb-56c3-4679-8075-b8060a15ab72")
		(hatch edge 0.5)
		(connect_pads
			(clearance 0.5)
		)
		(min_thickness 0.25)
		(filled_areas_thickness no)
		(fill yes
			(thermal_gap 0.5)
			(thermal_bridge_width 0.5)
			(island_removal_mode 1)
			(island_area_min 10)
		)
		(polygon
			(pts
				(xy 139.06 90.81) (xy 164.06 90.81) (xy 164.06 106.81) (xy 139.06 106.81)
			)
		)
		(filled_polygon
			(layer "F.Cu")
			(island)
			(pts
				(xy 142.760662 101.727567) (xy 142.791365 101.751464) (xy 142.791371 101.751468) (xy 142.791374 101.75147)
				(xy 142.995497 101.861936) (xy 143.109487 101.901068) (xy 143.215015 101.937297) (xy 143.215017 101.937297)
				(xy 143.215019 101.937298) (xy 143.443951 101.9755) (xy 143.494218 101.9755) (xy 143.561257 101.995185)
				(xy 143.581898 102.011818) (xy 145.63786 104.067781) (xy 145.637861 104.067782) (xy 145.71514 104.145061)
				(xy 145.777219 104.20714) (xy 145.94108 104.316628) (xy 145.941086 104.316632) (xy 145.941088 104.316633)
				(xy 145.941092 104.316635) (xy 146.009365 104.344913) (xy 146.013769 104.346738) (xy 146.032123 104.35434)
				(xy 146.032124 104.354341) (xy 146.096501 104.381007) (xy 146.123165 104.392052) (xy 146.284389 104.424121)
				(xy 146.316457 104.430499) (xy 146.316458 104.4305) (xy 146.316459 104.4305) (xy 146.31646 104.4305)
				(xy 146.51354 104.4305) (xy 146.682412 104.4305) (xy 146.749451 104.450185) (xy 146.753523 104.452917)
				(xy 146.907266 104.560568) (xy 146.93418 104.573118) (xy 146.986619 104.61929) (xy 147.005771 104.686484)
				(xy 146.985555 104.753365) (xy 146.93239 104.7987) (xy 146.881775 104.8095) (xy 145.063751 104.8095)
				(xy 145.056264 104.809274) (xy 144.766205 104.791728) (xy 144.75134 104.789923) (xy 144.469201 104.738219)
				(xy 144.454663 104.734635) (xy 144.180832 104.649306) (xy 144.166831 104.643997) (xy 143.905263 104.526275)
				(xy 143.892004 104.519316) (xy 143.734532 104.424121) (xy 143.646537 104.370926) (xy 143.634217 104.362422)
				(xy 143.623902 104.354341) (xy 143.408426 104.185526) (xy 143.397218 104.175596) (xy 143.194403 103.972781)
				(xy 143.184473 103.961573) (xy 143.11782 103.876497) (xy 143.007573 103.735776) (xy 142.999075 103.723465)
				(xy 142.85068 103.477989) (xy 142.843727 103.464743) (xy 142.726 103.203163) (xy 142.720693 103.189167)
				(xy 142.675894 103.045403) (xy 142.635363 102.915335) (xy 142.63178 102.900798) (xy 142.580076 102.618659)
				(xy 142.578271 102.603794) (xy 142.560726 102.313736) (xy 142.5605 102.306249) (xy 142.5605 101.82542)
				(xy 142.580185 101.758381) (xy 142.632989 101.712626) (xy 142.702147 101.702682)
			)
		)
		(filled_polygon
			(layer "F.Cu")
			(island)
			(pts
				(xy 157.466368 96.981289) (xy 158.263181 97.778102) (xy 158.296666 97.839425) (xy 158.2995 97.865783)
				(xy 158.2995 98.64787) (xy 158.299501 98.647876) (xy 158.305908 98.707483) (xy 158.356202 98.842328)
				(xy 158.356206 98.842335) (xy 158.442452 98.957544) (xy 158.442455 98.957547) (xy 158.557664 99.043793)
				(xy 158.557673 99.043798) (xy 158.645551 99.076574) (xy 158.701485 99.118445) (xy 158.725903 99.183909)
				(xy 158.711052 99.252182) (xy 158.661647 99.301588) (xy 158.626411 99.314373) (xy 158.558166 99.327948)
				(xy 158.558159 99.32795) (xy 158.504834 99.350037) (xy 158.504834 99.350038) (xy 158.459315 99.368892)
				(xy 158.376089 99.403366) (xy 158.376079 99.403371) (xy 158.212219 99.512859) (xy 158.14254 99.582538)
				(xy 158.072861 99.652218) (xy 158.072858 99.652221) (xy 157.606862 100.118216) (xy 157.545539 100.151701)
				(xy 157.475847 100.146717) (xy 157.419914 100.104845) (xy 157.395653 100.041342) (xy 157.395063 100.034592)
				(xy 157.333903 99.806337) (xy 157.234035 99.592171) (xy 157.201869 99.546232) (xy 157.098494 99.398597)
				(xy 156.931402 99.231506) (xy 156.931396 99.231501) (xy 156.745842 99.101575) (xy 156.702217 99.046998)
				(xy 156.695023 98.9775) (xy 156.726546 98.915145) (xy 156.745842 98.898425) (xy 156.768026 98.882891)
				(xy 156.931401 98.768495) (xy 157.098495 98.601401) (xy 157.234035 98.40783) (xy 157.333903 98.193663)
				(xy 157.395063 97.965408) (xy 157.415659 97.73) (xy 157.395063 97.494592) (xy 157.333903 97.266337)
				(xy 157.266304 97.121373) (xy 157.255813 97.052298) (xy 157.284332 96.988514) (xy 157.342809 96.950274)
				(xy 157.412676 96.949719)
			)
		)
		(filled_polygon
			(layer "F.Cu")
			(island)
			(pts
				(xy 160.063736 93.310726) (xy 160.353796 93.328271) (xy 160.368659 93.330076) (xy 160.650798 93.38178)
				(xy 160.665335 93.385363) (xy 160.939172 93.470695) (xy 160.953163 93.476) (xy 161.214743 93.593727)
				(xy 161.227989 93.60068) (xy 161.473465 93.749075) (xy 161.485776 93.757573) (xy 161.662726 93.896204)
				(xy 161.711573 93.934473) (xy 161.722781 93.944403) (xy 161.925596 94.147218) (xy 161.935526 94.158426)
				(xy 162.100838 94.369432) (xy 162.112422 94.384217) (xy 162.120926 94.396537) (xy 162.21504 94.55222)
				(xy 162.269316 94.642004) (xy 162.276275 94.655263) (xy 162.393997 94.916831) (xy 162.399306 94.930832)
				(xy 162.484635 95.204663) (xy 162.488219 95.219201) (xy 162.539923 95.50134) (xy 162.541728 95.516205)
				(xy 162.559274 95.806263) (xy 162.5595 95.81375) (xy 162.5595 102.306249) (xy 162.559274 102.313736)
				(xy 162.541728 102.603794) (xy 162.539923 102.618659) (xy 162.488219 102.900798) (xy 162.484635 102.915336)
				(xy 162.399306 103.189167) (xy 162.393997 103.203168) (xy 162.276275 103.464736) (xy 162.269316 103.477995)
				(xy 162.120928 103.723459) (xy 162.112422 103.735782) (xy 161.935526 103.961573) (xy 161.925596 103.972781)
				(xy 161.722781 104.175596) (xy 161.711573 104.185526) (xy 161.485782 104.362422) (xy 161.473459 104.370928)
				(xy 161.227995 104.519316) (xy 161.214736 104.526275) (xy 160.953168 104.643997) (xy 160.939167 104.649306)
				(xy 160.665336 104.734635) (xy 160.650798 104.738219) (xy 160.368659 104.789923) (xy 160.353794 104.791728)
				(xy 160.063736 104.809274) (xy 160.056249 104.8095) (xy 148.238225 104.8095) (xy 148.171186 104.789815)
				(xy 148.125431 104.737011) (xy 148.115487 104.667853) (xy 148.144512 104.604297) (xy 148.185819 104.573118)
				(xy 148.212734 104.560568) (xy 148.399139 104.430047) (xy 148.560047 104.269139) (xy 148.690568 104.082734)
				(xy 148.786739 103.876496) (xy 148.845635 103.656692) (xy 148.865468 103.43) (xy 148.845635 103.203308)
				(xy 148.786739 102.983504) (xy 148.690568 102.777266) (xy 148.560047 102.590861) (xy 148.560045 102.590858)
				(xy 148.399141 102.429954) (xy 148.212734 102.299432) (xy 148.212732 102.299431) (xy 148.006497 102.203261)
				(xy 148.006488 102.203258) (xy 147.786697 102.144366) (xy 147.786693 102.144365) (xy 147.786692 102.144365)
				(xy 147.786691 102.144364) (xy 147.786686 102.144364) (xy 147.560002 102.124532) (xy 147.559998 102.124532)
				(xy 147.333313 102.144364) (xy 147.333302 102.144366) (xy 147.113511 102.203258) (xy 147.113502 102.203261)
				(xy 146.907263 102.299433) (xy 146.870208 102.325379) (xy 146.804001 102.347706) (xy 146.736234 102.330694)
				(xy 146.711405 102.311484) (xy 144.996572 100.596652) (xy 144.963087 100.535329) (xy 144.960677 100.519218)
				(xy 144.96009 100.512135) (xy 150.7095 100.512135) (xy 150.7095 101.50787) (xy 150.709501 101.507876)
				(xy 150.715908 101.567483) (xy 150.766202 101.702328) (xy 150.766206 101.702335) (xy 150.852452 101.817544)
				(xy 150.852455 101.817547) (xy 150.967665 101.903794) (xy 150.967667 101.903794) (xy 150.967669 101.903796)
				(xy 150.97883 101.907958) (xy 151.034764 101.949826) (xy 151.059184 102.015289) (xy 151.0595 102.024141)
				(xy 151.0595 102.24241) (xy 151.039815 102.309449) (xy 151.037076 102.313532) (xy 150.929431 102.467267)
				(xy 150.833261 102.673502) (xy 150.833258 102.673511) (xy 150.774366 102.893302) (xy 150.774364 102.893313)
				(xy 150.754532 103.119998) (xy 150.754532 103.120001) (xy 150.774364 103.346686) (xy 150.774366 103.346697)
				(xy 150.833258 103.566488) (xy 150.833261 103.566497) (xy 150.929431 103.772732) (xy 150.929432 103.772734)
				(xy 151.059954 103.959141) (xy 151.220858 104.120045) (xy 151.220861 104.120047) (xy 151.407266 104.250568)
				(xy 151.613504 104.346739) (xy 151.833308 104.405635) (xy 151.99523 104.419801) (xy 152.059998 104.425468)
				(xy 152.06 104.425468) (xy 152.060002 104.425468) (xy 152.116673 104.420509) (xy 152.286692 104.405635)
				(xy 152.506496 104.346739) (xy 152.712734 104.250568) (xy 152.899139 104.120047) (xy 153.060047 103.959139)
				(xy 153.190568 103.772734) (xy 153.286739 103.566496) (xy 153.345635 103.346692) (xy 153.365468 103.12)
				(xy 153.345635 102.893308) (xy 153.286739 102.673504) (xy 153.190568 102.467266) (xy 153.082924 102.313532)
				(xy 153.060597 102.247326) (xy 153.0605 102.24241) (xy 153.0605 102.024141) (xy 153.080185 101.957102)
				(xy 153.132989 101.911347) (xy 153.141149 101.907966) (xy 153.152331 101.903796) (xy 153.267546 101.817546)
				(xy 153.353796 101.702331) (xy 153.404091 101.567483) (xy 153.4105 101.507873) (xy 153.4105 101.3945)
				(xy 153.430185 101.327461) (xy 153.482989 101.281706) (xy 153.5345 101.2705) (xy 155.099242 101.2705)
				(xy 155.166281 101.290185) (xy 155.186923 101.306819) (xy 155.188597 101.308493) (xy 155.188603 101.308498)
				(xy 155.374158 101.438425) (xy 155.417783 101.493002) (xy 155.424977 101.5625) (xy 155.393454 101.624855)
				(xy 155.374158 101.641575) (xy 155.188597 101.771505) (xy 155.021505 101.938597) (xy 154.885965 102.132169)
				(xy 154.885964 102.132171) (xy 154.786098 102.346335) (xy 154.786094 102.346344) (xy 154.724938 102.574586)
				(xy 154.724936 102.574596) (xy 154.704341 102.809999) (xy 154.704341 102.81) (xy 154.724936 103.045403)
				(xy 154.724938 103.045413) (xy 154.786094 103.273655) (xy 154.786096 103.273659) (xy 154.786097 103.273663)
				(xy 154.858998 103.43) (xy 154.885965 103.48783) (xy 154.885967 103.487834) (xy 154.941048 103.566497)
				(xy 155.021505 103.681401) (xy 155.188599 103.848495) (xy 155.228589 103.876496) (xy 155.382165 103.984032)
				(xy 155.382167 103.984033) (xy 155.38217 103.984035) (xy 155.596337 104.083903) (xy 155.824592 104.145063)
				(xy 156.012918 104.161539) (xy 156.059999 104.165659) (xy 156.06 104.165659) (xy 156.060001 104.165659)
				(xy 156.099234 104.162226) (xy 156.295408 104.145063) (xy 156.523663 104.083903) (xy 156.73783 103.984035)
				(xy 156.931401 103.848495) (xy 157.098495 103.681401) (xy 157.234035 103.48783) (xy 157.333903 103.273663)
				(xy 157.344572 103.23384) (xy 157.376664 103.178254) (xy 158.991737 101.563181) (xy 159.053058 101.529698)
				(xy 159.12275 101.534682) (xy 159.13182 101.538482) (xy 159.18633 101.5639) (xy 159.186332 101.5639)
				(xy 159.186337 101.563903) (xy 159.414592 101.625063) (xy 159.602918 101.641539) (xy 159.649999 101.645659)
				(xy 159.65 101.645659) (xy 159.650001 101.645659) (xy 159.696679 101.641575) (xy 159.885408 101.625063)
				(xy 160.113663 101.563903) (xy 160.32783 101.464035) (xy 160.521401 101.328495) (xy 160.688495 101.161401)
				(xy 160.824035 100.96783) (xy 160.923903 100.753663) (xy 160.985063 100.525408) (xy 161.005659 100.29)
				(xy 160.985063 100.054592) (xy 160.923903 99.826337) (xy 160.824035 99.612171) (xy 160.810555 99.59292)
				(xy 160.688496 99.4186) (xy 160.648689 99.378793) (xy 160.566567 99.296671) (xy 160.533084 99.235351)
				(xy 160.538068 99.165659) (xy 160.579939 99.109725) (xy 160.610915 99.09281) (xy 160.742331 99.043796)
				(xy 160.857546 98.957546) (xy 160.943796 98.842331) (xy 160.994091 98.707483) (xy 161.0005 98.647873)
				(xy 161.000499 96.852128) (xy 160.994091 96.792517) (xy 160.988473 96.777455) (xy 160.943797 96.657671)
				(xy 160.943793 96.657664) (xy 160.857547 96.542455) (xy 160.857544 96.542452) (xy 160.742335 96.456206)
				(xy 160.742328 96.456202) (xy 160.607482 96.405908) (xy 160.607483 96.405908) (xy 160.547883 96.399501)
				(xy 160.547881 96.3995) (xy 160.547873 96.3995) (xy 160.547865 96.3995) (xy 159.765783 96.3995)
				(xy 159.698744 96.379815) (xy 159.678102 96.363181) (xy 157.874209 94.559289) (xy 157.874206 94.559285)
				(xy 157.874206 94.559286) (xy 157.867139 94.552219) (xy 157.867139 94.552218) (xy 157.727782 94.412861)
				(xy 157.727781 94.41286) (xy 157.72778 94.412859) (xy 157.56392 94.303371) (xy 157.56391 94.303366)
				(xy 157.456009 94.258672) (xy 157.401606 94.214831) (xy 157.38728 94.187444) (xy 157.353797 94.097671)
				(xy 157.353793 94.097664) (xy 157.267547 93.982455) (xy 157.267544 93.982452) (xy 157.152335 93.896206)
				(xy 157.152328 93.896202) (xy 157.017482 93.845908) (xy 157.017483 93.845908) (xy 156.957883 93.839501)
				(xy 156.957881 93.8395) (xy 156.957873 93.8395) (xy 156.957864 93.8395) (xy 155.162129 93.8395)
				(xy 155.162123 93.839501) (xy 155.102516 93.845908) (xy 154.967671 93.896202) (xy 154.967664 93.896206)
				(xy 154.852455 93.982452) (xy 154.852452 93.982455) (xy 154.766206 94.097664) (xy 154.766202 94.097671)
				(xy 154.715908 94.232517) (xy 154.709501 94.292116) (xy 154.7095 94.292135) (xy 154.7095 96.08787)
				(xy 154.709501 96.087876) (xy 154.715908 96.147483) (xy 154.766202 96.282328) (xy 154.766206 96.282335)
				(xy 154.852452 96.397544) (xy 154.852455 96.397547) (xy 154.967664 96.483793) (xy 154.967671 96.483797)
				(xy 155.099081 96.53281) (xy 155.155015 96.574681) (xy 155.179432 96.640145) (xy 155.16458 96.708418)
				(xy 155.14343 96.736673) (xy 155.021503 96.8586) (xy 154.885965 97.052169) (xy 154.885964 97.052171)
				(xy 154.786098 97.266335) (xy 154.786094 97.266344) (xy 154.724938 97.494586) (xy 154.724936 97.494596)
				(xy 154.704341 97.729999) (xy 154.704341 97.73) (xy 154.724936 97.965403) (xy 154.724938 97.965413)
				(xy 154.786094 98.193655) (xy 154.786096 98.193659) (xy 154.786097 98.193663) (xy 154.83677 98.302331)
				(xy 154.885965 98.40783) (xy 154.885967 98.407834) (xy 155.021501 98.601395) (xy 155.021506 98.601402)
				(xy 155.188597 98.768493) (xy 155.188603 98.768498) (xy 155.374158 98.898425) (xy 155.417783 98.953002)
				(xy 155.424977 99.0225) (xy 155.393454 99.084855) (xy 155.374158 99.101575) (xy 155.188597 99.231505)
				(xy 155.186922 99.233181) (xy 155.186 99.233684) (xy 155.184449 99.234986) (xy 155.184187 99.234674)
				(xy 155.125599 99.266666) (xy 155.099241 99.2695) (xy 152.701457 99.2695) (xy 152.608133 99.288064)
				(xy 152.608132 99.288064) (xy 152.508171 99.307947) (xy 152.508163 99.307949) (xy 152.45988 99.327949)
				(xy 152.459879 99.327949) (xy 152.326092 99.383364) (xy 152.326079 99.383371) (xy 152.162219 99.492859)
				(xy 152.113992 99.541087) (xy 152.022861 99.632218) (xy 152.022858 99.632221) (xy 151.631897 100.023181)
				(xy 151.570574 100.056666) (xy 151.544216 100.0595) (xy 151.16213 100.0595) (xy 151.162123 100.059501)
				(xy 151.102516 100.065908) (xy 150.967671 100.116202) (xy 150.967664 100.116206) (xy 150.852455 100.202452)
				(xy 150.852452 100.202455) (xy 150.766206 100.317664) (xy 150.766202 100.317671) (xy 150.715908 100.452517)
				(xy 150.709501 100.512116) (xy 150.7095 100.512135) (xy 144.96009 100.512135) (xy 144.946134 100.343695)
				(xy 144.889157 100.1187) (xy 144.888062 100.116204) (xy 144.795924 99.906151) (xy 144.668983 99.711852)
				(xy 144.66898 99.711849) (xy 144.668979 99.711847) (xy 144.574195 99.608884) (xy 144.543275 99.546232)
				(xy 144.551135 99.476806) (xy 144.595283 99.422651) (xy 144.622095 99.408722) (xy 144.702326 99.378798)
				(xy 144.702326 99.378797) (xy 144.702331 99.378796) (xy 144.817546 99.292546) (xy 144.903796 99.177331)
				(xy 144.954091 99.042483) (xy 144.9605 98.982873) (xy 144.960499 97.087128) (xy 144.954091 97.027517)
				(xy 144.925281 96.950274) (xy 144.903797 96.892671) (xy 144.903793 96.892664) (xy 144.817547 96.777455)
				(xy 144.817544 96.777452) (xy 144.702335 96.691206) (xy 144.702328 96.691202) (xy 144.567482 96.640908)
				(xy 144.567483 96.640908) (xy 144.507883 96.634501) (xy 144.507881 96.6345) (xy 144.507873 96.6345)
				(xy 144.507865 96.6345) (xy 142.6845 96.6345) (xy 142.617461 96.614815) (xy 142.571706 96.562011)
				(xy 142.5605 96.5105) (xy 142.5605 95.81375) (xy 142.560613 95.809998) (xy 146.254532 95.809998)
				(xy 146.254532 95.810001) (xy 146.274364 96.036686) (xy 146.274366 96.036697) (xy 146.333258 96.256488)
				(xy 146.333261 96.256497) (xy 146.429431 96.462732) (xy 146.429432 96.462734) (xy 146.559954 96.649141)
				(xy 146.720858 96.810045) (xy 146.720861 96.810047) (xy 146.907266 96.940568) (xy 147.113504 97.036739)
				(xy 147.333308 97.095635) (xy 147.395093 97.10104) (xy 147.460161 97.126492) (xy 147.471966 97.136887)
				(xy 148.58286 98.247781) (xy 148.582861 98.247782) (xy 148.722218 98.387139) (xy 148.722219 98.38714)
				(xy 148.886079 98.496628) (xy 148.886086 98.496632) (xy 148.959737 98.527139) (xy 149.068164 98.572051)
				(xy 149.215716 98.601401) (xy 149.261454 98.610499) (xy 149.261457 98.6105) (xy 149.261459 98.6105)
				(xy 152.158543 98.6105) (xy 152.35183 98.572052) (xy 152.35183 98.572051) (xy 152.351835 98.572051)
				(xy 152.356934 98.569938) (xy 152.404389 98.560499) (xy 152.957871 98.560499) (xy 152.957872 98.560499)
				(xy 153.017483 98.554091) (xy 153.152331 98.503796) (xy 153.267546 98.417546) (xy 153.353796 98.302331)
				(xy 153.404091 98.167483) (xy 153.4105 98.107873) (xy 153.410499 97.112128) (xy 153.404091 97.052517)
				(xy 153.404009 97.052298) (xy 153.353797 96.917671) (xy 153.353793 96.917664) (xy 153.267547 96.802455)
				(xy 153.267544 96.802452) (xy 153.152335 96.716206) (xy 153.152332 96.716205) (xy 153.152331 96.716204)
				(xy 153.141161 96.712038) (xy 153.085231 96.670166) (xy 153.060816 96.604701) (xy 153.0605 96.595858)
				(xy 153.0605 96.377588) (xy 153.080185 96.310549) (xy 153.082925 96.306465) (xy 153.099826 96.282328)
				(xy 153.190568 96.152734) (xy 153.286739 95.946496) (xy 153.345635 95.726692) (xy 153.365468 95.5)
				(xy 153.345635 95.273308) (xy 153.286739 95.053504) (xy 153.190568 94.847266) (xy 153.060047 94.660861)
				(xy 153.060045 94.660858) (xy 152.899141 94.499954) (xy 152.712734 94.369432) (xy 152.712732 94.369431)
				(xy 152.506497 94.273261) (xy 152.506488 94.273258) (xy 152.286697 94.214366) (xy 152.286693 94.214365)
				(xy 152.286692 94.214365) (xy 152.286691 94.214364) (xy 152.286686 94.214364) (xy 152.060002 94.194532)
				(xy 152.059998 94.194532) (xy 151.833313 94.214364) (xy 151.833302 94.214366) (xy 151.613511 94.273258)
				(xy 151.613502 94.273261) (xy 151.407267 94.369431) (xy 151.407265 94.369432) (xy 151.220858 94.499954)
				(xy 151.059954 94.660858) (xy 150.929432 94.847265) (xy 150.929431 94.847267) (xy 150.833261 95.053502)
				(xy 150.833258 95.053511) (xy 150.774366 95.273302) (xy 150.774364 95.273313) (xy 150.754532 95.499998)
				(xy 150.754532 95.500001) (xy 150.774364 95.726686) (xy 150.774366 95.726697) (xy 150.833258 95.946488)
				(xy 150.833261 95.946497) (xy 150.899185 96.08787) (xy 150.929432 96.152734) (xy 151.002086 96.256496)
				(xy 151.037075 96.306465) (xy 151.059402 96.372671) (xy 151.0595 96.377588) (xy 151.0595 96.4855)
				(xy 151.039815 96.552539) (xy 150.987011 96.598294) (xy 150.9355 96.6095) (xy 149.825783 96.6095)
				(xy 149.758744 96.589815) (xy 149.738102 96.573181) (xy 148.886887 95.721966) (xy 148.853402 95.660643)
				(xy 148.85104 95.645092) (xy 148.845635 95.583308) (xy 148.786739 95.363504) (xy 148.690568 95.157266)
				(xy 148.560047 94.970861) (xy 148.560045 94.970858) (xy 148.399141 94.809954) (xy 148.212734 94.679432)
				(xy 148.212732 94.679431) (xy 148.006497 94.583261) (xy 148.006488 94.583258) (xy 147.786697 94.524366)
				(xy 147.786693 94.524365) (xy 147.786692 94.524365) (xy 147.786691 94.524364) (xy 147.786686 94.524364)
				(xy 147.560002 94.504532) (xy 147.559998 94.504532) (xy 147.333313 94.524364) (xy 147.333302 94.524366)
				(xy 147.113511 94.583258) (xy 147.113502 94.583261) (xy 146.907267 94.679431) (xy 146.907265 94.679432)
				(xy 146.720858 94.809954) (xy 146.559954 94.970858) (xy 146.429432 95.157265) (xy 146.429431 95.157267)
				(xy 146.333261 95.363502) (xy 146.333258 95.363511) (xy 146.274366 95.583302) (xy 146.274364 95.583313)
				(xy 146.254532 95.809998) (xy 142.560613 95.809998) (xy 142.560726 95.806263) (xy 142.565539 95.726692)
				(xy 142.578271 95.516201) (xy 142.580076 95.50134) (xy 142.580322 95.500001) (xy 142.63178 95.219197)
				(xy 142.635364 95.204663) (xy 142.720696 94.930822) (xy 142.725998 94.916841) (xy 142.843731 94.655249)
				(xy 142.850676 94.642016) (xy 142.99908 94.396526) (xy 143.007567 94.38423) (xy 143.18448 94.158417)
				(xy 143.194395 94.147226) (xy 143.397226 93.944395) (xy 143.408417 93.93448) (xy 143.63423 93.757567)
				(xy 143.646526 93.74908) (xy 143.892016 93.600676) (xy 143.905249 93.593731) (xy 144.166841 93.475998)
				(xy 144.180822 93.470696) (xy 144.454668 93.385362) (xy 144.469197 93.38178) (xy 144.751344 93.330075)
				(xy 144.766201 93.328271) (xy 145.056264 93.310726) (xy 145.063751 93.3105) (xy 145.125892 93.3105)
				(xy 159.994108 93.3105) (xy 160.056249 93.3105)
			)
		)
	)
	(zone
		(net 0)
		(net_name "")
		(layer "B.Cu")
		(uuid "f529a3aa-9eba-4843-ab73-1b25b0ffe131")
		(hatch edge 0.5)
		(priority 1)
		(connect_pads
			(clearance 0.5)
		)
		(min_thickness 0.25)
		(filled_areas_thickness no)
		(fill yes
			(thermal_gap 0.5)
			(thermal_bridge_width 0.5)
			(island_removal_mode 1)
			(island_area_min 10)
		)
		(polygon
			(pts
				(xy 139.06 90.81) (xy 164.06 90.81) (xy 164.06 106.81) (xy 139.06 106.81)
			)
		)
		(filled_polygon
			(layer "B.Cu")
			(island)
			(pts
				(xy 160.063736 93.310726) (xy 160.353796 93.328271) (xy 160.368659 93.330076) (xy 160.650798 93.38178)
				(xy 160.665335 93.385363) (xy 160.939172 93.470695) (xy 160.953163 93.476) (xy 161.214743 93.593727)
				(xy 161.227989 93.60068) (xy 161.473465 93.749075) (xy 161.485776 93.757573) (xy 161.662726 93.896204)
				(xy 161.711573 93.934473) (xy 161.722781 93.944403) (xy 161.925596 94.147218) (xy 161.935526 94.158426)
				(xy 162.100838 94.369432) (xy 162.112422 94.384217) (xy 162.120928 94.39654) (xy 162.269316 94.642004)
				(xy 162.276275 94.655263) (xy 162.393997 94.916831) (xy 162.399306 94.930832) (xy 162.484635 95.204663)
				(xy 162.488219 95.219201) (xy 162.539923 95.50134) (xy 162.541728 95.516205) (xy 162.559274 95.806263)
				(xy 162.5595 95.81375) (xy 162.5595 102.306249) (xy 162.559274 102.313736) (xy 162.541728 102.603794)
				(xy 162.539923 102.618659) (xy 162.488219 102.900798) (xy 162.484635 102.915336) (xy 162.399306 103.189167)
				(xy 162.393997 103.203168) (xy 162.276275 103.464736) (xy 162.269316 103.477995) (xy 162.120928 103.723459)
				(xy 162.112422 103.735782) (xy 161.935526 103.961573) (xy 161.925596 103.972781) (xy 161.722781 104.175596)
				(xy 161.711573 104.185526) (xy 161.485782 104.362422) (xy 161.473459 104.370928) (xy 161.227995 104.519316)
				(xy 161.214736 104.526275) (xy 160.953168 104.643997) (xy 160.939167 104.649306) (xy 160.665336 104.734635)
				(xy 160.650798 104.738219) (xy 160.368659 104.789923) (xy 160.353794 104.791728) (xy 160.063736 104.809274)
				(xy 160.056249 104.8095) (xy 148.238225 104.8095) (xy 148.171186 104.789815) (xy 148.125431 104.737011)
				(xy 148.115487 104.667853) (xy 148.144512 104.604297) (xy 148.185819 104.573118) (xy 148.212734 104.560568)
				(xy 148.399139 104.430047) (xy 148.560047 104.269139) (xy 148.690568 104.082734) (xy 148.786739 103.876496)
				(xy 148.845635 103.656692) (xy 148.865468 103.43) (xy 148.845635 103.203308) (xy 148.823312 103.119998)
				(xy 150.754532 103.119998) (xy 150.754532 103.120001) (xy 150.774364 103.346686) (xy 150.774366 103.346697)
				(xy 150.833258 103.566488) (xy 150.833261 103.566497) (xy 150.929431 103.772732) (xy 150.929432 103.772734)
				(xy 151.059954 103.959141) (xy 151.220858 104.120045) (xy 151.220861 104.120047) (xy 151.407266 104.250568)
				(xy 151.613504 104.346739) (xy 151.833308 104.405635) (xy 151.99523 104.419801) (xy 152.059998 104.425468)
				(xy 152.06 104.425468) (xy 152.060002 104.425468) (xy 152.116673 104.420509) (xy 152.286692 104.405635)
				(xy 152.506496 104.346739) (xy 152.712734 104.250568) (xy 152.899139 104.120047) (xy 153.060047 103.959139)
				(xy 153.190568 103.772734) (xy 153.286739 103.566496) (xy 153.345635 103.346692) (xy 153.365468 103.12)
				(xy 153.345635 102.893308) (xy 153.286739 102.673504) (xy 153.190568 102.467266) (xy 153.060047 102.280861)
				(xy 153.060045 102.280858) (xy 152.899141 102.119954) (xy 152.712734 101.989432) (xy 152.712732 101.989431)
				(xy 152.506497 101.893261) (xy 152.506488 101.893258) (xy 152.286697 101.834366) (xy 152.286693 101.834365)
				(xy 152.286692 101.834365) (xy 152.286691 101.834364) (xy 152.286686 101.834364) (xy 152.060002 101.814532)
				(xy 152.059998 101.814532) (xy 151.833313 101.834364) (xy 151.833302 101.834366) (xy 151.613511 101.893258)
				(xy 151.613502 101.893261) (xy 151.407267 101.989431) (xy 151.407265 101.989432) (xy 151.220858 102.119954)
				(xy 151.059954 102.280858) (xy 150.929432 102.467265) (xy 150.929431 102.467267) (xy 150.833261 102.673502)
				(xy 150.833258 102.673511) (xy 150.774366 102.893302) (xy 150.774364 102.893313) (xy 150.754532 103.119998)
				(xy 148.823312 103.119998) (xy 148.786739 102.983504) (xy 148.690568 102.777266) (xy 148.560047 102.590861)
				(xy 148.560045 102.590858) (xy 148.399141 102.429954) (xy 148.212734 102.299432) (xy 148.212732 102.299431)
				(xy 148.006497 102.203261) (xy 148.006488 102.203258) (xy 147.786697 102.144366) (xy 147.786693 102.144365)
				(xy 147.786692 102.144365) (xy 147.786691 102.144364) (xy 147.786686 102.144364) (xy 147.560002 102.124532)
				(xy 147.559998 102.124532) (xy 147.333313 102.144364) (xy 147.333302 102.144366) (xy 147.113511 102.203258)
				(xy 147.113502 102.203261) (xy 146.907267 102.299431) (xy 146.907265 102.299432) (xy 146.720858 102.429954)
				(xy 146.559954 102.590858) (xy 146.429432 102.777265) (xy 146.429431 102.777267) (xy 146.333261 102.983502)
				(xy 146.333258 102.983511) (xy 146.274366 103.203302) (xy 146.274364 103.203313) (xy 146.254532 103.429998)
				(xy 146.254532 103.430001) (xy 146.274364 103.656686) (xy 146.274366 103.656697) (xy 146.333258 103.876488)
				(xy 146.333261 103.876497) (xy 146.429431 104.082732) (xy 146.429432 104.082734) (xy 146.559954 104.269141)
				(xy 146.720858 104.430045) (xy 146.720861 104.430047) (xy 146.907266 104.560568) (xy 146.93418 104.573118)
				(xy 146.986619 104.61929) (xy 147.005771 104.686484) (xy 146.985555 104.753365) (xy 146.93239 104.7987)
				(xy 146.881775 104.8095) (xy 145.063751 104.8095) (xy 145.056264 104.809274) (xy 144.766205 104.791728)
				(xy 144.75134 104.789923) (xy 144.469201 104.738219) (xy 144.454663 104.734635) (xy 144.180832 104.649306)
				(xy 144.166831 104.643997) (xy 143.905263 104.526275) (xy 143.892004 104.519316) (xy 143.73676 104.425468)
				(xy 143.646537 104.370926) (xy 143.634217 104.362422) (xy 143.408426 104.185526) (xy 143.397218 104.175596)
				(xy 143.194403 103.972781) (xy 143.184473 103.961573) (xy 143.11782 103.876497) (xy 143.007573 103.735776)
				(xy 142.999075 103.723465) (xy 142.85068 103.477989) (xy 142.843727 103.464743) (xy 142.726 103.203163)
				(xy 142.720693 103.189167) (xy 142.675894 103.045403) (xy 142.635363 102.915335) (xy 142.63178 102.900798)
				(xy 142.580076 102.618659) (xy 142.578271 102.603794) (xy 142.560726 102.313736) (xy 142.5605 102.306249)
				(xy 142.5605 101.82542) (xy 142.580185 101.758381) (xy 142.632989 101.712626) (xy 142.702147 101.702682)
				(xy 142.760662 101.727567) (xy 142.791365 101.751464) (xy 142.791371 101.751468) (xy 142.791374 101.75147)
				(xy 142.995497 101.861936) (xy 143.086735 101.893258) (xy 143.215015 101.937297) (xy 143.215017 101.937297)
				(xy 143.215019 101.937298) (xy 143.443951 101.9755) (xy 143.443952 101.9755) (xy 143.676048 101.9755)
				(xy 143.676049 101.9755) (xy 143.904981 101.937298) (xy 144.124503 101.861936) (xy 144.328626 101.75147)
				(xy 144.511784 101.608913) (xy 144.668979 101.438153) (xy 144.795924 101.243849) (xy 144.889157 101.0313)
				(xy 144.946134 100.806305) (xy 144.952153 100.733664) (xy 144.9653 100.575006) (xy 144.9653 100.574993)
				(xy 144.946135 100.343702) (xy 144.946133 100.343691) (xy 144.889157 100.118699) (xy 144.795924 99.906151)
				(xy 144.668983 99.711852) (xy 144.66898 99.711849) (xy 144.668979 99.711847) (xy 144.574195 99.608884)
				(xy 144.543275 99.546232) (xy 144.551135 99.476806) (xy 144.595283 99.422651) (xy 144.622095 99.408722)
				(xy 144.702326 99.378798) (xy 144.702326 99.378797) (xy 144.702331 99.378796) (xy 144.817546 99.292546)
				(xy 144.903796 99.177331) (xy 144.909886 99.161002) (xy 144.926609 99.116167) (xy 144.96848 99.060233)
				(xy 145.033944 99.035816) (xy 145.042791 99.0355) (xy 155.085241 99.0355) (xy 155.15228 99.055185)
				(xy 155.198035 99.107989) (xy 155.207979 99.177147) (xy 155.178954 99.240703) (xy 155.172922 99.247181)
				(xy 155.021505 99.398597) (xy 154.885965 99.592169) (xy 154.885964 99.592171) (xy 154.786098 99.806335)
				(xy 154.786094 99.806344) (xy 154.724938 100.034586) (xy 154.724936 100.034596) (xy 154.704341 100.269999)
				(xy 154.704341 100.27) (xy 154.724936 100.505403) (xy 154.724938 100.505413) (xy 154.786094 100.733655)
				(xy 154.786096 100.733659) (xy 154.786097 100.733663) (xy 154.795424 100.753664) (xy 154.885965 100.94783)
				(xy 154.885967 100.947834) (xy 155.021501 101.141395) (xy 155.021506 101.141402) (xy 155.188597 101.308493)
				(xy 155.188603 101.308498) (xy 155.374158 101.438425) (xy 155.417783 101.493002) (xy 155.424977 101.5625)
				(xy 155.393454 101.624855) (xy 155.374158 101.641575) (xy 155.188597 101.771505) (xy 155.021505 101.938597)
				(xy 154.885965 102.132169) (xy 154.885964 102.132171) (xy 154.786098 102.346335) (xy 154.786094 102.346344)
				(xy 154.724938 102.574586) (xy 154.724936 102.574596) (xy 154.704341 102.809999) (xy 154.704341 102.81)
				(xy 154.724936 103.045403) (xy 154.724938 103.045413) (xy 154.786094 103.273655) (xy 154.786096 103.273659)
				(xy 154.786097 103.273663) (xy 154.858998 103.43) (xy 154.885965 103.48783) (xy 154.885967 103.487834)
				(xy 154.941048 103.566497) (xy 155.021505 103.681401) (xy 155.188599 103.848495) (xy 155.228589 103.876496)
				(xy 155.382165 103.984032) (xy 155.382167 103.984033) (xy 155.38217 103.984035) (xy 155.596337 104.083903)
				(xy 155.824592 104.145063) (xy 156.012918 104.161539) (xy 156.059999 104.165659) (xy 156.06 104.165659)
				(xy 156.060001 104.165659) (xy 156.099234 104.162226) (xy 156.295408 104.145063) (xy 156.523663 104.083903)
				(xy 156.73783 103.984035) (xy 156.931401 103.848495) (xy 157.098495 103.681401) (xy 157.234035 103.48783)
				(xy 157.333903 103.273663) (xy 157.395063 103.045408) (xy 157.415659 102.81) (xy 157.395063 102.574592)
				(xy 157.333903 102.346337) (xy 157.234035 102.132171) (xy 157.228687 102.124532) (xy 157.098494 101.938597)
				(xy 156.931402 101.771506) (xy 156.931396 101.771501) (xy 156.745842 101.641575) (xy 156.702217 101.586998)
				(xy 156.695023 101.5175) (xy 156.726546 101.455145) (xy 156.745842 101.438425) (xy 156.768026 101.422891)
				(xy 156.931401 101.308495) (xy 157.098495 101.141401) (xy 157.234035 100.94783) (xy 157.333903 100.733663)
				(xy 157.395063 100.505408) (xy 157.413909 100.289999) (xy 158.294341 100.289999) (xy 158.294341 100.29)
				(xy 158.314936 100.525403) (xy 158.314938 100.525413) (xy 158.376094 100.753655) (xy 158.376096 100.753659)
				(xy 158.376097 100.753663) (xy 158.400646 100.806308) (xy 158.475965 100.96783) (xy 158.475967 100.967834)
				(xy 158.520407 101.0313) (xy 158.611505 101.161401) (xy 158.778599 101.328495) (xy 158.875384 101.396265)
				(xy 158.972165 101.464032) (xy 158.972167 101.464033) (xy 158.97217 101.464035) (xy 159.186337 101.563903)
				(xy 159.414592 101.625063) (xy 159.602918 101.641539) (xy 159.649999 101.645659) (xy 159.65 101.645659)
				(xy 159.650001 101.645659) (xy 159.696679 101.641575) (xy 159.885408 101.625063) (xy 160.113663 101.563903)
				(xy 160.32783 101.464035) (xy 160.521401 101.328495) (xy 160.688495 101.161401) (xy 160.824035 100.96783)
				(xy 160.923903 100.753663) (xy 160.985063 100.525408) (xy 161.005659 100.29) (xy 160.985063 100.054592)
				(xy 160.923903 99.826337) (xy 160.824035 99.612171) (xy 160.810555 99.59292) (xy 160.688496 99.4186)
				(xy 160.648689 99.378793) (xy 160.566567 99.296671) (xy 160.533084 99.235351) (xy 160.538068 99.165659)
				(xy 160.579939 99.109725) (xy 160.610915 99.09281) (xy 160.742331 99.043796) (xy 160.857546 98.957546)
				(xy 160.943796 98.842331) (xy 160.994091 98.707483) (xy 161.0005 98.647873) (xy 161.000499 96.852128)
				(xy 160.994091 96.792517) (xy 160.99372 96.791523) (xy 160.943797 96.657671) (xy 160.943793 96.657664)
				(xy 160.857547 96.542455) (xy 160.857544 96.542452) (xy 160.742335 96.456206) (xy 160.742328 96.456202)
				(xy 160.607482 96.405908) (xy 160.607483 96.405908) (xy 160.547883 96.399501) (xy 160.547881 96.3995)
				(xy 160.547873 96.3995) (xy 160.547864 96.3995) (xy 158.752129 96.3995) (xy 158.752123 96.399501)
				(xy 158.692516 96.405908) (xy 158.557671 96.456202) (xy 158.557664 96.456206) (xy 158.442455 96.542452)
				(xy 158.442452 96.542455) (xy 158.356206 96.657664) (xy 158.356202 96.657671) (xy 158.305908 96.792517)
				(xy 158.299501 96.852116) (xy 158.299501 96.852123) (xy 158.2995 96.852135) (xy 158.2995 98.64787)
				(xy 158.299501 98.647876) (xy 158.305908 98.707483) (xy 158.356202 98.842328) (xy 158.356206 98.842335)
				(xy 158.442452 98.957544) (xy 158.442455 98.957547) (xy 158.557664 99.043793) (xy 158.557671 99.043797)
				(xy 158.689081 99.09281) (xy 158.745015 99.134681) (xy 158.769432 99.200145) (xy 158.75458 99.268418)
				(xy 158.73343 99.296673) (xy 158.611503 99.4186) (xy 158.475965 99.612169) (xy 158.475964 99.612171)
				(xy 158.376098 99.826335) (xy 158.376094 99.826344) (xy 158.314938 100.054586) (xy 158.314936 100.054596)
				(xy 158.294341 100.289999) (xy 157.413909 100.289999) (xy 157.415659 100.27) (xy 157.395063 100.034592)
				(xy 157.333903 99.806337) (xy 157.234035 99.592171) (xy 157.201869 99.546232) (xy 157.098494 99.398597)
				(xy 156.931402 99.231506) (xy 156.931396 99.231501) (xy 156.745842 99.101575) (xy 156.702217 99.046998)
				(xy 156.695023 98.9775) (xy 156.726546 98.915145) (xy 156.745842 98.898425) (xy 156.768026 98.882891)
				(xy 156.931401 98.768495) (xy 157.098495 98.601401) (xy 157.234035 98.40783) (xy 157.333903 98.193663)
				(xy 157.395063 97.965408) (xy 157.415659 97.73) (xy 157.395063 97.494592) (xy 157.333903 97.266337)
				(xy 157.234035 97.052171) (xy 157.219959 97.032069) (xy 157.098496 96.8586) (xy 157.045364 96.805468)
				(xy 156.976567 96.736671) (xy 156.943084 96.675351) (xy 156.948068 96.605659) (xy 156.989939 96.549725)
				(xy 157.020915 96.53281) (xy 157.152331 96.483796) (xy 157.267546 96.397546) (xy 157.353796 96.282331)
				(xy 157.404091 96.147483) (xy 157.4105 96.087873) (xy 157.410499 94.292128) (xy 157.404091 94.232517)
				(xy 157.39732 94.214364) (xy 157.353797 94.097671) (xy 157.353793 94.097664) (xy 157.267547 93.982455)
				(xy 157.267544 93.982452) (xy 157.152335 93.896206) (xy 157.152328 93.896202) (xy 157.017482 93.845908)
				(xy 157.017483 93.845908) (xy 156.957883 93.839501) (xy 156.957881 93.8395) (xy 156.957873 93.8395)
				(xy 156.957864 93.8395) (xy 155.162129 93.8395) (xy 155.162123 93.839501) (xy 155.102516 93.845908)
				(xy 154.967671 93.896202) (xy 154.967664 93.896206) (xy 154.852455 93.982452) (xy 154.852452 93.982455)
				(xy 154.766206 94.097664) (xy 154.766202 94.097671) (xy 154.715908 94.232517) (xy 154.711528 94.273261)
				(xy 154.709501 94.292123) (xy 154.7095 94.292135) (xy 154.7095 96.08787) (xy 154.709501 96.087876)
				(xy 154.715908 96.147483) (xy 154.766202 96.282328) (xy 154.766206 96.282335) (xy 154.852452 96.397544)
				(xy 154.852455 96.397547) (xy 154.967664 96.483793) (xy 154.967671 96.483797) (xy 155.099081 96.53281)
				(xy 155.155015 96.574681) (xy 155.179432 96.640145) (xy 155.16458 96.708418) (xy 155.14343 96.736673)
				(xy 155.021503 96.8586) (xy 154.935363 96.981623) (xy 154.880786 97.025248) (xy 154.833788 97.0345)
				(xy 152.282216 97.0345) (xy 152.215177 97.014815) (xy 152.169422 96.962011) (xy 152.159478 96.892853)
				(xy 152.188503 96.829297) (xy 152.247281 96.791523) (xy 152.271408 96.786972) (xy 152.286692 96.785635)
				(xy 152.506496 96.726739) (xy 152.712734 96.630568) (xy 152.899139 96.500047) (xy 153.060047 96.339139)
				(xy 153.190568 96.152734) (xy 153.286739 95.946496) (xy 153.345635 95.726692) (xy 153.365468 95.5)
				(xy 153.345635 95.273308) (xy 153.286739 95.053504) (xy 153.190568 94.847266) (xy 153.060047 94.660861)
				(xy 153.060045 94.660858) (xy 152.899141 94.499954) (xy 152.712734 94.369432) (xy 152.712732 94.369431)
				(xy 152.506497 94.273261) (xy 152.506488 94.273258) (xy 152.286697 94.214366) (xy 152.286693 94.214365)
				(xy 152.286692 94.214365) (xy 152.286691 94.214364) (xy 152.286686 94.214364) (xy 152.060002 94.194532)
				(xy 152.059998 94.194532) (xy 151.833313 94.214364) (xy 151.833302 94.214366) (xy 151.613511 94.273258)
				(xy 151.613502 94.273261) (xy 151.407267 94.369431) (xy 151.407265 94.369432) (xy 151.220858 94.499954)
				(xy 151.059954 94.660858) (xy 150.929432 94.847265) (xy 150.929431 94.847267) (xy 150.833261 95.053502)
				(xy 150.833258 95.053511) (xy 150.774366 95.273302) (xy 150.774364 95.273313) (xy 150.754532 95.499998)
				(xy 150.754532 95.500001) (xy 150.774364 95.726686) (xy 150.774366 95.726697) (xy 150.833258 95.946488)
				(xy 150.833261 95.946497) (xy 150.929431 96.152732) (xy 150.929432 96.152734) (xy 151.059954 96.339141)
				(xy 151.220858 96.500045) (xy 151.267652 96.53281) (xy 151.407266 96.630568) (xy 151.613504 96.726739)
				(xy 151.833308 96.785635) (xy 151.848591 96.786972) (xy 151.91366 96.812424) (xy 151.954639 96.869015)
				(xy 151.958517 96.938777) (xy 151.924063 96.999561) (xy 151.862216 97.032069) (xy 151.837784 97.0345)
				(xy 148.471865 97.0345) (xy 148.404826 97.014815) (xy 148.359071 96.962011) (xy 148.349127 96.892853)
				(xy 148.378152 96.829297) (xy 148.395271 96.813857) (xy 148.394994 96.813526) (xy 148.399138 96.810048)
				(xy 148.560045 96.649141) (xy 148.560047 96.649139) (xy 148.690568 96.462734) (xy 148.786739 96.256496)
				(xy 148.845635 96.036692) (xy 148.865468 95.81) (xy 148.845635 95.583308) (xy 148.786739 95.363504)
				(xy 148.690568 95.157266) (xy 148.560047 94.970861) (xy 148.560045 94.970858) (xy 148.399141 94.809954)
				(xy 148.212734 94.679432) (xy 148.212732 94.679431) (xy 148.006497 94.583261) (xy 148.006488 94.583258)
				(xy 147.786697 94.524366) (xy 147.786693 94.524365) (xy 147.786692 94.524365) (xy 147.786691 94.524364)
				(xy 147.786686 94.524364) (xy 147.560002 94.504532) (xy 147.559998 94.504532) (xy 147.333313 94.524364)
				(xy 147.333302 94.524366) (xy 147.113511 94.583258) (xy 147.113502 94.583261) (xy 146.907267 94.679431)
				(xy 146.907265 94.679432) (xy 146.720858 94.809954) (xy 146.559954 94.970858) (xy 146.429432 95.157265)
				(xy 146.429431 95.157267) (xy 146.333261 95.363502) (xy 146.333258 95.363511) (xy 146.274366 95.583302)
				(xy 146.274364 95.583313) (xy 146.254532 95.809998) (xy 146.254532 95.810001) (xy 146.274364 96.036686)
				(xy 146.274366 96.036697) (xy 146.333258 96.256488) (xy 146.333261 96.256497) (xy 146.429431 96.462732)
				(xy 146.429432 96.462734) (xy 146.559954 96.649141) (xy 146.720861 96.810048) (xy 146.725006 96.813526)
				(xy 146.723946 96.814789) (xy 146.762884 96.863502) (xy 146.770076 96.933001) (xy 146.738554 96.995355)
				(xy 146.678324 97.030769) (xy 146.648135 97.0345) (xy 145.042791 97.0345) (xy 144.975752 97.014815)
				(xy 144.929997 96.962011) (xy 144.926609 96.953833) (xy 144.903797 96.892671) (xy 144.903793 96.892664)
				(xy 144.817547 96.777455) (xy 144.817544 96.777452) (xy 144.702335 96.691206) (xy 144.702328 96.691202)
				(xy 144.567482 96.640908) (xy 144.567483 96.640908) (xy 144.507883 96.634501) (xy 144.507881 96.6345)
				(xy 144.507873 96.6345) (xy 144.507865 96.6345) (xy 142.6845 96.6345) (xy 142.617461 96.614815)
				(xy 142.571706 96.562011) (xy 142.5605 96.5105) (xy 142.5605 95.81375) (xy 142.560726 95.806263)
				(xy 142.565539 95.726692) (xy 142.578271 95.516201) (xy 142.580076 95.50134) (xy 142.580322 95.500001)
				(xy 142.63178 95.219197) (xy 142.635364 95.204663) (xy 142.720696 94.930822) (xy 142.725998 94.916841)
				(xy 142.843731 94.655249) (xy 142.850676 94.642016) (xy 142.99908 94.396526) (xy 143.007567 94.38423)
				(xy 143.18448 94.158417) (xy 143.194395 94.147226) (xy 143.397226 93.944395) (xy 143.408417 93.93448)
				(xy 143.63423 93.757567) (xy 143.646526 93.74908) (xy 143.892016 93.600676) (xy 143.905249 93.593731)
				(xy 144.166841 93.475998) (xy 144.180822 93.470696) (xy 144.454668 93.385362) (xy 144.469197 93.38178)
				(xy 144.751344 93.330075) (xy 144.766201 93.328271) (xy 145.056264 93.310726) (xy 145.063751 93.3105)
				(xy 145.125892 93.3105) (xy 159.994108 93.3105) (xy 160.056249 93.3105)
			)
		)
	)
)
