(kicad_sch
	(version 20231120)
	(generator "eeschema")
	(generator_version "8.0")
	(uuid "6e3ed64c-3a1c-432f-b3dd-76298c3687de")
	(paper "A4")
	(lib_symbols
		(symbol "Device:Battery"
			(pin_numbers hide)
			(pin_names
				(offset 0) hide)
			(exclude_from_sim no)
			(in_bom yes)
			(on_board yes)
			(property "Reference" "BT"
				(at 2.54 2.54 0)
				(effects
					(font
						(size 1.27 1.27)
					)
					(justify left)
				)
			)
			(property "Value" "Battery"
				(at 2.54 0 0)
				(effects
					(font
						(size 1.27 1.27)
					)
					(justify left)
				)
			)
			(property "Footprint" ""
				(at 0 1.524 90)
				(effects
					(font
						(size 1.27 1.27)
					)
					(hide yes)
				)
			)
			(property "Datasheet" "~"
				(at 0 1.524 90)
				(effects
					(font
						(size 1.27 1.27)
					)
					(hide yes)
				)
			)
			(property "Description" "Multiple-cell battery"
				(at 0 0 0)
				(effects
					(font
						(size 1.27 1.27)
					)
					(hide yes)
				)
			)
			(property "ki_keywords" "batt voltage-source cell"
				(at 0 0 0)
				(effects
					(font
						(size 1.27 1.27)
					)
					(hide yes)
				)
			)
			(symbol "Battery_0_1"
				(rectangle
					(start -2.286 -1.27)
					(end 2.286 -1.524)
					(stroke
						(width 0)
						(type default)
					)
					(fill
						(type outline)
					)
				)
				(rectangle
					(start -2.286 1.778)
					(end 2.286 1.524)
					(stroke
						(width 0)
						(type default)
					)
					(fill
						(type outline)
					)
				)
				(rectangle
					(start -1.524 -2.032)
					(end 1.524 -2.54)
					(stroke
						(width 0)
						(type default)
					)
					(fill
						(type outline)
					)
				)
				(rectangle
					(start -1.524 1.016)
					(end 1.524 0.508)
					(stroke
						(width 0)
						(type default)
					)
					(fill
						(type outline)
					)
				)
				(polyline
					(pts
						(xy 0 -1.016) (xy 0 -0.762)
					)
					(stroke
						(width 0)
						(type default)
					)
					(fill
						(type none)
					)
				)
				(polyline
					(pts
						(xy 0 -0.508) (xy 0 -0.254)
					)
					(stroke
						(width 0)
						(type default)
					)
					(fill
						(type none)
					)
				)
				(polyline
					(pts
						(xy 0 0) (xy 0 0.254)
					)
					(stroke
						(width 0)
						(type default)
					)
					(fill
						(type none)
					)
				)
				(polyline
					(pts
						(xy 0 1.778) (xy 0 2.54)
					)
					(stroke
						(width 0)
						(type default)
					)
					(fill
						(type none)
					)
				)
				(polyline
					(pts
						(xy 0.762 3.048) (xy 1.778 3.048)
					)
					(stroke
						(width 0.254)
						(type default)
					)
					(fill
						(type none)
					)
				)
				(polyline
					(pts
						(xy 1.27 3.556) (xy 1.27 2.54)
					)
					(stroke
						(width 0.254)
						(type default)
					)
					(fill
						(type none)
					)
				)
			)
			(symbol "Battery_1_1"
				(pin passive line
					(at 0 5.08 270)
					(length 2.54)
					(name "+"
						(effects
							(font
								(size 1.27 1.27)
							)
						)
					)
					(number "1"
						(effects
							(font
								(size 1.27 1.27)
							)
						)
					)
				)
				(pin passive line
					(at 0 -5.08 90)
					(length 2.54)
					(name "-"
						(effects
							(font
								(size 1.27 1.27)
							)
						)
					)
					(number "2"
						(effects
							(font
								(size 1.27 1.27)
							)
						)
					)
				)
			)
		)
		(symbol "Device:LED"
			(pin_numbers hide)
			(pin_names
				(offset 1.016) hide)
			(exclude_from_sim no)
			(in_bom yes)
			(on_board yes)
			(property "Reference" "D"
				(at 0 2.54 0)
				(effects
					(font
						(size 1.27 1.27)
					)
				)
			)
			(property "Value" "LED"
				(at 0 -2.54 0)
				(effects
					(font
						(size 1.27 1.27)
					)
				)
			)
			(property "Footprint" ""
				(at 0 0 0)
				(effects
					(font
						(size 1.27 1.27)
					)
					(hide yes)
				)
			)
			(property "Datasheet" "~"
				(at 0 0 0)
				(effects
					(font
						(size 1.27 1.27)
					)
					(hide yes)
				)
			)
			(property "Description" "Light emitting diode"
				(at 0 0 0)
				(effects
					(font
						(size 1.27 1.27)
					)
					(hide yes)
				)
			)
			(property "ki_keywords" "LED diode"
				(at 0 0 0)
				(effects
					(font
						(size 1.27 1.27)
					)
					(hide yes)
				)
			)
			(property "ki_fp_filters" "LED* LED_SMD:* LED_THT:*"
				(at 0 0 0)
				(effects
					(font
						(size 1.27 1.27)
					)
					(hide yes)
				)
			)
			(symbol "LED_0_1"
				(polyline
					(pts
						(xy -1.27 -1.27) (xy -1.27 1.27)
					)
					(stroke
						(width 0.254)
						(type default)
					)
					(fill
						(type none)
					)
				)
				(polyline
					(pts
						(xy -1.27 0) (xy 1.27 0)
					)
					(stroke
						(width 0)
						(type default)
					)
					(fill
						(type none)
					)
				)
				(polyline
					(pts
						(xy 1.27 -1.27) (xy 1.27 1.27) (xy -1.27 0) (xy 1.27 -1.27)
					)
					(stroke
						(width 0.254)
						(type default)
					)
					(fill
						(type none)
					)
				)
				(polyline
					(pts
						(xy -3.048 -0.762) (xy -4.572 -2.286) (xy -3.81 -2.286) (xy -4.572 -2.286) (xy -4.572 -1.524)
					)
					(stroke
						(width 0)
						(type default)
					)
					(fill
						(type none)
					)
				)
				(polyline
					(pts
						(xy -1.778 -0.762) (xy -3.302 -2.286) (xy -2.54 -2.286) (xy -3.302 -2.286) (xy -3.302 -1.524)
					)
					(stroke
						(width 0)
						(type default)
					)
					(fill
						(type none)
					)
				)
			)
			(symbol "LED_1_1"
				(pin passive line
					(at -3.81 0 0)
					(length 2.54)
					(name "K"
						(effects
							(font
								(size 1.27 1.27)
							)
						)
					)
					(number "1"
						(effects
							(font
								(size 1.27 1.27)
							)
						)
					)
				)
				(pin passive line
					(at 3.81 0 180)
					(length 2.54)
					(name "A"
						(effects
							(font
								(size 1.27 1.27)
							)
						)
					)
					(number "2"
						(effects
							(font
								(size 1.27 1.27)
							)
						)
					)
				)
			)
		)
		(symbol "Device:R_US"
			(pin_numbers hide)
			(pin_names
				(offset 0)
			)
			(exclude_from_sim no)
			(in_bom yes)
			(on_board yes)
			(property "Reference" "R"
				(at 2.54 0 90)
				(effects
					(font
						(size 1.27 1.27)
					)
				)
			)
			(property "Value" "R_US"
				(at -2.54 0 90)
				(effects
					(font
						(size 1.27 1.27)
					)
				)
			)
			(property "Footprint" ""
				(at 1.016 -0.254 90)
				(effects
					(font
						(size 1.27 1.27)
					)
					(hide yes)
				)
			)
			(property "Datasheet" "~"
				(at 0 0 0)
				(effects
					(font
						(size 1.27 1.27)
					)
					(hide yes)
				)
			)
			(property "Description" "Resistor, US symbol"
				(at 0 0 0)
				(effects
					(font
						(size 1.27 1.27)
					)
					(hide yes)
				)
			)
			(property "ki_keywords" "R res resistor"
				(at 0 0 0)
				(effects
					(font
						(size 1.27 1.27)
					)
					(hide yes)
				)
			)
			(property "ki_fp_filters" "R_*"
				(at 0 0 0)
				(effects
					(font
						(size 1.27 1.27)
					)
					(hide yes)
				)
			)
			(symbol "R_US_0_1"
				(polyline
					(pts
						(xy 0 -2.286) (xy 0 -2.54)
					)
					(stroke
						(width 0)
						(type default)
					)
					(fill
						(type none)
					)
				)
				(polyline
					(pts
						(xy 0 2.286) (xy 0 2.54)
					)
					(stroke
						(width 0)
						(type default)
					)
					(fill
						(type none)
					)
				)
				(polyline
					(pts
						(xy 0 -0.762) (xy 1.016 -1.143) (xy 0 -1.524) (xy -1.016 -1.905) (xy 0 -2.286)
					)
					(stroke
						(width 0)
						(type default)
					)
					(fill
						(type none)
					)
				)
				(polyline
					(pts
						(xy 0 0.762) (xy 1.016 0.381) (xy 0 0) (xy -1.016 -0.381) (xy 0 -0.762)
					)
					(stroke
						(width 0)
						(type default)
					)
					(fill
						(type none)
					)
				)
				(polyline
					(pts
						(xy 0 2.286) (xy 1.016 1.905) (xy 0 1.524) (xy -1.016 1.143) (xy 0 0.762)
					)
					(stroke
						(width 0)
						(type default)
					)
					(fill
						(type none)
					)
				)
			)
			(symbol "R_US_1_1"
				(pin passive line
					(at 0 3.81 270)
					(length 1.27)
					(name "~"
						(effects
							(font
								(size 1.27 1.27)
							)
						)
					)
					(number "1"
						(effects
							(font
								(size 1.27 1.27)
							)
						)
					)
				)
				(pin passive line
					(at 0 -3.81 90)
					(length 1.27)
					(name "~"
						(effects
							(font
								(size 1.27 1.27)
							)
						)
					)
					(number "2"
						(effects
							(font
								(size 1.27 1.27)
							)
						)
					)
				)
			)
		)
		(symbol "Personal:Battery_Charge_Module"
			(exclude_from_sim no)
			(in_bom yes)
			(on_board yes)
			(property "Reference" "BatteryChargeModule"
				(at 0 -5.588 0)
				(effects
					(font
						(size 1.27 1.27)
					)
				)
			)
			(property "Value" ""
				(at 0 -1.27 0)
				(effects
					(font
						(size 1.27 1.27)
					)
				)
			)
			(property "Footprint" ""
				(at 0 -1.27 0)
				(effects
					(font
						(size 1.27 1.27)
					)
					(hide yes)
				)
			)
			(property "Datasheet" ""
				(at 0 -1.27 0)
				(effects
					(font
						(size 1.27 1.27)
					)
					(hide yes)
				)
			)
			(property "Description" ""
				(at 0 -1.27 0)
				(effects
					(font
						(size 1.27 1.27)
					)
					(hide yes)
				)
			)
			(symbol "Battery_Charge_Module_0_1"
				(rectangle
					(start -11.43 5.08)
					(end 11.43 -7.62)
					(stroke
						(width 0)
						(type default)
					)
					(fill
						(type none)
					)
				)
			)
			(symbol "Battery_Charge_Module_1_1"
				(pin input line
					(at -2.54 -1.27 0)
					(length 2.54)
					(name "Bat+"
						(effects
							(font
								(size 1.27 1.27)
							)
						)
					)
					(number "1"
						(effects
							(font
								(size 1.27 1.27)
							)
						)
					)
				)
				(pin input line
					(at -2.54 1.27 0)
					(length 2.54)
					(name "Bat-"
						(effects
							(font
								(size 1.27 1.27)
							)
						)
					)
					(number "2"
						(effects
							(font
								(size 1.27 1.27)
							)
						)
					)
				)
				(pin input line
					(at -2.54 -3.81 0)
					(length 2.54)
					(name "+"
						(effects
							(font
								(size 1.27 1.27)
							)
						)
					)
					(number "3"
						(effects
							(font
								(size 1.27 1.27)
							)
						)
					)
				)
				(pin input line
					(at -2.54 3.81 0)
					(length 2.54)
					(name "-"
						(effects
							(font
								(size 1.27 1.27)
							)
						)
					)
					(number "4"
						(effects
							(font
								(size 1.27 1.27)
							)
						)
					)
				)
			)
		)
		(symbol "Switch:SW_Push"
			(pin_numbers hide)
			(pin_names
				(offset 1.016) hide)
			(exclude_from_sim no)
			(in_bom yes)
			(on_board yes)
			(property "Reference" "SW"
				(at 1.27 2.54 0)
				(effects
					(font
						(size 1.27 1.27)
					)
					(justify left)
				)
			)
			(property "Value" "SW_Push"
				(at 0 -1.524 0)
				(effects
					(font
						(size 1.27 1.27)
					)
				)
			)
			(property "Footprint" ""
				(at 0 5.08 0)
				(effects
					(font
						(size 1.27 1.27)
					)
					(hide yes)
				)
			)
			(property "Datasheet" "~"
				(at 0 5.08 0)
				(effects
					(font
						(size 1.27 1.27)
					)
					(hide yes)
				)
			)
			(property "Description" "Push button switch, generic, two pins"
				(at 0 0 0)
				(effects
					(font
						(size 1.27 1.27)
					)
					(hide yes)
				)
			)
			(property "ki_keywords" "switch normally-open pushbutton push-button"
				(at 0 0 0)
				(effects
					(font
						(size 1.27 1.27)
					)
					(hide yes)
				)
			)
			(symbol "SW_Push_0_1"
				(circle
					(center -2.032 0)
					(radius 0.508)
					(stroke
						(width 0)
						(type default)
					)
					(fill
						(type none)
					)
				)
				(polyline
					(pts
						(xy 0 1.27) (xy 0 3.048)
					)
					(stroke
						(width 0)
						(type default)
					)
					(fill
						(type none)
					)
				)
				(polyline
					(pts
						(xy 2.54 1.27) (xy -2.54 1.27)
					)
					(stroke
						(width 0)
						(type default)
					)
					(fill
						(type none)
					)
				)
				(circle
					(center 2.032 0)
					(radius 0.508)
					(stroke
						(width 0)
						(type default)
					)
					(fill
						(type none)
					)
				)
				(pin passive line
					(at -5.08 0 0)
					(length 2.54)
					(name "1"
						(effects
							(font
								(size 1.27 1.27)
							)
						)
					)
					(number "1"
						(effects
							(font
								(size 1.27 1.27)
							)
						)
					)
				)
				(pin passive line
					(at 5.08 0 180)
					(length 2.54)
					(name "2"
						(effects
							(font
								(size 1.27 1.27)
							)
						)
					)
					(number "2"
						(effects
							(font
								(size 1.27 1.27)
							)
						)
					)
				)
			)
		)
	)
	(wire
		(pts
			(xy 146.05 58.42) (xy 133.35 58.42)
		)
		(stroke
			(width 0)
			(type default)
		)
		(uuid "15917434-ae60-42af-a462-a8b1128aeae7")
	)
	(wire
		(pts
			(xy 101.6 67.31) (xy 105.41 67.31)
		)
		(stroke
			(width 0)
			(type default)
		)
		(uuid "195af649-4f5b-4e17-8180-0b758ed95218")
	)
	(wire
		(pts
			(xy 133.35 58.42) (xy 133.35 62.23)
		)
		(stroke
			(width 0)
			(type default)
		)
		(uuid "1ac6c0df-eccf-437a-b4c0-c6ab9769fe85")
	)
	(wire
		(pts
			(xy 146.05 68.58) (xy 133.35 68.58)
		)
		(stroke
			(width 0)
			(type default)
		)
		(uuid "1b791bc7-3d02-4247-97a9-577e8f80cadc")
	)
	(wire
		(pts
			(xy 115.57 67.31) (xy 130.81 67.31)
		)
		(stroke
			(width 0)
			(type default)
		)
		(uuid "3607b04d-fae4-4fcb-8160-b39f73d51195")
	)
	(wire
		(pts
			(xy 133.35 68.58) (xy 133.35 64.77)
		)
		(stroke
			(width 0)
			(type default)
		)
		(uuid "385a15c3-3e5e-45cb-bc6e-cd21b543ffc6")
	)
	(wire
		(pts
			(xy 130.81 58.42) (xy 130.81 59.69)
		)
		(stroke
			(width 0)
			(type default)
		)
		(uuid "54fc07f3-c366-4ca2-b8a5-75a80890cb2f")
	)
	(wire
		(pts
			(xy 82.55 58.42) (xy 130.81 58.42)
		)
		(stroke
			(width 0)
			(type default)
		)
		(uuid "5f530427-3a84-4850-a86c-c5622671b5c7")
	)
	(wire
		(pts
			(xy 90.17 67.31) (xy 93.98 67.31)
		)
		(stroke
			(width 0)
			(type default)
		)
		(uuid "634e9046-5364-444a-bfd3-696575c380b7")
	)
	(wire
		(pts
			(xy 82.55 58.42) (xy 82.55 67.31)
		)
		(stroke
			(width 0)
			(type default)
		)
		(uuid "ab5272e0-9a07-44d3-80fd-3d4fb03aef99")
	)
	(wire
		(pts
			(xy 133.35 64.77) (xy 130.81 64.77)
		)
		(stroke
			(width 0)
			(type default)
		)
		(uuid "e6c2f199-4cfb-49ff-8d86-872517deb1e5")
	)
	(wire
		(pts
			(xy 133.35 62.23) (xy 130.81 62.23)
		)
		(stroke
			(width 0)
			(type default)
		)
		(uuid "f13eb8f3-13a3-4e78-88cf-cbaf89c626c4")
	)
	(symbol
		(lib_id "Device:Battery")
		(at 146.05 63.5 0)
		(unit 1)
		(exclude_from_sim no)
		(in_bom yes)
		(on_board yes)
		(dnp no)
		(fields_autoplaced yes)
		(uuid "09f63f43-ce83-4a93-ad79-28232b3ed810")
		(property "Reference" "BT1"
			(at 149.86 61.6584 0)
			(effects
				(font
					(size 1.27 1.27)
				)
				(justify left)
			)
		)
		(property "Value" "Battery"
			(at 149.86 64.1984 0)
			(effects
				(font
					(size 1.27 1.27)
				)
				(justify left)
			)
		)
		(property "Footprint" "Connector_PinHeader_1.27mm:PinHeader_1x02_P1.27mm_Vertical"
			(at 146.05 61.976 90)
			(effects
				(font
					(size 1.27 1.27)
				)
				(hide yes)
			)
		)
		(property "Datasheet" "~"
			(at 146.05 61.976 90)
			(effects
				(font
					(size 1.27 1.27)
				)
				(hide yes)
			)
		)
		(property "Description" "Multiple-cell battery"
			(at 146.05 63.5 0)
			(effects
				(font
					(size 1.27 1.27)
				)
				(hide yes)
			)
		)
		(pin "1"
			(uuid "338a3633-cc7a-49e0-a10a-faa61ee161d7")
		)
		(pin "2"
			(uuid "46259d80-530a-4e89-8dad-aa79f2bf5a51")
		)
		(instances
			(project ""
				(path "/6e3ed64c-3a1c-432f-b3dd-76298c3687de"
					(reference "BT1")
					(unit 1)
				)
			)
		)
	)
	(symbol
		(lib_id "Device:LED")
		(at 86.36 67.31 0)
		(unit 1)
		(exclude_from_sim no)
		(in_bom yes)
		(on_board yes)
		(dnp no)
		(fields_autoplaced yes)
		(uuid "93c4662f-b880-4e6d-af16-7ea038f79d35")
		(property "Reference" "D1"
			(at 84.7725 60.96 0)
			(effects
				(font
					(size 1.27 1.27)
				)
			)
		)
		(property "Value" "LED"
			(at 84.7725 63.5 0)
			(effects
				(font
					(size 1.27 1.27)
				)
			)
		)
		(property "Footprint" "LED_THT:LED_D5.0mm_Horizontal_O1.27mm_Z3.0mm"
			(at 86.36 67.31 0)
			(effects
				(font
					(size 1.27 1.27)
				)
				(hide yes)
			)
		)
		(property "Datasheet" "~"
			(at 86.36 67.31 0)
			(effects
				(font
					(size 1.27 1.27)
				)
				(hide yes)
			)
		)
		(property "Description" "Light emitting diode"
			(at 86.36 67.31 0)
			(effects
				(font
					(size 1.27 1.27)
				)
				(hide yes)
			)
		)
		(pin "2"
			(uuid "8cdb6015-731b-4b3a-bf83-99fe5d9f28ce")
		)
		(pin "1"
			(uuid "db38c8ea-c4c2-4215-8fd3-bea5603771fc")
		)
		(instances
			(project ""
				(path "/6e3ed64c-3a1c-432f-b3dd-76298c3687de"
					(reference "D1")
					(unit 1)
				)
			)
		)
	)
	(symbol
		(lib_id "Switch:SW_Push")
		(at 110.49 67.31 0)
		(unit 1)
		(exclude_from_sim no)
		(in_bom yes)
		(on_board yes)
		(dnp no)
		(fields_autoplaced yes)
		(uuid "9b716118-4c64-4336-b9f8-96c883943e25")
		(property "Reference" "SW1"
			(at 110.49 59.69 0)
			(effects
				(font
					(size 1.27 1.27)
				)
			)
		)
		(property "Value" "SW_Push"
			(at 110.49 62.23 0)
			(effects
				(font
					(size 1.27 1.27)
				)
			)
		)
		(property "Footprint" "Button_Switch_SMD:SW_SPST_B3U-1000P"
			(at 110.49 62.23 0)
			(effects
				(font
					(size 1.27 1.27)
				)
				(hide yes)
			)
		)
		(property "Datasheet" "~"
			(at 110.49 62.23 0)
			(effects
				(font
					(size 1.27 1.27)
				)
				(hide yes)
			)
		)
		(property "Description" "Push button switch, generic, two pins"
			(at 110.49 67.31 0)
			(effects
				(font
					(size 1.27 1.27)
				)
				(hide yes)
			)
		)
		(pin "2"
			(uuid "5f5ba177-4cd9-4c38-be4e-3a47243fb7ee")
		)
		(pin "1"
			(uuid "dbd28aa5-c35e-4c5f-9179-eda437c310b3")
		)
		(instances
			(project ""
				(path "/6e3ed64c-3a1c-432f-b3dd-76298c3687de"
					(reference "SW1")
					(unit 1)
				)
			)
		)
	)
	(symbol
		(lib_id "Personal:Battery_Charge_Module")
		(at 128.27 63.5 180)
		(unit 1)
		(exclude_from_sim no)
		(in_bom yes)
		(on_board yes)
		(dnp no)
		(fields_autoplaced yes)
		(uuid "e5353304-58a3-4329-a8e8-bca069d76963")
		(property "Reference" "BatteryChargeModule1"
			(at 128.27 52.07 0)
			(effects
				(font
					(size 1.27 1.27)
				)
			)
		)
		(property "Value" "~"
			(at 128.27 54.61 0)
			(effects
				(font
					(size 1.27 1.27)
				)
			)
		)
		(property "Footprint" "Personal:Battery Charge Module"
			(at 128.27 62.23 0)
			(effects
				(font
					(size 1.27 1.27)
				)
				(hide yes)
			)
		)
		(property "Datasheet" ""
			(at 128.27 62.23 0)
			(effects
				(font
					(size 1.27 1.27)
				)
				(hide yes)
			)
		)
		(property "Description" ""
			(at 128.27 62.23 0)
			(effects
				(font
					(size 1.27 1.27)
				)
				(hide yes)
			)
		)
		(pin "2"
			(uuid "575f3c23-f48f-4c2e-99fd-6d7183a68dcb")
		)
		(pin "3"
			(uuid "cbf88bfb-622c-4b6d-bfad-cfac5b98554c")
		)
		(pin "1"
			(uuid "3166970c-c23f-4aa8-a3d7-9e732bf83f58")
		)
		(pin "4"
			(uuid "12fa336d-d138-42e3-a854-e82902d6cb08")
		)
		(instances
			(project ""
				(path "/6e3ed64c-3a1c-432f-b3dd-76298c3687de"
					(reference "BatteryChargeModule1")
					(unit 1)
				)
			)
		)
	)
	(symbol
		(lib_id "Device:R_US")
		(at 97.79 67.31 90)
		(unit 1)
		(exclude_from_sim no)
		(in_bom yes)
		(on_board yes)
		(dnp no)
		(fields_autoplaced yes)
		(uuid "f8510b09-e49e-4466-a8a0-c29f54a82df5")
		(property "Reference" "R1"
			(at 97.79 60.96 90)
			(effects
				(font
					(size 1.27 1.27)
				)
			)
		)
		(property "Value" "R_US"
			(at 97.79 63.5 90)
			(effects
				(font
					(size 1.27 1.27)
				)
			)
		)
		(property "Footprint" "Resistor_THT:R_Axial_DIN0207_L6.3mm_D2.5mm_P7.62mm_Horizontal"
			(at 98.044 66.294 90)
			(effects
				(font
					(size 1.27 1.27)
				)
				(hide yes)
			)
		)
		(property "Datasheet" "~"
			(at 97.79 67.31 0)
			(effects
				(font
					(size 1.27 1.27)
				)
				(hide yes)
			)
		)
		(property "Description" "Resistor, US symbol"
			(at 97.79 67.31 0)
			(effects
				(font
					(size 1.27 1.27)
				)
				(hide yes)
			)
		)
		(pin "2"
			(uuid "21ec7dba-3b69-4fc7-afee-489026a17ccd")
		)
		(pin "1"
			(uuid "2d719c3a-d220-486f-b512-fd7a9888b111")
		)
		(instances
			(project ""
				(path "/6e3ed64c-3a1c-432f-b3dd-76298c3687de"
					(reference "R1")
					(unit 1)
				)
			)
		)
	)
	(sheet_instances
		(path "/"
			(page "1")
		)
	)
)
