(kicad_sch (version 20230121) (generator eeschema)

  (uuid 9e07dc95-9822-440a-bdff-d6b50e284615)

  (paper "A5")

  (lib_symbols
    (symbol "74xGxx:74AHCT1G125" (in_bom yes) (on_board yes)
      (property "Reference" "U" (at -2.54 3.81 0)
        (effects (font (size 1.27 1.27)))
      )
      (property "Value" "74AHCT1G125" (at 0 -3.81 0)
        (effects (font (size 1.27 1.27)))
      )
      (property "Footprint" "" (at 0 0 0)
        (effects (font (size 1.27 1.27)) hide)
      )
      (property "Datasheet" "http://www.ti.com/lit/sg/scyt129e/scyt129e.pdf" (at 0 0 0)
        (effects (font (size 1.27 1.27)) hide)
      )
      (property "ki_keywords" "Single Gate Buff Tri-State LVC CMOS" (at 0 0 0)
        (effects (font (size 1.27 1.27)) hide)
      )
      (property "ki_description" "Single Buffer Gate Tri-State, Low-Voltage CMOS" (at 0 0 0)
        (effects (font (size 1.27 1.27)) hide)
      )
      (property "ki_fp_filters" "SOT* SG-*" (at 0 0 0)
        (effects (font (size 1.27 1.27)) hide)
      )
      (symbol "74AHCT1G125_0_1"
        (polyline
          (pts
            (xy -7.62 6.35)
            (xy -7.62 -6.35)
            (xy 5.08 0)
            (xy -7.62 6.35)
          )
          (stroke (width 0.254) (type default))
          (fill (type background))
        )
      )
      (symbol "74AHCT1G125_1_1"
        (pin input inverted (at 0 10.16 270) (length 7.62)
          (name "~" (effects (font (size 1.27 1.27))))
          (number "1" (effects (font (size 1.27 1.27))))
        )
        (pin input line (at -15.24 0 0) (length 7.62)
          (name "~" (effects (font (size 1.27 1.27))))
          (number "2" (effects (font (size 1.27 1.27))))
        )
        (pin power_in line (at -5.08 -10.16 90) (length 5.08)
          (name "GND" (effects (font (size 1.27 1.27))))
          (number "3" (effects (font (size 1.27 1.27))))
        )
        (pin tri_state line (at 12.7 0 180) (length 7.62)
          (name "~" (effects (font (size 1.27 1.27))))
          (number "4" (effects (font (size 1.27 1.27))))
        )
        (pin power_in line (at -5.08 10.16 270) (length 5.08)
          (name "VCC" (effects (font (size 1.27 1.27))))
          (number "5" (effects (font (size 1.27 1.27))))
        )
      )
    )
    (symbol "Device:C_Small" (pin_numbers hide) (pin_names (offset 0.254) hide) (in_bom yes) (on_board yes)
      (property "Reference" "C" (at 0.254 1.778 0)
        (effects (font (size 1.27 1.27)) (justify left))
      )
      (property "Value" "C_Small" (at 0.254 -2.032 0)
        (effects (font (size 1.27 1.27)) (justify left))
      )
      (property "Footprint" "" (at 0 0 0)
        (effects (font (size 1.27 1.27)) hide)
      )
      (property "Datasheet" "~" (at 0 0 0)
        (effects (font (size 1.27 1.27)) hide)
      )
      (property "ki_keywords" "capacitor cap" (at 0 0 0)
        (effects (font (size 1.27 1.27)) hide)
      )
      (property "ki_description" "Unpolarized capacitor, small symbol" (at 0 0 0)
        (effects (font (size 1.27 1.27)) hide)
      )
      (property "ki_fp_filters" "C_*" (at 0 0 0)
        (effects (font (size 1.27 1.27)) hide)
      )
      (symbol "C_Small_0_1"
        (polyline
          (pts
            (xy -1.524 -0.508)
            (xy 1.524 -0.508)
          )
          (stroke (width 0.3302) (type default))
          (fill (type none))
        )
        (polyline
          (pts
            (xy -1.524 0.508)
            (xy 1.524 0.508)
          )
          (stroke (width 0.3048) (type default))
          (fill (type none))
        )
      )
      (symbol "C_Small_1_1"
        (pin passive line (at 0 2.54 270) (length 2.032)
          (name "~" (effects (font (size 1.27 1.27))))
          (number "1" (effects (font (size 1.27 1.27))))
        )
        (pin passive line (at 0 -2.54 90) (length 2.032)
          (name "~" (effects (font (size 1.27 1.27))))
          (number "2" (effects (font (size 1.27 1.27))))
        )
      )
    )
    (symbol "GND_1" (power) (pin_names (offset 0)) (in_bom yes) (on_board yes)
      (property "Reference" "#PWR" (at 0 -6.35 0)
        (effects (font (size 1.27 1.27)) hide)
      )
      (property "Value" "GND_1" (at 0 -3.81 0)
        (effects (font (size 1.27 1.27)))
      )
      (property "Footprint" "" (at 0 0 0)
        (effects (font (size 1.27 1.27)) hide)
      )
      (property "Datasheet" "" (at 0 0 0)
        (effects (font (size 1.27 1.27)) hide)
      )
      (property "ki_keywords" "power-flag" (at 0 0 0)
        (effects (font (size 1.27 1.27)) hide)
      )
      (property "ki_description" "Power symbol creates a global label with name \"GND\" , ground" (at 0 0 0)
        (effects (font (size 1.27 1.27)) hide)
      )
      (symbol "GND_1_0_1"
        (polyline
          (pts
            (xy 0 0)
            (xy 0 -1.27)
            (xy 1.27 -1.27)
            (xy 0 -2.54)
            (xy -1.27 -1.27)
            (xy 0 -1.27)
          )
          (stroke (width 0) (type default))
          (fill (type none))
        )
      )
      (symbol "GND_1_1_1"
        (pin power_in line (at 0 0 270) (length 0) hide
          (name "GND" (effects (font (size 1.27 1.27))))
          (number "1" (effects (font (size 1.27 1.27))))
        )
      )
    )
    (symbol "PCM_marbastlib-various:WS2812_2020" (pin_names (offset 0.254)) (in_bom yes) (on_board yes)
      (property "Reference" "LED" (at 5.08 5.715 0)
        (effects (font (size 1.27 1.27)) (justify right bottom))
      )
      (property "Value" "WS2812_2020" (at 1.27 -5.715 0)
        (effects (font (size 1.27 1.27)) (justify left top))
      )
      (property "Footprint" "PCM_marbastlib-various:LED_WS2812_2020" (at 1.27 -7.62 0)
        (effects (font (size 1.27 1.27)) (justify left top) hide)
      )
      (property "Datasheet" "https://www.world-semi.com/DownLoadFile/139" (at 2.54 -9.525 0)
        (effects (font (size 1.27 1.27)) (justify left top) hide)
      )
      (property "ki_keywords" "RGB LED NeoPixel Mini addressable 2020" (at 0 0 0)
        (effects (font (size 1.27 1.27)) hide)
      )
      (property "ki_description" "2020 SMD adressable RGB LED with integrated controller" (at 0 0 0)
        (effects (font (size 1.27 1.27)) hide)
      )
      (property "ki_fp_filters" "LED*SK6812MINI*PLCC*3.5x3.5mm*P1.75mm*" (at 0 0 0)
        (effects (font (size 1.27 1.27)) hide)
      )
      (symbol "WS2812_2020_0_0"
        (text "RGB" (at 2.286 -4.191 0)
          (effects (font (size 0.762 0.762)))
        )
      )
      (symbol "WS2812_2020_0_1"
        (polyline
          (pts
            (xy 1.27 -3.556)
            (xy 1.778 -3.556)
          )
          (stroke (width 0) (type default))
          (fill (type none))
        )
        (polyline
          (pts
            (xy 1.27 -2.54)
            (xy 1.778 -2.54)
          )
          (stroke (width 0) (type default))
          (fill (type none))
        )
        (polyline
          (pts
            (xy 4.699 -3.556)
            (xy 2.667 -3.556)
          )
          (stroke (width 0) (type default))
          (fill (type none))
        )
        (polyline
          (pts
            (xy 2.286 -2.54)
            (xy 1.27 -3.556)
            (xy 1.27 -3.048)
          )
          (stroke (width 0) (type default))
          (fill (type none))
        )
        (polyline
          (pts
            (xy 2.286 -1.524)
            (xy 1.27 -2.54)
            (xy 1.27 -2.032)
          )
          (stroke (width 0) (type default))
          (fill (type none))
        )
        (polyline
          (pts
            (xy 3.683 -1.016)
            (xy 3.683 -3.556)
            (xy 3.683 -4.064)
          )
          (stroke (width 0) (type default))
          (fill (type none))
        )
        (polyline
          (pts
            (xy 4.699 -1.524)
            (xy 2.667 -1.524)
            (xy 3.683 -3.556)
            (xy 4.699 -1.524)
          )
          (stroke (width 0) (type default))
          (fill (type none))
        )
        (rectangle (start 5.08 5.08) (end -5.08 -5.08)
          (stroke (width 0.254) (type default))
          (fill (type background))
        )
      )
      (symbol "WS2812_2020_1_1"
        (pin output line (at 7.62 0 180) (length 2.54)
          (name "DOUT" (effects (font (size 1.27 1.27))))
          (number "1" (effects (font (size 1.27 1.27))))
        )
        (pin power_in line (at 0 -7.62 90) (length 2.54)
          (name "VSS" (effects (font (size 1.27 1.27))))
          (number "2" (effects (font (size 1.27 1.27))))
        )
        (pin input line (at -7.62 0 0) (length 2.54)
          (name "DIN" (effects (font (size 1.27 1.27))))
          (number "3" (effects (font (size 1.27 1.27))))
        )
        (pin power_in line (at 0 7.62 270) (length 2.54)
          (name "VDD" (effects (font (size 1.27 1.27))))
          (number "4" (effects (font (size 1.27 1.27))))
        )
      )
    )
    (symbol "power:+5V" (power) (pin_names (offset 0)) (in_bom yes) (on_board yes)
      (property "Reference" "#PWR" (at 0 -3.81 0)
        (effects (font (size 1.27 1.27)) hide)
      )
      (property "Value" "+5V" (at 0 3.556 0)
        (effects (font (size 1.27 1.27)))
      )
      (property "Footprint" "" (at 0 0 0)
        (effects (font (size 1.27 1.27)) hide)
      )
      (property "Datasheet" "" (at 0 0 0)
        (effects (font (size 1.27 1.27)) hide)
      )
      (property "ki_keywords" "power-flag" (at 0 0 0)
        (effects (font (size 1.27 1.27)) hide)
      )
      (property "ki_description" "Power symbol creates a global label with name \"+5V\"" (at 0 0 0)
        (effects (font (size 1.27 1.27)) hide)
      )
      (symbol "+5V_0_1"
        (polyline
          (pts
            (xy -0.762 1.27)
            (xy 0 2.54)
          )
          (stroke (width 0) (type default))
          (fill (type none))
        )
        (polyline
          (pts
            (xy 0 0)
            (xy 0 2.54)
          )
          (stroke (width 0) (type default))
          (fill (type none))
        )
        (polyline
          (pts
            (xy 0 2.54)
            (xy 0.762 1.27)
          )
          (stroke (width 0) (type default))
          (fill (type none))
        )
      )
      (symbol "+5V_1_1"
        (pin power_in line (at 0 0 90) (length 0) hide
          (name "+5V" (effects (font (size 1.27 1.27))))
          (number "1" (effects (font (size 1.27 1.27))))
        )
      )
    )
    (symbol "power:GND" (power) (pin_names (offset 0)) (in_bom yes) (on_board yes)
      (property "Reference" "#PWR" (at 0 -6.35 0)
        (effects (font (size 1.27 1.27)) hide)
      )
      (property "Value" "GND" (at 0 -3.81 0)
        (effects (font (size 1.27 1.27)))
      )
      (property "Footprint" "" (at 0 0 0)
        (effects (font (size 1.27 1.27)) hide)
      )
      (property "Datasheet" "" (at 0 0 0)
        (effects (font (size 1.27 1.27)) hide)
      )
      (property "ki_keywords" "power-flag" (at 0 0 0)
        (effects (font (size 1.27 1.27)) hide)
      )
      (property "ki_description" "Power symbol creates a global label with name \"GND\" , ground" (at 0 0 0)
        (effects (font (size 1.27 1.27)) hide)
      )
      (symbol "GND_0_1"
        (polyline
          (pts
            (xy 0 0)
            (xy 0 -1.27)
            (xy 1.27 -1.27)
            (xy 0 -2.54)
            (xy -1.27 -1.27)
            (xy 0 -1.27)
          )
          (stroke (width 0) (type default))
          (fill (type none))
        )
      )
      (symbol "GND_1_1"
        (pin power_in line (at 0 0 270) (length 0) hide
          (name "GND" (effects (font (size 1.27 1.27))))
          (number "1" (effects (font (size 1.27 1.27))))
        )
      )
    )
  )

  (junction (at 69.85 64.135) (diameter 0) (color 0 0 0 0)
    (uuid 05740483-ac58-4aa4-96b5-dc571768ba4c)
  )
  (junction (at 35.56 64.135) (diameter 0) (color 0 0 0 0)
    (uuid 1add9cc4-5503-4fa2-beae-1050da440eb4)
  )
  (junction (at 53.34 22.86) (diameter 0) (color 0 0 0 0)
    (uuid 21622e22-c406-4e81-aba8-819f8f152f1b)
  )
  (junction (at 53.34 38.1) (diameter 0) (color 0 0 0 0)
    (uuid 22aa1c6c-d6c0-4b2b-b968-c4153572648b)
  )
  (junction (at 156.21 22.86) (diameter 0) (color 0 0 0 0)
    (uuid 2cba8257-477b-458a-8c79-904e83935412)
  )
  (junction (at 86.995 64.135) (diameter 0) (color 0 0 0 0)
    (uuid 2ebceb6e-0e19-4bd0-804f-7302202c3547)
  )
  (junction (at 121.92 38.1) (diameter 0) (color 0 0 0 0)
    (uuid 308877f0-ea2c-4ec1-ad33-697db5fca3d5)
  )
  (junction (at 70.485 22.86) (diameter 0) (color 0 0 0 0)
    (uuid 368d27e8-211a-4c81-a41d-cfc630b83d90)
  )
  (junction (at 173.355 22.86) (diameter 0) (color 0 0 0 0)
    (uuid 4e135c60-3243-4596-8fd1-19b9a5e4ea88)
  )
  (junction (at 139.065 22.86) (diameter 0) (color 0 0 0 0)
    (uuid 5b1f1d17-2fbf-47d7-957e-ed29e3a6c5e8)
  )
  (junction (at 86.995 48.895) (diameter 0) (color 0 0 0 0)
    (uuid 5d68a3c3-a252-4a11-8f72-1743a358a84e)
  )
  (junction (at 104.14 64.135) (diameter 0) (color 0 0 0 0)
    (uuid 63a7e53d-20a5-44af-be8a-ee7f233c22df)
  )
  (junction (at 121.92 22.86) (diameter 0) (color 0 0 0 0)
    (uuid 6491412c-9948-4be4-bdb3-89631e98e455)
  )
  (junction (at 36.195 22.86) (diameter 0) (color 0 0 0 0)
    (uuid 6510ca00-f8ae-41d1-a277-a47418d574ce)
  )
  (junction (at 104.775 38.1) (diameter 0) (color 0 0 0 0)
    (uuid 6b09c5d7-f763-4635-970b-b2ab172dffc9)
  )
  (junction (at 70.485 38.1) (diameter 0) (color 0 0 0 0)
    (uuid 7e745edc-ec13-47b4-9642-136e3996d135)
  )
  (junction (at 19.0943 22.86) (diameter 0) (color 0 0 0 0)
    (uuid 829bffcd-8825-4539-85d7-122808dbe64e)
  )
  (junction (at 173.355 38.1) (diameter 0) (color 0 0 0 0)
    (uuid 965e7215-2360-4b98-930e-ec2b367ab6f1)
  )
  (junction (at 104.14 48.895) (diameter 0) (color 0 0 0 0)
    (uuid a5d83e2a-ab3a-48d9-92cd-1e4acda2dca7)
  )
  (junction (at 41.275 99.06) (diameter 0) (color 0 0 0 0)
    (uuid a6d38f4a-2b13-4a4a-9f67-929cbb8cfc4b)
  )
  (junction (at 36.195 99.06) (diameter 0) (color 0 0 0 0)
    (uuid a95dd112-e238-4fb6-8924-ca420c609ffd)
  )
  (junction (at 69.85 48.895) (diameter 0) (color 0 0 0 0)
    (uuid af5a8036-368b-4a50-bc54-fba45a64e404)
  )
  (junction (at 87.63 38.1) (diameter 0) (color 0 0 0 0)
    (uuid b198c036-f91d-4cb6-8d7a-f2a92f0d3008)
  )
  (junction (at 52.705 64.135) (diameter 0) (color 0 0 0 0)
    (uuid b2e7b8d6-abd8-4f23-836f-3f996ed3c4e5)
  )
  (junction (at 104.775 22.86) (diameter 0) (color 0 0 0 0)
    (uuid c1a6f1b9-a3ee-4ec0-8be5-59d661072666)
  )
  (junction (at 156.21 38.1) (diameter 0) (color 0 0 0 0)
    (uuid c508b1a3-84de-4907-b192-7c95992c898d)
  )
  (junction (at 19.05 38.1) (diameter 0) (color 0 0 0 0)
    (uuid cdd4bdd9-fd83-40bc-9781-c559d618b8e2)
  )
  (junction (at 35.56 48.895) (diameter 0) (color 0 0 0 0)
    (uuid d60dec55-b9c2-4e6b-a652-cbb9d605b67e)
  )
  (junction (at 36.195 38.1) (diameter 0) (color 0 0 0 0)
    (uuid e18ab2a2-40b5-4400-b75f-3469346511ea)
  )
  (junction (at 139.065 38.1) (diameter 0) (color 0 0 0 0)
    (uuid ed5d9d71-89e5-4385-947e-6ef4466d5bb4)
  )
  (junction (at 87.63 22.86) (diameter 0) (color 0 0 0 0)
    (uuid f461c7bd-3a1d-4bf1-969a-78dae5bb5b9e)
  )
  (junction (at 52.705 48.895) (diameter 0) (color 0 0 0 0)
    (uuid f86d727f-2aeb-4f1f-b6a4-976e4da54be2)
  )

  (wire (pts (xy 26.035 56.515) (xy 27.94 56.515))
    (stroke (width 0) (type default))
    (uuid 0161eb45-27cd-4bef-9d7b-c18881e054c1)
  )
  (wire (pts (xy 19.0943 22.86) (xy 36.195 22.86))
    (stroke (width 0) (type default))
    (uuid 0416c23b-bbc8-4cc0-b2b7-c619df567efe)
  )
  (wire (pts (xy 104.775 38.1) (xy 121.92 38.1))
    (stroke (width 0) (type default))
    (uuid 055ce933-0009-47ad-81c9-16c333ab307b)
  )
  (wire (pts (xy 19.05 22.86) (xy 19.0943 22.86))
    (stroke (width 0) (type default))
    (uuid 0a52f5a5-a352-4299-9819-e29964f7fae0)
  )
  (wire (pts (xy 77.47 56.515) (xy 79.375 56.515))
    (stroke (width 0) (type default))
    (uuid 0ad783c4-7c0d-4344-9f73-893d762b51dc)
  )
  (wire (pts (xy 87.63 22.86) (xy 104.775 22.86))
    (stroke (width 0) (type default))
    (uuid 1846b90c-05c3-4eed-ac44-e3d67f475b2f)
  )
  (wire (pts (xy 43.18 56.515) (xy 45.085 56.515))
    (stroke (width 0) (type default))
    (uuid 1c0e15bf-461d-47e5-8c86-68a7a8558340)
  )
  (wire (pts (xy 70.485 22.86) (xy 87.63 22.86))
    (stroke (width 0) (type default))
    (uuid 28dc470c-6d19-4a6c-819c-e6bc59cd9bd1)
  )
  (wire (pts (xy 26.67 30.48) (xy 28.575 30.48))
    (stroke (width 0) (type default))
    (uuid 2bd0ba86-f8e9-4ee3-bc92-47b0606ae121)
  )
  (wire (pts (xy 87.63 38.1) (xy 104.775 38.1))
    (stroke (width 0) (type default))
    (uuid 3900b8b3-b40b-468c-9d9c-c4c523a4f595)
  )
  (wire (pts (xy 53.34 38.1) (xy 70.485 38.1))
    (stroke (width 0) (type default))
    (uuid 40039b0c-a062-4851-bf70-dbcdf5ad98e4)
  )
  (wire (pts (xy 69.85 64.135) (xy 86.995 64.135))
    (stroke (width 0) (type default))
    (uuid 449447fe-6390-4de9-b56d-4aac6461425d)
  )
  (wire (pts (xy 173.355 22.86) (xy 190.5 22.86))
    (stroke (width 0) (type default))
    (uuid 4609f6db-ef28-4bdc-b11e-29bfcba52ea2)
  )
  (wire (pts (xy 173.355 38.1) (xy 190.5 38.1))
    (stroke (width 0) (type default))
    (uuid 4714bdc5-99da-40df-aca9-dab5db7ec722)
  )
  (wire (pts (xy 156.21 38.1) (xy 173.355 38.1))
    (stroke (width 0) (type default))
    (uuid 516758fc-939b-4eb8-b476-24807122442d)
  )
  (wire (pts (xy 111.76 56.515) (xy 113.665 56.515))
    (stroke (width 0) (type default))
    (uuid 54e8c851-2d3a-4262-b780-ad03576a3b0e)
  )
  (wire (pts (xy 104.775 22.86) (xy 121.92 22.86))
    (stroke (width 0) (type default))
    (uuid 550817dd-978f-4cf6-b295-26af806f8346)
  )
  (wire (pts (xy 146.685 30.48) (xy 148.59 30.48))
    (stroke (width 0) (type default))
    (uuid 5b6179c4-f3c1-4a88-a309-ae06de803e68)
  )
  (wire (pts (xy 180.975 30.48) (xy 182.88 30.48))
    (stroke (width 0) (type default))
    (uuid 5bf2cc03-9670-4678-b779-2bb3ddfca93f)
  )
  (wire (pts (xy 112.395 30.48) (xy 114.3 30.48))
    (stroke (width 0) (type default))
    (uuid 602549fc-20e0-4910-974e-5cc56e39f4a3)
  )
  (wire (pts (xy 104.14 48.895) (xy 121.285 48.895))
    (stroke (width 0) (type default))
    (uuid 6addf33f-5155-44cc-a7a8-153a19d82d06)
  )
  (wire (pts (xy 69.85 48.895) (xy 86.995 48.895))
    (stroke (width 0) (type default))
    (uuid 6f4b09bf-328f-4b77-ba5a-e5a99ada00f1)
  )
  (wire (pts (xy 60.325 56.515) (xy 62.23 56.515))
    (stroke (width 0) (type default))
    (uuid 7dc5987b-628f-4ed3-bc67-8df97aec32a5)
  )
  (wire (pts (xy 163.83 30.48) (xy 165.735 30.48))
    (stroke (width 0) (type default))
    (uuid 8369342e-6f9b-45db-a259-9eacffafc5dc)
  )
  (wire (pts (xy 41.275 99.06) (xy 41.275 100.965))
    (stroke (width 0) (type default))
    (uuid 8756c4b0-dbb1-4525-941c-11901f164ea1)
  )
  (wire (pts (xy 41.275 97.155) (xy 41.275 99.06))
    (stroke (width 0) (type default))
    (uuid 8a2a9d25-308b-46d1-83fc-9abc6cc022a7)
  )
  (wire (pts (xy 8.255 43.815) (xy 198.12 43.815))
    (stroke (width 0) (type default))
    (uuid 8e42a993-f11e-47fd-bf82-a1c57c39ca1f)
  )
  (wire (pts (xy 60.96 30.48) (xy 62.865 30.48))
    (stroke (width 0) (type default))
    (uuid 8eee953a-3d93-4129-8e08-11610bb85389)
  )
  (wire (pts (xy 36.195 22.86) (xy 53.34 22.86))
    (stroke (width 0) (type default))
    (uuid 8f1aa4c1-c366-4e9e-9387-8892b4d3a4bc)
  )
  (wire (pts (xy 78.105 30.48) (xy 80.01 30.48))
    (stroke (width 0) (type default))
    (uuid 8f3a6b70-33a4-4af2-b57a-490302f575bf)
  )
  (wire (pts (xy 156.21 22.86) (xy 173.355 22.86))
    (stroke (width 0) (type default))
    (uuid 908c3c9d-e3e0-428c-9835-47a96801781c)
  )
  (wire (pts (xy 139.065 22.86) (xy 156.21 22.86))
    (stroke (width 0) (type default))
    (uuid 9201627f-6554-4022-ab75-c9531520ce64)
  )
  (wire (pts (xy 36.195 97.155) (xy 36.195 99.06))
    (stroke (width 0) (type default))
    (uuid 97a85656-bf87-46b4-b7c3-e0ba77fe6e9d)
  )
  (wire (pts (xy 104.14 64.135) (xy 121.285 64.135))
    (stroke (width 0) (type default))
    (uuid 97e8e9f1-a6b0-45ae-9285-3bbc99a17fb0)
  )
  (wire (pts (xy 36.195 99.06) (xy 36.195 100.965))
    (stroke (width 0) (type default))
    (uuid 993cde36-6542-45a9-add3-05bfe756e78a)
  )
  (wire (pts (xy 174.625 30.48) (xy 176.53 30.48))
    (stroke (width 0) (type default))
    (uuid 99fdf9b9-d327-4d9f-baf8-4c2eb37fb145)
  )
  (wire (pts (xy 19.05 38.1) (xy 36.195 38.1))
    (stroke (width 0) (type default))
    (uuid a4c4d4a9-feae-4517-84d6-f43382938703)
  )
  (wire (pts (xy 121.92 38.1) (xy 139.065 38.1))
    (stroke (width 0) (type default))
    (uuid ad5714e7-f6d1-4a3a-bd62-dec4f9adcd68)
  )
  (wire (pts (xy 128.905 56.515) (xy 130.81 56.515))
    (stroke (width 0) (type default))
    (uuid ada471d2-1f93-4f19-b45f-e9175823a3de)
  )
  (wire (pts (xy 35.56 48.895) (xy 52.705 48.895))
    (stroke (width 0) (type default))
    (uuid afdec7d8-e063-4dd1-9f36-51d903c7658f)
  )
  (wire (pts (xy 129.54 30.48) (xy 131.445 30.48))
    (stroke (width 0) (type default))
    (uuid b6bb2c8c-3f6f-402c-9f2d-fad4757b525b)
  )
  (wire (pts (xy 52.705 48.895) (xy 69.85 48.895))
    (stroke (width 0) (type default))
    (uuid bde40b5e-eb65-4f95-bdb0-61c136ac0aca)
  )
  (wire (pts (xy 53.34 22.86) (xy 70.485 22.86))
    (stroke (width 0) (type default))
    (uuid c00365a2-610c-430b-ab5c-b261648b4239)
  )
  (wire (pts (xy 94.615 56.515) (xy 96.52 56.515))
    (stroke (width 0) (type default))
    (uuid c1400c1f-2a62-4373-8884-dd9dda249d9b)
  )
  (wire (pts (xy 8.255 56.515) (xy 10.795 56.515))
    (stroke (width 0) (type default))
    (uuid c1dea948-88c9-405b-8878-b295be7f3d23)
  )
  (wire (pts (xy 121.92 22.86) (xy 139.065 22.86))
    (stroke (width 0) (type default))
    (uuid c787e5ae-e4ba-40b7-8089-46cad04f11f8)
  )
  (wire (pts (xy 35.56 64.135) (xy 52.705 64.135))
    (stroke (width 0) (type default))
    (uuid cb986d35-ab8c-4ead-a49b-33de04bf6e55)
  )
  (wire (pts (xy 70.485 38.1) (xy 87.63 38.1))
    (stroke (width 0) (type default))
    (uuid ce48aee0-2c70-4f8b-b505-d9cdbc326c20)
  )
  (wire (pts (xy 18.415 48.895) (xy 35.56 48.895))
    (stroke (width 0) (type default))
    (uuid ce5f0751-d01f-42e5-8174-405274a3a230)
  )
  (wire (pts (xy 95.25 30.48) (xy 97.155 30.48))
    (stroke (width 0) (type default))
    (uuid cea713f4-d824-4ad4-bc52-c809cb41b498)
  )
  (wire (pts (xy 86.995 48.895) (xy 104.14 48.895))
    (stroke (width 0) (type default))
    (uuid d2aea9d5-0315-4597-9719-98d3e071722d)
  )
  (wire (pts (xy 43.815 30.48) (xy 45.72 30.48))
    (stroke (width 0) (type default))
    (uuid d313ae2d-67b3-456d-9877-22201012866c)
  )
  (wire (pts (xy 86.995 64.135) (xy 104.14 64.135))
    (stroke (width 0) (type default))
    (uuid d41658c8-9d6e-4f53-897b-d3227ff908d7)
  )
  (wire (pts (xy 198.12 30.48) (xy 198.12 43.815))
    (stroke (width 0) (type default))
    (uuid e00cf611-a722-47f8-9cfd-85927edd0057)
  )
  (wire (pts (xy 36.195 38.1) (xy 53.34 38.1))
    (stroke (width 0) (type default))
    (uuid e9613084-d0ff-4213-b2d6-b0bdd6b5305f)
  )
  (wire (pts (xy 8.255 43.815) (xy 8.255 56.515))
    (stroke (width 0) (type default))
    (uuid ee8674c4-0dda-4072-9666-8c6a6ba32076)
  )
  (wire (pts (xy 18.415 64.135) (xy 35.56 64.135))
    (stroke (width 0) (type default))
    (uuid f27bf381-e9f2-4eb3-b79f-9c1589469076)
  )
  (wire (pts (xy 139.065 38.1) (xy 156.21 38.1))
    (stroke (width 0) (type default))
    (uuid f9af05b2-2c32-4f74-aee7-abedd9476683)
  )
  (wire (pts (xy 52.705 64.135) (xy 69.85 64.135))
    (stroke (width 0) (type default))
    (uuid fc233ae0-8f56-4a4d-a09a-6a7e1be9cf6a)
  )

  (global_label "rgb underglow" (shape input) (at 11.43 30.48 180) (fields_autoplaced)
    (effects (font (size 1.27 1.27)) (justify right))
    (uuid 0c8e926e-9345-4fc6-b1db-bc9c13cd2227)
    (property "Intersheetrefs" "${INTERSHEET_REFS}" (at -4.6507 30.4006 0)
      (effects (font (size 1.27 1.27)) (justify right) hide)
    )
  )
  (global_label "RGB MCU" (shape input) (at 26.035 111.125 180) (fields_autoplaced)
    (effects (font (size 1.27 1.27)) (justify right))
    (uuid 9a78cc42-5061-4379-be64-40962779fc0b)
    (property "Intersheetrefs" "${INTERSHEET_REFS}" (at 14.7924 111.0456 0)
      (effects (font (size 1.27 1.27)) (justify right) hide)
    )
  )
  (global_label "rgb underglow" (shape input) (at 53.975 111.125 0) (fields_autoplaced)
    (effects (font (size 1.27 1.27)) (justify left))
    (uuid f11438ab-bd6d-4a7a-b012-b89dfab1311a)
    (property "Intersheetrefs" "${INTERSHEET_REFS}" (at 70.3425 111.125 0)
      (effects (font (size 1.27 1.27)) (justify left) hide)
    )
  )

  (symbol (lib_id "PCM_marbastlib-various:WS2812_2020") (at 121.285 56.515 0) (unit 1)
    (in_bom yes) (on_board yes) (dnp no) (fields_autoplaced)
    (uuid 060ebd2d-620d-4c0c-bd95-0ad55b782833)
    (property "Reference" "LED6" (at 133.35 53.3006 0)
      (effects (font (size 0.7366 0.7366)))
    )
    (property "Value" "WS2812_2020" (at 122.555 62.23 0)
      (effects (font (size 1.27 1.27)) (justify left top) hide)
    )
    (property "Footprint" "PCM_marbastlib-various:LED_WS2812_2020" (at 122.555 64.135 0)
      (effects (font (size 1.27 1.27)) (justify left top) hide)
    )
    (property "Datasheet" "https://www.world-semi.com/DownLoadFile/139" (at 123.825 66.04 0)
      (effects (font (size 1.27 1.27)) (justify left top) hide)
    )
    (pin "1" (uuid 03dfa7d4-2bb1-4487-b5bc-561f72974133))
    (pin "2" (uuid d380c7de-4633-4d54-8ba3-05344732e70e))
    (pin "3" (uuid f9e4a072-0931-43cd-866a-94bfc311c623))
    (pin "4" (uuid 108481e9-3605-4d11-828a-2b42e3263c24))
    (instances
      (project "alpha-curISO"
        (path "/deb012b3-dbea-4e93-8127-2c26b2f435e8"
          (reference "LED6") (unit 1)
        )
      )
      (project "forti"
        (path "/f5e5948c-eeca-4160-a5f8-686f765d01ce/e6653766-2baf-4211-883c-2657a68ea9e7"
          (reference "LED18") (unit 1)
        )
      )
    )
  )

  (symbol (lib_id "PCM_marbastlib-various:WS2812_2020") (at 52.705 56.515 0) (unit 1)
    (in_bom yes) (on_board yes) (dnp no) (fields_autoplaced)
    (uuid 11f6bcd1-36a4-45b7-8ac9-66f278d9e22d)
    (property "Reference" "LED12" (at 64.77 53.3006 0)
      (effects (font (size 0.7366 0.7366)))
    )
    (property "Value" "WS2812_2020" (at 53.975 62.23 0)
      (effects (font (size 1.27 1.27)) (justify left top) hide)
    )
    (property "Footprint" "PCM_marbastlib-various:LED_WS2812_2020" (at 53.975 64.135 0)
      (effects (font (size 1.27 1.27)) (justify left top) hide)
    )
    (property "Datasheet" "https://www.world-semi.com/DownLoadFile/139" (at 55.245 66.04 0)
      (effects (font (size 1.27 1.27)) (justify left top) hide)
    )
    (pin "1" (uuid e05ed405-6e74-4d03-b7bc-c00e34d6b45a))
    (pin "2" (uuid ccae142d-f424-4dab-8aa4-4c2a711bc0d8))
    (pin "3" (uuid c60fa7eb-cc19-4d9d-900c-8f1cf05def65))
    (pin "4" (uuid 8f84d7d5-a5a3-4699-ad68-1d351a06df07))
    (instances
      (project "alpha-curISO"
        (path "/deb012b3-dbea-4e93-8127-2c26b2f435e8"
          (reference "LED12") (unit 1)
        )
      )
      (project "forti"
        (path "/f5e5948c-eeca-4160-a5f8-686f765d01ce/e6653766-2baf-4211-883c-2657a68ea9e7"
          (reference "LED14") (unit 1)
        )
      )
    )
  )

  (symbol (lib_id "PCM_marbastlib-various:WS2812_2020") (at 190.5 30.48 0) (unit 1)
    (in_bom yes) (on_board yes) (dnp no) (fields_autoplaced)
    (uuid 19630938-98ff-4027-ae5b-9030dee0fd1b)
    (property "Reference" "LED15" (at 202.565 27.2656 0)
      (effects (font (size 0.7366 0.7366)))
    )
    (property "Value" "WS2812_2020" (at 191.77 36.195 0)
      (effects (font (size 1.27 1.27)) (justify left top) hide)
    )
    (property "Footprint" "PCM_marbastlib-various:LED_WS2812_2020" (at 191.77 38.1 0)
      (effects (font (size 1.27 1.27)) (justify left top) hide)
    )
    (property "Datasheet" "https://www.world-semi.com/DownLoadFile/139" (at 193.04 40.005 0)
      (effects (font (size 1.27 1.27)) (justify left top) hide)
    )
    (pin "1" (uuid a49d0a17-4cb3-46a5-8228-e298bf67e97e))
    (pin "2" (uuid 1666a88b-1bc7-44fb-947d-58b372229b11))
    (pin "3" (uuid b79ee5ae-887f-4389-a93b-084c1b33ee94))
    (pin "4" (uuid cabc64b4-a208-49a5-8d43-e1148d25d422))
    (instances
      (project "alpha-curISO"
        (path "/deb012b3-dbea-4e93-8127-2c26b2f435e8"
          (reference "LED15") (unit 1)
        )
      )
      (project "forti"
        (path "/f5e5948c-eeca-4160-a5f8-686f765d01ce/e6653766-2baf-4211-883c-2657a68ea9e7"
          (reference "LED11") (unit 1)
        )
      )
    )
  )

  (symbol (lib_id "power:+5V") (at 69.85 48.895 0) (unit 1)
    (in_bom yes) (on_board yes) (dnp no)
    (uuid 1a648aed-e7df-4ef0-be82-4938131c479c)
    (property "Reference" "#PWR0141" (at 69.85 52.705 0)
      (effects (font (size 1.27 1.27)) hide)
    )
    (property "Value" "+5V" (at 72.39 46.355 0)
      (effects (font (size 1.27 1.27)))
    )
    (property "Footprint" "" (at 69.85 48.895 0)
      (effects (font (size 1.27 1.27)) hide)
    )
    (property "Datasheet" "" (at 69.85 48.895 0)
      (effects (font (size 1.27 1.27)) hide)
    )
    (pin "1" (uuid adbc3c1d-49f9-4583-8a89-ada4f16e4ade))
    (instances
      (project "alpha-curISO"
        (path "/deb012b3-dbea-4e93-8127-2c26b2f435e8"
          (reference "#PWR0141") (unit 1)
        )
      )
      (project "forti"
        (path "/f5e5948c-eeca-4160-a5f8-686f765d01ce/e6653766-2baf-4211-883c-2657a68ea9e7"
          (reference "#PWR021") (unit 1)
        )
      )
    )
  )

  (symbol (lib_id "PCM_marbastlib-various:WS2812_2020") (at 19.05 30.48 0) (unit 1)
    (in_bom yes) (on_board yes) (dnp no) (fields_autoplaced)
    (uuid 1f78caa7-e8eb-4a71-9455-6a9a30fe9df3)
    (property "Reference" "LED4" (at 31.115 27.2656 0)
      (effects (font (size 0.7366 0.7366)))
    )
    (property "Value" "WS2812_2020" (at 20.32 36.195 0)
      (effects (font (size 1.27 1.27)) (justify left top) hide)
    )
    (property "Footprint" "PCM_marbastlib-various:LED_WS2812_2020" (at 20.32 38.1 0)
      (effects (font (size 1.27 1.27)) (justify left top) hide)
    )
    (property "Datasheet" "https://www.world-semi.com/DownLoadFile/139" (at 21.59 40.005 0)
      (effects (font (size 1.27 1.27)) (justify left top) hide)
    )
    (pin "1" (uuid d9883e01-499f-4836-9aed-7decee406167))
    (pin "2" (uuid 0e33e047-e65c-4882-b6f2-cf9508a16561))
    (pin "3" (uuid 2b0b3ec0-5c2c-4240-81cd-63b741773286))
    (pin "4" (uuid 87816036-5189-4219-86c5-0a2dbe2d8af5))
    (instances
      (project "alpha-curISO"
        (path "/deb012b3-dbea-4e93-8127-2c26b2f435e8"
          (reference "LED4") (unit 1)
        )
      )
      (project "forti"
        (path "/f5e5948c-eeca-4160-a5f8-686f765d01ce/e6653766-2baf-4211-883c-2657a68ea9e7"
          (reference "LED1") (unit 1)
        )
      )
    )
  )

  (symbol (lib_id "power:+5V") (at 36.195 97.155 0) (unit 1)
    (in_bom yes) (on_board yes) (dnp no)
    (uuid 2188621c-0bee-4d1d-83ba-7d2f670ec218)
    (property "Reference" "#PWR0138" (at 36.195 100.965 0)
      (effects (font (size 1.27 1.27)) hide)
    )
    (property "Value" "+5V" (at 36.195 92.075 0)
      (effects (font (size 1.27 1.27)))
    )
    (property "Footprint" "" (at 36.195 97.155 0)
      (effects (font (size 1.27 1.27)) hide)
    )
    (property "Datasheet" "" (at 36.195 97.155 0)
      (effects (font (size 1.27 1.27)) hide)
    )
    (pin "1" (uuid 674231c2-0a52-4f2d-b90d-8bd7d188052e))
    (instances
      (project "rgb"
        (path "/49d162ca-58ee-4ca6-ab57-6fad702e6d5a"
          (reference "#PWR0138") (unit 1)
        )
      )
      (project "forti"
        (path "/f5e5948c-eeca-4160-a5f8-686f765d01ce/e6653766-2baf-4211-883c-2657a68ea9e7"
          (reference "#PWR023") (unit 1)
        )
      )
      (project "UB46"
        (path "/f9f7fe3c-d5b8-40e6-8b7b-c50d4f2d364c/4cdbf44e-443f-4cb4-8391-d69d00a86580"
          (reference "#PWR0138") (unit 1)
        )
      )
    )
  )

  (symbol (lib_id "Device:C_Small") (at 38.735 99.06 270) (unit 1)
    (in_bom yes) (on_board yes) (dnp no)
    (uuid 26125435-860c-4928-875e-a87ca8054137)
    (property "Reference" "C18" (at 43.815 100.3362 90)
      (effects (font (size 1.27 1.27)) (justify left))
    )
    (property "Value" "100nF" (at 43.815 102.87 90)
      (effects (font (size 1.27 1.27)) (justify left))
    )
    (property "Footprint" "Capacitor_SMD:C_0603_1608Metric" (at 38.735 99.06 0)
      (effects (font (size 1.27 1.27)) hide)
    )
    (property "Datasheet" "~" (at 38.735 99.06 0)
      (effects (font (size 1.27 1.27)) hide)
    )
    (pin "1" (uuid a56763a8-c765-4c10-bca8-d1be715b12b5))
    (pin "2" (uuid d2bcabed-8bc0-4018-9db7-29ed98cb1651))
    (instances
      (project "rgb"
        (path "/49d162ca-58ee-4ca6-ab57-6fad702e6d5a"
          (reference "C18") (unit 1)
        )
      )
      (project "forti"
        (path "/f5e5948c-eeca-4160-a5f8-686f765d01ce/e6653766-2baf-4211-883c-2657a68ea9e7"
          (reference "C10") (unit 1)
        )
      )
      (project "UB46"
        (path "/f9f7fe3c-d5b8-40e6-8b7b-c50d4f2d364c/4cdbf44e-443f-4cb4-8391-d69d00a86580"
          (reference "C18") (unit 1)
        )
      )
    )
  )

  (symbol (lib_id "PCM_marbastlib-various:WS2812_2020") (at 173.355 30.48 0) (unit 1)
    (in_bom yes) (on_board yes) (dnp no) (fields_autoplaced)
    (uuid 26f7d2ac-74cf-4e29-a944-318bafbc9e9a)
    (property "Reference" "LED4" (at 185.42 27.2656 0)
      (effects (font (size 0.7366 0.7366)))
    )
    (property "Value" "WS2812_2020" (at 174.625 36.195 0)
      (effects (font (size 1.27 1.27)) (justify left top) hide)
    )
    (property "Footprint" "PCM_marbastlib-various:LED_WS2812_2020" (at 174.625 38.1 0)
      (effects (font (size 1.27 1.27)) (justify left top) hide)
    )
    (property "Datasheet" "https://www.world-semi.com/DownLoadFile/139" (at 175.895 40.005 0)
      (effects (font (size 1.27 1.27)) (justify left top) hide)
    )
    (pin "1" (uuid 3923a6cd-e8ab-4437-a01b-6c67932694ff))
    (pin "2" (uuid d84eea81-674d-45d5-95e0-ce74f6ec2626))
    (pin "3" (uuid af503c11-40b4-468f-98c2-7e5a8e805902))
    (pin "4" (uuid ac868737-162c-4d5b-a0d9-d20b37ed03d0))
    (instances
      (project "alpha-curISO"
        (path "/deb012b3-dbea-4e93-8127-2c26b2f435e8"
          (reference "LED4") (unit 1)
        )
      )
      (project "forti"
        (path "/f5e5948c-eeca-4160-a5f8-686f765d01ce/e6653766-2baf-4211-883c-2657a68ea9e7"
          (reference "LED10") (unit 1)
        )
      )
    )
  )

  (symbol (lib_id "PCM_marbastlib-various:WS2812_2020") (at 35.56 56.515 0) (unit 1)
    (in_bom yes) (on_board yes) (dnp no)
    (uuid 376cc12e-1cdd-4c91-8d23-d1c1d5354e3a)
    (property "Reference" "LED13" (at 42.545 52.705 0)
      (effects (font (size 0.7366 0.7366)))
    )
    (property "Value" "WS2812_2020" (at 36.83 62.23 0)
      (effects (font (size 1.27 1.27)) (justify left top) hide)
    )
    (property "Footprint" "PCM_marbastlib-various:LED_WS2812_2020" (at 36.83 64.135 0)
      (effects (font (size 1.27 1.27)) (justify left top) hide)
    )
    (property "Datasheet" "https://www.world-semi.com/DownLoadFile/139" (at 38.1 66.04 0)
      (effects (font (size 1.27 1.27)) (justify left top) hide)
    )
    (pin "1" (uuid 87d3070f-439f-46da-ad19-73331af0b306))
    (pin "2" (uuid ff58d5fb-cb85-46ba-b5e3-660ef8579035))
    (pin "3" (uuid f9e75cfa-c01f-453d-ab4c-7d50476408fb))
    (pin "4" (uuid bebbe63a-710c-40dc-bfbd-21e761b1896f))
    (instances
      (project "alpha-curISO"
        (path "/deb012b3-dbea-4e93-8127-2c26b2f435e8"
          (reference "LED13") (unit 1)
        )
      )
      (project "forti"
        (path "/f5e5948c-eeca-4160-a5f8-686f765d01ce/e6653766-2baf-4211-883c-2657a68ea9e7"
          (reference "LED13") (unit 1)
        )
      )
    )
  )

  (symbol (lib_id "power:GND") (at 36.195 121.285 0) (unit 1)
    (in_bom yes) (on_board yes) (dnp no) (fields_autoplaced)
    (uuid 425a3035-e466-4f78-806d-37bc0a9d2a17)
    (property "Reference" "#PWR0136" (at 36.195 127.635 0)
      (effects (font (size 1.27 1.27)) hide)
    )
    (property "Value" "GND" (at 36.195 125.73 0)
      (effects (font (size 1.27 1.27)))
    )
    (property "Footprint" "" (at 36.195 121.285 0)
      (effects (font (size 1.27 1.27)) hide)
    )
    (property "Datasheet" "" (at 36.195 121.285 0)
      (effects (font (size 1.27 1.27)) hide)
    )
    (pin "1" (uuid 89667afd-8cf5-4682-971a-1fd97e266824))
    (instances
      (project "rgb"
        (path "/49d162ca-58ee-4ca6-ab57-6fad702e6d5a"
          (reference "#PWR0136") (unit 1)
        )
      )
      (project "forti"
        (path "/f5e5948c-eeca-4160-a5f8-686f765d01ce/e6653766-2baf-4211-883c-2657a68ea9e7"
          (reference "#PWR025") (unit 1)
        )
      )
      (project "UB46"
        (path "/f9f7fe3c-d5b8-40e6-8b7b-c50d4f2d364c/4cdbf44e-443f-4cb4-8391-d69d00a86580"
          (reference "#PWR0136") (unit 1)
        )
      )
    )
  )

  (symbol (lib_id "PCM_marbastlib-various:WS2812_2020") (at 156.21 30.48 0) (unit 1)
    (in_bom yes) (on_board yes) (dnp no) (fields_autoplaced)
    (uuid 4773dde9-9ea3-4886-983d-f14364fca32e)
    (property "Reference" "LED4" (at 168.275 27.2656 0)
      (effects (font (size 0.7366 0.7366)))
    )
    (property "Value" "WS2812_2020" (at 157.48 36.195 0)
      (effects (font (size 1.27 1.27)) (justify left top) hide)
    )
    (property "Footprint" "PCM_marbastlib-various:LED_WS2812_2020" (at 157.48 38.1 0)
      (effects (font (size 1.27 1.27)) (justify left top) hide)
    )
    (property "Datasheet" "https://www.world-semi.com/DownLoadFile/139" (at 158.75 40.005 0)
      (effects (font (size 1.27 1.27)) (justify left top) hide)
    )
    (pin "1" (uuid 9a85c143-4662-4d77-a368-02ff410018f7))
    (pin "2" (uuid 5d126103-9ada-4f6a-8643-2de6b247c8ed))
    (pin "3" (uuid 492d92b1-e495-4bb5-9cf1-7cbb058f4e36))
    (pin "4" (uuid 882a5ee3-b553-465a-8806-3c1468144070))
    (instances
      (project "alpha-curISO"
        (path "/deb012b3-dbea-4e93-8127-2c26b2f435e8"
          (reference "LED4") (unit 1)
        )
      )
      (project "forti"
        (path "/f5e5948c-eeca-4160-a5f8-686f765d01ce/e6653766-2baf-4211-883c-2657a68ea9e7"
          (reference "LED9") (unit 1)
        )
      )
    )
  )

  (symbol (lib_id "PCM_marbastlib-various:WS2812_2020") (at 36.195 30.48 0) (unit 1)
    (in_bom yes) (on_board yes) (dnp no) (fields_autoplaced)
    (uuid 55bbc250-fdf7-4ae6-bd6f-50de5c70ca95)
    (property "Reference" "LED11" (at 48.26 27.2656 0)
      (effects (font (size 0.7366 0.7366)))
    )
    (property "Value" "WS2812_2020" (at 37.465 36.195 0)
      (effects (font (size 1.27 1.27)) (justify left top) hide)
    )
    (property "Footprint" "PCM_marbastlib-various:LED_WS2812_2020" (at 37.465 38.1 0)
      (effects (font (size 1.27 1.27)) (justify left top) hide)
    )
    (property "Datasheet" "https://www.world-semi.com/DownLoadFile/139" (at 38.735 40.005 0)
      (effects (font (size 1.27 1.27)) (justify left top) hide)
    )
    (pin "1" (uuid 9a937773-a80b-438d-915f-9afd542722e8))
    (pin "2" (uuid 8f67cae3-5b72-4a71-8f38-86ee1bfd064f))
    (pin "3" (uuid fb4b091b-f586-4e8b-957d-08ada542c2e5))
    (pin "4" (uuid 3074005a-28c7-4699-aaa3-66f283ec0483))
    (instances
      (project "alpha-curISO"
        (path "/deb012b3-dbea-4e93-8127-2c26b2f435e8"
          (reference "LED11") (unit 1)
        )
      )
      (project "forti"
        (path "/f5e5948c-eeca-4160-a5f8-686f765d01ce/e6653766-2baf-4211-883c-2657a68ea9e7"
          (reference "LED2") (unit 1)
        )
      )
    )
  )

  (symbol (lib_name "GND_1") (lib_id "power:GND") (at 19.05 38.1 0) (unit 1)
    (in_bom yes) (on_board yes) (dnp no)
    (uuid 62585604-f33f-4e81-b876-b1f51290f1b9)
    (property "Reference" "#PWR0140" (at 19.05 44.45 0)
      (effects (font (size 1.27 1.27)) hide)
    )
    (property "Value" "GND" (at 26.035 40.64 0)
      (effects (font (size 1.27 1.27)))
    )
    (property "Footprint" "" (at 19.05 38.1 0)
      (effects (font (size 1.27 1.27)) hide)
    )
    (property "Datasheet" "" (at 19.05 38.1 0)
      (effects (font (size 1.27 1.27)) hide)
    )
    (pin "1" (uuid 7c7f632a-91bb-4a85-bab3-ba0518f23aaa))
    (instances
      (project "alpha-curISO"
        (path "/deb012b3-dbea-4e93-8127-2c26b2f435e8"
          (reference "#PWR0140") (unit 1)
        )
      )
      (project "forti"
        (path "/f5e5948c-eeca-4160-a5f8-686f765d01ce/e6653766-2baf-4211-883c-2657a68ea9e7"
          (reference "#PWR020") (unit 1)
        )
      )
    )
  )

  (symbol (lib_id "power:+5V") (at 19.0943 22.86 0) (unit 1)
    (in_bom yes) (on_board yes) (dnp no)
    (uuid 63139f90-6e7e-48f9-b00e-b3e2c5a94ab2)
    (property "Reference" "#PWR0141" (at 19.0943 26.67 0)
      (effects (font (size 1.27 1.27)) hide)
    )
    (property "Value" "+5V" (at 15.24 20.32 0)
      (effects (font (size 1.27 1.27)))
    )
    (property "Footprint" "" (at 19.0943 22.86 0)
      (effects (font (size 1.27 1.27)) hide)
    )
    (property "Datasheet" "" (at 19.0943 22.86 0)
      (effects (font (size 1.27 1.27)) hide)
    )
    (pin "1" (uuid ff9672f5-0b2e-44a7-b79f-390f4d67add3))
    (instances
      (project "alpha-curISO"
        (path "/deb012b3-dbea-4e93-8127-2c26b2f435e8"
          (reference "#PWR0141") (unit 1)
        )
      )
      (project "forti"
        (path "/f5e5948c-eeca-4160-a5f8-686f765d01ce/e6653766-2baf-4211-883c-2657a68ea9e7"
          (reference "#PWR019") (unit 1)
        )
      )
    )
  )

  (symbol (lib_name "GND_1") (lib_id "power:GND") (at 69.85 64.135 0) (unit 1)
    (in_bom yes) (on_board yes) (dnp no)
    (uuid 6fb566d9-fe87-4522-81c4-9092816a9bad)
    (property "Reference" "#PWR0140" (at 69.85 70.485 0)
      (effects (font (size 1.27 1.27)) hide)
    )
    (property "Value" "GND" (at 73.66 65.405 0)
      (effects (font (size 1.27 1.27)))
    )
    (property "Footprint" "" (at 69.85 64.135 0)
      (effects (font (size 1.27 1.27)) hide)
    )
    (property "Datasheet" "" (at 69.85 64.135 0)
      (effects (font (size 1.27 1.27)) hide)
    )
    (pin "1" (uuid e8f2a856-a92b-4b9b-8f67-870e6f8b2e9b))
    (instances
      (project "alpha-curISO"
        (path "/deb012b3-dbea-4e93-8127-2c26b2f435e8"
          (reference "#PWR0140") (unit 1)
        )
      )
      (project "forti"
        (path "/f5e5948c-eeca-4160-a5f8-686f765d01ce/e6653766-2baf-4211-883c-2657a68ea9e7"
          (reference "#PWR022") (unit 1)
        )
      )
    )
  )

  (symbol (lib_id "PCM_marbastlib-various:WS2812_2020") (at 104.775 30.48 0) (unit 1)
    (in_bom yes) (on_board yes) (dnp no)
    (uuid 7699b7d1-9c94-43c6-84a6-b970febf7016)
    (property "Reference" "LED7" (at 138.43 27.2656 0)
      (effects (font (size 0.7366 0.7366)))
    )
    (property "Value" "WS2812_2020" (at 106.045 36.195 0)
      (effects (font (size 1.27 1.27)) (justify left top) hide)
    )
    (property "Footprint" "PCM_marbastlib-various:LED_WS2812_2020" (at 106.045 38.1 0)
      (effects (font (size 1.27 1.27)) (justify left top) hide)
    )
    (property "Datasheet" "https://www.world-semi.com/DownLoadFile/139" (at 107.315 40.005 0)
      (effects (font (size 1.27 1.27)) (justify left top) hide)
    )
    (pin "1" (uuid 716b7018-a223-4b54-83ee-028497524b9e))
    (pin "2" (uuid c65d1990-d8df-4f8a-abf8-861b934b7bc2))
    (pin "3" (uuid 87547147-949b-474e-b40d-ea01ee713867))
    (pin "4" (uuid 2e8fc532-609c-4d2d-80bc-26ef85d053a0))
    (instances
      (project "alpha-curISO"
        (path "/deb012b3-dbea-4e93-8127-2c26b2f435e8"
          (reference "LED7") (unit 1)
        )
      )
      (project "forti"
        (path "/f5e5948c-eeca-4160-a5f8-686f765d01ce/e6653766-2baf-4211-883c-2657a68ea9e7"
          (reference "LED6") (unit 1)
        )
      )
    )
  )

  (symbol (lib_id "74xGxx:74AHCT1G125") (at 41.275 111.125 0) (unit 1)
    (in_bom yes) (on_board yes) (dnp no)
    (uuid a34d9956-b86a-461c-a50d-643324f320a3)
    (property "Reference" "U5" (at 52.705 116.205 0)
      (effects (font (size 1.27 1.27)))
    )
    (property "Value" "74AHCT1G125" (at 52.705 118.745 0)
      (effects (font (size 1.27 1.27)))
    )
    (property "Footprint" "Package_TO_SOT_SMD:TSOT-23-5" (at 41.275 114.935 0)
      (effects (font (size 1.27 1.27)) hide)
    )
    (property "Datasheet" "http://www.ti.com/lit/sg/scyt129e/scyt129e.pdf" (at 41.275 117.475 0)
      (effects (font (size 1.27 1.27)) hide)
    )
    (pin "1" (uuid 843b62cd-d748-496c-93a9-8794a0239b06))
    (pin "2" (uuid 6661f9d8-36be-4229-abea-3325089b34d6))
    (pin "3" (uuid bfc38f71-9e46-45d8-a3dd-4ab23aed5b43))
    (pin "4" (uuid 4f2ff628-e259-4302-8c0e-595b711eaa45))
    (pin "5" (uuid e346dc3d-f4b1-40d9-bb3a-3e9de44991a9))
    (instances
      (project "rgb"
        (path "/49d162ca-58ee-4ca6-ab57-6fad702e6d5a"
          (reference "U5") (unit 1)
        )
      )
      (project "forti"
        (path "/f5e5948c-eeca-4160-a5f8-686f765d01ce/e6653766-2baf-4211-883c-2657a68ea9e7"
          (reference "U4") (unit 1)
        )
      )
      (project "UB46"
        (path "/f9f7fe3c-d5b8-40e6-8b7b-c50d4f2d364c/4cdbf44e-443f-4cb4-8391-d69d00a86580"
          (reference "U5") (unit 1)
        )
      )
    )
  )

  (symbol (lib_id "PCM_marbastlib-various:WS2812_2020") (at 70.485 30.48 0) (unit 1)
    (in_bom yes) (on_board yes) (dnp no) (fields_autoplaced)
    (uuid d1445bc5-7f59-4bd8-b1c1-202a62a41eed)
    (property "Reference" "LED8" (at 82.55 27.2656 0)
      (effects (font (size 0.7366 0.7366)))
    )
    (property "Value" "WS2812_2020" (at 71.755 36.195 0)
      (effects (font (size 1.27 1.27)) (justify left top) hide)
    )
    (property "Footprint" "PCM_marbastlib-various:LED_WS2812_2020" (at 71.755 38.1 0)
      (effects (font (size 1.27 1.27)) (justify left top) hide)
    )
    (property "Datasheet" "https://www.world-semi.com/DownLoadFile/139" (at 73.025 40.005 0)
      (effects (font (size 1.27 1.27)) (justify left top) hide)
    )
    (pin "1" (uuid 137fa39f-7da3-4d60-a4c1-4876f40a09a1))
    (pin "2" (uuid dc010e45-89bc-4c53-9e4f-e5ec345c8ddc))
    (pin "3" (uuid 96854343-8ac7-4726-9941-62c139d4a7a3))
    (pin "4" (uuid 970850b5-ed84-4f20-985b-7a58e18fe42e))
    (instances
      (project "alpha-curISO"
        (path "/deb012b3-dbea-4e93-8127-2c26b2f435e8"
          (reference "LED8") (unit 1)
        )
      )
      (project "forti"
        (path "/f5e5948c-eeca-4160-a5f8-686f765d01ce/e6653766-2baf-4211-883c-2657a68ea9e7"
          (reference "LED4") (unit 1)
        )
      )
    )
  )

  (symbol (lib_id "PCM_marbastlib-various:WS2812_2020") (at 87.63 30.48 0) (unit 1)
    (in_bom yes) (on_board yes) (dnp no) (fields_autoplaced)
    (uuid d3a58b83-2835-4358-a638-b48daacd922b)
    (property "Reference" "LED8" (at 99.695 27.2656 0)
      (effects (font (size 0.7366 0.7366)))
    )
    (property "Value" "WS2812_2020" (at 88.9 36.195 0)
      (effects (font (size 1.27 1.27)) (justify left top) hide)
    )
    (property "Footprint" "PCM_marbastlib-various:LED_WS2812_2020" (at 88.9 38.1 0)
      (effects (font (size 1.27 1.27)) (justify left top) hide)
    )
    (property "Datasheet" "https://www.world-semi.com/DownLoadFile/139" (at 90.17 40.005 0)
      (effects (font (size 1.27 1.27)) (justify left top) hide)
    )
    (pin "1" (uuid 0f0c7343-6b52-4753-a566-cfca28cb98de))
    (pin "2" (uuid 9da7b998-82b4-43a0-9f66-1549ee9d1d9e))
    (pin "3" (uuid 9b7723a0-c78f-4979-8d14-14e87465c130))
    (pin "4" (uuid 5597c671-23e9-4391-b951-c48133ccc3f0))
    (instances
      (project "alpha-curISO"
        (path "/deb012b3-dbea-4e93-8127-2c26b2f435e8"
          (reference "LED8") (unit 1)
        )
      )
      (project "forti"
        (path "/f5e5948c-eeca-4160-a5f8-686f765d01ce/e6653766-2baf-4211-883c-2657a68ea9e7"
          (reference "LED5") (unit 1)
        )
      )
    )
  )

  (symbol (lib_id "PCM_marbastlib-various:WS2812_2020") (at 18.415 56.515 0) (unit 1)
    (in_bom yes) (on_board yes) (dnp no) (fields_autoplaced)
    (uuid d847c69a-63c2-464d-b58f-5ef367ca8d87)
    (property "Reference" "LED14" (at 30.48 53.3006 0)
      (effects (font (size 0.7366 0.7366)))
    )
    (property "Value" "WS2812_2020" (at 19.685 62.23 0)
      (effects (font (size 1.27 1.27)) (justify left top) hide)
    )
    (property "Footprint" "PCM_marbastlib-various:LED_WS2812_2020" (at 19.685 64.135 0)
      (effects (font (size 1.27 1.27)) (justify left top) hide)
    )
    (property "Datasheet" "https://www.world-semi.com/DownLoadFile/139" (at 20.955 66.04 0)
      (effects (font (size 1.27 1.27)) (justify left top) hide)
    )
    (pin "1" (uuid f81e070e-484b-4c10-924d-f03704c3370f))
    (pin "2" (uuid 8fb7baee-a5c7-4b01-8bab-0e3cdc9904b4))
    (pin "3" (uuid 0fd50891-dc60-4a9b-840c-42fcf00d6cdd))
    (pin "4" (uuid 73043ef4-1b36-4d54-bac2-beecf093fff8))
    (instances
      (project "alpha-curISO"
        (path "/deb012b3-dbea-4e93-8127-2c26b2f435e8"
          (reference "LED14") (unit 1)
        )
      )
      (project "forti"
        (path "/f5e5948c-eeca-4160-a5f8-686f765d01ce/e6653766-2baf-4211-883c-2657a68ea9e7"
          (reference "LED12") (unit 1)
        )
      )
    )
  )

  (symbol (lib_id "power:GND") (at 41.275 97.155 180) (unit 1)
    (in_bom yes) (on_board yes) (dnp no)
    (uuid d95ff2d2-2156-4286-9905-9cd4f0bad498)
    (property "Reference" "#PWR0137" (at 41.275 90.805 0)
      (effects (font (size 1.27 1.27)) hide)
    )
    (property "Value" "GND" (at 39.37 92.075 0)
      (effects (font (size 1.27 1.27)) (justify right))
    )
    (property "Footprint" "" (at 41.275 97.155 0)
      (effects (font (size 1.27 1.27)) hide)
    )
    (property "Datasheet" "" (at 41.275 97.155 0)
      (effects (font (size 1.27 1.27)) hide)
    )
    (pin "1" (uuid c3a1f172-6702-40e4-81f6-6061fd1d8b50))
    (instances
      (project "rgb"
        (path "/49d162ca-58ee-4ca6-ab57-6fad702e6d5a"
          (reference "#PWR0137") (unit 1)
        )
      )
      (project "forti"
        (path "/f5e5948c-eeca-4160-a5f8-686f765d01ce/e6653766-2baf-4211-883c-2657a68ea9e7"
          (reference "#PWR024") (unit 1)
        )
      )
      (project "UB46"
        (path "/f9f7fe3c-d5b8-40e6-8b7b-c50d4f2d364c/4cdbf44e-443f-4cb4-8391-d69d00a86580"
          (reference "#PWR0137") (unit 1)
        )
      )
    )
  )

  (symbol (lib_id "PCM_marbastlib-various:WS2812_2020") (at 121.92 30.48 0) (unit 1)
    (in_bom yes) (on_board yes) (dnp no) (fields_autoplaced)
    (uuid d963b451-c657-47d5-80f2-00b3d4c60346)
    (property "Reference" "LED6" (at 133.985 27.2656 0)
      (effects (font (size 0.7366 0.7366)))
    )
    (property "Value" "WS2812_2020" (at 123.19 36.195 0)
      (effects (font (size 1.27 1.27)) (justify left top) hide)
    )
    (property "Footprint" "PCM_marbastlib-various:LED_WS2812_2020" (at 123.19 38.1 0)
      (effects (font (size 1.27 1.27)) (justify left top) hide)
    )
    (property "Datasheet" "https://www.world-semi.com/DownLoadFile/139" (at 124.46 40.005 0)
      (effects (font (size 1.27 1.27)) (justify left top) hide)
    )
    (pin "1" (uuid 5a286a4c-cc57-45bb-975f-53a311be24ad))
    (pin "2" (uuid 08055a37-5592-4ace-aa27-977dd2575175))
    (pin "3" (uuid 0ecb33e5-b25b-4699-b762-90917d089dc6))
    (pin "4" (uuid fd4f30f5-234c-451d-8d77-d255221cf0ae))
    (instances
      (project "alpha-curISO"
        (path "/deb012b3-dbea-4e93-8127-2c26b2f435e8"
          (reference "LED6") (unit 1)
        )
      )
      (project "forti"
        (path "/f5e5948c-eeca-4160-a5f8-686f765d01ce/e6653766-2baf-4211-883c-2657a68ea9e7"
          (reference "LED7") (unit 1)
        )
      )
    )
  )

  (symbol (lib_id "PCM_marbastlib-various:WS2812_2020") (at 53.34 30.48 0) (unit 1)
    (in_bom yes) (on_board yes) (dnp no) (fields_autoplaced)
    (uuid e20599d8-8a0e-4436-b8bc-2d89414c4c37)
    (property "Reference" "LED10" (at 65.405 27.2656 0)
      (effects (font (size 0.7366 0.7366)))
    )
    (property "Value" "WS2812_2020" (at 54.61 36.195 0)
      (effects (font (size 1.27 1.27)) (justify left top) hide)
    )
    (property "Footprint" "PCM_marbastlib-various:LED_WS2812_2020" (at 54.61 38.1 0)
      (effects (font (size 1.27 1.27)) (justify left top) hide)
    )
    (property "Datasheet" "https://www.world-semi.com/DownLoadFile/139" (at 55.88 40.005 0)
      (effects (font (size 1.27 1.27)) (justify left top) hide)
    )
    (pin "1" (uuid cac41d16-3b30-470e-8af5-455c65d43bb7))
    (pin "2" (uuid 922de859-506c-4c70-8e72-7f3ba9330eb9))
    (pin "3" (uuid 5fa24f92-b0f2-4c86-bc06-dde8d138196a))
    (pin "4" (uuid c1e84f00-5f74-4c37-b799-e18772ba6890))
    (instances
      (project "alpha-curISO"
        (path "/deb012b3-dbea-4e93-8127-2c26b2f435e8"
          (reference "LED10") (unit 1)
        )
      )
      (project "forti"
        (path "/f5e5948c-eeca-4160-a5f8-686f765d01ce/e6653766-2baf-4211-883c-2657a68ea9e7"
          (reference "LED3") (unit 1)
        )
      )
    )
  )

  (symbol (lib_id "PCM_marbastlib-various:WS2812_2020") (at 139.065 30.48 0) (unit 1)
    (in_bom yes) (on_board yes) (dnp no) (fields_autoplaced)
    (uuid e64d6f56-2d1f-451a-927c-2f7e3eb2c79e)
    (property "Reference" "LED5" (at 151.13 27.2656 0)
      (effects (font (size 0.7366 0.7366)))
    )
    (property "Value" "WS2812_2020" (at 140.335 36.195 0)
      (effects (font (size 1.27 1.27)) (justify left top) hide)
    )
    (property "Footprint" "PCM_marbastlib-various:LED_WS2812_2020" (at 140.335 38.1 0)
      (effects (font (size 1.27 1.27)) (justify left top) hide)
    )
    (property "Datasheet" "https://www.world-semi.com/DownLoadFile/139" (at 141.605 40.005 0)
      (effects (font (size 1.27 1.27)) (justify left top) hide)
    )
    (pin "1" (uuid 9e79db6c-e0be-4e32-9aeb-547fa2265f7b))
    (pin "2" (uuid c3e9eecf-3a78-4458-b693-a5a932ccfd0e))
    (pin "3" (uuid f4cdde03-c34c-4694-ba24-e6e71efc2843))
    (pin "4" (uuid 90540edf-0682-4636-87fe-8c38cc726125))
    (instances
      (project "alpha-curISO"
        (path "/deb012b3-dbea-4e93-8127-2c26b2f435e8"
          (reference "LED5") (unit 1)
        )
      )
      (project "forti"
        (path "/f5e5948c-eeca-4160-a5f8-686f765d01ce/e6653766-2baf-4211-883c-2657a68ea9e7"
          (reference "LED8") (unit 1)
        )
      )
    )
  )

  (symbol (lib_id "PCM_marbastlib-various:WS2812_2020") (at 86.995 56.515 0) (unit 1)
    (in_bom yes) (on_board yes) (dnp no) (fields_autoplaced)
    (uuid e85856e1-f337-4b3a-966e-e950afc541c8)
    (property "Reference" "LED8" (at 99.06 53.3006 0)
      (effects (font (size 0.7366 0.7366)))
    )
    (property "Value" "WS2812_2020" (at 88.265 62.23 0)
      (effects (font (size 1.27 1.27)) (justify left top) hide)
    )
    (property "Footprint" "PCM_marbastlib-various:LED_WS2812_2020" (at 88.265 64.135 0)
      (effects (font (size 1.27 1.27)) (justify left top) hide)
    )
    (property "Datasheet" "https://www.world-semi.com/DownLoadFile/139" (at 89.535 66.04 0)
      (effects (font (size 1.27 1.27)) (justify left top) hide)
    )
    (pin "1" (uuid 82849bbc-c74b-43e9-a417-bce48ca27b91))
    (pin "2" (uuid ac335170-5b27-4f66-97ac-1777a08ef291))
    (pin "3" (uuid 40f62633-580b-41d7-8ddf-f2b56c2de40d))
    (pin "4" (uuid 78fd30db-ad78-441e-a9e4-897d8c5c3611))
    (instances
      (project "alpha-curISO"
        (path "/deb012b3-dbea-4e93-8127-2c26b2f435e8"
          (reference "LED8") (unit 1)
        )
      )
      (project "forti"
        (path "/f5e5948c-eeca-4160-a5f8-686f765d01ce/e6653766-2baf-4211-883c-2657a68ea9e7"
          (reference "LED16") (unit 1)
        )
      )
    )
  )

  (symbol (lib_id "PCM_marbastlib-various:WS2812_2020") (at 69.85 56.515 0) (unit 1)
    (in_bom yes) (on_board yes) (dnp no) (fields_autoplaced)
    (uuid f1d65698-0608-407c-9b3e-ab4d2ec55107)
    (property "Reference" "LED9" (at 81.915 53.3006 0)
      (effects (font (size 0.7366 0.7366)))
    )
    (property "Value" "WS2812_2020" (at 71.12 62.23 0)
      (effects (font (size 1.27 1.27)) (justify left top) hide)
    )
    (property "Footprint" "PCM_marbastlib-various:LED_WS2812_2020" (at 71.12 64.135 0)
      (effects (font (size 1.27 1.27)) (justify left top) hide)
    )
    (property "Datasheet" "https://www.world-semi.com/DownLoadFile/139" (at 72.39 66.04 0)
      (effects (font (size 1.27 1.27)) (justify left top) hide)
    )
    (pin "1" (uuid 6f1ca48f-533e-47e7-afae-2397051225eb))
    (pin "2" (uuid b4c35305-d7d6-47d9-8e57-87db12356c66))
    (pin "3" (uuid fcfa9292-e2e5-4337-b7cf-d1fefe0e403c))
    (pin "4" (uuid 877f6527-bb3b-4f26-ba4c-cb3629dd5b71))
    (instances
      (project "alpha-curISO"
        (path "/deb012b3-dbea-4e93-8127-2c26b2f435e8"
          (reference "LED9") (unit 1)
        )
      )
      (project "forti"
        (path "/f5e5948c-eeca-4160-a5f8-686f765d01ce/e6653766-2baf-4211-883c-2657a68ea9e7"
          (reference "LED15") (unit 1)
        )
      )
    )
  )

  (symbol (lib_id "PCM_marbastlib-various:WS2812_2020") (at 104.14 56.515 0) (unit 1)
    (in_bom yes) (on_board yes) (dnp no) (fields_autoplaced)
    (uuid f8e9a8ac-0460-4442-ad0f-45ce50a1eb4b)
    (property "Reference" "LED7" (at 116.205 53.3006 0)
      (effects (font (size 0.7366 0.7366)))
    )
    (property "Value" "WS2812_2020" (at 105.41 62.23 0)
      (effects (font (size 1.27 1.27)) (justify left top) hide)
    )
    (property "Footprint" "PCM_marbastlib-various:LED_WS2812_2020" (at 105.41 64.135 0)
      (effects (font (size 1.27 1.27)) (justify left top) hide)
    )
    (property "Datasheet" "https://www.world-semi.com/DownLoadFile/139" (at 106.68 66.04 0)
      (effects (font (size 1.27 1.27)) (justify left top) hide)
    )
    (pin "1" (uuid eeef2400-027c-4468-8982-a8f476d69682))
    (pin "2" (uuid c86ab68b-92d7-476a-ab0a-1a003f9cd95f))
    (pin "3" (uuid bcd49b02-2d5a-4119-a92a-a1ab4edfed7a))
    (pin "4" (uuid 43cfcb67-09c6-46bd-a478-a6e75537768d))
    (instances
      (project "alpha-curISO"
        (path "/deb012b3-dbea-4e93-8127-2c26b2f435e8"
          (reference "LED7") (unit 1)
        )
      )
      (project "forti"
        (path "/f5e5948c-eeca-4160-a5f8-686f765d01ce/e6653766-2baf-4211-883c-2657a68ea9e7"
          (reference "LED17") (unit 1)
        )
      )
    )
  )
)
