(kicad_sch (version 20230121) (generator eeschema)

  (uuid a36acf48-c1fc-44ec-981c-e61164c14e9e)

  (paper "A5")

  (lib_symbols
    (symbol "Battery_Management:BQ24075RGT" (in_bom yes) (on_board yes)
      (property "Reference" "U" (at -8.89 13.97 0)
        (effects (font (size 1.27 1.27)) (justify right))
      )
      (property "Value" "BQ24075RGT" (at 16.51 13.97 0)
        (effects (font (size 1.27 1.27)) (justify right))
      )
      (property "Footprint" "Package_DFN_QFN:VQFN-16-1EP_3x3mm_P0.5mm_EP1.6x1.6mm" (at 7.62 -13.97 0)
        (effects (font (size 1.27 1.27)) (justify left) hide)
      )
      (property "Datasheet" "http://www.ti.com/lit/ds/symlink/bq24075.pdf" (at 7.62 5.08 0)
        (effects (font (size 1.27 1.27)) hide)
      )
      (property "ki_keywords" "USB Charge" (at 0 0 0)
        (effects (font (size 1.27 1.27)) hide)
      )
      (property "ki_description" "USB-Friendly Li-Ion Battery Charger and Power-Path Management, VQFN-16" (at 0 0 0)
        (effects (font (size 1.27 1.27)) hide)
      )
      (property "ki_fp_filters" "VQFN*1EP*3x3mm*P0.5mm*" (at 0 0 0)
        (effects (font (size 1.27 1.27)) hide)
      )
      (symbol "BQ24075RGT_0_1"
        (rectangle (start -10.16 12.7) (end 10.16 -12.7)
          (stroke (width 0.254) (type default))
          (fill (type background))
        )
      )
      (symbol "BQ24075RGT_1_1"
        (pin passive line (at 12.7 -2.54 180) (length 2.54)
          (name "TS" (effects (font (size 1.27 1.27))))
          (number "1" (effects (font (size 1.27 1.27))))
        )
        (pin power_out line (at 12.7 10.16 180) (length 2.54)
          (name "OUT" (effects (font (size 1.27 1.27))))
          (number "10" (effects (font (size 1.27 1.27))))
        )
        (pin passive line (at 12.7 10.16 180) (length 2.54) hide
          (name "OUT" (effects (font (size 1.27 1.27))))
          (number "11" (effects (font (size 1.27 1.27))))
        )
        (pin passive line (at -12.7 -7.62 0) (length 2.54)
          (name "ILIM" (effects (font (size 1.27 1.27))))
          (number "12" (effects (font (size 1.27 1.27))))
        )
        (pin power_in line (at 0 15.24 270) (length 2.54)
          (name "IN" (effects (font (size 1.27 1.27))))
          (number "13" (effects (font (size 1.27 1.27))))
        )
        (pin input line (at -12.7 2.54 0) (length 2.54)
          (name "TMR" (effects (font (size 1.27 1.27))))
          (number "14" (effects (font (size 1.27 1.27))))
        )
        (pin input line (at -12.7 10.16 0) (length 2.54)
          (name "SYSOFF" (effects (font (size 1.27 1.27))))
          (number "15" (effects (font (size 1.27 1.27))))
        )
        (pin passive line (at -12.7 -10.16 0) (length 2.54)
          (name "ISET" (effects (font (size 1.27 1.27))))
          (number "16" (effects (font (size 1.27 1.27))))
        )
        (pin passive line (at 0 -15.24 90) (length 2.54) hide
          (name "VSS" (effects (font (size 1.27 1.27))))
          (number "17" (effects (font (size 1.27 1.27))))
        )
        (pin power_out line (at 12.7 2.54 180) (length 2.54)
          (name "BAT" (effects (font (size 1.27 1.27))))
          (number "2" (effects (font (size 1.27 1.27))))
        )
        (pin passive line (at 12.7 2.54 180) (length 2.54) hide
          (name "BAT" (effects (font (size 1.27 1.27))))
          (number "3" (effects (font (size 1.27 1.27))))
        )
        (pin input line (at -12.7 5.08 0) (length 2.54)
          (name "~{CE}" (effects (font (size 1.27 1.27))))
          (number "4" (effects (font (size 1.27 1.27))))
        )
        (pin input line (at -12.7 -2.54 0) (length 2.54)
          (name "EN2" (effects (font (size 1.27 1.27))))
          (number "5" (effects (font (size 1.27 1.27))))
        )
        (pin input line (at -12.7 0 0) (length 2.54)
          (name "EN1" (effects (font (size 1.27 1.27))))
          (number "6" (effects (font (size 1.27 1.27))))
        )
        (pin open_collector line (at 12.7 -7.62 180) (length 2.54)
          (name "~{PGOOD}" (effects (font (size 1.27 1.27))))
          (number "7" (effects (font (size 1.27 1.27))))
        )
        (pin power_in line (at 0 -15.24 90) (length 2.54)
          (name "VSS" (effects (font (size 1.27 1.27))))
          (number "8" (effects (font (size 1.27 1.27))))
        )
        (pin open_collector line (at 12.7 -10.16 180) (length 2.54)
          (name "~{CHG}" (effects (font (size 1.27 1.27))))
          (number "9" (effects (font (size 1.27 1.27))))
        )
      )
    )
    (symbol "Connector_Generic_MountingPin:Conn_01x02_MountingPin" (pin_names (offset 1.016) hide) (in_bom yes) (on_board yes)
      (property "Reference" "J" (at 0 2.54 0)
        (effects (font (size 1.27 1.27)))
      )
      (property "Value" "Conn_01x02_MountingPin" (at 1.27 -5.08 0)
        (effects (font (size 1.27 1.27)) (justify left))
      )
      (property "Footprint" "" (at 0 0 0)
        (effects (font (size 1.27 1.27)) hide)
      )
      (property "Datasheet" "~" (at 0 0 0)
        (effects (font (size 1.27 1.27)) hide)
      )
      (property "ki_keywords" "connector" (at 0 0 0)
        (effects (font (size 1.27 1.27)) hide)
      )
      (property "ki_description" "Generic connectable mounting pin connector, single row, 01x02, script generated (kicad-library-utils/schlib/autogen/connector/)" (at 0 0 0)
        (effects (font (size 1.27 1.27)) hide)
      )
      (property "ki_fp_filters" "Connector*:*_1x??-1MP*" (at 0 0 0)
        (effects (font (size 1.27 1.27)) hide)
      )
      (symbol "Conn_01x02_MountingPin_1_1"
        (rectangle (start -1.27 -2.413) (end 0 -2.667)
          (stroke (width 0.1524) (type default))
          (fill (type none))
        )
        (rectangle (start -1.27 0.127) (end 0 -0.127)
          (stroke (width 0.1524) (type default))
          (fill (type none))
        )
        (rectangle (start -1.27 1.27) (end 1.27 -3.81)
          (stroke (width 0.254) (type default))
          (fill (type background))
        )
        (polyline
          (pts
            (xy -1.016 -4.572)
            (xy 1.016 -4.572)
          )
          (stroke (width 0.1524) (type default))
          (fill (type none))
        )
        (text "Mounting" (at 0 -4.191 0)
          (effects (font (size 0.381 0.381)))
        )
        (pin passive line (at -5.08 0 0) (length 3.81)
          (name "Pin_1" (effects (font (size 1.27 1.27))))
          (number "1" (effects (font (size 1.27 1.27))))
        )
        (pin passive line (at -5.08 -2.54 0) (length 3.81)
          (name "Pin_2" (effects (font (size 1.27 1.27))))
          (number "2" (effects (font (size 1.27 1.27))))
        )
        (pin passive line (at 0 -7.62 90) (length 3.048)
          (name "MountPin" (effects (font (size 1.27 1.27))))
          (number "MP" (effects (font (size 1.27 1.27))))
        )
      )
    )
    (symbol "Device:C_Small" (pin_numbers hide) (pin_names (offset 0.254) hide) (in_bom yes) (on_board yes)
      (property "Reference" "C" (at 0.254 1.778 0)
        (effects (font (size 1.27 1.27)) (justify left))
      )
      (property "Value" "C_Small" (at 0.254 -2.032 0)
        (effects (font (size 1.27 1.27)) (justify left))
      )
      (property "Footprint" "" (at 0 0 0)
        (effects (font (size 1.27 1.27)) hide)
      )
      (property "Datasheet" "~" (at 0 0 0)
        (effects (font (size 1.27 1.27)) hide)
      )
      (property "ki_keywords" "capacitor cap" (at 0 0 0)
        (effects (font (size 1.27 1.27)) hide)
      )
      (property "ki_description" "Unpolarized capacitor, small symbol" (at 0 0 0)
        (effects (font (size 1.27 1.27)) hide)
      )
      (property "ki_fp_filters" "C_*" (at 0 0 0)
        (effects (font (size 1.27 1.27)) hide)
      )
      (symbol "C_Small_0_1"
        (polyline
          (pts
            (xy -1.524 -0.508)
            (xy 1.524 -0.508)
          )
          (stroke (width 0.3302) (type default))
          (fill (type none))
        )
        (polyline
          (pts
            (xy -1.524 0.508)
            (xy 1.524 0.508)
          )
          (stroke (width 0.3048) (type default))
          (fill (type none))
        )
      )
      (symbol "C_Small_1_1"
        (pin passive line (at 0 2.54 270) (length 2.032)
          (name "~" (effects (font (size 1.27 1.27))))
          (number "1" (effects (font (size 1.27 1.27))))
        )
        (pin passive line (at 0 -2.54 90) (length 2.032)
          (name "~" (effects (font (size 1.27 1.27))))
          (number "2" (effects (font (size 1.27 1.27))))
        )
      )
    )
    (symbol "Device:LED_Small" (pin_numbers hide) (pin_names (offset 0.254) hide) (in_bom yes) (on_board yes)
      (property "Reference" "D" (at -1.27 3.175 0)
        (effects (font (size 1.27 1.27)) (justify left))
      )
      (property "Value" "LED_Small" (at -4.445 -2.54 0)
        (effects (font (size 1.27 1.27)) (justify left))
      )
      (property "Footprint" "" (at 0 0 90)
        (effects (font (size 1.27 1.27)) hide)
      )
      (property "Datasheet" "~" (at 0 0 90)
        (effects (font (size 1.27 1.27)) hide)
      )
      (property "ki_keywords" "LED diode light-emitting-diode" (at 0 0 0)
        (effects (font (size 1.27 1.27)) hide)
      )
      (property "ki_description" "Light emitting diode, small symbol" (at 0 0 0)
        (effects (font (size 1.27 1.27)) hide)
      )
      (property "ki_fp_filters" "LED* LED_SMD:* LED_THT:*" (at 0 0 0)
        (effects (font (size 1.27 1.27)) hide)
      )
      (symbol "LED_Small_0_1"
        (polyline
          (pts
            (xy -0.762 -1.016)
            (xy -0.762 1.016)
          )
          (stroke (width 0.254) (type default))
          (fill (type none))
        )
        (polyline
          (pts
            (xy 1.016 0)
            (xy -0.762 0)
          )
          (stroke (width 0) (type default))
          (fill (type none))
        )
        (polyline
          (pts
            (xy 0.762 -1.016)
            (xy -0.762 0)
            (xy 0.762 1.016)
            (xy 0.762 -1.016)
          )
          (stroke (width 0.254) (type default))
          (fill (type none))
        )
        (polyline
          (pts
            (xy 0 0.762)
            (xy -0.508 1.27)
            (xy -0.254 1.27)
            (xy -0.508 1.27)
            (xy -0.508 1.016)
          )
          (stroke (width 0) (type default))
          (fill (type none))
        )
        (polyline
          (pts
            (xy 0.508 1.27)
            (xy 0 1.778)
            (xy 0.254 1.778)
            (xy 0 1.778)
            (xy 0 1.524)
          )
          (stroke (width 0) (type default))
          (fill (type none))
        )
      )
      (symbol "LED_Small_1_1"
        (pin passive line (at -2.54 0 0) (length 1.778)
          (name "K" (effects (font (size 1.27 1.27))))
          (number "1" (effects (font (size 1.27 1.27))))
        )
        (pin passive line (at 2.54 0 180) (length 1.778)
          (name "A" (effects (font (size 1.27 1.27))))
          (number "2" (effects (font (size 1.27 1.27))))
        )
      )
    )
    (symbol "Device:R_Small" (pin_numbers hide) (pin_names (offset 0.254) hide) (in_bom yes) (on_board yes)
      (property "Reference" "R" (at 0.762 0.508 0)
        (effects (font (size 1.27 1.27)) (justify left))
      )
      (property "Value" "R_Small" (at 0.762 -1.016 0)
        (effects (font (size 1.27 1.27)) (justify left))
      )
      (property "Footprint" "" (at 0 0 0)
        (effects (font (size 1.27 1.27)) hide)
      )
      (property "Datasheet" "~" (at 0 0 0)
        (effects (font (size 1.27 1.27)) hide)
      )
      (property "ki_keywords" "R resistor" (at 0 0 0)
        (effects (font (size 1.27 1.27)) hide)
      )
      (property "ki_description" "Resistor, small symbol" (at 0 0 0)
        (effects (font (size 1.27 1.27)) hide)
      )
      (property "ki_fp_filters" "R_*" (at 0 0 0)
        (effects (font (size 1.27 1.27)) hide)
      )
      (symbol "R_Small_0_1"
        (rectangle (start -0.762 1.778) (end 0.762 -1.778)
          (stroke (width 0.2032) (type default))
          (fill (type none))
        )
      )
      (symbol "R_Small_1_1"
        (pin passive line (at 0 2.54 270) (length 0.762)
          (name "~" (effects (font (size 1.27 1.27))))
          (number "1" (effects (font (size 1.27 1.27))))
        )
        (pin passive line (at 0 -2.54 90) (length 0.762)
          (name "~" (effects (font (size 1.27 1.27))))
          (number "2" (effects (font (size 1.27 1.27))))
        )
      )
    )
    (symbol "Switch:SW_Push_SPDT" (pin_names (offset 0) hide) (in_bom yes) (on_board yes)
      (property "Reference" "SW" (at 0 4.318 0)
        (effects (font (size 1.27 1.27)))
      )
      (property "Value" "SW_Push_SPDT" (at 0 -5.08 0)
        (effects (font (size 1.27 1.27)))
      )
      (property "Footprint" "" (at 0 0 0)
        (effects (font (size 1.27 1.27)) hide)
      )
      (property "Datasheet" "~" (at 0 0 0)
        (effects (font (size 1.27 1.27)) hide)
      )
      (property "ki_keywords" "switch single-pole double-throw spdt ON-ON" (at 0 0 0)
        (effects (font (size 1.27 1.27)) hide)
      )
      (property "ki_description" "Momentary Switch, single pole double throw" (at 0 0 0)
        (effects (font (size 1.27 1.27)) hide)
      )
      (symbol "SW_Push_SPDT_0_0"
        (circle (center -2.032 0) (radius 0.508)
          (stroke (width 0) (type default))
          (fill (type none))
        )
        (polyline
          (pts
            (xy 0 1.016)
            (xy 0 3.048)
          )
          (stroke (width 0) (type default))
          (fill (type none))
        )
        (circle (center 2.032 -2.54) (radius 0.508)
          (stroke (width 0) (type default))
          (fill (type none))
        )
      )
      (symbol "SW_Push_SPDT_0_1"
        (polyline
          (pts
            (xy -1.524 0.254)
            (xy 2.54 2.032)
          )
          (stroke (width 0) (type default))
          (fill (type none))
        )
        (circle (center 2.032 2.54) (radius 0.508)
          (stroke (width 0) (type default))
          (fill (type none))
        )
      )
      (symbol "SW_Push_SPDT_1_1"
        (pin passive line (at 5.08 2.54 180) (length 2.54)
          (name "A" (effects (font (size 1.27 1.27))))
          (number "1" (effects (font (size 1.27 1.27))))
        )
        (pin passive line (at -5.08 0 0) (length 2.54)
          (name "B" (effects (font (size 1.27 1.27))))
          (number "2" (effects (font (size 1.27 1.27))))
        )
        (pin passive line (at 5.08 -2.54 180) (length 2.54)
          (name "C" (effects (font (size 1.27 1.27))))
          (number "3" (effects (font (size 1.27 1.27))))
        )
      )
    )
    (symbol "Transistor_FET:2N7002" (pin_names hide) (in_bom yes) (on_board yes)
      (property "Reference" "Q" (at 5.08 1.905 0)
        (effects (font (size 1.27 1.27)) (justify left))
      )
      (property "Value" "2N7002" (at 5.08 0 0)
        (effects (font (size 1.27 1.27)) (justify left))
      )
      (property "Footprint" "Package_TO_SOT_SMD:SOT-23" (at 5.08 -1.905 0)
        (effects (font (size 1.27 1.27) italic) (justify left) hide)
      )
      (property "Datasheet" "https://www.onsemi.com/pub/Collateral/NDS7002A-D.PDF" (at 0 0 0)
        (effects (font (size 1.27 1.27)) (justify left) hide)
      )
      (property "ki_keywords" "N-Channel Switching MOSFET" (at 0 0 0)
        (effects (font (size 1.27 1.27)) hide)
      )
      (property "ki_description" "0.115A Id, 60V Vds, N-Channel MOSFET, SOT-23" (at 0 0 0)
        (effects (font (size 1.27 1.27)) hide)
      )
      (property "ki_fp_filters" "SOT?23*" (at 0 0 0)
        (effects (font (size 1.27 1.27)) hide)
      )
      (symbol "2N7002_0_1"
        (polyline
          (pts
            (xy 0.254 0)
            (xy -2.54 0)
          )
          (stroke (width 0) (type default))
          (fill (type none))
        )
        (polyline
          (pts
            (xy 0.254 1.905)
            (xy 0.254 -1.905)
          )
          (stroke (width 0.254) (type default))
          (fill (type none))
        )
        (polyline
          (pts
            (xy 0.762 -1.27)
            (xy 0.762 -2.286)
          )
          (stroke (width 0.254) (type default))
          (fill (type none))
        )
        (polyline
          (pts
            (xy 0.762 0.508)
            (xy 0.762 -0.508)
          )
          (stroke (width 0.254) (type default))
          (fill (type none))
        )
        (polyline
          (pts
            (xy 0.762 2.286)
            (xy 0.762 1.27)
          )
          (stroke (width 0.254) (type default))
          (fill (type none))
        )
        (polyline
          (pts
            (xy 2.54 2.54)
            (xy 2.54 1.778)
          )
          (stroke (width 0) (type default))
          (fill (type none))
        )
        (polyline
          (pts
            (xy 2.54 -2.54)
            (xy 2.54 0)
            (xy 0.762 0)
          )
          (stroke (width 0) (type default))
          (fill (type none))
        )
        (polyline
          (pts
            (xy 0.762 -1.778)
            (xy 3.302 -1.778)
            (xy 3.302 1.778)
            (xy 0.762 1.778)
          )
          (stroke (width 0) (type default))
          (fill (type none))
        )
        (polyline
          (pts
            (xy 1.016 0)
            (xy 2.032 0.381)
            (xy 2.032 -0.381)
            (xy 1.016 0)
          )
          (stroke (width 0) (type default))
          (fill (type outline))
        )
        (polyline
          (pts
            (xy 2.794 0.508)
            (xy 2.921 0.381)
            (xy 3.683 0.381)
            (xy 3.81 0.254)
          )
          (stroke (width 0) (type default))
          (fill (type none))
        )
        (polyline
          (pts
            (xy 3.302 0.381)
            (xy 2.921 -0.254)
            (xy 3.683 -0.254)
            (xy 3.302 0.381)
          )
          (stroke (width 0) (type default))
          (fill (type none))
        )
        (circle (center 1.651 0) (radius 2.794)
          (stroke (width 0.254) (type default))
          (fill (type none))
        )
        (circle (center 2.54 -1.778) (radius 0.254)
          (stroke (width 0) (type default))
          (fill (type outline))
        )
        (circle (center 2.54 1.778) (radius 0.254)
          (stroke (width 0) (type default))
          (fill (type outline))
        )
      )
      (symbol "2N7002_1_1"
        (pin input line (at -5.08 0 0) (length 2.54)
          (name "G" (effects (font (size 1.27 1.27))))
          (number "1" (effects (font (size 1.27 1.27))))
        )
        (pin passive line (at 2.54 -5.08 90) (length 2.54)
          (name "S" (effects (font (size 1.27 1.27))))
          (number "2" (effects (font (size 1.27 1.27))))
        )
        (pin passive line (at 2.54 5.08 270) (length 2.54)
          (name "D" (effects (font (size 1.27 1.27))))
          (number "3" (effects (font (size 1.27 1.27))))
        )
      )
    )
    (symbol "marbastlib-various:MAX17048" (in_bom yes) (on_board yes)
      (property "Reference" "U" (at 0 10.16 0)
        (effects (font (size 1.27 1.27)))
      )
      (property "Value" "MAX17048" (at 0 -10.16 0)
        (effects (font (size 1.27 1.27)))
      )
      (property "Footprint" "Package_DFN_QFN:DFN-8-1EP_2x2mm_P0.5mm_EP0.7x1.3mm" (at -9.525 -10.16 0)
        (effects (font (size 1.27 1.27)) hide)
      )
      (property "Datasheet" "https://datasheets.maximintegrated.com/en/ds/MAX17048-MAX17049.pdf" (at -9.525 -10.16 0)
        (effects (font (size 1.27 1.27)) hide)
      )
      (property "ki_keywords" "maxim integrated modelgauge" (at 0 0 0)
        (effects (font (size 1.27 1.27)) hide)
      )
      (property "ki_description" "Fuel gauge chip with integrated current sensing resistor" (at 0 0 0)
        (effects (font (size 1.27 1.27)) hide)
      )
      (symbol "MAX17048_0_0"
        (pin power_in line (at -8.89 -1.27 0) (length 2.54)
          (name "CTG" (effects (font (size 1.27 1.27))))
          (number "1" (effects (font (size 1.27 1.27))))
        )
        (pin power_in line (at -8.89 3.81 0) (length 2.54)
          (name "CELL" (effects (font (size 1.27 1.27))))
          (number "2" (effects (font (size 1.27 1.27))))
        )
        (pin power_in line (at -8.89 6.35 0) (length 2.54)
          (name "VDD" (effects (font (size 1.27 1.27))))
          (number "3" (effects (font (size 1.27 1.27))))
        )
        (pin power_in line (at -8.89 -3.81 0) (length 2.54)
          (name "GND" (effects (font (size 1.27 1.27))))
          (number "4" (effects (font (size 1.27 1.27))))
        )
        (pin open_collector line (at 8.89 6.35 180) (length 2.54)
          (name "~{ALRT}" (effects (font (size 1.27 1.27))))
          (number "5" (effects (font (size 1.27 1.27))))
        )
        (pin input line (at 8.89 -6.35 180) (length 2.54)
          (name "QSTRT" (effects (font (size 1.27 1.27))))
          (number "6" (effects (font (size 1.27 1.27))))
        )
        (pin bidirectional line (at 8.89 -1.27 180) (length 2.54)
          (name "SCL" (effects (font (size 1.27 1.27))))
          (number "7" (effects (font (size 1.27 1.27))))
        )
        (pin bidirectional line (at 8.89 1.27 180) (length 2.54)
          (name "SDA" (effects (font (size 1.27 1.27))))
          (number "8" (effects (font (size 1.27 1.27))))
        )
        (pin power_in line (at -8.89 -6.35 0) (length 2.54)
          (name "GND" (effects (font (size 1.27 1.27))))
          (number "9" (effects (font (size 1.27 1.27))))
        )
      )
      (symbol "MAX17048_0_1"
        (rectangle (start -6.35 8.89) (end 6.35 -8.89)
          (stroke (width 0.1524) (type default))
          (fill (type background))
        )
      )
    )
    (symbol "power:+5V" (power) (pin_names (offset 0)) (in_bom yes) (on_board yes)
      (property "Reference" "#PWR" (at 0 -3.81 0)
        (effects (font (size 1.27 1.27)) hide)
      )
      (property "Value" "+5V" (at 0 3.556 0)
        (effects (font (size 1.27 1.27)))
      )
      (property "Footprint" "" (at 0 0 0)
        (effects (font (size 1.27 1.27)) hide)
      )
      (property "Datasheet" "" (at 0 0 0)
        (effects (font (size 1.27 1.27)) hide)
      )
      (property "ki_keywords" "power-flag" (at 0 0 0)
        (effects (font (size 1.27 1.27)) hide)
      )
      (property "ki_description" "Power symbol creates a global label with name \"+5V\"" (at 0 0 0)
        (effects (font (size 1.27 1.27)) hide)
      )
      (symbol "+5V_0_1"
        (polyline
          (pts
            (xy -0.762 1.27)
            (xy 0 2.54)
          )
          (stroke (width 0) (type default))
          (fill (type none))
        )
        (polyline
          (pts
            (xy 0 0)
            (xy 0 2.54)
          )
          (stroke (width 0) (type default))
          (fill (type none))
        )
        (polyline
          (pts
            (xy 0 2.54)
            (xy 0.762 1.27)
          )
          (stroke (width 0) (type default))
          (fill (type none))
        )
      )
      (symbol "+5V_1_1"
        (pin power_in line (at 0 0 90) (length 0) hide
          (name "+5V" (effects (font (size 1.27 1.27))))
          (number "1" (effects (font (size 1.27 1.27))))
        )
      )
    )
    (symbol "power:+BATT" (power) (pin_names (offset 0)) (in_bom yes) (on_board yes)
      (property "Reference" "#PWR" (at 0 -3.81 0)
        (effects (font (size 1.27 1.27)) hide)
      )
      (property "Value" "+BATT" (at 0 3.556 0)
        (effects (font (size 1.27 1.27)))
      )
      (property "Footprint" "" (at 0 0 0)
        (effects (font (size 1.27 1.27)) hide)
      )
      (property "Datasheet" "" (at 0 0 0)
        (effects (font (size 1.27 1.27)) hide)
      )
      (property "ki_keywords" "power-flag battery" (at 0 0 0)
        (effects (font (size 1.27 1.27)) hide)
      )
      (property "ki_description" "Power symbol creates a global label with name \"+BATT\"" (at 0 0 0)
        (effects (font (size 1.27 1.27)) hide)
      )
      (symbol "+BATT_0_1"
        (polyline
          (pts
            (xy -0.762 1.27)
            (xy 0 2.54)
          )
          (stroke (width 0) (type default))
          (fill (type none))
        )
        (polyline
          (pts
            (xy 0 0)
            (xy 0 2.54)
          )
          (stroke (width 0) (type default))
          (fill (type none))
        )
        (polyline
          (pts
            (xy 0 2.54)
            (xy 0.762 1.27)
          )
          (stroke (width 0) (type default))
          (fill (type none))
        )
      )
      (symbol "+BATT_1_1"
        (pin power_in line (at 0 0 90) (length 0) hide
          (name "+BATT" (effects (font (size 1.27 1.27))))
          (number "1" (effects (font (size 1.27 1.27))))
        )
      )
    )
    (symbol "power:+VSW" (power) (pin_names (offset 0)) (in_bom yes) (on_board yes)
      (property "Reference" "#PWR" (at 0 -3.81 0)
        (effects (font (size 1.27 1.27)) hide)
      )
      (property "Value" "+VSW" (at 0 3.556 0)
        (effects (font (size 1.27 1.27)))
      )
      (property "Footprint" "" (at 0 0 0)
        (effects (font (size 1.27 1.27)) hide)
      )
      (property "Datasheet" "" (at 0 0 0)
        (effects (font (size 1.27 1.27)) hide)
      )
      (property "ki_keywords" "power-flag" (at 0 0 0)
        (effects (font (size 1.27 1.27)) hide)
      )
      (property "ki_description" "Power symbol creates a global label with name \"+VSW\"" (at 0 0 0)
        (effects (font (size 1.27 1.27)) hide)
      )
      (symbol "+VSW_0_1"
        (polyline
          (pts
            (xy -0.762 1.27)
            (xy 0 2.54)
          )
          (stroke (width 0) (type default))
          (fill (type none))
        )
        (polyline
          (pts
            (xy 0 0)
            (xy 0 2.54)
          )
          (stroke (width 0) (type default))
          (fill (type none))
        )
        (polyline
          (pts
            (xy 0 2.54)
            (xy 0.762 1.27)
          )
          (stroke (width 0) (type default))
          (fill (type none))
        )
      )
      (symbol "+VSW_1_1"
        (pin power_in line (at 0 0 90) (length 0) hide
          (name "+VSW" (effects (font (size 1.27 1.27))))
          (number "1" (effects (font (size 1.27 1.27))))
        )
      )
    )
    (symbol "power:GND" (power) (pin_names (offset 0)) (in_bom yes) (on_board yes)
      (property "Reference" "#PWR" (at 0 -6.35 0)
        (effects (font (size 1.27 1.27)) hide)
      )
      (property "Value" "GND" (at 0 -3.81 0)
        (effects (font (size 1.27 1.27)))
      )
      (property "Footprint" "" (at 0 0 0)
        (effects (font (size 1.27 1.27)) hide)
      )
      (property "Datasheet" "" (at 0 0 0)
        (effects (font (size 1.27 1.27)) hide)
      )
      (property "ki_keywords" "power-flag" (at 0 0 0)
        (effects (font (size 1.27 1.27)) hide)
      )
      (property "ki_description" "Power symbol creates a global label with name \"GND\" , ground" (at 0 0 0)
        (effects (font (size 1.27 1.27)) hide)
      )
      (symbol "GND_0_1"
        (polyline
          (pts
            (xy 0 0)
            (xy 0 -1.27)
            (xy 1.27 -1.27)
            (xy 0 -2.54)
            (xy -1.27 -1.27)
            (xy 0 -1.27)
          )
          (stroke (width 0) (type default))
          (fill (type none))
        )
      )
      (symbol "GND_1_1"
        (pin power_in line (at 0 0 270) (length 0) hide
          (name "GND" (effects (font (size 1.27 1.27))))
          (number "1" (effects (font (size 1.27 1.27))))
        )
      )
    )
  )

  (junction (at 45.72 52.07) (diameter 0.9144) (color 0 0 0 0)
    (uuid 0641a867-4354-4ed5-bbe0-ce226796abc8)
  )
  (junction (at 132.08 80.01) (diameter 0) (color 0 0 0 0)
    (uuid 0a25a634-2783-45b4-b8eb-ef763f18ce9d)
  )
  (junction (at 40.64 52.07) (diameter 0.9144) (color 0 0 0 0)
    (uuid 0d6d91a9-a6ec-4d7e-9445-5e8ceebbe949)
  )
  (junction (at 132.08 85.09) (diameter 0) (color 0 0 0 0)
    (uuid 15eb469f-1801-420a-8b7e-d9ef5bdf88e6)
  )
  (junction (at 99.06 52.07) (diameter 0) (color 0 0 0 0)
    (uuid 2cbddb17-6874-430e-b4d7-45bd3b2a715a)
  )
  (junction (at 36.83 104.14) (diameter 0) (color 0 0 0 0)
    (uuid 392b18b2-7891-4cf0-acc3-eea7873d6985)
  )
  (junction (at 132.08 72.39) (diameter 0) (color 0 0 0 0)
    (uuid 43faad6b-ae1d-41aa-92fb-68846b123358)
  )
  (junction (at 107.95 39.37) (diameter 0.9144) (color 0 0 0 0)
    (uuid 5b24a1f8-26cf-41e9-815f-827a7ab268eb)
  )
  (junction (at 132.08 88.9) (diameter 0) (color 0 0 0 0)
    (uuid 5bbab5a3-27bb-4be8-98ff-a18ae060b61d)
  )
  (junction (at 86.36 26.67) (diameter 0) (color 0 0 0 0)
    (uuid 6a2e1565-eda4-4ef6-b82f-191b4f07adfd)
  )
  (junction (at 97.79 26.67) (diameter 0.9144) (color 0 0 0 0)
    (uuid 77c0a4d2-9bd0-4044-be5b-101b857c2e23)
  )
  (junction (at 78.74 52.07) (diameter 0.9144) (color 0 0 0 0)
    (uuid 78f44a4f-283d-4554-9230-778df9dec567)
  )
  (junction (at 31.75 52.07) (diameter 0.9144) (color 0 0 0 0)
    (uuid 7ab895f7-2573-4eb5-b3af-d648471f967b)
  )
  (junction (at 132.08 82.55) (diameter 0) (color 0 0 0 0)
    (uuid 7d5f2f25-aee5-4fa7-94d5-0bcd72a29d95)
  )
  (junction (at 44.45 109.22) (diameter 0) (color 0 0 0 0)
    (uuid 80f373a6-8490-483a-b1e5-bf14c27e8d86)
  )
  (junction (at 31.75 39.37) (diameter 0.9144) (color 0 0 0 0)
    (uuid 829595b4-1f50-4a3f-9bd2-6095a37308d9)
  )
  (junction (at 97.79 34.29) (diameter 0.9144) (color 0 0 0 0)
    (uuid 91d3e4fb-ab03-49b1-9cf8-35bcc41249ce)
  )
  (junction (at 22.86 21.59) (diameter 0.9144) (color 0 0 0 0)
    (uuid 97e9e671-781c-42ce-8b38-4b0be6a8d84a)
  )
  (junction (at 35.56 52.07) (diameter 0.9144) (color 0 0 0 0)
    (uuid 9f23993d-39b5-41d5-b638-cdb1eff3ede0)
  )
  (junction (at 62.23 52.07) (diameter 0.9144) (color 0 0 0 0)
    (uuid a548e65f-c26d-4a5e-a5b5-2157139a62de)
  )
  (junction (at 132.08 74.93) (diameter 0) (color 0 0 0 0)
    (uuid ac70251b-b591-430a-bb97-1fda95910c1e)
  )
  (junction (at 93.98 52.07) (diameter 0) (color 0 0 0 0)
    (uuid acf0b539-2621-40b1-aebf-c8ceb595f829)
  )
  (junction (at 107.95 26.67) (diameter 0) (color 0 0 0 0)
    (uuid af21db35-ef4b-48ca-9ba1-746521eabef5)
  )
  (junction (at 22.86 52.07) (diameter 0.9144) (color 0 0 0 0)
    (uuid b3eb31be-fdc7-49fa-981d-7fc04435f9f5)
  )
  (junction (at 22.86 26.67) (diameter 0.9144) (color 0 0 0 0)
    (uuid ba1b7e95-d9ff-41c0-82c9-4d5a3e9d252a)
  )
  (junction (at 107.95 31.75) (diameter 0.9144) (color 0 0 0 0)
    (uuid c0f222ef-ed8b-486f-a575-79fc9fa150ea)
  )
  (junction (at 33.02 21.59) (diameter 0.9144) (color 0 0 0 0)
    (uuid f1f02c27-b8b4-4f0d-8579-02014e7b299a)
  )
  (junction (at 93.98 34.29) (diameter 0.9144) (color 0 0 0 0)
    (uuid f6746227-d1a9-452a-8471-7d27a8763405)
  )

  (no_connect (at 74.93 44.45) (uuid 967cd46a-6334-44e6-8471-b9c041a87c03))

  (wire (pts (xy 86.36 26.67) (xy 97.79 26.67))
    (stroke (width 0) (type solid))
    (uuid 028d0da0-6d67-41e6-ae0d-e511dc1f48f4)
  )
  (wire (pts (xy 93.98 34.29) (xy 97.79 34.29))
    (stroke (width 0) (type solid))
    (uuid 031e1d12-6782-4df8-bf3c-94fb27466501)
  )
  (wire (pts (xy 74.93 39.37) (xy 78.74 39.37))
    (stroke (width 0) (type solid))
    (uuid 033852f6-5b05-4e09-b6ec-849d29abe5a5)
  )
  (wire (pts (xy 62.23 52.07) (xy 78.74 52.07))
    (stroke (width 0) (type solid))
    (uuid 0341a718-a633-4820-b0c2-a61145e906a3)
  )
  (wire (pts (xy 149.86 85.09) (xy 149.86 88.9))
    (stroke (width 0) (type default))
    (uuid 06023572-49d5-4f33-a800-ffdefd624d7a)
  )
  (wire (pts (xy 91.44 41.275) (xy 93.98 41.275))
    (stroke (width 0) (type default))
    (uuid 0b8207df-0367-48d8-9ae6-e8c68d98b63a)
  )
  (wire (pts (xy 33.02 21.59) (xy 62.23 21.59))
    (stroke (width 0) (type solid))
    (uuid 10f1c528-970b-414f-b6a4-1f893db0b23b)
  )
  (wire (pts (xy 78.74 48.26) (xy 78.74 52.07))
    (stroke (width 0) (type solid))
    (uuid 16df3045-0bfb-4859-ba46-810c0a1aedfd)
  )
  (wire (pts (xy 62.23 109.22) (xy 44.45 109.22))
    (stroke (width 0) (type default))
    (uuid 19879420-fa56-43c9-ab31-005c713bff28)
  )
  (wire (pts (xy 22.86 52.07) (xy 31.75 52.07))
    (stroke (width 0) (type solid))
    (uuid 202bab53-5ec9-4717-8ee0-726adc9bfd6f)
  )
  (wire (pts (xy 97.79 34.29) (xy 107.95 34.29))
    (stroke (width 0) (type solid))
    (uuid 22bf85d6-87dc-4445-9511-ec3953e209de)
  )
  (wire (pts (xy 78.74 52.07) (xy 93.98 52.07))
    (stroke (width 0) (type solid))
    (uuid 2d992234-442c-4eff-8c42-eb68a72950d8)
  )
  (wire (pts (xy 35.56 34.29) (xy 49.53 34.29))
    (stroke (width 0) (type solid))
    (uuid 2ff4cbe6-c338-4cdd-b284-ac4c19553cb6)
  )
  (wire (pts (xy 128.27 80.01) (xy 132.08 80.01))
    (stroke (width 0) (type default))
    (uuid 33081a96-cab5-4767-a2d6-3982bceec9fb)
  )
  (wire (pts (xy 86.36 31.75) (xy 86.36 39.37))
    (stroke (width 0) (type solid))
    (uuid 362881b6-5bf1-4a7d-be63-38c1d3e181b5)
  )
  (wire (pts (xy 132.08 85.09) (xy 132.08 88.9))
    (stroke (width 0) (type default))
    (uuid 36ae7fe6-f54c-475e-bfc3-5063e3d4bc51)
  )
  (wire (pts (xy 92.71 47.625) (xy 93.98 47.625))
    (stroke (width 0) (type default))
    (uuid 36ee2c28-1cf6-4730-b1bf-d74d7320118f)
  )
  (wire (pts (xy 40.64 44.45) (xy 49.53 44.45))
    (stroke (width 0) (type solid))
    (uuid 4372cb91-5d3e-462a-906a-57e74742365f)
  )
  (wire (pts (xy 22.86 26.67) (xy 33.02 26.67))
    (stroke (width 0) (type solid))
    (uuid 44d2ae36-57ed-4457-9254-783d67f0d6c6)
  )
  (wire (pts (xy 92.71 43.18) (xy 92.71 47.625))
    (stroke (width 0) (type default))
    (uuid 4d0aaaaf-753a-4b27-8210-29870331a380)
  )
  (wire (pts (xy 93.98 43.18) (xy 92.71 43.18))
    (stroke (width 0) (type default))
    (uuid 507651b6-8dea-44d6-ba5d-9f7f535e9773)
  )
  (wire (pts (xy 31.75 31.75) (xy 31.75 39.37))
    (stroke (width 0) (type solid))
    (uuid 55a444ed-23d5-4db1-ba27-f51ce328b4f8)
  )
  (wire (pts (xy 132.08 69.85) (xy 132.08 72.39))
    (stroke (width 0) (type default))
    (uuid 56f35d84-3f8b-4436-8fab-e87391b87f56)
  )
  (wire (pts (xy 74.93 34.29) (xy 93.98 34.29))
    (stroke (width 0) (type solid))
    (uuid 5a28c570-e0b4-4be5-b599-cb36dfab03d6)
  )
  (wire (pts (xy 22.86 21.59) (xy 33.02 21.59))
    (stroke (width 0) (type solid))
    (uuid 5da5d1f8-c341-43ae-b59d-837031f10ec3)
  )
  (wire (pts (xy 31.75 52.07) (xy 35.56 52.07))
    (stroke (width 0) (type solid))
    (uuid 66967d0d-88df-44db-ad1f-661063ba61a6)
  )
  (wire (pts (xy 26.67 36.83) (xy 49.53 36.83))
    (stroke (width 0) (type solid))
    (uuid 6af3971d-5f22-4897-974d-c49f6425005a)
  )
  (wire (pts (xy 91.44 45.72) (xy 91.44 41.275))
    (stroke (width 0) (type default))
    (uuid 6bc08034-fa5c-4bd2-9200-da52882f8e2f)
  )
  (wire (pts (xy 86.36 44.45) (xy 86.36 46.99))
    (stroke (width 0) (type default))
    (uuid 6c94671a-3ea3-4217-b79c-7bbe7895a4b0)
  )
  (wire (pts (xy 93.98 52.07) (xy 99.06 52.07))
    (stroke (width 0) (type solid))
    (uuid 6ec65049-df9b-4ae8-910b-223b4c3ef533)
  )
  (wire (pts (xy 62.23 101.6) (xy 62.23 109.22))
    (stroke (width 0) (type default))
    (uuid 715e6f93-054f-4b3a-b5f6-d737c756a499)
  )
  (wire (pts (xy 45.72 46.99) (xy 49.53 46.99))
    (stroke (width 0) (type solid))
    (uuid 786416c6-00a8-4ef5-9859-f586a0d745bd)
  )
  (wire (pts (xy 26.67 36.83) (xy 26.67 31.75))
    (stroke (width 0) (type solid))
    (uuid 78d3e5e4-327b-4917-b14f-b97b4734d676)
  )
  (wire (pts (xy 31.75 39.37) (xy 31.75 52.07))
    (stroke (width 0) (type solid))
    (uuid 7c6989ee-2ff4-4dc8-a1fa-6e3ff36557e8)
  )
  (wire (pts (xy 31.75 31.75) (xy 49.53 31.75))
    (stroke (width 0) (type solid))
    (uuid 7f4f8f7b-bd9a-4411-b5b0-1ebba568dd52)
  )
  (wire (pts (xy 99.06 52.07) (xy 107.95 52.07))
    (stroke (width 0) (type solid))
    (uuid 805b45ba-3d41-4667-8869-0d94c9856812)
  )
  (wire (pts (xy 97.79 39.37) (xy 107.95 39.37))
    (stroke (width 0) (type solid))
    (uuid 80b9509b-4721-4793-9e47-3e8743042159)
  )
  (wire (pts (xy 116.84 31.75) (xy 107.95 31.75))
    (stroke (width 0) (type solid))
    (uuid 8484819f-305e-408f-8a2b-7fd206b9de7d)
  )
  (wire (pts (xy 22.86 52.07) (xy 22.86 26.67))
    (stroke (width 0) (type solid))
    (uuid 8ae09af6-2117-4038-9164-26f79a7a6bc1)
  )
  (wire (pts (xy 40.64 44.45) (xy 40.64 46.99))
    (stroke (width 0) (type solid))
    (uuid 8d750267-a2a3-4c85-88dc-75d8fd7b440f)
  )
  (wire (pts (xy 35.56 34.29) (xy 35.56 46.99))
    (stroke (width 0) (type solid))
    (uuid 90264503-1932-43fb-be0a-7dfe2f2fd247)
  )
  (wire (pts (xy 116.84 33.02) (xy 116.84 31.75))
    (stroke (width 0) (type solid))
    (uuid 9cbdf089-9290-4939-88ff-a3e725792921)
  )
  (wire (pts (xy 44.45 99.06) (xy 52.07 99.06))
    (stroke (width 0) (type solid))
    (uuid 9efb2a7e-dc63-4772-b9ca-e6d67a13a739)
  )
  (wire (pts (xy 31.75 39.37) (xy 49.53 39.37))
    (stroke (width 0) (type solid))
    (uuid a1521a7f-1bbc-41fc-b2e4-b23cff739d19)
  )
  (wire (pts (xy 149.86 88.9) (xy 132.08 88.9))
    (stroke (width 0) (type default))
    (uuid a5056b68-6e83-460c-8746-8f1d07f6aff9)
  )
  (wire (pts (xy 99.06 50.8) (xy 99.06 52.07))
    (stroke (width 0) (type default))
    (uuid a639ab2e-6af4-44e5-b4c3-3c37c0d6726e)
  )
  (wire (pts (xy 78.74 43.18) (xy 78.74 39.37))
    (stroke (width 0) (type solid))
    (uuid a7068a08-7652-4080-bd77-f014ed8fa1bd)
  )
  (wire (pts (xy 128.27 74.93) (xy 132.08 74.93))
    (stroke (width 0) (type default))
    (uuid a85de222-2be6-4139-8819-7329313c0de6)
  )
  (wire (pts (xy 93.98 41.275) (xy 93.98 34.29))
    (stroke (width 0) (type default))
    (uuid a94b5e62-c8f9-427a-bab2-f692e8209957)
  )
  (wire (pts (xy 74.93 46.99) (xy 86.36 46.99))
    (stroke (width 0) (type solid))
    (uuid aa1b22bb-1694-42b7-aba0-230ad0367305)
  )
  (wire (pts (xy 45.72 52.07) (xy 62.23 52.07))
    (stroke (width 0) (type solid))
    (uuid af6a5817-b78f-4764-98a2-994abecae7d4)
  )
  (wire (pts (xy 93.98 47.625) (xy 93.98 52.07))
    (stroke (width 0) (type default))
    (uuid b24ec213-a79a-4206-9efb-6953ce1065a6)
  )
  (wire (pts (xy 132.08 80.01) (xy 132.08 82.55))
    (stroke (width 0) (type default))
    (uuid b6c67baa-6b78-410e-b85b-1a3f9b5cd0b7)
  )
  (wire (pts (xy 36.83 109.22) (xy 44.45 109.22))
    (stroke (width 0) (type default))
    (uuid ba9fffe2-f3b2-4026-ac51-479f6b438bee)
  )
  (wire (pts (xy 132.08 82.55) (xy 132.08 85.09))
    (stroke (width 0) (type default))
    (uuid c3d05372-ebea-4b5d-86af-6b6097019016)
  )
  (wire (pts (xy 35.56 52.07) (xy 40.64 52.07))
    (stroke (width 0) (type solid))
    (uuid c7f6a49e-81ac-420b-9123-5ab9053f4dc4)
  )
  (wire (pts (xy 107.95 52.07) (xy 107.95 39.37))
    (stroke (width 0) (type solid))
    (uuid d01a75ff-f3a7-4a91-b7de-74a6ad7ce1c1)
  )
  (wire (pts (xy 93.98 45.72) (xy 91.44 45.72))
    (stroke (width 0) (type default))
    (uuid e0baef3c-9b7f-486d-9d96-0444a3028539)
  )
  (wire (pts (xy 132.08 72.39) (xy 132.08 74.93))
    (stroke (width 0) (type default))
    (uuid e63a3f33-1151-4bba-a3d5-816bf3e08593)
  )
  (wire (pts (xy 40.64 26.67) (xy 49.53 26.67))
    (stroke (width 0) (type solid))
    (uuid ebae5595-37ee-4287-9f64-635d13fb56c6)
  )
  (wire (pts (xy 40.64 52.07) (xy 45.72 52.07))
    (stroke (width 0) (type solid))
    (uuid ee16be67-8c76-4e90-9fa2-744eea97c215)
  )
  (wire (pts (xy 74.93 26.67) (xy 86.36 26.67))
    (stroke (width 0) (type solid))
    (uuid f63b4b00-d580-44bd-92f5-ea87d084da90)
  )
  (wire (pts (xy 97.79 26.67) (xy 107.95 26.67))
    (stroke (width 0) (type solid))
    (uuid f75d89d7-8708-4fae-ac56-96800629df18)
  )
  (wire (pts (xy 97.79 31.75) (xy 107.95 31.75))
    (stroke (width 0) (type solid))
    (uuid f95e077d-56fc-49c2-bc38-6fe6a8b9a9ce)
  )

  (text "SYSOFF 1 (SW1 pos 1): Batt OFF\nSYSOFF 0 (SW1 pos 3): Batt ON"
    (at 55.88 72.39 0)
    (effects (font (size 1.27 1.27)) (justify left bottom))
    (uuid 25bd5127-e789-4b9d-a02f-15181bacb0d6)
  )
  (text "Battery size:\n30x20\n\nBattery thickness:\n1.8 (socket) + 1.6 (PCB) + 0.9 (PCB to plate spacing)\n= 4.3 mm\n\n1.8 (socket) + 1.6 (PCB) + 2.2 (PCB to plate top spacing)\n= 5.6 mm\n\n-> 502030 (20x30x5 mm)\n-> 250 mAh"
    (at 122.555 45.085 0)
    (effects (font (size 1.27 1.27)) (justify left bottom))
    (uuid 55ce5da0-f5cd-49c4-891e-c2aeba31e9b9)
  )
  (text "TMR: (10 x 48 s/kOhm) * 47 kOhm = 22560s = 6.27h\nILIM: 1550 AOhm / 1500 Ohm = 1.03 A = 1030 mA\nISET: 890 AOhm / 3900 Ohm = 0.228 A = 230 mA\nEN1: 1, EN2: 0 = 475 mA MAX\nTS: 10 kOhm to GND = no OTP"
    (at 55.88 64.77 0)
    (effects (font (size 1.27 1.27)) (justify left bottom))
    (uuid afe34695-80bb-4f81-b5cf-88f5f0891d22)
  )

  (label "SYSOFF" (at 44.45 99.06 0) (fields_autoplaced)
    (effects (font (size 1.27 1.27)) (justify left bottom))
    (uuid 131f0f83-e234-45ba-bc13-5b855d84e4b2)
  )
  (label "TMR" (at 40.64 34.29 0) (fields_autoplaced)
    (effects (font (size 1.27 1.27)) (justify left bottom))
    (uuid 3776b6be-1794-4107-b4e3-5127d6bcfbdf)
  )
  (label "EN2" (at 40.64 39.37 0) (fields_autoplaced)
    (effects (font (size 1.27 1.27)) (justify left bottom))
    (uuid a4f3550c-aefe-4cae-a012-61c1feaced87)
  )
  (label "EN1" (at 40.64 36.83 0) (fields_autoplaced)
    (effects (font (size 1.27 1.27)) (justify left bottom))
    (uuid c01085bc-9427-4c33-b0fe-f38ec3433bf9)
  )
  (label "ILIM" (at 40.64 44.45 0) (fields_autoplaced)
    (effects (font (size 1.27 1.27)) (justify left bottom))
    (uuid c0250caf-4197-499b-a757-f2b599d0ae2d)
  )
  (label "SYSOFF" (at 40.64 26.67 0) (fields_autoplaced)
    (effects (font (size 1.27 1.27)) (justify left bottom))
    (uuid ccbfca8f-7ba2-4470-9db9-8c99f10b6d81)
  )

  (global_label "SDA" (shape bidirectional) (at 149.86 77.47 0) (fields_autoplaced)
    (effects (font (size 1.27 1.27)) (justify left))
    (uuid d8fe5252-0cd5-401c-8e21-399bbaab4a84)
    (property "Intersheetrefs" "${INTERSHEET_REFS}" (at 155.8412 77.3906 0)
      (effects (font (size 1.27 1.27)) (justify left) hide)
    )
  )
  (global_label "ALERT" (shape output) (at 149.86 72.39 0) (fields_autoplaced)
    (effects (font (size 1.27 1.27)) (justify left))
    (uuid e1a977bd-6c8c-40a6-9561-638ba29c68f4)
    (property "Intersheetrefs" "${INTERSHEET_REFS}" (at 157.7764 72.3106 0)
      (effects (font (size 1.27 1.27)) (justify left) hide)
    )
  )
  (global_label "SCL" (shape bidirectional) (at 149.86 80.01 0) (fields_autoplaced)
    (effects (font (size 1.27 1.27)) (justify left))
    (uuid e871dfc8-91ea-4368-870b-1a97e46413c5)
    (property "Intersheetrefs" "${INTERSHEET_REFS}" (at 155.7807 79.9306 0)
      (effects (font (size 1.27 1.27)) (justify left) hide)
    )
  )

  (symbol (lib_id "Transistor_FET:2N7002") (at 41.91 104.14 0) (unit 1)
    (in_bom yes) (on_board yes) (dnp no) (fields_autoplaced)
    (uuid 1077ada5-0cc7-4561-b60f-62b61b44f4c5)
    (property "Reference" "Q1" (at 48.26 102.8699 0)
      (effects (font (size 1.27 1.27)) (justify left))
    )
    (property "Value" "2N7002" (at 48.26 105.4099 0)
      (effects (font (size 1.27 1.27)) (justify left))
    )
    (property "Footprint" "Package_TO_SOT_SMD:SOT-23" (at 46.99 106.045 0)
      (effects (font (size 1.27 1.27) italic) (justify left) hide)
    )
    (property "Datasheet" "https://www.onsemi.com/pub/Collateral/NDS7002A-D.PDF" (at 41.91 104.14 0)
      (effects (font (size 1.27 1.27)) (justify left) hide)
    )
    (pin "1" (uuid 7da7c146-368a-41d0-b5ec-dcfeee437dba))
    (pin "2" (uuid 9a9c2811-51f4-4bec-aa12-9bc6edca2062))
    (pin "3" (uuid 06fdda5d-0617-493c-adb8-c205fe69e608))
    (instances
      (project "osprey_rev_a"
        (path "/86a516b3-939b-48ee-9a25-d0111c577d06/e12a0b82-f794-4b5e-b657-628292a2530a"
          (reference "Q1") (unit 1)
        )
      )
      (project "pandemonium BLE"
        (path "/d73b7c39-1103-4a4e-9b7b-eba7e04e02d3/5ef0b57e-ecff-4104-a5a2-b0e4765a334c"
          (reference "Q1") (unit 1)
        )
      )
    )
  )

  (symbol (lib_id "Device:C_Small") (at 33.02 24.13 0) (unit 1)
    (in_bom yes) (on_board yes) (dnp no)
    (uuid 10c509ca-13d0-4b30-8f0b-bc570c6ac6c9)
    (property "Reference" "C22" (at 35.3568 22.9616 0)
      (effects (font (size 1.27 1.27)) (justify left))
    )
    (property "Value" "1 uF" (at 35.3568 25.273 0)
      (effects (font (size 1.27 1.27)) (justify left))
    )
    (property "Footprint" "Capacitor_SMD:C_0402_1005Metric" (at 33.02 24.13 0)
      (effects (font (size 1.27 1.27)) hide)
    )
    (property "Datasheet" "~" (at 33.02 24.13 0)
      (effects (font (size 1.27 1.27)) hide)
    )
    (property "LCSC" "C52923" (at 33.02 24.13 0)
      (effects (font (size 1.27 1.27)) hide)
    )
    (property "Notes" "X7R, 10%" (at 33.02 24.13 0)
      (effects (font (size 1.27 1.27)) hide)
    )
    (pin "1" (uuid dc086250-bfb0-4e19-9111-c1a72b6e6889))
    (pin "2" (uuid 07df8a23-f861-45a8-ba9d-e7db6488ee4b))
    (instances
      (project "osprey_rev_a"
        (path "/86a516b3-939b-48ee-9a25-d0111c577d06/e12a0b82-f794-4b5e-b657-628292a2530a"
          (reference "C22") (unit 1)
        )
      )
      (project "pandemonium BLE"
        (path "/d73b7c39-1103-4a4e-9b7b-eba7e04e02d3/5ef0b57e-ecff-4104-a5a2-b0e4765a334c"
          (reference "C3") (unit 1)
        )
      )
    )
  )

  (symbol (lib_id "Device:R_Small") (at 86.36 41.91 0) (unit 1)
    (in_bom yes) (on_board yes) (dnp no)
    (uuid 1d4d0ec1-f3a2-4c61-b03e-21db144185c7)
    (property "Reference" "R4" (at 76.2 34.925 0)
      (effects (font (size 1.27 1.27)) (justify left))
    )
    (property "Value" "1 kOhm" (at 76.2 37.465 0)
      (effects (font (size 1.27 1.27)) (justify left))
    )
    (property "Footprint" "Resistor_SMD:R_0402_1005Metric" (at 86.36 41.91 0)
      (effects (font (size 1.27 1.27)) hide)
    )
    (property "Datasheet" "~" (at 86.36 41.91 0)
      (effects (font (size 1.27 1.27)) hide)
    )
    (property "LCSC" "C25890" (at 86.36 41.91 0)
      (effects (font (size 1.27 1.27)) hide)
    )
    (pin "1" (uuid 58b55444-4421-444e-8867-19e21b6ac16e))
    (pin "2" (uuid 8281e3a6-d67b-4f29-9694-87a566409fdc))
    (instances
      (project "osprey_rev_a"
        (path "/86a516b3-939b-48ee-9a25-d0111c577d06/e12a0b82-f794-4b5e-b657-628292a2530a"
          (reference "R4") (unit 1)
        )
      )
      (project "pandemonium BLE"
        (path "/d73b7c39-1103-4a4e-9b7b-eba7e04e02d3/5ef0b57e-ecff-4104-a5a2-b0e4765a334c"
          (reference "R4") (unit 1)
        )
      )
    )
  )

  (symbol (lib_id "power:GND") (at 116.84 33.02 0) (unit 1)
    (in_bom yes) (on_board yes) (dnp no)
    (uuid 35c35fce-c798-4030-a9d2-f62e46f26f69)
    (property "Reference" "#PWR021" (at 116.84 39.37 0)
      (effects (font (size 1.27 1.27)) hide)
    )
    (property "Value" "GND" (at 116.967 37.4142 0)
      (effects (font (size 1.27 1.27)))
    )
    (property "Footprint" "" (at 116.84 33.02 0)
      (effects (font (size 1.27 1.27)) hide)
    )
    (property "Datasheet" "" (at 116.84 33.02 0)
      (effects (font (size 1.27 1.27)) hide)
    )
    (pin "1" (uuid 64cc3d72-792e-4576-97de-0642828b9ce4))
    (instances
      (project "osprey_rev_a"
        (path "/86a516b3-939b-48ee-9a25-d0111c577d06/e12a0b82-f794-4b5e-b657-628292a2530a"
          (reference "#PWR021") (unit 1)
        )
      )
      (project "pandemonium BLE"
        (path "/d73b7c39-1103-4a4e-9b7b-eba7e04e02d3/5ef0b57e-ecff-4104-a5a2-b0e4765a334c"
          (reference "#PWR014") (unit 1)
        )
      )
    )
  )

  (symbol (lib_id "power:+5V") (at 22.86 21.59 0) (unit 1)
    (in_bom yes) (on_board yes) (dnp no)
    (uuid 369e436b-7e3c-4978-9dfa-18d9e3755858)
    (property "Reference" "#PWR018" (at 22.86 25.4 0)
      (effects (font (size 1.27 1.27)) hide)
    )
    (property "Value" "+5V" (at 23.241 17.1958 0)
      (effects (font (size 1.27 1.27)))
    )
    (property "Footprint" "" (at 22.86 21.59 0)
      (effects (font (size 1.27 1.27)) hide)
    )
    (property "Datasheet" "" (at 22.86 21.59 0)
      (effects (font (size 1.27 1.27)) hide)
    )
    (pin "1" (uuid f6a5c2a6-fc84-4512-8b22-bbb1a5768a86))
    (instances
      (project "osprey_rev_a"
        (path "/86a516b3-939b-48ee-9a25-d0111c577d06/e12a0b82-f794-4b5e-b657-628292a2530a"
          (reference "#PWR018") (unit 1)
        )
      )
      (project "pandemonium BLE"
        (path "/d73b7c39-1103-4a4e-9b7b-eba7e04e02d3/5ef0b57e-ecff-4104-a5a2-b0e4765a334c"
          (reference "#PWR011") (unit 1)
        )
      )
    )
  )

  (symbol (lib_id "power:GND") (at 22.86 52.07 0) (unit 1)
    (in_bom yes) (on_board yes) (dnp no)
    (uuid 40bddf44-9043-4c62-b916-d88969afc67e)
    (property "Reference" "#PWR023" (at 22.86 58.42 0)
      (effects (font (size 1.27 1.27)) hide)
    )
    (property "Value" "GND" (at 22.987 56.4642 0)
      (effects (font (size 1.27 1.27)))
    )
    (property "Footprint" "" (at 22.86 52.07 0)
      (effects (font (size 1.27 1.27)) hide)
    )
    (property "Datasheet" "" (at 22.86 52.07 0)
      (effects (font (size 1.27 1.27)) hide)
    )
    (pin "1" (uuid d3abe4d6-ccaa-40d8-ad89-c672ca7b2d8e))
    (instances
      (project "osprey_rev_a"
        (path "/86a516b3-939b-48ee-9a25-d0111c577d06/e12a0b82-f794-4b5e-b657-628292a2530a"
          (reference "#PWR023") (unit 1)
        )
      )
      (project "pandemonium BLE"
        (path "/d73b7c39-1103-4a4e-9b7b-eba7e04e02d3/5ef0b57e-ecff-4104-a5a2-b0e4765a334c"
          (reference "#PWR016") (unit 1)
        )
      )
    )
  )

  (symbol (lib_id "Device:C_Small") (at 107.95 29.21 0) (unit 1)
    (in_bom yes) (on_board yes) (dnp no)
    (uuid 4dcda077-aa28-499f-8ec4-b78cc2a8ad6e)
    (property "Reference" "C24" (at 110.2868 28.0416 0)
      (effects (font (size 1.27 1.27)) (justify left))
    )
    (property "Value" "1 uF" (at 110.2868 30.353 0)
      (effects (font (size 1.27 1.27)) (justify left))
    )
    (property "Footprint" "Capacitor_SMD:C_0402_1005Metric" (at 107.95 29.21 0)
      (effects (font (size 1.27 1.27)) hide)
    )
    (property "Datasheet" "~" (at 107.95 29.21 0)
      (effects (font (size 1.27 1.27)) hide)
    )
    (property "LCSC" "C52923" (at 107.95 29.21 0)
      (effects (font (size 1.27 1.27)) hide)
    )
    (property "Notes" "X7R, 10%" (at 107.95 29.21 0)
      (effects (font (size 1.27 1.27)) hide)
    )
    (pin "1" (uuid 9501f3cf-70e0-429d-a7e3-acf173e65d3c))
    (pin "2" (uuid 000f75dc-01a8-466e-8c30-fe9f6bd306d6))
    (instances
      (project "osprey_rev_a"
        (path "/86a516b3-939b-48ee-9a25-d0111c577d06/e12a0b82-f794-4b5e-b657-628292a2530a"
          (reference "C24") (unit 1)
        )
      )
      (project "pandemonium BLE"
        (path "/d73b7c39-1103-4a4e-9b7b-eba7e04e02d3/5ef0b57e-ecff-4104-a5a2-b0e4765a334c"
          (reference "C5") (unit 1)
        )
      )
    )
  )

  (symbol (lib_id "power:+5V") (at 36.83 99.06 0) (unit 1)
    (in_bom yes) (on_board yes) (dnp no)
    (uuid 58210d66-7d47-4eb2-bf7d-2d6128eb3d03)
    (property "Reference" "#PWR026" (at 36.83 102.87 0)
      (effects (font (size 1.27 1.27)) hide)
    )
    (property "Value" "+5V" (at 37.211 94.6658 0)
      (effects (font (size 1.27 1.27)))
    )
    (property "Footprint" "" (at 36.83 99.06 0)
      (effects (font (size 1.27 1.27)) hide)
    )
    (property "Datasheet" "" (at 36.83 99.06 0)
      (effects (font (size 1.27 1.27)) hide)
    )
    (pin "1" (uuid a4bfe2ce-a05e-4e13-a7ab-46b8bc3930c8))
    (instances
      (project "osprey_rev_a"
        (path "/86a516b3-939b-48ee-9a25-d0111c577d06/e12a0b82-f794-4b5e-b657-628292a2530a"
          (reference "#PWR026") (unit 1)
        )
      )
      (project "pandemonium BLE"
        (path "/d73b7c39-1103-4a4e-9b7b-eba7e04e02d3/5ef0b57e-ecff-4104-a5a2-b0e4765a334c"
          (reference "#PWR019") (unit 1)
        )
      )
    )
  )

  (symbol (lib_id "power:+BATT") (at 132.08 69.85 0) (unit 1)
    (in_bom yes) (on_board yes) (dnp no) (fields_autoplaced)
    (uuid 5d9a6759-dee6-4eb3-8f82-b93b154ae17f)
    (property "Reference" "#PWR025" (at 132.08 73.66 0)
      (effects (font (size 1.27 1.27)) hide)
    )
    (property "Value" "+BATT" (at 132.08 64.135 0)
      (effects (font (size 1.27 1.27)))
    )
    (property "Footprint" "" (at 132.08 69.85 0)
      (effects (font (size 1.27 1.27)) hide)
    )
    (property "Datasheet" "" (at 132.08 69.85 0)
      (effects (font (size 1.27 1.27)) hide)
    )
    (pin "1" (uuid ee22de2b-1674-4426-a290-4be75aed5716))
    (instances
      (project "osprey_rev_a"
        (path "/86a516b3-939b-48ee-9a25-d0111c577d06/e12a0b82-f794-4b5e-b657-628292a2530a"
          (reference "#PWR025") (unit 1)
        )
      )
      (project "pandemonium BLE"
        (path "/d73b7c39-1103-4a4e-9b7b-eba7e04e02d3/5ef0b57e-ecff-4104-a5a2-b0e4765a334c"
          (reference "#PWR018") (unit 1)
        )
      )
    )
  )

  (symbol (lib_id "power:+VSW") (at 26.67 31.75 0) (unit 1)
    (in_bom yes) (on_board yes) (dnp no)
    (uuid 5eddb921-95b3-45d7-a49d-82f48264b66f)
    (property "Reference" "#PWR020" (at 26.67 35.56 0)
      (effects (font (size 1.27 1.27)) hide)
    )
    (property "Value" "+VSW" (at 30.48 29.21 0)
      (effects (font (size 1.27 1.27)))
    )
    (property "Footprint" "" (at 26.67 31.75 0)
      (effects (font (size 1.27 1.27)) hide)
    )
    (property "Datasheet" "" (at 26.67 31.75 0)
      (effects (font (size 1.27 1.27)) hide)
    )
    (pin "1" (uuid bf4196d2-4b1b-4272-a61a-1d1ad93c158d))
    (instances
      (project "osprey_rev_a"
        (path "/86a516b3-939b-48ee-9a25-d0111c577d06/e12a0b82-f794-4b5e-b657-628292a2530a"
          (reference "#PWR020") (unit 1)
        )
      )
      (project "pandemonium BLE"
        (path "/d73b7c39-1103-4a4e-9b7b-eba7e04e02d3/5ef0b57e-ecff-4104-a5a2-b0e4765a334c"
          (reference "#PWR013") (unit 1)
        )
      )
    )
  )

  (symbol (lib_id "Device:R_Small") (at 40.64 49.53 0) (unit 1)
    (in_bom yes) (on_board yes) (dnp no)
    (uuid 673f0a59-6784-414f-8d50-cf4af41fc4de)
    (property "Reference" "R7" (at 39.37 54.6099 0)
      (effects (font (size 1.27 1.27)) (justify left))
    )
    (property "Value" "1.5 kOhm" (at 40.64 66.0399 90)
      (effects (font (size 1.27 1.27)) (justify left))
    )
    (property "Footprint" "Resistor_SMD:R_0402_1005Metric" (at 40.64 49.53 0)
      (effects (font (size 1.27 1.27)) hide)
    )
    (property "Datasheet" "~" (at 40.64 49.53 0)
      (effects (font (size 1.27 1.27)) hide)
    )
    (property "LCSC" "C25867" (at 40.64 49.53 0)
      (effects (font (size 1.27 1.27)) hide)
    )
    (pin "1" (uuid 32257c18-82a8-479e-bb46-9b33833c0791))
    (pin "2" (uuid 8630ae49-b5e9-465f-a623-53d677afe131))
    (instances
      (project "osprey_rev_a"
        (path "/86a516b3-939b-48ee-9a25-d0111c577d06/e12a0b82-f794-4b5e-b657-628292a2530a"
          (reference "R7") (unit 1)
        )
      )
      (project "pandemonium BLE"
        (path "/d73b7c39-1103-4a4e-9b7b-eba7e04e02d3/5ef0b57e-ecff-4104-a5a2-b0e4765a334c"
          (reference "R7") (unit 1)
        )
      )
    )
  )

  (symbol (lib_id "Switch:SW_Push_SPDT") (at 57.15 99.06 0) (unit 1)
    (in_bom yes) (on_board yes) (dnp no)
    (uuid 7559cbd3-0a71-40ee-93cd-b1abd74d525a)
    (property "Reference" "SW43" (at 71.12 100.33 0)
      (effects (font (size 1.27 1.27)))
    )
    (property "Value" "PWR" (at 71.12 102.87 0)
      (effects (font (size 1.27 1.27)))
    )
    (property "Footprint" "PCM_marbastlib-various:SW_MSK12C02-HB" (at 57.15 99.06 0)
      (effects (font (size 1.27 1.27)) hide)
    )
    (property "Datasheet" "~" (at 57.15 99.06 0)
      (effects (font (size 1.27 1.27)) hide)
    )
    (pin "1" (uuid 2256f681-d421-427d-b776-38a4fb485b0c))
    (pin "2" (uuid 720452bd-b14c-4b91-af70-252cb0bebd21))
    (pin "3" (uuid ff7c7db1-1c96-46be-8117-2733abbdc059))
    (instances
      (project "osprey_rev_a"
        (path "/86a516b3-939b-48ee-9a25-d0111c577d06/e12a0b82-f794-4b5e-b657-628292a2530a"
          (reference "SW43") (unit 1)
        )
      )
      (project "pandemonium BLE"
        (path "/d73b7c39-1103-4a4e-9b7b-eba7e04e02d3/5ef0b57e-ecff-4104-a5a2-b0e4765a334c"
          (reference "SW3") (unit 1)
        )
      )
    )
  )

  (symbol (lib_id "Device:LED_Small") (at 86.36 29.21 90) (unit 1)
    (in_bom yes) (on_board yes) (dnp no)
    (uuid 7c043c99-aef6-436a-880a-c58f2bd2aca5)
    (property "Reference" "LED2" (at 80.01 22.86 90)
      (effects (font (size 1.27 1.27)) (justify right))
    )
    (property "Value" "orange" (at 78.74 25.4 90)
      (effects (font (size 1.27 1.27)) (justify right))
    )
    (property "Footprint" "LED_SMD:LED_0402_1005Metric" (at 86.36 29.21 90)
      (effects (font (size 1.27 1.27)) hide)
    )
    (property "Datasheet" "~" (at 86.36 29.21 90)
      (effects (font (size 1.27 1.27)) hide)
    )
    (property "LCSC" "C72038" (at 86.36 29.21 0)
      (effects (font (size 1.27 1.27)) hide)
    )
    (pin "1" (uuid 97ccf8a6-ae0a-4914-9368-1c5b24cd17a9))
    (pin "2" (uuid 67954661-8789-4089-9d17-dcb5d29683e7))
    (instances
      (project "osprey_rev_a"
        (path "/86a516b3-939b-48ee-9a25-d0111c577d06/e12a0b82-f794-4b5e-b657-628292a2530a"
          (reference "LED2") (unit 1)
        )
      )
      (project "pandemonium BLE"
        (path "/d73b7c39-1103-4a4e-9b7b-eba7e04e02d3/5ef0b57e-ecff-4104-a5a2-b0e4765a334c"
          (reference "LED1") (unit 1)
        )
      )
    )
  )

  (symbol (lib_id "power:+BATT") (at 93.98 34.29 0) (unit 1)
    (in_bom yes) (on_board yes) (dnp no)
    (uuid 7e7805cf-fe97-4b40-a889-bf5174b2ca58)
    (property "Reference" "#PWR022" (at 93.98 38.1 0)
      (effects (font (size 1.27 1.27)) hide)
    )
    (property "Value" "+BATT" (at 90.17 31.75 0)
      (effects (font (size 1.27 1.27)))
    )
    (property "Footprint" "" (at 93.98 34.29 0)
      (effects (font (size 1.27 1.27)) hide)
    )
    (property "Datasheet" "" (at 93.98 34.29 0)
      (effects (font (size 1.27 1.27)) hide)
    )
    (pin "1" (uuid 27db6074-704f-4189-b664-1a429f3b8cba))
    (instances
      (project "osprey_rev_a"
        (path "/86a516b3-939b-48ee-9a25-d0111c577d06/e12a0b82-f794-4b5e-b657-628292a2530a"
          (reference "#PWR022") (unit 1)
        )
      )
      (project "pandemonium BLE"
        (path "/d73b7c39-1103-4a4e-9b7b-eba7e04e02d3/5ef0b57e-ecff-4104-a5a2-b0e4765a334c"
          (reference "#PWR015") (unit 1)
        )
      )
    )
  )

  (symbol (lib_id "Device:R_Small") (at 36.83 101.6 0) (unit 1)
    (in_bom yes) (on_board yes) (dnp no) (fields_autoplaced)
    (uuid 803f36fb-9954-40fd-b836-76cee99c9fcc)
    (property "Reference" "R10" (at 34.29 100.3299 0)
      (effects (font (size 1.27 1.27)) (justify right))
    )
    (property "Value" "100 Ohm" (at 34.29 102.8699 0)
      (effects (font (size 1.27 1.27)) (justify right))
    )
    (property "Footprint" "Resistor_SMD:R_0402_1005Metric" (at 36.83 101.6 0)
      (effects (font (size 1.27 1.27)) hide)
    )
    (property "Datasheet" "~" (at 36.83 101.6 0)
      (effects (font (size 1.27 1.27)) hide)
    )
    (property "LCSC" "C25744" (at 36.83 101.6 0)
      (effects (font (size 1.27 1.27)) hide)
    )
    (pin "1" (uuid 6dc5059d-c37e-417f-95cb-5826cc160873))
    (pin "2" (uuid 6357dd11-d02c-490b-8ca8-619b141bb45e))
    (instances
      (project "osprey_rev_a"
        (path "/86a516b3-939b-48ee-9a25-d0111c577d06/e12a0b82-f794-4b5e-b657-628292a2530a"
          (reference "R10") (unit 1)
        )
      )
      (project "pandemonium BLE"
        (path "/d73b7c39-1103-4a4e-9b7b-eba7e04e02d3/5ef0b57e-ecff-4104-a5a2-b0e4765a334c"
          (reference "R10") (unit 1)
        )
      )
    )
  )

  (symbol (lib_id "Device:R_Small") (at 35.56 49.53 0) (unit 1)
    (in_bom yes) (on_board yes) (dnp no)
    (uuid 867e1ebd-e582-4c9b-84c1-d19b4319b948)
    (property "Reference" "R6" (at 34.29 54.61 0)
      (effects (font (size 1.27 1.27)) (justify left))
    )
    (property "Value" "47 kOhm" (at 35.56 66.04 90)
      (effects (font (size 1.27 1.27)) (justify left))
    )
    (property "Footprint" "Resistor_SMD:R_0402_1005Metric" (at 35.56 49.53 0)
      (effects (font (size 1.27 1.27)) hide)
    )
    (property "Datasheet" "~" (at 35.56 49.53 0)
      (effects (font (size 1.27 1.27)) hide)
    )
    (property "LCSC" "C25792" (at 35.56 49.53 0)
      (effects (font (size 1.27 1.27)) hide)
    )
    (pin "1" (uuid 433140b3-44c5-4de9-8b8f-8d58cf779532))
    (pin "2" (uuid add997b1-9b7a-4aec-8e94-6b43f860c7d3))
    (instances
      (project "osprey_rev_a"
        (path "/86a516b3-939b-48ee-9a25-d0111c577d06/e12a0b82-f794-4b5e-b657-628292a2530a"
          (reference "R6") (unit 1)
        )
      )
      (project "pandemonium BLE"
        (path "/d73b7c39-1103-4a4e-9b7b-eba7e04e02d3/5ef0b57e-ecff-4104-a5a2-b0e4765a334c"
          (reference "R6") (unit 1)
        )
      )
    )
  )

  (symbol (lib_id "Device:C_Small") (at 128.27 77.47 0) (unit 1)
    (in_bom yes) (on_board yes) (dnp no) (fields_autoplaced)
    (uuid 8903a441-9df1-4bc0-bbf1-c2375fcd64e3)
    (property "Reference" "C27" (at 125.73 76.2062 0)
      (effects (font (size 1.27 1.27)) (justify right))
    )
    (property "Value" "100 nF" (at 125.73 78.7462 0)
      (effects (font (size 1.27 1.27)) (justify right))
    )
    (property "Footprint" "Capacitor_SMD:C_0402_1005Metric" (at 128.27 77.47 0)
      (effects (font (size 1.27 1.27)) hide)
    )
    (property "Datasheet" "~" (at 128.27 77.47 0)
      (effects (font (size 1.27 1.27)) hide)
    )
    (property "LCSC" "" (at 128.27 77.47 0)
      (effects (font (size 1.27 1.27)) hide)
    )
    (property "Notes" "" (at 128.27 77.47 0)
      (effects (font (size 1.27 1.27)) hide)
    )
    (pin "1" (uuid ecce6d1b-3d6d-43d0-80d3-50d6e6c761e1))
    (pin "2" (uuid a5e41fc5-cdc4-472d-a110-af61faa89837))
    (instances
      (project "osprey_rev_a"
        (path "/86a516b3-939b-48ee-9a25-d0111c577d06/e12a0b82-f794-4b5e-b657-628292a2530a"
          (reference "C27") (unit 1)
        )
      )
      (project "pandemonium BLE"
        (path "/d73b7c39-1103-4a4e-9b7b-eba7e04e02d3/5ef0b57e-ecff-4104-a5a2-b0e4765a334c"
          (reference "C8") (unit 1)
        )
      )
    )
  )

  (symbol (lib_id "power:+BATT") (at 62.23 91.44 0) (unit 1)
    (in_bom yes) (on_board yes) (dnp no) (fields_autoplaced)
    (uuid 89d2ce3b-6410-49b2-a380-8666a3b02097)
    (property "Reference" "#PWR024" (at 62.23 95.25 0)
      (effects (font (size 1.27 1.27)) hide)
    )
    (property "Value" "+BATT" (at 64.77 90.1699 0)
      (effects (font (size 1.27 1.27)) (justify left))
    )
    (property "Footprint" "" (at 62.23 91.44 0)
      (effects (font (size 1.27 1.27)) hide)
    )
    (property "Datasheet" "" (at 62.23 91.44 0)
      (effects (font (size 1.27 1.27)) hide)
    )
    (pin "1" (uuid 3ce25d04-4412-4541-9513-72d3b45336ac))
    (instances
      (project "osprey_rev_a"
        (path "/86a516b3-939b-48ee-9a25-d0111c577d06/e12a0b82-f794-4b5e-b657-628292a2530a"
          (reference "#PWR024") (unit 1)
        )
      )
      (project "pandemonium BLE"
        (path "/d73b7c39-1103-4a4e-9b7b-eba7e04e02d3/5ef0b57e-ecff-4104-a5a2-b0e4765a334c"
          (reference "#PWR017") (unit 1)
        )
      )
    )
  )

  (symbol (lib_id "Device:R_Small") (at 62.23 93.98 180) (unit 1)
    (in_bom yes) (on_board yes) (dnp no) (fields_autoplaced)
    (uuid 940b6988-36a3-4a4b-8a30-22a0596065e2)
    (property "Reference" "R9" (at 64.77 92.7099 0)
      (effects (font (size 1.27 1.27)) (justify right))
    )
    (property "Value" "100 kOhm" (at 64.77 95.2499 0)
      (effects (font (size 1.27 1.27)) (justify right))
    )
    (property "Footprint" "Resistor_SMD:R_0402_1005Metric" (at 62.23 93.98 0)
      (effects (font (size 1.27 1.27)) hide)
    )
    (property "Datasheet" "~" (at 62.23 93.98 0)
      (effects (font (size 1.27 1.27)) hide)
    )
    (property "LCSC" "C25744" (at 62.23 93.98 0)
      (effects (font (size 1.27 1.27)) hide)
    )
    (pin "1" (uuid 93141a14-429a-4eb5-a1cf-d125d7a19e3a))
    (pin "2" (uuid 3067b990-828f-4079-bd32-ddd71c1d1bbc))
    (instances
      (project "osprey_rev_a"
        (path "/86a516b3-939b-48ee-9a25-d0111c577d06/e12a0b82-f794-4b5e-b657-628292a2530a"
          (reference "R9") (unit 1)
        )
      )
      (project "pandemonium BLE"
        (path "/d73b7c39-1103-4a4e-9b7b-eba7e04e02d3/5ef0b57e-ecff-4104-a5a2-b0e4765a334c"
          (reference "R9") (unit 1)
        )
      )
    )
  )

  (symbol (lib_id "Device:C_Small") (at 22.86 24.13 0) (unit 1)
    (in_bom yes) (on_board yes) (dnp no)
    (uuid 9a324275-88d9-4076-b870-0bd18414d68b)
    (property "Reference" "C21" (at 25.1968 22.9616 0)
      (effects (font (size 1.27 1.27)) (justify left))
    )
    (property "Value" "4.7 uF" (at 25.1968 25.273 0)
      (effects (font (size 1.27 1.27)) (justify left))
    )
    (property "Footprint" "Capacitor_SMD:C_0402_1005Metric" (at 22.86 24.13 0)
      (effects (font (size 1.27 1.27)) hide)
    )
    (property "Datasheet" "~" (at 22.86 24.13 0)
      (effects (font (size 1.27 1.27)) hide)
    )
    (property "LCSC" "C23733" (at 22.86 24.13 0)
      (effects (font (size 1.27 1.27)) hide)
    )
    (property "Notes" "X7R, 10%" (at 22.86 24.13 0)
      (effects (font (size 1.27 1.27)) hide)
    )
    (pin "1" (uuid b6ede40c-e52e-4318-b994-4a172ddb8fd6))
    (pin "2" (uuid 55f896b8-9b96-47dc-a33c-dbbdd7f7bd97))
    (instances
      (project "osprey_rev_a"
        (path "/86a516b3-939b-48ee-9a25-d0111c577d06/e12a0b82-f794-4b5e-b657-628292a2530a"
          (reference "C21") (unit 1)
        )
      )
      (project "pandemonium BLE"
        (path "/d73b7c39-1103-4a4e-9b7b-eba7e04e02d3/5ef0b57e-ecff-4104-a5a2-b0e4765a334c"
          (reference "C2") (unit 1)
        )
      )
    )
  )

  (symbol (lib_id "power:GND") (at 132.08 88.9 0) (unit 1)
    (in_bom yes) (on_board yes) (dnp no) (fields_autoplaced)
    (uuid 9c58a7f5-9cfc-4352-9dd9-863045f843de)
    (property "Reference" "#PWR028" (at 132.08 95.25 0)
      (effects (font (size 1.27 1.27)) hide)
    )
    (property "Value" "GND" (at 132.08 93.345 0)
      (effects (font (size 1.27 1.27)))
    )
    (property "Footprint" "" (at 132.08 88.9 0)
      (effects (font (size 1.27 1.27)) hide)
    )
    (property "Datasheet" "" (at 132.08 88.9 0)
      (effects (font (size 1.27 1.27)) hide)
    )
    (pin "1" (uuid adfcc01d-a54c-472a-bde8-35cbe9e599ca))
    (instances
      (project "osprey_rev_a"
        (path "/86a516b3-939b-48ee-9a25-d0111c577d06/e12a0b82-f794-4b5e-b657-628292a2530a"
          (reference "#PWR028") (unit 1)
        )
      )
      (project "pandemonium BLE"
        (path "/d73b7c39-1103-4a4e-9b7b-eba7e04e02d3/5ef0b57e-ecff-4104-a5a2-b0e4765a334c"
          (reference "#PWR021") (unit 1)
        )
      )
    )
  )

  (symbol (lib_id "power:+VSW") (at 107.95 26.67 0) (unit 1)
    (in_bom yes) (on_board yes) (dnp no) (fields_autoplaced)
    (uuid 9cfaaa37-f268-4f08-9c31-b13b3e089e3e)
    (property "Reference" "#PWR019" (at 107.95 30.48 0)
      (effects (font (size 1.27 1.27)) hide)
    )
    (property "Value" "+VSW" (at 107.95 21.59 0)
      (effects (font (size 1.27 1.27)))
    )
    (property "Footprint" "" (at 107.95 26.67 0)
      (effects (font (size 1.27 1.27)) hide)
    )
    (property "Datasheet" "" (at 107.95 26.67 0)
      (effects (font (size 1.27 1.27)) hide)
    )
    (pin "1" (uuid 3d76a76d-3753-4f21-8abf-d246a9df215d))
    (instances
      (project "osprey_rev_a"
        (path "/86a516b3-939b-48ee-9a25-d0111c577d06/e12a0b82-f794-4b5e-b657-628292a2530a"
          (reference "#PWR019") (unit 1)
        )
      )
      (project "pandemonium BLE"
        (path "/d73b7c39-1103-4a4e-9b7b-eba7e04e02d3/5ef0b57e-ecff-4104-a5a2-b0e4765a334c"
          (reference "#PWR012") (unit 1)
        )
      )
    )
  )

  (symbol (lib_id "Battery_Management:BQ24075RGT") (at 62.23 36.83 0) (unit 1)
    (in_bom yes) (on_board yes) (dnp no)
    (uuid a7fd6538-f4b1-4747-b675-b3173edca586)
    (property "Reference" "U2" (at 62.23 16.9926 0)
      (effects (font (size 1.27 1.27)))
    )
    (property "Value" "BQ24075" (at 62.23 19.304 0)
      (effects (font (size 1.27 1.27)))
    )
    (property "Footprint" "Package_DFN_QFN:VQFN-16-1EP_3x3mm_P0.5mm_EP1.6x1.6mm" (at 69.85 50.8 0)
      (effects (font (size 1.27 1.27)) (justify left) hide)
    )
    (property "Datasheet" "http://www.ti.com/lit/ds/symlink/bq24075.pdf" (at 69.85 31.75 0)
      (effects (font (size 1.27 1.27)) hide)
    )
    (property "LCSC" "C15464" (at 62.23 36.83 0)
      (effects (font (size 1.27 1.27)) hide)
    )
    (pin "1" (uuid d78ee61c-ae55-46ad-804e-fec557dc3515))
    (pin "10" (uuid 5aea8c7f-e268-4421-9102-7e05e9170872))
    (pin "11" (uuid 37c33c9c-f5ef-4351-b782-09b0087657f0))
    (pin "12" (uuid 388c8c48-0ad7-4b53-bc8d-bb5ba8a5a9b9))
    (pin "13" (uuid bec7ed44-d2d2-4ea8-b8ec-772db53d136f))
    (pin "14" (uuid 0ee99618-f372-4a47-994c-8050f1c05060))
    (pin "15" (uuid c013bc51-46ad-4fbb-961a-6876599e5a37))
    (pin "16" (uuid 4511e1e3-39f5-49b8-a648-05261f690b69))
    (pin "17" (uuid a34a7224-eed7-4d88-9eb0-d051da7e1362))
    (pin "2" (uuid 8f321110-33d7-4a61-8967-a9316e569607))
    (pin "3" (uuid 4d7f8842-47dc-4455-99f0-0445c4ec454b))
    (pin "4" (uuid aa6cb22f-c0c5-41e9-886f-55e9d9d7a4ed))
    (pin "5" (uuid 81de8798-cacf-4ff1-974b-7cc18cd616ba))
    (pin "6" (uuid 85371665-03c6-4445-b76f-d7d444c52d11))
    (pin "7" (uuid 4fd4fb4d-e14b-4f42-aedf-c0e36e001fae))
    (pin "8" (uuid 042500ba-a42c-4aef-adcc-ecd7acb11c94))
    (pin "9" (uuid 4a20970c-5fe0-4c90-b9d8-52fde25e656d))
    (instances
      (project "osprey_rev_a"
        (path "/86a516b3-939b-48ee-9a25-d0111c577d06/e12a0b82-f794-4b5e-b657-628292a2530a"
          (reference "U2") (unit 1)
        )
      )
      (project "pandemonium BLE"
        (path "/d73b7c39-1103-4a4e-9b7b-eba7e04e02d3/5ef0b57e-ecff-4104-a5a2-b0e4765a334c"
          (reference "U2") (unit 1)
        )
      )
    )
  )

  (symbol (lib_id "Device:R_Small") (at 78.74 45.72 0) (unit 1)
    (in_bom yes) (on_board yes) (dnp no)
    (uuid af65fdbb-5750-4498-b5b9-e0b3d22fac7b)
    (property "Reference" "R5" (at 80.01 48.4886 0)
      (effects (font (size 1.27 1.27)) (justify left))
    )
    (property "Value" "10 kOhm" (at 80.01 50.8 0)
      (effects (font (size 1.27 1.27)) (justify left))
    )
    (property "Footprint" "Resistor_SMD:R_0402_1005Metric" (at 78.74 45.72 0)
      (effects (font (size 1.27 1.27)) hide)
    )
    (property "Datasheet" "~" (at 78.74 45.72 0)
      (effects (font (size 1.27 1.27)) hide)
    )
    (property "LCSC" "C25744" (at 78.74 45.72 0)
      (effects (font (size 1.27 1.27)) hide)
    )
    (pin "1" (uuid 3be65e16-f56c-4a4f-ac6c-853d65982893))
    (pin "2" (uuid 09e3ac44-926c-4922-a33e-4fa71ea05528))
    (instances
      (project "osprey_rev_a"
        (path "/86a516b3-939b-48ee-9a25-d0111c577d06/e12a0b82-f794-4b5e-b657-628292a2530a"
          (reference "R5") (unit 1)
        )
      )
      (project "pandemonium BLE"
        (path "/d73b7c39-1103-4a4e-9b7b-eba7e04e02d3/5ef0b57e-ecff-4104-a5a2-b0e4765a334c"
          (reference "R5") (unit 1)
        )
      )
    )
  )

  (symbol (lib_id "marbastlib-various:MAX17048") (at 140.97 78.74 0) (unit 1)
    (in_bom yes) (on_board yes) (dnp no) (fields_autoplaced)
    (uuid c51eee03-b22f-4f1b-8a72-a34501bfb184)
    (property "Reference" "U3" (at 140.97 64.135 0)
      (effects (font (size 1.27 1.27)))
    )
    (property "Value" "MAX17048" (at 140.97 66.675 0)
      (effects (font (size 1.27 1.27)))
    )
    (property "Footprint" "Package_DFN_QFN:DFN-8-1EP_2x2mm_P0.5mm_EP0.7x1.3mm" (at 131.445 88.9 0)
      (effects (font (size 1.27 1.27)) hide)
    )
    (property "Datasheet" "https://datasheets.maximintegrated.com/en/ds/MAX17048-MAX17049.pdf" (at 131.445 88.9 0)
      (effects (font (size 1.27 1.27)) hide)
    )
    (pin "1" (uuid bc3a876b-ee3a-4178-905e-56b395a85639))
    (pin "2" (uuid 378ea72e-b000-4955-9ee3-d2531f45cdf9))
    (pin "3" (uuid 2b49914f-b6bd-4018-97b7-1e51bf17ada7))
    (pin "4" (uuid 55978e99-52e7-4aed-8707-3ec01e6d23f7))
    (pin "5" (uuid d3f31626-9eac-4bfc-8f66-a9104fcda5a3))
    (pin "6" (uuid 6d0441a3-e343-45bc-b1f6-e4eb1c341ca0))
    (pin "7" (uuid 40a91709-194d-44ea-a47e-edac4fee6a5a))
    (pin "8" (uuid 466f911c-7639-4690-877e-e2ecc0eb6417))
    (pin "9" (uuid 41a03e30-d08d-4498-b344-5b98e8942151))
    (instances
      (project "osprey_rev_a"
        (path "/86a516b3-939b-48ee-9a25-d0111c577d06/e12a0b82-f794-4b5e-b657-628292a2530a"
          (reference "U3") (unit 1)
        )
      )
      (project "pandemonium BLE"
        (path "/d73b7c39-1103-4a4e-9b7b-eba7e04e02d3/5ef0b57e-ecff-4104-a5a2-b0e4765a334c"
          (reference "U3") (unit 1)
        )
      )
    )
  )

  (symbol (lib_id "Device:C_Small") (at 107.95 36.83 0) (unit 1)
    (in_bom yes) (on_board yes) (dnp no)
    (uuid cfafee33-1a4d-4467-a336-9faddabc5c76)
    (property "Reference" "C26" (at 110.2868 35.6616 0)
      (effects (font (size 1.27 1.27)) (justify left))
    )
    (property "Value" "1 uF" (at 110.2868 37.973 0)
      (effects (font (size 1.27 1.27)) (justify left))
    )
    (property "Footprint" "Capacitor_SMD:C_0402_1005Metric" (at 107.95 36.83 0)
      (effects (font (size 1.27 1.27)) hide)
    )
    (property "Datasheet" "~" (at 107.95 36.83 0)
      (effects (font (size 1.27 1.27)) hide)
    )
    (property "LCSC" "C52923" (at 107.95 36.83 0)
      (effects (font (size 1.27 1.27)) hide)
    )
    (property "Notes" "X7R, 10%" (at 107.95 36.83 0)
      (effects (font (size 1.27 1.27)) hide)
    )
    (pin "1" (uuid 433fe68e-7d60-44f9-a244-3d5ea38800d5))
    (pin "2" (uuid fb37f07c-7682-482e-8bfa-66b1dfb9b48e))
    (instances
      (project "osprey_rev_a"
        (path "/86a516b3-939b-48ee-9a25-d0111c577d06/e12a0b82-f794-4b5e-b657-628292a2530a"
          (reference "C26") (unit 1)
        )
      )
      (project "pandemonium BLE"
        (path "/d73b7c39-1103-4a4e-9b7b-eba7e04e02d3/5ef0b57e-ecff-4104-a5a2-b0e4765a334c"
          (reference "C7") (unit 1)
        )
      )
    )
  )

  (symbol (lib_id "Device:R_Small") (at 36.83 106.68 0) (unit 1)
    (in_bom yes) (on_board yes) (dnp no) (fields_autoplaced)
    (uuid d16cc18a-c3e7-4ed1-a899-01422341c152)
    (property "Reference" "R11" (at 34.29 105.4099 0)
      (effects (font (size 1.27 1.27)) (justify right))
    )
    (property "Value" "10 kOhm" (at 34.29 107.9499 0)
      (effects (font (size 1.27 1.27)) (justify right))
    )
    (property "Footprint" "Resistor_SMD:R_0402_1005Metric" (at 36.83 106.68 0)
      (effects (font (size 1.27 1.27)) hide)
    )
    (property "Datasheet" "~" (at 36.83 106.68 0)
      (effects (font (size 1.27 1.27)) hide)
    )
    (property "LCSC" "C25744" (at 36.83 106.68 0)
      (effects (font (size 1.27 1.27)) hide)
    )
    (pin "1" (uuid 070aa8c9-2af7-439a-8f71-52b2f2c9faa0))
    (pin "2" (uuid 0e28c3f4-fde5-4bc4-b475-487254cfe6c2))
    (instances
      (project "osprey_rev_a"
        (path "/86a516b3-939b-48ee-9a25-d0111c577d06/e12a0b82-f794-4b5e-b657-628292a2530a"
          (reference "R11") (unit 1)
        )
      )
      (project "pandemonium BLE"
        (path "/d73b7c39-1103-4a4e-9b7b-eba7e04e02d3/5ef0b57e-ecff-4104-a5a2-b0e4765a334c"
          (reference "R11") (unit 1)
        )
      )
    )
  )

  (symbol (lib_id "Device:R_Small") (at 45.72 49.53 0) (unit 1)
    (in_bom yes) (on_board yes) (dnp no)
    (uuid dab3d65d-130c-492b-87e4-9274060f7571)
    (property "Reference" "R8" (at 44.45 54.61 0)
      (effects (font (size 1.27 1.27)) (justify left))
    )
    (property "Value" "3.9 kOhm" (at 45.72 66.04 90)
      (effects (font (size 1.27 1.27)) (justify left))
    )
    (property "Footprint" "Resistor_SMD:R_0402_1005Metric" (at 45.72 49.53 0)
      (effects (font (size 1.27 1.27)) hide)
    )
    (property "Datasheet" "~" (at 45.72 49.53 0)
      (effects (font (size 1.27 1.27)) hide)
    )
    (property "LCSC" "C25744" (at 45.72 49.53 0)
      (effects (font (size 1.27 1.27)) hide)
    )
    (pin "1" (uuid 7fbb828d-4dbe-4864-9e32-569772f7f97f))
    (pin "2" (uuid 332f3bef-a43a-4db4-a58d-f931f04f8898))
    (instances
      (project "osprey_rev_a"
        (path "/86a516b3-939b-48ee-9a25-d0111c577d06/e12a0b82-f794-4b5e-b657-628292a2530a"
          (reference "R8") (unit 1)
        )
      )
      (project "pandemonium BLE"
        (path "/d73b7c39-1103-4a4e-9b7b-eba7e04e02d3/5ef0b57e-ecff-4104-a5a2-b0e4765a334c"
          (reference "R8") (unit 1)
        )
      )
    )
  )

  (symbol (lib_id "power:GND") (at 44.45 109.22 0) (unit 1)
    (in_bom yes) (on_board yes) (dnp no) (fields_autoplaced)
    (uuid e02f567f-73c9-4230-9c08-e4668a71dad2)
    (property "Reference" "#PWR027" (at 44.45 115.57 0)
      (effects (font (size 1.27 1.27)) hide)
    )
    (property "Value" "GND" (at 46.99 110.2994 0)
      (effects (font (size 1.27 1.27)) (justify left))
    )
    (property "Footprint" "" (at 44.45 109.22 0)
      (effects (font (size 1.27 1.27)) hide)
    )
    (property "Datasheet" "" (at 44.45 109.22 0)
      (effects (font (size 1.27 1.27)) hide)
    )
    (pin "1" (uuid 0174464e-2c5d-4c62-8b72-d9f8fee9a1eb))
    (instances
      (project "osprey_rev_a"
        (path "/86a516b3-939b-48ee-9a25-d0111c577d06/e12a0b82-f794-4b5e-b657-628292a2530a"
          (reference "#PWR027") (unit 1)
        )
      )
      (project "pandemonium BLE"
        (path "/d73b7c39-1103-4a4e-9b7b-eba7e04e02d3/5ef0b57e-ecff-4104-a5a2-b0e4765a334c"
          (reference "#PWR020") (unit 1)
        )
      )
    )
  )

  (symbol (lib_id "Connector_Generic_MountingPin:Conn_01x02_MountingPin") (at 99.06 43.18 0) (unit 1)
    (in_bom yes) (on_board yes) (dnp no)
    (uuid e4450c38-6cfa-42eb-9464-25f2f16357db)
    (property "Reference" "J2" (at 101.092 43.3832 0)
      (effects (font (size 1.27 1.27)) (justify left))
    )
    (property "Value" "ACH_BM02B-ACHSS" (at 101.092 45.6946 0)
      (effects (font (size 1.27 1.27)) (justify left))
    )
    (property "Footprint" "PCM_marbastlib-various:CON_JST_ACH_BM02B" (at 99.06 43.18 0)
      (effects (font (size 1.27 1.27)) hide)
    )
    (property "Datasheet" "~" (at 99.06 43.18 0)
      (effects (font (size 1.27 1.27)) hide)
    )
    (pin "1" (uuid 2c6d3483-ef20-42af-a766-a0f533f1162e))
    (pin "2" (uuid d5941da4-7cdb-459b-b303-b710f5cc31c5))
    (pin "MP" (uuid 6acf87cc-ed4e-434d-bc4d-c859cd5c44a3))
    (instances
      (project "osprey_rev_a"
        (path "/86a516b3-939b-48ee-9a25-d0111c577d06/e12a0b82-f794-4b5e-b657-628292a2530a"
          (reference "J2") (unit 1)
        )
      )
      (project "pandemonium BLE"
        (path "/d73b7c39-1103-4a4e-9b7b-eba7e04e02d3/5ef0b57e-ecff-4104-a5a2-b0e4765a334c"
          (reference "J4") (unit 1)
        )
      )
    )
  )

  (symbol (lib_id "Device:C_Small") (at 97.79 29.21 0) (unit 1)
    (in_bom yes) (on_board yes) (dnp no)
    (uuid e6bd0301-f914-4741-9f6b-09dfb784ed24)
    (property "Reference" "C23" (at 100.1268 28.0416 0)
      (effects (font (size 1.27 1.27)) (justify left))
    )
    (property "Value" "4.7 uF" (at 100.1268 30.353 0)
      (effects (font (size 1.27 1.27)) (justify left))
    )
    (property "Footprint" "Capacitor_SMD:C_0402_1005Metric" (at 97.79 29.21 0)
      (effects (font (size 1.27 1.27)) hide)
    )
    (property "Datasheet" "~" (at 97.79 29.21 0)
      (effects (font (size 1.27 1.27)) hide)
    )
    (property "LCSC" "C23733" (at 97.79 29.21 0)
      (effects (font (size 1.27 1.27)) hide)
    )
    (property "Notes" "X7R, 10%" (at 97.79 29.21 0)
      (effects (font (size 1.27 1.27)) hide)
    )
    (pin "1" (uuid 19e4d1c6-1504-462f-bca8-a8b69f97a5d4))
    (pin "2" (uuid db635f2f-7de9-446c-b2d1-544198a627a5))
    (instances
      (project "osprey_rev_a"
        (path "/86a516b3-939b-48ee-9a25-d0111c577d06/e12a0b82-f794-4b5e-b657-628292a2530a"
          (reference "C23") (unit 1)
        )
      )
      (project "pandemonium BLE"
        (path "/d73b7c39-1103-4a4e-9b7b-eba7e04e02d3/5ef0b57e-ecff-4104-a5a2-b0e4765a334c"
          (reference "C4") (unit 1)
        )
      )
    )
  )

  (symbol (lib_id "Device:C_Small") (at 97.79 36.83 0) (unit 1)
    (in_bom yes) (on_board yes) (dnp no)
    (uuid ee29fb3f-e565-42f7-a6aa-46564c07f2ad)
    (property "Reference" "C25" (at 100.1268 35.6616 0)
      (effects (font (size 1.27 1.27)) (justify left))
    )
    (property "Value" "4.7 uF" (at 100.1268 37.973 0)
      (effects (font (size 1.27 1.27)) (justify left))
    )
    (property "Footprint" "Capacitor_SMD:C_0402_1005Metric" (at 97.79 36.83 0)
      (effects (font (size 1.27 1.27)) hide)
    )
    (property "Datasheet" "~" (at 97.79 36.83 0)
      (effects (font (size 1.27 1.27)) hide)
    )
    (property "LCSC" "C23733" (at 97.79 36.83 0)
      (effects (font (size 1.27 1.27)) hide)
    )
    (property "Notes" "X7R, 10%" (at 97.79 36.83 0)
      (effects (font (size 1.27 1.27)) hide)
    )
    (pin "1" (uuid 23371fba-c4c7-4315-a9c2-b24061964773))
    (pin "2" (uuid b6405a80-aad3-4ae5-a6e6-05f9ad8ba85b))
    (instances
      (project "osprey_rev_a"
        (path "/86a516b3-939b-48ee-9a25-d0111c577d06/e12a0b82-f794-4b5e-b657-628292a2530a"
          (reference "C25") (unit 1)
        )
      )
      (project "pandemonium BLE"
        (path "/d73b7c39-1103-4a4e-9b7b-eba7e04e02d3/5ef0b57e-ecff-4104-a5a2-b0e4765a334c"
          (reference "C6") (unit 1)
        )
      )
    )
  )
)
