{
  "board": {
    "3dviewports": [],
    "design_settings": {
      "defaults": {
        "board_outline_line_width": 0.09999999999999999,
        "copper_line_width": 0.19999999999999998,
        "copper_text_italic": false,
        "copper_text_size_h": 1.5,
        "copper_text_size_v": 1.5,
        "copper_text_thickness": 0.3,
        "copper_text_upright": false,
        "courtyard_line_width": 0.049999999999999996,
        "dimension_precision": 4,
        "dimension_units": 3,
        "dimensions": {
          "arrow_length": 1270000,
          "extension_offset": 500000,
          "keep_text_aligned": true,
          "suppress_zeroes": false,
          "text_position": 0,
          "units_format": 1
        },
        "fab_line_width": 0.09999999999999999,
        "fab_text_italic": false,
        "fab_text_size_h": 1.0,
        "fab_text_size_v": 1.0,
        "fab_text_thickness": 0.15,
        "fab_text_upright": false,
        "other_line_width": 0.15,
        "other_text_italic": false,
        "other_text_size_h": 1.0,
        "other_text_size_v": 1.0,
        "other_text_thickness": 0.15,
        "other_text_upright": false,
        "pads": {
          "drill": 0.0,
          "height": 2.3,
          "width": 1.0
        },
        "silk_line_width": 0.09999999999999999,
        "silk_text_italic": false,
        "silk_text_size_h": 0.39999999999999997,
        "silk_text_size_v": 0.39999999999999997,
        "silk_text_thickness": 0.09999999999999999,
        "silk_text_upright": false,
        "zones": {
          "45_degree_only": false,
          "min_clearance": 0.508
        }
      },
      "diff_pair_dimensions": [
        {
          "gap": 0.0,
          "via_gap": 0.0,
          "width": 0.0
        }
      ],
      "drc_exclusions": [
        "lib_footprint_mismatch|131287500|102000000|42223539-999b-49bf-867f-2f2656186c01|00000000-0000-0000-0000-000000000000",
        "lib_footprint_mismatch|131287500|110000000|8e3df694-7063-4862-9218-90cd3f82f2c7|00000000-0000-0000-0000-000000000000",
        "lib_footprint_mismatch|133000000|119500000|af455c24-67c8-4a39-8d87-4bb2e20acec9|00000000-0000-0000-0000-000000000000",
        "lib_footprint_mismatch|150500000|100500000|0604ee60-1734-4240-a625-78d6265f1013|00000000-0000-0000-0000-000000000000",
        "lib_footprint_mismatch|162000000|120750000|52be00f7-6865-4fb9-8946-b69e1345f1ad|00000000-0000-0000-0000-000000000000",
        "lib_footprint_mismatch|162000000|120750000|6946fd69-3ad5-410f-bbe4-0d7117bbeae4|00000000-0000-0000-0000-000000000000",
        "lib_footprint_mismatch|162000000|99250000|8caf382a-3122-4481-ba32-3b6bc70620bb|00000000-0000-0000-0000-000000000000",
        "lib_footprint_mismatch|162000000|99250000|d59c8846-54e8-4e34-80d3-5b54b6eac8ea|00000000-0000-0000-0000-000000000000",
        "lib_footprint_mismatch|170250000|105750000|78daff61-f1ef-4d79-8451-f507bbde71c3|00000000-0000-0000-0000-000000000000",
        "lib_footprint_mismatch|170250000|105750000|c2a8cee9-1290-4b17-bde8-dc9ac6c32833|00000000-0000-0000-0000-000000000000",
        "lib_footprint_mismatch|170250000|114250000|20b20151-6475-4cb3-a8bb-a103f40b3f7d|00000000-0000-0000-0000-000000000000",
        "lib_footprint_mismatch|170250000|114250000|9416ba15-42a0-4033-8f9b-81f89fa83329|00000000-0000-0000-0000-000000000000"
      ],
      "meta": {
        "version": 2
      },
      "rule_severities": {
        "annular_width": "error",
        "clearance": "error",
        "connection_width": "warning",
        "copper_edge_clearance": "error",
        "copper_sliver": "warning",
        "courtyards_overlap": "error",
        "diff_pair_gap_out_of_range": "error",
        "diff_pair_uncoupled_length_too_long": "error",
        "drill_out_of_range": "error",
        "duplicate_footprints": "warning",
        "extra_footprint": "warning",
        "footprint": "error",
        "footprint_type_mismatch": "error",
        "hole_clearance": "error",
        "hole_near_hole": "error",
        "invalid_outline": "error",
        "isolated_copper": "warning",
        "item_on_disabled_layer": "error",
        "items_not_allowed": "error",
        "length_out_of_range": "error",
        "lib_footprint_issues": "warning",
        "lib_footprint_mismatch": "warning",
        "malformed_courtyard": "error",
        "microvia_drill_out_of_range": "error",
        "missing_courtyard": "ignore",
        "missing_footprint": "warning",
        "net_conflict": "warning",
        "npth_inside_courtyard": "ignore",
        "padstack": "error",
        "pth_inside_courtyard": "ignore",
        "shorting_items": "error",
        "silk_edge_clearance": "warning",
        "silk_over_copper": "warning",
        "silk_overlap": "warning",
        "skew_out_of_range": "error",
        "solder_mask_bridge": "error",
        "starved_thermal": "error",
        "text_height": "warning",
        "text_thickness": "warning",
        "through_hole_pad_without_hole": "error",
        "too_many_vias": "error",
        "track_dangling": "warning",
        "track_width": "error",
        "tracks_crossing": "error",
        "unconnected_items": "error",
        "unresolved_variable": "error",
        "via_dangling": "warning",
        "zones_intersect": "error"
      },
      "rules": {
        "allow_blind_buried_vias": false,
        "allow_microvias": false,
        "max_error": 0.005,
        "min_clearance": 0.15239999999999998,
        "min_connection": 0.15239999999999998,
        "min_copper_edge_clearance": 0.19999999999999998,
        "min_hole_clearance": 0.15239999999999998,
        "min_hole_to_hole": 0.15239999999999998,
        "min_microvia_diameter": 0.508,
        "min_microvia_drill": 0.254,
        "min_resolved_spokes": 2,
        "min_silk_clearance": 0.0,
        "min_text_height": 0.07619999999999999,
        "min_text_thickness": 0.07619999999999999,
        "min_through_hole_diameter": 0.254,
        "min_track_width": 0.15239999999999998,
        "min_via_annular_width": 0.127,
        "min_via_diameter": 0.508,
        "solder_mask_clearance": 0.0,
        "solder_mask_min_width": 0.0,
        "solder_mask_to_copper_clearance": 0.0,
        "use_height_for_length_calcs": true
      },
      "teardrop_options": [
        {
          "td_allow_use_two_tracks": true,
          "td_curve_segcount": 5,
          "td_on_pad_in_zone": false,
          "td_onpadsmd": true,
          "td_onroundshapesonly": false,
          "td_ontrackend": false,
          "td_onviapad": true
        }
      ],
      "teardrop_parameters": [
        {
          "td_curve_segcount": 0,
          "td_height_ratio": 1.0,
          "td_length_ratio": 0.5,
          "td_maxheight": 2.0,
          "td_maxlen": 1.0,
          "td_target_name": "td_round_shape",
          "td_width_to_size_filter_ratio": 0.9
        },
        {
          "td_curve_segcount": 0,
          "td_height_ratio": 1.0,
          "td_length_ratio": 0.5,
          "td_maxheight": 2.0,
          "td_maxlen": 1.0,
          "td_target_name": "td_rect_shape",
          "td_width_to_size_filter_ratio": 0.9
        },
        {
          "td_curve_segcount": 0,
          "td_height_ratio": 1.0,
          "td_length_ratio": 0.5,
          "td_maxheight": 2.0,
          "td_maxlen": 1.0,
          "td_target_name": "td_track_end",
          "td_width_to_size_filter_ratio": 0.9
        }
      ],
      "track_widths": [
        0.0,
        0.254
      ],
      "via_dimensions": [
        {
          "diameter": 0.0,
          "drill": 0.0
        }
      ],
      "zones_allow_external_fillets": false,
      "zones_use_no_outline": true
    },
    "layer_presets": [],
    "viewports": []
  },
  "boards": [],
  "cvpcb": {
    "equivalence_files": []
  },
  "erc": {
    "erc_exclusions": [
      "lib_symbol_issues|1447800|1270000|06a7b68e-ce03-4220-862e-46030107dd48|00000000-0000-0000-0000-000000000000|||",
      "lib_symbol_issues|1447800|711200|cab4db5d-7a59-4868-a230-16040538b2cb|00000000-0000-0000-0000-000000000000|||",
      "lib_symbol_issues|1447800|990600|adf4eff2-c2ce-4c6f-93f3-03e105a8983a|00000000-0000-0000-0000-000000000000|||",
      "pin_to_pin|368300|977900|1b2ac6c0-5a9d-4fd7-932b-219b6ef1aaf5|d9887abd-cc51-42f6-aded-e486d35d0668|/59cc2ad6-09eb-4967-9af2-96d291b52b9b|/59cc2ad6-09eb-4967-9af2-96d291b52b9b|/59cc2ad6-09eb-4967-9af2-96d291b52b9b",
      "pin_to_pin|444500|825500|353de986-ec3f-4672-afcf-4402c08e92ab|3d154b1a-31ab-4827-9a18-5b556ae814f0|/59cc2ad6-09eb-4967-9af2-96d291b52b9b|/59cc2ad6-09eb-4967-9af2-96d291b52b9b|/59cc2ad6-09eb-4967-9af2-96d291b52b9b"
    ],
    "meta": {
      "version": 0
    },
    "pin_map": [
      [
        0,
        0,
        0,
        0,
        0,
        0,
        1,
        0,
        0,
        0,
        0,
        2
      ],
      [
        0,
        2,
        0,
        1,
        0,
        0,
        1,
        0,
        2,
        2,
        2,
        2
      ],
      [
        0,
        0,
        0,
        0,
        0,
        0,
        1,
        0,
        1,
        0,
        1,
        2
      ],
      [
        0,
        1,
        0,
        0,
        0,
        0,
        1,
        1,
        2,
        1,
        1,
        2
      ],
      [
        0,
        0,
        0,
        0,
        0,
        0,
        1,
        0,
        0,
        0,
        0,
        2
      ],
      [
        0,
        0,
        0,
        0,
        0,
        0,
        0,
        0,
        0,
        0,
        0,
        2
      ],
      [
        1,
        1,
        1,
        1,
        1,
        0,
        1,
        1,
        1,
        1,
        1,
        2
      ],
      [
        0,
        0,
        0,
        1,
        0,
        0,
        1,
        0,
        0,
        0,
        0,
        2
      ],
      [
        0,
        2,
        1,
        2,
        0,
        0,
        1,
        0,
        2,
        2,
        2,
        2
      ],
      [
        0,
        2,
        0,
        1,
        0,
        0,
        1,
        0,
        2,
        0,
        0,
        2
      ],
      [
        0,
        2,
        1,
        1,
        0,
        0,
        1,
        0,
        2,
        0,
        0,
        2
      ],
      [
        2,
        2,
        2,
        2,
        2,
        2,
        2,
        2,
        2,
        2,
        2,
        2
      ]
    ],
    "rule_severities": {
      "bus_definition_conflict": "error",
      "bus_entry_needed": "error",
      "bus_to_bus_conflict": "error",
      "bus_to_net_conflict": "error",
      "conflicting_netclasses": "error",
      "different_unit_footprint": "error",
      "different_unit_net": "error",
      "duplicate_reference": "error",
      "duplicate_sheet_names": "error",
      "endpoint_off_grid": "warning",
      "extra_units": "error",
      "global_label_dangling": "warning",
      "hier_label_mismatch": "error",
      "label_dangling": "error",
      "lib_symbol_issues": "warning",
      "missing_bidi_pin": "warning",
      "missing_input_pin": "warning",
      "missing_power_pin": "error",
      "missing_unit": "warning",
      "multiple_net_names": "warning",
      "net_not_bus_member": "warning",
      "no_connect_connected": "warning",
      "no_connect_dangling": "warning",
      "pin_not_connected": "error",
      "pin_not_driven": "error",
      "pin_to_pin": "error",
      "power_pin_not_driven": "error",
      "similar_labels": "warning",
      "simulation_model_issue": "ignore",
      "unannotated": "error",
      "unit_value_mismatch": "error",
      "unresolved_variable": "error",
      "wire_dangling": "error"
    }
  },
  "libraries": {
    "pinned_footprint_libs": [],
    "pinned_symbol_libs": []
  },
  "meta": {
    "filename": "rvice_adc.kicad_pro",
    "version": 1
  },
  "net_settings": {
    "classes": [
      {
        "bus_width": 12,
        "clearance": 0.1524,
        "diff_pair_gap": 0.1524,
        "diff_pair_via_gap": 0.25,
        "diff_pair_width": 0.1524,
        "line_style": 0,
        "microvia_diameter": 0.3,
        "microvia_drill": 0.1,
        "name": "Default",
        "pcb_color": "rgba(0, 0, 0, 0.000)",
        "schematic_color": "rgba(0, 0, 0, 0.000)",
        "track_width": 0.1524,
        "via_diameter": 0.508,
        "via_drill": 0.254,
        "wire_width": 6
      }
    ],
    "meta": {
      "version": 3
    },
    "net_colors": null,
    "netclass_assignments": null,
    "netclass_patterns": []
  },
  "pcbnew": {
    "last_paths": {
      "gencad": "",
      "idf": "",
      "netlist": "",
      "specctra_dsn": "",
      "step": "",
      "vrml": ""
    },
    "page_layout_descr_file": ""
  },
  "schematic": {
    "annotate_start_num": 0,
    "drawing": {
      "dashed_lines_dash_length_ratio": 12.0,
      "dashed_lines_gap_length_ratio": 3.0,
      "default_line_thickness": 6.0,
      "default_text_size": 50.0,
      "field_names": [],
      "intersheets_ref_own_page": false,
      "intersheets_ref_prefix": "",
      "intersheets_ref_short": false,
      "intersheets_ref_show": false,
      "intersheets_ref_suffix": "",
      "junction_size_choice": 3,
      "label_size_ratio": 0.375,
      "pin_symbol_size": 25.0,
      "text_offset_ratio": 0.15
    },
    "legacy_lib_dir": "",
    "legacy_lib_list": [],
    "meta": {
      "version": 1
    },
    "net_format_name": "",
    "page_layout_descr_file": "",
    "plot_directory": "",
    "spice_current_sheet_as_root": false,
    "spice_external_command": "spice \"%I\"",
    "spice_model_current_sheet_as_root": true,
    "spice_save_all_currents": false,
    "spice_save_all_voltages": false,
    "subpart_first_id": 65,
    "subpart_id_separator": 0
  },
  "sheets": [
    [
      "59cc2ad6-09eb-4967-9af2-96d291b52b9b",
      ""
    ],
    [
      "67be2d97-3d99-412f-93ed-27c57209a02f",
      "power"
    ],
    [
      "a7e3d2e7-f6c2-43d3-b9c3-2f4388349798",
      "micro"
    ],
    [
      "ff9cd6f4-69f2-4307-9cd7-25ba07693db2",
      "fpga"
    ],
    [
      "3f4b04a7-99b7-4a51-a47e-bb0ba26efe63",
      "adc"
    ]
  ],
  "text_variables": {}
}
