(kicad_sch (version 20230121) (generator eeschema)

  (uuid 96781640-c07e-4eea-a372-067ded96b703)

  (paper "A5")

  (title_block
    (title "USB Flash/EPROM Programmer")
    (date "2023-10-21")
    (rev "v0.1.0 rev.G")
    (company "Robson Martins")
    (comment 1 "https://usbflashprog.robsonmartins.com")
  )

  (lib_symbols
    (symbol "74xx:74HC165" (in_bom yes) (on_board yes)
      (property "Reference" "U" (at -7.62 19.05 0)
        (effects (font (size 1.27 1.27)))
      )
      (property "Value" "74HC165" (at -7.62 -21.59 0)
        (effects (font (size 1.27 1.27)))
      )
      (property "Footprint" "" (at 0 0 0)
        (effects (font (size 1.27 1.27)) hide)
      )
      (property "Datasheet" "https://assets.nexperia.com/documents/data-sheet/74HC_HCT165.pdf" (at 0 0 0)
        (effects (font (size 1.27 1.27)) hide)
      )
      (property "ki_keywords" "8 bit shift register parallel load cmos" (at 0 0 0)
        (effects (font (size 1.27 1.27)) hide)
      )
      (property "ki_description" "Shift Register, 8-bit, Parallel Load" (at 0 0 0)
        (effects (font (size 1.27 1.27)) hide)
      )
      (property "ki_fp_filters" "DIP?16* SO*16*3.9x9.9mm*P1.27mm* SSOP*16*5.3x6.2mm*P0.65mm* TSSOP*16*4.4x5mm*P0.65*" (at 0 0 0)
        (effects (font (size 1.27 1.27)) hide)
      )
      (symbol "74HC165_1_0"
        (pin input line (at -12.7 -10.16 0) (length 5.08)
          (name "~{PL}" (effects (font (size 1.27 1.27))))
          (number "1" (effects (font (size 1.27 1.27))))
        )
        (pin input line (at -12.7 15.24 0) (length 5.08)
          (name "DS" (effects (font (size 1.27 1.27))))
          (number "10" (effects (font (size 1.27 1.27))))
        )
        (pin input line (at -12.7 12.7 0) (length 5.08)
          (name "D0" (effects (font (size 1.27 1.27))))
          (number "11" (effects (font (size 1.27 1.27))))
        )
        (pin input line (at -12.7 10.16 0) (length 5.08)
          (name "D1" (effects (font (size 1.27 1.27))))
          (number "12" (effects (font (size 1.27 1.27))))
        )
        (pin input line (at -12.7 7.62 0) (length 5.08)
          (name "D2" (effects (font (size 1.27 1.27))))
          (number "13" (effects (font (size 1.27 1.27))))
        )
        (pin input line (at -12.7 5.08 0) (length 5.08)
          (name "D3" (effects (font (size 1.27 1.27))))
          (number "14" (effects (font (size 1.27 1.27))))
        )
        (pin input line (at -12.7 -17.78 0) (length 5.08)
          (name "~{CE}" (effects (font (size 1.27 1.27))))
          (number "15" (effects (font (size 1.27 1.27))))
        )
        (pin power_in line (at 0 22.86 270) (length 5.08)
          (name "VCC" (effects (font (size 1.27 1.27))))
          (number "16" (effects (font (size 1.27 1.27))))
        )
        (pin input line (at -12.7 -15.24 0) (length 5.08)
          (name "CP" (effects (font (size 1.27 1.27))))
          (number "2" (effects (font (size 1.27 1.27))))
        )
        (pin input line (at -12.7 2.54 0) (length 5.08)
          (name "D4" (effects (font (size 1.27 1.27))))
          (number "3" (effects (font (size 1.27 1.27))))
        )
        (pin input line (at -12.7 0 0) (length 5.08)
          (name "D5" (effects (font (size 1.27 1.27))))
          (number "4" (effects (font (size 1.27 1.27))))
        )
        (pin input line (at -12.7 -2.54 0) (length 5.08)
          (name "D6" (effects (font (size 1.27 1.27))))
          (number "5" (effects (font (size 1.27 1.27))))
        )
        (pin input line (at -12.7 -5.08 0) (length 5.08)
          (name "D7" (effects (font (size 1.27 1.27))))
          (number "6" (effects (font (size 1.27 1.27))))
        )
        (pin output line (at 12.7 12.7 180) (length 5.08)
          (name "~{Q7}" (effects (font (size 1.27 1.27))))
          (number "7" (effects (font (size 1.27 1.27))))
        )
        (pin power_in line (at 0 -25.4 90) (length 5.08)
          (name "GND" (effects (font (size 1.27 1.27))))
          (number "8" (effects (font (size 1.27 1.27))))
        )
        (pin output line (at 12.7 15.24 180) (length 5.08)
          (name "Q7" (effects (font (size 1.27 1.27))))
          (number "9" (effects (font (size 1.27 1.27))))
        )
      )
      (symbol "74HC165_1_1"
        (rectangle (start -7.62 17.78) (end 7.62 -20.32)
          (stroke (width 0.254) (type default))
          (fill (type background))
        )
      )
    )
    (symbol "74xx:74HC595" (in_bom yes) (on_board yes)
      (property "Reference" "U" (at -7.62 13.97 0)
        (effects (font (size 1.27 1.27)))
      )
      (property "Value" "74HC595" (at -7.62 -16.51 0)
        (effects (font (size 1.27 1.27)))
      )
      (property "Footprint" "" (at 0 0 0)
        (effects (font (size 1.27 1.27)) hide)
      )
      (property "Datasheet" "http://www.ti.com/lit/ds/symlink/sn74hc595.pdf" (at 0 0 0)
        (effects (font (size 1.27 1.27)) hide)
      )
      (property "ki_keywords" "HCMOS SR 3State" (at 0 0 0)
        (effects (font (size 1.27 1.27)) hide)
      )
      (property "ki_description" "8-bit serial in/out Shift Register 3-State Outputs" (at 0 0 0)
        (effects (font (size 1.27 1.27)) hide)
      )
      (property "ki_fp_filters" "DIP*W7.62mm* SOIC*3.9x9.9mm*P1.27mm* TSSOP*4.4x5mm*P0.65mm* SOIC*5.3x10.2mm*P1.27mm* SOIC*7.5x10.3mm*P1.27mm*" (at 0 0 0)
        (effects (font (size 1.27 1.27)) hide)
      )
      (symbol "74HC595_1_0"
        (pin tri_state line (at 10.16 7.62 180) (length 2.54)
          (name "QB" (effects (font (size 1.27 1.27))))
          (number "1" (effects (font (size 1.27 1.27))))
        )
        (pin input line (at -10.16 2.54 0) (length 2.54)
          (name "~{SRCLR}" (effects (font (size 1.27 1.27))))
          (number "10" (effects (font (size 1.27 1.27))))
        )
        (pin input line (at -10.16 5.08 0) (length 2.54)
          (name "SRCLK" (effects (font (size 1.27 1.27))))
          (number "11" (effects (font (size 1.27 1.27))))
        )
        (pin input line (at -10.16 -2.54 0) (length 2.54)
          (name "RCLK" (effects (font (size 1.27 1.27))))
          (number "12" (effects (font (size 1.27 1.27))))
        )
        (pin input line (at -10.16 -5.08 0) (length 2.54)
          (name "~{OE}" (effects (font (size 1.27 1.27))))
          (number "13" (effects (font (size 1.27 1.27))))
        )
        (pin input line (at -10.16 10.16 0) (length 2.54)
          (name "SER" (effects (font (size 1.27 1.27))))
          (number "14" (effects (font (size 1.27 1.27))))
        )
        (pin tri_state line (at 10.16 10.16 180) (length 2.54)
          (name "QA" (effects (font (size 1.27 1.27))))
          (number "15" (effects (font (size 1.27 1.27))))
        )
        (pin power_in line (at 0 15.24 270) (length 2.54)
          (name "VCC" (effects (font (size 1.27 1.27))))
          (number "16" (effects (font (size 1.27 1.27))))
        )
        (pin tri_state line (at 10.16 5.08 180) (length 2.54)
          (name "QC" (effects (font (size 1.27 1.27))))
          (number "2" (effects (font (size 1.27 1.27))))
        )
        (pin tri_state line (at 10.16 2.54 180) (length 2.54)
          (name "QD" (effects (font (size 1.27 1.27))))
          (number "3" (effects (font (size 1.27 1.27))))
        )
        (pin tri_state line (at 10.16 0 180) (length 2.54)
          (name "QE" (effects (font (size 1.27 1.27))))
          (number "4" (effects (font (size 1.27 1.27))))
        )
        (pin tri_state line (at 10.16 -2.54 180) (length 2.54)
          (name "QF" (effects (font (size 1.27 1.27))))
          (number "5" (effects (font (size 1.27 1.27))))
        )
        (pin tri_state line (at 10.16 -5.08 180) (length 2.54)
          (name "QG" (effects (font (size 1.27 1.27))))
          (number "6" (effects (font (size 1.27 1.27))))
        )
        (pin tri_state line (at 10.16 -7.62 180) (length 2.54)
          (name "QH" (effects (font (size 1.27 1.27))))
          (number "7" (effects (font (size 1.27 1.27))))
        )
        (pin power_in line (at 0 -17.78 90) (length 2.54)
          (name "GND" (effects (font (size 1.27 1.27))))
          (number "8" (effects (font (size 1.27 1.27))))
        )
        (pin output line (at 10.16 -12.7 180) (length 2.54)
          (name "QH'" (effects (font (size 1.27 1.27))))
          (number "9" (effects (font (size 1.27 1.27))))
        )
      )
      (symbol "74HC595_1_1"
        (rectangle (start -7.62 12.7) (end 7.62 -15.24)
          (stroke (width 0.254) (type default))
          (fill (type background))
        )
      )
    )
    (symbol "Device:C" (pin_numbers hide) (pin_names (offset 0.254)) (in_bom yes) (on_board yes)
      (property "Reference" "C" (at 0.635 2.54 0)
        (effects (font (size 1.27 1.27)) (justify left))
      )
      (property "Value" "C" (at 0.635 -2.54 0)
        (effects (font (size 1.27 1.27)) (justify left))
      )
      (property "Footprint" "" (at 0.9652 -3.81 0)
        (effects (font (size 1.27 1.27)) hide)
      )
      (property "Datasheet" "~" (at 0 0 0)
        (effects (font (size 1.27 1.27)) hide)
      )
      (property "ki_keywords" "cap capacitor" (at 0 0 0)
        (effects (font (size 1.27 1.27)) hide)
      )
      (property "ki_description" "Unpolarized capacitor" (at 0 0 0)
        (effects (font (size 1.27 1.27)) hide)
      )
      (property "ki_fp_filters" "C_*" (at 0 0 0)
        (effects (font (size 1.27 1.27)) hide)
      )
      (symbol "C_0_1"
        (polyline
          (pts
            (xy -2.032 -0.762)
            (xy 2.032 -0.762)
          )
          (stroke (width 0.508) (type default))
          (fill (type none))
        )
        (polyline
          (pts
            (xy -2.032 0.762)
            (xy 2.032 0.762)
          )
          (stroke (width 0.508) (type default))
          (fill (type none))
        )
      )
      (symbol "C_1_1"
        (pin passive line (at 0 3.81 270) (length 2.794)
          (name "~" (effects (font (size 1.27 1.27))))
          (number "1" (effects (font (size 1.27 1.27))))
        )
        (pin passive line (at 0 -3.81 90) (length 2.794)
          (name "~" (effects (font (size 1.27 1.27))))
          (number "2" (effects (font (size 1.27 1.27))))
        )
      )
    )
    (symbol "Device:R" (pin_numbers hide) (pin_names (offset 0)) (in_bom yes) (on_board yes)
      (property "Reference" "R" (at 2.032 0 90)
        (effects (font (size 1.27 1.27)))
      )
      (property "Value" "R" (at 0 0 90)
        (effects (font (size 1.27 1.27)))
      )
      (property "Footprint" "" (at -1.778 0 90)
        (effects (font (size 1.27 1.27)) hide)
      )
      (property "Datasheet" "~" (at 0 0 0)
        (effects (font (size 1.27 1.27)) hide)
      )
      (property "ki_keywords" "R res resistor" (at 0 0 0)
        (effects (font (size 1.27 1.27)) hide)
      )
      (property "ki_description" "Resistor" (at 0 0 0)
        (effects (font (size 1.27 1.27)) hide)
      )
      (property "ki_fp_filters" "R_*" (at 0 0 0)
        (effects (font (size 1.27 1.27)) hide)
      )
      (symbol "R_0_1"
        (rectangle (start -1.016 -2.54) (end 1.016 2.54)
          (stroke (width 0.254) (type default))
          (fill (type none))
        )
      )
      (symbol "R_1_1"
        (pin passive line (at 0 3.81 270) (length 1.27)
          (name "~" (effects (font (size 1.27 1.27))))
          (number "1" (effects (font (size 1.27 1.27))))
        )
        (pin passive line (at 0 -3.81 90) (length 1.27)
          (name "~" (effects (font (size 1.27 1.27))))
          (number "2" (effects (font (size 1.27 1.27))))
        )
      )
    )
    (symbol "Transistor_BJT:BC547" (pin_numbers hide) (pin_names (offset 0) hide) (in_bom yes) (on_board yes)
      (property "Reference" "Q" (at 5.08 1.905 0)
        (effects (font (size 1.27 1.27)) (justify left))
      )
      (property "Value" "BC547" (at 5.08 0 0)
        (effects (font (size 1.27 1.27)) (justify left))
      )
      (property "Footprint" "Package_TO_SOT_THT:TO-92_Inline" (at 5.08 -1.905 0)
        (effects (font (size 1.27 1.27) italic) (justify left) hide)
      )
      (property "Datasheet" "https://www.onsemi.com/pub/Collateral/BC550-D.pdf" (at 0 0 0)
        (effects (font (size 1.27 1.27)) (justify left) hide)
      )
      (property "ki_keywords" "NPN Transistor" (at 0 0 0)
        (effects (font (size 1.27 1.27)) hide)
      )
      (property "ki_description" "0.1A Ic, 45V Vce, Small Signal NPN Transistor, TO-92" (at 0 0 0)
        (effects (font (size 1.27 1.27)) hide)
      )
      (property "ki_fp_filters" "TO?92*" (at 0 0 0)
        (effects (font (size 1.27 1.27)) hide)
      )
      (symbol "BC547_0_1"
        (polyline
          (pts
            (xy 0 0)
            (xy 0.635 0)
          )
          (stroke (width 0) (type default))
          (fill (type none))
        )
        (polyline
          (pts
            (xy 0.635 0.635)
            (xy 2.54 2.54)
          )
          (stroke (width 0) (type default))
          (fill (type none))
        )
        (polyline
          (pts
            (xy 0.635 -0.635)
            (xy 2.54 -2.54)
            (xy 2.54 -2.54)
          )
          (stroke (width 0) (type default))
          (fill (type none))
        )
        (polyline
          (pts
            (xy 0.635 1.905)
            (xy 0.635 -1.905)
            (xy 0.635 -1.905)
          )
          (stroke (width 0.508) (type default))
          (fill (type none))
        )
        (polyline
          (pts
            (xy 1.27 -1.778)
            (xy 1.778 -1.27)
            (xy 2.286 -2.286)
            (xy 1.27 -1.778)
            (xy 1.27 -1.778)
          )
          (stroke (width 0) (type default))
          (fill (type outline))
        )
        (circle (center 1.27 0) (radius 2.8194)
          (stroke (width 0.254) (type default))
          (fill (type none))
        )
      )
      (symbol "BC547_1_1"
        (pin passive line (at 2.54 5.08 270) (length 2.54)
          (name "C" (effects (font (size 1.27 1.27))))
          (number "1" (effects (font (size 1.27 1.27))))
        )
        (pin input line (at -5.08 0 0) (length 5.08)
          (name "B" (effects (font (size 1.27 1.27))))
          (number "2" (effects (font (size 1.27 1.27))))
        )
        (pin passive line (at 2.54 -5.08 90) (length 2.54)
          (name "E" (effects (font (size 1.27 1.27))))
          (number "3" (effects (font (size 1.27 1.27))))
        )
      )
    )
    (symbol "power:+3V3" (power) (pin_names (offset 0)) (in_bom yes) (on_board yes)
      (property "Reference" "#PWR" (at 0 -3.81 0)
        (effects (font (size 1.27 1.27)) hide)
      )
      (property "Value" "+3V3" (at 0 3.556 0)
        (effects (font (size 1.27 1.27)))
      )
      (property "Footprint" "" (at 0 0 0)
        (effects (font (size 1.27 1.27)) hide)
      )
      (property "Datasheet" "" (at 0 0 0)
        (effects (font (size 1.27 1.27)) hide)
      )
      (property "ki_keywords" "power-flag" (at 0 0 0)
        (effects (font (size 1.27 1.27)) hide)
      )
      (property "ki_description" "Power symbol creates a global label with name \"+3V3\"" (at 0 0 0)
        (effects (font (size 1.27 1.27)) hide)
      )
      (symbol "+3V3_0_1"
        (polyline
          (pts
            (xy -0.762 1.27)
            (xy 0 2.54)
          )
          (stroke (width 0) (type default))
          (fill (type none))
        )
        (polyline
          (pts
            (xy 0 0)
            (xy 0 2.54)
          )
          (stroke (width 0) (type default))
          (fill (type none))
        )
        (polyline
          (pts
            (xy 0 2.54)
            (xy 0.762 1.27)
          )
          (stroke (width 0) (type default))
          (fill (type none))
        )
      )
      (symbol "+3V3_1_1"
        (pin power_in line (at 0 0 90) (length 0) hide
          (name "+3V3" (effects (font (size 1.27 1.27))))
          (number "1" (effects (font (size 1.27 1.27))))
        )
      )
    )
    (symbol "power:GND" (power) (pin_names (offset 0)) (in_bom yes) (on_board yes)
      (property "Reference" "#PWR" (at 0 -6.35 0)
        (effects (font (size 1.27 1.27)) hide)
      )
      (property "Value" "GND" (at 0 -3.81 0)
        (effects (font (size 1.27 1.27)))
      )
      (property "Footprint" "" (at 0 0 0)
        (effects (font (size 1.27 1.27)) hide)
      )
      (property "Datasheet" "" (at 0 0 0)
        (effects (font (size 1.27 1.27)) hide)
      )
      (property "ki_keywords" "power-flag" (at 0 0 0)
        (effects (font (size 1.27 1.27)) hide)
      )
      (property "ki_description" "Power symbol creates a global label with name \"GND\" , ground" (at 0 0 0)
        (effects (font (size 1.27 1.27)) hide)
      )
      (symbol "GND_0_1"
        (polyline
          (pts
            (xy 0 0)
            (xy 0 -1.27)
            (xy 1.27 -1.27)
            (xy 0 -2.54)
            (xy -1.27 -1.27)
            (xy 0 -1.27)
          )
          (stroke (width 0) (type default))
          (fill (type none))
        )
      )
      (symbol "GND_1_1"
        (pin power_in line (at 0 0 270) (length 0) hide
          (name "GND" (effects (font (size 1.27 1.27))))
          (number "1" (effects (font (size 1.27 1.27))))
        )
      )
    )
    (symbol "power:VCC" (power) (pin_names (offset 0)) (in_bom yes) (on_board yes)
      (property "Reference" "#PWR" (at 0 -3.81 0)
        (effects (font (size 1.27 1.27)) hide)
      )
      (property "Value" "VCC" (at 0 3.81 0)
        (effects (font (size 1.27 1.27)))
      )
      (property "Footprint" "" (at 0 0 0)
        (effects (font (size 1.27 1.27)) hide)
      )
      (property "Datasheet" "" (at 0 0 0)
        (effects (font (size 1.27 1.27)) hide)
      )
      (property "ki_keywords" "power-flag" (at 0 0 0)
        (effects (font (size 1.27 1.27)) hide)
      )
      (property "ki_description" "Power symbol creates a global label with name \"VCC\"" (at 0 0 0)
        (effects (font (size 1.27 1.27)) hide)
      )
      (symbol "VCC_0_1"
        (polyline
          (pts
            (xy -0.762 1.27)
            (xy 0 2.54)
          )
          (stroke (width 0) (type default))
          (fill (type none))
        )
        (polyline
          (pts
            (xy 0 0)
            (xy 0 2.54)
          )
          (stroke (width 0) (type default))
          (fill (type none))
        )
        (polyline
          (pts
            (xy 0 2.54)
            (xy 0.762 1.27)
          )
          (stroke (width 0) (type default))
          (fill (type none))
        )
      )
      (symbol "VCC_1_1"
        (pin power_in line (at 0 0 90) (length 0) hide
          (name "VCC" (effects (font (size 1.27 1.27))))
          (number "1" (effects (font (size 1.27 1.27))))
        )
      )
    )
  )

  (junction (at 109.22 50.8) (diameter 0) (color 0 0 0 0)
    (uuid 460147d8-e4b6-4910-88e9-07d1ddd6c2df)
  )
  (junction (at 83.82 50.8) (diameter 0) (color 0 0 0 0)
    (uuid 7de6564c-7ad6-4d57-a54c-8d2835ff5cdc)
  )
  (junction (at 96.52 35.56) (diameter 0) (color 0 0 0 0)
    (uuid af6ac8e6-193c-4bd2-ac0b-7f515b538a8b)
  )
  (junction (at 83.82 87.63) (diameter 0) (color 0 0 0 0)
    (uuid b06577d0-6d3a-43ea-8d2d-ca9542917b08)
  )
  (junction (at 109.22 35.56) (diameter 0) (color 0 0 0 0)
    (uuid b9c0c276-e6f1-47dd-b072-0f92904248ca)
  )
  (junction (at 38.1 62.23) (diameter 0) (color 0 0 0 0)
    (uuid df93f76b-86da-45ae-87e2-4b691af12b00)
  )
  (junction (at 96.52 50.8) (diameter 0) (color 0 0 0 0)
    (uuid eafb53d1-7486-4935-b154-2efbffbed6ca)
  )
  (junction (at 83.82 35.56) (diameter 0) (color 0 0 0 0)
    (uuid fe4869dc-e96e-4bb4-a38d-2ca990635f2d)
  )

  (no_connect (at 66.04 31.75) (uuid 8ad45c18-0c07-4855-a717-c0596cee53fe))
  (no_connect (at 168.91 92.71) (uuid 8ad45c18-0c07-4855-a717-c0596cee53ff))
  (no_connect (at 66.04 90.17) (uuid 8ad45c18-0c07-4855-a717-c0596cee5400))

  (wire (pts (xy 25.4 92.71) (xy 40.64 92.71))
    (stroke (width 0) (type default))
    (uuid 01109662-12b4-48a3-b68d-624008909c2a)
  )
  (wire (pts (xy 109.22 35.56) (xy 121.92 35.56))
    (stroke (width 0) (type default))
    (uuid 046ca2d8-3ca1-4c64-8090-c45e9adcf30e)
  )
  (wire (pts (xy 168.91 31.75) (xy 186.69 31.75))
    (stroke (width 0) (type default))
    (uuid 0e000d05-b181-48b3-ae5f-2ba6a1d971c6)
  )
  (wire (pts (xy 40.64 95.25) (xy 25.4 95.25))
    (stroke (width 0) (type default))
    (uuid 0e166909-afb5-4d70-a00b-dd78cd09b084)
  )
  (wire (pts (xy 168.91 36.83) (xy 186.69 36.83))
    (stroke (width 0) (type default))
    (uuid 0f469aa7-d2af-41ab-8a84-cc7050a2c4cd)
  )
  (wire (pts (xy 168.91 34.29) (xy 186.69 34.29))
    (stroke (width 0) (type default))
    (uuid 0fce77ab-e776-48e4-b0d1-130f52b0df14)
  )
  (wire (pts (xy 142.24 34.29) (xy 148.59 34.29))
    (stroke (width 0) (type default))
    (uuid 14639fd9-dc30-4eb3-9744-5bc930ebc985)
  )
  (wire (pts (xy 40.64 105.41) (xy 25.4 105.41))
    (stroke (width 0) (type default))
    (uuid 1b5a32e4-0b8e-4f38-b679-71dc277c2087)
  )
  (wire (pts (xy 142.24 26.67) (xy 148.59 26.67))
    (stroke (width 0) (type default))
    (uuid 1eac636a-ddf8-4bf9-b341-1c830e6b3150)
  )
  (wire (pts (xy 66.04 87.63) (xy 71.12 87.63))
    (stroke (width 0) (type default))
    (uuid 2276ec6c-cdcc-4369-86b4-8267d991001e)
  )
  (wire (pts (xy 83.82 53.34) (xy 83.82 50.8))
    (stroke (width 0) (type default))
    (uuid 28b01cd2-da3a-46ec-8825-b0f31a0b8987)
  )
  (wire (pts (xy 83.82 87.63) (xy 83.82 78.74))
    (stroke (width 0) (type default))
    (uuid 29987966-1d19-4068-93f6-a61cdfb40ffa)
  )
  (wire (pts (xy 31.75 59.69) (xy 40.64 59.69))
    (stroke (width 0) (type default))
    (uuid 2b73cf02-96cc-4fec-9d7c-5958e8b90bfd)
  )
  (wire (pts (xy 83.82 35.56) (xy 83.82 33.02))
    (stroke (width 0) (type default))
    (uuid 2cd3975a-2259-4fa9-8133-e1586b9b9618)
  )
  (wire (pts (xy 66.04 29.21) (xy 71.12 29.21))
    (stroke (width 0) (type default))
    (uuid 2d0d333a-99a0-4575-9433-710c8cc7ac0b)
  )
  (wire (pts (xy 38.1 62.23) (xy 40.64 62.23))
    (stroke (width 0) (type default))
    (uuid 2d4d8c24-5b38-445b-8733-2a81ba21d33e)
  )
  (wire (pts (xy 109.22 50.8) (xy 121.92 50.8))
    (stroke (width 0) (type default))
    (uuid 2e6b1f7e-e4c3-43a1-ae90-c85aa40696d5)
  )
  (wire (pts (xy 168.91 26.67) (xy 186.69 26.67))
    (stroke (width 0) (type default))
    (uuid 2efe0dbe-c136-440e-896a-99f36ac5ef1b)
  )
  (wire (pts (xy 168.91 74.93) (xy 186.69 74.93))
    (stroke (width 0) (type default))
    (uuid 338e6020-9088-4256-876a-a4aad144c62a)
  )
  (wire (pts (xy 143.51 59.69) (xy 173.99 59.69))
    (stroke (width 0) (type default))
    (uuid 3656bb3f-f8a4-4f3a-8e9a-ec6203c87a56)
  )
  (wire (pts (xy 121.92 50.8) (xy 121.92 46.99))
    (stroke (width 0) (type default))
    (uuid 36696ac6-2db1-4b52-ae3d-9f3c89d2042f)
  )
  (wire (pts (xy 96.52 35.56) (xy 109.22 35.56))
    (stroke (width 0) (type default))
    (uuid 3b6dda98-f455-4961-854e-3c4cceecffcc)
  )
  (wire (pts (xy 40.64 39.37) (xy 25.4 39.37))
    (stroke (width 0) (type default))
    (uuid 3c66e6e2-f12d-4b23-910e-e478d272dfd5)
  )
  (wire (pts (xy 142.24 77.47) (xy 148.59 77.47))
    (stroke (width 0) (type default))
    (uuid 3fb04c60-0807-4229-99b9-bbe3cac99e35)
  )
  (wire (pts (xy 96.52 46.99) (xy 96.52 50.8))
    (stroke (width 0) (type default))
    (uuid 42f10020-b50a-4739-a546-6b63e441c980)
  )
  (wire (pts (xy 148.59 69.85) (xy 143.51 69.85))
    (stroke (width 0) (type default))
    (uuid 49d97c73-e37a-4154-9d0a-88037e40cc11)
  )
  (wire (pts (xy 109.22 39.37) (xy 109.22 35.56))
    (stroke (width 0) (type default))
    (uuid 53719fc4-141e-4c58-98cd-ab3bf9a4e1c0)
  )
  (wire (pts (xy 31.75 54.61) (xy 40.64 54.61))
    (stroke (width 0) (type default))
    (uuid 551de639-77b3-40e1-9d13-ac6ae1d21dd8)
  )
  (wire (pts (xy 168.91 44.45) (xy 186.69 44.45))
    (stroke (width 0) (type default))
    (uuid 57c59c7a-133c-4705-9e49-3f88584e4087)
  )
  (wire (pts (xy 40.64 100.33) (xy 25.4 100.33))
    (stroke (width 0) (type default))
    (uuid 5a889284-4c9f-49be-8f02-e43e18550914)
  )
  (wire (pts (xy 168.91 41.91) (xy 186.69 41.91))
    (stroke (width 0) (type default))
    (uuid 5b086942-359e-4ae6-889f-299cc6076d0d)
  )
  (wire (pts (xy 168.91 82.55) (xy 186.69 82.55))
    (stroke (width 0) (type default))
    (uuid 61ba73f7-1a10-4fcd-9767-15ae2961805c)
  )
  (wire (pts (xy 38.1 29.21) (xy 38.1 62.23))
    (stroke (width 0) (type default))
    (uuid 64256223-cf3b-4a78-97d3-f1dca769968f)
  )
  (wire (pts (xy 96.52 39.37) (xy 96.52 35.56))
    (stroke (width 0) (type default))
    (uuid 68039801-1b0f-480a-861d-d55f24af0c17)
  )
  (wire (pts (xy 40.64 34.29) (xy 25.4 34.29))
    (stroke (width 0) (type default))
    (uuid 6b69fc79-c78f-4df1-9a05-c51d4173705f)
  )
  (wire (pts (xy 76.2 80.01) (xy 76.2 78.74))
    (stroke (width 0) (type default))
    (uuid 6ba19f6c-fa3a-4bf3-8c57-119de0f02b65)
  )
  (wire (pts (xy 83.82 50.8) (xy 96.52 50.8))
    (stroke (width 0) (type default))
    (uuid 70abf340-8b3e-403e-a5e2-d8f35caa2f87)
  )
  (wire (pts (xy 31.75 113.03) (xy 40.64 113.03))
    (stroke (width 0) (type default))
    (uuid 731202d1-ccd1-49ce-a18e-ef9413812ad5)
  )
  (wire (pts (xy 71.12 29.21) (xy 71.12 74.93))
    (stroke (width 0) (type default))
    (uuid 7c6e532b-1afd-48d4-9389-2942dcbc7c3c)
  )
  (wire (pts (xy 31.75 118.11) (xy 40.64 118.11))
    (stroke (width 0) (type default))
    (uuid 7e27fe54-8a1e-45a2-9da6-bc4bb554b4ba)
  )
  (wire (pts (xy 25.4 107.95) (xy 40.64 107.95))
    (stroke (width 0) (type default))
    (uuid 84febc35-87fd-4cad-8e04-2b66390cfc12)
  )
  (wire (pts (xy 143.51 69.85) (xy 143.51 59.69))
    (stroke (width 0) (type default))
    (uuid 961b4579-9ee8-407a-89a7-81f36f1ad865)
  )
  (wire (pts (xy 168.91 39.37) (xy 186.69 39.37))
    (stroke (width 0) (type default))
    (uuid 9b9038c9-bb0e-4e7b-a529-252c14351dc1)
  )
  (wire (pts (xy 25.4 36.83) (xy 40.64 36.83))
    (stroke (width 0) (type default))
    (uuid 9c8eae28-a7c3-4e6a-bd81-98cf70031070)
  )
  (wire (pts (xy 83.82 69.85) (xy 83.82 71.12))
    (stroke (width 0) (type default))
    (uuid 9f95f1fc-aa31-4ce6-996a-4b385731d8eb)
  )
  (wire (pts (xy 38.1 128.27) (xy 38.1 120.65))
    (stroke (width 0) (type default))
    (uuid a10b569c-d672-485d-9c05-2cb4795deeca)
  )
  (wire (pts (xy 121.92 35.56) (xy 121.92 39.37))
    (stroke (width 0) (type default))
    (uuid a4541b62-7a39-4707-9c6f-80dce1be9cee)
  )
  (wire (pts (xy 83.82 39.37) (xy 83.82 35.56))
    (stroke (width 0) (type default))
    (uuid a49e8613-3cd2-48ed-8977-6bb5023f7722)
  )
  (wire (pts (xy 168.91 29.21) (xy 186.69 29.21))
    (stroke (width 0) (type default))
    (uuid a54a666d-6991-4e90-a9c3-96b3cc081909)
  )
  (wire (pts (xy 25.4 46.99) (xy 40.64 46.99))
    (stroke (width 0) (type default))
    (uuid a67dbe3b-ec7d-4ea5-b0e5-715c5263d8da)
  )
  (wire (pts (xy 38.1 69.85) (xy 38.1 62.23))
    (stroke (width 0) (type default))
    (uuid a6891c49-3648-41ce-811e-fccb4c4653af)
  )
  (wire (pts (xy 142.24 31.75) (xy 148.59 31.75))
    (stroke (width 0) (type default))
    (uuid a97ee7a0-b0f5-4bc3-a842-14f56e0413c1)
  )
  (wire (pts (xy 76.2 69.85) (xy 76.2 71.12))
    (stroke (width 0) (type default))
    (uuid ab0ea55a-63b3-4ece-836d-2844713a821f)
  )
  (wire (pts (xy 81.28 87.63) (xy 83.82 87.63))
    (stroke (width 0) (type default))
    (uuid b121f1ff-8472-460b-ab2d-5110ddd1ca28)
  )
  (wire (pts (xy 40.64 29.21) (xy 38.1 29.21))
    (stroke (width 0) (type default))
    (uuid b21625e3-a75b-41d7-9f13-4c0e12ba16cb)
  )
  (wire (pts (xy 35.56 87.63) (xy 40.64 87.63))
    (stroke (width 0) (type default))
    (uuid b4675fcd-90dd-499b-8feb-46b51a88378c)
  )
  (wire (pts (xy 96.52 50.8) (xy 109.22 50.8))
    (stroke (width 0) (type default))
    (uuid b55dabdc-b790-4740-9349-75159cff975a)
  )
  (wire (pts (xy 40.64 90.17) (xy 25.4 90.17))
    (stroke (width 0) (type default))
    (uuid b754bfb3-a198-47be-8e7b-61bec885a5db)
  )
  (wire (pts (xy 40.64 49.53) (xy 25.4 49.53))
    (stroke (width 0) (type default))
    (uuid bc1d5740-b0c7-4566-95b0-470ac47a1fb3)
  )
  (wire (pts (xy 83.82 35.56) (xy 96.52 35.56))
    (stroke (width 0) (type default))
    (uuid c5565d96-c729-4597-a74f-7f75befcc39d)
  )
  (wire (pts (xy 168.91 85.09) (xy 186.69 85.09))
    (stroke (width 0) (type default))
    (uuid d1e9463e-9f81-4757-a2a5-47a950fcad3e)
  )
  (wire (pts (xy 71.12 74.93) (xy 35.56 74.93))
    (stroke (width 0) (type default))
    (uuid d53baa32-ba88-4646-9db3-0e9b0f0da4f0)
  )
  (wire (pts (xy 173.99 49.53) (xy 168.91 49.53))
    (stroke (width 0) (type default))
    (uuid d70d1cd3-1668-4688-8eb7-f773efb7bb87)
  )
  (wire (pts (xy 25.4 41.91) (xy 40.64 41.91))
    (stroke (width 0) (type default))
    (uuid d8370835-89ad-4b62-9f40-d0c10470788a)
  )
  (wire (pts (xy 38.1 120.65) (xy 40.64 120.65))
    (stroke (width 0) (type default))
    (uuid db902262-2864-4997-aeff-8abaa132424a)
  )
  (wire (pts (xy 142.24 39.37) (xy 148.59 39.37))
    (stroke (width 0) (type default))
    (uuid dc3be67e-ba74-4bc4-a502-f1e0ce1e045e)
  )
  (wire (pts (xy 25.4 97.79) (xy 40.64 97.79))
    (stroke (width 0) (type default))
    (uuid dc7523a5-4408-4a51-bc92-6a47a538c094)
  )
  (wire (pts (xy 168.91 87.63) (xy 186.69 87.63))
    (stroke (width 0) (type default))
    (uuid dd05c154-c6af-4a55-ba7b-d740c712fcbe)
  )
  (wire (pts (xy 83.82 50.8) (xy 83.82 46.99))
    (stroke (width 0) (type default))
    (uuid dff67d5c-d976-4516-ae67-dbbdb70f8ddd)
  )
  (wire (pts (xy 168.91 77.47) (xy 186.69 77.47))
    (stroke (width 0) (type default))
    (uuid e3c18a00-99ce-4560-b4db-e68777dc09b4)
  )
  (wire (pts (xy 83.82 87.63) (xy 88.9 87.63))
    (stroke (width 0) (type default))
    (uuid e877ccd4-9183-42b7-9ac9-b3176ad31d4b)
  )
  (wire (pts (xy 142.24 85.09) (xy 148.59 85.09))
    (stroke (width 0) (type default))
    (uuid e88f2244-a1e7-479b-aa0d-7867084a2fdd)
  )
  (wire (pts (xy 168.91 69.85) (xy 186.69 69.85))
    (stroke (width 0) (type default))
    (uuid e9d6cdbf-c298-48e2-a0aa-353876c4759b)
  )
  (wire (pts (xy 40.64 44.45) (xy 25.4 44.45))
    (stroke (width 0) (type default))
    (uuid eb1b2aa2-a3cc-4a96-87ec-70fcae365f0f)
  )
  (wire (pts (xy 173.99 59.69) (xy 173.99 49.53))
    (stroke (width 0) (type default))
    (uuid eb6a726e-fed9-4891-95fa-b4d4a5f77b35)
  )
  (wire (pts (xy 25.4 102.87) (xy 40.64 102.87))
    (stroke (width 0) (type default))
    (uuid eb7e294c-b398-413b-8b78-85a66ed5f3ea)
  )
  (wire (pts (xy 35.56 74.93) (xy 35.56 87.63))
    (stroke (width 0) (type default))
    (uuid ef3dded2-639c-45d4-8076-84cfb5189592)
  )
  (wire (pts (xy 168.91 72.39) (xy 186.69 72.39))
    (stroke (width 0) (type default))
    (uuid f0ac8ea3-2582-403a-919d-6a073286c17f)
  )
  (wire (pts (xy 142.24 74.93) (xy 148.59 74.93))
    (stroke (width 0) (type default))
    (uuid f0c7cfce-8aff-4487-bafb-05544a638d03)
  )
  (wire (pts (xy 25.4 31.75) (xy 40.64 31.75))
    (stroke (width 0) (type default))
    (uuid f2392fe0-54af-4e02-8793-9ba2471944b5)
  )
  (wire (pts (xy 142.24 41.91) (xy 148.59 41.91))
    (stroke (width 0) (type default))
    (uuid f2ceb8fd-a5d1-4773-a21e-92e5a8c1717c)
  )
  (wire (pts (xy 109.22 50.8) (xy 109.22 46.99))
    (stroke (width 0) (type default))
    (uuid f6dcb5b4-0971-448a-b9ab-6db37a750704)
  )
  (wire (pts (xy 168.91 80.01) (xy 186.69 80.01))
    (stroke (width 0) (type default))
    (uuid f6e3b8ba-f4ae-4d18-a6ad-686074fe7d21)
  )
  (wire (pts (xy 142.24 82.55) (xy 148.59 82.55))
    (stroke (width 0) (type default))
    (uuid fd6bcc7d-46e4-4aae-a184-11ba99bc91b3)
  )

  (hierarchical_label "D13" (shape bidirectional) (at 25.4 36.83 180) (fields_autoplaced)
    (effects (font (size 1.27 1.27)) (justify right))
    (uuid 05535120-351d-4210-b516-8a90e5500d24)
  )
  (hierarchical_label "D9" (shape bidirectional) (at 186.69 72.39 0) (fields_autoplaced)
    (effects (font (size 1.27 1.27)) (justify left))
    (uuid 10fa1a8c-62cb-4b8f-b916-b18d737ff71b)
  )
  (hierarchical_label "DCLK" (shape input) (at 142.24 74.93 180) (fields_autoplaced)
    (effects (font (size 1.27 1.27)) (justify right))
    (uuid 184a88db-b3ee-4f40-8897-61388825d767)
  )
  (hierarchical_label "D4" (shape bidirectional) (at 186.69 36.83 0) (fields_autoplaced)
    (effects (font (size 1.27 1.27)) (justify left))
    (uuid 19515fa4-c166-4b6e-837d-c01a89e98000)
  )
  (hierarchical_label "D1" (shape bidirectional) (at 25.4 105.41 180) (fields_autoplaced)
    (effects (font (size 1.27 1.27)) (justify right))
    (uuid 29a5119f-16f0-415d-aef1-774e86fe6ad0)
  )
  (hierarchical_label "D14" (shape bidirectional) (at 186.69 85.09 0) (fields_autoplaced)
    (effects (font (size 1.27 1.27)) (justify left))
    (uuid 29cd9e70-9b68-44f7-96b2-fe993c246832)
  )
  (hierarchical_label "D15" (shape bidirectional) (at 186.69 87.63 0) (fields_autoplaced)
    (effects (font (size 1.27 1.27)) (justify left))
    (uuid 2e1d63b8-5189-41bb-8b6a-c4ada546b2d5)
  )
  (hierarchical_label "D3" (shape bidirectional) (at 25.4 100.33 180) (fields_autoplaced)
    (effects (font (size 1.27 1.27)) (justify right))
    (uuid 32269ffb-5c63-47d0-84a5-37c893aedb5b)
  )
  (hierarchical_label "DCLK" (shape input) (at 31.75 59.69 180) (fields_autoplaced)
    (effects (font (size 1.27 1.27)) (justify right))
    (uuid 33fd31b1-1eb5-478c-a315-c7714b3558a7)
  )
  (hierarchical_label "D9" (shape bidirectional) (at 25.4 46.99 180) (fields_autoplaced)
    (effects (font (size 1.27 1.27)) (justify right))
    (uuid 34867e58-146b-4050-b0b5-d08997979e54)
  )
  (hierarchical_label "D7" (shape bidirectional) (at 25.4 90.17 180) (fields_autoplaced)
    (effects (font (size 1.27 1.27)) (justify right))
    (uuid 3ffabed7-16b1-4a0e-8c12-0eab760fc832)
  )
  (hierarchical_label "D5" (shape bidirectional) (at 186.69 39.37 0) (fields_autoplaced)
    (effects (font (size 1.27 1.27)) (justify left))
    (uuid 43f341b3-06e9-4e7a-a26e-5365b89d76bf)
  )
  (hierarchical_label "D15" (shape bidirectional) (at 25.4 31.75 180) (fields_autoplaced)
    (effects (font (size 1.27 1.27)) (justify right))
    (uuid 47abc6e7-6a37-4c51-8f1e-a3927dd882dd)
  )
  (hierarchical_label "D6" (shape bidirectional) (at 186.69 41.91 0) (fields_autoplaced)
    (effects (font (size 1.27 1.27)) (justify left))
    (uuid 4d51bc15-1f84-46be-8e16-e836b10f854e)
  )
  (hierarchical_label "D1" (shape bidirectional) (at 186.69 29.21 0) (fields_autoplaced)
    (effects (font (size 1.27 1.27)) (justify left))
    (uuid 5099f397-6fe7-454f-899c-34e2b5f22ca7)
  )
  (hierarchical_label "D12" (shape bidirectional) (at 25.4 39.37 180) (fields_autoplaced)
    (effects (font (size 1.27 1.27)) (justify right))
    (uuid 55393c2e-0bea-4816-ad9f-125db73220d3)
  )
  (hierarchical_label "DRCK" (shape input) (at 142.24 82.55 180) (fields_autoplaced)
    (effects (font (size 1.27 1.27)) (justify right))
    (uuid 57c76233-e394-486f-aeb4-65536e842963)
  )
  (hierarchical_label "D2" (shape bidirectional) (at 186.69 31.75 0) (fields_autoplaced)
    (effects (font (size 1.27 1.27)) (justify left))
    (uuid 6474aa6c-825c-4f0f-9938-759b68df02a5)
  )
  (hierarchical_label "D13" (shape bidirectional) (at 186.69 82.55 0) (fields_autoplaced)
    (effects (font (size 1.27 1.27)) (justify left))
    (uuid 7114de55-86d9-46c1-a412-07f5eb895435)
  )
  (hierarchical_label "D11" (shape bidirectional) (at 186.69 77.47 0) (fields_autoplaced)
    (effects (font (size 1.27 1.27)) (justify left))
    (uuid 750e60a2-e808-4253-8275-b79930fb2714)
  )
  (hierarchical_label "D4" (shape bidirectional) (at 25.4 97.79 180) (fields_autoplaced)
    (effects (font (size 1.27 1.27)) (justify right))
    (uuid 7e0d4b1e-56be-496a-8f2c-f9c2330234c8)
  )
  (hierarchical_label "~{DCLR}" (shape input) (at 142.24 34.29 180) (fields_autoplaced)
    (effects (font (size 1.27 1.27)) (justify right))
    (uuid 81b95d0d-8967-4ed1-8d40-39925d015ae8)
  )
  (hierarchical_label "DCLK" (shape input) (at 142.24 31.75 180) (fields_autoplaced)
    (effects (font (size 1.27 1.27)) (justify right))
    (uuid 83a363ef-2850-4113-853b-2966af02d72d)
  )
  (hierarchical_label "OE" (shape input) (at 142.24 41.91 180) (fields_autoplaced)
    (effects (font (size 1.27 1.27)) (justify right))
    (uuid 8ef1307e-4e79-474d-a93c-be38f714571c)
  )
  (hierarchical_label "OE" (shape input) (at 142.24 85.09 180) (fields_autoplaced)
    (effects (font (size 1.27 1.27)) (justify right))
    (uuid 90556cc5-be63-4d7a-ad9c-cf263a157442)
  )
  (hierarchical_label "D0" (shape bidirectional) (at 25.4 107.95 180) (fields_autoplaced)
    (effects (font (size 1.27 1.27)) (justify right))
    (uuid 92ba2658-1921-42f3-a5a7-cc42c9b9961c)
  )
  (hierarchical_label "DCLK" (shape input) (at 31.75 118.11 180) (fields_autoplaced)
    (effects (font (size 1.27 1.27)) (justify right))
    (uuid 99bfcdd8-a084-473b-9aa0-54c33e09126d)
  )
  (hierarchical_label "D8" (shape bidirectional) (at 186.69 69.85 0) (fields_autoplaced)
    (effects (font (size 1.27 1.27)) (justify left))
    (uuid 9e18f8b3-9e1a-4022-9224-10c12ca8a28d)
  )
  (hierarchical_label "D0" (shape bidirectional) (at 186.69 26.67 0) (fields_autoplaced)
    (effects (font (size 1.27 1.27)) (justify left))
    (uuid a12b751e-ae7a-468c-af3d-31ed4d501b01)
  )
  (hierarchical_label "~{DCLR}" (shape input) (at 31.75 113.03 180) (fields_autoplaced)
    (effects (font (size 1.27 1.27)) (justify right))
    (uuid a2cff282-61a4-4c96-9cd1-2aa68e483c8d)
  )
  (hierarchical_label "DRCK" (shape input) (at 142.24 39.37 180) (fields_autoplaced)
    (effects (font (size 1.27 1.27)) (justify right))
    (uuid b24c67bf-acb7-486e-9d7b-fb513b8c7fc6)
  )
  (hierarchical_label "D7" (shape bidirectional) (at 186.69 44.45 0) (fields_autoplaced)
    (effects (font (size 1.27 1.27)) (justify left))
    (uuid cd48b13f-c989-4ac1-a7f0-053afcd77527)
  )
  (hierarchical_label "D10" (shape bidirectional) (at 25.4 44.45 180) (fields_autoplaced)
    (effects (font (size 1.27 1.27)) (justify right))
    (uuid cd4a33ca-1579-4390-b5bf-77027083ec84)
  )
  (hierarchical_label "D14" (shape bidirectional) (at 25.4 34.29 180) (fields_autoplaced)
    (effects (font (size 1.27 1.27)) (justify right))
    (uuid cdab3bbe-7467-4768-b348-88bf1be22242)
  )
  (hierarchical_label "D11" (shape bidirectional) (at 25.4 41.91 180) (fields_autoplaced)
    (effects (font (size 1.27 1.27)) (justify right))
    (uuid ce79c571-755d-445e-a0ee-d754a37f9bae)
  )
  (hierarchical_label "D2" (shape bidirectional) (at 25.4 102.87 180) (fields_autoplaced)
    (effects (font (size 1.27 1.27)) (justify right))
    (uuid cfad95e4-b6ff-4ccf-9f42-26b76f1df958)
  )
  (hierarchical_label "D5" (shape bidirectional) (at 25.4 95.25 180) (fields_autoplaced)
    (effects (font (size 1.27 1.27)) (justify right))
    (uuid d58d16ab-0ff5-4796-9284-441985aebbb6)
  )
  (hierarchical_label "DSIN" (shape input) (at 142.24 26.67 180) (fields_autoplaced)
    (effects (font (size 1.27 1.27)) (justify right))
    (uuid e07c4b69-e0b4-4217-9b28-38d44f166b31)
  )
  (hierarchical_label "DSOUT" (shape output) (at 88.9 87.63 0) (fields_autoplaced)
    (effects (font (size 1.27 1.27)) (justify left))
    (uuid e46ecd61-0bbe-4b9f-a151-a2cacac5967b)
  )
  (hierarchical_label "~{DCLR}" (shape input) (at 31.75 54.61 180) (fields_autoplaced)
    (effects (font (size 1.27 1.27)) (justify right))
    (uuid e5dfad6e-2e29-4134-9399-df7a080c54dd)
  )
  (hierarchical_label "D6" (shape bidirectional) (at 25.4 92.71 180) (fields_autoplaced)
    (effects (font (size 1.27 1.27)) (justify right))
    (uuid e6007336-2cbc-4b81-9bae-b3247ab4bee1)
  )
  (hierarchical_label "D10" (shape bidirectional) (at 186.69 74.93 0) (fields_autoplaced)
    (effects (font (size 1.27 1.27)) (justify left))
    (uuid e7376da1-2f59-4570-81e8-46fca0289df0)
  )
  (hierarchical_label "~{DCLR}" (shape input) (at 142.24 77.47 180) (fields_autoplaced)
    (effects (font (size 1.27 1.27)) (justify right))
    (uuid ea7bfa82-e74e-41dd-9673-10e189d47a12)
  )
  (hierarchical_label "D8" (shape bidirectional) (at 25.4 49.53 180) (fields_autoplaced)
    (effects (font (size 1.27 1.27)) (justify right))
    (uuid ef64a3eb-b832-42a2-8adf-bd0b5bb9a52a)
  )
  (hierarchical_label "D3" (shape bidirectional) (at 186.69 34.29 0) (fields_autoplaced)
    (effects (font (size 1.27 1.27)) (justify left))
    (uuid f48f1d12-9008-4743-81e2-bdec45db64a1)
  )
  (hierarchical_label "D12" (shape bidirectional) (at 186.69 80.01 0) (fields_autoplaced)
    (effects (font (size 1.27 1.27)) (justify left))
    (uuid f879c0e8-5893-4eb4-8e59-2292a632100f)
  )

  (symbol (lib_id "74xx:74HC595") (at 158.75 36.83 0) (unit 1)
    (in_bom yes) (on_board yes) (dnp no)
    (uuid 00000000-0000-0000-0000-0000628ddcd5)
    (property "Reference" "U9" (at 163.83 21.59 0)
      (effects (font (size 1.27 1.27)))
    )
    (property "Value" "74HC595" (at 166.37 54.61 0)
      (effects (font (size 1.27 1.27)))
    )
    (property "Footprint" "Package_DIP:DIP-16_W7.62mm" (at 158.75 36.83 0)
      (effects (font (size 1.27 1.27)) hide)
    )
    (property "Datasheet" "http://www.ti.com/lit/ds/symlink/sn74hc595.pdf" (at 158.75 36.83 0)
      (effects (font (size 1.27 1.27)) hide)
    )
    (pin "1" (uuid df5d87b3-2f67-4c78-b285-f89b4c97c8c6))
    (pin "10" (uuid 50ed003d-4f42-4ba9-9e11-16601d57dd97))
    (pin "11" (uuid db91526c-5fdb-4212-b7f3-9852951ca77c))
    (pin "12" (uuid 4e4f16e5-5fa9-4342-accf-5ea7beeb6cd5))
    (pin "13" (uuid 00261b12-afd5-41ef-8186-cfdc7216c522))
    (pin "14" (uuid 132236da-8506-460a-9a8d-d2cc01e9062a))
    (pin "15" (uuid 7ac143b6-02c1-453c-9844-c2784f3e2d9e))
    (pin "16" (uuid 8da0f2ae-2caf-46b8-9230-f4ee30838655))
    (pin "2" (uuid 7a32f371-2598-44e6-be1c-1429d4b10804))
    (pin "3" (uuid d844eba5-7a9b-4b19-8c26-bba3669967a6))
    (pin "4" (uuid ab024fc1-f34c-41b3-8a5e-35d288265c02))
    (pin "5" (uuid b0b7fa37-c8c4-4904-a065-a1bd3f3e7386))
    (pin "6" (uuid e9653926-0ffc-46fd-89e0-4eacf4a3b1fe))
    (pin "7" (uuid f6e3ba17-4636-4cc9-bdfd-871de2a5682d))
    (pin "8" (uuid 3c10847f-e29f-4e38-a021-a859d11d4311))
    (pin "9" (uuid 241fb7e6-0cd9-4da5-ae80-f4627c21f01c))
    (instances
      (project "usbflashprog"
        (path "/62a1f3d4-027d-4ecf-a37a-6fcf4263e9d2/00000000-0000-0000-0000-0000627ea631"
          (reference "U9") (unit 1)
        )
      )
    )
  )

  (symbol (lib_id "74xx:74HC595") (at 158.75 80.01 0) (unit 1)
    (in_bom yes) (on_board yes) (dnp no)
    (uuid 00000000-0000-0000-0000-0000628ddcdb)
    (property "Reference" "U10" (at 163.83 64.77 0)
      (effects (font (size 1.27 1.27)))
    )
    (property "Value" "74HC595" (at 166.37 97.79 0)
      (effects (font (size 1.27 1.27)))
    )
    (property "Footprint" "Package_DIP:DIP-16_W7.62mm" (at 158.75 80.01 0)
      (effects (font (size 1.27 1.27)) hide)
    )
    (property "Datasheet" "http://www.ti.com/lit/ds/symlink/sn74hc595.pdf" (at 158.75 80.01 0)
      (effects (font (size 1.27 1.27)) hide)
    )
    (pin "1" (uuid e0e2eff3-7f80-4552-b904-f852a0815f73))
    (pin "10" (uuid d993caa2-5a3b-4cfa-b7f7-6297cb9cc0bd))
    (pin "11" (uuid 2c4472f5-5c31-497c-b7c9-3023b69ffb30))
    (pin "12" (uuid 15df6e59-1483-4858-aaed-eb7bfc845df4))
    (pin "13" (uuid b1a93c40-0b4a-49f6-a127-1e37583eeb21))
    (pin "14" (uuid 0e518186-8e64-4d59-ac85-e24262461de8))
    (pin "15" (uuid 6b6978ed-30c2-4a38-810f-02946d843d3e))
    (pin "16" (uuid a1c9533b-4376-4445-99d1-000306a8b156))
    (pin "2" (uuid b472d198-94e6-40c9-b376-d6bfc262ac53))
    (pin "3" (uuid f3c4f406-59e4-419c-aff0-453a2c630e45))
    (pin "4" (uuid afa62adb-4c11-4b9c-9966-31162029e41d))
    (pin "5" (uuid f7ade7e2-bcc2-458e-86e2-6d027d126784))
    (pin "6" (uuid b17def37-70d0-4433-8253-4a61b7eecee8))
    (pin "7" (uuid f093fb0e-6613-47de-bc48-401cb7ed1095))
    (pin "8" (uuid b66e45b8-c4cd-4413-a8fe-e33c695346b1))
    (pin "9" (uuid b9a93be0-5f68-4b92-bdbe-8fc44c653880))
    (instances
      (project "usbflashprog"
        (path "/62a1f3d4-027d-4ecf-a37a-6fcf4263e9d2/00000000-0000-0000-0000-0000627ea631"
          (reference "U10") (unit 1)
        )
      )
    )
  )

  (symbol (lib_id "power:GND") (at 158.75 54.61 0) (unit 1)
    (in_bom yes) (on_board yes) (dnp no)
    (uuid 00000000-0000-0000-0000-0000628ddce7)
    (property "Reference" "#PWR061" (at 158.75 60.96 0)
      (effects (font (size 1.27 1.27)) hide)
    )
    (property "Value" "GND" (at 158.877 59.0042 0)
      (effects (font (size 1.27 1.27)) hide)
    )
    (property "Footprint" "" (at 158.75 54.61 0)
      (effects (font (size 1.27 1.27)) hide)
    )
    (property "Datasheet" "" (at 158.75 54.61 0)
      (effects (font (size 1.27 1.27)) hide)
    )
    (pin "1" (uuid 118bd32e-d725-4db1-a4cb-4855bd2dfac2))
    (instances
      (project "usbflashprog"
        (path "/62a1f3d4-027d-4ecf-a37a-6fcf4263e9d2/00000000-0000-0000-0000-0000627ea631"
          (reference "#PWR061") (unit 1)
        )
      )
    )
  )

  (symbol (lib_id "power:GND") (at 158.75 97.79 0) (unit 1)
    (in_bom yes) (on_board yes) (dnp no)
    (uuid 00000000-0000-0000-0000-0000628ddced)
    (property "Reference" "#PWR063" (at 158.75 104.14 0)
      (effects (font (size 1.27 1.27)) hide)
    )
    (property "Value" "GND" (at 158.877 102.1842 0)
      (effects (font (size 1.27 1.27)) hide)
    )
    (property "Footprint" "" (at 158.75 97.79 0)
      (effects (font (size 1.27 1.27)) hide)
    )
    (property "Datasheet" "" (at 158.75 97.79 0)
      (effects (font (size 1.27 1.27)) hide)
    )
    (pin "1" (uuid fdeec08b-ffe0-47c1-afe1-86a4cecb862f))
    (instances
      (project "usbflashprog"
        (path "/62a1f3d4-027d-4ecf-a37a-6fcf4263e9d2/00000000-0000-0000-0000-0000627ea631"
          (reference "#PWR063") (unit 1)
        )
      )
    )
  )

  (symbol (lib_id "power:VCC") (at 158.75 21.59 0) (unit 1)
    (in_bom yes) (on_board yes) (dnp no)
    (uuid 00000000-0000-0000-0000-0000628ddd11)
    (property "Reference" "#PWR060" (at 158.75 25.4 0)
      (effects (font (size 1.27 1.27)) hide)
    )
    (property "Value" "VCC" (at 158.8262 17.8308 0)
      (effects (font (size 1.27 1.27)))
    )
    (property "Footprint" "" (at 158.75 21.59 0)
      (effects (font (size 1.27 1.27)) hide)
    )
    (property "Datasheet" "" (at 158.75 21.59 0)
      (effects (font (size 1.27 1.27)) hide)
    )
    (pin "1" (uuid b8d7a6ed-6068-4ed8-8fdd-0a4b8c239b54))
    (instances
      (project "usbflashprog"
        (path "/62a1f3d4-027d-4ecf-a37a-6fcf4263e9d2/00000000-0000-0000-0000-0000627ea631"
          (reference "#PWR060") (unit 1)
        )
      )
    )
  )

  (symbol (lib_id "power:VCC") (at 158.75 64.77 0) (unit 1)
    (in_bom yes) (on_board yes) (dnp no)
    (uuid 00000000-0000-0000-0000-0000628ddd17)
    (property "Reference" "#PWR062" (at 158.75 68.58 0)
      (effects (font (size 1.27 1.27)) hide)
    )
    (property "Value" "VCC" (at 158.7246 60.9346 0)
      (effects (font (size 1.27 1.27)))
    )
    (property "Footprint" "" (at 158.75 64.77 0)
      (effects (font (size 1.27 1.27)) hide)
    )
    (property "Datasheet" "" (at 158.75 64.77 0)
      (effects (font (size 1.27 1.27)) hide)
    )
    (pin "1" (uuid 8e648c0d-19d9-4d51-be31-f04c96812474))
    (instances
      (project "usbflashprog"
        (path "/62a1f3d4-027d-4ecf-a37a-6fcf4263e9d2/00000000-0000-0000-0000-0000627ea631"
          (reference "#PWR062") (unit 1)
        )
      )
    )
  )

  (symbol (lib_id "Device:C") (at 83.82 43.18 0) (unit 1)
    (in_bom yes) (on_board yes) (dnp no)
    (uuid 00000000-0000-0000-0000-0000628dde76)
    (property "Reference" "C15" (at 86.741 42.0116 0)
      (effects (font (size 1.27 1.27)) (justify left))
    )
    (property "Value" "100nF" (at 86.741 44.323 0)
      (effects (font (size 1.27 1.27)) (justify left))
    )
    (property "Footprint" "Capacitor_THT:C_Disc_D6.0mm_W2.5mm_P5.00mm" (at 84.7852 46.99 0)
      (effects (font (size 1.27 1.27)) hide)
    )
    (property "Datasheet" "~" (at 83.82 43.18 0)
      (effects (font (size 1.27 1.27)) hide)
    )
    (pin "1" (uuid 632aca8f-63c7-4d22-873b-21c0e373cf95))
    (pin "2" (uuid a0c16cd7-a3f1-46d5-8625-1006ed98f1d6))
    (instances
      (project "usbflashprog"
        (path "/62a1f3d4-027d-4ecf-a37a-6fcf4263e9d2/00000000-0000-0000-0000-0000627ea631"
          (reference "C15") (unit 1)
        )
      )
    )
  )

  (symbol (lib_id "power:GND") (at 83.82 53.34 0) (unit 1)
    (in_bom yes) (on_board yes) (dnp no)
    (uuid 00000000-0000-0000-0000-0000628dde7c)
    (property "Reference" "#PWR059" (at 83.82 59.69 0)
      (effects (font (size 1.27 1.27)) hide)
    )
    (property "Value" "GND" (at 83.947 57.7342 0)
      (effects (font (size 1.27 1.27)) hide)
    )
    (property "Footprint" "" (at 83.82 53.34 0)
      (effects (font (size 1.27 1.27)) hide)
    )
    (property "Datasheet" "" (at 83.82 53.34 0)
      (effects (font (size 1.27 1.27)) hide)
    )
    (pin "1" (uuid 7bc5ab5b-7070-4e44-8f47-401bebfcfd92))
    (instances
      (project "usbflashprog"
        (path "/62a1f3d4-027d-4ecf-a37a-6fcf4263e9d2/00000000-0000-0000-0000-0000627ea631"
          (reference "#PWR059") (unit 1)
        )
      )
    )
  )

  (symbol (lib_id "power:VCC") (at 83.82 33.02 0) (unit 1)
    (in_bom yes) (on_board yes) (dnp no)
    (uuid 00000000-0000-0000-0000-0000628dde84)
    (property "Reference" "#PWR058" (at 83.82 36.83 0)
      (effects (font (size 1.27 1.27)) hide)
    )
    (property "Value" "VCC" (at 83.7946 29.337 0)
      (effects (font (size 1.27 1.27)))
    )
    (property "Footprint" "" (at 83.82 33.02 0)
      (effects (font (size 1.27 1.27)) hide)
    )
    (property "Datasheet" "" (at 83.82 33.02 0)
      (effects (font (size 1.27 1.27)) hide)
    )
    (pin "1" (uuid f53f97ee-ba15-4449-bebe-1734eb9f7720))
    (instances
      (project "usbflashprog"
        (path "/62a1f3d4-027d-4ecf-a37a-6fcf4263e9d2/00000000-0000-0000-0000-0000627ea631"
          (reference "#PWR058") (unit 1)
        )
      )
    )
  )

  (symbol (lib_id "Device:C") (at 96.52 43.18 0) (unit 1)
    (in_bom yes) (on_board yes) (dnp no)
    (uuid 00000000-0000-0000-0000-0000628dde8a)
    (property "Reference" "C16" (at 99.441 42.0116 0)
      (effects (font (size 1.27 1.27)) (justify left))
    )
    (property "Value" "100nF" (at 99.441 44.323 0)
      (effects (font (size 1.27 1.27)) (justify left))
    )
    (property "Footprint" "Capacitor_THT:C_Disc_D6.0mm_W2.5mm_P5.00mm" (at 97.4852 46.99 0)
      (effects (font (size 1.27 1.27)) hide)
    )
    (property "Datasheet" "~" (at 96.52 43.18 0)
      (effects (font (size 1.27 1.27)) hide)
    )
    (pin "1" (uuid f7d618c9-2152-445a-b131-d627f32eb9c4))
    (pin "2" (uuid 9b0c27fb-067c-45f0-86da-77ab8d9c126f))
    (instances
      (project "usbflashprog"
        (path "/62a1f3d4-027d-4ecf-a37a-6fcf4263e9d2/00000000-0000-0000-0000-0000627ea631"
          (reference "C16") (unit 1)
        )
      )
    )
  )

  (symbol (lib_id "Device:C") (at 109.22 43.18 0) (unit 1)
    (in_bom yes) (on_board yes) (dnp no)
    (uuid 00000000-0000-0000-0000-0000628dde90)
    (property "Reference" "C17" (at 112.141 42.0116 0)
      (effects (font (size 1.27 1.27)) (justify left))
    )
    (property "Value" "100nF" (at 112.141 44.323 0)
      (effects (font (size 1.27 1.27)) (justify left))
    )
    (property "Footprint" "Capacitor_THT:C_Disc_D6.0mm_W2.5mm_P5.00mm" (at 110.1852 46.99 0)
      (effects (font (size 1.27 1.27)) hide)
    )
    (property "Datasheet" "~" (at 109.22 43.18 0)
      (effects (font (size 1.27 1.27)) hide)
    )
    (pin "1" (uuid 8844fed0-8670-4996-ac2f-39cd1bb63ff2))
    (pin "2" (uuid dfce0cdd-bc04-4e6e-9757-56cd555850d2))
    (instances
      (project "usbflashprog"
        (path "/62a1f3d4-027d-4ecf-a37a-6fcf4263e9d2/00000000-0000-0000-0000-0000627ea631"
          (reference "C17") (unit 1)
        )
      )
    )
  )

  (symbol (lib_id "74xx:74HC165") (at 53.34 44.45 0) (unit 1)
    (in_bom yes) (on_board yes) (dnp no)
    (uuid 00000000-0000-0000-0000-0000628f7770)
    (property "Reference" "U11" (at 43.18 21.59 0)
      (effects (font (size 1.27 1.27)))
    )
    (property "Value" "74HC165" (at 43.18 24.13 0)
      (effects (font (size 1.27 1.27)))
    )
    (property "Footprint" "Package_DIP:DIP-16_W7.62mm" (at 53.34 44.45 0)
      (effects (font (size 1.27 1.27)) hide)
    )
    (property "Datasheet" "https://assets.nexperia.com/documents/data-sheet/74HC_HCT165.pdf" (at 53.34 44.45 0)
      (effects (font (size 1.27 1.27)) hide)
    )
    (pin "1" (uuid 3d086be8-518f-4109-bcbe-f6153996b774))
    (pin "10" (uuid 53dc7043-a593-4dfd-a93b-a2d92ff30000))
    (pin "11" (uuid 29f3acba-c633-476e-a6c0-82b2cb4467d2))
    (pin "12" (uuid 649d0e5a-19a3-4fd2-8d43-e5056dbb6174))
    (pin "13" (uuid ba850406-6456-4341-941c-27baba89f793))
    (pin "14" (uuid b385a243-3ecd-4591-9a0c-0aac65ecdf42))
    (pin "15" (uuid 32d375fb-352f-4a9d-97a0-f4d12f0f2012))
    (pin "16" (uuid bb4c567c-e60b-43e2-b828-8bac5c61f8b9))
    (pin "2" (uuid 6aadd238-8a81-4e93-8fe0-492ef2fd466f))
    (pin "3" (uuid e2a1f767-222e-427f-86d9-edbcee5a8109))
    (pin "4" (uuid daff8294-03e0-483b-b310-7d55e4efa31d))
    (pin "5" (uuid 407be474-e9b3-4e37-9054-167fb8d012f3))
    (pin "6" (uuid 52f108a7-5b14-4a02-9276-c7004b34faa9))
    (pin "7" (uuid af68e068-a7d3-4286-8fc7-c9669f53768f))
    (pin "8" (uuid c9646c65-e932-462f-a073-17d2afa50c09))
    (pin "9" (uuid 374222f9-3080-4b06-ba01-5d3fb41f4640))
    (instances
      (project "usbflashprog"
        (path "/62a1f3d4-027d-4ecf-a37a-6fcf4263e9d2/00000000-0000-0000-0000-0000627ea631"
          (reference "U11") (unit 1)
        )
      )
    )
  )

  (symbol (lib_id "power:GND") (at 53.34 69.85 0) (unit 1)
    (in_bom yes) (on_board yes) (dnp no)
    (uuid 00000000-0000-0000-0000-0000628f9955)
    (property "Reference" "#PWR067" (at 53.34 76.2 0)
      (effects (font (size 1.27 1.27)) hide)
    )
    (property "Value" "GND" (at 53.467 74.2442 0)
      (effects (font (size 1.27 1.27)) hide)
    )
    (property "Footprint" "" (at 53.34 69.85 0)
      (effects (font (size 1.27 1.27)) hide)
    )
    (property "Datasheet" "" (at 53.34 69.85 0)
      (effects (font (size 1.27 1.27)) hide)
    )
    (pin "1" (uuid d0d8c779-bc91-463b-9e20-76cf8cd9055b))
    (instances
      (project "usbflashprog"
        (path "/62a1f3d4-027d-4ecf-a37a-6fcf4263e9d2/00000000-0000-0000-0000-0000627ea631"
          (reference "#PWR067") (unit 1)
        )
      )
    )
  )

  (symbol (lib_id "power:VCC") (at 53.34 21.59 0) (unit 1)
    (in_bom yes) (on_board yes) (dnp no)
    (uuid 00000000-0000-0000-0000-0000628fb231)
    (property "Reference" "#PWR066" (at 53.34 25.4 0)
      (effects (font (size 1.27 1.27)) hide)
    )
    (property "Value" "VCC" (at 53.4162 17.8308 0)
      (effects (font (size 1.27 1.27)))
    )
    (property "Footprint" "" (at 53.34 21.59 0)
      (effects (font (size 1.27 1.27)) hide)
    )
    (property "Datasheet" "" (at 53.34 21.59 0)
      (effects (font (size 1.27 1.27)) hide)
    )
    (pin "1" (uuid 2d2d419a-28fd-46e1-9440-bbc68dd5d7bf))
    (instances
      (project "usbflashprog"
        (path "/62a1f3d4-027d-4ecf-a37a-6fcf4263e9d2/00000000-0000-0000-0000-0000627ea631"
          (reference "#PWR066") (unit 1)
        )
      )
    )
  )

  (symbol (lib_id "74xx:74HC165") (at 53.34 102.87 0) (unit 1)
    (in_bom yes) (on_board yes) (dnp no)
    (uuid 00000000-0000-0000-0000-0000628fd34e)
    (property "Reference" "U12" (at 43.18 80.01 0)
      (effects (font (size 1.27 1.27)))
    )
    (property "Value" "74HC165" (at 43.18 82.55 0)
      (effects (font (size 1.27 1.27)))
    )
    (property "Footprint" "Package_DIP:DIP-16_W7.62mm" (at 53.34 102.87 0)
      (effects (font (size 1.27 1.27)) hide)
    )
    (property "Datasheet" "https://assets.nexperia.com/documents/data-sheet/74HC_HCT165.pdf" (at 53.34 102.87 0)
      (effects (font (size 1.27 1.27)) hide)
    )
    (pin "1" (uuid b924df07-d840-45c2-9167-1ee97deaa2d0))
    (pin "10" (uuid de2f08ac-bd0c-47a8-804f-322f50d7f2c5))
    (pin "11" (uuid e20030a2-6dfe-4e5a-a47d-65f7afe800d0))
    (pin "12" (uuid cd82e7d4-292c-4d2c-ad46-345505f87b5f))
    (pin "13" (uuid 7b568c44-18d9-43a3-9750-7df7d5d66c6f))
    (pin "14" (uuid cfe64a3c-4422-4f0c-9210-025409682e6b))
    (pin "15" (uuid 11b81345-6115-4038-a771-84a6b03a868f))
    (pin "16" (uuid 6983a7ee-d0e8-4a6e-bace-4d19f5386706))
    (pin "2" (uuid e2f9a434-f413-4b00-bd1c-c5ee2e0ceda8))
    (pin "3" (uuid ffc83422-d1a2-49b1-9f0b-47578438781f))
    (pin "4" (uuid d7b8825a-bd66-4c21-8e71-30efd6c0e76d))
    (pin "5" (uuid 3090dae7-bff0-4643-b949-3d8825ed659d))
    (pin "6" (uuid cf755e31-6d23-4740-af48-7ef15a5a09fa))
    (pin "7" (uuid 34c3e13b-0d02-4add-9f75-90f98cda70b6))
    (pin "8" (uuid 93ae67af-fc49-453e-96f2-e315894b5942))
    (pin "9" (uuid 4d5f9e84-10c6-414d-b6ea-f7b7b07dff38))
    (instances
      (project "usbflashprog"
        (path "/62a1f3d4-027d-4ecf-a37a-6fcf4263e9d2/00000000-0000-0000-0000-0000627ea631"
          (reference "U12") (unit 1)
        )
      )
    )
  )

  (symbol (lib_id "power:GND") (at 53.34 128.27 0) (unit 1)
    (in_bom yes) (on_board yes) (dnp no)
    (uuid 00000000-0000-0000-0000-0000628fd354)
    (property "Reference" "#PWR069" (at 53.34 134.62 0)
      (effects (font (size 1.27 1.27)) hide)
    )
    (property "Value" "GND" (at 53.467 132.6642 0)
      (effects (font (size 1.27 1.27)) hide)
    )
    (property "Footprint" "" (at 53.34 128.27 0)
      (effects (font (size 1.27 1.27)) hide)
    )
    (property "Datasheet" "" (at 53.34 128.27 0)
      (effects (font (size 1.27 1.27)) hide)
    )
    (pin "1" (uuid 7e5c17b8-797f-4b62-b6b9-6db3db1b351d))
    (instances
      (project "usbflashprog"
        (path "/62a1f3d4-027d-4ecf-a37a-6fcf4263e9d2/00000000-0000-0000-0000-0000627ea631"
          (reference "#PWR069") (unit 1)
        )
      )
    )
  )

  (symbol (lib_id "power:VCC") (at 53.34 80.01 0) (unit 1)
    (in_bom yes) (on_board yes) (dnp no)
    (uuid 00000000-0000-0000-0000-0000628fd35a)
    (property "Reference" "#PWR068" (at 53.34 83.82 0)
      (effects (font (size 1.27 1.27)) hide)
    )
    (property "Value" "VCC" (at 53.4162 76.2508 0)
      (effects (font (size 1.27 1.27)))
    )
    (property "Footprint" "" (at 53.34 80.01 0)
      (effects (font (size 1.27 1.27)) hide)
    )
    (property "Datasheet" "" (at 53.34 80.01 0)
      (effects (font (size 1.27 1.27)) hide)
    )
    (pin "1" (uuid 422f9a24-3cae-4e78-a8f8-f2582e1cb881))
    (instances
      (project "usbflashprog"
        (path "/62a1f3d4-027d-4ecf-a37a-6fcf4263e9d2/00000000-0000-0000-0000-0000627ea631"
          (reference "#PWR068") (unit 1)
        )
      )
    )
  )

  (symbol (lib_id "power:GND") (at 38.1 128.27 0) (unit 1)
    (in_bom yes) (on_board yes) (dnp no)
    (uuid 00000000-0000-0000-0000-0000628ffa20)
    (property "Reference" "#PWR065" (at 38.1 134.62 0)
      (effects (font (size 1.27 1.27)) hide)
    )
    (property "Value" "GND" (at 38.227 132.6642 0)
      (effects (font (size 1.27 1.27)) hide)
    )
    (property "Footprint" "" (at 38.1 128.27 0)
      (effects (font (size 1.27 1.27)) hide)
    )
    (property "Datasheet" "" (at 38.1 128.27 0)
      (effects (font (size 1.27 1.27)) hide)
    )
    (pin "1" (uuid 0b67a55d-eb4a-4d34-ba6e-c93f473b10be))
    (instances
      (project "usbflashprog"
        (path "/62a1f3d4-027d-4ecf-a37a-6fcf4263e9d2/00000000-0000-0000-0000-0000627ea631"
          (reference "#PWR065") (unit 1)
        )
      )
    )
  )

  (symbol (lib_id "power:GND") (at 38.1 69.85 0) (unit 1)
    (in_bom yes) (on_board yes) (dnp no)
    (uuid 00000000-0000-0000-0000-0000628ffdd1)
    (property "Reference" "#PWR064" (at 38.1 76.2 0)
      (effects (font (size 1.27 1.27)) hide)
    )
    (property "Value" "GND" (at 38.227 74.2442 0)
      (effects (font (size 1.27 1.27)) hide)
    )
    (property "Footprint" "" (at 38.1 69.85 0)
      (effects (font (size 1.27 1.27)) hide)
    )
    (property "Datasheet" "" (at 38.1 69.85 0)
      (effects (font (size 1.27 1.27)) hide)
    )
    (pin "1" (uuid 831a6298-fe23-4c0f-b61a-f624a4212683))
    (instances
      (project "usbflashprog"
        (path "/62a1f3d4-027d-4ecf-a37a-6fcf4263e9d2/00000000-0000-0000-0000-0000627ea631"
          (reference "#PWR064") (unit 1)
        )
      )
    )
  )

  (symbol (lib_id "Device:C") (at 121.92 43.18 0) (unit 1)
    (in_bom yes) (on_board yes) (dnp no)
    (uuid 00000000-0000-0000-0000-000062935e88)
    (property "Reference" "C18" (at 124.841 42.0116 0)
      (effects (font (size 1.27 1.27)) (justify left))
    )
    (property "Value" "100nF" (at 124.841 44.323 0)
      (effects (font (size 1.27 1.27)) (justify left))
    )
    (property "Footprint" "Capacitor_THT:C_Disc_D6.0mm_W2.5mm_P5.00mm" (at 122.8852 46.99 0)
      (effects (font (size 1.27 1.27)) hide)
    )
    (property "Datasheet" "~" (at 121.92 43.18 0)
      (effects (font (size 1.27 1.27)) hide)
    )
    (pin "1" (uuid dc787627-3657-4953-b0cf-ca74f369d820))
    (pin "2" (uuid 73190640-a6e4-4c04-984c-37ae7a7d20d5))
    (instances
      (project "usbflashprog"
        (path "/62a1f3d4-027d-4ecf-a37a-6fcf4263e9d2/00000000-0000-0000-0000-0000627ea631"
          (reference "C18") (unit 1)
        )
      )
    )
  )

  (symbol (lib_id "Transistor_BJT:BC547") (at 76.2 85.09 270) (unit 1)
    (in_bom yes) (on_board yes) (dnp no)
    (uuid 00000000-0000-0000-0000-00006293b8a7)
    (property "Reference" "Q13" (at 76.2 91.059 90)
      (effects (font (size 1.27 1.27)))
    )
    (property "Value" "BC547" (at 76.2 93.3704 90)
      (effects (font (size 1.27 1.27)))
    )
    (property "Footprint" "Package_TO_SOT_THT:TO-92_Inline_Wide" (at 74.295 90.17 0)
      (effects (font (size 1.27 1.27) italic) (justify left) hide)
    )
    (property "Datasheet" "https://www.onsemi.com/pub/Collateral/BC550-D.pdf" (at 76.2 85.09 0)
      (effects (font (size 1.27 1.27)) (justify left) hide)
    )
    (pin "1" (uuid 08c39e2e-1407-4bf0-ab07-91fd7619133d))
    (pin "2" (uuid 09943993-98c0-495d-bf6c-e5eade9b1a66))
    (pin "3" (uuid 5ba4b791-def1-4496-997f-f4d7505adbf9))
    (instances
      (project "usbflashprog"
        (path "/62a1f3d4-027d-4ecf-a37a-6fcf4263e9d2/00000000-0000-0000-0000-0000627ea631"
          (reference "Q13") (unit 1)
        )
      )
    )
  )

  (symbol (lib_id "Device:R") (at 76.2 74.93 0) (unit 1)
    (in_bom yes) (on_board yes) (dnp no)
    (uuid 00000000-0000-0000-0000-00006293c506)
    (property "Reference" "R43" (at 77.978 73.7616 0)
      (effects (font (size 1.27 1.27)) (justify left))
    )
    (property "Value" "1K" (at 77.978 76.073 0)
      (effects (font (size 1.27 1.27)) (justify left))
    )
    (property "Footprint" "Resistor_THT:R_Axial_DIN0207_L6.3mm_D2.5mm_P10.16mm_Horizontal" (at 74.422 74.93 90)
      (effects (font (size 1.27 1.27)) hide)
    )
    (property "Datasheet" "~" (at 76.2 74.93 0)
      (effects (font (size 1.27 1.27)) hide)
    )
    (pin "1" (uuid bfa3045f-33f8-49e6-a047-5386cd937f3d))
    (pin "2" (uuid 27d0641e-4462-47c1-be5b-fea074c61ddf))
    (instances
      (project "usbflashprog"
        (path "/62a1f3d4-027d-4ecf-a37a-6fcf4263e9d2/00000000-0000-0000-0000-0000627ea631"
          (reference "R43") (unit 1)
        )
      )
    )
  )

  (symbol (lib_id "power:+3V3") (at 76.2 69.85 0) (unit 1)
    (in_bom yes) (on_board yes) (dnp no)
    (uuid 00000000-0000-0000-0000-00006293c827)
    (property "Reference" "#PWR070" (at 76.2 73.66 0)
      (effects (font (size 1.27 1.27)) hide)
    )
    (property "Value" "+3V3" (at 76.581 65.4558 0)
      (effects (font (size 1.27 1.27)))
    )
    (property "Footprint" "" (at 76.2 69.85 0)
      (effects (font (size 1.27 1.27)) hide)
    )
    (property "Datasheet" "" (at 76.2 69.85 0)
      (effects (font (size 1.27 1.27)) hide)
    )
    (pin "1" (uuid 322e994e-399f-4404-9319-6d70cf642881))
    (instances
      (project "usbflashprog"
        (path "/62a1f3d4-027d-4ecf-a37a-6fcf4263e9d2/00000000-0000-0000-0000-0000627ea631"
          (reference "#PWR070") (unit 1)
        )
      )
    )
  )

  (symbol (lib_id "Device:R") (at 83.82 74.93 0) (unit 1)
    (in_bom yes) (on_board yes) (dnp no)
    (uuid 00000000-0000-0000-0000-00006293cdc3)
    (property "Reference" "R44" (at 85.598 73.7616 0)
      (effects (font (size 1.27 1.27)) (justify left))
    )
    (property "Value" "4K7" (at 85.598 76.073 0)
      (effects (font (size 1.27 1.27)) (justify left))
    )
    (property "Footprint" "Resistor_THT:R_Axial_DIN0207_L6.3mm_D2.5mm_P10.16mm_Horizontal" (at 82.042 74.93 90)
      (effects (font (size 1.27 1.27)) hide)
    )
    (property "Datasheet" "~" (at 83.82 74.93 0)
      (effects (font (size 1.27 1.27)) hide)
    )
    (pin "1" (uuid 649bb5bb-5778-41dd-b4d6-8ab4adda74ac))
    (pin "2" (uuid 3172e57c-5891-4cd4-86f3-fade301f2271))
    (instances
      (project "usbflashprog"
        (path "/62a1f3d4-027d-4ecf-a37a-6fcf4263e9d2/00000000-0000-0000-0000-0000627ea631"
          (reference "R44") (unit 1)
        )
      )
    )
  )

  (symbol (lib_id "power:+3V3") (at 83.82 69.85 0) (unit 1)
    (in_bom yes) (on_board yes) (dnp no)
    (uuid 00000000-0000-0000-0000-00006295e6e3)
    (property "Reference" "#PWR071" (at 83.82 73.66 0)
      (effects (font (size 1.27 1.27)) hide)
    )
    (property "Value" "+3V3" (at 84.201 65.4558 0)
      (effects (font (size 1.27 1.27)))
    )
    (property "Footprint" "" (at 83.82 69.85 0)
      (effects (font (size 1.27 1.27)) hide)
    )
    (property "Datasheet" "" (at 83.82 69.85 0)
      (effects (font (size 1.27 1.27)) hide)
    )
    (pin "1" (uuid c3c9c813-d95e-4f07-b57d-be5ab8773612))
    (instances
      (project "usbflashprog"
        (path "/62a1f3d4-027d-4ecf-a37a-6fcf4263e9d2/00000000-0000-0000-0000-0000627ea631"
          (reference "#PWR071") (unit 1)
        )
      )
    )
  )
)
