(kicad_sch (version 20230121) (generator eeschema)

  (uuid 7147b342-4ca8-4694-a1ec-b615c151a5d0)

  (paper "A5")

  (title_block
    (title "USB Flash/EPROM Programmer")
    (date "2023-10-21")
    (rev "v0.1.0 rev.G")
    (company "Robson Martins")
    (comment 1 "https://usbflashprog.robsonmartins.com")
  )

  (lib_symbols
    (symbol "74xx:74LS06N" (pin_names (offset 1.016)) (in_bom yes) (on_board yes)
      (property "Reference" "U" (at 0 1.27 0)
        (effects (font (size 1.27 1.27)))
      )
      (property "Value" "74LS06N" (at 0 -1.27 0)
        (effects (font (size 1.27 1.27)))
      )
      (property "Footprint" "" (at 0 0 0)
        (effects (font (size 1.27 1.27)) hide)
      )
      (property "Datasheet" "http://www.ti.com/lit/gpn/sn74LS06N" (at 0 0 0)
        (effects (font (size 1.27 1.27)) hide)
      )
      (property "ki_locked" "" (at 0 0 0)
        (effects (font (size 1.27 1.27)))
      )
      (property "ki_keywords" "TTL not inv OpenCol" (at 0 0 0)
        (effects (font (size 1.27 1.27)) hide)
      )
      (property "ki_description" "Inverter Open Collect" (at 0 0 0)
        (effects (font (size 1.27 1.27)) hide)
      )
      (property "ki_fp_filters" "DIP*W7.62mm*" (at 0 0 0)
        (effects (font (size 1.27 1.27)) hide)
      )
      (symbol "74LS06N_1_0"
        (polyline
          (pts
            (xy -3.81 3.81)
            (xy -3.81 -3.81)
            (xy 3.81 0)
            (xy -3.81 3.81)
          )
          (stroke (width 0.254) (type default))
          (fill (type background))
        )
        (pin input line (at -7.62 0 0) (length 3.81)
          (name "~" (effects (font (size 1.27 1.27))))
          (number "1" (effects (font (size 1.27 1.27))))
        )
        (pin open_collector inverted (at 7.62 0 180) (length 3.81)
          (name "~" (effects (font (size 1.27 1.27))))
          (number "2" (effects (font (size 1.27 1.27))))
        )
      )
      (symbol "74LS06N_2_0"
        (polyline
          (pts
            (xy -3.81 3.81)
            (xy -3.81 -3.81)
            (xy 3.81 0)
            (xy -3.81 3.81)
          )
          (stroke (width 0.254) (type default))
          (fill (type background))
        )
        (pin input line (at -7.62 0 0) (length 3.81)
          (name "~" (effects (font (size 1.27 1.27))))
          (number "3" (effects (font (size 1.27 1.27))))
        )
        (pin open_collector inverted (at 7.62 0 180) (length 3.81)
          (name "~" (effects (font (size 1.27 1.27))))
          (number "4" (effects (font (size 1.27 1.27))))
        )
      )
      (symbol "74LS06N_3_0"
        (polyline
          (pts
            (xy -3.81 3.81)
            (xy -3.81 -3.81)
            (xy 3.81 0)
            (xy -3.81 3.81)
          )
          (stroke (width 0.254) (type default))
          (fill (type background))
        )
        (pin input line (at -7.62 0 0) (length 3.81)
          (name "~" (effects (font (size 1.27 1.27))))
          (number "5" (effects (font (size 1.27 1.27))))
        )
        (pin open_collector inverted (at 7.62 0 180) (length 3.81)
          (name "~" (effects (font (size 1.27 1.27))))
          (number "6" (effects (font (size 1.27 1.27))))
        )
      )
      (symbol "74LS06N_4_0"
        (polyline
          (pts
            (xy -3.81 3.81)
            (xy -3.81 -3.81)
            (xy 3.81 0)
            (xy -3.81 3.81)
          )
          (stroke (width 0.254) (type default))
          (fill (type background))
        )
        (pin open_collector inverted (at 7.62 0 180) (length 3.81)
          (name "~" (effects (font (size 1.27 1.27))))
          (number "8" (effects (font (size 1.27 1.27))))
        )
        (pin input line (at -7.62 0 0) (length 3.81)
          (name "~" (effects (font (size 1.27 1.27))))
          (number "9" (effects (font (size 1.27 1.27))))
        )
      )
      (symbol "74LS06N_5_0"
        (polyline
          (pts
            (xy -3.81 3.81)
            (xy -3.81 -3.81)
            (xy 3.81 0)
            (xy -3.81 3.81)
          )
          (stroke (width 0.254) (type default))
          (fill (type background))
        )
        (pin open_collector inverted (at 7.62 0 180) (length 3.81)
          (name "~" (effects (font (size 1.27 1.27))))
          (number "10" (effects (font (size 1.27 1.27))))
        )
        (pin input line (at -7.62 0 0) (length 3.81)
          (name "~" (effects (font (size 1.27 1.27))))
          (number "11" (effects (font (size 1.27 1.27))))
        )
      )
      (symbol "74LS06N_6_0"
        (polyline
          (pts
            (xy -3.81 3.81)
            (xy -3.81 -3.81)
            (xy 3.81 0)
            (xy -3.81 3.81)
          )
          (stroke (width 0.254) (type default))
          (fill (type background))
        )
        (pin open_collector inverted (at 7.62 0 180) (length 3.81)
          (name "~" (effects (font (size 1.27 1.27))))
          (number "12" (effects (font (size 1.27 1.27))))
        )
        (pin input line (at -7.62 0 0) (length 3.81)
          (name "~" (effects (font (size 1.27 1.27))))
          (number "13" (effects (font (size 1.27 1.27))))
        )
      )
      (symbol "74LS06N_7_0"
        (pin power_in line (at 0 12.7 270) (length 5.08)
          (name "VCC" (effects (font (size 1.27 1.27))))
          (number "14" (effects (font (size 1.27 1.27))))
        )
        (pin power_in line (at 0 -12.7 90) (length 5.08)
          (name "GND" (effects (font (size 1.27 1.27))))
          (number "7" (effects (font (size 1.27 1.27))))
        )
      )
      (symbol "74LS06N_7_1"
        (rectangle (start -5.08 7.62) (end 5.08 -7.62)
          (stroke (width 0.254) (type default))
          (fill (type background))
        )
      )
    )
    (symbol "BC327_1" (pin_numbers hide) (pin_names (offset 0) hide) (in_bom yes) (on_board yes)
      (property "Reference" "Q" (at 5.08 1.905 0)
        (effects (font (size 1.27 1.27)) (justify left))
      )
      (property "Value" "BC327_1" (at 5.08 0 0)
        (effects (font (size 1.27 1.27)) (justify left))
      )
      (property "Footprint" "Package_TO_SOT_THT:TO-92_Inline" (at 5.08 -1.905 0)
        (effects (font (size 1.27 1.27) italic) (justify left) hide)
      )
      (property "Datasheet" "http://www.onsemi.com/pub_link/Collateral/BC327-D.PDF" (at 0 0 0)
        (effects (font (size 1.27 1.27)) (justify left) hide)
      )
      (property "ki_keywords" "PNP Transistor" (at 0 0 0)
        (effects (font (size 1.27 1.27)) hide)
      )
      (property "ki_description" "0.8A Ic, 45V Vce, PNP Transistor, TO-92" (at 0 0 0)
        (effects (font (size 1.27 1.27)) hide)
      )
      (property "ki_fp_filters" "TO?92*" (at 0 0 0)
        (effects (font (size 1.27 1.27)) hide)
      )
      (symbol "BC327_1_0_1"
        (polyline
          (pts
            (xy 0.635 0.635)
            (xy 2.54 2.54)
          )
          (stroke (width 0) (type default))
          (fill (type none))
        )
        (polyline
          (pts
            (xy 0.635 -0.635)
            (xy 2.54 -2.54)
            (xy 2.54 -2.54)
          )
          (stroke (width 0) (type default))
          (fill (type none))
        )
        (polyline
          (pts
            (xy 0.635 1.905)
            (xy 0.635 -1.905)
            (xy 0.635 -1.905)
          )
          (stroke (width 0.508) (type default))
          (fill (type none))
        )
        (polyline
          (pts
            (xy 2.286 -1.778)
            (xy 1.778 -2.286)
            (xy 1.27 -1.27)
            (xy 2.286 -1.778)
            (xy 2.286 -1.778)
          )
          (stroke (width 0) (type default))
          (fill (type outline))
        )
        (circle (center 1.27 0) (radius 2.8194)
          (stroke (width 0.254) (type default))
          (fill (type none))
        )
      )
      (symbol "BC327_1_1_1"
        (pin passive line (at 2.54 5.08 270) (length 2.54)
          (name "C" (effects (font (size 1.27 1.27))))
          (number "1" (effects (font (size 1.27 1.27))))
        )
        (pin input line (at -5.08 0 0) (length 5.715)
          (name "B" (effects (font (size 1.27 1.27))))
          (number "2" (effects (font (size 1.27 1.27))))
        )
        (pin passive line (at 2.54 -5.08 90) (length 2.54)
          (name "E" (effects (font (size 1.27 1.27))))
          (number "3" (effects (font (size 1.27 1.27))))
        )
      )
    )
    (symbol "BC327_2" (pin_numbers hide) (pin_names (offset 0) hide) (in_bom yes) (on_board yes)
      (property "Reference" "Q" (at 5.08 1.905 0)
        (effects (font (size 1.27 1.27)) (justify left))
      )
      (property "Value" "BC327_2" (at 5.08 0 0)
        (effects (font (size 1.27 1.27)) (justify left))
      )
      (property "Footprint" "Package_TO_SOT_THT:TO-92_Inline" (at 5.08 -1.905 0)
        (effects (font (size 1.27 1.27) italic) (justify left) hide)
      )
      (property "Datasheet" "http://www.onsemi.com/pub_link/Collateral/BC327-D.PDF" (at 0 0 0)
        (effects (font (size 1.27 1.27)) (justify left) hide)
      )
      (property "ki_keywords" "PNP Transistor" (at 0 0 0)
        (effects (font (size 1.27 1.27)) hide)
      )
      (property "ki_description" "0.8A Ic, 45V Vce, PNP Transistor, TO-92" (at 0 0 0)
        (effects (font (size 1.27 1.27)) hide)
      )
      (property "ki_fp_filters" "TO?92*" (at 0 0 0)
        (effects (font (size 1.27 1.27)) hide)
      )
      (symbol "BC327_2_0_1"
        (polyline
          (pts
            (xy 0.635 0.635)
            (xy 2.54 2.54)
          )
          (stroke (width 0) (type default))
          (fill (type none))
        )
        (polyline
          (pts
            (xy 0.635 -0.635)
            (xy 2.54 -2.54)
            (xy 2.54 -2.54)
          )
          (stroke (width 0) (type default))
          (fill (type none))
        )
        (polyline
          (pts
            (xy 0.635 1.905)
            (xy 0.635 -1.905)
            (xy 0.635 -1.905)
          )
          (stroke (width 0.508) (type default))
          (fill (type none))
        )
        (polyline
          (pts
            (xy 2.286 -1.778)
            (xy 1.778 -2.286)
            (xy 1.27 -1.27)
            (xy 2.286 -1.778)
            (xy 2.286 -1.778)
          )
          (stroke (width 0) (type default))
          (fill (type outline))
        )
        (circle (center 1.27 0) (radius 2.8194)
          (stroke (width 0.254) (type default))
          (fill (type none))
        )
      )
      (symbol "BC327_2_1_1"
        (pin passive line (at 2.54 5.08 270) (length 2.54)
          (name "C" (effects (font (size 1.27 1.27))))
          (number "1" (effects (font (size 1.27 1.27))))
        )
        (pin input line (at -5.08 0 0) (length 5.715)
          (name "B" (effects (font (size 1.27 1.27))))
          (number "2" (effects (font (size 1.27 1.27))))
        )
        (pin passive line (at 2.54 -5.08 90) (length 2.54)
          (name "E" (effects (font (size 1.27 1.27))))
          (number "3" (effects (font (size 1.27 1.27))))
        )
      )
    )
    (symbol "Connector:TestPoint" (pin_numbers hide) (pin_names (offset 0.762) hide) (in_bom yes) (on_board yes)
      (property "Reference" "TP" (at 0 6.858 0)
        (effects (font (size 1.27 1.27)))
      )
      (property "Value" "TestPoint" (at 0 5.08 0)
        (effects (font (size 1.27 1.27)))
      )
      (property "Footprint" "" (at 5.08 0 0)
        (effects (font (size 1.27 1.27)) hide)
      )
      (property "Datasheet" "~" (at 5.08 0 0)
        (effects (font (size 1.27 1.27)) hide)
      )
      (property "ki_keywords" "test point tp" (at 0 0 0)
        (effects (font (size 1.27 1.27)) hide)
      )
      (property "ki_description" "test point" (at 0 0 0)
        (effects (font (size 1.27 1.27)) hide)
      )
      (property "ki_fp_filters" "Pin* Test*" (at 0 0 0)
        (effects (font (size 1.27 1.27)) hide)
      )
      (symbol "TestPoint_0_1"
        (circle (center 0 3.302) (radius 0.762)
          (stroke (width 0) (type default))
          (fill (type none))
        )
      )
      (symbol "TestPoint_1_1"
        (pin passive line (at 0 0 90) (length 2.54)
          (name "1" (effects (font (size 1.27 1.27))))
          (number "1" (effects (font (size 1.27 1.27))))
        )
      )
    )
    (symbol "Device:C" (pin_numbers hide) (pin_names (offset 0.254)) (in_bom yes) (on_board yes)
      (property "Reference" "C" (at 0.635 2.54 0)
        (effects (font (size 1.27 1.27)) (justify left))
      )
      (property "Value" "C" (at 0.635 -2.54 0)
        (effects (font (size 1.27 1.27)) (justify left))
      )
      (property "Footprint" "" (at 0.9652 -3.81 0)
        (effects (font (size 1.27 1.27)) hide)
      )
      (property "Datasheet" "~" (at 0 0 0)
        (effects (font (size 1.27 1.27)) hide)
      )
      (property "ki_keywords" "cap capacitor" (at 0 0 0)
        (effects (font (size 1.27 1.27)) hide)
      )
      (property "ki_description" "Unpolarized capacitor" (at 0 0 0)
        (effects (font (size 1.27 1.27)) hide)
      )
      (property "ki_fp_filters" "C_*" (at 0 0 0)
        (effects (font (size 1.27 1.27)) hide)
      )
      (symbol "C_0_1"
        (polyline
          (pts
            (xy -2.032 -0.762)
            (xy 2.032 -0.762)
          )
          (stroke (width 0.508) (type default))
          (fill (type none))
        )
        (polyline
          (pts
            (xy -2.032 0.762)
            (xy 2.032 0.762)
          )
          (stroke (width 0.508) (type default))
          (fill (type none))
        )
      )
      (symbol "C_1_1"
        (pin passive line (at 0 3.81 270) (length 2.794)
          (name "~" (effects (font (size 1.27 1.27))))
          (number "1" (effects (font (size 1.27 1.27))))
        )
        (pin passive line (at 0 -3.81 90) (length 2.794)
          (name "~" (effects (font (size 1.27 1.27))))
          (number "2" (effects (font (size 1.27 1.27))))
        )
      )
    )
    (symbol "Device:C_Polarized" (pin_numbers hide) (pin_names (offset 0.254)) (in_bom yes) (on_board yes)
      (property "Reference" "C" (at 0.635 2.54 0)
        (effects (font (size 1.27 1.27)) (justify left))
      )
      (property "Value" "C_Polarized" (at 0.635 -2.54 0)
        (effects (font (size 1.27 1.27)) (justify left))
      )
      (property "Footprint" "" (at 0.9652 -3.81 0)
        (effects (font (size 1.27 1.27)) hide)
      )
      (property "Datasheet" "~" (at 0 0 0)
        (effects (font (size 1.27 1.27)) hide)
      )
      (property "ki_keywords" "cap capacitor" (at 0 0 0)
        (effects (font (size 1.27 1.27)) hide)
      )
      (property "ki_description" "Polarized capacitor" (at 0 0 0)
        (effects (font (size 1.27 1.27)) hide)
      )
      (property "ki_fp_filters" "CP_*" (at 0 0 0)
        (effects (font (size 1.27 1.27)) hide)
      )
      (symbol "C_Polarized_0_1"
        (rectangle (start -2.286 0.508) (end 2.286 1.016)
          (stroke (width 0) (type default))
          (fill (type none))
        )
        (polyline
          (pts
            (xy -1.778 2.286)
            (xy -0.762 2.286)
          )
          (stroke (width 0) (type default))
          (fill (type none))
        )
        (polyline
          (pts
            (xy -1.27 2.794)
            (xy -1.27 1.778)
          )
          (stroke (width 0) (type default))
          (fill (type none))
        )
        (rectangle (start 2.286 -0.508) (end -2.286 -1.016)
          (stroke (width 0) (type default))
          (fill (type outline))
        )
      )
      (symbol "C_Polarized_1_1"
        (pin passive line (at 0 3.81 270) (length 2.794)
          (name "~" (effects (font (size 1.27 1.27))))
          (number "1" (effects (font (size 1.27 1.27))))
        )
        (pin passive line (at 0 -3.81 90) (length 2.794)
          (name "~" (effects (font (size 1.27 1.27))))
          (number "2" (effects (font (size 1.27 1.27))))
        )
      )
    )
    (symbol "Device:LED" (pin_numbers hide) (pin_names (offset 1.016) hide) (in_bom yes) (on_board yes)
      (property "Reference" "D" (at 0 2.54 0)
        (effects (font (size 1.27 1.27)))
      )
      (property "Value" "LED" (at 0 -2.54 0)
        (effects (font (size 1.27 1.27)))
      )
      (property "Footprint" "" (at 0 0 0)
        (effects (font (size 1.27 1.27)) hide)
      )
      (property "Datasheet" "~" (at 0 0 0)
        (effects (font (size 1.27 1.27)) hide)
      )
      (property "ki_keywords" "LED diode" (at 0 0 0)
        (effects (font (size 1.27 1.27)) hide)
      )
      (property "ki_description" "Light emitting diode" (at 0 0 0)
        (effects (font (size 1.27 1.27)) hide)
      )
      (property "ki_fp_filters" "LED* LED_SMD:* LED_THT:*" (at 0 0 0)
        (effects (font (size 1.27 1.27)) hide)
      )
      (symbol "LED_0_1"
        (polyline
          (pts
            (xy -1.27 -1.27)
            (xy -1.27 1.27)
          )
          (stroke (width 0.254) (type default))
          (fill (type none))
        )
        (polyline
          (pts
            (xy -1.27 0)
            (xy 1.27 0)
          )
          (stroke (width 0) (type default))
          (fill (type none))
        )
        (polyline
          (pts
            (xy 1.27 -1.27)
            (xy 1.27 1.27)
            (xy -1.27 0)
            (xy 1.27 -1.27)
          )
          (stroke (width 0.254) (type default))
          (fill (type none))
        )
        (polyline
          (pts
            (xy -3.048 -0.762)
            (xy -4.572 -2.286)
            (xy -3.81 -2.286)
            (xy -4.572 -2.286)
            (xy -4.572 -1.524)
          )
          (stroke (width 0) (type default))
          (fill (type none))
        )
        (polyline
          (pts
            (xy -1.778 -0.762)
            (xy -3.302 -2.286)
            (xy -2.54 -2.286)
            (xy -3.302 -2.286)
            (xy -3.302 -1.524)
          )
          (stroke (width 0) (type default))
          (fill (type none))
        )
      )
      (symbol "LED_1_1"
        (pin passive line (at -3.81 0 0) (length 2.54)
          (name "K" (effects (font (size 1.27 1.27))))
          (number "1" (effects (font (size 1.27 1.27))))
        )
        (pin passive line (at 3.81 0 180) (length 2.54)
          (name "A" (effects (font (size 1.27 1.27))))
          (number "2" (effects (font (size 1.27 1.27))))
        )
      )
    )
    (symbol "Device:L_Ferrite" (pin_numbers hide) (pin_names (offset 1.016) hide) (in_bom yes) (on_board yes)
      (property "Reference" "L" (at -1.27 0 90)
        (effects (font (size 1.27 1.27)))
      )
      (property "Value" "L_Ferrite" (at 2.794 0 90)
        (effects (font (size 1.27 1.27)))
      )
      (property "Footprint" "" (at 0 0 0)
        (effects (font (size 1.27 1.27)) hide)
      )
      (property "Datasheet" "~" (at 0 0 0)
        (effects (font (size 1.27 1.27)) hide)
      )
      (property "ki_keywords" "inductor choke coil reactor magnetic" (at 0 0 0)
        (effects (font (size 1.27 1.27)) hide)
      )
      (property "ki_description" "Inductor with ferrite core" (at 0 0 0)
        (effects (font (size 1.27 1.27)) hide)
      )
      (property "ki_fp_filters" "Choke_* *Coil* Inductor_* L_*" (at 0 0 0)
        (effects (font (size 1.27 1.27)) hide)
      )
      (symbol "L_Ferrite_0_1"
        (arc (start 0 -2.54) (mid 0.6323 -1.905) (end 0 -1.27)
          (stroke (width 0) (type default))
          (fill (type none))
        )
        (arc (start 0 -1.27) (mid 0.6323 -0.635) (end 0 0)
          (stroke (width 0) (type default))
          (fill (type none))
        )
        (polyline
          (pts
            (xy 1.016 -2.794)
            (xy 1.016 -2.286)
          )
          (stroke (width 0) (type default))
          (fill (type none))
        )
        (polyline
          (pts
            (xy 1.016 -1.778)
            (xy 1.016 -1.27)
          )
          (stroke (width 0) (type default))
          (fill (type none))
        )
        (polyline
          (pts
            (xy 1.016 -0.762)
            (xy 1.016 -0.254)
          )
          (stroke (width 0) (type default))
          (fill (type none))
        )
        (polyline
          (pts
            (xy 1.016 0.254)
            (xy 1.016 0.762)
          )
          (stroke (width 0) (type default))
          (fill (type none))
        )
        (polyline
          (pts
            (xy 1.016 1.27)
            (xy 1.016 1.778)
          )
          (stroke (width 0) (type default))
          (fill (type none))
        )
        (polyline
          (pts
            (xy 1.016 2.286)
            (xy 1.016 2.794)
          )
          (stroke (width 0) (type default))
          (fill (type none))
        )
        (polyline
          (pts
            (xy 1.524 -2.286)
            (xy 1.524 -2.794)
          )
          (stroke (width 0) (type default))
          (fill (type none))
        )
        (polyline
          (pts
            (xy 1.524 -1.27)
            (xy 1.524 -1.778)
          )
          (stroke (width 0) (type default))
          (fill (type none))
        )
        (polyline
          (pts
            (xy 1.524 -0.254)
            (xy 1.524 -0.762)
          )
          (stroke (width 0) (type default))
          (fill (type none))
        )
        (polyline
          (pts
            (xy 1.524 0.762)
            (xy 1.524 0.254)
          )
          (stroke (width 0) (type default))
          (fill (type none))
        )
        (polyline
          (pts
            (xy 1.524 1.778)
            (xy 1.524 1.27)
          )
          (stroke (width 0) (type default))
          (fill (type none))
        )
        (polyline
          (pts
            (xy 1.524 2.794)
            (xy 1.524 2.286)
          )
          (stroke (width 0) (type default))
          (fill (type none))
        )
        (arc (start 0 0) (mid 0.6323 0.635) (end 0 1.27)
          (stroke (width 0) (type default))
          (fill (type none))
        )
        (arc (start 0 1.27) (mid 0.6323 1.905) (end 0 2.54)
          (stroke (width 0) (type default))
          (fill (type none))
        )
      )
      (symbol "L_Ferrite_1_1"
        (pin passive line (at 0 3.81 270) (length 1.27)
          (name "1" (effects (font (size 1.27 1.27))))
          (number "1" (effects (font (size 1.27 1.27))))
        )
        (pin passive line (at 0 -3.81 90) (length 1.27)
          (name "2" (effects (font (size 1.27 1.27))))
          (number "2" (effects (font (size 1.27 1.27))))
        )
      )
    )
    (symbol "Device:R" (pin_numbers hide) (pin_names (offset 0)) (in_bom yes) (on_board yes)
      (property "Reference" "R" (at 2.032 0 90)
        (effects (font (size 1.27 1.27)))
      )
      (property "Value" "R" (at 0 0 90)
        (effects (font (size 1.27 1.27)))
      )
      (property "Footprint" "" (at -1.778 0 90)
        (effects (font (size 1.27 1.27)) hide)
      )
      (property "Datasheet" "~" (at 0 0 0)
        (effects (font (size 1.27 1.27)) hide)
      )
      (property "ki_keywords" "R res resistor" (at 0 0 0)
        (effects (font (size 1.27 1.27)) hide)
      )
      (property "ki_description" "Resistor" (at 0 0 0)
        (effects (font (size 1.27 1.27)) hide)
      )
      (property "ki_fp_filters" "R_*" (at 0 0 0)
        (effects (font (size 1.27 1.27)) hide)
      )
      (symbol "R_0_1"
        (rectangle (start -1.016 -2.54) (end 1.016 2.54)
          (stroke (width 0.254) (type default))
          (fill (type none))
        )
      )
      (symbol "R_1_1"
        (pin passive line (at 0 3.81 270) (length 1.27)
          (name "~" (effects (font (size 1.27 1.27))))
          (number "1" (effects (font (size 1.27 1.27))))
        )
        (pin passive line (at 0 -3.81 90) (length 1.27)
          (name "~" (effects (font (size 1.27 1.27))))
          (number "2" (effects (font (size 1.27 1.27))))
        )
      )
    )
    (symbol "Diode:1N4148" (pin_numbers hide) (pin_names (offset 1.016) hide) (in_bom yes) (on_board yes)
      (property "Reference" "D" (at 0 2.54 0)
        (effects (font (size 1.27 1.27)))
      )
      (property "Value" "1N4148" (at 0 -2.54 0)
        (effects (font (size 1.27 1.27)))
      )
      (property "Footprint" "Diode_THT:D_DO-35_SOD27_P7.62mm_Horizontal" (at 0 -4.445 0)
        (effects (font (size 1.27 1.27)) hide)
      )
      (property "Datasheet" "https://assets.nexperia.com/documents/data-sheet/1N4148_1N4448.pdf" (at 0 0 0)
        (effects (font (size 1.27 1.27)) hide)
      )
      (property "ki_keywords" "diode" (at 0 0 0)
        (effects (font (size 1.27 1.27)) hide)
      )
      (property "ki_description" "100V 0.15A standard switching diode, DO-35" (at 0 0 0)
        (effects (font (size 1.27 1.27)) hide)
      )
      (property "ki_fp_filters" "D*DO?35*" (at 0 0 0)
        (effects (font (size 1.27 1.27)) hide)
      )
      (symbol "1N4148_0_1"
        (polyline
          (pts
            (xy -1.27 1.27)
            (xy -1.27 -1.27)
          )
          (stroke (width 0.254) (type default))
          (fill (type none))
        )
        (polyline
          (pts
            (xy 1.27 0)
            (xy -1.27 0)
          )
          (stroke (width 0) (type default))
          (fill (type none))
        )
        (polyline
          (pts
            (xy 1.27 1.27)
            (xy 1.27 -1.27)
            (xy -1.27 0)
            (xy 1.27 1.27)
          )
          (stroke (width 0.254) (type default))
          (fill (type none))
        )
      )
      (symbol "1N4148_1_1"
        (pin passive line (at -3.81 0 0) (length 2.54)
          (name "K" (effects (font (size 1.27 1.27))))
          (number "1" (effects (font (size 1.27 1.27))))
        )
        (pin passive line (at 3.81 0 180) (length 2.54)
          (name "A" (effects (font (size 1.27 1.27))))
          (number "2" (effects (font (size 1.27 1.27))))
        )
      )
    )
    (symbol "Diode:1N47xxA" (pin_numbers hide) (pin_names hide) (in_bom yes) (on_board yes)
      (property "Reference" "D" (at 0 2.54 0)
        (effects (font (size 1.27 1.27)))
      )
      (property "Value" "1N47xxA" (at 0 -2.54 0)
        (effects (font (size 1.27 1.27)))
      )
      (property "Footprint" "Diode_THT:D_DO-41_SOD81_P10.16mm_Horizontal" (at 0 -4.445 0)
        (effects (font (size 1.27 1.27)) hide)
      )
      (property "Datasheet" "https://www.vishay.com/docs/85816/1n4728a.pdf" (at 0 0 0)
        (effects (font (size 1.27 1.27)) hide)
      )
      (property "ki_keywords" "zener diode" (at 0 0 0)
        (effects (font (size 1.27 1.27)) hide)
      )
      (property "ki_description" "1300mW Silicon planar power Zener diodes, DO-41" (at 0 0 0)
        (effects (font (size 1.27 1.27)) hide)
      )
      (property "ki_fp_filters" "D*DO?41*" (at 0 0 0)
        (effects (font (size 1.27 1.27)) hide)
      )
      (symbol "1N47xxA_0_1"
        (polyline
          (pts
            (xy 1.27 0)
            (xy -1.27 0)
          )
          (stroke (width 0) (type default))
          (fill (type none))
        )
        (polyline
          (pts
            (xy -1.27 -1.27)
            (xy -1.27 1.27)
            (xy -0.762 1.27)
          )
          (stroke (width 0.254) (type default))
          (fill (type none))
        )
        (polyline
          (pts
            (xy 1.27 -1.27)
            (xy 1.27 1.27)
            (xy -1.27 0)
            (xy 1.27 -1.27)
          )
          (stroke (width 0.254) (type default))
          (fill (type none))
        )
      )
      (symbol "1N47xxA_1_1"
        (pin passive line (at -3.81 0 0) (length 2.54)
          (name "K" (effects (font (size 1.27 1.27))))
          (number "1" (effects (font (size 1.27 1.27))))
        )
        (pin passive line (at 3.81 0 180) (length 2.54)
          (name "A" (effects (font (size 1.27 1.27))))
          (number "2" (effects (font (size 1.27 1.27))))
        )
      )
    )
    (symbol "Diode:BAT46" (pin_numbers hide) (pin_names (offset 1.016) hide) (in_bom yes) (on_board yes)
      (property "Reference" "D" (at 0 2.54 0)
        (effects (font (size 1.27 1.27)))
      )
      (property "Value" "BAT46" (at 0 -2.54 0)
        (effects (font (size 1.27 1.27)))
      )
      (property "Footprint" "Diode_THT:D_DO-35_SOD27_P7.62mm_Horizontal" (at 0 -4.445 0)
        (effects (font (size 1.27 1.27)) hide)
      )
      (property "Datasheet" "http://www.vishay.com/docs/85662/bat46.pdf" (at 0 0 0)
        (effects (font (size 1.27 1.27)) hide)
      )
      (property "ki_keywords" "diode Schottky" (at 0 0 0)
        (effects (font (size 1.27 1.27)) hide)
      )
      (property "ki_description" "100V 0.15A Small Signal Schottky Diode, DO-35" (at 0 0 0)
        (effects (font (size 1.27 1.27)) hide)
      )
      (property "ki_fp_filters" "D*DO?35*" (at 0 0 0)
        (effects (font (size 1.27 1.27)) hide)
      )
      (symbol "BAT46_0_1"
        (polyline
          (pts
            (xy 1.27 0)
            (xy -1.27 0)
          )
          (stroke (width 0) (type default))
          (fill (type none))
        )
        (polyline
          (pts
            (xy 1.27 1.27)
            (xy 1.27 -1.27)
            (xy -1.27 0)
            (xy 1.27 1.27)
          )
          (stroke (width 0.254) (type default))
          (fill (type none))
        )
        (polyline
          (pts
            (xy -1.905 0.635)
            (xy -1.905 1.27)
            (xy -1.27 1.27)
            (xy -1.27 -1.27)
            (xy -0.635 -1.27)
            (xy -0.635 -0.635)
          )
          (stroke (width 0.254) (type default))
          (fill (type none))
        )
      )
      (symbol "BAT46_1_1"
        (pin passive line (at -3.81 0 0) (length 2.54)
          (name "K" (effects (font (size 1.27 1.27))))
          (number "1" (effects (font (size 1.27 1.27))))
        )
        (pin passive line (at 3.81 0 180) (length 2.54)
          (name "A" (effects (font (size 1.27 1.27))))
          (number "2" (effects (font (size 1.27 1.27))))
        )
      )
    )
    (symbol "Transistor_BJT:BC327" (pin_numbers hide) (pin_names (offset 0) hide) (in_bom yes) (on_board yes)
      (property "Reference" "Q" (at 5.08 1.905 0)
        (effects (font (size 1.27 1.27)) (justify left))
      )
      (property "Value" "BC327" (at 5.08 0 0)
        (effects (font (size 1.27 1.27)) (justify left))
      )
      (property "Footprint" "Package_TO_SOT_THT:TO-92_Inline" (at 5.08 -1.905 0)
        (effects (font (size 1.27 1.27) italic) (justify left) hide)
      )
      (property "Datasheet" "http://www.onsemi.com/pub_link/Collateral/BC327-D.PDF" (at 0 0 0)
        (effects (font (size 1.27 1.27)) (justify left) hide)
      )
      (property "ki_keywords" "PNP Transistor" (at 0 0 0)
        (effects (font (size 1.27 1.27)) hide)
      )
      (property "ki_description" "0.8A Ic, 45V Vce, PNP Transistor, TO-92" (at 0 0 0)
        (effects (font (size 1.27 1.27)) hide)
      )
      (property "ki_fp_filters" "TO?92*" (at 0 0 0)
        (effects (font (size 1.27 1.27)) hide)
      )
      (symbol "BC327_0_1"
        (polyline
          (pts
            (xy 0.635 0.635)
            (xy 2.54 2.54)
          )
          (stroke (width 0) (type default))
          (fill (type none))
        )
        (polyline
          (pts
            (xy 0.635 -0.635)
            (xy 2.54 -2.54)
            (xy 2.54 -2.54)
          )
          (stroke (width 0) (type default))
          (fill (type none))
        )
        (polyline
          (pts
            (xy 0.635 1.905)
            (xy 0.635 -1.905)
            (xy 0.635 -1.905)
          )
          (stroke (width 0.508) (type default))
          (fill (type none))
        )
        (polyline
          (pts
            (xy 2.286 -1.778)
            (xy 1.778 -2.286)
            (xy 1.27 -1.27)
            (xy 2.286 -1.778)
            (xy 2.286 -1.778)
          )
          (stroke (width 0) (type default))
          (fill (type outline))
        )
        (circle (center 1.27 0) (radius 2.8194)
          (stroke (width 0.254) (type default))
          (fill (type none))
        )
      )
      (symbol "BC327_1_1"
        (pin passive line (at 2.54 5.08 270) (length 2.54)
          (name "C" (effects (font (size 1.27 1.27))))
          (number "1" (effects (font (size 1.27 1.27))))
        )
        (pin input line (at -5.08 0 0) (length 5.715)
          (name "B" (effects (font (size 1.27 1.27))))
          (number "2" (effects (font (size 1.27 1.27))))
        )
        (pin passive line (at 2.54 -5.08 90) (length 2.54)
          (name "E" (effects (font (size 1.27 1.27))))
          (number "3" (effects (font (size 1.27 1.27))))
        )
      )
    )
    (symbol "Transistor_BJT:BC547" (pin_numbers hide) (pin_names (offset 0) hide) (in_bom yes) (on_board yes)
      (property "Reference" "Q" (at 5.08 1.905 0)
        (effects (font (size 1.27 1.27)) (justify left))
      )
      (property "Value" "BC547" (at 5.08 0 0)
        (effects (font (size 1.27 1.27)) (justify left))
      )
      (property "Footprint" "Package_TO_SOT_THT:TO-92_Inline" (at 5.08 -1.905 0)
        (effects (font (size 1.27 1.27) italic) (justify left) hide)
      )
      (property "Datasheet" "https://www.onsemi.com/pub/Collateral/BC550-D.pdf" (at 0 0 0)
        (effects (font (size 1.27 1.27)) (justify left) hide)
      )
      (property "ki_keywords" "NPN Transistor" (at 0 0 0)
        (effects (font (size 1.27 1.27)) hide)
      )
      (property "ki_description" "0.1A Ic, 45V Vce, Small Signal NPN Transistor, TO-92" (at 0 0 0)
        (effects (font (size 1.27 1.27)) hide)
      )
      (property "ki_fp_filters" "TO?92*" (at 0 0 0)
        (effects (font (size 1.27 1.27)) hide)
      )
      (symbol "BC547_0_1"
        (polyline
          (pts
            (xy 0 0)
            (xy 0.635 0)
          )
          (stroke (width 0) (type default))
          (fill (type none))
        )
        (polyline
          (pts
            (xy 0.635 0.635)
            (xy 2.54 2.54)
          )
          (stroke (width 0) (type default))
          (fill (type none))
        )
        (polyline
          (pts
            (xy 0.635 -0.635)
            (xy 2.54 -2.54)
            (xy 2.54 -2.54)
          )
          (stroke (width 0) (type default))
          (fill (type none))
        )
        (polyline
          (pts
            (xy 0.635 1.905)
            (xy 0.635 -1.905)
            (xy 0.635 -1.905)
          )
          (stroke (width 0.508) (type default))
          (fill (type none))
        )
        (polyline
          (pts
            (xy 1.27 -1.778)
            (xy 1.778 -1.27)
            (xy 2.286 -2.286)
            (xy 1.27 -1.778)
            (xy 1.27 -1.778)
          )
          (stroke (width 0) (type default))
          (fill (type outline))
        )
        (circle (center 1.27 0) (radius 2.8194)
          (stroke (width 0.254) (type default))
          (fill (type none))
        )
      )
      (symbol "BC547_1_1"
        (pin passive line (at 2.54 5.08 270) (length 2.54)
          (name "C" (effects (font (size 1.27 1.27))))
          (number "1" (effects (font (size 1.27 1.27))))
        )
        (pin input line (at -5.08 0 0) (length 5.08)
          (name "B" (effects (font (size 1.27 1.27))))
          (number "2" (effects (font (size 1.27 1.27))))
        )
        (pin passive line (at 2.54 -5.08 90) (length 2.54)
          (name "E" (effects (font (size 1.27 1.27))))
          (number "3" (effects (font (size 1.27 1.27))))
        )
      )
    )
    (symbol "power:+9V" (power) (pin_names (offset 0)) (in_bom yes) (on_board yes)
      (property "Reference" "#PWR" (at 0 -3.81 0)
        (effects (font (size 1.27 1.27)) hide)
      )
      (property "Value" "+9V" (at 0 3.556 0)
        (effects (font (size 1.27 1.27)))
      )
      (property "Footprint" "" (at 0 0 0)
        (effects (font (size 1.27 1.27)) hide)
      )
      (property "Datasheet" "" (at 0 0 0)
        (effects (font (size 1.27 1.27)) hide)
      )
      (property "ki_keywords" "power-flag" (at 0 0 0)
        (effects (font (size 1.27 1.27)) hide)
      )
      (property "ki_description" "Power symbol creates a global label with name \"+9V\"" (at 0 0 0)
        (effects (font (size 1.27 1.27)) hide)
      )
      (symbol "+9V_0_1"
        (polyline
          (pts
            (xy -0.762 1.27)
            (xy 0 2.54)
          )
          (stroke (width 0) (type default))
          (fill (type none))
        )
        (polyline
          (pts
            (xy 0 0)
            (xy 0 2.54)
          )
          (stroke (width 0) (type default))
          (fill (type none))
        )
        (polyline
          (pts
            (xy 0 2.54)
            (xy 0.762 1.27)
          )
          (stroke (width 0) (type default))
          (fill (type none))
        )
      )
      (symbol "+9V_1_1"
        (pin power_in line (at 0 0 90) (length 0) hide
          (name "+9V" (effects (font (size 1.27 1.27))))
          (number "1" (effects (font (size 1.27 1.27))))
        )
      )
    )
    (symbol "power:GND" (power) (pin_names (offset 0)) (in_bom yes) (on_board yes)
      (property "Reference" "#PWR" (at 0 -6.35 0)
        (effects (font (size 1.27 1.27)) hide)
      )
      (property "Value" "GND" (at 0 -3.81 0)
        (effects (font (size 1.27 1.27)))
      )
      (property "Footprint" "" (at 0 0 0)
        (effects (font (size 1.27 1.27)) hide)
      )
      (property "Datasheet" "" (at 0 0 0)
        (effects (font (size 1.27 1.27)) hide)
      )
      (property "ki_keywords" "power-flag" (at 0 0 0)
        (effects (font (size 1.27 1.27)) hide)
      )
      (property "ki_description" "Power symbol creates a global label with name \"GND\" , ground" (at 0 0 0)
        (effects (font (size 1.27 1.27)) hide)
      )
      (symbol "GND_0_1"
        (polyline
          (pts
            (xy 0 0)
            (xy 0 -1.27)
            (xy 1.27 -1.27)
            (xy 0 -2.54)
            (xy -1.27 -1.27)
            (xy 0 -1.27)
          )
          (stroke (width 0) (type default))
          (fill (type none))
        )
      )
      (symbol "GND_1_1"
        (pin power_in line (at 0 0 270) (length 0) hide
          (name "GND" (effects (font (size 1.27 1.27))))
          (number "1" (effects (font (size 1.27 1.27))))
        )
      )
    )
    (symbol "power:VCC" (power) (pin_names (offset 0)) (in_bom yes) (on_board yes)
      (property "Reference" "#PWR" (at 0 -3.81 0)
        (effects (font (size 1.27 1.27)) hide)
      )
      (property "Value" "VCC" (at 0 3.81 0)
        (effects (font (size 1.27 1.27)))
      )
      (property "Footprint" "" (at 0 0 0)
        (effects (font (size 1.27 1.27)) hide)
      )
      (property "Datasheet" "" (at 0 0 0)
        (effects (font (size 1.27 1.27)) hide)
      )
      (property "ki_keywords" "power-flag" (at 0 0 0)
        (effects (font (size 1.27 1.27)) hide)
      )
      (property "ki_description" "Power symbol creates a global label with name \"VCC\"" (at 0 0 0)
        (effects (font (size 1.27 1.27)) hide)
      )
      (symbol "VCC_0_1"
        (polyline
          (pts
            (xy -0.762 1.27)
            (xy 0 2.54)
          )
          (stroke (width 0) (type default))
          (fill (type none))
        )
        (polyline
          (pts
            (xy 0 0)
            (xy 0 2.54)
          )
          (stroke (width 0) (type default))
          (fill (type none))
        )
        (polyline
          (pts
            (xy 0 2.54)
            (xy 0.762 1.27)
          )
          (stroke (width 0) (type default))
          (fill (type none))
        )
      )
      (symbol "VCC_1_1"
        (pin power_in line (at 0 0 90) (length 0) hide
          (name "VCC" (effects (font (size 1.27 1.27))))
          (number "1" (effects (font (size 1.27 1.27))))
        )
      )
    )
    (symbol "power:VDD" (power) (pin_names (offset 0)) (in_bom yes) (on_board yes)
      (property "Reference" "#PWR" (at 0 -3.81 0)
        (effects (font (size 1.27 1.27)) hide)
      )
      (property "Value" "VDD" (at 0 3.81 0)
        (effects (font (size 1.27 1.27)))
      )
      (property "Footprint" "" (at 0 0 0)
        (effects (font (size 1.27 1.27)) hide)
      )
      (property "Datasheet" "" (at 0 0 0)
        (effects (font (size 1.27 1.27)) hide)
      )
      (property "ki_keywords" "power-flag" (at 0 0 0)
        (effects (font (size 1.27 1.27)) hide)
      )
      (property "ki_description" "Power symbol creates a global label with name \"VDD\"" (at 0 0 0)
        (effects (font (size 1.27 1.27)) hide)
      )
      (symbol "VDD_0_1"
        (polyline
          (pts
            (xy -0.762 1.27)
            (xy 0 2.54)
          )
          (stroke (width 0) (type default))
          (fill (type none))
        )
        (polyline
          (pts
            (xy 0 0)
            (xy 0 2.54)
          )
          (stroke (width 0) (type default))
          (fill (type none))
        )
        (polyline
          (pts
            (xy 0 2.54)
            (xy 0.762 1.27)
          )
          (stroke (width 0) (type default))
          (fill (type none))
        )
      )
      (symbol "VDD_1_1"
        (pin power_in line (at 0 0 90) (length 0) hide
          (name "VDD" (effects (font (size 1.27 1.27))))
          (number "1" (effects (font (size 1.27 1.27))))
        )
      )
    )
    (symbol "power:VPP" (power) (pin_names (offset 0)) (in_bom yes) (on_board yes)
      (property "Reference" "#PWR" (at 0 -3.81 0)
        (effects (font (size 1.27 1.27)) hide)
      )
      (property "Value" "VPP" (at 0 3.81 0)
        (effects (font (size 1.27 1.27)))
      )
      (property "Footprint" "" (at 0 0 0)
        (effects (font (size 1.27 1.27)) hide)
      )
      (property "Datasheet" "" (at 0 0 0)
        (effects (font (size 1.27 1.27)) hide)
      )
      (property "ki_keywords" "power-flag" (at 0 0 0)
        (effects (font (size 1.27 1.27)) hide)
      )
      (property "ki_description" "Power symbol creates a global label with name \"VPP\"" (at 0 0 0)
        (effects (font (size 1.27 1.27)) hide)
      )
      (symbol "VPP_0_1"
        (polyline
          (pts
            (xy -0.762 1.27)
            (xy 0 2.54)
          )
          (stroke (width 0) (type default))
          (fill (type none))
        )
        (polyline
          (pts
            (xy 0 0)
            (xy 0 2.54)
          )
          (stroke (width 0) (type default))
          (fill (type none))
        )
        (polyline
          (pts
            (xy 0 2.54)
            (xy 0.762 1.27)
          )
          (stroke (width 0) (type default))
          (fill (type none))
        )
      )
      (symbol "VPP_1_1"
        (pin power_in line (at 0 0 90) (length 0) hide
          (name "VPP" (effects (font (size 1.27 1.27))))
          (number "1" (effects (font (size 1.27 1.27))))
        )
      )
    )
  )

  (junction (at 77.47 46.99) (diameter 0) (color 0 0 0 0)
    (uuid 00e39da0-4b3e-4884-a91e-86d729914953)
  )
  (junction (at 149.86 73.66) (diameter 0) (color 0 0 0 0)
    (uuid 0774b60f-e343-428b-9125-3ca983239ad5)
  )
  (junction (at 102.87 90.17) (diameter 0) (color 0 0 0 0)
    (uuid 395d9032-1866-4257-b5f0-be7ac403008f)
  )
  (junction (at 160.02 46.99) (diameter 0) (color 0 0 0 0)
    (uuid 3aec5e23-e675-4bcf-9a9e-48cb59d51927)
  )
  (junction (at 68.58 29.21) (diameter 0) (color 0 0 0 0)
    (uuid 43f4cf53-1dc5-4426-bbd2-fabe9c3d45ec)
  )
  (junction (at 102.87 46.99) (diameter 0) (color 0 0 0 0)
    (uuid 4be2d863-39fc-49fd-99c7-77790b42f677)
  )
  (junction (at 44.45 82.55) (diameter 0) (color 0 0 0 0)
    (uuid 524dc8d0-13b4-43fe-b274-8ac08bc4b894)
  )
  (junction (at 72.39 82.55) (diameter 0) (color 0 0 0 0)
    (uuid 67b21347-341a-4a06-a38d-6eeee8f2b31c)
  )
  (junction (at 167.64 54.61) (diameter 0) (color 0 0 0 0)
    (uuid 70cf3e26-e279-4e61-a2f5-466ff5585d49)
  )
  (junction (at 87.63 46.99) (diameter 0) (color 0 0 0 0)
    (uuid 75d5a810-84fd-42c4-a0b7-6b82d09662a2)
  )
  (junction (at 95.25 46.99) (diameter 0) (color 0 0 0 0)
    (uuid 7be13a36-eb8e-440f-aaac-2fd6665d9f61)
  )
  (junction (at 80.01 72.39) (diameter 0) (color 0 0 0 0)
    (uuid a3722fe0-facc-42fa-a01b-a26433c9d7fe)
  )
  (junction (at 102.87 64.77) (diameter 0) (color 0 0 0 0)
    (uuid a3d660d2-1195-4764-9c63-d090a7cbc79a)
  )
  (junction (at 167.64 73.66) (diameter 0) (color 0 0 0 0)
    (uuid b7844cf9-69d3-4f7a-977a-bfc30d5d4c82)
  )
  (junction (at 167.64 36.83) (diameter 0) (color 0 0 0 0)
    (uuid bf67f245-1714-4d39-b76d-53f1523ab5f8)
  )
  (junction (at 68.58 39.37) (diameter 0) (color 0 0 0 0)
    (uuid fb4e7351-d265-4999-adf6-bc7596c21cf3)
  )
  (junction (at 80.01 90.17) (diameter 0) (color 0 0 0 0)
    (uuid fec2ae03-3539-4fc7-9da2-1b1336bf787c)
  )

  (wire (pts (xy 160.02 38.1) (xy 160.02 36.83))
    (stroke (width 0) (type default))
    (uuid 01657d30-6f8e-4bbd-a3dd-6a0742c69aca)
  )
  (wire (pts (xy 44.45 91.44) (xy 44.45 93.98))
    (stroke (width 0) (type default))
    (uuid 0667208e-872f-444a-9ed0-78a1b5f392d2)
  )
  (wire (pts (xy 187.96 68.58) (xy 187.96 73.66))
    (stroke (width 0) (type default))
    (uuid 0844b132-5386-469c-86ff-d527c8a00608)
  )
  (wire (pts (xy 167.64 63.5) (xy 167.64 64.77))
    (stroke (width 0) (type default))
    (uuid 0a83f85d-78ad-480a-a5ba-773caced8f09)
  )
  (wire (pts (xy 80.01 77.47) (xy 80.01 72.39))
    (stroke (width 0) (type default))
    (uuid 0d1c133a-5b0b-4fe0-b915-2f72b13b37e9)
  )
  (wire (pts (xy 95.25 46.99) (xy 102.87 46.99))
    (stroke (width 0) (type default))
    (uuid 0d32fbdb-2a37-4863-af10-fc85c1c6174f)
  )
  (wire (pts (xy 68.58 39.37) (xy 69.85 39.37))
    (stroke (width 0) (type default))
    (uuid 119c633c-175b-4b38-bbc1-1a076032c16e)
  )
  (wire (pts (xy 77.47 55.88) (xy 77.47 59.69))
    (stroke (width 0) (type default))
    (uuid 18b6dcb6-5ab3-481b-b998-33e8cf6d281f)
  )
  (wire (pts (xy 80.01 87.63) (xy 80.01 90.17))
    (stroke (width 0) (type default))
    (uuid 1d20c966-0439-42a1-b5e3-5e76b52f827f)
  )
  (wire (pts (xy 72.39 73.66) (xy 72.39 72.39))
    (stroke (width 0) (type default))
    (uuid 217a6ab0-8c75-4e09-8113-c7b7b906da43)
  )
  (wire (pts (xy 71.12 82.55) (xy 72.39 82.55))
    (stroke (width 0) (type default))
    (uuid 22fd57c4-481e-4417-b920-694451210da2)
  )
  (wire (pts (xy 187.96 54.61) (xy 187.96 52.07))
    (stroke (width 0) (type default))
    (uuid 248d15cd-dd0c-425d-94cb-b44ccf865457)
  )
  (wire (pts (xy 102.87 87.63) (xy 102.87 90.17))
    (stroke (width 0) (type default))
    (uuid 24d3ee68-60f0-4c8a-a72b-065f1026fd87)
  )
  (wire (pts (xy 77.47 46.99) (xy 77.47 48.26))
    (stroke (width 0) (type default))
    (uuid 25ca9482-069d-43de-b77e-6f2ad77fa017)
  )
  (wire (pts (xy 173.99 54.61) (xy 167.64 54.61))
    (stroke (width 0) (type default))
    (uuid 2d916084-6196-4479-adf2-d8e271fa0c32)
  )
  (wire (pts (xy 46.99 82.55) (xy 44.45 82.55))
    (stroke (width 0) (type default))
    (uuid 31e2d26e-842a-4694-a3ae-7642d792727c)
  )
  (wire (pts (xy 102.87 64.77) (xy 102.87 67.31))
    (stroke (width 0) (type default))
    (uuid 32f4eb0d-8b7c-4e0f-8b4a-904219172497)
  )
  (wire (pts (xy 59.69 59.69) (xy 59.69 52.07))
    (stroke (width 0) (type default))
    (uuid 3b450865-b2ef-4d25-9b34-4d42975b5e24)
  )
  (wire (pts (xy 149.86 46.99) (xy 151.13 46.99))
    (stroke (width 0) (type default))
    (uuid 42688fc6-3e24-4a56-9963-828da46dcdfb)
  )
  (wire (pts (xy 102.87 38.1) (xy 107.95 38.1))
    (stroke (width 0) (type default))
    (uuid 42b7a68a-3837-4773-af68-a35059da48c3)
  )
  (wire (pts (xy 102.87 76.2) (xy 102.87 74.93))
    (stroke (width 0) (type default))
    (uuid 47890384-6eaa-420c-b9ae-e68a6a7f17b5)
  )
  (wire (pts (xy 72.39 72.39) (xy 80.01 72.39))
    (stroke (width 0) (type default))
    (uuid 57881c8f-ea31-4450-bce6-89885e0a9bfd)
  )
  (wire (pts (xy 67.31 39.37) (xy 68.58 39.37))
    (stroke (width 0) (type default))
    (uuid 5b29962f-685a-409c-915c-9c4a92ed442a)
  )
  (wire (pts (xy 86.36 46.99) (xy 87.63 46.99))
    (stroke (width 0) (type default))
    (uuid 6024ea82-89e7-47fa-a1cd-0f37ee126f02)
  )
  (wire (pts (xy 144.78 73.66) (xy 149.86 73.66))
    (stroke (width 0) (type default))
    (uuid 62ab9051-fded-466c-9df1-9b40d76dc590)
  )
  (wire (pts (xy 80.01 90.17) (xy 80.01 93.98))
    (stroke (width 0) (type default))
    (uuid 663e5097-d637-4088-8d27-2d72ff835abc)
  )
  (wire (pts (xy 68.58 38.1) (xy 68.58 39.37))
    (stroke (width 0) (type default))
    (uuid 669e2f76-dce7-4b88-b383-d3587e6cc0cc)
  )
  (wire (pts (xy 50.8 46.99) (xy 52.07 46.99))
    (stroke (width 0) (type default))
    (uuid 6afdccaa-d9c7-4949-88e8-e04bfdac5efc)
  )
  (wire (pts (xy 68.58 29.21) (xy 68.58 26.67))
    (stroke (width 0) (type default))
    (uuid 6ceb10bf-4340-4309-8250-882c2b60a70e)
  )
  (wire (pts (xy 160.02 36.83) (xy 167.64 36.83))
    (stroke (width 0) (type default))
    (uuid 72729c20-0465-4f8c-be80-3c22bb337ef7)
  )
  (wire (pts (xy 102.87 90.17) (xy 114.3 90.17))
    (stroke (width 0) (type default))
    (uuid 75ac6246-6181-43e6-a7dd-6374ece7ec46)
  )
  (wire (pts (xy 44.45 82.55) (xy 34.29 82.55))
    (stroke (width 0) (type default))
    (uuid 7aad0cca-fb50-4041-9a10-5380cb0860ac)
  )
  (wire (pts (xy 78.74 46.99) (xy 77.47 46.99))
    (stroke (width 0) (type default))
    (uuid 7c3fa13a-5250-4394-8d82-80430597df04)
  )
  (wire (pts (xy 95.25 59.69) (xy 95.25 55.88))
    (stroke (width 0) (type default))
    (uuid 7da6dd22-6820-4812-8b65-ceb1440c016d)
  )
  (wire (pts (xy 44.45 101.6) (xy 44.45 102.87))
    (stroke (width 0) (type default))
    (uuid 7fd11519-eb9e-4413-8ca2-e43e38c699f6)
  )
  (wire (pts (xy 181.61 54.61) (xy 187.96 54.61))
    (stroke (width 0) (type default))
    (uuid 8634edb8-50db-43d2-95bb-5918d2cd24cc)
  )
  (wire (pts (xy 149.86 76.2) (xy 149.86 73.66))
    (stroke (width 0) (type default))
    (uuid 8d054a8d-7435-41ed-8832-6067aada259a)
  )
  (wire (pts (xy 59.69 41.91) (xy 59.69 39.37))
    (stroke (width 0) (type default))
    (uuid 8e247c2e-b63e-4a70-8c32-64933e91ced0)
  )
  (wire (pts (xy 77.47 44.45) (xy 77.47 46.99))
    (stroke (width 0) (type default))
    (uuid 946a171e-cd55-473d-bab9-8d2c7c34161c)
  )
  (wire (pts (xy 44.45 83.82) (xy 44.45 82.55))
    (stroke (width 0) (type default))
    (uuid 969d876f-dc87-40bf-9e96-03cbb9ea5e82)
  )
  (wire (pts (xy 80.01 72.39) (xy 82.55 72.39))
    (stroke (width 0) (type default))
    (uuid 99162744-5eac-427e-9957-877587056aee)
  )
  (wire (pts (xy 149.86 73.66) (xy 167.64 73.66))
    (stroke (width 0) (type default))
    (uuid 9924c304-97d1-4655-9ab8-854a335a84c2)
  )
  (wire (pts (xy 80.01 90.17) (xy 102.87 90.17))
    (stroke (width 0) (type default))
    (uuid a015a7d0-4b05-4d23-88d8-657e9d274d46)
  )
  (wire (pts (xy 87.63 48.26) (xy 87.63 46.99))
    (stroke (width 0) (type default))
    (uuid a072347a-1cac-4ead-8c61-cfe38fd40342)
  )
  (wire (pts (xy 34.29 46.99) (xy 43.18 46.99))
    (stroke (width 0) (type default))
    (uuid a1c91dae-d76b-43c9-9b51-3db65065cce8)
  )
  (wire (pts (xy 87.63 59.69) (xy 87.63 55.88))
    (stroke (width 0) (type default))
    (uuid a543a4a0-b8e2-45a4-be48-7207020a5b1f)
  )
  (wire (pts (xy 167.64 41.91) (xy 167.64 36.83))
    (stroke (width 0) (type default))
    (uuid a5fcd820-f4f0-487d-8e2f-6defe7618982)
  )
  (wire (pts (xy 160.02 45.72) (xy 160.02 46.99))
    (stroke (width 0) (type default))
    (uuid a6460cc6-b11c-4dff-a0ea-9de680e68ca8)
  )
  (wire (pts (xy 121.92 46.99) (xy 134.62 46.99))
    (stroke (width 0) (type default))
    (uuid afc1392c-4488-4251-8167-de520abba754)
  )
  (wire (pts (xy 62.23 82.55) (xy 63.5 82.55))
    (stroke (width 0) (type default))
    (uuid bc29a09d-ebbe-4bab-9edb-114e75ee17a4)
  )
  (wire (pts (xy 87.63 46.99) (xy 95.25 46.99))
    (stroke (width 0) (type default))
    (uuid bca69a58-3f8f-4ac5-9ef0-70bfa6c247ee)
  )
  (wire (pts (xy 167.64 52.07) (xy 167.64 54.61))
    (stroke (width 0) (type default))
    (uuid c14f4f41-991c-47f8-ba74-4a4e89170acf)
  )
  (wire (pts (xy 158.75 46.99) (xy 160.02 46.99))
    (stroke (width 0) (type default))
    (uuid c546008e-7661-419e-94b3-0bbb9fd14ec8)
  )
  (wire (pts (xy 68.58 30.48) (xy 68.58 29.21))
    (stroke (width 0) (type default))
    (uuid c66790a8-2c84-47da-b059-a728d9f51463)
  )
  (wire (pts (xy 149.86 83.82) (xy 149.86 86.36))
    (stroke (width 0) (type default))
    (uuid ca9607c0-16b8-4085-880e-b87c3f210fd1)
  )
  (wire (pts (xy 77.47 34.29) (xy 77.47 29.21))
    (stroke (width 0) (type default))
    (uuid cb4b7bcd-f8cd-4398-9baf-986854c6b2ae)
  )
  (wire (pts (xy 167.64 36.83) (xy 170.18 36.83))
    (stroke (width 0) (type default))
    (uuid ccd45da3-3d73-496d-8f2e-5edf69377f63)
  )
  (wire (pts (xy 77.47 29.21) (xy 68.58 29.21))
    (stroke (width 0) (type default))
    (uuid d2683b99-bb18-4d41-a0c5-df26e16e4210)
  )
  (wire (pts (xy 167.64 54.61) (xy 167.64 55.88))
    (stroke (width 0) (type default))
    (uuid d32a1d0f-6a8f-45b4-822f-8b613131fd8a)
  )
  (wire (pts (xy 72.39 81.28) (xy 72.39 82.55))
    (stroke (width 0) (type default))
    (uuid da151d0a-a1fa-4865-aa78-eb4b6082fbfd)
  )
  (wire (pts (xy 130.81 90.17) (xy 130.81 92.71))
    (stroke (width 0) (type default))
    (uuid da86bb28-f4c1-4b3e-9d38-f223f8e70076)
  )
  (wire (pts (xy 34.29 64.77) (xy 102.87 64.77))
    (stroke (width 0) (type default))
    (uuid e63748d3-3196-486f-8f95-bb4d9876653d)
  )
  (wire (pts (xy 167.64 73.66) (xy 187.96 73.66))
    (stroke (width 0) (type default))
    (uuid ef11623e-ea9c-4a76-a028-9fae209a45f2)
  )
  (wire (pts (xy 132.08 73.66) (xy 137.16 73.66))
    (stroke (width 0) (type default))
    (uuid f17daa22-500e-4b54-81a7-f5c3878a87d9)
  )
  (wire (pts (xy 102.87 38.1) (xy 102.87 46.99))
    (stroke (width 0) (type default))
    (uuid f368b66f-c8a4-4ccf-b925-3f03c13bf28f)
  )
  (wire (pts (xy 102.87 54.61) (xy 102.87 64.77))
    (stroke (width 0) (type default))
    (uuid f4f6e269-d484-4c43-84cc-450e042e2e24)
  )
  (wire (pts (xy 80.01 101.6) (xy 80.01 102.87))
    (stroke (width 0) (type default))
    (uuid f8df4375-570f-4eb0-868e-4f350bd24547)
  )
  (wire (pts (xy 95.25 48.26) (xy 95.25 46.99))
    (stroke (width 0) (type default))
    (uuid fa16f237-4e21-4b18-8c54-f7de4e62bbb6)
  )
  (wire (pts (xy 167.64 86.36) (xy 167.64 83.82))
    (stroke (width 0) (type default))
    (uuid fe578162-0e40-4028-9277-b80f8071e7b8)
  )
  (wire (pts (xy 167.64 73.66) (xy 167.64 76.2))
    (stroke (width 0) (type default))
    (uuid ff163833-80b9-4bc7-baa1-aa11870ad397)
  )

  (text "1/2W" (at 138.43 77.47 0)
    (effects (font (size 1.27 1.27)) (justify left bottom))
    (uuid 9b5f8ef7-fe95-4d33-810b-3aff18561610)
  )
  (text "5V1\n1W" (at 152.4 86.36 0)
    (effects (font (size 1.27 1.27)) (justify left bottom))
    (uuid ad2761d8-54cc-4206-88c6-d39cda456384)
  )
  (text "VDD" (at 47.5996 102.235 0)
    (effects (font (size 1.27 1.27)) (justify left bottom))
    (uuid eec347af-8fb3-4b2d-8e93-6e7176516f57)
  )

  (global_label "VDD_RAW" (shape passive) (at 82.55 72.39 0) (fields_autoplaced)
    (effects (font (size 1.27 1.27)) (justify left))
    (uuid 3a4d7b94-8b26-4555-b396-f2e88aea5db3)
    (property "Intersheetrefs" "${INTERSHEET_REFS}" (at 92.2553 72.39 0)
      (effects (font (size 1.27 1.27)) (justify left) hide)
    )
  )
  (global_label "VDD_RAW" (shape passive) (at 107.95 38.1 0) (fields_autoplaced)
    (effects (font (size 1.27 1.27)) (justify left))
    (uuid 41fc1c23-edd4-45a5-8036-7f62b013770f)
    (property "Intersheetrefs" "${INTERSHEET_REFS}" (at 117.6553 38.1 0)
      (effects (font (size 1.27 1.27)) (justify left) hide)
    )
  )
  (global_label "VDD_RAW" (shape passive) (at 170.18 36.83 0) (fields_autoplaced)
    (effects (font (size 1.27 1.27)) (justify left))
    (uuid 5968c877-7376-4e25-b8db-5e755d570d06)
    (property "Intersheetrefs" "${INTERSHEET_REFS}" (at 179.8853 36.83 0)
      (effects (font (size 1.27 1.27)) (justify left) hide)
    )
  )
  (global_label "VDD_RAW" (shape passive) (at 132.08 73.66 180) (fields_autoplaced)
    (effects (font (size 1.27 1.27)) (justify right))
    (uuid ec0137ed-9765-4dfb-9cee-4a1826ddb19d)
    (property "Intersheetrefs" "${INTERSHEET_REFS}" (at 122.3747 73.66 0)
      (effects (font (size 1.27 1.27)) (justify right) hide)
    )
  )

  (hierarchical_label "VDD_ON_VPP" (shape input) (at 121.92 46.99 180) (fields_autoplaced)
    (effects (font (size 1.27 1.27)) (justify right))
    (uuid 47c4da32-a886-4a7a-86ef-2f3db3797d7d)
  )
  (hierarchical_label "VDD_CTRL" (shape input) (at 34.29 82.55 180) (fields_autoplaced)
    (effects (font (size 1.27 1.27)) (justify right))
    (uuid 60a7dcc1-b459-4b69-be02-f48b66a815f0)
  )
  (hierarchical_label "VDD_FB" (shape output) (at 34.29 64.77 180) (fields_autoplaced)
    (effects (font (size 1.27 1.27)) (justify right))
    (uuid 7401f61b-dc36-4f5a-ba3e-b101a22bf1fc)
  )
  (hierarchical_label "VDD_PWM" (shape input) (at 34.29 46.99 180) (fields_autoplaced)
    (effects (font (size 1.27 1.27)) (justify right))
    (uuid fbca7d5b-4a19-4f46-9697-74b3068179aa)
  )

  (symbol (lib_id "Device:R") (at 46.99 46.99 270) (unit 1)
    (in_bom yes) (on_board yes) (dnp no)
    (uuid 00000000-0000-0000-0000-0000626ea7e2)
    (property "Reference" "R3" (at 46.99 41.7322 90)
      (effects (font (size 1.27 1.27)))
    )
    (property "Value" "1K" (at 46.99 44.0436 90)
      (effects (font (size 1.27 1.27)))
    )
    (property "Footprint" "Resistor_THT:R_Axial_DIN0207_L6.3mm_D2.5mm_P10.16mm_Horizontal" (at 46.99 45.212 90)
      (effects (font (size 1.27 1.27)) hide)
    )
    (property "Datasheet" "~" (at 46.99 46.99 0)
      (effects (font (size 1.27 1.27)) hide)
    )
    (pin "1" (uuid ed988633-a63c-42cc-8839-1cf9110079c6))
    (pin "2" (uuid 5ef46bc7-ce43-418c-9c82-8f5c48f8fc98))
    (instances
      (project "usbflashprog"
        (path "/62a1f3d4-027d-4ecf-a37a-6fcf4263e9d2/00000000-0000-0000-0000-0000626cc8f1"
          (reference "R3") (unit 1)
        )
      )
    )
  )

  (symbol (lib_id "Device:R") (at 102.87 71.12 0) (unit 1)
    (in_bom yes) (on_board yes) (dnp no)
    (uuid 00000000-0000-0000-0000-0000626ea7e8)
    (property "Reference" "R10" (at 104.648 69.9516 0)
      (effects (font (size 1.27 1.27)) (justify left))
    )
    (property "Value" "330R" (at 104.648 72.263 0)
      (effects (font (size 1.27 1.27)) (justify left))
    )
    (property "Footprint" "Resistor_THT:R_Axial_DIN0207_L6.3mm_D2.5mm_P10.16mm_Horizontal" (at 101.092 71.12 90)
      (effects (font (size 1.27 1.27)) hide)
    )
    (property "Datasheet" "~" (at 102.87 71.12 0)
      (effects (font (size 1.27 1.27)) hide)
    )
    (pin "1" (uuid 3c81aedc-1695-49db-9a83-a20936e7c5ff))
    (pin "2" (uuid b992e44a-204b-4254-98e0-e32c93f9d0b2))
    (instances
      (project "usbflashprog"
        (path "/62a1f3d4-027d-4ecf-a37a-6fcf4263e9d2/00000000-0000-0000-0000-0000626cc8f1"
          (reference "R10") (unit 1)
        )
      )
    )
  )

  (symbol (lib_id "Device:R") (at 102.87 50.8 0) (unit 1)
    (in_bom yes) (on_board yes) (dnp no)
    (uuid 00000000-0000-0000-0000-0000626ea7ee)
    (property "Reference" "R9" (at 104.648 49.6316 0)
      (effects (font (size 1.27 1.27)) (justify left))
    )
    (property "Value" "470R" (at 104.648 51.943 0)
      (effects (font (size 1.27 1.27)) (justify left))
    )
    (property "Footprint" "Resistor_THT:R_Axial_DIN0207_L6.3mm_D2.5mm_P10.16mm_Horizontal" (at 101.092 50.8 90)
      (effects (font (size 1.27 1.27)) hide)
    )
    (property "Datasheet" "~" (at 102.87 50.8 0)
      (effects (font (size 1.27 1.27)) hide)
    )
    (pin "1" (uuid 3b6b002f-253b-4fc1-8447-f6a2d0e3c479))
    (pin "2" (uuid b3e09d52-9ac2-4ae9-aedc-30b73b4c7980))
    (instances
      (project "usbflashprog"
        (path "/62a1f3d4-027d-4ecf-a37a-6fcf4263e9d2/00000000-0000-0000-0000-0000626cc8f1"
          (reference "R9") (unit 1)
        )
      )
    )
  )

  (symbol (lib_id "Device:C_Polarized") (at 87.63 52.07 0) (unit 1)
    (in_bom yes) (on_board yes) (dnp no)
    (uuid 00000000-0000-0000-0000-0000626ea7f4)
    (property "Reference" "C4" (at 88.9 54.61 0)
      (effects (font (size 1.27 1.27)) (justify left))
    )
    (property "Value" "470uF" (at 88.2904 56.5658 0)
      (effects (font (size 1.27 1.27)) (justify left))
    )
    (property "Footprint" "Capacitor_THT:CP_Radial_D8.0mm_P3.80mm" (at 88.5952 55.88 0)
      (effects (font (size 1.27 1.27)) hide)
    )
    (property "Datasheet" "~" (at 87.63 52.07 0)
      (effects (font (size 1.27 1.27)) hide)
    )
    (pin "1" (uuid d1f494ec-458d-4ec4-bd2a-3e0c05831a61))
    (pin "2" (uuid bfb5442f-d50a-4697-9dce-1a9ca1ad8a86))
    (instances
      (project "usbflashprog"
        (path "/62a1f3d4-027d-4ecf-a37a-6fcf4263e9d2/00000000-0000-0000-0000-0000626cc8f1"
          (reference "C4") (unit 1)
        )
      )
    )
  )

  (symbol (lib_id "Device:C") (at 95.25 52.07 0) (unit 1)
    (in_bom yes) (on_board yes) (dnp no)
    (uuid 00000000-0000-0000-0000-0000626ea7fa)
    (property "Reference" "C5" (at 96.52 54.61 0)
      (effects (font (size 1.27 1.27)) (justify left))
    )
    (property "Value" "100nF" (at 96.4692 56.642 0)
      (effects (font (size 1.27 1.27)) (justify left))
    )
    (property "Footprint" "Capacitor_THT:C_Disc_D6.0mm_W2.5mm_P5.00mm" (at 96.2152 55.88 0)
      (effects (font (size 1.27 1.27)) hide)
    )
    (property "Datasheet" "~" (at 95.25 52.07 0)
      (effects (font (size 1.27 1.27)) hide)
    )
    (pin "1" (uuid f6ed0bf2-a863-48ad-a1ea-7794e3d112c0))
    (pin "2" (uuid 619aafac-9b15-4e2f-9040-342eaea2de7e))
    (instances
      (project "usbflashprog"
        (path "/62a1f3d4-027d-4ecf-a37a-6fcf4263e9d2/00000000-0000-0000-0000-0000626cc8f1"
          (reference "C5") (unit 1)
        )
      )
    )
  )

  (symbol (lib_id "Diode:BAT46") (at 77.47 52.07 270) (unit 1)
    (in_bom yes) (on_board yes) (dnp no)
    (uuid 00000000-0000-0000-0000-0000626ea800)
    (property "Reference" "D7" (at 81.28 53.34 90)
      (effects (font (size 1.27 1.27)))
    )
    (property "Value" "BAT46" (at 83.1342 55.4482 90)
      (effects (font (size 1.27 1.27)))
    )
    (property "Footprint" "Diode_THT:D_DO-35_SOD27_P7.62mm_Horizontal" (at 73.025 52.07 0)
      (effects (font (size 1.27 1.27)) hide)
    )
    (property "Datasheet" "http://www.vishay.com/docs/85662/bat46.pdf" (at 77.47 52.07 0)
      (effects (font (size 1.27 1.27)) hide)
    )
    (pin "1" (uuid b6d864f3-c0ac-4864-93c8-b9976b6ddbb5))
    (pin "2" (uuid 94e96592-dd0b-4267-842e-82a65da33e29))
    (instances
      (project "usbflashprog"
        (path "/62a1f3d4-027d-4ecf-a37a-6fcf4263e9d2/00000000-0000-0000-0000-0000626cc8f1"
          (reference "D7") (unit 1)
        )
      )
    )
  )

  (symbol (lib_id "Device:L_Ferrite") (at 82.55 46.99 90) (unit 1)
    (in_bom yes) (on_board yes) (dnp no)
    (uuid 00000000-0000-0000-0000-0000626ea80c)
    (property "Reference" "L1" (at 91.44 43.18 90)
      (effects (font (size 1.27 1.27)) (justify left))
    )
    (property "Value" "100uH" (at 93.98 45.72 90)
      (effects (font (size 1.27 1.27)) (justify left))
    )
    (property "Footprint" "Inductor_THT:L_Toroid_Vertical_L13.0mm_W6.5mm_P5.60mm" (at 82.55 46.99 0)
      (effects (font (size 1.27 1.27)) hide)
    )
    (property "Datasheet" "~" (at 82.55 46.99 0)
      (effects (font (size 1.27 1.27)) hide)
    )
    (pin "1" (uuid 69e2d3a4-5160-4006-ab36-b09158ca7b42))
    (pin "2" (uuid 6ce5a5dc-8a06-402c-8e85-d4ae495399ce))
    (instances
      (project "usbflashprog"
        (path "/62a1f3d4-027d-4ecf-a37a-6fcf4263e9d2/00000000-0000-0000-0000-0000626cc8f1"
          (reference "L1") (unit 1)
        )
      )
    )
  )

  (symbol (lib_id "power:+9V") (at 68.58 26.67 0) (unit 1)
    (in_bom yes) (on_board yes) (dnp no)
    (uuid 00000000-0000-0000-0000-0000626ea812)
    (property "Reference" "#PWR019" (at 68.58 30.48 0)
      (effects (font (size 1.27 1.27)) hide)
    )
    (property "Value" "+9V" (at 68.961 22.2758 0)
      (effects (font (size 1.27 1.27)))
    )
    (property "Footprint" "" (at 68.58 26.67 0)
      (effects (font (size 1.27 1.27)) hide)
    )
    (property "Datasheet" "" (at 68.58 26.67 0)
      (effects (font (size 1.27 1.27)) hide)
    )
    (pin "1" (uuid cde5b47c-f26e-45aa-b448-bd4f5866f531))
    (instances
      (project "usbflashprog"
        (path "/62a1f3d4-027d-4ecf-a37a-6fcf4263e9d2/00000000-0000-0000-0000-0000626cc8f1"
          (reference "#PWR019") (unit 1)
        )
      )
    )
  )

  (symbol (lib_id "power:GND") (at 59.69 59.69 0) (unit 1)
    (in_bom yes) (on_board yes) (dnp no)
    (uuid 00000000-0000-0000-0000-0000626ea818)
    (property "Reference" "#PWR018" (at 59.69 66.04 0)
      (effects (font (size 1.27 1.27)) hide)
    )
    (property "Value" "GND" (at 59.817 64.0842 0)
      (effects (font (size 1.27 1.27)) hide)
    )
    (property "Footprint" "" (at 59.69 59.69 0)
      (effects (font (size 1.27 1.27)) hide)
    )
    (property "Datasheet" "" (at 59.69 59.69 0)
      (effects (font (size 1.27 1.27)) hide)
    )
    (pin "1" (uuid 0f437b85-20de-4910-a8e5-b22a9a00605b))
    (instances
      (project "usbflashprog"
        (path "/62a1f3d4-027d-4ecf-a37a-6fcf4263e9d2/00000000-0000-0000-0000-0000626cc8f1"
          (reference "#PWR018") (unit 1)
        )
      )
    )
  )

  (symbol (lib_id "power:GND") (at 87.63 59.69 0) (unit 1)
    (in_bom yes) (on_board yes) (dnp no)
    (uuid 00000000-0000-0000-0000-0000626ea81e)
    (property "Reference" "#PWR022" (at 87.63 66.04 0)
      (effects (font (size 1.27 1.27)) hide)
    )
    (property "Value" "GND" (at 87.757 64.0842 0)
      (effects (font (size 1.27 1.27)) hide)
    )
    (property "Footprint" "" (at 87.63 59.69 0)
      (effects (font (size 1.27 1.27)) hide)
    )
    (property "Datasheet" "" (at 87.63 59.69 0)
      (effects (font (size 1.27 1.27)) hide)
    )
    (pin "1" (uuid f2ad5c70-ce69-4a64-b478-9cccaf839084))
    (instances
      (project "usbflashprog"
        (path "/62a1f3d4-027d-4ecf-a37a-6fcf4263e9d2/00000000-0000-0000-0000-0000626cc8f1"
          (reference "#PWR022") (unit 1)
        )
      )
    )
  )

  (symbol (lib_id "power:GND") (at 95.25 59.69 0) (unit 1)
    (in_bom yes) (on_board yes) (dnp no)
    (uuid 00000000-0000-0000-0000-0000626ea824)
    (property "Reference" "#PWR023" (at 95.25 66.04 0)
      (effects (font (size 1.27 1.27)) hide)
    )
    (property "Value" "GND" (at 95.377 64.0842 0)
      (effects (font (size 1.27 1.27)) hide)
    )
    (property "Footprint" "" (at 95.25 59.69 0)
      (effects (font (size 1.27 1.27)) hide)
    )
    (property "Datasheet" "" (at 95.25 59.69 0)
      (effects (font (size 1.27 1.27)) hide)
    )
    (pin "1" (uuid 1409f7c6-6b60-45d5-a187-f39c105a2335))
    (instances
      (project "usbflashprog"
        (path "/62a1f3d4-027d-4ecf-a37a-6fcf4263e9d2/00000000-0000-0000-0000-0000626cc8f1"
          (reference "#PWR023") (unit 1)
        )
      )
    )
  )

  (symbol (lib_id "power:GND") (at 102.87 76.2 0) (unit 1)
    (in_bom yes) (on_board yes) (dnp no)
    (uuid 00000000-0000-0000-0000-0000626ea82a)
    (property "Reference" "#PWR024" (at 102.87 82.55 0)
      (effects (font (size 1.27 1.27)) hide)
    )
    (property "Value" "GND" (at 102.997 80.5942 0)
      (effects (font (size 1.27 1.27)) hide)
    )
    (property "Footprint" "" (at 102.87 76.2 0)
      (effects (font (size 1.27 1.27)) hide)
    )
    (property "Datasheet" "" (at 102.87 76.2 0)
      (effects (font (size 1.27 1.27)) hide)
    )
    (pin "1" (uuid 70735ab1-678d-4f2f-bb5d-bdc9edafe003))
    (instances
      (project "usbflashprog"
        (path "/62a1f3d4-027d-4ecf-a37a-6fcf4263e9d2/00000000-0000-0000-0000-0000626cc8f1"
          (reference "#PWR024") (unit 1)
        )
      )
    )
  )

  (symbol (lib_id "Device:LED") (at 44.45 97.79 90) (unit 1)
    (in_bom yes) (on_board yes) (dnp no)
    (uuid 00000000-0000-0000-0000-0000626ea854)
    (property "Reference" "D6" (at 47.4472 96.7994 90)
      (effects (font (size 1.27 1.27)) (justify right))
    )
    (property "Value" "RED" (at 47.4472 99.1108 90)
      (effects (font (size 1.27 1.27)) (justify right))
    )
    (property "Footprint" "LED_THT:LED_D3.0mm" (at 44.45 97.79 0)
      (effects (font (size 1.27 1.27)) hide)
    )
    (property "Datasheet" "~" (at 44.45 97.79 0)
      (effects (font (size 1.27 1.27)) hide)
    )
    (pin "1" (uuid 1f6e565d-bece-47e8-a989-380a563eda20))
    (pin "2" (uuid 9c8b6ab8-6da7-4405-b973-5aa884ad2799))
    (instances
      (project "usbflashprog"
        (path "/62a1f3d4-027d-4ecf-a37a-6fcf4263e9d2/00000000-0000-0000-0000-0000626cc8f1"
          (reference "D6") (unit 1)
        )
      )
    )
  )

  (symbol (lib_id "74xx:74LS06N") (at 54.61 82.55 0) (unit 2)
    (in_bom yes) (on_board yes) (dnp no)
    (uuid 00000000-0000-0000-0000-0000626ea860)
    (property "Reference" "U2" (at 54.61 74.4982 0)
      (effects (font (size 1.27 1.27)))
    )
    (property "Value" "74LS06N" (at 54.61 76.8096 0)
      (effects (font (size 1.27 1.27)))
    )
    (property "Footprint" "Package_DIP:DIP-14_W7.62mm" (at 54.61 82.55 0)
      (effects (font (size 1.27 1.27)) hide)
    )
    (property "Datasheet" "http://www.ti.com/lit/gpn/sn74LS06N" (at 54.61 82.55 0)
      (effects (font (size 1.27 1.27)) hide)
    )
    (pin "1" (uuid 28a2cccb-c5e0-45cc-a452-0336e0813126))
    (pin "2" (uuid 475da62c-4191-4a2f-9bbc-249deb6d8df7))
    (pin "3" (uuid de1889a7-a196-47f8-875c-1fed776e7e92))
    (pin "4" (uuid 45ac22ca-9e10-41a2-9138-841c03a39c0b))
    (pin "5" (uuid f7925461-00b9-45fa-8499-f4088f9215ce))
    (pin "6" (uuid da49333a-2ae3-46a7-85b7-29e867a658b0))
    (pin "8" (uuid 780076de-fb73-43f2-b5aa-1c95059ff25d))
    (pin "9" (uuid 77b08f8f-0764-4619-ae58-4700c5781fa2))
    (pin "10" (uuid 1b097a20-994c-479c-9cb5-f236aa61c8fa))
    (pin "11" (uuid 9273aad3-d4fd-4f46-88b0-3a63b54fdc41))
    (pin "12" (uuid cf646d51-a95b-4acb-92eb-03438484ca3f))
    (pin "13" (uuid f6fee84b-bfc5-4648-8e13-9d6d04247a23))
    (pin "14" (uuid 518a4131-64e9-4ba1-a442-4691a53e2b81))
    (pin "7" (uuid dac75ca8-9fd9-4f25-9f22-82af6f3fdad2))
    (instances
      (project "usbflashprog"
        (path "/62a1f3d4-027d-4ecf-a37a-6fcf4263e9d2/00000000-0000-0000-0000-0000626cc8f1"
          (reference "U2") (unit 2)
        )
      )
    )
  )

  (symbol (lib_id "Device:R") (at 67.31 82.55 270) (unit 1)
    (in_bom yes) (on_board yes) (dnp no)
    (uuid 00000000-0000-0000-0000-0000626ea866)
    (property "Reference" "R5" (at 67.31 77.2922 90)
      (effects (font (size 1.27 1.27)))
    )
    (property "Value" "2K2" (at 67.31 79.6036 90)
      (effects (font (size 1.27 1.27)))
    )
    (property "Footprint" "Resistor_THT:R_Axial_DIN0207_L6.3mm_D2.5mm_P10.16mm_Horizontal" (at 67.31 80.772 90)
      (effects (font (size 1.27 1.27)) hide)
    )
    (property "Datasheet" "~" (at 67.31 82.55 0)
      (effects (font (size 1.27 1.27)) hide)
    )
    (pin "1" (uuid 11bcc31a-cbf9-44f2-aea2-2286f05efd0f))
    (pin "2" (uuid f08268ed-a2ce-4276-917e-b77e72985c20))
    (instances
      (project "usbflashprog"
        (path "/62a1f3d4-027d-4ecf-a37a-6fcf4263e9d2/00000000-0000-0000-0000-0000626cc8f1"
          (reference "R5") (unit 1)
        )
      )
    )
  )

  (symbol (lib_id "Device:R") (at 44.45 87.63 0) (unit 1)
    (in_bom yes) (on_board yes) (dnp no)
    (uuid 00000000-0000-0000-0000-0000626ea86c)
    (property "Reference" "R2" (at 46.228 86.4616 0)
      (effects (font (size 1.27 1.27)) (justify left))
    )
    (property "Value" "100R" (at 46.228 88.773 0)
      (effects (font (size 1.27 1.27)) (justify left))
    )
    (property "Footprint" "Resistor_THT:R_Axial_DIN0207_L6.3mm_D2.5mm_P10.16mm_Horizontal" (at 42.672 87.63 90)
      (effects (font (size 1.27 1.27)) hide)
    )
    (property "Datasheet" "~" (at 44.45 87.63 0)
      (effects (font (size 1.27 1.27)) hide)
    )
    (pin "1" (uuid c00d20dd-e15c-4a4e-9c10-cdef5f9171f2))
    (pin "2" (uuid 7ee745ac-e97a-42ca-8c90-3fdf75c45926))
    (instances
      (project "usbflashprog"
        (path "/62a1f3d4-027d-4ecf-a37a-6fcf4263e9d2/00000000-0000-0000-0000-0000626cc8f1"
          (reference "R2") (unit 1)
        )
      )
    )
  )

  (symbol (lib_id "power:GND") (at 44.45 102.87 0) (unit 1)
    (in_bom yes) (on_board yes) (dnp no)
    (uuid 00000000-0000-0000-0000-0000626ea872)
    (property "Reference" "#PWR017" (at 44.45 109.22 0)
      (effects (font (size 1.27 1.27)) hide)
    )
    (property "Value" "GND" (at 44.577 107.2642 0)
      (effects (font (size 1.27 1.27)) hide)
    )
    (property "Footprint" "" (at 44.45 102.87 0)
      (effects (font (size 1.27 1.27)) hide)
    )
    (property "Datasheet" "" (at 44.45 102.87 0)
      (effects (font (size 1.27 1.27)) hide)
    )
    (pin "1" (uuid f37ea1bb-bc1c-4dfe-ba02-1201479ee63b))
    (instances
      (project "usbflashprog"
        (path "/62a1f3d4-027d-4ecf-a37a-6fcf4263e9d2/00000000-0000-0000-0000-0000626cc8f1"
          (reference "#PWR017") (unit 1)
        )
      )
    )
  )

  (symbol (lib_id "Device:R") (at 72.39 77.47 0) (unit 1)
    (in_bom yes) (on_board yes) (dnp no)
    (uuid 00000000-0000-0000-0000-0000626ea878)
    (property "Reference" "R7" (at 74.168 76.3016 0)
      (effects (font (size 1.27 1.27)) (justify left))
    )
    (property "Value" "2K2" (at 74.168 78.613 0)
      (effects (font (size 1.27 1.27)) (justify left))
    )
    (property "Footprint" "Resistor_THT:R_Axial_DIN0207_L6.3mm_D2.5mm_P10.16mm_Horizontal" (at 70.612 77.47 90)
      (effects (font (size 1.27 1.27)) hide)
    )
    (property "Datasheet" "~" (at 72.39 77.47 0)
      (effects (font (size 1.27 1.27)) hide)
    )
    (pin "1" (uuid 8b0c20ce-16ea-47f3-b58f-aae38baab7e5))
    (pin "2" (uuid 74ccf8b4-7602-4949-b1f2-747001f0eb37))
    (instances
      (project "usbflashprog"
        (path "/62a1f3d4-027d-4ecf-a37a-6fcf4263e9d2/00000000-0000-0000-0000-0000626cc8f1"
          (reference "R7") (unit 1)
        )
      )
    )
  )

  (symbol (lib_id "Device:R") (at 80.01 97.79 0) (unit 1)
    (in_bom yes) (on_board yes) (dnp no)
    (uuid 00000000-0000-0000-0000-0000626ea87f)
    (property "Reference" "R8" (at 81.788 96.6216 0)
      (effects (font (size 1.27 1.27)) (justify left))
    )
    (property "Value" "1K" (at 81.788 98.933 0)
      (effects (font (size 1.27 1.27)) (justify left))
    )
    (property "Footprint" "Resistor_THT:R_Axial_DIN0207_L6.3mm_D2.5mm_P10.16mm_Horizontal" (at 78.232 97.79 90)
      (effects (font (size 1.27 1.27)) hide)
    )
    (property "Datasheet" "~" (at 80.01 97.79 0)
      (effects (font (size 1.27 1.27)) hide)
    )
    (pin "1" (uuid 6b22089a-afe0-4ce0-9bcf-7b366dc0186b))
    (pin "2" (uuid c1c7b177-7382-4490-889d-e87a132e0410))
    (instances
      (project "usbflashprog"
        (path "/62a1f3d4-027d-4ecf-a37a-6fcf4263e9d2/00000000-0000-0000-0000-0000626cc8f1"
          (reference "R8") (unit 1)
        )
      )
    )
  )

  (symbol (lib_id "power:GND") (at 80.01 102.87 0) (unit 1)
    (in_bom yes) (on_board yes) (dnp no)
    (uuid 00000000-0000-0000-0000-0000626ea885)
    (property "Reference" "#PWR021" (at 80.01 109.22 0)
      (effects (font (size 1.27 1.27)) hide)
    )
    (property "Value" "GND" (at 80.137 107.2642 0)
      (effects (font (size 1.27 1.27)) hide)
    )
    (property "Footprint" "" (at 80.01 102.87 0)
      (effects (font (size 1.27 1.27)) hide)
    )
    (property "Datasheet" "" (at 80.01 102.87 0)
      (effects (font (size 1.27 1.27)) hide)
    )
    (pin "1" (uuid 777e8f0d-254b-4756-a38e-ff0caade2097))
    (instances
      (project "usbflashprog"
        (path "/62a1f3d4-027d-4ecf-a37a-6fcf4263e9d2/00000000-0000-0000-0000-0000626cc8f1"
          (reference "#PWR021") (unit 1)
        )
      )
    )
  )

  (symbol (lib_id "power:VDD") (at 102.87 87.63 0) (unit 1)
    (in_bom yes) (on_board yes) (dnp no)
    (uuid 00000000-0000-0000-0000-0000626ecef8)
    (property "Reference" "#PWR025" (at 102.87 91.44 0)
      (effects (font (size 1.27 1.27)) hide)
    )
    (property "Value" "VDD" (at 103.251 83.2358 0)
      (effects (font (size 1.27 1.27)))
    )
    (property "Footprint" "" (at 102.87 87.63 0)
      (effects (font (size 1.27 1.27)) hide)
    )
    (property "Datasheet" "" (at 102.87 87.63 0)
      (effects (font (size 1.27 1.27)) hide)
    )
    (pin "1" (uuid 871f3772-0348-4a68-a1f1-4f24be49095e))
    (instances
      (project "usbflashprog"
        (path "/62a1f3d4-027d-4ecf-a37a-6fcf4263e9d2/00000000-0000-0000-0000-0000626cc8f1"
          (reference "#PWR025") (unit 1)
        )
      )
    )
  )

  (symbol (lib_name "BC327_1") (lib_id "Transistor_BJT:BC327") (at 74.93 39.37 0) (mirror x) (unit 1)
    (in_bom yes) (on_board yes) (dnp no)
    (uuid 00000000-0000-0000-0000-0000626ee52f)
    (property "Reference" "Q2" (at 79.7814 38.2016 0)
      (effects (font (size 1.27 1.27)) (justify left))
    )
    (property "Value" "BC327" (at 79.7814 40.513 0)
      (effects (font (size 1.27 1.27)) (justify left))
    )
    (property "Footprint" "Package_TO_SOT_THT:TO-92_Inline_Wide" (at 80.01 37.465 0)
      (effects (font (size 1.27 1.27) italic) (justify left) hide)
    )
    (property "Datasheet" "http://www.onsemi.com/pub_link/Collateral/BC327-D.PDF" (at 74.93 39.37 0)
      (effects (font (size 1.27 1.27)) (justify left) hide)
    )
    (pin "1" (uuid 6605016e-24f7-40f2-bea6-02dbf64a2327))
    (pin "2" (uuid 7c271768-c132-49c9-a304-19d328356cbf))
    (pin "3" (uuid e229e71c-5b86-40c0-9def-7d4a7c7ab2bd))
    (instances
      (project "usbflashprog"
        (path "/62a1f3d4-027d-4ecf-a37a-6fcf4263e9d2/00000000-0000-0000-0000-0000626cc8f1"
          (reference "Q2") (unit 1)
        )
      )
    )
  )

  (symbol (lib_id "Transistor_BJT:BC547") (at 57.15 46.99 0) (unit 1)
    (in_bom yes) (on_board yes) (dnp no)
    (uuid 00000000-0000-0000-0000-0000626ef1cc)
    (property "Reference" "Q1" (at 62.0014 45.8216 0)
      (effects (font (size 1.27 1.27)) (justify left))
    )
    (property "Value" "BC547" (at 62.0014 48.133 0)
      (effects (font (size 1.27 1.27)) (justify left))
    )
    (property "Footprint" "Package_TO_SOT_THT:TO-92_Inline_Wide" (at 62.23 48.895 0)
      (effects (font (size 1.27 1.27) italic) (justify left) hide)
    )
    (property "Datasheet" "https://www.onsemi.com/pub/Collateral/BC550-D.pdf" (at 57.15 46.99 0)
      (effects (font (size 1.27 1.27)) (justify left) hide)
    )
    (pin "1" (uuid 5a9f0135-24ef-44d5-870d-eff6cc8a7b91))
    (pin "2" (uuid ef38756c-2675-48ee-9925-f5ec180d8eec))
    (pin "3" (uuid 4adc7cd5-9ef5-4686-965a-2670ba928d91))
    (instances
      (project "usbflashprog"
        (path "/62a1f3d4-027d-4ecf-a37a-6fcf4263e9d2/00000000-0000-0000-0000-0000626cc8f1"
          (reference "Q1") (unit 1)
        )
      )
    )
  )

  (symbol (lib_id "Device:R") (at 63.5 39.37 270) (unit 1)
    (in_bom yes) (on_board yes) (dnp no)
    (uuid 00000000-0000-0000-0000-0000626f5207)
    (property "Reference" "R4" (at 63.5 34.1122 90)
      (effects (font (size 1.27 1.27)))
    )
    (property "Value" "4K7" (at 63.5 36.4236 90)
      (effects (font (size 1.27 1.27)))
    )
    (property "Footprint" "Resistor_THT:R_Axial_DIN0207_L6.3mm_D2.5mm_P10.16mm_Horizontal" (at 63.5 37.592 90)
      (effects (font (size 1.27 1.27)) hide)
    )
    (property "Datasheet" "~" (at 63.5 39.37 0)
      (effects (font (size 1.27 1.27)) hide)
    )
    (pin "1" (uuid 8524aae3-c8a4-4b5d-b6e5-543871005e45))
    (pin "2" (uuid 8de5fb4e-19ec-4cbc-82bc-ec3dd9ca62a2))
    (instances
      (project "usbflashprog"
        (path "/62a1f3d4-027d-4ecf-a37a-6fcf4263e9d2/00000000-0000-0000-0000-0000626cc8f1"
          (reference "R4") (unit 1)
        )
      )
    )
  )

  (symbol (lib_id "Device:R") (at 68.58 34.29 0) (unit 1)
    (in_bom yes) (on_board yes) (dnp no)
    (uuid 00000000-0000-0000-0000-0000626f5e39)
    (property "Reference" "R6" (at 70.358 33.1216 0)
      (effects (font (size 1.27 1.27)) (justify left))
    )
    (property "Value" "2K2" (at 70.358 35.433 0)
      (effects (font (size 1.27 1.27)) (justify left))
    )
    (property "Footprint" "Resistor_THT:R_Axial_DIN0207_L6.3mm_D2.5mm_P10.16mm_Horizontal" (at 66.802 34.29 90)
      (effects (font (size 1.27 1.27)) hide)
    )
    (property "Datasheet" "~" (at 68.58 34.29 0)
      (effects (font (size 1.27 1.27)) hide)
    )
    (pin "1" (uuid c101c874-7673-45ac-9f49-3e0458d7d642))
    (pin "2" (uuid 45ce60fd-5958-4725-85a6-2d4aff228ab0))
    (instances
      (project "usbflashprog"
        (path "/62a1f3d4-027d-4ecf-a37a-6fcf4263e9d2/00000000-0000-0000-0000-0000626cc8f1"
          (reference "R6") (unit 1)
        )
      )
    )
  )

  (symbol (lib_id "power:GND") (at 77.47 59.69 0) (unit 1)
    (in_bom yes) (on_board yes) (dnp no)
    (uuid 00000000-0000-0000-0000-0000626f7a4b)
    (property "Reference" "#PWR020" (at 77.47 66.04 0)
      (effects (font (size 1.27 1.27)) hide)
    )
    (property "Value" "GND" (at 77.597 64.0842 0)
      (effects (font (size 1.27 1.27)) hide)
    )
    (property "Footprint" "" (at 77.47 59.69 0)
      (effects (font (size 1.27 1.27)) hide)
    )
    (property "Datasheet" "" (at 77.47 59.69 0)
      (effects (font (size 1.27 1.27)) hide)
    )
    (pin "1" (uuid 561198e8-2e95-49f6-a1d7-8cd8a7e0ce83))
    (instances
      (project "usbflashprog"
        (path "/62a1f3d4-027d-4ecf-a37a-6fcf4263e9d2/00000000-0000-0000-0000-0000626cc8f1"
          (reference "#PWR020") (unit 1)
        )
      )
    )
  )

  (symbol (lib_id "74xx:74LS06N") (at 142.24 46.99 0) (unit 3)
    (in_bom yes) (on_board yes) (dnp no)
    (uuid 00000000-0000-0000-0000-00006270be54)
    (property "Reference" "U2" (at 142.24 38.9382 0)
      (effects (font (size 1.27 1.27)))
    )
    (property "Value" "74LS06N" (at 142.24 41.2496 0)
      (effects (font (size 1.27 1.27)))
    )
    (property "Footprint" "Package_DIP:DIP-14_W7.62mm" (at 142.24 46.99 0)
      (effects (font (size 1.27 1.27)) hide)
    )
    (property "Datasheet" "http://www.ti.com/lit/gpn/sn74LS06N" (at 142.24 46.99 0)
      (effects (font (size 1.27 1.27)) hide)
    )
    (pin "1" (uuid ba0a6746-a0cb-4d84-a93c-280700fe503d))
    (pin "2" (uuid 0106ccf0-8034-415a-8047-b288cb28580b))
    (pin "3" (uuid 7e03d2ab-f849-4512-9569-879b25ae0e0c))
    (pin "4" (uuid e93a39c0-ae2f-4d69-82ed-37fb069ff7a5))
    (pin "5" (uuid 38dab99d-2310-456e-b2a2-704a7e80af06))
    (pin "6" (uuid a488f199-f1cd-4501-9f56-93be4573ad0d))
    (pin "8" (uuid cdf16225-865b-428c-89bd-8853cabfea19))
    (pin "9" (uuid af865e07-b961-449a-8717-ceb1273ebf79))
    (pin "10" (uuid fe1771f5-b72c-4bc4-add4-a2ba0d9e31fd))
    (pin "11" (uuid 73ec9bbc-dc9a-43b6-8948-b32c01d65371))
    (pin "12" (uuid b31efc5a-7b21-4ce8-b439-1c9342fcef4e))
    (pin "13" (uuid 3ff9be75-0570-418f-a5fc-6ed51d4eae5c))
    (pin "14" (uuid 36f0c0d0-5fbc-41c5-b480-ee52e9c49a15))
    (pin "7" (uuid 9cf43076-18a1-462b-9c97-88acb00965fa))
    (instances
      (project "usbflashprog"
        (path "/62a1f3d4-027d-4ecf-a37a-6fcf4263e9d2/00000000-0000-0000-0000-0000626cc8f1"
          (reference "U2") (unit 3)
        )
      )
    )
  )

  (symbol (lib_id "Device:R") (at 154.94 46.99 270) (unit 1)
    (in_bom yes) (on_board yes) (dnp no)
    (uuid 00000000-0000-0000-0000-00006270c898)
    (property "Reference" "R12" (at 154.94 41.7322 90)
      (effects (font (size 1.27 1.27)))
    )
    (property "Value" "2K2" (at 154.94 44.0436 90)
      (effects (font (size 1.27 1.27)))
    )
    (property "Footprint" "Resistor_THT:R_Axial_DIN0207_L6.3mm_D2.5mm_P10.16mm_Horizontal" (at 154.94 45.212 90)
      (effects (font (size 1.27 1.27)) hide)
    )
    (property "Datasheet" "~" (at 154.94 46.99 0)
      (effects (font (size 1.27 1.27)) hide)
    )
    (pin "1" (uuid 55c8db3d-9a86-48bc-8cbe-24685eb3f3c4))
    (pin "2" (uuid 6c89c753-dc49-4466-a4fe-1b5b1a2b9ad3))
    (instances
      (project "usbflashprog"
        (path "/62a1f3d4-027d-4ecf-a37a-6fcf4263e9d2/00000000-0000-0000-0000-0000626cc8f1"
          (reference "R12") (unit 1)
        )
      )
    )
  )

  (symbol (lib_id "Transistor_BJT:BC327") (at 165.1 46.99 0) (mirror x) (unit 1)
    (in_bom yes) (on_board yes) (dnp no)
    (uuid 00000000-0000-0000-0000-00006270cbbc)
    (property "Reference" "Q4" (at 169.9514 45.8216 0)
      (effects (font (size 1.27 1.27)) (justify left))
    )
    (property "Value" "BC327" (at 169.9514 48.133 0)
      (effects (font (size 1.27 1.27)) (justify left))
    )
    (property "Footprint" "Package_TO_SOT_THT:TO-92_Inline_Wide" (at 170.18 45.085 0)
      (effects (font (size 1.27 1.27) italic) (justify left) hide)
    )
    (property "Datasheet" "http://www.onsemi.com/pub_link/Collateral/BC327-D.PDF" (at 165.1 46.99 0)
      (effects (font (size 1.27 1.27)) (justify left) hide)
    )
    (pin "1" (uuid 2ce2c268-3f51-4fa4-a6f6-31c23efcab1d))
    (pin "2" (uuid 1ee3bd74-115c-4b67-835e-4185611ed923))
    (pin "3" (uuid 18695fe2-0a8f-4e94-a81c-d1e12bdcda31))
    (instances
      (project "usbflashprog"
        (path "/62a1f3d4-027d-4ecf-a37a-6fcf4263e9d2/00000000-0000-0000-0000-0000626cc8f1"
          (reference "Q4") (unit 1)
        )
      )
    )
  )

  (symbol (lib_id "Device:R") (at 160.02 41.91 0) (unit 1)
    (in_bom yes) (on_board yes) (dnp no)
    (uuid 00000000-0000-0000-0000-00006270d13b)
    (property "Reference" "R13" (at 161.798 40.7416 0)
      (effects (font (size 1.27 1.27)) (justify left))
    )
    (property "Value" "2K2" (at 161.798 43.053 0)
      (effects (font (size 1.27 1.27)) (justify left))
    )
    (property "Footprint" "Resistor_THT:R_Axial_DIN0207_L6.3mm_D2.5mm_P10.16mm_Horizontal" (at 158.242 41.91 90)
      (effects (font (size 1.27 1.27)) hide)
    )
    (property "Datasheet" "~" (at 160.02 41.91 0)
      (effects (font (size 1.27 1.27)) hide)
    )
    (pin "1" (uuid 2d4a9e69-a1e1-47f2-8093-1a2cef872991))
    (pin "2" (uuid 0b28c267-3cba-4535-98d8-2c374ba22d8c))
    (instances
      (project "usbflashprog"
        (path "/62a1f3d4-027d-4ecf-a37a-6fcf4263e9d2/00000000-0000-0000-0000-0000626cc8f1"
          (reference "R13") (unit 1)
        )
      )
    )
  )

  (symbol (lib_id "Device:R") (at 167.64 59.69 0) (unit 1)
    (in_bom yes) (on_board yes) (dnp no)
    (uuid 00000000-0000-0000-0000-00006270d597)
    (property "Reference" "R14" (at 169.418 58.5216 0)
      (effects (font (size 1.27 1.27)) (justify left))
    )
    (property "Value" "10K" (at 169.418 60.833 0)
      (effects (font (size 1.27 1.27)) (justify left))
    )
    (property "Footprint" "Resistor_THT:R_Axial_DIN0207_L6.3mm_D2.5mm_P10.16mm_Horizontal" (at 165.862 59.69 90)
      (effects (font (size 1.27 1.27)) hide)
    )
    (property "Datasheet" "~" (at 167.64 59.69 0)
      (effects (font (size 1.27 1.27)) hide)
    )
    (pin "1" (uuid 669a63b7-a468-41ae-99e9-ddffd0e2e578))
    (pin "2" (uuid 98ac51a5-d5c7-407d-adb6-8cf0284a45ac))
    (instances
      (project "usbflashprog"
        (path "/62a1f3d4-027d-4ecf-a37a-6fcf4263e9d2/00000000-0000-0000-0000-0000626cc8f1"
          (reference "R14") (unit 1)
        )
      )
    )
  )

  (symbol (lib_id "power:GND") (at 167.64 64.77 0) (unit 1)
    (in_bom yes) (on_board yes) (dnp no)
    (uuid 00000000-0000-0000-0000-00006270da28)
    (property "Reference" "#PWR027" (at 167.64 71.12 0)
      (effects (font (size 1.27 1.27)) hide)
    )
    (property "Value" "GND" (at 167.767 69.1642 0)
      (effects (font (size 1.27 1.27)) hide)
    )
    (property "Footprint" "" (at 167.64 64.77 0)
      (effects (font (size 1.27 1.27)) hide)
    )
    (property "Datasheet" "" (at 167.64 64.77 0)
      (effects (font (size 1.27 1.27)) hide)
    )
    (pin "1" (uuid abe8c90b-cc4d-4a9a-b3f9-fef56ef88715))
    (instances
      (project "usbflashprog"
        (path "/62a1f3d4-027d-4ecf-a37a-6fcf4263e9d2/00000000-0000-0000-0000-0000626cc8f1"
          (reference "#PWR027") (unit 1)
        )
      )
    )
  )

  (symbol (lib_id "power:VPP") (at 187.96 52.07 0) (unit 1)
    (in_bom yes) (on_board yes) (dnp no)
    (uuid 00000000-0000-0000-0000-00006270e1af)
    (property "Reference" "#PWR029" (at 187.96 55.88 0)
      (effects (font (size 1.27 1.27)) hide)
    )
    (property "Value" "VPP" (at 188.341 47.6758 0)
      (effects (font (size 1.27 1.27)))
    )
    (property "Footprint" "" (at 187.96 52.07 0)
      (effects (font (size 1.27 1.27)) hide)
    )
    (property "Datasheet" "" (at 187.96 52.07 0)
      (effects (font (size 1.27 1.27)) hide)
    )
    (pin "1" (uuid 117e58ed-2557-436d-84bb-31e62db96907))
    (instances
      (project "usbflashprog"
        (path "/62a1f3d4-027d-4ecf-a37a-6fcf4263e9d2/00000000-0000-0000-0000-0000626cc8f1"
          (reference "#PWR029") (unit 1)
        )
      )
    )
  )

  (symbol (lib_id "Diode:1N4148") (at 177.8 54.61 180) (unit 1)
    (in_bom yes) (on_board yes) (dnp no)
    (uuid 00000000-0000-0000-0000-00006271992c)
    (property "Reference" "D9" (at 177.8 57.15 0)
      (effects (font (size 1.27 1.27)))
    )
    (property "Value" "1N4148" (at 179.07 59.69 0)
      (effects (font (size 1.27 1.27)))
    )
    (property "Footprint" "Diode_THT:D_DO-35_SOD27_P7.62mm_Horizontal" (at 177.8 50.165 0)
      (effects (font (size 1.27 1.27)) hide)
    )
    (property "Datasheet" "https://assets.nexperia.com/documents/data-sheet/1N4148_1N4448.pdf" (at 177.8 54.61 0)
      (effects (font (size 1.27 1.27)) hide)
    )
    (pin "1" (uuid dfbac84b-e2ad-4e34-b1b9-58acf4d8ac2b))
    (pin "2" (uuid 59512a19-55c5-4ad2-ac1d-d7d37638f09d))
    (instances
      (project "usbflashprog"
        (path "/62a1f3d4-027d-4ecf-a37a-6fcf4263e9d2/00000000-0000-0000-0000-0000626cc8f1"
          (reference "D9") (unit 1)
        )
      )
    )
  )

  (symbol (lib_id "Device:R") (at 140.97 73.66 270) (unit 1)
    (in_bom yes) (on_board yes) (dnp no)
    (uuid 00000000-0000-0000-0000-0000627bfc58)
    (property "Reference" "R11" (at 140.97 68.4022 90)
      (effects (font (size 1.27 1.27)))
    )
    (property "Value" "100R" (at 140.97 70.7136 90)
      (effects (font (size 1.27 1.27)))
    )
    (property "Footprint" "Resistor_THT:R_Axial_DIN0207_L6.3mm_D2.5mm_P10.16mm_Horizontal" (at 140.97 71.882 90)
      (effects (font (size 1.27 1.27)) hide)
    )
    (property "Datasheet" "~" (at 140.97 73.66 0)
      (effects (font (size 1.27 1.27)) hide)
    )
    (pin "1" (uuid d0f9e424-de08-45a2-abfe-5d113854d085))
    (pin "2" (uuid 6dbff653-7b59-4368-8eba-129b8031a6ef))
    (instances
      (project "usbflashprog"
        (path "/62a1f3d4-027d-4ecf-a37a-6fcf4263e9d2/00000000-0000-0000-0000-0000626cc8f1"
          (reference "R11") (unit 1)
        )
      )
    )
  )

  (symbol (lib_id "Device:C_Polarized") (at 167.64 80.01 0) (unit 1)
    (in_bom yes) (on_board yes) (dnp no)
    (uuid 00000000-0000-0000-0000-0000627c025d)
    (property "Reference" "C6" (at 168.91 82.55 0)
      (effects (font (size 1.27 1.27)) (justify left))
    )
    (property "Value" "22uF" (at 168.3004 84.5058 0)
      (effects (font (size 1.27 1.27)) (justify left))
    )
    (property "Footprint" "Capacitor_THT:CP_Radial_D5.0mm_P2.50mm" (at 168.6052 83.82 0)
      (effects (font (size 1.27 1.27)) hide)
    )
    (property "Datasheet" "~" (at 167.64 80.01 0)
      (effects (font (size 1.27 1.27)) hide)
    )
    (pin "1" (uuid 1f043f1b-ad3f-41f5-8a13-48b62a3b7393))
    (pin "2" (uuid c1db03d7-2b5c-49e4-b0c2-2e0d0e17dcf2))
    (instances
      (project "usbflashprog"
        (path "/62a1f3d4-027d-4ecf-a37a-6fcf4263e9d2/00000000-0000-0000-0000-0000626cc8f1"
          (reference "C6") (unit 1)
        )
      )
    )
  )

  (symbol (lib_id "power:GND") (at 167.64 86.36 0) (unit 1)
    (in_bom yes) (on_board yes) (dnp no)
    (uuid 00000000-0000-0000-0000-0000627c0998)
    (property "Reference" "#PWR028" (at 167.64 92.71 0)
      (effects (font (size 1.27 1.27)) hide)
    )
    (property "Value" "GND" (at 167.767 90.7542 0)
      (effects (font (size 1.27 1.27)) hide)
    )
    (property "Footprint" "" (at 167.64 86.36 0)
      (effects (font (size 1.27 1.27)) hide)
    )
    (property "Datasheet" "" (at 167.64 86.36 0)
      (effects (font (size 1.27 1.27)) hide)
    )
    (pin "1" (uuid 031d52f3-b212-4fa1-b3cb-246aa6743308))
    (instances
      (project "usbflashprog"
        (path "/62a1f3d4-027d-4ecf-a37a-6fcf4263e9d2/00000000-0000-0000-0000-0000626cc8f1"
          (reference "#PWR028") (unit 1)
        )
      )
    )
  )

  (symbol (lib_id "Diode:1N47xxA") (at 149.86 80.01 270) (unit 1)
    (in_bom yes) (on_board yes) (dnp no)
    (uuid 00000000-0000-0000-0000-0000627c1989)
    (property "Reference" "D8" (at 151.892 78.8416 90)
      (effects (font (size 1.27 1.27)) (justify left))
    )
    (property "Value" "1N4733A" (at 151.892 81.153 90)
      (effects (font (size 1.27 1.27)) (justify left))
    )
    (property "Footprint" "Diode_THT:D_DO-41_SOD81_P10.16mm_Horizontal" (at 145.415 80.01 0)
      (effects (font (size 1.27 1.27)) hide)
    )
    (property "Datasheet" "https://www.vishay.com/docs/85816/1n4728a.pdf" (at 149.86 80.01 0)
      (effects (font (size 1.27 1.27)) hide)
    )
    (pin "1" (uuid 14ab2147-5a33-4baa-ab37-2237115549fb))
    (pin "2" (uuid 59dab289-2474-456c-b66b-10dae01c13e5))
    (instances
      (project "usbflashprog"
        (path "/62a1f3d4-027d-4ecf-a37a-6fcf4263e9d2/00000000-0000-0000-0000-0000626cc8f1"
          (reference "D8") (unit 1)
        )
      )
    )
  )

  (symbol (lib_id "power:GND") (at 149.86 86.36 0) (unit 1)
    (in_bom yes) (on_board yes) (dnp no)
    (uuid 00000000-0000-0000-0000-0000627c3db8)
    (property "Reference" "#PWR026" (at 149.86 92.71 0)
      (effects (font (size 1.27 1.27)) hide)
    )
    (property "Value" "GND" (at 149.987 90.7542 0)
      (effects (font (size 1.27 1.27)) hide)
    )
    (property "Footprint" "" (at 149.86 86.36 0)
      (effects (font (size 1.27 1.27)) hide)
    )
    (property "Datasheet" "" (at 149.86 86.36 0)
      (effects (font (size 1.27 1.27)) hide)
    )
    (pin "1" (uuid 9b9cda37-3393-40e4-b7be-cdfc3a0cb753))
    (instances
      (project "usbflashprog"
        (path "/62a1f3d4-027d-4ecf-a37a-6fcf4263e9d2/00000000-0000-0000-0000-0000626cc8f1"
          (reference "#PWR026") (unit 1)
        )
      )
    )
  )

  (symbol (lib_id "power:VCC") (at 187.96 68.58 0) (unit 1)
    (in_bom yes) (on_board yes) (dnp no)
    (uuid 00000000-0000-0000-0000-0000627cba0d)
    (property "Reference" "#PWR030" (at 187.96 72.39 0)
      (effects (font (size 1.27 1.27)) hide)
    )
    (property "Value" "VCC" (at 188.341 64.1858 0)
      (effects (font (size 1.27 1.27)))
    )
    (property "Footprint" "" (at 187.96 68.58 0)
      (effects (font (size 1.27 1.27)) hide)
    )
    (property "Datasheet" "" (at 187.96 68.58 0)
      (effects (font (size 1.27 1.27)) hide)
    )
    (pin "1" (uuid 5f144399-697d-4d8d-a1ab-24551c80ac75))
    (instances
      (project "usbflashprog"
        (path "/62a1f3d4-027d-4ecf-a37a-6fcf4263e9d2/00000000-0000-0000-0000-0000626cc8f1"
          (reference "#PWR030") (unit 1)
        )
      )
    )
  )

  (symbol (lib_name "BC327_2") (lib_id "Transistor_BJT:BC327") (at 77.47 82.55 0) (mirror x) (unit 1)
    (in_bom yes) (on_board yes) (dnp no)
    (uuid 0c611d81-1e72-4897-8308-229629ef04c0)
    (property "Reference" "Q3" (at 82.3214 81.3816 0)
      (effects (font (size 1.27 1.27)) (justify left))
    )
    (property "Value" "BC327" (at 82.3214 83.693 0)
      (effects (font (size 1.27 1.27)) (justify left))
    )
    (property "Footprint" "Package_TO_SOT_THT:TO-92_Inline_Wide" (at 82.55 80.645 0)
      (effects (font (size 1.27 1.27) italic) (justify left) hide)
    )
    (property "Datasheet" "http://www.onsemi.com/pub_link/Collateral/BC327-D.PDF" (at 77.47 82.55 0)
      (effects (font (size 1.27 1.27)) (justify left) hide)
    )
    (pin "1" (uuid e83e641e-9957-4679-bb9b-782253ee04bb))
    (pin "2" (uuid 058780fc-6a44-492f-a3f0-3c96060b36a6))
    (pin "3" (uuid 4e407804-f6ee-4b86-99d2-1b30f4a2d3b2))
    (instances
      (project "usbflashprog"
        (path "/62a1f3d4-027d-4ecf-a37a-6fcf4263e9d2/00000000-0000-0000-0000-0000626cc8f1"
          (reference "Q3") (unit 1)
        )
      )
    )
  )

  (symbol (lib_id "Connector:TestPoint") (at 114.3 90.17 0) (unit 1)
    (in_bom yes) (on_board yes) (dnp no) (fields_autoplaced)
    (uuid 9e5c2ba6-2b2b-4264-aa55-d024c8f9da4e)
    (property "Reference" "TP1" (at 116.84 85.5979 0)
      (effects (font (size 1.27 1.27)) (justify left))
    )
    (property "Value" "VDD" (at 116.84 88.1379 0)
      (effects (font (size 1.27 1.27)) (justify left))
    )
    (property "Footprint" "TestPoint:TestPoint_THTPad_2.5x2.5mm_Drill1.2mm" (at 119.38 90.17 0)
      (effects (font (size 1.27 1.27)) hide)
    )
    (property "Datasheet" "~" (at 119.38 90.17 0)
      (effects (font (size 1.27 1.27)) hide)
    )
    (pin "1" (uuid cc8c0be4-6cd7-4919-9b04-08bb9bec2108))
    (instances
      (project "usbflashprog"
        (path "/62a1f3d4-027d-4ecf-a37a-6fcf4263e9d2/00000000-0000-0000-0000-0000626cc8f1"
          (reference "TP1") (unit 1)
        )
      )
    )
  )

  (symbol (lib_id "Connector:TestPoint") (at 130.81 90.17 0) (unit 1)
    (in_bom yes) (on_board yes) (dnp no) (fields_autoplaced)
    (uuid e839852a-3788-44f7-b5f7-ea5c760b2da4)
    (property "Reference" "TP2" (at 133.35 85.5979 0)
      (effects (font (size 1.27 1.27)) (justify left))
    )
    (property "Value" "GND" (at 133.35 88.1379 0)
      (effects (font (size 1.27 1.27)) (justify left))
    )
    (property "Footprint" "TestPoint:TestPoint_THTPad_2.5x2.5mm_Drill1.2mm" (at 135.89 90.17 0)
      (effects (font (size 1.27 1.27)) hide)
    )
    (property "Datasheet" "~" (at 135.89 90.17 0)
      (effects (font (size 1.27 1.27)) hide)
    )
    (pin "1" (uuid 8ab7a1a7-5692-493e-ae72-ecde7071464a))
    (instances
      (project "usbflashprog"
        (path "/62a1f3d4-027d-4ecf-a37a-6fcf4263e9d2/00000000-0000-0000-0000-0000626cc8f1"
          (reference "TP2") (unit 1)
        )
      )
    )
  )

  (symbol (lib_id "power:GND") (at 130.81 92.71 0) (unit 1)
    (in_bom yes) (on_board yes) (dnp no)
    (uuid fd4fd6ac-9dcc-40ff-8ac3-ff49297c34dc)
    (property "Reference" "#PWR080" (at 130.81 99.06 0)
      (effects (font (size 1.27 1.27)) hide)
    )
    (property "Value" "GND" (at 130.937 97.1042 0)
      (effects (font (size 1.27 1.27)) hide)
    )
    (property "Footprint" "" (at 130.81 92.71 0)
      (effects (font (size 1.27 1.27)) hide)
    )
    (property "Datasheet" "" (at 130.81 92.71 0)
      (effects (font (size 1.27 1.27)) hide)
    )
    (pin "1" (uuid d8e7c923-d8ef-4b57-a75f-fc4f910cb572))
    (instances
      (project "usbflashprog"
        (path "/62a1f3d4-027d-4ecf-a37a-6fcf4263e9d2/00000000-0000-0000-0000-0000626cc8f1"
          (reference "#PWR080") (unit 1)
        )
      )
    )
  )
)
