(kicad_sch (version 20230121) (generator eeschema)

  (uuid 6bfe5804-2ef9-4c65-b2a7-f01e4014370a)

  (paper "A4")

  (title_block
    (title "FAST OPTO CARD")
    (date "Thursday, June 08, 2017")
    (rev "X2")
  )

  (lib_symbols
    (symbol "OptoFast-2-rescue:4N26" (pin_names (offset 1.016)) (in_bom yes) (on_board yes)
      (property "Reference" "U" (at -5.08 5.08 0)
        (effects (font (size 1.27 1.27)) (justify left))
      )
      (property "Value" "4N26" (at 0 5.08 0)
        (effects (font (size 1.27 1.27)) (justify left))
      )
      (property "Footprint" "DIP-6" (at -5.08 -5.08 0)
        (effects (font (size 1.27 1.27) italic) (justify left))
      )
      (property "Datasheet" "" (at 0 0 0)
        (effects (font (size 1.27 1.27)) (justify left))
      )
      (symbol "4N26_0_1"
        (rectangle (start -5.08 3.81) (end 5.08 -3.81)
          (stroke (width 0.254) (type default))
          (fill (type background))
        )
        (polyline
          (pts
            (xy -3.81 -0.635)
            (xy -2.54 -0.635)
          )
          (stroke (width 0.254) (type default))
          (fill (type none))
        )
        (polyline
          (pts
            (xy 2.667 -1.397)
            (xy 3.81 -2.54)
          )
          (stroke (width 0) (type default))
          (fill (type none))
        )
        (polyline
          (pts
            (xy 2.667 -1.143)
            (xy 3.81 0)
          )
          (stroke (width 0) (type default))
          (fill (type none))
        )
        (polyline
          (pts
            (xy 3.81 -2.54)
            (xy 5.08 -2.54)
          )
          (stroke (width 0) (type default))
          (fill (type none))
        )
        (polyline
          (pts
            (xy 3.81 0)
            (xy 5.08 0)
          )
          (stroke (width 0) (type default))
          (fill (type none))
        )
        (polyline
          (pts
            (xy 2.667 -0.254)
            (xy 2.667 -2.286)
            (xy 2.667 -2.286)
          )
          (stroke (width 0.3556) (type default))
          (fill (type none))
        )
        (polyline
          (pts
            (xy -5.08 -2.54)
            (xy -3.175 -2.54)
            (xy -3.175 2.54)
            (xy -5.08 2.54)
          )
          (stroke (width 0) (type default))
          (fill (type none))
        )
        (polyline
          (pts
            (xy -3.175 -0.635)
            (xy -3.81 0.635)
            (xy -2.54 0.635)
            (xy -3.175 -0.635)
          )
          (stroke (width 0.254) (type default))
          (fill (type outline))
        )
        (polyline
          (pts
            (xy -0.635 0.254)
            (xy -0.1016 0.762)
            (xy -0.1016 0.254)
            (xy 0.6604 1.016)
          )
          (stroke (width 0) (type default))
          (fill (type none))
        )
        (polyline
          (pts
            (xy 0.6604 1.016)
            (xy 0.1524 0.762)
            (xy 0.4064 0.508)
            (xy 0.6604 1.016)
          )
          (stroke (width 0) (type default))
          (fill (type none))
        )
        (polyline
          (pts
            (xy 3.683 -2.413)
            (xy 3.429 -1.905)
            (xy 3.175 -2.159)
            (xy 3.683 -2.413)
          )
          (stroke (width 0) (type default))
          (fill (type none))
        )
        (polyline
          (pts
            (xy 5.08 2.54)
            (xy 1.905 2.54)
            (xy 1.905 -1.27)
            (xy 2.54 -1.27)
          )
          (stroke (width 0) (type default))
          (fill (type none))
        )
        (polyline
          (pts
            (xy -0.635 -0.762)
            (xy -0.1016 -0.254)
            (xy -0.1016 -0.762)
            (xy 0.6604 0)
            (xy 0.1524 -0.254)
            (xy 0.4064 -0.508)
            (xy 0.6604 0)
          )
          (stroke (width 0) (type default))
          (fill (type none))
        )
      )
      (symbol "4N26_1_1"
        (pin passive line (at -7.62 2.54 0) (length 2.54)
          (name "~" (effects (font (size 1.27 1.27))))
          (number "1" (effects (font (size 1.27 1.27))))
        )
        (pin passive line (at -7.62 -2.54 0) (length 2.54)
          (name "~" (effects (font (size 1.27 1.27))))
          (number "2" (effects (font (size 1.27 1.27))))
        )
        (pin passive line (at 7.62 -2.54 180) (length 2.54)
          (name "~" (effects (font (size 1.27 1.27))))
          (number "4" (effects (font (size 1.27 1.27))))
        )
        (pin passive line (at 7.62 0 180) (length 2.54)
          (name "~" (effects (font (size 1.27 1.27))))
          (number "5" (effects (font (size 1.27 1.27))))
        )
        (pin passive line (at 7.62 2.54 180) (length 2.54)
          (name "~" (effects (font (size 1.27 1.27))))
          (number "6" (effects (font (size 1.27 1.27))))
        )
      )
    )
    (symbol "OptoFast-2-rescue:CONN_01X02" (pin_names (offset 1.016) hide) (in_bom yes) (on_board yes)
      (property "Reference" "P" (at 0 3.81 0)
        (effects (font (size 1.27 1.27)))
      )
      (property "Value" "CONN_01X02" (at 2.54 0 90)
        (effects (font (size 1.27 1.27)))
      )
      (property "Footprint" "" (at 0 0 0)
        (effects (font (size 1.524 1.524)))
      )
      (property "Datasheet" "" (at 0 0 0)
        (effects (font (size 1.524 1.524)))
      )
      (property "ki_fp_filters" "Pin_Header_Straight_1X02 Pin_Header_Angled_1X02 Socket_Strip_Straight_1X02 Socket_Strip_Angled_1X02" (at 0 0 0)
        (effects (font (size 1.27 1.27)) hide)
      )
      (symbol "CONN_01X02_0_1"
        (rectangle (start -1.27 -1.143) (end 0.254 -1.397)
          (stroke (width 0) (type default))
          (fill (type none))
        )
        (rectangle (start -1.27 1.397) (end 0.254 1.143)
          (stroke (width 0) (type default))
          (fill (type none))
        )
        (rectangle (start -1.27 2.54) (end 1.27 -2.54)
          (stroke (width 0) (type default))
          (fill (type none))
        )
      )
      (symbol "CONN_01X02_1_1"
        (pin passive line (at -5.08 1.27 0) (length 3.81)
          (name "P1" (effects (font (size 1.27 1.27))))
          (number "1" (effects (font (size 1.27 1.27))))
        )
        (pin passive line (at -5.08 -1.27 0) (length 3.81)
          (name "P2" (effects (font (size 1.27 1.27))))
          (number "2" (effects (font (size 1.27 1.27))))
        )
      )
    )
    (symbol "OptoFast-2-rescue:R" (pin_numbers hide) (pin_names (offset 0)) (in_bom yes) (on_board yes)
      (property "Reference" "R" (at 2.032 0 90)
        (effects (font (size 1.27 1.27)))
      )
      (property "Value" "R" (at 0 0 90)
        (effects (font (size 1.27 1.27)))
      )
      (property "Footprint" "" (at -1.778 0 90)
        (effects (font (size 0.762 0.762)))
      )
      (property "Datasheet" "" (at 0 0 0)
        (effects (font (size 0.762 0.762)))
      )
      (property "ki_fp_filters" "R_* Resistor_*" (at 0 0 0)
        (effects (font (size 1.27 1.27)) hide)
      )
      (symbol "R_0_1"
        (rectangle (start -1.016 -2.54) (end 1.016 2.54)
          (stroke (width 0.254) (type default))
          (fill (type none))
        )
      )
      (symbol "R_1_1"
        (pin passive line (at 0 3.81 270) (length 1.27)
          (name "~" (effects (font (size 1.524 1.524))))
          (number "1" (effects (font (size 1.524 1.524))))
        )
        (pin passive line (at 0 -3.81 90) (length 1.27)
          (name "~" (effects (font (size 1.524 1.524))))
          (number "2" (effects (font (size 1.524 1.524))))
        )
      )
    )
    (symbol "OptoFast-rescue:Q_NPN_BEC-RESCUE-OptoFast" (pin_names (offset 0) hide) (in_bom yes) (on_board yes)
      (property "Reference" "Q" (at 7.62 1.27 0)
        (effects (font (size 1.27 1.27)) (justify right))
      )
      (property "Value" "Q_NPN_BEC-RESCUE-OptoFast" (at 15.24 -1.27 0)
        (effects (font (size 1.27 1.27)) (justify right))
      )
      (property "Footprint" "" (at 5.08 2.54 0)
        (effects (font (size 0.7366 0.7366)))
      )
      (property "Datasheet" "" (at 0 0 0)
        (effects (font (size 1.524 1.524)))
      )
      (symbol "Q_NPN_BEC-RESCUE-OptoFast_0_1"
        (polyline
          (pts
            (xy 0.635 0.635)
            (xy 2.54 2.54)
          )
          (stroke (width 0) (type default))
          (fill (type none))
        )
        (polyline
          (pts
            (xy 0.635 -0.635)
            (xy 2.54 -2.54)
            (xy 2.54 -2.54)
          )
          (stroke (width 0) (type default))
          (fill (type none))
        )
        (polyline
          (pts
            (xy 0.635 1.905)
            (xy 0.635 -1.905)
            (xy 0.635 -1.905)
          )
          (stroke (width 0.508) (type default))
          (fill (type none))
        )
        (polyline
          (pts
            (xy 1.27 -1.778)
            (xy 1.778 -1.27)
            (xy 2.286 -2.286)
            (xy 1.27 -1.778)
            (xy 1.27 -1.778)
          )
          (stroke (width 0) (type default))
          (fill (type outline))
        )
        (circle (center 1.27 0) (radius 2.8194)
          (stroke (width 0.254) (type default))
          (fill (type none))
        )
      )
      (symbol "Q_NPN_BEC-RESCUE-OptoFast_1_1"
        (pin input line (at -5.08 0 0) (length 5.715)
          (name "B" (effects (font (size 1.27 1.27))))
          (number "1" (effects (font (size 1.27 1.27))))
        )
        (pin open_emitter line (at 2.54 -5.08 90) (length 2.54)
          (name "E" (effects (font (size 1.27 1.27))))
          (number "2" (effects (font (size 1.27 1.27))))
        )
        (pin open_collector line (at 2.54 5.08 270) (length 2.54)
          (name "C" (effects (font (size 1.27 1.27))))
          (number "3" (effects (font (size 1.27 1.27))))
        )
      )
    )
  )

  (junction (at 119.38 90.17) (diameter 0) (color 0 0 0 0)
    (uuid 60dcd1fe-7079-4cb8-b509-04558ccf5097)
  )
  (junction (at 161.29 86.36) (diameter 0) (color 0 0 0 0)
    (uuid 70e15522-1572-4451-9c0d-6d36ac70d8c6)
  )
  (junction (at 116.84 71.12) (diameter 0) (color 0 0 0 0)
    (uuid 789ca812-3e0c-4a3f-97bc-a916dd9bce80)
  )
  (junction (at 93.98 82.55) (diameter 0) (color 0 0 0 0)
    (uuid abe07c9a-17c3-43b5-b7a6-ae867ac27ea7)
  )
  (junction (at 127 76.2) (diameter 0) (color 0 0 0 0)
    (uuid c5eb1e4c-ce83-470e-8f32-e20ff1f886a3)
  )
  (junction (at 154.94 73.66) (diameter 0) (color 0 0 0 0)
    (uuid c8c79177-94d4-43e2-a654-f0a5554fbb68)
  )

  (wire (pts (xy 119.38 90.17) (xy 119.38 87.63))
    (stroke (width 0) (type default))
    (uuid 12422a89-3d0c-485c-9386-f77121fd68fd)
  )
  (wire (pts (xy 154.94 73.66) (xy 166.37 73.66))
    (stroke (width 0) (type default))
    (uuid 12fa3c3f-3d14-451a-a6a8-884fd1b32fa7)
  )
  (wire (pts (xy 119.38 76.2) (xy 127 76.2))
    (stroke (width 0) (type default))
    (uuid 16a9ae8c-3ad2-439b-8efe-377c994670c7)
  )
  (wire (pts (xy 105.41 71.12) (xy 116.84 71.12))
    (stroke (width 0) (type default))
    (uuid 16bd6381-8ac0-4bf2-9dce-ecc20c724b8d)
  )
  (wire (pts (xy 173.99 73.66) (xy 179.07 73.66))
    (stroke (width 0) (type default))
    (uuid 25d545dc-8f50-4573-922c-35ef5a2a3a19)
  )
  (wire (pts (xy 97.79 71.12) (xy 90.17 71.12))
    (stroke (width 0) (type default))
    (uuid 40165eda-4ba6-4565-9bb4-b9df6dbb08da)
  )
  (wire (pts (xy 154.94 73.66) (xy 154.94 80.01))
    (stroke (width 0) (type default))
    (uuid 40976bf0-19de-460f-ad64-224d4f51e16b)
  )
  (wire (pts (xy 156.21 71.12) (xy 161.29 71.12))
    (stroke (width 0) (type default))
    (uuid 6d26d68f-1ca7-4ff3-b058-272f1c399047)
  )
  (wire (pts (xy 93.98 76.2) (xy 97.79 76.2))
    (stroke (width 0) (type default))
    (uuid 730b670c-9bcf-4dcd-9a8d-fcaa61fb0955)
  )
  (wire (pts (xy 127 87.63) (xy 127 76.2))
    (stroke (width 0) (type default))
    (uuid 770ad51a-7219-4633-b24a-bd20feb0a6c5)
  )
  (wire (pts (xy 119.38 77.47) (xy 119.38 76.2))
    (stroke (width 0) (type default))
    (uuid 7d34f6b1-ab31-49be-b011-c67fe67a8a56)
  )
  (wire (pts (xy 147.32 73.66) (xy 154.94 73.66))
    (stroke (width 0) (type default))
    (uuid 7e023245-2c2b-4e2b-bfb9-5d35176e88f2)
  )
  (wire (pts (xy 93.98 82.55) (xy 97.79 82.55))
    (stroke (width 0) (type default))
    (uuid 851f3d61-ba3b-4e6e-abd4-cafa4d9b64cb)
  )
  (wire (pts (xy 90.17 82.55) (xy 93.98 82.55))
    (stroke (width 0) (type default))
    (uuid 85b7594c-358f-454b-b2ad-dd0b1d67ed76)
  )
  (wire (pts (xy 93.98 82.55) (xy 93.98 76.2))
    (stroke (width 0) (type default))
    (uuid 8a650ebf-3f78-4ca4-a26b-a5028693e36d)
  )
  (wire (pts (xy 90.17 90.17) (xy 119.38 90.17))
    (stroke (width 0) (type default))
    (uuid 8e06ba1f-e3ba-4eb9-a10e-887dffd566d6)
  )
  (wire (pts (xy 147.32 76.2) (xy 151.13 76.2))
    (stroke (width 0) (type default))
    (uuid aca4de92-9c41-4c2b-9afa-540d02dafa1c)
  )
  (wire (pts (xy 132.08 87.63) (xy 127 87.63))
    (stroke (width 0) (type default))
    (uuid b7199d9b-bebb-4100-9ad3-c2bd31e21d65)
  )
  (wire (pts (xy 151.13 76.2) (xy 151.13 86.36))
    (stroke (width 0) (type default))
    (uuid c43663ee-9a0d-4f27-a292-89ba89964065)
  )
  (wire (pts (xy 151.13 86.36) (xy 161.29 86.36))
    (stroke (width 0) (type default))
    (uuid c830e3bc-dc64-4f65-8f47-3b106bae2807)
  )
  (wire (pts (xy 116.84 71.12) (xy 132.08 71.12))
    (stroke (width 0) (type default))
    (uuid ca6e2466-a90a-4dab-be16-b070610e5087)
  )
  (wire (pts (xy 119.38 90.17) (xy 132.08 90.17))
    (stroke (width 0) (type default))
    (uuid d18f2428-546f-4066-8ffb-7653303685db)
  )
  (wire (pts (xy 161.29 71.12) (xy 161.29 86.36))
    (stroke (width 0) (type default))
    (uuid d3d7e298-1d39-4294-a3ab-c84cc0dc5e5a)
  )
  (wire (pts (xy 127 76.2) (xy 132.08 76.2))
    (stroke (width 0) (type default))
    (uuid d95c6650-fcd9-4184-97fe-fde43ea5c0cd)
  )
  (wire (pts (xy 105.41 76.2) (xy 116.84 76.2))
    (stroke (width 0) (type default))
    (uuid db36f6e3-e72a-487f-bda9-88cc84536f62)
  )
  (wire (pts (xy 147.32 71.12) (xy 148.59 71.12))
    (stroke (width 0) (type default))
    (uuid df32840e-2912-4088-b54c-9a85f64c0265)
  )
  (wire (pts (xy 154.94 80.01) (xy 179.07 80.01))
    (stroke (width 0) (type default))
    (uuid e21aa84b-970e-47cf-b64f-3b55ee0e1b51)
  )
  (wire (pts (xy 116.84 76.2) (xy 116.84 71.12))
    (stroke (width 0) (type default))
    (uuid e4c6fdbb-fdc7-4ad4-a516-240d84cdc120)
  )
  (wire (pts (xy 105.41 82.55) (xy 111.76 82.55))
    (stroke (width 0) (type default))
    (uuid ec31c074-17b2-48e1-ab01-071acad3fa04)
  )
  (wire (pts (xy 161.29 86.36) (xy 179.07 86.36))
    (stroke (width 0) (type default))
    (uuid f4a1ab68-998b-43e3-aa33-40b58210bc99)
  )

  (text "(FAST)" (at 157.48 71.12 0)
    (effects (font (size 1.524 1.524)) (justify left bottom))
    (uuid 0755aee5-bc01-4cb5-b830-583289df50a3)
  )
  (text "(COLL)" (at 173.99 72.39 0)
    (effects (font (size 1.524 1.524)) (justify left bottom))
    (uuid 4a21e717-d46d-4d9e-8b98-af4ecb02d3ec)
  )
  (text "(VCC)" (at 91.44 71.12 0)
    (effects (font (size 1.524 1.524)) (justify left bottom))
    (uuid 4fb21471-41be-4be8-9687-66030f97befc)
  )
  (text "(DIR)" (at 106.68 76.2 0)
    (effects (font (size 1.524 1.524)) (justify left bottom))
    (uuid 7599133e-c681-4202-85d9-c20dac196c64)
  )
  (text "(BASE)" (at 105.41 82.55 0)
    (effects (font (size 1.524 1.524)) (justify left bottom))
    (uuid dde51ae5-b215-445e-92bb-4a12ec410531)
  )

  (hierarchical_label "VCC1" (shape input) (at 90.17 71.12 180) (fields_autoplaced)
    (effects (font (size 2.0066 2.0066)) (justify right))
    (uuid 1e8701fc-ad24-40ea-846a-e3db538d6077)
  )
  (hierarchical_label "VCC2" (shape output) (at 179.07 73.66 0) (fields_autoplaced)
    (effects (font (size 2.0066 2.0066)) (justify left))
    (uuid 8c514922-ffe1-4e37-a260-e807409f2e0d)
  )
  (hierarchical_label "OUT" (shape output) (at 179.07 80.01 0) (fields_autoplaced)
    (effects (font (size 2.0066 2.0066)) (justify left))
    (uuid a15a7506-eae4-4933-84da-9ad754258706)
  )
  (hierarchical_label "GND1" (shape input) (at 90.17 90.17 180) (fields_autoplaced)
    (effects (font (size 2.0066 2.0066)) (justify right))
    (uuid c25a772d-af9c-4ebc-96f6-0966738c13a8)
  )
  (hierarchical_label "GND2" (shape output) (at 179.07 86.36 0) (fields_autoplaced)
    (effects (font (size 2.0066 2.0066)) (justify left))
    (uuid d3c11c8f-a73d-4211-934b-a6da255728ad)
  )
  (hierarchical_label "IN1" (shape input) (at 90.17 82.55 180) (fields_autoplaced)
    (effects (font (size 2.0066 2.0066)) (justify right))
    (uuid d5641ac9-9be7-46bf-90b3-6c83d852b5ba)
  )

  (symbol (lib_id "OptoFast-2-rescue:4N26") (at 139.7 73.66 0) (unit 1)
    (in_bom yes) (on_board yes) (dnp no)
    (uuid 00000000-0000-0000-0000-0000557b9ea9)
    (property "Reference" "U1" (at 134.2644 69.1134 0)
      (effects (font (size 1.016 1.016)))
    )
    (property "Value" "4N25" (at 144.272 78.359 0)
      (effects (font (size 1.016 1.016)))
    )
    (property "Footprint" "Housings_DIP:DIP-6_W7.62mm_LongPads" (at 134.6454 78.232 0)
      (effects (font (size 0.7366 0.7366)) hide)
    )
    (property "Datasheet" "" (at 139.7 73.66 0)
      (effects (font (size 1.524 1.524)))
    )
    (pin "1" (uuid 12a24e86-2c38-4685-bba9-fff8dddb4cb0))
    (pin "2" (uuid f357ddb5-3f44-43b0-b00d-d64f5c62ba4a))
    (pin "4" (uuid 35ef9c4a-35f6-467b-a704-b1d9354880cf))
    (pin "5" (uuid b8b961e9-8a60-45fc-999a-a7a3baff4e0d))
    (pin "6" (uuid a7f25f41-0b4c-4430-b6cd-b2160b2db099))
    (instances
      (project "OptoFast-2"
        (path "/51c4dc0a-5b9f-4edf-a83f-4a12881e42ef/00000000-0000-0000-0000-0000557b9c27"
          (reference "U1") (unit 1)
        )
        (path "/51c4dc0a-5b9f-4edf-a83f-4a12881e42ef/00000000-0000-0000-0000-0000557bcf63"
          (reference "U2") (unit 1)
        )
        (path "/51c4dc0a-5b9f-4edf-a83f-4a12881e42ef/00000000-0000-0000-0000-0000557bd8a1"
          (reference "U3") (unit 1)
        )
        (path "/51c4dc0a-5b9f-4edf-a83f-4a12881e42ef/00000000-0000-0000-0000-0000557bd8a9"
          (reference "U4") (unit 1)
        )
      )
    )
  )

  (symbol (lib_id "OptoFast-2-rescue:R") (at 101.6 71.12 90) (unit 1)
    (in_bom yes) (on_board yes) (dnp no)
    (uuid 00000000-0000-0000-0000-0000557b9eb0)
    (property "Reference" "R1" (at 101.6 69.088 90)
      (effects (font (size 1.016 1.016)))
    )
    (property "Value" "RPWR" (at 101.5746 70.9422 90)
      (effects (font (size 1.016 1.016)))
    )
    (property "Footprint" "Resistors_SMD:R_0805_HandSoldering" (at 101.6 72.898 90)
      (effects (font (size 0.762 0.762)) hide)
    )
    (property "Datasheet" "~" (at 101.6 71.12 0)
      (effects (font (size 0.762 0.762)))
    )
    (pin "1" (uuid a0dee8e6-f88a-4f05-aba0-bab3aafdf2bc))
    (pin "2" (uuid d7e5a060-eb57-4238-9312-26bc885fc97d))
    (instances
      (project "OptoFast-2"
        (path "/51c4dc0a-5b9f-4edf-a83f-4a12881e42ef/00000000-0000-0000-0000-0000557b9c27"
          (reference "R1") (unit 1)
        )
        (path "/51c4dc0a-5b9f-4edf-a83f-4a12881e42ef/00000000-0000-0000-0000-0000557bcf63"
          (reference "R4") (unit 1)
        )
        (path "/51c4dc0a-5b9f-4edf-a83f-4a12881e42ef/00000000-0000-0000-0000-0000557bd8a1"
          (reference "R7") (unit 1)
        )
        (path "/51c4dc0a-5b9f-4edf-a83f-4a12881e42ef/00000000-0000-0000-0000-0000557bd8a9"
          (reference "R10") (unit 1)
        )
      )
    )
  )

  (symbol (lib_id "OptoFast-2-rescue:R") (at 170.18 73.66 90) (unit 1)
    (in_bom yes) (on_board yes) (dnp no)
    (uuid 00000000-0000-0000-0000-0000557b9f95)
    (property "Reference" "R17" (at 170.18 71.628 90)
      (effects (font (size 1.016 1.016)))
    )
    (property "Value" "RCOL" (at 170.1546 73.4822 90)
      (effects (font (size 1.016 1.016)))
    )
    (property "Footprint" "Resistors_SMD:R_0805_HandSoldering" (at 170.18 75.438 90)
      (effects (font (size 0.762 0.762)) hide)
    )
    (property "Datasheet" "~" (at 170.18 73.66 0)
      (effects (font (size 0.762 0.762)))
    )
    (pin "1" (uuid 53e34696-241f-47e5-a477-f469335c8a61))
    (pin "2" (uuid 9390234f-bf3f-46cd-b6a0-8a438ec76e9f))
    (instances
      (project "OptoFast-2"
        (path "/51c4dc0a-5b9f-4edf-a83f-4a12881e42ef/00000000-0000-0000-0000-0000557b9c27"
          (reference "R17") (unit 1)
        )
        (path "/51c4dc0a-5b9f-4edf-a83f-4a12881e42ef/00000000-0000-0000-0000-0000557bcf63"
          (reference "R18") (unit 1)
        )
        (path "/51c4dc0a-5b9f-4edf-a83f-4a12881e42ef/00000000-0000-0000-0000-0000557bd8a1"
          (reference "R19") (unit 1)
        )
        (path "/51c4dc0a-5b9f-4edf-a83f-4a12881e42ef/00000000-0000-0000-0000-0000557bd8a9"
          (reference "R20") (unit 1)
        )
      )
    )
  )

  (symbol (lib_id "OptoFast-rescue:Q_NPN_BEC-RESCUE-OptoFast") (at 116.84 82.55 0) (unit 1)
    (in_bom yes) (on_board yes) (dnp no)
    (uuid 00000000-0000-0000-0000-0000557f6dd0)
    (property "Reference" "Q1" (at 115.57 78.74 0)
      (effects (font (size 1.27 1.27)) (justify right))
    )
    (property "Value" "2N3904" (at 116.84 86.36 0)
      (effects (font (size 1.27 1.27)) (justify right))
    )
    (property "Footprint" "Housings_SOT-23_SOT-143_TSOT-6:SOT-23_Handsoldering" (at 121.92 80.01 0)
      (effects (font (size 0.7366 0.7366)) hide)
    )
    (property "Datasheet" "" (at 116.84 82.55 0)
      (effects (font (size 1.524 1.524)))
    )
    (pin "1" (uuid 844d7d7a-b386-45a8-aaf6-bf41bbcb43b5))
    (pin "2" (uuid ebca7c5e-ae52-43e5-ac6c-69a96a9a5b24))
    (pin "3" (uuid a07b6b2b-7179-4297-b163-5e47ffbe76d3))
    (instances
      (project "OptoFast-2"
        (path "/51c4dc0a-5b9f-4edf-a83f-4a12881e42ef/00000000-0000-0000-0000-0000557b9c27"
          (reference "Q1") (unit 1)
        )
        (path "/51c4dc0a-5b9f-4edf-a83f-4a12881e42ef/00000000-0000-0000-0000-0000557bcf63"
          (reference "Q2") (unit 1)
        )
        (path "/51c4dc0a-5b9f-4edf-a83f-4a12881e42ef/00000000-0000-0000-0000-0000557bd8a1"
          (reference "Q3") (unit 1)
        )
        (path "/51c4dc0a-5b9f-4edf-a83f-4a12881e42ef/00000000-0000-0000-0000-0000557bd8a9"
          (reference "Q4") (unit 1)
        )
      )
    )
  )

  (symbol (lib_id "OptoFast-2-rescue:R") (at 152.4 71.12 90) (unit 1)
    (in_bom yes) (on_board yes) (dnp no)
    (uuid 00000000-0000-0000-0000-00005857eb60)
    (property "Reference" "R13" (at 152.4 69.088 90)
      (effects (font (size 1.016 1.016)))
    )
    (property "Value" "RFST" (at 152.3746 70.9422 90)
      (effects (font (size 1.016 1.016)))
    )
    (property "Footprint" "Resistors_SMD:R_0805_HandSoldering" (at 152.4 72.898 90)
      (effects (font (size 0.762 0.762)) hide)
    )
    (property "Datasheet" "~" (at 152.4 71.12 0)
      (effects (font (size 0.762 0.762)))
    )
    (pin "1" (uuid 84d296ba-3d39-4264-ad19-947f90c54396))
    (pin "2" (uuid 6afc19cf-38b4-47a3-bc2b-445b18724310))
    (instances
      (project "OptoFast-2"
        (path "/51c4dc0a-5b9f-4edf-a83f-4a12881e42ef/00000000-0000-0000-0000-0000557b9c27"
          (reference "R13") (unit 1)
        )
        (path "/51c4dc0a-5b9f-4edf-a83f-4a12881e42ef/00000000-0000-0000-0000-0000557bcf63"
          (reference "R14") (unit 1)
        )
        (path "/51c4dc0a-5b9f-4edf-a83f-4a12881e42ef/00000000-0000-0000-0000-0000557bd8a1"
          (reference "R15") (unit 1)
        )
        (path "/51c4dc0a-5b9f-4edf-a83f-4a12881e42ef/00000000-0000-0000-0000-0000557bd8a9"
          (reference "R16") (unit 1)
        )
      )
    )
  )

  (symbol (lib_id "OptoFast-2-rescue:R") (at 101.6 82.55 90) (unit 1)
    (in_bom yes) (on_board yes) (dnp no)
    (uuid 00000000-0000-0000-0000-00005857ef86)
    (property "Reference" "R3" (at 101.6 80.518 90)
      (effects (font (size 1.016 1.016)))
    )
    (property "Value" "RBAS" (at 101.5746 82.3722 90)
      (effects (font (size 1.016 1.016)))
    )
    (property "Footprint" "Resistors_SMD:R_0805_HandSoldering" (at 101.6 84.328 90)
      (effects (font (size 0.762 0.762)) hide)
    )
    (property "Datasheet" "~" (at 101.6 82.55 0)
      (effects (font (size 0.762 0.762)))
    )
    (pin "1" (uuid f3044f68-903d-4063-b253-30d8e3a83eae))
    (pin "2" (uuid 05f2859d-2820-4e84-b395-696011feb13b))
    (instances
      (project "OptoFast-2"
        (path "/51c4dc0a-5b9f-4edf-a83f-4a12881e42ef/00000000-0000-0000-0000-0000557b9c27"
          (reference "R3") (unit 1)
        )
        (path "/51c4dc0a-5b9f-4edf-a83f-4a12881e42ef/00000000-0000-0000-0000-0000557bcf63"
          (reference "R6") (unit 1)
        )
        (path "/51c4dc0a-5b9f-4edf-a83f-4a12881e42ef/00000000-0000-0000-0000-0000557bd8a1"
          (reference "R9") (unit 1)
        )
        (path "/51c4dc0a-5b9f-4edf-a83f-4a12881e42ef/00000000-0000-0000-0000-0000557bd8a9"
          (reference "R12") (unit 1)
        )
      )
    )
  )

  (symbol (lib_id "OptoFast-2-rescue:R") (at 101.6 76.2 90) (unit 1)
    (in_bom yes) (on_board yes) (dnp no)
    (uuid 00000000-0000-0000-0000-0000593867c5)
    (property "Reference" "R2" (at 101.6 74.168 90)
      (effects (font (size 1.016 1.016)))
    )
    (property "Value" "RDIR" (at 101.5746 76.0222 90)
      (effects (font (size 1.016 1.016)))
    )
    (property "Footprint" "Resistors_SMD:R_0805_HandSoldering" (at 101.6 77.978 90)
      (effects (font (size 0.762 0.762)) hide)
    )
    (property "Datasheet" "~" (at 101.6 76.2 0)
      (effects (font (size 0.762 0.762)))
    )
    (pin "1" (uuid 869d6302-ae22-478f-9723-3feacbb12eef))
    (pin "2" (uuid e1b88aa4-d887-4eea-83ff-5c009f4390c4))
    (instances
      (project "OptoFast-2"
        (path "/51c4dc0a-5b9f-4edf-a83f-4a12881e42ef/00000000-0000-0000-0000-0000557b9c27"
          (reference "R2") (unit 1)
        )
        (path "/51c4dc0a-5b9f-4edf-a83f-4a12881e42ef/00000000-0000-0000-0000-0000557bcf63"
          (reference "R5") (unit 1)
        )
        (path "/51c4dc0a-5b9f-4edf-a83f-4a12881e42ef/00000000-0000-0000-0000-0000557bd8a1"
          (reference "R8") (unit 1)
        )
        (path "/51c4dc0a-5b9f-4edf-a83f-4a12881e42ef/00000000-0000-0000-0000-0000557bd8a9"
          (reference "R11") (unit 1)
        )
      )
    )
  )

  (symbol (lib_id "OptoFast-2-rescue:CONN_01X02") (at 137.16 88.9 0) (unit 1)
    (in_bom yes) (on_board yes) (dnp no)
    (uuid 00000000-0000-0000-0000-000059386961)
    (property "Reference" "H1" (at 137.16 85.09 0)
      (effects (font (size 1.27 1.27)))
    )
    (property "Value" "GDEM" (at 139.7 88.9 90)
      (effects (font (size 1.27 1.27)))
    )
    (property "Footprint" "Pin_Headers:Pin_Header_Straight_1x02_Pitch2.54mm" (at 137.16 92.71 0)
      (effects (font (size 0.508 0.508)))
    )
    (property "Datasheet" "" (at 137.16 88.9 0)
      (effects (font (size 1.524 1.524)))
    )
    (pin "1" (uuid 9f782c92-a5e8-49db-bfda-752b35522ce4))
    (pin "2" (uuid ccc4cc25-ac17-45ef-825c-e079951ffb21))
    (instances
      (project "OptoFast-2"
        (path "/51c4dc0a-5b9f-4edf-a83f-4a12881e42ef/00000000-0000-0000-0000-0000557b9c27"
          (reference "H1") (unit 1)
        )
        (path "/51c4dc0a-5b9f-4edf-a83f-4a12881e42ef/00000000-0000-0000-0000-0000557bcf63"
          (reference "H2") (unit 1)
        )
        (path "/51c4dc0a-5b9f-4edf-a83f-4a12881e42ef/00000000-0000-0000-0000-0000557bd8a1"
          (reference "H3") (unit 1)
        )
        (path "/51c4dc0a-5b9f-4edf-a83f-4a12881e42ef/00000000-0000-0000-0000-0000557bd8a9"
          (reference "H4") (unit 1)
        )
      )
    )
  )
)
