(kicad_sch (version 20230121) (generator eeschema)

  (uuid 51c4dc0a-5b9f-4edf-a83f-4a12881e42ef)

  (paper "A")

  (title_block
    (title "FAST OPTO-ISOLATOR CARD")
    (date "Thursday, June 08, 2017")
    (rev "X2")
    (company "land-boards.com")
  )

  (lib_symbols
    (symbol "OptoFast-2-rescue:ADAFRUIT_FIDUCIAL" (pin_numbers hide) (pin_names (offset 0.0254) hide) (in_bom yes) (on_board yes)
      (property "Reference" "adafruit" (at 0 0 0)
        (effects (font (size 1.524 1.524)))
      )
      (property "Value" "ADAFRUIT_FIDUCIAL" (at 0 0 0)
        (effects (font (size 1.524 1.524)))
      )
      (property "Footprint" "" (at 0 0 0)
        (effects (font (size 1.524 1.524)))
      )
      (property "Datasheet" "" (at 0 0 0)
        (effects (font (size 1.524 1.524)))
      )
      (symbol "ADAFRUIT_FIDUCIAL_1_1"
        (circle (center 0 0) (radius 2.54)
          (stroke (width 0) (type default))
          (fill (type none))
        )
      )
    )
    (symbol "OptoFast-2-rescue:CONN_01X08" (pin_names (offset 1.016) hide) (in_bom yes) (on_board yes)
      (property "Reference" "P" (at 0 11.43 0)
        (effects (font (size 1.27 1.27)))
      )
      (property "Value" "CONN_01X08" (at 2.54 0 90)
        (effects (font (size 1.27 1.27)))
      )
      (property "Footprint" "" (at 0 0 0)
        (effects (font (size 1.524 1.524)))
      )
      (property "Datasheet" "" (at 0 0 0)
        (effects (font (size 1.524 1.524)))
      )
      (property "ki_fp_filters" "Pin_Header_Straight_1X08 Pin_Header_Angled_1X08 Socket_Strip_Straight_1X08 Socket_Strip_Angled_1X08" (at 0 0 0)
        (effects (font (size 1.27 1.27)) hide)
      )
      (symbol "CONN_01X08_0_1"
        (rectangle (start -1.27 -10.16) (end 1.27 10.16)
          (stroke (width 0) (type default))
          (fill (type none))
        )
        (rectangle (start -1.27 -8.763) (end 0.254 -9.017)
          (stroke (width 0) (type default))
          (fill (type none))
        )
        (rectangle (start -1.27 -6.223) (end 0.254 -6.477)
          (stroke (width 0) (type default))
          (fill (type none))
        )
        (rectangle (start -1.27 -3.683) (end 0.254 -3.937)
          (stroke (width 0) (type default))
          (fill (type none))
        )
        (rectangle (start -1.27 -1.143) (end 0.254 -1.397)
          (stroke (width 0) (type default))
          (fill (type none))
        )
        (rectangle (start -1.27 1.397) (end 0.254 1.143)
          (stroke (width 0) (type default))
          (fill (type none))
        )
        (rectangle (start -1.27 3.937) (end 0.254 3.683)
          (stroke (width 0) (type default))
          (fill (type none))
        )
        (rectangle (start -1.27 6.477) (end 0.254 6.223)
          (stroke (width 0) (type default))
          (fill (type none))
        )
        (rectangle (start -1.27 9.017) (end 0.254 8.763)
          (stroke (width 0) (type default))
          (fill (type none))
        )
      )
      (symbol "CONN_01X08_1_1"
        (pin passive line (at -5.08 8.89 0) (length 3.81)
          (name "P1" (effects (font (size 1.27 1.27))))
          (number "1" (effects (font (size 1.27 1.27))))
        )
        (pin passive line (at -5.08 6.35 0) (length 3.81)
          (name "P2" (effects (font (size 1.27 1.27))))
          (number "2" (effects (font (size 1.27 1.27))))
        )
        (pin passive line (at -5.08 3.81 0) (length 3.81)
          (name "P3" (effects (font (size 1.27 1.27))))
          (number "3" (effects (font (size 1.27 1.27))))
        )
        (pin passive line (at -5.08 1.27 0) (length 3.81)
          (name "P4" (effects (font (size 1.27 1.27))))
          (number "4" (effects (font (size 1.27 1.27))))
        )
        (pin passive line (at -5.08 -1.27 0) (length 3.81)
          (name "P5" (effects (font (size 1.27 1.27))))
          (number "5" (effects (font (size 1.27 1.27))))
        )
        (pin passive line (at -5.08 -3.81 0) (length 3.81)
          (name "P6" (effects (font (size 1.27 1.27))))
          (number "6" (effects (font (size 1.27 1.27))))
        )
        (pin passive line (at -5.08 -6.35 0) (length 3.81)
          (name "P7" (effects (font (size 1.27 1.27))))
          (number "7" (effects (font (size 1.27 1.27))))
        )
        (pin passive line (at -5.08 -8.89 0) (length 3.81)
          (name "P8" (effects (font (size 1.27 1.27))))
          (number "8" (effects (font (size 1.27 1.27))))
        )
      )
    )
    (symbol "OptoFast-2-rescue:COUPON" (pin_names (offset 1.016)) (in_bom yes) (on_board yes)
      (property "Reference" "COUP?" (at 0 0 0)
        (effects (font (size 1.524 1.524)))
      )
      (property "Value" "COUPON" (at 0 0 0)
        (effects (font (size 1.524 1.524)))
      )
      (property "Footprint" "" (at 0 0 0)
        (effects (font (size 1.524 1.524)))
      )
      (property "Datasheet" "" (at 0 0 0)
        (effects (font (size 1.524 1.524)))
      )
      (symbol "COUPON_0_1"
        (rectangle (start -5.08 0) (end 5.08 6.35)
          (stroke (width 0) (type default))
          (fill (type none))
        )
      )
    )
    (symbol "OptoFast-2-rescue:MTG_HOLE" (pin_names (offset 1.016)) (in_bom yes) (on_board yes)
      (property "Reference" "MTG?" (at 0 2.54 0)
        (effects (font (size 1.524 1.524)))
      )
      (property "Value" "MTG_HOLE" (at 0 -2.54 0)
        (effects (font (size 1.524 1.524)))
      )
      (property "Footprint" "" (at 0 0 0)
        (effects (font (size 1.524 1.524)))
      )
      (property "Datasheet" "" (at 0 0 0)
        (effects (font (size 1.524 1.524)))
      )
      (symbol "MTG_HOLE_0_1"
        (rectangle (start -1.27 -1.27) (end 1.27 -1.27)
          (stroke (width 0) (type default))
          (fill (type none))
        )
        (rectangle (start -1.27 1.27) (end -1.27 -1.27)
          (stroke (width 0) (type default))
          (fill (type none))
        )
        (rectangle (start 1.27 1.27) (end -1.27 1.27)
          (stroke (width 0) (type default))
          (fill (type none))
        )
        (rectangle (start 1.27 1.27) (end 1.27 -1.27)
          (stroke (width 0) (type default))
          (fill (type none))
        )
      )
    )
  )

  (junction (at 116.84 63.5) (diameter 0) (color 0 0 0 0)
    (uuid 03c52831-5dc5-43c5-a442-8d23643b46fb)
  )
  (junction (at 113.03 109.22) (diameter 0) (color 0 0 0 0)
    (uuid 0eaa98f0-9565-4637-ace3-42a5231b07f7)
  )
  (junction (at 158.75 63.5) (diameter 0) (color 0 0 0 0)
    (uuid 0f54db53-a272-4955-88fb-d7ab00657bb0)
  )
  (junction (at 162.56 109.22) (diameter 0) (color 0 0 0 0)
    (uuid 3cd1bda0-18db-417d-b581-a0c50623df68)
  )
  (junction (at 116.84 101.6) (diameter 0) (color 0 0 0 0)
    (uuid 48ab88d7-7084-4d02-b109-3ad55a30bb11)
  )
  (junction (at 116.84 82.55) (diameter 0) (color 0 0 0 0)
    (uuid 716e31c5-485f-40b5-88e3-a75900da9811)
  )
  (junction (at 81.28 25.4) (diameter 0) (color 0 0 0 0)
    (uuid 94a873dc-af67-4ef9-8159-1f7c93eeb3d7)
  )
  (junction (at 194.31 40.64) (diameter 0) (color 0 0 0 0)
    (uuid 9b0a1687-7e1b-4a04-a30b-c27a072a2949)
  )
  (junction (at 158.75 101.6) (diameter 0) (color 0 0 0 0)
    (uuid a690fc6c-55d9-47e6-b533-faa4b67e20f3)
  )
  (junction (at 113.03 71.12) (diameter 0) (color 0 0 0 0)
    (uuid aa14c3bd-4acc-4908-9d28-228585a22a9d)
  )
  (junction (at 194.31 25.4) (diameter 0) (color 0 0 0 0)
    (uuid bfc0aadc-38cf-466e-a642-68fdc3138c78)
  )
  (junction (at 113.03 90.17) (diameter 0) (color 0 0 0 0)
    (uuid ce83728b-bebd-48c2-8734-b6a50d837931)
  )
  (junction (at 81.28 40.64) (diameter 0) (color 0 0 0 0)
    (uuid e857610b-4434-4144-b04e-43c1ebdc5ceb)
  )
  (junction (at 162.56 71.12) (diameter 0) (color 0 0 0 0)
    (uuid ee27d19c-8dca-4ac8-a760-6dfd54d28071)
  )
  (junction (at 158.75 82.55) (diameter 0) (color 0 0 0 0)
    (uuid efeac2a2-7682-4dc7-83ee-f6f1b23da506)
  )
  (junction (at 162.56 90.17) (diameter 0) (color 0 0 0 0)
    (uuid fe8d9267-7834-48d6-a191-c8724b2ee78d)
  )

  (wire (pts (xy 162.56 40.64) (xy 194.31 40.64))
    (stroke (width 0) (type default))
    (uuid 003c2200-0632-4808-a662-8ddd5d30c768)
  )
  (wire (pts (xy 113.03 71.12) (xy 113.03 90.17))
    (stroke (width 0) (type default))
    (uuid 015f5586-ba76-4a98-9114-f5cd2c67134d)
  )
  (wire (pts (xy 154.94 124.46) (xy 175.26 124.46))
    (stroke (width 0) (type default))
    (uuid 08a7c925-7fae-4530-b0c9-120e185cb318)
  )
  (wire (pts (xy 152.4 109.22) (xy 162.56 109.22))
    (stroke (width 0) (type default))
    (uuid 0b21a65d-d20b-411e-920a-75c343ac5136)
  )
  (wire (pts (xy 149.86 90.17) (xy 162.56 90.17))
    (stroke (width 0) (type default))
    (uuid 0f22151c-f260-4674-b486-4710a2c42a55)
  )
  (wire (pts (xy 128.27 101.6) (xy 116.84 101.6))
    (stroke (width 0) (type default))
    (uuid 127679a9-3981-4934-815e-896a4e3ff56e)
  )
  (wire (pts (xy 125.73 90.17) (xy 113.03 90.17))
    (stroke (width 0) (type default))
    (uuid 181abe7a-f941-42b6-bd46-aaa3131f90fb)
  )
  (wire (pts (xy 162.56 71.12) (xy 147.32 71.12))
    (stroke (width 0) (type default))
    (uuid 1831fb37-1c5d-42c4-b898-151be6fca9dc)
  )
  (wire (pts (xy 105.41 86.36) (xy 125.73 86.36))
    (stroke (width 0) (type default))
    (uuid 1a1ab354-5f85-45f9-938c-9f6c4c8c3ea2)
  )
  (wire (pts (xy 102.87 35.56) (xy 78.74 35.56))
    (stroke (width 0) (type default))
    (uuid 1bf544e3-5940-4576-9291-2464e95c0ee2)
  )
  (wire (pts (xy 194.31 25.4) (xy 196.85 25.4))
    (stroke (width 0) (type default))
    (uuid 1cc5480b-56b7-4379-98e2-ccafc88911a7)
  )
  (wire (pts (xy 194.31 43.18) (xy 194.31 40.64))
    (stroke (width 0) (type default))
    (uuid 240e07e1-770b-4b27-894f-29fd601c924d)
  )
  (wire (pts (xy 81.28 27.94) (xy 81.28 25.4))
    (stroke (width 0) (type default))
    (uuid 29e78086-2175-405e-9ba3-c48766d2f50c)
  )
  (wire (pts (xy 81.28 43.18) (xy 81.28 40.64))
    (stroke (width 0) (type default))
    (uuid 2d210a96-f81f-42a9-8bf4-1b43c11086f3)
  )
  (wire (pts (xy 170.18 86.36) (xy 149.86 86.36))
    (stroke (width 0) (type default))
    (uuid 2d6db888-4e40-41c8-b701-07170fc894bc)
  )
  (wire (pts (xy 116.84 63.5) (xy 116.84 82.55))
    (stroke (width 0) (type default))
    (uuid 2f424da3-8fae-4941-bc6d-20044787372f)
  )
  (wire (pts (xy 166.37 67.31) (xy 166.37 30.48))
    (stroke (width 0) (type default))
    (uuid 31e08896-1992-4725-96d9-9d2728bca7a3)
  )
  (wire (pts (xy 78.74 38.1) (xy 100.33 38.1))
    (stroke (width 0) (type default))
    (uuid 3aaee4c4-dbf7-49a5-a620-9465d8cc3ae7)
  )
  (wire (pts (xy 116.84 101.6) (xy 116.84 120.65))
    (stroke (width 0) (type default))
    (uuid 3bca658b-a598-4669-a7cb-3f9b5f47bb5a)
  )
  (wire (pts (xy 116.84 82.55) (xy 116.84 101.6))
    (stroke (width 0) (type default))
    (uuid 41485de5-6ed3-4c83-b69e-ef83ae18093c)
  )
  (wire (pts (xy 128.27 105.41) (xy 102.87 105.41))
    (stroke (width 0) (type default))
    (uuid 42713045-fffd-4b2d-ae1e-7232d705fb12)
  )
  (wire (pts (xy 162.56 71.12) (xy 162.56 90.17))
    (stroke (width 0) (type default))
    (uuid 42d3f9d6-2a47-41a8-b942-295fcb83bcd8)
  )
  (wire (pts (xy 81.28 40.64) (xy 113.03 40.64))
    (stroke (width 0) (type default))
    (uuid 46cbe85d-ff47-428e-b187-4ebd50a66e0c)
  )
  (wire (pts (xy 175.26 124.46) (xy 175.26 38.1))
    (stroke (width 0) (type default))
    (uuid 4a4ec8d9-3d72-4952-83d4-808f65849a2b)
  )
  (wire (pts (xy 78.74 40.64) (xy 81.28 40.64))
    (stroke (width 0) (type default))
    (uuid 4c8eb964-bdf4-44de-90e9-e2ab82dd5313)
  )
  (wire (pts (xy 158.75 120.65) (xy 154.94 120.65))
    (stroke (width 0) (type default))
    (uuid 5038e144-5119-49db-b6cf-f7c345f1cf03)
  )
  (wire (pts (xy 113.03 90.17) (xy 113.03 109.22))
    (stroke (width 0) (type default))
    (uuid 541721d1-074b-496e-a833-813044b3e8ca)
  )
  (wire (pts (xy 158.75 101.6) (xy 152.4 101.6))
    (stroke (width 0) (type default))
    (uuid 54365317-1355-4216-bb75-829375abc4ec)
  )
  (wire (pts (xy 172.72 35.56) (xy 172.72 105.41))
    (stroke (width 0) (type default))
    (uuid 5528bcad-2950-4673-90eb-c37e6952c475)
  )
  (wire (pts (xy 116.84 120.65) (xy 130.81 120.65))
    (stroke (width 0) (type default))
    (uuid 5fc27c35-3e1c-4f96-817c-93b5570858a6)
  )
  (wire (pts (xy 147.32 67.31) (xy 166.37 67.31))
    (stroke (width 0) (type default))
    (uuid 6441b183-b8f2-458f-a23d-60e2b1f66dd6)
  )
  (wire (pts (xy 170.18 33.02) (xy 170.18 86.36))
    (stroke (width 0) (type default))
    (uuid 66043bca-a260-4915-9fce-8a51d324c687)
  )
  (wire (pts (xy 107.95 67.31) (xy 107.95 30.48))
    (stroke (width 0) (type default))
    (uuid 666713b0-70f4-42df-8761-f65bc212d03b)
  )
  (wire (pts (xy 116.84 63.5) (xy 123.19 63.5))
    (stroke (width 0) (type default))
    (uuid 6a45789b-3855-401f-8139-3c734f7f52f9)
  )
  (wire (pts (xy 123.19 67.31) (xy 107.95 67.31))
    (stroke (width 0) (type default))
    (uuid 6c2e273e-743c-4f1e-a647-4171f8122550)
  )
  (wire (pts (xy 116.84 25.4) (xy 116.84 63.5))
    (stroke (width 0) (type default))
    (uuid 6c9b793c-e74d-4754-a2c0-901e73b26f1c)
  )
  (wire (pts (xy 128.27 109.22) (xy 113.03 109.22))
    (stroke (width 0) (type default))
    (uuid 704d6d51-bb34-4cbf-83d8-841e208048d8)
  )
  (wire (pts (xy 105.41 33.02) (xy 105.41 86.36))
    (stroke (width 0) (type default))
    (uuid 7aed3a71-054b-4aaa-9c0a-030523c32827)
  )
  (wire (pts (xy 196.85 35.56) (xy 172.72 35.56))
    (stroke (width 0) (type default))
    (uuid 7bbf981c-a063-4e30-8911-e4228e1c0743)
  )
  (wire (pts (xy 162.56 90.17) (xy 162.56 109.22))
    (stroke (width 0) (type default))
    (uuid 7bea05d4-1dec-4cd6-aa53-302dde803254)
  )
  (wire (pts (xy 107.95 30.48) (xy 78.74 30.48))
    (stroke (width 0) (type default))
    (uuid 7dc880bc-e7eb-4cce-8d8c-0b65a9dd788e)
  )
  (wire (pts (xy 172.72 105.41) (xy 152.4 105.41))
    (stroke (width 0) (type default))
    (uuid 7edc9030-db7b-43ac-a1b3-b87eeacb4c2d)
  )
  (wire (pts (xy 196.85 27.94) (xy 194.31 27.94))
    (stroke (width 0) (type default))
    (uuid 80094b70-85ab-4ff6-934b-60d5ee65023a)
  )
  (wire (pts (xy 113.03 128.27) (xy 130.81 128.27))
    (stroke (width 0) (type default))
    (uuid 8174b4de-74b1-48db-ab8e-c8432251095b)
  )
  (wire (pts (xy 196.85 33.02) (xy 170.18 33.02))
    (stroke (width 0) (type default))
    (uuid 852dabbf-de45-4470-8176-59d37a754407)
  )
  (wire (pts (xy 78.74 33.02) (xy 105.41 33.02))
    (stroke (width 0) (type default))
    (uuid 9157f4ae-0244-4ff1-9f73-3cb4cbb5f280)
  )
  (wire (pts (xy 158.75 25.4) (xy 194.31 25.4))
    (stroke (width 0) (type default))
    (uuid 922058ca-d09a-45fd-8394-05f3e2c1e03a)
  )
  (wire (pts (xy 162.56 40.64) (xy 162.56 71.12))
    (stroke (width 0) (type default))
    (uuid 9340c285-5767-42d5-8b6d-63fe2a40ddf3)
  )
  (wire (pts (xy 81.28 25.4) (xy 116.84 25.4))
    (stroke (width 0) (type default))
    (uuid 96315415-cfed-47d2-b3dd-d782358bd0df)
  )
  (wire (pts (xy 100.33 124.46) (xy 130.81 124.46))
    (stroke (width 0) (type default))
    (uuid 97fe9c60-586f-4895-8504-4d3729f5f81a)
  )
  (wire (pts (xy 194.31 40.64) (xy 196.85 40.64))
    (stroke (width 0) (type default))
    (uuid 9a8ad8bb-d9a9-4b2b-bc88-ea6fd2676d45)
  )
  (wire (pts (xy 78.74 43.18) (xy 81.28 43.18))
    (stroke (width 0) (type default))
    (uuid 9bb20359-0f8b-45bc-9d38-6626ed3a939d)
  )
  (wire (pts (xy 78.74 27.94) (xy 81.28 27.94))
    (stroke (width 0) (type default))
    (uuid a1823eb2-fb0d-4ed8-8b96-04184ac3a9d5)
  )
  (wire (pts (xy 158.75 82.55) (xy 149.86 82.55))
    (stroke (width 0) (type default))
    (uuid a3e4f0ae-9f86-49e9-b386-ed8b42e012fb)
  )
  (wire (pts (xy 162.56 109.22) (xy 162.56 128.27))
    (stroke (width 0) (type default))
    (uuid a5362821-c161-4c7a-a00c-40e1d7472d56)
  )
  (wire (pts (xy 158.75 25.4) (xy 158.75 63.5))
    (stroke (width 0) (type default))
    (uuid ac264c30-3e9a-4be2-b97a-9949b68bd497)
  )
  (wire (pts (xy 125.73 82.55) (xy 116.84 82.55))
    (stroke (width 0) (type default))
    (uuid b1086f75-01ba-4188-8d36-75a9e2828ca9)
  )
  (wire (pts (xy 166.37 30.48) (xy 196.85 30.48))
    (stroke (width 0) (type default))
    (uuid b5352a33-563a-4ffe-a231-2e68fb54afa3)
  )
  (wire (pts (xy 158.75 82.55) (xy 158.75 101.6))
    (stroke (width 0) (type default))
    (uuid b7aa0362-7c9e-4a42-b191-ab15a38bf3c5)
  )
  (wire (pts (xy 100.33 38.1) (xy 100.33 124.46))
    (stroke (width 0) (type default))
    (uuid bdc7face-9f7c-4701-80bb-4cc144448db1)
  )
  (wire (pts (xy 158.75 63.5) (xy 158.75 82.55))
    (stroke (width 0) (type default))
    (uuid bef2abc2-bf3e-4a72-ad03-f8da3cd893cb)
  )
  (wire (pts (xy 102.87 105.41) (xy 102.87 35.56))
    (stroke (width 0) (type default))
    (uuid c0515cd2-cdaa-467e-8354-0f6eadfa35c9)
  )
  (wire (pts (xy 158.75 63.5) (xy 147.32 63.5))
    (stroke (width 0) (type default))
    (uuid c144caa5-b0d4-4cef-840a-d4ad178a2102)
  )
  (wire (pts (xy 162.56 128.27) (xy 154.94 128.27))
    (stroke (width 0) (type default))
    (uuid c41b3c8b-634e-435a-b582-96b83bbd4032)
  )
  (wire (pts (xy 175.26 38.1) (xy 196.85 38.1))
    (stroke (width 0) (type default))
    (uuid cbd8faed-e1f8-4406-87c8-58b2c504a5d4)
  )
  (wire (pts (xy 113.03 109.22) (xy 113.03 128.27))
    (stroke (width 0) (type default))
    (uuid d05faa1f-5f69-41bf-86d3-2cd224432e1b)
  )
  (wire (pts (xy 194.31 27.94) (xy 194.31 25.4))
    (stroke (width 0) (type default))
    (uuid d4a1d3c4-b315-4bec-9220-d12a9eab51e0)
  )
  (wire (pts (xy 78.74 25.4) (xy 81.28 25.4))
    (stroke (width 0) (type default))
    (uuid d57dcfee-5058-4fc2-a68b-05f9a48f685b)
  )
  (wire (pts (xy 158.75 101.6) (xy 158.75 120.65))
    (stroke (width 0) (type default))
    (uuid dd1edfbb-5fb6-42cd-b740-fd54ab3ef1f1)
  )
  (wire (pts (xy 196.85 43.18) (xy 194.31 43.18))
    (stroke (width 0) (type default))
    (uuid f2c93195-af12-4d3e-acdf-bdd0ff675c24)
  )
  (wire (pts (xy 123.19 71.12) (xy 113.03 71.12))
    (stroke (width 0) (type default))
    (uuid f71da641-16e6-4257-80c3-0b9d804fee4f)
  )
  (wire (pts (xy 113.03 40.64) (xy 113.03 71.12))
    (stroke (width 0) (type default))
    (uuid fd470e95-4861-44fe-b1e4-6d8a7c66e144)
  )

  (label "IN4" (at 85.09 38.1 0) (fields_autoplaced)
    (effects (font (size 1.524 1.524)) (justify left bottom))
    (uuid 0217dfc4-fc13-4699-99ad-d9948522648e)
  )
  (label "IN1" (at 85.09 30.48 0) (fields_autoplaced)
    (effects (font (size 1.524 1.524)) (justify left bottom))
    (uuid 2f215f15-3d52-4c91-93e6-3ea03a95622f)
  )
  (label "IN2" (at 85.09 33.02 0) (fields_autoplaced)
    (effects (font (size 1.524 1.524)) (justify left bottom))
    (uuid 8da933a9-35f8-42e6-8504-d1bab7264306)
  )
  (label "IN3" (at 85.09 35.56 0) (fields_autoplaced)
    (effects (font (size 1.524 1.524)) (justify left bottom))
    (uuid bd5408e4-362d-4e43-9d39-78fb99eb52c8)
  )

  (symbol (lib_id "OptoFast-2-rescue:MTG_HOLE") (at 132.08 186.69 0) (unit 1)
    (in_bom no) (on_board yes) (dnp no)
    (uuid 00000000-0000-0000-0000-0000537a5ca4)
    (property "Reference" "MTG1" (at 132.08 184.15 0)
      (effects (font (size 1.524 1.524)))
    )
    (property "Value" "MTG_HOLE" (at 132.08 189.23 0)
      (effects (font (size 1.524 1.524)))
    )
    (property "Footprint" "MTG-4-40" (at 132.08 191.135 0)
      (effects (font (size 1.524 1.524)))
    )
    (property "Datasheet" "~" (at 132.08 186.69 0)
      (effects (font (size 1.524 1.524)))
    )
    (instances
      (project "OptoFast-2"
        (path "/51c4dc0a-5b9f-4edf-a83f-4a12881e42ef"
          (reference "MTG1") (unit 1)
        )
      )
    )
  )

  (symbol (lib_id "OptoFast-2-rescue:ADAFRUIT_FIDUCIAL") (at 110.49 195.58 0) (unit 1)
    (in_bom no) (on_board yes) (dnp no)
    (uuid 00000000-0000-0000-0000-0000537a5ed2)
    (property "Reference" "FID2" (at 110.49 191.77 0)
      (effects (font (size 1.524 1.524)))
    )
    (property "Value" "ADAFRUIT_FIDUCIAL" (at 111.76 199.39 0)
      (effects (font (size 1.524 1.524)))
    )
    (property "Footprint" "FIDUCIAL" (at 110.49 195.58 0)
      (effects (font (size 1.524 1.524)))
    )
    (property "Datasheet" "~" (at 110.49 195.58 0)
      (effects (font (size 1.524 1.524)))
    )
    (instances
      (project "OptoFast-2"
        (path "/51c4dc0a-5b9f-4edf-a83f-4a12881e42ef"
          (reference "FID2") (unit 1)
        )
      )
    )
  )

  (symbol (lib_id "OptoFast-2-rescue:ADAFRUIT_FIDUCIAL") (at 110.49 185.42 0) (unit 1)
    (in_bom no) (on_board yes) (dnp no)
    (uuid 00000000-0000-0000-0000-0000537a5ee1)
    (property "Reference" "FID1" (at 110.49 182.88 0)
      (effects (font (size 1.524 1.524)))
    )
    (property "Value" "ADAFRUIT_FIDUCIAL" (at 110.49 189.23 0)
      (effects (font (size 1.524 1.524)))
    )
    (property "Footprint" "FIDUCIAL" (at 110.49 185.42 0)
      (effects (font (size 1.524 1.524)))
    )
    (property "Datasheet" "~" (at 110.49 185.42 0)
      (effects (font (size 1.524 1.524)))
    )
    (instances
      (project "OptoFast-2"
        (path "/51c4dc0a-5b9f-4edf-a83f-4a12881e42ef"
          (reference "FID1") (unit 1)
        )
      )
    )
  )

  (symbol (lib_id "OptoFast-2-rescue:MTG_HOLE") (at 132.08 195.58 0) (unit 1)
    (in_bom no) (on_board yes) (dnp no)
    (uuid 00000000-0000-0000-0000-0000538f757a)
    (property "Reference" "MTG2" (at 132.08 193.04 0)
      (effects (font (size 1.524 1.524)))
    )
    (property "Value" "MTG_HOLE" (at 132.08 198.12 0)
      (effects (font (size 1.524 1.524)))
    )
    (property "Footprint" "MTG-4-40" (at 132.08 200.025 0)
      (effects (font (size 1.524 1.524)))
    )
    (property "Datasheet" "~" (at 132.08 195.58 0)
      (effects (font (size 1.524 1.524)))
    )
    (instances
      (project "OptoFast-2"
        (path "/51c4dc0a-5b9f-4edf-a83f-4a12881e42ef"
          (reference "MTG2") (unit 1)
        )
      )
    )
  )

  (symbol (lib_id "OptoFast-2-rescue:MTG_HOLE") (at 147.32 186.69 0) (unit 1)
    (in_bom yes) (on_board no) (dnp no)
    (uuid 00000000-0000-0000-0000-0000538f7580)
    (property "Reference" "MTG3" (at 147.32 184.15 0)
      (effects (font (size 1.524 1.524)))
    )
    (property "Value" "MTG_HOLE" (at 147.32 189.23 0)
      (effects (font (size 1.524 1.524)))
    )
    (property "Footprint" "MTG-4-40" (at 147.32 191.135 0)
      (effects (font (size 1.524 1.524)))
    )
    (property "Datasheet" "~" (at 147.32 186.69 0)
      (effects (font (size 1.524 1.524)))
    )
    (instances
      (project "OptoFast-2"
        (path "/51c4dc0a-5b9f-4edf-a83f-4a12881e42ef"
          (reference "MTG3") (unit 1)
        )
      )
    )
  )

  (symbol (lib_id "OptoFast-2-rescue:MTG_HOLE") (at 147.32 195.58 0) (unit 1)
    (in_bom no) (on_board yes) (dnp no)
    (uuid 00000000-0000-0000-0000-0000538f7586)
    (property "Reference" "MTG4" (at 147.32 193.04 0)
      (effects (font (size 1.524 1.524)))
    )
    (property "Value" "MTG_HOLE" (at 147.32 198.12 0)
      (effects (font (size 1.524 1.524)))
    )
    (property "Footprint" "MTG-4-40" (at 147.32 200.025 0)
      (effects (font (size 1.524 1.524)))
    )
    (property "Datasheet" "~" (at 147.32 195.58 0)
      (effects (font (size 1.524 1.524)))
    )
    (instances
      (project "OptoFast-2"
        (path "/51c4dc0a-5b9f-4edf-a83f-4a12881e42ef"
          (reference "MTG4") (unit 1)
        )
      )
    )
  )

  (symbol (lib_id "OptoFast-2-rescue:CONN_01X08") (at 73.66 34.29 0) (mirror y) (unit 1)
    (in_bom yes) (on_board yes) (dnp no)
    (uuid 00000000-0000-0000-0000-0000557ebb19)
    (property "Reference" "P1" (at 73.66 22.86 0)
      (effects (font (size 1.27 1.27)))
    )
    (property "Value" "CONN_01X08" (at 71.12 34.29 90)
      (effects (font (size 1.27 1.27)))
    )
    (property "Footprint" "Pin_Headers:Pin_Header_Straight_1x08" (at 73.66 45.72 0)
      (effects (font (size 1.524 1.524)))
    )
    (property "Datasheet" "" (at 73.66 34.29 0)
      (effects (font (size 1.524 1.524)))
    )
    (pin "1" (uuid 29bb7297-26fb-4776-9266-2355d022bab0))
    (pin "2" (uuid cb6062da-8dcd-4826-92fd-4071e9e97213))
    (pin "3" (uuid 36d783e7-096f-4c97-9672-7e08c083b87b))
    (pin "4" (uuid 0a1a4d88-972a-46ce-b25e-6cb796bd41f7))
    (pin "5" (uuid c9b9e62d-dede-4d1a-9a05-275614f8bdb2))
    (pin "6" (uuid bdf40d30-88ff-4479-bad1-69529464b61b))
    (pin "7" (uuid 57276367-9ce4-4738-88d7-6e8cb94c966c))
    (pin "8" (uuid e5217a0c-7f55-4c30-adda-7f8d95709d1b))
    (instances
      (project "OptoFast-2"
        (path "/51c4dc0a-5b9f-4edf-a83f-4a12881e42ef"
          (reference "P1") (unit 1)
        )
      )
    )
  )

  (symbol (lib_id "OptoFast-2-rescue:CONN_01X08") (at 201.93 34.29 0) (unit 1)
    (in_bom yes) (on_board yes) (dnp no)
    (uuid 00000000-0000-0000-0000-0000557ec371)
    (property "Reference" "P2" (at 201.93 22.86 0)
      (effects (font (size 1.27 1.27)))
    )
    (property "Value" "CONN_01X08" (at 204.47 34.29 90)
      (effects (font (size 1.27 1.27)))
    )
    (property "Footprint" "Pin_Headers:Pin_Header_Straight_1x08" (at 201.93 45.72 0)
      (effects (font (size 1.524 1.524)))
    )
    (property "Datasheet" "" (at 201.93 34.29 0)
      (effects (font (size 1.524 1.524)))
    )
    (pin "1" (uuid 42ff012d-5eb7-42b9-bb45-415cf26799c6))
    (pin "2" (uuid 3f8a5430-68a9-4732-9b89-4e00dd8ae219))
    (pin "3" (uuid 96de0051-7945-413a-9219-1ab367546962))
    (pin "4" (uuid 2db910a0-b943-40b4-b81f-068ba5265f56))
    (pin "5" (uuid f8bd6470-fafd-47f2-8ed5-9449988187ce))
    (pin "6" (uuid 22bb6c80-05a9-4d89-98b0-f4c23fe6c1ce))
    (pin "7" (uuid 802c2dc3-ca9f-491e-9d66-7893e89ac34c))
    (pin "8" (uuid eed466bf-cd88-4860-9abf-41a594ca08bd))
    (instances
      (project "OptoFast-2"
        (path "/51c4dc0a-5b9f-4edf-a83f-4a12881e42ef"
          (reference "P2") (unit 1)
        )
      )
    )
  )

  (symbol (lib_id "OptoFast-2-rescue:COUPON") (at 78.74 196.85 0) (unit 1)
    (in_bom no) (on_board yes) (dnp no)
    (uuid 00000000-0000-0000-0000-00005857feaf)
    (property "Reference" "COUP?1" (at 78.74 196.85 0)
      (effects (font (size 1.524 1.524)))
    )
    (property "Value" "COUPON" (at 78.74 196.85 0)
      (effects (font (size 1.524 1.524)))
    )
    (property "Footprint" "LandBoards_Marking:TEST_BLK-REAR" (at 78.74 199.39 0)
      (effects (font (size 1.524 1.524)))
    )
    (property "Datasheet" "" (at 78.74 196.85 0)
      (effects (font (size 1.524 1.524)))
    )
    (instances
      (project "OptoFast-2"
        (path "/51c4dc0a-5b9f-4edf-a83f-4a12881e42ef"
          (reference "COUP?1") (unit 1)
        )
      )
    )
  )

  (sheet (at 123.19 60.96) (size 24.13 13.97) (fields_autoplaced)
    (stroke (width 0) (type solid))
    (fill (color 0 0 0 0.0000))
    (uuid 00000000-0000-0000-0000-0000557b9c27)
    (property "Sheetname" "OptoBlk1" (at 123.19 60.1214 0)
      (effects (font (size 1.524 1.524)) (justify left bottom))
    )
    (property "Sheetfile" "OptoBlock.kicad_sch" (at 123.19 75.6162 0)
      (effects (font (size 1.524 1.524)) (justify left top))
    )
    (pin "VCC1" input (at 123.19 63.5 180)
      (effects (font (size 2.0066 2.0066)) (justify left))
      (uuid a7520ad3-0f8b-4788-92d4-8ffb277041e6)
    )
    (pin "IN1" input (at 123.19 67.31 180)
      (effects (font (size 2.0066 2.0066)) (justify left))
      (uuid a795f1ba-cdd5-4cc5-9a52-08586e982934)
    )
    (pin "GND1" input (at 123.19 71.12 180)
      (effects (font (size 2.0066 2.0066)) (justify left))
      (uuid 46918595-4a45-48e8-84c0-961b4db7f35f)
    )
    (pin "VCC2" output (at 147.32 63.5 0)
      (effects (font (size 2.0066 2.0066)) (justify right))
      (uuid 9ccf03e8-755a-4cd9-96fc-30e1d08fa253)
    )
    (pin "OUT" output (at 147.32 67.31 0)
      (effects (font (size 2.0066 2.0066)) (justify right))
      (uuid 94c158d1-8503-4553-b511-bf42f506c2a8)
    )
    (pin "GND2" output (at 147.32 71.12 0)
      (effects (font (size 2.0066 2.0066)) (justify right))
      (uuid 23bb2798-d93a-4696-a962-c305c4298a0c)
    )
    (instances
      (project "OptoFast-2"
        (path "/51c4dc0a-5b9f-4edf-a83f-4a12881e42ef" (page "2"))
      )
    )
  )

  (sheet (at 125.73 80.01) (size 24.13 13.97) (fields_autoplaced)
    (stroke (width 0) (type solid))
    (fill (color 0 0 0 0.0000))
    (uuid 00000000-0000-0000-0000-0000557bcf63)
    (property "Sheetname" "OptoBlk2" (at 125.73 79.1714 0)
      (effects (font (size 1.524 1.524)) (justify left bottom))
    )
    (property "Sheetfile" "OptoBlock.kicad_sch" (at 125.73 94.6662 0)
      (effects (font (size 1.524 1.524)) (justify left top))
    )
    (pin "VCC1" input (at 125.73 82.55 180)
      (effects (font (size 2.0066 2.0066)) (justify left))
      (uuid c1d83899-e380-49f9-a87d-8e78bc089ebf)
    )
    (pin "IN1" input (at 125.73 86.36 180)
      (effects (font (size 2.0066 2.0066)) (justify left))
      (uuid e9bb29b2-2bb9-4ea2-acd9-2bb3ca677a12)
    )
    (pin "GND1" input (at 125.73 90.17 180)
      (effects (font (size 2.0066 2.0066)) (justify left))
      (uuid 62c076a3-d618-44a2-9042-9a08b3576787)
    )
    (pin "VCC2" output (at 149.86 82.55 0)
      (effects (font (size 2.0066 2.0066)) (justify right))
      (uuid da469d11-a8a4-414b-9449-d151eeaf4853)
    )
    (pin "OUT" output (at 149.86 86.36 0)
      (effects (font (size 2.0066 2.0066)) (justify right))
      (uuid afb8e687-4a13-41a1-b8c0-89a749e897fe)
    )
    (pin "GND2" output (at 149.86 90.17 0)
      (effects (font (size 2.0066 2.0066)) (justify right))
      (uuid 5cbb5968-dbb5-4b84-864a-ead1cacf75b9)
    )
    (instances
      (project "OptoFast-2"
        (path "/51c4dc0a-5b9f-4edf-a83f-4a12881e42ef" (page "3"))
      )
    )
  )

  (sheet (at 128.27 99.06) (size 24.13 13.97) (fields_autoplaced)
    (stroke (width 0) (type solid))
    (fill (color 0 0 0 0.0000))
    (uuid 00000000-0000-0000-0000-0000557bd8a1)
    (property "Sheetname" "OptoBlk3" (at 128.27 98.2214 0)
      (effects (font (size 1.524 1.524)) (justify left bottom))
    )
    (property "Sheetfile" "OptoBlock.kicad_sch" (at 128.27 113.7162 0)
      (effects (font (size 1.524 1.524)) (justify left top))
    )
    (pin "VCC1" input (at 128.27 101.6 180)
      (effects (font (size 2.0066 2.0066)) (justify left))
      (uuid 6a955fc7-39d9-4c75-9a69-676ca8c0b9b2)
    )
    (pin "IN1" input (at 128.27 105.41 180)
      (effects (font (size 2.0066 2.0066)) (justify left))
      (uuid e8314017-7be6-4011-9179-37449a29b311)
    )
    (pin "GND1" input (at 128.27 109.22 180)
      (effects (font (size 2.0066 2.0066)) (justify left))
      (uuid e10b5627-3247-4c86-b9f6-ef474ca11543)
    )
    (pin "VCC2" output (at 152.4 101.6 0)
      (effects (font (size 2.0066 2.0066)) (justify right))
      (uuid 746ba970-8279-4e7b-aed3-f28687777c21)
    )
    (pin "OUT" output (at 152.4 105.41 0)
      (effects (font (size 2.0066 2.0066)) (justify right))
      (uuid 71c31975-2c45-4d18-a25a-18e07a55d11e)
    )
    (pin "GND2" output (at 152.4 109.22 0)
      (effects (font (size 2.0066 2.0066)) (justify right))
      (uuid 10109f84-4940-47f8-8640-91f185ac9bc1)
    )
    (instances
      (project "OptoFast-2"
        (path "/51c4dc0a-5b9f-4edf-a83f-4a12881e42ef" (page "4"))
      )
    )
  )

  (sheet (at 130.81 118.11) (size 24.13 13.97) (fields_autoplaced)
    (stroke (width 0) (type solid))
    (fill (color 0 0 0 0.0000))
    (uuid 00000000-0000-0000-0000-0000557bd8a9)
    (property "Sheetname" "OptoBlk4" (at 130.81 117.2714 0)
      (effects (font (size 1.524 1.524)) (justify left bottom))
    )
    (property "Sheetfile" "OptoBlock.kicad_sch" (at 130.81 132.7662 0)
      (effects (font (size 1.524 1.524)) (justify left top))
    )
    (pin "VCC1" input (at 130.81 120.65 180)
      (effects (font (size 2.0066 2.0066)) (justify left))
      (uuid 47baf4b1-0938-497d-88f9-671136aa8be7)
    )
    (pin "IN1" input (at 130.81 124.46 180)
      (effects (font (size 2.0066 2.0066)) (justify left))
      (uuid 77ed3941-d133-4aef-a9af-5a39322d14eb)
    )
    (pin "GND1" input (at 130.81 128.27 180)
      (effects (font (size 2.0066 2.0066)) (justify left))
      (uuid e615f7aa-337e-474d-9615-2ad82b1c44ca)
    )
    (pin "VCC2" output (at 154.94 120.65 0)
      (effects (font (size 2.0066 2.0066)) (justify right))
      (uuid 4fb02e58-160a-4a39-9f22-d0c75e82ee72)
    )
    (pin "OUT" output (at 154.94 124.46 0)
      (effects (font (size 2.0066 2.0066)) (justify right))
      (uuid ef8fe2ac-6a7f-4682-9418-b801a1b10a3b)
    )
    (pin "GND2" output (at 154.94 128.27 0)
      (effects (font (size 2.0066 2.0066)) (justify right))
      (uuid 44d8279a-9cd1-4db6-856f-0363131605fc)
    )
    (instances
      (project "OptoFast-2"
        (path "/51c4dc0a-5b9f-4edf-a83f-4a12881e42ef" (page "5"))
      )
    )
  )

  (sheet_instances
    (path "/" (page "1"))
  )
)
