(kicad_sch (version 20230121) (generator eeschema)

  (uuid 777656f5-5f25-4ab5-a100-8dd280119b22)

  (paper "A4")

  (lib_symbols
    (symbol "Connector_Generic:Conn_01x04" (pin_names (offset 1.016) hide) (in_bom yes) (on_board yes)
      (property "Reference" "J" (at 0 5.08 0)
        (effects (font (size 1.27 1.27)))
      )
      (property "Value" "Conn_01x04" (at 0 -7.62 0)
        (effects (font (size 1.27 1.27)))
      )
      (property "Footprint" "" (at 0 0 0)
        (effects (font (size 1.27 1.27)) hide)
      )
      (property "Datasheet" "~" (at 0 0 0)
        (effects (font (size 1.27 1.27)) hide)
      )
      (property "ki_keywords" "connector" (at 0 0 0)
        (effects (font (size 1.27 1.27)) hide)
      )
      (property "ki_description" "Generic connector, single row, 01x04, script generated (kicad-library-utils/schlib/autogen/connector/)" (at 0 0 0)
        (effects (font (size 1.27 1.27)) hide)
      )
      (property "ki_fp_filters" "Connector*:*_1x??_*" (at 0 0 0)
        (effects (font (size 1.27 1.27)) hide)
      )
      (symbol "Conn_01x04_1_1"
        (rectangle (start -1.27 -4.953) (end 0 -5.207)
          (stroke (width 0.1524) (type default))
          (fill (type none))
        )
        (rectangle (start -1.27 -2.413) (end 0 -2.667)
          (stroke (width 0.1524) (type default))
          (fill (type none))
        )
        (rectangle (start -1.27 0.127) (end 0 -0.127)
          (stroke (width 0.1524) (type default))
          (fill (type none))
        )
        (rectangle (start -1.27 2.667) (end 0 2.413)
          (stroke (width 0.1524) (type default))
          (fill (type none))
        )
        (rectangle (start -1.27 3.81) (end 1.27 -6.35)
          (stroke (width 0.254) (type default))
          (fill (type background))
        )
        (pin passive line (at -5.08 2.54 0) (length 3.81)
          (name "Pin_1" (effects (font (size 1.27 1.27))))
          (number "1" (effects (font (size 1.27 1.27))))
        )
        (pin passive line (at -5.08 0 0) (length 3.81)
          (name "Pin_2" (effects (font (size 1.27 1.27))))
          (number "2" (effects (font (size 1.27 1.27))))
        )
        (pin passive line (at -5.08 -2.54 0) (length 3.81)
          (name "Pin_3" (effects (font (size 1.27 1.27))))
          (number "3" (effects (font (size 1.27 1.27))))
        )
        (pin passive line (at -5.08 -5.08 0) (length 3.81)
          (name "Pin_4" (effects (font (size 1.27 1.27))))
          (number "4" (effects (font (size 1.27 1.27))))
        )
      )
    )
    (symbol "Connector_Generic:Conn_01x06" (pin_names (offset 1.016) hide) (in_bom yes) (on_board yes)
      (property "Reference" "J" (at 0 7.62 0)
        (effects (font (size 1.27 1.27)))
      )
      (property "Value" "Conn_01x06" (at 0 -10.16 0)
        (effects (font (size 1.27 1.27)))
      )
      (property "Footprint" "" (at 0 0 0)
        (effects (font (size 1.27 1.27)) hide)
      )
      (property "Datasheet" "~" (at 0 0 0)
        (effects (font (size 1.27 1.27)) hide)
      )
      (property "ki_keywords" "connector" (at 0 0 0)
        (effects (font (size 1.27 1.27)) hide)
      )
      (property "ki_description" "Generic connector, single row, 01x06, script generated (kicad-library-utils/schlib/autogen/connector/)" (at 0 0 0)
        (effects (font (size 1.27 1.27)) hide)
      )
      (property "ki_fp_filters" "Connector*:*_1x??_*" (at 0 0 0)
        (effects (font (size 1.27 1.27)) hide)
      )
      (symbol "Conn_01x06_1_1"
        (rectangle (start -1.27 -7.493) (end 0 -7.747)
          (stroke (width 0.1524) (type default))
          (fill (type none))
        )
        (rectangle (start -1.27 -4.953) (end 0 -5.207)
          (stroke (width 0.1524) (type default))
          (fill (type none))
        )
        (rectangle (start -1.27 -2.413) (end 0 -2.667)
          (stroke (width 0.1524) (type default))
          (fill (type none))
        )
        (rectangle (start -1.27 0.127) (end 0 -0.127)
          (stroke (width 0.1524) (type default))
          (fill (type none))
        )
        (rectangle (start -1.27 2.667) (end 0 2.413)
          (stroke (width 0.1524) (type default))
          (fill (type none))
        )
        (rectangle (start -1.27 5.207) (end 0 4.953)
          (stroke (width 0.1524) (type default))
          (fill (type none))
        )
        (rectangle (start -1.27 6.35) (end 1.27 -8.89)
          (stroke (width 0.254) (type default))
          (fill (type background))
        )
        (pin passive line (at -5.08 5.08 0) (length 3.81)
          (name "Pin_1" (effects (font (size 1.27 1.27))))
          (number "1" (effects (font (size 1.27 1.27))))
        )
        (pin passive line (at -5.08 2.54 0) (length 3.81)
          (name "Pin_2" (effects (font (size 1.27 1.27))))
          (number "2" (effects (font (size 1.27 1.27))))
        )
        (pin passive line (at -5.08 0 0) (length 3.81)
          (name "Pin_3" (effects (font (size 1.27 1.27))))
          (number "3" (effects (font (size 1.27 1.27))))
        )
        (pin passive line (at -5.08 -2.54 0) (length 3.81)
          (name "Pin_4" (effects (font (size 1.27 1.27))))
          (number "4" (effects (font (size 1.27 1.27))))
        )
        (pin passive line (at -5.08 -5.08 0) (length 3.81)
          (name "Pin_5" (effects (font (size 1.27 1.27))))
          (number "5" (effects (font (size 1.27 1.27))))
        )
        (pin passive line (at -5.08 -7.62 0) (length 3.81)
          (name "Pin_6" (effects (font (size 1.27 1.27))))
          (number "6" (effects (font (size 1.27 1.27))))
        )
      )
    )
    (symbol "Connector_Generic:Conn_02x03_Counter_Clockwise" (pin_names (offset 1.016) hide) (in_bom yes) (on_board yes)
      (property "Reference" "J" (at 1.27 5.08 0)
        (effects (font (size 1.27 1.27)))
      )
      (property "Value" "Conn_02x03_Counter_Clockwise" (at 1.27 -5.08 0)
        (effects (font (size 1.27 1.27)))
      )
      (property "Footprint" "" (at 0 0 0)
        (effects (font (size 1.27 1.27)) hide)
      )
      (property "Datasheet" "~" (at 0 0 0)
        (effects (font (size 1.27 1.27)) hide)
      )
      (property "ki_keywords" "connector" (at 0 0 0)
        (effects (font (size 1.27 1.27)) hide)
      )
      (property "ki_description" "Generic connector, double row, 02x03, counter clockwise pin numbering scheme (similar to DIP package numbering), script generated (kicad-library-utils/schlib/autogen/connector/)" (at 0 0 0)
        (effects (font (size 1.27 1.27)) hide)
      )
      (property "ki_fp_filters" "Connector*:*_2x??_*" (at 0 0 0)
        (effects (font (size 1.27 1.27)) hide)
      )
      (symbol "Conn_02x03_Counter_Clockwise_1_1"
        (rectangle (start -1.27 -2.413) (end 0 -2.667)
          (stroke (width 0.1524) (type default))
          (fill (type none))
        )
        (rectangle (start -1.27 0.127) (end 0 -0.127)
          (stroke (width 0.1524) (type default))
          (fill (type none))
        )
        (rectangle (start -1.27 2.667) (end 0 2.413)
          (stroke (width 0.1524) (type default))
          (fill (type none))
        )
        (rectangle (start -1.27 3.81) (end 3.81 -3.81)
          (stroke (width 0.254) (type default))
          (fill (type background))
        )
        (rectangle (start 3.81 -2.413) (end 2.54 -2.667)
          (stroke (width 0.1524) (type default))
          (fill (type none))
        )
        (rectangle (start 3.81 0.127) (end 2.54 -0.127)
          (stroke (width 0.1524) (type default))
          (fill (type none))
        )
        (rectangle (start 3.81 2.667) (end 2.54 2.413)
          (stroke (width 0.1524) (type default))
          (fill (type none))
        )
        (pin passive line (at -5.08 2.54 0) (length 3.81)
          (name "Pin_1" (effects (font (size 1.27 1.27))))
          (number "1" (effects (font (size 1.27 1.27))))
        )
        (pin passive line (at -5.08 0 0) (length 3.81)
          (name "Pin_2" (effects (font (size 1.27 1.27))))
          (number "2" (effects (font (size 1.27 1.27))))
        )
        (pin passive line (at -5.08 -2.54 0) (length 3.81)
          (name "Pin_3" (effects (font (size 1.27 1.27))))
          (number "3" (effects (font (size 1.27 1.27))))
        )
        (pin passive line (at 7.62 -2.54 180) (length 3.81)
          (name "Pin_4" (effects (font (size 1.27 1.27))))
          (number "4" (effects (font (size 1.27 1.27))))
        )
        (pin passive line (at 7.62 0 180) (length 3.81)
          (name "Pin_5" (effects (font (size 1.27 1.27))))
          (number "5" (effects (font (size 1.27 1.27))))
        )
        (pin passive line (at 7.62 2.54 180) (length 3.81)
          (name "Pin_6" (effects (font (size 1.27 1.27))))
          (number "6" (effects (font (size 1.27 1.27))))
        )
      )
    )
    (symbol "Jumper:SolderJumper_2_Open" (pin_names (offset 0) hide) (in_bom yes) (on_board yes)
      (property "Reference" "JP" (at 0 2.032 0)
        (effects (font (size 1.27 1.27)))
      )
      (property "Value" "SolderJumper_2_Open" (at 0 -2.54 0)
        (effects (font (size 1.27 1.27)))
      )
      (property "Footprint" "" (at 0 0 0)
        (effects (font (size 1.27 1.27)) hide)
      )
      (property "Datasheet" "~" (at 0 0 0)
        (effects (font (size 1.27 1.27)) hide)
      )
      (property "ki_keywords" "solder jumper SPST" (at 0 0 0)
        (effects (font (size 1.27 1.27)) hide)
      )
      (property "ki_description" "Solder Jumper, 2-pole, open" (at 0 0 0)
        (effects (font (size 1.27 1.27)) hide)
      )
      (property "ki_fp_filters" "SolderJumper*Open*" (at 0 0 0)
        (effects (font (size 1.27 1.27)) hide)
      )
      (symbol "SolderJumper_2_Open_0_1"
        (arc (start -0.254 1.016) (mid -1.2656 0) (end -0.254 -1.016)
          (stroke (width 0) (type default))
          (fill (type none))
        )
        (arc (start -0.254 1.016) (mid -1.2656 0) (end -0.254 -1.016)
          (stroke (width 0) (type default))
          (fill (type outline))
        )
        (polyline
          (pts
            (xy -0.254 1.016)
            (xy -0.254 -1.016)
          )
          (stroke (width 0) (type default))
          (fill (type none))
        )
        (polyline
          (pts
            (xy 0.254 1.016)
            (xy 0.254 -1.016)
          )
          (stroke (width 0) (type default))
          (fill (type none))
        )
        (arc (start 0.254 -1.016) (mid 1.2656 0) (end 0.254 1.016)
          (stroke (width 0) (type default))
          (fill (type none))
        )
        (arc (start 0.254 -1.016) (mid 1.2656 0) (end 0.254 1.016)
          (stroke (width 0) (type default))
          (fill (type outline))
        )
      )
      (symbol "SolderJumper_2_Open_1_1"
        (pin passive line (at -3.81 0 0) (length 2.54)
          (name "A" (effects (font (size 1.27 1.27))))
          (number "1" (effects (font (size 1.27 1.27))))
        )
        (pin passive line (at 3.81 0 180) (length 2.54)
          (name "B" (effects (font (size 1.27 1.27))))
          (number "2" (effects (font (size 1.27 1.27))))
        )
      )
    )
    (symbol "power:+15V" (power) (pin_names (offset 0)) (in_bom yes) (on_board yes)
      (property "Reference" "#PWR" (at 0 -3.81 0)
        (effects (font (size 1.27 1.27)) hide)
      )
      (property "Value" "+15V" (at 0 3.556 0)
        (effects (font (size 1.27 1.27)))
      )
      (property "Footprint" "" (at 0 0 0)
        (effects (font (size 1.27 1.27)) hide)
      )
      (property "Datasheet" "" (at 0 0 0)
        (effects (font (size 1.27 1.27)) hide)
      )
      (property "ki_keywords" "global power" (at 0 0 0)
        (effects (font (size 1.27 1.27)) hide)
      )
      (property "ki_description" "Power symbol creates a global label with name \"+15V\"" (at 0 0 0)
        (effects (font (size 1.27 1.27)) hide)
      )
      (symbol "+15V_0_1"
        (polyline
          (pts
            (xy -0.762 1.27)
            (xy 0 2.54)
          )
          (stroke (width 0) (type default))
          (fill (type none))
        )
        (polyline
          (pts
            (xy 0 0)
            (xy 0 2.54)
          )
          (stroke (width 0) (type default))
          (fill (type none))
        )
        (polyline
          (pts
            (xy 0 2.54)
            (xy 0.762 1.27)
          )
          (stroke (width 0) (type default))
          (fill (type none))
        )
      )
      (symbol "+15V_1_1"
        (pin power_in line (at 0 0 90) (length 0) hide
          (name "+15V" (effects (font (size 1.27 1.27))))
          (number "1" (effects (font (size 1.27 1.27))))
        )
      )
    )
    (symbol "power:+3.3V" (power) (pin_names (offset 0)) (in_bom yes) (on_board yes)
      (property "Reference" "#PWR" (at 0 -3.81 0)
        (effects (font (size 1.27 1.27)) hide)
      )
      (property "Value" "+3.3V" (at 0 3.556 0)
        (effects (font (size 1.27 1.27)))
      )
      (property "Footprint" "" (at 0 0 0)
        (effects (font (size 1.27 1.27)) hide)
      )
      (property "Datasheet" "" (at 0 0 0)
        (effects (font (size 1.27 1.27)) hide)
      )
      (property "ki_keywords" "global power" (at 0 0 0)
        (effects (font (size 1.27 1.27)) hide)
      )
      (property "ki_description" "Power symbol creates a global label with name \"+3.3V\"" (at 0 0 0)
        (effects (font (size 1.27 1.27)) hide)
      )
      (symbol "+3.3V_0_1"
        (polyline
          (pts
            (xy -0.762 1.27)
            (xy 0 2.54)
          )
          (stroke (width 0) (type default))
          (fill (type none))
        )
        (polyline
          (pts
            (xy 0 0)
            (xy 0 2.54)
          )
          (stroke (width 0) (type default))
          (fill (type none))
        )
        (polyline
          (pts
            (xy 0 2.54)
            (xy 0.762 1.27)
          )
          (stroke (width 0) (type default))
          (fill (type none))
        )
      )
      (symbol "+3.3V_1_1"
        (pin power_in line (at 0 0 90) (length 0) hide
          (name "+3.3V" (effects (font (size 1.27 1.27))))
          (number "1" (effects (font (size 1.27 1.27))))
        )
      )
    )
    (symbol "power:GND" (power) (pin_names (offset 0)) (in_bom yes) (on_board yes)
      (property "Reference" "#PWR" (at 0 -6.35 0)
        (effects (font (size 1.27 1.27)) hide)
      )
      (property "Value" "GND" (at 0 -3.81 0)
        (effects (font (size 1.27 1.27)))
      )
      (property "Footprint" "" (at 0 0 0)
        (effects (font (size 1.27 1.27)) hide)
      )
      (property "Datasheet" "" (at 0 0 0)
        (effects (font (size 1.27 1.27)) hide)
      )
      (property "ki_keywords" "global power" (at 0 0 0)
        (effects (font (size 1.27 1.27)) hide)
      )
      (property "ki_description" "Power symbol creates a global label with name \"GND\" , ground" (at 0 0 0)
        (effects (font (size 1.27 1.27)) hide)
      )
      (symbol "GND_0_1"
        (polyline
          (pts
            (xy 0 0)
            (xy 0 -1.27)
            (xy 1.27 -1.27)
            (xy 0 -2.54)
            (xy -1.27 -1.27)
            (xy 0 -1.27)
          )
          (stroke (width 0) (type default))
          (fill (type none))
        )
      )
      (symbol "GND_1_1"
        (pin power_in line (at 0 0 270) (length 0) hide
          (name "GND" (effects (font (size 1.27 1.27))))
          (number "1" (effects (font (size 1.27 1.27))))
        )
      )
    )
  )


  (wire (pts (xy 129.54 118.11) (xy 151.13 118.11))
    (stroke (width 0) (type default))
    (uuid 0c35a2f8-77b2-4e15-b3c4-c73051584922)
  )
  (wire (pts (xy 124.46 59.69) (xy 119.38 59.69))
    (stroke (width 0) (type default))
    (uuid 3b34282c-e597-4385-8143-c430ff4910f4)
  )
  (wire (pts (xy 119.38 62.23) (xy 123.19 62.23))
    (stroke (width 0) (type default))
    (uuid 5b7ba223-a453-4d2b-81a6-b10d6a27dd1d)
  )
  (wire (pts (xy 124.46 57.15) (xy 124.46 59.69))
    (stroke (width 0) (type default))
    (uuid 7f02103a-1723-41e9-8097-b2058ea6f2c2)
  )
  (wire (pts (xy 129.54 113.03) (xy 138.43 113.03))
    (stroke (width 0) (type default))
    (uuid a1c17aad-2a63-48ea-b28e-df720bb023f7)
  )
  (wire (pts (xy 129.54 115.57) (xy 138.43 115.57))
    (stroke (width 0) (type default))
    (uuid da5647b4-b178-4f7e-b5f6-b619730367e7)
  )
  (wire (pts (xy 129.54 110.49) (xy 138.43 110.49))
    (stroke (width 0) (type default))
    (uuid ea505035-af56-4f4e-a1da-4408d873770c)
  )
  (wire (pts (xy 151.13 118.11) (xy 151.13 115.57))
    (stroke (width 0) (type default))
    (uuid eb783930-422d-47ae-8bb9-22259ff97bba)
  )

  (label "L_OUT" (at 180.34 76.2 180) (fields_autoplaced)
    (effects (font (size 1.27 1.27)) (justify right bottom))
    (uuid 2be8bd74-9700-4bf0-8924-d5449a218b50)
  )
  (label "H_OUT" (at 180.34 86.36 180) (fields_autoplaced)
    (effects (font (size 1.27 1.27)) (justify right bottom))
    (uuid 933c8593-795a-46b2-a33c-88daa6bf2b31)
  )
  (label "GND_OUT" (at 138.43 110.49 180) (fields_autoplaced)
    (effects (font (size 1.27 1.27)) (justify right bottom))
    (uuid a198c291-9478-4463-87c4-5f6f8cd7eb0e)
  )
  (label "LOCKOUT" (at 180.34 66.04 180) (fields_autoplaced)
    (effects (font (size 1.27 1.27)) (justify right bottom))
    (uuid a5113c0f-6666-48eb-9d0e-62ebd81805e1)
  )
  (label "H_OUT" (at 138.43 113.03 180) (fields_autoplaced)
    (effects (font (size 1.27 1.27)) (justify right bottom))
    (uuid b3df08ac-d9c5-40b2-9eb8-1296afaf37ac)
  )
  (label "LOCKOUT" (at 151.13 118.11 0) (fields_autoplaced)
    (effects (font (size 1.27 1.27)) (justify left bottom))
    (uuid ccd8c194-3dcd-4ae9-af9e-3361e20ac055)
  )
  (label "GND_OUT" (at 180.34 96.52 180) (fields_autoplaced)
    (effects (font (size 1.27 1.27)) (justify right bottom))
    (uuid e137fbd0-5eac-44d7-9201-5e010a25e6f0)
  )
  (label "L_OUT" (at 138.43 115.57 180) (fields_autoplaced)
    (effects (font (size 1.27 1.27)) (justify right bottom))
    (uuid e8b2803d-0065-4f78-bd7c-1210c4fe016e)
  )

  (global_label "POWER_STAGE_LOCKOUT" (shape input) (at 187.96 66.04 0) (fields_autoplaced)
    (effects (font (size 1.27 1.27)) (justify left))
    (uuid 95614c19-a447-42de-8423-cedc135d5afb)
    (property "Intersheetrefs" "${INTERSHEET_REFS}" (at 212.8296 66.04 0)
      (effects (font (size 1.27 1.27)) (justify left) hide)
    )
  )
  (global_label "POWER_STAGE_LOCKOUT" (shape input) (at 119.38 64.77 0) (fields_autoplaced)
    (effects (font (size 1.27 1.27)) (justify left))
    (uuid 9ae42d09-7fdc-460d-8152-0fba2653c577)
    (property "Intersheetrefs" "${INTERSHEET_REFS}" (at 144.2496 64.77 0)
      (effects (font (size 1.27 1.27)) (justify left) hide)
    )
  )

  (hierarchical_label "L" (shape input) (at 119.38 67.31 0) (fields_autoplaced)
    (effects (font (size 1.27 1.27)) (justify left))
    (uuid 010ae0c9-336d-45aa-b270-3388ad7e49cd)
  )
  (hierarchical_label "L" (shape input) (at 187.96 76.2 0) (fields_autoplaced)
    (effects (font (size 1.27 1.27)) (justify left))
    (uuid 0e006ffa-d45c-4b44-a9a6-4291f2142dc0)
  )
  (hierarchical_label "H" (shape input) (at 187.96 86.36 0) (fields_autoplaced)
    (effects (font (size 1.27 1.27)) (justify left))
    (uuid 14e157c5-42ac-499e-8ca8-1d176caeea62)
  )
  (hierarchical_label "H" (shape input) (at 119.38 69.85 0) (fields_autoplaced)
    (effects (font (size 1.27 1.27)) (justify left))
    (uuid e7c94898-73ba-4bda-92b5-cb5a3efed7ca)
  )

  (symbol (lib_id "power:+15V") (at 124.46 57.15 0) (mirror y) (unit 1)
    (in_bom yes) (on_board yes) (dnp no) (fields_autoplaced)
    (uuid 0c503b97-7cde-422f-9442-02bad9ea6cfa)
    (property "Reference" "#PWR089" (at 124.46 60.96 0)
      (effects (font (size 1.27 1.27)) hide)
    )
    (property "Value" "+15V" (at 124.46 52.07 0)
      (effects (font (size 1.27 1.27)))
    )
    (property "Footprint" "" (at 124.46 57.15 0)
      (effects (font (size 1.27 1.27)) hide)
    )
    (property "Datasheet" "" (at 124.46 57.15 0)
      (effects (font (size 1.27 1.27)) hide)
    )
    (pin "1" (uuid 6a60ebd6-bad8-4743-9341-a834b9acecac))
    (instances
      (project "DevKit"
        (path "/768a484b-8a27-40cf-8cad-0f63935b1af0/de95985c-773b-4c54-94d0-28826fc0c854"
          (reference "#PWR089") (unit 1)
        )
        (path "/768a484b-8a27-40cf-8cad-0f63935b1af0/d3d3a06e-f81d-4927-9a88-9ed5502f322c"
          (reference "#PWR091") (unit 1)
        )
        (path "/768a484b-8a27-40cf-8cad-0f63935b1af0/04d6ed87-6b10-45aa-8255-84943212068b"
          (reference "#PWR099") (unit 1)
        )
        (path "/768a484b-8a27-40cf-8cad-0f63935b1af0/693754e5-6fc9-4123-abfe-2e1335cfdb84"
          (reference "#PWR0107") (unit 1)
        )
      )
    )
  )

  (symbol (lib_id "Connector_Generic:Conn_01x04") (at 124.46 115.57 180) (unit 1)
    (in_bom yes) (on_board yes) (dnp no) (fields_autoplaced)
    (uuid 173a3b31-0cd4-4ffc-af1e-bfc648ca314c)
    (property "Reference" "J1" (at 121.92 115.57 0)
      (effects (font (size 1.27 1.27)) (justify left))
    )
    (property "Value" "Output" (at 121.92 113.03 0)
      (effects (font (size 1.27 1.27)) (justify left))
    )
    (property "Footprint" "Connector_PinSocket_2.54mm:PinSocket_1x04_P2.54mm_Vertical" (at 124.46 115.57 0)
      (effects (font (size 1.27 1.27)) hide)
    )
    (property "Datasheet" "~" (at 124.46 115.57 0)
      (effects (font (size 1.27 1.27)) hide)
    )
    (property "MPN" "C2718488" (at 124.46 115.57 0)
      (effects (font (size 1.27 1.27)) hide)
    )
    (property "JLCRotOffset" "-90" (at 124.46 115.57 0)
      (effects (font (size 1.27 1.27)) hide)
    )
    (property "JLCPosOffset" "3.81,0" (at 124.46 115.57 0)
      (effects (font (size 1.27 1.27)) hide)
    )
    (pin "1" (uuid a8a9454e-2100-4cc1-b8ce-3dc81c41b907))
    (pin "2" (uuid 892793d1-9b01-4f11-bee6-baa5e379f40b))
    (pin "3" (uuid c1352b5e-fdd5-47fe-aec6-e3b2f6d61e25))
    (pin "4" (uuid 4d75aa36-b13e-44f5-89b1-6123f41323b8))
    (instances
      (project "Mini"
        (path "/21ffef13-51c1-4f75-9c5e-4fb42baba5c7"
          (reference "J1") (unit 1)
        )
      )
      (project "DevKit"
        (path "/768a484b-8a27-40cf-8cad-0f63935b1af0/d3d3a06e-f81d-4927-9a88-9ed5502f322c"
          (reference "J23") (unit 1)
        )
        (path "/768a484b-8a27-40cf-8cad-0f63935b1af0/04d6ed87-6b10-45aa-8255-84943212068b"
          (reference "J24") (unit 1)
        )
        (path "/768a484b-8a27-40cf-8cad-0f63935b1af0/693754e5-6fc9-4123-abfe-2e1335cfdb84"
          (reference "J25") (unit 1)
        )
      )
    )
  )

  (symbol (lib_id "Jumper:SolderJumper_2_Open") (at 184.15 86.36 0) (unit 1)
    (in_bom yes) (on_board yes) (dnp no) (fields_autoplaced)
    (uuid 20cf1cef-03db-4caa-b088-7668f39e1a2c)
    (property "Reference" "JP12" (at 184.15 80.01 0)
      (effects (font (size 1.27 1.27)))
    )
    (property "Value" "DirectJump" (at 184.15 82.55 0)
      (effects (font (size 1.27 1.27)))
    )
    (property "Footprint" "GigaVescLibs:SolderJumper0.5mm_Open" (at 184.15 86.36 0)
      (effects (font (size 1.27 1.27)) hide)
    )
    (property "Datasheet" "~" (at 184.15 86.36 0)
      (effects (font (size 1.27 1.27)) hide)
    )
    (pin "1" (uuid 814b97c3-2649-4b3f-9cef-c1de13a5ab26))
    (pin "2" (uuid cfbbb15b-c1ba-46af-8207-251072cecd77))
    (instances
      (project "DevKit"
        (path "/768a484b-8a27-40cf-8cad-0f63935b1af0/693754e5-6fc9-4123-abfe-2e1335cfdb84"
          (reference "JP12") (unit 1)
        )
        (path "/768a484b-8a27-40cf-8cad-0f63935b1af0/d3d3a06e-f81d-4927-9a88-9ed5502f322c"
          (reference "JP8") (unit 1)
        )
        (path "/768a484b-8a27-40cf-8cad-0f63935b1af0/04d6ed87-6b10-45aa-8255-84943212068b"
          (reference "JP10") (unit 1)
        )
      )
    )
  )

  (symbol (lib_id "power:GND") (at 187.96 96.52 90) (unit 1)
    (in_bom yes) (on_board yes) (dnp no)
    (uuid 389f15f0-51a0-40d1-9934-4f5852eb38dd)
    (property "Reference" "#PWR011" (at 194.31 96.52 0)
      (effects (font (size 1.27 1.27)) hide)
    )
    (property "Value" "GND" (at 191.77 96.52 90)
      (effects (font (size 1.27 1.27)) (justify right))
    )
    (property "Footprint" "" (at 187.96 96.52 0)
      (effects (font (size 1.27 1.27)) hide)
    )
    (property "Datasheet" "" (at 187.96 96.52 0)
      (effects (font (size 1.27 1.27)) hide)
    )
    (pin "1" (uuid c15db4a9-3ebe-40e9-a13c-897bf50a1621))
    (instances
      (project "DevKit"
        (path "/768a484b-8a27-40cf-8cad-0f63935b1af0"
          (reference "#PWR011") (unit 1)
        )
        (path "/768a484b-8a27-40cf-8cad-0f63935b1af0/de95985c-773b-4c54-94d0-28826fc0c854"
          (reference "#PWR091") (unit 1)
        )
        (path "/768a484b-8a27-40cf-8cad-0f63935b1af0/d3d3a06e-f81d-4927-9a88-9ed5502f322c"
          (reference "#PWR0208") (unit 1)
        )
        (path "/768a484b-8a27-40cf-8cad-0f63935b1af0/04d6ed87-6b10-45aa-8255-84943212068b"
          (reference "#PWR0209") (unit 1)
        )
        (path "/768a484b-8a27-40cf-8cad-0f63935b1af0/693754e5-6fc9-4123-abfe-2e1335cfdb84"
          (reference "#PWR0210") (unit 1)
        )
      )
    )
  )

  (symbol (lib_id "power:+3.3V") (at 151.13 113.03 270) (mirror x) (unit 1)
    (in_bom yes) (on_board yes) (dnp no) (fields_autoplaced)
    (uuid 44874cc3-c747-487b-9125-a857cba8a958)
    (property "Reference" "#PWR090" (at 147.32 113.03 0)
      (effects (font (size 1.27 1.27)) hide)
    )
    (property "Value" "+3.3V" (at 154.94 113.03 90)
      (effects (font (size 1.27 1.27)) (justify left))
    )
    (property "Footprint" "" (at 151.13 113.03 0)
      (effects (font (size 1.27 1.27)) hide)
    )
    (property "Datasheet" "" (at 151.13 113.03 0)
      (effects (font (size 1.27 1.27)) hide)
    )
    (pin "1" (uuid 7fdf14cc-058d-4f8f-a3b2-2cd57c593d35))
    (instances
      (project "DevKit"
        (path "/768a484b-8a27-40cf-8cad-0f63935b1af0/de95985c-773b-4c54-94d0-28826fc0c854"
          (reference "#PWR090") (unit 1)
        )
        (path "/768a484b-8a27-40cf-8cad-0f63935b1af0/d3d3a06e-f81d-4927-9a88-9ed5502f322c"
          (reference "#PWR0202") (unit 1)
        )
        (path "/768a484b-8a27-40cf-8cad-0f63935b1af0/04d6ed87-6b10-45aa-8255-84943212068b"
          (reference "#PWR0206") (unit 1)
        )
        (path "/768a484b-8a27-40cf-8cad-0f63935b1af0/693754e5-6fc9-4123-abfe-2e1335cfdb84"
          (reference "#PWR0207") (unit 1)
        )
      )
    )
  )

  (symbol (lib_id "Jumper:SolderJumper_2_Open") (at 184.15 96.52 0) (unit 1)
    (in_bom yes) (on_board yes) (dnp no) (fields_autoplaced)
    (uuid 4876b21a-dce5-4259-99ab-b5ccc8095d7c)
    (property "Reference" "JP13" (at 184.15 90.17 0)
      (effects (font (size 1.27 1.27)))
    )
    (property "Value" "DirectJump" (at 184.15 92.71 0)
      (effects (font (size 1.27 1.27)))
    )
    (property "Footprint" "GigaVescLibs:SolderJumper0.5mm_Open" (at 184.15 96.52 0)
      (effects (font (size 1.27 1.27)) hide)
    )
    (property "Datasheet" "~" (at 184.15 96.52 0)
      (effects (font (size 1.27 1.27)) hide)
    )
    (pin "1" (uuid 4fe19ae2-b1d4-4e0f-96c1-dfe25ad1a811))
    (pin "2" (uuid 4b3865a7-ccf6-4f06-ad13-c4417ac72be1))
    (instances
      (project "DevKit"
        (path "/768a484b-8a27-40cf-8cad-0f63935b1af0/693754e5-6fc9-4123-abfe-2e1335cfdb84"
          (reference "JP13") (unit 1)
        )
        (path "/768a484b-8a27-40cf-8cad-0f63935b1af0/d3d3a06e-f81d-4927-9a88-9ed5502f322c"
          (reference "JP9") (unit 1)
        )
        (path "/768a484b-8a27-40cf-8cad-0f63935b1af0/04d6ed87-6b10-45aa-8255-84943212068b"
          (reference "JP11") (unit 1)
        )
      )
    )
  )

  (symbol (lib_id "power:+15V") (at 151.13 110.49 270) (mirror x) (unit 1)
    (in_bom yes) (on_board yes) (dnp no) (fields_autoplaced)
    (uuid 4fb72e7f-d0c2-4af3-97da-efe2bcb61eff)
    (property "Reference" "#PWR089" (at 147.32 110.49 0)
      (effects (font (size 1.27 1.27)) hide)
    )
    (property "Value" "+15V" (at 154.94 110.49 90)
      (effects (font (size 1.27 1.27)) (justify left))
    )
    (property "Footprint" "" (at 151.13 110.49 0)
      (effects (font (size 1.27 1.27)) hide)
    )
    (property "Datasheet" "" (at 151.13 110.49 0)
      (effects (font (size 1.27 1.27)) hide)
    )
    (pin "1" (uuid 270882fb-145c-431c-b3e1-bb95ac73a2d6))
    (instances
      (project "DevKit"
        (path "/768a484b-8a27-40cf-8cad-0f63935b1af0/de95985c-773b-4c54-94d0-28826fc0c854"
          (reference "#PWR089") (unit 1)
        )
        (path "/768a484b-8a27-40cf-8cad-0f63935b1af0/d3d3a06e-f81d-4927-9a88-9ed5502f322c"
          (reference "#PWR0190") (unit 1)
        )
        (path "/768a484b-8a27-40cf-8cad-0f63935b1af0/04d6ed87-6b10-45aa-8255-84943212068b"
          (reference "#PWR0191") (unit 1)
        )
        (path "/768a484b-8a27-40cf-8cad-0f63935b1af0/693754e5-6fc9-4123-abfe-2e1335cfdb84"
          (reference "#PWR0192") (unit 1)
        )
      )
    )
  )

  (symbol (lib_id "Jumper:SolderJumper_2_Open") (at 184.15 66.04 0) (unit 1)
    (in_bom yes) (on_board yes) (dnp no) (fields_autoplaced)
    (uuid 8bc5baa6-fb97-4d42-8063-6e3085073384)
    (property "Reference" "JP4" (at 184.15 59.69 0)
      (effects (font (size 1.27 1.27)))
    )
    (property "Value" "DirectJump" (at 184.15 62.23 0)
      (effects (font (size 1.27 1.27)))
    )
    (property "Footprint" "GigaVescLibs:SolderJumper0.5mm_Open" (at 184.15 66.04 0)
      (effects (font (size 1.27 1.27)) hide)
    )
    (property "Datasheet" "~" (at 184.15 66.04 0)
      (effects (font (size 1.27 1.27)) hide)
    )
    (pin "1" (uuid a878fcdb-77af-4d03-8f96-fcabff4702fe))
    (pin "2" (uuid 0d1dc42c-2e24-4ed4-93fd-7cd24f02df54))
    (instances
      (project "DevKit"
        (path "/768a484b-8a27-40cf-8cad-0f63935b1af0/693754e5-6fc9-4123-abfe-2e1335cfdb84"
          (reference "JP4") (unit 1)
        )
        (path "/768a484b-8a27-40cf-8cad-0f63935b1af0/d3d3a06e-f81d-4927-9a88-9ed5502f322c"
          (reference "JP2") (unit 1)
        )
        (path "/768a484b-8a27-40cf-8cad-0f63935b1af0/04d6ed87-6b10-45aa-8255-84943212068b"
          (reference "JP3") (unit 1)
        )
      )
    )
  )

  (symbol (lib_id "Connector_Generic:Conn_02x03_Counter_Clockwise") (at 143.51 113.03 0) (unit 1)
    (in_bom yes) (on_board yes) (dnp no) (fields_autoplaced)
    (uuid c371f118-f54b-446a-b30f-9c39760740a6)
    (property "Reference" "J29" (at 144.78 104.14 0)
      (effects (font (size 1.27 1.27)))
    )
    (property "Value" "PhaseConn1" (at 144.78 106.68 0)
      (effects (font (size 1.27 1.27)))
    )
    (property "Footprint" "Connector_PinHeader_2.54mm:PinHeader_2x03_P2.54mm_Vertical_SMD" (at 143.51 113.03 0)
      (effects (font (size 1.27 1.27)) hide)
    )
    (property "Datasheet" "~" (at 143.51 113.03 0)
      (effects (font (size 1.27 1.27)) hide)
    )
    (property "MPN" "C780054" (at 143.51 113.03 0)
      (effects (font (size 1.27 1.27)) hide)
    )
    (pin "1" (uuid 5396d65e-494f-4705-b78f-b2654f0bc690))
    (pin "2" (uuid 55c452cb-f1d1-4989-ba07-3b0c8a30e966))
    (pin "3" (uuid bd5ee638-0c04-404c-b7e4-8ba6957d5870))
    (pin "4" (uuid f2fbb87b-4ace-4dea-b086-c1b1031f27a5))
    (pin "5" (uuid 59881650-db73-4588-9d36-cc39bdb55655))
    (pin "6" (uuid 99711bfd-8872-4943-ae92-9b65c79f05c8))
    (instances
      (project "DevKit"
        (path "/768a484b-8a27-40cf-8cad-0f63935b1af0/de95985c-773b-4c54-94d0-28826fc0c854"
          (reference "J29") (unit 1)
        )
        (path "/768a484b-8a27-40cf-8cad-0f63935b1af0/d3d3a06e-f81d-4927-9a88-9ed5502f322c"
          (reference "J26") (unit 1)
        )
        (path "/768a484b-8a27-40cf-8cad-0f63935b1af0/04d6ed87-6b10-45aa-8255-84943212068b"
          (reference "J27") (unit 1)
        )
        (path "/768a484b-8a27-40cf-8cad-0f63935b1af0/693754e5-6fc9-4123-abfe-2e1335cfdb84"
          (reference "J28") (unit 1)
        )
      )
    )
  )

  (symbol (lib_id "power:GND") (at 119.38 72.39 90) (unit 1)
    (in_bom yes) (on_board yes) (dnp no)
    (uuid c84b1f3b-707d-453a-b6a1-c629fcdbec33)
    (property "Reference" "#PWR011" (at 125.73 72.39 0)
      (effects (font (size 1.27 1.27)) hide)
    )
    (property "Value" "GND" (at 123.19 72.39 90)
      (effects (font (size 1.27 1.27)) (justify right))
    )
    (property "Footprint" "" (at 119.38 72.39 0)
      (effects (font (size 1.27 1.27)) hide)
    )
    (property "Datasheet" "" (at 119.38 72.39 0)
      (effects (font (size 1.27 1.27)) hide)
    )
    (pin "1" (uuid 1c442e0a-122c-4935-aa08-4d0071bf87bb))
    (instances
      (project "DevKit"
        (path "/768a484b-8a27-40cf-8cad-0f63935b1af0"
          (reference "#PWR011") (unit 1)
        )
        (path "/768a484b-8a27-40cf-8cad-0f63935b1af0/de95985c-773b-4c54-94d0-28826fc0c854"
          (reference "#PWR091") (unit 1)
        )
        (path "/768a484b-8a27-40cf-8cad-0f63935b1af0/d3d3a06e-f81d-4927-9a88-9ed5502f322c"
          (reference "#PWR089") (unit 1)
        )
        (path "/768a484b-8a27-40cf-8cad-0f63935b1af0/04d6ed87-6b10-45aa-8255-84943212068b"
          (reference "#PWR097") (unit 1)
        )
        (path "/768a484b-8a27-40cf-8cad-0f63935b1af0/693754e5-6fc9-4123-abfe-2e1335cfdb84"
          (reference "#PWR0105") (unit 1)
        )
      )
    )
  )

  (symbol (lib_id "power:+3.3V") (at 123.19 62.23 270) (mirror x) (unit 1)
    (in_bom yes) (on_board yes) (dnp no) (fields_autoplaced)
    (uuid d0bf02e3-f7d3-4137-a25b-2b5f1b6c34d9)
    (property "Reference" "#PWR090" (at 119.38 62.23 0)
      (effects (font (size 1.27 1.27)) hide)
    )
    (property "Value" "+3.3V" (at 127 62.23 90)
      (effects (font (size 1.27 1.27)) (justify left))
    )
    (property "Footprint" "" (at 123.19 62.23 0)
      (effects (font (size 1.27 1.27)) hide)
    )
    (property "Datasheet" "" (at 123.19 62.23 0)
      (effects (font (size 1.27 1.27)) hide)
    )
    (pin "1" (uuid b2a65be3-88dd-4109-811b-f440ce4430c6))
    (instances
      (project "DevKit"
        (path "/768a484b-8a27-40cf-8cad-0f63935b1af0/de95985c-773b-4c54-94d0-28826fc0c854"
          (reference "#PWR090") (unit 1)
        )
        (path "/768a484b-8a27-40cf-8cad-0f63935b1af0/d3d3a06e-f81d-4927-9a88-9ed5502f322c"
          (reference "#PWR090") (unit 1)
        )
        (path "/768a484b-8a27-40cf-8cad-0f63935b1af0/04d6ed87-6b10-45aa-8255-84943212068b"
          (reference "#PWR098") (unit 1)
        )
        (path "/768a484b-8a27-40cf-8cad-0f63935b1af0/693754e5-6fc9-4123-abfe-2e1335cfdb84"
          (reference "#PWR0106") (unit 1)
        )
      )
    )
  )

  (symbol (lib_id "Connector_Generic:Conn_01x06") (at 114.3 67.31 180) (unit 1)
    (in_bom yes) (on_board yes) (dnp no) (fields_autoplaced)
    (uuid d1c9bc55-caeb-4704-aea6-fe00db7b3cbf)
    (property "Reference" "J3" (at 114.3 53.34 0)
      (effects (font (size 1.27 1.27)))
    )
    (property "Value" "Input" (at 114.3 55.88 0)
      (effects (font (size 1.27 1.27)))
    )
    (property "Footprint" "Connector_PinSocket_2.54mm:PinSocket_1x06_P2.54mm_Vertical" (at 114.3 67.31 0)
      (effects (font (size 1.27 1.27)) hide)
    )
    (property "Datasheet" "~" (at 114.3 67.31 0)
      (effects (font (size 1.27 1.27)) hide)
    )
    (property "MPN" "C40877" (at 114.3 67.31 0)
      (effects (font (size 1.27 1.27)) hide)
    )
    (property "JLCRotOffset" "-90" (at 114.3 67.31 0)
      (effects (font (size 1.27 1.27)) hide)
    )
    (property "JLCPosOffset" "6.35,0" (at 114.3 67.31 0)
      (effects (font (size 1.27 1.27)) hide)
    )
    (pin "1" (uuid b7f0b309-c063-4689-8570-4f13c4dad9bd))
    (pin "2" (uuid 847da9ab-1cf0-4c2b-aece-10bd7e9bf3e6))
    (pin "3" (uuid 13488041-72f3-44fa-b522-7a3595b6bc0f))
    (pin "4" (uuid 9feacdc1-0737-4eaf-9f6d-fec01d8a2b1d))
    (pin "5" (uuid 55c756d8-7471-4a0d-9948-9fbcdb61631a))
    (pin "6" (uuid b02fab69-3830-4a29-8e76-c5fb4cae8e23))
    (instances
      (project "DevKit"
        (path "/768a484b-8a27-40cf-8cad-0f63935b1af0/de95985c-773b-4c54-94d0-28826fc0c854"
          (reference "J3") (unit 1)
        )
        (path "/768a484b-8a27-40cf-8cad-0f63935b1af0/d3d3a06e-f81d-4927-9a88-9ed5502f322c"
          (reference "J3") (unit 1)
        )
        (path "/768a484b-8a27-40cf-8cad-0f63935b1af0/04d6ed87-6b10-45aa-8255-84943212068b"
          (reference "J14") (unit 1)
        )
        (path "/768a484b-8a27-40cf-8cad-0f63935b1af0/693754e5-6fc9-4123-abfe-2e1335cfdb84"
          (reference "J16") (unit 1)
        )
      )
    )
  )

  (symbol (lib_id "Jumper:SolderJumper_2_Open") (at 184.15 76.2 0) (unit 1)
    (in_bom yes) (on_board yes) (dnp no) (fields_autoplaced)
    (uuid d60e6b10-3a2b-4914-bf15-bcbbd59bf21c)
    (property "Reference" "JP7" (at 184.15 69.85 0)
      (effects (font (size 1.27 1.27)))
    )
    (property "Value" "DirectJump" (at 184.15 72.39 0)
      (effects (font (size 1.27 1.27)))
    )
    (property "Footprint" "GigaVescLibs:SolderJumper0.5mm_Open" (at 184.15 76.2 0)
      (effects (font (size 1.27 1.27)) hide)
    )
    (property "Datasheet" "~" (at 184.15 76.2 0)
      (effects (font (size 1.27 1.27)) hide)
    )
    (pin "1" (uuid dc3f4760-7bf2-4f4e-a7ee-bc3d2a5e893a))
    (pin "2" (uuid 0bfdea6b-2771-404b-b2d5-7333c787f639))
    (instances
      (project "DevKit"
        (path "/768a484b-8a27-40cf-8cad-0f63935b1af0/693754e5-6fc9-4123-abfe-2e1335cfdb84"
          (reference "JP7") (unit 1)
        )
        (path "/768a484b-8a27-40cf-8cad-0f63935b1af0/d3d3a06e-f81d-4927-9a88-9ed5502f322c"
          (reference "JP5") (unit 1)
        )
        (path "/768a484b-8a27-40cf-8cad-0f63935b1af0/04d6ed87-6b10-45aa-8255-84943212068b"
          (reference "JP6") (unit 1)
        )
      )
    )
  )
)
