(kicad_sch (version 20230121) (generator eeschema)

  (uuid 56da5a01-d1a1-4c51-acf4-f9f0c2f758ea)

  (paper "A4")

  (lib_symbols
    (symbol "Device:C" (pin_numbers hide) (pin_names (offset 0.254)) (in_bom yes) (on_board yes)
      (property "Reference" "C" (at 0.635 2.54 0)
        (effects (font (size 1.27 1.27)) (justify left))
      )
      (property "Value" "C" (at 0.635 -2.54 0)
        (effects (font (size 1.27 1.27)) (justify left))
      )
      (property "Footprint" "" (at 0.9652 -3.81 0)
        (effects (font (size 1.27 1.27)) hide)
      )
      (property "Datasheet" "~" (at 0 0 0)
        (effects (font (size 1.27 1.27)) hide)
      )
      (property "ki_keywords" "cap capacitor" (at 0 0 0)
        (effects (font (size 1.27 1.27)) hide)
      )
      (property "ki_description" "Unpolarized capacitor" (at 0 0 0)
        (effects (font (size 1.27 1.27)) hide)
      )
      (property "ki_fp_filters" "C_*" (at 0 0 0)
        (effects (font (size 1.27 1.27)) hide)
      )
      (symbol "C_0_1"
        (polyline
          (pts
            (xy -2.032 -0.762)
            (xy 2.032 -0.762)
          )
          (stroke (width 0.508) (type default))
          (fill (type none))
        )
        (polyline
          (pts
            (xy -2.032 0.762)
            (xy 2.032 0.762)
          )
          (stroke (width 0.508) (type default))
          (fill (type none))
        )
      )
      (symbol "C_1_1"
        (pin passive line (at 0 3.81 270) (length 2.794)
          (name "~" (effects (font (size 1.27 1.27))))
          (number "1" (effects (font (size 1.27 1.27))))
        )
        (pin passive line (at 0 -3.81 90) (length 2.794)
          (name "~" (effects (font (size 1.27 1.27))))
          (number "2" (effects (font (size 1.27 1.27))))
        )
      )
    )
    (symbol "Device:D_Schottky" (pin_numbers hide) (pin_names (offset 1.016) hide) (in_bom yes) (on_board yes)
      (property "Reference" "D" (at 0 2.54 0)
        (effects (font (size 1.27 1.27)))
      )
      (property "Value" "D_Schottky" (at 0 -2.54 0)
        (effects (font (size 1.27 1.27)))
      )
      (property "Footprint" "" (at 0 0 0)
        (effects (font (size 1.27 1.27)) hide)
      )
      (property "Datasheet" "~" (at 0 0 0)
        (effects (font (size 1.27 1.27)) hide)
      )
      (property "ki_keywords" "diode Schottky" (at 0 0 0)
        (effects (font (size 1.27 1.27)) hide)
      )
      (property "ki_description" "Schottky diode" (at 0 0 0)
        (effects (font (size 1.27 1.27)) hide)
      )
      (property "ki_fp_filters" "TO-???* *_Diode_* *SingleDiode* D_*" (at 0 0 0)
        (effects (font (size 1.27 1.27)) hide)
      )
      (symbol "D_Schottky_0_1"
        (polyline
          (pts
            (xy 1.27 0)
            (xy -1.27 0)
          )
          (stroke (width 0) (type default))
          (fill (type none))
        )
        (polyline
          (pts
            (xy 1.27 1.27)
            (xy 1.27 -1.27)
            (xy -1.27 0)
            (xy 1.27 1.27)
          )
          (stroke (width 0.254) (type default))
          (fill (type none))
        )
        (polyline
          (pts
            (xy -1.905 0.635)
            (xy -1.905 1.27)
            (xy -1.27 1.27)
            (xy -1.27 -1.27)
            (xy -0.635 -1.27)
            (xy -0.635 -0.635)
          )
          (stroke (width 0.254) (type default))
          (fill (type none))
        )
      )
      (symbol "D_Schottky_1_1"
        (pin passive line (at -3.81 0 0) (length 2.54)
          (name "K" (effects (font (size 1.27 1.27))))
          (number "1" (effects (font (size 1.27 1.27))))
        )
        (pin passive line (at 3.81 0 180) (length 2.54)
          (name "A" (effects (font (size 1.27 1.27))))
          (number "2" (effects (font (size 1.27 1.27))))
        )
      )
    )
    (symbol "Device:LED" (pin_numbers hide) (pin_names (offset 1.016) hide) (in_bom yes) (on_board yes)
      (property "Reference" "D" (at 0 2.54 0)
        (effects (font (size 1.27 1.27)))
      )
      (property "Value" "LED" (at 0 -2.54 0)
        (effects (font (size 1.27 1.27)))
      )
      (property "Footprint" "" (at 0 0 0)
        (effects (font (size 1.27 1.27)) hide)
      )
      (property "Datasheet" "~" (at 0 0 0)
        (effects (font (size 1.27 1.27)) hide)
      )
      (property "ki_keywords" "LED diode" (at 0 0 0)
        (effects (font (size 1.27 1.27)) hide)
      )
      (property "ki_description" "Light emitting diode" (at 0 0 0)
        (effects (font (size 1.27 1.27)) hide)
      )
      (property "ki_fp_filters" "LED* LED_SMD:* LED_THT:*" (at 0 0 0)
        (effects (font (size 1.27 1.27)) hide)
      )
      (symbol "LED_0_1"
        (polyline
          (pts
            (xy -1.27 -1.27)
            (xy -1.27 1.27)
          )
          (stroke (width 0.254) (type default))
          (fill (type none))
        )
        (polyline
          (pts
            (xy -1.27 0)
            (xy 1.27 0)
          )
          (stroke (width 0) (type default))
          (fill (type none))
        )
        (polyline
          (pts
            (xy 1.27 -1.27)
            (xy 1.27 1.27)
            (xy -1.27 0)
            (xy 1.27 -1.27)
          )
          (stroke (width 0.254) (type default))
          (fill (type none))
        )
        (polyline
          (pts
            (xy -3.048 -0.762)
            (xy -4.572 -2.286)
            (xy -3.81 -2.286)
            (xy -4.572 -2.286)
            (xy -4.572 -1.524)
          )
          (stroke (width 0) (type default))
          (fill (type none))
        )
        (polyline
          (pts
            (xy -1.778 -0.762)
            (xy -3.302 -2.286)
            (xy -2.54 -2.286)
            (xy -3.302 -2.286)
            (xy -3.302 -1.524)
          )
          (stroke (width 0) (type default))
          (fill (type none))
        )
      )
      (symbol "LED_1_1"
        (pin passive line (at -3.81 0 0) (length 2.54)
          (name "K" (effects (font (size 1.27 1.27))))
          (number "1" (effects (font (size 1.27 1.27))))
        )
        (pin passive line (at 3.81 0 180) (length 2.54)
          (name "A" (effects (font (size 1.27 1.27))))
          (number "2" (effects (font (size 1.27 1.27))))
        )
      )
    )
    (symbol "Device:R" (pin_numbers hide) (pin_names (offset 0)) (in_bom yes) (on_board yes)
      (property "Reference" "R" (at 2.032 0 90)
        (effects (font (size 1.27 1.27)))
      )
      (property "Value" "R" (at 0 0 90)
        (effects (font (size 1.27 1.27)))
      )
      (property "Footprint" "" (at -1.778 0 90)
        (effects (font (size 1.27 1.27)) hide)
      )
      (property "Datasheet" "~" (at 0 0 0)
        (effects (font (size 1.27 1.27)) hide)
      )
      (property "ki_keywords" "R res resistor" (at 0 0 0)
        (effects (font (size 1.27 1.27)) hide)
      )
      (property "ki_description" "Resistor" (at 0 0 0)
        (effects (font (size 1.27 1.27)) hide)
      )
      (property "ki_fp_filters" "R_*" (at 0 0 0)
        (effects (font (size 1.27 1.27)) hide)
      )
      (symbol "R_0_1"
        (rectangle (start -1.016 -2.54) (end 1.016 2.54)
          (stroke (width 0.254) (type default))
          (fill (type none))
        )
      )
      (symbol "R_1_1"
        (pin passive line (at 0 3.81 270) (length 1.27)
          (name "~" (effects (font (size 1.27 1.27))))
          (number "1" (effects (font (size 1.27 1.27))))
        )
        (pin passive line (at 0 -3.81 90) (length 1.27)
          (name "~" (effects (font (size 1.27 1.27))))
          (number "2" (effects (font (size 1.27 1.27))))
        )
      )
    )
    (symbol "GigaVescSymbols:74LVC1G332_1" (in_bom yes) (on_board yes)
      (property "Reference" "U" (at -5.08 10.16 0)
        (effects (font (size 1.27 1.27)))
      )
      (property "Value" "74LVC1G332" (at 0 -10.16 0)
        (effects (font (size 1.27 1.27)))
      )
      (property "Footprint" "" (at 0 0 0)
        (effects (font (size 1.27 1.27)) hide)
      )
      (property "Datasheet" "http://www.ti.com/lit/sg/scyt129e/scyt129e.pdf" (at 0 -13.97 0)
        (effects (font (size 1.27 1.27)) hide)
      )
      (property "ki_keywords" "Single Gate OR triple LVC CMOS" (at 0 0 0)
        (effects (font (size 1.27 1.27)) hide)
      )
      (property "ki_description" "Single OR 3 Input Gate, Low-Voltage CMOS" (at 0 0 0)
        (effects (font (size 1.27 1.27)) hide)
      )
      (property "ki_fp_filters" "SOT* SG-*" (at 0 0 0)
        (effects (font (size 1.27 1.27)) hide)
      )
      (symbol "74LVC1G332_1_0_1"
        (arc (start -7.62 -6.35) (mid -5.321 0) (end -7.62 6.35)
          (stroke (width 0.254) (type default))
          (fill (type none))
        )
        (arc (start 0 -6.35) (mid 3.9978 -3.9978) (end 6.35 0)
          (stroke (width 0.254) (type default))
          (fill (type none))
        )
        (polyline
          (pts
            (xy 0 -6.35)
            (xy -7.62 -6.35)
          )
          (stroke (width 0.254) (type default))
          (fill (type background))
        )
        (polyline
          (pts
            (xy 0 6.35)
            (xy -7.62 6.35)
          )
          (stroke (width 0.254) (type default))
          (fill (type background))
        )
        (arc (start 6.35 0) (mid 3.9978 3.9978) (end 0 6.35)
          (stroke (width 0.254) (type default))
          (fill (type none))
        )
      )
      (symbol "74LVC1G332_1_1_1"
        (pin input line (at -12.7 0 0) (length 7.11)
          (name "~" (effects (font (size 1.27 1.27))))
          (number "1" (effects (font (size 1.27 1.27))))
        )
        (pin power_in line (at 0 -10.16 90) (length 3.81)
          (name "GND" (effects (font (size 1.27 1.27))))
          (number "2" (effects (font (size 1.27 1.27))))
        )
        (pin input line (at -12.7 -5.08 0) (length 5.84)
          (name "~" (effects (font (size 1.27 1.27))))
          (number "3" (effects (font (size 1.27 1.27))))
        )
        (pin output line (at 12.7 0 180) (length 6.35)
          (name "~" (effects (font (size 1.27 1.27))))
          (number "4" (effects (font (size 1.27 1.27))))
        )
        (pin power_in line (at 0 10.16 270) (length 3.81)
          (name "VCC" (effects (font (size 1.27 1.27))))
          (number "5" (effects (font (size 1.27 1.27))))
        )
        (pin input line (at -12.7 5.08 0) (length 5.84)
          (name "~" (effects (font (size 1.27 1.27))))
          (number "6" (effects (font (size 1.27 1.27))))
        )
      )
    )
    (symbol "power:+3.3V" (power) (pin_names (offset 0)) (in_bom yes) (on_board yes)
      (property "Reference" "#PWR" (at 0 -3.81 0)
        (effects (font (size 1.27 1.27)) hide)
      )
      (property "Value" "+3.3V" (at 0 3.556 0)
        (effects (font (size 1.27 1.27)))
      )
      (property "Footprint" "" (at 0 0 0)
        (effects (font (size 1.27 1.27)) hide)
      )
      (property "Datasheet" "" (at 0 0 0)
        (effects (font (size 1.27 1.27)) hide)
      )
      (property "ki_keywords" "global power" (at 0 0 0)
        (effects (font (size 1.27 1.27)) hide)
      )
      (property "ki_description" "Power symbol creates a global label with name \"+3.3V\"" (at 0 0 0)
        (effects (font (size 1.27 1.27)) hide)
      )
      (symbol "+3.3V_0_1"
        (polyline
          (pts
            (xy -0.762 1.27)
            (xy 0 2.54)
          )
          (stroke (width 0) (type default))
          (fill (type none))
        )
        (polyline
          (pts
            (xy 0 0)
            (xy 0 2.54)
          )
          (stroke (width 0) (type default))
          (fill (type none))
        )
        (polyline
          (pts
            (xy 0 2.54)
            (xy 0.762 1.27)
          )
          (stroke (width 0) (type default))
          (fill (type none))
        )
      )
      (symbol "+3.3V_1_1"
        (pin power_in line (at 0 0 90) (length 0) hide
          (name "+3.3V" (effects (font (size 1.27 1.27))))
          (number "1" (effects (font (size 1.27 1.27))))
        )
      )
    )
    (symbol "power:GND" (power) (pin_names (offset 0)) (in_bom yes) (on_board yes)
      (property "Reference" "#PWR" (at 0 -6.35 0)
        (effects (font (size 1.27 1.27)) hide)
      )
      (property "Value" "GND" (at 0 -3.81 0)
        (effects (font (size 1.27 1.27)))
      )
      (property "Footprint" "" (at 0 0 0)
        (effects (font (size 1.27 1.27)) hide)
      )
      (property "Datasheet" "" (at 0 0 0)
        (effects (font (size 1.27 1.27)) hide)
      )
      (property "ki_keywords" "global power" (at 0 0 0)
        (effects (font (size 1.27 1.27)) hide)
      )
      (property "ki_description" "Power symbol creates a global label with name \"GND\" , ground" (at 0 0 0)
        (effects (font (size 1.27 1.27)) hide)
      )
      (symbol "GND_0_1"
        (polyline
          (pts
            (xy 0 0)
            (xy 0 -1.27)
            (xy 1.27 -1.27)
            (xy 0 -2.54)
            (xy -1.27 -1.27)
            (xy 0 -1.27)
          )
          (stroke (width 0) (type default))
          (fill (type none))
        )
      )
      (symbol "GND_1_1"
        (pin power_in line (at 0 0 270) (length 0) hide
          (name "GND" (effects (font (size 1.27 1.27))))
          (number "1" (effects (font (size 1.27 1.27))))
        )
      )
    )
  )

  (junction (at 95.25 53.34) (diameter 0) (color 0 0 0 0)
    (uuid 051d8443-4487-4301-b4a2-222d058e2c32)
  )
  (junction (at 200.66 55.88) (diameter 0) (color 0 0 0 0)
    (uuid 2947e468-5830-4f7b-86ee-cd6cb8ee0e95)
  )
  (junction (at 203.2 93.98) (diameter 0) (color 0 0 0 0)
    (uuid 6fe13a54-1b4e-4511-8405-8cb5a83b9732)
  )
  (junction (at 218.44 33.02) (diameter 0) (color 0 0 0 0)
    (uuid 71ca847a-164b-4714-a963-5f83acee3109)
  )
  (junction (at 95.25 106.68) (diameter 0) (color 0 0 0 0)
    (uuid 98d833b9-80c2-4dc1-9977-1067f6997651)
  )
  (junction (at 214.63 100.33) (diameter 0) (color 0 0 0 0)
    (uuid c38c9d6a-5b34-4069-9a65-0ce6bb80eb18)
  )
  (junction (at 193.04 50.8) (diameter 0) (color 0 0 0 0)
    (uuid c52b7d2c-b2c1-4d2f-b203-cad0ab7da9b9)
  )
  (junction (at 194.31 87.63) (diameter 0) (color 0 0 0 0)
    (uuid c7d9f3f2-5edf-42f2-b719-0bc4f257d5f5)
  )
  (junction (at 185.42 45.72) (diameter 0) (color 0 0 0 0)
    (uuid e7dc64c1-a824-4b25-ba1d-ac88c21fa098)
  )

  (wire (pts (xy 218.44 29.21) (xy 218.44 33.02))
    (stroke (width 0) (type default))
    (uuid 055cf1ce-a03b-40f8-9b87-13c8c17a1e67)
  )
  (wire (pts (xy 226.06 87.63) (xy 194.31 87.63))
    (stroke (width 0) (type default))
    (uuid 070dac53-08e9-4b73-8f06-f91aa5ce7415)
  )
  (wire (pts (xy 95.25 106.68) (xy 95.25 104.14))
    (stroke (width 0) (type default))
    (uuid 0ec69a41-d454-4cce-b529-3af8ddcab7ae)
  )
  (wire (pts (xy 113.03 106.68) (xy 95.25 106.68))
    (stroke (width 0) (type default))
    (uuid 18cfe580-4043-4c69-82e0-26d02b14070a)
  )
  (wire (pts (xy 187.96 87.63) (xy 194.31 87.63))
    (stroke (width 0) (type default))
    (uuid 1b8247c1-9758-46f7-9102-2b628f158bf4)
  )
  (wire (pts (xy 113.03 120.65) (xy 113.03 106.68))
    (stroke (width 0) (type default))
    (uuid 1c79e1ec-cfed-4779-8d46-5521598b7a69)
  )
  (wire (pts (xy 185.42 38.1) (xy 185.42 45.72))
    (stroke (width 0) (type default))
    (uuid 250bb272-11fe-466f-8c1d-11daeca0fb4d)
  )
  (wire (pts (xy 113.03 76.2) (xy 113.03 53.34))
    (stroke (width 0) (type default))
    (uuid 2f158ad4-4f06-4531-b408-4782487c7b45)
  )
  (wire (pts (xy 63.5 114.3) (xy 60.96 114.3))
    (stroke (width 0) (type default))
    (uuid 2f3a24c1-8157-44f5-bdad-b66f83779a83)
  )
  (wire (pts (xy 185.42 45.72) (xy 205.74 45.72))
    (stroke (width 0) (type default))
    (uuid 32263384-2d8c-47d9-aba4-a088782b2b89)
  )
  (wire (pts (xy 127 50.8) (xy 193.04 50.8))
    (stroke (width 0) (type default))
    (uuid 35b5338c-5708-4c01-af8d-c273b71bd4b5)
  )
  (wire (pts (xy 92.71 109.22) (xy 95.25 109.22))
    (stroke (width 0) (type default))
    (uuid 39719715-e334-454f-b654-2a8f19d78893)
  )
  (wire (pts (xy 95.25 104.14) (xy 92.71 104.14))
    (stroke (width 0) (type default))
    (uuid 397f00f3-5bf7-463d-a46f-92a5e103e415)
  )
  (wire (pts (xy 60.96 76.2) (xy 113.03 76.2))
    (stroke (width 0) (type default))
    (uuid 3ac7c594-7c38-482b-b333-d6679addbe49)
  )
  (wire (pts (xy 95.25 109.22) (xy 95.25 106.68))
    (stroke (width 0) (type default))
    (uuid 452c2df1-82c7-43e5-94a3-38dfeab282c2)
  )
  (wire (pts (xy 60.96 120.65) (xy 113.03 120.65))
    (stroke (width 0) (type default))
    (uuid 5349da4c-4a3c-4ef9-9d9e-f8eb6ce482f5)
  )
  (wire (pts (xy 92.71 90.17) (xy 127 90.17))
    (stroke (width 0) (type default))
    (uuid 5c3b7d80-92be-478c-9809-9e832af57dad)
  )
  (wire (pts (xy 60.96 114.3) (xy 60.96 120.65))
    (stroke (width 0) (type default))
    (uuid 5fb672e1-cbe3-4aa2-ba2d-2fb02749ac8d)
  )
  (wire (pts (xy 200.66 55.88) (xy 205.74 55.88))
    (stroke (width 0) (type default))
    (uuid 63375bae-c753-40c4-83a3-b4d4f18ef4cb)
  )
  (wire (pts (xy 187.96 93.98) (xy 203.2 93.98))
    (stroke (width 0) (type default))
    (uuid 634d49c3-3e4c-4ab7-a3a2-8c4103cccee9)
  )
  (wire (pts (xy 92.71 53.34) (xy 95.25 53.34))
    (stroke (width 0) (type default))
    (uuid 68f680b8-6505-444c-bf63-828a44034e11)
  )
  (wire (pts (xy 113.03 53.34) (xy 95.25 53.34))
    (stroke (width 0) (type default))
    (uuid 6cc161a3-173e-497a-b6fc-9e386716eb93)
  )
  (wire (pts (xy 92.71 45.72) (xy 185.42 45.72))
    (stroke (width 0) (type default))
    (uuid 6cfb83cc-ff91-487c-bf87-546d0e17d992)
  )
  (wire (pts (xy 63.5 69.85) (xy 60.96 69.85))
    (stroke (width 0) (type default))
    (uuid 6d4d0e30-4c86-4570-92ea-7742a848683b)
  )
  (wire (pts (xy 127 90.17) (xy 127 50.8))
    (stroke (width 0) (type default))
    (uuid 810b355c-a3d9-411c-a54d-a8da26282057)
  )
  (wire (pts (xy 185.42 27.94) (xy 185.42 30.48))
    (stroke (width 0) (type default))
    (uuid 88d1adfd-d68a-443f-a235-d2110e80b81e)
  )
  (wire (pts (xy 193.04 38.1) (xy 193.04 50.8))
    (stroke (width 0) (type default))
    (uuid 8c3c3972-2c98-4337-a15d-d26bd0e15d57)
  )
  (wire (pts (xy 95.25 53.34) (xy 95.25 55.88))
    (stroke (width 0) (type default))
    (uuid 93a68e6f-9faa-430d-84c2-a10653084815)
  )
  (wire (pts (xy 95.25 55.88) (xy 92.71 55.88))
    (stroke (width 0) (type default))
    (uuid 9471ad22-715a-4f67-95df-26186e3b3512)
  )
  (wire (pts (xy 92.71 50.8) (xy 95.25 50.8))
    (stroke (width 0) (type default))
    (uuid a17e4c14-d671-480f-8b6c-3c762fa187a6)
  )
  (wire (pts (xy 187.96 100.33) (xy 214.63 100.33))
    (stroke (width 0) (type default))
    (uuid a53f70ac-4e6d-4bc7-be51-fcd2c085cf4b)
  )
  (wire (pts (xy 95.25 50.8) (xy 95.25 53.34))
    (stroke (width 0) (type default))
    (uuid b5ad7e8b-0713-47bc-bd20-9c617e55e19f)
  )
  (wire (pts (xy 193.04 27.94) (xy 193.04 30.48))
    (stroke (width 0) (type default))
    (uuid bef9f278-9704-4eef-b49b-557285d6b6d7)
  )
  (wire (pts (xy 200.66 27.94) (xy 200.66 30.48))
    (stroke (width 0) (type default))
    (uuid c37f99b3-2f48-4bd1-ada9-68c84d983e6b)
  )
  (wire (pts (xy 92.71 106.68) (xy 95.25 106.68))
    (stroke (width 0) (type default))
    (uuid c5a12c68-e69d-435b-a69c-a3469288ba2f)
  )
  (wire (pts (xy 218.44 33.02) (xy 218.44 40.64))
    (stroke (width 0) (type default))
    (uuid c9e20097-fd2f-42bb-bddd-2bfc088aff94)
  )
  (wire (pts (xy 194.31 87.63) (xy 194.31 104.14))
    (stroke (width 0) (type default))
    (uuid cab33d56-7e1b-4fc0-b404-d946646fea6d)
  )
  (wire (pts (xy 214.63 100.33) (xy 226.06 100.33))
    (stroke (width 0) (type default))
    (uuid cd94b59e-d26d-4e61-8a71-6d922c1a59b5)
  )
  (wire (pts (xy 200.66 38.1) (xy 200.66 55.88))
    (stroke (width 0) (type default))
    (uuid ceed0ec6-4a6c-4418-9782-a81b5ab1e545)
  )
  (wire (pts (xy 203.2 93.98) (xy 226.06 93.98))
    (stroke (width 0) (type default))
    (uuid d4256cef-3b99-460c-aea6-fa475fa112d4)
  )
  (wire (pts (xy 60.96 69.85) (xy 60.96 76.2))
    (stroke (width 0) (type default))
    (uuid dad2bdb6-b2e5-4ab8-8cd4-f94b641d63c9)
  )
  (wire (pts (xy 214.63 104.14) (xy 214.63 100.33))
    (stroke (width 0) (type default))
    (uuid e798e169-2f48-4042-a4a8-416787c40f4b)
  )
  (wire (pts (xy 193.04 50.8) (xy 205.74 50.8))
    (stroke (width 0) (type default))
    (uuid e96c1b4b-33a3-4bf8-b02c-2def368e5e94)
  )
  (wire (pts (xy 203.2 104.14) (xy 203.2 93.98))
    (stroke (width 0) (type default))
    (uuid ea19d290-f7d0-451f-9663-856ad704ac4a)
  )
  (wire (pts (xy 180.34 55.88) (xy 200.66 55.88))
    (stroke (width 0) (type default))
    (uuid f7290e76-57fb-4091-ad58-07f7732ebc72)
  )

  (text "Alternative: 74LVC1G332GW,125\nC548342" (at 223.52 62.23 0)
    (effects (font (size 1.27 1.27)) (justify left bottom))
    (uuid bf82a344-0126-41ff-a61b-a3e1ba32bfb6)
  )
  (text "Disabled by default until MCU pulls this down." (at 156.21 60.96 0)
    (effects (font (size 1.27 1.27)) (justify left bottom))
    (uuid cc1a0631-d10e-4d41-b95c-db7759d74565)
  )
  (text "If you do not want to use hardware protection, also remember to not solder R26 and R31"
    (at 72.39 35.56 0)
    (effects (font (size 1.27 1.27)) (justify left bottom))
    (uuid d6252d6b-a3d7-47fe-8381-c467f0c57911)
  )

  (global_label "CURR1_FILTERED" (shape input) (at 92.71 95.25 0) (fields_autoplaced)
    (effects (font (size 1.27 1.27)) (justify left))
    (uuid 06eeb135-f547-492d-8e20-53f623b26171)
    (property "Intersheetrefs" "${INTERSHEET_REFS}" (at 110.8063 95.25 0)
      (effects (font (size 1.27 1.27)) (justify left) hide)
    )
  )
  (global_label "CURR1" (shape input) (at 233.68 87.63 0) (fields_autoplaced)
    (effects (font (size 1.27 1.27)) (justify left))
    (uuid 0e720736-1ec7-4dad-a6bc-998832d6286a)
    (property "Intersheetrefs" "${INTERSHEET_REFS}" (at 242.2816 87.63 0)
      (effects (font (size 1.27 1.27)) (justify left) hide)
    )
  )
  (global_label "POWER_STAGE_DISABLE" (shape input) (at 147.32 127 180) (fields_autoplaced)
    (effects (font (size 1.27 1.27)) (justify right))
    (uuid 144dfe3d-d547-4654-8879-02a3b7cc30ce)
    (property "Intersheetrefs" "${INTERSHEET_REFS}" (at 123.3576 127 0)
      (effects (font (size 1.27 1.27)) (justify right) hide)
    )
  )
  (global_label "POWER_STAGE_LOCKOUT" (shape input) (at 238.76 50.8 0) (fields_autoplaced)
    (effects (font (size 1.27 1.27)) (justify left))
    (uuid 1624a9d2-e72b-4a9b-b38b-9ddeffb71c37)
    (property "Intersheetrefs" "${INTERSHEET_REFS}" (at 263.6296 50.8 0)
      (effects (font (size 1.27 1.27)) (justify left) hide)
    )
  )
  (global_label "CURR3_FILTERED" (shape input) (at 187.96 100.33 180) (fields_autoplaced)
    (effects (font (size 1.27 1.27)) (justify right))
    (uuid 175d9b4d-96c4-4ad7-bc2a-2d5b0be587c0)
    (property "Intersheetrefs" "${INTERSHEET_REFS}" (at 169.8637 100.33 0)
      (effects (font (size 1.27 1.27)) (justify right) hide)
    )
  )
  (global_label "CURR1_FILTERED" (shape input) (at 92.71 59.69 0) (fields_autoplaced)
    (effects (font (size 1.27 1.27)) (justify left))
    (uuid 195a71b7-6fc1-4cf7-a05e-db4af8619200)
    (property "Intersheetrefs" "${INTERSHEET_REFS}" (at 110.8063 59.69 0)
      (effects (font (size 1.27 1.27)) (justify left) hide)
    )
  )
  (global_label "CURR3" (shape input) (at 233.68 100.33 0) (fields_autoplaced)
    (effects (font (size 1.27 1.27)) (justify left))
    (uuid 1e1b67c3-5bb0-4e5e-b515-73c0047e8e9e)
    (property "Intersheetrefs" "${INTERSHEET_REFS}" (at 242.2816 100.33 0)
      (effects (font (size 1.27 1.27)) (justify left) hide)
    )
  )
  (global_label "CLEAR_HW_FAULT" (shape input) (at 92.71 114.3 0) (fields_autoplaced)
    (effects (font (size 1.27 1.27)) (justify left))
    (uuid 316f10e0-25a3-4265-a5d7-257b9500ba96)
    (property "Intersheetrefs" "${INTERSHEET_REFS}" (at 110.9878 114.3 0)
      (effects (font (size 1.27 1.27)) (justify left) hide)
    )
  )
  (global_label "CURR2" (shape input) (at 233.68 93.98 0) (fields_autoplaced)
    (effects (font (size 1.27 1.27)) (justify left))
    (uuid 4de2bfb3-76f9-41ff-92aa-ee5537cf2327)
    (property "Intersheetrefs" "${INTERSHEET_REFS}" (at 242.2816 93.98 0)
      (effects (font (size 1.27 1.27)) (justify left) hide)
    )
  )
  (global_label "CLEAR_HW_FAULT" (shape input) (at 92.71 69.85 0) (fields_autoplaced)
    (effects (font (size 1.27 1.27)) (justify left))
    (uuid 579c2824-870d-47ba-b6d3-1c3c8b427adf)
    (property "Intersheetrefs" "${INTERSHEET_REFS}" (at 110.9878 69.85 0)
      (effects (font (size 1.27 1.27)) (justify left) hide)
    )
  )
  (global_label "CLEAR_HW_FAULT" (shape input) (at 154.94 116.84 180) (fields_autoplaced)
    (effects (font (size 1.27 1.27)) (justify right))
    (uuid 60bb6f16-e79a-40d7-878b-565af70070df)
    (property "Intersheetrefs" "${INTERSHEET_REFS}" (at 136.008 116.84 0)
      (effects (font (size 1.27 1.27)) (justify right) hide)
    )
  )
  (global_label "CURR2_FILTERED" (shape input) (at 187.96 93.98 180) (fields_autoplaced)
    (effects (font (size 1.27 1.27)) (justify right))
    (uuid 6a9e738c-7d59-4862-80f9-bc9a3cedffd0)
    (property "Intersheetrefs" "${INTERSHEET_REFS}" (at 169.8637 93.98 0)
      (effects (font (size 1.27 1.27)) (justify right) hide)
    )
  )
  (global_label "CURR1_FILTERED" (shape input) (at 187.96 87.63 180) (fields_autoplaced)
    (effects (font (size 1.27 1.27)) (justify right))
    (uuid 6c79242f-17b8-4eca-98fc-0a0c19b391b0)
    (property "Intersheetrefs" "${INTERSHEET_REFS}" (at 169.8637 87.63 0)
      (effects (font (size 1.27 1.27)) (justify right) hide)
    )
  )
  (global_label "CURR3_FILTERED" (shape input) (at 92.71 64.77 0) (fields_autoplaced)
    (effects (font (size 1.27 1.27)) (justify left))
    (uuid 7bf2bf54-1ae1-4cc6-90b4-1477caf26f78)
    (property "Intersheetrefs" "${INTERSHEET_REFS}" (at 110.8063 64.77 0)
      (effects (font (size 1.27 1.27)) (justify left) hide)
    )
  )
  (global_label "CURR2_FILTERED" (shape input) (at 92.71 62.23 0) (fields_autoplaced)
    (effects (font (size 1.27 1.27)) (justify left))
    (uuid 8e16c6fa-c8cd-436a-b72d-3c6c565686d3)
    (property "Intersheetrefs" "${INTERSHEET_REFS}" (at 110.8063 62.23 0)
      (effects (font (size 1.27 1.27)) (justify left) hide)
    )
  )
  (global_label "POWER_STAGE_DISABLE" (shape input) (at 180.34 55.88 180) (fields_autoplaced)
    (effects (font (size 1.27 1.27)) (justify right))
    (uuid 9e531d98-d0e6-4295-be1c-25d3c91ff8f4)
    (property "Intersheetrefs" "${INTERSHEET_REFS}" (at 156.3776 55.88 0)
      (effects (font (size 1.27 1.27)) (justify right) hide)
    )
  )
  (global_label "CURR3_FILTERED" (shape input) (at 92.71 100.33 0) (fields_autoplaced)
    (effects (font (size 1.27 1.27)) (justify left))
    (uuid d8654133-9864-4074-8866-2710c88963f3)
    (property "Intersheetrefs" "${INTERSHEET_REFS}" (at 110.8063 100.33 0)
      (effects (font (size 1.27 1.27)) (justify left) hide)
    )
  )
  (global_label "CURR2_FILTERED" (shape input) (at 92.71 97.79 0) (fields_autoplaced)
    (effects (font (size 1.27 1.27)) (justify left))
    (uuid ee718978-d4dc-4e0e-be23-9931deedaed4)
    (property "Intersheetrefs" "${INTERSHEET_REFS}" (at 110.8063 97.79 0)
      (effects (font (size 1.27 1.27)) (justify left) hide)
    )
  )

  (symbol (lib_id "power:GND") (at 214.63 111.76 0) (unit 1)
    (in_bom yes) (on_board yes) (dnp no) (fields_autoplaced)
    (uuid 058972d3-adf0-4fbf-ac5d-25b6edf2ffd8)
    (property "Reference" "#PWR042" (at 214.63 118.11 0)
      (effects (font (size 1.27 1.27)) hide)
    )
    (property "Value" "GND" (at 214.63 116.84 0)
      (effects (font (size 1.27 1.27)))
    )
    (property "Footprint" "" (at 214.63 111.76 0)
      (effects (font (size 1.27 1.27)) hide)
    )
    (property "Datasheet" "" (at 214.63 111.76 0)
      (effects (font (size 1.27 1.27)) hide)
    )
    (pin "1" (uuid 6172ce28-7cb7-40fe-aa03-3446e4687860))
    (instances
      (project "GigaVescDrivers"
        (path "/74b7e1db-46d0-4e07-8500-01cfc2fa8362"
          (reference "#PWR042") (unit 1)
        )
      )
      (project "DevKit"
        (path "/768a484b-8a27-40cf-8cad-0f63935b1af0/d3d3a06e-f81d-4927-9a88-9ed5502f322c"
          (reference "#PWR094") (unit 1)
        )
        (path "/768a484b-8a27-40cf-8cad-0f63935b1af0/04d6ed87-6b10-45aa-8255-84943212068b"
          (reference "#PWR0102") (unit 1)
        )
        (path "/768a484b-8a27-40cf-8cad-0f63935b1af0/693754e5-6fc9-4123-abfe-2e1335cfdb84"
          (reference "#PWR0110") (unit 1)
        )
        (path "/768a484b-8a27-40cf-8cad-0f63935b1af0/81081265-f675-4f9d-bffe-8ec1eaaaba23"
          (reference "#PWR0158") (unit 1)
        )
      )
    )
  )

  (symbol (lib_id "Device:R") (at 185.42 34.29 0) (unit 1)
    (in_bom yes) (on_board yes) (dnp no) (fields_autoplaced)
    (uuid 101c01ff-49a2-4b7c-ae1c-f87eb5fdbae5)
    (property "Reference" "R33" (at 187.96 33.02 0)
      (effects (font (size 1.27 1.27)) (justify left))
    )
    (property "Value" "10k" (at 187.96 35.56 0)
      (effects (font (size 1.27 1.27)) (justify left))
    )
    (property "Footprint" "Resistor_SMD:R_0603_1608Metric" (at 183.642 34.29 90)
      (effects (font (size 1.27 1.27)) hide)
    )
    (property "Datasheet" "~" (at 185.42 34.29 0)
      (effects (font (size 1.27 1.27)) hide)
    )
    (property "MPN" "C25804" (at 185.42 34.29 0)
      (effects (font (size 1.27 1.27)) hide)
    )
    (pin "1" (uuid 3b9f26c1-4c26-4753-acd8-ff214f4053ba))
    (pin "2" (uuid 62e01e32-2e37-4618-8b75-8fb38df00adc))
    (instances
      (project "GigaVescDrivers"
        (path "/74b7e1db-46d0-4e07-8500-01cfc2fa8362"
          (reference "R33") (unit 1)
        )
      )
      (project "DevKit"
        (path "/768a484b-8a27-40cf-8cad-0f63935b1af0/d3d3a06e-f81d-4927-9a88-9ed5502f322c"
          (reference "R43") (unit 1)
        )
        (path "/768a484b-8a27-40cf-8cad-0f63935b1af0/04d6ed87-6b10-45aa-8255-84943212068b"
          (reference "R44") (unit 1)
        )
        (path "/768a484b-8a27-40cf-8cad-0f63935b1af0/693754e5-6fc9-4123-abfe-2e1335cfdb84"
          (reference "R45") (unit 1)
        )
        (path "/768a484b-8a27-40cf-8cad-0f63935b1af0/81081265-f675-4f9d-bffe-8ec1eaaaba23"
          (reference "R26") (unit 1)
        )
      )
    )
  )

  (symbol (lib_id "power:GND") (at 194.31 111.76 0) (unit 1)
    (in_bom yes) (on_board yes) (dnp no) (fields_autoplaced)
    (uuid 2008b73f-bf3a-4bea-a4b6-c576e0fc4a82)
    (property "Reference" "#PWR042" (at 194.31 118.11 0)
      (effects (font (size 1.27 1.27)) hide)
    )
    (property "Value" "GND" (at 194.31 116.84 0)
      (effects (font (size 1.27 1.27)))
    )
    (property "Footprint" "" (at 194.31 111.76 0)
      (effects (font (size 1.27 1.27)) hide)
    )
    (property "Datasheet" "" (at 194.31 111.76 0)
      (effects (font (size 1.27 1.27)) hide)
    )
    (pin "1" (uuid ee6898ca-d87f-41e5-a272-11de23f5e15f))
    (instances
      (project "GigaVescDrivers"
        (path "/74b7e1db-46d0-4e07-8500-01cfc2fa8362"
          (reference "#PWR042") (unit 1)
        )
      )
      (project "DevKit"
        (path "/768a484b-8a27-40cf-8cad-0f63935b1af0/d3d3a06e-f81d-4927-9a88-9ed5502f322c"
          (reference "#PWR094") (unit 1)
        )
        (path "/768a484b-8a27-40cf-8cad-0f63935b1af0/04d6ed87-6b10-45aa-8255-84943212068b"
          (reference "#PWR0102") (unit 1)
        )
        (path "/768a484b-8a27-40cf-8cad-0f63935b1af0/693754e5-6fc9-4123-abfe-2e1335cfdb84"
          (reference "#PWR0110") (unit 1)
        )
        (path "/768a484b-8a27-40cf-8cad-0f63935b1af0/81081265-f675-4f9d-bffe-8ec1eaaaba23"
          (reference "#PWR0145") (unit 1)
        )
      )
    )
  )

  (symbol (lib_id "Device:D_Schottky") (at 234.95 50.8 180) (unit 1)
    (in_bom yes) (on_board yes) (dnp no)
    (uuid 3c27de56-11af-480a-b91e-ad4eb794c73b)
    (property "Reference" "D8" (at 234.95 48.26 0)
      (effects (font (size 1.27 1.27)))
    )
    (property "Value" "1N5819WS" (at 234.95 45.72 0)
      (effects (font (size 1.27 1.27)))
    )
    (property "Footprint" "Diode_SMD:D_SOD-323" (at 234.95 50.8 0)
      (effects (font (size 1.27 1.27)) hide)
    )
    (property "Datasheet" "~" (at 234.95 50.8 0)
      (effects (font (size 1.27 1.27)) hide)
    )
    (property "MPN" "C191023" (at 234.95 50.8 0)
      (effects (font (size 1.27 1.27)) hide)
    )
    (pin "1" (uuid a282a5fc-f7d0-4d82-8bf4-528e884b29c9))
    (pin "2" (uuid 59fb197c-5a1a-4537-ac0a-f13a834c4e68))
    (instances
      (project "DevKit"
        (path "/768a484b-8a27-40cf-8cad-0f63935b1af0/72793ee1-8b24-4ded-a030-5a38e70b572c"
          (reference "D8") (unit 1)
        )
        (path "/768a484b-8a27-40cf-8cad-0f63935b1af0"
          (reference "D8") (unit 1)
        )
        (path "/768a484b-8a27-40cf-8cad-0f63935b1af0/81081265-f675-4f9d-bffe-8ec1eaaaba23"
          (reference "D3") (unit 1)
        )
      )
    )
  )

  (symbol (lib_id "Device:R") (at 229.87 93.98 90) (unit 1)
    (in_bom yes) (on_board yes) (dnp no)
    (uuid 400e50cc-4eb4-4184-be3b-d883fdd4b25f)
    (property "Reference" "R43" (at 229.87 91.44 90)
      (effects (font (size 1.27 1.27)))
    )
    (property "Value" "1k" (at 229.87 93.98 90)
      (effects (font (size 1.27 1.27)))
    )
    (property "Footprint" "Resistor_SMD:R_0603_1608Metric" (at 229.87 95.758 90)
      (effects (font (size 1.27 1.27)) hide)
    )
    (property "Datasheet" "~" (at 229.87 93.98 0)
      (effects (font (size 1.27 1.27)) hide)
    )
    (property "MPN" "C21190" (at 229.87 93.98 0)
      (effects (font (size 1.27 1.27)) hide)
    )
    (pin "1" (uuid 66ab1d50-f70c-4af4-ba4c-f7873a55be8e))
    (pin "2" (uuid ec7d7174-43fd-4d5b-a593-c9463a91eccb))
    (instances
      (project "GigaVescDrivers"
        (path "/74b7e1db-46d0-4e07-8500-01cfc2fa8362/d88911c9-3d35-433d-8e86-fd490f9c0c66"
          (reference "R43") (unit 1)
        )
      )
      (project "DevKit"
        (path "/768a484b-8a27-40cf-8cad-0f63935b1af0/81081265-f675-4f9d-bffe-8ec1eaaaba23"
          (reference "R37") (unit 1)
        )
        (path "/768a484b-8a27-40cf-8cad-0f63935b1af0/00b03c15-2f32-40aa-9d15-0626e4794bf1"
          (reference "R63") (unit 1)
        )
        (path "/768a484b-8a27-40cf-8cad-0f63935b1af0/717cb4b7-b47a-435c-946f-7c938a1d7e5f"
          (reference "R64") (unit 1)
        )
      )
    )
  )

  (symbol (lib_id "GigaVescSymbols:74LVC1G332_1") (at 218.44 50.8 0) (unit 1)
    (in_bom yes) (on_board yes) (dnp no)
    (uuid 43f18653-0299-4d9b-aa7a-7cdf76667a76)
    (property "Reference" "U11" (at 222.25 43.18 0)
      (effects (font (size 1.27 1.27)))
    )
    (property "Value" "SN74LVC1G332DCKR" (at 234.95 55.88 0)
      (effects (font (size 1.27 1.27)))
    )
    (property "Footprint" "Package_TO_SOT_SMD:SOT-363_SC-70-6" (at 218.44 50.8 0)
      (effects (font (size 1.27 1.27)) hide)
    )
    (property "Datasheet" "http://www.ti.com/lit/sg/scyt129e/scyt129e.pdf" (at 218.44 64.77 0)
      (effects (font (size 1.27 1.27)) hide)
    )
    (property "MPN" "C2865081" (at 218.44 50.8 0)
      (effects (font (size 1.27 1.27)) hide)
    )
    (pin "1" (uuid 5879b5bc-4b94-41ab-805d-0eb7bc4c3f02))
    (pin "2" (uuid fcb56685-b8cf-4e2e-a625-0aa1ca42819f))
    (pin "3" (uuid 150f8b3c-54f5-47a0-95e0-cbd7b7c7749f))
    (pin "4" (uuid 5bab424c-b4d2-44db-981c-163ce1115824))
    (pin "5" (uuid 0fd9bb55-4962-48e9-b5aa-0124c6edc89f))
    (pin "6" (uuid 8e1a4d0d-bd73-483f-833f-5f81cef1f66b))
    (instances
      (project "DevKit"
        (path "/768a484b-8a27-40cf-8cad-0f63935b1af0/81081265-f675-4f9d-bffe-8ec1eaaaba23"
          (reference "U11") (unit 1)
        )
      )
    )
  )

  (symbol (lib_id "power:GND") (at 162.56 127 90) (unit 1)
    (in_bom yes) (on_board yes) (dnp no) (fields_autoplaced)
    (uuid 53786199-fbd2-4d6c-afbd-d74fd8266faf)
    (property "Reference" "#PWR0144" (at 168.91 127 0)
      (effects (font (size 1.27 1.27)) hide)
    )
    (property "Value" "GND" (at 166.37 127 90)
      (effects (font (size 1.27 1.27)) (justify right))
    )
    (property "Footprint" "" (at 162.56 127 0)
      (effects (font (size 1.27 1.27)) hide)
    )
    (property "Datasheet" "" (at 162.56 127 0)
      (effects (font (size 1.27 1.27)) hide)
    )
    (pin "1" (uuid 728b3a38-c1e7-4490-8860-07f742d46daf))
    (instances
      (project "DevKit"
        (path "/768a484b-8a27-40cf-8cad-0f63935b1af0/81081265-f675-4f9d-bffe-8ec1eaaaba23"
          (reference "#PWR0144") (unit 1)
        )
      )
      (project "HardwareProtection"
        (path "/a0bc7e80-607b-4b14-b86e-d486e2d36eac"
          (reference "#PWR05") (unit 1)
        )
      )
    )
  )

  (symbol (lib_id "power:GND") (at 226.06 33.02 90) (unit 1)
    (in_bom yes) (on_board yes) (dnp no) (fields_autoplaced)
    (uuid 5e813d21-4d9d-43ff-8309-64607af740f4)
    (property "Reference" "#PWR043" (at 232.41 33.02 0)
      (effects (font (size 1.27 1.27)) hide)
    )
    (property "Value" "GND" (at 229.87 33.02 90)
      (effects (font (size 1.27 1.27)) (justify right))
    )
    (property "Footprint" "" (at 226.06 33.02 0)
      (effects (font (size 1.27 1.27)) hide)
    )
    (property "Datasheet" "" (at 226.06 33.02 0)
      (effects (font (size 1.27 1.27)) hide)
    )
    (pin "1" (uuid cf9bb476-d088-42c7-837d-65b314e95be7))
    (instances
      (project "GigaVescDrivers"
        (path "/74b7e1db-46d0-4e07-8500-01cfc2fa8362"
          (reference "#PWR043") (unit 1)
        )
      )
      (project "DevKit"
        (path "/768a484b-8a27-40cf-8cad-0f63935b1af0/d3d3a06e-f81d-4927-9a88-9ed5502f322c"
          (reference "#PWR093") (unit 1)
        )
        (path "/768a484b-8a27-40cf-8cad-0f63935b1af0/04d6ed87-6b10-45aa-8255-84943212068b"
          (reference "#PWR0101") (unit 1)
        )
        (path "/768a484b-8a27-40cf-8cad-0f63935b1af0/693754e5-6fc9-4123-abfe-2e1335cfdb84"
          (reference "#PWR0109") (unit 1)
        )
        (path "/768a484b-8a27-40cf-8cad-0f63935b1af0/81081265-f675-4f9d-bffe-8ec1eaaaba23"
          (reference "#PWR095") (unit 1)
        )
      )
    )
  )

  (symbol (lib_id "Device:C") (at 222.25 33.02 90) (unit 1)
    (in_bom yes) (on_board yes) (dnp no)
    (uuid 610f47df-2c0c-47ee-b320-667d3745f819)
    (property "Reference" "C15" (at 224.79 29.21 90)
      (effects (font (size 1.27 1.27)) (justify left))
    )
    (property "Value" "100n" (at 226.06 38.1 90)
      (effects (font (size 1.27 1.27)) (justify left))
    )
    (property "Footprint" "GigaVescLibs:C_0603_1608Metric_L" (at 226.06 32.0548 0)
      (effects (font (size 1.27 1.27)) hide)
    )
    (property "Datasheet" "~" (at 222.25 33.02 0)
      (effects (font (size 1.27 1.27)) hide)
    )
    (property "MPN" "C14663" (at 222.25 33.02 0)
      (effects (font (size 1.27 1.27)) hide)
    )
    (pin "1" (uuid 56db9e8f-5230-4ea1-bc81-33050ddcb33b))
    (pin "2" (uuid efab00b0-4a3d-45ee-99f6-a2802b76bc41))
    (instances
      (project "GigaVescDrivers"
        (path "/74b7e1db-46d0-4e07-8500-01cfc2fa8362"
          (reference "C15") (unit 1)
        )
      )
      (project "DevKit"
        (path "/768a484b-8a27-40cf-8cad-0f63935b1af0/d3d3a06e-f81d-4927-9a88-9ed5502f322c"
          (reference "C44") (unit 1)
        )
        (path "/768a484b-8a27-40cf-8cad-0f63935b1af0/04d6ed87-6b10-45aa-8255-84943212068b"
          (reference "C45") (unit 1)
        )
        (path "/768a484b-8a27-40cf-8cad-0f63935b1af0/693754e5-6fc9-4123-abfe-2e1335cfdb84"
          (reference "C46") (unit 1)
        )
        (path "/768a484b-8a27-40cf-8cad-0f63935b1af0/81081265-f675-4f9d-bffe-8ec1eaaaba23"
          (reference "C44") (unit 1)
        )
      )
    )
  )

  (symbol (lib_id "power:+3.3V") (at 193.04 27.94 0) (unit 1)
    (in_bom yes) (on_board yes) (dnp no) (fields_autoplaced)
    (uuid 7091492f-d4ba-485f-9a71-3ea15b84007d)
    (property "Reference" "#PWR040" (at 193.04 31.75 0)
      (effects (font (size 1.27 1.27)) hide)
    )
    (property "Value" "+3.3V" (at 193.04 22.86 0)
      (effects (font (size 1.27 1.27)))
    )
    (property "Footprint" "" (at 193.04 27.94 0)
      (effects (font (size 1.27 1.27)) hide)
    )
    (property "Datasheet" "" (at 193.04 27.94 0)
      (effects (font (size 1.27 1.27)) hide)
    )
    (pin "1" (uuid 96a38dc7-4663-4fd3-87a4-ccc09d7a2458))
    (instances
      (project "GigaVescDrivers"
        (path "/74b7e1db-46d0-4e07-8500-01cfc2fa8362"
          (reference "#PWR040") (unit 1)
        )
      )
      (project "DevKit"
        (path "/768a484b-8a27-40cf-8cad-0f63935b1af0/d3d3a06e-f81d-4927-9a88-9ed5502f322c"
          (reference "#PWR073") (unit 1)
        )
        (path "/768a484b-8a27-40cf-8cad-0f63935b1af0/04d6ed87-6b10-45aa-8255-84943212068b"
          (reference "#PWR080") (unit 1)
        )
        (path "/768a484b-8a27-40cf-8cad-0f63935b1af0/693754e5-6fc9-4123-abfe-2e1335cfdb84"
          (reference "#PWR096") (unit 1)
        )
        (path "/768a484b-8a27-40cf-8cad-0f63935b1af0/81081265-f675-4f9d-bffe-8ec1eaaaba23"
          (reference "#PWR080") (unit 1)
        )
      )
    )
  )

  (symbol (lib_id "Device:C") (at 214.63 107.95 180) (unit 1)
    (in_bom yes) (on_board yes) (dnp no)
    (uuid 744e4194-f9df-45cc-be17-59147a41e9fd)
    (property "Reference" "C22" (at 219.71 105.41 0)
      (effects (font (size 1.27 1.27)) (justify left))
    )
    (property "Value" "1n" (at 218.44 110.49 0)
      (effects (font (size 1.27 1.27)) (justify left))
    )
    (property "Footprint" "GigaVescLibs:C_0603_1608Metric_L" (at 213.6648 104.14 0)
      (effects (font (size 1.27 1.27)) hide)
    )
    (property "Datasheet" "~" (at 214.63 107.95 0)
      (effects (font (size 1.27 1.27)) hide)
    )
    (property "MPN" "C1588" (at 214.63 107.95 0)
      (effects (font (size 1.27 1.27)) hide)
    )
    (pin "1" (uuid f80a537a-eac3-4ec7-bc1f-db75818fc77a))
    (pin "2" (uuid ac7c01a2-a939-458f-9da3-c11520dcd180))
    (instances
      (project "GigaVescDrivers"
        (path "/74b7e1db-46d0-4e07-8500-01cfc2fa8362/d88911c9-3d35-433d-8e86-fd490f9c0c66"
          (reference "C22") (unit 1)
        )
      )
      (project "DevKit"
        (path "/768a484b-8a27-40cf-8cad-0f63935b1af0/81081265-f675-4f9d-bffe-8ec1eaaaba23"
          (reference "C50") (unit 1)
        )
        (path "/768a484b-8a27-40cf-8cad-0f63935b1af0/00b03c15-2f32-40aa-9d15-0626e4794bf1"
          (reference "C29") (unit 1)
        )
      )
    )
  )

  (symbol (lib_id "power:+3.3V") (at 185.42 27.94 0) (unit 1)
    (in_bom yes) (on_board yes) (dnp no) (fields_autoplaced)
    (uuid 85d1bfb5-f298-47d4-96c5-7eadbb4382d3)
    (property "Reference" "#PWR040" (at 185.42 31.75 0)
      (effects (font (size 1.27 1.27)) hide)
    )
    (property "Value" "+3.3V" (at 185.42 22.86 0)
      (effects (font (size 1.27 1.27)))
    )
    (property "Footprint" "" (at 185.42 27.94 0)
      (effects (font (size 1.27 1.27)) hide)
    )
    (property "Datasheet" "" (at 185.42 27.94 0)
      (effects (font (size 1.27 1.27)) hide)
    )
    (pin "1" (uuid f5ef6791-9813-4e5a-b0ce-31fb9663a2b7))
    (instances
      (project "GigaVescDrivers"
        (path "/74b7e1db-46d0-4e07-8500-01cfc2fa8362"
          (reference "#PWR040") (unit 1)
        )
      )
      (project "DevKit"
        (path "/768a484b-8a27-40cf-8cad-0f63935b1af0/d3d3a06e-f81d-4927-9a88-9ed5502f322c"
          (reference "#PWR0104") (unit 1)
        )
        (path "/768a484b-8a27-40cf-8cad-0f63935b1af0/04d6ed87-6b10-45aa-8255-84943212068b"
          (reference "#PWR0112") (unit 1)
        )
        (path "/768a484b-8a27-40cf-8cad-0f63935b1af0/693754e5-6fc9-4123-abfe-2e1335cfdb84"
          (reference "#PWR0113") (unit 1)
        )
        (path "/768a484b-8a27-40cf-8cad-0f63935b1af0/81081265-f675-4f9d-bffe-8ec1eaaaba23"
          (reference "#PWR073") (unit 1)
        )
      )
    )
  )

  (symbol (lib_id "power:+3.3V") (at 218.44 29.21 0) (unit 1)
    (in_bom yes) (on_board yes) (dnp no) (fields_autoplaced)
    (uuid 94c55af7-553a-4e6f-877f-98e4c3b589e3)
    (property "Reference" "#PWR041" (at 218.44 33.02 0)
      (effects (font (size 1.27 1.27)) hide)
    )
    (property "Value" "+3.3V" (at 218.44 24.13 0)
      (effects (font (size 1.27 1.27)))
    )
    (property "Footprint" "" (at 218.44 29.21 0)
      (effects (font (size 1.27 1.27)) hide)
    )
    (property "Datasheet" "" (at 218.44 29.21 0)
      (effects (font (size 1.27 1.27)) hide)
    )
    (pin "1" (uuid 23eee311-f863-4378-bd7e-8efd084ac1eb))
    (instances
      (project "GigaVescDrivers"
        (path "/74b7e1db-46d0-4e07-8500-01cfc2fa8362"
          (reference "#PWR041") (unit 1)
        )
      )
      (project "DevKit"
        (path "/768a484b-8a27-40cf-8cad-0f63935b1af0/d3d3a06e-f81d-4927-9a88-9ed5502f322c"
          (reference "#PWR095") (unit 1)
        )
        (path "/768a484b-8a27-40cf-8cad-0f63935b1af0/04d6ed87-6b10-45aa-8255-84943212068b"
          (reference "#PWR0103") (unit 1)
        )
        (path "/768a484b-8a27-40cf-8cad-0f63935b1af0/693754e5-6fc9-4123-abfe-2e1335cfdb84"
          (reference "#PWR0111") (unit 1)
        )
        (path "/768a484b-8a27-40cf-8cad-0f63935b1af0/81081265-f675-4f9d-bffe-8ec1eaaaba23"
          (reference "#PWR093") (unit 1)
        )
      )
    )
  )

  (symbol (lib_id "power:GND") (at 162.56 116.84 90) (unit 1)
    (in_bom yes) (on_board yes) (dnp no)
    (uuid a6e3a101-a5bb-46d4-a07e-c32621f07486)
    (property "Reference" "#PWR023" (at 168.91 116.84 0)
      (effects (font (size 1.27 1.27)) hide)
    )
    (property "Value" "GND" (at 167.64 116.84 90)
      (effects (font (size 1.27 1.27)))
    )
    (property "Footprint" "" (at 162.56 116.84 0)
      (effects (font (size 1.27 1.27)) hide)
    )
    (property "Datasheet" "" (at 162.56 116.84 0)
      (effects (font (size 1.27 1.27)) hide)
    )
    (pin "1" (uuid 1c27c4b1-4b5d-4c5b-90a6-0596911e4bdc))
    (instances
      (project "GigaVescDrivers"
        (path "/74b7e1db-46d0-4e07-8500-01cfc2fa8362/1b71110b-792f-43a8-a427-1a0737a683d1"
          (reference "#PWR023") (unit 1)
        )
      )
      (project "DevKit"
        (path "/768a484b-8a27-40cf-8cad-0f63935b1af0/de95985c-773b-4c54-94d0-28826fc0c854"
          (reference "#PWR0114") (unit 1)
        )
        (path "/768a484b-8a27-40cf-8cad-0f63935b1af0/81081265-f675-4f9d-bffe-8ec1eaaaba23"
          (reference "#PWR0114") (unit 1)
        )
      )
    )
  )

  (symbol (lib_id "power:+3.3V") (at 200.66 27.94 0) (unit 1)
    (in_bom yes) (on_board yes) (dnp no) (fields_autoplaced)
    (uuid a94a568e-f399-46f4-83b3-fa5c09e93dd3)
    (property "Reference" "#PWR040" (at 200.66 31.75 0)
      (effects (font (size 1.27 1.27)) hide)
    )
    (property "Value" "+3.3V" (at 200.66 22.86 0)
      (effects (font (size 1.27 1.27)))
    )
    (property "Footprint" "" (at 200.66 27.94 0)
      (effects (font (size 1.27 1.27)) hide)
    )
    (property "Datasheet" "" (at 200.66 27.94 0)
      (effects (font (size 1.27 1.27)) hide)
    )
    (pin "1" (uuid 1ae1febb-7bfc-4b99-8761-1e9131c92b7d))
    (instances
      (project "GigaVescDrivers"
        (path "/74b7e1db-46d0-4e07-8500-01cfc2fa8362"
          (reference "#PWR040") (unit 1)
        )
      )
      (project "DevKit"
        (path "/768a484b-8a27-40cf-8cad-0f63935b1af0/d3d3a06e-f81d-4927-9a88-9ed5502f322c"
          (reference "#PWR092") (unit 1)
        )
        (path "/768a484b-8a27-40cf-8cad-0f63935b1af0/04d6ed87-6b10-45aa-8255-84943212068b"
          (reference "#PWR0100") (unit 1)
        )
        (path "/768a484b-8a27-40cf-8cad-0f63935b1af0/693754e5-6fc9-4123-abfe-2e1335cfdb84"
          (reference "#PWR0108") (unit 1)
        )
        (path "/768a484b-8a27-40cf-8cad-0f63935b1af0/81081265-f675-4f9d-bffe-8ec1eaaaba23"
          (reference "#PWR092") (unit 1)
        )
      )
    )
  )

  (symbol (lib_id "Device:R") (at 229.87 87.63 90) (unit 1)
    (in_bom yes) (on_board yes) (dnp no)
    (uuid a9542804-22c6-4d95-8440-448eccadb097)
    (property "Reference" "R43" (at 229.87 85.09 90)
      (effects (font (size 1.27 1.27)))
    )
    (property "Value" "1k" (at 229.87 87.63 90)
      (effects (font (size 1.27 1.27)))
    )
    (property "Footprint" "Resistor_SMD:R_0603_1608Metric" (at 229.87 89.408 90)
      (effects (font (size 1.27 1.27)) hide)
    )
    (property "Datasheet" "~" (at 229.87 87.63 0)
      (effects (font (size 1.27 1.27)) hide)
    )
    (property "MPN" "C21190" (at 229.87 87.63 0)
      (effects (font (size 1.27 1.27)) hide)
    )
    (pin "1" (uuid 046748a9-22a1-496d-a033-16600528a14a))
    (pin "2" (uuid 5b16c422-b935-4687-9321-a3800b297c56))
    (instances
      (project "GigaVescDrivers"
        (path "/74b7e1db-46d0-4e07-8500-01cfc2fa8362/d88911c9-3d35-433d-8e86-fd490f9c0c66"
          (reference "R43") (unit 1)
        )
      )
      (project "DevKit"
        (path "/768a484b-8a27-40cf-8cad-0f63935b1af0/81081265-f675-4f9d-bffe-8ec1eaaaba23"
          (reference "R30") (unit 1)
        )
        (path "/768a484b-8a27-40cf-8cad-0f63935b1af0/00b03c15-2f32-40aa-9d15-0626e4794bf1"
          (reference "R63") (unit 1)
        )
        (path "/768a484b-8a27-40cf-8cad-0f63935b1af0/717cb4b7-b47a-435c-946f-7c938a1d7e5f"
          (reference "R64") (unit 1)
        )
      )
    )
  )

  (symbol (lib_id "Device:R") (at 158.75 127 90) (unit 1)
    (in_bom yes) (on_board yes) (dnp no)
    (uuid b00a4a28-790a-4daf-b3a0-93c7aaa63878)
    (property "Reference" "R47" (at 158.75 124.46 90)
      (effects (font (size 1.27 1.27)))
    )
    (property "Value" "10k" (at 158.75 127 90)
      (effects (font (size 1.27 1.27)))
    )
    (property "Footprint" "Resistor_SMD:R_0603_1608Metric" (at 158.75 128.778 90)
      (effects (font (size 1.27 1.27)) hide)
    )
    (property "Datasheet" "~" (at 158.75 127 0)
      (effects (font (size 1.27 1.27)) hide)
    )
    (property "MPN" "C25804" (at 158.75 127 0)
      (effects (font (size 1.27 1.27)) hide)
    )
    (pin "1" (uuid 06b6c2eb-461a-477d-b2c2-2be97a378e04))
    (pin "2" (uuid fef6a9fa-6aef-497f-abba-b460e092204d))
    (instances
      (project "DevKit"
        (path "/768a484b-8a27-40cf-8cad-0f63935b1af0"
          (reference "R47") (unit 1)
        )
        (path "/768a484b-8a27-40cf-8cad-0f63935b1af0/81081265-f675-4f9d-bffe-8ec1eaaaba23"
          (reference "R49") (unit 1)
        )
      )
    )
  )

  (symbol (lib_id "Device:R") (at 229.87 100.33 90) (unit 1)
    (in_bom yes) (on_board yes) (dnp no)
    (uuid db7f78f6-ff85-4d9b-82bf-425087fbdf5f)
    (property "Reference" "R43" (at 229.87 97.79 90)
      (effects (font (size 1.27 1.27)))
    )
    (property "Value" "1k" (at 229.87 100.33 90)
      (effects (font (size 1.27 1.27)))
    )
    (property "Footprint" "Resistor_SMD:R_0603_1608Metric" (at 229.87 102.108 90)
      (effects (font (size 1.27 1.27)) hide)
    )
    (property "Datasheet" "~" (at 229.87 100.33 0)
      (effects (font (size 1.27 1.27)) hide)
    )
    (property "MPN" "C21190" (at 229.87 100.33 0)
      (effects (font (size 1.27 1.27)) hide)
    )
    (pin "1" (uuid d49ee9db-111e-4ddf-b16d-384c9e2494c9))
    (pin "2" (uuid 11d48a28-7d97-4ee7-b6ed-1a9ac1c97367))
    (instances
      (project "GigaVescDrivers"
        (path "/74b7e1db-46d0-4e07-8500-01cfc2fa8362/d88911c9-3d35-433d-8e86-fd490f9c0c66"
          (reference "R43") (unit 1)
        )
      )
      (project "DevKit"
        (path "/768a484b-8a27-40cf-8cad-0f63935b1af0/81081265-f675-4f9d-bffe-8ec1eaaaba23"
          (reference "R38") (unit 1)
        )
        (path "/768a484b-8a27-40cf-8cad-0f63935b1af0/00b03c15-2f32-40aa-9d15-0626e4794bf1"
          (reference "R63") (unit 1)
        )
        (path "/768a484b-8a27-40cf-8cad-0f63935b1af0/717cb4b7-b47a-435c-946f-7c938a1d7e5f"
          (reference "R64") (unit 1)
        )
      )
    )
  )

  (symbol (lib_id "Device:R") (at 158.75 116.84 90) (unit 1)
    (in_bom yes) (on_board yes) (dnp no) (fields_autoplaced)
    (uuid e6e2358c-9ce5-4717-b95a-60a0c65af85d)
    (property "Reference" "R15" (at 158.75 110.49 90)
      (effects (font (size 1.27 1.27)))
    )
    (property "Value" "10k" (at 158.75 113.03 90)
      (effects (font (size 1.27 1.27)))
    )
    (property "Footprint" "Resistor_SMD:R_0603_1608Metric" (at 158.75 118.618 90)
      (effects (font (size 1.27 1.27)) hide)
    )
    (property "Datasheet" "~" (at 158.75 116.84 0)
      (effects (font (size 1.27 1.27)) hide)
    )
    (property "MPN" "C25804" (at 158.75 116.84 0)
      (effects (font (size 1.27 1.27)) hide)
    )
    (pin "1" (uuid ef58af6a-94ab-4d09-a30d-ad7b938a00cb))
    (pin "2" (uuid e8db5e5f-aafc-4f47-84fc-d5566b06dac1))
    (instances
      (project "GigaVescDrivers"
        (path "/74b7e1db-46d0-4e07-8500-01cfc2fa8362/1b71110b-792f-43a8-a427-1a0737a683d1"
          (reference "R15") (unit 1)
        )
      )
      (project "DevKit"
        (path "/768a484b-8a27-40cf-8cad-0f63935b1af0/de95985c-773b-4c54-94d0-28826fc0c854"
          (reference "R36") (unit 1)
        )
        (path "/768a484b-8a27-40cf-8cad-0f63935b1af0/81081265-f675-4f9d-bffe-8ec1eaaaba23"
          (reference "R36") (unit 1)
        )
      )
    )
  )

  (symbol (lib_id "Device:C") (at 194.31 107.95 0) (unit 1)
    (in_bom yes) (on_board yes) (dnp no)
    (uuid e898049f-ec6c-4559-bfc6-a4805818df9d)
    (property "Reference" "C24" (at 195.58 105.41 0)
      (effects (font (size 1.27 1.27)) (justify left))
    )
    (property "Value" "1n" (at 195.58 110.49 0)
      (effects (font (size 1.27 1.27)) (justify left))
    )
    (property "Footprint" "GigaVescLibs:C_0603_1608Metric_L" (at 195.2752 111.76 0)
      (effects (font (size 1.27 1.27)) hide)
    )
    (property "Datasheet" "~" (at 194.31 107.95 0)
      (effects (font (size 1.27 1.27)) hide)
    )
    (property "MPN" "C1588" (at 194.31 107.95 0)
      (effects (font (size 1.27 1.27)) hide)
    )
    (pin "1" (uuid f603d767-fef7-45d7-8c3a-3915169de35b))
    (pin "2" (uuid 94e58a8a-6d89-4a3e-a505-7151151afa4a))
    (instances
      (project "GigaVescDrivers"
        (path "/74b7e1db-46d0-4e07-8500-01cfc2fa8362/d88911c9-3d35-433d-8e86-fd490f9c0c66"
          (reference "C24") (unit 1)
        )
      )
      (project "DevKit"
        (path "/768a484b-8a27-40cf-8cad-0f63935b1af0/81081265-f675-4f9d-bffe-8ec1eaaaba23"
          (reference "C29") (unit 1)
        )
        (path "/768a484b-8a27-40cf-8cad-0f63935b1af0/00b03c15-2f32-40aa-9d15-0626e4794bf1"
          (reference "C50") (unit 1)
        )
      )
    )
  )

  (symbol (lib_id "Device:R") (at 193.04 34.29 0) (unit 1)
    (in_bom yes) (on_board yes) (dnp no) (fields_autoplaced)
    (uuid ec49573a-043e-478e-9ece-a56f9f45ceed)
    (property "Reference" "R33" (at 195.58 33.02 0)
      (effects (font (size 1.27 1.27)) (justify left))
    )
    (property "Value" "10k" (at 195.58 35.56 0)
      (effects (font (size 1.27 1.27)) (justify left))
    )
    (property "Footprint" "Resistor_SMD:R_0603_1608Metric" (at 191.262 34.29 90)
      (effects (font (size 1.27 1.27)) hide)
    )
    (property "Datasheet" "~" (at 193.04 34.29 0)
      (effects (font (size 1.27 1.27)) hide)
    )
    (property "MPN" "C25804" (at 193.04 34.29 0)
      (effects (font (size 1.27 1.27)) hide)
    )
    (pin "1" (uuid dc0ddc51-1fb2-46fb-862a-d46845941917))
    (pin "2" (uuid d78ab145-4f2f-4917-80c7-52dcf9ce0e45))
    (instances
      (project "GigaVescDrivers"
        (path "/74b7e1db-46d0-4e07-8500-01cfc2fa8362"
          (reference "R33") (unit 1)
        )
      )
      (project "DevKit"
        (path "/768a484b-8a27-40cf-8cad-0f63935b1af0/d3d3a06e-f81d-4927-9a88-9ed5502f322c"
          (reference "R40") (unit 1)
        )
        (path "/768a484b-8a27-40cf-8cad-0f63935b1af0/04d6ed87-6b10-45aa-8255-84943212068b"
          (reference "R41") (unit 1)
        )
        (path "/768a484b-8a27-40cf-8cad-0f63935b1af0/693754e5-6fc9-4123-abfe-2e1335cfdb84"
          (reference "R42") (unit 1)
        )
        (path "/768a484b-8a27-40cf-8cad-0f63935b1af0/81081265-f675-4f9d-bffe-8ec1eaaaba23"
          (reference "R31") (unit 1)
        )
      )
    )
  )

  (symbol (lib_id "power:GND") (at 218.44 60.96 0) (unit 1)
    (in_bom yes) (on_board yes) (dnp no) (fields_autoplaced)
    (uuid f4399d93-ddf5-408f-9d62-1feefb307f02)
    (property "Reference" "#PWR042" (at 218.44 67.31 0)
      (effects (font (size 1.27 1.27)) hide)
    )
    (property "Value" "GND" (at 218.44 66.04 0)
      (effects (font (size 1.27 1.27)))
    )
    (property "Footprint" "" (at 218.44 60.96 0)
      (effects (font (size 1.27 1.27)) hide)
    )
    (property "Datasheet" "" (at 218.44 60.96 0)
      (effects (font (size 1.27 1.27)) hide)
    )
    (pin "1" (uuid 8d91cfa5-3bf9-4410-90c8-28a925b4c32e))
    (instances
      (project "GigaVescDrivers"
        (path "/74b7e1db-46d0-4e07-8500-01cfc2fa8362"
          (reference "#PWR042") (unit 1)
        )
      )
      (project "DevKit"
        (path "/768a484b-8a27-40cf-8cad-0f63935b1af0/d3d3a06e-f81d-4927-9a88-9ed5502f322c"
          (reference "#PWR094") (unit 1)
        )
        (path "/768a484b-8a27-40cf-8cad-0f63935b1af0/04d6ed87-6b10-45aa-8255-84943212068b"
          (reference "#PWR0102") (unit 1)
        )
        (path "/768a484b-8a27-40cf-8cad-0f63935b1af0/693754e5-6fc9-4123-abfe-2e1335cfdb84"
          (reference "#PWR0110") (unit 1)
        )
        (path "/768a484b-8a27-40cf-8cad-0f63935b1af0/81081265-f675-4f9d-bffe-8ec1eaaaba23"
          (reference "#PWR094") (unit 1)
        )
      )
    )
  )

  (symbol (lib_id "power:GND") (at 203.2 111.76 0) (unit 1)
    (in_bom yes) (on_board yes) (dnp no) (fields_autoplaced)
    (uuid f48f0167-1cb1-4317-b4d1-99bba9519df2)
    (property "Reference" "#PWR042" (at 203.2 118.11 0)
      (effects (font (size 1.27 1.27)) hide)
    )
    (property "Value" "GND" (at 203.2 116.84 0)
      (effects (font (size 1.27 1.27)))
    )
    (property "Footprint" "" (at 203.2 111.76 0)
      (effects (font (size 1.27 1.27)) hide)
    )
    (property "Datasheet" "" (at 203.2 111.76 0)
      (effects (font (size 1.27 1.27)) hide)
    )
    (pin "1" (uuid 7fde8a5e-9062-49ca-a7a3-8d0175dd9b66))
    (instances
      (project "GigaVescDrivers"
        (path "/74b7e1db-46d0-4e07-8500-01cfc2fa8362"
          (reference "#PWR042") (unit 1)
        )
      )
      (project "DevKit"
        (path "/768a484b-8a27-40cf-8cad-0f63935b1af0/d3d3a06e-f81d-4927-9a88-9ed5502f322c"
          (reference "#PWR094") (unit 1)
        )
        (path "/768a484b-8a27-40cf-8cad-0f63935b1af0/04d6ed87-6b10-45aa-8255-84943212068b"
          (reference "#PWR0102") (unit 1)
        )
        (path "/768a484b-8a27-40cf-8cad-0f63935b1af0/693754e5-6fc9-4123-abfe-2e1335cfdb84"
          (reference "#PWR0110") (unit 1)
        )
        (path "/768a484b-8a27-40cf-8cad-0f63935b1af0/81081265-f675-4f9d-bffe-8ec1eaaaba23"
          (reference "#PWR0157") (unit 1)
        )
      )
    )
  )

  (symbol (lib_id "Device:R") (at 200.66 34.29 0) (unit 1)
    (in_bom yes) (on_board yes) (dnp no) (fields_autoplaced)
    (uuid f8cda21f-2e30-4e93-a554-94022d742389)
    (property "Reference" "R33" (at 203.2 33.02 0)
      (effects (font (size 1.27 1.27)) (justify left))
    )
    (property "Value" "10k" (at 203.2 35.56 0)
      (effects (font (size 1.27 1.27)) (justify left))
    )
    (property "Footprint" "Resistor_SMD:R_0603_1608Metric" (at 198.882 34.29 90)
      (effects (font (size 1.27 1.27)) hide)
    )
    (property "Datasheet" "~" (at 200.66 34.29 0)
      (effects (font (size 1.27 1.27)) hide)
    )
    (property "MPN" "C25804" (at 200.66 34.29 0)
      (effects (font (size 1.27 1.27)) hide)
    )
    (pin "1" (uuid e579791f-6fb8-4ca2-a78b-a2c049de01e8))
    (pin "2" (uuid f4dde573-f279-420d-805a-60420054c5b7))
    (instances
      (project "GigaVescDrivers"
        (path "/74b7e1db-46d0-4e07-8500-01cfc2fa8362"
          (reference "R33") (unit 1)
        )
      )
      (project "DevKit"
        (path "/768a484b-8a27-40cf-8cad-0f63935b1af0/d3d3a06e-f81d-4927-9a88-9ed5502f322c"
          (reference "R26") (unit 1)
        )
        (path "/768a484b-8a27-40cf-8cad-0f63935b1af0/04d6ed87-6b10-45aa-8255-84943212068b"
          (reference "R33") (unit 1)
        )
        (path "/768a484b-8a27-40cf-8cad-0f63935b1af0/693754e5-6fc9-4123-abfe-2e1335cfdb84"
          (reference "R35") (unit 1)
        )
        (path "/768a484b-8a27-40cf-8cad-0f63935b1af0/81081265-f675-4f9d-bffe-8ec1eaaaba23"
          (reference "R32") (unit 1)
        )
      )
    )
  )

  (symbol (lib_id "Device:LED") (at 151.13 127 180) (unit 1)
    (in_bom yes) (on_board yes) (dnp no)
    (uuid f9132dfb-c655-403a-964b-4587570b407c)
    (property "Reference" "D9" (at 148.59 130.81 90)
      (effects (font (size 1.27 1.27)) (justify right))
    )
    (property "Value" "L_FAULT" (at 151.13 129.54 0)
      (effects (font (size 1.27 1.27)) (justify right))
    )
    (property "Footprint" "LED_SMD:LED_0603_1608Metric" (at 151.13 127 0)
      (effects (font (size 1.27 1.27)) hide)
    )
    (property "Datasheet" "~" (at 151.13 127 0)
      (effects (font (size 1.27 1.27)) hide)
    )
    (property "MPN" "C2286" (at 151.13 127 90)
      (effects (font (size 1.27 1.27)) hide)
    )
    (pin "1" (uuid 26a15c9a-c901-4c37-bc07-f3da69493436))
    (pin "2" (uuid fce4b369-d6bf-4ca6-9aa7-ee8998b687c9))
    (instances
      (project "DevKit"
        (path "/768a484b-8a27-40cf-8cad-0f63935b1af0"
          (reference "D9") (unit 1)
        )
        (path "/768a484b-8a27-40cf-8cad-0f63935b1af0/81081265-f675-4f9d-bffe-8ec1eaaaba23"
          (reference "D11") (unit 1)
        )
      )
    )
  )

  (symbol (lib_id "Device:C") (at 203.2 107.95 0) (unit 1)
    (in_bom yes) (on_board yes) (dnp no)
    (uuid facac02f-023e-4e45-96b5-4d7a058e76f8)
    (property "Reference" "C23" (at 204.47 105.41 0)
      (effects (font (size 1.27 1.27)) (justify left))
    )
    (property "Value" "1n" (at 204.47 110.49 0)
      (effects (font (size 1.27 1.27)) (justify left))
    )
    (property "Footprint" "GigaVescLibs:C_0603_1608Metric_L" (at 204.1652 111.76 0)
      (effects (font (size 1.27 1.27)) hide)
    )
    (property "Datasheet" "~" (at 203.2 107.95 0)
      (effects (font (size 1.27 1.27)) hide)
    )
    (property "MPN" "C1588" (at 203.2 107.95 0)
      (effects (font (size 1.27 1.27)) hide)
    )
    (pin "1" (uuid 79cec23d-0184-4495-928e-38fe5e266534))
    (pin "2" (uuid 4d6fbc6b-9073-4ce1-8573-bea0ef63d107))
    (instances
      (project "GigaVescDrivers"
        (path "/74b7e1db-46d0-4e07-8500-01cfc2fa8362/d88911c9-3d35-433d-8e86-fd490f9c0c66"
          (reference "C23") (unit 1)
        )
      )
      (project "DevKit"
        (path "/768a484b-8a27-40cf-8cad-0f63935b1af0/81081265-f675-4f9d-bffe-8ec1eaaaba23"
          (reference "C49") (unit 1)
        )
        (path "/768a484b-8a27-40cf-8cad-0f63935b1af0/00b03c15-2f32-40aa-9d15-0626e4794bf1"
          (reference "C49") (unit 1)
        )
      )
    )
  )

  (sheet (at 63.5 43.18) (size 29.21 29.21) (fields_autoplaced)
    (stroke (width 0.1524) (type solid))
    (fill (color 0 0 0 0.0000))
    (uuid 4e84f19f-3250-45a9-9b88-20e811e150a6)
    (property "Sheetname" "ComparatorHigh" (at 63.5 42.4684 0)
      (effects (font (size 1.27 1.27)) (justify left bottom))
    )
    (property "Sheetfile" "ATTinyComp.kicad_sch" (at 63.5 72.9746 0)
      (effects (font (size 1.27 1.27)) (justify left top))
    )
    (pin "CMP2-" input (at 92.71 53.34 0)
      (effects (font (size 1.27 1.27)) (justify right))
      (uuid 97036198-c08d-422a-8ff6-cd03fac30ca0)
    )
    (pin "CMP3-" input (at 92.71 55.88 0)
      (effects (font (size 1.27 1.27)) (justify right))
      (uuid 97dadbe0-27c3-43f8-8ca7-1cc3ea793b42)
    )
    (pin "CMP1-" input (at 92.71 50.8 0)
      (effects (font (size 1.27 1.27)) (justify right))
      (uuid 09a45a25-c0ba-410b-8c1e-84dffad7b626)
    )
    (pin "CMP2+" input (at 92.71 62.23 0)
      (effects (font (size 1.27 1.27)) (justify right))
      (uuid 98bc9657-5b87-49ee-a096-21c084cfbed8)
    )
    (pin "CMP1+" input (at 92.71 59.69 0)
      (effects (font (size 1.27 1.27)) (justify right))
      (uuid 3142222f-6c3c-4566-ad4f-899ec301f0f7)
    )
    (pin "CMP3+" input (at 92.71 64.77 0)
      (effects (font (size 1.27 1.27)) (justify right))
      (uuid 4cc02de4-e349-4933-821e-a30fe07b43c9)
    )
    (pin "LATCH_RESET" input (at 92.71 69.85 0)
      (effects (font (size 1.27 1.27)) (justify right))
      (uuid 72844f62-67d1-43bd-9c9f-49422cf3f265)
    )
    (pin "LATCH_OUT" input (at 92.71 45.72 0)
      (effects (font (size 1.27 1.27)) (justify right))
      (uuid 1c058d95-d4f0-4fa0-8229-79dac580fb60)
    )
    (pin "VPOINT" input (at 63.5 69.85 180)
      (effects (font (size 1.27 1.27)) (justify left))
      (uuid e9ae19ba-6522-4248-b351-6da3c675930f)
    )
    (instances
      (project "DevKit"
        (path "/768a484b-8a27-40cf-8cad-0f63935b1af0/81081265-f675-4f9d-bffe-8ec1eaaaba23" (page "11"))
      )
    )
  )

  (sheet (at 63.5 87.63) (size 29.21 29.21) (fields_autoplaced)
    (stroke (width 0.1524) (type solid))
    (fill (color 0 0 0 0.0000))
    (uuid ac734765-aa76-45cd-b5a0-b23ad6c1564a)
    (property "Sheetname" "ComparatorLow" (at 63.5 86.9184 0)
      (effects (font (size 1.27 1.27)) (justify left bottom))
    )
    (property "Sheetfile" "ATTinyComp.kicad_sch" (at 63.5 117.4246 0)
      (effects (font (size 1.27 1.27)) (justify left top))
    )
    (pin "CMP2-" input (at 92.71 97.79 0)
      (effects (font (size 1.27 1.27)) (justify right))
      (uuid a6111067-ece9-4ff4-b17d-8dbcb0535b71)
    )
    (pin "CMP3-" input (at 92.71 100.33 0)
      (effects (font (size 1.27 1.27)) (justify right))
      (uuid f15aad6d-9282-46c8-830e-f1f78589af08)
    )
    (pin "CMP1-" input (at 92.71 95.25 0)
      (effects (font (size 1.27 1.27)) (justify right))
      (uuid 2ec5745c-0c57-41bb-91cf-db18d4ea7d54)
    )
    (pin "CMP2+" input (at 92.71 106.68 0)
      (effects (font (size 1.27 1.27)) (justify right))
      (uuid 6a51673a-728d-4143-ab1e-755c1d081c3e)
    )
    (pin "CMP1+" input (at 92.71 104.14 0)
      (effects (font (size 1.27 1.27)) (justify right))
      (uuid 6205317f-0f87-4247-aac5-57cb04eca28d)
    )
    (pin "CMP3+" input (at 92.71 109.22 0)
      (effects (font (size 1.27 1.27)) (justify right))
      (uuid e532fc3f-9bb5-4ac6-931e-22a833ce7ab3)
    )
    (pin "LATCH_RESET" input (at 92.71 114.3 0)
      (effects (font (size 1.27 1.27)) (justify right))
      (uuid f34bc1af-8bad-4af7-bf3b-e33fa60927c5)
    )
    (pin "LATCH_OUT" input (at 92.71 90.17 0)
      (effects (font (size 1.27 1.27)) (justify right))
      (uuid 13fb2814-9dcb-47f1-8c16-d831c51b7a33)
    )
    (pin "VPOINT" input (at 63.5 114.3 180)
      (effects (font (size 1.27 1.27)) (justify left))
      (uuid 7a7a3508-7e65-4ff5-8847-e684a3900672)
    )
    (instances
      (project "DevKit"
        (path "/768a484b-8a27-40cf-8cad-0f63935b1af0/81081265-f675-4f9d-bffe-8ec1eaaaba23" (page "7"))
      )
    )
  )
)
