{
  "board": {
    "3dviewports": [],
    "design_settings": {
      "defaults": {
        "board_outline_line_width": 0.09999999999999999,
        "copper_line_width": 0.19999999999999998,
        "copper_text_italic": false,
        "copper_text_size_h": 1.5,
        "copper_text_size_v": 1.5,
        "copper_text_thickness": 0.3,
        "copper_text_upright": false,
        "courtyard_line_width": 0.049999999999999996,
        "dimension_precision": 4,
        "dimension_units": 3,
        "dimensions": {
          "arrow_length": 1270000,
          "extension_offset": 500000,
          "keep_text_aligned": true,
          "suppress_zeroes": false,
          "text_position": 0,
          "units_format": 1
        },
        "fab_line_width": 0.09999999999999999,
        "fab_text_italic": false,
        "fab_text_size_h": 1.0,
        "fab_text_size_v": 1.0,
        "fab_text_thickness": 0.15,
        "fab_text_upright": false,
        "other_line_width": 0.15,
        "other_text_italic": false,
        "other_text_size_h": 1.0,
        "other_text_size_v": 1.0,
        "other_text_thickness": 0.15,
        "other_text_upright": false,
        "pads": {
          "drill": 2.2,
          "height": 2.2,
          "width": 2.2
        },
        "silk_line_width": 0.15,
        "silk_text_italic": false,
        "silk_text_size_h": 1.0,
        "silk_text_size_v": 1.0,
        "silk_text_thickness": 0.15,
        "silk_text_upright": false,
        "zones": {
          "45_degree_only": false,
          "min_clearance": 0.508
        }
      },
      "diff_pair_dimensions": [
        {
          "gap": 0.0,
          "via_gap": 0.0,
          "width": 0.0
        }
      ],
      "drc_exclusions": [
        "courtyards_overlap|103842001|67837601|3ca82970-c147-4727-a1e5-002e8984cbb7|cf75a184-75fb-48b2-a5a0-aa31426ccc0a",
        "courtyards_overlap|111750401|60023601|94e39af8-58e4-45b7-b939-9b232ab68905|b5afef64-ce95-42e4-8e38-c2ce1a41a6f5",
        "courtyards_overlap|113048799|75219799|402cce62-fada-452d-8b04-d517da530404|94e39af8-58e4-45b7-b939-9b232ab68905",
        "courtyards_overlap|144443799|62305337|af883175-44e5-4734-a6de-05130c9939e6|f6d8cd93-b507-4204-bb10-7f16e8721d3f",
        "courtyards_overlap|144443799|62305337|f6d8cd93-b507-4204-bb10-7f16e8721d3f|af883175-44e5-4734-a6de-05130c9939e6",
        "courtyards_overlap|54699601|67385201|3ca82970-c147-4727-a1e5-002e8984cbb7|8d0cdd33-a925-4259-b5b5-94423d482c2a",
        "lib_footprint_mismatch|56869246|101041200|cf1b3744-5b27-45cf-a6e6-7f629e67cf0e|00000000-0000-0000-0000-000000000000",
        "silk_edge_clearance|145338800|84648000|6ac0eebc-e142-4a6a-8bcf-a673740323f8|4608510c-bd2c-49b6-b3f2-fa106bcbed2a",
        "silk_edge_clearance|145338800|86548000|6ac0eebc-e142-4a6a-8bcf-a673740323f8|1f26ed8b-59c4-48ab-9609-4a977d811de9",
        "silk_edge_clearance|145338800|90947200|6ac0eebc-e142-4a6a-8bcf-a673740323f8|8f0cd278-bef4-464f-8f7a-d38c39f14fe4",
        "silk_edge_clearance|145338800|92847200|6ac0eebc-e142-4a6a-8bcf-a673740323f8|a0f2379c-a296-4a51-8d9e-e8e28001fca9",
        "silk_edge_clearance|145338800|97348000|6ac0eebc-e142-4a6a-8bcf-a673740323f8|a70878c4-2a1c-4ea5-b54a-ad16e377007a",
        "silk_edge_clearance|145338800|99248000|6ac0eebc-e142-4a6a-8bcf-a673740323f8|9fe21e9c-2211-436c-9583-8ec0bf19be01",
        "silk_edge_clearance|49842300|116311562|f824f4f0-c3a1-4f8b-b5f7-091157f5d875|af27d16b-88d4-4398-bc48-b7ed7a8df963",
        "silk_edge_clearance|49842300|117042000|bed3e890-2727-44c0-aac7-509d18179ef6|0f47045d-eea9-4f46-a8da-e7df06cf3427",
        "silk_edge_clearance|49842300|117042000|bed3e890-2727-44c0-aac7-509d18179ef6|af27d16b-88d4-4398-bc48-b7ed7a8df963",
        "silk_edge_clearance|49842300|82042000|bed3e890-2727-44c0-aac7-509d18179ef6|4dfdcf51-c7a9-4a95-9785-b9cbde4cbfbd",
        "silk_edge_clearance|50372873|117042000|f824f4f0-c3a1-4f8b-b5f7-091157f5d875|0f47045d-eea9-4f46-a8da-e7df06cf3427",
        "silk_overlap|54932300|108254800|30b868c4-e830-4098-a951-f6be960f3bb8|3545df74-58f0-4ef7-9bc8-ab7befaf9748",
        "silk_overlap|54932300|108254800|3545df74-58f0-4ef7-9bc8-ab7befaf9748|30b868c4-e830-4098-a951-f6be960f3bb8",
        "silk_overlap|56825114|112367514|816e3a9d-e169-4640-9fe6-daac19b4f047|0b068e9f-68e2-4bb0-88ec-0b0761f92428",
        "silk_overlap|56825114|112434900|0b068e9f-68e2-4bb0-88ec-0b0761f92428|816e3a9d-e169-4640-9fe6-daac19b4f047",
        "silk_overlap|60889114|112367514|08440d7f-33b4-463c-887f-bfebad538881|295279f8-a1c1-44d9-a4af-be37f740fe9a",
        "silk_overlap|60889114|112434900|295279f8-a1c1-44d9-a4af-be37f740fe9a|08440d7f-33b4-463c-887f-bfebad538881",
        "silk_overlap|64953114|112367514|9b1256fe-9f57-4665-b32d-0122ace0df33|c3fdfe9d-5d88-4f4e-909b-66ac44b15203",
        "silk_overlap|65000733|112557990|9b1256fe-9f57-4665-b32d-0122ace0df33|c3fdfe9d-5d88-4f4e-909b-66ac44b15203",
        "silk_overlap|68381600|117014800|b622aad2-1985-4f25-a90b-1715e46a0ea8|0f47045d-eea9-4f46-a8da-e7df06cf3427",
        "silk_overlap|68381600|117042000|0f47045d-eea9-4f46-a8da-e7df06cf3427|b622aad2-1985-4f25-a90b-1715e46a0ea8",
        "silk_overlap|84621600|117014800|2eb38c3b-a6fd-42e5-919f-a24574e132da|0f47045d-eea9-4f46-a8da-e7df06cf3427",
        "silk_overlap|84621600|117042000|0f47045d-eea9-4f46-a8da-e7df06cf3427|2eb38c3b-a6fd-42e5-919f-a24574e132da",
        "silk_overlap|84621600|117042000|0f47045d-eea9-4f46-a8da-e7df06cf3427|a6cfc95a-f326-484f-8f26-b6a412f7c72e",
        "unconnected_items|114000400|68519800|0587ec56-cc39-4bb1-b2b5-4d614ac40525|1fb71c6c-d156-450e-8f17-5d24d0e03710"
      ],
      "meta": {
        "version": 2
      },
      "rule_severities": {
        "annular_width": "error",
        "clearance": "error",
        "connection_width": "warning",
        "copper_edge_clearance": "error",
        "copper_sliver": "warning",
        "courtyards_overlap": "error",
        "diff_pair_gap_out_of_range": "error",
        "diff_pair_uncoupled_length_too_long": "error",
        "drill_out_of_range": "error",
        "duplicate_footprints": "warning",
        "extra_footprint": "warning",
        "footprint": "error",
        "footprint_type_mismatch": "error",
        "hole_clearance": "error",
        "hole_near_hole": "error",
        "invalid_outline": "error",
        "isolated_copper": "warning",
        "item_on_disabled_layer": "error",
        "items_not_allowed": "error",
        "length_out_of_range": "error",
        "lib_footprint_issues": "warning",
        "lib_footprint_mismatch": "warning",
        "malformed_courtyard": "error",
        "microvia_drill_out_of_range": "error",
        "missing_courtyard": "ignore",
        "missing_footprint": "warning",
        "net_conflict": "warning",
        "npth_inside_courtyard": "ignore",
        "padstack": "error",
        "pth_inside_courtyard": "ignore",
        "shorting_items": "error",
        "silk_edge_clearance": "warning",
        "silk_over_copper": "warning",
        "silk_overlap": "warning",
        "skew_out_of_range": "error",
        "solder_mask_bridge": "error",
        "starved_thermal": "error",
        "text_height": "warning",
        "text_thickness": "warning",
        "through_hole_pad_without_hole": "error",
        "too_many_vias": "error",
        "track_dangling": "warning",
        "track_width": "error",
        "tracks_crossing": "error",
        "unconnected_items": "error",
        "unresolved_variable": "error",
        "via_dangling": "warning",
        "zones_intersect": "error"
      },
      "rules": {
        "allow_blind_buried_vias": false,
        "allow_microvias": false,
        "max_error": 0.005,
        "min_clearance": 0.127,
        "min_connection": 0.0,
        "min_copper_edge_clearance": 0.19999999999999998,
        "min_hole_clearance": 0.25,
        "min_hole_to_hole": 0.254,
        "min_microvia_diameter": 0.19999999999999998,
        "min_microvia_drill": 0.09999999999999999,
        "min_resolved_spokes": 2,
        "min_silk_clearance": 0.0,
        "min_text_height": 0.7999999999999999,
        "min_text_thickness": 0.08,
        "min_through_hole_diameter": 0.19999999999999998,
        "min_track_width": 0.127,
        "min_via_annular_width": 0.13,
        "min_via_diameter": 0.39999999999999997,
        "solder_mask_clearance": 0.0,
        "solder_mask_min_width": 0.0,
        "solder_mask_to_copper_clearance": 0.0,
        "use_height_for_length_calcs": true
      },
      "teardrop_options": [
        {
          "td_allow_use_two_tracks": true,
          "td_curve_segcount": 5,
          "td_on_pad_in_zone": false,
          "td_onpadsmd": true,
          "td_onroundshapesonly": false,
          "td_ontrackend": false,
          "td_onviapad": true
        }
      ],
      "teardrop_parameters": [
        {
          "td_curve_segcount": 0,
          "td_height_ratio": 1.0,
          "td_length_ratio": 0.5,
          "td_maxheight": 2.0,
          "td_maxlen": 1.0,
          "td_target_name": "td_round_shape",
          "td_width_to_size_filter_ratio": 0.9
        },
        {
          "td_curve_segcount": 0,
          "td_height_ratio": 1.0,
          "td_length_ratio": 0.5,
          "td_maxheight": 2.0,
          "td_maxlen": 1.0,
          "td_target_name": "td_rect_shape",
          "td_width_to_size_filter_ratio": 0.9
        },
        {
          "td_curve_segcount": 0,
          "td_height_ratio": 1.0,
          "td_length_ratio": 0.5,
          "td_maxheight": 2.0,
          "td_maxlen": 1.0,
          "td_target_name": "td_track_end",
          "td_width_to_size_filter_ratio": 0.9
        }
      ],
      "track_widths": [
        0.0,
        0.1524,
        0.3048
      ],
      "via_dimensions": [
        {
          "diameter": 0.0,
          "drill": 0.0
        },
        {
          "diameter": 0.3524,
          "drill": 0.2
        },
        {
          "diameter": 0.4524,
          "drill": 0.3
        },
        {
          "diameter": 0.7,
          "drill": 0.3
        }
      ],
      "zones_allow_external_fillets": false,
      "zones_use_no_outline": true
    },
    "layer_presets": [],
    "viewports": []
  },
  "boards": [],
  "cvpcb": {
    "equivalence_files": []
  },
  "erc": {
    "erc_exclusions": [],
    "meta": {
      "version": 0
    },
    "pin_map": [
      [
        0,
        0,
        0,
        0,
        0,
        0,
        1,
        0,
        0,
        0,
        0,
        2
      ],
      [
        0,
        2,
        0,
        1,
        0,
        0,
        1,
        0,
        2,
        2,
        2,
        2
      ],
      [
        0,
        0,
        0,
        0,
        0,
        0,
        1,
        0,
        1,
        0,
        1,
        2
      ],
      [
        0,
        1,
        0,
        0,
        0,
        0,
        1,
        1,
        2,
        1,
        1,
        2
      ],
      [
        0,
        0,
        0,
        0,
        0,
        0,
        1,
        0,
        0,
        0,
        0,
        2
      ],
      [
        0,
        0,
        0,
        0,
        0,
        0,
        0,
        0,
        0,
        0,
        0,
        2
      ],
      [
        1,
        1,
        1,
        1,
        1,
        0,
        1,
        1,
        1,
        1,
        1,
        2
      ],
      [
        0,
        0,
        0,
        1,
        0,
        0,
        1,
        0,
        0,
        0,
        0,
        2
      ],
      [
        0,
        2,
        1,
        2,
        0,
        0,
        1,
        0,
        2,
        2,
        2,
        2
      ],
      [
        0,
        2,
        0,
        1,
        0,
        0,
        1,
        0,
        2,
        0,
        0,
        2
      ],
      [
        0,
        2,
        1,
        1,
        0,
        0,
        1,
        0,
        2,
        0,
        0,
        2
      ],
      [
        2,
        2,
        2,
        2,
        2,
        2,
        2,
        2,
        2,
        2,
        2,
        2
      ]
    ],
    "rule_severities": {
      "bus_definition_conflict": "error",
      "bus_entry_needed": "error",
      "bus_to_bus_conflict": "error",
      "bus_to_net_conflict": "error",
      "conflicting_netclasses": "error",
      "different_unit_footprint": "error",
      "different_unit_net": "error",
      "duplicate_reference": "error",
      "duplicate_sheet_names": "error",
      "endpoint_off_grid": "warning",
      "extra_units": "error",
      "global_label_dangling": "warning",
      "hier_label_mismatch": "error",
      "label_dangling": "error",
      "lib_symbol_issues": "warning",
      "missing_bidi_pin": "warning",
      "missing_input_pin": "warning",
      "missing_power_pin": "error",
      "missing_unit": "warning",
      "multiple_net_names": "warning",
      "net_not_bus_member": "warning",
      "no_connect_connected": "warning",
      "no_connect_dangling": "warning",
      "pin_not_connected": "error",
      "pin_not_driven": "error",
      "pin_to_pin": "warning",
      "power_pin_not_driven": "error",
      "similar_labels": "warning",
      "simulation_model_issue": "error",
      "unannotated": "error",
      "unit_value_mismatch": "error",
      "unresolved_variable": "error",
      "wire_dangling": "error"
    }
  },
  "libraries": {
    "pinned_footprint_libs": [],
    "pinned_symbol_libs": [
      "ak74"
    ]
  },
  "meta": {
    "filename": "XCopy Standalone.kicad_pro",
    "version": 1
  },
  "net_settings": {
    "classes": [
      {
        "bus_width": 12,
        "clearance": 0.2,
        "diff_pair_gap": 0.25,
        "diff_pair_via_gap": 0.25,
        "diff_pair_width": 0.2,
        "line_style": 0,
        "microvia_diameter": 0.3,
        "microvia_drill": 0.1,
        "name": "Default",
        "pcb_color": "rgba(0, 0, 0, 0.000)",
        "schematic_color": "rgba(0, 0, 0, 0.000)",
        "track_width": 0.1524,
        "via_diameter": 0.46,
        "via_drill": 0.2,
        "wire_width": 6
      },
      {
        "bus_width": 12,
        "clearance": 0.2,
        "diff_pair_gap": 0.25,
        "diff_pair_via_gap": 0.25,
        "diff_pair_width": 0.2,
        "line_style": 0,
        "microvia_diameter": 0.3,
        "microvia_drill": 0.1,
        "name": "Audio",
        "pcb_color": "rgb(11, 74, 255)",
        "schematic_color": "rgba(0, 0, 0, 0.000)",
        "track_width": 0.3048,
        "via_diameter": 0.56,
        "via_drill": 0.3,
        "wire_width": 6
      },
      {
        "bus_width": 12,
        "clearance": 0.2,
        "diff_pair_gap": 0.25,
        "diff_pair_via_gap": 0.25,
        "diff_pair_width": 0.2,
        "line_style": 0,
        "microvia_diameter": 0.3,
        "microvia_drill": 0.1,
        "name": "Power",
        "pcb_color": "rgb(255, 0, 204)",
        "schematic_color": "rgba(0, 0, 0, 0.000)",
        "track_width": 0.3048,
        "via_diameter": 0.56,
        "via_drill": 0.3,
        "wire_width": 6
      }
    ],
    "meta": {
      "version": 3
    },
    "net_colors": {
      "+3V3": "rgb(61, 255, 32)"
    },
    "netclass_assignments": null,
    "netclass_patterns": [
      {
        "netclass": "Audio",
        "pattern": "/Sound & Video/AUDIO_INN_CR"
      },
      {
        "netclass": "Audio",
        "pattern": "/Sound & Video/AUDIO_INP_CAP"
      },
      {
        "netclass": "Audio",
        "pattern": "/Sound & Video/AUDIO_INP_CR"
      },
      {
        "netclass": "Audio",
        "pattern": "/Sound & Video/PAM_IN+"
      },
      {
        "netclass": "Audio",
        "pattern": "/Sound & Video/PAM_IN-"
      },
      {
        "netclass": "Audio",
        "pattern": "/Sound & Video/PAM_OUT+"
      },
      {
        "netclass": "Audio",
        "pattern": "/Sound & Video/PAM_OUT-"
      },
      {
        "netclass": "Audio",
        "pattern": "/Sound & Video/PAM_SD"
      },
      {
        "netclass": "Audio",
        "pattern": "/Sound & Video/PAM_SPK+"
      },
      {
        "netclass": "Audio",
        "pattern": "/Sound & Video/PAM_SPK-"
      },
      {
        "netclass": "Audio",
        "pattern": "AUDIO_INP"
      },
      {
        "netclass": "Power",
        "pattern": "+3.3V"
      },
      {
        "netclass": "Power",
        "pattern": "+3V3"
      },
      {
        "netclass": "Power",
        "pattern": "GND"
      },
      {
        "netclass": "Power",
        "pattern": "VBUS"
      }
    ]
  },
  "pcbnew": {
    "last_paths": {
      "gencad": "",
      "idf": "",
      "netlist": "",
      "specctra_dsn": "",
      "step": "XCopy Standalone.step",
      "vrml": ""
    },
    "page_layout_descr_file": ""
  },
  "schematic": {
    "annotate_start_num": 0,
    "drawing": {
      "dashed_lines_dash_length_ratio": 12.0,
      "dashed_lines_gap_length_ratio": 3.0,
      "default_line_thickness": 6.0,
      "default_text_size": 50.0,
      "field_names": [],
      "intersheets_ref_own_page": false,
      "intersheets_ref_prefix": "",
      "intersheets_ref_short": false,
      "intersheets_ref_show": false,
      "intersheets_ref_suffix": "",
      "junction_size_choice": 3,
      "label_size_ratio": 0.375,
      "pin_symbol_size": 25.0,
      "text_offset_ratio": 0.15
    },
    "legacy_lib_dir": "",
    "legacy_lib_list": [],
    "meta": {
      "version": 1
    },
    "net_format_name": "",
    "ngspice": {
      "fix_include_paths": true,
      "fix_passive_vals": false,
      "meta": {
        "version": 0
      },
      "model_mode": 0,
      "workbook_filename": ""
    },
    "page_layout_descr_file": "",
    "plot_directory": "",
    "spice_adjust_passive_values": false,
    "spice_current_sheet_as_root": false,
    "spice_external_command": "spice \"%I\"",
    "spice_model_current_sheet_as_root": true,
    "spice_save_all_currents": false,
    "spice_save_all_voltages": false,
    "subpart_first_id": 65,
    "subpart_id_separator": 0
  },
  "sheets": [
    [
      "a249893f-f46a-4df9-8158-18ae5c4f38de",
      ""
    ],
    [
      "8a414264-8e4e-4f1c-8370-b04674c09cf8",
      "ESP8266"
    ],
    [
      "cd9de9e6-9323-41d3-a4f2-a3d30689b0c3",
      "Power"
    ],
    [
      "5ecd0100-b0bf-494c-9922-fd46ab63beae",
      "Memory"
    ],
    [
      "6abc27e6-9738-4368-a0bf-a1cee5e504a3",
      "Sound & Video"
    ]
  ],
  "text_variables": {}
}
