(kicad_sch (version 20230121) (generator eeschema)

  (uuid 777656f5-5f25-4ab5-a100-8dd280119b22)

  (paper "A4")

  (lib_symbols
    (symbol "Connector_Generic:Conn_01x04" (pin_names (offset 1.016) hide) (in_bom yes) (on_board yes)
      (property "Reference" "J" (at 0 5.08 0)
        (effects (font (size 1.27 1.27)))
      )
      (property "Value" "Conn_01x04" (at 0 -7.62 0)
        (effects (font (size 1.27 1.27)))
      )
      (property "Footprint" "" (at 0 0 0)
        (effects (font (size 1.27 1.27)) hide)
      )
      (property "Datasheet" "~" (at 0 0 0)
        (effects (font (size 1.27 1.27)) hide)
      )
      (property "ki_keywords" "connector" (at 0 0 0)
        (effects (font (size 1.27 1.27)) hide)
      )
      (property "ki_description" "Generic connector, single row, 01x04, script generated (kicad-library-utils/schlib/autogen/connector/)" (at 0 0 0)
        (effects (font (size 1.27 1.27)) hide)
      )
      (property "ki_fp_filters" "Connector*:*_1x??_*" (at 0 0 0)
        (effects (font (size 1.27 1.27)) hide)
      )
      (symbol "Conn_01x04_1_1"
        (rectangle (start -1.27 -4.953) (end 0 -5.207)
          (stroke (width 0.1524) (type default))
          (fill (type none))
        )
        (rectangle (start -1.27 -2.413) (end 0 -2.667)
          (stroke (width 0.1524) (type default))
          (fill (type none))
        )
        (rectangle (start -1.27 0.127) (end 0 -0.127)
          (stroke (width 0.1524) (type default))
          (fill (type none))
        )
        (rectangle (start -1.27 2.667) (end 0 2.413)
          (stroke (width 0.1524) (type default))
          (fill (type none))
        )
        (rectangle (start -1.27 3.81) (end 1.27 -6.35)
          (stroke (width 0.254) (type default))
          (fill (type background))
        )
        (pin passive line (at -5.08 2.54 0) (length 3.81)
          (name "Pin_1" (effects (font (size 1.27 1.27))))
          (number "1" (effects (font (size 1.27 1.27))))
        )
        (pin passive line (at -5.08 0 0) (length 3.81)
          (name "Pin_2" (effects (font (size 1.27 1.27))))
          (number "2" (effects (font (size 1.27 1.27))))
        )
        (pin passive line (at -5.08 -2.54 0) (length 3.81)
          (name "Pin_3" (effects (font (size 1.27 1.27))))
          (number "3" (effects (font (size 1.27 1.27))))
        )
        (pin passive line (at -5.08 -5.08 0) (length 3.81)
          (name "Pin_4" (effects (font (size 1.27 1.27))))
          (number "4" (effects (font (size 1.27 1.27))))
        )
      )
    )
    (symbol "Device:C" (pin_numbers hide) (pin_names (offset 0.254)) (in_bom yes) (on_board yes)
      (property "Reference" "C" (at 0.635 2.54 0)
        (effects (font (size 1.27 1.27)) (justify left))
      )
      (property "Value" "C" (at 0.635 -2.54 0)
        (effects (font (size 1.27 1.27)) (justify left))
      )
      (property "Footprint" "" (at 0.9652 -3.81 0)
        (effects (font (size 1.27 1.27)) hide)
      )
      (property "Datasheet" "~" (at 0 0 0)
        (effects (font (size 1.27 1.27)) hide)
      )
      (property "ki_keywords" "cap capacitor" (at 0 0 0)
        (effects (font (size 1.27 1.27)) hide)
      )
      (property "ki_description" "Unpolarized capacitor" (at 0 0 0)
        (effects (font (size 1.27 1.27)) hide)
      )
      (property "ki_fp_filters" "C_*" (at 0 0 0)
        (effects (font (size 1.27 1.27)) hide)
      )
      (symbol "C_0_1"
        (polyline
          (pts
            (xy -2.032 -0.762)
            (xy 2.032 -0.762)
          )
          (stroke (width 0.508) (type default))
          (fill (type none))
        )
        (polyline
          (pts
            (xy -2.032 0.762)
            (xy 2.032 0.762)
          )
          (stroke (width 0.508) (type default))
          (fill (type none))
        )
      )
      (symbol "C_1_1"
        (pin passive line (at 0 3.81 270) (length 2.794)
          (name "~" (effects (font (size 1.27 1.27))))
          (number "1" (effects (font (size 1.27 1.27))))
        )
        (pin passive line (at 0 -3.81 90) (length 2.794)
          (name "~" (effects (font (size 1.27 1.27))))
          (number "2" (effects (font (size 1.27 1.27))))
        )
      )
    )
    (symbol "Device:D_Schottky" (pin_numbers hide) (pin_names (offset 1.016) hide) (in_bom yes) (on_board yes)
      (property "Reference" "D" (at 0 2.54 0)
        (effects (font (size 1.27 1.27)))
      )
      (property "Value" "D_Schottky" (at 0 -2.54 0)
        (effects (font (size 1.27 1.27)))
      )
      (property "Footprint" "" (at 0 0 0)
        (effects (font (size 1.27 1.27)) hide)
      )
      (property "Datasheet" "~" (at 0 0 0)
        (effects (font (size 1.27 1.27)) hide)
      )
      (property "ki_keywords" "diode Schottky" (at 0 0 0)
        (effects (font (size 1.27 1.27)) hide)
      )
      (property "ki_description" "Schottky diode" (at 0 0 0)
        (effects (font (size 1.27 1.27)) hide)
      )
      (property "ki_fp_filters" "TO-???* *_Diode_* *SingleDiode* D_*" (at 0 0 0)
        (effects (font (size 1.27 1.27)) hide)
      )
      (symbol "D_Schottky_0_1"
        (polyline
          (pts
            (xy 1.27 0)
            (xy -1.27 0)
          )
          (stroke (width 0) (type default))
          (fill (type none))
        )
        (polyline
          (pts
            (xy 1.27 1.27)
            (xy 1.27 -1.27)
            (xy -1.27 0)
            (xy 1.27 1.27)
          )
          (stroke (width 0.254) (type default))
          (fill (type none))
        )
        (polyline
          (pts
            (xy -1.905 0.635)
            (xy -1.905 1.27)
            (xy -1.27 1.27)
            (xy -1.27 -1.27)
            (xy -0.635 -1.27)
            (xy -0.635 -0.635)
          )
          (stroke (width 0.254) (type default))
          (fill (type none))
        )
      )
      (symbol "D_Schottky_1_1"
        (pin passive line (at -3.81 0 0) (length 2.54)
          (name "K" (effects (font (size 1.27 1.27))))
          (number "1" (effects (font (size 1.27 1.27))))
        )
        (pin passive line (at 3.81 0 180) (length 2.54)
          (name "A" (effects (font (size 1.27 1.27))))
          (number "2" (effects (font (size 1.27 1.27))))
        )
      )
    )
    (symbol "Device:R" (pin_numbers hide) (pin_names (offset 0)) (in_bom yes) (on_board yes)
      (property "Reference" "R" (at 2.032 0 90)
        (effects (font (size 1.27 1.27)))
      )
      (property "Value" "R" (at 0 0 90)
        (effects (font (size 1.27 1.27)))
      )
      (property "Footprint" "" (at -1.778 0 90)
        (effects (font (size 1.27 1.27)) hide)
      )
      (property "Datasheet" "~" (at 0 0 0)
        (effects (font (size 1.27 1.27)) hide)
      )
      (property "ki_keywords" "R res resistor" (at 0 0 0)
        (effects (font (size 1.27 1.27)) hide)
      )
      (property "ki_description" "Resistor" (at 0 0 0)
        (effects (font (size 1.27 1.27)) hide)
      )
      (property "ki_fp_filters" "R_*" (at 0 0 0)
        (effects (font (size 1.27 1.27)) hide)
      )
      (symbol "R_0_1"
        (rectangle (start -1.016 -2.54) (end 1.016 2.54)
          (stroke (width 0.254) (type default))
          (fill (type none))
        )
      )
      (symbol "R_1_1"
        (pin passive line (at 0 3.81 270) (length 1.27)
          (name "~" (effects (font (size 1.27 1.27))))
          (number "1" (effects (font (size 1.27 1.27))))
        )
        (pin passive line (at 0 -3.81 90) (length 1.27)
          (name "~" (effects (font (size 1.27 1.27))))
          (number "2" (effects (font (size 1.27 1.27))))
        )
      )
    )
    (symbol "Driver_FET:UCC21520DW" (in_bom yes) (on_board yes)
      (property "Reference" "U" (at 0 16.51 0)
        (effects (font (size 1.27 1.27)))
      )
      (property "Value" "UCC21520DW" (at 0 13.97 0)
        (effects (font (size 1.27 1.27)))
      )
      (property "Footprint" "Package_SO:SOIC-16W_7.5x10.3mm_P1.27mm" (at 0 -13.97 0)
        (effects (font (size 1.27 1.27)) hide)
      )
      (property "Datasheet" "http://www.ti.com/lit/ds/symlink/ucc21520.pdf" (at 0 -1.27 0)
        (effects (font (size 1.27 1.27)) hide)
      )
      (property "ki_keywords" "Dual Isolated Gate Driver" (at 0 0 0)
        (effects (font (size 1.27 1.27)) hide)
      )
      (property "ki_description" "Isolated Dual-Channel Gate Driver, Output Current 4.0/6.0A, 5.7kV Isolation, 8V UVLO, SOIC-16W" (at 0 0 0)
        (effects (font (size 1.27 1.27)) hide)
      )
      (property "ki_fp_filters" "SOIC*7.5x10.3mm*P1.27mm*" (at 0 0 0)
        (effects (font (size 1.27 1.27)) hide)
      )
      (symbol "UCC21520DW_0_0"
        (polyline
          (pts
            (xy -0.635 6.35)
            (xy -0.635 5.08)
          )
          (stroke (width 0) (type default))
          (fill (type none))
        )
        (polyline
          (pts
            (xy -0.635 10.16)
            (xy -0.635 8.89)
          )
          (stroke (width 0) (type default))
          (fill (type none))
        )
        (polyline
          (pts
            (xy -0.635 12.065)
            (xy -0.635 10.795)
          )
          (stroke (width 0) (type default))
          (fill (type none))
        )
        (polyline
          (pts
            (xy -0.254 -7.62)
            (xy -2.54 -7.62)
          )
          (stroke (width 0) (type default))
          (fill (type none))
        )
        (polyline
          (pts
            (xy -0.254 -6.858)
            (xy -0.254 -8.382)
          )
          (stroke (width 0.254) (type default))
          (fill (type none))
        )
        (polyline
          (pts
            (xy -0.254 7.62)
            (xy -2.54 7.62)
          )
          (stroke (width 0) (type default))
          (fill (type none))
        )
        (polyline
          (pts
            (xy -0.254 8.382)
            (xy -0.254 6.858)
          )
          (stroke (width 0.254) (type default))
          (fill (type none))
        )
        (polyline
          (pts
            (xy 0.254 -7.62)
            (xy 1.778 -7.62)
          )
          (stroke (width 0) (type default))
          (fill (type none))
        )
        (polyline
          (pts
            (xy 0.254 -6.858)
            (xy 0.254 -8.382)
          )
          (stroke (width 0.254) (type default))
          (fill (type none))
        )
        (polyline
          (pts
            (xy 0.254 7.62)
            (xy 1.778 7.62)
          )
          (stroke (width 0) (type default))
          (fill (type none))
        )
        (polyline
          (pts
            (xy 0.254 8.382)
            (xy 0.254 6.858)
          )
          (stroke (width 0.254) (type default))
          (fill (type none))
        )
        (polyline
          (pts
            (xy 0.635 6.35)
            (xy 0.635 5.08)
          )
          (stroke (width 0) (type default))
          (fill (type none))
        )
        (polyline
          (pts
            (xy 0.635 8.89)
            (xy 0.635 10.16)
          )
          (stroke (width 0) (type default))
          (fill (type none))
        )
        (polyline
          (pts
            (xy 0.635 10.795)
            (xy 0.635 12.065)
          )
          (stroke (width 0) (type default))
          (fill (type none))
        )
        (polyline
          (pts
            (xy 2.54 -0.635)
            (xy 1.27 -0.635)
          )
          (stroke (width 0) (type default))
          (fill (type none))
        )
        (polyline
          (pts
            (xy 2.54 0.635)
            (xy 1.27 0.635)
          )
          (stroke (width 0) (type default))
          (fill (type none))
        )
        (polyline
          (pts
            (xy 4.064 -7.62)
            (xy 3.302 -7.62)
          )
          (stroke (width 0) (type default))
          (fill (type none))
        )
        (polyline
          (pts
            (xy 4.064 7.62)
            (xy 3.302 7.62)
          )
          (stroke (width 0) (type default))
          (fill (type none))
        )
        (polyline
          (pts
            (xy 4.445 -0.635)
            (xy 3.175 -0.635)
          )
          (stroke (width 0) (type default))
          (fill (type none))
        )
        (polyline
          (pts
            (xy 4.445 0.635)
            (xy 3.175 0.635)
          )
          (stroke (width 0) (type default))
          (fill (type none))
        )
        (polyline
          (pts
            (xy 6.35 -0.635)
            (xy 5.08 -0.635)
          )
          (stroke (width 0) (type default))
          (fill (type none))
        )
        (polyline
          (pts
            (xy 6.35 0.635)
            (xy 5.08 0.635)
          )
          (stroke (width 0) (type default))
          (fill (type none))
        )
        (polyline
          (pts
            (xy 8.255 -0.635)
            (xy 6.985 -0.635)
          )
          (stroke (width 0) (type default))
          (fill (type none))
        )
        (polyline
          (pts
            (xy 8.255 0.635)
            (xy 6.985 0.635)
          )
          (stroke (width 0) (type default))
          (fill (type none))
        )
        (polyline
          (pts
            (xy 10.16 -0.635)
            (xy 8.89 -0.635)
          )
          (stroke (width 0) (type default))
          (fill (type none))
        )
        (polyline
          (pts
            (xy 10.16 0.635)
            (xy 8.89 0.635)
          )
          (stroke (width 0) (type default))
          (fill (type none))
        )
        (polyline
          (pts
            (xy 4.064 -10.16)
            (xy 2.54 -10.16)
            (xy 2.54 -8.382)
          )
          (stroke (width 0) (type default))
          (fill (type none))
        )
        (polyline
          (pts
            (xy 4.064 -5.08)
            (xy 2.54 -5.08)
            (xy 2.54 -6.858)
          )
          (stroke (width 0) (type default))
          (fill (type none))
        )
        (polyline
          (pts
            (xy 4.064 5.08)
            (xy 2.54 5.08)
            (xy 2.54 6.858)
          )
          (stroke (width 0) (type default))
          (fill (type none))
        )
        (polyline
          (pts
            (xy 4.064 10.16)
            (xy 2.54 10.16)
            (xy 2.54 8.382)
          )
          (stroke (width 0) (type default))
          (fill (type none))
        )
        (polyline
          (pts
            (xy 3.302 -7.62)
            (xy 1.778 -9.144)
            (xy 1.778 -6.096)
            (xy 3.302 -7.62)
          )
          (stroke (width 0) (type default))
          (fill (type none))
        )
        (polyline
          (pts
            (xy 3.302 7.62)
            (xy 1.778 6.096)
            (xy 1.778 9.144)
            (xy 3.302 7.62)
          )
          (stroke (width 0) (type default))
          (fill (type none))
        )
        (rectangle (start 1.016 -6.35) (end -1.016 -8.89)
          (stroke (width 0) (type default))
          (fill (type none))
        )
        (rectangle (start 1.016 8.89) (end -1.016 6.35)
          (stroke (width 0) (type default))
          (fill (type none))
        )
        (text "Logic Input" (at -3.302 0 900)
          (effects (font (size 0.635 0.635)))
        )
      )
      (symbol "UCC21520DW_0_1"
        (rectangle (start -3.81 11.43) (end -2.54 -11.43)
          (stroke (width 0) (type default))
          (fill (type none))
        )
        (polyline
          (pts
            (xy -3.81 -10.16)
            (xy -4.572 -10.16)
          )
          (stroke (width 0) (type default))
          (fill (type none))
        )
        (polyline
          (pts
            (xy -3.81 -7.62)
            (xy -4.572 -7.62)
          )
          (stroke (width 0) (type default))
          (fill (type none))
        )
        (polyline
          (pts
            (xy -3.81 -2.54)
            (xy -4.572 -2.54)
          )
          (stroke (width 0) (type default))
          (fill (type none))
        )
        (polyline
          (pts
            (xy -3.81 0)
            (xy -4.572 0)
          )
          (stroke (width 0) (type default))
          (fill (type none))
        )
        (polyline
          (pts
            (xy -3.81 2.54)
            (xy -4.572 2.54)
          )
          (stroke (width 0) (type default))
          (fill (type none))
        )
        (polyline
          (pts
            (xy -3.81 10.16)
            (xy -4.572 10.16)
          )
          (stroke (width 0) (type default))
          (fill (type none))
        )
        (polyline
          (pts
            (xy -0.635 -10.795)
            (xy -0.635 -12.065)
          )
          (stroke (width 0) (type default))
          (fill (type none))
        )
        (polyline
          (pts
            (xy -0.635 -8.89)
            (xy -0.635 -10.16)
          )
          (stroke (width 0) (type default))
          (fill (type none))
        )
        (polyline
          (pts
            (xy -0.635 -5.08)
            (xy -0.635 -6.35)
          )
          (stroke (width 0) (type default))
          (fill (type none))
        )
        (polyline
          (pts
            (xy -0.635 -3.175)
            (xy -0.635 -4.445)
          )
          (stroke (width 0) (type default))
          (fill (type none))
        )
        (polyline
          (pts
            (xy -0.635 -1.27)
            (xy -0.635 -2.54)
          )
          (stroke (width 0) (type default))
          (fill (type none))
        )
        (polyline
          (pts
            (xy -0.635 0.635)
            (xy -0.635 -0.635)
          )
          (stroke (width 0) (type default))
          (fill (type none))
        )
        (polyline
          (pts
            (xy -0.635 2.54)
            (xy -0.635 1.27)
          )
          (stroke (width 0) (type default))
          (fill (type none))
        )
        (polyline
          (pts
            (xy -0.635 4.445)
            (xy -0.635 3.175)
          )
          (stroke (width 0) (type default))
          (fill (type none))
        )
        (polyline
          (pts
            (xy 0.635 -10.795)
            (xy 0.635 -12.065)
          )
          (stroke (width 0) (type default))
          (fill (type none))
        )
        (polyline
          (pts
            (xy 0.635 -8.89)
            (xy 0.635 -10.16)
          )
          (stroke (width 0) (type default))
          (fill (type none))
        )
        (polyline
          (pts
            (xy 0.635 -5.08)
            (xy 0.635 -6.35)
          )
          (stroke (width 0) (type default))
          (fill (type none))
        )
        (polyline
          (pts
            (xy 0.635 -3.175)
            (xy 0.635 -4.445)
          )
          (stroke (width 0) (type default))
          (fill (type none))
        )
        (polyline
          (pts
            (xy 0.635 -1.27)
            (xy 0.635 -2.54)
          )
          (stroke (width 0) (type default))
          (fill (type none))
        )
        (polyline
          (pts
            (xy 0.635 0.635)
            (xy 0.635 -0.635)
          )
          (stroke (width 0) (type default))
          (fill (type none))
        )
        (polyline
          (pts
            (xy 0.635 2.54)
            (xy 0.635 1.27)
          )
          (stroke (width 0) (type default))
          (fill (type none))
        )
        (polyline
          (pts
            (xy 0.635 4.445)
            (xy 0.635 3.175)
          )
          (stroke (width 0) (type default))
          (fill (type none))
        )
        (rectangle (start 10.16 12.7) (end -10.16 -12.7)
          (stroke (width 0) (type default))
          (fill (type background))
        )
      )
      (symbol "UCC21520DW_1_1"
        (pin input line (at -12.7 2.54 0) (length 2.54)
          (name "INA" (effects (font (size 1.27 1.27))))
          (number "1" (effects (font (size 1.27 1.27))))
        )
        (pin output line (at 12.7 -7.62 180) (length 2.54)
          (name "OUTB" (effects (font (size 1.27 1.27))))
          (number "10" (effects (font (size 1.27 1.27))))
        )
        (pin power_in line (at 12.7 -5.08 180) (length 2.54)
          (name "VDDB" (effects (font (size 1.27 1.27))))
          (number "11" (effects (font (size 1.27 1.27))))
        )
        (pin no_connect line (at 10.16 -2.54 180) (length 2.54) hide
          (name "NC" (effects (font (size 1.27 1.27))))
          (number "12" (effects (font (size 1.27 1.27))))
        )
        (pin no_connect line (at 10.16 2.54 180) (length 2.54) hide
          (name "NC" (effects (font (size 1.27 1.27))))
          (number "13" (effects (font (size 1.27 1.27))))
        )
        (pin power_in line (at 12.7 5.08 180) (length 2.54)
          (name "VSSA" (effects (font (size 1.27 1.27))))
          (number "14" (effects (font (size 1.27 1.27))))
        )
        (pin output line (at 12.7 7.62 180) (length 2.54)
          (name "OUTA" (effects (font (size 1.27 1.27))))
          (number "15" (effects (font (size 1.27 1.27))))
        )
        (pin power_in line (at 12.7 10.16 180) (length 2.54)
          (name "VDDA" (effects (font (size 1.27 1.27))))
          (number "16" (effects (font (size 1.27 1.27))))
        )
        (pin input line (at -12.7 0 0) (length 2.54)
          (name "INB" (effects (font (size 1.27 1.27))))
          (number "2" (effects (font (size 1.27 1.27))))
        )
        (pin power_in line (at -12.7 10.16 0) (length 2.54)
          (name "VCCI" (effects (font (size 1.27 1.27))))
          (number "3" (effects (font (size 1.27 1.27))))
        )
        (pin power_in line (at -12.7 -10.16 0) (length 2.54)
          (name "GND" (effects (font (size 1.27 1.27))))
          (number "4" (effects (font (size 1.27 1.27))))
        )
        (pin input line (at -12.7 -2.54 0) (length 2.54)
          (name "DIS" (effects (font (size 1.27 1.27))))
          (number "5" (effects (font (size 1.27 1.27))))
        )
        (pin passive line (at -12.7 -7.62 0) (length 2.54)
          (name "DT" (effects (font (size 1.27 1.27))))
          (number "6" (effects (font (size 1.27 1.27))))
        )
        (pin no_connect line (at -10.16 -5.08 0) (length 2.54) hide
          (name "NC" (effects (font (size 1.27 1.27))))
          (number "7" (effects (font (size 1.27 1.27))))
        )
        (pin passive line (at -12.7 10.16 0) (length 2.54) hide
          (name "VCCI" (effects (font (size 1.27 1.27))))
          (number "8" (effects (font (size 1.27 1.27))))
        )
        (pin power_in line (at 12.7 -10.16 180) (length 2.54)
          (name "VSSB" (effects (font (size 1.27 1.27))))
          (number "9" (effects (font (size 1.27 1.27))))
        )
      )
    )
    (symbol "power:+15V" (power) (pin_names (offset 0)) (in_bom yes) (on_board yes)
      (property "Reference" "#PWR" (at 0 -3.81 0)
        (effects (font (size 1.27 1.27)) hide)
      )
      (property "Value" "+15V" (at 0 3.556 0)
        (effects (font (size 1.27 1.27)))
      )
      (property "Footprint" "" (at 0 0 0)
        (effects (font (size 1.27 1.27)) hide)
      )
      (property "Datasheet" "" (at 0 0 0)
        (effects (font (size 1.27 1.27)) hide)
      )
      (property "ki_keywords" "global power" (at 0 0 0)
        (effects (font (size 1.27 1.27)) hide)
      )
      (property "ki_description" "Power symbol creates a global label with name \"+15V\"" (at 0 0 0)
        (effects (font (size 1.27 1.27)) hide)
      )
      (symbol "+15V_0_1"
        (polyline
          (pts
            (xy -0.762 1.27)
            (xy 0 2.54)
          )
          (stroke (width 0) (type default))
          (fill (type none))
        )
        (polyline
          (pts
            (xy 0 0)
            (xy 0 2.54)
          )
          (stroke (width 0) (type default))
          (fill (type none))
        )
        (polyline
          (pts
            (xy 0 2.54)
            (xy 0.762 1.27)
          )
          (stroke (width 0) (type default))
          (fill (type none))
        )
      )
      (symbol "+15V_1_1"
        (pin power_in line (at 0 0 90) (length 0) hide
          (name "+15V" (effects (font (size 1.27 1.27))))
          (number "1" (effects (font (size 1.27 1.27))))
        )
      )
    )
    (symbol "power:+3.3V" (power) (pin_names (offset 0)) (in_bom yes) (on_board yes)
      (property "Reference" "#PWR" (at 0 -3.81 0)
        (effects (font (size 1.27 1.27)) hide)
      )
      (property "Value" "+3.3V" (at 0 3.556 0)
        (effects (font (size 1.27 1.27)))
      )
      (property "Footprint" "" (at 0 0 0)
        (effects (font (size 1.27 1.27)) hide)
      )
      (property "Datasheet" "" (at 0 0 0)
        (effects (font (size 1.27 1.27)) hide)
      )
      (property "ki_keywords" "global power" (at 0 0 0)
        (effects (font (size 1.27 1.27)) hide)
      )
      (property "ki_description" "Power symbol creates a global label with name \"+3.3V\"" (at 0 0 0)
        (effects (font (size 1.27 1.27)) hide)
      )
      (symbol "+3.3V_0_1"
        (polyline
          (pts
            (xy -0.762 1.27)
            (xy 0 2.54)
          )
          (stroke (width 0) (type default))
          (fill (type none))
        )
        (polyline
          (pts
            (xy 0 0)
            (xy 0 2.54)
          )
          (stroke (width 0) (type default))
          (fill (type none))
        )
        (polyline
          (pts
            (xy 0 2.54)
            (xy 0.762 1.27)
          )
          (stroke (width 0) (type default))
          (fill (type none))
        )
      )
      (symbol "+3.3V_1_1"
        (pin power_in line (at 0 0 90) (length 0) hide
          (name "+3.3V" (effects (font (size 1.27 1.27))))
          (number "1" (effects (font (size 1.27 1.27))))
        )
      )
    )
    (symbol "power:GND" (power) (pin_names (offset 0)) (in_bom yes) (on_board yes)
      (property "Reference" "#PWR" (at 0 -6.35 0)
        (effects (font (size 1.27 1.27)) hide)
      )
      (property "Value" "GND" (at 0 -3.81 0)
        (effects (font (size 1.27 1.27)))
      )
      (property "Footprint" "" (at 0 0 0)
        (effects (font (size 1.27 1.27)) hide)
      )
      (property "Datasheet" "" (at 0 0 0)
        (effects (font (size 1.27 1.27)) hide)
      )
      (property "ki_keywords" "global power" (at 0 0 0)
        (effects (font (size 1.27 1.27)) hide)
      )
      (property "ki_description" "Power symbol creates a global label with name \"GND\" , ground" (at 0 0 0)
        (effects (font (size 1.27 1.27)) hide)
      )
      (symbol "GND_0_1"
        (polyline
          (pts
            (xy 0 0)
            (xy 0 -1.27)
            (xy 1.27 -1.27)
            (xy 0 -2.54)
            (xy -1.27 -1.27)
            (xy 0 -1.27)
          )
          (stroke (width 0) (type default))
          (fill (type none))
        )
      )
      (symbol "GND_1_1"
        (pin power_in line (at 0 0 270) (length 0) hide
          (name "GND" (effects (font (size 1.27 1.27))))
          (number "1" (effects (font (size 1.27 1.27))))
        )
      )
    )
  )

  (junction (at 151.13 110.49) (diameter 0) (color 0 0 0 0)
    (uuid 20c6cbdd-4019-4b06-ae7b-def6aed57683)
  )
  (junction (at 93.98 90.17) (diameter 0) (color 0 0 0 0)
    (uuid 224af776-7b83-4579-aa04-accef6e6e98b)
  )
  (junction (at 151.13 95.25) (diameter 0) (color 0 0 0 0)
    (uuid 28f03a38-aa8c-4493-8ec4-9107b179670a)
  )
  (junction (at 72.39 107.95) (diameter 0) (color 0 0 0 0)
    (uuid 42226fe9-5c21-4f41-8a39-0e76603982c6)
  )
  (junction (at 166.37 88.9) (diameter 0) (color 0 0 0 0)
    (uuid 7ce9608b-4f91-4643-89cc-fd24b3a3e968)
  )
  (junction (at 194.31 82.55) (diameter 0) (color 0 0 0 0)
    (uuid 7e2573ff-3c38-4066-96d9-7680e69e074e)
  )
  (junction (at 190.5 82.55) (diameter 0) (color 0 0 0 0)
    (uuid 7f9316e6-b056-4e33-ba82-1c1fb79d0441)
  )
  (junction (at 194.31 118.11) (diameter 0) (color 0 0 0 0)
    (uuid 8869b22c-8809-4fd6-850b-6294b66335f9)
  )
  (junction (at 166.37 107.95) (diameter 0) (color 0 0 0 0)
    (uuid 9bfa0c1f-1bdb-492e-bb2a-f33cf6bae4b8)
  )
  (junction (at 134.62 105.41) (diameter 0) (color 0 0 0 0)
    (uuid a8c9aeee-9dc4-404b-ab2a-d4fefb7ad2c0)
  )
  (junction (at 194.31 105.41) (diameter 0) (color 0 0 0 0)
    (uuid b6642d7e-6672-4b94-9542-52a6ebc68898)
  )
  (junction (at 194.31 95.25) (diameter 0) (color 0 0 0 0)
    (uuid d40d6f33-1666-43c4-b928-f772d1bfbc16)
  )
  (junction (at 68.58 120.65) (diameter 0) (color 0 0 0 0)
    (uuid eff39284-5817-4083-afda-a6c18c96775a)
  )
  (junction (at 134.62 90.17) (diameter 0) (color 0 0 0 0)
    (uuid f7f9daef-505f-4657-ae13-29592bb86212)
  )
  (junction (at 190.5 105.41) (diameter 0) (color 0 0 0 0)
    (uuid fc811d7f-44d9-4dcb-b32f-023a6517256d)
  )

  (wire (pts (xy 190.5 82.55) (xy 190.5 88.9))
    (stroke (width 0) (type default))
    (uuid 00d1f9c1-3d3b-4b3f-adfd-0220f52a52bc)
  )
  (wire (pts (xy 151.13 95.25) (xy 194.31 95.25))
    (stroke (width 0) (type default))
    (uuid 0df8797f-a3cc-4e6a-b770-8c34a3ab50a8)
  )
  (wire (pts (xy 54.61 71.12) (xy 54.61 72.39))
    (stroke (width 0) (type default))
    (uuid 110e67af-54be-4989-b830-1461b5e3960c)
  )
  (wire (pts (xy 62.23 116.84) (xy 62.23 120.65))
    (stroke (width 0) (type default))
    (uuid 1370881f-497b-49a4-b892-1a7b58745f2b)
  )
  (wire (pts (xy 158.75 88.9) (xy 166.37 88.9))
    (stroke (width 0) (type default))
    (uuid 13aa1623-78b0-4f11-b895-fca4e77db8df)
  )
  (wire (pts (xy 151.13 90.17) (xy 147.32 90.17))
    (stroke (width 0) (type default))
    (uuid 2d8aca3b-3357-41a4-98f3-5d465d6649f6)
  )
  (wire (pts (xy 62.23 109.22) (xy 62.23 107.95))
    (stroke (width 0) (type default))
    (uuid 3083a5da-0f27-4b2c-b577-70febea778b7)
  )
  (wire (pts (xy 177.8 105.41) (xy 190.5 105.41))
    (stroke (width 0) (type default))
    (uuid 316b693c-d6e9-4e12-b3d6-c4c4981f8995)
  )
  (wire (pts (xy 129.54 92.71) (xy 158.75 92.71))
    (stroke (width 0) (type default))
    (uuid 32d23af2-cf4e-4406-89a1-5ec8715bf479)
  )
  (wire (pts (xy 129.54 107.95) (xy 166.37 107.95))
    (stroke (width 0) (type default))
    (uuid 40b93d51-cd84-4310-ae1c-e8519ec25062)
  )
  (wire (pts (xy 134.62 105.41) (xy 139.7 105.41))
    (stroke (width 0) (type default))
    (uuid 41ce00c1-d2d3-4a6d-ad92-237672cb642c)
  )
  (wire (pts (xy 62.23 120.65) (xy 68.58 120.65))
    (stroke (width 0) (type default))
    (uuid 43942697-fa7b-4d04-8541-1481c792fdf6)
  )
  (wire (pts (xy 194.31 118.11) (xy 151.13 118.11))
    (stroke (width 0) (type default))
    (uuid 4626613a-feb3-4d2c-a393-5ac66f35d8eb)
  )
  (wire (pts (xy 129.54 95.25) (xy 151.13 95.25))
    (stroke (width 0) (type default))
    (uuid 481dbf43-dd68-4e86-973a-cc58e57cbaa1)
  )
  (wire (pts (xy 99.06 102.87) (xy 104.14 102.87))
    (stroke (width 0) (type default))
    (uuid 49fe0ed2-d627-4132-b8f0-bedbf4f89970)
  )
  (wire (pts (xy 151.13 110.49) (xy 151.13 118.11))
    (stroke (width 0) (type default))
    (uuid 5048742a-cfeb-4f2a-96e4-ff66371876e6)
  )
  (wire (pts (xy 72.39 107.95) (xy 72.39 109.22))
    (stroke (width 0) (type default))
    (uuid 51fec2df-34e0-4283-bef1-6995011fbbd1)
  )
  (wire (pts (xy 104.14 110.49) (xy 101.6 110.49))
    (stroke (width 0) (type default))
    (uuid 61fcfc1c-27d8-47b9-83ad-38d17d649bc1)
  )
  (wire (pts (xy 129.54 105.41) (xy 134.62 105.41))
    (stroke (width 0) (type default))
    (uuid 6914c851-146e-432d-a359-23c6dd30291a)
  )
  (wire (pts (xy 170.18 88.9) (xy 166.37 88.9))
    (stroke (width 0) (type default))
    (uuid 6a7e49ad-4b42-4d67-8ddb-17ad861aa317)
  )
  (wire (pts (xy 166.37 105.41) (xy 166.37 107.95))
    (stroke (width 0) (type default))
    (uuid 6e8137d0-9e64-4517-b70b-0083bb106175)
  )
  (wire (pts (xy 151.13 105.41) (xy 151.13 110.49))
    (stroke (width 0) (type default))
    (uuid 722d4fc0-f378-4600-be42-39eaf4cc4a96)
  )
  (wire (pts (xy 134.62 90.17) (xy 139.7 90.17))
    (stroke (width 0) (type default))
    (uuid 7818a125-3f1b-4503-b638-542c4f838726)
  )
  (wire (pts (xy 99.06 97.79) (xy 104.14 97.79))
    (stroke (width 0) (type default))
    (uuid 79fc8344-ef07-4429-8646-e70e825817ab)
  )
  (wire (pts (xy 129.54 110.49) (xy 151.13 110.49))
    (stroke (width 0) (type default))
    (uuid 7a41e05f-e835-4d82-8152-331277c2ab58)
  )
  (wire (pts (xy 134.62 82.55) (xy 134.62 90.17))
    (stroke (width 0) (type default))
    (uuid 7b44969c-7b8d-4391-a04d-8ed0f3aa9d9d)
  )
  (wire (pts (xy 166.37 88.9) (xy 166.37 82.55))
    (stroke (width 0) (type default))
    (uuid 7b8cd561-8fa2-4775-8cb8-9753e08d7ff3)
  )
  (wire (pts (xy 166.37 105.41) (xy 170.18 105.41))
    (stroke (width 0) (type default))
    (uuid 7c001270-ae82-4f4b-a83d-6a4404994933)
  )
  (wire (pts (xy 194.31 82.55) (xy 200.66 82.55))
    (stroke (width 0) (type default))
    (uuid 7ccc4272-2f0f-4c79-a25a-e1662bad0235)
  )
  (wire (pts (xy 194.31 95.25) (xy 200.66 95.25))
    (stroke (width 0) (type default))
    (uuid 83020f73-72e7-4d51-ab18-c7fa45e649a7)
  )
  (wire (pts (xy 134.62 62.23) (xy 134.62 64.77))
    (stroke (width 0) (type default))
    (uuid 860d1eed-17d4-4371-b103-c031fbf4b13a)
  )
  (wire (pts (xy 166.37 107.95) (xy 166.37 111.76))
    (stroke (width 0) (type default))
    (uuid 97713924-fc57-49ee-aeb4-1e4f81156223)
  )
  (wire (pts (xy 190.5 105.41) (xy 190.5 111.76))
    (stroke (width 0) (type default))
    (uuid 98b9f009-4055-44f5-8c89-14d26df09c13)
  )
  (wire (pts (xy 93.98 90.17) (xy 104.14 90.17))
    (stroke (width 0) (type default))
    (uuid 9cd21c61-a8e6-4a72-a5af-6c07a4ed57fb)
  )
  (wire (pts (xy 177.8 82.55) (xy 182.88 82.55))
    (stroke (width 0) (type default))
    (uuid 9f6c5201-0a59-42a2-b18c-f1dc397f4a92)
  )
  (wire (pts (xy 166.37 82.55) (xy 170.18 82.55))
    (stroke (width 0) (type default))
    (uuid a34420d4-fe34-4f3f-b0bc-e12647fa937f)
  )
  (wire (pts (xy 88.9 90.17) (xy 93.98 90.17))
    (stroke (width 0) (type default))
    (uuid a59bf32d-7e9d-40cb-b02b-3c356c93db9d)
  )
  (wire (pts (xy 166.37 111.76) (xy 170.18 111.76))
    (stroke (width 0) (type default))
    (uuid a977bdff-6978-42ea-bc2e-c23260f0ebe5)
  )
  (wire (pts (xy 134.62 72.39) (xy 134.62 74.93))
    (stroke (width 0) (type default))
    (uuid b0b7ae27-8072-42ad-b5ce-bfe81dcdfe71)
  )
  (wire (pts (xy 151.13 95.25) (xy 151.13 90.17))
    (stroke (width 0) (type default))
    (uuid b23833de-0634-44e0-bc60-04dcebdf1e30)
  )
  (wire (pts (xy 190.5 105.41) (xy 194.31 105.41))
    (stroke (width 0) (type default))
    (uuid bd99402e-c845-43d3-bf79-88eb1ec702da)
  )
  (wire (pts (xy 93.98 78.74) (xy 93.98 90.17))
    (stroke (width 0) (type default))
    (uuid c013d062-db97-4484-a70a-dbe9a10a13af)
  )
  (wire (pts (xy 72.39 116.84) (xy 72.39 120.65))
    (stroke (width 0) (type default))
    (uuid c0b5fa94-450e-4212-a080-44c1fcfec3f1)
  )
  (wire (pts (xy 194.31 113.03) (xy 194.31 118.11))
    (stroke (width 0) (type default))
    (uuid c2b96cb4-2a79-4968-ad63-3e3d8bb28bd7)
  )
  (wire (pts (xy 101.6 110.49) (xy 101.6 114.3))
    (stroke (width 0) (type default))
    (uuid c47dde20-f6cc-4276-b79f-85d6d08aa583)
  )
  (wire (pts (xy 194.31 118.11) (xy 200.66 118.11))
    (stroke (width 0) (type default))
    (uuid cb513bbc-55e2-4c49-b891-68530a24555b)
  )
  (wire (pts (xy 72.39 120.65) (xy 68.58 120.65))
    (stroke (width 0) (type default))
    (uuid cd3319d2-2eb0-49b0-839a-d2fa4fe86e45)
  )
  (wire (pts (xy 147.32 105.41) (xy 151.13 105.41))
    (stroke (width 0) (type default))
    (uuid cecd29f0-ff5b-4548-85da-9ee76c0832b5)
  )
  (wire (pts (xy 72.39 107.95) (xy 104.14 107.95))
    (stroke (width 0) (type default))
    (uuid d62fda91-bf8d-444e-847f-4b107783648b)
  )
  (wire (pts (xy 190.5 82.55) (xy 194.31 82.55))
    (stroke (width 0) (type default))
    (uuid d7c6fe81-e8d8-44be-bed9-83a8ec71a646)
  )
  (wire (pts (xy 190.5 88.9) (xy 177.8 88.9))
    (stroke (width 0) (type default))
    (uuid dbcef1b2-09e6-4311-8e6f-60dbcb72309a)
  )
  (wire (pts (xy 177.8 111.76) (xy 182.88 111.76))
    (stroke (width 0) (type default))
    (uuid e5f9060a-8f53-4571-8574-1b34c55bab74)
  )
  (wire (pts (xy 194.31 105.41) (xy 200.66 105.41))
    (stroke (width 0) (type default))
    (uuid e649b7ce-d7fe-44f3-bcab-3fde52770502)
  )
  (wire (pts (xy 99.06 100.33) (xy 104.14 100.33))
    (stroke (width 0) (type default))
    (uuid e7a7851c-f518-46cd-92d4-351315450059)
  )
  (wire (pts (xy 129.54 90.17) (xy 134.62 90.17))
    (stroke (width 0) (type default))
    (uuid ead22f65-bed8-44f6-aa42-63ac98eff88f)
  )
  (wire (pts (xy 158.75 92.71) (xy 158.75 88.9))
    (stroke (width 0) (type default))
    (uuid edd5246b-6f47-421a-a80f-ca34f95f1c3f)
  )
  (wire (pts (xy 134.62 100.33) (xy 134.62 105.41))
    (stroke (width 0) (type default))
    (uuid ef7e8098-f352-40a6-9251-dfbbce7f6643)
  )
  (wire (pts (xy 54.61 80.01) (xy 54.61 81.28))
    (stroke (width 0) (type default))
    (uuid f7672935-cfe1-4467-80bf-3d851c5b9ada)
  )
  (wire (pts (xy 194.31 90.17) (xy 194.31 95.25))
    (stroke (width 0) (type default))
    (uuid fcd76a9b-d730-4bda-8a52-69e317b094a9)
  )
  (wire (pts (xy 62.23 107.95) (xy 72.39 107.95))
    (stroke (width 0) (type default))
    (uuid fe822b1f-06de-4a2c-bd21-bb2d4eac0375)
  )

  (text "Or any shottky diode with \n200V 5A\n<850mV forward voltage"
    (at 107.95 78.74 0)
    (effects (font (size 1.27 1.27)) (justify left bottom))
    (uuid 0c88eafd-849b-4840-b7a3-498a13d70f9a)
  )

  (label "PL" (at 251.46 97.79 180) (fields_autoplaced)
    (effects (font (size 1.27 1.27)) (justify right bottom))
    (uuid 6dcd3900-272b-4998-8ec9-72a077c6e3e8)
  )
  (label "PH" (at 200.66 82.55 0) (fields_autoplaced)
    (effects (font (size 1.27 1.27)) (justify left bottom))
    (uuid 80107d87-0ce2-422a-b13b-5a68007a972e)
  )
  (label "PHASE" (at 251.46 95.25 180) (fields_autoplaced)
    (effects (font (size 1.27 1.27)) (justify right bottom))
    (uuid c06104e0-b083-4292-8981-0e8118f8ac5d)
  )
  (label "PL" (at 200.66 105.41 0) (fields_autoplaced)
    (effects (font (size 1.27 1.27)) (justify left bottom))
    (uuid cd7fa856-9f62-48b9-9753-ec4fa0926d84)
  )
  (label "PH" (at 251.46 100.33 180) (fields_autoplaced)
    (effects (font (size 1.27 1.27)) (justify right bottom))
    (uuid ddbf4e08-001c-4607-bb1e-ad8f5cf85a30)
  )
  (label "PHASE_GROUND" (at 200.66 118.11 0) (fields_autoplaced)
    (effects (font (size 1.27 1.27)) (justify left bottom))
    (uuid ea6bb811-b294-4c84-9375-bdc41942926b)
  )
  (label "PHASE" (at 200.66 95.25 0) (fields_autoplaced)
    (effects (font (size 1.27 1.27)) (justify left bottom))
    (uuid fbae4dbe-14e1-4db0-b569-fd081514296c)
  )

  (global_label "POWER_STAGE_LOCKOUT" (shape input) (at 99.06 102.87 180) (fields_autoplaced)
    (effects (font (size 1.27 1.27)) (justify right))
    (uuid 9ae42d09-7fdc-460d-8152-0fba2653c577)
    (property "Intersheetrefs" "${INTERSHEET_REFS}" (at 74.1904 102.87 0)
      (effects (font (size 1.27 1.27)) (justify right) hide)
    )
  )

  (hierarchical_label "L" (shape input) (at 99.06 100.33 180) (fields_autoplaced)
    (effects (font (size 1.27 1.27)) (justify right))
    (uuid 640d84f0-b8b2-4285-8542-755aca6c9d57)
  )
  (hierarchical_label "H" (shape input) (at 99.06 97.79 180) (fields_autoplaced)
    (effects (font (size 1.27 1.27)) (justify right))
    (uuid adb60ea6-71a8-44c7-bcc4-774c9349a9b0)
  )

  (symbol (lib_id "Device:D_Schottky") (at 186.69 111.76 0) (unit 1)
    (in_bom yes) (on_board yes) (dnp no)
    (uuid 050ec806-de82-4f98-97f9-8c04d546a0a2)
    (property "Reference" "D3" (at 186.055 108.585 0)
      (effects (font (size 1.27 1.27)))
    )
    (property "Value" "SS34" (at 186.69 115.57 0)
      (effects (font (size 1.27 1.27)))
    )
    (property "Footprint" "Diode_SMD:D_SMA" (at 186.69 111.76 0)
      (effects (font (size 1.27 1.27)) hide)
    )
    (property "Datasheet" "~" (at 186.69 111.76 0)
      (effects (font (size 1.27 1.27)) hide)
    )
    (property "MPN" "C8678" (at 186.69 111.76 0)
      (effects (font (size 1.27 1.27)) hide)
    )
    (property "Mouser" "621-SBR3U40S1FQ-7" (at 186.69 111.76 0)
      (effects (font (size 1.27 1.27)) hide)
    )
    (pin "1" (uuid 5c2de5b4-8324-4e9d-aaa4-b499211a60d7))
    (pin "2" (uuid 9d794eef-12d5-414f-8513-4a666a715530))
    (instances
      (project "UCC21520DWR"
        (path "/21ffef13-51c1-4f75-9c5e-4fb42baba5c7"
          (reference "D3") (unit 1)
        )
      )
      (project "GigaVescDrivers"
        (path "/74b7e1db-46d0-4e07-8500-01cfc2fa8362/60c370e3-7758-4e46-877e-f687e0b59f6d"
          (reference "D13") (unit 1)
        )
        (path "/74b7e1db-46d0-4e07-8500-01cfc2fa8362/087677ba-107a-4510-bc80-02c4cece2e63"
          (reference "D18") (unit 1)
        )
        (path "/74b7e1db-46d0-4e07-8500-01cfc2fa8362/76b34049-053a-4f0a-90ce-743149c2c6b2"
          (reference "D29") (unit 1)
        )
      )
      (project "GigaMax"
        (path "/768a484b-8a27-40cf-8cad-0f63935b1af0/d3d3a06e-f81d-4927-9a88-9ed5502f322c"
          (reference "D14") (unit 1)
        )
        (path "/768a484b-8a27-40cf-8cad-0f63935b1af0/04d6ed87-6b10-45aa-8255-84943212068b"
          (reference "D17") (unit 1)
        )
        (path "/768a484b-8a27-40cf-8cad-0f63935b1af0/693754e5-6fc9-4123-abfe-2e1335cfdb84"
          (reference "D20") (unit 1)
        )
      )
    )
  )

  (symbol (lib_id "Device:R") (at 194.31 109.22 180) (unit 1)
    (in_bom yes) (on_board yes) (dnp no)
    (uuid 29a02c33-4907-41a1-9701-b940efe98843)
    (property "Reference" "R8" (at 191.77 109.22 90)
      (effects (font (size 1.27 1.27)))
    )
    (property "Value" "4.7k" (at 194.31 109.22 90)
      (effects (font (size 1.27 1.27)))
    )
    (property "Footprint" "Resistor_SMD:R_0603_1608Metric" (at 196.088 109.22 90)
      (effects (font (size 1.27 1.27)) hide)
    )
    (property "Datasheet" "~" (at 194.31 109.22 0)
      (effects (font (size 1.27 1.27)) hide)
    )
    (property "Mouser" "603-RC0805FR-074K7L" (at 194.31 109.22 0)
      (effects (font (size 1.27 1.27)) hide)
    )
    (property "MPN" "C23162" (at 194.31 109.22 0)
      (effects (font (size 1.27 1.27)) hide)
    )
    (pin "1" (uuid eff5f41f-bddb-4447-9111-388db936bab0))
    (pin "2" (uuid 40d11db9-b9da-4e29-a90d-e32a4351bc77))
    (instances
      (project "UCC21520DWR"
        (path "/21ffef13-51c1-4f75-9c5e-4fb42baba5c7"
          (reference "R8") (unit 1)
        )
      )
      (project "GigaVescDrivers"
        (path "/74b7e1db-46d0-4e07-8500-01cfc2fa8362/60c370e3-7758-4e46-877e-f687e0b59f6d"
          (reference "R23") (unit 1)
        )
        (path "/74b7e1db-46d0-4e07-8500-01cfc2fa8362/087677ba-107a-4510-bc80-02c4cece2e63"
          (reference "R31") (unit 1)
        )
        (path "/74b7e1db-46d0-4e07-8500-01cfc2fa8362/76b34049-053a-4f0a-90ce-743149c2c6b2"
          (reference "R41") (unit 1)
        )
      )
      (project "GigaMax"
        (path "/768a484b-8a27-40cf-8cad-0f63935b1af0/d3d3a06e-f81d-4927-9a88-9ed5502f322c"
          (reference "R55") (unit 1)
        )
        (path "/768a484b-8a27-40cf-8cad-0f63935b1af0/04d6ed87-6b10-45aa-8255-84943212068b"
          (reference "R63") (unit 1)
        )
        (path "/768a484b-8a27-40cf-8cad-0f63935b1af0/693754e5-6fc9-4123-abfe-2e1335cfdb84"
          (reference "R71") (unit 1)
        )
      )
    )
  )

  (symbol (lib_id "Device:D_Schottky") (at 134.62 78.74 90) (unit 1)
    (in_bom yes) (on_board yes) (dnp no) (fields_autoplaced)
    (uuid 2e2ea042-285e-4586-84bc-0911b8bf3386)
    (property "Reference" "D1" (at 137.16 77.7875 90)
      (effects (font (size 1.27 1.27)) (justify right))
    )
    (property "Value" "SS520F" (at 137.16 80.3275 90)
      (effects (font (size 1.27 1.27)) (justify right))
    )
    (property "Footprint" "Diode_SMD:D_SMA" (at 134.62 78.74 0)
      (effects (font (size 1.27 1.27)) hide)
    )
    (property "Datasheet" "~" (at 134.62 78.74 0)
      (effects (font (size 1.27 1.27)) hide)
    )
    (property "MPN" "C353179" (at 134.62 78.74 90)
      (effects (font (size 1.27 1.27)) hide)
    )
    (property "Mouser" "750-SS520B-HF" (at 134.62 78.74 0)
      (effects (font (size 1.27 1.27)) hide)
    )
    (pin "1" (uuid 5e7c1884-79e5-4814-a6e0-b00586c53b07))
    (pin "2" (uuid 4d40e8e5-4f1c-4418-87d9-56fb82fc0e66))
    (instances
      (project "UCC21520DWR"
        (path "/21ffef13-51c1-4f75-9c5e-4fb42baba5c7"
          (reference "D1") (unit 1)
        )
      )
      (project "GigaVescDrivers"
        (path "/74b7e1db-46d0-4e07-8500-01cfc2fa8362/60c370e3-7758-4e46-877e-f687e0b59f6d"
          (reference "D14") (unit 1)
        )
        (path "/74b7e1db-46d0-4e07-8500-01cfc2fa8362/087677ba-107a-4510-bc80-02c4cece2e63"
          (reference "D16") (unit 1)
        )
        (path "/74b7e1db-46d0-4e07-8500-01cfc2fa8362/76b34049-053a-4f0a-90ce-743149c2c6b2"
          (reference "D27") (unit 1)
        )
      )
      (project "GigaMax"
        (path "/768a484b-8a27-40cf-8cad-0f63935b1af0/d3d3a06e-f81d-4927-9a88-9ed5502f322c"
          (reference "D4") (unit 1)
        )
        (path "/768a484b-8a27-40cf-8cad-0f63935b1af0/04d6ed87-6b10-45aa-8255-84943212068b"
          (reference "D15") (unit 1)
        )
        (path "/768a484b-8a27-40cf-8cad-0f63935b1af0/693754e5-6fc9-4123-abfe-2e1335cfdb84"
          (reference "D18") (unit 1)
        )
      )
    )
  )

  (symbol (lib_id "Device:R") (at 62.23 113.03 0) (unit 1)
    (in_bom yes) (on_board yes) (dnp no) (fields_autoplaced)
    (uuid 2f55f5c1-190c-423a-aa18-35458d52f3a0)
    (property "Reference" "R1" (at 64.77 111.76 0)
      (effects (font (size 1.27 1.27)) (justify left))
    )
    (property "Value" "20k" (at 64.77 114.3 0)
      (effects (font (size 1.27 1.27)) (justify left))
    )
    (property "Footprint" "Resistor_SMD:R_0603_1608Metric" (at 60.452 113.03 90)
      (effects (font (size 1.27 1.27)) hide)
    )
    (property "Datasheet" "~" (at 62.23 113.03 0)
      (effects (font (size 1.27 1.27)) hide)
    )
    (property "MPN" "C4184" (at 62.23 113.03 0)
      (effects (font (size 1.27 1.27)) hide)
    )
    (property "Mouser" "71-CRCW0805J-20K-E3" (at 62.23 113.03 0)
      (effects (font (size 1.27 1.27)) hide)
    )
    (pin "1" (uuid 68bb5906-82b7-49e4-a837-16d182048fb4))
    (pin "2" (uuid 1c904342-b71a-478f-8c4b-fc815e5b5cef))
    (instances
      (project "UCC21520DWR"
        (path "/21ffef13-51c1-4f75-9c5e-4fb42baba5c7"
          (reference "R1") (unit 1)
        )
      )
      (project "GigaVescDrivers"
        (path "/74b7e1db-46d0-4e07-8500-01cfc2fa8362/60c370e3-7758-4e46-877e-f687e0b59f6d"
          (reference "R16") (unit 1)
        )
        (path "/74b7e1db-46d0-4e07-8500-01cfc2fa8362/087677ba-107a-4510-bc80-02c4cece2e63"
          (reference "R24") (unit 1)
        )
        (path "/74b7e1db-46d0-4e07-8500-01cfc2fa8362/76b34049-053a-4f0a-90ce-743149c2c6b2"
          (reference "R34") (unit 1)
        )
      )
      (project "GigaMax"
        (path "/768a484b-8a27-40cf-8cad-0f63935b1af0/d3d3a06e-f81d-4927-9a88-9ed5502f322c"
          (reference "R39") (unit 1)
        )
        (path "/768a484b-8a27-40cf-8cad-0f63935b1af0/04d6ed87-6b10-45aa-8255-84943212068b"
          (reference "R56") (unit 1)
        )
        (path "/768a484b-8a27-40cf-8cad-0f63935b1af0/693754e5-6fc9-4123-abfe-2e1335cfdb84"
          (reference "R64") (unit 1)
        )
      )
    )
  )

  (symbol (lib_id "Device:D_Schottky") (at 186.69 82.55 0) (unit 1)
    (in_bom yes) (on_board yes) (dnp no) (fields_autoplaced)
    (uuid 30ebd9a1-072b-4058-a0f7-714c6d49d404)
    (property "Reference" "D2" (at 186.3725 76.2 0)
      (effects (font (size 1.27 1.27)))
    )
    (property "Value" "SS34" (at 186.3725 78.74 0)
      (effects (font (size 1.27 1.27)))
    )
    (property "Footprint" "Diode_SMD:D_SMA" (at 186.69 82.55 0)
      (effects (font (size 1.27 1.27)) hide)
    )
    (property "Datasheet" "~" (at 186.69 82.55 0)
      (effects (font (size 1.27 1.27)) hide)
    )
    (property "Mouser" "621-SBR3U40S1FQ-7" (at 186.69 82.55 0)
      (effects (font (size 1.27 1.27)) hide)
    )
    (property "MPN" "C8678" (at 186.69 82.55 0)
      (effects (font (size 1.27 1.27)) hide)
    )
    (pin "1" (uuid 187cf050-32d0-4c96-bc77-5cc309911438))
    (pin "2" (uuid 8277c927-344b-435a-ab0e-888af773784c))
    (instances
      (project "UCC21520DWR"
        (path "/21ffef13-51c1-4f75-9c5e-4fb42baba5c7"
          (reference "D2") (unit 1)
        )
      )
      (project "GigaVescDrivers"
        (path "/74b7e1db-46d0-4e07-8500-01cfc2fa8362/60c370e3-7758-4e46-877e-f687e0b59f6d"
          (reference "D15") (unit 1)
        )
        (path "/74b7e1db-46d0-4e07-8500-01cfc2fa8362/087677ba-107a-4510-bc80-02c4cece2e63"
          (reference "D17") (unit 1)
        )
        (path "/74b7e1db-46d0-4e07-8500-01cfc2fa8362/76b34049-053a-4f0a-90ce-743149c2c6b2"
          (reference "D28") (unit 1)
        )
      )
      (project "GigaMax"
        (path "/768a484b-8a27-40cf-8cad-0f63935b1af0/d3d3a06e-f81d-4927-9a88-9ed5502f322c"
          (reference "D13") (unit 1)
        )
        (path "/768a484b-8a27-40cf-8cad-0f63935b1af0/04d6ed87-6b10-45aa-8255-84943212068b"
          (reference "D16") (unit 1)
        )
        (path "/768a484b-8a27-40cf-8cad-0f63935b1af0/693754e5-6fc9-4123-abfe-2e1335cfdb84"
          (reference "D19") (unit 1)
        )
      )
    )
  )

  (symbol (lib_id "Device:C") (at 143.51 105.41 90) (unit 1)
    (in_bom yes) (on_board yes) (dnp no)
    (uuid 3906c7e6-59a7-420e-8628-c2d82bc4d43c)
    (property "Reference" "C4" (at 140.335 103.505 90)
      (effects (font (size 1.27 1.27)))
    )
    (property "Value" "4.7u 50v" (at 145.415 101.6 90)
      (effects (font (size 1.27 1.27)))
    )
    (property "Footprint" "Capacitor_SMD:C_1206_3216Metric" (at 147.32 104.4448 0)
      (effects (font (size 1.27 1.27)) hide)
    )
    (property "Datasheet" "~" (at 143.51 105.41 0)
      (effects (font (size 1.27 1.27)) hide)
    )
    (property "MPN" "C29823" (at 143.51 105.41 90)
      (effects (font (size 1.27 1.27)) hide)
    )
    (property "Mouser" "81-GRM319R61H475KA2D" (at 143.51 105.41 0)
      (effects (font (size 1.27 1.27)) hide)
    )
    (pin "1" (uuid 57c6b033-5122-43c6-af31-ef59e28fe32d))
    (pin "2" (uuid f9b6392d-3b94-4ca2-838b-793648e999eb))
    (instances
      (project "UCC21520DWR"
        (path "/21ffef13-51c1-4f75-9c5e-4fb42baba5c7"
          (reference "C4") (unit 1)
        )
      )
      (project "GigaVescDrivers"
        (path "/74b7e1db-46d0-4e07-8500-01cfc2fa8362/60c370e3-7758-4e46-877e-f687e0b59f6d"
          (reference "C9") (unit 1)
        )
        (path "/74b7e1db-46d0-4e07-8500-01cfc2fa8362/087677ba-107a-4510-bc80-02c4cece2e63"
          (reference "C10") (unit 1)
        )
        (path "/74b7e1db-46d0-4e07-8500-01cfc2fa8362/76b34049-053a-4f0a-90ce-743149c2c6b2"
          (reference "C13") (unit 1)
        )
      )
      (project "GigaMax"
        (path "/768a484b-8a27-40cf-8cad-0f63935b1af0/d3d3a06e-f81d-4927-9a88-9ed5502f322c"
          (reference "C65") (unit 1)
        )
        (path "/768a484b-8a27-40cf-8cad-0f63935b1af0/04d6ed87-6b10-45aa-8255-84943212068b"
          (reference "C70") (unit 1)
        )
        (path "/768a484b-8a27-40cf-8cad-0f63935b1af0/693754e5-6fc9-4123-abfe-2e1335cfdb84"
          (reference "C75") (unit 1)
        )
      )
    )
  )

  (symbol (lib_id "power:GND") (at 251.46 92.71 270) (unit 1)
    (in_bom yes) (on_board yes) (dnp no) (fields_autoplaced)
    (uuid 3d4ffd30-d0df-47e6-a929-ce11c47ef427)
    (property "Reference" "#PWR03" (at 245.11 92.71 0)
      (effects (font (size 1.27 1.27)) hide)
    )
    (property "Value" "GND" (at 247.65 92.71 90)
      (effects (font (size 1.27 1.27)) (justify right))
    )
    (property "Footprint" "" (at 251.46 92.71 0)
      (effects (font (size 1.27 1.27)) hide)
    )
    (property "Datasheet" "" (at 251.46 92.71 0)
      (effects (font (size 1.27 1.27)) hide)
    )
    (pin "1" (uuid 9d45c26d-8a4b-44d2-b5e0-5ae49790c55b))
    (instances
      (project "UCC21520DWR"
        (path "/21ffef13-51c1-4f75-9c5e-4fb42baba5c7"
          (reference "#PWR03") (unit 1)
        )
      )
      (project "GigaVescDrivers"
        (path "/74b7e1db-46d0-4e07-8500-01cfc2fa8362/60c370e3-7758-4e46-877e-f687e0b59f6d"
          (reference "#PWR027") (unit 1)
        )
        (path "/74b7e1db-46d0-4e07-8500-01cfc2fa8362/087677ba-107a-4510-bc80-02c4cece2e63"
          (reference "#PWR037") (unit 1)
        )
        (path "/74b7e1db-46d0-4e07-8500-01cfc2fa8362/76b34049-053a-4f0a-90ce-743149c2c6b2"
          (reference "#PWR050") (unit 1)
        )
      )
      (project "GigaMax"
        (path "/768a484b-8a27-40cf-8cad-0f63935b1af0/d3d3a06e-f81d-4927-9a88-9ed5502f322c"
          (reference "#PWR0197") (unit 1)
        )
        (path "/768a484b-8a27-40cf-8cad-0f63935b1af0/04d6ed87-6b10-45aa-8255-84943212068b"
          (reference "#PWR0198") (unit 1)
        )
        (path "/768a484b-8a27-40cf-8cad-0f63935b1af0/693754e5-6fc9-4123-abfe-2e1335cfdb84"
          (reference "#PWR0199") (unit 1)
        )
      )
    )
  )

  (symbol (lib_id "power:+15V") (at 134.62 62.23 0) (unit 1)
    (in_bom yes) (on_board yes) (dnp no) (fields_autoplaced)
    (uuid 5d8366e3-3b47-4440-bd77-2b5bf810b783)
    (property "Reference" "#PWR07" (at 134.62 66.04 0)
      (effects (font (size 1.27 1.27)) hide)
    )
    (property "Value" "+15V" (at 134.62 57.15 0)
      (effects (font (size 1.27 1.27)))
    )
    (property "Footprint" "" (at 134.62 62.23 0)
      (effects (font (size 1.27 1.27)) hide)
    )
    (property "Datasheet" "" (at 134.62 62.23 0)
      (effects (font (size 1.27 1.27)) hide)
    )
    (pin "1" (uuid 781c8bb5-8d38-4ff7-88f2-be040c25ea95))
    (instances
      (project "UCC21520DWR"
        (path "/21ffef13-51c1-4f75-9c5e-4fb42baba5c7"
          (reference "#PWR07") (unit 1)
        )
      )
      (project "GigaVescDrivers"
        (path "/74b7e1db-46d0-4e07-8500-01cfc2fa8362/60c370e3-7758-4e46-877e-f687e0b59f6d"
          (reference "#PWR024") (unit 1)
        )
        (path "/74b7e1db-46d0-4e07-8500-01cfc2fa8362/087677ba-107a-4510-bc80-02c4cece2e63"
          (reference "#PWR038") (unit 1)
        )
        (path "/74b7e1db-46d0-4e07-8500-01cfc2fa8362/76b34049-053a-4f0a-90ce-743149c2c6b2"
          (reference "#PWR051") (unit 1)
        )
      )
      (project "GigaMax"
        (path "/768a484b-8a27-40cf-8cad-0f63935b1af0/d3d3a06e-f81d-4927-9a88-9ed5502f322c"
          (reference "#PWR0179") (unit 1)
        )
        (path "/768a484b-8a27-40cf-8cad-0f63935b1af0/04d6ed87-6b10-45aa-8255-84943212068b"
          (reference "#PWR0187") (unit 1)
        )
        (path "/768a484b-8a27-40cf-8cad-0f63935b1af0/693754e5-6fc9-4123-abfe-2e1335cfdb84"
          (reference "#PWR0195") (unit 1)
        )
      )
    )
  )

  (symbol (lib_id "power:GND") (at 101.6 114.3 0) (unit 1)
    (in_bom yes) (on_board yes) (dnp no) (fields_autoplaced)
    (uuid 7447adeb-c6cd-4718-abe1-c940a3aec74d)
    (property "Reference" "#PWR03" (at 101.6 120.65 0)
      (effects (font (size 1.27 1.27)) hide)
    )
    (property "Value" "GND" (at 101.6 119.38 0)
      (effects (font (size 1.27 1.27)))
    )
    (property "Footprint" "" (at 101.6 114.3 0)
      (effects (font (size 1.27 1.27)) hide)
    )
    (property "Datasheet" "" (at 101.6 114.3 0)
      (effects (font (size 1.27 1.27)) hide)
    )
    (pin "1" (uuid 4fce6ee7-8651-4234-bc96-b2034bb72e57))
    (instances
      (project "UCC21520DWR"
        (path "/21ffef13-51c1-4f75-9c5e-4fb42baba5c7"
          (reference "#PWR03") (unit 1)
        )
      )
      (project "GigaVescDrivers"
        (path "/74b7e1db-46d0-4e07-8500-01cfc2fa8362/60c370e3-7758-4e46-877e-f687e0b59f6d"
          (reference "#PWR027") (unit 1)
        )
        (path "/74b7e1db-46d0-4e07-8500-01cfc2fa8362/087677ba-107a-4510-bc80-02c4cece2e63"
          (reference "#PWR037") (unit 1)
        )
        (path "/74b7e1db-46d0-4e07-8500-01cfc2fa8362/76b34049-053a-4f0a-90ce-743149c2c6b2"
          (reference "#PWR050") (unit 1)
        )
      )
      (project "GigaMax"
        (path "/768a484b-8a27-40cf-8cad-0f63935b1af0/d3d3a06e-f81d-4927-9a88-9ed5502f322c"
          (reference "#PWR0178") (unit 1)
        )
        (path "/768a484b-8a27-40cf-8cad-0f63935b1af0/04d6ed87-6b10-45aa-8255-84943212068b"
          (reference "#PWR0186") (unit 1)
        )
        (path "/768a484b-8a27-40cf-8cad-0f63935b1af0/693754e5-6fc9-4123-abfe-2e1335cfdb84"
          (reference "#PWR0194") (unit 1)
        )
      )
    )
  )

  (symbol (lib_id "Device:C") (at 143.51 90.17 90) (unit 1)
    (in_bom yes) (on_board yes) (dnp no)
    (uuid 74f9e9df-26c1-4647-81f1-ccfd79631ddb)
    (property "Reference" "C3" (at 139.7 87.63 90)
      (effects (font (size 1.27 1.27)))
    )
    (property "Value" "4.7u 50v" (at 145.415 85.725 90)
      (effects (font (size 1.27 1.27)))
    )
    (property "Footprint" "Capacitor_SMD:C_1206_3216Metric" (at 147.32 89.2048 0)
      (effects (font (size 1.27 1.27)) hide)
    )
    (property "Datasheet" "~" (at 143.51 90.17 0)
      (effects (font (size 1.27 1.27)) hide)
    )
    (property "MPN" "C29823" (at 143.51 90.17 90)
      (effects (font (size 1.27 1.27)) hide)
    )
    (property "Mouser" "81-GRM319R61H475KA2D" (at 143.51 90.17 0)
      (effects (font (size 1.27 1.27)) hide)
    )
    (pin "1" (uuid bae5b0f1-df8d-494e-a705-7d56a85d5394))
    (pin "2" (uuid b32c1f32-2f55-487a-96b0-6824920120ed))
    (instances
      (project "UCC21520DWR"
        (path "/21ffef13-51c1-4f75-9c5e-4fb42baba5c7"
          (reference "C3") (unit 1)
        )
      )
      (project "GigaVescDrivers"
        (path "/74b7e1db-46d0-4e07-8500-01cfc2fa8362/60c370e3-7758-4e46-877e-f687e0b59f6d"
          (reference "C25") (unit 1)
        )
        (path "/74b7e1db-46d0-4e07-8500-01cfc2fa8362/087677ba-107a-4510-bc80-02c4cece2e63"
          (reference "C26") (unit 1)
        )
        (path "/74b7e1db-46d0-4e07-8500-01cfc2fa8362/76b34049-053a-4f0a-90ce-743149c2c6b2"
          (reference "C27") (unit 1)
        )
      )
      (project "GigaMax"
        (path "/768a484b-8a27-40cf-8cad-0f63935b1af0/d3d3a06e-f81d-4927-9a88-9ed5502f322c"
          (reference "C64") (unit 1)
        )
        (path "/768a484b-8a27-40cf-8cad-0f63935b1af0/04d6ed87-6b10-45aa-8255-84943212068b"
          (reference "C69") (unit 1)
        )
        (path "/768a484b-8a27-40cf-8cad-0f63935b1af0/693754e5-6fc9-4123-abfe-2e1335cfdb84"
          (reference "C74") (unit 1)
        )
      )
    )
  )

  (symbol (lib_id "power:+3.3V") (at 93.98 78.74 0) (unit 1)
    (in_bom yes) (on_board yes) (dnp no) (fields_autoplaced)
    (uuid 7941c099-c237-412b-9ef7-d9dd5422ed15)
    (property "Reference" "#PWR04" (at 93.98 82.55 0)
      (effects (font (size 1.27 1.27)) hide)
    )
    (property "Value" "+3.3V" (at 96.52 77.47 0)
      (effects (font (size 1.27 1.27)) (justify left))
    )
    (property "Footprint" "" (at 93.98 78.74 0)
      (effects (font (size 1.27 1.27)) hide)
    )
    (property "Datasheet" "" (at 93.98 78.74 0)
      (effects (font (size 1.27 1.27)) hide)
    )
    (pin "1" (uuid 5dd4b76a-5846-44ed-8eee-c21d75a891e8))
    (instances
      (project "UCC21520DWR"
        (path "/21ffef13-51c1-4f75-9c5e-4fb42baba5c7"
          (reference "#PWR04") (unit 1)
        )
      )
      (project "GigaVescDrivers"
        (path "/74b7e1db-46d0-4e07-8500-01cfc2fa8362/60c370e3-7758-4e46-877e-f687e0b59f6d"
          (reference "#PWR028") (unit 1)
        )
        (path "/74b7e1db-46d0-4e07-8500-01cfc2fa8362/087677ba-107a-4510-bc80-02c4cece2e63"
          (reference "#PWR035") (unit 1)
        )
        (path "/74b7e1db-46d0-4e07-8500-01cfc2fa8362/76b34049-053a-4f0a-90ce-743149c2c6b2"
          (reference "#PWR048") (unit 1)
        )
      )
      (project "GigaMax"
        (path "/768a484b-8a27-40cf-8cad-0f63935b1af0/d3d3a06e-f81d-4927-9a88-9ed5502f322c"
          (reference "#PWR0177") (unit 1)
        )
        (path "/768a484b-8a27-40cf-8cad-0f63935b1af0/04d6ed87-6b10-45aa-8255-84943212068b"
          (reference "#PWR0185") (unit 1)
        )
        (path "/768a484b-8a27-40cf-8cad-0f63935b1af0/693754e5-6fc9-4123-abfe-2e1335cfdb84"
          (reference "#PWR0193") (unit 1)
        )
      )
    )
  )

  (symbol (lib_id "Device:R") (at 173.99 88.9 90) (unit 1)
    (in_bom yes) (on_board yes) (dnp no)
    (uuid 81632814-9c22-4c5c-a7d1-87ad4e5f5739)
    (property "Reference" "R4" (at 173.99 86.36 90)
      (effects (font (size 1.27 1.27)))
    )
    (property "Value" "2.2" (at 173.99 88.9 90)
      (effects (font (size 1.27 1.27)))
    )
    (property "Footprint" "Resistor_SMD:R_0603_1608Metric" (at 173.99 90.678 90)
      (effects (font (size 1.27 1.27)) hide)
    )
    (property "Datasheet" "~" (at 173.99 88.9 0)
      (effects (font (size 1.27 1.27)) hide)
    )
    (property "Mouser" "603-RC0805JR-072R2L" (at 173.99 88.9 0)
      (effects (font (size 1.27 1.27)) hide)
    )
    (property "MPN" "C22939" (at 173.99 88.9 0)
      (effects (font (size 1.27 1.27)) hide)
    )
    (pin "1" (uuid 28d446d9-2735-4033-bb4b-d40c88f52370))
    (pin "2" (uuid 34443bec-b60e-403d-a664-74d400036764))
    (instances
      (project "UCC21520DWR"
        (path "/21ffef13-51c1-4f75-9c5e-4fb42baba5c7"
          (reference "R4") (unit 1)
        )
      )
      (project "GigaVescDrivers"
        (path "/74b7e1db-46d0-4e07-8500-01cfc2fa8362/60c370e3-7758-4e46-877e-f687e0b59f6d"
          (reference "R19") (unit 1)
        )
        (path "/74b7e1db-46d0-4e07-8500-01cfc2fa8362/087677ba-107a-4510-bc80-02c4cece2e63"
          (reference "R27") (unit 1)
        )
        (path "/74b7e1db-46d0-4e07-8500-01cfc2fa8362/76b34049-053a-4f0a-90ce-743149c2c6b2"
          (reference "R37") (unit 1)
        )
      )
      (project "GigaMax"
        (path "/768a484b-8a27-40cf-8cad-0f63935b1af0/d3d3a06e-f81d-4927-9a88-9ed5502f322c"
          (reference "R51") (unit 1)
        )
        (path "/768a484b-8a27-40cf-8cad-0f63935b1af0/04d6ed87-6b10-45aa-8255-84943212068b"
          (reference "R59") (unit 1)
        )
        (path "/768a484b-8a27-40cf-8cad-0f63935b1af0/693754e5-6fc9-4123-abfe-2e1335cfdb84"
          (reference "R67") (unit 1)
        )
      )
    )
  )

  (symbol (lib_id "power:GND") (at 54.61 81.28 0) (unit 1)
    (in_bom yes) (on_board yes) (dnp no) (fields_autoplaced)
    (uuid 931e6490-1afc-4c84-a108-885925619192)
    (property "Reference" "#PWR02" (at 54.61 87.63 0)
      (effects (font (size 1.27 1.27)) hide)
    )
    (property "Value" "GND" (at 54.61 86.36 0)
      (effects (font (size 1.27 1.27)))
    )
    (property "Footprint" "" (at 54.61 81.28 0)
      (effects (font (size 1.27 1.27)) hide)
    )
    (property "Datasheet" "" (at 54.61 81.28 0)
      (effects (font (size 1.27 1.27)) hide)
    )
    (pin "1" (uuid 5bca3ea4-4f88-4b42-96ab-34ceaf64e574))
    (instances
      (project "UCC21520DWR"
        (path "/21ffef13-51c1-4f75-9c5e-4fb42baba5c7"
          (reference "#PWR02") (unit 1)
        )
      )
      (project "GigaVescDrivers"
        (path "/74b7e1db-46d0-4e07-8500-01cfc2fa8362/60c370e3-7758-4e46-877e-f687e0b59f6d"
          (reference "#PWR026") (unit 1)
        )
        (path "/74b7e1db-46d0-4e07-8500-01cfc2fa8362/087677ba-107a-4510-bc80-02c4cece2e63"
          (reference "#PWR033") (unit 1)
        )
        (path "/74b7e1db-46d0-4e07-8500-01cfc2fa8362/76b34049-053a-4f0a-90ce-743149c2c6b2"
          (reference "#PWR046") (unit 1)
        )
      )
      (project "GigaMax"
        (path "/768a484b-8a27-40cf-8cad-0f63935b1af0/d3d3a06e-f81d-4927-9a88-9ed5502f322c"
          (reference "#PWR0174") (unit 1)
        )
        (path "/768a484b-8a27-40cf-8cad-0f63935b1af0/04d6ed87-6b10-45aa-8255-84943212068b"
          (reference "#PWR0182") (unit 1)
        )
        (path "/768a484b-8a27-40cf-8cad-0f63935b1af0/693754e5-6fc9-4123-abfe-2e1335cfdb84"
          (reference "#PWR0190") (unit 1)
        )
      )
    )
  )

  (symbol (lib_id "power:+3.3V") (at 54.61 71.12 0) (unit 1)
    (in_bom yes) (on_board yes) (dnp no) (fields_autoplaced)
    (uuid b30bd41e-b1d5-472b-bb43-ea1f5348d077)
    (property "Reference" "#PWR01" (at 54.61 74.93 0)
      (effects (font (size 1.27 1.27)) hide)
    )
    (property "Value" "+3.3V" (at 54.61 66.04 0)
      (effects (font (size 1.27 1.27)))
    )
    (property "Footprint" "" (at 54.61 71.12 0)
      (effects (font (size 1.27 1.27)) hide)
    )
    (property "Datasheet" "" (at 54.61 71.12 0)
      (effects (font (size 1.27 1.27)) hide)
    )
    (pin "1" (uuid 5e17b967-b356-4b2c-a83f-2b5a125f3dfd))
    (instances
      (project "UCC21520DWR"
        (path "/21ffef13-51c1-4f75-9c5e-4fb42baba5c7"
          (reference "#PWR01") (unit 1)
        )
      )
      (project "GigaVescDrivers"
        (path "/74b7e1db-46d0-4e07-8500-01cfc2fa8362/60c370e3-7758-4e46-877e-f687e0b59f6d"
          (reference "#PWR025") (unit 1)
        )
        (path "/74b7e1db-46d0-4e07-8500-01cfc2fa8362/087677ba-107a-4510-bc80-02c4cece2e63"
          (reference "#PWR032") (unit 1)
        )
        (path "/74b7e1db-46d0-4e07-8500-01cfc2fa8362/76b34049-053a-4f0a-90ce-743149c2c6b2"
          (reference "#PWR045") (unit 1)
        )
      )
      (project "GigaMax"
        (path "/768a484b-8a27-40cf-8cad-0f63935b1af0/d3d3a06e-f81d-4927-9a88-9ed5502f322c"
          (reference "#PWR0173") (unit 1)
        )
        (path "/768a484b-8a27-40cf-8cad-0f63935b1af0/04d6ed87-6b10-45aa-8255-84943212068b"
          (reference "#PWR0181") (unit 1)
        )
        (path "/768a484b-8a27-40cf-8cad-0f63935b1af0/693754e5-6fc9-4123-abfe-2e1335cfdb84"
          (reference "#PWR0189") (unit 1)
        )
      )
    )
  )

  (symbol (lib_id "Connector_Generic:Conn_01x04") (at 256.54 95.25 0) (unit 1)
    (in_bom yes) (on_board yes) (dnp no) (fields_autoplaced)
    (uuid b50f5ed6-7957-467e-8fb2-d527f6baaf59)
    (property "Reference" "J1" (at 259.08 95.25 0)
      (effects (font (size 1.27 1.27)) (justify left))
    )
    (property "Value" "OutputDown" (at 259.08 97.79 0)
      (effects (font (size 1.27 1.27)) (justify left))
    )
    (property "Footprint" "Connector_PinHeader_2.54mm:PinHeader_2x02_P2.54mm_Vertical_SMD" (at 256.54 95.25 0)
      (effects (font (size 1.27 1.27)) hide)
    )
    (property "Datasheet" "~" (at 256.54 95.25 0)
      (effects (font (size 1.27 1.27)) hide)
    )
    (property "MPN" "C780055" (at 256.54 95.25 0)
      (effects (font (size 1.27 1.27)) hide)
    )
    (pin "1" (uuid 729d4658-aebe-47f7-819a-a2010ce59524))
    (pin "2" (uuid f14c2186-dc13-458d-93fc-eb15dc62f2fb))
    (pin "3" (uuid a2c58225-682a-4bd6-8afa-3a17aa561ddc))
    (pin "4" (uuid e28275dd-9d3c-403a-8137-1cdca4b41f87))
    (instances
      (project "Mini"
        (path "/21ffef13-51c1-4f75-9c5e-4fb42baba5c7"
          (reference "J1") (unit 1)
        )
      )
      (project "GigaMax"
        (path "/768a484b-8a27-40cf-8cad-0f63935b1af0/d3d3a06e-f81d-4927-9a88-9ed5502f322c"
          (reference "J26") (unit 1)
        )
        (path "/768a484b-8a27-40cf-8cad-0f63935b1af0/04d6ed87-6b10-45aa-8255-84943212068b"
          (reference "J27") (unit 1)
        )
        (path "/768a484b-8a27-40cf-8cad-0f63935b1af0/693754e5-6fc9-4123-abfe-2e1335cfdb84"
          (reference "J28") (unit 1)
        )
      )
    )
  )

  (symbol (lib_id "Device:C") (at 72.39 113.03 0) (unit 1)
    (in_bom yes) (on_board yes) (dnp no) (fields_autoplaced)
    (uuid d50c894a-b191-4215-9e60-6bdead6c1086)
    (property "Reference" "C5" (at 76.2 111.76 0)
      (effects (font (size 1.27 1.27)) (justify left))
    )
    (property "Value" "100n" (at 76.2 114.3 0)
      (effects (font (size 1.27 1.27)) (justify left))
    )
    (property "Footprint" "GigaVescLibs:C_0603_1608Metric_L" (at 73.3552 116.84 0)
      (effects (font (size 1.27 1.27)) hide)
    )
    (property "Datasheet" "~" (at 72.39 113.03 0)
      (effects (font (size 1.27 1.27)) hide)
    )
    (property "Mouser" "187-CL21B104KBFNNNE" (at 72.39 113.03 0)
      (effects (font (size 1.27 1.27)) hide)
    )
    (property "MPN" "C14663" (at 72.39 113.03 0)
      (effects (font (size 1.27 1.27)) hide)
    )
    (pin "1" (uuid 4b43135b-7084-45bb-83aa-61ff40c2f9c7))
    (pin "2" (uuid e5d77d18-9269-4bca-87a6-e64569aa5748))
    (instances
      (project "UCC21520DWR"
        (path "/21ffef13-51c1-4f75-9c5e-4fb42baba5c7"
          (reference "C5") (unit 1)
        )
      )
      (project "GigaVescDrivers"
        (path "/74b7e1db-46d0-4e07-8500-01cfc2fa8362/60c370e3-7758-4e46-877e-f687e0b59f6d"
          (reference "C8") (unit 1)
        )
        (path "/74b7e1db-46d0-4e07-8500-01cfc2fa8362/087677ba-107a-4510-bc80-02c4cece2e63"
          (reference "C12") (unit 1)
        )
        (path "/74b7e1db-46d0-4e07-8500-01cfc2fa8362/76b34049-053a-4f0a-90ce-743149c2c6b2"
          (reference "C17") (unit 1)
        )
      )
      (project "GigaMax"
        (path "/768a484b-8a27-40cf-8cad-0f63935b1af0/d3d3a06e-f81d-4927-9a88-9ed5502f322c"
          (reference "C62") (unit 1)
        )
        (path "/768a484b-8a27-40cf-8cad-0f63935b1af0/04d6ed87-6b10-45aa-8255-84943212068b"
          (reference "C67") (unit 1)
        )
        (path "/768a484b-8a27-40cf-8cad-0f63935b1af0/693754e5-6fc9-4123-abfe-2e1335cfdb84"
          (reference "C72") (unit 1)
        )
      )
    )
  )

  (symbol (lib_id "Device:R") (at 173.99 111.76 90) (unit 1)
    (in_bom yes) (on_board yes) (dnp no)
    (uuid d72be1ed-d7a0-44ab-a592-1bf5ce996ed2)
    (property "Reference" "R5" (at 173.99 109.22 90)
      (effects (font (size 1.27 1.27)))
    )
    (property "Value" "2.2" (at 173.99 111.76 90)
      (effects (font (size 1.27 1.27)))
    )
    (property "Footprint" "Resistor_SMD:R_0603_1608Metric" (at 173.99 113.538 90)
      (effects (font (size 1.27 1.27)) hide)
    )
    (property "Datasheet" "~" (at 173.99 111.76 0)
      (effects (font (size 1.27 1.27)) hide)
    )
    (property "Mouser" "603-RC0805JR-072R2L" (at 173.99 111.76 0)
      (effects (font (size 1.27 1.27)) hide)
    )
    (property "MPN" "C22939" (at 173.99 111.76 0)
      (effects (font (size 1.27 1.27)) hide)
    )
    (pin "1" (uuid f27d68d9-330f-4800-a66c-35ec94d2a419))
    (pin "2" (uuid df30cda3-c705-420c-8d78-6802859bb354))
    (instances
      (project "UCC21520DWR"
        (path "/21ffef13-51c1-4f75-9c5e-4fb42baba5c7"
          (reference "R5") (unit 1)
        )
      )
      (project "GigaVescDrivers"
        (path "/74b7e1db-46d0-4e07-8500-01cfc2fa8362/60c370e3-7758-4e46-877e-f687e0b59f6d"
          (reference "R21") (unit 1)
        )
        (path "/74b7e1db-46d0-4e07-8500-01cfc2fa8362/087677ba-107a-4510-bc80-02c4cece2e63"
          (reference "R28") (unit 1)
        )
        (path "/74b7e1db-46d0-4e07-8500-01cfc2fa8362/76b34049-053a-4f0a-90ce-743149c2c6b2"
          (reference "R38") (unit 1)
        )
      )
      (project "GigaMax"
        (path "/768a484b-8a27-40cf-8cad-0f63935b1af0/d3d3a06e-f81d-4927-9a88-9ed5502f322c"
          (reference "R53") (unit 1)
        )
        (path "/768a484b-8a27-40cf-8cad-0f63935b1af0/04d6ed87-6b10-45aa-8255-84943212068b"
          (reference "R61") (unit 1)
        )
        (path "/768a484b-8a27-40cf-8cad-0f63935b1af0/693754e5-6fc9-4123-abfe-2e1335cfdb84"
          (reference "R69") (unit 1)
        )
      )
    )
  )

  (symbol (lib_id "power:GND") (at 88.9 97.79 0) (unit 1)
    (in_bom yes) (on_board yes) (dnp no)
    (uuid daf9b949-d14a-43d1-b5de-f97a35a23696)
    (property "Reference" "#PWR06" (at 88.9 104.14 0)
      (effects (font (size 1.27 1.27)) hide)
    )
    (property "Value" "GND" (at 83.82 100.33 0)
      (effects (font (size 1.27 1.27)))
    )
    (property "Footprint" "" (at 88.9 97.79 0)
      (effects (font (size 1.27 1.27)) hide)
    )
    (property "Datasheet" "" (at 88.9 97.79 0)
      (effects (font (size 1.27 1.27)) hide)
    )
    (pin "1" (uuid 2daa60c5-d69b-4cec-befb-0904b8a84dfd))
    (instances
      (project "UCC21520DWR"
        (path "/21ffef13-51c1-4f75-9c5e-4fb42baba5c7"
          (reference "#PWR06") (unit 1)
        )
      )
      (project "GigaVescDrivers"
        (path "/74b7e1db-46d0-4e07-8500-01cfc2fa8362/60c370e3-7758-4e46-877e-f687e0b59f6d"
          (reference "#PWR027") (unit 1)
        )
        (path "/74b7e1db-46d0-4e07-8500-01cfc2fa8362/087677ba-107a-4510-bc80-02c4cece2e63"
          (reference "#PWR037") (unit 1)
        )
        (path "/74b7e1db-46d0-4e07-8500-01cfc2fa8362/76b34049-053a-4f0a-90ce-743149c2c6b2"
          (reference "#PWR050") (unit 1)
        )
      )
      (project "GigaMax"
        (path "/768a484b-8a27-40cf-8cad-0f63935b1af0/d3d3a06e-f81d-4927-9a88-9ed5502f322c"
          (reference "#PWR0176") (unit 1)
        )
        (path "/768a484b-8a27-40cf-8cad-0f63935b1af0/04d6ed87-6b10-45aa-8255-84943212068b"
          (reference "#PWR0184") (unit 1)
        )
        (path "/768a484b-8a27-40cf-8cad-0f63935b1af0/693754e5-6fc9-4123-abfe-2e1335cfdb84"
          (reference "#PWR0192") (unit 1)
        )
      )
    )
  )

  (symbol (lib_id "Device:C") (at 54.61 76.2 180) (unit 1)
    (in_bom yes) (on_board yes) (dnp no)
    (uuid e4971b4a-71b5-49fc-ae79-c34113869664)
    (property "Reference" "C1" (at 52.07 80.01 90)
      (effects (font (size 1.27 1.27)))
    )
    (property "Value" "47u 25v Tant" (at 59.182 75.438 90)
      (effects (font (size 1.27 1.27)))
    )
    (property "Footprint" "Capacitor_Tantalum_SMD:CP_EIA-7343-31_Kemet-D" (at 53.6448 72.39 0)
      (effects (font (size 1.27 1.27)) hide)
    )
    (property "Datasheet" "~" (at 54.61 76.2 0)
      (effects (font (size 1.27 1.27)) hide)
    )
    (property "MPN" "C117039" (at 54.61 76.2 90)
      (effects (font (size 1.27 1.27)) hide)
    )
    (property "Mouser" "80-T491D476K25AT7280" (at 54.61 76.2 0)
      (effects (font (size 1.27 1.27)) hide)
    )
    (pin "1" (uuid cbaeb0cd-e69c-4b2e-ad10-def83b3660b3))
    (pin "2" (uuid 08a2e18e-dda6-4ae7-b83d-8cb16cd75c71))
    (instances
      (project "UCC21520DWR"
        (path "/21ffef13-51c1-4f75-9c5e-4fb42baba5c7"
          (reference "C1") (unit 1)
        )
      )
      (project "GigaVescDrivers"
        (path "/74b7e1db-46d0-4e07-8500-01cfc2fa8362/60c370e3-7758-4e46-877e-f687e0b59f6d"
          (reference "C14") (unit 1)
        )
        (path "/74b7e1db-46d0-4e07-8500-01cfc2fa8362/087677ba-107a-4510-bc80-02c4cece2e63"
          (reference "C18") (unit 1)
        )
        (path "/74b7e1db-46d0-4e07-8500-01cfc2fa8362/76b34049-053a-4f0a-90ce-743149c2c6b2"
          (reference "C19") (unit 1)
        )
      )
      (project "GigaMax"
        (path "/768a484b-8a27-40cf-8cad-0f63935b1af0/d3d3a06e-f81d-4927-9a88-9ed5502f322c"
          (reference "C39") (unit 1)
        )
        (path "/768a484b-8a27-40cf-8cad-0f63935b1af0/04d6ed87-6b10-45aa-8255-84943212068b"
          (reference "C66") (unit 1)
        )
        (path "/768a484b-8a27-40cf-8cad-0f63935b1af0/693754e5-6fc9-4123-abfe-2e1335cfdb84"
          (reference "C71") (unit 1)
        )
      )
    )
  )

  (symbol (lib_id "power:GND") (at 68.58 120.65 0) (unit 1)
    (in_bom yes) (on_board yes) (dnp no) (fields_autoplaced)
    (uuid e770c3d4-2c79-4fec-9b3a-adef3e55ba71)
    (property "Reference" "#PWR05" (at 68.58 127 0)
      (effects (font (size 1.27 1.27)) hide)
    )
    (property "Value" "GND" (at 68.58 125.73 0)
      (effects (font (size 1.27 1.27)))
    )
    (property "Footprint" "" (at 68.58 120.65 0)
      (effects (font (size 1.27 1.27)) hide)
    )
    (property "Datasheet" "" (at 68.58 120.65 0)
      (effects (font (size 1.27 1.27)) hide)
    )
    (pin "1" (uuid 3c88e684-621a-4812-af5b-cf49d0684de2))
    (instances
      (project "UCC21520DWR"
        (path "/21ffef13-51c1-4f75-9c5e-4fb42baba5c7"
          (reference "#PWR05") (unit 1)
        )
      )
      (project "GigaVescDrivers"
        (path "/74b7e1db-46d0-4e07-8500-01cfc2fa8362/60c370e3-7758-4e46-877e-f687e0b59f6d"
          (reference "#PWR027") (unit 1)
        )
        (path "/74b7e1db-46d0-4e07-8500-01cfc2fa8362/087677ba-107a-4510-bc80-02c4cece2e63"
          (reference "#PWR037") (unit 1)
        )
        (path "/74b7e1db-46d0-4e07-8500-01cfc2fa8362/76b34049-053a-4f0a-90ce-743149c2c6b2"
          (reference "#PWR050") (unit 1)
        )
      )
      (project "GigaMax"
        (path "/768a484b-8a27-40cf-8cad-0f63935b1af0/d3d3a06e-f81d-4927-9a88-9ed5502f322c"
          (reference "#PWR0175") (unit 1)
        )
        (path "/768a484b-8a27-40cf-8cad-0f63935b1af0/04d6ed87-6b10-45aa-8255-84943212068b"
          (reference "#PWR0183") (unit 1)
        )
        (path "/768a484b-8a27-40cf-8cad-0f63935b1af0/693754e5-6fc9-4123-abfe-2e1335cfdb84"
          (reference "#PWR0191") (unit 1)
        )
      )
    )
  )

  (symbol (lib_id "power:+15V") (at 134.62 100.33 0) (unit 1)
    (in_bom yes) (on_board yes) (dnp no)
    (uuid eb2ccd77-fe14-4b51-8f2c-8efbfd0d853a)
    (property "Reference" "#PWR08" (at 134.62 104.14 0)
      (effects (font (size 1.27 1.27)) hide)
    )
    (property "Value" "+15V" (at 138.43 99.06 0)
      (effects (font (size 1.27 1.27)))
    )
    (property "Footprint" "" (at 134.62 100.33 0)
      (effects (font (size 1.27 1.27)) hide)
    )
    (property "Datasheet" "" (at 134.62 100.33 0)
      (effects (font (size 1.27 1.27)) hide)
    )
    (pin "1" (uuid e8534df1-f9e1-485c-8f22-9936bff51a07))
    (instances
      (project "UCC21520DWR"
        (path "/21ffef13-51c1-4f75-9c5e-4fb42baba5c7"
          (reference "#PWR08") (unit 1)
        )
      )
      (project "GigaVescDrivers"
        (path "/74b7e1db-46d0-4e07-8500-01cfc2fa8362/60c370e3-7758-4e46-877e-f687e0b59f6d"
          (reference "#PWR024") (unit 1)
        )
        (path "/74b7e1db-46d0-4e07-8500-01cfc2fa8362/087677ba-107a-4510-bc80-02c4cece2e63"
          (reference "#PWR038") (unit 1)
        )
        (path "/74b7e1db-46d0-4e07-8500-01cfc2fa8362/76b34049-053a-4f0a-90ce-743149c2c6b2"
          (reference "#PWR051") (unit 1)
        )
      )
      (project "GigaMax"
        (path "/768a484b-8a27-40cf-8cad-0f63935b1af0/d3d3a06e-f81d-4927-9a88-9ed5502f322c"
          (reference "#PWR0180") (unit 1)
        )
        (path "/768a484b-8a27-40cf-8cad-0f63935b1af0/04d6ed87-6b10-45aa-8255-84943212068b"
          (reference "#PWR0188") (unit 1)
        )
        (path "/768a484b-8a27-40cf-8cad-0f63935b1af0/693754e5-6fc9-4123-abfe-2e1335cfdb84"
          (reference "#PWR0196") (unit 1)
        )
      )
    )
  )

  (symbol (lib_id "Device:R") (at 194.31 86.36 180) (unit 1)
    (in_bom yes) (on_board yes) (dnp no)
    (uuid ed5c8d91-5124-4821-a36f-2c30353866d5)
    (property "Reference" "R7" (at 191.77 86.36 90)
      (effects (font (size 1.27 1.27)))
    )
    (property "Value" "4.7k" (at 194.31 86.36 90)
      (effects (font (size 1.27 1.27)))
    )
    (property "Footprint" "Resistor_SMD:R_0603_1608Metric" (at 196.088 86.36 90)
      (effects (font (size 1.27 1.27)) hide)
    )
    (property "Datasheet" "~" (at 194.31 86.36 0)
      (effects (font (size 1.27 1.27)) hide)
    )
    (property "MPN" "C23162" (at 194.31 86.36 90)
      (effects (font (size 1.27 1.27)) hide)
    )
    (property "Mouser" "603-RC0805FR-074K7L" (at 194.31 86.36 0)
      (effects (font (size 1.27 1.27)) hide)
    )
    (pin "1" (uuid 238bce4f-d1ff-40bd-a5f1-5302d8eff32f))
    (pin "2" (uuid 1c6e09eb-5ae4-417c-b85e-b261774f6e2f))
    (instances
      (project "UCC21520DWR"
        (path "/21ffef13-51c1-4f75-9c5e-4fb42baba5c7"
          (reference "R7") (unit 1)
        )
      )
      (project "GigaVescDrivers"
        (path "/74b7e1db-46d0-4e07-8500-01cfc2fa8362/60c370e3-7758-4e46-877e-f687e0b59f6d"
          (reference "R20") (unit 1)
        )
        (path "/74b7e1db-46d0-4e07-8500-01cfc2fa8362/087677ba-107a-4510-bc80-02c4cece2e63"
          (reference "R30") (unit 1)
        )
        (path "/74b7e1db-46d0-4e07-8500-01cfc2fa8362/76b34049-053a-4f0a-90ce-743149c2c6b2"
          (reference "R40") (unit 1)
        )
      )
      (project "GigaMax"
        (path "/768a484b-8a27-40cf-8cad-0f63935b1af0/d3d3a06e-f81d-4927-9a88-9ed5502f322c"
          (reference "R54") (unit 1)
        )
        (path "/768a484b-8a27-40cf-8cad-0f63935b1af0/04d6ed87-6b10-45aa-8255-84943212068b"
          (reference "R62") (unit 1)
        )
        (path "/768a484b-8a27-40cf-8cad-0f63935b1af0/693754e5-6fc9-4123-abfe-2e1335cfdb84"
          (reference "R70") (unit 1)
        )
      )
    )
  )

  (symbol (lib_id "Device:C") (at 88.9 93.98 0) (unit 1)
    (in_bom yes) (on_board yes) (dnp no) (fields_autoplaced)
    (uuid ef8c0aed-a1a0-49b0-b89e-e7c5e3e49549)
    (property "Reference" "C2" (at 92.71 92.71 0)
      (effects (font (size 1.27 1.27)) (justify left))
    )
    (property "Value" "100n" (at 92.71 95.25 0)
      (effects (font (size 1.27 1.27)) (justify left))
    )
    (property "Footprint" "GigaVescLibs:C_0603_1608Metric_L" (at 89.8652 97.79 0)
      (effects (font (size 1.27 1.27)) hide)
    )
    (property "Datasheet" "~" (at 88.9 93.98 0)
      (effects (font (size 1.27 1.27)) hide)
    )
    (property "Mouser" "187-CL21B104KBFNNNE" (at 88.9 93.98 0)
      (effects (font (size 1.27 1.27)) hide)
    )
    (property "MPN" "C14663" (at 88.9 93.98 0)
      (effects (font (size 1.27 1.27)) hide)
    )
    (pin "1" (uuid ab08ea8a-90ad-4b4c-81af-577eedf27ff4))
    (pin "2" (uuid 65046b32-4968-4b44-b48d-ef42cc5edf2f))
    (instances
      (project "UCC21520DWR"
        (path "/21ffef13-51c1-4f75-9c5e-4fb42baba5c7"
          (reference "C2") (unit 1)
        )
      )
      (project "GigaVescDrivers"
        (path "/74b7e1db-46d0-4e07-8500-01cfc2fa8362/60c370e3-7758-4e46-877e-f687e0b59f6d"
          (reference "C8") (unit 1)
        )
        (path "/74b7e1db-46d0-4e07-8500-01cfc2fa8362/087677ba-107a-4510-bc80-02c4cece2e63"
          (reference "C12") (unit 1)
        )
        (path "/74b7e1db-46d0-4e07-8500-01cfc2fa8362/76b34049-053a-4f0a-90ce-743149c2c6b2"
          (reference "C17") (unit 1)
        )
      )
      (project "GigaMax"
        (path "/768a484b-8a27-40cf-8cad-0f63935b1af0/d3d3a06e-f81d-4927-9a88-9ed5502f322c"
          (reference "C63") (unit 1)
        )
        (path "/768a484b-8a27-40cf-8cad-0f63935b1af0/04d6ed87-6b10-45aa-8255-84943212068b"
          (reference "C68") (unit 1)
        )
        (path "/768a484b-8a27-40cf-8cad-0f63935b1af0/693754e5-6fc9-4123-abfe-2e1335cfdb84"
          (reference "C73") (unit 1)
        )
      )
    )
  )

  (symbol (lib_id "Device:R") (at 173.99 105.41 90) (unit 1)
    (in_bom yes) (on_board yes) (dnp no)
    (uuid f87fa174-2da4-41ff-9c0a-c49e236e426e)
    (property "Reference" "R6" (at 173.99 102.87 90)
      (effects (font (size 1.27 1.27)))
    )
    (property "Value" "2.2" (at 173.99 105.41 90)
      (effects (font (size 1.27 1.27)))
    )
    (property "Footprint" "Resistor_SMD:R_0603_1608Metric" (at 173.99 107.188 90)
      (effects (font (size 1.27 1.27)) hide)
    )
    (property "Datasheet" "~" (at 173.99 105.41 0)
      (effects (font (size 1.27 1.27)) hide)
    )
    (property "Mouser" "603-RC0805JR-072R2L" (at 173.99 105.41 0)
      (effects (font (size 1.27 1.27)) hide)
    )
    (property "MPN" "C22939" (at 173.99 105.41 0)
      (effects (font (size 1.27 1.27)) hide)
    )
    (pin "1" (uuid cb067cfe-95ca-417a-aa1c-a05a5a2f8ba6))
    (pin "2" (uuid 42b298f3-9138-4d4f-b6b9-2704a4b2a7e5))
    (instances
      (project "UCC21520DWR"
        (path "/21ffef13-51c1-4f75-9c5e-4fb42baba5c7"
          (reference "R6") (unit 1)
        )
      )
      (project "GigaVescDrivers"
        (path "/74b7e1db-46d0-4e07-8500-01cfc2fa8362/60c370e3-7758-4e46-877e-f687e0b59f6d"
          (reference "R22") (unit 1)
        )
        (path "/74b7e1db-46d0-4e07-8500-01cfc2fa8362/087677ba-107a-4510-bc80-02c4cece2e63"
          (reference "R29") (unit 1)
        )
        (path "/74b7e1db-46d0-4e07-8500-01cfc2fa8362/76b34049-053a-4f0a-90ce-743149c2c6b2"
          (reference "R39") (unit 1)
        )
      )
      (project "GigaMax"
        (path "/768a484b-8a27-40cf-8cad-0f63935b1af0/d3d3a06e-f81d-4927-9a88-9ed5502f322c"
          (reference "R52") (unit 1)
        )
        (path "/768a484b-8a27-40cf-8cad-0f63935b1af0/04d6ed87-6b10-45aa-8255-84943212068b"
          (reference "R60") (unit 1)
        )
        (path "/768a484b-8a27-40cf-8cad-0f63935b1af0/693754e5-6fc9-4123-abfe-2e1335cfdb84"
          (reference "R68") (unit 1)
        )
      )
    )
  )

  (symbol (lib_id "Driver_FET:UCC21520DW") (at 116.84 100.33 0) (unit 1)
    (in_bom yes) (on_board yes) (dnp no) (fields_autoplaced)
    (uuid fb82cbbd-5875-4cfd-aac3-2a32ba9b270b)
    (property "Reference" "U1" (at 116.84 82.55 0)
      (effects (font (size 1.27 1.27)))
    )
    (property "Value" "UCC21520DWR" (at 116.84 85.09 0)
      (effects (font (size 1.27 1.27)))
    )
    (property "Footprint" "Package_SO:SOIC-16W_7.5x10.3mm_P1.27mm" (at 116.84 114.3 0)
      (effects (font (size 1.27 1.27)) hide)
    )
    (property "Datasheet" "http://www.ti.com/lit/ds/symlink/ucc21520.pdf" (at 116.84 101.6 0)
      (effects (font (size 1.27 1.27)) hide)
    )
    (property "MPN" "C601651" (at 116.84 100.33 0)
      (effects (font (size 1.27 1.27)) hide)
    )
    (property "JlcRotOffset" "-90" (at 116.84 100.33 0)
      (effects (font (size 1.27 1.27)) hide)
    )
    (property "Mouser" "595-UCC21520DWR" (at 116.84 100.33 0)
      (effects (font (size 1.27 1.27)) hide)
    )
    (pin "1" (uuid b8104aef-0c5c-4154-98b0-0efa06c61fb7))
    (pin "10" (uuid 6789ab37-edef-4df6-be44-1c1b9485e42c))
    (pin "11" (uuid 48692008-10f3-4e62-8ee9-ad2c8c44ec00))
    (pin "12" (uuid 434589d4-d329-4593-ac63-870fd8e13b0d))
    (pin "13" (uuid 1406beb8-46ea-4865-b086-aaef27ad881c))
    (pin "14" (uuid c8b759bd-aadb-465b-9b7d-f7119cd4d7b8))
    (pin "15" (uuid bc4dafe9-81f6-44c7-a3fd-557af43522ec))
    (pin "16" (uuid ca998ab4-bbe4-4db6-acf2-3e178f1ba0f3))
    (pin "2" (uuid 11da3a71-18c9-4f93-9109-92dd804a23cd))
    (pin "3" (uuid 2ef361e6-bf0b-4f8b-ba38-291eb686fcf1))
    (pin "4" (uuid 3e1ee801-b3da-4845-8a38-db563764a0b4))
    (pin "5" (uuid 7b3eb8a0-bfad-416c-8396-3c49703c6326))
    (pin "6" (uuid be5912ce-ff68-4f3b-b38d-2512d2277f60))
    (pin "7" (uuid 410a88c3-9775-45a0-9186-3fe1d3852ef4))
    (pin "8" (uuid 1a2ea13c-2006-44e2-84b1-ac85f1251fb7))
    (pin "9" (uuid 0b5d80a5-eb1f-4524-a727-d4b6f2c42a65))
    (instances
      (project "UCC21520DWR"
        (path "/21ffef13-51c1-4f75-9c5e-4fb42baba5c7"
          (reference "U1") (unit 1)
        )
      )
      (project "GigaMax"
        (path "/768a484b-8a27-40cf-8cad-0f63935b1af0/d3d3a06e-f81d-4927-9a88-9ed5502f322c"
          (reference "U4") (unit 1)
        )
        (path "/768a484b-8a27-40cf-8cad-0f63935b1af0/04d6ed87-6b10-45aa-8255-84943212068b"
          (reference "U23") (unit 1)
        )
        (path "/768a484b-8a27-40cf-8cad-0f63935b1af0/693754e5-6fc9-4123-abfe-2e1335cfdb84"
          (reference "U24") (unit 1)
        )
      )
    )
  )

  (symbol (lib_id "Device:R") (at 173.99 82.55 90) (unit 1)
    (in_bom yes) (on_board yes) (dnp no)
    (uuid fea02c08-9eea-42f1-903d-f6bff349efc0)
    (property "Reference" "R3" (at 173.99 80.01 90)
      (effects (font (size 1.27 1.27)))
    )
    (property "Value" "2.2" (at 173.99 82.55 90)
      (effects (font (size 1.27 1.27)))
    )
    (property "Footprint" "Resistor_SMD:R_0603_1608Metric" (at 173.99 84.328 90)
      (effects (font (size 1.27 1.27)) hide)
    )
    (property "Datasheet" "~" (at 173.99 82.55 0)
      (effects (font (size 1.27 1.27)) hide)
    )
    (property "Mouser" "603-RC0805JR-072R2L" (at 173.99 82.55 0)
      (effects (font (size 1.27 1.27)) hide)
    )
    (property "MPN" "C22939" (at 173.99 82.55 0)
      (effects (font (size 1.27 1.27)) hide)
    )
    (pin "1" (uuid c95e39a7-aa40-4f97-897f-e86c4fe5b08a))
    (pin "2" (uuid a24054c9-f77a-4e62-be70-3750fed84465))
    (instances
      (project "UCC21520DWR"
        (path "/21ffef13-51c1-4f75-9c5e-4fb42baba5c7"
          (reference "R3") (unit 1)
        )
      )
      (project "GigaVescDrivers"
        (path "/74b7e1db-46d0-4e07-8500-01cfc2fa8362/60c370e3-7758-4e46-877e-f687e0b59f6d"
          (reference "R18") (unit 1)
        )
        (path "/74b7e1db-46d0-4e07-8500-01cfc2fa8362/087677ba-107a-4510-bc80-02c4cece2e63"
          (reference "R26") (unit 1)
        )
        (path "/74b7e1db-46d0-4e07-8500-01cfc2fa8362/76b34049-053a-4f0a-90ce-743149c2c6b2"
          (reference "R36") (unit 1)
        )
      )
      (project "GigaMax"
        (path "/768a484b-8a27-40cf-8cad-0f63935b1af0/d3d3a06e-f81d-4927-9a88-9ed5502f322c"
          (reference "R50") (unit 1)
        )
        (path "/768a484b-8a27-40cf-8cad-0f63935b1af0/04d6ed87-6b10-45aa-8255-84943212068b"
          (reference "R58") (unit 1)
        )
        (path "/768a484b-8a27-40cf-8cad-0f63935b1af0/693754e5-6fc9-4123-abfe-2e1335cfdb84"
          (reference "R66") (unit 1)
        )
      )
    )
  )

  (symbol (lib_id "Device:R") (at 134.62 68.58 0) (unit 1)
    (in_bom yes) (on_board yes) (dnp no) (fields_autoplaced)
    (uuid feb35212-1b1e-483d-becf-b9618cb623d3)
    (property "Reference" "R2" (at 137.16 67.31 0)
      (effects (font (size 1.27 1.27)) (justify left))
    )
    (property "Value" "2.2" (at 137.16 69.85 0)
      (effects (font (size 1.27 1.27)) (justify left))
    )
    (property "Footprint" "Resistor_SMD:R_0603_1608Metric" (at 132.842 68.58 90)
      (effects (font (size 1.27 1.27)) hide)
    )
    (property "Datasheet" "~" (at 134.62 68.58 0)
      (effects (font (size 1.27 1.27)) hide)
    )
    (property "MPN" "C22939" (at 134.62 68.58 0)
      (effects (font (size 1.27 1.27)) hide)
    )
    (property "Mouser" "603-RC0805JR-072R2L" (at 134.62 68.58 0)
      (effects (font (size 1.27 1.27)) hide)
    )
    (pin "1" (uuid c4f041cf-0dda-4f9f-b0e3-6e8e1e577437))
    (pin "2" (uuid c792eab6-f5fa-40d0-a700-ca228a1d6eab))
    (instances
      (project "UCC21520DWR"
        (path "/21ffef13-51c1-4f75-9c5e-4fb42baba5c7"
          (reference "R2") (unit 1)
        )
      )
      (project "GigaVescDrivers"
        (path "/74b7e1db-46d0-4e07-8500-01cfc2fa8362/60c370e3-7758-4e46-877e-f687e0b59f6d"
          (reference "R17") (unit 1)
        )
        (path "/74b7e1db-46d0-4e07-8500-01cfc2fa8362/087677ba-107a-4510-bc80-02c4cece2e63"
          (reference "R25") (unit 1)
        )
        (path "/74b7e1db-46d0-4e07-8500-01cfc2fa8362/76b34049-053a-4f0a-90ce-743149c2c6b2"
          (reference "R35") (unit 1)
        )
      )
      (project "GigaMax"
        (path "/768a484b-8a27-40cf-8cad-0f63935b1af0/d3d3a06e-f81d-4927-9a88-9ed5502f322c"
          (reference "R48") (unit 1)
        )
        (path "/768a484b-8a27-40cf-8cad-0f63935b1af0/04d6ed87-6b10-45aa-8255-84943212068b"
          (reference "R57") (unit 1)
        )
        (path "/768a484b-8a27-40cf-8cad-0f63935b1af0/693754e5-6fc9-4123-abfe-2e1335cfdb84"
          (reference "R65") (unit 1)
        )
      )
    )
  )
)
