(kicad_sch (version 20230121) (generator eeschema)

  (uuid cb23338f-60a7-49f7-94a9-418b32fdddc6)

  (paper "A4")

  (title_block
    (title "Top Sheet")
    (date "2023-12-21")
    (rev "1.00")
    (company "ApotheoTech LLC")
    (comment 1 "SCH: APT-KRIA-FMC")
    (comment 2 "Author: Chance Reimer")
  )

  (lib_symbols
    (symbol "ApotheoTech:1571983-4" (pin_names (offset 1.016)) (in_bom yes) (on_board yes)
      (property "Reference" "U" (at -4.953 7.874 0)
        (effects (font (size 1.27 1.27)))
      )
      (property "Value" "1571983-4" (at 0 6.096 0)
        (effects (font (size 1.27 1.27)))
      )
      (property "Footprint" "ApotheoTech_CXP_Lib:1571983-4" (at 0 0 0)
        (effects (font (size 1.27 1.27)) hide)
      )
      (property "Datasheet" "" (at 0 0 0)
        (effects (font (size 1.27 1.27)) hide)
      )
      (symbol "1571983-4_0_1"
        (rectangle (start -5.08 5.08) (end 5.08 -5.08)
          (stroke (width 0) (type solid))
          (fill (type none))
        )
      )
      (symbol "1571983-4_1_1"
        (pin bidirectional line (at -10.16 3.81 0) (length 5.08)
          (name "1" (effects (font (size 1.27 1.27))))
          (number "1" (effects (font (size 1.27 1.27))))
        )
        (pin bidirectional line (at -10.16 1.27 0) (length 5.08)
          (name "2" (effects (font (size 1.27 1.27))))
          (number "2" (effects (font (size 1.27 1.27))))
        )
        (pin bidirectional line (at -10.16 -1.27 0) (length 5.08)
          (name "3" (effects (font (size 1.27 1.27))))
          (number "3" (effects (font (size 1.27 1.27))))
        )
        (pin bidirectional line (at -10.16 -3.81 0) (length 5.08)
          (name "4" (effects (font (size 1.27 1.27))))
          (number "4" (effects (font (size 1.27 1.27))))
        )
        (pin bidirectional line (at 10.16 3.81 180) (length 5.08)
          (name "5" (effects (font (size 1.27 1.27))))
          (number "5" (effects (font (size 1.27 1.27))))
        )
        (pin bidirectional line (at 10.16 1.27 180) (length 5.08)
          (name "6" (effects (font (size 1.27 1.27))))
          (number "6" (effects (font (size 1.27 1.27))))
        )
        (pin bidirectional line (at 10.16 -1.27 180) (length 5.08)
          (name "7" (effects (font (size 1.27 1.27))))
          (number "7" (effects (font (size 1.27 1.27))))
        )
        (pin bidirectional line (at 10.16 -3.81 180) (length 5.08)
          (name "8" (effects (font (size 1.27 1.27))))
          (number "8" (effects (font (size 1.27 1.27))))
        )
      )
    )
    (symbol "ApotheoTech:B3U-1000P" (pin_names (offset 0.762)) (in_bom yes) (on_board yes)
      (property "Reference" "S" (at 16.51 7.62 0)
        (effects (font (size 1.27 1.27)) (justify left))
      )
      (property "Value" "B3U-1000P" (at 16.51 5.08 0)
        (effects (font (size 1.27 1.27)) (justify left))
      )
      (property "Footprint" "B3U-1000P" (at 16.51 2.54 0)
        (effects (font (size 1.27 1.27)) (justify left) hide)
      )
      (property "Datasheet" "https://www.omron.com/ecb/products/pdf/en-b3u.pdf" (at 16.51 0 0)
        (effects (font (size 1.27 1.27)) (justify left) hide)
      )
      (property "Description" "OMRON ELECTRONIC COMPONENTS - B3U-1000P - SWITCH, SPST-NO, 0.05A, 12V, SMD" (at 16.51 -2.54 0)
        (effects (font (size 1.27 1.27)) (justify left) hide)
      )
      (property "Mouser Part Number" "653-B3U-1000P" (at 16.51 -7.62 0)
        (effects (font (size 1.27 1.27)) (justify left) hide)
      )
      (property "Mouser Price/Stock" "https://www.mouser.co.uk/ProductDetail/Omron-Electronics/B3U-1000P?qs=AO7BQMcsEu4ip80xyf2FwA%3D%3D" (at 16.51 -10.16 0)
        (effects (font (size 1.27 1.27)) (justify left) hide)
      )
      (property "Manufacturer_Name" "Omron Electronics" (at 16.51 -12.7 0)
        (effects (font (size 1.27 1.27)) (justify left) hide)
      )
      (property "Manufacturer_Part_Number" "B3U-1000P" (at 16.51 -15.24 0)
        (effects (font (size 1.27 1.27)) (justify left) hide)
      )
      (symbol "B3U-1000P_0_0"
        (pin passive line (at -8.255 0 0) (length 5.08)
          (name "K" (effects (font (size 1.27 1.27))))
          (number "1" (effects (font (size 1.27 1.27))))
        )
        (pin passive line (at 8.255 0 180) (length 5.08)
          (name "A" (effects (font (size 1.27 1.27))))
          (number "2" (effects (font (size 1.27 1.27))))
        )
      )
      (symbol "B3U-1000P_0_1"
        (rectangle (start -3.175 1.905) (end 3.175 -1.905)
          (stroke (width 0) (type solid))
          (fill (type none))
        )
      )
    )
    (symbol "Device:C" (pin_numbers hide) (pin_names (offset 0.254)) (in_bom yes) (on_board yes)
      (property "Reference" "C" (at 0.635 2.54 0)
        (effects (font (size 1.27 1.27)) (justify left))
      )
      (property "Value" "C" (at 0.635 -2.54 0)
        (effects (font (size 1.27 1.27)) (justify left))
      )
      (property "Footprint" "" (at 0.9652 -3.81 0)
        (effects (font (size 1.27 1.27)) hide)
      )
      (property "Datasheet" "~" (at 0 0 0)
        (effects (font (size 1.27 1.27)) hide)
      )
      (property "ki_keywords" "cap capacitor" (at 0 0 0)
        (effects (font (size 1.27 1.27)) hide)
      )
      (property "ki_description" "Unpolarized capacitor" (at 0 0 0)
        (effects (font (size 1.27 1.27)) hide)
      )
      (property "ki_fp_filters" "C_*" (at 0 0 0)
        (effects (font (size 1.27 1.27)) hide)
      )
      (symbol "C_0_1"
        (polyline
          (pts
            (xy -2.032 -0.762)
            (xy 2.032 -0.762)
          )
          (stroke (width 0.508) (type default))
          (fill (type none))
        )
        (polyline
          (pts
            (xy -2.032 0.762)
            (xy 2.032 0.762)
          )
          (stroke (width 0.508) (type default))
          (fill (type none))
        )
      )
      (symbol "C_1_1"
        (pin passive line (at 0 3.81 270) (length 2.794)
          (name "~" (effects (font (size 1.27 1.27))))
          (number "1" (effects (font (size 1.27 1.27))))
        )
        (pin passive line (at 0 -3.81 90) (length 2.794)
          (name "~" (effects (font (size 1.27 1.27))))
          (number "2" (effects (font (size 1.27 1.27))))
        )
      )
    )
    (symbol "Device:R" (pin_numbers hide) (pin_names (offset 0)) (in_bom yes) (on_board yes)
      (property "Reference" "R" (at 2.032 0 90)
        (effects (font (size 1.27 1.27)))
      )
      (property "Value" "R" (at 0 0 90)
        (effects (font (size 1.27 1.27)))
      )
      (property "Footprint" "" (at -1.778 0 90)
        (effects (font (size 1.27 1.27)) hide)
      )
      (property "Datasheet" "~" (at 0 0 0)
        (effects (font (size 1.27 1.27)) hide)
      )
      (property "ki_keywords" "R res resistor" (at 0 0 0)
        (effects (font (size 1.27 1.27)) hide)
      )
      (property "ki_description" "Resistor" (at 0 0 0)
        (effects (font (size 1.27 1.27)) hide)
      )
      (property "ki_fp_filters" "R_*" (at 0 0 0)
        (effects (font (size 1.27 1.27)) hide)
      )
      (symbol "R_0_1"
        (rectangle (start -1.016 -2.54) (end 1.016 2.54)
          (stroke (width 0.254) (type default))
          (fill (type none))
        )
      )
      (symbol "R_1_1"
        (pin passive line (at 0 3.81 270) (length 1.27)
          (name "~" (effects (font (size 1.27 1.27))))
          (number "1" (effects (font (size 1.27 1.27))))
        )
        (pin passive line (at 0 -3.81 90) (length 1.27)
          (name "~" (effects (font (size 1.27 1.27))))
          (number "2" (effects (font (size 1.27 1.27))))
        )
      )
    )
    (symbol "power:GND" (power) (pin_names (offset 0)) (in_bom yes) (on_board yes)
      (property "Reference" "#PWR" (at 0 -6.35 0)
        (effects (font (size 1.27 1.27)) hide)
      )
      (property "Value" "GND" (at 0 -3.81 0)
        (effects (font (size 1.27 1.27)))
      )
      (property "Footprint" "" (at 0 0 0)
        (effects (font (size 1.27 1.27)) hide)
      )
      (property "Datasheet" "" (at 0 0 0)
        (effects (font (size 1.27 1.27)) hide)
      )
      (property "ki_keywords" "global power" (at 0 0 0)
        (effects (font (size 1.27 1.27)) hide)
      )
      (property "ki_description" "Power symbol creates a global label with name \"GND\" , ground" (at 0 0 0)
        (effects (font (size 1.27 1.27)) hide)
      )
      (symbol "GND_0_1"
        (polyline
          (pts
            (xy 0 0)
            (xy 0 -1.27)
            (xy 1.27 -1.27)
            (xy 0 -2.54)
            (xy -1.27 -1.27)
            (xy 0 -1.27)
          )
          (stroke (width 0) (type default))
          (fill (type none))
        )
      )
      (symbol "GND_1_1"
        (pin power_in line (at 0 0 270) (length 0) hide
          (name "GND" (effects (font (size 1.27 1.27))))
          (number "1" (effects (font (size 1.27 1.27))))
        )
      )
    )
  )

  (junction (at 242.57 72.39) (diameter 0) (color 0 0 0 0)
    (uuid 0709d9e6-d14d-452e-93cf-b3b6005310ed)
  )
  (junction (at 29.21 54.61) (diameter 0) (color 0 0 0 0)
    (uuid 5aaf2fd5-8616-42a8-81d5-d63018959067)
  )
  (junction (at 227.33 72.39) (diameter 0) (color 0 0 0 0)
    (uuid 66a5aa97-ad06-41c8-816e-dff01a3a990a)
  )
  (junction (at 57.15 43.18) (diameter 0) (color 0 0 0 0)
    (uuid 980aff89-e955-42d2-8461-8c7c23c5ad5e)
  )
  (junction (at 234.95 72.39) (diameter 0) (color 0 0 0 0)
    (uuid d94b8c64-b437-4d36-90c0-e62797b4e2ff)
  )

  (wire (pts (xy 242.57 69.85) (xy 242.57 72.39))
    (stroke (width 0) (type default))
    (uuid 005f4b88-9274-4f62-9961-19dc32d65685)
  )
  (polyline (pts (xy 283.21 152.4) (xy 283.21 25.4))
    (stroke (width 0) (type default))
    (uuid 0aba16ff-4349-40bc-ac92-e4d6803cdffe)
  )

  (wire (pts (xy 227.33 55.88) (xy 227.33 62.23))
    (stroke (width 0) (type default))
    (uuid 15c8cb1d-93db-474a-9520-7be3c58bc162)
  )
  (wire (pts (xy 204.47 50.8) (xy 242.57 50.8))
    (stroke (width 0) (type default))
    (uuid 280f919f-5cd1-4e83-b236-4f9ec4f982de)
  )
  (wire (pts (xy 175.26 50.8) (xy 184.15 50.8))
    (stroke (width 0) (type default))
    (uuid 2b1674db-8485-4b73-b9d4-819d50b89440)
  )
  (wire (pts (xy 29.21 43.18) (xy 29.21 54.61))
    (stroke (width 0) (type default))
    (uuid 2b5f278d-c346-42ac-b541-6b42b5e6ab44)
  )
  (wire (pts (xy 204.47 53.34) (xy 234.95 53.34))
    (stroke (width 0) (type default))
    (uuid 3652c0df-cd03-47fe-8ebd-ab4e50e42567)
  )
  (wire (pts (xy 242.57 72.39) (xy 242.57 74.93))
    (stroke (width 0) (type default))
    (uuid 38905933-ce17-4d17-8e35-f300c5b0c3c8)
  )
  (polyline (pts (xy 15.24 25.4) (xy 15.24 152.527))
    (stroke (width 0) (type default))
    (uuid 3d12f2ce-139a-46af-a11e-4e629079c4e8)
  )

  (wire (pts (xy 36.83 43.18) (xy 29.21 43.18))
    (stroke (width 0) (type default))
    (uuid 3d75f6e0-2533-4d3d-8abc-c49bb4ca7ec2)
  )
  (wire (pts (xy 57.15 53.34) (xy 57.15 54.61))
    (stroke (width 0) (type default))
    (uuid 40f867fa-a36e-4416-9dea-433905e6763f)
  )
  (wire (pts (xy 204.47 55.88) (xy 227.33 55.88))
    (stroke (width 0) (type default))
    (uuid 4660c315-e3b9-437b-9336-9bc86061dd86)
  )
  (wire (pts (xy 57.15 43.18) (xy 77.47 43.18))
    (stroke (width 0) (type default))
    (uuid 4d37014a-797e-4c6f-afd4-ad79313c3b34)
  )
  (wire (pts (xy 227.33 72.39) (xy 227.33 69.85))
    (stroke (width 0) (type default))
    (uuid 508714cc-85ed-4edf-9633-20ee3538a830)
  )
  (wire (pts (xy 175.26 53.34) (xy 184.15 53.34))
    (stroke (width 0) (type default))
    (uuid 511573ca-556c-4d97-87bd-8a601161d22b)
  )
  (wire (pts (xy 42.164 110.617) (xy 63.5 110.617))
    (stroke (width 0) (type default))
    (uuid 5429a02c-f64c-4e79-a85e-ebb16fb76de0)
  )
  (wire (pts (xy 53.34 43.18) (xy 57.15 43.18))
    (stroke (width 0) (type default))
    (uuid 559473fa-f778-4662-b24c-7f1183a82f1e)
  )
  (polyline (pts (xy 15.24 76.2) (xy 139.7 76.2))
    (stroke (width 0) (type default))
    (uuid 67bc68b3-0e56-46dd-aeaa-b042c758eb74)
  )

  (wire (pts (xy 219.71 69.85) (xy 219.71 72.39))
    (stroke (width 0) (type default))
    (uuid 798e17c2-d5b0-46ac-a273-5238a52b1fd7)
  )
  (wire (pts (xy 219.71 58.42) (xy 219.71 62.23))
    (stroke (width 0) (type default))
    (uuid 7bbee35c-b060-4ae9-b086-465f661240d6)
  )
  (wire (pts (xy 234.95 53.34) (xy 234.95 62.23))
    (stroke (width 0) (type default))
    (uuid 7eb71c49-2e44-475a-b653-4fbc13aa8726)
  )
  (wire (pts (xy 242.57 72.39) (xy 234.95 72.39))
    (stroke (width 0) (type default))
    (uuid 8bd5703b-3bc3-478c-abb3-979bd9e952d5)
  )
  (polyline (pts (xy 139.7 152.4) (xy 283.21 152.4))
    (stroke (width 0) (type default))
    (uuid 8c0e24f6-3ba9-4271-9c4b-5c19c0aca222)
  )

  (wire (pts (xy 227.33 72.39) (xy 234.95 72.39))
    (stroke (width 0) (type default))
    (uuid 8ddb916b-8fd6-4cbf-9913-be208c8f01f8)
  )
  (wire (pts (xy 234.95 72.39) (xy 234.95 69.85))
    (stroke (width 0) (type default))
    (uuid 8e511551-21ad-4713-a2ab-ef0aa2ca1339)
  )
  (wire (pts (xy 175.26 58.42) (xy 184.15 58.42))
    (stroke (width 0) (type default))
    (uuid 92d56b6b-68e5-4d05-be8b-94a0c3716923)
  )
  (wire (pts (xy 204.47 58.42) (xy 219.71 58.42))
    (stroke (width 0) (type default))
    (uuid 9c2bc415-adee-4826-91ff-68b737ebd836)
  )
  (polyline (pts (xy 15.24 25.4) (xy 283.21 25.4))
    (stroke (width 0) (type default))
    (uuid 9d7717ba-3435-4875-94b0-6a31a68aaaa1)
  )

  (wire (pts (xy 242.57 62.23) (xy 242.57 50.8))
    (stroke (width 0) (type default))
    (uuid 9ef88fa3-2e48-43e6-af56-c9a0a06661a2)
  )
  (wire (pts (xy 29.21 54.61) (xy 29.21 55.88))
    (stroke (width 0) (type default))
    (uuid a45d7203-9c1d-4bde-bd09-955fb57b6aa7)
  )
  (wire (pts (xy 63.5 121.92) (xy 63.5 125.73))
    (stroke (width 0) (type default))
    (uuid ac585de4-cde3-4696-bcdd-0a837edf79c7)
  )
  (polyline (pts (xy 139.7 25.4) (xy 139.7 152.527))
    (stroke (width 0) (type default))
    (uuid c0816f38-7326-4016-a896-265c99939e48)
  )

  (wire (pts (xy 63.5 110.617) (xy 63.5 114.3))
    (stroke (width 0) (type default))
    (uuid ce8af5f5-f077-4983-9c65-835464297d22)
  )
  (wire (pts (xy 175.26 55.88) (xy 184.15 55.88))
    (stroke (width 0) (type default))
    (uuid e3b349b1-e89e-4a8d-9eeb-2a013ce83574)
  )
  (wire (pts (xy 57.15 54.61) (xy 29.21 54.61))
    (stroke (width 0) (type default))
    (uuid e5056fcf-c7e3-4269-a3b9-61a81a559688)
  )
  (polyline (pts (xy 139.7 152.527) (xy 15.24 152.527))
    (stroke (width 0) (type default))
    (uuid e779f4ac-ac37-4838-9385-875dd2ee062f)
  )

  (wire (pts (xy 57.15 45.72) (xy 57.15 43.18))
    (stroke (width 0) (type default))
    (uuid ea08f02e-0df2-4b3c-928d-4ff890e349d5)
  )
  (wire (pts (xy 219.71 72.39) (xy 227.33 72.39))
    (stroke (width 0) (type default))
    (uuid f04b5885-5b5c-4712-85b9-363f66913c30)
  )

  (text "NOTE: PRODUCTION SOMS ARE SHIPPED WITH NO CONTENT ON QSPI\nTHUS BSP MUST BE USED WITH A SINGLE BOOT DEVICE! \n(Source: https://xilinx-wiki.atlassian.net/wiki/spaces/A/pages/1641152513/Kria+K26+SOM#SD-Card-Images)\nGo to Petalinux board support Packages Table"
    (at 145.161 86.233 0)
    (effects (font (size 1.27 1.27)) (justify left bottom))
    (uuid 28d5447f-9582-4e6f-afbe-089e63172078)
  )
  (text "SHUTDOWN" (at 19.685 97.155 0)
    (effects (font (size 3.9878 3.9878)) (justify left bottom))
    (uuid 2eabe4b3-ef9d-4de6-b835-4deb8826cd00)
  )
  (text "Read Page 30 UG1091, MODE pins are tied to 1.8V on SOM,\nSwitches will leave the pins floating, and ground them when turned \"on\""
    (at 143.256 39.243 0)
    (effects (font (size 1.27 1.27)) (justify left bottom))
    (uuid 65e17afe-8d2d-4164-a12a-bec5388e0c47)
  )
  (text "Buttons, Shutdown, and Mode switch" (at 14.986 22.606 0)
    (effects (font (size 5.9944 5.9944) (thickness 1.1989) bold) (justify left bottom))
    (uuid 6dc364e0-0a76-4444-b19c-d0b03bbff6de)
  )
  (text "Note Boot Mode from Mode Pins\nWe are Interested in \nboot_mode <= 4'b0, (JTAG)\nboot_mode <= 4'b0010 (QSPI 32bit)\nboot_mode <= 4'b0101(MIO[51:43])\n"
    (at 144.145 104.14 0)
    (effects (font (size 1.27 1.27)) (justify left bottom))
    (uuid 729c7915-158d-4b3a-92c2-dbf11af7b4ac)
  )
  (text "MODE SWITCH" (at 141.859 33.401 0)
    (effects (font (size 3.9878 3.9878)) (justify left bottom))
    (uuid 88d2cab9-d50a-4240-ad4a-f37fb1adcf9f)
  )
  (text "Note Boot Mode in UG1091 references UG1283, and UG1283 describes how to create boot image for EITHER QSPI or SD CARD.\nMust use Mode pins to select which device to boot from\n"
    (at 145.034 91.694 0)
    (effects (font (size 1.27 1.27)) (justify left bottom))
    (uuid 8bb517e2-7777-46b4-b3ac-1bde49dcc861)
  )
  (text "FWUEN BUTTON" (at 17.272 32.258 0)
    (effects (font (size 3.9878 3.9878)) (justify left bottom))
    (uuid f2591dd3-1fea-41ff-823f-48f709091303)
  )

  (hierarchical_label "MODE2_C2M" (shape output) (at 175.26 55.88 180) (fields_autoplaced)
    (effects (font (size 1.27 1.27)) (justify right))
    (uuid 061187bb-23c3-4082-a7df-f4d6b988f96a)
  )
  (hierarchical_label "MIO12_FWUEN_C2M_N" (shape output) (at 77.47 43.18 0) (fields_autoplaced)
    (effects (font (size 1.27 1.27)) (justify left))
    (uuid 2aef6f84-f842-4a34-b29a-5d06258783cf)
  )
  (hierarchical_label "MODE1_C2M" (shape output) (at 175.26 53.34 180) (fields_autoplaced)
    (effects (font (size 1.27 1.27)) (justify right))
    (uuid 2da39cde-082b-4613-9efc-138a68e21cf7)
  )
  (hierarchical_label "MODE3_C2M" (shape output) (at 175.26 58.42 180) (fields_autoplaced)
    (effects (font (size 1.27 1.27)) (justify right))
    (uuid 9aa541f4-411f-4655-af6a-e529299ce46e)
  )
  (hierarchical_label "MODE0_C2M" (shape output) (at 175.26 50.8 180) (fields_autoplaced)
    (effects (font (size 1.27 1.27)) (justify right))
    (uuid 9ceb696f-cc74-43b9-aa93-122ddb20c1df)
  )
  (hierarchical_label "MIO31_SHUTDOWN" (shape output) (at 42.164 110.617 180) (fields_autoplaced)
    (effects (font (size 1.27 1.27)) (justify right))
    (uuid f9ea9eaf-7e78-47ec-901a-9c8a6186467c)
  )

  (symbol (lib_id "Device:R") (at 219.71 66.04 0) (unit 1)
    (in_bom yes) (on_board yes) (dnp no)
    (uuid 00000000-0000-0000-0000-000061598c94)
    (property "Reference" "R?" (at 221.488 64.8716 0)
      (effects (font (size 1.27 1.27)) (justify left))
    )
    (property "Value" "499" (at 221.488 67.183 0)
      (effects (font (size 1.27 1.27)) (justify left))
    )
    (property "Footprint" "Resistor_SMD:R_0402_1005Metric" (at 217.932 66.04 90)
      (effects (font (size 1.27 1.27)) hide)
    )
    (property "Datasheet" "~" (at 219.71 66.04 0)
      (effects (font (size 1.27 1.27)) hide)
    )
    (property "PartNumber" "ERJ-2RKF4990X" (at 219.71 66.04 0)
      (effects (font (size 1.27 1.27)) hide)
    )
    (property "Tol" "1%" (at 223.012 69.088 0)
      (effects (font (size 1.27 1.27)))
    )
    (property "Power" "1/10W" (at 219.71 66.04 0)
      (effects (font (size 1.27 1.27)) hide)
    )
    (pin "1" (uuid 252d36eb-e011-44b1-bd46-d757b1cd07d8))
    (pin "2" (uuid e071c0cc-2a69-47f8-80c0-ff416ddfd711))
    (instances
      (project "APT-KRIA-FMC"
        (path "/fa98ecbf-7e4d-41d2-9c93-0ad23d3b22ef/00000000-0000-0000-0000-00006374ad8d"
          (reference "R?") (unit 1)
        )
        (path "/fa98ecbf-7e4d-41d2-9c93-0ad23d3b22ef/00000000-0000-0000-0000-000062fc7139"
          (reference "R219") (unit 1)
        )
        (path "/fa98ecbf-7e4d-41d2-9c93-0ad23d3b22ef/00000000-0000-0000-0000-0000616d0fbf"
          (reference "R?") (unit 1)
        )
        (path "/fa98ecbf-7e4d-41d2-9c93-0ad23d3b22ef/00000000-0000-0000-0000-00006314cde6"
          (reference "R?") (unit 1)
        )
      )
    )
  )

  (symbol (lib_id "Device:R") (at 227.33 66.04 0) (unit 1)
    (in_bom yes) (on_board yes) (dnp no)
    (uuid 00000000-0000-0000-0000-00006159939b)
    (property "Reference" "R?" (at 229.108 64.8716 0)
      (effects (font (size 1.27 1.27)) (justify left))
    )
    (property "Value" "499" (at 229.108 67.183 0)
      (effects (font (size 1.27 1.27)) (justify left))
    )
    (property "Footprint" "Resistor_SMD:R_0402_1005Metric" (at 225.552 66.04 90)
      (effects (font (size 1.27 1.27)) hide)
    )
    (property "Datasheet" "~" (at 227.33 66.04 0)
      (effects (font (size 1.27 1.27)) hide)
    )
    (property "PartNumber" "ERJ-2RKF4990X" (at 227.33 66.04 0)
      (effects (font (size 1.27 1.27)) hide)
    )
    (property "Tol" "1%" (at 230.632 69.088 0)
      (effects (font (size 1.27 1.27)))
    )
    (property "Power" "1/10W" (at 227.33 66.04 0)
      (effects (font (size 1.27 1.27)) hide)
    )
    (pin "1" (uuid f79beb3c-74fa-45c8-b1bc-e926a561782f))
    (pin "2" (uuid 92e90a3c-9c94-4700-9988-cdb656aa95d8))
    (instances
      (project "APT-KRIA-FMC"
        (path "/fa98ecbf-7e4d-41d2-9c93-0ad23d3b22ef/00000000-0000-0000-0000-00006374ad8d"
          (reference "R?") (unit 1)
        )
        (path "/fa98ecbf-7e4d-41d2-9c93-0ad23d3b22ef/00000000-0000-0000-0000-000062fc7139"
          (reference "R220") (unit 1)
        )
        (path "/fa98ecbf-7e4d-41d2-9c93-0ad23d3b22ef/00000000-0000-0000-0000-0000616d0fbf"
          (reference "R?") (unit 1)
        )
        (path "/fa98ecbf-7e4d-41d2-9c93-0ad23d3b22ef/00000000-0000-0000-0000-00006314cde6"
          (reference "R?") (unit 1)
        )
      )
    )
  )

  (symbol (lib_id "Device:R") (at 234.95 66.04 0) (unit 1)
    (in_bom yes) (on_board yes) (dnp no)
    (uuid 00000000-0000-0000-0000-000061599a91)
    (property "Reference" "R?" (at 236.728 64.8716 0)
      (effects (font (size 1.27 1.27)) (justify left))
    )
    (property "Value" "499" (at 236.728 67.183 0)
      (effects (font (size 1.27 1.27)) (justify left))
    )
    (property "Footprint" "Resistor_SMD:R_0402_1005Metric" (at 233.172 66.04 90)
      (effects (font (size 1.27 1.27)) hide)
    )
    (property "Datasheet" "~" (at 234.95 66.04 0)
      (effects (font (size 1.27 1.27)) hide)
    )
    (property "PartNumber" "ERJ-2RKF4990X" (at 234.95 66.04 0)
      (effects (font (size 1.27 1.27)) hide)
    )
    (property "Tol" "1%" (at 238.252 69.088 0)
      (effects (font (size 1.27 1.27)))
    )
    (property "Power" "1/10W" (at 234.95 66.04 0)
      (effects (font (size 1.27 1.27)) hide)
    )
    (pin "1" (uuid 73af0c29-7e3a-4090-ac27-d1386e8f2cac))
    (pin "2" (uuid 9e85964e-8307-45ec-99aa-ba913e51f61c))
    (instances
      (project "APT-KRIA-FMC"
        (path "/fa98ecbf-7e4d-41d2-9c93-0ad23d3b22ef/00000000-0000-0000-0000-00006374ad8d"
          (reference "R?") (unit 1)
        )
        (path "/fa98ecbf-7e4d-41d2-9c93-0ad23d3b22ef/00000000-0000-0000-0000-000062fc7139"
          (reference "R221") (unit 1)
        )
        (path "/fa98ecbf-7e4d-41d2-9c93-0ad23d3b22ef/00000000-0000-0000-0000-0000616d0fbf"
          (reference "R?") (unit 1)
        )
        (path "/fa98ecbf-7e4d-41d2-9c93-0ad23d3b22ef/00000000-0000-0000-0000-00006314cde6"
          (reference "R?") (unit 1)
        )
      )
    )
  )

  (symbol (lib_id "Device:R") (at 242.57 66.04 0) (unit 1)
    (in_bom yes) (on_board yes) (dnp no)
    (uuid 00000000-0000-0000-0000-00006159d4ba)
    (property "Reference" "R?" (at 244.348 64.8716 0)
      (effects (font (size 1.27 1.27)) (justify left))
    )
    (property "Value" "499" (at 244.348 67.183 0)
      (effects (font (size 1.27 1.27)) (justify left))
    )
    (property "Footprint" "Resistor_SMD:R_0402_1005Metric" (at 240.792 66.04 90)
      (effects (font (size 1.27 1.27)) hide)
    )
    (property "Datasheet" "~" (at 242.57 66.04 0)
      (effects (font (size 1.27 1.27)) hide)
    )
    (property "PartNumber" "ERJ-2RKF4990X" (at 242.57 66.04 0)
      (effects (font (size 1.27 1.27)) hide)
    )
    (property "Tol" "1%" (at 245.872 69.088 0)
      (effects (font (size 1.27 1.27)))
    )
    (property "Power" "1/10W" (at 242.57 66.04 0)
      (effects (font (size 1.27 1.27)) hide)
    )
    (pin "1" (uuid 2872a913-301e-4bb7-b30b-4ea922dfd5bd))
    (pin "2" (uuid 7250d8b0-e5e3-4f0f-bed7-8f0a65e9de5a))
    (instances
      (project "APT-KRIA-FMC"
        (path "/fa98ecbf-7e4d-41d2-9c93-0ad23d3b22ef/00000000-0000-0000-0000-00006374ad8d"
          (reference "R?") (unit 1)
        )
        (path "/fa98ecbf-7e4d-41d2-9c93-0ad23d3b22ef/00000000-0000-0000-0000-000062fc7139"
          (reference "R222") (unit 1)
        )
        (path "/fa98ecbf-7e4d-41d2-9c93-0ad23d3b22ef/00000000-0000-0000-0000-0000616d0fbf"
          (reference "R?") (unit 1)
        )
        (path "/fa98ecbf-7e4d-41d2-9c93-0ad23d3b22ef/00000000-0000-0000-0000-00006314cde6"
          (reference "R?") (unit 1)
        )
      )
    )
  )

  (symbol (lib_id "power:GND") (at 242.57 74.93 0) (unit 1)
    (in_bom yes) (on_board yes) (dnp no)
    (uuid 00000000-0000-0000-0000-0000615acf3c)
    (property "Reference" "#PWR0311" (at 242.57 81.28 0)
      (effects (font (size 1.27 1.27)) hide)
    )
    (property "Value" "GND" (at 242.697 79.3242 0)
      (effects (font (size 1.27 1.27)))
    )
    (property "Footprint" "" (at 242.57 74.93 0)
      (effects (font (size 1.27 1.27)) hide)
    )
    (property "Datasheet" "" (at 242.57 74.93 0)
      (effects (font (size 1.27 1.27)) hide)
    )
    (pin "1" (uuid fc53b42e-097b-428b-8d89-d44a3d30996f))
    (instances
      (project "APT-KRIA-FMC"
        (path "/fa98ecbf-7e4d-41d2-9c93-0ad23d3b22ef/00000000-0000-0000-0000-000062fc7139"
          (reference "#PWR0311") (unit 1)
        )
      )
    )
  )

  (symbol (lib_id "Device:R") (at 63.5 118.11 0) (unit 1)
    (in_bom yes) (on_board yes) (dnp no)
    (uuid 00000000-0000-0000-0000-000061bdb4b2)
    (property "Reference" "R?" (at 65.278 115.7986 0)
      (effects (font (size 1.27 1.27)) (justify left))
    )
    (property "Value" "10K" (at 65.278 118.11 0)
      (effects (font (size 1.27 1.27)) (justify left))
    )
    (property "Footprint" "Resistor_SMD:R_0402_1005Metric" (at 61.722 118.11 90)
      (effects (font (size 1.27 1.27)) hide)
    )
    (property "Datasheet" "~" (at 63.5 118.11 0)
      (effects (font (size 1.27 1.27)) hide)
    )
    (property "Tolerance" "1%" (at 65.278 120.4214 0)
      (effects (font (size 1.27 1.27)) (justify left))
    )
    (property "Power" "1/10W" (at 63.5 118.11 0)
      (effects (font (size 1.27 1.27)) hide)
    )
    (property "PartNumber" "ERJ-2RKF1002X" (at 63.5 118.11 0)
      (effects (font (size 1.27 1.27)) hide)
    )
    (property "URL" "https://www.digikey.com/en/products/detail/panasonic-electronic-components/ERJ-2RKF1002X/192073" (at 63.5 118.11 0)
      (effects (font (size 1.27 1.27)) hide)
    )
    (pin "1" (uuid 3fcbbe64-8228-4b63-a40d-c4ebd0aca7ba))
    (pin "2" (uuid ca06bb56-f0d2-413c-9dda-bcdf1f208ca7))
    (instances
      (project "APT-KRIA-FMC"
        (path "/fa98ecbf-7e4d-41d2-9c93-0ad23d3b22ef/00000000-0000-0000-0000-00006314f1aa"
          (reference "R?") (unit 1)
        )
        (path "/fa98ecbf-7e4d-41d2-9c93-0ad23d3b22ef/00000000-0000-0000-0000-000062c99a69"
          (reference "R?") (unit 1)
        )
        (path "/fa98ecbf-7e4d-41d2-9c93-0ad23d3b22ef/00000000-0000-0000-0000-000062fc7139"
          (reference "R218") (unit 1)
        )
        (path "/fa98ecbf-7e4d-41d2-9c93-0ad23d3b22ef/00000000-0000-0000-0000-0000619c2b3c"
          (reference "R?") (unit 1)
        )
        (path "/fa98ecbf-7e4d-41d2-9c93-0ad23d3b22ef/00000000-0000-0000-0000-00006374ad8d"
          (reference "R?") (unit 1)
        )
      )
    )
  )

  (symbol (lib_id "power:GND") (at 63.5 125.73 0) (unit 1)
    (in_bom yes) (on_board yes) (dnp no)
    (uuid 00000000-0000-0000-0000-000061bdd2c8)
    (property "Reference" "#PWR0310" (at 63.5 132.08 0)
      (effects (font (size 1.27 1.27)) hide)
    )
    (property "Value" "GND" (at 63.627 130.1242 0)
      (effects (font (size 1.27 1.27)))
    )
    (property "Footprint" "" (at 63.5 125.73 0)
      (effects (font (size 1.27 1.27)) hide)
    )
    (property "Datasheet" "" (at 63.5 125.73 0)
      (effects (font (size 1.27 1.27)) hide)
    )
    (pin "1" (uuid 95b55453-3ab8-4d5e-9e68-4f317f9e28be))
    (instances
      (project "APT-KRIA-FMC"
        (path "/fa98ecbf-7e4d-41d2-9c93-0ad23d3b22ef/00000000-0000-0000-0000-000062fc7139"
          (reference "#PWR0310") (unit 1)
        )
      )
    )
  )

  (symbol (lib_id "ApotheoTech:1571983-4") (at 194.31 54.61 0) (unit 1)
    (in_bom yes) (on_board yes) (dnp no)
    (uuid 00000000-0000-0000-0000-0000632384b2)
    (property "Reference" "U5" (at 194.31 45.085 0)
      (effects (font (size 1.27 1.27)))
    )
    (property "Value" "1571983-4" (at 194.31 47.3964 0)
      (effects (font (size 1.27 1.27)))
    )
    (property "Footprint" "ApotheoTech_CXP_Lib:1571983-4" (at 194.31 54.61 0)
      (effects (font (size 1.27 1.27)) hide)
    )
    (property "Datasheet" "" (at 194.31 54.61 0)
      (effects (font (size 1.27 1.27)) hide)
    )
    (pin "1" (uuid 94708eb8-cb5b-4b85-b243-cff79cca8cbf))
    (pin "2" (uuid 69f224ee-1d24-4553-b209-4a12ad7c7547))
    (pin "3" (uuid 9c50935d-de7d-4d73-90a6-ba9730e20dec))
    (pin "4" (uuid b2acd885-abad-4c2d-bcc3-d77c5dcdefe5))
    (pin "5" (uuid a278bc4b-6683-43e5-bceb-08874db18587))
    (pin "6" (uuid 598c1f01-6818-4f35-8814-8fd89890a4fd))
    (pin "7" (uuid f725cedc-6d0a-4881-a57d-c029f06dd7e5))
    (pin "8" (uuid 499f6fe2-4c0f-4fb8-81f5-7c380288c931))
    (instances
      (project "APT-KRIA-FMC"
        (path "/fa98ecbf-7e4d-41d2-9c93-0ad23d3b22ef/00000000-0000-0000-0000-000062fc7139"
          (reference "U5") (unit 1)
        )
      )
    )
  )

  (symbol (lib_id "ApotheoTech:B3U-1000P") (at 45.085 43.18 0) (unit 1)
    (in_bom yes) (on_board yes) (dnp no)
    (uuid 00000000-0000-0000-0000-000063ceb493)
    (property "Reference" "S2" (at 45.085 37.084 0)
      (effects (font (size 1.27 1.27)))
    )
    (property "Value" "B3U-1000P" (at 45.085 39.3954 0)
      (effects (font (size 1.27 1.27)))
    )
    (property "Footprint" "ApotheoTech_CXP_Lib:B3U-1000P" (at 61.595 40.64 0)
      (effects (font (size 1.27 1.27)) (justify left) hide)
    )
    (property "Datasheet" "https://www.omron.com/ecb/products/pdf/en-b3u.pdf" (at 61.595 43.18 0)
      (effects (font (size 1.27 1.27)) (justify left) hide)
    )
    (property "Description" "OMRON ELECTRONIC COMPONENTS - B3U-1000P - SWITCH, SPST-NO, 0.05A, 12V, SMD" (at 61.595 45.72 0)
      (effects (font (size 1.27 1.27)) (justify left) hide)
    )
    (property "Mouser Part Number" "653-B3U-1000P" (at 61.595 50.8 0)
      (effects (font (size 1.27 1.27)) (justify left) hide)
    )
    (property "Mouser Price/Stock" "https://www.mouser.co.uk/ProductDetail/Omron-Electronics/B3U-1000P?qs=AO7BQMcsEu4ip80xyf2FwA%3D%3D" (at 61.595 53.34 0)
      (effects (font (size 1.27 1.27)) (justify left) hide)
    )
    (property "Manufacturer_Name" "Omron Electronics" (at 61.595 55.88 0)
      (effects (font (size 1.27 1.27)) (justify left) hide)
    )
    (property "Manufacturer_Part_Number" "B3U-1000P" (at 61.595 58.42 0)
      (effects (font (size 1.27 1.27)) (justify left) hide)
    )
    (pin "1" (uuid 6b52bffb-2bfd-4b7f-9369-8c067ae0702e))
    (pin "2" (uuid 6e81f7dc-3b2b-4598-a7dd-48874f550260))
    (instances
      (project "APT-KRIA-FMC"
        (path "/fa98ecbf-7e4d-41d2-9c93-0ad23d3b22ef/00000000-0000-0000-0000-000062fc7139"
          (reference "S2") (unit 1)
        )
        (path "/fa98ecbf-7e4d-41d2-9c93-0ad23d3b22ef/00000000-0000-0000-0000-000061aa736c"
          (reference "S?") (unit 1)
        )
      )
    )
  )

  (symbol (lib_id "power:GND") (at 29.21 55.88 0) (unit 1)
    (in_bom yes) (on_board yes) (dnp no)
    (uuid 00000000-0000-0000-0000-000063ceb49c)
    (property "Reference" "#PWR0309" (at 29.21 62.23 0)
      (effects (font (size 1.27 1.27)) hide)
    )
    (property "Value" "GND" (at 31.242 59.817 0)
      (effects (font (size 1.27 1.27)) (justify right))
    )
    (property "Footprint" "" (at 29.21 55.88 0)
      (effects (font (size 1.27 1.27)) hide)
    )
    (property "Datasheet" "" (at 29.21 55.88 0)
      (effects (font (size 1.27 1.27)) hide)
    )
    (pin "1" (uuid a6cb5e4e-9bb2-4d6d-84d1-81d575e85bb8))
    (instances
      (project "APT-KRIA-FMC"
        (path "/fa98ecbf-7e4d-41d2-9c93-0ad23d3b22ef/00000000-0000-0000-0000-000062fc7139"
          (reference "#PWR0309") (unit 1)
        )
        (path "/fa98ecbf-7e4d-41d2-9c93-0ad23d3b22ef/00000000-0000-0000-0000-000061aa736c"
          (reference "#PWR?") (unit 1)
        )
      )
    )
  )

  (symbol (lib_id "Device:C") (at 57.15 49.53 180) (unit 1)
    (in_bom yes) (on_board yes) (dnp no)
    (uuid 00000000-0000-0000-0000-000063cf7b69)
    (property "Reference" "C?" (at 61.214 48.006 0)
      (effects (font (size 1.27 1.27)))
    )
    (property "Value" "0.1uF" (at 62.738 49.657 0)
      (effects (font (size 1.27 1.27)))
    )
    (property "Footprint" "Capacitor_SMD:C_0402_1005Metric" (at 56.1848 45.72 0)
      (effects (font (size 1.27 1.27)) hide)
    )
    (property "Datasheet" "~" (at 57.15 49.53 0)
      (effects (font (size 1.27 1.27)) hide)
    )
    (property "PartNumber" "TMK105BJ104KVHF" (at 57.15 49.53 0)
      (effects (font (size 1.27 1.27)) hide)
    )
    (property "Tolerance" "+-10%" (at 57.15 49.53 0)
      (effects (font (size 1.27 1.27)) hide)
    )
    (property "Voltage" "25V" (at 61.849 51.562 0)
      (effects (font (size 1.27 1.27)))
    )
    (property "Temp_Val" "X5R" (at 57.15 49.53 0)
      (effects (font (size 1.27 1.27)) hide)
    )
    (property "URL" "https://www.digikey.com/en/products/detail/TMK105BJ104KVHF/587-3808-1-ND/4811278?itemSeq=375666509" (at 57.15 49.53 90)
      (effects (font (size 1.27 1.27)) hide)
    )
    (pin "1" (uuid 56ac476d-a95a-42ef-9abf-be22f6366832))
    (pin "2" (uuid 382d70e1-999f-4452-8fcf-b12ff0ece601))
    (instances
      (project "APT-KRIA-FMC"
        (path "/fa98ecbf-7e4d-41d2-9c93-0ad23d3b22ef/00000000-0000-0000-0000-00006314f1aa"
          (reference "C?") (unit 1)
        )
        (path "/fa98ecbf-7e4d-41d2-9c93-0ad23d3b22ef/00000000-0000-0000-0000-000062fc7139"
          (reference "C258") (unit 1)
        )
        (path "/fa98ecbf-7e4d-41d2-9c93-0ad23d3b22ef/00000000-0000-0000-0000-00006314cde6"
          (reference "C?") (unit 1)
        )
      )
    )
  )
)
