(kicad_sch (version 20230121) (generator eeschema)

  (uuid 438a574b-685f-441a-9e64-c479addf6358)

  (paper "A4")

  (title_block
    (title "Top Sheet")
    (date "2023-12-21")
    (rev "1.00")
    (company "ApotheoTech LLC")
    (comment 1 "SCH: APT-KRIA-FMC")
    (comment 2 "Author: Chance Reimer")
  )

  (lib_symbols
    (symbol "ApotheoTech:67800-5005" (pin_names (offset 0.762)) (in_bom yes) (on_board yes)
      (property "Reference" "J" (at 19.05 7.62 0)
        (effects (font (size 1.27 1.27)) (justify left))
      )
      (property "Value" "67800-5005" (at 19.05 5.08 0)
        (effects (font (size 1.27 1.27)) (justify left))
      )
      (property "Footprint" "ApotheoTech_CXP_Lib:678005005" (at 19.05 2.54 0)
        (effects (font (size 1.27 1.27)) (justify left) hide)
      )
      (property "Datasheet" "" (at 19.05 0 0)
        (effects (font (size 1.27 1.27)) (justify left) hide)
      )
      (property "Description" "Molex SATA 67800, 7 Way, 1 Row, Vertical PCB Header" (at 19.05 -2.54 0)
        (effects (font (size 1.27 1.27)) (justify left) hide)
      )
      (property "Height" "8.65" (at 19.05 -5.08 0)
        (effects (font (size 1.27 1.27)) (justify left) hide)
      )
      (property "Mouser Part Number" "538-67800-5005" (at 19.05 -7.62 0)
        (effects (font (size 1.27 1.27)) (justify left) hide)
      )
      (property "Mouser Price/Stock" "https://www.mouser.co.uk/ProductDetail/Molex/67800-5005?qs=D%252By4jQJzx8IM%252BvBTPN18XQ%3D%3D" (at 19.05 -10.16 0)
        (effects (font (size 1.27 1.27)) (justify left) hide)
      )
      (property "Manufacturer_Name" "Molex" (at 19.05 -12.7 0)
        (effects (font (size 1.27 1.27)) (justify left) hide)
      )
      (property "Manufacturer_Part_Number" "67800-5005" (at 19.05 -15.24 0)
        (effects (font (size 1.27 1.27)) (justify left) hide)
      )
      (symbol "67800-5005_0_0"
        (pin passive line (at 11.43 -1.27 180) (length 5.08)
          (name "1" (effects (font (size 1.27 1.27))))
          (number "1" (effects (font (size 1.27 1.27))))
        )
        (pin passive line (at -11.43 5.08 0) (length 5.08)
          (name "HTX_P" (effects (font (size 1.27 1.27))))
          (number "2" (effects (font (size 1.27 1.27))))
        )
        (pin passive line (at -11.43 2.54 0) (length 5.08)
          (name "HTX_N" (effects (font (size 1.27 1.27))))
          (number "3" (effects (font (size 1.27 1.27))))
        )
        (pin passive line (at 11.43 -3.81 180) (length 5.08)
          (name "4" (effects (font (size 1.27 1.27))))
          (number "4" (effects (font (size 1.27 1.27))))
        )
        (pin passive line (at -11.43 -3.175 0) (length 5.08)
          (name "HRX_N" (effects (font (size 1.27 1.27))))
          (number "5" (effects (font (size 1.27 1.27))))
        )
        (pin passive line (at -11.43 -5.715 0) (length 5.08)
          (name "HRX_P" (effects (font (size 1.27 1.27))))
          (number "6" (effects (font (size 1.27 1.27))))
        )
        (pin passive line (at 11.43 -6.35 180) (length 5.08)
          (name "7" (effects (font (size 1.27 1.27))))
          (number "7" (effects (font (size 1.27 1.27))))
        )
        (pin passive line (at 11.43 5.08 180) (length 5.08)
          (name "MH1" (effects (font (size 1.27 1.27))))
          (number "MH1" (effects (font (size 1.27 1.27))))
        )
        (pin passive line (at 11.43 2.54 180) (length 5.08)
          (name "MH2" (effects (font (size 1.27 1.27))))
          (number "MH2" (effects (font (size 1.27 1.27))))
        )
      )
      (symbol "67800-5005_0_1"
        (polyline
          (pts
            (xy -6.35 6.985)
            (xy 6.35 6.985)
            (xy 6.35 -8.255)
            (xy -6.35 -8.255)
            (xy -6.35 6.985)
          )
          (stroke (width 0.1524) (type solid))
          (fill (type none))
        )
      )
    )
    (symbol "Device:C" (pin_numbers hide) (pin_names (offset 0.254)) (in_bom yes) (on_board yes)
      (property "Reference" "C" (at 0.635 2.54 0)
        (effects (font (size 1.27 1.27)) (justify left))
      )
      (property "Value" "C" (at 0.635 -2.54 0)
        (effects (font (size 1.27 1.27)) (justify left))
      )
      (property "Footprint" "" (at 0.9652 -3.81 0)
        (effects (font (size 1.27 1.27)) hide)
      )
      (property "Datasheet" "~" (at 0 0 0)
        (effects (font (size 1.27 1.27)) hide)
      )
      (property "ki_keywords" "cap capacitor" (at 0 0 0)
        (effects (font (size 1.27 1.27)) hide)
      )
      (property "ki_description" "Unpolarized capacitor" (at 0 0 0)
        (effects (font (size 1.27 1.27)) hide)
      )
      (property "ki_fp_filters" "C_*" (at 0 0 0)
        (effects (font (size 1.27 1.27)) hide)
      )
      (symbol "C_0_1"
        (polyline
          (pts
            (xy -2.032 -0.762)
            (xy 2.032 -0.762)
          )
          (stroke (width 0.508) (type default))
          (fill (type none))
        )
        (polyline
          (pts
            (xy -2.032 0.762)
            (xy 2.032 0.762)
          )
          (stroke (width 0.508) (type default))
          (fill (type none))
        )
      )
      (symbol "C_1_1"
        (pin passive line (at 0 3.81 270) (length 2.794)
          (name "~" (effects (font (size 1.27 1.27))))
          (number "1" (effects (font (size 1.27 1.27))))
        )
        (pin passive line (at 0 -3.81 90) (length 2.794)
          (name "~" (effects (font (size 1.27 1.27))))
          (number "2" (effects (font (size 1.27 1.27))))
        )
      )
    )
    (symbol "power:GND" (power) (pin_names (offset 0)) (in_bom yes) (on_board yes)
      (property "Reference" "#PWR" (at 0 -6.35 0)
        (effects (font (size 1.27 1.27)) hide)
      )
      (property "Value" "GND" (at 0 -3.81 0)
        (effects (font (size 1.27 1.27)))
      )
      (property "Footprint" "" (at 0 0 0)
        (effects (font (size 1.27 1.27)) hide)
      )
      (property "Datasheet" "" (at 0 0 0)
        (effects (font (size 1.27 1.27)) hide)
      )
      (property "ki_keywords" "global power" (at 0 0 0)
        (effects (font (size 1.27 1.27)) hide)
      )
      (property "ki_description" "Power symbol creates a global label with name \"GND\" , ground" (at 0 0 0)
        (effects (font (size 1.27 1.27)) hide)
      )
      (symbol "GND_0_1"
        (polyline
          (pts
            (xy 0 0)
            (xy 0 -1.27)
            (xy 1.27 -1.27)
            (xy 0 -2.54)
            (xy -1.27 -1.27)
            (xy 0 -1.27)
          )
          (stroke (width 0) (type default))
          (fill (type none))
        )
      )
      (symbol "GND_1_1"
        (pin power_in line (at 0 0 270) (length 0) hide
          (name "GND" (effects (font (size 1.27 1.27))))
          (number "1" (effects (font (size 1.27 1.27))))
        )
      )
    )
  )

  (junction (at 160.02 76.835) (diameter 0) (color 0 0 0 0)
    (uuid 0a376488-4227-4760-a6b4-993b88fd50eb)
  )
  (junction (at 160.02 74.295) (diameter 0) (color 0 0 0 0)
    (uuid 629feb62-d0fb-4623-9d3a-20b156ecc380)
  )
  (junction (at 160.02 71.755) (diameter 0) (color 0 0 0 0)
    (uuid b8fa308d-b1c8-4daf-af1e-104aa151eb16)
  )
  (junction (at 160.02 67.945) (diameter 0) (color 0 0 0 0)
    (uuid e739d4b0-c812-47be-9d03-ee5ee8d7d4e5)
  )

  (wire (pts (xy 116.84 65.405) (xy 134.62 65.405))
    (stroke (width 0) (type default))
    (uuid 0ba7dc9d-0db0-4387-87cf-e48318ef8520)
  )
  (wire (pts (xy 93.98 73.66) (xy 109.22 73.66))
    (stroke (width 0) (type default))
    (uuid 2029567f-d5e8-45bb-9f90-aaad84c64eea)
  )
  (wire (pts (xy 160.02 65.405) (xy 160.02 67.945))
    (stroke (width 0) (type default))
    (uuid 20f5252b-083c-4720-b7df-82fb9d551b34)
  )
  (wire (pts (xy 116.84 73.66) (xy 134.62 73.66))
    (stroke (width 0) (type default))
    (uuid 28fade0b-ef30-4bca-8915-d25df28eeac9)
  )
  (wire (pts (xy 107.188 67.945) (xy 134.62 67.945))
    (stroke (width 0) (type default))
    (uuid 2c5ae586-ccc1-47a1-8267-ec8d4b0a737e)
  )
  (wire (pts (xy 107.188 76.2) (xy 134.62 76.2))
    (stroke (width 0) (type default))
    (uuid 32e499b9-245d-4c03-a0f6-60b3e463bf2a)
  )
  (wire (pts (xy 160.02 76.835) (xy 157.48 76.835))
    (stroke (width 0) (type default))
    (uuid 46a2460e-9c65-4366-b78b-10fb12224fa1)
  )
  (wire (pts (xy 160.02 76.835) (xy 160.02 86.36))
    (stroke (width 0) (type default))
    (uuid 48b56c61-7152-450e-9ab7-9254628619b0)
  )
  (wire (pts (xy 160.02 71.755) (xy 157.48 71.755))
    (stroke (width 0) (type default))
    (uuid 50140f5c-198b-4c0f-98af-f02cc6f66eaf)
  )
  (wire (pts (xy 99.568 76.2) (xy 93.98 76.2))
    (stroke (width 0) (type default))
    (uuid 5f3771c9-77c9-48e1-8983-08075bdeaa94)
  )
  (wire (pts (xy 93.98 65.405) (xy 109.22 65.405))
    (stroke (width 0) (type default))
    (uuid 5fd0f1ef-3494-44b6-9068-5c3dc815ae9f)
  )
  (wire (pts (xy 160.02 67.945) (xy 160.02 71.755))
    (stroke (width 0) (type default))
    (uuid 8bd54429-e704-44f4-9f3e-792e90782aeb)
  )
  (wire (pts (xy 99.568 67.945) (xy 93.98 67.945))
    (stroke (width 0) (type default))
    (uuid 9f952468-e9ed-482e-bd98-806fe553b178)
  )
  (wire (pts (xy 157.48 65.405) (xy 160.02 65.405))
    (stroke (width 0) (type default))
    (uuid bcc093cb-5bba-4554-a6f6-ff5cdabe4d6c)
  )
  (wire (pts (xy 160.02 67.945) (xy 157.48 67.945))
    (stroke (width 0) (type default))
    (uuid c0723e4c-fef4-4c83-99ab-9bf8a5815260)
  )
  (wire (pts (xy 160.02 71.755) (xy 160.02 74.295))
    (stroke (width 0) (type default))
    (uuid c7a8338a-8df6-4399-9aff-1145134b22c0)
  )
  (wire (pts (xy 160.02 74.295) (xy 160.02 76.835))
    (stroke (width 0) (type default))
    (uuid d020672a-5dc6-4a96-9183-f15976093ea2)
  )
  (wire (pts (xy 160.02 74.295) (xy 157.48 74.295))
    (stroke (width 0) (type default))
    (uuid f380e064-9b88-4c4b-a14f-962b2082943c)
  )

  (text "SATA" (at 24.765 25.273 0)
    (effects (font (size 5.9944 5.9944) (thickness 1.1989) bold) (justify left bottom))
    (uuid 46111be2-69e5-4374-9b68-100d82fd5da7)
  )

  (label "SATA1_C_TX_N" (at 120.65 67.945 0) (fields_autoplaced)
    (effects (font (size 1.27 1.27)) (justify left bottom))
    (uuid 25c751d6-ec7b-488c-a977-78aa019cf866)
  )
  (label "SATA1_C_TX_P" (at 120.65 65.405 0) (fields_autoplaced)
    (effects (font (size 1.27 1.27)) (justify left bottom))
    (uuid 79a71763-e940-4387-b504-1e38a5013dbb)
  )
  (label "SATA1_C_RX_N" (at 120.65 73.66 0) (fields_autoplaced)
    (effects (font (size 1.27 1.27)) (justify left bottom))
    (uuid 8ea0f9ab-3ebd-4a9f-aac0-51d4310820bc)
  )
  (label "SATA1_C_RX_P" (at 120.65 76.2 0) (fields_autoplaced)
    (effects (font (size 1.27 1.27)) (justify left bottom))
    (uuid f98ebfce-6027-4e30-becd-741962fd89aa)
  )

  (hierarchical_label "GTR3_M2C_SATA1_TX_N" (shape input) (at 93.98 67.945 180) (fields_autoplaced)
    (effects (font (size 1.27 1.27)) (justify right))
    (uuid 5e4bab06-a858-4e73-8cfb-441959def266)
  )
  (hierarchical_label "GTR3_C2M_SATA1_RX_P" (shape output) (at 93.98 76.2 180) (fields_autoplaced)
    (effects (font (size 1.27 1.27)) (justify right))
    (uuid 825309ac-a21f-49d5-85f4-14a5c8b5be85)
  )
  (hierarchical_label "GTR3_M2C_SATA1_TX_P" (shape input) (at 93.98 65.405 180) (fields_autoplaced)
    (effects (font (size 1.27 1.27)) (justify right))
    (uuid f75b4134-8700-49b3-b395-ea0977dd60f1)
  )
  (hierarchical_label "GTR3_C2M_SATA1_RX_N" (shape output) (at 93.98 73.66 180) (fields_autoplaced)
    (effects (font (size 1.27 1.27)) (justify right))
    (uuid f80fe80a-5fbc-4874-9c44-6a5b2267b144)
  )

  (symbol (lib_id "Device:C") (at 113.03 65.405 90) (unit 1)
    (in_bom yes) (on_board yes) (dnp no)
    (uuid 00000000-0000-0000-0000-000061bfe7db)
    (property "Reference" "C88" (at 109.474 64.135 90)
      (effects (font (size 1.27 1.27)))
    )
    (property "Value" "0.1uF" (at 117.094 64.389 90)
      (effects (font (size 1.27 1.27)))
    )
    (property "Footprint" "Capacitor_SMD:C_0402_1005Metric" (at 116.84 64.4398 0)
      (effects (font (size 1.27 1.27)) hide)
    )
    (property "Datasheet" "~" (at 113.03 65.405 0)
      (effects (font (size 1.27 1.27)) hide)
    )
    (property "PartNumber" "TMK105BJ104KVHF" (at 113.03 65.405 0)
      (effects (font (size 1.27 1.27)) hide)
    )
    (property "Tolerance" "+-10%" (at 113.03 65.405 0)
      (effects (font (size 1.27 1.27)) hide)
    )
    (property "Voltage" "25V" (at 116.586 66.675 90)
      (effects (font (size 1.27 1.27)))
    )
    (property "Temp_Val" "X5R" (at 113.03 65.405 0)
      (effects (font (size 1.27 1.27)) hide)
    )
    (property "URL" "https://www.digikey.com/en/products/detail/TMK105BJ104KVHF/587-3808-1-ND/4811278?itemSeq=375666509" (at 113.03 65.405 90)
      (effects (font (size 1.27 1.27)) hide)
    )
    (pin "1" (uuid e0c7a4e3-0600-40cc-9b4b-46ea115715e5))
    (pin "2" (uuid ef4b34ae-fc3f-4ecd-9cb2-5823d2a515f8))
    (instances
      (project "APT-KRIA-FMC"
        (path "/fa98ecbf-7e4d-41d2-9c93-0ad23d3b22ef/00000000-0000-0000-0000-00006314f410"
          (reference "C88") (unit 1)
        )
        (path "/fa98ecbf-7e4d-41d2-9c93-0ad23d3b22ef/00000000-0000-0000-0000-00006314cde6"
          (reference "C?") (unit 1)
        )
      )
    )
  )

  (symbol (lib_id "Device:C") (at 103.378 67.945 90) (unit 1)
    (in_bom yes) (on_board yes) (dnp no)
    (uuid 00000000-0000-0000-0000-000061bff2c4)
    (property "Reference" "C86" (at 99.822 66.675 90)
      (effects (font (size 1.27 1.27)))
    )
    (property "Value" "0.1uF" (at 107.442 66.929 90)
      (effects (font (size 1.27 1.27)))
    )
    (property "Footprint" "Capacitor_SMD:C_0402_1005Metric" (at 107.188 66.9798 0)
      (effects (font (size 1.27 1.27)) hide)
    )
    (property "Datasheet" "~" (at 103.378 67.945 0)
      (effects (font (size 1.27 1.27)) hide)
    )
    (property "PartNumber" "TMK105BJ104KVHF" (at 103.378 67.945 0)
      (effects (font (size 1.27 1.27)) hide)
    )
    (property "Tolerance" "+-10%" (at 103.378 67.945 0)
      (effects (font (size 1.27 1.27)) hide)
    )
    (property "Voltage" "25V" (at 106.934 69.215 90)
      (effects (font (size 1.27 1.27)))
    )
    (property "Temp_Val" "X5R" (at 103.378 67.945 0)
      (effects (font (size 1.27 1.27)) hide)
    )
    (property "URL" "https://www.digikey.com/en/products/detail/TMK105BJ104KVHF/587-3808-1-ND/4811278?itemSeq=375666509" (at 103.378 67.945 90)
      (effects (font (size 1.27 1.27)) hide)
    )
    (pin "1" (uuid 180ceb12-24a2-48c7-a365-62780984ea63))
    (pin "2" (uuid fdf2e90e-fe71-46b9-9519-6154821f6477))
    (instances
      (project "APT-KRIA-FMC"
        (path "/fa98ecbf-7e4d-41d2-9c93-0ad23d3b22ef/00000000-0000-0000-0000-00006314f410"
          (reference "C86") (unit 1)
        )
        (path "/fa98ecbf-7e4d-41d2-9c93-0ad23d3b22ef/00000000-0000-0000-0000-00006314cde6"
          (reference "C?") (unit 1)
        )
      )
    )
  )

  (symbol (lib_id "Device:C") (at 113.03 73.66 90) (unit 1)
    (in_bom yes) (on_board yes) (dnp no)
    (uuid 00000000-0000-0000-0000-000061bffa4b)
    (property "Reference" "C89" (at 109.474 72.39 90)
      (effects (font (size 1.27 1.27)))
    )
    (property "Value" "0.1uF" (at 117.094 72.644 90)
      (effects (font (size 1.27 1.27)))
    )
    (property "Footprint" "Capacitor_SMD:C_0402_1005Metric" (at 116.84 72.6948 0)
      (effects (font (size 1.27 1.27)) hide)
    )
    (property "Datasheet" "~" (at 113.03 73.66 0)
      (effects (font (size 1.27 1.27)) hide)
    )
    (property "PartNumber" "TMK105BJ104KVHF" (at 113.03 73.66 0)
      (effects (font (size 1.27 1.27)) hide)
    )
    (property "Tolerance" "+-10%" (at 113.03 73.66 0)
      (effects (font (size 1.27 1.27)) hide)
    )
    (property "Voltage" "25V" (at 116.586 74.93 90)
      (effects (font (size 1.27 1.27)))
    )
    (property "Temp_Val" "X5R" (at 113.03 73.66 0)
      (effects (font (size 1.27 1.27)) hide)
    )
    (property "URL" "https://www.digikey.com/en/products/detail/TMK105BJ104KVHF/587-3808-1-ND/4811278?itemSeq=375666509" (at 113.03 73.66 90)
      (effects (font (size 1.27 1.27)) hide)
    )
    (pin "1" (uuid 7e325b2c-4629-4307-9fde-b1648dc05966))
    (pin "2" (uuid da3d4c07-5479-4539-b887-468b090555d6))
    (instances
      (project "APT-KRIA-FMC"
        (path "/fa98ecbf-7e4d-41d2-9c93-0ad23d3b22ef/00000000-0000-0000-0000-00006314f410"
          (reference "C89") (unit 1)
        )
        (path "/fa98ecbf-7e4d-41d2-9c93-0ad23d3b22ef/00000000-0000-0000-0000-00006314cde6"
          (reference "C?") (unit 1)
        )
      )
    )
  )

  (symbol (lib_id "Device:C") (at 103.378 76.2 90) (unit 1)
    (in_bom yes) (on_board yes) (dnp no)
    (uuid 00000000-0000-0000-0000-000061c008a4)
    (property "Reference" "C87" (at 99.822 74.93 90)
      (effects (font (size 1.27 1.27)))
    )
    (property "Value" "0.1uF" (at 107.442 75.184 90)
      (effects (font (size 1.27 1.27)))
    )
    (property "Footprint" "Capacitor_SMD:C_0402_1005Metric" (at 107.188 75.2348 0)
      (effects (font (size 1.27 1.27)) hide)
    )
    (property "Datasheet" "~" (at 103.378 76.2 0)
      (effects (font (size 1.27 1.27)) hide)
    )
    (property "PartNumber" "TMK105BJ104KVHF" (at 103.378 76.2 0)
      (effects (font (size 1.27 1.27)) hide)
    )
    (property "Tolerance" "+-10%" (at 103.378 76.2 0)
      (effects (font (size 1.27 1.27)) hide)
    )
    (property "Voltage" "25V" (at 106.934 77.47 90)
      (effects (font (size 1.27 1.27)))
    )
    (property "Temp_Val" "X5R" (at 103.378 76.2 0)
      (effects (font (size 1.27 1.27)) hide)
    )
    (property "URL" "https://www.digikey.com/en/products/detail/TMK105BJ104KVHF/587-3808-1-ND/4811278?itemSeq=375666509" (at 103.378 76.2 90)
      (effects (font (size 1.27 1.27)) hide)
    )
    (pin "1" (uuid cf5eb3c1-4184-4816-b4ce-4ed0512a33ef))
    (pin "2" (uuid c1fb035f-9600-4430-8f5f-008bd48f98a6))
    (instances
      (project "APT-KRIA-FMC"
        (path "/fa98ecbf-7e4d-41d2-9c93-0ad23d3b22ef/00000000-0000-0000-0000-00006314f410"
          (reference "C87") (unit 1)
        )
        (path "/fa98ecbf-7e4d-41d2-9c93-0ad23d3b22ef/00000000-0000-0000-0000-00006314cde6"
          (reference "C?") (unit 1)
        )
      )
    )
  )

  (symbol (lib_id "ApotheoTech:67800-5005") (at 146.05 70.485 0) (unit 1)
    (in_bom yes) (on_board yes) (dnp no)
    (uuid 00000000-0000-0000-0000-0000630d70be)
    (property "Reference" "J7" (at 146.05 59.309 0)
      (effects (font (size 1.27 1.27)))
    )
    (property "Value" "67800-5005" (at 146.05 61.6204 0)
      (effects (font (size 1.27 1.27)))
    )
    (property "Footprint" "ApotheoTech_CXP_Lib:678005005" (at 165.1 67.945 0)
      (effects (font (size 1.27 1.27)) (justify left) hide)
    )
    (property "Datasheet" "" (at 165.1 70.485 0)
      (effects (font (size 1.27 1.27)) (justify left) hide)
    )
    (property "Description" "Molex SATA 67800, 7 Way, 1 Row, Vertical PCB Header" (at 165.1 73.025 0)
      (effects (font (size 1.27 1.27)) (justify left) hide)
    )
    (property "Height" "8.65" (at 165.1 75.565 0)
      (effects (font (size 1.27 1.27)) (justify left) hide)
    )
    (property "Mouser Part Number" "538-67800-5005" (at 165.1 78.105 0)
      (effects (font (size 1.27 1.27)) (justify left) hide)
    )
    (property "Mouser Price/Stock" "https://www.mouser.co.uk/ProductDetail/Molex/67800-5005?qs=D%252By4jQJzx8IM%252BvBTPN18XQ%3D%3D" (at 165.1 80.645 0)
      (effects (font (size 1.27 1.27)) (justify left) hide)
    )
    (property "Manufacturer_Name" "Molex" (at 165.1 83.185 0)
      (effects (font (size 1.27 1.27)) (justify left) hide)
    )
    (property "Manufacturer_Part_Number" "67800-5005" (at 165.1 85.725 0)
      (effects (font (size 1.27 1.27)) (justify left) hide)
    )
    (pin "1" (uuid 2bbb3c87-311b-4119-9643-fc6746a5682f))
    (pin "2" (uuid 26389738-9e20-43de-9c14-d419daa25870))
    (pin "3" (uuid d398b511-b9de-4b9a-90f4-22afb5087acc))
    (pin "4" (uuid 2cc40bfd-b1b7-4cce-9456-af8483c7d177))
    (pin "5" (uuid 96b598fe-1d31-4d88-b917-7e86d752ac6f))
    (pin "6" (uuid b740f1e7-0fcc-43d8-af26-93852b8c0314))
    (pin "7" (uuid 244818cc-5687-4dbb-a0a5-e0d0b18c2a72))
    (pin "MH1" (uuid 5d8b3e29-afb3-451d-8a68-954838de125a))
    (pin "MH2" (uuid 7a93d1b4-8455-4eae-9f4b-5b5e6efc0cba))
    (instances
      (project "APT-KRIA-FMC"
        (path "/fa98ecbf-7e4d-41d2-9c93-0ad23d3b22ef/00000000-0000-0000-0000-00006314f410"
          (reference "J7") (unit 1)
        )
      )
    )
  )

  (symbol (lib_id "power:GND") (at 160.02 86.36 0) (unit 1)
    (in_bom yes) (on_board yes) (dnp no)
    (uuid 00000000-0000-0000-0000-0000630db69c)
    (property "Reference" "#PWR0105" (at 160.02 92.71 0)
      (effects (font (size 1.27 1.27)) hide)
    )
    (property "Value" "GND" (at 160.147 90.7542 0)
      (effects (font (size 1.27 1.27)))
    )
    (property "Footprint" "" (at 160.02 86.36 0)
      (effects (font (size 1.27 1.27)) hide)
    )
    (property "Datasheet" "" (at 160.02 86.36 0)
      (effects (font (size 1.27 1.27)) hide)
    )
    (pin "1" (uuid ccdd5d47-b359-49b2-80b6-e97ccd8cf5fb))
    (instances
      (project "APT-KRIA-FMC"
        (path "/fa98ecbf-7e4d-41d2-9c93-0ad23d3b22ef/00000000-0000-0000-0000-00006314f410"
          (reference "#PWR0105") (unit 1)
        )
      )
    )
  )
)
