(kicad_sch (version 20230121) (generator eeschema)

  (uuid 1d5d7e4b-bee5-4c53-8ff0-d7940aab5959)

  (paper "User" 140.005 148.006)

  (title_block
    (title "Integrated TMC2208 Driver Block")
    (company "Meridi Engineering")
  )

  (lib_symbols
    (symbol "Device:C_Small" (pin_numbers hide) (pin_names (offset 0.254) hide) (in_bom yes) (on_board yes)
      (property "Reference" "C" (at 0.254 1.778 0)
        (effects (font (size 1.27 1.27)) (justify left))
      )
      (property "Value" "C_Small" (at 0.254 -2.032 0)
        (effects (font (size 1.27 1.27)) (justify left))
      )
      (property "Footprint" "" (at 0 0 0)
        (effects (font (size 1.27 1.27)) hide)
      )
      (property "Datasheet" "~" (at 0 0 0)
        (effects (font (size 1.27 1.27)) hide)
      )
      (property "ki_keywords" "capacitor cap" (at 0 0 0)
        (effects (font (size 1.27 1.27)) hide)
      )
      (property "ki_description" "Unpolarized capacitor, small symbol" (at 0 0 0)
        (effects (font (size 1.27 1.27)) hide)
      )
      (property "ki_fp_filters" "C_*" (at 0 0 0)
        (effects (font (size 1.27 1.27)) hide)
      )
      (symbol "C_Small_0_1"
        (polyline
          (pts
            (xy -1.524 -0.508)
            (xy 1.524 -0.508)
          )
          (stroke (width 0.3302) (type default))
          (fill (type none))
        )
        (polyline
          (pts
            (xy -1.524 0.508)
            (xy 1.524 0.508)
          )
          (stroke (width 0.3048) (type default))
          (fill (type none))
        )
      )
      (symbol "C_Small_1_1"
        (pin passive line (at 0 2.54 270) (length 2.032)
          (name "~" (effects (font (size 1.27 1.27))))
          (number "1" (effects (font (size 1.27 1.27))))
        )
        (pin passive line (at 0 -2.54 90) (length 2.032)
          (name "~" (effects (font (size 1.27 1.27))))
          (number "2" (effects (font (size 1.27 1.27))))
        )
      )
    )
    (symbol "Device:LED_Small" (pin_numbers hide) (pin_names (offset 0.254) hide) (in_bom yes) (on_board yes)
      (property "Reference" "D" (at -1.27 3.175 0)
        (effects (font (size 1.27 1.27)) (justify left))
      )
      (property "Value" "LED_Small" (at -4.445 -2.54 0)
        (effects (font (size 1.27 1.27)) (justify left))
      )
      (property "Footprint" "" (at 0 0 90)
        (effects (font (size 1.27 1.27)) hide)
      )
      (property "Datasheet" "~" (at 0 0 90)
        (effects (font (size 1.27 1.27)) hide)
      )
      (property "ki_keywords" "LED diode light-emitting-diode" (at 0 0 0)
        (effects (font (size 1.27 1.27)) hide)
      )
      (property "ki_description" "Light emitting diode, small symbol" (at 0 0 0)
        (effects (font (size 1.27 1.27)) hide)
      )
      (property "ki_fp_filters" "LED* LED_SMD:* LED_THT:*" (at 0 0 0)
        (effects (font (size 1.27 1.27)) hide)
      )
      (symbol "LED_Small_0_1"
        (polyline
          (pts
            (xy -0.762 -1.016)
            (xy -0.762 1.016)
          )
          (stroke (width 0.254) (type default))
          (fill (type none))
        )
        (polyline
          (pts
            (xy 1.016 0)
            (xy -0.762 0)
          )
          (stroke (width 0) (type default))
          (fill (type none))
        )
        (polyline
          (pts
            (xy 0.762 -1.016)
            (xy -0.762 0)
            (xy 0.762 1.016)
            (xy 0.762 -1.016)
          )
          (stroke (width 0.254) (type default))
          (fill (type none))
        )
        (polyline
          (pts
            (xy 0 0.762)
            (xy -0.508 1.27)
            (xy -0.254 1.27)
            (xy -0.508 1.27)
            (xy -0.508 1.016)
          )
          (stroke (width 0) (type default))
          (fill (type none))
        )
        (polyline
          (pts
            (xy 0.508 1.27)
            (xy 0 1.778)
            (xy 0.254 1.778)
            (xy 0 1.778)
            (xy 0 1.524)
          )
          (stroke (width 0) (type default))
          (fill (type none))
        )
      )
      (symbol "LED_Small_1_1"
        (pin passive line (at -2.54 0 0) (length 1.778)
          (name "K" (effects (font (size 1.27 1.27))))
          (number "1" (effects (font (size 1.27 1.27))))
        )
        (pin passive line (at 2.54 0 180) (length 1.778)
          (name "A" (effects (font (size 1.27 1.27))))
          (number "2" (effects (font (size 1.27 1.27))))
        )
      )
    )
    (symbol "Device:R_Small" (pin_numbers hide) (pin_names (offset 0.254) hide) (in_bom yes) (on_board yes)
      (property "Reference" "R" (at 0.762 0.508 0)
        (effects (font (size 1.27 1.27)) (justify left))
      )
      (property "Value" "R_Small" (at 0.762 -1.016 0)
        (effects (font (size 1.27 1.27)) (justify left))
      )
      (property "Footprint" "" (at 0 0 0)
        (effects (font (size 1.27 1.27)) hide)
      )
      (property "Datasheet" "~" (at 0 0 0)
        (effects (font (size 1.27 1.27)) hide)
      )
      (property "ki_keywords" "R resistor" (at 0 0 0)
        (effects (font (size 1.27 1.27)) hide)
      )
      (property "ki_description" "Resistor, small symbol" (at 0 0 0)
        (effects (font (size 1.27 1.27)) hide)
      )
      (property "ki_fp_filters" "R_*" (at 0 0 0)
        (effects (font (size 1.27 1.27)) hide)
      )
      (symbol "R_Small_0_1"
        (rectangle (start -0.762 1.778) (end 0.762 -1.778)
          (stroke (width 0.2032) (type default))
          (fill (type none))
        )
      )
      (symbol "R_Small_1_1"
        (pin passive line (at 0 2.54 270) (length 0.762)
          (name "~" (effects (font (size 1.27 1.27))))
          (number "1" (effects (font (size 1.27 1.27))))
        )
        (pin passive line (at 0 -2.54 90) (length 0.762)
          (name "~" (effects (font (size 1.27 1.27))))
          (number "2" (effects (font (size 1.27 1.27))))
        )
      )
    )
    (symbol "Motor:Stepper_Motor_bipolar" (pin_names (offset 0) hide) (in_bom yes) (on_board yes)
      (property "Reference" "M" (at 3.81 2.54 0)
        (effects (font (size 1.27 1.27)) (justify left))
      )
      (property "Value" "Stepper_Motor_bipolar" (at 3.81 1.27 0)
        (effects (font (size 1.27 1.27)) (justify left top))
      )
      (property "Footprint" "" (at 0.254 -0.254 0)
        (effects (font (size 1.27 1.27)) hide)
      )
      (property "Datasheet" "http://www.infineon.com/dgdl/Application-Note-TLE8110EE_driving_UniPolarStepperMotor_V1.1.pdf?fileId=db3a30431be39b97011be5d0aa0a00b0" (at 0.254 -0.254 0)
        (effects (font (size 1.27 1.27)) hide)
      )
      (property "ki_keywords" "bipolar stepper motor" (at 0 0 0)
        (effects (font (size 1.27 1.27)) hide)
      )
      (property "ki_description" "4-wire bipolar stepper motor" (at 0 0 0)
        (effects (font (size 1.27 1.27)) hide)
      )
      (property "ki_fp_filters" "PinHeader*P2.54mm*Vertical* TerminalBlock* Motor*" (at 0 0 0)
        (effects (font (size 1.27 1.27)) hide)
      )
      (symbol "Stepper_Motor_bipolar_0_0"
        (polyline
          (pts
            (xy -1.27 -1.778)
            (xy -1.27 2.032)
            (xy 0 -0.508)
            (xy 1.27 2.032)
            (xy 1.27 -1.778)
          )
          (stroke (width 0) (type default))
          (fill (type none))
        )
      )
      (symbol "Stepper_Motor_bipolar_0_1"
        (arc (start -4.445 -2.54) (mid -3.8127 -1.905) (end -4.445 -1.27)
          (stroke (width 0) (type default))
          (fill (type none))
        )
        (arc (start -4.445 -1.27) (mid -3.8127 -0.635) (end -4.445 0)
          (stroke (width 0) (type default))
          (fill (type none))
        )
        (arc (start -4.445 0) (mid -3.8127 0.635) (end -4.445 1.27)
          (stroke (width 0) (type default))
          (fill (type none))
        )
        (arc (start -4.445 1.27) (mid -3.8127 1.905) (end -4.445 2.54)
          (stroke (width 0) (type default))
          (fill (type none))
        )
        (arc (start -2.54 4.445) (mid -1.905 3.8127) (end -1.27 4.445)
          (stroke (width 0) (type default))
          (fill (type none))
        )
        (arc (start -1.27 4.445) (mid -0.635 3.8127) (end 0 4.445)
          (stroke (width 0) (type default))
          (fill (type none))
        )
        (polyline
          (pts
            (xy -5.08 -2.54)
            (xy -4.445 -2.54)
          )
          (stroke (width 0) (type default))
          (fill (type none))
        )
        (polyline
          (pts
            (xy -5.08 2.54)
            (xy -4.445 2.54)
          )
          (stroke (width 0) (type default))
          (fill (type none))
        )
        (polyline
          (pts
            (xy -2.54 5.08)
            (xy -2.54 4.445)
          )
          (stroke (width 0) (type default))
          (fill (type none))
        )
        (polyline
          (pts
            (xy 2.54 5.08)
            (xy 2.54 4.445)
          )
          (stroke (width 0) (type default))
          (fill (type none))
        )
        (circle (center 0 0) (radius 3.2512)
          (stroke (width 0.254) (type default))
          (fill (type none))
        )
        (arc (start 0 4.445) (mid 0.635 3.8127) (end 1.27 4.445)
          (stroke (width 0) (type default))
          (fill (type none))
        )
        (arc (start 1.27 4.445) (mid 1.905 3.8127) (end 2.54 4.445)
          (stroke (width 0) (type default))
          (fill (type none))
        )
      )
      (symbol "Stepper_Motor_bipolar_1_1"
        (pin passive line (at -2.54 7.62 270) (length 2.54)
          (name "~" (effects (font (size 1.27 1.27))))
          (number "1" (effects (font (size 1.27 1.27))))
        )
        (pin passive line (at 2.54 7.62 270) (length 2.54)
          (name "-" (effects (font (size 1.27 1.27))))
          (number "2" (effects (font (size 1.27 1.27))))
        )
        (pin passive line (at -7.62 2.54 0) (length 2.54)
          (name "~" (effects (font (size 1.27 1.27))))
          (number "3" (effects (font (size 1.27 1.27))))
        )
        (pin passive line (at -7.62 -2.54 0) (length 2.54)
          (name "~" (effects (font (size 1.27 1.27))))
          (number "4" (effects (font (size 1.27 1.27))))
        )
      )
    )
    (symbol "corevus:TMC2208-LA" (in_bom yes) (on_board yes)
      (property "Reference" "U" (at -10.16 25.4 0)
        (effects (font (size 1.27 1.27)) (justify left))
      )
      (property "Value" "TMC2208-LA" (at 10.16 25.4 0)
        (effects (font (size 1.27 1.27)) (justify right))
      )
      (property "Footprint" "Package_DFN_QFN:TQFN-28-1EP_5x5mm_P0.5mm_EP3.25x3.25mm_ThermalVias" (at -1.27 -26.67 0)
        (effects (font (size 1.27 1.27)) hide)
      )
      (property "Datasheet" "https://trinamic.com/fileadmin/assets/Products/ICs_Documents/TMC220x_TMC2224_datasheet_Rev1.09.pdf" (at -1.27 -29.21 0)
        (effects (font (size 1.27 1.27)) hide)
      )
      (property "ki_keywords" "stepper motor driver" (at 0 0 0)
        (effects (font (size 1.27 1.27)) hide)
      )
      (property "ki_description" "Driver for two-phase bipolar stepper motor, 2.0A, SPI, 4.75-46V, QFN-36" (at 0 0 0)
        (effects (font (size 1.27 1.27)) hide)
      )
      (property "ki_fp_filters" "QFN*1EP*5x6mm*P0.5mm*" (at 0 0 0)
        (effects (font (size 1.27 1.27)) hide)
      )
      (symbol "TMC2208-LA_0_0"
        (pin power_out line (at 12.7 6.35 180) (length 2.54)
          (name "OB2" (effects (font (size 1.27 1.27))))
          (number "1" (effects (font (size 1.27 1.27))))
        )
        (pin input line (at -12.7 8.89 0) (length 2.54)
          (name "MS2" (effects (font (size 1.27 1.27))))
          (number "10" (effects (font (size 1.27 1.27))))
        )
        (pin output line (at -12.7 -13.97 0) (length 2.54)
          (name "Diag" (effects (font (size 1.27 1.27))))
          (number "11" (effects (font (size 1.27 1.27))))
        )
        (pin output line (at -12.7 -16.51 0) (length 2.54)
          (name "Index" (effects (font (size 1.27 1.27))))
          (number "12" (effects (font (size 1.27 1.27))))
        )
        (pin input line (at -12.7 16.51 0) (length 2.54)
          (name "Clk" (effects (font (size 1.27 1.27))))
          (number "13" (effects (font (size 1.27 1.27))))
        )
        (pin input line (at -12.7 21.59 0) (length 2.54)
          (name "Vcc_IO" (effects (font (size 1.27 1.27))))
          (number "15" (effects (font (size 1.27 1.27))))
        )
        (pin input line (at -12.7 -6.35 0) (length 2.54)
          (name "Step" (effects (font (size 1.27 1.27))))
          (number "16" (effects (font (size 1.27 1.27))))
        )
        (pin input line (at -12.7 6.35 0) (length 2.54)
          (name "VRef" (effects (font (size 1.27 1.27))))
          (number "17" (effects (font (size 1.27 1.27))))
        )
        (pin input line (at -12.7 -8.89 0) (length 2.54)
          (name "Dir" (effects (font (size 1.27 1.27))))
          (number "19" (effects (font (size 1.27 1.27))))
        )
        (pin passive line (at 12.7 -16.51 180) (length 2.54)
          (name "NC" (effects (font (size 1.27 1.27))))
          (number "20" (effects (font (size 1.27 1.27))))
        )
        (pin power_in line (at 12.7 -1.27 180) (length 2.54)
          (name "OA2" (effects (font (size 1.27 1.27))))
          (number "21" (effects (font (size 1.27 1.27))))
        )
        (pin power_in line (at 12.7 21.59 180) (length 2.54)
          (name "VS" (effects (font (size 1.27 1.27))))
          (number "22" (effects (font (size 1.27 1.27))))
        )
        (pin power_in line (at 12.7 -6.35 180) (length 2.54)
          (name "BRA" (effects (font (size 1.27 1.27))))
          (number "23" (effects (font (size 1.27 1.27))))
        )
        (pin power_in line (at 12.7 1.27 180) (length 2.54)
          (name "OA1" (effects (font (size 1.27 1.27))))
          (number "24" (effects (font (size 1.27 1.27))))
        )
        (pin power_in line (at 12.7 3.81 180) (length 2.54)
          (name "OB1" (effects (font (size 1.27 1.27))))
          (number "26" (effects (font (size 1.27 1.27))))
        )
        (pin power_in line (at 12.7 -8.89 180) (length 2.54)
          (name "BRB" (effects (font (size 1.27 1.27))))
          (number "27" (effects (font (size 1.27 1.27))))
        )
        (pin power_in line (at 12.7 -21.59 180) (length 2.54)
          (name "Gnd" (effects (font (size 1.27 1.27))))
          (number "3" (effects (font (size 1.27 1.27))))
        )
        (pin power_out line (at 12.7 11.43 180) (length 2.54)
          (name "CPO" (effects (font (size 1.27 1.27))))
          (number "4" (effects (font (size 1.27 1.27))))
        )
        (pin power_in line (at 12.7 13.97 180) (length 2.54)
          (name "CPI" (effects (font (size 1.27 1.27))))
          (number "5" (effects (font (size 1.27 1.27))))
        )
        (pin power_in line (at 12.7 16.51 180) (length 2.54)
          (name "VCP" (effects (font (size 1.27 1.27))))
          (number "6" (effects (font (size 1.27 1.27))))
        )
        (pin passive line (at 12.7 -13.97 180) (length 2.54)
          (name "NC" (effects (font (size 1.27 1.27))))
          (number "7" (effects (font (size 1.27 1.27))))
        )
        (pin power_out line (at -12.7 -21.59 0) (length 2.54)
          (name "5VOut" (effects (font (size 1.27 1.27))))
          (number "8" (effects (font (size 1.27 1.27))))
        )
        (pin input line (at -12.7 11.43 0) (length 2.54)
          (name "MS1" (effects (font (size 1.27 1.27))))
          (number "9" (effects (font (size 1.27 1.27))))
        )
      )
      (symbol "TMC2208-LA_0_1"
        (rectangle (start -10.16 24.13) (end 10.16 -24.13)
          (stroke (width 0.254) (type default))
          (fill (type background))
        )
      )
      (symbol "TMC2208-LA_1_0"
        (pin bidirectional line (at -12.7 1.27 0) (length 2.54)
          (name "PDN/UART" (effects (font (size 1.27 1.27))))
          (number "14" (effects (font (size 1.27 1.27))))
        )
        (pin power_in line (at 12.7 -21.59 180) (length 2.54) hide
          (name "Gnd" (effects (font (size 1.27 1.27))))
          (number "18" (effects (font (size 1.27 1.27))))
        )
        (pin input line (at -12.7 -3.81 0) (length 2.54)
          (name "~{En}" (effects (font (size 1.27 1.27))))
          (number "2" (effects (font (size 1.27 1.27))))
        )
        (pin passive line (at 12.7 -19.05 180) (length 2.54)
          (name "NC" (effects (font (size 1.27 1.27))))
          (number "25" (effects (font (size 1.27 1.27))))
        )
        (pin unspecified line (at 12.7 21.59 180) (length 2.54) hide
          (name "VS" (effects (font (size 1.27 1.27))))
          (number "28" (effects (font (size 1.27 1.27))))
        )
        (pin unspecified line (at 12.7 -21.59 180) (length 2.54) hide
          (name "Pad" (effects (font (size 1.27 1.27))))
          (number "29" (effects (font (size 1.27 1.27))))
        )
      )
    )
    (symbol "power:GND" (power) (pin_names (offset 0)) (in_bom yes) (on_board yes)
      (property "Reference" "#PWR" (at 0 -6.35 0)
        (effects (font (size 1.27 1.27)) hide)
      )
      (property "Value" "GND" (at 0 -3.81 0)
        (effects (font (size 1.27 1.27)))
      )
      (property "Footprint" "" (at 0 0 0)
        (effects (font (size 1.27 1.27)) hide)
      )
      (property "Datasheet" "" (at 0 0 0)
        (effects (font (size 1.27 1.27)) hide)
      )
      (property "ki_keywords" "power-flag" (at 0 0 0)
        (effects (font (size 1.27 1.27)) hide)
      )
      (property "ki_description" "Power symbol creates a global label with name \"GND\" , ground" (at 0 0 0)
        (effects (font (size 1.27 1.27)) hide)
      )
      (symbol "GND_0_1"
        (polyline
          (pts
            (xy 0 0)
            (xy 0 -1.27)
            (xy 1.27 -1.27)
            (xy 0 -2.54)
            (xy -1.27 -1.27)
            (xy 0 -1.27)
          )
          (stroke (width 0) (type default))
          (fill (type none))
        )
      )
      (symbol "GND_1_1"
        (pin power_in line (at 0 0 270) (length 0) hide
          (name "GND" (effects (font (size 1.27 1.27))))
          (number "1" (effects (font (size 1.27 1.27))))
        )
      )
    )
  )

  (junction (at 72.39 77.47) (diameter 0) (color 0 0 0 0)
    (uuid 0cecc396-9589-4978-98e7-841342813c4e)
  )
  (junction (at 35.56 64.77) (diameter 0) (color 0 0 0 0)
    (uuid 125252fe-2194-4e69-9bd3-e16fdfecd5e6)
  )
  (junction (at 33.02 64.77) (diameter 0) (color 0 0 0 0)
    (uuid 3c6d29f4-9429-4c08-83a2-eac35e1731d4)
  )
  (junction (at 72.39 80.01) (diameter 0) (color 0 0 0 0)
    (uuid 45773b63-2ad1-4a6b-a8ed-34a8351ef7ab)
  )
  (junction (at 88.9 39.37) (diameter 0) (color 0 0 0 0)
    (uuid 5f6742d9-a630-4ff1-b41d-3ec4c668bf6c)
  )
  (junction (at 82.55 39.37) (diameter 0) (color 0 0 0 0)
    (uuid 90ed1a72-0847-4699-985e-f43ddf6a9caf)
  )
  (junction (at 39.37 39.37) (diameter 0) (color 0 0 0 0)
    (uuid a827293b-e4c4-4d84-b2c4-1fb69e92097e)
  )
  (junction (at 72.39 82.55) (diameter 0) (color 0 0 0 0)
    (uuid bb1803b8-1f7f-4351-9b00-a76e8ef8d12a)
  )
  (junction (at 33.02 50.8) (diameter 0) (color 0 0 0 0)
    (uuid bd50b62c-bdd5-45d3-ab7b-a98c86c24136)
  )

  (wire (pts (xy 72.39 49.53) (xy 74.93 49.53))
    (stroke (width 0) (type default))
    (uuid 03c78569-ed87-4cd6-ad1c-6e57e9222b7e)
  )
  (wire (pts (xy 88.9 39.37) (xy 88.9 41.91))
    (stroke (width 0) (type default))
    (uuid 097e4752-61bd-440b-b6f2-1d46ec043755)
  )
  (wire (pts (xy 33.02 50.8) (xy 33.02 58.42))
    (stroke (width 0) (type default))
    (uuid 11088cd5-05aa-4269-9e01-c6413b1cfc78)
  )
  (wire (pts (xy 97.79 54.61) (xy 97.79 57.15))
    (stroke (width 0) (type default))
    (uuid 12f2e575-1148-427e-9da9-d6bc83a7977a)
  )
  (wire (pts (xy 36.83 82.55) (xy 39.37 82.55))
    (stroke (width 0) (type default))
    (uuid 19f61e2e-646c-4e94-8ff6-c38f9896c34f)
  )
  (wire (pts (xy 72.39 74.93) (xy 72.39 77.47))
    (stroke (width 0) (type default))
    (uuid 1c7dc437-8f36-40a8-9f3e-00fa993670a2)
  )
  (wire (pts (xy 35.56 50.8) (xy 35.56 52.07))
    (stroke (width 0) (type default))
    (uuid 21c11f5f-e9cd-489b-92d6-03ba3ced24ab)
  )
  (wire (pts (xy 82.55 39.37) (xy 88.9 39.37))
    (stroke (width 0) (type default))
    (uuid 21ee0f76-7b3d-49bc-a1b6-15f427810d7b)
  )
  (wire (pts (xy 86.36 67.31) (xy 87.63 67.31))
    (stroke (width 0) (type default))
    (uuid 2f0ff015-e6f6-4f96-8cab-7e04b150a130)
  )
  (wire (pts (xy 31.75 64.77) (xy 33.02 64.77))
    (stroke (width 0) (type default))
    (uuid 31d8893c-6972-434a-828b-2c683e94a98a)
  )
  (wire (pts (xy 39.37 39.37) (xy 46.99 39.37))
    (stroke (width 0) (type default))
    (uuid 36402b7a-62cd-4fad-846f-6dc2ec813585)
  )
  (wire (pts (xy 33.02 50.8) (xy 35.56 50.8))
    (stroke (width 0) (type default))
    (uuid 389963be-db2e-49a4-9d92-0b0ef2f1677f)
  )
  (wire (pts (xy 72.39 39.37) (xy 82.55 39.37))
    (stroke (width 0) (type default))
    (uuid 3a2a25f1-5982-4b34-8631-0ccf033a6e90)
  )
  (wire (pts (xy 72.39 46.99) (xy 82.55 46.99))
    (stroke (width 0) (type default))
    (uuid 44569758-7b52-4654-9ea2-11c53bb2827b)
  )
  (wire (pts (xy 72.39 57.15) (xy 92.71 57.15))
    (stroke (width 0) (type default))
    (uuid 49d14d16-a231-466a-b047-8ef9481cef3d)
  )
  (wire (pts (xy 33.02 63.5) (xy 33.02 64.77))
    (stroke (width 0) (type default))
    (uuid 4e67d3a9-d0d9-4349-8e05-55854a449388)
  )
  (wire (pts (xy 72.39 77.47) (xy 72.39 80.01))
    (stroke (width 0) (type default))
    (uuid 508def0d-19d1-426d-9b61-e1a737ea9d4d)
  )
  (wire (pts (xy 86.36 59.69) (xy 86.36 67.31))
    (stroke (width 0) (type default))
    (uuid 51c606a8-cef4-46b7-ad12-5d7b49537f46)
  )
  (wire (pts (xy 82.55 46.99) (xy 82.55 49.53))
    (stroke (width 0) (type default))
    (uuid 6804e8ab-4708-4ddf-8eb6-f5b6c329b028)
  )
  (wire (pts (xy 35.56 64.77) (xy 35.56 63.5))
    (stroke (width 0) (type default))
    (uuid 681a11bd-15e5-4f87-a849-91f9e35706a0)
  )
  (wire (pts (xy 72.39 62.23) (xy 87.63 62.23))
    (stroke (width 0) (type default))
    (uuid 6df8a9ad-7b07-4309-b0f6-cb6a7d405874)
  )
  (wire (pts (xy 88.9 46.99) (xy 88.9 48.26))
    (stroke (width 0) (type default))
    (uuid 86e6fbe7-c60a-4382-b3f5-7d1a27bbb1bb)
  )
  (wire (pts (xy 80.01 44.45) (xy 82.55 44.45))
    (stroke (width 0) (type default))
    (uuid 8b5a3bab-84ad-4a00-8f7b-6813f6dde7b9)
  )
  (wire (pts (xy 72.39 54.61) (xy 97.79 54.61))
    (stroke (width 0) (type default))
    (uuid 98e21808-7acc-464e-85f1-aec8453468d2)
  )
  (wire (pts (xy 31.75 50.8) (xy 33.02 50.8))
    (stroke (width 0) (type default))
    (uuid 9c7d97cc-d755-4b5f-93a7-40ac86c40ee3)
  )
  (wire (pts (xy 72.39 69.85) (xy 76.2 69.85))
    (stroke (width 0) (type default))
    (uuid a2558c68-c590-461f-8c39-343544666be0)
  )
  (wire (pts (xy 80.01 49.53) (xy 82.55 49.53))
    (stroke (width 0) (type default))
    (uuid a5ace85a-8e06-488d-91d1-fdc699a316d9)
  )
  (wire (pts (xy 81.28 69.85) (xy 82.55 69.85))
    (stroke (width 0) (type default))
    (uuid a99498f3-f3b7-4667-acf4-dca64ffc7c4a)
  )
  (wire (pts (xy 72.39 67.31) (xy 76.2 67.31))
    (stroke (width 0) (type default))
    (uuid abc09439-fd2d-40fc-8f9c-029ce1f865c4)
  )
  (wire (pts (xy 33.02 64.77) (xy 35.56 64.77))
    (stroke (width 0) (type default))
    (uuid ae3bbef0-9f8e-499d-a959-6965f48cd4ac)
  )
  (wire (pts (xy 39.37 39.37) (xy 39.37 41.91))
    (stroke (width 0) (type default))
    (uuid b005519f-b5dd-43d7-8c9f-0b9b6a1ba5f1)
  )
  (wire (pts (xy 39.37 46.99) (xy 39.37 49.53))
    (stroke (width 0) (type default))
    (uuid b824b131-f342-4cf8-b949-b0a47812e622)
  )
  (wire (pts (xy 72.39 44.45) (xy 74.93 44.45))
    (stroke (width 0) (type default))
    (uuid bfa78ac8-edc2-4018-aec4-dd8470229774)
  )
  (wire (pts (xy 72.39 80.01) (xy 72.39 82.55))
    (stroke (width 0) (type default))
    (uuid c4fdd21e-6e31-4a9e-81ae-9c075e0b8040)
  )
  (wire (pts (xy 72.39 59.69) (xy 86.36 59.69))
    (stroke (width 0) (type default))
    (uuid cfb5b8fd-ed5d-4eeb-a467-ba640f7ea2f3)
  )
  (wire (pts (xy 88.9 36.83) (xy 88.9 39.37))
    (stroke (width 0) (type default))
    (uuid d5afacd3-0d18-49fe-a498-af74e6a1f9e1)
  )
  (wire (pts (xy 36.83 39.37) (xy 39.37 39.37))
    (stroke (width 0) (type default))
    (uuid d5b18c90-a26a-4101-89d8-ea74fdebddc7)
  )
  (wire (pts (xy 82.55 44.45) (xy 82.55 39.37))
    (stroke (width 0) (type default))
    (uuid dcfeba42-f74d-41d9-9a06-f3ed1414570c)
  )
  (wire (pts (xy 44.45 82.55) (xy 46.99 82.55))
    (stroke (width 0) (type default))
    (uuid e06efd62-46e8-493d-98ba-73427e4bc5da)
  )
  (wire (pts (xy 81.28 67.31) (xy 82.55 67.31))
    (stroke (width 0) (type default))
    (uuid e45343bc-1a29-494a-be81-085998aae1c0)
  )
  (wire (pts (xy 74.93 82.55) (xy 72.39 82.55))
    (stroke (width 0) (type default))
    (uuid f2a94b41-e742-42c4-96b7-ed80e6403b9e)
  )
  (wire (pts (xy 35.56 64.77) (xy 46.99 64.77))
    (stroke (width 0) (type default))
    (uuid f3ef61c4-d27f-4df3-96e9-f69354cf7bc6)
  )
  (wire (pts (xy 35.56 57.15) (xy 35.56 58.42))
    (stroke (width 0) (type default))
    (uuid fbd9660c-a089-4c4d-b9c0-cac71b853b30)
  )

  (label "A2" (at 76.2 62.23 0) (fields_autoplaced)
    (effects (font (size 1.27 1.27)) (justify left bottom))
    (uuid 00408716-224b-43ce-99a5-68d3dd8130b1)
  )
  (label "BRA" (at 76.2 67.31 180) (fields_autoplaced)
    (effects (font (size 1.27 1.27)) (justify right bottom))
    (uuid 174ae8e6-e5fd-4733-99e8-6ee7c4b73d40)
  )
  (label "B2" (at 78.74 54.61 180) (fields_autoplaced)
    (effects (font (size 1.27 1.27)) (justify right bottom))
    (uuid f0a3ddd1-c842-4c4d-9fba-d1beba03a669)
  )
  (label "BRB" (at 76.2 69.85 180) (fields_autoplaced)
    (effects (font (size 1.27 1.27)) (justify right bottom))
    (uuid f153d5da-d4f3-40db-97b0-85c84abfd960)
  )
  (label "B1" (at 78.74 57.15 180) (fields_autoplaced)
    (effects (font (size 1.27 1.27)) (justify right bottom))
    (uuid f62f1daf-b0e4-4650-a32b-8c111f8d5432)
  )
  (label "A1" (at 76.2 59.69 0) (fields_autoplaced)
    (effects (font (size 1.27 1.27)) (justify left bottom))
    (uuid f7e378e5-710b-4387-a58c-4ab161d697c0)
  )

  (hierarchical_label "Vcc_IO" (shape input) (at 31.75 50.8 180) (fields_autoplaced)
    (effects (font (size 1.27 1.27)) (justify right))
    (uuid 03d04462-df46-42d0-8683-54d1452bae16)
  )
  (hierarchical_label "Index" (shape input) (at 46.99 77.47 180) (fields_autoplaced)
    (effects (font (size 1.27 1.27)) (justify right))
    (uuid 094e71e8-77c6-43b6-8225-6fad6eb97e3f)
  )
  (hierarchical_label "Diag" (shape input) (at 46.99 74.93 180) (fields_autoplaced)
    (effects (font (size 1.27 1.27)) (justify right))
    (uuid 111ce5a9-a96f-44fa-b41f-774e7cbf1363)
  )
  (hierarchical_label "Vcc_IO" (shape input) (at 36.83 39.37 180) (fields_autoplaced)
    (effects (font (size 1.27 1.27)) (justify right))
    (uuid 30b2774a-3f71-4021-9b8d-6435af24a1a3)
  )
  (hierarchical_label "Step" (shape input) (at 46.99 67.31 180) (fields_autoplaced)
    (effects (font (size 1.27 1.27)) (justify right))
    (uuid 3d26b64f-97b9-467e-be39-cf32bbc3170a)
  )
  (hierarchical_label "VRef" (shape input) (at 46.99 54.61 180) (fields_autoplaced)
    (effects (font (size 1.27 1.27)) (justify right))
    (uuid 8c82e00a-9f85-4484-a141-72f0b037b16d)
  )
  (hierarchical_label "Clk" (shape input) (at 46.99 44.45 180) (fields_autoplaced)
    (effects (font (size 1.27 1.27)) (justify right))
    (uuid a8f4a227-f7c6-4fd3-8bf8-f6f5db10e436)
  )
  (hierarchical_label "Dir" (shape input) (at 46.99 69.85 180) (fields_autoplaced)
    (effects (font (size 1.27 1.27)) (justify right))
    (uuid ac13a234-b753-4a47-a966-5abf1a835705)
  )
  (hierarchical_label "MS2" (shape input) (at 46.99 52.07 180) (fields_autoplaced)
    (effects (font (size 1.27 1.27)) (justify right))
    (uuid af4ead5c-7536-426c-9955-3b9ce58a1abb)
  )
  (hierarchical_label "UART" (shape input) (at 46.99 59.69 180) (fields_autoplaced)
    (effects (font (size 1.27 1.27)) (justify right))
    (uuid bd9ba9c6-bb3f-46c9-9e6f-9c760d3ca2bf)
  )
  (hierarchical_label "~{En}" (shape input) (at 31.75 64.77 180) (fields_autoplaced)
    (effects (font (size 1.27 1.27)) (justify right))
    (uuid d1212d42-502a-4539-8a03-ad355bbe6e4b)
  )
  (hierarchical_label "+VM" (shape input) (at 88.9 36.83 90) (fields_autoplaced)
    (effects (font (size 1.27 1.27)) (justify left))
    (uuid e266b0b8-202d-4ee4-9c84-de9ac52ef4ef)
  )
  (hierarchical_label "MS1" (shape input) (at 46.99 49.53 180) (fields_autoplaced)
    (effects (font (size 1.27 1.27)) (justify right))
    (uuid e8ba08e6-5ae7-47db-9b46-41f2303ea339)
  )

  (symbol (lib_id "power:GND") (at 82.55 69.85 90) (unit 1)
    (in_bom yes) (on_board yes) (dnp no) (fields_autoplaced)
    (uuid 0108cddc-e563-4e22-afe5-e9b2a2cc50f2)
    (property "Reference" "#PWR013" (at 88.9 69.85 0)
      (effects (font (size 1.27 1.27)) hide)
    )
    (property "Value" "GND" (at 87.63 69.85 0)
      (effects (font (size 1.27 1.27)) hide)
    )
    (property "Footprint" "" (at 82.55 69.85 0)
      (effects (font (size 1.27 1.27)) hide)
    )
    (property "Datasheet" "" (at 82.55 69.85 0)
      (effects (font (size 1.27 1.27)) hide)
    )
    (pin "1" (uuid 13f0bfc1-2ee6-4716-80f3-5ece01c620c5))
    (instances
      (project "driver-tmc5160"
        (path "/03364e55-5655-494a-997e-0cd456c2d9b5"
          (reference "#PWR013") (unit 1)
        )
      )
      (project "corevus-g"
        (path "/1a565782-f217-442e-b118-196625f31c53/972ca71f-1c40-4278-8cb4-2b520c3e8975"
          (reference "#PWR0108") (unit 1)
        )
        (path "/1a565782-f217-442e-b118-196625f31c53/99778979-7977-44ff-ba7b-f489010f8682"
          (reference "#PWR0115") (unit 1)
        )
        (path "/1a565782-f217-442e-b118-196625f31c53/f6e6a5bb-7803-4b0b-883d-433919711a15"
          (reference "#PWR0122") (unit 1)
        )
        (path "/1a565782-f217-442e-b118-196625f31c53/64a332d7-9292-493c-af4b-24f0e80d7999"
          (reference "#PWR0129") (unit 1)
        )
      )
    )
  )

  (symbol (lib_id "Device:R_Small") (at 78.74 67.31 90) (unit 1)
    (in_bom yes) (on_board yes) (dnp no)
    (uuid 09ebc624-0ee2-4db3-a4eb-56090f2ef44a)
    (property "Reference" "R4" (at 80.74 66.31 90)
      (effects (font (size 0.8 0.8)) (justify right))
    )
    (property "Value" "100mΩ" (at 78.74 67.31 90)
      (effects (font (size 0.6 0.6)))
    )
    (property "Footprint" "Resistor_SMD:R_0805_2012Metric" (at 78.74 67.31 0)
      (effects (font (size 1.27 1.27)) hide)
    )
    (property "Datasheet" "~" (at 78.74 67.31 0)
      (effects (font (size 1.27 1.27)) hide)
    )
    (property "LCSC" "C382279" (at 78.74 67.31 90)
      (effects (font (size 1.27 1.27)) hide)
    )
    (pin "1" (uuid 595471ee-f9aa-4565-8990-dda2e659773d))
    (pin "2" (uuid ec2f42ec-7845-482c-a135-efdddf369dd3))
    (instances
      (project "driver-tmc5160"
        (path "/03364e55-5655-494a-997e-0cd456c2d9b5"
          (reference "R4") (unit 1)
        )
      )
      (project "corevus-g"
        (path "/1a565782-f217-442e-b118-196625f31c53/972ca71f-1c40-4278-8cb4-2b520c3e8975"
          (reference "R20") (unit 1)
        )
        (path "/1a565782-f217-442e-b118-196625f31c53/99778979-7977-44ff-ba7b-f489010f8682"
          (reference "R23") (unit 1)
        )
        (path "/1a565782-f217-442e-b118-196625f31c53/f6e6a5bb-7803-4b0b-883d-433919711a15"
          (reference "R26") (unit 1)
        )
        (path "/1a565782-f217-442e-b118-196625f31c53/64a332d7-9292-493c-af4b-24f0e80d7999"
          (reference "R29") (unit 1)
        )
      )
    )
  )

  (symbol (lib_id "corevus:TMC2208-LA") (at 59.69 60.96 0) (unit 1)
    (in_bom yes) (on_board yes) (dnp no) (fields_autoplaced)
    (uuid 0a34f30e-23af-4744-83a7-981c8a5dd711)
    (property "Reference" "U7" (at 59.69 31.75 0)
      (effects (font (size 1.27 1.27)))
    )
    (property "Value" "TMC2208-LA" (at 59.69 34.29 0)
      (effects (font (size 1.27 1.27)))
    )
    (property "Footprint" "corevus:TMC220x" (at 58.42 87.63 0)
      (effects (font (size 1.27 1.27)) hide)
    )
    (property "Datasheet" "https://trinamic.com/fileadmin/assets/Products/ICs_Documents/TMC220x_TMC2224_datasheet_Rev1.09.pdf" (at 58.42 90.17 0)
      (effects (font (size 1.27 1.27)) hide)
    )
    (property "LCSC" "C115944" (at 59.69 60.96 0)
      (effects (font (size 1.27 1.27)) hide)
    )
    (pin "1" (uuid e8e9f1fc-260c-40a1-9c18-5c33eb466c4e))
    (pin "10" (uuid 373f3f75-333e-4bf7-87fe-1a5636bd33c8))
    (pin "11" (uuid 73e13a71-d3df-40b2-90ee-2cddd368e4bb))
    (pin "12" (uuid 4e5e0f63-3489-4f6f-bb60-544371af70cb))
    (pin "13" (uuid 7396868e-ce48-4baf-ba63-62b1609099bb))
    (pin "15" (uuid 3f2c5b0c-952d-480c-8cc3-1d181d8ae58c))
    (pin "16" (uuid 58704b1d-abf9-4a5f-85a5-276383e0edee))
    (pin "17" (uuid 11b2c94d-d903-4d9e-9d7b-ad802590ed31))
    (pin "19" (uuid 95e5eaad-2dcf-4301-b9dd-5c101f4e7edb))
    (pin "20" (uuid 13f9dcde-9d33-4689-bceb-32851049fd17))
    (pin "21" (uuid 3a0b3fc7-bbdc-478f-8374-23381bb4e748))
    (pin "22" (uuid 93135ef1-9ad8-4e8c-91a8-2c5b9df0c75f))
    (pin "23" (uuid f010cf69-9f9f-460e-942d-1e2ab54d1033))
    (pin "24" (uuid b38c95e8-36bf-4107-ad05-fa8dfcb6346e))
    (pin "26" (uuid 6d41311e-10d9-463d-ac70-3f7728387feb))
    (pin "27" (uuid 676a99b7-4d3f-4b20-94c6-6f842e56422a))
    (pin "3" (uuid 945d3d0f-2b53-4e0f-bdfc-e8c4c3a9decd))
    (pin "4" (uuid 4d701f18-8ca5-49ab-80df-c315538178a2))
    (pin "5" (uuid e6b63a11-be0d-4320-958f-8cfe177b8289))
    (pin "6" (uuid d7817b6c-cb2a-4fac-a4b8-9e7ac5e68f59))
    (pin "7" (uuid ab032b25-9988-49ca-957f-538a4df4918c))
    (pin "8" (uuid dbc0e90a-5f5c-45f1-a948-8861bb88e0df))
    (pin "9" (uuid 768e5c12-2844-4d42-948a-2ad6d113e9e2))
    (pin "14" (uuid 9d80ae7c-46bb-4bc6-bea8-05bbe8e444e4))
    (pin "18" (uuid a876726b-46be-436c-aec9-d1ab40df8a6f))
    (pin "2" (uuid 159b5c4e-660a-4bb8-b422-e8726a930fa9))
    (pin "25" (uuid b097865d-139f-4452-80b6-cd8d818947ee))
    (pin "28" (uuid a7310e51-bb6a-4e0a-89fb-182c85d20c6a))
    (pin "29" (uuid 48c78c18-4863-4eef-a57e-f7b8c7124aa1))
    (instances
      (project "corevus-g"
        (path "/1a565782-f217-442e-b118-196625f31c53/972ca71f-1c40-4278-8cb4-2b520c3e8975"
          (reference "U7") (unit 1)
        )
        (path "/1a565782-f217-442e-b118-196625f31c53/99778979-7977-44ff-ba7b-f489010f8682"
          (reference "U8") (unit 1)
        )
        (path "/1a565782-f217-442e-b118-196625f31c53/f6e6a5bb-7803-4b0b-883d-433919711a15"
          (reference "U9") (unit 1)
        )
        (path "/1a565782-f217-442e-b118-196625f31c53/64a332d7-9292-493c-af4b-24f0e80d7999"
          (reference "U10") (unit 1)
        )
      )
    )
  )

  (symbol (lib_id "Device:R_Small") (at 35.56 60.96 0) (mirror y) (unit 1)
    (in_bom yes) (on_board yes) (dnp no)
    (uuid 0ab6c8fd-1f51-44c0-8b7c-f6270e35c4d5)
    (property "Reference" "R3" (at 37.19 60.96 90)
      (effects (font (size 0.8 0.8)))
    )
    (property "Value" "4.7kΩ" (at 35.56 60.96 90)
      (effects (font (size 0.8 0.8)))
    )
    (property "Footprint" "AlphaLib:0402R" (at 35.56 60.96 0)
      (effects (font (size 1.27 1.27)) hide)
    )
    (property "Datasheet" "~" (at 35.56 60.96 0)
      (effects (font (size 1.27 1.27)) hide)
    )
    (pin "1" (uuid 7e281250-7174-461c-b0a3-0ae94654b36c))
    (pin "2" (uuid 30075a45-efc7-48a3-8a54-b8fb80628bc4))
    (instances
      (project "driver-tmc5160"
        (path "/03364e55-5655-494a-997e-0cd456c2d9b5"
          (reference "R3") (unit 1)
        )
      )
      (project "corevus-g"
        (path "/1a565782-f217-442e-b118-196625f31c53/972ca71f-1c40-4278-8cb4-2b520c3e8975"
          (reference "R22") (unit 1)
        )
        (path "/1a565782-f217-442e-b118-196625f31c53/99778979-7977-44ff-ba7b-f489010f8682"
          (reference "R28") (unit 1)
        )
        (path "/1a565782-f217-442e-b118-196625f31c53/f6e6a5bb-7803-4b0b-883d-433919711a15"
          (reference "R101") (unit 1)
        )
        (path "/1a565782-f217-442e-b118-196625f31c53/64a332d7-9292-493c-af4b-24f0e80d7999"
          (reference "R103") (unit 1)
        )
      )
    )
  )

  (symbol (lib_id "Device:C_Small") (at 41.91 82.55 90) (unit 1)
    (in_bom yes) (on_board yes) (dnp no)
    (uuid 13ec3a8c-d45c-4c79-a0e7-c766bbde9e43)
    (property "Reference" "C10" (at 40.91 83.55 90)
      (effects (font (size 0.8 0.8)) (justify left))
    )
    (property "Value" "1μF" (at 42.91 83.55 90)
      (effects (font (size 0.8 0.8)) (justify right))
    )
    (property "Footprint" "AlphaLib:0402C" (at 41.91 82.55 0)
      (effects (font (size 1.27 1.27)) hide)
    )
    (property "Datasheet" "~" (at 41.91 82.55 0)
      (effects (font (size 1.27 1.27)) hide)
    )
    (property "LCSC" "" (at 41.91 82.55 90)
      (effects (font (size 1.27 1.27)) hide)
    )
    (pin "1" (uuid dea5f9ba-24b9-4597-b65e-716604cf4baa))
    (pin "2" (uuid 8a2987d0-aea7-4981-ac74-f332c30779c7))
    (instances
      (project "driver-tmc5160"
        (path "/03364e55-5655-494a-997e-0cd456c2d9b5"
          (reference "C10") (unit 1)
        )
      )
      (project "corevus-g"
        (path "/1a565782-f217-442e-b118-196625f31c53/972ca71f-1c40-4278-8cb4-2b520c3e8975"
          (reference "C19") (unit 1)
        )
        (path "/1a565782-f217-442e-b118-196625f31c53/99778979-7977-44ff-ba7b-f489010f8682"
          (reference "C24") (unit 1)
        )
        (path "/1a565782-f217-442e-b118-196625f31c53/f6e6a5bb-7803-4b0b-883d-433919711a15"
          (reference "C29") (unit 1)
        )
        (path "/1a565782-f217-442e-b118-196625f31c53/64a332d7-9292-493c-af4b-24f0e80d7999"
          (reference "C34") (unit 1)
        )
      )
    )
  )

  (symbol (lib_id "power:GND") (at 36.83 82.55 270) (unit 1)
    (in_bom yes) (on_board yes) (dnp no) (fields_autoplaced)
    (uuid 2c68567d-ead8-4e85-a747-43e82e39b95f)
    (property "Reference" "#PWR013" (at 30.48 82.55 0)
      (effects (font (size 1.27 1.27)) hide)
    )
    (property "Value" "GND" (at 31.75 82.55 0)
      (effects (font (size 1.27 1.27)) hide)
    )
    (property "Footprint" "" (at 36.83 82.55 0)
      (effects (font (size 1.27 1.27)) hide)
    )
    (property "Datasheet" "" (at 36.83 82.55 0)
      (effects (font (size 1.27 1.27)) hide)
    )
    (pin "1" (uuid b9e11dc2-6c26-48ef-8f4c-de82caa63959))
    (instances
      (project "driver-tmc5160"
        (path "/03364e55-5655-494a-997e-0cd456c2d9b5"
          (reference "#PWR013") (unit 1)
        )
      )
      (project "corevus-g"
        (path "/1a565782-f217-442e-b118-196625f31c53/972ca71f-1c40-4278-8cb4-2b520c3e8975"
          (reference "#PWR0103") (unit 1)
        )
        (path "/1a565782-f217-442e-b118-196625f31c53/99778979-7977-44ff-ba7b-f489010f8682"
          (reference "#PWR0110") (unit 1)
        )
        (path "/1a565782-f217-442e-b118-196625f31c53/f6e6a5bb-7803-4b0b-883d-433919711a15"
          (reference "#PWR0117") (unit 1)
        )
        (path "/1a565782-f217-442e-b118-196625f31c53/64a332d7-9292-493c-af4b-24f0e80d7999"
          (reference "#PWR0124") (unit 1)
        )
      )
    )
  )

  (symbol (lib_id "power:GND") (at 88.9 48.26 0) (unit 1)
    (in_bom yes) (on_board yes) (dnp no) (fields_autoplaced)
    (uuid 34dab8c2-daad-4d27-98f6-2d5d5aed805a)
    (property "Reference" "#PWR013" (at 88.9 54.61 0)
      (effects (font (size 1.27 1.27)) hide)
    )
    (property "Value" "GND" (at 88.9 53.34 0)
      (effects (font (size 1.27 1.27)) hide)
    )
    (property "Footprint" "" (at 88.9 48.26 0)
      (effects (font (size 1.27 1.27)) hide)
    )
    (property "Datasheet" "" (at 88.9 48.26 0)
      (effects (font (size 1.27 1.27)) hide)
    )
    (pin "1" (uuid 32061347-c25b-4f50-8305-5708e8642b49))
    (instances
      (project "driver-tmc5160"
        (path "/03364e55-5655-494a-997e-0cd456c2d9b5"
          (reference "#PWR013") (unit 1)
        )
      )
      (project "corevus-g"
        (path "/1a565782-f217-442e-b118-196625f31c53/972ca71f-1c40-4278-8cb4-2b520c3e8975"
          (reference "#PWR0109") (unit 1)
        )
        (path "/1a565782-f217-442e-b118-196625f31c53/99778979-7977-44ff-ba7b-f489010f8682"
          (reference "#PWR0116") (unit 1)
        )
        (path "/1a565782-f217-442e-b118-196625f31c53/f6e6a5bb-7803-4b0b-883d-433919711a15"
          (reference "#PWR0123") (unit 1)
        )
        (path "/1a565782-f217-442e-b118-196625f31c53/64a332d7-9292-493c-af4b-24f0e80d7999"
          (reference "#PWR0130") (unit 1)
        )
      )
    )
  )

  (symbol (lib_id "Device:C_Small") (at 77.47 44.45 90) (unit 1)
    (in_bom yes) (on_board yes) (dnp no)
    (uuid 4e9c4066-476d-45cb-96bb-3775472b9932)
    (property "Reference" "C10" (at 76.47 45.45 90)
      (effects (font (size 0.8 0.8)) (justify left))
    )
    (property "Value" "100nF 16V" (at 78.47 45.45 90)
      (effects (font (size 0.8 0.8)) (justify right))
    )
    (property "Footprint" "AlphaLib:0402C" (at 77.47 44.45 0)
      (effects (font (size 1.27 1.27)) hide)
    )
    (property "Datasheet" "~" (at 77.47 44.45 0)
      (effects (font (size 1.27 1.27)) hide)
    )
    (property "LCSC" "C1525" (at 77.47 44.45 90)
      (effects (font (size 1.27 1.27)) hide)
    )
    (pin "1" (uuid d5cd9770-8154-4faa-81ef-b02b09df7b10))
    (pin "2" (uuid 36290d75-5cf0-4a21-b09b-c9196078be0c))
    (instances
      (project "driver-tmc5160"
        (path "/03364e55-5655-494a-997e-0cd456c2d9b5"
          (reference "C10") (unit 1)
        )
      )
      (project "corevus-g"
        (path "/1a565782-f217-442e-b118-196625f31c53/972ca71f-1c40-4278-8cb4-2b520c3e8975"
          (reference "C20") (unit 1)
        )
        (path "/1a565782-f217-442e-b118-196625f31c53/99778979-7977-44ff-ba7b-f489010f8682"
          (reference "C25") (unit 1)
        )
        (path "/1a565782-f217-442e-b118-196625f31c53/f6e6a5bb-7803-4b0b-883d-433919711a15"
          (reference "C30") (unit 1)
        )
        (path "/1a565782-f217-442e-b118-196625f31c53/64a332d7-9292-493c-af4b-24f0e80d7999"
          (reference "C35") (unit 1)
        )
      )
    )
  )

  (symbol (lib_id "power:GND") (at 82.55 67.31 90) (unit 1)
    (in_bom yes) (on_board yes) (dnp no) (fields_autoplaced)
    (uuid 66c53cfc-91f2-4a6d-a2e4-a072d22b476b)
    (property "Reference" "#PWR013" (at 88.9 67.31 0)
      (effects (font (size 1.27 1.27)) hide)
    )
    (property "Value" "GND" (at 87.63 67.31 0)
      (effects (font (size 1.27 1.27)) hide)
    )
    (property "Footprint" "" (at 82.55 67.31 0)
      (effects (font (size 1.27 1.27)) hide)
    )
    (property "Datasheet" "" (at 82.55 67.31 0)
      (effects (font (size 1.27 1.27)) hide)
    )
    (pin "1" (uuid c3352b39-07fb-4cdb-b153-2775ff66904f))
    (instances
      (project "driver-tmc5160"
        (path "/03364e55-5655-494a-997e-0cd456c2d9b5"
          (reference "#PWR013") (unit 1)
        )
      )
      (project "corevus-g"
        (path "/1a565782-f217-442e-b118-196625f31c53/972ca71f-1c40-4278-8cb4-2b520c3e8975"
          (reference "#PWR0107") (unit 1)
        )
        (path "/1a565782-f217-442e-b118-196625f31c53/99778979-7977-44ff-ba7b-f489010f8682"
          (reference "#PWR0114") (unit 1)
        )
        (path "/1a565782-f217-442e-b118-196625f31c53/f6e6a5bb-7803-4b0b-883d-433919711a15"
          (reference "#PWR0121") (unit 1)
        )
        (path "/1a565782-f217-442e-b118-196625f31c53/64a332d7-9292-493c-af4b-24f0e80d7999"
          (reference "#PWR0128") (unit 1)
        )
      )
    )
  )

  (symbol (lib_id "Motor:Stepper_Motor_bipolar") (at 95.25 64.77 90) (mirror x) (unit 1)
    (in_bom yes) (on_board yes) (dnp no)
    (uuid 74619577-30f6-48f0-85be-4b1c652c0c36)
    (property "Reference" "M1" (at 99.06 63.5 90)
      (effects (font (size 1.27 1.27)) (justify right))
    )
    (property "Value" "JST XH" (at 99.06 66.04 90)
      (effects (font (size 1.27 1.27)) (justify right))
    )
    (property "Footprint" "corevus:JST_XH_1x04" (at 95.504 65.024 0)
      (effects (font (size 1.27 1.27)) hide)
    )
    (property "Datasheet" "http://www.infineon.com/dgdl/Application-Note-TLE8110EE_driving_UniPolarStepperMotor_V1.1.pdf?fileId=db3a30431be39b97011be5d0aa0a00b0" (at 95.504 65.024 0)
      (effects (font (size 1.27 1.27)) hide)
    )
    (pin "1" (uuid c258989f-e1ed-4014-813c-30ed5c6201ee))
    (pin "2" (uuid 71ee4008-751a-4c94-bc18-e7603faa25f9))
    (pin "3" (uuid 5c09e082-62ca-486e-a1fb-b118c2e8fedc))
    (pin "4" (uuid a834849b-3cd0-4274-b0dc-8b6d6e49c032))
    (instances
      (project "corevus-g"
        (path "/1a565782-f217-442e-b118-196625f31c53/972ca71f-1c40-4278-8cb4-2b520c3e8975"
          (reference "M1") (unit 1)
        )
        (path "/1a565782-f217-442e-b118-196625f31c53/99778979-7977-44ff-ba7b-f489010f8682"
          (reference "M2") (unit 1)
        )
        (path "/1a565782-f217-442e-b118-196625f31c53/f6e6a5bb-7803-4b0b-883d-433919711a15"
          (reference "M3") (unit 1)
        )
        (path "/1a565782-f217-442e-b118-196625f31c53/64a332d7-9292-493c-af4b-24f0e80d7999"
          (reference "M4") (unit 1)
        )
      )
    )
  )

  (symbol (lib_id "power:GND") (at 39.37 49.53 0) (unit 1)
    (in_bom yes) (on_board yes) (dnp no) (fields_autoplaced)
    (uuid 87c5d4f3-1004-4f8f-a5df-ecf7cddb6c65)
    (property "Reference" "#PWR013" (at 39.37 55.88 0)
      (effects (font (size 1.27 1.27)) hide)
    )
    (property "Value" "GND" (at 39.37 54.61 0)
      (effects (font (size 1.27 1.27)) hide)
    )
    (property "Footprint" "" (at 39.37 49.53 0)
      (effects (font (size 1.27 1.27)) hide)
    )
    (property "Datasheet" "" (at 39.37 49.53 0)
      (effects (font (size 1.27 1.27)) hide)
    )
    (pin "1" (uuid 06cf7d53-0a67-46ba-b0f5-60e3cecc0e7e))
    (instances
      (project "driver-tmc5160"
        (path "/03364e55-5655-494a-997e-0cd456c2d9b5"
          (reference "#PWR013") (unit 1)
        )
      )
      (project "corevus-g"
        (path "/1a565782-f217-442e-b118-196625f31c53/972ca71f-1c40-4278-8cb4-2b520c3e8975"
          (reference "#PWR0104") (unit 1)
        )
        (path "/1a565782-f217-442e-b118-196625f31c53/99778979-7977-44ff-ba7b-f489010f8682"
          (reference "#PWR0111") (unit 1)
        )
        (path "/1a565782-f217-442e-b118-196625f31c53/f6e6a5bb-7803-4b0b-883d-433919711a15"
          (reference "#PWR0118") (unit 1)
        )
        (path "/1a565782-f217-442e-b118-196625f31c53/64a332d7-9292-493c-af4b-24f0e80d7999"
          (reference "#PWR0125") (unit 1)
        )
      )
    )
  )

  (symbol (lib_id "Device:R_Small") (at 33.02 60.96 0) (unit 1)
    (in_bom yes) (on_board yes) (dnp no)
    (uuid a834b166-c20d-471d-b00b-27b4c057f952)
    (property "Reference" "R3" (at 31.39 60.96 90)
      (effects (font (size 0.8 0.8)))
    )
    (property "Value" "10kΩ" (at 33.02 60.96 90)
      (effects (font (size 0.8 0.8)))
    )
    (property "Footprint" "AlphaLib:0402R" (at 33.02 60.96 0)
      (effects (font (size 1.27 1.27)) hide)
    )
    (property "Datasheet" "~" (at 33.02 60.96 0)
      (effects (font (size 1.27 1.27)) hide)
    )
    (pin "1" (uuid 000328a3-e781-4e9b-8150-9281a0c37f5f))
    (pin "2" (uuid 5fdc62e8-0c52-4f21-b766-ddd389dd53bc))
    (instances
      (project "driver-tmc5160"
        (path "/03364e55-5655-494a-997e-0cd456c2d9b5"
          (reference "R3") (unit 1)
        )
      )
      (project "corevus-g"
        (path "/1a565782-f217-442e-b118-196625f31c53/972ca71f-1c40-4278-8cb4-2b520c3e8975"
          (reference "R97") (unit 1)
        )
        (path "/1a565782-f217-442e-b118-196625f31c53/99778979-7977-44ff-ba7b-f489010f8682"
          (reference "R100") (unit 1)
        )
        (path "/1a565782-f217-442e-b118-196625f31c53/f6e6a5bb-7803-4b0b-883d-433919711a15"
          (reference "R102") (unit 1)
        )
        (path "/1a565782-f217-442e-b118-196625f31c53/64a332d7-9292-493c-af4b-24f0e80d7999"
          (reference "R105") (unit 1)
        )
      )
    )
  )

  (symbol (lib_id "Device:R_Small") (at 78.74 69.85 90) (unit 1)
    (in_bom yes) (on_board yes) (dnp no)
    (uuid c9a7cbe6-8f77-4da3-954d-401445acea2c)
    (property "Reference" "R4" (at 80.74 68.85 90)
      (effects (font (size 0.8 0.8)) (justify right))
    )
    (property "Value" "100mΩ" (at 78.74 69.85 90)
      (effects (font (size 0.6 0.6)))
    )
    (property "Footprint" "Resistor_SMD:R_0805_2012Metric" (at 78.74 69.85 0)
      (effects (font (size 1.27 1.27)) hide)
    )
    (property "Datasheet" "~" (at 78.74 69.85 0)
      (effects (font (size 1.27 1.27)) hide)
    )
    (property "LCSC" "C382279" (at 78.74 69.85 90)
      (effects (font (size 1.27 1.27)) hide)
    )
    (pin "1" (uuid cd476e92-78d1-44e5-b910-c4322c6f784b))
    (pin "2" (uuid f071bf4e-f86a-40ce-b6a7-0aedcec857c1))
    (instances
      (project "driver-tmc5160"
        (path "/03364e55-5655-494a-997e-0cd456c2d9b5"
          (reference "R4") (unit 1)
        )
      )
      (project "corevus-g"
        (path "/1a565782-f217-442e-b118-196625f31c53/972ca71f-1c40-4278-8cb4-2b520c3e8975"
          (reference "R21") (unit 1)
        )
        (path "/1a565782-f217-442e-b118-196625f31c53/99778979-7977-44ff-ba7b-f489010f8682"
          (reference "R24") (unit 1)
        )
        (path "/1a565782-f217-442e-b118-196625f31c53/f6e6a5bb-7803-4b0b-883d-433919711a15"
          (reference "R27") (unit 1)
        )
        (path "/1a565782-f217-442e-b118-196625f31c53/64a332d7-9292-493c-af4b-24f0e80d7999"
          (reference "R30") (unit 1)
        )
      )
    )
  )

  (symbol (lib_id "power:GND") (at 74.93 82.55 90) (unit 1)
    (in_bom yes) (on_board yes) (dnp no) (fields_autoplaced)
    (uuid cdded8c1-31b9-4c56-8c26-1ae2e5a04d82)
    (property "Reference" "#PWR013" (at 81.28 82.55 0)
      (effects (font (size 1.27 1.27)) hide)
    )
    (property "Value" "GND" (at 80.01 82.55 0)
      (effects (font (size 1.27 1.27)) hide)
    )
    (property "Footprint" "" (at 74.93 82.55 0)
      (effects (font (size 1.27 1.27)) hide)
    )
    (property "Datasheet" "" (at 74.93 82.55 0)
      (effects (font (size 1.27 1.27)) hide)
    )
    (pin "1" (uuid 07cafcd6-72a5-4d93-a899-8b08bf710e48))
    (instances
      (project "driver-tmc5160"
        (path "/03364e55-5655-494a-997e-0cd456c2d9b5"
          (reference "#PWR013") (unit 1)
        )
      )
      (project "corevus-g"
        (path "/1a565782-f217-442e-b118-196625f31c53/972ca71f-1c40-4278-8cb4-2b520c3e8975"
          (reference "#PWR0106") (unit 1)
        )
        (path "/1a565782-f217-442e-b118-196625f31c53/99778979-7977-44ff-ba7b-f489010f8682"
          (reference "#PWR0113") (unit 1)
        )
        (path "/1a565782-f217-442e-b118-196625f31c53/f6e6a5bb-7803-4b0b-883d-433919711a15"
          (reference "#PWR0120") (unit 1)
        )
        (path "/1a565782-f217-442e-b118-196625f31c53/64a332d7-9292-493c-af4b-24f0e80d7999"
          (reference "#PWR0127") (unit 1)
        )
      )
    )
  )

  (symbol (lib_id "Device:C_Small") (at 77.47 49.53 90) (unit 1)
    (in_bom yes) (on_board yes) (dnp no)
    (uuid d82b98d0-904f-446a-b032-db3e8c8a3648)
    (property "Reference" "C10" (at 76.47 50.53 90)
      (effects (font (size 0.8 0.8)) (justify left))
    )
    (property "Value" "22nF 50V" (at 78.47 50.53 90)
      (effects (font (size 0.8 0.8)) (justify right))
    )
    (property "Footprint" "AlphaLib:0402C" (at 77.47 49.53 0)
      (effects (font (size 1.27 1.27)) hide)
    )
    (property "Datasheet" "~" (at 77.47 49.53 0)
      (effects (font (size 1.27 1.27)) hide)
    )
    (property "LCSC" "C1532" (at 77.47 49.53 90)
      (effects (font (size 1.27 1.27)) hide)
    )
    (pin "1" (uuid f4d29ea3-01ed-4611-aa85-c9c0f5e2f39c))
    (pin "2" (uuid dd88cbaa-897d-4783-aa85-9b86641c576e))
    (instances
      (project "driver-tmc5160"
        (path "/03364e55-5655-494a-997e-0cd456c2d9b5"
          (reference "C10") (unit 1)
        )
      )
      (project "corevus-g"
        (path "/1a565782-f217-442e-b118-196625f31c53/972ca71f-1c40-4278-8cb4-2b520c3e8975"
          (reference "C21") (unit 1)
        )
        (path "/1a565782-f217-442e-b118-196625f31c53/99778979-7977-44ff-ba7b-f489010f8682"
          (reference "C26") (unit 1)
        )
        (path "/1a565782-f217-442e-b118-196625f31c53/f6e6a5bb-7803-4b0b-883d-433919711a15"
          (reference "C31") (unit 1)
        )
        (path "/1a565782-f217-442e-b118-196625f31c53/64a332d7-9292-493c-af4b-24f0e80d7999"
          (reference "C36") (unit 1)
        )
      )
    )
  )

  (symbol (lib_id "Device:C_Small") (at 39.37 44.45 0) (unit 1)
    (in_bom yes) (on_board yes) (dnp no)
    (uuid e7523746-7f11-41a7-8049-225d78e21837)
    (property "Reference" "C10" (at 38.37 43.45 90)
      (effects (font (size 0.8 0.8)) (justify left))
    )
    (property "Value" "100nF" (at 38.37 45.45 90)
      (effects (font (size 0.8 0.8)) (justify right))
    )
    (property "Footprint" "AlphaLib:0402C" (at 39.37 44.45 0)
      (effects (font (size 1.27 1.27)) hide)
    )
    (property "Datasheet" "~" (at 39.37 44.45 0)
      (effects (font (size 1.27 1.27)) hide)
    )
    (property "LCSC" "C1525" (at 39.37 44.45 90)
      (effects (font (size 1.27 1.27)) hide)
    )
    (pin "1" (uuid c4180380-0e48-4353-8581-5be727a5a3bc))
    (pin "2" (uuid c79f3aa6-4491-4736-a778-82efe10e3508))
    (instances
      (project "driver-tmc5160"
        (path "/03364e55-5655-494a-997e-0cd456c2d9b5"
          (reference "C10") (unit 1)
        )
      )
      (project "corevus-g"
        (path "/1a565782-f217-442e-b118-196625f31c53/972ca71f-1c40-4278-8cb4-2b520c3e8975"
          (reference "C18") (unit 1)
        )
        (path "/1a565782-f217-442e-b118-196625f31c53/99778979-7977-44ff-ba7b-f489010f8682"
          (reference "C23") (unit 1)
        )
        (path "/1a565782-f217-442e-b118-196625f31c53/f6e6a5bb-7803-4b0b-883d-433919711a15"
          (reference "C28") (unit 1)
        )
        (path "/1a565782-f217-442e-b118-196625f31c53/64a332d7-9292-493c-af4b-24f0e80d7999"
          (reference "C33") (unit 1)
        )
      )
    )
  )

  (symbol (lib_id "Device:C_Small") (at 88.9 44.45 180) (unit 1)
    (in_bom yes) (on_board yes) (dnp no)
    (uuid f6873873-614a-4dcc-aafc-3695b8b540e8)
    (property "Reference" "C10" (at 89.9 45.45 90)
      (effects (font (size 0.8 0.8)) (justify left))
    )
    (property "Value" "1μF 50V" (at 89.9 43.45 90)
      (effects (font (size 0.8 0.8)) (justify right))
    )
    (property "Footprint" "AlphaLib:0603C" (at 88.9 44.45 0)
      (effects (font (size 1.27 1.27)) hide)
    )
    (property "Datasheet" "~" (at 88.9 44.45 0)
      (effects (font (size 1.27 1.27)) hide)
    )
    (property "LCSC" "C15849" (at 88.9 44.45 90)
      (effects (font (size 1.27 1.27)) hide)
    )
    (pin "1" (uuid 18994616-2dce-4fcd-9eea-b06eabfd7438))
    (pin "2" (uuid d1f889ed-2c6e-47af-9d6f-77c502632883))
    (instances
      (project "driver-tmc5160"
        (path "/03364e55-5655-494a-997e-0cd456c2d9b5"
          (reference "C10") (unit 1)
        )
      )
      (project "corevus-g"
        (path "/1a565782-f217-442e-b118-196625f31c53/972ca71f-1c40-4278-8cb4-2b520c3e8975"
          (reference "C22") (unit 1)
        )
        (path "/1a565782-f217-442e-b118-196625f31c53/99778979-7977-44ff-ba7b-f489010f8682"
          (reference "C27") (unit 1)
        )
        (path "/1a565782-f217-442e-b118-196625f31c53/f6e6a5bb-7803-4b0b-883d-433919711a15"
          (reference "C32") (unit 1)
        )
        (path "/1a565782-f217-442e-b118-196625f31c53/64a332d7-9292-493c-af4b-24f0e80d7999"
          (reference "C37") (unit 1)
        )
      )
    )
  )

  (symbol (lib_id "Device:LED_Small") (at 35.56 54.61 90) (unit 1)
    (in_bom yes) (on_board yes) (dnp no)
    (uuid ff622981-00f9-4719-ac1f-53b96a81b2cc)
    (property "Reference" "D1" (at 34.56 53.61 0)
      (effects (font (size 0.8 0.8)) (justify left))
    )
    (property "Value" "Red" (at 34.56 55.61 0)
      (effects (font (size 0.8 0.8)) (justify right))
    )
    (property "Footprint" "AlphaLib:0402LED" (at 35.56 54.61 90)
      (effects (font (size 1.27 1.27)) hide)
    )
    (property "Datasheet" "~" (at 35.56 54.61 90)
      (effects (font (size 1.27 1.27)) hide)
    )
    (pin "1" (uuid df6015b7-0b2e-4dc0-9f4b-5c6c60a343cd))
    (pin "2" (uuid 512ea296-9be6-4c9a-9b20-96d71310b51e))
    (instances
      (project "driver-tmc5160"
        (path "/03364e55-5655-494a-997e-0cd456c2d9b5"
          (reference "D1") (unit 1)
        )
      )
      (project "corevus-g"
        (path "/1a565782-f217-442e-b118-196625f31c53/972ca71f-1c40-4278-8cb4-2b520c3e8975"
          (reference "D21") (unit 1)
        )
        (path "/1a565782-f217-442e-b118-196625f31c53/99778979-7977-44ff-ba7b-f489010f8682"
          (reference "D22") (unit 1)
        )
        (path "/1a565782-f217-442e-b118-196625f31c53/f6e6a5bb-7803-4b0b-883d-433919711a15"
          (reference "D23") (unit 1)
        )
        (path "/1a565782-f217-442e-b118-196625f31c53/64a332d7-9292-493c-af4b-24f0e80d7999"
          (reference "D24") (unit 1)
        )
      )
    )
  )
)
