(kicad_sch (version 20230121) (generator eeschema)

  (uuid ea8bf32f-ee37-4363-b4ec-e8dd572c4d1a)

  (paper "A4")

  (title_block
    (title "${TITLE}")
    (date "${DATE}")
    (rev "${VERSION}")
    (company "${COPYRIGHT}")
    (comment 1 "${LICENSE}")
  )

  (lib_symbols
    (symbol "Device:C" (pin_numbers hide) (pin_names (offset 0.254)) (in_bom yes) (on_board yes)
      (property "Reference" "C" (at 0.635 2.54 0)
        (effects (font (size 1.27 1.27)) (justify left))
      )
      (property "Value" "C" (at 0.635 -2.54 0)
        (effects (font (size 1.27 1.27)) (justify left))
      )
      (property "Footprint" "" (at 0.9652 -3.81 0)
        (effects (font (size 1.27 1.27)) hide)
      )
      (property "Datasheet" "~" (at 0 0 0)
        (effects (font (size 1.27 1.27)) hide)
      )
      (property "ki_keywords" "cap capacitor" (at 0 0 0)
        (effects (font (size 1.27 1.27)) hide)
      )
      (property "ki_description" "Unpolarized capacitor" (at 0 0 0)
        (effects (font (size 1.27 1.27)) hide)
      )
      (property "ki_fp_filters" "C_*" (at 0 0 0)
        (effects (font (size 1.27 1.27)) hide)
      )
      (symbol "C_0_1"
        (polyline
          (pts
            (xy -2.032 -0.762)
            (xy 2.032 -0.762)
          )
          (stroke (width 0.508) (type default))
          (fill (type none))
        )
        (polyline
          (pts
            (xy -2.032 0.762)
            (xy 2.032 0.762)
          )
          (stroke (width 0.508) (type default))
          (fill (type none))
        )
      )
      (symbol "C_1_1"
        (pin passive line (at 0 3.81 270) (length 2.794)
          (name "~" (effects (font (size 1.27 1.27))))
          (number "1" (effects (font (size 1.27 1.27))))
        )
        (pin passive line (at 0 -3.81 90) (length 2.794)
          (name "~" (effects (font (size 1.27 1.27))))
          (number "2" (effects (font (size 1.27 1.27))))
        )
      )
    )
    (symbol "Device:R" (pin_numbers hide) (pin_names (offset 0)) (in_bom yes) (on_board yes)
      (property "Reference" "R" (at 2.032 0 90)
        (effects (font (size 1.27 1.27)))
      )
      (property "Value" "R" (at 0 0 90)
        (effects (font (size 1.27 1.27)))
      )
      (property "Footprint" "" (at -1.778 0 90)
        (effects (font (size 1.27 1.27)) hide)
      )
      (property "Datasheet" "~" (at 0 0 0)
        (effects (font (size 1.27 1.27)) hide)
      )
      (property "ki_keywords" "R res resistor" (at 0 0 0)
        (effects (font (size 1.27 1.27)) hide)
      )
      (property "ki_description" "Resistor" (at 0 0 0)
        (effects (font (size 1.27 1.27)) hide)
      )
      (property "ki_fp_filters" "R_*" (at 0 0 0)
        (effects (font (size 1.27 1.27)) hide)
      )
      (symbol "R_0_1"
        (rectangle (start -1.016 -2.54) (end 1.016 2.54)
          (stroke (width 0.254) (type default))
          (fill (type none))
        )
      )
      (symbol "R_1_1"
        (pin passive line (at 0 3.81 270) (length 1.27)
          (name "~" (effects (font (size 1.27 1.27))))
          (number "1" (effects (font (size 1.27 1.27))))
        )
        (pin passive line (at 0 -3.81 90) (length 1.27)
          (name "~" (effects (font (size 1.27 1.27))))
          (number "2" (effects (font (size 1.27 1.27))))
        )
      )
    )
    (symbol "power:GND" (power) (pin_names (offset 0)) (in_bom yes) (on_board yes)
      (property "Reference" "#PWR" (at 0 -6.35 0)
        (effects (font (size 1.27 1.27)) hide)
      )
      (property "Value" "GND" (at 0 -3.81 0)
        (effects (font (size 1.27 1.27)))
      )
      (property "Footprint" "" (at 0 0 0)
        (effects (font (size 1.27 1.27)) hide)
      )
      (property "Datasheet" "" (at 0 0 0)
        (effects (font (size 1.27 1.27)) hide)
      )
      (property "ki_keywords" "global power" (at 0 0 0)
        (effects (font (size 1.27 1.27)) hide)
      )
      (property "ki_description" "Power symbol creates a global label with name \"GND\" , ground" (at 0 0 0)
        (effects (font (size 1.27 1.27)) hide)
      )
      (symbol "GND_0_1"
        (polyline
          (pts
            (xy 0 0)
            (xy 0 -1.27)
            (xy 1.27 -1.27)
            (xy 0 -2.54)
            (xy -1.27 -1.27)
            (xy 0 -1.27)
          )
          (stroke (width 0) (type default))
          (fill (type none))
        )
      )
      (symbol "GND_1_1"
        (pin power_in line (at 0 0 270) (length 0) hide
          (name "GND" (effects (font (size 1.27 1.27))))
          (number "1" (effects (font (size 1.27 1.27))))
        )
      )
    )
    (symbol "radio:RFFC5072" (in_bom yes) (on_board yes)
      (property "Reference" "U" (at 0 29.21 0)
        (effects (font (size 1.27 1.27)))
      )
      (property "Value" "RFFC5072" (at 0 26.67 0)
        (effects (font (size 1.27 1.27)))
      )
      (property "Footprint" "Package_DFN_QFN:QFN-32-1EP_5x5mm_P0.5mm_EP3.7x3.7mm_ThermalVias" (at 0 -30.48 0)
        (effects (font (size 1.27 1.27)) hide)
      )
      (property "Datasheet" "https://www.qorvo.com/products/d/da000735" (at 0 -27.94 0)
        (effects (font (size 1.27 1.27)) hide)
      )
      (property "ki_keywords" "frequency synthesizer mixer RF radio" (at 0 0 0)
        (effects (font (size 1.27 1.27)) hide)
      )
      (property "ki_description" "wideband synthesizer/VCO with integrated 6 GHz mixer" (at 0 0 0)
        (effects (font (size 1.27 1.27)) hide)
      )
      (symbol "RFFC5072_0_0"
        (pin bidirectional line (at -15.24 -7.62 0) (length 2.54)
          (name "ENBL/GPO5" (effects (font (size 1.27 1.27))))
          (number "1" (effects (font (size 1.27 1.27))))
        )
        (pin input line (at 15.24 -15.24 180) (length 2.54)
          (name "REF_IN" (effects (font (size 1.27 1.27))))
          (number "10" (effects (font (size 1.27 1.27))))
        )
        (pin input line (at 15.24 -20.32 180) (length 2.54)
          (name "TM" (effects (font (size 1.27 1.27))))
          (number "12" (effects (font (size 1.27 1.27))))
        )
        (pin bidirectional line (at -15.24 2.54 0) (length 2.54)
          (name "GPO1/ADD1" (effects (font (size 1.27 1.27))))
          (number "15" (effects (font (size 1.27 1.27))))
        )
        (pin bidirectional line (at -15.24 0 0) (length 2.54)
          (name "GPO2/ADD2" (effects (font (size 1.27 1.27))))
          (number "16" (effects (font (size 1.27 1.27))))
        )
        (pin power_in line (at -15.24 22.86 0) (length 2.54)
          (name "DIG_VDD" (effects (font (size 1.27 1.27))))
          (number "19" (effects (font (size 1.27 1.27))))
        )
        (pin input line (at 15.24 -5.08 180) (length 2.54)
          (name "EXT_LO" (effects (font (size 1.27 1.27))))
          (number "2" (effects (font (size 1.27 1.27))))
        )
        (pin power_in line (at -15.24 17.78 0) (length 2.54)
          (name "ANA_VDD2" (effects (font (size 1.27 1.27))))
          (number "22" (effects (font (size 1.27 1.27))))
        )
        (pin input line (at -15.24 12.7 0) (length 2.54)
          (name "MIX_IPP" (effects (font (size 1.27 1.27))))
          (number "23" (effects (font (size 1.27 1.27))))
        )
        (pin input line (at -15.24 10.16 0) (length 2.54)
          (name "MIX_IPN" (effects (font (size 1.27 1.27))))
          (number "24" (effects (font (size 1.27 1.27))))
        )
        (pin bidirectional line (at -15.24 -2.54 0) (length 2.54)
          (name "GPO3/FM" (effects (font (size 1.27 1.27))))
          (number "25" (effects (font (size 1.27 1.27))))
        )
        (pin power_out line (at -15.24 -5.08 0) (length 2.54)
          (name "GPO4/LD/DO" (effects (font (size 1.27 1.27))))
          (number "26" (effects (font (size 1.27 1.27))))
        )
        (pin output line (at 15.24 10.16 180) (length 2.54)
          (name "MIX_OPN" (effects (font (size 1.27 1.27))))
          (number "27" (effects (font (size 1.27 1.27))))
        )
        (pin output line (at 15.24 12.7 180) (length 2.54)
          (name "MIX_OPP" (effects (font (size 1.27 1.27))))
          (number "28" (effects (font (size 1.27 1.27))))
        )
        (pin passive line (at 15.24 -2.54 180) (length 2.54)
          (name "EXT_LO_DEC" (effects (font (size 1.27 1.27))))
          (number "3" (effects (font (size 1.27 1.27))))
        )
        (pin input line (at -15.24 -20.32 0) (length 2.54)
          (name "SCLK" (effects (font (size 1.27 1.27))))
          (number "31" (effects (font (size 1.27 1.27))))
        )
        (pin input line (at -15.24 -22.86 0) (length 2.54)
          (name "SDATA" (effects (font (size 1.27 1.27))))
          (number "32" (effects (font (size 1.27 1.27))))
        )
        (pin power_in line (at 15.24 -22.86 180) (length 2.54)
          (name "EP" (effects (font (size 1.27 1.27))))
          (number "33" (effects (font (size 1.27 1.27))))
        )
        (pin passive line (at 15.24 0 180) (length 2.54)
          (name "REXT" (effects (font (size 1.27 1.27))))
          (number "4" (effects (font (size 1.27 1.27))))
        )
        (pin power_in line (at -15.24 20.32 0) (length 2.54)
          (name "ANA_VDD1" (effects (font (size 1.27 1.27))))
          (number "5" (effects (font (size 1.27 1.27))))
        )
        (pin output line (at 15.24 17.78 180) (length 2.54)
          (name "LFILT1" (effects (font (size 1.27 1.27))))
          (number "6" (effects (font (size 1.27 1.27))))
        )
        (pin output line (at 15.24 20.32 180) (length 2.54)
          (name "LFILT2" (effects (font (size 1.27 1.27))))
          (number "7" (effects (font (size 1.27 1.27))))
        )
        (pin input line (at 15.24 22.86 180) (length 2.54)
          (name "LFILT3" (effects (font (size 1.27 1.27))))
          (number "8" (effects (font (size 1.27 1.27))))
        )
      )
      (symbol "RFFC5072_1_0"
        (pin no_connect line (at 12.7 -12.7 180) (length 2.54) hide
          (name "NC" (effects (font (size 1.27 1.27))))
          (number "11" (effects (font (size 1.27 1.27))))
        )
        (pin no_connect line (at -12.7 7.62 0) (length 2.54) hide
          (name "NC" (effects (font (size 1.27 1.27))))
          (number "13" (effects (font (size 1.27 1.27))))
        )
        (pin no_connect line (at -12.7 5.08 0) (length 2.54) hide
          (name "NC" (effects (font (size 1.27 1.27))))
          (number "14" (effects (font (size 1.27 1.27))))
        )
        (pin no_connect line (at 12.7 5.08 180) (length 2.54) hide
          (name "NC" (effects (font (size 1.27 1.27))))
          (number "17" (effects (font (size 1.27 1.27))))
        )
        (pin no_connect line (at 12.7 7.62 180) (length 2.54) hide
          (name "NC" (effects (font (size 1.27 1.27))))
          (number "18" (effects (font (size 1.27 1.27))))
        )
        (pin no_connect line (at 12.7 -10.16 180) (length 2.54) hide
          (name "NC" (effects (font (size 1.27 1.27))))
          (number "20" (effects (font (size 1.27 1.27))))
        )
        (pin no_connect line (at 12.7 -7.62 180) (length 2.54) hide
          (name "NC" (effects (font (size 1.27 1.27))))
          (number "21" (effects (font (size 1.27 1.27))))
        )
        (pin input line (at -15.24 -15.24 0) (length 2.54)
          (name "~{RESET}" (effects (font (size 1.27 1.27))))
          (number "29" (effects (font (size 1.27 1.27))))
        )
        (pin input line (at -15.24 -17.78 0) (length 2.54)
          (name "~{EN}" (effects (font (size 1.27 1.27))))
          (number "30" (effects (font (size 1.27 1.27))))
        )
        (pin bidirectional line (at -15.24 -10.16 0) (length 2.54)
          (name "MODE/GPO6" (effects (font (size 1.27 1.27))))
          (number "9" (effects (font (size 1.27 1.27))))
        )
      )
      (symbol "RFFC5072_1_1"
        (rectangle (start -12.7 25.4) (end 12.7 -25.4)
          (stroke (width 0.254) (type default))
          (fill (type background))
        )
      )
    )
  )

  (junction (at 194.31 59.69) (diameter 0) (color 0 0 0 0)
    (uuid 09179a42-f60c-449f-a9c4-82a77027aca0)
  )
  (junction (at 115.57 152.4) (diameter 0) (color 0 0 0 0)
    (uuid 12920b0c-7fbf-457f-93b9-b4835ba6d9cc)
  )
  (junction (at 208.28 59.69) (diameter 0) (color 0 0 0 0)
    (uuid 1418a79c-f374-43f4-8fcb-936d807b4289)
  )
  (junction (at 110.49 113.03) (diameter 0) (color 0 0 0 0)
    (uuid 279d11bf-bca9-4322-926a-d3db69c8be5a)
  )
  (junction (at 102.87 160.02) (diameter 0) (color 0 0 0 0)
    (uuid 2a94e8a1-3d55-4a21-9f59-0a1151d2dcc7)
  )
  (junction (at 102.87 152.4) (diameter 0) (color 0 0 0 0)
    (uuid 3b8cffa3-5028-4042-bc30-308ac90e088f)
  )
  (junction (at 121.92 113.03) (diameter 0) (color 0 0 0 0)
    (uuid 42c73c85-693a-4844-87b4-a57d4f83802d)
  )
  (junction (at 110.49 74.93) (diameter 0) (color 0 0 0 0)
    (uuid 4542127d-49f6-48ea-a193-6b3e5822ff6a)
  )
  (junction (at 102.87 115.57) (diameter 0) (color 0 0 0 0)
    (uuid 55bf666b-a08d-47e9-9e2b-dd9b5aca7eee)
  )
  (junction (at 208.28 80.01) (diameter 0) (color 0 0 0 0)
    (uuid 65909424-d208-4153-8adb-f4aad123d421)
  )
  (junction (at 115.57 160.02) (diameter 0) (color 0 0 0 0)
    (uuid 65c6e72b-ba19-4b13-b929-e08d1e5c0e53)
  )
  (junction (at 102.87 74.93) (diameter 0) (color 0 0 0 0)
    (uuid 6657d63f-6191-4baf-9da2-3205e958d63c)
  )
  (junction (at 184.15 59.69) (diameter 0) (color 0 0 0 0)
    (uuid 70ea654e-3e42-44bd-9152-979aafaa0dbb)
  )
  (junction (at 137.16 105.41) (diameter 0) (color 0 0 0 0)
    (uuid 752251f9-4465-470b-bb9e-caa0ab9af22d)
  )
  (junction (at 106.68 118.11) (diameter 0) (color 0 0 0 0)
    (uuid 75c4e77e-26fa-42ca-a79b-9da3e3911a7c)
  )
  (junction (at 99.06 120.65) (diameter 0) (color 0 0 0 0)
    (uuid 791703dd-342d-42d9-8fb3-94f281da3338)
  )
  (junction (at 194.31 113.03) (diameter 0) (color 0 0 0 0)
    (uuid 7c4587a7-496e-4819-a817-7802751cf9ca)
  )
  (junction (at 139.7 77.47) (diameter 0) (color 0 0 0 0)
    (uuid 8b310bd4-37bd-4ff9-9d28-f9552459bb0b)
  )
  (junction (at 204.47 59.69) (diameter 0) (color 0 0 0 0)
    (uuid a231b69f-e447-4b2a-9581-9c41ce01d283)
  )
  (junction (at 129.54 107.95) (diameter 0) (color 0 0 0 0)
    (uuid b97f9368-52f2-4f88-99f1-7526313ab03a)
  )
  (junction (at 181.61 113.03) (diameter 0) (color 0 0 0 0)
    (uuid d9bf75fa-ee52-4cac-9ea3-e213937361ff)
  )
  (junction (at 139.7 74.93) (diameter 0) (color 0 0 0 0)
    (uuid f22d8f61-d7d1-4436-8af9-a42366223ad5)
  )
  (junction (at 172.72 120.65) (diameter 0) (color 0 0 0 0)
    (uuid f25d7189-5713-4442-9b14-df26b9faa652)
  )
  (junction (at 114.3 115.57) (diameter 0) (color 0 0 0 0)
    (uuid fc3b6dd0-d055-41da-8e38-de3fb700a8bb)
  )

  (no_connect (at 171.45 100.33) (uuid 460b4c56-7441-4bfd-b45b-f17eef5e865b))
  (no_connect (at 140.97 97.79) (uuid 681f340a-d7b8-4152-af7d-9c163c7b08f2))
  (no_connect (at 140.97 95.25) (uuid 92010369-0db6-4ac3-a552-3f2235ce79f2))
  (no_connect (at 171.45 102.87) (uuid e8b42921-5b96-4737-a125-c3a17e582451))

  (bus_entry (at 77.47 118.11) (size 2.54 2.54)
    (stroke (width 0) (type default))
    (uuid 229e1973-4f92-4c2e-b645-31633843237a)
  )
  (bus_entry (at 77.47 102.87) (size 2.54 2.54)
    (stroke (width 0) (type default))
    (uuid 31d9d2f4-98d4-4576-adbf-d3506bf21235)
  )
  (bus_entry (at 77.47 100.33) (size 2.54 2.54)
    (stroke (width 0) (type default))
    (uuid 573db124-fb07-487f-bb93-12e482311a54)
  )
  (bus_entry (at 77.47 97.79) (size 2.54 2.54)
    (stroke (width 0) (type default))
    (uuid 97d8bc8c-1045-4832-b1ff-2b77f2528e04)
  )
  (bus_entry (at 77.47 105.41) (size 2.54 2.54)
    (stroke (width 0) (type default))
    (uuid 9cbb4d91-269d-414c-ba88-773ecb9d546f)
  )
  (bus_entry (at 77.47 110.49) (size 2.54 2.54)
    (stroke (width 0) (type default))
    (uuid b96ca120-34f6-4668-8cf3-16a453319d18)
  )
  (bus_entry (at 77.47 115.57) (size 2.54 2.54)
    (stroke (width 0) (type default))
    (uuid dae9a7fa-cabe-43e2-9979-ab122993d5cd)
  )
  (bus_entry (at 77.47 113.03) (size 2.54 2.54)
    (stroke (width 0) (type default))
    (uuid e9452cd1-1e89-4643-9361-8449d4ce4f33)
  )

  (wire (pts (xy 102.87 160.02) (xy 115.57 160.02))
    (stroke (width 0) (type default))
    (uuid 0065de50-1665-46c8-b8f0-b2d09a174be7)
  )
  (wire (pts (xy 137.16 105.41) (xy 140.97 105.41))
    (stroke (width 0) (type default))
    (uuid 01e47ef2-19ff-4549-a737-bdc1cfa0751d)
  )
  (wire (pts (xy 171.45 85.09) (xy 172.72 85.09))
    (stroke (width 0) (type default))
    (uuid 025c5673-49b8-4db3-85b5-40a64c411de8)
  )
  (wire (pts (xy 99.06 129.54) (xy 99.06 130.81))
    (stroke (width 0) (type default))
    (uuid 135d2726-318e-4109-8746-da23dd6a48bc)
  )
  (wire (pts (xy 80.01 115.57) (xy 102.87 115.57))
    (stroke (width 0) (type default))
    (uuid 140d4c0b-01da-41be-8198-c126ca489111)
  )
  (wire (pts (xy 171.45 113.03) (xy 181.61 113.03))
    (stroke (width 0) (type default))
    (uuid 15dda657-f61e-4bc6-82fd-4b936826b2ff)
  )
  (wire (pts (xy 102.87 74.93) (xy 110.49 74.93))
    (stroke (width 0) (type default))
    (uuid 1658c7da-2a95-4e3b-bea9-b039309bfdea)
  )
  (wire (pts (xy 101.6 74.93) (xy 102.87 74.93))
    (stroke (width 0) (type default))
    (uuid 1ac7debf-b12a-40b9-80cc-edb30d83d81b)
  )
  (wire (pts (xy 137.16 129.54) (xy 137.16 130.81))
    (stroke (width 0) (type default))
    (uuid 2342a605-1bd8-4d27-bf38-f764d6047309)
  )
  (wire (pts (xy 115.57 160.02) (xy 128.27 160.02))
    (stroke (width 0) (type default))
    (uuid 24a3d0f9-d5af-45e2-9b5c-be212d11f347)
  )
  (wire (pts (xy 129.54 107.95) (xy 140.97 107.95))
    (stroke (width 0) (type default))
    (uuid 26fb42e5-7fd5-4f97-8179-fcfd1eab5db3)
  )
  (wire (pts (xy 172.72 118.11) (xy 172.72 120.65))
    (stroke (width 0) (type default))
    (uuid 2dab621d-5898-4bf3-a5c9-7abf0a681909)
  )
  (wire (pts (xy 106.68 118.11) (xy 140.97 118.11))
    (stroke (width 0) (type default))
    (uuid 2e00c6dd-6e6a-4f5d-9ad2-3a0257c2df8a)
  )
  (wire (pts (xy 208.28 59.69) (xy 208.28 60.96))
    (stroke (width 0) (type default))
    (uuid 2e2d6466-8c44-4026-93a4-852452d96e55)
  )
  (wire (pts (xy 106.68 118.11) (xy 106.68 121.92))
    (stroke (width 0) (type default))
    (uuid 319a49a6-3583-48cb-8ea5-0456b80e6d94)
  )
  (wire (pts (xy 194.31 113.03) (xy 194.31 114.3))
    (stroke (width 0) (type default))
    (uuid 31d2551d-78da-457a-99b0-9d842f58b93a)
  )
  (wire (pts (xy 80.01 105.41) (xy 137.16 105.41))
    (stroke (width 0) (type default))
    (uuid 381f7db2-acc0-473c-ab8a-0beb2885aef8)
  )
  (wire (pts (xy 80.01 120.65) (xy 99.06 120.65))
    (stroke (width 0) (type default))
    (uuid 389043ae-ccd0-433b-987a-93be2b0bc89a)
  )
  (bus (pts (xy 77.47 115.57) (xy 77.47 113.03))
    (stroke (width 0) (type default))
    (uuid 3e8cfcb8-93cd-4258-b5e7-bd8f69a8feaf)
  )
  (bus (pts (xy 77.47 118.11) (xy 77.47 115.57))
    (stroke (width 0) (type default))
    (uuid 3ef5f46f-c845-41d0-97aa-0759aafa1a06)
  )

  (wire (pts (xy 181.61 121.92) (xy 181.61 123.19))
    (stroke (width 0) (type default))
    (uuid 40627b4d-c0fd-487d-aeae-4db63fa82df9)
  )
  (wire (pts (xy 186.69 97.79) (xy 187.96 97.79))
    (stroke (width 0) (type default))
    (uuid 409b095e-36ec-48d9-a4ee-cb0089330e2d)
  )
  (wire (pts (xy 101.6 152.4) (xy 102.87 152.4))
    (stroke (width 0) (type default))
    (uuid 420acfab-6248-45f8-8d86-eeb8bca8eb04)
  )
  (wire (pts (xy 106.68 129.54) (xy 106.68 130.81))
    (stroke (width 0) (type default))
    (uuid 465b3c87-43e0-4a32-855e-371f7e9afd8b)
  )
  (wire (pts (xy 114.3 115.57) (xy 114.3 121.92))
    (stroke (width 0) (type default))
    (uuid 4ac7f539-df11-4a2a-ab42-aea617f22227)
  )
  (wire (pts (xy 80.01 113.03) (xy 110.49 113.03))
    (stroke (width 0) (type default))
    (uuid 4d24c06a-3e00-47e6-9173-f5e58e523d22)
  )
  (wire (pts (xy 171.45 77.47) (xy 204.47 77.47))
    (stroke (width 0) (type default))
    (uuid 4e1dba3f-6f3a-4ae7-8697-48a7c80b2ccf)
  )
  (wire (pts (xy 194.31 59.69) (xy 195.58 59.69))
    (stroke (width 0) (type default))
    (uuid 51ace1c9-bef4-4dfa-9b60-b159a9e9f79c)
  )
  (wire (pts (xy 194.31 113.03) (xy 196.85 113.03))
    (stroke (width 0) (type default))
    (uuid 593a9412-7414-4d24-a1a7-dff1735b3e69)
  )
  (wire (pts (xy 80.01 107.95) (xy 129.54 107.95))
    (stroke (width 0) (type default))
    (uuid 5a09f253-befd-4203-98f8-fc5f6b377fcb)
  )
  (wire (pts (xy 99.06 120.65) (xy 140.97 120.65))
    (stroke (width 0) (type default))
    (uuid 5c654bf6-cb90-4853-b79d-9bfea25e8e82)
  )
  (wire (pts (xy 215.9 60.96) (xy 215.9 59.69))
    (stroke (width 0) (type default))
    (uuid 5cc4a1f6-36e3-435c-8cbb-baf968a5a008)
  )
  (wire (pts (xy 171.45 97.79) (xy 179.07 97.79))
    (stroke (width 0) (type default))
    (uuid 5d639881-1eb8-404c-a1a9-ec9f70798cc3)
  )
  (wire (pts (xy 187.96 97.79) (xy 187.96 99.06))
    (stroke (width 0) (type default))
    (uuid 5d727c23-c0f0-455d-86da-af248b4ed2eb)
  )
  (wire (pts (xy 180.34 74.93) (xy 171.45 74.93))
    (stroke (width 0) (type default))
    (uuid 5e93550d-79ab-498c-9643-8b51e9247feb)
  )
  (wire (pts (xy 114.3 115.57) (xy 140.97 115.57))
    (stroke (width 0) (type default))
    (uuid 62d19ab5-6510-4177-a33f-a4fa07aad81d)
  )
  (wire (pts (xy 204.47 59.69) (xy 208.28 59.69))
    (stroke (width 0) (type default))
    (uuid 66865d19-e703-4743-913b-c9309c05c448)
  )
  (wire (pts (xy 139.7 74.93) (xy 140.97 74.93))
    (stroke (width 0) (type default))
    (uuid 670e1165-478e-47fe-917c-ddd57aa4c7b0)
  )
  (wire (pts (xy 171.45 118.11) (xy 172.72 118.11))
    (stroke (width 0) (type default))
    (uuid 68f870f7-83bb-4379-b558-d77f92750049)
  )
  (wire (pts (xy 172.72 120.65) (xy 172.72 121.92))
    (stroke (width 0) (type default))
    (uuid 6acf3c36-9a3e-4898-bc14-f078bf189bdc)
  )
  (wire (pts (xy 110.49 74.93) (xy 139.7 74.93))
    (stroke (width 0) (type default))
    (uuid 6e801f7c-5592-416f-94f1-ca4a7b3e6107)
  )
  (wire (pts (xy 102.87 152.4) (xy 115.57 152.4))
    (stroke (width 0) (type default))
    (uuid 70f0cf6d-be82-4a0c-9d29-d1cc6fa625cf)
  )
  (wire (pts (xy 129.54 107.95) (xy 129.54 121.92))
    (stroke (width 0) (type default))
    (uuid 73cac2d0-e769-4499-9e36-ac393abe6d31)
  )
  (wire (pts (xy 139.7 77.47) (xy 140.97 77.47))
    (stroke (width 0) (type default))
    (uuid 7754429d-d4c6-47c5-8153-bc663180ff69)
  )
  (wire (pts (xy 137.16 105.41) (xy 137.16 121.92))
    (stroke (width 0) (type default))
    (uuid 788ee9cc-6f3a-4de3-a1cc-09a4d3357f41)
  )
  (wire (pts (xy 208.28 68.58) (xy 208.28 80.01))
    (stroke (width 0) (type default))
    (uuid 7ce32db3-a210-4ad8-bd1d-96763a24f852)
  )
  (wire (pts (xy 110.49 99.06) (xy 110.49 113.03))
    (stroke (width 0) (type default))
    (uuid 811e73a9-06a0-4a55-ba4a-7776114176d5)
  )
  (wire (pts (xy 114.3 129.54) (xy 114.3 130.81))
    (stroke (width 0) (type default))
    (uuid 81712715-ed34-41ca-be0c-2958761b11bc)
  )
  (wire (pts (xy 139.7 77.47) (xy 139.7 80.01))
    (stroke (width 0) (type default))
    (uuid 8402ab7a-db46-4bd4-914a-486c887f7be1)
  )
  (wire (pts (xy 129.54 129.54) (xy 129.54 130.81))
    (stroke (width 0) (type default))
    (uuid 86edd5df-163b-4eba-bd45-f119d058c510)
  )
  (wire (pts (xy 194.31 121.92) (xy 194.31 123.19))
    (stroke (width 0) (type default))
    (uuid 870fa64e-24a7-4fa2-9277-2a47d2591e5a)
  )
  (wire (pts (xy 139.7 74.93) (xy 139.7 77.47))
    (stroke (width 0) (type default))
    (uuid 88fe68d6-689b-4531-a60a-6f288c735440)
  )
  (wire (pts (xy 102.87 160.02) (xy 102.87 161.29))
    (stroke (width 0) (type default))
    (uuid 8d3adf42-6175-460e-bf8c-349287ed7b59)
  )
  (wire (pts (xy 215.9 68.58) (xy 215.9 71.12))
    (stroke (width 0) (type default))
    (uuid 90daa70c-226b-4121-ac15-9a1b1fe280b2)
  )
  (wire (pts (xy 121.92 129.54) (xy 121.92 130.81))
    (stroke (width 0) (type default))
    (uuid 9220e626-82ae-4e58-b093-bf9aca912168)
  )
  (wire (pts (xy 194.31 59.69) (xy 194.31 60.96))
    (stroke (width 0) (type default))
    (uuid 92c67383-df37-4c65-9c03-c0c492c14765)
  )
  (wire (pts (xy 193.04 59.69) (xy 194.31 59.69))
    (stroke (width 0) (type default))
    (uuid 9498e4b1-701d-4733-9795-d021d26fa700)
  )
  (wire (pts (xy 180.34 59.69) (xy 180.34 74.93))
    (stroke (width 0) (type default))
    (uuid 9601cd8b-0fd0-4694-9878-a240d700c0d3)
  )
  (wire (pts (xy 80.01 100.33) (xy 140.97 100.33))
    (stroke (width 0) (type default))
    (uuid 961cc8c0-fe0c-49f2-abe7-f17cecb49e84)
  )
  (wire (pts (xy 110.49 113.03) (xy 121.92 113.03))
    (stroke (width 0) (type default))
    (uuid 96db6c2d-4549-4901-8ab5-e9f764814561)
  )
  (wire (pts (xy 121.92 113.03) (xy 140.97 113.03))
    (stroke (width 0) (type default))
    (uuid 9e13a7c8-33e7-486d-8f69-8c5881c8fe15)
  )
  (wire (pts (xy 80.01 102.87) (xy 140.97 102.87))
    (stroke (width 0) (type default))
    (uuid 9e8e567c-3f3d-4f0b-960d-54041709b04a)
  )
  (wire (pts (xy 102.87 115.57) (xy 114.3 115.57))
    (stroke (width 0) (type default))
    (uuid 9fd591e5-4e31-4777-afc8-de167014d40a)
  )
  (wire (pts (xy 139.7 85.09) (xy 140.97 85.09))
    (stroke (width 0) (type default))
    (uuid a0a38da1-f028-4e54-a21c-4d9eaf7f3c9b)
  )
  (wire (pts (xy 110.49 74.93) (xy 110.49 91.44))
    (stroke (width 0) (type default))
    (uuid a0aa9d8f-d348-446c-9b73-2a9445eca510)
  )
  (wire (pts (xy 194.31 68.58) (xy 194.31 69.85))
    (stroke (width 0) (type default))
    (uuid a361312c-ca1d-44a0-b86c-023b86f3616d)
  )
  (bus (pts (xy 77.47 113.03) (xy 77.47 110.49))
    (stroke (width 0) (type default))
    (uuid a962316c-76ce-475d-a361-0904f18835b2)
  )

  (wire (pts (xy 215.9 59.69) (xy 208.28 59.69))
    (stroke (width 0) (type default))
    (uuid a9eed213-f505-44b6-a90a-620660b5fdb3)
  )
  (wire (pts (xy 102.87 99.06) (xy 102.87 115.57))
    (stroke (width 0) (type default))
    (uuid ac93bb4f-882a-4f08-a39e-fedd7dbaf19b)
  )
  (wire (pts (xy 139.7 87.63) (xy 140.97 87.63))
    (stroke (width 0) (type default))
    (uuid af460ecd-b9a4-4a7a-b9e1-358907d39829)
  )
  (wire (pts (xy 184.15 68.58) (xy 184.15 69.85))
    (stroke (width 0) (type default))
    (uuid af625576-8201-413a-ae22-9ba2ee46b42b)
  )
  (bus (pts (xy 77.47 110.49) (xy 77.47 105.41))
    (stroke (width 0) (type default))
    (uuid b37572c4-9178-41e6-b1ce-07e736fe19d3)
  )

  (wire (pts (xy 185.42 59.69) (xy 184.15 59.69))
    (stroke (width 0) (type default))
    (uuid b41aeb13-62d6-4134-83a8-19d96dbae55f)
  )
  (wire (pts (xy 204.47 59.69) (xy 203.2 59.69))
    (stroke (width 0) (type default))
    (uuid b58d5711-a189-45b3-b496-cd9cd7b7a51c)
  )
  (wire (pts (xy 181.61 114.3) (xy 181.61 113.03))
    (stroke (width 0) (type default))
    (uuid c707b2f6-ae60-429a-a6df-3a6926029b69)
  )
  (wire (pts (xy 102.87 74.93) (xy 102.87 91.44))
    (stroke (width 0) (type default))
    (uuid c8df4324-3283-4900-907c-e411ae4b1f74)
  )
  (wire (pts (xy 190.5 113.03) (xy 194.31 113.03))
    (stroke (width 0) (type default))
    (uuid cb535c62-46cf-4fce-b527-6320eaa4e5d0)
  )
  (wire (pts (xy 181.61 113.03) (xy 182.88 113.03))
    (stroke (width 0) (type default))
    (uuid d19a80e7-9391-48b9-8aa5-831d4559910d)
  )
  (bus (pts (xy 77.47 102.87) (xy 77.47 100.33))
    (stroke (width 0) (type default))
    (uuid d19f10c3-4cce-4f9d-9e24-ad56849d42e6)
  )
  (bus (pts (xy 77.47 100.33) (xy 77.47 97.79))
    (stroke (width 0) (type default))
    (uuid d53f03eb-e1ff-4823-8c2e-b956e7479e96)
  )

  (wire (pts (xy 208.28 80.01) (xy 215.9 80.01))
    (stroke (width 0) (type default))
    (uuid d5b8260e-c9fb-4176-9219-b97f6c5f150c)
  )
  (wire (pts (xy 171.45 120.65) (xy 172.72 120.65))
    (stroke (width 0) (type default))
    (uuid d9b4010e-6893-4256-9ec9-c01859673092)
  )
  (wire (pts (xy 139.7 80.01) (xy 140.97 80.01))
    (stroke (width 0) (type default))
    (uuid d9dd2505-4e02-4796-a404-58c4f3a2a22b)
  )
  (wire (pts (xy 99.06 120.65) (xy 99.06 121.92))
    (stroke (width 0) (type default))
    (uuid d9f044f9-877b-4bb4-8e5d-d4f2a2cf0025)
  )
  (wire (pts (xy 184.15 59.69) (xy 180.34 59.69))
    (stroke (width 0) (type default))
    (uuid e6cb5956-6449-4866-b6e3-0f15e6638905)
  )
  (wire (pts (xy 208.28 80.01) (xy 171.45 80.01))
    (stroke (width 0) (type default))
    (uuid ea71c5bb-1c03-4832-9e14-74fe592ca9e4)
  )
  (wire (pts (xy 184.15 59.69) (xy 184.15 60.96))
    (stroke (width 0) (type default))
    (uuid ec0f17ab-2eab-489a-a29b-e476a6cab655)
  )
  (wire (pts (xy 204.47 77.47) (xy 204.47 59.69))
    (stroke (width 0) (type default))
    (uuid edf1e0f8-2e80-4557-bd2c-1053d74eda8e)
  )
  (wire (pts (xy 80.01 118.11) (xy 106.68 118.11))
    (stroke (width 0) (type default))
    (uuid ef15eb57-6b0b-444e-902a-6efb3969f2e5)
  )
  (bus (pts (xy 76.2 97.79) (xy 77.47 97.79))
    (stroke (width 0) (type default))
    (uuid f0a62bf4-91f3-498e-bdb7-36c04f5330f4)
  )

  (wire (pts (xy 115.57 152.4) (xy 128.27 152.4))
    (stroke (width 0) (type default))
    (uuid f557f623-9aeb-48be-aaae-6bd9c8d3c2f2)
  )
  (wire (pts (xy 121.92 113.03) (xy 121.92 121.92))
    (stroke (width 0) (type default))
    (uuid f6e02702-cd23-49c8-b2fe-e21ef1fa5c24)
  )
  (bus (pts (xy 77.47 105.41) (xy 77.47 102.87))
    (stroke (width 0) (type default))
    (uuid faa4a490-0fe5-41ee-b259-44584c12441e)
  )

  (wire (pts (xy 171.45 87.63) (xy 172.72 87.63))
    (stroke (width 0) (type default))
    (uuid fb3d6efc-06d0-4590-947e-d1ec00fc4270)
  )
  (wire (pts (xy 215.9 80.01) (xy 215.9 78.74))
    (stroke (width 0) (type default))
    (uuid fcd0a234-1363-4542-be47-d88ec511f9ee)
  )

  (text "loop filter" (at 194.31 50.8 0)
    (effects (font (size 1.27 1.27)) (justify left bottom))
    (uuid 1b7231e2-6bdb-4161-be4f-1718ffae249a)
  )
  (text "REF_IN\n500-1500 mVp-p\n800 mVp-p typical\n40 MHz (10 to 104 MHz allowed)"
    (at 177.8 139.7 0)
    (effects (font (size 1.27 1.27)) (justify left bottom))
    (uuid 1dcd394f-793f-4e1c-b305-5cddfcd8bea3)
  )
  (text "VDD: 2.7 to 3.3 V" (at 138.43 60.96 0)
    (effects (font (size 1.27 1.27)) (justify left bottom))
    (uuid 4a59ab9e-d4ff-41fa-9095-1016a6acd07b)
  )

  (label "MIX_CTRL.FM" (at 81.28 100.33 0) (fields_autoplaced)
    (effects (font (size 1.27 1.27)) (justify left bottom))
    (uuid 12d0fb1f-bc64-4e40-8f5b-10a99d802c75)
  )
  (label "MIX_CTRL.ENBL" (at 81.28 105.41 0) (fields_autoplaced)
    (effects (font (size 1.27 1.27)) (justify left bottom))
    (uuid 14a118f0-0af4-4998-bbfc-1e21fbcd8b84)
  )
  (label "MIX_CTRL.~{RESET}" (at 81.28 113.03 0) (fields_autoplaced)
    (effects (font (size 1.27 1.27)) (justify left bottom))
    (uuid 1f52c5b1-aec2-41fa-801a-0596748a6440)
  )
  (label "MIX_CTRL.~{EN}" (at 81.28 115.57 0) (fields_autoplaced)
    (effects (font (size 1.27 1.27)) (justify left bottom))
    (uuid 2bbd1d32-9fa2-4b19-ba8b-6b1661c24323)
  )
  (label "REXT" (at 172.72 97.79 0) (fields_autoplaced)
    (effects (font (size 1.27 1.27)) (justify left bottom))
    (uuid 34f9719a-3915-4a5b-a818-9b185f51d150)
  )
  (label "REF_IN" (at 172.72 113.03 0) (fields_autoplaced)
    (effects (font (size 1.27 1.27)) (justify left bottom))
    (uuid 42147e35-346c-4b50-8810-21265f50c4c4)
  )
  (label "MIX_CTRL.SCLK" (at 81.28 118.11 0) (fields_autoplaced)
    (effects (font (size 1.27 1.27)) (justify left bottom))
    (uuid 440adc04-ef0d-4191-a3c8-4b949a892ef0)
  )
  (label "LFILT2" (at 172.72 77.47 0) (fields_autoplaced)
    (effects (font (size 1.27 1.27)) (justify left bottom))
    (uuid 793816fa-c88e-4b9e-8d48-f59f390515ae)
  )
  (label "MIX_CTRL.LD" (at 81.28 102.87 0) (fields_autoplaced)
    (effects (font (size 1.27 1.27)) (justify left bottom))
    (uuid 8d9d111b-1ba1-4415-8dd7-52d2c9ff047f)
  )
  (label "MIX_CTRL.MODE" (at 81.28 107.95 0) (fields_autoplaced)
    (effects (font (size 1.27 1.27)) (justify left bottom))
    (uuid b450f82c-d8e0-4af8-a2c7-0ddf302fc3a9)
  )
  (label "MIX_CTRL.SDATA" (at 81.28 120.65 0) (fields_autoplaced)
    (effects (font (size 1.27 1.27)) (justify left bottom))
    (uuid c33cc9fb-940e-4e91-92ec-303502eb9812)
  )
  (label "LFILT3" (at 172.72 74.93 0) (fields_autoplaced)
    (effects (font (size 1.27 1.27)) (justify left bottom))
    (uuid e817953d-79f6-4dd7-8349-9fa8e63fafc7)
  )
  (label "LFILT1" (at 172.72 80.01 0) (fields_autoplaced)
    (effects (font (size 1.27 1.27)) (justify left bottom))
    (uuid fc96be32-1897-4b66-b0fb-c23f823de0ea)
  )

  (hierarchical_label "3V3" (shape input) (at 101.6 152.4 180) (fields_autoplaced)
    (effects (font (size 1.27 1.27)) (justify right))
    (uuid 543dc4cf-ce84-4bb9-adf9-00bde8022221)
  )
  (hierarchical_label "3V3" (shape input) (at 101.6 74.93 180) (fields_autoplaced)
    (effects (font (size 1.27 1.27)) (justify right))
    (uuid 74551e5e-c562-469f-9278-38b4e8a9093a)
  )
  (hierarchical_label "MIX_OUT+" (shape output) (at 172.72 85.09 0) (fields_autoplaced)
    (effects (font (size 1.27 1.27)) (justify left))
    (uuid 893be898-30eb-4657-8637-745f020362ad)
  )
  (hierarchical_label "MIX_IN-" (shape input) (at 139.7 87.63 180) (fields_autoplaced)
    (effects (font (size 1.27 1.27)) (justify right))
    (uuid 8ec1cc45-f284-4672-92de-ce2c3d8c0cfa)
  )
  (hierarchical_label "MIX_IN+" (shape input) (at 139.7 85.09 180) (fields_autoplaced)
    (effects (font (size 1.27 1.27)) (justify right))
    (uuid 972d6607-edf1-4092-9fce-6407e4d57f7d)
  )
  (hierarchical_label "MIX_CTRL{RFFC5072}" (shape bidirectional) (at 76.2 97.79 180) (fields_autoplaced)
    (effects (font (size 1.27 1.27)) (justify right))
    (uuid 9ccd7e48-2312-4e7a-a1f0-c1b252b3c944)
  )
  (hierarchical_label "MIX_OUT-" (shape output) (at 172.72 87.63 0) (fields_autoplaced)
    (effects (font (size 1.27 1.27)) (justify left))
    (uuid 9ffe3498-86a8-4efa-ba98-1bff0574e87a)
  )
  (hierarchical_label "MIX_CLK" (shape input) (at 196.85 113.03 0) (fields_autoplaced)
    (effects (font (size 1.27 1.27)) (justify left))
    (uuid af953acf-5ebd-4354-ae16-d6905a8a1474)
  )

  (symbol (lib_id "power:GND") (at 129.54 130.81 0) (unit 1)
    (in_bom yes) (on_board yes) (dnp no) (fields_autoplaced)
    (uuid 15d870cc-6602-4f95-a567-f2dc8d102d69)
    (property "Reference" "#PWR0234" (at 129.54 137.16 0)
      (effects (font (size 1.27 1.27)) hide)
    )
    (property "Value" "GND" (at 129.54 135.89 0)
      (effects (font (size 1.27 1.27)))
    )
    (property "Footprint" "" (at 129.54 130.81 0)
      (effects (font (size 1.27 1.27)) hide)
    )
    (property "Datasheet" "" (at 129.54 130.81 0)
      (effects (font (size 1.27 1.27)) hide)
    )
    (pin "1" (uuid d95a3ff2-a7f6-4ffe-84e8-414567893ccb))
    (instances
      (project "mainboard"
        (path "/fb621148-8145-4217-9712-738e1b5a4823/4ec621be-184d-4855-a96d-f6fa2a788a77/90da2209-0e18-4bd4-8ef6-3d6f9ed46ff8/0055874f-f9a7-4137-a3e7-27f851a5c4da"
          (reference "#PWR0234") (unit 1)
        )
        (path "/fb621148-8145-4217-9712-738e1b5a4823/4ec621be-184d-4855-a96d-f6fa2a788a77/6aa278c8-8281-4438-81b7-90e6d7ac4f12/d06cb93b-ac01-4845-848b-3920cf373c92"
          (reference "#PWR0255") (unit 1)
        )
      )
    )
  )

  (symbol (lib_id "Device:C") (at 102.87 156.21 180) (unit 1)
    (in_bom yes) (on_board yes) (dnp no) (fields_autoplaced)
    (uuid 18022de4-6d6b-4cb9-a194-cbb880321660)
    (property "Reference" "C186" (at 106.68 154.94 0)
      (effects (font (size 1.27 1.27)) (justify right))
    )
    (property "Value" "1uF" (at 106.68 157.48 0)
      (effects (font (size 1.27 1.27)) (justify right))
    )
    (property "Footprint" "Capacitor_SMD:C_0201_0603Metric" (at 101.9048 152.4 0)
      (effects (font (size 1.27 1.27)) hide)
    )
    (property "Datasheet" "~" (at 102.87 156.21 0)
      (effects (font (size 1.27 1.27)) hide)
    )
    (property "Description" "CAP CER 1UF 10V X5R 0201" (at 102.87 156.21 0)
      (effects (font (size 1.27 1.27)) hide)
    )
    (property "Manufacturer" "Murata" (at 102.87 156.21 0)
      (effects (font (size 1.27 1.27)) hide)
    )
    (property "Part Number" "GRM033R61A105ME44D" (at 102.87 156.21 0)
      (effects (font (size 1.27 1.27)) hide)
    )
    (property "Substitution" "GRM033R61A105ME44*, GRM033R61C105ME15*, Samsung CL03A105MO3NRN*" (at 102.87 156.21 0)
      (effects (font (size 1.27 1.27)) hide)
    )
    (pin "1" (uuid a3548c18-2dc4-4d20-803b-3178915eab33))
    (pin "2" (uuid 556ae136-eb6a-420a-9ee1-14c5c566661c))
    (instances
      (project "mainboard"
        (path "/fb621148-8145-4217-9712-738e1b5a4823/4ec621be-184d-4855-a96d-f6fa2a788a77/90da2209-0e18-4bd4-8ef6-3d6f9ed46ff8/0055874f-f9a7-4137-a3e7-27f851a5c4da"
          (reference "C186") (unit 1)
        )
        (path "/fb621148-8145-4217-9712-738e1b5a4823/4ec621be-184d-4855-a96d-f6fa2a788a77/6aa278c8-8281-4438-81b7-90e6d7ac4f12/d06cb93b-ac01-4845-848b-3920cf373c92"
          (reference "C187") (unit 1)
        )
      )
    )
  )

  (symbol (lib_id "power:GND") (at 194.31 69.85 0) (unit 1)
    (in_bom yes) (on_board yes) (dnp no) (fields_autoplaced)
    (uuid 25f6e4ea-a738-4d16-9d24-389a9dd5064e)
    (property "Reference" "#PWR0241" (at 194.31 76.2 0)
      (effects (font (size 1.27 1.27)) hide)
    )
    (property "Value" "GND" (at 194.31 74.93 0)
      (effects (font (size 1.27 1.27)))
    )
    (property "Footprint" "" (at 194.31 69.85 0)
      (effects (font (size 1.27 1.27)) hide)
    )
    (property "Datasheet" "" (at 194.31 69.85 0)
      (effects (font (size 1.27 1.27)) hide)
    )
    (pin "1" (uuid ef4fcb34-aa86-4167-945c-41cbc5ae86eb))
    (instances
      (project "mainboard"
        (path "/fb621148-8145-4217-9712-738e1b5a4823/4ec621be-184d-4855-a96d-f6fa2a788a77/90da2209-0e18-4bd4-8ef6-3d6f9ed46ff8/0055874f-f9a7-4137-a3e7-27f851a5c4da"
          (reference "#PWR0241") (unit 1)
        )
        (path "/fb621148-8145-4217-9712-738e1b5a4823/4ec621be-184d-4855-a96d-f6fa2a788a77/6aa278c8-8281-4438-81b7-90e6d7ac4f12/d06cb93b-ac01-4845-848b-3920cf373c92"
          (reference "#PWR0262") (unit 1)
        )
      )
    )
  )

  (symbol (lib_id "Device:R") (at 110.49 95.25 0) (mirror y) (unit 1)
    (in_bom yes) (on_board yes) (dnp no)
    (uuid 2ad41816-ff26-4fb6-89b2-f2e33abeb50f)
    (property "Reference" "R81" (at 108.712 94.107 0)
      (effects (font (size 1.27 1.27)) (justify left))
    )
    (property "Value" "10k" (at 107.95 96.52 0)
      (effects (font (size 1.27 1.27)) (justify left))
    )
    (property "Footprint" "Resistor_SMD:R_0402_1005Metric" (at 112.268 95.25 90)
      (effects (font (size 1.27 1.27)) hide)
    )
    (property "Datasheet" "~" (at 110.49 95.25 0)
      (effects (font (size 1.27 1.27)) hide)
    )
    (property "Part Number" "RC0402JR-0710KL" (at 110.49 95.25 0)
      (effects (font (size 1.27 1.27)) hide)
    )
    (property "Substitution" "any equivalent" (at 110.49 95.25 0)
      (effects (font (size 1.27 1.27)) hide)
    )
    (property "Description" "RES 10K OHM 5% 1/16W 0402" (at 110.49 95.25 0)
      (effects (font (size 1.27 1.27)) hide)
    )
    (property "Manufacturer" "Yageo" (at 110.49 95.25 0)
      (effects (font (size 1.27 1.27)) hide)
    )
    (pin "1" (uuid 628b5cf7-7bcd-483d-864f-ef4129bc741c))
    (pin "2" (uuid 562ff7a5-58db-49b2-9acc-f796283e34be))
    (instances
      (project "mainboard"
        (path "/fb621148-8145-4217-9712-738e1b5a4823/4ec621be-184d-4855-a96d-f6fa2a788a77/90da2209-0e18-4bd4-8ef6-3d6f9ed46ff8/0055874f-f9a7-4137-a3e7-27f851a5c4da"
          (reference "R81") (unit 1)
        )
        (path "/fb621148-8145-4217-9712-738e1b5a4823/4ec621be-184d-4855-a96d-f6fa2a788a77/6aa278c8-8281-4438-81b7-90e6d7ac4f12/d06cb93b-ac01-4845-848b-3920cf373c92"
          (reference "R87") (unit 1)
        )
      )
    )
  )

  (symbol (lib_id "power:GND") (at 114.3 130.81 0) (unit 1)
    (in_bom yes) (on_board yes) (dnp no) (fields_autoplaced)
    (uuid 2f54c743-d147-45f8-be65-7c90255a4418)
    (property "Reference" "#PWR0232" (at 114.3 137.16 0)
      (effects (font (size 1.27 1.27)) hide)
    )
    (property "Value" "GND" (at 114.3 135.89 0)
      (effects (font (size 1.27 1.27)))
    )
    (property "Footprint" "" (at 114.3 130.81 0)
      (effects (font (size 1.27 1.27)) hide)
    )
    (property "Datasheet" "" (at 114.3 130.81 0)
      (effects (font (size 1.27 1.27)) hide)
    )
    (pin "1" (uuid c3c1f11b-69f8-42cd-9097-7d9b4ab3d959))
    (instances
      (project "mainboard"
        (path "/fb621148-8145-4217-9712-738e1b5a4823/4ec621be-184d-4855-a96d-f6fa2a788a77/90da2209-0e18-4bd4-8ef6-3d6f9ed46ff8/0055874f-f9a7-4137-a3e7-27f851a5c4da"
          (reference "#PWR0232") (unit 1)
        )
        (path "/fb621148-8145-4217-9712-738e1b5a4823/4ec621be-184d-4855-a96d-f6fa2a788a77/6aa278c8-8281-4438-81b7-90e6d7ac4f12/d06cb93b-ac01-4845-848b-3920cf373c92"
          (reference "#PWR0253") (unit 1)
        )
      )
    )
  )

  (symbol (lib_id "power:GND") (at 102.87 161.29 0) (unit 1)
    (in_bom yes) (on_board yes) (dnp no) (fields_autoplaced)
    (uuid 3af92017-363e-4dbd-b66b-5e66ad933c0c)
    (property "Reference" "#PWR0130" (at 102.87 167.64 0)
      (effects (font (size 1.27 1.27)) hide)
    )
    (property "Value" "GND" (at 102.87 166.37 0)
      (effects (font (size 1.27 1.27)))
    )
    (property "Footprint" "" (at 102.87 161.29 0)
      (effects (font (size 1.27 1.27)) hide)
    )
    (property "Datasheet" "" (at 102.87 161.29 0)
      (effects (font (size 1.27 1.27)) hide)
    )
    (pin "1" (uuid 9550d443-612d-4365-a0b5-a3a446f9e66e))
    (instances
      (project "mainboard"
        (path "/fb621148-8145-4217-9712-738e1b5a4823/4ec621be-184d-4855-a96d-f6fa2a788a77/90da2209-0e18-4bd4-8ef6-3d6f9ed46ff8/0055874f-f9a7-4137-a3e7-27f851a5c4da"
          (reference "#PWR0130") (unit 1)
        )
        (path "/fb621148-8145-4217-9712-738e1b5a4823/4ec621be-184d-4855-a96d-f6fa2a788a77/6aa278c8-8281-4438-81b7-90e6d7ac4f12/d06cb93b-ac01-4845-848b-3920cf373c92"
          (reference "#PWR0131") (unit 1)
        )
      )
    )
  )

  (symbol (lib_id "Device:C") (at 215.9 64.77 0) (unit 1)
    (in_bom yes) (on_board yes) (dnp no)
    (uuid 3cc64e77-3113-4a6c-83b9-e80b1e4442e1)
    (property "Reference" "C127" (at 217.17 67.31 0)
      (effects (font (size 1.27 1.27)) (justify left))
    )
    (property "Value" "180pF" (at 217.17 69.85 0)
      (effects (font (size 1.27 1.27)) (justify left))
    )
    (property "Footprint" "Capacitor_SMD:C_0201_0603Metric" (at 216.8652 68.58 0)
      (effects (font (size 1.27 1.27)) hide)
    )
    (property "Datasheet" "~" (at 215.9 64.77 0)
      (effects (font (size 1.27 1.27)) hide)
    )
    (property "Description" "CAP CER 180PF 50V C0G/NP0 0201" (at 215.9 64.77 0)
      (effects (font (size 1.27 1.27)) hide)
    )
    (property "Manufacturer" "Murata" (at 215.9 64.77 0)
      (effects (font (size 1.27 1.27)) hide)
    )
    (property "Part Number" "GRM0335C1H181JA01D" (at 215.9 64.77 0)
      (effects (font (size 1.27 1.27)) hide)
    )
    (property "Substitution" "GRM0335C1H181JA01*" (at 215.9 64.77 0)
      (effects (font (size 1.27 1.27)) hide)
    )
    (pin "2" (uuid 20d935ac-3aa6-41cc-9516-0e7e90393409))
    (pin "1" (uuid 27f53f45-3481-44a9-b85b-64082e0ec81a))
    (instances
      (project "mainboard"
        (path "/fb621148-8145-4217-9712-738e1b5a4823/4ec621be-184d-4855-a96d-f6fa2a788a77/90da2209-0e18-4bd4-8ef6-3d6f9ed46ff8/0055874f-f9a7-4137-a3e7-27f851a5c4da"
          (reference "C127") (unit 1)
        )
        (path "/fb621148-8145-4217-9712-738e1b5a4823/4ec621be-184d-4855-a96d-f6fa2a788a77/6aa278c8-8281-4438-81b7-90e6d7ac4f12/d06cb93b-ac01-4845-848b-3920cf373c92"
          (reference "C147") (unit 1)
        )
      )
    )
  )

  (symbol (lib_id "power:GND") (at 184.15 69.85 0) (unit 1)
    (in_bom yes) (on_board yes) (dnp no) (fields_autoplaced)
    (uuid 45f40644-f5a8-4cf6-85d3-a23c0b22aad8)
    (property "Reference" "#PWR0239" (at 184.15 76.2 0)
      (effects (font (size 1.27 1.27)) hide)
    )
    (property "Value" "GND" (at 184.15 74.93 0)
      (effects (font (size 1.27 1.27)))
    )
    (property "Footprint" "" (at 184.15 69.85 0)
      (effects (font (size 1.27 1.27)) hide)
    )
    (property "Datasheet" "" (at 184.15 69.85 0)
      (effects (font (size 1.27 1.27)) hide)
    )
    (pin "1" (uuid 67ee41d3-ddad-408d-af89-57d60d482182))
    (instances
      (project "mainboard"
        (path "/fb621148-8145-4217-9712-738e1b5a4823/4ec621be-184d-4855-a96d-f6fa2a788a77/90da2209-0e18-4bd4-8ef6-3d6f9ed46ff8/0055874f-f9a7-4137-a3e7-27f851a5c4da"
          (reference "#PWR0239") (unit 1)
        )
        (path "/fb621148-8145-4217-9712-738e1b5a4823/4ec621be-184d-4855-a96d-f6fa2a788a77/6aa278c8-8281-4438-81b7-90e6d7ac4f12/d06cb93b-ac01-4845-848b-3920cf373c92"
          (reference "#PWR0260") (unit 1)
        )
      )
    )
  )

  (symbol (lib_id "Device:C") (at 186.69 113.03 90) (unit 1)
    (in_bom yes) (on_board yes) (dnp no)
    (uuid 492538ec-7591-4173-876b-f8e26133572c)
    (property "Reference" "C124" (at 193.675 107.95 90)
      (effects (font (size 1.27 1.27)) (justify left))
    )
    (property "Value" "33pF" (at 193.675 110.49 90)
      (effects (font (size 1.27 1.27)) (justify left))
    )
    (property "Footprint" "Capacitor_SMD:C_0201_0603Metric" (at 190.5 112.0648 0)
      (effects (font (size 1.27 1.27)) hide)
    )
    (property "Datasheet" "~" (at 186.69 113.03 0)
      (effects (font (size 1.27 1.27)) hide)
    )
    (property "Description" "CAP CER 33PF 25V C0G/NP0 0201" (at 186.69 113.03 0)
      (effects (font (size 1.27 1.27)) hide)
    )
    (property "Manufacturer" "Samsung" (at 186.69 113.03 0)
      (effects (font (size 1.27 1.27)) hide)
    )
    (property "Part Number" "CL03C330JA3NNNC" (at 186.69 113.03 0)
      (effects (font (size 1.27 1.27)) hide)
    )
    (pin "1" (uuid 5937b8fe-2563-45d1-8290-2d9e8d522c70))
    (pin "2" (uuid 3bdced72-8c94-4ba6-8d98-9232def8089b))
    (instances
      (project "mainboard"
        (path "/fb621148-8145-4217-9712-738e1b5a4823/4ec621be-184d-4855-a96d-f6fa2a788a77/90da2209-0e18-4bd4-8ef6-3d6f9ed46ff8/0055874f-f9a7-4137-a3e7-27f851a5c4da"
          (reference "C124") (unit 1)
        )
        (path "/fb621148-8145-4217-9712-738e1b5a4823/4ec621be-184d-4855-a96d-f6fa2a788a77/6aa278c8-8281-4438-81b7-90e6d7ac4f12/d06cb93b-ac01-4845-848b-3920cf373c92"
          (reference "C144") (unit 1)
        )
      )
    )
  )

  (symbol (lib_id "power:GND") (at 194.31 123.19 0) (unit 1)
    (in_bom yes) (on_board yes) (dnp no) (fields_autoplaced)
    (uuid 4c8fed6a-a2ee-4c9d-b551-fdceb209153d)
    (property "Reference" "#PWR0342" (at 194.31 129.54 0)
      (effects (font (size 1.27 1.27)) hide)
    )
    (property "Value" "GND" (at 194.31 128.27 0)
      (effects (font (size 1.27 1.27)))
    )
    (property "Footprint" "" (at 194.31 123.19 0)
      (effects (font (size 1.27 1.27)) hide)
    )
    (property "Datasheet" "" (at 194.31 123.19 0)
      (effects (font (size 1.27 1.27)) hide)
    )
    (pin "1" (uuid de329dd0-090d-443b-a5da-66f713461c6f))
    (instances
      (project "mainboard"
        (path "/fb621148-8145-4217-9712-738e1b5a4823/4ec621be-184d-4855-a96d-f6fa2a788a77/90da2209-0e18-4bd4-8ef6-3d6f9ed46ff8/0055874f-f9a7-4137-a3e7-27f851a5c4da"
          (reference "#PWR0342") (unit 1)
        )
        (path "/fb621148-8145-4217-9712-738e1b5a4823/4ec621be-184d-4855-a96d-f6fa2a788a77/6aa278c8-8281-4438-81b7-90e6d7ac4f12/d06cb93b-ac01-4845-848b-3920cf373c92"
          (reference "#PWR0343") (unit 1)
        )
      )
    )
  )

  (symbol (lib_id "Device:C") (at 137.16 125.73 0) (unit 1)
    (in_bom yes) (on_board yes) (dnp no)
    (uuid 4f3ea52f-f0aa-4dd0-9376-8df6d9b9dbe0)
    (property "Reference" "C121" (at 138.43 128.27 0)
      (effects (font (size 1.27 1.27)) (justify left))
    )
    (property "Value" "33pF" (at 138.43 130.81 0)
      (effects (font (size 1.27 1.27)) (justify left))
    )
    (property "Footprint" "Capacitor_SMD:C_0201_0603Metric" (at 138.1252 129.54 0)
      (effects (font (size 1.27 1.27)) hide)
    )
    (property "Datasheet" "~" (at 137.16 125.73 0)
      (effects (font (size 1.27 1.27)) hide)
    )
    (property "Description" "CAP CER 33PF 25V C0G/NP0 0201" (at 137.16 125.73 0)
      (effects (font (size 1.27 1.27)) hide)
    )
    (property "Manufacturer" "Samsung" (at 137.16 125.73 0)
      (effects (font (size 1.27 1.27)) hide)
    )
    (property "Part Number" "CL03C330JA3NNNC" (at 137.16 125.73 0)
      (effects (font (size 1.27 1.27)) hide)
    )
    (pin "1" (uuid 1d07f3d0-80c5-4c30-8731-6e221bdb2add))
    (pin "2" (uuid 342469fb-e0d5-4d83-803f-e76a1f6e87c5))
    (instances
      (project "mainboard"
        (path "/fb621148-8145-4217-9712-738e1b5a4823/4ec621be-184d-4855-a96d-f6fa2a788a77/90da2209-0e18-4bd4-8ef6-3d6f9ed46ff8/0055874f-f9a7-4137-a3e7-27f851a5c4da"
          (reference "C121") (unit 1)
        )
        (path "/fb621148-8145-4217-9712-738e1b5a4823/4ec621be-184d-4855-a96d-f6fa2a788a77/6aa278c8-8281-4438-81b7-90e6d7ac4f12/d06cb93b-ac01-4845-848b-3920cf373c92"
          (reference "C141") (unit 1)
        )
      )
    )
  )

  (symbol (lib_id "power:GND") (at 181.61 123.19 0) (unit 1)
    (in_bom yes) (on_board yes) (dnp no) (fields_autoplaced)
    (uuid 50201fb0-e559-48cc-93c9-d683bdefa1d1)
    (property "Reference" "#PWR0240" (at 181.61 129.54 0)
      (effects (font (size 1.27 1.27)) hide)
    )
    (property "Value" "GND" (at 181.61 128.27 0)
      (effects (font (size 1.27 1.27)))
    )
    (property "Footprint" "" (at 181.61 123.19 0)
      (effects (font (size 1.27 1.27)) hide)
    )
    (property "Datasheet" "" (at 181.61 123.19 0)
      (effects (font (size 1.27 1.27)) hide)
    )
    (pin "1" (uuid c5f79cde-613a-4334-ab9c-04d7b00dda08))
    (instances
      (project "mainboard"
        (path "/fb621148-8145-4217-9712-738e1b5a4823/4ec621be-184d-4855-a96d-f6fa2a788a77/90da2209-0e18-4bd4-8ef6-3d6f9ed46ff8/0055874f-f9a7-4137-a3e7-27f851a5c4da"
          (reference "#PWR0240") (unit 1)
        )
        (path "/fb621148-8145-4217-9712-738e1b5a4823/4ec621be-184d-4855-a96d-f6fa2a788a77/6aa278c8-8281-4438-81b7-90e6d7ac4f12/d06cb93b-ac01-4845-848b-3920cf373c92"
          (reference "#PWR0259") (unit 1)
        )
      )
    )
  )

  (symbol (lib_id "Device:C") (at 114.3 125.73 0) (unit 1)
    (in_bom yes) (on_board yes) (dnp no)
    (uuid 61d08f56-d6f7-485c-814e-7720eff7c4fb)
    (property "Reference" "C118" (at 115.57 128.27 0)
      (effects (font (size 1.27 1.27)) (justify left))
    )
    (property "Value" "33pF" (at 115.57 130.81 0)
      (effects (font (size 1.27 1.27)) (justify left))
    )
    (property "Footprint" "Capacitor_SMD:C_0201_0603Metric" (at 115.2652 129.54 0)
      (effects (font (size 1.27 1.27)) hide)
    )
    (property "Datasheet" "~" (at 114.3 125.73 0)
      (effects (font (size 1.27 1.27)) hide)
    )
    (property "Description" "CAP CER 33PF 25V C0G/NP0 0201" (at 114.3 125.73 0)
      (effects (font (size 1.27 1.27)) hide)
    )
    (property "Manufacturer" "Samsung" (at 114.3 125.73 0)
      (effects (font (size 1.27 1.27)) hide)
    )
    (property "Part Number" "CL03C330JA3NNNC" (at 114.3 125.73 0)
      (effects (font (size 1.27 1.27)) hide)
    )
    (pin "1" (uuid 6c9a9838-70f3-4f46-87d9-570282c010ee))
    (pin "2" (uuid e7a3fd6a-e071-41b1-902e-1327289ec208))
    (instances
      (project "mainboard"
        (path "/fb621148-8145-4217-9712-738e1b5a4823/4ec621be-184d-4855-a96d-f6fa2a788a77/90da2209-0e18-4bd4-8ef6-3d6f9ed46ff8/0055874f-f9a7-4137-a3e7-27f851a5c4da"
          (reference "C118") (unit 1)
        )
        (path "/fb621148-8145-4217-9712-738e1b5a4823/4ec621be-184d-4855-a96d-f6fa2a788a77/6aa278c8-8281-4438-81b7-90e6d7ac4f12/d06cb93b-ac01-4845-848b-3920cf373c92"
          (reference "C138") (unit 1)
        )
      )
    )
  )

  (symbol (lib_id "Device:C") (at 184.15 64.77 0) (unit 1)
    (in_bom yes) (on_board yes) (dnp no)
    (uuid 6b180a4c-bee8-439f-812c-e01f8d62340b)
    (property "Reference" "C122" (at 185.42 67.31 0)
      (effects (font (size 1.27 1.27)) (justify left))
    )
    (property "Value" "330pF" (at 185.42 69.85 0)
      (effects (font (size 1.27 1.27)) (justify left))
    )
    (property "Footprint" "Capacitor_SMD:C_0201_0603Metric" (at 185.1152 68.58 0)
      (effects (font (size 1.27 1.27)) hide)
    )
    (property "Datasheet" "~" (at 184.15 64.77 0)
      (effects (font (size 1.27 1.27)) hide)
    )
    (property "Part Number" "GRM0335C1E331JA01D" (at 184.15 64.77 0)
      (effects (font (size 1.27 1.27)) hide)
    )
    (property "Substitution" "GRM0335C1E331JA01*" (at 184.15 64.77 0)
      (effects (font (size 1.27 1.27)) hide)
    )
    (property "Description" "CAP CER 330PF 25V C0G/NP0 0201" (at 184.15 64.77 0)
      (effects (font (size 1.27 1.27)) hide)
    )
    (property "Manufacturer" "Murata" (at 184.15 64.77 0)
      (effects (font (size 1.27 1.27)) hide)
    )
    (pin "1" (uuid 9a7d9936-b599-4296-9b65-230e7094833a))
    (pin "2" (uuid 4241be2c-f231-478f-817b-7d6f60f546b6))
    (instances
      (project "mainboard"
        (path "/fb621148-8145-4217-9712-738e1b5a4823/4ec621be-184d-4855-a96d-f6fa2a788a77/90da2209-0e18-4bd4-8ef6-3d6f9ed46ff8/0055874f-f9a7-4137-a3e7-27f851a5c4da"
          (reference "C122") (unit 1)
        )
        (path "/fb621148-8145-4217-9712-738e1b5a4823/4ec621be-184d-4855-a96d-f6fa2a788a77/6aa278c8-8281-4438-81b7-90e6d7ac4f12/d06cb93b-ac01-4845-848b-3920cf373c92"
          (reference "C143") (unit 1)
        )
      )
    )
  )

  (symbol (lib_id "Device:C") (at 208.28 64.77 0) (unit 1)
    (in_bom yes) (on_board yes) (dnp no)
    (uuid 8280a634-5f09-44ac-b75e-5779a174c67a)
    (property "Reference" "C126" (at 209.55 67.31 0)
      (effects (font (size 1.27 1.27)) (justify left))
    )
    (property "Value" "8.2pF" (at 209.55 69.85 0)
      (effects (font (size 1.27 1.27)) (justify left))
    )
    (property "Footprint" "Capacitor_SMD:C_0201_0603Metric" (at 209.2452 68.58 0)
      (effects (font (size 1.27 1.27)) hide)
    )
    (property "Datasheet" "~" (at 208.28 64.77 0)
      (effects (font (size 1.27 1.27)) hide)
    )
    (property "Description" "CAP CER 8.2PF 50V C0G/NP0 0201" (at 208.28 64.77 0)
      (effects (font (size 1.27 1.27)) hide)
    )
    (property "Manufacturer" "Murata" (at 208.28 64.77 0)
      (effects (font (size 1.27 1.27)) hide)
    )
    (property "Part Number" "GRM0335C1H8R2BA01D" (at 208.28 64.77 0)
      (effects (font (size 1.27 1.27)) hide)
    )
    (property "Substitution" "GRM0335C1H8R2BA01*" (at 208.28 64.77 0)
      (effects (font (size 1.27 1.27)) hide)
    )
    (pin "2" (uuid e4976ce9-adf5-4dc8-8521-6968c4188713))
    (pin "1" (uuid 828fc344-53f1-40ab-b3a0-c6af0d2f3bcb))
    (instances
      (project "mainboard"
        (path "/fb621148-8145-4217-9712-738e1b5a4823/4ec621be-184d-4855-a96d-f6fa2a788a77/90da2209-0e18-4bd4-8ef6-3d6f9ed46ff8/0055874f-f9a7-4137-a3e7-27f851a5c4da"
          (reference "C126") (unit 1)
        )
        (path "/fb621148-8145-4217-9712-738e1b5a4823/4ec621be-184d-4855-a96d-f6fa2a788a77/6aa278c8-8281-4438-81b7-90e6d7ac4f12/d06cb93b-ac01-4845-848b-3920cf373c92"
          (reference "C146") (unit 1)
        )
      )
    )
  )

  (symbol (lib_id "Device:R") (at 182.88 97.79 90) (unit 1)
    (in_bom yes) (on_board yes) (dnp no) (fields_autoplaced)
    (uuid 82c0cd32-9274-463e-af66-ece54a77380b)
    (property "Reference" "R82" (at 182.88 91.44 90)
      (effects (font (size 1.27 1.27)))
    )
    (property "Value" "51k±1%" (at 182.88 93.98 90)
      (effects (font (size 1.27 1.27)))
    )
    (property "Footprint" "Resistor_SMD:R_0201_0603Metric" (at 182.88 99.568 90)
      (effects (font (size 1.27 1.27)) hide)
    )
    (property "Datasheet" "~" (at 182.88 97.79 0)
      (effects (font (size 1.27 1.27)) hide)
    )
    (property "Description" "RES 51K OHM 1% 1/20W 0201" (at 182.88 97.79 0)
      (effects (font (size 1.27 1.27)) hide)
    )
    (property "Manufacturer" "Yageo" (at 182.88 97.79 0)
      (effects (font (size 1.27 1.27)) hide)
    )
    (property "Part Number" "RC0201FR-0751KL" (at 182.88 97.79 0)
      (effects (font (size 1.27 1.27)) hide)
    )
    (property "Substitution" "any equivalent" (at 182.88 97.79 0)
      (effects (font (size 1.27 1.27)) hide)
    )
    (pin "1" (uuid 8ab7a845-6aa9-4b93-bd02-5e79f931f420))
    (pin "2" (uuid 4003db41-7d12-4fd2-b832-1a4e575c6077))
    (instances
      (project "mainboard"
        (path "/fb621148-8145-4217-9712-738e1b5a4823/4ec621be-184d-4855-a96d-f6fa2a788a77/90da2209-0e18-4bd4-8ef6-3d6f9ed46ff8/0055874f-f9a7-4137-a3e7-27f851a5c4da"
          (reference "R82") (unit 1)
        )
        (path "/fb621148-8145-4217-9712-738e1b5a4823/4ec621be-184d-4855-a96d-f6fa2a788a77/6aa278c8-8281-4438-81b7-90e6d7ac4f12/d06cb93b-ac01-4845-848b-3920cf373c92"
          (reference "R88") (unit 1)
        )
      )
    )
  )

  (symbol (lib_id "Device:C") (at 115.57 156.21 180) (unit 1)
    (in_bom yes) (on_board yes) (dnp no) (fields_autoplaced)
    (uuid 84a07c9b-953e-43cb-ab0c-df155458eb3c)
    (property "Reference" "C188" (at 119.38 154.94 0)
      (effects (font (size 1.27 1.27)) (justify right))
    )
    (property "Value" "1uF" (at 119.38 157.48 0)
      (effects (font (size 1.27 1.27)) (justify right))
    )
    (property "Footprint" "Capacitor_SMD:C_0201_0603Metric" (at 114.6048 152.4 0)
      (effects (font (size 1.27 1.27)) hide)
    )
    (property "Datasheet" "~" (at 115.57 156.21 0)
      (effects (font (size 1.27 1.27)) hide)
    )
    (property "Description" "CAP CER 1UF 10V X5R 0201" (at 115.57 156.21 0)
      (effects (font (size 1.27 1.27)) hide)
    )
    (property "Manufacturer" "Murata" (at 115.57 156.21 0)
      (effects (font (size 1.27 1.27)) hide)
    )
    (property "Part Number" "GRM033R61A105ME44D" (at 115.57 156.21 0)
      (effects (font (size 1.27 1.27)) hide)
    )
    (property "Substitution" "GRM033R61A105ME44*, GRM033R61C105ME15*, Samsung CL03A105MO3NRN*" (at 115.57 156.21 0)
      (effects (font (size 1.27 1.27)) hide)
    )
    (pin "1" (uuid c209b4c5-423d-40e3-a9b2-5ef186ab7db4))
    (pin "2" (uuid 0509b27a-57f8-4504-8d7c-67f807263ea2))
    (instances
      (project "mainboard"
        (path "/fb621148-8145-4217-9712-738e1b5a4823/4ec621be-184d-4855-a96d-f6fa2a788a77/90da2209-0e18-4bd4-8ef6-3d6f9ed46ff8/0055874f-f9a7-4137-a3e7-27f851a5c4da"
          (reference "C188") (unit 1)
        )
        (path "/fb621148-8145-4217-9712-738e1b5a4823/4ec621be-184d-4855-a96d-f6fa2a788a77/6aa278c8-8281-4438-81b7-90e6d7ac4f12/d06cb93b-ac01-4845-848b-3920cf373c92"
          (reference "C189") (unit 1)
        )
      )
    )
  )

  (symbol (lib_id "Device:R") (at 102.87 95.25 0) (mirror y) (unit 1)
    (in_bom yes) (on_board yes) (dnp no)
    (uuid 8d1d1af9-13ca-4cb9-9aa2-8beb55aa45c0)
    (property "Reference" "R80" (at 101.092 94.107 0)
      (effects (font (size 1.27 1.27)) (justify left))
    )
    (property "Value" "10k" (at 100.33 96.52 0)
      (effects (font (size 1.27 1.27)) (justify left))
    )
    (property "Footprint" "Resistor_SMD:R_0402_1005Metric" (at 104.648 95.25 90)
      (effects (font (size 1.27 1.27)) hide)
    )
    (property "Datasheet" "~" (at 102.87 95.25 0)
      (effects (font (size 1.27 1.27)) hide)
    )
    (property "Part Number" "RC0402JR-0710KL" (at 102.87 95.25 0)
      (effects (font (size 1.27 1.27)) hide)
    )
    (property "Substitution" "any equivalent" (at 102.87 95.25 0)
      (effects (font (size 1.27 1.27)) hide)
    )
    (property "Description" "RES 10K OHM 5% 1/16W 0402" (at 102.87 95.25 0)
      (effects (font (size 1.27 1.27)) hide)
    )
    (property "Manufacturer" "Yageo" (at 102.87 95.25 0)
      (effects (font (size 1.27 1.27)) hide)
    )
    (pin "1" (uuid 194f8205-71b8-4af0-9a91-72c5a9e98c63))
    (pin "2" (uuid 859fb089-8b04-4e4b-b2d2-ec3fa4b6af8c))
    (instances
      (project "mainboard"
        (path "/fb621148-8145-4217-9712-738e1b5a4823/4ec621be-184d-4855-a96d-f6fa2a788a77/90da2209-0e18-4bd4-8ef6-3d6f9ed46ff8/0055874f-f9a7-4137-a3e7-27f851a5c4da"
          (reference "R80") (unit 1)
        )
        (path "/fb621148-8145-4217-9712-738e1b5a4823/4ec621be-184d-4855-a96d-f6fa2a788a77/6aa278c8-8281-4438-81b7-90e6d7ac4f12/d06cb93b-ac01-4845-848b-3920cf373c92"
          (reference "R86") (unit 1)
        )
      )
    )
  )

  (symbol (lib_id "Device:R") (at 194.31 118.11 0) (unit 1)
    (in_bom yes) (on_board yes) (dnp yes) (fields_autoplaced)
    (uuid 942cca25-9284-414b-817b-989fb151e839)
    (property "Reference" "R133" (at 196.85 116.84 0)
      (effects (font (size 1.27 1.27)) (justify left))
    )
    (property "Value" "DNP" (at 196.85 119.38 0)
      (effects (font (size 1.27 1.27)) (justify left))
    )
    (property "Footprint" "Resistor_SMD:R_0402_1005Metric" (at 192.532 118.11 90)
      (effects (font (size 1.27 1.27)) hide)
    )
    (property "Datasheet" "~" (at 194.31 118.11 0)
      (effects (font (size 1.27 1.27)) hide)
    )
    (property "Part Number" "" (at 194.31 118.11 0)
      (effects (font (size 1.27 1.27)) hide)
    )
    (property "Substitution" "" (at 194.31 118.11 0)
      (effects (font (size 1.27 1.27)) hide)
    )
    (property "Description" "" (at 194.31 118.11 0)
      (effects (font (size 1.27 1.27)) hide)
    )
    (property "Manufacturer" "" (at 194.31 118.11 0)
      (effects (font (size 1.27 1.27)) hide)
    )
    (pin "1" (uuid b799a062-990e-43dc-aa28-8728d938f84e))
    (pin "2" (uuid 453452f2-ec26-486b-92c7-c3498fd21e37))
    (instances
      (project "mainboard"
        (path "/fb621148-8145-4217-9712-738e1b5a4823/4ec621be-184d-4855-a96d-f6fa2a788a77/90da2209-0e18-4bd4-8ef6-3d6f9ed46ff8/0055874f-f9a7-4137-a3e7-27f851a5c4da"
          (reference "R133") (unit 1)
        )
        (path "/fb621148-8145-4217-9712-738e1b5a4823/4ec621be-184d-4855-a96d-f6fa2a788a77/6aa278c8-8281-4438-81b7-90e6d7ac4f12/d06cb93b-ac01-4845-848b-3920cf373c92"
          (reference "R134") (unit 1)
        )
      )
    )
  )

  (symbol (lib_id "radio:RFFC5072") (at 156.21 97.79 0) (unit 1)
    (in_bom yes) (on_board yes) (dnp no) (fields_autoplaced)
    (uuid 95e778d1-5cdf-4e05-97a6-00cb6bd4090d)
    (property "Reference" "U18" (at 156.21 67.31 0)
      (effects (font (size 1.27 1.27)))
    )
    (property "Value" "RFFC5072" (at 156.21 69.85 0)
      (effects (font (size 1.27 1.27)))
    )
    (property "Footprint" "Package_DFN_QFN:QFN-32-1EP_5x5mm_P0.5mm_EP3.7x3.7mm_ThermalVias" (at 156.21 128.27 0)
      (effects (font (size 1.27 1.27)) hide)
    )
    (property "Datasheet" "https://www.qorvo.com/products/d/da000735" (at 156.21 125.73 0)
      (effects (font (size 1.27 1.27)) hide)
    )
    (property "Manufacturer" "Qorvo" (at 156.21 97.79 0)
      (effects (font (size 1.27 1.27)) hide)
    )
    (property "Description" "WIDEBAND SYNTHESIZER/VCO WITH INTEGRATED 6GHz MIXER" (at 156.21 97.79 0)
      (effects (font (size 1.27 1.27)) hide)
    )
    (property "Part Number" "RFFC5072TR13" (at 156.21 97.79 0)
      (effects (font (size 1.27 1.27)) hide)
    )
    (property "Substitution" "RFFC5072*" (at 156.21 97.79 0)
      (effects (font (size 1.27 1.27)) hide)
    )
    (pin "18" (uuid ef449952-be61-495e-8ceb-36ee6f90ee74))
    (pin "22" (uuid a9396aea-b0d7-40d8-a651-f662ade28952))
    (pin "10" (uuid b5eb7d06-0c05-48d7-8f20-c5190ccb7d00))
    (pin "28" (uuid 404da3d6-597d-4625-8cdd-83968aeb3873))
    (pin "5" (uuid fb9d730c-9734-493d-b894-99ef59fbb015))
    (pin "30" (uuid d1cf601e-67cf-4eb3-8017-05063bffbe40))
    (pin "7" (uuid a8705572-4a92-4b3b-9b7f-8b4dd42ae4ac))
    (pin "25" (uuid 47b35602-1ecf-42b7-8fa3-71e66c6e2421))
    (pin "4" (uuid 8c4d955b-6a3a-4a39-bb9d-f8cf0832514c))
    (pin "29" (uuid b73e7c11-0889-4b2d-8b9f-e21b3958396c))
    (pin "24" (uuid 2097c832-9a0d-438f-9fa6-846743c78fd3))
    (pin "17" (uuid 5424af7e-e5c5-4cbf-93c1-b7f1f8d1426b))
    (pin "6" (uuid f579b826-be3f-4561-be90-54bbff63ed59))
    (pin "27" (uuid 01c58b17-2a32-4f86-801f-d1228bde88c8))
    (pin "9" (uuid d6bc5871-47a3-4421-9855-e39ebbb7ef0d))
    (pin "11" (uuid cd887fe0-2363-46d5-9b77-784b78d971e9))
    (pin "31" (uuid c1de4f90-8239-4da9-80cc-9afae72beee5))
    (pin "26" (uuid 88c21faf-0f01-400d-abc0-178a9f6997b3))
    (pin "8" (uuid 7117ac6d-7dce-41cf-a775-9901db80fd3d))
    (pin "21" (uuid 708ab76c-30e1-4060-9fed-44a32d4b164f))
    (pin "32" (uuid eb642585-c735-4ce3-a050-96bf795b4b7b))
    (pin "13" (uuid 422ea46e-5ba3-4cb7-a831-e81b8f0ff7a0))
    (pin "20" (uuid 33631377-8c92-4429-9211-7087f190799f))
    (pin "12" (uuid d908de2b-d8fd-47a9-b600-5e8da67087a5))
    (pin "14" (uuid 2e193986-058d-4abc-836a-1f25dcf612c1))
    (pin "15" (uuid 9b9da28e-f605-44bd-9ac3-b3b6253831fb))
    (pin "16" (uuid 26df4e82-6e50-48e2-b153-96c3e6d265e5))
    (pin "19" (uuid e636342e-88e9-40b7-99c6-c7503590a98a))
    (pin "1" (uuid 10c4d172-c20d-4513-8b96-77ba9ee6c433))
    (pin "2" (uuid 53b0baa9-4fc2-4a1a-b466-89cb5ae3d3d1))
    (pin "23" (uuid 3d39da97-9013-4383-b95e-7f65bff57d77))
    (pin "3" (uuid 48b3a337-f36f-460b-a2e9-e0a403f39859))
    (pin "33" (uuid 1a5278e3-eb92-4bd1-bfa3-a66a736a0d18))
    (instances
      (project "mainboard"
        (path "/fb621148-8145-4217-9712-738e1b5a4823/4ec621be-184d-4855-a96d-f6fa2a788a77/90da2209-0e18-4bd4-8ef6-3d6f9ed46ff8/0055874f-f9a7-4137-a3e7-27f851a5c4da"
          (reference "U18") (unit 1)
        )
        (path "/fb621148-8145-4217-9712-738e1b5a4823/4ec621be-184d-4855-a96d-f6fa2a788a77/6aa278c8-8281-4438-81b7-90e6d7ac4f12/d06cb93b-ac01-4845-848b-3920cf373c92"
          (reference "U13") (unit 1)
        )
      )
    )
  )

  (symbol (lib_id "power:GND") (at 99.06 130.81 0) (unit 1)
    (in_bom yes) (on_board yes) (dnp no) (fields_autoplaced)
    (uuid 991f9917-e59a-4b4b-98c3-34e3c781f450)
    (property "Reference" "#PWR0228" (at 99.06 137.16 0)
      (effects (font (size 1.27 1.27)) hide)
    )
    (property "Value" "GND" (at 99.06 135.89 0)
      (effects (font (size 1.27 1.27)))
    )
    (property "Footprint" "" (at 99.06 130.81 0)
      (effects (font (size 1.27 1.27)) hide)
    )
    (property "Datasheet" "" (at 99.06 130.81 0)
      (effects (font (size 1.27 1.27)) hide)
    )
    (pin "1" (uuid a9984a4a-37fa-4e1a-9c6e-2636e65c4c9f))
    (instances
      (project "mainboard"
        (path "/fb621148-8145-4217-9712-738e1b5a4823/4ec621be-184d-4855-a96d-f6fa2a788a77/90da2209-0e18-4bd4-8ef6-3d6f9ed46ff8/0055874f-f9a7-4137-a3e7-27f851a5c4da"
          (reference "#PWR0228") (unit 1)
        )
        (path "/fb621148-8145-4217-9712-738e1b5a4823/4ec621be-184d-4855-a96d-f6fa2a788a77/6aa278c8-8281-4438-81b7-90e6d7ac4f12/d06cb93b-ac01-4845-848b-3920cf373c92"
          (reference "#PWR0249") (unit 1)
        )
      )
    )
  )

  (symbol (lib_id "power:GND") (at 121.92 130.81 0) (unit 1)
    (in_bom yes) (on_board yes) (dnp no) (fields_autoplaced)
    (uuid aa7bf248-48b7-4523-83b1-7a63ea3aa9a0)
    (property "Reference" "#PWR0233" (at 121.92 137.16 0)
      (effects (font (size 1.27 1.27)) hide)
    )
    (property "Value" "GND" (at 121.92 135.89 0)
      (effects (font (size 1.27 1.27)))
    )
    (property "Footprint" "" (at 121.92 130.81 0)
      (effects (font (size 1.27 1.27)) hide)
    )
    (property "Datasheet" "" (at 121.92 130.81 0)
      (effects (font (size 1.27 1.27)) hide)
    )
    (pin "1" (uuid ab46aa60-1ac1-4998-ac12-407a1562e5e4))
    (instances
      (project "mainboard"
        (path "/fb621148-8145-4217-9712-738e1b5a4823/4ec621be-184d-4855-a96d-f6fa2a788a77/90da2209-0e18-4bd4-8ef6-3d6f9ed46ff8/0055874f-f9a7-4137-a3e7-27f851a5c4da"
          (reference "#PWR0233") (unit 1)
        )
        (path "/fb621148-8145-4217-9712-738e1b5a4823/4ec621be-184d-4855-a96d-f6fa2a788a77/6aa278c8-8281-4438-81b7-90e6d7ac4f12/d06cb93b-ac01-4845-848b-3920cf373c92"
          (reference "#PWR0254") (unit 1)
        )
      )
    )
  )

  (symbol (lib_id "Device:C") (at 99.06 125.73 0) (unit 1)
    (in_bom yes) (on_board yes) (dnp no)
    (uuid aad80e24-d05f-4b9f-98ef-70d10d88ff91)
    (property "Reference" "C116" (at 100.33 128.27 0)
      (effects (font (size 1.27 1.27)) (justify left))
    )
    (property "Value" "33pF" (at 100.33 130.81 0)
      (effects (font (size 1.27 1.27)) (justify left))
    )
    (property "Footprint" "Capacitor_SMD:C_0201_0603Metric" (at 100.0252 129.54 0)
      (effects (font (size 1.27 1.27)) hide)
    )
    (property "Datasheet" "~" (at 99.06 125.73 0)
      (effects (font (size 1.27 1.27)) hide)
    )
    (property "Description" "CAP CER 33PF 25V C0G/NP0 0201" (at 99.06 125.73 0)
      (effects (font (size 1.27 1.27)) hide)
    )
    (property "Manufacturer" "Samsung" (at 99.06 125.73 0)
      (effects (font (size 1.27 1.27)) hide)
    )
    (property "Part Number" "CL03C330JA3NNNC" (at 99.06 125.73 0)
      (effects (font (size 1.27 1.27)) hide)
    )
    (pin "1" (uuid be128cca-480d-4f2b-b867-dc021ed36c87))
    (pin "2" (uuid a51045cb-785e-4a68-9535-5e4426b76e99))
    (instances
      (project "mainboard"
        (path "/fb621148-8145-4217-9712-738e1b5a4823/4ec621be-184d-4855-a96d-f6fa2a788a77/90da2209-0e18-4bd4-8ef6-3d6f9ed46ff8/0055874f-f9a7-4137-a3e7-27f851a5c4da"
          (reference "C116") (unit 1)
        )
        (path "/fb621148-8145-4217-9712-738e1b5a4823/4ec621be-184d-4855-a96d-f6fa2a788a77/6aa278c8-8281-4438-81b7-90e6d7ac4f12/d06cb93b-ac01-4845-848b-3920cf373c92"
          (reference "C136") (unit 1)
        )
      )
    )
  )

  (symbol (lib_id "Device:R") (at 189.23 59.69 90) (unit 1)
    (in_bom yes) (on_board yes) (dnp no) (fields_autoplaced)
    (uuid aee61e1c-edf5-4eac-8027-3d4b0ddad172)
    (property "Reference" "R83" (at 189.23 53.34 90)
      (effects (font (size 1.27 1.27)))
    )
    (property "Value" "470" (at 189.23 55.88 90)
      (effects (font (size 1.27 1.27)))
    )
    (property "Footprint" "Resistor_SMD:R_0201_0603Metric" (at 189.23 61.468 90)
      (effects (font (size 1.27 1.27)) hide)
    )
    (property "Datasheet" "~" (at 189.23 59.69 0)
      (effects (font (size 1.27 1.27)) hide)
    )
    (property "Description" "RES 470 OHM 5% 1/20W 0201" (at 189.23 59.69 0)
      (effects (font (size 1.27 1.27)) hide)
    )
    (property "Manufacturer" "Yageo" (at 189.23 59.69 0)
      (effects (font (size 1.27 1.27)) hide)
    )
    (property "Part Number" "RC0201JR-07470RL" (at 189.23 59.69 0)
      (effects (font (size 1.27 1.27)) hide)
    )
    (property "Substitution" "any equivalent" (at 189.23 59.69 0)
      (effects (font (size 1.27 1.27)) hide)
    )
    (pin "2" (uuid e67e9c63-4bac-4963-8e2f-ddc705153c52))
    (pin "1" (uuid 021aeda8-6066-4685-94c0-857333c53912))
    (instances
      (project "mainboard"
        (path "/fb621148-8145-4217-9712-738e1b5a4823/4ec621be-184d-4855-a96d-f6fa2a788a77/90da2209-0e18-4bd4-8ef6-3d6f9ed46ff8/0055874f-f9a7-4137-a3e7-27f851a5c4da"
          (reference "R83") (unit 1)
        )
        (path "/fb621148-8145-4217-9712-738e1b5a4823/4ec621be-184d-4855-a96d-f6fa2a788a77/6aa278c8-8281-4438-81b7-90e6d7ac4f12/d06cb93b-ac01-4845-848b-3920cf373c92"
          (reference "R89") (unit 1)
        )
      )
    )
  )

  (symbol (lib_id "power:GND") (at 106.68 130.81 0) (unit 1)
    (in_bom yes) (on_board yes) (dnp no) (fields_autoplaced)
    (uuid b3bc4bef-d5f2-4d9c-a569-25ad840119f9)
    (property "Reference" "#PWR0230" (at 106.68 137.16 0)
      (effects (font (size 1.27 1.27)) hide)
    )
    (property "Value" "GND" (at 106.68 135.89 0)
      (effects (font (size 1.27 1.27)))
    )
    (property "Footprint" "" (at 106.68 130.81 0)
      (effects (font (size 1.27 1.27)) hide)
    )
    (property "Datasheet" "" (at 106.68 130.81 0)
      (effects (font (size 1.27 1.27)) hide)
    )
    (pin "1" (uuid 33392f86-1191-442a-b593-d26b24db86b0))
    (instances
      (project "mainboard"
        (path "/fb621148-8145-4217-9712-738e1b5a4823/4ec621be-184d-4855-a96d-f6fa2a788a77/90da2209-0e18-4bd4-8ef6-3d6f9ed46ff8/0055874f-f9a7-4137-a3e7-27f851a5c4da"
          (reference "#PWR0230") (unit 1)
        )
        (path "/fb621148-8145-4217-9712-738e1b5a4823/4ec621be-184d-4855-a96d-f6fa2a788a77/6aa278c8-8281-4438-81b7-90e6d7ac4f12/d06cb93b-ac01-4845-848b-3920cf373c92"
          (reference "#PWR0251") (unit 1)
        )
      )
    )
  )

  (symbol (lib_id "Device:C") (at 129.54 125.73 0) (unit 1)
    (in_bom yes) (on_board yes) (dnp no)
    (uuid b6135075-1e44-4c3f-b30e-4f9bca0e7ee7)
    (property "Reference" "C120" (at 130.81 128.27 0)
      (effects (font (size 1.27 1.27)) (justify left))
    )
    (property "Value" "33pF" (at 130.81 130.81 0)
      (effects (font (size 1.27 1.27)) (justify left))
    )
    (property "Footprint" "Capacitor_SMD:C_0201_0603Metric" (at 130.5052 129.54 0)
      (effects (font (size 1.27 1.27)) hide)
    )
    (property "Datasheet" "~" (at 129.54 125.73 0)
      (effects (font (size 1.27 1.27)) hide)
    )
    (property "Description" "CAP CER 33PF 25V C0G/NP0 0201" (at 129.54 125.73 0)
      (effects (font (size 1.27 1.27)) hide)
    )
    (property "Manufacturer" "Samsung" (at 129.54 125.73 0)
      (effects (font (size 1.27 1.27)) hide)
    )
    (property "Part Number" "CL03C330JA3NNNC" (at 129.54 125.73 0)
      (effects (font (size 1.27 1.27)) hide)
    )
    (pin "1" (uuid ebea75c5-4f7f-4f3f-af99-f5b417dfaeed))
    (pin "2" (uuid a821b1bb-d544-4285-9c22-4fdf3764de87))
    (instances
      (project "mainboard"
        (path "/fb621148-8145-4217-9712-738e1b5a4823/4ec621be-184d-4855-a96d-f6fa2a788a77/90da2209-0e18-4bd4-8ef6-3d6f9ed46ff8/0055874f-f9a7-4137-a3e7-27f851a5c4da"
          (reference "C120") (unit 1)
        )
        (path "/fb621148-8145-4217-9712-738e1b5a4823/4ec621be-184d-4855-a96d-f6fa2a788a77/6aa278c8-8281-4438-81b7-90e6d7ac4f12/d06cb93b-ac01-4845-848b-3920cf373c92"
          (reference "C140") (unit 1)
        )
      )
    )
  )

  (symbol (lib_id "Device:C") (at 121.92 125.73 0) (unit 1)
    (in_bom yes) (on_board yes) (dnp no)
    (uuid ba3b03f7-634b-424e-9c72-39661accdc71)
    (property "Reference" "C119" (at 123.19 128.27 0)
      (effects (font (size 1.27 1.27)) (justify left))
    )
    (property "Value" "33pF" (at 123.19 130.81 0)
      (effects (font (size 1.27 1.27)) (justify left))
    )
    (property "Footprint" "Capacitor_SMD:C_0201_0603Metric" (at 122.8852 129.54 0)
      (effects (font (size 1.27 1.27)) hide)
    )
    (property "Datasheet" "~" (at 121.92 125.73 0)
      (effects (font (size 1.27 1.27)) hide)
    )
    (property "Description" "CAP CER 33PF 25V C0G/NP0 0201" (at 121.92 125.73 0)
      (effects (font (size 1.27 1.27)) hide)
    )
    (property "Manufacturer" "Samsung" (at 121.92 125.73 0)
      (effects (font (size 1.27 1.27)) hide)
    )
    (property "Part Number" "CL03C330JA3NNNC" (at 121.92 125.73 0)
      (effects (font (size 1.27 1.27)) hide)
    )
    (pin "1" (uuid e57d17bb-847e-47f5-b4c3-443235821419))
    (pin "2" (uuid 18e552f0-3e83-4452-9560-68c48b71705b))
    (instances
      (project "mainboard"
        (path "/fb621148-8145-4217-9712-738e1b5a4823/4ec621be-184d-4855-a96d-f6fa2a788a77/90da2209-0e18-4bd4-8ef6-3d6f9ed46ff8/0055874f-f9a7-4137-a3e7-27f851a5c4da"
          (reference "C119") (unit 1)
        )
        (path "/fb621148-8145-4217-9712-738e1b5a4823/4ec621be-184d-4855-a96d-f6fa2a788a77/6aa278c8-8281-4438-81b7-90e6d7ac4f12/d06cb93b-ac01-4845-848b-3920cf373c92"
          (reference "C139") (unit 1)
        )
      )
    )
  )

  (symbol (lib_id "power:GND") (at 137.16 130.81 0) (unit 1)
    (in_bom yes) (on_board yes) (dnp no) (fields_autoplaced)
    (uuid bb4de853-c9d5-4531-a9a3-9cb425008289)
    (property "Reference" "#PWR0235" (at 137.16 137.16 0)
      (effects (font (size 1.27 1.27)) hide)
    )
    (property "Value" "GND" (at 137.16 135.89 0)
      (effects (font (size 1.27 1.27)))
    )
    (property "Footprint" "" (at 137.16 130.81 0)
      (effects (font (size 1.27 1.27)) hide)
    )
    (property "Datasheet" "" (at 137.16 130.81 0)
      (effects (font (size 1.27 1.27)) hide)
    )
    (pin "1" (uuid ef16422a-950c-416d-9b46-27820c6dfe1a))
    (instances
      (project "mainboard"
        (path "/fb621148-8145-4217-9712-738e1b5a4823/4ec621be-184d-4855-a96d-f6fa2a788a77/90da2209-0e18-4bd4-8ef6-3d6f9ed46ff8/0055874f-f9a7-4137-a3e7-27f851a5c4da"
          (reference "#PWR0235") (unit 1)
        )
        (path "/fb621148-8145-4217-9712-738e1b5a4823/4ec621be-184d-4855-a96d-f6fa2a788a77/6aa278c8-8281-4438-81b7-90e6d7ac4f12/d06cb93b-ac01-4845-848b-3920cf373c92"
          (reference "#PWR0256") (unit 1)
        )
      )
    )
  )

  (symbol (lib_id "Device:C") (at 106.68 125.73 0) (unit 1)
    (in_bom yes) (on_board yes) (dnp no)
    (uuid c130104a-a5b5-4af0-a9d7-0dbf08a22eec)
    (property "Reference" "C117" (at 107.95 128.27 0)
      (effects (font (size 1.27 1.27)) (justify left))
    )
    (property "Value" "33pF" (at 107.95 130.81 0)
      (effects (font (size 1.27 1.27)) (justify left))
    )
    (property "Footprint" "Capacitor_SMD:C_0201_0603Metric" (at 107.6452 129.54 0)
      (effects (font (size 1.27 1.27)) hide)
    )
    (property "Datasheet" "~" (at 106.68 125.73 0)
      (effects (font (size 1.27 1.27)) hide)
    )
    (property "Description" "CAP CER 33PF 25V C0G/NP0 0201" (at 106.68 125.73 0)
      (effects (font (size 1.27 1.27)) hide)
    )
    (property "Manufacturer" "Samsung" (at 106.68 125.73 0)
      (effects (font (size 1.27 1.27)) hide)
    )
    (property "Part Number" "CL03C330JA3NNNC" (at 106.68 125.73 0)
      (effects (font (size 1.27 1.27)) hide)
    )
    (pin "1" (uuid 292e51a2-ecd6-4330-b5e4-e8c99a1800e3))
    (pin "2" (uuid ed071ca9-6742-4755-a34b-4684da7efa34))
    (instances
      (project "mainboard"
        (path "/fb621148-8145-4217-9712-738e1b5a4823/4ec621be-184d-4855-a96d-f6fa2a788a77/90da2209-0e18-4bd4-8ef6-3d6f9ed46ff8/0055874f-f9a7-4137-a3e7-27f851a5c4da"
          (reference "C117") (unit 1)
        )
        (path "/fb621148-8145-4217-9712-738e1b5a4823/4ec621be-184d-4855-a96d-f6fa2a788a77/6aa278c8-8281-4438-81b7-90e6d7ac4f12/d06cb93b-ac01-4845-848b-3920cf373c92"
          (reference "C137") (unit 1)
        )
      )
    )
  )

  (symbol (lib_id "Device:C") (at 194.31 64.77 0) (unit 1)
    (in_bom yes) (on_board yes) (dnp no)
    (uuid d07c8765-4a4c-4458-8139-f6fd0dd43278)
    (property "Reference" "C125" (at 195.58 67.31 0)
      (effects (font (size 1.27 1.27)) (justify left))
    )
    (property "Value" "330pF" (at 195.58 69.85 0)
      (effects (font (size 1.27 1.27)) (justify left))
    )
    (property "Footprint" "Capacitor_SMD:C_0201_0603Metric" (at 195.2752 68.58 0)
      (effects (font (size 1.27 1.27)) hide)
    )
    (property "Datasheet" "~" (at 194.31 64.77 0)
      (effects (font (size 1.27 1.27)) hide)
    )
    (property "Part Number" "GRM0335C1E331JA01D" (at 194.31 64.77 0)
      (effects (font (size 1.27 1.27)) hide)
    )
    (property "Substitution" "GRM0335C1E331JA01*" (at 194.31 64.77 0)
      (effects (font (size 1.27 1.27)) hide)
    )
    (property "Description" "CAP CER 330PF 25V C0G/NP0 0201" (at 194.31 64.77 0)
      (effects (font (size 1.27 1.27)) hide)
    )
    (property "Manufacturer" "Murata" (at 194.31 64.77 0)
      (effects (font (size 1.27 1.27)) hide)
    )
    (pin "1" (uuid 789f0778-a55e-490d-9e84-89ef094835b3))
    (pin "2" (uuid 8d470472-caca-4ad6-9480-d56b556616f5))
    (instances
      (project "mainboard"
        (path "/fb621148-8145-4217-9712-738e1b5a4823/4ec621be-184d-4855-a96d-f6fa2a788a77/90da2209-0e18-4bd4-8ef6-3d6f9ed46ff8/0055874f-f9a7-4137-a3e7-27f851a5c4da"
          (reference "C125") (unit 1)
        )
        (path "/fb621148-8145-4217-9712-738e1b5a4823/4ec621be-184d-4855-a96d-f6fa2a788a77/6aa278c8-8281-4438-81b7-90e6d7ac4f12/d06cb93b-ac01-4845-848b-3920cf373c92"
          (reference "C145") (unit 1)
        )
      )
    )
  )

  (symbol (lib_id "Device:C") (at 128.27 156.21 180) (unit 1)
    (in_bom yes) (on_board yes) (dnp no) (fields_autoplaced)
    (uuid d3f466a0-81f5-41f6-8655-65ac57884277)
    (property "Reference" "C190" (at 132.08 154.94 0)
      (effects (font (size 1.27 1.27)) (justify right))
    )
    (property "Value" "1uF" (at 132.08 157.48 0)
      (effects (font (size 1.27 1.27)) (justify right))
    )
    (property "Footprint" "Capacitor_SMD:C_0201_0603Metric" (at 127.3048 152.4 0)
      (effects (font (size 1.27 1.27)) hide)
    )
    (property "Datasheet" "~" (at 128.27 156.21 0)
      (effects (font (size 1.27 1.27)) hide)
    )
    (property "Description" "CAP CER 1UF 10V X5R 0201" (at 128.27 156.21 0)
      (effects (font (size 1.27 1.27)) hide)
    )
    (property "Manufacturer" "Murata" (at 128.27 156.21 0)
      (effects (font (size 1.27 1.27)) hide)
    )
    (property "Part Number" "GRM033R61A105ME44D" (at 128.27 156.21 0)
      (effects (font (size 1.27 1.27)) hide)
    )
    (property "Substitution" "GRM033R61A105ME44*, GRM033R61C105ME15*, Samsung CL03A105MO3NRN*" (at 128.27 156.21 0)
      (effects (font (size 1.27 1.27)) hide)
    )
    (pin "1" (uuid 3c606aeb-4185-42dc-a66c-ef01d3693a33))
    (pin "2" (uuid c612be27-5154-4d82-b49b-f93db59630f0))
    (instances
      (project "mainboard"
        (path "/fb621148-8145-4217-9712-738e1b5a4823/4ec621be-184d-4855-a96d-f6fa2a788a77/90da2209-0e18-4bd4-8ef6-3d6f9ed46ff8/0055874f-f9a7-4137-a3e7-27f851a5c4da"
          (reference "C190") (unit 1)
        )
        (path "/fb621148-8145-4217-9712-738e1b5a4823/4ec621be-184d-4855-a96d-f6fa2a788a77/6aa278c8-8281-4438-81b7-90e6d7ac4f12/d06cb93b-ac01-4845-848b-3920cf373c92"
          (reference "C191") (unit 1)
        )
      )
    )
  )

  (symbol (lib_id "Device:R") (at 199.39 59.69 90) (unit 1)
    (in_bom yes) (on_board yes) (dnp no) (fields_autoplaced)
    (uuid d784e7c4-539f-4e98-99ea-48fec7697467)
    (property "Reference" "R84" (at 199.39 53.34 90)
      (effects (font (size 1.27 1.27)))
    )
    (property "Value" "470" (at 199.39 55.88 90)
      (effects (font (size 1.27 1.27)))
    )
    (property "Footprint" "Resistor_SMD:R_0201_0603Metric" (at 199.39 61.468 90)
      (effects (font (size 1.27 1.27)) hide)
    )
    (property "Datasheet" "~" (at 199.39 59.69 0)
      (effects (font (size 1.27 1.27)) hide)
    )
    (property "Description" "RES 470 OHM 5% 1/20W 0201" (at 199.39 59.69 0)
      (effects (font (size 1.27 1.27)) hide)
    )
    (property "Manufacturer" "Yageo" (at 199.39 59.69 0)
      (effects (font (size 1.27 1.27)) hide)
    )
    (property "Part Number" "RC0201JR-07470RL" (at 199.39 59.69 0)
      (effects (font (size 1.27 1.27)) hide)
    )
    (property "Substitution" "any equivalent" (at 199.39 59.69 0)
      (effects (font (size 1.27 1.27)) hide)
    )
    (pin "2" (uuid 8e752d13-cbef-4806-8100-b3f37f438c4b))
    (pin "1" (uuid b57ccc0f-4669-4f3c-8993-1621fd3c3ea4))
    (instances
      (project "mainboard"
        (path "/fb621148-8145-4217-9712-738e1b5a4823/4ec621be-184d-4855-a96d-f6fa2a788a77/90da2209-0e18-4bd4-8ef6-3d6f9ed46ff8/0055874f-f9a7-4137-a3e7-27f851a5c4da"
          (reference "R84") (unit 1)
        )
        (path "/fb621148-8145-4217-9712-738e1b5a4823/4ec621be-184d-4855-a96d-f6fa2a788a77/6aa278c8-8281-4438-81b7-90e6d7ac4f12/d06cb93b-ac01-4845-848b-3920cf373c92"
          (reference "R90") (unit 1)
        )
      )
    )
  )

  (symbol (lib_id "Device:R") (at 215.9 74.93 180) (unit 1)
    (in_bom yes) (on_board yes) (dnp no) (fields_autoplaced)
    (uuid dcf5307a-97d9-4424-8d2d-5699fe579405)
    (property "Reference" "R85" (at 218.44 73.66 0)
      (effects (font (size 1.27 1.27)) (justify right))
    )
    (property "Value" "22k" (at 218.44 76.2 0)
      (effects (font (size 1.27 1.27)) (justify right))
    )
    (property "Footprint" "Resistor_SMD:R_0201_0603Metric" (at 217.678 74.93 90)
      (effects (font (size 1.27 1.27)) hide)
    )
    (property "Datasheet" "~" (at 215.9 74.93 0)
      (effects (font (size 1.27 1.27)) hide)
    )
    (property "Description" "RES 22K OHM 5% 1/20W 0201" (at 215.9 74.93 0)
      (effects (font (size 1.27 1.27)) hide)
    )
    (property "Manufacturer" "Yageo" (at 215.9 74.93 0)
      (effects (font (size 1.27 1.27)) hide)
    )
    (property "Part Number" "RC0201JR-0722KL" (at 215.9 74.93 0)
      (effects (font (size 1.27 1.27)) hide)
    )
    (property "Substitution" "any equivalent" (at 215.9 74.93 0)
      (effects (font (size 1.27 1.27)) hide)
    )
    (pin "2" (uuid 263e8ac3-019a-4bc3-9d29-6312b0ef6d9b))
    (pin "1" (uuid ab8d822b-c7e4-4fc8-b342-0f415d9124b9))
    (instances
      (project "mainboard"
        (path "/fb621148-8145-4217-9712-738e1b5a4823/4ec621be-184d-4855-a96d-f6fa2a788a77/90da2209-0e18-4bd4-8ef6-3d6f9ed46ff8/0055874f-f9a7-4137-a3e7-27f851a5c4da"
          (reference "R85") (unit 1)
        )
        (path "/fb621148-8145-4217-9712-738e1b5a4823/4ec621be-184d-4855-a96d-f6fa2a788a77/6aa278c8-8281-4438-81b7-90e6d7ac4f12/d06cb93b-ac01-4845-848b-3920cf373c92"
          (reference "R91") (unit 1)
        )
      )
    )
  )

  (symbol (lib_id "Device:C") (at 181.61 118.11 0) (unit 1)
    (in_bom yes) (on_board yes) (dnp no) (fields_autoplaced)
    (uuid de86d260-ed0c-46cb-8240-3c816b92dcb6)
    (property "Reference" "C123" (at 185.42 116.84 0)
      (effects (font (size 1.27 1.27)) (justify left))
    )
    (property "Value" "100pF" (at 185.42 119.38 0)
      (effects (font (size 1.27 1.27)) (justify left))
    )
    (property "Footprint" "Capacitor_SMD:C_0201_0603Metric" (at 182.5752 121.92 0)
      (effects (font (size 1.27 1.27)) hide)
    )
    (property "Datasheet" "~" (at 181.61 118.11 0)
      (effects (font (size 1.27 1.27)) hide)
    )
    (property "Description" "CAP CER 100PF 25V C0G/NP0 0201" (at 181.61 118.11 0)
      (effects (font (size 1.27 1.27)) hide)
    )
    (property "Manufacturer" "Samsung" (at 181.61 118.11 0)
      (effects (font (size 1.27 1.27)) hide)
    )
    (property "Part Number" "CL03C101JA3NNNC" (at 181.61 118.11 0)
      (effects (font (size 1.27 1.27)) hide)
    )
    (property "Substitution" "" (at 181.61 118.11 0)
      (effects (font (size 1.27 1.27)) hide)
    )
    (pin "1" (uuid c8a2f58f-5866-4ad3-ba42-1dfadb16ea3d))
    (pin "2" (uuid 1815ba94-54d0-448e-bf1c-0f81bac128ff))
    (instances
      (project "mainboard"
        (path "/fb621148-8145-4217-9712-738e1b5a4823/4ec621be-184d-4855-a96d-f6fa2a788a77/90da2209-0e18-4bd4-8ef6-3d6f9ed46ff8/0055874f-f9a7-4137-a3e7-27f851a5c4da"
          (reference "C123") (unit 1)
        )
        (path "/fb621148-8145-4217-9712-738e1b5a4823/4ec621be-184d-4855-a96d-f6fa2a788a77/6aa278c8-8281-4438-81b7-90e6d7ac4f12/d06cb93b-ac01-4845-848b-3920cf373c92"
          (reference "C142") (unit 1)
        )
      )
    )
  )

  (symbol (lib_id "power:GND") (at 172.72 121.92 0) (unit 1)
    (in_bom yes) (on_board yes) (dnp no) (fields_autoplaced)
    (uuid e856a0bb-5b56-428e-9cda-40f70a5b8b32)
    (property "Reference" "#PWR0237" (at 172.72 128.27 0)
      (effects (font (size 1.27 1.27)) hide)
    )
    (property "Value" "GND" (at 172.72 127 0)
      (effects (font (size 1.27 1.27)))
    )
    (property "Footprint" "" (at 172.72 121.92 0)
      (effects (font (size 1.27 1.27)) hide)
    )
    (property "Datasheet" "" (at 172.72 121.92 0)
      (effects (font (size 1.27 1.27)) hide)
    )
    (pin "1" (uuid 9deacd5d-9036-41a6-b795-8d1a96a5efc8))
    (instances
      (project "mainboard"
        (path "/fb621148-8145-4217-9712-738e1b5a4823/4ec621be-184d-4855-a96d-f6fa2a788a77/90da2209-0e18-4bd4-8ef6-3d6f9ed46ff8/0055874f-f9a7-4137-a3e7-27f851a5c4da"
          (reference "#PWR0237") (unit 1)
        )
        (path "/fb621148-8145-4217-9712-738e1b5a4823/4ec621be-184d-4855-a96d-f6fa2a788a77/6aa278c8-8281-4438-81b7-90e6d7ac4f12/d06cb93b-ac01-4845-848b-3920cf373c92"
          (reference "#PWR0258") (unit 1)
        )
      )
    )
  )

  (symbol (lib_id "power:GND") (at 187.96 99.06 0) (unit 1)
    (in_bom yes) (on_board yes) (dnp no) (fields_autoplaced)
    (uuid fe2561f1-73eb-4c53-a95a-076106a7d20d)
    (property "Reference" "#PWR0238" (at 187.96 105.41 0)
      (effects (font (size 1.27 1.27)) hide)
    )
    (property "Value" "GND" (at 187.96 104.14 0)
      (effects (font (size 1.27 1.27)))
    )
    (property "Footprint" "" (at 187.96 99.06 0)
      (effects (font (size 1.27 1.27)) hide)
    )
    (property "Datasheet" "" (at 187.96 99.06 0)
      (effects (font (size 1.27 1.27)) hide)
    )
    (pin "1" (uuid bfed1f50-e76d-4f28-b4dc-cae6d10614b5))
    (instances
      (project "mainboard"
        (path "/fb621148-8145-4217-9712-738e1b5a4823/4ec621be-184d-4855-a96d-f6fa2a788a77/90da2209-0e18-4bd4-8ef6-3d6f9ed46ff8/0055874f-f9a7-4137-a3e7-27f851a5c4da"
          (reference "#PWR0238") (unit 1)
        )
        (path "/fb621148-8145-4217-9712-738e1b5a4823/4ec621be-184d-4855-a96d-f6fa2a788a77/6aa278c8-8281-4438-81b7-90e6d7ac4f12/d06cb93b-ac01-4845-848b-3920cf373c92"
          (reference "#PWR0261") (unit 1)
        )
      )
    )
  )
)
