(kicad_sch (version 20230121) (generator eeschema)

  (uuid a07d2b7f-a6d8-47c5-b452-fc30abd618f0)

  (paper "A4" portrait)

  (title_block
    (title "Circuitos eléctricos. Composición de resistencias en serie y paralelo")
    (date "8/05/2021")
    (company "www.picuino.com")
    (comment 1 "Copyright (c) 2021 by Carlos Pardo")
    (comment 2 "License CC BY-SA 4.0")
  )

  (lib_symbols
    (symbol "electric-resistencias-serie-paralelo-rescue:CopyRight-simbolos" (pin_names (offset 1.016)) (in_bom yes) (on_board yes)
      (property "Reference" "CP" (at 6.35 1.27 0)
        (effects (font (size 1.016 1.016)) hide)
      )
      (property "Value" "CopyRight-simbolos" (at 0 1.27 0)
        (effects (font (size 1.016 1.016)) hide)
      )
      (property "Footprint" "" (at -2.54 8.89 0)
        (effects (font (size 1.27 1.27)) hide)
      )
      (property "Datasheet" "" (at 0 5.08 0)
        (effects (font (size 1.27 1.27)) hide)
      )
      (property "License" "CC BY-SA 4.0" (at -1.27 -1.27 0)
        (effects (font (size 1.524 1.524)) (justify right))
      )
      (property "Web" "www.picuino.com" (at 0 -1.27 0)
        (effects (font (size 1.524 1.524)) (justify left))
      )
      (symbol "CopyRight-simbolos_0_1"
        (polyline
          (pts
            (xy -10.16 0)
            (xy 10.16 0)
          )
          (stroke (width 0.2032) (type default))
          (fill (type none))
        )
      )
    )
    (symbol "electric-resistencias-serie-paralelo-rescue:Pila-simbolos" (pin_names (offset 1.016)) (in_bom yes) (on_board yes)
      (property "Reference" "V" (at 5.08 -4.445 0)
        (effects (font (size 2.54 2.54)) (justify left))
      )
      (property "Value" "Pila-simbolos" (at 2.54 -1.905 0)
        (effects (font (size 1.27 1.27)) hide)
      )
      (property "Footprint" "" (at 0 -3.175 0)
        (effects (font (size 1.27 1.27)) hide)
      )
      (property "Datasheet" "" (at 0 -3.175 0)
        (effects (font (size 1.27 1.27)) hide)
      )
      (symbol "Pila-simbolos_0_1"
        (polyline
          (pts
            (xy -4.064 -1.27)
            (xy -2.286 -1.27)
          )
          (stroke (width 0) (type default))
          (fill (type none))
        )
        (polyline
          (pts
            (xy -3.81 -3.175)
            (xy 3.81 -3.175)
          )
          (stroke (width 0) (type default))
          (fill (type none))
        )
        (polyline
          (pts
            (xy -3.175 -0.381)
            (xy -3.175 -2.159)
          )
          (stroke (width 0) (type default))
          (fill (type none))
        )
        (polyline
          (pts
            (xy -1.905 -5.08)
            (xy 1.905 -5.08)
          )
          (stroke (width 0) (type default))
          (fill (type none))
        )
      )
      (symbol "Pila-simbolos_1_1"
        (pin input line (at 0 -7.62 90) (length 2.54)
          (name "" (effects (font (size 1.27 1.27))))
          (number "" (effects (font (size 1.143 1.143))))
        )
        (pin input line (at 0 0 270) (length 3.175)
          (name "" (effects (font (size 1.27 1.27))))
          (number "" (effects (font (size 1.143 1.143))))
        )
      )
    )
    (symbol "electric-resistencias-serie-paralelo-rescue:resistencia-simbolos" (pin_names (offset 1.016)) (in_bom yes) (on_board yes)
      (property "Reference" "R" (at 1.905 -5.08 0)
        (effects (font (size 2.54 2.54)) (justify left))
      )
      (property "Value" "resistencia-simbolos" (at -2.54 -5.715 90)
        (effects (font (size 1.27 1.27)) hide)
      )
      (property "Footprint" "" (at 2.54 -2.54 0)
        (effects (font (size 1.27 1.27)) hide)
      )
      (property "Datasheet" "" (at 2.54 -2.54 0)
        (effects (font (size 1.27 1.27)) hide)
      )
      (symbol "resistencia-simbolos_0_1"
        (rectangle (start -1.27 -1.905) (end 1.27 -8.255)
          (stroke (width 0) (type default))
          (fill (type none))
        )
      )
      (symbol "resistencia-simbolos_1_1"
        (pin input line (at 0 -10.16 90) (length 1.905)
          (name "" (effects (font (size 1.27 1.27))))
          (number "" (effects (font (size 1.143 1.143))))
        )
        (pin input line (at 0 0 270) (length 1.905)
          (name "" (effects (font (size 1.27 1.27))))
          (number "" (effects (font (size 1.143 1.143))))
        )
      )
    )
  )

  (junction (at 34.925 147.32) (diameter 0) (color 0 0 0 0)
    (uuid 124514a3-534c-49c9-8885-0183aed41103)
  )
  (junction (at 168.275 200.66) (diameter 0) (color 0 0 0 0)
    (uuid 1405ee36-8b97-470a-9bfa-d2547aaf1dbb)
  )
  (junction (at 60.96 254) (diameter 0) (color 0 0 0 0)
    (uuid 145a49a7-cba5-48cb-b6cc-05af98495c6b)
  )
  (junction (at 177.8 254) (diameter 0) (color 0 0 0 0)
    (uuid 14afb06b-e26b-408a-bd13-7964936fee77)
  )
  (junction (at 118.11 200.66) (diameter 0) (color 0 0 0 0)
    (uuid 39f9c252-a58f-47e5-a7cb-286f9af231ac)
  )
  (junction (at 194.31 254) (diameter 0) (color 0 0 0 0)
    (uuid 4e02d63a-d262-43bc-9712-f6fb325fc13c)
  )
  (junction (at 184.785 147.32) (diameter 0) (color 0 0 0 0)
    (uuid 634c5e8a-cd7a-4dcf-b198-d8dc08cd389d)
  )
  (junction (at 184.785 200.66) (diameter 0) (color 0 0 0 0)
    (uuid 6d49b02f-b619-4878-85d1-eb682dedaaa4)
  )
  (junction (at 51.435 147.32) (diameter 0) (color 0 0 0 0)
    (uuid 87e61f4c-b80d-4e27-a645-69127a4a0571)
  )
  (junction (at 168.275 147.32) (diameter 0) (color 0 0 0 0)
    (uuid 97f94413-f57c-4e03-bc4f-cdd7a22e9185)
  )
  (junction (at 118.11 147.32) (diameter 0) (color 0 0 0 0)
    (uuid 9ac1d386-1056-4ba9-9f4c-212983750764)
  )
  (junction (at 34.925 200.66) (diameter 0) (color 0 0 0 0)
    (uuid 9baae4e8-8b2c-4229-96cd-83b9f6079a26)
  )
  (junction (at 101.6 147.32) (diameter 0) (color 0 0 0 0)
    (uuid c0489b87-c2b6-41dc-95da-1260b3219d1e)
  )
  (junction (at 127.635 254) (diameter 0) (color 0 0 0 0)
    (uuid c40cc9c1-acda-43fe-b13c-784c1e846cbb)
  )
  (junction (at 101.6 200.66) (diameter 0) (color 0 0 0 0)
    (uuid cba8bfda-aed3-47a9-8366-423a3adb7647)
  )
  (junction (at 44.45 254) (diameter 0) (color 0 0 0 0)
    (uuid d3684acd-d3ba-4676-bb1c-2ac9d909f47a)
  )
  (junction (at 111.125 254) (diameter 0) (color 0 0 0 0)
    (uuid e4d0eaec-bc52-43bb-9127-7de46e4c4711)
  )
  (junction (at 51.435 200.66) (diameter 0) (color 0 0 0 0)
    (uuid e6eb9664-2342-4fdc-a9d6-851ea193948b)
  )

  (wire (pts (xy 194.31 262.255) (xy 191.135 262.255))
    (stroke (width 0) (type default))
    (uuid 0041b105-6526-4477-8ea2-53cbd4769d25)
  )
  (wire (pts (xy 127.635 246.38) (xy 124.46 246.38))
    (stroke (width 0) (type default))
    (uuid 00ca2811-a5e0-4a9b-b91c-02b1e1f64c90)
  )
  (wire (pts (xy 34.925 147.32) (xy 12.7 147.32))
    (stroke (width 0) (type default))
    (uuid 021266a5-489d-45ba-a90d-3613ef77aa0f)
  )
  (wire (pts (xy 184.785 139.7) (xy 181.61 139.7))
    (stroke (width 0) (type default))
    (uuid 0567daea-4b3a-4c5c-95d3-5e044391b6aa)
  )
  (polyline (pts (xy 138.43 26.035) (xy 138.43 78.105))
    (stroke (width 0) (type default))
    (uuid 060d670f-a861-4d9d-9054-a80e172b98af)
  )

  (wire (pts (xy 60.96 262.255) (xy 57.785 262.255))
    (stroke (width 0) (type default))
    (uuid 063365c4-5f5b-4026-b88b-d0271e7ea5f4)
  )
  (wire (pts (xy 79.375 63.5) (xy 133.35 63.5))
    (stroke (width 0) (type default))
    (uuid 1520a3ea-2ac9-4246-9f10-3155c10826e7)
  )
  (wire (pts (xy 60.96 254) (xy 66.675 254))
    (stroke (width 0) (type default))
    (uuid 15d31dcf-f398-4d1a-a344-865802db2023)
  )
  (wire (pts (xy 79.375 38.1) (xy 100.965 38.1))
    (stroke (width 0) (type default))
    (uuid 169d78d8-e368-4b4e-b642-d313fa970028)
  )
  (wire (pts (xy 12.7 276.86) (xy 66.675 276.86))
    (stroke (width 0) (type default))
    (uuid 18a147b5-05a8-43f0-83bc-8cfc16046320)
  )
  (wire (pts (xy 168.275 139.7) (xy 171.45 139.7))
    (stroke (width 0) (type default))
    (uuid 18d764db-929d-405d-ac88-a3c724fe003a)
  )
  (wire (pts (xy 66.675 38.1) (xy 66.675 63.5))
    (stroke (width 0) (type default))
    (uuid 1a3ea1b6-7941-4089-8314-cf20c3dce7bd)
  )
  (wire (pts (xy 79.375 200.66) (xy 79.375 207.645))
    (stroke (width 0) (type default))
    (uuid 1a9be55c-a5b2-4abd-8bf5-0f578c258029)
  )
  (wire (pts (xy 146.05 276.86) (xy 200.025 276.86))
    (stroke (width 0) (type default))
    (uuid 1b881312-4a15-4961-bdbb-29da5a18bbb4)
  )
  (wire (pts (xy 146.05 53.975) (xy 146.05 63.5))
    (stroke (width 0) (type default))
    (uuid 1dceb86a-3141-44c6-ae09-0a570e7b88b5)
  )
  (wire (pts (xy 200.025 38.1) (xy 200.025 63.5))
    (stroke (width 0) (type default))
    (uuid 1f01f0d1-8770-4e6f-9a47-7d7246d830ba)
  )
  (wire (pts (xy 50.8 38.1) (xy 44.45 38.1))
    (stroke (width 0) (type default))
    (uuid 1f6239ee-e256-4fe0-bf8c-e401e7f9d000)
  )
  (wire (pts (xy 146.05 116.84) (xy 200.025 116.84))
    (stroke (width 0) (type default))
    (uuid 20ad4dec-0fec-4917-b8c5-9276f1a87467)
  )
  (wire (pts (xy 146.05 161.925) (xy 146.05 170.18))
    (stroke (width 0) (type default))
    (uuid 21e69bd1-4909-4940-b594-8fcc5377ccca)
  )
  (wire (pts (xy 118.11 200.66) (xy 118.11 208.915))
    (stroke (width 0) (type default))
    (uuid 25375764-9550-4179-a05a-59d4626ad5fc)
  )
  (wire (pts (xy 177.8 262.255) (xy 180.975 262.255))
    (stroke (width 0) (type default))
    (uuid 25ec660d-f9be-4b09-94d6-ab348e1ee84f)
  )
  (wire (pts (xy 34.925 155.575) (xy 38.1 155.575))
    (stroke (width 0) (type default))
    (uuid 267a956e-00e2-4353-9198-bafdf1930953)
  )
  (wire (pts (xy 60.96 254) (xy 60.96 262.255))
    (stroke (width 0) (type default))
    (uuid 273290c6-b912-49dd-bbbd-f36bde3a3534)
  )
  (wire (pts (xy 127.635 262.255) (xy 124.46 262.255))
    (stroke (width 0) (type default))
    (uuid 2a27d52d-860f-4a47-9299-909aab2411e7)
  )
  (wire (pts (xy 79.375 254) (xy 95.25 254))
    (stroke (width 0) (type default))
    (uuid 2cd34987-ba53-488b-90c3-88f7448faaf1)
  )
  (wire (pts (xy 12.7 63.5) (xy 66.675 63.5))
    (stroke (width 0) (type default))
    (uuid 2d737d73-ee2a-476e-a9dd-b3cef933e353)
  )
  (wire (pts (xy 12.7 268.605) (xy 12.7 276.86))
    (stroke (width 0) (type default))
    (uuid 2dc3f793-ae88-4a48-a5ca-30336932ce08)
  )
  (wire (pts (xy 127.635 254) (xy 133.35 254))
    (stroke (width 0) (type default))
    (uuid 300b9b93-4430-425b-9523-08dc1fd1b67c)
  )
  (wire (pts (xy 51.435 147.32) (xy 51.435 155.575))
    (stroke (width 0) (type default))
    (uuid 30593048-b5b9-4485-b0cd-d4f5b7819e0d)
  )
  (wire (pts (xy 12.7 161.925) (xy 12.7 170.18))
    (stroke (width 0) (type default))
    (uuid 30776e94-7ad0-4388-9e64-9594a4376a22)
  )
  (wire (pts (xy 12.7 254) (xy 28.575 254))
    (stroke (width 0) (type default))
    (uuid 32f32600-9bad-4b5b-a208-1213c1510058)
  )
  (wire (pts (xy 101.6 139.7) (xy 101.6 147.32))
    (stroke (width 0) (type default))
    (uuid 34494c84-7780-4c0c-be09-b6e437bc1c13)
  )
  (wire (pts (xy 118.11 147.32) (xy 133.35 147.32))
    (stroke (width 0) (type default))
    (uuid 34a346ca-61e4-43c3-bced-cf2561830d4c)
  )
  (wire (pts (xy 50.8 91.44) (xy 44.45 91.44))
    (stroke (width 0) (type default))
    (uuid 35495056-5482-47e9-9101-acc9b510212d)
  )
  (wire (pts (xy 34.925 193.04) (xy 34.925 200.66))
    (stroke (width 0) (type default))
    (uuid 3629c21b-4e5e-4255-a393-062ddaf0702a)
  )
  (wire (pts (xy 184.785 139.7) (xy 184.785 147.32))
    (stroke (width 0) (type default))
    (uuid 3733cd80-5904-451b-8b4a-b7b3e444fecc)
  )
  (wire (pts (xy 79.375 116.84) (xy 133.35 116.84))
    (stroke (width 0) (type default))
    (uuid 37702ef4-5d12-461f-8c6c-e7ac6df91539)
  )
  (wire (pts (xy 194.31 246.38) (xy 194.31 254))
    (stroke (width 0) (type default))
    (uuid 38ae6590-9f03-4bca-b5bd-fb49a4a0bed4)
  )
  (wire (pts (xy 12.7 53.975) (xy 12.7 63.5))
    (stroke (width 0) (type default))
    (uuid 3a6e2ab7-de08-4230-bc13-47b505edd53b)
  )
  (wire (pts (xy 194.31 254) (xy 200.025 254))
    (stroke (width 0) (type default))
    (uuid 3bfe5d59-3daf-44d9-a1ee-cd370e20aac1)
  )
  (wire (pts (xy 118.11 200.66) (xy 133.35 200.66))
    (stroke (width 0) (type default))
    (uuid 3c398e09-ef72-4e6f-be2d-d262b0db94bf)
  )
  (wire (pts (xy 44.45 254) (xy 38.735 254))
    (stroke (width 0) (type default))
    (uuid 3c7cd8fb-00a1-4b9a-900a-50020c0d8329)
  )
  (wire (pts (xy 79.375 53.975) (xy 79.375 63.5))
    (stroke (width 0) (type default))
    (uuid 3cc865a2-1261-4be5-8276-9ebb196b098b)
  )
  (wire (pts (xy 177.8 246.38) (xy 180.975 246.38))
    (stroke (width 0) (type default))
    (uuid 3da06e62-2199-42ac-ba84-f6698507e764)
  )
  (wire (pts (xy 177.8 254) (xy 177.8 262.255))
    (stroke (width 0) (type default))
    (uuid 3e9b0938-732a-42e7-a9a4-0aa75bee7ac7)
  )
  (wire (pts (xy 146.05 254) (xy 161.925 254))
    (stroke (width 0) (type default))
    (uuid 438b65a2-fc3e-43b3-ac8c-8981fe014b33)
  )
  (polyline (pts (xy 71.755 239.395) (xy 71.755 291.465))
    (stroke (width 0) (type default))
    (uuid 46d5cdf9-05e7-4f60-9ea1-1330b73e7b17)
  )

  (wire (pts (xy 44.45 254) (xy 44.45 262.255))
    (stroke (width 0) (type default))
    (uuid 4776fe39-4c04-4357-9691-ffa8c230c9ba)
  )
  (wire (pts (xy 44.45 246.38) (xy 47.625 246.38))
    (stroke (width 0) (type default))
    (uuid 4885da12-b221-43da-ab18-2b570f498968)
  )
  (wire (pts (xy 44.45 246.38) (xy 44.45 254))
    (stroke (width 0) (type default))
    (uuid 4b88fbe8-a983-4706-a1a6-c37f6b504b32)
  )
  (wire (pts (xy 66.675 200.66) (xy 66.675 223.52))
    (stroke (width 0) (type default))
    (uuid 4c60331a-2aa9-429a-b258-c190fc4694ee)
  )
  (polyline (pts (xy 138.43 132.715) (xy 138.43 184.785))
    (stroke (width 0) (type default))
    (uuid 4d8e0802-17f5-4a15-91ef-1884bbd9b0ee)
  )
  (polyline (pts (xy 6.35 238.76) (xy 204.47 238.76))
    (stroke (width 0) (type default))
    (uuid 4f279f90-7f78-4723-b14e-0d157d273cc3)
  )

  (wire (pts (xy 34.925 208.915) (xy 38.1 208.915))
    (stroke (width 0) (type default))
    (uuid 503c95d2-cc97-4327-9ea3-378e2ef1ed5a)
  )
  (wire (pts (xy 133.35 91.44) (xy 127.635 91.44))
    (stroke (width 0) (type default))
    (uuid 50a57f9d-f8d2-489c-a6c6-94c7daf85668)
  )
  (wire (pts (xy 117.475 91.44) (xy 111.125 91.44))
    (stroke (width 0) (type default))
    (uuid 513afb6f-0609-4a17-bee5-a7a7bb5652ff)
  )
  (polyline (pts (xy 6.35 78.74) (xy 204.47 78.74))
    (stroke (width 0) (type default))
    (uuid 5179d589-6e74-4818-bd49-37fea09cfbe0)
  )

  (wire (pts (xy 79.375 223.52) (xy 133.35 223.52))
    (stroke (width 0) (type default))
    (uuid 51b4de37-0fc2-4a5b-a54e-220d1e975c6b)
  )
  (wire (pts (xy 184.15 91.44) (xy 177.8 91.44))
    (stroke (width 0) (type default))
    (uuid 53602049-9c98-4f1c-9123-318163d0db6f)
  )
  (wire (pts (xy 200.025 91.44) (xy 194.31 91.44))
    (stroke (width 0) (type default))
    (uuid 558801e9-8da7-491f-b7c2-0b9c3c733566)
  )
  (wire (pts (xy 101.6 208.915) (xy 104.775 208.915))
    (stroke (width 0) (type default))
    (uuid 560fc70b-a8dd-42ff-a78c-6b2f2adcec22)
  )
  (wire (pts (xy 79.375 161.925) (xy 79.375 170.18))
    (stroke (width 0) (type default))
    (uuid 56c1923a-67b6-446a-84f6-edd6aa0b1382)
  )
  (wire (pts (xy 51.435 200.66) (xy 66.675 200.66))
    (stroke (width 0) (type default))
    (uuid 5910b83a-dedc-411e-a82e-bd325a303fd2)
  )
  (wire (pts (xy 200.025 254) (xy 200.025 276.86))
    (stroke (width 0) (type default))
    (uuid 598942e3-2c00-42ee-a4f2-9231719548ab)
  )
  (wire (pts (xy 184.785 200.66) (xy 184.785 208.915))
    (stroke (width 0) (type default))
    (uuid 5acb7ce6-18f0-4a9d-b8b9-944e56745ba2)
  )
  (polyline (pts (xy 6.35 185.42) (xy 204.47 185.42))
    (stroke (width 0) (type default))
    (uuid 5b7c4d96-2de4-476c-b7df-c1e4dddce29d)
  )

  (wire (pts (xy 34.925 139.7) (xy 34.925 147.32))
    (stroke (width 0) (type default))
    (uuid 5bbae642-4f6c-45d0-a37d-3d6425282331)
  )
  (wire (pts (xy 12.7 38.1) (xy 34.29 38.1))
    (stroke (width 0) (type default))
    (uuid 5e1f1b76-eda9-420b-86d8-bb29ac486b3a)
  )
  (wire (pts (xy 168.275 208.915) (xy 171.45 208.915))
    (stroke (width 0) (type default))
    (uuid 5eb8013c-9c38-4b9b-8bd1-e83f47ab92f0)
  )
  (polyline (pts (xy 71.755 79.375) (xy 71.755 131.445))
    (stroke (width 0) (type default))
    (uuid 5ed0b43d-7281-4cb4-bc9c-8667cefc0552)
  )

  (wire (pts (xy 168.275 155.575) (xy 171.45 155.575))
    (stroke (width 0) (type default))
    (uuid 5f28ae9b-564d-42ea-a67c-2b73f07e89fb)
  )
  (wire (pts (xy 133.35 38.1) (xy 127.635 38.1))
    (stroke (width 0) (type default))
    (uuid 5f314f80-5f1a-4c26-a66f-895ef9b2020c)
  )
  (wire (pts (xy 79.375 268.605) (xy 79.375 276.86))
    (stroke (width 0) (type default))
    (uuid 614457d0-4ebe-4ef5-a093-7097f6cf9298)
  )
  (wire (pts (xy 79.375 215.265) (xy 79.375 223.52))
    (stroke (width 0) (type default))
    (uuid 62e9966d-dff1-429e-b44c-b803e01e3fbd)
  )
  (wire (pts (xy 168.275 193.04) (xy 168.275 200.66))
    (stroke (width 0) (type default))
    (uuid 6416e196-0703-4fae-9617-0dca696ce521)
  )
  (wire (pts (xy 184.785 193.04) (xy 184.785 200.66))
    (stroke (width 0) (type default))
    (uuid 686d5f05-7715-4753-ac26-47d05370bc42)
  )
  (wire (pts (xy 111.125 254) (xy 111.125 262.255))
    (stroke (width 0) (type default))
    (uuid 68b1849f-79d7-4e8d-8918-8c660c1049d8)
  )
  (wire (pts (xy 101.6 200.66) (xy 79.375 200.66))
    (stroke (width 0) (type default))
    (uuid 6b09d982-36e8-41b1-97b3-304620c9fa5c)
  )
  (wire (pts (xy 101.6 147.32) (xy 79.375 147.32))
    (stroke (width 0) (type default))
    (uuid 6d4487a4-52d4-4439-a176-792d8b66d809)
  )
  (wire (pts (xy 111.125 246.38) (xy 114.3 246.38))
    (stroke (width 0) (type default))
    (uuid 6e6be93b-e1b0-45c8-8bd6-f78057d0996c)
  )
  (wire (pts (xy 200.025 116.84) (xy 200.025 91.44))
    (stroke (width 0) (type default))
    (uuid 7054ac2b-ea0b-43be-b65d-22e74b2b5af5)
  )
  (wire (pts (xy 168.275 139.7) (xy 168.275 147.32))
    (stroke (width 0) (type default))
    (uuid 7170f7bb-8185-463a-ab19-845f72219613)
  )
  (wire (pts (xy 34.925 200.66) (xy 12.7 200.66))
    (stroke (width 0) (type default))
    (uuid 7209d9a4-1d05-4b5f-a7e2-8685c00b71fa)
  )
  (wire (pts (xy 111.125 254) (xy 105.41 254))
    (stroke (width 0) (type default))
    (uuid 726121e5-a2a9-46f6-b175-2e93af30c278)
  )
  (wire (pts (xy 194.31 254) (xy 194.31 262.255))
    (stroke (width 0) (type default))
    (uuid 735cb740-ba19-47dc-819a-1b787a9d8354)
  )
  (wire (pts (xy 12.7 46.355) (xy 12.7 38.1))
    (stroke (width 0) (type default))
    (uuid 74938300-be04-4b14-90f3-42515a6f524a)
  )
  (wire (pts (xy 200.025 38.1) (xy 194.31 38.1))
    (stroke (width 0) (type default))
    (uuid 75576cdb-ea4e-4361-829a-8073ade16fdd)
  )
  (wire (pts (xy 79.375 170.18) (xy 133.35 170.18))
    (stroke (width 0) (type default))
    (uuid 75c7aaf1-882a-4b45-84b4-e1590349d910)
  )
  (wire (pts (xy 51.435 208.915) (xy 48.26 208.915))
    (stroke (width 0) (type default))
    (uuid 75d6f700-cda9-4f9b-88eb-fca4d6ee09c6)
  )
  (wire (pts (xy 117.475 38.1) (xy 111.125 38.1))
    (stroke (width 0) (type default))
    (uuid 76115b43-f96e-4d4d-914f-08d5f2f6be88)
  )
  (wire (pts (xy 51.435 147.32) (xy 66.675 147.32))
    (stroke (width 0) (type default))
    (uuid 76317fae-e48a-4b1b-902f-42f09f794ce4)
  )
  (wire (pts (xy 133.35 38.1) (xy 133.35 63.5))
    (stroke (width 0) (type default))
    (uuid 76bc04e9-7d21-4414-a4b1-e40f268979c9)
  )
  (wire (pts (xy 184.785 200.66) (xy 200.025 200.66))
    (stroke (width 0) (type default))
    (uuid 787b30ea-cb3c-4b5b-a47f-a0884488f301)
  )
  (wire (pts (xy 118.11 139.7) (xy 118.11 147.32))
    (stroke (width 0) (type default))
    (uuid 7a46f940-fef1-4144-bdaa-d62644d3ecbc)
  )
  (wire (pts (xy 133.35 147.32) (xy 133.35 170.18))
    (stroke (width 0) (type default))
    (uuid 7af95673-cd70-46fa-8238-3212cd5d28c5)
  )
  (wire (pts (xy 118.11 193.04) (xy 118.11 200.66))
    (stroke (width 0) (type default))
    (uuid 7bb038e7-dfc4-440b-89e7-8d378201ff4f)
  )
  (polyline (pts (xy 71.755 186.055) (xy 71.755 238.125))
    (stroke (width 0) (type default))
    (uuid 7be71dc6-4898-4dd5-a232-16483f62913f)
  )

  (wire (pts (xy 118.11 208.915) (xy 114.935 208.915))
    (stroke (width 0) (type default))
    (uuid 7c4861a1-bc6a-4f93-a576-cab8360b77ea)
  )
  (wire (pts (xy 118.11 147.32) (xy 118.11 155.575))
    (stroke (width 0) (type default))
    (uuid 7d7d4985-c4b4-458d-8b94-5d1463643674)
  )
  (wire (pts (xy 168.275 147.32) (xy 146.05 147.32))
    (stroke (width 0) (type default))
    (uuid 7eb4cdcb-269a-4487-acbf-a62e16dd474a)
  )
  (wire (pts (xy 79.375 154.305) (xy 79.375 147.32))
    (stroke (width 0) (type default))
    (uuid 7fbc9a81-9162-4d9f-9fcf-bc3d5e27021a)
  )
  (wire (pts (xy 118.11 155.575) (xy 114.935 155.575))
    (stroke (width 0) (type default))
    (uuid 8182f0b5-b2c6-4e1a-8222-425244583262)
  )
  (wire (pts (xy 101.6 193.04) (xy 101.6 200.66))
    (stroke (width 0) (type default))
    (uuid 82d5d439-7530-40c4-8565-bd762e91273f)
  )
  (wire (pts (xy 66.675 91.44) (xy 60.96 91.44))
    (stroke (width 0) (type default))
    (uuid 83fa022a-9bef-45e1-8c9c-c05cb6d28749)
  )
  (wire (pts (xy 146.05 46.355) (xy 146.05 38.1))
    (stroke (width 0) (type default))
    (uuid 848808bd-fac2-4a6a-a402-c6298ff88be8)
  )
  (polyline (pts (xy 138.43 239.395) (xy 138.43 291.465))
    (stroke (width 0) (type default))
    (uuid 87dd3eef-08ff-4b8c-b2f5-1c8776de95cb)
  )

  (wire (pts (xy 51.435 200.66) (xy 51.435 208.915))
    (stroke (width 0) (type default))
    (uuid 8c1157f7-6ed4-40e2-8d9f-6abadc0bc181)
  )
  (wire (pts (xy 44.45 262.255) (xy 47.625 262.255))
    (stroke (width 0) (type default))
    (uuid 8efc01eb-0b50-4afe-b78c-47aa6d0dc9f1)
  )
  (wire (pts (xy 168.275 147.32) (xy 168.275 155.575))
    (stroke (width 0) (type default))
    (uuid 92734598-9b47-4aaa-ac3c-49d41895ac42)
  )
  (polyline (pts (xy 71.755 26.035) (xy 71.755 78.105))
    (stroke (width 0) (type default))
    (uuid 92b6f395-45e7-4e26-947c-abf40c3f8772)
  )

  (wire (pts (xy 79.375 91.44) (xy 100.965 91.44))
    (stroke (width 0) (type default))
    (uuid 94560f15-fe4e-4fbc-800f-9ed0dce88b6e)
  )
  (wire (pts (xy 146.05 107.315) (xy 146.05 116.84))
    (stroke (width 0) (type default))
    (uuid 9651889f-cb05-4519-be60-d708e513c673)
  )
  (wire (pts (xy 51.435 139.7) (xy 51.435 147.32))
    (stroke (width 0) (type default))
    (uuid 975bda74-1044-4725-8b4a-82bfef1c0278)
  )
  (wire (pts (xy 60.96 246.38) (xy 60.96 254))
    (stroke (width 0) (type default))
    (uuid 9b13ce49-6d05-4eb3-975b-069b17b00edd)
  )
  (wire (pts (xy 184.785 155.575) (xy 181.61 155.575))
    (stroke (width 0) (type default))
    (uuid 9b900e8b-1c3c-4112-bd00-80ca93475944)
  )
  (wire (pts (xy 34.925 147.32) (xy 34.925 155.575))
    (stroke (width 0) (type default))
    (uuid 9d037dde-6c78-4d56-a63a-87792d7a1067)
  )
  (wire (pts (xy 12.7 107.315) (xy 12.7 116.84))
    (stroke (width 0) (type default))
    (uuid a29d6076-dfbe-4d43-81bb-9d26f88db194)
  )
  (wire (pts (xy 127.635 246.38) (xy 127.635 254))
    (stroke (width 0) (type default))
    (uuid a3d960d6-5c4e-4a9e-bcbf-35cfb3a70c29)
  )
  (wire (pts (xy 12.7 223.52) (xy 66.675 223.52))
    (stroke (width 0) (type default))
    (uuid a76e6bbb-4114-4522-91b9-2274a3132dd0)
  )
  (wire (pts (xy 51.435 193.04) (xy 48.26 193.04))
    (stroke (width 0) (type default))
    (uuid a915fd88-1561-482d-a461-823e369ae774)
  )
  (wire (pts (xy 146.05 147.32) (xy 146.05 154.305))
    (stroke (width 0) (type default))
    (uuid a95820e8-e5b7-4c74-bfdb-74dc26ec8d32)
  )
  (wire (pts (xy 60.96 246.38) (xy 57.785 246.38))
    (stroke (width 0) (type default))
    (uuid a958615d-66ba-4335-8c83-5ff85ab02fbd)
  )
  (wire (pts (xy 101.6 193.04) (xy 104.775 193.04))
    (stroke (width 0) (type default))
    (uuid ab324c89-ea65-41e7-829a-3911a077a348)
  )
  (wire (pts (xy 34.925 193.04) (xy 38.1 193.04))
    (stroke (width 0) (type default))
    (uuid ae6197e7-79a1-4368-bf06-960274a8aa97)
  )
  (wire (pts (xy 79.375 99.695) (xy 79.375 91.44))
    (stroke (width 0) (type default))
    (uuid b271d9d2-5cb8-4b74-9b8f-1cb175592ed0)
  )
  (wire (pts (xy 12.7 200.66) (xy 12.7 207.645))
    (stroke (width 0) (type default))
    (uuid b31f3612-a1d3-42f4-be1d-f1fc41055aea)
  )
  (wire (pts (xy 127.635 254) (xy 127.635 262.255))
    (stroke (width 0) (type default))
    (uuid b9468dfa-94ca-4faf-a46e-eb705d2249c2)
  )
  (wire (pts (xy 111.125 246.38) (xy 111.125 254))
    (stroke (width 0) (type default))
    (uuid bc5e381d-f9b9-4953-96e5-e45c78da8920)
  )
  (wire (pts (xy 66.675 254) (xy 66.675 276.86))
    (stroke (width 0) (type default))
    (uuid be4598f7-42cd-4ee2-9101-084d5cbc7250)
  )
  (wire (pts (xy 12.7 99.695) (xy 12.7 91.44))
    (stroke (width 0) (type default))
    (uuid bf5555e1-7ca1-40ed-9c70-7186b7c770e9)
  )
  (wire (pts (xy 12.7 254) (xy 12.7 260.985))
    (stroke (width 0) (type default))
    (uuid bfaeff94-d697-47fe-abf1-d9a1bbc0139c)
  )
  (wire (pts (xy 12.7 154.305) (xy 12.7 147.32))
    (stroke (width 0) (type default))
    (uuid bfb8f6fc-0f44-452e-8c56-fe0953cfaeec)
  )
  (wire (pts (xy 118.11 139.7) (xy 114.935 139.7))
    (stroke (width 0) (type default))
    (uuid c11e219a-5d94-4154-8034-1b1643f0d4df)
  )
  (polyline (pts (xy 6.35 25.4) (xy 204.47 25.4))
    (stroke (width 0) (type default))
    (uuid c2ce6867-42d1-48d0-bc0c-0fafe3a00e5c)
  )

  (wire (pts (xy 177.8 246.38) (xy 177.8 254))
    (stroke (width 0) (type default))
    (uuid c36901b5-e601-4d7d-b5f0-f89ce2c7286f)
  )
  (wire (pts (xy 79.375 46.355) (xy 79.375 38.1))
    (stroke (width 0) (type default))
    (uuid c3e9320a-b8d7-4c71-a8b8-4bb862266002)
  )
  (wire (pts (xy 194.31 246.38) (xy 191.135 246.38))
    (stroke (width 0) (type default))
    (uuid c410b28f-e0ca-4b0c-a9be-22f5fac3fe0f)
  )
  (wire (pts (xy 146.05 91.44) (xy 167.64 91.44))
    (stroke (width 0) (type default))
    (uuid c49ed1cf-aded-4eb7-ae81-0a9378542741)
  )
  (wire (pts (xy 146.05 215.265) (xy 146.05 223.52))
    (stroke (width 0) (type default))
    (uuid c6449cad-58c3-4c7f-a953-3e68dbcaf0e4)
  )
  (wire (pts (xy 168.275 200.66) (xy 168.275 208.915))
    (stroke (width 0) (type default))
    (uuid c6fece79-512b-40b1-8633-e2142b7ef2b6)
  )
  (wire (pts (xy 51.435 155.575) (xy 48.26 155.575))
    (stroke (width 0) (type default))
    (uuid c7613143-7db1-4e37-b9f2-099fec1deab8)
  )
  (wire (pts (xy 101.6 147.32) (xy 101.6 155.575))
    (stroke (width 0) (type default))
    (uuid c91badbf-848b-4712-af31-6c369dc92283)
  )
  (wire (pts (xy 66.675 38.1) (xy 60.96 38.1))
    (stroke (width 0) (type default))
    (uuid c95a6d31-4524-4a35-b7e8-3cf32463a1ca)
  )
  (wire (pts (xy 133.35 200.66) (xy 133.35 223.52))
    (stroke (width 0) (type default))
    (uuid ccbb54db-b819-4772-b678-68e689a85089)
  )
  (wire (pts (xy 184.785 147.32) (xy 200.025 147.32))
    (stroke (width 0) (type default))
    (uuid cd40a8c9-b5ce-43e3-a634-90c49a513553)
  )
  (wire (pts (xy 146.05 99.695) (xy 146.05 91.44))
    (stroke (width 0) (type default))
    (uuid cd4973b4-ad53-4e85-929c-4e6228bd0a79)
  )
  (wire (pts (xy 79.375 276.86) (xy 133.35 276.86))
    (stroke (width 0) (type default))
    (uuid d211d395-f25e-440d-aa5b-7f557a6e029a)
  )
  (wire (pts (xy 79.375 107.315) (xy 79.375 116.84))
    (stroke (width 0) (type default))
    (uuid d2438657-a1ea-461b-9d82-b9d71ef0dd3e)
  )
  (wire (pts (xy 66.675 147.32) (xy 66.675 170.18))
    (stroke (width 0) (type default))
    (uuid d55ed646-3810-4dd0-bb82-166b9a15704f)
  )
  (wire (pts (xy 146.05 268.605) (xy 146.05 276.86))
    (stroke (width 0) (type default))
    (uuid d6fac26c-3ba6-4e99-a01d-699ce81b9f25)
  )
  (wire (pts (xy 146.05 254) (xy 146.05 260.985))
    (stroke (width 0) (type default))
    (uuid d8cc8d81-d53a-4e7f-b801-3c69e4cfe358)
  )
  (wire (pts (xy 168.275 193.04) (xy 171.45 193.04))
    (stroke (width 0) (type default))
    (uuid db8ee25c-f332-4dd6-a6b4-65afef5d72f3)
  )
  (wire (pts (xy 101.6 155.575) (xy 104.775 155.575))
    (stroke (width 0) (type default))
    (uuid dfc1f872-2169-4d2c-a24e-e81ee64ef8b4)
  )
  (wire (pts (xy 34.925 139.7) (xy 38.1 139.7))
    (stroke (width 0) (type default))
    (uuid e0ffcf51-5d2d-4e0b-8319-20cda02050f3)
  )
  (wire (pts (xy 184.785 208.915) (xy 181.61 208.915))
    (stroke (width 0) (type default))
    (uuid e146077c-decc-49c8-9488-a77d56491865)
  )
  (wire (pts (xy 111.125 262.255) (xy 114.3 262.255))
    (stroke (width 0) (type default))
    (uuid e16174bc-8bc9-4972-8fae-bc1f1044d601)
  )
  (wire (pts (xy 12.7 116.84) (xy 66.675 116.84))
    (stroke (width 0) (type default))
    (uuid e1a3015c-a3dc-42fe-a2f4-dda42acece22)
  )
  (wire (pts (xy 133.35 91.44) (xy 133.35 116.84))
    (stroke (width 0) (type default))
    (uuid e2cd4764-03c3-4c61-860c-9d2600a8d28e)
  )
  (wire (pts (xy 146.05 170.18) (xy 200.025 170.18))
    (stroke (width 0) (type default))
    (uuid e2e01541-68d7-41c3-bc3b-8ef00368bf7e)
  )
  (wire (pts (xy 101.6 200.66) (xy 101.6 208.915))
    (stroke (width 0) (type default))
    (uuid e37ae185-958c-457c-9b82-f247c7fb3a5d)
  )
  (polyline (pts (xy 138.43 186.055) (xy 138.43 238.125))
    (stroke (width 0) (type default))
    (uuid e410de2f-2d04-4e77-893b-aacb13b0e2c5)
  )

  (wire (pts (xy 12.7 215.265) (xy 12.7 223.52))
    (stroke (width 0) (type default))
    (uuid e5a89825-1196-4320-ba6d-405de625fe59)
  )
  (wire (pts (xy 51.435 193.04) (xy 51.435 200.66))
    (stroke (width 0) (type default))
    (uuid e5d92824-b349-40e0-ae15-4d9755bd8998)
  )
  (wire (pts (xy 200.025 147.32) (xy 200.025 170.18))
    (stroke (width 0) (type default))
    (uuid e77d69f8-e206-4fe8-8876-09293459720d)
  )
  (wire (pts (xy 12.7 170.18) (xy 66.675 170.18))
    (stroke (width 0) (type default))
    (uuid e82e2f17-41dc-4510-b9c8-8a2c53f87f03)
  )
  (wire (pts (xy 146.05 63.5) (xy 200.025 63.5))
    (stroke (width 0) (type default))
    (uuid e9913b27-f8b4-45da-91bf-bfbf36483636)
  )
  (polyline (pts (xy 71.755 132.715) (xy 71.755 184.785))
    (stroke (width 0) (type default))
    (uuid ea55f727-a0e2-45d1-b26a-83c1e8e3673d)
  )
  (polyline (pts (xy 138.43 79.375) (xy 138.43 131.445))
    (stroke (width 0) (type default))
    (uuid eaa4a68c-dbd2-45cd-a788-28785b662200)
  )

  (wire (pts (xy 146.05 38.1) (xy 167.64 38.1))
    (stroke (width 0) (type default))
    (uuid ee3025bc-f1ba-4b23-947a-745fef097d89)
  )
  (wire (pts (xy 200.025 200.66) (xy 200.025 223.52))
    (stroke (width 0) (type default))
    (uuid ee96035f-3b5f-4816-b6ad-1755291179e0)
  )
  (wire (pts (xy 12.7 91.44) (xy 34.29 91.44))
    (stroke (width 0) (type default))
    (uuid eebe38d7-c059-4daf-9fbb-96177cebf023)
  )
  (wire (pts (xy 51.435 139.7) (xy 48.26 139.7))
    (stroke (width 0) (type default))
    (uuid eefae181-fb7c-47ea-af63-86c8940781fc)
  )
  (wire (pts (xy 66.675 91.44) (xy 66.675 116.84))
    (stroke (width 0) (type default))
    (uuid efc20d03-f92f-4e48-99c5-7243a70d6f61)
  )
  (wire (pts (xy 184.785 193.04) (xy 181.61 193.04))
    (stroke (width 0) (type default))
    (uuid efd9e941-6609-4c4c-822e-343f5c160c9b)
  )
  (wire (pts (xy 177.8 254) (xy 172.085 254))
    (stroke (width 0) (type default))
    (uuid f227fe70-bad2-4a52-8406-fa0a2139a02f)
  )
  (wire (pts (xy 184.785 147.32) (xy 184.785 155.575))
    (stroke (width 0) (type default))
    (uuid f22e29f2-73ed-46ef-8378-a2da82e72386)
  )
  (wire (pts (xy 146.05 223.52) (xy 200.025 223.52))
    (stroke (width 0) (type default))
    (uuid f2e6b095-07f7-4d3c-bea4-889782bf4ed6)
  )
  (wire (pts (xy 133.35 254) (xy 133.35 276.86))
    (stroke (width 0) (type default))
    (uuid f5dada26-c05a-4f53-a934-8e5889bfcaba)
  )
  (polyline (pts (xy 6.35 132.08) (xy 204.47 132.08))
    (stroke (width 0) (type default))
    (uuid f5e57674-c3b7-410b-adf9-58e36f4e0365)
  )

  (wire (pts (xy 118.11 193.04) (xy 114.935 193.04))
    (stroke (width 0) (type default))
    (uuid f8ad9ecb-8771-47cf-ad9f-ca77f07624c9)
  )
  (wire (pts (xy 101.6 139.7) (xy 104.775 139.7))
    (stroke (width 0) (type default))
    (uuid f956481f-921b-4067-a996-0d255481c0d7)
  )
  (wire (pts (xy 146.05 200.66) (xy 146.05 207.645))
    (stroke (width 0) (type default))
    (uuid fa7c8427-ee11-4fff-ae47-c77e77f3c4d9)
  )
  (wire (pts (xy 168.275 200.66) (xy 146.05 200.66))
    (stroke (width 0) (type default))
    (uuid fad71047-7959-4e34-8607-96aa12142f7e)
  )
  (wire (pts (xy 79.375 260.985) (xy 79.375 254))
    (stroke (width 0) (type default))
    (uuid faebf7e6-ce50-4f25-a98f-9dadce3c8e4e)
  )
  (wire (pts (xy 34.925 200.66) (xy 34.925 208.915))
    (stroke (width 0) (type default))
    (uuid fd0fdcdc-6a05-4655-a71e-6e6d726741a2)
  )
  (wire (pts (xy 184.15 38.1) (xy 177.8 38.1))
    (stroke (width 0) (type default))
    (uuid ff0df06e-71a3-404b-a7c2-08ace44fd218)
  )

  (text "I =" (at 141.605 289.56 0)
    (effects (font (size 2.54 2.54)) (justify left bottom))
    (uuid 015df15e-a5e9-4382-8dff-3c53cb3f467c)
  )
  (text "15" (at 141.605 243.84 0)
    (effects (font (size 2.54 2.54)) (justify left bottom))
    (uuid 0db5ca26-5125-41a8-b872-8e35825ab190)
  )
  (text "R_total=" (at 141.605 69.85 0)
    (effects (font (size 2.54 2.54)) (justify left bottom))
    (uuid 16a7677b-19b4-481a-ad98-0a61ecbec6c7)
  )
  (text "R_total=" (at 141.605 229.87 0)
    (effects (font (size 2.54 2.54)) (justify left bottom))
    (uuid 1eb869d1-cc2b-4fe5-9f62-f0bb964b335b)
  )
  (text "R_total=" (at 74.93 229.87 0)
    (effects (font (size 2.54 2.54)) (justify left bottom))
    (uuid 1f162de9-a091-4839-9a6e-2a337f8af6cc)
  )
  (text "3" (at 141.605 30.48 0)
    (effects (font (size 2.54 2.54)) (justify left bottom))
    (uuid 1f9e637a-5e64-458a-9eec-c763e688a5ad)
  )
  (text "9" (at 141.605 137.16 0)
    (effects (font (size 2.54 2.54)) (justify left bottom))
    (uuid 2c2dfb5d-64b9-4692-9362-a20612fe917d)
  )
  (text "1" (at 8.255 30.48 0)
    (effects (font (size 2.54 2.54)) (justify left bottom))
    (uuid 2d9aff25-e214-49ef-99bd-9f857ef1174b)
  )
  (text "I =" (at 8.255 76.2 0)
    (effects (font (size 2.54 2.54)) (justify left bottom))
    (uuid 31559937-6899-4c73-a8dc-f90300b3f1ae)
  )
  (text "I =" (at 141.605 236.22 0)
    (effects (font (size 2.54 2.54)) (justify left bottom))
    (uuid 42b5f2b7-f00d-4528-a886-069391034a2a)
  )
  (text "5" (at 74.93 83.82 0)
    (effects (font (size 2.54 2.54)) (justify left bottom))
    (uuid 45094e9b-a901-4108-a038-1896f4b11bf2)
  )
  (text "7" (at 8.255 137.16 0)
    (effects (font (size 2.54 2.54)) (justify left bottom))
    (uuid 47b01488-0826-45c1-aba1-d4b495324e84)
  )
  (text "I =" (at 74.93 236.22 0)
    (effects (font (size 2.54 2.54)) (justify left bottom))
    (uuid 4a8c443a-34a8-49d2-8b62-6e73e2edc047)
  )
  (text "R_total=" (at 8.255 283.21 0)
    (effects (font (size 2.54 2.54)) (justify left bottom))
    (uuid 5cb5fa9a-1f8a-489d-bb80-a58633442726)
  )
  (text "I =" (at 74.93 182.88 0)
    (effects (font (size 2.54 2.54)) (justify left bottom))
    (uuid 6c07b94b-a261-49d0-b39d-90fce0b8c8dd)
  )
  (text "I =" (at 8.255 182.88 0)
    (effects (font (size 2.54 2.54)) (justify left bottom))
    (uuid 6cccd98d-2d4b-48fa-aa5b-c27550763db4)
  )
  (text "I =" (at 74.93 289.56 0)
    (effects (font (size 2.54 2.54)) (justify left bottom))
    (uuid 73d43e2d-e22f-45fe-a1f8-8ee39c7eb930)
  )
  (text "R_total=" (at 8.255 69.85 0)
    (effects (font (size 2.54 2.54)) (justify left bottom))
    (uuid 747869a5-9531-48c3-b085-e907c7239d99)
  )
  (text "R_total=" (at 74.93 283.21 0)
    (effects (font (size 2.54 2.54)) (justify left bottom))
    (uuid 7d56226d-cc96-45f2-9a5d-f0c97070dc0e)
  )
  (text "R_total=" (at 8.255 229.87 0)
    (effects (font (size 2.54 2.54)) (justify left bottom))
    (uuid 854e5214-64f6-4cbb-a615-e4d3a6eff7b9)
  )
  (text "I =" (at 74.93 129.54 0)
    (effects (font (size 2.54 2.54)) (justify left bottom))
    (uuid 890c17f5-ecef-414a-8478-5d35ef156cd6)
  )
  (text "I =" (at 74.93 76.2 0)
    (effects (font (size 2.54 2.54)) (justify left bottom))
    (uuid 8b196ebd-a062-45d6-9362-47823951608d)
  )
  (text "13" (at 8.255 243.84 0)
    (effects (font (size 2.54 2.54)) (justify left bottom))
    (uuid 900289a6-23e3-433b-b665-b6eb77c59f45)
  )
  (text "R_total=" (at 8.255 123.19 0)
    (effects (font (size 2.54 2.54)) (justify left bottom))
    (uuid 95efc8d3-7c60-43fe-9d79-98ce8555c20e)
  )
  (text "12" (at 141.605 190.5 0)
    (effects (font (size 2.54 2.54)) (justify left bottom))
    (uuid 97036222-de78-4046-9739-641530d3aaaf)
  )
  (text "R_total=" (at 74.93 123.19 0)
    (effects (font (size 2.54 2.54)) (justify left bottom))
    (uuid 97e0b917-a2a1-4b01-83b3-ed6268471cfa)
  )
  (text "R_total=" (at 141.605 176.53 0)
    (effects (font (size 2.54 2.54)) (justify left bottom))
    (uuid a5ff9dd3-375b-4f48-a418-ed8fbc9caa8a)
  )
  (text "I =" (at 141.605 76.2 0)
    (effects (font (size 2.54 2.54)) (justify left bottom))
    (uuid a6e8754f-8471-40a8-8bd7-e446e5dee1e7)
  )
  (text "2" (at 74.93 30.48 0)
    (effects (font (size 2.54 2.54)) (justify left bottom))
    (uuid b01534e4-01f7-41d4-a2c8-cd7840d223b2)
  )
  (text "R_total=" (at 8.255 176.53 0)
    (effects (font (size 2.54 2.54)) (justify left bottom))
    (uuid b2463649-04a2-4a88-9db8-8973b12cfe45)
  )
  (text "14" (at 74.93 243.84 0)
    (effects (font (size 2.54 2.54)) (justify left bottom))
    (uuid b446b1fb-4e4a-4bac-977d-11bad767a917)
  )
  (text "R_total=" (at 141.605 283.21 0)
    (effects (font (size 2.54 2.54)) (justify left bottom))
    (uuid b70540a5-3889-4674-9598-67243d491340)
  )
  (text "I =" (at 8.255 289.56 0)
    (effects (font (size 2.54 2.54)) (justify left bottom))
    (uuid bc086447-423e-4bbf-92da-a2427a96589d)
  )
  (text "ALUMNO:________________________________________ GRUPO:________ FECHA:__________"
    (at 8.89 21.59 0)
    (effects (font (size 2.54 2.54)) (justify left bottom))
    (uuid bda1cd37-79c9-48b7-81a5-fadd03931841)
  )
  (text "11" (at 74.93 190.5 0)
    (effects (font (size 2.54 2.54)) (justify left bottom))
    (uuid c927d28e-fd21-40c0-b9b1-c9b19913e9c2)
  )
  (text "8" (at 74.93 137.16 0)
    (effects (font (size 2.54 2.54)) (justify left bottom))
    (uuid d0354436-30d8-4a43-b6fa-bc83053b8512)
  )
  (text "RESISTENCIAS EQUIVALENTES EN SERIE Y PARALELO     LÁMINA 1"
    (at 8.89 12.7 0)
    (effects (font (size 2.54 2.54)) (justify left bottom))
    (uuid d97e39d0-d71d-44ef-a04f-b13b5185a73b)
  )
  (text "10" (at 8.255 190.5 0)
    (effects (font (size 2.54 2.54)) (justify left bottom))
    (uuid da321766-16ff-4463-8679-1afa43f79238)
  )
  (text "4" (at 8.255 83.82 0)
    (effects (font (size 2.54 2.54)) (justify left bottom))
    (uuid dddc6b7c-4987-43af-9ae6-c1648635fba4)
  )
  (text "R_total=" (at 74.93 69.85 0)
    (effects (font (size 2.54 2.54)) (justify left bottom))
    (uuid e6081f1c-593a-4f16-8116-80b52308489a)
  )
  (text "I =" (at 141.605 182.88 0)
    (effects (font (size 2.54 2.54)) (justify left bottom))
    (uuid e9a13df0-3a1f-437d-b918-efbf9ee8c1bd)
  )
  (text "R_total=" (at 141.605 123.19 0)
    (effects (font (size 2.54 2.54)) (justify left bottom))
    (uuid ea47aa5f-c84e-47a5-97e6-633c1cade4c7)
  )
  (text "6" (at 141.605 83.82 0)
    (effects (font (size 2.54 2.54)) (justify left bottom))
    (uuid ea95ae57-402c-47fd-bd14-adc6c4d4fa05)
  )
  (text "R_total=" (at 74.93 176.53 0)
    (effects (font (size 2.54 2.54)) (justify left bottom))
    (uuid eb5fe6e9-5b43-4f9d-aabe-872106ee84b8)
  )
  (text "I =" (at 8.255 129.54 0)
    (effects (font (size 2.54 2.54)) (justify left bottom))
    (uuid f3898882-ea73-4dc5-8286-c4e2a789fdbd)
  )
  (text "I =" (at 141.605 129.54 0)
    (effects (font (size 2.54 2.54)) (justify left bottom))
    (uuid f4629358-1c14-4678-bfdd-135fba97f6ae)
  )
  (text "I =" (at 8.255 236.22 0)
    (effects (font (size 2.54 2.54)) (justify left bottom))
    (uuid f9b5cc26-24a0-4f5a-83cb-2af6d3cd2782)
  )

  (symbol (lib_id "electric-resistencias-serie-paralelo-rescue:Pila-simbolos") (at 12.7 46.355 0) (unit 1)
    (in_bom yes) (on_board yes) (dnp no)
    (uuid 00000000-0000-0000-0000-0000609df2c2)
    (property "Reference" "V1" (at 17.2212 48.0568 0)
      (effects (font (size 2.54 2.54)) (justify left))
    )
    (property "Value" "6v" (at 17.2212 52.2732 0)
      (effects (font (size 2.54 2.54)) (justify left))
    )
    (property "Footprint" "" (at 12.7 49.53 0)
      (effects (font (size 1.27 1.27)) hide)
    )
    (property "Datasheet" "" (at 12.7 49.53 0)
      (effects (font (size 1.27 1.27)) hide)
    )
    (pin "" (uuid ddefa6da-d4c6-455b-90cf-fd39a43af26b))
    (pin "" (uuid ddefa6da-d4c6-455b-90cf-fd39a43af26b))
    (instances
      (project "electric-resistencias-serie-paralelo"
        (path "/a07d2b7f-a6d8-47c5-b452-fc30abd618f0"
          (reference "V1") (unit 1)
        )
      )
    )
  )

  (symbol (lib_id "electric-resistencias-serie-paralelo-rescue:resistencia-simbolos") (at 44.45 38.1 270) (unit 1)
    (in_bom yes) (on_board yes) (dnp no)
    (uuid 00000000-0000-0000-0000-0000609e07d8)
    (property "Reference" "R1" (at 39.37 34.29 90)
      (effects (font (size 2.54 2.54)))
    )
    (property "Value" "1Ω" (at 39.37 41.91 90)
      (effects (font (size 2.54 2.54)))
    )
    (property "Footprint" "" (at 41.91 40.64 0)
      (effects (font (size 1.27 1.27)) hide)
    )
    (property "Datasheet" "" (at 41.91 40.64 0)
      (effects (font (size 1.27 1.27)) hide)
    )
    (pin "" (uuid 428ee72b-593e-482f-9819-8beb2a203ec4))
    (pin "" (uuid 428ee72b-593e-482f-9819-8beb2a203ec4))
    (instances
      (project "electric-resistencias-serie-paralelo"
        (path "/a07d2b7f-a6d8-47c5-b452-fc30abd618f0"
          (reference "R1") (unit 1)
        )
      )
    )
  )

  (symbol (lib_id "electric-resistencias-serie-paralelo-rescue:resistencia-simbolos") (at 60.96 38.1 270) (unit 1)
    (in_bom yes) (on_board yes) (dnp no)
    (uuid 00000000-0000-0000-0000-000060a690dc)
    (property "Reference" "R2" (at 55.88 34.29 90)
      (effects (font (size 2.54 2.54)))
    )
    (property "Value" "1Ω" (at 55.88 41.91 90)
      (effects (font (size 2.54 2.54)))
    )
    (property "Footprint" "" (at 58.42 40.64 0)
      (effects (font (size 1.27 1.27)) hide)
    )
    (property "Datasheet" "" (at 58.42 40.64 0)
      (effects (font (size 1.27 1.27)) hide)
    )
    (pin "" (uuid 40fae81c-dbb7-4878-8c2b-01c65d97181b))
    (pin "" (uuid 40fae81c-dbb7-4878-8c2b-01c65d97181b))
    (instances
      (project "electric-resistencias-serie-paralelo"
        (path "/a07d2b7f-a6d8-47c5-b452-fc30abd618f0"
          (reference "R2") (unit 1)
        )
      )
    )
  )

  (symbol (lib_id "electric-resistencias-serie-paralelo-rescue:Pila-simbolos") (at 79.375 46.355 0) (unit 1)
    (in_bom yes) (on_board yes) (dnp no)
    (uuid 00000000-0000-0000-0000-000060e41e6f)
    (property "Reference" "V1" (at 83.8962 48.0568 0)
      (effects (font (size 2.54 2.54)) (justify left))
    )
    (property "Value" "6v" (at 83.8962 52.2732 0)
      (effects (font (size 2.54 2.54)) (justify left))
    )
    (property "Footprint" "" (at 79.375 49.53 0)
      (effects (font (size 1.27 1.27)) hide)
    )
    (property "Datasheet" "" (at 79.375 49.53 0)
      (effects (font (size 1.27 1.27)) hide)
    )
    (pin "" (uuid 8932e068-9d6a-4c03-ac4a-3444684274b4))
    (pin "" (uuid 8932e068-9d6a-4c03-ac4a-3444684274b4))
    (instances
      (project "electric-resistencias-serie-paralelo"
        (path "/a07d2b7f-a6d8-47c5-b452-fc30abd618f0"
          (reference "V1") (unit 1)
        )
      )
    )
  )

  (symbol (lib_id "electric-resistencias-serie-paralelo-rescue:resistencia-simbolos") (at 111.125 38.1 270) (unit 1)
    (in_bom yes) (on_board yes) (dnp no)
    (uuid 00000000-0000-0000-0000-000060e41e7d)
    (property "Reference" "R1" (at 106.045 34.29 90)
      (effects (font (size 2.54 2.54)))
    )
    (property "Value" "1Ω" (at 106.045 41.91 90)
      (effects (font (size 2.54 2.54)))
    )
    (property "Footprint" "" (at 108.585 40.64 0)
      (effects (font (size 1.27 1.27)) hide)
    )
    (property "Datasheet" "" (at 108.585 40.64 0)
      (effects (font (size 1.27 1.27)) hide)
    )
    (pin "" (uuid 05515632-c942-46a9-90ac-b65e5b2e1206))
    (pin "" (uuid 05515632-c942-46a9-90ac-b65e5b2e1206))
    (instances
      (project "electric-resistencias-serie-paralelo"
        (path "/a07d2b7f-a6d8-47c5-b452-fc30abd618f0"
          (reference "R1") (unit 1)
        )
      )
    )
  )

  (symbol (lib_id "electric-resistencias-serie-paralelo-rescue:resistencia-simbolos") (at 127.635 38.1 270) (unit 1)
    (in_bom yes) (on_board yes) (dnp no)
    (uuid 00000000-0000-0000-0000-000060e41e87)
    (property "Reference" "R2" (at 122.555 34.29 90)
      (effects (font (size 2.54 2.54)))
    )
    (property "Value" "2Ω" (at 122.555 41.91 90)
      (effects (font (size 2.54 2.54)))
    )
    (property "Footprint" "" (at 125.095 40.64 0)
      (effects (font (size 1.27 1.27)) hide)
    )
    (property "Datasheet" "" (at 125.095 40.64 0)
      (effects (font (size 1.27 1.27)) hide)
    )
    (pin "" (uuid ca572065-80d9-4fae-a68c-218e6c2a83f9))
    (pin "" (uuid ca572065-80d9-4fae-a68c-218e6c2a83f9))
    (instances
      (project "electric-resistencias-serie-paralelo"
        (path "/a07d2b7f-a6d8-47c5-b452-fc30abd618f0"
          (reference "R2") (unit 1)
        )
      )
    )
  )

  (symbol (lib_id "electric-resistencias-serie-paralelo-rescue:Pila-simbolos") (at 146.05 46.355 0) (unit 1)
    (in_bom yes) (on_board yes) (dnp no)
    (uuid 00000000-0000-0000-0000-000060e5409f)
    (property "Reference" "V1" (at 150.5712 48.0568 0)
      (effects (font (size 2.54 2.54)) (justify left))
    )
    (property "Value" "6v" (at 150.5712 52.2732 0)
      (effects (font (size 2.54 2.54)) (justify left))
    )
    (property "Footprint" "" (at 146.05 49.53 0)
      (effects (font (size 1.27 1.27)) hide)
    )
    (property "Datasheet" "" (at 146.05 49.53 0)
      (effects (font (size 1.27 1.27)) hide)
    )
    (pin "" (uuid 5d809a34-5a01-442e-957d-f21f2e1b1ecf))
    (pin "" (uuid 5d809a34-5a01-442e-957d-f21f2e1b1ecf))
    (instances
      (project "electric-resistencias-serie-paralelo"
        (path "/a07d2b7f-a6d8-47c5-b452-fc30abd618f0"
          (reference "V1") (unit 1)
        )
      )
    )
  )

  (symbol (lib_id "electric-resistencias-serie-paralelo-rescue:resistencia-simbolos") (at 177.8 38.1 270) (unit 1)
    (in_bom yes) (on_board yes) (dnp no)
    (uuid 00000000-0000-0000-0000-000060e540ad)
    (property "Reference" "R1" (at 172.72 34.29 90)
      (effects (font (size 2.54 2.54)))
    )
    (property "Value" "5Ω" (at 172.72 41.91 90)
      (effects (font (size 2.54 2.54)))
    )
    (property "Footprint" "" (at 175.26 40.64 0)
      (effects (font (size 1.27 1.27)) hide)
    )
    (property "Datasheet" "" (at 175.26 40.64 0)
      (effects (font (size 1.27 1.27)) hide)
    )
    (pin "" (uuid 73f68575-93be-48b9-89db-1c09724a42bc))
    (pin "" (uuid 73f68575-93be-48b9-89db-1c09724a42bc))
    (instances
      (project "electric-resistencias-serie-paralelo"
        (path "/a07d2b7f-a6d8-47c5-b452-fc30abd618f0"
          (reference "R1") (unit 1)
        )
      )
    )
  )

  (symbol (lib_id "electric-resistencias-serie-paralelo-rescue:resistencia-simbolos") (at 194.31 38.1 270) (unit 1)
    (in_bom yes) (on_board yes) (dnp no)
    (uuid 00000000-0000-0000-0000-000060e540b7)
    (property "Reference" "R2" (at 189.23 34.29 90)
      (effects (font (size 2.54 2.54)))
    )
    (property "Value" "10Ω" (at 189.23 41.91 90)
      (effects (font (size 2.54 2.54)))
    )
    (property "Footprint" "" (at 191.77 40.64 0)
      (effects (font (size 1.27 1.27)) hide)
    )
    (property "Datasheet" "" (at 191.77 40.64 0)
      (effects (font (size 1.27 1.27)) hide)
    )
    (pin "" (uuid 0c3600ed-59d6-4276-8da0-7f47e9789807))
    (pin "" (uuid 0c3600ed-59d6-4276-8da0-7f47e9789807))
    (instances
      (project "electric-resistencias-serie-paralelo"
        (path "/a07d2b7f-a6d8-47c5-b452-fc30abd618f0"
          (reference "R2") (unit 1)
        )
      )
    )
  )

  (symbol (lib_id "electric-resistencias-serie-paralelo-rescue:Pila-simbolos") (at 12.7 99.695 0) (unit 1)
    (in_bom yes) (on_board yes) (dnp no)
    (uuid 00000000-0000-0000-0000-000060e67038)
    (property "Reference" "V1" (at 17.2212 101.3968 0)
      (effects (font (size 2.54 2.54)) (justify left))
    )
    (property "Value" "6v" (at 17.2212 105.6132 0)
      (effects (font (size 2.54 2.54)) (justify left))
    )
    (property "Footprint" "" (at 12.7 102.87 0)
      (effects (font (size 1.27 1.27)) hide)
    )
    (property "Datasheet" "" (at 12.7 102.87 0)
      (effects (font (size 1.27 1.27)) hide)
    )
    (pin "" (uuid d733ed34-a664-48ec-89a9-4a11cc803b55))
    (pin "" (uuid d733ed34-a664-48ec-89a9-4a11cc803b55))
    (instances
      (project "electric-resistencias-serie-paralelo"
        (path "/a07d2b7f-a6d8-47c5-b452-fc30abd618f0"
          (reference "V1") (unit 1)
        )
      )
    )
  )

  (symbol (lib_id "electric-resistencias-serie-paralelo-rescue:resistencia-simbolos") (at 44.45 91.44 270) (unit 1)
    (in_bom yes) (on_board yes) (dnp no)
    (uuid 00000000-0000-0000-0000-000060e67046)
    (property "Reference" "R1" (at 39.37 87.63 90)
      (effects (font (size 2.54 2.54)))
    )
    (property "Value" "100Ω" (at 39.37 95.25 90)
      (effects (font (size 2.54 2.54)))
    )
    (property "Footprint" "" (at 41.91 93.98 0)
      (effects (font (size 1.27 1.27)) hide)
    )
    (property "Datasheet" "" (at 41.91 93.98 0)
      (effects (font (size 1.27 1.27)) hide)
    )
    (pin "" (uuid 2b96d6fc-34b3-40fb-9cfd-e9ab68d63159))
    (pin "" (uuid 2b96d6fc-34b3-40fb-9cfd-e9ab68d63159))
    (instances
      (project "electric-resistencias-serie-paralelo"
        (path "/a07d2b7f-a6d8-47c5-b452-fc30abd618f0"
          (reference "R1") (unit 1)
        )
      )
    )
  )

  (symbol (lib_id "electric-resistencias-serie-paralelo-rescue:resistencia-simbolos") (at 60.96 91.44 270) (unit 1)
    (in_bom yes) (on_board yes) (dnp no)
    (uuid 00000000-0000-0000-0000-000060e67050)
    (property "Reference" "R2" (at 55.88 87.63 90)
      (effects (font (size 2.54 2.54)))
    )
    (property "Value" "100Ω" (at 55.88 95.25 90)
      (effects (font (size 2.54 2.54)))
    )
    (property "Footprint" "" (at 58.42 93.98 0)
      (effects (font (size 1.27 1.27)) hide)
    )
    (property "Datasheet" "" (at 58.42 93.98 0)
      (effects (font (size 1.27 1.27)) hide)
    )
    (pin "" (uuid 922275cf-dffd-4fe7-aab0-347dcca1e29b))
    (pin "" (uuid 922275cf-dffd-4fe7-aab0-347dcca1e29b))
    (instances
      (project "electric-resistencias-serie-paralelo"
        (path "/a07d2b7f-a6d8-47c5-b452-fc30abd618f0"
          (reference "R2") (unit 1)
        )
      )
    )
  )

  (symbol (lib_id "electric-resistencias-serie-paralelo-rescue:Pila-simbolos") (at 79.375 99.695 0) (unit 1)
    (in_bom yes) (on_board yes) (dnp no)
    (uuid 00000000-0000-0000-0000-000060e67060)
    (property "Reference" "V1" (at 83.8962 101.3968 0)
      (effects (font (size 2.54 2.54)) (justify left))
    )
    (property "Value" "6v" (at 83.8962 105.6132 0)
      (effects (font (size 2.54 2.54)) (justify left))
    )
    (property "Footprint" "" (at 79.375 102.87 0)
      (effects (font (size 1.27 1.27)) hide)
    )
    (property "Datasheet" "" (at 79.375 102.87 0)
      (effects (font (size 1.27 1.27)) hide)
    )
    (pin "" (uuid 5d2c166c-25b0-4fd4-b071-8b2e90852290))
    (pin "" (uuid 5d2c166c-25b0-4fd4-b071-8b2e90852290))
    (instances
      (project "electric-resistencias-serie-paralelo"
        (path "/a07d2b7f-a6d8-47c5-b452-fc30abd618f0"
          (reference "V1") (unit 1)
        )
      )
    )
  )

  (symbol (lib_id "electric-resistencias-serie-paralelo-rescue:resistencia-simbolos") (at 111.125 91.44 270) (unit 1)
    (in_bom yes) (on_board yes) (dnp no)
    (uuid 00000000-0000-0000-0000-000060e6706e)
    (property "Reference" "R1" (at 106.045 87.63 90)
      (effects (font (size 2.54 2.54)))
    )
    (property "Value" "1KΩ" (at 106.045 95.25 90)
      (effects (font (size 2.54 2.54)))
    )
    (property "Footprint" "" (at 108.585 93.98 0)
      (effects (font (size 1.27 1.27)) hide)
    )
    (property "Datasheet" "" (at 108.585 93.98 0)
      (effects (font (size 1.27 1.27)) hide)
    )
    (pin "" (uuid 068c6aa2-b4df-42f3-bbe8-252bf849983f))
    (pin "" (uuid 068c6aa2-b4df-42f3-bbe8-252bf849983f))
    (instances
      (project "electric-resistencias-serie-paralelo"
        (path "/a07d2b7f-a6d8-47c5-b452-fc30abd618f0"
          (reference "R1") (unit 1)
        )
      )
    )
  )

  (symbol (lib_id "electric-resistencias-serie-paralelo-rescue:resistencia-simbolos") (at 127.635 91.44 270) (unit 1)
    (in_bom yes) (on_board yes) (dnp no)
    (uuid 00000000-0000-0000-0000-000060e67078)
    (property "Reference" "R2" (at 122.555 87.63 90)
      (effects (font (size 2.54 2.54)))
    )
    (property "Value" "2KΩ" (at 122.555 95.25 90)
      (effects (font (size 2.54 2.54)))
    )
    (property "Footprint" "" (at 125.095 93.98 0)
      (effects (font (size 1.27 1.27)) hide)
    )
    (property "Datasheet" "" (at 125.095 93.98 0)
      (effects (font (size 1.27 1.27)) hide)
    )
    (pin "" (uuid a55bae93-5ced-4d8a-b327-691cf3f750f6))
    (pin "" (uuid a55bae93-5ced-4d8a-b327-691cf3f750f6))
    (instances
      (project "electric-resistencias-serie-paralelo"
        (path "/a07d2b7f-a6d8-47c5-b452-fc30abd618f0"
          (reference "R2") (unit 1)
        )
      )
    )
  )

  (symbol (lib_id "electric-resistencias-serie-paralelo-rescue:Pila-simbolos") (at 146.05 99.695 0) (unit 1)
    (in_bom yes) (on_board yes) (dnp no)
    (uuid 00000000-0000-0000-0000-000060e67089)
    (property "Reference" "V1" (at 150.5712 101.3968 0)
      (effects (font (size 2.54 2.54)) (justify left))
    )
    (property "Value" "6v" (at 150.5712 105.6132 0)
      (effects (font (size 2.54 2.54)) (justify left))
    )
    (property "Footprint" "" (at 146.05 102.87 0)
      (effects (font (size 1.27 1.27)) hide)
    )
    (property "Datasheet" "" (at 146.05 102.87 0)
      (effects (font (size 1.27 1.27)) hide)
    )
    (pin "" (uuid cb33a0fc-72be-483f-83ff-5c136c78dcbc))
    (pin "" (uuid cb33a0fc-72be-483f-83ff-5c136c78dcbc))
    (instances
      (project "electric-resistencias-serie-paralelo"
        (path "/a07d2b7f-a6d8-47c5-b452-fc30abd618f0"
          (reference "V1") (unit 1)
        )
      )
    )
  )

  (symbol (lib_id "electric-resistencias-serie-paralelo-rescue:resistencia-simbolos") (at 177.8 91.44 270) (unit 1)
    (in_bom yes) (on_board yes) (dnp no)
    (uuid 00000000-0000-0000-0000-000060e67097)
    (property "Reference" "R1" (at 172.72 87.63 90)
      (effects (font (size 2.54 2.54)))
    )
    (property "Value" "500Ω" (at 172.72 95.25 90)
      (effects (font (size 2.54 2.54)))
    )
    (property "Footprint" "" (at 175.26 93.98 0)
      (effects (font (size 1.27 1.27)) hide)
    )
    (property "Datasheet" "" (at 175.26 93.98 0)
      (effects (font (size 1.27 1.27)) hide)
    )
    (pin "" (uuid a2cc6218-9e21-4afc-ad8a-7f40df209367))
    (pin "" (uuid a2cc6218-9e21-4afc-ad8a-7f40df209367))
    (instances
      (project "electric-resistencias-serie-paralelo"
        (path "/a07d2b7f-a6d8-47c5-b452-fc30abd618f0"
          (reference "R1") (unit 1)
        )
      )
    )
  )

  (symbol (lib_id "electric-resistencias-serie-paralelo-rescue:resistencia-simbolos") (at 194.31 91.44 270) (unit 1)
    (in_bom yes) (on_board yes) (dnp no)
    (uuid 00000000-0000-0000-0000-000060e670a1)
    (property "Reference" "R2" (at 189.23 87.63 90)
      (effects (font (size 2.54 2.54)))
    )
    (property "Value" "1KΩ" (at 189.23 95.25 90)
      (effects (font (size 2.54 2.54)))
    )
    (property "Footprint" "" (at 191.77 93.98 0)
      (effects (font (size 1.27 1.27)) hide)
    )
    (property "Datasheet" "" (at 191.77 93.98 0)
      (effects (font (size 1.27 1.27)) hide)
    )
    (pin "" (uuid 57ba7e2d-2a4e-4813-b59d-c1430077a47d))
    (pin "" (uuid 57ba7e2d-2a4e-4813-b59d-c1430077a47d))
    (instances
      (project "electric-resistencias-serie-paralelo"
        (path "/a07d2b7f-a6d8-47c5-b452-fc30abd618f0"
          (reference "R2") (unit 1)
        )
      )
    )
  )

  (symbol (lib_id "electric-resistencias-serie-paralelo-rescue:Pila-simbolos") (at 12.7 154.305 0) (unit 1)
    (in_bom yes) (on_board yes) (dnp no)
    (uuid 00000000-0000-0000-0000-000060e6a435)
    (property "Reference" "V1" (at 17.2212 156.0068 0)
      (effects (font (size 2.54 2.54)) (justify left))
    )
    (property "Value" "6v" (at 17.2212 160.2232 0)
      (effects (font (size 2.54 2.54)) (justify left))
    )
    (property "Footprint" "" (at 12.7 157.48 0)
      (effects (font (size 1.27 1.27)) hide)
    )
    (property "Datasheet" "" (at 12.7 157.48 0)
      (effects (font (size 1.27 1.27)) hide)
    )
    (pin "" (uuid e649f0ad-b52f-4863-96ad-29690948c0f7))
    (pin "" (uuid e649f0ad-b52f-4863-96ad-29690948c0f7))
    (instances
      (project "electric-resistencias-serie-paralelo"
        (path "/a07d2b7f-a6d8-47c5-b452-fc30abd618f0"
          (reference "V1") (unit 1)
        )
      )
    )
  )

  (symbol (lib_id "electric-resistencias-serie-paralelo-rescue:resistencia-simbolos") (at 48.26 139.7 270) (unit 1)
    (in_bom yes) (on_board yes) (dnp no)
    (uuid 00000000-0000-0000-0000-000060e6a443)
    (property "Reference" "R1" (at 43.18 135.89 90)
      (effects (font (size 2.54 2.54)))
    )
    (property "Value" "2Ω" (at 43.18 143.51 90)
      (effects (font (size 2.54 2.54)))
    )
    (property "Footprint" "" (at 45.72 142.24 0)
      (effects (font (size 1.27 1.27)) hide)
    )
    (property "Datasheet" "" (at 45.72 142.24 0)
      (effects (font (size 1.27 1.27)) hide)
    )
    (pin "" (uuid 17388657-29b2-4819-b3d0-eb774609f774))
    (pin "" (uuid 17388657-29b2-4819-b3d0-eb774609f774))
    (instances
      (project "electric-resistencias-serie-paralelo"
        (path "/a07d2b7f-a6d8-47c5-b452-fc30abd618f0"
          (reference "R1") (unit 1)
        )
      )
    )
  )

  (symbol (lib_id "electric-resistencias-serie-paralelo-rescue:resistencia-simbolos") (at 48.26 155.575 270) (unit 1)
    (in_bom yes) (on_board yes) (dnp no)
    (uuid 00000000-0000-0000-0000-000060e6a44d)
    (property "Reference" "R2" (at 43.18 151.765 90)
      (effects (font (size 2.54 2.54)))
    )
    (property "Value" "2Ω" (at 43.18 159.385 90)
      (effects (font (size 2.54 2.54)))
    )
    (property "Footprint" "" (at 45.72 158.115 0)
      (effects (font (size 1.27 1.27)) hide)
    )
    (property "Datasheet" "" (at 45.72 158.115 0)
      (effects (font (size 1.27 1.27)) hide)
    )
    (pin "" (uuid cdfa2b20-b861-4957-9764-0c3baa58cb08))
    (pin "" (uuid cdfa2b20-b861-4957-9764-0c3baa58cb08))
    (instances
      (project "electric-resistencias-serie-paralelo"
        (path "/a07d2b7f-a6d8-47c5-b452-fc30abd618f0"
          (reference "R2") (unit 1)
        )
      )
    )
  )

  (symbol (lib_id "electric-resistencias-serie-paralelo-rescue:Pila-simbolos") (at 79.375 154.305 0) (unit 1)
    (in_bom yes) (on_board yes) (dnp no)
    (uuid 00000000-0000-0000-0000-000060e6a45d)
    (property "Reference" "V1" (at 83.8962 156.0068 0)
      (effects (font (size 2.54 2.54)) (justify left))
    )
    (property "Value" "6v" (at 83.8962 160.2232 0)
      (effects (font (size 2.54 2.54)) (justify left))
    )
    (property "Footprint" "" (at 79.375 157.48 0)
      (effects (font (size 1.27 1.27)) hide)
    )
    (property "Datasheet" "" (at 79.375 157.48 0)
      (effects (font (size 1.27 1.27)) hide)
    )
    (pin "" (uuid b027e829-b724-472a-ba21-1242e49c9553))
    (pin "" (uuid b027e829-b724-472a-ba21-1242e49c9553))
    (instances
      (project "electric-resistencias-serie-paralelo"
        (path "/a07d2b7f-a6d8-47c5-b452-fc30abd618f0"
          (reference "V1") (unit 1)
        )
      )
    )
  )

  (symbol (lib_id "electric-resistencias-serie-paralelo-rescue:Pila-simbolos") (at 146.05 154.305 0) (unit 1)
    (in_bom yes) (on_board yes) (dnp no)
    (uuid 00000000-0000-0000-0000-000060e6a485)
    (property "Reference" "V1" (at 150.5712 156.0068 0)
      (effects (font (size 2.54 2.54)) (justify left))
    )
    (property "Value" "6v" (at 150.5712 160.2232 0)
      (effects (font (size 2.54 2.54)) (justify left))
    )
    (property "Footprint" "" (at 146.05 157.48 0)
      (effects (font (size 1.27 1.27)) hide)
    )
    (property "Datasheet" "" (at 146.05 157.48 0)
      (effects (font (size 1.27 1.27)) hide)
    )
    (pin "" (uuid 3395d653-7f37-4eb0-b12f-d21c793a04d3))
    (pin "" (uuid 3395d653-7f37-4eb0-b12f-d21c793a04d3))
    (instances
      (project "electric-resistencias-serie-paralelo"
        (path "/a07d2b7f-a6d8-47c5-b452-fc30abd618f0"
          (reference "V1") (unit 1)
        )
      )
    )
  )

  (symbol (lib_id "electric-resistencias-serie-paralelo-rescue:Pila-simbolos") (at 12.7 207.645 0) (unit 1)
    (in_bom yes) (on_board yes) (dnp no)
    (uuid 00000000-0000-0000-0000-000060e6a4ae)
    (property "Reference" "V1" (at 17.2212 209.3468 0)
      (effects (font (size 2.54 2.54)) (justify left))
    )
    (property "Value" "6v" (at 17.2212 213.5632 0)
      (effects (font (size 2.54 2.54)) (justify left))
    )
    (property "Footprint" "" (at 12.7 210.82 0)
      (effects (font (size 1.27 1.27)) hide)
    )
    (property "Datasheet" "" (at 12.7 210.82 0)
      (effects (font (size 1.27 1.27)) hide)
    )
    (pin "" (uuid b9c1a2e1-aee7-4a78-800d-32dbeae0da58))
    (pin "" (uuid b9c1a2e1-aee7-4a78-800d-32dbeae0da58))
    (instances
      (project "electric-resistencias-serie-paralelo"
        (path "/a07d2b7f-a6d8-47c5-b452-fc30abd618f0"
          (reference "V1") (unit 1)
        )
      )
    )
  )

  (symbol (lib_id "electric-resistencias-serie-paralelo-rescue:Pila-simbolos") (at 79.375 207.645 0) (unit 1)
    (in_bom yes) (on_board yes) (dnp no)
    (uuid 00000000-0000-0000-0000-000060e6a4d6)
    (property "Reference" "V1" (at 83.8962 209.3468 0)
      (effects (font (size 2.54 2.54)) (justify left))
    )
    (property "Value" "6v" (at 83.8962 213.5632 0)
      (effects (font (size 2.54 2.54)) (justify left))
    )
    (property "Footprint" "" (at 79.375 210.82 0)
      (effects (font (size 1.27 1.27)) hide)
    )
    (property "Datasheet" "" (at 79.375 210.82 0)
      (effects (font (size 1.27 1.27)) hide)
    )
    (pin "" (uuid d4d120af-3d2d-4a5b-b63e-1e371dd0feaf))
    (pin "" (uuid d4d120af-3d2d-4a5b-b63e-1e371dd0feaf))
    (instances
      (project "electric-resistencias-serie-paralelo"
        (path "/a07d2b7f-a6d8-47c5-b452-fc30abd618f0"
          (reference "V1") (unit 1)
        )
      )
    )
  )

  (symbol (lib_id "electric-resistencias-serie-paralelo-rescue:Pila-simbolos") (at 146.05 207.645 0) (unit 1)
    (in_bom yes) (on_board yes) (dnp no)
    (uuid 00000000-0000-0000-0000-000060e6a4fe)
    (property "Reference" "V1" (at 150.5712 209.3468 0)
      (effects (font (size 2.54 2.54)) (justify left))
    )
    (property "Value" "6v" (at 150.5712 213.5632 0)
      (effects (font (size 2.54 2.54)) (justify left))
    )
    (property "Footprint" "" (at 146.05 210.82 0)
      (effects (font (size 1.27 1.27)) hide)
    )
    (property "Datasheet" "" (at 146.05 210.82 0)
      (effects (font (size 1.27 1.27)) hide)
    )
    (pin "" (uuid 5c019df1-0e30-45ff-a9d6-d7300a95ecec))
    (pin "" (uuid 5c019df1-0e30-45ff-a9d6-d7300a95ecec))
    (instances
      (project "electric-resistencias-serie-paralelo"
        (path "/a07d2b7f-a6d8-47c5-b452-fc30abd618f0"
          (reference "V1") (unit 1)
        )
      )
    )
  )

  (symbol (lib_id "electric-resistencias-serie-paralelo-rescue:Pila-simbolos") (at 12.7 260.985 0) (unit 1)
    (in_bom yes) (on_board yes) (dnp no)
    (uuid 00000000-0000-0000-0000-000060e74fc0)
    (property "Reference" "V1" (at 17.2212 262.6868 0)
      (effects (font (size 2.54 2.54)) (justify left))
    )
    (property "Value" "6v" (at 17.2212 266.9032 0)
      (effects (font (size 2.54 2.54)) (justify left))
    )
    (property "Footprint" "" (at 12.7 264.16 0)
      (effects (font (size 1.27 1.27)) hide)
    )
    (property "Datasheet" "" (at 12.7 264.16 0)
      (effects (font (size 1.27 1.27)) hide)
    )
    (pin "" (uuid e2bb49fb-cc29-43d0-a30d-8b8783b973c0))
    (pin "" (uuid e2bb49fb-cc29-43d0-a30d-8b8783b973c0))
    (instances
      (project "electric-resistencias-serie-paralelo"
        (path "/a07d2b7f-a6d8-47c5-b452-fc30abd618f0"
          (reference "V1") (unit 1)
        )
      )
    )
  )

  (symbol (lib_id "electric-resistencias-serie-paralelo-rescue:Pila-simbolos") (at 79.375 260.985 0) (unit 1)
    (in_bom yes) (on_board yes) (dnp no)
    (uuid 00000000-0000-0000-0000-000060e74fe8)
    (property "Reference" "V1" (at 83.8962 262.6868 0)
      (effects (font (size 2.54 2.54)) (justify left))
    )
    (property "Value" "6v" (at 83.8962 266.9032 0)
      (effects (font (size 2.54 2.54)) (justify left))
    )
    (property "Footprint" "" (at 79.375 264.16 0)
      (effects (font (size 1.27 1.27)) hide)
    )
    (property "Datasheet" "" (at 79.375 264.16 0)
      (effects (font (size 1.27 1.27)) hide)
    )
    (pin "" (uuid 5f70e649-74cb-472c-a49a-1d1647185562))
    (pin "" (uuid 5f70e649-74cb-472c-a49a-1d1647185562))
    (instances
      (project "electric-resistencias-serie-paralelo"
        (path "/a07d2b7f-a6d8-47c5-b452-fc30abd618f0"
          (reference "V1") (unit 1)
        )
      )
    )
  )

  (symbol (lib_id "electric-resistencias-serie-paralelo-rescue:Pila-simbolos") (at 146.05 260.985 0) (unit 1)
    (in_bom yes) (on_board yes) (dnp no)
    (uuid 00000000-0000-0000-0000-000060e75010)
    (property "Reference" "V1" (at 150.5712 262.6868 0)
      (effects (font (size 2.54 2.54)) (justify left))
    )
    (property "Value" "6v" (at 150.5712 266.9032 0)
      (effects (font (size 2.54 2.54)) (justify left))
    )
    (property "Footprint" "" (at 146.05 264.16 0)
      (effects (font (size 1.27 1.27)) hide)
    )
    (property "Datasheet" "" (at 146.05 264.16 0)
      (effects (font (size 1.27 1.27)) hide)
    )
    (pin "" (uuid 1fcbe5ae-9b65-46a7-9655-f94ebbbb536b))
    (pin "" (uuid 1fcbe5ae-9b65-46a7-9655-f94ebbbb536b))
    (instances
      (project "electric-resistencias-serie-paralelo"
        (path "/a07d2b7f-a6d8-47c5-b452-fc30abd618f0"
          (reference "V1") (unit 1)
        )
      )
    )
  )

  (symbol (lib_id "electric-resistencias-serie-paralelo-rescue:CopyRight-simbolos") (at 194.945 5.08 0) (unit 1)
    (in_bom yes) (on_board yes) (dnp no)
    (uuid 00000000-0000-0000-0000-000060f1268f)
    (property "Reference" "CP?" (at 205.74 -3.175 0)
      (effects (font (size 1.016 1.016)) hide)
    )
    (property "Value" "CopyRight" (at 199.39 -3.175 0)
      (effects (font (size 1.016 1.016)) hide)
    )
    (property "Footprint" "" (at 192.405 -3.81 0)
      (effects (font (size 1.27 1.27)) hide)
    )
    (property "Datasheet" "" (at 194.945 0 0)
      (effects (font (size 1.27 1.27)) hide)
    )
    (property "License" "CC BY-SA 4.0" (at 201.93 7.62 0)
      (effects (font (size 1.905 1.905)) (justify right))
    )
    (property "Author" "" (at 208.915 6.35 0)
      (effects (font (size 1.27 1.27)))
    )
    (property "Date" "" (at 198.12 6.35 0)
      (effects (font (size 1.27 1.27)))
    )
    (property "Web" "www.picuino.com" (at 179.705 10.795 0)
      (effects (font (size 1.905 1.905)) (justify left))
    )
    (instances
      (project "electric-resistencias-serie-paralelo"
        (path "/a07d2b7f-a6d8-47c5-b452-fc30abd618f0"
          (reference "CP?") (unit 1)
        )
      )
    )
  )

  (symbol (lib_id "electric-resistencias-serie-paralelo-rescue:resistencia-simbolos") (at 114.935 139.7 270) (unit 1)
    (in_bom yes) (on_board yes) (dnp no)
    (uuid 00000000-0000-0000-0000-000060f37052)
    (property "Reference" "R1" (at 109.855 135.89 90)
      (effects (font (size 2.54 2.54)))
    )
    (property "Value" "3Ω" (at 109.855 143.51 90)
      (effects (font (size 2.54 2.54)))
    )
    (property "Footprint" "" (at 112.395 142.24 0)
      (effects (font (size 1.27 1.27)) hide)
    )
    (property "Datasheet" "" (at 112.395 142.24 0)
      (effects (font (size 1.27 1.27)) hide)
    )
    (pin "" (uuid ea0d23bf-1f12-4e9b-9f96-9e9f566f5097))
    (pin "" (uuid ea0d23bf-1f12-4e9b-9f96-9e9f566f5097))
    (instances
      (project "electric-resistencias-serie-paralelo"
        (path "/a07d2b7f-a6d8-47c5-b452-fc30abd618f0"
          (reference "R1") (unit 1)
        )
      )
    )
  )

  (symbol (lib_id "electric-resistencias-serie-paralelo-rescue:resistencia-simbolos") (at 114.935 155.575 270) (unit 1)
    (in_bom yes) (on_board yes) (dnp no)
    (uuid 00000000-0000-0000-0000-000060f3705c)
    (property "Reference" "R2" (at 109.855 151.765 90)
      (effects (font (size 2.54 2.54)))
    )
    (property "Value" "6Ω" (at 109.855 159.385 90)
      (effects (font (size 2.54 2.54)))
    )
    (property "Footprint" "" (at 112.395 158.115 0)
      (effects (font (size 1.27 1.27)) hide)
    )
    (property "Datasheet" "" (at 112.395 158.115 0)
      (effects (font (size 1.27 1.27)) hide)
    )
    (pin "" (uuid 58aa0802-af4c-4c49-8137-db4886fdb06f))
    (pin "" (uuid 58aa0802-af4c-4c49-8137-db4886fdb06f))
    (instances
      (project "electric-resistencias-serie-paralelo"
        (path "/a07d2b7f-a6d8-47c5-b452-fc30abd618f0"
          (reference "R2") (unit 1)
        )
      )
    )
  )

  (symbol (lib_id "electric-resistencias-serie-paralelo-rescue:resistencia-simbolos") (at 181.61 139.7 270) (unit 1)
    (in_bom yes) (on_board yes) (dnp no)
    (uuid 00000000-0000-0000-0000-000060f52193)
    (property "Reference" "R1" (at 176.53 135.89 90)
      (effects (font (size 2.54 2.54)))
    )
    (property "Value" "5Ω" (at 176.53 143.51 90)
      (effects (font (size 2.54 2.54)))
    )
    (property "Footprint" "" (at 179.07 142.24 0)
      (effects (font (size 1.27 1.27)) hide)
    )
    (property "Datasheet" "" (at 179.07 142.24 0)
      (effects (font (size 1.27 1.27)) hide)
    )
    (pin "" (uuid d0104aed-70bd-4efb-85ad-8ca74f283be5))
    (pin "" (uuid d0104aed-70bd-4efb-85ad-8ca74f283be5))
    (instances
      (project "electric-resistencias-serie-paralelo"
        (path "/a07d2b7f-a6d8-47c5-b452-fc30abd618f0"
          (reference "R1") (unit 1)
        )
      )
    )
  )

  (symbol (lib_id "electric-resistencias-serie-paralelo-rescue:resistencia-simbolos") (at 181.61 155.575 270) (unit 1)
    (in_bom yes) (on_board yes) (dnp no)
    (uuid 00000000-0000-0000-0000-000060f52199)
    (property "Reference" "R2" (at 176.53 151.765 90)
      (effects (font (size 2.54 2.54)))
    )
    (property "Value" "20Ω" (at 176.53 159.385 90)
      (effects (font (size 2.54 2.54)))
    )
    (property "Footprint" "" (at 179.07 158.115 0)
      (effects (font (size 1.27 1.27)) hide)
    )
    (property "Datasheet" "" (at 179.07 158.115 0)
      (effects (font (size 1.27 1.27)) hide)
    )
    (pin "" (uuid 623e8e85-9142-4a92-bf31-c8bf88e885bd))
    (pin "" (uuid 623e8e85-9142-4a92-bf31-c8bf88e885bd))
    (instances
      (project "electric-resistencias-serie-paralelo"
        (path "/a07d2b7f-a6d8-47c5-b452-fc30abd618f0"
          (reference "R2") (unit 1)
        )
      )
    )
  )

  (symbol (lib_id "electric-resistencias-serie-paralelo-rescue:resistencia-simbolos") (at 48.26 193.04 270) (unit 1)
    (in_bom yes) (on_board yes) (dnp no)
    (uuid 00000000-0000-0000-0000-000060f55702)
    (property "Reference" "R1" (at 43.18 189.23 90)
      (effects (font (size 2.54 2.54)))
    )
    (property "Value" "100Ω" (at 43.18 196.85 90)
      (effects (font (size 2.54 2.54)))
    )
    (property "Footprint" "" (at 45.72 195.58 0)
      (effects (font (size 1.27 1.27)) hide)
    )
    (property "Datasheet" "" (at 45.72 195.58 0)
      (effects (font (size 1.27 1.27)) hide)
    )
    (pin "" (uuid 4878578f-0cae-47e7-a159-51eba28466ff))
    (pin "" (uuid 4878578f-0cae-47e7-a159-51eba28466ff))
    (instances
      (project "electric-resistencias-serie-paralelo"
        (path "/a07d2b7f-a6d8-47c5-b452-fc30abd618f0"
          (reference "R1") (unit 1)
        )
      )
    )
  )

  (symbol (lib_id "electric-resistencias-serie-paralelo-rescue:resistencia-simbolos") (at 48.26 208.915 270) (unit 1)
    (in_bom yes) (on_board yes) (dnp no)
    (uuid 00000000-0000-0000-0000-000060f55708)
    (property "Reference" "R2" (at 43.18 205.105 90)
      (effects (font (size 2.54 2.54)))
    )
    (property "Value" "100Ω" (at 43.18 212.725 90)
      (effects (font (size 2.54 2.54)))
    )
    (property "Footprint" "" (at 45.72 211.455 0)
      (effects (font (size 1.27 1.27)) hide)
    )
    (property "Datasheet" "" (at 45.72 211.455 0)
      (effects (font (size 1.27 1.27)) hide)
    )
    (pin "" (uuid 7a0dd466-fbbc-4964-9425-fe4a2d92e858))
    (pin "" (uuid 7a0dd466-fbbc-4964-9425-fe4a2d92e858))
    (instances
      (project "electric-resistencias-serie-paralelo"
        (path "/a07d2b7f-a6d8-47c5-b452-fc30abd618f0"
          (reference "R2") (unit 1)
        )
      )
    )
  )

  (symbol (lib_id "electric-resistencias-serie-paralelo-rescue:resistencia-simbolos") (at 114.935 193.04 270) (unit 1)
    (in_bom yes) (on_board yes) (dnp no)
    (uuid 00000000-0000-0000-0000-000060f58eb5)
    (property "Reference" "R1" (at 109.855 189.23 90)
      (effects (font (size 2.54 2.54)))
    )
    (property "Value" "100Ω" (at 109.855 196.85 90)
      (effects (font (size 2.54 2.54)))
    )
    (property "Footprint" "" (at 112.395 195.58 0)
      (effects (font (size 1.27 1.27)) hide)
    )
    (property "Datasheet" "" (at 112.395 195.58 0)
      (effects (font (size 1.27 1.27)) hide)
    )
    (pin "" (uuid 5b8b0b30-19e7-4501-98cc-661d8b86b1c3))
    (pin "" (uuid 5b8b0b30-19e7-4501-98cc-661d8b86b1c3))
    (instances
      (project "electric-resistencias-serie-paralelo"
        (path "/a07d2b7f-a6d8-47c5-b452-fc30abd618f0"
          (reference "R1") (unit 1)
        )
      )
    )
  )

  (symbol (lib_id "electric-resistencias-serie-paralelo-rescue:resistencia-simbolos") (at 114.935 208.915 270) (unit 1)
    (in_bom yes) (on_board yes) (dnp no)
    (uuid 00000000-0000-0000-0000-000060f58ebb)
    (property "Reference" "R2" (at 109.855 205.105 90)
      (effects (font (size 2.54 2.54)))
    )
    (property "Value" "150Ω" (at 109.855 212.725 90)
      (effects (font (size 2.54 2.54)))
    )
    (property "Footprint" "" (at 112.395 211.455 0)
      (effects (font (size 1.27 1.27)) hide)
    )
    (property "Datasheet" "" (at 112.395 211.455 0)
      (effects (font (size 1.27 1.27)) hide)
    )
    (pin "" (uuid f4fde8e0-8a4b-4acf-84de-273b8daa1023))
    (pin "" (uuid f4fde8e0-8a4b-4acf-84de-273b8daa1023))
    (instances
      (project "electric-resistencias-serie-paralelo"
        (path "/a07d2b7f-a6d8-47c5-b452-fc30abd618f0"
          (reference "R2") (unit 1)
        )
      )
    )
  )

  (symbol (lib_id "electric-resistencias-serie-paralelo-rescue:resistencia-simbolos") (at 181.61 193.04 270) (unit 1)
    (in_bom yes) (on_board yes) (dnp no)
    (uuid 00000000-0000-0000-0000-000060f5d2b8)
    (property "Reference" "R1" (at 176.53 189.23 90)
      (effects (font (size 2.54 2.54)))
    )
    (property "Value" "250Ω" (at 176.53 196.85 90)
      (effects (font (size 2.54 2.54)))
    )
    (property "Footprint" "" (at 179.07 195.58 0)
      (effects (font (size 1.27 1.27)) hide)
    )
    (property "Datasheet" "" (at 179.07 195.58 0)
      (effects (font (size 1.27 1.27)) hide)
    )
    (pin "" (uuid f646551e-ac30-440f-b314-9998d5b7f5a7))
    (pin "" (uuid f646551e-ac30-440f-b314-9998d5b7f5a7))
    (instances
      (project "electric-resistencias-serie-paralelo"
        (path "/a07d2b7f-a6d8-47c5-b452-fc30abd618f0"
          (reference "R1") (unit 1)
        )
      )
    )
  )

  (symbol (lib_id "electric-resistencias-serie-paralelo-rescue:resistencia-simbolos") (at 181.61 208.915 270) (unit 1)
    (in_bom yes) (on_board yes) (dnp no)
    (uuid 00000000-0000-0000-0000-000060f5d2be)
    (property "Reference" "R2" (at 176.53 205.105 90)
      (effects (font (size 2.54 2.54)))
    )
    (property "Value" "1KΩ" (at 176.53 212.725 90)
      (effects (font (size 2.54 2.54)))
    )
    (property "Footprint" "" (at 179.07 211.455 0)
      (effects (font (size 1.27 1.27)) hide)
    )
    (property "Datasheet" "" (at 179.07 211.455 0)
      (effects (font (size 1.27 1.27)) hide)
    )
    (pin "" (uuid b3bc2863-ef91-4052-9505-fabe7f2db9a1))
    (pin "" (uuid b3bc2863-ef91-4052-9505-fabe7f2db9a1))
    (instances
      (project "electric-resistencias-serie-paralelo"
        (path "/a07d2b7f-a6d8-47c5-b452-fc30abd618f0"
          (reference "R2") (unit 1)
        )
      )
    )
  )

  (symbol (lib_id "electric-resistencias-serie-paralelo-rescue:resistencia-simbolos") (at 57.785 246.38 270) (unit 1)
    (in_bom yes) (on_board yes) (dnp no)
    (uuid 00000000-0000-0000-0000-000060f6269b)
    (property "Reference" "R2" (at 52.705 242.57 90)
      (effects (font (size 2.54 2.54)))
    )
    (property "Value" "4Ω" (at 52.705 250.19 90)
      (effects (font (size 2.54 2.54)))
    )
    (property "Footprint" "" (at 55.245 248.92 0)
      (effects (font (size 1.27 1.27)) hide)
    )
    (property "Datasheet" "" (at 55.245 248.92 0)
      (effects (font (size 1.27 1.27)) hide)
    )
    (pin "" (uuid 7e47d923-16cc-4c5c-9ad3-640d8975a861))
    (pin "" (uuid 7e47d923-16cc-4c5c-9ad3-640d8975a861))
    (instances
      (project "electric-resistencias-serie-paralelo"
        (path "/a07d2b7f-a6d8-47c5-b452-fc30abd618f0"
          (reference "R2") (unit 1)
        )
      )
    )
  )

  (symbol (lib_id "electric-resistencias-serie-paralelo-rescue:resistencia-simbolos") (at 57.785 262.255 270) (unit 1)
    (in_bom yes) (on_board yes) (dnp no)
    (uuid 00000000-0000-0000-0000-000060f626a1)
    (property "Reference" "R3" (at 52.705 258.445 90)
      (effects (font (size 2.54 2.54)))
    )
    (property "Value" "12Ω" (at 52.705 266.065 90)
      (effects (font (size 2.54 2.54)))
    )
    (property "Footprint" "" (at 55.245 264.795 0)
      (effects (font (size 1.27 1.27)) hide)
    )
    (property "Datasheet" "" (at 55.245 264.795 0)
      (effects (font (size 1.27 1.27)) hide)
    )
    (pin "" (uuid aeb40b3d-0430-4da7-98a9-087868e3f55a))
    (pin "" (uuid aeb40b3d-0430-4da7-98a9-087868e3f55a))
    (instances
      (project "electric-resistencias-serie-paralelo"
        (path "/a07d2b7f-a6d8-47c5-b452-fc30abd618f0"
          (reference "R3") (unit 1)
        )
      )
    )
  )

  (symbol (lib_id "electric-resistencias-serie-paralelo-rescue:resistencia-simbolos") (at 38.735 254 270) (unit 1)
    (in_bom yes) (on_board yes) (dnp no)
    (uuid 00000000-0000-0000-0000-000060fb36b2)
    (property "Reference" "R1" (at 33.655 250.19 90)
      (effects (font (size 2.54 2.54)))
    )
    (property "Value" "3" (at 33.655 257.81 90)
      (effects (font (size 2.54 2.54)))
    )
    (property "Footprint" "" (at 36.195 256.54 0)
      (effects (font (size 1.27 1.27)) hide)
    )
    (property "Datasheet" "" (at 36.195 256.54 0)
      (effects (font (size 1.27 1.27)) hide)
    )
    (pin "" (uuid 9c0c1557-a09a-481d-87da-57a3c221da5a))
    (pin "" (uuid 9c0c1557-a09a-481d-87da-57a3c221da5a))
    (instances
      (project "electric-resistencias-serie-paralelo"
        (path "/a07d2b7f-a6d8-47c5-b452-fc30abd618f0"
          (reference "R1") (unit 1)
        )
      )
    )
  )

  (symbol (lib_id "electric-resistencias-serie-paralelo-rescue:resistencia-simbolos") (at 124.46 246.38 270) (unit 1)
    (in_bom yes) (on_board yes) (dnp no)
    (uuid 00000000-0000-0000-0000-000060fd7d48)
    (property "Reference" "R2" (at 119.38 242.57 90)
      (effects (font (size 2.54 2.54)))
    )
    (property "Value" "200Ω" (at 119.38 250.19 90)
      (effects (font (size 2.54 2.54)))
    )
    (property "Footprint" "" (at 121.92 248.92 0)
      (effects (font (size 1.27 1.27)) hide)
    )
    (property "Datasheet" "" (at 121.92 248.92 0)
      (effects (font (size 1.27 1.27)) hide)
    )
    (pin "" (uuid bfd2c8d1-ed5e-4819-82e0-ccd048d68625))
    (pin "" (uuid bfd2c8d1-ed5e-4819-82e0-ccd048d68625))
    (instances
      (project "electric-resistencias-serie-paralelo"
        (path "/a07d2b7f-a6d8-47c5-b452-fc30abd618f0"
          (reference "R2") (unit 1)
        )
      )
    )
  )

  (symbol (lib_id "electric-resistencias-serie-paralelo-rescue:resistencia-simbolos") (at 124.46 262.255 270) (unit 1)
    (in_bom yes) (on_board yes) (dnp no)
    (uuid 00000000-0000-0000-0000-000060fd7d4e)
    (property "Reference" "R3" (at 119.38 258.445 90)
      (effects (font (size 2.54 2.54)))
    )
    (property "Value" "300Ω" (at 119.38 266.065 90)
      (effects (font (size 2.54 2.54)))
    )
    (property "Footprint" "" (at 121.92 264.795 0)
      (effects (font (size 1.27 1.27)) hide)
    )
    (property "Datasheet" "" (at 121.92 264.795 0)
      (effects (font (size 1.27 1.27)) hide)
    )
    (pin "" (uuid 9236c9c2-5481-4d76-a526-395c46b259ae))
    (pin "" (uuid 9236c9c2-5481-4d76-a526-395c46b259ae))
    (instances
      (project "electric-resistencias-serie-paralelo"
        (path "/a07d2b7f-a6d8-47c5-b452-fc30abd618f0"
          (reference "R3") (unit 1)
        )
      )
    )
  )

  (symbol (lib_id "electric-resistencias-serie-paralelo-rescue:resistencia-simbolos") (at 105.41 254 270) (unit 1)
    (in_bom yes) (on_board yes) (dnp no)
    (uuid 00000000-0000-0000-0000-000060fd7d60)
    (property "Reference" "R1" (at 100.33 250.19 90)
      (effects (font (size 2.54 2.54)))
    )
    (property "Value" "80Ω" (at 100.33 257.81 90)
      (effects (font (size 2.54 2.54)))
    )
    (property "Footprint" "" (at 102.87 256.54 0)
      (effects (font (size 1.27 1.27)) hide)
    )
    (property "Datasheet" "" (at 102.87 256.54 0)
      (effects (font (size 1.27 1.27)) hide)
    )
    (pin "" (uuid 83336eb4-da8c-4477-90d4-1941d0e15dde))
    (pin "" (uuid 83336eb4-da8c-4477-90d4-1941d0e15dde))
    (instances
      (project "electric-resistencias-serie-paralelo"
        (path "/a07d2b7f-a6d8-47c5-b452-fc30abd618f0"
          (reference "R1") (unit 1)
        )
      )
    )
  )

  (symbol (lib_id "electric-resistencias-serie-paralelo-rescue:resistencia-simbolos") (at 191.135 246.38 270) (unit 1)
    (in_bom yes) (on_board yes) (dnp no)
    (uuid 00000000-0000-0000-0000-000060fe6dfa)
    (property "Reference" "R2" (at 186.055 242.57 90)
      (effects (font (size 2.54 2.54)))
    )
    (property "Value" "1KΩ" (at 186.055 250.19 90)
      (effects (font (size 2.54 2.54)))
    )
    (property "Footprint" "" (at 188.595 248.92 0)
      (effects (font (size 1.27 1.27)) hide)
    )
    (property "Datasheet" "" (at 188.595 248.92 0)
      (effects (font (size 1.27 1.27)) hide)
    )
    (pin "" (uuid 42842587-a0ec-4ca0-ac0f-1fe921a8e2d0))
    (pin "" (uuid 42842587-a0ec-4ca0-ac0f-1fe921a8e2d0))
    (instances
      (project "electric-resistencias-serie-paralelo"
        (path "/a07d2b7f-a6d8-47c5-b452-fc30abd618f0"
          (reference "R2") (unit 1)
        )
      )
    )
  )

  (symbol (lib_id "electric-resistencias-serie-paralelo-rescue:resistencia-simbolos") (at 191.135 262.255 270) (unit 1)
    (in_bom yes) (on_board yes) (dnp no)
    (uuid 00000000-0000-0000-0000-000060fe6e00)
    (property "Reference" "R3" (at 186.055 258.445 90)
      (effects (font (size 2.54 2.54)))
    )
    (property "Value" "4KΩ" (at 186.055 266.065 90)
      (effects (font (size 2.54 2.54)))
    )
    (property "Footprint" "" (at 188.595 264.795 0)
      (effects (font (size 1.27 1.27)) hide)
    )
    (property "Datasheet" "" (at 188.595 264.795 0)
      (effects (font (size 1.27 1.27)) hide)
    )
    (pin "" (uuid c1ebe60a-0c9b-470f-b8e8-194a5a258134))
    (pin "" (uuid c1ebe60a-0c9b-470f-b8e8-194a5a258134))
    (instances
      (project "electric-resistencias-serie-paralelo"
        (path "/a07d2b7f-a6d8-47c5-b452-fc30abd618f0"
          (reference "R3") (unit 1)
        )
      )
    )
  )

  (symbol (lib_id "electric-resistencias-serie-paralelo-rescue:resistencia-simbolos") (at 172.085 254 270) (unit 1)
    (in_bom yes) (on_board yes) (dnp no)
    (uuid 00000000-0000-0000-0000-000060fe6e12)
    (property "Reference" "R1" (at 167.005 250.19 90)
      (effects (font (size 2.54 2.54)))
    )
    (property "Value" "200Ω" (at 167.005 257.81 90)
      (effects (font (size 2.54 2.54)))
    )
    (property "Footprint" "" (at 169.545 256.54 0)
      (effects (font (size 1.27 1.27)) hide)
    )
    (property "Datasheet" "" (at 169.545 256.54 0)
      (effects (font (size 1.27 1.27)) hide)
    )
    (pin "" (uuid f42ddac1-54fd-455a-9893-113d5e1874a5))
    (pin "" (uuid f42ddac1-54fd-455a-9893-113d5e1874a5))
    (instances
      (project "electric-resistencias-serie-paralelo"
        (path "/a07d2b7f-a6d8-47c5-b452-fc30abd618f0"
          (reference "R1") (unit 1)
        )
      )
    )
  )

  (sheet (at 231.14 27.94) (size 53.34 33.02) (fields_autoplaced)
    (stroke (width 0) (type solid))
    (fill (color 0 0 0 0.0000))
    (uuid 00000000-0000-0000-0000-00005bcb2ef8)
    (property "Sheetname" "electric-resistencias-serie-paralelo-2" (at 231.14 26.5934 0)
      (effects (font (size 2.54 2.54)) (justify left bottom))
    )
    (property "Sheetfile" "electric-resistencias-serie-paralelo-2.kicad_sch" (at 231.14 62.0526 0)
      (effects (font (size 2.54 2.54)) (justify left top))
    )
    (instances
      (project "electric-resistencias-serie-paralelo"
        (path "/a07d2b7f-a6d8-47c5-b452-fc30abd618f0" (page "2"))
      )
    )
  )

  (sheet_instances
    (path "/" (page "1"))
  )
)
