(kicad_sch (version 20230121) (generator eeschema)

  (uuid 31026a4b-6439-43bf-baab-e850dc56ff91)

  (paper "A4")

  (lib_symbols
    (symbol "Connector_Generic:Conn_02x06_Counter_Clockwise" (pin_names (offset 1.016) hide) (in_bom yes) (on_board yes)
      (property "Reference" "J" (at 1.27 7.62 0)
        (effects (font (size 1.27 1.27)))
      )
      (property "Value" "Conn_02x06_Counter_Clockwise" (at 1.27 -10.16 0)
        (effects (font (size 1.27 1.27)))
      )
      (property "Footprint" "" (at 0 0 0)
        (effects (font (size 1.27 1.27)) hide)
      )
      (property "Datasheet" "~" (at 0 0 0)
        (effects (font (size 1.27 1.27)) hide)
      )
      (property "ki_keywords" "connector" (at 0 0 0)
        (effects (font (size 1.27 1.27)) hide)
      )
      (property "ki_description" "Generic connector, double row, 02x06, counter clockwise pin numbering scheme (similar to DIP package numbering), script generated (kicad-library-utils/schlib/autogen/connector/)" (at 0 0 0)
        (effects (font (size 1.27 1.27)) hide)
      )
      (property "ki_fp_filters" "Connector*:*_2x??_*" (at 0 0 0)
        (effects (font (size 1.27 1.27)) hide)
      )
      (symbol "Conn_02x06_Counter_Clockwise_1_1"
        (rectangle (start -1.27 -7.493) (end 0 -7.747)
          (stroke (width 0.1524) (type default))
          (fill (type none))
        )
        (rectangle (start -1.27 -4.953) (end 0 -5.207)
          (stroke (width 0.1524) (type default))
          (fill (type none))
        )
        (rectangle (start -1.27 -2.413) (end 0 -2.667)
          (stroke (width 0.1524) (type default))
          (fill (type none))
        )
        (rectangle (start -1.27 0.127) (end 0 -0.127)
          (stroke (width 0.1524) (type default))
          (fill (type none))
        )
        (rectangle (start -1.27 2.667) (end 0 2.413)
          (stroke (width 0.1524) (type default))
          (fill (type none))
        )
        (rectangle (start -1.27 5.207) (end 0 4.953)
          (stroke (width 0.1524) (type default))
          (fill (type none))
        )
        (rectangle (start -1.27 6.35) (end 3.81 -8.89)
          (stroke (width 0.254) (type default))
          (fill (type background))
        )
        (rectangle (start 3.81 -7.493) (end 2.54 -7.747)
          (stroke (width 0.1524) (type default))
          (fill (type none))
        )
        (rectangle (start 3.81 -4.953) (end 2.54 -5.207)
          (stroke (width 0.1524) (type default))
          (fill (type none))
        )
        (rectangle (start 3.81 -2.413) (end 2.54 -2.667)
          (stroke (width 0.1524) (type default))
          (fill (type none))
        )
        (rectangle (start 3.81 0.127) (end 2.54 -0.127)
          (stroke (width 0.1524) (type default))
          (fill (type none))
        )
        (rectangle (start 3.81 2.667) (end 2.54 2.413)
          (stroke (width 0.1524) (type default))
          (fill (type none))
        )
        (rectangle (start 3.81 5.207) (end 2.54 4.953)
          (stroke (width 0.1524) (type default))
          (fill (type none))
        )
        (pin passive line (at -5.08 5.08 0) (length 3.81)
          (name "Pin_1" (effects (font (size 1.27 1.27))))
          (number "1" (effects (font (size 1.27 1.27))))
        )
        (pin passive line (at 7.62 0 180) (length 3.81)
          (name "Pin_10" (effects (font (size 1.27 1.27))))
          (number "10" (effects (font (size 1.27 1.27))))
        )
        (pin passive line (at 7.62 2.54 180) (length 3.81)
          (name "Pin_11" (effects (font (size 1.27 1.27))))
          (number "11" (effects (font (size 1.27 1.27))))
        )
        (pin passive line (at 7.62 5.08 180) (length 3.81)
          (name "Pin_12" (effects (font (size 1.27 1.27))))
          (number "12" (effects (font (size 1.27 1.27))))
        )
        (pin passive line (at -5.08 2.54 0) (length 3.81)
          (name "Pin_2" (effects (font (size 1.27 1.27))))
          (number "2" (effects (font (size 1.27 1.27))))
        )
        (pin passive line (at -5.08 0 0) (length 3.81)
          (name "Pin_3" (effects (font (size 1.27 1.27))))
          (number "3" (effects (font (size 1.27 1.27))))
        )
        (pin passive line (at -5.08 -2.54 0) (length 3.81)
          (name "Pin_4" (effects (font (size 1.27 1.27))))
          (number "4" (effects (font (size 1.27 1.27))))
        )
        (pin passive line (at -5.08 -5.08 0) (length 3.81)
          (name "Pin_5" (effects (font (size 1.27 1.27))))
          (number "5" (effects (font (size 1.27 1.27))))
        )
        (pin passive line (at -5.08 -7.62 0) (length 3.81)
          (name "Pin_6" (effects (font (size 1.27 1.27))))
          (number "6" (effects (font (size 1.27 1.27))))
        )
        (pin passive line (at 7.62 -7.62 180) (length 3.81)
          (name "Pin_7" (effects (font (size 1.27 1.27))))
          (number "7" (effects (font (size 1.27 1.27))))
        )
        (pin passive line (at 7.62 -5.08 180) (length 3.81)
          (name "Pin_8" (effects (font (size 1.27 1.27))))
          (number "8" (effects (font (size 1.27 1.27))))
        )
        (pin passive line (at 7.62 -2.54 180) (length 3.81)
          (name "Pin_9" (effects (font (size 1.27 1.27))))
          (number "9" (effects (font (size 1.27 1.27))))
        )
      )
    )
    (symbol "power:+3.3V" (power) (pin_names (offset 0)) (in_bom yes) (on_board yes)
      (property "Reference" "#PWR" (at 0 -3.81 0)
        (effects (font (size 1.27 1.27)) hide)
      )
      (property "Value" "+3.3V" (at 0 3.556 0)
        (effects (font (size 1.27 1.27)))
      )
      (property "Footprint" "" (at 0 0 0)
        (effects (font (size 1.27 1.27)) hide)
      )
      (property "Datasheet" "" (at 0 0 0)
        (effects (font (size 1.27 1.27)) hide)
      )
      (property "ki_keywords" "global power" (at 0 0 0)
        (effects (font (size 1.27 1.27)) hide)
      )
      (property "ki_description" "Power symbol creates a global label with name \"+3.3V\"" (at 0 0 0)
        (effects (font (size 1.27 1.27)) hide)
      )
      (symbol "+3.3V_0_1"
        (polyline
          (pts
            (xy -0.762 1.27)
            (xy 0 2.54)
          )
          (stroke (width 0) (type default))
          (fill (type none))
        )
        (polyline
          (pts
            (xy 0 0)
            (xy 0 2.54)
          )
          (stroke (width 0) (type default))
          (fill (type none))
        )
        (polyline
          (pts
            (xy 0 2.54)
            (xy 0.762 1.27)
          )
          (stroke (width 0) (type default))
          (fill (type none))
        )
      )
      (symbol "+3.3V_1_1"
        (pin power_in line (at 0 0 90) (length 0) hide
          (name "+3.3V" (effects (font (size 1.27 1.27))))
          (number "1" (effects (font (size 1.27 1.27))))
        )
      )
    )
    (symbol "power:GND" (power) (pin_names (offset 0)) (in_bom yes) (on_board yes)
      (property "Reference" "#PWR" (at 0 -6.35 0)
        (effects (font (size 1.27 1.27)) hide)
      )
      (property "Value" "GND" (at 0 -3.81 0)
        (effects (font (size 1.27 1.27)))
      )
      (property "Footprint" "" (at 0 0 0)
        (effects (font (size 1.27 1.27)) hide)
      )
      (property "Datasheet" "" (at 0 0 0)
        (effects (font (size 1.27 1.27)) hide)
      )
      (property "ki_keywords" "global power" (at 0 0 0)
        (effects (font (size 1.27 1.27)) hide)
      )
      (property "ki_description" "Power symbol creates a global label with name \"GND\" , ground" (at 0 0 0)
        (effects (font (size 1.27 1.27)) hide)
      )
      (symbol "GND_0_1"
        (polyline
          (pts
            (xy 0 0)
            (xy 0 -1.27)
            (xy 1.27 -1.27)
            (xy 0 -2.54)
            (xy -1.27 -1.27)
            (xy 0 -1.27)
          )
          (stroke (width 0) (type default))
          (fill (type none))
        )
      )
      (symbol "GND_1_1"
        (pin power_in line (at 0 0 270) (length 0) hide
          (name "GND" (effects (font (size 1.27 1.27))))
          (number "1" (effects (font (size 1.27 1.27))))
        )
      )
    )
  )

  (junction (at 149.86 86.36) (diameter 0) (color 0 0 0 0)
    (uuid fc8196ba-ba02-497a-95ec-77cb1b54d4ec)
  )

  (wire (pts (xy 152.4 86.36) (xy 149.86 86.36))
    (stroke (width 0) (type default))
    (uuid 338c8dd2-089a-408b-a2ea-9af3c420114d)
  )
  (wire (pts (xy 157.48 105.41) (xy 157.48 99.06))
    (stroke (width 0) (type default))
    (uuid 39feb974-918f-47aa-a5a7-70a732ed17cf)
  )
  (wire (pts (xy 123.19 105.41) (xy 157.48 105.41))
    (stroke (width 0) (type default))
    (uuid 5ebfc7ac-e28e-40f7-b187-2cd6ac18d3bf)
  )
  (wire (pts (xy 149.86 86.36) (xy 147.32 86.36))
    (stroke (width 0) (type default))
    (uuid 5fea07e0-01de-4dce-8b09-d7a4b7d92ec9)
  )
  (wire (pts (xy 123.19 88.9) (xy 134.62 88.9))
    (stroke (width 0) (type default))
    (uuid 63924ccb-979a-4ebd-bf91-a33446b7c160)
  )
  (wire (pts (xy 149.86 88.9) (xy 149.86 86.36))
    (stroke (width 0) (type default))
    (uuid 93987133-a302-4b41-9de1-a7af32e609a8)
  )
  (wire (pts (xy 123.19 105.41) (xy 123.19 88.9))
    (stroke (width 0) (type default))
    (uuid bef8fddd-c489-40fb-8f98-2b0b032a5507)
  )
  (wire (pts (xy 165.1 99.06) (xy 157.48 99.06))
    (stroke (width 0) (type default))
    (uuid ce7ab240-f917-450d-bca8-22d5c9853729)
  )
  (wire (pts (xy 147.32 88.9) (xy 149.86 88.9))
    (stroke (width 0) (type default))
    (uuid e8727c22-0df5-493b-8773-de36f954bd97)
  )

  (symbol (lib_id "power:+3.3V") (at 152.4 86.36 0) (mirror y) (unit 1)
    (in_bom yes) (on_board yes) (dnp no) (fields_autoplaced)
    (uuid 13734158-26bb-4d30-b2aa-5dcb85cfcc89)
    (property "Reference" "#PWR?" (at 152.4 90.17 0)
      (effects (font (size 1.27 1.27)) hide)
    )
    (property "Value" "+3.3V" (at 152.4 81.28 0)
      (effects (font (size 1.27 1.27)))
    )
    (property "Footprint" "" (at 152.4 86.36 0)
      (effects (font (size 1.27 1.27)) hide)
    )
    (property "Datasheet" "" (at 152.4 86.36 0)
      (effects (font (size 1.27 1.27)) hide)
    )
    (pin "1" (uuid 242f0066-0b14-477f-b90b-0e4196ef9130))
    (instances
      (project "phenobottle"
        (path "/0eb34695-c26e-4865-81c1-0250678dd92b"
          (reference "#PWR?") (unit 1)
        )
        (path "/0eb34695-c26e-4865-81c1-0250678dd92b/9f46c0f4-50a9-4495-bc30-2feb59c2466e"
          (reference "#PWR062") (unit 1)
        )
      )
      (project "excite"
        (path "/31026a4b-6439-43bf-baab-e850dc56ff91/bc100481-3230-4958-a11c-8ddf6a08b276"
          (reference "#PWR046") (unit 1)
        )
        (path "/31026a4b-6439-43bf-baab-e850dc56ff91"
          (reference "#PWR01") (unit 1)
        )
      )
      (project "u-nit"
        (path "/8d060638-7a5c-434a-85b2-3c8238399290"
          (reference "#PWR044") (unit 1)
        )
      )
    )
  )

  (symbol (lib_id "power:GND") (at 147.32 99.06 90) (unit 1)
    (in_bom yes) (on_board yes) (dnp no) (fields_autoplaced)
    (uuid 5f192a38-99c1-4d55-bc3a-3a2b33779aea)
    (property "Reference" "#PWR02" (at 153.67 99.06 0)
      (effects (font (size 1.27 1.27)) hide)
    )
    (property "Value" "GND" (at 151.13 99.06 90)
      (effects (font (size 1.27 1.27)) (justify right))
    )
    (property "Footprint" "" (at 147.32 99.06 0)
      (effects (font (size 1.27 1.27)) hide)
    )
    (property "Datasheet" "" (at 147.32 99.06 0)
      (effects (font (size 1.27 1.27)) hide)
    )
    (pin "1" (uuid 367ce140-382c-44d6-a9fa-53e7415efdd7))
    (instances
      (project "excite"
        (path "/31026a4b-6439-43bf-baab-e850dc56ff91"
          (reference "#PWR02") (unit 1)
        )
      )
    )
  )

  (symbol (lib_id "power:GND") (at 134.62 93.98 270) (unit 1)
    (in_bom yes) (on_board yes) (dnp no) (fields_autoplaced)
    (uuid 6453df68-5f7e-4bea-9535-e398a7917c6d)
    (property "Reference" "#PWR04" (at 128.27 93.98 0)
      (effects (font (size 1.27 1.27)) hide)
    )
    (property "Value" "GND" (at 130.81 93.98 90)
      (effects (font (size 1.27 1.27)) (justify right))
    )
    (property "Footprint" "" (at 134.62 93.98 0)
      (effects (font (size 1.27 1.27)) hide)
    )
    (property "Datasheet" "" (at 134.62 93.98 0)
      (effects (font (size 1.27 1.27)) hide)
    )
    (pin "1" (uuid c0f06e38-ad5a-44f1-b232-97f926e0633c))
    (instances
      (project "excite"
        (path "/31026a4b-6439-43bf-baab-e850dc56ff91"
          (reference "#PWR04") (unit 1)
        )
      )
    )
  )

  (symbol (lib_id "power:GND") (at 147.32 93.98 90) (unit 1)
    (in_bom yes) (on_board yes) (dnp no) (fields_autoplaced)
    (uuid 6a56d4a3-1b13-4eae-9f68-1c927a5ec6b2)
    (property "Reference" "#PWR09" (at 153.67 93.98 0)
      (effects (font (size 1.27 1.27)) hide)
    )
    (property "Value" "GND" (at 151.13 93.98 90)
      (effects (font (size 1.27 1.27)) (justify right))
    )
    (property "Footprint" "" (at 147.32 93.98 0)
      (effects (font (size 1.27 1.27)) hide)
    )
    (property "Datasheet" "" (at 147.32 93.98 0)
      (effects (font (size 1.27 1.27)) hide)
    )
    (pin "1" (uuid 4319d9a1-5f3a-4ded-be8a-a197cecd0b7e))
    (instances
      (project "excite"
        (path "/31026a4b-6439-43bf-baab-e850dc56ff91"
          (reference "#PWR09") (unit 1)
        )
      )
    )
  )

  (symbol (lib_id "power:GND") (at 134.62 96.52 270) (unit 1)
    (in_bom yes) (on_board yes) (dnp no) (fields_autoplaced)
    (uuid 96150911-4aa8-4776-adc6-e2f0ac1f70ee)
    (property "Reference" "#PWR05" (at 128.27 96.52 0)
      (effects (font (size 1.27 1.27)) hide)
    )
    (property "Value" "GND" (at 130.81 96.52 90)
      (effects (font (size 1.27 1.27)) (justify right))
    )
    (property "Footprint" "" (at 134.62 96.52 0)
      (effects (font (size 1.27 1.27)) hide)
    )
    (property "Datasheet" "" (at 134.62 96.52 0)
      (effects (font (size 1.27 1.27)) hide)
    )
    (pin "1" (uuid 8c314f89-14c3-4032-8bfe-abdc36cab66a))
    (instances
      (project "excite"
        (path "/31026a4b-6439-43bf-baab-e850dc56ff91"
          (reference "#PWR05") (unit 1)
        )
      )
    )
  )

  (symbol (lib_id "Connector_Generic:Conn_02x06_Counter_Clockwise") (at 139.7 91.44 0) (unit 1)
    (in_bom yes) (on_board yes) (dnp no) (fields_autoplaced)
    (uuid a4b2290d-bf2e-406d-9686-d6c233a1c456)
    (property "Reference" "J1" (at 140.97 82.55 0)
      (effects (font (size 1.27 1.27)))
    )
    (property "Value" "Conn_02x06_Counter_Clockwise" (at 140.97 82.55 0)
      (effects (font (size 1.27 1.27)) hide)
    )
    (property "Footprint" "Connector_PinHeader_2.54mm:PinHeader_2x06_P2.54mm_Vertical" (at 139.7 91.44 0)
      (effects (font (size 1.27 1.27)) hide)
    )
    (property "Datasheet" "~" (at 139.7 91.44 0)
      (effects (font (size 1.27 1.27)) hide)
    )
    (pin "1" (uuid 6c8747f8-b913-4d36-a32e-9f2fa5b7e81d))
    (pin "10" (uuid a72c986c-0c61-4208-88a2-4e7be02e4a57))
    (pin "11" (uuid 31783721-9482-444f-8fc8-c2c62e3e5bc9))
    (pin "12" (uuid 8a627be5-20f9-48b6-8ad8-147da8505832))
    (pin "2" (uuid 037ecb85-a86d-4a6f-bedb-49a19ae3ec68))
    (pin "3" (uuid df2be499-1f5f-4024-afdf-821bef4e0b7a))
    (pin "4" (uuid 9702d832-5df5-4b6c-88cd-bb690a3e5de5))
    (pin "5" (uuid c026931e-865d-4d58-beb2-391680521bab))
    (pin "6" (uuid 5225f6b6-cbac-401d-82b8-8efc77caf793))
    (pin "7" (uuid 747d36cd-887b-45e1-ac1c-026665d96079))
    (pin "8" (uuid 4a2b1457-b0b1-4a3a-871f-7feef565231d))
    (pin "9" (uuid 1d2dffb3-1475-492c-95b1-7639596cb0d5))
    (instances
      (project "excite"
        (path "/31026a4b-6439-43bf-baab-e850dc56ff91"
          (reference "J1") (unit 1)
        )
      )
    )
  )

  (symbol (lib_id "power:GND") (at 134.62 99.06 270) (unit 1)
    (in_bom yes) (on_board yes) (dnp no) (fields_autoplaced)
    (uuid a6530c37-ed52-4884-80c5-3bdda9487c97)
    (property "Reference" "#PWR06" (at 128.27 99.06 0)
      (effects (font (size 1.27 1.27)) hide)
    )
    (property "Value" "GND" (at 130.81 99.06 90)
      (effects (font (size 1.27 1.27)) (justify right))
    )
    (property "Footprint" "" (at 134.62 99.06 0)
      (effects (font (size 1.27 1.27)) hide)
    )
    (property "Datasheet" "" (at 134.62 99.06 0)
      (effects (font (size 1.27 1.27)) hide)
    )
    (pin "1" (uuid c6e6fbcc-cb04-4b49-aa0e-6f7495773bf9))
    (instances
      (project "excite"
        (path "/31026a4b-6439-43bf-baab-e850dc56ff91"
          (reference "#PWR06") (unit 1)
        )
      )
    )
  )

  (symbol (lib_id "power:GND") (at 134.62 91.44 270) (unit 1)
    (in_bom yes) (on_board yes) (dnp no) (fields_autoplaced)
    (uuid c046da80-27af-4b46-ad7e-d038b199d47b)
    (property "Reference" "#PWR03" (at 128.27 91.44 0)
      (effects (font (size 1.27 1.27)) hide)
    )
    (property "Value" "GND" (at 130.81 91.44 90)
      (effects (font (size 1.27 1.27)) (justify right))
    )
    (property "Footprint" "" (at 134.62 91.44 0)
      (effects (font (size 1.27 1.27)) hide)
    )
    (property "Datasheet" "" (at 134.62 91.44 0)
      (effects (font (size 1.27 1.27)) hide)
    )
    (pin "1" (uuid e5d91f31-8ee6-4cc7-b64e-3269420ee384))
    (instances
      (project "excite"
        (path "/31026a4b-6439-43bf-baab-e850dc56ff91"
          (reference "#PWR03") (unit 1)
        )
      )
    )
  )

  (symbol (lib_id "power:GND") (at 134.62 86.36 270) (unit 1)
    (in_bom yes) (on_board yes) (dnp no) (fields_autoplaced)
    (uuid cfffc283-c36e-4e96-af07-ebd1b3e3c75f)
    (property "Reference" "#PWR07" (at 128.27 86.36 0)
      (effects (font (size 1.27 1.27)) hide)
    )
    (property "Value" "GND" (at 130.81 86.36 90)
      (effects (font (size 1.27 1.27)) (justify right))
    )
    (property "Footprint" "" (at 134.62 86.36 0)
      (effects (font (size 1.27 1.27)) hide)
    )
    (property "Datasheet" "" (at 134.62 86.36 0)
      (effects (font (size 1.27 1.27)) hide)
    )
    (pin "1" (uuid 31136d0e-a1ae-4b99-b312-5dfcfadddbe3))
    (instances
      (project "excite"
        (path "/31026a4b-6439-43bf-baab-e850dc56ff91"
          (reference "#PWR07") (unit 1)
        )
      )
    )
  )

  (symbol (lib_id "power:GND") (at 147.32 96.52 90) (unit 1)
    (in_bom yes) (on_board yes) (dnp no) (fields_autoplaced)
    (uuid e70563e2-6889-4197-b23f-88725815327c)
    (property "Reference" "#PWR010" (at 153.67 96.52 0)
      (effects (font (size 1.27 1.27)) hide)
    )
    (property "Value" "GND" (at 151.13 96.52 90)
      (effects (font (size 1.27 1.27)) (justify right))
    )
    (property "Footprint" "" (at 147.32 96.52 0)
      (effects (font (size 1.27 1.27)) hide)
    )
    (property "Datasheet" "" (at 147.32 96.52 0)
      (effects (font (size 1.27 1.27)) hide)
    )
    (pin "1" (uuid e081d2dd-80f7-4af4-80ea-4e59b1620396))
    (instances
      (project "excite"
        (path "/31026a4b-6439-43bf-baab-e850dc56ff91"
          (reference "#PWR010") (unit 1)
        )
      )
    )
  )

  (symbol (lib_id "power:GND") (at 147.32 91.44 90) (unit 1)
    (in_bom yes) (on_board yes) (dnp no) (fields_autoplaced)
    (uuid ec034baf-2868-4482-8baf-600aed849f1b)
    (property "Reference" "#PWR08" (at 153.67 91.44 0)
      (effects (font (size 1.27 1.27)) hide)
    )
    (property "Value" "GND" (at 151.13 91.44 90)
      (effects (font (size 1.27 1.27)) (justify right))
    )
    (property "Footprint" "" (at 147.32 91.44 0)
      (effects (font (size 1.27 1.27)) hide)
    )
    (property "Datasheet" "" (at 147.32 91.44 0)
      (effects (font (size 1.27 1.27)) hide)
    )
    (pin "1" (uuid 6433aa4f-92e2-4b23-aec1-3917d28f9be9))
    (instances
      (project "excite"
        (path "/31026a4b-6439-43bf-baab-e850dc56ff91"
          (reference "#PWR08") (unit 1)
        )
      )
    )
  )

  (sheet (at 165.1 70.485) (size 40.64 48.895) (fields_autoplaced)
    (stroke (width 0.1524) (type solid))
    (fill (color 192 232 255 1.0000))
    (uuid a6f45f46-b298-42f1-80ac-585ca3beba1c)
    (property "Sheetname" "FLU_EXCITE" (at 165.1 69.7734 0)
      (effects (font (size 1.27 1.27)) (justify left bottom))
    )
    (property "Sheetfile" "flu_excite.kicad_sch" (at 165.1 119.9646 0)
      (effects (font (size 1.27 1.27)) (justify left top))
    )
    (pin "EXCITE_EN" input (at 165.1 99.06 180)
      (effects (font (size 1.27 1.27)) (justify left))
      (uuid 7c3db5c4-d9b2-4fe5-8ebc-0be048810fda)
    )
    (instances
      (project "phenobottle"
        (path "/0eb34695-c26e-4865-81c1-0250678dd92b" (page "9"))
      )
      (project "excite"
        (path "/31026a4b-6439-43bf-baab-e850dc56ff91" (page "3"))
      )
    )
  )

  (sheet (at 73.66 69.85) (size 45.72 50.165) (fields_autoplaced)
    (stroke (width 0.1524) (type solid))
    (fill (color 192 232 255 1.0000))
    (uuid bc100481-3230-4958-a11c-8ddf6a08b276)
    (property "Sheetname" "POWER_INPUT" (at 73.66 69.1384 0)
      (effects (font (size 1.27 1.27)) (justify left bottom))
    )
    (property "Sheetfile" "power.kicad_sch" (at 73.66 120.5996 0)
      (effects (font (size 1.27 1.27)) (justify left top))
    )
    (instances
      (project "phenobottle"
        (path "/0eb34695-c26e-4865-81c1-0250678dd92b" (page "4"))
      )
      (project "excite"
        (path "/31026a4b-6439-43bf-baab-e850dc56ff91" (page "2"))
      )
    )
  )

  (sheet_instances
    (path "/" (page "1"))
  )
)
