(kicad_sch (version 20230121) (generator eeschema)

  (uuid e63e39d7-6ac0-4ffd-8aa3-1841a4541b55)

  (paper "A4")

  (lib_symbols
    (symbol "Connector_Generic:Conn_01x02" (pin_names (offset 1.016) hide) (in_bom yes) (on_board yes)
      (property "Reference" "J" (at 0 2.54 0)
        (effects (font (size 1.27 1.27)))
      )
      (property "Value" "Conn_01x02" (at 0 -5.08 0)
        (effects (font (size 1.27 1.27)))
      )
      (property "Footprint" "" (at 0 0 0)
        (effects (font (size 1.27 1.27)) hide)
      )
      (property "Datasheet" "~" (at 0 0 0)
        (effects (font (size 1.27 1.27)) hide)
      )
      (property "ki_keywords" "connector" (at 0 0 0)
        (effects (font (size 1.27 1.27)) hide)
      )
      (property "ki_description" "Generic connector, single row, 01x02, script generated (kicad-library-utils/schlib/autogen/connector/)" (at 0 0 0)
        (effects (font (size 1.27 1.27)) hide)
      )
      (property "ki_fp_filters" "Connector*:*_1x??_*" (at 0 0 0)
        (effects (font (size 1.27 1.27)) hide)
      )
      (symbol "Conn_01x02_1_1"
        (rectangle (start -1.27 -2.413) (end 0 -2.667)
          (stroke (width 0.1524) (type default))
          (fill (type none))
        )
        (rectangle (start -1.27 0.127) (end 0 -0.127)
          (stroke (width 0.1524) (type default))
          (fill (type none))
        )
        (rectangle (start -1.27 1.27) (end 1.27 -3.81)
          (stroke (width 0.254) (type default))
          (fill (type background))
        )
        (pin passive line (at -5.08 0 0) (length 3.81)
          (name "Pin_1" (effects (font (size 1.27 1.27))))
          (number "1" (effects (font (size 1.27 1.27))))
        )
        (pin passive line (at -5.08 -2.54 0) (length 3.81)
          (name "Pin_2" (effects (font (size 1.27 1.27))))
          (number "2" (effects (font (size 1.27 1.27))))
        )
      )
    )
    (symbol "Connector_Generic:Conn_01x03" (pin_names (offset 1.016) hide) (in_bom yes) (on_board yes)
      (property "Reference" "J" (at 0 5.08 0)
        (effects (font (size 1.27 1.27)))
      )
      (property "Value" "Conn_01x03" (at 0 -5.08 0)
        (effects (font (size 1.27 1.27)))
      )
      (property "Footprint" "" (at 0 0 0)
        (effects (font (size 1.27 1.27)) hide)
      )
      (property "Datasheet" "~" (at 0 0 0)
        (effects (font (size 1.27 1.27)) hide)
      )
      (property "ki_keywords" "connector" (at 0 0 0)
        (effects (font (size 1.27 1.27)) hide)
      )
      (property "ki_description" "Generic connector, single row, 01x03, script generated (kicad-library-utils/schlib/autogen/connector/)" (at 0 0 0)
        (effects (font (size 1.27 1.27)) hide)
      )
      (property "ki_fp_filters" "Connector*:*_1x??_*" (at 0 0 0)
        (effects (font (size 1.27 1.27)) hide)
      )
      (symbol "Conn_01x03_1_1"
        (rectangle (start -1.27 -2.413) (end 0 -2.667)
          (stroke (width 0.1524) (type default))
          (fill (type none))
        )
        (rectangle (start -1.27 0.127) (end 0 -0.127)
          (stroke (width 0.1524) (type default))
          (fill (type none))
        )
        (rectangle (start -1.27 2.667) (end 0 2.413)
          (stroke (width 0.1524) (type default))
          (fill (type none))
        )
        (rectangle (start -1.27 3.81) (end 1.27 -3.81)
          (stroke (width 0.254) (type default))
          (fill (type background))
        )
        (pin passive line (at -5.08 2.54 0) (length 3.81)
          (name "Pin_1" (effects (font (size 1.27 1.27))))
          (number "1" (effects (font (size 1.27 1.27))))
        )
        (pin passive line (at -5.08 0 0) (length 3.81)
          (name "Pin_2" (effects (font (size 1.27 1.27))))
          (number "2" (effects (font (size 1.27 1.27))))
        )
        (pin passive line (at -5.08 -2.54 0) (length 3.81)
          (name "Pin_3" (effects (font (size 1.27 1.27))))
          (number "3" (effects (font (size 1.27 1.27))))
        )
      )
    )
    (symbol "Device:C" (pin_numbers hide) (pin_names (offset 0.254)) (in_bom yes) (on_board yes)
      (property "Reference" "C" (at 0.635 2.54 0)
        (effects (font (size 1.27 1.27)) (justify left))
      )
      (property "Value" "C" (at 0.635 -2.54 0)
        (effects (font (size 1.27 1.27)) (justify left))
      )
      (property "Footprint" "" (at 0.9652 -3.81 0)
        (effects (font (size 1.27 1.27)) hide)
      )
      (property "Datasheet" "~" (at 0 0 0)
        (effects (font (size 1.27 1.27)) hide)
      )
      (property "ki_keywords" "cap capacitor" (at 0 0 0)
        (effects (font (size 1.27 1.27)) hide)
      )
      (property "ki_description" "Unpolarized capacitor" (at 0 0 0)
        (effects (font (size 1.27 1.27)) hide)
      )
      (property "ki_fp_filters" "C_*" (at 0 0 0)
        (effects (font (size 1.27 1.27)) hide)
      )
      (symbol "C_0_1"
        (polyline
          (pts
            (xy -2.032 -0.762)
            (xy 2.032 -0.762)
          )
          (stroke (width 0.508) (type default))
          (fill (type none))
        )
        (polyline
          (pts
            (xy -2.032 0.762)
            (xy 2.032 0.762)
          )
          (stroke (width 0.508) (type default))
          (fill (type none))
        )
      )
      (symbol "C_1_1"
        (pin passive line (at 0 3.81 270) (length 2.794)
          (name "~" (effects (font (size 1.27 1.27))))
          (number "1" (effects (font (size 1.27 1.27))))
        )
        (pin passive line (at 0 -3.81 90) (length 2.794)
          (name "~" (effects (font (size 1.27 1.27))))
          (number "2" (effects (font (size 1.27 1.27))))
        )
      )
    )
    (symbol "Device:C_Polarized" (pin_numbers hide) (pin_names (offset 0.254)) (in_bom yes) (on_board yes)
      (property "Reference" "C" (at 0.635 2.54 0)
        (effects (font (size 1.27 1.27)) (justify left))
      )
      (property "Value" "C_Polarized" (at 0.635 -2.54 0)
        (effects (font (size 1.27 1.27)) (justify left))
      )
      (property "Footprint" "" (at 0.9652 -3.81 0)
        (effects (font (size 1.27 1.27)) hide)
      )
      (property "Datasheet" "~" (at 0 0 0)
        (effects (font (size 1.27 1.27)) hide)
      )
      (property "ki_keywords" "cap capacitor" (at 0 0 0)
        (effects (font (size 1.27 1.27)) hide)
      )
      (property "ki_description" "Polarized capacitor" (at 0 0 0)
        (effects (font (size 1.27 1.27)) hide)
      )
      (property "ki_fp_filters" "CP_*" (at 0 0 0)
        (effects (font (size 1.27 1.27)) hide)
      )
      (symbol "C_Polarized_0_1"
        (rectangle (start -2.286 0.508) (end 2.286 1.016)
          (stroke (width 0) (type default))
          (fill (type none))
        )
        (polyline
          (pts
            (xy -1.778 2.286)
            (xy -0.762 2.286)
          )
          (stroke (width 0) (type default))
          (fill (type none))
        )
        (polyline
          (pts
            (xy -1.27 2.794)
            (xy -1.27 1.778)
          )
          (stroke (width 0) (type default))
          (fill (type none))
        )
        (rectangle (start 2.286 -0.508) (end -2.286 -1.016)
          (stroke (width 0) (type default))
          (fill (type outline))
        )
      )
      (symbol "C_Polarized_1_1"
        (pin passive line (at 0 3.81 270) (length 2.794)
          (name "~" (effects (font (size 1.27 1.27))))
          (number "1" (effects (font (size 1.27 1.27))))
        )
        (pin passive line (at 0 -3.81 90) (length 2.794)
          (name "~" (effects (font (size 1.27 1.27))))
          (number "2" (effects (font (size 1.27 1.27))))
        )
      )
    )
    (symbol "Device:LED" (pin_numbers hide) (pin_names (offset 1.016) hide) (in_bom yes) (on_board yes)
      (property "Reference" "D" (at 0 2.54 0)
        (effects (font (size 1.27 1.27)))
      )
      (property "Value" "LED" (at 0 -2.54 0)
        (effects (font (size 1.27 1.27)))
      )
      (property "Footprint" "" (at 0 0 0)
        (effects (font (size 1.27 1.27)) hide)
      )
      (property "Datasheet" "~" (at 0 0 0)
        (effects (font (size 1.27 1.27)) hide)
      )
      (property "ki_keywords" "LED diode" (at 0 0 0)
        (effects (font (size 1.27 1.27)) hide)
      )
      (property "ki_description" "Light emitting diode" (at 0 0 0)
        (effects (font (size 1.27 1.27)) hide)
      )
      (property "ki_fp_filters" "LED* LED_SMD:* LED_THT:*" (at 0 0 0)
        (effects (font (size 1.27 1.27)) hide)
      )
      (symbol "LED_0_1"
        (polyline
          (pts
            (xy -1.27 -1.27)
            (xy -1.27 1.27)
          )
          (stroke (width 0.254) (type default))
          (fill (type none))
        )
        (polyline
          (pts
            (xy -1.27 0)
            (xy 1.27 0)
          )
          (stroke (width 0) (type default))
          (fill (type none))
        )
        (polyline
          (pts
            (xy 1.27 -1.27)
            (xy 1.27 1.27)
            (xy -1.27 0)
            (xy 1.27 -1.27)
          )
          (stroke (width 0.254) (type default))
          (fill (type none))
        )
        (polyline
          (pts
            (xy -3.048 -0.762)
            (xy -4.572 -2.286)
            (xy -3.81 -2.286)
            (xy -4.572 -2.286)
            (xy -4.572 -1.524)
          )
          (stroke (width 0) (type default))
          (fill (type none))
        )
        (polyline
          (pts
            (xy -1.778 -0.762)
            (xy -3.302 -2.286)
            (xy -2.54 -2.286)
            (xy -3.302 -2.286)
            (xy -3.302 -1.524)
          )
          (stroke (width 0) (type default))
          (fill (type none))
        )
      )
      (symbol "LED_1_1"
        (pin passive line (at -3.81 0 0) (length 2.54)
          (name "K" (effects (font (size 1.27 1.27))))
          (number "1" (effects (font (size 1.27 1.27))))
        )
        (pin passive line (at 3.81 0 180) (length 2.54)
          (name "A" (effects (font (size 1.27 1.27))))
          (number "2" (effects (font (size 1.27 1.27))))
        )
      )
    )
    (symbol "Device:R" (pin_numbers hide) (pin_names (offset 0)) (in_bom yes) (on_board yes)
      (property "Reference" "R" (at 2.032 0 90)
        (effects (font (size 1.27 1.27)))
      )
      (property "Value" "R" (at 0 0 90)
        (effects (font (size 1.27 1.27)))
      )
      (property "Footprint" "" (at -1.778 0 90)
        (effects (font (size 1.27 1.27)) hide)
      )
      (property "Datasheet" "~" (at 0 0 0)
        (effects (font (size 1.27 1.27)) hide)
      )
      (property "ki_keywords" "R res resistor" (at 0 0 0)
        (effects (font (size 1.27 1.27)) hide)
      )
      (property "ki_description" "Resistor" (at 0 0 0)
        (effects (font (size 1.27 1.27)) hide)
      )
      (property "ki_fp_filters" "R_*" (at 0 0 0)
        (effects (font (size 1.27 1.27)) hide)
      )
      (symbol "R_0_1"
        (rectangle (start -1.016 -2.54) (end 1.016 2.54)
          (stroke (width 0.254) (type default))
          (fill (type none))
        )
      )
      (symbol "R_1_1"
        (pin passive line (at 0 3.81 270) (length 1.27)
          (name "~" (effects (font (size 1.27 1.27))))
          (number "1" (effects (font (size 1.27 1.27))))
        )
        (pin passive line (at 0 -3.81 90) (length 1.27)
          (name "~" (effects (font (size 1.27 1.27))))
          (number "2" (effects (font (size 1.27 1.27))))
        )
      )
    )
    (symbol "Mechanical:MountingHole_Pad" (pin_numbers hide) (pin_names (offset 1.016) hide) (in_bom yes) (on_board yes)
      (property "Reference" "H" (at 0 6.35 0)
        (effects (font (size 1.27 1.27)))
      )
      (property "Value" "MountingHole_Pad" (at 0 4.445 0)
        (effects (font (size 1.27 1.27)))
      )
      (property "Footprint" "" (at 0 0 0)
        (effects (font (size 1.27 1.27)) hide)
      )
      (property "Datasheet" "~" (at 0 0 0)
        (effects (font (size 1.27 1.27)) hide)
      )
      (property "ki_keywords" "mounting hole" (at 0 0 0)
        (effects (font (size 1.27 1.27)) hide)
      )
      (property "ki_description" "Mounting Hole with connection" (at 0 0 0)
        (effects (font (size 1.27 1.27)) hide)
      )
      (property "ki_fp_filters" "MountingHole*Pad*" (at 0 0 0)
        (effects (font (size 1.27 1.27)) hide)
      )
      (symbol "MountingHole_Pad_0_1"
        (circle (center 0 1.27) (radius 1.27)
          (stroke (width 1.27) (type default))
          (fill (type none))
        )
      )
      (symbol "MountingHole_Pad_1_1"
        (pin input line (at 0 -2.54 90) (length 2.54)
          (name "1" (effects (font (size 1.27 1.27))))
          (number "1" (effects (font (size 1.27 1.27))))
        )
      )
    )
    (symbol "power:+5V" (power) (pin_names (offset 0)) (in_bom yes) (on_board yes)
      (property "Reference" "#PWR" (at 0 -3.81 0)
        (effects (font (size 1.27 1.27)) hide)
      )
      (property "Value" "+5V" (at 0 3.556 0)
        (effects (font (size 1.27 1.27)))
      )
      (property "Footprint" "" (at 0 0 0)
        (effects (font (size 1.27 1.27)) hide)
      )
      (property "Datasheet" "" (at 0 0 0)
        (effects (font (size 1.27 1.27)) hide)
      )
      (property "ki_keywords" "power-flag" (at 0 0 0)
        (effects (font (size 1.27 1.27)) hide)
      )
      (property "ki_description" "Power symbol creates a global label with name \"+5V\"" (at 0 0 0)
        (effects (font (size 1.27 1.27)) hide)
      )
      (symbol "+5V_0_1"
        (polyline
          (pts
            (xy -0.762 1.27)
            (xy 0 2.54)
          )
          (stroke (width 0) (type default))
          (fill (type none))
        )
        (polyline
          (pts
            (xy 0 0)
            (xy 0 2.54)
          )
          (stroke (width 0) (type default))
          (fill (type none))
        )
        (polyline
          (pts
            (xy 0 2.54)
            (xy 0.762 1.27)
          )
          (stroke (width 0) (type default))
          (fill (type none))
        )
      )
      (symbol "+5V_1_1"
        (pin power_in line (at 0 0 90) (length 0) hide
          (name "+5V" (effects (font (size 1.27 1.27))))
          (number "1" (effects (font (size 1.27 1.27))))
        )
      )
    )
    (symbol "power:GND" (power) (pin_names (offset 0)) (in_bom yes) (on_board yes)
      (property "Reference" "#PWR" (at 0 -6.35 0)
        (effects (font (size 1.27 1.27)) hide)
      )
      (property "Value" "GND" (at 0 -3.81 0)
        (effects (font (size 1.27 1.27)))
      )
      (property "Footprint" "" (at 0 0 0)
        (effects (font (size 1.27 1.27)) hide)
      )
      (property "Datasheet" "" (at 0 0 0)
        (effects (font (size 1.27 1.27)) hide)
      )
      (property "ki_keywords" "power-flag" (at 0 0 0)
        (effects (font (size 1.27 1.27)) hide)
      )
      (property "ki_description" "Power symbol creates a global label with name \"GND\" , ground" (at 0 0 0)
        (effects (font (size 1.27 1.27)) hide)
      )
      (symbol "GND_0_1"
        (polyline
          (pts
            (xy 0 0)
            (xy 0 -1.27)
            (xy 1.27 -1.27)
            (xy 0 -2.54)
            (xy -1.27 -1.27)
            (xy 0 -1.27)
          )
          (stroke (width 0) (type default))
          (fill (type none))
        )
      )
      (symbol "GND_1_1"
        (pin power_in line (at 0 0 270) (length 0) hide
          (name "GND" (effects (font (size 1.27 1.27))))
          (number "1" (effects (font (size 1.27 1.27))))
        )
      )
    )
  )

  (junction (at 243.205 114.935) (diameter 0) (color 0 0 0 0)
    (uuid 0a052644-da49-49a3-b449-cacf0e37e840)
  )
  (junction (at 236.22 149.225) (diameter 0) (color 0 0 0 0)
    (uuid 0daf9a6c-624e-487d-8091-327a1b7b539f)
  )
  (junction (at 135.89 149.225) (diameter 0) (color 0 0 0 0)
    (uuid 0e3d39e0-4e2d-45d9-843e-085615466fcf)
  )
  (junction (at 212.09 156.845) (diameter 0) (color 0 0 0 0)
    (uuid 14b074cc-101b-4476-830e-aa2375f9fcc7)
  )
  (junction (at 34.29 149.225) (diameter 0) (color 0 0 0 0)
    (uuid 16cafa26-4209-4d7d-ad5f-569fc41e238c)
  )
  (junction (at 72.39 156.845) (diameter 0) (color 0 0 0 0)
    (uuid 1a7e0e64-3046-4570-afae-bc2a209f9eed)
  )
  (junction (at 236.22 156.845) (diameter 0) (color 0 0 0 0)
    (uuid 1c6ea1cd-9d8f-469a-a297-f132f13a160e)
  )
  (junction (at 243.205 122.555) (diameter 0) (color 0 0 0 0)
    (uuid 1e48c656-00a4-4d6c-b9d1-482244627823)
  )
  (junction (at 186.69 156.845) (diameter 0) (color 0 0 0 0)
    (uuid 1fc6ac00-75a7-4637-859b-81cf6ca96ba2)
  )
  (junction (at 224.79 156.845) (diameter 0) (color 0 0 0 0)
    (uuid 256fa097-a247-445d-85e0-a39ffe9e1a7b)
  )
  (junction (at 20.32 156.845) (diameter 0) (color 0 0 0 0)
    (uuid 281bea42-8ee4-47c3-bdc3-72c83c5d2660)
  )
  (junction (at 27.305 156.845) (diameter 0) (color 0 0 0 0)
    (uuid 2bb48cc2-b185-440a-9093-19bc43c52b3d)
  )
  (junction (at 199.39 156.845) (diameter 0) (color 0 0 0 0)
    (uuid 2d3166bd-282f-412a-b226-a17de9d63b97)
  )
  (junction (at 46.99 179.705) (diameter 0) (color 0 0 0 0)
    (uuid 2f999c48-bf99-4f24-920c-95e34c9111d5)
  )
  (junction (at 97.79 172.085) (diameter 0) (color 0 0 0 0)
    (uuid 32477329-6a89-4e33-9caa-6c1d4852dd4d)
  )
  (junction (at 85.09 149.225) (diameter 0) (color 0 0 0 0)
    (uuid 354446a8-80f6-4178-8093-7176f918c549)
  )
  (junction (at 20.32 179.705) (diameter 0) (color 0 0 0 0)
    (uuid 3bd9005a-a6d1-4101-bcdd-7e4abb068227)
  )
  (junction (at 123.19 156.845) (diameter 0) (color 0 0 0 0)
    (uuid 3c44a2ca-8a86-4e60-856f-5b04c7358f47)
  )
  (junction (at 111.125 172.085) (diameter 0) (color 0 0 0 0)
    (uuid 45c62d01-a43f-4675-874d-a3984723a030)
  )
  (junction (at 173.99 156.845) (diameter 0) (color 0 0 0 0)
    (uuid 47a8cd04-feee-462b-9c71-be7f6c1ec335)
  )
  (junction (at 243.205 107.315) (diameter 0) (color 0 0 0 0)
    (uuid 49a8b8e6-4b32-44cc-9b2f-b93d415d6c98)
  )
  (junction (at 224.79 149.225) (diameter 0) (color 0 0 0 0)
    (uuid 4f36b9e4-27d8-4ccf-9995-82dbb5d04d26)
  )
  (junction (at 34.29 179.705) (diameter 0) (color 0 0 0 0)
    (uuid 504cd73c-5b39-4970-bf9f-9fda649457ec)
  )
  (junction (at 261.62 156.845) (diameter 0) (color 0 0 0 0)
    (uuid 52576597-ab00-44df-a227-ffaad4f63d55)
  )
  (junction (at 110.49 149.225) (diameter 0) (color 0 0 0 0)
    (uuid 57968a42-f50f-4228-9945-e017c4ae7e14)
  )
  (junction (at 135.89 156.845) (diameter 0) (color 0 0 0 0)
    (uuid 57ea36c7-87c1-4f0f-9aa1-1f61b26f5ee8)
  )
  (junction (at 80.645 113.03) (diameter 0) (color 0 0 0 0)
    (uuid 586845e3-6f6e-494a-9d24-432ac69b87fc)
  )
  (junction (at 85.09 156.845) (diameter 0) (color 0 0 0 0)
    (uuid 59287065-c33d-4ee4-839f-27c3d7e729cb)
  )
  (junction (at 46.99 172.085) (diameter 0) (color 0 0 0 0)
    (uuid 5b0fa627-c66e-4a15-b7b5-9fe55e96cf75)
  )
  (junction (at 72.39 149.225) (diameter 0) (color 0 0 0 0)
    (uuid 648225d9-d937-407e-8ffd-271c39155bbb)
  )
  (junction (at 243.205 76.835) (diameter 0) (color 0 0 0 0)
    (uuid 65632568-3729-4f62-a333-cb8a1698561a)
  )
  (junction (at 85.09 179.705) (diameter 0) (color 0 0 0 0)
    (uuid 66281c66-4eef-43a1-bff8-cecae7090073)
  )
  (junction (at 248.92 149.225) (diameter 0) (color 0 0 0 0)
    (uuid 6d860921-11bb-457c-8357-6be0d5cbf319)
  )
  (junction (at 243.205 99.695) (diameter 0) (color 0 0 0 0)
    (uuid 74590977-c76f-41dd-bf61-fbbc25299d89)
  )
  (junction (at 161.29 149.225) (diameter 0) (color 0 0 0 0)
    (uuid 7f7775b3-a71c-4eb0-8dfd-5d37be0361d1)
  )
  (junction (at 34.29 156.845) (diameter 0) (color 0 0 0 0)
    (uuid 8248e853-e06a-4075-b4e6-caa18af5b9c2)
  )
  (junction (at 80.645 75.565) (diameter 0) (color 0 0 0 0)
    (uuid 82e415aa-79d4-401b-be98-5845483f87ae)
  )
  (junction (at 148.59 149.225) (diameter 0) (color 0 0 0 0)
    (uuid 84d5dd91-a63f-4a0a-8644-3d77a373653c)
  )
  (junction (at 161.29 156.845) (diameter 0) (color 0 0 0 0)
    (uuid 88c51df2-962f-4701-bab5-20ea4bbd3f12)
  )
  (junction (at 212.09 149.225) (diameter 0) (color 0 0 0 0)
    (uuid 8c90f442-e82b-4b58-ae73-7f3c3a237e2c)
  )
  (junction (at 72.39 172.085) (diameter 0) (color 0 0 0 0)
    (uuid 96422831-c27d-45da-b046-2d10300913bb)
  )
  (junction (at 27.305 149.225) (diameter 0) (color 0 0 0 0)
    (uuid 96c42456-34c6-4bde-afbc-40a8af9c822d)
  )
  (junction (at 34.29 172.085) (diameter 0) (color 0 0 0 0)
    (uuid 9ed1c946-1aae-4bec-b0d6-8b9fedd40c9f)
  )
  (junction (at 97.79 179.705) (diameter 0) (color 0 0 0 0)
    (uuid a2988557-7d54-4639-939d-9eabdadab599)
  )
  (junction (at 59.69 149.225) (diameter 0) (color 0 0 0 0)
    (uuid a2e39c0a-28f5-4a03-b6a0-b4720c4ce70b)
  )
  (junction (at 46.99 156.845) (diameter 0) (color 0 0 0 0)
    (uuid a2f291dc-329c-4619-9784-164026db6761)
  )
  (junction (at 243.205 84.455) (diameter 0) (color 0 0 0 0)
    (uuid a42762ae-33b2-425d-aa2c-10445b69f1d9)
  )
  (junction (at 72.39 179.705) (diameter 0) (color 0 0 0 0)
    (uuid a66fc703-856d-47da-ab56-04160ac04986)
  )
  (junction (at 110.49 156.845) (diameter 0) (color 0 0 0 0)
    (uuid abf55bc7-6c16-45f6-8ec0-0a3eb6b7f6d5)
  )
  (junction (at 20.32 172.085) (diameter 0) (color 0 0 0 0)
    (uuid ad03abcb-ef7d-474d-978a-1a0397344cdf)
  )
  (junction (at 59.69 156.845) (diameter 0) (color 0 0 0 0)
    (uuid b0a837d0-78db-4801-8f91-ad6bfbc74c21)
  )
  (junction (at 97.79 149.225) (diameter 0) (color 0 0 0 0)
    (uuid b24f4354-61b0-4147-be13-c936abdd7c9d)
  )
  (junction (at 261.62 149.225) (diameter 0) (color 0 0 0 0)
    (uuid b32da92c-636b-4fbe-bfb7-ee497d162b72)
  )
  (junction (at 173.99 149.225) (diameter 0) (color 0 0 0 0)
    (uuid b66864b3-4391-4ff7-bad2-a7b8cd7ec489)
  )
  (junction (at 20.32 149.225) (diameter 0) (color 0 0 0 0)
    (uuid bacc9c2e-80d7-4044-87c6-483b7ef73e87)
  )
  (junction (at 199.39 149.225) (diameter 0) (color 0 0 0 0)
    (uuid bbbff8a2-0564-4ef9-8dc4-5d55e85e5aa3)
  )
  (junction (at 186.69 149.225) (diameter 0) (color 0 0 0 0)
    (uuid c2e207a6-05a9-475f-8c09-647814339335)
  )
  (junction (at 46.99 149.225) (diameter 0) (color 0 0 0 0)
    (uuid c710474b-db1d-4226-b6f9-3aa16972057b)
  )
  (junction (at 59.69 179.705) (diameter 0) (color 0 0 0 0)
    (uuid ca9f5d04-8c68-404a-b1d5-dbac146512bf)
  )
  (junction (at 123.19 149.225) (diameter 0) (color 0 0 0 0)
    (uuid cbdf3db9-c73e-4175-b2ba-dd3565d40059)
  )
  (junction (at 78.74 111.125) (diameter 0) (color 0 0 0 0)
    (uuid cecad9ea-0faf-434a-9a22-ff3229c72dd1)
  )
  (junction (at 243.205 129.54) (diameter 0) (color 0 0 0 0)
    (uuid d1e80f7d-f903-48cf-9eaf-5756ffd0e8d8)
  )
  (junction (at 78.74 46.99) (diameter 0) (color 0 0 0 0)
    (uuid d5ae44e9-28a5-4796-8e4b-2cf53804fbdd)
  )
  (junction (at 97.79 156.845) (diameter 0) (color 0 0 0 0)
    (uuid d85d2561-fdd8-4b31-a936-a100fd6734f4)
  )
  (junction (at 85.09 172.085) (diameter 0) (color 0 0 0 0)
    (uuid db8f2abd-d8fc-4419-8661-b49dfb7258c2)
  )
  (junction (at 148.59 156.845) (diameter 0) (color 0 0 0 0)
    (uuid e3271801-24d9-4b84-897e-bad4b286eacf)
  )
  (junction (at 111.125 179.705) (diameter 0) (color 0 0 0 0)
    (uuid e820511b-176a-4014-8ca6-ab23726b8143)
  )
  (junction (at 80.645 44.45) (diameter 0) (color 0 0 0 0)
    (uuid ec6542d5-38e2-40a3-b495-523c01863f06)
  )
  (junction (at 59.69 172.085) (diameter 0) (color 0 0 0 0)
    (uuid eee9e6f2-648a-4a32-a94b-989b07dad11a)
  )
  (junction (at 243.205 92.075) (diameter 0) (color 0 0 0 0)
    (uuid eefe860e-91ab-4b23-9bd6-ae6923fe0428)
  )
  (junction (at 78.74 73.025) (diameter 0) (color 0 0 0 0)
    (uuid f722c1d9-422a-4324-946c-e6c2003595e2)
  )
  (junction (at 248.92 156.845) (diameter 0) (color 0 0 0 0)
    (uuid fe2b7166-d5b8-42d5-89d3-4d2ab7fd9daa)
  )

  (no_connect (at 196.215 44.45) (uuid 2251cb70-a67c-4ee4-b292-1e87b6ede634))

  (bus (pts (xy 80.645 113.03) (xy 93.345 113.03))
    (stroke (width 0) (type default))
    (uuid 0103df15-deb1-449d-b39f-95559a5597a6)
  )

  (wire (pts (xy 123.19 156.845) (xy 135.89 156.845))
    (stroke (width 0) (type default))
    (uuid 01f3dfb2-5a30-4ae2-b676-a17c9c42b76a)
  )
  (bus (pts (xy 137.16 41.91) (xy 152.4 41.91))
    (stroke (width 0) (type default))
    (uuid 08d72162-8fbc-49bc-9c3c-e2a4f798b326)
  )
  (bus (pts (xy 75.565 73.025) (xy 78.74 73.025))
    (stroke (width 0) (type default))
    (uuid 0ac8d000-e704-4225-8b05-6a4394ef1a9e)
  )

  (wire (pts (xy 34.29 156.845) (xy 46.99 156.845))
    (stroke (width 0) (type default))
    (uuid 0bd60e69-d8fb-4ad6-a1eb-e29079123960)
  )
  (wire (pts (xy 72.39 156.845) (xy 85.09 156.845))
    (stroke (width 0) (type default))
    (uuid 103fef97-c65d-4099-9c46-3ea48eed703b)
  )
  (wire (pts (xy 59.69 179.705) (xy 72.39 179.705))
    (stroke (width 0) (type default))
    (uuid 157d65b7-8894-477b-8170-137619d6b68f)
  )
  (wire (pts (xy 142.875 193.04) (xy 148.59 193.04))
    (stroke (width 0) (type default))
    (uuid 18c05a7d-a948-4103-87e5-f4eb9255bfa0)
  )
  (bus (pts (xy 137.16 80.01) (xy 138.43 80.01))
    (stroke (width 0) (type default))
    (uuid 1b5e389a-ac02-40eb-a8e0-d260dac6bfc6)
  )
  (bus (pts (xy 78.74 73.025) (xy 93.345 73.025))
    (stroke (width 0) (type default))
    (uuid 1ba2dbcd-a58c-49dc-900d-1578351b087b)
  )

  (wire (pts (xy 239.395 76.835) (xy 243.205 76.835))
    (stroke (width 0) (type default))
    (uuid 1e4d36b8-0b95-4ef4-a2b8-6c00fcbc46ef)
  )
  (wire (pts (xy 243.205 92.075) (xy 247.015 92.075))
    (stroke (width 0) (type default))
    (uuid 1e9dd57d-6841-499b-bcea-bb3a90940f67)
  )
  (bus (pts (xy 75.565 75.565) (xy 80.645 75.565))
    (stroke (width 0) (type default))
    (uuid 2240fa29-59b6-4555-9dc3-f3947d2af579)
  )

  (wire (pts (xy 34.29 149.225) (xy 46.99 149.225))
    (stroke (width 0) (type default))
    (uuid 22702b36-8049-43da-b982-65890e887405)
  )
  (wire (pts (xy 111.125 172.085) (xy 123.19 172.085))
    (stroke (width 0) (type default))
    (uuid 278520ba-de92-47cf-9c2a-6c057694d80d)
  )
  (wire (pts (xy 243.205 129.54) (xy 243.205 122.555))
    (stroke (width 0) (type default))
    (uuid 27bc4931-dee2-4d87-88e8-c6322c6d168d)
  )
  (wire (pts (xy 243.205 92.075) (xy 243.205 99.695))
    (stroke (width 0) (type default))
    (uuid 2a3db4bd-5bda-4472-85e2-57ea1dcb4130)
  )
  (bus (pts (xy 78.74 111.125) (xy 93.345 111.125))
    (stroke (width 0) (type default))
    (uuid 2d048d37-a8d8-40e3-8ea6-63fc747dcb3e)
  )

  (wire (pts (xy 135.89 156.845) (xy 148.59 156.845))
    (stroke (width 0) (type default))
    (uuid 2d9b4438-a0d7-479a-ac44-db28139398fb)
  )
  (bus (pts (xy 75.565 123.825) (xy 84.455 123.825))
    (stroke (width 0) (type default))
    (uuid 2f913901-d971-44a5-93e1-e24a64be69de)
  )

  (wire (pts (xy 186.69 156.845) (xy 199.39 156.845))
    (stroke (width 0) (type default))
    (uuid 30334671-3e6c-4693-937d-563d00a216ef)
  )
  (bus (pts (xy 138.43 110.49) (xy 137.16 110.49))
    (stroke (width 0) (type default))
    (uuid 30762d0f-1a07-46ec-a9d6-9a1322e0064f)
  )

  (wire (pts (xy 243.205 107.315) (xy 243.205 114.935))
    (stroke (width 0) (type default))
    (uuid 311f32a5-ea29-42a5-908d-898d0f58e7da)
  )
  (bus (pts (xy 84.455 83.82) (xy 84.455 123.825))
    (stroke (width 0) (type default))
    (uuid 31ba2a07-9997-422d-a533-5b251addcda6)
  )

  (wire (pts (xy 156.21 193.04) (xy 159.385 193.04))
    (stroke (width 0) (type default))
    (uuid 32b5b259-a3f6-4aeb-9cdf-7a95a3dc9ae1)
  )
  (wire (pts (xy 15.875 179.705) (xy 20.32 179.705))
    (stroke (width 0) (type default))
    (uuid 380cae00-1cab-4ffe-8b19-94ab343fc8b4)
  )
  (bus (pts (xy 93.345 115.57) (xy 82.55 115.57))
    (stroke (width 0) (type default))
    (uuid 4546702b-0e80-4554-b37a-2d3916b9672f)
  )

  (wire (pts (xy 243.205 76.835) (xy 247.015 76.835))
    (stroke (width 0) (type default))
    (uuid 4778ab1b-a5ed-496f-9d7a-8cf8fe7820e0)
  )
  (wire (pts (xy 243.205 99.695) (xy 243.205 107.315))
    (stroke (width 0) (type default))
    (uuid 506da6c9-ba1f-4d32-b9d6-af927262a549)
  )
  (wire (pts (xy 15.875 172.085) (xy 20.32 172.085))
    (stroke (width 0) (type default))
    (uuid 511edfdf-b708-42cf-811a-1592d8a012c9)
  )
  (wire (pts (xy 85.09 156.845) (xy 97.79 156.845))
    (stroke (width 0) (type default))
    (uuid 54ea86eb-67f3-4f10-847d-2a75bd43c857)
  )
  (wire (pts (xy 110.49 149.225) (xy 123.19 149.225))
    (stroke (width 0) (type default))
    (uuid 59db7dc5-ef5d-4834-a22c-8ff53e05367a)
  )
  (wire (pts (xy 20.32 149.225) (xy 27.305 149.225))
    (stroke (width 0) (type default))
    (uuid 5a217e0a-9a5b-4151-b4da-9d4482f9d5a8)
  )
  (wire (pts (xy 236.22 156.845) (xy 248.92 156.845))
    (stroke (width 0) (type default))
    (uuid 5a56e6d0-d9bf-40ad-bcb9-8a71d5109454)
  )
  (wire (pts (xy 46.99 179.705) (xy 59.69 179.705))
    (stroke (width 0) (type default))
    (uuid 5db32f92-5b0b-4b25-a5ac-80c79f92dcaf)
  )
  (wire (pts (xy 97.79 179.705) (xy 111.125 179.705))
    (stroke (width 0) (type default))
    (uuid 5fce70fd-9aa6-45f7-a401-e00aa5363874)
  )
  (wire (pts (xy 34.29 179.705) (xy 46.99 179.705))
    (stroke (width 0) (type default))
    (uuid 64160eb1-15fe-4ec2-a084-279169971071)
  )
  (wire (pts (xy 15.875 156.845) (xy 20.32 156.845))
    (stroke (width 0) (type default))
    (uuid 6563a7eb-86f5-4ec6-8116-069af747664e)
  )
  (wire (pts (xy 135.89 149.225) (xy 148.59 149.225))
    (stroke (width 0) (type default))
    (uuid 67cd04bc-194f-429f-991f-e915bb5cbc5c)
  )
  (bus (pts (xy 78.74 46.99) (xy 78.74 73.025))
    (stroke (width 0) (type default))
    (uuid 6b261fa9-479e-445d-8131-a72bd1aeadd0)
  )

  (wire (pts (xy 20.32 156.845) (xy 27.305 156.845))
    (stroke (width 0) (type default))
    (uuid 6b3be4f1-3f08-4ff3-a63a-532cf0159e2d)
  )
  (wire (pts (xy 161.29 149.225) (xy 173.99 149.225))
    (stroke (width 0) (type default))
    (uuid 6ca0d37a-1bcb-4dd7-9c27-3241a93287b6)
  )
  (bus (pts (xy 138.43 80.01) (xy 138.43 110.49))
    (stroke (width 0) (type default))
    (uuid 6d27dc9a-9518-4c1c-a0a3-f9e9f70fb556)
  )

  (wire (pts (xy 261.62 149.225) (xy 274.32 149.225))
    (stroke (width 0) (type default))
    (uuid 6dc515d5-c6fd-4882-9292-a07b9943dbda)
  )
  (wire (pts (xy 236.22 149.225) (xy 248.92 149.225))
    (stroke (width 0) (type default))
    (uuid 6e9ac5e0-03d1-4dfd-adf3-445dcaabf2a0)
  )
  (bus (pts (xy 80.645 75.565) (xy 80.645 113.03))
    (stroke (width 0) (type default))
    (uuid 70b8b1f2-a182-45f4-b5bf-f4356009a784)
  )

  (wire (pts (xy 27.305 156.845) (xy 34.29 156.845))
    (stroke (width 0) (type default))
    (uuid 75ae24c8-1c68-4394-a7f3-df3de2f036ae)
  )
  (wire (pts (xy 46.99 149.225) (xy 59.69 149.225))
    (stroke (width 0) (type default))
    (uuid 77778e5d-fe58-4633-b95f-9a086630dbc5)
  )
  (wire (pts (xy 85.09 149.225) (xy 97.79 149.225))
    (stroke (width 0) (type default))
    (uuid 78057353-57ea-425a-8bc4-c1897f834b95)
  )
  (wire (pts (xy 135.255 193.04) (xy 132.08 193.04))
    (stroke (width 0) (type default))
    (uuid 79370788-e37a-4cac-b227-ad3e40f5e640)
  )
  (wire (pts (xy 243.205 114.935) (xy 247.015 114.935))
    (stroke (width 0) (type default))
    (uuid 79733a0f-949f-4b59-bad7-0eccf626ec52)
  )
  (bus (pts (xy 75.565 113.03) (xy 80.645 113.03))
    (stroke (width 0) (type default))
    (uuid 7a4c1f97-547a-4ea6-974a-7598996ffb19)
  )

  (wire (pts (xy 261.62 156.845) (xy 274.32 156.845))
    (stroke (width 0) (type default))
    (uuid 7aa61910-4051-4152-8e51-f14765155d89)
  )
  (wire (pts (xy 199.39 149.225) (xy 212.09 149.225))
    (stroke (width 0) (type default))
    (uuid 7c24fdb5-da4d-4412-90ff-2c4c828ff016)
  )
  (wire (pts (xy 97.79 149.225) (xy 110.49 149.225))
    (stroke (width 0) (type default))
    (uuid 833e1a2c-7280-4011-ab3d-f4a4beb38c9d)
  )
  (bus (pts (xy 82.55 115.57) (xy 82.55 85.725))
    (stroke (width 0) (type default))
    (uuid 85c146e5-b3fb-4a49-aebf-f52246a4cf11)
  )

  (wire (pts (xy 111.125 179.705) (xy 123.19 179.705))
    (stroke (width 0) (type default))
    (uuid 8605bbbe-7625-4892-8d43-70fc97337e37)
  )
  (wire (pts (xy 186.69 149.225) (xy 199.39 149.225))
    (stroke (width 0) (type default))
    (uuid 87c37620-816a-4e06-8c71-00e7e2d60d0f)
  )
  (wire (pts (xy 173.99 156.845) (xy 186.69 156.845))
    (stroke (width 0) (type default))
    (uuid 8a5cbc94-4be1-4b4a-bf03-c9044b77d8f8)
  )
  (bus (pts (xy 78.74 111.125) (xy 75.565 111.125))
    (stroke (width 0) (type default))
    (uuid 8c04b0e8-fb1d-4135-a33b-92d790636053)
  )

  (wire (pts (xy 173.99 149.225) (xy 186.69 149.225))
    (stroke (width 0) (type default))
    (uuid 8dc4bda2-4968-4974-9d55-d3ba10b29291)
  )
  (wire (pts (xy 248.92 149.225) (xy 261.62 149.225))
    (stroke (width 0) (type default))
    (uuid 8e2f61b0-87a3-4ce6-9e37-6df306f4ae6d)
  )
  (bus (pts (xy 80.645 75.565) (xy 80.645 44.45))
    (stroke (width 0) (type default))
    (uuid 8f88fcfa-49f4-405b-bcc8-ff68168f03af)
  )

  (wire (pts (xy 97.79 172.085) (xy 111.125 172.085))
    (stroke (width 0) (type default))
    (uuid 90b7e1cb-2582-41ed-9eb4-d404f3239cda)
  )
  (wire (pts (xy 27.305 149.225) (xy 34.29 149.225))
    (stroke (width 0) (type default))
    (uuid 94d2d069-5d3e-45d3-bbd9-4903bd30b898)
  )
  (wire (pts (xy 212.09 149.225) (xy 224.79 149.225))
    (stroke (width 0) (type default))
    (uuid 9519c4bd-2bf6-47bb-8596-1c50815e3e5d)
  )
  (wire (pts (xy 85.09 172.085) (xy 97.79 172.085))
    (stroke (width 0) (type default))
    (uuid 95a68884-ec24-4839-9b3c-b16e551e395a)
  )
  (bus (pts (xy 93.345 111.125) (xy 93.345 110.49))
    (stroke (width 0) (type default))
    (uuid 975a1ea8-5637-44af-9f62-14cf6455ab25)
  )

  (wire (pts (xy 123.19 149.225) (xy 135.89 149.225))
    (stroke (width 0) (type default))
    (uuid 99ff46a7-9b3e-4a95-b957-2f04b2a8760c)
  )
  (bus (pts (xy 93.345 83.82) (xy 84.455 83.82))
    (stroke (width 0) (type default))
    (uuid 9f8a355a-7090-476c-9106-1125bdb02452)
  )

  (wire (pts (xy 46.99 172.085) (xy 59.69 172.085))
    (stroke (width 0) (type default))
    (uuid 9f94e20f-6bc0-4358-9e8b-9e9d2d9e1789)
  )
  (wire (pts (xy 243.205 136.525) (xy 243.205 129.54))
    (stroke (width 0) (type default))
    (uuid a301499a-865c-46ab-9c7e-f2e3031f3816)
  )
  (wire (pts (xy 20.32 179.705) (xy 34.29 179.705))
    (stroke (width 0) (type default))
    (uuid a737e307-6e18-45c5-b5aa-233052bc3752)
  )
  (wire (pts (xy 243.205 84.455) (xy 247.015 84.455))
    (stroke (width 0) (type default))
    (uuid a8fa7dc2-8c53-483a-bce9-726ab66e8856)
  )
  (wire (pts (xy 148.59 156.845) (xy 161.29 156.845))
    (stroke (width 0) (type default))
    (uuid abab51ea-eab2-4cc6-a635-266ff8cb7e42)
  )
  (bus (pts (xy 80.645 44.45) (xy 93.345 44.45))
    (stroke (width 0) (type default))
    (uuid ad5981ae-a201-4dd5-bb1d-ac7c9f76c730)
  )

  (wire (pts (xy 72.39 179.705) (xy 85.09 179.705))
    (stroke (width 0) (type default))
    (uuid ad5f3ee4-59d8-4e9f-87cf-7d9c6257d2ba)
  )
  (bus (pts (xy 78.74 73.025) (xy 78.74 111.125))
    (stroke (width 0) (type default))
    (uuid aeed1172-04ea-433e-9744-db1afd1a4392)
  )

  (wire (pts (xy 248.92 156.845) (xy 261.62 156.845))
    (stroke (width 0) (type default))
    (uuid afc6d9bd-9e27-464d-b455-7a3d4c063301)
  )
  (wire (pts (xy 199.39 156.845) (xy 212.09 156.845))
    (stroke (width 0) (type default))
    (uuid b0107d94-00ea-4c3e-b424-45658f344d9f)
  )
  (wire (pts (xy 72.39 149.225) (xy 85.09 149.225))
    (stroke (width 0) (type default))
    (uuid b1eb4798-5a58-4ab5-bea0-7e44c725e306)
  )
  (wire (pts (xy 212.09 156.845) (xy 224.79 156.845))
    (stroke (width 0) (type default))
    (uuid b362ba2a-5e7b-4028-b74c-b000e3ef3710)
  )
  (bus (pts (xy 137.16 44.45) (xy 152.4 44.45))
    (stroke (width 0) (type default))
    (uuid b54f5297-65d7-403c-b4c6-e64e2bb945fd)
  )

  (wire (pts (xy 110.49 156.845) (xy 123.19 156.845))
    (stroke (width 0) (type default))
    (uuid bdc4110b-0804-429c-a511-bf9fb17db681)
  )
  (wire (pts (xy 161.29 156.845) (xy 173.99 156.845))
    (stroke (width 0) (type default))
    (uuid bdeffdee-06dd-46e7-8c68-98209a0eae81)
  )
  (wire (pts (xy 243.205 122.555) (xy 247.015 122.555))
    (stroke (width 0) (type default))
    (uuid bf0da331-330f-4da0-9cbc-521af6c3d381)
  )
  (wire (pts (xy 97.79 156.845) (xy 110.49 156.845))
    (stroke (width 0) (type default))
    (uuid c0197f6f-fe20-4e0f-b909-14ec603a26b2)
  )
  (wire (pts (xy 85.09 179.705) (xy 97.79 179.705))
    (stroke (width 0) (type default))
    (uuid c18e47d0-2fb8-4746-b521-bbcf52ded3c0)
  )
  (wire (pts (xy 243.205 107.315) (xy 247.015 107.315))
    (stroke (width 0) (type default))
    (uuid c294579c-2af4-47df-b688-e2281743d4b8)
  )
  (wire (pts (xy 224.79 156.845) (xy 236.22 156.845))
    (stroke (width 0) (type default))
    (uuid c3e56328-e017-40e0-b2de-ab52d03b58cb)
  )
  (wire (pts (xy 20.32 172.085) (xy 34.29 172.085))
    (stroke (width 0) (type default))
    (uuid c4c84fcb-e16b-4c00-a71b-cd2d1f15171a)
  )
  (wire (pts (xy 148.59 149.225) (xy 161.29 149.225))
    (stroke (width 0) (type default))
    (uuid c57faa72-6a4d-45f5-ab18-1d99a75dc6a1)
  )
  (wire (pts (xy 243.205 114.935) (xy 243.205 122.555))
    (stroke (width 0) (type default))
    (uuid c731ef0f-1a3f-4330-9de4-171c23da28ef)
  )
  (wire (pts (xy 247.015 136.525) (xy 243.205 136.525))
    (stroke (width 0) (type default))
    (uuid cfe43e72-0a47-4517-8df3-15dda04d50a0)
  )
  (bus (pts (xy 75.565 85.725) (xy 82.55 85.725))
    (stroke (width 0) (type default))
    (uuid d1bbc68d-10ef-46d6-a5e4-6a759c3800fa)
  )

  (wire (pts (xy 15.875 149.225) (xy 20.32 149.225))
    (stroke (width 0) (type default))
    (uuid d53021d2-4557-4636-a303-ce60ac6548f8)
  )
  (wire (pts (xy 185.42 122.555) (xy 191.135 122.555))
    (stroke (width 0) (type default))
    (uuid d79a88aa-a9e7-4782-9c32-128284bb070f)
  )
  (wire (pts (xy 243.205 76.835) (xy 243.205 84.455))
    (stroke (width 0) (type default))
    (uuid d9da992c-40d4-4ad0-a2f7-90881b460125)
  )
  (bus (pts (xy 75.565 44.45) (xy 80.645 44.45))
    (stroke (width 0) (type default))
    (uuid da25334d-2ff2-4e18-a2d4-d9fa2c35e0b0)
  )

  (wire (pts (xy 34.29 172.085) (xy 46.99 172.085))
    (stroke (width 0) (type default))
    (uuid dae9e080-77de-430c-a701-221314cbf0b3)
  )
  (bus (pts (xy 75.565 46.99) (xy 78.74 46.99))
    (stroke (width 0) (type default))
    (uuid df42e603-8a9e-49b7-8d1f-4d7f3c7641a5)
  )

  (wire (pts (xy 59.69 172.085) (xy 72.39 172.085))
    (stroke (width 0) (type default))
    (uuid e0bd6bdc-3e98-4466-b69c-81703a51e1dc)
  )
  (bus (pts (xy 78.74 46.99) (xy 93.345 46.99))
    (stroke (width 0) (type default))
    (uuid e0f8e1e2-079e-4066-a08f-8631b9ab6a86)
  )

  (wire (pts (xy 72.39 172.085) (xy 85.09 172.085))
    (stroke (width 0) (type default))
    (uuid e2b9e07c-1ac7-423f-96e5-57bc8e4e4d5c)
  )
  (wire (pts (xy 59.69 149.225) (xy 72.39 149.225))
    (stroke (width 0) (type default))
    (uuid e2bd9514-ea59-44ae-ba08-b2e64ac6cc50)
  )
  (wire (pts (xy 243.205 84.455) (xy 243.205 92.075))
    (stroke (width 0) (type default))
    (uuid e4e237d9-03d2-4e94-8d05-f0ac14208e27)
  )
  (wire (pts (xy 46.99 156.845) (xy 59.69 156.845))
    (stroke (width 0) (type default))
    (uuid eb686b0b-1e9e-4847-a5d7-99c6e410408a)
  )
  (wire (pts (xy 59.69 156.845) (xy 72.39 156.845))
    (stroke (width 0) (type default))
    (uuid ed5e1d97-a912-4e42-be7e-85a31cfa1c4d)
  )
  (wire (pts (xy 224.79 149.225) (xy 236.22 149.225))
    (stroke (width 0) (type default))
    (uuid f25cb661-c62b-4946-ad4e-d4fd74e83299)
  )
  (wire (pts (xy 243.205 99.695) (xy 247.015 99.695))
    (stroke (width 0) (type default))
    (uuid f5da526b-c421-4337-af39-a0acfc98cf9d)
  )
  (wire (pts (xy 247.015 129.54) (xy 243.205 129.54))
    (stroke (width 0) (type default))
    (uuid facc2ff7-4fef-4539-8f85-480652ebbe94)
  )

  (global_label "BUS" (shape input) (at 149.86 171.45 180) (fields_autoplaced)
    (effects (font (size 1.27 1.27)) (justify right))
    (uuid 227820fb-c41f-4aee-bacf-6c5d897e6d62)
    (property "Intersheetrefs" "${INTERSHEET_REFS}" (at 143.6369 171.3706 0)
      (effects (font (size 1.27 1.27)) (justify right) hide)
    )
  )
  (global_label "BUS" (shape input) (at 191.135 120.015 180) (fields_autoplaced)
    (effects (font (size 1.27 1.27)) (justify right))
    (uuid f4a3de09-eaa5-433a-a5da-09002c89b56e)
    (property "Intersheetrefs" "${INTERSHEET_REFS}" (at 184.9119 119.9356 0)
      (effects (font (size 1.27 1.27)) (justify right) hide)
    )
  )

  (symbol (lib_id "power:GND") (at 159.385 193.04 90) (unit 1)
    (in_bom yes) (on_board yes) (dnp no)
    (uuid 10c80597-4204-49f6-870b-4b7b239b5b60)
    (property "Reference" "#PWR0208" (at 165.735 193.04 0)
      (effects (font (size 1.27 1.27)) hide)
    )
    (property "Value" "GND" (at 166.37 193.04 90)
      (effects (font (size 1.27 1.27)) (justify left))
    )
    (property "Footprint" "" (at 159.385 193.04 0)
      (effects (font (size 1.27 1.27)) hide)
    )
    (property "Datasheet" "" (at 159.385 193.04 0)
      (effects (font (size 1.27 1.27)) hide)
    )
    (pin "1" (uuid 50856748-e897-41b2-b7bb-ee0da5098192))
    (instances
      (project "CPC464-2MINI"
        (path "/e63e39d7-6ac0-4ffd-8aa3-1841a4541b55"
          (reference "#PWR0208") (unit 1)
        )
      )
    )
  )

  (symbol (lib_id "power:GND") (at 239.395 76.835 270) (unit 1)
    (in_bom yes) (on_board yes) (dnp no)
    (uuid 164e0c90-2306-42a3-9e20-b9ccaf5e6727)
    (property "Reference" "#PWR0140" (at 233.045 76.835 0)
      (effects (font (size 1.27 1.27)) hide)
    )
    (property "Value" "GND" (at 231.775 76.835 90)
      (effects (font (size 1.27 1.27)) (justify left))
    )
    (property "Footprint" "" (at 239.395 76.835 0)
      (effects (font (size 1.27 1.27)) hide)
    )
    (property "Datasheet" "" (at 239.395 76.835 0)
      (effects (font (size 1.27 1.27)) hide)
    )
    (pin "1" (uuid 6c15f6fe-3cd4-44cc-aa11-6bd39e02ec7b))
    (instances
      (project "CPC464-2MINI"
        (path "/e63e39d7-6ac0-4ffd-8aa3-1841a4541b55"
          (reference "#PWR0140") (unit 1)
        )
      )
    )
  )

  (symbol (lib_id "Device:C") (at 173.99 153.035 0) (unit 1)
    (in_bom yes) (on_board yes) (dnp no) (fields_autoplaced)
    (uuid 1b3fbdf6-6ec2-4f1f-912d-89eeceac55d8)
    (property "Reference" "C115" (at 177.165 151.7649 0)
      (effects (font (size 1.27 1.27)) (justify left))
    )
    (property "Value" "100nF" (at 177.165 154.3049 0)
      (effects (font (size 1.27 1.27)) (justify left))
    )
    (property "Footprint" "Capacitor_SMD:C_0805_2012Metric" (at 174.9552 156.845 0)
      (effects (font (size 1.27 1.27)) hide)
    )
    (property "Datasheet" "~" (at 173.99 153.035 0)
      (effects (font (size 1.27 1.27)) hide)
    )
    (property "LCSC" "C49678" (at 173.99 153.035 0)
      (effects (font (size 1.27 1.27)) hide)
    )
    (pin "1" (uuid 36b3dbdf-28c5-4457-a807-ef05170f85c5))
    (pin "2" (uuid 855c2602-2985-4b07-b8d3-33ccbf81cfe1))
    (instances
      (project "CPC464-2MINI"
        (path "/e63e39d7-6ac0-4ffd-8aa3-1841a4541b55"
          (reference "C115") (unit 1)
        )
      )
    )
  )

  (symbol (lib_id "power:+5V") (at 20.32 149.225 0) (unit 1)
    (in_bom yes) (on_board yes) (dnp no) (fields_autoplaced)
    (uuid 1dec3872-0b45-4fdd-8b5e-47f2faacf42d)
    (property "Reference" "#PWR0119" (at 20.32 153.035 0)
      (effects (font (size 1.27 1.27)) hide)
    )
    (property "Value" "+5V" (at 20.32 143.51 0)
      (effects (font (size 1.27 1.27)))
    )
    (property "Footprint" "" (at 20.32 149.225 0)
      (effects (font (size 1.27 1.27)) hide)
    )
    (property "Datasheet" "" (at 20.32 149.225 0)
      (effects (font (size 1.27 1.27)) hide)
    )
    (pin "1" (uuid 6cb03243-9dda-4a0c-bbf0-414eff76365d))
    (instances
      (project "CPC464-2MINI"
        (path "/e63e39d7-6ac0-4ffd-8aa3-1841a4541b55"
          (reference "#PWR0119") (unit 1)
        )
      )
    )
  )

  (symbol (lib_id "Device:C") (at 46.99 175.895 0) (unit 1)
    (in_bom yes) (on_board yes) (dnp no) (fields_autoplaced)
    (uuid 21058c52-f7df-4444-a836-1410f9dfadd2)
    (property "Reference" "C125" (at 50.165 174.6249 0)
      (effects (font (size 1.27 1.27)) (justify left))
    )
    (property "Value" "100nF" (at 50.165 177.1649 0)
      (effects (font (size 1.27 1.27)) (justify left))
    )
    (property "Footprint" "Capacitor_SMD:C_0805_2012Metric" (at 47.9552 179.705 0)
      (effects (font (size 1.27 1.27)) hide)
    )
    (property "Datasheet" "~" (at 46.99 175.895 0)
      (effects (font (size 1.27 1.27)) hide)
    )
    (property "LCSC" "C49678" (at 46.99 175.895 0)
      (effects (font (size 1.27 1.27)) hide)
    )
    (pin "1" (uuid c6516e10-7086-4c96-ab8b-1766805702a4))
    (pin "2" (uuid 8fc54ce7-b02a-49ed-81b9-11a2b83b3a25))
    (instances
      (project "CPC464-2MINI"
        (path "/e63e39d7-6ac0-4ffd-8aa3-1841a4541b55"
          (reference "C125") (unit 1)
        )
      )
    )
  )

  (symbol (lib_id "Mechanical:MountingHole_Pad") (at 249.555 136.525 270) (unit 1)
    (in_bom yes) (on_board yes) (dnp no) (fields_autoplaced)
    (uuid 219dad91-f23a-4172-abcb-76e146dbbd38)
    (property "Reference" "H9" (at 254 135.2549 90)
      (effects (font (size 1.27 1.27)) (justify left))
    )
    (property "Value" "Keyboard Hole" (at 254 137.7949 90)
      (effects (font (size 1.27 1.27)) (justify left))
    )
    (property "Footprint" "MountingHole:MountingHole_2.7mm_M2.5_ISO14580_Pad" (at 249.555 136.525 0)
      (effects (font (size 1.27 1.27)) hide)
    )
    (property "Datasheet" "~" (at 249.555 136.525 0)
      (effects (font (size 1.27 1.27)) hide)
    )
    (pin "1" (uuid 763ae847-1306-4766-8065-e9179c1085af))
    (instances
      (project "CPC464-2MINI"
        (path "/e63e39d7-6ac0-4ffd-8aa3-1841a4541b55"
          (reference "H9") (unit 1)
        )
      )
    )
  )

  (symbol (lib_id "Device:C") (at 110.49 153.035 0) (unit 1)
    (in_bom yes) (on_board yes) (dnp no) (fields_autoplaced)
    (uuid 22388563-098b-4c5b-8305-9addc0e05d10)
    (property "Reference" "C110" (at 113.665 151.7649 0)
      (effects (font (size 1.27 1.27)) (justify left))
    )
    (property "Value" "100nF" (at 113.665 154.3049 0)
      (effects (font (size 1.27 1.27)) (justify left))
    )
    (property "Footprint" "Capacitor_SMD:C_0805_2012Metric" (at 111.4552 156.845 0)
      (effects (font (size 1.27 1.27)) hide)
    )
    (property "Datasheet" "~" (at 110.49 153.035 0)
      (effects (font (size 1.27 1.27)) hide)
    )
    (property "LCSC" "C49678" (at 110.49 153.035 0)
      (effects (font (size 1.27 1.27)) hide)
    )
    (pin "1" (uuid 6c2de097-cd52-48ba-ad48-6ae9312b4684))
    (pin "2" (uuid 4a9cdaf0-271e-4fdb-8fdd-09a6e3531ccd))
    (instances
      (project "CPC464-2MINI"
        (path "/e63e39d7-6ac0-4ffd-8aa3-1841a4541b55"
          (reference "C110") (unit 1)
        )
      )
    )
  )

  (symbol (lib_id "Mechanical:MountingHole_Pad") (at 249.555 122.555 270) (unit 1)
    (in_bom yes) (on_board yes) (dnp no) (fields_autoplaced)
    (uuid 294ee031-8eaf-4cf8-90b3-ca0c458cba56)
    (property "Reference" "H7" (at 254 121.2849 90)
      (effects (font (size 1.27 1.27)) (justify left))
    )
    (property "Value" "MountingHole" (at 254 123.8249 90)
      (effects (font (size 1.27 1.27)) (justify left))
    )
    (property "Footprint" "MountingHole:MountingHole_2.7mm_M2.5_ISO14580_Pad" (at 249.555 122.555 0)
      (effects (font (size 1.27 1.27)) hide)
    )
    (property "Datasheet" "~" (at 249.555 122.555 0)
      (effects (font (size 1.27 1.27)) hide)
    )
    (pin "1" (uuid 7ac47743-c4c3-4081-adec-1127beb41d3a))
    (instances
      (project "CPC464-2MINI"
        (path "/e63e39d7-6ac0-4ffd-8aa3-1841a4541b55"
          (reference "H7") (unit 1)
        )
      )
    )
  )

  (symbol (lib_id "power:GND") (at 149.86 176.53 270) (mirror x) (unit 1)
    (in_bom yes) (on_board yes) (dnp no) (fields_autoplaced)
    (uuid 2c615af0-e2ba-4da9-940d-a574207fe4b0)
    (property "Reference" "#PWR0124" (at 143.51 176.53 0)
      (effects (font (size 1.27 1.27)) hide)
    )
    (property "Value" "GND" (at 146.685 176.5299 90)
      (effects (font (size 1.27 1.27)) (justify right))
    )
    (property "Footprint" "" (at 149.86 176.53 0)
      (effects (font (size 1.27 1.27)) hide)
    )
    (property "Datasheet" "" (at 149.86 176.53 0)
      (effects (font (size 1.27 1.27)) hide)
    )
    (pin "1" (uuid a2ed86a8-8488-4bbd-b7f8-bd89f5e671ec))
    (instances
      (project "CPC464-2MINI"
        (path "/e63e39d7-6ac0-4ffd-8aa3-1841a4541b55"
          (reference "#PWR0124") (unit 1)
        )
      )
    )
  )

  (symbol (lib_id "Device:C") (at 236.22 153.035 0) (unit 1)
    (in_bom yes) (on_board yes) (dnp no) (fields_autoplaced)
    (uuid 32ffc017-45b8-4287-9010-ce8e6301a920)
    (property "Reference" "C120" (at 239.395 151.7649 0)
      (effects (font (size 1.27 1.27)) (justify left))
    )
    (property "Value" "100nF" (at 239.395 154.3049 0)
      (effects (font (size 1.27 1.27)) (justify left))
    )
    (property "Footprint" "Capacitor_SMD:C_0805_2012Metric" (at 237.1852 156.845 0)
      (effects (font (size 1.27 1.27)) hide)
    )
    (property "Datasheet" "~" (at 236.22 153.035 0)
      (effects (font (size 1.27 1.27)) hide)
    )
    (property "LCSC" "C49678" (at 236.22 153.035 0)
      (effects (font (size 1.27 1.27)) hide)
    )
    (pin "1" (uuid 28915f58-6b18-4769-9fca-8f36b5939cd6))
    (pin "2" (uuid 3ad23fff-6ed1-49b2-8439-6b67e0616f36))
    (instances
      (project "CPC464-2MINI"
        (path "/e63e39d7-6ac0-4ffd-8aa3-1841a4541b55"
          (reference "C120") (unit 1)
        )
      )
    )
  )

  (symbol (lib_id "Device:C") (at 161.29 153.035 0) (unit 1)
    (in_bom yes) (on_board yes) (dnp no) (fields_autoplaced)
    (uuid 3bf21931-6413-4a6e-8ce1-d423dbf5d4a3)
    (property "Reference" "C114" (at 164.465 151.7649 0)
      (effects (font (size 1.27 1.27)) (justify left))
    )
    (property "Value" "100nF" (at 164.465 154.3049 0)
      (effects (font (size 1.27 1.27)) (justify left))
    )
    (property "Footprint" "Capacitor_SMD:C_0805_2012Metric" (at 162.2552 156.845 0)
      (effects (font (size 1.27 1.27)) hide)
    )
    (property "Datasheet" "~" (at 161.29 153.035 0)
      (effects (font (size 1.27 1.27)) hide)
    )
    (property "LCSC" "C49678" (at 161.29 153.035 0)
      (effects (font (size 1.27 1.27)) hide)
    )
    (pin "1" (uuid 5dc9d99f-eef8-423e-a777-8249966aa6e8))
    (pin "2" (uuid 24b02173-8b0f-4106-9d31-4e724ae4ee64))
    (instances
      (project "CPC464-2MINI"
        (path "/e63e39d7-6ac0-4ffd-8aa3-1841a4541b55"
          (reference "C114") (unit 1)
        )
      )
    )
  )

  (symbol (lib_id "Device:C") (at 72.39 175.895 0) (unit 1)
    (in_bom yes) (on_board yes) (dnp no) (fields_autoplaced)
    (uuid 3c95f08e-5d89-42f6-870a-f2ed066bf8fe)
    (property "Reference" "C127" (at 76.2 174.6249 0)
      (effects (font (size 1.27 1.27)) (justify left))
    )
    (property "Value" "100nF" (at 76.2 177.1649 0)
      (effects (font (size 1.27 1.27)) (justify left))
    )
    (property "Footprint" "Capacitor_SMD:C_0805_2012Metric" (at 73.3552 179.705 0)
      (effects (font (size 1.27 1.27)) hide)
    )
    (property "Datasheet" "~" (at 72.39 175.895 0)
      (effects (font (size 1.27 1.27)) hide)
    )
    (property "LCSC" "C49678" (at 72.39 175.895 0)
      (effects (font (size 1.27 1.27)) hide)
    )
    (pin "1" (uuid 72a2386c-2970-4e73-98fe-43922ab22178))
    (pin "2" (uuid b59cee82-7431-4237-924c-c9f5d1f3da9d))
    (instances
      (project "CPC464-2MINI"
        (path "/e63e39d7-6ac0-4ffd-8aa3-1841a4541b55"
          (reference "C127") (unit 1)
        )
      )
    )
  )

  (symbol (lib_id "power:+5V") (at 20.32 172.085 0) (unit 1)
    (in_bom yes) (on_board yes) (dnp no) (fields_autoplaced)
    (uuid 41876c6a-25ba-4bb2-9f83-a101165f1cf4)
    (property "Reference" "#PWR0117" (at 20.32 175.895 0)
      (effects (font (size 1.27 1.27)) hide)
    )
    (property "Value" "+5V" (at 20.32 166.37 0)
      (effects (font (size 1.27 1.27)))
    )
    (property "Footprint" "" (at 20.32 172.085 0)
      (effects (font (size 1.27 1.27)) hide)
    )
    (property "Datasheet" "" (at 20.32 172.085 0)
      (effects (font (size 1.27 1.27)) hide)
    )
    (pin "1" (uuid e235e465-0fd1-4421-abd7-944b01ef6563))
    (instances
      (project "CPC464-2MINI"
        (path "/e63e39d7-6ac0-4ffd-8aa3-1841a4541b55"
          (reference "#PWR0117") (unit 1)
        )
      )
    )
  )

  (symbol (lib_id "Device:C") (at 212.09 153.035 0) (unit 1)
    (in_bom yes) (on_board no) (dnp no) (fields_autoplaced)
    (uuid 41b73a8b-a6e6-4445-bb48-50e797a69082)
    (property "Reference" "C118" (at 215.265 151.7649 0)
      (effects (font (size 1.27 1.27)) (justify left))
    )
    (property "Value" "100nF" (at 215.265 154.3049 0)
      (effects (font (size 1.27 1.27)) (justify left))
    )
    (property "Footprint" "Capacitor_SMD:C_0805_2012Metric" (at 213.0552 156.845 0)
      (effects (font (size 1.27 1.27)) hide)
    )
    (property "Datasheet" "~" (at 212.09 153.035 0)
      (effects (font (size 1.27 1.27)) hide)
    )
    (property "LCSC" "C49678" (at 212.09 153.035 0)
      (effects (font (size 1.27 1.27)) hide)
    )
    (pin "1" (uuid 52c3664a-7271-4223-8ba3-1991e0e4ca5e))
    (pin "2" (uuid 43c48263-d3db-461a-b3e8-a1011925fa93))
    (instances
      (project "CPC464-2MINI"
        (path "/e63e39d7-6ac0-4ffd-8aa3-1841a4541b55"
          (reference "C118") (unit 1)
        )
      )
    )
  )

  (symbol (lib_id "Mechanical:MountingHole_Pad") (at 249.555 92.075 270) (unit 1)
    (in_bom yes) (on_board yes) (dnp no) (fields_autoplaced)
    (uuid 4c128f4f-049d-4500-8a11-a09a131635f6)
    (property "Reference" "H3" (at 254 90.8049 90)
      (effects (font (size 1.27 1.27)) (justify left))
    )
    (property "Value" "MountingHole" (at 254 93.3449 90)
      (effects (font (size 1.27 1.27)) (justify left))
    )
    (property "Footprint" "MountingHole:MountingHole_2.7mm_M2.5_ISO14580_Pad" (at 249.555 92.075 0)
      (effects (font (size 1.27 1.27)) hide)
    )
    (property "Datasheet" "~" (at 249.555 92.075 0)
      (effects (font (size 1.27 1.27)) hide)
    )
    (pin "1" (uuid 3207676b-ec6a-44dd-833c-5c5052625338))
    (instances
      (project "CPC464-2MINI"
        (path "/e63e39d7-6ac0-4ffd-8aa3-1841a4541b55"
          (reference "H3") (unit 1)
        )
      )
    )
  )

  (symbol (lib_id "Mechanical:MountingHole_Pad") (at 249.555 84.455 270) (unit 1)
    (in_bom yes) (on_board yes) (dnp no) (fields_autoplaced)
    (uuid 53ae2557-3df0-4bc4-a3ea-2f3fac9846c7)
    (property "Reference" "H2" (at 254 83.1849 90)
      (effects (font (size 1.27 1.27)) (justify left))
    )
    (property "Value" "MountingHole" (at 254 85.7249 90)
      (effects (font (size 1.27 1.27)) (justify left))
    )
    (property "Footprint" "MountingHole:MountingHole_2.7mm_M2.5_ISO14580_Pad" (at 249.555 84.455 0)
      (effects (font (size 1.27 1.27)) hide)
    )
    (property "Datasheet" "~" (at 249.555 84.455 0)
      (effects (font (size 1.27 1.27)) hide)
    )
    (pin "1" (uuid 1db6e4d9-ee99-4684-81cb-6a407937070e))
    (instances
      (project "CPC464-2MINI"
        (path "/e63e39d7-6ac0-4ffd-8aa3-1841a4541b55"
          (reference "H2") (unit 1)
        )
      )
    )
  )

  (symbol (lib_id "Device:C") (at 224.79 153.035 0) (unit 1)
    (in_bom yes) (on_board yes) (dnp no) (fields_autoplaced)
    (uuid 563d1b17-23e5-4e3c-8ba3-0e474d9bd0f1)
    (property "Reference" "C119" (at 227.965 151.7649 0)
      (effects (font (size 1.27 1.27)) (justify left))
    )
    (property "Value" "100nF" (at 227.965 154.3049 0)
      (effects (font (size 1.27 1.27)) (justify left))
    )
    (property "Footprint" "Capacitor_SMD:C_0805_2012Metric" (at 225.7552 156.845 0)
      (effects (font (size 1.27 1.27)) hide)
    )
    (property "Datasheet" "~" (at 224.79 153.035 0)
      (effects (font (size 1.27 1.27)) hide)
    )
    (property "LCSC" "C49678" (at 224.79 153.035 0)
      (effects (font (size 1.27 1.27)) hide)
    )
    (pin "1" (uuid 346b1395-5957-415e-ad79-868353748a71))
    (pin "2" (uuid bb8547cc-c3c9-435a-b615-689e39982cbb))
    (instances
      (project "CPC464-2MINI"
        (path "/e63e39d7-6ac0-4ffd-8aa3-1841a4541b55"
          (reference "C119") (unit 1)
        )
      )
    )
  )

  (symbol (lib_id "Device:C") (at 97.79 153.035 0) (unit 1)
    (in_bom yes) (on_board yes) (dnp no) (fields_autoplaced)
    (uuid 58bac27a-c733-4ccb-9f8a-b1bdad2e8359)
    (property "Reference" "C109" (at 100.965 151.7649 0)
      (effects (font (size 1.27 1.27)) (justify left))
    )
    (property "Value" "100nF" (at 100.965 154.3049 0)
      (effects (font (size 1.27 1.27)) (justify left))
    )
    (property "Footprint" "Capacitor_SMD:C_0805_2012Metric" (at 98.7552 156.845 0)
      (effects (font (size 1.27 1.27)) hide)
    )
    (property "Datasheet" "~" (at 97.79 153.035 0)
      (effects (font (size 1.27 1.27)) hide)
    )
    (property "LCSC" "C49678" (at 97.79 153.035 0)
      (effects (font (size 1.27 1.27)) hide)
    )
    (pin "1" (uuid cef0a819-1e69-447c-a9b6-45b48d5533c7))
    (pin "2" (uuid b6784037-37d1-451d-bf33-044766b11a0b))
    (instances
      (project "CPC464-2MINI"
        (path "/e63e39d7-6ac0-4ffd-8aa3-1841a4541b55"
          (reference "C109") (unit 1)
        )
      )
    )
  )

  (symbol (lib_id "Connector_Generic:Conn_01x03") (at 154.94 173.99 0) (unit 1)
    (in_bom yes) (on_board yes) (dnp no) (fields_autoplaced)
    (uuid 59bc27bf-b50d-4636-a070-e35cfc6f0f3d)
    (property "Reference" "J105" (at 158.115 172.7199 0)
      (effects (font (size 1.27 1.27)) (justify left))
    )
    (property "Value" "KBPWR" (at 158.115 175.2599 0)
      (effects (font (size 1.27 1.27)) (justify left))
    )
    (property "Footprint" "Connector_PinHeader_2.54mm:PinHeader_1x03_P2.54mm_Vertical" (at 154.94 173.99 0)
      (effects (font (size 1.27 1.27)) hide)
    )
    (property "Datasheet" "~" (at 154.94 173.99 0)
      (effects (font (size 1.27 1.27)) hide)
    )
    (pin "1" (uuid a0a62dd6-cbb3-4ba1-ad98-7e825f68d799))
    (pin "2" (uuid b3c27ddd-9aa4-4527-a8c3-76a2c2fbd176))
    (pin "3" (uuid abe70a53-f6d4-4e75-9024-c76f9a500ed9))
    (instances
      (project "CPC464-2MINI"
        (path "/e63e39d7-6ac0-4ffd-8aa3-1841a4541b55"
          (reference "J105") (unit 1)
        )
      )
    )
  )

  (symbol (lib_id "power:+5V") (at 132.08 193.04 90) (unit 1)
    (in_bom yes) (on_board yes) (dnp no)
    (uuid 5f2eedd6-7c1f-49df-8f91-d1aa76e94f3b)
    (property "Reference" "#PWR0207" (at 135.89 193.04 0)
      (effects (font (size 1.27 1.27)) hide)
    )
    (property "Value" "+5V" (at 125.095 193.04 90)
      (effects (font (size 1.27 1.27)) (justify right))
    )
    (property "Footprint" "" (at 132.08 193.04 0)
      (effects (font (size 1.27 1.27)) hide)
    )
    (property "Datasheet" "" (at 132.08 193.04 0)
      (effects (font (size 1.27 1.27)) hide)
    )
    (pin "1" (uuid 23d2b69e-4551-46ae-8071-8a18f8b6c832))
    (instances
      (project "CPC464-2MINI"
        (path "/e63e39d7-6ac0-4ffd-8aa3-1841a4541b55"
          (reference "#PWR0207") (unit 1)
        )
      )
    )
  )

  (symbol (lib_id "power:GND") (at 20.32 156.845 0) (unit 1)
    (in_bom yes) (on_board yes) (dnp no) (fields_autoplaced)
    (uuid 71a05a6d-c004-453f-a051-365bd1413c8e)
    (property "Reference" "#PWR0116" (at 20.32 163.195 0)
      (effects (font (size 1.27 1.27)) hide)
    )
    (property "Value" "GND" (at 20.32 161.925 0)
      (effects (font (size 1.27 1.27)))
    )
    (property "Footprint" "" (at 20.32 156.845 0)
      (effects (font (size 1.27 1.27)) hide)
    )
    (property "Datasheet" "" (at 20.32 156.845 0)
      (effects (font (size 1.27 1.27)) hide)
    )
    (pin "1" (uuid be1d2543-3b7a-4e68-a785-cdb611ed7995))
    (instances
      (project "CPC464-2MINI"
        (path "/e63e39d7-6ac0-4ffd-8aa3-1841a4541b55"
          (reference "#PWR0116") (unit 1)
        )
      )
    )
  )

  (symbol (lib_id "Device:C") (at 123.19 175.895 0) (unit 1)
    (in_bom yes) (on_board yes) (dnp no) (fields_autoplaced)
    (uuid 76448714-3c54-463f-a84e-cfe408a2470b)
    (property "Reference" "C137" (at 127 174.6249 0)
      (effects (font (size 1.27 1.27)) (justify left))
    )
    (property "Value" "100nF" (at 127 177.1649 0)
      (effects (font (size 1.27 1.27)) (justify left))
    )
    (property "Footprint" "Capacitor_SMD:C_0805_2012Metric" (at 124.1552 179.705 0)
      (effects (font (size 1.27 1.27)) hide)
    )
    (property "Datasheet" "~" (at 123.19 175.895 0)
      (effects (font (size 1.27 1.27)) hide)
    )
    (property "LCSC" "C49678" (at 123.19 175.895 0)
      (effects (font (size 1.27 1.27)) hide)
    )
    (pin "1" (uuid 580521e0-4c77-41b1-8ce8-e84f390c6e80))
    (pin "2" (uuid 2180c958-2d3e-4676-bf3c-64f20d222035))
    (instances
      (project "CPC464-2MINI"
        (path "/e63e39d7-6ac0-4ffd-8aa3-1841a4541b55"
          (reference "C137") (unit 1)
        )
      )
    )
  )

  (symbol (lib_id "Device:C_Polarized") (at 27.305 153.035 0) (unit 1)
    (in_bom yes) (on_board yes) (dnp no)
    (uuid 76e13515-b013-4ed3-b315-3e0b80df0f30)
    (property "Reference" "C101" (at 23.495 151.765 0)
      (effects (font (size 1.27 1.27)) (justify right))
    )
    (property "Value" "100uF 25V" (at 23.495 153.67 0)
      (effects (font (size 1.27 1.27)) (justify right))
    )
    (property "Footprint" "Capacitor_THT:CP_Radial_D5.0mm_P2.50mm" (at 28.2702 156.845 0)
      (effects (font (size 1.27 1.27)) hide)
    )
    (property "Datasheet" "~" (at 27.305 153.035 0)
      (effects (font (size 1.27 1.27)) hide)
    )
    (pin "1" (uuid 6e390aec-91cb-45fc-a53c-3b263d255fda))
    (pin "2" (uuid eb6ddae2-ac4e-4a98-ad44-d77499901f52))
    (instances
      (project "CPC464-2MINI"
        (path "/e63e39d7-6ac0-4ffd-8aa3-1841a4541b55"
          (reference "C101") (unit 1)
        )
      )
    )
  )

  (symbol (lib_id "Mechanical:MountingHole_Pad") (at 249.555 129.54 270) (unit 1)
    (in_bom yes) (on_board yes) (dnp no) (fields_autoplaced)
    (uuid 775a1b76-94f2-489c-ae16-1b8e2e0cfa67)
    (property "Reference" "H8" (at 254 128.2699 90)
      (effects (font (size 1.27 1.27)) (justify left))
    )
    (property "Value" "Smaller Memory Hole" (at 254 130.8099 90)
      (effects (font (size 1.27 1.27)) (justify left))
    )
    (property "Footprint" "MountingHole:MountingHole_2.2mm_M2_DIN965_Pad" (at 249.555 129.54 0)
      (effects (font (size 1.27 1.27)) hide)
    )
    (property "Datasheet" "~" (at 249.555 129.54 0)
      (effects (font (size 1.27 1.27)) hide)
    )
    (pin "1" (uuid 28b124c8-5467-40c6-a7ec-93ce91295fc8))
    (instances
      (project "CPC464-2MINI"
        (path "/e63e39d7-6ac0-4ffd-8aa3-1841a4541b55"
          (reference "H8") (unit 1)
        )
      )
    )
  )

  (symbol (lib_id "Mechanical:MountingHole_Pad") (at 249.555 76.835 270) (unit 1)
    (in_bom yes) (on_board yes) (dnp no) (fields_autoplaced)
    (uuid 81e27f4b-f463-4c48-ad90-39e01a17e774)
    (property "Reference" "H1" (at 254 75.5649 90)
      (effects (font (size 1.27 1.27)) (justify left))
    )
    (property "Value" "MountingHole" (at 254 78.1049 90)
      (effects (font (size 1.27 1.27)) (justify left))
    )
    (property "Footprint" "MountingHole:MountingHole_2.7mm_M2.5_ISO14580_Pad" (at 249.555 76.835 0)
      (effects (font (size 1.27 1.27)) hide)
    )
    (property "Datasheet" "~" (at 249.555 76.835 0)
      (effects (font (size 1.27 1.27)) hide)
    )
    (pin "1" (uuid 4dcfa92d-3f14-4b70-9711-22cf094d8f37))
    (instances
      (project "CPC464-2MINI"
        (path "/e63e39d7-6ac0-4ffd-8aa3-1841a4541b55"
          (reference "H1") (unit 1)
        )
      )
    )
  )

  (symbol (lib_id "Device:C") (at 199.39 153.035 0) (unit 1)
    (in_bom yes) (on_board yes) (dnp no) (fields_autoplaced)
    (uuid 841ae306-017f-48f2-9c5b-f150d9fc3f60)
    (property "Reference" "C117" (at 202.565 151.7649 0)
      (effects (font (size 1.27 1.27)) (justify left))
    )
    (property "Value" "100nF" (at 202.565 154.3049 0)
      (effects (font (size 1.27 1.27)) (justify left))
    )
    (property "Footprint" "Capacitor_SMD:C_0805_2012Metric" (at 200.3552 156.845 0)
      (effects (font (size 1.27 1.27)) hide)
    )
    (property "Datasheet" "~" (at 199.39 153.035 0)
      (effects (font (size 1.27 1.27)) hide)
    )
    (property "LCSC" "C49678" (at 199.39 153.035 0)
      (effects (font (size 1.27 1.27)) hide)
    )
    (pin "1" (uuid 9a2f09e1-4d3a-41b8-b1f5-296869a766c3))
    (pin "2" (uuid 172ec336-c793-44fa-9ca5-a175553ec266))
    (instances
      (project "CPC464-2MINI"
        (path "/e63e39d7-6ac0-4ffd-8aa3-1841a4541b55"
          (reference "C117") (unit 1)
        )
      )
    )
  )

  (symbol (lib_id "Device:C") (at 123.19 153.035 0) (unit 1)
    (in_bom yes) (on_board yes) (dnp no) (fields_autoplaced)
    (uuid 86f7584d-2113-48a5-9a64-24f9c8f6f843)
    (property "Reference" "C111" (at 126.365 151.7649 0)
      (effects (font (size 1.27 1.27)) (justify left))
    )
    (property "Value" "100nF" (at 126.365 154.3049 0)
      (effects (font (size 1.27 1.27)) (justify left))
    )
    (property "Footprint" "Capacitor_SMD:C_0805_2012Metric" (at 124.1552 156.845 0)
      (effects (font (size 1.27 1.27)) hide)
    )
    (property "Datasheet" "~" (at 123.19 153.035 0)
      (effects (font (size 1.27 1.27)) hide)
    )
    (property "LCSC" "C49678" (at 123.19 153.035 0)
      (effects (font (size 1.27 1.27)) hide)
    )
    (pin "1" (uuid 9711cc6b-336d-40d7-bfa3-3c72bda8b4cb))
    (pin "2" (uuid e3eaef93-77d8-4968-8945-d44d8284ae1c))
    (instances
      (project "CPC464-2MINI"
        (path "/e63e39d7-6ac0-4ffd-8aa3-1841a4541b55"
          (reference "C111") (unit 1)
        )
      )
    )
  )

  (symbol (lib_id "Device:C") (at 135.89 153.035 0) (unit 1)
    (in_bom yes) (on_board yes) (dnp no) (fields_autoplaced)
    (uuid 89a9d6ea-785f-4361-8a21-ea3d7a427841)
    (property "Reference" "C112" (at 139.065 151.7649 0)
      (effects (font (size 1.27 1.27)) (justify left))
    )
    (property "Value" "100nF" (at 139.065 154.3049 0)
      (effects (font (size 1.27 1.27)) (justify left))
    )
    (property "Footprint" "Capacitor_SMD:C_0805_2012Metric" (at 136.8552 156.845 0)
      (effects (font (size 1.27 1.27)) hide)
    )
    (property "Datasheet" "~" (at 135.89 153.035 0)
      (effects (font (size 1.27 1.27)) hide)
    )
    (property "LCSC" "C49678" (at 135.89 153.035 0)
      (effects (font (size 1.27 1.27)) hide)
    )
    (pin "1" (uuid 8299a6eb-8de4-4dc8-83d9-f9312e84fcef))
    (pin "2" (uuid 5437ae9c-2197-46bc-8315-29592c606c56))
    (instances
      (project "CPC464-2MINI"
        (path "/e63e39d7-6ac0-4ffd-8aa3-1841a4541b55"
          (reference "C112") (unit 1)
        )
      )
    )
  )

  (symbol (lib_id "Mechanical:MountingHole_Pad") (at 249.555 107.315 270) (unit 1)
    (in_bom yes) (on_board yes) (dnp no) (fields_autoplaced)
    (uuid 8cecce56-43a9-4542-ba73-9ddf762c957a)
    (property "Reference" "H5" (at 254 106.0449 90)
      (effects (font (size 1.27 1.27)) (justify left))
    )
    (property "Value" "MountingHole" (at 254 108.5849 90)
      (effects (font (size 1.27 1.27)) (justify left))
    )
    (property "Footprint" "MountingHole:MountingHole_2.7mm_M2.5_ISO14580_Pad" (at 249.555 107.315 0)
      (effects (font (size 1.27 1.27)) hide)
    )
    (property "Datasheet" "~" (at 249.555 107.315 0)
      (effects (font (size 1.27 1.27)) hide)
    )
    (pin "1" (uuid 1214da2f-202f-4aba-925e-67384a880b73))
    (instances
      (project "CPC464-2MINI"
        (path "/e63e39d7-6ac0-4ffd-8aa3-1841a4541b55"
          (reference "H5") (unit 1)
        )
      )
    )
  )

  (symbol (lib_id "Mechanical:MountingHole_Pad") (at 249.555 99.695 270) (unit 1)
    (in_bom yes) (on_board yes) (dnp no) (fields_autoplaced)
    (uuid 90f849e6-cdd7-4332-a915-111535ca3bca)
    (property "Reference" "H4" (at 254 98.4249 90)
      (effects (font (size 1.27 1.27)) (justify left))
    )
    (property "Value" "MountingHole" (at 254 100.9649 90)
      (effects (font (size 1.27 1.27)) (justify left))
    )
    (property "Footprint" "MountingHole:MountingHole_2.7mm_M2.5_ISO14580_Pad" (at 249.555 99.695 0)
      (effects (font (size 1.27 1.27)) hide)
    )
    (property "Datasheet" "~" (at 249.555 99.695 0)
      (effects (font (size 1.27 1.27)) hide)
    )
    (pin "1" (uuid bb8c3ad2-b16b-46ff-866c-64d27b38afb8))
    (instances
      (project "CPC464-2MINI"
        (path "/e63e39d7-6ac0-4ffd-8aa3-1841a4541b55"
          (reference "H4") (unit 1)
        )
      )
    )
  )

  (symbol (lib_id "Device:C") (at 248.92 153.035 0) (unit 1)
    (in_bom yes) (on_board yes) (dnp no) (fields_autoplaced)
    (uuid 913b63f1-c891-4f56-853b-3efb2cc8d5cd)
    (property "Reference" "C121" (at 252.095 151.7649 0)
      (effects (font (size 1.27 1.27)) (justify left))
    )
    (property "Value" "100nF" (at 252.095 154.3049 0)
      (effects (font (size 1.27 1.27)) (justify left))
    )
    (property "Footprint" "Capacitor_SMD:C_0805_2012Metric" (at 249.8852 156.845 0)
      (effects (font (size 1.27 1.27)) hide)
    )
    (property "Datasheet" "~" (at 248.92 153.035 0)
      (effects (font (size 1.27 1.27)) hide)
    )
    (property "LCSC" "C49678" (at 248.92 153.035 0)
      (effects (font (size 1.27 1.27)) hide)
    )
    (pin "1" (uuid 184460b3-c2ff-4c98-95bc-c90cdb47240b))
    (pin "2" (uuid 90e9e172-c210-439f-8dc9-b95cc4f4ea2e))
    (instances
      (project "CPC464-2MINI"
        (path "/e63e39d7-6ac0-4ffd-8aa3-1841a4541b55"
          (reference "C121") (unit 1)
        )
      )
    )
  )

  (symbol (lib_id "Device:C") (at 111.125 175.895 0) (unit 1)
    (in_bom yes) (on_board yes) (dnp no) (fields_autoplaced)
    (uuid 9552639e-fb31-4d46-9b5f-af45b97485cd)
    (property "Reference" "C136" (at 114.3 174.6249 0)
      (effects (font (size 1.27 1.27)) (justify left))
    )
    (property "Value" "100nF" (at 114.3 177.1649 0)
      (effects (font (size 1.27 1.27)) (justify left))
    )
    (property "Footprint" "Capacitor_SMD:C_0805_2012Metric" (at 112.0902 179.705 0)
      (effects (font (size 1.27 1.27)) hide)
    )
    (property "Datasheet" "~" (at 111.125 175.895 0)
      (effects (font (size 1.27 1.27)) hide)
    )
    (property "LCSC" "C49678" (at 111.125 175.895 0)
      (effects (font (size 1.27 1.27)) hide)
    )
    (pin "1" (uuid f2ec9b78-3dcf-4181-920b-1c36cd5df5a9))
    (pin "2" (uuid 6550c6c5-90f6-4bd9-a48c-63aab4eed540))
    (instances
      (project "CPC464-2MINI"
        (path "/e63e39d7-6ac0-4ffd-8aa3-1841a4541b55"
          (reference "C136") (unit 1)
        )
      )
    )
  )

  (symbol (lib_id "Device:C") (at 186.69 153.035 0) (unit 1)
    (in_bom yes) (on_board yes) (dnp no) (fields_autoplaced)
    (uuid 965b8451-d97e-46b9-8afa-697d4a173ff7)
    (property "Reference" "C116" (at 189.865 151.7649 0)
      (effects (font (size 1.27 1.27)) (justify left))
    )
    (property "Value" "100nF" (at 189.865 154.3049 0)
      (effects (font (size 1.27 1.27)) (justify left))
    )
    (property "Footprint" "Capacitor_SMD:C_0805_2012Metric" (at 187.6552 156.845 0)
      (effects (font (size 1.27 1.27)) hide)
    )
    (property "Datasheet" "~" (at 186.69 153.035 0)
      (effects (font (size 1.27 1.27)) hide)
    )
    (property "LCSC" "C49678" (at 186.69 153.035 0)
      (effects (font (size 1.27 1.27)) hide)
    )
    (pin "1" (uuid f97a2e37-306d-4c8a-9f0e-9991d698336c))
    (pin "2" (uuid abd7b9d6-ce40-45be-ba82-ec403156e1df))
    (instances
      (project "CPC464-2MINI"
        (path "/e63e39d7-6ac0-4ffd-8aa3-1841a4541b55"
          (reference "C116") (unit 1)
        )
      )
    )
  )

  (symbol (lib_id "Device:C") (at 34.29 153.035 0) (unit 1)
    (in_bom yes) (on_board yes) (dnp no) (fields_autoplaced)
    (uuid 9735a2a3-fca2-4fb0-88a6-767da3768937)
    (property "Reference" "C104" (at 37.465 151.7649 0)
      (effects (font (size 1.27 1.27)) (justify left))
    )
    (property "Value" "100nF" (at 37.465 154.3049 0)
      (effects (font (size 1.27 1.27)) (justify left))
    )
    (property "Footprint" "Capacitor_SMD:C_0805_2012Metric" (at 35.2552 156.845 0)
      (effects (font (size 1.27 1.27)) hide)
    )
    (property "Datasheet" "~" (at 34.29 153.035 0)
      (effects (font (size 1.27 1.27)) hide)
    )
    (property "LCSC" "C49678" (at 34.29 153.035 0)
      (effects (font (size 1.27 1.27)) hide)
    )
    (pin "1" (uuid c2909216-9aed-4559-ad55-0cc7c1c5d2e1))
    (pin "2" (uuid 2dc9608d-90da-491c-a694-492c96474e95))
    (instances
      (project "CPC464-2MINI"
        (path "/e63e39d7-6ac0-4ffd-8aa3-1841a4541b55"
          (reference "C104") (unit 1)
        )
      )
    )
  )

  (symbol (lib_id "Device:LED") (at 152.4 193.04 180) (unit 1)
    (in_bom yes) (on_board yes) (dnp no)
    (uuid a77fbee9-9d19-477b-b06e-c25a8c781a3a)
    (property "Reference" "D102" (at 153.9875 185.42 0)
      (effects (font (size 1.27 1.27)))
    )
    (property "Value" "5V POWER" (at 153.9875 187.96 0)
      (effects (font (size 1.27 1.27)))
    )
    (property "Footprint" "LED_SMD:LED_1206_3216Metric" (at 152.4 193.04 0)
      (effects (font (size 1.27 1.27)) hide)
    )
    (property "Datasheet" "~" (at 152.4 193.04 0)
      (effects (font (size 1.27 1.27)) hide)
    )
    (pin "1" (uuid 83773f56-4164-4207-851e-f0cafbae87ec))
    (pin "2" (uuid a3b7994a-d76a-4000-8091-d106a4ffef24))
    (instances
      (project "CPC464-2MINI"
        (path "/e63e39d7-6ac0-4ffd-8aa3-1841a4541b55"
          (reference "D102") (unit 1)
        )
      )
    )
  )

  (symbol (lib_id "Device:C") (at 261.62 153.035 0) (unit 1)
    (in_bom yes) (on_board yes) (dnp no) (fields_autoplaced)
    (uuid a79db1b4-9302-4e6d-8012-b81982ef2950)
    (property "Reference" "C122" (at 264.795 151.7649 0)
      (effects (font (size 1.27 1.27)) (justify left))
    )
    (property "Value" "100nF" (at 264.795 154.3049 0)
      (effects (font (size 1.27 1.27)) (justify left))
    )
    (property "Footprint" "Capacitor_SMD:C_0805_2012Metric" (at 262.5852 156.845 0)
      (effects (font (size 1.27 1.27)) hide)
    )
    (property "Datasheet" "~" (at 261.62 153.035 0)
      (effects (font (size 1.27 1.27)) hide)
    )
    (property "LCSC" "C49678" (at 261.62 153.035 0)
      (effects (font (size 1.27 1.27)) hide)
    )
    (pin "1" (uuid 7866689e-0140-4661-a914-5cf2b5282061))
    (pin "2" (uuid 17d96dab-ea0a-4f15-9ce2-15ee921783de))
    (instances
      (project "CPC464-2MINI"
        (path "/e63e39d7-6ac0-4ffd-8aa3-1841a4541b55"
          (reference "C122") (unit 1)
        )
      )
    )
  )

  (symbol (lib_id "Device:C") (at 85.09 175.895 0) (unit 1)
    (in_bom yes) (on_board yes) (dnp no) (fields_autoplaced)
    (uuid af4322dc-f4ce-45e0-9807-d5f2788fff69)
    (property "Reference" "C128" (at 88.9 174.6249 0)
      (effects (font (size 1.27 1.27)) (justify left))
    )
    (property "Value" "100nF" (at 88.9 177.1649 0)
      (effects (font (size 1.27 1.27)) (justify left))
    )
    (property "Footprint" "Capacitor_SMD:C_0805_2012Metric" (at 86.0552 179.705 0)
      (effects (font (size 1.27 1.27)) hide)
    )
    (property "Datasheet" "~" (at 85.09 175.895 0)
      (effects (font (size 1.27 1.27)) hide)
    )
    (property "LCSC" "C49678" (at 85.09 175.895 0)
      (effects (font (size 1.27 1.27)) hide)
    )
    (pin "1" (uuid 585237d7-7a5b-45eb-8873-78656e15128d))
    (pin "2" (uuid 9d0a790f-36a6-4fee-b6a0-38e60a3538f0))
    (instances
      (project "CPC464-2MINI"
        (path "/e63e39d7-6ac0-4ffd-8aa3-1841a4541b55"
          (reference "C128") (unit 1)
        )
      )
    )
  )

  (symbol (lib_id "power:+5V") (at 149.86 173.99 90) (mirror x) (unit 1)
    (in_bom yes) (on_board yes) (dnp no) (fields_autoplaced)
    (uuid b0a22a5e-b0ed-4e82-b508-557a5ebb200d)
    (property "Reference" "#PWR0126" (at 153.67 173.99 0)
      (effects (font (size 1.27 1.27)) hide)
    )
    (property "Value" "+5V" (at 146.05 173.9899 90)
      (effects (font (size 1.27 1.27)) (justify left))
    )
    (property "Footprint" "" (at 149.86 173.99 0)
      (effects (font (size 1.27 1.27)) hide)
    )
    (property "Datasheet" "" (at 149.86 173.99 0)
      (effects (font (size 1.27 1.27)) hide)
    )
    (pin "1" (uuid fcba5a7e-dad1-4b15-bda0-7dde50295cab))
    (instances
      (project "CPC464-2MINI"
        (path "/e63e39d7-6ac0-4ffd-8aa3-1841a4541b55"
          (reference "#PWR0126") (unit 1)
        )
      )
    )
  )

  (symbol (lib_id "power:GND") (at 20.32 179.705 0) (unit 1)
    (in_bom yes) (on_board yes) (dnp no) (fields_autoplaced)
    (uuid b3376823-2611-41d8-90ce-72b74f2e5eff)
    (property "Reference" "#PWR0118" (at 20.32 186.055 0)
      (effects (font (size 1.27 1.27)) hide)
    )
    (property "Value" "GND" (at 20.32 184.785 0)
      (effects (font (size 1.27 1.27)))
    )
    (property "Footprint" "" (at 20.32 179.705 0)
      (effects (font (size 1.27 1.27)) hide)
    )
    (property "Datasheet" "" (at 20.32 179.705 0)
      (effects (font (size 1.27 1.27)) hide)
    )
    (pin "1" (uuid 6a94d1f8-b025-48ef-b0f1-da8d4aed8bf5))
    (instances
      (project "CPC464-2MINI"
        (path "/e63e39d7-6ac0-4ffd-8aa3-1841a4541b55"
          (reference "#PWR0118") (unit 1)
        )
      )
    )
  )

  (symbol (lib_id "Device:C") (at 85.09 153.035 0) (unit 1)
    (in_bom yes) (on_board yes) (dnp no) (fields_autoplaced)
    (uuid cc5c72f7-dfc6-4a3e-846a-7cbc4a848944)
    (property "Reference" "C108" (at 88.265 151.7649 0)
      (effects (font (size 1.27 1.27)) (justify left))
    )
    (property "Value" "100nF" (at 88.265 154.3049 0)
      (effects (font (size 1.27 1.27)) (justify left))
    )
    (property "Footprint" "Capacitor_SMD:C_0805_2012Metric" (at 86.0552 156.845 0)
      (effects (font (size 1.27 1.27)) hide)
    )
    (property "Datasheet" "~" (at 85.09 153.035 0)
      (effects (font (size 1.27 1.27)) hide)
    )
    (property "LCSC" "C49678" (at 85.09 153.035 0)
      (effects (font (size 1.27 1.27)) hide)
    )
    (pin "1" (uuid 553c60d1-9868-4683-81ae-6b1a74bb11b1))
    (pin "2" (uuid be7738f9-6baf-4749-aea3-717299b75f1e))
    (instances
      (project "CPC464-2MINI"
        (path "/e63e39d7-6ac0-4ffd-8aa3-1841a4541b55"
          (reference "C108") (unit 1)
        )
      )
    )
  )

  (symbol (lib_id "Device:C") (at 274.32 153.035 0) (unit 1)
    (in_bom yes) (on_board yes) (dnp no) (fields_autoplaced)
    (uuid d5d4b5dd-78c7-4d84-af69-ea27ac0afc29)
    (property "Reference" "C123" (at 277.495 151.7649 0)
      (effects (font (size 1.27 1.27)) (justify left))
    )
    (property "Value" "100nF" (at 277.495 154.3049 0)
      (effects (font (size 1.27 1.27)) (justify left))
    )
    (property "Footprint" "Capacitor_SMD:C_0805_2012Metric" (at 275.2852 156.845 0)
      (effects (font (size 1.27 1.27)) hide)
    )
    (property "Datasheet" "~" (at 274.32 153.035 0)
      (effects (font (size 1.27 1.27)) hide)
    )
    (property "LCSC" "C49678" (at 274.32 153.035 0)
      (effects (font (size 1.27 1.27)) hide)
    )
    (pin "1" (uuid 1c6680db-8154-4fa6-b9d0-0c0089481fa5))
    (pin "2" (uuid 88889da6-0351-44b8-9d3f-87156c4f7bf8))
    (instances
      (project "CPC464-2MINI"
        (path "/e63e39d7-6ac0-4ffd-8aa3-1841a4541b55"
          (reference "C123") (unit 1)
        )
      )
    )
  )

  (symbol (lib_id "Mechanical:MountingHole_Pad") (at 249.555 114.935 270) (unit 1)
    (in_bom yes) (on_board yes) (dnp no) (fields_autoplaced)
    (uuid da910119-10d1-47ed-968a-e7e36cdf1162)
    (property "Reference" "H6" (at 254 113.6649 90)
      (effects (font (size 1.27 1.27)) (justify left))
    )
    (property "Value" "MountingHole" (at 254 116.2049 90)
      (effects (font (size 1.27 1.27)) (justify left))
    )
    (property "Footprint" "MountingHole:MountingHole_2.7mm_M2.5_ISO14580_Pad" (at 249.555 114.935 0)
      (effects (font (size 1.27 1.27)) hide)
    )
    (property "Datasheet" "~" (at 249.555 114.935 0)
      (effects (font (size 1.27 1.27)) hide)
    )
    (pin "1" (uuid 984bb7e3-e7d7-4c75-b4df-1cbb82a5949d))
    (instances
      (project "CPC464-2MINI"
        (path "/e63e39d7-6ac0-4ffd-8aa3-1841a4541b55"
          (reference "H6") (unit 1)
        )
      )
    )
  )

  (symbol (lib_id "Device:C") (at 97.79 175.895 0) (unit 1)
    (in_bom yes) (on_board yes) (dnp no) (fields_autoplaced)
    (uuid df3c85be-c488-4efa-bb4d-6c6cb6278096)
    (property "Reference" "C129" (at 101.6 174.6249 0)
      (effects (font (size 1.27 1.27)) (justify left))
    )
    (property "Value" "100nF" (at 101.6 177.1649 0)
      (effects (font (size 1.27 1.27)) (justify left))
    )
    (property "Footprint" "Capacitor_SMD:C_0805_2012Metric" (at 98.7552 179.705 0)
      (effects (font (size 1.27 1.27)) hide)
    )
    (property "Datasheet" "~" (at 97.79 175.895 0)
      (effects (font (size 1.27 1.27)) hide)
    )
    (property "LCSC" "C49678" (at 97.79 175.895 0)
      (effects (font (size 1.27 1.27)) hide)
    )
    (pin "1" (uuid b0a67740-863b-4612-a548-4e0cc72eddea))
    (pin "2" (uuid bcc72631-5cde-4c6d-a676-ff6ddcb1dcba))
    (instances
      (project "CPC464-2MINI"
        (path "/e63e39d7-6ac0-4ffd-8aa3-1841a4541b55"
          (reference "C129") (unit 1)
        )
      )
    )
  )

  (symbol (lib_id "Device:C") (at 72.39 153.035 0) (unit 1)
    (in_bom yes) (on_board yes) (dnp no) (fields_autoplaced)
    (uuid e1b6375c-fc01-4087-9555-6ae6874a6a2c)
    (property "Reference" "C107" (at 75.565 151.7649 0)
      (effects (font (size 1.27 1.27)) (justify left))
    )
    (property "Value" "100nF" (at 75.565 154.3049 0)
      (effects (font (size 1.27 1.27)) (justify left))
    )
    (property "Footprint" "Capacitor_SMD:C_0805_2012Metric" (at 73.3552 156.845 0)
      (effects (font (size 1.27 1.27)) hide)
    )
    (property "Datasheet" "~" (at 72.39 153.035 0)
      (effects (font (size 1.27 1.27)) hide)
    )
    (property "LCSC" "C49678" (at 72.39 153.035 0)
      (effects (font (size 1.27 1.27)) hide)
    )
    (pin "1" (uuid 1c0daed6-4619-47fe-ad88-2ce4d0422e2a))
    (pin "2" (uuid 00524056-e4e6-4698-9d66-2dff746dbfde))
    (instances
      (project "CPC464-2MINI"
        (path "/e63e39d7-6ac0-4ffd-8aa3-1841a4541b55"
          (reference "C107") (unit 1)
        )
      )
    )
  )

  (symbol (lib_id "Device:R") (at 139.065 193.04 270) (mirror x) (unit 1)
    (in_bom yes) (on_board yes) (dnp no) (fields_autoplaced)
    (uuid e445dbf0-f730-4d8f-b008-187fe54058db)
    (property "Reference" "R138" (at 139.065 186.69 90)
      (effects (font (size 1.27 1.27)))
    )
    (property "Value" "1K" (at 139.065 189.23 90)
      (effects (font (size 1.27 1.27)))
    )
    (property "Footprint" "Resistor_SMD:R_0805_2012Metric" (at 139.065 194.818 90)
      (effects (font (size 1.27 1.27)) hide)
    )
    (property "Datasheet" "~" (at 139.065 193.04 0)
      (effects (font (size 1.27 1.27)) hide)
    )
    (pin "1" (uuid 779c5ed5-3be1-4197-bfc4-7da085aa03a0))
    (pin "2" (uuid fe86f421-de79-4195-8632-1d81a1c6e9fa))
    (instances
      (project "CPC464-2MINI"
        (path "/e63e39d7-6ac0-4ffd-8aa3-1841a4541b55"
          (reference "R138") (unit 1)
        )
      )
    )
  )

  (symbol (lib_id "Device:C") (at 46.99 153.035 0) (unit 1)
    (in_bom yes) (on_board yes) (dnp no) (fields_autoplaced)
    (uuid ecab66cc-72e8-4c84-897a-f4e047553984)
    (property "Reference" "C105" (at 50.165 151.7649 0)
      (effects (font (size 1.27 1.27)) (justify left))
    )
    (property "Value" "100nF" (at 50.165 154.3049 0)
      (effects (font (size 1.27 1.27)) (justify left))
    )
    (property "Footprint" "Capacitor_SMD:C_0805_2012Metric" (at 47.9552 156.845 0)
      (effects (font (size 1.27 1.27)) hide)
    )
    (property "Datasheet" "~" (at 46.99 153.035 0)
      (effects (font (size 1.27 1.27)) hide)
    )
    (property "LCSC" "C49678" (at 46.99 153.035 0)
      (effects (font (size 1.27 1.27)) hide)
    )
    (pin "1" (uuid 55895106-1a1b-4f13-b9ef-13e6cb9c6347))
    (pin "2" (uuid 58ac404c-b223-4cf0-8f9c-4800360074d3))
    (instances
      (project "CPC464-2MINI"
        (path "/e63e39d7-6ac0-4ffd-8aa3-1841a4541b55"
          (reference "C105") (unit 1)
        )
      )
    )
  )

  (symbol (lib_id "Device:C") (at 59.69 175.895 0) (unit 1)
    (in_bom yes) (on_board yes) (dnp no) (fields_autoplaced)
    (uuid f337d4be-0ca7-44be-bd47-b141807bb516)
    (property "Reference" "C126" (at 62.865 174.6249 0)
      (effects (font (size 1.27 1.27)) (justify left))
    )
    (property "Value" "100nF" (at 62.865 177.1649 0)
      (effects (font (size 1.27 1.27)) (justify left))
    )
    (property "Footprint" "Capacitor_SMD:C_0805_2012Metric" (at 60.6552 179.705 0)
      (effects (font (size 1.27 1.27)) hide)
    )
    (property "Datasheet" "~" (at 59.69 175.895 0)
      (effects (font (size 1.27 1.27)) hide)
    )
    (property "LCSC" "C49678" (at 59.69 175.895 0)
      (effects (font (size 1.27 1.27)) hide)
    )
    (pin "1" (uuid 720f6e40-a76b-4c41-9fe0-5da1e844e49b))
    (pin "2" (uuid 606ee0af-9049-4000-977f-bf27c6e115b0))
    (instances
      (project "CPC464-2MINI"
        (path "/e63e39d7-6ac0-4ffd-8aa3-1841a4541b55"
          (reference "C126") (unit 1)
        )
      )
    )
  )

  (symbol (lib_id "Device:C") (at 59.69 153.035 0) (unit 1)
    (in_bom yes) (on_board yes) (dnp no) (fields_autoplaced)
    (uuid f4d4eb3b-bd46-42c6-b094-15cbdb032a78)
    (property "Reference" "C106" (at 62.865 151.7649 0)
      (effects (font (size 1.27 1.27)) (justify left))
    )
    (property "Value" "100nF" (at 62.865 154.3049 0)
      (effects (font (size 1.27 1.27)) (justify left))
    )
    (property "Footprint" "Capacitor_SMD:C_0805_2012Metric" (at 60.6552 156.845 0)
      (effects (font (size 1.27 1.27)) hide)
    )
    (property "Datasheet" "~" (at 59.69 153.035 0)
      (effects (font (size 1.27 1.27)) hide)
    )
    (property "LCSC" "C49678" (at 59.69 153.035 0)
      (effects (font (size 1.27 1.27)) hide)
    )
    (pin "1" (uuid 4585038c-c8f2-4bbb-8d24-960b9c5f9503))
    (pin "2" (uuid 14967078-c8a3-4c99-8b0f-3d1db3c9f108))
    (instances
      (project "CPC464-2MINI"
        (path "/e63e39d7-6ac0-4ffd-8aa3-1841a4541b55"
          (reference "C106") (unit 1)
        )
      )
    )
  )

  (symbol (lib_id "Device:C") (at 34.29 175.895 0) (unit 1)
    (in_bom yes) (on_board yes) (dnp no) (fields_autoplaced)
    (uuid f501c31d-656e-496c-ac7a-b2f8a1c5a24e)
    (property "Reference" "C124" (at 37.465 174.6249 0)
      (effects (font (size 1.27 1.27)) (justify left))
    )
    (property "Value" "100nF" (at 37.465 177.1649 0)
      (effects (font (size 1.27 1.27)) (justify left))
    )
    (property "Footprint" "Capacitor_SMD:C_0805_2012Metric" (at 35.2552 179.705 0)
      (effects (font (size 1.27 1.27)) hide)
    )
    (property "Datasheet" "~" (at 34.29 175.895 0)
      (effects (font (size 1.27 1.27)) hide)
    )
    (property "LCSC" "C49678" (at 34.29 175.895 0)
      (effects (font (size 1.27 1.27)) hide)
    )
    (pin "1" (uuid 7fb0d738-ac60-4296-9b00-8525124bcd46))
    (pin "2" (uuid c650c60b-76cb-4cc8-92a4-3c73fadbb684))
    (instances
      (project "CPC464-2MINI"
        (path "/e63e39d7-6ac0-4ffd-8aa3-1841a4541b55"
          (reference "C124") (unit 1)
        )
      )
    )
  )

  (symbol (lib_id "power:GND") (at 185.42 122.555 270) (mirror x) (unit 1)
    (in_bom yes) (on_board yes) (dnp no) (fields_autoplaced)
    (uuid fd11a0a0-1307-422e-86d8-b9e800770d0f)
    (property "Reference" "#PWR0221" (at 179.07 122.555 0)
      (effects (font (size 1.27 1.27)) hide)
    )
    (property "Value" "GND" (at 182.245 122.5549 90)
      (effects (font (size 1.27 1.27)) (justify right))
    )
    (property "Footprint" "" (at 185.42 122.555 0)
      (effects (font (size 1.27 1.27)) hide)
    )
    (property "Datasheet" "" (at 185.42 122.555 0)
      (effects (font (size 1.27 1.27)) hide)
    )
    (pin "1" (uuid 6c03de07-c3b9-4af3-bc84-e6c0207691bf))
    (instances
      (project "CPC464-2MINI"
        (path "/e63e39d7-6ac0-4ffd-8aa3-1841a4541b55"
          (reference "#PWR0221") (unit 1)
        )
      )
    )
  )

  (symbol (lib_id "Device:C") (at 148.59 153.035 0) (unit 1)
    (in_bom yes) (on_board yes) (dnp no) (fields_autoplaced)
    (uuid fd5640b6-657f-42fb-9d69-bb8757ad7092)
    (property "Reference" "C113" (at 151.765 151.7649 0)
      (effects (font (size 1.27 1.27)) (justify left))
    )
    (property "Value" "100nF" (at 151.765 154.3049 0)
      (effects (font (size 1.27 1.27)) (justify left))
    )
    (property "Footprint" "Capacitor_SMD:C_0805_2012Metric" (at 149.5552 156.845 0)
      (effects (font (size 1.27 1.27)) hide)
    )
    (property "Datasheet" "~" (at 148.59 153.035 0)
      (effects (font (size 1.27 1.27)) hide)
    )
    (property "LCSC" "C49678" (at 148.59 153.035 0)
      (effects (font (size 1.27 1.27)) hide)
    )
    (pin "1" (uuid 8c72fe08-2374-4872-9a0e-da896705d849))
    (pin "2" (uuid 76cdcc9e-daa0-4117-a69c-795e9c1b621c))
    (instances
      (project "CPC464-2MINI"
        (path "/e63e39d7-6ac0-4ffd-8aa3-1841a4541b55"
          (reference "C113") (unit 1)
        )
      )
    )
  )

  (symbol (lib_id "Connector_Generic:Conn_01x02") (at 196.215 120.015 0) (unit 1)
    (in_bom yes) (on_board yes) (dnp no)
    (uuid ff2d2499-a93e-45a0-af76-c2090801b34d)
    (property "Reference" "J340" (at 199.39 120.0149 0)
      (effects (font (size 1.27 1.27)) (justify left))
    )
    (property "Value" "RESET" (at 199.39 122.5549 0)
      (effects (font (size 1.27 1.27)) (justify left))
    )
    (property "Footprint" "Connector_PinHeader_2.54mm:PinHeader_1x02_P2.54mm_Vertical" (at 196.215 120.015 0)
      (effects (font (size 1.27 1.27)) hide)
    )
    (property "Datasheet" "~" (at 196.215 120.015 0)
      (effects (font (size 1.27 1.27)) hide)
    )
    (pin "1" (uuid cf86623a-0121-4c6c-9425-69ecabb39854))
    (pin "2" (uuid bbf0e985-0d2c-469a-ad80-255da58e9615))
    (instances
      (project "CPC464-2MINI"
        (path "/e63e39d7-6ac0-4ffd-8aa3-1841a4541b55"
          (reference "J340") (unit 1)
        )
      )
    )
  )

  (sheet (at 93.345 27.305) (size 43.815 24.13) (fields_autoplaced)
    (stroke (width 0.1524) (type solid))
    (fill (color 0 0 0 0.0000))
    (uuid 20e45521-6283-425d-9001-b9d73e16c8df)
    (property "Sheetname" "IO" (at 93.345 26.5934 0)
      (effects (font (size 1.27 1.27)) (justify left bottom))
    )
    (property "Sheetfile" "io.kicad_sch" (at 93.345 52.0196 0)
      (effects (font (size 1.27 1.27)) (justify left top))
    )
    (pin "A[0..15]" bidirectional (at 93.345 46.99 180)
      (effects (font (size 1.27 1.27)) (justify left))
      (uuid 4026f81e-c1ef-4694-ba70-c1b484792039)
    )
    (pin "D[0..7]" bidirectional (at 93.345 44.45 180)
      (effects (font (size 1.27 1.27)) (justify left))
      (uuid 261baef5-0c78-4963-b46b-0ebc033ef06f)
    )
    (pin "AYD[0..7]" bidirectional (at 137.16 44.45 0)
      (effects (font (size 1.27 1.27)) (justify right))
      (uuid 966b09ef-b3fe-4a65-8a57-e4ae5acc2aec)
    )
    (pin "KB[0..3]" bidirectional (at 137.16 41.91 0)
      (effects (font (size 1.27 1.27)) (justify right))
      (uuid 375a74a0-4312-461f-8e61-56026a618d01)
    )
    (instances
      (project "CPC464-2MINI"
        (path "/e63e39d7-6ac0-4ffd-8aa3-1841a4541b55" (page "4"))
      )
    )
  )

  (sheet (at 32.385 105.41) (size 43.18 22.86) (fields_autoplaced)
    (stroke (width 0.1524) (type solid))
    (fill (color 0 0 0 0.0000))
    (uuid 2d341a0c-23b8-4964-ad66-785b7f88d541)
    (property "Sheetname" "Video" (at 32.385 104.6984 0)
      (effects (font (size 1.27 1.27)) (justify left bottom))
    )
    (property "Sheetfile" "video.kicad_sch" (at 32.385 128.8546 0)
      (effects (font (size 1.27 1.27)) (justify left top))
    )
    (pin "MA[0..15]" bidirectional (at 75.565 123.825 0)
      (effects (font (size 1.27 1.27)) (justify right))
      (uuid f0f7951a-dbbe-4bfb-8488-435152693e9d)
    )
    (pin "A[0..15]" bidirectional (at 75.565 111.125 0)
      (effects (font (size 1.27 1.27)) (justify right))
      (uuid 9103148f-da75-4aca-ab11-258767bff1a3)
    )
    (pin "D[0..7]" bidirectional (at 75.565 113.03 0)
      (effects (font (size 1.27 1.27)) (justify right))
      (uuid 07e90d9f-ca9e-4a97-9a99-66fade4ef701)
    )
    (instances
      (project "CPC464-2MINI"
        (path "/e63e39d7-6ac0-4ffd-8aa3-1841a4541b55" (page "7"))
      )
    )
  )

  (sheet (at 32.385 67.31) (size 43.18 24.13) (fields_autoplaced)
    (stroke (width 0.1524) (type solid))
    (fill (color 0 0 0 0.0000))
    (uuid 7474435c-27e8-4a39-84b9-efe9d8235613)
    (property "Sheetname" "Gate Arrays" (at 32.385 66.5984 0)
      (effects (font (size 1.27 1.27)) (justify left bottom))
    )
    (property "Sheetfile" "gatearray.kicad_sch" (at 32.385 92.0246 0)
      (effects (font (size 1.27 1.27)) (justify left top))
    )
    (pin "A[0..15]" bidirectional (at 75.565 73.025 0)
      (effects (font (size 1.27 1.27)) (justify right))
      (uuid 75e1df4b-a1f1-440c-bba4-ac6cbe4e6e54)
    )
    (pin "GD[0..7]" bidirectional (at 75.565 85.725 0)
      (effects (font (size 1.27 1.27)) (justify right))
      (uuid e3aa1db6-cd25-4311-a78b-d0766cd31f14)
    )
    (pin "D[0..7]" bidirectional (at 75.565 75.565 0)
      (effects (font (size 1.27 1.27)) (justify right))
      (uuid 4e7cee62-06e2-404d-9169-c43db9172f91)
    )
    (instances
      (project "CPC464-2MINI"
        (path "/e63e39d7-6ac0-4ffd-8aa3-1841a4541b55" (page "3"))
      )
    )
  )

  (sheet (at 32.385 27.94) (size 43.18 24.13) (fields_autoplaced)
    (stroke (width 0.1524) (type solid))
    (fill (color 0 0 0 0.0000))
    (uuid 8fac398c-22c9-4741-a001-aab7ea92da04)
    (property "Sheetname" "CPU" (at 32.385 27.2284 0)
      (effects (font (size 1.27 1.27)) (justify left bottom))
    )
    (property "Sheetfile" "cpu.kicad_sch" (at 32.385 52.6546 0)
      (effects (font (size 1.27 1.27)) (justify left top))
    )
    (pin "D[0..7]" bidirectional (at 75.565 44.45 0)
      (effects (font (size 1.27 1.27)) (justify right))
      (uuid bfa0707d-03b7-47e8-9f01-6ad733ac6d28)
    )
    (pin "A[0..15]" bidirectional (at 75.565 46.99 0)
      (effects (font (size 1.27 1.27)) (justify right))
      (uuid 1d58e456-5d06-4da7-887a-bdce7512ebc9)
    )
    (instances
      (project "CPC464-2MINI"
        (path "/e63e39d7-6ac0-4ffd-8aa3-1841a4541b55" (page "2"))
      )
    )
  )

  (sheet (at 152.4 27.305) (size 43.815 24.13) (fields_autoplaced)
    (stroke (width 0.1524) (type solid))
    (fill (color 0 0 0 0.0000))
    (uuid c90c7496-e357-4196-84e1-b6422a13a023)
    (property "Sheetname" "Sound & Keyboard" (at 152.4 26.5934 0)
      (effects (font (size 1.27 1.27)) (justify left bottom))
    )
    (property "Sheetfile" "soundkeyboard.kicad_sch" (at 152.4 52.0196 0)
      (effects (font (size 1.27 1.27)) (justify left top))
    )
    (pin "AYD[0..7]" bidirectional (at 152.4 44.45 180)
      (effects (font (size 1.27 1.27)) (justify left))
      (uuid 90c1dd77-26de-4c07-8799-8fdeaec10813)
    )
    (pin "KB[0..3]" bidirectional (at 152.4 41.91 180)
      (effects (font (size 1.27 1.27)) (justify left))
      (uuid d0052a9f-4191-4a3d-aecb-f8e8daf7e16c)
    )
    (pin "AYIO[0..7]" bidirectional (at 196.215 44.45 0)
      (effects (font (size 1.27 1.27)) (justify right))
      (uuid 436db814-7c0c-4daa-bf29-e971fae3a676)
    )
    (instances
      (project "CPC464-2MINI"
        (path "/e63e39d7-6ac0-4ffd-8aa3-1841a4541b55" (page "5"))
      )
    )
  )

  (sheet (at 93.345 105.41) (size 43.815 22.86) (fields_autoplaced)
    (stroke (width 0.1524) (type solid))
    (fill (color 0 0 0 0.0000))
    (uuid eed2ef92-b20f-42ce-9ccd-c4eec779f674)
    (property "Sheetname" "Memory" (at 93.345 104.6984 0)
      (effects (font (size 1.27 1.27)) (justify left bottom))
    )
    (property "Sheetfile" "memory.kicad_sch" (at 93.345 128.8546 0)
      (effects (font (size 1.27 1.27)) (justify left top))
    )
    (pin "GD[0..7]" bidirectional (at 93.345 115.57 180)
      (effects (font (size 1.27 1.27)) (justify left))
      (uuid 1cf64d26-46ae-46d7-93c5-6867c17f76ae)
    )
    (pin "D[0..7]" bidirectional (at 93.345 113.03 180)
      (effects (font (size 1.27 1.27)) (justify left))
      (uuid eb5e6dd2-1627-4430-b828-53bff9c10d30)
    )
    (pin "A[0..15]" bidirectional (at 93.345 110.49 180)
      (effects (font (size 1.27 1.27)) (justify left))
      (uuid efb8facf-c61a-412d-8222-73169172328e)
    )
    (pin "XA[0..7]" bidirectional (at 137.16 110.49 0)
      (effects (font (size 1.27 1.27)) (justify right))
      (uuid e72b1466-f415-4499-a43b-00de0b6886fc)
    )
    (instances
      (project "CPC464-2MINI"
        (path "/e63e39d7-6ac0-4ffd-8aa3-1841a4541b55" (page "8"))
      )
    )
  )

  (sheet (at 93.345 66.675) (size 43.815 24.765) (fields_autoplaced)
    (stroke (width 0.1524) (type solid))
    (fill (color 0 0 0 0.0000))
    (uuid f12c5d4b-4b99-4183-958a-07b540e9bdaa)
    (property "Sheetname" "Multiplex" (at 93.345 65.9634 0)
      (effects (font (size 1.27 1.27)) (justify left bottom))
    )
    (property "Sheetfile" "multiplex.kicad_sch" (at 93.345 92.0246 0)
      (effects (font (size 1.27 1.27)) (justify left top))
    )
    (pin "A[0..15]" bidirectional (at 93.345 73.025 180)
      (effects (font (size 1.27 1.27)) (justify left))
      (uuid 2cf1fde8-c080-412d-9a71-b17d468e5e2f)
    )
    (pin "XA[0..7]" bidirectional (at 137.16 80.01 0)
      (effects (font (size 1.27 1.27)) (justify right))
      (uuid 540180ff-0492-4e1f-8a7b-6c588575f0ed)
    )
    (pin "MA[0..15]" bidirectional (at 93.345 83.82 180)
      (effects (font (size 1.27 1.27)) (justify left))
      (uuid 2313ebd8-e4db-48e0-b865-71b46f0a73c0)
    )
    (instances
      (project "CPC464-2MINI"
        (path "/e63e39d7-6ac0-4ffd-8aa3-1841a4541b55" (page "6"))
      )
    )
  )

  (sheet_instances
    (path "/" (page "1"))
  )
)
