(kicad_sch (version 20230121) (generator eeschema)

  (uuid e63e39d7-6ac0-4ffd-8aa3-1841a4541b55)

  (paper "A4")

  (title_block
    (title "Mega IIe Rev 3 PCB")
    (date "2022-06-27")
    (rev "3b")
    (company "twitch.tv/baldengineer")
    (comment 1 "Modified to clean up ERC issues on 2023-10-19")
  )

  (lib_symbols
    (symbol "Mega IIe Rev3 Symbols:Jumper_3_Open" (pin_names (offset 0) hide) (in_bom yes) (on_board yes)
      (property "Reference" "JP" (at -2.54 -2.54 0)
        (effects (font (size 1.27 1.27)))
      )
      (property "Value" "Jumper_3_Open" (at 0 2.794 0)
        (effects (font (size 1.27 1.27)))
      )
      (property "Footprint" "" (at 0 0 0)
        (effects (font (size 1.27 1.27)) hide)
      )
      (property "Datasheet" "~" (at 0 0 0)
        (effects (font (size 1.27 1.27)) hide)
      )
      (property "ki_keywords" "Jumper SPDT" (at 0 0 0)
        (effects (font (size 1.27 1.27)) hide)
      )
      (property "ki_description" "Jumper, 3-pole, both open" (at 0 0 0)
        (effects (font (size 1.27 1.27)) hide)
      )
      (property "ki_fp_filters" "Jumper* TestPoint*3Pads* TestPoint*Bridge*" (at 0 0 0)
        (effects (font (size 1.27 1.27)) hide)
      )
      (symbol "Jumper_3_Open_0_0"
        (circle (center -3.302 0) (radius 0.508)
          (stroke (width 0) (type default))
          (fill (type none))
        )
        (circle (center 0 0) (radius 0.508)
          (stroke (width 0) (type default))
          (fill (type none))
        )
        (circle (center 3.302 0) (radius 0.508)
          (stroke (width 0) (type default))
          (fill (type none))
        )
      )
      (symbol "Jumper_3_Open_0_1"
        (arc (start -0.254 1.016) (mid -1.651 1.4992) (end -3.048 1.016)
          (stroke (width 0) (type default))
          (fill (type none))
        )
        (polyline
          (pts
            (xy 0 -0.508)
            (xy 0 -1.27)
          )
          (stroke (width 0) (type default))
          (fill (type none))
        )
        (arc (start 3.048 1.016) (mid 1.651 1.4992) (end 0.254 1.016)
          (stroke (width 0) (type default))
          (fill (type none))
        )
      )
      (symbol "Jumper_3_Open_1_1"
        (pin passive line (at -6.35 0 0) (length 2.54)
          (name "A" (effects (font (size 1.27 1.27))))
          (number "1" (effects (font (size 1.27 1.27))))
        )
        (pin passive line (at 0 -3.81 90) (length 2.54)
          (name "C" (effects (font (size 1.27 1.27))))
          (number "2" (effects (font (size 1.27 1.27))))
        )
        (pin passive line (at 6.35 0 180) (length 2.54)
          (name "B" (effects (font (size 1.27 1.27))))
          (number "3" (effects (font (size 1.27 1.27))))
        )
      )
    )
    (symbol "Mega IIe Rev3 Symbols:R_Small" (pin_numbers hide) (pin_names (offset 0.254) hide) (in_bom yes) (on_board yes)
      (property "Reference" "R" (at 0.762 0.508 0)
        (effects (font (size 1.27 1.27)) (justify left))
      )
      (property "Value" "R_Small" (at 0.762 -1.016 0)
        (effects (font (size 1.27 1.27)) (justify left))
      )
      (property "Footprint" "" (at 0 0 0)
        (effects (font (size 1.27 1.27)) hide)
      )
      (property "Datasheet" "~" (at 0 0 0)
        (effects (font (size 1.27 1.27)) hide)
      )
      (property "ki_keywords" "R resistor" (at 0 0 0)
        (effects (font (size 1.27 1.27)) hide)
      )
      (property "ki_description" "Resistor, small symbol" (at 0 0 0)
        (effects (font (size 1.27 1.27)) hide)
      )
      (property "ki_fp_filters" "R_*" (at 0 0 0)
        (effects (font (size 1.27 1.27)) hide)
      )
      (symbol "R_Small_0_1"
        (rectangle (start -0.762 1.778) (end 0.762 -1.778)
          (stroke (width 0.2032) (type default))
          (fill (type none))
        )
      )
      (symbol "R_Small_1_1"
        (pin passive line (at 0 2.54 270) (length 0.762)
          (name "~" (effects (font (size 1.27 1.27))))
          (number "1" (effects (font (size 1.27 1.27))))
        )
        (pin passive line (at 0 -2.54 90) (length 0.762)
          (name "~" (effects (font (size 1.27 1.27))))
          (number "2" (effects (font (size 1.27 1.27))))
        )
      )
    )
    (symbol "My Library:+5V_2040" (power) (pin_names (offset 0)) (in_bom yes) (on_board yes)
      (property "Reference" "#PWR" (at 0 -3.81 0)
        (effects (font (size 1.27 1.27)) hide)
      )
      (property "Value" "+5V_2040" (at 0 3.556 0)
        (effects (font (size 1.27 1.27)))
      )
      (property "Footprint" "" (at 0 0 0)
        (effects (font (size 1.27 1.27)) hide)
      )
      (property "Datasheet" "" (at 0 0 0)
        (effects (font (size 1.27 1.27)) hide)
      )
      (property "ki_keywords" "power-flag" (at 0 0 0)
        (effects (font (size 1.27 1.27)) hide)
      )
      (property "ki_description" "Power symbol creates a global label with name \"+5V_2040\"" (at 0 0 0)
        (effects (font (size 1.27 1.27)) hide)
      )
      (symbol "+5V_2040_0_1"
        (polyline
          (pts
            (xy -0.762 1.27)
            (xy 0 2.54)
          )
          (stroke (width 0) (type default))
          (fill (type none))
        )
        (polyline
          (pts
            (xy 0 0)
            (xy 0 2.54)
          )
          (stroke (width 0) (type default))
          (fill (type none))
        )
        (polyline
          (pts
            (xy 0 2.54)
            (xy 0.762 1.27)
          )
          (stroke (width 0) (type default))
          (fill (type none))
        )
      )
      (symbol "+5V_2040_1_1"
        (pin power_in line (at 0 0 90) (length 0) hide
          (name "+5V_2040" (effects (font (size 1.27 1.27))))
          (number "1" (effects (font (size 1.27 1.27))))
        )
      )
    )
    (symbol "power:+12V" (power) (pin_names (offset 0)) (in_bom yes) (on_board yes)
      (property "Reference" "#PWR" (at 0 -3.81 0)
        (effects (font (size 1.27 1.27)) hide)
      )
      (property "Value" "+12V" (at 0 3.556 0)
        (effects (font (size 1.27 1.27)))
      )
      (property "Footprint" "" (at 0 0 0)
        (effects (font (size 1.27 1.27)) hide)
      )
      (property "Datasheet" "" (at 0 0 0)
        (effects (font (size 1.27 1.27)) hide)
      )
      (property "ki_keywords" "global power" (at 0 0 0)
        (effects (font (size 1.27 1.27)) hide)
      )
      (property "ki_description" "Power symbol creates a global label with name \"+12V\"" (at 0 0 0)
        (effects (font (size 1.27 1.27)) hide)
      )
      (symbol "+12V_0_1"
        (polyline
          (pts
            (xy -0.762 1.27)
            (xy 0 2.54)
          )
          (stroke (width 0) (type default))
          (fill (type none))
        )
        (polyline
          (pts
            (xy 0 0)
            (xy 0 2.54)
          )
          (stroke (width 0) (type default))
          (fill (type none))
        )
        (polyline
          (pts
            (xy 0 2.54)
            (xy 0.762 1.27)
          )
          (stroke (width 0) (type default))
          (fill (type none))
        )
      )
      (symbol "+12V_1_1"
        (pin power_in line (at 0 0 90) (length 0) hide
          (name "+12V" (effects (font (size 1.27 1.27))))
          (number "1" (effects (font (size 1.27 1.27))))
        )
      )
    )
    (symbol "power:+3V3" (power) (pin_names (offset 0)) (in_bom yes) (on_board yes)
      (property "Reference" "#PWR" (at 0 -3.81 0)
        (effects (font (size 1.27 1.27)) hide)
      )
      (property "Value" "+3V3" (at 0 3.556 0)
        (effects (font (size 1.27 1.27)))
      )
      (property "Footprint" "" (at 0 0 0)
        (effects (font (size 1.27 1.27)) hide)
      )
      (property "Datasheet" "" (at 0 0 0)
        (effects (font (size 1.27 1.27)) hide)
      )
      (property "ki_keywords" "global power" (at 0 0 0)
        (effects (font (size 1.27 1.27)) hide)
      )
      (property "ki_description" "Power symbol creates a global label with name \"+3V3\"" (at 0 0 0)
        (effects (font (size 1.27 1.27)) hide)
      )
      (symbol "+3V3_0_1"
        (polyline
          (pts
            (xy -0.762 1.27)
            (xy 0 2.54)
          )
          (stroke (width 0) (type default))
          (fill (type none))
        )
        (polyline
          (pts
            (xy 0 0)
            (xy 0 2.54)
          )
          (stroke (width 0) (type default))
          (fill (type none))
        )
        (polyline
          (pts
            (xy 0 2.54)
            (xy 0.762 1.27)
          )
          (stroke (width 0) (type default))
          (fill (type none))
        )
      )
      (symbol "+3V3_1_1"
        (pin power_in line (at 0 0 90) (length 0) hide
          (name "+3V3" (effects (font (size 1.27 1.27))))
          (number "1" (effects (font (size 1.27 1.27))))
        )
      )
    )
    (symbol "power:+5V" (power) (pin_names (offset 0)) (in_bom yes) (on_board yes)
      (property "Reference" "#PWR" (at 0 -3.81 0)
        (effects (font (size 1.27 1.27)) hide)
      )
      (property "Value" "+5V" (at 0 3.556 0)
        (effects (font (size 1.27 1.27)))
      )
      (property "Footprint" "" (at 0 0 0)
        (effects (font (size 1.27 1.27)) hide)
      )
      (property "Datasheet" "" (at 0 0 0)
        (effects (font (size 1.27 1.27)) hide)
      )
      (property "ki_keywords" "global power" (at 0 0 0)
        (effects (font (size 1.27 1.27)) hide)
      )
      (property "ki_description" "Power symbol creates a global label with name \"+5V\"" (at 0 0 0)
        (effects (font (size 1.27 1.27)) hide)
      )
      (symbol "+5V_0_1"
        (polyline
          (pts
            (xy -0.762 1.27)
            (xy 0 2.54)
          )
          (stroke (width 0) (type default))
          (fill (type none))
        )
        (polyline
          (pts
            (xy 0 0)
            (xy 0 2.54)
          )
          (stroke (width 0) (type default))
          (fill (type none))
        )
        (polyline
          (pts
            (xy 0 2.54)
            (xy 0.762 1.27)
          )
          (stroke (width 0) (type default))
          (fill (type none))
        )
      )
      (symbol "+5V_1_1"
        (pin power_in line (at 0 0 90) (length 0) hide
          (name "+5V" (effects (font (size 1.27 1.27))))
          (number "1" (effects (font (size 1.27 1.27))))
        )
      )
    )
    (symbol "power:-12V" (power) (pin_names (offset 0)) (in_bom yes) (on_board yes)
      (property "Reference" "#PWR" (at 0 2.54 0)
        (effects (font (size 1.27 1.27)) hide)
      )
      (property "Value" "-12V" (at 0 3.81 0)
        (effects (font (size 1.27 1.27)))
      )
      (property "Footprint" "" (at 0 0 0)
        (effects (font (size 1.27 1.27)) hide)
      )
      (property "Datasheet" "" (at 0 0 0)
        (effects (font (size 1.27 1.27)) hide)
      )
      (property "ki_keywords" "global power" (at 0 0 0)
        (effects (font (size 1.27 1.27)) hide)
      )
      (property "ki_description" "Power symbol creates a global label with name \"-12V\"" (at 0 0 0)
        (effects (font (size 1.27 1.27)) hide)
      )
      (symbol "-12V_0_0"
        (pin power_in line (at 0 0 90) (length 0) hide
          (name "-12V" (effects (font (size 1.27 1.27))))
          (number "1" (effects (font (size 1.27 1.27))))
        )
      )
      (symbol "-12V_0_1"
        (polyline
          (pts
            (xy 0 0)
            (xy 0 1.27)
            (xy 0.762 1.27)
            (xy 0 2.54)
            (xy -0.762 1.27)
            (xy 0 1.27)
          )
          (stroke (width 0) (type default))
          (fill (type outline))
        )
      )
    )
    (symbol "power:GND" (power) (pin_names (offset 0)) (in_bom yes) (on_board yes)
      (property "Reference" "#PWR" (at 0 -6.35 0)
        (effects (font (size 1.27 1.27)) hide)
      )
      (property "Value" "GND" (at 0 -3.81 0)
        (effects (font (size 1.27 1.27)))
      )
      (property "Footprint" "" (at 0 0 0)
        (effects (font (size 1.27 1.27)) hide)
      )
      (property "Datasheet" "" (at 0 0 0)
        (effects (font (size 1.27 1.27)) hide)
      )
      (property "ki_keywords" "global power" (at 0 0 0)
        (effects (font (size 1.27 1.27)) hide)
      )
      (property "ki_description" "Power symbol creates a global label with name \"GND\" , ground" (at 0 0 0)
        (effects (font (size 1.27 1.27)) hide)
      )
      (symbol "GND_0_1"
        (polyline
          (pts
            (xy 0 0)
            (xy 0 -1.27)
            (xy 1.27 -1.27)
            (xy 0 -2.54)
            (xy -1.27 -1.27)
            (xy 0 -1.27)
          )
          (stroke (width 0) (type default))
          (fill (type none))
        )
      )
      (symbol "GND_1_1"
        (pin power_in line (at 0 0 270) (length 0) hide
          (name "GND" (effects (font (size 1.27 1.27))))
          (number "1" (effects (font (size 1.27 1.27))))
        )
      )
    )
  )

  (junction (at 111.76 113.03) (diameter 0) (color 0 0 0 0)
    (uuid 07bfbcdb-fe79-4d9b-b313-44dfd144975e)
  )
  (junction (at 196.85 24.13) (diameter 0) (color 0 0 0 0)
    (uuid 0ee106bf-2f4f-48e5-99ab-229100f31cfa)
  )
  (junction (at 72.39 29.21) (diameter 0) (color 0 0 0 0)
    (uuid 154ce9bd-a05a-49ce-8846-879e0388a6d4)
  )
  (junction (at 105.41 139.7) (diameter 0) (color 0 0 0 0)
    (uuid 1a7588b4-9592-4b65-9387-ecd1b3d1a2b0)
  )
  (junction (at 43.18 68.58) (diameter 0) (color 0 0 0 0)
    (uuid 1cf62bda-5b9c-4528-add4-4a08757d7a53)
  )
  (junction (at 156.21 106.68) (diameter 0) (color 0 0 0 0)
    (uuid 370e3c1f-98ac-4526-a74e-dfb38e3c7173)
  )
  (junction (at 144.78 130.81) (diameter 0) (color 0 0 0 0)
    (uuid 4cadc98b-9415-4d1c-a67c-08a02ff516d7)
  )
  (junction (at 102.87 29.21) (diameter 0) (color 0 0 0 0)
    (uuid 4e76a414-ea2b-4e7d-9b35-6312f8cef0de)
  )
  (junction (at 101.6 137.16) (diameter 0) (color 0 0 0 0)
    (uuid 4f75ee5a-53eb-44b5-a0a7-972975842564)
  )
  (junction (at 130.81 119.38) (diameter 0) (color 0 0 0 0)
    (uuid 53e55b9a-a868-47b4-89d8-3c6cd2c80baa)
  )
  (junction (at 168.91 52.07) (diameter 0) (color 0 0 0 0)
    (uuid 55f95a5f-346b-40e7-9d47-3d3b43f40ad6)
  )
  (junction (at 100.33 40.64) (diameter 0) (color 0 0 0 0)
    (uuid 56147d1e-319b-4a7e-a39b-b7e550084687)
  )
  (junction (at 97.79 69.85) (diameter 0) (color 0 0 0 0)
    (uuid 65f8bd09-3362-4a23-837d-075bceb79bbb)
  )
  (junction (at 124.46 25.4) (diameter 0) (color 0 0 0 0)
    (uuid 817e7036-3a24-4727-974f-4b858a528f57)
  )
  (junction (at 154.94 104.14) (diameter 0) (color 0 0 0 0)
    (uuid 8e286e55-a4cc-47ae-bb64-03150d152b5f)
  )
  (junction (at 116.84 27.94) (diameter 0) (color 0 0 0 0)
    (uuid 93e058e0-43e0-4bf0-be09-e8187d75986d)
  )
  (junction (at 158.75 40.64) (diameter 0) (color 0 0 0 0)
    (uuid c96475ff-e713-449a-a75c-034292830f6c)
  )
  (junction (at 171.45 59.69) (diameter 0) (color 0 0 0 0)
    (uuid d8224b25-4f05-4077-b97c-6e8bdbe01453)
  )
  (junction (at 212.09 106.68) (diameter 0) (color 0 0 0 0)
    (uuid e6411377-3d24-47ef-9cd3-676f7f0e371c)
  )

  (bus_entry (at 269.24 63.5) (size 2.54 -2.54)
    (stroke (width 0) (type default))
    (uuid 32fc5f57-e4d4-4434-a5a9-97c16a237729)
  )
  (bus_entry (at 269.24 66.04) (size 2.54 -2.54)
    (stroke (width 0) (type default))
    (uuid 32fc5f57-e4d4-4434-a5a9-97c16a23772a)
  )
  (bus_entry (at 269.24 68.58) (size 2.54 -2.54)
    (stroke (width 0) (type default))
    (uuid 32fc5f57-e4d4-4434-a5a9-97c16a23772b)
  )
  (bus_entry (at 196.85 104.14) (size 2.54 -2.54)
    (stroke (width 0) (type default))
    (uuid 59da7098-007e-4887-a9ce-46088b6e3b6e)
  )
  (bus_entry (at 241.3 87.63) (size 2.54 -2.54)
    (stroke (width 0) (type default))
    (uuid 705116fc-f9ce-42e1-b51e-00cdf2fb6f3f)
  )

  (wire (pts (xy 165.1 59.69) (xy 165.1 33.02))
    (stroke (width 0) (type default))
    (uuid 0286f581-c09d-4156-8d49-de39b7c78fed)
  )
  (bus (pts (xy 93.98 78.74) (xy 95.25 78.74))
    (stroke (width 0) (type default))
    (uuid 0613b217-6f78-495c-bfc6-e25ee080ca56)
  )

  (wire (pts (xy 129.54 177.8) (xy 129.54 149.86))
    (stroke (width 0) (type default))
    (uuid 08a6480d-b0a2-464f-8b7a-f47485587492)
  )
  (wire (pts (xy 68.58 22.86) (xy 234.95 22.86))
    (stroke (width 0) (type default))
    (uuid 0b03f565-7031-443e-8f1c-7e0d63645fbf)
  )
  (wire (pts (xy 171.45 59.69) (xy 165.1 59.69))
    (stroke (width 0) (type default))
    (uuid 0c637fb5-420a-4e7d-8cd7-cf26fc38eb65)
  )
  (wire (pts (xy 171.45 107.95) (xy 190.5 107.95))
    (stroke (width 0) (type default))
    (uuid 0c8550a9-c0e2-42ed-adf8-ccb6b85e67fd)
  )
  (bus (pts (xy 97.79 69.85) (xy 97.79 101.6))
    (stroke (width 0) (type default))
    (uuid 0d9e507a-6742-4eec-8dca-b9619ef961b3)
  )

  (wire (pts (xy 255.27 109.22) (xy 255.27 127))
    (stroke (width 0) (type default))
    (uuid 0defef14-8374-449b-92c2-c0c2b255b563)
  )
  (wire (pts (xy 229.87 127) (xy 208.28 127))
    (stroke (width 0) (type default))
    (uuid 0e96982e-710c-44ec-b953-efecbfc06af9)
  )
  (wire (pts (xy 72.39 29.21) (xy 41.275 29.21))
    (stroke (width 0) (type default))
    (uuid 0f5eca12-fe31-4518-9888-9ba83a4cd258)
  )
  (wire (pts (xy 243.84 85.09) (xy 246.38 85.09))
    (stroke (width 0) (type default))
    (uuid 104df625-4c01-404e-92b6-8373ffd4f5b5)
  )
  (wire (pts (xy 227.33 78.74) (xy 246.38 78.74))
    (stroke (width 0) (type default))
    (uuid 108a73d0-b34a-4773-98ac-b41429a98d93)
  )
  (wire (pts (xy 234.95 22.86) (xy 234.95 59.69))
    (stroke (width 0) (type default))
    (uuid 127dc8f4-4a47-41d3-995c-c04b8838cb29)
  )
  (wire (pts (xy 74.93 30.48) (xy 74.93 46.99))
    (stroke (width 0) (type default))
    (uuid 12d6a364-3107-405e-bcef-715e8a9222ce)
  )
  (wire (pts (xy 77.47 31.75) (xy 77.47 46.99))
    (stroke (width 0) (type default))
    (uuid 13852081-136f-40bc-84a2-110a6957d0be)
  )
  (bus (pts (xy 100.33 40.64) (xy 158.75 40.64))
    (stroke (width 0) (type default))
    (uuid 13ec6767-7b58-48b1-bcf5-41103a63dd3f)
  )

  (wire (pts (xy 208.28 142.24) (xy 242.57 142.24))
    (stroke (width 0) (type default))
    (uuid 144ece7d-fdb2-4db3-818f-eeaa758c2fc8)
  )
  (bus (pts (xy 95.25 78.74) (xy 95.25 104.14))
    (stroke (width 0) (type default))
    (uuid 155619d8-03c9-4d6d-a8fb-c4e46715bed5)
  )
  (bus (pts (xy 100.33 64.77) (xy 106.68 64.77))
    (stroke (width 0) (type default))
    (uuid 159554a1-d00f-4932-beec-592202005470)
  )
  (bus (pts (xy 158.75 40.64) (xy 271.78 40.64))
    (stroke (width 0) (type default))
    (uuid 159e089f-7ca6-42a8-8bcc-97442b6bd384)
  )

  (wire (pts (xy 175.26 52.07) (xy 168.91 52.07))
    (stroke (width 0) (type default))
    (uuid 164402b0-7025-4427-b272-a0cb3925939a)
  )
  (wire (pts (xy 76.2 92.71) (xy 76.2 119.38))
    (stroke (width 0) (type default))
    (uuid 16c32fe1-9146-4bd3-84f1-26f0775e4287)
  )
  (bus (pts (xy 83.82 92.71) (xy 83.82 119.38))
    (stroke (width 0) (type default))
    (uuid 1714b1f1-5e0f-4816-977b-a98073b911d2)
  )

  (wire (pts (xy 93.98 137.16) (xy 101.6 137.16))
    (stroke (width 0) (type default))
    (uuid 18be8075-7b18-4bb1-8f27-be1191c99081)
  )
  (wire (pts (xy 156.21 77.47) (xy 175.26 77.47))
    (stroke (width 0) (type default))
    (uuid 1969bb56-65d4-4db3-8f9c-e750577e1d82)
  )
  (wire (pts (xy 90.17 38.1) (xy 160.02 38.1))
    (stroke (width 0) (type default))
    (uuid 1ae850f4-d021-43fa-ab6f-dddb52536f0d)
  )
  (bus (pts (xy 49.53 68.58) (xy 43.18 68.58))
    (stroke (width 0) (type default))
    (uuid 1b3d7295-75a4-416b-9d35-243c8e3aff0d)
  )

  (wire (pts (xy 124.46 25.4) (xy 191.77 25.4))
    (stroke (width 0) (type default))
    (uuid 1b4f6bf3-00bd-4299-afb6-0f4adcdf2cb2)
  )
  (wire (pts (xy 82.55 34.29) (xy 82.55 46.99))
    (stroke (width 0) (type default))
    (uuid 1c78b397-3c65-4870-846b-831de1533256)
  )
  (wire (pts (xy 168.91 52.07) (xy 168.91 110.49))
    (stroke (width 0) (type default))
    (uuid 1d087078-868a-4d7f-beef-ede462bd610c)
  )
  (wire (pts (xy 63.5 106.68) (xy 63.5 119.38))
    (stroke (width 0) (type default))
    (uuid 1e8f1541-4dce-47d9-b988-e95131a7a662)
  )
  (wire (pts (xy 161.29 67.31) (xy 161.29 36.83))
    (stroke (width 0) (type default))
    (uuid 21cdebd6-2372-452f-9237-0f016f76a448)
  )
  (wire (pts (xy 105.41 139.7) (xy 163.83 139.7))
    (stroke (width 0) (type default))
    (uuid 2221fb1c-aec4-4b7e-a149-3b7c16eb5048)
  )
  (wire (pts (xy 234.95 59.69) (xy 246.38 59.69))
    (stroke (width 0) (type default))
    (uuid 22f3a542-38a0-4d15-bb6c-dddcdc481e86)
  )
  (wire (pts (xy 168.91 110.49) (xy 184.15 110.49))
    (stroke (width 0) (type default))
    (uuid 23e0e94a-8fc6-425d-8b52-6bf1c17cbbd3)
  )
  (bus (pts (xy 95.25 104.14) (xy 154.94 104.14))
    (stroke (width 0) (type default))
    (uuid 2466ea14-2413-463a-8a59-3542f772fd02)
  )

  (wire (pts (xy 265.43 63.5) (xy 269.24 63.5))
    (stroke (width 0) (type default))
    (uuid 2483bdb1-c9c4-40c8-b9a4-e7f322a6fb25)
  )
  (wire (pts (xy 227.33 124.46) (xy 227.33 78.74))
    (stroke (width 0) (type default))
    (uuid 25def26a-8dfd-4a78-8570-745c132caa17)
  )
  (wire (pts (xy 116.84 27.94) (xy 189.23 27.94))
    (stroke (width 0) (type default))
    (uuid 25e06624-4cc8-4029-9235-ebd5e884e863)
  )
  (bus (pts (xy 45.72 43.18) (xy 97.79 43.18))
    (stroke (width 0) (type default))
    (uuid 290d48ca-73d9-48e1-940f-34735a42cc83)
  )

  (wire (pts (xy 62.23 24.13) (xy 62.23 46.99))
    (stroke (width 0) (type default))
    (uuid 296d5197-67a3-4c2e-b8cc-37c48546115d)
  )
  (wire (pts (xy 208.28 144.78) (xy 242.57 144.78))
    (stroke (width 0) (type default))
    (uuid 2c589c4b-6bbe-40ab-be46-f0da3679d2a0)
  )
  (wire (pts (xy 102.87 52.07) (xy 106.68 52.07))
    (stroke (width 0) (type default))
    (uuid 2d25a051-2459-4e09-9237-d3382ad44aed)
  )
  (wire (pts (xy 92.71 46.99) (xy 92.71 39.37))
    (stroke (width 0) (type default))
    (uuid 2d766e75-3ae5-4d35-8c63-56bd0ca0d107)
  )
  (wire (pts (xy 102.87 29.21) (xy 168.91 29.21))
    (stroke (width 0) (type default))
    (uuid 3190032a-7ee2-45fe-b5cd-0dc0af34816d)
  )
  (wire (pts (xy 124.46 25.4) (xy 124.46 46.99))
    (stroke (width 0) (type default))
    (uuid 3371ecfc-1374-4030-93cb-a5ef376ac21e)
  )
  (bus (pts (xy 271.78 63.5) (xy 271.78 66.04))
    (stroke (width 0) (type default))
    (uuid 344d4ca0-0a25-4e9a-a97a-987fc92f35bb)
  )

  (wire (pts (xy 77.47 31.75) (xy 166.37 31.75))
    (stroke (width 0) (type default))
    (uuid 3593dff3-3583-49c4-9813-6d82f4fcf13e)
  )
  (wire (pts (xy 87.63 36.83) (xy 87.63 46.99))
    (stroke (width 0) (type default))
    (uuid 3746e77e-f876-4016-bb0b-eaf8d2b04470)
  )
  (bus (pts (xy 212.09 106.68) (xy 156.21 106.68))
    (stroke (width 0) (type default))
    (uuid 39e81233-ae8a-4240-bcc7-7af8ac0bc9ca)
  )

  (wire (pts (xy 265.43 66.04) (xy 269.24 66.04))
    (stroke (width 0) (type default))
    (uuid 3c41598a-9b1b-483c-a41e-bbf1020b219e)
  )
  (wire (pts (xy 66.04 46.99) (xy 66.04 21.59))
    (stroke (width 0) (type default))
    (uuid 3dce1804-f4b7-4110-873b-c322b1cf961c)
  )
  (wire (pts (xy 41.275 29.21) (xy 41.275 106.68))
    (stroke (width 0) (type default))
    (uuid 3fe21b6a-04dd-49c6-9342-e2df0f82889c)
  )
  (wire (pts (xy 218.44 74.93) (xy 246.38 74.93))
    (stroke (width 0) (type default))
    (uuid 40435be2-188a-4cf0-9c77-f93923a46b5a)
  )
  (wire (pts (xy 34.29 87.63) (xy 34.29 175.26))
    (stroke (width 0) (type default))
    (uuid 4152e7cd-7522-40fc-8f7b-828e0094bce1)
  )
  (wire (pts (xy 160.02 38.1) (xy 160.02 69.85))
    (stroke (width 0) (type default))
    (uuid 44690735-8578-47b4-be45-7048d7172e8b)
  )
  (wire (pts (xy 190.5 107.95) (xy 190.5 115.57))
    (stroke (width 0) (type default))
    (uuid 4547bb1a-510c-4e22-a864-de5903a71f5b)
  )
  (bus (pts (xy 156.21 123.19) (xy 163.83 123.19))
    (stroke (width 0) (type default))
    (uuid 47bb64ed-d57a-417a-a69a-bd262b6393b7)
  )
  (bus (pts (xy 154.94 104.14) (xy 154.94 127))
    (stroke (width 0) (type default))
    (uuid 47d33a53-415b-4782-8ad9-b3d30c54b570)
  )

  (wire (pts (xy 101.6 125.73) (xy 111.76 125.73))
    (stroke (width 0) (type default))
    (uuid 48309d5b-cf45-4fd6-8121-642525da6c86)
  )
  (wire (pts (xy 191.77 152.4) (xy 191.77 157.48))
    (stroke (width 0) (type default))
    (uuid 4a910d2e-1a8d-4098-afd4-669604e4256a)
  )
  (wire (pts (xy 96.52 134.62) (xy 96.52 113.03))
    (stroke (width 0) (type default))
    (uuid 4a9b8ba6-1d4c-4c0e-9286-f7ca3515d81b)
  )
  (wire (pts (xy 156.21 39.37) (xy 156.21 77.47))
    (stroke (width 0) (type default))
    (uuid 4c85311d-e9f7-4ee0-a3d5-f8ee951e8908)
  )
  (wire (pts (xy 199.39 92.71) (xy 199.39 101.6))
    (stroke (width 0) (type default))
    (uuid 519a2f15-9cd5-4a28-97f7-240e74c07a26)
  )
  (wire (pts (xy 237.49 21.59) (xy 237.49 57.15))
    (stroke (width 0) (type default))
    (uuid 53982c80-ca78-453e-9772-80adbc925af2)
  )
  (bus (pts (xy 162.56 81.28) (xy 175.26 81.28))
    (stroke (width 0) (type default))
    (uuid 554133ec-60c4-49e6-b6c5-7b54b91e07b4)
  )

  (wire (pts (xy 101.6 137.16) (xy 128.27 137.16))
    (stroke (width 0) (type default))
    (uuid 57b43b90-bb55-48b2-a592-827bd144a12d)
  )
  (bus (pts (xy 93.98 74.93) (xy 101.6 74.93))
    (stroke (width 0) (type default))
    (uuid 580f20c8-fe32-45c6-9b55-de91d814ab10)
  )

  (wire (pts (xy 127 175.26) (xy 127 147.32))
    (stroke (width 0) (type default))
    (uuid 582c846a-a28c-493a-ab67-2cc78356be70)
  )
  (bus (pts (xy 162.56 96.52) (xy 162.56 81.28))
    (stroke (width 0) (type default))
    (uuid 5a049933-8f15-40ed-a0b4-4a64d03c970b)
  )

  (wire (pts (xy 160.02 69.85) (xy 175.26 69.85))
    (stroke (width 0) (type default))
    (uuid 5a9449f5-9e8f-4cc1-930f-e7e41ab0b00b)
  )
  (wire (pts (xy 171.45 59.69) (xy 171.45 107.95))
    (stroke (width 0) (type default))
    (uuid 5c10e4bc-43ea-4740-9cf4-4c1f17211dcf)
  )
  (wire (pts (xy 132.08 130.81) (xy 144.78 130.81))
    (stroke (width 0) (type default))
    (uuid 5c68c95c-66ca-48e3-af29-ee553b0ccd02)
  )
  (wire (pts (xy 189.23 48.26) (xy 189.23 27.94))
    (stroke (width 0) (type default))
    (uuid 5c70656c-3d74-43fb-b6e9-552b47a8f65c)
  )
  (wire (pts (xy 87.63 172.72) (xy 124.46 172.72))
    (stroke (width 0) (type default))
    (uuid 5d4b4718-c29a-47a5-91b4-e466c96f03fd)
  )
  (wire (pts (xy 115.57 119.38) (xy 130.81 119.38))
    (stroke (width 0) (type default))
    (uuid 5de7c1bf-bb9a-4b3e-b24b-5724d46fd2b1)
  )
  (wire (pts (xy 259.08 114.3) (xy 259.08 127))
    (stroke (width 0) (type default))
    (uuid 61431ffa-4aa1-40f4-bd5c-4a4309ac358b)
  )
  (wire (pts (xy 54.61 27.94) (xy 54.61 46.99))
    (stroke (width 0) (type default))
    (uuid 6298c79e-9227-4b18-be69-f212f8a91cb0)
  )
  (wire (pts (xy 26.67 79.375) (xy 26.67 187.96))
    (stroke (width 0) (type default))
    (uuid 6552be1d-0cbb-421c-9895-85be177fe168)
  )
  (wire (pts (xy 161.29 36.83) (xy 87.63 36.83))
    (stroke (width 0) (type default))
    (uuid 6ac90177-150c-459f-8ecf-1770fd8300ec)
  )
  (bus (pts (xy 45.72 66.04) (xy 45.72 43.18))
    (stroke (width 0) (type default))
    (uuid 6b56f766-29a7-4878-9989-e2d655599ad2)
  )
  (bus (pts (xy 156.21 101.6) (xy 156.21 106.68))
    (stroke (width 0) (type default))
    (uuid 6b6f7fbb-6b9b-4355-a53f-cd801c31b4bf)
  )

  (wire (pts (xy 266.7 124.46) (xy 266.7 127))
    (stroke (width 0) (type default))
    (uuid 6fac47ed-7fb3-45e2-8267-7c3a028574f3)
  )
  (bus (pts (xy 97.79 101.6) (xy 156.21 101.6))
    (stroke (width 0) (type default))
    (uuid 7088243a-6807-4a36-be11-4b67db2c2ffc)
  )

  (wire (pts (xy 74.93 30.48) (xy 167.64 30.48))
    (stroke (width 0) (type default))
    (uuid 717678af-838d-4b82-b472-40b26ebaab0e)
  )
  (wire (pts (xy 124.46 144.78) (xy 163.83 144.78))
    (stroke (width 0) (type default))
    (uuid 7179ba95-ed5c-4c25-a793-f0501e9a19b4)
  )
  (wire (pts (xy 60.96 92.71) (xy 60.96 119.38))
    (stroke (width 0) (type default))
    (uuid 7390408b-2bdf-49c1-ab08-9b8d42c0698d)
  )
  (wire (pts (xy 49.53 79.375) (xy 26.67 79.375))
    (stroke (width 0) (type default))
    (uuid 7465597a-e4a0-4b89-86dd-a4e9c3c50249)
  )
  (wire (pts (xy 54.61 27.94) (xy 116.84 27.94))
    (stroke (width 0) (type default))
    (uuid 75e3f7ca-f647-4f3c-b732-b4c189f8d79b)
  )
  (wire (pts (xy 41.275 106.68) (xy 63.5 106.68))
    (stroke (width 0) (type default))
    (uuid 77ca7693-c10d-49d9-bc60-523926606636)
  )
  (bus (pts (xy 21.59 68.58) (xy 43.18 68.58))
    (stroke (width 0) (type default))
    (uuid 78265963-c7b6-4105-9df2-efce60347aa3)
  )

  (wire (pts (xy 130.81 119.38) (xy 153.67 119.38))
    (stroke (width 0) (type default))
    (uuid 7875dcff-ee10-4666-aa34-e67c650d4af1)
  )
  (wire (pts (xy 208.28 124.46) (xy 227.33 124.46))
    (stroke (width 0) (type default))
    (uuid 7c04682f-df6c-4072-ba4e-f54fbb20919e)
  )
  (bus (pts (xy 97.79 69.85) (xy 106.68 69.85))
    (stroke (width 0) (type default))
    (uuid 7c50ad76-99a7-4d97-9869-5be45468c0bd)
  )

  (wire (pts (xy 128.27 124.46) (xy 128.27 113.03))
    (stroke (width 0) (type default))
    (uuid 7d1a675c-0257-45ba-b548-b441ae2bd337)
  )
  (wire (pts (xy 62.23 24.13) (xy 196.85 24.13))
    (stroke (width 0) (type default))
    (uuid 802ecc69-642e-4d91-8cd2-2bf55c21bd99)
  )
  (bus (pts (xy 175.26 72.39) (xy 158.75 72.39))
    (stroke (width 0) (type default))
    (uuid 81fab2a8-cacc-4d56-aae6-ace294cf93e3)
  )

  (wire (pts (xy 281.94 157.48) (xy 281.94 24.13))
    (stroke (width 0) (type default))
    (uuid 82335efe-d8aa-4609-a150-52cbcedfa513)
  )
  (wire (pts (xy 218.44 69.85) (xy 246.38 69.85))
    (stroke (width 0) (type default))
    (uuid 85648081-f7c7-481b-b657-14d09379c6c6)
  )
  (bus (pts (xy 49.53 66.04) (xy 45.72 66.04))
    (stroke (width 0) (type default))
    (uuid 88c93849-71bf-4533-ad57-3a035b22e992)
  )

  (wire (pts (xy 85.09 35.56) (xy 162.56 35.56))
    (stroke (width 0) (type default))
    (uuid 8a548733-0e7f-49a3-80e9-357680b229e1)
  )
  (wire (pts (xy 72.39 29.21) (xy 72.39 46.99))
    (stroke (width 0) (type default))
    (uuid 8aa2c3d5-2ab6-4adb-8d29-a81d1249aa31)
  )
  (wire (pts (xy 101.6 137.16) (xy 101.6 125.73))
    (stroke (width 0) (type default))
    (uuid 8be063ec-2a20-4518-99c2-02a7c7268716)
  )
  (wire (pts (xy 34.29 175.26) (xy 49.53 175.26))
    (stroke (width 0) (type default))
    (uuid 8bea15a0-d3a0-41fd-abea-3fa0d72180cd)
  )
  (wire (pts (xy 191.77 157.48) (xy 281.94 157.48))
    (stroke (width 0) (type default))
    (uuid 8c9f6053-b5eb-40ab-a762-5eb22da38a85)
  )
  (bus (pts (xy 158.75 72.39) (xy 158.75 40.64))
    (stroke (width 0) (type default))
    (uuid 8ca8aae5-b26c-4b00-a62c-7096305e3513)
  )
  (bus (pts (xy 212.09 106.68) (xy 241.3 106.68))
    (stroke (width 0) (type default))
    (uuid 8de7493e-3286-4fe1-b6fd-eedc71c2098c)
  )
  (bus (pts (xy 156.21 106.68) (xy 156.21 123.19))
    (stroke (width 0) (type default))
    (uuid 8eef7c17-919d-4e5b-b179-1051921a5def)
  )

  (wire (pts (xy 196.85 24.13) (xy 196.85 48.26))
    (stroke (width 0) (type default))
    (uuid 906ea934-1ec7-4ec0-a647-60bf66782768)
  )
  (wire (pts (xy 153.67 119.38) (xy 153.67 134.62))
    (stroke (width 0) (type default))
    (uuid 919e461c-ed3f-4bca-a150-4f3938ef513d)
  )
  (wire (pts (xy 175.26 64.77) (xy 162.56 64.77))
    (stroke (width 0) (type default))
    (uuid 93784c5b-89b4-49b3-9550-a8731990a3aa)
  )
  (bus (pts (xy 97.79 43.18) (xy 97.79 69.85))
    (stroke (width 0) (type default))
    (uuid 941cebbe-231e-4e2c-b537-e79ba6a61129)
  )

  (wire (pts (xy 116.84 27.94) (xy 116.84 46.99))
    (stroke (width 0) (type default))
    (uuid 9524b06c-953c-4a20-943f-f03d2661394f)
  )
  (bus (pts (xy 21.59 68.58) (xy 21.59 190.5))
    (stroke (width 0) (type default))
    (uuid 9620c5cb-42d5-4eb0-9bc7-e6c6a188bbf5)
  )

  (wire (pts (xy 148.59 74.93) (xy 175.26 74.93))
    (stroke (width 0) (type default))
    (uuid 96c0cecb-46b6-476a-bb07-af7b6d41abc8)
  )
  (bus (pts (xy 100.33 64.77) (xy 100.33 40.64))
    (stroke (width 0) (type default))
    (uuid 9e7c3f4c-ab66-44bb-817a-000556d0137c)
  )

  (wire (pts (xy 93.98 139.7) (xy 105.41 139.7))
    (stroke (width 0) (type default))
    (uuid 9f578a1d-034b-4e86-a557-ed76e97a1fff)
  )
  (wire (pts (xy 124.46 172.72) (xy 124.46 144.78))
    (stroke (width 0) (type default))
    (uuid a479e9ba-326f-47d9-96fa-672d7acb68f2)
  )
  (wire (pts (xy 265.43 68.58) (xy 269.24 68.58))
    (stroke (width 0) (type default))
    (uuid a5011f6e-cfb7-4d39-aa96-3da754d48ec6)
  )
  (wire (pts (xy 163.83 62.23) (xy 163.83 34.29))
    (stroke (width 0) (type default))
    (uuid a6d0d38c-f48c-4ead-9dbd-1f4b8849539a)
  )
  (wire (pts (xy 144.78 137.16) (xy 163.83 137.16))
    (stroke (width 0) (type default))
    (uuid a6fce683-11a9-47fc-a89a-80c88fbaf12a)
  )
  (wire (pts (xy 262.89 119.38) (xy 262.89 127))
    (stroke (width 0) (type default))
    (uuid a7db357e-e78a-4f74-aaa3-a4c611930627)
  )
  (wire (pts (xy 90.17 46.99) (xy 90.17 38.1))
    (stroke (width 0) (type default))
    (uuid a9cb691f-6a4f-4d1b-b605-fec687e52f98)
  )
  (wire (pts (xy 144.78 130.81) (xy 144.78 137.16))
    (stroke (width 0) (type default))
    (uuid aefa9231-4dc2-44e0-a69d-a7d791a7856a)
  )
  (wire (pts (xy 72.39 29.21) (xy 102.87 29.21))
    (stroke (width 0) (type default))
    (uuid af8327a7-2886-43f9-a708-516d90c8edf9)
  )
  (wire (pts (xy 96.52 113.03) (xy 111.76 113.03))
    (stroke (width 0) (type default))
    (uuid b1486355-3869-4186-aa41-6c3536bfc2fd)
  )
  (bus (pts (xy 271.78 60.96) (xy 271.78 63.5))
    (stroke (width 0) (type default))
    (uuid b1a55ba8-d265-495e-a9ac-eb2c71a8998d)
  )

  (wire (pts (xy 184.15 110.49) (xy 184.15 115.57))
    (stroke (width 0) (type default))
    (uuid b5988f43-b144-4a66-a936-6488120e277c)
  )
  (bus (pts (xy 241.3 87.63) (xy 241.3 106.68))
    (stroke (width 0) (type default))
    (uuid b768a9f3-21fa-4a4b-90a0-85df7265307f)
  )

  (wire (pts (xy 175.26 54.61) (xy 167.64 54.61))
    (stroke (width 0) (type default))
    (uuid b78fa924-7d03-4018-862c-dd6e8d8ac002)
  )
  (wire (pts (xy 80.01 33.02) (xy 165.1 33.02))
    (stroke (width 0) (type default))
    (uuid b8241c42-8312-4423-b348-7f7994875bec)
  )
  (wire (pts (xy 92.71 39.37) (xy 156.21 39.37))
    (stroke (width 0) (type default))
    (uuid b8b0c4f9-2a3a-4b37-9e63-5cea7e28ec1a)
  )
  (wire (pts (xy 129.54 149.86) (xy 163.83 149.86))
    (stroke (width 0) (type default))
    (uuid b9bcb669-2bb7-4ca6-8df8-c6abd7472148)
  )
  (wire (pts (xy 281.94 24.13) (xy 196.85 24.13))
    (stroke (width 0) (type default))
    (uuid bb1e19f1-cfa3-45ec-b089-de0df6bb3aeb)
  )
  (wire (pts (xy 153.67 134.62) (xy 163.83 134.62))
    (stroke (width 0) (type default))
    (uuid bd4d6b8e-2914-47d0-9b01-8f5004fb5f83)
  )
  (wire (pts (xy 167.64 54.61) (xy 167.64 30.48))
    (stroke (width 0) (type default))
    (uuid bd8ffdb5-9674-4d6c-8610-42f348efb33f)
  )
  (wire (pts (xy 49.53 87.63) (xy 34.29 87.63))
    (stroke (width 0) (type default))
    (uuid bdddbe7f-c180-4afc-9ccd-810be43b7891)
  )
  (wire (pts (xy 175.26 59.69) (xy 171.45 59.69))
    (stroke (width 0) (type default))
    (uuid bf766cfb-99e3-439d-81ae-a62f1487de26)
  )
  (wire (pts (xy 102.87 29.21) (xy 102.87 52.07))
    (stroke (width 0) (type default))
    (uuid bf8b5937-ee69-478b-bca1-91bacf24267e)
  )
  (wire (pts (xy 127 147.32) (xy 163.83 147.32))
    (stroke (width 0) (type default))
    (uuid c02bd253-d1f5-49f6-8d63-0dbbf069d2a0)
  )
  (wire (pts (xy 78.74 92.71) (xy 78.74 119.38))
    (stroke (width 0) (type default))
    (uuid c212af52-3e20-4809-9c5b-35c757e0f4b3)
  )
  (wire (pts (xy 26.67 187.96) (xy 148.59 187.96))
    (stroke (width 0) (type default))
    (uuid c2eec512-a65a-4ad4-8067-4ab562099f1f)
  )
  (wire (pts (xy 85.09 35.56) (xy 85.09 46.99))
    (stroke (width 0) (type default))
    (uuid c3676cc7-e6e7-471d-8866-ae7216dd8d53)
  )
  (wire (pts (xy 80.01 33.02) (xy 80.01 46.99))
    (stroke (width 0) (type default))
    (uuid c6158c4c-3eeb-492b-a27d-c6ed8d6e1705)
  )
  (wire (pts (xy 191.77 25.4) (xy 191.77 48.26))
    (stroke (width 0) (type default))
    (uuid c811d3c6-c712-49ed-8e0e-1b7b182467ef)
  )
  (wire (pts (xy 87.63 177.8) (xy 129.54 177.8))
    (stroke (width 0) (type default))
    (uuid c85f0e4d-0be3-489c-ba63-1b337ea1358d)
  )
  (bus (pts (xy 101.6 96.52) (xy 162.56 96.52))
    (stroke (width 0) (type default))
    (uuid c8738306-5f4c-47f9-acb0-c531304b40c8)
  )
  (bus (pts (xy 43.18 40.64) (xy 100.33 40.64))
    (stroke (width 0) (type default))
    (uuid cad33b6b-e3b8-400f-9fe7-2074d2ac2e47)
  )

  (wire (pts (xy 218.44 72.39) (xy 246.38 72.39))
    (stroke (width 0) (type default))
    (uuid cb315a08-9aed-4f01-909f-91dee8babcf6)
  )
  (wire (pts (xy 128.27 113.03) (xy 111.76 113.03))
    (stroke (width 0) (type default))
    (uuid cc9f32db-68dc-434c-838c-8b888dde2718)
  )
  (bus (pts (xy 154.94 127) (xy 163.83 127))
    (stroke (width 0) (type default))
    (uuid ce8f9dd8-414b-4fac-a9c7-ab9f26ef4acb)
  )

  (wire (pts (xy 175.26 62.23) (xy 163.83 62.23))
    (stroke (width 0) (type default))
    (uuid d2b02fc6-9755-4e0d-b471-d9328e0a8564)
  )
  (bus (pts (xy 154.94 104.14) (xy 196.85 104.14))
    (stroke (width 0) (type default))
    (uuid d4f61b56-bb63-4c45-a696-54b7352a59b2)
  )

  (wire (pts (xy 59.69 25.4) (xy 59.69 46.99))
    (stroke (width 0) (type default))
    (uuid d6116112-28b2-4d9b-9b55-e5d32537dfa3)
  )
  (bus (pts (xy 212.09 92.71) (xy 212.09 106.68))
    (stroke (width 0) (type default))
    (uuid d6dd3e06-543c-43db-92d3-f2b17db72261)
  )

  (wire (pts (xy 66.04 21.59) (xy 237.49 21.59))
    (stroke (width 0) (type default))
    (uuid d70bc9a7-ad4a-48a9-a18e-e71e8ac6d37c)
  )
  (wire (pts (xy 229.87 81.28) (xy 229.87 127))
    (stroke (width 0) (type default))
    (uuid d9c389b0-7fb4-49cb-90b9-4f616c9cf829)
  )
  (wire (pts (xy 162.56 64.77) (xy 162.56 35.56))
    (stroke (width 0) (type default))
    (uuid da1cf8af-818e-4979-9d92-4838fd0b68d3)
  )
  (wire (pts (xy 175.26 57.15) (xy 166.37 57.15))
    (stroke (width 0) (type default))
    (uuid da20c045-e5bc-4ef2-8b2f-39ac6184ed11)
  )
  (bus (pts (xy 271.78 40.64) (xy 271.78 60.96))
    (stroke (width 0) (type default))
    (uuid dbfaf888-7879-4ef2-b7aa-8843f1a6a042)
  )
  (bus (pts (xy 21.59 190.5) (xy 148.59 190.5))
    (stroke (width 0) (type default))
    (uuid df7bca04-b781-4aba-8424-0544f52b9436)
  )

  (wire (pts (xy 87.63 175.26) (xy 127 175.26))
    (stroke (width 0) (type default))
    (uuid e1749909-4808-4547-9667-bd6ea041f76e)
  )
  (wire (pts (xy 168.91 52.07) (xy 168.91 29.21))
    (stroke (width 0) (type default))
    (uuid e48a5f1b-fc19-45a1-b72b-19d290b82e34)
  )
  (wire (pts (xy 59.69 25.4) (xy 124.46 25.4))
    (stroke (width 0) (type default))
    (uuid e58dadef-b63c-4639-942e-b3841f663f27)
  )
  (wire (pts (xy 82.55 34.29) (xy 163.83 34.29))
    (stroke (width 0) (type default))
    (uuid e59618f1-b4e4-4c3e-a5a4-0b591f272f9d)
  )
  (wire (pts (xy 93.98 134.62) (xy 96.52 134.62))
    (stroke (width 0) (type default))
    (uuid e5e5953b-e29b-4a8d-a058-0f4bc6dcb140)
  )
  (bus (pts (xy 43.18 40.64) (xy 43.18 68.58))
    (stroke (width 0) (type default))
    (uuid e6f9bf2d-8092-4b69-a772-d30385d39354)
  )

  (wire (pts (xy 237.49 57.15) (xy 246.38 57.15))
    (stroke (width 0) (type default))
    (uuid e86cc8fc-bcc3-473b-952e-72a803129a7f)
  )
  (wire (pts (xy 81.28 92.71) (xy 81.28 119.38))
    (stroke (width 0) (type default))
    (uuid e99980ce-87ab-4d95-81b9-82d77b67ac45)
  )
  (wire (pts (xy 218.44 67.31) (xy 246.38 67.31))
    (stroke (width 0) (type default))
    (uuid ef4673ac-5f8d-4e6f-856f-93d337b953b3)
  )
  (wire (pts (xy 175.26 67.31) (xy 161.29 67.31))
    (stroke (width 0) (type default))
    (uuid ef797fe5-d1d9-43ca-9aa6-2da93011df9c)
  )
  (bus (pts (xy 101.6 74.93) (xy 101.6 96.52))
    (stroke (width 0) (type default))
    (uuid f282ac33-ca98-4b9d-bdb9-03e7c537514c)
  )

  (wire (pts (xy 68.58 46.99) (xy 68.58 22.86))
    (stroke (width 0) (type default))
    (uuid f741741a-adb3-4a9b-bd71-8d8b02c367ec)
  )
  (wire (pts (xy 166.37 57.15) (xy 166.37 31.75))
    (stroke (width 0) (type default))
    (uuid f9b73405-7d26-4267-9c4b-5f1d4ec6218a)
  )
  (wire (pts (xy 246.38 81.28) (xy 229.87 81.28))
    (stroke (width 0) (type default))
    (uuid fff2546d-fd20-4e24-9bb4-ebda9189b30c)
  )

  (label "KBD_RX_SCL" (at 143.51 130.81 180) (fields_autoplaced)
    (effects (font (size 1.27 1.27)) (justify right bottom))
    (uuid 1b267769-cf92-440d-bfb5-5d01ee043314)
  )
  (label "~{KSEL0}" (at 199.39 93.98 270) (fields_autoplaced)
    (effects (font (size 1.27 1.27)) (justify right bottom))
    (uuid 3985c1cd-3fae-44c2-b464-9ee9f8c9dde8)
  )
  (label "BA2" (at 269.24 68.58 180) (fields_autoplaced)
    (effects (font (size 1.27 1.27)) (justify right bottom))
    (uuid 620cf87f-fe58-4325-85da-fb045c5a3ad5)
  )
  (label "MD7" (at 243.84 85.09 180) (fields_autoplaced)
    (effects (font (size 1.27 1.27)) (justify right bottom))
    (uuid 738d33a5-5d72-4425-ae09-b2cfa44f95fe)
  )
  (label "BA1" (at 269.24 66.04 180) (fields_autoplaced)
    (effects (font (size 1.27 1.27)) (justify right bottom))
    (uuid 7cb5d872-48aa-4d27-ad19-e7a3b7c6843e)
  )
  (label "KBD_TX_SDA" (at 127 119.38 180) (fields_autoplaced)
    (effects (font (size 1.27 1.27)) (justify right bottom))
    (uuid 826d6252-5917-4b08-ac70-1c51169abf7d)
  )
  (label "BA0" (at 269.24 63.5 180) (fields_autoplaced)
    (effects (font (size 1.27 1.27)) (justify right bottom))
    (uuid 85603b39-d598-4cd7-b98a-32291c45af48)
  )
  (label "VID_RX" (at 107.95 125.73 180) (fields_autoplaced)
    (effects (font (size 1.27 1.27)) (justify right bottom))
    (uuid b7902ce2-9099-4b7c-a015-4e5fa2df0a88)
  )
  (label "VID_TX" (at 107.95 113.03 180) (fields_autoplaced)
    (effects (font (size 1.27 1.27)) (justify right bottom))
    (uuid e91150bf-366c-44a2-9837-c942e5ab2be2)
  )

  (symbol (lib_id "power:GND") (at 105.41 144.78 0) (unit 1)
    (in_bom yes) (on_board yes) (dnp no) (fields_autoplaced)
    (uuid 073f8b03-89ef-4953-8553-94ef568c24c3)
    (property "Reference" "#PWR0416" (at 105.41 151.13 0)
      (effects (font (size 1.27 1.27)) hide)
    )
    (property "Value" "GND" (at 105.41 149.86 0)
      (effects (font (size 1.27 1.27)))
    )
    (property "Footprint" "" (at 105.41 144.78 0)
      (effects (font (size 1.27 1.27)) hide)
    )
    (property "Datasheet" "" (at 105.41 144.78 0)
      (effects (font (size 1.27 1.27)) hide)
    )
    (pin "1" (uuid d7374bf0-ca8d-4766-b191-7577a39cebd2))
    (instances
      (project "gd rev3"
        (path "/e63e39d7-6ac0-4ffd-8aa3-1841a4541b55"
          (reference "#PWR0416") (unit 1)
        )
      )
    )
  )

  (symbol (lib_id "My Library:+5V_2040") (at 255.27 109.22 0) (unit 1)
    (in_bom yes) (on_board yes) (dnp no)
    (uuid 162eb245-5e8f-4ab8-8b61-4ab509859307)
    (property "Reference" "#PWR0208" (at 255.27 113.03 0)
      (effects (font (size 1.27 1.27)) hide)
    )
    (property "Value" "+5V_2040" (at 255.27 105.41 0)
      (effects (font (size 1.27 1.27)))
    )
    (property "Footprint" "" (at 255.27 109.22 0)
      (effects (font (size 1.27 1.27)) hide)
    )
    (property "Datasheet" "" (at 255.27 109.22 0)
      (effects (font (size 1.27 1.27)) hide)
    )
    (pin "1" (uuid 73f99aa0-4c67-42c4-b45c-cdad74ed8658))
    (instances
      (project "gd rev3"
        (path "/e63e39d7-6ac0-4ffd-8aa3-1841a4541b55"
          (reference "#PWR0208") (unit 1)
        )
      )
    )
  )

  (symbol (lib_id "Mega IIe Rev3 Symbols:R_Small") (at 144.78 128.27 0) (unit 1)
    (in_bom yes) (on_board yes) (dnp no)
    (uuid 2708c73c-c166-414e-b018-cb57443a3d65)
    (property "Reference" "RDNP2" (at 146.05 127 0)
      (effects (font (size 1.27 1.27)) (justify left))
    )
    (property "Value" "4k7" (at 146.05 129.54 0)
      (effects (font (size 1.27 1.27)) (justify left))
    )
    (property "Footprint" "Resistor_SMD:R_0603_1608Metric" (at 144.78 128.27 0)
      (effects (font (size 1.27 1.27)) hide)
    )
    (property "Datasheet" "~" (at 144.78 128.27 0)
      (effects (font (size 1.27 1.27)) hide)
    )
    (pin "1" (uuid 2492045e-5a79-4341-ab7c-83ed32210c26))
    (pin "2" (uuid 44eb9be2-ea60-4ae0-8502-efdff5651785))
    (instances
      (project "gd rev3"
        (path "/e63e39d7-6ac0-4ffd-8aa3-1841a4541b55"
          (reference "RDNP2") (unit 1)
        )
      )
    )
  )

  (symbol (lib_id "power:+3V3") (at 144.78 125.73 0) (unit 1)
    (in_bom yes) (on_board yes) (dnp no)
    (uuid 2fa2c340-9f05-423b-9571-6d8be0e82815)
    (property "Reference" "#PWR0415" (at 144.78 129.54 0)
      (effects (font (size 1.27 1.27)) hide)
    )
    (property "Value" "+3V3" (at 145.161 121.3358 0)
      (effects (font (size 1.27 1.27)))
    )
    (property "Footprint" "" (at 144.78 125.73 0)
      (effects (font (size 1.27 1.27)) hide)
    )
    (property "Datasheet" "" (at 144.78 125.73 0)
      (effects (font (size 1.27 1.27)) hide)
    )
    (pin "1" (uuid 9b1a7ebf-6a0e-4233-9ce7-33f726a2adab))
    (instances
      (project "gd rev3"
        (path "/e63e39d7-6ac0-4ffd-8aa3-1841a4541b55"
          (reference "#PWR0415") (unit 1)
        )
      )
    )
  )

  (symbol (lib_id "power:+12V") (at 262.89 119.38 0) (unit 1)
    (in_bom yes) (on_board yes) (dnp no)
    (uuid 57e6317d-a8dd-4087-a563-037714cb0a3f)
    (property "Reference" "#PWR0217" (at 262.89 123.19 0)
      (effects (font (size 1.27 1.27)) hide)
    )
    (property "Value" "+12V" (at 262.89 115.57 0)
      (effects (font (size 1.27 1.27)))
    )
    (property "Footprint" "" (at 262.89 119.38 0)
      (effects (font (size 1.27 1.27)) hide)
    )
    (property "Datasheet" "" (at 262.89 119.38 0)
      (effects (font (size 1.27 1.27)) hide)
    )
    (pin "1" (uuid 9a892244-20b8-4821-b365-66292672a441))
    (instances
      (project "gd rev3"
        (path "/e63e39d7-6ac0-4ffd-8aa3-1841a4541b55"
          (reference "#PWR0217") (unit 1)
        )
      )
    )
  )

  (symbol (lib_id "Mega IIe Rev3 Symbols:R_Small") (at 105.41 142.24 0) (unit 1)
    (in_bom yes) (on_board yes) (dnp no) (fields_autoplaced)
    (uuid a7d443ce-4d95-48db-84ca-3804a6f8be65)
    (property "Reference" "R79" (at 107.95 140.9699 0)
      (effects (font (size 1.27 1.27)) (justify left))
    )
    (property "Value" "4k7" (at 107.95 143.5099 0)
      (effects (font (size 1.27 1.27)) (justify left))
    )
    (property "Footprint" "Resistor_SMD:R_0603_1608Metric" (at 105.41 142.24 0)
      (effects (font (size 1.27 1.27)) hide)
    )
    (property "Datasheet" "~" (at 105.41 142.24 0)
      (effects (font (size 1.27 1.27)) hide)
    )
    (pin "1" (uuid c691444a-b508-4f10-bb3a-e9e4a45d9b44))
    (pin "2" (uuid b15a47e5-d70b-46f1-82ba-8e161ee2f768))
    (instances
      (project "gd rev3"
        (path "/e63e39d7-6ac0-4ffd-8aa3-1841a4541b55"
          (reference "R79") (unit 1)
        )
      )
    )
  )

  (symbol (lib_id "power:+3V3") (at 130.81 114.3 0) (unit 1)
    (in_bom yes) (on_board yes) (dnp no)
    (uuid c36ed610-eeff-4dfc-9aad-98b0562a29cc)
    (property "Reference" "#PWR0417" (at 130.81 118.11 0)
      (effects (font (size 1.27 1.27)) hide)
    )
    (property "Value" "+3V3" (at 131.191 109.9058 0)
      (effects (font (size 1.27 1.27)))
    )
    (property "Footprint" "" (at 130.81 114.3 0)
      (effects (font (size 1.27 1.27)) hide)
    )
    (property "Datasheet" "" (at 130.81 114.3 0)
      (effects (font (size 1.27 1.27)) hide)
    )
    (pin "1" (uuid a4076fb6-d475-4b11-a8de-00deab4110f9))
    (instances
      (project "gd rev3"
        (path "/e63e39d7-6ac0-4ffd-8aa3-1841a4541b55"
          (reference "#PWR0417") (unit 1)
        )
      )
    )
  )

  (symbol (lib_id "power:+5V") (at 259.08 114.3 0) (unit 1)
    (in_bom yes) (on_board yes) (dnp no)
    (uuid c8006dcd-fc64-45aa-babd-bc390441b053)
    (property "Reference" "#PWR0209" (at 259.08 118.11 0)
      (effects (font (size 1.27 1.27)) hide)
    )
    (property "Value" "+5V" (at 259.08 110.49 0)
      (effects (font (size 1.27 1.27)))
    )
    (property "Footprint" "" (at 259.08 114.3 0)
      (effects (font (size 1.27 1.27)) hide)
    )
    (property "Datasheet" "" (at 259.08 114.3 0)
      (effects (font (size 1.27 1.27)) hide)
    )
    (pin "1" (uuid f119ba6e-1408-4b8c-a561-21a3c9bf7c22))
    (instances
      (project "gd rev3"
        (path "/e63e39d7-6ac0-4ffd-8aa3-1841a4541b55"
          (reference "#PWR0209") (unit 1)
        )
      )
    )
  )

  (symbol (lib_id "Mega IIe Rev3 Symbols:R_Small") (at 130.81 116.84 0) (unit 1)
    (in_bom yes) (on_board yes) (dnp no) (fields_autoplaced)
    (uuid e7ceb3ad-4b25-4070-ae13-1f660510e763)
    (property "Reference" "RDNP1" (at 133.35 115.5699 0)
      (effects (font (size 1.27 1.27)) (justify left))
    )
    (property "Value" "4k7" (at 133.35 118.1099 0)
      (effects (font (size 1.27 1.27)) (justify left))
    )
    (property "Footprint" "Resistor_SMD:R_0603_1608Metric" (at 130.81 116.84 0)
      (effects (font (size 1.27 1.27)) hide)
    )
    (property "Datasheet" "~" (at 130.81 116.84 0)
      (effects (font (size 1.27 1.27)) hide)
    )
    (pin "1" (uuid b6f8c4bb-a975-44f0-865f-8b917fcbc4eb))
    (pin "2" (uuid 7d27f142-415b-4d19-8eee-a7423cf70c35))
    (instances
      (project "gd rev3"
        (path "/e63e39d7-6ac0-4ffd-8aa3-1841a4541b55"
          (reference "RDNP1") (unit 1)
        )
      )
    )
  )

  (symbol (lib_id "Mega IIe Rev3 Symbols:Jumper_3_Open") (at 111.76 119.38 90) (unit 1)
    (in_bom yes) (on_board yes) (dnp no) (fields_autoplaced)
    (uuid eec372a5-2e4f-4fc5-8c20-974b7fb2ce8a)
    (property "Reference" "JP1" (at 108.585 118.1099 90)
      (effects (font (size 1.27 1.27)) (justify left))
    )
    (property "Value" "Int-Ser1" (at 108.585 120.6499 90)
      (effects (font (size 1.27 1.27)) (justify left))
    )
    (property "Footprint" "Jumper:SolderJumper-3_P2.0mm_Open_TrianglePad1.0x1.5mm_NumberLabels" (at 111.76 119.38 0)
      (effects (font (size 1.27 1.27)) hide)
    )
    (property "Datasheet" "~" (at 111.76 119.38 0)
      (effects (font (size 1.27 1.27)) hide)
    )
    (pin "1" (uuid 6ed7a4fb-6bbe-4db6-b716-eac3862a6082))
    (pin "2" (uuid 73871374-26c8-4126-90c1-e93c2f59a53e))
    (pin "3" (uuid 369ef3d6-c580-4506-8bb0-48a9a2dd140b))
    (instances
      (project "gd rev3"
        (path "/e63e39d7-6ac0-4ffd-8aa3-1841a4541b55"
          (reference "JP1") (unit 1)
        )
      )
    )
  )

  (symbol (lib_id "power:-12V") (at 266.7 124.46 0) (unit 1)
    (in_bom yes) (on_board yes) (dnp no)
    (uuid ef566071-5958-430a-a498-a73ae43264b0)
    (property "Reference" "#PWR0218" (at 266.7 121.92 0)
      (effects (font (size 1.27 1.27)) hide)
    )
    (property "Value" "-12V" (at 266.7 120.65 0)
      (effects (font (size 1.27 1.27)))
    )
    (property "Footprint" "" (at 266.7 124.46 0)
      (effects (font (size 1.27 1.27)) hide)
    )
    (property "Datasheet" "" (at 266.7 124.46 0)
      (effects (font (size 1.27 1.27)) hide)
    )
    (pin "1" (uuid e50c5aa5-486a-47e2-b078-e0ce4d1c1cba))
    (instances
      (project "gd rev3"
        (path "/e63e39d7-6ac0-4ffd-8aa3-1841a4541b55"
          (reference "#PWR0218") (unit 1)
        )
      )
    )
  )

  (symbol (lib_id "Mega IIe Rev3 Symbols:Jumper_3_Open") (at 128.27 130.81 90) (unit 1)
    (in_bom yes) (on_board yes) (dnp no) (fields_autoplaced)
    (uuid f1740d90-a1e8-475c-9f8b-799d406d4de8)
    (property "Reference" "JP2" (at 125.095 129.5399 90)
      (effects (font (size 1.27 1.27)) (justify left))
    )
    (property "Value" "Int-Ser2" (at 125.095 132.0799 90)
      (effects (font (size 1.27 1.27)) (justify left))
    )
    (property "Footprint" "Jumper:SolderJumper-3_P2.0mm_Open_TrianglePad1.0x1.5mm_NumberLabels" (at 128.27 130.81 0)
      (effects (font (size 1.27 1.27)) hide)
    )
    (property "Datasheet" "~" (at 128.27 130.81 0)
      (effects (font (size 1.27 1.27)) hide)
    )
    (pin "1" (uuid 8cc91efe-3984-40cd-99b3-b1f0afb4ce0d))
    (pin "2" (uuid 96aaa866-fac0-40bd-a80a-f743642cab7c))
    (pin "3" (uuid 270d867f-966b-4b04-b79b-a054129ab225))
    (instances
      (project "gd rev3"
        (path "/e63e39d7-6ac0-4ffd-8aa3-1841a4541b55"
          (reference "JP2") (unit 1)
        )
      )
    )
  )

  (sheet (at 148.59 185.42) (size 44.45 8.89) (fields_autoplaced)
    (stroke (width 0.1524) (type solid))
    (fill (color 255 111 78 1.0000))
    (uuid 1c80a2ff-bb77-49be-8f4f-a38d0eafcdbf)
    (property "Sheetname" "decoder" (at 148.59 184.7084 0)
      (effects (font (size 1.27 1.27)) (justify left bottom))
    )
    (property "Sheetfile" "decoder.kicad_sch" (at 148.59 194.8946 0)
      (effects (font (size 1.27 1.27)) (justify left top))
    )
    (pin "BA[15..0]" bidirectional (at 148.59 190.5 180)
      (effects (font (size 1.27 1.27)) (justify left))
      (uuid d9edf20e-ee50-47d3-88f3-d5ac3eaa5ede)
    )
    (pin "~{ROMEN}" input (at 148.59 187.96 180)
      (effects (font (size 1.27 1.27)) (justify left))
      (uuid 808a68f1-76ef-4277-b7c3-0ec172f7e6db)
    )
    (instances
      (project "gd rev3"
        (path "/e63e39d7-6ac0-4ffd-8aa3-1841a4541b55" (page "10"))
      )
    )
  )

  (sheet (at 49.53 46.99) (size 44.45 45.72)
    (stroke (width 0.1524) (type solid))
    (fill (color 224 224 60 0.2500))
    (uuid 1d17904d-638f-48f3-894f-0144911f4a7c)
    (property "Sheetname" "mega-6502" (at 49.53 46.355 0)
      (effects (font (size 1.27 1.27)) (justify left bottom))
    )
    (property "Sheetfile" "mega-6502.kicad_sch" (at 49.53 93.2946 0)
      (effects (font (size 1.27 1.27)) (justify left top))
    )
    (pin "7M" input (at 54.61 46.99 90)
      (effects (font (size 1.27 1.27)) (justify right))
      (uuid 78698d84-48fb-4ee6-be30-063f5edc14bf)
    )
    (pin "BA[15..0]" input (at 49.53 68.58 180)
      (effects (font (size 1.27 1.27)) (justify left))
      (uuid 066e6dfc-9c9b-4e23-bb53-5a3a7edfa260)
    )
    (pin "MD[7..0]" input (at 49.53 66.04 180)
      (effects (font (size 1.27 1.27)) (justify left))
      (uuid 0bb95e30-e8e5-4d4c-9396-587c3312a432)
    )
    (pin "~{KSEL[2..0]}" input (at 93.98 78.74 0)
      (effects (font (size 1.27 1.27)) (justify right))
      (uuid c07d4432-ea70-43de-854c-58688fbf9af3)
    )
    (pin "~{DMA}" input (at 85.09 46.99 90)
      (effects (font (size 1.27 1.27)) (justify right))
      (uuid 57a92e36-b5cc-4aa5-a208-4d9223266673)
    )
    (pin "~{PDLTRIG}" input (at 68.58 46.99 90)
      (effects (font (size 1.27 1.27)) (justify right))
      (uuid b2da372b-1ac2-417c-9cc3-4d61132dfbb3)
    )
    (pin "~{C060-67}" input (at 66.04 46.99 90)
      (effects (font (size 1.27 1.27)) (justify right))
      (uuid 2762415c-9760-4406-87e1-393a4772c1a4)
    )
    (pin "~{NMI}" input (at 82.55 46.99 90)
      (effects (font (size 1.27 1.27)) (justify right))
      (uuid c59d77f7-3917-4fce-bc5b-b1e3f7c6d867)
    )
    (pin "~{RDY}" input (at 87.63 46.99 90)
      (effects (font (size 1.27 1.27)) (justify right))
      (uuid 5f98fd7c-2d07-4033-898c-9a588dffb26c)
    )
    (pin "S[5..0]" input (at 93.98 74.93 0)
      (effects (font (size 1.27 1.27)) (justify right))
      (uuid cb240d5b-0be1-4fab-8467-b54deb8351ca)
    )
    (pin "PH0" input (at 62.23 46.99 90)
      (effects (font (size 1.27 1.27)) (justify right))
      (uuid aabab4a0-5168-4988-8f3c-af23ae68dd93)
    )
    (pin "Q3" input (at 59.69 46.99 90)
      (effects (font (size 1.27 1.27)) (justify right))
      (uuid fb67b824-94fd-4845-85df-a47d422f7fd3)
    )
    (pin "RW" input (at 80.01 46.99 90)
      (effects (font (size 1.27 1.27)) (justify right))
      (uuid 534fb432-d81a-4e00-996b-555be68e3c0f)
    )
    (pin "~{RESET}" input (at 72.39 46.99 90)
      (effects (font (size 1.27 1.27)) (justify right))
      (uuid d10c92f9-e81f-43a3-8e6a-236ba4245e90)
    )
    (pin "~{IRQ}" input (at 74.93 46.99 90)
      (effects (font (size 1.27 1.27)) (justify right))
      (uuid 37599965-3a2d-4e98-b1e0-32bca078fbae)
    )
    (pin "~{INH}" input (at 77.47 46.99 90)
      (effects (font (size 1.27 1.27)) (justify right))
      (uuid 3fea8766-14b5-486d-9cb6-97693595ccae)
    )
    (pin "~{SYNC}" input (at 78.74 92.71 270)
      (effects (font (size 1.27 1.27)) (justify left))
      (uuid 3f64c7ca-931f-4d77-aee9-a06a658614f2)
    )
    (pin "MDI-MDO" input (at 90.17 46.99 90)
      (effects (font (size 1.27 1.27)) (justify right))
      (uuid a2478b44-857f-4495-98db-27cae95b3230)
    )
    (pin "~{WINDOW}" input (at 81.28 92.71 270)
      (effects (font (size 1.27 1.27)) (justify left))
      (uuid 624c8c1b-f1a4-4478-bbc1-88ad13a15221)
    )
    (pin "RGB[8..1]" input (at 83.82 92.71 270)
      (effects (font (size 1.27 1.27)) (justify left))
      (uuid 79348e81-40a5-496e-8ffe-fa4f0b300f31)
    )
    (pin "SPKR" input (at 49.53 87.63 180)
      (effects (font (size 1.27 1.27)) (justify left))
      (uuid bbde3725-863a-400d-981b-5c24c1da5a97)
    )
    (pin "SERVID" input (at 76.2 92.71 270)
      (effects (font (size 1.27 1.27)) (justify left))
      (uuid 07adea36-8542-4feb-9a00-53524a9f2ac6)
    )
    (pin "14M" output (at 60.96 92.71 270)
      (effects (font (size 1.27 1.27)) (justify left))
      (uuid 92772950-877d-4654-9926-ad10a336b721)
    )
    (pin "SYNC_6502" input (at 92.71 46.99 90)
      (effects (font (size 1.27 1.27)) (justify right))
      (uuid a1b324b9-697f-493a-894d-49e43951fe74)
    )
    (pin "~{ROMEN}" output (at 49.53 79.375 180)
      (effects (font (size 1.27 1.27)) (justify left))
      (uuid 9d027a62-e1fa-4a55-9096-9639d2036390)
    )
    (instances
      (project "gd rev3"
        (path "/e63e39d7-6ac0-4ffd-8aa3-1841a4541b55" (page "2"))
      )
    )
  )

  (sheet (at 175.26 48.26) (size 43.18 44.45) (fields_autoplaced)
    (stroke (width 0.1524) (type solid))
    (fill (color 105 176 224 0.2510))
    (uuid 2042a325-d69f-458d-bba3-20db010e4abe)
    (property "Sheetname" "Slot" (at 175.26 47.5484 0)
      (effects (font (size 1.27 1.27)) (justify left bottom))
    )
    (property "Sheetfile" "slot.kicad_sch" (at 175.26 93.2946 0)
      (effects (font (size 1.27 1.27)) (justify left top))
    )
    (pin "~{IRQ}" input (at 175.26 54.61 180)
      (effects (font (size 1.27 1.27)) (justify left))
      (uuid eb93f26c-92ba-4d12-bc91-e2f501d80510)
    )
    (pin "7M" input (at 189.23 48.26 90)
      (effects (font (size 1.27 1.27)) (justify right))
      (uuid 5679a74b-390b-42a5-8c34-8628d40245a5)
    )
    (pin "Q3" input (at 191.77 48.26 90)
      (effects (font (size 1.27 1.27)) (justify right))
      (uuid 129a62f5-587e-463c-8167-1c507f3d355e)
    )
    (pin "PH0" input (at 196.85 48.26 90)
      (effects (font (size 1.27 1.27)) (justify right))
      (uuid 6cb45c07-ef4f-44bd-909c-dd6068dcff30)
    )
    (pin "~{RESET}" input (at 175.26 52.07 180)
      (effects (font (size 1.27 1.27)) (justify left))
      (uuid 2a1da311-d555-4a7b-8a2e-9f36da9d3101)
    )
    (pin "~{INH}" input (at 175.26 57.15 180)
      (effects (font (size 1.27 1.27)) (justify left))
      (uuid 83d59d51-1786-44bc-81e3-99371c5f14df)
    )
    (pin "RW" input (at 175.26 59.69 180)
      (effects (font (size 1.27 1.27)) (justify left))
      (uuid c2fd6e8a-cf07-4768-9f71-89daee566e15)
    )
    (pin "~{INTDEV6}" input (at 175.26 74.93 180)
      (effects (font (size 1.27 1.27)) (justify left))
      (uuid 5550ccd5-657d-4d69-b428-0eaf93ef9023)
    )
    (pin "~{DMA}" input (at 175.26 64.77 180)
      (effects (font (size 1.27 1.27)) (justify left))
      (uuid f16838a1-9db0-41ec-8bb7-d0635b15cb97)
    )
    (pin "~{KSEL0}" input (at 199.39 92.71 270)
      (effects (font (size 1.27 1.27)) (justify left))
      (uuid 020b49b8-f305-435a-afd9-7c653bd23e80)
    )
    (pin "~{NMI}" input (at 175.26 62.23 180)
      (effects (font (size 1.27 1.27)) (justify left))
      (uuid dd827e66-3f38-443c-a204-a7f134443854)
    )
    (pin "~{RDY}" input (at 175.26 67.31 180)
      (effects (font (size 1.27 1.27)) (justify left))
      (uuid 79c7dc00-6826-4501-b659-05dd74a9dfb3)
    )
    (pin "BA[15..0]" input (at 175.26 72.39 180)
      (effects (font (size 1.27 1.27)) (justify left))
      (uuid 0a10c914-cdd5-48b7-aef9-18c14a4812a5)
    )
    (pin "S[5..0]" input (at 175.26 81.28 180)
      (effects (font (size 1.27 1.27)) (justify left))
      (uuid bb855707-dcf0-4dcf-94e0-150cf36c4cf9)
    )
    (pin "MD[7..0]" input (at 212.09 92.71 270)
      (effects (font (size 1.27 1.27)) (justify left))
      (uuid 73b7d23b-ce7a-46a9-b5bd-499f106e88aa)
    )
    (pin "MDI-MDO" input (at 175.26 69.85 180)
      (effects (font (size 1.27 1.27)) (justify left))
      (uuid e1105698-5ced-4650-ab6f-bae3535fbeda)
    )
    (pin "AN0" output (at 218.44 67.31 0)
      (effects (font (size 1.27 1.27)) (justify right))
      (uuid 0ec8ca83-5a56-4306-af4e-0077c56ed4ee)
    )
    (pin "AN3" output (at 218.44 74.93 0)
      (effects (font (size 1.27 1.27)) (justify right))
      (uuid 4e9afd39-afde-40e7-950f-9b12fa543f16)
    )
    (pin "AN2" output (at 218.44 72.39 0)
      (effects (font (size 1.27 1.27)) (justify right))
      (uuid e3ee2c1e-1b01-4d86-b6fe-37b6b22bb437)
    )
    (pin "AN1" output (at 218.44 69.85 0)
      (effects (font (size 1.27 1.27)) (justify right))
      (uuid ee991d70-1677-458f-ac12-8344f01ec583)
    )
    (pin "SYNC_6502" input (at 175.26 77.47 180)
      (effects (font (size 1.27 1.27)) (justify left))
      (uuid 96ff135c-3e55-4cc6-87b6-03d7b084190b)
    )
    (instances
      (project "gd rev3"
        (path "/e63e39d7-6ac0-4ffd-8aa3-1841a4541b55" (page "4"))
      )
    )
  )

  (sheet (at 49.53 119.38) (size 44.45 37.465) (fields_autoplaced)
    (stroke (width 0.1524) (type solid))
    (fill (color 105 176 224 0.2510))
    (uuid 61636626-f40d-4279-9065-37c0ad74df56)
    (property "Sheetname" "video" (at 49.53 118.6684 0)
      (effects (font (size 1.27 1.27)) (justify left bottom))
    )
    (property "Sheetfile" "video.kicad_sch" (at 49.53 157.4296 0)
      (effects (font (size 1.27 1.27)) (justify left top))
    )
    (pin "SERVID" input (at 76.2 119.38 90)
      (effects (font (size 1.27 1.27)) (justify right))
      (uuid 26def639-57da-46b1-b182-648d78138e04)
    )
    (pin "~{WINDOW}" input (at 81.28 119.38 90)
      (effects (font (size 1.27 1.27)) (justify right))
      (uuid 73351a86-6533-460a-8cdb-30c1fd1002fc)
    )
    (pin "~{SYNC}" input (at 78.74 119.38 90)
      (effects (font (size 1.27 1.27)) (justify right))
      (uuid abc414a9-64d6-4fae-86d6-e3844bd206e9)
    )
    (pin "RGB[8..1]" input (at 83.82 119.38 90)
      (effects (font (size 1.27 1.27)) (justify right))
      (uuid 05e2ca04-ac84-4e54-bac9-204aa9d3c422)
    )
    (pin "14M" input (at 60.96 119.38 90)
      (effects (font (size 1.27 1.27)) (justify right))
      (uuid 469b20b7-b14a-4c0a-9513-96715ed1e9cd)
    )
    (pin "VID_RX" input (at 93.98 137.16 0)
      (effects (font (size 1.27 1.27)) (justify right))
      (uuid a0edf951-4c68-453c-860a-34e22b1d6790)
    )
    (pin "VID_TX" input (at 93.98 134.62 0)
      (effects (font (size 1.27 1.27)) (justify right))
      (uuid e4bb836a-a3af-4138-a92e-8913841b2dff)
    )
    (pin "VID_EN" input (at 93.98 139.7 0)
      (effects (font (size 1.27 1.27)) (justify right))
      (uuid df7b82b8-dd8d-4142-b7be-466e0c2d0419)
    )
    (pin "~{RESET}" input (at 63.5 119.38 90)
      (effects (font (size 1.27 1.27)) (justify right))
      (uuid e2dcda64-bdb4-406e-97df-b24eca224928)
    )
    (instances
      (project "gd rev3"
        (path "/e63e39d7-6ac0-4ffd-8aa3-1841a4541b55" (page "7"))
      )
    )
  )

  (sheet (at 246.38 53.34) (size 19.05 34.29) (fields_autoplaced)
    (stroke (width 0.1524) (type solid))
    (fill (color 105 176 224 0.2510))
    (uuid 6b0f0968-35e3-452b-88fe-38abd5bf213e)
    (property "Sheetname" "game_port" (at 246.38 52.6284 0)
      (effects (font (size 1.27 1.27)) (justify left bottom))
    )
    (property "Sheetfile" "game_port.kicad_sch" (at 246.38 88.2146 0)
      (effects (font (size 1.27 1.27)) (justify left top))
    )
    (pin "AN3" input (at 246.38 74.93 180)
      (effects (font (size 1.27 1.27)) (justify left))
      (uuid b23b1fe6-bf39-4fc3-946f-c02e6aacc68b)
    )
    (pin "AN0" input (at 246.38 67.31 180)
      (effects (font (size 1.27 1.27)) (justify left))
      (uuid 5f4eca05-079c-4462-8bbf-b38334da4993)
    )
    (pin "AN2" input (at 246.38 72.39 180)
      (effects (font (size 1.27 1.27)) (justify left))
      (uuid cf712974-89f7-42e4-aeb4-d781f3ce5d41)
    )
    (pin "AN1" input (at 246.38 69.85 180)
      (effects (font (size 1.27 1.27)) (justify left))
      (uuid 834a28e9-20e3-4b45-8f6e-a78f460e3a95)
    )
    (pin "~{PDLTRIG}" input (at 246.38 59.69 180)
      (effects (font (size 1.27 1.27)) (justify left))
      (uuid 653d210a-c16c-4fce-ba5a-d5d244f08c04)
    )
    (pin "MD7" output (at 246.38 85.09 180)
      (effects (font (size 1.27 1.27)) (justify left))
      (uuid ffa3b275-c1b8-4bd6-906d-217486f189a5)
    )
    (pin "SW0_OAPL" output (at 246.38 78.74 180)
      (effects (font (size 1.27 1.27)) (justify left))
      (uuid 2bdb495a-2ecb-4399-b60e-b4599a0426e3)
    )
    (pin "~{C060-67}" input (at 246.38 57.15 180)
      (effects (font (size 1.27 1.27)) (justify left))
      (uuid 05cb83dc-3775-496b-bb02-63079460bcdb)
    )
    (pin "SW1_CAPL" output (at 246.38 81.28 180)
      (effects (font (size 1.27 1.27)) (justify left))
      (uuid 29722e8c-1b4e-4f04-9d32-897c963f66bb)
    )
    (pin "BA0" input (at 265.43 63.5 0)
      (effects (font (size 1.27 1.27)) (justify right))
      (uuid 52331698-0761-4dc4-9a7a-962032f1317e)
    )
    (pin "BA1" input (at 265.43 66.04 0)
      (effects (font (size 1.27 1.27)) (justify right))
      (uuid 5405bf19-98ce-4b9a-beb4-fa028d3de3cd)
    )
    (pin "BA2" input (at 265.43 68.58 0)
      (effects (font (size 1.27 1.27)) (justify right))
      (uuid 0075ff85-79f8-4bf6-873e-1888dc598918)
    )
    (instances
      (project "gd rev3"
        (path "/e63e39d7-6ac0-4ffd-8aa3-1841a4541b55" (page "9"))
      )
    )
  )

  (sheet (at 49.53 167.64) (size 38.1 16.51) (fields_autoplaced)
    (stroke (width 0.1524) (type solid))
    (fill (color 105 176 224 0.2510))
    (uuid 7f413a4b-3e53-4fa0-9479-601cfc2d3c7d)
    (property "Sheetname" "Audio" (at 49.53 166.9284 0)
      (effects (font (size 1.27 1.27)) (justify left bottom))
    )
    (property "Sheetfile" "Audio.kicad_sch" (at 49.53 184.7346 0)
      (effects (font (size 1.27 1.27)) (justify left top))
    )
    (pin "AUD_SDA" input (at 87.63 172.72 0)
      (effects (font (size 1.27 1.27)) (justify right))
      (uuid d382e04d-f199-4550-a3a4-3490c85b956f)
    )
    (pin "AUD_SCL" input (at 87.63 175.26 0)
      (effects (font (size 1.27 1.27)) (justify right))
      (uuid 1e7fbb4f-6c71-4358-beda-d2838501382e)
    )
    (pin "SPKR" input (at 49.53 175.26 180)
      (effects (font (size 1.27 1.27)) (justify left))
      (uuid 14209126-7d25-498d-a487-7dc36f95c132)
    )
    (pin "HP_Sense" input (at 87.63 177.8 0)
      (effects (font (size 1.27 1.27)) (justify right))
      (uuid 6776663b-2175-44f6-98fa-06bc4b72bd88)
    )
    (instances
      (project "gd rev3"
        (path "/e63e39d7-6ac0-4ffd-8aa3-1841a4541b55" (page "8"))
      )
    )
  )

  (sheet (at 106.68 46.99) (size 41.91 45.72) (fields_autoplaced)
    (stroke (width 0.1524) (type solid))
    (fill (color 105 176 224 0.2500))
    (uuid a9c8f5ac-a28a-4770-a319-78cb5bb789be)
    (property "Sheetname" "IWM" (at 106.68 46.2784 0)
      (effects (font (size 1.27 1.27)) (justify left bottom))
    )
    (property "Sheetfile" "iwm.kicad_sch" (at 106.68 93.2946 0)
      (effects (font (size 1.27 1.27)) (justify left top))
    )
    (pin "7M" input (at 116.84 46.99 90)
      (effects (font (size 1.27 1.27)) (justify right))
      (uuid 107eb0e7-bec7-44ff-ad6c-8dcb1958a79e)
    )
    (pin "Q3" input (at 124.46 46.99 90)
      (effects (font (size 1.27 1.27)) (justify right))
      (uuid 42482df1-9f10-47b1-a245-206650b5e4f2)
    )
    (pin "BA[15..0]" input (at 106.68 64.77 180)
      (effects (font (size 1.27 1.27)) (justify left))
      (uuid 4a0c92eb-6269-43f9-8e7a-a6cef41e564b)
    )
    (pin "~{RESET}" input (at 106.68 52.07 180)
      (effects (font (size 1.27 1.27)) (justify left))
      (uuid e18adc28-933b-48bd-a8fe-a5e9d9de1505)
    )
    (pin "MD[7..0]" input (at 106.68 69.85 180)
      (effects (font (size 1.27 1.27)) (justify left))
      (uuid 442eb65e-92c1-4675-a7aa-f19e2dc3d823)
    )
    (pin "~{INTDEV6}" input (at 148.59 74.93 0)
      (effects (font (size 1.27 1.27)) (justify right))
      (uuid 557db743-3690-431c-9b87-e2a405a2f087)
    )
    (instances
      (project "gd rev3"
        (path "/e63e39d7-6ac0-4ffd-8aa3-1841a4541b55" (page "3"))
      )
    )
  )

  (sheet (at 163.83 115.57) (size 44.45 36.83) (fields_autoplaced)
    (stroke (width 0.1524) (type solid))
    (fill (color 105 176 224 0.2510))
    (uuid adee9709-3834-4416-bb9d-b047d3f7f3b7)
    (property "Sheetname" "rp2040-keyboard" (at 163.83 114.8584 0)
      (effects (font (size 1.27 1.27)) (justify left bottom))
    )
    (property "Sheetfile" "rp2040-keyboard.kicad_sch" (at 163.83 152.9846 0)
      (effects (font (size 1.27 1.27)) (justify left top))
    )
    (pin "MD[7..0]" input (at 163.83 123.19 180)
      (effects (font (size 1.27 1.27)) (justify left))
      (uuid 3affbae8-a0dd-467f-be8d-bd7e433e3967)
    )
    (pin "PH0" input (at 191.77 152.4 270)
      (effects (font (size 1.27 1.27)) (justify left))
      (uuid 0884b84c-96cd-4b64-9a76-2c8baa433ce3)
    )
    (pin "~{RESET}" input (at 184.15 115.57 90)
      (effects (font (size 1.27 1.27)) (justify right))
      (uuid 46bfb897-37d1-49be-aaf5-67c91208daa1)
    )
    (pin "RW" input (at 190.5 115.57 90)
      (effects (font (size 1.27 1.27)) (justify right))
      (uuid b9fe650a-7621-4886-b700-3734dc5db7f4)
    )
    (pin "~{KSEL[2..0]}" input (at 163.83 127 180)
      (effects (font (size 1.27 1.27)) (justify left))
      (uuid 0d082200-9584-403c-a793-411aaa54269f)
    )
    (pin "Mega_Pwr" output (at 208.28 142.24 0)
      (effects (font (size 1.27 1.27)) (justify right))
      (uuid d6cfdc0f-f271-4dde-8954-83fcf75aad60)
    )
    (pin "Analog_Pwr" output (at 208.28 144.78 0)
      (effects (font (size 1.27 1.27)) (justify right))
      (uuid 94c54e2e-5668-4820-80d0-3749ec7fff74)
    )
    (pin "VID_EN" output (at 163.83 139.7 180)
      (effects (font (size 1.27 1.27)) (justify left))
      (uuid b6e644fd-ef72-4132-9e56-bac6753b5fca)
    )
    (pin "SW1_CAPL" output (at 208.28 127 0)
      (effects (font (size 1.27 1.27)) (justify right))
      (uuid d6a4d7aa-de7f-478d-8491-2178daa64dbf)
    )
    (pin "AUD_SDA" bidirectional (at 163.83 144.78 180)
      (effects (font (size 1.27 1.27)) (justify left))
      (uuid f0e8fc87-39e6-40f2-a979-10cf958221db)
    )
    (pin "AUD_SCL" bidirectional (at 163.83 147.32 180)
      (effects (font (size 1.27 1.27)) (justify left))
      (uuid 00528e2f-c5b1-4f42-88b1-13ff43f97270)
    )
    (pin "SW0_OAPL" output (at 208.28 124.46 0)
      (effects (font (size 1.27 1.27)) (justify right))
      (uuid 976e081b-d960-4c7e-9986-632979b18377)
    )
    (pin "KBD_RX_SCL" input (at 163.83 137.16 180)
      (effects (font (size 1.27 1.27)) (justify left))
      (uuid 5d5cca9f-f993-4157-b049-ad4e0e79210d)
    )
    (pin "KBD_TX_SDA" output (at 163.83 134.62 180)
      (effects (font (size 1.27 1.27)) (justify left))
      (uuid ba2b4507-30bd-48b2-8f62-6f9f4b200f6a)
    )
    (pin "HP_Sense" input (at 163.83 149.86 180)
      (effects (font (size 1.27 1.27)) (justify left))
      (uuid 67a76705-f818-4b20-a200-ea0863f327e2)
    )
    (instances
      (project "gd rev3"
        (path "/e63e39d7-6ac0-4ffd-8aa3-1841a4541b55" (page "5"))
      )
    )
  )

  (sheet (at 242.57 127) (size 37.465 25.4) (fields_autoplaced)
    (stroke (width 0.1524) (type solid))
    (fill (color 224 99 194 0.2510))
    (uuid c78c3992-30f5-49be-b188-a14fa5a1512a)
    (property "Sheetname" "power" (at 242.57 126.2884 0)
      (effects (font (size 1.27 1.27)) (justify left bottom))
    )
    (property "Sheetfile" "power.kicad_sch" (at 242.57 152.9846 0)
      (effects (font (size 1.27 1.27)) (justify left top))
    )
    (pin "Neg12" output (at 266.7 127 90)
      (effects (font (size 1.27 1.27)) (justify right))
      (uuid 4a679d0f-a406-43e1-a112-0ddc33e80f8f)
    )
    (pin "Pos12" output (at 262.89 127 90)
      (effects (font (size 1.27 1.27)) (justify right))
      (uuid 10ec5688-9264-4b7e-9ecd-05646a2c7033)
    )
    (pin "mega_5v" output (at 259.08 127 90)
      (effects (font (size 1.27 1.27)) (justify right))
      (uuid 5c74a678-5e40-459e-8e73-7a18c8815fc3)
    )
    (pin "stb_5v" output (at 255.27 127 90)
      (effects (font (size 1.27 1.27)) (justify right))
      (uuid ea305582-e284-4da4-bed4-294870413462)
    )
    (pin "Analog_Pwr" input (at 242.57 144.78 180)
      (effects (font (size 1.27 1.27)) (justify left))
      (uuid 655bde35-2839-422c-b610-eb2a063c168e)
    )
    (pin "Mega_Pwr" input (at 242.57 142.24 180)
      (effects (font (size 1.27 1.27)) (justify left))
      (uuid f3303121-d3f5-4ce4-b8b7-ed895b402dbc)
    )
    (instances
      (project "gd rev3"
        (path "/e63e39d7-6ac0-4ffd-8aa3-1841a4541b55" (page "6"))
      )
    )
  )

  (sheet_instances
    (path "/" (page "1"))
  )
)
