{
  "board": {
    "3dviewports": [],
    "design_settings": {
      "defaults": {
        "board_outline_line_width": 0.09999999999999999,
        "copper_line_width": 0.19999999999999998,
        "copper_text_italic": false,
        "copper_text_size_h": 1.5,
        "copper_text_size_v": 1.5,
        "copper_text_thickness": 0.3,
        "copper_text_upright": false,
        "courtyard_line_width": 0.049999999999999996,
        "dimension_precision": 4,
        "dimension_units": 3,
        "dimensions": {
          "arrow_length": 1270000,
          "extension_offset": 500000,
          "keep_text_aligned": true,
          "suppress_zeroes": false,
          "text_position": 0,
          "units_format": 1
        },
        "fab_line_width": 0.09999999999999999,
        "fab_text_italic": false,
        "fab_text_size_h": 1.0,
        "fab_text_size_v": 1.0,
        "fab_text_thickness": 0.15,
        "fab_text_upright": false,
        "other_line_width": 0.15,
        "other_text_italic": false,
        "other_text_size_h": 1.0,
        "other_text_size_v": 1.0,
        "other_text_thickness": 0.15,
        "other_text_upright": false,
        "pads": {
          "drill": 0.762,
          "height": 1.524,
          "width": 1.524
        },
        "silk_line_width": 0.19999999999999998,
        "silk_text_italic": false,
        "silk_text_size_h": 1.0,
        "silk_text_size_v": 1.0,
        "silk_text_thickness": 0.19999999999999998,
        "silk_text_upright": false,
        "zones": {
          "45_degree_only": false,
          "min_clearance": 0.20199999999999999
        }
      },
      "diff_pair_dimensions": [
        {
          "gap": 0.0,
          "via_gap": 0.0,
          "width": 0.0
        }
      ],
      "drc_exclusions": [
        "courtyards_overlap|50150001|62950001|714ad9e4-f783-4355-90aa-57e9e5ecdb57|95ff3380-d5a0-4414-a829-6a34bb34e308",
        "silk_overlap|167660000|146130000|b993606b-1deb-4138-aa65-167f88bc264f|1a2ae5ed-82f3-4720-b8ab-74745e61f71e",
        "silk_overlap|167660000|147460000|b993606b-1deb-4138-aa65-167f88bc264f|637014df-d5cd-4fc6-a7e8-300ffeb1cbec",
        "silk_overlap|167660000|148730000|b993606b-1deb-4138-aa65-167f88bc264f|bbf3ea0a-7fb4-44b7-aa1c-ac4d07f0c732",
        "silk_overlap|167660000|148730000|b993606b-1deb-4138-aa65-167f88bc264f|e9c57fc9-1f9b-4fcb-bb10-b78d43ce6502",
        "silk_overlap|167670000|139810000|da6aaf35-ce15-4ec0-9142-b59dda80f83c|7b666dac-ab39-4a4d-a67b-41b236af3a92",
        "silk_overlap|170260000|146130000|b993606b-1deb-4138-aa65-167f88bc264f|52738abb-4f8a-4230-9f7f-eda6658a6de6",
        "silk_overlap|170260000|148730000|b993606b-1deb-4138-aa65-167f88bc264f|74df0fb5-37aa-4f4f-8f57-2f4e2826c49a",
        "silk_overlap|170270000|139810000|da6aaf35-ce15-4ec0-9142-b59dda80f83c|ba00849f-7f4d-42aa-b6f5-ffc0b4de72df",
        "silk_overlap|31790000|62966042|6622856b-2470-4102-81dc-4799651b5188|fedd7c5c-8fb7-4e58-972b-49240f854e01",
        "silk_overlap|55790000|124268001|1b6832eb-7d7a-481e-8a4e-c0b56c5d1f13|d64e7def-c66b-4596-ba83-269e49184a9a",
        "silk_overlap|55790000|127268001|1b6832eb-7d7a-481e-8a4e-c0b56c5d1f13|f45f9e0a-b8ad-4407-ab77-2cd0284d4fd2",
        "silk_overlap|55790000|131768001|1b6832eb-7d7a-481e-8a4e-c0b56c5d1f13|cfad309e-f8f7-4391-9a5e-4b401b727c0f",
        "silk_overlap|55790000|134768001|1b6832eb-7d7a-481e-8a4e-c0b56c5d1f13|c2b16500-5983-4d6e-8660-3b47bdf4028e",
        "silk_overlap|55790000|150864433|1b6832eb-7d7a-481e-8a4e-c0b56c5d1f13|7e68c303-8b1f-4ae8-ad4c-e63c6816b980",
        "silk_overlap|55790000|153864433|1b6832eb-7d7a-481e-8a4e-c0b56c5d1f13|c31bf188-b1b5-405d-94ef-bb81886a8bd8",
        "silk_overlap|55790000|155114433|1b6832eb-7d7a-481e-8a4e-c0b56c5d1f13|84b62c50-b0a2-4c58-9cd1-f7245229a51f",
        "silk_overlap|55790000|158364433|0e1490a9-5a28-4db7-b670-9592644e42d7|1b6832eb-7d7a-481e-8a4e-c0b56c5d1f13",
        "silk_overlap|55790000|158364433|948b7482-2f57-4935-aec6-7cf6a66439ef|1b6832eb-7d7a-481e-8a4e-c0b56c5d1f13",
        "silk_overlap|55790000|161364433|051d18e5-d4a5-4deb-aeea-af9a595e53c9|1b6832eb-7d7a-481e-8a4e-c0b56c5d1f13",
        "silk_overlap|55790000|161364433|1b6832eb-7d7a-481e-8a4e-c0b56c5d1f13|52112220-969d-47cf-950f-52798aed971a",
        "silk_overlap|55790000|164162650|a328d2a6-721c-4f6f-8ab1-a23a5575c216|1b6832eb-7d7a-481e-8a4e-c0b56c5d1f13",
        "silk_overlap|55790000|167162650|1b6832eb-7d7a-481e-8a4e-c0b56c5d1f13|dd706c97-f8b9-4120-b043-78b469494dca",
        "silk_overlap|55790000|168412650|04d6424f-b997-49ec-b409-d6ba431453f8|1b6832eb-7d7a-481e-8a4e-c0b56c5d1f13",
        "silk_overlap|55790000|171662650|48a4da18-4c1a-40b1-8ea7-923b53ea1cd0|1b6832eb-7d7a-481e-8a4e-c0b56c5d1f13",
        "silk_overlap|55790000|171662650|91d704b9-1b40-47ab-8f01-cefc9f43b139|1b6832eb-7d7a-481e-8a4e-c0b56c5d1f13",
        "silk_overlap|55790000|174662650|977550df-05d4-407e-b220-36c5a6aaa533|1b6832eb-7d7a-481e-8a4e-c0b56c5d1f13",
        "silk_overlap|55863999|174662650|97108d20-8352-4218-a1bd-ddccf630bbaa|1b6832eb-7d7a-481e-8a4e-c0b56c5d1f13"
      ],
      "meta": {
        "version": 2
      },
      "rule_severities": {
        "annular_width": "error",
        "clearance": "error",
        "connection_width": "warning",
        "copper_edge_clearance": "error",
        "copper_sliver": "warning",
        "courtyards_overlap": "error",
        "diff_pair_gap_out_of_range": "error",
        "diff_pair_uncoupled_length_too_long": "error",
        "drill_out_of_range": "error",
        "duplicate_footprints": "warning",
        "extra_footprint": "warning",
        "footprint": "error",
        "footprint_type_mismatch": "ignore",
        "hole_clearance": "error",
        "hole_near_hole": "error",
        "invalid_outline": "error",
        "isolated_copper": "warning",
        "item_on_disabled_layer": "error",
        "items_not_allowed": "error",
        "length_out_of_range": "error",
        "lib_footprint_issues": "warning",
        "lib_footprint_mismatch": "warning",
        "malformed_courtyard": "error",
        "microvia_drill_out_of_range": "error",
        "missing_courtyard": "ignore",
        "missing_footprint": "warning",
        "net_conflict": "warning",
        "npth_inside_courtyard": "ignore",
        "padstack": "error",
        "pth_inside_courtyard": "ignore",
        "shorting_items": "error",
        "silk_edge_clearance": "warning",
        "silk_over_copper": "ignore",
        "silk_overlap": "warning",
        "skew_out_of_range": "error",
        "solder_mask_bridge": "ignore",
        "starved_thermal": "ignore",
        "text_height": "warning",
        "text_thickness": "warning",
        "through_hole_pad_without_hole": "error",
        "too_many_vias": "error",
        "track_dangling": "warning",
        "track_width": "error",
        "tracks_crossing": "error",
        "unconnected_items": "error",
        "unresolved_variable": "error",
        "via_dangling": "warning",
        "zones_intersect": "error"
      },
      "rules": {
        "allow_blind_buried_vias": false,
        "allow_microvias": false,
        "max_error": 0.005,
        "min_clearance": 0.15239999999999998,
        "min_connection": 0.0,
        "min_copper_edge_clearance": 0.0,
        "min_hole_clearance": 0.25,
        "min_hole_to_hole": 0.25,
        "min_microvia_diameter": 0.19999999999999998,
        "min_microvia_drill": 0.09999999999999999,
        "min_resolved_spokes": 2,
        "min_silk_clearance": 0.0,
        "min_text_height": 0.7999999999999999,
        "min_text_thickness": 0.08,
        "min_through_hole_diameter": 0.3,
        "min_track_width": 0.15239999999999998,
        "min_via_annular_width": 0.049999999999999996,
        "min_via_diameter": 0.39999999999999997,
        "solder_mask_clearance": 0.0,
        "solder_mask_min_width": 0.0,
        "solder_mask_to_copper_clearance": 0.0,
        "use_height_for_length_calcs": true
      },
      "teardrop_options": [
        {
          "td_allow_use_two_tracks": true,
          "td_curve_segcount": 5,
          "td_on_pad_in_zone": false,
          "td_onpadsmd": true,
          "td_onroundshapesonly": false,
          "td_ontrackend": false,
          "td_onviapad": true
        }
      ],
      "teardrop_parameters": [
        {
          "td_curve_segcount": 0,
          "td_height_ratio": 1.0,
          "td_length_ratio": 0.5,
          "td_maxheight": 2.0,
          "td_maxlen": 1.0,
          "td_target_name": "td_round_shape",
          "td_width_to_size_filter_ratio": 0.9
        },
        {
          "td_curve_segcount": 0,
          "td_height_ratio": 1.0,
          "td_length_ratio": 0.5,
          "td_maxheight": 2.0,
          "td_maxlen": 1.0,
          "td_target_name": "td_rect_shape",
          "td_width_to_size_filter_ratio": 0.9
        },
        {
          "td_curve_segcount": 0,
          "td_height_ratio": 1.0,
          "td_length_ratio": 0.5,
          "td_maxheight": 2.0,
          "td_maxlen": 1.0,
          "td_target_name": "td_track_end",
          "td_width_to_size_filter_ratio": 0.9
        }
      ],
      "track_widths": [
        0.0,
        10.0,
        20.0,
        30.0
      ],
      "via_dimensions": [
        {
          "diameter": 0.0,
          "drill": 0.0
        }
      ],
      "zones_allow_external_fillets": false,
      "zones_use_no_outline": true
    },
    "layer_presets": [],
    "viewports": []
  },
  "boards": [],
  "cvpcb": {
    "equivalence_files": []
  },
  "erc": {
    "erc_exclusions": [
      "multiple_net_names|1168400|1181100|5be87533-54be-413c-9b0b-aa3864505f9e|62506aea-3409-4e2b-b0c4-d23c465ab702|||",
      "multiple_net_names|546100|1193800|a5ba28fd-d847-4929-85bc-1da57589894c|0faa304a-8dd8-49fd-ba2f-dc7b395b816b|||",
      "multiple_net_names|647700|1193800|e59618f1-b4e4-4c3e-a5a4-0b591f272f9d|726a18e9-af76-4e73-94a1-827330a6b85a|||",
      "multiple_net_names|774700|1193800|ad854fb7-7e27-44d4-9848-a0ee50c5d3bc|d3609a77-53ff-43bb-a895-8cc8d5727abc|||"
    ],
    "meta": {
      "version": 0
    },
    "pin_map": [
      [
        0,
        0,
        0,
        0,
        0,
        0,
        1,
        0,
        0,
        0,
        0,
        2
      ],
      [
        0,
        2,
        0,
        0,
        0,
        0,
        1,
        0,
        2,
        2,
        2,
        2
      ],
      [
        0,
        0,
        0,
        0,
        0,
        0,
        1,
        0,
        0,
        0,
        1,
        2
      ],
      [
        0,
        0,
        0,
        0,
        0,
        0,
        1,
        0,
        0,
        1,
        1,
        2
      ],
      [
        0,
        0,
        0,
        0,
        0,
        0,
        1,
        0,
        0,
        0,
        0,
        2
      ],
      [
        0,
        0,
        0,
        0,
        0,
        0,
        0,
        0,
        0,
        0,
        0,
        2
      ],
      [
        1,
        1,
        1,
        1,
        1,
        0,
        1,
        1,
        1,
        1,
        1,
        2
      ],
      [
        0,
        0,
        0,
        0,
        0,
        0,
        1,
        0,
        0,
        0,
        0,
        2
      ],
      [
        0,
        2,
        0,
        0,
        0,
        0,
        1,
        0,
        2,
        2,
        2,
        2
      ],
      [
        0,
        2,
        0,
        1,
        0,
        0,
        1,
        0,
        2,
        0,
        0,
        2
      ],
      [
        0,
        2,
        1,
        1,
        0,
        0,
        1,
        0,
        2,
        0,
        0,
        2
      ],
      [
        2,
        2,
        2,
        2,
        2,
        2,
        2,
        2,
        2,
        2,
        2,
        2
      ]
    ],
    "rule_severities": {
      "bus_definition_conflict": "error",
      "bus_entry_needed": "error",
      "bus_to_bus_conflict": "error",
      "bus_to_net_conflict": "error",
      "conflicting_netclasses": "error",
      "different_unit_footprint": "error",
      "different_unit_net": "error",
      "duplicate_reference": "error",
      "duplicate_sheet_names": "error",
      "endpoint_off_grid": "warning",
      "extra_units": "error",
      "global_label_dangling": "warning",
      "hier_label_mismatch": "error",
      "label_dangling": "error",
      "lib_symbol_issues": "warning",
      "missing_bidi_pin": "warning",
      "missing_input_pin": "warning",
      "missing_power_pin": "error",
      "missing_unit": "warning",
      "multiple_net_names": "warning",
      "net_not_bus_member": "warning",
      "no_connect_connected": "warning",
      "no_connect_dangling": "warning",
      "pin_not_connected": "error",
      "pin_not_driven": "error",
      "pin_to_pin": "error",
      "power_pin_not_driven": "error",
      "similar_labels": "warning",
      "simulation_model_issue": "ignore",
      "unannotated": "error",
      "unit_value_mismatch": "error",
      "unresolved_variable": "error",
      "wire_dangling": "error"
    }
  },
  "libraries": {
    "pinned_footprint_libs": [],
    "pinned_symbol_libs": []
  },
  "meta": {
    "filename": "gd rev3.kicad_pro",
    "version": 1
  },
  "net_settings": {
    "classes": [
      {
        "bus_width": 12,
        "clearance": 0.1524,
        "diff_pair_gap": 0.25,
        "diff_pair_via_gap": 0.25,
        "diff_pair_width": 0.2,
        "line_style": 0,
        "microvia_diameter": 0.3,
        "microvia_drill": 0.1,
        "name": "Default",
        "pcb_color": "rgba(0, 0, 0, 0.000)",
        "schematic_color": "rgba(0, 0, 0, 0.000)",
        "track_width": 0.25,
        "via_diameter": 0.8,
        "via_drill": 0.4,
        "wire_width": 6
      },
      {
        "bus_width": 12,
        "clearance": 0.2032,
        "diff_pair_gap": 0.25,
        "diff_pair_via_gap": 0.25,
        "diff_pair_width": 0.2,
        "line_style": 0,
        "microvia_diameter": 0.3,
        "microvia_drill": 0.1,
        "name": "Disk Drive",
        "pcb_color": "rgba(0, 0, 0, 0.000)",
        "schematic_color": "rgba(0, 0, 0, 0.000)",
        "track_width": 0.4,
        "via_diameter": 0.8,
        "via_drill": 0.4,
        "wire_width": 6
      },
      {
        "bus_width": 12,
        "clearance": 0.1524,
        "diff_pair_gap": 0.25,
        "diff_pair_via_gap": 0.25,
        "diff_pair_width": 0.2,
        "line_style": 0,
        "microvia_diameter": 0.3,
        "microvia_drill": 0.1,
        "name": "Neg Thicc",
        "pcb_color": "rgba(0, 0, 0, 0.000)",
        "schematic_color": "rgba(0, 0, 0, 0.000)",
        "track_width": 0.508,
        "via_diameter": 0.8,
        "via_drill": 0.4,
        "wire_width": 6
      },
      {
        "bus_width": 12,
        "clearance": 0.1524,
        "diff_pair_gap": 0.25,
        "diff_pair_via_gap": 0.25,
        "diff_pair_width": 0.1524,
        "line_style": 0,
        "microvia_diameter": 0.3,
        "microvia_drill": 0.1,
        "name": "Smol Logic",
        "pcb_color": "rgba(0, 0, 0, 0.000)",
        "schematic_color": "rgba(0, 0, 0, 0.000)",
        "track_width": 0.1524,
        "via_diameter": 0.8,
        "via_drill": 0.4,
        "wire_width": 6
      },
      {
        "bus_width": 12,
        "clearance": 0.1524,
        "diff_pair_gap": 0.25,
        "diff_pair_via_gap": 0.25,
        "diff_pair_width": 0.2,
        "line_style": 0,
        "microvia_diameter": 0.3,
        "microvia_drill": 0.1,
        "name": "Smol Powers (1v1)",
        "pcb_color": "rgba(0, 0, 0, 0.000)",
        "schematic_color": "rgba(0, 0, 0, 0.000)",
        "track_width": 0.1524,
        "via_diameter": 0.8,
        "via_drill": 0.4,
        "wire_width": 6
      },
      {
        "bus_width": 12,
        "clearance": 0.1524,
        "diff_pair_gap": 0.25,
        "diff_pair_via_gap": 0.25,
        "diff_pair_width": 0.2,
        "line_style": 0,
        "microvia_diameter": 0.3,
        "microvia_drill": 0.1,
        "name": "VGA",
        "pcb_color": "rgba(0, 0, 0, 0.000)",
        "schematic_color": "rgba(0, 0, 0, 0.000)",
        "track_width": 0.1524,
        "via_diameter": 0.8,
        "via_drill": 0.4,
        "wire_width": 6
      }
    ],
    "meta": {
      "version": 3
    },
    "net_colors": null,
    "netclass_assignments": null,
    "netclass_patterns": []
  },
  "pcbnew": {
    "last_paths": {
      "gencad": "",
      "idf": "",
      "netlist": "",
      "specctra_dsn": "gd rev3.dsn",
      "step": "gd rev3-fab submit.step",
      "vrml": ""
    },
    "page_layout_descr_file": ""
  },
  "schematic": {
    "annotate_start_num": 0,
    "drawing": {
      "dashed_lines_dash_length_ratio": 12.0,
      "dashed_lines_gap_length_ratio": 3.0,
      "default_line_thickness": 6.0,
      "default_text_size": 50.0,
      "field_names": [],
      "intersheets_ref_own_page": false,
      "intersheets_ref_prefix": "",
      "intersheets_ref_short": false,
      "intersheets_ref_show": false,
      "intersheets_ref_suffix": "",
      "junction_size_choice": 3,
      "label_size_ratio": 0.375,
      "pin_symbol_size": 25.0,
      "text_offset_ratio": 0.15
    },
    "legacy_lib_dir": "",
    "legacy_lib_list": [],
    "meta": {
      "version": 1
    },
    "net_format_name": "",
    "ngspice": {
      "fix_include_paths": true,
      "fix_passive_vals": false,
      "meta": {
        "version": 0
      },
      "model_mode": 0,
      "workbook_filename": ""
    },
    "page_layout_descr_file": "C:\\Users\\balde\\Dropbox\\KiCad\\BE_Frame\\BE_Layout_OSHW.kicad_wks",
    "plot_directory": "",
    "spice_adjust_passive_values": false,
    "spice_current_sheet_as_root": false,
    "spice_external_command": "spice \"%I\"",
    "spice_model_current_sheet_as_root": true,
    "spice_save_all_currents": false,
    "spice_save_all_voltages": false,
    "subpart_first_id": 65,
    "subpart_id_separator": 0
  },
  "sheets": [
    [
      "e63e39d7-6ac0-4ffd-8aa3-1841a4541b55",
      ""
    ],
    [
      "1d17904d-638f-48f3-894f-0144911f4a7c",
      "mega-6502"
    ],
    [
      "a9c8f5ac-a28a-4770-a319-78cb5bb789be",
      "IWM"
    ],
    [
      "2042a325-d69f-458d-bba3-20db010e4abe",
      "Slot"
    ],
    [
      "adee9709-3834-4416-bb9d-b047d3f7f3b7",
      "rp2040-keyboard"
    ],
    [
      "c78c3992-30f5-49be-b188-a14fa5a1512a",
      "power"
    ],
    [
      "61636626-f40d-4279-9065-37c0ad74df56",
      "video"
    ],
    [
      "7f413a4b-3e53-4fa0-9479-601cfc2d3c7d",
      "Audio"
    ],
    [
      "6b0f0968-35e3-452b-88fe-38abd5bf213e",
      "game_port"
    ],
    [
      "1c80a2ff-bb77-49be-8f4f-a38d0eafcdbf",
      "decoder"
    ]
  ],
  "text_variables": {}
}
