(kicad_sch (version 20230121) (generator eeschema)

  (uuid ac884eb8-f36a-4e92-a2c0-1a3da5179f17)

  (paper "A4")

  (title_block
    (title "Beta Board")
    (date "2023-12-28")
    (rev "R1.0")
    (company "Tim Kuhlbusch")
    (comment 1 "Beta radiation detector")
  )

  (lib_symbols
    (symbol "Amplifier_Operational:LM358" (pin_names (offset 0.127)) (in_bom yes) (on_board yes)
      (property "Reference" "U" (at 0 5.08 0)
        (effects (font (size 1.27 1.27)) (justify left))
      )
      (property "Value" "LM358" (at 0 -5.08 0)
        (effects (font (size 1.27 1.27)) (justify left))
      )
      (property "Footprint" "" (at 0 0 0)
        (effects (font (size 1.27 1.27)) hide)
      )
      (property "Datasheet" "http://www.ti.com/lit/ds/symlink/lm2904-n.pdf" (at 0 0 0)
        (effects (font (size 1.27 1.27)) hide)
      )
      (property "ki_locked" "" (at 0 0 0)
        (effects (font (size 1.27 1.27)))
      )
      (property "ki_keywords" "dual opamp" (at 0 0 0)
        (effects (font (size 1.27 1.27)) hide)
      )
      (property "ki_description" "Low-Power, Dual Operational Amplifiers, DIP-8/SOIC-8/TO-99-8" (at 0 0 0)
        (effects (font (size 1.27 1.27)) hide)
      )
      (property "ki_fp_filters" "SOIC*3.9x4.9mm*P1.27mm* DIP*W7.62mm* TO*99* OnSemi*Micro8* TSSOP*3x3mm*P0.65mm* TSSOP*4.4x3mm*P0.65mm* MSOP*3x3mm*P0.65mm* SSOP*3.9x4.9mm*P0.635mm* LFCSP*2x2mm*P0.5mm* *SIP* SOIC*5.3x6.2mm*P1.27mm*" (at 0 0 0)
        (effects (font (size 1.27 1.27)) hide)
      )
      (symbol "LM358_1_1"
        (polyline
          (pts
            (xy -5.08 5.08)
            (xy 5.08 0)
            (xy -5.08 -5.08)
            (xy -5.08 5.08)
          )
          (stroke (width 0.254) (type default))
          (fill (type background))
        )
        (pin output line (at 7.62 0 180) (length 2.54)
          (name "~" (effects (font (size 1.27 1.27))))
          (number "1" (effects (font (size 1.27 1.27))))
        )
        (pin input line (at -7.62 -2.54 0) (length 2.54)
          (name "-" (effects (font (size 1.27 1.27))))
          (number "2" (effects (font (size 1.27 1.27))))
        )
        (pin input line (at -7.62 2.54 0) (length 2.54)
          (name "+" (effects (font (size 1.27 1.27))))
          (number "3" (effects (font (size 1.27 1.27))))
        )
      )
      (symbol "LM358_2_1"
        (polyline
          (pts
            (xy -5.08 5.08)
            (xy 5.08 0)
            (xy -5.08 -5.08)
            (xy -5.08 5.08)
          )
          (stroke (width 0.254) (type default))
          (fill (type background))
        )
        (pin input line (at -7.62 2.54 0) (length 2.54)
          (name "+" (effects (font (size 1.27 1.27))))
          (number "5" (effects (font (size 1.27 1.27))))
        )
        (pin input line (at -7.62 -2.54 0) (length 2.54)
          (name "-" (effects (font (size 1.27 1.27))))
          (number "6" (effects (font (size 1.27 1.27))))
        )
        (pin output line (at 7.62 0 180) (length 2.54)
          (name "~" (effects (font (size 1.27 1.27))))
          (number "7" (effects (font (size 1.27 1.27))))
        )
      )
      (symbol "LM358_3_1"
        (pin power_in line (at -2.54 -7.62 90) (length 3.81)
          (name "V-" (effects (font (size 1.27 1.27))))
          (number "4" (effects (font (size 1.27 1.27))))
        )
        (pin power_in line (at -2.54 7.62 270) (length 3.81)
          (name "V+" (effects (font (size 1.27 1.27))))
          (number "8" (effects (font (size 1.27 1.27))))
        )
      )
    )
    (symbol "Device:C" (pin_numbers hide) (pin_names (offset 0.254)) (in_bom yes) (on_board yes)
      (property "Reference" "C" (at 0.635 2.54 0)
        (effects (font (size 1.27 1.27)) (justify left))
      )
      (property "Value" "C" (at 0.635 -2.54 0)
        (effects (font (size 1.27 1.27)) (justify left))
      )
      (property "Footprint" "" (at 0.9652 -3.81 0)
        (effects (font (size 1.27 1.27)) hide)
      )
      (property "Datasheet" "~" (at 0 0 0)
        (effects (font (size 1.27 1.27)) hide)
      )
      (property "ki_keywords" "cap capacitor" (at 0 0 0)
        (effects (font (size 1.27 1.27)) hide)
      )
      (property "ki_description" "Unpolarized capacitor" (at 0 0 0)
        (effects (font (size 1.27 1.27)) hide)
      )
      (property "ki_fp_filters" "C_*" (at 0 0 0)
        (effects (font (size 1.27 1.27)) hide)
      )
      (symbol "C_0_1"
        (polyline
          (pts
            (xy -2.032 -0.762)
            (xy 2.032 -0.762)
          )
          (stroke (width 0.508) (type default))
          (fill (type none))
        )
        (polyline
          (pts
            (xy -2.032 0.762)
            (xy 2.032 0.762)
          )
          (stroke (width 0.508) (type default))
          (fill (type none))
        )
      )
      (symbol "C_1_1"
        (pin passive line (at 0 3.81 270) (length 2.794)
          (name "~" (effects (font (size 1.27 1.27))))
          (number "1" (effects (font (size 1.27 1.27))))
        )
        (pin passive line (at 0 -3.81 90) (length 2.794)
          (name "~" (effects (font (size 1.27 1.27))))
          (number "2" (effects (font (size 1.27 1.27))))
        )
      )
    )
    (symbol "Device:R" (pin_numbers hide) (pin_names (offset 0)) (in_bom yes) (on_board yes)
      (property "Reference" "R" (at 2.032 0 90)
        (effects (font (size 1.27 1.27)))
      )
      (property "Value" "R" (at 0 0 90)
        (effects (font (size 1.27 1.27)))
      )
      (property "Footprint" "" (at -1.778 0 90)
        (effects (font (size 1.27 1.27)) hide)
      )
      (property "Datasheet" "~" (at 0 0 0)
        (effects (font (size 1.27 1.27)) hide)
      )
      (property "ki_keywords" "R res resistor" (at 0 0 0)
        (effects (font (size 1.27 1.27)) hide)
      )
      (property "ki_description" "Resistor" (at 0 0 0)
        (effects (font (size 1.27 1.27)) hide)
      )
      (property "ki_fp_filters" "R_*" (at 0 0 0)
        (effects (font (size 1.27 1.27)) hide)
      )
      (symbol "R_0_1"
        (rectangle (start -1.016 -2.54) (end 1.016 2.54)
          (stroke (width 0.254) (type default))
          (fill (type none))
        )
      )
      (symbol "R_1_1"
        (pin passive line (at 0 3.81 270) (length 1.27)
          (name "~" (effects (font (size 1.27 1.27))))
          (number "1" (effects (font (size 1.27 1.27))))
        )
        (pin passive line (at 0 -3.81 90) (length 1.27)
          (name "~" (effects (font (size 1.27 1.27))))
          (number "2" (effects (font (size 1.27 1.27))))
        )
      )
    )
    (symbol "Diode:ZMMxx" (pin_numbers hide) (pin_names hide) (in_bom yes) (on_board yes)
      (property "Reference" "D" (at 0 2.54 0)
        (effects (font (size 1.27 1.27)))
      )
      (property "Value" "ZMMxx" (at 0 -2.54 0)
        (effects (font (size 1.27 1.27)))
      )
      (property "Footprint" "Diode_SMD:D_MiniMELF" (at 0 -4.445 0)
        (effects (font (size 1.27 1.27)) hide)
      )
      (property "Datasheet" "https://diotec.com/tl_files/diotec/files/pdf/datasheets/zmm1.pdf" (at 0 0 0)
        (effects (font (size 1.27 1.27)) hide)
      )
      (property "ki_keywords" "zener diode" (at 0 0 0)
        (effects (font (size 1.27 1.27)) hide)
      )
      (property "ki_description" "500mW Zener Diode, MiniMELF" (at 0 0 0)
        (effects (font (size 1.27 1.27)) hide)
      )
      (property "ki_fp_filters" "D*MiniMELF*" (at 0 0 0)
        (effects (font (size 1.27 1.27)) hide)
      )
      (symbol "ZMMxx_0_1"
        (polyline
          (pts
            (xy 1.27 0)
            (xy -1.27 0)
          )
          (stroke (width 0) (type default))
          (fill (type none))
        )
        (polyline
          (pts
            (xy -1.27 -1.27)
            (xy -1.27 1.27)
            (xy -0.762 1.27)
          )
          (stroke (width 0.254) (type default))
          (fill (type none))
        )
        (polyline
          (pts
            (xy 1.27 -1.27)
            (xy 1.27 1.27)
            (xy -1.27 0)
            (xy 1.27 -1.27)
          )
          (stroke (width 0.254) (type default))
          (fill (type none))
        )
      )
      (symbol "ZMMxx_1_1"
        (pin passive line (at -3.81 0 0) (length 2.54)
          (name "K" (effects (font (size 1.27 1.27))))
          (number "1" (effects (font (size 1.27 1.27))))
        )
        (pin passive line (at 3.81 0 180) (length 2.54)
          (name "A" (effects (font (size 1.27 1.27))))
          (number "2" (effects (font (size 1.27 1.27))))
        )
      )
    )
    (symbol "power:+3V3" (power) (pin_names (offset 0)) (in_bom yes) (on_board yes)
      (property "Reference" "#PWR" (at 0 -3.81 0)
        (effects (font (size 1.27 1.27)) hide)
      )
      (property "Value" "+3V3" (at 0 3.556 0)
        (effects (font (size 1.27 1.27)))
      )
      (property "Footprint" "" (at 0 0 0)
        (effects (font (size 1.27 1.27)) hide)
      )
      (property "Datasheet" "" (at 0 0 0)
        (effects (font (size 1.27 1.27)) hide)
      )
      (property "ki_keywords" "global power" (at 0 0 0)
        (effects (font (size 1.27 1.27)) hide)
      )
      (property "ki_description" "Power symbol creates a global label with name \"+3V3\"" (at 0 0 0)
        (effects (font (size 1.27 1.27)) hide)
      )
      (symbol "+3V3_0_1"
        (polyline
          (pts
            (xy -0.762 1.27)
            (xy 0 2.54)
          )
          (stroke (width 0) (type default))
          (fill (type none))
        )
        (polyline
          (pts
            (xy 0 0)
            (xy 0 2.54)
          )
          (stroke (width 0) (type default))
          (fill (type none))
        )
        (polyline
          (pts
            (xy 0 2.54)
            (xy 0.762 1.27)
          )
          (stroke (width 0) (type default))
          (fill (type none))
        )
      )
      (symbol "+3V3_1_1"
        (pin power_in line (at 0 0 90) (length 0) hide
          (name "+3V3" (effects (font (size 1.27 1.27))))
          (number "1" (effects (font (size 1.27 1.27))))
        )
      )
    )
    (symbol "power:GND" (power) (pin_names (offset 0)) (in_bom yes) (on_board yes)
      (property "Reference" "#PWR" (at 0 -6.35 0)
        (effects (font (size 1.27 1.27)) hide)
      )
      (property "Value" "GND" (at 0 -3.81 0)
        (effects (font (size 1.27 1.27)))
      )
      (property "Footprint" "" (at 0 0 0)
        (effects (font (size 1.27 1.27)) hide)
      )
      (property "Datasheet" "" (at 0 0 0)
        (effects (font (size 1.27 1.27)) hide)
      )
      (property "ki_keywords" "global power" (at 0 0 0)
        (effects (font (size 1.27 1.27)) hide)
      )
      (property "ki_description" "Power symbol creates a global label with name \"GND\" , ground" (at 0 0 0)
        (effects (font (size 1.27 1.27)) hide)
      )
      (symbol "GND_0_1"
        (polyline
          (pts
            (xy 0 0)
            (xy 0 -1.27)
            (xy 1.27 -1.27)
            (xy 0 -2.54)
            (xy -1.27 -1.27)
            (xy 0 -1.27)
          )
          (stroke (width 0) (type default))
          (fill (type none))
        )
      )
      (symbol "GND_1_1"
        (pin power_in line (at 0 0 270) (length 0) hide
          (name "GND" (effects (font (size 1.27 1.27))))
          (number "1" (effects (font (size 1.27 1.27))))
        )
      )
    )
    (symbol "power:VCC" (power) (pin_names (offset 0)) (in_bom yes) (on_board yes)
      (property "Reference" "#PWR" (at 0 -3.81 0)
        (effects (font (size 1.27 1.27)) hide)
      )
      (property "Value" "VCC" (at 0 3.81 0)
        (effects (font (size 1.27 1.27)))
      )
      (property "Footprint" "" (at 0 0 0)
        (effects (font (size 1.27 1.27)) hide)
      )
      (property "Datasheet" "" (at 0 0 0)
        (effects (font (size 1.27 1.27)) hide)
      )
      (property "ki_keywords" "global power" (at 0 0 0)
        (effects (font (size 1.27 1.27)) hide)
      )
      (property "ki_description" "Power symbol creates a global label with name \"VCC\"" (at 0 0 0)
        (effects (font (size 1.27 1.27)) hide)
      )
      (symbol "VCC_0_1"
        (polyline
          (pts
            (xy -0.762 1.27)
            (xy 0 2.54)
          )
          (stroke (width 0) (type default))
          (fill (type none))
        )
        (polyline
          (pts
            (xy 0 0)
            (xy 0 2.54)
          )
          (stroke (width 0) (type default))
          (fill (type none))
        )
        (polyline
          (pts
            (xy 0 2.54)
            (xy 0.762 1.27)
          )
          (stroke (width 0) (type default))
          (fill (type none))
        )
      )
      (symbol "VCC_1_1"
        (pin power_in line (at 0 0 90) (length 0) hide
          (name "VCC" (effects (font (size 1.27 1.27))))
          (number "1" (effects (font (size 1.27 1.27))))
        )
      )
    )
  )

  (junction (at 155.575 125.095) (diameter 0) (color 0 0 0 0)
    (uuid 025f1d30-da9c-457b-b72e-ca6306f6f918)
  )
  (junction (at 142.875 136.525) (diameter 0) (color 0 0 0 0)
    (uuid 0d29b451-df79-4fe2-974e-3506f56119d7)
  )
  (junction (at 62.865 49.53) (diameter 0) (color 0 0 0 0)
    (uuid 10800715-57ca-429e-8c7f-5dc7efe0ea8a)
  )
  (junction (at 161.925 103.505) (diameter 0) (color 0 0 0 0)
    (uuid 43ec8418-34db-4dd5-afa5-099f40f69c96)
  )
  (junction (at 125.73 87.63) (diameter 0) (color 0 0 0 0)
    (uuid 5f07e262-69e8-4b7b-9df0-e19fd5bbd881)
  )
  (junction (at 99.695 100.965) (diameter 0) (color 0 0 0 0)
    (uuid 80b10fd6-e21e-4feb-abf8-6df53ef36a93)
  )
  (junction (at 161.925 90.17) (diameter 0) (color 0 0 0 0)
    (uuid a44ce929-8751-4566-b43f-028d511e5e7b)
  )
  (junction (at 179.705 90.17) (diameter 0) (color 0 0 0 0)
    (uuid ab289e4e-55c5-4663-8ef7-3c355d3cf49f)
  )
  (junction (at 155.575 136.525) (diameter 0) (color 0 0 0 0)
    (uuid b4a0fd88-83f3-49f8-bffd-4600bbe13250)
  )
  (junction (at 204.47 106.045) (diameter 0) (color 0 0 0 0)
    (uuid ba556022-136e-40ab-98a8-ed589ded8f8e)
  )
  (junction (at 95.885 120.015) (diameter 0) (color 0 0 0 0)
    (uuid c6d53f02-03a6-46dd-a584-45bd6af6f115)
  )
  (junction (at 125.73 103.505) (diameter 0) (color 0 0 0 0)
    (uuid e4726969-3e96-4a36-b73b-eb218c1d84e6)
  )
  (junction (at 179.705 106.045) (diameter 0) (color 0 0 0 0)
    (uuid e815d394-2f25-451b-94b5-ef7a9cea571c)
  )
  (junction (at 99.695 87.63) (diameter 0) (color 0 0 0 0)
    (uuid f0e2c3d8-1508-490b-adb2-c99515a9e920)
  )
  (junction (at 62.865 64.77) (diameter 0) (color 0 0 0 0)
    (uuid f1cc9581-7c32-4735-8a8a-8e7dc7a7f1c0)
  )

  (wire (pts (xy 62.865 49.53) (xy 73.66 49.53))
    (stroke (width 0) (type default))
    (uuid 05124b28-8006-4831-8f95-7c25a708ed0e)
  )
  (wire (pts (xy 198.755 106.045) (xy 204.47 106.045))
    (stroke (width 0) (type default))
    (uuid 060f14c3-b9b2-4704-92a8-7021068bf22c)
  )
  (wire (pts (xy 73.66 64.77) (xy 73.66 60.96))
    (stroke (width 0) (type default))
    (uuid 0b085c0a-b25b-4273-893d-7fa33b65ef07)
  )
  (wire (pts (xy 162.56 125.095) (xy 162.56 108.585))
    (stroke (width 0) (type default))
    (uuid 0ee4a7b6-5d77-4e5c-accd-db2350478eec)
  )
  (wire (pts (xy 179.705 79.375) (xy 179.705 90.17))
    (stroke (width 0) (type default))
    (uuid 141570ed-f7e5-4afb-a9c9-e96d3098b050)
  )
  (wire (pts (xy 95.885 120.015) (xy 105.41 120.015))
    (stroke (width 0) (type default))
    (uuid 1464931e-6039-4f12-a52c-b8c083e6e35c)
  )
  (wire (pts (xy 132.715 103.505) (xy 125.73 103.505))
    (stroke (width 0) (type default))
    (uuid 15ae665c-5dc5-462c-891e-f12890160f3b)
  )
  (wire (pts (xy 108.585 87.63) (xy 99.695 87.63))
    (stroke (width 0) (type default))
    (uuid 161168fd-0394-474e-8c33-26c4aceda4b5)
  )
  (wire (pts (xy 155.575 125.095) (xy 162.56 125.095))
    (stroke (width 0) (type default))
    (uuid 1a0d1bf8-f0b8-4d66-810f-0fdf825ce54e)
  )
  (wire (pts (xy 179.705 90.17) (xy 179.705 106.045))
    (stroke (width 0) (type default))
    (uuid 1c27bfba-c873-424f-8953-367b0e8f1ab8)
  )
  (wire (pts (xy 73.66 49.53) (xy 73.66 53.34))
    (stroke (width 0) (type default))
    (uuid 1ef1c74e-b7f3-45a7-a4df-2dcbcff864a0)
  )
  (wire (pts (xy 204.47 136.525) (xy 204.47 124.46))
    (stroke (width 0) (type default))
    (uuid 1ffb7a06-f9ca-41ed-8a73-35678ce3d74a)
  )
  (wire (pts (xy 103.505 74.93) (xy 99.695 74.93))
    (stroke (width 0) (type default))
    (uuid 2315700b-963d-4f71-8f6f-b5be7010d0b3)
  )
  (wire (pts (xy 167.005 90.17) (xy 161.925 90.17))
    (stroke (width 0) (type default))
    (uuid 2d32e456-2835-4ed1-814b-4ea16138c798)
  )
  (wire (pts (xy 155.575 139.065) (xy 155.575 136.525))
    (stroke (width 0) (type default))
    (uuid 3bbe828a-dc6f-4bf7-8690-2328f7e22bb8)
  )
  (wire (pts (xy 155.575 136.525) (xy 142.875 136.525))
    (stroke (width 0) (type default))
    (uuid 40865606-79b9-4b10-9a52-18220ae2b8ca)
  )
  (wire (pts (xy 155.575 136.525) (xy 204.47 136.525))
    (stroke (width 0) (type default))
    (uuid 57085488-67f6-482c-b94b-d362dff8dfdf)
  )
  (wire (pts (xy 156.845 103.505) (xy 161.925 103.505))
    (stroke (width 0) (type default))
    (uuid 6442ca16-7ddc-43fe-be7e-89bec4ecf06d)
  )
  (wire (pts (xy 204.47 116.84) (xy 204.47 106.045))
    (stroke (width 0) (type default))
    (uuid 65bcf206-4b60-4968-93b1-64047ae46608)
  )
  (wire (pts (xy 99.695 100.965) (xy 105.41 100.965))
    (stroke (width 0) (type default))
    (uuid 6c93e7d3-9014-4c50-8550-553742611f0c)
  )
  (wire (pts (xy 174.625 79.375) (xy 179.705 79.375))
    (stroke (width 0) (type default))
    (uuid 6dfa06f0-f0d2-434a-b788-5e2fe7ccd4fe)
  )
  (wire (pts (xy 125.73 87.63) (xy 125.73 103.505))
    (stroke (width 0) (type default))
    (uuid 7210e3f6-1ab2-401f-a619-eb169a3afcb2)
  )
  (wire (pts (xy 161.925 79.375) (xy 167.005 79.375))
    (stroke (width 0) (type default))
    (uuid 7c183986-a760-4209-9050-acb2c6c96eb8)
  )
  (wire (pts (xy 179.705 106.045) (xy 177.8 106.045))
    (stroke (width 0) (type default))
    (uuid 814fc572-a662-434a-9ca2-5314cf40044c)
  )
  (wire (pts (xy 155.575 136.525) (xy 155.575 132.715))
    (stroke (width 0) (type default))
    (uuid 828fd224-5d47-41a3-b3f3-4358b19f9d17)
  )
  (wire (pts (xy 142.875 136.525) (xy 95.885 136.525))
    (stroke (width 0) (type default))
    (uuid 845173e8-4af5-458d-a485-072e0454e6f3)
  )
  (wire (pts (xy 142.875 132.715) (xy 142.875 136.525))
    (stroke (width 0) (type default))
    (uuid 88883117-0ea9-41e0-81c7-1cf933ee669d)
  )
  (wire (pts (xy 99.695 74.93) (xy 99.695 87.63))
    (stroke (width 0) (type default))
    (uuid 89e8ee95-f3d8-4c27-abf3-49088866e08a)
  )
  (wire (pts (xy 161.925 103.505) (xy 162.56 103.505))
    (stroke (width 0) (type default))
    (uuid 9394b92d-6a54-4411-907c-1c0f6881c1f9)
  )
  (wire (pts (xy 116.205 87.63) (xy 125.73 87.63))
    (stroke (width 0) (type default))
    (uuid 94bbe6b6-030b-428f-acab-581eef9cef0f)
  )
  (wire (pts (xy 174.625 90.17) (xy 179.705 90.17))
    (stroke (width 0) (type default))
    (uuid a5da2972-be1e-44be-8c2a-99267f0635f1)
  )
  (wire (pts (xy 121.285 74.93) (xy 125.73 74.93))
    (stroke (width 0) (type default))
    (uuid abf515d4-166a-4769-95b8-927e67ee1971)
  )
  (wire (pts (xy 120.65 103.505) (xy 125.73 103.505))
    (stroke (width 0) (type default))
    (uuid b9e023c3-7241-4c2e-a359-32b61fba8798)
  )
  (wire (pts (xy 99.695 87.63) (xy 99.695 100.965))
    (stroke (width 0) (type default))
    (uuid bc9c96dc-015f-449c-acbc-9aa465b148fd)
  )
  (wire (pts (xy 204.47 106.045) (xy 219.075 106.045))
    (stroke (width 0) (type default))
    (uuid c0159d11-3e21-4ad1-a6cd-d5361e00a53b)
  )
  (wire (pts (xy 95.885 136.525) (xy 95.885 127.635))
    (stroke (width 0) (type default))
    (uuid c1aef09a-8f44-4188-adb4-18af19152da7)
  )
  (wire (pts (xy 179.705 106.045) (xy 191.135 106.045))
    (stroke (width 0) (type default))
    (uuid c71c413a-90c4-4cb0-a32b-a9d40ee4da4f)
  )
  (wire (pts (xy 111.125 74.93) (xy 113.665 74.93))
    (stroke (width 0) (type default))
    (uuid c88f8b87-2bee-4526-9a18-f4ef2b679505)
  )
  (wire (pts (xy 62.865 64.77) (xy 73.66 64.77))
    (stroke (width 0) (type default))
    (uuid d4d64551-962f-43a8-ad3c-5be9b4a0df74)
  )
  (wire (pts (xy 149.225 103.505) (xy 140.335 103.505))
    (stroke (width 0) (type default))
    (uuid dcc2dc67-fe70-4e99-bf48-aff7ff390890)
  )
  (wire (pts (xy 142.875 125.095) (xy 155.575 125.095))
    (stroke (width 0) (type default))
    (uuid df0e58b7-8cbe-48b0-b958-fd06ea55b508)
  )
  (wire (pts (xy 105.41 106.045) (xy 105.41 120.015))
    (stroke (width 0) (type default))
    (uuid dffcd295-83fe-494a-b1c4-6dfc9519ef4e)
  )
  (wire (pts (xy 125.73 74.93) (xy 125.73 87.63))
    (stroke (width 0) (type default))
    (uuid e25e13c3-9931-4c02-93cc-015e4b1a1fee)
  )
  (wire (pts (xy 83.185 100.965) (xy 99.695 100.965))
    (stroke (width 0) (type default))
    (uuid e7ad86d4-c963-4974-a720-b2e0622e40e8)
  )
  (wire (pts (xy 161.925 90.17) (xy 161.925 103.505))
    (stroke (width 0) (type default))
    (uuid ed67fc78-6d7f-4e4f-bb09-8f9dba7657de)
  )
  (wire (pts (xy 161.925 90.17) (xy 161.925 79.375))
    (stroke (width 0) (type default))
    (uuid f0490839-77b3-493f-adb1-7723e44ec53d)
  )

  (text "LM358: 3V .. 30V" (at 66.04 46.99 0)
    (effects (font (size 1.27 1.27)) (justify left bottom))
    (uuid 0492c7cc-daea-4c57-867f-9ffb39c6b793)
  )
  (text "RC-LPF with 3.4 kHz" (at 159.385 69.215 0)
    (effects (font (size 1.27 1.27)) (justify left bottom))
    (uuid 1937e0a0-505e-4bb4-b029-c0be9a4e5b6a)
  )
  (text "Inspired by:\nhttps://github.com/ozel/DIY_particle_detector/blob/master/hardware/V1.2/documentation/DIY%20particle%20detector%20schematic%20v1-2.pdf"
    (at 45.72 24.765 0)
    (effects (font (size 1.27 1.27)) (justify left bottom))
    (uuid 1caea77d-af30-4651-8915-ff5e2135977d)
  )
  (text "5V -> 3V8" (at 81.915 111.76 0)
    (effects (font (size 1.27 1.27)) (justify left bottom))
    (uuid 5daad098-e45b-4031-8c87-eabf388e3ae1)
  )
  (text "RC-LPF with 1.7 kHz" (at 102.235 64.77 0)
    (effects (font (size 1.27 1.27)) (justify left bottom))
    (uuid 78ff7321-7840-4548-b952-1c2d07cfb686)
  )
  (text "10pF is the smallest\nbasic component at JLC" (at 100.33 53.34 0)
    (effects (font (size 1.27 1.27)) (justify left bottom))
    (uuid 87f02a8d-1065-44a3-973d-3379f80000a1)
  )
  (text "Biased at 3V3/2\n=> good for ADC" (at 165.1 127 0)
    (effects (font (size 1.27 1.27)) (justify left bottom))
    (uuid 9fde70ff-1c1a-47b8-9ff5-63e251066f06)
  )
  (text "This is a bit risky:\n\nLM358 Datasheet:\n-> min. 3.3V into 2kOhm with 5V supply\n\nSupply voltage is USB - diode_drop - cable_drop\n-> Probably closer to 4V"
    (at 42.545 127 0)
    (effects (font (size 1.27 1.27)) (justify left bottom))
    (uuid c49cdd52-3a54-4b53-9483-50320972bf3d)
  )

  (hierarchical_label "out" (shape output) (at 219.075 106.045 0) (fields_autoplaced)
    (effects (font (size 1.27 1.27)) (justify left))
    (uuid 3b0d9ed5-e34c-432c-821d-75ecc4dd857b)
  )
  (hierarchical_label "Diodes" (shape bidirectional) (at 83.185 100.965 180) (fields_autoplaced)
    (effects (font (size 1.27 1.27)) (justify right))
    (uuid fb74673f-b08d-4265-aa1f-40e31f4c9ef9)
  )

  (symbol (lib_id "Device:R") (at 112.395 87.63 270) (unit 1)
    (in_bom yes) (on_board yes) (dnp no) (fields_autoplaced)
    (uuid 00155a6c-c35f-4605-998d-9a0f2322921f)
    (property "Reference" "R23" (at 112.395 81.915 90)
      (effects (font (size 1.27 1.27)))
    )
    (property "Value" "47M" (at 112.395 84.455 90)
      (effects (font (size 1.27 1.27)))
    )
    (property "Footprint" "Resistor_SMD:R_0603_1608Metric" (at 112.395 85.852 90)
      (effects (font (size 1.27 1.27)) hide)
    )
    (property "Datasheet" "~" (at 112.395 87.63 0)
      (effects (font (size 1.27 1.27)) hide)
    )
    (pin "1" (uuid 4c2548bb-e75f-49c4-8c21-d87fdc35c91a))
    (pin "2" (uuid e1cb908e-cdc2-4bd6-b217-d870e3765835))
    (instances
      (project "betaBoard"
        (path "/3d37b943-9a24-43ad-9fbf-b901b38695ce/a19c94be-85f2-45d0-b8ae-fe772296c136"
          (reference "R23") (unit 1)
        )
        (path "/3d37b943-9a24-43ad-9fbf-b901b38695ce/cd42d678-88a0-4889-b461-e4aa141e3c58"
          (reference "R31") (unit 1)
        )
        (path "/3d37b943-9a24-43ad-9fbf-b901b38695ce/617ca541-d0cd-4a41-a58b-d194673edcc6"
          (reference "R39") (unit 1)
        )
        (path "/3d37b943-9a24-43ad-9fbf-b901b38695ce/1d31b165-afd9-4178-8caf-a7fc7b259f97"
          (reference "R15") (unit 1)
        )
      )
    )
  )

  (symbol (lib_id "power:GND") (at 155.575 139.065 0) (unit 1)
    (in_bom yes) (on_board yes) (dnp no) (fields_autoplaced)
    (uuid 0b7ad7a5-78fe-42b0-b5b0-3aa5d83d6454)
    (property "Reference" "#PWR040" (at 155.575 145.415 0)
      (effects (font (size 1.27 1.27)) hide)
    )
    (property "Value" "GND" (at 155.575 143.51 0)
      (effects (font (size 1.27 1.27)))
    )
    (property "Footprint" "" (at 155.575 139.065 0)
      (effects (font (size 1.27 1.27)) hide)
    )
    (property "Datasheet" "" (at 155.575 139.065 0)
      (effects (font (size 1.27 1.27)) hide)
    )
    (pin "1" (uuid 82c49875-3d19-49e7-aa89-c568f94c17b3))
    (instances
      (project "betaBoard"
        (path "/3d37b943-9a24-43ad-9fbf-b901b38695ce/a19c94be-85f2-45d0-b8ae-fe772296c136"
          (reference "#PWR040") (unit 1)
        )
        (path "/3d37b943-9a24-43ad-9fbf-b901b38695ce/cd42d678-88a0-4889-b461-e4aa141e3c58"
          (reference "#PWR045") (unit 1)
        )
        (path "/3d37b943-9a24-43ad-9fbf-b901b38695ce/617ca541-d0cd-4a41-a58b-d194673edcc6"
          (reference "#PWR050") (unit 1)
        )
        (path "/3d37b943-9a24-43ad-9fbf-b901b38695ce/1d31b165-afd9-4178-8caf-a7fc7b259f97"
          (reference "#PWR035") (unit 1)
        )
      )
    )
  )

  (symbol (lib_id "Device:C") (at 107.315 74.93 90) (unit 1)
    (in_bom yes) (on_board yes) (dnp no) (fields_autoplaced)
    (uuid 112a7373-be1e-42d8-a393-e8c201c358a6)
    (property "Reference" "C25" (at 107.315 67.31 90)
      (effects (font (size 1.27 1.27)))
    )
    (property "Value" "10p" (at 107.315 69.85 90)
      (effects (font (size 1.27 1.27)))
    )
    (property "Footprint" "Capacitor_SMD:C_0603_1608Metric" (at 111.125 73.9648 0)
      (effects (font (size 1.27 1.27)) hide)
    )
    (property "Datasheet" "~" (at 107.315 74.93 0)
      (effects (font (size 1.27 1.27)) hide)
    )
    (pin "1" (uuid e40a379f-3bd9-4063-bf4c-e9dfcacfdda8))
    (pin "2" (uuid 5b0eaca9-792d-46e4-97a4-0b0e6c14e2f0))
    (instances
      (project "betaBoard"
        (path "/3d37b943-9a24-43ad-9fbf-b901b38695ce/a19c94be-85f2-45d0-b8ae-fe772296c136"
          (reference "C25") (unit 1)
        )
        (path "/3d37b943-9a24-43ad-9fbf-b901b38695ce/cd42d678-88a0-4889-b461-e4aa141e3c58"
          (reference "C31") (unit 1)
        )
        (path "/3d37b943-9a24-43ad-9fbf-b901b38695ce/617ca541-d0cd-4a41-a58b-d194673edcc6"
          (reference "C37") (unit 1)
        )
        (path "/3d37b943-9a24-43ad-9fbf-b901b38695ce/1d31b165-afd9-4178-8caf-a7fc7b259f97"
          (reference "C19") (unit 1)
        )
      )
    )
  )

  (symbol (lib_id "Amplifier_Operational:LM358") (at 113.03 103.505 0) (mirror x) (unit 1)
    (in_bom yes) (on_board yes) (dnp no) (fields_autoplaced)
    (uuid 21dc7376-99bb-4e78-a245-d5144ad9f8f1)
    (property "Reference" "U5" (at 113.03 93.345 0)
      (effects (font (size 1.27 1.27)))
    )
    (property "Value" "LM358" (at 113.03 95.885 0)
      (effects (font (size 1.27 1.27)))
    )
    (property "Footprint" "Package_SO:SOIC-8_3.9x4.9mm_P1.27mm" (at 113.03 103.505 0)
      (effects (font (size 1.27 1.27)) hide)
    )
    (property "Datasheet" "http://www.ti.com/lit/ds/symlink/lm2904-n.pdf" (at 113.03 103.505 0)
      (effects (font (size 1.27 1.27)) hide)
    )
    (pin "1" (uuid f82aa95a-b533-487f-b3bd-3a42186950f0))
    (pin "2" (uuid 3b327de9-e15f-4bbd-9b4a-b12a14bc4bfe))
    (pin "3" (uuid 2362a9c1-ab15-4a4d-9b47-4a1eb2e7e475))
    (pin "5" (uuid b9c33d23-87b3-4f08-8ea1-303b96d14189))
    (pin "6" (uuid 619b18f4-5c42-4eed-8684-e27d454ebccf))
    (pin "7" (uuid ef55aff4-bcdc-4f4d-992a-320e21caa018))
    (pin "4" (uuid 6b965c26-9a6a-4a2c-9aa7-21cdb7528a09))
    (pin "8" (uuid 3d419c85-6d7a-4fa4-89d8-a31b82759683))
    (instances
      (project "betaBoard"
        (path "/3d37b943-9a24-43ad-9fbf-b901b38695ce/a19c94be-85f2-45d0-b8ae-fe772296c136"
          (reference "U5") (unit 1)
        )
        (path "/3d37b943-9a24-43ad-9fbf-b901b38695ce/cd42d678-88a0-4889-b461-e4aa141e3c58"
          (reference "U6") (unit 1)
        )
        (path "/3d37b943-9a24-43ad-9fbf-b901b38695ce/617ca541-d0cd-4a41-a58b-d194673edcc6"
          (reference "U7") (unit 1)
        )
        (path "/3d37b943-9a24-43ad-9fbf-b901b38695ce/1d31b165-afd9-4178-8caf-a7fc7b259f97"
          (reference "U4") (unit 1)
        )
      )
    )
  )

  (symbol (lib_id "Amplifier_Operational:LM358") (at 65.405 57.15 0) (unit 3)
    (in_bom yes) (on_board yes) (dnp no) (fields_autoplaced)
    (uuid 3cc2bdee-3720-4e20-9d58-d2667cbbab98)
    (property "Reference" "U5" (at 63.5 55.8799 0)
      (effects (font (size 1.27 1.27)) (justify left))
    )
    (property "Value" "LM358" (at 63.5 58.4199 0)
      (effects (font (size 1.27 1.27)) (justify left))
    )
    (property "Footprint" "Package_SO:SOIC-8_3.9x4.9mm_P1.27mm" (at 65.405 57.15 0)
      (effects (font (size 1.27 1.27)) hide)
    )
    (property "Datasheet" "http://www.ti.com/lit/ds/symlink/lm2904-n.pdf" (at 65.405 57.15 0)
      (effects (font (size 1.27 1.27)) hide)
    )
    (pin "1" (uuid 8385b921-c2ac-42ab-9774-e26dc0c755c5))
    (pin "2" (uuid dfefcef3-9e10-4d75-8cec-f6463a9a362f))
    (pin "3" (uuid e845b35b-9888-4015-a5ee-b51d80f53497))
    (pin "5" (uuid d0c69ce2-fa22-422d-9188-4ca0371c0f76))
    (pin "6" (uuid c13c8eb0-13be-4cc0-bfd8-1edc8798e280))
    (pin "7" (uuid 8827462a-c636-4875-b827-8197553427d2))
    (pin "4" (uuid d81cf837-561e-4b44-8dec-8aa2cf04780c))
    (pin "8" (uuid 22b6dec6-c85c-48ae-8ec4-49ebaccf3dc6))
    (instances
      (project "betaBoard"
        (path "/3d37b943-9a24-43ad-9fbf-b901b38695ce/a19c94be-85f2-45d0-b8ae-fe772296c136"
          (reference "U5") (unit 3)
        )
        (path "/3d37b943-9a24-43ad-9fbf-b901b38695ce/cd42d678-88a0-4889-b461-e4aa141e3c58"
          (reference "U6") (unit 3)
        )
        (path "/3d37b943-9a24-43ad-9fbf-b901b38695ce/617ca541-d0cd-4a41-a58b-d194673edcc6"
          (reference "U7") (unit 3)
        )
        (path "/3d37b943-9a24-43ad-9fbf-b901b38695ce/1d31b165-afd9-4178-8caf-a7fc7b259f97"
          (reference "U4") (unit 3)
        )
      )
    )
  )

  (symbol (lib_id "Device:R") (at 194.945 106.045 270) (unit 1)
    (in_bom yes) (on_board yes) (dnp no) (fields_autoplaced)
    (uuid 493f1692-500d-49b3-bd7f-2eaf72e540fc)
    (property "Reference" "R28" (at 194.945 100.33 90)
      (effects (font (size 1.27 1.27)))
    )
    (property "Value" "10k" (at 194.945 102.87 90)
      (effects (font (size 1.27 1.27)))
    )
    (property "Footprint" "Resistor_SMD:R_0603_1608Metric" (at 194.945 104.267 90)
      (effects (font (size 1.27 1.27)) hide)
    )
    (property "Datasheet" "~" (at 194.945 106.045 0)
      (effects (font (size 1.27 1.27)) hide)
    )
    (pin "1" (uuid 9f11f311-b955-4cd6-9cb3-d301222be979))
    (pin "2" (uuid 4b51187f-16c5-43b7-bd8c-bdbad45d6447))
    (instances
      (project "betaBoard"
        (path "/3d37b943-9a24-43ad-9fbf-b901b38695ce/a19c94be-85f2-45d0-b8ae-fe772296c136"
          (reference "R28") (unit 1)
        )
        (path "/3d37b943-9a24-43ad-9fbf-b901b38695ce/cd42d678-88a0-4889-b461-e4aa141e3c58"
          (reference "R36") (unit 1)
        )
        (path "/3d37b943-9a24-43ad-9fbf-b901b38695ce/617ca541-d0cd-4a41-a58b-d194673edcc6"
          (reference "R44") (unit 1)
        )
        (path "/3d37b943-9a24-43ad-9fbf-b901b38695ce/1d31b165-afd9-4178-8caf-a7fc7b259f97"
          (reference "R20") (unit 1)
        )
      )
    )
  )

  (symbol (lib_id "Device:R") (at 95.885 116.205 0) (mirror y) (unit 1)
    (in_bom yes) (on_board yes) (dnp no) (fields_autoplaced)
    (uuid 502e97e7-6480-44b4-823c-36625e0f58c9)
    (property "Reference" "R21" (at 97.79 114.9349 0)
      (effects (font (size 1.27 1.27)) (justify right))
    )
    (property "Value" "4k7" (at 97.79 117.4749 0)
      (effects (font (size 1.27 1.27)) (justify right))
    )
    (property "Footprint" "Resistor_SMD:R_0603_1608Metric" (at 97.663 116.205 90)
      (effects (font (size 1.27 1.27)) hide)
    )
    (property "Datasheet" "~" (at 95.885 116.205 0)
      (effects (font (size 1.27 1.27)) hide)
    )
    (pin "1" (uuid 5600d9f6-9e9b-4fa9-b490-b6485fd88a7e))
    (pin "2" (uuid cd87e2c3-5cf8-4adc-aeb7-e218aee9fb15))
    (instances
      (project "betaBoard"
        (path "/3d37b943-9a24-43ad-9fbf-b901b38695ce/a19c94be-85f2-45d0-b8ae-fe772296c136"
          (reference "R21") (unit 1)
        )
        (path "/3d37b943-9a24-43ad-9fbf-b901b38695ce/cd42d678-88a0-4889-b461-e4aa141e3c58"
          (reference "R29") (unit 1)
        )
        (path "/3d37b943-9a24-43ad-9fbf-b901b38695ce/617ca541-d0cd-4a41-a58b-d194673edcc6"
          (reference "R37") (unit 1)
        )
        (path "/3d37b943-9a24-43ad-9fbf-b901b38695ce/1d31b165-afd9-4178-8caf-a7fc7b259f97"
          (reference "R13") (unit 1)
        )
      )
    )
  )

  (symbol (lib_id "Device:R") (at 153.035 103.505 270) (unit 1)
    (in_bom yes) (on_board yes) (dnp no) (fields_autoplaced)
    (uuid 57fb9b2c-d5b9-4fd2-9eab-94b57b3daa4f)
    (property "Reference" "R24" (at 153.035 97.79 90)
      (effects (font (size 1.27 1.27)))
    )
    (property "Value" "4K7" (at 153.035 100.33 90)
      (effects (font (size 1.27 1.27)))
    )
    (property "Footprint" "Resistor_SMD:R_0603_1608Metric" (at 153.035 101.727 90)
      (effects (font (size 1.27 1.27)) hide)
    )
    (property "Datasheet" "~" (at 153.035 103.505 0)
      (effects (font (size 1.27 1.27)) hide)
    )
    (pin "1" (uuid 793d8af8-1d0d-487d-81b9-298c333a28a3))
    (pin "2" (uuid e9b3fe9a-10bc-41a6-95b5-bce36fba6144))
    (instances
      (project "betaBoard"
        (path "/3d37b943-9a24-43ad-9fbf-b901b38695ce/a19c94be-85f2-45d0-b8ae-fe772296c136"
          (reference "R24") (unit 1)
        )
        (path "/3d37b943-9a24-43ad-9fbf-b901b38695ce/cd42d678-88a0-4889-b461-e4aa141e3c58"
          (reference "R32") (unit 1)
        )
        (path "/3d37b943-9a24-43ad-9fbf-b901b38695ce/617ca541-d0cd-4a41-a58b-d194673edcc6"
          (reference "R40") (unit 1)
        )
        (path "/3d37b943-9a24-43ad-9fbf-b901b38695ce/1d31b165-afd9-4178-8caf-a7fc7b259f97"
          (reference "R16") (unit 1)
        )
      )
    )
  )

  (symbol (lib_id "power:VCC") (at 62.865 49.53 0) (unit 1)
    (in_bom yes) (on_board yes) (dnp no) (fields_autoplaced)
    (uuid 58bf31c9-b193-4bac-9a61-1872331af817)
    (property "Reference" "#PWR036" (at 62.865 53.34 0)
      (effects (font (size 1.27 1.27)) hide)
    )
    (property "Value" "VCC" (at 62.865 44.45 0)
      (effects (font (size 1.27 1.27)))
    )
    (property "Footprint" "" (at 62.865 49.53 0)
      (effects (font (size 1.27 1.27)) hide)
    )
    (property "Datasheet" "" (at 62.865 49.53 0)
      (effects (font (size 1.27 1.27)) hide)
    )
    (pin "1" (uuid e13e3f5c-fc6e-4660-b381-b49e6d1e57cd))
    (instances
      (project "betaBoard"
        (path "/3d37b943-9a24-43ad-9fbf-b901b38695ce/a19c94be-85f2-45d0-b8ae-fe772296c136"
          (reference "#PWR036") (unit 1)
        )
        (path "/3d37b943-9a24-43ad-9fbf-b901b38695ce/cd42d678-88a0-4889-b461-e4aa141e3c58"
          (reference "#PWR041") (unit 1)
        )
        (path "/3d37b943-9a24-43ad-9fbf-b901b38695ce/617ca541-d0cd-4a41-a58b-d194673edcc6"
          (reference "#PWR046") (unit 1)
        )
        (path "/3d37b943-9a24-43ad-9fbf-b901b38695ce/1d31b165-afd9-4178-8caf-a7fc7b259f97"
          (reference "#PWR031") (unit 1)
        )
      )
    )
  )

  (symbol (lib_id "Device:R") (at 155.575 121.285 180) (unit 1)
    (in_bom yes) (on_board yes) (dnp no) (fields_autoplaced)
    (uuid 5ef20d25-8d0f-4d06-8e49-9f4699abd73e)
    (property "Reference" "R25" (at 157.48 120.0149 0)
      (effects (font (size 1.27 1.27)) (justify right))
    )
    (property "Value" "10k" (at 157.48 122.5549 0)
      (effects (font (size 1.27 1.27)) (justify right))
    )
    (property "Footprint" "Resistor_SMD:R_0603_1608Metric" (at 157.353 121.285 90)
      (effects (font (size 1.27 1.27)) hide)
    )
    (property "Datasheet" "~" (at 155.575 121.285 0)
      (effects (font (size 1.27 1.27)) hide)
    )
    (pin "1" (uuid 877421df-62ea-4a46-a417-a084d543dc77))
    (pin "2" (uuid abe69900-554f-4b43-80a9-f2caa1a8c5fd))
    (instances
      (project "betaBoard"
        (path "/3d37b943-9a24-43ad-9fbf-b901b38695ce/a19c94be-85f2-45d0-b8ae-fe772296c136"
          (reference "R25") (unit 1)
        )
        (path "/3d37b943-9a24-43ad-9fbf-b901b38695ce/cd42d678-88a0-4889-b461-e4aa141e3c58"
          (reference "R33") (unit 1)
        )
        (path "/3d37b943-9a24-43ad-9fbf-b901b38695ce/617ca541-d0cd-4a41-a58b-d194673edcc6"
          (reference "R41") (unit 1)
        )
        (path "/3d37b943-9a24-43ad-9fbf-b901b38695ce/1d31b165-afd9-4178-8caf-a7fc7b259f97"
          (reference "R17") (unit 1)
        )
      )
    )
  )

  (symbol (lib_id "Device:R") (at 170.815 90.17 270) (unit 1)
    (in_bom yes) (on_board yes) (dnp no) (fields_autoplaced)
    (uuid 86726051-9def-4980-8ce5-d5b18c2855e8)
    (property "Reference" "R27" (at 170.815 84.455 90)
      (effects (font (size 1.27 1.27)))
    )
    (property "Value" "1M" (at 170.815 86.995 90)
      (effects (font (size 1.27 1.27)))
    )
    (property "Footprint" "Resistor_SMD:R_0603_1608Metric" (at 170.815 88.392 90)
      (effects (font (size 1.27 1.27)) hide)
    )
    (property "Datasheet" "~" (at 170.815 90.17 0)
      (effects (font (size 1.27 1.27)) hide)
    )
    (pin "1" (uuid d292f05a-c5f6-43ec-a29c-da537490ae54))
    (pin "2" (uuid 0149b475-fa8f-424f-8d8f-f49134b06844))
    (instances
      (project "betaBoard"
        (path "/3d37b943-9a24-43ad-9fbf-b901b38695ce/a19c94be-85f2-45d0-b8ae-fe772296c136"
          (reference "R27") (unit 1)
        )
        (path "/3d37b943-9a24-43ad-9fbf-b901b38695ce/cd42d678-88a0-4889-b461-e4aa141e3c58"
          (reference "R35") (unit 1)
        )
        (path "/3d37b943-9a24-43ad-9fbf-b901b38695ce/617ca541-d0cd-4a41-a58b-d194673edcc6"
          (reference "R43") (unit 1)
        )
        (path "/3d37b943-9a24-43ad-9fbf-b901b38695ce/1d31b165-afd9-4178-8caf-a7fc7b259f97"
          (reference "R19") (unit 1)
        )
      )
    )
  )

  (symbol (lib_id "power:VCC") (at 95.885 112.395 0) (unit 1)
    (in_bom yes) (on_board yes) (dnp no) (fields_autoplaced)
    (uuid b3af2e00-f519-4f0f-bf9c-4c3534e127d0)
    (property "Reference" "#PWR038" (at 95.885 116.205 0)
      (effects (font (size 1.27 1.27)) hide)
    )
    (property "Value" "VCC" (at 95.885 107.315 0)
      (effects (font (size 1.27 1.27)))
    )
    (property "Footprint" "" (at 95.885 112.395 0)
      (effects (font (size 1.27 1.27)) hide)
    )
    (property "Datasheet" "" (at 95.885 112.395 0)
      (effects (font (size 1.27 1.27)) hide)
    )
    (pin "1" (uuid 8d2d88a8-6e07-4258-b9ec-24227bc8e1da))
    (instances
      (project "betaBoard"
        (path "/3d37b943-9a24-43ad-9fbf-b901b38695ce/a19c94be-85f2-45d0-b8ae-fe772296c136"
          (reference "#PWR038") (unit 1)
        )
        (path "/3d37b943-9a24-43ad-9fbf-b901b38695ce/cd42d678-88a0-4889-b461-e4aa141e3c58"
          (reference "#PWR043") (unit 1)
        )
        (path "/3d37b943-9a24-43ad-9fbf-b901b38695ce/617ca541-d0cd-4a41-a58b-d194673edcc6"
          (reference "#PWR048") (unit 1)
        )
        (path "/3d37b943-9a24-43ad-9fbf-b901b38695ce/1d31b165-afd9-4178-8caf-a7fc7b259f97"
          (reference "#PWR033") (unit 1)
        )
      )
    )
  )

  (symbol (lib_id "Amplifier_Operational:LM358") (at 170.18 106.045 0) (mirror x) (unit 2)
    (in_bom yes) (on_board yes) (dnp no) (fields_autoplaced)
    (uuid b6d94f22-c4a2-4ad8-bfc5-874f2b6802fa)
    (property "Reference" "U5" (at 170.18 95.25 0)
      (effects (font (size 1.27 1.27)))
    )
    (property "Value" "LM358" (at 170.18 97.79 0)
      (effects (font (size 1.27 1.27)))
    )
    (property "Footprint" "Package_SO:SOIC-8_3.9x4.9mm_P1.27mm" (at 170.18 106.045 0)
      (effects (font (size 1.27 1.27)) hide)
    )
    (property "Datasheet" "http://www.ti.com/lit/ds/symlink/lm2904-n.pdf" (at 170.18 106.045 0)
      (effects (font (size 1.27 1.27)) hide)
    )
    (pin "1" (uuid 129f8fad-b085-4072-8967-9d196c909dfc))
    (pin "2" (uuid 845bb7b5-0b58-4214-9058-016c02eb85a0))
    (pin "3" (uuid 535f2e56-9202-49d1-b22f-4f64faf594b1))
    (pin "5" (uuid 820e1d1c-1741-4af0-83f9-4bb1fefc7c44))
    (pin "6" (uuid cab14ccb-95fa-4900-a42f-671e3a9aec12))
    (pin "7" (uuid 513d6fc8-dfc4-4a9f-a503-6fddd60e9ba9))
    (pin "4" (uuid df54b252-3c3d-4e85-967a-0e3aca1b42ba))
    (pin "8" (uuid e9dacca5-03ff-4b5a-a17c-d79bbb93acee))
    (instances
      (project "betaBoard"
        (path "/3d37b943-9a24-43ad-9fbf-b901b38695ce/a19c94be-85f2-45d0-b8ae-fe772296c136"
          (reference "U5") (unit 2)
        )
        (path "/3d37b943-9a24-43ad-9fbf-b901b38695ce/cd42d678-88a0-4889-b461-e4aa141e3c58"
          (reference "U6") (unit 2)
        )
        (path "/3d37b943-9a24-43ad-9fbf-b901b38695ce/617ca541-d0cd-4a41-a58b-d194673edcc6"
          (reference "U7") (unit 2)
        )
        (path "/3d37b943-9a24-43ad-9fbf-b901b38695ce/1d31b165-afd9-4178-8caf-a7fc7b259f97"
          (reference "U4") (unit 2)
        )
      )
    )
  )

  (symbol (lib_id "Diode:ZMMxx") (at 204.47 120.65 270) (unit 1)
    (in_bom yes) (on_board yes) (dnp no) (fields_autoplaced)
    (uuid b7ff655a-6171-4459-a28f-f2f55373fb2f)
    (property "Reference" "D21" (at 207.01 119.3799 90)
      (effects (font (size 1.27 1.27)) (justify left))
    )
    (property "Value" "ZMM3V3-M" (at 207.01 121.9199 90)
      (effects (font (size 1.27 1.27)) (justify left))
    )
    (property "Footprint" "Diode_SMD:D_MiniMELF" (at 200.025 120.65 0)
      (effects (font (size 1.27 1.27)) hide)
    )
    (property "Datasheet" "https://diotec.com/tl_files/diotec/files/pdf/datasheets/zmm1.pdf" (at 204.47 120.65 0)
      (effects (font (size 1.27 1.27)) hide)
    )
    (pin "1" (uuid d8c0c419-df9a-4700-8486-2e7a405abe63))
    (pin "2" (uuid b1075a15-6237-47f6-9887-124ca5c82137))
    (instances
      (project "betaBoard"
        (path "/3d37b943-9a24-43ad-9fbf-b901b38695ce/a19c94be-85f2-45d0-b8ae-fe772296c136"
          (reference "D21") (unit 1)
        )
        (path "/3d37b943-9a24-43ad-9fbf-b901b38695ce/cd42d678-88a0-4889-b461-e4aa141e3c58"
          (reference "D22") (unit 1)
        )
        (path "/3d37b943-9a24-43ad-9fbf-b901b38695ce/617ca541-d0cd-4a41-a58b-d194673edcc6"
          (reference "D23") (unit 1)
        )
        (path "/3d37b943-9a24-43ad-9fbf-b901b38695ce/1d31b165-afd9-4178-8caf-a7fc7b259f97"
          (reference "D20") (unit 1)
        )
      )
    )
  )

  (symbol (lib_id "Device:R") (at 95.885 123.825 0) (mirror y) (unit 1)
    (in_bom yes) (on_board yes) (dnp no) (fields_autoplaced)
    (uuid bc9425ac-eb43-4874-aaca-8378b327a005)
    (property "Reference" "R22" (at 97.79 122.5549 0)
      (effects (font (size 1.27 1.27)) (justify right))
    )
    (property "Value" "15k" (at 97.79 125.0949 0)
      (effects (font (size 1.27 1.27)) (justify right))
    )
    (property "Footprint" "Resistor_SMD:R_0603_1608Metric" (at 97.663 123.825 90)
      (effects (font (size 1.27 1.27)) hide)
    )
    (property "Datasheet" "~" (at 95.885 123.825 0)
      (effects (font (size 1.27 1.27)) hide)
    )
    (pin "1" (uuid fa1ca7f3-c4e4-41ea-b39a-01a55b62d783))
    (pin "2" (uuid 9ed56c5f-8bb4-4551-91ea-601263037c6b))
    (instances
      (project "betaBoard"
        (path "/3d37b943-9a24-43ad-9fbf-b901b38695ce/a19c94be-85f2-45d0-b8ae-fe772296c136"
          (reference "R22") (unit 1)
        )
        (path "/3d37b943-9a24-43ad-9fbf-b901b38695ce/cd42d678-88a0-4889-b461-e4aa141e3c58"
          (reference "R30") (unit 1)
        )
        (path "/3d37b943-9a24-43ad-9fbf-b901b38695ce/617ca541-d0cd-4a41-a58b-d194673edcc6"
          (reference "R38") (unit 1)
        )
        (path "/3d37b943-9a24-43ad-9fbf-b901b38695ce/1d31b165-afd9-4178-8caf-a7fc7b259f97"
          (reference "R14") (unit 1)
        )
      )
    )
  )

  (symbol (lib_id "Device:C") (at 117.475 74.93 90) (unit 1)
    (in_bom yes) (on_board yes) (dnp no) (fields_autoplaced)
    (uuid c5555898-0bef-4cc3-accf-effbffd8d470)
    (property "Reference" "C26" (at 117.475 67.31 90)
      (effects (font (size 1.27 1.27)))
    )
    (property "Value" "10p" (at 117.475 69.85 90)
      (effects (font (size 1.27 1.27)))
    )
    (property "Footprint" "Capacitor_SMD:C_0603_1608Metric" (at 121.285 73.9648 0)
      (effects (font (size 1.27 1.27)) hide)
    )
    (property "Datasheet" "~" (at 117.475 74.93 0)
      (effects (font (size 1.27 1.27)) hide)
    )
    (pin "1" (uuid 8addb5fb-5c78-488e-965a-ad8bb51d47cf))
    (pin "2" (uuid abeb0e1d-f8b8-4d66-ad6d-20a653e894b1))
    (instances
      (project "betaBoard"
        (path "/3d37b943-9a24-43ad-9fbf-b901b38695ce/a19c94be-85f2-45d0-b8ae-fe772296c136"
          (reference "C26") (unit 1)
        )
        (path "/3d37b943-9a24-43ad-9fbf-b901b38695ce/cd42d678-88a0-4889-b461-e4aa141e3c58"
          (reference "C32") (unit 1)
        )
        (path "/3d37b943-9a24-43ad-9fbf-b901b38695ce/617ca541-d0cd-4a41-a58b-d194673edcc6"
          (reference "C38") (unit 1)
        )
        (path "/3d37b943-9a24-43ad-9fbf-b901b38695ce/1d31b165-afd9-4178-8caf-a7fc7b259f97"
          (reference "C20") (unit 1)
        )
      )
    )
  )

  (symbol (lib_id "Device:C") (at 73.66 57.15 0) (unit 1)
    (in_bom yes) (on_board yes) (dnp no) (fields_autoplaced)
    (uuid c7d4c430-00c4-48ba-bd32-1c6877236a34)
    (property "Reference" "C24" (at 77.47 55.8799 0)
      (effects (font (size 1.27 1.27)) (justify left))
    )
    (property "Value" "100n" (at 77.47 58.4199 0)
      (effects (font (size 1.27 1.27)) (justify left))
    )
    (property "Footprint" "Capacitor_SMD:C_0603_1608Metric" (at 74.6252 60.96 0)
      (effects (font (size 1.27 1.27)) hide)
    )
    (property "Datasheet" "~" (at 73.66 57.15 0)
      (effects (font (size 1.27 1.27)) hide)
    )
    (pin "1" (uuid 8c007e0b-57d0-4142-9624-568cb4eafc26))
    (pin "2" (uuid 56b235db-03f7-4ed6-ba75-864d45420a7d))
    (instances
      (project "betaBoard"
        (path "/3d37b943-9a24-43ad-9fbf-b901b38695ce/a19c94be-85f2-45d0-b8ae-fe772296c136"
          (reference "C24") (unit 1)
        )
        (path "/3d37b943-9a24-43ad-9fbf-b901b38695ce/cd42d678-88a0-4889-b461-e4aa141e3c58"
          (reference "C30") (unit 1)
        )
        (path "/3d37b943-9a24-43ad-9fbf-b901b38695ce/617ca541-d0cd-4a41-a58b-d194673edcc6"
          (reference "C36") (unit 1)
        )
        (path "/3d37b943-9a24-43ad-9fbf-b901b38695ce/1d31b165-afd9-4178-8caf-a7fc7b259f97"
          (reference "C18") (unit 1)
        )
      )
    )
  )

  (symbol (lib_id "power:+3V3") (at 155.575 117.475 0) (unit 1)
    (in_bom yes) (on_board yes) (dnp no) (fields_autoplaced)
    (uuid d29abc0a-f053-4f03-ae6c-c784f70cdf14)
    (property "Reference" "#PWR039" (at 155.575 121.285 0)
      (effects (font (size 1.27 1.27)) hide)
    )
    (property "Value" "+3V3" (at 155.575 111.76 0)
      (effects (font (size 1.27 1.27)))
    )
    (property "Footprint" "" (at 155.575 117.475 0)
      (effects (font (size 1.27 1.27)) hide)
    )
    (property "Datasheet" "" (at 155.575 117.475 0)
      (effects (font (size 1.27 1.27)) hide)
    )
    (pin "1" (uuid 1d6d1837-2db8-46dc-9694-10982834dcb6))
    (instances
      (project "betaBoard"
        (path "/3d37b943-9a24-43ad-9fbf-b901b38695ce/a19c94be-85f2-45d0-b8ae-fe772296c136"
          (reference "#PWR039") (unit 1)
        )
        (path "/3d37b943-9a24-43ad-9fbf-b901b38695ce/cd42d678-88a0-4889-b461-e4aa141e3c58"
          (reference "#PWR044") (unit 1)
        )
        (path "/3d37b943-9a24-43ad-9fbf-b901b38695ce/617ca541-d0cd-4a41-a58b-d194673edcc6"
          (reference "#PWR049") (unit 1)
        )
        (path "/3d37b943-9a24-43ad-9fbf-b901b38695ce/1d31b165-afd9-4178-8caf-a7fc7b259f97"
          (reference "#PWR034") (unit 1)
        )
      )
    )
  )

  (symbol (lib_id "Device:R") (at 155.575 128.905 180) (unit 1)
    (in_bom yes) (on_board yes) (dnp no) (fields_autoplaced)
    (uuid d99cb9ca-2a8f-4060-8c2b-237e44b72ead)
    (property "Reference" "R26" (at 157.48 127.6349 0)
      (effects (font (size 1.27 1.27)) (justify right))
    )
    (property "Value" "10k" (at 157.48 130.1749 0)
      (effects (font (size 1.27 1.27)) (justify right))
    )
    (property "Footprint" "Resistor_SMD:R_0603_1608Metric" (at 157.353 128.905 90)
      (effects (font (size 1.27 1.27)) hide)
    )
    (property "Datasheet" "~" (at 155.575 128.905 0)
      (effects (font (size 1.27 1.27)) hide)
    )
    (pin "1" (uuid 4d0b61c5-4bfa-4cf6-95a0-66710465db52))
    (pin "2" (uuid 99912474-4928-41e4-b6a2-b53fc6d8bbcc))
    (instances
      (project "betaBoard"
        (path "/3d37b943-9a24-43ad-9fbf-b901b38695ce/a19c94be-85f2-45d0-b8ae-fe772296c136"
          (reference "R26") (unit 1)
        )
        (path "/3d37b943-9a24-43ad-9fbf-b901b38695ce/cd42d678-88a0-4889-b461-e4aa141e3c58"
          (reference "R34") (unit 1)
        )
        (path "/3d37b943-9a24-43ad-9fbf-b901b38695ce/617ca541-d0cd-4a41-a58b-d194673edcc6"
          (reference "R42") (unit 1)
        )
        (path "/3d37b943-9a24-43ad-9fbf-b901b38695ce/1d31b165-afd9-4178-8caf-a7fc7b259f97"
          (reference "R18") (unit 1)
        )
      )
    )
  )

  (symbol (lib_id "power:GND") (at 62.865 64.77 0) (unit 1)
    (in_bom yes) (on_board yes) (dnp no) (fields_autoplaced)
    (uuid dcd7ec33-3574-456e-9a9e-854766c9105c)
    (property "Reference" "#PWR037" (at 62.865 71.12 0)
      (effects (font (size 1.27 1.27)) hide)
    )
    (property "Value" "GND" (at 62.865 69.85 0)
      (effects (font (size 1.27 1.27)))
    )
    (property "Footprint" "" (at 62.865 64.77 0)
      (effects (font (size 1.27 1.27)) hide)
    )
    (property "Datasheet" "" (at 62.865 64.77 0)
      (effects (font (size 1.27 1.27)) hide)
    )
    (pin "1" (uuid 42ccae20-c22f-47b9-84ac-84c7b404e149))
    (instances
      (project "betaBoard"
        (path "/3d37b943-9a24-43ad-9fbf-b901b38695ce/a19c94be-85f2-45d0-b8ae-fe772296c136"
          (reference "#PWR037") (unit 1)
        )
        (path "/3d37b943-9a24-43ad-9fbf-b901b38695ce/cd42d678-88a0-4889-b461-e4aa141e3c58"
          (reference "#PWR042") (unit 1)
        )
        (path "/3d37b943-9a24-43ad-9fbf-b901b38695ce/617ca541-d0cd-4a41-a58b-d194673edcc6"
          (reference "#PWR047") (unit 1)
        )
        (path "/3d37b943-9a24-43ad-9fbf-b901b38695ce/1d31b165-afd9-4178-8caf-a7fc7b259f97"
          (reference "#PWR032") (unit 1)
        )
      )
    )
  )

  (symbol (lib_id "Device:C") (at 142.875 128.905 0) (unit 1)
    (in_bom yes) (on_board yes) (dnp no) (fields_autoplaced)
    (uuid e48a3f26-61fa-4061-9fbc-58f17ee1c211)
    (property "Reference" "C28" (at 146.685 127.6349 0)
      (effects (font (size 1.27 1.27)) (justify left))
    )
    (property "Value" "100n" (at 146.685 130.1749 0)
      (effects (font (size 1.27 1.27)) (justify left))
    )
    (property "Footprint" "Capacitor_SMD:C_0603_1608Metric" (at 143.8402 132.715 0)
      (effects (font (size 1.27 1.27)) hide)
    )
    (property "Datasheet" "~" (at 142.875 128.905 0)
      (effects (font (size 1.27 1.27)) hide)
    )
    (pin "1" (uuid a57fe0ca-453f-4ff4-9a47-a0827189d0f2))
    (pin "2" (uuid cbab4f7b-ffff-4734-9d51-d13bdbbb99b5))
    (instances
      (project "betaBoard"
        (path "/3d37b943-9a24-43ad-9fbf-b901b38695ce/a19c94be-85f2-45d0-b8ae-fe772296c136"
          (reference "C28") (unit 1)
        )
        (path "/3d37b943-9a24-43ad-9fbf-b901b38695ce/cd42d678-88a0-4889-b461-e4aa141e3c58"
          (reference "C34") (unit 1)
        )
        (path "/3d37b943-9a24-43ad-9fbf-b901b38695ce/617ca541-d0cd-4a41-a58b-d194673edcc6"
          (reference "C40") (unit 1)
        )
        (path "/3d37b943-9a24-43ad-9fbf-b901b38695ce/1d31b165-afd9-4178-8caf-a7fc7b259f97"
          (reference "C22") (unit 1)
        )
      )
    )
  )

  (symbol (lib_id "Device:C") (at 170.815 79.375 90) (mirror x) (unit 1)
    (in_bom yes) (on_board yes) (dnp no) (fields_autoplaced)
    (uuid ebb496ed-5b81-4e11-985b-5310a1d2fc53)
    (property "Reference" "C29" (at 170.815 72.39 90)
      (effects (font (size 1.27 1.27)))
    )
    (property "Value" "47p" (at 170.815 74.93 90)
      (effects (font (size 1.27 1.27)))
    )
    (property "Footprint" "Capacitor_SMD:C_0603_1608Metric" (at 174.625 80.3402 0)
      (effects (font (size 1.27 1.27)) hide)
    )
    (property "Datasheet" "~" (at 170.815 79.375 0)
      (effects (font (size 1.27 1.27)) hide)
    )
    (pin "1" (uuid 284b5d84-e006-4162-aa60-622056c8be69))
    (pin "2" (uuid f15877fb-1244-4c5b-91a1-61d8a5393720))
    (instances
      (project "betaBoard"
        (path "/3d37b943-9a24-43ad-9fbf-b901b38695ce/a19c94be-85f2-45d0-b8ae-fe772296c136"
          (reference "C29") (unit 1)
        )
        (path "/3d37b943-9a24-43ad-9fbf-b901b38695ce/cd42d678-88a0-4889-b461-e4aa141e3c58"
          (reference "C35") (unit 1)
        )
        (path "/3d37b943-9a24-43ad-9fbf-b901b38695ce/617ca541-d0cd-4a41-a58b-d194673edcc6"
          (reference "C41") (unit 1)
        )
        (path "/3d37b943-9a24-43ad-9fbf-b901b38695ce/1d31b165-afd9-4178-8caf-a7fc7b259f97"
          (reference "C23") (unit 1)
        )
      )
    )
  )

  (symbol (lib_id "Device:C") (at 136.525 103.505 90) (mirror x) (unit 1)
    (in_bom yes) (on_board yes) (dnp no) (fields_autoplaced)
    (uuid fd920679-22fc-4304-92c2-0020a3b549ea)
    (property "Reference" "C27" (at 136.525 95.885 90)
      (effects (font (size 1.27 1.27)))
    )
    (property "Value" "470n" (at 136.525 98.425 90)
      (effects (font (size 1.27 1.27)))
    )
    (property "Footprint" "Capacitor_SMD:C_0603_1608Metric" (at 140.335 104.4702 0)
      (effects (font (size 1.27 1.27)) hide)
    )
    (property "Datasheet" "~" (at 136.525 103.505 0)
      (effects (font (size 1.27 1.27)) hide)
    )
    (pin "1" (uuid 34fac2f6-4c7b-4e27-9c04-6d3bfdb2cf58))
    (pin "2" (uuid 441665a3-7454-415b-bec8-c24bd35fa4ff))
    (instances
      (project "betaBoard"
        (path "/3d37b943-9a24-43ad-9fbf-b901b38695ce/a19c94be-85f2-45d0-b8ae-fe772296c136"
          (reference "C27") (unit 1)
        )
        (path "/3d37b943-9a24-43ad-9fbf-b901b38695ce/cd42d678-88a0-4889-b461-e4aa141e3c58"
          (reference "C33") (unit 1)
        )
        (path "/3d37b943-9a24-43ad-9fbf-b901b38695ce/617ca541-d0cd-4a41-a58b-d194673edcc6"
          (reference "C39") (unit 1)
        )
        (path "/3d37b943-9a24-43ad-9fbf-b901b38695ce/1d31b165-afd9-4178-8caf-a7fc7b259f97"
          (reference "C21") (unit 1)
        )
      )
    )
  )
)
