(kicad_pcb (version 20221018) (generator pcbnew)

  (general
    (thickness 1.6)
  )

  (paper "A4")
  (layers
    (0 "F.Cu" signal)
    (31 "B.Cu" signal)
    (32 "B.Adhes" user "B.Adhesive")
    (33 "F.Adhes" user "F.Adhesive")
    (34 "B.Paste" user)
    (35 "F.Paste" user)
    (36 "B.SilkS" user "B.Silkscreen")
    (37 "F.SilkS" user "F.Silkscreen")
    (38 "B.Mask" user)
    (39 "F.Mask" user)
    (40 "Dwgs.User" user "User.Drawings")
    (41 "Cmts.User" user "User.Comments")
    (42 "Eco1.User" user "User.Eco1")
    (43 "Eco2.User" user "User.Eco2")
    (44 "Edge.Cuts" user)
    (45 "Margin" user)
    (46 "B.CrtYd" user "B.Courtyard")
    (47 "F.CrtYd" user "F.Courtyard")
    (48 "B.Fab" user)
    (49 "F.Fab" user)
    (50 "User.1" user)
    (51 "User.2" user)
    (52 "User.3" user)
    (53 "User.4" user)
    (54 "User.5" user)
    (55 "User.6" user)
    (56 "User.7" user)
    (57 "User.8" user)
    (58 "User.9" user)
  )

  (setup
    (pad_to_mask_clearance 0)
    (pcbplotparams
      (layerselection 0x00010fc_ffffffff)
      (plot_on_all_layers_selection 0x0000000_00000000)
      (disableapertmacros false)
      (usegerberextensions false)
      (usegerberattributes true)
      (usegerberadvancedattributes true)
      (creategerberjobfile true)
      (dashed_line_dash_ratio 12.000000)
      (dashed_line_gap_ratio 3.000000)
      (svgprecision 4)
      (plotframeref false)
      (viasonmask false)
      (mode 1)
      (useauxorigin false)
      (hpglpennumber 1)
      (hpglpenspeed 20)
      (hpglpendiameter 15.000000)
      (dxfpolygonmode true)
      (dxfimperialunits true)
      (dxfusepcbnewfont true)
      (psnegative false)
      (psa4output false)
      (plotreference true)
      (plotvalue true)
      (plotinvisibletext false)
      (sketchpadsonfab false)
      (subtractmaskfromsilk false)
      (outputformat 1)
      (mirror false)
      (drillshape 0)
      (scaleselection 1)
      (outputdirectory "../Production/Trigger/gerber/")
    )
  )

  (net 0 "")
  (net 1 "Net-(J1-Pin_1)")
  (net 2 "Net-(J2-Pin_1)")

  (footprint "Connector_PinHeader_2.00mm:PinHeader_1x01_P2.00mm_Vertical" (layer "F.Cu")
    (tstamp 45073e40-61af-4e5c-af69-574493a3f525)
    (at 276.535963 147.415545)
    (descr "Through hole straight pin header, 1x01, 2.00mm pitch, single row")
    (tags "Through hole pin header THT 1x01 2.00mm single row")
    (property "Sheetfile" "UGC_Trigger.kicad_sch")
    (property "Sheetname" "")
    (property "dnp" "")
    (property "exclude_from_bom" "")
    (property "ki_description" "Generic connector, single row, 01x01, script generated")
    (property "ki_keywords" "connector")
    (path "/91313ee0-bee3-4dfa-b7b1-1cc5a55aa483")
    (attr through_hole exclude_from_bom)
    (fp_text reference "J1" (at 0 -2.06) (layer "F.SilkS") hide
        (effects (font (size 1 1) (thickness 0.15)))
      (tstamp 26edf875-514d-459a-a83f-bc025ee25290)
    )
    (fp_text value "Conn_01x01_Pin" (at 0 2.06) (layer "F.Fab")
        (effects (font (size 1 1) (thickness 0.15)))
      (tstamp 0402ff19-6cd1-46d3-8a92-10d38eb2dfb3)
    )
    (fp_text user "${REFERENCE}" (at 0 0 90) (layer "F.Fab")
        (effects (font (size 1 1) (thickness 0.15)))
      (tstamp eaefbb83-34f2-4204-bb35-f1383011351d)
    )
    (fp_line (start -1.06 -1.06) (end 0 -1.06)
      (stroke (width 0.12) (type solid)) (layer "F.SilkS") (tstamp fe94a485-22a3-4f8d-87d1-30f51cb0ffa9))
    (fp_line (start -1.06 0) (end -1.06 -1.06)
      (stroke (width 0.12) (type solid)) (layer "F.SilkS") (tstamp 1e697acc-50db-419e-9e56-501daedd9846))
    (fp_line (start -1.06 1) (end -1.06 1.06)
      (stroke (width 0.12) (type solid)) (layer "F.SilkS") (tstamp d746e6f5-2964-4a72-ab5a-f87df5bf9c4f))
    (fp_line (start -1.06 1) (end 1.06 1)
      (stroke (width 0.12) (type solid)) (layer "F.SilkS") (tstamp 52c91486-17ac-47bf-8433-9665a2823ea9))
    (fp_line (start -1.06 1.06) (end 1.06 1.06)
      (stroke (width 0.12) (type solid)) (layer "F.SilkS") (tstamp d70fe338-f4b9-4a78-b89a-10eb0a76073e))
    (fp_line (start 1.06 1) (end 1.06 1.06)
      (stroke (width 0.12) (type solid)) (layer "F.SilkS") (tstamp 6be7aeb3-3ffb-4486-a17c-6eb572635530))
    (fp_line (start -1.5 -1.5) (end -1.5 1.5)
      (stroke (width 0.05) (type solid)) (layer "F.CrtYd") (tstamp f33b187a-3637-4115-bd6a-df8fe671683d))
    (fp_line (start -1.5 1.5) (end 1.5 1.5)
      (stroke (width 0.05) (type solid)) (layer "F.CrtYd") (tstamp 2c39d05c-0c19-428a-9f52-1f34fbbb6d5a))
    (fp_line (start 1.5 -1.5) (end -1.5 -1.5)
      (stroke (width 0.05) (type solid)) (layer "F.CrtYd") (tstamp ddcdd118-9e53-4329-be8b-10ae44b3b2df))
    (fp_line (start 1.5 1.5) (end 1.5 -1.5)
      (stroke (width 0.05) (type solid)) (layer "F.CrtYd") (tstamp 38479a04-0969-4a87-93ef-e103c0fd0426))
    (fp_line (start -1 -0.5) (end -0.5 -1)
      (stroke (width 0.1) (type solid)) (layer "F.Fab") (tstamp a098211d-2453-4bb8-b593-682483fe06da))
    (fp_line (start -1 1) (end -1 -0.5)
      (stroke (width 0.1) (type solid)) (layer "F.Fab") (tstamp fb779911-d919-400e-8e73-7696d828f4eb))
    (fp_line (start -0.5 -1) (end 1 -1)
      (stroke (width 0.1) (type solid)) (layer "F.Fab") (tstamp c1da831f-40bd-4198-807f-057166904804))
    (fp_line (start 1 -1) (end 1 1)
      (stroke (width 0.1) (type solid)) (layer "F.Fab") (tstamp 98836930-b7fd-4c3f-9d1f-8f19edaba23f))
    (fp_line (start 1 1) (end -1 1)
      (stroke (width 0.1) (type solid)) (layer "F.Fab") (tstamp 3635437b-9267-4dde-a4c3-8fe5d1e754c9))
    (pad "1" thru_hole rect (at 0 0) (size 1.35 1.35) (drill 0.8) (layers "*.Cu" "*.Mask")
      (net 1 "Net-(J1-Pin_1)") (pinfunction "Pin_1") (pintype "passive") (tstamp dcd2a767-5983-4e60-aa3b-38d2ce54f7d6))
    (model "${KICAD6_3DMODEL_DIR}/Connector_PinHeader_2.00mm.3dshapes/PinHeader_1x01_P2.00mm_Vertical.wrl"
      (offset (xyz 0 0 0))
      (scale (xyz 1 1 1))
      (rotate (xyz 0 0 0))
    )
  )

  (footprint "Connector_PinHeader_2.00mm:PinHeader_1x01_P2.00mm_Vertical" (layer "F.Cu")
    (tstamp 678cf563-270f-434d-9644-14224d38650d)
    (at 279.135963 147.415545)
    (descr "Through hole straight pin header, 1x01, 2.00mm pitch, single row")
    (tags "Through hole pin header THT 1x01 2.00mm single row")
    (property "Sheetfile" "UGC_Trigger.kicad_sch")
    (property "Sheetname" "")
    (property "dnp" "")
    (property "exclude_from_bom" "")
    (property "ki_description" "Generic connector, single row, 01x01, script generated")
    (property "ki_keywords" "connector")
    (path "/80345113-344e-4a17-bf7c-85a0af79011e")
    (attr through_hole exclude_from_bom)
    (fp_text reference "J2" (at 0 -2.06) (layer "F.SilkS") hide
        (effects (font (size 1 1) (thickness 0.15)))
      (tstamp 7cfec22c-91f7-48cf-9320-5e3c228f5a28)
    )
    (fp_text value "Conn_01x01_Pin" (at 0 2.06) (layer "F.Fab")
        (effects (font (size 1 1) (thickness 0.15)))
      (tstamp 03bfd0c1-d133-4ec9-94ab-ed3f35391a07)
    )
    (fp_text user "${REFERENCE}" (at 0 0 90) (layer "F.Fab")
        (effects (font (size 1 1) (thickness 0.15)))
      (tstamp 66c90d84-4465-4894-81c5-da2c86a0f6b2)
    )
    (fp_line (start -1.06 -1.06) (end 0 -1.06)
      (stroke (width 0.12) (type solid)) (layer "F.SilkS") (tstamp 8639d21d-fca2-4a98-96ee-dfc7f4bb46cd))
    (fp_line (start -1.06 0) (end -1.06 -1.06)
      (stroke (width 0.12) (type solid)) (layer "F.SilkS") (tstamp c65ff92c-ec62-444f-b742-e8a7a70880f0))
    (fp_line (start -1.06 1) (end -1.06 1.06)
      (stroke (width 0.12) (type solid)) (layer "F.SilkS") (tstamp f6ace54a-bf5d-43da-ba07-1940e98c7850))
    (fp_line (start -1.06 1) (end 1.06 1)
      (stroke (width 0.12) (type solid)) (layer "F.SilkS") (tstamp 7112cb40-b532-4e71-9cbf-a6ac84b3ae68))
    (fp_line (start -1.06 1.06) (end 1.06 1.06)
      (stroke (width 0.12) (type solid)) (layer "F.SilkS") (tstamp 58c9b8d5-f11e-4396-9175-5300a6cf5703))
    (fp_line (start 1.06 1) (end 1.06 1.06)
      (stroke (width 0.12) (type solid)) (layer "F.SilkS") (tstamp af64f6a8-7014-4af8-bb04-ceadedae869c))
    (fp_line (start -1.5 -1.5) (end -1.5 1.5)
      (stroke (width 0.05) (type solid)) (layer "F.CrtYd") (tstamp 95dc5c2c-a5cd-4d1d-97b1-2fb1966a66a3))
    (fp_line (start -1.5 1.5) (end 1.5 1.5)
      (stroke (width 0.05) (type solid)) (layer "F.CrtYd") (tstamp 6c3a9963-0698-4e52-b73e-60a848d1b1d1))
    (fp_line (start 1.5 -1.5) (end -1.5 -1.5)
      (stroke (width 0.05) (type solid)) (layer "F.CrtYd") (tstamp 250a00de-782a-48ba-a156-95fc79dc7c94))
    (fp_line (start 1.5 1.5) (end 1.5 -1.5)
      (stroke (width 0.05) (type solid)) (layer "F.CrtYd") (tstamp 697624d4-b8b0-4902-9905-c1d6cb472749))
    (fp_line (start -1 -0.5) (end -0.5 -1)
      (stroke (width 0.1) (type solid)) (layer "F.Fab") (tstamp 48ceb967-57cf-4d50-b203-b23672c57462))
    (fp_line (start -1 1) (end -1 -0.5)
      (stroke (width 0.1) (type solid)) (layer "F.Fab") (tstamp b0c61f6b-05e5-49ae-9bc8-bd976f7d6a48))
    (fp_line (start -0.5 -1) (end 1 -1)
      (stroke (width 0.1) (type solid)) (layer "F.Fab") (tstamp 5d9ee89e-1d35-46fe-9b75-3834d7fcd3bb))
    (fp_line (start 1 -1) (end 1 1)
      (stroke (width 0.1) (type solid)) (layer "F.Fab") (tstamp 8ee785cd-4a38-41bb-b658-ceccacf46b8b))
    (fp_line (start 1 1) (end -1 1)
      (stroke (width 0.1) (type solid)) (layer "F.Fab") (tstamp 56f1f14c-a1ea-4af3-bd02-71ed543be4a0))
    (pad "1" thru_hole rect (at 0 0) (size 1.35 1.35) (drill 0.8) (layers "*.Cu" "*.Mask")
      (net 2 "Net-(J2-Pin_1)") (pinfunction "Pin_1") (pintype "passive") (tstamp 4e0e9c25-f5ee-4ac8-b195-d501f6a8b14b))
    (model "${KICAD6_3DMODEL_DIR}/Connector_PinHeader_2.00mm.3dshapes/PinHeader_1x01_P2.00mm_Vertical.wrl"
      (offset (xyz 0 0 0))
      (scale (xyz 1 1 1))
      (rotate (xyz 0 0 0))
    )
  )

  (footprint "hhl:snes_pad" (layer "F.Cu")
    (tstamp d03b2a4d-a1eb-43a1-980e-a267372d0abf)
    (at 278.921123 158.954)
    (property "Sheetfile" "UGC_Trigger.kicad_sch")
    (property "Sheetname" "")
    (property "dnp" "")
    (property "exclude_from_bom" "")
    (property "ki_description" "Push button switch, generic, two pins")
    (property "ki_keywords" "switch normally-open pushbutton push-button")
    (path "/c39a9495-49c4-417f-a89f-376cd91101a9")
    (attr exclude_from_bom allow_soldermask_bridges)
    (fp_text reference "SW1" (at 0 2.2352 unlocked) (layer "F.SilkS") hide
        (effects (font (size 1 1) (thickness 0.1)))
      (tstamp 72e6c6ac-9d5b-4cbb-8a85-d7b11d9b4f91)
    )
    (fp_text value "SW_Push" (at 0 3.3528 unlocked) (layer "F.Fab")
        (effects (font (size 1 1) (thickness 0.15)))
      (tstamp 5e3f16ed-65c1-4b2c-90c8-cbdc91c1a030)
    )
    (fp_text user "${REFERENCE}" (at 0 4.8528 unlocked) (layer "F.Fab")
        (effects (font (size 1 1) (thickness 0.15)))
      (tstamp e6543c42-a12c-414e-abc5-f74c5e132844)
    )
    (fp_line (start -0.2 -2) (end -0.2 2)
      (stroke (width 0.1) (type default)) (layer "F.Cu") (tstamp 9a06b35a-2cb4-4c78-853b-7d9a26ae02d0))
    (fp_line (start 0.2 -2) (end 0.2 2)
      (stroke (width 0.1) (type default)) (layer "F.Cu") (tstamp 43905b9e-24da-4290-ab2f-a06ca0c93031))
    (fp_arc (start -0.2 2) (mid -1.992923 0) (end -0.2 -2)
      (stroke (width 0.1) (type default)) (layer "F.Cu") (tstamp ff7f4699-d1a1-4274-8a82-0254c7c130d4))
    (fp_arc (start 0.2 -2) (mid 1.992923 0) (end 0.2 2)
      (stroke (width 0.1) (type default)) (layer "F.Cu") (tstamp 723185d0-1457-4ed6-b3f5-656c4cfbdc5f))
    (fp_poly
      (pts
        (xy -0.20139 -2.00335)
        (xy -0.20139 1.99665)
        (xy -0.894342 1.793027)
        (xy -1.350245 1.484811)
        (xy -1.703409 1.028908)
        (xy -1.934571 0.463846)
        (xy -1.989064 -0.30815)
        (xy -1.794997 -0.806897)
        (xy -1.495843 -1.265176)
        (xy -1.196689 -1.57706)
        (xy -0.66179 -1.88295)
      )

      (stroke (width 0.001) (type solid)) (fill solid) (layer "F.Cu") (tstamp d6798a57-1816-4328-85cc-5e5bfef3dfc2))
    (fp_poly
      (pts
        (xy 0.2 2)
        (xy 0.2 -2)
        (xy 0.835132 -1.809215)
        (xy 1.217944 -1.569923)
        (xy 1.568019 -1.207119)
        (xy 1.833477 -0.769729)
        (xy 1.979872 -0.23507)
        (xy 1.94264 0.253041)
        (xy 1.76442 0.895905)
        (xy 1.452536 1.335089)
        (xy 0.892417 1.787003)
      )

      (stroke (width 0.001) (type solid)) (fill solid) (layer "F.Cu") (tstamp 8daba453-bb6b-462f-bb18-99d885af260c))
    (fp_circle (center 0 0) (end 2.05 0)
      (stroke (width 0) (type solid)) (fill solid) (layer "F.Mask") (tstamp b100c51d-cb4c-4c74-bd01-1d75bdea4e46))
    (pad "1" smd circle (at -0.5 0) (size 0.5 0.5) (property pad_prop_testpoint) (layers "F.Cu" "F.Mask")
      (net 2 "Net-(J2-Pin_1)") (pinfunction "1") (pintype "passive") (tstamp 10b3e686-3dfe-4f12-9394-892ea340f467))
    (pad "2" smd circle (at 0.5 0) (size 0.5 0.5) (property pad_prop_testpoint) (layers "F.Cu" "F.Mask")
      (net 1 "Net-(J1-Pin_1)") (pinfunction "2") (pintype "passive") (tstamp a731a313-0bcb-4d95-ae7a-f8b715111d59))
  )

  (gr_circle (center 278.921123 158.954) (end 279.421123 158.954)
    (stroke (width 0.1) (type solid)) (fill none) (layer "Dwgs.User") (tstamp 24ef48aa-62af-4f3a-9c2e-53fbc92137aa))
  (gr_line (start 274.271123 146.554) (end 274.271123 149.554)
    (stroke (width 0.1) (type solid)) (layer "Edge.Cuts") (tstamp 038bc99d-f58f-43fc-8952-47dfe6afd288))
  (gr_line (start 283.571123 149.554) (end 283.571123 146.554)
    (stroke (width 0.1) (type solid)) (layer "Edge.Cuts") (tstamp 17f9a7f6-b2de-47ff-b072-3f42671d2cfe))
  (gr_arc (start 281.48619 146.722144) (mid 281.656126 146.422611) (end 281.979444 146.304)
    (stroke (width 0.1) (type solid)) (layer "Edge.Cuts") (tstamp 1d2f796f-d8bf-453c-a362-2b2811ea477b))
  (gr_line (start 282.571123 149.804) (end 283.321123 149.804)
    (stroke (width 0.1) (type solid)) (layer "Edge.Cuts") (tstamp 2ed12050-6531-44c5-9085-fea096dc6a7b))
  (gr_line (start 275.271123 149.804) (end 275.271123 164.106525)
    (stroke (width 0.1) (type solid)) (layer "Edge.Cuts") (tstamp 2f090b4f-5acf-4d26-9d78-8fec5366ba7d))
  (gr_line (start 274.521123 149.804) (end 275.271123 149.804)
    (stroke (width 0.1) (type solid)) (layer "Edge.Cuts") (tstamp 5901bebe-1480-46e1-85c4-646585a020a9))
  (gr_line (start 283.321123 146.304) (end 281.979444 146.304)
    (stroke (width 0.1) (type solid)) (layer "Edge.Cuts") (tstamp 5d026aa8-2402-414d-89ca-ee53961439bb))
  (gr_curve (pts (xy 282.571123 164.085746) (xy 282.571123 164.150854) (xy 282.558406 164.215338) (xy 282.533688 164.275571))
    (stroke (width 0.1) (type solid)) (layer "Edge.Cuts") (tstamp 5e7c3e34-b26d-489d-ab60-253bf43ee431))
  (gr_line (start 282.571123 164.085746) (end 282.571123 149.804)
    (stroke (width 0.1) (type solid)) (layer "Edge.Cuts") (tstamp 66c1532d-85d8-4f91-b7a8-e1d440faba39))
  (gr_arc (start 279.7048 146.304) (mid 280.028133 146.422594) (end 280.198054 146.722144)
    (stroke (width 0.1) (type solid)) (layer "Edge.Cuts") (tstamp 6b4eacb0-750c-40c9-80b3-7601a542f3a8))
  (gr_arc (start 274.521123 149.804) (mid 274.344346 149.730777) (end 274.271123 149.554)
    (stroke (width 0.1) (type solid)) (layer "Edge.Cuts") (tstamp 72d84df9-de62-4246-97fe-d245b9bf924a))
  (gr_curve (pts (xy 282.440204 164.423058) (xy 282.400633 164.466356) (xy 282.35375 164.502354) (xy 282.301704 164.529404))
    (stroke (width 0.1) (type solid)) (layer "Edge.Cuts") (tstamp 860c131f-18b0-4112-946f-e6db329ce945))
  (gr_arc (start 281.48619 146.722144) (mid 280.842122 147.268137) (end 280.198054 146.722144)
    (stroke (width 0.1) (type solid)) (layer "Edge.Cuts") (tstamp 866e1300-ce03-4028-9f2c-8f6814c7854e))
  (gr_curve (pts (xy 275.39211 164.432636) (xy 275.35339 164.387636) (xy 275.322993 164.336098) (xy 275.302344 164.28044))
    (stroke (width 0.1) (type solid)) (layer "Edge.Cuts") (tstamp 88956df9-209c-452d-ad51-c2d4be5dbb8d))
  (gr_curve (pts (xy 275.302344 164.28044) (xy 275.281696 164.224783) (xy 275.271123 164.165889) (xy 275.271123 164.106525))
    (stroke (width 0.1) (type solid)) (layer "Edge.Cuts") (tstamp 9d29b3e6-e7b8-40e0-b96c-c9627d0a9e63))
  (gr_curve (pts (xy 275.544295 164.552113) (xy 275.486272 164.522577) (xy 275.434574 164.48199) (xy 275.39211 164.432636))
    (stroke (width 0.1) (type solid)) (layer "Edge.Cuts") (tstamp 9f97c3d9-455e-4c18-9615-52263d594d59))
  (gr_arc (start 283.321123 146.304) (mid 283.4979 146.377223) (end 283.571123 146.554)
    (stroke (width 0.1) (type solid)) (layer "Edge.Cuts") (tstamp aa81f6b7-6e90-42f4-98ff-f3a2cc2aa092))
  (gr_curve (pts (xy 279.523032 165.336042) (xy 278.161069 165.450249) (xy 276.763651 165.172831) (xy 275.544295 164.552113))
    (stroke (width 0.1) (type solid)) (layer "Edge.Cuts") (tstamp ac7f5dc3-2a24-48fd-8f31-2da178517a54))
  (gr_arc (start 274.271123 146.554) (mid 274.344346 146.377223) (end 274.521123 146.304)
    (stroke (width 0.1) (type solid)) (layer "Edge.Cuts") (tstamp b0e4964b-a9bf-42e4-99db-ad741d83f43e))
  (gr_curve (pts (xy 282.533688 164.275571) (xy 282.511419 164.329836) (xy 282.479774 164.379761) (xy 282.440204 164.423058))
    (stroke (width 0.1) (type solid)) (layer "Edge.Cuts") (tstamp b98460af-27a1-4075-8a75-1410e80e9a93))
  (gr_curve (pts (xy 282.301704 164.529404) (xy 281.440105 164.9772) (xy 280.48854 165.25508) (xy 279.523032 165.336042))
    (stroke (width 0.1) (type solid)) (layer "Edge.Cuts") (tstamp bfa78163-4636-40d4-b5a1-8d396ef99b62))
  (gr_line (start 279.7048 146.304) (end 274.521123 146.304)
    (stroke (width 0.1) (type solid)) (layer "Edge.Cuts") (tstamp d83e0c20-211e-497e-9851-ede52f09b8ab))
  (gr_arc (start 283.571123 149.554) (mid 283.4979 149.730777) (end 283.321123 149.804)
    (stroke (width 0.1) (type solid)) (layer "Edge.Cuts") (tstamp f58a011d-2f96-4b1d-99f5-c64465668311))

  (segment (start 279.421123 156.332723) (end 279.421123 158.954) (width 0.25) (layer "F.Cu") (net 1) (tstamp 2af0867e-7e35-4bbf-be75-938e26e980f8))
  (segment (start 277.8252 152.8064) (end 277.8252 154.7368) (width 0.25) (layer "F.Cu") (net 1) (tstamp 587f8fd6-5b0c-4a88-bee6-f6f043a522ef))
  (segment (start 276.535963 147.415545) (end 276.535963 151.517163) (width 0.25) (layer "F.Cu") (net 1) (tstamp 5b233089-4dea-4567-9eba-dbb866c584ac))
  (segment (start 277.8252 154.7368) (end 279.421123 156.332723) (width 0.25) (layer "F.Cu") (net 1) (tstamp d970430d-f6fe-4cf6-bf33-25c1f5a4c31e))
  (segment (start 276.535963 151.517163) (end 277.8252 152.8064) (width 0.25) (layer "F.Cu") (net 1) (tstamp e5823106-a0e8-4c49-8165-8b2a2ddf9449))
  (segment (start 279.4508 163.4236) (end 278.421123 162.393923) (width 0.25) (layer "F.Cu") (net 2) (tstamp 177f18cc-e4a2-455b-85d7-44bec25dd2e9))
  (segment (start 278.421123 162.393923) (end 278.421123 158.954) (width 0.25) (layer "F.Cu") (net 2) (tstamp 439b57d4-00d8-461b-bf08-668045a10b2e))
  (segment (start 280.6192 163.4236) (end 279.4508 163.4236) (width 0.25) (layer "F.Cu") (net 2) (tstamp 853dbf52-a670-4064-8aa0-a318de718918))
  (via (at 280.6192 163.4236) (size 0.8) (drill 0.4) (layers "F.Cu" "B.Cu") (net 2) (tstamp 5d3d1bd7-083f-41b7-909d-361bd5998273))
  (segment (start 279.135963 161.940363) (end 280.6192 163.4236) (width 0.25) (layer "B.Cu") (net 2) (tstamp de319ee0-00ac-429f-adff-564221ca2602))
  (segment (start 279.135963 147.415545) (end 279.135963 161.940363) (width 0.25) (layer "B.Cu") (net 2) (tstamp e147cf99-7f22-43c9-a331-a3a2aae6b8bb))

  (zone (net 0) (net_name "") (layers "F&B.Cu") (tstamp 0fecfe82-56be-4da7-af06-615785180ef2) (hatch edge 0.5)
    (connect_pads (clearance 0.25))
    (min_thickness 0.25) (filled_areas_thickness no)
    (fill yes (thermal_gap 0.5) (thermal_bridge_width 0.5) (island_removal_mode 1) (island_area_min 10))
    (polygon
      (pts
        (xy 273.4564 144.9832)
        (xy 284.3276 144.9832)
        (xy 284.3276 165.3032)
        (xy 273.4564 165.3032)
      )
    )
    (filled_polygon
      (layer "F.Cu")
      (island)
      (pts
        (xy 275.720928 146.324185)
        (xy 275.766683 146.376989)
        (xy 275.776627 146.446147)
        (xy 275.747602 146.509703)
        (xy 275.722782 146.5316)
        (xy 275.687247 146.555344)
        (xy 275.680362 146.559944)
        (xy 275.624996 146.642805)
        (xy 275.624995 146.642809)
        (xy 275.610463 146.715866)
        (xy 275.610463 148.115223)
        (xy 275.624995 148.18828)
        (xy 275.624996 148.188284)
        (xy 275.624997 148.188285)
        (xy 275.680362 148.271146)
        (xy 275.763222 148.32651)
        (xy 275.763223 148.326511)
        (xy 275.763227 148.326512)
        (xy 275.836284 148.341044)
        (xy 275.836287 148.341045)
        (xy 275.836289 148.341045)
        (xy 276.036463 148.341045)
        (xy 276.103502 148.36073)
        (xy 276.149257 148.413534)
        (xy 276.160463 148.465045)
        (xy 276.160463 151.465359)
        (xy 276.157825 151.490797)
        (xy 276.155596 151.501431)
        (xy 276.155596 151.501432)
        (xy 276.155596 151.501434)
        (xy 276.159986 151.536654)
        (xy 276.160463 151.54433)
        (xy 276.160463 151.548279)
        (xy 276.164305 151.571304)
        (xy 276.171097 151.62579)
        (xy 276.173336 151.63331)
        (xy 276.175897 151.640771)
        (xy 276.175898 151.640773)
        (xy 276.202017 151.68904)
        (xy 276.202018 151.68904)
        (xy 276.226137 151.738374)
        (xy 276.230705 151.744772)
        (xy 276.235545 151.75099)
        (xy 276.275934 151.788172)
        (xy 277.413381 152.925618)
        (xy 277.446866 152.986941)
        (xy 277.4497 153.013299)
        (xy 277.4497 154.684996)
        (xy 277.447062 154.710434)
        (xy 277.444833 154.721068)
        (xy 277.444833 154.721069)
        (xy 277.444833 154.721071)
        (xy 277.449223 154.756291)
        (xy 277.4497 154.763967)
        (xy 277.4497 154.767916)
        (xy 277.453542 154.790941)
        (xy 277.460334 154.845427)
        (xy 277.462573 154.852947)
        (xy 277.465134 154.860408)
        (xy 277.465135 154.86041)
        (xy 277.491255 154.908677)
        (xy 277.515374 154.958011)
        (xy 277.519942 154.964409)
        (xy 277.524782 154.970627)
        (xy 277.56517 155.007808)
        (xy 279.009304 156.451941)
        (xy 279.042789 156.513264)
        (xy 279.045623 156.539622)
        (xy 279.045623 156.573807)
        (xy 279.025938 156.640846)
        (xy 278.973134 156.686601)
        (xy 278.903976 156.696545)
        (xy 278.866355 156.684809)
        (xy 278.857386 156.680343)
        (xy 278.852996 156.679094)
        (xy 278.838082 156.67282)
        (xy 278.838036 156.672944)
        (xy 278.828912 156.669488)
        (xy 278.82891 156.669487)
        (xy 278.828909 156.669487)
        (xy 278.795101 156.662455)
        (xy 278.790787 156.661394)
        (xy 278.74933 156.649599)
        (xy 278.749327 156.649599)
        (xy 278.745429 156.64996)
        (xy 278.736732 156.650153)
        (xy 278.735715 156.650104)
        (xy 278.735714 156.650104)
        (xy 278.73094 156.650627)
        (xy 278.6909 156.655013)
        (xy 278.63303 156.660375)
        (xy 278.622069 156.662515)
        (xy 278.542109 156.671228)
        (xy 278.542102 156.671229)
        (xy 278.360676 156.714898)
        (xy 278.255947 156.740107)
        (xy 278.255945 156.740107)
        (xy 278.255944 156.740108)
        (xy 278.25594 156.740109)
        (xy 277.980821 156.844707)
        (xy 277.721197 156.983326)
        (xy 277.721184 156.983334)
        (xy 277.481217 157.153752)
        (xy 277.264786 157.353214)
        (xy 277.075376 157.578515)
        (xy 276.916068 157.825987)
        (xy 276.916066 157.825991)
        (xy 276.789406 158.091673)
        (xy 276.789402 158.091681)
        (xy 276.697449 158.371256)
        (xy 276.697445 158.371269)
        (xy 276.641672 158.660255)
        (xy 276.64167 158.660265)
        (xy 276.622977 158.954)
        (xy 276.64167 159.247735)
        (xy 276.641671 159.24774)
        (xy 276.697445 159.53673)
        (xy 276.697449 159.536743)
        (xy 276.789402 159.816318)
        (xy 276.789406 159.816326)
        (xy 276.916066 160.082008)
        (xy 276.916068 160.082012)
        (xy 277.075376 160.329484)
        (xy 277.075379 160.329488)
        (xy 277.075382 160.329492)
        (xy 277.264785 160.554784)
        (xy 277.481219 160.754249)
        (xy 277.721191 160.92467)
        (xy 277.832375 160.984033)
        (xy 277.980026 161.062867)
        (xy 278.029893 161.111806)
        (xy 278.045623 161.172252)
        (xy 278.045623 162.342119)
        (xy 278.042985 162.367557)
        (xy 278.040756 162.378191)
        (xy 278.040756 162.378192)
        (xy 278.040756 162.378194)
        (xy 278.045146 162.413414)
        (xy 278.045623 162.42109)
        (xy 278.045623 162.425039)
        (xy 278.049465 162.448064)
        (xy 278.056257 162.50255)
        (xy 278.058496 162.51007)
        (xy 278.061057 162.517531)
        (xy 278.061058 162.517533)
        (xy 278.087177 162.5658)
        (xy 278.087178 162.5658)
        (xy 278.111297 162.615134)
        (xy 278.115865 162.621532)
        (xy 278.120705 162.62775)
        (xy 278.161094 162.664932)
        (xy 279.148649 163.652486)
        (xy 279.164777 163.672345)
        (xy 279.170716 163.681436)
        (xy 279.198732 163.703241)
        (xy 279.204493 163.70833)
        (xy 279.207282 163.711119)
        (xy 279.226283 163.724685)
        (xy 279.26961 163.758409)
        (xy 279.269611 163.758409)
        (xy 279.276504 163.762139)
        (xy 279.283596 163.765606)
        (xy 279.283601 163.76561)
        (xy 279.336202 163.78127)
        (xy 279.336203 163.78127)
        (xy 279.388138 163.7991)
        (xy 279.395872 163.80039)
        (xy 279.40371 163.801367)
        (xy 279.403712 163.801368)
        (xy 279.403713 163.801367)
        (xy 279.403714 163.801368)
        (xy 279.458556 163.7991)
        (xy 280.022892 163.7991)
        (xy 280.089931 163.818785)
        (xy 280.124942 163.852661)
        (xy 280.127363 163.856169)
        (xy 280.128715 163.858128)
        (xy 280.128717 163.85813)
        (xy 280.24696 163.962883)
        (xy 280.246962 163.962884)
        (xy 280.386834 164.036296)
        (xy 280.540214 164.0741)
        (xy 280.540215 164.0741)
        (xy 280.698185 164.0741)
        (xy 280.851565 164.036296)
        (xy 280.851564 164.036295)
        (xy 280.99144 163.962883)
        (xy 281.109683 163.85813)
        (xy 281.19942 163.728123)
        (xy 281.255437 163.580418)
        (xy 281.274478 163.4236)
        (xy 281.255437 163.266782)
        (xy 281.19942 163.119077)
        (xy 281.109683 162.98907)
        (xy 280.99144 162.884317)
        (xy 280.991438 162.884316)
        (xy 280.991437 162.884315)
        (xy 280.851565 162.810903)
        (xy 280.698186 162.7731)
        (xy 280.698185 162.7731)
        (xy 280.540215 162.7731)
        (xy 280.540214 162.7731)
        (xy 280.386834 162.810903)
        (xy 280.246962 162.884315)
        (xy 280.128716 162.98907)
        (xy 280.126289 162.992587)
        (xy 280.124942 162.994538)
        (xy 280.070663 163.038529)
        (xy 280.022892 163.0481)
        (xy 279.657699 163.0481)
        (xy 279.59066 163.028415)
        (xy 279.570018 163.011781)
        (xy 278.832942 162.274704)
        (xy 278.799457 162.213381)
        (xy 278.796623 162.187023)
        (xy 278.796623 161.334192)
        (xy 278.816308 161.267153)
        (xy 278.869112 161.221398)
        (xy 278.93827 161.211454)
        (xy 278.975895 161.223192)
        (xy 278.984855 161.227653)
        (xy 278.984859 161.227656)
        (xy 278.989231 161.228899)
        (xy 279.004152 161.235178)
        (xy 279.004201 161.235051)
        (xy 279.013324 161.238507)
        (xy 279.01333 161.23851)
        (xy 279.047132 161.24554)
        (xy 279.051446 161.246601)
        (xy 279.087406 161.256833)
        (xy 279.091137 161.257895)
        (xy 279.092916 161.258401)
        (xy 279.096814 161.258039)
        (xy 279.105507 161.257847)
        (xy 279.106518 161.257894)
        (xy 279.106524 161.257896)
        (xy 279.151349 161.252986)
        (xy 279.204783 161.248035)
        (xy 279.204783 161.248034)
        (xy 279.20925 161.247621)
        (xy 279.220169 161.245486)
        (xy 279.300137 161.236776)
        (xy 279.5863 161.167904)
        (xy 279.861424 161.063312)
        (xy 280.12107 160.924688)
        (xy 280.361049 160.754269)
        (xy 280.577489 160.554803)
        (xy 280.766898 160.329511)
        (xy 280.766899 160.329508)
        (xy 280.766904 160.329503)
        (xy 280.926214 160.082033)
        (xy 280.926214 160.082031)
        (xy 280.926219 160.082025)
        (xy 281.052884 159.816339)
        (xy 281.144847 159.536741)
        (xy 281.200625 159.24774)
        (xy 281.219318 158.954)
        (xy 281.200625 158.66026)
        (xy 281.144847 158.371259)
        (xy 281.052884 158.091661)
        (xy 280.926219 157.825975)
        (xy 280.926216 157.825971)
        (xy 280.926214 157.825966)
        (xy 280.766904 157.578496)
        (xy 280.766896 157.578486)
        (xy 280.577493 157.353201)
        (xy 280.57749 157.353198)
        (xy 280.577489 157.353197)
        (xy 280.361049 157.153731)
        (xy 280.361046 157.153728)
        (xy 280.361044 157.153727)
        (xy 280.268051 157.087689)
        (xy 280.12107 156.983312)
        (xy 280.121061 156.983307)
        (xy 279.862222 156.845113)
        (xy 279.812354 156.796174)
        (xy 279.796623 156.735727)
        (xy 279.796623 156.384527)
        (xy 279.799262 156.359082)
        (xy 279.799908 156.355998)
        (xy 279.80149 156.348455)
        (xy 279.799621 156.333463)
        (xy 279.7971 156.313229)
        (xy 279.796623 156.305553)
        (xy 279.796623 156.301612)
        (xy 279.796621 156.301599)
        (xy 279.79278 156.278582)
        (xy 279.785989 156.224099)
        (xy 279.785989 156.224097)
        (xy 279.785987 156.224093)
        (xy 279.783745 156.216563)
        (xy 279.781188 156.209115)
        (xy 279.781188 156.209113)
        (xy 279.755067 156.160845)
        (xy 279.730949 156.111512)
        (xy 279.730947 156.11151)
        (xy 279.730947 156.111509)
        (xy 279.726399 156.105139)
        (xy 279.721543 156.098899)
        (xy 279.721542 156.098897)
        (xy 279.681152 156.061715)
        (xy 278.237019 154.617581)
        (xy 278.203534 154.556258)
        (xy 278.2007 154.5299)
        (xy 278.2007 152.858203)
        (xy 278.203339 152.832758)
        (xy 278.203985 152.829674)
        (xy 278.205567 152.822131)
        (xy 278.203487 152.805451)
        (xy 278.201177 152.786908)
        (xy 278.2007 152.779232)
        (xy 278.2007 152.775289)
        (xy 278.200699 152.775283)
        (xy 278.196855 152.752246)
        (xy 278.190065 152.697773)
        (xy 278.187817 152.690227)
        (xy 278.185265 152.68279)
        (xy 278.159142 152.634519)
        (xy 278.159141 152.634519)
        (xy 278.135026 152.585188)
        (xy 278.135023 152.585185)
        (xy 278.135023 152.585184)
        (xy 278.130467 152.578802)
        (xy 278.125623 152.572578)
        (xy 278.125619 152.572574)
        (xy 278.085241 152.535403)
        (xy 276.947782 151.397944)
        (xy 276.914297 151.336621)
        (xy 276.911463 151.310263)
        (xy 276.911463 148.465045)
        (xy 276.931148 148.398006)
        (xy 276.983952 148.352251)
        (xy 277.035463 148.341045)
        (xy 277.235639 148.341045)
        (xy 277.23564 148.341044)
        (xy 277.308703 148.326511)
        (xy 277.391564 148.271146)
        (xy 277.446929 148.188285)
        (xy 277.461463 148.115219)
        (xy 277.461463 146.715871)
        (xy 277.461463 146.715868)
        (xy 277.461462 146.715866)
        (xy 277.44693 146.642809)
        (xy 277.446929 146.642805)
        (xy 277.446929 146.642804)
        (xy 277.391564 146.559944)
        (xy 277.349145 146.531601)
        (xy 277.304341 146.477991)
        (xy 277.295634 146.408666)
        (xy 277.325788 146.345638)
        (xy 277.385231 146.308918)
        (xy 277.418037 146.3045)
        (xy 278.253889 146.3045)
        (xy 278.320928 146.324185)
        (xy 278.366683 146.376989)
        (xy 278.376627 146.446147)
        (xy 278.347602 146.509703)
        (xy 278.322782 146.5316)
        (xy 278.287247 146.555344)
        (xy 278.280362 146.559944)
        (xy 278.224996 146.642805)
        (xy 278.224995 146.642809)
        (xy 278.210463 146.715866)
        (xy 278.210463 148.115223)
        (xy 278.224995 148.18828)
        (xy 278.224996 148.188284)
        (xy 278.224997 148.188285)
        (xy 278.280362 148.271146)
        (xy 278.363222 148.32651)
        (xy 278.363223 148.326511)
        (xy 278.363227 148.326512)
        (xy 278.436284 148.341044)
        (xy 278.436287 148.341045)
        (xy 278.436289 148.341045)
        (xy 279.835639 148.341045)
        (xy 279.83564 148.341044)
        (xy 279.908703 148.326511)
        (xy 279.991564 148.271146)
        (xy 280.046929 148.188285)
        (xy 280.061463 148.115219)
        (xy 280.061463 147.034297)
        (xy 280.081148 146.967258)
        (xy 280.133952 146.921503)
        (xy 280.20311 146.911559)
        (xy 280.266666 146.940584)
        (xy 280.285422 146.96092)
        (xy 280.303985 146.986208)
        (xy 280.309398 147.001148)
        (xy 280.320775 147.012116)
        (xy 280.334672 147.028011)
        (xy 280.360991 147.063864)
        (xy 280.41262 147.107632)
        (xy 280.422158 147.122127)
        (xy 280.434125 147.128843)
        (xy 280.453623 147.142392)
        (xy 280.466127 147.152992)
        (xy 280.478336 147.163342)
        (xy 280.545307 147.197258)
        (xy 280.547045 147.198138)
        (xy 280.560743 147.211011)
        (xy 280.57214 147.213991)
        (xy 280.596801 147.223336)
        (xy 280.615576 147.232844)
        (xy 280.615577 147.232845)
        (xy 280.699212 147.252815)
        (xy 280.716667 147.262809)
        (xy 280.726465 147.262809)
        (xy 280.755265 147.2662)
        (xy 280.765198 147.268572)
        (xy 280.765201 147.268572)
        (xy 280.765204 147.268573)
        (xy 280.765206 147.268573)
        (xy 280.772427 147.269423)
        (xy 280.772414 147.269527)
        (xy 280.794293 147.27234)
        (xy 280.79456 147.272185)
        (xy 280.824272 147.268573)
        (xy 280.859971 147.268573)
        (xy 280.880385 147.274567)
        (xy 280.887892 147.272605)
        (xy 280.911829 147.269527)
        (xy 280.911817 147.269423)
        (xy 280.919037 147.268573)
        (xy 280.91904 147.268573)
        (xy 280.919043 147.268572)
        (xy 280.919045 147.268572)
        (xy 280.928979 147.2662)
        (xy 280.957779 147.262809)
        (xy 280.958536 147.262809)
        (xy 280.985028 147.252815)
        (xy 281.068668 147.232844)
        (xy 281.087442 147.223335)
        (xy 281.112103 147.21399)
        (xy 281.11525 147.213167)
        (xy 281.137199 147.198138)
        (xy 281.138937 147.197258)
        (xy 281.205908 147.163342)
        (xy 281.23062 147.142392)
        (xy 281.250119 147.128843)
        (xy 281.25514 147.126024)
        (xy 281.27162 147.107635)
        (xy 281.323252 147.063865)
        (xy 281.349576 147.028005)
        (xy 281.363471 147.012114)
        (xy 281.369532 147.00627)
        (xy 281.380255 146.986212)
        (xy 281.414285 146.939856)
        (xy 281.436666 146.886747)
        (xy 281.445086 146.870312)
        (xy 281.451302 146.860127)
        (xy 281.456627 146.83938)
        (xy 281.474027 146.798095)
        (xy 281.486088 146.725787)
        (xy 281.487688 146.718751)
        (xy 281.488522 146.715871)
        (xy 281.492555 146.701929)
        (xy 281.520491 146.61321)
        (xy 281.530904 146.589286)
        (xy 281.548417 146.558413)
        (xy 281.550671 146.554746)
        (xy 281.587382 146.499476)
        (xy 281.599955 146.483552)
        (xy 281.628107 146.453356)
        (xy 281.633327 146.448376)
        (xy 281.685288 146.404322)
        (xy 281.691077 146.39997)
        (xy 281.725447 146.377153)
        (xy 281.743221 146.36735)
        (xy 281.803762 146.340169)
        (xy 281.80773 146.338553)
        (xy 281.841014 146.326341)
        (xy 281.866364 146.319975)
        (xy 281.960447 146.306683)
        (xy 281.97245 146.305268)
        (xy 281.975362 146.304926)
        (xy 281.982619 146.3045)
        (xy 283.311366 146.3045)
        (xy 283.330758 146.306026)
        (xy 283.333466 146.306456)
        (xy 283.389851 146.317676)
        (xy 283.421942 146.328807)
        (xy 283.433341 146.334616)
        (xy 283.439637 146.338307)
        (xy 283.472509 146.360274)
        (xy 283.491299 146.375696)
        (xy 283.499422 146.38382)
        (xy 283.514838 146.402607)
        (xy 283.536797 146.435472)
        (xy 283.540492 146.441776)
        (xy 283.54631 146.453196)
        (xy 283.557436 146.485269)
        (xy 283.568567 146.541164)
        (xy 283.569095 146.544501)
        (xy 283.570623 146.563901)
        (xy 283.570623 149.544241)
        (xy 283.569102 149.563602)
        (xy 283.568669 149.566334)
        (xy 283.55745 149.622735)
        (xy 283.546321 149.654831)
        (xy 283.540516 149.666225)
        (xy 283.536821 149.672529)
        (xy 283.514857 149.705404)
        (xy 283.499444 149.724187)
        (xy 283.491317 149.732316)
        (xy 283.47252 149.747745)
        (xy 283.439657 149.769706)
        (xy 283.43336 149.773398)
        (xy 283.421984 149.779196)
        (xy 283.389844 149.790341)
        (xy 283.335605 149.801121)
        (xy 283.311433 149.8035)
        (xy 282.595883 149.8035)
        (xy 282.595677 149.803459)
        (xy 282.571123 149.803459)
        (xy 282.571024 149.8035)
        (xy 282.57074 149.803616)
        (xy 282.570738 149.803618)
        (xy 282.570582 149.803999)
        (xy 282.570599 149.828616)
        (xy 282.570594 149.828616)
        (xy 282.570623 149.828759)
        (xy 282.570623 164.08251)
        (xy 282.570291 164.088917)
        (xy 282.561725 164.171431)
        (xy 282.552486 164.207181)
        (xy 282.493519 164.345748)
        (xy 282.468154 164.383811)
        (xy 282.375836 164.478385)
        (xy 282.345514 164.501149)
        (xy 282.157891 164.601341)
        (xy 282.138883 164.610924)
        (xy 281.974321 164.688855)
        (xy 281.974321 164.688856)
        (xy 281.807889 164.762721)
        (xy 281.639633 164.832506)
        (xy 281.469729 164.898143)
        (xy 281.298322 164.959584)
        (xy 281.12539 165.016835)
        (xy 281.073903 165.032491)
        (xy 280.951166 165.069812)
        (xy 280.775773 165.118479)
        (xy 280.599198 165.162826)
        (xy 280.421706 165.202779)
        (xy 280.243284 165.238325)
        (xy 280.064061 165.269418)
        (xy 280.03747 165.273349)
        (xy 279.884224 165.296008)
        (xy 279.856388 165.299411)
        (xy 279.829144 165.302741)
        (xy 279.821614 165.3032)
        (xy 278.006391 165.3032)
        (xy 277.999097 165.30277)
        (xy 277.998852 165.302741)
        (xy 277.987198 165.301361)
        (xy 277.859951 165.284073)
        (xy 277.73306 165.264614)
        (xy 277.60645 165.242973)
        (xy 277.480285 165.219183)
        (xy 277.354472 165.193227)
        (xy 277.229171 165.165139)
        (xy 277.104364 165.134917)
        (xy 277.104364 165.134916)
        (xy 276.980055 165.102557)
        (xy 276.856342 165.068087)
        (xy 276.733257 165.031513)
        (xy 276.61079 164.992827)
        (xy 276.488981 164.952039)
        (xy 276.368024 164.909211)
        (xy 276.247734 164.864273)
        (xy 276.128235 164.817263)
        (xy 276.009654 164.768224)
        (xy 275.891959 164.717141)
        (xy 275.775193 164.66402)
        (xy 275.659341 164.608847)
        (xy 275.651779 164.60508)
        (xy 275.649044 164.603631)
        (xy 275.477412 164.507154)
        (xy 275.443042 164.478597)
        (xy 275.347303 164.364086)
        (xy 275.324807 164.32379)
        (xy 275.282688 164.197534)
        (xy 275.276316 164.158346)
        (xy 275.271623 151.185893)
        (xy 275.271623 149.828759)
        (xy 275.271651 149.828616)
        (xy 275.271647 149.828616)
        (xy 275.271662 149.804002)
        (xy 275.271664 149.804)
        (xy 275.271585 149.803808)
        (xy 275.271507 149.803618)
        (xy 275.271505 149.803616)
        (xy 275.271222 149.8035)
        (xy 275.271123 149.803459)
        (xy 275.246569 149.803459)
        (xy 275.246363 149.8035)
        (xy 274.530877 149.8035)
        (xy 274.511496 149.801976)
        (xy 274.5088 149.801549)
        (xy 274.479107 149.795645)
        (xy 274.452389 149.790333)
        (xy 274.420289 149.779205)
        (xy 274.408887 149.773397)
        (xy 274.402589 149.769706)
        (xy 274.369709 149.74774)
        (xy 274.350917 149.732317)
        (xy 274.342788 149.724188)
        (xy 274.327371 149.705404)
        (xy 274.324957 149.701792)
        (xy 274.305398 149.672522)
        (xy 274.301721 149.666249)
        (xy 274.295915 149.654854)
        (xy 274.284778 149.622729)
        (xy 274.273999 149.568479)
        (xy 274.271623 149.544319)
        (xy 274.271623 146.563752)
        (xy 274.273152 146.544342)
        (xy 274.273577 146.541659)
        (xy 274.284796 146.485265)
        (xy 274.295923 146.453179)
        (xy 274.30174 146.441763)
        (xy 274.305417 146.435491)
        (xy 274.327399 146.402595)
        (xy 274.3428 146.383829)
        (xy 274.350939 146.375691)
        (xy 274.369715 146.360283)
        (xy 274.40261 146.338306)
        (xy 274.408878 146.334632)
        (xy 274.42032 146.328804)
        (xy 274.452382 146.317684)
        (xy 274.508291 146.306554)
        (xy 274.511649 146.306022)
        (xy 274.531019 146.3045)
        (xy 275.653889 146.3045)
      )
    )
    (filled_polygon
      (layer "B.Cu")
      (island)
      (pts
        (xy 275.720928 146.324185)
        (xy 275.766683 146.376989)
        (xy 275.776627 146.446147)
        (xy 275.747602 146.509703)
        (xy 275.722782 146.5316)
        (xy 275.687247 146.555344)
        (xy 275.680362 146.559944)
        (xy 275.624996 146.642805)
        (xy 275.624995 146.642809)
        (xy 275.610463 146.715866)
        (xy 275.610463 148.115223)
        (xy 275.624995 148.18828)
        (xy 275.624996 148.188284)
        (xy 275.624997 148.188285)
        (xy 275.680362 148.271146)
        (xy 275.763222 148.32651)
        (xy 275.763223 148.326511)
        (xy 275.763227 148.326512)
        (xy 275.836284 148.341044)
        (xy 275.836287 148.341045)
        (xy 275.836289 148.341045)
        (xy 277.235639 148.341045)
        (xy 277.23564 148.341044)
        (xy 277.308703 148.326511)
        (xy 277.391564 148.271146)
        (xy 277.446929 148.188285)
        (xy 277.461463 148.115219)
        (xy 277.461463 146.715871)
        (xy 277.461463 146.715868)
        (xy 277.461462 146.715866)
        (xy 277.44693 146.642809)
        (xy 277.446929 146.642805)
        (xy 277.446929 146.642804)
        (xy 277.391564 146.559944)
        (xy 277.349145 146.531601)
        (xy 277.304341 146.477991)
        (xy 277.295634 146.408666)
        (xy 277.325788 146.345638)
        (xy 277.385231 146.308918)
        (xy 277.418037 146.3045)
        (xy 278.253889 146.3045)
        (xy 278.320928 146.324185)
        (xy 278.366683 146.376989)
        (xy 278.376627 146.446147)
        (xy 278.347602 146.509703)
        (xy 278.322782 146.5316)
        (xy 278.287247 146.555344)
        (xy 278.280362 146.559944)
        (xy 278.224996 146.642805)
        (xy 278.224995 146.642809)
        (xy 278.210463 146.715866)
        (xy 278.210463 148.115223)
        (xy 278.224995 148.18828)
        (xy 278.224996 148.188284)
        (xy 278.224997 148.188285)
        (xy 278.280362 148.271146)
        (xy 278.363222 148.32651)
        (xy 278.363223 148.326511)
        (xy 278.363227 148.326512)
        (xy 278.436284 148.341044)
        (xy 278.436287 148.341045)
        (xy 278.436289 148.341045)
        (xy 278.636463 148.341045)
        (xy 278.703502 148.36073)
        (xy 278.749257 148.413534)
        (xy 278.760463 148.465045)
        (xy 278.760463 161.888559)
        (xy 278.757825 161.913997)
        (xy 278.755596 161.924631)
        (xy 278.755596 161.924632)
        (xy 278.755596 161.924634)
        (xy 278.759986 161.959854)
        (xy 278.760463 161.96753)
        (xy 278.760463 161.971479)
        (xy 278.764305 161.994504)
        (xy 278.771097 162.04899)
        (xy 278.773336 162.05651)
        (xy 278.775897 162.063971)
        (xy 278.775898 162.063973)
        (xy 278.802017 162.11224)
        (xy 278.802018 162.11224)
        (xy 278.826137 162.161574)
        (xy 278.830705 162.167972)
        (xy 278.835545 162.17419)
        (xy 278.875933 162.211371)
        (xy 279.934681 163.270118)
        (xy 279.968166 163.331441)
        (xy 279.970096 163.372743)
        (xy 279.963922 163.423597)
        (xy 279.963922 163.4236)
        (xy 279.982963 163.580418)
        (xy 280.03898 163.728123)
        (xy 280.128717 163.85813)
        (xy 280.24696 163.962883)
        (xy 280.246962 163.962884)
        (xy 280.386834 164.036296)
        (xy 280.540214 164.0741)
        (xy 280.540215 164.0741)
        (xy 280.698185 164.0741)
        (xy 280.851565 164.036296)
        (xy 280.851564 164.036295)
        (xy 280.99144 163.962883)
        (xy 281.109683 163.85813)
        (xy 281.19942 163.728123)
        (xy 281.255437 163.580418)
        (xy 281.274478 163.4236)
        (xy 281.255437 163.266782)
        (xy 281.19942 163.119077)
        (xy 281.109683 162.98907)
        (xy 280.99144 162.884317)
        (xy 280.991438 162.884316)
        (xy 280.991437 162.884315)
        (xy 280.851565 162.810903)
        (xy 280.698186 162.7731)
        (xy 280.698185 162.7731)
        (xy 280.5511 162.7731)
        (xy 280.484061 162.753415)
        (xy 280.463419 162.736781)
        (xy 279.547782 161.821144)
        (xy 279.514297 161.759821)
        (xy 279.511463 161.733463)
        (xy 279.511463 148.465045)
        (xy 279.531148 148.398006)
        (xy 279.583952 148.352251)
        (xy 279.635463 148.341045)
        (xy 279.835639 148.341045)
        (xy 279.83564 148.341044)
        (xy 279.908703 148.326511)
        (xy 279.991564 148.271146)
        (xy 280.046929 148.188285)
        (xy 280.061463 148.115219)
        (xy 280.061463 147.034297)
        (xy 280.081148 146.967258)
        (xy 280.133952 146.921503)
        (xy 280.20311 146.911559)
        (xy 280.266666 146.940584)
        (xy 280.285422 146.96092)
        (xy 280.303985 146.986208)
        (xy 280.309398 147.001148)
        (xy 280.320775 147.012116)
        (xy 280.334672 147.028011)
        (xy 280.360991 147.063864)
        (xy 280.41262 147.107632)
        (xy 280.422158 147.122127)
        (xy 280.434125 147.128843)
        (xy 280.453623 147.142392)
        (xy 280.466127 147.152992)
        (xy 280.478336 147.163342)
        (xy 280.545307 147.197258)
        (xy 280.547045 147.198138)
        (xy 280.560743 147.211011)
        (xy 280.57214 147.213991)
        (xy 280.596801 147.223336)
        (xy 280.615576 147.232844)
        (xy 280.615577 147.232845)
        (xy 280.699212 147.252815)
        (xy 280.716667 147.262809)
        (xy 280.726465 147.262809)
        (xy 280.755265 147.2662)
        (xy 280.765198 147.268572)
        (xy 280.765201 147.268572)
        (xy 280.765204 147.268573)
        (xy 280.765206 147.268573)
        (xy 280.772427 147.269423)
        (xy 280.772414 147.269527)
        (xy 280.794293 147.27234)
        (xy 280.79456 147.272185)
        (xy 280.824272 147.268573)
        (xy 280.859971 147.268573)
        (xy 280.880385 147.274567)
        (xy 280.887892 147.272605)
        (xy 280.911829 147.269527)
        (xy 280.911817 147.269423)
        (xy 280.919037 147.268573)
        (xy 280.91904 147.268573)
        (xy 280.919043 147.268572)
        (xy 280.919045 147.268572)
        (xy 280.928979 147.2662)
        (xy 280.957779 147.262809)
        (xy 280.958536 147.262809)
        (xy 280.985028 147.252815)
        (xy 281.068668 147.232844)
        (xy 281.087442 147.223335)
        (xy 281.112103 147.21399)
        (xy 281.11525 147.213167)
        (xy 281.137199 147.198138)
        (xy 281.138937 147.197258)
        (xy 281.205908 147.163342)
        (xy 281.23062 147.142392)
        (xy 281.250119 147.128843)
        (xy 281.25514 147.126024)
        (xy 281.27162 147.107635)
        (xy 281.323252 147.063865)
        (xy 281.349576 147.028005)
        (xy 281.363471 147.012114)
        (xy 281.369532 147.00627)
        (xy 281.380255 146.986212)
        (xy 281.414285 146.939856)
        (xy 281.436666 146.886747)
        (xy 281.445086 146.870312)
        (xy 281.451302 146.860127)
        (xy 281.456627 146.83938)
        (xy 281.474027 146.798095)
        (xy 281.486088 146.725787)
        (xy 281.487688 146.718751)
        (xy 281.488522 146.715871)
        (xy 281.492555 146.701929)
        (xy 281.520491 146.61321)
        (xy 281.530904 146.589286)
        (xy 281.548417 146.558413)
        (xy 281.550671 146.554746)
        (xy 281.587382 146.499476)
        (xy 281.599955 146.483552)
        (xy 281.628107 146.453356)
        (xy 281.633327 146.448376)
        (xy 281.685288 146.404322)
        (xy 281.691077 146.39997)
        (xy 281.725447 146.377153)
        (xy 281.743221 146.36735)
        (xy 281.803762 146.340169)
        (xy 281.80773 146.338553)
        (xy 281.841014 146.326341)
        (xy 281.866364 146.319975)
        (xy 281.960447 146.306683)
        (xy 281.97245 146.305268)
        (xy 281.975362 146.304926)
        (xy 281.982619 146.3045)
        (xy 283.311366 146.3045)
        (xy 283.330758 146.306026)
        (xy 283.333466 146.306456)
        (xy 283.389851 146.317676)
        (xy 283.421942 146.328807)
        (xy 283.433341 146.334616)
        (xy 283.439637 146.338307)
        (xy 283.472509 146.360274)
        (xy 283.491299 146.375696)
        (xy 283.499422 146.38382)
        (xy 283.514838 146.402607)
        (xy 283.536797 146.435472)
        (xy 283.540492 146.441776)
        (xy 283.54631 146.453196)
        (xy 283.557436 146.485269)
        (xy 283.568567 146.541164)
        (xy 283.569095 146.544501)
        (xy 283.570623 146.563901)
        (xy 283.570623 149.544241)
        (xy 283.569102 149.563602)
        (xy 283.568669 149.566334)
        (xy 283.55745 149.622735)
        (xy 283.546321 149.654831)
        (xy 283.540516 149.666225)
        (xy 283.536821 149.672529)
        (xy 283.514857 149.705404)
        (xy 283.499444 149.724187)
        (xy 283.491317 149.732316)
        (xy 283.47252 149.747745)
        (xy 283.439657 149.769706)
        (xy 283.43336 149.773398)
        (xy 283.421984 149.779196)
        (xy 283.389844 149.790341)
        (xy 283.335605 149.801121)
        (xy 283.311433 149.8035)
        (xy 282.595883 149.8035)
        (xy 282.595677 149.803459)
        (xy 282.571123 149.803459)
        (xy 282.571024 149.8035)
        (xy 282.57074 149.803616)
        (xy 282.570738 149.803618)
        (xy 282.570582 149.803999)
        (xy 282.570599 149.828616)
        (xy 282.570594 149.828616)
        (xy 282.570623 149.828759)
        (xy 282.570623 164.08251)
        (xy 282.570291 164.088917)
        (xy 282.561725 164.171431)
        (xy 282.552486 164.207181)
        (xy 282.493519 164.345748)
        (xy 282.468154 164.383811)
        (xy 282.375836 164.478385)
        (xy 282.345514 164.501149)
        (xy 282.157891 164.601341)
        (xy 282.138883 164.610924)
        (xy 281.974321 164.688855)
        (xy 281.974321 164.688856)
        (xy 281.807889 164.762721)
        (xy 281.639633 164.832506)
        (xy 281.469729 164.898143)
        (xy 281.298322 164.959584)
        (xy 281.12539 165.016835)
        (xy 281.073903 165.032491)
        (xy 280.951166 165.069812)
        (xy 280.775773 165.118479)
        (xy 280.599198 165.162826)
        (xy 280.421706 165.202779)
        (xy 280.243284 165.238325)
        (xy 280.064061 165.269418)
        (xy 280.03747 165.273349)
        (xy 279.884224 165.296008)
        (xy 279.856388 165.299411)
        (xy 279.829144 165.302741)
        (xy 279.821614 165.3032)
        (xy 278.006391 165.3032)
        (xy 277.999097 165.30277)
        (xy 277.998852 165.302741)
        (xy 277.987198 165.301361)
        (xy 277.859951 165.284073)
        (xy 277.73306 165.264614)
        (xy 277.60645 165.242973)
        (xy 277.480285 165.219183)
        (xy 277.354472 165.193227)
        (xy 277.229171 165.165139)
        (xy 277.104364 165.134917)
        (xy 277.104364 165.134916)
        (xy 276.980055 165.102557)
        (xy 276.856342 165.068087)
        (xy 276.733257 165.031513)
        (xy 276.61079 164.992827)
        (xy 276.488981 164.952039)
        (xy 276.368024 164.909211)
        (xy 276.247734 164.864273)
        (xy 276.128235 164.817263)
        (xy 276.009654 164.768224)
        (xy 275.891959 164.717141)
        (xy 275.775193 164.66402)
        (xy 275.659341 164.608847)
        (xy 275.651779 164.60508)
        (xy 275.649044 164.603631)
        (xy 275.477412 164.507154)
        (xy 275.443042 164.478597)
        (xy 275.347303 164.364086)
        (xy 275.324807 164.32379)
        (xy 275.282688 164.197534)
        (xy 275.276316 164.158346)
        (xy 275.271623 151.185893)
        (xy 275.271623 149.828759)
        (xy 275.271651 149.828616)
        (xy 275.271647 149.828616)
        (xy 275.271662 149.804002)
        (xy 275.271664 149.804)
        (xy 275.271585 149.803808)
        (xy 275.271507 149.803618)
        (xy 275.271505 149.803616)
        (xy 275.271222 149.8035)
        (xy 275.271123 149.803459)
        (xy 275.246569 149.803459)
        (xy 275.246363 149.8035)
        (xy 274.530877 149.8035)
        (xy 274.511496 149.801976)
        (xy 274.5088 149.801549)
        (xy 274.479107 149.795645)
        (xy 274.452389 149.790333)
        (xy 274.420289 149.779205)
        (xy 274.408887 149.773397)
        (xy 274.402589 149.769706)
        (xy 274.369709 149.74774)
        (xy 274.350917 149.732317)
        (xy 274.342788 149.724188)
        (xy 274.327371 149.705404)
        (xy 274.324957 149.701792)
        (xy 274.305398 149.672522)
        (xy 274.301721 149.666249)
        (xy 274.295915 149.654854)
        (xy 274.284778 149.622729)
        (xy 274.273999 149.568479)
        (xy 274.271623 149.544319)
        (xy 274.271623 146.563752)
        (xy 274.273152 146.544342)
        (xy 274.273577 146.541659)
        (xy 274.284796 146.485265)
        (xy 274.295923 146.453179)
        (xy 274.30174 146.441763)
        (xy 274.305417 146.435491)
        (xy 274.327399 146.402595)
        (xy 274.3428 146.383829)
        (xy 274.350939 146.375691)
        (xy 274.369715 146.360283)
        (xy 274.40261 146.338306)
        (xy 274.408878 146.334632)
        (xy 274.42032 146.328804)
        (xy 274.452382 146.317684)
        (xy 274.508291 146.306554)
        (xy 274.511649 146.306022)
        (xy 274.531019 146.3045)
        (xy 275.653889 146.3045)
      )
    )
  )
)
