(kicad_sch (version 20230121) (generator eeschema)

  (uuid 245a6fb4-6361-4438-82ca-8861d43ca7f5)

  (paper "A4")

  (title_block
    (title "IoT12 Control Board")
    (date "2022-12-20")
    (rev "V2.2")
    (company "https://github.com/atoomnetmarc/IoT12")
  )

  (lib_symbols
    (symbol "Connector:Conn_01x02_Pin" (pin_names (offset 1.016) hide) (in_bom yes) (on_board yes)
      (property "Reference" "J" (at 0 2.54 0)
        (effects (font (size 1.27 1.27)))
      )
      (property "Value" "Conn_01x02_Pin" (at 0 -5.08 0)
        (effects (font (size 1.27 1.27)))
      )
      (property "Footprint" "" (at 0 0 0)
        (effects (font (size 1.27 1.27)) hide)
      )
      (property "Datasheet" "~" (at 0 0 0)
        (effects (font (size 1.27 1.27)) hide)
      )
      (property "ki_locked" "" (at 0 0 0)
        (effects (font (size 1.27 1.27)))
      )
      (property "ki_keywords" "connector" (at 0 0 0)
        (effects (font (size 1.27 1.27)) hide)
      )
      (property "ki_description" "Generic connector, single row, 01x02, script generated" (at 0 0 0)
        (effects (font (size 1.27 1.27)) hide)
      )
      (property "ki_fp_filters" "Connector*:*_1x??_*" (at 0 0 0)
        (effects (font (size 1.27 1.27)) hide)
      )
      (symbol "Conn_01x02_Pin_1_1"
        (polyline
          (pts
            (xy 1.27 -2.54)
            (xy 0.8636 -2.54)
          )
          (stroke (width 0.1524) (type default))
          (fill (type none))
        )
        (polyline
          (pts
            (xy 1.27 0)
            (xy 0.8636 0)
          )
          (stroke (width 0.1524) (type default))
          (fill (type none))
        )
        (rectangle (start 0.8636 -2.413) (end 0 -2.667)
          (stroke (width 0.1524) (type default))
          (fill (type outline))
        )
        (rectangle (start 0.8636 0.127) (end 0 -0.127)
          (stroke (width 0.1524) (type default))
          (fill (type outline))
        )
        (pin passive line (at 5.08 0 180) (length 3.81)
          (name "Pin_1" (effects (font (size 1.27 1.27))))
          (number "1" (effects (font (size 1.27 1.27))))
        )
        (pin passive line (at 5.08 -2.54 180) (length 3.81)
          (name "Pin_2" (effects (font (size 1.27 1.27))))
          (number "2" (effects (font (size 1.27 1.27))))
        )
      )
    )
    (symbol "Connector:Conn_01x05_Pin" (pin_names (offset 1.016) hide) (in_bom yes) (on_board yes)
      (property "Reference" "J" (at 0 7.62 0)
        (effects (font (size 1.27 1.27)))
      )
      (property "Value" "Conn_01x05_Pin" (at 0 -7.62 0)
        (effects (font (size 1.27 1.27)))
      )
      (property "Footprint" "" (at 0 0 0)
        (effects (font (size 1.27 1.27)) hide)
      )
      (property "Datasheet" "~" (at 0 0 0)
        (effects (font (size 1.27 1.27)) hide)
      )
      (property "ki_locked" "" (at 0 0 0)
        (effects (font (size 1.27 1.27)))
      )
      (property "ki_keywords" "connector" (at 0 0 0)
        (effects (font (size 1.27 1.27)) hide)
      )
      (property "ki_description" "Generic connector, single row, 01x05, script generated" (at 0 0 0)
        (effects (font (size 1.27 1.27)) hide)
      )
      (property "ki_fp_filters" "Connector*:*_1x??_*" (at 0 0 0)
        (effects (font (size 1.27 1.27)) hide)
      )
      (symbol "Conn_01x05_Pin_1_1"
        (polyline
          (pts
            (xy 1.27 -5.08)
            (xy 0.8636 -5.08)
          )
          (stroke (width 0.1524) (type default))
          (fill (type none))
        )
        (polyline
          (pts
            (xy 1.27 -2.54)
            (xy 0.8636 -2.54)
          )
          (stroke (width 0.1524) (type default))
          (fill (type none))
        )
        (polyline
          (pts
            (xy 1.27 0)
            (xy 0.8636 0)
          )
          (stroke (width 0.1524) (type default))
          (fill (type none))
        )
        (polyline
          (pts
            (xy 1.27 2.54)
            (xy 0.8636 2.54)
          )
          (stroke (width 0.1524) (type default))
          (fill (type none))
        )
        (polyline
          (pts
            (xy 1.27 5.08)
            (xy 0.8636 5.08)
          )
          (stroke (width 0.1524) (type default))
          (fill (type none))
        )
        (rectangle (start 0.8636 -4.953) (end 0 -5.207)
          (stroke (width 0.1524) (type default))
          (fill (type outline))
        )
        (rectangle (start 0.8636 -2.413) (end 0 -2.667)
          (stroke (width 0.1524) (type default))
          (fill (type outline))
        )
        (rectangle (start 0.8636 0.127) (end 0 -0.127)
          (stroke (width 0.1524) (type default))
          (fill (type outline))
        )
        (rectangle (start 0.8636 2.667) (end 0 2.413)
          (stroke (width 0.1524) (type default))
          (fill (type outline))
        )
        (rectangle (start 0.8636 5.207) (end 0 4.953)
          (stroke (width 0.1524) (type default))
          (fill (type outline))
        )
        (pin passive line (at 5.08 5.08 180) (length 3.81)
          (name "Pin_1" (effects (font (size 1.27 1.27))))
          (number "1" (effects (font (size 1.27 1.27))))
        )
        (pin passive line (at 5.08 2.54 180) (length 3.81)
          (name "Pin_2" (effects (font (size 1.27 1.27))))
          (number "2" (effects (font (size 1.27 1.27))))
        )
        (pin passive line (at 5.08 0 180) (length 3.81)
          (name "Pin_3" (effects (font (size 1.27 1.27))))
          (number "3" (effects (font (size 1.27 1.27))))
        )
        (pin passive line (at 5.08 -2.54 180) (length 3.81)
          (name "Pin_4" (effects (font (size 1.27 1.27))))
          (number "4" (effects (font (size 1.27 1.27))))
        )
        (pin passive line (at 5.08 -5.08 180) (length 3.81)
          (name "Pin_5" (effects (font (size 1.27 1.27))))
          (number "5" (effects (font (size 1.27 1.27))))
        )
      )
    )
    (symbol "Connector_Generic:Conn_02x07_Odd_Even" (pin_names (offset 1.016) hide) (in_bom yes) (on_board yes)
      (property "Reference" "J" (at 1.27 10.16 0)
        (effects (font (size 1.27 1.27)))
      )
      (property "Value" "Conn_02x07_Odd_Even" (at 1.27 -10.16 0)
        (effects (font (size 1.27 1.27)))
      )
      (property "Footprint" "" (at 0 0 0)
        (effects (font (size 1.27 1.27)) hide)
      )
      (property "Datasheet" "~" (at 0 0 0)
        (effects (font (size 1.27 1.27)) hide)
      )
      (property "ki_keywords" "connector" (at 0 0 0)
        (effects (font (size 1.27 1.27)) hide)
      )
      (property "ki_description" "Generic connector, double row, 02x07, odd/even pin numbering scheme (row 1 odd numbers, row 2 even numbers), script generated (kicad-library-utils/schlib/autogen/connector/)" (at 0 0 0)
        (effects (font (size 1.27 1.27)) hide)
      )
      (property "ki_fp_filters" "Connector*:*_2x??_*" (at 0 0 0)
        (effects (font (size 1.27 1.27)) hide)
      )
      (symbol "Conn_02x07_Odd_Even_1_1"
        (rectangle (start -1.27 -7.493) (end 0 -7.747)
          (stroke (width 0.1524) (type default))
          (fill (type none))
        )
        (rectangle (start -1.27 -4.953) (end 0 -5.207)
          (stroke (width 0.1524) (type default))
          (fill (type none))
        )
        (rectangle (start -1.27 -2.413) (end 0 -2.667)
          (stroke (width 0.1524) (type default))
          (fill (type none))
        )
        (rectangle (start -1.27 0.127) (end 0 -0.127)
          (stroke (width 0.1524) (type default))
          (fill (type none))
        )
        (rectangle (start -1.27 2.667) (end 0 2.413)
          (stroke (width 0.1524) (type default))
          (fill (type none))
        )
        (rectangle (start -1.27 5.207) (end 0 4.953)
          (stroke (width 0.1524) (type default))
          (fill (type none))
        )
        (rectangle (start -1.27 7.747) (end 0 7.493)
          (stroke (width 0.1524) (type default))
          (fill (type none))
        )
        (rectangle (start -1.27 8.89) (end 3.81 -8.89)
          (stroke (width 0.254) (type default))
          (fill (type background))
        )
        (rectangle (start 3.81 -7.493) (end 2.54 -7.747)
          (stroke (width 0.1524) (type default))
          (fill (type none))
        )
        (rectangle (start 3.81 -4.953) (end 2.54 -5.207)
          (stroke (width 0.1524) (type default))
          (fill (type none))
        )
        (rectangle (start 3.81 -2.413) (end 2.54 -2.667)
          (stroke (width 0.1524) (type default))
          (fill (type none))
        )
        (rectangle (start 3.81 0.127) (end 2.54 -0.127)
          (stroke (width 0.1524) (type default))
          (fill (type none))
        )
        (rectangle (start 3.81 2.667) (end 2.54 2.413)
          (stroke (width 0.1524) (type default))
          (fill (type none))
        )
        (rectangle (start 3.81 5.207) (end 2.54 4.953)
          (stroke (width 0.1524) (type default))
          (fill (type none))
        )
        (rectangle (start 3.81 7.747) (end 2.54 7.493)
          (stroke (width 0.1524) (type default))
          (fill (type none))
        )
        (pin passive line (at -5.08 7.62 0) (length 3.81)
          (name "Pin_1" (effects (font (size 1.27 1.27))))
          (number "1" (effects (font (size 1.27 1.27))))
        )
        (pin passive line (at 7.62 -2.54 180) (length 3.81)
          (name "Pin_10" (effects (font (size 1.27 1.27))))
          (number "10" (effects (font (size 1.27 1.27))))
        )
        (pin passive line (at -5.08 -5.08 0) (length 3.81)
          (name "Pin_11" (effects (font (size 1.27 1.27))))
          (number "11" (effects (font (size 1.27 1.27))))
        )
        (pin passive line (at 7.62 -5.08 180) (length 3.81)
          (name "Pin_12" (effects (font (size 1.27 1.27))))
          (number "12" (effects (font (size 1.27 1.27))))
        )
        (pin passive line (at -5.08 -7.62 0) (length 3.81)
          (name "Pin_13" (effects (font (size 1.27 1.27))))
          (number "13" (effects (font (size 1.27 1.27))))
        )
        (pin passive line (at 7.62 -7.62 180) (length 3.81)
          (name "Pin_14" (effects (font (size 1.27 1.27))))
          (number "14" (effects (font (size 1.27 1.27))))
        )
        (pin passive line (at 7.62 7.62 180) (length 3.81)
          (name "Pin_2" (effects (font (size 1.27 1.27))))
          (number "2" (effects (font (size 1.27 1.27))))
        )
        (pin passive line (at -5.08 5.08 0) (length 3.81)
          (name "Pin_3" (effects (font (size 1.27 1.27))))
          (number "3" (effects (font (size 1.27 1.27))))
        )
        (pin passive line (at 7.62 5.08 180) (length 3.81)
          (name "Pin_4" (effects (font (size 1.27 1.27))))
          (number "4" (effects (font (size 1.27 1.27))))
        )
        (pin passive line (at -5.08 2.54 0) (length 3.81)
          (name "Pin_5" (effects (font (size 1.27 1.27))))
          (number "5" (effects (font (size 1.27 1.27))))
        )
        (pin passive line (at 7.62 2.54 180) (length 3.81)
          (name "Pin_6" (effects (font (size 1.27 1.27))))
          (number "6" (effects (font (size 1.27 1.27))))
        )
        (pin passive line (at -5.08 0 0) (length 3.81)
          (name "Pin_7" (effects (font (size 1.27 1.27))))
          (number "7" (effects (font (size 1.27 1.27))))
        )
        (pin passive line (at 7.62 0 180) (length 3.81)
          (name "Pin_8" (effects (font (size 1.27 1.27))))
          (number "8" (effects (font (size 1.27 1.27))))
        )
        (pin passive line (at -5.08 -2.54 0) (length 3.81)
          (name "Pin_9" (effects (font (size 1.27 1.27))))
          (number "9" (effects (font (size 1.27 1.27))))
        )
      )
    )
    (symbol "Device:D_Schottky" (pin_numbers hide) (pin_names (offset 1.016) hide) (in_bom yes) (on_board yes)
      (property "Reference" "D" (at 0 2.54 0)
        (effects (font (size 1.27 1.27)))
      )
      (property "Value" "D_Schottky" (at 0 -2.54 0)
        (effects (font (size 1.27 1.27)))
      )
      (property "Footprint" "" (at 0 0 0)
        (effects (font (size 1.27 1.27)) hide)
      )
      (property "Datasheet" "~" (at 0 0 0)
        (effects (font (size 1.27 1.27)) hide)
      )
      (property "ki_keywords" "diode Schottky" (at 0 0 0)
        (effects (font (size 1.27 1.27)) hide)
      )
      (property "ki_description" "Schottky diode" (at 0 0 0)
        (effects (font (size 1.27 1.27)) hide)
      )
      (property "ki_fp_filters" "TO-???* *_Diode_* *SingleDiode* D_*" (at 0 0 0)
        (effects (font (size 1.27 1.27)) hide)
      )
      (symbol "D_Schottky_0_1"
        (polyline
          (pts
            (xy 1.27 0)
            (xy -1.27 0)
          )
          (stroke (width 0) (type default))
          (fill (type none))
        )
        (polyline
          (pts
            (xy 1.27 1.27)
            (xy 1.27 -1.27)
            (xy -1.27 0)
            (xy 1.27 1.27)
          )
          (stroke (width 0.254) (type default))
          (fill (type none))
        )
        (polyline
          (pts
            (xy -1.905 0.635)
            (xy -1.905 1.27)
            (xy -1.27 1.27)
            (xy -1.27 -1.27)
            (xy -0.635 -1.27)
            (xy -0.635 -0.635)
          )
          (stroke (width 0.254) (type default))
          (fill (type none))
        )
      )
      (symbol "D_Schottky_1_1"
        (pin passive line (at -3.81 0 0) (length 2.54)
          (name "K" (effects (font (size 1.27 1.27))))
          (number "1" (effects (font (size 1.27 1.27))))
        )
        (pin passive line (at 3.81 0 180) (length 2.54)
          (name "A" (effects (font (size 1.27 1.27))))
          (number "2" (effects (font (size 1.27 1.27))))
        )
      )
    )
    (symbol "Device:LED" (pin_numbers hide) (pin_names (offset 1.016) hide) (in_bom yes) (on_board yes)
      (property "Reference" "D" (at 0 2.54 0)
        (effects (font (size 1.27 1.27)))
      )
      (property "Value" "LED" (at 0 -2.54 0)
        (effects (font (size 1.27 1.27)))
      )
      (property "Footprint" "" (at 0 0 0)
        (effects (font (size 1.27 1.27)) hide)
      )
      (property "Datasheet" "~" (at 0 0 0)
        (effects (font (size 1.27 1.27)) hide)
      )
      (property "ki_keywords" "LED diode" (at 0 0 0)
        (effects (font (size 1.27 1.27)) hide)
      )
      (property "ki_description" "Light emitting diode" (at 0 0 0)
        (effects (font (size 1.27 1.27)) hide)
      )
      (property "ki_fp_filters" "LED* LED_SMD:* LED_THT:*" (at 0 0 0)
        (effects (font (size 1.27 1.27)) hide)
      )
      (symbol "LED_0_1"
        (polyline
          (pts
            (xy -1.27 -1.27)
            (xy -1.27 1.27)
          )
          (stroke (width 0.254) (type default))
          (fill (type none))
        )
        (polyline
          (pts
            (xy -1.27 0)
            (xy 1.27 0)
          )
          (stroke (width 0) (type default))
          (fill (type none))
        )
        (polyline
          (pts
            (xy 1.27 -1.27)
            (xy 1.27 1.27)
            (xy -1.27 0)
            (xy 1.27 -1.27)
          )
          (stroke (width 0.254) (type default))
          (fill (type none))
        )
        (polyline
          (pts
            (xy -3.048 -0.762)
            (xy -4.572 -2.286)
            (xy -3.81 -2.286)
            (xy -4.572 -2.286)
            (xy -4.572 -1.524)
          )
          (stroke (width 0) (type default))
          (fill (type none))
        )
        (polyline
          (pts
            (xy -1.778 -0.762)
            (xy -3.302 -2.286)
            (xy -2.54 -2.286)
            (xy -3.302 -2.286)
            (xy -3.302 -1.524)
          )
          (stroke (width 0) (type default))
          (fill (type none))
        )
      )
      (symbol "LED_1_1"
        (pin passive line (at -3.81 0 0) (length 2.54)
          (name "K" (effects (font (size 1.27 1.27))))
          (number "1" (effects (font (size 1.27 1.27))))
        )
        (pin passive line (at 3.81 0 180) (length 2.54)
          (name "A" (effects (font (size 1.27 1.27))))
          (number "2" (effects (font (size 1.27 1.27))))
        )
      )
    )
    (symbol "Device:NetTie_2" (pin_numbers hide) (pin_names (offset 0) hide) (in_bom no) (on_board yes)
      (property "Reference" "NT" (at 0 1.27 0)
        (effects (font (size 1.27 1.27)))
      )
      (property "Value" "NetTie_2" (at 0 -1.27 0)
        (effects (font (size 1.27 1.27)))
      )
      (property "Footprint" "" (at 0 0 0)
        (effects (font (size 1.27 1.27)) hide)
      )
      (property "Datasheet" "~" (at 0 0 0)
        (effects (font (size 1.27 1.27)) hide)
      )
      (property "ki_keywords" "net tie short" (at 0 0 0)
        (effects (font (size 1.27 1.27)) hide)
      )
      (property "ki_description" "Net tie, 2 pins" (at 0 0 0)
        (effects (font (size 1.27 1.27)) hide)
      )
      (property "ki_fp_filters" "Net*Tie*" (at 0 0 0)
        (effects (font (size 1.27 1.27)) hide)
      )
      (symbol "NetTie_2_0_1"
        (polyline
          (pts
            (xy -1.27 0)
            (xy 1.27 0)
          )
          (stroke (width 0.254) (type default))
          (fill (type none))
        )
      )
      (symbol "NetTie_2_1_1"
        (pin passive line (at -2.54 0 0) (length 2.54)
          (name "1" (effects (font (size 1.27 1.27))))
          (number "1" (effects (font (size 1.27 1.27))))
        )
        (pin passive line (at 2.54 0 180) (length 2.54)
          (name "2" (effects (font (size 1.27 1.27))))
          (number "2" (effects (font (size 1.27 1.27))))
        )
      )
    )
    (symbol "Device:R" (pin_numbers hide) (pin_names (offset 0)) (in_bom yes) (on_board yes)
      (property "Reference" "R" (at 2.032 0 90)
        (effects (font (size 1.27 1.27)))
      )
      (property "Value" "R" (at 0 0 90)
        (effects (font (size 1.27 1.27)))
      )
      (property "Footprint" "" (at -1.778 0 90)
        (effects (font (size 1.27 1.27)) hide)
      )
      (property "Datasheet" "~" (at 0 0 0)
        (effects (font (size 1.27 1.27)) hide)
      )
      (property "ki_keywords" "R res resistor" (at 0 0 0)
        (effects (font (size 1.27 1.27)) hide)
      )
      (property "ki_description" "Resistor" (at 0 0 0)
        (effects (font (size 1.27 1.27)) hide)
      )
      (property "ki_fp_filters" "R_*" (at 0 0 0)
        (effects (font (size 1.27 1.27)) hide)
      )
      (symbol "R_0_1"
        (rectangle (start -1.016 -2.54) (end 1.016 2.54)
          (stroke (width 0.254) (type default))
          (fill (type none))
        )
      )
      (symbol "R_1_1"
        (pin passive line (at 0 3.81 270) (length 1.27)
          (name "~" (effects (font (size 1.27 1.27))))
          (number "1" (effects (font (size 1.27 1.27))))
        )
        (pin passive line (at 0 -3.81 90) (length 1.27)
          (name "~" (effects (font (size 1.27 1.27))))
          (number "2" (effects (font (size 1.27 1.27))))
        )
      )
    )
    (symbol "Diode:BZX84Cxx" (pin_numbers hide) (pin_names hide) (in_bom yes) (on_board yes)
      (property "Reference" "D" (at 0 3.81 0)
        (effects (font (size 1.27 1.27)))
      )
      (property "Value" "BZX84Cxx" (at 0 -3.81 0)
        (effects (font (size 1.27 1.27)))
      )
      (property "Footprint" "Package_TO_SOT_SMD:SOT-23" (at 0 0 0)
        (effects (font (size 1.27 1.27)) hide)
      )
      (property "Datasheet" "https://diotec.com/tl_files/diotec/files/pdf/datasheets/bzx84c2v4.pdf" (at 0 0 0)
        (effects (font (size 1.27 1.27)) hide)
      )
      (property "ki_keywords" "zener diode" (at 0 0 0)
        (effects (font (size 1.27 1.27)) hide)
      )
      (property "ki_description" "300mW Zener Diode, SOT-23" (at 0 0 0)
        (effects (font (size 1.27 1.27)) hide)
      )
      (property "ki_fp_filters" "SOT?23*" (at 0 0 0)
        (effects (font (size 1.27 1.27)) hide)
      )
      (symbol "BZX84Cxx_0_1"
        (polyline
          (pts
            (xy 1.27 0)
            (xy -1.27 0)
          )
          (stroke (width 0) (type default))
          (fill (type none))
        )
        (polyline
          (pts
            (xy -1.27 -1.27)
            (xy -1.27 1.27)
            (xy -0.762 1.27)
          )
          (stroke (width 0.254) (type default))
          (fill (type none))
        )
        (polyline
          (pts
            (xy 1.27 -1.27)
            (xy 1.27 1.27)
            (xy -1.27 0)
            (xy 1.27 -1.27)
          )
          (stroke (width 0.254) (type default))
          (fill (type none))
        )
      )
      (symbol "BZX84Cxx_1_1"
        (pin passive line (at 3.81 0 180) (length 2.54)
          (name "A" (effects (font (size 1.27 1.27))))
          (number "1" (effects (font (size 1.27 1.27))))
        )
        (pin no_connect line (at 1.27 0 180) (length 2.54) hide
          (name "NC" (effects (font (size 1.27 1.27))))
          (number "2" (effects (font (size 1.27 1.27))))
        )
        (pin passive line (at -3.81 0 0) (length 2.54)
          (name "K" (effects (font (size 1.27 1.27))))
          (number "3" (effects (font (size 1.27 1.27))))
        )
      )
    )
    (symbol "Module-extra:max98357" (pin_names (offset 1.016)) (in_bom yes) (on_board yes)
      (property "Reference" "A" (at 3.81 8.89 0)
        (effects (font (size 1.27 1.27)))
      )
      (property "Value" "max98357" (at 6.35 -8.89 0)
        (effects (font (size 1.27 1.27)))
      )
      (property "Footprint" "Module-extra:max98357" (at 0 0 0)
        (effects (font (size 1.27 1.27)) hide)
      )
      (property "Datasheet" "" (at 0 0 0)
        (effects (font (size 1.27 1.27)) hide)
      )
      (symbol "max98357_0_1"
        (rectangle (start -7.62 7.62) (end 7.62 -7.62)
          (stroke (width 0) (type default))
          (fill (type background))
        )
      )
      (symbol "max98357_1_1"
        (pin input line (at -10.16 5.08 0) (length 2.54)
          (name "LRC" (effects (font (size 1.27 1.27))))
          (number "1" (effects (font (size 1.27 1.27))))
        )
        (pin input line (at -10.16 2.54 0) (length 2.54)
          (name "BLCK" (effects (font (size 1.27 1.27))))
          (number "2" (effects (font (size 1.27 1.27))))
        )
        (pin input line (at -10.16 0 0) (length 2.54)
          (name "DIN" (effects (font (size 1.27 1.27))))
          (number "3" (effects (font (size 1.27 1.27))))
        )
        (pin input line (at -10.16 -2.54 0) (length 2.54)
          (name "GAIN" (effects (font (size 1.27 1.27))))
          (number "4" (effects (font (size 1.27 1.27))))
        )
        (pin input line (at -10.16 -5.08 0) (length 2.54)
          (name "SD" (effects (font (size 1.27 1.27))))
          (number "5" (effects (font (size 1.27 1.27))))
        )
        (pin power_in line (at 0 -10.16 90) (length 2.54)
          (name "GND" (effects (font (size 1.27 1.27))))
          (number "6" (effects (font (size 1.27 1.27))))
        )
        (pin power_in line (at 0 10.16 270) (length 2.54)
          (name "VCC" (effects (font (size 1.27 1.27))))
          (number "7" (effects (font (size 1.27 1.27))))
        )
        (pin power_out line (at 10.16 1.27 180) (length 2.54)
          (name "SPK-" (effects (font (size 1.27 1.27))))
          (number "8" (effects (font (size 1.27 1.27))))
        )
        (pin power_out line (at 10.16 -1.27 180) (length 2.54)
          (name "SPK+" (effects (font (size 1.27 1.27))))
          (number "9" (effects (font (size 1.27 1.27))))
        )
      )
    )
    (symbol "Transistor_BJT:BC817" (pin_names (offset 0) hide) (in_bom yes) (on_board yes)
      (property "Reference" "Q" (at 5.08 1.905 0)
        (effects (font (size 1.27 1.27)) (justify left))
      )
      (property "Value" "BC817" (at 5.08 0 0)
        (effects (font (size 1.27 1.27)) (justify left))
      )
      (property "Footprint" "Package_TO_SOT_SMD:SOT-23" (at 5.08 -1.905 0)
        (effects (font (size 1.27 1.27) italic) (justify left) hide)
      )
      (property "Datasheet" "https://www.onsemi.com/pub/Collateral/BC818-D.pdf" (at 0 0 0)
        (effects (font (size 1.27 1.27)) (justify left) hide)
      )
      (property "ki_keywords" "NPN Transistor" (at 0 0 0)
        (effects (font (size 1.27 1.27)) hide)
      )
      (property "ki_description" "0.8A Ic, 45V Vce, NPN Transistor, SOT-23" (at 0 0 0)
        (effects (font (size 1.27 1.27)) hide)
      )
      (property "ki_fp_filters" "SOT?23*" (at 0 0 0)
        (effects (font (size 1.27 1.27)) hide)
      )
      (symbol "BC817_0_1"
        (polyline
          (pts
            (xy 0.635 0.635)
            (xy 2.54 2.54)
          )
          (stroke (width 0) (type default))
          (fill (type none))
        )
        (polyline
          (pts
            (xy 0.635 -0.635)
            (xy 2.54 -2.54)
            (xy 2.54 -2.54)
          )
          (stroke (width 0) (type default))
          (fill (type none))
        )
        (polyline
          (pts
            (xy 0.635 1.905)
            (xy 0.635 -1.905)
            (xy 0.635 -1.905)
          )
          (stroke (width 0.508) (type default))
          (fill (type none))
        )
        (polyline
          (pts
            (xy 1.27 -1.778)
            (xy 1.778 -1.27)
            (xy 2.286 -2.286)
            (xy 1.27 -1.778)
            (xy 1.27 -1.778)
          )
          (stroke (width 0) (type default))
          (fill (type outline))
        )
        (circle (center 1.27 0) (radius 2.8194)
          (stroke (width 0.254) (type default))
          (fill (type none))
        )
      )
      (symbol "BC817_1_1"
        (pin input line (at -5.08 0 0) (length 5.715)
          (name "B" (effects (font (size 1.27 1.27))))
          (number "1" (effects (font (size 1.27 1.27))))
        )
        (pin passive line (at 2.54 -5.08 90) (length 2.54)
          (name "E" (effects (font (size 1.27 1.27))))
          (number "2" (effects (font (size 1.27 1.27))))
        )
        (pin passive line (at 2.54 5.08 270) (length 2.54)
          (name "C" (effects (font (size 1.27 1.27))))
          (number "3" (effects (font (size 1.27 1.27))))
        )
      )
    )
    (symbol "Transistor_FET-extra:AOD403" (pin_names hide) (in_bom yes) (on_board yes)
      (property "Reference" "Q" (at 5.08 1.905 0)
        (effects (font (size 1.27 1.27)) (justify left))
      )
      (property "Value" "AOD403" (at 5.08 0 0)
        (effects (font (size 1.27 1.27)) (justify left))
      )
      (property "Footprint" "Package_TO_SOT_SMD:TO-252-2" (at 5.08 -1.905 0)
        (effects (font (size 1.27 1.27) italic) (justify left) hide)
      )
      (property "Datasheet" "" (at 0 0 90)
        (effects (font (size 1.27 1.27)) (justify left) hide)
      )
      (property "ki_keywords" "P-Channel MOSFET" (at 0 0 0)
        (effects (font (size 1.27 1.27)) hide)
      )
      (property "ki_description" "-70A Id, -30V Vds, P-Channel Power MOSFET, 8mOhm Ron, TO252" (at 0 0 0)
        (effects (font (size 1.27 1.27)) hide)
      )
      (property "ki_fp_filters" "TO?252*" (at 0 0 0)
        (effects (font (size 1.27 1.27)) hide)
      )
      (symbol "AOD403_0_1"
        (polyline
          (pts
            (xy 0.254 0)
            (xy -2.54 0)
          )
          (stroke (width 0) (type default))
          (fill (type none))
        )
        (polyline
          (pts
            (xy 0.254 1.905)
            (xy 0.254 -1.905)
          )
          (stroke (width 0.254) (type default))
          (fill (type none))
        )
        (polyline
          (pts
            (xy 0.762 -1.27)
            (xy 0.762 -2.286)
          )
          (stroke (width 0.254) (type default))
          (fill (type none))
        )
        (polyline
          (pts
            (xy 0.762 0.508)
            (xy 0.762 -0.508)
          )
          (stroke (width 0.254) (type default))
          (fill (type none))
        )
        (polyline
          (pts
            (xy 0.762 2.286)
            (xy 0.762 1.27)
          )
          (stroke (width 0.254) (type default))
          (fill (type none))
        )
        (polyline
          (pts
            (xy 2.54 2.54)
            (xy 2.54 1.778)
          )
          (stroke (width 0) (type default))
          (fill (type none))
        )
        (polyline
          (pts
            (xy 2.54 -2.54)
            (xy 2.54 0)
            (xy 0.762 0)
          )
          (stroke (width 0) (type default))
          (fill (type none))
        )
        (polyline
          (pts
            (xy 0.762 1.778)
            (xy 3.302 1.778)
            (xy 3.302 -1.778)
            (xy 0.762 -1.778)
          )
          (stroke (width 0) (type default))
          (fill (type none))
        )
        (polyline
          (pts
            (xy 2.286 0)
            (xy 1.27 0.381)
            (xy 1.27 -0.381)
            (xy 2.286 0)
          )
          (stroke (width 0) (type default))
          (fill (type outline))
        )
        (polyline
          (pts
            (xy 2.794 -0.508)
            (xy 2.921 -0.381)
            (xy 3.683 -0.381)
            (xy 3.81 -0.254)
          )
          (stroke (width 0) (type default))
          (fill (type none))
        )
        (polyline
          (pts
            (xy 3.302 -0.381)
            (xy 2.921 0.254)
            (xy 3.683 0.254)
            (xy 3.302 -0.381)
          )
          (stroke (width 0) (type default))
          (fill (type none))
        )
        (circle (center 1.651 0) (radius 2.794)
          (stroke (width 0.254) (type default))
          (fill (type none))
        )
        (circle (center 2.54 -1.778) (radius 0.254)
          (stroke (width 0) (type default))
          (fill (type outline))
        )
        (circle (center 2.54 1.778) (radius 0.254)
          (stroke (width 0) (type default))
          (fill (type outline))
        )
      )
      (symbol "AOD403_1_1"
        (pin passive line (at -5.08 0 0) (length 2.54)
          (name "G" (effects (font (size 1.27 1.27))))
          (number "1" (effects (font (size 1.27 1.27))))
        )
        (pin passive line (at 2.54 5.08 270) (length 2.54)
          (name "D" (effects (font (size 1.27 1.27))))
          (number "2" (effects (font (size 1.27 1.27))))
        )
        (pin passive line (at 2.54 -5.08 90) (length 2.54)
          (name "S" (effects (font (size 1.27 1.27))))
          (number "3" (effects (font (size 1.27 1.27))))
        )
      )
    )
    (symbol "power:+24V" (power) (pin_names (offset 0)) (in_bom yes) (on_board yes)
      (property "Reference" "#PWR" (at 0 -3.81 0)
        (effects (font (size 1.27 1.27)) hide)
      )
      (property "Value" "+24V" (at 0 3.556 0)
        (effects (font (size 1.27 1.27)))
      )
      (property "Footprint" "" (at 0 0 0)
        (effects (font (size 1.27 1.27)) hide)
      )
      (property "Datasheet" "" (at 0 0 0)
        (effects (font (size 1.27 1.27)) hide)
      )
      (property "ki_keywords" "global power" (at 0 0 0)
        (effects (font (size 1.27 1.27)) hide)
      )
      (property "ki_description" "Power symbol creates a global label with name \"+24V\"" (at 0 0 0)
        (effects (font (size 1.27 1.27)) hide)
      )
      (symbol "+24V_0_1"
        (polyline
          (pts
            (xy -0.762 1.27)
            (xy 0 2.54)
          )
          (stroke (width 0) (type default))
          (fill (type none))
        )
        (polyline
          (pts
            (xy 0 0)
            (xy 0 2.54)
          )
          (stroke (width 0) (type default))
          (fill (type none))
        )
        (polyline
          (pts
            (xy 0 2.54)
            (xy 0.762 1.27)
          )
          (stroke (width 0) (type default))
          (fill (type none))
        )
      )
      (symbol "+24V_1_1"
        (pin power_in line (at 0 0 90) (length 0) hide
          (name "+24V" (effects (font (size 1.27 1.27))))
          (number "1" (effects (font (size 1.27 1.27))))
        )
      )
    )
    (symbol "power:+3.3V" (power) (pin_names (offset 0)) (in_bom yes) (on_board yes)
      (property "Reference" "#PWR" (at 0 -3.81 0)
        (effects (font (size 1.27 1.27)) hide)
      )
      (property "Value" "+3.3V" (at 0 3.556 0)
        (effects (font (size 1.27 1.27)))
      )
      (property "Footprint" "" (at 0 0 0)
        (effects (font (size 1.27 1.27)) hide)
      )
      (property "Datasheet" "" (at 0 0 0)
        (effects (font (size 1.27 1.27)) hide)
      )
      (property "ki_keywords" "global power" (at 0 0 0)
        (effects (font (size 1.27 1.27)) hide)
      )
      (property "ki_description" "Power symbol creates a global label with name \"+3.3V\"" (at 0 0 0)
        (effects (font (size 1.27 1.27)) hide)
      )
      (symbol "+3.3V_0_1"
        (polyline
          (pts
            (xy -0.762 1.27)
            (xy 0 2.54)
          )
          (stroke (width 0) (type default))
          (fill (type none))
        )
        (polyline
          (pts
            (xy 0 0)
            (xy 0 2.54)
          )
          (stroke (width 0) (type default))
          (fill (type none))
        )
        (polyline
          (pts
            (xy 0 2.54)
            (xy 0.762 1.27)
          )
          (stroke (width 0) (type default))
          (fill (type none))
        )
      )
      (symbol "+3.3V_1_1"
        (pin power_in line (at 0 0 90) (length 0) hide
          (name "+3.3V" (effects (font (size 1.27 1.27))))
          (number "1" (effects (font (size 1.27 1.27))))
        )
      )
    )
    (symbol "power:+5V" (power) (pin_names (offset 0)) (in_bom yes) (on_board yes)
      (property "Reference" "#PWR" (at 0 -3.81 0)
        (effects (font (size 1.27 1.27)) hide)
      )
      (property "Value" "+5V" (at 0 3.556 0)
        (effects (font (size 1.27 1.27)))
      )
      (property "Footprint" "" (at 0 0 0)
        (effects (font (size 1.27 1.27)) hide)
      )
      (property "Datasheet" "" (at 0 0 0)
        (effects (font (size 1.27 1.27)) hide)
      )
      (property "ki_keywords" "global power" (at 0 0 0)
        (effects (font (size 1.27 1.27)) hide)
      )
      (property "ki_description" "Power symbol creates a global label with name \"+5V\"" (at 0 0 0)
        (effects (font (size 1.27 1.27)) hide)
      )
      (symbol "+5V_0_1"
        (polyline
          (pts
            (xy -0.762 1.27)
            (xy 0 2.54)
          )
          (stroke (width 0) (type default))
          (fill (type none))
        )
        (polyline
          (pts
            (xy 0 0)
            (xy 0 2.54)
          )
          (stroke (width 0) (type default))
          (fill (type none))
        )
        (polyline
          (pts
            (xy 0 2.54)
            (xy 0.762 1.27)
          )
          (stroke (width 0) (type default))
          (fill (type none))
        )
      )
      (symbol "+5V_1_1"
        (pin power_in line (at 0 0 90) (length 0) hide
          (name "+5V" (effects (font (size 1.27 1.27))))
          (number "1" (effects (font (size 1.27 1.27))))
        )
      )
    )
    (symbol "power:GND" (power) (pin_names (offset 0)) (in_bom yes) (on_board yes)
      (property "Reference" "#PWR" (at 0 -6.35 0)
        (effects (font (size 1.27 1.27)) hide)
      )
      (property "Value" "GND" (at 0 -3.81 0)
        (effects (font (size 1.27 1.27)))
      )
      (property "Footprint" "" (at 0 0 0)
        (effects (font (size 1.27 1.27)) hide)
      )
      (property "Datasheet" "" (at 0 0 0)
        (effects (font (size 1.27 1.27)) hide)
      )
      (property "ki_keywords" "global power" (at 0 0 0)
        (effects (font (size 1.27 1.27)) hide)
      )
      (property "ki_description" "Power symbol creates a global label with name \"GND\" , ground" (at 0 0 0)
        (effects (font (size 1.27 1.27)) hide)
      )
      (symbol "GND_0_1"
        (polyline
          (pts
            (xy 0 0)
            (xy 0 -1.27)
            (xy 1.27 -1.27)
            (xy 0 -2.54)
            (xy -1.27 -1.27)
            (xy 0 -1.27)
          )
          (stroke (width 0) (type default))
          (fill (type none))
        )
      )
      (symbol "GND_1_1"
        (pin power_in line (at 0 0 270) (length 0) hide
          (name "GND" (effects (font (size 1.27 1.27))))
          (number "1" (effects (font (size 1.27 1.27))))
        )
      )
    )
  )

  (junction (at 41.91 172.72) (diameter 0) (color 0 0 0 0)
    (uuid 11cae898-6e02-4314-87c3-bfa88f249303)
  )
  (junction (at 34.29 69.85) (diameter 0) (color 0 0 0 0)
    (uuid 2571f4c8-d7fc-4e8c-94df-f480e56bb717)
  )
  (junction (at 107.95 67.31) (diameter 0) (color 0 0 0 0)
    (uuid 33064f56-88c0-44a1-ac52-96957fe5ad49)
  )
  (junction (at 121.92 78.74) (diameter 0) (color 0 0 0 0)
    (uuid 62c6f8ce-78e5-4ab3-bb01-2fcb0df87aa6)
  )
  (junction (at 91.44 63.5) (diameter 0) (color 0 0 0 0)
    (uuid 6e21d8a8-05db-450e-863d-764ba51b5b58)
  )
  (junction (at 68.58 50.8) (diameter 0) (color 0 0 0 0)
    (uuid 85621d90-361e-49b6-9449-b54a16cce021)
  )
  (junction (at 121.92 92.71) (diameter 0) (color 0 0 0 0)
    (uuid 8ecc0874-e7f5-4102-a6b7-0222cf1fccc2)
  )
  (junction (at 44.45 69.85) (diameter 0) (color 0 0 0 0)
    (uuid 927b1eb6-e6f4-412f-9a58-8dc81a4889a0)
  )
  (junction (at 220.98 69.85) (diameter 0) (color 0 0 0 0)
    (uuid 94ba6b54-d809-4fea-8101-94e8f6f3d85f)
  )
  (junction (at 77.47 50.8) (diameter 0) (color 0 0 0 0)
    (uuid a16dbf15-8f5b-4766-b048-90ba89efcc02)
  )
  (junction (at 220.98 67.31) (diameter 0) (color 0 0 0 0)
    (uuid c0fc4e66-5cf2-493f-8ead-6e568acfc766)
  )
  (junction (at 107.95 63.5) (diameter 0) (color 0 0 0 0)
    (uuid e3903eeb-8b72-4b40-a088-cbbba270c01b)
  )
  (junction (at 220.98 72.39) (diameter 0) (color 0 0 0 0)
    (uuid ff03570d-0ea1-49f8-9632-3e7664506df6)
  )

  (polyline (pts (xy 13.97 195.58) (xy 13.97 137.16))
    (stroke (width 0) (type default))
    (uuid 0667208e-872f-444a-9ed0-78a1b5f392d2)
  )

  (wire (pts (xy 68.58 54.61) (xy 68.58 50.8))
    (stroke (width 0) (type default))
    (uuid 06b6db7e-5210-41ec-a47b-0127ebbe0786)
  )
  (wire (pts (xy 99.06 72.39) (xy 99.06 90.17))
    (stroke (width 0) (type default))
    (uuid 0a09fdb2-169c-40c3-9a87-4a6ef9f2d38c)
  )
  (wire (pts (xy 39.37 184.15) (xy 52.07 184.15))
    (stroke (width 0) (type default))
    (uuid 12dca4d8-1668-4347-a714-2f6e2f7be2c2)
  )
  (wire (pts (xy 215.9 77.47) (xy 224.79 77.47))
    (stroke (width 0) (type default))
    (uuid 17bc711a-66f4-46b5-aaad-a191824bdc47)
  )
  (wire (pts (xy 220.98 64.77) (xy 224.79 64.77))
    (stroke (width 0) (type default))
    (uuid 1b5a8f67-d3cd-45f1-be9e-776e2de9e7be)
  )
  (wire (pts (xy 29.21 184.15) (xy 31.75 184.15))
    (stroke (width 0) (type default))
    (uuid 1b922e03-9ca3-4e71-837d-863aab9331da)
  )
  (wire (pts (xy 220.98 72.39) (xy 220.98 92.71))
    (stroke (width 0) (type default))
    (uuid 23e31b0c-3a77-4934-8cc8-9ff4b11ede18)
  )
  (wire (pts (xy 91.44 73.66) (xy 91.44 120.65))
    (stroke (width 0) (type default))
    (uuid 2aef127f-4a1e-4316-98ee-3d819fc4dc5e)
  )
  (wire (pts (xy 99.06 97.79) (xy 99.06 120.65))
    (stroke (width 0) (type default))
    (uuid 2f8ebbbf-0f11-4a15-9648-1d28e5593127)
  )
  (wire (pts (xy 224.79 62.23) (xy 212.09 62.23))
    (stroke (width 0) (type default))
    (uuid 2fdd057b-bdfe-4091-929e-9f21c24f283d)
  )
  (polyline (pts (xy 185.42 13.97) (xy 13.97 13.97))
    (stroke (width 0) (type default))
    (uuid 33891c62-a79f-4243-b776-6be292690ac3)
  )

  (wire (pts (xy 52.07 170.18) (xy 59.69 170.18))
    (stroke (width 0) (type default))
    (uuid 34d3baf1-c1a6-463d-a7da-03fde565ea93)
  )
  (wire (pts (xy 237.49 64.77) (xy 247.65 64.77))
    (stroke (width 0) (type default))
    (uuid 366bf5fe-acf9-467c-afcf-533257cf4dbd)
  )
  (wire (pts (xy 220.98 64.77) (xy 220.98 67.31))
    (stroke (width 0) (type default))
    (uuid 367d38a4-8c90-42de-93a7-1e9a66251e7d)
  )
  (wire (pts (xy 68.58 50.8) (xy 68.58 40.64))
    (stroke (width 0) (type default))
    (uuid 39614f9f-2df5-492b-a093-45b7a48e295d)
  )
  (wire (pts (xy 41.91 172.72) (xy 59.69 172.72))
    (stroke (width 0) (type default))
    (uuid 3a4d7b94-8b26-4555-b396-f2e88aea5db3)
  )
  (wire (pts (xy 107.95 46.99) (xy 107.95 25.4))
    (stroke (width 0) (type default))
    (uuid 3f206607-332e-4c96-8963-5302804f476f)
  )
  (wire (pts (xy 83.82 50.8) (xy 77.47 50.8))
    (stroke (width 0) (type default))
    (uuid 3f9f133b-59b8-4791-b0ab-6fa861da9e3f)
  )
  (wire (pts (xy 107.95 67.31) (xy 165.1 67.31))
    (stroke (width 0) (type default))
    (uuid 4470dd80-ef4c-47c8-8e5a-506f0a93b421)
  )
  (polyline (pts (xy 283.21 13.97) (xy 187.96 13.97))
    (stroke (width 0) (type default))
    (uuid 45676199-bb82-4d58-98c1-b606deb355be)
  )

  (wire (pts (xy 123.19 78.74) (xy 121.92 78.74))
    (stroke (width 0) (type default))
    (uuid 47890384-6eaa-420c-b9ae-e68a6a7f17b5)
  )
  (wire (pts (xy 237.49 74.93) (xy 247.65 74.93))
    (stroke (width 0) (type default))
    (uuid 4f639ae0-c1c4-4f22-bfa7-efd67e6f9bde)
  )
  (wire (pts (xy 52.07 165.1) (xy 59.69 165.1))
    (stroke (width 0) (type default))
    (uuid 513c5122-3fbb-44b6-aa2c-74224719f915)
  )
  (polyline (pts (xy 113.03 137.16) (xy 113.03 195.58))
    (stroke (width 0) (type default))
    (uuid 524dc8d0-13b4-43fe-b274-8ac08bc4b894)
  )

  (wire (pts (xy 121.92 81.28) (xy 121.92 78.74))
    (stroke (width 0) (type default))
    (uuid 52d326d4-51c9-4c17-8412-9aaf3e6cdf4c)
  )
  (polyline (pts (xy 283.21 104.14) (xy 283.21 13.97))
    (stroke (width 0) (type default))
    (uuid 55ac7ee1-f461-406b-8cf5-da47a7717180)
  )
  (polyline (pts (xy 13.97 134.62) (xy 185.42 134.62))
    (stroke (width 0) (type default))
    (uuid 59058a09-f800-497d-b8e1-cdf9632c6766)
  )

  (wire (pts (xy 220.98 67.31) (xy 224.79 67.31))
    (stroke (width 0) (type default))
    (uuid 5a198f76-f7fb-4a10-a4dc-6dc08c3bc2ee)
  )
  (wire (pts (xy 220.98 69.85) (xy 224.79 69.85))
    (stroke (width 0) (type default))
    (uuid 5a266690-846d-460d-a499-a813c673e715)
  )
  (wire (pts (xy 77.47 50.8) (xy 68.58 50.8))
    (stroke (width 0) (type default))
    (uuid 5de5a872-aa15-495b-b53b-b8a64bbfa4f0)
  )
  (wire (pts (xy 29.21 172.72) (xy 41.91 172.72))
    (stroke (width 0) (type default))
    (uuid 60a7dcc1-b459-4b69-be02-f48b66a815f0)
  )
  (wire (pts (xy 121.92 88.9) (xy 121.92 92.71))
    (stroke (width 0) (type default))
    (uuid 60d30b2f-02cb-42f2-b2ed-c84cb33e3e36)
  )
  (wire (pts (xy 91.44 55.88) (xy 91.44 63.5))
    (stroke (width 0) (type default))
    (uuid 6579642b-a152-47f7-af0e-0d8866bdfcb8)
  )
  (wire (pts (xy 57.15 69.85) (xy 60.96 69.85))
    (stroke (width 0) (type default))
    (uuid 6597e724-ffad-43f1-9619-cca25cced87f)
  )
  (wire (pts (xy 107.95 67.31) (xy 107.95 63.5))
    (stroke (width 0) (type default))
    (uuid 6e416a78-df14-48ee-9842-e6e24081191e)
  )
  (wire (pts (xy 68.58 62.23) (xy 68.58 64.77))
    (stroke (width 0) (type default))
    (uuid 6ee71a3c-fedb-4cc6-a3c6-f3d6f3ac6767)
  )
  (wire (pts (xy 220.98 67.31) (xy 220.98 69.85))
    (stroke (width 0) (type default))
    (uuid 70e8ba3a-d374-4aa8-9294-3a772d9268b6)
  )
  (wire (pts (xy 99.06 72.39) (xy 165.1 72.39))
    (stroke (width 0) (type default))
    (uuid 710cb965-f8b1-4275-94b4-bb90fbc7e941)
  )
  (wire (pts (xy 220.98 69.85) (xy 220.98 72.39))
    (stroke (width 0) (type default))
    (uuid 73acf95c-ba0e-4c72-8354-0251e604ec10)
  )
  (wire (pts (xy 41.91 175.26) (xy 41.91 172.72))
    (stroke (width 0) (type default))
    (uuid 7401f61b-dc36-4f5a-ba3e-b101a22bf1fc)
  )
  (wire (pts (xy 34.29 86.36) (xy 34.29 69.85))
    (stroke (width 0) (type default))
    (uuid 76ee303c-1cfc-45a8-ae72-af3efaba6c47)
  )
  (polyline (pts (xy 113.03 195.58) (xy 13.97 195.58))
    (stroke (width 0) (type default))
    (uuid 7aad0cca-fb50-4041-9a10-5380cb0860ac)
  )
  (polyline (pts (xy 185.42 134.62) (xy 185.42 13.97))
    (stroke (width 0) (type default))
    (uuid 7c11b885-29b4-4eb2-b782-dde8e3724f0c)
  )
  (polyline (pts (xy 187.96 13.97) (xy 187.96 104.14))
    (stroke (width 0) (type default))
    (uuid 7c3df708-fb44-40cc-b435-cd67e8cec48a)
  )

  (wire (pts (xy 215.9 74.93) (xy 224.79 74.93))
    (stroke (width 0) (type default))
    (uuid 7caee9fa-d474-4687-80c2-6490c680cbb4)
  )
  (wire (pts (xy 34.29 93.98) (xy 34.29 96.52))
    (stroke (width 0) (type default))
    (uuid 7e509ce7-bdc7-45fb-b2d0-c14a958a5480)
  )
  (wire (pts (xy 128.27 78.74) (xy 129.54 78.74))
    (stroke (width 0) (type default))
    (uuid 825ca21e-b6a1-4e84-a612-f8e2fae8ac04)
  )
  (wire (pts (xy 121.92 92.71) (xy 121.92 120.65))
    (stroke (width 0) (type default))
    (uuid 82782dc2-cb84-4d0c-b85e-b3903aca1e13)
  )
  (wire (pts (xy 34.29 69.85) (xy 44.45 69.85))
    (stroke (width 0) (type default))
    (uuid 872313a4-03e6-4e4a-b850-f54dcb50f9fc)
  )
  (wire (pts (xy 77.47 33.02) (xy 77.47 25.4))
    (stroke (width 0) (type default))
    (uuid 895d5ca3-0e9a-421e-88ea-3017edd2db62)
  )
  (wire (pts (xy 123.19 92.71) (xy 121.92 92.71))
    (stroke (width 0) (type default))
    (uuid 914ccec4-572a-4ec0-b281-596368eea274)
  )
  (polyline (pts (xy 13.97 137.16) (xy 113.03 137.16))
    (stroke (width 0) (type default))
    (uuid 969d876f-dc87-40bf-9e96-03cbb9ea5e82)
  )

  (wire (pts (xy 237.49 69.85) (xy 247.65 69.85))
    (stroke (width 0) (type default))
    (uuid 98e4998a-a39f-4136-98bb-59bfe238cae6)
  )
  (wire (pts (xy 30.48 69.85) (xy 34.29 69.85))
    (stroke (width 0) (type default))
    (uuid 9cab0c4e-2726-433f-a46f-c25156ae2489)
  )
  (wire (pts (xy 34.29 104.14) (xy 34.29 120.65))
    (stroke (width 0) (type default))
    (uuid 9e4ad9b8-6263-4570-9de2-21f8a7383c76)
  )
  (wire (pts (xy 121.92 78.74) (xy 121.92 69.85))
    (stroke (width 0) (type default))
    (uuid 9f5c7a80-7220-432e-865b-d1468e8a8d4c)
  )
  (wire (pts (xy 69.85 160.02) (xy 69.85 151.13))
    (stroke (width 0) (type default))
    (uuid a8470270-920a-4fed-9691-22526135f92c)
  )
  (polyline (pts (xy 187.96 104.14) (xy 283.21 104.14))
    (stroke (width 0) (type default))
    (uuid b14aea3f-7e9b-4416-ac0e-1c7beb3cd27c)
  )

  (wire (pts (xy 107.95 54.61) (xy 107.95 63.5))
    (stroke (width 0) (type default))
    (uuid b20fb198-6b0b-4cab-9ba8-ea9b46e8088f)
  )
  (wire (pts (xy 107.95 63.5) (xy 91.44 63.5))
    (stroke (width 0) (type default))
    (uuid b2f7301d-582c-4990-a060-4a71ef08c6eb)
  )
  (wire (pts (xy 91.44 25.4) (xy 91.44 45.72))
    (stroke (width 0) (type default))
    (uuid b4afdd30-7a78-4cd8-8670-bb6dd787dcdc)
  )
  (wire (pts (xy 220.98 72.39) (xy 224.79 72.39))
    (stroke (width 0) (type default))
    (uuid bbca158a-cacb-439c-8c0c-2e2e058a62b6)
  )
  (wire (pts (xy 68.58 74.93) (xy 68.58 120.65))
    (stroke (width 0) (type default))
    (uuid bd74601e-d827-46cd-b2f1-2aad3f9957c3)
  )
  (wire (pts (xy 160.02 74.93) (xy 165.1 74.93))
    (stroke (width 0) (type default))
    (uuid bebf9ed8-1b5d-4ac8-8aca-b11112eaaae3)
  )
  (wire (pts (xy 52.07 184.15) (xy 52.07 175.26))
    (stroke (width 0) (type default))
    (uuid bfdff8f5-67bc-48e0-b024-e5df6807d143)
  )
  (wire (pts (xy 107.95 67.31) (xy 106.68 67.31))
    (stroke (width 0) (type default))
    (uuid c2564ecf-bd43-431d-b9a2-c7be54487485)
  )
  (wire (pts (xy 212.09 50.8) (xy 212.09 62.23))
    (stroke (width 0) (type default))
    (uuid c6c7f01a-65c0-4b1d-89ff-c65f542acfd0)
  )
  (wire (pts (xy 237.49 77.47) (xy 247.65 77.47))
    (stroke (width 0) (type default))
    (uuid c9e63ba7-b806-4266-9721-35c6c54df17a)
  )
  (wire (pts (xy 68.58 25.4) (xy 68.58 33.02))
    (stroke (width 0) (type default))
    (uuid cb0f5a26-0827-4807-aea7-55b25947b9d5)
  )
  (wire (pts (xy 237.49 67.31) (xy 247.65 67.31))
    (stroke (width 0) (type default))
    (uuid cbc9e5ed-3c0a-49cf-b9d4-0dad747d6c4c)
  )
  (wire (pts (xy 44.45 69.85) (xy 44.45 91.44))
    (stroke (width 0) (type default))
    (uuid cce1404b-fc30-47cc-b852-e0061990f2bb)
  )
  (wire (pts (xy 77.47 40.64) (xy 77.47 50.8))
    (stroke (width 0) (type default))
    (uuid cebfc912-6282-4a1e-923e-74c4961c2aad)
  )
  (wire (pts (xy 80.01 168.91) (xy 95.25 168.91))
    (stroke (width 0) (type default))
    (uuid d14a8515-36f9-48ce-be11-57775a112476)
  )
  (wire (pts (xy 128.27 92.71) (xy 129.54 92.71))
    (stroke (width 0) (type default))
    (uuid d26fce45-c1d6-42bc-931d-972bf3799097)
  )
  (wire (pts (xy 80.01 171.45) (xy 95.25 171.45))
    (stroke (width 0) (type default))
    (uuid d97cc234-80b2-4b57-bafd-250ae3c8e2d6)
  )
  (wire (pts (xy 44.45 99.06) (xy 44.45 120.65))
    (stroke (width 0) (type default))
    (uuid db6b79d5-e092-4ad6-8ca4-901dbceefaf0)
  )
  (wire (pts (xy 237.49 62.23) (xy 247.65 62.23))
    (stroke (width 0) (type default))
    (uuid dd910b2d-57bd-471f-b555-644ecec14662)
  )
  (wire (pts (xy 121.92 69.85) (xy 165.1 69.85))
    (stroke (width 0) (type default))
    (uuid e3615a9c-df56-4b41-9ce0-55f1f5c7eb48)
  )
  (wire (pts (xy 237.49 72.39) (xy 247.65 72.39))
    (stroke (width 0) (type default))
    (uuid e5c68000-2540-4ae5-a55e-c149052f86f7)
  )
  (wire (pts (xy 69.85 187.96) (xy 69.85 180.34))
    (stroke (width 0) (type default))
    (uuid ec7073f7-f754-4ee6-a977-3d11d16480f8)
  )
  (wire (pts (xy 59.69 175.26) (xy 52.07 175.26))
    (stroke (width 0) (type default))
    (uuid eec347af-8fb3-4b2d-8e93-6e7176516f57)
  )
  (wire (pts (xy 44.45 69.85) (xy 49.53 69.85))
    (stroke (width 0) (type default))
    (uuid f364b99f-4502-4cba-a96d-4ed35ad108b5)
  )
  (polyline (pts (xy 13.97 134.62) (xy 13.97 13.97))
    (stroke (width 0) (type default))
    (uuid f8db64f8-1695-46e3-9667-49f16b5c734b)
  )

  (wire (pts (xy 29.21 175.26) (xy 31.75 175.26))
    (stroke (width 0) (type default))
    (uuid f8df4375-570f-4eb0-868e-4f350bd24547)
  )
  (wire (pts (xy 52.07 167.64) (xy 59.69 167.64))
    (stroke (width 0) (type default))
    (uuid f99552ce-0729-4ada-aef3-5686270d7c4d)
  )
  (wire (pts (xy 91.44 63.5) (xy 91.44 66.04))
    (stroke (width 0) (type default))
    (uuid fa574bf3-ac2e-449d-91be-bcb1e35bdaba)
  )
  (wire (pts (xy 39.37 175.26) (xy 41.91 175.26))
    (stroke (width 0) (type default))
    (uuid fbca7d5b-4a19-4f46-9697-74b3068179aa)
  )
  (wire (pts (xy 160.02 77.47) (xy 165.1 77.47))
    (stroke (width 0) (type default))
    (uuid ffc5beb6-680d-457a-99f3-0af818ce0587)
  )

  (text "Heater power" (at 15.24 19.05 0)
    (effects (font (size 2.9972 2.9972)) (justify left bottom))
    (uuid 68f7174d-ce7a-41b4-89f8-dd7e3ded57a1)
  )
  (text "Due to 3.3V gain drive\nvoltage and 5V VCC \nthe following gains \nare possible:\n9dB, 12dB and 15dB"
    (at 19.05 168.91 0)
    (effects (font (size 1.27 1.27)) (justify left bottom))
    (uuid 76a87642-211c-44f2-a488-190d6dc3728e)
  )
  (text "Mono I2S audio amplifier" (at 15.24 142.24 0)
    (effects (font (size 2.9972 2.9972)) (justify left bottom))
    (uuid 7fd11519-eb9e-4413-8ca2-e43e38c699f6)
  )
  (text "Display\n2.8\" 320x240 TFT Touch\nSKU: MSP2807\nDisplay: ILI9341\nTouch: XPT2046"
    (at 189.23 39.37 0)
    (effects (font (size 2.9972 2.9972)) (justify left bottom))
    (uuid 934c5f28-c928-4621-8122-b999b3ed10dd)
  )

  (label "IRON_-" (at 155.575 69.85 0) (fields_autoplaced)
    (effects (font (size 1.27 1.27)) (justify left bottom))
    (uuid 2f122013-8dbc-4371-941a-b52e2115db20)
  )
  (label "ESD" (at 155.575 72.39 0) (fields_autoplaced)
    (effects (font (size 1.27 1.27)) (justify left bottom))
    (uuid 2f29ffe5-cbdc-4a3f-81e6-c7d9f4c5145a)
  )
  (label "GATE" (at 69.85 50.8 0) (fields_autoplaced)
    (effects (font (size 1.27 1.27)) (justify left bottom))
    (uuid 8c4cd1a2-9a92-4fba-aa2e-8b86c17dce10)
  )

  (global_label "HEAT_PWM" (shape input) (at 30.48 69.85 180) (fields_autoplaced)
    (effects (font (size 1.27 1.27)) (justify right))
    (uuid 0d7333ca-0587-43cb-9af7-f59016c85820)
    (property "Intersheetrefs" "${INTERSHEET_REFS}" (at 18.5523 69.85 0)
      (effects (font (size 1.27 1.27)) (justify right) hide)
    )
  )
  (global_label "TFT_SCLK" (shape input) (at 247.65 64.77 0) (fields_autoplaced)
    (effects (font (size 1.27 1.27)) (justify left))
    (uuid 150d3bb3-e4b8-4a71-b502-f5f6ef9e21cc)
    (property "Intersheetrefs" "${INTERSHEET_REFS}" (at 258.7432 64.6906 0)
      (effects (font (size 1.27 1.27)) (justify left) hide)
    )
  )
  (global_label "TFT_D~{C}" (shape input) (at 247.65 62.23 0) (fields_autoplaced)
    (effects (font (size 1.27 1.27)) (justify left))
    (uuid 1a87a7c1-4831-43cb-a1a6-265940a9dff7)
    (property "Intersheetrefs" "${INTERSHEET_REFS}" (at 256.5056 62.1506 0)
      (effects (font (size 1.27 1.27)) (justify left) hide)
    )
  )
  (global_label "SHAKE_IN" (shape input) (at 160.02 77.47 180) (fields_autoplaced)
    (effects (font (size 1.27 1.27)) (justify right))
    (uuid 3037ef6c-9189-4cf8-906c-f13414cf08d1)
    (property "Intersheetrefs" "${INTERSHEET_REFS}" (at 148.7453 77.3906 0)
      (effects (font (size 1.27 1.27)) (justify right) hide)
    )
  )
  (global_label "I2S_SD" (shape input) (at 29.21 184.15 180) (fields_autoplaced)
    (effects (font (size 1.27 1.27)) (justify right))
    (uuid 3f1d3b22-3ba1-4783-af8d-526bce7c36db)
    (property "Intersheetrefs" "${INTERSHEET_REFS}" (at -22.86 39.37 0)
      (effects (font (size 1.27 1.27)) hide)
    )
  )
  (global_label "I2S_WS" (shape input) (at 52.07 165.1 180) (fields_autoplaced)
    (effects (font (size 1.27 1.27)) (justify right))
    (uuid 45245258-c97a-4586-bc43-2154c85c0ef6)
    (property "Intersheetrefs" "${INTERSHEET_REFS}" (at 0 30.48 0)
      (effects (font (size 1.27 1.27)) hide)
    )
  )
  (global_label "NEAR_RSENSE_-" (shape output) (at 129.54 92.71 0) (fields_autoplaced)
    (effects (font (size 1.27 1.27)) (justify left))
    (uuid 4e0c0da6-a302-49a1-8b88-4dccac856a0b)
    (property "Intersheetrefs" "${INTERSHEET_REFS}" (at 7.62 0 0)
      (effects (font (size 1.27 1.27)) hide)
    )
  )
  (global_label "TFT_MISO" (shape output) (at 247.65 69.85 0) (fields_autoplaced)
    (effects (font (size 1.27 1.27)) (justify left))
    (uuid 51dbae7b-7bce-4393-8cde-6710cdb5413c)
    (property "Intersheetrefs" "${INTERSHEET_REFS}" (at 258.5618 69.7706 0)
      (effects (font (size 1.27 1.27)) (justify left) hide)
    )
  )
  (global_label "TFT_LED" (shape input) (at 215.9 74.93 180) (fields_autoplaced)
    (effects (font (size 1.27 1.27)) (justify right))
    (uuid 5a77385f-673d-4856-8fcf-429d0ede0f4b)
    (property "Intersheetrefs" "${INTERSHEET_REFS}" (at 206.1372 74.8506 0)
      (effects (font (size 1.27 1.27)) (justify right) hide)
    )
  )
  (global_label "TFT_~{RST}" (shape input) (at 247.65 74.93 0) (fields_autoplaced)
    (effects (font (size 1.27 1.27)) (justify left))
    (uuid 86da22a3-3cdd-48b6-ac6e-1986356ab552)
    (property "Intersheetrefs" "${INTERSHEET_REFS}" (at 257.4128 74.8506 0)
      (effects (font (size 1.27 1.27)) (justify left) hide)
    )
  )
  (global_label "TOUCH_~{IRQ}" (shape output) (at 247.65 77.47 0) (fields_autoplaced)
    (effects (font (size 1.27 1.27)) (justify left))
    (uuid 8d62be79-f87f-4358-b550-fe6b90f6f0ae)
    (property "Intersheetrefs" "${INTERSHEET_REFS}" (at 260.3761 77.3906 0)
      (effects (font (size 1.27 1.27)) (justify left) hide)
    )
  )
  (global_label "TFT_~{CS}" (shape input) (at 247.65 72.39 0) (fields_autoplaced)
    (effects (font (size 1.27 1.27)) (justify left))
    (uuid 931742e8-9c72-4504-8c44-e643c4d585fa)
    (property "Intersheetrefs" "${INTERSHEET_REFS}" (at 256.4452 72.3106 0)
      (effects (font (size 1.27 1.27)) (justify left) hide)
    )
  )
  (global_label "I2S_GAIN0" (shape input) (at 29.21 172.72 180) (fields_autoplaced)
    (effects (font (size 1.27 1.27)) (justify right))
    (uuid 99162744-5eac-427e-9957-877587056aee)
    (property "Intersheetrefs" "${INTERSHEET_REFS}" (at 0 30.48 0)
      (effects (font (size 1.27 1.27)) hide)
    )
  )
  (global_label "NEAR_RSENSE_+" (shape output) (at 129.54 78.74 0) (fields_autoplaced)
    (effects (font (size 1.27 1.27)) (justify left))
    (uuid a543a4a0-b8e2-45a4-be48-7207020a5b1f)
    (property "Intersheetrefs" "${INTERSHEET_REFS}" (at 7.62 0 0)
      (effects (font (size 1.27 1.27)) hide)
    )
  )
  (global_label "I2S_GAIN1" (shape input) (at 29.21 175.26 180) (fields_autoplaced)
    (effects (font (size 1.27 1.27)) (justify right))
    (uuid bc29a09d-ebbe-4bab-9edb-114e75ee17a4)
    (property "Intersheetrefs" "${INTERSHEET_REFS}" (at 0 30.48 0)
      (effects (font (size 1.27 1.27)) hide)
    )
  )
  (global_label "IRON_+" (shape output) (at 106.68 67.31 180) (fields_autoplaced)
    (effects (font (size 1.27 1.27)) (justify right))
    (uuid d1f81642-eb3a-4277-b357-9cbb5a3aa5ac)
    (property "Intersheetrefs" "${INTERSHEET_REFS}" (at 97.3526 67.31 0)
      (effects (font (size 1.27 1.27)) (justify right) hide)
    )
  )
  (global_label "I2S_DATA" (shape input) (at 52.07 170.18 180) (fields_autoplaced)
    (effects (font (size 1.27 1.27)) (justify right))
    (uuid dd01ca49-c8a2-4580-af9a-2e9bce9769bc)
    (property "Intersheetrefs" "${INTERSHEET_REFS}" (at 0 30.48 0)
      (effects (font (size 1.27 1.27)) hide)
    )
  )
  (global_label "NTC_IN" (shape input) (at 160.02 74.93 180) (fields_autoplaced)
    (effects (font (size 1.27 1.27)) (justify right))
    (uuid dd5761bd-c144-40e7-9ea1-6ca4c1ae4865)
    (property "Intersheetrefs" "${INTERSHEET_REFS}" (at 151.2248 74.8506 0)
      (effects (font (size 1.27 1.27)) (justify right) hide)
    )
  )
  (global_label "TOUCH_~{CS}" (shape input) (at 215.9 77.47 180) (fields_autoplaced)
    (effects (font (size 1.27 1.27)) (justify right))
    (uuid e07c5d29-cc23-48a1-85fa-00a6d69d4d56)
    (property "Intersheetrefs" "${INTERSHEET_REFS}" (at 203.8996 77.3906 0)
      (effects (font (size 1.27 1.27)) (justify right) hide)
    )
  )
  (global_label "TFT_MOSI" (shape input) (at 247.65 67.31 0) (fields_autoplaced)
    (effects (font (size 1.27 1.27)) (justify left))
    (uuid ee7f73fb-4810-4586-991f-6cc5e78dd799)
    (property "Intersheetrefs" "${INTERSHEET_REFS}" (at 258.5618 67.2306 0)
      (effects (font (size 1.27 1.27)) (justify left) hide)
    )
  )
  (global_label "I2S_BCK" (shape input) (at 52.07 167.64 180) (fields_autoplaced)
    (effects (font (size 1.27 1.27)) (justify right))
    (uuid f8e927af-4836-4b0f-8a57-dbca5a18a442)
    (property "Intersheetrefs" "${INTERSHEET_REFS}" (at 0 30.48 0)
      (effects (font (size 1.27 1.27)) hide)
    )
  )

  (symbol (lib_id "Device:R") (at 53.34 69.85 270) (unit 1)
    (in_bom yes) (on_board yes) (dnp no)
    (uuid 00000000-0000-0000-0000-00005ff21b0c)
    (property "Reference" "R32" (at 53.34 64.5922 90)
      (effects (font (size 1.27 1.27)))
    )
    (property "Value" "1k" (at 53.34 66.9036 90)
      (effects (font (size 1.27 1.27)))
    )
    (property "Footprint" "Resistor_SMD:R_0805_2012Metric_Pad1.20x1.40mm_HandSolder" (at 53.34 68.072 90)
      (effects (font (size 1.27 1.27)) hide)
    )
    (property "Datasheet" "~" (at 53.34 69.85 0)
      (effects (font (size 1.27 1.27)) hide)
    )
    (pin "1" (uuid 38f6f79f-4350-487c-b329-0b908be8e22e))
    (pin "2" (uuid f48e953a-ab3a-4031-9ab9-c9d93b69746f))
    (instances
      (project "IoT12 Control Board"
        (path "/2454fd1b-3484-4838-8b7e-d26357238fe1/00000000-0000-0000-0000-0000604a18a1"
          (reference "R32") (unit 1)
        )
      )
    )
  )

  (symbol (lib_id "Transistor_FET-extra:AOD403") (at 88.9 50.8 0) (mirror x) (unit 1)
    (in_bom yes) (on_board yes) (dnp no)
    (uuid 00000000-0000-0000-0000-00005ff2b8dd)
    (property "Reference" "Q10" (at 94.0816 49.6316 0)
      (effects (font (size 1.27 1.27)) (justify left))
    )
    (property "Value" "AOD403" (at 94.0816 51.943 0)
      (effects (font (size 1.27 1.27)) (justify left))
    )
    (property "Footprint" "Package_TO_SOT_SMD:TO-252-2" (at 93.98 48.895 0)
      (effects (font (size 1.27 1.27) italic) (justify left) hide)
    )
    (property "Datasheet" "" (at 88.9 50.8 90)
      (effects (font (size 1.27 1.27)) (justify left) hide)
    )
    (pin "1" (uuid cc9d6389-ba21-4e34-ae24-496301f0a489))
    (pin "2" (uuid d1e2e061-179f-4cac-9b55-8dd87661192f))
    (pin "3" (uuid 663c855b-d2c0-4e10-beb6-d3a6c932feec))
    (instances
      (project "IoT12 Control Board"
        (path "/2454fd1b-3484-4838-8b7e-d26357238fe1/00000000-0000-0000-0000-0000604a18a1"
          (reference "Q10") (unit 1)
        )
      )
    )
  )

  (symbol (lib_id "Device:R") (at 44.45 95.25 0) (unit 1)
    (in_bom yes) (on_board yes) (dnp no)
    (uuid 00000000-0000-0000-0000-00005ff2d2ed)
    (property "Reference" "R71" (at 46.228 94.0816 0)
      (effects (font (size 1.27 1.27)) (justify left))
    )
    (property "Value" "100k" (at 46.228 96.393 0)
      (effects (font (size 1.27 1.27)) (justify left))
    )
    (property "Footprint" "Resistor_SMD:R_0805_2012Metric_Pad1.20x1.40mm_HandSolder" (at 42.672 95.25 90)
      (effects (font (size 1.27 1.27)) hide)
    )
    (property "Datasheet" "~" (at 44.45 95.25 0)
      (effects (font (size 1.27 1.27)) hide)
    )
    (pin "1" (uuid 88c51b87-0784-4a89-b6a5-2c57d80b3a0f))
    (pin "2" (uuid 8c83ae99-2be5-47d2-b8fd-45bca6bdbd4d))
    (instances
      (project "IoT12 Control Board"
        (path "/2454fd1b-3484-4838-8b7e-d26357238fe1/00000000-0000-0000-0000-0000604a18a1"
          (reference "R71") (unit 1)
        )
      )
    )
  )

  (symbol (lib_id "power:GND") (at 44.45 120.65 0) (unit 1)
    (in_bom yes) (on_board yes) (dnp no)
    (uuid 00000000-0000-0000-0000-00005ff2d4e1)
    (property "Reference" "#PWR0171" (at 44.45 127 0)
      (effects (font (size 1.27 1.27)) hide)
    )
    (property "Value" "GND" (at 44.577 125.0442 0)
      (effects (font (size 1.27 1.27)))
    )
    (property "Footprint" "" (at 44.45 120.65 0)
      (effects (font (size 1.27 1.27)) hide)
    )
    (property "Datasheet" "" (at 44.45 120.65 0)
      (effects (font (size 1.27 1.27)) hide)
    )
    (pin "1" (uuid da2eb1ac-330f-4a79-9fd1-2c5d9628afa6))
    (instances
      (project "IoT12 Control Board"
        (path "/2454fd1b-3484-4838-8b7e-d26357238fe1/00000000-0000-0000-0000-0000604a18a1"
          (reference "#PWR0171") (unit 1)
        )
      )
    )
  )

  (symbol (lib_id "Transistor_BJT:BC817") (at 66.04 69.85 0) (unit 1)
    (in_bom yes) (on_board yes) (dnp no)
    (uuid 00000000-0000-0000-0000-00005ff33f94)
    (property "Reference" "Q1" (at 71.2216 68.6816 0)
      (effects (font (size 1.27 1.27)) (justify left))
    )
    (property "Value" "MMBT2222" (at 71.2216 70.993 0)
      (effects (font (size 1.27 1.27)) (justify left))
    )
    (property "Footprint" "Package_TO_SOT_SMD:SOT-23" (at 71.12 71.755 0)
      (effects (font (size 1.27 1.27) italic) (justify left) hide)
    )
    (property "Datasheet" "https://www.onsemi.com/pub/Collateral/BC818-D.pdf" (at 66.04 69.85 0)
      (effects (font (size 1.27 1.27)) (justify left) hide)
    )
    (pin "1" (uuid b2075be0-9685-40d8-bc67-5f344cf03b9d))
    (pin "2" (uuid 3666a38a-2635-47d4-9fce-a880b303ba1e))
    (pin "3" (uuid 26d72f0a-8910-4e23-88cf-bba216a72cc0))
    (instances
      (project "IoT12 Control Board"
        (path "/2454fd1b-3484-4838-8b7e-d26357238fe1/00000000-0000-0000-0000-0000604a18a1"
          (reference "Q1") (unit 1)
        )
      )
    )
  )

  (symbol (lib_id "Device:R") (at 99.06 93.98 180) (unit 1)
    (in_bom yes) (on_board yes) (dnp no)
    (uuid 00000000-0000-0000-0000-000060060621)
    (property "Reference" "R76" (at 100.838 92.8116 0)
      (effects (font (size 1.27 1.27)) (justify right))
    )
    (property "Value" "100k" (at 100.838 95.123 0)
      (effects (font (size 1.27 1.27)) (justify right))
    )
    (property "Footprint" "Resistor_SMD:R_0805_2012Metric_Pad1.20x1.40mm_HandSolder" (at 100.838 93.98 90)
      (effects (font (size 1.27 1.27)) hide)
    )
    (property "Datasheet" "~" (at 99.06 93.98 0)
      (effects (font (size 1.27 1.27)) hide)
    )
    (pin "1" (uuid 4cd8c648-0ce5-4240-9220-52a1372fb373))
    (pin "2" (uuid d021d6f3-b157-4c72-8422-07e883ab53e1))
    (instances
      (project "IoT12 Control Board"
        (path "/2454fd1b-3484-4838-8b7e-d26357238fe1/00000000-0000-0000-0000-0000604a18a1"
          (reference "R76") (unit 1)
        )
      )
    )
  )

  (symbol (lib_id "power:GND") (at 99.06 120.65 0) (unit 1)
    (in_bom yes) (on_board yes) (dnp no)
    (uuid 00000000-0000-0000-0000-00006006090c)
    (property "Reference" "#PWR0174" (at 99.06 127 0)
      (effects (font (size 1.27 1.27)) hide)
    )
    (property "Value" "GND" (at 99.187 125.0442 0)
      (effects (font (size 1.27 1.27)))
    )
    (property "Footprint" "" (at 99.06 120.65 0)
      (effects (font (size 1.27 1.27)) hide)
    )
    (property "Datasheet" "" (at 99.06 120.65 0)
      (effects (font (size 1.27 1.27)) hide)
    )
    (pin "1" (uuid 9063ddb0-e4e6-4179-b680-2923ba54f145))
    (instances
      (project "IoT12 Control Board"
        (path "/2454fd1b-3484-4838-8b7e-d26357238fe1/00000000-0000-0000-0000-0000604a18a1"
          (reference "#PWR0174") (unit 1)
        )
      )
    )
  )

  (symbol (lib_id "Device:NetTie_2") (at 125.73 78.74 0) (unit 1)
    (in_bom no) (on_board yes) (dnp no)
    (uuid 00000000-0000-0000-0000-00006014262e)
    (property "Reference" "NT2" (at 125.73 76.4794 0)
      (effects (font (size 1.27 1.27)))
    )
    (property "Value" "~" (at 125.73 76.454 0)
      (effects (font (size 1.27 1.27)))
    )
    (property "Footprint" "NetTie-extra:NetTie-2_SMD_Pad0.5mm" (at 125.73 78.74 0)
      (effects (font (size 1.27 1.27)) hide)
    )
    (property "Datasheet" "~" (at 125.73 78.74 0)
      (effects (font (size 1.27 1.27)) hide)
    )
    (pin "1" (uuid c27e7433-8e09-4998-8bf4-832407620f73))
    (pin "2" (uuid 97450827-cf11-4734-9f38-c63e488c3c7c))
    (instances
      (project "IoT12 Control Board"
        (path "/2454fd1b-3484-4838-8b7e-d26357238fe1/00000000-0000-0000-0000-0000604a18a1"
          (reference "NT2") (unit 1)
        )
      )
    )
  )

  (symbol (lib_id "Device:LED") (at 34.29 100.33 90) (unit 1)
    (in_bom yes) (on_board yes) (dnp no)
    (uuid 00000000-0000-0000-0000-000060208e90)
    (property "Reference" "D20" (at 37.2872 99.3394 90)
      (effects (font (size 1.27 1.27)) (justify right))
    )
    (property "Value" "Red" (at 37.2872 101.6508 90)
      (effects (font (size 1.27 1.27)) (justify right))
    )
    (property "Footprint" "LED_SMD:LED_0805_2012Metric_Pad1.15x1.40mm_HandSolder" (at 34.29 100.33 0)
      (effects (font (size 1.27 1.27)) hide)
    )
    (property "Datasheet" "~" (at 34.29 100.33 0)
      (effects (font (size 1.27 1.27)) hide)
    )
    (pin "1" (uuid 44221819-5086-4f03-a07a-430664efdb1d))
    (pin "2" (uuid 67b8a004-625a-4a0f-a148-b72ca2572de5))
    (instances
      (project "IoT12 Control Board"
        (path "/2454fd1b-3484-4838-8b7e-d26357238fe1/00000000-0000-0000-0000-0000604a18a1"
          (reference "D20") (unit 1)
        )
      )
    )
  )

  (symbol (lib_id "Device:R") (at 34.29 90.17 0) (unit 1)
    (in_bom yes) (on_board yes) (dnp no)
    (uuid 00000000-0000-0000-0000-00006020aa0c)
    (property "Reference" "R50" (at 36.068 89.0016 0)
      (effects (font (size 1.27 1.27)) (justify left))
    )
    (property "Value" "4k7" (at 36.068 91.313 0)
      (effects (font (size 1.27 1.27)) (justify left))
    )
    (property "Footprint" "Resistor_SMD:R_0805_2012Metric_Pad1.20x1.40mm_HandSolder" (at 32.512 90.17 90)
      (effects (font (size 1.27 1.27)) hide)
    )
    (property "Datasheet" "~" (at 34.29 90.17 0)
      (effects (font (size 1.27 1.27)) hide)
    )
    (pin "1" (uuid 46dfb55d-07ed-456d-92aa-27ce31e82692))
    (pin "2" (uuid ab0281e6-285e-4645-b84d-d9606810bfff))
    (instances
      (project "IoT12 Control Board"
        (path "/2454fd1b-3484-4838-8b7e-d26357238fe1/00000000-0000-0000-0000-0000604a18a1"
          (reference "R50") (unit 1)
        )
      )
    )
  )

  (symbol (lib_id "power:GND") (at 34.29 120.65 0) (unit 1)
    (in_bom yes) (on_board yes) (dnp no)
    (uuid 00000000-0000-0000-0000-00006020abd9)
    (property "Reference" "#PWR0170" (at 34.29 127 0)
      (effects (font (size 1.27 1.27)) hide)
    )
    (property "Value" "GND" (at 34.417 125.0442 0)
      (effects (font (size 1.27 1.27)))
    )
    (property "Footprint" "" (at 34.29 120.65 0)
      (effects (font (size 1.27 1.27)) hide)
    )
    (property "Datasheet" "" (at 34.29 120.65 0)
      (effects (font (size 1.27 1.27)) hide)
    )
    (pin "1" (uuid c28f5f23-31bd-4469-93af-0ca73af1ba32))
    (instances
      (project "IoT12 Control Board"
        (path "/2454fd1b-3484-4838-8b7e-d26357238fe1/00000000-0000-0000-0000-0000604a18a1"
          (reference "#PWR0170") (unit 1)
        )
      )
    )
  )

  (symbol (lib_id "power:GND") (at 68.58 120.65 0) (unit 1)
    (in_bom yes) (on_board yes) (dnp no)
    (uuid 00000000-0000-0000-0000-000060357ca7)
    (property "Reference" "#PWR0172" (at 68.58 127 0)
      (effects (font (size 1.27 1.27)) hide)
    )
    (property "Value" "GND" (at 68.707 125.0442 0)
      (effects (font (size 1.27 1.27)))
    )
    (property "Footprint" "" (at 68.58 120.65 0)
      (effects (font (size 1.27 1.27)) hide)
    )
    (property "Datasheet" "" (at 68.58 120.65 0)
      (effects (font (size 1.27 1.27)) hide)
    )
    (pin "1" (uuid 6b147341-8675-4c8b-b0af-b1e51e28c518))
    (instances
      (project "IoT12 Control Board"
        (path "/2454fd1b-3484-4838-8b7e-d26357238fe1/00000000-0000-0000-0000-0000604a18a1"
          (reference "#PWR0172") (unit 1)
        )
      )
    )
  )

  (symbol (lib_id "Device:R") (at 68.58 36.83 0) (unit 1)
    (in_bom yes) (on_board yes) (dnp no)
    (uuid 00000000-0000-0000-0000-00006035ec09)
    (property "Reference" "R49" (at 70.358 35.6616 0)
      (effects (font (size 1.27 1.27)) (justify left))
    )
    (property "Value" "4k7" (at 70.358 37.973 0)
      (effects (font (size 1.27 1.27)) (justify left))
    )
    (property "Footprint" "Resistor_SMD:R_0805_2012Metric_Pad1.20x1.40mm_HandSolder" (at 66.802 36.83 90)
      (effects (font (size 1.27 1.27)) hide)
    )
    (property "Datasheet" "~" (at 68.58 36.83 0)
      (effects (font (size 1.27 1.27)) hide)
    )
    (pin "1" (uuid 3d0fbf3b-f343-4d77-b1b4-00f37e7db628))
    (pin "2" (uuid 60552139-52e8-4088-ab7d-35b08555d4da))
    (instances
      (project "IoT12 Control Board"
        (path "/2454fd1b-3484-4838-8b7e-d26357238fe1/00000000-0000-0000-0000-0000604a18a1"
          (reference "R49") (unit 1)
        )
      )
    )
  )

  (symbol (lib_id "Device:R") (at 68.58 58.42 0) (unit 1)
    (in_bom yes) (on_board yes) (dnp no)
    (uuid 00000000-0000-0000-0000-00006035f335)
    (property "Reference" "R33" (at 70.358 57.2516 0)
      (effects (font (size 1.27 1.27)) (justify left))
    )
    (property "Value" "1k" (at 70.358 59.563 0)
      (effects (font (size 1.27 1.27)) (justify left))
    )
    (property "Footprint" "Resistor_SMD:R_0805_2012Metric_Pad1.20x1.40mm_HandSolder" (at 66.802 58.42 90)
      (effects (font (size 1.27 1.27)) hide)
    )
    (property "Datasheet" "~" (at 68.58 58.42 0)
      (effects (font (size 1.27 1.27)) hide)
    )
    (pin "1" (uuid da4a3d9e-95cd-4ca3-9b18-0564c6a59132))
    (pin "2" (uuid d6f69e98-2b6b-4901-9951-a2b9398faeb2))
    (instances
      (project "IoT12 Control Board"
        (path "/2454fd1b-3484-4838-8b7e-d26357238fe1/00000000-0000-0000-0000-0000604a18a1"
          (reference "R33") (unit 1)
        )
      )
    )
  )

  (symbol (lib_id "power:+24V") (at 68.58 25.4 0) (unit 1)
    (in_bom yes) (on_board yes) (dnp no)
    (uuid 00000000-0000-0000-0000-000060373f3b)
    (property "Reference" "#PWR0164" (at 68.58 29.21 0)
      (effects (font (size 1.27 1.27)) hide)
    )
    (property "Value" "+24V" (at 68.961 21.0058 0)
      (effects (font (size 1.27 1.27)))
    )
    (property "Footprint" "" (at 68.58 25.4 0)
      (effects (font (size 1.27 1.27)) hide)
    )
    (property "Datasheet" "" (at 68.58 25.4 0)
      (effects (font (size 1.27 1.27)) hide)
    )
    (pin "1" (uuid 70723b7b-4ebf-4f90-9210-96ef8d162195))
    (instances
      (project "IoT12 Control Board"
        (path "/2454fd1b-3484-4838-8b7e-d26357238fe1/00000000-0000-0000-0000-0000604a18a1"
          (reference "#PWR0164") (unit 1)
        )
      )
    )
  )

  (symbol (lib_id "power:+24V") (at 91.44 25.4 0) (unit 1)
    (in_bom yes) (on_board yes) (dnp no)
    (uuid 00000000-0000-0000-0000-00006037b770)
    (property "Reference" "#PWR0166" (at 91.44 29.21 0)
      (effects (font (size 1.27 1.27)) hide)
    )
    (property "Value" "+24V" (at 91.821 21.0058 0)
      (effects (font (size 1.27 1.27)))
    )
    (property "Footprint" "" (at 91.44 25.4 0)
      (effects (font (size 1.27 1.27)) hide)
    )
    (property "Datasheet" "" (at 91.44 25.4 0)
      (effects (font (size 1.27 1.27)) hide)
    )
    (pin "1" (uuid f89dce8e-ea02-4c76-9bf8-8ab08025ed59))
    (instances
      (project "IoT12 Control Board"
        (path "/2454fd1b-3484-4838-8b7e-d26357238fe1/00000000-0000-0000-0000-0000604a18a1"
          (reference "#PWR0166") (unit 1)
        )
      )
    )
  )

  (symbol (lib_id "power:GND") (at 91.44 120.65 0) (unit 1)
    (in_bom yes) (on_board yes) (dnp no)
    (uuid 00000000-0000-0000-0000-00006038a739)
    (property "Reference" "#PWR0173" (at 91.44 127 0)
      (effects (font (size 1.27 1.27)) hide)
    )
    (property "Value" "GND" (at 91.567 125.0442 0)
      (effects (font (size 1.27 1.27)))
    )
    (property "Footprint" "" (at 91.44 120.65 0)
      (effects (font (size 1.27 1.27)) hide)
    )
    (property "Datasheet" "" (at 91.44 120.65 0)
      (effects (font (size 1.27 1.27)) hide)
    )
    (pin "1" (uuid 64d7e573-bc9d-4128-80e4-2d92b38395d6))
    (instances
      (project "IoT12 Control Board"
        (path "/2454fd1b-3484-4838-8b7e-d26357238fe1/00000000-0000-0000-0000-0000604a18a1"
          (reference "#PWR0173") (unit 1)
        )
      )
    )
  )

  (symbol (lib_id "power:+24V") (at 77.47 25.4 0) (unit 1)
    (in_bom yes) (on_board yes) (dnp no)
    (uuid 00000000-0000-0000-0000-0000603ab6e0)
    (property "Reference" "#PWR0165" (at 77.47 29.21 0)
      (effects (font (size 1.27 1.27)) hide)
    )
    (property "Value" "+24V" (at 77.851 21.0058 0)
      (effects (font (size 1.27 1.27)))
    )
    (property "Footprint" "" (at 77.47 25.4 0)
      (effects (font (size 1.27 1.27)) hide)
    )
    (property "Datasheet" "" (at 77.47 25.4 0)
      (effects (font (size 1.27 1.27)) hide)
    )
    (pin "1" (uuid 6a06b472-f311-4027-a47e-469f2a1f29d4))
    (instances
      (project "IoT12 Control Board"
        (path "/2454fd1b-3484-4838-8b7e-d26357238fe1/00000000-0000-0000-0000-0000604a18a1"
          (reference "#PWR0165") (unit 1)
        )
      )
    )
  )

  (symbol (lib_id "Diode:BZX84Cxx") (at 77.47 36.83 270) (unit 1)
    (in_bom yes) (on_board yes) (dnp no)
    (uuid 00000000-0000-0000-0000-0000603abb73)
    (property "Reference" "D10" (at 79.502 35.6616 90)
      (effects (font (size 1.27 1.27)) (justify left))
    )
    (property "Value" "BZX84C18" (at 79.502 37.973 90)
      (effects (font (size 1.27 1.27)) (justify left))
    )
    (property "Footprint" "Package_TO_SOT_SMD:SOT-23" (at 77.47 36.83 0)
      (effects (font (size 1.27 1.27)) hide)
    )
    (property "Datasheet" "https://diotec.com/tl_files/diotec/files/pdf/datasheets/bzx84c2v4.pdf" (at 77.47 36.83 0)
      (effects (font (size 1.27 1.27)) hide)
    )
    (pin "1" (uuid 23f7c06f-5030-4e4f-8379-644a36c58b43))
    (pin "2" (uuid f020b620-f521-46f5-a626-4f6a4446da34))
    (pin "3" (uuid f8e290e5-f663-4660-a530-1fcfdc065967))
    (instances
      (project "IoT12 Control Board"
        (path "/2454fd1b-3484-4838-8b7e-d26357238fe1/00000000-0000-0000-0000-0000604a18a1"
          (reference "D10") (unit 1)
        )
      )
    )
  )

  (symbol (lib_id "Device:D_Schottky") (at 91.44 69.85 270) (unit 1)
    (in_bom yes) (on_board yes) (dnp no)
    (uuid 00000000-0000-0000-0000-0000603bc8d1)
    (property "Reference" "D40" (at 96.9518 69.85 0)
      (effects (font (size 1.27 1.27)))
    )
    (property "Value" "SS34" (at 94.6404 69.85 0)
      (effects (font (size 1.27 1.27)))
    )
    (property "Footprint" "Diode_SMD:D_SMA" (at 91.44 69.85 0)
      (effects (font (size 1.27 1.27)) hide)
    )
    (property "Datasheet" "~" (at 91.44 69.85 0)
      (effects (font (size 1.27 1.27)) hide)
    )
    (pin "1" (uuid e4b9b160-5ea2-45a7-a417-4ce81f0685cf))
    (pin "2" (uuid a3291c70-b6d8-46fe-b823-442ad73bb3b4))
    (instances
      (project "IoT12 Control Board"
        (path "/2454fd1b-3484-4838-8b7e-d26357238fe1/00000000-0000-0000-0000-0000604a18a1"
          (reference "D40") (unit 1)
        )
      )
    )
  )

  (symbol (lib_id "power:+24V") (at 107.95 25.4 0) (unit 1)
    (in_bom yes) (on_board yes) (dnp no)
    (uuid 00000000-0000-0000-0000-0000603e5fb5)
    (property "Reference" "#PWR0167" (at 107.95 29.21 0)
      (effects (font (size 1.27 1.27)) hide)
    )
    (property "Value" "+24V" (at 108.331 21.0058 0)
      (effects (font (size 1.27 1.27)))
    )
    (property "Footprint" "" (at 107.95 25.4 0)
      (effects (font (size 1.27 1.27)) hide)
    )
    (property "Datasheet" "" (at 107.95 25.4 0)
      (effects (font (size 1.27 1.27)) hide)
    )
    (pin "1" (uuid fbb0b55a-9cdb-4710-8417-759488138678))
    (instances
      (project "IoT12 Control Board"
        (path "/2454fd1b-3484-4838-8b7e-d26357238fe1/00000000-0000-0000-0000-0000604a18a1"
          (reference "#PWR0167") (unit 1)
        )
      )
    )
  )

  (symbol (lib_id "Device:D_Schottky") (at 107.95 50.8 270) (unit 1)
    (in_bom yes) (on_board yes) (dnp no) (fields_autoplaced)
    (uuid 00000000-0000-0000-0000-0000603e637a)
    (property "Reference" "D30" (at 110.49 49.2124 90)
      (effects (font (size 1.27 1.27)) (justify left))
    )
    (property "Value" "SS14" (at 110.49 51.7524 90)
      (effects (font (size 1.27 1.27)) (justify left))
    )
    (property "Footprint" "Diode_SMD:D_SMA" (at 107.95 50.8 0)
      (effects (font (size 1.27 1.27)) hide)
    )
    (property "Datasheet" "~" (at 107.95 50.8 0)
      (effects (font (size 1.27 1.27)) hide)
    )
    (pin "1" (uuid 9c414d24-92b6-4202-8c6e-f66ce0c25912))
    (pin "2" (uuid 65cb62bf-7e77-47da-9026-ca0e66a9c7c1))
    (instances
      (project "IoT12 Control Board"
        (path "/2454fd1b-3484-4838-8b7e-d26357238fe1/00000000-0000-0000-0000-0000604a18a1"
          (reference "D30") (unit 1)
        )
      )
    )
  )

  (symbol (lib_id "Device:NetTie_2") (at 125.73 92.71 0) (unit 1)
    (in_bom no) (on_board yes) (dnp no)
    (uuid 00000000-0000-0000-0000-0000604dcd37)
    (property "Reference" "NT3" (at 125.73 90.4494 0)
      (effects (font (size 1.27 1.27)))
    )
    (property "Value" "~" (at 125.73 90.424 0)
      (effects (font (size 1.27 1.27)))
    )
    (property "Footprint" "NetTie-extra:NetTie-2_SMD_Pad0.5mm" (at 125.73 92.71 0)
      (effects (font (size 1.27 1.27)) hide)
    )
    (property "Datasheet" "~" (at 125.73 92.71 0)
      (effects (font (size 1.27 1.27)) hide)
    )
    (pin "1" (uuid 9dbbbe47-74ff-4c58-89fe-16f0ddbfd853))
    (pin "2" (uuid 932f29c2-4b27-4e33-a08c-eb2c4c652085))
    (instances
      (project "IoT12 Control Board"
        (path "/2454fd1b-3484-4838-8b7e-d26357238fe1/00000000-0000-0000-0000-0000604a18a1"
          (reference "NT3") (unit 1)
        )
      )
    )
  )

  (symbol (lib_id "Device:R") (at 121.92 85.09 0) (unit 1)
    (in_bom yes) (on_board yes) (dnp no)
    (uuid 00000000-0000-0000-0000-0000605f934e)
    (property "Reference" "R1" (at 123.698 83.9216 0)
      (effects (font (size 1.27 1.27)) (justify left))
    )
    (property "Value" "0R005" (at 123.698 86.233 0)
      (effects (font (size 1.27 1.27)) (justify left))
    )
    (property "Footprint" "Resistor_SMD:R_2512_6332Metric_Pad1.40x3.35mm_HandSolder" (at 120.142 85.09 90)
      (effects (font (size 1.27 1.27)) hide)
    )
    (property "Datasheet" "~" (at 121.92 85.09 0)
      (effects (font (size 1.27 1.27)) hide)
    )
    (pin "1" (uuid c5045931-65f1-4bae-9d54-f8577a5b3e24))
    (pin "2" (uuid 8ccb00ab-db64-4f28-a4f8-4563b1ef5ee1))
    (instances
      (project "IoT12 Control Board"
        (path "/2454fd1b-3484-4838-8b7e-d26357238fe1/00000000-0000-0000-0000-0000604a18a1"
          (reference "R1") (unit 1)
        )
      )
    )
  )

  (symbol (lib_id "power:GND") (at 121.92 120.65 0) (unit 1)
    (in_bom yes) (on_board yes) (dnp no)
    (uuid 00000000-0000-0000-0000-00006061aae8)
    (property "Reference" "#PWR0176" (at 121.92 127 0)
      (effects (font (size 1.27 1.27)) hide)
    )
    (property "Value" "GND" (at 122.047 125.0442 0)
      (effects (font (size 1.27 1.27)))
    )
    (property "Footprint" "" (at 121.92 120.65 0)
      (effects (font (size 1.27 1.27)) hide)
    )
    (property "Datasheet" "" (at 121.92 120.65 0)
      (effects (font (size 1.27 1.27)) hide)
    )
    (pin "1" (uuid a31c6e5f-dde7-4dc6-8236-f6310dafad9c))
    (instances
      (project "IoT12 Control Board"
        (path "/2454fd1b-3484-4838-8b7e-d26357238fe1/00000000-0000-0000-0000-0000604a18a1"
          (reference "#PWR0176") (unit 1)
        )
      )
    )
  )

  (symbol (lib_id "Module-extra:max98357") (at 69.85 170.18 0) (unit 1)
    (in_bom yes) (on_board yes) (dnp no)
    (uuid 00000000-0000-0000-0000-000060692413)
    (property "Reference" "A2" (at 69.85 155.4226 0)
      (effects (font (size 1.27 1.27)))
    )
    (property "Value" "max98357" (at 69.85 157.734 0)
      (effects (font (size 1.27 1.27)))
    )
    (property "Footprint" "Module-extra:max98357" (at 69.85 170.18 0)
      (effects (font (size 1.27 1.27)) hide)
    )
    (property "Datasheet" "" (at 69.85 170.18 0)
      (effects (font (size 1.27 1.27)) hide)
    )
    (pin "1" (uuid 6fa8d8e4-b529-4ffa-91ae-541972bdab7b))
    (pin "2" (uuid dffc4608-6587-45ed-9ed7-a23997a74f31))
    (pin "3" (uuid b9434873-8c27-40e1-b7ca-64a5d0c0ddeb))
    (pin "4" (uuid c209e364-d435-4458-95fe-74ee2ac88ce9))
    (pin "5" (uuid 67eff1d3-5019-4e11-8349-1fcf868f3875))
    (pin "6" (uuid c8704438-f967-4031-ad00-ffa571a405b0))
    (pin "7" (uuid 111a1d65-22eb-474f-b807-9cd3c14bee23))
    (pin "8" (uuid a4c367a7-dfe0-4bbc-9a2b-48570c2e87ff))
    (pin "9" (uuid 19707c64-ba6f-4b59-a5b3-f592cf4753d7))
    (instances
      (project "IoT12 Control Board"
        (path "/2454fd1b-3484-4838-8b7e-d26357238fe1/00000000-0000-0000-0000-0000604a18a1"
          (reference "A2") (unit 1)
        )
      )
    )
  )

  (symbol (lib_id "power:+5V") (at 69.85 151.13 0) (unit 1)
    (in_bom yes) (on_board yes) (dnp no)
    (uuid 00000000-0000-0000-0000-000060692f04)
    (property "Reference" "#PWR0177" (at 69.85 154.94 0)
      (effects (font (size 1.27 1.27)) hide)
    )
    (property "Value" "+5V" (at 70.231 146.7358 0)
      (effects (font (size 1.27 1.27)))
    )
    (property "Footprint" "" (at 69.85 151.13 0)
      (effects (font (size 1.27 1.27)) hide)
    )
    (property "Datasheet" "" (at 69.85 151.13 0)
      (effects (font (size 1.27 1.27)) hide)
    )
    (pin "1" (uuid 6260bfe0-5ec4-4c92-92e5-7d4aebb6fc00))
    (instances
      (project "IoT12 Control Board"
        (path "/2454fd1b-3484-4838-8b7e-d26357238fe1/00000000-0000-0000-0000-0000604a18a1"
          (reference "#PWR0177") (unit 1)
        )
      )
    )
  )

  (symbol (lib_id "power:GND") (at 69.85 187.96 0) (unit 1)
    (in_bom yes) (on_board yes) (dnp no)
    (uuid 00000000-0000-0000-0000-00006069361e)
    (property "Reference" "#PWR0178" (at 69.85 194.31 0)
      (effects (font (size 1.27 1.27)) hide)
    )
    (property "Value" "GND" (at 69.977 192.3542 0)
      (effects (font (size 1.27 1.27)))
    )
    (property "Footprint" "" (at 69.85 187.96 0)
      (effects (font (size 1.27 1.27)) hide)
    )
    (property "Datasheet" "" (at 69.85 187.96 0)
      (effects (font (size 1.27 1.27)) hide)
    )
    (pin "1" (uuid dbe3bcbf-ac48-4570-944e-71630dc7bc62))
    (instances
      (project "IoT12 Control Board"
        (path "/2454fd1b-3484-4838-8b7e-d26357238fe1/00000000-0000-0000-0000-0000604a18a1"
          (reference "#PWR0178") (unit 1)
        )
      )
    )
  )

  (symbol (lib_id "Device:R") (at 35.56 175.26 270) (unit 1)
    (in_bom yes) (on_board yes) (dnp no)
    (uuid 00000000-0000-0000-0000-0000606a8c21)
    (property "Reference" "R72" (at 35.56 178.181 90)
      (effects (font (size 1.27 1.27)))
    )
    (property "Value" "100k" (at 35.56 180.4924 90)
      (effects (font (size 1.27 1.27)))
    )
    (property "Footprint" "Resistor_SMD:R_0805_2012Metric_Pad1.20x1.40mm_HandSolder" (at 35.56 173.482 90)
      (effects (font (size 1.27 1.27)) hide)
    )
    (property "Datasheet" "~" (at 35.56 175.26 0)
      (effects (font (size 1.27 1.27)) hide)
    )
    (pin "1" (uuid c8ba3a59-0d78-4a86-bda3-26b7df291a58))
    (pin "2" (uuid 31b3e58e-78f0-4c46-9549-6498ed334ed9))
    (instances
      (project "IoT12 Control Board"
        (path "/2454fd1b-3484-4838-8b7e-d26357238fe1/00000000-0000-0000-0000-0000604a18a1"
          (reference "R72") (unit 1)
        )
      )
    )
  )

  (symbol (lib_id "power:+3.3V") (at 212.09 50.8 0) (unit 1)
    (in_bom yes) (on_board yes) (dnp no)
    (uuid 08c9b678-3058-4882-aafa-1db9f857f508)
    (property "Reference" "#PWR0123" (at 212.09 54.61 0)
      (effects (font (size 1.27 1.27)) hide)
    )
    (property "Value" "+3.3V" (at 212.471 46.4058 0)
      (effects (font (size 1.27 1.27)))
    )
    (property "Footprint" "" (at 212.09 50.8 0)
      (effects (font (size 1.27 1.27)) hide)
    )
    (property "Datasheet" "" (at 212.09 50.8 0)
      (effects (font (size 1.27 1.27)) hide)
    )
    (pin "1" (uuid ad3b0528-b348-4b21-9cd2-31faf8fe38a8))
    (instances
      (project "IoT12 Control Board"
        (path "/2454fd1b-3484-4838-8b7e-d26357238fe1/00000000-0000-0000-0000-0000604a18a1"
          (reference "#PWR0123") (unit 1)
        )
      )
    )
  )

  (symbol (lib_id "Connector_Generic:Conn_02x07_Odd_Even") (at 229.87 69.85 0) (unit 1)
    (in_bom yes) (on_board yes) (dnp no) (fields_autoplaced)
    (uuid 4fb81dad-2aec-46b8-9971-4d3a26040cc7)
    (property "Reference" "J1" (at 231.14 55.88 0)
      (effects (font (size 1.27 1.27)))
    )
    (property "Value" "IDC-Header_2x07_P2.54mm" (at 231.14 58.42 0)
      (effects (font (size 1.27 1.27)))
    )
    (property "Footprint" "Connector_IDC:IDC-Header_2x07_P2.54mm_Vertical" (at 229.87 69.85 0)
      (effects (font (size 1.27 1.27)) hide)
    )
    (property "Datasheet" "~" (at 229.87 69.85 0)
      (effects (font (size 1.27 1.27)) hide)
    )
    (pin "1" (uuid d1b2f19d-08a2-4b20-9eb8-a723e30343f3))
    (pin "10" (uuid fe5e69f6-d5bf-42e5-916b-fd5586d0df0d))
    (pin "11" (uuid b779a644-9d1a-4c74-8b8e-cec783f1aa1a))
    (pin "12" (uuid 28a311bd-0cd6-4372-a99a-c8ed699c1956))
    (pin "13" (uuid 29b57fd2-69a2-42ab-8588-0fb952fe4f3e))
    (pin "14" (uuid aa3c5c33-ef66-47b7-bed1-66e4410e4183))
    (pin "2" (uuid eec97b13-2f0d-4d37-a7b3-edbdb25e8ccd))
    (pin "3" (uuid 280dfa8a-bf9b-4ee5-96b3-0cfa6f03a6e1))
    (pin "4" (uuid 4949e374-ea55-4dc0-8a6b-bc36cdf37c3c))
    (pin "5" (uuid 2fc99a1b-a971-497c-8bac-8a516a86bff9))
    (pin "6" (uuid a3cc0048-25d0-4df6-9541-c387a660442f))
    (pin "7" (uuid 06f19f06-9166-40c4-9d99-3cc51203be07))
    (pin "8" (uuid 2dd0c057-de02-45f5-a3b2-09d77ab70b69))
    (pin "9" (uuid 6f51ab91-8512-4803-bd58-7d61beb7ba13))
    (instances
      (project "IoT12 Control Board"
        (path "/2454fd1b-3484-4838-8b7e-d26357238fe1/00000000-0000-0000-0000-0000604a18a1"
          (reference "J1") (unit 1)
        )
      )
    )
  )

  (symbol (lib_id "Connector:Conn_01x05_Pin") (at 170.18 72.39 180) (unit 1)
    (in_bom yes) (on_board yes) (dnp no) (fields_autoplaced)
    (uuid 7abc3f00-7daf-414a-89cb-a9cba0a7ef57)
    (property "Reference" "J5" (at 169.545 62.23 0)
      (effects (font (size 1.27 1.27)))
    )
    (property "Value" "JST B5B-XH-A" (at 169.545 64.77 0)
      (effects (font (size 1.27 1.27)))
    )
    (property "Footprint" "Connector_JST:JST_XH_B5B-XH-A_1x05_P2.50mm_Vertical" (at 170.18 72.39 0)
      (effects (font (size 1.27 1.27)) hide)
    )
    (property "Datasheet" "~" (at 170.18 72.39 0)
      (effects (font (size 1.27 1.27)) hide)
    )
    (pin "1" (uuid d270c744-7b2b-490a-b366-029b3c05c37c))
    (pin "2" (uuid 46102cee-bd73-48c5-a468-77e350b4ddab))
    (pin "3" (uuid d33904e8-7ce9-4ea0-bfca-5b06986a0a74))
    (pin "4" (uuid 793ac0c8-9e7e-43e9-9bdb-05b0b1c0a184))
    (pin "5" (uuid c842b725-ca6d-4d1f-b9a5-88d1976e7105))
    (instances
      (project "IoT12 Control Board"
        (path "/2454fd1b-3484-4838-8b7e-d26357238fe1/00000000-0000-0000-0000-0000604a18a1"
          (reference "J5") (unit 1)
        )
      )
    )
  )

  (symbol (lib_id "Connector:Conn_01x02_Pin") (at 100.33 171.45 180) (unit 1)
    (in_bom yes) (on_board yes) (dnp no) (fields_autoplaced)
    (uuid 7f7d546c-9882-4393-aecd-00034ccf0397)
    (property "Reference" "J2" (at 99.695 163.83 0)
      (effects (font (size 1.27 1.27)))
    )
    (property "Value" "JST B2B-XH-A" (at 99.695 166.37 0)
      (effects (font (size 1.27 1.27)))
    )
    (property "Footprint" "Connector_JST:JST_XH_B2B-XH-A_1x02_P2.50mm_Vertical" (at 100.33 171.45 0)
      (effects (font (size 1.27 1.27)) hide)
    )
    (property "Datasheet" "~" (at 100.33 171.45 0)
      (effects (font (size 1.27 1.27)) hide)
    )
    (pin "1" (uuid 16c79510-2e31-4227-b6d0-f4ae31ebc7fa))
    (pin "2" (uuid 670b088b-57d8-4380-9fc5-391267bf976a))
    (instances
      (project "IoT12 Control Board"
        (path "/2454fd1b-3484-4838-8b7e-d26357238fe1/00000000-0000-0000-0000-0000604a18a1"
          (reference "J2") (unit 1)
        )
      )
    )
  )

  (symbol (lib_id "Device:R") (at 35.56 184.15 270) (unit 1)
    (in_bom yes) (on_board yes) (dnp no)
    (uuid 943d6df9-8ea1-4b4f-b228-4805673acf68)
    (property "Reference" "R80" (at 35.56 187.071 90)
      (effects (font (size 1.27 1.27)))
    )
    (property "Value" "560k" (at 35.56 189.3824 90)
      (effects (font (size 1.27 1.27)))
    )
    (property "Footprint" "Resistor_SMD:R_0805_2012Metric_Pad1.20x1.40mm_HandSolder" (at 35.56 182.372 90)
      (effects (font (size 1.27 1.27)) hide)
    )
    (property "Datasheet" "~" (at 35.56 184.15 0)
      (effects (font (size 1.27 1.27)) hide)
    )
    (pin "1" (uuid a3ba694f-52fc-4be5-8b6c-df4bb3170203))
    (pin "2" (uuid 09cc3d9a-76d3-4eca-8cc6-b2c4f123ae8d))
    (instances
      (project "IoT12 Control Board"
        (path "/2454fd1b-3484-4838-8b7e-d26357238fe1/00000000-0000-0000-0000-0000604a18a1"
          (reference "R80") (unit 1)
        )
      )
    )
  )

  (symbol (lib_id "power:GND") (at 220.98 92.71 0) (unit 1)
    (in_bom yes) (on_board yes) (dnp no)
    (uuid b5b856cc-bcc8-4d32-bed1-7ddce4d16b0d)
    (property "Reference" "#PWR0122" (at 220.98 99.06 0)
      (effects (font (size 1.27 1.27)) hide)
    )
    (property "Value" "GND" (at 221.107 97.1042 0)
      (effects (font (size 1.27 1.27)))
    )
    (property "Footprint" "" (at 220.98 92.71 0)
      (effects (font (size 1.27 1.27)) hide)
    )
    (property "Datasheet" "" (at 220.98 92.71 0)
      (effects (font (size 1.27 1.27)) hide)
    )
    (pin "1" (uuid e3d74553-af3b-4bce-a022-dad2653cfe37))
    (instances
      (project "IoT12 Control Board"
        (path "/2454fd1b-3484-4838-8b7e-d26357238fe1/00000000-0000-0000-0000-0000604a18a1"
          (reference "#PWR0122") (unit 1)
        )
      )
    )
  )
)
