(kicad_pcb (version 20221018) (generator pcbnew)

  (general
    (thickness 1.6)
  )

  (paper "A4")
  (layers
    (0 "F.Cu" signal)
    (31 "B.Cu" signal)
    (32 "B.Adhes" user "B.Adhesive")
    (33 "F.Adhes" user "F.Adhesive")
    (34 "B.Paste" user)
    (35 "F.Paste" user)
    (36 "B.SilkS" user "B.Silkscreen")
    (37 "F.SilkS" user "F.Silkscreen")
    (38 "B.Mask" user)
    (39 "F.Mask" user)
    (40 "Dwgs.User" user "User.Drawings")
    (41 "Cmts.User" user "User.Comments")
    (42 "Eco1.User" user "User.Eco1")
    (43 "Eco2.User" user "User.Eco2")
    (44 "Edge.Cuts" user)
    (45 "Margin" user)
    (46 "B.CrtYd" user "B.Courtyard")
    (47 "F.CrtYd" user "F.Courtyard")
    (48 "B.Fab" user)
    (49 "F.Fab" user)
    (50 "User.1" user)
    (51 "User.2" user)
    (52 "User.3" user)
    (53 "User.4" user)
    (54 "User.5" user)
    (55 "User.6" user)
    (56 "User.7" user)
    (57 "User.8" user)
    (58 "User.9" user)
  )

  (setup
    (stackup
      (layer "F.SilkS" (type "Top Silk Screen"))
      (layer "F.Paste" (type "Top Solder Paste"))
      (layer "F.Mask" (type "Top Solder Mask") (thickness 0.01))
      (layer "F.Cu" (type "copper") (thickness 0.035))
      (layer "dielectric 1" (type "core") (thickness 1.51) (material "FR4") (epsilon_r 4.5) (loss_tangent 0.02))
      (layer "B.Cu" (type "copper") (thickness 0.035))
      (layer "B.Mask" (type "Bottom Solder Mask") (thickness 0.01))
      (layer "B.Paste" (type "Bottom Solder Paste"))
      (layer "B.SilkS" (type "Bottom Silk Screen"))
      (copper_finish "None")
      (dielectric_constraints no)
    )
    (pad_to_mask_clearance 0)
    (grid_origin 118.17 89.8)
    (pcbplotparams
      (layerselection 0x00010fc_ffffffff)
      (plot_on_all_layers_selection 0x0000000_00000000)
      (disableapertmacros false)
      (usegerberextensions false)
      (usegerberattributes true)
      (usegerberadvancedattributes true)
      (creategerberjobfile true)
      (dashed_line_dash_ratio 12.000000)
      (dashed_line_gap_ratio 3.000000)
      (svgprecision 6)
      (plotframeref false)
      (viasonmask false)
      (mode 1)
      (useauxorigin false)
      (hpglpennumber 1)
      (hpglpenspeed 20)
      (hpglpendiameter 15.000000)
      (dxfpolygonmode true)
      (dxfimperialunits true)
      (dxfusepcbnewfont true)
      (psnegative false)
      (psa4output false)
      (plotreference true)
      (plotvalue true)
      (plotinvisibletext false)
      (sketchpadsonfab false)
      (subtractmaskfromsilk false)
      (outputformat 1)
      (mirror false)
      (drillshape 1)
      (scaleselection 1)
      (outputdirectory "")
    )
  )

  (net 0 "")
  (net 1 "GND")
  (net 2 "+3V3")
  (net 3 "/IMU.INT2")
  (net 4 "/IMU.~{SS}2")
  (net 5 "/IMU.MOSI")
  (net 6 "/IMU.MISO")
  (net 7 "unconnected-(U1-INT4-Pad13)")
  (net 8 "unconnected-(U1-INT3-Pad12)")
  (net 9 "/IMU.~{SS}1")
  (net 10 "/IMU.INT1")
  (net 11 "unconnected-(J1-Pin_8-Pad8)")
  (net 12 "/IMU.SCK")

  (footprint "Capacitor_SMD:C_0402_1005Metric" (layer "F.Cu")
    (tstamp 152e32c2-e0fb-44f8-8d88-d6407d12d020)
    (at 118.17 93.6 -90)
    (descr "Capacitor SMD 0402 (1005 Metric), square (rectangular) end terminal, IPC_7351 nominal, (Body size source: IPC-SM-782 page 76, https://www.pcb-3d.com/wordpress/wp-content/uploads/ipc-sm-782a_amendment_1_and_2.pdf), generated with kicad-footprint-generator")
    (tags "capacitor")
    (property "Sheetfile" "imu-breakout.kicad_sch")
    (property "Sheetname" "")
    (property "ki_description" "Unpolarized capacitor, small symbol")
    (property "ki_keywords" "capacitor cap")
    (path "/84a8cc4f-92ae-4751-b902-283f1808aa28")
    (attr smd)
    (fp_text reference "C2" (at 0 -1.2 90) (layer "F.SilkS")
        (effects (font (size 1 1) (thickness 0.15)))
      (tstamp 6de9bffb-135e-48fe-907c-ab09fef4feb5)
    )
    (fp_text value "0.1uF 63V" (at 0 -2.75 90) (layer "F.Fab")
        (effects (font (size 1 1) (thickness 0.15)))
      (tstamp c13eee10-4bba-466f-a9fe-a5907705f6d9)
    )
    (fp_text user "${REFERENCE}" (at 0 0 90) (layer "F.Fab")
        (effects (font (size 0.25 0.25) (thickness 0.04)))
      (tstamp c26109fd-97bd-4a63-a432-8cef7fd24301)
    )
    (fp_line (start -0.107836 -0.36) (end 0.107836 -0.36)
      (stroke (width 0.12) (type solid)) (layer "F.SilkS") (tstamp b8bbd581-c79b-4cf2-a1c6-3fdb3dead88d))
    (fp_line (start -0.107836 0.36) (end 0.107836 0.36)
      (stroke (width 0.12) (type solid)) (layer "F.SilkS") (tstamp de630cf1-e7af-46b1-a50f-dfc0576b0f02))
    (fp_line (start -0.91 -0.46) (end 0.91 -0.46)
      (stroke (width 0.05) (type solid)) (layer "F.CrtYd") (tstamp 8d1fa4de-2b6f-41c8-b466-7a5dba8c5a02))
    (fp_line (start -0.91 0.46) (end -0.91 -0.46)
      (stroke (width 0.05) (type solid)) (layer "F.CrtYd") (tstamp 4b355d96-1c0b-4ff4-91f0-4fd5a7144671))
    (fp_line (start 0.91 -0.46) (end 0.91 0.46)
      (stroke (width 0.05) (type solid)) (layer "F.CrtYd") (tstamp 4092cf80-d43b-4568-8d18-b77398c3e998))
    (fp_line (start 0.91 0.46) (end -0.91 0.46)
      (stroke (width 0.05) (type solid)) (layer "F.CrtYd") (tstamp 342a82f5-cf75-4350-821b-0573a593efa7))
    (fp_line (start -0.5 -0.25) (end 0.5 -0.25)
      (stroke (width 0.1) (type solid)) (layer "F.Fab") (tstamp e2d0dbca-b126-4dea-80f2-d802bd17caff))
    (fp_line (start -0.5 0.25) (end -0.5 -0.25)
      (stroke (width 0.1) (type solid)) (layer "F.Fab") (tstamp 4e2c4999-142e-423f-ac5e-d341db50f0ea))
    (fp_line (start 0.5 -0.25) (end 0.5 0.25)
      (stroke (width 0.1) (type solid)) (layer "F.Fab") (tstamp 26e06b53-e1e0-417d-9ad2-46495e545be2))
    (fp_line (start 0.5 0.25) (end -0.5 0.25)
      (stroke (width 0.1) (type solid)) (layer "F.Fab") (tstamp ec1c392d-3774-4583-85ae-afddaea191ae))
    (pad "1" smd roundrect (at -0.48 0 270) (size 0.56 0.62) (layers "F.Cu" "F.Paste" "F.Mask") (roundrect_rratio 0.25)
      (net 2 "+3V3") (pintype "passive") (tstamp 495f93a0-10fc-4f72-908d-1ce1bae3571e))
    (pad "2" smd roundrect (at 0.48 0 270) (size 0.56 0.62) (layers "F.Cu" "F.Paste" "F.Mask") (roundrect_rratio 0.25)
      (net 1 "GND") (pintype "passive") (tstamp 6b768a04-ca6e-4f7f-b31f-c74bd51468a7))
    (model "${KICAD6_3DMODEL_DIR}/Capacitor_SMD.3dshapes/C_0402_1005Metric.wrl"
      (offset (xyz 0 0 0))
      (scale (xyz 1 1 1))
      (rotate (xyz 0 0 0))
    )
  )

  (footprint "Connector_JST:JST_SH_BM11B-SRSS-TB_1x11-1MP_P1.00mm_Vertical" (layer "F.Cu")
    (tstamp 1c18d971-9091-4c50-96e9-cdf7df9bd13c)
    (at 118.7 104.55 180)
    (descr "JST SH series connector, BM11B-SRSS-TB (http://www.jst-mfg.com/product/pdf/eng/eSH.pdf), generated with kicad-footprint-generator")
    (tags "connector JST SH side entry")
    (property "Sheetfile" "imu-breakout.kicad_sch")
    (property "Sheetname" "")
    (property "ki_description" "Generic connectable mounting pin connector, single row, 01x11, script generated (kicad-library-utils/schlib/autogen/connector/)")
    (property "ki_keywords" "connector")
    (path "/83910054-2cb7-4690-a2cb-1e16f67fefdc")
    (attr smd exclude_from_pos_files)
    (fp_text reference "J1" (at 8.53 2.75) (layer "F.SilkS")
        (effects (font (size 1 1) (thickness 0.15)))
      (tstamp cc7b3684-60d3-45e9-b716-3d085a65a803)
    )
    (fp_text value "BM11B-SRSS-TB" (at 0 3.3) (layer "F.Fab")
        (effects (font (size 1 1) (thickness 0.15)))
      (tstamp 8e928db3-1464-4e8a-80cc-fd1afae508fc)
    )
    (fp_text user "${REFERENCE}" (at 0 -0.25) (layer "F.Fab")
        (effects (font (size 1 1) (thickness 0.15)))
      (tstamp e5cdeb9a-b791-4090-9a17-1c672798d049)
    )
    (fp_line (start -6.61 -0.04) (end -6.61 1.11)
      (stroke (width 0.12) (type solid)) (layer "F.SilkS") (tstamp 2392e642-c346-4570-aaf3-d7de05ab85d0))
    (fp_line (start -6.61 1.11) (end -5.56 1.11)
      (stroke (width 0.12) (type solid)) (layer "F.SilkS") (tstamp f345299a-c15a-4c53-be75-85e1cf0c6cc1))
    (fp_line (start -5.56 1.11) (end -5.56 2.1)
      (stroke (width 0.12) (type solid)) (layer "F.SilkS") (tstamp d447fc11-ce07-44dd-834e-b2fce1047044))
    (fp_line (start -5.44 -2.01) (end 5.44 -2.01)
      (stroke (width 0.12) (type solid)) (layer "F.SilkS") (tstamp c9487f73-1b4a-4bc2-be1a-dcea71c887bf))
    (fp_line (start 6.61 -0.04) (end 6.61 1.11)
      (stroke (width 0.12) (type solid)) (layer "F.SilkS") (tstamp 8caeea77-b1fc-4972-b2d6-671da5d1b72c))
    (fp_line (start 6.61 1.11) (end 5.56 1.11)
      (stroke (width 0.12) (type solid)) (layer "F.SilkS") (tstamp ddabc451-bcc5-4a69-8b7a-22954ca55362))
    (fp_line (start -7.4 -2.6) (end -7.4 2.6)
      (stroke (width 0.05) (type solid)) (layer "F.CrtYd") (tstamp 4d76f14a-e029-4665-9c67-989fc7b90d60))
    (fp_line (start -7.4 2.6) (end 7.4 2.6)
      (stroke (width 0.05) (type solid)) (layer "F.CrtYd") (tstamp 66ae08d6-412f-4466-8b92-028c1b405613))
    (fp_line (start 7.4 -2.6) (end -7.4 -2.6)
      (stroke (width 0.05) (type solid)) (layer "F.CrtYd") (tstamp be20cb97-2039-4c91-ac40-8256a1fe37a7))
    (fp_line (start 7.4 2.6) (end 7.4 -2.6)
      (stroke (width 0.05) (type solid)) (layer "F.CrtYd") (tstamp 2ed37ab3-9bb2-41cf-a996-1c288f7e7838))
    (fp_line (start -6.5 -1.9) (end 6.5 -1.9)
      (stroke (width 0.1) (type solid)) (layer "F.Fab") (tstamp 2709e576-2845-4feb-bcac-82c4e964085b))
    (fp_line (start -6.5 1) (end -6.5 -1.9)
      (stroke (width 0.1) (type solid)) (layer "F.Fab") (tstamp 6428c655-9ba5-47d5-8ac6-928a451d8e23))
    (fp_line (start -6.5 1) (end 6.5 1)
      (stroke (width 0.1) (type solid)) (layer "F.Fab") (tstamp ff659d2c-44a8-4ecc-9f7a-87d25de1646a))
    (fp_line (start -5.5 1) (end -5 0.292893)
      (stroke (width 0.1) (type solid)) (layer "F.Fab") (tstamp 5839c10f-56d0-4c50-bf05-851625819300))
    (fp_line (start -5.15 -1.55) (end -5.15 -0.95)
      (stroke (width 0.1) (type solid)) (layer "F.Fab") (tstamp bc3a21e9-ce24-4ff4-978c-0a5f198f7e34))
    (fp_line (start -5.15 -0.95) (end -4.85 -0.95)
      (stroke (width 0.1) (type solid)) (layer "F.Fab") (tstamp 0dbd3bd8-43c0-4c0f-87c5-1ca5eaefc35d))
    (fp_line (start -5 0.292893) (end -4.5 1)
      (stroke (width 0.1) (type solid)) (layer "F.Fab") (tstamp 7559f507-c7b9-4af9-be68-666ad2a65c54))
    (fp_line (start -4.85 -1.55) (end -5.15 -1.55)
      (stroke (width 0.1) (type solid)) (layer "F.Fab") (tstamp 79d55e2e-65a6-4fe2-8670-f0847eef775c))
    (fp_line (start -4.85 -0.95) (end -4.85 -1.55)
      (stroke (width 0.1) (type solid)) (layer "F.Fab") (tstamp 72b40753-8596-4897-86b1-efee214901ce))
    (fp_line (start -4.15 -1.55) (end -4.15 -0.95)
      (stroke (width 0.1) (type solid)) (layer "F.Fab") (tstamp e60581af-7795-4792-9473-1b3d69aa3a7d))
    (fp_line (start -4.15 -0.95) (end -3.85 -0.95)
      (stroke (width 0.1) (type solid)) (layer "F.Fab") (tstamp a838f58f-4ecc-4cb3-af0b-64e089cdf5db))
    (fp_line (start -3.85 -1.55) (end -4.15 -1.55)
      (stroke (width 0.1) (type solid)) (layer "F.Fab") (tstamp f5a8ae8c-6f34-4a76-a66e-d99ba6603e27))
    (fp_line (start -3.85 -0.95) (end -3.85 -1.55)
      (stroke (width 0.1) (type solid)) (layer "F.Fab") (tstamp fe3d5e47-e544-4fdf-89a9-98a3b4c5356b))
    (fp_line (start -3.15 -1.55) (end -3.15 -0.95)
      (stroke (width 0.1) (type solid)) (layer "F.Fab") (tstamp 409acc05-d26d-4add-b43d-51e66c13de0c))
    (fp_line (start -3.15 -0.95) (end -2.85 -0.95)
      (stroke (width 0.1) (type solid)) (layer "F.Fab") (tstamp 936d91fd-eb01-4ff8-9f76-1715c3703d04))
    (fp_line (start -2.85 -1.55) (end -3.15 -1.55)
      (stroke (width 0.1) (type solid)) (layer "F.Fab") (tstamp 1fdf2d1c-e8de-4962-b750-77908caff0c8))
    (fp_line (start -2.85 -0.95) (end -2.85 -1.55)
      (stroke (width 0.1) (type solid)) (layer "F.Fab") (tstamp 70c2eca2-a4de-4005-92b3-f2131ad15b0a))
    (fp_line (start -2.15 -1.55) (end -2.15 -0.95)
      (stroke (width 0.1) (type solid)) (layer "F.Fab") (tstamp 5e7c7ae9-fcb9-43a8-bd8d-40741b7d83de))
    (fp_line (start -2.15 -0.95) (end -1.85 -0.95)
      (stroke (width 0.1) (type solid)) (layer "F.Fab") (tstamp a559c7fa-ba10-446f-8a10-116c848d2952))
    (fp_line (start -1.85 -1.55) (end -2.15 -1.55)
      (stroke (width 0.1) (type solid)) (layer "F.Fab") (tstamp d6d7f5cd-fe60-4412-8352-4eb54444725f))
    (fp_line (start -1.85 -0.95) (end -1.85 -1.55)
      (stroke (width 0.1) (type solid)) (layer "F.Fab") (tstamp b4e99db3-cd72-4ce8-b957-22acf4c7b78d))
    (fp_line (start -1.15 -1.55) (end -1.15 -0.95)
      (stroke (width 0.1) (type solid)) (layer "F.Fab") (tstamp 0874b35f-19fa-4a36-91aa-d48f8347dd49))
    (fp_line (start -1.15 -0.95) (end -0.85 -0.95)
      (stroke (width 0.1) (type solid)) (layer "F.Fab") (tstamp 7dd04e27-e0f3-4fd5-bee2-cd26c92c8888))
    (fp_line (start -0.85 -1.55) (end -1.15 -1.55)
      (stroke (width 0.1) (type solid)) (layer "F.Fab") (tstamp b2b7a7c6-1edb-47f4-9631-803b565676bc))
    (fp_line (start -0.85 -0.95) (end -0.85 -1.55)
      (stroke (width 0.1) (type solid)) (layer "F.Fab") (tstamp 2f5e3198-f291-49dd-b276-5c44a92c04dc))
    (fp_line (start -0.15 -1.55) (end -0.15 -0.95)
      (stroke (width 0.1) (type solid)) (layer "F.Fab") (tstamp cccb3a26-7a24-4e07-8d11-1f51fbc143e8))
    (fp_line (start -0.15 -0.95) (end 0.15 -0.95)
      (stroke (width 0.1) (type solid)) (layer "F.Fab") (tstamp 72a1a253-88b8-4d1d-9787-d807d30bf799))
    (fp_line (start 0.15 -1.55) (end -0.15 -1.55)
      (stroke (width 0.1) (type solid)) (layer "F.Fab") (tstamp d5a94c97-26f1-4275-86c2-b3db9b44eddd))
    (fp_line (start 0.15 -0.95) (end 0.15 -1.55)
      (stroke (width 0.1) (type solid)) (layer "F.Fab") (tstamp 392e145d-e188-4f64-ba04-208db16f891b))
    (fp_line (start 0.85 -1.55) (end 0.85 -0.95)
      (stroke (width 0.1) (type solid)) (layer "F.Fab") (tstamp 4816a411-65f8-4e5b-b01a-bf4a65325429))
    (fp_line (start 0.85 -0.95) (end 1.15 -0.95)
      (stroke (width 0.1) (type solid)) (layer "F.Fab") (tstamp 7d91af22-fdc4-49ad-82fa-0b5708b3bead))
    (fp_line (start 1.15 -1.55) (end 0.85 -1.55)
      (stroke (width 0.1) (type solid)) (layer "F.Fab") (tstamp 0c6c71cf-e8ec-4e47-86db-f65fbcc0bad0))
    (fp_line (start 1.15 -0.95) (end 1.15 -1.55)
      (stroke (width 0.1) (type solid)) (layer "F.Fab") (tstamp c4de4906-8c36-497f-b29a-fdc2512e4f93))
    (fp_line (start 1.85 -1.55) (end 1.85 -0.95)
      (stroke (width 0.1) (type solid)) (layer "F.Fab") (tstamp a1034401-0cee-4685-b3fb-a990714beaae))
    (fp_line (start 1.85 -0.95) (end 2.15 -0.95)
      (stroke (width 0.1) (type solid)) (layer "F.Fab") (tstamp 1ca06b50-06b7-412b-8657-1b084ff21958))
    (fp_line (start 2.15 -1.55) (end 1.85 -1.55)
      (stroke (width 0.1) (type solid)) (layer "F.Fab") (tstamp e92f05a5-3fac-4fe2-9fea-614466ca9449))
    (fp_line (start 2.15 -0.95) (end 2.15 -1.55)
      (stroke (width 0.1) (type solid)) (layer "F.Fab") (tstamp 06b25aae-7661-46c6-9779-3ad2472f400b))
    (fp_line (start 2.85 -1.55) (end 2.85 -0.95)
      (stroke (width 0.1) (type solid)) (layer "F.Fab") (tstamp 03a0600c-6762-4f1a-807e-6bf06aa9dcf5))
    (fp_line (start 2.85 -0.95) (end 3.15 -0.95)
      (stroke (width 0.1) (type solid)) (layer "F.Fab") (tstamp ce765db6-5b50-425f-a6e4-dd75bd21028e))
    (fp_line (start 3.15 -1.55) (end 2.85 -1.55)
      (stroke (width 0.1) (type solid)) (layer "F.Fab") (tstamp 73ef2721-1821-4e9a-9c7a-e9ab7415f943))
    (fp_line (start 3.15 -0.95) (end 3.15 -1.55)
      (stroke (width 0.1) (type solid)) (layer "F.Fab") (tstamp 2485cf28-523c-4f46-9019-3c4f260ae37d))
    (fp_line (start 3.85 -1.55) (end 3.85 -0.95)
      (stroke (width 0.1) (type solid)) (layer "F.Fab") (tstamp 7d9f88c2-a03f-423c-abae-174cd9281c79))
    (fp_line (start 3.85 -0.95) (end 4.15 -0.95)
      (stroke (width 0.1) (type solid)) (layer "F.Fab") (tstamp fa396a78-68e5-4426-95ae-7348a614f678))
    (fp_line (start 4.15 -1.55) (end 3.85 -1.55)
      (stroke (width 0.1) (type solid)) (layer "F.Fab") (tstamp 930677d9-a923-4a72-a366-88d5050ae4ae))
    (fp_line (start 4.15 -0.95) (end 4.15 -1.55)
      (stroke (width 0.1) (type solid)) (layer "F.Fab") (tstamp 518728e9-3794-4a68-a923-3493ca057031))
    (fp_line (start 4.85 -1.55) (end 4.85 -0.95)
      (stroke (width 0.1) (type solid)) (layer "F.Fab") (tstamp 9e754ca1-3ac5-45f5-a7ec-297706eaa240))
    (fp_line (start 4.85 -0.95) (end 5.15 -0.95)
      (stroke (width 0.1) (type solid)) (layer "F.Fab") (tstamp 9dfb66a7-1a88-42cc-b157-b6a13d83b60b))
    (fp_line (start 5.15 -1.55) (end 4.85 -1.55)
      (stroke (width 0.1) (type solid)) (layer "F.Fab") (tstamp 8051ab4d-c252-4499-88bd-d34be3b2fc1d))
    (fp_line (start 5.15 -0.95) (end 5.15 -1.55)
      (stroke (width 0.1) (type solid)) (layer "F.Fab") (tstamp 2ca55070-d2c0-4b44-85f6-7b21e40d9395))
    (fp_line (start 6.5 1) (end 6.5 -1.9)
      (stroke (width 0.1) (type solid)) (layer "F.Fab") (tstamp 9bb56444-6e18-442a-9fa1-e875a8b13909))
    (pad "1" smd roundrect (at -5 1.325 180) (size 0.6 1.55) (layers "F.Cu" "F.Paste" "F.Mask") (roundrect_rratio 0.25)
      (net 1 "GND") (pinfunction "Pin_1") (pintype "passive") (tstamp 3d412ead-ec1a-4974-a858-2d6040ed5d4c))
    (pad "2" smd roundrect (at -4 1.325 180) (size 0.6 1.55) (layers "F.Cu" "F.Paste" "F.Mask") (roundrect_rratio 0.25)
      (net 1 "GND") (pinfunction "Pin_2") (pintype "passive") (tstamp d030c52d-3aa5-496d-be34-9077e84c2392))
    (pad "3" smd roundrect (at -3 1.325 180) (size 0.6 1.55) (layers "F.Cu" "F.Paste" "F.Mask") (roundrect_rratio 0.25)
      (net 3 "/IMU.INT2") (pinfunction "Pin_3") (pintype "passive") (tstamp c813f53a-a9d1-4801-85da-1aba8e664efa))
    (pad "4" smd roundrect (at -2 1.325 180) (size 0.6 1.55) (layers "F.Cu" "F.Paste" "F.Mask") (roundrect_rratio 0.25)
      (net 10 "/IMU.INT1") (pinfunction "Pin_4") (pintype "passive") (tstamp a23b9e74-3406-4a39-acb2-ad00b085874e))
    (pad "5" smd roundrect (at -1 1.325 180) (size 0.6 1.55) (layers "F.Cu" "F.Paste" "F.Mask") (roundrect_rratio 0.25)
      (net 12 "/IMU.SCK") (pinfunction "Pin_5") (pintype "passive") (tstamp a25b08e9-1c9d-419c-8f8b-0e0d61f8ef7a))
    (pad "6" smd roundrect (at 0 1.325 180) (size 0.6 1.55) (layers "F.Cu" "F.Paste" "F.Mask") (roundrect_rratio 0.25)
      (net 6 "/IMU.MISO") (pinfunction "Pin_6") (pintype "passive") (tstamp b8ce8320-2b32-4e31-b954-22f08dd37ab7))
    (pad "7" smd roundrect (at 1 1.325 180) (size 0.6 1.55) (layers "F.Cu" "F.Paste" "F.Mask") (roundrect_rratio 0.25)
      (net 5 "/IMU.MOSI") (pinfunction "Pin_7") (pintype "passive") (tstamp a5d10758-e9ee-4c44-8ed1-a869e607aad6))
    (pad "8" smd roundrect (at 2 1.325 180) (size 0.6 1.55) (layers "F.Cu" "F.Paste" "F.Mask") (roundrect_rratio 0.25)
      (net 11 "unconnected-(J1-Pin_8-Pad8)") (pinfunction "Pin_8") (pintype "passive+no_connect") (tstamp 149ff5eb-2f4a-40eb-bcdb-4ca45a96401c))
    (pad "9" smd roundrect (at 3 1.325 180) (size 0.6 1.55) (layers "F.Cu" "F.Paste" "F.Mask") (roundrect_rratio 0.25)
      (net 4 "/IMU.~{SS}2") (pinfunction "Pin_9") (pintype "passive") (tstamp a11714fa-7c05-4295-bec0-90f743593af7))
    (pad "10" smd roundrect (at 4 1.325 180) (size 0.6 1.55) (layers "F.Cu" "F.Paste" "F.Mask") (roundrect_rratio 0.25)
      (net 9 "/IMU.~{SS}1") (pinfunction "Pin_10") (pintype "passive") (tstamp 61a091e2-7b91-4aed-bbc5-be877945e936))
    (pad "11" smd roundrect (at 5 1.325 180) (size 0.6 1.55) (layers "F.Cu" "F.Paste" "F.Mask") (roundrect_rratio 0.25)
      (net 2 "+3V3") (pinfunction "Pin_11") (pintype "passive") (tstamp ed7b1d8f-b9ae-437a-b0fc-f6feb5022c68))
    (pad "MP" smd roundrect (at -6.3 -1.2 180) (size 1.2 1.8) (layers "F.Cu" "F.Paste" "F.Mask") (roundrect_rratio 0.2083333333)
      (net 1 "GND") (pinfunction "MountPin") (pintype "passive") (tstamp 1095c086-bdf4-49d7-919d-0437aa74c3b0))
    (pad "MP" smd roundrect (at 6.3 -1.2 180) (size 1.2 1.8) (layers "F.Cu" "F.Paste" "F.Mask") (roundrect_rratio 0.2083333333)
      (net 1 "GND") (pinfunction "MountPin") (pintype "passive") (tstamp 6dab2cd1-f458-4057-a199-a872025a8734))
    (model "${KICAD6_3DMODEL_DIR}/Connector_JST.3dshapes/JST_SH_BM11B-SRSS-TB_1x11-1MP_P1.00mm_Vertical.wrl"
      (offset (xyz 0 0 0))
      (scale (xyz 1 1 1))
      (rotate (xyz 0 0 0))
    )
  )

  (footprint "MountingHole:MountingHole_3.2mm_M3" (layer "F.Cu")
    (tstamp 1c57c399-38ce-46d3-b6f4-9b73b6dbd3cb)
    (at 90.67 89.8)
    (descr "Mounting Hole 3.2mm, no annular, M3")
    (tags "mounting hole 3.2mm no annular m3")
    (property "Sheetfile" "imu-breakout.kicad_sch")
    (property "Sheetname" "")
    (property "ki_description" "Mounting Hole without connection")
    (property "ki_keywords" "mounting hole")
    (path "/19c8756b-812a-4f16-b093-e6d64492fa14")
    (attr exclude_from_pos_files)
    (fp_text reference "H1" (at 0 -4.2) (layer "F.SilkS")
        (effects (font (size 1 1) (thickness 0.15)))
      (tstamp c8302c92-0231-4b6e-8512-dab1ba989f36)
    )
    (fp_text value "M3" (at 0 4.2) (layer "F.Fab")
        (effects (font (size 1 1) (thickness 0.15)))
      (tstamp 75cb22b0-fb21-4165-b31c-33eb97eff009)
    )
    (fp_text user "${REFERENCE}" (at 0 0) (layer "F.Fab")
        (effects (font (size 1 1) (thickness 0.15)))
      (tstamp f6c04f63-57a7-4804-ae85-26dc0aa819b3)
    )
    (fp_circle (center 0 0) (end 3.2 0)
      (stroke (width 0.15) (type solid)) (fill none) (layer "Cmts.User") (tstamp 3cd29b88-a182-41c1-8b8a-d36f5094f4a7))
    (fp_circle (center 0 0) (end 3.45 0)
      (stroke (width 0.05) (type solid)) (fill none) (layer "F.CrtYd") (tstamp dcd74758-6978-4590-80b1-018f2a490055))
    (pad "" np_thru_hole circle (at 0 0) (size 3.2 3.2) (drill 3.2) (layers "*.Cu" "*.Mask") (tstamp 8f11b294-d450-4a89-b882-01b03e2045a1))
  )

  (footprint "clipboard:72ba34b9-7b15-4069-8230-f829442bcd6c" (layer "F.Cu")
    (tstamp 45535eac-c692-44b6-ae20-784bc9030d35)
    (at 118.17 81.3 90)
    (fp_text reference "" (at 0 0 90) (layer "F.SilkS")
        (effects (font (size 1.27 1.27) (thickness 0.15)))
      (tstamp fb37499a-a9cc-4295-a000-2296809431ab)
    )
    (fp_text value "" (at 0 0 90) (layer "F.SilkS")
        (effects (font (size 1.27 1.27) (thickness 0.15)))
      (tstamp de2297ba-b333-4bbf-a08c-0e448bd9c2de)
    )
    (fp_text user "+Y" (at 0 -5.08 unlocked) (layer "F.SilkS")
        (effects (font (size 1 1) (thickness 0.15)))
      (tstamp 6629f6ae-dfc4-4b63-8db6-b430726f9943)
    )
    (fp_text user "+X" (at 5.08 0 unlocked) (layer "F.SilkS")
        (effects (font (size 1 1) (thickness 0.15)))
      (tstamp 72b17794-65c9-4e75-9367-2f657e2af302)
    )
    (fp_text user "+Z" (at -2 2 unlocked) (layer "F.SilkS")
        (effects (font (size 1 1) (thickness 0.15)))
      (tstamp b89a7292-2783-4b55-98f3-856490b61836)
    )
    (fp_line (start 0 -1.27) (end 0 -3.81)
      (stroke (width 0.12) (type solid)) (layer "F.SilkS") (tstamp c8e60b1d-4ef6-4a4b-8e67-b8e35cc2a1a2))
    (fp_line (start 1.27 0) (end 3.81 0)
      (stroke (width 0.12) (type solid)) (layer "F.SilkS") (tstamp b7b980da-d92d-4744-8af8-249b46488d5b))
    (fp_circle (center 0 0) (end 0 0.675)
      (stroke (width 0.12) (type solid)) (fill solid) (layer "F.SilkS") (tstamp 8ab675b2-899b-489d-a00c-6476d62ba823))
    (fp_circle (center 0 0) (end 0 1.27)
      (stroke (width 0.12) (type solid)) (fill none) (layer "F.SilkS") (tstamp bd9ed7b6-bdd9-40c0-95f6-21b0d28d4032))
  )

  (footprint "AT-IMU:LGA-16_3.0x4.5x0.95mm" (layer "F.Cu")
    (tstamp 4c8c19c4-2e8b-4e98-ba2a-f4da32798a26)
    (at 118.17 89.8)
    (property "Sheetfile" "imu-breakout.kicad_sch")
    (property "Sheetname" "")
    (path "/ecf7a819-eed4-4b2f-900b-cf51870b7e77")
    (attr smd)
    (fp_text reference "U1" (at 3.5 0) (layer "F.SilkS")
        (effects (font (size 1 1) (thickness 0.15)))
      (tstamp d9119e67-8ca3-48aa-b230-40e7a84cacfa)
    )
    (fp_text value "BMI085" (at -3 2.75) (layer "F.Fab")
        (effects (font (size 1 1) (thickness 0.15)))
      (tstamp 4ffcfe4b-7253-4ed2-a2b4-067333d77a8e)
    )
    (fp_text user "${REFERENCE}" (at 0 0) (layer "F.Fab")
        (effects (font (size 1 1) (thickness 0.15)))
      (tstamp 0cd6eeb8-78e7-4c2a-95d6-95696c1a54f7)
    )
    (fp_line (start -2.415 -1.665) (end -1.915 -1.665)
      (stroke (width 0.12) (type solid)) (layer "F.SilkS") (tstamp ff796130-4fd2-4dc2-951b-8aed8bf773e7))
    (fp_line (start -2.415 -1.165) (end -2.415 -1.665)
      (stroke (width 0.12) (type solid)) (layer "F.SilkS") (tstamp f9ad19d1-c0a6-46f1-b4da-480c66c21c23))
    (fp_line (start -2.25 -1.5) (end 2.25 -1.5)
      (stroke (width 0.02) (type solid)) (layer "Dwgs.User") (tstamp 450075ea-49c4-403a-a2ce-760212cdc89d))
    (fp_line (start -2.25 1.5) (end -2.25 -1.5)
      (stroke (width 0.02) (type solid)) (layer "Dwgs.User") (tstamp 6bb3a453-52db-491b-98d4-7b9c63c694df))
    (fp_line (start 2.25 -1.5) (end 2.25 1.5)
      (stroke (width 0.02) (type solid)) (layer "Dwgs.User") (tstamp b1874bed-cc23-4865-b71a-89b1d247078c))
    (fp_line (start 2.25 1.5) (end -2.25 1.5)
      (stroke (width 0.02) (type solid)) (layer "Dwgs.User") (tstamp 0ddcedf4-7263-47cb-8493-d675e7f88f16))
    (fp_line (start -2.5 -1.75) (end 2.5 -1.75)
      (stroke (width 0.05) (type solid)) (layer "F.CrtYd") (tstamp 322bbe7e-2df4-4b78-87ec-a4ecf7564d4b))
    (fp_line (start -2.5 1.75) (end -2.5 -1.75)
      (stroke (width 0.05) (type solid)) (layer "F.CrtYd") (tstamp 00564254-7bf9-464c-aa79-0ad190a75194))
    (fp_line (start 2.5 -1.75) (end 2.5 1.75)
      (stroke (width 0.05) (type solid)) (layer "F.CrtYd") (tstamp 09174ccf-4879-4cd1-ae6c-5c17237b4781))
    (fp_line (start 2.5 1.75) (end -2.5 1.75)
      (stroke (width 0.05) (type solid)) (layer "F.CrtYd") (tstamp 1d104f75-eea6-4576-9a63-1904fba38872))
    (pad "1" smd rect (at -1.5 -1.165) (size 0.25 0.675) (layers "F.Cu" "F.Paste" "F.Mask")
      (net 3 "/IMU.INT2") (pinfunction "INT2") (pintype "bidirectional") (solder_mask_margin 0.05) (tstamp d203f823-e59e-46a5-ab1a-640ef6ee1e21))
    (pad "2" smd rect (at -1 -1.165) (size 0.25 0.675) (layers "F.Cu" "F.Paste" "F.Mask")
      (net 1 "GND") (pinfunction "NC") (pintype "passive") (solder_mask_margin 0.05) (tstamp e37ef056-a080-4bcd-9379-670b52616ba4))
    (pad "3" smd rect (at -0.5 -1.165) (size 0.25 0.675) (layers "F.Cu" "F.Paste" "F.Mask")
      (net 2 "+3V3") (pinfunction "VDD") (pintype "power_in") (solder_mask_margin 0.05) (tstamp 56a8dea3-cbdd-4394-8859-f5caf767f6fe))
    (pad "4" smd rect (at 0 -1.165) (size 0.25 0.675) (layers "F.Cu" "F.Paste" "F.Mask")
      (net 1 "GND") (pinfunction "GNDA") (pintype "power_in") (solder_mask_margin 0.05) (tstamp 31ba19cb-8071-4480-a97f-c031acdf83e4))
    (pad "5" smd rect (at 0.5 -1.165) (size 0.25 0.675) (layers "F.Cu" "F.Paste" "F.Mask")
      (net 4 "/IMU.~{SS}2") (pinfunction "CSB2") (pintype "input") (solder_mask_margin 0.05) (tstamp 2c40441d-6bef-4c8f-a4b4-364c7b52bef6))
    (pad "6" smd rect (at 1 -1.165) (size 0.25 0.675) (layers "F.Cu" "F.Paste" "F.Mask")
      (net 1 "GND") (pinfunction "GNDIO") (pintype "power_in") (solder_mask_margin 0.05) (tstamp 2397e841-1be1-415f-a1b9-7ff8d54aff04))
    (pad "7" smd rect (at 1.5 -1.165) (size 0.25 0.675) (layers "F.Cu" "F.Paste" "F.Mask")
      (net 1 "GND") (pinfunction "PS") (pintype "input") (solder_mask_margin 0.05) (tstamp 98eb093e-7821-4939-a8fa-dc13f9d6363f))
    (pad "8" smd rect (at 1.915 0 270) (size 0.25 0.675) (layers "F.Cu" "F.Paste" "F.Mask")
      (net 12 "/IMU.SCK") (pinfunction "SCL/SCK") (pintype "input") (solder_mask_margin 0.05) (tstamp 6fd2f322-dee8-4f35-a0ca-78db2100be23))
    (pad "9" smd rect (at 1.5 1.165) (size 0.25 0.675) (layers "F.Cu" "F.Paste" "F.Mask")
      (net 5 "/IMU.MOSI") (pinfunction "SDA/SDI") (pintype "bidirectional") (solder_mask_margin 0.05) (tstamp 4ecd5cbb-3241-4652-83d4-2ab65a7f1182))
    (pad "10" smd rect (at 1 1.165) (size 0.25 0.675) (layers "F.Cu" "F.Paste" "F.Mask")
      (net 6 "/IMU.MISO") (pinfunction "SDO2") (pintype "output") (solder_mask_margin 0.05) (tstamp 21410d89-90a2-46b4-beea-7e043ea8a6f6))
    (pad "11" smd rect (at 0.5 1.165) (size 0.25 0.675) (layers "F.Cu" "F.Paste" "F.Mask")
      (net 2 "+3V3") (pinfunction "VDDIO") (pintype "power_in") (solder_mask_margin 0.05) (tstamp 70a328e8-06ba-4e23-87a7-a464e24e1443))
    (pad "12" smd rect (at 0 1.165) (size 0.25 0.675) (layers "F.Cu" "F.Paste" "F.Mask")
      (net 8 "unconnected-(U1-INT3-Pad12)") (pinfunction "INT3") (pintype "bidirectional+no_connect") (solder_mask_margin 0.05) (tstamp 494681b4-e9c7-478d-b785-e7a8254d7c4c))
    (pad "13" smd rect (at -0.5 1.165) (size 0.25 0.675) (layers "F.Cu" "F.Paste" "F.Mask")
      (net 7 "unconnected-(U1-INT4-Pad13)") (pinfunction "INT4") (pintype "bidirectional+no_connect") (solder_mask_margin 0.05) (tstamp f6ea2f03-b93b-4dde-a994-1d1569e46efa))
    (pad "14" smd rect (at -1 1.165) (size 0.25 0.675) (layers "F.Cu" "F.Paste" "F.Mask")
      (net 9 "/IMU.~{SS}1") (pinfunction "CSB1") (pintype "input") (solder_mask_margin 0.05) (tstamp 3a117188-a4e2-4447-a83d-78e587046418))
    (pad "15" smd rect (at -1.5 1.165) (size 0.25 0.675) (layers "F.Cu" "F.Paste" "F.Mask")
      (net 6 "/IMU.MISO") (pinfunction "SDO1") (pintype "output") (solder_mask_margin 0.05) (tstamp 5dbcd992-4805-48af-a208-6a7a16015926))
    (pad "16" smd rect (at -1.915 0 90) (size 0.25 0.675) (layers "F.Cu" "F.Paste" "F.Mask")
      (net 10 "/IMU.INT1") (pinfunction "INT1") (pintype "bidirectional") (solder_mask_margin 0.05) (tstamp 321f2369-06eb-4968-8ae6-b9ce35bd6a75))
    (model "${LIB_DIR_AT}/3dmodels/LGA-16_3.0x4.5x0.95mm.step"
      (offset (xyz 0 0 0))
      (scale (xyz 1 1 1))
      (rotate (xyz 0 0 90))
    )
  )

  (footprint "MountingHole:MountingHole_3.2mm_M3" (layer "F.Cu")
    (tstamp 9ad4df44-8a23-48d6-a1d0-428bf61bed01)
    (at 145.67 89.8)
    (descr "Mounting Hole 3.2mm, no annular, M3")
    (tags "mounting hole 3.2mm no annular m3")
    (property "Sheetfile" "imu-breakout.kicad_sch")
    (property "Sheetname" "")
    (property "ki_description" "Mounting Hole without connection")
    (property "ki_keywords" "mounting hole")
    (path "/afd58298-8170-4ab0-b831-1735dda209e5")
    (attr exclude_from_pos_files)
    (fp_text reference "H2" (at 0 -4.2) (layer "F.SilkS")
        (effects (font (size 1 1) (thickness 0.15)))
      (tstamp 49b727de-0da8-4d70-99c1-c45075200261)
    )
    (fp_text value "M3" (at 0 4.2) (layer "F.Fab")
        (effects (font (size 1 1) (thickness 0.15)))
      (tstamp 6e815a2b-dcef-4536-adbf-6e8a07df462f)
    )
    (fp_text user "${REFERENCE}" (at 0 0) (layer "F.Fab")
        (effects (font (size 1 1) (thickness 0.15)))
      (tstamp 4d52fbbf-6fb7-4e61-8a8f-726a0da6271f)
    )
    (fp_circle (center 0 0) (end 3.2 0)
      (stroke (width 0.15) (type solid)) (fill none) (layer "Cmts.User") (tstamp af01baf9-c662-44bf-b195-dd32edb83ffd))
    (fp_circle (center 0 0) (end 3.45 0)
      (stroke (width 0.05) (type solid)) (fill none) (layer "F.CrtYd") (tstamp 7fe9e62c-e5b3-4871-a066-b98e4ed0e4b7))
    (pad "" np_thru_hole circle (at 0 0) (size 3.2 3.2) (drill 3.2) (layers "*.Cu" "*.Mask") (tstamp 09e5dca6-caca-4d42-819f-101dcc242b49))
  )

  (footprint "Capacitor_SMD:C_0402_1005Metric" (layer "F.Cu")
    (tstamp cb3f320c-6f9e-4ad1-a806-80082baf6c65)
    (at 118.17 86.55)
    (descr "Capacitor SMD 0402 (1005 Metric), square (rectangular) end terminal, IPC_7351 nominal, (Body size source: IPC-SM-782 page 76, https://www.pcb-3d.com/wordpress/wp-content/uploads/ipc-sm-782a_amendment_1_and_2.pdf), generated with kicad-footprint-generator")
    (tags "capacitor")
    (property "Sheetfile" "imu-breakout.kicad_sch")
    (property "Sheetname" "")
    (property "ki_description" "Unpolarized capacitor, small symbol")
    (property "ki_keywords" "capacitor cap")
    (path "/35d2482d-fb0e-4bfa-b8bf-94c235c15d51")
    (attr smd)
    (fp_text reference "C1" (at 0 -1.25) (layer "F.SilkS")
        (effects (font (size 1 1) (thickness 0.15)))
      (tstamp d58a7833-fa76-4cd8-8e45-85e8d4b1c178)
    )
    (fp_text value "0.1uF 63V" (at 0 1.16) (layer "F.Fab")
        (effects (font (size 1 1) (thickness 0.15)))
      (tstamp c2f74e31-91e1-41dc-bd5c-9221879f24db)
    )
    (fp_text user "${REFERENCE}" (at 0 0) (layer "F.Fab")
        (effects (font (size 0.25 0.25) (thickness 0.04)))
      (tstamp 942958dd-085e-47cc-9b16-5711fba9cfa2)
    )
    (fp_line (start -0.107836 -0.36) (end 0.107836 -0.36)
      (stroke (width 0.12) (type solid)) (layer "F.SilkS") (tstamp 503ec6ae-e212-420c-8080-bbe801b6bc49))
    (fp_line (start -0.107836 0.36) (end 0.107836 0.36)
      (stroke (width 0.12) (type solid)) (layer "F.SilkS") (tstamp e2627827-ebb9-4b37-8f40-71f044209507))
    (fp_line (start -0.91 -0.46) (end 0.91 -0.46)
      (stroke (width 0.05) (type solid)) (layer "F.CrtYd") (tstamp 1180f33e-f224-4439-92e9-4a12a9c6cc68))
    (fp_line (start -0.91 0.46) (end -0.91 -0.46)
      (stroke (width 0.05) (type solid)) (layer "F.CrtYd") (tstamp eeee06f1-b1d6-4a0a-9afb-bc6f990265ed))
    (fp_line (start 0.91 -0.46) (end 0.91 0.46)
      (stroke (width 0.05) (type solid)) (layer "F.CrtYd") (tstamp 1fff8eda-cf00-4483-abcd-4098c2d0d203))
    (fp_line (start 0.91 0.46) (end -0.91 0.46)
      (stroke (width 0.05) (type solid)) (layer "F.CrtYd") (tstamp 8dec6793-e1e0-4372-a6fb-1b5a13103d3c))
    (fp_line (start -0.5 -0.25) (end 0.5 -0.25)
      (stroke (width 0.1) (type solid)) (layer "F.Fab") (tstamp a9bc1498-9bdd-4d30-a558-09b9f0ed7286))
    (fp_line (start -0.5 0.25) (end -0.5 -0.25)
      (stroke (width 0.1) (type solid)) (layer "F.Fab") (tstamp 41de5b9c-2796-4bcd-b811-50b80d97ccc6))
    (fp_line (start 0.5 -0.25) (end 0.5 0.25)
      (stroke (width 0.1) (type solid)) (layer "F.Fab") (tstamp 6b76a6e8-618e-4376-9f34-8820c3f2f5f8))
    (fp_line (start 0.5 0.25) (end -0.5 0.25)
      (stroke (width 0.1) (type solid)) (layer "F.Fab") (tstamp 546a90c2-0bff-46d3-8a2d-b116f051573d))
    (pad "1" smd roundrect (at -0.48 0) (size 0.56 0.62) (layers "F.Cu" "F.Paste" "F.Mask") (roundrect_rratio 0.25)
      (net 2 "+3V3") (pintype "passive") (tstamp e22d95a1-cf42-4652-ae68-374fda22460e))
    (pad "2" smd roundrect (at 0.48 0) (size 0.56 0.62) (layers "F.Cu" "F.Paste" "F.Mask") (roundrect_rratio 0.25)
      (net 1 "GND") (pintype "passive") (tstamp 13030d30-734c-4cbd-a5fd-0ec42dfec30a))
    (model "${KICAD6_3DMODEL_DIR}/Capacitor_SMD.3dshapes/C_0402_1005Metric.wrl"
      (offset (xyz 0 0 0))
      (scale (xyz 1 1 1))
      (rotate (xyz 0 0 0))
    )
  )

  (gr_rect (start 128.17 74.8) (end 138.17 84.8)
    (stroke (width 0.3) (type solid)) (fill solid) (layer "F.SilkS") (tstamp 45995cfc-8081-41f7-8864-f1f1ae6e9b98))
  (gr_circle (center 90.67 89.8) (end 94.17 89.8)
    (stroke (width 0.3) (type default)) (fill none) (layer "F.SilkS") (tstamp 7065b31c-eb39-4e74-88e7-60be8c2d143c))
  (gr_line (start 124.17 81.8) (end 124.17 75.8)
    (stroke (width 0.3) (type default)) (layer "F.SilkS") (tstamp 8e89ca1d-bbd5-4419-a965-6beeb1751ba7))
  (gr_line (start 124.17 75.8) (end 123.17 77.3)
    (stroke (width 0.3) (type default)) (layer "F.SilkS") (tstamp a6486639-3acd-4154-a01d-76e6371ecf63))
  (gr_circle (center 145.67 89.8) (end 149.17 89.8)
    (stroke (width 0.3) (type default)) (fill none) (layer "F.SilkS") (tstamp bf57f154-0b99-4b1f-8936-e691e60009f8))
  (gr_rect (start 85.67 72.3) (end 150.67 107.3)
    (stroke (width 0.1) (type solid)) (fill none) (layer "Edge.Cuts") (tstamp 5132e571-4f2a-4dfa-8500-231b53756b07))
  (gr_text "IMU-Breakout\nv1.0" (at 104.17 76.8) (layer "F.SilkS") (tstamp 1236fd1b-2c36-40a9-828a-c3e6cbba617b)
    (effects (font (size 1 1) (thickness 0.15)) (justify left bottom))
  )
  (gr_text "M3" (at 141.67 89.8 90) (layer "F.SilkS") (tstamp 48bc4360-af40-44e6-972e-390f6f9de1a1)
    (effects (font (size 1 1) (thickness 0.15)) (justify bottom))
  )
  (gr_text "The A-Team" (at 95.17 75.8) (layer "F.SilkS" knockout) (tstamp b916b6b5-bf6d-4802-a383-5a18110beafd)
    (effects (font (size 1.5 1.5) (thickness 0.375) bold))
  )
  (gr_text "Front" (at 123.67 81.8 90) (layer "F.SilkS") (tstamp efd88580-c84e-45c7-9fe9-df4a12e76057)
    (effects (font (size 1 1) (thickness 0.15)) (justify left bottom))
  )
  (gr_text "M3" (at 94.67 89.8 -90) (layer "F.SilkS") (tstamp fa265ed6-4287-4043-9e73-5d0ad5a5fb66)
    (effects (font (size 1 1) (thickness 0.15)) (justify bottom))
  )
  (dimension (type aligned) (layer "Dwgs.User") (tstamp 23f45999-6c89-4c58-b73b-1643d82faeb5)
    (pts (xy 90.67 89.8) (xy 90.67 72.3))
    (height -8.25)
    (gr_text "17.5000 mm" (at 81.27 81.05 90) (layer "Dwgs.User") (tstamp 23f45999-6c89-4c58-b73b-1643d82faeb5)
      (effects (font (size 1 1) (thickness 0.15)))
    )
    (format (prefix "") (suffix "") (units 3) (units_format 1) (precision 4))
    (style (thickness 0.1) (arrow_length 1.27) (text_position_mode 0) (extension_height 0.58642) (extension_offset 0.5) keep_text_aligned)
  )
  (dimension (type aligned) (layer "Dwgs.User") (tstamp 9548148a-266b-408c-9333-cf3c2d15eb77)
    (pts (xy 90.67 89.8) (xy 145.67 89.8))
    (height 8)
    (gr_text "55.0000 mm" (at 118.17 96.65) (layer "Dwgs.User") (tstamp 9548148a-266b-408c-9333-cf3c2d15eb77)
      (effects (font (size 1 1) (thickness 0.15)))
    )
    (format (prefix "") (suffix "") (units 3) (units_format 1) (precision 4))
    (style (thickness 0.15) (arrow_length 1.27) (text_position_mode 0) (extension_height 0.58642) (extension_offset 0.5) keep_text_aligned)
  )
  (dimension (type aligned) (layer "Dwgs.User") (tstamp c35cf1f4-54d6-4d28-ad50-a6f747adb204)
    (pts (xy 85.67 89.8) (xy 90.67 89.8))
    (height 8)
    (gr_text "5.0000 mm" (at 88.17 96.65) (layer "Dwgs.User") (tstamp c35cf1f4-54d6-4d28-ad50-a6f747adb204)
      (effects (font (size 1 1) (thickness 0.15)))
    )
    (format (prefix "") (suffix "") (units 3) (units_format 1) (precision 4))
    (style (thickness 0.15) (arrow_length 1.27) (text_position_mode 0) (extension_height 0.58642) (extension_offset 0.5) keep_text_aligned)
  )

  (segment (start 117.37 89.4) (end 118.17 89.4) (width 0.2) (layer "F.Cu") (net 1) (tstamp 232bcc10-54df-4947-81b7-29b1fc08998b))
  (segment (start 119.17 88.635) (end 119.67 88.635) (width 0.2) (layer "F.Cu") (net 1) (tstamp 344b107b-fb6c-4bc9-a763-b9d140570464))
  (segment (start 123.7 103.225) (end 123.7 101.33) (width 0.4) (layer "F.Cu") (net 1) (tstamp 46e3e5f5-74ac-415a-9020-73f901a83942))
  (segment (start 118.17 94.08) (end 118.17 95) (width 0.2) (layer "F.Cu") (net 1) (tstamp 690e8dcf-a5cc-472d-b335-f2786f31b1e7))
  (segment (start 123.7 101.33) (end 123.67 101.3) (width 0.4) (layer "F.Cu") (net 1) (tstamp 75d7aa18-ee2d-407d-a8a7-cc5cb2912ee5))
  (segment (start 117.17 89.2) (end 117.37 89.4) (width 0.2) (layer "F.Cu") (net 1) (tstamp 7981d47f-bc19-4ce8-9c70-5b940b50aa5a))
  (segment (start 117.17 88.635) (end 117.17 89.2) (width 0.2) (layer "F.Cu") (net 1) (tstamp 8393a7a2-389f-4db2-82a7-c96cefb6acd6))
  (segment (start 118.17 89.4) (end 118.97 89.4) (width 0.2) (layer "F.Cu") (net 1) (tstamp 8b42077e-d35f-4ace-af7b-31c594a0f10c))
  (segment (start 119.67 86.55) (end 119.67 88.635) (width 0.2) (layer "F.Cu") (net 1) (tstamp 92a1968e-fa31-4c0e-ba1d-62057d38076f))
  (segment (start 122.7 103.225) (end 122.7 101.33) (width 0.2) (layer "F.Cu") (net 1) (tstamp ae0fca97-f743-4d7b-9f32-8c7dd34816dd))
  (segment (start 118.65 86.55) (end 119.67 86.55) (width 0.2) (layer "F.Cu") (net 1) (tstamp c00090ff-0ce2-483c-a446-6fd0b01974f5))
  (segment (start 118.97 89.4) (end 119.17 89.2) (width 0.2) (layer "F.Cu") (net 1) (tstamp c163e5a7-7417-482b-b65f-6b3b30c11193))
  (segment (start 119.17 89.2) (end 119.17 88.635) (width 0.2) (layer "F.Cu") (net 1) (tstamp c96d1a9e-ad10-4721-8e52-013101897d70))
  (segment (start 118.17 88.635) (end 118.17 89.4) (width 0.2) (layer "F.Cu") (net 1) (tstamp d87ea895-8c09-42fb-82f5-95d7a64d59d4))
  (segment (start 122.7 101.33) (end 122.67 101.3) (width 0.2) (layer "F.Cu") (net 1) (tstamp e7edd964-825b-4de5-9af8-bc27375639cb))
  (via (at 118.17 95) (size 0.7) (drill 0.3) (layers "F.Cu" "B.Cu") (free) (net 1) (tstamp 1409b0fe-69a0-4a53-934c-ad656aa32e66))
  (via (at 111.17 104.8) (size 0.7) (drill 0.3) (layers "F.Cu" "B.Cu") (free) (net 1) (tstamp 22bec5d3-d703-410b-a13c-d7f1bdbb87a0))
  (via (at 119.67 86.55) (size 0.7) (drill 0.3) (layers "F.Cu" "B.Cu") (net 1) (tstamp 32617341-63c1-4482-a80d-25c0b9f4c510))
  (via (at 110.17 103.8) (size 0.7) (drill 0.3) (layers "F.Cu" "B.Cu") (free) (net 1) (tstamp 3a5b536f-575f-42e6-8da6-2bf0c32755c6))
  (via (at 110.17 104.8) (size 0.7) (drill 0.3) (layers "F.Cu" "B.Cu") (free) (net 1) (tstamp 3f4656d2-fc97-4609-82b8-a3f2ba1e9d81))
  (via (at 123.67 101.3) (size 0.7) (drill 0.3) (layers "F.Cu" "B.Cu") (net 1) (tstamp 4cb98b7b-1063-4243-b10c-90372fdd33b0))
  (via (at 111.17 103.8) (size 0.7) (drill 0.3) (layers "F.Cu" "B.Cu") (free) (net 1) (tstamp 60d1fd04-a1be-4a8a-a814-ca2173da55fb))
  (via (at 126.17 104.8) (size 0.7) (drill 0.3) (layers "F.Cu" "B.Cu") (free) (net 1) (tstamp 6af179de-bc6f-4857-9328-c24525432b68))
  (via (at 127.17 105.8) (size 0.7) (drill 0.3) (layers "F.Cu" "B.Cu") (free) (net 1) (tstamp 6c1af1b5-42ac-4bbb-8a48-84a9233dcdb6))
  (via (at 127.17 104.8) (size 0.7) (drill 0.3) (layers "F.Cu" "B.Cu") (free) (net 1) (tstamp 8f220223-423f-4d89-bf88-f94685a5a490))
  (via (at 127.17 103.8) (size 0.7) (drill 0.3) (layers "F.Cu" "B.Cu") (free) (net 1) (tstamp 98bc0ad7-d452-4280-a66f-b2312b9fa80e))
  (via (at 126.17 103.8) (size 0.7) (drill 0.3) (layers "F.Cu" "B.Cu") (free) (net 1) (tstamp a9ed9cb4-7321-466f-ae8d-d68544db82d9))
  (via (at 110.17 105.8) (size 0.7) (drill 0.3) (layers "F.Cu" "B.Cu") (free) (net 1) (tstamp ce74507e-d7a2-4c9d-a1ef-36975835b1b2))
  (via (at 122.67 101.3) (size 0.7) (drill 0.3) (layers "F.Cu" "B.Cu") (net 1) (tstamp dee0e9c2-efa9-49f3-9439-7dd53882ca80))
  (via (at 111.17 105.8) (size 0.7) (drill 0.3) (layers "F.Cu" "B.Cu") (free) (net 1) (tstamp e805cedc-4d1d-41ff-8fbf-e3b7ffa10631))
  (via (at 126.17 105.8) (size 0.7) (drill 0.3) (layers "F.Cu" "B.Cu") (free) (net 1) (tstamp f4ea85bb-321a-49d2-80a1-a01a7b8e2b1d))
  (segment (start 118.17 93.12) (end 118.17 92.2) (width 0.2) (layer "F.Cu") (net 2) (tstamp 205e58b9-6997-48f8-a6b2-ea2198b1da20))
  (segment (start 118.67 90.965) (end 118.67 91.7) (width 0.2) (layer "F.Cu") (net 2) (tstamp 68cbd6e2-039b-4613-97a0-1d2db1241ea2))
  (segment (start 113.77 88.8) (end 116.02 86.55) (width 0.4) (layer "F.Cu") (net 2) (tstamp 75530fd8-a384-4c0a-af1e-784449cba0d5))
  (segment (start 118.67 91.7) (end 118.17 92.2) (width 0.2) (layer "F.Cu") (net 2) (tstamp 7e58bd6a-59b4-4049-870b-b11846bed865))
  (segment (start 116.02 86.55) (end 117.69 86.55) (width 0.4) (layer "F.Cu") (net 2) (tstamp 9aaf2f6b-76c3-473a-8706-ae6059f98ab9))
  (segment (start 113.77 103.155) (end 113.77 88.8) (width 0.4) (layer "F.Cu") (net 2) (tstamp b8b2b948-5ddc-4a38-b600-315334c72fbf))
  (segment (start 117.67 88.635) (end 117.67 86.57) (width 0.2) (layer "F.Cu") (net 2) (tstamp ca2bbd5c-7ad1-44e3-b414-75ae40ff5acf))
  (segment (start 113.7 103.225) (end 113.77 103.155) (width 0.4) (layer "F.Cu") (net 2) (tstamp d76ae94e-dcd9-4e11-b49e-6e1b9406c775))
  (segment (start 117.67 86.57) (end 117.69 86.55) (width 0.2) (layer "F.Cu") (net 2) (tstamp eb7f3f0f-4376-41f1-b573-ee705307141a))
  (via (at 113.77 92.2) (size 0.7) (drill 0.3) (layers "F.Cu" "B.Cu") (net 2) (tstamp 6830d8d9-d095-45ed-bb14-7e9101b8d864))
  (via (at 118.17 92.2) (size 0.7) (drill 0.3) (layers "F.Cu" "B.Cu") (net 2) (tstamp d164f5f8-673e-4f28-996d-3b8aaddf63f7))
  (segment (start 118.17 92.2) (end 113.77 92.2) (width 0.4) (layer "B.Cu") (net 2) (tstamp c75c6c2a-ed27-4aaf-8f04-f1f4b5f8e3d2))
  (segment (start 116.335 88.635) (end 116.67 88.635) (width 0.2) (layer "F.Cu") (net 3) (tstamp 3455cff8-21f3-4c91-84ff-0f5cd490e00c))
  (segment (start 121.7 99.33) (end 120.92 98.55) (width 0.2) (layer "F.Cu") (net 3) (tstamp 8456a61a-8586-4a43-97ab-5e340887f4c9))
  (segment (start 115.42 98.55) (end 115.42 89.55) (width 0.2) (layer "F.Cu") (net 3) (tstamp 8b293a27-77e2-43b8-97d0-fd4ae4c499c4))
  (segment (start 115.42 89.55) (end 116.335 88.635) (width 0.2) (layer "F.Cu") (net 3) (tstamp ab6cd63d-6502-482e-b5ea-2891ce8d9d9a))
  (segment (start 121.7 103.225) (end 121.7 99.33) (width 0.2) (layer "F.Cu") (net 3) (tstamp b7693cb8-93da-4d9b-8115-39da13df3f3c))
  (via (at 120.92 98.55) (size 0.7) (drill 0.3) (layers "F.Cu" "B.Cu") (net 3) (tstamp 3677dc85-769b-4bbf-b44b-6f53de4d6460))
  (via (at 115.42 98.55) (size 0.7) (drill 0.3) (layers "F.Cu" "B.Cu") (net 3) (tstamp aba8ce6e-aff9-485e-baae-9113c8f6728b))
  (segment (start 115.42 98.55) (end 120.92 98.55) (width 0.2) (layer "B.Cu") (net 3) (tstamp 79fd2d80-d11b-45c3-9149-e0e0a9e433d0))
  (segment (start 114.67 99.05) (end 114.67 94.05) (width 0.2) (layer "F.Cu") (net 4) (tstamp 04bd405e-3c70-4947-9dde-459cde3323f2))
  (segment (start 114.67 94.05) (end 114.67 89.05) (width 0.2) (layer "F.Cu") (net 4) (tstamp 29b5995d-370e-4687-b802-6466d1527b51))
  (segment (start 115.7 103.225) (end 115.7 100.08) (width 0.2) (layer "F.Cu") (net 4) (tstamp 336de396-574b-40ba-b628-5a834a79eeb8))
  (segment (start 116.17 87.55) (end 116.92 87.55) (width 0.2) (layer "F.Cu") (net 4) (tstamp 7d6ef9d4-0d70-49cb-a25e-b02f30ff9a64))
  (segment (start 114.67 89.05) (end 115.67 88.05) (width 0.2) (layer "F.Cu") (net 4) (tstamp 88beaebd-90f6-4072-8ba9-3ba2253251e6))
  (segment (start 115.67 88.05) (end 116.17 87.55) (width 0.2) (layer "F.Cu") (net 4) (tstamp 8e436dcd-b57b-49b1-8324-f4d2889340d3))
  (segment (start 118.67 88.635) (end 118.67 87.55) (width 0.2) (layer "F.Cu") (net 4) (tstamp ea735ef6-96e1-4385-b4bb-cf112d144258))
  (segment (start 115.7 100.08) (end 114.92 99.3) (width 0.2) (layer "F.Cu") (net 4) (tstamp f14688cb-a362-423b-9d07-03a74d86ca13))
  (segment (start 114.92 99.3) (end 114.67 99.05) (width 0.2) (layer "F.Cu") (net 4) (tstamp ff4749ce-9e93-4646-8f36-20065c61c633))
  (via (at 118.67 87.55) (size 0.7) (drill 0.3) (layers "F.Cu" "B.Cu") (free) (net 4) (tstamp 1c0b7e59-5026-4990-8068-9bdb106c7a34))
  (via (at 116.92 87.55) (size 0.7) (drill 0.3) (layers "F.Cu" "B.Cu") (net 4) (tstamp cd98440f-e9d8-46fb-948d-38c545ed4945))
  (segment (start 116.92 87.55) (end 118.67 87.55) (width 0.2) (layer "B.Cu") (net 4) (tstamp babd960b-bbdd-460a-a5ee-64d7b4dce45d))
  (segment (start 117.92 100.3) (end 117.7 100.52) (width 0.2) (layer "F.Cu") (net 5) (tstamp 1696b761-5369-4492-9b8e-e410909b714f))
  (segment (start 117.7 100.52) (end 117.7 103.225) (width 0.2) (layer "F.Cu") (net 5) (tstamp b8e102c8-3caa-4e1b-bbae-70ad79e2b4db))
  (segment (start 119.42 100.3) (end 119.67 100.05) (width 0.2) (layer "F.Cu") (net 5) (tstamp d233f33a-f9f5-4e77-a358-13896b432f2d))
  (segment (start 119.67 100.05) (end 119.67 90.965) (width 0.2) (layer "F.Cu") (net 5) (tstamp f407029f-efa2-4e17-afe0-cf7684ad5122))
  (via (at 117.92 100.3) (size 0.7) (drill 0.3) (layers "F.Cu" "B.Cu") (net 5) (tstamp 5f690b38-561f-436d-8ade-f8edd718b448))
  (via (at 119.42 100.3) (size 0.7) (drill 0.3) (layers "F.Cu" "B.Cu") (net 5) (tstamp 922a6c18-c74f-498e-a7e6-62703abc471a))
  (segment (start 119.42 100.3) (end 117.92 100.3) (width 0.2) (layer "B.Cu") (net 5) (tstamp 7a3ffbaf-5642-44a2-8587-d9bc7e70559e))
  (segment (start 119.17 90.54125) (end 119.17 90.965) (width 0.2) (layer "F.Cu") (net 6) (tstamp 0c690dbb-189a-4874-b28a-b362622fe4e2))
  (segment (start 119.17 90.965) (end 119.19 90.985) (width 0.2) (layer "F.Cu") (net 6) (tstamp 0f83d889-9c19-46a0-8e6a-10d66d48e405))
  (segment (start 116.97 90.2) (end 118.82875 90.2) (width 0.2) (layer "F.Cu") (net 6) (tstamp 15cbc937-d91f-41a9-b720-6644c1b1f15d))
  (segment (start 116.67 90.965) (end 116.67 90.5) (width 0.2) (layer "F.Cu") (net 6) (tstamp 3005cb21-684e-458d-8a9e-694f3a1cd79b))
  (segment (start 119.19 97.78) (end 118.7 98.27) (width 0.2) (layer "F.Cu") (net 6) (tstamp 43e5de01-b6df-40d5-87f9-74a99d812476))
  (segment (start 118.82875 90.2) (end 119.17 90.54125) (width 0.2) (layer "F.Cu") (net 6) (tstamp 753c233e-fa8d-4415-9438-229ba4e8824a))
  (segment (start 116.67 90.5) (end 116.97 90.2) (width 0.2) (layer "F.Cu") (net 6) (tstamp 978dd992-d756-4afe-864c-3eb67d9776ca))
  (segment (start 118.7 98.27) (end 118.7 103.225) (width 0.2) (layer "F.Cu") (net 6) (tstamp cc45f904-3acb-445d-a1fc-2be6a2dcfc80))
  (segment (start 119.19 90.985) (end 119.19 97.78) (width 0.2) (layer "F.Cu") (net 6) (tstamp e3ffe7a0-ec66-4998-ac2e-e2a0fce5f10f))
  (segment (start 114.7 103.225) (end 114.7 100.77) (width 0.2) (layer "F.Cu") (net 9) (tstamp 009618d9-55a9-4082-b51e-f0277738e9f8))
  (segment (start 117.17 100.05) (end 117.17 90.965) (width 0.2) (layer "F.Cu") (net 9) (tstamp 1e2ba155-8ffc-4cb8-a907-5b78a0f9ea26))
  (segment (start 116.67 100.55) (end 117.17 100.05) (width 0.2) (layer "F.Cu") (net 9) (tstamp a9edc377-0779-4901-9667-41807f3cece9))
  (segment (start 114.7 100.77) (end 114.92 100.55) (width 0.2) (layer "F.Cu") (net 9) (tstamp e8b963bc-0c7e-4951-a91c-23e53ce0e888))
  (via (at 114.92 100.55) (size 0.7) (drill 0.3) (layers "F.Cu" "B.Cu") (net 9) (tstamp 9fc814cf-dda9-4bb4-8811-97bf32a246f3))
  (via (at 116.67 100.55) (size 0.7) (drill 0.3) (layers "F.Cu" "B.Cu") (net 9) (tstamp a3baba1f-b57f-4cad-94d0-2a6e20ce2ef4))
  (segment (start 114.92 100.55) (end 116.67 100.55) (width 0.2) (layer "B.Cu") (net 9) (tstamp 176f31a5-6f5d-4772-96cb-15087e75fc50))
  (segment (start 116.255 89.8) (end 116.255 99.385) (width 0.2) (layer "F.Cu") (net 10) (tstamp 73cf0231-f277-4f4f-a9ec-48b51f45c708))
  (segment (start 120.92 103.005) (end 120.7 103.225) (width 0.2) (layer "F.Cu") (net 10) (tstamp 82daaed8-085b-48f0-841a-579117a290b8))
  (segment (start 116.255 99.385) (end 116.42 99.55) (width 0.2) (layer "F.Cu") (net 10) (tstamp a99b0cfb-3af6-49a6-b6d2-14c62d79e644))
  (segment (start 120.92 99.55) (end 120.92 103.005) (width 0.2) (layer "F.Cu") (net 10) (tstamp f1dcfe1f-dd5e-43fa-81c7-6fdc33f0a680))
  (via (at 116.42 99.55) (size 0.7) (drill 0.3) (layers "F.Cu" "B.Cu") (net 10) (tstamp 5f4f784b-05cb-4423-a51c-803e0fb6d513))
  (via (at 120.92 99.55) (size 0.7) (drill 0.3) (layers "F.Cu" "B.Cu") (net 10) (tstamp 8264e473-5791-4f38-abc9-535bff1336da))
  (segment (start 120.92 99.55) (end 116.42 99.55) (width 0.2) (layer "B.Cu") (net 10) (tstamp f1c8be01-0830-477a-a303-69c812f1c34f))
  (segment (start 120.06 101.66) (end 120.06 89.825) (width 0.2) (layer "F.Cu") (net 12) (tstamp 21926bef-ce56-4523-ac7f-5dc2ea7c09f1))
  (segment (start 120.06 89.825) (end 120.085 89.8) (width 0.2) (layer "F.Cu") (net 12) (tstamp 39fd23e5-762b-47b1-b11f-6345b30f3abb))
  (segment (start 119.7 102.02) (end 120.06 101.66) (width 0.2) (layer "F.Cu") (net 12) (tstamp 773269fe-6e38-4271-9a4a-a3dda9b6eda6))
  (segment (start 119.7 103.225) (end 119.7 102.02) (width 0.2) (layer "F.Cu") (net 12) (tstamp d95ed326-a76a-4fef-827c-157a07ac31bd))

  (zone (net 1) (net_name "GND") (layer "F.Cu") (tstamp 097fc440-6c3e-44e5-92a8-cd9cd6cff3e1) (hatch edge 0.508)
    (connect_pads yes (clearance 0.3))
    (min_thickness 0.2) (filled_areas_thickness no)
    (fill yes (thermal_gap 0.2) (thermal_bridge_width 0.2))
    (polygon
      (pts
        (xy 109.17 106.8)
        (xy 128.17 106.8)
        (xy 128.17 102.8)
        (xy 109.17 102.8)
      )
    )
    (filled_polygon
      (layer "F.Cu")
      (pts
        (xy 113.05 102.813263)
        (xy 113.086237 102.8495)
        (xy 113.0995 102.899)
        (xy 113.0995 103.90427)
        (xy 113.102353 103.934695)
        (xy 113.102353 103.934697)
        (xy 113.102354 103.934699)
        (xy 113.147207 104.062882)
        (xy 113.22785 104.17215)
        (xy 113.337118 104.252793)
        (xy 113.465301 104.297646)
        (xy 113.478343 104.298869)
        (xy 113.49573 104.3005)
        (xy 113.495734 104.3005)
        (xy 113.904266 104.3005)
        (xy 113.90427 104.3005)
        (xy 113.919482 104.299073)
        (xy 113.934699 104.297646)
        (xy 114.062882 104.252793)
        (xy 114.141215 104.19498)
        (xy 114.179174 104.177853)
        (xy 114.220823 104.177853)
        (xy 114.258787 104.194983)
        (xy 114.300056 104.22544)
        (xy 114.337118 104.252793)
        (xy 114.465301 104.297646)
        (xy 114.478343 104.298869)
        (xy 114.49573 104.3005)
        (xy 114.495734 104.3005)
        (xy 114.904266 104.3005)
        (xy 114.90427 104.3005)
        (xy 114.919482 104.299073)
        (xy 114.934699 104.297646)
        (xy 115.062882 104.252793)
        (xy 115.141215 104.19498)
        (xy 115.179174 104.177853)
        (xy 115.220823 104.177853)
        (xy 115.258787 104.194983)
        (xy 115.300056 104.22544)
        (xy 115.337118 104.252793)
        (xy 115.465301 104.297646)
        (xy 115.478343 104.298869)
        (xy 115.49573 104.3005)
        (xy 115.495734 104.3005)
        (xy 115.904266 104.3005)
        (xy 115.90427 104.3005)
        (xy 115.919482 104.299073)
        (xy 115.934699 104.297646)
        (xy 116.062882 104.252793)
        (xy 116.141215 104.19498)
        (xy 116.179174 104.177853)
        (xy 116.220823 104.177853)
        (xy 116.258787 104.194983)
        (xy 116.300056 104.22544)
        (xy 116.337118 104.252793)
        (xy 116.465301 104.297646)
        (xy 116.478343 104.298869)
        (xy 116.49573 104.3005)
        (xy 116.495734 104.3005)
        (xy 116.904266 104.3005)
        (xy 116.90427 104.3005)
        (xy 116.919482 104.299073)
        (xy 116.934699 104.297646)
        (xy 117.062882 104.252793)
        (xy 117.141215 104.19498)
        (xy 117.179174 104.177853)
        (xy 117.220823 104.177853)
        (xy 117.258787 104.194983)
        (xy 117.300056 104.22544)
        (xy 117.337118 104.252793)
        (xy 117.465301 104.297646)
        (xy 117.478343 104.298869)
        (xy 117.49573 104.3005)
        (xy 117.495734 104.3005)
        (xy 117.904266 104.3005)
        (xy 117.90427 104.3005)
        (xy 117.919482 104.299073)
        (xy 117.934699 104.297646)
        (xy 118.062882 104.252793)
        (xy 118.141215 104.19498)
        (xy 118.179174 104.177853)
        (xy 118.220823 104.177853)
        (xy 118.258787 104.194983)
        (xy 118.300056 104.22544)
        (xy 118.337118 104.252793)
        (xy 118.465301 104.297646)
        (xy 118.478343 104.298869)
        (xy 118.49573 104.3005)
        (xy 118.495734 104.3005)
        (xy 118.904266 104.3005)
        (xy 118.90427 104.3005)
        (xy 118.919482 104.299073)
        (xy 118.934699 104.297646)
        (xy 119.062882 104.252793)
        (xy 119.141215 104.19498)
        (xy 119.179174 104.177853)
        (xy 119.220823 104.177853)
        (xy 119.258787 104.194983)
        (xy 119.300056 104.22544)
        (xy 119.337118 104.252793)
        (xy 119.465301 104.297646)
        (xy 119.478343 104.298869)
        (xy 119.49573 104.3005)
        (xy 119.495734 104.3005)
        (xy 119.904266 104.3005)
        (xy 119.90427 104.3005)
        (xy 119.919482 104.299073)
        (xy 119.934699 104.297646)
        (xy 120.062882 104.252793)
        (xy 120.141215 104.19498)
        (xy 120.179174 104.177853)
        (xy 120.220823 104.177853)
        (xy 120.258787 104.194983)
        (xy 120.300056 104.22544)
        (xy 120.337118 104.252793)
        (xy 120.465301 104.297646)
        (xy 120.478343 104.298869)
        (xy 120.49573 104.3005)
        (xy 120.495734 104.3005)
        (xy 120.904266 104.3005)
        (xy 120.90427 104.3005)
        (xy 120.919482 104.299073)
        (xy 120.934699 104.297646)
        (xy 121.062882 104.252793)
        (xy 121.141215 104.19498)
        (xy 121.179174 104.177853)
        (xy 121.220823 104.177853)
        (xy 121.258787 104.194983)
        (xy 121.300056 104.22544)
        (xy 121.337118 104.252793)
        (xy 121.465301 104.297646)
        (xy 121.478343 104.298869)
        (xy 121.49573 104.3005)
        (xy 121.495734 104.3005)
        (xy 121.904266 104.3005)
        (xy 121.90427 104.3005)
        (xy 121.919482 104.299073)
        (xy 121.934699 104.297646)
        (xy 122.062882 104.252793)
        (xy 122.17215 104.17215)
        (xy 122.252793 104.062882)
        (xy 122.297646 103.934699)
        (xy 122.3005 103.904266)
        (xy 122.3005 102.899)
        (xy 122.313763 102.8495)
        (xy 122.35 102.813263)
        (xy 122.3995 102.8)
        (xy 128.071 102.8)
        (xy 128.1205 102.813263)
        (xy 128.156737 102.8495)
        (xy 128.17 102.899)
        (xy 128.17 106.701)
        (xy 128.156737 106.7505)
        (xy 128.1205 106.786737)
        (xy 128.071 106.8)
        (xy 109.269 106.8)
        (xy 109.2195 106.786737)
        (xy 109.183263 106.7505)
        (xy 109.17 106.701)
        (xy 109.17 102.899)
        (xy 109.183263 102.8495)
        (xy 109.2195 102.813263)
        (xy 109.269 102.8)
        (xy 113.0005 102.8)
      )
    )
  )
  (zone (net 1) (net_name "GND") (layer "B.Cu") (tstamp f75e803a-4faa-4f7a-a859-9555cff5477b) (hatch edge 0.508)
    (connect_pads yes (clearance 0.3))
    (min_thickness 0.2) (filled_areas_thickness no)
    (fill yes (thermal_gap 0.2) (thermal_bridge_width 0.2))
    (polygon
      (pts
        (xy 133.17 106.8)
        (xy 103.17 106.8)
        (xy 103.17 72.8)
        (xy 133.17 72.8)
      )
    )
    (filled_polygon
      (layer "B.Cu")
      (pts
        (xy 133.1205 72.813263)
        (xy 133.156737 72.8495)
        (xy 133.17 72.899)
        (xy 133.17 106.701)
        (xy 133.156737 106.7505)
        (xy 133.1205 106.786737)
        (xy 133.071 106.8)
        (xy 103.269 106.8)
        (xy 103.2195 106.786737)
        (xy 103.183263 106.7505)
        (xy 103.17 106.701)
        (xy 103.17 100.549999)
        (xy 114.264721 100.549999)
        (xy 114.283762 100.706815)
        (xy 114.283762 100.706817)
        (xy 114.283763 100.706818)
        (xy 114.33978 100.854523)
        (xy 114.429517 100.98453)
        (xy 114.54776 101.089283)
        (xy 114.621173 101.127814)
        (xy 114.687636 101.162697)
        (xy 114.841013 101.2005)
        (xy 114.841015 101.2005)
        (xy 114.998985 101.2005)
        (xy 114.998987 101.2005)
        (xy 115.152363 101.162697)
        (xy 115.152365 101.162696)
        (xy 115.29224 101.089283)
        (xy 115.410483 100.98453)
        (xy 115.410484 100.984528)
        (xy 115.419481 100.976558)
        (xy 115.421165 100.978459)
        (xy 115.439914 100.961845)
        (xy 115.485931 100.9505)
        (xy 116.104069 100.9505)
        (xy 116.150086 100.961845)
        (xy 116.168834 100.978459)
        (xy 116.170519 100.976558)
        (xy 116.179515 100.984528)
        (xy 116.179517 100.98453)
        (xy 116.29776 101.089283)
        (xy 116.371173 101.127814)
        (xy 116.437636 101.162697)
        (xy 116.591013 101.2005)
        (xy 116.591015 101.2005)
        (xy 116.748985 101.2005)
        (xy 116.748987 101.2005)
        (xy 116.902363 101.162697)
        (xy 116.902365 101.162696)
        (xy 117.04224 101.089283)
        (xy 117.160483 100.98453)
        (xy 117.25022 100.854523)
        (xy 117.278515 100.779912)
        (xy 117.30543 100.74092)
        (xy 117.347387 100.718899)
        (xy 117.394772 100.718899)
        (xy 117.436728 100.740918)
        (xy 117.54776 100.839283)
        (xy 117.621173 100.877814)
        (xy 117.687636 100.912697)
        (xy 117.841013 100.9505)
        (xy 117.841015 100.9505)
        (xy 117.998985 100.9505)
        (xy 117.998987 100.9505)
        (xy 118.152363 100.912697)
        (xy 118.152365 100.912696)
        (xy 118.29224 100.839283)
        (xy 118.410483 100.73453)
        (xy 118.410484 100.734528)
        (xy 118.419481 100.726558)
        (xy 118.421165 100.728459)
        (xy 118.439914 100.711845)
        (xy 118.485931 100.7005)
        (xy 118.854069 100.7005)
        (xy 118.900086 100.711845)
        (xy 118.918834 100.728459)
        (xy 118.920519 100.726558)
        (xy 118.929515 100.734528)
        (xy 118.929517 100.73453)
        (xy 119.04776 100.839283)
        (xy 119.121173 100.877814)
        (xy 119.187636 100.912697)
        (xy 119.341013 100.9505)
        (xy 119.341015 100.9505)
        (xy 119.498985 100.9505)
        (xy 119.498987 100.9505)
        (xy 119.652363 100.912697)
        (xy 119.652365 100.912696)
        (xy 119.79224 100.839283)
        (xy 119.910483 100.73453)
        (xy 120.00022 100.604523)
        (xy 120.056237 100.456818)
        (xy 120.075278 100.3)
        (xy 120.056237 100.143182)
        (xy 120.034021 100.084605)
        (xy 120.02831 100.037567)
        (xy 120.045112 99.993262)
        (xy 120.08058 99.96184)
        (xy 120.126588 99.9505)
        (xy 120.354069 99.9505)
        (xy 120.400086 99.961845)
        (xy 120.418834 99.978459)
        (xy 120.420519 99.976558)
        (xy 120.429515 99.984528)
        (xy 120.429517 99.98453)
        (xy 120.54776 100.089283)
        (xy 120.597655 100.11547)
        (xy 120.687636 100.162697)
        (xy 120.841013 100.2005)
        (xy 120.841015 100.2005)
        (xy 120.998985 100.2005)
        (xy 120.998987 100.2005)
        (xy 121.152363 100.162697)
        (xy 121.152365 100.162696)
        (xy 121.29224 100.089283)
        (xy 121.410483 99.98453)
        (xy 121.50022 99.854523)
        (xy 121.556237 99.706818)
        (xy 121.575278 99.55)
        (xy 121.556237 99.393182)
        (xy 121.50022 99.245477)
        (xy 121.410483 99.11547)
        (xy 121.410481 99.115468)
        (xy 121.40411 99.106238)
        (xy 121.386586 99.05)
        (xy 121.40411 98.993762)
        (xy 121.410481 98.984531)
        (xy 121.410483 98.98453)
        (xy 121.50022 98.854523)
        (xy 121.556237 98.706818)
        (xy 121.575278 98.55)
        (xy 121.556237 98.393182)
        (xy 121.50022 98.245477)
        (xy 121.410483 98.11547)
        (xy 121.29224 98.010717)
        (xy 121.285286 98.007067)
        (xy 121.152363 97.937302)
        (xy 120.998987 97.8995)
        (xy 120.998985 97.8995)
        (xy 120.841015 97.8995)
        (xy 120.841013 97.8995)
        (xy 120.687636 97.937302)
        (xy 120.547761 98.010716)
        (xy 120.547759 98.010717)
        (xy 120.54776 98.010717)
        (xy 120.429517 98.11547)
        (xy 120.429516 98.115471)
        (xy 120.420519 98.123442)
        (xy 120.418834 98.12154)
        (xy 120.400086 98.138155)
        (xy 120.354069 98.1495)
        (xy 115.985931 98.1495)
        (xy 115.939914 98.138155)
        (xy 115.921165 98.12154)
        (xy 115.919481 98.123442)
        (xy 115.910484 98.115471)
        (xy 115.910483 98.11547)
        (xy 115.79224 98.010717)
        (xy 115.785286 98.007067)
        (xy 115.652363 97.937302)
        (xy 115.498987 97.8995)
        (xy 115.498985 97.8995)
        (xy 115.341015 97.8995)
        (xy 115.341013 97.8995)
        (xy 115.187636 97.937302)
        (xy 115.047761 98.010716)
        (xy 114.929517 98.11547)
        (xy 114.83978 98.245476)
        (xy 114.783762 98.393184)
        (xy 114.764721 98.549999)
        (xy 114.783762 98.706815)
        (xy 114.783762 98.706817)
        (xy 114.783763 98.706818)
        (xy 114.83978 98.854523)
        (xy 114.929517 98.98453)
        (xy 115.04776 99.089283)
        (xy 115.080993 99.106725)
        (xy 115.187636 99.162697)
        (xy 115.341013 99.2005)
        (xy 115.341015 99.2005)
        (xy 115.498985 99.2005)
        (xy 115.498987 99.2005)
        (xy 115.652363 99.162697)
        (xy 115.69441 99.140629)
        (xy 115.75235 99.130011)
        (xy 115.806067 99.154186)
        (xy 115.836541 99.204596)
        (xy 115.832985 99.263395)
        (xy 115.783762 99.393184)
        (xy 115.764721 99.549999)
        (xy 115.783762 99.706815)
        (xy 115.783762 99.706817)
        (xy 115.783763 99.706818)
        (xy 115.83978 99.854523)
        (xy 115.929516 99.984529)
        (xy 115.936235 99.994262)
        (xy 115.953578 100.044523)
        (xy 115.942419 100.096508)
        (xy 115.905975 100.135222)
        (xy 115.854759 100.1495)
        (xy 115.485931 100.1495)
        (xy 115.439914 100.138155)
        (xy 115.421165 100.12154)
        (xy 115.419481 100.123442)
        (xy 115.410484 100.115471)
        (xy 115.410483 100.11547)
        (xy 115.29224 100.010717)
        (xy 115.258983 99.993262)
        (xy 115.152363 99.937302)
        (xy 114.998987 99.8995)
        (xy 114.998985 99.8995)
        (xy 114.841015 99.8995)
        (xy 114.841013 99.8995)
        (xy 114.687636 99.937302)
        (xy 114.547761 100.010716)
        (xy 114.429517 100.11547)
        (xy 114.33978 100.245476)
        (xy 114.283762 100.393184)
        (xy 114.264721 100.549999)
        (xy 103.17 100.549999)
        (xy 103.17 92.2)
        (xy 113.114721 92.2)
        (xy 113.133762 92.356815)
        (xy 113.133762 92.356817)
        (xy 113.133763 92.356818)
        (xy 113.18978 92.504523)
        (xy 113.279517 92.63453)
        (xy 113.39776 92.739283)
        (xy 113.471174 92.777814)
        (xy 113.537636 92.812697)
        (xy 113.691013 92.8505)
        (xy 113.691015 92.8505)
        (xy 113.848985 92.8505)
        (xy 113.848987 92.8505)
        (xy 114.002363 92.812697)
        (xy 114.002365 92.812696)
        (xy 114.14224 92.739283)
        (xy 114.157912 92.725398)
        (xy 114.188457 92.706934)
        (xy 114.223563 92.7005)
        (xy 117.716437 92.7005)
        (xy 117.751543 92.706934)
        (xy 117.782087 92.725398)
        (xy 117.79776 92.739283)
        (xy 117.937636 92.812697)
        (xy 118.091013 92.8505)
        (xy 118.091015 92.8505)
        (xy 118.248985 92.8505)
        (xy 118.248987 92.8505)
        (xy 118.402363 92.812697)
        (xy 118.402365 92.812696)
        (xy 118.54224 92.739283)
        (xy 118.660483 92.63453)
        (xy 118.75022 92.504523)
        (xy 118.806237 92.356818)
        (xy 118.825278 92.2)
        (xy 118.806237 92.043182)
        (xy 118.75022 91.895477)
        (xy 118.660483 91.76547)
        (xy 118.54224 91.660717)
        (xy 118.535286 91.657067)
        (xy 118.402363 91.587302)
        (xy 118.248987 91.5495)
        (xy 118.248985 91.5495)
        (xy 118.091015 91.5495)
        (xy 118.091013 91.5495)
        (xy 117.937636 91.587302)
        (xy 117.79776 91.660716)
        (xy 117.782087 91.674602)
        (xy 117.751543 91.693066)
        (xy 117.716437 91.6995)
        (xy 114.223563 91.6995)
        (xy 114.188457 91.693066)
        (xy 114.157913 91.674602)
        (xy 114.142239 91.660716)
        (xy 114.002363 91.587302)
        (xy 113.848987 91.5495)
        (xy 113.848985 91.5495)
        (xy 113.691015 91.5495)
        (xy 113.691013 91.5495)
        (xy 113.537636 91.587302)
        (xy 113.397761 91.660716)
        (xy 113.279517 91.76547)
        (xy 113.18978 91.895476)
        (xy 113.133762 92.043184)
        (xy 113.114721 92.2)
        (xy 103.17 92.2)
        (xy 103.17 87.55)
        (xy 116.264721 87.55)
        (xy 116.283762 87.706815)
        (xy 116.283762 87.706817)
        (xy 116.283763 87.706818)
        (xy 116.33978 87.854523)
        (xy 116.429517 87.98453)
        (xy 116.54776 88.089283)
        (xy 116.621174 88.127814)
        (xy 116.687636 88.162697)
        (xy 116.841013 88.2005)
        (xy 116.841015 88.2005)
        (xy 116.998985 88.2005)
        (xy 116.998987 88.2005)
        (xy 117.152363 88.162697)
        (xy 117.152365 88.162696)
        (xy 117.29224 88.089283)
        (xy 117.410483 87.98453)
        (xy 117.410484 87.984528)
        (xy 117.419481 87.976558)
        (xy 117.421165 87.978459)
        (xy 117.439914 87.961845)
        (xy 117.485931 87.9505)
        (xy 118.104069 87.9505)
        (xy 118.150086 87.961845)
        (xy 118.168834 87.978459)
        (xy 118.170519 87.976558)
        (xy 118.179515 87.984528)
        (xy 118.179517 87.98453)
        (xy 118.29776 88.089283)
        (xy 118.371174 88.127814)
        (xy 118.437636 88.162697)
        (xy 118.591013 88.2005)
        (xy 118.591015 88.2005)
        (xy 118.748985 88.2005)
        (xy 118.748987 88.2005)
        (xy 118.902363 88.162697)
        (xy 118.902365 88.162696)
        (xy 119.04224 88.089283)
        (xy 119.160483 87.98453)
        (xy 119.25022 87.854523)
        (xy 119.306237 87.706818)
        (xy 119.325278 87.55)
        (xy 119.306237 87.393182)
        (xy 119.25022 87.245477)
        (xy 119.160483 87.11547)
        (xy 119.04224 87.010717)
        (xy 119.035286 87.007067)
        (xy 118.902363 86.937302)
        (xy 118.748987 86.8995)
        (xy 118.748985 86.8995)
        (xy 118.591015 86.8995)
        (xy 118.591013 86.8995)
        (xy 118.437636 86.937302)
        (xy 118.297761 87.010716)
        (xy 118.297759 87.010717)
        (xy 118.29776 87.010717)
        (xy 118.179517 87.11547)
        (xy 118.179516 87.115471)
        (xy 118.170519 87.123442)
        (xy 118.168834 87.12154)
        (xy 118.150086 87.138155)
        (xy 118.104069 87.1495)
        (xy 117.485931 87.1495)
        (xy 117.439914 87.138155)
        (xy 117.421165 87.12154)
        (xy 117.419481 87.123442)
        (xy 117.410484 87.115471)
        (xy 117.410483 87.11547)
        (xy 117.29224 87.010717)
        (xy 117.285286 87.007067)
        (xy 117.152363 86.937302)
        (xy 116.998987 86.8995)
        (xy 116.998985 86.8995)
        (xy 116.841015 86.8995)
        (xy 116.841013 86.8995)
        (xy 116.687636 86.937302)
        (xy 116.547761 87.010716)
        (xy 116.429517 87.11547)
        (xy 116.33978 87.245476)
        (xy 116.283762 87.393184)
        (xy 116.264721 87.55)
        (xy 103.17 87.55)
        (xy 103.17 72.899)
        (xy 103.183263 72.8495)
        (xy 103.2195 72.813263)
        (xy 103.269 72.8)
        (xy 133.071 72.8)
      )
    )
  )
)
