(kicad_sch (version 20230121) (generator eeschema)

  (uuid be867b77-3625-4583-8741-67c0d10ee695)

  (paper "A4")

  (title_block
    (title "Kicker v3.0")
    (date "2023-11-07")
    (rev "0")
    (company "SSL A-Team")
    (comment 1 "Author: William Stuckey")
  )

  (lib_symbols
    (symbol "Connector_Generic:Conn_01x02" (pin_names (offset 1.016) hide) (in_bom yes) (on_board yes)
      (property "Reference" "J" (at 0 2.54 0)
        (effects (font (size 1.27 1.27)))
      )
      (property "Value" "Conn_01x02" (at 0 -5.08 0)
        (effects (font (size 1.27 1.27)))
      )
      (property "Footprint" "" (at 0 0 0)
        (effects (font (size 1.27 1.27)) hide)
      )
      (property "Datasheet" "~" (at 0 0 0)
        (effects (font (size 1.27 1.27)) hide)
      )
      (property "ki_keywords" "connector" (at 0 0 0)
        (effects (font (size 1.27 1.27)) hide)
      )
      (property "ki_description" "Generic connector, single row, 01x02, script generated (kicad-library-utils/schlib/autogen/connector/)" (at 0 0 0)
        (effects (font (size 1.27 1.27)) hide)
      )
      (property "ki_fp_filters" "Connector*:*_1x??_*" (at 0 0 0)
        (effects (font (size 1.27 1.27)) hide)
      )
      (symbol "Conn_01x02_1_1"
        (rectangle (start -1.27 -2.413) (end 0 -2.667)
          (stroke (width 0.1524) (type default))
          (fill (type none))
        )
        (rectangle (start -1.27 0.127) (end 0 -0.127)
          (stroke (width 0.1524) (type default))
          (fill (type none))
        )
        (rectangle (start -1.27 1.27) (end 1.27 -3.81)
          (stroke (width 0.254) (type default))
          (fill (type background))
        )
        (pin passive line (at -5.08 0 0) (length 3.81)
          (name "Pin_1" (effects (font (size 1.27 1.27))))
          (number "1" (effects (font (size 1.27 1.27))))
        )
        (pin passive line (at -5.08 -2.54 0) (length 3.81)
          (name "Pin_2" (effects (font (size 1.27 1.27))))
          (number "2" (effects (font (size 1.27 1.27))))
        )
      )
    )
    (symbol "Connector_Generic:Conn_01x10" (pin_names (offset 1.016) hide) (in_bom yes) (on_board yes)
      (property "Reference" "J" (at 0 12.7 0)
        (effects (font (size 1.27 1.27)))
      )
      (property "Value" "Conn_01x10" (at 0 -15.24 0)
        (effects (font (size 1.27 1.27)))
      )
      (property "Footprint" "" (at 0 0 0)
        (effects (font (size 1.27 1.27)) hide)
      )
      (property "Datasheet" "~" (at 0 0 0)
        (effects (font (size 1.27 1.27)) hide)
      )
      (property "ki_keywords" "connector" (at 0 0 0)
        (effects (font (size 1.27 1.27)) hide)
      )
      (property "ki_description" "Generic connector, single row, 01x10, script generated (kicad-library-utils/schlib/autogen/connector/)" (at 0 0 0)
        (effects (font (size 1.27 1.27)) hide)
      )
      (property "ki_fp_filters" "Connector*:*_1x??_*" (at 0 0 0)
        (effects (font (size 1.27 1.27)) hide)
      )
      (symbol "Conn_01x10_1_1"
        (rectangle (start -1.27 -12.573) (end 0 -12.827)
          (stroke (width 0.1524) (type default))
          (fill (type none))
        )
        (rectangle (start -1.27 -10.033) (end 0 -10.287)
          (stroke (width 0.1524) (type default))
          (fill (type none))
        )
        (rectangle (start -1.27 -7.493) (end 0 -7.747)
          (stroke (width 0.1524) (type default))
          (fill (type none))
        )
        (rectangle (start -1.27 -4.953) (end 0 -5.207)
          (stroke (width 0.1524) (type default))
          (fill (type none))
        )
        (rectangle (start -1.27 -2.413) (end 0 -2.667)
          (stroke (width 0.1524) (type default))
          (fill (type none))
        )
        (rectangle (start -1.27 0.127) (end 0 -0.127)
          (stroke (width 0.1524) (type default))
          (fill (type none))
        )
        (rectangle (start -1.27 2.667) (end 0 2.413)
          (stroke (width 0.1524) (type default))
          (fill (type none))
        )
        (rectangle (start -1.27 5.207) (end 0 4.953)
          (stroke (width 0.1524) (type default))
          (fill (type none))
        )
        (rectangle (start -1.27 7.747) (end 0 7.493)
          (stroke (width 0.1524) (type default))
          (fill (type none))
        )
        (rectangle (start -1.27 10.287) (end 0 10.033)
          (stroke (width 0.1524) (type default))
          (fill (type none))
        )
        (rectangle (start -1.27 11.43) (end 1.27 -13.97)
          (stroke (width 0.254) (type default))
          (fill (type background))
        )
        (pin passive line (at -5.08 10.16 0) (length 3.81)
          (name "Pin_1" (effects (font (size 1.27 1.27))))
          (number "1" (effects (font (size 1.27 1.27))))
        )
        (pin passive line (at -5.08 -12.7 0) (length 3.81)
          (name "Pin_10" (effects (font (size 1.27 1.27))))
          (number "10" (effects (font (size 1.27 1.27))))
        )
        (pin passive line (at -5.08 7.62 0) (length 3.81)
          (name "Pin_2" (effects (font (size 1.27 1.27))))
          (number "2" (effects (font (size 1.27 1.27))))
        )
        (pin passive line (at -5.08 5.08 0) (length 3.81)
          (name "Pin_3" (effects (font (size 1.27 1.27))))
          (number "3" (effects (font (size 1.27 1.27))))
        )
        (pin passive line (at -5.08 2.54 0) (length 3.81)
          (name "Pin_4" (effects (font (size 1.27 1.27))))
          (number "4" (effects (font (size 1.27 1.27))))
        )
        (pin passive line (at -5.08 0 0) (length 3.81)
          (name "Pin_5" (effects (font (size 1.27 1.27))))
          (number "5" (effects (font (size 1.27 1.27))))
        )
        (pin passive line (at -5.08 -2.54 0) (length 3.81)
          (name "Pin_6" (effects (font (size 1.27 1.27))))
          (number "6" (effects (font (size 1.27 1.27))))
        )
        (pin passive line (at -5.08 -5.08 0) (length 3.81)
          (name "Pin_7" (effects (font (size 1.27 1.27))))
          (number "7" (effects (font (size 1.27 1.27))))
        )
        (pin passive line (at -5.08 -7.62 0) (length 3.81)
          (name "Pin_8" (effects (font (size 1.27 1.27))))
          (number "8" (effects (font (size 1.27 1.27))))
        )
        (pin passive line (at -5.08 -10.16 0) (length 3.81)
          (name "Pin_9" (effects (font (size 1.27 1.27))))
          (number "9" (effects (font (size 1.27 1.27))))
        )
      )
    )
    (symbol "Device:R_Small_US" (pin_numbers hide) (pin_names (offset 0.254) hide) (in_bom yes) (on_board yes)
      (property "Reference" "R" (at 0.762 0.508 0)
        (effects (font (size 1.27 1.27)) (justify left))
      )
      (property "Value" "R_Small_US" (at 0.762 -1.016 0)
        (effects (font (size 1.27 1.27)) (justify left))
      )
      (property "Footprint" "" (at 0 0 0)
        (effects (font (size 1.27 1.27)) hide)
      )
      (property "Datasheet" "~" (at 0 0 0)
        (effects (font (size 1.27 1.27)) hide)
      )
      (property "ki_keywords" "r resistor" (at 0 0 0)
        (effects (font (size 1.27 1.27)) hide)
      )
      (property "ki_description" "Resistor, small US symbol" (at 0 0 0)
        (effects (font (size 1.27 1.27)) hide)
      )
      (property "ki_fp_filters" "R_*" (at 0 0 0)
        (effects (font (size 1.27 1.27)) hide)
      )
      (symbol "R_Small_US_1_1"
        (polyline
          (pts
            (xy 0 0)
            (xy 1.016 -0.381)
            (xy 0 -0.762)
            (xy -1.016 -1.143)
            (xy 0 -1.524)
          )
          (stroke (width 0) (type default))
          (fill (type none))
        )
        (polyline
          (pts
            (xy 0 1.524)
            (xy 1.016 1.143)
            (xy 0 0.762)
            (xy -1.016 0.381)
            (xy 0 0)
          )
          (stroke (width 0) (type default))
          (fill (type none))
        )
        (pin passive line (at 0 2.54 270) (length 1.016)
          (name "~" (effects (font (size 1.27 1.27))))
          (number "1" (effects (font (size 1.27 1.27))))
        )
        (pin passive line (at 0 -2.54 90) (length 1.016)
          (name "~" (effects (font (size 1.27 1.27))))
          (number "2" (effects (font (size 1.27 1.27))))
        )
      )
    )
    (symbol "power:+3V3" (power) (pin_names (offset 0)) (in_bom yes) (on_board yes)
      (property "Reference" "#PWR" (at 0 -3.81 0)
        (effects (font (size 1.27 1.27)) hide)
      )
      (property "Value" "+3V3" (at 0 3.556 0)
        (effects (font (size 1.27 1.27)))
      )
      (property "Footprint" "" (at 0 0 0)
        (effects (font (size 1.27 1.27)) hide)
      )
      (property "Datasheet" "" (at 0 0 0)
        (effects (font (size 1.27 1.27)) hide)
      )
      (property "ki_keywords" "global power" (at 0 0 0)
        (effects (font (size 1.27 1.27)) hide)
      )
      (property "ki_description" "Power symbol creates a global label with name \"+3V3\"" (at 0 0 0)
        (effects (font (size 1.27 1.27)) hide)
      )
      (symbol "+3V3_0_1"
        (polyline
          (pts
            (xy -0.762 1.27)
            (xy 0 2.54)
          )
          (stroke (width 0) (type default))
          (fill (type none))
        )
        (polyline
          (pts
            (xy 0 0)
            (xy 0 2.54)
          )
          (stroke (width 0) (type default))
          (fill (type none))
        )
        (polyline
          (pts
            (xy 0 2.54)
            (xy 0.762 1.27)
          )
          (stroke (width 0) (type default))
          (fill (type none))
        )
      )
      (symbol "+3V3_1_1"
        (pin power_in line (at 0 0 90) (length 0) hide
          (name "+3V3" (effects (font (size 1.27 1.27))))
          (number "1" (effects (font (size 1.27 1.27))))
        )
      )
    )
    (symbol "power:+BATT" (power) (pin_names (offset 0)) (in_bom yes) (on_board yes)
      (property "Reference" "#PWR" (at 0 -3.81 0)
        (effects (font (size 1.27 1.27)) hide)
      )
      (property "Value" "+BATT" (at 0 3.556 0)
        (effects (font (size 1.27 1.27)))
      )
      (property "Footprint" "" (at 0 0 0)
        (effects (font (size 1.27 1.27)) hide)
      )
      (property "Datasheet" "" (at 0 0 0)
        (effects (font (size 1.27 1.27)) hide)
      )
      (property "ki_keywords" "global power battery" (at 0 0 0)
        (effects (font (size 1.27 1.27)) hide)
      )
      (property "ki_description" "Power symbol creates a global label with name \"+BATT\"" (at 0 0 0)
        (effects (font (size 1.27 1.27)) hide)
      )
      (symbol "+BATT_0_1"
        (polyline
          (pts
            (xy -0.762 1.27)
            (xy 0 2.54)
          )
          (stroke (width 0) (type default))
          (fill (type none))
        )
        (polyline
          (pts
            (xy 0 0)
            (xy 0 2.54)
          )
          (stroke (width 0) (type default))
          (fill (type none))
        )
        (polyline
          (pts
            (xy 0 2.54)
            (xy 0.762 1.27)
          )
          (stroke (width 0) (type default))
          (fill (type none))
        )
      )
      (symbol "+BATT_1_1"
        (pin power_in line (at 0 0 90) (length 0) hide
          (name "+BATT" (effects (font (size 1.27 1.27))))
          (number "1" (effects (font (size 1.27 1.27))))
        )
      )
    )
    (symbol "power:GND" (power) (pin_names (offset 0)) (in_bom yes) (on_board yes)
      (property "Reference" "#PWR" (at 0 -6.35 0)
        (effects (font (size 1.27 1.27)) hide)
      )
      (property "Value" "GND" (at 0 -3.81 0)
        (effects (font (size 1.27 1.27)))
      )
      (property "Footprint" "" (at 0 0 0)
        (effects (font (size 1.27 1.27)) hide)
      )
      (property "Datasheet" "" (at 0 0 0)
        (effects (font (size 1.27 1.27)) hide)
      )
      (property "ki_keywords" "global power" (at 0 0 0)
        (effects (font (size 1.27 1.27)) hide)
      )
      (property "ki_description" "Power symbol creates a global label with name \"GND\" , ground" (at 0 0 0)
        (effects (font (size 1.27 1.27)) hide)
      )
      (symbol "GND_0_1"
        (polyline
          (pts
            (xy 0 0)
            (xy 0 -1.27)
            (xy 1.27 -1.27)
            (xy 0 -2.54)
            (xy -1.27 -1.27)
            (xy 0 -1.27)
          )
          (stroke (width 0) (type default))
          (fill (type none))
        )
      )
      (symbol "GND_1_1"
        (pin power_in line (at 0 0 270) (length 0) hide
          (name "GND" (effects (font (size 1.27 1.27))))
          (number "1" (effects (font (size 1.27 1.27))))
        )
      )
    )
  )

  (junction (at 125.73 36.83) (diameter 0) (color 0 0 0 0)
    (uuid 1873bace-48d6-4ba5-bd90-7df7d347939c)
  )
  (junction (at 116.84 36.83) (diameter 0) (color 0 0 0 0)
    (uuid 89097e9d-f1c4-434b-b334-4daa7a526927)
  )
  (junction (at 116.84 48.26) (diameter 0) (color 0 0 0 0)
    (uuid d50035b2-633c-4ad9-a706-d3fdfcd4c428)
  )

  (bus_entry (at 67.31 58.42) (size 2.54 2.54)
    (stroke (width 0) (type default))
    (uuid 4dc64fd4-6e8f-416a-8729-accd90469568)
  )
  (bus_entry (at 67.31 53.34) (size 2.54 2.54)
    (stroke (width 0) (type default))
    (uuid 541d2920-9642-4c40-806a-40ff98a21a13)
  )
  (bus_entry (at 67.31 45.72) (size 2.54 2.54)
    (stroke (width 0) (type default))
    (uuid 9b69ba62-a765-47f5-9ef4-7e5d1d73d771)
  )
  (bus_entry (at 67.31 50.8) (size 2.54 2.54)
    (stroke (width 0) (type default))
    (uuid afd329ae-08a6-41bb-8e72-73d0b6af2745)
  )
  (bus_entry (at 67.31 55.88) (size 2.54 2.54)
    (stroke (width 0) (type default))
    (uuid b2fcd282-277e-4e16-9ec0-05049d7ba512)
  )
  (bus_entry (at 67.31 63.5) (size 2.54 2.54)
    (stroke (width 0) (type default))
    (uuid cefd089f-fa94-4721-b029-ae3d00232840)
  )
  (bus_entry (at 67.31 60.96) (size 2.54 2.54)
    (stroke (width 0) (type default))
    (uuid cfe39497-8bb5-420e-a5d4-5dd91104f0c9)
  )

  (wire (pts (xy 69.85 48.26) (xy 116.84 48.26))
    (stroke (width 0) (type default))
    (uuid 0b221125-4511-4979-b96c-ec0afc0aa44c)
  )
  (wire (pts (xy 186.69 39.37) (xy 186.69 45.72))
    (stroke (width 0) (type default))
    (uuid 1be7a577-d87f-466d-b042-e4321c318b8e)
  )
  (wire (pts (xy 69.85 66.04) (xy 130.81 66.04))
    (stroke (width 0) (type default))
    (uuid 22c972b7-8d85-4094-802b-610b9752855d)
  )
  (bus (pts (xy 67.31 58.42) (xy 67.31 60.96))
    (stroke (width 0) (type default))
    (uuid 381f063f-1c8d-4c35-8ace-79bb870c69f8)
  )

  (wire (pts (xy 69.85 58.42) (xy 130.81 58.42))
    (stroke (width 0) (type default))
    (uuid 42c3bf17-817e-4e70-931f-26c1a6495ccf)
  )
  (bus (pts (xy 66.04 44.45) (xy 67.31 44.45))
    (stroke (width 0) (type default))
    (uuid 4a370207-9571-48c0-be02-6267c38136c5)
  )
  (bus (pts (xy 67.31 60.96) (xy 67.31 63.5))
    (stroke (width 0) (type default))
    (uuid 57ed23a5-ec45-434b-82a8-345c6c9d9405)
  )

  (wire (pts (xy 130.81 50.8) (xy 106.68 50.8))
    (stroke (width 0) (type default))
    (uuid 66c2e7fb-5f81-4be4-9ec2-7257128d9b84)
  )
  (wire (pts (xy 130.81 45.72) (xy 125.73 45.72))
    (stroke (width 0) (type default))
    (uuid 67cc1cbb-f414-4fc1-8391-c05a3046a63e)
  )
  (wire (pts (xy 128.27 43.18) (xy 128.27 71.12))
    (stroke (width 0) (type default))
    (uuid 8b1cf541-c7a3-458d-aaa1-3f82ae6b354e)
  )
  (bus (pts (xy 66.04 54.61) (xy 67.31 54.61))
    (stroke (width 0) (type default))
    (uuid 91999b07-9dcb-4ebb-b990-efb78e43d900)
  )
  (bus (pts (xy 67.31 49.53) (xy 67.31 50.8))
    (stroke (width 0) (type default))
    (uuid 9331e800-49e2-417b-aefd-dbb75b3128df)
  )

  (wire (pts (xy 125.73 34.29) (xy 125.73 36.83))
    (stroke (width 0) (type default))
    (uuid 98c4ff6c-f4e4-4667-b7f2-f43bb664af25)
  )
  (bus (pts (xy 67.31 54.61) (xy 67.31 55.88))
    (stroke (width 0) (type default))
    (uuid 9bb5bde8-dc89-4014-8afa-0e8e04b628fb)
  )

  (wire (pts (xy 106.68 39.37) (xy 106.68 36.83))
    (stroke (width 0) (type default))
    (uuid a933c919-feed-479a-b6f3-c2515d94e9d7)
  )
  (wire (pts (xy 116.84 36.83) (xy 125.73 36.83))
    (stroke (width 0) (type default))
    (uuid aa3e5fc0-a4a3-42b4-94f0-d18528209fa2)
  )
  (wire (pts (xy 106.68 50.8) (xy 106.68 44.45))
    (stroke (width 0) (type default))
    (uuid b2d8444a-44b1-4566-b942-77ea580d0f41)
  )
  (bus (pts (xy 66.04 49.53) (xy 67.31 49.53))
    (stroke (width 0) (type default))
    (uuid b522d892-522e-4b1b-9486-87de2e40206d)
  )

  (wire (pts (xy 69.85 60.96) (xy 130.81 60.96))
    (stroke (width 0) (type default))
    (uuid b8dd7305-3071-4185-bc21-a852688e1598)
  )
  (wire (pts (xy 116.84 48.26) (xy 130.81 48.26))
    (stroke (width 0) (type default))
    (uuid bf52347d-9097-4bb3-aee7-ee610b5e8402)
  )
  (wire (pts (xy 116.84 39.37) (xy 116.84 36.83))
    (stroke (width 0) (type default))
    (uuid c1e2d573-6540-4086-8503-59a5935cf39c)
  )
  (wire (pts (xy 116.84 44.45) (xy 116.84 48.26))
    (stroke (width 0) (type default))
    (uuid c555d4a3-c0b2-4f88-8e0f-8fef95c7fa72)
  )
  (wire (pts (xy 186.69 45.72) (xy 194.31 45.72))
    (stroke (width 0) (type default))
    (uuid c62d3236-171a-4508-88d2-5376b74aa4bb)
  )
  (wire (pts (xy 186.69 48.26) (xy 186.69 55.88))
    (stroke (width 0) (type default))
    (uuid cb2d5afa-26d5-450f-9cc2-a9020bd95b7b)
  )
  (wire (pts (xy 69.85 53.34) (xy 130.81 53.34))
    (stroke (width 0) (type default))
    (uuid ce38ac54-1b1d-485e-9000-a9e92d56537c)
  )
  (wire (pts (xy 194.31 48.26) (xy 186.69 48.26))
    (stroke (width 0) (type default))
    (uuid d3e66023-46fb-4530-942e-425ea292d77b)
  )
  (wire (pts (xy 106.68 36.83) (xy 116.84 36.83))
    (stroke (width 0) (type default))
    (uuid d4631a1a-4587-4719-bd85-eb786cf19fa3)
  )
  (wire (pts (xy 69.85 55.88) (xy 130.81 55.88))
    (stroke (width 0) (type default))
    (uuid d6b1fea4-8053-47d3-95e2-1d53b462a601)
  )
  (wire (pts (xy 130.81 43.18) (xy 128.27 43.18))
    (stroke (width 0) (type default))
    (uuid dac282fd-2d71-4e74-af56-c1b6da2a72f6)
  )
  (wire (pts (xy 69.85 63.5) (xy 130.81 63.5))
    (stroke (width 0) (type default))
    (uuid e4665c3c-9a0a-4257-a258-94af8d0c1f3f)
  )
  (wire (pts (xy 125.73 36.83) (xy 125.73 45.72))
    (stroke (width 0) (type default))
    (uuid e78aee61-793d-434d-b61e-2e6d8ef341e1)
  )
  (bus (pts (xy 67.31 44.45) (xy 67.31 45.72))
    (stroke (width 0) (type default))
    (uuid e7bfaf87-95be-466a-bb9c-f9dd75bc76ba)
  )
  (bus (pts (xy 67.31 50.8) (xy 67.31 53.34))
    (stroke (width 0) (type default))
    (uuid ebcd2486-ac63-48fd-b184-3f6483545492)
  )
  (bus (pts (xy 67.31 55.88) (xy 67.31 58.42))
    (stroke (width 0) (type default))
    (uuid f4a0ea60-cad2-4615-8fd0-cdf873f13c8b)
  )

  (rectangle (start 20.32 20.32) (end 165.1 87.63)
    (stroke (width 0) (type default))
    (fill (type none))
    (uuid 10baea3f-5e0d-48db-8c78-04d0de720ea0)
  )
  (rectangle (start 173.99 20.32) (end 215.9 72.39)
    (stroke (width 0) (type default))
    (fill (type none))
    (uuid ec354ac9-1886-43e6-800d-3c9fd27333ca)
  )

  (text "200mA" (at 139.7 46.99 0)
    (effects (font (size 1.27 1.27)) (justify left bottom))
    (uuid 2f99f5bd-bd07-4c9e-a178-af0583cc81eb)
  )
  (text "\"MOSI\" pin 7, \"MISO\" pin 8" (at 71.12 72.39 0)
    (effects (font (size 1.27 1.27)) (justify left bottom))
    (uuid 3c3ac2da-2ee8-4361-b715-15bc4ad02681)
  )
  (text "Dribbler Motor Power" (at 175.26 24.13 0)
    (effects (font (size 1.27 1.27)) (justify left bottom))
    (uuid 472e92f9-0a15-4427-8595-413e22481539)
  )
  (text "Dribbler Motor Data" (at 21.59 24.13 0)
    (effects (font (size 1.27 1.27)) (justify left bottom))
    (uuid e3abdc80-31c9-430a-9798-650dad9f690f)
  )

  (label "8MHZ_CLK_REF" (at 93.98 53.34 180) (fields_autoplaced)
    (effects (font (size 1.27 1.27)) (justify right bottom))
    (uuid 1252901a-c892-4859-a6fc-7591a26c2e20)
  )
  (label "DRIB_BOOT_UART.RST" (at 93.98 66.04 180) (fields_autoplaced)
    (effects (font (size 1.27 1.27)) (justify right bottom))
    (uuid 51460476-fa7c-4918-be2e-91c1a3fb904d)
  )
  (label "DRIB_BOOT_UART.TX" (at 93.98 58.42 180) (fields_autoplaced)
    (effects (font (size 1.27 1.27)) (justify right bottom))
    (uuid 6e278a0b-bc4a-4695-a6f2-2a448e0f2441)
  )
  (label "DRIB_BOOT_UART.~{DET}" (at 93.98 48.26 180) (fields_autoplaced)
    (effects (font (size 1.27 1.27)) (justify right bottom))
    (uuid a496aa01-a1f2-40b0-a3e5-2ee51dd07e7e)
  )
  (label "DRIB_BOOT_UART.BOOT0" (at 93.98 63.5 180) (fields_autoplaced)
    (effects (font (size 1.27 1.27)) (justify right bottom))
    (uuid bf4b5520-96d2-485d-b7a2-6561db4c3b34)
  )
  (label "32KHZ_CLK_REF" (at 93.98 55.88 180) (fields_autoplaced)
    (effects (font (size 1.27 1.27)) (justify right bottom))
    (uuid cc6f047e-cca1-412e-b77a-0f8a9493058e)
  )
  (label "DRIB_BOOT_UART.RX" (at 93.98 60.96 180) (fields_autoplaced)
    (effects (font (size 1.27 1.27)) (justify right bottom))
    (uuid f50194af-10a0-49a0-a29f-93b4ebeb8bb4)
  )

  (hierarchical_label "DRIB_BOOT_UART{AT_UART}" (shape bidirectional) (at 66.04 54.61 180) (fields_autoplaced)
    (effects (font (size 1.27 1.27)) (justify right))
    (uuid 02192316-ce52-43d8-8165-7fa02d53d279)
  )
  (hierarchical_label "DRIB_BOOT_UART{AT_UART}" (shape bidirectional) (at 66.04 44.45 180) (fields_autoplaced)
    (effects (font (size 1.27 1.27)) (justify right))
    (uuid 4812d6c5-cbe0-4275-aff6-2427450ead30)
  )
  (hierarchical_label "{SYSCLK}" (shape input) (at 66.04 49.53 180) (fields_autoplaced)
    (effects (font (size 1.27 1.27)) (justify right))
    (uuid b39591eb-a717-4b34-82dc-54d7f98316ae)
  )

  (symbol (lib_id "Connector_Generic:Conn_01x02") (at 199.39 45.72 0) (unit 1)
    (in_bom yes) (on_board yes) (dnp no)
    (uuid 085e3358-9845-4617-b1cf-761451cb20c6)
    (property "Reference" "J12" (at 199.39 39.37 0)
      (effects (font (size 1.27 1.27)))
    )
    (property "Value" "Conn_01x02" (at 199.39 41.91 0)
      (effects (font (size 1.27 1.27)))
    )
    (property "Footprint" "AT-JST_PA:SM02B-PASS-TBT" (at 199.39 45.72 0)
      (effects (font (size 1.27 1.27)) hide)
    )
    (property "Datasheet" "~" (at 199.39 45.72 0)
      (effects (font (size 1.27 1.27)) hide)
    )
    (property "LCSC" "C160403" (at 199.39 39.37 0)
      (effects (font (size 1.27 1.27)) hide)
    )
    (pin "1" (uuid d79fd2b5-4c21-4685-94a6-25f8dd6878b9))
    (pin "2" (uuid 16569431-ef64-4e0e-89ce-e7bf6ffe7b66))
    (instances
      (project "kicker"
        (path "/7c007fad-bfbf-4e78-a837-1f8089552516/18b5a777-2ae2-444a-8013-2f46c3974bf2"
          (reference "J12") (unit 1)
        )
        (path "/7c007fad-bfbf-4e78-a837-1f8089552516/033ff13b-d72f-4800-98f0-39aa58dc7180"
          (reference "J10") (unit 1)
        )
      )
    )
  )

  (symbol (lib_id "power:GND") (at 186.69 55.88 0) (unit 1)
    (in_bom yes) (on_board yes) (dnp no) (fields_autoplaced)
    (uuid 0ed43e81-65f1-4b9f-a69d-8dcfb4635874)
    (property "Reference" "#PWR086" (at 186.69 62.23 0)
      (effects (font (size 1.27 1.27)) hide)
    )
    (property "Value" "GND" (at 186.69 60.96 0)
      (effects (font (size 1.27 1.27)))
    )
    (property "Footprint" "" (at 186.69 55.88 0)
      (effects (font (size 1.27 1.27)) hide)
    )
    (property "Datasheet" "" (at 186.69 55.88 0)
      (effects (font (size 1.27 1.27)) hide)
    )
    (pin "1" (uuid 639ee6e5-4a1f-47a8-a92e-b69694a32773))
    (instances
      (project "kicker"
        (path "/7c007fad-bfbf-4e78-a837-1f8089552516/7a1ed07f-54d5-4760-ac90-4add0b6ea46f"
          (reference "#PWR086") (unit 1)
        )
        (path "/7c007fad-bfbf-4e78-a837-1f8089552516/033ff13b-d72f-4800-98f0-39aa58dc7180"
          (reference "#PWR0144") (unit 1)
        )
      )
    )
  )

  (symbol (lib_id "Connector_Generic:Conn_01x10") (at 135.89 53.34 0) (unit 1)
    (in_bom yes) (on_board yes) (dnp no) (fields_autoplaced)
    (uuid 19a6e77f-64a0-4e67-a8c4-11b192f34bc1)
    (property "Reference" "J4" (at 135.89 36.83 0)
      (effects (font (size 1.27 1.27)))
    )
    (property "Value" "Conn_01x10" (at 135.89 39.37 0)
      (effects (font (size 1.27 1.27)))
    )
    (property "Footprint" "Connector_JST:JST_SH_SM10B-SRSS-TB_1x10-1MP_P1.00mm_Horizontal" (at 135.89 53.34 0)
      (effects (font (size 1.27 1.27)) hide)
    )
    (property "Datasheet" "~" (at 135.89 53.34 0)
      (effects (font (size 1.27 1.27)) hide)
    )
    (pin "1" (uuid 681f9222-2872-4484-8dbd-67c0e5233f43))
    (pin "10" (uuid a9fadd55-1731-48be-9704-5dcb846468a0))
    (pin "2" (uuid 3d256f5b-5136-418e-a0b3-45ac09f38086))
    (pin "3" (uuid 1802c5e5-69f0-4201-8cc3-d99f996bee9d))
    (pin "4" (uuid 2964b0a4-9c9d-4493-b349-bf2b4cdfbfec))
    (pin "5" (uuid 3de46929-be6b-4c68-9d21-b6282eee6380))
    (pin "6" (uuid 983a9f55-df9c-408d-bfbd-7ecf1880567d))
    (pin "7" (uuid d6b31235-bb5c-4e11-9eff-a2a702196d72))
    (pin "8" (uuid 662b1551-98ea-4cb9-9033-bdbef82ae82a))
    (pin "9" (uuid 86ac65ee-00e3-41b0-bc70-d8f0f5cd6e63))
    (instances
      (project "kicker"
        (path "/7c007fad-bfbf-4e78-a837-1f8089552516/e73c114a-5122-4c9a-8f13-6961fcbca2c4"
          (reference "J4") (unit 1)
        )
        (path "/7c007fad-bfbf-4e78-a837-1f8089552516/7a1ed07f-54d5-4760-ac90-4add0b6ea46f"
          (reference "J5") (unit 1)
        )
        (path "/7c007fad-bfbf-4e78-a837-1f8089552516/033ff13b-d72f-4800-98f0-39aa58dc7180"
          (reference "J9") (unit 1)
        )
      )
    )
  )

  (symbol (lib_id "power:+3V3") (at 125.73 34.29 0) (unit 1)
    (in_bom yes) (on_board yes) (dnp no) (fields_autoplaced)
    (uuid 508c7686-6ca8-4fa4-a94e-343ff1ff12f8)
    (property "Reference" "#PWR0141" (at 125.73 38.1 0)
      (effects (font (size 1.27 1.27)) hide)
    )
    (property "Value" "+3V3" (at 125.73 29.21 0)
      (effects (font (size 1.27 1.27)))
    )
    (property "Footprint" "" (at 125.73 34.29 0)
      (effects (font (size 1.27 1.27)) hide)
    )
    (property "Datasheet" "" (at 125.73 34.29 0)
      (effects (font (size 1.27 1.27)) hide)
    )
    (pin "1" (uuid a4d9c1e3-c6a8-4d46-b2b7-52265db44406))
    (instances
      (project "kicker"
        (path "/7c007fad-bfbf-4e78-a837-1f8089552516/033ff13b-d72f-4800-98f0-39aa58dc7180"
          (reference "#PWR0141") (unit 1)
        )
      )
    )
  )

  (symbol (lib_id "Device:R_Small_US") (at 106.68 41.91 0) (unit 1)
    (in_bom yes) (on_board yes) (dnp no) (fields_autoplaced)
    (uuid 6630a446-354c-4da5-8eff-0d188c6cd99c)
    (property "Reference" "R81" (at 109.22 40.64 0)
      (effects (font (size 1.27 1.27)) (justify left))
    )
    (property "Value" "10k" (at 109.22 43.18 0)
      (effects (font (size 1.27 1.27)) (justify left))
    )
    (property "Footprint" "Resistor_SMD:R_0402_1005Metric" (at 106.68 41.91 0)
      (effects (font (size 1.27 1.27)) hide)
    )
    (property "Datasheet" "~" (at 106.68 41.91 0)
      (effects (font (size 1.27 1.27)) hide)
    )
    (property "LCSC" "C60490" (at 109.22 40.64 0)
      (effects (font (size 1.27 1.27)) hide)
    )
    (pin "1" (uuid ee5a17b3-6df3-43ba-b78c-dea2d8a453ad))
    (pin "2" (uuid ed50820d-15d9-4250-9e54-cb6a7b872ec1))
    (instances
      (project "kicker"
        (path "/7c007fad-bfbf-4e78-a837-1f8089552516/033ff13b-d72f-4800-98f0-39aa58dc7180"
          (reference "R81") (unit 1)
        )
      )
    )
  )

  (symbol (lib_id "Device:R_Small_US") (at 116.84 41.91 0) (unit 1)
    (in_bom yes) (on_board yes) (dnp no) (fields_autoplaced)
    (uuid 84670cd3-610b-4be5-98e7-41efcf12b5e2)
    (property "Reference" "R82" (at 119.38 40.64 0)
      (effects (font (size 1.27 1.27)) (justify left))
    )
    (property "Value" "10k" (at 119.38 43.18 0)
      (effects (font (size 1.27 1.27)) (justify left))
    )
    (property "Footprint" "Resistor_SMD:R_0402_1005Metric" (at 116.84 41.91 0)
      (effects (font (size 1.27 1.27)) hide)
    )
    (property "Datasheet" "~" (at 116.84 41.91 0)
      (effects (font (size 1.27 1.27)) hide)
    )
    (property "LCSC" "C60490" (at 119.38 40.64 0)
      (effects (font (size 1.27 1.27)) hide)
    )
    (pin "1" (uuid e23a5f40-0823-4280-8231-37c4d9797a15))
    (pin "2" (uuid d5a4a35d-4985-44dc-9023-dcc5e336227d))
    (instances
      (project "kicker"
        (path "/7c007fad-bfbf-4e78-a837-1f8089552516/033ff13b-d72f-4800-98f0-39aa58dc7180"
          (reference "R82") (unit 1)
        )
      )
    )
  )

  (symbol (lib_id "power:GND") (at 128.27 71.12 0) (unit 1)
    (in_bom yes) (on_board yes) (dnp no) (fields_autoplaced)
    (uuid ca595496-764e-43fa-943f-e939a7156e37)
    (property "Reference" "#PWR086" (at 128.27 77.47 0)
      (effects (font (size 1.27 1.27)) hide)
    )
    (property "Value" "GND" (at 128.27 76.2 0)
      (effects (font (size 1.27 1.27)))
    )
    (property "Footprint" "" (at 128.27 71.12 0)
      (effects (font (size 1.27 1.27)) hide)
    )
    (property "Datasheet" "" (at 128.27 71.12 0)
      (effects (font (size 1.27 1.27)) hide)
    )
    (pin "1" (uuid 73a095d5-002b-4658-8677-49c866e97947))
    (instances
      (project "kicker"
        (path "/7c007fad-bfbf-4e78-a837-1f8089552516/7a1ed07f-54d5-4760-ac90-4add0b6ea46f"
          (reference "#PWR086") (unit 1)
        )
        (path "/7c007fad-bfbf-4e78-a837-1f8089552516/033ff13b-d72f-4800-98f0-39aa58dc7180"
          (reference "#PWR0142") (unit 1)
        )
      )
    )
  )

  (symbol (lib_id "power:+BATT") (at 186.69 39.37 0) (mirror y) (unit 1)
    (in_bom yes) (on_board yes) (dnp no) (fields_autoplaced)
    (uuid e31c18c1-3c00-4d2a-9729-4bb0b1dc366e)
    (property "Reference" "#PWR02" (at 186.69 43.18 0)
      (effects (font (size 1.27 1.27)) hide)
    )
    (property "Value" "+BATT" (at 186.69 34.29 0)
      (effects (font (size 1.27 1.27)))
    )
    (property "Footprint" "" (at 186.69 39.37 0)
      (effects (font (size 1.27 1.27)) hide)
    )
    (property "Datasheet" "" (at 186.69 39.37 0)
      (effects (font (size 1.27 1.27)) hide)
    )
    (pin "1" (uuid cba89052-3d07-4fba-a324-5ef58985b4b1))
    (instances
      (project "kicker"
        (path "/7c007fad-bfbf-4e78-a837-1f8089552516"
          (reference "#PWR02") (unit 1)
        )
        (path "/7c007fad-bfbf-4e78-a837-1f8089552516/033ff13b-d72f-4800-98f0-39aa58dc7180"
          (reference "#PWR0143") (unit 1)
        )
      )
    )
  )
)
