(kicad_sch (version 20230121) (generator eeschema)

  (uuid 69d314a0-8d63-46c5-b603-16c6f2614fbf)

  (paper "A4")

  (title_block
    (title "Kicker v3.0")
    (date "2023-11-07")
    (rev "0")
    (company "SSL A-Team")
    (comment 1 "Author: William Stuckey")
  )

  (lib_symbols
    (symbol "AT-IC:ISO6720-Q1" (in_bom yes) (on_board yes)
      (property "Reference" "U" (at 0 -11.43 0)
        (effects (font (size 1.27 1.27)))
      )
      (property "Value" "ISO6720-Q1" (at 0 11.43 0)
        (effects (font (size 1.27 1.27)))
      )
      (property "Footprint" "" (at 0 0 0)
        (effects (font (size 1.27 1.27)) hide)
      )
      (property "Datasheet" "" (at 0 0 0)
        (effects (font (size 1.27 1.27)) hide)
      )
      (property "ki_description" "General Purpose Reinforced and Basic Dual-Channel Automotive Digital Isolator" (at 0 0 0)
        (effects (font (size 1.27 1.27)) hide)
      )
      (symbol "ISO6720-Q1_1_1"
        (rectangle (start -7.62 10.16) (end 7.62 -10.16)
          (stroke (width 0) (type default))
          (fill (type background))
        )
        (pin power_in line (at -10.16 7.62 0) (length 2.54)
          (name "VCC1" (effects (font (size 1.27 1.27))))
          (number "1" (effects (font (size 1.27 1.27))))
        )
        (pin input line (at -10.16 1.27 0) (length 2.54)
          (name "INA" (effects (font (size 1.27 1.27))))
          (number "2" (effects (font (size 1.27 1.27))))
        )
        (pin input line (at -10.16 -1.27 0) (length 2.54)
          (name "INB" (effects (font (size 1.27 1.27))))
          (number "3" (effects (font (size 1.27 1.27))))
        )
        (pin power_in line (at -10.16 -7.62 0) (length 2.54)
          (name "GND1" (effects (font (size 1.27 1.27))))
          (number "4" (effects (font (size 1.27 1.27))))
        )
        (pin power_in line (at 10.16 -7.62 180) (length 2.54)
          (name "GND2" (effects (font (size 1.27 1.27))))
          (number "5" (effects (font (size 1.27 1.27))))
        )
        (pin output line (at 10.16 -1.27 180) (length 2.54)
          (name "OUTB" (effects (font (size 1.27 1.27))))
          (number "6" (effects (font (size 1.27 1.27))))
        )
        (pin output line (at 10.16 1.27 180) (length 2.54)
          (name "OUTA" (effects (font (size 1.27 1.27))))
          (number "7" (effects (font (size 1.27 1.27))))
        )
        (pin power_in line (at 10.16 7.62 180) (length 2.54)
          (name "VCC2" (effects (font (size 1.27 1.27))))
          (number "8" (effects (font (size 1.27 1.27))))
        )
      )
    )
    (symbol "AT-IC:ISO6721-Q1" (in_bom yes) (on_board yes)
      (property "Reference" "U" (at 0 -11.43 0)
        (effects (font (size 1.27 1.27)))
      )
      (property "Value" "ISO6721-Q1" (at 0 11.43 0)
        (effects (font (size 1.27 1.27)))
      )
      (property "Footprint" "" (at 0 0 0)
        (effects (font (size 1.27 1.27)) hide)
      )
      (property "Datasheet" "" (at 0 0 0)
        (effects (font (size 1.27 1.27)) hide)
      )
      (property "ki_description" "General Purpose Reinforced and Basic Dual-Channel Automotive Digital Isolator" (at 0 0 0)
        (effects (font (size 1.27 1.27)) hide)
      )
      (symbol "ISO6721-Q1_1_1"
        (rectangle (start -7.62 10.16) (end 7.62 -10.16)
          (stroke (width 0) (type default))
          (fill (type background))
        )
        (pin power_in line (at -10.16 7.62 0) (length 2.54)
          (name "VCC1" (effects (font (size 1.27 1.27))))
          (number "1" (effects (font (size 1.27 1.27))))
        )
        (pin output line (at -10.16 1.27 0) (length 2.54)
          (name "OUTA" (effects (font (size 1.27 1.27))))
          (number "2" (effects (font (size 1.27 1.27))))
        )
        (pin input line (at -10.16 -1.27 0) (length 2.54)
          (name "INB" (effects (font (size 1.27 1.27))))
          (number "3" (effects (font (size 1.27 1.27))))
        )
        (pin power_in line (at -10.16 -7.62 0) (length 2.54)
          (name "GND1" (effects (font (size 1.27 1.27))))
          (number "4" (effects (font (size 1.27 1.27))))
        )
        (pin power_in line (at 10.16 -7.62 180) (length 2.54)
          (name "GND2" (effects (font (size 1.27 1.27))))
          (number "5" (effects (font (size 1.27 1.27))))
        )
        (pin output line (at 10.16 -1.27 180) (length 2.54)
          (name "OUTB" (effects (font (size 1.27 1.27))))
          (number "6" (effects (font (size 1.27 1.27))))
        )
        (pin input line (at 10.16 1.27 180) (length 2.54)
          (name "INA" (effects (font (size 1.27 1.27))))
          (number "7" (effects (font (size 1.27 1.27))))
        )
        (pin power_in line (at 10.16 7.62 180) (length 2.54)
          (name "VCC2" (effects (font (size 1.27 1.27))))
          (number "8" (effects (font (size 1.27 1.27))))
        )
      )
    )
    (symbol "Connector_Generic:Conn_01x10" (pin_names (offset 1.016) hide) (in_bom yes) (on_board yes)
      (property "Reference" "J" (at 0 12.7 0)
        (effects (font (size 1.27 1.27)))
      )
      (property "Value" "Conn_01x10" (at 0 -15.24 0)
        (effects (font (size 1.27 1.27)))
      )
      (property "Footprint" "" (at 0 0 0)
        (effects (font (size 1.27 1.27)) hide)
      )
      (property "Datasheet" "~" (at 0 0 0)
        (effects (font (size 1.27 1.27)) hide)
      )
      (property "ki_keywords" "connector" (at 0 0 0)
        (effects (font (size 1.27 1.27)) hide)
      )
      (property "ki_description" "Generic connector, single row, 01x10, script generated (kicad-library-utils/schlib/autogen/connector/)" (at 0 0 0)
        (effects (font (size 1.27 1.27)) hide)
      )
      (property "ki_fp_filters" "Connector*:*_1x??_*" (at 0 0 0)
        (effects (font (size 1.27 1.27)) hide)
      )
      (symbol "Conn_01x10_1_1"
        (rectangle (start -1.27 -12.573) (end 0 -12.827)
          (stroke (width 0.1524) (type default))
          (fill (type none))
        )
        (rectangle (start -1.27 -10.033) (end 0 -10.287)
          (stroke (width 0.1524) (type default))
          (fill (type none))
        )
        (rectangle (start -1.27 -7.493) (end 0 -7.747)
          (stroke (width 0.1524) (type default))
          (fill (type none))
        )
        (rectangle (start -1.27 -4.953) (end 0 -5.207)
          (stroke (width 0.1524) (type default))
          (fill (type none))
        )
        (rectangle (start -1.27 -2.413) (end 0 -2.667)
          (stroke (width 0.1524) (type default))
          (fill (type none))
        )
        (rectangle (start -1.27 0.127) (end 0 -0.127)
          (stroke (width 0.1524) (type default))
          (fill (type none))
        )
        (rectangle (start -1.27 2.667) (end 0 2.413)
          (stroke (width 0.1524) (type default))
          (fill (type none))
        )
        (rectangle (start -1.27 5.207) (end 0 4.953)
          (stroke (width 0.1524) (type default))
          (fill (type none))
        )
        (rectangle (start -1.27 7.747) (end 0 7.493)
          (stroke (width 0.1524) (type default))
          (fill (type none))
        )
        (rectangle (start -1.27 10.287) (end 0 10.033)
          (stroke (width 0.1524) (type default))
          (fill (type none))
        )
        (rectangle (start -1.27 11.43) (end 1.27 -13.97)
          (stroke (width 0.254) (type default))
          (fill (type background))
        )
        (pin passive line (at -5.08 10.16 0) (length 3.81)
          (name "Pin_1" (effects (font (size 1.27 1.27))))
          (number "1" (effects (font (size 1.27 1.27))))
        )
        (pin passive line (at -5.08 -12.7 0) (length 3.81)
          (name "Pin_10" (effects (font (size 1.27 1.27))))
          (number "10" (effects (font (size 1.27 1.27))))
        )
        (pin passive line (at -5.08 7.62 0) (length 3.81)
          (name "Pin_2" (effects (font (size 1.27 1.27))))
          (number "2" (effects (font (size 1.27 1.27))))
        )
        (pin passive line (at -5.08 5.08 0) (length 3.81)
          (name "Pin_3" (effects (font (size 1.27 1.27))))
          (number "3" (effects (font (size 1.27 1.27))))
        )
        (pin passive line (at -5.08 2.54 0) (length 3.81)
          (name "Pin_4" (effects (font (size 1.27 1.27))))
          (number "4" (effects (font (size 1.27 1.27))))
        )
        (pin passive line (at -5.08 0 0) (length 3.81)
          (name "Pin_5" (effects (font (size 1.27 1.27))))
          (number "5" (effects (font (size 1.27 1.27))))
        )
        (pin passive line (at -5.08 -2.54 0) (length 3.81)
          (name "Pin_6" (effects (font (size 1.27 1.27))))
          (number "6" (effects (font (size 1.27 1.27))))
        )
        (pin passive line (at -5.08 -5.08 0) (length 3.81)
          (name "Pin_7" (effects (font (size 1.27 1.27))))
          (number "7" (effects (font (size 1.27 1.27))))
        )
        (pin passive line (at -5.08 -7.62 0) (length 3.81)
          (name "Pin_8" (effects (font (size 1.27 1.27))))
          (number "8" (effects (font (size 1.27 1.27))))
        )
        (pin passive line (at -5.08 -10.16 0) (length 3.81)
          (name "Pin_9" (effects (font (size 1.27 1.27))))
          (number "9" (effects (font (size 1.27 1.27))))
        )
      )
    )
    (symbol "Device:C_Small" (pin_numbers hide) (pin_names (offset 0.254) hide) (in_bom yes) (on_board yes)
      (property "Reference" "C" (at 0.254 1.778 0)
        (effects (font (size 1.27 1.27)) (justify left))
      )
      (property "Value" "C_Small" (at 0.254 -2.032 0)
        (effects (font (size 1.27 1.27)) (justify left))
      )
      (property "Footprint" "" (at 0 0 0)
        (effects (font (size 1.27 1.27)) hide)
      )
      (property "Datasheet" "~" (at 0 0 0)
        (effects (font (size 1.27 1.27)) hide)
      )
      (property "ki_keywords" "capacitor cap" (at 0 0 0)
        (effects (font (size 1.27 1.27)) hide)
      )
      (property "ki_description" "Unpolarized capacitor, small symbol" (at 0 0 0)
        (effects (font (size 1.27 1.27)) hide)
      )
      (property "ki_fp_filters" "C_*" (at 0 0 0)
        (effects (font (size 1.27 1.27)) hide)
      )
      (symbol "C_Small_0_1"
        (polyline
          (pts
            (xy -1.524 -0.508)
            (xy 1.524 -0.508)
          )
          (stroke (width 0.3302) (type default))
          (fill (type none))
        )
        (polyline
          (pts
            (xy -1.524 0.508)
            (xy 1.524 0.508)
          )
          (stroke (width 0.3048) (type default))
          (fill (type none))
        )
      )
      (symbol "C_Small_1_1"
        (pin passive line (at 0 2.54 270) (length 2.032)
          (name "~" (effects (font (size 1.27 1.27))))
          (number "1" (effects (font (size 1.27 1.27))))
        )
        (pin passive line (at 0 -2.54 90) (length 2.032)
          (name "~" (effects (font (size 1.27 1.27))))
          (number "2" (effects (font (size 1.27 1.27))))
        )
      )
    )
    (symbol "Device:R_Small_US" (pin_numbers hide) (pin_names (offset 0.254) hide) (in_bom yes) (on_board yes)
      (property "Reference" "R" (at 0.762 0.508 0)
        (effects (font (size 1.27 1.27)) (justify left))
      )
      (property "Value" "R_Small_US" (at 0.762 -1.016 0)
        (effects (font (size 1.27 1.27)) (justify left))
      )
      (property "Footprint" "" (at 0 0 0)
        (effects (font (size 1.27 1.27)) hide)
      )
      (property "Datasheet" "~" (at 0 0 0)
        (effects (font (size 1.27 1.27)) hide)
      )
      (property "ki_keywords" "r resistor" (at 0 0 0)
        (effects (font (size 1.27 1.27)) hide)
      )
      (property "ki_description" "Resistor, small US symbol" (at 0 0 0)
        (effects (font (size 1.27 1.27)) hide)
      )
      (property "ki_fp_filters" "R_*" (at 0 0 0)
        (effects (font (size 1.27 1.27)) hide)
      )
      (symbol "R_Small_US_1_1"
        (polyline
          (pts
            (xy 0 0)
            (xy 1.016 -0.381)
            (xy 0 -0.762)
            (xy -1.016 -1.143)
            (xy 0 -1.524)
          )
          (stroke (width 0) (type default))
          (fill (type none))
        )
        (polyline
          (pts
            (xy 0 1.524)
            (xy 1.016 1.143)
            (xy 0 0.762)
            (xy -1.016 0.381)
            (xy 0 0)
          )
          (stroke (width 0) (type default))
          (fill (type none))
        )
        (pin passive line (at 0 2.54 270) (length 1.016)
          (name "~" (effects (font (size 1.27 1.27))))
          (number "1" (effects (font (size 1.27 1.27))))
        )
        (pin passive line (at 0 -2.54 90) (length 1.016)
          (name "~" (effects (font (size 1.27 1.27))))
          (number "2" (effects (font (size 1.27 1.27))))
        )
      )
    )
    (symbol "power:+3V3" (power) (pin_names (offset 0)) (in_bom yes) (on_board yes)
      (property "Reference" "#PWR" (at 0 -3.81 0)
        (effects (font (size 1.27 1.27)) hide)
      )
      (property "Value" "+3V3" (at 0 3.556 0)
        (effects (font (size 1.27 1.27)))
      )
      (property "Footprint" "" (at 0 0 0)
        (effects (font (size 1.27 1.27)) hide)
      )
      (property "Datasheet" "" (at 0 0 0)
        (effects (font (size 1.27 1.27)) hide)
      )
      (property "ki_keywords" "global power" (at 0 0 0)
        (effects (font (size 1.27 1.27)) hide)
      )
      (property "ki_description" "Power symbol creates a global label with name \"+3V3\"" (at 0 0 0)
        (effects (font (size 1.27 1.27)) hide)
      )
      (symbol "+3V3_0_1"
        (polyline
          (pts
            (xy -0.762 1.27)
            (xy 0 2.54)
          )
          (stroke (width 0) (type default))
          (fill (type none))
        )
        (polyline
          (pts
            (xy 0 0)
            (xy 0 2.54)
          )
          (stroke (width 0) (type default))
          (fill (type none))
        )
        (polyline
          (pts
            (xy 0 2.54)
            (xy 0.762 1.27)
          )
          (stroke (width 0) (type default))
          (fill (type none))
        )
      )
      (symbol "+3V3_1_1"
        (pin power_in line (at 0 0 90) (length 0) hide
          (name "+3V3" (effects (font (size 1.27 1.27))))
          (number "1" (effects (font (size 1.27 1.27))))
        )
      )
    )
    (symbol "power:GND" (power) (pin_names (offset 0)) (in_bom yes) (on_board yes)
      (property "Reference" "#PWR" (at 0 -6.35 0)
        (effects (font (size 1.27 1.27)) hide)
      )
      (property "Value" "GND" (at 0 -3.81 0)
        (effects (font (size 1.27 1.27)))
      )
      (property "Footprint" "" (at 0 0 0)
        (effects (font (size 1.27 1.27)) hide)
      )
      (property "Datasheet" "" (at 0 0 0)
        (effects (font (size 1.27 1.27)) hide)
      )
      (property "ki_keywords" "global power" (at 0 0 0)
        (effects (font (size 1.27 1.27)) hide)
      )
      (property "ki_description" "Power symbol creates a global label with name \"GND\" , ground" (at 0 0 0)
        (effects (font (size 1.27 1.27)) hide)
      )
      (symbol "GND_0_1"
        (polyline
          (pts
            (xy 0 0)
            (xy 0 -1.27)
            (xy 1.27 -1.27)
            (xy 0 -2.54)
            (xy -1.27 -1.27)
            (xy 0 -1.27)
          )
          (stroke (width 0) (type default))
          (fill (type none))
        )
      )
      (symbol "GND_1_1"
        (pin power_in line (at 0 0 270) (length 0) hide
          (name "GND" (effects (font (size 1.27 1.27))))
          (number "1" (effects (font (size 1.27 1.27))))
        )
      )
    )
    (symbol "power:PWR_FLAG" (power) (pin_numbers hide) (pin_names (offset 0) hide) (in_bom yes) (on_board yes)
      (property "Reference" "#FLG" (at 0 1.905 0)
        (effects (font (size 1.27 1.27)) hide)
      )
      (property "Value" "PWR_FLAG" (at 0 3.81 0)
        (effects (font (size 1.27 1.27)))
      )
      (property "Footprint" "" (at 0 0 0)
        (effects (font (size 1.27 1.27)) hide)
      )
      (property "Datasheet" "~" (at 0 0 0)
        (effects (font (size 1.27 1.27)) hide)
      )
      (property "ki_keywords" "flag power" (at 0 0 0)
        (effects (font (size 1.27 1.27)) hide)
      )
      (property "ki_description" "Special symbol for telling ERC where power comes from" (at 0 0 0)
        (effects (font (size 1.27 1.27)) hide)
      )
      (symbol "PWR_FLAG_0_0"
        (pin power_out line (at 0 0 90) (length 0)
          (name "pwr" (effects (font (size 1.27 1.27))))
          (number "1" (effects (font (size 1.27 1.27))))
        )
      )
      (symbol "PWR_FLAG_0_1"
        (polyline
          (pts
            (xy 0 0)
            (xy 0 1.27)
            (xy -1.016 1.905)
            (xy 0 2.54)
            (xy 1.016 1.905)
            (xy 0 1.27)
          )
          (stroke (width 0) (type default))
          (fill (type none))
        )
      )
    )
  )

  (junction (at 226.06 110.49) (diameter 0) (color 0 0 0 0)
    (uuid 1e47894e-40e1-47d8-a8a9-8e6aa3130b70)
  )
  (junction (at 170.18 29.21) (diameter 0) (color 0 0 0 0)
    (uuid 31f6af39-702c-417d-a558-d2a9fa1d3111)
  )
  (junction (at 227.33 26.67) (diameter 0) (color 0 0 0 0)
    (uuid 5858001e-6bd1-4882-acb2-25dc81566d4d)
  )
  (junction (at 226.06 67.31) (diameter 0) (color 0 0 0 0)
    (uuid 5ee42dc5-5102-42d9-a3d8-f376d17e74e9)
  )
  (junction (at 93.98 44.45) (diameter 0) (color 0 0 0 0)
    (uuid 8313ac2d-1434-45b2-9e39-dfeeeb699fae)
  )
  (junction (at 58.42 41.91) (diameter 0) (color 0 0 0 0)
    (uuid ac18971b-56d9-48d4-b4b8-e51b3dff96cf)
  )
  (junction (at 46.99 39.37) (diameter 0) (color 0 0 0 0)
    (uuid b2317edf-a680-424a-9fe7-0cc29372ef9d)
  )
  (junction (at 171.45 69.85) (diameter 0) (color 0 0 0 0)
    (uuid d65997c4-6834-47e8-9326-548195265743)
  )
  (junction (at 171.45 113.03) (diameter 0) (color 0 0 0 0)
    (uuid edd417b2-e2b1-42d9-99b3-1df9a1fa21db)
  )

  (bus_entry (at 248.92 127) (size -2.54 2.54)
    (stroke (width 0) (type default))
    (uuid 454f9b9b-ac20-470a-8124-d6deb392ab09)
  )
  (bus_entry (at 105.41 41.91) (size -2.54 2.54)
    (stroke (width 0) (type default))
    (uuid 926bf79a-9d85-4d41-bfac-08ddeed494e2)
  )
  (bus_entry (at 248.92 129.54) (size -2.54 2.54)
    (stroke (width 0) (type default))
    (uuid 956d1878-8e53-4213-a6f4-7f2bb524924e)
  )
  (bus_entry (at 248.92 83.82) (size -2.54 2.54)
    (stroke (width 0) (type default))
    (uuid 96465038-23c7-4fcb-aa7c-75828fbd8a9c)
  )
  (bus_entry (at 248.92 86.36) (size -2.54 2.54)
    (stroke (width 0) (type default))
    (uuid adab56bb-1c0a-4372-bf05-b504bf2481a8)
  )
  (bus_entry (at 247.65 43.18) (size -2.54 2.54)
    (stroke (width 0) (type default))
    (uuid b4c6741d-f036-44d8-b956-15dc0b995c8a)
  )
  (bus_entry (at 105.41 44.45) (size -2.54 2.54)
    (stroke (width 0) (type default))
    (uuid c545d866-89ef-4058-b388-d43f34c80116)
  )
  (bus_entry (at 105.41 44.45) (size -2.54 2.54)
    (stroke (width 0) (type default))
    (uuid eecacf84-dbe5-4eb9-8f3b-d01332919bb1)
  )
  (bus_entry (at 247.65 45.72) (size -2.54 2.54)
    (stroke (width 0) (type default))
    (uuid f0334edc-44fc-4fda-91da-032c82eb0e87)
  )

  (wire (pts (xy 93.98 44.45) (xy 102.87 44.45))
    (stroke (width 0) (type default))
    (uuid 017cc3ed-d679-49e0-8317-757795751262)
  )
  (wire (pts (xy 209.55 95.25) (xy 212.09 95.25))
    (stroke (width 0) (type default))
    (uuid 0320364a-9f1d-4a50-9ed1-42891dfb40a8)
  )
  (wire (pts (xy 39.37 59.69) (xy 45.72 59.69))
    (stroke (width 0) (type default))
    (uuid 052f4ee1-aa5e-48be-9caf-8cd58cceaac1)
  )
  (wire (pts (xy 58.42 35.56) (xy 58.42 41.91))
    (stroke (width 0) (type default))
    (uuid 07086120-49c0-4404-a46e-a11814fdb39d)
  )
  (wire (pts (xy 209.55 129.54) (xy 246.38 129.54))
    (stroke (width 0) (type default))
    (uuid 08789900-152a-41f8-b6d0-4905d3c40dea)
  )
  (wire (pts (xy 170.18 39.37) (xy 170.18 36.83))
    (stroke (width 0) (type default))
    (uuid 08f12b06-b7b9-4299-b73e-91cbb2854513)
  )
  (wire (pts (xy 212.09 123.19) (xy 212.09 110.49))
    (stroke (width 0) (type default))
    (uuid 0bfa17ac-f0de-4356-b771-5633215868ef)
  )
  (wire (pts (xy 186.69 80.01) (xy 186.69 69.85))
    (stroke (width 0) (type default))
    (uuid 0dbada0d-bb5e-475a-8829-8e7f31f8cc8c)
  )
  (wire (pts (xy 39.37 46.99) (xy 102.87 46.99))
    (stroke (width 0) (type default))
    (uuid 10dc33ee-15e9-4eb8-a83b-08fd96070427)
  )
  (wire (pts (xy 167.64 29.21) (xy 170.18 29.21))
    (stroke (width 0) (type default))
    (uuid 11e338ba-ea65-4fe1-9171-04a5ebdd322e)
  )
  (wire (pts (xy 226.06 110.49) (xy 226.06 113.03))
    (stroke (width 0) (type default))
    (uuid 18b64ae0-8c7c-40b5-b43a-72866bb023e8)
  )
  (wire (pts (xy 209.55 86.36) (xy 246.38 86.36))
    (stroke (width 0) (type default))
    (uuid 2294fb24-a385-42ca-8b7e-dd44e0841368)
  )
  (wire (pts (xy 168.91 69.85) (xy 171.45 69.85))
    (stroke (width 0) (type default))
    (uuid 27ee795f-2c37-4d8a-b1ec-77a7e4c7d06e)
  )
  (wire (pts (xy 170.18 29.21) (xy 170.18 31.75))
    (stroke (width 0) (type default))
    (uuid 29bd4be5-2cfc-43b3-980c-e9d7c4c76296)
  )
  (wire (pts (xy 189.23 88.9) (xy 182.88 88.9))
    (stroke (width 0) (type default))
    (uuid 2eb6f3a4-d58a-461c-9bd8-5a5b087fee9c)
  )
  (wire (pts (xy 168.91 113.03) (xy 171.45 113.03))
    (stroke (width 0) (type default))
    (uuid 31d0d6af-28ac-48ce-8558-07627a82084a)
  )
  (wire (pts (xy 189.23 45.72) (xy 182.88 45.72))
    (stroke (width 0) (type default))
    (uuid 32f96465-733e-4efe-9027-66e8421aeeb0)
  )
  (wire (pts (xy 209.55 48.26) (xy 245.11 48.26))
    (stroke (width 0) (type default))
    (uuid 3328ff45-9d7c-4091-abdb-0415bc7bf8a2)
  )
  (wire (pts (xy 46.99 39.37) (xy 86.36 39.37))
    (stroke (width 0) (type default))
    (uuid 33e13d47-2dec-4b56-9e09-cec0800ec931)
  )
  (wire (pts (xy 189.23 80.01) (xy 186.69 80.01))
    (stroke (width 0) (type default))
    (uuid 359e839b-123d-4dc3-a65e-6b9628abbe3c)
  )
  (wire (pts (xy 171.45 123.19) (xy 171.45 120.65))
    (stroke (width 0) (type default))
    (uuid 365d60aa-7740-4c36-aab1-c9ae7dfc49d2)
  )
  (bus (pts (xy 250.19 80.01) (xy 248.92 80.01))
    (stroke (width 0) (type default))
    (uuid 3cab0bc8-0d72-434b-a9fe-8a5eb20459a5)
  )
  (bus (pts (xy 247.65 39.37) (xy 247.65 43.18))
    (stroke (width 0) (type default))
    (uuid 3d1b6f9a-f915-456d-bcc5-8361750c1b5b)
  )

  (wire (pts (xy 182.88 138.43) (xy 189.23 138.43))
    (stroke (width 0) (type default))
    (uuid 40f20eeb-e3b2-4159-bdde-15836f2f90a5)
  )
  (wire (pts (xy 39.37 44.45) (xy 93.98 44.45))
    (stroke (width 0) (type default))
    (uuid 43cd5392-bf37-4d80-ae65-d8f373293735)
  )
  (wire (pts (xy 39.37 39.37) (xy 46.99 39.37))
    (stroke (width 0) (type default))
    (uuid 478a13e5-4610-44f9-ab6c-b0e70a8e6184)
  )
  (wire (pts (xy 91.44 39.37) (xy 93.98 39.37))
    (stroke (width 0) (type default))
    (uuid 48773c9e-fd2a-4f73-bf4b-975480788e3e)
  )
  (wire (pts (xy 58.42 41.91) (xy 64.77 41.91))
    (stroke (width 0) (type default))
    (uuid 49348ccd-e700-4cb1-a67e-154bd035750f)
  )
  (bus (pts (xy 106.68 40.64) (xy 105.41 40.64))
    (stroke (width 0) (type default))
    (uuid 4e2584c5-5cc8-4bc3-8488-f5c71c3018fb)
  )

  (wire (pts (xy 209.55 123.19) (xy 212.09 123.19))
    (stroke (width 0) (type default))
    (uuid 4f63f8a0-b5cd-4bda-b0e6-c51a314c5e9d)
  )
  (wire (pts (xy 189.23 123.19) (xy 185.42 123.19))
    (stroke (width 0) (type default))
    (uuid 521ccc53-7014-4977-95fe-cfb885442992)
  )
  (wire (pts (xy 212.09 110.49) (xy 226.06 110.49))
    (stroke (width 0) (type default))
    (uuid 5271473a-7351-4b48-a99e-91724579974f)
  )
  (wire (pts (xy 171.45 80.01) (xy 171.45 77.47))
    (stroke (width 0) (type default))
    (uuid 570edc93-8164-4da1-af23-63f30b7b0233)
  )
  (wire (pts (xy 212.09 138.43) (xy 212.09 140.97))
    (stroke (width 0) (type default))
    (uuid 580799ca-e933-4c70-9002-3379324aa769)
  )
  (bus (pts (xy 248.92 86.36) (xy 248.92 127))
    (stroke (width 0) (type default))
    (uuid 5a81b3fa-ac29-48a0-8f18-4d985b0037e5)
  )
  (bus (pts (xy 105.41 41.91) (xy 105.41 44.45))
    (stroke (width 0) (type default))
    (uuid 5be28f44-7a49-4ca5-9ac8-fac41be44097)
  )

  (wire (pts (xy 189.23 39.37) (xy 185.42 39.37))
    (stroke (width 0) (type default))
    (uuid 5e4422aa-21d3-4ef8-9ae1-aa14852c9b81)
  )
  (wire (pts (xy 227.33 36.83) (xy 227.33 34.29))
    (stroke (width 0) (type default))
    (uuid 5edb5aef-fa55-4a50-876b-870adb22653b)
  )
  (wire (pts (xy 209.55 138.43) (xy 212.09 138.43))
    (stroke (width 0) (type default))
    (uuid 609beed8-ccf9-414f-a370-7ef8df1e2627)
  )
  (wire (pts (xy 182.88 95.25) (xy 189.23 95.25))
    (stroke (width 0) (type default))
    (uuid 60d6484f-4d6d-46c1-8549-7648602132b0)
  )
  (bus (pts (xy 251.46 39.37) (xy 247.65 39.37))
    (stroke (width 0) (type default))
    (uuid 6859d202-4519-4fdf-9ec8-85b81b0e75d0)
  )

  (wire (pts (xy 226.06 77.47) (xy 226.06 74.93))
    (stroke (width 0) (type default))
    (uuid 6d0cb9f3-8931-432d-a9a4-c951b126eac6)
  )
  (wire (pts (xy 185.42 113.03) (xy 171.45 113.03))
    (stroke (width 0) (type default))
    (uuid 6d4f6436-bab5-4565-ac22-92f07738c1a4)
  )
  (wire (pts (xy 167.64 39.37) (xy 170.18 39.37))
    (stroke (width 0) (type default))
    (uuid 70deb25d-0608-4c43-bf10-335e763c6660)
  )
  (bus (pts (xy 248.92 127) (xy 248.92 129.54))
    (stroke (width 0) (type default))
    (uuid 71038c6f-1de6-4dec-93f7-9d48557430c1)
  )

  (wire (pts (xy 186.69 69.85) (xy 171.45 69.85))
    (stroke (width 0) (type default))
    (uuid 76aa2fd4-3538-438d-af4c-d8ee274ecc6f)
  )
  (wire (pts (xy 39.37 52.07) (xy 45.72 52.07))
    (stroke (width 0) (type default))
    (uuid 7fef4abd-8348-48a4-9cfb-0041c4ce690f)
  )
  (wire (pts (xy 189.23 132.08) (xy 182.88 132.08))
    (stroke (width 0) (type default))
    (uuid 80ca01dd-c138-4970-afd6-142a6d559da0)
  )
  (wire (pts (xy 93.98 39.37) (xy 93.98 44.45))
    (stroke (width 0) (type default))
    (uuid 82aa598c-735c-481f-afa3-3f4b53afb40a)
  )
  (wire (pts (xy 209.55 45.72) (xy 245.11 45.72))
    (stroke (width 0) (type default))
    (uuid 854315da-52dd-4cd4-86a7-860204db8a52)
  )
  (bus (pts (xy 105.41 40.64) (xy 105.41 41.91))
    (stroke (width 0) (type default))
    (uuid 8c45b5b3-3c79-4a68-82e2-3606f71b1f1e)
  )

  (wire (pts (xy 171.45 69.85) (xy 171.45 72.39))
    (stroke (width 0) (type default))
    (uuid 8d18da07-6114-4931-bb87-0500f801ff70)
  )
  (wire (pts (xy 212.09 95.25) (xy 212.09 97.79))
    (stroke (width 0) (type default))
    (uuid 92b05024-46f1-41ea-aec3-c182ddb6df04)
  )
  (wire (pts (xy 209.55 88.9) (xy 246.38 88.9))
    (stroke (width 0) (type default))
    (uuid 9cc1b58b-879e-4cc6-ae5d-8c00b2978018)
  )
  (wire (pts (xy 209.55 80.01) (xy 212.09 80.01))
    (stroke (width 0) (type default))
    (uuid 9f29743c-8eb8-4e63-bc1a-282484b47716)
  )
  (wire (pts (xy 227.33 26.67) (xy 227.33 29.21))
    (stroke (width 0) (type default))
    (uuid 9f2fc395-9eb1-42fe-86eb-a54d4a8fa4b7)
  )
  (wire (pts (xy 209.55 39.37) (xy 213.36 39.37))
    (stroke (width 0) (type default))
    (uuid a2c28aa8-a014-4b65-ada8-3d6eac3087b7)
  )
  (wire (pts (xy 213.36 39.37) (xy 213.36 26.67))
    (stroke (width 0) (type default))
    (uuid a516eb80-c1d9-4da8-acea-664c9892cdfd)
  )
  (wire (pts (xy 227.33 24.13) (xy 227.33 26.67))
    (stroke (width 0) (type default))
    (uuid a6dd2ed1-a45a-4631-8524-2c07fc7f1469)
  )
  (wire (pts (xy 212.09 67.31) (xy 226.06 67.31))
    (stroke (width 0) (type default))
    (uuid a773eb8a-ffdb-4bd8-a5d5-d0c9ac5431d3)
  )
  (wire (pts (xy 212.09 54.61) (xy 209.55 54.61))
    (stroke (width 0) (type default))
    (uuid a7eb0cc4-53a9-432a-9179-1c41eb773039)
  )
  (wire (pts (xy 212.09 54.61) (xy 212.09 57.15))
    (stroke (width 0) (type default))
    (uuid aa52847e-060d-4714-a02c-7972d371650f)
  )
  (wire (pts (xy 39.37 54.61) (xy 45.72 54.61))
    (stroke (width 0) (type default))
    (uuid aad054fa-1683-481d-981f-33c75bbea208)
  )
  (wire (pts (xy 185.42 39.37) (xy 185.42 29.21))
    (stroke (width 0) (type default))
    (uuid ab0e1f6b-c1b3-4ae4-a3f7-95123f61e436)
  )
  (wire (pts (xy 189.23 129.54) (xy 182.88 129.54))
    (stroke (width 0) (type default))
    (uuid ab27bb61-7cf8-441f-8647-b6061cd24739)
  )
  (wire (pts (xy 168.91 123.19) (xy 171.45 123.19))
    (stroke (width 0) (type default))
    (uuid b1333a4d-e1dc-43db-8007-2b42744ce93e)
  )
  (wire (pts (xy 39.37 49.53) (xy 45.72 49.53))
    (stroke (width 0) (type default))
    (uuid b1a58ce0-ddae-41f3-9609-db9d846f2989)
  )
  (wire (pts (xy 39.37 62.23) (xy 45.72 62.23))
    (stroke (width 0) (type default))
    (uuid b4b798dc-1f13-4596-ac18-29e90c148725)
  )
  (wire (pts (xy 185.42 123.19) (xy 185.42 113.03))
    (stroke (width 0) (type default))
    (uuid b73a2657-1aba-43d2-8b69-8d3b90107d12)
  )
  (bus (pts (xy 248.92 80.01) (xy 248.92 83.82))
    (stroke (width 0) (type default))
    (uuid b8bcf866-8d3f-4092-a0a7-9d11fec117eb)
  )

  (wire (pts (xy 39.37 57.15) (xy 45.72 57.15))
    (stroke (width 0) (type default))
    (uuid bfe9be35-45f2-4c42-8635-c0e4442f046d)
  )
  (bus (pts (xy 247.65 43.18) (xy 247.65 45.72))
    (stroke (width 0) (type default))
    (uuid c162b823-6155-429b-bd05-306859c6fa47)
  )

  (wire (pts (xy 226.06 64.77) (xy 226.06 67.31))
    (stroke (width 0) (type default))
    (uuid c2db4dd3-7c53-4a42-a068-afb537f730c6)
  )
  (wire (pts (xy 185.42 29.21) (xy 170.18 29.21))
    (stroke (width 0) (type default))
    (uuid c4627b10-9586-42b6-b562-0f9969e24acc)
  )
  (wire (pts (xy 209.55 132.08) (xy 246.38 132.08))
    (stroke (width 0) (type default))
    (uuid c930c577-4e4b-4d67-a52d-a2e09a7e7102)
  )
  (wire (pts (xy 46.99 35.56) (xy 46.99 39.37))
    (stroke (width 0) (type default))
    (uuid cb289960-e387-4815-bfc6-1ec18710727f)
  )
  (wire (pts (xy 182.88 54.61) (xy 189.23 54.61))
    (stroke (width 0) (type default))
    (uuid ce1e7638-323d-4de6-bb99-a1d4630fc823)
  )
  (wire (pts (xy 189.23 48.26) (xy 182.88 48.26))
    (stroke (width 0) (type default))
    (uuid d22d9f94-f2a7-4a1e-b4ba-a0006165622d)
  )
  (wire (pts (xy 226.06 120.65) (xy 226.06 118.11))
    (stroke (width 0) (type default))
    (uuid d2dc5240-cf0e-411f-acbd-97847a442872)
  )
  (wire (pts (xy 171.45 113.03) (xy 171.45 115.57))
    (stroke (width 0) (type default))
    (uuid d93b195a-614c-4ffb-b940-bc1be433db0f)
  )
  (wire (pts (xy 226.06 67.31) (xy 226.06 69.85))
    (stroke (width 0) (type default))
    (uuid d9e1b6f9-e682-4ba9-8eda-8a1898e3ddad)
  )
  (wire (pts (xy 213.36 26.67) (xy 227.33 26.67))
    (stroke (width 0) (type default))
    (uuid dc60ebe8-5a5c-4ced-bc3c-518b5d58256b)
  )
  (wire (pts (xy 168.91 80.01) (xy 171.45 80.01))
    (stroke (width 0) (type default))
    (uuid dee37e4c-06d9-4736-b559-65794337b06f)
  )
  (wire (pts (xy 39.37 41.91) (xy 58.42 41.91))
    (stroke (width 0) (type default))
    (uuid dff6f0ae-3f7d-4287-b880-2b860db01c27)
  )
  (bus (pts (xy 248.92 83.82) (xy 248.92 86.36))
    (stroke (width 0) (type default))
    (uuid e0a642c4-026f-44d8-a216-4fd8a2ddf6ef)
  )

  (wire (pts (xy 212.09 80.01) (xy 212.09 67.31))
    (stroke (width 0) (type default))
    (uuid e5519fa5-343e-451d-b235-894646046696)
  )
  (wire (pts (xy 189.23 86.36) (xy 182.88 86.36))
    (stroke (width 0) (type default))
    (uuid ec203124-5ee1-4906-a88f-0a7e3d924e77)
  )
  (wire (pts (xy 226.06 107.95) (xy 226.06 110.49))
    (stroke (width 0) (type default))
    (uuid f5a93022-1474-4940-a0d8-dd6755d06857)
  )

  (rectangle (start 151.13 16.51) (end 280.035 168.91)
    (stroke (width 0) (type default))
    (fill (type none))
    (uuid a300a58c-e186-42e6-9abb-9ef7c5ffa3f4)
  )
  (rectangle (start 17.78 16.51) (end 144.78 72.39)
    (stroke (width 0) (type default))
    (fill (type none))
    (uuid a9b53999-29be-43da-be9c-f2d91d00408a)
  )

  (text_box "!!IMPORTANT!!: Use ISO672X \"F\" variants to ensure all output logic levels are \"false\" when the control board is unplugged"
    (at 153.67 149.86 0) (size 123.19 15.24)
    (stroke (width 0) (type default))
    (fill (type none))
    (effects (font (size 2.54 2.54)) (justify left top))
    (uuid b978295a-6467-44a9-91f0-70fe4dce5ebe)
  )

  (text "\"MOSI\" pin 7, \"MISO\" pin 8" (at 72.39 55.88 0)
    (effects (font (size 1.27 1.27)) (justify left bottom))
    (uuid 116004a2-c0d2-469b-bae8-b2e976359572)
  )
  (text "Control Board Connector" (at 19.05 20.32 0)
    (effects (font (size 1.27 1.27)) (justify left bottom))
    (uuid a148ca17-5fff-49b2-ade3-d6bc1a735df6)
  )
  (text "Control Isolation" (at 152.4 19.685 0)
    (effects (font (size 1.27 1.27)) (justify left bottom))
    (uuid d002a479-ce99-4587-9404-92857f05fa55)
  )

  (label "V_{logic}_ISOL" (at 168.91 113.03 180) (fields_autoplaced)
    (effects (font (size 1.27 1.27)) (justify right bottom))
    (uuid 0100915a-b2f0-439e-a444-145fd3f55b96)
  )
  (label "CLK_32K_ISOL" (at 45.72 52.07 0) (fields_autoplaced)
    (effects (font (size 1.27 1.27)) (justify left bottom))
    (uuid 12b5a690-27e0-4863-b981-7ab594152743)
  )
  (label "MCU_BOOT_UART.BOOT0" (at 214.63 129.54 0) (fields_autoplaced)
    (effects (font (size 1.27 1.27)) (justify left bottom))
    (uuid 1a1f2c30-754a-42a8-9b38-46ba7ee879c0)
  )
  (label "CLK_8M_ISOL" (at 182.88 45.72 180) (fields_autoplaced)
    (effects (font (size 1.27 1.27)) (justify right bottom))
    (uuid 1f9c1473-d53b-4c5b-89fc-4d6d1c646434)
  )
  (label "MCU_BOOT_UART.RX" (at 215.9 86.36 0) (fields_autoplaced)
    (effects (font (size 1.27 1.27)) (justify left bottom))
    (uuid 24348a0f-034d-4ba1-89f5-b7c9b02d92a9)
  )
  (label "V_{logic}_ISOL" (at 64.77 41.91 0) (fields_autoplaced)
    (effects (font (size 1.27 1.27)) (justify left bottom))
    (uuid 2523437b-afdc-4d5b-9cad-88d38af5cc7f)
  )
  (label "32KHZ_CLK_REF" (at 217.17 48.26 0) (fields_autoplaced)
    (effects (font (size 1.27 1.27)) (justify left bottom))
    (uuid 3be2e6a7-16f2-4150-b400-0760258fe3f4)
  )
  (label "MCU_BOOT_UART.PWR_EN" (at 64.77 46.99 0) (fields_autoplaced)
    (effects (font (size 1.27 1.27)) (justify left bottom))
    (uuid 573a4a84-8255-4e94-8bdd-5bc9e2b5a98d)
  )
  (label "MCU_BOOT_UART.~{DET}" (at 64.77 44.45 0) (fields_autoplaced)
    (effects (font (size 1.27 1.27)) (justify left bottom))
    (uuid 591f78bb-bc7a-4597-9e4e-557c41724050)
  )
  (label "V_{logic}_ISOL" (at 167.64 29.21 180) (fields_autoplaced)
    (effects (font (size 1.27 1.27)) (justify right bottom))
    (uuid 5f62e3bf-d04b-4355-b5c1-391802ffb633)
  )
  (label "BOOT_UART_BOOT0_ISOL" (at 182.88 129.54 180) (fields_autoplaced)
    (effects (font (size 1.27 1.27)) (justify right bottom))
    (uuid 600f58e2-7a29-4201-80d5-f1be131eda6e)
  )
  (label "BOOT_UART_RX_ISOL" (at 182.88 86.36 180) (fields_autoplaced)
    (effects (font (size 1.27 1.27)) (justify right bottom))
    (uuid 69d1d706-ece0-4812-bf62-1b6bd00f4897)
  )
  (label "MCU_BOOT_UART.TX" (at 215.9 88.9 0) (fields_autoplaced)
    (effects (font (size 1.27 1.27)) (justify left bottom))
    (uuid 73cb94f7-0bff-40a8-bf2b-d6541831b6b3)
  )
  (label "BOOT_UART_RST_ISOL" (at 45.72 62.23 0) (fields_autoplaced)
    (effects (font (size 1.27 1.27)) (justify left bottom))
    (uuid 778aa88d-0d22-4f03-b0fc-c317e47f9f1f)
  )
  (label "GND_ISOL" (at 64.77 39.37 0) (fields_autoplaced)
    (effects (font (size 1.27 1.27)) (justify left bottom))
    (uuid 823cbf53-2c47-48bd-bd5a-9920bd5db64d)
  )
  (label "8MHZ_CLK_REF" (at 217.17 45.72 0) (fields_autoplaced)
    (effects (font (size 1.27 1.27)) (justify left bottom))
    (uuid 8ce9b9f3-b243-453c-8352-e95beb531386)
  )
  (label "BOOT_UART_TX_ISOL" (at 182.88 88.9 180) (fields_autoplaced)
    (effects (font (size 1.27 1.27)) (justify right bottom))
    (uuid a2f59020-473b-4a5d-a63e-633405193e68)
  )
  (label "GND_ISOL" (at 182.88 95.25 180) (fields_autoplaced)
    (effects (font (size 1.27 1.27)) (justify right bottom))
    (uuid ae74b3d7-a0cb-44c8-917f-76d6a332e039)
  )
  (label "BOOT_UART_RST_ISOL" (at 182.88 132.08 180) (fields_autoplaced)
    (effects (font (size 1.27 1.27)) (justify right bottom))
    (uuid badea634-f88b-44b8-befb-c03f735cedf1)
  )
  (label "CLK_32K_ISOL" (at 182.88 48.26 180) (fields_autoplaced)
    (effects (font (size 1.27 1.27)) (justify right bottom))
    (uuid c31d6d7d-f8ed-4fc5-937a-0bee9f62604c)
  )
  (label "GND_ISOL" (at 167.64 39.37 180) (fields_autoplaced)
    (effects (font (size 1.27 1.27)) (justify right bottom))
    (uuid cdcb05b3-51f9-4b30-8bf6-07b161c63c18)
  )
  (label "V_{logic}_ISOL" (at 168.91 69.85 180) (fields_autoplaced)
    (effects (font (size 1.27 1.27)) (justify right bottom))
    (uuid d081d1de-98e7-43ba-9807-bd0350ec7806)
  )
  (label "BOOT_UART_TX_ISOL" (at 45.72 57.15 0) (fields_autoplaced)
    (effects (font (size 1.27 1.27)) (justify left bottom))
    (uuid d205c57a-b8b4-4337-af59-a27d63c0309c)
  )
  (label "BOOT_UART_RX_ISOL" (at 45.72 54.61 0) (fields_autoplaced)
    (effects (font (size 1.27 1.27)) (justify left bottom))
    (uuid d2399f21-434a-4380-89ef-f33d9ff8fa12)
  )
  (label "BOOT_UART_BOOT0_ISOL" (at 45.72 59.69 0) (fields_autoplaced)
    (effects (font (size 1.27 1.27)) (justify left bottom))
    (uuid d83b40af-4d70-4eb1-b2a5-6c7daf170cc6)
  )
  (label "CLK_8M_ISOL" (at 45.72 49.53 0) (fields_autoplaced)
    (effects (font (size 1.27 1.27)) (justify left bottom))
    (uuid de563e39-aafa-46d4-aef8-6b96af539579)
  )
  (label "MCU_BOOT_UART.RST" (at 214.63 132.08 0) (fields_autoplaced)
    (effects (font (size 1.27 1.27)) (justify left bottom))
    (uuid dfd2c83c-bc2a-4166-bce9-d875973cb840)
  )
  (label "GND_ISOL" (at 182.88 54.61 180) (fields_autoplaced)
    (effects (font (size 1.27 1.27)) (justify right bottom))
    (uuid e0b7640c-355a-45c8-a42d-e021f785f2dd)
  )
  (label "GND_ISOL" (at 168.91 80.01 180) (fields_autoplaced)
    (effects (font (size 1.27 1.27)) (justify right bottom))
    (uuid e1ae6d0c-c0ca-4350-93ad-56611585a72f)
  )
  (label "GND_ISOL" (at 168.91 123.19 180) (fields_autoplaced)
    (effects (font (size 1.27 1.27)) (justify right bottom))
    (uuid eee94c72-05c0-472f-aae0-0f5845bf56cb)
  )
  (label "GND_ISOL" (at 182.88 138.43 180) (fields_autoplaced)
    (effects (font (size 1.27 1.27)) (justify right bottom))
    (uuid f8a4a4a4-eceb-411a-aa91-3421b980bbc3)
  )

  (hierarchical_label "MCU_BOOT_UART{AT_UART}" (shape bidirectional) (at 106.68 40.64 0) (fields_autoplaced)
    (effects (font (size 1.27 1.27)) (justify left))
    (uuid 9322b4cc-e8d8-48c0-917e-bb96cf764b8a)
  )
  (hierarchical_label "{SYSCLK}" (shape output) (at 251.46 39.37 0) (fields_autoplaced)
    (effects (font (size 1.27 1.27)) (justify left))
    (uuid d3aec020-5485-4472-8ce0-5eac3926308e)
  )
  (hierarchical_label "MCU_BOOT_UART{AT_UART}" (shape bidirectional) (at 250.19 80.01 0) (fields_autoplaced)
    (effects (font (size 1.27 1.27)) (justify left))
    (uuid ef6ead27-16f0-406d-a5c5-3c58a8110a5e)
  )

  (symbol (lib_id "Device:C_Small") (at 171.45 74.93 0) (unit 1)
    (in_bom yes) (on_board yes) (dnp no) (fields_autoplaced)
    (uuid 05c340d5-6e32-4cbe-a76f-922d106daa47)
    (property "Reference" "C47" (at 173.99 73.6663 0)
      (effects (font (size 1.27 1.27)) (justify left))
    )
    (property "Value" "100n 50V" (at 173.99 76.2063 0)
      (effects (font (size 1.27 1.27)) (justify left))
    )
    (property "Footprint" "Capacitor_SMD:C_0402_1005Metric" (at 171.45 74.93 0)
      (effects (font (size 1.27 1.27)) hide)
    )
    (property "Datasheet" "~" (at 171.45 74.93 0)
      (effects (font (size 1.27 1.27)) hide)
    )
    (property "LCSC" "C307331" (at 173.99 73.6663 0)
      (effects (font (size 1.27 1.27)) hide)
    )
    (pin "1" (uuid 11baef31-cd53-469f-82ee-da78a2a175f1))
    (pin "2" (uuid c4bb8369-4cd8-441b-a5eb-003281f9fcde))
    (instances
      (project "kicker"
        (path "/7c007fad-bfbf-4e78-a837-1f8089552516/e73c114a-5122-4c9a-8f13-6961fcbca2c4"
          (reference "C47") (unit 1)
        )
      )
    )
  )

  (symbol (lib_id "power:GND") (at 212.09 140.97 0) (unit 1)
    (in_bom yes) (on_board yes) (dnp no) (fields_autoplaced)
    (uuid 153d9784-307c-4ab5-8e92-6b8249ca5c78)
    (property "Reference" "#PWR0105" (at 212.09 147.32 0)
      (effects (font (size 1.27 1.27)) hide)
    )
    (property "Value" "GND" (at 212.09 145.415 0)
      (effects (font (size 1.27 1.27)))
    )
    (property "Footprint" "" (at 212.09 140.97 0)
      (effects (font (size 1.27 1.27)) hide)
    )
    (property "Datasheet" "" (at 212.09 140.97 0)
      (effects (font (size 1.27 1.27)) hide)
    )
    (pin "1" (uuid 28016fa6-5007-4832-a6ac-28e80fe0be05))
    (instances
      (project "kicker"
        (path "/7c007fad-bfbf-4e78-a837-1f8089552516/e73c114a-5122-4c9a-8f13-6961fcbca2c4"
          (reference "#PWR0105") (unit 1)
        )
      )
    )
  )

  (symbol (lib_id "Device:C_Small") (at 226.06 72.39 0) (mirror y) (unit 1)
    (in_bom yes) (on_board yes) (dnp no) (fields_autoplaced)
    (uuid 21e57188-3e29-4c93-8ae3-8246bd48eb0b)
    (property "Reference" "C49" (at 223.52 71.1263 0)
      (effects (font (size 1.27 1.27)) (justify left))
    )
    (property "Value" "100n 50V" (at 223.52 73.6663 0)
      (effects (font (size 1.27 1.27)) (justify left))
    )
    (property "Footprint" "Capacitor_SMD:C_0402_1005Metric" (at 226.06 72.39 0)
      (effects (font (size 1.27 1.27)) hide)
    )
    (property "Datasheet" "~" (at 226.06 72.39 0)
      (effects (font (size 1.27 1.27)) hide)
    )
    (property "LCSC" "C307331" (at 223.52 71.1263 0)
      (effects (font (size 1.27 1.27)) hide)
    )
    (pin "1" (uuid a27b9fa5-d42c-4a22-b5d5-6020e9b92f3e))
    (pin "2" (uuid ddd00f0d-2b46-43d6-be93-e6e47579172b))
    (instances
      (project "kicker"
        (path "/7c007fad-bfbf-4e78-a837-1f8089552516/e73c114a-5122-4c9a-8f13-6961fcbca2c4"
          (reference "C49") (unit 1)
        )
      )
    )
  )

  (symbol (lib_id "Connector_Generic:Conn_01x10") (at 34.29 49.53 0) (mirror y) (unit 1)
    (in_bom yes) (on_board yes) (dnp no) (fields_autoplaced)
    (uuid 3f6b4b05-b381-4827-ac4a-a278071e9a44)
    (property "Reference" "J6" (at 34.29 33.02 0)
      (effects (font (size 1.27 1.27)))
    )
    (property "Value" "Conn_01x10" (at 34.29 35.56 0)
      (effects (font (size 1.27 1.27)))
    )
    (property "Footprint" "Connector_JST:JST_SH_SM10B-SRSS-TB_1x10-1MP_P1.00mm_Horizontal" (at 34.29 49.53 0)
      (effects (font (size 1.27 1.27)) hide)
    )
    (property "Datasheet" "~" (at 34.29 49.53 0)
      (effects (font (size 1.27 1.27)) hide)
    )
    (property "LCSC" "C160409" (at 34.29 33.02 0)
      (effects (font (size 1.27 1.27)) hide)
    )
    (pin "1" (uuid 4a204422-5428-484e-b8f0-ebe95a884f0c))
    (pin "10" (uuid 41a9050b-4011-4f23-8f43-7c418b51aea6))
    (pin "2" (uuid 8c794fe0-a384-4e41-b068-acbfd0f5bd81))
    (pin "3" (uuid c5daf84d-1f20-4018-993f-c4c111eccb70))
    (pin "4" (uuid f5f3d71f-1ec6-41a4-9515-78a5aa7675c6))
    (pin "5" (uuid 6c80f4fa-7d13-448b-bc76-9a137c241e64))
    (pin "6" (uuid a04a7de4-1463-4f0e-95ec-9acdb429ba86))
    (pin "7" (uuid f4a76de7-da41-45e2-a498-be4ac1e4e33a))
    (pin "8" (uuid fc1708df-520e-45e7-a9fe-932614c90049))
    (pin "9" (uuid caeca8f0-b48e-42be-917a-d8dc36947ec3))
    (instances
      (project "kicker"
        (path "/7c007fad-bfbf-4e78-a837-1f8089552516/e73c114a-5122-4c9a-8f13-6961fcbca2c4"
          (reference "J6") (unit 1)
        )
      )
    )
  )

  (symbol (lib_id "Device:C_Small") (at 171.45 118.11 0) (unit 1)
    (in_bom yes) (on_board yes) (dnp no) (fields_autoplaced)
    (uuid 506ad091-88e6-49c9-aed2-870dd83c906f)
    (property "Reference" "C48" (at 173.99 116.8463 0)
      (effects (font (size 1.27 1.27)) (justify left))
    )
    (property "Value" "100n 50V" (at 173.99 119.3863 0)
      (effects (font (size 1.27 1.27)) (justify left))
    )
    (property "Footprint" "Capacitor_SMD:C_0402_1005Metric" (at 171.45 118.11 0)
      (effects (font (size 1.27 1.27)) hide)
    )
    (property "Datasheet" "~" (at 171.45 118.11 0)
      (effects (font (size 1.27 1.27)) hide)
    )
    (property "LCSC" "C307331" (at 173.99 116.8463 0)
      (effects (font (size 1.27 1.27)) hide)
    )
    (pin "1" (uuid eaee67ae-8ba6-4cf4-acd0-2d04bed90ee0))
    (pin "2" (uuid 8a3a9e71-d7ea-4f1d-af23-3f44b858e2fb))
    (instances
      (project "kicker"
        (path "/7c007fad-bfbf-4e78-a837-1f8089552516/e73c114a-5122-4c9a-8f13-6961fcbca2c4"
          (reference "C48") (unit 1)
        )
      )
    )
  )

  (symbol (lib_id "power:GND") (at 212.09 97.79 0) (unit 1)
    (in_bom yes) (on_board yes) (dnp no) (fields_autoplaced)
    (uuid 53148aac-61cb-48da-b448-14f4202fc8c7)
    (property "Reference" "#PWR0104" (at 212.09 104.14 0)
      (effects (font (size 1.27 1.27)) hide)
    )
    (property "Value" "GND" (at 212.09 102.235 0)
      (effects (font (size 1.27 1.27)))
    )
    (property "Footprint" "" (at 212.09 97.79 0)
      (effects (font (size 1.27 1.27)) hide)
    )
    (property "Datasheet" "" (at 212.09 97.79 0)
      (effects (font (size 1.27 1.27)) hide)
    )
    (pin "1" (uuid cd88d6d7-65e5-4db1-85ef-8c6468199800))
    (instances
      (project "kicker"
        (path "/7c007fad-bfbf-4e78-a837-1f8089552516/e73c114a-5122-4c9a-8f13-6961fcbca2c4"
          (reference "#PWR0104") (unit 1)
        )
      )
    )
  )

  (symbol (lib_id "power:+3V3") (at 226.06 64.77 0) (unit 1)
    (in_bom yes) (on_board yes) (dnp no) (fields_autoplaced)
    (uuid 53fe2315-b13c-4c4c-9924-e51ed14dde9b)
    (property "Reference" "#PWR0106" (at 226.06 68.58 0)
      (effects (font (size 1.27 1.27)) hide)
    )
    (property "Value" "+3V3" (at 226.06 59.69 0)
      (effects (font (size 1.27 1.27)))
    )
    (property "Footprint" "" (at 226.06 64.77 0)
      (effects (font (size 1.27 1.27)) hide)
    )
    (property "Datasheet" "" (at 226.06 64.77 0)
      (effects (font (size 1.27 1.27)) hide)
    )
    (pin "1" (uuid 50226363-4498-4215-a0bc-85ebf9e60f4a))
    (instances
      (project "kicker"
        (path "/7c007fad-bfbf-4e78-a837-1f8089552516/e73c114a-5122-4c9a-8f13-6961fcbca2c4"
          (reference "#PWR0106") (unit 1)
        )
      )
    )
  )

  (symbol (lib_id "power:+3V3") (at 226.06 107.95 0) (unit 1)
    (in_bom yes) (on_board yes) (dnp no)
    (uuid 59fd1b99-f63e-4c36-8837-fad2cc708eb2)
    (property "Reference" "#PWR0108" (at 226.06 111.76 0)
      (effects (font (size 1.27 1.27)) hide)
    )
    (property "Value" "+3V3" (at 226.06 101.6 0)
      (effects (font (size 1.27 1.27)))
    )
    (property "Footprint" "" (at 226.06 107.95 0)
      (effects (font (size 1.27 1.27)) hide)
    )
    (property "Datasheet" "" (at 226.06 107.95 0)
      (effects (font (size 1.27 1.27)) hide)
    )
    (pin "1" (uuid dfa3a425-1912-466a-ba83-da9e19d2ee35))
    (instances
      (project "kicker"
        (path "/7c007fad-bfbf-4e78-a837-1f8089552516/e73c114a-5122-4c9a-8f13-6961fcbca2c4"
          (reference "#PWR0108") (unit 1)
        )
      )
    )
  )

  (symbol (lib_id "power:+3V3") (at 227.33 24.13 0) (unit 1)
    (in_bom yes) (on_board yes) (dnp no) (fields_autoplaced)
    (uuid 5fcbd00a-1e75-42b3-9fb9-983e4cab5993)
    (property "Reference" "#PWR0110" (at 227.33 27.94 0)
      (effects (font (size 1.27 1.27)) hide)
    )
    (property "Value" "+3V3" (at 227.33 19.05 0)
      (effects (font (size 1.27 1.27)))
    )
    (property "Footprint" "" (at 227.33 24.13 0)
      (effects (font (size 1.27 1.27)) hide)
    )
    (property "Datasheet" "" (at 227.33 24.13 0)
      (effects (font (size 1.27 1.27)) hide)
    )
    (pin "1" (uuid 91dc430d-1ad0-4e37-88e7-9ea8de954b45))
    (instances
      (project "kicker"
        (path "/7c007fad-bfbf-4e78-a837-1f8089552516/e73c114a-5122-4c9a-8f13-6961fcbca2c4"
          (reference "#PWR0110") (unit 1)
        )
      )
    )
  )

  (symbol (lib_id "power:PWR_FLAG") (at 58.42 35.56 0) (unit 1)
    (in_bom yes) (on_board yes) (dnp no) (fields_autoplaced)
    (uuid 68ca74c3-fbbb-4123-b961-808e5e737eeb)
    (property "Reference" "#FLG01" (at 58.42 33.655 0)
      (effects (font (size 1.27 1.27)) hide)
    )
    (property "Value" "PWR_FLAG" (at 58.42 30.48 0)
      (effects (font (size 1.27 1.27)))
    )
    (property "Footprint" "" (at 58.42 35.56 0)
      (effects (font (size 1.27 1.27)) hide)
    )
    (property "Datasheet" "~" (at 58.42 35.56 0)
      (effects (font (size 1.27 1.27)) hide)
    )
    (pin "1" (uuid 3936e89e-d1b0-417b-8a6f-4a6a63ce0aeb))
    (instances
      (project "kicker"
        (path "/7c007fad-bfbf-4e78-a837-1f8089552516/966fab5a-ccd3-4169-a651-1134c1c683b9"
          (reference "#FLG01") (unit 1)
        )
        (path "/7c007fad-bfbf-4e78-a837-1f8089552516"
          (reference "#FLG06") (unit 1)
        )
        (path "/7c007fad-bfbf-4e78-a837-1f8089552516/e73c114a-5122-4c9a-8f13-6961fcbca2c4"
          (reference "#FLG013") (unit 1)
        )
      )
      (project "control"
        (path "/e63e39d7-6ac0-4ffd-8aa3-1841a4541b55/fff34b63-f9ca-49b5-8ad5-f92410864411"
          (reference "#FLG03") (unit 1)
        )
      )
    )
  )

  (symbol (lib_id "AT-IC:ISO6720-Q1") (at 199.39 46.99 0) (unit 1)
    (in_bom yes) (on_board yes) (dnp no) (fields_autoplaced)
    (uuid 695aff85-4097-492d-ab40-cfed15b7779b)
    (property "Reference" "U9" (at 199.39 31.75 0)
      (effects (font (size 1.27 1.27)))
    )
    (property "Value" "ISO6720-Q1" (at 199.39 34.29 0)
      (effects (font (size 1.27 1.27)))
    )
    (property "Footprint" "AT-IC:ISO672X" (at 199.39 46.99 0)
      (effects (font (size 1.27 1.27)) hide)
    )
    (property "Datasheet" "" (at 199.39 46.99 0)
      (effects (font (size 1.27 1.27)) hide)
    )
    (pin "1" (uuid 95035958-fa14-46d5-aa56-2dc6b7aae36a))
    (pin "2" (uuid 9685fd06-ce54-48a0-b606-76960d109d30))
    (pin "3" (uuid 12fef69d-f285-47de-b140-d0f84c33bf35))
    (pin "4" (uuid 7c467bc8-6e2f-4322-afed-9dd5288befae))
    (pin "5" (uuid 36d40cac-21e7-4603-9ff3-b3de153e9040))
    (pin "6" (uuid 53c32c5f-689d-4845-be74-e1e97b7492f0))
    (pin "7" (uuid eec5bb14-42e3-4177-8001-a19d9afe65ba))
    (pin "8" (uuid 9a4620ab-c379-4af3-8587-9fa6b2cd9683))
    (instances
      (project "kicker"
        (path "/7c007fad-bfbf-4e78-a837-1f8089552516/e73c114a-5122-4c9a-8f13-6961fcbca2c4"
          (reference "U9") (unit 1)
        )
      )
    )
  )

  (symbol (lib_id "power:PWR_FLAG") (at 46.99 35.56 0) (unit 1)
    (in_bom yes) (on_board yes) (dnp no) (fields_autoplaced)
    (uuid 720d2307-d9d8-42e5-800c-2c77f087d069)
    (property "Reference" "#FLG01" (at 46.99 33.655 0)
      (effects (font (size 1.27 1.27)) hide)
    )
    (property "Value" "PWR_FLAG" (at 46.99 30.48 0)
      (effects (font (size 1.27 1.27)))
    )
    (property "Footprint" "" (at 46.99 35.56 0)
      (effects (font (size 1.27 1.27)) hide)
    )
    (property "Datasheet" "~" (at 46.99 35.56 0)
      (effects (font (size 1.27 1.27)) hide)
    )
    (pin "1" (uuid 62c59ff6-15e8-4d28-ba8d-da244070b191))
    (instances
      (project "kicker"
        (path "/7c007fad-bfbf-4e78-a837-1f8089552516/966fab5a-ccd3-4169-a651-1134c1c683b9"
          (reference "#FLG01") (unit 1)
        )
        (path "/7c007fad-bfbf-4e78-a837-1f8089552516"
          (reference "#FLG05") (unit 1)
        )
        (path "/7c007fad-bfbf-4e78-a837-1f8089552516/e73c114a-5122-4c9a-8f13-6961fcbca2c4"
          (reference "#FLG012") (unit 1)
        )
      )
      (project "control"
        (path "/e63e39d7-6ac0-4ffd-8aa3-1841a4541b55/fff34b63-f9ca-49b5-8ad5-f92410864411"
          (reference "#FLG03") (unit 1)
        )
      )
    )
  )

  (symbol (lib_id "power:GND") (at 226.06 77.47 0) (unit 1)
    (in_bom yes) (on_board yes) (dnp no) (fields_autoplaced)
    (uuid 7b47d0d1-127f-4453-a347-e84422835a18)
    (property "Reference" "#PWR0107" (at 226.06 83.82 0)
      (effects (font (size 1.27 1.27)) hide)
    )
    (property "Value" "GND" (at 226.06 81.915 0)
      (effects (font (size 1.27 1.27)))
    )
    (property "Footprint" "" (at 226.06 77.47 0)
      (effects (font (size 1.27 1.27)) hide)
    )
    (property "Datasheet" "" (at 226.06 77.47 0)
      (effects (font (size 1.27 1.27)) hide)
    )
    (pin "1" (uuid 75633ec4-2ddd-4d16-afd4-fe5ef857902f))
    (instances
      (project "kicker"
        (path "/7c007fad-bfbf-4e78-a837-1f8089552516/e73c114a-5122-4c9a-8f13-6961fcbca2c4"
          (reference "#PWR0107") (unit 1)
        )
      )
    )
  )

  (symbol (lib_id "Device:C_Small") (at 226.06 115.57 0) (mirror y) (unit 1)
    (in_bom yes) (on_board yes) (dnp no) (fields_autoplaced)
    (uuid 856fbbbc-2ff9-4f10-a2c6-a2789b7c32d7)
    (property "Reference" "C50" (at 223.52 114.3063 0)
      (effects (font (size 1.27 1.27)) (justify left))
    )
    (property "Value" "100n 50V" (at 223.52 116.8463 0)
      (effects (font (size 1.27 1.27)) (justify left))
    )
    (property "Footprint" "Capacitor_SMD:C_0402_1005Metric" (at 226.06 115.57 0)
      (effects (font (size 1.27 1.27)) hide)
    )
    (property "Datasheet" "~" (at 226.06 115.57 0)
      (effects (font (size 1.27 1.27)) hide)
    )
    (property "LCSC" "C307331" (at 223.52 114.3063 0)
      (effects (font (size 1.27 1.27)) hide)
    )
    (pin "1" (uuid 50372c1b-b775-48b8-be75-1f0e0ccc1879))
    (pin "2" (uuid a1fd7db6-ebb7-4f15-9da0-d8bb6a28bcc0))
    (instances
      (project "kicker"
        (path "/7c007fad-bfbf-4e78-a837-1f8089552516/e73c114a-5122-4c9a-8f13-6961fcbca2c4"
          (reference "C50") (unit 1)
        )
      )
    )
  )

  (symbol (lib_id "Device:C_Small") (at 170.18 34.29 0) (unit 1)
    (in_bom yes) (on_board yes) (dnp no) (fields_autoplaced)
    (uuid 88dbb2cd-aa9a-49ad-8f47-a51e566103e8)
    (property "Reference" "C46" (at 172.72 33.0263 0)
      (effects (font (size 1.27 1.27)) (justify left))
    )
    (property "Value" "100n 50V" (at 172.72 35.5663 0)
      (effects (font (size 1.27 1.27)) (justify left))
    )
    (property "Footprint" "Capacitor_SMD:C_0402_1005Metric" (at 170.18 34.29 0)
      (effects (font (size 1.27 1.27)) hide)
    )
    (property "Datasheet" "~" (at 170.18 34.29 0)
      (effects (font (size 1.27 1.27)) hide)
    )
    (property "LCSC" "C307331" (at 172.72 33.0263 0)
      (effects (font (size 1.27 1.27)) hide)
    )
    (pin "1" (uuid 51eb6950-a57b-4e51-b27b-83aea2e6f6a0))
    (pin "2" (uuid 3882a36f-c0b6-46fe-8a9c-5333f1b1a4be))
    (instances
      (project "kicker"
        (path "/7c007fad-bfbf-4e78-a837-1f8089552516/e73c114a-5122-4c9a-8f13-6961fcbca2c4"
          (reference "C46") (unit 1)
        )
      )
    )
  )

  (symbol (lib_id "Device:C_Small") (at 227.33 31.75 0) (mirror y) (unit 1)
    (in_bom yes) (on_board yes) (dnp no) (fields_autoplaced)
    (uuid 90c9d2f7-7a1e-4290-931c-d7ac419d605f)
    (property "Reference" "C51" (at 224.79 30.4863 0)
      (effects (font (size 1.27 1.27)) (justify left))
    )
    (property "Value" "100n 50V" (at 224.79 33.0263 0)
      (effects (font (size 1.27 1.27)) (justify left))
    )
    (property "Footprint" "Capacitor_SMD:C_0402_1005Metric" (at 227.33 31.75 0)
      (effects (font (size 1.27 1.27)) hide)
    )
    (property "Datasheet" "~" (at 227.33 31.75 0)
      (effects (font (size 1.27 1.27)) hide)
    )
    (property "LCSC" "C307331" (at 224.79 30.4863 0)
      (effects (font (size 1.27 1.27)) hide)
    )
    (pin "1" (uuid 1b8921ef-6400-4cd3-9296-76c440235756))
    (pin "2" (uuid 17b8115b-22a7-4a63-84ca-5fac6d683ed6))
    (instances
      (project "kicker"
        (path "/7c007fad-bfbf-4e78-a837-1f8089552516/e73c114a-5122-4c9a-8f13-6961fcbca2c4"
          (reference "C51") (unit 1)
        )
      )
    )
  )

  (symbol (lib_id "power:GND") (at 227.33 36.83 0) (unit 1)
    (in_bom yes) (on_board yes) (dnp no) (fields_autoplaced)
    (uuid 95d21db8-923c-4851-b7fc-ec9f5bf9f942)
    (property "Reference" "#PWR0111" (at 227.33 43.18 0)
      (effects (font (size 1.27 1.27)) hide)
    )
    (property "Value" "GND" (at 227.33 41.275 0)
      (effects (font (size 1.27 1.27)))
    )
    (property "Footprint" "" (at 227.33 36.83 0)
      (effects (font (size 1.27 1.27)) hide)
    )
    (property "Datasheet" "" (at 227.33 36.83 0)
      (effects (font (size 1.27 1.27)) hide)
    )
    (pin "1" (uuid e4324063-61e9-435f-9a60-7a40015ac8ae))
    (instances
      (project "kicker"
        (path "/7c007fad-bfbf-4e78-a837-1f8089552516/e73c114a-5122-4c9a-8f13-6961fcbca2c4"
          (reference "#PWR0111") (unit 1)
        )
      )
    )
  )

  (symbol (lib_id "power:GND") (at 212.09 57.15 0) (unit 1)
    (in_bom yes) (on_board yes) (dnp no) (fields_autoplaced)
    (uuid ad319e18-f894-458d-9c9e-c2435ede5b18)
    (property "Reference" "#PWR0103" (at 212.09 63.5 0)
      (effects (font (size 1.27 1.27)) hide)
    )
    (property "Value" "GND" (at 212.09 61.595 0)
      (effects (font (size 1.27 1.27)))
    )
    (property "Footprint" "" (at 212.09 57.15 0)
      (effects (font (size 1.27 1.27)) hide)
    )
    (property "Datasheet" "" (at 212.09 57.15 0)
      (effects (font (size 1.27 1.27)) hide)
    )
    (pin "1" (uuid fbbe9628-40d6-4451-b1ae-b9fcd1c62a16))
    (instances
      (project "kicker"
        (path "/7c007fad-bfbf-4e78-a837-1f8089552516/e73c114a-5122-4c9a-8f13-6961fcbca2c4"
          (reference "#PWR0103") (unit 1)
        )
      )
    )
  )

  (symbol (lib_id "Device:R_Small_US") (at 88.9 39.37 90) (unit 1)
    (in_bom yes) (on_board yes) (dnp no)
    (uuid cf35d84c-8442-41a0-babb-9871fb5e01f3)
    (property "Reference" "R63" (at 88.9 36.83 90)
      (effects (font (size 1.27 1.27)))
    )
    (property "Value" "330" (at 88.9 41.91 90)
      (effects (font (size 1.27 1.27)))
    )
    (property "Footprint" "Resistor_SMD:R_0402_1005Metric" (at 88.9 39.37 0)
      (effects (font (size 1.27 1.27)) hide)
    )
    (property "Datasheet" "~" (at 88.9 39.37 0)
      (effects (font (size 1.27 1.27)) hide)
    )
    (property "LCSC" "C12246" (at 88.9 36.83 0)
      (effects (font (size 1.27 1.27)) hide)
    )
    (pin "1" (uuid 1d07054a-a139-4964-b514-f53321fc55bf))
    (pin "2" (uuid a035455f-88fe-4bf2-b9e9-287719270d4f))
    (instances
      (project "kicker"
        (path "/7c007fad-bfbf-4e78-a837-1f8089552516/e73c114a-5122-4c9a-8f13-6961fcbca2c4"
          (reference "R63") (unit 1)
        )
      )
    )
  )

  (symbol (lib_id "AT-IC:ISO6721-Q1") (at 199.39 87.63 0) (unit 1)
    (in_bom yes) (on_board yes) (dnp no) (fields_autoplaced)
    (uuid dce9e652-d7dd-4833-9040-efd8b35fd2aa)
    (property "Reference" "U10" (at 199.39 72.39 0)
      (effects (font (size 1.27 1.27)))
    )
    (property "Value" "ISO6721-Q1" (at 199.39 74.93 0)
      (effects (font (size 1.27 1.27)))
    )
    (property "Footprint" "AT-IC:ISO672X" (at 199.39 87.63 0)
      (effects (font (size 1.27 1.27)) hide)
    )
    (property "Datasheet" "" (at 199.39 87.63 0)
      (effects (font (size 1.27 1.27)) hide)
    )
    (pin "1" (uuid a1478e4e-bd70-40a1-b016-1cf7338958d4))
    (pin "2" (uuid c9336788-c644-4934-994d-618db543862e))
    (pin "3" (uuid ec621ba6-d161-4746-a0c7-e30345da3c67))
    (pin "4" (uuid fdf68a11-af5f-4558-8d03-9b8704b2a438))
    (pin "5" (uuid 09b40cef-1ead-46ab-a76f-a7c9d024238a))
    (pin "6" (uuid 396f8eb2-9741-4567-885b-7fcdab762f80))
    (pin "7" (uuid 75dd12ff-6a28-44f3-98a1-30b6412d01bd))
    (pin "8" (uuid eed7479d-3649-4782-9685-1d82e00c83d2))
    (instances
      (project "kicker"
        (path "/7c007fad-bfbf-4e78-a837-1f8089552516/e73c114a-5122-4c9a-8f13-6961fcbca2c4"
          (reference "U10") (unit 1)
        )
      )
    )
  )

  (symbol (lib_id "AT-IC:ISO6720-Q1") (at 199.39 130.81 0) (unit 1)
    (in_bom yes) (on_board yes) (dnp no) (fields_autoplaced)
    (uuid e25a0988-a72e-45e4-9f86-4dad672d83cb)
    (property "Reference" "U11" (at 199.39 115.57 0)
      (effects (font (size 1.27 1.27)))
    )
    (property "Value" "ISO6720-Q1" (at 199.39 118.11 0)
      (effects (font (size 1.27 1.27)))
    )
    (property "Footprint" "AT-IC:ISO672X" (at 199.39 130.81 0)
      (effects (font (size 1.27 1.27)) hide)
    )
    (property "Datasheet" "" (at 199.39 130.81 0)
      (effects (font (size 1.27 1.27)) hide)
    )
    (pin "1" (uuid 4c7b548d-9c0e-411b-a102-67858970e99e))
    (pin "2" (uuid 10c3899e-6973-4581-a2cf-bc0c4cec220a))
    (pin "3" (uuid a9a2a0d9-2208-4435-85b4-d683fc0cfb1f))
    (pin "4" (uuid 817696e1-f01d-4b59-928b-6bf156bdb8b2))
    (pin "5" (uuid 2c554308-e50d-41a7-acb3-f932767d0953))
    (pin "6" (uuid 840a3ca5-bf79-4be0-bcdf-a42062e937aa))
    (pin "7" (uuid 099e8d48-cda1-4c64-86c6-84a7909fd160))
    (pin "8" (uuid 63137366-d07b-4dc0-9c50-0d48032d44be))
    (instances
      (project "kicker"
        (path "/7c007fad-bfbf-4e78-a837-1f8089552516/e73c114a-5122-4c9a-8f13-6961fcbca2c4"
          (reference "U11") (unit 1)
        )
      )
    )
  )

  (symbol (lib_id "power:GND") (at 226.06 120.65 0) (unit 1)
    (in_bom yes) (on_board yes) (dnp no) (fields_autoplaced)
    (uuid fe02f635-a98d-4a9c-8b97-5807ce1811a5)
    (property "Reference" "#PWR0109" (at 226.06 127 0)
      (effects (font (size 1.27 1.27)) hide)
    )
    (property "Value" "GND" (at 226.06 125.095 0)
      (effects (font (size 1.27 1.27)))
    )
    (property "Footprint" "" (at 226.06 120.65 0)
      (effects (font (size 1.27 1.27)) hide)
    )
    (property "Datasheet" "" (at 226.06 120.65 0)
      (effects (font (size 1.27 1.27)) hide)
    )
    (pin "1" (uuid 0e78641b-5ed3-4f42-8311-90011b92a968))
    (instances
      (project "kicker"
        (path "/7c007fad-bfbf-4e78-a837-1f8089552516/e73c114a-5122-4c9a-8f13-6961fcbca2c4"
          (reference "#PWR0109") (unit 1)
        )
      )
    )
  )
)
