{
  "board": {
    "3dviewports": [],
    "design_settings": {
      "defaults": {
        "board_outline_line_width": 0.09999999999999999,
        "copper_line_width": 0.19999999999999998,
        "copper_text_italic": false,
        "copper_text_size_h": 1.5,
        "copper_text_size_v": 1.5,
        "copper_text_thickness": 0.3,
        "copper_text_upright": false,
        "courtyard_line_width": 0.049999999999999996,
        "dimension_precision": 4,
        "dimension_units": 3,
        "dimensions": {
          "arrow_length": 1270000,
          "extension_offset": 500000,
          "keep_text_aligned": true,
          "suppress_zeroes": false,
          "text_position": 0,
          "units_format": 1
        },
        "fab_line_width": 0.09999999999999999,
        "fab_text_italic": false,
        "fab_text_size_h": 1.0,
        "fab_text_size_v": 1.0,
        "fab_text_thickness": 0.15,
        "fab_text_upright": false,
        "other_line_width": 0.15,
        "other_text_italic": false,
        "other_text_size_h": 1.0,
        "other_text_size_v": 1.0,
        "other_text_thickness": 0.15,
        "other_text_upright": false,
        "pads": {
          "drill": 3.2,
          "height": 6.4,
          "width": 6.4
        },
        "silk_line_width": 0.15,
        "silk_text_italic": false,
        "silk_text_size_h": 1.0,
        "silk_text_size_v": 1.0,
        "silk_text_thickness": 0.15,
        "silk_text_upright": false,
        "zones": {
          "min_clearance": 0.25
        }
      },
      "diff_pair_dimensions": [
        {
          "gap": 0.0,
          "via_gap": 0.0,
          "width": 0.0
        }
      ],
      "drc_exclusions": [
        "clearance|182413000|134400000|df21e2de-2332-4fad-86e0-d05f7f79257c|0d9e8b82-9d57-4e1a-804d-8f94ad68ad0d",
        "clearance|183387000|102150000|dfd79364-8ef4-4629-8a26-706f71c2b577|76fd8640-bade-4089-b6c8-34ab317871e1",
        "clearance|195513000|133800000|17f24eda-81c7-420c-baea-edb54df5db4e|9c19c34d-d6e7-4237-92d8-25a7a47b8cdf",
        "clearance|196487000|102050000|d9701c42-263e-4533-94a5-5705a205f6e4|b21433ae-85e0-4eb5-9313-81b28eb0bc1f",
        "clearance|203350000|143813000|c9731545-e98e-4709-a586-1081c5ffa132|59a0a836-3609-4766-938c-760f7d20ca61",
        "clearance|211950000|121987000|9bf4c67e-be2d-4f77-9ef1-48854f8e41ef|dfa99033-94b0-499a-b36c-ce44d1452bf6",
        "clearance|211950000|123737000|63af24b6-9e12-4bf3-8e82-6b2df78b7a87|1617a300-3920-4119-8c4e-2a1b30dd5386",
        "silk_over_copper|170575000|172000000|9384c5bc-9f17-4367-9b6c-e2ec950a4d86|00000000-0000-0000-0000-000000000000",
        "silk_over_copper|174375000|180000000|2ee58787-eab2-4417-8600-69d7e069126e|00000000-0000-0000-0000-000000000000",
        "silk_over_copper|178000000|176500000|4654c08b-185c-49a5-8c72-f7ba3e57aa52|00000000-0000-0000-0000-000000000000",
        "silk_over_copper|179379994|95064513|c95425db-e164-40a3-93c9-6c919ee3c8db|00000000-0000-0000-0000-000000000000",
        "silk_over_copper|194491877|191115106|945d55a9-abbb-45e5-bdb4-7b68bf98f096|00000000-0000-0000-0000-000000000000",
        "silk_over_copper|197230000|204000000|ed987a1b-8747-4fce-a6c2-367d73b82d61|00000000-0000-0000-0000-000000000000",
        "silk_over_copper|197230000|204010596|7809cb1b-cd33-477a-8a5f-d00efa401bec|00000000-0000-0000-0000-000000000000",
        "silk_over_copper|197508123|195484894|24c76cf3-8a53-49ea-a1fd-4650b4c2f349|00000000-0000-0000-0000-000000000000",
        "silk_over_copper|224974814|202058558|c8ea8aa3-4d2a-44b1-9432-87ec742ca5b9|00000000-0000-0000-0000-000000000000",
        "silk_over_copper|229119362|96000000|b90555c3-d88d-44df-9439-d6e225ca5b7f|00000000-0000-0000-0000-000000000000",
        "silk_over_copper|258820421|194543187|7a73d9c7-6540-45e5-a257-72d58a42cac5|00000000-0000-0000-0000-000000000000",
        "silk_over_copper|258948519|105438665|359d5c37-ecc5-4fc3-8251-62703e7c032d|00000000-0000-0000-0000-000000000000",
        "silk_over_copper|282000000|162852334|0b43b6e1-8335-43b3-9fbf-c03d130f4fd3|00000000-0000-0000-0000-000000000000",
        "silk_over_copper|282537890|134196006|0da0d4ea-2d12-497f-a103-23d9664dd331|00000000-0000-0000-0000-000000000000",
        "silk_over_copper|282671190|165308939|104389dc-ea97-46cb-a685-c5869497e117|00000000-0000-0000-0000-000000000000",
        "silk_overlap|167500000|99821429|0a1465d7-4dc2-4b8a-9c46-47368ab747a5|8aef3df0-07d0-4cb9-821b-c877d7ba1a00",
        "silk_overlap|167600000|204471429|833ed78b-0a49-4865-b976-0fdb05d9be4f|735ce142-4064-46c4-8564-3fa1273ace8f",
        "silk_overlap|168687850|96664285|eb2bd17a-a9f3-4d08-8667-2fe4ef9ad319|8aef3df0-07d0-4cb9-821b-c877d7ba1a00",
        "silk_overlap|168787850|201314285|c4d570c8-d05d-4478-9239-6ac01c3beb10|735ce142-4064-46c4-8564-3fa1273ace8f",
        "silk_overlap|169713457|95592856|aa906a9b-0ceb-4ad9-a923-ec307a76f728|8aef3df0-07d0-4cb9-821b-c877d7ba1a00",
        "silk_overlap|169813457|200242856|575e5b7e-83e7-4d3d-ae98-01efc2defa17|735ce142-4064-46c4-8564-3fa1273ace8f",
        "silk_overlap|175800000|189236542|4b884bd5-cd16-42a9-997f-78ad8a9b636e|8b9d7025-a80d-487a-af8a-79e126422677",
        "silk_overlap|175800000|191465114|f977e659-dd8a-4997-9ec4-0bb3946c6ff8|8b9d7025-a80d-487a-af8a-79e126422677",
        "silk_overlap|177201596|190950828|a80aa87b-86ee-4973-8d4f-8860c49b2e4e|8b9d7025-a80d-487a-af8a-79e126422677",
        "silk_overlap|177575939|190262148|6eb35091-d3db-47d2-92c1-bcac606f314f|8b9d7025-a80d-487a-af8a-79e126422677",
        "silk_overlap|178000000|193200000|ed987a1b-8747-4fce-a6c2-367d73b82d61|7809cb1b-cd33-477a-8a5f-d00efa401bec",
        "silk_overlap|178100000|194865114|d874d98c-728d-4a34-abcf-36fdbf53b744|c6d67dfe-4d83-4ea1-aa08-596b75a4c0c5",
        "silk_overlap|178633082|196282364|d874d98c-728d-4a34-abcf-36fdbf53b744|c082343f-4d29-4452-838e-b260ffd68fb5",
        "silk_overlap|179090529|196650828|a2b3ad72-1e6b-4f75-800f-ec36dd735f8e|c082343f-4d29-4452-838e-b260ffd68fb5",
        "silk_overlap|181346291|194936542|1d87db3b-b109-46b5-88e0-8137bf0d45f8|c082343f-4d29-4452-838e-b260ffd68fb5",
        "silk_overlap|181346291|194936542|98d447ad-772b-4be7-84d9-f2e8154f55fd|c082343f-4d29-4452-838e-b260ffd68fb5",
        "silk_overlap|181847672|193636542|1d87db3b-b109-46b5-88e0-8137bf0d45f8|c6d67dfe-4d83-4ea1-aa08-596b75a4c0c5",
        "silk_overlap|181847672|193636542|98d447ad-772b-4be7-84d9-f2e8154f55fd|c6d67dfe-4d83-4ea1-aa08-596b75a4c0c5",
        "silk_overlap|182500000|194865114|aa86d05a-406b-478b-8066-5d898e28c080|c6d67dfe-4d83-4ea1-aa08-596b75a4c0c5",
        "silk_overlap|182533082|192636542|822f5d87-73b8-48ec-a6a3-dfe5c5e44314|c6d67dfe-4d83-4ea1-aa08-596b75a4c0c5",
        "silk_overlap|223298811|160081220|ed987a1b-8747-4fce-a6c2-367d73b82d61|c8ea8aa3-4d2a-44b1-9432-87ec742ca5b9",
        "silk_overlap|223959326|96049512|ed987a1b-8747-4fce-a6c2-367d73b82d61|b90555c3-d88d-44df-9439-d6e225ca5b7f",
        "silk_overlap|224000000|194000000|ed987a1b-8747-4fce-a6c2-367d73b82d61|62fb06ba-5469-44cc-b439-20fb9b943cd1",
        "silk_overlap|256262028|204000000|e1b7c501-c3f1-4d54-8fe9-db6346ce23f6|c40dcded-1db1-4a08-a58d-e5516f4ce583",
        "silk_overlap|256366369|96000000|b90555c3-d88d-44df-9439-d6e225ca5b7f|0fe3e9c3-0ad9-4b4f-8a22-8cf8bab8bda4",
        "silk_overlap|257828428|204000000|e1b7c501-c3f1-4d54-8fe9-db6346ce23f6|18b7a208-5c39-4026-8046-9d14f96cf9ec",
        "silk_overlap|257972973|96000000|b90555c3-d88d-44df-9439-d6e225ca5b7f|92f7b8a5-80ed-4886-91f9-ed76054fa07c"
      ],
      "meta": {
        "version": 2
      },
      "rule_severities": {
        "annular_width": "error",
        "clearance": "error",
        "connection_width": "warning",
        "copper_edge_clearance": "error",
        "copper_sliver": "warning",
        "courtyards_overlap": "error",
        "diff_pair_gap_out_of_range": "error",
        "diff_pair_uncoupled_length_too_long": "error",
        "drill_out_of_range": "error",
        "duplicate_footprints": "warning",
        "extra_footprint": "warning",
        "footprint": "error",
        "footprint_type_mismatch": "error",
        "hole_clearance": "error",
        "hole_near_hole": "error",
        "invalid_outline": "error",
        "isolated_copper": "warning",
        "item_on_disabled_layer": "error",
        "items_not_allowed": "error",
        "length_out_of_range": "error",
        "lib_footprint_issues": "warning",
        "lib_footprint_mismatch": "warning",
        "malformed_courtyard": "error",
        "microvia_drill_out_of_range": "error",
        "missing_courtyard": "ignore",
        "missing_footprint": "warning",
        "net_conflict": "warning",
        "npth_inside_courtyard": "ignore",
        "padstack": "error",
        "pth_inside_courtyard": "ignore",
        "shorting_items": "error",
        "silk_edge_clearance": "ignore",
        "silk_over_copper": "warning",
        "silk_overlap": "warning",
        "skew_out_of_range": "error",
        "solder_mask_bridge": "ignore",
        "starved_thermal": "error",
        "text_height": "warning",
        "text_thickness": "warning",
        "through_hole_pad_without_hole": "error",
        "too_many_vias": "error",
        "track_dangling": "warning",
        "track_width": "error",
        "tracks_crossing": "error",
        "unconnected_items": "error",
        "unresolved_variable": "error",
        "via_dangling": "warning",
        "zones_intersect": "error"
      },
      "rules": {
        "max_error": 0.005,
        "min_clearance": 0.127,
        "min_connection": 0.0,
        "min_copper_edge_clearance": 0.0,
        "min_hole_clearance": 0.32999999999999996,
        "min_hole_to_hole": 0.5,
        "min_microvia_diameter": 0.19999999999999998,
        "min_microvia_drill": 0.09999999999999999,
        "min_resolved_spokes": 2,
        "min_silk_clearance": 0.0,
        "min_text_height": 0.7999999999999999,
        "min_text_thickness": 0.08,
        "min_through_hole_diameter": 0.19999999999999998,
        "min_track_width": 0.127,
        "min_via_annular_width": 0.25,
        "min_via_diameter": 0.39999999999999997,
        "solder_mask_clearance": 0.0,
        "solder_mask_min_width": 0.0,
        "solder_mask_to_copper_clearance": 0.0,
        "use_height_for_length_calcs": true
      },
      "teardrop_options": [
        {
          "td_allow_use_two_tracks": true,
          "td_curve_segcount": 5,
          "td_on_pad_in_zone": false,
          "td_onpadsmd": true,
          "td_onroundshapesonly": false,
          "td_ontrackend": false,
          "td_onviapad": true
        }
      ],
      "teardrop_parameters": [
        {
          "td_curve_segcount": 0,
          "td_height_ratio": 1.0,
          "td_length_ratio": 0.5,
          "td_maxheight": 2.0,
          "td_maxlen": 1.0,
          "td_target_name": "td_round_shape",
          "td_width_to_size_filter_ratio": 0.9
        },
        {
          "td_curve_segcount": 0,
          "td_height_ratio": 1.0,
          "td_length_ratio": 0.5,
          "td_maxheight": 2.0,
          "td_maxlen": 1.0,
          "td_target_name": "td_rect_shape",
          "td_width_to_size_filter_ratio": 0.9
        },
        {
          "td_curve_segcount": 0,
          "td_height_ratio": 1.0,
          "td_length_ratio": 0.5,
          "td_maxheight": 2.0,
          "td_maxlen": 1.0,
          "td_target_name": "td_track_end",
          "td_width_to_size_filter_ratio": 0.9
        }
      ],
      "track_widths": [
        0.0,
        0.1524,
        0.2,
        0.25,
        0.35,
        0.5,
        0.75,
        1.0,
        2.0
      ],
      "via_dimensions": [
        {
          "diameter": 0.0,
          "drill": 0.0
        },
        {
          "diameter": 0.8,
          "drill": 0.3
        }
      ],
      "zones_allow_external_fillets": false
    },
    "layer_presets": [
      {
        "activeLayer": -2,
        "layers": [
          0,
          1,
          2,
          3,
          4,
          5,
          6,
          7,
          8,
          9,
          10,
          11,
          12,
          13,
          14,
          15,
          16,
          17,
          18,
          19,
          20,
          21,
          22,
          23,
          24,
          25,
          26,
          27,
          28,
          29,
          30,
          31,
          32,
          33,
          34,
          35,
          36,
          37,
          38,
          39,
          40,
          41,
          42,
          43,
          44,
          45,
          46,
          47,
          50,
          51,
          52,
          53,
          54,
          55,
          56,
          57,
          58,
          59
        ],
        "name": "All Layers NF",
        "renderLayers": [
          125,
          126,
          127,
          128,
          129,
          130,
          133,
          134,
          135,
          136,
          137,
          138,
          140,
          141,
          142,
          143,
          144,
          145,
          146,
          147,
          148,
          149,
          150,
          151,
          152,
          153,
          154,
          155,
          157,
          158,
          159,
          160,
          161,
          164,
          165
        ]
      },
      {
        "activeLayer": -2,
        "layers": [
          31,
          32,
          34,
          36,
          38,
          44,
          46
        ],
        "name": "Back Layer NF",
        "renderLayers": [
          125,
          126,
          127,
          128,
          129,
          130,
          133,
          134,
          135,
          136,
          137,
          138,
          140,
          141,
          142,
          143,
          144,
          145,
          146,
          147,
          148,
          149,
          150,
          151,
          152,
          153,
          154,
          155,
          157,
          158,
          159,
          160,
          161,
          164,
          165
        ]
      },
      {
        "activeLayer": -2,
        "layers": [
          0,
          33,
          35,
          37,
          39,
          44,
          47
        ],
        "name": "Front Layers NF",
        "renderLayers": [
          125,
          126,
          127,
          128,
          129,
          130,
          133,
          134,
          135,
          136,
          137,
          138,
          140,
          141,
          142,
          143,
          144,
          145,
          146,
          147,
          148,
          149,
          150,
          151,
          152,
          153,
          154,
          155,
          157,
          158,
          159,
          160,
          161,
          164,
          165
        ]
      },
      {
        "activeLayer": -2,
        "layers": [
          0,
          3,
          4,
          5,
          6,
          7,
          8,
          9,
          10,
          11,
          12,
          13,
          14,
          15,
          16,
          17,
          18,
          19,
          20,
          21,
          22,
          23,
          24,
          25,
          26,
          27,
          28,
          29,
          30,
          31,
          32,
          33,
          34,
          35,
          36,
          37,
          38,
          39,
          42,
          43,
          44,
          45,
          46,
          47,
          50,
          51,
          52,
          53,
          54,
          55,
          56,
          57,
          58,
          59
        ],
        "name": "TB_NF",
        "renderLayers": [
          125,
          126,
          127,
          128,
          129,
          130,
          133,
          134,
          135,
          136,
          137,
          138,
          140,
          141,
          142,
          143,
          144,
          145,
          146,
          147,
          148,
          149,
          150,
          151,
          152,
          153,
          154,
          155,
          157,
          158,
          159,
          160,
          161,
          164,
          165
        ]
      }
    ],
    "viewports": []
  },
  "boards": [],
  "cvpcb": {
    "equivalence_files": []
  },
  "erc": {
    "erc_exclusions": [],
    "meta": {
      "version": 0
    },
    "pin_map": [
      [
        0,
        0,
        0,
        0,
        0,
        0,
        1,
        0,
        0,
        0,
        0,
        2
      ],
      [
        0,
        2,
        0,
        1,
        0,
        0,
        1,
        0,
        2,
        2,
        2,
        2
      ],
      [
        0,
        0,
        0,
        0,
        0,
        0,
        1,
        0,
        1,
        0,
        1,
        2
      ],
      [
        0,
        1,
        0,
        0,
        0,
        0,
        1,
        1,
        2,
        1,
        1,
        2
      ],
      [
        0,
        0,
        0,
        0,
        0,
        0,
        1,
        0,
        0,
        0,
        0,
        2
      ],
      [
        0,
        0,
        0,
        0,
        0,
        0,
        0,
        0,
        0,
        0,
        0,
        2
      ],
      [
        1,
        1,
        1,
        1,
        1,
        0,
        1,
        1,
        1,
        1,
        1,
        2
      ],
      [
        0,
        0,
        0,
        1,
        0,
        0,
        1,
        0,
        0,
        0,
        0,
        2
      ],
      [
        0,
        2,
        1,
        2,
        0,
        0,
        1,
        0,
        2,
        2,
        2,
        2
      ],
      [
        0,
        2,
        0,
        1,
        0,
        0,
        1,
        0,
        2,
        0,
        0,
        2
      ],
      [
        0,
        2,
        1,
        1,
        0,
        0,
        1,
        0,
        2,
        0,
        0,
        2
      ],
      [
        2,
        2,
        2,
        2,
        2,
        2,
        2,
        2,
        2,
        2,
        2,
        2
      ]
    ],
    "rule_severities": {
      "bus_definition_conflict": "error",
      "bus_entry_needed": "error",
      "bus_to_bus_conflict": "error",
      "bus_to_net_conflict": "error",
      "conflicting_netclasses": "error",
      "different_unit_footprint": "error",
      "different_unit_net": "error",
      "duplicate_reference": "error",
      "duplicate_sheet_names": "error",
      "endpoint_off_grid": "warning",
      "extra_units": "error",
      "global_label_dangling": "warning",
      "hier_label_mismatch": "error",
      "label_dangling": "error",
      "lib_symbol_issues": "warning",
      "missing_bidi_pin": "warning",
      "missing_input_pin": "warning",
      "missing_power_pin": "error",
      "missing_unit": "warning",
      "multiple_net_names": "warning",
      "net_not_bus_member": "warning",
      "no_connect_connected": "warning",
      "no_connect_dangling": "warning",
      "pin_not_connected": "error",
      "pin_not_driven": "error",
      "pin_to_pin": "warning",
      "power_pin_not_driven": "error",
      "similar_labels": "warning",
      "simulation_model_issue": "ignore",
      "unannotated": "error",
      "unit_value_mismatch": "error",
      "unresolved_variable": "error",
      "wire_dangling": "error"
    }
  },
  "libraries": {
    "pinned_footprint_libs": [],
    "pinned_symbol_libs": []
  },
  "meta": {
    "filename": "kicker.kicad_pro",
    "version": 1
  },
  "net_settings": {
    "classes": [
      {
        "bus_width": 12,
        "clearance": 0.2,
        "diff_pair_gap": 0.25,
        "diff_pair_via_gap": 0.25,
        "diff_pair_width": 0.2,
        "line_style": 0,
        "microvia_diameter": 0.3,
        "microvia_drill": 0.1,
        "name": "Default",
        "pcb_color": "rgba(0, 0, 0, 0.000)",
        "schematic_color": "rgba(0, 0, 0, 0.000)",
        "track_width": 0.25,
        "via_diameter": 0.8,
        "via_drill": 0.4,
        "wire_width": 6
      },
      {
        "bus_width": 12,
        "clearance": 0.8,
        "diff_pair_gap": 0.25,
        "diff_pair_via_gap": 0.25,
        "diff_pair_width": 0.2,
        "line_style": 0,
        "microvia_diameter": 0.3,
        "microvia_drill": 0.1,
        "name": "HV",
        "pcb_color": "rgba(0, 0, 0, 0.000)",
        "schematic_color": "rgba(0, 0, 0, 0.000)",
        "track_width": 0.25,
        "via_diameter": 0.8,
        "via_drill": 0.4,
        "wire_width": 6
      }
    ],
    "meta": {
      "version": 3
    },
    "net_colors": null,
    "netclass_assignments": null,
    "netclass_patterns": [
      {
        "netclass": "HV",
        "pattern": "/hv_kicker/flyback_charger/V_{solenoid}"
      },
      {
        "netclass": "HV",
        "pattern": "/hv_kicker/solenoid_control/CHIP_SW"
      },
      {
        "netclass": "HV",
        "pattern": "/hv_kicker/solenoid_control/KICK_SW"
      },
      {
        "netclass": "HV",
        "pattern": "/hv_kicker/flyback_charger/V_{trans}"
      },
      {
        "netclass": "HV",
        "pattern": "/hv_kicker/flyback_charger/HV_AC"
      },
      {
        "netclass": "HV",
        "pattern": "/hv_kicker/DL2S"
      },
      {
        "netclass": "HV",
        "pattern": "/hv_kicker/DL1S"
      },
      {
        "netclass": "Default",
        "pattern": "/Power Protection/V_{BATT}_FUSED"
      }
    ]
  },
  "pcbnew": {
    "last_paths": {
      "gencad": "",
      "idf": "",
      "netlist": "",
      "specctra_dsn": "",
      "step": "",
      "vrml": ""
    },
    "page_layout_descr_file": ""
  },
  "schematic": {
    "annotate_start_num": 0,
    "drawing": {
      "dashed_lines_dash_length_ratio": 12.0,
      "dashed_lines_gap_length_ratio": 3.0,
      "default_line_thickness": 6.0,
      "default_text_size": 50.0,
      "field_names": [],
      "intersheets_ref_own_page": false,
      "intersheets_ref_prefix": "",
      "intersheets_ref_short": false,
      "intersheets_ref_show": false,
      "intersheets_ref_suffix": "",
      "junction_size_choice": 3,
      "label_size_ratio": 0.375,
      "pin_symbol_size": 25.0,
      "text_offset_ratio": 0.15
    },
    "legacy_lib_dir": "",
    "legacy_lib_list": [],
    "meta": {
      "version": 1
    },
    "net_format_name": "",
    "page_layout_descr_file": "${LIB_DIR_AT}/AT-DrawingSheets.kicad_wks",
    "plot_directory": "",
    "spice_current_sheet_as_root": false,
    "spice_external_command": "spice \"%I\"",
    "spice_model_current_sheet_as_root": true,
    "spice_save_all_currents": false,
    "spice_save_all_voltages": false,
    "subpart_first_id": 65,
    "subpart_id_separator": 0
  },
  "sheets": [
    [
      "7c007fad-bfbf-4e78-a837-1f8089552516",
      ""
    ],
    [
      "966fab5a-ccd3-4169-a651-1134c1c683b9",
      "Power Protection"
    ],
    [
      "70276a8f-3b08-4e9b-906b-ee3937a21cfb",
      "Power Regulation"
    ],
    [
      "18b5a777-2ae2-444a-8013-2f46c3974bf2",
      "digital"
    ],
    [
      "7eb261a6-326a-4be1-a81a-5b1bf336a030",
      "hv_kicker"
    ],
    [
      "e73c114a-5122-4c9a-8f13-6961fcbca2c4",
      "isol"
    ],
    [
      "be691979-194f-4ae3-a211-ca3d3fc09e10",
      "solenoid_control"
    ],
    [
      "117a87e7-5496-45a7-8d2e-674719fd4e85",
      "flyback_charger"
    ],
    [
      "033ff13b-d72f-4800-98f0-39aa58dc7180",
      "Dribbler"
    ],
    [
      "74436cfc-56e2-470f-b5b6-b6ab9cfb0086",
      "Breakbeam"
    ],
    [
      "7a1ed07f-54d5-4760-ac90-4add0b6ea46f",
      "Ball Sense"
    ],
    [
      "4d5d86cd-ec95-402a-873b-72ed338f41dd",
      "mechanical"
    ]
  ],
  "text_variables": {}
}
