(kicad_sch (version 20230121) (generator eeschema)

  (uuid c598e573-85c3-4910-b06b-9fed0fbbab81)

  (paper "A4")

  (title_block
    (company "The A-Team (RC SSL)")
    (comment 1 "W. Stuckey & R. Osawa")
  )

  (lib_symbols
    (symbol "AT-IMU:BMI323" (in_bom yes) (on_board yes)
      (property "Reference" "U" (at 0 11.43 0)
        (effects (font (size 1.27 1.27)))
      )
      (property "Value" "BMI323" (at 0 -11.43 0)
        (effects (font (size 1.27 1.27)))
      )
      (property "Footprint" "AT-IMU:BMI323" (at 0 -13.97 0)
        (effects (font (size 1.27 1.27)) hide)
      )
      (property "Datasheet" "https://www.bosch-sensortec.com/media/boschsensortec/downloads/datasheets/bst-bmi323-ds000.pdf" (at 0 -16.51 0)
        (effects (font (size 1.27 1.27)) hide)
      )
      (property "ki_fp_filters" "LGA-16_3.0x4.5x0.95mm" (at 0 0 0)
        (effects (font (size 1.27 1.27)) hide)
      )
      (symbol "BMI323_0_1"
        (rectangle (start -7.62 10.16) (end 7.62 -10.16)
          (stroke (width 0) (type default))
          (fill (type background))
        )
      )
      (symbol "BMI323_1_1"
        (pin bidirectional line (at 10.16 -7.62 180) (length 2.54)
          (name "SDO" (effects (font (size 1.27 1.27))))
          (number "1" (effects (font (size 1.27 1.27))))
        )
        (pin no_connect line (at 33.02 -5.08 0) (length 2.54) hide
          (name "NC" (effects (font (size 1.27 1.27))))
          (number "10" (effects (font (size 1.27 1.27))))
        )
        (pin no_connect line (at 33.02 -7.62 0) (length 2.54) hide
          (name "NC" (effects (font (size 1.27 1.27))))
          (number "11" (effects (font (size 1.27 1.27))))
        )
        (pin input line (at 10.16 0 180) (length 2.54)
          (name "CSB" (effects (font (size 1.27 1.27))))
          (number "12" (effects (font (size 1.27 1.27))))
        )
        (pin input line (at 10.16 -2.54 180) (length 2.54)
          (name "SCx" (effects (font (size 1.27 1.27))))
          (number "13" (effects (font (size 1.27 1.27))))
        )
        (pin bidirectional line (at 10.16 -5.08 180) (length 2.54)
          (name "SDx" (effects (font (size 1.27 1.27))))
          (number "14" (effects (font (size 1.27 1.27))))
        )
        (pin no_connect line (at 33.02 0 0) (length 2.54) hide
          (name "NC" (effects (font (size 1.27 1.27))))
          (number "2" (effects (font (size 1.27 1.27))))
        )
        (pin no_connect line (at 33.02 -2.54 0) (length 2.54) hide
          (name "NC" (effects (font (size 1.27 1.27))))
          (number "3" (effects (font (size 1.27 1.27))))
        )
        (pin bidirectional line (at 10.16 7.62 180) (length 2.54)
          (name "INT1" (effects (font (size 1.27 1.27))))
          (number "4" (effects (font (size 1.27 1.27))))
        )
        (pin power_in line (at -10.16 5.08 0) (length 2.54)
          (name "VDDIO" (effects (font (size 1.27 1.27))))
          (number "5" (effects (font (size 1.27 1.27))))
        )
        (pin power_in line (at -10.16 -7.62 0) (length 2.54)
          (name "GNDIO" (effects (font (size 1.27 1.27))))
          (number "6" (effects (font (size 1.27 1.27))))
        )
        (pin power_in line (at -10.16 -5.08 0) (length 2.54)
          (name "GND" (effects (font (size 1.27 1.27))))
          (number "7" (effects (font (size 1.27 1.27))))
        )
        (pin power_in line (at -10.16 7.62 0) (length 2.54)
          (name "VDD" (effects (font (size 1.27 1.27))))
          (number "8" (effects (font (size 1.27 1.27))))
        )
        (pin bidirectional line (at 10.16 5.08 180) (length 2.54)
          (name "INT2" (effects (font (size 1.27 1.27))))
          (number "9" (effects (font (size 1.27 1.27))))
        )
      )
    )
    (symbol "Connector_Generic_MountingPin:Conn_01x11_MountingPin" (pin_names (offset 1.016) hide) (in_bom yes) (on_board yes)
      (property "Reference" "J" (at 0 15.24 0)
        (effects (font (size 1.27 1.27)))
      )
      (property "Value" "Conn_01x11_MountingPin" (at 1.27 -15.24 0)
        (effects (font (size 1.27 1.27)) (justify left))
      )
      (property "Footprint" "" (at 0 0 0)
        (effects (font (size 1.27 1.27)) hide)
      )
      (property "Datasheet" "~" (at 0 0 0)
        (effects (font (size 1.27 1.27)) hide)
      )
      (property "ki_keywords" "connector" (at 0 0 0)
        (effects (font (size 1.27 1.27)) hide)
      )
      (property "ki_description" "Generic connectable mounting pin connector, single row, 01x11, script generated (kicad-library-utils/schlib/autogen/connector/)" (at 0 0 0)
        (effects (font (size 1.27 1.27)) hide)
      )
      (property "ki_fp_filters" "Connector*:*_1x??-1MP*" (at 0 0 0)
        (effects (font (size 1.27 1.27)) hide)
      )
      (symbol "Conn_01x11_MountingPin_1_1"
        (rectangle (start -1.27 -12.573) (end 0 -12.827)
          (stroke (width 0.1524) (type default))
          (fill (type none))
        )
        (rectangle (start -1.27 -10.033) (end 0 -10.287)
          (stroke (width 0.1524) (type default))
          (fill (type none))
        )
        (rectangle (start -1.27 -7.493) (end 0 -7.747)
          (stroke (width 0.1524) (type default))
          (fill (type none))
        )
        (rectangle (start -1.27 -4.953) (end 0 -5.207)
          (stroke (width 0.1524) (type default))
          (fill (type none))
        )
        (rectangle (start -1.27 -2.413) (end 0 -2.667)
          (stroke (width 0.1524) (type default))
          (fill (type none))
        )
        (rectangle (start -1.27 0.127) (end 0 -0.127)
          (stroke (width 0.1524) (type default))
          (fill (type none))
        )
        (rectangle (start -1.27 2.667) (end 0 2.413)
          (stroke (width 0.1524) (type default))
          (fill (type none))
        )
        (rectangle (start -1.27 5.207) (end 0 4.953)
          (stroke (width 0.1524) (type default))
          (fill (type none))
        )
        (rectangle (start -1.27 7.747) (end 0 7.493)
          (stroke (width 0.1524) (type default))
          (fill (type none))
        )
        (rectangle (start -1.27 10.287) (end 0 10.033)
          (stroke (width 0.1524) (type default))
          (fill (type none))
        )
        (rectangle (start -1.27 12.827) (end 0 12.573)
          (stroke (width 0.1524) (type default))
          (fill (type none))
        )
        (rectangle (start -1.27 13.97) (end 1.27 -13.97)
          (stroke (width 0.254) (type default))
          (fill (type background))
        )
        (polyline
          (pts
            (xy -1.016 -14.732)
            (xy 1.016 -14.732)
          )
          (stroke (width 0.1524) (type default))
          (fill (type none))
        )
        (text "Mounting" (at 0 -14.351 0)
          (effects (font (size 0.381 0.381)))
        )
        (pin passive line (at -5.08 12.7 0) (length 3.81)
          (name "Pin_1" (effects (font (size 1.27 1.27))))
          (number "1" (effects (font (size 1.27 1.27))))
        )
        (pin passive line (at -5.08 -10.16 0) (length 3.81)
          (name "Pin_10" (effects (font (size 1.27 1.27))))
          (number "10" (effects (font (size 1.27 1.27))))
        )
        (pin passive line (at -5.08 -12.7 0) (length 3.81)
          (name "Pin_11" (effects (font (size 1.27 1.27))))
          (number "11" (effects (font (size 1.27 1.27))))
        )
        (pin passive line (at -5.08 10.16 0) (length 3.81)
          (name "Pin_2" (effects (font (size 1.27 1.27))))
          (number "2" (effects (font (size 1.27 1.27))))
        )
        (pin passive line (at -5.08 7.62 0) (length 3.81)
          (name "Pin_3" (effects (font (size 1.27 1.27))))
          (number "3" (effects (font (size 1.27 1.27))))
        )
        (pin passive line (at -5.08 5.08 0) (length 3.81)
          (name "Pin_4" (effects (font (size 1.27 1.27))))
          (number "4" (effects (font (size 1.27 1.27))))
        )
        (pin passive line (at -5.08 2.54 0) (length 3.81)
          (name "Pin_5" (effects (font (size 1.27 1.27))))
          (number "5" (effects (font (size 1.27 1.27))))
        )
        (pin passive line (at -5.08 0 0) (length 3.81)
          (name "Pin_6" (effects (font (size 1.27 1.27))))
          (number "6" (effects (font (size 1.27 1.27))))
        )
        (pin passive line (at -5.08 -2.54 0) (length 3.81)
          (name "Pin_7" (effects (font (size 1.27 1.27))))
          (number "7" (effects (font (size 1.27 1.27))))
        )
        (pin passive line (at -5.08 -5.08 0) (length 3.81)
          (name "Pin_8" (effects (font (size 1.27 1.27))))
          (number "8" (effects (font (size 1.27 1.27))))
        )
        (pin passive line (at -5.08 -7.62 0) (length 3.81)
          (name "Pin_9" (effects (font (size 1.27 1.27))))
          (number "9" (effects (font (size 1.27 1.27))))
        )
        (pin passive line (at 0 -17.78 90) (length 3.048)
          (name "MountPin" (effects (font (size 1.27 1.27))))
          (number "MP" (effects (font (size 1.27 1.27))))
        )
      )
    )
    (symbol "Device:C_Small" (pin_numbers hide) (pin_names (offset 0.254) hide) (in_bom yes) (on_board yes)
      (property "Reference" "C" (at 0.254 1.778 0)
        (effects (font (size 1.27 1.27)) (justify left))
      )
      (property "Value" "C_Small" (at 0.254 -2.032 0)
        (effects (font (size 1.27 1.27)) (justify left))
      )
      (property "Footprint" "" (at 0 0 0)
        (effects (font (size 1.27 1.27)) hide)
      )
      (property "Datasheet" "~" (at 0 0 0)
        (effects (font (size 1.27 1.27)) hide)
      )
      (property "ki_keywords" "capacitor cap" (at 0 0 0)
        (effects (font (size 1.27 1.27)) hide)
      )
      (property "ki_description" "Unpolarized capacitor, small symbol" (at 0 0 0)
        (effects (font (size 1.27 1.27)) hide)
      )
      (property "ki_fp_filters" "C_*" (at 0 0 0)
        (effects (font (size 1.27 1.27)) hide)
      )
      (symbol "C_Small_0_1"
        (polyline
          (pts
            (xy -1.524 -0.508)
            (xy 1.524 -0.508)
          )
          (stroke (width 0.3302) (type default))
          (fill (type none))
        )
        (polyline
          (pts
            (xy -1.524 0.508)
            (xy 1.524 0.508)
          )
          (stroke (width 0.3048) (type default))
          (fill (type none))
        )
      )
      (symbol "C_Small_1_1"
        (pin passive line (at 0 2.54 270) (length 2.032)
          (name "~" (effects (font (size 1.27 1.27))))
          (number "1" (effects (font (size 1.27 1.27))))
        )
        (pin passive line (at 0 -2.54 90) (length 2.032)
          (name "~" (effects (font (size 1.27 1.27))))
          (number "2" (effects (font (size 1.27 1.27))))
        )
      )
    )
    (symbol "Device:R_Small_US" (pin_numbers hide) (pin_names (offset 0.254) hide) (in_bom yes) (on_board yes)
      (property "Reference" "R" (at 0.762 0.508 0)
        (effects (font (size 1.27 1.27)) (justify left))
      )
      (property "Value" "R_Small_US" (at 0.762 -1.016 0)
        (effects (font (size 1.27 1.27)) (justify left))
      )
      (property "Footprint" "" (at 0 0 0)
        (effects (font (size 1.27 1.27)) hide)
      )
      (property "Datasheet" "~" (at 0 0 0)
        (effects (font (size 1.27 1.27)) hide)
      )
      (property "ki_keywords" "r resistor" (at 0 0 0)
        (effects (font (size 1.27 1.27)) hide)
      )
      (property "ki_description" "Resistor, small US symbol" (at 0 0 0)
        (effects (font (size 1.27 1.27)) hide)
      )
      (property "ki_fp_filters" "R_*" (at 0 0 0)
        (effects (font (size 1.27 1.27)) hide)
      )
      (symbol "R_Small_US_1_1"
        (polyline
          (pts
            (xy 0 0)
            (xy 1.016 -0.381)
            (xy 0 -0.762)
            (xy -1.016 -1.143)
            (xy 0 -1.524)
          )
          (stroke (width 0) (type default))
          (fill (type none))
        )
        (polyline
          (pts
            (xy 0 1.524)
            (xy 1.016 1.143)
            (xy 0 0.762)
            (xy -1.016 0.381)
            (xy 0 0)
          )
          (stroke (width 0) (type default))
          (fill (type none))
        )
        (pin passive line (at 0 2.54 270) (length 1.016)
          (name "~" (effects (font (size 1.27 1.27))))
          (number "1" (effects (font (size 1.27 1.27))))
        )
        (pin passive line (at 0 -2.54 90) (length 1.016)
          (name "~" (effects (font (size 1.27 1.27))))
          (number "2" (effects (font (size 1.27 1.27))))
        )
      )
    )
    (symbol "power:+3.3V" (power) (pin_names (offset 0)) (in_bom yes) (on_board yes)
      (property "Reference" "#PWR" (at 0 -3.81 0)
        (effects (font (size 1.27 1.27)) hide)
      )
      (property "Value" "+3.3V" (at 0 3.556 0)
        (effects (font (size 1.27 1.27)))
      )
      (property "Footprint" "" (at 0 0 0)
        (effects (font (size 1.27 1.27)) hide)
      )
      (property "Datasheet" "" (at 0 0 0)
        (effects (font (size 1.27 1.27)) hide)
      )
      (property "ki_keywords" "global power" (at 0 0 0)
        (effects (font (size 1.27 1.27)) hide)
      )
      (property "ki_description" "Power symbol creates a global label with name \"+3.3V\"" (at 0 0 0)
        (effects (font (size 1.27 1.27)) hide)
      )
      (symbol "+3.3V_0_1"
        (polyline
          (pts
            (xy -0.762 1.27)
            (xy 0 2.54)
          )
          (stroke (width 0) (type default))
          (fill (type none))
        )
        (polyline
          (pts
            (xy 0 0)
            (xy 0 2.54)
          )
          (stroke (width 0) (type default))
          (fill (type none))
        )
        (polyline
          (pts
            (xy 0 2.54)
            (xy 0.762 1.27)
          )
          (stroke (width 0) (type default))
          (fill (type none))
        )
      )
      (symbol "+3.3V_1_1"
        (pin power_in line (at 0 0 90) (length 0) hide
          (name "+3.3V" (effects (font (size 1.27 1.27))))
          (number "1" (effects (font (size 1.27 1.27))))
        )
      )
    )
    (symbol "power:GND" (power) (pin_names (offset 0)) (in_bom yes) (on_board yes)
      (property "Reference" "#PWR" (at 0 -6.35 0)
        (effects (font (size 1.27 1.27)) hide)
      )
      (property "Value" "GND" (at 0 -3.81 0)
        (effects (font (size 1.27 1.27)))
      )
      (property "Footprint" "" (at 0 0 0)
        (effects (font (size 1.27 1.27)) hide)
      )
      (property "Datasheet" "" (at 0 0 0)
        (effects (font (size 1.27 1.27)) hide)
      )
      (property "ki_keywords" "global power" (at 0 0 0)
        (effects (font (size 1.27 1.27)) hide)
      )
      (property "ki_description" "Power symbol creates a global label with name \"GND\" , ground" (at 0 0 0)
        (effects (font (size 1.27 1.27)) hide)
      )
      (symbol "GND_0_1"
        (polyline
          (pts
            (xy 0 0)
            (xy 0 -1.27)
            (xy 1.27 -1.27)
            (xy 0 -2.54)
            (xy -1.27 -1.27)
            (xy 0 -1.27)
          )
          (stroke (width 0) (type default))
          (fill (type none))
        )
      )
      (symbol "GND_1_1"
        (pin power_in line (at 0 0 270) (length 0) hide
          (name "GND" (effects (font (size 1.27 1.27))))
          (number "1" (effects (font (size 1.27 1.27))))
        )
      )
    )
  )

  (junction (at 119.38 33.02) (diameter 0) (color 0 0 0 0)
    (uuid 59e08c29-0627-495b-9e6b-b340126f2835)
  )
  (junction (at 114.3 45.72) (diameter 0) (color 0 0 0 0)
    (uuid 71bf7f57-dc10-4e66-ac29-22f829583168)
  )
  (junction (at 119.38 45.72) (diameter 0) (color 0 0 0 0)
    (uuid 8a9dc810-2dd7-4b81-a168-d8d9c3a723c4)
  )
  (junction (at 73.66 30.48) (diameter 0) (color 0 0 0 0)
    (uuid ad9b9d93-81aa-4a49-b7b7-400a15a0a999)
  )
  (junction (at 114.3 30.48) (diameter 0) (color 0 0 0 0)
    (uuid ba8fcaaf-075e-4f53-861e-360882c1ff15)
  )
  (junction (at 119.38 30.48) (diameter 0) (color 0 0 0 0)
    (uuid deb151b9-b174-4695-ab36-76f3b484e8d8)
  )
  (junction (at 119.38 43.18) (diameter 0) (color 0 0 0 0)
    (uuid ef739b99-af03-4675-ac9a-e9457c1625c0)
  )

  (bus_entry (at 36.83 29.21) (size 2.54 2.54)
    (stroke (width 0) (type default))
    (uuid 26f36e9b-3585-4835-973f-8954471b8f95)
  )
  (bus_entry (at 36.83 31.75) (size 2.54 2.54)
    (stroke (width 0) (type default))
    (uuid 3fa6ab77-a765-4bc0-b3b5-09ba792ecdb0)
  )
  (bus_entry (at 36.83 44.45) (size 2.54 2.54)
    (stroke (width 0) (type default))
    (uuid 663ff232-f44a-4087-a243-e7be94431877)
  )
  (bus_entry (at 36.83 34.29) (size 2.54 2.54)
    (stroke (width 0) (type default))
    (uuid 7064b282-ef1d-4cdb-b9fe-f24a44ac2371)
  )
  (bus_entry (at 36.83 36.83) (size 2.54 2.54)
    (stroke (width 0) (type default))
    (uuid 820e6767-7783-46af-95c5-cc5b6638ec59)
  )
  (bus_entry (at 36.83 39.37) (size 2.54 2.54)
    (stroke (width 0) (type default))
    (uuid bf7102be-f0a3-479b-9b26-8a52b3530b2a)
  )
  (bus_entry (at 36.83 46.99) (size 2.54 2.54)
    (stroke (width 0) (type default))
    (uuid c6cad99d-3e39-407a-b692-7f3ebd88de22)
  )
  (bus_entry (at 36.83 41.91) (size 2.54 2.54)
    (stroke (width 0) (type default))
    (uuid d25b49ee-26ce-48a8-95a1-398457b23460)
  )
  (bus_entry (at 162.56 35.56) (size -2.54 2.54)
    (stroke (width 0) (type default))
    (uuid e4f95f21-f7a0-4296-82d9-01bbf32afd3d)
  )
  (bus_entry (at 36.83 49.53) (size 2.54 2.54)
    (stroke (width 0) (type default))
    (uuid ffc5563a-385d-4deb-b724-9811238d6c7a)
  )

  (wire (pts (xy 119.38 30.48) (xy 119.38 33.02))
    (stroke (width 0) (type default))
    (uuid 0ab1c2a1-ead0-46e0-bc02-1a4289f04f72)
  )
  (wire (pts (xy 52.07 24.13) (xy 52.07 21.59))
    (stroke (width 0) (type default))
    (uuid 0bafc7db-a713-4a6a-ad35-72d058968d97)
  )
  (wire (pts (xy 114.3 30.48) (xy 114.3 27.94))
    (stroke (width 0) (type default))
    (uuid 0bf54276-1109-4edc-b3e1-f104fcc21d94)
  )
  (bus (pts (xy 36.83 41.91) (xy 36.83 44.45))
    (stroke (width 0) (type default))
    (uuid 0cbc5877-d524-42b2-921f-cb742cae974e)
  )

  (wire (pts (xy 39.37 44.45) (xy 46.99 44.45))
    (stroke (width 0) (type default))
    (uuid 105cf11b-8c6d-4ca9-961b-c8c1be5196b6)
  )
  (wire (pts (xy 73.66 36.83) (xy 73.66 39.37))
    (stroke (width 0) (type default))
    (uuid 1109ec9d-5d69-4fc9-9132-9b4ab437ce93)
  )
  (wire (pts (xy 39.37 52.07) (xy 46.99 52.07))
    (stroke (width 0) (type default))
    (uuid 14bc3f8e-45d4-4abf-8854-3229cfc75102)
  )
  (wire (pts (xy 55.88 21.59) (xy 55.88 24.13))
    (stroke (width 0) (type default))
    (uuid 1879c46c-1259-47b7-ac56-8cc96da51432)
  )
  (wire (pts (xy 114.3 45.72) (xy 114.3 48.26))
    (stroke (width 0) (type default))
    (uuid 1f5fcfe2-6975-4560-93ea-05fb859185ef)
  )
  (wire (pts (xy 39.37 34.29) (xy 46.99 34.29))
    (stroke (width 0) (type default))
    (uuid 23b57486-373a-4d51-aa7f-743d9f1ee06b)
  )
  (wire (pts (xy 71.12 41.91) (xy 82.55 41.91))
    (stroke (width 0) (type default))
    (uuid 24756229-573e-49f9-abee-5b86301eb4ba)
  )
  (wire (pts (xy 46.99 54.61) (xy 41.91 54.61))
    (stroke (width 0) (type default))
    (uuid 2ea1bca3-b1d2-4ef2-9605-590edbdeab19)
  )
  (wire (pts (xy 149.86 43.18) (xy 152.4 43.18))
    (stroke (width 0) (type default))
    (uuid 3c8fd277-e448-4407-9da8-c6929dbfd67b)
  )
  (wire (pts (xy 119.38 43.18) (xy 119.38 45.72))
    (stroke (width 0) (type default))
    (uuid 3e193154-6997-4a9c-8925-c55965c47b5a)
  )
  (polyline (pts (xy 181.61 64.77) (xy 99.06 64.77))
    (stroke (width 0) (type dash))
    (uuid 42f04d60-fb24-4f9f-b681-318b5f1480f0)
  )

  (wire (pts (xy 73.66 29.21) (xy 73.66 30.48))
    (stroke (width 0) (type default))
    (uuid 458935b1-9193-4d61-8772-0a0d13c6d28c)
  )
  (polyline (pts (xy 181.61 64.77) (xy 181.61 13.97))
    (stroke (width 0) (type dash))
    (uuid 5b2e0a2f-d288-4b59-b3b5-659f73052b1e)
  )

  (wire (pts (xy 52.07 21.59) (xy 55.88 21.59))
    (stroke (width 0) (type default))
    (uuid 66221c99-bcdf-4a18-9ce4-0a202addd090)
  )
  (wire (pts (xy 149.86 33.02) (xy 154.94 33.02))
    (stroke (width 0) (type default))
    (uuid 68e29cd8-d402-4282-90e6-c4942e7bf652)
  )
  (bus (pts (xy 36.83 36.83) (xy 36.83 39.37))
    (stroke (width 0) (type default))
    (uuid 6bdd4619-3a0d-4b31-afa2-df4e1aeebb98)
  )

  (polyline (pts (xy 96.52 64.77) (xy 96.52 13.97))
    (stroke (width 0) (type dash))
    (uuid 6ce0f6b4-ea66-45f4-ae63-2b9fe0d6a217)
  )

  (wire (pts (xy 119.38 40.64) (xy 119.38 43.18))
    (stroke (width 0) (type default))
    (uuid 6e4b9a89-e9f5-4be0-b054-6546e62471c0)
  )
  (wire (pts (xy 46.99 29.21) (xy 41.91 29.21))
    (stroke (width 0) (type default))
    (uuid 6ea3ade2-9a7d-4617-9a30-a7202a5ee74e)
  )
  (wire (pts (xy 119.38 33.02) (xy 129.54 33.02))
    (stroke (width 0) (type default))
    (uuid 6fec0f33-98a1-40a2-b11f-b41cd89e58b7)
  )
  (wire (pts (xy 119.38 30.48) (xy 129.54 30.48))
    (stroke (width 0) (type default))
    (uuid 7302ce4a-8c74-4337-947c-542d5c2ddc90)
  )
  (wire (pts (xy 149.86 30.48) (xy 154.94 30.48))
    (stroke (width 0) (type default))
    (uuid 7689b57b-9993-4843-8086-122aa0335fba)
  )
  (wire (pts (xy 41.91 29.21) (xy 41.91 26.67))
    (stroke (width 0) (type default))
    (uuid 816a550e-c536-47ec-8092-703d4cbe7992)
  )
  (polyline (pts (xy 181.61 13.97) (xy 99.06 13.97))
    (stroke (width 0) (type dash))
    (uuid 81e5fdc6-824e-4a87-ab04-91a03f3311b0)
  )

  (wire (pts (xy 39.37 49.53) (xy 46.99 49.53))
    (stroke (width 0) (type default))
    (uuid 8265c7e2-9ce7-41c3-872b-a0f025896c3d)
  )
  (wire (pts (xy 71.12 39.37) (xy 73.66 39.37))
    (stroke (width 0) (type default))
    (uuid 833c1b9e-60f4-4786-b607-200eaf606d8e)
  )
  (wire (pts (xy 39.37 46.99) (xy 46.99 46.99))
    (stroke (width 0) (type default))
    (uuid 8745437b-0a26-4a87-b5ae-2987bf1a5454)
  )
  (wire (pts (xy 149.86 38.1) (xy 160.02 38.1))
    (stroke (width 0) (type default))
    (uuid 8d26099a-c5c7-4b7a-b76c-dbafd60a99ad)
  )
  (polyline (pts (xy 96.52 13.97) (xy 13.97 13.97))
    (stroke (width 0) (type dash))
    (uuid 8f995b8c-4c39-46b9-9f70-c93377cbe320)
  )

  (bus (pts (xy 36.83 44.45) (xy 36.83 46.99))
    (stroke (width 0) (type default))
    (uuid 92096f59-6168-4c1a-9989-d3f96c0524c7)
  )
  (bus (pts (xy 36.83 46.99) (xy 36.83 49.53))
    (stroke (width 0) (type default))
    (uuid 9437435a-4a12-4d25-9e50-79fd20e63a46)
  )

  (polyline (pts (xy 13.97 13.97) (xy 13.97 64.77))
    (stroke (width 0) (type dash))
    (uuid 956f3447-f44b-430f-b808-8fb1505024d7)
  )

  (wire (pts (xy 119.38 33.02) (xy 119.38 35.56))
    (stroke (width 0) (type default))
    (uuid 96862cd8-7ac9-4671-8563-99156a95c7c3)
  )
  (wire (pts (xy 149.86 45.72) (xy 152.4 45.72))
    (stroke (width 0) (type default))
    (uuid 99c6c47e-b0ce-40be-ace7-3334e719d8a2)
  )
  (wire (pts (xy 149.86 40.64) (xy 152.4 40.64))
    (stroke (width 0) (type default))
    (uuid 9cc2eac6-3c4b-4b5a-a243-3cc050028c70)
  )
  (wire (pts (xy 39.37 31.75) (xy 46.99 31.75))
    (stroke (width 0) (type default))
    (uuid a0e24001-34be-49d2-9d77-cfd28708fa30)
  )
  (wire (pts (xy 119.38 43.18) (xy 129.54 43.18))
    (stroke (width 0) (type default))
    (uuid a1385bc0-b3c4-416f-8483-ee57a3f88fe1)
  )
  (wire (pts (xy 41.91 54.61) (xy 41.91 57.15))
    (stroke (width 0) (type default))
    (uuid a2658cca-46b1-4a7e-b1aa-331bbbc3cc78)
  )
  (bus (pts (xy 36.83 31.75) (xy 36.83 29.21))
    (stroke (width 0) (type default))
    (uuid a63ff397-d929-4adb-822c-3e3cd1096d72)
  )
  (bus (pts (xy 36.83 31.75) (xy 36.83 34.29))
    (stroke (width 0) (type default))
    (uuid ac688488-7825-4640-81af-843e1aef2b4e)
  )
  (bus (pts (xy 36.83 29.21) (xy 34.29 29.21))
    (stroke (width 0) (type default))
    (uuid ae3b149a-085e-4c92-89a0-75254a925897)
  )
  (bus (pts (xy 162.56 35.56) (xy 165.1 35.56))
    (stroke (width 0) (type default))
    (uuid af8a6cf1-0eae-404c-9232-a24db62e0787)
  )

  (wire (pts (xy 82.55 31.75) (xy 82.55 30.48))
    (stroke (width 0) (type default))
    (uuid b37fa7fb-a227-41e3-b6fe-48c78ccd86ab)
  )
  (bus (pts (xy 36.83 34.29) (xy 36.83 36.83))
    (stroke (width 0) (type default))
    (uuid b433d603-90fe-498a-872e-c69fc117bcb8)
  )

  (polyline (pts (xy 96.52 64.77) (xy 13.97 64.77))
    (stroke (width 0) (type dash))
    (uuid b4c6995f-01ae-42ce-8d82-351f8c6ed160)
  )

  (wire (pts (xy 119.38 45.72) (xy 129.54 45.72))
    (stroke (width 0) (type default))
    (uuid b64dfc63-f917-4831-aaeb-c1cc268152ab)
  )
  (wire (pts (xy 160.02 33.02) (xy 165.1 33.02))
    (stroke (width 0) (type default))
    (uuid c3ef098e-e10a-4c95-a95d-0625200ce12b)
  )
  (wire (pts (xy 39.37 36.83) (xy 46.99 36.83))
    (stroke (width 0) (type default))
    (uuid d0e83a58-87d9-4073-b950-5428b38a1e3e)
  )
  (wire (pts (xy 114.3 30.48) (xy 119.38 30.48))
    (stroke (width 0) (type default))
    (uuid d44bf06e-ea05-4403-89c9-a4aca062b5df)
  )
  (wire (pts (xy 114.3 40.64) (xy 114.3 45.72))
    (stroke (width 0) (type default))
    (uuid d8d3968d-7804-45ea-8f55-31468c5c1965)
  )
  (polyline (pts (xy 99.06 13.97) (xy 99.06 64.77))
    (stroke (width 0) (type dash))
    (uuid da537036-676e-48f7-bed2-a3f94e97a429)
  )

  (wire (pts (xy 73.66 30.48) (xy 82.55 30.48))
    (stroke (width 0) (type default))
    (uuid dbd28965-ebe0-45ed-9535-4e7ddf52dffe)
  )
  (wire (pts (xy 82.55 41.91) (xy 82.55 36.83))
    (stroke (width 0) (type default))
    (uuid dd51b0d3-8bae-43fa-b6e2-bc633117037b)
  )
  (wire (pts (xy 39.37 39.37) (xy 46.99 39.37))
    (stroke (width 0) (type default))
    (uuid e314796c-27c1-45f6-88ce-c1742ece484b)
  )
  (bus (pts (xy 36.83 39.37) (xy 36.83 41.91))
    (stroke (width 0) (type default))
    (uuid e68671a7-dcf5-4fe7-99a4-935259c165b2)
  )

  (wire (pts (xy 160.02 30.48) (xy 165.1 30.48))
    (stroke (width 0) (type default))
    (uuid e6ef0550-9f88-4047-b498-e4232b234840)
  )
  (wire (pts (xy 39.37 41.91) (xy 46.99 41.91))
    (stroke (width 0) (type default))
    (uuid eb6f77f9-bcc6-4f4f-8623-d82d437c9ad3)
  )
  (wire (pts (xy 114.3 30.48) (xy 114.3 35.56))
    (stroke (width 0) (type default))
    (uuid f0076da4-ef00-422a-91d3-1501dfbb671c)
  )
  (wire (pts (xy 73.66 30.48) (xy 73.66 31.75))
    (stroke (width 0) (type default))
    (uuid f3a19745-33de-4b7d-9276-b15bfbc15345)
  )
  (wire (pts (xy 114.3 45.72) (xy 119.38 45.72))
    (stroke (width 0) (type default))
    (uuid fda32460-63ce-4c29-a528-00f7cb33cde4)
  )

  (text "On-Board IMU" (at 100.33 17.78 0)
    (effects (font (size 1.27 1.27)) (justify left bottom))
    (uuid 6000d0cd-5d13-4efc-ab70-f5fd8e4658b4)
  )
  (text "IMU Module Communication" (at 15.24 17.78 0)
    (effects (font (size 1.27 1.27)) (justify left bottom))
    (uuid ad643525-cd69-4312-bd02-30514c8ccc3d)
  )

  (label "IMU.MOSI" (at 39.37 39.37 0) (fields_autoplaced)
    (effects (font (size 1.27 1.27)) (justify left bottom))
    (uuid 0df7fa77-3b3f-4f3b-a99e-2bdbf76549bf)
  )
  (label "IMU.MISO" (at 152.4 45.72 0) (fields_autoplaced)
    (effects (font (size 1.27 1.27)) (justify left bottom))
    (uuid 11e7126c-e77a-43ef-91ff-3994da5136f9)
  )
  (label "IMU.~{SS}0" (at 152.4 38.1 0) (fields_autoplaced)
    (effects (font (size 1.27 1.27)) (justify left bottom))
    (uuid 14b8b88d-92cf-491e-ae1c-877bcee57a2c)
  )
  (label "IMU.~{DET}" (at 39.37 52.07 0) (fields_autoplaced)
    (effects (font (size 1.27 1.27)) (justify left bottom))
    (uuid 152d875e-1b57-4255-a56f-2d8d15534fba)
  )
  (label "IMU.~{SS}2" (at 39.37 34.29 0) (fields_autoplaced)
    (effects (font (size 1.27 1.27)) (justify left bottom))
    (uuid 2621e667-07d9-446a-8a4d-6c99c8cc0fd1)
  )
  (label "IMU.INT1" (at 39.37 46.99 0) (fields_autoplaced)
    (effects (font (size 1.27 1.27)) (justify left bottom))
    (uuid 4655b91c-55fd-4e8e-bc0d-7a2e7149989e)
  )
  (label "IMU.SCK" (at 152.4 40.64 0) (fields_autoplaced)
    (effects (font (size 1.27 1.27)) (justify left bottom))
    (uuid 494db6c6-2010-43ec-b17e-4bb669c0f850)
  )
  (label "IMU.INT2" (at 165.1 33.02 0) (fields_autoplaced)
    (effects (font (size 1.27 1.27)) (justify left bottom))
    (uuid 5cfb8530-6a4a-4fa3-adfa-467adea5eb49)
  )
  (label "IMU.~{SS}1" (at 39.37 31.75 0) (fields_autoplaced)
    (effects (font (size 1.27 1.27)) (justify left bottom))
    (uuid 69fc7e96-9fbc-49aa-94c6-3f172dd40847)
  )
  (label "IMU.SCK" (at 39.37 44.45 0) (fields_autoplaced)
    (effects (font (size 1.27 1.27)) (justify left bottom))
    (uuid 7103c38b-8deb-47a5-8e7b-cb66e83e3e75)
  )
  (label "IMU.MISO" (at 39.37 41.91 0) (fields_autoplaced)
    (effects (font (size 1.27 1.27)) (justify left bottom))
    (uuid 881929c1-f8d6-4006-b6d0-d2c7492d74f2)
  )
  (label "IMU.MOSI" (at 152.4 43.18 0) (fields_autoplaced)
    (effects (font (size 1.27 1.27)) (justify left bottom))
    (uuid 89438fe2-c4b5-4402-ae1d-6aab562dfdba)
  )
  (label "IMU.INT2" (at 39.37 49.53 0) (fields_autoplaced)
    (effects (font (size 1.27 1.27)) (justify left bottom))
    (uuid 8d3e74b9-b555-40ab-9f5e-7931e28e36cb)
  )
  (label "IMU.INT1" (at 165.1 30.48 0) (fields_autoplaced)
    (effects (font (size 1.27 1.27)) (justify left bottom))
    (uuid 9851b656-8c27-442c-974f-e4e7077d3136)
  )
  (label "IMU.INT2" (at 71.12 41.91 180) (fields_autoplaced)
    (effects (font (size 1.27 1.27)) (justify right bottom))
    (uuid 9f6f2176-49b0-4e46-80c9-c41de2457441)
  )
  (label "IMU.~{SS}3" (at 39.37 36.83 0) (fields_autoplaced)
    (effects (font (size 1.27 1.27)) (justify left bottom))
    (uuid c60231d7-811d-433e-bed3-d3127ebe7232)
  )
  (label "IMU.INT1" (at 71.12 39.37 180) (fields_autoplaced)
    (effects (font (size 1.27 1.27)) (justify right bottom))
    (uuid c6868176-9a96-45dc-9d07-8d5ec24b7890)
  )

  (hierarchical_label "{IMU}" (shape bidirectional) (at 165.1 35.56 0) (fields_autoplaced)
    (effects (font (size 1.27 1.27)) (justify left))
    (uuid b547d664-e1e7-4734-972f-702087536a87)
  )
  (hierarchical_label "{IMU}" (shape bidirectional) (at 34.29 29.21 180) (fields_autoplaced)
    (effects (font (size 1.27 1.27)) (justify right))
    (uuid dd387661-47f5-4bfd-bc8f-d03307d7be7a)
  )

  (symbol (lib_id "power:+3.3V") (at 41.91 26.67 0) (unit 1)
    (in_bom yes) (on_board yes) (dnp no) (fields_autoplaced)
    (uuid 00f73b98-cbd9-4e03-914f-9822e5693d22)
    (property "Reference" "#PWR074" (at 41.91 30.48 0)
      (effects (font (size 1.27 1.27)) hide)
    )
    (property "Value" "+3.3V" (at 41.91 21.59 0)
      (effects (font (size 1.27 1.27)))
    )
    (property "Footprint" "" (at 41.91 26.67 0)
      (effects (font (size 1.27 1.27)) hide)
    )
    (property "Datasheet" "" (at 41.91 26.67 0)
      (effects (font (size 1.27 1.27)) hide)
    )
    (pin "1" (uuid a50eb0e9-65e8-4305-a65c-647aa855b284))
    (instances
      (project "control"
        (path "/e63e39d7-6ac0-4ffd-8aa3-1841a4541b55/3a74dea1-1510-40f9-ac26-652aca9a28c3"
          (reference "#PWR074") (unit 1)
        )
        (path "/e63e39d7-6ac0-4ffd-8aa3-1841a4541b55"
          (reference "#PWR015") (unit 1)
        )
        (path "/e63e39d7-6ac0-4ffd-8aa3-1841a4541b55/3922ffa1-d2bd-44ba-a360-5fe34fca99b4"
          (reference "#PWR0300") (unit 1)
        )
      )
    )
  )

  (symbol (lib_id "Device:C_Small") (at 119.38 38.1 0) (unit 1)
    (in_bom yes) (on_board yes) (dnp no)
    (uuid 05c16995-e2b9-42f6-b83a-c60de513a809)
    (property "Reference" "C2" (at 121.92 36.8362 0)
      (effects (font (size 1.27 1.27)) (justify left))
    )
    (property "Value" "0.1uF 63V" (at 121.92 39.3762 0)
      (effects (font (size 1.27 1.27)) (justify left))
    )
    (property "Footprint" "Capacitor_SMD:C_0402_1005Metric" (at 119.38 38.1 0)
      (effects (font (size 1.27 1.27)) hide)
    )
    (property "Datasheet" "~" (at 119.38 38.1 0)
      (effects (font (size 1.27 1.27)) hide)
    )
    (pin "1" (uuid 484fe7da-3baf-48e6-ab0d-35a47786ac24))
    (pin "2" (uuid 796d1ff3-d829-4537-a4f0-2cd4d059846f))
    (instances
      (project "control"
        (path "/e63e39d7-6ac0-4ffd-8aa3-1841a4541b55/fff34b63-f9ca-49b5-8ad5-f92410864411"
          (reference "C2") (unit 1)
        )
        (path "/e63e39d7-6ac0-4ffd-8aa3-1841a4541b55/3922ffa1-d2bd-44ba-a360-5fe34fca99b4"
          (reference "C118") (unit 1)
        )
      )
    )
  )

  (symbol (lib_id "power:+3.3V") (at 114.3 27.94 0) (unit 1)
    (in_bom yes) (on_board yes) (dnp no) (fields_autoplaced)
    (uuid 30e16ccf-49cf-4682-92dc-bd92556681d4)
    (property "Reference" "#PWR074" (at 114.3 31.75 0)
      (effects (font (size 1.27 1.27)) hide)
    )
    (property "Value" "+3.3V" (at 114.3 22.86 0)
      (effects (font (size 1.27 1.27)))
    )
    (property "Footprint" "" (at 114.3 27.94 0)
      (effects (font (size 1.27 1.27)) hide)
    )
    (property "Datasheet" "" (at 114.3 27.94 0)
      (effects (font (size 1.27 1.27)) hide)
    )
    (pin "1" (uuid 0efd8186-bd65-4227-b082-7b3835d1f840))
    (instances
      (project "control"
        (path "/e63e39d7-6ac0-4ffd-8aa3-1841a4541b55/3a74dea1-1510-40f9-ac26-652aca9a28c3"
          (reference "#PWR074") (unit 1)
        )
        (path "/e63e39d7-6ac0-4ffd-8aa3-1841a4541b55"
          (reference "#PWR015") (unit 1)
        )
        (path "/e63e39d7-6ac0-4ffd-8aa3-1841a4541b55/3922ffa1-d2bd-44ba-a360-5fe34fca99b4"
          (reference "#PWR0304") (unit 1)
        )
      )
    )
  )

  (symbol (lib_id "power:GND") (at 41.91 57.15 0) (unit 1)
    (in_bom yes) (on_board yes) (dnp no) (fields_autoplaced)
    (uuid 34574900-0ae7-459e-b374-76eeeb80bc97)
    (property "Reference" "#PWR075" (at 41.91 63.5 0)
      (effects (font (size 1.27 1.27)) hide)
    )
    (property "Value" "GND" (at 41.91 62.23 0)
      (effects (font (size 1.27 1.27)))
    )
    (property "Footprint" "" (at 41.91 57.15 0)
      (effects (font (size 1.27 1.27)) hide)
    )
    (property "Datasheet" "" (at 41.91 57.15 0)
      (effects (font (size 1.27 1.27)) hide)
    )
    (pin "1" (uuid f79f9800-6591-49b3-86bb-eaff82256958))
    (instances
      (project "control"
        (path "/e63e39d7-6ac0-4ffd-8aa3-1841a4541b55/3a74dea1-1510-40f9-ac26-652aca9a28c3"
          (reference "#PWR075") (unit 1)
        )
        (path "/e63e39d7-6ac0-4ffd-8aa3-1841a4541b55"
          (reference "#PWR016") (unit 1)
        )
        (path "/e63e39d7-6ac0-4ffd-8aa3-1841a4541b55/3922ffa1-d2bd-44ba-a360-5fe34fca99b4"
          (reference "#PWR0301") (unit 1)
        )
      )
    )
  )

  (symbol (lib_id "Device:R_Small_US") (at 157.48 30.48 90) (unit 1)
    (in_bom yes) (on_board yes) (dnp no)
    (uuid 4eb64ba6-f662-4fdf-bd8a-32039c4f05bd)
    (property "Reference" "R12" (at 161.29 29.21 90)
      (effects (font (size 1.27 1.27)))
    )
    (property "Value" "100" (at 153.67 29.21 90)
      (effects (font (size 1.27 1.27)))
    )
    (property "Footprint" "Resistor_SMD:R_0402_1005Metric" (at 157.48 30.48 0)
      (effects (font (size 1.27 1.27)) hide)
    )
    (property "Datasheet" "~" (at 157.48 30.48 0)
      (effects (font (size 1.27 1.27)) hide)
    )
    (pin "1" (uuid 1b383ac4-3bc2-4d00-8148-32117c8919be))
    (pin "2" (uuid 3a38629b-4ca7-48d1-b759-372830118471))
    (instances
      (project "control"
        (path "/e63e39d7-6ac0-4ffd-8aa3-1841a4541b55"
          (reference "R12") (unit 1)
        )
        (path "/e63e39d7-6ac0-4ffd-8aa3-1841a4541b55/f5b155db-a48d-4f61-acb2-044b9a21eef7"
          (reference "R67") (unit 1)
        )
        (path "/e63e39d7-6ac0-4ffd-8aa3-1841a4541b55/3922ffa1-d2bd-44ba-a360-5fe34fca99b4"
          (reference "R243") (unit 1)
        )
      )
    )
  )

  (symbol (lib_id "Device:R_Small_US") (at 73.66 34.29 0) (unit 1)
    (in_bom yes) (on_board yes) (dnp no) (fields_autoplaced)
    (uuid 5103ccee-66cb-4f58-bee6-d8c85a37ac4a)
    (property "Reference" "R28" (at 76.2 33.655 0)
      (effects (font (size 1.27 1.27)) (justify left))
    )
    (property "Value" "4.7k" (at 76.2 36.195 0)
      (effects (font (size 1.27 1.27)) (justify left))
    )
    (property "Footprint" "Resistor_SMD:R_0402_1005Metric" (at 73.66 34.29 0)
      (effects (font (size 1.27 1.27)) hide)
    )
    (property "Datasheet" "~" (at 73.66 34.29 0)
      (effects (font (size 1.27 1.27)) hide)
    )
    (pin "1" (uuid d2550121-7415-4cf4-9e99-237031592170))
    (pin "2" (uuid a98d7c38-f244-4b65-98dc-ba866f0a7635))
    (instances
      (project "control"
        (path "/e63e39d7-6ac0-4ffd-8aa3-1841a4541b55/3a74dea1-1510-40f9-ac26-652aca9a28c3"
          (reference "R28") (unit 1)
        )
        (path "/e63e39d7-6ac0-4ffd-8aa3-1841a4541b55"
          (reference "R2") (unit 1)
        )
        (path "/e63e39d7-6ac0-4ffd-8aa3-1841a4541b55/3a518f99-143b-497f-96b0-ca972024beee"
          (reference "R237") (unit 1)
        )
        (path "/e63e39d7-6ac0-4ffd-8aa3-1841a4541b55/3922ffa1-d2bd-44ba-a360-5fe34fca99b4"
          (reference "R241") (unit 1)
        )
      )
    )
  )

  (symbol (lib_id "Device:R_Small_US") (at 157.48 33.02 90) (unit 1)
    (in_bom yes) (on_board yes) (dnp no)
    (uuid 8bff8401-6aae-419f-9c17-44b516ccbc03)
    (property "Reference" "R12" (at 161.29 31.75 90)
      (effects (font (size 1.27 1.27)))
    )
    (property "Value" "100" (at 153.67 31.75 90)
      (effects (font (size 1.27 1.27)))
    )
    (property "Footprint" "Resistor_SMD:R_0402_1005Metric" (at 157.48 33.02 0)
      (effects (font (size 1.27 1.27)) hide)
    )
    (property "Datasheet" "~" (at 157.48 33.02 0)
      (effects (font (size 1.27 1.27)) hide)
    )
    (pin "1" (uuid 3a0c4804-c346-4276-8287-75550ee198af))
    (pin "2" (uuid be44a827-0dca-4e66-b52f-fd746818973e))
    (instances
      (project "control"
        (path "/e63e39d7-6ac0-4ffd-8aa3-1841a4541b55"
          (reference "R12") (unit 1)
        )
        (path "/e63e39d7-6ac0-4ffd-8aa3-1841a4541b55/f5b155db-a48d-4f61-acb2-044b9a21eef7"
          (reference "R67") (unit 1)
        )
        (path "/e63e39d7-6ac0-4ffd-8aa3-1841a4541b55/3922ffa1-d2bd-44ba-a360-5fe34fca99b4"
          (reference "R244") (unit 1)
        )
      )
    )
  )

  (symbol (lib_id "Connector_Generic_MountingPin:Conn_01x11_MountingPin") (at 52.07 41.91 0) (mirror x) (unit 1)
    (in_bom yes) (on_board yes) (dnp no)
    (uuid 8ee334bd-332f-4754-825b-db09f9784a61)
    (property "Reference" "J5" (at 52.07 58.42 0)
      (effects (font (size 1.27 1.27)))
    )
    (property "Value" "BM11B-SRSS-TB" (at 55.88 41.91 90)
      (effects (font (size 1.27 1.27)))
    )
    (property "Footprint" "Connector_JST:JST_SH_BM11B-SRSS-TB_1x11-1MP_P1.00mm_Vertical" (at 52.07 41.91 0)
      (effects (font (size 1.27 1.27)) hide)
    )
    (property "Datasheet" "~" (at 52.07 41.91 0)
      (effects (font (size 1.27 1.27)) hide)
    )
    (pin "1" (uuid f2dffb39-ec4d-469c-b43e-a415a2ecc42d))
    (pin "10" (uuid 53772ce9-471b-4133-9bcd-3bd44e6e6f7d))
    (pin "11" (uuid 8af6cede-37b8-46cc-b7a8-099881d28fb0))
    (pin "2" (uuid a2f7e81a-8f05-4d96-9d67-c7635af81253))
    (pin "3" (uuid 2363ce68-d8c6-46d3-bc95-e656e798ccc3))
    (pin "4" (uuid 48b17181-7008-4df2-a795-7bb26d40fb24))
    (pin "5" (uuid 5fdb8308-2f38-4125-a6f5-fa55ae9d3c0f))
    (pin "6" (uuid 66f98667-dbb4-4238-a427-d46bfa63a473))
    (pin "7" (uuid d3ad0a32-f237-480b-95eb-be4079e7a59a))
    (pin "8" (uuid b6a86c5b-510a-4716-88fb-cd1d8bb35ac3))
    (pin "9" (uuid 91865c6b-3c3e-4c0e-a586-4a619a68f1d0))
    (pin "MP" (uuid 082f8593-00b0-4720-90a5-6ca7d02882e2))
    (instances
      (project "control"
        (path "/e63e39d7-6ac0-4ffd-8aa3-1841a4541b55/3a74dea1-1510-40f9-ac26-652aca9a28c3"
          (reference "J5") (unit 1)
        )
        (path "/e63e39d7-6ac0-4ffd-8aa3-1841a4541b55"
          (reference "J4") (unit 1)
        )
        (path "/e63e39d7-6ac0-4ffd-8aa3-1841a4541b55/3922ffa1-d2bd-44ba-a360-5fe34fca99b4"
          (reference "J16") (unit 1)
        )
      )
    )
  )

  (symbol (lib_id "Device:R_Small_US") (at 82.55 34.29 0) (unit 1)
    (in_bom yes) (on_board yes) (dnp no) (fields_autoplaced)
    (uuid 9ee1dd87-5e8d-4c81-b780-ad669df99bd1)
    (property "Reference" "R28" (at 85.09 33.655 0)
      (effects (font (size 1.27 1.27)) (justify left))
    )
    (property "Value" "4.7k" (at 85.09 36.195 0)
      (effects (font (size 1.27 1.27)) (justify left))
    )
    (property "Footprint" "Resistor_SMD:R_0402_1005Metric" (at 82.55 34.29 0)
      (effects (font (size 1.27 1.27)) hide)
    )
    (property "Datasheet" "~" (at 82.55 34.29 0)
      (effects (font (size 1.27 1.27)) hide)
    )
    (pin "1" (uuid 648e73b1-4645-4192-9b4e-278347774520))
    (pin "2" (uuid ffb271e0-51af-472f-9d7e-560cae9ef6de))
    (instances
      (project "control"
        (path "/e63e39d7-6ac0-4ffd-8aa3-1841a4541b55/3a74dea1-1510-40f9-ac26-652aca9a28c3"
          (reference "R28") (unit 1)
        )
        (path "/e63e39d7-6ac0-4ffd-8aa3-1841a4541b55"
          (reference "R2") (unit 1)
        )
        (path "/e63e39d7-6ac0-4ffd-8aa3-1841a4541b55/3a518f99-143b-497f-96b0-ca972024beee"
          (reference "R237") (unit 1)
        )
        (path "/e63e39d7-6ac0-4ffd-8aa3-1841a4541b55/3922ffa1-d2bd-44ba-a360-5fe34fca99b4"
          (reference "R242") (unit 1)
        )
      )
    )
  )

  (symbol (lib_id "power:GND") (at 114.3 48.26 0) (unit 1)
    (in_bom yes) (on_board yes) (dnp no) (fields_autoplaced)
    (uuid bac7232e-4f0f-4c6a-9824-298905c5a825)
    (property "Reference" "#PWR075" (at 114.3 54.61 0)
      (effects (font (size 1.27 1.27)) hide)
    )
    (property "Value" "GND" (at 114.3 53.34 0)
      (effects (font (size 1.27 1.27)))
    )
    (property "Footprint" "" (at 114.3 48.26 0)
      (effects (font (size 1.27 1.27)) hide)
    )
    (property "Datasheet" "" (at 114.3 48.26 0)
      (effects (font (size 1.27 1.27)) hide)
    )
    (pin "1" (uuid 7409ee21-d7c1-4ac0-a5e5-300cd1369895))
    (instances
      (project "control"
        (path "/e63e39d7-6ac0-4ffd-8aa3-1841a4541b55/3a74dea1-1510-40f9-ac26-652aca9a28c3"
          (reference "#PWR075") (unit 1)
        )
        (path "/e63e39d7-6ac0-4ffd-8aa3-1841a4541b55"
          (reference "#PWR016") (unit 1)
        )
        (path "/e63e39d7-6ac0-4ffd-8aa3-1841a4541b55/3922ffa1-d2bd-44ba-a360-5fe34fca99b4"
          (reference "#PWR0305") (unit 1)
        )
      )
    )
  )

  (symbol (lib_id "Device:C_Small") (at 114.3 38.1 0) (mirror y) (unit 1)
    (in_bom yes) (on_board yes) (dnp no)
    (uuid d9ec69c0-aecd-4793-a8d5-42d3d62219a4)
    (property "Reference" "C2" (at 111.76 36.8362 0)
      (effects (font (size 1.27 1.27)) (justify left))
    )
    (property "Value" "0.1uF 63V" (at 111.76 39.3762 0)
      (effects (font (size 1.27 1.27)) (justify left))
    )
    (property "Footprint" "Capacitor_SMD:C_0402_1005Metric" (at 114.3 38.1 0)
      (effects (font (size 1.27 1.27)) hide)
    )
    (property "Datasheet" "~" (at 114.3 38.1 0)
      (effects (font (size 1.27 1.27)) hide)
    )
    (pin "1" (uuid c507786a-4b01-4863-90b2-c786190557b3))
    (pin "2" (uuid aeadb4a2-10a8-4f97-8a44-f57f86f35b84))
    (instances
      (project "control"
        (path "/e63e39d7-6ac0-4ffd-8aa3-1841a4541b55/fff34b63-f9ca-49b5-8ad5-f92410864411"
          (reference "C2") (unit 1)
        )
        (path "/e63e39d7-6ac0-4ffd-8aa3-1841a4541b55/3922ffa1-d2bd-44ba-a360-5fe34fca99b4"
          (reference "C117") (unit 1)
        )
      )
    )
  )

  (symbol (lib_id "power:GND") (at 55.88 24.13 0) (unit 1)
    (in_bom yes) (on_board yes) (dnp no) (fields_autoplaced)
    (uuid dddf3298-db19-4881-9268-4708f5cd225d)
    (property "Reference" "#PWR081" (at 55.88 30.48 0)
      (effects (font (size 1.27 1.27)) hide)
    )
    (property "Value" "GND" (at 55.88 29.21 0)
      (effects (font (size 1.27 1.27)))
    )
    (property "Footprint" "" (at 55.88 24.13 0)
      (effects (font (size 1.27 1.27)) hide)
    )
    (property "Datasheet" "" (at 55.88 24.13 0)
      (effects (font (size 1.27 1.27)) hide)
    )
    (pin "1" (uuid 9518ab5c-ed70-4df2-82ec-1e8fe140ddfc))
    (instances
      (project "control"
        (path "/e63e39d7-6ac0-4ffd-8aa3-1841a4541b55/3a74dea1-1510-40f9-ac26-652aca9a28c3"
          (reference "#PWR081") (unit 1)
        )
        (path "/e63e39d7-6ac0-4ffd-8aa3-1841a4541b55"
          (reference "#PWR020") (unit 1)
        )
        (path "/e63e39d7-6ac0-4ffd-8aa3-1841a4541b55/3922ffa1-d2bd-44ba-a360-5fe34fca99b4"
          (reference "#PWR0302") (unit 1)
        )
      )
    )
  )

  (symbol (lib_id "power:+3.3V") (at 73.66 29.21 0) (unit 1)
    (in_bom yes) (on_board yes) (dnp no) (fields_autoplaced)
    (uuid e97839bc-fc99-46e1-8cd9-23ee407bbd6b)
    (property "Reference" "#PWR074" (at 73.66 33.02 0)
      (effects (font (size 1.27 1.27)) hide)
    )
    (property "Value" "+3.3V" (at 73.66 24.13 0)
      (effects (font (size 1.27 1.27)))
    )
    (property "Footprint" "" (at 73.66 29.21 0)
      (effects (font (size 1.27 1.27)) hide)
    )
    (property "Datasheet" "" (at 73.66 29.21 0)
      (effects (font (size 1.27 1.27)) hide)
    )
    (pin "1" (uuid e31ad7ed-2c96-4c70-a735-d03ed634a08d))
    (instances
      (project "control"
        (path "/e63e39d7-6ac0-4ffd-8aa3-1841a4541b55/3a74dea1-1510-40f9-ac26-652aca9a28c3"
          (reference "#PWR074") (unit 1)
        )
        (path "/e63e39d7-6ac0-4ffd-8aa3-1841a4541b55"
          (reference "#PWR015") (unit 1)
        )
        (path "/e63e39d7-6ac0-4ffd-8aa3-1841a4541b55/3922ffa1-d2bd-44ba-a360-5fe34fca99b4"
          (reference "#PWR0303") (unit 1)
        )
      )
    )
  )

  (symbol (lib_id "AT-IMU:BMI323") (at 139.7 38.1 0) (unit 1)
    (in_bom yes) (on_board yes) (dnp no)
    (uuid f863e827-253a-4e92-87dd-a02d15b9249e)
    (property "Reference" "U16" (at 139.7 26.67 0)
      (effects (font (size 1.27 1.27)))
    )
    (property "Value" "BMI323" (at 139.7 49.53 0)
      (effects (font (size 1.27 1.27)))
    )
    (property "Footprint" "AT-IMU:BMI323" (at 139.7 54.61 0)
      (effects (font (size 1.27 1.27)) hide)
    )
    (property "Datasheet" "https://www.bosch-sensortec.com/media/boschsensortec/downloads/datasheets/bst-bmi323-ds000.pdf" (at 139.7 57.15 0)
      (effects (font (size 1.27 1.27)) hide)
    )
    (pin "1" (uuid 7d57e014-59af-4128-9c70-ee37f6d11606))
    (pin "10" (uuid d69f4857-1774-47b5-a25c-8c91d96faf31))
    (pin "11" (uuid bd9ac2d0-24ce-4042-bc00-a14f47e2c770))
    (pin "12" (uuid 490e87d5-a40b-43d4-8505-339ed38c8e79))
    (pin "13" (uuid 4b9866ec-6a72-4e61-b5b7-f67e65846f3f))
    (pin "14" (uuid d7973009-b653-4aa4-a9c1-d2a77cc06152))
    (pin "2" (uuid fc4a2c16-e883-4878-8dec-0478010ae095))
    (pin "3" (uuid ee1ee41e-9b34-4925-9e9c-0fd816d680a1))
    (pin "4" (uuid e5621188-01b3-4e87-bd1c-8a3571788911))
    (pin "5" (uuid a57c9830-cfcb-4d08-83e2-d04ff0abc33f))
    (pin "6" (uuid d6a60055-0e3d-43bf-a946-41e37eb3b903))
    (pin "7" (uuid 9ec2c130-7fde-4ab2-a02b-2ca0d73b7524))
    (pin "8" (uuid 6af8439f-d775-41ff-a363-276f6b602d85))
    (pin "9" (uuid 7a320914-4257-49ff-a8cb-31dd1b72e6b5))
    (instances
      (project "control"
        (path "/e63e39d7-6ac0-4ffd-8aa3-1841a4541b55/3922ffa1-d2bd-44ba-a360-5fe34fca99b4"
          (reference "U16") (unit 1)
        )
      )
    )
  )
)
