(kicad_sch (version 20230121) (generator eeschema)

  (uuid 9c70793f-1469-4a73-ac45-78fc5ba29d93)

  (paper "A4")

  (title_block
    (title "Control")
    (date "2023-02-21")
    (rev "1.0.0")
    (company "The A-Team (RC SSL)")
    (comment 1 "W. Stuckey & R. Osawa")
  )

  (lib_symbols
    (symbol "AT-PowerIC:LTC2955-1" (in_bom yes) (on_board yes)
      (property "Reference" "U" (at 0 -13.97 0)
        (effects (font (size 1.27 1.27)))
      )
      (property "Value" "LTC2955-1" (at 0 13.97 0)
        (effects (font (size 1.27 1.27)))
      )
      (property "Footprint" "" (at 0 0 0)
        (effects (font (size 1.27 1.27)) hide)
      )
      (property "Datasheet" "https://www.analog.com/media/en/technical-documentation/data-sheets/2955fa.pdf" (at 0 -22.86 0)
        (effects (font (size 1.27 1.27)) hide)
      )
      (property "ki_keywords" "LTC,LTC2995,LT2955,Linear Technology,LinearTechnology,Linear,Technology" (at 0 0 0)
        (effects (font (size 1.27 1.27)) hide)
      )
      (property "ki_description" "micropower , pushbutton on/off controller, 40V" (at 0 0 0)
        (effects (font (size 1.27 1.27)) hide)
      )
      (symbol "LTC2955-1_1_1"
        (rectangle (start -7.62 12.7) (end 7.62 -12.7)
          (stroke (width 0) (type default))
          (fill (type background))
        )
        (pin input line (at -10.16 -5.08 0) (length 2.54)
          (name "ON" (effects (font (size 1.27 1.27))))
          (number "1" (effects (font (size 1.27 1.27))))
        )
        (pin input line (at 10.16 1.27 180) (length 2.54)
          (name "~{KILL}" (effects (font (size 1.27 1.27))))
          (number "2" (effects (font (size 1.27 1.27))))
        )
        (pin bidirectional line (at 10.16 -10.16 180) (length 2.54)
          (name "TMR" (effects (font (size 1.27 1.27))))
          (number "3" (effects (font (size 1.27 1.27))))
        )
        (pin power_in line (at -10.16 -10.16 0) (length 2.54)
          (name "GND" (effects (font (size 1.27 1.27))))
          (number "4" (effects (font (size 1.27 1.27))))
        )
        (pin input line (at -10.16 3.81 0) (length 2.54)
          (name "~{PB}" (effects (font (size 1.27 1.27))))
          (number "5" (effects (font (size 1.27 1.27))))
        )
        (pin power_in line (at -10.16 10.16 0) (length 2.54)
          (name "V_{in}" (effects (font (size 1.27 1.27))))
          (number "6" (effects (font (size 1.27 1.27))))
        )
        (pin power_out line (at 10.16 10.16 180) (length 2.54)
          (name "EN" (effects (font (size 1.27 1.27))))
          (number "7" (effects (font (size 1.27 1.27))))
        )
        (pin output line (at 10.16 3.81 180) (length 2.54)
          (name "~{INT}" (effects (font (size 1.27 1.27))))
          (number "8" (effects (font (size 1.27 1.27))))
        )
      )
    )
    (symbol "AT-PowerIC:LTC4367" (in_bom yes) (on_board yes)
      (property "Reference" "U" (at 2.54 13.97 0)
        (effects (font (size 1.27 1.27)))
      )
      (property "Value" "LTC4367" (at 0 -15.24 0)
        (effects (font (size 1.27 1.27)))
      )
      (property "Footprint" "AT-IC:MS8" (at 0 0 0)
        (effects (font (size 1.27 1.27)) hide)
      )
      (property "Datasheet" "" (at 0 0 0)
        (effects (font (size 1.27 1.27)) hide)
      )
      (symbol "LTC4367_0_1"
        (rectangle (start -7.62 12.7) (end 7.62 -12.7)
          (stroke (width 0.1524) (type default))
          (fill (type background))
        )
      )
      (symbol "LTC4367_1_1"
        (pin power_in line (at -10.16 11.43 0) (length 2.54)
          (name "V_{IN}" (effects (font (size 1.27 1.27))))
          (number "1" (effects (font (size 1.27 1.27))))
        )
        (pin input line (at -10.16 3.81 0) (length 2.54)
          (name "UV" (effects (font (size 1.27 1.27))))
          (number "2" (effects (font (size 1.27 1.27))))
        )
        (pin input line (at -10.16 -3.81 0) (length 2.54)
          (name "OV" (effects (font (size 1.27 1.27))))
          (number "3" (effects (font (size 1.27 1.27))))
        )
        (pin power_in line (at -10.16 -11.43 0) (length 2.54)
          (name "GND" (effects (font (size 1.27 1.27))))
          (number "4" (effects (font (size 1.27 1.27))))
        )
        (pin input line (at 10.16 -11.43 180) (length 2.54)
          (name "~{SHDN}" (effects (font (size 1.27 1.27))))
          (number "5" (effects (font (size 1.27 1.27))))
        )
        (pin open_collector line (at 10.16 -8.89 180) (length 2.54)
          (name "~{FAULT}" (effects (font (size 1.27 1.27))))
          (number "6" (effects (font (size 1.27 1.27))))
        )
        (pin input line (at 10.16 11.43 180) (length 2.54)
          (name "V_{OUT}" (effects (font (size 1.27 1.27))))
          (number "7" (effects (font (size 1.27 1.27))))
        )
        (pin output line (at 0 15.24 270) (length 2.54)
          (name "GATE" (effects (font (size 1.27 1.27))))
          (number "8" (effects (font (size 1.27 1.27))))
        )
      )
    )
    (symbol "AT-Transistors:Q_NMOS_SGD_PowerPAK" (pin_names (offset 0) hide) (in_bom yes) (on_board yes)
      (property "Reference" "Q" (at 5.08 1.27 0)
        (effects (font (size 1.27 1.27)) (justify left))
      )
      (property "Value" "Q_NMOS_SGD_PowerPAK" (at 5.08 -1.27 0)
        (effects (font (size 1.27 1.27)) (justify left))
      )
      (property "Footprint" "" (at 5.08 2.54 0)
        (effects (font (size 1.27 1.27)) hide)
      )
      (property "Datasheet" "~" (at 0 0 0)
        (effects (font (size 1.27 1.27)) hide)
      )
      (property "ki_keywords" "transistor NMOS N-MOS N-MOSFET" (at 0 0 0)
        (effects (font (size 1.27 1.27)) hide)
      )
      (property "ki_description" "N-MOSFET transistor, source/gate/drain" (at 0 0 0)
        (effects (font (size 1.27 1.27)) hide)
      )
      (symbol "Q_NMOS_SGD_PowerPAK_0_1"
        (polyline
          (pts
            (xy 0.254 0)
            (xy -2.54 0)
          )
          (stroke (width 0) (type default))
          (fill (type none))
        )
        (polyline
          (pts
            (xy 0.254 1.905)
            (xy 0.254 -1.905)
          )
          (stroke (width 0.254) (type default))
          (fill (type none))
        )
        (polyline
          (pts
            (xy 0.762 -1.27)
            (xy 0.762 -2.286)
          )
          (stroke (width 0.254) (type default))
          (fill (type none))
        )
        (polyline
          (pts
            (xy 0.762 0.508)
            (xy 0.762 -0.508)
          )
          (stroke (width 0.254) (type default))
          (fill (type none))
        )
        (polyline
          (pts
            (xy 0.762 2.286)
            (xy 0.762 1.27)
          )
          (stroke (width 0.254) (type default))
          (fill (type none))
        )
        (polyline
          (pts
            (xy 2.54 2.54)
            (xy 2.54 1.778)
          )
          (stroke (width 0) (type default))
          (fill (type none))
        )
        (polyline
          (pts
            (xy 7.62 -2.54)
            (xy 5.08 -2.54)
          )
          (stroke (width 0.1524) (type default))
          (fill (type none))
        )
        (polyline
          (pts
            (xy 2.54 -2.54)
            (xy 2.54 0)
            (xy 0.762 0)
          )
          (stroke (width 0) (type default))
          (fill (type none))
        )
        (polyline
          (pts
            (xy 5.08 -2.54)
            (xy 2.54 -2.54)
            (xy 3.81 -2.54)
          )
          (stroke (width 0.1524) (type default))
          (fill (type none))
        )
        (polyline
          (pts
            (xy 0.762 -1.778)
            (xy 3.302 -1.778)
            (xy 3.302 1.778)
            (xy 0.762 1.778)
          )
          (stroke (width 0) (type default))
          (fill (type none))
        )
        (polyline
          (pts
            (xy 1.016 0)
            (xy 2.032 0.381)
            (xy 2.032 -0.381)
            (xy 1.016 0)
          )
          (stroke (width 0) (type default))
          (fill (type outline))
        )
        (polyline
          (pts
            (xy 2.794 0.508)
            (xy 2.921 0.381)
            (xy 3.683 0.381)
            (xy 3.81 0.254)
          )
          (stroke (width 0) (type default))
          (fill (type none))
        )
        (polyline
          (pts
            (xy 3.302 0.381)
            (xy 2.921 -0.254)
            (xy 3.683 -0.254)
            (xy 3.302 0.381)
          )
          (stroke (width 0) (type default))
          (fill (type none))
        )
        (circle (center 1.651 0) (radius 2.794)
          (stroke (width 0.254) (type default))
          (fill (type none))
        )
        (circle (center 2.54 -2.54) (radius 0.254)
          (stroke (width 0) (type default))
          (fill (type outline))
        )
        (circle (center 2.54 -1.778) (radius 0.254)
          (stroke (width 0) (type default))
          (fill (type outline))
        )
        (circle (center 2.54 1.778) (radius 0.254)
          (stroke (width 0) (type default))
          (fill (type outline))
        )
        (circle (center 5.08 -2.54) (radius 0.254)
          (stroke (width 0) (type default))
          (fill (type outline))
        )
      )
      (symbol "Q_NMOS_SGD_PowerPAK_1_1"
        (pin passive line (at 2.54 -5.08 90) (length 2.54)
          (name "S" (effects (font (size 1.27 1.27))))
          (number "1" (effects (font (size 1.27 1.27))))
        )
        (pin passive line (at 5.08 -5.08 90) (length 2.54)
          (name "S" (effects (font (size 1.27 1.27))))
          (number "2" (effects (font (size 1.27 1.27))))
        )
        (pin passive line (at 7.62 -5.08 90) (length 2.54)
          (name "S" (effects (font (size 1.27 1.27))))
          (number "3" (effects (font (size 1.27 1.27))))
        )
        (pin input line (at -5.08 0 0) (length 5.08)
          (name "G" (effects (font (size 1.27 1.27))))
          (number "4" (effects (font (size 1.27 1.27))))
        )
        (pin passive line (at 2.54 5.08 270) (length 2.54)
          (name "D" (effects (font (size 1.27 1.27))))
          (number "5" (effects (font (size 1.27 1.27))))
        )
      )
    )
    (symbol "Device:C_Small" (pin_numbers hide) (pin_names (offset 0.254) hide) (in_bom yes) (on_board yes)
      (property "Reference" "C" (at 0.254 1.778 0)
        (effects (font (size 1.27 1.27)) (justify left))
      )
      (property "Value" "C_Small" (at 0.254 -2.032 0)
        (effects (font (size 1.27 1.27)) (justify left))
      )
      (property "Footprint" "" (at 0 0 0)
        (effects (font (size 1.27 1.27)) hide)
      )
      (property "Datasheet" "~" (at 0 0 0)
        (effects (font (size 1.27 1.27)) hide)
      )
      (property "ki_keywords" "capacitor cap" (at 0 0 0)
        (effects (font (size 1.27 1.27)) hide)
      )
      (property "ki_description" "Unpolarized capacitor, small symbol" (at 0 0 0)
        (effects (font (size 1.27 1.27)) hide)
      )
      (property "ki_fp_filters" "C_*" (at 0 0 0)
        (effects (font (size 1.27 1.27)) hide)
      )
      (symbol "C_Small_0_1"
        (polyline
          (pts
            (xy -1.524 -0.508)
            (xy 1.524 -0.508)
          )
          (stroke (width 0.3302) (type default))
          (fill (type none))
        )
        (polyline
          (pts
            (xy -1.524 0.508)
            (xy 1.524 0.508)
          )
          (stroke (width 0.3048) (type default))
          (fill (type none))
        )
      )
      (symbol "C_Small_1_1"
        (pin passive line (at 0 2.54 270) (length 2.032)
          (name "~" (effects (font (size 1.27 1.27))))
          (number "1" (effects (font (size 1.27 1.27))))
        )
        (pin passive line (at 0 -2.54 90) (length 2.032)
          (name "~" (effects (font (size 1.27 1.27))))
          (number "2" (effects (font (size 1.27 1.27))))
        )
      )
    )
    (symbol "Device:D_TVS" (pin_numbers hide) (pin_names (offset 1.016) hide) (in_bom yes) (on_board yes)
      (property "Reference" "D" (at 0 2.54 0)
        (effects (font (size 1.27 1.27)))
      )
      (property "Value" "D_TVS" (at 0 -2.54 0)
        (effects (font (size 1.27 1.27)))
      )
      (property "Footprint" "" (at 0 0 0)
        (effects (font (size 1.27 1.27)) hide)
      )
      (property "Datasheet" "~" (at 0 0 0)
        (effects (font (size 1.27 1.27)) hide)
      )
      (property "ki_keywords" "diode TVS thyrector" (at 0 0 0)
        (effects (font (size 1.27 1.27)) hide)
      )
      (property "ki_description" "Bidirectional transient-voltage-suppression diode" (at 0 0 0)
        (effects (font (size 1.27 1.27)) hide)
      )
      (property "ki_fp_filters" "TO-???* *_Diode_* *SingleDiode* D_*" (at 0 0 0)
        (effects (font (size 1.27 1.27)) hide)
      )
      (symbol "D_TVS_0_1"
        (polyline
          (pts
            (xy 1.27 0)
            (xy -1.27 0)
          )
          (stroke (width 0) (type default))
          (fill (type none))
        )
        (polyline
          (pts
            (xy 0.508 1.27)
            (xy 0 1.27)
            (xy 0 -1.27)
            (xy -0.508 -1.27)
          )
          (stroke (width 0.254) (type default))
          (fill (type none))
        )
        (polyline
          (pts
            (xy -2.54 1.27)
            (xy -2.54 -1.27)
            (xy 2.54 1.27)
            (xy 2.54 -1.27)
            (xy -2.54 1.27)
          )
          (stroke (width 0.254) (type default))
          (fill (type none))
        )
      )
      (symbol "D_TVS_1_1"
        (pin passive line (at -3.81 0 0) (length 2.54)
          (name "A1" (effects (font (size 1.27 1.27))))
          (number "1" (effects (font (size 1.27 1.27))))
        )
        (pin passive line (at 3.81 0 180) (length 2.54)
          (name "A2" (effects (font (size 1.27 1.27))))
          (number "2" (effects (font (size 1.27 1.27))))
        )
      )
    )
    (symbol "Device:R_Small_US" (pin_numbers hide) (pin_names (offset 0.254) hide) (in_bom yes) (on_board yes)
      (property "Reference" "R" (at 0.762 0.508 0)
        (effects (font (size 1.27 1.27)) (justify left))
      )
      (property "Value" "R_Small_US" (at 0.762 -1.016 0)
        (effects (font (size 1.27 1.27)) (justify left))
      )
      (property "Footprint" "" (at 0 0 0)
        (effects (font (size 1.27 1.27)) hide)
      )
      (property "Datasheet" "~" (at 0 0 0)
        (effects (font (size 1.27 1.27)) hide)
      )
      (property "ki_keywords" "r resistor" (at 0 0 0)
        (effects (font (size 1.27 1.27)) hide)
      )
      (property "ki_description" "Resistor, small US symbol" (at 0 0 0)
        (effects (font (size 1.27 1.27)) hide)
      )
      (property "ki_fp_filters" "R_*" (at 0 0 0)
        (effects (font (size 1.27 1.27)) hide)
      )
      (symbol "R_Small_US_1_1"
        (polyline
          (pts
            (xy 0 0)
            (xy 1.016 -0.381)
            (xy 0 -0.762)
            (xy -1.016 -1.143)
            (xy 0 -1.524)
          )
          (stroke (width 0) (type default))
          (fill (type none))
        )
        (polyline
          (pts
            (xy 0 1.524)
            (xy 1.016 1.143)
            (xy 0 0.762)
            (xy -1.016 0.381)
            (xy 0 0)
          )
          (stroke (width 0) (type default))
          (fill (type none))
        )
        (pin passive line (at 0 2.54 270) (length 1.016)
          (name "~" (effects (font (size 1.27 1.27))))
          (number "1" (effects (font (size 1.27 1.27))))
        )
        (pin passive line (at 0 -2.54 90) (length 1.016)
          (name "~" (effects (font (size 1.27 1.27))))
          (number "2" (effects (font (size 1.27 1.27))))
        )
      )
    )
    (symbol "Switch:SW_Push" (pin_numbers hide) (pin_names (offset 1.016) hide) (in_bom yes) (on_board yes)
      (property "Reference" "SW" (at 1.27 2.54 0)
        (effects (font (size 1.27 1.27)) (justify left))
      )
      (property "Value" "SW_Push" (at 0 -1.524 0)
        (effects (font (size 1.27 1.27)))
      )
      (property "Footprint" "" (at 0 5.08 0)
        (effects (font (size 1.27 1.27)) hide)
      )
      (property "Datasheet" "~" (at 0 5.08 0)
        (effects (font (size 1.27 1.27)) hide)
      )
      (property "ki_keywords" "switch normally-open pushbutton push-button" (at 0 0 0)
        (effects (font (size 1.27 1.27)) hide)
      )
      (property "ki_description" "Push button switch, generic, two pins" (at 0 0 0)
        (effects (font (size 1.27 1.27)) hide)
      )
      (symbol "SW_Push_0_1"
        (circle (center -2.032 0) (radius 0.508)
          (stroke (width 0) (type default))
          (fill (type none))
        )
        (polyline
          (pts
            (xy 0 1.27)
            (xy 0 3.048)
          )
          (stroke (width 0) (type default))
          (fill (type none))
        )
        (polyline
          (pts
            (xy 2.54 1.27)
            (xy -2.54 1.27)
          )
          (stroke (width 0) (type default))
          (fill (type none))
        )
        (circle (center 2.032 0) (radius 0.508)
          (stroke (width 0) (type default))
          (fill (type none))
        )
        (pin passive line (at -5.08 0 0) (length 2.54)
          (name "1" (effects (font (size 1.27 1.27))))
          (number "1" (effects (font (size 1.27 1.27))))
        )
        (pin passive line (at 5.08 0 180) (length 2.54)
          (name "2" (effects (font (size 1.27 1.27))))
          (number "2" (effects (font (size 1.27 1.27))))
        )
      )
    )
    (symbol "power:GND" (power) (pin_names (offset 0)) (in_bom yes) (on_board yes)
      (property "Reference" "#PWR" (at 0 -6.35 0)
        (effects (font (size 1.27 1.27)) hide)
      )
      (property "Value" "GND" (at 0 -3.81 0)
        (effects (font (size 1.27 1.27)))
      )
      (property "Footprint" "" (at 0 0 0)
        (effects (font (size 1.27 1.27)) hide)
      )
      (property "Datasheet" "" (at 0 0 0)
        (effects (font (size 1.27 1.27)) hide)
      )
      (property "ki_keywords" "global power" (at 0 0 0)
        (effects (font (size 1.27 1.27)) hide)
      )
      (property "ki_description" "Power symbol creates a global label with name \"GND\" , ground" (at 0 0 0)
        (effects (font (size 1.27 1.27)) hide)
      )
      (symbol "GND_0_1"
        (polyline
          (pts
            (xy 0 0)
            (xy 0 -1.27)
            (xy 1.27 -1.27)
            (xy 0 -2.54)
            (xy -1.27 -1.27)
            (xy 0 -1.27)
          )
          (stroke (width 0) (type default))
          (fill (type none))
        )
      )
      (symbol "GND_1_1"
        (pin power_in line (at 0 0 270) (length 0) hide
          (name "GND" (effects (font (size 1.27 1.27))))
          (number "1" (effects (font (size 1.27 1.27))))
        )
      )
    )
    (symbol "power:PWR_FLAG" (power) (pin_numbers hide) (pin_names (offset 0) hide) (in_bom yes) (on_board yes)
      (property "Reference" "#FLG" (at 0 1.905 0)
        (effects (font (size 1.27 1.27)) hide)
      )
      (property "Value" "PWR_FLAG" (at 0 3.81 0)
        (effects (font (size 1.27 1.27)))
      )
      (property "Footprint" "" (at 0 0 0)
        (effects (font (size 1.27 1.27)) hide)
      )
      (property "Datasheet" "~" (at 0 0 0)
        (effects (font (size 1.27 1.27)) hide)
      )
      (property "ki_keywords" "flag power" (at 0 0 0)
        (effects (font (size 1.27 1.27)) hide)
      )
      (property "ki_description" "Special symbol for telling ERC where power comes from" (at 0 0 0)
        (effects (font (size 1.27 1.27)) hide)
      )
      (symbol "PWR_FLAG_0_0"
        (pin power_out line (at 0 0 90) (length 0)
          (name "pwr" (effects (font (size 1.27 1.27))))
          (number "1" (effects (font (size 1.27 1.27))))
        )
      )
      (symbol "PWR_FLAG_0_1"
        (polyline
          (pts
            (xy 0 0)
            (xy 0 1.27)
            (xy -1.016 1.905)
            (xy 0 2.54)
            (xy 1.016 1.905)
            (xy 0 1.27)
          )
          (stroke (width 0) (type default))
          (fill (type none))
        )
      )
    )
  )

  (junction (at 201.93 87.63) (diameter 0) (color 0 0 0 0)
    (uuid 24c40257-ee5b-4def-9dc2-ab057b76142a)
  )
  (junction (at 180.34 48.26) (diameter 0) (color 0 0 0 0)
    (uuid 272bf8be-fdc8-4049-97a8-ebb74397d36b)
  )
  (junction (at 123.19 58.42) (diameter 0) (color 0 0 0 0)
    (uuid 2bfefc4f-1b17-49f1-a49f-9be27b50cb6b)
  )
  (junction (at 217.17 110.49) (diameter 0) (color 0 0 0 0)
    (uuid 2cacaa1c-dc83-4ea4-a439-a59e5f68fceb)
  )
  (junction (at 92.71 68.58) (diameter 0) (color 0 0 0 0)
    (uuid 32687675-0bc8-4a57-b95f-934e47695abc)
  )
  (junction (at 100.33 58.42) (diameter 0) (color 0 0 0 0)
    (uuid 335164ce-f816-4d68-9beb-1e340597662c)
  )
  (junction (at 184.15 60.96) (diameter 0.9144) (color 0 0 0 0)
    (uuid 39243d70-affd-49ec-862f-024c1a45fba5)
  )
  (junction (at 187.96 45.72) (diameter 0) (color 0 0 0 0)
    (uuid 4015678b-ab0e-45b8-8b9a-4b7b65120dfc)
  )
  (junction (at 217.17 100.33) (diameter 0) (color 0 0 0 0)
    (uuid 5590c75c-04a8-4807-b6c6-d9eb583a5b3b)
  )
  (junction (at 224.79 48.26) (diameter 0.9144) (color 0 0 0 0)
    (uuid 562714aa-c0c0-438a-9d24-8b0e8acf55de)
  )
  (junction (at 109.22 58.42) (diameter 0) (color 0 0 0 0)
    (uuid 6baa4a3d-168f-4770-81a7-bad818f058c5)
  )
  (junction (at 201.93 48.26) (diameter 0.9144) (color 0 0 0 0)
    (uuid 73cea840-88be-4bb9-bf1e-7f99a6a23668)
  )
  (junction (at 92.71 48.26) (diameter 0) (color 0 0 0 0)
    (uuid 75005bb1-a08a-476b-8b3c-10732e4531ad)
  )
  (junction (at 180.34 45.72) (diameter 0) (color 0 0 0 0)
    (uuid 7961fb0b-e1ca-4cb8-a706-d56858e11e60)
  )
  (junction (at 184.15 58.42) (diameter 0.9144) (color 0 0 0 0)
    (uuid 8162ff1e-dfaa-4d86-b090-962a0005a4b1)
  )
  (junction (at 156.21 82.55) (diameter 0.9144) (color 0 0 0 0)
    (uuid a6ec9a24-da98-43e9-b4ce-46c84e06e93a)
  )
  (junction (at 187.96 48.26) (diameter 0) (color 0 0 0 0)
    (uuid a94f26e7-528a-4ba4-a960-9fe3e033fd15)
  )
  (junction (at 161.29 110.49) (diameter 0) (color 0 0 0 0)
    (uuid ac877058-b32d-4f1f-a7ba-75ae3ef6be23)
  )
  (junction (at 171.45 124.46) (diameter 0) (color 0 0 0 0)
    (uuid b3d4e900-2cf2-43f8-98b8-8cd8579ea717)
  )
  (junction (at 227.33 113.03) (diameter 0) (color 0 0 0 0)
    (uuid bb72f5d9-a7f0-4bee-a18b-35d5fc78ce84)
  )
  (junction (at 92.71 58.42) (diameter 0) (color 0 0 0 0)
    (uuid c243c66e-7b3a-4766-ac44-e77c35a54b90)
  )
  (junction (at 156.21 74.93) (diameter 0.9144) (color 0 0 0 0)
    (uuid e3898bcd-ba25-495d-bce5-2258be9d151b)
  )
  (junction (at 144.78 110.49) (diameter 0) (color 0 0 0 0)
    (uuid ea321849-053e-42c4-9a55-45f4f6500f50)
  )
  (junction (at 156.21 90.17) (diameter 0.9144) (color 0 0 0 0)
    (uuid ee6d8ae1-bbaa-45e2-9e12-8fd479184d18)
  )
  (junction (at 201.93 67.31) (diameter 0) (color 0 0 0 0)
    (uuid f5f65ace-07f2-4e3e-91c2-99be2b262450)
  )
  (junction (at 156.21 58.42) (diameter 0) (color 0 0 0 0)
    (uuid ffceab58-85c5-413c-bc46-0fc2861757ba)
  )

  (wire (pts (xy 224.79 45.72) (xy 224.79 48.26))
    (stroke (width 0) (type default))
    (uuid 0644df62-d042-4d37-bdb9-e1e79a77d350)
  )
  (wire (pts (xy 92.71 68.58) (xy 92.71 69.85))
    (stroke (width 0) (type default))
    (uuid 0f9f1b34-5e54-40e5-b57d-32aa84709b60)
  )
  (wire (pts (xy 156.21 58.42) (xy 156.21 60.96))
    (stroke (width 0) (type default))
    (uuid 10bbca51-ac0a-4238-9858-7b89c79a96dd)
  )
  (wire (pts (xy 109.22 58.42) (xy 123.19 58.42))
    (stroke (width 0) (type default))
    (uuid 11fca4bf-e187-4435-b1c0-a238c6504a76)
  )
  (wire (pts (xy 171.45 124.46) (xy 173.99 124.46))
    (stroke (width 0) (type default))
    (uuid 13b617be-ae59-4859-b471-8f9a400ae5cf)
  )
  (wire (pts (xy 156.21 73.66) (xy 156.21 74.93))
    (stroke (width 0) (type solid))
    (uuid 13edf33c-23b7-44b2-b91c-59a256486a1f)
  )
  (wire (pts (xy 156.21 74.93) (xy 156.21 76.2))
    (stroke (width 0) (type solid))
    (uuid 13edf33c-23b7-44b2-b91c-59a256486a20)
  )
  (wire (pts (xy 212.09 68.58) (xy 212.09 71.12))
    (stroke (width 0) (type solid))
    (uuid 1ed0f86a-2e42-4c5f-819b-af12f394441f)
  )
  (wire (pts (xy 227.33 107.95) (xy 227.33 113.03))
    (stroke (width 0) (type default))
    (uuid 213ef041-bf1c-4151-9347-397084a9ad62)
  )
  (wire (pts (xy 196.85 132.08) (xy 196.85 134.62))
    (stroke (width 0) (type default))
    (uuid 238d847d-ad76-43b8-9687-7a06b943d00e)
  )
  (wire (pts (xy 224.79 48.26) (xy 229.87 48.26))
    (stroke (width 0) (type default))
    (uuid 25a1037b-79b9-4d4a-9d42-3cde7e618ae0)
  )
  (wire (pts (xy 179.07 45.72) (xy 180.34 45.72))
    (stroke (width 0) (type default))
    (uuid 288027f1-c28b-4aec-a866-de0ce75aac32)
  )
  (wire (pts (xy 90.17 48.26) (xy 92.71 48.26))
    (stroke (width 0) (type solid))
    (uuid 2a557694-d07d-44bb-a170-ba5dcb5d0e0b)
  )
  (wire (pts (xy 201.93 85.09) (xy 201.93 87.63))
    (stroke (width 0) (type default))
    (uuid 2b7cb335-49d3-4552-8b91-22b51d4f1786)
  )
  (wire (pts (xy 92.71 68.58) (xy 109.22 68.58))
    (stroke (width 0) (type default))
    (uuid 3180803a-023f-4617-bad2-b2dc02ca1bcd)
  )
  (wire (pts (xy 184.15 60.96) (xy 184.15 63.5))
    (stroke (width 0) (type solid))
    (uuid 320b03bf-f4df-43ff-90be-56f6fb233fda)
  )
  (wire (pts (xy 189.23 43.18) (xy 187.96 43.18))
    (stroke (width 0) (type default))
    (uuid 3267319e-9f66-4275-a38f-4a0839d59d3b)
  )
  (wire (pts (xy 180.34 45.72) (xy 180.34 48.26))
    (stroke (width 0) (type default))
    (uuid 33adf571-d207-4830-af16-2b552e4f1fe9)
  )
  (wire (pts (xy 92.71 55.88) (xy 92.71 58.42))
    (stroke (width 0) (type default))
    (uuid 347327d3-529f-48f5-91a5-edbf554ad44f)
  )
  (wire (pts (xy 92.71 48.26) (xy 168.91 48.26))
    (stroke (width 0) (type solid))
    (uuid 35e2f4eb-2498-436d-a24a-f4fb2522359a)
  )
  (wire (pts (xy 191.77 58.42) (xy 194.31 58.42))
    (stroke (width 0) (type solid))
    (uuid 39aa2d10-1dca-4847-b55e-6d21cc3ebbf3)
  )
  (wire (pts (xy 194.31 58.42) (xy 194.31 55.88))
    (stroke (width 0) (type solid))
    (uuid 39aa2d10-1dca-4847-b55e-6d21cc3ebbf4)
  )
  (wire (pts (xy 194.31 67.31) (xy 201.93 67.31))
    (stroke (width 0) (type solid))
    (uuid 4255558c-a913-4587-aedc-48f779e55ac6)
  )
  (wire (pts (xy 201.93 67.31) (xy 201.93 48.26))
    (stroke (width 0) (type solid))
    (uuid 4255558c-a913-4587-aedc-48f779e55ac7)
  )
  (wire (pts (xy 214.63 100.33) (xy 217.17 100.33))
    (stroke (width 0) (type default))
    (uuid 47125dc9-57ba-472d-86d4-b64fffd9bdca)
  )
  (wire (pts (xy 189.23 45.72) (xy 187.96 45.72))
    (stroke (width 0) (type default))
    (uuid 47932234-b99d-45fc-9b08-8f6fbc671c69)
  )
  (wire (pts (xy 92.71 58.42) (xy 100.33 58.42))
    (stroke (width 0) (type default))
    (uuid 48c82b67-7f4b-4a72-95d6-f25a1f0d425b)
  )
  (wire (pts (xy 201.93 67.31) (xy 201.93 80.01))
    (stroke (width 0) (type default))
    (uuid 4c3a5a4e-70a5-4de7-a8a8-e33fee752e37)
  )
  (wire (pts (xy 129.54 123.19) (xy 129.54 127))
    (stroke (width 0) (type default))
    (uuid 4ca5209d-b519-4508-b46d-0ef5f06576c8)
  )
  (wire (pts (xy 181.61 58.42) (xy 184.15 58.42))
    (stroke (width 0) (type solid))
    (uuid 50cf3c2b-0a1b-44b8-924f-8092000d532c)
  )
  (wire (pts (xy 184.15 58.42) (xy 186.69 58.42))
    (stroke (width 0) (type solid))
    (uuid 50cf3c2b-0a1b-44b8-924f-8092000d532d)
  )
  (wire (pts (xy 184.15 60.96) (xy 212.09 60.96))
    (stroke (width 0) (type solid))
    (uuid 53792465-df1c-429b-aef5-de922a32a912)
  )
  (wire (pts (xy 212.09 60.96) (xy 212.09 63.5))
    (stroke (width 0) (type solid))
    (uuid 53792465-df1c-429b-aef5-de922a32a913)
  )
  (wire (pts (xy 180.34 43.18) (xy 180.34 45.72))
    (stroke (width 0) (type default))
    (uuid 538dabc8-68aa-40f9-9bb1-2c7bd12ebedc)
  )
  (wire (pts (xy 163.83 67.31) (xy 163.83 58.42))
    (stroke (width 0) (type default))
    (uuid 53a25502-fac7-4505-82e8-2f7fbe7c973d)
  )
  (wire (pts (xy 194.31 113.03) (xy 227.33 113.03))
    (stroke (width 0) (type default))
    (uuid 549ad84d-2976-481e-a7a5-ed197dee47bf)
  )
  (wire (pts (xy 129.54 110.49) (xy 144.78 110.49))
    (stroke (width 0) (type default))
    (uuid 5906b684-16e5-4be4-88e9-548d30f1c041)
  )
  (wire (pts (xy 156.21 90.17) (xy 156.21 88.9))
    (stroke (width 0) (type solid))
    (uuid 5926f34b-5917-4af9-aa11-09569adaff31)
  )
  (wire (pts (xy 156.21 90.17) (xy 173.99 90.17))
    (stroke (width 0) (type solid))
    (uuid 5926f34b-5917-4af9-aa11-09569adaff32)
  )
  (wire (pts (xy 194.31 87.63) (xy 201.93 87.63))
    (stroke (width 0) (type solid))
    (uuid 5bc1e35d-0f75-40cc-af99-52bc075372cc)
  )
  (wire (pts (xy 156.21 74.93) (xy 173.99 74.93))
    (stroke (width 0) (type solid))
    (uuid 5d5e127e-a89b-4304-8b55-8827b23f86a2)
  )
  (wire (pts (xy 194.31 110.49) (xy 217.17 110.49))
    (stroke (width 0) (type default))
    (uuid 60177066-d4e0-45d2-a3f2-29e5119bb9fd)
  )
  (wire (pts (xy 100.33 58.42) (xy 109.22 58.42))
    (stroke (width 0) (type default))
    (uuid 659424d2-728c-44ef-8f4e-3782611a6096)
  )
  (wire (pts (xy 144.78 110.49) (xy 153.67 110.49))
    (stroke (width 0) (type default))
    (uuid 65c7abd5-15e1-4561-8316-240de903b59a)
  )
  (wire (pts (xy 171.45 119.38) (xy 173.99 119.38))
    (stroke (width 0) (type default))
    (uuid 68f6e4f3-4d82-48f3-b1ff-34c985af3b1d)
  )
  (wire (pts (xy 217.17 107.95) (xy 217.17 110.49))
    (stroke (width 0) (type default))
    (uuid 6c85fc27-2254-4d11-9db1-f2593fbfacee)
  )
  (wire (pts (xy 227.33 100.33) (xy 227.33 102.87))
    (stroke (width 0) (type default))
    (uuid 6c96d2a2-fc53-4067-a06c-48e91ea502ac)
  )
  (polyline (pts (xy 13.97 13.97) (xy 13.97 170.18))
    (stroke (width 0) (type dash))
    (uuid 765f1e9b-1048-401b-830f-c0895544a545)
  )
  (polyline (pts (xy 13.97 13.97) (xy 275.59 13.97))
    (stroke (width 0) (type dash))
    (uuid 765f1e9b-1048-401b-830f-c0895544a546)
  )
  (polyline (pts (xy 13.97 170.18) (xy 275.59 170.18))
    (stroke (width 0) (type dash))
    (uuid 765f1e9b-1048-401b-830f-c0895544a547)
  )
  (polyline (pts (xy 275.59 170.18) (xy 275.59 13.97))
    (stroke (width 0) (type dash))
    (uuid 765f1e9b-1048-401b-830f-c0895544a548)
  )

  (wire (pts (xy 123.19 104.14) (xy 173.99 104.14))
    (stroke (width 0) (type default))
    (uuid 78138e52-ea6f-4859-9fc9-f05b1258672a)
  )
  (wire (pts (xy 156.21 66.04) (xy 156.21 68.58))
    (stroke (width 0) (type solid))
    (uuid 78983a14-6336-47a2-b6c0-f7cd6d3a91dc)
  )
  (wire (pts (xy 179.07 48.26) (xy 180.34 48.26))
    (stroke (width 0) (type solid))
    (uuid 7b826441-0049-4c11-8a04-ef78803a0a4a)
  )
  (wire (pts (xy 144.78 110.49) (xy 144.78 113.03))
    (stroke (width 0) (type default))
    (uuid 80024364-336b-4389-9e78-cee8cb50c36f)
  )
  (wire (pts (xy 224.79 48.26) (xy 224.79 50.8))
    (stroke (width 0) (type default))
    (uuid 82c85916-e793-414e-9580-0a5c6e20f89b)
  )
  (wire (pts (xy 217.17 100.33) (xy 227.33 100.33))
    (stroke (width 0) (type default))
    (uuid 86c7a17e-4dbf-42bb-8926-50ce38e5d053)
  )
  (wire (pts (xy 156.21 58.42) (xy 163.83 58.42))
    (stroke (width 0) (type default))
    (uuid 88b79666-3e5a-43cf-bdcc-57ef84a4612c)
  )
  (wire (pts (xy 196.85 124.46) (xy 194.31 124.46))
    (stroke (width 0) (type default))
    (uuid 89a66660-42a5-428d-afa9-26d756444a54)
  )
  (wire (pts (xy 156.21 90.17) (xy 156.21 91.44))
    (stroke (width 0) (type solid))
    (uuid 8b7df21f-f299-41d2-afc5-1a3e2770c495)
  )
  (wire (pts (xy 180.34 48.26) (xy 187.96 48.26))
    (stroke (width 0) (type solid))
    (uuid 8d786490-e7e9-46bf-8ca8-f5a839666eb7)
  )
  (wire (pts (xy 100.33 55.88) (xy 100.33 58.42))
    (stroke (width 0) (type default))
    (uuid 8f68ed3e-53b4-4776-bd7e-5b0dc27b3594)
  )
  (wire (pts (xy 92.71 58.42) (xy 92.71 59.69))
    (stroke (width 0) (type default))
    (uuid 90bf0f1c-29fc-475c-84eb-cf6bcfa86279)
  )
  (wire (pts (xy 123.19 58.42) (xy 156.21 58.42))
    (stroke (width 0) (type default))
    (uuid 930b51f3-361c-4e3c-8126-6265ef58d49a)
  )
  (wire (pts (xy 194.31 104.14) (xy 196.85 104.14))
    (stroke (width 0) (type default))
    (uuid 93ff2afc-97ba-4ef3-a8a8-05fc1b0f4861)
  )
  (wire (pts (xy 129.54 110.49) (xy 129.54 113.03))
    (stroke (width 0) (type default))
    (uuid 977d994d-80a6-453e-bfef-0e40929e689b)
  )
  (wire (pts (xy 194.31 90.17) (xy 196.85 90.17))
    (stroke (width 0) (type solid))
    (uuid 9a7199a8-e142-4fc3-b558-7ef394e4f022)
  )
  (wire (pts (xy 232.41 113.03) (xy 227.33 113.03))
    (stroke (width 0) (type default))
    (uuid a11797b6-99b6-463f-ab7a-5d43aac3e61b)
  )
  (wire (pts (xy 217.17 110.49) (xy 232.41 110.49))
    (stroke (width 0) (type default))
    (uuid b241ba93-6c79-40e4-901f-d05f1fb1755d)
  )
  (wire (pts (xy 161.29 118.11) (xy 161.29 127))
    (stroke (width 0) (type default))
    (uuid b6172ef8-288a-4080-a640-eca66c7dbcfc)
  )
  (wire (pts (xy 224.79 55.88) (xy 224.79 58.42))
    (stroke (width 0) (type default))
    (uuid b71e56b1-7e1f-402f-b962-3c9a07e54a2a)
  )
  (wire (pts (xy 92.71 48.26) (xy 92.71 50.8))
    (stroke (width 0) (type default))
    (uuid be77a942-7aaa-494e-afea-eb491322f036)
  )
  (wire (pts (xy 161.29 110.49) (xy 161.29 113.03))
    (stroke (width 0) (type default))
    (uuid be95efc9-4523-497f-99e2-d5dadb5b5c9e)
  )
  (wire (pts (xy 199.39 48.26) (xy 201.93 48.26))
    (stroke (width 0) (type default))
    (uuid bed1e121-83dc-4634-ad82-79d696ec6d47)
  )
  (wire (pts (xy 196.85 127) (xy 196.85 124.46))
    (stroke (width 0) (type default))
    (uuid c39176c2-7471-47f6-9d19-456490add326)
  )
  (wire (pts (xy 92.71 67.31) (xy 92.71 68.58))
    (stroke (width 0) (type default))
    (uuid c6f9819c-6a9a-4ee5-b28e-592213ba4356)
  )
  (wire (pts (xy 171.45 127) (xy 171.45 124.46))
    (stroke (width 0) (type default))
    (uuid c8594439-8878-41e7-921c-d870fa98a91d)
  )
  (wire (pts (xy 201.93 87.63) (xy 204.47 87.63))
    (stroke (width 0) (type solid))
    (uuid cb3177c8-6d47-4978-b09b-c77521d7da90)
  )
  (wire (pts (xy 171.45 124.46) (xy 171.45 119.38))
    (stroke (width 0) (type default))
    (uuid cc2c093f-9868-4437-9eca-ae03121bed11)
  )
  (wire (pts (xy 196.85 90.17) (xy 196.85 104.14))
    (stroke (width 0) (type default))
    (uuid ccec463b-2fe4-4fb4-8e1a-d44e9c640649)
  )
  (wire (pts (xy 187.96 43.18) (xy 187.96 45.72))
    (stroke (width 0) (type default))
    (uuid ce214c24-360b-40ac-b6ef-e81b4f961f6d)
  )
  (wire (pts (xy 217.17 100.33) (xy 217.17 102.87))
    (stroke (width 0) (type default))
    (uuid d17f49c7-a5b5-41e2-87e8-4dd7e31ae23e)
  )
  (wire (pts (xy 187.96 48.26) (xy 189.23 48.26))
    (stroke (width 0) (type solid))
    (uuid dbd3f137-67da-44b0-a004-6610fc92d381)
  )
  (wire (pts (xy 201.93 48.26) (xy 224.79 48.26))
    (stroke (width 0) (type default))
    (uuid df21c84b-088b-4cf1-9bdb-18fcc201fe6b)
  )
  (wire (pts (xy 161.29 110.49) (xy 173.99 110.49))
    (stroke (width 0) (type default))
    (uuid df95f4b3-ff4f-45da-9516-3487a6a471b3)
  )
  (wire (pts (xy 144.78 123.19) (xy 144.78 127))
    (stroke (width 0) (type default))
    (uuid e176aa2a-92ac-4ac6-982d-c21cf2e11890)
  )
  (wire (pts (xy 109.22 58.42) (xy 109.22 60.96))
    (stroke (width 0) (type default))
    (uuid e2e85dbe-9601-42b6-9c05-93d3109a50b4)
  )
  (wire (pts (xy 109.22 66.04) (xy 109.22 68.58))
    (stroke (width 0) (type default))
    (uuid e40979c8-8565-4b42-87f2-6e69667d8621)
  )
  (wire (pts (xy 179.07 43.18) (xy 180.34 43.18))
    (stroke (width 0) (type default))
    (uuid e639d626-d9d7-4818-957f-b90ca89a514d)
  )
  (wire (pts (xy 187.96 45.72) (xy 187.96 48.26))
    (stroke (width 0) (type default))
    (uuid e6839898-a186-4a2d-a656-6e90b9f456ca)
  )
  (wire (pts (xy 173.99 67.31) (xy 163.83 67.31))
    (stroke (width 0) (type default))
    (uuid e70f6f70-3f75-488f-b8c5-15b121e16670)
  )
  (wire (pts (xy 123.19 104.14) (xy 123.19 58.42))
    (stroke (width 0) (type default))
    (uuid e71d2991-087a-465a-9d04-08aa88541b6b)
  )
  (wire (pts (xy 158.75 110.49) (xy 161.29 110.49))
    (stroke (width 0) (type default))
    (uuid e7a1e7d7-d43f-4252-94d2-6cf515a6095d)
  )
  (wire (pts (xy 184.15 58.42) (xy 184.15 60.96))
    (stroke (width 0) (type solid))
    (uuid ef1c2d4c-481b-4e62-b57b-2d22b4bf81c6)
  )
  (wire (pts (xy 212.09 76.2) (xy 212.09 78.74))
    (stroke (width 0) (type solid))
    (uuid ef5750bf-739f-4ab8-9ee1-94af5fa6edc0)
  )
  (wire (pts (xy 156.21 82.55) (xy 173.99 82.55))
    (stroke (width 0) (type solid))
    (uuid f1650bc6-9875-4e6f-878c-9526a6699e95)
  )
  (wire (pts (xy 173.99 55.88) (xy 173.99 58.42))
    (stroke (width 0) (type solid))
    (uuid f90ddcbe-bc82-4023-9e26-0a896361f455)
  )
  (wire (pts (xy 173.99 58.42) (xy 176.53 58.42))
    (stroke (width 0) (type solid))
    (uuid f90ddcbe-bc82-4023-9e26-0a896361f456)
  )
  (wire (pts (xy 156.21 81.28) (xy 156.21 82.55))
    (stroke (width 0) (type solid))
    (uuid feaad5d6-20d6-48d9-98b2-86d6ca3f125a)
  )
  (wire (pts (xy 156.21 82.55) (xy 156.21 83.82))
    (stroke (width 0) (type solid))
    (uuid feaad5d6-20d6-48d9-98b2-86d6ca3f125b)
  )

  (text "V_{OV}: 25.43V\nV_{UV}: 19.55V" (at 165.1 80.01 0)
    (effects (font (size 1.27 1.27)) (justify left bottom))
    (uuid 38ca03d9-1325-4333-a460-2661ac89b85e)
  )
  (text "The voltage divider draws ~3uA,\nwhich is less than\nthe 5uA-20uA of the LTC4367 "
    (at 124.46 88.9 0)
    (effects (font (size 1.27 1.27)) (justify left bottom))
    (uuid 43989755-a522-436a-b5f8-cea27e6d4f8e)
  )
  (text "LTC2955-1 waits 512ms before\nresponding to inputs after power on"
    (at 168.91 146.05 0)
    (effects (font (size 1.27 1.27)) (justify left bottom))
    (uuid 43cdd97f-c729-4b46-9e0f-af69e78664b9)
  )
  (text "ex.\nYAGEO\n10M:	RC0402FR-0710ML\n1.5M:	RC0402FR-071M5L"
    (at 124.46 78.74 0)
    (effects (font (size 1.27 1.27)) (justify left bottom))
    (uuid 4713b764-221b-4cf5-bae0-136b6cc71925)
  )
  (text "~500ms hold to power off\n" (at 195.58 123.19 0)
    (effects (font (size 1.27 1.27)) (justify left bottom))
    (uuid 56712e08-f81a-4a75-b71c-d86293a34547)
  )
  (text "100V Max" (at 165.1 66.04 0)
    (effects (font (size 1.27 1.27)) (justify left bottom))
    (uuid a20e374e-a3f3-4e16-82e3-03f662dd3cde)
  )
  (text "Voltage Lockout, Reverse Polarity Protection, & In-Rush Limiter"
    (at 15.24 16.51 0)
    (effects (font (size 1.27 1.27)) (justify left bottom))
    (uuid a40b9cd8-d6ac-4a5c-8099-e4b00fd450d2)
  )
  (text "Alt FETs:\n  SQJA90EP-T1_GE3\n  SQJA92EP-T1_GE3 " (at 194.31 35.56 0)
    (effects (font (size 1.27 1.27)) (justify left bottom))
    (uuid d2ffbf14-74c5-4ff2-a79e-5e6dc5d35924)
  )

  (global_label "+3.3V_{PREFUSE}" (shape input) (at 214.63 100.33 180) (fields_autoplaced)
    (effects (font (size 1.27 1.27)) (justify right))
    (uuid 585fe8d9-130d-4ce3-9df0-a9783d0db798)
    (property "Intersheetrefs" "${INTERSHEET_REFS}" (at 200.0366 100.33 0)
      (effects (font (size 1.27 1.27)) (justify right) hide)
    )
  )

  (hierarchical_label "V_{BATT(PROTECTED)}" (shape output) (at 229.87 48.26 0) (fields_autoplaced)
    (effects (font (size 1.27 1.27)) (justify left))
    (uuid 4f7f8af8-9f66-4e38-a854-d1a9796c965c)
  )
  (hierarchical_label "PGOOD_{VBATT}" (shape output) (at 204.47 87.63 0) (fields_autoplaced)
    (effects (font (size 1.27 1.27)) (justify left))
    (uuid 84d35bc0-536c-4f48-83c6-d353a27fc097)
  )
  (hierarchical_label "~{KILL}_{PWR}" (shape input) (at 232.41 113.03 0) (fields_autoplaced)
    (effects (font (size 1.27 1.27)) (justify left))
    (uuid ac4161bc-872f-4357-9d33-490318bdd4af)
  )
  (hierarchical_label "V_{BATT}" (shape input) (at 90.17 48.26 180) (fields_autoplaced)
    (effects (font (size 1.27 1.27)) (justify right))
    (uuid bb4476bc-107a-4176-b1d9-ceaf7f39793d)
  )
  (hierarchical_label "~{INT}_{PWRBTN}" (shape output) (at 232.41 110.49 0) (fields_autoplaced)
    (effects (font (size 1.27 1.27)) (justify left))
    (uuid f6a253d1-ee48-48d6-8b4e-f13ff26fe3b9)
  )

  (symbol (lib_id "Device:R_Small_US") (at 156.21 63.5 0) (unit 1)
    (in_bom yes) (on_board yes) (dnp no) (fields_autoplaced)
    (uuid 005bb504-44ea-4f9e-bfe8-b4bed4f7cf04)
    (property "Reference" "R7" (at 158.75 62.2299 0)
      (effects (font (size 1.27 1.27)) (justify left))
    )
    (property "Value" "10M" (at 158.75 64.7699 0)
      (effects (font (size 1.27 1.27)) (justify left))
    )
    (property "Footprint" "Resistor_SMD:R_0402_1005Metric" (at 156.21 63.5 0)
      (effects (font (size 1.27 1.27)) hide)
    )
    (property "Datasheet" "~" (at 156.21 63.5 0)
      (effects (font (size 1.27 1.27)) hide)
    )
    (pin "1" (uuid b54835d0-e60d-4d62-8ce8-d9cf49458f24))
    (pin "2" (uuid b4ef3431-4259-4253-952c-e7f6b67cdfd5))
    (instances
      (project "control"
        (path "/e63e39d7-6ac0-4ffd-8aa3-1841a4541b55/fff34b63-f9ca-49b5-8ad5-f92410864411"
          (reference "R7") (unit 1)
        )
      )
    )
  )

  (symbol (lib_id "Device:R_Small_US") (at 227.33 105.41 0) (unit 1)
    (in_bom yes) (on_board yes) (dnp no) (fields_autoplaced)
    (uuid 0a237b61-d136-4837-88a9-7a093bf64052)
    (property "Reference" "R17" (at 229.87 104.1399 0)
      (effects (font (size 1.27 1.27)) (justify left))
    )
    (property "Value" "1.5M" (at 229.87 106.6799 0)
      (effects (font (size 1.27 1.27)) (justify left))
    )
    (property "Footprint" "Resistor_SMD:R_0402_1005Metric" (at 227.33 105.41 0)
      (effects (font (size 1.27 1.27)) hide)
    )
    (property "Datasheet" "~" (at 227.33 105.41 0)
      (effects (font (size 1.27 1.27)) hide)
    )
    (pin "1" (uuid d51ab783-1bfe-40cd-9b17-ea8f16958763))
    (pin "2" (uuid 82b48b44-341e-4fcf-962a-0b37842b8f37))
    (instances
      (project "control"
        (path "/e63e39d7-6ac0-4ffd-8aa3-1841a4541b55/fff34b63-f9ca-49b5-8ad5-f92410864411"
          (reference "R17") (unit 1)
        )
      )
    )
  )

  (symbol (lib_id "Device:R_Small_US") (at 217.17 105.41 0) (unit 1)
    (in_bom yes) (on_board yes) (dnp no) (fields_autoplaced)
    (uuid 11873b33-06ae-410f-a2a8-1d1d0ec001de)
    (property "Reference" "R16" (at 219.71 104.1399 0)
      (effects (font (size 1.27 1.27)) (justify left))
    )
    (property "Value" "1.5M" (at 219.71 106.6799 0)
      (effects (font (size 1.27 1.27)) (justify left))
    )
    (property "Footprint" "Resistor_SMD:R_0402_1005Metric" (at 217.17 105.41 0)
      (effects (font (size 1.27 1.27)) hide)
    )
    (property "Datasheet" "~" (at 217.17 105.41 0)
      (effects (font (size 1.27 1.27)) hide)
    )
    (pin "1" (uuid eddc7c08-c625-43a2-b109-727f4b720e1c))
    (pin "2" (uuid dfb08ada-6847-4cdf-99bb-b856260c2988))
    (instances
      (project "control"
        (path "/e63e39d7-6ac0-4ffd-8aa3-1841a4541b55/fff34b63-f9ca-49b5-8ad5-f92410864411"
          (reference "R16") (unit 1)
        )
      )
    )
  )

  (symbol (lib_id "Device:C_Small") (at 196.85 129.54 0) (unit 1)
    (in_bom yes) (on_board yes) (dnp no) (fields_autoplaced)
    (uuid 1aa87b04-3e52-4fbe-983a-b8a4803111f1)
    (property "Reference" "C3" (at 199.39 128.2762 0)
      (effects (font (size 1.27 1.27)) (justify left))
    )
    (property "Value" "0.1uF 63V" (at 199.39 130.8162 0)
      (effects (font (size 1.27 1.27)) (justify left))
    )
    (property "Footprint" "Capacitor_SMD:C_0402_1005Metric" (at 196.85 129.54 0)
      (effects (font (size 1.27 1.27)) hide)
    )
    (property "Datasheet" "~" (at 196.85 129.54 0)
      (effects (font (size 1.27 1.27)) hide)
    )
    (pin "1" (uuid 2ecdadc6-ad37-451b-8550-7e91421fb887))
    (pin "2" (uuid 9243dc7b-5238-4766-b9c5-c819cc9901e0))
    (instances
      (project "control"
        (path "/e63e39d7-6ac0-4ffd-8aa3-1841a4541b55/fff34b63-f9ca-49b5-8ad5-f92410864411"
          (reference "C3") (unit 1)
        )
      )
    )
  )

  (symbol (lib_id "power:PWR_FLAG") (at 100.33 55.88 0) (unit 1)
    (in_bom yes) (on_board yes) (dnp no)
    (uuid 1f7f89df-fed3-41c4-97a9-d3b4624d7219)
    (property "Reference" "#FLG01" (at 100.33 53.975 0)
      (effects (font (size 1.27 1.27)) hide)
    )
    (property "Value" "PWR_FLAG" (at 106.68 54.61 0)
      (effects (font (size 1.27 1.27)))
    )
    (property "Footprint" "" (at 100.33 55.88 0)
      (effects (font (size 1.27 1.27)) hide)
    )
    (property "Datasheet" "~" (at 100.33 55.88 0)
      (effects (font (size 1.27 1.27)) hide)
    )
    (pin "1" (uuid 8a746f8d-6aa1-4c03-874f-4beaa7ad4020))
    (instances
      (project "control"
        (path "/e63e39d7-6ac0-4ffd-8aa3-1841a4541b55"
          (reference "#FLG01") (unit 1)
        )
        (path "/e63e39d7-6ac0-4ffd-8aa3-1841a4541b55/fff34b63-f9ca-49b5-8ad5-f92410864411"
          (reference "#FLG04") (unit 1)
        )
      )
    )
  )

  (symbol (lib_id "AT-Transistors:Q_NMOS_SGD_PowerPAK") (at 173.99 50.8 90) (unit 1)
    (in_bom yes) (on_board yes) (dnp no) (fields_autoplaced)
    (uuid 23d7b39e-2e73-47b9-a4ce-f9820c985ea4)
    (property "Reference" "Q14" (at 173.99 39.37 90)
      (effects (font (size 1.27 1.27)))
    )
    (property "Value" "STL90N10F7" (at 173.99 41.91 90)
      (effects (font (size 1.27 1.27)))
    )
    (property "Footprint" "AT-Discrete:PowerFLAT_5x6" (at 171.45 45.72 0)
      (effects (font (size 1.27 1.27)) hide)
    )
    (property "Datasheet" "~" (at 173.99 50.8 0)
      (effects (font (size 1.27 1.27)) hide)
    )
    (pin "1" (uuid e5652d02-a18e-445f-b9a6-f606b6a729e6))
    (pin "2" (uuid 392f935b-acf9-4964-ae36-9fc901e47ef2))
    (pin "3" (uuid 12b15a49-099c-474b-af3a-9371bcaadb41))
    (pin "4" (uuid 17980639-6fcd-44cb-b74d-e202484251aa))
    (pin "5" (uuid 3cd584d6-94fa-41d0-8cb0-3735debe70ce))
    (instances
      (project "control"
        (path "/e63e39d7-6ac0-4ffd-8aa3-1841a4541b55/b652e806-2d00-41c9-9687-f0dbcef3cd66/b48e05f4-e3fe-4b6d-99db-b6d00b405149"
          (reference "Q14") (unit 1)
        )
        (path "/e63e39d7-6ac0-4ffd-8aa3-1841a4541b55/b652e806-2d00-41c9-9687-f0dbcef3cd66/c444a231-b490-4b56-8fc8-1e882188a7e5"
          (reference "Q8") (unit 1)
        )
        (path "/e63e39d7-6ac0-4ffd-8aa3-1841a4541b55/b652e806-2d00-41c9-9687-f0dbcef3cd66/c167575a-0142-4af1-89c7-1603756978c3"
          (reference "Q26") (unit 1)
        )
        (path "/e63e39d7-6ac0-4ffd-8aa3-1841a4541b55/b652e806-2d00-41c9-9687-f0dbcef3cd66/87e24030-7873-433c-a389-4b2815947a82"
          (reference "Q20") (unit 1)
        )
        (path "/e63e39d7-6ac0-4ffd-8aa3-1841a4541b55/b652e806-2d00-41c9-9687-f0dbcef3cd66/3d07cd7f-ec9d-4cb0-8ec7-2b3ae9045719"
          (reference "Q32") (unit 1)
        )
        (path "/e63e39d7-6ac0-4ffd-8aa3-1841a4541b55/fff34b63-f9ca-49b5-8ad5-f92410864411"
          (reference "Q2") (unit 1)
        )
      )
    )
  )

  (symbol (lib_id "Switch:SW_Push") (at 144.78 118.11 90) (unit 1)
    (in_bom yes) (on_board yes) (dnp no)
    (uuid 2e7f3aab-a755-41b0-994a-7e07f81b0e14)
    (property "Reference" "SW1" (at 146.05 116.84 90)
      (effects (font (size 1.27 1.27)) (justify right))
    )
    (property "Value" "CPG151101D91" (at 146.05 119.38 90)
      (effects (font (size 1.27 1.27)) (justify right))
    )
    (property "Footprint" "AT-Switches:SW_Kailh_PG1511" (at 139.7 118.11 0)
      (effects (font (size 1.27 1.27)) hide)
    )
    (property "Datasheet" "~" (at 139.7 118.11 0)
      (effects (font (size 1.27 1.27)) hide)
    )
    (property "Value2" "PWRON_{ONBOARD}" (at 146.05 121.92 90)
      (effects (font (size 1.27 1.27)) (justify right))
    )
    (pin "1" (uuid f645adb2-8e6c-4959-9af5-cb8195f6412c))
    (pin "2" (uuid 43ab013e-2174-4794-b03a-9dcfbd875974))
    (instances
      (project "kicker"
        (path "/7c007fad-bfbf-4e78-a837-1f8089552516/966fab5a-ccd3-4169-a651-1134c1c683b9"
          (reference "SW1") (unit 1)
        )
      )
      (project "control"
        (path "/e63e39d7-6ac0-4ffd-8aa3-1841a4541b55/fff34b63-f9ca-49b5-8ad5-f92410864411"
          (reference "SW2") (unit 1)
        )
      )
    )
  )

  (symbol (lib_id "power:GND") (at 92.71 69.85 0) (unit 1)
    (in_bom yes) (on_board yes) (dnp no)
    (uuid 2fa01eb3-a6f8-4641-bf3b-72f7858a303e)
    (property "Reference" "#PWR013" (at 92.71 76.2 0)
      (effects (font (size 1.27 1.27)) hide)
    )
    (property "Value" "GND" (at 92.71 74.93 0)
      (effects (font (size 1.27 1.27)))
    )
    (property "Footprint" "" (at 92.71 69.85 0)
      (effects (font (size 1.27 1.27)) hide)
    )
    (property "Datasheet" "" (at 92.71 69.85 0)
      (effects (font (size 1.27 1.27)) hide)
    )
    (pin "1" (uuid 63b0b753-df97-494c-8261-55d3bf1b597c))
    (instances
      (project "kicker"
        (path "/7c007fad-bfbf-4e78-a837-1f8089552516/966fab5a-ccd3-4169-a651-1134c1c683b9"
          (reference "#PWR013") (unit 1)
        )
      )
      (project "control"
        (path "/e63e39d7-6ac0-4ffd-8aa3-1841a4541b55/fff34b63-f9ca-49b5-8ad5-f92410864411"
          (reference "#PWR015") (unit 1)
        )
      )
    )
  )

  (symbol (lib_id "Device:C_Small") (at 109.22 63.5 0) (unit 1)
    (in_bom yes) (on_board yes) (dnp no) (fields_autoplaced)
    (uuid 30e2cbf6-3303-40ae-84be-1473d90a62de)
    (property "Reference" "C1" (at 111.76 62.2362 0)
      (effects (font (size 1.27 1.27)) (justify left))
    )
    (property "Value" "0.1uF 63V" (at 111.76 64.7762 0)
      (effects (font (size 1.27 1.27)) (justify left))
    )
    (property "Footprint" "Capacitor_SMD:C_0402_1005Metric" (at 109.22 63.5 0)
      (effects (font (size 1.27 1.27)) hide)
    )
    (property "Datasheet" "~" (at 109.22 63.5 0)
      (effects (font (size 1.27 1.27)) hide)
    )
    (pin "1" (uuid 0dc6f904-c861-40ab-931b-1d7e5f7e9672))
    (pin "2" (uuid b3eb823b-afc4-4e18-8d67-6e8df032a23e))
    (instances
      (project "control"
        (path "/e63e39d7-6ac0-4ffd-8aa3-1841a4541b55/fff34b63-f9ca-49b5-8ad5-f92410864411"
          (reference "C1") (unit 1)
        )
      )
    )
  )

  (symbol (lib_id "power:PWR_FLAG") (at 224.79 45.72 0) (unit 1)
    (in_bom yes) (on_board yes) (dnp no) (fields_autoplaced)
    (uuid 350aa886-6873-49d7-a9a8-43a1f4d7880d)
    (property "Reference" "#FLG05" (at 224.79 43.815 0)
      (effects (font (size 1.27 1.27)) hide)
    )
    (property "Value" "PWR_FLAG" (at 224.79 40.64 0)
      (effects (font (size 1.27 1.27)))
    )
    (property "Footprint" "" (at 224.79 45.72 0)
      (effects (font (size 1.27 1.27)) hide)
    )
    (property "Datasheet" "~" (at 224.79 45.72 0)
      (effects (font (size 1.27 1.27)) hide)
    )
    (pin "1" (uuid f573e235-18aa-4ab3-a7cb-c312e16da0f4))
    (instances
      (project "control"
        (path "/e63e39d7-6ac0-4ffd-8aa3-1841a4541b55/fff34b63-f9ca-49b5-8ad5-f92410864411"
          (reference "#FLG05") (unit 1)
        )
      )
    )
  )

  (symbol (lib_id "Device:R_Small_US") (at 156.21 71.12 0) (unit 1)
    (in_bom yes) (on_board yes) (dnp no) (fields_autoplaced)
    (uuid 3a99bbdf-1aa7-46d6-ae82-1606d760f27b)
    (property "Reference" "R8" (at 158.75 69.8499 0)
      (effects (font (size 1.27 1.27)) (justify left))
    )
    (property "Value" "1.5M" (at 158.75 72.3899 0)
      (effects (font (size 1.27 1.27)) (justify left))
    )
    (property "Footprint" "Resistor_SMD:R_0402_1005Metric" (at 156.21 71.12 0)
      (effects (font (size 1.27 1.27)) hide)
    )
    (property "Datasheet" "~" (at 156.21 71.12 0)
      (effects (font (size 1.27 1.27)) hide)
    )
    (pin "1" (uuid 9f879aeb-99b3-408c-853e-2db46c818956))
    (pin "2" (uuid e3aa4171-b60e-4243-9c49-202a07684f19))
    (instances
      (project "control"
        (path "/e63e39d7-6ac0-4ffd-8aa3-1841a4541b55/fff34b63-f9ca-49b5-8ad5-f92410864411"
          (reference "R8") (unit 1)
        )
      )
    )
  )

  (symbol (lib_id "AT-Transistors:Q_NMOS_SGD_PowerPAK") (at 194.31 50.8 270) (mirror x) (unit 1)
    (in_bom yes) (on_board yes) (dnp no)
    (uuid 3fd7f0b5-0b1b-4aed-bd67-58f826c39dc8)
    (property "Reference" "Q14" (at 194.31 39.37 90)
      (effects (font (size 1.27 1.27)))
    )
    (property "Value" "STL90N10F7" (at 194.31 41.91 90)
      (effects (font (size 1.27 1.27)))
    )
    (property "Footprint" "AT-Discrete:PowerFLAT_5x6" (at 196.85 45.72 0)
      (effects (font (size 1.27 1.27)) hide)
    )
    (property "Datasheet" "~" (at 194.31 50.8 0)
      (effects (font (size 1.27 1.27)) hide)
    )
    (pin "1" (uuid 80a96757-4a4d-4abe-9dbc-8ff2b3b00a54))
    (pin "2" (uuid 225f695b-2803-4ee6-8195-8d2a6117ad2c))
    (pin "3" (uuid e8ab1ece-f34c-42d3-a6e0-6ed9876410c2))
    (pin "4" (uuid 5b443086-4a6e-4756-85e7-d0a02ee7f8f9))
    (pin "5" (uuid 57f315eb-d88a-4700-91f5-13ccc8483f7a))
    (instances
      (project "control"
        (path "/e63e39d7-6ac0-4ffd-8aa3-1841a4541b55/b652e806-2d00-41c9-9687-f0dbcef3cd66/b48e05f4-e3fe-4b6d-99db-b6d00b405149"
          (reference "Q14") (unit 1)
        )
        (path "/e63e39d7-6ac0-4ffd-8aa3-1841a4541b55/b652e806-2d00-41c9-9687-f0dbcef3cd66/c444a231-b490-4b56-8fc8-1e882188a7e5"
          (reference "Q8") (unit 1)
        )
        (path "/e63e39d7-6ac0-4ffd-8aa3-1841a4541b55/b652e806-2d00-41c9-9687-f0dbcef3cd66/c167575a-0142-4af1-89c7-1603756978c3"
          (reference "Q26") (unit 1)
        )
        (path "/e63e39d7-6ac0-4ffd-8aa3-1841a4541b55/b652e806-2d00-41c9-9687-f0dbcef3cd66/87e24030-7873-433c-a389-4b2815947a82"
          (reference "Q20") (unit 1)
        )
        (path "/e63e39d7-6ac0-4ffd-8aa3-1841a4541b55/b652e806-2d00-41c9-9687-f0dbcef3cd66/3d07cd7f-ec9d-4cb0-8ec7-2b3ae9045719"
          (reference "Q32") (unit 1)
        )
        (path "/e63e39d7-6ac0-4ffd-8aa3-1841a4541b55/fff34b63-f9ca-49b5-8ad5-f92410864411"
          (reference "Q3") (unit 1)
        )
      )
    )
  )

  (symbol (lib_id "Device:R_Small_US") (at 201.93 82.55 0) (unit 1)
    (in_bom yes) (on_board yes) (dnp no) (fields_autoplaced)
    (uuid 50bf5d16-6ef5-4c04-b6c4-a848e08a4dda)
    (property "Reference" "R14" (at 204.47 81.915 0)
      (effects (font (size 1.27 1.27)) (justify left))
    )
    (property "Value" "10k" (at 204.47 84.455 0)
      (effects (font (size 1.27 1.27)) (justify left))
    )
    (property "Footprint" "Resistor_SMD:R_0402_1005Metric" (at 201.93 82.55 0)
      (effects (font (size 1.27 1.27)) hide)
    )
    (property "Datasheet" "~" (at 201.93 82.55 0)
      (effects (font (size 1.27 1.27)) hide)
    )
    (pin "1" (uuid dff772b6-55d6-4e03-8c60-36de57822ce4))
    (pin "2" (uuid 19dd7943-e510-4597-a217-eeaa1c5bc585))
    (instances
      (project "control"
        (path "/e63e39d7-6ac0-4ffd-8aa3-1841a4541b55/fff34b63-f9ca-49b5-8ad5-f92410864411"
          (reference "R14") (unit 1)
        )
      )
    )
  )

  (symbol (lib_id "Device:R_Small_US") (at 92.71 53.34 180) (unit 1)
    (in_bom yes) (on_board yes) (dnp no) (fields_autoplaced)
    (uuid 63740919-3dc1-400c-88f1-f5b8b6882314)
    (property "Reference" "R6" (at 95.25 52.0699 0)
      (effects (font (size 1.27 1.27)) (justify right))
    )
    (property "Value" "1k" (at 95.25 54.6099 0)
      (effects (font (size 1.27 1.27)) (justify right))
    )
    (property "Footprint" "Resistor_SMD:R_0603_1608Metric" (at 92.71 53.34 0)
      (effects (font (size 1.27 1.27)) hide)
    )
    (property "Datasheet" "~" (at 92.71 53.34 0)
      (effects (font (size 1.27 1.27)) hide)
    )
    (pin "1" (uuid ff5300fe-075a-4b89-9d75-987014caff6d))
    (pin "2" (uuid 999bfb04-0096-4e8b-aaa7-d1dcfdda0f61))
    (instances
      (project "kicker"
        (path "/7c007fad-bfbf-4e78-a837-1f8089552516/966fab5a-ccd3-4169-a651-1134c1c683b9"
          (reference "R6") (unit 1)
        )
      )
      (project "control"
        (path "/e63e39d7-6ac0-4ffd-8aa3-1841a4541b55/fff34b63-f9ca-49b5-8ad5-f92410864411"
          (reference "R6") (unit 1)
        )
      )
    )
  )

  (symbol (lib_id "Device:R_Small_US") (at 156.21 86.36 0) (unit 1)
    (in_bom yes) (on_board yes) (dnp no) (fields_autoplaced)
    (uuid 6ccfed96-a0a4-4a77-b602-4e0d1f744704)
    (property "Reference" "R10" (at 158.75 85.725 0)
      (effects (font (size 1.27 1.27)) (justify left))
    )
    (property "Value" "232k" (at 158.75 88.265 0)
      (effects (font (size 1.27 1.27)) (justify left))
    )
    (property "Footprint" "Resistor_SMD:R_0402_1005Metric" (at 156.21 86.36 0)
      (effects (font (size 1.27 1.27)) hide)
    )
    (property "Datasheet" "~" (at 156.21 86.36 0)
      (effects (font (size 1.27 1.27)) hide)
    )
    (pin "1" (uuid 5827f2e2-6f91-4190-8299-41802b92d8b0))
    (pin "2" (uuid 3b70715c-dcd2-4302-92da-057477e54bbe))
    (instances
      (project "control"
        (path "/e63e39d7-6ac0-4ffd-8aa3-1841a4541b55/fff34b63-f9ca-49b5-8ad5-f92410864411"
          (reference "R10") (unit 1)
        )
      )
    )
  )

  (symbol (lib_id "Device:R_Small_US") (at 212.09 66.04 0) (unit 1)
    (in_bom yes) (on_board yes) (dnp no) (fields_autoplaced)
    (uuid 701acc44-67fd-4e85-97ad-a706ab187f3e)
    (property "Reference" "R15" (at 214.63 64.7699 0)
      (effects (font (size 1.27 1.27)) (justify left))
    )
    (property "Value" "5.1k" (at 214.63 67.3099 0)
      (effects (font (size 1.27 1.27)) (justify left))
    )
    (property "Footprint" "Resistor_SMD:R_0603_1608Metric" (at 212.09 66.04 0)
      (effects (font (size 1.27 1.27)) hide)
    )
    (property "Datasheet" "~" (at 212.09 66.04 0)
      (effects (font (size 1.27 1.27)) hide)
    )
    (pin "1" (uuid 7c126e8e-ef24-41e2-a115-379a6f59dc5a))
    (pin "2" (uuid d0a66113-5d84-43f7-b5b1-8d9e27b97aad))
    (instances
      (project "control"
        (path "/e63e39d7-6ac0-4ffd-8aa3-1841a4541b55/fff34b63-f9ca-49b5-8ad5-f92410864411"
          (reference "R15") (unit 1)
        )
      )
    )
  )

  (symbol (lib_id "power:GND") (at 212.09 78.74 0) (unit 1)
    (in_bom yes) (on_board yes) (dnp no) (fields_autoplaced)
    (uuid 770dc4b5-df9e-4d97-8db9-df4c4761523c)
    (property "Reference" "#PWR022" (at 212.09 85.09 0)
      (effects (font (size 1.27 1.27)) hide)
    )
    (property "Value" "GND" (at 212.09 83.82 0)
      (effects (font (size 1.27 1.27)))
    )
    (property "Footprint" "" (at 212.09 78.74 0)
      (effects (font (size 1.27 1.27)) hide)
    )
    (property "Datasheet" "" (at 212.09 78.74 0)
      (effects (font (size 1.27 1.27)) hide)
    )
    (pin "1" (uuid 29ab4d16-e2ce-4768-a168-69218b031200))
    (instances
      (project "control"
        (path "/e63e39d7-6ac0-4ffd-8aa3-1841a4541b55/fff34b63-f9ca-49b5-8ad5-f92410864411"
          (reference "#PWR022") (unit 1)
        )
      )
    )
  )

  (symbol (lib_id "power:GND") (at 171.45 127 0) (unit 1)
    (in_bom yes) (on_board yes) (dnp no) (fields_autoplaced)
    (uuid 803ad277-9460-4961-bb20-4135aaf8c159)
    (property "Reference" "#PWR017" (at 171.45 133.35 0)
      (effects (font (size 1.27 1.27)) hide)
    )
    (property "Value" "GND" (at 171.45 132.08 0)
      (effects (font (size 1.27 1.27)))
    )
    (property "Footprint" "" (at 171.45 127 0)
      (effects (font (size 1.27 1.27)) hide)
    )
    (property "Datasheet" "" (at 171.45 127 0)
      (effects (font (size 1.27 1.27)) hide)
    )
    (pin "1" (uuid 8a64b213-06a7-497f-a3aa-dd37978b09d6))
    (instances
      (project "kicker"
        (path "/7c007fad-bfbf-4e78-a837-1f8089552516/966fab5a-ccd3-4169-a651-1134c1c683b9"
          (reference "#PWR017") (unit 1)
        )
      )
      (project "control"
        (path "/e63e39d7-6ac0-4ffd-8aa3-1841a4541b55/fff34b63-f9ca-49b5-8ad5-f92410864411"
          (reference "#PWR020") (unit 1)
        )
      )
    )
  )

  (symbol (lib_id "power:GND") (at 224.79 58.42 0) (unit 1)
    (in_bom yes) (on_board yes) (dnp no) (fields_autoplaced)
    (uuid 8a939b4d-2575-4b34-8659-0893bffc4a59)
    (property "Reference" "#PWR025" (at 224.79 64.77 0)
      (effects (font (size 1.27 1.27)) hide)
    )
    (property "Value" "GND" (at 224.79 63.5 0)
      (effects (font (size 1.27 1.27)))
    )
    (property "Footprint" "" (at 224.79 58.42 0)
      (effects (font (size 1.27 1.27)) hide)
    )
    (property "Datasheet" "" (at 224.79 58.42 0)
      (effects (font (size 1.27 1.27)) hide)
    )
    (pin "1" (uuid 9bfd9610-bb82-4de4-9b9e-90e7e078caec))
    (instances
      (project "control"
        (path "/e63e39d7-6ac0-4ffd-8aa3-1841a4541b55/fff34b63-f9ca-49b5-8ad5-f92410864411"
          (reference "#PWR025") (unit 1)
        )
      )
    )
  )

  (symbol (lib_id "power:GND") (at 161.29 127 0) (unit 1)
    (in_bom yes) (on_board yes) (dnp no) (fields_autoplaced)
    (uuid 8db0d632-3c44-46ce-8bb7-b4768b8f7528)
    (property "Reference" "#PWR017" (at 161.29 133.35 0)
      (effects (font (size 1.27 1.27)) hide)
    )
    (property "Value" "GND" (at 161.29 132.08 0)
      (effects (font (size 1.27 1.27)))
    )
    (property "Footprint" "" (at 161.29 127 0)
      (effects (font (size 1.27 1.27)) hide)
    )
    (property "Datasheet" "" (at 161.29 127 0)
      (effects (font (size 1.27 1.27)) hide)
    )
    (pin "1" (uuid 0d0672f6-cdb5-4753-9dfb-17ccccb0f854))
    (instances
      (project "kicker"
        (path "/7c007fad-bfbf-4e78-a837-1f8089552516/966fab5a-ccd3-4169-a651-1134c1c683b9"
          (reference "#PWR017") (unit 1)
        )
      )
      (project "control"
        (path "/e63e39d7-6ac0-4ffd-8aa3-1841a4541b55/fff34b63-f9ca-49b5-8ad5-f92410864411"
          (reference "#PWR019") (unit 1)
        )
      )
    )
  )

  (symbol (lib_id "Device:C_Small") (at 161.29 115.57 0) (unit 1)
    (in_bom yes) (on_board yes) (dnp no) (fields_autoplaced)
    (uuid 96ca1f8f-5fcf-42cf-accb-751f77738c37)
    (property "Reference" "C2" (at 163.83 114.3062 0)
      (effects (font (size 1.27 1.27)) (justify left))
    )
    (property "Value" "0.1uF 63V" (at 163.83 116.8462 0)
      (effects (font (size 1.27 1.27)) (justify left))
    )
    (property "Footprint" "Capacitor_SMD:C_0402_1005Metric" (at 161.29 115.57 0)
      (effects (font (size 1.27 1.27)) hide)
    )
    (property "Datasheet" "~" (at 161.29 115.57 0)
      (effects (font (size 1.27 1.27)) hide)
    )
    (pin "1" (uuid 1b8af3f7-52d4-468a-bf09-f8ceb8de3929))
    (pin "2" (uuid 6b8ff8ea-5481-45c2-8c69-7aaa26bcfa5c))
    (instances
      (project "control"
        (path "/e63e39d7-6ac0-4ffd-8aa3-1841a4541b55/fff34b63-f9ca-49b5-8ad5-f92410864411"
          (reference "C2") (unit 1)
        )
      )
    )
  )

  (symbol (lib_id "power:GND") (at 129.54 127 0) (unit 1)
    (in_bom yes) (on_board yes) (dnp no) (fields_autoplaced)
    (uuid 99719c5d-d2cf-4f71-a6f2-e457ff0da8e4)
    (property "Reference" "#PWR015" (at 129.54 133.35 0)
      (effects (font (size 1.27 1.27)) hide)
    )
    (property "Value" "GND" (at 129.54 132.08 0)
      (effects (font (size 1.27 1.27)))
    )
    (property "Footprint" "" (at 129.54 127 0)
      (effects (font (size 1.27 1.27)) hide)
    )
    (property "Datasheet" "" (at 129.54 127 0)
      (effects (font (size 1.27 1.27)) hide)
    )
    (pin "1" (uuid b7fa4d21-5d34-4a7c-97bc-2d282f8b0b1f))
    (instances
      (project "kicker"
        (path "/7c007fad-bfbf-4e78-a837-1f8089552516/966fab5a-ccd3-4169-a651-1134c1c683b9"
          (reference "#PWR015") (unit 1)
        )
      )
      (project "control"
        (path "/e63e39d7-6ac0-4ffd-8aa3-1841a4541b55/fff34b63-f9ca-49b5-8ad5-f92410864411"
          (reference "#PWR016") (unit 1)
        )
      )
    )
  )

  (symbol (lib_id "Device:R_Small_US") (at 189.23 58.42 90) (unit 1)
    (in_bom yes) (on_board yes) (dnp no) (fields_autoplaced)
    (uuid bf92705c-4aa8-4bae-a2e2-9c9b78237a64)
    (property "Reference" "R13" (at 189.23 52.07 90)
      (effects (font (size 1.27 1.27)))
    )
    (property "Value" "10" (at 189.23 54.61 90)
      (effects (font (size 1.27 1.27)))
    )
    (property "Footprint" "Resistor_SMD:R_0402_1005Metric" (at 189.23 58.42 0)
      (effects (font (size 1.27 1.27)) hide)
    )
    (property "Datasheet" "~" (at 189.23 58.42 0)
      (effects (font (size 1.27 1.27)) hide)
    )
    (pin "1" (uuid 272b0b4b-3454-4fbf-bd81-a9b278ffade5))
    (pin "2" (uuid e155c7f2-dca7-4c8e-ac80-8a12d402bdf1))
    (instances
      (project "control"
        (path "/e63e39d7-6ac0-4ffd-8aa3-1841a4541b55/fff34b63-f9ca-49b5-8ad5-f92410864411"
          (reference "R13") (unit 1)
        )
      )
    )
  )

  (symbol (lib_id "Device:C_Small") (at 212.09 73.66 0) (unit 1)
    (in_bom yes) (on_board yes) (dnp no) (fields_autoplaced)
    (uuid c3129714-94e2-4a9d-8998-01004e940f4a)
    (property "Reference" "C4" (at 214.63 72.3962 0)
      (effects (font (size 1.27 1.27)) (justify left))
    )
    (property "Value" "4700pF 63V" (at 214.63 74.9362 0)
      (effects (font (size 1.27 1.27)) (justify left))
    )
    (property "Footprint" "Capacitor_SMD:C_0603_1608Metric" (at 212.09 73.66 0)
      (effects (font (size 1.27 1.27)) hide)
    )
    (property "Datasheet" "~" (at 212.09 73.66 0)
      (effects (font (size 1.27 1.27)) hide)
    )
    (pin "1" (uuid c1451097-67a0-4aae-bd5d-473d5a80ceb6))
    (pin "2" (uuid 1f1d30a0-3e6f-4a79-9d00-55f4a2a635f9))
    (instances
      (project "control"
        (path "/e63e39d7-6ac0-4ffd-8aa3-1841a4541b55/fff34b63-f9ca-49b5-8ad5-f92410864411"
          (reference "C4") (unit 1)
        )
      )
    )
  )

  (symbol (lib_id "Device:R_Small_US") (at 224.79 53.34 0) (unit 1)
    (in_bom yes) (on_board yes) (dnp no) (fields_autoplaced)
    (uuid ccacb7fe-0f90-475a-ac45-fffb6e2d6022)
    (property "Reference" "R18" (at 227.33 52.0699 0)
      (effects (font (size 1.27 1.27)) (justify left))
    )
    (property "Value" "4.7k" (at 227.33 54.6099 0)
      (effects (font (size 1.27 1.27)) (justify left))
    )
    (property "Footprint" "Resistor_SMD:R_0402_1005Metric" (at 224.79 53.34 0)
      (effects (font (size 1.27 1.27)) hide)
    )
    (property "Datasheet" "~" (at 224.79 53.34 0)
      (effects (font (size 1.27 1.27)) hide)
    )
    (pin "1" (uuid afb47731-2bd1-41e1-928c-b08823c47519))
    (pin "2" (uuid ccd9198d-7235-4ec2-b710-023884e37216))
    (instances
      (project "control"
        (path "/e63e39d7-6ac0-4ffd-8aa3-1841a4541b55/fff34b63-f9ca-49b5-8ad5-f92410864411"
          (reference "R18") (unit 1)
        )
      )
    )
  )

  (symbol (lib_id "power:GND") (at 156.21 91.44 0) (unit 1)
    (in_bom yes) (on_board yes) (dnp no)
    (uuid d2e94dd6-b8b1-47c3-adce-6b372e16657b)
    (property "Reference" "#PWR018" (at 156.21 97.79 0)
      (effects (font (size 1.27 1.27)) hide)
    )
    (property "Value" "GND" (at 156.21 96.52 0)
      (effects (font (size 1.27 1.27)))
    )
    (property "Footprint" "" (at 156.21 91.44 0)
      (effects (font (size 1.27 1.27)) hide)
    )
    (property "Datasheet" "" (at 156.21 91.44 0)
      (effects (font (size 1.27 1.27)) hide)
    )
    (pin "1" (uuid 0e9652a7-95c8-4f8f-a2af-27cf7910a9e5))
    (instances
      (project "control"
        (path "/e63e39d7-6ac0-4ffd-8aa3-1841a4541b55/fff34b63-f9ca-49b5-8ad5-f92410864411"
          (reference "#PWR018") (unit 1)
        )
      )
    )
  )

  (symbol (lib_id "Device:D_TVS") (at 92.71 63.5 90) (unit 1)
    (in_bom yes) (on_board yes) (dnp no)
    (uuid d82fd24b-7cf7-45f0-9d2f-28d0283c0538)
    (property "Reference" "D1" (at 95.25 62.2299 90)
      (effects (font (size 1.27 1.27)) (justify right))
    )
    (property "Value" "SMBJ26CA" (at 95.25 64.77 90)
      (effects (font (size 1.27 1.27)) (justify right))
    )
    (property "Footprint" "AT-Discrete:D_SMB_Non-Polar" (at 92.71 63.5 0)
      (effects (font (size 1.27 1.27)) hide)
    )
    (property "Datasheet" "~" (at 92.71 63.5 0)
      (effects (font (size 1.27 1.27)) hide)
    )
    (property "V_{BR}" "V_{BR}=30.4V" (at 100.33 67.31 90)
      (effects (font (size 1.27 1.27)))
    )
    (pin "1" (uuid 48294e3f-1d0a-45b9-8ee5-69ad098a2642))
    (pin "2" (uuid b5202620-9be9-4d5c-a45b-9a2c0f028616))
    (instances
      (project "kicker"
        (path "/7c007fad-bfbf-4e78-a837-1f8089552516/966fab5a-ccd3-4169-a651-1134c1c683b9"
          (reference "D1") (unit 1)
        )
      )
      (project "control"
        (path "/e63e39d7-6ac0-4ffd-8aa3-1841a4541b55"
          (reference "D2") (unit 1)
        )
        (path "/e63e39d7-6ac0-4ffd-8aa3-1841a4541b55/fff34b63-f9ca-49b5-8ad5-f92410864411"
          (reference "D2") (unit 1)
        )
      )
    )
  )

  (symbol (lib_id "Device:R_Small_US") (at 156.21 78.74 0) (unit 1)
    (in_bom yes) (on_board yes) (dnp no) (fields_autoplaced)
    (uuid d889b50a-182e-4e6d-9617-0e56de2b81c0)
    (property "Reference" "R9" (at 158.75 77.4699 0)
      (effects (font (size 1.27 1.27)) (justify left))
    )
    (property "Value" "69.8k" (at 158.75 80.0099 0)
      (effects (font (size 1.27 1.27)) (justify left))
    )
    (property "Footprint" "Resistor_SMD:R_0402_1005Metric" (at 156.21 78.74 0)
      (effects (font (size 1.27 1.27)) hide)
    )
    (property "Datasheet" "~" (at 156.21 78.74 0)
      (effects (font (size 1.27 1.27)) hide)
    )
    (pin "1" (uuid 68fddc62-c319-49a4-8c7b-71c6b69503b9))
    (pin "2" (uuid af2b2216-a736-4755-8a8f-24042c500ca0))
    (instances
      (project "control"
        (path "/e63e39d7-6ac0-4ffd-8aa3-1841a4541b55/fff34b63-f9ca-49b5-8ad5-f92410864411"
          (reference "R9") (unit 1)
        )
      )
    )
  )

  (symbol (lib_id "Device:R_Small_US") (at 179.07 58.42 90) (unit 1)
    (in_bom yes) (on_board yes) (dnp no) (fields_autoplaced)
    (uuid e1fe9e8b-34bf-44a4-a1e4-b74d6d007bb3)
    (property "Reference" "R12" (at 179.07 52.07 90)
      (effects (font (size 1.27 1.27)))
    )
    (property "Value" "10" (at 179.07 54.61 90)
      (effects (font (size 1.27 1.27)))
    )
    (property "Footprint" "Resistor_SMD:R_0402_1005Metric" (at 179.07 58.42 0)
      (effects (font (size 1.27 1.27)) hide)
    )
    (property "Datasheet" "~" (at 179.07 58.42 0)
      (effects (font (size 1.27 1.27)) hide)
    )
    (pin "1" (uuid 3e344f63-c336-4cf5-8a9f-b7fb5a982625))
    (pin "2" (uuid 0175bcb4-714d-4719-9386-018eb2cc0518))
    (instances
      (project "control"
        (path "/e63e39d7-6ac0-4ffd-8aa3-1841a4541b55/fff34b63-f9ca-49b5-8ad5-f92410864411"
          (reference "R12") (unit 1)
        )
      )
    )
  )

  (symbol (lib_id "power:GND") (at 196.85 134.62 0) (unit 1)
    (in_bom yes) (on_board yes) (dnp no) (fields_autoplaced)
    (uuid e83ef954-14c0-4c1d-8f95-f33c687386a6)
    (property "Reference" "#PWR017" (at 196.85 140.97 0)
      (effects (font (size 1.27 1.27)) hide)
    )
    (property "Value" "GND" (at 196.85 139.7 0)
      (effects (font (size 1.27 1.27)))
    )
    (property "Footprint" "" (at 196.85 134.62 0)
      (effects (font (size 1.27 1.27)) hide)
    )
    (property "Datasheet" "" (at 196.85 134.62 0)
      (effects (font (size 1.27 1.27)) hide)
    )
    (pin "1" (uuid 24741fe5-ea7e-4915-b1c0-86dfe3ff9459))
    (instances
      (project "kicker"
        (path "/7c007fad-bfbf-4e78-a837-1f8089552516/966fab5a-ccd3-4169-a651-1134c1c683b9"
          (reference "#PWR017") (unit 1)
        )
      )
      (project "control"
        (path "/e63e39d7-6ac0-4ffd-8aa3-1841a4541b55/fff34b63-f9ca-49b5-8ad5-f92410864411"
          (reference "#PWR021") (unit 1)
        )
      )
    )
  )

  (symbol (lib_id "AT-PowerIC:LTC4367") (at 184.15 78.74 0) (unit 1)
    (in_bom yes) (on_board yes) (dnp no) (fields_autoplaced)
    (uuid e868f5cf-5e51-4ff4-9c7a-f4f991cf8e33)
    (property "Reference" "U2" (at 184.15 93.98 0)
      (effects (font (size 1.27 1.27)))
    )
    (property "Value" "LTC4367" (at 184.15 96.52 0)
      (effects (font (size 1.27 1.27)))
    )
    (property "Footprint" "AT-IC:MS8" (at 184.15 78.74 0)
      (effects (font (size 1.27 1.27)) hide)
    )
    (property "Datasheet" "" (at 184.15 78.74 0)
      (effects (font (size 1.27 1.27)) hide)
    )
    (pin "1" (uuid 999a12b8-cc0b-4447-8a94-051ca07b583c))
    (pin "2" (uuid 01609ce7-7900-4ed1-b589-1bc3641b5f3f))
    (pin "3" (uuid 4376a285-3edf-468a-b65f-c4403cb3e7ae))
    (pin "4" (uuid c5970c3f-e419-4f6e-bcf6-4ca9f5668a14))
    (pin "5" (uuid b74bb1a6-97aa-4acf-9493-52538ea939db))
    (pin "6" (uuid 1408d7e5-1d79-4329-836f-1f544aa38163))
    (pin "7" (uuid 5e770eee-5f5f-4007-bacc-73d5a87e8369))
    (pin "8" (uuid f7bd0dcf-f674-4387-b6f7-4d8b2fe1e984))
    (instances
      (project "control"
        (path "/e63e39d7-6ac0-4ffd-8aa3-1841a4541b55/fff34b63-f9ca-49b5-8ad5-f92410864411"
          (reference "U2") (unit 1)
        )
      )
    )
  )

  (symbol (lib_id "Switch:SW_Push") (at 129.54 118.11 90) (unit 1)
    (in_bom yes) (on_board yes) (dnp no)
    (uuid ea2b3bd8-5d58-4c22-82e8-e8189e9a1a89)
    (property "Reference" "SW1" (at 130.81 116.84 90)
      (effects (font (size 1.27 1.27)) (justify right))
    )
    (property "Value" "HDR_2P" (at 130.81 119.38 90)
      (effects (font (size 1.27 1.27)) (justify right))
    )
    (property "Footprint" "Connector_PinSocket_2.54mm:PinSocket_1x02_P2.54mm_Vertical" (at 124.46 118.11 0)
      (effects (font (size 1.27 1.27)) hide)
    )
    (property "Datasheet" "~" (at 124.46 118.11 0)
      (effects (font (size 1.27 1.27)) hide)
    )
    (property "Value2" "PWRON_{EXT}" (at 130.81 121.92 90)
      (effects (font (size 1.27 1.27)) (justify right))
    )
    (pin "1" (uuid 11ebcd13-1ab6-46b9-a03c-f2c1a8b441fd))
    (pin "2" (uuid 5d13b067-cb40-4fb0-a504-2286ce5c282c))
    (instances
      (project "kicker"
        (path "/7c007fad-bfbf-4e78-a837-1f8089552516/966fab5a-ccd3-4169-a651-1134c1c683b9"
          (reference "SW1") (unit 1)
        )
      )
      (project "control"
        (path "/e63e39d7-6ac0-4ffd-8aa3-1841a4541b55/fff34b63-f9ca-49b5-8ad5-f92410864411"
          (reference "SW1") (unit 1)
        )
      )
    )
  )

  (symbol (lib_id "Device:R_Small_US") (at 156.21 110.49 270) (unit 1)
    (in_bom yes) (on_board yes) (dnp no)
    (uuid f4867561-e8c0-4741-b978-fbc8aef3727c)
    (property "Reference" "R7" (at 156.21 107.95 90)
      (effects (font (size 1.27 1.27)))
    )
    (property "Value" "1k" (at 156.21 113.03 90)
      (effects (font (size 1.27 1.27)))
    )
    (property "Footprint" "Resistor_SMD:R_0603_1608Metric" (at 156.21 110.49 0)
      (effects (font (size 1.27 1.27)) hide)
    )
    (property "Datasheet" "~" (at 156.21 110.49 0)
      (effects (font (size 1.27 1.27)) hide)
    )
    (pin "1" (uuid 79b2cff0-1238-4e1f-8ca4-67b5c1c0cd49))
    (pin "2" (uuid 0310ea67-23b0-4774-8032-003a30d54171))
    (instances
      (project "kicker"
        (path "/7c007fad-bfbf-4e78-a837-1f8089552516/966fab5a-ccd3-4169-a651-1134c1c683b9"
          (reference "R7") (unit 1)
        )
      )
      (project "control"
        (path "/e63e39d7-6ac0-4ffd-8aa3-1841a4541b55/fff34b63-f9ca-49b5-8ad5-f92410864411"
          (reference "R11") (unit 1)
        )
      )
    )
  )

  (symbol (lib_id "power:GND") (at 144.78 127 0) (unit 1)
    (in_bom yes) (on_board yes) (dnp no) (fields_autoplaced)
    (uuid faa7f978-3b11-4cdf-83cd-f324c5c5c23b)
    (property "Reference" "#PWR015" (at 144.78 133.35 0)
      (effects (font (size 1.27 1.27)) hide)
    )
    (property "Value" "GND" (at 144.78 132.08 0)
      (effects (font (size 1.27 1.27)))
    )
    (property "Footprint" "" (at 144.78 127 0)
      (effects (font (size 1.27 1.27)) hide)
    )
    (property "Datasheet" "" (at 144.78 127 0)
      (effects (font (size 1.27 1.27)) hide)
    )
    (pin "1" (uuid 06a1e796-252a-4002-a67c-f7a742db7f8b))
    (instances
      (project "kicker"
        (path "/7c007fad-bfbf-4e78-a837-1f8089552516/966fab5a-ccd3-4169-a651-1134c1c683b9"
          (reference "#PWR015") (unit 1)
        )
      )
      (project "control"
        (path "/e63e39d7-6ac0-4ffd-8aa3-1841a4541b55/fff34b63-f9ca-49b5-8ad5-f92410864411"
          (reference "#PWR017") (unit 1)
        )
      )
    )
  )

  (symbol (lib_id "AT-PowerIC:LTC2955-1") (at 184.15 114.3 0) (unit 1)
    (in_bom yes) (on_board yes) (dnp no)
    (uuid fdad9625-d7ae-46a0-9e0d-0372eca8642c)
    (property "Reference" "U2" (at 184.15 129.54 0)
      (effects (font (size 1.27 1.27)))
    )
    (property "Value" "LTC2955-1" (at 184.15 132.08 0)
      (effects (font (size 1.27 1.27)))
    )
    (property "Footprint" "AT-IC:LTC2955-TS8" (at 184.15 114.3 0)
      (effects (font (size 1.27 1.27)) hide)
    )
    (property "Datasheet" "https://www.analog.com/media/en/technical-documentation/data-sheets/2955fa.pdf" (at 184.15 137.16 0)
      (effects (font (size 1.27 1.27)) hide)
    )
    (pin "1" (uuid 7d2126a8-89f8-48d6-b603-be99e2e962d1))
    (pin "2" (uuid ffbf4daa-1a60-4c07-84f4-654e6fca7813))
    (pin "3" (uuid 49d23e88-11b0-4389-a722-14c09dbb89d0))
    (pin "4" (uuid 22c9ac0b-e9f8-4c24-b226-5463e1ef3c6e))
    (pin "5" (uuid 349eaf66-c854-47d0-b6f9-4441b4a349f3))
    (pin "6" (uuid b67e0ab9-b98f-4beb-9572-765dee5001e5))
    (pin "7" (uuid e15d7e27-c018-4aaf-bdc5-49f28e5629cd))
    (pin "8" (uuid 53640bcf-6830-409f-ba23-086291dbc349))
    (instances
      (project "kicker"
        (path "/7c007fad-bfbf-4e78-a837-1f8089552516/966fab5a-ccd3-4169-a651-1134c1c683b9"
          (reference "U2") (unit 1)
        )
      )
      (project "control"
        (path "/e63e39d7-6ac0-4ffd-8aa3-1841a4541b55"
          (reference "U12") (unit 1)
        )
        (path "/e63e39d7-6ac0-4ffd-8aa3-1841a4541b55/fff34b63-f9ca-49b5-8ad5-f92410864411"
          (reference "U3") (unit 1)
        )
      )
    )
  )
)
