(kicad_sch (version 20230121) (generator eeschema)

  (uuid cf1bf819-ea86-4e75-a8b0-69e8b46c3db5)

  (paper "A4")

  (title_block
    (company "The A-Team (RC SSL)")
    (comment 1 "W. Stuckey & R. Osawa")
  )

  (lib_symbols
    (symbol "AT-Supplies:+V_{BATT(PROTECTED)}" (power) (pin_names (offset 0)) (in_bom no) (on_board no)
      (property "Reference" "#PWR" (at 0 -3.81 0)
        (effects (font (size 1.27 1.27)) hide)
      )
      (property "Value" "+V_{BATT(PROTECTED)}" (at 0 5.08 0)
        (effects (font (size 1.27 1.27)))
      )
      (property "Footprint" "" (at 0 0 0)
        (effects (font (size 1.27 1.27)) hide)
      )
      (property "Datasheet" "" (at 0 0 0)
        (effects (font (size 1.27 1.27)) hide)
      )
      (symbol "+V_{BATT(PROTECTED)}_0_1"
        (polyline
          (pts
            (xy -0.76 1.27)
            (xy 0.002 2.54)
          )
          (stroke (width 0) (type default))
          (fill (type none))
        )
        (polyline
          (pts
            (xy 0.002 0)
            (xy 0.002 2.54)
          )
          (stroke (width 0) (type default))
          (fill (type none))
        )
        (polyline
          (pts
            (xy 0.002 2.54)
            (xy 0.764 1.27)
          )
          (stroke (width 0) (type default))
          (fill (type none))
        )
      )
      (symbol "+V_{BATT(PROTECTED)}_1_1"
        (pin power_in line (at 0 0 90) (length 0) hide
          (name "+V_{BATT(PROTECTED)}" (effects (font (size 1.27 1.27))))
          (number "1" (effects (font (size 1.27 1.27))))
        )
      )
    )
    (symbol "Device:C_Polarized_Small_US" (pin_numbers hide) (pin_names (offset 0.254) hide) (in_bom yes) (on_board yes)
      (property "Reference" "C" (at 0.254 1.778 0)
        (effects (font (size 1.27 1.27)) (justify left))
      )
      (property "Value" "C_Polarized_Small_US" (at 0.254 -2.032 0)
        (effects (font (size 1.27 1.27)) (justify left))
      )
      (property "Footprint" "" (at 0 0 0)
        (effects (font (size 1.27 1.27)) hide)
      )
      (property "Datasheet" "~" (at 0 0 0)
        (effects (font (size 1.27 1.27)) hide)
      )
      (property "ki_keywords" "cap capacitor" (at 0 0 0)
        (effects (font (size 1.27 1.27)) hide)
      )
      (property "ki_description" "Polarized capacitor, small US symbol" (at 0 0 0)
        (effects (font (size 1.27 1.27)) hide)
      )
      (property "ki_fp_filters" "CP_*" (at 0 0 0)
        (effects (font (size 1.27 1.27)) hide)
      )
      (symbol "C_Polarized_Small_US_0_1"
        (polyline
          (pts
            (xy -1.524 0.508)
            (xy 1.524 0.508)
          )
          (stroke (width 0.3048) (type default))
          (fill (type none))
        )
        (polyline
          (pts
            (xy -1.27 1.524)
            (xy -0.762 1.524)
          )
          (stroke (width 0) (type default))
          (fill (type none))
        )
        (polyline
          (pts
            (xy -1.016 1.27)
            (xy -1.016 1.778)
          )
          (stroke (width 0) (type default))
          (fill (type none))
        )
        (arc (start 1.524 -0.762) (mid 0 -0.3734) (end -1.524 -0.762)
          (stroke (width 0.3048) (type default))
          (fill (type none))
        )
      )
      (symbol "C_Polarized_Small_US_1_1"
        (pin passive line (at 0 2.54 270) (length 2.032)
          (name "~" (effects (font (size 1.27 1.27))))
          (number "1" (effects (font (size 1.27 1.27))))
        )
        (pin passive line (at 0 -2.54 90) (length 2.032)
          (name "~" (effects (font (size 1.27 1.27))))
          (number "2" (effects (font (size 1.27 1.27))))
        )
      )
    )
    (symbol "power:GND" (power) (pin_names (offset 0)) (in_bom yes) (on_board yes)
      (property "Reference" "#PWR" (at 0 -6.35 0)
        (effects (font (size 1.27 1.27)) hide)
      )
      (property "Value" "GND" (at 0 -3.81 0)
        (effects (font (size 1.27 1.27)))
      )
      (property "Footprint" "" (at 0 0 0)
        (effects (font (size 1.27 1.27)) hide)
      )
      (property "Datasheet" "" (at 0 0 0)
        (effects (font (size 1.27 1.27)) hide)
      )
      (property "ki_keywords" "global power" (at 0 0 0)
        (effects (font (size 1.27 1.27)) hide)
      )
      (property "ki_description" "Power symbol creates a global label with name \"GND\" , ground" (at 0 0 0)
        (effects (font (size 1.27 1.27)) hide)
      )
      (symbol "GND_0_1"
        (polyline
          (pts
            (xy 0 0)
            (xy 0 -1.27)
            (xy 1.27 -1.27)
            (xy 0 -2.54)
            (xy -1.27 -1.27)
            (xy 0 -1.27)
          )
          (stroke (width 0) (type default))
          (fill (type none))
        )
      )
      (symbol "GND_1_1"
        (pin power_in line (at 0 0 270) (length 0) hide
          (name "GND" (effects (font (size 1.27 1.27))))
          (number "1" (effects (font (size 1.27 1.27))))
        )
      )
    )
  )


  (bus_entry (at 34.29 45.72) (size 2.54 2.54)
    (stroke (width 0) (type default))
    (uuid 1297124c-87a1-45ef-9bd4-234b2da8b903)
  )
  (bus_entry (at 142.24 29.21) (size 2.54 2.54)
    (stroke (width 0) (type default))
    (uuid 23952a83-0745-43dd-83a0-d79f2bf510dd)
  )
  (bus_entry (at 142.24 26.67) (size 2.54 2.54)
    (stroke (width 0) (type default))
    (uuid 2761f4b4-b93b-4aa6-acf8-332f51f4c382)
  )
  (bus_entry (at 34.29 53.34) (size 2.54 2.54)
    (stroke (width 0) (type default))
    (uuid 277c8ff8-faa2-4949-a881-534b28c27a99)
  )
  (bus_entry (at 88.9 26.67) (size 2.54 2.54)
    (stroke (width 0) (type default))
    (uuid 4af563a5-3555-4939-8107-069bbb373e21)
  )
  (bus_entry (at 142.24 31.75) (size 2.54 2.54)
    (stroke (width 0) (type default))
    (uuid 71cd9dcd-bb58-415b-b9cc-88fb2439c072)
  )
  (bus_entry (at 142.24 45.72) (size 2.54 2.54)
    (stroke (width 0) (type default))
    (uuid 727edfbe-ae75-40ac-a602-53bf349a7452)
  )
  (bus_entry (at 34.29 50.8) (size 2.54 2.54)
    (stroke (width 0) (type default))
    (uuid 75c9c507-fca8-4643-8890-2abfff3a0443)
  )
  (bus_entry (at 142.24 53.34) (size 2.54 2.54)
    (stroke (width 0) (type default))
    (uuid 796aadfb-0ff7-4a52-827e-76288812db0e)
  )
  (bus_entry (at 142.24 48.26) (size 2.54 2.54)
    (stroke (width 0) (type default))
    (uuid 8984dc55-4ae4-4fe2-964a-37d5590d898e)
  )
  (bus_entry (at 34.29 31.75) (size 2.54 2.54)
    (stroke (width 0) (type default))
    (uuid 8d8de7a9-d019-43e8-a396-c2ec28b36f36)
  )
  (bus_entry (at 142.24 50.8) (size 2.54 2.54)
    (stroke (width 0) (type default))
    (uuid 9a486871-c594-447c-8037-3dfb09a8db37)
  )
  (bus_entry (at 142.24 34.29) (size 2.54 2.54)
    (stroke (width 0) (type default))
    (uuid a9df0ce4-5a71-4d6d-a467-fc13fc85fb32)
  )
  (bus_entry (at 34.29 29.21) (size 2.54 2.54)
    (stroke (width 0) (type default))
    (uuid b0bdf2f4-c7ee-49d5-bba2-64e90a78b065)
  )
  (bus_entry (at 34.29 34.29) (size 2.54 2.54)
    (stroke (width 0) (type default))
    (uuid b92b64d7-a7bd-4d94-9146-843e90f84fa3)
  )
  (bus_entry (at 34.29 26.67) (size 2.54 2.54)
    (stroke (width 0) (type default))
    (uuid c24b5da4-96c5-475a-930a-884baf1a7c2d)
  )
  (bus_entry (at 88.9 34.29) (size 2.54 2.54)
    (stroke (width 0) (type default))
    (uuid e85fac69-5716-436d-961c-ede393d7e277)
  )
  (bus_entry (at 34.29 48.26) (size 2.54 2.54)
    (stroke (width 0) (type default))
    (uuid e9ad3d6a-1b22-40f6-9a50-db086256a404)
  )
  (bus_entry (at 88.9 31.75) (size 2.54 2.54)
    (stroke (width 0) (type default))
    (uuid fba16236-87f5-44a5-a46a-8b22a1c38ec0)
  )
  (bus_entry (at 88.9 29.21) (size 2.54 2.54)
    (stroke (width 0) (type default))
    (uuid fc1e372d-3cad-4ef4-b1b7-e951406b17d7)
  )

  (wire (pts (xy 144.78 53.34) (xy 162.56 53.34))
    (stroke (width 0) (type default))
    (uuid 06b7d1d2-9c8e-4864-8b2a-99dbeeab4b8a)
  )
  (wire (pts (xy 36.83 50.8) (xy 54.61 50.8))
    (stroke (width 0) (type default))
    (uuid 08f94a22-4cf4-452b-8cb2-1e4cf8b14eb7)
  )
  (polyline (pts (xy 210.82 13.97) (xy 13.97 13.97))
    (stroke (width 0) (type dash))
    (uuid 0e443cff-32d9-4257-8c6d-f218b6bfdcec)
  )

  (wire (pts (xy 128.27 57.15) (xy 128.27 59.69))
    (stroke (width 0) (type default))
    (uuid 1748a325-670b-4a79-8b4f-b306236fe419)
  )
  (bus (pts (xy 88.9 31.75) (xy 88.9 34.29))
    (stroke (width 0) (type default))
    (uuid 22e2134e-9145-435b-a6c2-b7bb371a13e6)
  )
  (bus (pts (xy 31.75 26.67) (xy 34.29 26.67))
    (stroke (width 0) (type default))
    (uuid 32fcc72f-0b22-4d14-bc0d-8e0b16368b8d)
  )

  (wire (pts (xy 36.83 36.83) (xy 54.61 36.83))
    (stroke (width 0) (type default))
    (uuid 33a5fe71-6276-463f-b75e-18dc1b26e519)
  )
  (wire (pts (xy 144.78 55.88) (xy 162.56 55.88))
    (stroke (width 0) (type default))
    (uuid 34643b14-3c69-4aee-8b00-a5de96d32b28)
  )
  (bus (pts (xy 34.29 31.75) (xy 34.29 34.29))
    (stroke (width 0) (type default))
    (uuid 378e9fb5-8b45-47ca-bbf4-937fbee48191)
  )

  (wire (pts (xy 144.78 29.21) (xy 162.56 29.21))
    (stroke (width 0) (type default))
    (uuid 3c788e21-6cad-4566-86a8-60fbec14edab)
  )
  (wire (pts (xy 36.83 53.34) (xy 54.61 53.34))
    (stroke (width 0) (type default))
    (uuid 3d1cc147-a666-4604-90f2-902a75c42d5b)
  )
  (bus (pts (xy 142.24 45.72) (xy 142.24 48.26))
    (stroke (width 0) (type default))
    (uuid 3d43d34c-f419-45b9-a611-a8e529def0d0)
  )
  (bus (pts (xy 142.24 29.21) (xy 142.24 31.75))
    (stroke (width 0) (type default))
    (uuid 3eb128f6-1114-405a-8d04-82284d0a6a3c)
  )

  (wire (pts (xy 144.78 48.26) (xy 162.56 48.26))
    (stroke (width 0) (type default))
    (uuid 54da473e-7290-44ec-8ec8-7101596246e5)
  )
  (wire (pts (xy 91.44 29.21) (xy 109.22 29.21))
    (stroke (width 0) (type default))
    (uuid 5627ec72-b1ab-4516-9888-116022359a79)
  )
  (wire (pts (xy 109.22 64.77) (xy 109.22 67.31))
    (stroke (width 0) (type default))
    (uuid 5c88671f-8648-4501-afbd-69c164dc6349)
  )
  (wire (pts (xy 36.83 48.26) (xy 54.61 48.26))
    (stroke (width 0) (type default))
    (uuid 5e8eac77-5433-4f73-8bb1-7b92a28d6beb)
  )
  (polyline (pts (xy 210.82 13.97) (xy 210.82 81.28))
    (stroke (width 0) (type dash))
    (uuid 60f4aa7a-8703-4c1f-9523-5e6e581216cb)
  )

  (bus (pts (xy 34.29 45.72) (xy 34.29 48.26))
    (stroke (width 0) (type default))
    (uuid 63598816-5533-46d7-999b-44d9e3eca84d)
  )
  (bus (pts (xy 139.7 26.67) (xy 142.24 26.67))
    (stroke (width 0) (type default))
    (uuid 641d1767-aff1-4452-8c21-3cd5816cdebd)
  )
  (bus (pts (xy 34.29 50.8) (xy 34.29 53.34))
    (stroke (width 0) (type default))
    (uuid 66cefa74-2998-4f69-a14c-ce0b7bcc7602)
  )

  (wire (pts (xy 36.83 31.75) (xy 54.61 31.75))
    (stroke (width 0) (type default))
    (uuid 6715c97e-eeae-4469-bac0-e60053e7226a)
  )
  (bus (pts (xy 34.29 29.21) (xy 34.29 31.75))
    (stroke (width 0) (type default))
    (uuid 6fd2be29-3239-4c3e-affb-e56789f409f0)
  )

  (wire (pts (xy 91.44 36.83) (xy 109.22 36.83))
    (stroke (width 0) (type default))
    (uuid 7a657624-0608-415d-a4e7-71821cdd3929)
  )
  (wire (pts (xy 144.78 36.83) (xy 162.56 36.83))
    (stroke (width 0) (type default))
    (uuid 7e4ce5d3-b725-476e-a127-2a453e408f97)
  )
  (bus (pts (xy 142.24 31.75) (xy 142.24 34.29))
    (stroke (width 0) (type default))
    (uuid 8ed06e94-f26d-449b-a996-62aed497508a)
  )

  (wire (pts (xy 91.44 31.75) (xy 109.22 31.75))
    (stroke (width 0) (type default))
    (uuid 966f83d3-4266-441a-a9d7-94b7af66be9d)
  )
  (bus (pts (xy 88.9 26.67) (xy 88.9 29.21))
    (stroke (width 0) (type default))
    (uuid 976c6d62-9b07-4f5e-b65e-41e4523c5fde)
  )

  (wire (pts (xy 144.78 50.8) (xy 162.56 50.8))
    (stroke (width 0) (type default))
    (uuid 9d46d09e-120e-4463-9ae8-46988046fcbb)
  )
  (wire (pts (xy 36.83 34.29) (xy 54.61 34.29))
    (stroke (width 0) (type default))
    (uuid a497ead8-2594-4f8e-b4b1-46adb2a18a57)
  )
  (wire (pts (xy 144.78 34.29) (xy 162.56 34.29))
    (stroke (width 0) (type default))
    (uuid a7a4a4ec-6b56-4f62-827a-603e7a4688cd)
  )
  (bus (pts (xy 142.24 26.67) (xy 142.24 29.21))
    (stroke (width 0) (type default))
    (uuid a7aeb4f1-cb5f-457c-8ab6-bc1994d806f3)
  )

  (wire (pts (xy 91.44 34.29) (xy 109.22 34.29))
    (stroke (width 0) (type default))
    (uuid ab443d2c-b070-4fe0-84f0-a6296671fd76)
  )
  (bus (pts (xy 86.36 26.67) (xy 88.9 26.67))
    (stroke (width 0) (type default))
    (uuid acd063f2-de15-46f4-ae4e-327c5871709f)
  )

  (wire (pts (xy 90.17 57.15) (xy 90.17 59.69))
    (stroke (width 0) (type default))
    (uuid b0fbc7ef-12b8-46ee-9eb8-fef0c3c65802)
  )
  (bus (pts (xy 139.7 45.72) (xy 142.24 45.72))
    (stroke (width 0) (type default))
    (uuid bf962a18-b174-4b92-9d71-94b6ac3cc094)
  )

  (wire (pts (xy 90.17 64.77) (xy 90.17 67.31))
    (stroke (width 0) (type default))
    (uuid c01847de-5635-4b93-8e30-a5b0fd8b97d5)
  )
  (polyline (pts (xy 13.97 81.28) (xy 210.82 81.28))
    (stroke (width 0) (type dash))
    (uuid c1532930-0fb8-470a-b763-584fff542119)
  )
  (polyline (pts (xy 13.97 81.28) (xy 13.97 13.97))
    (stroke (width 0) (type dash))
    (uuid c63b2dcf-a5f9-4ad2-94af-b2e274328780)
  )

  (bus (pts (xy 142.24 50.8) (xy 142.24 53.34))
    (stroke (width 0) (type default))
    (uuid d3dbf105-05d8-4a3b-938b-81c373f930dc)
  )

  (wire (pts (xy 109.22 57.15) (xy 109.22 59.69))
    (stroke (width 0) (type default))
    (uuid d44a13ce-cb25-4e81-b85c-6ac05d6a2c24)
  )
  (bus (pts (xy 34.29 48.26) (xy 34.29 50.8))
    (stroke (width 0) (type default))
    (uuid e3fc53ab-4556-442d-99ff-b38e2baa2fa4)
  )

  (wire (pts (xy 144.78 31.75) (xy 162.56 31.75))
    (stroke (width 0) (type default))
    (uuid e6534bb9-07a6-4fae-8298-582a3471ab88)
  )
  (bus (pts (xy 34.29 26.67) (xy 34.29 29.21))
    (stroke (width 0) (type default))
    (uuid e7a957f9-94a0-4dd9-a428-f42d71e788d6)
  )

  (wire (pts (xy 36.83 55.88) (xy 54.61 55.88))
    (stroke (width 0) (type default))
    (uuid ebb937c0-2b56-45b1-913d-16ef8f20261c)
  )
  (bus (pts (xy 31.75 45.72) (xy 34.29 45.72))
    (stroke (width 0) (type default))
    (uuid eefebb6e-7abb-421e-8c81-c16607e4e429)
  )

  (wire (pts (xy 36.83 29.21) (xy 54.61 29.21))
    (stroke (width 0) (type default))
    (uuid ef89e0ba-c0a3-4a8f-8f44-89077b895670)
  )
  (bus (pts (xy 142.24 48.26) (xy 142.24 50.8))
    (stroke (width 0) (type default))
    (uuid f397cc25-9db1-496b-b1d5-f2df02d98699)
  )

  (wire (pts (xy 128.27 64.77) (xy 128.27 67.31))
    (stroke (width 0) (type default))
    (uuid fb3a7086-cdb0-4a21-8e85-0f06562b6614)
  )
  (bus (pts (xy 88.9 29.21) (xy 88.9 31.75))
    (stroke (width 0) (type default))
    (uuid fdf61105-7ea9-4ed0-bbcb-222b46c0ee36)
  )

  (text "Motor Control" (at 15.24 17.78 0)
    (effects (font (size 1.27 1.27)) (justify left bottom))
    (uuid 698662f0-cf0b-4f43-ab15-cd303ac0b168)
  )

  (label "MOTOR_{DRB}.RX" (at 92.71 31.75 0) (fields_autoplaced)
    (effects (font (size 1.27 1.27)) (justify left bottom))
    (uuid 011324a6-b545-47ba-b956-2b48b8f6d6a9)
  )
  (label "MOTOR_{FL}.BOOT0" (at 38.1 34.29 0) (fields_autoplaced)
    (effects (font (size 1.27 1.27)) (justify left bottom))
    (uuid 16b30146-9087-4565-b9d5-66d47df48360)
  )
  (label "MOTOR_{BL}.BOOT0" (at 38.1 53.34 0) (fields_autoplaced)
    (effects (font (size 1.27 1.27)) (justify left bottom))
    (uuid 4268c10c-f41d-42df-90e9-ef5e8e9b49fb)
  )
  (label "MOTOR_{FL}.~{RST}" (at 38.1 36.83 0) (fields_autoplaced)
    (effects (font (size 1.27 1.27)) (justify left bottom))
    (uuid 544e9823-5a0d-4dc8-a6bd-1d7edf0d23d6)
  )
  (label "MOTOR_{FR}.~{RST}" (at 146.05 36.83 0) (fields_autoplaced)
    (effects (font (size 1.27 1.27)) (justify left bottom))
    (uuid 720fc779-933c-42dc-9055-8431afff9c2d)
  )
  (label "MOTOR_{FL}.TX" (at 38.1 29.21 0) (fields_autoplaced)
    (effects (font (size 1.27 1.27)) (justify left bottom))
    (uuid 72a357cb-6bea-40ff-a162-3d324061770d)
  )
  (label "MOTOR_{BR}.TX" (at 146.05 48.26 0) (fields_autoplaced)
    (effects (font (size 1.27 1.27)) (justify left bottom))
    (uuid 81661c75-7d3e-4bc1-a478-868ae4bce6c5)
  )
  (label "MOTOR_{BR}.BOOT0" (at 146.05 53.34 0) (fields_autoplaced)
    (effects (font (size 1.27 1.27)) (justify left bottom))
    (uuid 91286c68-1eaf-4192-b0ec-800eca39fec0)
  )
  (label "MOTOR_{BL}.TX" (at 38.1 48.26 0) (fields_autoplaced)
    (effects (font (size 1.27 1.27)) (justify left bottom))
    (uuid 940fef3e-ddb4-459a-a069-96bf59d5f434)
  )
  (label "MOTOR_{FR}.RX" (at 146.05 31.75 0) (fields_autoplaced)
    (effects (font (size 1.27 1.27)) (justify left bottom))
    (uuid 99ceb04f-fc63-4f3d-b4f4-86737d49fd66)
  )
  (label "MOTOR_{BR}.~{RST}" (at 146.05 55.88 0) (fields_autoplaced)
    (effects (font (size 1.27 1.27)) (justify left bottom))
    (uuid 9fecf662-b35e-4e26-8daa-8dd4711bf62e)
  )
  (label "MOTOR_{BL}.RX" (at 38.1 50.8 0) (fields_autoplaced)
    (effects (font (size 1.27 1.27)) (justify left bottom))
    (uuid bcfac49b-e4f0-4baa-8fb3-b79f5a2a9a74)
  )
  (label "MOTOR_{BL}.~{RST}" (at 38.1 55.88 0) (fields_autoplaced)
    (effects (font (size 1.27 1.27)) (justify left bottom))
    (uuid c0567529-d200-45c5-925d-0576d518171f)
  )
  (label "MOTOR_{FR}.TX" (at 146.05 29.21 0) (fields_autoplaced)
    (effects (font (size 1.27 1.27)) (justify left bottom))
    (uuid c2932ff6-4605-4ec8-a14c-24008bcf6199)
  )
  (label "MOTOR_{BR}.RX" (at 146.05 50.8 0) (fields_autoplaced)
    (effects (font (size 1.27 1.27)) (justify left bottom))
    (uuid cae0e48a-a22f-4d1c-b5eb-0b0f4e5a3f02)
  )
  (label "MOTOR_{DRB}.TX" (at 92.71 29.21 0) (fields_autoplaced)
    (effects (font (size 1.27 1.27)) (justify left bottom))
    (uuid cb8212ab-200b-4912-9444-7aeb1559ac28)
  )
  (label "MOTOR_{DRB}.~{RST}" (at 92.71 36.83 0) (fields_autoplaced)
    (effects (font (size 1.27 1.27)) (justify left bottom))
    (uuid ce9dc045-2728-44a9-baf7-05c7040abd1d)
  )
  (label "MOTOR_{DRB}.BOOT0" (at 92.71 34.29 0) (fields_autoplaced)
    (effects (font (size 1.27 1.27)) (justify left bottom))
    (uuid d3239d51-5d21-474f-898c-92a315889cf1)
  )
  (label "MOTOR_{FR}.BOOT0" (at 146.05 34.29 0) (fields_autoplaced)
    (effects (font (size 1.27 1.27)) (justify left bottom))
    (uuid e04faed5-2f76-42cc-b8eb-ac7627a4dfa9)
  )
  (label "MOTOR_{FL}.RX" (at 38.1 31.75 0) (fields_autoplaced)
    (effects (font (size 1.27 1.27)) (justify left bottom))
    (uuid f0cadbae-6c33-4feb-bd79-02bdf66bfd99)
  )

  (hierarchical_label "{MOTOR_{FR}}" (shape bidirectional) (at 139.7 26.67 180) (fields_autoplaced)
    (effects (font (size 1.27 1.27)) (justify right))
    (uuid 079d6bf0-1f17-4c7d-931f-6a29c5a08d15)
  )
  (hierarchical_label "{MOTOR_{DRB}}" (shape bidirectional) (at 86.36 26.67 180) (fields_autoplaced)
    (effects (font (size 1.27 1.27)) (justify right))
    (uuid 74098102-0c61-41fb-9fcf-96f013eb2b89)
  )
  (hierarchical_label "{MOTOR_{FL}}" (shape bidirectional) (at 31.75 26.67 180) (fields_autoplaced)
    (effects (font (size 1.27 1.27)) (justify right))
    (uuid d8694def-72b7-4c16-8a99-48b8166a6118)
  )
  (hierarchical_label "{MOTOR_{BL}}" (shape bidirectional) (at 31.75 45.72 180) (fields_autoplaced)
    (effects (font (size 1.27 1.27)) (justify right))
    (uuid e6705903-6584-4446-97df-f273e81b9d20)
  )
  (hierarchical_label "{MOTOR_{BR}}" (shape bidirectional) (at 139.7 45.72 180) (fields_autoplaced)
    (effects (font (size 1.27 1.27)) (justify right))
    (uuid e7f3b69f-6ffd-4d4a-a09c-08d0a0ee0f9b)
  )

  (symbol (lib_id "Device:C_Polarized_Small_US") (at 128.27 62.23 0) (unit 1)
    (in_bom yes) (on_board yes) (dnp no)
    (uuid 2132d843-2303-4ebc-abad-b755c77d9390)
    (property "Reference" "C59" (at 120.65 62.23 90)
      (effects (font (size 1.27 1.27)))
    )
    (property "Value" "EEEFK1J101P" (at 123.19 62.23 90)
      (effects (font (size 1.27 1.27)))
    )
    (property "Footprint" "Capacitor_SMD:C_Elec_10x10.2" (at 128.27 62.23 0)
      (effects (font (size 1.27 1.27)) hide)
    )
    (property "Datasheet" "~" (at 128.27 62.23 0)
      (effects (font (size 1.27 1.27)) hide)
    )
    (property "Value2" "100uF 63V" (at 125.73 62.23 90)
      (effects (font (size 1.27 1.27)))
    )
    (pin "1" (uuid 7f4e4cf3-4fa8-44ef-871d-9d51d26693eb))
    (pin "2" (uuid d5ee4334-ba71-4c75-a94c-88c33db070b7))
    (instances
      (project "control"
        (path "/e63e39d7-6ac0-4ffd-8aa3-1841a4541b55/b652e806-2d00-41c9-9687-f0dbcef3cd66/c444a231-b490-4b56-8fc8-1e882188a7e5"
          (reference "C59") (unit 1)
        )
        (path "/e63e39d7-6ac0-4ffd-8aa3-1841a4541b55/b652e806-2d00-41c9-9687-f0dbcef3cd66/b48e05f4-e3fe-4b6d-99db-b6d00b405149"
          (reference "C71") (unit 1)
        )
        (path "/e63e39d7-6ac0-4ffd-8aa3-1841a4541b55/b652e806-2d00-41c9-9687-f0dbcef3cd66/87e24030-7873-433c-a389-4b2815947a82"
          (reference "C83") (unit 1)
        )
        (path "/e63e39d7-6ac0-4ffd-8aa3-1841a4541b55/b652e806-2d00-41c9-9687-f0dbcef3cd66/c167575a-0142-4af1-89c7-1603756978c3"
          (reference "C95") (unit 1)
        )
        (path "/e63e39d7-6ac0-4ffd-8aa3-1841a4541b55/b652e806-2d00-41c9-9687-f0dbcef3cd66/3d07cd7f-ec9d-4cb0-8ec7-2b3ae9045719"
          (reference "C107") (unit 1)
        )
        (path "/e63e39d7-6ac0-4ffd-8aa3-1841a4541b55/b652e806-2d00-41c9-9687-f0dbcef3cd66"
          (reference "C61") (unit 1)
        )
      )
    )
  )

  (symbol (lib_id "power:GND") (at 128.27 67.31 0) (unit 1)
    (in_bom yes) (on_board yes) (dnp no)
    (uuid 2b95b668-7250-43aa-a5c6-5de409ac1ff8)
    (property "Reference" "#PWR0173" (at 128.27 73.66 0)
      (effects (font (size 1.27 1.27)) hide)
    )
    (property "Value" "GND" (at 128.27 72.39 0)
      (effects (font (size 1.27 1.27)))
    )
    (property "Footprint" "" (at 128.27 67.31 0)
      (effects (font (size 1.27 1.27)) hide)
    )
    (property "Datasheet" "" (at 128.27 67.31 0)
      (effects (font (size 1.27 1.27)) hide)
    )
    (pin "1" (uuid e516e04e-652a-47d0-a4eb-f1d946f6ee8e))
    (instances
      (project "control"
        (path "/e63e39d7-6ac0-4ffd-8aa3-1841a4541b55/b652e806-2d00-41c9-9687-f0dbcef3cd66/b48e05f4-e3fe-4b6d-99db-b6d00b405149"
          (reference "#PWR0173") (unit 1)
        )
        (path "/e63e39d7-6ac0-4ffd-8aa3-1841a4541b55/b652e806-2d00-41c9-9687-f0dbcef3cd66/c444a231-b490-4b56-8fc8-1e882188a7e5"
          (reference "#PWR0143") (unit 1)
        )
        (path "/e63e39d7-6ac0-4ffd-8aa3-1841a4541b55/b652e806-2d00-41c9-9687-f0dbcef3cd66/c167575a-0142-4af1-89c7-1603756978c3"
          (reference "#PWR0233") (unit 1)
        )
        (path "/e63e39d7-6ac0-4ffd-8aa3-1841a4541b55/b652e806-2d00-41c9-9687-f0dbcef3cd66/87e24030-7873-433c-a389-4b2815947a82"
          (reference "#PWR0203") (unit 1)
        )
        (path "/e63e39d7-6ac0-4ffd-8aa3-1841a4541b55/b652e806-2d00-41c9-9687-f0dbcef3cd66/3d07cd7f-ec9d-4cb0-8ec7-2b3ae9045719"
          (reference "#PWR0263") (unit 1)
        )
        (path "/e63e39d7-6ac0-4ffd-8aa3-1841a4541b55/b652e806-2d00-41c9-9687-f0dbcef3cd66"
          (reference "#PWR0150") (unit 1)
        )
      )
    )
  )

  (symbol (lib_id "Device:C_Polarized_Small_US") (at 90.17 62.23 0) (unit 1)
    (in_bom yes) (on_board yes) (dnp no)
    (uuid 5b073bc4-9d39-4489-9e78-f37e1692adc2)
    (property "Reference" "C59" (at 82.55 62.23 90)
      (effects (font (size 1.27 1.27)))
    )
    (property "Value" "EEEFK1J101P" (at 85.09 62.23 90)
      (effects (font (size 1.27 1.27)))
    )
    (property "Footprint" "Capacitor_SMD:C_Elec_10x10.2" (at 90.17 62.23 0)
      (effects (font (size 1.27 1.27)) hide)
    )
    (property "Datasheet" "~" (at 90.17 62.23 0)
      (effects (font (size 1.27 1.27)) hide)
    )
    (property "Value2" "100uF 63V" (at 87.63 62.23 90)
      (effects (font (size 1.27 1.27)))
    )
    (pin "1" (uuid 8edd49cd-71ba-46d1-9d20-857e033e78d4))
    (pin "2" (uuid bf0384b4-37b1-4376-8f8c-0698643e07d0))
    (instances
      (project "control"
        (path "/e63e39d7-6ac0-4ffd-8aa3-1841a4541b55/b652e806-2d00-41c9-9687-f0dbcef3cd66/c444a231-b490-4b56-8fc8-1e882188a7e5"
          (reference "C59") (unit 1)
        )
        (path "/e63e39d7-6ac0-4ffd-8aa3-1841a4541b55/b652e806-2d00-41c9-9687-f0dbcef3cd66/b48e05f4-e3fe-4b6d-99db-b6d00b405149"
          (reference "C71") (unit 1)
        )
        (path "/e63e39d7-6ac0-4ffd-8aa3-1841a4541b55/b652e806-2d00-41c9-9687-f0dbcef3cd66/87e24030-7873-433c-a389-4b2815947a82"
          (reference "C83") (unit 1)
        )
        (path "/e63e39d7-6ac0-4ffd-8aa3-1841a4541b55/b652e806-2d00-41c9-9687-f0dbcef3cd66/c167575a-0142-4af1-89c7-1603756978c3"
          (reference "C95") (unit 1)
        )
        (path "/e63e39d7-6ac0-4ffd-8aa3-1841a4541b55/b652e806-2d00-41c9-9687-f0dbcef3cd66/3d07cd7f-ec9d-4cb0-8ec7-2b3ae9045719"
          (reference "C107") (unit 1)
        )
        (path "/e63e39d7-6ac0-4ffd-8aa3-1841a4541b55/b652e806-2d00-41c9-9687-f0dbcef3cd66"
          (reference "C59") (unit 1)
        )
      )
    )
  )

  (symbol (lib_id "AT-Supplies:+V_{BATT(PROTECTED)}") (at 109.22 57.15 0) (unit 1)
    (in_bom no) (on_board no) (dnp no) (fields_autoplaced)
    (uuid 679769cc-d426-4f7c-afc1-447824e2c9c9)
    (property "Reference" "#PWR0170" (at 109.22 60.96 0)
      (effects (font (size 1.27 1.27)) hide)
    )
    (property "Value" "+V_{BATT(PROTECTED)}" (at 109.222 52.07 0)
      (effects (font (size 1.27 1.27)))
    )
    (property "Footprint" "" (at 109.22 57.15 0)
      (effects (font (size 1.27 1.27)) hide)
    )
    (property "Datasheet" "" (at 109.22 57.15 0)
      (effects (font (size 1.27 1.27)) hide)
    )
    (pin "1" (uuid 1f694623-485c-467f-ac2c-c06fed0fed0d))
    (instances
      (project "control"
        (path "/e63e39d7-6ac0-4ffd-8aa3-1841a4541b55/b652e806-2d00-41c9-9687-f0dbcef3cd66/b48e05f4-e3fe-4b6d-99db-b6d00b405149"
          (reference "#PWR0170") (unit 1)
        )
        (path "/e63e39d7-6ac0-4ffd-8aa3-1841a4541b55/b652e806-2d00-41c9-9687-f0dbcef3cd66/c444a231-b490-4b56-8fc8-1e882188a7e5"
          (reference "#PWR0140") (unit 1)
        )
        (path "/e63e39d7-6ac0-4ffd-8aa3-1841a4541b55/b652e806-2d00-41c9-9687-f0dbcef3cd66/c167575a-0142-4af1-89c7-1603756978c3"
          (reference "#PWR0230") (unit 1)
        )
        (path "/e63e39d7-6ac0-4ffd-8aa3-1841a4541b55/b652e806-2d00-41c9-9687-f0dbcef3cd66/87e24030-7873-433c-a389-4b2815947a82"
          (reference "#PWR0200") (unit 1)
        )
        (path "/e63e39d7-6ac0-4ffd-8aa3-1841a4541b55/b652e806-2d00-41c9-9687-f0dbcef3cd66/3d07cd7f-ec9d-4cb0-8ec7-2b3ae9045719"
          (reference "#PWR0260") (unit 1)
        )
        (path "/e63e39d7-6ac0-4ffd-8aa3-1841a4541b55/b652e806-2d00-41c9-9687-f0dbcef3cd66"
          (reference "#PWR0147") (unit 1)
        )
      )
    )
  )

  (symbol (lib_id "power:GND") (at 109.22 67.31 0) (unit 1)
    (in_bom yes) (on_board yes) (dnp no)
    (uuid 7da4cfab-328a-4f13-ac35-c865617a0c6b)
    (property "Reference" "#PWR0173" (at 109.22 73.66 0)
      (effects (font (size 1.27 1.27)) hide)
    )
    (property "Value" "GND" (at 109.22 72.39 0)
      (effects (font (size 1.27 1.27)))
    )
    (property "Footprint" "" (at 109.22 67.31 0)
      (effects (font (size 1.27 1.27)) hide)
    )
    (property "Datasheet" "" (at 109.22 67.31 0)
      (effects (font (size 1.27 1.27)) hide)
    )
    (pin "1" (uuid 21c1cea1-1d84-492f-bc92-b266cf222242))
    (instances
      (project "control"
        (path "/e63e39d7-6ac0-4ffd-8aa3-1841a4541b55/b652e806-2d00-41c9-9687-f0dbcef3cd66/b48e05f4-e3fe-4b6d-99db-b6d00b405149"
          (reference "#PWR0173") (unit 1)
        )
        (path "/e63e39d7-6ac0-4ffd-8aa3-1841a4541b55/b652e806-2d00-41c9-9687-f0dbcef3cd66/c444a231-b490-4b56-8fc8-1e882188a7e5"
          (reference "#PWR0143") (unit 1)
        )
        (path "/e63e39d7-6ac0-4ffd-8aa3-1841a4541b55/b652e806-2d00-41c9-9687-f0dbcef3cd66/c167575a-0142-4af1-89c7-1603756978c3"
          (reference "#PWR0233") (unit 1)
        )
        (path "/e63e39d7-6ac0-4ffd-8aa3-1841a4541b55/b652e806-2d00-41c9-9687-f0dbcef3cd66/87e24030-7873-433c-a389-4b2815947a82"
          (reference "#PWR0203") (unit 1)
        )
        (path "/e63e39d7-6ac0-4ffd-8aa3-1841a4541b55/b652e806-2d00-41c9-9687-f0dbcef3cd66/3d07cd7f-ec9d-4cb0-8ec7-2b3ae9045719"
          (reference "#PWR0263") (unit 1)
        )
        (path "/e63e39d7-6ac0-4ffd-8aa3-1841a4541b55/b652e806-2d00-41c9-9687-f0dbcef3cd66"
          (reference "#PWR0148") (unit 1)
        )
      )
    )
  )

  (symbol (lib_id "AT-Supplies:+V_{BATT(PROTECTED)}") (at 90.17 57.15 0) (unit 1)
    (in_bom no) (on_board no) (dnp no) (fields_autoplaced)
    (uuid a8e65806-3671-42a9-8282-3f185cfcc5e9)
    (property "Reference" "#PWR0170" (at 90.17 60.96 0)
      (effects (font (size 1.27 1.27)) hide)
    )
    (property "Value" "+V_{BATT(PROTECTED)}" (at 90.172 52.07 0)
      (effects (font (size 1.27 1.27)))
    )
    (property "Footprint" "" (at 90.17 57.15 0)
      (effects (font (size 1.27 1.27)) hide)
    )
    (property "Datasheet" "" (at 90.17 57.15 0)
      (effects (font (size 1.27 1.27)) hide)
    )
    (pin "1" (uuid d945f21e-b0b5-4b3c-b092-c93cc68e2a20))
    (instances
      (project "control"
        (path "/e63e39d7-6ac0-4ffd-8aa3-1841a4541b55/b652e806-2d00-41c9-9687-f0dbcef3cd66/b48e05f4-e3fe-4b6d-99db-b6d00b405149"
          (reference "#PWR0170") (unit 1)
        )
        (path "/e63e39d7-6ac0-4ffd-8aa3-1841a4541b55/b652e806-2d00-41c9-9687-f0dbcef3cd66/c444a231-b490-4b56-8fc8-1e882188a7e5"
          (reference "#PWR0140") (unit 1)
        )
        (path "/e63e39d7-6ac0-4ffd-8aa3-1841a4541b55/b652e806-2d00-41c9-9687-f0dbcef3cd66/c167575a-0142-4af1-89c7-1603756978c3"
          (reference "#PWR0230") (unit 1)
        )
        (path "/e63e39d7-6ac0-4ffd-8aa3-1841a4541b55/b652e806-2d00-41c9-9687-f0dbcef3cd66/87e24030-7873-433c-a389-4b2815947a82"
          (reference "#PWR0200") (unit 1)
        )
        (path "/e63e39d7-6ac0-4ffd-8aa3-1841a4541b55/b652e806-2d00-41c9-9687-f0dbcef3cd66/3d07cd7f-ec9d-4cb0-8ec7-2b3ae9045719"
          (reference "#PWR0260") (unit 1)
        )
        (path "/e63e39d7-6ac0-4ffd-8aa3-1841a4541b55/b652e806-2d00-41c9-9687-f0dbcef3cd66"
          (reference "#PWR0145") (unit 1)
        )
      )
    )
  )

  (symbol (lib_id "power:GND") (at 90.17 67.31 0) (unit 1)
    (in_bom yes) (on_board yes) (dnp no)
    (uuid bad93684-e299-4e91-8062-8cc710b9b6f6)
    (property "Reference" "#PWR0173" (at 90.17 73.66 0)
      (effects (font (size 1.27 1.27)) hide)
    )
    (property "Value" "GND" (at 90.17 72.39 0)
      (effects (font (size 1.27 1.27)))
    )
    (property "Footprint" "" (at 90.17 67.31 0)
      (effects (font (size 1.27 1.27)) hide)
    )
    (property "Datasheet" "" (at 90.17 67.31 0)
      (effects (font (size 1.27 1.27)) hide)
    )
    (pin "1" (uuid ed106834-abdd-4d61-b3cb-6cdacd9b0d7b))
    (instances
      (project "control"
        (path "/e63e39d7-6ac0-4ffd-8aa3-1841a4541b55/b652e806-2d00-41c9-9687-f0dbcef3cd66/b48e05f4-e3fe-4b6d-99db-b6d00b405149"
          (reference "#PWR0173") (unit 1)
        )
        (path "/e63e39d7-6ac0-4ffd-8aa3-1841a4541b55/b652e806-2d00-41c9-9687-f0dbcef3cd66/c444a231-b490-4b56-8fc8-1e882188a7e5"
          (reference "#PWR0143") (unit 1)
        )
        (path "/e63e39d7-6ac0-4ffd-8aa3-1841a4541b55/b652e806-2d00-41c9-9687-f0dbcef3cd66/c167575a-0142-4af1-89c7-1603756978c3"
          (reference "#PWR0233") (unit 1)
        )
        (path "/e63e39d7-6ac0-4ffd-8aa3-1841a4541b55/b652e806-2d00-41c9-9687-f0dbcef3cd66/87e24030-7873-433c-a389-4b2815947a82"
          (reference "#PWR0203") (unit 1)
        )
        (path "/e63e39d7-6ac0-4ffd-8aa3-1841a4541b55/b652e806-2d00-41c9-9687-f0dbcef3cd66/3d07cd7f-ec9d-4cb0-8ec7-2b3ae9045719"
          (reference "#PWR0263") (unit 1)
        )
        (path "/e63e39d7-6ac0-4ffd-8aa3-1841a4541b55/b652e806-2d00-41c9-9687-f0dbcef3cd66"
          (reference "#PWR0146") (unit 1)
        )
      )
    )
  )

  (symbol (lib_id "AT-Supplies:+V_{BATT(PROTECTED)}") (at 128.27 57.15 0) (unit 1)
    (in_bom no) (on_board no) (dnp no) (fields_autoplaced)
    (uuid cb468934-e2c6-42f4-a76a-c5fd689040f6)
    (property "Reference" "#PWR0170" (at 128.27 60.96 0)
      (effects (font (size 1.27 1.27)) hide)
    )
    (property "Value" "+V_{BATT(PROTECTED)}" (at 128.272 52.07 0)
      (effects (font (size 1.27 1.27)))
    )
    (property "Footprint" "" (at 128.27 57.15 0)
      (effects (font (size 1.27 1.27)) hide)
    )
    (property "Datasheet" "" (at 128.27 57.15 0)
      (effects (font (size 1.27 1.27)) hide)
    )
    (pin "1" (uuid 0f076d6a-d07e-4883-971e-58a30b1e1bb1))
    (instances
      (project "control"
        (path "/e63e39d7-6ac0-4ffd-8aa3-1841a4541b55/b652e806-2d00-41c9-9687-f0dbcef3cd66/b48e05f4-e3fe-4b6d-99db-b6d00b405149"
          (reference "#PWR0170") (unit 1)
        )
        (path "/e63e39d7-6ac0-4ffd-8aa3-1841a4541b55/b652e806-2d00-41c9-9687-f0dbcef3cd66/c444a231-b490-4b56-8fc8-1e882188a7e5"
          (reference "#PWR0140") (unit 1)
        )
        (path "/e63e39d7-6ac0-4ffd-8aa3-1841a4541b55/b652e806-2d00-41c9-9687-f0dbcef3cd66/c167575a-0142-4af1-89c7-1603756978c3"
          (reference "#PWR0230") (unit 1)
        )
        (path "/e63e39d7-6ac0-4ffd-8aa3-1841a4541b55/b652e806-2d00-41c9-9687-f0dbcef3cd66/87e24030-7873-433c-a389-4b2815947a82"
          (reference "#PWR0200") (unit 1)
        )
        (path "/e63e39d7-6ac0-4ffd-8aa3-1841a4541b55/b652e806-2d00-41c9-9687-f0dbcef3cd66/3d07cd7f-ec9d-4cb0-8ec7-2b3ae9045719"
          (reference "#PWR0260") (unit 1)
        )
        (path "/e63e39d7-6ac0-4ffd-8aa3-1841a4541b55/b652e806-2d00-41c9-9687-f0dbcef3cd66"
          (reference "#PWR0149") (unit 1)
        )
      )
    )
  )

  (symbol (lib_id "Device:C_Polarized_Small_US") (at 109.22 62.23 0) (unit 1)
    (in_bom yes) (on_board yes) (dnp no)
    (uuid e835fe1c-49de-4cad-b85c-1fbbcb2c1653)
    (property "Reference" "C59" (at 101.6 62.23 90)
      (effects (font (size 1.27 1.27)))
    )
    (property "Value" "EEEFK1J101P" (at 104.14 62.23 90)
      (effects (font (size 1.27 1.27)))
    )
    (property "Footprint" "Capacitor_SMD:C_Elec_10x10.2" (at 109.22 62.23 0)
      (effects (font (size 1.27 1.27)) hide)
    )
    (property "Datasheet" "~" (at 109.22 62.23 0)
      (effects (font (size 1.27 1.27)) hide)
    )
    (property "Value2" "100uF 63V" (at 106.68 62.23 90)
      (effects (font (size 1.27 1.27)))
    )
    (pin "1" (uuid ba7dbdf2-a244-4cfb-b12d-57009b9b5b7c))
    (pin "2" (uuid d8f89b61-b2d2-4cea-9de2-94c8f7be1763))
    (instances
      (project "control"
        (path "/e63e39d7-6ac0-4ffd-8aa3-1841a4541b55/b652e806-2d00-41c9-9687-f0dbcef3cd66/c444a231-b490-4b56-8fc8-1e882188a7e5"
          (reference "C59") (unit 1)
        )
        (path "/e63e39d7-6ac0-4ffd-8aa3-1841a4541b55/b652e806-2d00-41c9-9687-f0dbcef3cd66/b48e05f4-e3fe-4b6d-99db-b6d00b405149"
          (reference "C71") (unit 1)
        )
        (path "/e63e39d7-6ac0-4ffd-8aa3-1841a4541b55/b652e806-2d00-41c9-9687-f0dbcef3cd66/87e24030-7873-433c-a389-4b2815947a82"
          (reference "C83") (unit 1)
        )
        (path "/e63e39d7-6ac0-4ffd-8aa3-1841a4541b55/b652e806-2d00-41c9-9687-f0dbcef3cd66/c167575a-0142-4af1-89c7-1603756978c3"
          (reference "C95") (unit 1)
        )
        (path "/e63e39d7-6ac0-4ffd-8aa3-1841a4541b55/b652e806-2d00-41c9-9687-f0dbcef3cd66/3d07cd7f-ec9d-4cb0-8ec7-2b3ae9045719"
          (reference "C107") (unit 1)
        )
        (path "/e63e39d7-6ac0-4ffd-8aa3-1841a4541b55/b652e806-2d00-41c9-9687-f0dbcef3cd66"
          (reference "C60") (unit 1)
        )
      )
    )
  )

  (sheet (at 109.22 27.94) (size 16.51 10.16)
    (stroke (width 0.1524) (type solid))
    (fill (color 255 255 194 1.0000))
    (uuid 3d07cd7f-ec9d-4cb0-8ec7-2b3ae9045719)
    (property "Sheetname" "MotorDRB" (at 109.22 27.2284 0)
      (effects (font (size 1.27 1.27)) (justify left bottom))
    )
    (property "Sheetfile" "motor.kicad_sch" (at 109.22 39.37 0)
      (effects (font (size 1.27 1.27)) (justify left top))
    )
    (pin "~{RST}" input (at 109.22 36.83 180)
      (effects (font (size 1.27 1.27)) (justify left))
      (uuid a2aa88cd-e5eb-4a37-8088-8322911acb4b)
    )
    (pin "BOOT0" input (at 109.22 34.29 180)
      (effects (font (size 1.27 1.27)) (justify left))
      (uuid bf6bfaac-5c4d-473e-b5b4-d7b06fc6c0cc)
    )
    (pin "MCU_{RX}_SPIN_{TX}" output (at 109.22 31.75 180)
      (effects (font (size 1.27 1.27)) (justify left))
      (uuid 8373f494-e2b1-466a-9159-7d5585eec560)
    )
    (pin "MCU_{TX}_SPIN_{RX}" input (at 109.22 29.21 180)
      (effects (font (size 1.27 1.27)) (justify left))
      (uuid 4d58c93a-e753-4f70-8b5f-5764c91f5b5c)
    )
    (instances
      (project "control"
        (path "/e63e39d7-6ac0-4ffd-8aa3-1841a4541b55/3a74dea1-1510-40f9-ac26-652aca9a28c3" (page "12"))
        (path "/e63e39d7-6ac0-4ffd-8aa3-1841a4541b55" (page "4"))
        (path "/e63e39d7-6ac0-4ffd-8aa3-1841a4541b55/b652e806-2d00-41c9-9687-f0dbcef3cd66" (page "15"))
      )
    )
  )

  (sheet (at 162.56 46.99) (size 16.51 10.16)
    (stroke (width 0.1524) (type solid))
    (fill (color 255 255 194 1.0000))
    (uuid 87e24030-7873-433c-a389-4b2815947a82)
    (property "Sheetname" "MotorBR" (at 162.56 46.2784 0)
      (effects (font (size 1.27 1.27)) (justify left bottom))
    )
    (property "Sheetfile" "motor.kicad_sch" (at 162.56 58.42 0)
      (effects (font (size 1.27 1.27)) (justify left top))
    )
    (pin "~{RST}" input (at 162.56 55.88 180)
      (effects (font (size 1.27 1.27)) (justify left))
      (uuid b5365484-a47b-4cef-87ca-d770279fc43a)
    )
    (pin "BOOT0" input (at 162.56 53.34 180)
      (effects (font (size 1.27 1.27)) (justify left))
      (uuid 0a6c80be-9741-4142-8beb-54c11684d9fb)
    )
    (pin "MCU_{RX}_SPIN_{TX}" output (at 162.56 50.8 180)
      (effects (font (size 1.27 1.27)) (justify left))
      (uuid bfd79c28-c275-4bf2-97f9-e731c2a8a95a)
    )
    (pin "MCU_{TX}_SPIN_{RX}" input (at 162.56 48.26 180)
      (effects (font (size 1.27 1.27)) (justify left))
      (uuid 842d6d8d-f0cf-4c33-be18-30151963a930)
    )
    (instances
      (project "control"
        (path "/e63e39d7-6ac0-4ffd-8aa3-1841a4541b55/3a74dea1-1510-40f9-ac26-652aca9a28c3" (page "11"))
        (path "/e63e39d7-6ac0-4ffd-8aa3-1841a4541b55" (page "9"))
        (path "/e63e39d7-6ac0-4ffd-8aa3-1841a4541b55/b652e806-2d00-41c9-9687-f0dbcef3cd66" (page "13"))
      )
    )
  )

  (sheet (at 54.61 46.99) (size 16.51 10.16)
    (stroke (width 0.1524) (type solid))
    (fill (color 255 255 194 1.0000))
    (uuid b48e05f4-e3fe-4b6d-99db-b6d00b405149)
    (property "Sheetname" "MotorBL" (at 54.61 46.2784 0)
      (effects (font (size 1.27 1.27)) (justify left bottom))
    )
    (property "Sheetfile" "motor.kicad_sch" (at 54.61 58.42 0)
      (effects (font (size 1.27 1.27)) (justify left top))
    )
    (pin "~{RST}" input (at 54.61 55.88 180)
      (effects (font (size 1.27 1.27)) (justify left))
      (uuid 2dc3e1f6-c019-4a04-a95b-9f89296546d4)
    )
    (pin "BOOT0" input (at 54.61 53.34 180)
      (effects (font (size 1.27 1.27)) (justify left))
      (uuid 4e154a1d-4417-43e9-aec6-3042e0240ba9)
    )
    (pin "MCU_{RX}_SPIN_{TX}" output (at 54.61 50.8 180)
      (effects (font (size 1.27 1.27)) (justify left))
      (uuid 92f5fa92-0508-4ba1-b698-ea730f1648cc)
    )
    (pin "MCU_{TX}_SPIN_{RX}" input (at 54.61 48.26 180)
      (effects (font (size 1.27 1.27)) (justify left))
      (uuid 773084d7-fa5a-4588-afd7-c0ea25557ac7)
    )
    (instances
      (project "control"
        (path "/e63e39d7-6ac0-4ffd-8aa3-1841a4541b55/3a74dea1-1510-40f9-ac26-652aca9a28c3" (page "10"))
        (path "/e63e39d7-6ac0-4ffd-8aa3-1841a4541b55" (page "11"))
        (path "/e63e39d7-6ac0-4ffd-8aa3-1841a4541b55/b652e806-2d00-41c9-9687-f0dbcef3cd66" (page "12"))
      )
    )
  )

  (sheet (at 162.56 27.94) (size 16.51 10.16)
    (stroke (width 0.1524) (type solid))
    (fill (color 255 255 194 1.0000))
    (uuid c167575a-0142-4af1-89c7-1603756978c3)
    (property "Sheetname" "MotorFR" (at 162.56 27.2284 0)
      (effects (font (size 1.27 1.27)) (justify left bottom))
    )
    (property "Sheetfile" "motor.kicad_sch" (at 162.56 39.37 0)
      (effects (font (size 1.27 1.27)) (justify left top))
    )
    (pin "~{RST}" input (at 162.56 36.83 180)
      (effects (font (size 1.27 1.27)) (justify left))
      (uuid 70307a09-de9e-4302-97ff-4773815fa6f5)
    )
    (pin "BOOT0" input (at 162.56 34.29 180)
      (effects (font (size 1.27 1.27)) (justify left))
      (uuid c3028a86-41c3-4de3-a487-9c949272587d)
    )
    (pin "MCU_{RX}_SPIN_{TX}" output (at 162.56 31.75 180)
      (effects (font (size 1.27 1.27)) (justify left))
      (uuid 7af9945c-0b59-457c-999c-4e60ad3b5310)
    )
    (pin "MCU_{TX}_SPIN_{RX}" input (at 162.56 29.21 180)
      (effects (font (size 1.27 1.27)) (justify left))
      (uuid 9595d989-aa48-4ae8-bc1b-6e42bca8a3c3)
    )
    (instances
      (project "control"
        (path "/e63e39d7-6ac0-4ffd-8aa3-1841a4541b55/3a74dea1-1510-40f9-ac26-652aca9a28c3" (page "8"))
        (path "/e63e39d7-6ac0-4ffd-8aa3-1841a4541b55" (page "10"))
        (path "/e63e39d7-6ac0-4ffd-8aa3-1841a4541b55/b652e806-2d00-41c9-9687-f0dbcef3cd66" (page "14"))
      )
    )
  )

  (sheet (at 54.61 27.94) (size 16.51 10.16)
    (stroke (width 0.1524) (type solid))
    (fill (color 255 255 194 1.0000))
    (uuid c444a231-b490-4b56-8fc8-1e882188a7e5)
    (property "Sheetname" "MotorFL" (at 54.61 27.2284 0)
      (effects (font (size 1.27 1.27)) (justify left bottom))
    )
    (property "Sheetfile" "motor.kicad_sch" (at 54.61 39.37 0)
      (effects (font (size 1.27 1.27)) (justify left top))
    )
    (pin "~{RST}" input (at 54.61 36.83 180)
      (effects (font (size 1.27 1.27)) (justify left))
      (uuid 580bd307-15d7-4399-af2e-43db236498d3)
    )
    (pin "BOOT0" input (at 54.61 34.29 180)
      (effects (font (size 1.27 1.27)) (justify left))
      (uuid d5ffbd5e-7dd0-4c1b-bd92-2b78e86a397f)
    )
    (pin "MCU_{RX}_SPIN_{TX}" output (at 54.61 31.75 180)
      (effects (font (size 1.27 1.27)) (justify left))
      (uuid 78ff8322-9768-4344-b31b-f94ceb69fd65)
    )
    (pin "MCU_{TX}_SPIN_{RX}" input (at 54.61 29.21 180)
      (effects (font (size 1.27 1.27)) (justify left))
      (uuid a11bf939-b475-460c-a493-06ff0078fa8d)
    )
    (instances
      (project "control"
        (path "/e63e39d7-6ac0-4ffd-8aa3-1841a4541b55/3a74dea1-1510-40f9-ac26-652aca9a28c3" (page "9"))
        (path "/e63e39d7-6ac0-4ffd-8aa3-1841a4541b55" (page "8"))
        (path "/e63e39d7-6ac0-4ffd-8aa3-1841a4541b55/b652e806-2d00-41c9-9687-f0dbcef3cd66" (page "11"))
      )
    )
  )
)
