(kicad_sch (version 20230121) (generator eeschema)

  (uuid 2d3861b9-1d0f-4247-b79e-a64ce7e33379)

  (paper "A4")

  (title_block
    (company "The A-Team (RC SSL)")
    (comment 1 "W. Stuckey & R. Osawa")
  )

  (lib_symbols
    (symbol "Connector_Generic_MountingPin:Conn_01x10_MountingPin" (pin_names (offset 1.016) hide) (in_bom yes) (on_board yes)
      (property "Reference" "J" (at 0 12.7 0)
        (effects (font (size 1.27 1.27)))
      )
      (property "Value" "Conn_01x10_MountingPin" (at 1.27 -15.24 0)
        (effects (font (size 1.27 1.27)) (justify left))
      )
      (property "Footprint" "" (at 0 0 0)
        (effects (font (size 1.27 1.27)) hide)
      )
      (property "Datasheet" "~" (at 0 0 0)
        (effects (font (size 1.27 1.27)) hide)
      )
      (property "ki_keywords" "connector" (at 0 0 0)
        (effects (font (size 1.27 1.27)) hide)
      )
      (property "ki_description" "Generic connectable mounting pin connector, single row, 01x10, script generated (kicad-library-utils/schlib/autogen/connector/)" (at 0 0 0)
        (effects (font (size 1.27 1.27)) hide)
      )
      (property "ki_fp_filters" "Connector*:*_1x??-1MP*" (at 0 0 0)
        (effects (font (size 1.27 1.27)) hide)
      )
      (symbol "Conn_01x10_MountingPin_1_1"
        (rectangle (start -1.27 -12.573) (end 0 -12.827)
          (stroke (width 0.1524) (type default))
          (fill (type none))
        )
        (rectangle (start -1.27 -10.033) (end 0 -10.287)
          (stroke (width 0.1524) (type default))
          (fill (type none))
        )
        (rectangle (start -1.27 -7.493) (end 0 -7.747)
          (stroke (width 0.1524) (type default))
          (fill (type none))
        )
        (rectangle (start -1.27 -4.953) (end 0 -5.207)
          (stroke (width 0.1524) (type default))
          (fill (type none))
        )
        (rectangle (start -1.27 -2.413) (end 0 -2.667)
          (stroke (width 0.1524) (type default))
          (fill (type none))
        )
        (rectangle (start -1.27 0.127) (end 0 -0.127)
          (stroke (width 0.1524) (type default))
          (fill (type none))
        )
        (rectangle (start -1.27 2.667) (end 0 2.413)
          (stroke (width 0.1524) (type default))
          (fill (type none))
        )
        (rectangle (start -1.27 5.207) (end 0 4.953)
          (stroke (width 0.1524) (type default))
          (fill (type none))
        )
        (rectangle (start -1.27 7.747) (end 0 7.493)
          (stroke (width 0.1524) (type default))
          (fill (type none))
        )
        (rectangle (start -1.27 10.287) (end 0 10.033)
          (stroke (width 0.1524) (type default))
          (fill (type none))
        )
        (rectangle (start -1.27 11.43) (end 1.27 -13.97)
          (stroke (width 0.254) (type default))
          (fill (type background))
        )
        (polyline
          (pts
            (xy -1.016 -14.732)
            (xy 1.016 -14.732)
          )
          (stroke (width 0.1524) (type default))
          (fill (type none))
        )
        (text "Mounting" (at 0 -14.351 0)
          (effects (font (size 0.381 0.381)))
        )
        (pin passive line (at -5.08 10.16 0) (length 3.81)
          (name "Pin_1" (effects (font (size 1.27 1.27))))
          (number "1" (effects (font (size 1.27 1.27))))
        )
        (pin passive line (at -5.08 -12.7 0) (length 3.81)
          (name "Pin_10" (effects (font (size 1.27 1.27))))
          (number "10" (effects (font (size 1.27 1.27))))
        )
        (pin passive line (at -5.08 7.62 0) (length 3.81)
          (name "Pin_2" (effects (font (size 1.27 1.27))))
          (number "2" (effects (font (size 1.27 1.27))))
        )
        (pin passive line (at -5.08 5.08 0) (length 3.81)
          (name "Pin_3" (effects (font (size 1.27 1.27))))
          (number "3" (effects (font (size 1.27 1.27))))
        )
        (pin passive line (at -5.08 2.54 0) (length 3.81)
          (name "Pin_4" (effects (font (size 1.27 1.27))))
          (number "4" (effects (font (size 1.27 1.27))))
        )
        (pin passive line (at -5.08 0 0) (length 3.81)
          (name "Pin_5" (effects (font (size 1.27 1.27))))
          (number "5" (effects (font (size 1.27 1.27))))
        )
        (pin passive line (at -5.08 -2.54 0) (length 3.81)
          (name "Pin_6" (effects (font (size 1.27 1.27))))
          (number "6" (effects (font (size 1.27 1.27))))
        )
        (pin passive line (at -5.08 -5.08 0) (length 3.81)
          (name "Pin_7" (effects (font (size 1.27 1.27))))
          (number "7" (effects (font (size 1.27 1.27))))
        )
        (pin passive line (at -5.08 -7.62 0) (length 3.81)
          (name "Pin_8" (effects (font (size 1.27 1.27))))
          (number "8" (effects (font (size 1.27 1.27))))
        )
        (pin passive line (at -5.08 -10.16 0) (length 3.81)
          (name "Pin_9" (effects (font (size 1.27 1.27))))
          (number "9" (effects (font (size 1.27 1.27))))
        )
        (pin passive line (at 0 -17.78 90) (length 3.048)
          (name "MountPin" (effects (font (size 1.27 1.27))))
          (number "MP" (effects (font (size 1.27 1.27))))
        )
      )
    )
    (symbol "power:+3.3V" (power) (pin_names (offset 0)) (in_bom yes) (on_board yes)
      (property "Reference" "#PWR" (at 0 -3.81 0)
        (effects (font (size 1.27 1.27)) hide)
      )
      (property "Value" "+3.3V" (at 0 3.556 0)
        (effects (font (size 1.27 1.27)))
      )
      (property "Footprint" "" (at 0 0 0)
        (effects (font (size 1.27 1.27)) hide)
      )
      (property "Datasheet" "" (at 0 0 0)
        (effects (font (size 1.27 1.27)) hide)
      )
      (property "ki_keywords" "global power" (at 0 0 0)
        (effects (font (size 1.27 1.27)) hide)
      )
      (property "ki_description" "Power symbol creates a global label with name \"+3.3V\"" (at 0 0 0)
        (effects (font (size 1.27 1.27)) hide)
      )
      (symbol "+3.3V_0_1"
        (polyline
          (pts
            (xy -0.762 1.27)
            (xy 0 2.54)
          )
          (stroke (width 0) (type default))
          (fill (type none))
        )
        (polyline
          (pts
            (xy 0 0)
            (xy 0 2.54)
          )
          (stroke (width 0) (type default))
          (fill (type none))
        )
        (polyline
          (pts
            (xy 0 2.54)
            (xy 0.762 1.27)
          )
          (stroke (width 0) (type default))
          (fill (type none))
        )
      )
      (symbol "+3.3V_1_1"
        (pin power_in line (at 0 0 90) (length 0) hide
          (name "+3.3V" (effects (font (size 1.27 1.27))))
          (number "1" (effects (font (size 1.27 1.27))))
        )
      )
    )
    (symbol "power:+5V" (power) (pin_names (offset 0)) (in_bom yes) (on_board yes)
      (property "Reference" "#PWR" (at 0 -3.81 0)
        (effects (font (size 1.27 1.27)) hide)
      )
      (property "Value" "+5V" (at 0 3.556 0)
        (effects (font (size 1.27 1.27)))
      )
      (property "Footprint" "" (at 0 0 0)
        (effects (font (size 1.27 1.27)) hide)
      )
      (property "Datasheet" "" (at 0 0 0)
        (effects (font (size 1.27 1.27)) hide)
      )
      (property "ki_keywords" "global power" (at 0 0 0)
        (effects (font (size 1.27 1.27)) hide)
      )
      (property "ki_description" "Power symbol creates a global label with name \"+5V\"" (at 0 0 0)
        (effects (font (size 1.27 1.27)) hide)
      )
      (symbol "+5V_0_1"
        (polyline
          (pts
            (xy -0.762 1.27)
            (xy 0 2.54)
          )
          (stroke (width 0) (type default))
          (fill (type none))
        )
        (polyline
          (pts
            (xy 0 0)
            (xy 0 2.54)
          )
          (stroke (width 0) (type default))
          (fill (type none))
        )
        (polyline
          (pts
            (xy 0 2.54)
            (xy 0.762 1.27)
          )
          (stroke (width 0) (type default))
          (fill (type none))
        )
      )
      (symbol "+5V_1_1"
        (pin power_in line (at 0 0 90) (length 0) hide
          (name "+5V" (effects (font (size 1.27 1.27))))
          (number "1" (effects (font (size 1.27 1.27))))
        )
      )
    )
    (symbol "power:GND" (power) (pin_names (offset 0)) (in_bom yes) (on_board yes)
      (property "Reference" "#PWR" (at 0 -6.35 0)
        (effects (font (size 1.27 1.27)) hide)
      )
      (property "Value" "GND" (at 0 -3.81 0)
        (effects (font (size 1.27 1.27)))
      )
      (property "Footprint" "" (at 0 0 0)
        (effects (font (size 1.27 1.27)) hide)
      )
      (property "Datasheet" "" (at 0 0 0)
        (effects (font (size 1.27 1.27)) hide)
      )
      (property "ki_keywords" "global power" (at 0 0 0)
        (effects (font (size 1.27 1.27)) hide)
      )
      (property "ki_description" "Power symbol creates a global label with name \"GND\" , ground" (at 0 0 0)
        (effects (font (size 1.27 1.27)) hide)
      )
      (symbol "GND_0_1"
        (polyline
          (pts
            (xy 0 0)
            (xy 0 -1.27)
            (xy 1.27 -1.27)
            (xy 0 -2.54)
            (xy -1.27 -1.27)
            (xy 0 -1.27)
          )
          (stroke (width 0) (type default))
          (fill (type none))
        )
      )
      (symbol "GND_1_1"
        (pin power_in line (at 0 0 270) (length 0) hide
          (name "GND" (effects (font (size 1.27 1.27))))
          (number "1" (effects (font (size 1.27 1.27))))
        )
      )
    )
  )


  (bus_entry (at 30.48 30.48) (size 2.54 2.54)
    (stroke (width 0) (type default))
    (uuid 3932e2a4-1ac8-43f0-9c10-5d985d60e840)
  )
  (bus_entry (at 30.48 40.64) (size 2.54 2.54)
    (stroke (width 0) (type default))
    (uuid 4abf746f-ae47-471b-b89d-72cfd9e98233)
  )
  (bus_entry (at 30.48 45.72) (size 2.54 2.54)
    (stroke (width 0) (type default))
    (uuid a2739dcf-7f6d-4a98-a23b-c3013af3cec3)
  )
  (bus_entry (at 30.48 38.1) (size 2.54 2.54)
    (stroke (width 0) (type default))
    (uuid c4b6ca20-0d1c-44a0-b9be-91b7f740a927)
  )
  (bus_entry (at 30.48 33.02) (size 2.54 2.54)
    (stroke (width 0) (type default))
    (uuid d110528d-42e4-41dd-8e1e-0365606463ef)
  )
  (bus_entry (at 30.48 35.56) (size 2.54 2.54)
    (stroke (width 0) (type default))
    (uuid e8555329-efac-46a2-af42-4b9ccd147bae)
  )
  (bus_entry (at 30.48 43.18) (size 2.54 2.54)
    (stroke (width 0) (type default))
    (uuid edaf920a-6c95-4fa1-aba2-a0955df614d3)
  )

  (wire (pts (xy 33.02 40.64) (xy 45.72 40.64))
    (stroke (width 0) (type default))
    (uuid 1779ef73-434d-49c8-9955-b12bc038d58b)
  )
  (wire (pts (xy 43.18 50.8) (xy 43.18 53.34))
    (stroke (width 0) (type default))
    (uuid 189fc316-9386-4a23-991a-77947b58e0db)
  )
  (wire (pts (xy 50.8 22.86) (xy 50.8 20.32))
    (stroke (width 0) (type default))
    (uuid 2dc2b90c-1ec4-4651-9908-b9a8bb6283ef)
  )
  (wire (pts (xy 43.18 27.94) (xy 45.72 27.94))
    (stroke (width 0) (type default))
    (uuid 3302dd48-d41b-4228-b790-73deb4cd7985)
  )
  (bus (pts (xy 30.48 38.1) (xy 30.48 40.64))
    (stroke (width 0) (type default))
    (uuid 375319cc-32e9-4a1f-9724-3505d75e9564)
  )

  (wire (pts (xy 38.1 30.48) (xy 45.72 30.48))
    (stroke (width 0) (type default))
    (uuid 5046e13c-64d4-4d55-a081-88abbbabd785)
  )
  (polyline (pts (xy 96.52 13.97) (xy 13.97 13.97))
    (stroke (width 0) (type dash))
    (uuid 50d4cdbf-cd3d-4fa0-88a5-0bf0d8fc11f6)
  )

  (bus (pts (xy 30.48 33.02) (xy 30.48 35.56))
    (stroke (width 0) (type default))
    (uuid 5863a9b8-f320-4030-9025-4fd16ad5dd60)
  )

  (wire (pts (xy 54.61 20.32) (xy 54.61 22.86))
    (stroke (width 0) (type default))
    (uuid 66910b12-f4bd-4a9f-8dd3-109dac93c76c)
  )
  (polyline (pts (xy 96.52 64.77) (xy 13.97 64.77))
    (stroke (width 0) (type dash))
    (uuid 66faf067-adca-45ae-b456-d7d833a49438)
  )

  (wire (pts (xy 33.02 35.56) (xy 45.72 35.56))
    (stroke (width 0) (type default))
    (uuid 6fc16829-9362-42aa-b899-e49eb0821341)
  )
  (wire (pts (xy 33.02 48.26) (xy 45.72 48.26))
    (stroke (width 0) (type default))
    (uuid 7207973a-0fdc-47bd-9399-7e045060879e)
  )
  (bus (pts (xy 30.48 30.48) (xy 27.94 30.48))
    (stroke (width 0) (type default))
    (uuid 876fb7b8-7b19-4039-abf2-579980634cfc)
  )

  (wire (pts (xy 38.1 25.4) (xy 38.1 30.48))
    (stroke (width 0) (type default))
    (uuid 8c5168c0-52c1-44f8-8cbe-5d248c85e568)
  )
  (wire (pts (xy 33.02 43.18) (xy 45.72 43.18))
    (stroke (width 0) (type default))
    (uuid 934f5c83-a1af-4b7e-81c9-79c476c302ca)
  )
  (bus (pts (xy 30.48 33.02) (xy 30.48 30.48))
    (stroke (width 0) (type default))
    (uuid 936284d4-dd88-4b34-b5cc-8933b1043cfa)
  )
  (bus (pts (xy 30.48 35.56) (xy 30.48 38.1))
    (stroke (width 0) (type default))
    (uuid 9bd15ebb-128a-4ba3-be87-3f7e0eec6701)
  )
  (bus (pts (xy 30.48 40.64) (xy 30.48 43.18))
    (stroke (width 0) (type default))
    (uuid a2d8129d-4054-4079-bd70-885ec6e87f85)
  )
  (bus (pts (xy 30.48 43.18) (xy 30.48 45.72))
    (stroke (width 0) (type default))
    (uuid bc1b6ae2-5a03-4de0-9387-423ce4e26ab0)
  )

  (wire (pts (xy 33.02 38.1) (xy 45.72 38.1))
    (stroke (width 0) (type default))
    (uuid c1f16167-2f53-410b-a62e-142892ebd8bd)
  )
  (wire (pts (xy 50.8 20.32) (xy 54.61 20.32))
    (stroke (width 0) (type default))
    (uuid d9ff449b-b8ad-426d-8ac8-95764b31a9a4)
  )
  (polyline (pts (xy 96.52 64.77) (xy 96.52 13.97))
    (stroke (width 0) (type dash))
    (uuid da720904-db0b-4acd-b321-dca2a6faea28)
  )
  (polyline (pts (xy 13.97 13.97) (xy 13.97 64.77))
    (stroke (width 0) (type dash))
    (uuid ded63f51-5c20-407d-9845-944ef7d01315)
  )

  (wire (pts (xy 33.02 33.02) (xy 45.72 33.02))
    (stroke (width 0) (type default))
    (uuid e3028fe6-276a-47fd-8979-1e1cea0e716f)
  )
  (wire (pts (xy 33.02 45.72) (xy 45.72 45.72))
    (stroke (width 0) (type default))
    (uuid f53ae7a7-475a-491f-b182-8c0a80c65005)
  )
  (wire (pts (xy 45.72 50.8) (xy 43.18 50.8))
    (stroke (width 0) (type default))
    (uuid f73884b8-2081-47aa-ba5c-179817473cc4)
  )
  (wire (pts (xy 43.18 25.4) (xy 43.18 27.94))
    (stroke (width 0) (type default))
    (uuid f9310870-d995-43cb-b6c3-4972f58dfae0)
  )

  (text "Radio Module Communication" (at 15.24 17.78 0)
    (effects (font (size 1.27 1.27)) (justify left bottom))
    (uuid 2377a5cd-2917-4dfe-a76b-ac32219deff7)
  )

  (label "RADIO.TX" (at 33.02 38.1 0) (fields_autoplaced)
    (effects (font (size 1.27 1.27)) (justify left bottom))
    (uuid 0bf8eb4c-20c6-4c93-a198-a86bcb8cf018)
  )
  (label "RADIO.RX" (at 33.02 40.64 0) (fields_autoplaced)
    (effects (font (size 1.27 1.27)) (justify left bottom))
    (uuid 50fe78d0-ec8c-4f27-be16-7dcfd462b7f4)
  )
  (label "RADIO.~{RST}" (at 33.02 33.02 0) (fields_autoplaced)
    (effects (font (size 1.27 1.27)) (justify left bottom))
    (uuid 5df8e9bb-804a-4618-8cca-3be0fb068077)
  )
  (label "RADIO.BOOT0" (at 33.02 35.56 0) (fields_autoplaced)
    (effects (font (size 1.27 1.27)) (justify left bottom))
    (uuid 835a3421-1505-43c1-a7e9-7d677bd7869a)
  )
  (label "RADIO.RTS" (at 33.02 45.72 0) (fields_autoplaced)
    (effects (font (size 1.27 1.27)) (justify left bottom))
    (uuid 8f610350-1021-49a0-9368-60e737daf7df)
  )
  (label "RADIO.~{DET}" (at 33.02 48.26 0) (fields_autoplaced)
    (effects (font (size 1.27 1.27)) (justify left bottom))
    (uuid b25e6d75-1dcc-473c-9967-ee5ab5608a4f)
  )
  (label "RADIO.CTS" (at 33.02 43.18 0) (fields_autoplaced)
    (effects (font (size 1.27 1.27)) (justify left bottom))
    (uuid fb99e6f7-7a74-42f1-afaf-35fdea371e69)
  )

  (hierarchical_label "{RADIO}" (shape bidirectional) (at 27.94 30.48 180) (fields_autoplaced)
    (effects (font (size 1.27 1.27)) (justify right))
    (uuid f16c11bd-36b4-487c-a964-c0d859e46f61)
  )

  (symbol (lib_id "power:+3.3V") (at 38.1 25.4 0) (unit 1)
    (in_bom yes) (on_board yes) (dnp no)
    (uuid 2bc18a40-9065-4d8d-9c58-7bfb12313532)
    (property "Reference" "#PWR067" (at 38.1 29.21 0)
      (effects (font (size 1.27 1.27)) hide)
    )
    (property "Value" "+3.3V" (at 38.1 21.59 0)
      (effects (font (size 1.27 1.27)))
    )
    (property "Footprint" "" (at 38.1 25.4 0)
      (effects (font (size 1.27 1.27)) hide)
    )
    (property "Datasheet" "" (at 38.1 25.4 0)
      (effects (font (size 1.27 1.27)) hide)
    )
    (pin "1" (uuid 461823f6-049a-47af-999e-a08d35ea1fb5))
    (instances
      (project "control"
        (path "/e63e39d7-6ac0-4ffd-8aa3-1841a4541b55/3a74dea1-1510-40f9-ac26-652aca9a28c3"
          (reference "#PWR067") (unit 1)
        )
        (path "/e63e39d7-6ac0-4ffd-8aa3-1841a4541b55"
          (reference "#PWR014") (unit 1)
        )
        (path "/e63e39d7-6ac0-4ffd-8aa3-1841a4541b55/c975a10f-0ba8-4447-bbe6-10ac5a379110"
          (reference "#PWR0296") (unit 1)
        )
      )
    )
  )

  (symbol (lib_id "power:GND") (at 54.61 22.86 0) (unit 1)
    (in_bom yes) (on_board yes) (dnp no) (fields_autoplaced)
    (uuid 660633da-49f4-42ba-a063-ae7a7288418e)
    (property "Reference" "#PWR071" (at 54.61 29.21 0)
      (effects (font (size 1.27 1.27)) hide)
    )
    (property "Value" "GND" (at 54.61 27.94 0)
      (effects (font (size 1.27 1.27)))
    )
    (property "Footprint" "" (at 54.61 22.86 0)
      (effects (font (size 1.27 1.27)) hide)
    )
    (property "Datasheet" "" (at 54.61 22.86 0)
      (effects (font (size 1.27 1.27)) hide)
    )
    (pin "1" (uuid 67114f17-1ba2-4148-bb69-22ba0359009c))
    (instances
      (project "control"
        (path "/e63e39d7-6ac0-4ffd-8aa3-1841a4541b55/3a74dea1-1510-40f9-ac26-652aca9a28c3"
          (reference "#PWR071") (unit 1)
        )
        (path "/e63e39d7-6ac0-4ffd-8aa3-1841a4541b55"
          (reference "#PWR021") (unit 1)
        )
        (path "/e63e39d7-6ac0-4ffd-8aa3-1841a4541b55/c975a10f-0ba8-4447-bbe6-10ac5a379110"
          (reference "#PWR0299") (unit 1)
        )
      )
    )
  )

  (symbol (lib_id "Connector_Generic_MountingPin:Conn_01x10_MountingPin") (at 50.8 40.64 0) (mirror x) (unit 1)
    (in_bom yes) (on_board yes) (dnp no)
    (uuid a7993f58-b0c9-4323-80e5-c0be131b7a70)
    (property "Reference" "J3" (at 50.8 54.61 0)
      (effects (font (size 1.27 1.27)))
    )
    (property "Value" "BM10B-SRSS-TB" (at 54.61 40.64 90)
      (effects (font (size 1.27 1.27)))
    )
    (property "Footprint" "Connector_JST:JST_SH_BM10B-SRSS-TB_1x10-1MP_P1.00mm_Vertical" (at 50.8 40.64 0)
      (effects (font (size 1.27 1.27)) hide)
    )
    (property "Datasheet" "~" (at 50.8 40.64 0)
      (effects (font (size 1.27 1.27)) hide)
    )
    (pin "1" (uuid 20e0fb94-b580-4a89-af57-3662aa1a8b71))
    (pin "10" (uuid b8b9c0ea-1767-4b08-a353-71f37a04f7df))
    (pin "2" (uuid 5b52964a-96e6-414b-909f-4d53a54d3890))
    (pin "3" (uuid 4462b06c-fd2e-4a98-83f3-28486239d886))
    (pin "4" (uuid 41e985f2-c4e3-43f2-ac70-a95dedc036c3))
    (pin "5" (uuid b876fc16-1a6c-4634-9e65-d6ba7291091b))
    (pin "6" (uuid 21e9d3f2-f489-4cbf-821b-33b79a9f8170))
    (pin "7" (uuid d56c6aaf-5ecf-48d6-bf86-44e76b3f7ee5))
    (pin "8" (uuid 8ac101fa-7b89-4dc1-85b4-6e7024cc2973))
    (pin "9" (uuid eea0f644-09dc-483c-887a-b943e753d956))
    (pin "MP" (uuid 7b251569-358c-46e1-89b8-70819a60d816))
    (instances
      (project "control"
        (path "/e63e39d7-6ac0-4ffd-8aa3-1841a4541b55/3a74dea1-1510-40f9-ac26-652aca9a28c3"
          (reference "J3") (unit 1)
        )
        (path "/e63e39d7-6ac0-4ffd-8aa3-1841a4541b55"
          (reference "J5") (unit 1)
        )
        (path "/e63e39d7-6ac0-4ffd-8aa3-1841a4541b55/c975a10f-0ba8-4447-bbe6-10ac5a379110"
          (reference "J15") (unit 1)
        )
      )
    )
  )

  (symbol (lib_id "power:GND") (at 43.18 53.34 0) (unit 1)
    (in_bom yes) (on_board yes) (dnp no) (fields_autoplaced)
    (uuid cb46073e-7a78-4cab-8e80-052ffa17f6a3)
    (property "Reference" "#PWR069" (at 43.18 59.69 0)
      (effects (font (size 1.27 1.27)) hide)
    )
    (property "Value" "GND" (at 43.18 58.42 0)
      (effects (font (size 1.27 1.27)))
    )
    (property "Footprint" "" (at 43.18 53.34 0)
      (effects (font (size 1.27 1.27)) hide)
    )
    (property "Datasheet" "" (at 43.18 53.34 0)
      (effects (font (size 1.27 1.27)) hide)
    )
    (pin "1" (uuid 91c68404-acb0-44b6-9d9e-48b7d96f2162))
    (instances
      (project "control"
        (path "/e63e39d7-6ac0-4ffd-8aa3-1841a4541b55/3a74dea1-1510-40f9-ac26-652aca9a28c3"
          (reference "#PWR069") (unit 1)
        )
        (path "/e63e39d7-6ac0-4ffd-8aa3-1841a4541b55"
          (reference "#PWR018") (unit 1)
        )
        (path "/e63e39d7-6ac0-4ffd-8aa3-1841a4541b55/c975a10f-0ba8-4447-bbe6-10ac5a379110"
          (reference "#PWR0298") (unit 1)
        )
      )
    )
  )

  (symbol (lib_id "power:+5V") (at 43.18 25.4 0) (unit 1)
    (in_bom yes) (on_board yes) (dnp no)
    (uuid ddee431d-d69c-403b-a34f-d63089f47cfe)
    (property "Reference" "#PWR068" (at 43.18 29.21 0)
      (effects (font (size 1.27 1.27)) hide)
    )
    (property "Value" "+5V" (at 43.1799 21.59 0)
      (effects (font (size 1.27 1.27)))
    )
    (property "Footprint" "" (at 43.18 25.4 0)
      (effects (font (size 1.27 1.27)) hide)
    )
    (property "Datasheet" "" (at 43.18 25.4 0)
      (effects (font (size 1.27 1.27)) hide)
    )
    (pin "1" (uuid 47b6988d-cdd3-4b1b-9732-6459992ca852))
    (instances
      (project "control"
        (path "/e63e39d7-6ac0-4ffd-8aa3-1841a4541b55/3a74dea1-1510-40f9-ac26-652aca9a28c3"
          (reference "#PWR068") (unit 1)
        )
        (path "/e63e39d7-6ac0-4ffd-8aa3-1841a4541b55"
          (reference "#PWR017") (unit 1)
        )
        (path "/e63e39d7-6ac0-4ffd-8aa3-1841a4541b55/c975a10f-0ba8-4447-bbe6-10ac5a379110"
          (reference "#PWR0297") (unit 1)
        )
      )
    )
  )
)
