(kicad_sch (version 20230121) (generator eeschema)

  (uuid dcb85a08-5c96-47b3-af76-27aab97eb043)

  (paper "A4")

  (title_block
    (company "The A-Team (RC SSL)")
    (comment 1 "W. Stuckey & R. Osawa")
  )

  (lib_symbols
    (symbol "AT-Switches:221ADC16" (in_bom yes) (on_board yes)
      (property "Reference" "SW" (at 0 10.16 0)
        (effects (font (size 1.27 1.27)))
      )
      (property "Value" "221ADC16" (at 0 7.62 0)
        (effects (font (size 1.27 1.27)))
      )
      (property "Footprint" "AT-Switches:221ADC16" (at -12.065 -5.715 90)
        (effects (font (size 1.27 1.27)) hide)
      )
      (property "Datasheet" "https://www.ctscorp.com/wp-content/uploads/221.pdf" (at -12.065 -5.715 90)
        (effects (font (size 1.27 1.27)) hide)
      )
      (symbol "221ADC16_0_0"
        (polyline
          (pts
            (xy -1.27 1.27)
            (xy 1.27 1.27)
            (xy 0 2.54)
            (xy -1.27 1.27)
          )
          (stroke (width 0) (type default))
          (fill (type none))
        )
        (circle (center 0 0) (radius 2.54)
          (stroke (width 0) (type default))
          (fill (type none))
        )
        (text "0" (at 0 4.318 0)
          (effects (font (size 1 1)))
        )
        (text "1" (at 1.524 3.81 0)
          (effects (font (size 1 1)))
        )
        (text "2" (at 2.794 2.794 0)
          (effects (font (size 1 1)))
        )
        (text "3" (at 3.81 1.524 0)
          (effects (font (size 1 1)))
        )
        (text "4" (at 4.318 0 0)
          (effects (font (size 1 1)))
        )
        (text "5" (at 3.81 -1.524 0)
          (effects (font (size 1 1)))
        )
        (text "6" (at 2.794 -2.794 0)
          (effects (font (size 1 1)))
        )
        (text "7" (at 1.524 -3.81 0)
          (effects (font (size 1 1)))
        )
        (text "8" (at 0 -4.318 0)
          (effects (font (size 1 1)))
        )
        (text "9" (at -1.524 -3.81 0)
          (effects (font (size 1 1)))
        )
        (text "A" (at -2.794 -2.794 0)
          (effects (font (size 1 1)))
        )
        (text "B" (at -3.81 -1.524 0)
          (effects (font (size 1 1)))
        )
        (text "C" (at -4.318 0 0)
          (effects (font (size 1 1)))
        )
        (text "D" (at -3.81 1.524 0)
          (effects (font (size 1 1)))
        )
        (text "E" (at -2.794 2.794 0)
          (effects (font (size 1 1)))
        )
        (text "F" (at -1.524 3.81 0)
          (effects (font (size 1 1)))
        )
      )
      (symbol "221ADC16_0_1"
        (rectangle (start -6.35 6.35) (end 7.62 -6.35)
          (stroke (width 0) (type default))
          (fill (type background))
        )
        (circle (center 0 0) (radius 5.08)
          (stroke (width 0) (type default))
          (fill (type none))
        )
      )
      (symbol "221ADC16_1_1"
        (pin passive line (at 10.16 -5.08 180) (length 2.54)
          (name "1" (effects (font (size 1.27 1.27))))
          (number "1" (effects (font (size 1.27 1.27))))
        )
        (pin passive line (at 10.16 0 180) (length 2.54)
          (name "4" (effects (font (size 1.27 1.27))))
          (number "3" (effects (font (size 1.27 1.27))))
        )
        (pin passive line (at 10.16 -2.54 180) (length 2.54)
          (name "2" (effects (font (size 1.27 1.27))))
          (number "4" (effects (font (size 1.27 1.27))))
        )
        (pin passive line (at 10.16 2.54 180) (length 2.54)
          (name "8" (effects (font (size 1.27 1.27))))
          (number "6" (effects (font (size 1.27 1.27))))
        )
        (pin passive line (at 10.16 5.08 180) (length 2.54)
          (name "C" (effects (font (size 1.27 1.27))))
          (number "C" (effects (font (size 1.27 1.27))))
        )
      )
    )
    (symbol "AT-Switches:SPST_12-34" (in_bom yes) (on_board yes)
      (property "Reference" "SW" (at 0 6.35 0)
        (effects (font (size 1.27 1.27)))
      )
      (property "Value" "SPST_12-34" (at 0 -6.35 0)
        (effects (font (size 1.27 1.27)))
      )
      (property "Footprint" "" (at 0 0 0)
        (effects (font (size 1.27 1.27)) hide)
      )
      (property "Datasheet" "" (at 0 0 0)
        (effects (font (size 1.27 1.27)) hide)
      )
      (symbol "SPST_12-34_0_1"
        (rectangle (start -5.08 5.08) (end 5.08 -5.08)
          (stroke (width 0) (type default))
          (fill (type background))
        )
        (polyline
          (pts
            (xy -2.54 -2.54)
            (xy 2.54 -2.54)
          )
          (stroke (width 0) (type default))
          (fill (type none))
        )
        (polyline
          (pts
            (xy 0 -2.54)
            (xy 0 -1.27)
          )
          (stroke (width 0) (type default))
          (fill (type none))
        )
        (polyline
          (pts
            (xy 0 -1.27)
            (xy 1.27 1.27)
          )
          (stroke (width 0) (type default))
          (fill (type none))
        )
        (polyline
          (pts
            (xy 0 2.54)
            (xy 0 1.27)
          )
          (stroke (width 0) (type default))
          (fill (type none))
        )
        (polyline
          (pts
            (xy 2.54 2.54)
            (xy -2.54 2.54)
          )
          (stroke (width 0) (type default))
          (fill (type none))
        )
      )
      (symbol "SPST_12-34_1_1"
        (pin passive line (at -7.62 2.54 0) (length 2.54)
          (name "1" (effects (font (size 1.27 1.27))))
          (number "1" (effects (font (size 1.27 1.27))))
        )
        (pin passive line (at 7.62 2.54 180) (length 2.54)
          (name "2" (effects (font (size 1.27 1.27))))
          (number "2" (effects (font (size 1.27 1.27))))
        )
        (pin passive line (at -7.62 -2.54 0) (length 2.54)
          (name "3" (effects (font (size 1.27 1.27))))
          (number "3" (effects (font (size 1.27 1.27))))
        )
        (pin passive line (at 7.62 -2.54 180) (length 2.54)
          (name "4" (effects (font (size 1.27 1.27))))
          (number "4" (effects (font (size 1.27 1.27))))
        )
      )
    )
    (symbol "Device:C_Small" (pin_numbers hide) (pin_names (offset 0.254) hide) (in_bom yes) (on_board yes)
      (property "Reference" "C" (at 0.254 1.778 0)
        (effects (font (size 1.27 1.27)) (justify left))
      )
      (property "Value" "C_Small" (at 0.254 -2.032 0)
        (effects (font (size 1.27 1.27)) (justify left))
      )
      (property "Footprint" "" (at 0 0 0)
        (effects (font (size 1.27 1.27)) hide)
      )
      (property "Datasheet" "~" (at 0 0 0)
        (effects (font (size 1.27 1.27)) hide)
      )
      (property "ki_keywords" "capacitor cap" (at 0 0 0)
        (effects (font (size 1.27 1.27)) hide)
      )
      (property "ki_description" "Unpolarized capacitor, small symbol" (at 0 0 0)
        (effects (font (size 1.27 1.27)) hide)
      )
      (property "ki_fp_filters" "C_*" (at 0 0 0)
        (effects (font (size 1.27 1.27)) hide)
      )
      (symbol "C_Small_0_1"
        (polyline
          (pts
            (xy -1.524 -0.508)
            (xy 1.524 -0.508)
          )
          (stroke (width 0.3302) (type default))
          (fill (type none))
        )
        (polyline
          (pts
            (xy -1.524 0.508)
            (xy 1.524 0.508)
          )
          (stroke (width 0.3048) (type default))
          (fill (type none))
        )
      )
      (symbol "C_Small_1_1"
        (pin passive line (at 0 2.54 270) (length 2.032)
          (name "~" (effects (font (size 1.27 1.27))))
          (number "1" (effects (font (size 1.27 1.27))))
        )
        (pin passive line (at 0 -2.54 90) (length 2.032)
          (name "~" (effects (font (size 1.27 1.27))))
          (number "2" (effects (font (size 1.27 1.27))))
        )
      )
    )
    (symbol "Device:R_Small_US" (pin_numbers hide) (pin_names (offset 0.254) hide) (in_bom yes) (on_board yes)
      (property "Reference" "R" (at 0.762 0.508 0)
        (effects (font (size 1.27 1.27)) (justify left))
      )
      (property "Value" "R_Small_US" (at 0.762 -1.016 0)
        (effects (font (size 1.27 1.27)) (justify left))
      )
      (property "Footprint" "" (at 0 0 0)
        (effects (font (size 1.27 1.27)) hide)
      )
      (property "Datasheet" "~" (at 0 0 0)
        (effects (font (size 1.27 1.27)) hide)
      )
      (property "ki_keywords" "r resistor" (at 0 0 0)
        (effects (font (size 1.27 1.27)) hide)
      )
      (property "ki_description" "Resistor, small US symbol" (at 0 0 0)
        (effects (font (size 1.27 1.27)) hide)
      )
      (property "ki_fp_filters" "R_*" (at 0 0 0)
        (effects (font (size 1.27 1.27)) hide)
      )
      (symbol "R_Small_US_1_1"
        (polyline
          (pts
            (xy 0 0)
            (xy 1.016 -0.381)
            (xy 0 -0.762)
            (xy -1.016 -1.143)
            (xy 0 -1.524)
          )
          (stroke (width 0) (type default))
          (fill (type none))
        )
        (polyline
          (pts
            (xy 0 1.524)
            (xy 1.016 1.143)
            (xy 0 0.762)
            (xy -1.016 0.381)
            (xy 0 0)
          )
          (stroke (width 0) (type default))
          (fill (type none))
        )
        (pin passive line (at 0 2.54 270) (length 1.016)
          (name "~" (effects (font (size 1.27 1.27))))
          (number "1" (effects (font (size 1.27 1.27))))
        )
        (pin passive line (at 0 -2.54 90) (length 1.016)
          (name "~" (effects (font (size 1.27 1.27))))
          (number "2" (effects (font (size 1.27 1.27))))
        )
      )
    )
    (symbol "Device:R_US" (pin_numbers hide) (pin_names (offset 0)) (in_bom yes) (on_board yes)
      (property "Reference" "R" (at 2.54 0 90)
        (effects (font (size 1.27 1.27)))
      )
      (property "Value" "R_US" (at -2.54 0 90)
        (effects (font (size 1.27 1.27)))
      )
      (property "Footprint" "" (at 1.016 -0.254 90)
        (effects (font (size 1.27 1.27)) hide)
      )
      (property "Datasheet" "~" (at 0 0 0)
        (effects (font (size 1.27 1.27)) hide)
      )
      (property "ki_keywords" "R res resistor" (at 0 0 0)
        (effects (font (size 1.27 1.27)) hide)
      )
      (property "ki_description" "Resistor, US symbol" (at 0 0 0)
        (effects (font (size 1.27 1.27)) hide)
      )
      (property "ki_fp_filters" "R_*" (at 0 0 0)
        (effects (font (size 1.27 1.27)) hide)
      )
      (symbol "R_US_0_1"
        (polyline
          (pts
            (xy 0 -2.286)
            (xy 0 -2.54)
          )
          (stroke (width 0) (type default))
          (fill (type none))
        )
        (polyline
          (pts
            (xy 0 2.286)
            (xy 0 2.54)
          )
          (stroke (width 0) (type default))
          (fill (type none))
        )
        (polyline
          (pts
            (xy 0 -0.762)
            (xy 1.016 -1.143)
            (xy 0 -1.524)
            (xy -1.016 -1.905)
            (xy 0 -2.286)
          )
          (stroke (width 0) (type default))
          (fill (type none))
        )
        (polyline
          (pts
            (xy 0 0.762)
            (xy 1.016 0.381)
            (xy 0 0)
            (xy -1.016 -0.381)
            (xy 0 -0.762)
          )
          (stroke (width 0) (type default))
          (fill (type none))
        )
        (polyline
          (pts
            (xy 0 2.286)
            (xy 1.016 1.905)
            (xy 0 1.524)
            (xy -1.016 1.143)
            (xy 0 0.762)
          )
          (stroke (width 0) (type default))
          (fill (type none))
        )
      )
      (symbol "R_US_1_1"
        (pin passive line (at 0 3.81 270) (length 1.27)
          (name "~" (effects (font (size 1.27 1.27))))
          (number "1" (effects (font (size 1.27 1.27))))
        )
        (pin passive line (at 0 -3.81 90) (length 1.27)
          (name "~" (effects (font (size 1.27 1.27))))
          (number "2" (effects (font (size 1.27 1.27))))
        )
      )
    )
    (symbol "Switch:SW_DIP_x08" (pin_names (offset 0) hide) (in_bom yes) (on_board yes)
      (property "Reference" "SW" (at 0 13.97 0)
        (effects (font (size 1.27 1.27)))
      )
      (property "Value" "SW_DIP_x08" (at 0 -11.43 0)
        (effects (font (size 1.27 1.27)))
      )
      (property "Footprint" "" (at 0 0 0)
        (effects (font (size 1.27 1.27)) hide)
      )
      (property "Datasheet" "~" (at 0 0 0)
        (effects (font (size 1.27 1.27)) hide)
      )
      (property "ki_keywords" "dip switch" (at 0 0 0)
        (effects (font (size 1.27 1.27)) hide)
      )
      (property "ki_description" "8x DIP Switch, Single Pole Single Throw (SPST) switch, small symbol" (at 0 0 0)
        (effects (font (size 1.27 1.27)) hide)
      )
      (property "ki_fp_filters" "SW?DIP?x8*" (at 0 0 0)
        (effects (font (size 1.27 1.27)) hide)
      )
      (symbol "SW_DIP_x08_0_0"
        (circle (center -2.032 -7.62) (radius 0.508)
          (stroke (width 0) (type default))
          (fill (type none))
        )
        (circle (center -2.032 -5.08) (radius 0.508)
          (stroke (width 0) (type default))
          (fill (type none))
        )
        (circle (center -2.032 -2.54) (radius 0.508)
          (stroke (width 0) (type default))
          (fill (type none))
        )
        (circle (center -2.032 0) (radius 0.508)
          (stroke (width 0) (type default))
          (fill (type none))
        )
        (circle (center -2.032 2.54) (radius 0.508)
          (stroke (width 0) (type default))
          (fill (type none))
        )
        (circle (center -2.032 5.08) (radius 0.508)
          (stroke (width 0) (type default))
          (fill (type none))
        )
        (circle (center -2.032 7.62) (radius 0.508)
          (stroke (width 0) (type default))
          (fill (type none))
        )
        (circle (center -2.032 10.16) (radius 0.508)
          (stroke (width 0) (type default))
          (fill (type none))
        )
        (polyline
          (pts
            (xy -1.524 -7.4676)
            (xy 2.3622 -6.4262)
          )
          (stroke (width 0) (type default))
          (fill (type none))
        )
        (polyline
          (pts
            (xy -1.524 -4.9276)
            (xy 2.3622 -3.8862)
          )
          (stroke (width 0) (type default))
          (fill (type none))
        )
        (polyline
          (pts
            (xy -1.524 -2.3876)
            (xy 2.3622 -1.3462)
          )
          (stroke (width 0) (type default))
          (fill (type none))
        )
        (polyline
          (pts
            (xy -1.524 0.127)
            (xy 2.3622 1.1684)
          )
          (stroke (width 0) (type default))
          (fill (type none))
        )
        (polyline
          (pts
            (xy -1.524 2.667)
            (xy 2.3622 3.7084)
          )
          (stroke (width 0) (type default))
          (fill (type none))
        )
        (polyline
          (pts
            (xy -1.524 5.207)
            (xy 2.3622 6.2484)
          )
          (stroke (width 0) (type default))
          (fill (type none))
        )
        (polyline
          (pts
            (xy -1.524 7.747)
            (xy 2.3622 8.7884)
          )
          (stroke (width 0) (type default))
          (fill (type none))
        )
        (polyline
          (pts
            (xy -1.524 10.287)
            (xy 2.3622 11.3284)
          )
          (stroke (width 0) (type default))
          (fill (type none))
        )
        (circle (center 2.032 -7.62) (radius 0.508)
          (stroke (width 0) (type default))
          (fill (type none))
        )
        (circle (center 2.032 -5.08) (radius 0.508)
          (stroke (width 0) (type default))
          (fill (type none))
        )
        (circle (center 2.032 -2.54) (radius 0.508)
          (stroke (width 0) (type default))
          (fill (type none))
        )
        (circle (center 2.032 0) (radius 0.508)
          (stroke (width 0) (type default))
          (fill (type none))
        )
        (circle (center 2.032 2.54) (radius 0.508)
          (stroke (width 0) (type default))
          (fill (type none))
        )
        (circle (center 2.032 5.08) (radius 0.508)
          (stroke (width 0) (type default))
          (fill (type none))
        )
        (circle (center 2.032 7.62) (radius 0.508)
          (stroke (width 0) (type default))
          (fill (type none))
        )
        (circle (center 2.032 10.16) (radius 0.508)
          (stroke (width 0) (type default))
          (fill (type none))
        )
      )
      (symbol "SW_DIP_x08_0_1"
        (rectangle (start -3.81 12.7) (end 3.81 -10.16)
          (stroke (width 0.254) (type default))
          (fill (type background))
        )
      )
      (symbol "SW_DIP_x08_1_1"
        (pin passive line (at -7.62 10.16 0) (length 5.08)
          (name "~" (effects (font (size 1.27 1.27))))
          (number "1" (effects (font (size 1.27 1.27))))
        )
        (pin passive line (at 7.62 -5.08 180) (length 5.08)
          (name "~" (effects (font (size 1.27 1.27))))
          (number "10" (effects (font (size 1.27 1.27))))
        )
        (pin passive line (at 7.62 -2.54 180) (length 5.08)
          (name "~" (effects (font (size 1.27 1.27))))
          (number "11" (effects (font (size 1.27 1.27))))
        )
        (pin passive line (at 7.62 0 180) (length 5.08)
          (name "~" (effects (font (size 1.27 1.27))))
          (number "12" (effects (font (size 1.27 1.27))))
        )
        (pin passive line (at 7.62 2.54 180) (length 5.08)
          (name "~" (effects (font (size 1.27 1.27))))
          (number "13" (effects (font (size 1.27 1.27))))
        )
        (pin passive line (at 7.62 5.08 180) (length 5.08)
          (name "~" (effects (font (size 1.27 1.27))))
          (number "14" (effects (font (size 1.27 1.27))))
        )
        (pin passive line (at 7.62 7.62 180) (length 5.08)
          (name "~" (effects (font (size 1.27 1.27))))
          (number "15" (effects (font (size 1.27 1.27))))
        )
        (pin passive line (at 7.62 10.16 180) (length 5.08)
          (name "~" (effects (font (size 1.27 1.27))))
          (number "16" (effects (font (size 1.27 1.27))))
        )
        (pin passive line (at -7.62 7.62 0) (length 5.08)
          (name "~" (effects (font (size 1.27 1.27))))
          (number "2" (effects (font (size 1.27 1.27))))
        )
        (pin passive line (at -7.62 5.08 0) (length 5.08)
          (name "~" (effects (font (size 1.27 1.27))))
          (number "3" (effects (font (size 1.27 1.27))))
        )
        (pin passive line (at -7.62 2.54 0) (length 5.08)
          (name "~" (effects (font (size 1.27 1.27))))
          (number "4" (effects (font (size 1.27 1.27))))
        )
        (pin passive line (at -7.62 0 0) (length 5.08)
          (name "~" (effects (font (size 1.27 1.27))))
          (number "5" (effects (font (size 1.27 1.27))))
        )
        (pin passive line (at -7.62 -2.54 0) (length 5.08)
          (name "~" (effects (font (size 1.27 1.27))))
          (number "6" (effects (font (size 1.27 1.27))))
        )
        (pin passive line (at -7.62 -5.08 0) (length 5.08)
          (name "~" (effects (font (size 1.27 1.27))))
          (number "7" (effects (font (size 1.27 1.27))))
        )
        (pin passive line (at -7.62 -7.62 0) (length 5.08)
          (name "~" (effects (font (size 1.27 1.27))))
          (number "8" (effects (font (size 1.27 1.27))))
        )
        (pin passive line (at 7.62 -7.62 180) (length 5.08)
          (name "~" (effects (font (size 1.27 1.27))))
          (number "9" (effects (font (size 1.27 1.27))))
        )
      )
    )
    (symbol "power:+3.3V" (power) (pin_names (offset 0)) (in_bom yes) (on_board yes)
      (property "Reference" "#PWR" (at 0 -3.81 0)
        (effects (font (size 1.27 1.27)) hide)
      )
      (property "Value" "+3.3V" (at 0 3.556 0)
        (effects (font (size 1.27 1.27)))
      )
      (property "Footprint" "" (at 0 0 0)
        (effects (font (size 1.27 1.27)) hide)
      )
      (property "Datasheet" "" (at 0 0 0)
        (effects (font (size 1.27 1.27)) hide)
      )
      (property "ki_keywords" "global power" (at 0 0 0)
        (effects (font (size 1.27 1.27)) hide)
      )
      (property "ki_description" "Power symbol creates a global label with name \"+3.3V\"" (at 0 0 0)
        (effects (font (size 1.27 1.27)) hide)
      )
      (symbol "+3.3V_0_1"
        (polyline
          (pts
            (xy -0.762 1.27)
            (xy 0 2.54)
          )
          (stroke (width 0) (type default))
          (fill (type none))
        )
        (polyline
          (pts
            (xy 0 0)
            (xy 0 2.54)
          )
          (stroke (width 0) (type default))
          (fill (type none))
        )
        (polyline
          (pts
            (xy 0 2.54)
            (xy 0.762 1.27)
          )
          (stroke (width 0) (type default))
          (fill (type none))
        )
      )
      (symbol "+3.3V_1_1"
        (pin power_in line (at 0 0 90) (length 0) hide
          (name "+3.3V" (effects (font (size 1.27 1.27))))
          (number "1" (effects (font (size 1.27 1.27))))
        )
      )
    )
    (symbol "power:GND" (power) (pin_names (offset 0)) (in_bom yes) (on_board yes)
      (property "Reference" "#PWR" (at 0 -6.35 0)
        (effects (font (size 1.27 1.27)) hide)
      )
      (property "Value" "GND" (at 0 -3.81 0)
        (effects (font (size 1.27 1.27)))
      )
      (property "Footprint" "" (at 0 0 0)
        (effects (font (size 1.27 1.27)) hide)
      )
      (property "Datasheet" "" (at 0 0 0)
        (effects (font (size 1.27 1.27)) hide)
      )
      (property "ki_keywords" "global power" (at 0 0 0)
        (effects (font (size 1.27 1.27)) hide)
      )
      (property "ki_description" "Power symbol creates a global label with name \"GND\" , ground" (at 0 0 0)
        (effects (font (size 1.27 1.27)) hide)
      )
      (symbol "GND_0_1"
        (polyline
          (pts
            (xy 0 0)
            (xy 0 -1.27)
            (xy 1.27 -1.27)
            (xy 0 -2.54)
            (xy -1.27 -1.27)
            (xy 0 -1.27)
          )
          (stroke (width 0) (type default))
          (fill (type none))
        )
      )
      (symbol "GND_1_1"
        (pin power_in line (at 0 0 270) (length 0) hide
          (name "GND" (effects (font (size 1.27 1.27))))
          (number "1" (effects (font (size 1.27 1.27))))
        )
      )
    )
  )

  (bus_alias "ID_{SW}" (members "ID_{SW}.IDX0" "ID_{SW}.IDX1" "ID_{SW}.IDX2" "ID_{SW}.IDX3"))
  (bus_alias "DIP" (members "DIP.1" "DIP.2" "DIP.3" "DIP.4" "DIP.5" "DIP.6"))
  (junction (at 110.49 40.64) (diameter 0) (color 0 0 0 0)
    (uuid 00710dae-7d05-4454-a367-44399f6520ed)
  )
  (junction (at 162.56 43.18) (diameter 0) (color 0 0 0 0)
    (uuid 03f5cd46-b7d7-4e4d-bd1e-bd0c3664cff7)
  )
  (junction (at 110.49 35.56) (diameter 0) (color 0 0 0 0)
    (uuid 09242033-976a-4aa1-87bf-845616c50447)
  )
  (junction (at 26.67 101.6) (diameter 0) (color 0 0 0 0)
    (uuid 33071015-aa82-4d5a-9bd6-8826178efafa)
  )
  (junction (at 154.94 38.1) (diameter 0) (color 0 0 0 0)
    (uuid 41e47214-59a9-43f1-99c3-8d19a5360028)
  )
  (junction (at 110.49 43.18) (diameter 0) (color 0 0 0 0)
    (uuid 563c708c-7b80-4650-ad06-c34d346399d3)
  )
  (junction (at 151.13 35.56) (diameter 0) (color 0 0 0 0)
    (uuid 5fb18c55-c080-4293-8d26-602f7e3df7d8)
  )
  (junction (at 72.39 101.6) (diameter 0) (color 0 0 0 0)
    (uuid 6c34d56b-5cec-4986-a713-36ddd66b3217)
  )
  (junction (at 110.49 30.48) (diameter 0) (color 0 0 0 0)
    (uuid 70644978-4e50-4c46-8630-a5787b3811ec)
  )
  (junction (at 38.1 39.37) (diameter 0) (color 0 0 0 0)
    (uuid 72bb2a36-1b25-4243-9e20-13748df3a0fc)
  )
  (junction (at 143.51 30.48) (diameter 0) (color 0 0 0 0)
    (uuid 78e232db-7ca7-4837-a723-126be15ecb10)
  )
  (junction (at 49.53 46.99) (diameter 0) (color 0 0 0 0)
    (uuid 959dadaa-1e95-458c-99a5-dce66725e711)
  )
  (junction (at 26.67 96.52) (diameter 0) (color 0 0 0 0)
    (uuid a2d6c4f9-66e1-446a-9b24-ea53170afb62)
  )
  (junction (at 158.75 40.64) (diameter 0) (color 0 0 0 0)
    (uuid afbde211-cdab-4fd2-8d41-345c7cb78f18)
  )
  (junction (at 110.49 38.1) (diameter 0) (color 0 0 0 0)
    (uuid b2f789b1-372e-483c-9406-749eec769a73)
  )
  (junction (at 41.91 41.91) (diameter 0) (color 0 0 0 0)
    (uuid b35d6512-f804-4e14-86a6-e2512cb2fb89)
  )
  (junction (at 45.72 44.45) (diameter 0) (color 0 0 0 0)
    (uuid bc23f8a6-5130-4672-ae35-1970e581aeba)
  )
  (junction (at 166.37 45.72) (diameter 0) (color 0 0 0 0)
    (uuid bf825732-97b4-4370-a3a4-33d645a9e41c)
  )
  (junction (at 130.81 48.26) (diameter 0) (color 0 0 0 0)
    (uuid c73444a6-6d40-4bba-820d-9426417b3172)
  )
  (junction (at 110.49 33.02) (diameter 0) (color 0 0 0 0)
    (uuid dac4c8bb-9014-4beb-91a5-d047a2e3e447)
  )
  (junction (at 147.32 33.02) (diameter 0) (color 0 0 0 0)
    (uuid f0b931b7-3f75-44bb-8ea1-1446bca2f370)
  )
  (junction (at 72.39 96.52) (diameter 0) (color 0 0 0 0)
    (uuid f8921f06-a78b-492d-aabc-530f7c43e23c)
  )

  (no_connect (at 44.45 101.6) (uuid 191f7ee6-4db2-4a74-9992-2de9e75ffd46))
  (no_connect (at 90.17 101.6) (uuid 3ca425b1-50bd-46e9-bde1-ea5307ddbed2))

  (bus_entry (at 189.23 40.64) (size -2.54 2.54)
    (stroke (width 0) (type default))
    (uuid 407aa4b4-167e-4429-91b4-5a4c46a28c9e)
  )
  (bus_entry (at 74.93 36.83) (size -2.54 2.54)
    (stroke (width 0) (type default))
    (uuid 5532ea9e-dd6f-4ad9-a6b0-7b4ab47647d5)
  )
  (bus_entry (at 74.93 44.45) (size -2.54 2.54)
    (stroke (width 0) (type default))
    (uuid 59ff16ac-86b1-4a32-84a7-4ba81fdd4315)
  )
  (bus_entry (at 189.23 27.94) (size -2.54 2.54)
    (stroke (width 0) (type default))
    (uuid 5bfefe5d-3ca1-4666-a003-a7e1cc22f954)
  )
  (bus_entry (at 189.23 38.1) (size -2.54 2.54)
    (stroke (width 0) (type default))
    (uuid 6e045784-5499-4fd6-852d-3da6e6808d2d)
  )
  (bus_entry (at 189.23 30.48) (size -2.54 2.54)
    (stroke (width 0) (type default))
    (uuid 7ac638ec-159e-4d5d-b663-ff7abca8ff65)
  )
  (bus_entry (at 74.93 41.91) (size -2.54 2.54)
    (stroke (width 0) (type default))
    (uuid 98ac73dd-aba0-48fa-85d3-7134046ff2d3)
  )
  (bus_entry (at 189.23 33.02) (size -2.54 2.54)
    (stroke (width 0) (type default))
    (uuid d577728f-a577-400a-bfcc-bfa809bdb2b4)
  )
  (bus_entry (at 74.93 39.37) (size -2.54 2.54)
    (stroke (width 0) (type default))
    (uuid f422bbe0-6eda-40c6-a266-cd8701556731)
  )
  (bus_entry (at 189.23 35.56) (size -2.54 2.54)
    (stroke (width 0) (type default))
    (uuid fdb007e0-f301-4720-9214-b701e15225cc)
  )

  (wire (pts (xy 147.32 33.02) (xy 168.91 33.02))
    (stroke (width 0) (type default))
    (uuid 04e5c83a-3e53-4ebb-8b17-7452515daa87)
  )
  (bus (pts (xy 189.23 27.94) (xy 194.31 27.94))
    (stroke (width 0) (type default))
    (uuid 08f8a1bd-ac24-4541-ae25-ff771b6a9f33)
  )

  (wire (pts (xy 58.42 39.37) (xy 72.39 39.37))
    (stroke (width 0) (type default))
    (uuid 0f1cc26a-3140-4998-9961-1f245fc00396)
  )
  (wire (pts (xy 38.1 39.37) (xy 38.1 50.8))
    (stroke (width 0) (type default))
    (uuid 1034e1db-106f-4e0a-bcb1-a3b70f8be34e)
  )
  (wire (pts (xy 166.37 45.72) (xy 168.91 45.72))
    (stroke (width 0) (type default))
    (uuid 10583bd3-14b2-41b6-aafb-471239f197a3)
  )
  (bus (pts (xy 74.93 36.83) (xy 74.93 39.37))
    (stroke (width 0) (type default))
    (uuid 16fba6b4-7c60-4ced-9cda-4aa3842c0f7d)
  )

  (wire (pts (xy 143.51 30.48) (xy 143.51 53.34))
    (stroke (width 0) (type default))
    (uuid 17a65ecb-ec11-4b09-9d31-80ad819853e0)
  )
  (bus (pts (xy 74.93 41.91) (xy 74.93 44.45))
    (stroke (width 0) (type default))
    (uuid 187d79e3-42f1-4d2f-9cd2-1b99e3be0872)
  )

  (polyline (pts (xy 13.97 13.97) (xy 13.97 68.58))
    (stroke (width 0) (type dash))
    (uuid 18c06e33-7c8d-4050-84a9-f56d397ae87d)
  )
  (polyline (pts (xy 87.63 68.58) (xy 13.97 68.58))
    (stroke (width 0) (type dash))
    (uuid 1ac0428d-935d-49d7-b1ab-a2387f56b334)
  )

  (wire (pts (xy 162.56 58.42) (xy 162.56 60.96))
    (stroke (width 0) (type default))
    (uuid 20685b06-8358-4654-9bb9-473cae1345b2)
  )
  (wire (pts (xy 41.91 55.88) (xy 41.91 58.42))
    (stroke (width 0) (type default))
    (uuid 271d79c2-ea3c-49f8-8a91-703e8b5baa73)
  )
  (wire (pts (xy 58.42 46.99) (xy 72.39 46.99))
    (stroke (width 0) (type default))
    (uuid 2832d738-b1f7-41cf-b30b-791033fdd057)
  )
  (wire (pts (xy 151.13 58.42) (xy 151.13 60.96))
    (stroke (width 0) (type default))
    (uuid 2982e4ac-8e73-40de-ad39-845b7554f647)
  )
  (wire (pts (xy 143.51 58.42) (xy 143.51 60.96))
    (stroke (width 0) (type default))
    (uuid 2ada95cf-7361-4803-ae0a-ffea412cc8ad)
  )
  (wire (pts (xy 58.42 41.91) (xy 72.39 41.91))
    (stroke (width 0) (type default))
    (uuid 2c449ecf-b2da-46d6-96f8-b8c25c8f03e3)
  )
  (wire (pts (xy 26.67 96.52) (xy 29.21 96.52))
    (stroke (width 0) (type default))
    (uuid 2f79aac8-60e8-4a0f-b91e-2e5fa2233b28)
  )
  (wire (pts (xy 162.56 43.18) (xy 162.56 53.34))
    (stroke (width 0) (type default))
    (uuid 2f94efc0-bab8-4d8d-a511-91e3478b6744)
  )
  (polyline (pts (xy 223.52 68.58) (xy 90.17 68.58))
    (stroke (width 0) (type dash))
    (uuid 2fedf752-e027-455f-afc5-1d276a9a02f7)
  )
  (polyline (pts (xy 107.95 116.84) (xy 107.95 71.12))
    (stroke (width 0) (type dash))
    (uuid 30280812-52e2-4d66-a669-d015265d2551)
  )

  (wire (pts (xy 41.91 41.91) (xy 53.34 41.91))
    (stroke (width 0) (type default))
    (uuid 30578e55-f939-4799-b5c3-47748a5f5c55)
  )
  (wire (pts (xy 44.45 96.52) (xy 46.99 96.52))
    (stroke (width 0) (type default))
    (uuid 3546ff9d-2f1b-4988-b749-de98f8228ee2)
  )
  (wire (pts (xy 110.49 33.02) (xy 110.49 35.56))
    (stroke (width 0) (type default))
    (uuid 35ab75cc-2bf2-46f1-b431-2f3fa4b621d3)
  )
  (wire (pts (xy 45.72 55.88) (xy 45.72 58.42))
    (stroke (width 0) (type default))
    (uuid 35dba848-6b81-4c63-aa11-14b2a137fb49)
  )
  (wire (pts (xy 128.27 48.26) (xy 130.81 48.26))
    (stroke (width 0) (type default))
    (uuid 3ef17d9e-5629-48f8-9763-a04995eb4076)
  )
  (wire (pts (xy 128.27 40.64) (xy 158.75 40.64))
    (stroke (width 0) (type default))
    (uuid 3fd6d8bd-450f-42d7-a175-39cc855bbdf1)
  )
  (wire (pts (xy 130.81 48.26) (xy 179.07 48.26))
    (stroke (width 0) (type default))
    (uuid 428df17f-ff87-4f35-af14-791031daaf17)
  )
  (wire (pts (xy 110.49 30.48) (xy 113.03 30.48))
    (stroke (width 0) (type default))
    (uuid 436ba6b9-66d8-4800-a7fd-f4730f8e4c37)
  )
  (wire (pts (xy 166.37 58.42) (xy 166.37 60.96))
    (stroke (width 0) (type default))
    (uuid 47a545c4-e8be-471a-ad71-d6c268e2c6af)
  )
  (wire (pts (xy 49.53 46.99) (xy 49.53 50.8))
    (stroke (width 0) (type default))
    (uuid 4b3e94cc-c5e2-414a-ba7b-037fcb3bcc0a)
  )
  (polyline (pts (xy 13.97 71.12) (xy 13.97 116.84))
    (stroke (width 0) (type dash))
    (uuid 4ce296d6-fa8e-4f8d-b871-9b92014a1473)
  )

  (wire (pts (xy 128.27 38.1) (xy 154.94 38.1))
    (stroke (width 0) (type default))
    (uuid 502ddae4-ae1d-4037-8769-da57cd42e0bd)
  )
  (polyline (pts (xy 87.63 68.58) (xy 87.63 13.97))
    (stroke (width 0) (type dash))
    (uuid 5162a96c-28e7-4ff2-952f-d63ab577fd41)
  )
  (polyline (pts (xy 90.17 13.97) (xy 223.52 13.97))
    (stroke (width 0) (type dash))
    (uuid 527fa5f3-28d4-4da3-9bf3-ab05148868ab)
  )

  (wire (pts (xy 151.13 35.56) (xy 151.13 53.34))
    (stroke (width 0) (type default))
    (uuid 531f6762-4d66-4254-96d6-b0bac91f2abb)
  )
  (wire (pts (xy 158.75 40.64) (xy 168.91 40.64))
    (stroke (width 0) (type default))
    (uuid 5367379c-0dba-4d15-b80f-72f8825f2af5)
  )
  (wire (pts (xy 128.27 45.72) (xy 166.37 45.72))
    (stroke (width 0) (type default))
    (uuid 56fb2847-9761-4c58-ad5b-f1b06ff3a762)
  )
  (wire (pts (xy 173.99 45.72) (xy 179.07 45.72))
    (stroke (width 0) (type default))
    (uuid 57541ba0-2fc1-4913-a477-27d791be9044)
  )
  (wire (pts (xy 58.42 44.45) (xy 72.39 44.45))
    (stroke (width 0) (type default))
    (uuid 5bc2dcc4-908e-4861-a53f-812983217d08)
  )
  (wire (pts (xy 158.75 40.64) (xy 158.75 53.34))
    (stroke (width 0) (type default))
    (uuid 5c0cca8d-52fb-4755-b78d-54da6e604e36)
  )
  (wire (pts (xy 110.49 43.18) (xy 113.03 43.18))
    (stroke (width 0) (type default))
    (uuid 61163f3d-5cb2-4249-bd91-5f68aa7b0df8)
  )
  (wire (pts (xy 128.27 30.48) (xy 143.51 30.48))
    (stroke (width 0) (type default))
    (uuid 61cfa97d-3c6f-4def-9d24-44af575ebe54)
  )
  (wire (pts (xy 110.49 40.64) (xy 113.03 40.64))
    (stroke (width 0) (type default))
    (uuid 64896502-24fa-490f-b4c9-4e06c63d3f8e)
  )
  (wire (pts (xy 147.32 58.42) (xy 147.32 60.96))
    (stroke (width 0) (type default))
    (uuid 64b8db66-7b01-44f6-88e5-39efc0c925e5)
  )
  (wire (pts (xy 110.49 45.72) (xy 113.03 45.72))
    (stroke (width 0) (type default))
    (uuid 68f4a87d-92c9-4fee-84b7-9bed7610c0f1)
  )
  (bus (pts (xy 189.23 27.94) (xy 189.23 30.48))
    (stroke (width 0) (type default))
    (uuid 6cee6c95-5904-4d87-a6e6-78eafd984ba1)
  )

  (wire (pts (xy 36.83 41.91) (xy 41.91 41.91))
    (stroke (width 0) (type default))
    (uuid 6d02b508-5bbb-465e-942a-504aebbb8487)
  )
  (wire (pts (xy 173.99 30.48) (xy 186.69 30.48))
    (stroke (width 0) (type default))
    (uuid 6d9d3d34-c774-4dde-b3ba-b1b882bf40b7)
  )
  (wire (pts (xy 110.49 48.26) (xy 113.03 48.26))
    (stroke (width 0) (type default))
    (uuid 6edf13dd-5064-40c2-9e32-c7de8380cdf7)
  )
  (wire (pts (xy 26.67 101.6) (xy 29.21 101.6))
    (stroke (width 0) (type default))
    (uuid 6ee9f51a-e08c-44e1-9ce4-7c2b7060094d)
  )
  (wire (pts (xy 72.39 101.6) (xy 72.39 109.22))
    (stroke (width 0) (type default))
    (uuid 70afb8ef-492f-4ab7-83aa-f7c253179e70)
  )
  (wire (pts (xy 154.94 38.1) (xy 154.94 53.34))
    (stroke (width 0) (type default))
    (uuid 74ed53c1-a860-4a1e-aa3b-0fefd4f06f9a)
  )
  (wire (pts (xy 166.37 45.72) (xy 166.37 53.34))
    (stroke (width 0) (type default))
    (uuid 78636fae-e47b-4b6d-9076-2ede8fe527d4)
  )
  (wire (pts (xy 128.27 43.18) (xy 162.56 43.18))
    (stroke (width 0) (type default))
    (uuid 7a3d5ebf-abf1-4aa1-930f-fb5354270db2)
  )
  (bus (pts (xy 74.93 36.83) (xy 80.01 36.83))
    (stroke (width 0) (type default))
    (uuid 7ad5a8fa-b449-4542-be81-f591f800194c)
  )

  (polyline (pts (xy 90.17 13.97) (xy 90.17 68.58))
    (stroke (width 0) (type dash))
    (uuid 7b8b3cf9-214c-4884-ba6d-06e54db83bb5)
  )

  (wire (pts (xy 110.49 33.02) (xy 113.03 33.02))
    (stroke (width 0) (type default))
    (uuid 7c9aaa8d-b528-4e8d-bab4-48573a2afc0f)
  )
  (wire (pts (xy 38.1 35.56) (xy 38.1 36.83))
    (stroke (width 0) (type default))
    (uuid 80bc7701-d26e-4170-980e-7101939930ff)
  )
  (wire (pts (xy 173.99 43.18) (xy 186.69 43.18))
    (stroke (width 0) (type default))
    (uuid 82249fdf-064f-4e33-9fee-52523e01469b)
  )
  (wire (pts (xy 26.67 91.44) (xy 26.67 96.52))
    (stroke (width 0) (type default))
    (uuid 838b675f-9329-4360-b9f4-dd261f15cc58)
  )
  (wire (pts (xy 36.83 36.83) (xy 38.1 36.83))
    (stroke (width 0) (type default))
    (uuid 8b93722a-f47a-4042-8508-5e1152a8e602)
  )
  (bus (pts (xy 189.23 33.02) (xy 189.23 35.56))
    (stroke (width 0) (type default))
    (uuid 8ee5f10c-98a9-4988-8ba0-c5c14fdebe1f)
  )

  (wire (pts (xy 26.67 83.82) (xy 26.67 86.36))
    (stroke (width 0) (type default))
    (uuid 9000f167-ac73-4a03-baa9-f65ab6600413)
  )
  (wire (pts (xy 154.94 38.1) (xy 168.91 38.1))
    (stroke (width 0) (type default))
    (uuid 90aa8871-7196-4e78-a314-89e47e98e66e)
  )
  (wire (pts (xy 26.67 101.6) (xy 26.67 109.22))
    (stroke (width 0) (type default))
    (uuid 947ea0ff-50c9-4e37-b07d-0671d881f355)
  )
  (wire (pts (xy 143.51 30.48) (xy 168.91 30.48))
    (stroke (width 0) (type default))
    (uuid 9670ac69-91f4-46c8-811b-c31b7c3fe2a3)
  )
  (wire (pts (xy 110.49 35.56) (xy 113.03 35.56))
    (stroke (width 0) (type default))
    (uuid 98920d27-bd47-45af-979f-43bcac097359)
  )
  (wire (pts (xy 90.17 96.52) (xy 92.71 96.52))
    (stroke (width 0) (type default))
    (uuid 99406262-1a76-48e7-8be1-2214c52bf2b4)
  )
  (wire (pts (xy 173.99 40.64) (xy 186.69 40.64))
    (stroke (width 0) (type default))
    (uuid 9a1dcce9-bf19-45ce-9ee4-61ff977e80f4)
  )
  (wire (pts (xy 41.91 41.91) (xy 41.91 50.8))
    (stroke (width 0) (type default))
    (uuid 9a7165ac-e8ea-48a4-a183-61b64921dd1b)
  )
  (wire (pts (xy 128.27 33.02) (xy 147.32 33.02))
    (stroke (width 0) (type default))
    (uuid 9aa1437b-99a8-4f74-a6d5-e93007bef858)
  )
  (wire (pts (xy 173.99 33.02) (xy 186.69 33.02))
    (stroke (width 0) (type default))
    (uuid 9bfe0ab7-c1d4-4d23-b38e-094626018f56)
  )
  (polyline (pts (xy 107.95 116.84) (xy 13.97 116.84))
    (stroke (width 0) (type dash))
    (uuid a1cc7bcb-c374-4dba-8820-66606b8c0751)
  )

  (wire (pts (xy 72.39 101.6) (xy 74.93 101.6))
    (stroke (width 0) (type default))
    (uuid a3c6343e-3bb9-4459-92c5-491aa61b1214)
  )
  (wire (pts (xy 130.81 48.26) (xy 130.81 50.8))
    (stroke (width 0) (type default))
    (uuid a46bf577-29ff-4d3c-a75e-03e09197b0e4)
  )
  (wire (pts (xy 110.49 27.94) (xy 110.49 30.48))
    (stroke (width 0) (type default))
    (uuid a5365b92-ace7-4979-9051-95adfeff0e39)
  )
  (wire (pts (xy 151.13 35.56) (xy 168.91 35.56))
    (stroke (width 0) (type default))
    (uuid a546d878-f8ad-4497-8b34-0003288f1890)
  )
  (wire (pts (xy 38.1 55.88) (xy 38.1 58.42))
    (stroke (width 0) (type default))
    (uuid a5b9cc81-de10-474f-bace-d46aa89d73b1)
  )
  (bus (pts (xy 74.93 39.37) (xy 74.93 41.91))
    (stroke (width 0) (type default))
    (uuid abb17a82-1575-4f8b-bed8-93b2252caf4b)
  )

  (wire (pts (xy 72.39 83.82) (xy 72.39 86.36))
    (stroke (width 0) (type default))
    (uuid ace2f73a-5541-466c-8cff-143354815c1c)
  )
  (polyline (pts (xy 223.52 68.58) (xy 223.52 13.97))
    (stroke (width 0) (type dash))
    (uuid ae83484d-aacf-4bf0-bd4b-29402449070f)
  )

  (bus (pts (xy 189.23 35.56) (xy 189.23 38.1))
    (stroke (width 0) (type default))
    (uuid aee895df-0a2a-4d04-a5ae-83a97b5878cb)
  )

  (wire (pts (xy 128.27 35.56) (xy 151.13 35.56))
    (stroke (width 0) (type default))
    (uuid b3a396c7-27f6-4244-8910-7238368929f5)
  )
  (wire (pts (xy 72.39 96.52) (xy 74.93 96.52))
    (stroke (width 0) (type default))
    (uuid b6758586-bdbc-42b7-b794-dfa77ae55cbd)
  )
  (wire (pts (xy 110.49 38.1) (xy 110.49 40.64))
    (stroke (width 0) (type default))
    (uuid b87617a6-2cb7-494e-8f68-e119e691a5c7)
  )
  (wire (pts (xy 38.1 39.37) (xy 53.34 39.37))
    (stroke (width 0) (type default))
    (uuid bcdee7ca-ea8a-4fbe-8b02-46b6d1293f43)
  )
  (wire (pts (xy 52.07 96.52) (xy 54.61 96.52))
    (stroke (width 0) (type default))
    (uuid bd00adef-b83b-449f-a759-cfa8b84d3ffc)
  )
  (bus (pts (xy 189.23 30.48) (xy 189.23 33.02))
    (stroke (width 0) (type default))
    (uuid c659b342-bb88-4996-ad8d-be6161932ee7)
  )

  (wire (pts (xy 49.53 46.99) (xy 53.34 46.99))
    (stroke (width 0) (type default))
    (uuid c7077682-535b-482b-aba3-a1dc5e67185b)
  )
  (wire (pts (xy 45.72 44.45) (xy 45.72 50.8))
    (stroke (width 0) (type default))
    (uuid c872e891-ebbe-4e45-ada2-82e2bc73f0ff)
  )
  (wire (pts (xy 49.53 55.88) (xy 49.53 58.42))
    (stroke (width 0) (type default))
    (uuid ca3b5681-6540-4ca8-9548-031187edb061)
  )
  (wire (pts (xy 110.49 38.1) (xy 113.03 38.1))
    (stroke (width 0) (type default))
    (uuid ce957d28-a703-4b4a-a79f-42ebfeca4ea1)
  )
  (wire (pts (xy 36.83 44.45) (xy 45.72 44.45))
    (stroke (width 0) (type default))
    (uuid cf19c54b-9cb2-4706-80c1-864321595c03)
  )
  (wire (pts (xy 110.49 30.48) (xy 110.49 33.02))
    (stroke (width 0) (type default))
    (uuid cfc153a9-0f28-42f8-baad-9cda9aaf0fba)
  )
  (wire (pts (xy 36.83 46.99) (xy 49.53 46.99))
    (stroke (width 0) (type default))
    (uuid d1d65021-be88-46c6-8d3f-b309eb5c1b73)
  )
  (polyline (pts (xy 13.97 13.97) (xy 87.63 13.97))
    (stroke (width 0) (type dash))
    (uuid d42215be-22e9-4168-819f-2dff2bea4e07)
  )

  (wire (pts (xy 162.56 43.18) (xy 168.91 43.18))
    (stroke (width 0) (type default))
    (uuid d457ec5a-c271-475b-81e7-c1467acb2cb4)
  )
  (wire (pts (xy 158.75 58.42) (xy 158.75 60.96))
    (stroke (width 0) (type default))
    (uuid d4c882ad-1e90-431e-9612-8b245b5d9b50)
  )
  (wire (pts (xy 110.49 43.18) (xy 110.49 45.72))
    (stroke (width 0) (type default))
    (uuid ddef4ec1-8219-47ad-b883-84ce411b0b73)
  )
  (wire (pts (xy 36.83 39.37) (xy 38.1 39.37))
    (stroke (width 0) (type default))
    (uuid e044ce76-866f-4b42-a290-588c2e9a0dfc)
  )
  (bus (pts (xy 189.23 38.1) (xy 189.23 40.64))
    (stroke (width 0) (type default))
    (uuid e0e7e3e4-875d-4faf-960d-3f48c490a25e)
  )

  (wire (pts (xy 110.49 40.64) (xy 110.49 43.18))
    (stroke (width 0) (type default))
    (uuid e1250564-1606-4fec-a504-4c76ba553409)
  )
  (wire (pts (xy 45.72 44.45) (xy 53.34 44.45))
    (stroke (width 0) (type default))
    (uuid e1b168fd-2255-4bf7-9468-2254e3e39c4c)
  )
  (wire (pts (xy 105.41 48.26) (xy 102.87 48.26))
    (stroke (width 0) (type default))
    (uuid e5281802-49bc-467b-8efd-35ac49062efd)
  )
  (wire (pts (xy 154.94 58.42) (xy 154.94 60.96))
    (stroke (width 0) (type default))
    (uuid e6fb7a56-bbd0-4203-b93a-de94fd72b647)
  )
  (wire (pts (xy 147.32 33.02) (xy 147.32 53.34))
    (stroke (width 0) (type default))
    (uuid f2469c33-940e-459a-b72c-014bfcfc5c28)
  )
  (wire (pts (xy 97.79 96.52) (xy 100.33 96.52))
    (stroke (width 0) (type default))
    (uuid f2a2eba9-cc0e-462d-a67e-46c61d2f4e7e)
  )
  (polyline (pts (xy 13.97 71.12) (xy 107.95 71.12))
    (stroke (width 0) (type dash))
    (uuid f34ab13b-1e46-4221-a566-c424bf9f68a8)
  )

  (wire (pts (xy 173.99 35.56) (xy 186.69 35.56))
    (stroke (width 0) (type default))
    (uuid f89e8d84-4c0b-4bf4-8fcf-2ef22d8c02d2)
  )
  (wire (pts (xy 72.39 91.44) (xy 72.39 96.52))
    (stroke (width 0) (type default))
    (uuid f947845b-4b97-40be-9e9c-59014ddf8ee8)
  )
  (wire (pts (xy 173.99 38.1) (xy 186.69 38.1))
    (stroke (width 0) (type default))
    (uuid fa8d6e10-cada-4768-9294-a5ca7d37ee82)
  )
  (wire (pts (xy 130.81 58.42) (xy 130.81 60.96))
    (stroke (width 0) (type default))
    (uuid fcbb4da3-c54e-4102-bd39-c8053ef3fd43)
  )
  (wire (pts (xy 110.49 35.56) (xy 110.49 38.1))
    (stroke (width 0) (type default))
    (uuid ff53be52-5876-489d-b44c-4373f3d8bbca)
  )

  (text "User Buttons" (at 15.24 73.66 0)
    (effects (font (size 1.27 1.27)) (justify left bottom))
    (uuid 041b5fdb-13cb-46d5-9f8f-03bbebe8eece)
  )
  (text "Robot Config" (at 91.44 16.51 0)
    (effects (font (size 1.27 1.27)) (justify left bottom))
    (uuid 3a1b472e-a247-4307-b8cc-90dd4667b6af)
  )
  (text "Robot ID Selection" (at 15.24 16.51 0)
    (effects (font (size 1.27 1.27)) (justify left bottom))
    (uuid 8a8d2c8f-a9c5-45ba-bc2f-892225da2642)
  )

  (label "ID_{SW}.IDX1" (at 63.5 44.45 0) (fields_autoplaced)
    (effects (font (size 1.27 1.27)) (justify left bottom))
    (uuid 19a5ef96-ac94-41c5-8027-bfa84860fd13)
  )
  (label "ID_{SW}.IDX2" (at 63.5 41.91 0) (fields_autoplaced)
    (effects (font (size 1.27 1.27)) (justify left bottom))
    (uuid 7ee50b97-45d3-4c87-9bfa-881cde2f3c04)
  )
  (label "DIP.1" (at 179.07 30.48 0) (fields_autoplaced)
    (effects (font (size 1.27 1.27)) (justify left bottom))
    (uuid 86ab3933-9bfb-439b-acd7-8e1bfd0f7d8c)
  )
  (label "DIP.3" (at 179.07 35.56 0) (fields_autoplaced)
    (effects (font (size 1.27 1.27)) (justify left bottom))
    (uuid 9847faf9-f62f-4cd4-9ed8-b3bbdaa3d579)
  )
  (label "ID_{SW}.IDX3" (at 63.5 39.37 0) (fields_autoplaced)
    (effects (font (size 1.27 1.27)) (justify left bottom))
    (uuid 9c53914c-988a-4063-9cfb-29cb3346596e)
  )
  (label "DIP.4" (at 179.07 38.1 0) (fields_autoplaced)
    (effects (font (size 1.27 1.27)) (justify left bottom))
    (uuid ae146d42-70d9-4692-8e30-7c8c54164206)
  )
  (label "DIP.2" (at 179.07 33.02 0) (fields_autoplaced)
    (effects (font (size 1.27 1.27)) (justify left bottom))
    (uuid baa50da4-ebd8-40db-b516-c57cf932f7d4)
  )
  (label "ID_{SW}.IDX0" (at 63.5 46.99 0) (fields_autoplaced)
    (effects (font (size 1.27 1.27)) (justify left bottom))
    (uuid d0b41b51-cee7-45d8-b434-66d70d0578f0)
  )
  (label "DIP.5" (at 179.07 40.64 0) (fields_autoplaced)
    (effects (font (size 1.27 1.27)) (justify left bottom))
    (uuid d40e1578-8c70-40a5-95f1-100ff57bd08d)
  )
  (label "DIP.6" (at 179.07 43.18 0) (fields_autoplaced)
    (effects (font (size 1.27 1.27)) (justify left bottom))
    (uuid f19fee8a-999c-4782-9fd2-241f79d7d489)
  )

  (hierarchical_label "{ID_{SW}}" (shape output) (at 80.01 36.83 0) (fields_autoplaced)
    (effects (font (size 1.27 1.27)) (justify left))
    (uuid 15af1685-28ee-4ada-8a30-0126ab00c388)
  )
  (hierarchical_label "USB_VBUS" (shape input) (at 102.87 48.26 180) (fields_autoplaced)
    (effects (font (size 1.27 1.27)) (justify right))
    (uuid 2a7b2ed2-e172-4107-80e3-ed9163b2e956)
  )
  (hierarchical_label "IsBlueTeam" (shape output) (at 179.07 45.72 0) (fields_autoplaced)
    (effects (font (size 1.27 1.27)) (justify left))
    (uuid 2d24422e-f0e7-41c3-aaf9-7cca053ba092)
  )
  (hierarchical_label "~{BTN}0" (shape output) (at 54.61 96.52 0) (fields_autoplaced)
    (effects (font (size 1.27 1.27)) (justify left))
    (uuid 8b2c5c2b-9343-45ed-a0a0-1e4954064ad6)
  )
  (hierarchical_label "{DIP}" (shape output) (at 194.31 27.94 0) (fields_autoplaced)
    (effects (font (size 1.27 1.27)) (justify left))
    (uuid 8b9d9d04-3066-46be-b318-351e3c798325)
  )
  (hierarchical_label "~{BTN}1" (shape output) (at 100.33 96.52 0) (fields_autoplaced)
    (effects (font (size 1.27 1.27)) (justify left))
    (uuid b83cfce9-9a76-4df2-8932-5c9cbdd5a165)
  )
  (hierarchical_label "BOOT0" (shape output) (at 179.07 48.26 0) (fields_autoplaced)
    (effects (font (size 1.27 1.27)) (justify left))
    (uuid e14cd22b-0862-447c-880f-4b9d08113b93)
  )

  (symbol (lib_id "Device:R_Small_US") (at 143.51 55.88 180) (unit 1)
    (in_bom yes) (on_board yes) (dnp no)
    (uuid 044a7bea-4fbc-4a4a-9883-78a86f1d2b51)
    (property "Reference" "R2" (at 142.24 54.61 90)
      (effects (font (size 1.27 1.27)) (justify right))
    )
    (property "Value" "4.7k" (at 142.24 62.23 90)
      (effects (font (size 1.27 1.27)) (justify right))
    )
    (property "Footprint" "Resistor_SMD:R_0402_1005Metric" (at 143.51 55.88 0)
      (effects (font (size 1.27 1.27)) hide)
    )
    (property "Datasheet" "~" (at 143.51 55.88 0)
      (effects (font (size 1.27 1.27)) hide)
    )
    (pin "1" (uuid f1b2d692-3c30-4492-b534-c2045dc8d6a7))
    (pin "2" (uuid 06dc0e63-2278-4714-a40f-29adfca84eb6))
    (instances
      (project "control"
        (path "/e63e39d7-6ac0-4ffd-8aa3-1841a4541b55"
          (reference "R2") (unit 1)
        )
        (path "/e63e39d7-6ac0-4ffd-8aa3-1841a4541b55/f5b155db-a48d-4f61-acb2-044b9a21eef7"
          (reference "R76") (unit 1)
        )
      )
    )
  )

  (symbol (lib_id "power:GND") (at 147.32 60.96 0) (unit 1)
    (in_bom yes) (on_board yes) (dnp no) (fields_autoplaced)
    (uuid 0917bd45-ae7a-427c-a681-5b48382f00ac)
    (property "Reference" "#PWR012" (at 147.32 67.31 0)
      (effects (font (size 1.27 1.27)) hide)
    )
    (property "Value" "GND" (at 147.32 66.04 0)
      (effects (font (size 1.27 1.27)))
    )
    (property "Footprint" "" (at 147.32 60.96 0)
      (effects (font (size 1.27 1.27)) hide)
    )
    (property "Datasheet" "" (at 147.32 60.96 0)
      (effects (font (size 1.27 1.27)) hide)
    )
    (pin "1" (uuid b4337c27-d30d-4131-a296-457367a23dd7))
    (instances
      (project "control"
        (path "/e63e39d7-6ac0-4ffd-8aa3-1841a4541b55"
          (reference "#PWR012") (unit 1)
        )
        (path "/e63e39d7-6ac0-4ffd-8aa3-1841a4541b55/f5b155db-a48d-4f61-acb2-044b9a21eef7"
          (reference "#PWR0106") (unit 1)
        )
      )
    )
  )

  (symbol (lib_id "Device:R_Small_US") (at 171.45 33.02 90) (unit 1)
    (in_bom yes) (on_board yes) (dnp no)
    (uuid 0aab69dd-93d4-4b72-8bc2-0c05d6558ab9)
    (property "Reference" "R14" (at 175.26 31.75 90)
      (effects (font (size 1.27 1.27)))
    )
    (property "Value" "100" (at 167.64 31.75 90)
      (effects (font (size 1.27 1.27)))
    )
    (property "Footprint" "Resistor_SMD:R_0402_1005Metric" (at 171.45 33.02 0)
      (effects (font (size 1.27 1.27)) hide)
    )
    (property "Datasheet" "~" (at 171.45 33.02 0)
      (effects (font (size 1.27 1.27)) hide)
    )
    (pin "1" (uuid b0e7ae12-c28a-43b6-85d3-8fe8ca37eda1))
    (pin "2" (uuid de93174f-f71b-4d83-b91e-0c3b8f120df5))
    (instances
      (project "control"
        (path "/e63e39d7-6ac0-4ffd-8aa3-1841a4541b55"
          (reference "R14") (unit 1)
        )
        (path "/e63e39d7-6ac0-4ffd-8aa3-1841a4541b55/f5b155db-a48d-4f61-acb2-044b9a21eef7"
          (reference "R84") (unit 1)
        )
      )
    )
  )

  (symbol (lib_id "Device:R_Small_US") (at 26.67 88.9 180) (unit 1)
    (in_bom yes) (on_board yes) (dnp no) (fields_autoplaced)
    (uuid 0f155f04-3a80-4ee1-940e-1a90c51a94a2)
    (property "Reference" "R1" (at 29.21 88.265 0)
      (effects (font (size 1.27 1.27)) (justify right))
    )
    (property "Value" "4.7k" (at 29.21 90.805 0)
      (effects (font (size 1.27 1.27)) (justify right))
    )
    (property "Footprint" "Resistor_SMD:R_0402_1005Metric" (at 26.67 88.9 0)
      (effects (font (size 1.27 1.27)) hide)
    )
    (property "Datasheet" "~" (at 26.67 88.9 0)
      (effects (font (size 1.27 1.27)) hide)
    )
    (pin "1" (uuid 613cb237-3101-4047-8bf7-cf153ca32bb7))
    (pin "2" (uuid c8b5d238-358e-47e0-8d49-0a0f505f6706))
    (instances
      (project "control"
        (path "/e63e39d7-6ac0-4ffd-8aa3-1841a4541b55"
          (reference "R1") (unit 1)
        )
        (path "/e63e39d7-6ac0-4ffd-8aa3-1841a4541b55/f5b155db-a48d-4f61-acb2-044b9a21eef7"
          (reference "R62") (unit 1)
        )
      )
    )
  )

  (symbol (lib_id "Device:R_Small_US") (at 55.88 46.99 90) (unit 1)
    (in_bom yes) (on_board yes) (dnp no)
    (uuid 110ba2f8-77d3-4778-b339-09f01e2687c8)
    (property "Reference" "R12" (at 59.69 45.72 90)
      (effects (font (size 1.27 1.27)))
    )
    (property "Value" "100" (at 52.07 45.72 90)
      (effects (font (size 1.27 1.27)))
    )
    (property "Footprint" "Resistor_SMD:R_0402_1005Metric" (at 55.88 46.99 0)
      (effects (font (size 1.27 1.27)) hide)
    )
    (property "Datasheet" "~" (at 55.88 46.99 0)
      (effects (font (size 1.27 1.27)) hide)
    )
    (pin "1" (uuid 0481e5a3-f8a8-4549-ae97-9d57d7ddd6c8))
    (pin "2" (uuid c960927c-69a6-4ef4-950c-5133693e47f8))
    (instances
      (project "control"
        (path "/e63e39d7-6ac0-4ffd-8aa3-1841a4541b55"
          (reference "R12") (unit 1)
        )
        (path "/e63e39d7-6ac0-4ffd-8aa3-1841a4541b55/f5b155db-a48d-4f61-acb2-044b9a21eef7"
          (reference "R71") (unit 1)
        )
      )
    )
  )

  (symbol (lib_id "power:+3.3V") (at 110.49 27.94 0) (unit 1)
    (in_bom yes) (on_board yes) (dnp no) (fields_autoplaced)
    (uuid 16fb0772-8f04-4ed0-8729-109233f358d8)
    (property "Reference" "#PWR011" (at 110.49 31.75 0)
      (effects (font (size 1.27 1.27)) hide)
    )
    (property "Value" "+3.3V" (at 110.49 22.86 0)
      (effects (font (size 1.27 1.27)))
    )
    (property "Footprint" "" (at 110.49 27.94 0)
      (effects (font (size 1.27 1.27)) hide)
    )
    (property "Datasheet" "" (at 110.49 27.94 0)
      (effects (font (size 1.27 1.27)) hide)
    )
    (pin "1" (uuid b9657b4b-86c8-4f9d-9345-1b6fa6e7ab38))
    (instances
      (project "control"
        (path "/e63e39d7-6ac0-4ffd-8aa3-1841a4541b55"
          (reference "#PWR011") (unit 1)
        )
        (path "/e63e39d7-6ac0-4ffd-8aa3-1841a4541b55/f5b155db-a48d-4f61-acb2-044b9a21eef7"
          (reference "#PWR0103") (unit 1)
        )
      )
    )
  )

  (symbol (lib_id "AT-Switches:SPST_12-34") (at 36.83 99.06 0) (unit 1)
    (in_bom yes) (on_board yes) (dnp no)
    (uuid 33af06d2-19c1-43aa-93c9-ead1671dbf27)
    (property "Reference" "SW2" (at 36.83 92.71 0)
      (effects (font (size 1.27 1.27)))
    )
    (property "Value" "B3F-1000" (at 36.83 105.41 0)
      (effects (font (size 1.27 1.27)))
    )
    (property "Footprint" "AT-Switches:B3F-1000" (at 36.83 99.06 0)
      (effects (font (size 1.27 1.27)) hide)
    )
    (property "Datasheet" "" (at 36.83 99.06 0)
      (effects (font (size 1.27 1.27)) hide)
    )
    (pin "1" (uuid bb4b0e6a-bf9c-4191-975f-a8f61f06c1ae))
    (pin "2" (uuid 28ca4f55-4d2d-40af-8c6b-96ac7e6c068b))
    (pin "3" (uuid 952ee9be-fc1a-4a54-ab23-ac731f008efb))
    (pin "4" (uuid d4128a57-31fe-4143-8533-c677b35eab9d))
    (instances
      (project "control"
        (path "/e63e39d7-6ac0-4ffd-8aa3-1841a4541b55"
          (reference "SW2") (unit 1)
        )
        (path "/e63e39d7-6ac0-4ffd-8aa3-1841a4541b55/f5b155db-a48d-4f61-acb2-044b9a21eef7"
          (reference "SW4") (unit 1)
        )
      )
    )
  )

  (symbol (lib_id "Device:R_Small_US") (at 162.56 55.88 180) (unit 1)
    (in_bom yes) (on_board yes) (dnp no)
    (uuid 3c6f1941-763b-4684-a446-c29e9dcfa12a)
    (property "Reference" "R2" (at 161.29 54.61 90)
      (effects (font (size 1.27 1.27)) (justify right))
    )
    (property "Value" "4.7k" (at 161.29 62.23 90)
      (effects (font (size 1.27 1.27)) (justify right))
    )
    (property "Footprint" "Resistor_SMD:R_0402_1005Metric" (at 162.56 55.88 0)
      (effects (font (size 1.27 1.27)) hide)
    )
    (property "Datasheet" "~" (at 162.56 55.88 0)
      (effects (font (size 1.27 1.27)) hide)
    )
    (pin "1" (uuid 89e11946-5e4a-41f2-914c-d0bf7f698c36))
    (pin "2" (uuid 429981b3-90ed-4f4e-8ce1-a779479b6681))
    (instances
      (project "control"
        (path "/e63e39d7-6ac0-4ffd-8aa3-1841a4541b55"
          (reference "R2") (unit 1)
        )
        (path "/e63e39d7-6ac0-4ffd-8aa3-1841a4541b55/f5b155db-a48d-4f61-acb2-044b9a21eef7"
          (reference "R81") (unit 1)
        )
      )
    )
  )

  (symbol (lib_id "power:GND") (at 41.91 58.42 0) (unit 1)
    (in_bom yes) (on_board yes) (dnp no) (fields_autoplaced)
    (uuid 3fce9d8e-ba47-4045-81e3-4d7f0676df78)
    (property "Reference" "#PWR012" (at 41.91 64.77 0)
      (effects (font (size 1.27 1.27)) hide)
    )
    (property "Value" "GND" (at 41.91 63.5 0)
      (effects (font (size 1.27 1.27)))
    )
    (property "Footprint" "" (at 41.91 58.42 0)
      (effects (font (size 1.27 1.27)) hide)
    )
    (property "Datasheet" "" (at 41.91 58.42 0)
      (effects (font (size 1.27 1.27)) hide)
    )
    (pin "1" (uuid 810d957f-2886-42b3-8a59-03f29e1e02e6))
    (instances
      (project "control"
        (path "/e63e39d7-6ac0-4ffd-8aa3-1841a4541b55"
          (reference "#PWR012") (unit 1)
        )
        (path "/e63e39d7-6ac0-4ffd-8aa3-1841a4541b55/f5b155db-a48d-4f61-acb2-044b9a21eef7"
          (reference "#PWR098") (unit 1)
        )
      )
    )
  )

  (symbol (lib_id "Device:R_Small_US") (at 158.75 55.88 180) (unit 1)
    (in_bom yes) (on_board yes) (dnp no)
    (uuid 41d0a914-761f-4aff-9329-8da508cd92e5)
    (property "Reference" "R2" (at 157.48 54.61 90)
      (effects (font (size 1.27 1.27)) (justify right))
    )
    (property "Value" "4.7k" (at 157.48 62.23 90)
      (effects (font (size 1.27 1.27)) (justify right))
    )
    (property "Footprint" "Resistor_SMD:R_0402_1005Metric" (at 158.75 55.88 0)
      (effects (font (size 1.27 1.27)) hide)
    )
    (property "Datasheet" "~" (at 158.75 55.88 0)
      (effects (font (size 1.27 1.27)) hide)
    )
    (pin "1" (uuid 152c2148-3e2b-484a-9cef-2407796738f1))
    (pin "2" (uuid c579e001-f41c-41de-a3b7-8fe011729ffe))
    (instances
      (project "control"
        (path "/e63e39d7-6ac0-4ffd-8aa3-1841a4541b55"
          (reference "R2") (unit 1)
        )
        (path "/e63e39d7-6ac0-4ffd-8aa3-1841a4541b55/f5b155db-a48d-4f61-acb2-044b9a21eef7"
          (reference "R80") (unit 1)
        )
      )
    )
  )

  (symbol (lib_id "power:GND") (at 154.94 60.96 0) (unit 1)
    (in_bom yes) (on_board yes) (dnp no) (fields_autoplaced)
    (uuid 428bf5ff-3ae7-47cf-9d6b-59737c2056d0)
    (property "Reference" "#PWR012" (at 154.94 67.31 0)
      (effects (font (size 1.27 1.27)) hide)
    )
    (property "Value" "GND" (at 154.94 66.04 0)
      (effects (font (size 1.27 1.27)))
    )
    (property "Footprint" "" (at 154.94 60.96 0)
      (effects (font (size 1.27 1.27)) hide)
    )
    (property "Datasheet" "" (at 154.94 60.96 0)
      (effects (font (size 1.27 1.27)) hide)
    )
    (pin "1" (uuid b6ae6506-4d46-472d-b696-1335e8ae9840))
    (instances
      (project "control"
        (path "/e63e39d7-6ac0-4ffd-8aa3-1841a4541b55"
          (reference "#PWR012") (unit 1)
        )
        (path "/e63e39d7-6ac0-4ffd-8aa3-1841a4541b55/f5b155db-a48d-4f61-acb2-044b9a21eef7"
          (reference "#PWR0108") (unit 1)
        )
      )
    )
  )

  (symbol (lib_id "Device:R_Small_US") (at 166.37 55.88 180) (unit 1)
    (in_bom yes) (on_board yes) (dnp no)
    (uuid 446087fb-543a-44e0-acbf-c989e9297516)
    (property "Reference" "R2" (at 165.1 54.61 90)
      (effects (font (size 1.27 1.27)) (justify right))
    )
    (property "Value" "4.7k" (at 165.1 62.23 90)
      (effects (font (size 1.27 1.27)) (justify right))
    )
    (property "Footprint" "Resistor_SMD:R_0402_1005Metric" (at 166.37 55.88 0)
      (effects (font (size 1.27 1.27)) hide)
    )
    (property "Datasheet" "~" (at 166.37 55.88 0)
      (effects (font (size 1.27 1.27)) hide)
    )
    (pin "1" (uuid 8516f06e-3f3c-4e02-affb-beeabbfa5763))
    (pin "2" (uuid 3c39cd73-dbc2-431d-a275-6cac15d917eb))
    (instances
      (project "control"
        (path "/e63e39d7-6ac0-4ffd-8aa3-1841a4541b55"
          (reference "R2") (unit 1)
        )
        (path "/e63e39d7-6ac0-4ffd-8aa3-1841a4541b55/f5b155db-a48d-4f61-acb2-044b9a21eef7"
          (reference "R82") (unit 1)
        )
      )
    )
  )

  (symbol (lib_id "power:+3.3V") (at 72.39 83.82 0) (unit 1)
    (in_bom yes) (on_board yes) (dnp no) (fields_autoplaced)
    (uuid 45895700-f43e-422c-884f-ccad2e3f1899)
    (property "Reference" "#PWR03" (at 72.39 87.63 0)
      (effects (font (size 1.27 1.27)) hide)
    )
    (property "Value" "+3.3V" (at 72.39 78.74 0)
      (effects (font (size 1.27 1.27)))
    )
    (property "Footprint" "" (at 72.39 83.82 0)
      (effects (font (size 1.27 1.27)) hide)
    )
    (property "Datasheet" "" (at 72.39 83.82 0)
      (effects (font (size 1.27 1.27)) hide)
    )
    (pin "1" (uuid ddc74038-bd75-4fc3-b421-01ce5a9a038e))
    (instances
      (project "control"
        (path "/e63e39d7-6ac0-4ffd-8aa3-1841a4541b55"
          (reference "#PWR03") (unit 1)
        )
        (path "/e63e39d7-6ac0-4ffd-8aa3-1841a4541b55/f5b155db-a48d-4f61-acb2-044b9a21eef7"
          (reference "#PWR0101") (unit 1)
        )
      )
    )
  )

  (symbol (lib_id "power:GND") (at 38.1 58.42 0) (unit 1)
    (in_bom yes) (on_board yes) (dnp no) (fields_autoplaced)
    (uuid 4a815211-0ad3-45ca-bd88-4bc5342690b8)
    (property "Reference" "#PWR012" (at 38.1 64.77 0)
      (effects (font (size 1.27 1.27)) hide)
    )
    (property "Value" "GND" (at 38.1 63.5 0)
      (effects (font (size 1.27 1.27)))
    )
    (property "Footprint" "" (at 38.1 58.42 0)
      (effects (font (size 1.27 1.27)) hide)
    )
    (property "Datasheet" "" (at 38.1 58.42 0)
      (effects (font (size 1.27 1.27)) hide)
    )
    (pin "1" (uuid 224515c7-60a1-4912-ba78-5a63ae36ffdd))
    (instances
      (project "control"
        (path "/e63e39d7-6ac0-4ffd-8aa3-1841a4541b55"
          (reference "#PWR012") (unit 1)
        )
        (path "/e63e39d7-6ac0-4ffd-8aa3-1841a4541b55/f5b155db-a48d-4f61-acb2-044b9a21eef7"
          (reference "#PWR097") (unit 1)
        )
      )
    )
  )

  (symbol (lib_id "Device:R_Small_US") (at 171.45 38.1 90) (unit 1)
    (in_bom yes) (on_board yes) (dnp no)
    (uuid 4b77ead7-174b-49cb-81e8-d54049186e2e)
    (property "Reference" "R16" (at 175.26 36.83 90)
      (effects (font (size 1.27 1.27)))
    )
    (property "Value" "100" (at 167.64 36.83 90)
      (effects (font (size 1.27 1.27)))
    )
    (property "Footprint" "Resistor_SMD:R_0402_1005Metric" (at 171.45 38.1 0)
      (effects (font (size 1.27 1.27)) hide)
    )
    (property "Datasheet" "~" (at 171.45 38.1 0)
      (effects (font (size 1.27 1.27)) hide)
    )
    (pin "1" (uuid d667b83e-130b-4d10-a75e-83a15b7a3bd9))
    (pin "2" (uuid 781d95a1-f5f4-40b3-a548-f3b8f45123da))
    (instances
      (project "control"
        (path "/e63e39d7-6ac0-4ffd-8aa3-1841a4541b55"
          (reference "R16") (unit 1)
        )
        (path "/e63e39d7-6ac0-4ffd-8aa3-1841a4541b55/f5b155db-a48d-4f61-acb2-044b9a21eef7"
          (reference "R86") (unit 1)
        )
      )
    )
  )

  (symbol (lib_id "power:GND") (at 45.72 58.42 0) (unit 1)
    (in_bom yes) (on_board yes) (dnp no) (fields_autoplaced)
    (uuid 4bf9ca43-a6e8-49ce-8900-4f30a09906a9)
    (property "Reference" "#PWR012" (at 45.72 64.77 0)
      (effects (font (size 1.27 1.27)) hide)
    )
    (property "Value" "GND" (at 45.72 63.5 0)
      (effects (font (size 1.27 1.27)))
    )
    (property "Footprint" "" (at 45.72 58.42 0)
      (effects (font (size 1.27 1.27)) hide)
    )
    (property "Datasheet" "" (at 45.72 58.42 0)
      (effects (font (size 1.27 1.27)) hide)
    )
    (pin "1" (uuid 8ee164b6-000d-4f29-b8a8-4f2dac4b2a36))
    (instances
      (project "control"
        (path "/e63e39d7-6ac0-4ffd-8aa3-1841a4541b55"
          (reference "#PWR012") (unit 1)
        )
        (path "/e63e39d7-6ac0-4ffd-8aa3-1841a4541b55/f5b155db-a48d-4f61-acb2-044b9a21eef7"
          (reference "#PWR099") (unit 1)
        )
      )
    )
  )

  (symbol (lib_id "power:GND") (at 72.39 109.22 0) (unit 1)
    (in_bom yes) (on_board yes) (dnp no) (fields_autoplaced)
    (uuid 4c0f2ac5-1fb9-4bea-a718-ab82f752f938)
    (property "Reference" "#PWR04" (at 72.39 115.57 0)
      (effects (font (size 1.27 1.27)) hide)
    )
    (property "Value" "GND" (at 72.39 114.3 0)
      (effects (font (size 1.27 1.27)))
    )
    (property "Footprint" "" (at 72.39 109.22 0)
      (effects (font (size 1.27 1.27)) hide)
    )
    (property "Datasheet" "" (at 72.39 109.22 0)
      (effects (font (size 1.27 1.27)) hide)
    )
    (pin "1" (uuid b1b32d3f-db18-4684-90fd-365055aaba7d))
    (instances
      (project "control"
        (path "/e63e39d7-6ac0-4ffd-8aa3-1841a4541b55"
          (reference "#PWR04") (unit 1)
        )
        (path "/e63e39d7-6ac0-4ffd-8aa3-1841a4541b55/f5b155db-a48d-4f61-acb2-044b9a21eef7"
          (reference "#PWR0102") (unit 1)
        )
      )
    )
  )

  (symbol (lib_id "Device:R_Small_US") (at 55.88 41.91 90) (unit 1)
    (in_bom yes) (on_board yes) (dnp no)
    (uuid 4f4eaf11-b1cd-47b7-9320-b8eb739d027c)
    (property "Reference" "R10" (at 59.69 40.64 90)
      (effects (font (size 1.27 1.27)))
    )
    (property "Value" "100" (at 52.07 40.64 90)
      (effects (font (size 1.27 1.27)))
    )
    (property "Footprint" "Resistor_SMD:R_0402_1005Metric" (at 55.88 41.91 0)
      (effects (font (size 1.27 1.27)) hide)
    )
    (property "Datasheet" "~" (at 55.88 41.91 0)
      (effects (font (size 1.27 1.27)) hide)
    )
    (pin "1" (uuid f4c55f23-0afe-4298-86db-55d880a96c6e))
    (pin "2" (uuid 49b2c7c1-87fc-4f00-bb92-689678e88ebb))
    (instances
      (project "control"
        (path "/e63e39d7-6ac0-4ffd-8aa3-1841a4541b55"
          (reference "R10") (unit 1)
        )
        (path "/e63e39d7-6ac0-4ffd-8aa3-1841a4541b55/f5b155db-a48d-4f61-acb2-044b9a21eef7"
          (reference "R69") (unit 1)
        )
      )
    )
  )

  (symbol (lib_id "Device:R_Small_US") (at 171.45 40.64 90) (unit 1)
    (in_bom yes) (on_board yes) (dnp no)
    (uuid 5207997e-668f-4fff-97c5-e3ba302c65ab)
    (property "Reference" "R17" (at 175.26 39.37 90)
      (effects (font (size 1.27 1.27)))
    )
    (property "Value" "100" (at 167.64 39.37 90)
      (effects (font (size 1.27 1.27)))
    )
    (property "Footprint" "Resistor_SMD:R_0402_1005Metric" (at 171.45 40.64 0)
      (effects (font (size 1.27 1.27)) hide)
    )
    (property "Datasheet" "~" (at 171.45 40.64 0)
      (effects (font (size 1.27 1.27)) hide)
    )
    (pin "1" (uuid 71762eb4-df4a-4f11-9b43-8470a13b1f71))
    (pin "2" (uuid f415395c-148f-4fd0-aca0-fbeba3b64f85))
    (instances
      (project "control"
        (path "/e63e39d7-6ac0-4ffd-8aa3-1841a4541b55"
          (reference "R17") (unit 1)
        )
        (path "/e63e39d7-6ac0-4ffd-8aa3-1841a4541b55/f5b155db-a48d-4f61-acb2-044b9a21eef7"
          (reference "R87") (unit 1)
        )
      )
    )
  )

  (symbol (lib_id "power:GND") (at 143.51 60.96 0) (unit 1)
    (in_bom yes) (on_board yes) (dnp no) (fields_autoplaced)
    (uuid 569f78f9-ce1b-413e-8729-a3f841c3118d)
    (property "Reference" "#PWR012" (at 143.51 67.31 0)
      (effects (font (size 1.27 1.27)) hide)
    )
    (property "Value" "GND" (at 143.51 66.04 0)
      (effects (font (size 1.27 1.27)))
    )
    (property "Footprint" "" (at 143.51 60.96 0)
      (effects (font (size 1.27 1.27)) hide)
    )
    (property "Datasheet" "" (at 143.51 60.96 0)
      (effects (font (size 1.27 1.27)) hide)
    )
    (pin "1" (uuid 28b06068-298d-4571-8280-e4adec73d8ca))
    (instances
      (project "control"
        (path "/e63e39d7-6ac0-4ffd-8aa3-1841a4541b55"
          (reference "#PWR012") (unit 1)
        )
        (path "/e63e39d7-6ac0-4ffd-8aa3-1841a4541b55/f5b155db-a48d-4f61-acb2-044b9a21eef7"
          (reference "#PWR0105") (unit 1)
        )
      )
    )
  )

  (symbol (lib_id "power:GND") (at 158.75 60.96 0) (unit 1)
    (in_bom yes) (on_board yes) (dnp no) (fields_autoplaced)
    (uuid 64274678-68f0-4f84-af58-44e5a7bfeb41)
    (property "Reference" "#PWR012" (at 158.75 67.31 0)
      (effects (font (size 1.27 1.27)) hide)
    )
    (property "Value" "GND" (at 158.75 66.04 0)
      (effects (font (size 1.27 1.27)))
    )
    (property "Footprint" "" (at 158.75 60.96 0)
      (effects (font (size 1.27 1.27)) hide)
    )
    (property "Datasheet" "" (at 158.75 60.96 0)
      (effects (font (size 1.27 1.27)) hide)
    )
    (pin "1" (uuid 850b8fa5-301c-47d5-902c-a4f173fb60eb))
    (instances
      (project "control"
        (path "/e63e39d7-6ac0-4ffd-8aa3-1841a4541b55"
          (reference "#PWR012") (unit 1)
        )
        (path "/e63e39d7-6ac0-4ffd-8aa3-1841a4541b55/f5b155db-a48d-4f61-acb2-044b9a21eef7"
          (reference "#PWR0109") (unit 1)
        )
      )
    )
  )

  (symbol (lib_id "Device:C_Small") (at 72.39 99.06 0) (mirror y) (unit 1)
    (in_bom yes) (on_board yes) (dnp no)
    (uuid 6c5808eb-417c-4a4a-bc33-adbbef7609db)
    (property "Reference" "C2" (at 71.12 96.52 0)
      (effects (font (size 1.27 1.27)) (justify left))
    )
    (property "Value" "0.1uF 63V" (at 71.12 101.6 0)
      (effects (font (size 1.27 1.27)) (justify left))
    )
    (property "Footprint" "Capacitor_SMD:C_0402_1005Metric" (at 72.39 99.06 0)
      (effects (font (size 1.27 1.27)) hide)
    )
    (property "Datasheet" "~" (at 72.39 99.06 0)
      (effects (font (size 1.27 1.27)) hide)
    )
    (pin "1" (uuid e3349974-54d5-4480-9d15-cfe822e2010a))
    (pin "2" (uuid f3f3855b-ea90-41ff-bc79-2ec76a8ad076))
    (instances
      (project "control"
        (path "/e63e39d7-6ac0-4ffd-8aa3-1841a4541b55"
          (reference "C2") (unit 1)
        )
        (path "/e63e39d7-6ac0-4ffd-8aa3-1841a4541b55/f5b155db-a48d-4f61-acb2-044b9a21eef7"
          (reference "C32") (unit 1)
        )
      )
    )
  )

  (symbol (lib_id "Device:R_Small_US") (at 154.94 55.88 180) (unit 1)
    (in_bom yes) (on_board yes) (dnp no)
    (uuid 71cbb71c-d046-4925-a02d-49935dc27f4e)
    (property "Reference" "R2" (at 153.67 54.61 90)
      (effects (font (size 1.27 1.27)) (justify right))
    )
    (property "Value" "4.7k" (at 153.67 62.23 90)
      (effects (font (size 1.27 1.27)) (justify right))
    )
    (property "Footprint" "Resistor_SMD:R_0402_1005Metric" (at 154.94 55.88 0)
      (effects (font (size 1.27 1.27)) hide)
    )
    (property "Datasheet" "~" (at 154.94 55.88 0)
      (effects (font (size 1.27 1.27)) hide)
    )
    (pin "1" (uuid 8d33be61-889a-463e-9ee5-a0e63839ed95))
    (pin "2" (uuid 7ca891b4-aa4f-49d3-8214-5cce8f90a932))
    (instances
      (project "control"
        (path "/e63e39d7-6ac0-4ffd-8aa3-1841a4541b55"
          (reference "R2") (unit 1)
        )
        (path "/e63e39d7-6ac0-4ffd-8aa3-1841a4541b55/f5b155db-a48d-4f61-acb2-044b9a21eef7"
          (reference "R79") (unit 1)
        )
      )
    )
  )

  (symbol (lib_id "power:GND") (at 26.67 109.22 0) (unit 1)
    (in_bom yes) (on_board yes) (dnp no) (fields_autoplaced)
    (uuid 7f013448-9f3f-4fdf-8192-22261442392d)
    (property "Reference" "#PWR02" (at 26.67 115.57 0)
      (effects (font (size 1.27 1.27)) hide)
    )
    (property "Value" "GND" (at 26.67 114.3 0)
      (effects (font (size 1.27 1.27)))
    )
    (property "Footprint" "" (at 26.67 109.22 0)
      (effects (font (size 1.27 1.27)) hide)
    )
    (property "Datasheet" "" (at 26.67 109.22 0)
      (effects (font (size 1.27 1.27)) hide)
    )
    (pin "1" (uuid cec924f4-cc75-4de1-b785-105a16925e0d))
    (instances
      (project "control"
        (path "/e63e39d7-6ac0-4ffd-8aa3-1841a4541b55"
          (reference "#PWR02") (unit 1)
        )
        (path "/e63e39d7-6ac0-4ffd-8aa3-1841a4541b55/f5b155db-a48d-4f61-acb2-044b9a21eef7"
          (reference "#PWR095") (unit 1)
        )
      )
    )
  )

  (symbol (lib_id "Device:R_Small_US") (at 72.39 88.9 180) (unit 1)
    (in_bom yes) (on_board yes) (dnp no) (fields_autoplaced)
    (uuid 852d78ef-e030-4326-a145-ac800eda495a)
    (property "Reference" "R2" (at 74.93 88.265 0)
      (effects (font (size 1.27 1.27)) (justify right))
    )
    (property "Value" "4.7k" (at 74.93 90.805 0)
      (effects (font (size 1.27 1.27)) (justify right))
    )
    (property "Footprint" "Resistor_SMD:R_0402_1005Metric" (at 72.39 88.9 0)
      (effects (font (size 1.27 1.27)) hide)
    )
    (property "Datasheet" "~" (at 72.39 88.9 0)
      (effects (font (size 1.27 1.27)) hide)
    )
    (pin "1" (uuid 608d1451-4f14-4c27-b91e-95c31491fbe9))
    (pin "2" (uuid 2aff9e30-f609-401c-952d-ba2edc5b3df8))
    (instances
      (project "control"
        (path "/e63e39d7-6ac0-4ffd-8aa3-1841a4541b55"
          (reference "R2") (unit 1)
        )
        (path "/e63e39d7-6ac0-4ffd-8aa3-1841a4541b55/f5b155db-a48d-4f61-acb2-044b9a21eef7"
          (reference "R72") (unit 1)
        )
      )
    )
  )

  (symbol (lib_id "power:+3.3V") (at 26.67 83.82 0) (unit 1)
    (in_bom yes) (on_board yes) (dnp no) (fields_autoplaced)
    (uuid 8d101ec0-09f3-4144-b8dd-8d78a6fe8d74)
    (property "Reference" "#PWR01" (at 26.67 87.63 0)
      (effects (font (size 1.27 1.27)) hide)
    )
    (property "Value" "+3.3V" (at 26.67 78.74 0)
      (effects (font (size 1.27 1.27)))
    )
    (property "Footprint" "" (at 26.67 83.82 0)
      (effects (font (size 1.27 1.27)) hide)
    )
    (property "Datasheet" "" (at 26.67 83.82 0)
      (effects (font (size 1.27 1.27)) hide)
    )
    (pin "1" (uuid f738c9d4-f9bd-4e4f-9077-6d3934be111e))
    (instances
      (project "control"
        (path "/e63e39d7-6ac0-4ffd-8aa3-1841a4541b55"
          (reference "#PWR01") (unit 1)
        )
        (path "/e63e39d7-6ac0-4ffd-8aa3-1841a4541b55/f5b155db-a48d-4f61-acb2-044b9a21eef7"
          (reference "#PWR094") (unit 1)
        )
      )
    )
  )

  (symbol (lib_id "Device:C_Small") (at 26.67 99.06 0) (mirror y) (unit 1)
    (in_bom yes) (on_board yes) (dnp no)
    (uuid 948e18e9-479b-496d-9f65-e34d4958e450)
    (property "Reference" "C1" (at 25.4 96.52 0)
      (effects (font (size 1.27 1.27)) (justify left))
    )
    (property "Value" "0.1uF 63V" (at 25.4 101.6 0)
      (effects (font (size 1.27 1.27)) (justify left))
    )
    (property "Footprint" "Capacitor_SMD:C_0402_1005Metric" (at 26.67 99.06 0)
      (effects (font (size 1.27 1.27)) hide)
    )
    (property "Datasheet" "~" (at 26.67 99.06 0)
      (effects (font (size 1.27 1.27)) hide)
    )
    (pin "1" (uuid 231432e4-877a-4c5a-b9c5-2fb0c684ee74))
    (pin "2" (uuid b1fe077a-b8d1-405f-8d7c-f4a3f61b6a2a))
    (instances
      (project "control"
        (path "/e63e39d7-6ac0-4ffd-8aa3-1841a4541b55"
          (reference "C1") (unit 1)
        )
        (path "/e63e39d7-6ac0-4ffd-8aa3-1841a4541b55/f5b155db-a48d-4f61-acb2-044b9a21eef7"
          (reference "C31") (unit 1)
        )
      )
    )
  )

  (symbol (lib_id "power:+3.3V") (at 38.1 35.56 0) (unit 1)
    (in_bom yes) (on_board yes) (dnp no) (fields_autoplaced)
    (uuid 94ce5a48-8384-4e25-8b63-37c92893aad8)
    (property "Reference" "#PWR016" (at 38.1 39.37 0)
      (effects (font (size 1.27 1.27)) hide)
    )
    (property "Value" "+3.3V" (at 38.1 30.48 0)
      (effects (font (size 1.27 1.27)))
    )
    (property "Footprint" "" (at 38.1 35.56 0)
      (effects (font (size 1.27 1.27)) hide)
    )
    (property "Datasheet" "" (at 38.1 35.56 0)
      (effects (font (size 1.27 1.27)) hide)
    )
    (pin "1" (uuid d6ee4c28-c7c1-4c35-8563-9e0728856884))
    (instances
      (project "control"
        (path "/e63e39d7-6ac0-4ffd-8aa3-1841a4541b55"
          (reference "#PWR016") (unit 1)
        )
        (path "/e63e39d7-6ac0-4ffd-8aa3-1841a4541b55/f5b155db-a48d-4f61-acb2-044b9a21eef7"
          (reference "#PWR096") (unit 1)
        )
      )
    )
  )

  (symbol (lib_id "Device:R_Small_US") (at 171.45 35.56 90) (unit 1)
    (in_bom yes) (on_board yes) (dnp no)
    (uuid 966fd18b-15ee-4499-bb88-485586c50773)
    (property "Reference" "R15" (at 175.26 34.29 90)
      (effects (font (size 1.27 1.27)))
    )
    (property "Value" "100" (at 167.64 34.29 90)
      (effects (font (size 1.27 1.27)))
    )
    (property "Footprint" "Resistor_SMD:R_0402_1005Metric" (at 171.45 35.56 0)
      (effects (font (size 1.27 1.27)) hide)
    )
    (property "Datasheet" "~" (at 171.45 35.56 0)
      (effects (font (size 1.27 1.27)) hide)
    )
    (pin "1" (uuid 764cd250-7d73-48b1-8303-a1dbfe58bc27))
    (pin "2" (uuid 08688f2c-8dd5-4d15-a5d5-bf6da8265371))
    (instances
      (project "control"
        (path "/e63e39d7-6ac0-4ffd-8aa3-1841a4541b55"
          (reference "R15") (unit 1)
        )
        (path "/e63e39d7-6ac0-4ffd-8aa3-1841a4541b55/f5b155db-a48d-4f61-acb2-044b9a21eef7"
          (reference "R85") (unit 1)
        )
      )
    )
  )

  (symbol (lib_id "Device:R_Small_US") (at 95.25 96.52 90) (unit 1)
    (in_bom yes) (on_board yes) (dnp no) (fields_autoplaced)
    (uuid 9e4347ff-9d06-4ec6-84f4-6e693aa04924)
    (property "Reference" "R6" (at 95.25 90.17 90)
      (effects (font (size 1.27 1.27)))
    )
    (property "Value" "100" (at 95.25 92.71 90)
      (effects (font (size 1.27 1.27)))
    )
    (property "Footprint" "Resistor_SMD:R_0402_1005Metric" (at 95.25 96.52 0)
      (effects (font (size 1.27 1.27)) hide)
    )
    (property "Datasheet" "~" (at 95.25 96.52 0)
      (effects (font (size 1.27 1.27)) hide)
    )
    (pin "1" (uuid 310e7a0f-8dc7-4b4b-8656-af6b40755b49))
    (pin "2" (uuid 9a53f78f-6fa1-4c42-9529-bc3c69302cbe))
    (instances
      (project "control"
        (path "/e63e39d7-6ac0-4ffd-8aa3-1841a4541b55"
          (reference "R6") (unit 1)
        )
        (path "/e63e39d7-6ac0-4ffd-8aa3-1841a4541b55/f5b155db-a48d-4f61-acb2-044b9a21eef7"
          (reference "R73") (unit 1)
        )
      )
    )
  )

  (symbol (lib_id "power:GND") (at 162.56 60.96 0) (unit 1)
    (in_bom yes) (on_board yes) (dnp no) (fields_autoplaced)
    (uuid a458faeb-9b60-4c05-b910-b22022825d50)
    (property "Reference" "#PWR012" (at 162.56 67.31 0)
      (effects (font (size 1.27 1.27)) hide)
    )
    (property "Value" "GND" (at 162.56 66.04 0)
      (effects (font (size 1.27 1.27)))
    )
    (property "Footprint" "" (at 162.56 60.96 0)
      (effects (font (size 1.27 1.27)) hide)
    )
    (property "Datasheet" "" (at 162.56 60.96 0)
      (effects (font (size 1.27 1.27)) hide)
    )
    (pin "1" (uuid a81a85e9-6093-4219-8659-e8a4ff23fcf4))
    (instances
      (project "control"
        (path "/e63e39d7-6ac0-4ffd-8aa3-1841a4541b55"
          (reference "#PWR012") (unit 1)
        )
        (path "/e63e39d7-6ac0-4ffd-8aa3-1841a4541b55/f5b155db-a48d-4f61-acb2-044b9a21eef7"
          (reference "#PWR0110") (unit 1)
        )
      )
    )
  )

  (symbol (lib_id "Device:R_Small_US") (at 38.1 53.34 180) (unit 1)
    (in_bom yes) (on_board yes) (dnp no)
    (uuid a50dd27b-0e9b-4b79-8237-ea559316c3c8)
    (property "Reference" "R2" (at 36.83 52.07 90)
      (effects (font (size 1.27 1.27)) (justify right))
    )
    (property "Value" "4.7k" (at 36.83 59.69 90)
      (effects (font (size 1.27 1.27)) (justify right))
    )
    (property "Footprint" "Resistor_SMD:R_0402_1005Metric" (at 38.1 53.34 0)
      (effects (font (size 1.27 1.27)) hide)
    )
    (property "Datasheet" "~" (at 38.1 53.34 0)
      (effects (font (size 1.27 1.27)) hide)
    )
    (pin "1" (uuid 378b2fb8-eaed-4756-bbc5-23c8fc54c89d))
    (pin "2" (uuid a65cac16-5c81-43e9-b6f3-fc8f58809517))
    (instances
      (project "control"
        (path "/e63e39d7-6ac0-4ffd-8aa3-1841a4541b55"
          (reference "R2") (unit 1)
        )
        (path "/e63e39d7-6ac0-4ffd-8aa3-1841a4541b55/f5b155db-a48d-4f61-acb2-044b9a21eef7"
          (reference "R63") (unit 1)
        )
      )
    )
  )

  (symbol (lib_id "Device:R_Small_US") (at 147.32 55.88 180) (unit 1)
    (in_bom yes) (on_board yes) (dnp no)
    (uuid b90bbcbe-10b6-4693-8fa3-5fcbd14ca79c)
    (property "Reference" "R2" (at 146.05 54.61 90)
      (effects (font (size 1.27 1.27)) (justify right))
    )
    (property "Value" "4.7k" (at 146.05 62.23 90)
      (effects (font (size 1.27 1.27)) (justify right))
    )
    (property "Footprint" "Resistor_SMD:R_0402_1005Metric" (at 147.32 55.88 0)
      (effects (font (size 1.27 1.27)) hide)
    )
    (property "Datasheet" "~" (at 147.32 55.88 0)
      (effects (font (size 1.27 1.27)) hide)
    )
    (pin "1" (uuid 57be2f30-88cd-4cb6-a786-68206c62cee3))
    (pin "2" (uuid dcba2c22-88fe-48f9-bd00-dfcd9789f7ae))
    (instances
      (project "control"
        (path "/e63e39d7-6ac0-4ffd-8aa3-1841a4541b55"
          (reference "R2") (unit 1)
        )
        (path "/e63e39d7-6ac0-4ffd-8aa3-1841a4541b55/f5b155db-a48d-4f61-acb2-044b9a21eef7"
          (reference "R77") (unit 1)
        )
      )
    )
  )

  (symbol (lib_id "AT-Switches:221ADC16") (at 26.67 41.91 0) (unit 1)
    (in_bom yes) (on_board yes) (dnp no) (fields_autoplaced)
    (uuid bd90cbb9-4bcf-4b01-bcbe-6651fb8d2c78)
    (property "Reference" "SW4" (at 27.305 30.48 0)
      (effects (font (size 1.27 1.27)))
    )
    (property "Value" "221ADC16" (at 27.305 33.02 0)
      (effects (font (size 1.27 1.27)))
    )
    (property "Footprint" "AT-Switches:221ADC16" (at 14.605 47.625 90)
      (effects (font (size 1.27 1.27)) hide)
    )
    (property "Datasheet" "https://www.ctscorp.com/wp-content/uploads/221.pdf" (at 14.605 47.625 90)
      (effects (font (size 1.27 1.27)) hide)
    )
    (pin "1" (uuid a61b9457-7cfa-4a9a-829b-54cf7bd1e35c))
    (pin "3" (uuid 616460ad-623a-4686-b1b3-108344aada8d))
    (pin "4" (uuid a068728f-c6cf-4679-b75f-3940aa9c2777))
    (pin "6" (uuid 72cdbb03-70e5-4554-aac0-46ee9e34ad5a))
    (pin "C" (uuid d861ba44-a7a4-4a3f-9417-a0d378158aab))
    (instances
      (project "control"
        (path "/e63e39d7-6ac0-4ffd-8aa3-1841a4541b55"
          (reference "SW4") (unit 1)
        )
        (path "/e63e39d7-6ac0-4ffd-8aa3-1841a4541b55/f5b155db-a48d-4f61-acb2-044b9a21eef7"
          (reference "SW3") (unit 1)
        )
      )
    )
  )

  (symbol (lib_id "power:GND") (at 151.13 60.96 0) (unit 1)
    (in_bom yes) (on_board yes) (dnp no) (fields_autoplaced)
    (uuid bfe3d93e-3f92-4a4a-af87-5a36111113ae)
    (property "Reference" "#PWR012" (at 151.13 67.31 0)
      (effects (font (size 1.27 1.27)) hide)
    )
    (property "Value" "GND" (at 151.13 66.04 0)
      (effects (font (size 1.27 1.27)))
    )
    (property "Footprint" "" (at 151.13 60.96 0)
      (effects (font (size 1.27 1.27)) hide)
    )
    (property "Datasheet" "" (at 151.13 60.96 0)
      (effects (font (size 1.27 1.27)) hide)
    )
    (pin "1" (uuid e43d6050-c79b-42c5-8a14-026a2fc36a3c))
    (instances
      (project "control"
        (path "/e63e39d7-6ac0-4ffd-8aa3-1841a4541b55"
          (reference "#PWR012") (unit 1)
        )
        (path "/e63e39d7-6ac0-4ffd-8aa3-1841a4541b55/f5b155db-a48d-4f61-acb2-044b9a21eef7"
          (reference "#PWR0107") (unit 1)
        )
      )
    )
  )

  (symbol (lib_id "Device:R_Small_US") (at 107.95 48.26 270) (mirror x) (unit 1)
    (in_bom yes) (on_board yes) (dnp no)
    (uuid c07f4feb-e475-4612-b27d-6e0072b0c7ad)
    (property "Reference" "R20" (at 104.14 46.99 90)
      (effects (font (size 1.27 1.27)))
    )
    (property "Value" "10k" (at 111.76 46.99 90)
      (effects (font (size 1.27 1.27)))
    )
    (property "Footprint" "Resistor_SMD:R_0402_1005Metric" (at 107.95 48.26 0)
      (effects (font (size 1.27 1.27)) hide)
    )
    (property "Datasheet" "~" (at 107.95 48.26 0)
      (effects (font (size 1.27 1.27)) hide)
    )
    (pin "1" (uuid 249e3efe-01fc-4883-befa-1cae5061e988))
    (pin "2" (uuid ccb080e1-c7f8-4d16-bbf4-30535503adde))
    (instances
      (project "control"
        (path "/e63e39d7-6ac0-4ffd-8aa3-1841a4541b55"
          (reference "R20") (unit 1)
        )
        (path "/e63e39d7-6ac0-4ffd-8aa3-1841a4541b55/f5b155db-a48d-4f61-acb2-044b9a21eef7"
          (reference "R74") (unit 1)
        )
      )
    )
  )

  (symbol (lib_id "Device:R_Small_US") (at 171.45 30.48 90) (unit 1)
    (in_bom yes) (on_board yes) (dnp no)
    (uuid c1749304-efaa-4e3d-b12d-342b12c43e81)
    (property "Reference" "R13" (at 175.26 29.21 90)
      (effects (font (size 1.27 1.27)))
    )
    (property "Value" "100" (at 167.64 29.21 90)
      (effects (font (size 1.27 1.27)))
    )
    (property "Footprint" "Resistor_SMD:R_0402_1005Metric" (at 171.45 30.48 0)
      (effects (font (size 1.27 1.27)) hide)
    )
    (property "Datasheet" "~" (at 171.45 30.48 0)
      (effects (font (size 1.27 1.27)) hide)
    )
    (pin "1" (uuid a1390a76-ccdb-4e40-8c41-0729e8fc57b8))
    (pin "2" (uuid fe91850b-ac50-4b0f-9f2a-24054461ebd9))
    (instances
      (project "control"
        (path "/e63e39d7-6ac0-4ffd-8aa3-1841a4541b55"
          (reference "R13") (unit 1)
        )
        (path "/e63e39d7-6ac0-4ffd-8aa3-1841a4541b55/f5b155db-a48d-4f61-acb2-044b9a21eef7"
          (reference "R83") (unit 1)
        )
      )
    )
  )

  (symbol (lib_id "Device:R_Small_US") (at 55.88 39.37 90) (unit 1)
    (in_bom yes) (on_board yes) (dnp no)
    (uuid c7df1233-beec-4614-a95f-83b1d85f1b37)
    (property "Reference" "R27" (at 59.69 38.1 90)
      (effects (font (size 1.27 1.27)))
    )
    (property "Value" "100" (at 52.07 38.1 90)
      (effects (font (size 1.27 1.27)))
    )
    (property "Footprint" "Resistor_SMD:R_0402_1005Metric" (at 55.88 39.37 0)
      (effects (font (size 1.27 1.27)) hide)
    )
    (property "Datasheet" "~" (at 55.88 39.37 0)
      (effects (font (size 1.27 1.27)) hide)
    )
    (pin "1" (uuid d31108d9-5d48-4d86-875f-9e826c046b5e))
    (pin "2" (uuid 78ae8ed4-a4a2-4b28-bd34-6435903a2dac))
    (instances
      (project "control"
        (path "/e63e39d7-6ac0-4ffd-8aa3-1841a4541b55"
          (reference "R27") (unit 1)
        )
        (path "/e63e39d7-6ac0-4ffd-8aa3-1841a4541b55/f5b155db-a48d-4f61-acb2-044b9a21eef7"
          (reference "R68") (unit 1)
        )
      )
    )
  )

  (symbol (lib_id "power:GND") (at 130.81 60.96 0) (unit 1)
    (in_bom yes) (on_board yes) (dnp no) (fields_autoplaced)
    (uuid d39adc2f-d22a-4efa-924d-e1c4c9608b79)
    (property "Reference" "#PWR012" (at 130.81 67.31 0)
      (effects (font (size 1.27 1.27)) hide)
    )
    (property "Value" "GND" (at 130.81 66.04 0)
      (effects (font (size 1.27 1.27)))
    )
    (property "Footprint" "" (at 130.81 60.96 0)
      (effects (font (size 1.27 1.27)) hide)
    )
    (property "Datasheet" "" (at 130.81 60.96 0)
      (effects (font (size 1.27 1.27)) hide)
    )
    (pin "1" (uuid 2f5d21ca-cf18-4cc0-a009-08c554e8c93b))
    (instances
      (project "control"
        (path "/e63e39d7-6ac0-4ffd-8aa3-1841a4541b55"
          (reference "#PWR012") (unit 1)
        )
        (path "/e63e39d7-6ac0-4ffd-8aa3-1841a4541b55/f5b155db-a48d-4f61-acb2-044b9a21eef7"
          (reference "#PWR0104") (unit 1)
        )
      )
    )
  )

  (symbol (lib_id "Device:R_Small_US") (at 41.91 53.34 180) (unit 1)
    (in_bom yes) (on_board yes) (dnp no)
    (uuid d5133d25-9f69-49c8-8db2-2c05cad8d917)
    (property "Reference" "R2" (at 40.64 52.07 90)
      (effects (font (size 1.27 1.27)) (justify right))
    )
    (property "Value" "4.7k" (at 40.64 59.69 90)
      (effects (font (size 1.27 1.27)) (justify right))
    )
    (property "Footprint" "Resistor_SMD:R_0402_1005Metric" (at 41.91 53.34 0)
      (effects (font (size 1.27 1.27)) hide)
    )
    (property "Datasheet" "~" (at 41.91 53.34 0)
      (effects (font (size 1.27 1.27)) hide)
    )
    (pin "1" (uuid 10a33632-724c-4bd1-a642-5ed3c558fb95))
    (pin "2" (uuid 22993373-d997-494f-9aea-c3b22645823e))
    (instances
      (project "control"
        (path "/e63e39d7-6ac0-4ffd-8aa3-1841a4541b55"
          (reference "R2") (unit 1)
        )
        (path "/e63e39d7-6ac0-4ffd-8aa3-1841a4541b55/f5b155db-a48d-4f61-acb2-044b9a21eef7"
          (reference "R64") (unit 1)
        )
      )
    )
  )

  (symbol (lib_id "Device:R_Small_US") (at 171.45 45.72 90) (unit 1)
    (in_bom yes) (on_board yes) (dnp no)
    (uuid d6056037-3b10-4551-9934-957d08d6a005)
    (property "Reference" "R19" (at 175.26 44.45 90)
      (effects (font (size 1.27 1.27)))
    )
    (property "Value" "100" (at 167.64 44.45 90)
      (effects (font (size 1.27 1.27)))
    )
    (property "Footprint" "Resistor_SMD:R_0402_1005Metric" (at 171.45 45.72 0)
      (effects (font (size 1.27 1.27)) hide)
    )
    (property "Datasheet" "~" (at 171.45 45.72 0)
      (effects (font (size 1.27 1.27)) hide)
    )
    (pin "1" (uuid dc875e4a-ef4d-4010-8729-534b7934e8d5))
    (pin "2" (uuid 2f81555d-2246-4703-b3ec-88c68c580dac))
    (instances
      (project "control"
        (path "/e63e39d7-6ac0-4ffd-8aa3-1841a4541b55"
          (reference "R19") (unit 1)
        )
        (path "/e63e39d7-6ac0-4ffd-8aa3-1841a4541b55/f5b155db-a48d-4f61-acb2-044b9a21eef7"
          (reference "R89") (unit 1)
        )
      )
    )
  )

  (symbol (lib_id "Device:R_Small_US") (at 55.88 44.45 90) (unit 1)
    (in_bom yes) (on_board yes) (dnp no)
    (uuid d73bcaa2-32f7-4825-a7ce-34862eaa2dd2)
    (property "Reference" "R11" (at 59.69 43.18 90)
      (effects (font (size 1.27 1.27)))
    )
    (property "Value" "100" (at 52.07 43.18 90)
      (effects (font (size 1.27 1.27)))
    )
    (property "Footprint" "Resistor_SMD:R_0402_1005Metric" (at 55.88 44.45 0)
      (effects (font (size 1.27 1.27)) hide)
    )
    (property "Datasheet" "~" (at 55.88 44.45 0)
      (effects (font (size 1.27 1.27)) hide)
    )
    (pin "1" (uuid 0f2ba26b-56de-4362-8470-5da3874098d4))
    (pin "2" (uuid b9b9336f-a44c-438c-9416-106ef994c363))
    (instances
      (project "control"
        (path "/e63e39d7-6ac0-4ffd-8aa3-1841a4541b55"
          (reference "R11") (unit 1)
        )
        (path "/e63e39d7-6ac0-4ffd-8aa3-1841a4541b55/f5b155db-a48d-4f61-acb2-044b9a21eef7"
          (reference "R70") (unit 1)
        )
      )
    )
  )

  (symbol (lib_id "power:GND") (at 166.37 60.96 0) (unit 1)
    (in_bom yes) (on_board yes) (dnp no) (fields_autoplaced)
    (uuid dc168729-5c53-4aef-8d69-653636b5bceb)
    (property "Reference" "#PWR012" (at 166.37 67.31 0)
      (effects (font (size 1.27 1.27)) hide)
    )
    (property "Value" "GND" (at 166.37 66.04 0)
      (effects (font (size 1.27 1.27)))
    )
    (property "Footprint" "" (at 166.37 60.96 0)
      (effects (font (size 1.27 1.27)) hide)
    )
    (property "Datasheet" "" (at 166.37 60.96 0)
      (effects (font (size 1.27 1.27)) hide)
    )
    (pin "1" (uuid 1701eee0-bc15-465a-98db-1e6ddfaa5e9e))
    (instances
      (project "control"
        (path "/e63e39d7-6ac0-4ffd-8aa3-1841a4541b55"
          (reference "#PWR012") (unit 1)
        )
        (path "/e63e39d7-6ac0-4ffd-8aa3-1841a4541b55/f5b155db-a48d-4f61-acb2-044b9a21eef7"
          (reference "#PWR0111") (unit 1)
        )
      )
    )
  )

  (symbol (lib_id "Device:R_Small_US") (at 49.53 96.52 90) (unit 1)
    (in_bom yes) (on_board yes) (dnp no) (fields_autoplaced)
    (uuid de741c41-c3cb-4969-80e6-e8c210368e00)
    (property "Reference" "R5" (at 49.53 90.17 90)
      (effects (font (size 1.27 1.27)))
    )
    (property "Value" "100" (at 49.53 92.71 90)
      (effects (font (size 1.27 1.27)))
    )
    (property "Footprint" "Resistor_SMD:R_0402_1005Metric" (at 49.53 96.52 0)
      (effects (font (size 1.27 1.27)) hide)
    )
    (property "Datasheet" "~" (at 49.53 96.52 0)
      (effects (font (size 1.27 1.27)) hide)
    )
    (pin "1" (uuid 3d1d4283-0023-4364-a86a-002ca92832d9))
    (pin "2" (uuid 90aa0189-fa9a-4c72-a106-6aec27795b88))
    (instances
      (project "control"
        (path "/e63e39d7-6ac0-4ffd-8aa3-1841a4541b55"
          (reference "R5") (unit 1)
        )
        (path "/e63e39d7-6ac0-4ffd-8aa3-1841a4541b55/f5b155db-a48d-4f61-acb2-044b9a21eef7"
          (reference "R67") (unit 1)
        )
      )
    )
  )

  (symbol (lib_id "Device:R_US") (at 130.81 54.61 180) (unit 1)
    (in_bom yes) (on_board yes) (dnp no) (fields_autoplaced)
    (uuid df19c9f6-9167-4c8b-a100-3a1a4a79a6f6)
    (property "Reference" "R7" (at 133.35 53.3399 0)
      (effects (font (size 1.27 1.27)) (justify right))
    )
    (property "Value" "16k" (at 133.35 55.8799 0)
      (effects (font (size 1.27 1.27)) (justify right))
    )
    (property "Footprint" "Resistor_SMD:R_0402_1005Metric" (at 129.794 54.356 90)
      (effects (font (size 1.27 1.27)) hide)
    )
    (property "Datasheet" "~" (at 130.81 54.61 0)
      (effects (font (size 1.27 1.27)) hide)
    )
    (pin "1" (uuid 0f81ffbb-982c-47a2-9207-f57e897d379a))
    (pin "2" (uuid 1f62e1b4-188d-494c-ad08-16fb08873563))
    (instances
      (project "control"
        (path "/e63e39d7-6ac0-4ffd-8aa3-1841a4541b55"
          (reference "R7") (unit 1)
        )
        (path "/e63e39d7-6ac0-4ffd-8aa3-1841a4541b55/f5b155db-a48d-4f61-acb2-044b9a21eef7"
          (reference "R75") (unit 1)
        )
      )
    )
  )

  (symbol (lib_id "Device:R_Small_US") (at 151.13 55.88 180) (unit 1)
    (in_bom yes) (on_board yes) (dnp no)
    (uuid e26f32da-9366-4b1d-946e-d86f6bcb27e4)
    (property "Reference" "R2" (at 149.86 54.61 90)
      (effects (font (size 1.27 1.27)) (justify right))
    )
    (property "Value" "4.7k" (at 149.86 62.23 90)
      (effects (font (size 1.27 1.27)) (justify right))
    )
    (property "Footprint" "Resistor_SMD:R_0402_1005Metric" (at 151.13 55.88 0)
      (effects (font (size 1.27 1.27)) hide)
    )
    (property "Datasheet" "~" (at 151.13 55.88 0)
      (effects (font (size 1.27 1.27)) hide)
    )
    (pin "1" (uuid af442cec-54c4-426c-997c-2b196e22dc72))
    (pin "2" (uuid 9745c97c-42f1-42aa-99f5-9346e30d9057))
    (instances
      (project "control"
        (path "/e63e39d7-6ac0-4ffd-8aa3-1841a4541b55"
          (reference "R2") (unit 1)
        )
        (path "/e63e39d7-6ac0-4ffd-8aa3-1841a4541b55/f5b155db-a48d-4f61-acb2-044b9a21eef7"
          (reference "R78") (unit 1)
        )
      )
    )
  )

  (symbol (lib_id "Device:R_Small_US") (at 49.53 53.34 180) (unit 1)
    (in_bom yes) (on_board yes) (dnp no)
    (uuid e2be4f86-d018-4574-ae97-6a5e2c8863c0)
    (property "Reference" "R2" (at 48.26 52.07 90)
      (effects (font (size 1.27 1.27)) (justify right))
    )
    (property "Value" "4.7k" (at 48.26 59.69 90)
      (effects (font (size 1.27 1.27)) (justify right))
    )
    (property "Footprint" "Resistor_SMD:R_0402_1005Metric" (at 49.53 53.34 0)
      (effects (font (size 1.27 1.27)) hide)
    )
    (property "Datasheet" "~" (at 49.53 53.34 0)
      (effects (font (size 1.27 1.27)) hide)
    )
    (pin "1" (uuid 2bb309c7-d630-4e0c-accb-e73ec9dca078))
    (pin "2" (uuid 3596da07-6b89-4289-847b-6c908d5c5858))
    (instances
      (project "control"
        (path "/e63e39d7-6ac0-4ffd-8aa3-1841a4541b55"
          (reference "R2") (unit 1)
        )
        (path "/e63e39d7-6ac0-4ffd-8aa3-1841a4541b55/f5b155db-a48d-4f61-acb2-044b9a21eef7"
          (reference "R66") (unit 1)
        )
      )
    )
  )

  (symbol (lib_id "power:GND") (at 49.53 58.42 0) (unit 1)
    (in_bom yes) (on_board yes) (dnp no) (fields_autoplaced)
    (uuid ebc37cd3-e2a2-4495-a948-74befa8ecaa2)
    (property "Reference" "#PWR012" (at 49.53 64.77 0)
      (effects (font (size 1.27 1.27)) hide)
    )
    (property "Value" "GND" (at 49.53 63.5 0)
      (effects (font (size 1.27 1.27)))
    )
    (property "Footprint" "" (at 49.53 58.42 0)
      (effects (font (size 1.27 1.27)) hide)
    )
    (property "Datasheet" "" (at 49.53 58.42 0)
      (effects (font (size 1.27 1.27)) hide)
    )
    (pin "1" (uuid d65e1cb8-0120-4fbb-9176-f4f101117deb))
    (instances
      (project "control"
        (path "/e63e39d7-6ac0-4ffd-8aa3-1841a4541b55"
          (reference "#PWR012") (unit 1)
        )
        (path "/e63e39d7-6ac0-4ffd-8aa3-1841a4541b55/f5b155db-a48d-4f61-acb2-044b9a21eef7"
          (reference "#PWR0100") (unit 1)
        )
      )
    )
  )

  (symbol (lib_id "Switch:SW_DIP_x08") (at 120.65 40.64 0) (unit 1)
    (in_bom yes) (on_board yes) (dnp no) (fields_autoplaced)
    (uuid ef16aa3e-2f0b-495f-9efd-baa3eab1773e)
    (property "Reference" "SW5" (at 120.65 22.86 0)
      (effects (font (size 1.27 1.27)))
    )
    (property "Value" "219-8MST" (at 120.65 25.4 0)
      (effects (font (size 1.27 1.27)))
    )
    (property "Footprint" "AT-Switches:219-8MST" (at 120.65 40.64 0)
      (effects (font (size 1.27 1.27)) hide)
    )
    (property "Datasheet" "~" (at 120.65 40.64 0)
      (effects (font (size 1.27 1.27)) hide)
    )
    (pin "1" (uuid ec2f4a1c-ee6e-4156-9e9d-b511084fe53e))
    (pin "10" (uuid 7df1c8c6-a962-42d3-bb16-9dfec9500473))
    (pin "11" (uuid a34a723c-330b-4982-932c-648ad2c12844))
    (pin "12" (uuid d1ca949f-acf4-4c36-9706-85e21bd7698f))
    (pin "13" (uuid b806e303-cd91-490f-b648-a62d7bd5454b))
    (pin "14" (uuid 43f72391-5423-4d8e-a8bb-8f31bf29bd5d))
    (pin "15" (uuid 494fbb14-4543-4dc7-9ee3-0a069e550653))
    (pin "16" (uuid dee8608e-0cf8-4ee4-81b1-a68e51a684dc))
    (pin "2" (uuid 3eef6291-cad8-487d-b5b5-5f951f22d36a))
    (pin "3" (uuid 743ae522-bf9f-49a4-a0a8-32f9d3c3f937))
    (pin "4" (uuid aba6c540-54a1-406f-892a-a3aa726e1691))
    (pin "5" (uuid e130c80e-4f51-4f0b-ab52-568627ab7547))
    (pin "6" (uuid 4c2c111d-22a9-4525-b50b-3594502db85b))
    (pin "7" (uuid 256bda6b-47dc-4c4e-a536-56463827cb81))
    (pin "8" (uuid 44471239-4385-4111-bc57-b4dee5d4db34))
    (pin "9" (uuid 2210f4a3-d08f-42d1-ad4b-b395b7376b47))
    (instances
      (project "control"
        (path "/e63e39d7-6ac0-4ffd-8aa3-1841a4541b55"
          (reference "SW5") (unit 1)
        )
        (path "/e63e39d7-6ac0-4ffd-8aa3-1841a4541b55/f5b155db-a48d-4f61-acb2-044b9a21eef7"
          (reference "SW6") (unit 1)
        )
      )
    )
  )

  (symbol (lib_id "Device:R_Small_US") (at 45.72 53.34 180) (unit 1)
    (in_bom yes) (on_board yes) (dnp no)
    (uuid f05ea10e-c892-4a37-8fec-ba5b4c0977f0)
    (property "Reference" "R2" (at 44.45 52.07 90)
      (effects (font (size 1.27 1.27)) (justify right))
    )
    (property "Value" "4.7k" (at 44.45 59.69 90)
      (effects (font (size 1.27 1.27)) (justify right))
    )
    (property "Footprint" "Resistor_SMD:R_0402_1005Metric" (at 45.72 53.34 0)
      (effects (font (size 1.27 1.27)) hide)
    )
    (property "Datasheet" "~" (at 45.72 53.34 0)
      (effects (font (size 1.27 1.27)) hide)
    )
    (pin "1" (uuid 381e51ed-c4b2-4063-af75-301fbc2a3579))
    (pin "2" (uuid 96913c34-d141-4c5e-8ac5-7d8294d391f6))
    (instances
      (project "control"
        (path "/e63e39d7-6ac0-4ffd-8aa3-1841a4541b55"
          (reference "R2") (unit 1)
        )
        (path "/e63e39d7-6ac0-4ffd-8aa3-1841a4541b55/f5b155db-a48d-4f61-acb2-044b9a21eef7"
          (reference "R65") (unit 1)
        )
      )
    )
  )

  (symbol (lib_id "Device:R_Small_US") (at 171.45 43.18 90) (unit 1)
    (in_bom yes) (on_board yes) (dnp no)
    (uuid f2162730-c524-428f-b29c-f5ec7d3780b5)
    (property "Reference" "R18" (at 175.26 41.91 90)
      (effects (font (size 1.27 1.27)))
    )
    (property "Value" "100" (at 167.64 41.91 90)
      (effects (font (size 1.27 1.27)))
    )
    (property "Footprint" "Resistor_SMD:R_0402_1005Metric" (at 171.45 43.18 0)
      (effects (font (size 1.27 1.27)) hide)
    )
    (property "Datasheet" "~" (at 171.45 43.18 0)
      (effects (font (size 1.27 1.27)) hide)
    )
    (pin "1" (uuid 74b97351-4dd0-42ba-9b3b-9d222cbf058d))
    (pin "2" (uuid 07d2bb06-6dc3-4809-a35f-c3f97704e7b3))
    (instances
      (project "control"
        (path "/e63e39d7-6ac0-4ffd-8aa3-1841a4541b55"
          (reference "R18") (unit 1)
        )
        (path "/e63e39d7-6ac0-4ffd-8aa3-1841a4541b55/f5b155db-a48d-4f61-acb2-044b9a21eef7"
          (reference "R88") (unit 1)
        )
      )
    )
  )

  (symbol (lib_id "AT-Switches:SPST_12-34") (at 82.55 99.06 0) (unit 1)
    (in_bom yes) (on_board yes) (dnp no)
    (uuid f4799f79-775d-48bc-96f2-b807ec0eeb0d)
    (property "Reference" "SW3" (at 82.55 92.71 0)
      (effects (font (size 1.27 1.27)))
    )
    (property "Value" "B3F-1000" (at 82.55 105.41 0)
      (effects (font (size 1.27 1.27)))
    )
    (property "Footprint" "AT-Switches:B3F-1000" (at 82.55 99.06 0)
      (effects (font (size 1.27 1.27)) hide)
    )
    (property "Datasheet" "" (at 82.55 99.06 0)
      (effects (font (size 1.27 1.27)) hide)
    )
    (pin "1" (uuid 65ff0b27-d9d7-4a40-ad7a-4a33ad6924a2))
    (pin "2" (uuid 033ec4f0-80c0-4b0b-bb03-5956d9acf4ca))
    (pin "3" (uuid 24624c4e-336f-4f11-ae1b-d0c936995a03))
    (pin "4" (uuid 2e1f757b-e7ef-42ae-b654-42273559ea14))
    (instances
      (project "control"
        (path "/e63e39d7-6ac0-4ffd-8aa3-1841a4541b55"
          (reference "SW3") (unit 1)
        )
        (path "/e63e39d7-6ac0-4ffd-8aa3-1841a4541b55/f5b155db-a48d-4f61-acb2-044b9a21eef7"
          (reference "SW5") (unit 1)
        )
      )
    )
  )
)
