(kicad_pcb
	(version 20240108)
	(generator "pcbnew")
	(generator_version "8.0")
	(general
		(thickness 1.6)
		(legacy_teardrops no)
	)
	(paper "A4")
	(layers
		(0 "F.Cu" signal)
		(31 "B.Cu" signal)
		(32 "B.Adhes" user "B.Adhesive")
		(33 "F.Adhes" user "F.Adhesive")
		(34 "B.Paste" user)
		(35 "F.Paste" user)
		(36 "B.SilkS" user "B.Silkscreen")
		(37 "F.SilkS" user "F.Silkscreen")
		(38 "B.Mask" user)
		(39 "F.Mask" user)
		(40 "Dwgs.User" user "User.Drawings")
		(41 "Cmts.User" user "User.Comments")
		(42 "Eco1.User" user "User.Eco1")
		(43 "Eco2.User" user "User.Eco2")
		(44 "Edge.Cuts" user)
		(45 "Margin" user)
		(46 "B.CrtYd" user "B.Courtyard")
		(47 "F.CrtYd" user "F.Courtyard")
		(48 "B.Fab" user)
		(49 "F.Fab" user)
		(50 "User.1" user)
		(51 "User.2" user)
		(52 "User.3" user)
		(53 "User.4" user)
		(54 "User.5" user)
		(55 "User.6" user)
		(56 "User.7" user)
		(57 "User.8" user)
		(58 "User.9" user)
	)
	(setup
		(stackup
			(layer "F.SilkS"
				(type "Top Silk Screen")
			)
			(layer "F.Paste"
				(type "Top Solder Paste")
			)
			(layer "F.Mask"
				(type "Top Solder Mask")
				(color "Blue")
				(thickness 0.01)
			)
			(layer "F.Cu"
				(type "copper")
				(thickness 0.035)
			)
			(layer "dielectric 1"
				(type "core")
				(thickness 1.51)
				(material "FR4")
				(epsilon_r 4.5)
				(loss_tangent 0.02)
			)
			(layer "B.Cu"
				(type "copper")
				(thickness 0.035)
			)
			(layer "B.Mask"
				(type "Bottom Solder Mask")
				(thickness 0.01)
			)
			(layer "B.Paste"
				(type "Bottom Solder Paste")
			)
			(layer "B.SilkS"
				(type "Bottom Silk Screen")
			)
			(copper_finish "None")
			(dielectric_constraints no)
		)
		(pad_to_mask_clearance 0)
		(allow_soldermask_bridges_in_footprints no)
		(pcbplotparams
			(layerselection 0x00010fc_ffffffff)
			(plot_on_all_layers_selection 0x0000000_00000000)
			(disableapertmacros no)
			(usegerberextensions no)
			(usegerberattributes yes)
			(usegerberadvancedattributes yes)
			(creategerberjobfile yes)
			(dashed_line_dash_ratio 12.000000)
			(dashed_line_gap_ratio 3.000000)
			(svgprecision 4)
			(plotframeref no)
			(viasonmask no)
			(mode 1)
			(useauxorigin no)
			(hpglpennumber 1)
			(hpglpenspeed 20)
			(hpglpendiameter 15.000000)
			(pdf_front_fp_property_popups yes)
			(pdf_back_fp_property_popups yes)
			(dxfpolygonmode yes)
			(dxfimperialunits yes)
			(dxfusepcbnewfont yes)
			(psnegative no)
			(psa4output no)
			(plotreference yes)
			(plotvalue yes)
			(plotfptext yes)
			(plotinvisibletext no)
			(sketchpadsonfab no)
			(subtractmaskfromsilk no)
			(outputformat 1)
			(mirror no)
			(drillshape 1)
			(scaleselection 1)
			(outputdirectory "")
		)
	)
	(net 0 "")
	(net 1 "Probe #2")
	(net 2 "Probe #1")
	(net 3 "Heater-")
	(net 4 "Heater+")
	(net 5 "Empty \"DET\" #1")
	(net 6 "Probe #4")
	(net 7 "Part Cooling Fan+")
	(net 8 "E Motor #1")
	(net 9 "Termistor-")
	(net 10 "Part Cooling Fan-")
	(net 11 "Empty \"DET\" #2")
	(net 12 "Fan+")
	(net 13 "Thermistor+")
	(net 14 "E Motor #3")
	(net 15 "E Motor #2")
	(net 16 "Probe #3")
	(net 17 "Empty \"DET\" #3")
	(net 18 "Probe #5")
	(net 19 "E Motor #4")
	(net 20 "Fan-")
	(net 21 "GND")
	(footprint "easyeda2kicad:CONN-SMD_2P-P2.00_XKB_X2011WRS-02A-9TSN"
		(layer "F.Cu")
		(uuid "1ea982f2-66b1-4dc4-b6dd-d5b2317befeb")
		(at 131.42 110.35)
		(property "Reference" "CN6"
			(at 0 -7.65 0)
			(layer "F.SilkS")
			(uuid "9872692f-aa7e-4fc7-b458-2555c4298c38")
			(effects
				(font
					(size 1 1)
					(thickness 0.15)
				)
			)
		)
		(property "Value" "X2011WRS-02A-9TSN"
			(at 0 7.65 0)
			(layer "F.Fab")
			(uuid "280b4e83-47cd-4825-8d5c-ff0504298461")
			(effects
				(font
					(size 1 1)
					(thickness 0.15)
				)
			)
		)
		(property "Footprint" "easyeda2kicad:CONN-SMD_2P-P2.00_XKB_X2011WRS-02A-9TSN"
			(at 0 0 0)
			(unlocked yes)
			(layer "F.Fab")
			(hide yes)
			(uuid "2e02b215-68f3-43c8-9c5a-ac0897212d0e")
			(effects
				(font
					(size 1.27 1.27)
				)
			)
		)
		(property "Datasheet" ""
			(at 0 0 0)
			(unlocked yes)
			(layer "F.Fab")
			(hide yes)
			(uuid "04920b91-8bc2-4386-9b9b-dc22eeeb1ad0")
			(effects
				(font
					(size 1.27 1.27)
				)
			)
		)
		(property "Description" ""
			(at 0 0 0)
			(unlocked yes)
			(layer "F.Fab")
			(hide yes)
			(uuid "184f608f-a88e-4a5f-a8cb-01c85c54026a")
			(effects
				(font
					(size 1.27 1.27)
				)
			)
		)
		(property "LCSC Part" "C571320"
			(at 0 0 0)
			(unlocked yes)
			(layer "F.Fab")
			(hide yes)
			(uuid "ef0eab48-0a4e-40ef-b5bc-90c0e68b3976")
			(effects
				(font
					(size 1 1)
					(thickness 0.15)
				)
			)
		)
		(path "/21337b61-ce7d-499a-b0f3-579313ff8b2d")
		(sheetname "Root")
		(sheetfile "extruderevolved.kicad_sch")
		(attr smd)
		(fp_line
			(start -4 -3.65)
			(end -4 1.5)
			(stroke
				(width 0.25)
				(type solid)
			)
			(layer "F.SilkS")
			(uuid "33e8a776-9ca5-4721-8fd7-6d7a0e3d2cce")
		)
		(fp_line
			(start -4 -3.65)
			(end -2.5 -3.65)
			(stroke
				(width 0.25)
				(type solid)
			)
			(layer "F.SilkS")
			(uuid "46b663c0-af11-4253-93f2-f2c7c29ca472")
		)
		(fp_line
			(start -2.5 -3.65)
			(end -2.5 -2.45)
			(stroke
				(width 0.25)
				(type solid)
			)
			(layer "F.SilkS")
			(uuid "dcb1c17c-1bec-4f52-930c-29c627fbbc1c")
		)
		(fp_line
			(start -2.5 -2.45)
			(end -1.73 -2.45)
			(stroke
				(width 0.25)
				(type solid)
			)
			(layer "F.SilkS")
			(uuid "24edcb6a-885a-484b-8af9-78cb07eebde4")
		)
		(fp_line
			(start -2.49 5.36)
			(end 2.51 5.36)
			(stroke
				(width 0.25)
				(type solid)
			)
			(layer "F.SilkS")
			(uuid "232d24df-1737-4943-b6bf-bd5532803abe")
		)
		(fp_line
			(start -0.27 -2.45)
			(end 0.27 -2.45)
			(stroke
				(width 0.25)
				(type solid)
			)
			(layer "F.SilkS")
			(uuid "2647ac1e-e61e-4dce-8c94-baa9a1b0d76a")
		)
		(fp_line
			(start 1.73 -2.45)
			(end 2.5 -2.45)
			(stroke
				(width 0.25)
				(type solid)
			)
			(layer "F.SilkS")
			(uuid "21141bb3-e368-4184-bb4e-5c61dab8ddf8")
		)
		(fp_line
			(start 2.5 -3.65)
			(end 4.01 -3.65)
			(stroke
				(width 0.25)
				(type solid)
			)
			(layer "F.SilkS")
			(uuid "7f9b98f7-d522-420f-adeb-5eff0095a221")
		)
		(fp_line
			(start 2.5 -2.45)
			(end 2.5 -3.65)
			(stroke
				(width 0.25)
				(type solid)
			)
			(layer "F.SilkS")
			(uuid "0e849a70-28cd-4375-a316-6344c8a64218")
		)
		(fp_line
			(start 4.01 -3.65)
			(end 4.01 1.53)
			(stroke
				(width 0.25)
				(type solid)
			)
			(layer "F.SilkS")
			(uuid "3789c6ea-2a53-4d38-a282-fa163fcf5d61")
		)
		(fp_circle
			(center -4 -4.95)
			(end -3.97 -4.95)
			(stroke
				(width 0.06)
				(type solid)
			)
			(fill none)
			(layer "F.Fab")
			(uuid "3d7e756d-dfa7-4b7e-bacc-9a62efc6b52f")
		)
		(fp_text user "${REFERENCE}"
			(at 0 0 0)
			(layer "F.Fab")
			(uuid "78e3fb56-d92f-42e5-b55f-4dcfaa3b83e8")
			(effects
				(font
					(size 1 1)
					(thickness 0.15)
				)
			)
		)
		(pad "1" smd rect
			(at -1 -3.65)
			(size 1 3.7)
			(layers "F.Cu" "F.Paste" "F.Mask")
			(net 4 "Heater+")
			(pinfunction "1")
			(pintype "unspecified")
			(uuid "405750cb-8c88-4260-b47a-98e1b8d3533c")
		)
		(pad "2" smd rect
			(at 1 -3.65)
			(size 1 3.7)
			(layers "F.Cu" "F.Paste" "F.Mask")
			(net 3 "Heater-")
			(pinfunction "2")
			(pintype "unspecified")
			(uuid "65e8ef38-0c52-4f3e-ba93-3ddd80151563")
		)
		(pad "3" smd rect
			(at 3.58 3.65)
			(size 1.6 3.8)
			(layers "F.Cu" "F.Paste" "F.Mask")
			(net 21 "GND")
			(pinfunction "3")
			(pintype "unspecified")
			(uuid "95835e72-b3ac-4964-a73a-897ae4ad7434")
		)
		(pad "4" smd rect
			(at -3.58 3.65)
			(size 1.6 3.8)
			(layers "F.Cu" "F.Paste" "F.Mask")
			(net 21 "GND")
			(pinfunction "4")
			(pintype "unspecified")
			(uuid "71a7de70-a72d-4771-b120-6183e522a2f0")
		)
		(model "${EASYEDA2KICAD}/easyeda2kicad.3dshapes/CONN-SMD_2P-P2.00_XKB_X2011WRS-02A-9TSN.wrl"
			(offset
				(xyz 0 -0.2 -0)
			)
			(scale
				(xyz 1 1 1)
			)
			(rotate
				(xyz 0 0 180)
			)
		)
	)
	(footprint "easyeda2kicad:CONN-SMD_HC-1.25-3PWT"
		(layer "F.Cu")
		(uuid "3138af3b-1c4f-445d-ae4c-d82682922989")
		(at 183 86.37 90)
		(property "Reference" "CN3"
			(at 0 -5.3 -90)
			(layer "F.SilkS")
			(uuid "cefd47e0-ef30-468e-ad3e-cdb474d73a4b")
			(effects
				(font
					(size 1 1)
					(thickness 0.15)
				)
			)
		)
		(property "Value" "HC-1.25-3PWT"
			(at 0 5.3 -90)
			(layer "F.Fab")
			(uuid "b31d6a85-ff99-427d-9ea5-16caea4a2687")
			(effects
				(font
					(size 1 1)
					(thickness 0.15)
				)
			)
		)
		(property "Footprint" "easyeda2kicad:CONN-SMD_HC-1.25-3PWT"
			(at 0 0 90)
			(unlocked yes)
			(layer "F.Fab")
			(hide yes)
			(uuid "ea5f9962-899a-4186-8462-1fa6f03ab9e1")
			(effects
				(font
					(size 1.27 1.27)
				)
			)
		)
		(property "Datasheet" ""
			(at 0 0 90)
			(unlocked yes)
			(layer "F.Fab")
			(hide yes)
			(uuid "812c749c-fe7d-4d25-88fe-cf9db9dcd5ff")
			(effects
				(font
					(size 1.27 1.27)
				)
			)
		)
		(property "Description" ""
			(at 0 0 90)
			(unlocked yes)
			(layer "F.Fab")
			(hide yes)
			(uuid "ec8939f7-d86f-4e68-8bc2-7a0fd0d4989f")
			(effects
				(font
					(size 1.27 1.27)
				)
			)
		)
		(property "LCSC Part" "C2845380"
			(at 0 0 90)
			(unlocked yes)
			(layer "F.Fab")
			(hide yes)
			(uuid "f6eed438-dca6-4ce9-913a-ab9f04117cb9")
			(effects
				(font
					(size 1 1)
					(thickness 0.15)
				)
			)
		)
		(path "/41a9a90a-3b8c-4ffd-9db2-2f59a8fd8ab9")
		(sheetname "Root")
		(sheetfile "extruderevolved.kicad_sch")
		(attr smd)
		(fp_line
			(start 4.4 -0.87)
			(end 4.4 -0.67)
			(stroke
				(width 0.25)
				(type solid)
			)
			(layer "F.SilkS")
			(uuid "fe95cfc2-6d16-47ff-bfac-07efcadccb3e")
		)
		(fp_line
			(start 1.89 -0.87)
			(end 4.4 -0.87)
			(stroke
				(width 0.25)
				(type solid)
			)
			(layer "F.SilkS")
			(uuid "faae8df3-2384-41ec-a076-93dc16971bfa")
		)
		(fp_line
			(start -4.4 -0.87)
			(end -1.88 -0.87)
			(stroke
				(width 0.25)
				(type solid)
			)
			(layer "F.SilkS")
			(uuid "fd59a903-8eb9-4641-8e44-2ba8dd09b130")
		)
		(fp_line
			(start 4.4 -0.77)
			(end 4.4 -0.18)
			(stroke
				(width 0.25)
				(type solid)
			)
			(layer "F.SilkS")
			(uuid "3014ba85-5078-4cd5-83b4-10d654e9cf37")
		)
		(fp_line
			(start -4.4 -0.18)
			(end -4.4 -0.87)
			(stroke
				(width 0.25)
				(type solid)
			)
			(layer "F.SilkS")
			(uuid "72f34e5b-71cb-47f7-a520-0ea4190ec861")
		)
		(fp_line
			(start 4.4 2.78)
			(end 4.4 3.43)
			(stroke
				(width 0.25)
				(type solid)
			)
			(layer "F.SilkS")
			(uuid "5a419652-fd42-4e5a-a3ea-47f6b023c2ae")
		)
		(fp_line
			(start 4.4 3.43)
			(end -4.4 3.43)
			(stroke
				(width 0.25)
				(type solid)
			)
			(layer "F.SilkS")
			(uuid "8dd1a4b1-c6f5-41f7-acad-a7e2f74acef9")
		)
		(fp_line
			(start -4.4 3.43)
			(end -4.4 2.78)
			(stroke
				(width 0.25)
				(type solid)
			)
			(layer "F.SilkS")
			(uuid "f4d1e680-c112-4eaf-aa4f-ea6f6be82d75")
		)
		(fp_circle
			(center -1.3 -2.3)
			(end -1.15 -2.3)
			(stroke
				(width 0.3)
				(type solid)
			)
			(fill none)
			(layer "Cmts.User")
			(uuid "7d4cccce-9caf-4f5e-88f9-28efe34c49fb")
		)
		(fp_circle
			(center -4.4 -1.83)
			(end -4.37 -1.83)
			(stroke
				(width 0.06)
				(type solid)
			)
			(fill none)
			(layer "F.Fab")
			(uuid "3b736fab-bc4e-4722-82a4-bba76137f1a9")
		)
		(fp_text user "${REFERENCE}"
			(at 0 0 -90)
			(layer "F.Fab")
			(uuid "91b53e6e-3680-4f91-8028-16de8a0628b6")
			(effects
				(font
					(size 1 1)
					(thickness 0.15)
				)
			)
		)
		(pad "1" smd rect
			(at -1.25 -1.3 90)
			(size 0.8 2.2)
			(layers "F.Cu" "F.Paste" "F.Mask")
			(net 5 "Empty \"DET\" #1")
			(pinfunction "1")
			(pintype "unspecified")
			(uuid "d9a5c54a-8c1d-4bc5-a92d-2b9be5c3e997")
		)
		(pad "2" smd rect
			(at 0 -1.3 90)
			(size 0.8 2.2)
			(layers "F.Cu" "F.Paste" "F.Mask")
			(net 11 "Empty \"DET\" #2")
			(pinfunction "2")
			(pintype "unspecified")
			(uuid "272d6fe8-4c8f-4d1a-bca2-82e52f515065")
		)
		(pad "3" smd rect
			(at 1.25 -1.3 90)
			(size 0.8 2.2)
			(layers "F.Cu" "F.Paste" "F.Mask")
			(net 17 "Empty \"DET\" #3")
			(pinfunction "3")
			(pintype "unspecified")
			(uuid "f9ca2514-e5a0-4080-9eba-ed1b393c7c8c")
		)
		(pad "4" smd rect
			(at -3.63 1.3 90)
			(size 2.35 2.5)
			(layers "F.Cu" "F.Paste" "F.Mask")
			(net 21 "GND")
			(pinfunction "4")
			(pintype "unspecified")
			(uuid "ce06987d-95a8-498b-85d3-8c09d532178c")
		)
		(pad "5" smd rect
			(at 3.63 1.3 90)
			(size 2.35 2.5)
			(layers "F.Cu" "F.Paste" "F.Mask")
			(net 21 "GND")
			(pinfunction "5")
			(pintype "unspecified")
			(uuid "348d7770-98ba-4795-a95f-6eb8a77e8fa8")
		)
		(model "${EASYEDA2KICAD}/easyeda2kicad.3dshapes/CONN-SMD_HC-1.25-3PWT.wrl"
			(offset
				(xyz 1.25 -1.5 0)
			)
			(scale
				(xyz 1 1 1)
			)
			(rotate
				(xyz 0 0 0)
			)
		)
	)
	(footprint "easyeda2kicad:IDC-TH_24P-P2.00_B-3102R24P-A000"
		(layer "F.Cu")
		(uuid "64cfd6fc-236b-42cd-b180-ad59c7d7f301")
		(at 151 66 180)
		(property "Reference" "CN1"
			(at 0 -5 180)
			(layer "F.SilkS")
			(uuid "41000a96-3906-492b-97d5-94525c3163ba")
			(effects
				(font
					(size 1 1)
					(thickness 0.15)
				)
			)
		)
		(property "Value" "B-3102R24P-A000"
			(at 0 5 180)
			(layer "F.Fab")
			(uuid "874d2b15-1e4f-4edf-b50d-21a48b82d768")
			(effects
				(font
					(size 1 1)
					(thickness 0.15)
				)
			)
		)
		(property "Footprint" "easyeda2kicad:IDC-TH_24P-P2.00_B-3102R24P-A000"
			(at 0 0 180)
			(unlocked yes)
			(layer "F.Fab")
			(hide yes)
			(uuid "7d8ba33c-01fc-4bd3-81b4-4a593a21cce7")
			(effects
				(font
					(size 1.27 1.27)
				)
			)
		)
		(property "Datasheet" "https://lcsc.com/product-detail/IDC-Connectors_Shenzhen-Cankemeng-B-3102R24P-A000_C383593.html"
			(at 0 0 180)
			(unlocked yes)
			(layer "F.Fab")
			(hide yes)
			(uuid "e90901f6-f598-438f-9041-b418e102a079")
			(effects
				(font
					(size 1.27 1.27)
				)
			)
		)
		(property "Description" ""
			(at 0 0 180)
			(unlocked yes)
			(layer "F.Fab")
			(hide yes)
			(uuid "3bc2826b-8af4-4763-9435-38cfcf3d3e80")
			(effects
				(font
					(size 1.27 1.27)
				)
			)
		)
		(property "LCSC Part" "C383593"
			(at 0 0 180)
			(unlocked yes)
			(layer "F.Fab")
			(hide yes)
			(uuid "1a0283ce-bf66-4e61-9193-f935c428b96e")
			(effects
				(font
					(size 1 1)
					(thickness 0.15)
				)
			)
		)
		(path "/d427623a-b0a2-4d95-b65c-504a0d903a47")
		(sheetname "Root")
		(sheetfile "extruderevolved.kicad_sch")
		(attr through_hole)
		(fp_line
			(start 20 7.03)
			(end 20 -1.02)
			(stroke
				(width 0.25)
				(type solid)
			)
			(layer "F.SilkS")
			(uuid "7a48711c-3158-4645-8eff-19d59a6e28ef")
		)
		(fp_line
			(start 20 -1.02)
			(end 12.01 -1.02)
			(stroke
				(width 0.25)
				(type solid)
			)
			(layer "F.SilkS")
			(uuid "0bcd6ea8-b0d1-4ecb-8d18-2f7948ddb33b")
		)
		(fp_line
			(start 15.82 15.62)
			(end 13.03 15.62)
			(stroke
				(width 0.25)
				(type solid)
			)
			(layer "F.SilkS")
			(uuid "fd77199c-5df0-4b70-a4a1-f814bc09d698")
		)
		(fp_line
			(start 15.82 6.98)
			(end 15.82 15.62)
			(stroke
				(width 0.25)
				(type solid)
			)
			(layer "F.SilkS")
			(uuid "72647a81-a205-41d7-ba34-8d119f6c659d")
		)
		(fp_line
			(start 14.17 17.14)
			(end 15.37 19.1)
			(stroke
				(width 0.25)
				(type solid)
			)
			(layer "F.SilkS")
			(uuid "769f99e5-a939-46c7-9926-992370fd87f1")
		)
		(fp_line
			(start 13.03 17.14)
			(end 14.17 17.14)
			(stroke
				(width 0.25)
				(type solid)
			)
			(layer "F.SilkS")
			(uuid "4300a51b-25ce-4423-b8c6-b82c823c1a30")
		)
		(fp_line
			(start 13.03 15.62)
			(end 13.03 17.14)
			(stroke
				(width 0.25)
				(type solid)
			)
			(layer "F.SilkS")
			(uuid "a53aaef1-d402-4f51-8c2d-c1a280826eeb")
		)
		(fp_line
			(start -13.06 17.24)
			(end -13.06 15.71)
			(stroke
				(width 0.25)
				(type solid)
			)
			(layer "F.SilkS")
			(uuid "2d27a6de-b740-4001-a13a-231d07bebf97")
		)
		(fp_line
			(start -13.06 15.71)
			(end -15.86 15.71)
			(stroke
				(width 0.25)
				(type solid)
			)
			(layer "F.SilkS")
			(uuid "e73e7e5f-6bc2-4691-a5a0-30f185f80c56")
		)
		(fp_line
			(start -14.2 17.24)
			(end -13.06 17.24)
			(stroke
				(width 0.25)
				(type solid)
			)
			(layer "F.SilkS")
			(uuid "8397d13b-ae5f-4bea-8125-d2c66951d50f")
		)
		(fp_line
			(start -15.4 19.19)
			(end -14.2 17.24)
			(stroke
				(width 0.25)
				(type solid)
			)
			(layer "F.SilkS")
			(uuid "8b9f16bc-5368-420a-a589-399fbe2abdbe")
		)
		(fp_line
			(start -15.86 15.71)
			(end -15.86 6.98)
			(stroke
				(width 0.25)
				(type solid)
			)
			(layer "F.SilkS")
			(uuid "9100eca3-f2e1-4594-85ed-1845fe44dffc")
		)
		(fp_line
			(start -15.86 6.98)
			(end 15.82 6.98)
			(stroke
				(width 0.25)
				(type solid)
			)
			(layer "F.SilkS")
			(uuid "ecdc632d-6d47-4a95-83cd-8049f06f2797")
		)
		(fp_line
			(start -20.05 7.08)
			(end -20.05 -1.03)
			(stroke
				(width 0.25)
				(type solid)
			)
			(layer "F.SilkS")
			(uuid "e17625a4-254f-4447-b55f-9817564aff87")
		)
		(fp_line
			(start -20.05 -1.03)
			(end -12.06 -1.03)
			(stroke
				(width 0.25)
				(type solid)
			)
			(layer "F.SilkS")
			(uuid "3d74ae43-5dee-4bb4-8ef4-d49543aa0d81")
		)
		(fp_arc
			(start 20.457202 18.849651)
			(mid 17.963079 19.98024)
			(end 15.37 19.1)
			(stroke
				(width 0.25)
				(type solid)
			)
			(layer "F.SilkS")
			(uuid "7f22cfc9-60e0-43c0-9d10-7558e2bb3a48")
		)
		(fp_arc
			(start 19.514557 15.247443)
			(mid 20.598805 16.929051)
			(end 20.4 18.92)
			(stroke
				(width 0.25)
				(type solid)
			)
			(layer "F.SilkS")
			(uuid "3a987641-1575-4ba9-bd87-988527dc6e15")
		)
		(fp_arc
			(start 19.510641 15.244747)
			(mid 19.190436 11.076943)
			(end 20.02 6.98)
			(stroke
				(width 0.25)
				(type solid)
			)
			(layer "F.SilkS")
			(uuid "808291b0-524d-4e66-89a2-97ebae9f8b8c")
		)
		(fp_arc
			(start -15.4 19.19)
			(mid -17.990376 20.063402)
			(end -20.477852 18.929672)
			(stroke
				(width 0.25)
				(type solid)
			)
			(layer "F.SilkS")
			(uuid "646631c1-a18f-4dac-8c18-a808dd5df14d")
		)
		(fp_arc
			(start -20.05 7.08)
			(mid -19.220384 11.168932)
			(end -19.5369 15.329154)
			(stroke
				(width 0.25)
				(type solid)
			)
			(layer "F.SilkS")
			(uuid "3666446b-f116-4852-a64d-0eca3688f2c1")
		)
		(fp_arc
			(start -20.43 19.02)
			(mid -20.625184 17.016891)
			(end -19.527143 15.330224)
			(stroke
				(width 0.25)
				(type solid)
			)
			(layer "F.SilkS")
			(uuid "041eebd3-8518-4448-a506-25a07de492d5")
		)
		(fp_circle
			(center 12.27 -1.78)
			(end 12.52 -1.78)
			(stroke
				(width 0.25)
				(type solid)
			)
			(fill none)
			(layer "F.SilkS")
			(uuid "dc17fe2c-9331-4b55-9469-6f3936ee01fa")
		)
		(fp_circle
			(center 20.81 -2.16)
			(end 20.84 -2.16)
			(stroke
				(width 0.06)
				(type solid)
			)
			(fill none)
			(layer "F.Fab")
			(uuid "be0ffb9a-9c65-42a4-beef-e0c919232244")
		)
		(fp_circle
			(center 11 1)
			(end 11.18 1)
			(stroke
				(width 0.35)
				(type solid)
			)
			(fill none)
			(layer "F.Fab")
			(uuid "9150505f-e9cd-4387-8fa9-1036b07a927d")
		)
		(fp_circle
			(center 11 -1)
			(end 11.18 -1)
			(stroke
				(width 0.35)
				(type solid)
			)
			(fill none)
			(layer "F.Fab")
			(uuid "f7f62d0b-3f88-42bf-9576-7a3340b94761")
		)
		(fp_circle
			(center 9 1)
			(end 9.18 1)
			(stroke
				(width 0.35)
				(type solid)
			)
			(fill none)
			(layer "F.Fab")
			(uuid "b238dd59-a3c8-4992-abd0-af718a28398e")
		)
		(fp_circle
			(center 9 -1)
			(end 9.18 -1)
			(stroke
				(width 0.35)
				(type solid)
			)
			(fill none)
			(layer "F.Fab")
			(uuid "3d177c29-399f-48b1-a76c-923a4e9d353f")
		)
		(fp_circle
			(center 7 1)
			(end 7.18 1)
			(stroke
				(width 0.35)
				(type solid)
			)
			(fill none)
			(layer "F.Fab")
			(uuid "e11ceabc-4a96-4390-898b-98a327e08794")
		)
		(fp_circle
			(center 7 -1)
			(end 7.18 -1)
			(stroke
				(width 0.35)
				(type solid)
			)
			(fill none)
			(layer "F.Fab")
			(uuid "4ced49d4-f8cc-4f5b-8628-e5f795750f4e")
		)
		(fp_circle
			(center 5 1)
			(end 5.18 1)
			(stroke
				(width 0.35)
				(type solid)
			)
			(fill none)
			(layer "F.Fab")
			(uuid "aca6aa40-7254-4775-a590-92ce3676994a")
		)
		(fp_circle
			(center 5 -1)
			(end 5.18 -1)
			(stroke
				(width 0.35)
				(type solid)
			)
			(fill none)
			(layer "F.Fab")
			(uuid "5c75e9a6-cb8f-4eeb-9ce6-85998d95ad1e")
		)
		(fp_circle
			(center 3 1)
			(end 3.18 1)
			(stroke
				(width 0.35)
				(type solid)
			)
			(fill none)
			(layer "F.Fab")
			(uuid "e804369d-5896-4e58-8639-1dd4818e0cae")
		)
		(fp_circle
			(center 3 -1)
			(end 3.18 -1)
			(stroke
				(width 0.35)
				(type solid)
			)
			(fill none)
			(layer "F.Fab")
			(uuid "bd3beed3-4d0e-45cf-8c3e-1193589d63d7")
		)
		(fp_circle
			(center 1 1)
			(end 1.18 1)
			(stroke
				(width 0.35)
				(type solid)
			)
			(fill none)
			(layer "F.Fab")
			(uuid "62247e22-8cb0-4666-8f17-0d7935a85a6a")
		)
		(fp_circle
			(center 1 -1)
			(end 1.18 -1)
			(stroke
				(width 0.35)
				(type solid)
			)
			(fill none)
			(layer "F.Fab")
			(uuid "0adc3ccb-2ab1-44d5-9419-63ef3d9416bb")
		)
		(fp_circle
			(center -1 1)
			(end -0.82 1)
			(stroke
				(width 0.35)
				(type solid)
			)
			(fill none)
			(layer "F.Fab")
			(uuid "a946b842-25e7-4d00-b00d-d586295da939")
		)
		(fp_circle
			(center -1 -1)
			(end -0.82 -1)
			(stroke
				(width 0.35)
				(type solid)
			)
			(fill none)
			(layer "F.Fab")
			(uuid "082ca507-3668-4598-bd6f-cb5be7bbe4ea")
		)
		(fp_circle
			(center -3 1)
			(end -2.82 1)
			(stroke
				(width 0.35)
				(type solid)
			)
			(fill none)
			(layer "F.Fab")
			(uuid "eba9115e-ece4-4643-be27-3603b99be839")
		)
		(fp_circle
			(center -3 -1)
			(end -2.82 -1)
			(stroke
				(width 0.35)
				(type solid)
			)
			(fill none)
			(layer "F.Fab")
			(uuid "4fe5c613-ca31-4aba-8f7b-a7abf529868a")
		)
		(fp_circle
			(center -5 1)
			(end -4.82 1)
			(stroke
				(width 0.35)
				(type solid)
			)
			(fill none)
			(layer "F.Fab")
			(uuid "de100983-ec19-45a6-a253-22d3cb28e5ea")
		)
		(fp_circle
			(center -5 -1)
			(end -4.82 -1)
			(stroke
				(width 0.35)
				(type solid)
			)
			(fill none)
			(layer "F.Fab")
			(uuid "e08519fd-a587-4b10-b503-86cb55fe3442")
		)
		(fp_circle
			(center -7 1)
			(end -6.82 1)
			(stroke
				(width 0.35)
				(type solid)
			)
			(fill none)
			(layer "F.Fab")
			(uuid "42832f7a-543a-4bb8-b3c6-a4331bc08ebf")
		)
		(fp_circle
			(center -7 -1)
			(end -6.82 -1)
			(stroke
				(width 0.35)
				(type solid)
			)
			(fill none)
			(layer "F.Fab")
			(uuid "62f38846-242c-4a92-b15b-cc387a53dd93")
		)
		(fp_circle
			(center -9 1)
			(end -8.82 1)
			(stroke
				(width 0.35)
				(type solid)
			)
			(fill none)
			(layer "F.Fab")
			(uuid "c9d3a419-ebbd-4830-9cd2-6c2a885f801f")
		)
		(fp_circle
			(center -9 -1)
			(end -8.82 -1)
			(stroke
				(width 0.35)
				(type solid)
			)
			(fill none)
			(layer "F.Fab")
			(uuid "70085353-ee3c-45bc-b15a-c3a6274107e0")
		)
		(fp_circle
			(center -11 1)
			(end -10.82 1)
			(stroke
				(width 0.35)
				(type solid)
			)
			(fill none)
			(layer "F.Fab")
			(uuid "74da4f41-2417-424c-a460-2b48dfd303d9")
		)
		(fp_circle
			(center -11 -1)
			(end -10.82 -1)
			(stroke
				(width 0.35)
				(type solid)
			)
			(fill none)
			(layer "F.Fab")
			(uuid "d47e2278-d720-4777-ba0e-7bedae33a7c4")
		)
		(fp_text user "${REFERENCE}"
			(at 0 0 180)
			(layer "F.Fab")
			(uuid "e78f43f1-e24c-4f39-8c11-0365d12642e9")
			(effects
				(font
					(size 1 1)
					(thickness 0.15)
				)
			)
		)
		(pad "1" thru_hole circle
			(at 11 -1 90)
			(size 1.5 1.5)
			(drill 0.900024)
			(layers "*.Cu" "*.Mask")
			(remove_unused_layers no)
			(net 8 "E Motor #1")
			(pinfunction "1")
			(pintype "unspecified")
			(uuid "37a6548b-8971-49c2-8c94-5040f0fcf7cc")
		)
		(pad "2" thru_hole circle
			(at 11 1 90)
			(size 1.5 1.5)
			(drill 0.900024)
			(layers "*.Cu" "*.Mask")
			(remove_unused_layers no)
			(net 15 "E Motor #2")
			(pinfunction "2")
			(pintype "unspecified")
			(uuid "9dd29308-2784-42ad-ba6c-82ea08e60dcc")
		)
		(pad "3" thru_hole circle
			(at 9 -1 90)
			(size 1.5 1.5)
			(drill 0.900024)
			(layers "*.Cu" "*.Mask")
			(remove_unused_layers no)
			(net 14 "E Motor #3")
			(pinfunction "3")
			(pintype "unspecified")
			(uuid "9d652b7d-ea3c-4635-9ef1-da5df98fb9be")
		)
		(pad "4" thru_hole circle
			(at 9 1 90)
			(size 1.5 1.5)
			(drill 0.900024)
			(layers "*.Cu" "*.Mask")
			(remove_unused_layers no)
			(net 19 "E Motor #4")
			(pinfunction "4")
			(pintype "unspecified")
			(uuid "ed024da1-756c-47a1-a547-a0a141af5893")
		)
		(pad "5" thru_hole circle
			(at 7 -1 90)
			(size 1.5 1.5)
			(drill 0.900024)
			(layers "*.Cu" "*.Mask")
			(remove_unused_layers no)
			(net 20 "Fan-")
			(pinfunction "5")
			(pintype "unspecified")
			(uuid "fc4b4af0-6919-4f3b-a281-b043b0e39d1d")
		)
		(pad "6" thru_hole circle
			(at 7 1 90)
			(size 1.5 1.5)
			(drill 0.900024)
			(layers "*.Cu" "*.Mask")
			(remove_unused_layers no)
			(net 12 "Fan+")
			(pinfunction "6")
			(pintype "unspecified")
			(uuid "76c86c12-7c67-465e-bbee-d17e512625aa")
		)
		(pad "7" thru_hole circle
			(at 5 -1 90)
			(size 1.5 1.5)
			(drill 0.900024)
			(layers "*.Cu" "*.Mask")
			(remove_unused_layers no)
			(net 4 "Heater+")
			(pinfunction "7")
			(pintype "unspecified")
			(uuid "1a30612d-bcea-40a3-9c24-95921efbe78e")
		)
		(pad "8" thru_hole circle
			(at 5 1 90)
			(size 1.5 1.5)
			(drill 0.900024)
			(layers "*.Cu" "*.Mask")
			(remove_unused_layers no)
			(net 3 "Heater-")
			(pinfunction "8")
			(pintype "unspecified")
			(uuid "1572a1dc-876e-4a81-a055-f56767e44753")
		)
		(pad "9" thru_hole circle
			(at 3 -1 90)
			(size 1.5 1.5)
			(drill 0.900024)
			(layers "*.Cu" "*.Mask")
			(remove_unused_layers no)
			(net 4 "Heater+")
			(pinfunction "9")
			(pintype "unspecified")
			(uuid "159bf7e0-2485-420b-9d26-1010c9a258a6")
		)
		(pad "10" thru_hole circle
			(at 3 1 90)
			(size 1.5 1.5)
			(drill 0.900024)
			(layers "*.Cu" "*.Mask")
			(remove_unused_layers no)
			(net 3 "Heater-")
			(pinfunction "10")
			(pintype "unspecified")
			(uuid "e91cbac9-425d-4bdb-8b5c-11a9211fa7f2")
		)
		(pad "11" thru_hole circle
			(at 1 -1 90)
			(size 1.5 1.5)
			(drill 0.900024)
			(layers "*.Cu" "*.Mask")
			(remove_unused_layers no)
			(net 4 "Heater+")
			(pinfunction "11")
			(pintype "unspecified")
			(uuid "f3fc8b9b-b077-40b7-88c6-8d6bd2c8dc5c")
		)
		(pad "12" thru_hole circle
			(at 1 1 90)
			(size 1.5 1.5)
			(drill 0.900024)
			(layers "*.Cu" "*.Mask")
			(remove_unused_layers no)
			(net 3 "Heater-")
			(pinfunction "12")
			(pintype "unspecified")
			(uuid "83ef1307-863f-4056-9567-ac53d6399fda")
		)
		(pad "13" thru_hole circle
			(at -1 -1 90)
			(size 1.5 1.5)
			(drill 0.900024)
			(layers "*.Cu" "*.Mask")
			(remove_unused_layers no)
			(net 10 "Part Cooling Fan-")
			(pinfunction "13")
			(pintype "unspecified")
			(uuid "492f602a-1ab0-43ed-92f5-0501e367f440")
		)
		(pad "14" thru_hole circle
			(at -1 1 90)
			(size 1.5 1.5)
			(drill 0.900024)
			(layers "*.Cu" "*.Mask")
			(remove_unused_layers no)
			(net 7 "Part Cooling Fan+")
			(pinfunction "14")
			(pintype "unspecified")
			(uuid "2370fa25-591a-4aa6-906d-575c81325360")
		)
		(pad "15" thru_hole circle
			(at -3 -1 90)
			(size 1.5 1.5)
			(drill 0.900024)
			(layers "*.Cu" "*.Mask")
			(remove_unused_layers no)
			(net 2 "Probe #1")
			(pinfunction "15")
			(pintype "unspecified")
			(uuid "0d3e345f-ccdd-4d3a-a65d-021c50e7a009")
		)
		(pad "16" thru_hole circle
			(at -3 1 90)
			(size 1.5 1.5)
			(drill 0.900024)
			(layers "*.Cu" "*.Mask")
			(remove_unused_layers no)
			(net 1 "Probe #2")
			(pinfunction "16")
			(pintype "unspecified")
			(uuid "0ba989fb-83ad-4a12-8e3d-537376cfe11c")
		)
		(pad "17" thru_hole circle
			(at -5 -1 90)
			(size 1.5 1.5)
			(drill 0.900024)
			(layers "*.Cu" "*.Mask")
			(remove_unused_layers no)
			(net 16 "Probe #3")
			(pinfunction "17")
			(pintype "unspecified")
			(uuid "a565ea66-4435-4fca-a0c4-958b19e01a5d")
		)
		(pad "18" thru_hole circle
			(at -5 1 90)
			(size 1.5 1.5)
			(drill 0.900024)
			(layers "*.Cu" "*.Mask")
			(remove_unused_layers no)
			(net 6 "Probe #4")
			(pinfunction "18")
			(pintype "unspecified")
			(uuid "1ea6bc47-9823-436e-bf29-e65f3cd0d8ca")
		)
		(pad "19" thru_hole circle
			(at -7 -1 90)
			(size 1.5 1.5)
			(drill 0.900024)
			(layers "*.Cu" "*.Mask")
			(remove_unused_layers no)
			(net 18 "Probe #5")
			(pinfunction "19")
			(pintype "unspecified")
			(uuid "b844e9d1-b657-459d-9f78-8303812cd054")
		)
		(pad "20" thru_hole circle
			(at -7 1 90)
			(size 1.5 1.5)
			(drill 0.900024)
			(layers "*.Cu" "*.Mask")
			(remove_unused_layers no)
			(net 5 "Empty \"DET\" #1")
			(pinfunction "20")
			(pintype "unspecified")
			(uuid "1e946df1-f7e4-461e-a319-45d28a324290")
		)
		(pad "21" thru_hole circle
			(at -9 -1 90)
			(size 1.5 1.5)
			(drill 0.900024)
			(layers "*.Cu" "*.Mask")
			(remove_unused_layers no)
			(net 17 "Empty \"DET\" #3")
			(pinfunction "21")
			(pintype "unspecified")
			(uuid "b7bc8c37-3585-4468-86ee-0e3e5a7eebb1")
		)
		(pad "22" thru_hole circle
			(at -9 1 90)
			(size 1.5 1.5)
			(drill 0.900024)
			(layers "*.Cu" "*.Mask")
			(remove_unused_layers no)
			(net 11 "Empty \"DET\" #2")
			(pinfunction "22")
			(pintype "unspecified")
			(uuid "5b98f9f7-9688-43b9-babf-48dcef94bd09")
		)
		(pad "23" thru_hole circle
			(at -11 -1 90)
			(size 1.5 1.5)
			(drill 0.900024)
			(layers "*.Cu" "*.Mask")
			(remove_unused_layers no)
			(net 13 "Thermistor+")
			(pinfunction "23")
			(pintype "unspecified")
			(uuid "7c479250-2360-45ab-bdca-1b5a91bc8785")
		)
		(pad "24" thru_hole circle
			(at -11 1 90)
			(size 1.5 1.5)
			(drill 0.900024)
			(layers "*.Cu" "*.Mask")
			(remove_unused_layers no)
			(net 9 "Termistor-")
			(pinfunction "24")
			(pintype "unspecified")
			(uuid "484c8fc3-9cf1-4bcb-8e09-3f6954b37f55")
		)
		(model "${EASYEDA2KICAD}/easyeda2kicad.3dshapes/IDC-TH_24P-P2.00_B-3102R24P-A000.wrl"
			(offset
				(xyz -13 1.25 0)
			)
			(scale
				(xyz 1 1 1)
			)
			(rotate
				(xyz 0 0 0)
			)
		)
	)
	(footprint "easyeda2kicad:CONN-SMD_2P-P1.25-HC-1.25-2PWT"
		(layer "F.Cu")
		(uuid "a4dd5854-838e-4db5-bb2e-068cdaeb8a20")
		(at 123 91 -90)
		(property "Reference" "CN8"
			(at 0 -5.28 90)
			(layer "F.SilkS")
			(uuid "6a24458d-9c1e-4024-a4fe-78b70442f364")
			(effects
				(font
					(size 1 1)
					(thickness 0.15)
				)
			)
		)
		(property "Value" "HC-1.25-2PWT"
			(at 0 5.28 90)
			(layer "F.Fab")
			(uuid "7b8038a5-f9ac-4ae2-ada4-15c508decaa8")
			(effects
				(font
					(size 1 1)
					(thickness 0.15)
				)
			)
		)
		(property "Footprint" "easyeda2kicad:CONN-SMD_2P-P1.25-HC-1.25-2PWT"
			(at 0 0 -90)
			(unlocked yes)
			(layer "F.Fab")
			(hide yes)
			(uuid "4ad56f33-98b0-4872-ac15-8c199aa7d986")
			(effects
				(font
					(size 1.27 1.27)
				)
			)
		)
		(property "Datasheet" ""
			(at 0 0 -90)
			(unlocked yes)
			(layer "F.Fab")
			(hide yes)
			(uuid "f85d49eb-571d-45ad-a33e-bb47b6a35016")
			(effects
				(font
					(size 1.27 1.27)
				)
			)
		)
		(property "Description" ""
			(at 0 0 -90)
			(unlocked yes)
			(layer "F.Fab")
			(hide yes)
			(uuid "f5e7003a-e95e-4082-9a5f-96f5ddd8c1b2")
			(effects
				(font
					(size 1.27 1.27)
				)
			)
		)
		(property "LCSC Part" "C2845379"
			(at 0 0 -90)
			(unlocked yes)
			(layer "F.Fab")
			(hide yes)
			(uuid "6ee3bdf9-b58c-4f9f-81b9-f29455086b40")
			(effects
				(font
					(size 1 1)
					(thickness 0.15)
				)
			)
		)
		(path "/0d5335b1-a78a-4775-a7e7-6ac2d2b1be8e")
		(sheetname "Root")
		(sheetfile "extruderevolved.kicad_sch")
		(attr smd)
		(fp_line
			(start -2.36 3.74)
			(end 2.31 3.74)
			(stroke
				(width 0.25)
				(type solid)
			)
			(layer "F.SilkS")
			(uuid "0655ab93-a41d-4bd2-9667-cf4dcdcbef86")
		)
		(fp_line
			(start 2.31 3.74)
			(end 2.31 2.79)
			(stroke
				(width 0.25)
				(type solid)
			)
			(layer "F.SilkS")
			(uuid "1fd918ba-55ad-4b2c-af91-648ff81711bc")
		)
		(fp_line
			(start -2.36 2.7)
			(end -2.36 3.74)
			(stroke
				(width 0.25)
				(type solid)
			)
			(layer "F.SilkS")
			(uuid "56f101a5-15e7-441b-afda-422f19526145")
		)
		(fp_line
			(start 3.76 -0.19)
			(end 3.76 -0.83)
			(stroke
				(width 0.25)
				(type solid)
			)
			(layer "F.SilkS")
			(uuid "06428a17-8ea7-4747-9ff2-333396fc6efb")
		)
		(fp_line
			(start -3.74 -0.83)
			(end -3.74 -0.19)
			(stroke
				(width 0.25)
				(type solid)
			)
			(layer "F.SilkS")
			(uuid "f5c70f4a-cd64-4fd1-b395-20117d2101a1")
		)
		(fp_line
			(start -1.25 -0.83)
			(end -3.74 -0.83)
			(stroke
				(width 0.25)
				(type solid)
			)
			(layer "F.SilkS")
			(uuid "c2d86104-d1f7-4108-a9bd-8224483ada48")
		)
		(fp_line
			(start 3.76 -0.83)
			(end 1.26 -0.83)
			(stroke
				(width 0.25)
				(type solid)
			)
			(layer "F.SilkS")
			(uuid "62ae6062-0f84-435b-986d-433e3b84729d")
		)
		(fp_circle
			(center -1.55 -1.33)
			(end -1.4 -1.33)
			(stroke
				(width 0.3)
				(type solid)
			)
			(fill none)
			(layer "F.SilkS")
			(uuid "cd52a2e2-c716-4a91-ac3c-3f32cf17176b")
		)
		(fp_circle
			(center -1.12 -1.34)
			(end -0.97 -1.34)
			(stroke
				(width 0.3)
				(type solid)
			)
			(fill none)
			(layer "Cmts.User")
			(uuid "d3d23353-4afa-4ae8-8a23-5e241a8f06c5")
		)
		(fp_circle
			(center -3.75 -1.62)
			(end -3.72 -1.62)
			(stroke
				(width 0.06)
				(type solid)
			)
			(fill none)
			(layer "F.Fab")
			(uuid "241f1050-8d21-4216-a7cb-b54cf9e0cb9e")
		)
		(fp_text user "${REFERENCE}"
			(at 0 0 90)
			(layer "F.Fab")
			(uuid "8492d9f6-6fd4-49b8-a061-f389a6420bbc")
			(effects
				(font
					(size 1 1)
					(thickness 0.15)
				)
			)
		)
		(pad "1" smd rect
			(at -0.62 -1.28 270)
			(size 0.8 2.2)
			(layers "F.Cu" "F.Paste" "F.Mask")
			(net 12 "Fan+")
			(pinfunction "1")
			(pintype "unspecified")
			(uuid "1730d417-4648-4ee4-82ec-1c8047568851")
		)
		(pad "2" smd rect
			(at 0.62 -1.28 270)
			(size 0.8 2.2)
			(layers "F.Cu" "F.Paste" "F.Mask")
			(net 20 "Fan-")
			(pinfunction "2")
			(pintype "unspecified")
			(uuid "e5e6f107-93c8-4f4a-9810-e0868b21ecfa")
		)
		(pad "3" smd rect
			(at -3 1.28 180)
			(size 2.5 2.35)
			(layers "F.Cu" "F.Paste" "F.Mask")
			(net 21 "GND")
			(pinfunction "3")
			(pintype "unspecified")
			(uuid "c9081c11-b350-4661-a7d1-db1f40a1c970")
		)
		(pad "4" smd rect
			(at 3 1.28)
			(size 2.5 2.35)
			(layers "F.Cu" "F.Paste" "F.Mask")
			(net 21 "GND")
			(pinfunction "4")
			(pintype "unspecified")
			(uuid "419c4652-c8eb-4f69-91c5-409319968648")
		)
		(model "${EASYEDA2KICAD}/easyeda2kicad.3dshapes/CONN-SMD_2P-P1.25-HC-1.25-2PWT.wrl"
			(offset
				(xyz 0.7 -1.5 0)
			)
			(scale
				(xyz 1 1 1)
			)
			(rotate
				(xyz 0 0 0)
			)
		)
	)
	(footprint "easyeda2kicad:CONN-SMD_2P-P1.25-HC-1.25-2PWT"
		(layer "F.Cu")
		(uuid "c7d6a0e7-3baa-4b72-a4f4-fb8103574443")
		(at 141 111.72)
		(property "Reference" "CN7"
			(at 0 -5.28 0)
			(layer "F.SilkS")
			(uuid "d69b2a87-4ccf-4370-b3ad-e13d6eaa28c6")
			(effects
				(font
					(size 1 1)
					(thickness 0.15)
				)
			)
		)
		(property "Value" "HC-1.25-2PWT"
			(at 0 5.28 0)
			(layer "F.Fab")
			(uuid "6983eba8-c3cf-4158-b9d3-a9e4d85eaf58")
			(effects
				(font
					(size 1 1)
					(thickness 0.15)
				)
			)
		)
		(property "Footprint" "easyeda2kicad:CONN-SMD_2P-P1.25-HC-1.25-2PWT"
			(at 0 0 0)
			(unlocked yes)
			(layer "F.Fab")
			(hide yes)
			(uuid "abdcbc95-096d-49b8-a22d-2eb6116cb4b8")
			(effects
				(font
					(size 1.27 1.27)
				)
			)
		)
		(property "Datasheet" ""
			(at 0 0 0)
			(unlocked yes)
			(layer "F.Fab")
			(hide yes)
			(uuid "e6d9e1b4-437f-4452-96cf-e27d28152c97")
			(effects
				(font
					(size 1.27 1.27)
				)
			)
		)
		(property "Description" ""
			(at 0 0 0)
			(unlocked yes)
			(layer "F.Fab")
			(hide yes)
			(uuid "270c9cd3-6f8f-47b6-b4b8-92ef53c289da")
			(effects
				(font
					(size 1.27 1.27)
				)
			)
		)
		(property "LCSC Part" "C2845379"
			(at 0 0 0)
			(unlocked yes)
			(layer "F.Fab")
			(hide yes)
			(uuid "b1ad454d-9c64-481f-b3bc-ac3a32175293")
			(effects
				(font
					(size 1 1)
					(thickness 0.15)
				)
			)
		)
		(path "/5a42c5de-086b-4807-80d7-282bf58dc299")
		(sheetname "Root")
		(sheetfile "extruderevolved.kicad_sch")
		(attr smd)
		(fp_line
			(start -3.74 -0.83)
			(end -3.74 -0.19)
			(stroke
				(width 0.25)
				(type solid)
			)
			(layer "F.SilkS")
			(uuid "99b77314-df9f-4e4e-b078-4c9aead9b19b")
		)
		(fp_line
			(start -2.36 2.7)
			(end -2.36 3.74)
			(stroke
				(width 0.25)
				(type solid)
			)
			(layer "F.SilkS")
			(uuid "f842c90d-85ba-4a3d-8cc1-3c6883e44cf9")
		)
		(fp_line
			(start -2.36 3.74)
			(end 2.31 3.74)
			(stroke
				(width 0.25)
				(type solid)
			)
			(layer "F.SilkS")
			(uuid "83df4f20-99d9-4c14-b574-7962dc8955a7")
		)
		(fp_line
			(start -1.25 -0.83)
			(end -3.74 -0.83)
			(stroke
				(width 0.25)
				(type solid)
			)
			(layer "F.SilkS")
			(uuid "0cec1859-5548-4d7c-9c84-4276c8ff2fd0")
		)
		(fp_line
			(start 2.31 3.74)
			(end 2.31 2.79)
			(stroke
				(width 0.25)
				(type solid)
			)
			(layer "F.SilkS")
			(uuid "45754b51-4e3b-448b-9946-9c29b5d8e7ca")
		)
		(fp_line
			(start 3.76 -0.83)
			(end 1.26 -0.83)
			(stroke
				(width 0.25)
				(type solid)
			)
			(layer "F.SilkS")
			(uuid "20332f93-680e-4d2d-b3fd-fa7f171f4406")
		)
		(fp_line
			(start 3.76 -0.19)
			(end 3.76 -0.83)
			(stroke
				(width 0.25)
				(type solid)
			)
			(layer "F.SilkS")
			(uuid "54ece89b-3d93-4a88-898f-72dd9a45e372")
		)
		(fp_circle
			(center -1.55 -1.33)
			(end -1.4 -1.33)
			(stroke
				(width 0.3)
				(type solid)
			)
			(fill none)
			(layer "F.SilkS")
			(uuid "68ba8561-5ad9-4bdf-8b66-872521fab347")
		)
		(fp_circle
			(center -1.12 -1.34)
			(end -0.97 -1.34)
			(stroke
				(width 0.3)
				(type solid)
			)
			(fill none)
			(layer "Cmts.User")
			(uuid "d8757ae2-72b0-4fe5-bfed-0150057c97e1")
		)
		(fp_circle
			(center -3.75 -1.62)
			(end -3.72 -1.62)
			(stroke
				(width 0.06)
				(type solid)
			)
			(fill none)
			(layer "F.Fab")
			(uuid "2c3a4508-c92a-45fa-b128-c02a8e146f53")
		)
		(fp_text user "${REFERENCE}"
			(at 0 0 0)
			(layer "F.Fab")
			(uuid "293b2959-793b-4e91-afc5-9694569f4872")
			(effects
				(font
					(size 1 1)
					(thickness 0.15)
				)
			)
		)
		(pad "1" smd rect
			(at -0.62 -1.28)
			(size 0.8 2.2)
			(layers "F.Cu" "F.Paste" "F.Mask")
			(net 13 "Thermistor+")
			(pinfunction "1")
			(pintype "unspecified")
			(uuid "37598f41-c0cc-4e72-8269-a5ece75f7d85")
		)
		(pad "2" smd rect
			(at 0.62 -1.28)
			(size 0.8 2.2)
			(layers "F.Cu" "F.Paste" "F.Mask")
			(net 9 "Termistor-")
			(pinfunction "2")
			(pintype "unspecified")
			(uuid "f179b431-8e0c-4cbb-b268-1bcdcbe11465")
		)
		(pad "3" smd rect
			(at -3 1.28 270)
			(size 2.5 2.35)
			(layers "F.Cu" "F.Paste" "F.Mask")
			(net 21 "GND")
			(pinfunction "3")
			(pintype "unspecified")
			(uuid "aa72e960-2ec9-482e-a70d-9f7ace2185db")
		)
		(pad "4" smd rect
			(at 3 1.28 90)
			(size 2.5 2.35)
			(layers "F.Cu" "F.Paste" "F.Mask")
			(net 21 "GND")
			(pinfunction "4")
			(pintype "unspecified")
			(uuid "7c4c1cc8-5a64-4c08-ada0-0e39726a49df")
		)
		(model "${EASYEDA2KICAD}/easyeda2kicad.3dshapes/CONN-SMD_2P-P1.25-HC-1.25-2PWT.wrl"
			(offset
				(xyz 0.7 -1.5 0)
			)
			(scale
				(xyz 1 1 1)
			)
			(rotate
				(xyz 0 0 0)
			)
		)
	)
	(footprint "easyeda2kicad:CONN-SMD_5P-P1.25_HCTL_HC-1.25-5PWT"
		(layer "F.Cu")
		(uuid "c9ef2d56-02cd-4019-834f-4607e5ca4295")
		(at 171.12 112)
		(property "Reference" "CN5"
			(at 0 -5.3 0)
			(layer "F.SilkS")
			(uuid "2634b3b3-649d-4229-a6bc-a4127eef7887")
			(effects
				(font
					(size 1 1)
					(thickness 0.15)
				)
			)
		)
		(property "Value" "HC-1.25-5PWT"
			(at 0 5.3 0)
			(layer "F.Fab")
			(uuid "609e9534-5e4c-4fde-a86e-e7b9c3231def")
			(effects
				(font
					(size 1 1)
					(thickness 0.15)
				)
			)
		)
		(property "Footprint" "easyeda2kicad:CONN-SMD_5P-P1.25_HCTL_HC-1.25-5PWT"
			(at 0 0 0)
			(unlocked yes)
			(layer "F.Fab")
			(hide yes)
			(uuid "52674282-174a-4829-bedf-31f62ed8c276")
			(effects
				(font
					(size 1.27 1.27)
				)
			)
		)
		(property "Datasheet" ""
			(at 0 0 0)
			(unlocked yes)
			(layer "F.Fab")
			(hide yes)
			(uuid "5a13a92b-c0bc-448d-aa6e-63d9b242a62f")
			(effects
				(font
					(size 1.27 1.27)
				)
			)
		)
		(property "Description" ""
			(at 0 0 0)
			(unlocked yes)
			(layer "F.Fab")
			(hide yes)
			(uuid "b07a438f-8ce3-4db7-adbe-699a95662aa9")
			(effects
				(font
					(size 1.27 1.27)
				)
			)
		)
		(property "LCSC Part" "C2845382"
			(at 0 0 0)
			(unlocked yes)
			(layer "F.Fab")
			(hide yes)
			(uuid "03feb54c-c77e-444c-8058-92cd5cf7cefd")
			(effects
				(font
					(size 1 1)
					(thickness 0.15)
				)
			)
		)
		(path "/93eaa8d6-e141-4670-b968-6b7d15dcf0e3")
		(sheetname "Root")
		(sheetfile "extruderevolved.kicad_sch")
		(attr smd)
		(fp_line
			(start -5.63 -0.9)
			(end -3.13 -0.9)
			(stroke
				(width 0.25)
				(type solid)
			)
			(layer "F.SilkS")
			(uuid "18c09b2b-05bf-44a7-a90c-9260625adb14")
		)
		(fp_line
			(start -5.63 -0.18)
			(end -5.63 -0.9)
			(stroke
				(width 0.25)
				(type solid)
			)
			(layer "F.SilkS")
			(uuid "30d7d2ee-c12c-4c78-a6cc-d9615ea20520")
		)
		(fp_line
			(start -5.63 -0.18)
			(end -5.63 -0.2)
			(stroke
				(width 0.25)
				(type solid)
			)
			(layer "F.SilkS")
			(uuid "c3746a7b-d96e-4721-a794-1893d08940c7")
		)
		(fp_line
			(start -5.63 3.4)
			(end -5.63 2.78)
			(stroke
				(width 0.25)
				(type solid)
			)
			(layer "F.SilkS")
			(uuid "3685e329-d0a1-42b4-9d40-067a930ef89d")
		)
		(fp_line
			(start 5.63 -0.9)
			(end 3.13 -0.9)
			(stroke
				(width 0.25)
				(type solid)
			)
			(layer "F.SilkS")
			(uuid "a10188f2-7479-48dd-9c0d-1a81e3036d6b")
		)
		(fp_line
			(start 5.63 -0.18)
			(end 5.63 -0.9)
			(stroke
				(width 0.25)
				(type solid)
			)
			(layer "F.SilkS")
			(uuid "b4efb16b-95a0-48e8-a506-0c49f8dd1db8")
		)
		(fp_line
			(start 5.63 3.4)
			(end -5.63 3.4)
			(stroke
				(width 0.25)
				(type solid)
			)
			(layer "F.SilkS")
			(uuid "5d7c528b-686b-471e-883a-f07b37dd74ad")
		)
		(fp_line
			(start 5.63 3.4)
			(end 5.63 2.78)
			(stroke
				(width 0.25)
				(type solid)
			)
			(layer "F.SilkS")
			(uuid "1b9c6d2a-0270-423c-854a-f5672abbee0d")
		)
		(fp_circle
			(center -3.73 -1.7)
			(end -3.48 -1.7)
			(stroke
				(width 0.3)
				(type solid)
			)
			(fill none)
			(layer "F.SilkS")
			(uuid "96240fd9-8b55-4742-9203-5446254d5ee1")
		)
		(fp_circle
			(center -2.69 -2.82)
			(end -2.49 -2.82)
			(stroke
				(width 0.4)
				(type solid)
			)
			(fill none)
			(layer "Cmts.User")
			(uuid "5bab9b64-2be6-44c4-836d-e9085b276619")
		)
		(fp_circle
			(center -5.65 -1.85)
			(end -5.62 -1.85)
			(stroke
				(width 0.06)
				(type solid)
			)
			(fill none)
			(layer "F.Fab")
			(uuid "f72bca05-4a57-4fa0-80f9-88b550d12a53")
		)
		(fp_text user "${REFERENCE}"
			(at 0 0 0)
			(layer "F.Fab")
			(uuid "dcf8cf21-bc4e-4f4b-8475-9f8e285b32b3")
			(effects
				(font
					(size 1 1)
					(thickness 0.15)
				)
			)
		)
		(pad "1" smd rect
			(at -2.5 -1.3)
			(size 0.8 2.2)
			(layers "F.Cu" "F.Paste" "F.Mask")
			(net 2 "Probe #1")
			(pinfunction "1")
			(pintype "unspecified")
			(uuid "c32ce953-1a56-42c0-b0b6-c93f8a44645b")
		)
		(pad "2" smd rect
			(at -1.25 -1.3)
			(size 0.8 2.2)
			(layers "F.Cu" "F.Paste" "F.Mask")
			(net 1 "Probe #2")
			(pinfunction "2")
			(pintype "unspecified")
			(uuid "7b72ab38-345a-4fcb-a242-e7f16cae10ab")
		)
		(pad "3" smd rect
			(at 0 -1.3)
			(size 0.8 2.2)
			(layers "F.Cu" "F.Paste" "F.Mask")
			(net 16 "Probe #3")
			(pinfunction "3")
			(pintype "unspecified")
			(uuid "ece81878-eb5d-4748-854a-d4b57a90e79c")
		)
		(pad "4" smd rect
			(at 1.25 -1.3)
			(size 0.8 2.2)
			(layers "F.Cu" "F.Paste" "F.Mask")
			(net 6 "Probe #4")
			(pinfunction "4")
			(pintype "unspecified")
			(uuid "02f95606-52ad-410c-8485-3307733555e9")
		)
		(pad "5" smd rect
			(at 2.5 -1.3)
			(size 0.8 2.2)
			(layers "F.Cu" "F.Paste" "F.Mask")
			(net 18 "Probe #5")
			(pinfunction "5")
			(pintype "unspecified")
			(uuid "216909c3-a161-42f9-a8f2-63f8cbcd5b78")
		)
		(pad "6" smd rect
			(at 4.88 1.3)
			(size 2.35 2.5)
			(layers "F.Cu" "F.Paste" "F.Mask")
			(net 21 "GND")
			(pinfunction "6")
			(pintype "unspecified")
			(uuid "813208cd-7a6b-4027-8ae3-14875158e0c7")
		)
		(pad "7" smd rect
			(at -4.88 1.3)
			(size 2.35 2.5)
			(layers "F.Cu" "F.Paste" "F.Mask")
			(net 21 "GND")
			(pinfunction "7")
			(pintype "unspecified")
			(uuid "8b63c3e3-b433-4a88-9b05-42703411ff55")
		)
		(model "${EASYEDA2KICAD}/easyeda2kicad.3dshapes/CONN-SMD_5P-P1.25_HCTL_HC-1.25-5PWT.wrl"
			(offset
				(xyz 0 -0.81 1.5)
			)
			(scale
				(xyz 1 1 1)
			)
			(rotate
				(xyz 0 0 0)
			)
		)
	)
	(footprint "easyeda2kicad:CONN-SMD_2P-P1.25-HC-1.25-2PWT"
		(layer "F.Cu")
		(uuid "f3f55b27-46da-41db-9d78-841cc4991a60")
		(at 182 112)
		(property "Reference" "CN2"
			(at 0 -5.28 0)
			(layer "F.SilkS")
			(uuid "fdb68d46-d665-4980-b863-6bff6cc46d75")
			(effects
				(font
					(size 1 1)
					(thickness 0.15)
				)
			)
		)
		(property "Value" "HC-1.25-2PWT"
			(at 0 5.28 0)
			(layer "F.Fab")
			(uuid "81e220a9-5ab3-45a4-b5be-f40270755cf2")
			(effects
				(font
					(size 1 1)
					(thickness 0.15)
				)
			)
		)
		(property "Footprint" "easyeda2kicad:CONN-SMD_2P-P1.25-HC-1.25-2PWT"
			(at 0 0 0)
			(unlocked yes)
			(layer "F.Fab")
			(hide yes)
			(uuid "0540ce5a-a1cf-446f-9c55-abe2511f1aef")
			(effects
				(font
					(size 1.27 1.27)
				)
			)
		)
		(property "Datasheet" ""
			(at 0 0 0)
			(unlocked yes)
			(layer "F.Fab")
			(hide yes)
			(uuid "7798f5f8-c4d2-4a51-9415-bdd99dc26fcd")
			(effects
				(font
					(size 1.27 1.27)
				)
			)
		)
		(property "Description" ""
			(at 0 0 0)
			(unlocked yes)
			(layer "F.Fab")
			(hide yes)
			(uuid "3f31a0f1-2a75-449d-9a1f-eba2248eabd7")
			(effects
				(font
					(size 1.27 1.27)
				)
			)
		)
		(property "LCSC Part" "C2845379"
			(at 0 0 0)
			(unlocked yes)
			(layer "F.Fab")
			(hide yes)
			(uuid "d54d3644-9a9e-4b00-8f2a-82f03bcf3e26")
			(effects
				(font
					(size 1 1)
					(thickness 0.15)
				)
			)
		)
		(path "/536f45bb-f7b0-406c-9bb9-5efc417c46c9")
		(sheetname "Root")
		(sheetfile "extruderevolved.kicad_sch")
		(attr smd)
		(fp_line
			(start -3.74 -0.83)
			(end -3.74 -0.19)
			(stroke
				(width 0.25)
				(type solid)
			)
			(layer "F.SilkS")
			(uuid "de60ea6d-5eda-4b4e-9d49-aa17182a9be3")
		)
		(fp_line
			(start -2.36 2.7)
			(end -2.36 3.74)
			(stroke
				(width 0.25)
				(type solid)
			)
			(layer "F.SilkS")
			(uuid "21ab9438-048d-4515-ae18-e7c565864b9f")
		)
		(fp_line
			(start -2.36 3.74)
			(end 2.31 3.74)
			(stroke
				(width 0.25)
				(type solid)
			)
			(layer "F.SilkS")
			(uuid "f2a0404e-2c00-4b52-b0ef-6ef8650a750b")
		)
		(fp_line
			(start -1.25 -0.83)
			(end -3.74 -0.83)
			(stroke
				(width 0.25)
				(type solid)
			)
			(layer "F.SilkS")
			(uuid "5eaaf28f-827c-406b-a0d3-2805fa10bfd4")
		)
		(fp_line
			(start 2.31 3.74)
			(end 2.31 2.79)
			(stroke
				(width 0.25)
				(type solid)
			)
			(layer "F.SilkS")
			(uuid "ebe38171-a5df-4fe6-a5de-d2167c6a0c4c")
		)
		(fp_line
			(start 3.76 -0.83)
			(end 1.26 -0.83)
			(stroke
				(width 0.25)
				(type solid)
			)
			(layer "F.SilkS")
			(uuid "cc2a5894-9c40-4851-9efa-438a2865f3a3")
		)
		(fp_line
			(start 3.76 -0.19)
			(end 3.76 -0.83)
			(stroke
				(width 0.25)
				(type solid)
			)
			(layer "F.SilkS")
			(uuid "0da41e63-7dae-4a3e-aeef-48007f177bcc")
		)
		(fp_circle
			(center -1.55 -1.33)
			(end -1.4 -1.33)
			(stroke
				(width 0.3)
				(type solid)
			)
			(fill none)
			(layer "F.SilkS")
			(uuid "35273c7d-6c65-43c7-82f7-fe81f5788aa8")
		)
		(fp_circle
			(center -1.12 -1.34)
			(end -0.97 -1.34)
			(stroke
				(width 0.3)
				(type solid)
			)
			(fill none)
			(layer "Cmts.User")
			(uuid "5b5f7c3d-53eb-46a1-b7f1-da0c78380d4f")
		)
		(fp_circle
			(center -3.75 -1.62)
			(end -3.72 -1.62)
			(stroke
				(width 0.06)
				(type solid)
			)
			(fill none)
			(layer "F.Fab")
			(uuid "1d366d7a-6713-44a9-89f8-043c6042f161")
		)
		(fp_text user "${REFERENCE}"
			(at 0 0 0)
			(layer "F.Fab")
			(uuid "13779644-806d-44fc-a597-0751da788beb")
			(effects
				(font
					(size 1 1)
					(thickness 0.15)
				)
			)
		)
		(pad "1" smd rect
			(at -0.62 -1.28)
			(size 0.8 2.2)
			(layers "F.Cu" "F.Paste" "F.Mask")
			(net 7 "Part Cooling Fan+")
			(pinfunction "1")
			(pintype "unspecified")
			(uuid "349852a8-43de-4a0b-a94a-5704f1c6cbcf")
		)
		(pad "2" smd rect
			(at 0.62 -1.28)
			(size 0.8 2.2)
			(layers "F.Cu" "F.Paste" "F.Mask")
			(net 10 "Part Cooling Fan-")
			(pinfunction "2")
			(pintype "unspecified")
			(uuid "2d8a8a5c-baf2-4e44-91ac-9ee1575b8987")
		)
		(pad "3" smd rect
			(at -3 1.28 270)
			(size 2.5 2.35)
			(layers "F.Cu" "F.Paste" "F.Mask")
			(net 21 "GND")
			(pinfunction "3")
			(pintype "unspecified")
			(uuid "201ac541-5455-4e9a-b595-19cabe5f5fbf")
		)
		(pad "4" smd rect
			(at 3 1.28 90)
			(size 2.5 2.35)
			(layers "F.Cu" "F.Paste" "F.Mask")
			(net 21 "GND")
			(pinfunction "4")
			(pintype "unspecified")
			(uuid "ed3d9bbf-89af-4abe-b122-d63bc22b28af")
		)
		(model "${EASYEDA2KICAD}/easyeda2kicad.3dshapes/CONN-SMD_2P-P1.25-HC-1.25-2PWT.wrl"
			(offset
				(xyz 0.5 -1.5 0)
			)
			(scale
				(xyz 1 1 1)
			)
			(rotate
				(xyz 0 0 0)
			)
		)
	)
	(footprint "easyeda2kicad:CONN-SMD_4P-P1.25-HC-1.25-4PWT"
		(layer "F.Cu")
		(uuid "f5b9e717-9da8-41e6-8231-a59e1a1c3bdd")
		(at 123 102 -90)
		(property "Reference" "CN4"
			(at 0 -5.3 90)
			(layer "F.SilkS")
			(uuid "836415e2-31dc-497f-9e17-ac0eb2edbb99")
			(effects
				(font
					(size 1 1)
					(thickness 0.15)
				)
			)
		)
		(property "Value" "HC-1.25-4PWT"
			(at 0 5.3 90)
			(layer "F.Fab")
			(uuid "1b558cd2-2658-4eb5-acc8-84e5bb506c7e")
			(effects
				(font
					(size 1 1)
					(thickness 0.15)
				)
			)
		)
		(property "Footprint" "easyeda2kicad:CONN-SMD_4P-P1.25-HC-1.25-4PWT"
			(at 0 0 -90)
			(unlocked yes)
			(layer "F.Fab")
			(hide yes)
			(uuid "e3a5c763-53d8-454e-a97b-309c0bd2777c")
			(effects
				(font
					(size 1.27 1.27)
				)
			)
		)
		(property "Datasheet" ""
			(at 0 0 -90)
			(unlocked yes)
			(layer "F.Fab")
			(hide yes)
			(uuid "bd235f0d-8e08-41be-9467-ef81705f783d")
			(effects
				(font
					(size 1.27 1.27)
				)
			)
		)
		(property "Description" ""
			(at 0 0 -90)
			(unlocked yes)
			(layer "F.Fab")
			(hide yes)
			(uuid "067f20e7-3605-4034-ac8a-2954080f511e")
			(effects
				(font
					(size 1.27 1.27)
				)
			)
		)
		(property "LCSC Part" "C2845381"
			(at 0 0 -90)
			(unlocked yes)
			(layer "F.Fab")
			(hide yes)
			(uuid "a6364d86-f295-465f-b422-da6e23a9b09f")
			(effects
				(font
					(size 1 1)
					(thickness 0.15)
				)
			)
		)
		(path "/ee6ad52c-17cd-4f69-81ba-9436d0b95ab6")
		(sheetname "Root")
		(sheetfile "extruderevolved.kicad_sch")
		(attr smd)
		(fp_line
			(start -5.08 3.55)
			(end -5.08 2.78)
			(stroke
				(width 0.25)
				(type solid)
			)
			(layer "F.SilkS")
			(uuid "b887e2c1-ab57-44d3-b149-42ce1a032e2d")
		)
		(fp_line
			(start 5.05 3.55)
			(end -5.08 3.55)
			(stroke
				(width 0.25)
				(type solid)
			)
			(layer "F.SilkS")
			(uuid "cbbdbe47-86fa-444d-ac3c-d5df9fc8e841")
		)
		(fp_line
			(start 5.05 2.78)
			(end 5.05 3.55)
			(stroke
				(width 0.25)
				(type solid)
			)
			(layer "F.SilkS")
			(uuid "2b4ee462-0a28-484a-b1b7-0c841134bf6c")
		)
		(fp_line
			(start -5.08 -0.18)
			(end -5.08 -0.93)
			(stroke
				(width 0.25)
				(type solid)
			)
			(layer "F.SilkS")
			(uuid "7fcd82d9-09d4-420a-9d10-532dd9f2266b")
		)
		(fp_line
			(start -5.08 -0.93)
			(end -2.67 -0.93)
			(stroke
				(width 0.25)
				(type solid)
			)
			(layer "F.SilkS")
			(uuid "1e0d3f85-45b9-4f05-bdff-906181d57553")
		)
		(fp_line
			(start 2.65 -0.95)
			(end 5.05 -0.95)
			(stroke
				(width 0.25)
				(type solid)
			)
			(layer "F.SilkS")
			(uuid "878ce695-8229-4a90-8f54-57a5475fd538")
		)
		(fp_line
			(start 5.05 -0.95)
			(end 5.05 -0.18)
			(stroke
				(width 0.25)
				(type solid)
			)
			(layer "F.SilkS")
			(uuid "e57b69ea-4a24-4c4c-9cb2-c402c6439a55")
		)
		(fp_circle
			(center -3.21 -1.67)
			(end -3 -1.67)
			(stroke
				(width 0.25)
				(type solid)
			)
			(fill none)
			(layer "F.SilkS")
			(uuid "d459457d-7f69-41d8-aa55-11389427e598")
		)
		(fp_circle
			(center -2.25 -2.3)
			(end -2.1 -2.3)
			(stroke
				(width 0.3)
				(type solid)
			)
			(fill none)
			(layer "Cmts.User")
			(uuid "4e38236f-04d6-4204-b549-c860a5416223")
		)
		(fp_circle
			(center -5.01 -1.84)
			(end -4.98 -1.84)
			(stroke
				(width 0.06)
				(type solid)
			)
			(fill none)
			(layer "F.Fab")
			(uuid "7cc3533a-7ad8-4b18-bfde-73616c45309f")
		)
		(fp_text user "${REFERENCE}"
			(at 0 0 90)
			(layer "F.Fab")
			(uuid "28db82db-285c-487c-9499-fdb754e85a14")
			(effects
				(font
					(size 1 1)
					(thickness 0.15)
				)
			)
		)
		(pad "1" smd rect
			(at -1.88 -1.3)
			(size 2.2 0.8)
			(layers "F.Cu" "F.Paste" "F.Mask")
			(net 8 "E Motor #1")
			(pinfunction "1")
			(pintype "unspecified")
			(uuid "4a48db8c-6cbb-4b93-80d2-4e1dec5a8171")
		)
		(pad "2" smd rect
			(at -0.63 -1.3)
			(size 2.2 0.8)
			(layers "F.Cu" "F.Paste" "F.Mask")
			(net 15 "E Motor #2")
			(pinfunction "2")
			(pintype "unspecified")
			(uuid "0ca218dd-1086-4d91-ab9f-932ab1b43745")
		)
		(pad "3" smd rect
			(at 0.63 -1.3)
			(size 2.2 0.8)
			(layers "F.Cu" "F.Paste" "F.Mask")
			(net 14 "E Motor #3")
			(pinfunction "3")
			(pintype "unspecified")
			(uuid "4bb05bfc-7e38-4646-8a62-ff10f374ff62")
		)
		(pad "4" smd rect
			(at 1.88 -1.3)
			(size 2.2 0.8)
			(layers "F.Cu" "F.Paste" "F.Mask")
			(net 19 "E Motor #4")
			(pinfunction "4")
			(pintype "unspecified")
			(uuid "f74775ab-b2d4-43af-88b4-368f8b732a18")
		)
		(pad "5" smd rect
			(at 4.26 1.3 90)
			(size 2.35 2.5)
			(layers "F.Cu" "F.Paste" "F.Mask")
			(net 21 "GND")
			(pinfunction "5")
			(pintype "unspecified")
			(uuid "11ce7e49-ed40-4243-a9d0-a48c68420ab8")
		)
		(pad "6" smd rect
			(at -4.26 1.3 90)
			(size 2.35 2.5)
			(layers "F.Cu" "F.Paste" "F.Mask")
			(net 21 "GND")
			(pinfunction "6")
			(pintype "unspecified")
			(uuid "3f9287c1-b985-4355-9620-1b5c110af3a9")
		)
		(model "${EASYEDA2KICAD}/easyeda2kicad.3dshapes/CONN-SMD_4P-P1.25-HC-1.25-4PWT.wrl"
			(offset
				(xyz 1.9 -1.5 0)
			)
			(scale
				(xyz 1 1 1)
			)
			(rotate
				(xyz 0 0 0)
			)
		)
	)
	(gr_line
		(start 119 86)
		(end 123 86)
		(stroke
			(width 0.05)
			(type default)
		)
		(layer "Edge.Cuts")
		(uuid "0cceacd6-22d5-48ba-a373-f2ae78780660")
	)
	(gr_line
		(start 144 116)
		(end 127 116)
		(stroke
			(width 0.05)
			(type default)
		)
		(layer "Edge.Cuts")
		(uuid "14410937-ff9d-4011-9b76-f4b21e84401c")
	)
	(gr_arc
		(start 164 110)
		(mid 164.707107 110.292893)
		(end 165 111)
		(stroke
			(width 0.05)
			(type default)
		)
		(layer "Edge.Cuts")
		(uuid "23576790-d1fc-4d4e-8e07-14657bbdbe27")
	)
	(gr_arc
		(start 127 116)
		(mid 126.292893 115.707107)
		(end 126 115)
		(stroke
			(width 0.05)
			(type default)
		)
		(layer "Edge.Cuts")
		(uuid "2d7f97f1-2ded-4918-a3ab-06f1ef36d313")
	)
	(gr_arc
		(start 179 70)
		(mid 179.707107 70.292893)
		(end 180 71)
		(stroke
			(width 0.05)
			(type default)
		)
		(layer "Edge.Cuts")
		(uuid "2f359492-d0df-4eac-8bc4-11282a21ae54")
	)
	(gr_line
		(start 187 107)
		(end 187 115)
		(stroke
			(width 0.05)
			(type default)
		)
		(layer "Edge.Cuts")
		(uuid "3096d793-79cb-4077-84a9-dc9a15413349")
	)
	(gr_arc
		(start 186 106)
		(mid 186.707107 106.292893)
		(end 187 107)
		(stroke
			(width 0.05)
			(type default)
		)
		(layer "Edge.Cuts")
		(uuid "41cffbc2-1860-4169-b488-2190f8547d40")
	)
	(gr_line
		(start 181 75)
		(end 186 75)
		(stroke
			(width 0.05)
			(type default)
		)
		(layer "Edge.Cuts")
		(uuid "5726448c-a9a9-450e-b0fb-579bdec1706f")
	)
	(gr_arc
		(start 145 115)
		(mid 144.707107 115.707107)
		(end 144 116)
		(stroke
			(width 0.05)
			(type default)
		)
		(layer "Edge.Cuts")
		(uuid "5785d9cb-c373-44a1-bada-9f50bb36eb58")
	)
	(gr_arc
		(start 186 75)
		(mid 186.707107 75.292893)
		(end 187 76)
		(stroke
			(width 0.05)
			(type default)
		)
		(layer "Edge.Cuts")
		(uuid "646e69ff-a539-401d-9c18-29adbf81b9aa")
	)
	(gr_line
		(start 145 115)
		(end 145 111)
		(stroke
			(width 0.05)
			(type default)
		)
		(layer "Edge.Cuts")
		(uuid "64c235d8-539b-408e-8007-99513e4a480b")
	)
	(gr_arc
		(start 124 85)
		(mid 123.707107 85.707107)
		(end 123 86)
		(stroke
			(width 0.05)
			(type default)
		)
		(layer "Edge.Cuts")
		(uuid "6b514b88-df9b-4e25-ac1f-d56b00081aa3")
	)
	(gr_arc
		(start 180 97)
		(mid 180.292893 96.292893)
		(end 181 96)
		(stroke
			(width 0.05)
			(type default)
		)
		(layer "Edge.Cuts")
		(uuid "70ffe24e-656b-4ea4-9eb6-543e3f98288c")
	)
	(gr_line
		(start 180 97)
		(end 180 105)
		(stroke
			(width 0.05)
			(type default)
		)
		(layer "Edge.Cuts")
		(uuid "724155fc-594d-4393-866d-188e8503aa23")
	)
	(gr_line
		(start 181 106)
		(end 186 106)
		(stroke
			(width 0.05)
			(type default)
		)
		(layer "Edge.Cuts")
		(uuid "77c4590f-22eb-443c-95fa-eff88849aa2e")
	)
	(gr_line
		(start 125 74)
		(end 130 74)
		(stroke
			(width 0.05)
			(type default)
		)
		(layer "Edge.Cuts")
		(uuid "7f77ddae-bed1-4886-a405-98374c7eac32")
	)
	(gr_arc
		(start 187 95)
		(mid 186.707107 95.707107)
		(end 186 96)
		(stroke
			(width 0.05)
			(type default)
		)
		(layer "Edge.Cuts")
		(uuid "80405b35-bead-45da-a12d-0be04f98d297")
	)
	(gr_line
		(start 186 96)
		(end 181 96)
		(stroke
			(width 0.05)
			(type default)
		)
		(layer "Edge.Cuts")
		(uuid "80c73a22-5c99-4a7e-9bf1-ca90c3129c0c")
	)
	(gr_arc
		(start 125 108)
		(mid 125.707107 108.292893)
		(end 126 109)
		(stroke
			(width 0.05)
			(type default)
		)
		(layer "Edge.Cuts")
		(uuid "87d741a8-22e1-48aa-960e-0c012d7f1fb5")
	)
	(gr_line
		(start 124 85)
		(end 124 75)
		(stroke
			(width 0.05)
			(type default)
		)
		(layer "Edge.Cuts")
		(uuid "93276804-c082-410e-b3b6-72580d7bcd78")
	)
	(gr_arc
		(start 124 75)
		(mid 124.292893 74.292893)
		(end 125 74)
		(stroke
			(width 0.05)
			(type default)
		)
		(layer "Edge.Cuts")
		(uuid "9735829b-d2df-4600-a025-72041ca22846")
	)
	(gr_line
		(start 125 108)
		(end 119 108)
		(stroke
			(width 0.05)
			(type default)
		)
		(layer "Edge.Cuts")
		(uuid "a0420394-746f-42fd-a286-74b12511b235")
	)
	(gr_arc
		(start 187 115)
		(mid 186.707107 115.707107)
		(end 186 116)
		(stroke
			(width 0.05)
			(type default)
		)
		(layer "Edge.Cuts")
		(uuid "aa194118-d036-4d8d-a1ac-07917895c40b")
	)
	(gr_line
		(start 131 59)
		(end 171 59)
		(stroke
			(width 0.05)
			(type default)
		)
		(layer "Edge.Cuts")
		(uuid "ab39360c-9ad1-42b0-b153-8a736c0719bc")
	)
	(gr_line
		(start 171 59)
		(end 171 69)
		(stroke
			(width 0.05)
			(type default)
		)
		(layer "Edge.Cuts")
		(uuid "ab3f8d7f-ee7e-4cd7-8704-81b74d23667e")
	)
	(gr_line
		(start 187 76)
		(end 187 95)
		(stroke
			(width 0.05)
			(type default)
		)
		(layer "Edge.Cuts")
		(uuid "b26089d2-c5c3-4989-b6a5-0fba371452fe")
	)
	(gr_arc
		(start 145 111)
		(mid 145.292893 110.292893)
		(end 146 110)
		(stroke
			(width 0.05)
			(type default)
		)
		(layer "Edge.Cuts")
		(uuid "b342e776-81b9-40cf-9e65-2224d5cbe44d")
	)
	(gr_line
		(start 131 70)
		(end 131 59)
		(stroke
			(width 0.05)
			(type default)
		)
		(layer "Edge.Cuts")
		(uuid "b34e1cd6-0158-4a35-8188-6bd93fef6a38")
	)
	(gr_line
		(start 126 115)
		(end 126 109)
		(stroke
			(width 0.05)
			(type default)
		)
		(layer "Edge.Cuts")
		(uuid "bdbf791c-df19-44d8-bd1c-5044272d7494")
	)
	(gr_line
		(start 186 116)
		(end 166 116)
		(stroke
			(width 0.05)
			(type default)
		)
		(layer "Edge.Cuts")
		(uuid "c7e7bb28-1db5-416f-b044-801a5ae1c29e")
	)
	(gr_line
		(start 172 70)
		(end 179 70)
		(stroke
			(width 0.05)
			(type default)
		)
		(layer "Edge.Cuts")
		(uuid "ce60cc29-8d9d-4b32-9956-7b967840ee12")
	)
	(gr_arc
		(start 181 75)
		(mid 180.292893 74.707107)
		(end 180 74)
		(stroke
			(width 0.05)
			(type default)
		)
		(layer "Edge.Cuts")
		(uuid "d7f0e660-e6cf-401c-87b4-98001e635f9c")
	)
	(gr_arc
		(start 172 70)
		(mid 171.292893 69.707107)
		(end 171 69)
		(stroke
			(width 0.05)
			(type default)
		)
		(layer "Edge.Cuts")
		(uuid "dff65d54-e79e-40ef-be77-e2d1ac8ec886")
	)
	(gr_arc
		(start 166 116)
		(mid 165.292893 115.707107)
		(end 165 115)
		(stroke
			(width 0.05)
			(type default)
		)
		(layer "Edge.Cuts")
		(uuid "e09555a7-dae2-48a1-a408-a689fe2d2d56")
	)
	(gr_line
		(start 165 115)
		(end 165 111)
		(stroke
			(width 0.05)
			(type default)
		)
		(layer "Edge.Cuts")
		(uuid "e7db56ef-272a-466b-b365-6eb12db411be")
	)
	(gr_arc
		(start 181 106)
		(mid 180.292893 105.707107)
		(end 180 105)
		(stroke
			(width 0.05)
			(type default)
		)
		(layer "Edge.Cuts")
		(uuid "f3758569-316e-4adb-94a3-832365bcd477")
	)
	(gr_line
		(start 164 110)
		(end 146 110)
		(stroke
			(width 0.05)
			(type default)
		)
		(layer "Edge.Cuts")
		(uuid "f5d2071b-25aa-457c-aa55-748f7b99354b")
	)
	(gr_line
		(start 119 108)
		(end 119 86)
		(stroke
			(width 0.05)
			(type default)
		)
		(layer "Edge.Cuts")
		(uuid "f8902c70-2371-402b-bb1d-38bbb991aa23")
	)
	(gr_arc
		(start 131 73)
		(mid 130.707107 73.707107)
		(end 130 74)
		(stroke
			(width 0.05)
			(type default)
		)
		(layer "Edge.Cuts")
		(uuid "f966b761-8e36-4128-a66a-e992b63c52d8")
	)
	(gr_line
		(start 180 71)
		(end 180 74)
		(stroke
			(width 0.05)
			(type default)
		)
		(layer "Edge.Cuts")
		(uuid "fd460971-3a88-4a5a-8bc4-d9350ee81152")
	)
	(gr_line
		(start 131 73)
		(end 131 70)
		(stroke
			(width 0.05)
			(type default)
		)
		(layer "Edge.Cuts")
		(uuid "fe4f6acd-98ef-4100-9df8-9465ce8b98bc")
	)
	(segment
		(start 169.87 109.2983)
		(end 169.8017 109.23)
		(width 0.2)
		(layer "F.Cu")
		(net 1)
		(uuid "7ea832d3-22cf-4e74-a5dc-a0613665d89b")
	)
	(segment
		(start 169.87 110.7)
		(end 169.87 109.2983)
		(width 0.2)
		(layer "F.Cu")
		(net 1)
		(uuid "a01931a9-e46b-43ba-a4c8-f3fddf6a5c5c")
	)
	(segment
		(start 169.8017 109.23)
		(end 169.8017 108.744)
		(width 0.2)
		(layer "F.Cu")
		(net 1)
		(uuid "a107e7ab-f0c7-4b39-a539-0c4a46116cdb")
	)
	(via
		(at 169.8017 108.744)
		(size 0.6)
		(drill 0.3)
		(layers "F.Cu" "B.Cu")
		(net 1)
		(uuid "1c18d273-77e7-4387-b3d9-a2526440efab")
	)
	(segment
		(start 170.1076 71.0476)
		(end 170.1076 108.4381)
		(width 0.2)
		(layer "B.Cu")
		(net 1)
		(uuid "127a4194-8405-43f3-bc94-a75552e2bbe1")
	)
	(segment
		(start 162.5893 63.5293)
		(end 170.1076 71.0476)
		(width 0.2)
		(layer "B.Cu")
		(net 1)
		(uuid "60817869-795f-400c-930d-8ff9c4fbcf9d")
	)
	(segment
		(start 170.1076 108.4381)
		(end 169.8017 108.744)
		(width 0.2)
		(layer "B.Cu")
		(net 1)
		(uuid "7c14f166-f858-4762-9882-c9f23e09d704")
	)
	(segment
		(start 154 65)
		(end 155.4707 63.5293)
		(width 0.2)
		(layer "B.Cu")
		(net 1)
		(uuid "8beacc52-7f12-40fb-9f6a-7f8f8e9b08f3")
	)
	(segment
		(start 155.4707 63.5293)
		(end 162.5893 63.5293)
		(width 0.2)
		(layer "B.Cu")
		(net 1)
		(uuid "bef1699d-37ee-4216-8fb0-3d724e923efa")
	)
	(segment
		(start 166.6402 97.2409)
		(end 166.6402 107.3185)
		(width 0.2)
		(layer "F.Cu")
		(net 2)
		(uuid "0b4250a8-d664-4fea-9d51-69e00b3223b8")
	)
	(segment
		(start 158.6304 89.2311)
		(end 166.6402 97.2409)
		(width 0.2)
		(layer "F.Cu")
		(net 2)
		(uuid "2288795a-d18c-48e4-a336-b59ff596ae4b")
	)
	(segment
		(start 168.62 110.7)
		(end 168.62 109.2983)
		(width 0.2)
		(layer "F.Cu")
		(net 2)
		(uuid "a64ee79e-0315-426d-9ee2-ab6d743e8a61")
	)
	(segment
		(start 166.6402 107.3185)
		(end 168.62 109.2983)
		(width 0.2)
		(layer "F.Cu")
		(net 2)
		(uuid "aba3f286-3520-4ac4-a11a-f3728cea3f53")
	)
	(via
		(at 158.6304 89.2311)
		(size 0.6)
		(drill 0.3)
		(layers "F.Cu" "B.Cu")
		(net 2)
		(uuid "c3367665-00a5-497f-97ee-9d209076659f")
	)
	(segment
		(start 154 84.6007)
		(end 158.6304 89.2311)
		(width 0.2)
		(layer "B.Cu")
		(net 2)
		(uuid "30bc87d6-80f3-4d46-851a-0552e3f762c5")
	)
	(segment
		(start 154 67)
		(end 154 84.6007)
		(width 0.2)
		(layer "B.Cu")
		(net 2)
		(uuid "44e18c51-3302-4190-9880-08b98064d848")
	)
	(segment
		(start 150 65)
		(end 148 65)
		(width 0.2)
		(layer "F.Cu")
		(net 3)
		(uuid "15f009e7-0b86-49dd-95a9-e0159253959a")
	)
	(segment
		(start 132.42 106.7)
		(end 132.42 104.5483)
		(width 0.2)
		(layer "F.Cu")
		(net 3)
		(uuid "2c0d0cbb-6794-4c43-afe5-148694ac994a")
	)
	(segment
		(start 132.42 104.5483)
		(end 132.42 104.347)
		(width 0.2)
		(layer "F.Cu")
		(net 3)
		(uuid "401c84af-b231-45c9-ab1d-3a0a358cd01a")
	)
	(via
		(at 132.42 104.347)
		(size 0.6)
		(drill 0.3)
		(layers "F.Cu" "B.Cu")
		(net 3)
		(uuid "e3e78aeb-e96d-4c1f-837c-aaa29c60bff3")
	)
	(segment
		(start 144.9354 63.9354)
		(end 139.5511 63.9354)
		(width 0.2)
		(layer "B.Cu")
		(net 3)
		(uuid "1e0e5c0e-5e41-4dce-b9f5-fbd65e81c826")
	)
	(segment
		(start 146 65)
		(end 144.9354 63.9354)
		(width 0.2)
		(layer "B.Cu")
		(net 3)
		(uuid "26a76b26-e293-46ea-87a2-14a8ee17bef2")
	)
	(segment
		(start 148 65)
		(end 146 65)
		(width 0.2)
		(layer "B.Cu")
		(net 3)
		(uuid "bbe207b3-fc99-4d60-b3cd-1a7a05e95c66")
	)
	(segment
		(start 132.42 71.0665)
		(end 132.42 104.347)
		(width 0.2)
		(layer "B.Cu")
		(net 3)
		(uuid "e33217cb-41b1-4716-b3b8-a13cdef42419")
	)
	(segment
		(start 139.5511 63.9354)
		(end 132.42 71.0665)
		(width 0.2)
		(layer "B.Cu")
		(net 3)
		(uuid "f92a64e8-00f7-44b1-85e4-4cb53382fcc0")
	)
	(segment
		(start 148 67)
		(end 146 67)
		(width 0.2)
		(layer "F.Cu")
		(net 4)
		(uuid "2be6e30a-ec5a-400f-9d8d-9ec5aaad4348")
	)
	(segment
		(start 146 67)
		(end 146 88.6783)
		(width 0.2)
		(layer "F.Cu")
		(net 4)
		(uuid "3a1da710-d56d-4a70-acdf-ef6e70d45557")
	)
	(segment
		(start 150 67)
		(end 148 67)
		(width 0.2)
		(layer "F.Cu")
		(net 4)
		(uuid "4e60450e-1e51-4b72-99db-c4f25ef20b2b")
	)
	(segment
		(start 130.42 104.2583)
		(end 130.42 106.7)
		(width 0.2)
		(layer "F.Cu")
		(net 4)
		(uuid "c96fb282-e84a-49c6-aaee-4beba0b2f63d")
	)
	(segment
		(start 146 88.6783)
		(end 130.42 104.2583)
		(width 0.2)
		(layer "F.Cu")
		(net 4)
		(uuid "d2245dc8-3fa4-4a4f-aa6b-7720601e34ce")
	)
	(segment
		(start 169.5059 98.0307)
		(end 172.37 100.8948)
		(width 0.2)
		(layer "F.Cu")
		(net 6)
		(uuid "4ff9717d-b8b3-49e4-aa63-f9ab5b865f85")
	)
	(segment
		(start 172.37 100.8948)
		(end 172.37 110.7)
		(width 0.2)
		(layer "F.Cu")
		(net 6)
		(uuid "9d13e1a9-9d84-401a-824c-8a3eb3bc51c2")
	)
	(via
		(at 169.5059 98.0307)
		(size 0.6)
		(drill 0.3)
		(layers "F.Cu" "B.Cu")
		(net 6)
		(uuid "2d549330-ba0e-4e49-b6d9-0a1b47f9e667")
	)
	(segment
		(start 156 65)
		(end 157.0604 63.9396)
		(width 0.2)
		(layer "B.Cu")
		(net 6)
		(uuid "03e69623-c038-456f-86ba-5ac53f6df365")
	)
	(segment
		(start 165.2662 66.7776)
		(end 165.2662 93.7911)
		(width 0.2)
		(layer "B.Cu")
		(net 6)
		(uuid "51d65dbc-1be5-4e8a-93cb-78bfcb60c181")
	)
	(segment
		(start 165.2663 93.7911)
		(end 169.5059 98.0307)
		(width 0.2)
		(layer "B.Cu")
		(net 6)
		(uuid "72ba3e84-254d-4da6-af89-b9c9503e622e")
	)
	(segment
		(start 165.2662 93.7911)
		(end 165.2663 93.7911)
		(width 0.2)
		(layer "B.Cu")
		(net 6)
		(uuid "aa056a04-7db5-4cf9-b4f7-5d020a7f15e7")
	)
	(segment
		(start 162.4282 63.9396)
		(end 165.2662 66.7776)
		(width 0.2)
		(layer "B.Cu")
		(net 6)
		(uuid "c9ea8c21-fdc1-4f29-951c-d9d4e707851d")
	)
	(segment
		(start 157.0604 63.9396)
		(end 162.4282 63.9396)
		(width 0.2)
		(layer "B.Cu")
		(net 6)
		(uuid "e67205d9-e23a-4414-acc1-a1de5b3f272c")
	)
	(segment
		(start 181.38 110.72)
		(end 181.38 109.3183)
		(width 0.2)
		(layer "F.Cu")
		(net 7)
		(uuid "1c47b417-c068-4a64-85db-f41dbcfc3bd2")
	)
	(segment
		(start 183.1017 88.155)
		(end 179.2646 91.9921)
		(width 0.2)
		(layer "F.Cu")
		(net 7)
		(uuid "3b15a5fb-e459-4d62-be1d-8db5ab14fe9e")
	)
	(segment
		(start 179.2646 107.2029)
		(end 181.38 109.3183)
		(width 0.2)
		(layer "F.Cu")
		(net 7)
		(uuid "411db606-7c06-464e-9097-dba2b72e5dab")
	)
	(segment
		(start 183.1017 84.4942)
		(end 183.1017 88.155)
		(width 0.2)
		(layer "F.Cu")
		(net 7)
		(uuid "5676e653-266f-4283-9171-03441026ed1d")
	)
	(segment
		(start 162.5428 63.9353)
		(end 183.1017 84.4942)
		(width 0.2)
		(layer "F.Cu")
		(net 7)
		(uuid "69fc0895-0153-43a8-a7dc-94c203f52b58")
	)
	(segment
		(start 152 65)
		(end 153.0647 63.9353)
		(width 0.2)
		(layer "F.Cu")
		(net 7)
		(uuid "9355b8e8-66db-4739-8a54-4daa9c01dec6")
	)
	(segment
		(start 153.0647 63.9353)
		(end 162.5428 63.9353)
		(width 0.2)
		(layer "F.Cu")
		(net 7)
		(uuid "cb4e4b08-02ae-496a-82d0-22601ce7bfea")
	)
	(segment
		(start 179.2646 91.9921)
		(end 179.2646 107.2029)
		(width 0.2)
		(layer "F.Cu")
		(net 7)
		(uuid "e33c49cd-3c12-4d4d-b40e-ad835b08c4d4")
	)
	(segment
		(start 136.2117 81.1997)
		(end 136.2117 89.61)
		(width 0.2)
		(layer "F.Cu")
		(net 8)
		(uuid "1edc1078-20f1-4a43-9890-ef4129c23913")
	)
	(segment
		(start 124.3 100.12)
		(end 125.7017 100.12)
		(width 0.2)
		(layer "F.Cu")
		(net 8)
		(uuid "ab170b7a-4471-4847-8a7a-426c67cebdc5")
	)
	(segment
		(start 136.2117 89.61)
		(end 125.7017 100.12)
		(width 0.2)
		(layer "F.Cu")
		(net 8)
		(uuid "e5e3b9da-45ca-4b8f-8526-e4afd74710ee")
	)
	(via
		(at 136.2117 81.1997)
		(size 0.6)
		(drill 0.3)
		(layers "F.Cu" "B.Cu")
		(net 8)
		(uuid "1f3e7feb-0be3-4e28-b31a-aa77f1d8a017")
	)
	(segment
		(start 140 77.4114)
		(end 136.2117 81.1997)
		(width 0.2)
		(layer "B.Cu")
		(net 8)
		(uuid "33cdaeb2-3284-46d0-ade0-60abf205191e")
	)
	(segment
		(start 140 67)
		(end 140 77.4114)
		(width 0.2)
		(layer "B.Cu")
		(net 8)
		(uuid "bf6b95bc-d279-4781-96fb-ad76ffe6fc27")
	)
	(segment
		(start 141.62 109.0383)
		(end 144.7895 109.0383)
		(width 0.2)
		(layer "F.Cu")
		(net 9)
		(uuid "048df575-6098-4c92-bfbf-7804eede5440")
	)
	(segment
		(start 141.62 110.44)
		(end 141.62 109.0383)
		(width 0.2)
		(layer "F.Cu")
		(net 9)
		(uuid "575d6cd1-4580-4bf3-8985-9530071601c0")
	)
	(segment
		(start 144.7895 109.0383)
		(end 158.728 95.0998)
		(width 0.2)
		(layer "F.Cu")
		(net 9)
		(uuid "7ef953de-08cd-427e-a052-60b0a01aa690")
	)
	(via
		(at 158.728 95.0998)
		(size 0.6)
		(drill 0.3)
		(layers "F.Cu" "B.Cu")
		(net 9)
		(uuid "aa4a2535-7c52-4d11-a33d-8cfe8125e5ba")
	)
	(segment
		(start 163.0722 66.0722)
		(end 163.0722 90.7556)
		(width 0.2)
		(layer "B.Cu")
		(net 9)
		(uuid "4de20843-d0ab-493c-85bc-efb86e48c8f4")
	)
	(segment
		(start 162 65)
		(end 163.0722 66.0722)
		(width 0.2)
		(layer "B.Cu")
		(net 9)
		(uuid "bad2c1ee-ebe5-44e4-b85c-d55e9680e042")
	)
	(segment
		(start 163.0722 90.7556)
		(end 158.728 95.0998)
		(width 0.2)
		(layer "B.Cu")
		(net 9)
		(uuid "e915e167-fcee-4907-a797-cd63ec9b820e")
	)
	(segment
		(start 152 67)
		(end 174.3202 89.3202)
		(width 0.2)
		(layer "F.Cu")
		(net 10)
		(uuid "37ce4fdd-a8dc-4bb4-b1ef-863cb4abe70d")
	)
	(segment
		(start 182.62 110.72)
		(end 182.62 112.1217)
		(width 0.2)
		(layer "F.Cu")
		(net 10)
		(uuid "9cd43c7b-a96d-4412-baa5-fa30842e31b5")
	)
	(segment
		(start 174.3202 105.5929)
		(end 180.849 112.1217)
		(width 0.2)
		(layer "F.Cu")
		(net 10)
		(uuid "c458f8cb-f3a3-4109-9e31-dd443ab6c88c")
	)
	(segment
		(start 174.3202 89.3202)
		(end 174.3202 105.5929)
		(width 0.2)
		(layer "F.Cu")
		(net 10)
		(uuid "e6910b7b-4d47-4c50-92e0-38bc62f130d5")
	)
	(segment
		(start 180.849 112.1217)
		(end 182.62 112.1217)
		(width 0.2)
		(layer "F.Cu")
		(net 10)
		(uuid "fbf540d9-281f-40ac-a405-739ca8518477")
	)
	(segment
		(start 124.28 90.38)
		(end 125.6817 90.38)
		(width 0.2)
		(layer "F.Cu")
		(net 12)
		(uuid "0b495f5e-064f-49e1-b39c-4896899e253b")
	)
	(segment
		(start 139.4347 63.4779)
		(end 133.9803 68.9323)
		(width 0.2)
		(layer "F.Cu")
		(net 12)
		(uuid "930e18b8-b777-40f4-bf87-26d3a43986cf")
	)
	(segment
		(start 133.9803 68.9323)
		(end 133.9803 82.0814)
		(width 0.2)
		(layer "F.Cu")
		(net 12)
		(uuid "bd4d3b3e-a08c-4255-93dc-af460c15dead")
	)
	(segment
		(start 142.4779 63.4779)
		(end 139.4347 63.4779)
		(width 0.2)
		(layer "F.Cu")
		(net 12)
		(uuid "c329ea55-2c4f-4a89-b44f-e43396a6301a")
	)
	(segment
		(start 144 65)
		(end 142.4779 63.4779)
		(width 0.2)
		(layer "F.Cu")
		(net 12)
		(uuid "cb8d3e09-d54b-45be-9311-566589a56ba4")
	)
	(segment
		(start 133.9803 82.0814)
		(end 125.6817 90.38)
		(width 0.2)
		(layer "F.Cu")
		(net 12)
		(uuid "f8502c97-6201-4c29-ac3b-00a685ac4f69")
	)
	(segment
		(start 154.7683 94.65)
		(end 140.38 109.0383)
		(width 0.2)
		(layer "F.Cu")
		(net 13)
		(uuid "20310a16-99dc-4d48-9192-0459e107b743")
	)
	(segment
		(start 156.7745 94.65)
		(end 154.7683 94.65)
		(width 0.2)
		(layer "F.Cu")
		(net 13)
		(uuid "3e263bff-b84d-493d-89bc-f7599d4010c0")
	)
	(segment
		(start 140.38 110.44)
		(end 140.38 109.0383)
		(width 0.2)
		(layer "F.Cu")
		(net 13)
		(uuid "4555385d-4850-4f0d-bbb5-a1521e013310")
	)
	(via
		(at 156.7745 94.65)
		(size 0.6)
		(drill 0.3)
		(layers "F.Cu" "B.Cu")
		(net 13)
		(uuid "8cfaf0c2-8fd1-4206-8969-253d8f93b292")
	)
	(segment
		(start 162 89.4245)
		(end 156.7745 94.65)
		(width 0.2)
		(layer "B.Cu")
		(net 13)
		(uuid "196ed15b-8e7c-4a69-ba86-a22cb0a9b403")
	)
	(segment
		(start 162 67)
		(end 162 89.4245)
		(width 0.2)
		(layer "B.Cu")
		(net 13)
		(uuid "babb2c78-6b4f-447b-b365-90bc4bf27f79")
	)
	(segment
		(start 142 67)
		(end 142 86.3317)
		(width 0.2)
		(layer "F.Cu")
		(net 14)
		(uuid "611e5a3f-bc27-4866-866b-d77cbff87be0")
	)
	(segment
		(start 124.3 102.63)
		(end 125.7017 102.63)
		(width 0.2)
		(layer "F.Cu")
		(net 14)
		(uuid "79957eee-1199-4792-b3ec-af8ad620b452")
	)
	(segment
		(start 142 86.3317)
		(end 125.7017 102.63)
		(width 0.2)
		(layer "F.Cu")
		(net 14)
		(uuid "8702bd05-37ad-4883-baf0-160fc94e0335")
	)
	(segment
		(start 138.385 66.615)
		(end 140 65)
		(width 0.2)
		(layer "F.Cu")
		(net 15)
		(uuid "2da7e5d3-8803-4cca-94ea-fff77decbae2")
	)
	(segment
		(start 125.7017 101.37)
		(end 138.385 88.6867)
		(width 0.2)
		(layer "F.Cu")
		(net 15)
		(uuid "aabbf128-a69a-433c-a692-8eddcc943cbd")
	)
	(segment
		(start 124.3 101.37)
		(end 125.7017 101.37)
		(width 0.2)
		(layer "F.Cu")
		(net 15)
		(uuid "afab966e-0e00-45fe-a140-1c16a1444589")
	)
	(segment
		(start 138.385 88.6867)
		(end 138.385 66.615)
		(width 0.2)
		(layer "F.Cu")
		(net 15)
		(uuid "c59fb914-97cc-4417-89df-76663d870466")
	)
	(segment
		(start 167.3638 102.3192)
		(end 167.3638 96.7152)
		(width 0.2)
		(layer "F.Cu")
		(net 16)
		(uuid "19a97774-f844-410a-ba31-a4c3d60f9a85")
	)
	(segment
		(start 167.3638 96.7152)
		(end 156.1007 85.4521)
		(width 0.2)
		(layer "F.Cu")
		(net 16)
		(uuid "1da3b7ea-3f66-4ad4-ab18-b935d3753395")
	)
	(segment
		(start 171.12 110.7)
		(end 171.12 106.0754)
		(width 0.2)
		(layer "F.Cu")
		(net 16)
		(uuid "4457b77f-a007-46ad-b4ba-c4343e5b87b6")
	)
	(segment
		(start 156.1007 85.4521)
		(end 156.1007 72.0862)
		(width 0.2)
		(layer "F.Cu")
		(net 16)
		(uuid "a55fb6eb-aeed-43b4-89b1-88106e08a0ff")
	)
	(segment
		(start 171.12 106.0754)
		(end 167.3638 102.3192)
		(width 0.2)
		(layer "F.Cu")
		(net 16)
		(uuid "e4eb9faa-af4c-43bf-b17b-8b05d0b6fbae")
	)
	(via
		(at 156.1007 72.0862)
		(size 0.6)
		(drill 0.3)
		(layers "F.Cu" "B.Cu")
		(net 16)
		(uuid "c224df5e-bcd3-483a-8929-df5791be31a0")
	)
	(segment
		(start 156 67)
		(end 156.1007 67.1007)
		(width 0.2)
		(layer "B.Cu")
		(net 16)
		(uuid "298295ec-358f-4724-8ee9-a81ad3fec0aa")
	)
	(segment
		(start 156.1007 67.1007)
		(end 156.1007 72.0862)
		(width 0.2)
		(layer "B.Cu")
		(net 16)
		(uuid "b3c21702-fe22-4130-8e54-d791e0a8b5db")
	)
	(segment
		(start 160 67)
		(end 178.12 85.12)
		(width 0.2)
		(layer "F.Cu")
		(net 17)
		(uuid "6820f6f2-8574-405d-a25d-1cf33ff919e9")
	)
	(segment
		(start 178.12 85.12)
		(end 181.7 85.12)
		(width 0.2)
		(layer "F.Cu")
		(net 17)
		(uuid "9d77d9db-9804-4f9f-9087-2ab4f023e4a5")
	)
	(segment
		(start 173.62 100.8957)
		(end 160.9978 88.2735)
		(width 0.2)
		(layer "F.Cu")
		(net 18)
		(uuid "472bd412-a45c-4ade-99ea-2918d42cf2ac")
	)
	(segment
		(start 173.62 110.7)
		(end 173.62 100.8957)
		(width 0.2)
		(layer "F.Cu")
		(net 18)
		(uuid "e0230ea8-f985-4c18-8e75-df4055f3d0b2")
	)
	(via
		(at 160.9978 88.2735)
		(size 0.6)
		(drill 0.3)
		(layers "F.Cu" "B.Cu")
		(net 18)
		(uuid "aca7340a-f6fd-477b-9963-c00f3addc338")
	)
	(segment
		(start 160.9977 88.2735)
		(end 160.9978 88.2735)
		(width 0.2)
		(layer "B.Cu")
		(net 18)
		(uuid "82b9f59f-daa1-4c7a-9ab8-5f07539ebecc")
	)
	(segment
		(start 160.9977 69.9977)
		(end 160.9977 88.2735)
		(width 0.2)
		(layer "B.Cu")
		(net 18)
		(uuid "b4b0f8c6-2c2d-4dd4-89fe-23d7f0d6526f")
	)
	(segment
		(start 158 67)
		(end 160.9977 69.9977)
		(width 0.2)
		(layer "B.Cu")
		(net 18)
		(uuid "f2d32c6a-450e-4830-92f8-4644eb2007c0")
	)
	(segment
		(start 134.6656 87.6361)
		(end 134.6656 68.815)
		(width 0.2)
		(layer "F.Cu")
		(net 19)
		(uuid "32aa959d-fa6a-4cae-ad68-5bf4d9f6e2ed")
	)
	(segment
		(start 139.5562 63.9244)
		(end 140.9244 63.9244)
		(width 0.2)
		(layer "F.Cu")
		(net 19)
		(uuid "a14e2b26-0fed-48d0-9d65-857f2d8249be")
	)
	(segment
		(start 140.9244 63.9244)
		(end 142 65)
		(width 0.2)
		(layer "F.Cu")
		(net 19)
		(uuid "acc4b251-de86-4433-b792-703f351104d7")
	)
	(segment
		(start 122.8983 99.4034)
		(end 134.6656 87.6361)
		(width 0.2)
		(layer "F.Cu")
		(net 19)
		(uuid "b8ff407d-4e0a-4634-8a3e-2c1e06a2a22b")
	)
	(segment
		(start 124.3 103.88)
		(end 122.8983 103.88)
		(width 0.2)
		(layer "F.Cu")
		(net 19)
		(uuid "d69c448c-6bc9-4931-b35c-86ec154f4945")
	)
	(segment
		(start 134.6656 68.815)
		(end 139.5562 63.9244)
		(width 0.2)
		(layer "F.Cu")
		(net 19)
		(uuid "f45586ff-df54-4b1e-a69b-fe3c1c18c40a")
	)
	(segment
		(start 122.8983 103.88)
		(end 122.8983 99.4034)
		(width 0.2)
		(layer "F.Cu")
		(net 19)
		(uuid "fb8ce2c1-3c2e-4ebc-b15f-7235b3b625d2")
	)
	(segment
		(start 127.5184 91.62)
		(end 124.28 91.62)
		(width 0.2)
		(layer "F.Cu")
		(net 20)
		(uuid "0556c741-2224-4dad-8ec7-d62316dafc2e")
	)
	(segment
		(start 133.0684 86.07)
		(end 127.5184 91.62)
		(width 0.2)
		(layer "F.Cu")
		(net 20)
		(uuid "7c4f5abe-4ac5-4861-91c1-86e27b1e9628")
	)
	(via
		(at 133.0684 86.07)
		(size 0.6)
		(drill 0.3)
		(layers "F.Cu" "B.Cu")
		(net 20)
		(uuid "7ccab012-9c06-481a-a546-be5e539e0487")
	)
	(segment
		(start 144 75.1384)
		(end 133.0684 86.07)
		(width 0.2)
		(layer "B.Cu")
		(net 20)
		(uuid "30bca16f-5795-45c5-8fa9-08547b13e021")
	)
	(segment
		(start 144 67)
		(end 144 75.1384)
		(width 0.2)
		(layer "B.Cu")
		(net 20)
		(uuid "a15a20bf-2fe5-41bc-8410-8061c795057e")
	)
	(segment
		(start 166.24 111.3396)
		(end 166.24 113.3)
		(width 0.2)
		(layer "F.Cu")
		(net 21)
		(uuid "0716562e-dc5a-4b96-909c-27ab0a5abb4a")
	)
	(segment
		(start 183.374 113.28)
		(end 185 113.28)
		(width 0.2)
		(layer "F.Cu")
		(net 21)
		(uuid "0dc9a1aa-4cc3-4489-8522-91eec60fb27e")
	)
	(segment
		(start 176 113.3)
		(end 166.24 113.3)
		(width 0.2)
		(layer "F.Cu")
		(net 21)
		(uuid "1c3ca18f-bd11-431b-bf86-135ecb1aeb80")
	)
	(segment
		(start 136.5233 112.324)
		(end 135.9976 111.7983)
		(width 0.2)
		(layer "F.Cu")
		(net 21)
		(uuid "37d6d516-db78-4ba2-a198-8a7499ca78f8")
	)
	(segment
		(start 145.4367 109.6706)
		(end 164.571 109.6706)
		(width 0.2)
		(layer "F.Cu")
		(net 21)
		(uuid "4214290e-dcdb-4a44-977e-d478f07aa360")
	)
	(segment
		(start 144 113)
		(end 144 111.1073)
		(width 0.2)
		(layer "F.Cu")
		(net 21)
		(uuid "4477e871-a3a5-418a-954a-1b596eecf2ae")
	)
	(segment
		(start 184.3 90)
		(end 184.3 82.74)
		(width 0.2)
		(layer "F.Cu")
		(net 21)
		(uuid "47eef268-96d3-434b-aa4a-455327f65443")
	)
	(segment
		(start 121.7 97.74)
		(end 121.7 96.2633)
		(width 0.2)
		(layer "F.Cu")
		(net 21)
		(uuid "49b6e54a-2c62-4a30-ad79-a8ce20d38cab")
	)
	(segment
		(start 135.9976 111.7983)
		(end 135 111.7983)
		(width 0.2)
		(layer "F.Cu")
		(net 21)
		(uuid "4a173d14-22b9-4fcb-805d-e90ec9869e5e")
	)
	(segment
		(start 179 113.28)
		(end 177.4967 113.28)
		(width 0.2)
		(layer "F.Cu")
		(net 21)
		(uuid "52c7007a-b318-41f4-bd69-be14289a9c82")
	)
	(segment
		(start 144 111.1073)
		(end 145.4367 109.6706)
		(width 0.2)
		(layer "F.Cu")
		(net 21)
		(uuid "534a7b0d-4707-4ade-9b31-a57201a84f16")
	)
	(segment
		(start 127.84 109.8939)
		(end 127.84 111.7983)
		(width 0.2)
		(layer "F.Cu")
		(net 21)
		(uuid "5901361e-f9c1-4b9e-9f0f-91520d28a552")
	)
	(segment
		(start 179.6699 105.5452)
		(end 179.6699 96.1068)
		(width 0.2)
		(layer "F.Cu")
		(net 21)
		(uuid "60869ed8-3354-41e5-a48e-4c000bed04db")
	)
	(segment
		(start 121.7 96.2633)
		(end 121.72 96.2433)
		(width 0.2)
		(layer "F.Cu")
		(net 21)
		(uuid "6087d077-4027-4602-bcec-fb3f0a87a40d")
	)
	(segment
		(start 135 114)
		(end 135 111.7983)
		(width 0.2)
		(layer "F.Cu")
		(net 21)
		(uuid "636b04a4-b3e7-4993-befb-9951fe38bb9f")
	)
	(segment
		(start 121.7 106.26)
		(end 124.2061 106.26)
		(width 0.2)
		(layer "F.Cu")
		(net 21)
		(uuid "656a6f0e-0961-480c-9826-ceef42645ff3")
	)
	(segment
		(start 136.5233 113)
		(end 136.5233 112.324)
		(width 0.2)
		(layer "F.Cu")
		(net 21)
		(uuid "6709f834-2719-471d-95f0-3f3cc156be3f")
	)
	(segment
		(start 176 113.3)
		(end 177.4767 113.3)
		(width 0.2)
		(layer "F.Cu")
		(net 21)
		(uuid "71912e9f-f332-4b11-92ad-9cad0157b6fa")
	)
	(segment
		(start 184.3 90)
		(end 184.3 91.4767)
		(width 0.2)
		(layer "F.Cu")
		(net 21)
		(uuid "7916f48b-6c21-4256-9ecc-8ae2f8448e13")
	)
	(segment
		(start 121.72 94)
		(end 121.72 88)
		(width 0.2)
		(layer "F.Cu")
		(net 21)
		(uuid "7a47ff92-8026-4e6e-b21b-46f1a9d4bec4")
	)
	(segment
		(start 124.2061 106.26)
		(end 127.84 109.8939)
		(width 0.2)
		(layer "F.Cu")
		(net 21)
		(uuid "85ead01e-a9e7-4ee7-96a7-b5ec92821ad7")
	)
	(segment
		(start 179.6699 96.1068)
		(end 184.3 91.4767)
		(width 0.2)
		(layer "F.Cu")
		(net 21)
		(uuid "95326710-186c-4601-9f22-c52feff6e554")
	)
	(segment
		(start 121.72 96.2433)
		(end 121.72 94)
		(width 0.2)
		(layer "F.Cu")
		(net 21)
		(uuid "9906480f-f3b8-4041-88a2-3ad04716156b")
	)
	(segment
		(start 183.374 113.28)
		(end 183.374 109.2493)
		(width 0.2)
		(layer "F.Cu")
		(net 21)
		(uuid "9fbd8e5d-68a6-409a-a612-98fce18e7e7e")
	)
	(segment
		(start 135 111.7983)
		(end 127.84 111.7983)
		(width 0.2)
		(layer "F.Cu")
		(net 21)
		(uuid "a4d8e066-94ef-4161-87bb-f3cd46484cd7")
	)
	(segment
		(start 164.571 109.6706)
		(end 166.24 111.3396)
		(width 0.2)
		(layer "F.Cu")
		(net 21)
		(uuid "abed7ebd-0189-4e46-94eb-f5416e99220d")
	)
	(segment
		(start 121.7 97.74)
		(end 121.7 99.2167)
		(width 0.2)
		(layer "F.Cu")
		(net 21)
		(uuid "b44498c6-8f39-458c-8a65-968525788587")
	)
	(segment
		(start 183.374 113.28)
		(end 179 113.28)
		(width 0.2)
		(layer "F.Cu")
		(net 21)
		(uuid "ca3e7160-9b09-4964-ab52-ed33c7f666f9")
	)
	(segment
		(start 138 113)
		(end 139.4767 113)
		(width 0.2)
		(layer "F.Cu")
		(net 21)
		(uuid "cf496485-770e-404c-a78d-06731d262fc5")
	)
	(segment
		(start 144 113)
		(end 139.4767 113)
		(width 0.2)
		(layer "F.Cu")
		(net 21)
		(uuid "d2b5afeb-0e51-41bb-b2c2-212b4942d1f4")
	)
	(segment
		(start 121.7 106.26)
		(end 121.7 99.2167)
		(width 0.2)
		(layer "F.Cu")
		(net 21)
		(uuid "e38b9dc3-ccb5-462b-bafe-b08b4e6ce910")
	)
	(segment
		(start 138 113)
		(end 136.5233 113)
		(width 0.2)
		(layer "F.Cu")
		(net 21)
		(uuid "e87bb6d5-6202-4749-9144-9713e1e0c32e")
	)
	(segment
		(start 183.374 109.2493)
		(end 179.6699 105.5452)
		(width 0.2)
		(layer "F.Cu")
		(net 21)
		(uuid "f039367e-d974-49c4-b8bf-f1fe397d99d6")
	)
	(segment
		(start 177.4967 113.28)
		(end 177.4767 113.3)
		(width 0.2)
		(layer "F.Cu")
		(net 21)
		(uuid "fc8b9f33-8836-4e21-adfd-843970ddd48b")
	)
	(segment
		(start 127.84 114)
		(end 127.84 111.7983)
		(width 0.2)
		(layer "F.Cu")
		(net 21)
		(uuid "ffeb4941-f321-4257-a90a-16f61874769b")
	)
)
