(kicad_pcb (version 20221018) (generator pcbnew)

  (general
    (thickness 1.6)
  )

  (paper "A4")
  (layers
    (0 "F.Cu" signal)
    (31 "B.Cu" signal)
    (32 "B.Adhes" user "B.Adhesive")
    (33 "F.Adhes" user "F.Adhesive")
    (34 "B.Paste" user)
    (35 "F.Paste" user)
    (36 "B.SilkS" user "B.Silkscreen")
    (37 "F.SilkS" user "F.Silkscreen")
    (38 "B.Mask" user)
    (39 "F.Mask" user)
    (44 "Edge.Cuts" user)
    (45 "Margin" user)
    (46 "B.CrtYd" user "B.Courtyard")
    (47 "F.CrtYd" user "F.Courtyard")
    (48 "B.Fab" user)
    (49 "F.Fab" user)
    (50 "User.1" user)
    (51 "User.2" user)
  )

  (setup
    (pad_to_mask_clearance 0)
    (pcbplotparams
      (layerselection 0x00010fc_ffffffff)
      (plot_on_all_layers_selection 0x0000000_00000000)
      (disableapertmacros false)
      (usegerberextensions false)
      (usegerberattributes true)
      (usegerberadvancedattributes true)
      (creategerberjobfile true)
      (dashed_line_dash_ratio 12.000000)
      (dashed_line_gap_ratio 3.000000)
      (svgprecision 4)
      (plotframeref false)
      (viasonmask false)
      (mode 1)
      (useauxorigin false)
      (hpglpennumber 1)
      (hpglpenspeed 20)
      (hpglpendiameter 15.000000)
      (dxfpolygonmode true)
      (dxfimperialunits true)
      (dxfusepcbnewfont true)
      (psnegative false)
      (psa4output false)
      (plotreference true)
      (plotvalue true)
      (plotinvisibletext false)
      (sketchpadsonfab false)
      (subtractmaskfromsilk false)
      (outputformat 1)
      (mirror false)
      (drillshape 1)
      (scaleselection 1)
      (outputdirectory "")
    )
  )

  (net 0 "")
  (net 1 "unconnected-(X1-Pin_1-Pad1)")
  (net 2 "unconnected-(X1-Pin_2-Pad2)")
  (net 3 "unconnected-(X1-Pin_3-Pad3)")
  (net 4 "unconnected-(X1-Pin_4-Pad4)")
  (net 5 "unconnected-(X1-Pin_5-Pad5)")
  (net 6 "unconnected-(X1-Pin_6-Pad6)")
  (net 7 "unconnected-(X1-Pin_7-Pad7)")
  (net 8 "unconnected-(X1-Pin_8-Pad8)")
  (net 9 "unconnected-(X1-Pin_9-Pad9)")
  (net 10 "unconnected-(X1-Pin_10-Pad10)")
  (net 11 "unconnected-(X1-Pin_11-Pad11)")
  (net 12 "unconnected-(X1-Pin_12-Pad12)")
  (net 13 "unconnected-(X1-Pin_13-Pad13)")
  (net 14 "unconnected-(X1-Pin_14-Pad14)")
  (net 15 "unconnected-(X1-Pin_15-Pad15)")
  (net 16 "unconnected-(X1-Pin_16-Pad16)")
  (net 17 "unconnected-(X1-Pin_17-Pad17)")
  (net 18 "unconnected-(X1-Pin_18-Pad18)")
  (net 19 "unconnected-(X1-Pin_19-Pad19)")
  (net 20 "unconnected-(X1-Pin_20-Pad20)")
  (net 21 "unconnected-(X1-Pin_21-Pad21)")
  (net 22 "unconnected-(X1-Pin_22-Pad22)")
  (net 23 "unconnected-(X1-Pin_23-Pad23)")
  (net 24 "unconnected-(X1-Pin_24-Pad24)")
  (net 25 "unconnected-(X1-Pin_25-Pad25)")
  (net 26 "unconnected-(X1-Pin_26-Pad26)")
  (net 27 "unconnected-(X1-Pin_27-Pad27)")
  (net 28 "unconnected-(X1-Pin_28-Pad28)")
  (net 29 "unconnected-(X2-Pin_1-Pad1)")
  (net 30 "unconnected-(X2-Pin_2-Pad2)")
  (net 31 "unconnected-(X2-Pin_3-Pad3)")
  (net 32 "unconnected-(X2-Pin_4-Pad4)")
  (net 33 "unconnected-(X2-Pin_5-Pad5)")
  (net 34 "unconnected-(X2-Pin_6-Pad6)")
  (net 35 "unconnected-(X2-Pin_7-Pad7)")
  (net 36 "unconnected-(X2-Pin_8-Pad8)")
  (net 37 "unconnected-(X2-Pin_9-Pad9)")
  (net 38 "unconnected-(X2-Pin_10-Pad10)")
  (net 39 "unconnected-(X2-Pin_11-Pad11)")
  (net 40 "unconnected-(X2-Pin_12-Pad12)")
  (net 41 "unconnected-(X2-Pin_13-Pad13)")
  (net 42 "unconnected-(X2-Pin_14-Pad14)")
  (net 43 "unconnected-(X2-Pin_15-Pad15)")
  (net 44 "unconnected-(X2-Pin_16-Pad16)")
  (net 45 "unconnected-(X2-Pin_17-Pad17)")
  (net 46 "unconnected-(X2-Pin_18-Pad18)")
  (net 47 "unconnected-(X2-Pin_19-Pad19)")
  (net 48 "unconnected-(X2-Pin_20-Pad20)")
  (net 49 "unconnected-(X3-Pin_1-Pad1)")
  (net 50 "unconnected-(X3-Pin_2-Pad2)")
  (net 51 "unconnected-(X3-Pin_3-Pad3)")
  (net 52 "unconnected-(X3-Pin_4-Pad4)")
  (net 53 "unconnected-(X3-Pin_5-Pad5)")
  (net 54 "unconnected-(X3-Pin_6-Pad6)")
  (net 55 "unconnected-(X3-Pin_7-Pad7)")
  (net 56 "unconnected-(X3-Pin_8-Pad8)")
  (net 57 "unconnected-(X3-Pin_9-Pad9)")
  (net 58 "unconnected-(X3-Pin_10-Pad10)")
  (net 59 "unconnected-(X4-Pin_1-Pad1)")
  (net 60 "unconnected-(X4-Pin_2-Pad2)")
  (net 61 "unconnected-(X4-Pin_3-Pad3)")
  (net 62 "unconnected-(X4-Pin_4-Pad4)")
  (net 63 "unconnected-(X4-Pin_5-Pad5)")
  (net 64 "unconnected-(X4-Pin_6-Pad6)")
  (net 65 "unconnected-(X4-Pin_7-Pad7)")
  (net 66 "unconnected-(X4-Pin_8-Pad8)")
  (net 67 "unconnected-(X4-Pin_9-Pad9)")
  (net 68 "unconnected-(X4-Pin_10-Pad10)")

  (footprint "PCM_EEZ_connectors:DS1014-10RF1B" locked (layer "F.Cu")
    (tstamp 0ea72b4e-5383-4dc0-ad2b-4bfe486cf2bb)
    (at 121 65.5)
    (property "DigiKey" "WM8615-ND")
    (property "Mouser" "538-87833-1032 ")
    (property "Sheetfile" "EEZ DIB v1.2 module dimensions.kicad_sch")
    (property "Sheetname" "")
    (property "TME" "DS1014-10RF1B")
    (property "ki_description" "Generic 2x5 pin connector")
    (property "ki_keywords" "connector")
    (path "/e9bf4fac-c300-40d7-95b0-eda5718c351e")
    (attr through_hole)
    (fp_text reference "X4" (at -9.144 -1) (layer "F.SilkS")
        (effects (font (size 0.8128 0.8128) (thickness 0.1524) bold) (justify left bottom))
      (tstamp 83428000-22b3-4436-9f86-2d5089b9c845)
    )
    (fp_text value "87833-1032" (at 0 -3.4925) (layer "F.Fab")
        (effects (font (size 1.143 1.143) (thickness 0.127)))
      (tstamp 2d15186c-0c12-4af4-91a3-0b3905e33c25)
    )
    (fp_line (start -9 -2.52) (end -9 -8.12)
      (stroke (width 0.1524) (type solid)) (layer "F.SilkS") (tstamp 15b907a9-55ae-4bba-a6fc-56e32d1794ec))
    (fp_line (start -2 -8.12) (end -9 -8.12)
      (stroke (width 0.1524) (type solid)) (layer "F.SilkS") (tstamp 2a94dc7b-d0dd-4e83-8200-eea64e09707c))
    (fp_line (start -2 -8.12) (end -2 -4.12)
      (stroke (width 0.1524) (type solid)) (layer "F.SilkS") (tstamp c377cc1c-d540-4c2a-a2e7-fc0be311230e))
    (fp_line (start -2 -8.12) (end 2 -8.12)
      (stroke (width 0.1524) (type solid)) (layer "F.SilkS") (tstamp b2afac7b-4674-42fb-8010-537515000aec))
    (fp_line (start 2 -8.12) (end 2 -4.12)
      (stroke (width 0.1524) (type solid)) (layer "F.SilkS") (tstamp 206c8a65-9caf-4041-87b4-e16c4b98f6ea))
    (fp_line (start 2 -8.12) (end 9 -8.12)
      (stroke (width 0.1524) (type solid)) (layer "F.SilkS") (tstamp 0a64929f-d923-4d41-a3f8-d702124a139c))
    (fp_line (start 2 -4.12) (end -2 -4.12)
      (stroke (width 0.1524) (type solid)) (layer "F.SilkS") (tstamp 606a3461-e663-4149-a59f-4c44315b50a9))
    (fp_line (start 9 -8.12) (end 9 -2.52)
      (stroke (width 0.1524) (type solid)) (layer "F.SilkS") (tstamp 31b6bffa-3ba9-4ec0-9199-b8f16447cabc))
    (fp_line (start 9 -2.52) (end -9 -2.52)
      (stroke (width 0.1524) (type solid)) (layer "F.SilkS") (tstamp 60d21ade-1dab-486f-a001-9144b2298f00))
    (fp_poly
      (pts
        (xy -4 -6.465063)
        (xy -4.905833 -8.1635)
        (xy -3.094167 -8.1635)
      )

      (stroke (width 0) (type default)) (fill solid) (layer "F.SilkS") (tstamp f8fce2a2-2e10-4e4c-a9e1-fcb79a127fa3))
    (pad "1" thru_hole rect locked (at -4 1) (size 1.2 1.2) (drill 0.8) (layers "*.Cu" "*.Mask")
      (net 59 "unconnected-(X4-Pin_1-Pad1)") (pinfunction "Pin_1") (pintype "passive") (solder_mask_margin 0.0762) (thermal_bridge_angle 0) (tstamp da119377-5bca-4585-ac5c-a3e73f48dcab))
    (pad "2" thru_hole roundrect locked (at -4 -1) (size 1.2 1.2) (drill 0.8) (layers "*.Cu" "*.Mask") (roundrect_rratio 0.25)
      (chamfer_ratio 0.2928932188) (chamfer top_left top_right bottom_left bottom_right)
      (net 60 "unconnected-(X4-Pin_2-Pad2)") (pinfunction "Pin_2") (pintype "passive") (solder_mask_margin 0.0762) (thermal_bridge_angle 0) (tstamp 2a84c8c7-5d64-40a5-bddb-44f91e5c1862))
    (pad "3" thru_hole roundrect locked (at -2 1) (size 1.2 1.2) (drill 0.8) (layers "*.Cu" "*.Mask") (roundrect_rratio 0.25)
      (chamfer_ratio 0.2928932188) (chamfer top_left top_right bottom_left bottom_right)
      (net 61 "unconnected-(X4-Pin_3-Pad3)") (pinfunction "Pin_3") (pintype "passive") (solder_mask_margin 0.0762) (thermal_bridge_angle 0) (tstamp 79788212-d36a-4a8e-b772-975d2918433f))
    (pad "4" thru_hole roundrect locked (at -2 -1) (size 1.2 1.2) (drill 0.8) (layers "*.Cu" "*.Mask") (roundrect_rratio 0.25)
      (chamfer_ratio 0.2928932188) (chamfer top_left top_right bottom_left bottom_right)
      (net 62 "unconnected-(X4-Pin_4-Pad4)") (pinfunction "Pin_4") (pintype "passive") (solder_mask_margin 0.0762) (thermal_bridge_angle 0) (tstamp 643de859-984b-45db-980f-a8717c4d4982))
    (pad "5" thru_hole roundrect locked (at 0 1) (size 1.2 1.2) (drill 0.8) (layers "*.Cu" "*.Mask") (roundrect_rratio 0.25)
      (chamfer_ratio 0.2928932188) (chamfer top_left top_right bottom_left bottom_right)
      (net 63 "unconnected-(X4-Pin_5-Pad5)") (pinfunction "Pin_5") (pintype "passive") (solder_mask_margin 0.0762) (thermal_bridge_angle 0) (tstamp ce813252-5fc7-42bb-b2d0-57b3d7ca4255))
    (pad "6" thru_hole roundrect locked (at 0 -1) (size 1.2 1.2) (drill 0.8) (layers "*.Cu" "*.Mask") (roundrect_rratio 0.25)
      (chamfer_ratio 0.2928932188) (chamfer top_left top_right bottom_left bottom_right)
      (net 64 "unconnected-(X4-Pin_6-Pad6)") (pinfunction "Pin_6") (pintype "passive") (solder_mask_margin 0.0762) (thermal_bridge_angle 0) (tstamp 4c1e2293-634f-4a76-8ce0-d26d752df85a))
    (pad "7" thru_hole roundrect locked (at 2 1) (size 1.2 1.2) (drill 0.8) (layers "*.Cu" "*.Mask") (roundrect_rratio 0.25)
      (chamfer_ratio 0.2928932188) (chamfer top_left top_right bottom_left bottom_right)
      (net 65 "unconnected-(X4-Pin_7-Pad7)") (pinfunction "Pin_7") (pintype "passive") (solder_mask_margin 0.0762) (thermal_bridge_angle 0) (tstamp 0fb5e3f0-2891-4cae-a5bc-cc1ea9fcd2f9))
    (pad "8" thru_hole roundrect locked (at 2 -1) (size 1.2 1.2) (drill 0.8) (layers "*.Cu" "*.Mask") (roundrect_rratio 0.25)
      (chamfer_ratio 0.2928932188) (chamfer top_left top_right bottom_left bottom_right)
      (net 66 "unconnected-(X4-Pin_8-Pad8)") (pinfunction "Pin_8") (pintype "passive") (solder_mask_margin 0.0762) (thermal_bridge_angle 0) (tstamp 6be7c9b7-f3ee-4be8-a985-44adbb1ac6df))
    (pad "9" thru_hole roundrect locked (at 4 1) (size 1.2 1.2) (drill 0.8) (layers "*.Cu" "*.Mask") (roundrect_rratio 0.25)
      (chamfer_ratio 0.2928932188) (chamfer top_left top_right bottom_left bottom_right)
      (net 67 "unconnected-(X4-Pin_9-Pad9)") (pinfunction "Pin_9") (pintype "passive") (solder_mask_margin 0.0762) (thermal_bridge_angle 0) (tstamp fd63c190-a6e8-4532-97ed-d8fe1a6c8737))
    (pad "10" thru_hole roundrect locked (at 4 -1) (size 1.2 1.2) (drill 0.8) (layers "*.Cu" "*.Mask") (roundrect_rratio 0.25)
      (chamfer_ratio 0.2928932188) (chamfer top_left top_right bottom_left bottom_right)
      (net 68 "unconnected-(X4-Pin_10-Pad10)") (pinfunction "Pin_10") (pintype "passive") (solder_mask_margin 0.0762) (thermal_bridge_angle 0) (tstamp d3091bc3-6762-4354-8680-68d4cdd5cc2f))
    (model "${KICAD7_3RD_PARTY}/3dmodels/com_github_eez-open_eez-kicad-libraries/878331032.stp"
      (offset (xyz 0 4.191 3.175))
      (scale (xyz 1 1 1))
      (rotate (xyz 0 0 0))
    )
  )

  (footprint "PCM_EEZ_connectors:77317-104-28LF" locked (layer "F.Cu")
    (tstamp 148f44b7-0a99-4f35-9059-03e79a90ff37)
    (at 143.54 140)
    (property "DigiKey" "2057-PH2RA-28-UA-ND")
    (property "Mouser" "649-77317-104-28LF")
    (property "Sheetfile" "EEZ DIB v1.2 module dimensions.kicad_sch")
    (property "Sheetname" "")
    (property "TME" "-")
    (property "ki_description" "Generic 2x14 pin connector")
    (property "ki_keywords" "connector")
    (path "/53d9a35f-7071-422c-9f76-8c82012df21d")
    (attr through_hole)
    (fp_text reference "X1" (at -33.655 -1.016) (layer "F.SilkS")
        (effects (font (size 1.016 1.016) (thickness 0.1524)) (justify left bottom))
      (tstamp 50d3c4e3-48b0-4c8e-9f61-6e6372c132c9)
    )
    (fp_text value "PH2RA-28-UA" (at -20.32 5.6515) (layer "F.Fab")
        (effects (font (size 1.143 1.143) (thickness 0.127)) (justify left bottom))
      (tstamp 6a3ebd9a-1de0-4893-aa7f-bdc237ba42dc)
    )
    (fp_line (start -34.419 4.17) (end -34.419 6.11)
      (stroke (width 0.2032) (type solid)) (layer "F.SilkS") (tstamp 4748ca9a-b477-40f5-98fa-1aa6dc70c2d4))
    (fp_line (start -34.419 6.11) (end 1.399 6.11)
      (stroke (width 0.2032) (type solid)) (layer "F.SilkS") (tstamp 89a3fada-03e9-4147-909f-dd9d7b371cf7))
    (fp_line (start 1.399 4.17) (end -34.419 4.17)
      (stroke (width 0.2032) (type solid)) (layer "F.SilkS") (tstamp 011850f7-30e7-413c-b3b4-62652bc36169))
    (fp_line (start 1.399 6.11) (end 1.399 4.17)
      (stroke (width 0.2032) (type solid)) (layer "F.SilkS") (tstamp ed7b1487-5016-47fb-8639-6c4b94b8258f))
    (fp_poly
      (pts
        (xy -33.274 4.064)
        (xy -32.766 4.064)
        (xy -32.766 -0.254)
        (xy -33.274 -0.254)
      )

      (stroke (width 0) (type default)) (fill solid) (layer "F.Fab") (tstamp 2d211e6e-d2f0-4278-82a6-01db901e122a))
    (fp_poly
      (pts
        (xy -33.274 11.954)
        (xy -32.766 11.954)
        (xy -32.766 6.104)
        (xy -33.274 6.104)
      )

      (stroke (width 0) (type default)) (fill solid) (layer "F.Fab") (tstamp e6283ee1-c659-4501-a5d1-b8434c24e39e))
    (fp_poly
      (pts
        (xy -30.734 4.064)
        (xy -30.226 4.064)
        (xy -30.226 -0.254)
        (xy -30.734 -0.254)
      )

      (stroke (width 0) (type default)) (fill solid) (layer "F.Fab") (tstamp b2fe1acb-d1f8-4403-90fa-dada0796b4d7))
    (fp_poly
      (pts
        (xy -30.734 11.954)
        (xy -30.226 11.954)
        (xy -30.226 6.104)
        (xy -30.734 6.104)
      )

      (stroke (width 0) (type default)) (fill solid) (layer "F.Fab") (tstamp 5b882b7c-4a48-48fb-8858-2ea4c268fc1d))
    (fp_poly
      (pts
        (xy -28.194 4.064)
        (xy -27.686 4.064)
        (xy -27.686 -0.254)
        (xy -28.194 -0.254)
      )

      (stroke (width 0) (type default)) (fill solid) (layer "F.Fab") (tstamp 4a9cd0db-a11b-4333-b0cd-b2d9b4abdac0))
    (fp_poly
      (pts
        (xy -28.194 11.954)
        (xy -27.686 11.954)
        (xy -27.686 6.104)
        (xy -28.194 6.104)
      )

      (stroke (width 0) (type default)) (fill solid) (layer "F.Fab") (tstamp 6c91871a-bb8e-4d82-888d-f3f2b1b98afe))
    (fp_poly
      (pts
        (xy -25.654 4.064)
        (xy -25.146 4.064)
        (xy -25.146 -0.254)
        (xy -25.654 -0.254)
      )

      (stroke (width 0) (type default)) (fill solid) (layer "F.Fab") (tstamp afd13aae-649b-49fc-b7d8-1cc70587415f))
    (fp_poly
      (pts
        (xy -25.654 11.954)
        (xy -25.146 11.954)
        (xy -25.146 6.104)
        (xy -25.654 6.104)
      )

      (stroke (width 0) (type default)) (fill solid) (layer "F.Fab") (tstamp 6d910c0c-ba68-498f-9b67-761fa6c3376a))
    (fp_poly
      (pts
        (xy -23.114 4.064)
        (xy -22.606 4.064)
        (xy -22.606 -0.254)
        (xy -23.114 -0.254)
      )

      (stroke (width 0) (type default)) (fill solid) (layer "F.Fab") (tstamp d32bb2ce-07df-4e10-bbf8-64b91420e801))
    (fp_poly
      (pts
        (xy -23.114 11.954)
        (xy -22.606 11.954)
        (xy -22.606 6.104)
        (xy -23.114 6.104)
      )

      (stroke (width 0) (type default)) (fill solid) (layer "F.Fab") (tstamp 0f635534-7209-4cb1-a3cc-729d3439b84c))
    (fp_poly
      (pts
        (xy -20.574 4.064)
        (xy -20.066 4.064)
        (xy -20.066 -0.254)
        (xy -20.574 -0.254)
      )

      (stroke (width 0) (type default)) (fill solid) (layer "F.Fab") (tstamp 5e6b5702-ab85-4f84-82d4-611459b16849))
    (fp_poly
      (pts
        (xy -20.574 11.954)
        (xy -20.066 11.954)
        (xy -20.066 6.104)
        (xy -20.574 6.104)
      )

      (stroke (width 0) (type default)) (fill solid) (layer "F.Fab") (tstamp 918f2477-e824-4648-aa13-c7f243ff3f99))
    (fp_poly
      (pts
        (xy -18.034 4.064)
        (xy -17.526 4.064)
        (xy -17.526 -0.254)
        (xy -18.034 -0.254)
      )

      (stroke (width 0) (type default)) (fill solid) (layer "F.Fab") (tstamp 6fcd28ca-2bcf-4698-92e7-6c74840bb185))
    (fp_poly
      (pts
        (xy -18.034 11.954)
        (xy -17.526 11.954)
        (xy -17.526 6.104)
        (xy -18.034 6.104)
      )

      (stroke (width 0) (type default)) (fill solid) (layer "F.Fab") (tstamp a8c5646b-0062-4d59-942c-c517242161e5))
    (fp_poly
      (pts
        (xy -15.494 4.064)
        (xy -14.986 4.064)
        (xy -14.986 -0.254)
        (xy -15.494 -0.254)
      )

      (stroke (width 0) (type default)) (fill solid) (layer "F.Fab") (tstamp b7d5aba5-4423-45ee-8d0b-60fa4e0d31e6))
    (fp_poly
      (pts
        (xy -15.494 11.954)
        (xy -14.986 11.954)
        (xy -14.986 6.104)
        (xy -15.494 6.104)
      )

      (stroke (width 0) (type default)) (fill solid) (layer "F.Fab") (tstamp 3f9fcf77-ff15-4f77-9775-5defac2433af))
    (fp_poly
      (pts
        (xy -12.954 4.064)
        (xy -12.446 4.064)
        (xy -12.446 -0.254)
        (xy -12.954 -0.254)
      )

      (stroke (width 0) (type default)) (fill solid) (layer "F.Fab") (tstamp 24f8381b-723c-4754-8612-1b58cb33f1ab))
    (fp_poly
      (pts
        (xy -12.954 11.954)
        (xy -12.446 11.954)
        (xy -12.446 6.104)
        (xy -12.954 6.104)
      )

      (stroke (width 0) (type default)) (fill solid) (layer "F.Fab") (tstamp 4acd986a-110e-4c43-9d70-0e219dd69108))
    (fp_poly
      (pts
        (xy -10.414 4.064)
        (xy -9.906 4.064)
        (xy -9.906 -0.254)
        (xy -10.414 -0.254)
      )

      (stroke (width 0) (type default)) (fill solid) (layer "F.Fab") (tstamp 92ba4d41-b21c-4a6f-a5cc-8fff3dd9f76f))
    (fp_poly
      (pts
        (xy -10.414 11.954)
        (xy -9.906 11.954)
        (xy -9.906 6.104)
        (xy -10.414 6.104)
      )

      (stroke (width 0) (type default)) (fill solid) (layer "F.Fab") (tstamp bae72ae6-dacd-43e9-877b-29832dcca75e))
    (fp_poly
      (pts
        (xy -7.874 4.064)
        (xy -7.366 4.064)
        (xy -7.366 -0.254)
        (xy -7.874 -0.254)
      )

      (stroke (width 0) (type default)) (fill solid) (layer "F.Fab") (tstamp 999be270-57b8-429d-afe8-89f41af4a465))
    (fp_poly
      (pts
        (xy -7.874 11.954)
        (xy -7.366 11.954)
        (xy -7.366 6.104)
        (xy -7.874 6.104)
      )

      (stroke (width 0) (type default)) (fill solid) (layer "F.Fab") (tstamp 4e42b066-4549-4ef0-9c5c-547c9d5691ec))
    (fp_poly
      (pts
        (xy -5.334 4.064)
        (xy -4.826 4.064)
        (xy -4.826 -0.254)
        (xy -5.334 -0.254)
      )

      (stroke (width 0) (type default)) (fill solid) (layer "F.Fab") (tstamp 273d6dc1-b587-46d0-a4bb-7a075290b539))
    (fp_poly
      (pts
        (xy -5.334 11.954)
        (xy -4.826 11.954)
        (xy -4.826 6.104)
        (xy -5.334 6.104)
      )

      (stroke (width 0) (type default)) (fill solid) (layer "F.Fab") (tstamp 670e1a01-d128-4e4a-a9c0-5a57fbc464a6))
    (fp_poly
      (pts
        (xy -2.794 4.064)
        (xy -2.286 4.064)
        (xy -2.286 -0.254)
        (xy -2.794 -0.254)
      )

      (stroke (width 0) (type default)) (fill solid) (layer "F.Fab") (tstamp ab9c201d-7e81-4998-bb11-c78e68e6e760))
    (fp_poly
      (pts
        (xy -2.794 11.954)
        (xy -2.286 11.954)
        (xy -2.286 6.104)
        (xy -2.794 6.104)
      )

      (stroke (width 0) (type default)) (fill solid) (layer "F.Fab") (tstamp 3f52536c-95b1-4760-b9f3-f9cbd3937e20))
    (fp_poly
      (pts
        (xy -0.254 4.064)
        (xy 0.254 4.064)
        (xy 0.254 -0.254)
        (xy -0.254 -0.254)
      )

      (stroke (width 0) (type default)) (fill solid) (layer "F.Fab") (tstamp 092026ca-7f61-453a-9f4a-456f3f3abcf1))
    (fp_poly
      (pts
        (xy -0.254 11.954)
        (xy 0.254 11.954)
        (xy 0.254 6.104)
        (xy -0.254 6.104)
      )

      (stroke (width 0) (type default)) (fill solid) (layer "F.Fab") (tstamp 4b95c831-0388-41b9-9e31-0583b7287e96))
    (pad "1" thru_hole rect locked (at -33.02 2.54) (size 1.5 1.5) (drill 1) (layers "*.Cu" "*.Mask")
      (net 1 "unconnected-(X1-Pin_1-Pad1)") (pinfunction "Pin_1") (pintype "passive") (solder_mask_margin 0.0762) (thermal_bridge_angle 0) (tstamp 51de6289-f12b-4d7d-92b5-e43cf82e333b))
    (pad "2" thru_hole roundrect locked (at -33.02 0) (size 1.5 1.5) (drill 1) (layers "*.Cu" "*.Mask") (roundrect_rratio 0.25)
      (chamfer_ratio 0.2928932188) (chamfer top_left top_right bottom_left bottom_right)
      (net 2 "unconnected-(X1-Pin_2-Pad2)") (pinfunction "Pin_2") (pintype "passive") (solder_mask_margin 0.0762) (thermal_bridge_angle 0) (tstamp f0c4d7f8-56a3-468a-a114-3063c53c3d23))
    (pad "3" thru_hole roundrect locked (at -30.48 2.54) (size 1.5 1.5) (drill 1) (layers "*.Cu" "*.Mask") (roundrect_rratio 0.25)
      (chamfer_ratio 0.2928932188) (chamfer top_left top_right bottom_left bottom_right)
      (net 3 "unconnected-(X1-Pin_3-Pad3)") (pinfunction "Pin_3") (pintype "passive") (solder_mask_margin 0.0762) (thermal_bridge_angle 0) (tstamp e70bbff1-5a50-44b2-a80a-7940a40ec26a))
    (pad "4" thru_hole roundrect locked (at -30.48 0) (size 1.5 1.5) (drill 1) (layers "*.Cu" "*.Mask") (roundrect_rratio 0.25)
      (chamfer_ratio 0.2928932188) (chamfer top_left top_right bottom_left bottom_right)
      (net 4 "unconnected-(X1-Pin_4-Pad4)") (pinfunction "Pin_4") (pintype "passive") (solder_mask_margin 0.0762) (thermal_bridge_angle 0) (tstamp 0ef59f5a-3b1f-417e-95e2-77280c914634))
    (pad "5" thru_hole roundrect locked (at -27.94 2.54) (size 1.5 1.5) (drill 1) (layers "*.Cu" "*.Mask") (roundrect_rratio 0.25)
      (chamfer_ratio 0.2928932188) (chamfer top_left top_right bottom_left bottom_right)
      (net 5 "unconnected-(X1-Pin_5-Pad5)") (pinfunction "Pin_5") (pintype "passive") (solder_mask_margin 0.0762) (thermal_bridge_angle 0) (tstamp c5e06c1f-2974-41d1-ab73-4a15a400f3a1))
    (pad "6" thru_hole roundrect locked (at -27.94 0) (size 1.5 1.5) (drill 1) (layers "*.Cu" "*.Mask") (roundrect_rratio 0.25)
      (chamfer_ratio 0.2928932188) (chamfer top_left top_right bottom_left bottom_right)
      (net 6 "unconnected-(X1-Pin_6-Pad6)") (pinfunction "Pin_6") (pintype "passive") (solder_mask_margin 0.0762) (thermal_bridge_angle 0) (tstamp a67f8a15-483c-4133-9730-0942bf102cc8))
    (pad "7" thru_hole roundrect locked (at -25.4 2.54) (size 1.5 1.5) (drill 1) (layers "*.Cu" "*.Mask") (roundrect_rratio 0.25)
      (chamfer_ratio 0.2928932188) (chamfer top_left top_right bottom_left bottom_right)
      (net 7 "unconnected-(X1-Pin_7-Pad7)") (pinfunction "Pin_7") (pintype "passive") (solder_mask_margin 0.0762) (thermal_bridge_angle 0) (tstamp 72b2ed54-178e-4665-ac26-04436cf04268))
    (pad "8" thru_hole roundrect locked (at -25.4 0) (size 1.5 1.5) (drill 1) (layers "*.Cu" "*.Mask") (roundrect_rratio 0.25)
      (chamfer_ratio 0.2928932188) (chamfer top_left top_right bottom_left bottom_right)
      (net 8 "unconnected-(X1-Pin_8-Pad8)") (pinfunction "Pin_8") (pintype "passive") (solder_mask_margin 0.0762) (thermal_bridge_angle 0) (tstamp 37c7bad9-ba9b-43f6-9b1c-1c0c59e675cc))
    (pad "9" thru_hole roundrect locked (at -22.86 2.54) (size 1.5 1.5) (drill 1) (layers "*.Cu" "*.Mask") (roundrect_rratio 0.25)
      (chamfer_ratio 0.2928932188) (chamfer top_left top_right bottom_left bottom_right)
      (net 9 "unconnected-(X1-Pin_9-Pad9)") (pinfunction "Pin_9") (pintype "passive") (solder_mask_margin 0.0762) (thermal_bridge_angle 0) (tstamp cce1ca68-4138-4426-b356-6fa9aad8067d))
    (pad "10" thru_hole roundrect locked (at -22.86 0) (size 1.5 1.5) (drill 1) (layers "*.Cu" "*.Mask") (roundrect_rratio 0.25)
      (chamfer_ratio 0.2928932188) (chamfer top_left top_right bottom_left bottom_right)
      (net 10 "unconnected-(X1-Pin_10-Pad10)") (pinfunction "Pin_10") (pintype "passive") (solder_mask_margin 0.0762) (thermal_bridge_angle 0) (tstamp f2e1228d-5e1c-45ca-bced-642de6c5a8d4))
    (pad "11" thru_hole roundrect locked (at -20.32 2.54) (size 1.5 1.5) (drill 1) (layers "*.Cu" "*.Mask") (roundrect_rratio 0.25)
      (chamfer_ratio 0.2928932188) (chamfer top_left top_right bottom_left bottom_right)
      (net 11 "unconnected-(X1-Pin_11-Pad11)") (pinfunction "Pin_11") (pintype "passive") (solder_mask_margin 0.0762) (thermal_bridge_angle 0) (tstamp 3ed0320d-56b7-4581-924b-5eff3c8f9f25))
    (pad "12" thru_hole roundrect locked (at -20.32 0) (size 1.5 1.5) (drill 1) (layers "*.Cu" "*.Mask") (roundrect_rratio 0.25)
      (chamfer_ratio 0.2928932188) (chamfer top_left top_right bottom_left bottom_right)
      (net 12 "unconnected-(X1-Pin_12-Pad12)") (pinfunction "Pin_12") (pintype "passive") (solder_mask_margin 0.0762) (thermal_bridge_angle 0) (tstamp 61802722-96e6-46c9-86e4-31a604bbfdab))
    (pad "13" thru_hole roundrect locked (at -17.78 2.54) (size 1.5 1.5) (drill 1) (layers "*.Cu" "*.Mask") (roundrect_rratio 0.25)
      (chamfer_ratio 0.2928932188) (chamfer top_left top_right bottom_left bottom_right)
      (net 13 "unconnected-(X1-Pin_13-Pad13)") (pinfunction "Pin_13") (pintype "passive") (solder_mask_margin 0.0762) (thermal_bridge_angle 0) (tstamp 3e0ca631-4b80-417a-983d-9aa2e1d7d95e))
    (pad "14" thru_hole roundrect locked (at -17.78 0) (size 1.5 1.5) (drill 1) (layers "*.Cu" "*.Mask") (roundrect_rratio 0.25)
      (chamfer_ratio 0.2928932188) (chamfer top_left top_right bottom_left bottom_right)
      (net 14 "unconnected-(X1-Pin_14-Pad14)") (pinfunction "Pin_14") (pintype "passive") (solder_mask_margin 0.0762) (thermal_bridge_angle 0) (tstamp d78ca6d8-054e-46f6-86a7-60defdeb6064))
    (pad "15" thru_hole roundrect locked (at -15.24 2.54) (size 1.5 1.5) (drill 1) (layers "*.Cu" "*.Mask") (roundrect_rratio 0.25)
      (chamfer_ratio 0.2928932188) (chamfer top_left top_right bottom_left bottom_right)
      (net 15 "unconnected-(X1-Pin_15-Pad15)") (pinfunction "Pin_15") (pintype "passive") (solder_mask_margin 0.0762) (thermal_bridge_angle 0) (tstamp 76aa30cf-26a3-41f8-bf94-75510b913087))
    (pad "16" thru_hole roundrect locked (at -15.24 0) (size 1.5 1.5) (drill 1) (layers "*.Cu" "*.Mask") (roundrect_rratio 0.25)
      (chamfer_ratio 0.2928932188) (chamfer top_left top_right bottom_left bottom_right)
      (net 16 "unconnected-(X1-Pin_16-Pad16)") (pinfunction "Pin_16") (pintype "passive") (solder_mask_margin 0.0762) (thermal_bridge_angle 0) (tstamp d9157b25-82c7-4aea-91be-91152cb01afd))
    (pad "17" thru_hole roundrect locked (at -12.7 2.54) (size 1.5 1.5) (drill 1) (layers "*.Cu" "*.Mask") (roundrect_rratio 0.25)
      (chamfer_ratio 0.2928932188) (chamfer top_left top_right bottom_left bottom_right)
      (net 17 "unconnected-(X1-Pin_17-Pad17)") (pinfunction "Pin_17") (pintype "passive") (solder_mask_margin 0.0762) (thermal_bridge_angle 0) (tstamp 9ff5a822-e0ab-49db-8902-79c3ae3fb38a))
    (pad "18" thru_hole roundrect locked (at -12.7 0) (size 1.5 1.5) (drill 1) (layers "*.Cu" "*.Mask") (roundrect_rratio 0.25)
      (chamfer_ratio 0.2928932188) (chamfer top_left top_right bottom_left bottom_right)
      (net 18 "unconnected-(X1-Pin_18-Pad18)") (pinfunction "Pin_18") (pintype "passive") (solder_mask_margin 0.0762) (thermal_bridge_angle 0) (tstamp b689c8ce-6740-4573-be82-65af1c9df331))
    (pad "19" thru_hole roundrect locked (at -10.16 2.54) (size 1.5 1.5) (drill 1) (layers "*.Cu" "*.Mask") (roundrect_rratio 0.25)
      (chamfer_ratio 0.2928932188) (chamfer top_left top_right bottom_left bottom_right)
      (net 19 "unconnected-(X1-Pin_19-Pad19)") (pinfunction "Pin_19") (pintype "passive") (solder_mask_margin 0.0762) (thermal_bridge_angle 0) (tstamp 6b8e78e2-10ac-418b-ad05-594c5d7c2418))
    (pad "20" thru_hole roundrect locked (at -10.16 0) (size 1.5 1.5) (drill 1) (layers "*.Cu" "*.Mask") (roundrect_rratio 0.25)
      (chamfer_ratio 0.2928932188) (chamfer top_left top_right bottom_left bottom_right)
      (net 20 "unconnected-(X1-Pin_20-Pad20)") (pinfunction "Pin_20") (pintype "passive") (solder_mask_margin 0.0762) (thermal_bridge_angle 0) (tstamp c3068ca7-db63-4e2a-8bfd-926868de10e9))
    (pad "21" thru_hole roundrect locked (at -7.62 2.54) (size 1.5 1.5) (drill 1) (layers "*.Cu" "*.Mask") (roundrect_rratio 0.25)
      (chamfer_ratio 0.2928932188) (chamfer top_left top_right bottom_left bottom_right)
      (net 21 "unconnected-(X1-Pin_21-Pad21)") (pinfunction "Pin_21") (pintype "passive") (solder_mask_margin 0.0762) (thermal_bridge_angle 0) (tstamp 4d057ecd-efcc-4f33-9971-b6f1ccfaaffc))
    (pad "22" thru_hole roundrect locked (at -7.62 0) (size 1.5 1.5) (drill 1) (layers "*.Cu" "*.Mask") (roundrect_rratio 0.25)
      (chamfer_ratio 0.2928932188) (chamfer top_left top_right bottom_left bottom_right)
      (net 22 "unconnected-(X1-Pin_22-Pad22)") (pinfunction "Pin_22") (pintype "passive") (solder_mask_margin 0.0762) (thermal_bridge_angle 0) (tstamp c2bd42b9-5d7b-4f71-85c5-215d4fcd685b))
    (pad "23" thru_hole roundrect locked (at -5.08 2.54) (size 1.5 1.5) (drill 1) (layers "*.Cu" "*.Mask") (roundrect_rratio 0.25)
      (chamfer_ratio 0.2928932188) (chamfer top_left top_right bottom_left bottom_right)
      (net 23 "unconnected-(X1-Pin_23-Pad23)") (pinfunction "Pin_23") (pintype "passive") (solder_mask_margin 0.0762) (thermal_bridge_angle 0) (tstamp b1f4c439-d16f-47c2-978b-4f625c20f2b2))
    (pad "24" thru_hole roundrect locked (at -5.08 0) (size 1.5 1.5) (drill 1) (layers "*.Cu" "*.Mask") (roundrect_rratio 0.25)
      (chamfer_ratio 0.2928932188) (chamfer top_left top_right bottom_left bottom_right)
      (net 24 "unconnected-(X1-Pin_24-Pad24)") (pinfunction "Pin_24") (pintype "passive") (solder_mask_margin 0.0762) (thermal_bridge_angle 0) (tstamp 22f2a46b-9af2-455a-a49c-2d9bbffa064d))
    (pad "25" thru_hole roundrect locked (at -2.54 2.54) (size 1.5 1.5) (drill 1) (layers "*.Cu" "*.Mask") (roundrect_rratio 0.25)
      (chamfer_ratio 0.2928932188) (chamfer top_left top_right bottom_left bottom_right)
      (net 25 "unconnected-(X1-Pin_25-Pad25)") (pinfunction "Pin_25") (pintype "passive") (solder_mask_margin 0.0762) (thermal_bridge_angle 0) (tstamp 618c095c-0a4e-425a-bf88-0195ee702f06))
    (pad "26" thru_hole roundrect locked (at -2.54 0) (size 1.5 1.5) (drill 1) (layers "*.Cu" "*.Mask") (roundrect_rratio 0.25)
      (chamfer_ratio 0.2928932188) (chamfer top_left top_right bottom_left bottom_right)
      (net 26 "unconnected-(X1-Pin_26-Pad26)") (pinfunction "Pin_26") (pintype "passive") (solder_mask_margin 0.0762) (thermal_bridge_angle 0) (tstamp dd41a912-a3ed-41b6-a3f2-1c22be406b37))
    (pad "27" thru_hole roundrect locked (at 0 2.54) (size 1.5 1.5) (drill 1) (layers "*.Cu" "*.Mask") (roundrect_rratio 0.25)
      (chamfer_ratio 0.2928932188) (chamfer top_left top_right bottom_left bottom_right)
      (net 27 "unconnected-(X1-Pin_27-Pad27)") (pinfunction "Pin_27") (pintype "passive") (solder_mask_margin 0.0762) (thermal_bridge_angle 0) (tstamp 4fcb2923-4d4d-488e-9685-45fc58a37c5d))
    (pad "28" thru_hole roundrect locked (at 0 0) (size 1.5 1.5) (drill 1) (layers "*.Cu" "*.Mask") (roundrect_rratio 0.25)
      (chamfer_ratio 0.2928932188) (chamfer top_left top_right bottom_left bottom_right)
      (net 28 "unconnected-(X1-Pin_28-Pad28)") (pinfunction "Pin_28") (pintype "passive") (solder_mask_margin 0.0762) (thermal_bridge_angle 0) (tstamp 68457b8b-45a9-4ad4-b072-bd0508176d6e))
    (model "${KICAD7_3RD_PARTY}/3dmodels/com_github_eez-open_eez-kicad-libraries/77317-104-28LF--3DModel-STEP-510211.STEP"
      (offset (xyz -16.51 -1.27 0))
      (scale (xyz 1 1 1))
      (rotate (xyz -90 0 0))
    )
  )

  (footprint "PCM_EEZ_unsorted:PCB-MB-01" locked (layer "F.Cu")
    (tstamp 41b5b1ad-1825-4802-8d32-d32d23dea5f6)
    (at 67.0011 63.0036)
    (property "DigiKey" "RPC1760-ND")
    (property "Mouser" "144-PCB-MB-01 ")
    (property "Sheetfile" "EEZ DIB v1.2 module dimensions.kicad_sch")
    (property "Sheetname" "")
    (property "TME" "RI-PCB-MB-01")
    (property "ki_description" "Mounting Bracket Block 0.1\" (2.54mm), M3 Nylon")
    (path "/eb7ef4b2-d202-41b6-a533-acd466b5e9c4")
    (fp_text reference "KK1" (at 0 -2.2) (layer "F.SilkS") hide
        (effects (font (size 0.8128 0.8128) (thickness 0.1524) bold))
      (tstamp 903c800a-8808-48a8-a363-432de325d10a)
    )
    (fp_text value "PCB-MB" (at 0 0) (layer "F.Fab")
        (effects (font (size 1.27 1.27) (thickness 0.15)))
      (tstamp 001f4531-c805-43d0-8948-2b78cb019f90)
    )
    (fp_rect (start -11.5 -3) (end 4.5 3)
      (stroke (width 0.05) (type default)) (fill none) (layer "F.CrtYd") (tstamp 547b8124-fd34-4e2e-b011-6a20803f820e))
    (fp_line (start -11.5 -3) (end -11.5 3)
      (stroke (width 0.254) (type solid)) (layer "F.Fab") (tstamp 277eeb92-dd7c-405e-81ee-53c2e623e762))
    (fp_line (start -11.5 -3) (end -4.5 -3)
      (stroke (width 0.254) (type solid)) (layer "F.Fab") (tstamp ca8e2596-e522-4cd6-8803-2ef1ad135bc8))
    (fp_line (start -11.5 3) (end -4.5 3)
      (stroke (width 0.254) (type solid)) (layer "F.Fab") (tstamp 731b25f1-e955-4e97-9dc9-a3583d0a5264))
    (fp_line (start -4.5 -3) (end -4.5 3)
      (stroke (width 0.254) (type solid)) (layer "F.Fab") (tstamp a00a347c-6cfc-44f9-9bc4-7baa5064d5d4))
    (fp_line (start -4.5 -3) (end 4.5 -3)
      (stroke (width 0.254) (type solid)) (layer "F.Fab") (tstamp 15b35c04-ad16-46ae-8885-47567cbf33f3))
    (fp_line (start -4.5 3) (end 4.5 3)
      (stroke (width 0.254) (type solid)) (layer "F.Fab") (tstamp 47a15e13-5a93-4e16-8d3a-e6981aa9a420))
    (fp_line (start 4.5 -3) (end 4.5 3)
      (stroke (width 0.254) (type solid)) (layer "F.Fab") (tstamp c52bd671-57ca-4cc4-a20d-254354a0ae0e))
    (pad "" thru_hole circle locked (at 0 0) (size 5.5 5.5) (drill 3.2) (layers "*.Cu" "*.Mask")
      (solder_mask_margin 0.0762) (tstamp e85d4b6d-50cc-42b0-8cfa-544b71e53591))
    (model "${KICAD7_3RD_PARTY}/3dmodels/com_github_eez-open_eez-kicad-libraries/PCB-MB-01.stp"
      (offset (xyz -3.5 0 11.35))
      (scale (xyz 1 1 1))
      (rotate (xyz -90 0 0))
    )
  )

  (footprint "PCM_EEZ_unsorted:PCB-MB-01" locked (layer "F.Cu")
    (tstamp b910cf07-1d4e-42a4-81c3-1aa406471e49)
    (at 67.0011 147.0036)
    (property "DigiKey" "RPC1760-ND")
    (property "Mouser" "144-PCB-MB-01 ")
    (property "Sheetfile" "EEZ DIB v1.2 module dimensions.kicad_sch")
    (property "Sheetname" "")
    (property "TME" "RI-PCB-MB-01")
    (property "ki_description" "Mounting Bracket Block 0.1\" (2.54mm), M3 Nylon")
    (path "/9c3d5b88-45c3-448a-a061-5d4138cd699f")
    (fp_text reference "KK2" (at 0 -2.2) (layer "F.SilkS") hide
        (effects (font (size 0.8128 0.8128) (thickness 0.1524) bold))
      (tstamp cdd971df-fbf3-44e4-ae13-1a8d0fceec4b)
    )
    (fp_text value "PCB-MB" (at 0 0) (layer "F.Fab")
        (effects (font (size 1.27 1.27) (thickness 0.15)))
      (tstamp fdb53f38-1fe0-4b11-a5ff-e69e9c888f28)
    )
    (fp_rect (start -11.5 -3) (end 4.5 3)
      (stroke (width 0.05) (type default)) (fill none) (layer "F.CrtYd") (tstamp ad036101-6450-4854-bec8-5a2f75999ead))
    (fp_line (start -11.5 -3) (end -11.5 3)
      (stroke (width 0.254) (type solid)) (layer "F.Fab") (tstamp 29dfcaf5-ee99-478a-b4d7-aba38c751054))
    (fp_line (start -11.5 -3) (end -4.5 -3)
      (stroke (width 0.254) (type solid)) (layer "F.Fab") (tstamp 223a41f2-9641-4ada-8ed7-0ba82e01778b))
    (fp_line (start -11.5 3) (end -4.5 3)
      (stroke (width 0.254) (type solid)) (layer "F.Fab") (tstamp 42b7236b-745d-462f-aba7-7ae2b2ad3648))
    (fp_line (start -4.5 -3) (end -4.5 3)
      (stroke (width 0.254) (type solid)) (layer "F.Fab") (tstamp 8a71f70e-4634-466a-b050-6c31d03d3490))
    (fp_line (start -4.5 -3) (end 4.5 -3)
      (stroke (width 0.254) (type solid)) (layer "F.Fab") (tstamp 856af4a4-d9de-4dd2-a30a-3f30d862c7f4))
    (fp_line (start -4.5 3) (end 4.5 3)
      (stroke (width 0.254) (type solid)) (layer "F.Fab") (tstamp efe290cb-bfc5-4380-99d1-dc186bb5012f))
    (fp_line (start 4.5 -3) (end 4.5 3)
      (stroke (width 0.254) (type solid)) (layer "F.Fab") (tstamp 308482ba-668d-4013-9102-38aea1c56b2f))
    (pad "" thru_hole circle locked (at 0 0) (size 5.5 5.5) (drill 3.2) (layers "*.Cu" "*.Mask")
      (solder_mask_margin 0.0762) (tstamp 8550f8a5-1c3f-4c0e-8c5d-a74a10341b84))
    (model "${KICAD7_3RD_PARTY}/3dmodels/com_github_eez-open_eez-kicad-libraries/PCB-MB-01.stp"
      (offset (xyz -3.5 0 11.35))
      (scale (xyz 1 1 1))
      (rotate (xyz -90 0 0))
    )
  )

  (footprint "PCM_EEZ_connectors:DS1014-10RF1B" locked (layer "F.Cu")
    (tstamp c13f085d-45ef-4413-abcb-64fb9f4f2de8)
    (at 101 65.5)
    (property "DigiKey" "WM8615-ND")
    (property "Mouser" "538-87833-1032 ")
    (property "Sheetfile" "EEZ DIB v1.2 module dimensions.kicad_sch")
    (property "Sheetname" "")
    (property "TME" "DS1014-10RF1B")
    (property "ki_description" "Generic 2x5 pin connector")
    (property "ki_keywords" "connector")
    (path "/92ef6844-5eab-4730-9229-d596b80aa061")
    (attr through_hole)
    (fp_text reference "X3" (at -9.144 -1) (layer "F.SilkS")
        (effects (font (size 0.8128 0.8128) (thickness 0.1524) bold) (justify left bottom))
      (tstamp a9dc2512-e88f-4c34-b429-114139ac9df8)
    )
    (fp_text value "87833-1032" (at 0 -3.4925) (layer "F.Fab")
        (effects (font (size 1.143 1.143) (thickness 0.127)))
      (tstamp 23f77af1-18d4-45fc-b26e-a574c417baaf)
    )
    (fp_line (start -9 -2.52) (end -9 -8.12)
      (stroke (width 0.1524) (type solid)) (layer "F.SilkS") (tstamp d4d4cc4c-ee3a-4b85-9ef7-76e3a8ea8ae5))
    (fp_line (start -2 -8.12) (end -9 -8.12)
      (stroke (width 0.1524) (type solid)) (layer "F.SilkS") (tstamp 6b21a194-5a73-4011-a718-dd2efec28321))
    (fp_line (start -2 -8.12) (end -2 -4.12)
      (stroke (width 0.1524) (type solid)) (layer "F.SilkS") (tstamp fb615177-e07e-4f7a-aa2d-c31f74d89aa5))
    (fp_line (start -2 -8.12) (end 2 -8.12)
      (stroke (width 0.1524) (type solid)) (layer "F.SilkS") (tstamp debbcdf1-586d-482c-836e-0aaf65920c58))
    (fp_line (start 2 -8.12) (end 2 -4.12)
      (stroke (width 0.1524) (type solid)) (layer "F.SilkS") (tstamp 418583aa-120b-4e22-87dc-2809668cde02))
    (fp_line (start 2 -8.12) (end 9 -8.12)
      (stroke (width 0.1524) (type solid)) (layer "F.SilkS") (tstamp 8473fee9-9973-4bc5-85ee-da410090d1b3))
    (fp_line (start 2 -4.12) (end -2 -4.12)
      (stroke (width 0.1524) (type solid)) (layer "F.SilkS") (tstamp 1c98b481-78a6-4ef8-98b3-4aca6327cfe2))
    (fp_line (start 9 -8.12) (end 9 -2.52)
      (stroke (width 0.1524) (type solid)) (layer "F.SilkS") (tstamp caf1995e-7f3c-462e-a731-05a181303858))
    (fp_line (start 9 -2.52) (end -9 -2.52)
      (stroke (width 0.1524) (type solid)) (layer "F.SilkS") (tstamp 60c842be-b48e-4388-8c2b-2547aeb1e26f))
    (fp_poly
      (pts
        (xy -4 -6.465063)
        (xy -4.905833 -8.1635)
        (xy -3.094167 -8.1635)
      )

      (stroke (width 0) (type default)) (fill solid) (layer "F.SilkS") (tstamp dff04c74-5df9-4818-9db8-52fcac474187))
    (pad "1" thru_hole rect locked (at -4 1) (size 1.2 1.2) (drill 0.8) (layers "*.Cu" "*.Mask")
      (net 49 "unconnected-(X3-Pin_1-Pad1)") (pinfunction "Pin_1") (pintype "passive") (solder_mask_margin 0.0762) (thermal_bridge_angle 0) (tstamp 528e4ce1-c596-4658-97e2-feaf3709fe19))
    (pad "2" thru_hole roundrect locked (at -4 -1) (size 1.2 1.2) (drill 0.8) (layers "*.Cu" "*.Mask") (roundrect_rratio 0.25)
      (chamfer_ratio 0.2928932188) (chamfer top_left top_right bottom_left bottom_right)
      (net 50 "unconnected-(X3-Pin_2-Pad2)") (pinfunction "Pin_2") (pintype "passive") (solder_mask_margin 0.0762) (thermal_bridge_angle 0) (tstamp 362f1748-16a2-4610-9f48-1e223218880c))
    (pad "3" thru_hole roundrect locked (at -2 1) (size 1.2 1.2) (drill 0.8) (layers "*.Cu" "*.Mask") (roundrect_rratio 0.25)
      (chamfer_ratio 0.2928932188) (chamfer top_left top_right bottom_left bottom_right)
      (net 51 "unconnected-(X3-Pin_3-Pad3)") (pinfunction "Pin_3") (pintype "passive") (solder_mask_margin 0.0762) (thermal_bridge_angle 0) (tstamp 6692faae-02be-4154-a05d-00e772256a12))
    (pad "4" thru_hole roundrect locked (at -2 -1) (size 1.2 1.2) (drill 0.8) (layers "*.Cu" "*.Mask") (roundrect_rratio 0.25)
      (chamfer_ratio 0.2928932188) (chamfer top_left top_right bottom_left bottom_right)
      (net 52 "unconnected-(X3-Pin_4-Pad4)") (pinfunction "Pin_4") (pintype "passive") (solder_mask_margin 0.0762) (thermal_bridge_angle 0) (tstamp 8b83e8fd-4ea5-4d77-b225-a29ee46dc2a3))
    (pad "5" thru_hole roundrect locked (at 0 1) (size 1.2 1.2) (drill 0.8) (layers "*.Cu" "*.Mask") (roundrect_rratio 0.25)
      (chamfer_ratio 0.2928932188) (chamfer top_left top_right bottom_left bottom_right)
      (net 53 "unconnected-(X3-Pin_5-Pad5)") (pinfunction "Pin_5") (pintype "passive") (solder_mask_margin 0.0762) (thermal_bridge_angle 0) (tstamp 88bea93c-6a74-49f0-a6c5-b9674e355043))
    (pad "6" thru_hole roundrect locked (at 0 -1) (size 1.2 1.2) (drill 0.8) (layers "*.Cu" "*.Mask") (roundrect_rratio 0.25)
      (chamfer_ratio 0.2928932188) (chamfer top_left top_right bottom_left bottom_right)
      (net 54 "unconnected-(X3-Pin_6-Pad6)") (pinfunction "Pin_6") (pintype "passive") (solder_mask_margin 0.0762) (thermal_bridge_angle 0) (tstamp 0224a184-32c3-44bf-b93a-5b0d19bf0d12))
    (pad "7" thru_hole roundrect locked (at 2 1) (size 1.2 1.2) (drill 0.8) (layers "*.Cu" "*.Mask") (roundrect_rratio 0.25)
      (chamfer_ratio 0.2928932188) (chamfer top_left top_right bottom_left bottom_right)
      (net 55 "unconnected-(X3-Pin_7-Pad7)") (pinfunction "Pin_7") (pintype "passive") (solder_mask_margin 0.0762) (thermal_bridge_angle 0) (tstamp cb98020a-c742-4320-8add-deb1cda4b8ab))
    (pad "8" thru_hole roundrect locked (at 2 -1) (size 1.2 1.2) (drill 0.8) (layers "*.Cu" "*.Mask") (roundrect_rratio 0.25)
      (chamfer_ratio 0.2928932188) (chamfer top_left top_right bottom_left bottom_right)
      (net 56 "unconnected-(X3-Pin_8-Pad8)") (pinfunction "Pin_8") (pintype "passive") (solder_mask_margin 0.0762) (thermal_bridge_angle 0) (tstamp 144c7243-f26f-456f-9cc7-c9c55b759852))
    (pad "9" thru_hole roundrect locked (at 4 1) (size 1.2 1.2) (drill 0.8) (layers "*.Cu" "*.Mask") (roundrect_rratio 0.25)
      (chamfer_ratio 0.2928932188) (chamfer top_left top_right bottom_left bottom_right)
      (net 57 "unconnected-(X3-Pin_9-Pad9)") (pinfunction "Pin_9") (pintype "passive") (solder_mask_margin 0.0762) (thermal_bridge_angle 0) (tstamp 53866650-0b9e-44b7-b0f0-9a6b32ba5359))
    (pad "10" thru_hole roundrect locked (at 4 -1) (size 1.2 1.2) (drill 0.8) (layers "*.Cu" "*.Mask") (roundrect_rratio 0.25)
      (chamfer_ratio 0.2928932188) (chamfer top_left top_right bottom_left bottom_right)
      (net 58 "unconnected-(X3-Pin_10-Pad10)") (pinfunction "Pin_10") (pintype "passive") (solder_mask_margin 0.0762) (thermal_bridge_angle 0) (tstamp 03665a1f-4a4a-42e7-8e10-eccd20a2ec33))
    (model "${KICAD7_3RD_PARTY}/3dmodels/com_github_eez-open_eez-kicad-libraries/878331032.stp"
      (offset (xyz 0 4.191 3.175))
      (scale (xyz 1 1 1))
      (rotate (xyz 0 0 0))
    )
  )

  (footprint "PCM_EEZ_connectors:SSW-110-02-T-D-RA" locked (layer "F.Cu")
    (tstamp d17894e1-8739-41d4-b673-f7f180dc999e)
    (at 96.5 140 180)
    (property "DigiKey" "SAM10030-ND")
    (property "Mouser" "200-SSW11002TDRA")
    (property "Sheetfile" "EEZ DIB v1.2 module dimensions.kicad_sch")
    (property "Sheetname" "")
    (property "TME" "ZL263-20DG")
    (property "ki_description" "Generic 2x10 pin connector")
    (property "ki_keywords" "connector")
    (path "/5722e5ec-82ae-4767-a110-ddfb8a645bd3")
    (attr through_hole)
    (fp_text reference locked "X2" (at 21.824 1.1255) (layer "F.SilkS")
        (effects (font (size 1.016 1.016) (thickness 0.1524)) (justify right bottom))
      (tstamp 2d617167-fa52-4d78-947b-1a62c97fb612)
    )
    (fp_text value "ZL263-20DG" (at -0.6096 4.1148) (layer "F.Fab")
        (effects (font (size 1.87452 1.87452) (thickness 0.20828)) (justify right bottom))
      (tstamp d3716492-c410-49b9-bafd-b758f647109b)
    )
    (fp_line (start -1.27 -12.446) (end -1.27 -4.064)
      (stroke (width 0.1524) (type solid)) (layer "F.SilkS") (tstamp b3c2c7ab-d15b-4516-b15b-4a0118bedbe3))
    (fp_line (start -1.27 -4.064) (end 24.13 -4.064)
      (stroke (width 0.1524) (type solid)) (layer "F.SilkS") (tstamp c11a9aed-85dd-4035-b9b3-2e10f3159e0d))
    (fp_line (start 24.13 -12.446) (end -1.27 -12.446)
      (stroke (width 0.1524) (type solid)) (layer "F.SilkS") (tstamp 67ae9395-f236-483f-987e-5f20c584a3bc))
    (fp_line (start 24.13 -4.064) (end 24.13 -12.446)
      (stroke (width 0.1524) (type solid)) (layer "F.SilkS") (tstamp 815aaf73-fd46-4692-8a73-07ef2e0274e6))
    (fp_rect (start -1.4605 -12.6365) (end 24.3205 0.9525)
      (stroke (width 0.05) (type default)) (fill none) (layer "F.CrtYd") (tstamp bc40fad4-2e7c-422a-90bd-017beea3adc6))
    (fp_line (start -1.27 -12.446) (end -1.27 -4.064)
      (stroke (width 0.1524) (type solid)) (layer "F.Fab") (tstamp cd8922c3-b5ad-4eb4-84eb-f211c386baf8))
    (fp_line (start -1.27 -4.064) (end 24.13 -4.064)
      (stroke (width 0.1524) (type solid)) (layer "F.Fab") (tstamp 2dc4d985-b2b0-452e-93b4-bff135b11cb8))
    (fp_line (start 24.13 -12.446) (end -1.27 -12.446)
      (stroke (width 0.1524) (type solid)) (layer "F.Fab") (tstamp 1fc64124-e27f-4aac-8411-cc8175a6f4d7))
    (fp_line (start 24.13 -4.064) (end 24.13 -12.446)
      (stroke (width 0.1524) (type solid)) (layer "F.Fab") (tstamp 30359ec5-aafa-433c-b54a-b5a6b55ac108))
    (pad "1" thru_hole rect locked (at 22.86 -2.54 180) (size 1.5 1.5) (drill 1) (layers "*.Cu" "*.Mask")
      (net 29 "unconnected-(X2-Pin_1-Pad1)") (pinfunction "Pin_1") (pintype "passive") (solder_mask_margin 0.0762) (thermal_bridge_angle 0) (tstamp 16f95a7b-d94d-42cf-8128-760f17860a46))
    (pad "2" thru_hole roundrect locked (at 22.86 0 180) (size 1.5 1.5) (drill 1) (layers "*.Cu" "*.Mask") (roundrect_rratio 0.25)
      (chamfer_ratio 0.2928932188) (chamfer top_left top_right bottom_left bottom_right)
      (net 30 "unconnected-(X2-Pin_2-Pad2)") (pinfunction "Pin_2") (pintype "passive") (solder_mask_margin 0.0762) (thermal_bridge_angle 0) (tstamp 5da308b6-8f17-4626-8d9b-bf809a9847ec))
    (pad "3" thru_hole roundrect locked (at 20.32 -2.54 180) (size 1.5 1.5) (drill 1) (layers "*.Cu" "*.Mask") (roundrect_rratio 0.25)
      (chamfer_ratio 0.2928932188) (chamfer top_left top_right bottom_left bottom_right)
      (net 31 "unconnected-(X2-Pin_3-Pad3)") (pinfunction "Pin_3") (pintype "passive") (solder_mask_margin 0.0762) (thermal_bridge_angle 0) (tstamp fe6e36e5-b55c-4e39-be4e-aa27ce9535f2))
    (pad "4" thru_hole roundrect locked (at 20.32 0 180) (size 1.5 1.5) (drill 1) (layers "*.Cu" "*.Mask") (roundrect_rratio 0.25)
      (chamfer_ratio 0.2928932188) (chamfer top_left top_right bottom_left bottom_right)
      (net 32 "unconnected-(X2-Pin_4-Pad4)") (pinfunction "Pin_4") (pintype "passive") (solder_mask_margin 0.0762) (thermal_bridge_angle 0) (tstamp 91e1ff60-9cf1-4f5c-890a-b49abe0172a6))
    (pad "5" thru_hole roundrect locked (at 17.78 -2.54 180) (size 1.5 1.5) (drill 1) (layers "*.Cu" "*.Mask") (roundrect_rratio 0.25)
      (chamfer_ratio 0.2928932188) (chamfer top_left top_right bottom_left bottom_right)
      (net 33 "unconnected-(X2-Pin_5-Pad5)") (pinfunction "Pin_5") (pintype "passive") (solder_mask_margin 0.0762) (thermal_bridge_angle 0) (tstamp afc3556a-d030-4b74-b20f-352f5492549a))
    (pad "6" thru_hole roundrect locked (at 17.78 0 180) (size 1.5 1.5) (drill 1) (layers "*.Cu" "*.Mask") (roundrect_rratio 0.25)
      (chamfer_ratio 0.2928932188) (chamfer top_left top_right bottom_left bottom_right)
      (net 34 "unconnected-(X2-Pin_6-Pad6)") (pinfunction "Pin_6") (pintype "passive") (solder_mask_margin 0.0762) (thermal_bridge_angle 0) (tstamp 2d0130da-7e9c-44fc-82b1-f448d6e5971f))
    (pad "7" thru_hole roundrect locked (at 15.24 -2.54 180) (size 1.5 1.5) (drill 1) (layers "*.Cu" "*.Mask") (roundrect_rratio 0.25)
      (chamfer_ratio 0.2928932188) (chamfer top_left top_right bottom_left bottom_right)
      (net 35 "unconnected-(X2-Pin_7-Pad7)") (pinfunction "Pin_7") (pintype "passive") (solder_mask_margin 0.0762) (thermal_bridge_angle 0) (tstamp a9654d66-df91-410a-b739-b8dc7291d83c))
    (pad "8" thru_hole roundrect locked (at 15.24 0 180) (size 1.5 1.5) (drill 1) (layers "*.Cu" "*.Mask") (roundrect_rratio 0.25)
      (chamfer_ratio 0.2928932188) (chamfer top_left top_right bottom_left bottom_right)
      (net 36 "unconnected-(X2-Pin_8-Pad8)") (pinfunction "Pin_8") (pintype "passive") (solder_mask_margin 0.0762) (thermal_bridge_angle 0) (tstamp 104e02d0-65cd-4f9b-9412-d7c84fb94dea))
    (pad "9" thru_hole roundrect locked (at 12.7 -2.54 180) (size 1.5 1.5) (drill 1) (layers "*.Cu" "*.Mask") (roundrect_rratio 0.25)
      (chamfer_ratio 0.2928932188) (chamfer top_left top_right bottom_left bottom_right)
      (net 37 "unconnected-(X2-Pin_9-Pad9)") (pinfunction "Pin_9") (pintype "passive") (solder_mask_margin 0.0762) (thermal_bridge_angle 0) (tstamp 7037f8ef-e139-4faa-9db5-417e149d66d7))
    (pad "10" thru_hole roundrect locked (at 12.7 0 180) (size 1.5 1.5) (drill 1) (layers "*.Cu" "*.Mask") (roundrect_rratio 0.25)
      (chamfer_ratio 0.2928932188) (chamfer top_left top_right bottom_left bottom_right)
      (net 38 "unconnected-(X2-Pin_10-Pad10)") (pinfunction "Pin_10") (pintype "passive") (solder_mask_margin 0.0762) (thermal_bridge_angle 0) (tstamp e18bbfbd-719f-4bcb-b95f-4a956db3f0f7))
    (pad "11" thru_hole roundrect locked (at 10.16 -2.54 180) (size 1.5 1.5) (drill 1) (layers "*.Cu" "*.Mask") (roundrect_rratio 0.25)
      (chamfer_ratio 0.2928932188) (chamfer top_left top_right bottom_left bottom_right)
      (net 39 "unconnected-(X2-Pin_11-Pad11)") (pinfunction "Pin_11") (pintype "passive") (solder_mask_margin 0.0762) (thermal_bridge_angle 0) (tstamp 2b8cc7a5-7b6b-4fed-8306-e2287d202308))
    (pad "12" thru_hole roundrect locked (at 10.16 0 180) (size 1.5 1.5) (drill 1) (layers "*.Cu" "*.Mask") (roundrect_rratio 0.25)
      (chamfer_ratio 0.2928932188) (chamfer top_left top_right bottom_left bottom_right)
      (net 40 "unconnected-(X2-Pin_12-Pad12)") (pinfunction "Pin_12") (pintype "passive") (solder_mask_margin 0.0762) (thermal_bridge_angle 0) (tstamp b4082d48-6dc3-4657-adfb-20024ecbb375))
    (pad "13" thru_hole roundrect locked (at 7.62 -2.54 180) (size 1.5 1.5) (drill 1) (layers "*.Cu" "*.Mask") (roundrect_rratio 0.25)
      (chamfer_ratio 0.2928932188) (chamfer top_left top_right bottom_left bottom_right)
      (net 41 "unconnected-(X2-Pin_13-Pad13)") (pinfunction "Pin_13") (pintype "passive") (solder_mask_margin 0.0762) (thermal_bridge_angle 0) (tstamp 184a626c-7fb8-4999-82ae-21362e93f844))
    (pad "14" thru_hole roundrect locked (at 7.62 0 180) (size 1.5 1.5) (drill 1) (layers "*.Cu" "*.Mask") (roundrect_rratio 0.25)
      (chamfer_ratio 0.2928932188) (chamfer top_left top_right bottom_left bottom_right)
      (net 42 "unconnected-(X2-Pin_14-Pad14)") (pinfunction "Pin_14") (pintype "passive") (solder_mask_margin 0.0762) (thermal_bridge_angle 0) (tstamp 8e4c510b-c117-4ee6-a451-26a6f5459589))
    (pad "15" thru_hole roundrect locked (at 5.08 -2.54 180) (size 1.5 1.5) (drill 1) (layers "*.Cu" "*.Mask") (roundrect_rratio 0.25)
      (chamfer_ratio 0.2928932188) (chamfer top_left top_right bottom_left bottom_right)
      (net 43 "unconnected-(X2-Pin_15-Pad15)") (pinfunction "Pin_15") (pintype "passive") (solder_mask_margin 0.0762) (thermal_bridge_angle 0) (tstamp 6da263ed-d1c1-4b5a-88bd-1171bdf5c8c2))
    (pad "16" thru_hole roundrect locked (at 5.08 0 180) (size 1.5 1.5) (drill 1) (layers "*.Cu" "*.Mask") (roundrect_rratio 0.25)
      (chamfer_ratio 0.2928932188) (chamfer top_left top_right bottom_left bottom_right)
      (net 44 "unconnected-(X2-Pin_16-Pad16)") (pinfunction "Pin_16") (pintype "passive") (solder_mask_margin 0.0762) (thermal_bridge_angle 0) (tstamp 2c7ed6cf-521c-458f-9b90-affbf8a50c2c))
    (pad "17" thru_hole roundrect locked (at 2.54 -2.54 180) (size 1.5 1.5) (drill 1) (layers "*.Cu" "*.Mask") (roundrect_rratio 0.25)
      (chamfer_ratio 0.2928932188) (chamfer top_left top_right bottom_left bottom_right)
      (net 45 "unconnected-(X2-Pin_17-Pad17)") (pinfunction "Pin_17") (pintype "passive") (solder_mask_margin 0.0762) (thermal_bridge_angle 0) (tstamp 2860400f-db64-423e-9781-f0dcde50211a))
    (pad "18" thru_hole roundrect locked (at 2.54 0 180) (size 1.5 1.5) (drill 1) (layers "*.Cu" "*.Mask") (roundrect_rratio 0.25)
      (chamfer_ratio 0.2928932188) (chamfer top_left top_right bottom_left bottom_right)
      (net 46 "unconnected-(X2-Pin_18-Pad18)") (pinfunction "Pin_18") (pintype "passive") (solder_mask_margin 0.0762) (thermal_bridge_angle 0) (tstamp 6390e2e3-ba01-4507-a9d4-3abf68202fff))
    (pad "19" thru_hole roundrect locked (at 0 -2.54 180) (size 1.5 1.5) (drill 1) (layers "*.Cu" "*.Mask") (roundrect_rratio 0.25)
      (chamfer_ratio 0.2928932188) (chamfer top_left top_right bottom_left bottom_right)
      (net 47 "unconnected-(X2-Pin_19-Pad19)") (pinfunction "Pin_19") (pintype "passive") (solder_mask_margin 0.0762) (thermal_bridge_angle 0) (tstamp d4325559-671c-47ed-9735-564224157ce7))
    (pad "20" thru_hole roundrect locked (at 0 0 180) (size 1.5 1.5) (drill 1) (layers "*.Cu" "*.Mask") (roundrect_rratio 0.25)
      (chamfer_ratio 0.2928932188) (chamfer top_left top_right bottom_left bottom_right)
      (net 48 "unconnected-(X2-Pin_20-Pad20)") (pinfunction "Pin_20") (pintype "passive") (solder_mask_margin 0.0762) (thermal_bridge_angle 0) (tstamp b52070f9-dd9f-4c69-9e7b-563bf4ed8446))
    (model "${KICAD7_3RD_PARTY}/3dmodels/com_github_eez-open_eez-kicad-libraries/SSW-110-02-T-D-RA.stp"
      (offset (xyz 11.43 4.064 2.4892))
      (scale (xyz 1 1 1))
      (rotate (xyz 180 0 180))
    )
  )

  (gr_line (start 239.5011 152.5036) (end 144.5011 152.5036)
    (stroke (width 0.1) (type solid)) (layer "Edge.Cuts") (tstamp 08d04113-5933-4240-88ba-c1da60184a81))
  (gr_line locked (start 62.5011 151.0036) (end 62.5011 143.5036)
    (stroke (width 0.1) (type solid)) (layer "Edge.Cuts") (tstamp 1298a520-2fdf-4942-a3ae-e29e533d0d4f))
  (gr_line locked (start 62.5011 66.5036) (end 62.5011 59.0036)
    (stroke (width 0.1) (type solid)) (layer "Edge.Cuts") (tstamp 132b2771-22ab-43fc-bb95-4ad651a4bce8))
  (gr_arc locked (start 57.5011 143.5036) (mid 56.44044 143.06426) (end 56.0011 142.0036)
    (stroke (width 0.1) (type solid)) (layer "Edge.Cuts") (tstamp 1688c6f9-9805-4e37-aafe-4f91dadbb0ab))
  (gr_line locked (start 62.5011 143.5036) (end 57.5011 143.5036)
    (stroke (width 0.1) (type solid)) (layer "Edge.Cuts") (tstamp 3b07432d-173d-47f3-b316-7ca187d6391d))
  (gr_arc (start 241.0011 151.0036) (mid 240.56176 152.06426) (end 239.5011 152.5036)
    (stroke (width 0.1) (type solid)) (layer "Edge.Cuts") (tstamp 404410ec-0fd4-42c8-9ac3-0afd50ce3a5e))
  (gr_arc locked (start 62.5011 59.0036) (mid 62.94044 57.94294) (end 64.0011 57.5036)
    (stroke (width 0.1) (type solid)) (layer "Edge.Cuts") (tstamp 61b5a77a-ae95-4519-910d-b4c3397b2dfd))
  (gr_line (start 144.5011 57.5036) (end 239.5011 57.5036)
    (stroke (width 0.1) (type solid)) (layer "Edge.Cuts") (tstamp 68513866-f6e3-4697-b7e2-3fc7b176e632))
  (gr_arc (start 239.5011 57.5036) (mid 240.56176 57.94294) (end 241.0011 59.0036)
    (stroke (width 0.1) (type solid)) (layer "Edge.Cuts") (tstamp 84fe8605-4233-4dfe-8371-cc4b43ababab))
  (gr_line (start 64.0011 57.5036) (end 144.5011 57.5036)
    (stroke (width 0.1) (type solid)) (layer "Edge.Cuts") (tstamp 85f5cf50-6563-404d-b730-dc01c7aed90b))
  (gr_arc locked (start 64.0011 152.5036) (mid 62.94044 152.06426) (end 62.5011 151.0036)
    (stroke (width 0.1) (type solid)) (layer "Edge.Cuts") (tstamp a9203a68-597d-45ff-b8af-31b61b8f7839))
  (gr_line locked (start 62.5011 66.5036) (end 57.5011 66.5036)
    (stroke (width 0.1) (type solid)) (layer "Edge.Cuts") (tstamp b8977916-358d-49c6-835e-6d04a053eedb))
  (gr_line locked (start 56.0011 142.0036) (end 56.0011 68.0036)
    (stroke (width 0.1) (type solid)) (layer "Edge.Cuts") (tstamp d59df7fa-4703-44ee-9ab6-3c0a0f5b11a2))
  (gr_line (start 241.0011 151.0036) (end 241.0011 59.0036)
    (stroke (width 0.1) (type solid)) (layer "Edge.Cuts") (tstamp d726190a-b229-403c-9015-ef7f56a96afd))
  (gr_arc locked (start 56.0011 68.0036) (mid 56.44044 66.94294) (end 57.5011 66.5036)
    (stroke (width 0.1) (type solid)) (layer "Edge.Cuts") (tstamp d8658793-18aa-480b-9b38-fc75ef3ccc48))
  (gr_line (start 144.5011 152.5036) (end 64.0011 152.5036)
    (stroke (width 0.1) (type solid)) (layer "Edge.Cuts") (tstamp e8e41ecd-d313-48c7-8a93-195bc369f05d))
  (gr_arc (start 144.5011 57.5036) (mid 145.56176 57.94294) (end 146.0011 59.0036)
    (stroke (width 0.1) (type dot)) (layer "User.2") (tstamp 3fd02ac2-c443-447a-a198-aa9e7afe3324))
  (gr_line (start 143.5 65) (end 145.5 65)
    (stroke (width 0.1) (type default)) (layer "User.2") (tstamp 4e38930e-00fc-4d81-a174-279d68d09730))
  (gr_line (start 145.5 65) (end 145 65.5)
    (stroke (width 0.1) (type default)) (layer "User.2") (tstamp 5a036a39-f49d-4320-9893-27b683869bda))
  (gr_line (start 240.5 65) (end 240 65.5)
    (stroke (width 0.1) (type default)) (layer "User.2") (tstamp 710dac0e-5e99-4d0a-8b97-4ff98427c0d3))
  (gr_rect (start 54 48) (end 55.5 161)
    (stroke (width 0.1) (type solid)) (fill solid) (layer "User.2") (tstamp 7824e666-d995-404f-9d32-25711ce041d0))
  (gr_line (start 240.5 65) (end 240 64.5)
    (stroke (width 0.1) (type default)) (layer "User.2") (tstamp 8a3c4216-ed70-4e63-b4c1-1ec930d81154))
  (gr_line (start 238.5 65) (end 240.5 65)
    (stroke (width 0.1) (type default)) (layer "User.2") (tstamp a13feacc-16af-4a26-bcf0-11b4d9490f25))
  (gr_line (start 145.5 65) (end 145 64.5)
    (stroke (width 0.1) (type default)) (layer "User.2") (tstamp ab201849-5232-4d20-9cdc-fea0e37441c9))
  (gr_line (start 146.0011 151.0036) (end 146.0011 59.0036)
    (stroke (width 0.1) (type dot)) (layer "User.2") (tstamp f1d816b3-afb3-4316-afab-c687cb0fc9e6))
  (gr_arc (start 146.0011 151.0036) (mid 145.56176 152.06426) (end 144.5011 152.5036)
    (stroke (width 0.1) (type dot)) (layer "User.2") (tstamp fc4a3336-c8c8-4ea2-8167-7f7e69b31a0a))
  (gr_text "ADIB#1" (at 91.7506 58.5236) (layer "F.SilkS") (tstamp 2f464a21-adcf-4180-98bd-5ff8edb11940)
    (effects (font (size 0.8128 0.8128) (thickness 0.1524) bold) (justify right top))
  )
  (gr_text "ADIB#2" (at 130.4221 59.7936) (layer "F.SilkS") (tstamp 6efaa043-974d-4a6d-ae33-a0236a6b0c73)
    (effects (font (size 0.8128 0.8128) (thickness 0.1524) bold) (justify left bottom))
  )
  (gr_text "Min. module width" (at 144.5611 79.1936 90) (layer "F.Fab") (tstamp 234d2158-e21c-485e-8bac-0c0112596397)
    (effects (font (size 1.6002 1.6002) (thickness 0.1778)) (justify left bottom))
  )
  (gr_text "Max. module width\n(for EEZ BB3 chassis!)" (at 214.3701 63.7306) (layer "F.Fab") (tstamp a504be3a-c255-492b-9efc-20312db9ab7f)
    (effects (font (size 1.6002 1.6002) (thickness 0.1778)) (justify left bottom))
  )
  (gr_text "Max. size" (at 231.5 65.5) (layer "User.2") (tstamp 8b08ca4f-986e-48bc-bad1-34e5430f06c4)
    (effects (font (size 1 1) (thickness 0.15)) (justify left bottom))
  )
  (gr_text "Min. size" (at 136.5 65.5) (layer "User.2") (tstamp bf46d6ba-b139-4edc-be1a-ba2ac5c76ca4)
    (effects (font (size 1 1) (thickness 0.15)) (justify left bottom))
  )
  (dimension (type aligned) (layer "User.1") (tstamp 0d60f624-ae17-4465-be0f-6f22b6ccdd36)
    (pts (xy 96.5 140) (xy 56 140))
    (height 3.2464)
    (gr_text "40,5 mm" (at 76.25 135.6036) (layer "User.1") (tstamp 0d60f624-ae17-4465-be0f-6f22b6ccdd36)
      (effects (font (size 1 1) (thickness 0.15)))
    )
    (format (prefix "") (suffix "") (units 3) (units_format 1) (precision 1))
    (style (thickness 0.1) (arrow_length 1.27) (text_position_mode 0) (extension_height 0.58642) (extension_offset 0.5) keep_text_aligned)
  )
  (dimension (type aligned) (layer "User.1") (tstamp 0f09bdde-8b60-4aab-a394-8ea227e722de)
    (pts (xy 54 152.5) (xy 54 161))
    (height 2.5)
    (gr_text "8,5 mm" (at 50.35 156.75 90) (layer "User.1") (tstamp 0f09bdde-8b60-4aab-a394-8ea227e722de)
      (effects (font (size 1 1) (thickness 0.15)))
    )
    (format (prefix "") (suffix "") (units 3) (units_format 1) (precision 1))
    (style (thickness 0.1) (arrow_length 1.27) (text_position_mode 0) (extension_height 0.58642) (extension_offset 0.5) keep_text_aligned)
  )
  (dimension (type aligned) (layer "User.1") (tstamp 1c6c7ae7-9a7a-485a-919c-380be9a2e57a)
    (pts (xy 90.5 66.5) (xy 90.5 57.5))
    (height -4)
    (gr_text "9,0 mm" (at 85.35 62 90) (layer "User.1") (tstamp 1c6c7ae7-9a7a-485a-919c-380be9a2e57a)
      (effects (font (size 1 1) (thickness 0.15)))
    )
    (format (prefix "") (suffix "") (units 3) (units_format 1) (precision 1))
    (style (thickness 0.1) (arrow_length 1.27) (text_position_mode 0) (extension_height 0.58642) (extension_offset 0.5) keep_text_aligned)
  )
  (dimension (type aligned) (layer "User.1") (tstamp 1d89c44d-3878-4d07-b68f-ddbcc0379dc5)
    (pts (xy 60.5 152.5) (xy 60.5 147))
    (height -7.5)
    (gr_text "5,5 mm" (at 51.85 149.75 90) (layer "User.1") (tstamp 1d89c44d-3878-4d07-b68f-ddbcc0379dc5)
      (effects (font (size 1 1) (thickness 0.15)))
    )
    (format (prefix "") (suffix "") (units 3) (units_format 1) (precision 1))
    (style (thickness 0.1) (arrow_length 1.27) (text_position_mode 0) (extension_height 0.58642) (extension_offset 0.5) keep_text_aligned)
  )
  (dimension (type aligned) (layer "User.1") (tstamp 1f8d0738-0016-42c7-a258-a0db36262f3e)
    (pts (xy 62.5011 143.5036) (xy 56 143.5))
    (height 1.972083)
    (gr_text "6,5 mm" (at 59.252279 140.379717 -0.03172767457) (layer "User.1") (tstamp 1f8d0738-0016-42c7-a258-a0db36262f3e)
      (effects (font (size 1 1) (thickness 0.15)))
    )
    (format (prefix "") (suffix "") (units 3) (units_format 1) (precision 1))
    (style (thickness 0.1) (arrow_length 1.27) (text_position_mode 0) (extension_height 0.58642) (extension_offset 0.5) keep_text_aligned)
  )
  (dimension (type aligned) (layer "User.1") (tstamp 2342d376-ebb8-4e0b-902a-e03ea82eb86c)
    (pts (xy 121 68) (xy 56 68))
    (height -8)
    (gr_text "65,0 mm" (at 88.5 74.85) (layer "User.1") (tstamp 2342d376-ebb8-4e0b-902a-e03ea82eb86c)
      (effects (font (size 1 1) (thickness 0.15)))
    )
    (format (prefix "") (suffix "") (units 3) (units_format 1) (precision 1))
    (style (thickness 0.1) (arrow_length 1.27) (text_position_mode 0) (extension_height 0.58642) (extension_offset 0.5) keep_text_aligned)
  )
  (dimension (type aligned) (layer "User.1") (tstamp 2a530bd1-5151-4560-bb71-883fbeed51d6)
    (pts (xy 60.5 63) (xy 60.5 57.5))
    (height -7.5)
    (gr_text "5,5 mm" (at 51.85 60.25 90) (layer "User.1") (tstamp 2a530bd1-5151-4560-bb71-883fbeed51d6)
      (effects (font (size 1 1) (thickness 0.15)))
    )
    (format (prefix "") (suffix "") (units 3) (units_format 1) (precision 1))
    (style (thickness 0.1) (arrow_length 1.27) (text_position_mode 0) (extension_height 0.58642) (extension_offset 0.5) keep_text_aligned)
  )
  (dimension (type aligned) (layer "User.1") (tstamp 37e1be77-419b-4655-bb3c-892119ab6dcd)
    (pts (xy 54 161) (xy 54 48))
    (height -8)
    (gr_text "113,0 mm" (at 44.85 104.5 90) (layer "User.1") (tstamp 37e1be77-419b-4655-bb3c-892119ab6dcd)
      (effects (font (size 1 1) (thickness 0.15)))
    )
    (format (prefix "") (suffix "") (units 3) (units_format 1) (precision 1))
    (style (thickness 0.1) (arrow_length 1.27) (text_position_mode 0) (extension_height 0.58642) (extension_offset 0.5) keep_text_aligned)
  )
  (dimension (type aligned) (layer "User.1") (tstamp 4197d5c1-9bae-47be-a868-771cc7867d5d)
    (pts (xy 52.5 48) (xy 52.5 57.5))
    (height 2.5)
    (gr_text "9,5 mm" (at 48.85 52.75 90) (layer "User.1") (tstamp 4197d5c1-9bae-47be-a868-771cc7867d5d)
      (effects (font (size 1 1) (thickness 0.15)))
    )
    (format (prefix "") (suffix "") (units 3) (units_format 1) (precision 1))
    (style (thickness 0.1) (arrow_length 1.27) (text_position_mode 0) (extension_height 0.58642) (extension_offset 0.5) keep_text_aligned)
  )
  (dimension (type aligned) (layer "User.1") (tstamp 4a05f238-d7f2-41e9-9830-fab0f167720e)
    (pts (xy 56.0011 153.7536) (xy 146.0011 153.7536))
    (height 2.2464)
    (gr_text "90,0 mm" (at 101.0011 154.85) (layer "User.1") (tstamp 4a05f238-d7f2-41e9-9830-fab0f167720e)
      (effects (font (size 1 1) (thickness 0.15)))
    )
    (format (prefix "") (suffix "") (units 3) (units_format 1) (precision 1))
    (style (thickness 0.1) (arrow_length 1.27) (text_position_mode 0) (extension_height 0.58642) (extension_offset 0.5) keep_text_aligned)
  )
  (dimension (type aligned) (layer "User.1") (tstamp 5c11fcba-8744-4b94-b867-fccdec251004)
    (pts (xy 101 68) (xy 56 68))
    (height -5)
    (gr_text "45,0 mm" (at 78.5 71.85) (layer "User.1") (tstamp 5c11fcba-8744-4b94-b867-fccdec251004)
      (effects (font (size 1 1) (thickness 0.15)))
    )
    (format (prefix "") (suffix "") (units 3) (units_format 1) (precision 1))
    (style (thickness 0.1) (arrow_length 1.27) (text_position_mode 0) (extension_height 0.58642) (extension_offset 0.5) keep_text_aligned)
  )
  (dimension (type aligned) (layer "User.1") (tstamp a39e83f4-fbd7-4575-bc2c-b65a4951be6d)
    (pts (xy 143.54 140) (xy 96.5 140))
    (height 3.2464)
    (gr_text "47,0 mm" (at 120.02 135.6036) (layer "User.1") (tstamp a39e83f4-fbd7-4575-bc2c-b65a4951be6d)
      (effects (font (size 1 1) (thickness 0.15)))
    )
    (format (prefix "") (suffix "") (units 3) (units_format 1) (precision 1))
    (style (thickness 0.1) (arrow_length 1.27) (text_position_mode 0) (extension_height 0.58642) (extension_offset 0.5) keep_text_aligned)
  )
  (dimension (type aligned) (layer "User.1") (tstamp ab5a44d3-fbff-416b-ae45-9ee65f421682)
    (pts (xy 56 147) (xy 56 143.5))
    (height -4.5)
    (gr_text "3,5 mm" (at 50.35 145.25 90) (layer "User.1") (tstamp ab5a44d3-fbff-416b-ae45-9ee65f421682)
      (effects (font (size 1 1) (thickness 0.15)))
    )
    (format (prefix "") (suffix "") (units 3) (units_format 1) (precision 1))
    (style (thickness 0.1) (arrow_length 1.27) (text_position_mode 0) (extension_height 0.58642) (extension_offset 0.5) keep_text_aligned)
  )
  (dimension (type aligned) (layer "User.1") (tstamp b4011577-7d4e-49e0-bbcc-9d4532db0dd4)
    (pts (xy 56 159) (xy 241 159))
    (height 0)
    (gr_text "185,0 mm" (at 148.5 157.85) (layer "User.1") (tstamp b4011577-7d4e-49e0-bbcc-9d4532db0dd4)
      (effects (font (size 1 1) (thickness 0.15)))
    )
    (format (prefix "") (suffix "") (units 3) (units_format 1) (precision 1))
    (style (thickness 0.1) (arrow_length 1.27) (text_position_mode 0) (extension_height 0.58642) (extension_offset 0) keep_text_aligned)
  )
  (dimension (type aligned) (layer "User.1") (tstamp e4342e55-56cc-4a4f-8ecf-af15eec2e3f0)
    (pts (xy 55.5 66.5) (xy 55.5 63))
    (height -4.5)
    (gr_text "3,5 mm" (at 49.85 64.75 90) (layer "User.1") (tstamp e4342e55-56cc-4a4f-8ecf-af15eec2e3f0)
      (effects (font (size 1 1) (thickness 0.15)))
    )
    (format (prefix "") (suffix "") (units 3) (units_format 1) (precision 1))
    (style (thickness 0.1) (arrow_length 1.27) (text_position_mode 0) (extension_height 0.58642) (extension_offset 0.5) keep_text_aligned)
  )
  (dimension (type orthogonal) (layer "User.1") (tstamp 37d4e71a-668c-4a9c-90e5-831016563607)
    (pts (xy 146.5 140) (xy 151.5 152.5))
    (height 1.5)
    (orientation 1)
    (gr_text "12,50 mm" (at 146.85 146.25 90) (layer "User.1") (tstamp 37d4e71a-668c-4a9c-90e5-831016563607)
      (effects (font (size 1 1) (thickness 0.15)))
    )
    (format (prefix "") (suffix "") (units 3) (units_format 1) (precision 2))
    (style (thickness 0.1) (arrow_length 1.27) (text_position_mode 0) (extension_height 0.58642) (extension_offset 0.5) keep_text_aligned)
  )
  (dimension (type orthogonal) (layer "User.1") (tstamp 6abb5e34-c94b-4dd8-8dac-1ea0de489dda)
    (pts (xy 184 57.5) (xy 181.5 152.5))
    (height 0)
    (orientation 1)
    (gr_text "95,0 mm" (at 182.85 105 90) (layer "User.1") (tstamp 6abb5e34-c94b-4dd8-8dac-1ea0de489dda)
      (effects (font (size 1 1) (thickness 0.15)))
    )
    (format (prefix "") (suffix "") (units 3) (units_format 1) (precision 1))
    (style (thickness 0.1) (arrow_length 1.27) (text_position_mode 0) (extension_height 0.58642) (extension_offset 0.5) keep_text_aligned)
  )
  (dimension (type orthogonal) (layer "User.1") (tstamp 74687027-3d62-478d-95c9-cd5512a1fd18)
    (pts (xy 56 139) (xy 67 146))
    (height 0)
    (orientation 0)
    (gr_text "11,0 mm" (at 61.5 137.85) (layer "User.1") (tstamp 74687027-3d62-478d-95c9-cd5512a1fd18)
      (effects (font (size 1 1) (thickness 0.15)))
    )
    (format (prefix "") (suffix "") (units 3) (units_format 1) (precision 1))
    (style (thickness 0.1) (arrow_length 1.27) (text_position_mode 0) (extension_height 0.58642) (extension_offset 0.5) keep_text_aligned)
  )
  (dimension (type orthogonal) (layer "User.1") (tstamp 8a05c728-12c5-487c-87e6-94324fe5eccd)
    (pts (xy 99 140) (xy 104 152.5))
    (height 1.5)
    (orientation 1)
    (gr_text "12,50 mm" (at 99.35 146.25 90) (layer "User.1") (tstamp 8a05c728-12c5-487c-87e6-94324fe5eccd)
      (effects (font (size 1 1) (thickness 0.15)))
    )
    (format (prefix "") (suffix "") (units 3) (units_format 1) (precision 2))
    (style (thickness 0.1) (arrow_length 1.27) (text_position_mode 0) (extension_height 0.58642) (extension_offset 0.5) keep_text_aligned)
  )

)
